 2017-02-06 20:05:20.124456+01 | 1486407920.12446 | pgbench_branches_pkey |          1327104
 2017-02-06 20:05:20.124456+01 | 1486407920.12446 | pgbench_tellers_pkey  |          4694016
 2017-02-06 20:05:20.124456+01 | 1486407920.12446 | pgbench_accounts_pkey |       2246197248

 2017-02-06 20:05:21.219345+01 | 1486407921.21935 | pgbench_branches_pkey |          1327104
 2017-02-06 20:05:21.219345+01 | 1486407921.21935 | pgbench_tellers_pkey  |          4694016
 2017-02-06 20:05:21.219345+01 | 1486407921.21935 | pgbench_accounts_pkey |       2246197248

 2017-02-06 20:05:22.29465+01 | 1486407922.29465 | pgbench_branches_pkey |          1327104
 2017-02-06 20:05:22.29465+01 | 1486407922.29465 | pgbench_tellers_pkey  |          4694016
 2017-02-06 20:05:22.29465+01 | 1486407922.29465 | pgbench_accounts_pkey |       2246197248

 2017-02-06 20:05:23.373399+01 | 1486407923.3734 | pgbench_branches_pkey |          1327104
 2017-02-06 20:05:23.373399+01 | 1486407923.3734 | pgbench_tellers_pkey  |          4694016
 2017-02-06 20:05:23.373399+01 | 1486407923.3734 | pgbench_accounts_pkey |       2246197248

 2017-02-06 20:05:24.451812+01 | 1486407924.45181 | pgbench_branches_pkey |          1327104
 2017-02-06 20:05:24.451812+01 | 1486407924.45181 | pgbench_tellers_pkey  |          4694016
 2017-02-06 20:05:24.451812+01 | 1486407924.45181 | pgbench_accounts_pkey |       2246197248

 2017-02-06 20:05:25.533176+01 | 1486407925.53318 | pgbench_branches_pkey |          1327104
 2017-02-06 20:05:25.533176+01 | 1486407925.53318 | pgbench_tellers_pkey  |          4694016
 2017-02-06 20:05:25.533176+01 | 1486407925.53318 | pgbench_accounts_pkey |       2246197248

 2017-02-06 20:05:26.613248+01 | 1486407926.61325 | pgbench_branches_pkey |          1327104
 2017-02-06 20:05:26.613248+01 | 1486407926.61325 | pgbench_tellers_pkey  |          4694016
 2017-02-06 20:05:26.613248+01 | 1486407926.61325 | pgbench_accounts_pkey |       2246197248

 2017-02-06 20:05:27.690326+01 | 1486407927.69033 | pgbench_branches_pkey |          1327104
 2017-02-06 20:05:27.690326+01 | 1486407927.69033 | pgbench_tellers_pkey  |          4694016
 2017-02-06 20:05:27.690326+01 | 1486407927.69033 | pgbench_accounts_pkey |       2246197248

 2017-02-06 20:05:28.773449+01 | 1486407928.77345 | pgbench_branches_pkey |          1327104
 2017-02-06 20:05:28.773449+01 | 1486407928.77345 | pgbench_tellers_pkey  |          4694016
 2017-02-06 20:05:28.773449+01 | 1486407928.77345 | pgbench_accounts_pkey |       2246197248

 2017-02-06 20:05:29.847837+01 | 1486407929.84784 | pgbench_branches_pkey |          1327104
 2017-02-06 20:05:29.847837+01 | 1486407929.84784 | pgbench_tellers_pkey  |          4694016
 2017-02-06 20:05:29.847837+01 | 1486407929.84784 | pgbench_accounts_pkey |       2246197248

 2017-02-06 20:05:30.923651+01 | 1486407930.92365 | pgbench_branches_pkey |          1327104
 2017-02-06 20:05:30.923651+01 | 1486407930.92365 | pgbench_tellers_pkey  |          4694016
 2017-02-06 20:05:30.923651+01 | 1486407930.92365 | pgbench_accounts_pkey |       2246197248

 2017-02-06 20:05:31.997577+01 | 1486407931.99758 | pgbench_branches_pkey |          1327104
 2017-02-06 20:05:31.997577+01 | 1486407931.99758 | pgbench_tellers_pkey  |          4694016
 2017-02-06 20:05:31.997577+01 | 1486407931.99758 | pgbench_accounts_pkey |       2246197248

 2017-02-06 20:05:33.075063+01 | 1486407933.07506 | pgbench_branches_pkey |          1327104
 2017-02-06 20:05:33.075063+01 | 1486407933.07506 | pgbench_tellers_pkey  |          4694016
 2017-02-06 20:05:33.075063+01 | 1486407933.07506 | pgbench_accounts_pkey |       2246197248

 2017-02-06 20:05:34.150167+01 | 1486407934.15017 | pgbench_branches_pkey |          1327104
 2017-02-06 20:05:34.150167+01 | 1486407934.15017 | pgbench_tellers_pkey  |          4694016
 2017-02-06 20:05:34.150167+01 | 1486407934.15017 | pgbench_accounts_pkey |       2246197248

 2017-02-06 20:05:35.230915+01 | 1486407935.23092 | pgbench_branches_pkey |          1327104
 2017-02-06 20:05:35.230915+01 | 1486407935.23092 | pgbench_tellers_pkey  |          4694016
 2017-02-06 20:05:35.230915+01 | 1486407935.23092 | pgbench_accounts_pkey |       2246197248

 2017-02-06 20:05:36.311227+01 | 1486407936.31123 | pgbench_branches_pkey |          1327104
 2017-02-06 20:05:36.311227+01 | 1486407936.31123 | pgbench_tellers_pkey  |          4694016
 2017-02-06 20:05:36.311227+01 | 1486407936.31123 | pgbench_accounts_pkey |       2246197248

 2017-02-06 20:05:37.389951+01 | 1486407937.38995 | pgbench_branches_pkey |          1327104
 2017-02-06 20:05:37.389951+01 | 1486407937.38995 | pgbench_tellers_pkey  |          4694016
 2017-02-06 20:05:37.389951+01 | 1486407937.38995 | pgbench_accounts_pkey |       2246197248

 2017-02-06 20:05:38.467776+01 | 1486407938.46778 | pgbench_branches_pkey |          1327104
 2017-02-06 20:05:38.467776+01 | 1486407938.46778 | pgbench_tellers_pkey  |          4694016
 2017-02-06 20:05:38.467776+01 | 1486407938.46778 | pgbench_accounts_pkey |       2246197248

 2017-02-06 20:05:39.545949+01 | 1486407939.54595 | pgbench_branches_pkey |          1327104
 2017-02-06 20:05:39.545949+01 | 1486407939.54595 | pgbench_tellers_pkey  |          4694016
 2017-02-06 20:05:39.545949+01 | 1486407939.54595 | pgbench_accounts_pkey |       2246197248

 2017-02-06 20:05:40.633855+01 | 1486407940.63386 | pgbench_branches_pkey |          1327104
 2017-02-06 20:05:40.633855+01 | 1486407940.63386 | pgbench_tellers_pkey  |          4694016
 2017-02-06 20:05:40.633855+01 | 1486407940.63386 | pgbench_accounts_pkey |       2246197248

 2017-02-06 20:05:41.710349+01 | 1486407941.71035 | pgbench_branches_pkey |          1327104
 2017-02-06 20:05:41.710349+01 | 1486407941.71035 | pgbench_tellers_pkey  |          4694016
 2017-02-06 20:05:41.710349+01 | 1486407941.71035 | pgbench_accounts_pkey |       2246197248

 2017-02-06 20:05:42.795412+01 | 1486407942.79541 | pgbench_branches_pkey |          1327104
 2017-02-06 20:05:42.795412+01 | 1486407942.79541 | pgbench_tellers_pkey  |          4694016
 2017-02-06 20:05:42.795412+01 | 1486407942.79541 | pgbench_accounts_pkey |       2246197248

 2017-02-06 20:05:43.87123+01 | 1486407943.87123 | pgbench_branches_pkey |          1327104
 2017-02-06 20:05:43.87123+01 | 1486407943.87123 | pgbench_tellers_pkey  |          4694016
 2017-02-06 20:05:43.87123+01 | 1486407943.87123 | pgbench_accounts_pkey |       2246197248

 2017-02-06 20:05:44.937443+01 | 1486407944.93744 | pgbench_branches_pkey |          1327104
 2017-02-06 20:05:44.937443+01 | 1486407944.93744 | pgbench_tellers_pkey  |          4694016
 2017-02-06 20:05:44.937443+01 | 1486407944.93744 | pgbench_accounts_pkey |       2246197248

 2017-02-06 20:05:46.025079+01 | 1486407946.02508 | pgbench_branches_pkey |          1327104
 2017-02-06 20:05:46.025079+01 | 1486407946.02508 | pgbench_tellers_pkey  |          4694016
 2017-02-06 20:05:46.025079+01 | 1486407946.02508 | pgbench_accounts_pkey |       2246197248

 2017-02-06 20:05:47.100772+01 | 1486407947.10077 | pgbench_branches_pkey |          1327104
 2017-02-06 20:05:47.100772+01 | 1486407947.10077 | pgbench_tellers_pkey  |          4694016
 2017-02-06 20:05:47.100772+01 | 1486407947.10077 | pgbench_accounts_pkey |       2246197248

 2017-02-06 20:05:48.174818+01 | 1486407948.17482 | pgbench_branches_pkey |          1327104
 2017-02-06 20:05:48.174818+01 | 1486407948.17482 | pgbench_tellers_pkey  |          4694016
 2017-02-06 20:05:48.174818+01 | 1486407948.17482 | pgbench_accounts_pkey |       2246197248

 2017-02-06 20:05:49.24787+01 | 1486407949.24787 | pgbench_branches_pkey |          1327104
 2017-02-06 20:05:49.24787+01 | 1486407949.24787 | pgbench_tellers_pkey  |          4694016
 2017-02-06 20:05:49.24787+01 | 1486407949.24787 | pgbench_accounts_pkey |       2246197248

 2017-02-06 20:05:50.326058+01 | 1486407950.32606 | pgbench_branches_pkey |          1327104
 2017-02-06 20:05:50.326058+01 | 1486407950.32606 | pgbench_tellers_pkey  |          4694016
 2017-02-06 20:05:50.326058+01 | 1486407950.32606 | pgbench_accounts_pkey |       2246197248

 2017-02-06 20:05:51.403404+01 | 1486407951.4034 | pgbench_branches_pkey |          1327104
 2017-02-06 20:05:51.403404+01 | 1486407951.4034 | pgbench_tellers_pkey  |          4694016
 2017-02-06 20:05:51.403404+01 | 1486407951.4034 | pgbench_accounts_pkey |       2246197248

 2017-02-06 20:05:52.486361+01 | 1486407952.48636 | pgbench_branches_pkey |          1327104
 2017-02-06 20:05:52.486361+01 | 1486407952.48636 | pgbench_tellers_pkey  |          4694016
 2017-02-06 20:05:52.486361+01 | 1486407952.48636 | pgbench_accounts_pkey |       2246197248

 2017-02-06 20:05:53.569553+01 | 1486407953.56955 | pgbench_branches_pkey |          1327104
 2017-02-06 20:05:53.569553+01 | 1486407953.56955 | pgbench_tellers_pkey  |          4694016
 2017-02-06 20:05:53.569553+01 | 1486407953.56955 | pgbench_accounts_pkey |       2246197248

 2017-02-06 20:05:54.646858+01 | 1486407954.64686 | pgbench_branches_pkey |          1327104
 2017-02-06 20:05:54.646858+01 | 1486407954.64686 | pgbench_tellers_pkey  |          4694016
 2017-02-06 20:05:54.646858+01 | 1486407954.64686 | pgbench_accounts_pkey |       2246197248

 2017-02-06 20:05:55.721745+01 | 1486407955.72175 | pgbench_branches_pkey |          1327104
 2017-02-06 20:05:55.721745+01 | 1486407955.72175 | pgbench_tellers_pkey  |          4694016
 2017-02-06 20:05:55.721745+01 | 1486407955.72175 | pgbench_accounts_pkey |       2246197248

 2017-02-06 20:05:56.791795+01 | 1486407956.7918 | pgbench_branches_pkey |          1327104
 2017-02-06 20:05:56.791795+01 | 1486407956.7918 | pgbench_tellers_pkey  |          4694016
 2017-02-06 20:05:56.791795+01 | 1486407956.7918 | pgbench_accounts_pkey |       2246197248

 2017-02-06 20:05:57.885475+01 | 1486407957.88547 | pgbench_branches_pkey |          1327104
 2017-02-06 20:05:57.885475+01 | 1486407957.88547 | pgbench_tellers_pkey  |          4694016
 2017-02-06 20:05:57.885475+01 | 1486407957.88547 | pgbench_accounts_pkey |       2246197248

 2017-02-06 20:05:58.967337+01 | 1486407958.96734 | pgbench_branches_pkey |          1327104
 2017-02-06 20:05:58.967337+01 | 1486407958.96734 | pgbench_tellers_pkey  |          4694016
 2017-02-06 20:05:58.967337+01 | 1486407958.96734 | pgbench_accounts_pkey |       2246197248

 2017-02-06 20:06:00.053187+01 | 1486407960.05319 | pgbench_branches_pkey |          1327104
 2017-02-06 20:06:00.053187+01 | 1486407960.05319 | pgbench_tellers_pkey  |          4694016
 2017-02-06 20:06:00.053187+01 | 1486407960.05319 | pgbench_accounts_pkey |       2246197248

 2017-02-06 20:06:01.128326+01 | 1486407961.12833 | pgbench_branches_pkey |          1327104
 2017-02-06 20:06:01.128326+01 | 1486407961.12833 | pgbench_tellers_pkey  |          4694016
 2017-02-06 20:06:01.128326+01 | 1486407961.12833 | pgbench_accounts_pkey |       2246197248

 2017-02-06 20:06:02.208591+01 | 1486407962.20859 | pgbench_branches_pkey |          1327104
 2017-02-06 20:06:02.208591+01 | 1486407962.20859 | pgbench_tellers_pkey  |          4694016
 2017-02-06 20:06:02.208591+01 | 1486407962.20859 | pgbench_accounts_pkey |       2246197248

 2017-02-06 20:06:03.290461+01 | 1486407963.29046 | pgbench_branches_pkey |          1327104
 2017-02-06 20:06:03.290461+01 | 1486407963.29046 | pgbench_tellers_pkey  |          4694016
 2017-02-06 20:06:03.290461+01 | 1486407963.29046 | pgbench_accounts_pkey |       2246197248

 2017-02-06 20:06:04.370558+01 | 1486407964.37056 | pgbench_branches_pkey |          1327104
 2017-02-06 20:06:04.370558+01 | 1486407964.37056 | pgbench_tellers_pkey  |          4694016
 2017-02-06 20:06:04.370558+01 | 1486407964.37056 | pgbench_accounts_pkey |       2246197248

 2017-02-06 20:06:05.448119+01 | 1486407965.44812 | pgbench_branches_pkey |          1327104
 2017-02-06 20:06:05.448119+01 | 1486407965.44812 | pgbench_tellers_pkey  |          4694016
 2017-02-06 20:06:05.448119+01 | 1486407965.44812 | pgbench_accounts_pkey |       2246197248

 2017-02-06 20:06:06.531173+01 | 1486407966.53117 | pgbench_branches_pkey |          1327104
 2017-02-06 20:06:06.531173+01 | 1486407966.53117 | pgbench_tellers_pkey  |          4694016
 2017-02-06 20:06:06.531173+01 | 1486407966.53117 | pgbench_accounts_pkey |       2246197248

 2017-02-06 20:06:07.610685+01 | 1486407967.61069 | pgbench_branches_pkey |          1327104
 2017-02-06 20:06:07.610685+01 | 1486407967.61069 | pgbench_tellers_pkey  |          4694016
 2017-02-06 20:06:07.610685+01 | 1486407967.61069 | pgbench_accounts_pkey |       2246197248

 2017-02-06 20:06:08.688799+01 | 1486407968.6888 | pgbench_branches_pkey |          1327104
 2017-02-06 20:06:08.688799+01 | 1486407968.6888 | pgbench_tellers_pkey  |          4694016
 2017-02-06 20:06:08.688799+01 | 1486407968.6888 | pgbench_accounts_pkey |       2246197248

 2017-02-06 20:06:09.768482+01 | 1486407969.76848 | pgbench_branches_pkey |          1327104
 2017-02-06 20:06:09.768482+01 | 1486407969.76848 | pgbench_tellers_pkey  |          4694016
 2017-02-06 20:06:09.768482+01 | 1486407969.76848 | pgbench_accounts_pkey |       2246197248

 2017-02-06 20:06:10.84643+01 | 1486407970.84643 | pgbench_branches_pkey |          1327104
 2017-02-06 20:06:10.84643+01 | 1486407970.84643 | pgbench_tellers_pkey  |          4694016
 2017-02-06 20:06:10.84643+01 | 1486407970.84643 | pgbench_accounts_pkey |       2246197248

 2017-02-06 20:06:11.930717+01 | 1486407971.93072 | pgbench_branches_pkey |          1327104
 2017-02-06 20:06:11.930717+01 | 1486407971.93072 | pgbench_tellers_pkey  |          4694016
 2017-02-06 20:06:11.930717+01 | 1486407971.93072 | pgbench_accounts_pkey |       2246197248

 2017-02-06 20:06:13.008767+01 | 1486407973.00877 | pgbench_branches_pkey |          1327104
 2017-02-06 20:06:13.008767+01 | 1486407973.00877 | pgbench_tellers_pkey  |          4694016
 2017-02-06 20:06:13.008767+01 | 1486407973.00877 | pgbench_accounts_pkey |       2246197248

 2017-02-06 20:06:14.092442+01 | 1486407974.09244 | pgbench_branches_pkey |          1327104
 2017-02-06 20:06:14.092442+01 | 1486407974.09244 | pgbench_tellers_pkey  |          4694016
 2017-02-06 20:06:14.092442+01 | 1486407974.09244 | pgbench_accounts_pkey |       2246197248

 2017-02-06 20:06:15.161262+01 | 1486407975.16126 | pgbench_branches_pkey |          1327104
 2017-02-06 20:06:15.161262+01 | 1486407975.16126 | pgbench_tellers_pkey  |          4694016
 2017-02-06 20:06:15.161262+01 | 1486407975.16126 | pgbench_accounts_pkey |       2246197248

 2017-02-06 20:06:16.220831+01 | 1486407976.22083 | pgbench_branches_pkey |          1327104
 2017-02-06 20:06:16.220831+01 | 1486407976.22083 | pgbench_tellers_pkey  |          4694016
 2017-02-06 20:06:16.220831+01 | 1486407976.22083 | pgbench_accounts_pkey |       2246197248

 2017-02-06 20:06:17.308104+01 | 1486407977.3081 | pgbench_branches_pkey |          1327104
 2017-02-06 20:06:17.308104+01 | 1486407977.3081 | pgbench_tellers_pkey  |          4694016
 2017-02-06 20:06:17.308104+01 | 1486407977.3081 | pgbench_accounts_pkey |       2246197248

 2017-02-06 20:06:18.388516+01 | 1486407978.38852 | pgbench_branches_pkey |          1327104
 2017-02-06 20:06:18.388516+01 | 1486407978.38852 | pgbench_tellers_pkey  |          4694016
 2017-02-06 20:06:18.388516+01 | 1486407978.38852 | pgbench_accounts_pkey |       2246197248

 2017-02-06 20:06:19.473194+01 | 1486407979.47319 | pgbench_branches_pkey |          1327104
 2017-02-06 20:06:19.473194+01 | 1486407979.47319 | pgbench_tellers_pkey  |          4694016
 2017-02-06 20:06:19.473194+01 | 1486407979.47319 | pgbench_accounts_pkey |       2246197248

 2017-02-06 20:06:20.550308+01 | 1486407980.55031 | pgbench_branches_pkey |          1327104
 2017-02-06 20:06:20.550308+01 | 1486407980.55031 | pgbench_tellers_pkey  |          4694016
 2017-02-06 20:06:20.550308+01 | 1486407980.55031 | pgbench_accounts_pkey |       2246197248

 2017-02-06 20:06:21.633891+01 | 1486407981.63389 | pgbench_branches_pkey |          1327104
 2017-02-06 20:06:21.633891+01 | 1486407981.63389 | pgbench_tellers_pkey  |          4694016
 2017-02-06 20:06:21.633891+01 | 1486407981.63389 | pgbench_accounts_pkey |       2246197248

 2017-02-06 20:06:22.69888+01 | 1486407982.69888 | pgbench_branches_pkey |          1327104
 2017-02-06 20:06:22.69888+01 | 1486407982.69888 | pgbench_tellers_pkey  |          4694016
 2017-02-06 20:06:22.69888+01 | 1486407982.69888 | pgbench_accounts_pkey |       2246197248

 2017-02-06 20:06:23.790592+01 | 1486407983.79059 | pgbench_branches_pkey |          1327104
 2017-02-06 20:06:23.790592+01 | 1486407983.79059 | pgbench_tellers_pkey  |          4694016
 2017-02-06 20:06:23.790592+01 | 1486407983.79059 | pgbench_accounts_pkey |       2246197248

 2017-02-06 20:06:24.877378+01 | 1486407984.87738 | pgbench_branches_pkey |          1327104
 2017-02-06 20:06:24.877378+01 | 1486407984.87738 | pgbench_tellers_pkey  |          4694016
 2017-02-06 20:06:24.877378+01 | 1486407984.87738 | pgbench_accounts_pkey |       2246197248

 2017-02-06 20:06:25.957604+01 | 1486407985.9576 | pgbench_branches_pkey |          1327104
 2017-02-06 20:06:25.957604+01 | 1486407985.9576 | pgbench_tellers_pkey  |          4694016
 2017-02-06 20:06:25.957604+01 | 1486407985.9576 | pgbench_accounts_pkey |       2246197248

 2017-02-06 20:06:27.038377+01 | 1486407987.03838 | pgbench_branches_pkey |          1327104
 2017-02-06 20:06:27.038377+01 | 1486407987.03838 | pgbench_tellers_pkey  |          4694016
 2017-02-06 20:06:27.038377+01 | 1486407987.03838 | pgbench_accounts_pkey |       2246197248

 2017-02-06 20:06:28.122293+01 | 1486407988.12229 | pgbench_branches_pkey |          1327104
 2017-02-06 20:06:28.122293+01 | 1486407988.12229 | pgbench_tellers_pkey  |          4694016
 2017-02-06 20:06:28.122293+01 | 1486407988.12229 | pgbench_accounts_pkey |       2246197248

 2017-02-06 20:06:29.203307+01 | 1486407989.20331 | pgbench_branches_pkey |          1327104
 2017-02-06 20:06:29.203307+01 | 1486407989.20331 | pgbench_tellers_pkey  |          4694016
 2017-02-06 20:06:29.203307+01 | 1486407989.20331 | pgbench_accounts_pkey |       2246197248

 2017-02-06 20:06:30.285797+01 | 1486407990.2858 | pgbench_branches_pkey |          1327104
 2017-02-06 20:06:30.285797+01 | 1486407990.2858 | pgbench_tellers_pkey  |          4694016
 2017-02-06 20:06:30.285797+01 | 1486407990.2858 | pgbench_accounts_pkey |       2246197248

 2017-02-06 20:06:31.366853+01 | 1486407991.36685 | pgbench_branches_pkey |          1327104
 2017-02-06 20:06:31.366853+01 | 1486407991.36685 | pgbench_tellers_pkey  |          4694016
 2017-02-06 20:06:31.366853+01 | 1486407991.36685 | pgbench_accounts_pkey |       2246197248

 2017-02-06 20:06:32.449418+01 | 1486407992.44942 | pgbench_branches_pkey |          1327104
 2017-02-06 20:06:32.449418+01 | 1486407992.44942 | pgbench_tellers_pkey  |          4694016
 2017-02-06 20:06:32.449418+01 | 1486407992.44942 | pgbench_accounts_pkey |       2246197248

 2017-02-06 20:06:33.530331+01 | 1486407993.53033 | pgbench_branches_pkey |          1327104
 2017-02-06 20:06:33.530331+01 | 1486407993.53033 | pgbench_tellers_pkey  |          4694016
 2017-02-06 20:06:33.530331+01 | 1486407993.53033 | pgbench_accounts_pkey |       2246197248

 2017-02-06 20:06:34.611636+01 | 1486407994.61164 | pgbench_branches_pkey |          1327104
 2017-02-06 20:06:34.611636+01 | 1486407994.61164 | pgbench_tellers_pkey  |          4694016
 2017-02-06 20:06:34.611636+01 | 1486407994.61164 | pgbench_accounts_pkey |       2246197248

 2017-02-06 20:06:35.697141+01 | 1486407995.69714 | pgbench_branches_pkey |          1327104
 2017-02-06 20:06:35.697141+01 | 1486407995.69714 | pgbench_tellers_pkey  |          4694016
 2017-02-06 20:06:35.697141+01 | 1486407995.69714 | pgbench_accounts_pkey |       2246197248

 2017-02-06 20:06:36.787055+01 | 1486407996.78706 | pgbench_branches_pkey |          1327104
 2017-02-06 20:06:36.787055+01 | 1486407996.78706 | pgbench_tellers_pkey  |          4694016
 2017-02-06 20:06:36.787055+01 | 1486407996.78706 | pgbench_accounts_pkey |       2246197248

 2017-02-06 20:06:37.87198+01 | 1486407997.87198 | pgbench_branches_pkey |          1327104
 2017-02-06 20:06:37.87198+01 | 1486407997.87198 | pgbench_tellers_pkey  |          4694016
 2017-02-06 20:06:37.87198+01 | 1486407997.87198 | pgbench_accounts_pkey |       2246197248

 2017-02-06 20:06:38.963161+01 | 1486407998.96316 | pgbench_branches_pkey |          1327104
 2017-02-06 20:06:38.963161+01 | 1486407998.96316 | pgbench_tellers_pkey  |          4694016
 2017-02-06 20:06:38.963161+01 | 1486407998.96316 | pgbench_accounts_pkey |       2246197248

 2017-02-06 20:06:40.049129+01 | 1486408000.04913 | pgbench_branches_pkey |          1327104
 2017-02-06 20:06:40.049129+01 | 1486408000.04913 | pgbench_tellers_pkey  |          4694016
 2017-02-06 20:06:40.049129+01 | 1486408000.04913 | pgbench_accounts_pkey |       2246197248

 2017-02-06 20:06:41.131854+01 | 1486408001.13185 | pgbench_branches_pkey |          1327104
 2017-02-06 20:06:41.131854+01 | 1486408001.13185 | pgbench_tellers_pkey  |          4694016
 2017-02-06 20:06:41.131854+01 | 1486408001.13185 | pgbench_accounts_pkey |       2246197248

 2017-02-06 20:06:42.210651+01 | 1486408002.21065 | pgbench_branches_pkey |          1327104
 2017-02-06 20:06:42.210651+01 | 1486408002.21065 | pgbench_tellers_pkey  |          4694016
 2017-02-06 20:06:42.210651+01 | 1486408002.21065 | pgbench_accounts_pkey |       2246197248

 2017-02-06 20:06:43.288965+01 | 1486408003.28896 | pgbench_branches_pkey |          1327104
 2017-02-06 20:06:43.288965+01 | 1486408003.28896 | pgbench_tellers_pkey  |          4694016
 2017-02-06 20:06:43.288965+01 | 1486408003.28896 | pgbench_accounts_pkey |       2246197248

 2017-02-06 20:06:44.37558+01 | 1486408004.37558 | pgbench_branches_pkey |          1327104
 2017-02-06 20:06:44.37558+01 | 1486408004.37558 | pgbench_tellers_pkey  |          4694016
 2017-02-06 20:06:44.37558+01 | 1486408004.37558 | pgbench_accounts_pkey |       2246197248

 2017-02-06 20:06:45.441492+01 | 1486408005.44149 | pgbench_branches_pkey |          1327104
 2017-02-06 20:06:45.441492+01 | 1486408005.44149 | pgbench_tellers_pkey  |          4694016
 2017-02-06 20:06:45.441492+01 | 1486408005.44149 | pgbench_accounts_pkey |       2246197248

 2017-02-06 20:06:46.532407+01 | 1486408006.53241 | pgbench_branches_pkey |          1327104
 2017-02-06 20:06:46.532407+01 | 1486408006.53241 | pgbench_tellers_pkey  |          4694016
 2017-02-06 20:06:46.532407+01 | 1486408006.53241 | pgbench_accounts_pkey |       2246197248

 2017-02-06 20:06:47.619225+01 | 1486408007.61923 | pgbench_branches_pkey |          1327104
 2017-02-06 20:06:47.619225+01 | 1486408007.61923 | pgbench_tellers_pkey  |          4694016
 2017-02-06 20:06:47.619225+01 | 1486408007.61923 | pgbench_accounts_pkey |       2246197248

 2017-02-06 20:06:48.697334+01 | 1486408008.69733 | pgbench_branches_pkey |          1327104
 2017-02-06 20:06:48.697334+01 | 1486408008.69733 | pgbench_tellers_pkey  |          4694016
 2017-02-06 20:06:48.697334+01 | 1486408008.69733 | pgbench_accounts_pkey |       2246197248

 2017-02-06 20:06:49.766948+01 | 1486408009.76695 | pgbench_branches_pkey |          1327104
 2017-02-06 20:06:49.766948+01 | 1486408009.76695 | pgbench_tellers_pkey  |          4694016
 2017-02-06 20:06:49.766948+01 | 1486408009.76695 | pgbench_accounts_pkey |       2246197248

 2017-02-06 20:06:50.840952+01 | 1486408010.84095 | pgbench_branches_pkey |          1327104
 2017-02-06 20:06:50.840952+01 | 1486408010.84095 | pgbench_tellers_pkey  |          4694016
 2017-02-06 20:06:50.840952+01 | 1486408010.84095 | pgbench_accounts_pkey |       2246197248

 2017-02-06 20:06:51.918072+01 | 1486408011.91807 | pgbench_branches_pkey |          1327104
 2017-02-06 20:06:51.918072+01 | 1486408011.91807 | pgbench_tellers_pkey  |          4694016
 2017-02-06 20:06:51.918072+01 | 1486408011.91807 | pgbench_accounts_pkey |       2246197248

 2017-02-06 20:06:53.000754+01 | 1486408013.00075 | pgbench_branches_pkey |          1327104
 2017-02-06 20:06:53.000754+01 | 1486408013.00075 | pgbench_tellers_pkey  |          4694016
 2017-02-06 20:06:53.000754+01 | 1486408013.00075 | pgbench_accounts_pkey |       2246197248

 2017-02-06 20:06:54.084374+01 | 1486408014.08437 | pgbench_branches_pkey |          1327104
 2017-02-06 20:06:54.084374+01 | 1486408014.08437 | pgbench_tellers_pkey  |          4694016
 2017-02-06 20:06:54.084374+01 | 1486408014.08437 | pgbench_accounts_pkey |       2246197248

 2017-02-06 20:06:55.160676+01 | 1486408015.16068 | pgbench_branches_pkey |          1327104
 2017-02-06 20:06:55.160676+01 | 1486408015.16068 | pgbench_tellers_pkey  |          4694016
 2017-02-06 20:06:55.160676+01 | 1486408015.16068 | pgbench_accounts_pkey |       2246197248

 2017-02-06 20:06:56.23365+01 | 1486408016.23365 | pgbench_branches_pkey |          1327104
 2017-02-06 20:06:56.23365+01 | 1486408016.23365 | pgbench_tellers_pkey  |          4694016
 2017-02-06 20:06:56.23365+01 | 1486408016.23365 | pgbench_accounts_pkey |       2246197248

 2017-02-06 20:06:57.311059+01 | 1486408017.31106 | pgbench_branches_pkey |          1327104
 2017-02-06 20:06:57.311059+01 | 1486408017.31106 | pgbench_tellers_pkey  |          4694016
 2017-02-06 20:06:57.311059+01 | 1486408017.31106 | pgbench_accounts_pkey |       2246197248

 2017-02-06 20:06:58.375211+01 | 1486408018.37521 | pgbench_branches_pkey |          1327104
 2017-02-06 20:06:58.375211+01 | 1486408018.37521 | pgbench_tellers_pkey  |          4694016
 2017-02-06 20:06:58.375211+01 | 1486408018.37521 | pgbench_accounts_pkey |       2246197248

 2017-02-06 20:06:59.458699+01 | 1486408019.4587 | pgbench_branches_pkey |          1327104
 2017-02-06 20:06:59.458699+01 | 1486408019.4587 | pgbench_tellers_pkey  |          4694016
 2017-02-06 20:06:59.458699+01 | 1486408019.4587 | pgbench_accounts_pkey |       2246197248

 2017-02-06 20:07:00.541189+01 | 1486408020.54119 | pgbench_branches_pkey |          1327104
 2017-02-06 20:07:00.541189+01 | 1486408020.54119 | pgbench_tellers_pkey  |          4694016
 2017-02-06 20:07:00.541189+01 | 1486408020.54119 | pgbench_accounts_pkey |       2246197248

 2017-02-06 20:07:01.628302+01 | 1486408021.6283 | pgbench_branches_pkey |          1327104
 2017-02-06 20:07:01.628302+01 | 1486408021.6283 | pgbench_tellers_pkey  |          4694016
 2017-02-06 20:07:01.628302+01 | 1486408021.6283 | pgbench_accounts_pkey |       2246197248

 2017-02-06 20:07:02.713867+01 | 1486408022.71387 | pgbench_branches_pkey |          1327104
 2017-02-06 20:07:02.713867+01 | 1486408022.71387 | pgbench_tellers_pkey  |          4694016
 2017-02-06 20:07:02.713867+01 | 1486408022.71387 | pgbench_accounts_pkey |       2246197248

 2017-02-06 20:07:03.791679+01 | 1486408023.79168 | pgbench_branches_pkey |          1327104
 2017-02-06 20:07:03.791679+01 | 1486408023.79168 | pgbench_tellers_pkey  |          4694016
 2017-02-06 20:07:03.791679+01 | 1486408023.79168 | pgbench_accounts_pkey |       2246197248

 2017-02-06 20:07:04.872748+01 | 1486408024.87275 | pgbench_branches_pkey |          1327104
 2017-02-06 20:07:04.872748+01 | 1486408024.87275 | pgbench_tellers_pkey  |          4694016
 2017-02-06 20:07:04.872748+01 | 1486408024.87275 | pgbench_accounts_pkey |       2246197248

 2017-02-06 20:07:05.95509+01 | 1486408025.95509 | pgbench_branches_pkey |          1327104
 2017-02-06 20:07:05.95509+01 | 1486408025.95509 | pgbench_tellers_pkey  |          4694016
 2017-02-06 20:07:05.95509+01 | 1486408025.95509 | pgbench_accounts_pkey |       2246197248

 2017-02-06 20:07:07.030213+01 | 1486408027.03021 | pgbench_branches_pkey |          1327104
 2017-02-06 20:07:07.030213+01 | 1486408027.03021 | pgbench_tellers_pkey  |          4694016
 2017-02-06 20:07:07.030213+01 | 1486408027.03021 | pgbench_accounts_pkey |       2246197248

 2017-02-06 20:07:08.117152+01 | 1486408028.11715 | pgbench_branches_pkey |          1327104
 2017-02-06 20:07:08.117152+01 | 1486408028.11715 | pgbench_tellers_pkey  |          4694016
 2017-02-06 20:07:08.117152+01 | 1486408028.11715 | pgbench_accounts_pkey |       2246197248

 2017-02-06 20:07:09.197179+01 | 1486408029.19718 | pgbench_branches_pkey |          1327104
 2017-02-06 20:07:09.197179+01 | 1486408029.19718 | pgbench_tellers_pkey  |          4694016
 2017-02-06 20:07:09.197179+01 | 1486408029.19718 | pgbench_accounts_pkey |       2246197248

 2017-02-06 20:07:10.28032+01 | 1486408030.28032 | pgbench_branches_pkey |          1327104
 2017-02-06 20:07:10.28032+01 | 1486408030.28032 | pgbench_tellers_pkey  |          4694016
 2017-02-06 20:07:10.28032+01 | 1486408030.28032 | pgbench_accounts_pkey |       2246197248

 2017-02-06 20:07:11.357406+01 | 1486408031.35741 | pgbench_branches_pkey |          1327104
 2017-02-06 20:07:11.357406+01 | 1486408031.35741 | pgbench_tellers_pkey  |          4694016
 2017-02-06 20:07:11.357406+01 | 1486408031.35741 | pgbench_accounts_pkey |       2246197248

 2017-02-06 20:07:12.434505+01 | 1486408032.4345 | pgbench_branches_pkey |          1327104
 2017-02-06 20:07:12.434505+01 | 1486408032.4345 | pgbench_tellers_pkey  |          4694016
 2017-02-06 20:07:12.434505+01 | 1486408032.4345 | pgbench_accounts_pkey |       2246197248

 2017-02-06 20:07:13.514049+01 | 1486408033.51405 | pgbench_branches_pkey |          1327104
 2017-02-06 20:07:13.514049+01 | 1486408033.51405 | pgbench_tellers_pkey  |          4694016
 2017-02-06 20:07:13.514049+01 | 1486408033.51405 | pgbench_accounts_pkey |       2246197248

 2017-02-06 20:07:14.594191+01 | 1486408034.59419 | pgbench_branches_pkey |          1327104
 2017-02-06 20:07:14.594191+01 | 1486408034.59419 | pgbench_tellers_pkey  |          4694016
 2017-02-06 20:07:14.594191+01 | 1486408034.59419 | pgbench_accounts_pkey |       2246197248

 2017-02-06 20:07:15.67671+01 | 1486408035.67671 | pgbench_branches_pkey |          1327104
 2017-02-06 20:07:15.67671+01 | 1486408035.67671 | pgbench_tellers_pkey  |          4694016
 2017-02-06 20:07:15.67671+01 | 1486408035.67671 | pgbench_accounts_pkey |       2246197248

 2017-02-06 20:07:16.749634+01 | 1486408036.74963 | pgbench_branches_pkey |          1327104
 2017-02-06 20:07:16.749634+01 | 1486408036.74963 | pgbench_tellers_pkey  |          4694016
 2017-02-06 20:07:16.749634+01 | 1486408036.74963 | pgbench_accounts_pkey |       2246197248

 2017-02-06 20:07:17.831446+01 | 1486408037.83145 | pgbench_branches_pkey |          1327104
 2017-02-06 20:07:17.831446+01 | 1486408037.83145 | pgbench_tellers_pkey  |          4694016
 2017-02-06 20:07:17.831446+01 | 1486408037.83145 | pgbench_accounts_pkey |       2246197248

 2017-02-06 20:07:18.917056+01 | 1486408038.91706 | pgbench_branches_pkey |          1327104
 2017-02-06 20:07:18.917056+01 | 1486408038.91706 | pgbench_tellers_pkey  |          4694016
 2017-02-06 20:07:18.917056+01 | 1486408038.91706 | pgbench_accounts_pkey |       2246197248

 2017-02-06 20:07:19.988501+01 | 1486408039.9885 | pgbench_branches_pkey |          1327104
 2017-02-06 20:07:19.988501+01 | 1486408039.9885 | pgbench_tellers_pkey  |          4694016
 2017-02-06 20:07:19.988501+01 | 1486408039.9885 | pgbench_accounts_pkey |       2246197248

 2017-02-06 20:07:21.070673+01 | 1486408041.07067 | pgbench_branches_pkey |          1327104
 2017-02-06 20:07:21.070673+01 | 1486408041.07067 | pgbench_tellers_pkey  |          4694016
 2017-02-06 20:07:21.070673+01 | 1486408041.07067 | pgbench_accounts_pkey |       2246197248

 2017-02-06 20:07:22.151012+01 | 1486408042.15101 | pgbench_branches_pkey |          1327104
 2017-02-06 20:07:22.151012+01 | 1486408042.15101 | pgbench_tellers_pkey  |          4694016
 2017-02-06 20:07:22.151012+01 | 1486408042.15101 | pgbench_accounts_pkey |       2246197248

 2017-02-06 20:07:23.224699+01 | 1486408043.2247 | pgbench_branches_pkey |          1327104
 2017-02-06 20:07:23.224699+01 | 1486408043.2247 | pgbench_tellers_pkey  |          4694016
 2017-02-06 20:07:23.224699+01 | 1486408043.2247 | pgbench_accounts_pkey |       2246197248

 2017-02-06 20:07:24.306679+01 | 1486408044.30668 | pgbench_branches_pkey |          1327104
 2017-02-06 20:07:24.306679+01 | 1486408044.30668 | pgbench_tellers_pkey  |          4694016
 2017-02-06 20:07:24.306679+01 | 1486408044.30668 | pgbench_accounts_pkey |       2246197248

 2017-02-06 20:07:25.379561+01 | 1486408045.37956 | pgbench_branches_pkey |          1327104
 2017-02-06 20:07:25.379561+01 | 1486408045.37956 | pgbench_tellers_pkey  |          4694016
 2017-02-06 20:07:25.379561+01 | 1486408045.37956 | pgbench_accounts_pkey |       2246197248

 2017-02-06 20:07:26.45865+01 | 1486408046.45865 | pgbench_branches_pkey |          1327104
 2017-02-06 20:07:26.45865+01 | 1486408046.45865 | pgbench_tellers_pkey  |          4694016
 2017-02-06 20:07:26.45865+01 | 1486408046.45865 | pgbench_accounts_pkey |       2246197248

 2017-02-06 20:07:27.540921+01 | 1486408047.54092 | pgbench_branches_pkey |          1327104
 2017-02-06 20:07:27.540921+01 | 1486408047.54092 | pgbench_tellers_pkey  |          4694016
 2017-02-06 20:07:27.540921+01 | 1486408047.54092 | pgbench_accounts_pkey |       2246197248

 2017-02-06 20:07:28.606957+01 | 1486408048.60696 | pgbench_branches_pkey |          1327104
 2017-02-06 20:07:28.606957+01 | 1486408048.60696 | pgbench_tellers_pkey  |          4694016
 2017-02-06 20:07:28.606957+01 | 1486408048.60696 | pgbench_accounts_pkey |       2246197248

 2017-02-06 20:07:29.6899+01 | 1486408049.6899 | pgbench_branches_pkey |          1327104
 2017-02-06 20:07:29.6899+01 | 1486408049.6899 | pgbench_tellers_pkey  |          4694016
 2017-02-06 20:07:29.6899+01 | 1486408049.6899 | pgbench_accounts_pkey |       2246197248

 2017-02-06 20:07:30.771309+01 | 1486408050.77131 | pgbench_branches_pkey |          1327104
 2017-02-06 20:07:30.771309+01 | 1486408050.77131 | pgbench_tellers_pkey  |          4694016
 2017-02-06 20:07:30.771309+01 | 1486408050.77131 | pgbench_accounts_pkey |       2246197248

 2017-02-06 20:07:31.856409+01 | 1486408051.85641 | pgbench_branches_pkey |          1327104
 2017-02-06 20:07:31.856409+01 | 1486408051.85641 | pgbench_tellers_pkey  |          4694016
 2017-02-06 20:07:31.856409+01 | 1486408051.85641 | pgbench_accounts_pkey |       2246197248

 2017-02-06 20:07:32.940457+01 | 1486408052.94046 | pgbench_branches_pkey |          1327104
 2017-02-06 20:07:32.940457+01 | 1486408052.94046 | pgbench_tellers_pkey  |          4694016
 2017-02-06 20:07:32.940457+01 | 1486408052.94046 | pgbench_accounts_pkey |       2246197248

 2017-02-06 20:07:34.022236+01 | 1486408054.02224 | pgbench_branches_pkey |          1327104
 2017-02-06 20:07:34.022236+01 | 1486408054.02224 | pgbench_tellers_pkey  |          4694016
 2017-02-06 20:07:34.022236+01 | 1486408054.02224 | pgbench_accounts_pkey |       2246197248

 2017-02-06 20:07:35.103589+01 | 1486408055.10359 | pgbench_branches_pkey |          1327104
 2017-02-06 20:07:35.103589+01 | 1486408055.10359 | pgbench_tellers_pkey  |          4694016
 2017-02-06 20:07:35.103589+01 | 1486408055.10359 | pgbench_accounts_pkey |       2246197248

 2017-02-06 20:07:36.18758+01 | 1486408056.18758 | pgbench_branches_pkey |          1327104
 2017-02-06 20:07:36.18758+01 | 1486408056.18758 | pgbench_tellers_pkey  |          4694016
 2017-02-06 20:07:36.18758+01 | 1486408056.18758 | pgbench_accounts_pkey |       2246197248

 2017-02-06 20:07:37.261996+01 | 1486408057.262 | pgbench_branches_pkey |          1327104
 2017-02-06 20:07:37.261996+01 | 1486408057.262 | pgbench_tellers_pkey  |          4694016
 2017-02-06 20:07:37.261996+01 | 1486408057.262 | pgbench_accounts_pkey |       2246197248

 2017-02-06 20:07:38.336409+01 | 1486408058.33641 | pgbench_branches_pkey |          1327104
 2017-02-06 20:07:38.336409+01 | 1486408058.33641 | pgbench_tellers_pkey  |          4694016
 2017-02-06 20:07:38.336409+01 | 1486408058.33641 | pgbench_accounts_pkey |       2246197248

 2017-02-06 20:07:39.414964+01 | 1486408059.41496 | pgbench_branches_pkey |          1327104
 2017-02-06 20:07:39.414964+01 | 1486408059.41496 | pgbench_tellers_pkey  |          4694016
 2017-02-06 20:07:39.414964+01 | 1486408059.41496 | pgbench_accounts_pkey |       2246197248

 2017-02-06 20:07:40.494356+01 | 1486408060.49436 | pgbench_branches_pkey |          1327104
 2017-02-06 20:07:40.494356+01 | 1486408060.49436 | pgbench_tellers_pkey  |          4694016
 2017-02-06 20:07:40.494356+01 | 1486408060.49436 | pgbench_accounts_pkey |       2246197248

 2017-02-06 20:07:41.582935+01 | 1486408061.58294 | pgbench_branches_pkey |          1327104
 2017-02-06 20:07:41.582935+01 | 1486408061.58294 | pgbench_tellers_pkey  |          4694016
 2017-02-06 20:07:41.582935+01 | 1486408061.58294 | pgbench_accounts_pkey |       2246197248

 2017-02-06 20:07:42.661973+01 | 1486408062.66197 | pgbench_branches_pkey |          1327104
 2017-02-06 20:07:42.661973+01 | 1486408062.66197 | pgbench_tellers_pkey  |          4694016
 2017-02-06 20:07:42.661973+01 | 1486408062.66197 | pgbench_accounts_pkey |       2246197248

 2017-02-06 20:07:43.749967+01 | 1486408063.74997 | pgbench_branches_pkey |          1327104
 2017-02-06 20:07:43.749967+01 | 1486408063.74997 | pgbench_tellers_pkey  |          4694016
 2017-02-06 20:07:43.749967+01 | 1486408063.74997 | pgbench_accounts_pkey |       2246197248

 2017-02-06 20:07:44.822924+01 | 1486408064.82292 | pgbench_branches_pkey |          1327104
 2017-02-06 20:07:44.822924+01 | 1486408064.82292 | pgbench_tellers_pkey  |          4694016
 2017-02-06 20:07:44.822924+01 | 1486408064.82292 | pgbench_accounts_pkey |       2246197248

 2017-02-06 20:07:45.896805+01 | 1486408065.89681 | pgbench_branches_pkey |          1327104
 2017-02-06 20:07:45.896805+01 | 1486408065.89681 | pgbench_tellers_pkey  |          4694016
 2017-02-06 20:07:45.896805+01 | 1486408065.89681 | pgbench_accounts_pkey |       2246197248

 2017-02-06 20:07:46.987177+01 | 1486408066.98718 | pgbench_branches_pkey |          1327104
 2017-02-06 20:07:46.987177+01 | 1486408066.98718 | pgbench_tellers_pkey  |          4694016
 2017-02-06 20:07:46.987177+01 | 1486408066.98718 | pgbench_accounts_pkey |       2246197248

 2017-02-06 20:07:48.072958+01 | 1486408068.07296 | pgbench_branches_pkey |          1327104
 2017-02-06 20:07:48.072958+01 | 1486408068.07296 | pgbench_tellers_pkey  |          4694016
 2017-02-06 20:07:48.072958+01 | 1486408068.07296 | pgbench_accounts_pkey |       2246197248

 2017-02-06 20:07:49.151283+01 | 1486408069.15128 | pgbench_branches_pkey |          1327104
 2017-02-06 20:07:49.151283+01 | 1486408069.15128 | pgbench_tellers_pkey  |          4694016
 2017-02-06 20:07:49.151283+01 | 1486408069.15128 | pgbench_accounts_pkey |       2246197248

 2017-02-06 20:07:50.222999+01 | 1486408070.223 | pgbench_branches_pkey |          1327104
 2017-02-06 20:07:50.222999+01 | 1486408070.223 | pgbench_tellers_pkey  |          4694016
 2017-02-06 20:07:50.222999+01 | 1486408070.223 | pgbench_accounts_pkey |       2246197248

 2017-02-06 20:07:51.299547+01 | 1486408071.29955 | pgbench_branches_pkey |          1327104
 2017-02-06 20:07:51.299547+01 | 1486408071.29955 | pgbench_tellers_pkey  |          4694016
 2017-02-06 20:07:51.299547+01 | 1486408071.29955 | pgbench_accounts_pkey |       2246197248

 2017-02-06 20:07:52.379087+01 | 1486408072.37909 | pgbench_branches_pkey |          1327104
 2017-02-06 20:07:52.379087+01 | 1486408072.37909 | pgbench_tellers_pkey  |          4694016
 2017-02-06 20:07:52.379087+01 | 1486408072.37909 | pgbench_accounts_pkey |       2246197248

 2017-02-06 20:07:53.455511+01 | 1486408073.45551 | pgbench_branches_pkey |          1327104
 2017-02-06 20:07:53.455511+01 | 1486408073.45551 | pgbench_tellers_pkey  |          4694016
 2017-02-06 20:07:53.455511+01 | 1486408073.45551 | pgbench_accounts_pkey |       2246197248

 2017-02-06 20:07:54.53178+01 | 1486408074.53178 | pgbench_branches_pkey |          1327104
 2017-02-06 20:07:54.53178+01 | 1486408074.53178 | pgbench_tellers_pkey  |          4694016
 2017-02-06 20:07:54.53178+01 | 1486408074.53178 | pgbench_accounts_pkey |       2246197248

 2017-02-06 20:07:55.613251+01 | 1486408075.61325 | pgbench_branches_pkey |          1327104
 2017-02-06 20:07:55.613251+01 | 1486408075.61325 | pgbench_tellers_pkey  |          4694016
 2017-02-06 20:07:55.613251+01 | 1486408075.61325 | pgbench_accounts_pkey |       2246197248

 2017-02-06 20:07:56.690251+01 | 1486408076.69025 | pgbench_branches_pkey |          1327104
 2017-02-06 20:07:56.690251+01 | 1486408076.69025 | pgbench_tellers_pkey  |          4694016
 2017-02-06 20:07:56.690251+01 | 1486408076.69025 | pgbench_accounts_pkey |       2246197248

 2017-02-06 20:07:57.771381+01 | 1486408077.77138 | pgbench_branches_pkey |          1327104
 2017-02-06 20:07:57.771381+01 | 1486408077.77138 | pgbench_tellers_pkey  |          4694016
 2017-02-06 20:07:57.771381+01 | 1486408077.77138 | pgbench_accounts_pkey |       2246197248

 2017-02-06 20:07:58.855777+01 | 1486408078.85578 | pgbench_branches_pkey |          1327104
 2017-02-06 20:07:58.855777+01 | 1486408078.85578 | pgbench_tellers_pkey  |          4694016
 2017-02-06 20:07:58.855777+01 | 1486408078.85578 | pgbench_accounts_pkey |       2246197248

 2017-02-06 20:07:59.936582+01 | 1486408079.93658 | pgbench_branches_pkey |          1327104
 2017-02-06 20:07:59.936582+01 | 1486408079.93658 | pgbench_tellers_pkey  |          4694016
 2017-02-06 20:07:59.936582+01 | 1486408079.93658 | pgbench_accounts_pkey |       2246197248

 2017-02-06 20:08:01.005322+01 | 1486408081.00532 | pgbench_branches_pkey |          1327104
 2017-02-06 20:08:01.005322+01 | 1486408081.00532 | pgbench_tellers_pkey  |          4694016
 2017-02-06 20:08:01.005322+01 | 1486408081.00532 | pgbench_accounts_pkey |       2246197248

 2017-02-06 20:08:02.087428+01 | 1486408082.08743 | pgbench_branches_pkey |          1327104
 2017-02-06 20:08:02.087428+01 | 1486408082.08743 | pgbench_tellers_pkey  |          4694016
 2017-02-06 20:08:02.087428+01 | 1486408082.08743 | pgbench_accounts_pkey |       2246197248

 2017-02-06 20:08:03.170941+01 | 1486408083.17094 | pgbench_branches_pkey |          1327104
 2017-02-06 20:08:03.170941+01 | 1486408083.17094 | pgbench_tellers_pkey  |          4694016
 2017-02-06 20:08:03.170941+01 | 1486408083.17094 | pgbench_accounts_pkey |       2246197248

 2017-02-06 20:08:04.252469+01 | 1486408084.25247 | pgbench_branches_pkey |          1327104
 2017-02-06 20:08:04.252469+01 | 1486408084.25247 | pgbench_tellers_pkey  |          4694016
 2017-02-06 20:08:04.252469+01 | 1486408084.25247 | pgbench_accounts_pkey |       2246197248

 2017-02-06 20:08:05.335177+01 | 1486408085.33518 | pgbench_branches_pkey |          1327104
 2017-02-06 20:08:05.335177+01 | 1486408085.33518 | pgbench_tellers_pkey  |          4694016
 2017-02-06 20:08:05.335177+01 | 1486408085.33518 | pgbench_accounts_pkey |       2246197248

 2017-02-06 20:08:06.409935+01 | 1486408086.40993 | pgbench_branches_pkey |          1327104
 2017-02-06 20:08:06.409935+01 | 1486408086.40993 | pgbench_tellers_pkey  |          4694016
 2017-02-06 20:08:06.409935+01 | 1486408086.40993 | pgbench_accounts_pkey |       2246197248

 2017-02-06 20:08:07.491033+01 | 1486408087.49103 | pgbench_branches_pkey |          1327104
 2017-02-06 20:08:07.491033+01 | 1486408087.49103 | pgbench_tellers_pkey  |          4694016
 2017-02-06 20:08:07.491033+01 | 1486408087.49103 | pgbench_accounts_pkey |       2246197248

 2017-02-06 20:08:08.5749+01 | 1486408088.5749 | pgbench_branches_pkey |          1327104
 2017-02-06 20:08:08.5749+01 | 1486408088.5749 | pgbench_tellers_pkey  |          4694016
 2017-02-06 20:08:08.5749+01 | 1486408088.5749 | pgbench_accounts_pkey |       2246197248

 2017-02-06 20:08:09.659923+01 | 1486408089.65992 | pgbench_branches_pkey |          1327104
 2017-02-06 20:08:09.659923+01 | 1486408089.65992 | pgbench_tellers_pkey  |          4694016
 2017-02-06 20:08:09.659923+01 | 1486408089.65992 | pgbench_accounts_pkey |       2246197248

 2017-02-06 20:08:10.740562+01 | 1486408090.74056 | pgbench_branches_pkey |          1327104
 2017-02-06 20:08:10.740562+01 | 1486408090.74056 | pgbench_tellers_pkey  |          4694016
 2017-02-06 20:08:10.740562+01 | 1486408090.74056 | pgbench_accounts_pkey |       2246197248

 2017-02-06 20:08:11.827162+01 | 1486408091.82716 | pgbench_branches_pkey |          1327104
 2017-02-06 20:08:11.827162+01 | 1486408091.82716 | pgbench_tellers_pkey  |          4694016
 2017-02-06 20:08:11.827162+01 | 1486408091.82716 | pgbench_accounts_pkey |       2246197248

 2017-02-06 20:08:12.917672+01 | 1486408092.91767 | pgbench_branches_pkey |          1327104
 2017-02-06 20:08:12.917672+01 | 1486408092.91767 | pgbench_tellers_pkey  |          4694016
 2017-02-06 20:08:12.917672+01 | 1486408092.91767 | pgbench_accounts_pkey |       2246197248

 2017-02-06 20:08:14.001956+01 | 1486408094.00196 | pgbench_branches_pkey |          1327104
 2017-02-06 20:08:14.001956+01 | 1486408094.00196 | pgbench_tellers_pkey  |          4694016
 2017-02-06 20:08:14.001956+01 | 1486408094.00196 | pgbench_accounts_pkey |       2246197248

 2017-02-06 20:08:15.082789+01 | 1486408095.08279 | pgbench_branches_pkey |          1327104
 2017-02-06 20:08:15.082789+01 | 1486408095.08279 | pgbench_tellers_pkey  |          4694016
 2017-02-06 20:08:15.082789+01 | 1486408095.08279 | pgbench_accounts_pkey |       2246197248

 2017-02-06 20:08:16.177298+01 | 1486408096.1773 | pgbench_branches_pkey |          1327104
 2017-02-06 20:08:16.177298+01 | 1486408096.1773 | pgbench_tellers_pkey  |          4694016
 2017-02-06 20:08:16.177298+01 | 1486408096.1773 | pgbench_accounts_pkey |       2246197248

 2017-02-06 20:08:17.262432+01 | 1486408097.26243 | pgbench_branches_pkey |          1327104
 2017-02-06 20:08:17.262432+01 | 1486408097.26243 | pgbench_tellers_pkey  |          4694016
 2017-02-06 20:08:17.262432+01 | 1486408097.26243 | pgbench_accounts_pkey |       2246197248

 2017-02-06 20:08:18.343641+01 | 1486408098.34364 | pgbench_branches_pkey |          1327104
 2017-02-06 20:08:18.343641+01 | 1486408098.34364 | pgbench_tellers_pkey  |          4694016
 2017-02-06 20:08:18.343641+01 | 1486408098.34364 | pgbench_accounts_pkey |       2246197248

 2017-02-06 20:08:19.422343+01 | 1486408099.42234 | pgbench_branches_pkey |          1327104
 2017-02-06 20:08:19.422343+01 | 1486408099.42234 | pgbench_tellers_pkey  |          4694016
 2017-02-06 20:08:19.422343+01 | 1486408099.42234 | pgbench_accounts_pkey |       2246197248

 2017-02-06 20:08:20.496533+01 | 1486408100.49653 | pgbench_branches_pkey |          1327104
 2017-02-06 20:08:20.496533+01 | 1486408100.49653 | pgbench_tellers_pkey  |          4694016
 2017-02-06 20:08:20.496533+01 | 1486408100.49653 | pgbench_accounts_pkey |       2246197248

 2017-02-06 20:08:21.571649+01 | 1486408101.57165 | pgbench_branches_pkey |          1327104
 2017-02-06 20:08:21.571649+01 | 1486408101.57165 | pgbench_tellers_pkey  |          4694016
 2017-02-06 20:08:21.571649+01 | 1486408101.57165 | pgbench_accounts_pkey |       2246197248

 2017-02-06 20:08:22.651957+01 | 1486408102.65196 | pgbench_branches_pkey |          1327104
 2017-02-06 20:08:22.651957+01 | 1486408102.65196 | pgbench_tellers_pkey  |          4694016
 2017-02-06 20:08:22.651957+01 | 1486408102.65196 | pgbench_accounts_pkey |       2246197248

 2017-02-06 20:08:23.722266+01 | 1486408103.72227 | pgbench_branches_pkey |          1327104
 2017-02-06 20:08:23.722266+01 | 1486408103.72227 | pgbench_tellers_pkey  |          4694016
 2017-02-06 20:08:23.722266+01 | 1486408103.72227 | pgbench_accounts_pkey |       2246197248

 2017-02-06 20:08:24.798948+01 | 1486408104.79895 | pgbench_branches_pkey |          1327104
 2017-02-06 20:08:24.798948+01 | 1486408104.79895 | pgbench_tellers_pkey  |          4694016
 2017-02-06 20:08:24.798948+01 | 1486408104.79895 | pgbench_accounts_pkey |       2246197248

 2017-02-06 20:08:25.879589+01 | 1486408105.87959 | pgbench_branches_pkey |          1327104
 2017-02-06 20:08:25.879589+01 | 1486408105.87959 | pgbench_tellers_pkey  |          4694016
 2017-02-06 20:08:25.879589+01 | 1486408105.87959 | pgbench_accounts_pkey |       2246197248

 2017-02-06 20:08:26.958615+01 | 1486408106.95862 | pgbench_branches_pkey |          1327104
 2017-02-06 20:08:26.958615+01 | 1486408106.95862 | pgbench_tellers_pkey  |          4694016
 2017-02-06 20:08:26.958615+01 | 1486408106.95862 | pgbench_accounts_pkey |       2246197248

 2017-02-06 20:08:28.051619+01 | 1486408108.05162 | pgbench_branches_pkey |          1327104
 2017-02-06 20:08:28.051619+01 | 1486408108.05162 | pgbench_tellers_pkey  |          4694016
 2017-02-06 20:08:28.051619+01 | 1486408108.05162 | pgbench_accounts_pkey |       2246197248

 2017-02-06 20:08:29.138884+01 | 1486408109.13888 | pgbench_branches_pkey |          1327104
 2017-02-06 20:08:29.138884+01 | 1486408109.13888 | pgbench_tellers_pkey  |          4694016
 2017-02-06 20:08:29.138884+01 | 1486408109.13888 | pgbench_accounts_pkey |       2246197248

 2017-02-06 20:08:30.235542+01 | 1486408110.23554 | pgbench_branches_pkey |          1327104
 2017-02-06 20:08:30.235542+01 | 1486408110.23554 | pgbench_tellers_pkey  |          4694016
 2017-02-06 20:08:30.235542+01 | 1486408110.23554 | pgbench_accounts_pkey |       2246197248

 2017-02-06 20:08:31.318604+01 | 1486408111.3186 | pgbench_branches_pkey |          1327104
 2017-02-06 20:08:31.318604+01 | 1486408111.3186 | pgbench_tellers_pkey  |          4694016
 2017-02-06 20:08:31.318604+01 | 1486408111.3186 | pgbench_accounts_pkey |       2246197248

 2017-02-06 20:08:32.398473+01 | 1486408112.39847 | pgbench_branches_pkey |          1327104
 2017-02-06 20:08:32.398473+01 | 1486408112.39847 | pgbench_tellers_pkey  |          4694016
 2017-02-06 20:08:32.398473+01 | 1486408112.39847 | pgbench_accounts_pkey |       2246197248

 2017-02-06 20:08:33.477838+01 | 1486408113.47784 | pgbench_branches_pkey |          1327104
 2017-02-06 20:08:33.477838+01 | 1486408113.47784 | pgbench_tellers_pkey  |          4694016
 2017-02-06 20:08:33.477838+01 | 1486408113.47784 | pgbench_accounts_pkey |       2246197248

 2017-02-06 20:08:34.557325+01 | 1486408114.55732 | pgbench_branches_pkey |          1327104
 2017-02-06 20:08:34.557325+01 | 1486408114.55732 | pgbench_tellers_pkey  |          4694016
 2017-02-06 20:08:34.557325+01 | 1486408114.55732 | pgbench_accounts_pkey |       2246197248

 2017-02-06 20:08:35.638113+01 | 1486408115.63811 | pgbench_branches_pkey |          1327104
 2017-02-06 20:08:35.638113+01 | 1486408115.63811 | pgbench_tellers_pkey  |          4694016
 2017-02-06 20:08:35.638113+01 | 1486408115.63811 | pgbench_accounts_pkey |       2246197248

 2017-02-06 20:08:36.71431+01 | 1486408116.71431 | pgbench_branches_pkey |          1327104
 2017-02-06 20:08:36.71431+01 | 1486408116.71431 | pgbench_tellers_pkey  |          4694016
 2017-02-06 20:08:36.71431+01 | 1486408116.71431 | pgbench_accounts_pkey |       2246197248

 2017-02-06 20:08:37.801631+01 | 1486408117.80163 | pgbench_branches_pkey |          1327104
 2017-02-06 20:08:37.801631+01 | 1486408117.80163 | pgbench_tellers_pkey  |          4694016
 2017-02-06 20:08:37.801631+01 | 1486408117.80163 | pgbench_accounts_pkey |       2246197248

 2017-02-06 20:08:38.88196+01 | 1486408118.88196 | pgbench_branches_pkey |          1327104
 2017-02-06 20:08:38.88196+01 | 1486408118.88196 | pgbench_tellers_pkey  |          4694016
 2017-02-06 20:08:38.88196+01 | 1486408118.88196 | pgbench_accounts_pkey |       2246197248

 2017-02-06 20:08:39.972378+01 | 1486408119.97238 | pgbench_branches_pkey |          1327104
 2017-02-06 20:08:39.972378+01 | 1486408119.97238 | pgbench_tellers_pkey  |          4694016
 2017-02-06 20:08:39.972378+01 | 1486408119.97238 | pgbench_accounts_pkey |       2246197248

 2017-02-06 20:08:41.071757+01 | 1486408121.07176 | pgbench_branches_pkey |          1327104
 2017-02-06 20:08:41.071757+01 | 1486408121.07176 | pgbench_tellers_pkey  |          4694016
 2017-02-06 20:08:41.071757+01 | 1486408121.07176 | pgbench_accounts_pkey |       2246197248

 2017-02-06 20:08:42.15642+01 | 1486408122.15642 | pgbench_branches_pkey |          1327104
 2017-02-06 20:08:42.15642+01 | 1486408122.15642 | pgbench_tellers_pkey  |          4694016
 2017-02-06 20:08:42.15642+01 | 1486408122.15642 | pgbench_accounts_pkey |       2246197248

 2017-02-06 20:08:43.240752+01 | 1486408123.24075 | pgbench_branches_pkey |          1327104
 2017-02-06 20:08:43.240752+01 | 1486408123.24075 | pgbench_tellers_pkey  |          4694016
 2017-02-06 20:08:43.240752+01 | 1486408123.24075 | pgbench_accounts_pkey |       2246197248

 2017-02-06 20:08:44.326444+01 | 1486408124.32644 | pgbench_branches_pkey |          1327104
 2017-02-06 20:08:44.326444+01 | 1486408124.32644 | pgbench_tellers_pkey  |          4694016
 2017-02-06 20:08:44.326444+01 | 1486408124.32644 | pgbench_accounts_pkey |       2246197248

 2017-02-06 20:08:45.401281+01 | 1486408125.40128 | pgbench_branches_pkey |          1327104
 2017-02-06 20:08:45.401281+01 | 1486408125.40128 | pgbench_tellers_pkey  |          4694016
 2017-02-06 20:08:45.401281+01 | 1486408125.40128 | pgbench_accounts_pkey |       2246197248

 2017-02-06 20:08:46.474205+01 | 1486408126.47421 | pgbench_branches_pkey |          1327104
 2017-02-06 20:08:46.474205+01 | 1486408126.47421 | pgbench_tellers_pkey  |          4694016
 2017-02-06 20:08:46.474205+01 | 1486408126.47421 | pgbench_accounts_pkey |       2246197248

 2017-02-06 20:08:47.549222+01 | 1486408127.54922 | pgbench_branches_pkey |          1327104
 2017-02-06 20:08:47.549222+01 | 1486408127.54922 | pgbench_tellers_pkey  |          4694016
 2017-02-06 20:08:47.549222+01 | 1486408127.54922 | pgbench_accounts_pkey |       2246197248

 2017-02-06 20:08:48.623657+01 | 1486408128.62366 | pgbench_branches_pkey |          1327104
 2017-02-06 20:08:48.623657+01 | 1486408128.62366 | pgbench_tellers_pkey  |          4694016
 2017-02-06 20:08:48.623657+01 | 1486408128.62366 | pgbench_accounts_pkey |       2246197248

 2017-02-06 20:08:49.707821+01 | 1486408129.70782 | pgbench_branches_pkey |          1327104
 2017-02-06 20:08:49.707821+01 | 1486408129.70782 | pgbench_tellers_pkey  |          4694016
 2017-02-06 20:08:49.707821+01 | 1486408129.70782 | pgbench_accounts_pkey |       2246197248

 2017-02-06 20:08:50.789419+01 | 1486408130.78942 | pgbench_branches_pkey |          1327104
 2017-02-06 20:08:50.789419+01 | 1486408130.78942 | pgbench_tellers_pkey  |          4694016
 2017-02-06 20:08:50.789419+01 | 1486408130.78942 | pgbench_accounts_pkey |       2246197248

 2017-02-06 20:08:51.871157+01 | 1486408131.87116 | pgbench_branches_pkey |          1327104
 2017-02-06 20:08:51.871157+01 | 1486408131.87116 | pgbench_tellers_pkey  |          4694016
 2017-02-06 20:08:51.871157+01 | 1486408131.87116 | pgbench_accounts_pkey |       2246197248

 2017-02-06 20:08:52.960346+01 | 1486408132.96035 | pgbench_branches_pkey |          1327104
 2017-02-06 20:08:52.960346+01 | 1486408132.96035 | pgbench_tellers_pkey  |          4694016
 2017-02-06 20:08:52.960346+01 | 1486408132.96035 | pgbench_accounts_pkey |       2246197248

 2017-02-06 20:08:54.053012+01 | 1486408134.05301 | pgbench_branches_pkey |          1327104
 2017-02-06 20:08:54.053012+01 | 1486408134.05301 | pgbench_tellers_pkey  |          4694016
 2017-02-06 20:08:54.053012+01 | 1486408134.05301 | pgbench_accounts_pkey |       2246197248

 2017-02-06 20:08:55.131336+01 | 1486408135.13134 | pgbench_branches_pkey |          1327104
 2017-02-06 20:08:55.131336+01 | 1486408135.13134 | pgbench_tellers_pkey  |          4694016
 2017-02-06 20:08:55.131336+01 | 1486408135.13134 | pgbench_accounts_pkey |       2246197248

 2017-02-06 20:08:56.215429+01 | 1486408136.21543 | pgbench_branches_pkey |          1327104
 2017-02-06 20:08:56.215429+01 | 1486408136.21543 | pgbench_tellers_pkey  |          4694016
 2017-02-06 20:08:56.215429+01 | 1486408136.21543 | pgbench_accounts_pkey |       2246197248

 2017-02-06 20:08:57.300415+01 | 1486408137.30042 | pgbench_branches_pkey |          1327104
 2017-02-06 20:08:57.300415+01 | 1486408137.30042 | pgbench_tellers_pkey  |          4694016
 2017-02-06 20:08:57.300415+01 | 1486408137.30042 | pgbench_accounts_pkey |       2246197248

 2017-02-06 20:08:58.37822+01 | 1486408138.37822 | pgbench_branches_pkey |          1327104
 2017-02-06 20:08:58.37822+01 | 1486408138.37822 | pgbench_tellers_pkey  |          4694016
 2017-02-06 20:08:58.37822+01 | 1486408138.37822 | pgbench_accounts_pkey |       2246197248

 2017-02-06 20:08:59.460204+01 | 1486408139.4602 | pgbench_branches_pkey |          1327104
 2017-02-06 20:08:59.460204+01 | 1486408139.4602 | pgbench_tellers_pkey  |          4694016
 2017-02-06 20:08:59.460204+01 | 1486408139.4602 | pgbench_accounts_pkey |       2246197248

 2017-02-06 20:09:00.542426+01 | 1486408140.54243 | pgbench_branches_pkey |          1327104
 2017-02-06 20:09:00.542426+01 | 1486408140.54243 | pgbench_tellers_pkey  |          4694016
 2017-02-06 20:09:00.542426+01 | 1486408140.54243 | pgbench_accounts_pkey |       2246197248

 2017-02-06 20:09:01.618859+01 | 1486408141.61886 | pgbench_branches_pkey |          1327104
 2017-02-06 20:09:01.618859+01 | 1486408141.61886 | pgbench_tellers_pkey  |          4694016
 2017-02-06 20:09:01.618859+01 | 1486408141.61886 | pgbench_accounts_pkey |       2246197248

 2017-02-06 20:09:02.69691+01 | 1486408142.69691 | pgbench_branches_pkey |          1327104
 2017-02-06 20:09:02.69691+01 | 1486408142.69691 | pgbench_tellers_pkey  |          4694016
 2017-02-06 20:09:02.69691+01 | 1486408142.69691 | pgbench_accounts_pkey |       2246197248

 2017-02-06 20:09:03.782262+01 | 1486408143.78226 | pgbench_branches_pkey |          1327104
 2017-02-06 20:09:03.782262+01 | 1486408143.78226 | pgbench_tellers_pkey  |          4694016
 2017-02-06 20:09:03.782262+01 | 1486408143.78226 | pgbench_accounts_pkey |       2246197248

 2017-02-06 20:09:04.861916+01 | 1486408144.86192 | pgbench_branches_pkey |          1327104
 2017-02-06 20:09:04.861916+01 | 1486408144.86192 | pgbench_tellers_pkey  |          4694016
 2017-02-06 20:09:04.861916+01 | 1486408144.86192 | pgbench_accounts_pkey |       2246197248

 2017-02-06 20:09:05.940795+01 | 1486408145.94079 | pgbench_branches_pkey |          1327104
 2017-02-06 20:09:05.940795+01 | 1486408145.94079 | pgbench_tellers_pkey  |          4694016
 2017-02-06 20:09:05.940795+01 | 1486408145.94079 | pgbench_accounts_pkey |       2246197248

 2017-02-06 20:09:07.030142+01 | 1486408147.03014 | pgbench_branches_pkey |          1327104
 2017-02-06 20:09:07.030142+01 | 1486408147.03014 | pgbench_tellers_pkey  |          4694016
 2017-02-06 20:09:07.030142+01 | 1486408147.03014 | pgbench_accounts_pkey |       2246197248

 2017-02-06 20:09:08.109465+01 | 1486408148.10946 | pgbench_branches_pkey |          1327104
 2017-02-06 20:09:08.109465+01 | 1486408148.10946 | pgbench_tellers_pkey  |          4694016
 2017-02-06 20:09:08.109465+01 | 1486408148.10946 | pgbench_accounts_pkey |       2246197248

 2017-02-06 20:09:09.197141+01 | 1486408149.19714 | pgbench_branches_pkey |          1327104
 2017-02-06 20:09:09.197141+01 | 1486408149.19714 | pgbench_tellers_pkey  |          4694016
 2017-02-06 20:09:09.197141+01 | 1486408149.19714 | pgbench_accounts_pkey |       2246197248

 2017-02-06 20:09:10.299147+01 | 1486408150.29915 | pgbench_branches_pkey |          1327104
 2017-02-06 20:09:10.299147+01 | 1486408150.29915 | pgbench_tellers_pkey  |          4694016
 2017-02-06 20:09:10.299147+01 | 1486408150.29915 | pgbench_accounts_pkey |       2246197248

 2017-02-06 20:09:11.382007+01 | 1486408151.38201 | pgbench_branches_pkey |          1327104
 2017-02-06 20:09:11.382007+01 | 1486408151.38201 | pgbench_tellers_pkey  |          4694016
 2017-02-06 20:09:11.382007+01 | 1486408151.38201 | pgbench_accounts_pkey |       2246197248

 2017-02-06 20:09:12.461017+01 | 1486408152.46102 | pgbench_branches_pkey |          1327104
 2017-02-06 20:09:12.461017+01 | 1486408152.46102 | pgbench_tellers_pkey  |          4694016
 2017-02-06 20:09:12.461017+01 | 1486408152.46102 | pgbench_accounts_pkey |       2246197248

 2017-02-06 20:09:13.535921+01 | 1486408153.53592 | pgbench_branches_pkey |          1327104
 2017-02-06 20:09:13.535921+01 | 1486408153.53592 | pgbench_tellers_pkey  |          4694016
 2017-02-06 20:09:13.535921+01 | 1486408153.53592 | pgbench_accounts_pkey |       2246197248

 2017-02-06 20:09:14.610506+01 | 1486408154.61051 | pgbench_branches_pkey |          1327104
 2017-02-06 20:09:14.610506+01 | 1486408154.61051 | pgbench_tellers_pkey  |          4694016
 2017-02-06 20:09:14.610506+01 | 1486408154.61051 | pgbench_accounts_pkey |       2246197248

 2017-02-06 20:09:15.69012+01 | 1486408155.69012 | pgbench_branches_pkey |          1327104
 2017-02-06 20:09:15.69012+01 | 1486408155.69012 | pgbench_tellers_pkey  |          4694016
 2017-02-06 20:09:15.69012+01 | 1486408155.69012 | pgbench_accounts_pkey |       2246197248

 2017-02-06 20:09:16.762211+01 | 1486408156.76221 | pgbench_branches_pkey |          1327104
 2017-02-06 20:09:16.762211+01 | 1486408156.76221 | pgbench_tellers_pkey  |          4694016
 2017-02-06 20:09:16.762211+01 | 1486408156.76221 | pgbench_accounts_pkey |       2246197248

 2017-02-06 20:09:17.844957+01 | 1486408157.84496 | pgbench_branches_pkey |          1327104
 2017-02-06 20:09:17.844957+01 | 1486408157.84496 | pgbench_tellers_pkey  |          4694016
 2017-02-06 20:09:17.844957+01 | 1486408157.84496 | pgbench_accounts_pkey |       2246197248

 2017-02-06 20:09:18.93383+01 | 1486408158.93383 | pgbench_branches_pkey |          1327104
 2017-02-06 20:09:18.93383+01 | 1486408158.93383 | pgbench_tellers_pkey  |          4694016
 2017-02-06 20:09:18.93383+01 | 1486408158.93383 | pgbench_accounts_pkey |       2246197248

 2017-02-06 20:09:20.016687+01 | 1486408160.01669 | pgbench_branches_pkey |          1327104
 2017-02-06 20:09:20.016687+01 | 1486408160.01669 | pgbench_tellers_pkey  |          4694016
 2017-02-06 20:09:20.016687+01 | 1486408160.01669 | pgbench_accounts_pkey |       2246197248

 2017-02-06 20:09:21.102358+01 | 1486408161.10236 | pgbench_branches_pkey |          1327104
 2017-02-06 20:09:21.102358+01 | 1486408161.10236 | pgbench_tellers_pkey  |          4694016
 2017-02-06 20:09:21.102358+01 | 1486408161.10236 | pgbench_accounts_pkey |       2246197248

 2017-02-06 20:09:22.187097+01 | 1486408162.1871 | pgbench_branches_pkey |          1327104
 2017-02-06 20:09:22.187097+01 | 1486408162.1871 | pgbench_tellers_pkey  |          4694016
 2017-02-06 20:09:22.187097+01 | 1486408162.1871 | pgbench_accounts_pkey |       2246197248

 2017-02-06 20:09:23.268539+01 | 1486408163.26854 | pgbench_branches_pkey |          1327104
 2017-02-06 20:09:23.268539+01 | 1486408163.26854 | pgbench_tellers_pkey  |          4694016
 2017-02-06 20:09:23.268539+01 | 1486408163.26854 | pgbench_accounts_pkey |       2246197248

 2017-02-06 20:09:24.349921+01 | 1486408164.34992 | pgbench_branches_pkey |          1327104
 2017-02-06 20:09:24.349921+01 | 1486408164.34992 | pgbench_tellers_pkey  |          4694016
 2017-02-06 20:09:24.349921+01 | 1486408164.34992 | pgbench_accounts_pkey |       2246197248

 2017-02-06 20:09:25.434561+01 | 1486408165.43456 | pgbench_branches_pkey |          1327104
 2017-02-06 20:09:25.434561+01 | 1486408165.43456 | pgbench_tellers_pkey  |          4694016
 2017-02-06 20:09:25.434561+01 | 1486408165.43456 | pgbench_accounts_pkey |       2246197248

 2017-02-06 20:09:26.51296+01 | 1486408166.51296 | pgbench_branches_pkey |          1327104
 2017-02-06 20:09:26.51296+01 | 1486408166.51296 | pgbench_tellers_pkey  |          4694016
 2017-02-06 20:09:26.51296+01 | 1486408166.51296 | pgbench_accounts_pkey |       2246197248

 2017-02-06 20:09:27.590139+01 | 1486408167.59014 | pgbench_branches_pkey |          1327104
 2017-02-06 20:09:27.590139+01 | 1486408167.59014 | pgbench_tellers_pkey  |          4694016
 2017-02-06 20:09:27.590139+01 | 1486408167.59014 | pgbench_accounts_pkey |       2246197248

 2017-02-06 20:09:28.669015+01 | 1486408168.66901 | pgbench_branches_pkey |          1327104
 2017-02-06 20:09:28.669015+01 | 1486408168.66901 | pgbench_tellers_pkey  |          4694016
 2017-02-06 20:09:28.669015+01 | 1486408168.66901 | pgbench_accounts_pkey |       2246197248

 2017-02-06 20:09:29.75137+01 | 1486408169.75137 | pgbench_branches_pkey |          1327104
 2017-02-06 20:09:29.75137+01 | 1486408169.75137 | pgbench_tellers_pkey  |          4694016
 2017-02-06 20:09:29.75137+01 | 1486408169.75137 | pgbench_accounts_pkey |       2246197248

 2017-02-06 20:09:30.831668+01 | 1486408170.83167 | pgbench_branches_pkey |          1327104
 2017-02-06 20:09:30.831668+01 | 1486408170.83167 | pgbench_tellers_pkey  |          4694016
 2017-02-06 20:09:30.831668+01 | 1486408170.83167 | pgbench_accounts_pkey |       2246197248

 2017-02-06 20:09:31.906826+01 | 1486408171.90683 | pgbench_branches_pkey |          1327104
 2017-02-06 20:09:31.906826+01 | 1486408171.90683 | pgbench_tellers_pkey  |          4694016
 2017-02-06 20:09:31.906826+01 | 1486408171.90683 | pgbench_accounts_pkey |       2246197248

 2017-02-06 20:09:32.993297+01 | 1486408172.9933 | pgbench_branches_pkey |          1327104
 2017-02-06 20:09:32.993297+01 | 1486408172.9933 | pgbench_tellers_pkey  |          4694016
 2017-02-06 20:09:32.993297+01 | 1486408172.9933 | pgbench_accounts_pkey |       2246197248

 2017-02-06 20:09:34.077664+01 | 1486408174.07766 | pgbench_branches_pkey |          1327104
 2017-02-06 20:09:34.077664+01 | 1486408174.07766 | pgbench_tellers_pkey  |          4694016
 2017-02-06 20:09:34.077664+01 | 1486408174.07766 | pgbench_accounts_pkey |       2246197248

 2017-02-06 20:09:35.161384+01 | 1486408175.16138 | pgbench_branches_pkey |          1327104
 2017-02-06 20:09:35.161384+01 | 1486408175.16138 | pgbench_tellers_pkey  |          4694016
 2017-02-06 20:09:35.161384+01 | 1486408175.16138 | pgbench_accounts_pkey |       2246197248

 2017-02-06 20:09:36.239365+01 | 1486408176.23937 | pgbench_branches_pkey |          1327104
 2017-02-06 20:09:36.239365+01 | 1486408176.23937 | pgbench_tellers_pkey  |          4694016
 2017-02-06 20:09:36.239365+01 | 1486408176.23937 | pgbench_accounts_pkey |       2246197248

 2017-02-06 20:09:37.3171+01 | 1486408177.3171 | pgbench_branches_pkey |          1327104
 2017-02-06 20:09:37.3171+01 | 1486408177.3171 | pgbench_tellers_pkey  |          4694016
 2017-02-06 20:09:37.3171+01 | 1486408177.3171 | pgbench_accounts_pkey |       2246197248

 2017-02-06 20:09:38.394713+01 | 1486408178.39471 | pgbench_branches_pkey |          1327104
 2017-02-06 20:09:38.394713+01 | 1486408178.39471 | pgbench_tellers_pkey  |          4694016
 2017-02-06 20:09:38.394713+01 | 1486408178.39471 | pgbench_accounts_pkey |       2246197248

 2017-02-06 20:09:39.472954+01 | 1486408179.47295 | pgbench_branches_pkey |          1327104
 2017-02-06 20:09:39.472954+01 | 1486408179.47295 | pgbench_tellers_pkey  |          4694016
 2017-02-06 20:09:39.472954+01 | 1486408179.47295 | pgbench_accounts_pkey |       2246197248

 2017-02-06 20:09:40.549595+01 | 1486408180.5496 | pgbench_branches_pkey |          1327104
 2017-02-06 20:09:40.549595+01 | 1486408180.5496 | pgbench_tellers_pkey  |          4694016
 2017-02-06 20:09:40.549595+01 | 1486408180.5496 | pgbench_accounts_pkey |       2246197248

 2017-02-06 20:09:41.632508+01 | 1486408181.63251 | pgbench_branches_pkey |          1327104
 2017-02-06 20:09:41.632508+01 | 1486408181.63251 | pgbench_tellers_pkey  |          4694016
 2017-02-06 20:09:41.632508+01 | 1486408181.63251 | pgbench_accounts_pkey |       2246197248

 2017-02-06 20:09:42.711694+01 | 1486408182.71169 | pgbench_branches_pkey |          1327104
 2017-02-06 20:09:42.711694+01 | 1486408182.71169 | pgbench_tellers_pkey  |          4694016
 2017-02-06 20:09:42.711694+01 | 1486408182.71169 | pgbench_accounts_pkey |       2246197248

 2017-02-06 20:09:43.788956+01 | 1486408183.78896 | pgbench_branches_pkey |          1327104
 2017-02-06 20:09:43.788956+01 | 1486408183.78896 | pgbench_tellers_pkey  |          4694016
 2017-02-06 20:09:43.788956+01 | 1486408183.78896 | pgbench_accounts_pkey |       2246197248

 2017-02-06 20:09:44.856543+01 | 1486408184.85654 | pgbench_branches_pkey |          1327104
 2017-02-06 20:09:44.856543+01 | 1486408184.85654 | pgbench_tellers_pkey  |          4694016
 2017-02-06 20:09:44.856543+01 | 1486408184.85654 | pgbench_accounts_pkey |       2246197248

 2017-02-06 20:09:45.929666+01 | 1486408185.92967 | pgbench_branches_pkey |          1327104
 2017-02-06 20:09:45.929666+01 | 1486408185.92967 | pgbench_tellers_pkey  |          4694016
 2017-02-06 20:09:45.929666+01 | 1486408185.92967 | pgbench_accounts_pkey |       2246197248

 2017-02-06 20:09:47.009714+01 | 1486408187.00971 | pgbench_branches_pkey |          1327104
 2017-02-06 20:09:47.009714+01 | 1486408187.00971 | pgbench_tellers_pkey  |          4694016
 2017-02-06 20:09:47.009714+01 | 1486408187.00971 | pgbench_accounts_pkey |       2246197248

 2017-02-06 20:09:48.080998+01 | 1486408188.081 | pgbench_branches_pkey |          1327104
 2017-02-06 20:09:48.080998+01 | 1486408188.081 | pgbench_tellers_pkey  |          4694016
 2017-02-06 20:09:48.080998+01 | 1486408188.081 | pgbench_accounts_pkey |       2246197248

 2017-02-06 20:09:49.160176+01 | 1486408189.16018 | pgbench_branches_pkey |          1327104
 2017-02-06 20:09:49.160176+01 | 1486408189.16018 | pgbench_tellers_pkey  |          4694016
 2017-02-06 20:09:49.160176+01 | 1486408189.16018 | pgbench_accounts_pkey |       2246197248

 2017-02-06 20:09:50.245875+01 | 1486408190.24587 | pgbench_branches_pkey |          1327104
 2017-02-06 20:09:50.245875+01 | 1486408190.24587 | pgbench_tellers_pkey  |          4694016
 2017-02-06 20:09:50.245875+01 | 1486408190.24587 | pgbench_accounts_pkey |       2246197248

 2017-02-06 20:09:51.334114+01 | 1486408191.33411 | pgbench_branches_pkey |          1327104
 2017-02-06 20:09:51.334114+01 | 1486408191.33411 | pgbench_tellers_pkey  |          4694016
 2017-02-06 20:09:51.334114+01 | 1486408191.33411 | pgbench_accounts_pkey |       2246197248

 2017-02-06 20:09:52.409668+01 | 1486408192.40967 | pgbench_branches_pkey |          1327104
 2017-02-06 20:09:52.409668+01 | 1486408192.40967 | pgbench_tellers_pkey  |          4694016
 2017-02-06 20:09:52.409668+01 | 1486408192.40967 | pgbench_accounts_pkey |       2246197248

 2017-02-06 20:09:53.482932+01 | 1486408193.48293 | pgbench_branches_pkey |          1327104
 2017-02-06 20:09:53.482932+01 | 1486408193.48293 | pgbench_tellers_pkey  |          4694016
 2017-02-06 20:09:53.482932+01 | 1486408193.48293 | pgbench_accounts_pkey |       2246197248

 2017-02-06 20:09:54.563042+01 | 1486408194.56304 | pgbench_branches_pkey |          1327104
 2017-02-06 20:09:54.563042+01 | 1486408194.56304 | pgbench_tellers_pkey  |          4694016
 2017-02-06 20:09:54.563042+01 | 1486408194.56304 | pgbench_accounts_pkey |       2246197248

 2017-02-06 20:09:55.638886+01 | 1486408195.63889 | pgbench_branches_pkey |          1327104
 2017-02-06 20:09:55.638886+01 | 1486408195.63889 | pgbench_tellers_pkey  |          4694016
 2017-02-06 20:09:55.638886+01 | 1486408195.63889 | pgbench_accounts_pkey |       2246197248

 2017-02-06 20:09:56.712252+01 | 1486408196.71225 | pgbench_branches_pkey |          1327104
 2017-02-06 20:09:56.712252+01 | 1486408196.71225 | pgbench_tellers_pkey  |          4694016
 2017-02-06 20:09:56.712252+01 | 1486408196.71225 | pgbench_accounts_pkey |       2246197248

 2017-02-06 20:09:57.788484+01 | 1486408197.78848 | pgbench_branches_pkey |          1327104
 2017-02-06 20:09:57.788484+01 | 1486408197.78848 | pgbench_tellers_pkey  |          4694016
 2017-02-06 20:09:57.788484+01 | 1486408197.78848 | pgbench_accounts_pkey |       2246197248

 2017-02-06 20:09:58.862374+01 | 1486408198.86237 | pgbench_branches_pkey |          1327104
 2017-02-06 20:09:58.862374+01 | 1486408198.86237 | pgbench_tellers_pkey  |          4694016
 2017-02-06 20:09:58.862374+01 | 1486408198.86237 | pgbench_accounts_pkey |       2246197248

 2017-02-06 20:09:59.938466+01 | 1486408199.93847 | pgbench_branches_pkey |          1327104
 2017-02-06 20:09:59.938466+01 | 1486408199.93847 | pgbench_tellers_pkey  |          4694016
 2017-02-06 20:09:59.938466+01 | 1486408199.93847 | pgbench_accounts_pkey |       2246197248

 2017-02-06 20:10:01.014552+01 | 1486408201.01455 | pgbench_branches_pkey |          1327104
 2017-02-06 20:10:01.014552+01 | 1486408201.01455 | pgbench_tellers_pkey  |          4694016
 2017-02-06 20:10:01.014552+01 | 1486408201.01455 | pgbench_accounts_pkey |       2246197248

 2017-02-06 20:10:02.102432+01 | 1486408202.10243 | pgbench_branches_pkey |          1327104
 2017-02-06 20:10:02.102432+01 | 1486408202.10243 | pgbench_tellers_pkey  |          4694016
 2017-02-06 20:10:02.102432+01 | 1486408202.10243 | pgbench_accounts_pkey |       2246197248

 2017-02-06 20:10:03.196497+01 | 1486408203.1965 | pgbench_branches_pkey |          1327104
 2017-02-06 20:10:03.196497+01 | 1486408203.1965 | pgbench_tellers_pkey  |          4694016
 2017-02-06 20:10:03.196497+01 | 1486408203.1965 | pgbench_accounts_pkey |       2246197248

 2017-02-06 20:10:04.274795+01 | 1486408204.2748 | pgbench_branches_pkey |          1327104
 2017-02-06 20:10:04.274795+01 | 1486408204.2748 | pgbench_tellers_pkey  |          4694016
 2017-02-06 20:10:04.274795+01 | 1486408204.2748 | pgbench_accounts_pkey |       2246197248

 2017-02-06 20:10:05.359807+01 | 1486408205.35981 | pgbench_branches_pkey |          1327104
 2017-02-06 20:10:05.359807+01 | 1486408205.35981 | pgbench_tellers_pkey  |          4694016
 2017-02-06 20:10:05.359807+01 | 1486408205.35981 | pgbench_accounts_pkey |       2246197248

 2017-02-06 20:10:06.428465+01 | 1486408206.42846 | pgbench_branches_pkey |          1327104
 2017-02-06 20:10:06.428465+01 | 1486408206.42846 | pgbench_tellers_pkey  |          4694016
 2017-02-06 20:10:06.428465+01 | 1486408206.42846 | pgbench_accounts_pkey |       2246197248

 2017-02-06 20:10:07.509739+01 | 1486408207.50974 | pgbench_branches_pkey |          1327104
 2017-02-06 20:10:07.509739+01 | 1486408207.50974 | pgbench_tellers_pkey  |          4694016
 2017-02-06 20:10:07.509739+01 | 1486408207.50974 | pgbench_accounts_pkey |       2246197248

 2017-02-06 20:10:08.586399+01 | 1486408208.5864 | pgbench_branches_pkey |          1327104
 2017-02-06 20:10:08.586399+01 | 1486408208.5864 | pgbench_tellers_pkey  |          4694016
 2017-02-06 20:10:08.586399+01 | 1486408208.5864 | pgbench_accounts_pkey |       2246197248

 2017-02-06 20:10:09.666457+01 | 1486408209.66646 | pgbench_branches_pkey |          1327104
 2017-02-06 20:10:09.666457+01 | 1486408209.66646 | pgbench_tellers_pkey  |          4694016
 2017-02-06 20:10:09.666457+01 | 1486408209.66646 | pgbench_accounts_pkey |       2246197248

 2017-02-06 20:10:10.747014+01 | 1486408210.74701 | pgbench_branches_pkey |          1327104
 2017-02-06 20:10:10.747014+01 | 1486408210.74701 | pgbench_tellers_pkey  |          4694016
 2017-02-06 20:10:10.747014+01 | 1486408210.74701 | pgbench_accounts_pkey |       2246197248

 2017-02-06 20:10:11.819304+01 | 1486408211.8193 | pgbench_branches_pkey |          1327104
 2017-02-06 20:10:11.819304+01 | 1486408211.8193 | pgbench_tellers_pkey  |          4694016
 2017-02-06 20:10:11.819304+01 | 1486408211.8193 | pgbench_accounts_pkey |       2246197248

 2017-02-06 20:10:12.894435+01 | 1486408212.89443 | pgbench_branches_pkey |          1327104
 2017-02-06 20:10:12.894435+01 | 1486408212.89443 | pgbench_tellers_pkey  |          4694016
 2017-02-06 20:10:12.894435+01 | 1486408212.89443 | pgbench_accounts_pkey |       2246197248

 2017-02-06 20:10:13.971747+01 | 1486408213.97175 | pgbench_branches_pkey |          1327104
 2017-02-06 20:10:13.971747+01 | 1486408213.97175 | pgbench_tellers_pkey  |          4694016
 2017-02-06 20:10:13.971747+01 | 1486408213.97175 | pgbench_accounts_pkey |       2246197248

 2017-02-06 20:10:15.054901+01 | 1486408215.0549 | pgbench_branches_pkey |          1327104
 2017-02-06 20:10:15.054901+01 | 1486408215.0549 | pgbench_tellers_pkey  |          4694016
 2017-02-06 20:10:15.054901+01 | 1486408215.0549 | pgbench_accounts_pkey |       2246197248

 2017-02-06 20:10:16.138971+01 | 1486408216.13897 | pgbench_branches_pkey |          1327104
 2017-02-06 20:10:16.138971+01 | 1486408216.13897 | pgbench_tellers_pkey  |          4694016
 2017-02-06 20:10:16.138971+01 | 1486408216.13897 | pgbench_accounts_pkey |       2246197248

 2017-02-06 20:10:17.225604+01 | 1486408217.2256 | pgbench_branches_pkey |          1327104
 2017-02-06 20:10:17.225604+01 | 1486408217.2256 | pgbench_tellers_pkey  |          4694016
 2017-02-06 20:10:17.225604+01 | 1486408217.2256 | pgbench_accounts_pkey |       2246197248

 2017-02-06 20:10:18.298819+01 | 1486408218.29882 | pgbench_branches_pkey |          1327104
 2017-02-06 20:10:18.298819+01 | 1486408218.29882 | pgbench_tellers_pkey  |          4694016
 2017-02-06 20:10:18.298819+01 | 1486408218.29882 | pgbench_accounts_pkey |       2246197248

 2017-02-06 20:10:19.374187+01 | 1486408219.37419 | pgbench_branches_pkey |          1327104
 2017-02-06 20:10:19.374187+01 | 1486408219.37419 | pgbench_tellers_pkey  |          4694016
 2017-02-06 20:10:19.374187+01 | 1486408219.37419 | pgbench_accounts_pkey |       2246197248

