 2017-02-06 13:52:44.914281+01 | 1486385564.91428 | pgbench_branches_pkey |          1359872
 2017-02-06 13:52:44.914281+01 | 1486385564.91428 | pgbench_tellers_pkey  |          5259264
 2017-02-06 13:52:44.914281+01 | 1486385564.91428 | pgbench_accounts_pkey |       2246197248

 2017-02-06 13:52:45.998951+01 | 1486385565.99895 | pgbench_branches_pkey |          1359872
 2017-02-06 13:52:45.998951+01 | 1486385565.99895 | pgbench_tellers_pkey  |          5259264
 2017-02-06 13:52:45.998951+01 | 1486385565.99895 | pgbench_accounts_pkey |       2246197248

 2017-02-06 13:52:47.088423+01 | 1486385567.08842 | pgbench_branches_pkey |          1359872
 2017-02-06 13:52:47.088423+01 | 1486385567.08842 | pgbench_tellers_pkey  |          5259264
 2017-02-06 13:52:47.088423+01 | 1486385567.08842 | pgbench_accounts_pkey |       2246197248

 2017-02-06 13:52:48.174951+01 | 1486385568.17495 | pgbench_branches_pkey |          1359872
 2017-02-06 13:52:48.174951+01 | 1486385568.17495 | pgbench_tellers_pkey  |          5259264
 2017-02-06 13:52:48.174951+01 | 1486385568.17495 | pgbench_accounts_pkey |       2246197248

 2017-02-06 13:52:49.252871+01 | 1486385569.25287 | pgbench_branches_pkey |          1359872
 2017-02-06 13:52:49.252871+01 | 1486385569.25287 | pgbench_tellers_pkey  |          5259264
 2017-02-06 13:52:49.252871+01 | 1486385569.25287 | pgbench_accounts_pkey |       2246197248

 2017-02-06 13:52:50.325377+01 | 1486385570.32538 | pgbench_branches_pkey |          1359872
 2017-02-06 13:52:50.325377+01 | 1486385570.32538 | pgbench_tellers_pkey  |          5259264
 2017-02-06 13:52:50.325377+01 | 1486385570.32538 | pgbench_accounts_pkey |       2246197248

 2017-02-06 13:52:51.400314+01 | 1486385571.40031 | pgbench_branches_pkey |          1359872
 2017-02-06 13:52:51.400314+01 | 1486385571.40031 | pgbench_tellers_pkey  |          5259264
 2017-02-06 13:52:51.400314+01 | 1486385571.40031 | pgbench_accounts_pkey |       2246197248

 2017-02-06 13:52:52.48007+01 | 1486385572.48007 | pgbench_branches_pkey |          1359872
 2017-02-06 13:52:52.48007+01 | 1486385572.48007 | pgbench_tellers_pkey  |          5259264
 2017-02-06 13:52:52.48007+01 | 1486385572.48007 | pgbench_accounts_pkey |       2246197248

 2017-02-06 13:52:53.559915+01 | 1486385573.55992 | pgbench_branches_pkey |          1359872
 2017-02-06 13:52:53.559915+01 | 1486385573.55992 | pgbench_tellers_pkey  |          5259264
 2017-02-06 13:52:53.559915+01 | 1486385573.55992 | pgbench_accounts_pkey |       2246197248

 2017-02-06 13:52:54.641046+01 | 1486385574.64105 | pgbench_branches_pkey |          1359872
 2017-02-06 13:52:54.641046+01 | 1486385574.64105 | pgbench_tellers_pkey  |          5259264
 2017-02-06 13:52:54.641046+01 | 1486385574.64105 | pgbench_accounts_pkey |       2246197248

 2017-02-06 13:52:55.722649+01 | 1486385575.72265 | pgbench_branches_pkey |          1359872
 2017-02-06 13:52:55.722649+01 | 1486385575.72265 | pgbench_tellers_pkey  |          5259264
 2017-02-06 13:52:55.722649+01 | 1486385575.72265 | pgbench_accounts_pkey |       2246197248

 2017-02-06 13:52:56.803025+01 | 1486385576.80303 | pgbench_branches_pkey |          1359872
 2017-02-06 13:52:56.803025+01 | 1486385576.80303 | pgbench_tellers_pkey  |          5259264
 2017-02-06 13:52:56.803025+01 | 1486385576.80303 | pgbench_accounts_pkey |       2246197248

 2017-02-06 13:52:57.874662+01 | 1486385577.87466 | pgbench_branches_pkey |          1359872
 2017-02-06 13:52:57.874662+01 | 1486385577.87466 | pgbench_tellers_pkey  |          5259264
 2017-02-06 13:52:57.874662+01 | 1486385577.87466 | pgbench_accounts_pkey |       2246197248

 2017-02-06 13:52:58.946135+01 | 1486385578.94614 | pgbench_branches_pkey |          1359872
 2017-02-06 13:52:58.946135+01 | 1486385578.94614 | pgbench_tellers_pkey  |          5259264
 2017-02-06 13:52:58.946135+01 | 1486385578.94614 | pgbench_accounts_pkey |       2246197248

 2017-02-06 13:53:00.024138+01 | 1486385580.02414 | pgbench_branches_pkey |          1359872
 2017-02-06 13:53:00.024138+01 | 1486385580.02414 | pgbench_tellers_pkey  |          5259264
 2017-02-06 13:53:00.024138+01 | 1486385580.02414 | pgbench_accounts_pkey |       2246197248

 2017-02-06 13:53:01.097944+01 | 1486385581.09794 | pgbench_branches_pkey |          1359872
 2017-02-06 13:53:01.097944+01 | 1486385581.09794 | pgbench_tellers_pkey  |          5259264
 2017-02-06 13:53:01.097944+01 | 1486385581.09794 | pgbench_accounts_pkey |       2246197248

 2017-02-06 13:53:02.180037+01 | 1486385582.18004 | pgbench_branches_pkey |          1359872
 2017-02-06 13:53:02.180037+01 | 1486385582.18004 | pgbench_tellers_pkey  |          5259264
 2017-02-06 13:53:02.180037+01 | 1486385582.18004 | pgbench_accounts_pkey |       2246197248

 2017-02-06 13:53:03.254959+01 | 1486385583.25496 | pgbench_branches_pkey |          1359872
 2017-02-06 13:53:03.254959+01 | 1486385583.25496 | pgbench_tellers_pkey  |          5259264
 2017-02-06 13:53:03.254959+01 | 1486385583.25496 | pgbench_accounts_pkey |       2246197248

 2017-02-06 13:53:04.32628+01 | 1486385584.32628 | pgbench_branches_pkey |          1359872
 2017-02-06 13:53:04.32628+01 | 1486385584.32628 | pgbench_tellers_pkey  |          5259264
 2017-02-06 13:53:04.32628+01 | 1486385584.32628 | pgbench_accounts_pkey |       2246197248

 2017-02-06 13:53:05.403364+01 | 1486385585.40336 | pgbench_branches_pkey |          1359872
 2017-02-06 13:53:05.403364+01 | 1486385585.40336 | pgbench_tellers_pkey  |          5259264
 2017-02-06 13:53:05.403364+01 | 1486385585.40336 | pgbench_accounts_pkey |       2246197248

 2017-02-06 13:53:06.476024+01 | 1486385586.47602 | pgbench_branches_pkey |          1359872
 2017-02-06 13:53:06.476024+01 | 1486385586.47602 | pgbench_tellers_pkey  |          5259264
 2017-02-06 13:53:06.476024+01 | 1486385586.47602 | pgbench_accounts_pkey |       2246197248

 2017-02-06 13:53:07.552971+01 | 1486385587.55297 | pgbench_branches_pkey |          1359872
 2017-02-06 13:53:07.552971+01 | 1486385587.55297 | pgbench_tellers_pkey  |          5259264
 2017-02-06 13:53:07.552971+01 | 1486385587.55297 | pgbench_accounts_pkey |       2246197248

 2017-02-06 13:53:08.630584+01 | 1486385588.63058 | pgbench_branches_pkey |          1359872
 2017-02-06 13:53:08.630584+01 | 1486385588.63058 | pgbench_tellers_pkey  |          5259264
 2017-02-06 13:53:08.630584+01 | 1486385588.63058 | pgbench_accounts_pkey |       2246197248

 2017-02-06 13:53:09.703981+01 | 1486385589.70398 | pgbench_branches_pkey |          1359872
 2017-02-06 13:53:09.703981+01 | 1486385589.70398 | pgbench_tellers_pkey  |          5259264
 2017-02-06 13:53:09.703981+01 | 1486385589.70398 | pgbench_accounts_pkey |       2246197248

 2017-02-06 13:53:10.781716+01 | 1486385590.78172 | pgbench_branches_pkey |          1359872
 2017-02-06 13:53:10.781716+01 | 1486385590.78172 | pgbench_tellers_pkey  |          5259264
 2017-02-06 13:53:10.781716+01 | 1486385590.78172 | pgbench_accounts_pkey |       2246197248

 2017-02-06 13:53:11.857948+01 | 1486385591.85795 | pgbench_branches_pkey |          1359872
 2017-02-06 13:53:11.857948+01 | 1486385591.85795 | pgbench_tellers_pkey  |          5259264
 2017-02-06 13:53:11.857948+01 | 1486385591.85795 | pgbench_accounts_pkey |       2246197248

 2017-02-06 13:53:12.929916+01 | 1486385592.92992 | pgbench_branches_pkey |          1359872
 2017-02-06 13:53:12.929916+01 | 1486385592.92992 | pgbench_tellers_pkey  |          5259264
 2017-02-06 13:53:12.929916+01 | 1486385592.92992 | pgbench_accounts_pkey |       2246197248

 2017-02-06 13:53:14.003119+01 | 1486385594.00312 | pgbench_branches_pkey |          1359872
 2017-02-06 13:53:14.003119+01 | 1486385594.00312 | pgbench_tellers_pkey  |          5259264
 2017-02-06 13:53:14.003119+01 | 1486385594.00312 | pgbench_accounts_pkey |       2246197248

 2017-02-06 13:53:15.07638+01 | 1486385595.07638 | pgbench_branches_pkey |          1359872
 2017-02-06 13:53:15.07638+01 | 1486385595.07638 | pgbench_tellers_pkey  |          5259264
 2017-02-06 13:53:15.07638+01 | 1486385595.07638 | pgbench_accounts_pkey |       2246197248

 2017-02-06 13:53:16.152379+01 | 1486385596.15238 | pgbench_branches_pkey |          1359872
 2017-02-06 13:53:16.152379+01 | 1486385596.15238 | pgbench_tellers_pkey  |          5259264
 2017-02-06 13:53:16.152379+01 | 1486385596.15238 | pgbench_accounts_pkey |       2246197248

 2017-02-06 13:53:17.22671+01 | 1486385597.22671 | pgbench_branches_pkey |          1359872
 2017-02-06 13:53:17.22671+01 | 1486385597.22671 | pgbench_tellers_pkey  |          5259264
 2017-02-06 13:53:17.22671+01 | 1486385597.22671 | pgbench_accounts_pkey |       2246197248

 2017-02-06 13:53:18.304873+01 | 1486385598.30487 | pgbench_branches_pkey |          1359872
 2017-02-06 13:53:18.304873+01 | 1486385598.30487 | pgbench_tellers_pkey  |          5259264
 2017-02-06 13:53:18.304873+01 | 1486385598.30487 | pgbench_accounts_pkey |       2246197248

 2017-02-06 13:53:19.380916+01 | 1486385599.38092 | pgbench_branches_pkey |          1359872
 2017-02-06 13:53:19.380916+01 | 1486385599.38092 | pgbench_tellers_pkey  |          5259264
 2017-02-06 13:53:19.380916+01 | 1486385599.38092 | pgbench_accounts_pkey |       2246197248

 2017-02-06 13:53:20.460579+01 | 1486385600.46058 | pgbench_branches_pkey |          1359872
 2017-02-06 13:53:20.460579+01 | 1486385600.46058 | pgbench_tellers_pkey  |          5259264
 2017-02-06 13:53:20.460579+01 | 1486385600.46058 | pgbench_accounts_pkey |       2246197248

 2017-02-06 13:53:21.533582+01 | 1486385601.53358 | pgbench_branches_pkey |          1359872
 2017-02-06 13:53:21.533582+01 | 1486385601.53358 | pgbench_tellers_pkey  |          5259264
 2017-02-06 13:53:21.533582+01 | 1486385601.53358 | pgbench_accounts_pkey |       2246197248

 2017-02-06 13:53:22.60953+01 | 1486385602.60953 | pgbench_branches_pkey |          1359872
 2017-02-06 13:53:22.60953+01 | 1486385602.60953 | pgbench_tellers_pkey  |          5259264
 2017-02-06 13:53:22.60953+01 | 1486385602.60953 | pgbench_accounts_pkey |       2246197248

 2017-02-06 13:53:23.698446+01 | 1486385603.69845 | pgbench_branches_pkey |          1359872
 2017-02-06 13:53:23.698446+01 | 1486385603.69845 | pgbench_tellers_pkey  |          5259264
 2017-02-06 13:53:23.698446+01 | 1486385603.69845 | pgbench_accounts_pkey |       2246197248

 2017-02-06 13:53:24.774024+01 | 1486385604.77402 | pgbench_branches_pkey |          1359872
 2017-02-06 13:53:24.774024+01 | 1486385604.77402 | pgbench_tellers_pkey  |          5259264
 2017-02-06 13:53:24.774024+01 | 1486385604.77402 | pgbench_accounts_pkey |       2246197248

 2017-02-06 13:53:25.855393+01 | 1486385605.85539 | pgbench_branches_pkey |          1359872
 2017-02-06 13:53:25.855393+01 | 1486385605.85539 | pgbench_tellers_pkey  |          5259264
 2017-02-06 13:53:25.855393+01 | 1486385605.85539 | pgbench_accounts_pkey |       2246197248

 2017-02-06 13:53:26.930688+01 | 1486385606.93069 | pgbench_branches_pkey |          1359872
 2017-02-06 13:53:26.930688+01 | 1486385606.93069 | pgbench_tellers_pkey  |          5259264
 2017-02-06 13:53:26.930688+01 | 1486385606.93069 | pgbench_accounts_pkey |       2246197248

 2017-02-06 13:53:28.00518+01 | 1486385608.00518 | pgbench_branches_pkey |          1359872
 2017-02-06 13:53:28.00518+01 | 1486385608.00518 | pgbench_tellers_pkey  |          5259264
 2017-02-06 13:53:28.00518+01 | 1486385608.00518 | pgbench_accounts_pkey |       2246197248

 2017-02-06 13:53:29.078983+01 | 1486385609.07898 | pgbench_branches_pkey |          1359872
 2017-02-06 13:53:29.078983+01 | 1486385609.07898 | pgbench_tellers_pkey  |          5259264
 2017-02-06 13:53:29.078983+01 | 1486385609.07898 | pgbench_accounts_pkey |       2246197248

 2017-02-06 13:53:30.155641+01 | 1486385610.15564 | pgbench_branches_pkey |          1359872
 2017-02-06 13:53:30.155641+01 | 1486385610.15564 | pgbench_tellers_pkey  |          5259264
 2017-02-06 13:53:30.155641+01 | 1486385610.15564 | pgbench_accounts_pkey |       2246197248

 2017-02-06 13:53:31.240748+01 | 1486385611.24075 | pgbench_branches_pkey |          1359872
 2017-02-06 13:53:31.240748+01 | 1486385611.24075 | pgbench_tellers_pkey  |          5259264
 2017-02-06 13:53:31.240748+01 | 1486385611.24075 | pgbench_accounts_pkey |       2246197248

 2017-02-06 13:53:32.317692+01 | 1486385612.31769 | pgbench_branches_pkey |          1359872
 2017-02-06 13:53:32.317692+01 | 1486385612.31769 | pgbench_tellers_pkey  |          5259264
 2017-02-06 13:53:32.317692+01 | 1486385612.31769 | pgbench_accounts_pkey |       2246197248

 2017-02-06 13:53:33.390335+01 | 1486385613.39034 | pgbench_branches_pkey |          1359872
 2017-02-06 13:53:33.390335+01 | 1486385613.39034 | pgbench_tellers_pkey  |          5259264
 2017-02-06 13:53:33.390335+01 | 1486385613.39034 | pgbench_accounts_pkey |       2246197248

 2017-02-06 13:53:34.466402+01 | 1486385614.4664 | pgbench_branches_pkey |          1359872
 2017-02-06 13:53:34.466402+01 | 1486385614.4664 | pgbench_tellers_pkey  |          5259264
 2017-02-06 13:53:34.466402+01 | 1486385614.4664 | pgbench_accounts_pkey |       2246197248

 2017-02-06 13:53:35.534335+01 | 1486385615.53433 | pgbench_branches_pkey |          1359872
 2017-02-06 13:53:35.534335+01 | 1486385615.53433 | pgbench_tellers_pkey  |          5259264
 2017-02-06 13:53:35.534335+01 | 1486385615.53433 | pgbench_accounts_pkey |       2246197248

 2017-02-06 13:53:36.598139+01 | 1486385616.59814 | pgbench_branches_pkey |          1359872
 2017-02-06 13:53:36.598139+01 | 1486385616.59814 | pgbench_tellers_pkey  |          5259264
 2017-02-06 13:53:36.598139+01 | 1486385616.59814 | pgbench_accounts_pkey |       2246197248

 2017-02-06 13:53:37.673556+01 | 1486385617.67356 | pgbench_branches_pkey |          1359872
 2017-02-06 13:53:37.673556+01 | 1486385617.67356 | pgbench_tellers_pkey  |          5259264
 2017-02-06 13:53:37.673556+01 | 1486385617.67356 | pgbench_accounts_pkey |       2246197248

 2017-02-06 13:53:38.743005+01 | 1486385618.74301 | pgbench_branches_pkey |          1359872
 2017-02-06 13:53:38.743005+01 | 1486385618.74301 | pgbench_tellers_pkey  |          5259264
 2017-02-06 13:53:38.743005+01 | 1486385618.74301 | pgbench_accounts_pkey |       2246197248

 2017-02-06 13:53:39.820501+01 | 1486385619.8205 | pgbench_branches_pkey |          1359872
 2017-02-06 13:53:39.820501+01 | 1486385619.8205 | pgbench_tellers_pkey  |          5259264
 2017-02-06 13:53:39.820501+01 | 1486385619.8205 | pgbench_accounts_pkey |       2246197248

 2017-02-06 13:53:40.901606+01 | 1486385620.90161 | pgbench_branches_pkey |          1359872
 2017-02-06 13:53:40.901606+01 | 1486385620.90161 | pgbench_tellers_pkey  |          5259264
 2017-02-06 13:53:40.901606+01 | 1486385620.90161 | pgbench_accounts_pkey |       2246197248

 2017-02-06 13:53:41.973266+01 | 1486385621.97327 | pgbench_branches_pkey |          1359872
 2017-02-06 13:53:41.973266+01 | 1486385621.97327 | pgbench_tellers_pkey  |          5259264
 2017-02-06 13:53:41.973266+01 | 1486385621.97327 | pgbench_accounts_pkey |       2246197248

 2017-02-06 13:53:43.050458+01 | 1486385623.05046 | pgbench_branches_pkey |          1359872
 2017-02-06 13:53:43.050458+01 | 1486385623.05046 | pgbench_tellers_pkey  |          5259264
 2017-02-06 13:53:43.050458+01 | 1486385623.05046 | pgbench_accounts_pkey |       2246197248

 2017-02-06 13:53:44.13005+01 | 1486385624.13005 | pgbench_branches_pkey |          1359872
 2017-02-06 13:53:44.13005+01 | 1486385624.13005 | pgbench_tellers_pkey  |          5259264
 2017-02-06 13:53:44.13005+01 | 1486385624.13005 | pgbench_accounts_pkey |       2246197248

 2017-02-06 13:53:45.202013+01 | 1486385625.20201 | pgbench_branches_pkey |          1359872
 2017-02-06 13:53:45.202013+01 | 1486385625.20201 | pgbench_tellers_pkey  |          5259264
 2017-02-06 13:53:45.202013+01 | 1486385625.20201 | pgbench_accounts_pkey |       2246197248

 2017-02-06 13:53:46.278546+01 | 1486385626.27855 | pgbench_branches_pkey |          1359872
 2017-02-06 13:53:46.278546+01 | 1486385626.27855 | pgbench_tellers_pkey  |          5259264
 2017-02-06 13:53:46.278546+01 | 1486385626.27855 | pgbench_accounts_pkey |       2246197248

 2017-02-06 13:53:47.350908+01 | 1486385627.35091 | pgbench_branches_pkey |          1359872
 2017-02-06 13:53:47.350908+01 | 1486385627.35091 | pgbench_tellers_pkey  |          5259264
 2017-02-06 13:53:47.350908+01 | 1486385627.35091 | pgbench_accounts_pkey |       2246197248

 2017-02-06 13:53:48.420522+01 | 1486385628.42052 | pgbench_branches_pkey |          1359872
 2017-02-06 13:53:48.420522+01 | 1486385628.42052 | pgbench_tellers_pkey  |          5259264
 2017-02-06 13:53:48.420522+01 | 1486385628.42052 | pgbench_accounts_pkey |       2246197248

 2017-02-06 13:53:49.496254+01 | 1486385629.49625 | pgbench_branches_pkey |          1359872
 2017-02-06 13:53:49.496254+01 | 1486385629.49625 | pgbench_tellers_pkey  |          5259264
 2017-02-06 13:53:49.496254+01 | 1486385629.49625 | pgbench_accounts_pkey |       2246197248

 2017-02-06 13:53:50.572508+01 | 1486385630.57251 | pgbench_branches_pkey |          1359872
 2017-02-06 13:53:50.572508+01 | 1486385630.57251 | pgbench_tellers_pkey  |          5259264
 2017-02-06 13:53:50.572508+01 | 1486385630.57251 | pgbench_accounts_pkey |       2246197248

 2017-02-06 13:53:51.65485+01 | 1486385631.65485 | pgbench_branches_pkey |          1359872
 2017-02-06 13:53:51.65485+01 | 1486385631.65485 | pgbench_tellers_pkey  |          5259264
 2017-02-06 13:53:51.65485+01 | 1486385631.65485 | pgbench_accounts_pkey |       2246197248

 2017-02-06 13:53:52.733376+01 | 1486385632.73338 | pgbench_branches_pkey |          1359872
 2017-02-06 13:53:52.733376+01 | 1486385632.73338 | pgbench_tellers_pkey  |          5259264
 2017-02-06 13:53:52.733376+01 | 1486385632.73338 | pgbench_accounts_pkey |       2246197248

 2017-02-06 13:53:53.807339+01 | 1486385633.80734 | pgbench_branches_pkey |          1359872
 2017-02-06 13:53:53.807339+01 | 1486385633.80734 | pgbench_tellers_pkey  |          5259264
 2017-02-06 13:53:53.807339+01 | 1486385633.80734 | pgbench_accounts_pkey |       2246197248

 2017-02-06 13:53:54.884991+01 | 1486385634.88499 | pgbench_branches_pkey |          1359872
 2017-02-06 13:53:54.884991+01 | 1486385634.88499 | pgbench_tellers_pkey  |          5259264
 2017-02-06 13:53:54.884991+01 | 1486385634.88499 | pgbench_accounts_pkey |       2246197248

 2017-02-06 13:53:55.97242+01 | 1486385635.97242 | pgbench_branches_pkey |          1359872
 2017-02-06 13:53:55.97242+01 | 1486385635.97242 | pgbench_tellers_pkey  |          5259264
 2017-02-06 13:53:55.97242+01 | 1486385635.97242 | pgbench_accounts_pkey |       2246197248

 2017-02-06 13:53:57.04891+01 | 1486385637.04891 | pgbench_branches_pkey |          1359872
 2017-02-06 13:53:57.04891+01 | 1486385637.04891 | pgbench_tellers_pkey  |          5259264
 2017-02-06 13:53:57.04891+01 | 1486385637.04891 | pgbench_accounts_pkey |       2246197248

 2017-02-06 13:53:58.121155+01 | 1486385638.12116 | pgbench_branches_pkey |          1359872
 2017-02-06 13:53:58.121155+01 | 1486385638.12116 | pgbench_tellers_pkey  |          5259264
 2017-02-06 13:53:58.121155+01 | 1486385638.12116 | pgbench_accounts_pkey |       2246197248

 2017-02-06 13:53:59.191767+01 | 1486385639.19177 | pgbench_branches_pkey |          1359872
 2017-02-06 13:53:59.191767+01 | 1486385639.19177 | pgbench_tellers_pkey  |          5259264
 2017-02-06 13:53:59.191767+01 | 1486385639.19177 | pgbench_accounts_pkey |       2246197248

 2017-02-06 13:54:00.274939+01 | 1486385640.27494 | pgbench_branches_pkey |          1359872
 2017-02-06 13:54:00.274939+01 | 1486385640.27494 | pgbench_tellers_pkey  |          5259264
 2017-02-06 13:54:00.274939+01 | 1486385640.27494 | pgbench_accounts_pkey |       2246197248

 2017-02-06 13:54:01.352279+01 | 1486385641.35228 | pgbench_branches_pkey |          1359872
 2017-02-06 13:54:01.352279+01 | 1486385641.35228 | pgbench_tellers_pkey  |          5259264
 2017-02-06 13:54:01.352279+01 | 1486385641.35228 | pgbench_accounts_pkey |       2246197248

 2017-02-06 13:54:02.428293+01 | 1486385642.42829 | pgbench_branches_pkey |          1359872
 2017-02-06 13:54:02.428293+01 | 1486385642.42829 | pgbench_tellers_pkey  |          5259264
 2017-02-06 13:54:02.428293+01 | 1486385642.42829 | pgbench_accounts_pkey |       2246197248

 2017-02-06 13:54:03.507264+01 | 1486385643.50726 | pgbench_branches_pkey |          1359872
 2017-02-06 13:54:03.507264+01 | 1486385643.50726 | pgbench_tellers_pkey  |          5259264
 2017-02-06 13:54:03.507264+01 | 1486385643.50726 | pgbench_accounts_pkey |       2246197248

 2017-02-06 13:54:04.578618+01 | 1486385644.57862 | pgbench_branches_pkey |          1359872
 2017-02-06 13:54:04.578618+01 | 1486385644.57862 | pgbench_tellers_pkey  |          5259264
 2017-02-06 13:54:04.578618+01 | 1486385644.57862 | pgbench_accounts_pkey |       2246197248

 2017-02-06 13:54:05.654728+01 | 1486385645.65473 | pgbench_branches_pkey |          1359872
 2017-02-06 13:54:05.654728+01 | 1486385645.65473 | pgbench_tellers_pkey  |          5259264
 2017-02-06 13:54:05.654728+01 | 1486385645.65473 | pgbench_accounts_pkey |       2246197248

 2017-02-06 13:54:06.728486+01 | 1486385646.72849 | pgbench_branches_pkey |          1359872
 2017-02-06 13:54:06.728486+01 | 1486385646.72849 | pgbench_tellers_pkey  |          5259264
 2017-02-06 13:54:06.728486+01 | 1486385646.72849 | pgbench_accounts_pkey |       2246197248

 2017-02-06 13:54:07.806996+01 | 1486385647.807 | pgbench_branches_pkey |          1359872
 2017-02-06 13:54:07.806996+01 | 1486385647.807 | pgbench_tellers_pkey  |          5259264
 2017-02-06 13:54:07.806996+01 | 1486385647.807 | pgbench_accounts_pkey |       2246197248

 2017-02-06 13:54:08.882611+01 | 1486385648.88261 | pgbench_branches_pkey |          1359872
 2017-02-06 13:54:08.882611+01 | 1486385648.88261 | pgbench_tellers_pkey  |          5259264
 2017-02-06 13:54:08.882611+01 | 1486385648.88261 | pgbench_accounts_pkey |       2246197248

 2017-02-06 13:54:09.960959+01 | 1486385649.96096 | pgbench_branches_pkey |          1359872
 2017-02-06 13:54:09.960959+01 | 1486385649.96096 | pgbench_tellers_pkey  |          5259264
 2017-02-06 13:54:09.960959+01 | 1486385649.96096 | pgbench_accounts_pkey |       2246197248

 2017-02-06 13:54:11.033447+01 | 1486385651.03345 | pgbench_branches_pkey |          1359872
 2017-02-06 13:54:11.033447+01 | 1486385651.03345 | pgbench_tellers_pkey  |          5259264
 2017-02-06 13:54:11.033447+01 | 1486385651.03345 | pgbench_accounts_pkey |       2246197248

 2017-02-06 13:54:12.104964+01 | 1486385652.10496 | pgbench_branches_pkey |          1359872
 2017-02-06 13:54:12.104964+01 | 1486385652.10496 | pgbench_tellers_pkey  |          5259264
 2017-02-06 13:54:12.104964+01 | 1486385652.10496 | pgbench_accounts_pkey |       2246197248

 2017-02-06 13:54:13.180767+01 | 1486385653.18077 | pgbench_branches_pkey |          1359872
 2017-02-06 13:54:13.180767+01 | 1486385653.18077 | pgbench_tellers_pkey  |          5259264
 2017-02-06 13:54:13.180767+01 | 1486385653.18077 | pgbench_accounts_pkey |       2246197248

 2017-02-06 13:54:14.261502+01 | 1486385654.2615 | pgbench_branches_pkey |          1359872
 2017-02-06 13:54:14.261502+01 | 1486385654.2615 | pgbench_tellers_pkey  |          5259264
 2017-02-06 13:54:14.261502+01 | 1486385654.2615 | pgbench_accounts_pkey |       2246197248

 2017-02-06 13:54:15.338573+01 | 1486385655.33857 | pgbench_branches_pkey |          1359872
 2017-02-06 13:54:15.338573+01 | 1486385655.33857 | pgbench_tellers_pkey  |          5259264
 2017-02-06 13:54:15.338573+01 | 1486385655.33857 | pgbench_accounts_pkey |       2246197248

 2017-02-06 13:54:16.41415+01 | 1486385656.41415 | pgbench_branches_pkey |          1359872
 2017-02-06 13:54:16.41415+01 | 1486385656.41415 | pgbench_tellers_pkey  |          5259264
 2017-02-06 13:54:16.41415+01 | 1486385656.41415 | pgbench_accounts_pkey |       2246197248

 2017-02-06 13:54:17.49419+01 | 1486385657.49419 | pgbench_branches_pkey |          1359872
 2017-02-06 13:54:17.49419+01 | 1486385657.49419 | pgbench_tellers_pkey  |          5259264
 2017-02-06 13:54:17.49419+01 | 1486385657.49419 | pgbench_accounts_pkey |       2246197248

 2017-02-06 13:54:18.570048+01 | 1486385658.57005 | pgbench_branches_pkey |          1359872
 2017-02-06 13:54:18.570048+01 | 1486385658.57005 | pgbench_tellers_pkey  |          5259264
 2017-02-06 13:54:18.570048+01 | 1486385658.57005 | pgbench_accounts_pkey |       2246197248

 2017-02-06 13:54:19.636772+01 | 1486385659.63677 | pgbench_branches_pkey |          1359872
 2017-02-06 13:54:19.636772+01 | 1486385659.63677 | pgbench_tellers_pkey  |          5259264
 2017-02-06 13:54:19.636772+01 | 1486385659.63677 | pgbench_accounts_pkey |       2246197248

 2017-02-06 13:54:20.713604+01 | 1486385660.7136 | pgbench_branches_pkey |          1359872
 2017-02-06 13:54:20.713604+01 | 1486385660.7136 | pgbench_tellers_pkey  |          5259264
 2017-02-06 13:54:20.713604+01 | 1486385660.7136 | pgbench_accounts_pkey |       2246197248

 2017-02-06 13:54:21.794924+01 | 1486385661.79492 | pgbench_branches_pkey |          1359872
 2017-02-06 13:54:21.794924+01 | 1486385661.79492 | pgbench_tellers_pkey  |          5259264
 2017-02-06 13:54:21.794924+01 | 1486385661.79492 | pgbench_accounts_pkey |       2246197248

 2017-02-06 13:54:22.872274+01 | 1486385662.87227 | pgbench_branches_pkey |          1359872
 2017-02-06 13:54:22.872274+01 | 1486385662.87227 | pgbench_tellers_pkey  |          5259264
 2017-02-06 13:54:22.872274+01 | 1486385662.87227 | pgbench_accounts_pkey |       2246197248

 2017-02-06 13:54:23.95232+01 | 1486385663.95232 | pgbench_branches_pkey |          1359872
 2017-02-06 13:54:23.95232+01 | 1486385663.95232 | pgbench_tellers_pkey  |          5259264
 2017-02-06 13:54:23.95232+01 | 1486385663.95232 | pgbench_accounts_pkey |       2246197248

 2017-02-06 13:54:25.028703+01 | 1486385665.0287 | pgbench_branches_pkey |          1359872
 2017-02-06 13:54:25.028703+01 | 1486385665.0287 | pgbench_tellers_pkey  |          5259264
 2017-02-06 13:54:25.028703+01 | 1486385665.0287 | pgbench_accounts_pkey |       2246197248

 2017-02-06 13:54:26.101371+01 | 1486385666.10137 | pgbench_branches_pkey |          1359872
 2017-02-06 13:54:26.101371+01 | 1486385666.10137 | pgbench_tellers_pkey  |          5259264
 2017-02-06 13:54:26.101371+01 | 1486385666.10137 | pgbench_accounts_pkey |       2246197248

 2017-02-06 13:54:27.17649+01 | 1486385667.17649 | pgbench_branches_pkey |          1359872
 2017-02-06 13:54:27.17649+01 | 1486385667.17649 | pgbench_tellers_pkey  |          5259264
 2017-02-06 13:54:27.17649+01 | 1486385667.17649 | pgbench_accounts_pkey |       2246197248

 2017-02-06 13:54:28.257766+01 | 1486385668.25777 | pgbench_branches_pkey |          1359872
 2017-02-06 13:54:28.257766+01 | 1486385668.25777 | pgbench_tellers_pkey  |          5259264
 2017-02-06 13:54:28.257766+01 | 1486385668.25777 | pgbench_accounts_pkey |       2246197248

 2017-02-06 13:54:29.335697+01 | 1486385669.3357 | pgbench_branches_pkey |          1359872
 2017-02-06 13:54:29.335697+01 | 1486385669.3357 | pgbench_tellers_pkey  |          5259264
 2017-02-06 13:54:29.335697+01 | 1486385669.3357 | pgbench_accounts_pkey |       2246197248

 2017-02-06 13:54:30.41512+01 | 1486385670.41512 | pgbench_branches_pkey |          1359872
 2017-02-06 13:54:30.41512+01 | 1486385670.41512 | pgbench_tellers_pkey  |          5259264
 2017-02-06 13:54:30.41512+01 | 1486385670.41512 | pgbench_accounts_pkey |       2246197248

 2017-02-06 13:54:31.488236+01 | 1486385671.48824 | pgbench_branches_pkey |          1359872
 2017-02-06 13:54:31.488236+01 | 1486385671.48824 | pgbench_tellers_pkey  |          5259264
 2017-02-06 13:54:31.488236+01 | 1486385671.48824 | pgbench_accounts_pkey |       2246197248

 2017-02-06 13:54:32.571659+01 | 1486385672.57166 | pgbench_branches_pkey |          1359872
 2017-02-06 13:54:32.571659+01 | 1486385672.57166 | pgbench_tellers_pkey  |          5259264
 2017-02-06 13:54:32.571659+01 | 1486385672.57166 | pgbench_accounts_pkey |       2246197248

 2017-02-06 13:54:33.648505+01 | 1486385673.6485 | pgbench_branches_pkey |          1359872
 2017-02-06 13:54:33.648505+01 | 1486385673.6485 | pgbench_tellers_pkey  |          5259264
 2017-02-06 13:54:33.648505+01 | 1486385673.6485 | pgbench_accounts_pkey |       2246197248

 2017-02-06 13:54:34.73572+01 | 1486385674.73572 | pgbench_branches_pkey |          1359872
 2017-02-06 13:54:34.73572+01 | 1486385674.73572 | pgbench_tellers_pkey  |          5259264
 2017-02-06 13:54:34.73572+01 | 1486385674.73572 | pgbench_accounts_pkey |       2246197248

 2017-02-06 13:54:35.806633+01 | 1486385675.80663 | pgbench_branches_pkey |          1359872
 2017-02-06 13:54:35.806633+01 | 1486385675.80663 | pgbench_tellers_pkey  |          5259264
 2017-02-06 13:54:35.806633+01 | 1486385675.80663 | pgbench_accounts_pkey |       2246197248

 2017-02-06 13:54:36.88132+01 | 1486385676.88132 | pgbench_branches_pkey |          1359872
 2017-02-06 13:54:36.88132+01 | 1486385676.88132 | pgbench_tellers_pkey  |          5259264
 2017-02-06 13:54:36.88132+01 | 1486385676.88132 | pgbench_accounts_pkey |       2246197248

 2017-02-06 13:54:37.96572+01 | 1486385677.96572 | pgbench_branches_pkey |          1359872
 2017-02-06 13:54:37.96572+01 | 1486385677.96572 | pgbench_tellers_pkey  |          5259264
 2017-02-06 13:54:37.96572+01 | 1486385677.96572 | pgbench_accounts_pkey |       2246197248

 2017-02-06 13:54:39.048904+01 | 1486385679.0489 | pgbench_branches_pkey |          1359872
 2017-02-06 13:54:39.048904+01 | 1486385679.0489 | pgbench_tellers_pkey  |          5259264
 2017-02-06 13:54:39.048904+01 | 1486385679.0489 | pgbench_accounts_pkey |       2246197248

 2017-02-06 13:54:40.13469+01 | 1486385680.13469 | pgbench_branches_pkey |          1359872
 2017-02-06 13:54:40.13469+01 | 1486385680.13469 | pgbench_tellers_pkey  |          5259264
 2017-02-06 13:54:40.13469+01 | 1486385680.13469 | pgbench_accounts_pkey |       2246197248

 2017-02-06 13:54:41.219779+01 | 1486385681.21978 | pgbench_branches_pkey |          1359872
 2017-02-06 13:54:41.219779+01 | 1486385681.21978 | pgbench_tellers_pkey  |          5259264
 2017-02-06 13:54:41.219779+01 | 1486385681.21978 | pgbench_accounts_pkey |       2246197248

 2017-02-06 13:54:42.298928+01 | 1486385682.29893 | pgbench_branches_pkey |          1359872
 2017-02-06 13:54:42.298928+01 | 1486385682.29893 | pgbench_tellers_pkey  |          5259264
 2017-02-06 13:54:42.298928+01 | 1486385682.29893 | pgbench_accounts_pkey |       2246197248

 2017-02-06 13:54:43.369778+01 | 1486385683.36978 | pgbench_branches_pkey |          1359872
 2017-02-06 13:54:43.369778+01 | 1486385683.36978 | pgbench_tellers_pkey  |          5259264
 2017-02-06 13:54:43.369778+01 | 1486385683.36978 | pgbench_accounts_pkey |       2246197248

 2017-02-06 13:54:44.445443+01 | 1486385684.44544 | pgbench_branches_pkey |          1359872
 2017-02-06 13:54:44.445443+01 | 1486385684.44544 | pgbench_tellers_pkey  |          5259264
 2017-02-06 13:54:44.445443+01 | 1486385684.44544 | pgbench_accounts_pkey |       2246197248

 2017-02-06 13:54:45.516185+01 | 1486385685.51619 | pgbench_branches_pkey |          1359872
 2017-02-06 13:54:45.516185+01 | 1486385685.51619 | pgbench_tellers_pkey  |          5259264
 2017-02-06 13:54:45.516185+01 | 1486385685.51619 | pgbench_accounts_pkey |       2246197248

 2017-02-06 13:54:46.59348+01 | 1486385686.59348 | pgbench_branches_pkey |          1359872
 2017-02-06 13:54:46.59348+01 | 1486385686.59348 | pgbench_tellers_pkey  |          5259264
 2017-02-06 13:54:46.59348+01 | 1486385686.59348 | pgbench_accounts_pkey |       2246197248

 2017-02-06 13:54:47.668792+01 | 1486385687.66879 | pgbench_branches_pkey |          1359872
 2017-02-06 13:54:47.668792+01 | 1486385687.66879 | pgbench_tellers_pkey  |          5259264
 2017-02-06 13:54:47.668792+01 | 1486385687.66879 | pgbench_accounts_pkey |       2246197248

 2017-02-06 13:54:48.755587+01 | 1486385688.75559 | pgbench_branches_pkey |          1359872
 2017-02-06 13:54:48.755587+01 | 1486385688.75559 | pgbench_tellers_pkey  |          5259264
 2017-02-06 13:54:48.755587+01 | 1486385688.75559 | pgbench_accounts_pkey |       2246197248

 2017-02-06 13:54:49.838641+01 | 1486385689.83864 | pgbench_branches_pkey |          1359872
 2017-02-06 13:54:49.838641+01 | 1486385689.83864 | pgbench_tellers_pkey  |          5259264
 2017-02-06 13:54:49.838641+01 | 1486385689.83864 | pgbench_accounts_pkey |       2246197248

 2017-02-06 13:54:50.916452+01 | 1486385690.91645 | pgbench_branches_pkey |          1359872
 2017-02-06 13:54:50.916452+01 | 1486385690.91645 | pgbench_tellers_pkey  |          5259264
 2017-02-06 13:54:50.916452+01 | 1486385690.91645 | pgbench_accounts_pkey |       2246197248

 2017-02-06 13:54:51.992755+01 | 1486385691.99275 | pgbench_branches_pkey |          1359872
 2017-02-06 13:54:51.992755+01 | 1486385691.99275 | pgbench_tellers_pkey  |          5259264
 2017-02-06 13:54:51.992755+01 | 1486385691.99275 | pgbench_accounts_pkey |       2246197248

 2017-02-06 13:54:53.064588+01 | 1486385693.06459 | pgbench_branches_pkey |          1359872
 2017-02-06 13:54:53.064588+01 | 1486385693.06459 | pgbench_tellers_pkey  |          5259264
 2017-02-06 13:54:53.064588+01 | 1486385693.06459 | pgbench_accounts_pkey |       2246197248

 2017-02-06 13:54:54.139449+01 | 1486385694.13945 | pgbench_branches_pkey |          1359872
 2017-02-06 13:54:54.139449+01 | 1486385694.13945 | pgbench_tellers_pkey  |          5259264
 2017-02-06 13:54:54.139449+01 | 1486385694.13945 | pgbench_accounts_pkey |       2246197248

 2017-02-06 13:54:55.210066+01 | 1486385695.21007 | pgbench_branches_pkey |          1359872
 2017-02-06 13:54:55.210066+01 | 1486385695.21007 | pgbench_tellers_pkey  |          5259264
 2017-02-06 13:54:55.210066+01 | 1486385695.21007 | pgbench_accounts_pkey |       2246197248

 2017-02-06 13:54:56.283343+01 | 1486385696.28334 | pgbench_branches_pkey |          1359872
 2017-02-06 13:54:56.283343+01 | 1486385696.28334 | pgbench_tellers_pkey  |          5259264
 2017-02-06 13:54:56.283343+01 | 1486385696.28334 | pgbench_accounts_pkey |       2246197248

 2017-02-06 13:54:57.361124+01 | 1486385697.36112 | pgbench_branches_pkey |          1359872
 2017-02-06 13:54:57.361124+01 | 1486385697.36112 | pgbench_tellers_pkey  |          5259264
 2017-02-06 13:54:57.361124+01 | 1486385697.36112 | pgbench_accounts_pkey |       2246197248

 2017-02-06 13:54:58.440612+01 | 1486385698.44061 | pgbench_branches_pkey |          1359872
 2017-02-06 13:54:58.440612+01 | 1486385698.44061 | pgbench_tellers_pkey  |          5259264
 2017-02-06 13:54:58.440612+01 | 1486385698.44061 | pgbench_accounts_pkey |       2246197248

 2017-02-06 13:54:59.514241+01 | 1486385699.51424 | pgbench_branches_pkey |          1359872
 2017-02-06 13:54:59.514241+01 | 1486385699.51424 | pgbench_tellers_pkey  |          5259264
 2017-02-06 13:54:59.514241+01 | 1486385699.51424 | pgbench_accounts_pkey |       2246197248

 2017-02-06 13:55:00.592364+01 | 1486385700.59236 | pgbench_branches_pkey |          1359872
 2017-02-06 13:55:00.592364+01 | 1486385700.59236 | pgbench_tellers_pkey  |          5259264
 2017-02-06 13:55:00.592364+01 | 1486385700.59236 | pgbench_accounts_pkey |       2246197248

 2017-02-06 13:55:01.676453+01 | 1486385701.67645 | pgbench_branches_pkey |          1359872
 2017-02-06 13:55:01.676453+01 | 1486385701.67645 | pgbench_tellers_pkey  |          5259264
 2017-02-06 13:55:01.676453+01 | 1486385701.67645 | pgbench_accounts_pkey |       2246197248

 2017-02-06 13:55:02.766135+01 | 1486385702.76613 | pgbench_branches_pkey |          1359872
 2017-02-06 13:55:02.766135+01 | 1486385702.76613 | pgbench_tellers_pkey  |          5259264
 2017-02-06 13:55:02.766135+01 | 1486385702.76613 | pgbench_accounts_pkey |       2246197248

 2017-02-06 13:55:03.840353+01 | 1486385703.84035 | pgbench_branches_pkey |          1359872
 2017-02-06 13:55:03.840353+01 | 1486385703.84035 | pgbench_tellers_pkey  |          5259264
 2017-02-06 13:55:03.840353+01 | 1486385703.84035 | pgbench_accounts_pkey |       2246197248

 2017-02-06 13:55:04.916371+01 | 1486385704.91637 | pgbench_branches_pkey |          1359872
 2017-02-06 13:55:04.916371+01 | 1486385704.91637 | pgbench_tellers_pkey  |          5259264
 2017-02-06 13:55:04.916371+01 | 1486385704.91637 | pgbench_accounts_pkey |       2246197248

 2017-02-06 13:55:05.994675+01 | 1486385705.99467 | pgbench_branches_pkey |          1359872
 2017-02-06 13:55:05.994675+01 | 1486385705.99467 | pgbench_tellers_pkey  |          5259264
 2017-02-06 13:55:05.994675+01 | 1486385705.99467 | pgbench_accounts_pkey |       2246197248

 2017-02-06 13:55:07.070202+01 | 1486385707.0702 | pgbench_branches_pkey |          1359872
 2017-02-06 13:55:07.070202+01 | 1486385707.0702 | pgbench_tellers_pkey  |          5259264
 2017-02-06 13:55:07.070202+01 | 1486385707.0702 | pgbench_accounts_pkey |       2246197248

 2017-02-06 13:55:08.156975+01 | 1486385708.15698 | pgbench_branches_pkey |          1359872
 2017-02-06 13:55:08.156975+01 | 1486385708.15698 | pgbench_tellers_pkey  |          5259264
 2017-02-06 13:55:08.156975+01 | 1486385708.15698 | pgbench_accounts_pkey |       2246197248

 2017-02-06 13:55:09.232654+01 | 1486385709.23265 | pgbench_branches_pkey |          1359872
 2017-02-06 13:55:09.232654+01 | 1486385709.23265 | pgbench_tellers_pkey  |          5259264
 2017-02-06 13:55:09.232654+01 | 1486385709.23265 | pgbench_accounts_pkey |       2246197248

 2017-02-06 13:55:10.310644+01 | 1486385710.31064 | pgbench_branches_pkey |          1359872
 2017-02-06 13:55:10.310644+01 | 1486385710.31064 | pgbench_tellers_pkey  |          5259264
 2017-02-06 13:55:10.310644+01 | 1486385710.31064 | pgbench_accounts_pkey |       2246197248

 2017-02-06 13:55:11.392338+01 | 1486385711.39234 | pgbench_branches_pkey |          1359872
 2017-02-06 13:55:11.392338+01 | 1486385711.39234 | pgbench_tellers_pkey  |          5259264
 2017-02-06 13:55:11.392338+01 | 1486385711.39234 | pgbench_accounts_pkey |       2246197248

 2017-02-06 13:55:12.467017+01 | 1486385712.46702 | pgbench_branches_pkey |          1359872
 2017-02-06 13:55:12.467017+01 | 1486385712.46702 | pgbench_tellers_pkey  |          5259264
 2017-02-06 13:55:12.467017+01 | 1486385712.46702 | pgbench_accounts_pkey |       2246197248

 2017-02-06 13:55:13.538773+01 | 1486385713.53877 | pgbench_branches_pkey |          1359872
 2017-02-06 13:55:13.538773+01 | 1486385713.53877 | pgbench_tellers_pkey  |          5259264
 2017-02-06 13:55:13.538773+01 | 1486385713.53877 | pgbench_accounts_pkey |       2246197248

 2017-02-06 13:55:14.608485+01 | 1486385714.60848 | pgbench_branches_pkey |          1359872
 2017-02-06 13:55:14.608485+01 | 1486385714.60848 | pgbench_tellers_pkey  |          5259264
 2017-02-06 13:55:14.608485+01 | 1486385714.60848 | pgbench_accounts_pkey |       2246197248

 2017-02-06 13:55:15.683402+01 | 1486385715.6834 | pgbench_branches_pkey |          1359872
 2017-02-06 13:55:15.683402+01 | 1486385715.6834 | pgbench_tellers_pkey  |          5259264
 2017-02-06 13:55:15.683402+01 | 1486385715.6834 | pgbench_accounts_pkey |       2246197248

 2017-02-06 13:55:16.760345+01 | 1486385716.76034 | pgbench_branches_pkey |          1359872
 2017-02-06 13:55:16.760345+01 | 1486385716.76034 | pgbench_tellers_pkey  |          5259264
 2017-02-06 13:55:16.760345+01 | 1486385716.76034 | pgbench_accounts_pkey |       2246197248

 2017-02-06 13:55:17.841906+01 | 1486385717.84191 | pgbench_branches_pkey |          1359872
 2017-02-06 13:55:17.841906+01 | 1486385717.84191 | pgbench_tellers_pkey  |          5259264
 2017-02-06 13:55:17.841906+01 | 1486385717.84191 | pgbench_accounts_pkey |       2246197248

 2017-02-06 13:55:18.9172+01 | 1486385718.9172 | pgbench_branches_pkey |          1359872
 2017-02-06 13:55:18.9172+01 | 1486385718.9172 | pgbench_tellers_pkey  |          5259264
 2017-02-06 13:55:18.9172+01 | 1486385718.9172 | pgbench_accounts_pkey |       2246197248

 2017-02-06 13:55:20.00069+01 | 1486385720.00069 | pgbench_branches_pkey |          1359872
 2017-02-06 13:55:20.00069+01 | 1486385720.00069 | pgbench_tellers_pkey  |          5259264
 2017-02-06 13:55:20.00069+01 | 1486385720.00069 | pgbench_accounts_pkey |       2246197248

 2017-02-06 13:55:21.07659+01 | 1486385721.07659 | pgbench_branches_pkey |          1359872
 2017-02-06 13:55:21.07659+01 | 1486385721.07659 | pgbench_tellers_pkey  |          5259264
 2017-02-06 13:55:21.07659+01 | 1486385721.07659 | pgbench_accounts_pkey |       2246197248

 2017-02-06 13:55:22.155191+01 | 1486385722.15519 | pgbench_branches_pkey |          1359872
 2017-02-06 13:55:22.155191+01 | 1486385722.15519 | pgbench_tellers_pkey  |          5259264
 2017-02-06 13:55:22.155191+01 | 1486385722.15519 | pgbench_accounts_pkey |       2246197248

 2017-02-06 13:55:23.228881+01 | 1486385723.22888 | pgbench_branches_pkey |          1359872
 2017-02-06 13:55:23.228881+01 | 1486385723.22888 | pgbench_tellers_pkey  |          5259264
 2017-02-06 13:55:23.228881+01 | 1486385723.22888 | pgbench_accounts_pkey |       2246197248

 2017-02-06 13:55:24.305868+01 | 1486385724.30587 | pgbench_branches_pkey |          1359872
 2017-02-06 13:55:24.305868+01 | 1486385724.30587 | pgbench_tellers_pkey  |          5259264
 2017-02-06 13:55:24.305868+01 | 1486385724.30587 | pgbench_accounts_pkey |       2246197248

 2017-02-06 13:55:25.389198+01 | 1486385725.3892 | pgbench_branches_pkey |          1359872
 2017-02-06 13:55:25.389198+01 | 1486385725.3892 | pgbench_tellers_pkey  |          5259264
 2017-02-06 13:55:25.389198+01 | 1486385725.3892 | pgbench_accounts_pkey |       2246197248

 2017-02-06 13:55:26.464442+01 | 1486385726.46444 | pgbench_branches_pkey |          1359872
 2017-02-06 13:55:26.464442+01 | 1486385726.46444 | pgbench_tellers_pkey  |          5259264
 2017-02-06 13:55:26.464442+01 | 1486385726.46444 | pgbench_accounts_pkey |       2246197248

 2017-02-06 13:55:27.541032+01 | 1486385727.54103 | pgbench_branches_pkey |          1359872
 2017-02-06 13:55:27.541032+01 | 1486385727.54103 | pgbench_tellers_pkey  |          5259264
 2017-02-06 13:55:27.541032+01 | 1486385727.54103 | pgbench_accounts_pkey |       2246197248

 2017-02-06 13:55:28.612507+01 | 1486385728.61251 | pgbench_branches_pkey |          1359872
 2017-02-06 13:55:28.612507+01 | 1486385728.61251 | pgbench_tellers_pkey  |          5259264
 2017-02-06 13:55:28.612507+01 | 1486385728.61251 | pgbench_accounts_pkey |       2246197248

 2017-02-06 13:55:29.690205+01 | 1486385729.69021 | pgbench_branches_pkey |          1359872
 2017-02-06 13:55:29.690205+01 | 1486385729.69021 | pgbench_tellers_pkey  |          5259264
 2017-02-06 13:55:29.690205+01 | 1486385729.69021 | pgbench_accounts_pkey |       2246197248

 2017-02-06 13:55:30.76418+01 | 1486385730.76418 | pgbench_branches_pkey |          1359872
 2017-02-06 13:55:30.76418+01 | 1486385730.76418 | pgbench_tellers_pkey  |          5259264
 2017-02-06 13:55:30.76418+01 | 1486385730.76418 | pgbench_accounts_pkey |       2246197248

 2017-02-06 13:55:31.835992+01 | 1486385731.83599 | pgbench_branches_pkey |          1359872
 2017-02-06 13:55:31.835992+01 | 1486385731.83599 | pgbench_tellers_pkey  |          5259264
 2017-02-06 13:55:31.835992+01 | 1486385731.83599 | pgbench_accounts_pkey |       2246197248

 2017-02-06 13:55:32.915961+01 | 1486385732.91596 | pgbench_branches_pkey |          1359872
 2017-02-06 13:55:32.915961+01 | 1486385732.91596 | pgbench_tellers_pkey  |          5259264
 2017-02-06 13:55:32.915961+01 | 1486385732.91596 | pgbench_accounts_pkey |       2246197248

 2017-02-06 13:55:33.992816+01 | 1486385733.99282 | pgbench_branches_pkey |          1359872
 2017-02-06 13:55:33.992816+01 | 1486385733.99282 | pgbench_tellers_pkey  |          5259264
 2017-02-06 13:55:33.992816+01 | 1486385733.99282 | pgbench_accounts_pkey |       2246197248

 2017-02-06 13:55:35.072429+01 | 1486385735.07243 | pgbench_branches_pkey |          1359872
 2017-02-06 13:55:35.072429+01 | 1486385735.07243 | pgbench_tellers_pkey  |          5259264
 2017-02-06 13:55:35.072429+01 | 1486385735.07243 | pgbench_accounts_pkey |       2246197248

 2017-02-06 13:55:36.147715+01 | 1486385736.14772 | pgbench_branches_pkey |          1359872
 2017-02-06 13:55:36.147715+01 | 1486385736.14772 | pgbench_tellers_pkey  |          5259264
 2017-02-06 13:55:36.147715+01 | 1486385736.14772 | pgbench_accounts_pkey |       2246197248

 2017-02-06 13:55:37.220999+01 | 1486385737.221 | pgbench_branches_pkey |          1359872
 2017-02-06 13:55:37.220999+01 | 1486385737.221 | pgbench_tellers_pkey  |          5259264
 2017-02-06 13:55:37.220999+01 | 1486385737.221 | pgbench_accounts_pkey |       2246197248

 2017-02-06 13:55:38.298018+01 | 1486385738.29802 | pgbench_branches_pkey |          1359872
 2017-02-06 13:55:38.298018+01 | 1486385738.29802 | pgbench_tellers_pkey  |          5259264
 2017-02-06 13:55:38.298018+01 | 1486385738.29802 | pgbench_accounts_pkey |       2246197248

 2017-02-06 13:55:39.376928+01 | 1486385739.37693 | pgbench_branches_pkey |          1359872
 2017-02-06 13:55:39.376928+01 | 1486385739.37693 | pgbench_tellers_pkey  |          5259264
 2017-02-06 13:55:39.376928+01 | 1486385739.37693 | pgbench_accounts_pkey |       2246197248

 2017-02-06 13:55:40.458372+01 | 1486385740.45837 | pgbench_branches_pkey |          1359872
 2017-02-06 13:55:40.458372+01 | 1486385740.45837 | pgbench_tellers_pkey  |          5259264
 2017-02-06 13:55:40.458372+01 | 1486385740.45837 | pgbench_accounts_pkey |       2246197248

 2017-02-06 13:55:41.533804+01 | 1486385741.5338 | pgbench_branches_pkey |          1359872
 2017-02-06 13:55:41.533804+01 | 1486385741.5338 | pgbench_tellers_pkey  |          5259264
 2017-02-06 13:55:41.533804+01 | 1486385741.5338 | pgbench_accounts_pkey |       2246197248

 2017-02-06 13:55:42.607581+01 | 1486385742.60758 | pgbench_branches_pkey |          1359872
 2017-02-06 13:55:42.607581+01 | 1486385742.60758 | pgbench_tellers_pkey  |          5259264
 2017-02-06 13:55:42.607581+01 | 1486385742.60758 | pgbench_accounts_pkey |       2246197248

 2017-02-06 13:55:43.695378+01 | 1486385743.69538 | pgbench_branches_pkey |          1359872
 2017-02-06 13:55:43.695378+01 | 1486385743.69538 | pgbench_tellers_pkey  |          5259264
 2017-02-06 13:55:43.695378+01 | 1486385743.69538 | pgbench_accounts_pkey |       2246197248

 2017-02-06 13:55:44.778786+01 | 1486385744.77879 | pgbench_branches_pkey |          1359872
 2017-02-06 13:55:44.778786+01 | 1486385744.77879 | pgbench_tellers_pkey  |          5259264
 2017-02-06 13:55:44.778786+01 | 1486385744.77879 | pgbench_accounts_pkey |       2246197248

 2017-02-06 13:55:45.860401+01 | 1486385745.8604 | pgbench_branches_pkey |          1359872
 2017-02-06 13:55:45.860401+01 | 1486385745.8604 | pgbench_tellers_pkey  |          5259264
 2017-02-06 13:55:45.860401+01 | 1486385745.8604 | pgbench_accounts_pkey |       2246197248

 2017-02-06 13:55:46.942111+01 | 1486385746.94211 | pgbench_branches_pkey |          1359872
 2017-02-06 13:55:46.942111+01 | 1486385746.94211 | pgbench_tellers_pkey  |          5259264
 2017-02-06 13:55:46.942111+01 | 1486385746.94211 | pgbench_accounts_pkey |       2246197248

 2017-02-06 13:55:48.021761+01 | 1486385748.02176 | pgbench_branches_pkey |          1359872
 2017-02-06 13:55:48.021761+01 | 1486385748.02176 | pgbench_tellers_pkey  |          5259264
 2017-02-06 13:55:48.021761+01 | 1486385748.02176 | pgbench_accounts_pkey |       2246197248

 2017-02-06 13:55:49.093301+01 | 1486385749.0933 | pgbench_branches_pkey |          1359872
 2017-02-06 13:55:49.093301+01 | 1486385749.0933 | pgbench_tellers_pkey  |          5259264
 2017-02-06 13:55:49.093301+01 | 1486385749.0933 | pgbench_accounts_pkey |       2246197248

 2017-02-06 13:55:50.165829+01 | 1486385750.16583 | pgbench_branches_pkey |          1359872
 2017-02-06 13:55:50.165829+01 | 1486385750.16583 | pgbench_tellers_pkey  |          5259264
 2017-02-06 13:55:50.165829+01 | 1486385750.16583 | pgbench_accounts_pkey |       2246197248

 2017-02-06 13:55:51.247614+01 | 1486385751.24761 | pgbench_branches_pkey |          1359872
 2017-02-06 13:55:51.247614+01 | 1486385751.24761 | pgbench_tellers_pkey  |          5259264
 2017-02-06 13:55:51.247614+01 | 1486385751.24761 | pgbench_accounts_pkey |       2246197248

 2017-02-06 13:55:52.324863+01 | 1486385752.32486 | pgbench_branches_pkey |          1359872
 2017-02-06 13:55:52.324863+01 | 1486385752.32486 | pgbench_tellers_pkey  |          5259264
 2017-02-06 13:55:52.324863+01 | 1486385752.32486 | pgbench_accounts_pkey |       2246197248

 2017-02-06 13:55:53.400771+01 | 1486385753.40077 | pgbench_branches_pkey |          1359872
 2017-02-06 13:55:53.400771+01 | 1486385753.40077 | pgbench_tellers_pkey  |          5259264
 2017-02-06 13:55:53.400771+01 | 1486385753.40077 | pgbench_accounts_pkey |       2246197248

 2017-02-06 13:55:54.483199+01 | 1486385754.4832 | pgbench_branches_pkey |          1359872
 2017-02-06 13:55:54.483199+01 | 1486385754.4832 | pgbench_tellers_pkey  |          5259264
 2017-02-06 13:55:54.483199+01 | 1486385754.4832 | pgbench_accounts_pkey |       2246197248

 2017-02-06 13:55:55.553905+01 | 1486385755.55391 | pgbench_branches_pkey |          1359872
 2017-02-06 13:55:55.553905+01 | 1486385755.55391 | pgbench_tellers_pkey  |          5259264
 2017-02-06 13:55:55.553905+01 | 1486385755.55391 | pgbench_accounts_pkey |       2246197248

 2017-02-06 13:55:56.637876+01 | 1486385756.63788 | pgbench_branches_pkey |          1359872
 2017-02-06 13:55:56.637876+01 | 1486385756.63788 | pgbench_tellers_pkey  |          5259264
 2017-02-06 13:55:56.637876+01 | 1486385756.63788 | pgbench_accounts_pkey |       2246197248

 2017-02-06 13:55:57.716622+01 | 1486385757.71662 | pgbench_branches_pkey |          1359872
 2017-02-06 13:55:57.716622+01 | 1486385757.71662 | pgbench_tellers_pkey  |          5259264
 2017-02-06 13:55:57.716622+01 | 1486385757.71662 | pgbench_accounts_pkey |       2246197248

 2017-02-06 13:55:58.795381+01 | 1486385758.79538 | pgbench_branches_pkey |          1359872
 2017-02-06 13:55:58.795381+01 | 1486385758.79538 | pgbench_tellers_pkey  |          5259264
 2017-02-06 13:55:58.795381+01 | 1486385758.79538 | pgbench_accounts_pkey |       2246197248

 2017-02-06 13:55:59.872525+01 | 1486385759.87252 | pgbench_branches_pkey |          1359872
 2017-02-06 13:55:59.872525+01 | 1486385759.87252 | pgbench_tellers_pkey  |          5259264
 2017-02-06 13:55:59.872525+01 | 1486385759.87252 | pgbench_accounts_pkey |       2246197248

 2017-02-06 13:56:00.953551+01 | 1486385760.95355 | pgbench_branches_pkey |          1359872
 2017-02-06 13:56:00.953551+01 | 1486385760.95355 | pgbench_tellers_pkey  |          5259264
 2017-02-06 13:56:00.953551+01 | 1486385760.95355 | pgbench_accounts_pkey |       2246197248

 2017-02-06 13:56:02.029378+01 | 1486385762.02938 | pgbench_branches_pkey |          1359872
 2017-02-06 13:56:02.029378+01 | 1486385762.02938 | pgbench_tellers_pkey  |          5259264
 2017-02-06 13:56:02.029378+01 | 1486385762.02938 | pgbench_accounts_pkey |       2246197248

 2017-02-06 13:56:03.100982+01 | 1486385763.10098 | pgbench_branches_pkey |          1359872
 2017-02-06 13:56:03.100982+01 | 1486385763.10098 | pgbench_tellers_pkey  |          5259264
 2017-02-06 13:56:03.100982+01 | 1486385763.10098 | pgbench_accounts_pkey |       2246197248

 2017-02-06 13:56:04.177254+01 | 1486385764.17725 | pgbench_branches_pkey |          1359872
 2017-02-06 13:56:04.177254+01 | 1486385764.17725 | pgbench_tellers_pkey  |          5259264
 2017-02-06 13:56:04.177254+01 | 1486385764.17725 | pgbench_accounts_pkey |       2246197248

 2017-02-06 13:56:05.261888+01 | 1486385765.26189 | pgbench_branches_pkey |          1359872
 2017-02-06 13:56:05.261888+01 | 1486385765.26189 | pgbench_tellers_pkey  |          5259264
 2017-02-06 13:56:05.261888+01 | 1486385765.26189 | pgbench_accounts_pkey |       2246197248

 2017-02-06 13:56:06.333382+01 | 1486385766.33338 | pgbench_branches_pkey |          1359872
 2017-02-06 13:56:06.333382+01 | 1486385766.33338 | pgbench_tellers_pkey  |          5259264
 2017-02-06 13:56:06.333382+01 | 1486385766.33338 | pgbench_accounts_pkey |       2246197248

 2017-02-06 13:56:07.40388+01 | 1486385767.40388 | pgbench_branches_pkey |          1359872
 2017-02-06 13:56:07.40388+01 | 1486385767.40388 | pgbench_tellers_pkey  |          5259264
 2017-02-06 13:56:07.40388+01 | 1486385767.40388 | pgbench_accounts_pkey |       2246197248

 2017-02-06 13:56:08.475769+01 | 1486385768.47577 | pgbench_branches_pkey |          1359872
 2017-02-06 13:56:08.475769+01 | 1486385768.47577 | pgbench_tellers_pkey  |          5259264
 2017-02-06 13:56:08.475769+01 | 1486385768.47577 | pgbench_accounts_pkey |       2246197248

 2017-02-06 13:56:09.556931+01 | 1486385769.55693 | pgbench_branches_pkey |          1359872
 2017-02-06 13:56:09.556931+01 | 1486385769.55693 | pgbench_tellers_pkey  |          5259264
 2017-02-06 13:56:09.556931+01 | 1486385769.55693 | pgbench_accounts_pkey |       2246197248

 2017-02-06 13:56:10.63026+01 | 1486385770.63026 | pgbench_branches_pkey |          1359872
 2017-02-06 13:56:10.63026+01 | 1486385770.63026 | pgbench_tellers_pkey  |          5259264
 2017-02-06 13:56:10.63026+01 | 1486385770.63026 | pgbench_accounts_pkey |       2246197248

 2017-02-06 13:56:11.706286+01 | 1486385771.70629 | pgbench_branches_pkey |          1359872
 2017-02-06 13:56:11.706286+01 | 1486385771.70629 | pgbench_tellers_pkey  |          5259264
 2017-02-06 13:56:11.706286+01 | 1486385771.70629 | pgbench_accounts_pkey |       2246197248

 2017-02-06 13:56:12.787179+01 | 1486385772.78718 | pgbench_branches_pkey |          1359872
 2017-02-06 13:56:12.787179+01 | 1486385772.78718 | pgbench_tellers_pkey  |          5259264
 2017-02-06 13:56:12.787179+01 | 1486385772.78718 | pgbench_accounts_pkey |       2246197248

 2017-02-06 13:56:13.861349+01 | 1486385773.86135 | pgbench_branches_pkey |          1359872
 2017-02-06 13:56:13.861349+01 | 1486385773.86135 | pgbench_tellers_pkey  |          5259264
 2017-02-06 13:56:13.861349+01 | 1486385773.86135 | pgbench_accounts_pkey |       2246197248

 2017-02-06 13:56:14.94994+01 | 1486385774.94994 | pgbench_branches_pkey |          1359872
 2017-02-06 13:56:14.94994+01 | 1486385774.94994 | pgbench_tellers_pkey  |          5259264
 2017-02-06 13:56:14.94994+01 | 1486385774.94994 | pgbench_accounts_pkey |       2246197248

 2017-02-06 13:56:16.023337+01 | 1486385776.02334 | pgbench_branches_pkey |          1359872
 2017-02-06 13:56:16.023337+01 | 1486385776.02334 | pgbench_tellers_pkey  |          5259264
 2017-02-06 13:56:16.023337+01 | 1486385776.02334 | pgbench_accounts_pkey |       2246197248

 2017-02-06 13:56:17.097516+01 | 1486385777.09752 | pgbench_branches_pkey |          1359872
 2017-02-06 13:56:17.097516+01 | 1486385777.09752 | pgbench_tellers_pkey  |          5259264
 2017-02-06 13:56:17.097516+01 | 1486385777.09752 | pgbench_accounts_pkey |       2246197248

 2017-02-06 13:56:18.175486+01 | 1486385778.17549 | pgbench_branches_pkey |          1359872
 2017-02-06 13:56:18.175486+01 | 1486385778.17549 | pgbench_tellers_pkey  |          5259264
 2017-02-06 13:56:18.175486+01 | 1486385778.17549 | pgbench_accounts_pkey |       2246197248

 2017-02-06 13:56:19.252763+01 | 1486385779.25276 | pgbench_branches_pkey |          1359872
 2017-02-06 13:56:19.252763+01 | 1486385779.25276 | pgbench_tellers_pkey  |          5259264
 2017-02-06 13:56:19.252763+01 | 1486385779.25276 | pgbench_accounts_pkey |       2246197248

 2017-02-06 13:56:20.331492+01 | 1486385780.33149 | pgbench_branches_pkey |          1359872
 2017-02-06 13:56:20.331492+01 | 1486385780.33149 | pgbench_tellers_pkey  |          5259264
 2017-02-06 13:56:20.331492+01 | 1486385780.33149 | pgbench_accounts_pkey |       2246197248

 2017-02-06 13:56:21.407055+01 | 1486385781.40705 | pgbench_branches_pkey |          1359872
 2017-02-06 13:56:21.407055+01 | 1486385781.40705 | pgbench_tellers_pkey  |          5259264
 2017-02-06 13:56:21.407055+01 | 1486385781.40705 | pgbench_accounts_pkey |       2246197248

 2017-02-06 13:56:22.481065+01 | 1486385782.48107 | pgbench_branches_pkey |          1359872
 2017-02-06 13:56:22.481065+01 | 1486385782.48107 | pgbench_tellers_pkey  |          5259264
 2017-02-06 13:56:22.481065+01 | 1486385782.48107 | pgbench_accounts_pkey |       2246197248

 2017-02-06 13:56:23.558365+01 | 1486385783.55837 | pgbench_branches_pkey |          1359872
 2017-02-06 13:56:23.558365+01 | 1486385783.55837 | pgbench_tellers_pkey  |          5259264
 2017-02-06 13:56:23.558365+01 | 1486385783.55837 | pgbench_accounts_pkey |       2246197248

 2017-02-06 13:56:24.626989+01 | 1486385784.62699 | pgbench_branches_pkey |          1359872
 2017-02-06 13:56:24.626989+01 | 1486385784.62699 | pgbench_tellers_pkey  |          5259264
 2017-02-06 13:56:24.626989+01 | 1486385784.62699 | pgbench_accounts_pkey |       2246197248

 2017-02-06 13:56:25.705373+01 | 1486385785.70537 | pgbench_branches_pkey |          1359872
 2017-02-06 13:56:25.705373+01 | 1486385785.70537 | pgbench_tellers_pkey  |          5259264
 2017-02-06 13:56:25.705373+01 | 1486385785.70537 | pgbench_accounts_pkey |       2246197248

 2017-02-06 13:56:26.790938+01 | 1486385786.79094 | pgbench_branches_pkey |          1359872
 2017-02-06 13:56:26.790938+01 | 1486385786.79094 | pgbench_tellers_pkey  |          5259264
 2017-02-06 13:56:26.790938+01 | 1486385786.79094 | pgbench_accounts_pkey |       2246197248

 2017-02-06 13:56:27.877464+01 | 1486385787.87746 | pgbench_branches_pkey |          1359872
 2017-02-06 13:56:27.877464+01 | 1486385787.87746 | pgbench_tellers_pkey  |          5259264
 2017-02-06 13:56:27.877464+01 | 1486385787.87746 | pgbench_accounts_pkey |       2246197248

 2017-02-06 13:56:28.945419+01 | 1486385788.94542 | pgbench_branches_pkey |          1359872
 2017-02-06 13:56:28.945419+01 | 1486385788.94542 | pgbench_tellers_pkey  |          5259264
 2017-02-06 13:56:28.945419+01 | 1486385788.94542 | pgbench_accounts_pkey |       2246197248

 2017-02-06 13:56:30.021041+01 | 1486385790.02104 | pgbench_branches_pkey |          1359872
 2017-02-06 13:56:30.021041+01 | 1486385790.02104 | pgbench_tellers_pkey  |          5259264
 2017-02-06 13:56:30.021041+01 | 1486385790.02104 | pgbench_accounts_pkey |       2246197248

 2017-02-06 13:56:31.097252+01 | 1486385791.09725 | pgbench_branches_pkey |          1359872
 2017-02-06 13:56:31.097252+01 | 1486385791.09725 | pgbench_tellers_pkey  |          5259264
 2017-02-06 13:56:31.097252+01 | 1486385791.09725 | pgbench_accounts_pkey |       2246197248

 2017-02-06 13:56:32.174248+01 | 1486385792.17425 | pgbench_branches_pkey |          1359872
 2017-02-06 13:56:32.174248+01 | 1486385792.17425 | pgbench_tellers_pkey  |          5259264
 2017-02-06 13:56:32.174248+01 | 1486385792.17425 | pgbench_accounts_pkey |       2246197248

 2017-02-06 13:56:33.251022+01 | 1486385793.25102 | pgbench_branches_pkey |          1359872
 2017-02-06 13:56:33.251022+01 | 1486385793.25102 | pgbench_tellers_pkey  |          5259264
 2017-02-06 13:56:33.251022+01 | 1486385793.25102 | pgbench_accounts_pkey |       2246197248

 2017-02-06 13:56:34.326159+01 | 1486385794.32616 | pgbench_branches_pkey |          1359872
 2017-02-06 13:56:34.326159+01 | 1486385794.32616 | pgbench_tellers_pkey  |          5259264
 2017-02-06 13:56:34.326159+01 | 1486385794.32616 | pgbench_accounts_pkey |       2246197248

 2017-02-06 13:56:35.411179+01 | 1486385795.41118 | pgbench_branches_pkey |          1359872
 2017-02-06 13:56:35.411179+01 | 1486385795.41118 | pgbench_tellers_pkey  |          5259264
 2017-02-06 13:56:35.411179+01 | 1486385795.41118 | pgbench_accounts_pkey |       2246197248

 2017-02-06 13:56:36.482927+01 | 1486385796.48293 | pgbench_branches_pkey |          1359872
 2017-02-06 13:56:36.482927+01 | 1486385796.48293 | pgbench_tellers_pkey  |          5259264
 2017-02-06 13:56:36.482927+01 | 1486385796.48293 | pgbench_accounts_pkey |       2246197248

 2017-02-06 13:56:37.553982+01 | 1486385797.55398 | pgbench_branches_pkey |          1359872
 2017-02-06 13:56:37.553982+01 | 1486385797.55398 | pgbench_tellers_pkey  |          5259264
 2017-02-06 13:56:37.553982+01 | 1486385797.55398 | pgbench_accounts_pkey |       2246197248

 2017-02-06 13:56:38.637364+01 | 1486385798.63736 | pgbench_branches_pkey |          1359872
 2017-02-06 13:56:38.637364+01 | 1486385798.63736 | pgbench_tellers_pkey  |          5259264
 2017-02-06 13:56:38.637364+01 | 1486385798.63736 | pgbench_accounts_pkey |       2246197248

 2017-02-06 13:56:39.710832+01 | 1486385799.71083 | pgbench_branches_pkey |          1359872
 2017-02-06 13:56:39.710832+01 | 1486385799.71083 | pgbench_tellers_pkey  |          5259264
 2017-02-06 13:56:39.710832+01 | 1486385799.71083 | pgbench_accounts_pkey |       2246197248

 2017-02-06 13:56:40.800246+01 | 1486385800.80025 | pgbench_branches_pkey |          1359872
 2017-02-06 13:56:40.800246+01 | 1486385800.80025 | pgbench_tellers_pkey  |          5259264
 2017-02-06 13:56:40.800246+01 | 1486385800.80025 | pgbench_accounts_pkey |       2246197248

 2017-02-06 13:56:41.876388+01 | 1486385801.87639 | pgbench_branches_pkey |          1359872
 2017-02-06 13:56:41.876388+01 | 1486385801.87639 | pgbench_tellers_pkey  |          5259264
 2017-02-06 13:56:41.876388+01 | 1486385801.87639 | pgbench_accounts_pkey |       2246197248

 2017-02-06 13:56:42.948219+01 | 1486385802.94822 | pgbench_branches_pkey |          1359872
 2017-02-06 13:56:42.948219+01 | 1486385802.94822 | pgbench_tellers_pkey  |          5259264
 2017-02-06 13:56:42.948219+01 | 1486385802.94822 | pgbench_accounts_pkey |       2246197248

 2017-02-06 13:56:44.02312+01 | 1486385804.02312 | pgbench_branches_pkey |          1359872
 2017-02-06 13:56:44.02312+01 | 1486385804.02312 | pgbench_tellers_pkey  |          5259264
 2017-02-06 13:56:44.02312+01 | 1486385804.02312 | pgbench_accounts_pkey |       2246197248

 2017-02-06 13:56:45.099997+01 | 1486385805.1 | pgbench_branches_pkey |          1359872
 2017-02-06 13:56:45.099997+01 | 1486385805.1 | pgbench_tellers_pkey  |          5259264
 2017-02-06 13:56:45.099997+01 | 1486385805.1 | pgbench_accounts_pkey |       2246197248

 2017-02-06 13:56:46.177337+01 | 1486385806.17734 | pgbench_branches_pkey |          1359872
 2017-02-06 13:56:46.177337+01 | 1486385806.17734 | pgbench_tellers_pkey  |          5259264
 2017-02-06 13:56:46.177337+01 | 1486385806.17734 | pgbench_accounts_pkey |       2246197248

 2017-02-06 13:56:47.253365+01 | 1486385807.25337 | pgbench_branches_pkey |          1359872
 2017-02-06 13:56:47.253365+01 | 1486385807.25337 | pgbench_tellers_pkey  |          5259264
 2017-02-06 13:56:47.253365+01 | 1486385807.25337 | pgbench_accounts_pkey |       2246197248

 2017-02-06 13:56:48.332675+01 | 1486385808.33267 | pgbench_branches_pkey |          1359872
 2017-02-06 13:56:48.332675+01 | 1486385808.33267 | pgbench_tellers_pkey  |          5259264
 2017-02-06 13:56:48.332675+01 | 1486385808.33267 | pgbench_accounts_pkey |       2246197248

 2017-02-06 13:56:49.409313+01 | 1486385809.40931 | pgbench_branches_pkey |          1359872
 2017-02-06 13:56:49.409313+01 | 1486385809.40931 | pgbench_tellers_pkey  |          5259264
 2017-02-06 13:56:49.409313+01 | 1486385809.40931 | pgbench_accounts_pkey |       2246197248

 2017-02-06 13:56:50.487755+01 | 1486385810.48776 | pgbench_branches_pkey |          1359872
 2017-02-06 13:56:50.487755+01 | 1486385810.48776 | pgbench_tellers_pkey  |          5259264
 2017-02-06 13:56:50.487755+01 | 1486385810.48776 | pgbench_accounts_pkey |       2246197248

 2017-02-06 13:56:51.564491+01 | 1486385811.56449 | pgbench_branches_pkey |          1359872
 2017-02-06 13:56:51.564491+01 | 1486385811.56449 | pgbench_tellers_pkey  |          5259264
 2017-02-06 13:56:51.564491+01 | 1486385811.56449 | pgbench_accounts_pkey |       2246197248

 2017-02-06 13:56:52.643509+01 | 1486385812.64351 | pgbench_branches_pkey |          1359872
 2017-02-06 13:56:52.643509+01 | 1486385812.64351 | pgbench_tellers_pkey  |          5259264
 2017-02-06 13:56:52.643509+01 | 1486385812.64351 | pgbench_accounts_pkey |       2246197248

 2017-02-06 13:56:53.717538+01 | 1486385813.71754 | pgbench_branches_pkey |          1359872
 2017-02-06 13:56:53.717538+01 | 1486385813.71754 | pgbench_tellers_pkey  |          5259264
 2017-02-06 13:56:53.717538+01 | 1486385813.71754 | pgbench_accounts_pkey |       2246197248

 2017-02-06 13:56:54.7929+01 | 1486385814.7929 | pgbench_branches_pkey |          1359872
 2017-02-06 13:56:54.7929+01 | 1486385814.7929 | pgbench_tellers_pkey  |          5259264
 2017-02-06 13:56:54.7929+01 | 1486385814.7929 | pgbench_accounts_pkey |       2246197248

 2017-02-06 13:56:55.861031+01 | 1486385815.86103 | pgbench_branches_pkey |          1359872
 2017-02-06 13:56:55.861031+01 | 1486385815.86103 | pgbench_tellers_pkey  |          5259264
 2017-02-06 13:56:55.861031+01 | 1486385815.86103 | pgbench_accounts_pkey |       2246197248

 2017-02-06 13:56:56.937823+01 | 1486385816.93782 | pgbench_branches_pkey |          1359872
 2017-02-06 13:56:56.937823+01 | 1486385816.93782 | pgbench_tellers_pkey  |          5259264
 2017-02-06 13:56:56.937823+01 | 1486385816.93782 | pgbench_accounts_pkey |       2246197248

 2017-02-06 13:56:58.013104+01 | 1486385818.0131 | pgbench_branches_pkey |          1359872
 2017-02-06 13:56:58.013104+01 | 1486385818.0131 | pgbench_tellers_pkey  |          5259264
 2017-02-06 13:56:58.013104+01 | 1486385818.0131 | pgbench_accounts_pkey |       2246197248

 2017-02-06 13:56:59.087081+01 | 1486385819.08708 | pgbench_branches_pkey |          1359872
 2017-02-06 13:56:59.087081+01 | 1486385819.08708 | pgbench_tellers_pkey  |          5259264
 2017-02-06 13:56:59.087081+01 | 1486385819.08708 | pgbench_accounts_pkey |       2246197248

 2017-02-06 13:57:00.175272+01 | 1486385820.17527 | pgbench_branches_pkey |          1359872
 2017-02-06 13:57:00.175272+01 | 1486385820.17527 | pgbench_tellers_pkey  |          5259264
 2017-02-06 13:57:00.175272+01 | 1486385820.17527 | pgbench_accounts_pkey |       2246197248

 2017-02-06 13:57:01.250903+01 | 1486385821.2509 | pgbench_branches_pkey |          1359872
 2017-02-06 13:57:01.250903+01 | 1486385821.2509 | pgbench_tellers_pkey  |          5259264
 2017-02-06 13:57:01.250903+01 | 1486385821.2509 | pgbench_accounts_pkey |       2246197248

 2017-02-06 13:57:02.340144+01 | 1486385822.34014 | pgbench_branches_pkey |          1359872
 2017-02-06 13:57:02.340144+01 | 1486385822.34014 | pgbench_tellers_pkey  |          5259264
 2017-02-06 13:57:02.340144+01 | 1486385822.34014 | pgbench_accounts_pkey |       2246197248

 2017-02-06 13:57:03.424644+01 | 1486385823.42464 | pgbench_branches_pkey |          1359872
 2017-02-06 13:57:03.424644+01 | 1486385823.42464 | pgbench_tellers_pkey  |          5259264
 2017-02-06 13:57:03.424644+01 | 1486385823.42464 | pgbench_accounts_pkey |       2246197248

 2017-02-06 13:57:04.5024+01 | 1486385824.5024 | pgbench_branches_pkey |          1359872
 2017-02-06 13:57:04.5024+01 | 1486385824.5024 | pgbench_tellers_pkey  |          5259264
 2017-02-06 13:57:04.5024+01 | 1486385824.5024 | pgbench_accounts_pkey |       2246197248

 2017-02-06 13:57:05.578872+01 | 1486385825.57887 | pgbench_branches_pkey |          1359872
 2017-02-06 13:57:05.578872+01 | 1486385825.57887 | pgbench_tellers_pkey  |          5259264
 2017-02-06 13:57:05.578872+01 | 1486385825.57887 | pgbench_accounts_pkey |       2246197248

 2017-02-06 13:57:06.652122+01 | 1486385826.65212 | pgbench_branches_pkey |          1359872
 2017-02-06 13:57:06.652122+01 | 1486385826.65212 | pgbench_tellers_pkey  |          5259264
 2017-02-06 13:57:06.652122+01 | 1486385826.65212 | pgbench_accounts_pkey |       2246197248

 2017-02-06 13:57:07.730241+01 | 1486385827.73024 | pgbench_branches_pkey |          1359872
 2017-02-06 13:57:07.730241+01 | 1486385827.73024 | pgbench_tellers_pkey  |          5259264
 2017-02-06 13:57:07.730241+01 | 1486385827.73024 | pgbench_accounts_pkey |       2246197248

 2017-02-06 13:57:08.796361+01 | 1486385828.79636 | pgbench_branches_pkey |          1359872
 2017-02-06 13:57:08.796361+01 | 1486385828.79636 | pgbench_tellers_pkey  |          5259264
 2017-02-06 13:57:08.796361+01 | 1486385828.79636 | pgbench_accounts_pkey |       2246197248

 2017-02-06 13:57:09.884493+01 | 1486385829.88449 | pgbench_branches_pkey |          1359872
 2017-02-06 13:57:09.884493+01 | 1486385829.88449 | pgbench_tellers_pkey  |          5259264
 2017-02-06 13:57:09.884493+01 | 1486385829.88449 | pgbench_accounts_pkey |       2246197248

 2017-02-06 13:57:10.965798+01 | 1486385830.9658 | pgbench_branches_pkey |          1359872
 2017-02-06 13:57:10.965798+01 | 1486385830.9658 | pgbench_tellers_pkey  |          5259264
 2017-02-06 13:57:10.965798+01 | 1486385830.9658 | pgbench_accounts_pkey |       2246197248

 2017-02-06 13:57:12.041272+01 | 1486385832.04127 | pgbench_branches_pkey |          1359872
 2017-02-06 13:57:12.041272+01 | 1486385832.04127 | pgbench_tellers_pkey  |          5259264
 2017-02-06 13:57:12.041272+01 | 1486385832.04127 | pgbench_accounts_pkey |       2246197248

 2017-02-06 13:57:13.120757+01 | 1486385833.12076 | pgbench_branches_pkey |          1359872
 2017-02-06 13:57:13.120757+01 | 1486385833.12076 | pgbench_tellers_pkey  |          5259264
 2017-02-06 13:57:13.120757+01 | 1486385833.12076 | pgbench_accounts_pkey |       2246197248

 2017-02-06 13:57:14.196578+01 | 1486385834.19658 | pgbench_branches_pkey |          1359872
 2017-02-06 13:57:14.196578+01 | 1486385834.19658 | pgbench_tellers_pkey  |          5259264
 2017-02-06 13:57:14.196578+01 | 1486385834.19658 | pgbench_accounts_pkey |       2246197248

 2017-02-06 13:57:15.273076+01 | 1486385835.27308 | pgbench_branches_pkey |          1359872
 2017-02-06 13:57:15.273076+01 | 1486385835.27308 | pgbench_tellers_pkey  |          5259264
 2017-02-06 13:57:15.273076+01 | 1486385835.27308 | pgbench_accounts_pkey |       2246197248

 2017-02-06 13:57:16.351002+01 | 1486385836.351 | pgbench_branches_pkey |          1359872
 2017-02-06 13:57:16.351002+01 | 1486385836.351 | pgbench_tellers_pkey  |          5259264
 2017-02-06 13:57:16.351002+01 | 1486385836.351 | pgbench_accounts_pkey |       2246197248

 2017-02-06 13:57:17.436027+01 | 1486385837.43603 | pgbench_branches_pkey |          1359872
 2017-02-06 13:57:17.436027+01 | 1486385837.43603 | pgbench_tellers_pkey  |          5259264
 2017-02-06 13:57:17.436027+01 | 1486385837.43603 | pgbench_accounts_pkey |       2246197248

 2017-02-06 13:57:18.507931+01 | 1486385838.50793 | pgbench_branches_pkey |          1359872
 2017-02-06 13:57:18.507931+01 | 1486385838.50793 | pgbench_tellers_pkey  |          5259264
 2017-02-06 13:57:18.507931+01 | 1486385838.50793 | pgbench_accounts_pkey |       2246197248

 2017-02-06 13:57:19.587582+01 | 1486385839.58758 | pgbench_branches_pkey |          1359872
 2017-02-06 13:57:19.587582+01 | 1486385839.58758 | pgbench_tellers_pkey  |          5259264
 2017-02-06 13:57:19.587582+01 | 1486385839.58758 | pgbench_accounts_pkey |       2246197248

 2017-02-06 13:57:20.670254+01 | 1486385840.67025 | pgbench_branches_pkey |          1359872
 2017-02-06 13:57:20.670254+01 | 1486385840.67025 | pgbench_tellers_pkey  |          5259264
 2017-02-06 13:57:20.670254+01 | 1486385840.67025 | pgbench_accounts_pkey |       2246197248

 2017-02-06 13:57:21.74982+01 | 1486385841.74982 | pgbench_branches_pkey |          1359872
 2017-02-06 13:57:21.74982+01 | 1486385841.74982 | pgbench_tellers_pkey  |          5259264
 2017-02-06 13:57:21.74982+01 | 1486385841.74982 | pgbench_accounts_pkey |       2246197248

 2017-02-06 13:57:22.823906+01 | 1486385842.82391 | pgbench_branches_pkey |          1359872
 2017-02-06 13:57:22.823906+01 | 1486385842.82391 | pgbench_tellers_pkey  |          5259264
 2017-02-06 13:57:22.823906+01 | 1486385842.82391 | pgbench_accounts_pkey |       2246197248

 2017-02-06 13:57:23.897208+01 | 1486385843.89721 | pgbench_branches_pkey |          1359872
 2017-02-06 13:57:23.897208+01 | 1486385843.89721 | pgbench_tellers_pkey  |          5259264
 2017-02-06 13:57:23.897208+01 | 1486385843.89721 | pgbench_accounts_pkey |       2246197248

 2017-02-06 13:57:24.974467+01 | 1486385844.97447 | pgbench_branches_pkey |          1359872
 2017-02-06 13:57:24.974467+01 | 1486385844.97447 | pgbench_tellers_pkey  |          5259264
 2017-02-06 13:57:24.974467+01 | 1486385844.97447 | pgbench_accounts_pkey |       2246197248

 2017-02-06 13:57:26.054323+01 | 1486385846.05432 | pgbench_branches_pkey |          1359872
 2017-02-06 13:57:26.054323+01 | 1486385846.05432 | pgbench_tellers_pkey  |          5259264
 2017-02-06 13:57:26.054323+01 | 1486385846.05432 | pgbench_accounts_pkey |       2246197248

 2017-02-06 13:57:27.138067+01 | 1486385847.13807 | pgbench_branches_pkey |          1359872
 2017-02-06 13:57:27.138067+01 | 1486385847.13807 | pgbench_tellers_pkey  |          5259264
 2017-02-06 13:57:27.138067+01 | 1486385847.13807 | pgbench_accounts_pkey |       2246197248

 2017-02-06 13:57:28.21718+01 | 1486385848.21718 | pgbench_branches_pkey |          1359872
 2017-02-06 13:57:28.21718+01 | 1486385848.21718 | pgbench_tellers_pkey  |          5259264
 2017-02-06 13:57:28.21718+01 | 1486385848.21718 | pgbench_accounts_pkey |       2246197248

 2017-02-06 13:57:29.301835+01 | 1486385849.30184 | pgbench_branches_pkey |          1359872
 2017-02-06 13:57:29.301835+01 | 1486385849.30184 | pgbench_tellers_pkey  |          5259264
 2017-02-06 13:57:29.301835+01 | 1486385849.30184 | pgbench_accounts_pkey |       2246197248

 2017-02-06 13:57:30.384002+01 | 1486385850.384 | pgbench_branches_pkey |          1359872
 2017-02-06 13:57:30.384002+01 | 1486385850.384 | pgbench_tellers_pkey  |          5259264
 2017-02-06 13:57:30.384002+01 | 1486385850.384 | pgbench_accounts_pkey |       2246197248

 2017-02-06 13:57:31.473032+01 | 1486385851.47303 | pgbench_branches_pkey |          1359872
 2017-02-06 13:57:31.473032+01 | 1486385851.47303 | pgbench_tellers_pkey  |          5259264
 2017-02-06 13:57:31.473032+01 | 1486385851.47303 | pgbench_accounts_pkey |       2246197248

 2017-02-06 13:57:32.558042+01 | 1486385852.55804 | pgbench_branches_pkey |          1359872
 2017-02-06 13:57:32.558042+01 | 1486385852.55804 | pgbench_tellers_pkey  |          5259264
 2017-02-06 13:57:32.558042+01 | 1486385852.55804 | pgbench_accounts_pkey |       2246197248

 2017-02-06 13:57:33.637415+01 | 1486385853.63741 | pgbench_branches_pkey |          1359872
 2017-02-06 13:57:33.637415+01 | 1486385853.63741 | pgbench_tellers_pkey  |          5259264
 2017-02-06 13:57:33.637415+01 | 1486385853.63741 | pgbench_accounts_pkey |       2246197248

 2017-02-06 13:57:34.716599+01 | 1486385854.7166 | pgbench_branches_pkey |          1359872
 2017-02-06 13:57:34.716599+01 | 1486385854.7166 | pgbench_tellers_pkey  |          5259264
 2017-02-06 13:57:34.716599+01 | 1486385854.7166 | pgbench_accounts_pkey |       2246197248

 2017-02-06 13:57:35.781048+01 | 1486385855.78105 | pgbench_branches_pkey |          1359872
 2017-02-06 13:57:35.781048+01 | 1486385855.78105 | pgbench_tellers_pkey  |          5259264
 2017-02-06 13:57:35.781048+01 | 1486385855.78105 | pgbench_accounts_pkey |       2246197248

 2017-02-06 13:57:36.86335+01 | 1486385856.86335 | pgbench_branches_pkey |          1359872
 2017-02-06 13:57:36.86335+01 | 1486385856.86335 | pgbench_tellers_pkey  |          5259264
 2017-02-06 13:57:36.86335+01 | 1486385856.86335 | pgbench_accounts_pkey |       2246197248

 2017-02-06 13:57:37.938347+01 | 1486385857.93835 | pgbench_branches_pkey |          1359872
 2017-02-06 13:57:37.938347+01 | 1486385857.93835 | pgbench_tellers_pkey  |          5259264
 2017-02-06 13:57:37.938347+01 | 1486385857.93835 | pgbench_accounts_pkey |       2246197248

 2017-02-06 13:57:39.01054+01 | 1486385859.01054 | pgbench_branches_pkey |          1359872
 2017-02-06 13:57:39.01054+01 | 1486385859.01054 | pgbench_tellers_pkey  |          5259264
 2017-02-06 13:57:39.01054+01 | 1486385859.01054 | pgbench_accounts_pkey |       2246197248

 2017-02-06 13:57:40.095104+01 | 1486385860.0951 | pgbench_branches_pkey |          1359872
 2017-02-06 13:57:40.095104+01 | 1486385860.0951 | pgbench_tellers_pkey  |          5259264
 2017-02-06 13:57:40.095104+01 | 1486385860.0951 | pgbench_accounts_pkey |       2246197248

 2017-02-06 13:57:41.170067+01 | 1486385861.17007 | pgbench_branches_pkey |          1359872
 2017-02-06 13:57:41.170067+01 | 1486385861.17007 | pgbench_tellers_pkey  |          5259264
 2017-02-06 13:57:41.170067+01 | 1486385861.17007 | pgbench_accounts_pkey |       2246197248

 2017-02-06 13:57:42.243267+01 | 1486385862.24327 | pgbench_branches_pkey |          1359872
 2017-02-06 13:57:42.243267+01 | 1486385862.24327 | pgbench_tellers_pkey  |          5259264
 2017-02-06 13:57:42.243267+01 | 1486385862.24327 | pgbench_accounts_pkey |       2246197248

 2017-02-06 13:57:43.317902+01 | 1486385863.3179 | pgbench_branches_pkey |          1359872
 2017-02-06 13:57:43.317902+01 | 1486385863.3179 | pgbench_tellers_pkey  |          5259264
 2017-02-06 13:57:43.317902+01 | 1486385863.3179 | pgbench_accounts_pkey |       2246197248

 2017-02-06 13:57:44.394359+01 | 1486385864.39436 | pgbench_branches_pkey |          1359872
 2017-02-06 13:57:44.394359+01 | 1486385864.39436 | pgbench_tellers_pkey  |          5259264
 2017-02-06 13:57:44.394359+01 | 1486385864.39436 | pgbench_accounts_pkey |       2246197248

