 2017-02-06 11:08:23.247574+01 | 1486375703.24757 |                 0 |              18 |                 31575 |                 1299 |            3770802 |             0 |                0 |         1141788 |                     0 |        845782 | 2017-02-06 09:42:18.893067+01

 2017-02-06 11:08:24.332918+01 | 1486375704.33292 |                 0 |              18 |                 31575 |                 1299 |            3770802 |             0 |                0 |         1141788 |                     0 |        845948 | 2017-02-06 09:42:18.893067+01

 2017-02-06 11:08:25.413556+01 | 1486375705.41356 |                 0 |              18 |                 31575 |                 1299 |            3770802 |             0 |                0 |         1141788 |                     0 |        846035 | 2017-02-06 09:42:18.893067+01

 2017-02-06 11:08:26.491741+01 | 1486375706.49174 |                 0 |              18 |                 31575 |                 1299 |            3770802 |             0 |                0 |         1141788 |                     0 |        846146 | 2017-02-06 09:42:18.893067+01

 2017-02-06 11:08:27.56833+01 | 1486375707.56833 |                 0 |              18 |                 31575 |                 1299 |            3770802 |             0 |                0 |         1141788 |                     0 |        846258 | 2017-02-06 09:42:18.893067+01

 2017-02-06 11:08:28.649363+01 | 1486375708.64936 |                 0 |              18 |                 31575 |                 1299 |            3770802 |             0 |                0 |         1141788 |                     0 |        846364 | 2017-02-06 09:42:18.893067+01

 2017-02-06 11:08:29.725072+01 | 1486375709.72507 |                 0 |              18 |                 31575 |                 1299 |            3770802 |             0 |                0 |         1141788 |                     0 |        846538 | 2017-02-06 09:42:18.893067+01

 2017-02-06 11:08:30.799314+01 | 1486375710.79931 |                 0 |              18 |                 31575 |                 1299 |            3770802 |             0 |                0 |         1141788 |                     0 |        846622 | 2017-02-06 09:42:18.893067+01

 2017-02-06 11:08:31.875436+01 | 1486375711.87544 |                 0 |              18 |                 31575 |                 1299 |            3770802 |             0 |                0 |         1141788 |                     0 |        846788 | 2017-02-06 09:42:18.893067+01

 2017-02-06 11:08:32.958485+01 | 1486375712.95848 |                 0 |              18 |                 31575 |                 1299 |            3770802 |             0 |                0 |         1141788 |                     0 |        846963 | 2017-02-06 09:42:18.893067+01

 2017-02-06 11:08:34.039889+01 | 1486375714.03989 |                 0 |              18 |                 31575 |                 1299 |            3770802 |             0 |                0 |         1141788 |                     0 |        847178 | 2017-02-06 09:42:18.893067+01

 2017-02-06 11:08:35.11474+01 | 1486375715.11474 |                 0 |              18 |                 31575 |                 1299 |            3770802 |             0 |                0 |         1141788 |                     0 |        847304 | 2017-02-06 09:42:18.893067+01

 2017-02-06 11:08:36.193986+01 | 1486375716.19399 |                 0 |              18 |                 31575 |                 1299 |            3770802 |             0 |                0 |         1141788 |                     0 |        847390 | 2017-02-06 09:42:18.893067+01

 2017-02-06 11:08:37.274057+01 | 1486375717.27406 |                 0 |              18 |                 31575 |                 1299 |            3770802 |             0 |                0 |         1141788 |                     0 |        847565 | 2017-02-06 09:42:18.893067+01

 2017-02-06 11:08:38.349522+01 | 1486375718.34952 |                 0 |              18 |                 31575 |                 1299 |            3770802 |             0 |                0 |         1141788 |                     0 |        847701 | 2017-02-06 09:42:18.893067+01

 2017-02-06 11:08:39.425818+01 | 1486375719.42582 |                 0 |              18 |                 31575 |                 1299 |            3770802 |             0 |                0 |         1141788 |                     0 |        847871 | 2017-02-06 09:42:18.893067+01

 2017-02-06 11:08:40.505644+01 | 1486375720.50564 |                 0 |              18 |                 31575 |                 1299 |            3770802 |             0 |                0 |         1141788 |                     0 |        848158 | 2017-02-06 09:42:18.893067+01

 2017-02-06 11:08:41.587263+01 | 1486375721.58726 |                 0 |              18 |                 31575 |                 1299 |            3770802 |             0 |                0 |         1141788 |                     0 |        848159 | 2017-02-06 09:42:18.893067+01

 2017-02-06 11:08:42.668553+01 | 1486375722.66855 |                 0 |              18 |                 31575 |                 1299 |            3770802 |             0 |                0 |         1141788 |                     0 |        848325 | 2017-02-06 09:42:18.893067+01

 2017-02-06 11:08:43.740154+01 | 1486375723.74015 |                 0 |              18 |                 31575 |                 1299 |            3770802 |             0 |                0 |         1141788 |                     0 |        848502 | 2017-02-06 09:42:18.893067+01

 2017-02-06 11:08:44.820167+01 | 1486375724.82017 |                 0 |              18 |                 31575 |                 1299 |            3770802 |             0 |                0 |         1141788 |                     0 |        848650 | 2017-02-06 09:42:18.893067+01

 2017-02-06 11:08:45.898221+01 | 1486375725.89822 |                 0 |              18 |                 31575 |                 1299 |            3770802 |             0 |                0 |         1141788 |                     0 |        848807 | 2017-02-06 09:42:18.893067+01

 2017-02-06 11:08:46.976921+01 | 1486375726.97692 |                 0 |              18 |                 31575 |                 1299 |            3770802 |             0 |                0 |         1141788 |                     0 |        849025 | 2017-02-06 09:42:18.893067+01

 2017-02-06 11:08:48.061656+01 | 1486375728.06166 |                 0 |              18 |                 31575 |                 1299 |            3770802 |             0 |                0 |         1141788 |                     0 |        849130 | 2017-02-06 09:42:18.893067+01

 2017-02-06 11:08:49.138744+01 | 1486375729.13874 |                 0 |              18 |                 31575 |                 1299 |            3770802 |             0 |                0 |         1141788 |                     0 |        849319 | 2017-02-06 09:42:18.893067+01

 2017-02-06 11:08:50.211777+01 | 1486375730.21178 |                 0 |              18 |                 31575 |                 1299 |            3770802 |             0 |                0 |         1141788 |                     0 |        849492 | 2017-02-06 09:42:18.893067+01

 2017-02-06 11:08:51.288868+01 | 1486375731.28887 |                 0 |              18 |                 31575 |                 1299 |            3770802 |             0 |                0 |         1141788 |                     0 |        849636 | 2017-02-06 09:42:18.893067+01

 2017-02-06 11:08:52.368819+01 | 1486375732.36882 |                 0 |              18 |                 31575 |                 1299 |            3770802 |             0 |                0 |         1141788 |                     0 |        849882 | 2017-02-06 09:42:18.893067+01

 2017-02-06 11:08:53.444318+01 | 1486375733.44432 |                 0 |              18 |                 31575 |                 1299 |            3770802 |             0 |                0 |         1141788 |                     0 |        849945 | 2017-02-06 09:42:18.893067+01

 2017-02-06 11:08:54.51771+01 | 1486375734.51771 |                 0 |              18 |                 31575 |                 1299 |            3770802 |             0 |                0 |         1141788 |                     0 |        850137 | 2017-02-06 09:42:18.893067+01

 2017-02-06 11:08:55.588408+01 | 1486375735.58841 |                 0 |              18 |                 31575 |                 1299 |            3770802 |             0 |                0 |         1141788 |                     0 |        850244 | 2017-02-06 09:42:18.893067+01

 2017-02-06 11:08:56.669686+01 | 1486375736.66969 |                 0 |              18 |                 31575 |                 1299 |            3770802 |             0 |                0 |         1141788 |                     0 |        850412 | 2017-02-06 09:42:18.893067+01

 2017-02-06 11:08:57.747045+01 | 1486375737.74705 |                 0 |              18 |                 31575 |                 1299 |            3770802 |             0 |                0 |         1141788 |                     0 |        850599 | 2017-02-06 09:42:18.893067+01

 2017-02-06 11:08:58.828765+01 | 1486375738.82876 |                 0 |              18 |                 31575 |                 1299 |            3770802 |             0 |                0 |         1141788 |                     0 |        850752 | 2017-02-06 09:42:18.893067+01

 2017-02-06 11:08:59.90297+01 | 1486375739.90297 |                 0 |              18 |                 31575 |                 1299 |            3770802 |             0 |                0 |         1141788 |                     0 |        850908 | 2017-02-06 09:42:18.893067+01

 2017-02-06 11:09:00.982464+01 | 1486375740.98246 |                 0 |              18 |                 31575 |                 1299 |            3770802 |             0 |                0 |         1141788 |                     0 |        851125 | 2017-02-06 09:42:18.893067+01

 2017-02-06 11:09:02.063985+01 | 1486375742.06399 |                 0 |              18 |                 31575 |                 1299 |            3770802 |             0 |                0 |         1141788 |                     0 |        851278 | 2017-02-06 09:42:18.893067+01

 2017-02-06 11:09:03.140248+01 | 1486375743.14025 |                 0 |              18 |                 31575 |                 1299 |            3770802 |             0 |                0 |         1141788 |                     0 |        851408 | 2017-02-06 09:42:18.893067+01

 2017-02-06 11:09:04.21906+01 | 1486375744.21906 |                 0 |              18 |                 31575 |                 1299 |            3770802 |             0 |                0 |         1141788 |                     0 |        851624 | 2017-02-06 09:42:18.893067+01

 2017-02-06 11:09:05.294138+01 | 1486375745.29414 |                 0 |              18 |                 31575 |                 1299 |            3770802 |             0 |                0 |         1141788 |                     0 |        851727 | 2017-02-06 09:42:18.893067+01

 2017-02-06 11:09:06.355563+01 | 1486375746.35556 |                 0 |              18 |                 31575 |                 1299 |            3770802 |             0 |                0 |         1141788 |                     0 |        851995 | 2017-02-06 09:42:18.893067+01

 2017-02-06 11:09:07.430755+01 | 1486375747.43075 |                 0 |              18 |                 31575 |                 1299 |            3770802 |             0 |                0 |         1141788 |                     0 |        852098 | 2017-02-06 09:42:18.893067+01

 2017-02-06 11:09:08.50382+01 | 1486375748.50382 |                 0 |              18 |                 31575 |                 1299 |            3770802 |             0 |                0 |         1141788 |                     0 |        852267 | 2017-02-06 09:42:18.893067+01

 2017-02-06 11:09:09.583393+01 | 1486375749.58339 |                 0 |              18 |                 31575 |                 1299 |            3770802 |             0 |                0 |         1141788 |                     0 |        852400 | 2017-02-06 09:42:18.893067+01

 2017-02-06 11:09:10.66695+01 | 1486375750.66695 |                 0 |              18 |                 31575 |                 1299 |            3770802 |             0 |                0 |         1141788 |                     0 |        852550 | 2017-02-06 09:42:18.893067+01

 2017-02-06 11:09:11.751869+01 | 1486375751.75187 |                 0 |              18 |                 31575 |                 1299 |            3770802 |             0 |                0 |         1141788 |                     0 |        852825 | 2017-02-06 09:42:18.893067+01

 2017-02-06 11:09:12.826415+01 | 1486375752.82642 |                 0 |              18 |                 31575 |                 1299 |            3770802 |             0 |                0 |         1141788 |                     0 |        852992 | 2017-02-06 09:42:18.893067+01

 2017-02-06 11:09:13.904674+01 | 1486375753.90467 |                 0 |              18 |                 31575 |                 1299 |            3770802 |             0 |                0 |         1141788 |                     0 |        853058 | 2017-02-06 09:42:18.893067+01

 2017-02-06 11:09:14.988194+01 | 1486375754.98819 |                 0 |              18 |                 31575 |                 1299 |            3770802 |             0 |                0 |         1141788 |                     0 |        853213 | 2017-02-06 09:42:18.893067+01

 2017-02-06 11:09:16.064531+01 | 1486375756.06453 |                 0 |              18 |                 31575 |                 1299 |            3770802 |             0 |                0 |         1141788 |                     0 |        853505 | 2017-02-06 09:42:18.893067+01

 2017-02-06 11:09:17.145106+01 | 1486375757.14511 |                 0 |              18 |                 31575 |                 1299 |            3770802 |             0 |                0 |         1141788 |                     0 |        853628 | 2017-02-06 09:42:18.893067+01

 2017-02-06 11:09:18.22653+01 | 1486375758.22653 |                 0 |              18 |                 31575 |                 1299 |            3770802 |             0 |                0 |         1141788 |                     0 |        853751 | 2017-02-06 09:42:18.893067+01

 2017-02-06 11:09:19.306377+01 | 1486375759.30638 |                 0 |              18 |                 31575 |                 1299 |            3770802 |             0 |                0 |         1141788 |                     0 |        853878 | 2017-02-06 09:42:18.893067+01

 2017-02-06 11:09:20.384132+01 | 1486375760.38413 |                 0 |              18 |                 31575 |                 1299 |            3770802 |             0 |                0 |         1141788 |                     0 |        854069 | 2017-02-06 09:42:18.893067+01

 2017-02-06 11:09:21.465719+01 | 1486375761.46572 |                 0 |              18 |                 31575 |                 1299 |            3770802 |             0 |                0 |         1141788 |                     0 |        854225 | 2017-02-06 09:42:18.893067+01

 2017-02-06 11:09:22.552196+01 | 1486375762.5522 |                 0 |              18 |                 31575 |                 1299 |            3770802 |             0 |                0 |         1141788 |                     0 |        854588 | 2017-02-06 09:42:18.893067+01

 2017-02-06 11:09:23.633032+01 | 1486375763.63303 |                 0 |              18 |                 31575 |                 1299 |            3770802 |             0 |                0 |         1141788 |                     0 |        854588 | 2017-02-06 09:42:18.893067+01

 2017-02-06 11:09:24.707669+01 | 1486375764.70767 |                 0 |              18 |                 31575 |                 1299 |            3770802 |             0 |                0 |         1141788 |                     0 |        854714 | 2017-02-06 09:42:18.893067+01

 2017-02-06 11:09:25.789248+01 | 1486375765.78925 |                 0 |              18 |                 31575 |                 1299 |            3770802 |             0 |                0 |         1141788 |                     0 |        854860 | 2017-02-06 09:42:18.893067+01

 2017-02-06 11:09:26.868109+01 | 1486375766.86811 |                 0 |              18 |                 31575 |                 1299 |            3770802 |             0 |                0 |         1141788 |                     0 |        855056 | 2017-02-06 09:42:18.893067+01

 2017-02-06 11:09:27.94244+01 | 1486375767.94244 |                 0 |              18 |                 31575 |                 1299 |            3770802 |             0 |                0 |         1141788 |                     0 |        855206 | 2017-02-06 09:42:18.893067+01

 2017-02-06 11:09:29.025054+01 | 1486375769.02505 |                 0 |              18 |                 31575 |                 1299 |            3770802 |             0 |                0 |         1141788 |                     0 |        855375 | 2017-02-06 09:42:18.893067+01

 2017-02-06 11:09:30.100868+01 | 1486375770.10087 |                 0 |              18 |                 31575 |                 1299 |            3770802 |             0 |                0 |         1141788 |                     0 |        855543 | 2017-02-06 09:42:18.893067+01

 2017-02-06 11:09:31.185334+01 | 1486375771.18533 |                 0 |              18 |                 31575 |                 1299 |            3770802 |             0 |                0 |         1141788 |                     0 |        855709 | 2017-02-06 09:42:18.893067+01

 2017-02-06 11:09:32.261612+01 | 1486375772.26161 |                 0 |              18 |                 31575 |                 1299 |            3770802 |             0 |                0 |         1141788 |                     0 |        855840 | 2017-02-06 09:42:18.893067+01

 2017-02-06 11:09:33.335956+01 | 1486375773.33596 |                 0 |              18 |                 31575 |                 1299 |            3770802 |             0 |                0 |         1141788 |                     0 |        856009 | 2017-02-06 09:42:18.893067+01

 2017-02-06 11:09:34.414912+01 | 1486375774.41491 |                 0 |              18 |                 31575 |                 1299 |            3770802 |             0 |                0 |         1141788 |                     0 |        856318 | 2017-02-06 09:42:18.893067+01

 2017-02-06 11:09:35.491357+01 | 1486375775.49136 |                 0 |              18 |                 31575 |                 1299 |            3770802 |             0 |                0 |         1141788 |                     0 |        856441 | 2017-02-06 09:42:18.893067+01

 2017-02-06 11:09:36.57652+01 | 1486375776.57652 |                 0 |              18 |                 31575 |                 1299 |            3770802 |             0 |                0 |         1141788 |                     0 |        856547 | 2017-02-06 09:42:18.893067+01

 2017-02-06 11:09:37.655591+01 | 1486375777.65559 |                 0 |              18 |                 31575 |                 1299 |            3770802 |             0 |                0 |         1141788 |                     0 |        856697 | 2017-02-06 09:42:18.893067+01

 2017-02-06 11:09:38.730614+01 | 1486375778.73061 |                 0 |              18 |                 31575 |                 1299 |            3770802 |             0 |                0 |         1141788 |                     0 |        856890 | 2017-02-06 09:42:18.893067+01

 2017-02-06 11:09:39.812419+01 | 1486375779.81242 |                 0 |              18 |                 31575 |                 1299 |            3770802 |             0 |                0 |         1141788 |                     0 |        856973 | 2017-02-06 09:42:18.893067+01

 2017-02-06 11:09:40.886231+01 | 1486375780.88623 |                 0 |              18 |                 31575 |                 1299 |            3770802 |             0 |                0 |         1141788 |                     0 |        857191 | 2017-02-06 09:42:18.893067+01

 2017-02-06 11:09:41.966639+01 | 1486375781.96664 |                 0 |              18 |                 31575 |                 1299 |            3770802 |             0 |                0 |         1141788 |                     0 |        857297 | 2017-02-06 09:42:18.893067+01

 2017-02-06 11:09:43.045928+01 | 1486375783.04593 |                 0 |              18 |                 31575 |                 1299 |            3770802 |             0 |                0 |         1141788 |                     0 |        857463 | 2017-02-06 09:42:18.893067+01

 2017-02-06 11:09:44.122566+01 | 1486375784.12257 |                 0 |              18 |                 31575 |                 1299 |            3770802 |             0 |                0 |         1141788 |                     0 |        857656 | 2017-02-06 09:42:18.893067+01

 2017-02-06 11:09:45.195275+01 | 1486375785.19528 |                 0 |              18 |                 31575 |                 1299 |            3770802 |             0 |                0 |         1141788 |                     0 |        857850 | 2017-02-06 09:42:18.893067+01

 2017-02-06 11:09:46.274402+01 | 1486375786.2744 |                 0 |              18 |                 31575 |                 1299 |            3770802 |             0 |                0 |         1141788 |                     0 |        857966 | 2017-02-06 09:42:18.893067+01

 2017-02-06 11:09:47.350623+01 | 1486375787.35062 |                 0 |              18 |                 31575 |                 1299 |            3770802 |             0 |                0 |         1141788 |                     0 |        858099 | 2017-02-06 09:42:18.893067+01

 2017-02-06 11:09:48.421665+01 | 1486375788.42166 |                 0 |              18 |                 31575 |                 1299 |            3770802 |             0 |                0 |         1141788 |                     0 |        858284 | 2017-02-06 09:42:18.893067+01

 2017-02-06 11:09:49.496072+01 | 1486375789.49607 |                 0 |              18 |                 31575 |                 1299 |            3770802 |             0 |                0 |         1141788 |                     0 |        858413 | 2017-02-06 09:42:18.893067+01

 2017-02-06 11:09:50.577055+01 | 1486375790.57705 |                 0 |              18 |                 31575 |                 1299 |            3770802 |             0 |                0 |         1141788 |                     0 |        858544 | 2017-02-06 09:42:18.893067+01

 2017-02-06 11:09:51.642733+01 | 1486375791.64273 |                 0 |              18 |                 31575 |                 1299 |            3770802 |             0 |                0 |         1141788 |                     0 |        858697 | 2017-02-06 09:42:18.893067+01

 2017-02-06 11:09:52.718519+01 | 1486375792.71852 |                 0 |              18 |                 31575 |                 1299 |            3770802 |             0 |                0 |         1141788 |                     0 |        858907 | 2017-02-06 09:42:18.893067+01

 2017-02-06 11:09:53.794218+01 | 1486375793.79422 |                 0 |              18 |                 31575 |                 1299 |            3770802 |             0 |                0 |         1141788 |                     0 |        859013 | 2017-02-06 09:42:18.893067+01

 2017-02-06 11:09:54.870804+01 | 1486375794.8708 |                 0 |              18 |                 31575 |                 1299 |            3770802 |             0 |                0 |         1141788 |                     0 |        859143 | 2017-02-06 09:42:18.893067+01

 2017-02-06 11:09:55.946005+01 | 1486375795.94601 |                 0 |              18 |                 31575 |                 1299 |            3770802 |             0 |                0 |         1141788 |                     0 |        859309 | 2017-02-06 09:42:18.893067+01

 2017-02-06 11:09:57.019848+01 | 1486375797.01985 |                 0 |              18 |                 31575 |                 1299 |            3770802 |             0 |                0 |         1141788 |                     0 |        859505 | 2017-02-06 09:42:18.893067+01

 2017-02-06 11:09:58.095681+01 | 1486375798.09568 |                 0 |              18 |                 31575 |                 1299 |            3770802 |             0 |                0 |         1141788 |                     0 |        859674 | 2017-02-06 09:42:18.893067+01

 2017-02-06 11:09:59.170683+01 | 1486375799.17068 |                 0 |              18 |                 31575 |                 1299 |            3770802 |             0 |                0 |         1141788 |                     0 |        859824 | 2017-02-06 09:42:18.893067+01

 2017-02-06 11:10:00.247435+01 | 1486375800.24744 |                 0 |              18 |                 31575 |                 1299 |            3770802 |             0 |                0 |         1141788 |                     0 |        860353 | 2017-02-06 09:42:18.893067+01

 2017-02-06 11:10:01.324094+01 | 1486375801.32409 |                 0 |              18 |                 31575 |                 1299 |            3770802 |             0 |                0 |         1141788 |                     0 |        860353 | 2017-02-06 09:42:18.893067+01

 2017-02-06 11:10:02.399611+01 | 1486375802.39961 |                 0 |              18 |                 31575 |                 1299 |            3770802 |             0 |                0 |         1141788 |                     0 |        860353 | 2017-02-06 09:42:18.893067+01

 2017-02-06 11:10:03.482823+01 | 1486375803.48282 |                 0 |              18 |                 31575 |                 1299 |            3770802 |             0 |                0 |         1141788 |                     0 |        860353 | 2017-02-06 09:42:18.893067+01

 2017-02-06 11:10:04.547426+01 | 1486375804.54743 |                 0 |              18 |                 31575 |                 1299 |            3770802 |             0 |                0 |         1141788 |                     0 |        860522 | 2017-02-06 09:42:18.893067+01

 2017-02-06 11:10:05.636128+01 | 1486375805.63613 |                 0 |              18 |                 31575 |                 1299 |            3770802 |             0 |                0 |         1141788 |                     0 |        860768 | 2017-02-06 09:42:18.893067+01

 2017-02-06 11:10:06.711931+01 | 1486375806.71193 |                 0 |              18 |                 31575 |                 1299 |            3770802 |             0 |                0 |         1141788 |                     0 |        860918 | 2017-02-06 09:42:18.893067+01

 2017-02-06 11:10:07.788108+01 | 1486375807.78811 |                 0 |              18 |                 31575 |                 1299 |            3770802 |             0 |                0 |         1141788 |                     0 |        861115 | 2017-02-06 09:42:18.893067+01

 2017-02-06 11:10:08.863959+01 | 1486375808.86396 |                 0 |              18 |                 31575 |                 1299 |            3770802 |             0 |                0 |         1141788 |                     0 |        861268 | 2017-02-06 09:42:18.893067+01

 2017-02-06 11:10:09.944543+01 | 1486375809.94454 |                 0 |              18 |                 31575 |                 1299 |            3770802 |             0 |                0 |         1141788 |                     0 |        861395 | 2017-02-06 09:42:18.893067+01

 2017-02-06 11:10:11.023683+01 | 1486375811.02368 |                 0 |              18 |                 31575 |                 1299 |            3770802 |             0 |                0 |         1141788 |                     0 |        861502 | 2017-02-06 09:42:18.893067+01

 2017-02-06 11:10:12.101006+01 | 1486375812.10101 |                 0 |              18 |                 31575 |                 1299 |            3770802 |             0 |                0 |         1141788 |                     0 |        861735 | 2017-02-06 09:42:18.893067+01

 2017-02-06 11:10:13.176805+01 | 1486375813.17681 |                 0 |              18 |                 31575 |                 1299 |            3770802 |             0 |                0 |         1141788 |                     0 |        861821 | 2017-02-06 09:42:18.893067+01

 2017-02-06 11:10:14.250331+01 | 1486375814.25033 |                 0 |              18 |                 31575 |                 1299 |            3770802 |             0 |                0 |         1141788 |                     0 |        862029 | 2017-02-06 09:42:18.893067+01

 2017-02-06 11:10:15.321701+01 | 1486375815.3217 |                 0 |              18 |                 31575 |                 1299 |            3770802 |             0 |                0 |         1141788 |                     0 |        862178 | 2017-02-06 09:42:18.893067+01

 2017-02-06 11:10:16.404213+01 | 1486375816.40421 |                 0 |              18 |                 31575 |                 1299 |            3770802 |             0 |                0 |         1141788 |                     0 |        862328 | 2017-02-06 09:42:18.893067+01

 2017-02-06 11:10:17.476831+01 | 1486375817.47683 |                 0 |              18 |                 31575 |                 1299 |            3770802 |             0 |                0 |         1141788 |                     0 |        862637 | 2017-02-06 09:42:18.893067+01

 2017-02-06 11:10:18.552395+01 | 1486375818.5524 |                 0 |              18 |                 31575 |                 1299 |            3770802 |             0 |                0 |         1141788 |                     0 |        862703 | 2017-02-06 09:42:18.893067+01

 2017-02-06 11:10:19.625443+01 | 1486375819.62544 |                 0 |              18 |                 31575 |                 1299 |            3770802 |             0 |                0 |         1141788 |                     0 |        862853 | 2017-02-06 09:42:18.893067+01

 2017-02-06 11:10:20.703925+01 | 1486375820.70392 |                 0 |              18 |                 31575 |                 1299 |            3770802 |             0 |                0 |         1141788 |                     0 |        863042 | 2017-02-06 09:42:18.893067+01

 2017-02-06 11:10:21.795351+01 | 1486375821.79535 |                 0 |              18 |                 31575 |                 1299 |            3770802 |             0 |                0 |         1141788 |                     0 |        863152 | 2017-02-06 09:42:18.893067+01

 2017-02-06 11:10:22.874667+01 | 1486375822.87467 |                 0 |              18 |                 31575 |                 1299 |            3770802 |             0 |                0 |         1141788 |                     0 |        863325 | 2017-02-06 09:42:18.893067+01

 2017-02-06 11:10:23.952921+01 | 1486375823.95292 |                 0 |              18 |                 31575 |                 1299 |            3770802 |             0 |                0 |         1141788 |                     0 |        863539 | 2017-02-06 09:42:18.893067+01

 2017-02-06 11:10:25.031312+01 | 1486375825.03131 |                 0 |              18 |                 31575 |                 1299 |            3770802 |             0 |                0 |         1141788 |                     0 |        863635 | 2017-02-06 09:42:18.893067+01

 2017-02-06 11:10:26.111074+01 | 1486375826.11107 |                 0 |              18 |                 31575 |                 1299 |            3770802 |             0 |                0 |         1141788 |                     0 |        863826 | 2017-02-06 09:42:18.893067+01

 2017-02-06 11:10:27.189337+01 | 1486375827.18934 |                 0 |              18 |                 31575 |                 1299 |            3770802 |             0 |                0 |         1141788 |                     0 |        863992 | 2017-02-06 09:42:18.893067+01

 2017-02-06 11:10:28.26511+01 | 1486375828.26511 |                 0 |              18 |                 31575 |                 1299 |            3770802 |             0 |                0 |         1141788 |                     0 |        864142 | 2017-02-06 09:42:18.893067+01

 2017-02-06 11:10:29.342338+01 | 1486375829.34234 |                 0 |              18 |                 31575 |                 1299 |            3770802 |             0 |                0 |         1141788 |                     0 |        864336 | 2017-02-06 09:42:18.893067+01

 2017-02-06 11:10:30.415136+01 | 1486375830.41514 |                 0 |              18 |                 31575 |                 1299 |            3770802 |             0 |                0 |         1141788 |                     0 |        864467 | 2017-02-06 09:42:18.893067+01

 2017-02-06 11:10:31.493662+01 | 1486375831.49366 |                 0 |              18 |                 31575 |                 1299 |            3770802 |             0 |                0 |         1141788 |                     0 |        864600 | 2017-02-06 09:42:18.893067+01

 2017-02-06 11:10:32.568856+01 | 1486375832.56886 |                 0 |              18 |                 31575 |                 1299 |            3770802 |             0 |                0 |         1141788 |                     0 |        864858 | 2017-02-06 09:42:18.893067+01

 2017-02-06 11:10:33.652683+01 | 1486375833.65268 |                 0 |              18 |                 31575 |                 1299 |            3770802 |             0 |                0 |         1141788 |                     0 |        864947 | 2017-02-06 09:42:18.893067+01

 2017-02-06 11:10:34.737413+01 | 1486375834.73741 |                 0 |              18 |                 31575 |                 1299 |            3770802 |             0 |                0 |         1141788 |                     0 |        865098 | 2017-02-06 09:42:18.893067+01

 2017-02-06 11:10:35.806646+01 | 1486375835.80665 |                 0 |              18 |                 31575 |                 1299 |            3770802 |             0 |                0 |         1141788 |                     0 |        865265 | 2017-02-06 09:42:18.893067+01

 2017-02-06 11:10:36.883277+01 | 1486375836.88328 |                 0 |              18 |                 31575 |                 1299 |            3770802 |             0 |                0 |         1141788 |                     0 |        865430 | 2017-02-06 09:42:18.893067+01

 2017-02-06 11:10:37.960256+01 | 1486375837.96026 |                 0 |              18 |                 31575 |                 1299 |            3770802 |             0 |                0 |         1141788 |                     0 |        865661 | 2017-02-06 09:42:18.893067+01

 2017-02-06 11:10:39.036159+01 | 1486375839.03616 |                 0 |              18 |                 31575 |                 1299 |            3770802 |             0 |                0 |         1141788 |                     0 |        865771 | 2017-02-06 09:42:18.893067+01

 2017-02-06 11:10:40.115456+01 | 1486375840.11546 |                 0 |              18 |                 31575 |                 1299 |            3770802 |             0 |                0 |         1141788 |                     0 |        865927 | 2017-02-06 09:42:18.893067+01

 2017-02-06 11:10:41.194435+01 | 1486375841.19443 |                 0 |              18 |                 31575 |                 1299 |            3770802 |             0 |                0 |         1141788 |                     0 |        866100 | 2017-02-06 09:42:18.893067+01

 2017-02-06 11:10:42.279358+01 | 1486375842.27936 |                 0 |              18 |                 31575 |                 1299 |            3770802 |             0 |                0 |         1141788 |                     0 |        866254 | 2017-02-06 09:42:18.893067+01

 2017-02-06 11:10:43.352136+01 | 1486375843.35214 |                 0 |              18 |                 31575 |                 1299 |            3770802 |             0 |                0 |         1141788 |                     0 |        866446 | 2017-02-06 09:42:18.893067+01

 2017-02-06 11:10:44.427322+01 | 1486375844.42732 |                 0 |              18 |                 31575 |                 1299 |            3770802 |             0 |                0 |         1141788 |                     0 |        866596 | 2017-02-06 09:42:18.893067+01

 2017-02-06 11:10:45.504904+01 | 1486375845.5049 |                 0 |              18 |                 31575 |                 1299 |            3770802 |             0 |                0 |         1141788 |                     0 |        866768 | 2017-02-06 09:42:18.893067+01

 2017-02-06 11:10:46.58519+01 | 1486375846.58519 |                 0 |              18 |                 31575 |                 1299 |            3770802 |             0 |                0 |         1141788 |                     0 |        866986 | 2017-02-06 09:42:18.893067+01

 2017-02-06 11:10:47.662242+01 | 1486375847.66224 |                 0 |              18 |                 31575 |                 1299 |            3770802 |             0 |                0 |         1141788 |                     0 |        867095 | 2017-02-06 09:42:18.893067+01

 2017-02-06 11:10:48.741737+01 | 1486375848.74174 |                 0 |              18 |                 31575 |                 1299 |            3770802 |             0 |                0 |         1141788 |                     0 |        867273 | 2017-02-06 09:42:18.893067+01

 2017-02-06 11:10:49.826605+01 | 1486375849.82661 |                 0 |              18 |                 31575 |                 1299 |            3770802 |             0 |                0 |         1141788 |                     0 |        867405 | 2017-02-06 09:42:18.893067+01

 2017-02-06 11:10:50.902055+01 | 1486375850.90206 |                 0 |              18 |                 31575 |                 1299 |            3770802 |             0 |                0 |         1141788 |                     0 |        867621 | 2017-02-06 09:42:18.893067+01

 2017-02-06 11:10:51.968549+01 | 1486375851.96855 |                 0 |              18 |                 31575 |                 1299 |            3770802 |             0 |                0 |         1141788 |                     0 |        867775 | 2017-02-06 09:42:18.893067+01

 2017-02-06 11:10:53.068735+01 | 1486375853.06873 |                 0 |              18 |                 31575 |                 1299 |            3770802 |             0 |                0 |         1141788 |                     0 |        867884 | 2017-02-06 09:42:18.893067+01

 2017-02-06 11:10:54.150603+01 | 1486375854.1506 |                 0 |              18 |                 31575 |                 1299 |            3770802 |             0 |                0 |         1141788 |                     0 |        868061 | 2017-02-06 09:42:18.893067+01

 2017-02-06 11:10:55.22688+01 | 1486375855.22688 |                 0 |              18 |                 31575 |                 1299 |            3770802 |             0 |                0 |         1141788 |                     0 |        868255 | 2017-02-06 09:42:18.893067+01

 2017-02-06 11:10:56.301614+01 | 1486375856.30161 |                 0 |              18 |                 31575 |                 1299 |            3770802 |             0 |                0 |         1141788 |                     0 |        868361 | 2017-02-06 09:42:18.893067+01

 2017-02-06 11:10:57.378892+01 | 1486375857.37889 |                 0 |              18 |                 31575 |                 1299 |            3770802 |             0 |                0 |         1141788 |                     0 |        868561 | 2017-02-06 09:42:18.893067+01

 2017-02-06 11:10:58.45418+01 | 1486375858.45418 |                 0 |              18 |                 31575 |                 1299 |            3770802 |             0 |                0 |         1141788 |                     0 |        868754 | 2017-02-06 09:42:18.893067+01

 2017-02-06 11:10:59.534264+01 | 1486375859.53426 |                 0 |              18 |                 31575 |                 1299 |            3770802 |             0 |                0 |         1141788 |                     0 |        868883 | 2017-02-06 09:42:18.893067+01

 2017-02-06 11:11:00.613106+01 | 1486375860.61311 |                 0 |              18 |                 31575 |                 1299 |            3770802 |             0 |                0 |         1141788 |                     0 |        869027 | 2017-02-06 09:42:18.893067+01

 2017-02-06 11:11:01.696674+01 | 1486375861.69667 |                 0 |              18 |                 31575 |                 1299 |            3770802 |             0 |                0 |         1141788 |                     0 |        869184 | 2017-02-06 09:42:18.893067+01

 2017-02-06 11:11:02.780637+01 | 1486375862.78064 |                 0 |              18 |                 31575 |                 1299 |            3770802 |             0 |                0 |         1141788 |                     0 |        869439 | 2017-02-06 09:42:18.893067+01

 2017-02-06 11:11:03.853411+01 | 1486375863.85341 |                 0 |              18 |                 31575 |                 1299 |            3770802 |             0 |                0 |         1141788 |                     0 |        869532 | 2017-02-06 09:42:18.893067+01

 2017-02-06 11:11:04.929106+01 | 1486375864.92911 |                 0 |              18 |                 31575 |                 1299 |            3770802 |             0 |                0 |         1141788 |                     0 |        869682 | 2017-02-06 09:42:18.893067+01

 2017-02-06 11:11:06.014403+01 | 1486375866.0144 |                 0 |              18 |                 31575 |                 1299 |            3770802 |             0 |                0 |         1141788 |                     0 |        869841 | 2017-02-06 09:42:18.893067+01

 2017-02-06 11:11:07.091735+01 | 1486375867.09173 |                 0 |              18 |                 31575 |                 1299 |            3770802 |             0 |                0 |         1141788 |                     0 |        870093 | 2017-02-06 09:42:18.893067+01

 2017-02-06 11:11:08.172466+01 | 1486375868.17247 |                 0 |              18 |                 31575 |                 1299 |            3770802 |             0 |                0 |         1141788 |                     0 |        870161 | 2017-02-06 09:42:18.893067+01

 2017-02-06 11:11:09.255235+01 | 1486375869.25523 |                 0 |              18 |                 31575 |                 1299 |            3770802 |             0 |                0 |         1141788 |                     0 |        870371 | 2017-02-06 09:42:18.893067+01

 2017-02-06 11:11:10.34098+01 | 1486375870.34098 |                 0 |              18 |                 31575 |                 1299 |            3770802 |             0 |                0 |         1141788 |                     0 |        870517 | 2017-02-06 09:42:18.893067+01

 2017-02-06 11:11:11.41907+01 | 1486375871.41907 |                 0 |              18 |                 31575 |                 1299 |            3770802 |             0 |                0 |         1141788 |                     0 |        870750 | 2017-02-06 09:42:18.893067+01

 2017-02-06 11:11:12.499467+01 | 1486375872.49947 |                 0 |              18 |                 31575 |                 1299 |            3770802 |             0 |                0 |         1141788 |                     0 |        870856 | 2017-02-06 09:42:18.893067+01

 2017-02-06 11:11:13.576794+01 | 1486375873.57679 |                 0 |              18 |                 31575 |                 1299 |            3770802 |             0 |                0 |         1141788 |                     0 |        870984 | 2017-02-06 09:42:18.893067+01

 2017-02-06 11:11:14.656471+01 | 1486375874.65647 |                 0 |              18 |                 31575 |                 1299 |            3770802 |             0 |                0 |         1141788 |                     0 |        871151 | 2017-02-06 09:42:18.893067+01

 2017-02-06 11:11:15.737366+01 | 1486375875.73737 |                 0 |              18 |                 31575 |                 1299 |            3770802 |             0 |                0 |         1141788 |                     0 |        871278 | 2017-02-06 09:42:18.893067+01

 2017-02-06 11:11:16.813008+01 | 1486375876.81301 |                 0 |              18 |                 31575 |                 1299 |            3770802 |             0 |                0 |         1141788 |                     0 |        871467 | 2017-02-06 09:42:18.893067+01

 2017-02-06 11:11:17.895283+01 | 1486375877.89528 |                 0 |              18 |                 31575 |                 1299 |            3770802 |             0 |                0 |         1141788 |                     0 |        871716 | 2017-02-06 09:42:18.893067+01

 2017-02-06 11:11:18.97643+01 | 1486375878.97643 |                 0 |              18 |                 31575 |                 1299 |            3770802 |             0 |                0 |         1141788 |                     0 |        871803 | 2017-02-06 09:42:18.893067+01

 2017-02-06 11:11:20.052713+01 | 1486375880.05271 |                 0 |              18 |                 31575 |                 1299 |            3770802 |             0 |                0 |         1141788 |                     0 |        871971 | 2017-02-06 09:42:18.893067+01

 2017-02-06 11:11:21.136091+01 | 1486375881.13609 |                 0 |              18 |                 31575 |                 1299 |            3770802 |             0 |                0 |         1141788 |                     0 |        872160 | 2017-02-06 09:42:18.893067+01

 2017-02-06 11:11:22.212103+01 | 1486375882.2121 |                 0 |              18 |                 31575 |                 1299 |            3770802 |             0 |                0 |         1141788 |                     0 |        872288 | 2017-02-06 09:42:18.893067+01

 2017-02-06 11:11:23.285477+01 | 1486375883.28548 |                 0 |              18 |                 31575 |                 1299 |            3770802 |             0 |                0 |         1141788 |                     0 |        872460 | 2017-02-06 09:42:18.893067+01

 2017-02-06 11:11:24.364793+01 | 1486375884.36479 |                 0 |              18 |                 31575 |                 1299 |            3770802 |             0 |                0 |         1141788 |                     0 |        872629 | 2017-02-06 09:42:18.893067+01

 2017-02-06 11:11:25.441851+01 | 1486375885.44185 |                 0 |              18 |                 31575 |                 1299 |            3770802 |             0 |                0 |         1141788 |                     0 |        872774 | 2017-02-06 09:42:18.893067+01

 2017-02-06 11:11:26.520501+01 | 1486375886.5205 |                 0 |              18 |                 31575 |                 1299 |            3770802 |             0 |                0 |         1141788 |                     0 |        872920 | 2017-02-06 09:42:18.893067+01

 2017-02-06 11:11:27.598632+01 | 1486375887.59863 |                 0 |              18 |                 31575 |                 1299 |            3770802 |             0 |                0 |         1141788 |                     0 |        873116 | 2017-02-06 09:42:18.893067+01

 2017-02-06 11:11:28.676375+01 | 1486375888.67637 |                 0 |              18 |                 31575 |                 1299 |            3770802 |             0 |                0 |         1141788 |                     0 |        873282 | 2017-02-06 09:42:18.893067+01

 2017-02-06 11:11:29.757469+01 | 1486375889.75747 |                 0 |              18 |                 31575 |                 1299 |            3770802 |             0 |                0 |         1141788 |                     0 |        873448 | 2017-02-06 09:42:18.893067+01

 2017-02-06 11:11:30.83475+01 | 1486375890.83475 |                 0 |              18 |                 31575 |                 1299 |            3770802 |             0 |                0 |         1141788 |                     0 |        873661 | 2017-02-06 09:42:18.893067+01

 2017-02-06 11:11:31.915046+01 | 1486375891.91505 |                 0 |              18 |                 31575 |                 1299 |            3770802 |             0 |                0 |         1141788 |                     0 |        873774 | 2017-02-06 09:42:18.893067+01

 2017-02-06 11:11:32.998486+01 | 1486375892.99849 |                 0 |              18 |                 31575 |                 1299 |            3770802 |             0 |                0 |         1141788 |                     0 |        873946 | 2017-02-06 09:42:18.893067+01

 2017-02-06 11:11:34.076565+01 | 1486375894.07657 |                 0 |              18 |                 31575 |                 1299 |            3770802 |             0 |                0 |         1141788 |                     0 |        874104 | 2017-02-06 09:42:18.893067+01

 2017-02-06 11:11:35.153628+01 | 1486375895.15363 |                 0 |              18 |                 31575 |                 1299 |            3770802 |             0 |                0 |         1141788 |                     0 |        874272 | 2017-02-06 09:42:18.893067+01

 2017-02-06 11:11:36.236173+01 | 1486375896.23617 |                 0 |              18 |                 31575 |                 1299 |            3770802 |             0 |                0 |         1141788 |                     0 |        874420 | 2017-02-06 09:42:18.893067+01

 2017-02-06 11:11:37.309183+01 | 1486375897.30918 |                 0 |              18 |                 31575 |                 1299 |            3770802 |             0 |                0 |         1141788 |                     0 |        874572 | 2017-02-06 09:42:18.893067+01

 2017-02-06 11:11:38.386496+01 | 1486375898.3865 |                 0 |              18 |                 31575 |                 1299 |            3770802 |             0 |                0 |         1141788 |                     0 |        874726 | 2017-02-06 09:42:18.893067+01

 2017-02-06 11:11:39.462829+01 | 1486375899.46283 |                 0 |              18 |                 31575 |                 1299 |            3770802 |             0 |                0 |         1141788 |                     0 |        874903 | 2017-02-06 09:42:18.893067+01

 2017-02-06 11:11:40.536452+01 | 1486375900.53645 |                 0 |              18 |                 31575 |                 1299 |            3770802 |             0 |                0 |         1141788 |                     0 |        875055 | 2017-02-06 09:42:18.893067+01

 2017-02-06 11:11:41.607864+01 | 1486375901.60786 |                 0 |              18 |                 31575 |                 1299 |            3770802 |             0 |                0 |         1141788 |                     0 |        875209 | 2017-02-06 09:42:18.893067+01

 2017-02-06 11:11:42.694827+01 | 1486375902.69483 |                 0 |              18 |                 31575 |                 1299 |            3770802 |             0 |                0 |         1141788 |                     0 |        875398 | 2017-02-06 09:42:18.893067+01

 2017-02-06 11:11:43.775207+01 | 1486375903.77521 |                 0 |              18 |                 31575 |                 1299 |            3770802 |             0 |                0 |         1141788 |                     0 |        875549 | 2017-02-06 09:42:18.893067+01

 2017-02-06 11:11:44.855761+01 | 1486375904.85576 |                 0 |              18 |                 31575 |                 1299 |            3770802 |             0 |                0 |         1141788 |                     0 |        875770 | 2017-02-06 09:42:18.893067+01

 2017-02-06 11:11:45.934459+01 | 1486375905.93446 |                 0 |              18 |                 31575 |                 1299 |            3770802 |             0 |                0 |         1141788 |                     0 |        875876 | 2017-02-06 09:42:18.893067+01

 2017-02-06 11:11:47.011001+01 | 1486375907.011 |                 0 |              18 |                 31575 |                 1299 |            3770802 |             0 |                0 |         1141788 |                     0 |        876091 | 2017-02-06 09:42:18.893067+01

 2017-02-06 11:11:48.090233+01 | 1486375908.09023 |                 0 |              18 |                 31575 |                 1299 |            3770802 |             0 |                0 |         1141788 |                     0 |        876219 | 2017-02-06 09:42:18.893067+01

 2017-02-06 11:11:49.173347+01 | 1486375909.17335 |                 0 |              18 |                 31575 |                 1299 |            3770802 |             0 |                0 |         1141788 |                     0 |        876374 | 2017-02-06 09:42:18.893067+01

 2017-02-06 11:11:50.259433+01 | 1486375910.25943 |                 0 |              18 |                 31575 |                 1299 |            3770802 |             0 |                0 |         1141788 |                     0 |        876547 | 2017-02-06 09:42:18.893067+01

 2017-02-06 11:11:51.343776+01 | 1486375911.34378 |                 0 |              18 |                 31575 |                 1299 |            3770802 |             0 |                0 |         1141788 |                     0 |        876719 | 2017-02-06 09:42:18.893067+01

 2017-02-06 11:11:52.418636+01 | 1486375912.41864 |                 0 |              18 |                 31575 |                 1299 |            3770802 |             0 |                0 |         1141788 |                     0 |        876853 | 2017-02-06 09:42:18.893067+01

 2017-02-06 11:11:53.496218+01 | 1486375913.49622 |                 0 |              18 |                 31575 |                 1299 |            3770802 |             0 |                0 |         1141788 |                     0 |        877009 | 2017-02-06 09:42:18.893067+01

 2017-02-06 11:11:54.569503+01 | 1486375914.5695 |                 0 |              18 |                 31575 |                 1299 |            3770802 |             0 |                0 |         1141788 |                     0 |        877175 | 2017-02-06 09:42:18.893067+01

 2017-02-06 11:11:55.649388+01 | 1486375915.64939 |                 0 |              18 |                 31575 |                 1299 |            3770802 |             0 |                0 |         1141788 |                     0 |        877376 | 2017-02-06 09:42:18.893067+01

 2017-02-06 11:11:56.718242+01 | 1486375916.71824 |                 0 |              18 |                 31575 |                 1299 |            3770802 |             0 |                0 |         1141788 |                     0 |        877584 | 2017-02-06 09:42:18.893067+01

 2017-02-06 11:11:57.800953+01 | 1486375917.80095 |                 0 |              18 |                 31575 |                 1299 |            3770802 |             0 |                0 |         1141788 |                     0 |        877714 | 2017-02-06 09:42:18.893067+01

 2017-02-06 11:11:58.87824+01 | 1486375918.87824 |                 0 |              18 |                 31575 |                 1299 |            3770802 |             0 |                0 |         1141788 |                     0 |        877869 | 2017-02-06 09:42:18.893067+01

 2017-02-06 11:11:59.959518+01 | 1486375919.95952 |                 0 |              18 |                 31575 |                 1299 |            3770802 |             0 |                0 |         1141788 |                     0 |        877952 | 2017-02-06 09:42:18.893067+01

 2017-02-06 11:12:01.040703+01 | 1486375921.0407 |                 0 |              18 |                 31575 |                 1299 |            3770802 |             0 |                0 |         1141788 |                     0 |        878203 | 2017-02-06 09:42:18.893067+01

 2017-02-06 11:12:02.118691+01 | 1486375922.11869 |                 0 |              18 |                 31575 |                 1299 |            3770802 |             0 |                0 |         1141788 |                     0 |        878390 | 2017-02-06 09:42:18.893067+01

 2017-02-06 11:12:03.194785+01 | 1486375923.19479 |                 0 |              18 |                 31575 |                 1299 |            3770802 |             0 |                0 |         1141788 |                     0 |        878562 | 2017-02-06 09:42:18.893067+01

 2017-02-06 11:12:04.279746+01 | 1486375924.27975 |                 0 |              18 |                 31575 |                 1299 |            3770802 |             0 |                0 |         1141788 |                     0 |        878733 | 2017-02-06 09:42:18.893067+01

 2017-02-06 11:12:05.362291+01 | 1486375925.36229 |                 0 |              18 |                 31575 |                 1299 |            3770802 |             0 |                0 |         1141788 |                     0 |        878905 | 2017-02-06 09:42:18.893067+01

 2017-02-06 11:12:06.443433+01 | 1486375926.44343 |                 0 |              18 |                 31575 |                 1299 |            3770802 |             0 |                0 |         1141788 |                     0 |        879054 | 2017-02-06 09:42:18.893067+01

 2017-02-06 11:12:07.523739+01 | 1486375927.52374 |                 0 |              18 |                 31575 |                 1299 |            3770802 |             0 |                0 |         1141788 |                     0 |        879263 | 2017-02-06 09:42:18.893067+01

 2017-02-06 11:12:08.605711+01 | 1486375928.60571 |                 0 |              18 |                 31575 |                 1299 |            3770802 |             0 |                0 |         1141788 |                     0 |        879409 | 2017-02-06 09:42:18.893067+01

 2017-02-06 11:12:09.67154+01 | 1486375929.67154 |                 0 |              18 |                 31575 |                 1299 |            3770802 |             0 |                0 |         1141788 |                     0 |        879544 | 2017-02-06 09:42:18.893067+01

 2017-02-06 11:12:10.746822+01 | 1486375930.74682 |                 0 |              18 |                 31575 |                 1299 |            3770802 |             0 |                0 |         1141788 |                     0 |        879757 | 2017-02-06 09:42:18.893067+01

 2017-02-06 11:12:11.828988+01 | 1486375931.82899 |                 0 |              18 |                 31575 |                 1299 |            3770802 |             0 |                0 |         1141788 |                     0 |        879924 | 2017-02-06 09:42:18.893067+01

 2017-02-06 11:12:12.913883+01 | 1486375932.91388 |                 0 |              18 |                 31575 |                 1299 |            3770802 |             0 |                0 |         1141788 |                     0 |        880065 | 2017-02-06 09:42:18.893067+01

 2017-02-06 11:12:13.99601+01 | 1486375933.99601 |                 0 |              18 |                 31575 |                 1299 |            3770802 |             0 |                0 |         1141788 |                     0 |        880211 | 2017-02-06 09:42:18.893067+01

 2017-02-06 11:12:15.077201+01 | 1486375935.0772 |                 0 |              18 |                 31575 |                 1299 |            3770802 |             0 |                0 |         1141788 |                     0 |        880360 | 2017-02-06 09:42:18.893067+01

 2017-02-06 11:12:16.157793+01 | 1486375936.15779 |                 0 |              18 |                 31575 |                 1299 |            3770802 |             0 |                0 |         1141788 |                     0 |        880557 | 2017-02-06 09:42:18.893067+01

 2017-02-06 11:12:17.233246+01 | 1486375937.23325 |                 0 |              18 |                 31575 |                 1299 |            3770802 |             0 |                0 |         1141788 |                     0 |        880711 | 2017-02-06 09:42:18.893067+01

 2017-02-06 11:12:18.306695+01 | 1486375938.30669 |                 0 |              18 |                 31575 |                 1299 |            3770802 |             0 |                0 |         1141788 |                     0 |        880885 | 2017-02-06 09:42:18.893067+01

 2017-02-06 11:12:19.383087+01 | 1486375939.38309 |                 0 |              18 |                 31575 |                 1299 |            3770802 |             0 |                0 |         1141788 |                     0 |        881035 | 2017-02-06 09:42:18.893067+01

 2017-02-06 11:12:20.462404+01 | 1486375940.4624 |                 0 |              18 |                 31575 |                 1299 |            3770802 |             0 |                0 |         1141788 |                     0 |        881274 | 2017-02-06 09:42:18.893067+01

 2017-02-06 11:12:21.536776+01 | 1486375941.53678 |                 0 |              18 |                 31575 |                 1299 |            3770802 |             0 |                0 |         1141788 |                     0 |        881425 | 2017-02-06 09:42:18.893067+01

 2017-02-06 11:12:22.617764+01 | 1486375942.61776 |                 0 |              18 |                 31575 |                 1299 |            3770802 |             0 |                0 |         1141788 |                     0 |        881528 | 2017-02-06 09:42:18.893067+01

 2017-02-06 11:12:23.694038+01 | 1486375943.69404 |                 0 |              18 |                 31575 |                 1299 |            3770802 |             0 |                0 |         1141788 |                     0 |        881900 | 2017-02-06 09:42:18.893067+01

 2017-02-06 11:12:24.776222+01 | 1486375944.77622 |                 0 |              18 |                 31575 |                 1299 |            3770802 |             0 |                0 |         1141788 |                     0 |        881901 | 2017-02-06 09:42:18.893067+01

 2017-02-06 11:12:25.851984+01 | 1486375945.85198 |                 0 |              18 |                 31575 |                 1299 |            3770802 |             0 |                0 |         1141788 |                     0 |        882112 | 2017-02-06 09:42:18.893067+01

 2017-02-06 11:12:26.928506+01 | 1486375946.92851 |                 0 |              18 |                 31575 |                 1299 |            3770802 |             0 |                0 |         1141788 |                     0 |        882221 | 2017-02-06 09:42:18.893067+01

 2017-02-06 11:12:28.013884+01 | 1486375948.01388 |                 0 |              18 |                 31575 |                 1299 |            3770802 |             0 |                0 |         1141788 |                     0 |        882396 | 2017-02-06 09:42:18.893067+01

 2017-02-06 11:12:29.092742+01 | 1486375949.09274 |                 0 |              18 |                 31575 |                 1299 |            3770802 |             0 |                0 |         1141788 |                     0 |        882544 | 2017-02-06 09:42:18.893067+01

 2017-02-06 11:12:30.169114+01 | 1486375950.16911 |                 0 |              18 |                 31575 |                 1299 |            3770802 |             0 |                0 |         1141788 |                     0 |        882737 | 2017-02-06 09:42:18.893067+01

 2017-02-06 11:12:31.24318+01 | 1486375951.24318 |                 0 |              18 |                 31575 |                 1299 |            3770802 |             0 |                0 |         1141788 |                     0 |        882884 | 2017-02-06 09:42:18.893067+01

 2017-02-06 11:12:32.322699+01 | 1486375952.3227 |                 0 |              18 |                 31575 |                 1299 |            3770802 |             0 |                0 |         1141788 |                     0 |        883076 | 2017-02-06 09:42:18.893067+01

 2017-02-06 11:12:33.40209+01 | 1486375953.40209 |                 0 |              18 |                 31575 |                 1299 |            3770802 |             0 |                0 |         1141788 |                     0 |        883189 | 2017-02-06 09:42:18.893067+01

 2017-02-06 11:12:34.479015+01 | 1486375954.47902 |                 0 |              18 |                 31575 |                 1299 |            3770802 |             0 |                0 |         1141788 |                     0 |        883388 | 2017-02-06 09:42:18.893067+01

 2017-02-06 11:12:35.550416+01 | 1486375955.55042 |                 0 |              18 |                 31575 |                 1299 |            3770802 |             0 |                0 |         1141788 |                     0 |        883537 | 2017-02-06 09:42:18.893067+01

 2017-02-06 11:12:36.630025+01 | 1486375956.63002 |                 0 |              18 |                 31575 |                 1299 |            3770802 |             0 |                0 |         1141788 |                     0 |        883728 | 2017-02-06 09:42:18.893067+01

 2017-02-06 11:12:37.711545+01 | 1486375957.71154 |                 0 |              18 |                 31575 |                 1299 |            3770802 |             0 |                0 |         1141788 |                     0 |        883857 | 2017-02-06 09:42:18.893067+01

 2017-02-06 11:12:38.802234+01 | 1486375958.80223 |                 0 |              18 |                 31575 |                 1299 |            3770802 |             0 |                0 |         1141788 |                     0 |        883987 | 2017-02-06 09:42:18.893067+01

 2017-02-06 11:12:39.876676+01 | 1486375959.87668 |                 0 |              18 |                 31575 |                 1299 |            3770802 |             0 |                0 |         1141788 |                     0 |        884228 | 2017-02-06 09:42:18.893067+01

 2017-02-06 11:12:40.961242+01 | 1486375960.96124 |                 0 |              18 |                 31575 |                 1299 |            3770802 |             0 |                0 |         1141788 |                     0 |        884383 | 2017-02-06 09:42:18.893067+01

 2017-02-06 11:12:42.059038+01 | 1486375962.05904 |                 0 |              18 |                 31575 |                 1299 |            3770802 |             0 |                0 |         1141788 |                     0 |        884526 | 2017-02-06 09:42:18.893067+01

 2017-02-06 11:12:43.135492+01 | 1486375963.13549 |                 0 |              18 |                 31575 |                 1299 |            3770802 |             0 |                0 |         1141788 |                     0 |        884756 | 2017-02-06 09:42:18.893067+01

 2017-02-06 11:12:44.219526+01 | 1486375964.21953 |                 0 |              18 |                 31575 |                 1299 |            3770802 |             0 |                0 |         1141788 |                     0 |        884873 | 2017-02-06 09:42:18.893067+01

 2017-02-06 11:12:45.298624+01 | 1486375965.29862 |                 0 |              18 |                 31575 |                 1299 |            3770802 |             0 |                0 |         1141788 |                     0 |        885048 | 2017-02-06 09:42:18.893067+01

 2017-02-06 11:12:46.375826+01 | 1486375966.37583 |                 0 |              18 |                 31575 |                 1299 |            3770802 |             0 |                0 |         1141788 |                     0 |        885257 | 2017-02-06 09:42:18.893067+01

 2017-02-06 11:12:47.450125+01 | 1486375967.45012 |                 0 |              18 |                 31575 |                 1299 |            3770802 |             0 |                0 |         1141788 |                     0 |        885386 | 2017-02-06 09:42:18.893067+01

 2017-02-06 11:12:48.525315+01 | 1486375968.52532 |                 0 |              18 |                 31575 |                 1299 |            3770802 |             0 |                0 |         1141788 |                     0 |        885538 | 2017-02-06 09:42:18.893067+01

 2017-02-06 11:12:49.60307+01 | 1486375969.60307 |                 0 |              18 |                 31575 |                 1299 |            3770802 |             0 |                0 |         1141788 |                     0 |        885707 | 2017-02-06 09:42:18.893067+01

 2017-02-06 11:12:50.688396+01 | 1486375970.6884 |                 0 |              18 |                 31575 |                 1299 |            3770802 |             0 |                0 |         1141788 |                     0 |        885858 | 2017-02-06 09:42:18.893067+01

 2017-02-06 11:12:51.75634+01 | 1486375971.75634 |                 0 |              18 |                 31575 |                 1299 |            3770802 |             0 |                0 |         1141788 |                     0 |        886044 | 2017-02-06 09:42:18.893067+01

 2017-02-06 11:12:52.838456+01 | 1486375972.83846 |                 0 |              18 |                 31575 |                 1299 |            3770802 |             0 |                0 |         1141788 |                     0 |        886150 | 2017-02-06 09:42:18.893067+01

 2017-02-06 11:12:53.920984+01 | 1486375973.92098 |                 0 |              18 |                 31575 |                 1299 |            3770802 |             0 |                0 |         1141788 |                     0 |        886379 | 2017-02-06 09:42:18.893067+01

 2017-02-06 11:12:55.005052+01 | 1486375975.00505 |                 0 |              18 |                 31575 |                 1299 |            3770802 |             0 |                0 |         1141788 |                     0 |        886581 | 2017-02-06 09:42:18.893067+01

 2017-02-06 11:12:56.080559+01 | 1486375976.08056 |                 0 |              18 |                 31575 |                 1299 |            3770802 |             0 |                0 |         1141788 |                     0 |        886754 | 2017-02-06 09:42:18.893067+01

 2017-02-06 11:12:57.165179+01 | 1486375977.16518 |                 0 |              18 |                 31575 |                 1299 |            3770802 |             0 |                0 |         1141788 |                     0 |        886871 | 2017-02-06 09:42:18.893067+01

 2017-02-06 11:12:58.249176+01 | 1486375978.24918 |                 0 |              18 |                 31575 |                 1299 |            3770802 |             0 |                0 |         1141788 |                     0 |        887049 | 2017-02-06 09:42:18.893067+01

 2017-02-06 11:12:59.326743+01 | 1486375979.32674 |                 0 |              18 |                 31575 |                 1299 |            3770802 |             0 |                0 |         1141788 |                     0 |        887205 | 2017-02-06 09:42:18.893067+01

 2017-02-06 11:13:00.404399+01 | 1486375980.4044 |                 0 |              18 |                 31575 |                 1299 |            3770802 |             0 |                0 |         1141788 |                     0 |        887379 | 2017-02-06 09:42:18.893067+01

 2017-02-06 11:13:01.47902+01 | 1486375981.47902 |                 0 |              18 |                 31575 |                 1299 |            3770802 |             0 |                0 |         1141788 |                     0 |        887592 | 2017-02-06 09:42:18.893067+01

 2017-02-06 11:13:02.55449+01 | 1486375982.55449 |                 0 |              18 |                 31575 |                 1299 |            3770802 |             0 |                0 |         1141788 |                     0 |        887719 | 2017-02-06 09:42:18.893067+01

 2017-02-06 11:13:03.632956+01 | 1486375983.63296 |                 0 |              18 |                 31575 |                 1299 |            3770802 |             0 |                0 |         1141788 |                     0 |        887888 | 2017-02-06 09:42:18.893067+01

 2017-02-06 11:13:04.710388+01 | 1486375984.71039 |                 0 |              18 |                 31575 |                 1299 |            3770802 |             0 |                0 |         1141788 |                     0 |        888014 | 2017-02-06 09:42:18.893067+01

 2017-02-06 11:13:05.795854+01 | 1486375985.79585 |                 0 |              18 |                 31575 |                 1299 |            3770802 |             0 |                0 |         1141788 |                     0 |        888187 | 2017-02-06 09:42:18.893067+01

 2017-02-06 11:13:06.876965+01 | 1486375986.87697 |                 0 |              18 |                 31575 |                 1299 |            3770802 |             0 |                0 |         1141788 |                     0 |        888312 | 2017-02-06 09:42:18.893067+01

 2017-02-06 11:13:07.953493+01 | 1486375987.95349 |                 0 |              18 |                 31575 |                 1299 |            3770802 |             0 |                0 |         1141788 |                     0 |        888523 | 2017-02-06 09:42:18.893067+01

 2017-02-06 11:13:09.034622+01 | 1486375989.03462 |                 0 |              18 |                 31575 |                 1299 |            3770802 |             0 |                0 |         1141788 |                     0 |        888753 | 2017-02-06 09:42:18.893067+01

 2017-02-06 11:13:10.118353+01 | 1486375990.11835 |                 0 |              18 |                 31575 |                 1299 |            3770802 |             0 |                0 |         1141788 |                     0 |        888939 | 2017-02-06 09:42:18.893067+01

 2017-02-06 11:13:11.199748+01 | 1486375991.19975 |                 0 |              18 |                 31575 |                 1299 |            3770802 |             0 |                0 |         1141788 |                     0 |        888982 | 2017-02-06 09:42:18.893067+01

 2017-02-06 11:13:12.277335+01 | 1486375992.27733 |                 0 |              18 |                 31575 |                 1299 |            3770802 |             0 |                0 |         1141788 |                     0 |        889188 | 2017-02-06 09:42:18.893067+01

 2017-02-06 11:13:13.359031+01 | 1486375993.35903 |                 0 |              18 |                 31575 |                 1299 |            3770802 |             0 |                0 |         1141788 |                     0 |        889272 | 2017-02-06 09:42:18.893067+01

 2017-02-06 11:13:14.434012+01 | 1486375994.43401 |                 0 |              18 |                 31575 |                 1299 |            3770802 |             0 |                0 |         1141788 |                     0 |        889442 | 2017-02-06 09:42:18.893067+01

 2017-02-06 11:13:15.508668+01 | 1486375995.50867 |                 0 |              18 |                 31575 |                 1299 |            3770802 |             0 |                0 |         1141788 |                     0 |        889633 | 2017-02-06 09:42:18.893067+01

 2017-02-06 11:13:16.587652+01 | 1486375996.58765 |                 0 |              18 |                 31575 |                 1299 |            3770802 |             0 |                0 |         1141788 |                     0 |        889831 | 2017-02-06 09:42:18.893067+01

 2017-02-06 11:13:17.661979+01 | 1486375997.66198 |                 0 |              18 |                 31575 |                 1299 |            3770802 |             0 |                0 |         1141788 |                     0 |        889937 | 2017-02-06 09:42:18.893067+01

 2017-02-06 11:13:18.743509+01 | 1486375998.74351 |                 0 |              18 |                 31575 |                 1299 |            3770802 |             0 |                0 |         1141788 |                     0 |        890194 | 2017-02-06 09:42:18.893067+01

 2017-02-06 11:13:19.823334+01 | 1486375999.82333 |                 0 |              18 |                 31575 |                 1299 |            3770802 |             0 |                0 |         1141788 |                     0 |        890364 | 2017-02-06 09:42:18.893067+01

 2017-02-06 11:13:20.90576+01 | 1486376000.90576 |                 0 |              18 |                 31575 |                 1299 |            3770802 |             0 |                0 |         1141788 |                     0 |        890491 | 2017-02-06 09:42:18.893067+01

 2017-02-06 11:13:21.990489+01 | 1486376001.99049 |                 0 |              18 |                 31575 |                 1299 |            3770802 |             0 |                0 |         1141788 |                     0 |        890621 | 2017-02-06 09:42:18.893067+01

 2017-02-06 11:13:23.069128+01 | 1486376003.06913 |                 0 |              18 |                 31575 |                 1299 |            3770802 |             0 |                0 |         1141788 |                     0 |        890842 | 2017-02-06 09:42:18.893067+01

