 2017-02-05 09:34:26.800707+01 | 1486283666.80071 | pgbench_branches_pkey |            40960
 2017-02-05 09:34:26.800707+01 | 1486283666.80071 | pgbench_tellers_pkey  |           245760
 2017-02-05 09:34:26.800707+01 | 1486283666.80071 | pgbench_accounts_pkey |       2246197248

 2017-02-05 09:34:27.887362+01 | 1486283667.88736 | pgbench_branches_pkey |            40960
 2017-02-05 09:34:27.887362+01 | 1486283667.88736 | pgbench_tellers_pkey  |           245760
 2017-02-05 09:34:27.887362+01 | 1486283667.88736 | pgbench_accounts_pkey |       2246197248

 2017-02-05 09:34:28.974596+01 | 1486283668.9746 | pgbench_branches_pkey |            40960
 2017-02-05 09:34:28.974596+01 | 1486283668.9746 | pgbench_tellers_pkey  |           245760
 2017-02-05 09:34:28.974596+01 | 1486283668.9746 | pgbench_accounts_pkey |       2246197248

 2017-02-05 09:34:30.06322+01 | 1486283670.06322 | pgbench_branches_pkey |            40960
 2017-02-05 09:34:30.06322+01 | 1486283670.06322 | pgbench_tellers_pkey  |           245760
 2017-02-05 09:34:30.06322+01 | 1486283670.06322 | pgbench_accounts_pkey |       2246197248

 2017-02-05 09:34:31.147255+01 | 1486283671.14725 | pgbench_branches_pkey |            40960
 2017-02-05 09:34:31.147255+01 | 1486283671.14725 | pgbench_tellers_pkey  |           245760
 2017-02-05 09:34:31.147255+01 | 1486283671.14725 | pgbench_accounts_pkey |       2246197248

 2017-02-05 09:34:32.228939+01 | 1486283672.22894 | pgbench_branches_pkey |            40960
 2017-02-05 09:34:32.228939+01 | 1486283672.22894 | pgbench_tellers_pkey  |           245760
 2017-02-05 09:34:32.228939+01 | 1486283672.22894 | pgbench_accounts_pkey |       2246197248

 2017-02-05 09:34:33.306756+01 | 1486283673.30676 | pgbench_branches_pkey |            40960
 2017-02-05 09:34:33.306756+01 | 1486283673.30676 | pgbench_tellers_pkey  |           245760
 2017-02-05 09:34:33.306756+01 | 1486283673.30676 | pgbench_accounts_pkey |       2246197248

 2017-02-05 09:34:34.388384+01 | 1486283674.38838 | pgbench_branches_pkey |            40960
 2017-02-05 09:34:34.388384+01 | 1486283674.38838 | pgbench_tellers_pkey  |           245760
 2017-02-05 09:34:34.388384+01 | 1486283674.38838 | pgbench_accounts_pkey |       2246197248

 2017-02-05 09:34:35.469299+01 | 1486283675.4693 | pgbench_branches_pkey |            40960
 2017-02-05 09:34:35.469299+01 | 1486283675.4693 | pgbench_tellers_pkey  |           245760
 2017-02-05 09:34:35.469299+01 | 1486283675.4693 | pgbench_accounts_pkey |       2246197248

 2017-02-05 09:34:36.555986+01 | 1486283676.55599 | pgbench_branches_pkey |            40960
 2017-02-05 09:34:36.555986+01 | 1486283676.55599 | pgbench_tellers_pkey  |           245760
 2017-02-05 09:34:36.555986+01 | 1486283676.55599 | pgbench_accounts_pkey |       2246197248

 2017-02-05 09:34:37.636364+01 | 1486283677.63636 | pgbench_branches_pkey |            40960
 2017-02-05 09:34:37.636364+01 | 1486283677.63636 | pgbench_tellers_pkey  |           245760
 2017-02-05 09:34:37.636364+01 | 1486283677.63636 | pgbench_accounts_pkey |       2246197248

 2017-02-05 09:34:38.712538+01 | 1486283678.71254 | pgbench_branches_pkey |            40960
 2017-02-05 09:34:38.712538+01 | 1486283678.71254 | pgbench_tellers_pkey  |           245760
 2017-02-05 09:34:38.712538+01 | 1486283678.71254 | pgbench_accounts_pkey |       2246197248

 2017-02-05 09:34:39.792366+01 | 1486283679.79237 | pgbench_branches_pkey |            40960
 2017-02-05 09:34:39.792366+01 | 1486283679.79237 | pgbench_tellers_pkey  |           245760
 2017-02-05 09:34:39.792366+01 | 1486283679.79237 | pgbench_accounts_pkey |       2246197248

 2017-02-05 09:34:40.876514+01 | 1486283680.87651 | pgbench_branches_pkey |            40960
 2017-02-05 09:34:40.876514+01 | 1486283680.87651 | pgbench_tellers_pkey  |           245760
 2017-02-05 09:34:40.876514+01 | 1486283680.87651 | pgbench_accounts_pkey |       2246197248

 2017-02-05 09:34:41.968726+01 | 1486283681.96873 | pgbench_branches_pkey |            40960
 2017-02-05 09:34:41.968726+01 | 1486283681.96873 | pgbench_tellers_pkey  |           245760
 2017-02-05 09:34:41.968726+01 | 1486283681.96873 | pgbench_accounts_pkey |       2246197248

 2017-02-05 09:34:43.051591+01 | 1486283683.05159 | pgbench_branches_pkey |            40960
 2017-02-05 09:34:43.051591+01 | 1486283683.05159 | pgbench_tellers_pkey  |           245760
 2017-02-05 09:34:43.051591+01 | 1486283683.05159 | pgbench_accounts_pkey |       2246197248

 2017-02-05 09:34:44.133731+01 | 1486283684.13373 | pgbench_branches_pkey |            40960
 2017-02-05 09:34:44.133731+01 | 1486283684.13373 | pgbench_tellers_pkey  |           245760
 2017-02-05 09:34:44.133731+01 | 1486283684.13373 | pgbench_accounts_pkey |       2246197248

 2017-02-05 09:34:45.224443+01 | 1486283685.22444 | pgbench_branches_pkey |            40960
 2017-02-05 09:34:45.224443+01 | 1486283685.22444 | pgbench_tellers_pkey  |           245760
 2017-02-05 09:34:45.224443+01 | 1486283685.22444 | pgbench_accounts_pkey |       2246197248

 2017-02-05 09:34:46.298995+01 | 1486283686.299 | pgbench_branches_pkey |            40960
 2017-02-05 09:34:46.298995+01 | 1486283686.299 | pgbench_tellers_pkey  |           245760
 2017-02-05 09:34:46.298995+01 | 1486283686.299 | pgbench_accounts_pkey |       2246197248

 2017-02-05 09:34:47.36991+01 | 1486283687.36991 | pgbench_branches_pkey |            40960
 2017-02-05 09:34:47.36991+01 | 1486283687.36991 | pgbench_tellers_pkey  |           245760
 2017-02-05 09:34:47.36991+01 | 1486283687.36991 | pgbench_accounts_pkey |       2246197248

 2017-02-05 09:34:48.44653+01 | 1486283688.44653 | pgbench_branches_pkey |            40960
 2017-02-05 09:34:48.44653+01 | 1486283688.44653 | pgbench_tellers_pkey  |           245760
 2017-02-05 09:34:48.44653+01 | 1486283688.44653 | pgbench_accounts_pkey |       2246197248

 2017-02-05 09:34:49.528275+01 | 1486283689.52828 | pgbench_branches_pkey |            40960
 2017-02-05 09:34:49.528275+01 | 1486283689.52828 | pgbench_tellers_pkey  |           245760
 2017-02-05 09:34:49.528275+01 | 1486283689.52828 | pgbench_accounts_pkey |       2246197248

 2017-02-05 09:34:50.609261+01 | 1486283690.60926 | pgbench_branches_pkey |            40960
 2017-02-05 09:34:50.609261+01 | 1486283690.60926 | pgbench_tellers_pkey  |           245760
 2017-02-05 09:34:50.609261+01 | 1486283690.60926 | pgbench_accounts_pkey |       2246197248

 2017-02-05 09:34:51.686615+01 | 1486283691.68661 | pgbench_branches_pkey |            40960
 2017-02-05 09:34:51.686615+01 | 1486283691.68661 | pgbench_tellers_pkey  |           245760
 2017-02-05 09:34:51.686615+01 | 1486283691.68661 | pgbench_accounts_pkey |       2246197248

 2017-02-05 09:34:52.764778+01 | 1486283692.76478 | pgbench_branches_pkey |            40960
 2017-02-05 09:34:52.764778+01 | 1486283692.76478 | pgbench_tellers_pkey  |           245760
 2017-02-05 09:34:52.764778+01 | 1486283692.76478 | pgbench_accounts_pkey |       2246197248

 2017-02-05 09:34:53.840309+01 | 1486283693.84031 | pgbench_branches_pkey |            40960
 2017-02-05 09:34:53.840309+01 | 1486283693.84031 | pgbench_tellers_pkey  |           245760
 2017-02-05 09:34:53.840309+01 | 1486283693.84031 | pgbench_accounts_pkey |       2246197248

 2017-02-05 09:34:54.924205+01 | 1486283694.92421 | pgbench_branches_pkey |            40960
 2017-02-05 09:34:54.924205+01 | 1486283694.92421 | pgbench_tellers_pkey  |           245760
 2017-02-05 09:34:54.924205+01 | 1486283694.92421 | pgbench_accounts_pkey |       2246197248

 2017-02-05 09:34:56.005643+01 | 1486283696.00564 | pgbench_branches_pkey |            40960
 2017-02-05 09:34:56.005643+01 | 1486283696.00564 | pgbench_tellers_pkey  |           245760
 2017-02-05 09:34:56.005643+01 | 1486283696.00564 | pgbench_accounts_pkey |       2246197248

 2017-02-05 09:34:57.090683+01 | 1486283697.09068 | pgbench_branches_pkey |            40960
 2017-02-05 09:34:57.090683+01 | 1486283697.09068 | pgbench_tellers_pkey  |           245760
 2017-02-05 09:34:57.090683+01 | 1486283697.09068 | pgbench_accounts_pkey |       2246197248

 2017-02-05 09:34:58.166133+01 | 1486283698.16613 | pgbench_branches_pkey |            40960
 2017-02-05 09:34:58.166133+01 | 1486283698.16613 | pgbench_tellers_pkey  |           245760
 2017-02-05 09:34:58.166133+01 | 1486283698.16613 | pgbench_accounts_pkey |       2246197248

 2017-02-05 09:34:59.249973+01 | 1486283699.24997 | pgbench_branches_pkey |            40960
 2017-02-05 09:34:59.249973+01 | 1486283699.24997 | pgbench_tellers_pkey  |           245760
 2017-02-05 09:34:59.249973+01 | 1486283699.24997 | pgbench_accounts_pkey |       2246197248

 2017-02-05 09:35:00.327033+01 | 1486283700.32703 | pgbench_branches_pkey |            40960
 2017-02-05 09:35:00.327033+01 | 1486283700.32703 | pgbench_tellers_pkey  |           245760
 2017-02-05 09:35:00.327033+01 | 1486283700.32703 | pgbench_accounts_pkey |       2246197248

 2017-02-05 09:35:01.406913+01 | 1486283701.40691 | pgbench_branches_pkey |            40960
 2017-02-05 09:35:01.406913+01 | 1486283701.40691 | pgbench_tellers_pkey  |           245760
 2017-02-05 09:35:01.406913+01 | 1486283701.40691 | pgbench_accounts_pkey |       2246197248

 2017-02-05 09:35:02.484469+01 | 1486283702.48447 | pgbench_branches_pkey |            40960
 2017-02-05 09:35:02.484469+01 | 1486283702.48447 | pgbench_tellers_pkey  |           245760
 2017-02-05 09:35:02.484469+01 | 1486283702.48447 | pgbench_accounts_pkey |       2246197248

 2017-02-05 09:35:03.561588+01 | 1486283703.56159 | pgbench_branches_pkey |            40960
 2017-02-05 09:35:03.561588+01 | 1486283703.56159 | pgbench_tellers_pkey  |           245760
 2017-02-05 09:35:03.561588+01 | 1486283703.56159 | pgbench_accounts_pkey |       2246197248

 2017-02-05 09:35:04.627897+01 | 1486283704.6279 | pgbench_branches_pkey |            40960
 2017-02-05 09:35:04.627897+01 | 1486283704.6279 | pgbench_tellers_pkey  |           245760
 2017-02-05 09:35:04.627897+01 | 1486283704.6279 | pgbench_accounts_pkey |       2246197248

 2017-02-05 09:35:05.701699+01 | 1486283705.7017 | pgbench_branches_pkey |            40960
 2017-02-05 09:35:05.701699+01 | 1486283705.7017 | pgbench_tellers_pkey  |           245760
 2017-02-05 09:35:05.701699+01 | 1486283705.7017 | pgbench_accounts_pkey |       2246197248

 2017-02-05 09:35:06.785559+01 | 1486283706.78556 | pgbench_branches_pkey |            40960
 2017-02-05 09:35:06.785559+01 | 1486283706.78556 | pgbench_tellers_pkey  |           245760
 2017-02-05 09:35:06.785559+01 | 1486283706.78556 | pgbench_accounts_pkey |       2246197248

 2017-02-05 09:35:07.86857+01 | 1486283707.86857 | pgbench_branches_pkey |            40960
 2017-02-05 09:35:07.86857+01 | 1486283707.86857 | pgbench_tellers_pkey  |           245760
 2017-02-05 09:35:07.86857+01 | 1486283707.86857 | pgbench_accounts_pkey |       2246197248

 2017-02-05 09:35:08.953481+01 | 1486283708.95348 | pgbench_branches_pkey |            40960
 2017-02-05 09:35:08.953481+01 | 1486283708.95348 | pgbench_tellers_pkey  |           245760
 2017-02-05 09:35:08.953481+01 | 1486283708.95348 | pgbench_accounts_pkey |       2246197248

 2017-02-05 09:35:10.035564+01 | 1486283710.03556 | pgbench_branches_pkey |            40960
 2017-02-05 09:35:10.035564+01 | 1486283710.03556 | pgbench_tellers_pkey  |           245760
 2017-02-05 09:35:10.035564+01 | 1486283710.03556 | pgbench_accounts_pkey |       2246197248

 2017-02-05 09:35:11.109317+01 | 1486283711.10932 | pgbench_branches_pkey |            40960
 2017-02-05 09:35:11.109317+01 | 1486283711.10932 | pgbench_tellers_pkey  |           245760
 2017-02-05 09:35:11.109317+01 | 1486283711.10932 | pgbench_accounts_pkey |       2246197248

 2017-02-05 09:35:12.188758+01 | 1486283712.18876 | pgbench_branches_pkey |            40960
 2017-02-05 09:35:12.188758+01 | 1486283712.18876 | pgbench_tellers_pkey  |           245760
 2017-02-05 09:35:12.188758+01 | 1486283712.18876 | pgbench_accounts_pkey |       2246197248

 2017-02-05 09:35:13.270793+01 | 1486283713.27079 | pgbench_branches_pkey |            40960
 2017-02-05 09:35:13.270793+01 | 1486283713.27079 | pgbench_tellers_pkey  |           245760
 2017-02-05 09:35:13.270793+01 | 1486283713.27079 | pgbench_accounts_pkey |       2246197248

 2017-02-05 09:35:14.357681+01 | 1486283714.35768 | pgbench_branches_pkey |            40960
 2017-02-05 09:35:14.357681+01 | 1486283714.35768 | pgbench_tellers_pkey  |           245760
 2017-02-05 09:35:14.357681+01 | 1486283714.35768 | pgbench_accounts_pkey |       2246197248

 2017-02-05 09:35:15.43872+01 | 1486283715.43872 | pgbench_branches_pkey |            40960
 2017-02-05 09:35:15.43872+01 | 1486283715.43872 | pgbench_tellers_pkey  |           245760
 2017-02-05 09:35:15.43872+01 | 1486283715.43872 | pgbench_accounts_pkey |       2246197248

 2017-02-05 09:35:16.516329+01 | 1486283716.51633 | pgbench_branches_pkey |            40960
 2017-02-05 09:35:16.516329+01 | 1486283716.51633 | pgbench_tellers_pkey  |           245760
 2017-02-05 09:35:16.516329+01 | 1486283716.51633 | pgbench_accounts_pkey |       2246197248

 2017-02-05 09:35:17.584562+01 | 1486283717.58456 | pgbench_branches_pkey |            40960
 2017-02-05 09:35:17.584562+01 | 1486283717.58456 | pgbench_tellers_pkey  |           245760
 2017-02-05 09:35:17.584562+01 | 1486283717.58456 | pgbench_accounts_pkey |       2246197248

 2017-02-05 09:35:18.661003+01 | 1486283718.661 | pgbench_branches_pkey |            40960
 2017-02-05 09:35:18.661003+01 | 1486283718.661 | pgbench_tellers_pkey  |           245760
 2017-02-05 09:35:18.661003+01 | 1486283718.661 | pgbench_accounts_pkey |       2246197248

 2017-02-05 09:35:19.724657+01 | 1486283719.72466 | pgbench_branches_pkey |            40960
 2017-02-05 09:35:19.724657+01 | 1486283719.72466 | pgbench_tellers_pkey  |           245760
 2017-02-05 09:35:19.724657+01 | 1486283719.72466 | pgbench_accounts_pkey |       2246197248

 2017-02-05 09:35:20.803719+01 | 1486283720.80372 | pgbench_branches_pkey |            40960
 2017-02-05 09:35:20.803719+01 | 1486283720.80372 | pgbench_tellers_pkey  |           245760
 2017-02-05 09:35:20.803719+01 | 1486283720.80372 | pgbench_accounts_pkey |       2246197248

 2017-02-05 09:35:21.892108+01 | 1486283721.89211 | pgbench_branches_pkey |            40960
 2017-02-05 09:35:21.892108+01 | 1486283721.89211 | pgbench_tellers_pkey  |           245760
 2017-02-05 09:35:21.892108+01 | 1486283721.89211 | pgbench_accounts_pkey |       2246197248

 2017-02-05 09:35:22.974357+01 | 1486283722.97436 | pgbench_branches_pkey |            40960
 2017-02-05 09:35:22.974357+01 | 1486283722.97436 | pgbench_tellers_pkey  |           245760
 2017-02-05 09:35:22.974357+01 | 1486283722.97436 | pgbench_accounts_pkey |       2246197248

 2017-02-05 09:35:24.054577+01 | 1486283724.05458 | pgbench_branches_pkey |            40960
 2017-02-05 09:35:24.054577+01 | 1486283724.05458 | pgbench_tellers_pkey  |           245760
 2017-02-05 09:35:24.054577+01 | 1486283724.05458 | pgbench_accounts_pkey |       2246197248

 2017-02-05 09:35:25.138457+01 | 1486283725.13846 | pgbench_branches_pkey |            40960
 2017-02-05 09:35:25.138457+01 | 1486283725.13846 | pgbench_tellers_pkey  |           245760
 2017-02-05 09:35:25.138457+01 | 1486283725.13846 | pgbench_accounts_pkey |       2246197248

 2017-02-05 09:35:26.222645+01 | 1486283726.22265 | pgbench_branches_pkey |            40960
 2017-02-05 09:35:26.222645+01 | 1486283726.22265 | pgbench_tellers_pkey  |           245760
 2017-02-05 09:35:26.222645+01 | 1486283726.22265 | pgbench_accounts_pkey |       2246197248

 2017-02-05 09:35:27.287825+01 | 1486283727.28783 | pgbench_branches_pkey |            40960
 2017-02-05 09:35:27.287825+01 | 1486283727.28783 | pgbench_tellers_pkey  |           245760
 2017-02-05 09:35:27.287825+01 | 1486283727.28783 | pgbench_accounts_pkey |       2246197248

 2017-02-05 09:35:28.362523+01 | 1486283728.36252 | pgbench_branches_pkey |            40960
 2017-02-05 09:35:28.362523+01 | 1486283728.36252 | pgbench_tellers_pkey  |           245760
 2017-02-05 09:35:28.362523+01 | 1486283728.36252 | pgbench_accounts_pkey |       2246197248

 2017-02-05 09:35:29.441984+01 | 1486283729.44198 | pgbench_branches_pkey |            40960
 2017-02-05 09:35:29.441984+01 | 1486283729.44198 | pgbench_tellers_pkey  |           245760
 2017-02-05 09:35:29.441984+01 | 1486283729.44198 | pgbench_accounts_pkey |       2246197248

 2017-02-05 09:35:30.526967+01 | 1486283730.52697 | pgbench_branches_pkey |            40960
 2017-02-05 09:35:30.526967+01 | 1486283730.52697 | pgbench_tellers_pkey  |           245760
 2017-02-05 09:35:30.526967+01 | 1486283730.52697 | pgbench_accounts_pkey |       2246197248

 2017-02-05 09:35:31.603104+01 | 1486283731.6031 | pgbench_branches_pkey |            40960
 2017-02-05 09:35:31.603104+01 | 1486283731.6031 | pgbench_tellers_pkey  |           245760
 2017-02-05 09:35:31.603104+01 | 1486283731.6031 | pgbench_accounts_pkey |       2246197248

 2017-02-05 09:35:32.679928+01 | 1486283732.67993 | pgbench_branches_pkey |            40960
 2017-02-05 09:35:32.679928+01 | 1486283732.67993 | pgbench_tellers_pkey  |           245760
 2017-02-05 09:35:32.679928+01 | 1486283732.67993 | pgbench_accounts_pkey |       2246197248

 2017-02-05 09:35:33.75813+01 | 1486283733.75813 | pgbench_branches_pkey |            40960
 2017-02-05 09:35:33.75813+01 | 1486283733.75813 | pgbench_tellers_pkey  |           245760
 2017-02-05 09:35:33.75813+01 | 1486283733.75813 | pgbench_accounts_pkey |       2246197248

 2017-02-05 09:35:34.842785+01 | 1486283734.84278 | pgbench_branches_pkey |            40960
 2017-02-05 09:35:34.842785+01 | 1486283734.84278 | pgbench_tellers_pkey  |           245760
 2017-02-05 09:35:34.842785+01 | 1486283734.84278 | pgbench_accounts_pkey |       2246197248

 2017-02-05 09:35:35.926553+01 | 1486283735.92655 | pgbench_branches_pkey |            40960
 2017-02-05 09:35:35.926553+01 | 1486283735.92655 | pgbench_tellers_pkey  |           245760
 2017-02-05 09:35:35.926553+01 | 1486283735.92655 | pgbench_accounts_pkey |       2246197248

 2017-02-05 09:35:37.004566+01 | 1486283737.00457 | pgbench_branches_pkey |            40960
 2017-02-05 09:35:37.004566+01 | 1486283737.00457 | pgbench_tellers_pkey  |           245760
 2017-02-05 09:35:37.004566+01 | 1486283737.00457 | pgbench_accounts_pkey |       2246197248

 2017-02-05 09:35:38.074762+01 | 1486283738.07476 | pgbench_branches_pkey |            40960
 2017-02-05 09:35:38.074762+01 | 1486283738.07476 | pgbench_tellers_pkey  |           245760
 2017-02-05 09:35:38.074762+01 | 1486283738.07476 | pgbench_accounts_pkey |       2246197248

 2017-02-05 09:35:39.142605+01 | 1486283739.14261 | pgbench_branches_pkey |            40960
 2017-02-05 09:35:39.142605+01 | 1486283739.14261 | pgbench_tellers_pkey  |           245760
 2017-02-05 09:35:39.142605+01 | 1486283739.14261 | pgbench_accounts_pkey |       2246197248

 2017-02-05 09:35:40.225744+01 | 1486283740.22574 | pgbench_branches_pkey |            40960
 2017-02-05 09:35:40.225744+01 | 1486283740.22574 | pgbench_tellers_pkey  |           245760
 2017-02-05 09:35:40.225744+01 | 1486283740.22574 | pgbench_accounts_pkey |       2246197248

 2017-02-05 09:35:41.318374+01 | 1486283741.31837 | pgbench_branches_pkey |            40960
 2017-02-05 09:35:41.318374+01 | 1486283741.31837 | pgbench_tellers_pkey  |           245760
 2017-02-05 09:35:41.318374+01 | 1486283741.31837 | pgbench_accounts_pkey |       2246197248

 2017-02-05 09:35:42.404921+01 | 1486283742.40492 | pgbench_branches_pkey |            40960
 2017-02-05 09:35:42.404921+01 | 1486283742.40492 | pgbench_tellers_pkey  |           245760
 2017-02-05 09:35:42.404921+01 | 1486283742.40492 | pgbench_accounts_pkey |       2246197248

 2017-02-05 09:35:43.487566+01 | 1486283743.48757 | pgbench_branches_pkey |            40960
 2017-02-05 09:35:43.487566+01 | 1486283743.48757 | pgbench_tellers_pkey  |           245760
 2017-02-05 09:35:43.487566+01 | 1486283743.48757 | pgbench_accounts_pkey |       2246197248

 2017-02-05 09:35:44.564523+01 | 1486283744.56452 | pgbench_branches_pkey |            40960
 2017-02-05 09:35:44.564523+01 | 1486283744.56452 | pgbench_tellers_pkey  |           245760
 2017-02-05 09:35:44.564523+01 | 1486283744.56452 | pgbench_accounts_pkey |       2246197248

 2017-02-05 09:35:45.645505+01 | 1486283745.6455 | pgbench_branches_pkey |            40960
 2017-02-05 09:35:45.645505+01 | 1486283745.6455 | pgbench_tellers_pkey  |           245760
 2017-02-05 09:35:45.645505+01 | 1486283745.6455 | pgbench_accounts_pkey |       2246197248

 2017-02-05 09:35:46.730914+01 | 1486283746.73091 | pgbench_branches_pkey |            40960
 2017-02-05 09:35:46.730914+01 | 1486283746.73091 | pgbench_tellers_pkey  |           245760
 2017-02-05 09:35:46.730914+01 | 1486283746.73091 | pgbench_accounts_pkey |       2246197248

 2017-02-05 09:35:47.817632+01 | 1486283747.81763 | pgbench_branches_pkey |            40960
 2017-02-05 09:35:47.817632+01 | 1486283747.81763 | pgbench_tellers_pkey  |           245760
 2017-02-05 09:35:47.817632+01 | 1486283747.81763 | pgbench_accounts_pkey |       2246197248

 2017-02-05 09:35:48.901944+01 | 1486283748.90194 | pgbench_branches_pkey |            40960
 2017-02-05 09:35:48.901944+01 | 1486283748.90194 | pgbench_tellers_pkey  |           245760
 2017-02-05 09:35:48.901944+01 | 1486283748.90194 | pgbench_accounts_pkey |       2246197248

 2017-02-05 09:35:49.974481+01 | 1486283749.97448 | pgbench_branches_pkey |            40960
 2017-02-05 09:35:49.974481+01 | 1486283749.97448 | pgbench_tellers_pkey  |           245760
 2017-02-05 09:35:49.974481+01 | 1486283749.97448 | pgbench_accounts_pkey |       2246197248

 2017-02-05 09:35:51.050394+01 | 1486283751.05039 | pgbench_branches_pkey |            40960
 2017-02-05 09:35:51.050394+01 | 1486283751.05039 | pgbench_tellers_pkey  |           245760
 2017-02-05 09:35:51.050394+01 | 1486283751.05039 | pgbench_accounts_pkey |       2246197248

 2017-02-05 09:35:52.140809+01 | 1486283752.14081 | pgbench_branches_pkey |            40960
 2017-02-05 09:35:52.140809+01 | 1486283752.14081 | pgbench_tellers_pkey  |           245760
 2017-02-05 09:35:52.140809+01 | 1486283752.14081 | pgbench_accounts_pkey |       2246197248

 2017-02-05 09:35:53.227539+01 | 1486283753.22754 | pgbench_branches_pkey |            40960
 2017-02-05 09:35:53.227539+01 | 1486283753.22754 | pgbench_tellers_pkey  |           245760
 2017-02-05 09:35:53.227539+01 | 1486283753.22754 | pgbench_accounts_pkey |       2246197248

 2017-02-05 09:35:54.30795+01 | 1486283754.30795 | pgbench_branches_pkey |            40960
 2017-02-05 09:35:54.30795+01 | 1486283754.30795 | pgbench_tellers_pkey  |           245760
 2017-02-05 09:35:54.30795+01 | 1486283754.30795 | pgbench_accounts_pkey |       2246197248

 2017-02-05 09:35:55.390434+01 | 1486283755.39043 | pgbench_branches_pkey |            40960
 2017-02-05 09:35:55.390434+01 | 1486283755.39043 | pgbench_tellers_pkey  |           245760
 2017-02-05 09:35:55.390434+01 | 1486283755.39043 | pgbench_accounts_pkey |       2246197248

 2017-02-05 09:35:56.471263+01 | 1486283756.47126 | pgbench_branches_pkey |            40960
 2017-02-05 09:35:56.471263+01 | 1486283756.47126 | pgbench_tellers_pkey  |           245760
 2017-02-05 09:35:56.471263+01 | 1486283756.47126 | pgbench_accounts_pkey |       2246197248

 2017-02-05 09:35:57.551655+01 | 1486283757.55166 | pgbench_branches_pkey |            40960
 2017-02-05 09:35:57.551655+01 | 1486283757.55166 | pgbench_tellers_pkey  |           245760
 2017-02-05 09:35:57.551655+01 | 1486283757.55166 | pgbench_accounts_pkey |       2246197248

 2017-02-05 09:35:58.640861+01 | 1486283758.64086 | pgbench_branches_pkey |            40960
 2017-02-05 09:35:58.640861+01 | 1486283758.64086 | pgbench_tellers_pkey  |           245760
 2017-02-05 09:35:58.640861+01 | 1486283758.64086 | pgbench_accounts_pkey |       2246197248

 2017-02-05 09:35:59.727269+01 | 1486283759.72727 | pgbench_branches_pkey |            40960
 2017-02-05 09:35:59.727269+01 | 1486283759.72727 | pgbench_tellers_pkey  |           245760
 2017-02-05 09:35:59.727269+01 | 1486283759.72727 | pgbench_accounts_pkey |       2246197248

 2017-02-05 09:36:00.808821+01 | 1486283760.80882 | pgbench_branches_pkey |            40960
 2017-02-05 09:36:00.808821+01 | 1486283760.80882 | pgbench_tellers_pkey  |           245760
 2017-02-05 09:36:00.808821+01 | 1486283760.80882 | pgbench_accounts_pkey |       2246197248

 2017-02-05 09:36:01.891045+01 | 1486283761.89105 | pgbench_branches_pkey |            40960
 2017-02-05 09:36:01.891045+01 | 1486283761.89105 | pgbench_tellers_pkey  |           245760
 2017-02-05 09:36:01.891045+01 | 1486283761.89105 | pgbench_accounts_pkey |       2246197248

 2017-02-05 09:36:02.982446+01 | 1486283762.98245 | pgbench_branches_pkey |            40960
 2017-02-05 09:36:02.982446+01 | 1486283762.98245 | pgbench_tellers_pkey  |           245760
 2017-02-05 09:36:02.982446+01 | 1486283762.98245 | pgbench_accounts_pkey |       2246197248

 2017-02-05 09:36:04.070426+01 | 1486283764.07043 | pgbench_branches_pkey |            40960
 2017-02-05 09:36:04.070426+01 | 1486283764.07043 | pgbench_tellers_pkey  |           245760
 2017-02-05 09:36:04.070426+01 | 1486283764.07043 | pgbench_accounts_pkey |       2246197248

 2017-02-05 09:36:05.158627+01 | 1486283765.15863 | pgbench_branches_pkey |            40960
 2017-02-05 09:36:05.158627+01 | 1486283765.15863 | pgbench_tellers_pkey  |           245760
 2017-02-05 09:36:05.158627+01 | 1486283765.15863 | pgbench_accounts_pkey |       2246197248

 2017-02-05 09:36:06.229292+01 | 1486283766.22929 | pgbench_branches_pkey |            40960
 2017-02-05 09:36:06.229292+01 | 1486283766.22929 | pgbench_tellers_pkey  |           245760
 2017-02-05 09:36:06.229292+01 | 1486283766.22929 | pgbench_accounts_pkey |       2246197248

 2017-02-05 09:36:07.316586+01 | 1486283767.31659 | pgbench_branches_pkey |            40960
 2017-02-05 09:36:07.316586+01 | 1486283767.31659 | pgbench_tellers_pkey  |           245760
 2017-02-05 09:36:07.316586+01 | 1486283767.31659 | pgbench_accounts_pkey |       2246197248

 2017-02-05 09:36:08.399413+01 | 1486283768.39941 | pgbench_branches_pkey |            40960
 2017-02-05 09:36:08.399413+01 | 1486283768.39941 | pgbench_tellers_pkey  |           245760
 2017-02-05 09:36:08.399413+01 | 1486283768.39941 | pgbench_accounts_pkey |       2246197248

 2017-02-05 09:36:09.484075+01 | 1486283769.48408 | pgbench_branches_pkey |            40960
 2017-02-05 09:36:09.484075+01 | 1486283769.48408 | pgbench_tellers_pkey  |           245760
 2017-02-05 09:36:09.484075+01 | 1486283769.48408 | pgbench_accounts_pkey |       2246197248

 2017-02-05 09:36:10.560031+01 | 1486283770.56003 | pgbench_branches_pkey |            40960
 2017-02-05 09:36:10.560031+01 | 1486283770.56003 | pgbench_tellers_pkey  |           245760
 2017-02-05 09:36:10.560031+01 | 1486283770.56003 | pgbench_accounts_pkey |       2246197248

 2017-02-05 09:36:11.650994+01 | 1486283771.65099 | pgbench_branches_pkey |            40960
 2017-02-05 09:36:11.650994+01 | 1486283771.65099 | pgbench_tellers_pkey  |           245760
 2017-02-05 09:36:11.650994+01 | 1486283771.65099 | pgbench_accounts_pkey |       2246197248

 2017-02-05 09:36:12.734334+01 | 1486283772.73433 | pgbench_branches_pkey |            40960
 2017-02-05 09:36:12.734334+01 | 1486283772.73433 | pgbench_tellers_pkey  |           245760
 2017-02-05 09:36:12.734334+01 | 1486283772.73433 | pgbench_accounts_pkey |       2246197248

 2017-02-05 09:36:13.811236+01 | 1486283773.81124 | pgbench_branches_pkey |            40960
 2017-02-05 09:36:13.811236+01 | 1486283773.81124 | pgbench_tellers_pkey  |           245760
 2017-02-05 09:36:13.811236+01 | 1486283773.81124 | pgbench_accounts_pkey |       2246197248

 2017-02-05 09:36:14.894465+01 | 1486283774.89446 | pgbench_branches_pkey |            40960
 2017-02-05 09:36:14.894465+01 | 1486283774.89446 | pgbench_tellers_pkey  |           245760
 2017-02-05 09:36:14.894465+01 | 1486283774.89446 | pgbench_accounts_pkey |       2246197248

 2017-02-05 09:36:15.976531+01 | 1486283775.97653 | pgbench_branches_pkey |            40960
 2017-02-05 09:36:15.976531+01 | 1486283775.97653 | pgbench_tellers_pkey  |           245760
 2017-02-05 09:36:15.976531+01 | 1486283775.97653 | pgbench_accounts_pkey |       2246197248

 2017-02-05 09:36:17.051862+01 | 1486283777.05186 | pgbench_branches_pkey |            40960
 2017-02-05 09:36:17.051862+01 | 1486283777.05186 | pgbench_tellers_pkey  |           245760
 2017-02-05 09:36:17.051862+01 | 1486283777.05186 | pgbench_accounts_pkey |       2246197248

 2017-02-05 09:36:18.141573+01 | 1486283778.14157 | pgbench_branches_pkey |            40960
 2017-02-05 09:36:18.141573+01 | 1486283778.14157 | pgbench_tellers_pkey  |           245760
 2017-02-05 09:36:18.141573+01 | 1486283778.14157 | pgbench_accounts_pkey |       2246197248

 2017-02-05 09:36:19.230068+01 | 1486283779.23007 | pgbench_branches_pkey |            40960
 2017-02-05 09:36:19.230068+01 | 1486283779.23007 | pgbench_tellers_pkey  |           245760
 2017-02-05 09:36:19.230068+01 | 1486283779.23007 | pgbench_accounts_pkey |       2246197248

 2017-02-05 09:36:20.301457+01 | 1486283780.30146 | pgbench_branches_pkey |            40960
 2017-02-05 09:36:20.301457+01 | 1486283780.30146 | pgbench_tellers_pkey  |           245760
 2017-02-05 09:36:20.301457+01 | 1486283780.30146 | pgbench_accounts_pkey |       2246197248

 2017-02-05 09:36:21.374582+01 | 1486283781.37458 | pgbench_branches_pkey |            40960
 2017-02-05 09:36:21.374582+01 | 1486283781.37458 | pgbench_tellers_pkey  |           245760
 2017-02-05 09:36:21.374582+01 | 1486283781.37458 | pgbench_accounts_pkey |       2246197248

 2017-02-05 09:36:22.451905+01 | 1486283782.45191 | pgbench_branches_pkey |            40960
 2017-02-05 09:36:22.451905+01 | 1486283782.45191 | pgbench_tellers_pkey  |           245760
 2017-02-05 09:36:22.451905+01 | 1486283782.45191 | pgbench_accounts_pkey |       2246197248

 2017-02-05 09:36:23.528772+01 | 1486283783.52877 | pgbench_branches_pkey |            40960
 2017-02-05 09:36:23.528772+01 | 1486283783.52877 | pgbench_tellers_pkey  |           245760
 2017-02-05 09:36:23.528772+01 | 1486283783.52877 | pgbench_accounts_pkey |       2246197248

 2017-02-05 09:36:24.602025+01 | 1486283784.60203 | pgbench_branches_pkey |            40960
 2017-02-05 09:36:24.602025+01 | 1486283784.60203 | pgbench_tellers_pkey  |           245760
 2017-02-05 09:36:24.602025+01 | 1486283784.60203 | pgbench_accounts_pkey |       2246197248

 2017-02-05 09:36:25.685985+01 | 1486283785.68599 | pgbench_branches_pkey |            40960
 2017-02-05 09:36:25.685985+01 | 1486283785.68599 | pgbench_tellers_pkey  |           245760
 2017-02-05 09:36:25.685985+01 | 1486283785.68599 | pgbench_accounts_pkey |       2246197248

 2017-02-05 09:36:26.765024+01 | 1486283786.76502 | pgbench_branches_pkey |            40960
 2017-02-05 09:36:26.765024+01 | 1486283786.76502 | pgbench_tellers_pkey  |           245760
 2017-02-05 09:36:26.765024+01 | 1486283786.76502 | pgbench_accounts_pkey |       2246197248

 2017-02-05 09:36:27.841087+01 | 1486283787.84109 | pgbench_branches_pkey |            40960
 2017-02-05 09:36:27.841087+01 | 1486283787.84109 | pgbench_tellers_pkey  |           245760
 2017-02-05 09:36:27.841087+01 | 1486283787.84109 | pgbench_accounts_pkey |       2246197248

 2017-02-05 09:36:28.918322+01 | 1486283788.91832 | pgbench_branches_pkey |            40960
 2017-02-05 09:36:28.918322+01 | 1486283788.91832 | pgbench_tellers_pkey  |           245760
 2017-02-05 09:36:28.918322+01 | 1486283788.91832 | pgbench_accounts_pkey |       2246197248

 2017-02-05 09:36:30.002256+01 | 1486283790.00226 | pgbench_branches_pkey |            40960
 2017-02-05 09:36:30.002256+01 | 1486283790.00226 | pgbench_tellers_pkey  |           245760
 2017-02-05 09:36:30.002256+01 | 1486283790.00226 | pgbench_accounts_pkey |       2246197248

 2017-02-05 09:36:31.081036+01 | 1486283791.08104 | pgbench_branches_pkey |            40960
 2017-02-05 09:36:31.081036+01 | 1486283791.08104 | pgbench_tellers_pkey  |           245760
 2017-02-05 09:36:31.081036+01 | 1486283791.08104 | pgbench_accounts_pkey |       2246197248

 2017-02-05 09:36:32.164323+01 | 1486283792.16432 | pgbench_branches_pkey |            40960
 2017-02-05 09:36:32.164323+01 | 1486283792.16432 | pgbench_tellers_pkey  |           245760
 2017-02-05 09:36:32.164323+01 | 1486283792.16432 | pgbench_accounts_pkey |       2246197248

 2017-02-05 09:36:33.257146+01 | 1486283793.25715 | pgbench_branches_pkey |            40960
 2017-02-05 09:36:33.257146+01 | 1486283793.25715 | pgbench_tellers_pkey  |           245760
 2017-02-05 09:36:33.257146+01 | 1486283793.25715 | pgbench_accounts_pkey |       2246197248

 2017-02-05 09:36:34.340159+01 | 1486283794.34016 | pgbench_branches_pkey |            40960
 2017-02-05 09:36:34.340159+01 | 1486283794.34016 | pgbench_tellers_pkey  |           245760
 2017-02-05 09:36:34.340159+01 | 1486283794.34016 | pgbench_accounts_pkey |       2246197248

 2017-02-05 09:36:35.42338+01 | 1486283795.42338 | pgbench_branches_pkey |            40960
 2017-02-05 09:36:35.42338+01 | 1486283795.42338 | pgbench_tellers_pkey  |           245760
 2017-02-05 09:36:35.42338+01 | 1486283795.42338 | pgbench_accounts_pkey |       2246197248

 2017-02-05 09:36:36.504045+01 | 1486283796.50405 | pgbench_branches_pkey |            40960
 2017-02-05 09:36:36.504045+01 | 1486283796.50405 | pgbench_tellers_pkey  |           245760
 2017-02-05 09:36:36.504045+01 | 1486283796.50405 | pgbench_accounts_pkey |       2246197248

 2017-02-05 09:36:37.588729+01 | 1486283797.58873 | pgbench_branches_pkey |            40960
 2017-02-05 09:36:37.588729+01 | 1486283797.58873 | pgbench_tellers_pkey  |           245760
 2017-02-05 09:36:37.588729+01 | 1486283797.58873 | pgbench_accounts_pkey |       2246197248

 2017-02-05 09:36:38.669758+01 | 1486283798.66976 | pgbench_branches_pkey |            40960
 2017-02-05 09:36:38.669758+01 | 1486283798.66976 | pgbench_tellers_pkey  |           245760
 2017-02-05 09:36:38.669758+01 | 1486283798.66976 | pgbench_accounts_pkey |       2246197248

 2017-02-05 09:36:39.747474+01 | 1486283799.74747 | pgbench_branches_pkey |            40960
 2017-02-05 09:36:39.747474+01 | 1486283799.74747 | pgbench_tellers_pkey  |           245760
 2017-02-05 09:36:39.747474+01 | 1486283799.74747 | pgbench_accounts_pkey |       2246197248

 2017-02-05 09:36:40.82559+01 | 1486283800.82559 | pgbench_branches_pkey |            40960
 2017-02-05 09:36:40.82559+01 | 1486283800.82559 | pgbench_tellers_pkey  |           245760
 2017-02-05 09:36:40.82559+01 | 1486283800.82559 | pgbench_accounts_pkey |       2246197248

 2017-02-05 09:36:41.904267+01 | 1486283801.90427 | pgbench_branches_pkey |            40960
 2017-02-05 09:36:41.904267+01 | 1486283801.90427 | pgbench_tellers_pkey  |           245760
 2017-02-05 09:36:41.904267+01 | 1486283801.90427 | pgbench_accounts_pkey |       2246197248

 2017-02-05 09:36:42.981226+01 | 1486283802.98123 | pgbench_branches_pkey |            40960
 2017-02-05 09:36:42.981226+01 | 1486283802.98123 | pgbench_tellers_pkey  |           245760
 2017-02-05 09:36:42.981226+01 | 1486283802.98123 | pgbench_accounts_pkey |       2246197248

 2017-02-05 09:36:44.064375+01 | 1486283804.06437 | pgbench_branches_pkey |            40960
 2017-02-05 09:36:44.064375+01 | 1486283804.06437 | pgbench_tellers_pkey  |           245760
 2017-02-05 09:36:44.064375+01 | 1486283804.06437 | pgbench_accounts_pkey |       2246197248

 2017-02-05 09:36:45.136639+01 | 1486283805.13664 | pgbench_branches_pkey |            40960
 2017-02-05 09:36:45.136639+01 | 1486283805.13664 | pgbench_tellers_pkey  |           245760
 2017-02-05 09:36:45.136639+01 | 1486283805.13664 | pgbench_accounts_pkey |       2246197248

 2017-02-05 09:36:46.219243+01 | 1486283806.21924 | pgbench_branches_pkey |            40960
 2017-02-05 09:36:46.219243+01 | 1486283806.21924 | pgbench_tellers_pkey  |           245760
 2017-02-05 09:36:46.219243+01 | 1486283806.21924 | pgbench_accounts_pkey |       2246197248

 2017-02-05 09:36:47.296688+01 | 1486283807.29669 | pgbench_branches_pkey |            40960
 2017-02-05 09:36:47.296688+01 | 1486283807.29669 | pgbench_tellers_pkey  |           245760
 2017-02-05 09:36:47.296688+01 | 1486283807.29669 | pgbench_accounts_pkey |       2246197248

 2017-02-05 09:36:48.372178+01 | 1486283808.37218 | pgbench_branches_pkey |            40960
 2017-02-05 09:36:48.372178+01 | 1486283808.37218 | pgbench_tellers_pkey  |           245760
 2017-02-05 09:36:48.372178+01 | 1486283808.37218 | pgbench_accounts_pkey |       2246197248

 2017-02-05 09:36:49.442023+01 | 1486283809.44202 | pgbench_branches_pkey |            40960
 2017-02-05 09:36:49.442023+01 | 1486283809.44202 | pgbench_tellers_pkey  |           245760
 2017-02-05 09:36:49.442023+01 | 1486283809.44202 | pgbench_accounts_pkey |       2246197248

 2017-02-05 09:36:50.51934+01 | 1486283810.51934 | pgbench_branches_pkey |            40960
 2017-02-05 09:36:50.51934+01 | 1486283810.51934 | pgbench_tellers_pkey  |           245760
 2017-02-05 09:36:50.51934+01 | 1486283810.51934 | pgbench_accounts_pkey |       2246197248

 2017-02-05 09:36:51.601296+01 | 1486283811.6013 | pgbench_branches_pkey |            40960
 2017-02-05 09:36:51.601296+01 | 1486283811.6013 | pgbench_tellers_pkey  |           245760
 2017-02-05 09:36:51.601296+01 | 1486283811.6013 | pgbench_accounts_pkey |       2246197248

 2017-02-05 09:36:52.676112+01 | 1486283812.67611 | pgbench_branches_pkey |            40960
 2017-02-05 09:36:52.676112+01 | 1486283812.67611 | pgbench_tellers_pkey  |           245760
 2017-02-05 09:36:52.676112+01 | 1486283812.67611 | pgbench_accounts_pkey |       2246197248

 2017-02-05 09:36:53.747811+01 | 1486283813.74781 | pgbench_branches_pkey |            40960
 2017-02-05 09:36:53.747811+01 | 1486283813.74781 | pgbench_tellers_pkey  |           245760
 2017-02-05 09:36:53.747811+01 | 1486283813.74781 | pgbench_accounts_pkey |       2246197248

 2017-02-05 09:36:54.825256+01 | 1486283814.82526 | pgbench_branches_pkey |            40960
 2017-02-05 09:36:54.825256+01 | 1486283814.82526 | pgbench_tellers_pkey  |           245760
 2017-02-05 09:36:54.825256+01 | 1486283814.82526 | pgbench_accounts_pkey |       2246197248

 2017-02-05 09:36:55.904364+01 | 1486283815.90436 | pgbench_branches_pkey |            40960
 2017-02-05 09:36:55.904364+01 | 1486283815.90436 | pgbench_tellers_pkey  |           245760
 2017-02-05 09:36:55.904364+01 | 1486283815.90436 | pgbench_accounts_pkey |       2246197248

 2017-02-05 09:36:56.980075+01 | 1486283816.98007 | pgbench_branches_pkey |            40960
 2017-02-05 09:36:56.980075+01 | 1486283816.98007 | pgbench_tellers_pkey  |           245760
 2017-02-05 09:36:56.980075+01 | 1486283816.98007 | pgbench_accounts_pkey |       2246197248

 2017-02-05 09:36:58.068558+01 | 1486283818.06856 | pgbench_branches_pkey |            40960
 2017-02-05 09:36:58.068558+01 | 1486283818.06856 | pgbench_tellers_pkey  |           245760
 2017-02-05 09:36:58.068558+01 | 1486283818.06856 | pgbench_accounts_pkey |       2246197248

 2017-02-05 09:36:59.150687+01 | 1486283819.15069 | pgbench_branches_pkey |            40960
 2017-02-05 09:36:59.150687+01 | 1486283819.15069 | pgbench_tellers_pkey  |           245760
 2017-02-05 09:36:59.150687+01 | 1486283819.15069 | pgbench_accounts_pkey |       2246197248

 2017-02-05 09:37:00.228601+01 | 1486283820.2286 | pgbench_branches_pkey |            40960
 2017-02-05 09:37:00.228601+01 | 1486283820.2286 | pgbench_tellers_pkey  |           245760
 2017-02-05 09:37:00.228601+01 | 1486283820.2286 | pgbench_accounts_pkey |       2246197248

 2017-02-05 09:37:01.304474+01 | 1486283821.30447 | pgbench_branches_pkey |            40960
 2017-02-05 09:37:01.304474+01 | 1486283821.30447 | pgbench_tellers_pkey  |           245760
 2017-02-05 09:37:01.304474+01 | 1486283821.30447 | pgbench_accounts_pkey |       2246197248

 2017-02-05 09:37:02.379478+01 | 1486283822.37948 | pgbench_branches_pkey |            40960
 2017-02-05 09:37:02.379478+01 | 1486283822.37948 | pgbench_tellers_pkey  |           245760
 2017-02-05 09:37:02.379478+01 | 1486283822.37948 | pgbench_accounts_pkey |       2246197248

 2017-02-05 09:37:03.45679+01 | 1486283823.45679 | pgbench_branches_pkey |            40960
 2017-02-05 09:37:03.45679+01 | 1486283823.45679 | pgbench_tellers_pkey  |           245760
 2017-02-05 09:37:03.45679+01 | 1486283823.45679 | pgbench_accounts_pkey |       2246197248

 2017-02-05 09:37:04.533699+01 | 1486283824.5337 | pgbench_branches_pkey |            40960
 2017-02-05 09:37:04.533699+01 | 1486283824.5337 | pgbench_tellers_pkey  |           245760
 2017-02-05 09:37:04.533699+01 | 1486283824.5337 | pgbench_accounts_pkey |       2246197248

 2017-02-05 09:37:05.617543+01 | 1486283825.61754 | pgbench_branches_pkey |            40960
 2017-02-05 09:37:05.617543+01 | 1486283825.61754 | pgbench_tellers_pkey  |           245760
 2017-02-05 09:37:05.617543+01 | 1486283825.61754 | pgbench_accounts_pkey |       2246197248

 2017-02-05 09:37:06.701588+01 | 1486283826.70159 | pgbench_branches_pkey |            40960
 2017-02-05 09:37:06.701588+01 | 1486283826.70159 | pgbench_tellers_pkey  |           245760
 2017-02-05 09:37:06.701588+01 | 1486283826.70159 | pgbench_accounts_pkey |       2246197248

 2017-02-05 09:37:07.785707+01 | 1486283827.78571 | pgbench_branches_pkey |            40960
 2017-02-05 09:37:07.785707+01 | 1486283827.78571 | pgbench_tellers_pkey  |           245760
 2017-02-05 09:37:07.785707+01 | 1486283827.78571 | pgbench_accounts_pkey |       2246197248

 2017-02-05 09:37:08.858723+01 | 1486283828.85872 | pgbench_branches_pkey |            40960
 2017-02-05 09:37:08.858723+01 | 1486283828.85872 | pgbench_tellers_pkey  |           245760
 2017-02-05 09:37:08.858723+01 | 1486283828.85872 | pgbench_accounts_pkey |       2246197248

 2017-02-05 09:37:09.942097+01 | 1486283829.9421 | pgbench_branches_pkey |            40960
 2017-02-05 09:37:09.942097+01 | 1486283829.9421 | pgbench_tellers_pkey  |           245760
 2017-02-05 09:37:09.942097+01 | 1486283829.9421 | pgbench_accounts_pkey |       2246197248

 2017-02-05 09:37:11.0222+01 | 1486283831.0222 | pgbench_branches_pkey |            40960
 2017-02-05 09:37:11.0222+01 | 1486283831.0222 | pgbench_tellers_pkey  |           245760
 2017-02-05 09:37:11.0222+01 | 1486283831.0222 | pgbench_accounts_pkey |       2246197248

 2017-02-05 09:37:12.103317+01 | 1486283832.10332 | pgbench_branches_pkey |            40960
 2017-02-05 09:37:12.103317+01 | 1486283832.10332 | pgbench_tellers_pkey  |           245760
 2017-02-05 09:37:12.103317+01 | 1486283832.10332 | pgbench_accounts_pkey |       2246197248

 2017-02-05 09:37:13.186702+01 | 1486283833.1867 | pgbench_branches_pkey |            40960
 2017-02-05 09:37:13.186702+01 | 1486283833.1867 | pgbench_tellers_pkey  |           245760
 2017-02-05 09:37:13.186702+01 | 1486283833.1867 | pgbench_accounts_pkey |       2246197248

 2017-02-05 09:37:14.268362+01 | 1486283834.26836 | pgbench_branches_pkey |            40960
 2017-02-05 09:37:14.268362+01 | 1486283834.26836 | pgbench_tellers_pkey  |           245760
 2017-02-05 09:37:14.268362+01 | 1486283834.26836 | pgbench_accounts_pkey |       2246197248

 2017-02-05 09:37:15.343434+01 | 1486283835.34343 | pgbench_branches_pkey |            40960
 2017-02-05 09:37:15.343434+01 | 1486283835.34343 | pgbench_tellers_pkey  |           245760
 2017-02-05 09:37:15.343434+01 | 1486283835.34343 | pgbench_accounts_pkey |       2246197248

 2017-02-05 09:37:16.428204+01 | 1486283836.4282 | pgbench_branches_pkey |            40960
 2017-02-05 09:37:16.428204+01 | 1486283836.4282 | pgbench_tellers_pkey  |           245760
 2017-02-05 09:37:16.428204+01 | 1486283836.4282 | pgbench_accounts_pkey |       2246197248

 2017-02-05 09:37:17.510048+01 | 1486283837.51005 | pgbench_branches_pkey |            40960
 2017-02-05 09:37:17.510048+01 | 1486283837.51005 | pgbench_tellers_pkey  |           245760
 2017-02-05 09:37:17.510048+01 | 1486283837.51005 | pgbench_accounts_pkey |       2246197248

 2017-02-05 09:37:18.588345+01 | 1486283838.58835 | pgbench_branches_pkey |            40960
 2017-02-05 09:37:18.588345+01 | 1486283838.58835 | pgbench_tellers_pkey  |           245760
 2017-02-05 09:37:18.588345+01 | 1486283838.58835 | pgbench_accounts_pkey |       2246197248

 2017-02-05 09:37:19.655825+01 | 1486283839.65582 | pgbench_branches_pkey |            40960
 2017-02-05 09:37:19.655825+01 | 1486283839.65582 | pgbench_tellers_pkey  |           245760
 2017-02-05 09:37:19.655825+01 | 1486283839.65582 | pgbench_accounts_pkey |       2246197248

 2017-02-05 09:37:20.728443+01 | 1486283840.72844 | pgbench_branches_pkey |            40960
 2017-02-05 09:37:20.728443+01 | 1486283840.72844 | pgbench_tellers_pkey  |           245760
 2017-02-05 09:37:20.728443+01 | 1486283840.72844 | pgbench_accounts_pkey |       2246197248

 2017-02-05 09:37:21.811177+01 | 1486283841.81118 | pgbench_branches_pkey |            40960
 2017-02-05 09:37:21.811177+01 | 1486283841.81118 | pgbench_tellers_pkey  |           245760
 2017-02-05 09:37:21.811177+01 | 1486283841.81118 | pgbench_accounts_pkey |       2246197248

 2017-02-05 09:37:22.891348+01 | 1486283842.89135 | pgbench_branches_pkey |            40960
 2017-02-05 09:37:22.891348+01 | 1486283842.89135 | pgbench_tellers_pkey  |           245760
 2017-02-05 09:37:22.891348+01 | 1486283842.89135 | pgbench_accounts_pkey |       2246197248

 2017-02-05 09:37:23.969804+01 | 1486283843.9698 | pgbench_branches_pkey |            40960
 2017-02-05 09:37:23.969804+01 | 1486283843.9698 | pgbench_tellers_pkey  |           245760
 2017-02-05 09:37:23.969804+01 | 1486283843.9698 | pgbench_accounts_pkey |       2246197248

 2017-02-05 09:37:25.052339+01 | 1486283845.05234 | pgbench_branches_pkey |            40960
 2017-02-05 09:37:25.052339+01 | 1486283845.05234 | pgbench_tellers_pkey  |           245760
 2017-02-05 09:37:25.052339+01 | 1486283845.05234 | pgbench_accounts_pkey |       2246197248

 2017-02-05 09:37:26.140491+01 | 1486283846.14049 | pgbench_branches_pkey |            40960
 2017-02-05 09:37:26.140491+01 | 1486283846.14049 | pgbench_tellers_pkey  |           245760
 2017-02-05 09:37:26.140491+01 | 1486283846.14049 | pgbench_accounts_pkey |       2246197248

 2017-02-05 09:37:27.224855+01 | 1486283847.22485 | pgbench_branches_pkey |            40960
 2017-02-05 09:37:27.224855+01 | 1486283847.22485 | pgbench_tellers_pkey  |           245760
 2017-02-05 09:37:27.224855+01 | 1486283847.22485 | pgbench_accounts_pkey |       2246197248

 2017-02-05 09:37:28.293622+01 | 1486283848.29362 | pgbench_branches_pkey |            40960
 2017-02-05 09:37:28.293622+01 | 1486283848.29362 | pgbench_tellers_pkey  |           245760
 2017-02-05 09:37:28.293622+01 | 1486283848.29362 | pgbench_accounts_pkey |       2246197248

 2017-02-05 09:37:29.370706+01 | 1486283849.37071 | pgbench_branches_pkey |            40960
 2017-02-05 09:37:29.370706+01 | 1486283849.37071 | pgbench_tellers_pkey  |           245760
 2017-02-05 09:37:29.370706+01 | 1486283849.37071 | pgbench_accounts_pkey |       2246197248

 2017-02-05 09:37:30.449889+01 | 1486283850.44989 | pgbench_branches_pkey |            40960
 2017-02-05 09:37:30.449889+01 | 1486283850.44989 | pgbench_tellers_pkey  |           245760
 2017-02-05 09:37:30.449889+01 | 1486283850.44989 | pgbench_accounts_pkey |       2246197248

 2017-02-05 09:37:31.519084+01 | 1486283851.51908 | pgbench_branches_pkey |            40960
 2017-02-05 09:37:31.519084+01 | 1486283851.51908 | pgbench_tellers_pkey  |           245760
 2017-02-05 09:37:31.519084+01 | 1486283851.51908 | pgbench_accounts_pkey |       2246197248

 2017-02-05 09:37:32.594524+01 | 1486283852.59452 | pgbench_branches_pkey |            40960
 2017-02-05 09:37:32.594524+01 | 1486283852.59452 | pgbench_tellers_pkey  |           245760
 2017-02-05 09:37:32.594524+01 | 1486283852.59452 | pgbench_accounts_pkey |       2246197248

 2017-02-05 09:37:33.666552+01 | 1486283853.66655 | pgbench_branches_pkey |            40960
 2017-02-05 09:37:33.666552+01 | 1486283853.66655 | pgbench_tellers_pkey  |           245760
 2017-02-05 09:37:33.666552+01 | 1486283853.66655 | pgbench_accounts_pkey |       2246197248

 2017-02-05 09:37:34.743359+01 | 1486283854.74336 | pgbench_branches_pkey |            40960
 2017-02-05 09:37:34.743359+01 | 1486283854.74336 | pgbench_tellers_pkey  |           245760
 2017-02-05 09:37:34.743359+01 | 1486283854.74336 | pgbench_accounts_pkey |       2246197248

 2017-02-05 09:37:35.823574+01 | 1486283855.82357 | pgbench_branches_pkey |            40960
 2017-02-05 09:37:35.823574+01 | 1486283855.82357 | pgbench_tellers_pkey  |           245760
 2017-02-05 09:37:35.823574+01 | 1486283855.82357 | pgbench_accounts_pkey |       2246197248

 2017-02-05 09:37:36.901966+01 | 1486283856.90197 | pgbench_branches_pkey |            40960
 2017-02-05 09:37:36.901966+01 | 1486283856.90197 | pgbench_tellers_pkey  |           245760
 2017-02-05 09:37:36.901966+01 | 1486283856.90197 | pgbench_accounts_pkey |       2246197248

 2017-02-05 09:37:37.980201+01 | 1486283857.9802 | pgbench_branches_pkey |            40960
 2017-02-05 09:37:37.980201+01 | 1486283857.9802 | pgbench_tellers_pkey  |           245760
 2017-02-05 09:37:37.980201+01 | 1486283857.9802 | pgbench_accounts_pkey |       2246197248

 2017-02-05 09:37:39.064807+01 | 1486283859.06481 | pgbench_branches_pkey |            40960
 2017-02-05 09:37:39.064807+01 | 1486283859.06481 | pgbench_tellers_pkey  |           245760
 2017-02-05 09:37:39.064807+01 | 1486283859.06481 | pgbench_accounts_pkey |       2246197248

 2017-02-05 09:37:40.149164+01 | 1486283860.14916 | pgbench_branches_pkey |            40960
 2017-02-05 09:37:40.149164+01 | 1486283860.14916 | pgbench_tellers_pkey  |           245760
 2017-02-05 09:37:40.149164+01 | 1486283860.14916 | pgbench_accounts_pkey |       2246197248

 2017-02-05 09:37:41.220281+01 | 1486283861.22028 | pgbench_branches_pkey |            40960
 2017-02-05 09:37:41.220281+01 | 1486283861.22028 | pgbench_tellers_pkey  |           245760
 2017-02-05 09:37:41.220281+01 | 1486283861.22028 | pgbench_accounts_pkey |       2246197248

 2017-02-05 09:37:42.29787+01 | 1486283862.29787 | pgbench_branches_pkey |            40960
 2017-02-05 09:37:42.29787+01 | 1486283862.29787 | pgbench_tellers_pkey  |           245760
 2017-02-05 09:37:42.29787+01 | 1486283862.29787 | pgbench_accounts_pkey |       2246197248

 2017-02-05 09:37:43.379966+01 | 1486283863.37997 | pgbench_branches_pkey |            40960
 2017-02-05 09:37:43.379966+01 | 1486283863.37997 | pgbench_tellers_pkey  |           245760
 2017-02-05 09:37:43.379966+01 | 1486283863.37997 | pgbench_accounts_pkey |       2246197248

 2017-02-05 09:37:44.460105+01 | 1486283864.4601 | pgbench_branches_pkey |            40960
 2017-02-05 09:37:44.460105+01 | 1486283864.4601 | pgbench_tellers_pkey  |           245760
 2017-02-05 09:37:44.460105+01 | 1486283864.4601 | pgbench_accounts_pkey |       2246197248

 2017-02-05 09:37:45.543219+01 | 1486283865.54322 | pgbench_branches_pkey |            40960
 2017-02-05 09:37:45.543219+01 | 1486283865.54322 | pgbench_tellers_pkey  |           245760
 2017-02-05 09:37:45.543219+01 | 1486283865.54322 | pgbench_accounts_pkey |       2246197248

 2017-02-05 09:37:46.627993+01 | 1486283866.62799 | pgbench_branches_pkey |            40960
 2017-02-05 09:37:46.627993+01 | 1486283866.62799 | pgbench_tellers_pkey  |           245760
 2017-02-05 09:37:46.627993+01 | 1486283866.62799 | pgbench_accounts_pkey |       2246197248

 2017-02-05 09:37:47.708658+01 | 1486283867.70866 | pgbench_branches_pkey |            40960
 2017-02-05 09:37:47.708658+01 | 1486283867.70866 | pgbench_tellers_pkey  |           245760
 2017-02-05 09:37:47.708658+01 | 1486283867.70866 | pgbench_accounts_pkey |       2246197248

 2017-02-05 09:37:48.793491+01 | 1486283868.79349 | pgbench_branches_pkey |            40960
 2017-02-05 09:37:48.793491+01 | 1486283868.79349 | pgbench_tellers_pkey  |           245760
 2017-02-05 09:37:48.793491+01 | 1486283868.79349 | pgbench_accounts_pkey |       2246197248

 2017-02-05 09:37:49.882251+01 | 1486283869.88225 | pgbench_branches_pkey |            40960
 2017-02-05 09:37:49.882251+01 | 1486283869.88225 | pgbench_tellers_pkey  |           245760
 2017-02-05 09:37:49.882251+01 | 1486283869.88225 | pgbench_accounts_pkey |       2246197248

 2017-02-05 09:37:50.962416+01 | 1486283870.96242 | pgbench_branches_pkey |            40960
 2017-02-05 09:37:50.962416+01 | 1486283870.96242 | pgbench_tellers_pkey  |           245760
 2017-02-05 09:37:50.962416+01 | 1486283870.96242 | pgbench_accounts_pkey |       2246197248

 2017-02-05 09:37:52.03871+01 | 1486283872.03871 | pgbench_branches_pkey |            40960
 2017-02-05 09:37:52.03871+01 | 1486283872.03871 | pgbench_tellers_pkey  |           245760
 2017-02-05 09:37:52.03871+01 | 1486283872.03871 | pgbench_accounts_pkey |       2246197248

 2017-02-05 09:37:53.128628+01 | 1486283873.12863 | pgbench_branches_pkey |            40960
 2017-02-05 09:37:53.128628+01 | 1486283873.12863 | pgbench_tellers_pkey  |           245760
 2017-02-05 09:37:53.128628+01 | 1486283873.12863 | pgbench_accounts_pkey |       2246197248

 2017-02-05 09:37:54.208603+01 | 1486283874.2086 | pgbench_branches_pkey |            40960
 2017-02-05 09:37:54.208603+01 | 1486283874.2086 | pgbench_tellers_pkey  |           245760
 2017-02-05 09:37:54.208603+01 | 1486283874.2086 | pgbench_accounts_pkey |       2246197248

 2017-02-05 09:37:55.282403+01 | 1486283875.2824 | pgbench_branches_pkey |            40960
 2017-02-05 09:37:55.282403+01 | 1486283875.2824 | pgbench_tellers_pkey  |           245760
 2017-02-05 09:37:55.282403+01 | 1486283875.2824 | pgbench_accounts_pkey |       2246197248

 2017-02-05 09:37:56.36544+01 | 1486283876.36544 | pgbench_branches_pkey |            40960
 2017-02-05 09:37:56.36544+01 | 1486283876.36544 | pgbench_tellers_pkey  |           245760
 2017-02-05 09:37:56.36544+01 | 1486283876.36544 | pgbench_accounts_pkey |       2246197248

 2017-02-05 09:37:57.441981+01 | 1486283877.44198 | pgbench_branches_pkey |            40960
 2017-02-05 09:37:57.441981+01 | 1486283877.44198 | pgbench_tellers_pkey  |           245760
 2017-02-05 09:37:57.441981+01 | 1486283877.44198 | pgbench_accounts_pkey |       2246197248

 2017-02-05 09:37:58.520193+01 | 1486283878.52019 | pgbench_branches_pkey |            40960
 2017-02-05 09:37:58.520193+01 | 1486283878.52019 | pgbench_tellers_pkey  |           245760
 2017-02-05 09:37:58.520193+01 | 1486283878.52019 | pgbench_accounts_pkey |       2246197248

 2017-02-05 09:37:59.597949+01 | 1486283879.59795 | pgbench_branches_pkey |            40960
 2017-02-05 09:37:59.597949+01 | 1486283879.59795 | pgbench_tellers_pkey  |           245760
 2017-02-05 09:37:59.597949+01 | 1486283879.59795 | pgbench_accounts_pkey |       2246197248

 2017-02-05 09:38:00.671524+01 | 1486283880.67152 | pgbench_branches_pkey |            40960
 2017-02-05 09:38:00.671524+01 | 1486283880.67152 | pgbench_tellers_pkey  |           245760
 2017-02-05 09:38:00.671524+01 | 1486283880.67152 | pgbench_accounts_pkey |       2246197248

 2017-02-05 09:38:01.754999+01 | 1486283881.755 | pgbench_branches_pkey |            40960
 2017-02-05 09:38:01.754999+01 | 1486283881.755 | pgbench_tellers_pkey  |           245760
 2017-02-05 09:38:01.754999+01 | 1486283881.755 | pgbench_accounts_pkey |       2246197248

 2017-02-05 09:38:02.838208+01 | 1486283882.83821 | pgbench_branches_pkey |            40960
 2017-02-05 09:38:02.838208+01 | 1486283882.83821 | pgbench_tellers_pkey  |           245760
 2017-02-05 09:38:02.838208+01 | 1486283882.83821 | pgbench_accounts_pkey |       2246197248

 2017-02-05 09:38:03.922322+01 | 1486283883.92232 | pgbench_branches_pkey |            40960
 2017-02-05 09:38:03.922322+01 | 1486283883.92232 | pgbench_tellers_pkey  |           245760
 2017-02-05 09:38:03.922322+01 | 1486283883.92232 | pgbench_accounts_pkey |       2246197248

 2017-02-05 09:38:05.005412+01 | 1486283885.00541 | pgbench_branches_pkey |            40960
 2017-02-05 09:38:05.005412+01 | 1486283885.00541 | pgbench_tellers_pkey  |           245760
 2017-02-05 09:38:05.005412+01 | 1486283885.00541 | pgbench_accounts_pkey |       2246197248

 2017-02-05 09:38:06.07702+01 | 1486283886.07702 | pgbench_branches_pkey |            40960
 2017-02-05 09:38:06.07702+01 | 1486283886.07702 | pgbench_tellers_pkey  |           245760
 2017-02-05 09:38:06.07702+01 | 1486283886.07702 | pgbench_accounts_pkey |       2246197248

 2017-02-05 09:38:07.1519+01 | 1486283887.1519 | pgbench_branches_pkey |            40960
 2017-02-05 09:38:07.1519+01 | 1486283887.1519 | pgbench_tellers_pkey  |           245760
 2017-02-05 09:38:07.1519+01 | 1486283887.1519 | pgbench_accounts_pkey |       2246197248

 2017-02-05 09:38:08.226295+01 | 1486283888.22629 | pgbench_branches_pkey |            40960
 2017-02-05 09:38:08.226295+01 | 1486283888.22629 | pgbench_tellers_pkey  |           245760
 2017-02-05 09:38:08.226295+01 | 1486283888.22629 | pgbench_accounts_pkey |       2246197248

 2017-02-05 09:38:09.303038+01 | 1486283889.30304 | pgbench_branches_pkey |            40960
 2017-02-05 09:38:09.303038+01 | 1486283889.30304 | pgbench_tellers_pkey  |           245760
 2017-02-05 09:38:09.303038+01 | 1486283889.30304 | pgbench_accounts_pkey |       2246197248

 2017-02-05 09:38:10.385198+01 | 1486283890.3852 | pgbench_branches_pkey |            40960
 2017-02-05 09:38:10.385198+01 | 1486283890.3852 | pgbench_tellers_pkey  |           245760
 2017-02-05 09:38:10.385198+01 | 1486283890.3852 | pgbench_accounts_pkey |       2246197248

 2017-02-05 09:38:11.461464+01 | 1486283891.46146 | pgbench_branches_pkey |            40960
 2017-02-05 09:38:11.461464+01 | 1486283891.46146 | pgbench_tellers_pkey  |           245760
 2017-02-05 09:38:11.461464+01 | 1486283891.46146 | pgbench_accounts_pkey |       2246197248

 2017-02-05 09:38:12.541601+01 | 1486283892.5416 | pgbench_branches_pkey |            40960
 2017-02-05 09:38:12.541601+01 | 1486283892.5416 | pgbench_tellers_pkey  |           245760
 2017-02-05 09:38:12.541601+01 | 1486283892.5416 | pgbench_accounts_pkey |       2246197248

 2017-02-05 09:38:13.620302+01 | 1486283893.6203 | pgbench_branches_pkey |            40960
 2017-02-05 09:38:13.620302+01 | 1486283893.6203 | pgbench_tellers_pkey  |           245760
 2017-02-05 09:38:13.620302+01 | 1486283893.6203 | pgbench_accounts_pkey |       2246197248

 2017-02-05 09:38:14.703405+01 | 1486283894.7034 | pgbench_branches_pkey |            40960
 2017-02-05 09:38:14.703405+01 | 1486283894.7034 | pgbench_tellers_pkey  |           245760
 2017-02-05 09:38:14.703405+01 | 1486283894.7034 | pgbench_accounts_pkey |       2246197248

 2017-02-05 09:38:15.779678+01 | 1486283895.77968 | pgbench_branches_pkey |            40960
 2017-02-05 09:38:15.779678+01 | 1486283895.77968 | pgbench_tellers_pkey  |           245760
 2017-02-05 09:38:15.779678+01 | 1486283895.77968 | pgbench_accounts_pkey |       2246197248

 2017-02-05 09:38:16.859409+01 | 1486283896.85941 | pgbench_branches_pkey |            40960
 2017-02-05 09:38:16.859409+01 | 1486283896.85941 | pgbench_tellers_pkey  |           245760
 2017-02-05 09:38:16.859409+01 | 1486283896.85941 | pgbench_accounts_pkey |       2246197248

 2017-02-05 09:38:17.937902+01 | 1486283897.9379 | pgbench_branches_pkey |            40960
 2017-02-05 09:38:17.937902+01 | 1486283897.9379 | pgbench_tellers_pkey  |           245760
 2017-02-05 09:38:17.937902+01 | 1486283897.9379 | pgbench_accounts_pkey |       2246197248

 2017-02-05 09:38:19.012449+01 | 1486283899.01245 | pgbench_branches_pkey |            40960
 2017-02-05 09:38:19.012449+01 | 1486283899.01245 | pgbench_tellers_pkey  |           245760
 2017-02-05 09:38:19.012449+01 | 1486283899.01245 | pgbench_accounts_pkey |       2246197248

 2017-02-05 09:38:20.0866+01 | 1486283900.0866 | pgbench_branches_pkey |            40960
 2017-02-05 09:38:20.0866+01 | 1486283900.0866 | pgbench_tellers_pkey  |           245760
 2017-02-05 09:38:20.0866+01 | 1486283900.0866 | pgbench_accounts_pkey |       2246197248

 2017-02-05 09:38:21.163034+01 | 1486283901.16303 | pgbench_branches_pkey |            40960
 2017-02-05 09:38:21.163034+01 | 1486283901.16303 | pgbench_tellers_pkey  |           245760
 2017-02-05 09:38:21.163034+01 | 1486283901.16303 | pgbench_accounts_pkey |       2246197248

 2017-02-05 09:38:22.24334+01 | 1486283902.24334 | pgbench_branches_pkey |            40960
 2017-02-05 09:38:22.24334+01 | 1486283902.24334 | pgbench_tellers_pkey  |           245760
 2017-02-05 09:38:22.24334+01 | 1486283902.24334 | pgbench_accounts_pkey |       2246197248

 2017-02-05 09:38:23.313024+01 | 1486283903.31302 | pgbench_branches_pkey |            40960
 2017-02-05 09:38:23.313024+01 | 1486283903.31302 | pgbench_tellers_pkey  |           245760
 2017-02-05 09:38:23.313024+01 | 1486283903.31302 | pgbench_accounts_pkey |       2246197248

 2017-02-05 09:38:24.394152+01 | 1486283904.39415 | pgbench_branches_pkey |            40960
 2017-02-05 09:38:24.394152+01 | 1486283904.39415 | pgbench_tellers_pkey  |           245760
 2017-02-05 09:38:24.394152+01 | 1486283904.39415 | pgbench_accounts_pkey |       2246197248

 2017-02-05 09:38:25.473314+01 | 1486283905.47331 | pgbench_branches_pkey |            40960
 2017-02-05 09:38:25.473314+01 | 1486283905.47331 | pgbench_tellers_pkey  |           245760
 2017-02-05 09:38:25.473314+01 | 1486283905.47331 | pgbench_accounts_pkey |       2246197248

 2017-02-05 09:38:26.547663+01 | 1486283906.54766 | pgbench_branches_pkey |            40960
 2017-02-05 09:38:26.547663+01 | 1486283906.54766 | pgbench_tellers_pkey  |           245760
 2017-02-05 09:38:26.547663+01 | 1486283906.54766 | pgbench_accounts_pkey |       2246197248

 2017-02-05 09:38:27.628001+01 | 1486283907.628 | pgbench_branches_pkey |            40960
 2017-02-05 09:38:27.628001+01 | 1486283907.628 | pgbench_tellers_pkey  |           245760
 2017-02-05 09:38:27.628001+01 | 1486283907.628 | pgbench_accounts_pkey |       2246197248

 2017-02-05 09:38:28.709519+01 | 1486283908.70952 | pgbench_branches_pkey |            40960
 2017-02-05 09:38:28.709519+01 | 1486283908.70952 | pgbench_tellers_pkey  |           245760
 2017-02-05 09:38:28.709519+01 | 1486283908.70952 | pgbench_accounts_pkey |       2246197248

 2017-02-05 09:38:29.790247+01 | 1486283909.79025 | pgbench_branches_pkey |            40960
 2017-02-05 09:38:29.790247+01 | 1486283909.79025 | pgbench_tellers_pkey  |           245760
 2017-02-05 09:38:29.790247+01 | 1486283909.79025 | pgbench_accounts_pkey |       2246197248

 2017-02-05 09:38:30.864551+01 | 1486283910.86455 | pgbench_branches_pkey |            40960
 2017-02-05 09:38:30.864551+01 | 1486283910.86455 | pgbench_tellers_pkey  |           245760
 2017-02-05 09:38:30.864551+01 | 1486283910.86455 | pgbench_accounts_pkey |       2246197248

 2017-02-05 09:38:31.934262+01 | 1486283911.93426 | pgbench_branches_pkey |            40960
 2017-02-05 09:38:31.934262+01 | 1486283911.93426 | pgbench_tellers_pkey  |           245760
 2017-02-05 09:38:31.934262+01 | 1486283911.93426 | pgbench_accounts_pkey |       2246197248

 2017-02-05 09:38:33.011098+01 | 1486283913.0111 | pgbench_branches_pkey |            40960
 2017-02-05 09:38:33.011098+01 | 1486283913.0111 | pgbench_tellers_pkey  |           245760
 2017-02-05 09:38:33.011098+01 | 1486283913.0111 | pgbench_accounts_pkey |       2246197248

 2017-02-05 09:38:34.089168+01 | 1486283914.08917 | pgbench_branches_pkey |            40960
 2017-02-05 09:38:34.089168+01 | 1486283914.08917 | pgbench_tellers_pkey  |           245760
 2017-02-05 09:38:34.089168+01 | 1486283914.08917 | pgbench_accounts_pkey |       2246197248

 2017-02-05 09:38:35.167083+01 | 1486283915.16708 | pgbench_branches_pkey |            40960
 2017-02-05 09:38:35.167083+01 | 1486283915.16708 | pgbench_tellers_pkey  |           245760
 2017-02-05 09:38:35.167083+01 | 1486283915.16708 | pgbench_accounts_pkey |       2246197248

 2017-02-05 09:38:36.25431+01 | 1486283916.25431 | pgbench_branches_pkey |            40960
 2017-02-05 09:38:36.25431+01 | 1486283916.25431 | pgbench_tellers_pkey  |           245760
 2017-02-05 09:38:36.25431+01 | 1486283916.25431 | pgbench_accounts_pkey |       2246197248

 2017-02-05 09:38:37.337134+01 | 1486283917.33713 | pgbench_branches_pkey |            40960
 2017-02-05 09:38:37.337134+01 | 1486283917.33713 | pgbench_tellers_pkey  |           245760
 2017-02-05 09:38:37.337134+01 | 1486283917.33713 | pgbench_accounts_pkey |       2246197248

 2017-02-05 09:38:38.421799+01 | 1486283918.4218 | pgbench_branches_pkey |            40960
 2017-02-05 09:38:38.421799+01 | 1486283918.4218 | pgbench_tellers_pkey  |           245760
 2017-02-05 09:38:38.421799+01 | 1486283918.4218 | pgbench_accounts_pkey |       2246197248

 2017-02-05 09:38:39.501082+01 | 1486283919.50108 | pgbench_branches_pkey |            40960
 2017-02-05 09:38:39.501082+01 | 1486283919.50108 | pgbench_tellers_pkey  |           245760
 2017-02-05 09:38:39.501082+01 | 1486283919.50108 | pgbench_accounts_pkey |       2246197248

 2017-02-05 09:38:40.575702+01 | 1486283920.5757 | pgbench_branches_pkey |            40960
 2017-02-05 09:38:40.575702+01 | 1486283920.5757 | pgbench_tellers_pkey  |           245760
 2017-02-05 09:38:40.575702+01 | 1486283920.5757 | pgbench_accounts_pkey |       2246197248

 2017-02-05 09:38:41.651339+01 | 1486283921.65134 | pgbench_branches_pkey |            40960
 2017-02-05 09:38:41.651339+01 | 1486283921.65134 | pgbench_tellers_pkey  |           245760
 2017-02-05 09:38:41.651339+01 | 1486283921.65134 | pgbench_accounts_pkey |       2246197248

 2017-02-05 09:38:42.732685+01 | 1486283922.73269 | pgbench_branches_pkey |            40960
 2017-02-05 09:38:42.732685+01 | 1486283922.73269 | pgbench_tellers_pkey  |           245760
 2017-02-05 09:38:42.732685+01 | 1486283922.73269 | pgbench_accounts_pkey |       2246197248

 2017-02-05 09:38:43.814324+01 | 1486283923.81432 | pgbench_branches_pkey |            40960
 2017-02-05 09:38:43.814324+01 | 1486283923.81432 | pgbench_tellers_pkey  |           245760
 2017-02-05 09:38:43.814324+01 | 1486283923.81432 | pgbench_accounts_pkey |       2246197248

 2017-02-05 09:38:44.892686+01 | 1486283924.89269 | pgbench_branches_pkey |            40960
 2017-02-05 09:38:44.892686+01 | 1486283924.89269 | pgbench_tellers_pkey  |           245760
 2017-02-05 09:38:44.892686+01 | 1486283924.89269 | pgbench_accounts_pkey |       2246197248

 2017-02-05 09:38:45.969895+01 | 1486283925.96989 | pgbench_branches_pkey |            40960
 2017-02-05 09:38:45.969895+01 | 1486283925.96989 | pgbench_tellers_pkey  |           245760
 2017-02-05 09:38:45.969895+01 | 1486283925.96989 | pgbench_accounts_pkey |       2246197248

 2017-02-05 09:38:47.041825+01 | 1486283927.04183 | pgbench_branches_pkey |            40960
 2017-02-05 09:38:47.041825+01 | 1486283927.04183 | pgbench_tellers_pkey  |           245760
 2017-02-05 09:38:47.041825+01 | 1486283927.04183 | pgbench_accounts_pkey |       2246197248

 2017-02-05 09:38:48.131081+01 | 1486283928.13108 | pgbench_branches_pkey |            40960
 2017-02-05 09:38:48.131081+01 | 1486283928.13108 | pgbench_tellers_pkey  |           245760
 2017-02-05 09:38:48.131081+01 | 1486283928.13108 | pgbench_accounts_pkey |       2246197248

 2017-02-05 09:38:49.21062+01 | 1486283929.21062 | pgbench_branches_pkey |            40960
 2017-02-05 09:38:49.21062+01 | 1486283929.21062 | pgbench_tellers_pkey  |           245760
 2017-02-05 09:38:49.21062+01 | 1486283929.21062 | pgbench_accounts_pkey |       2246197248

 2017-02-05 09:38:50.292669+01 | 1486283930.29267 | pgbench_branches_pkey |            40960
 2017-02-05 09:38:50.292669+01 | 1486283930.29267 | pgbench_tellers_pkey  |           245760
 2017-02-05 09:38:50.292669+01 | 1486283930.29267 | pgbench_accounts_pkey |       2246197248

 2017-02-05 09:38:51.37226+01 | 1486283931.37226 | pgbench_branches_pkey |            40960
 2017-02-05 09:38:51.37226+01 | 1486283931.37226 | pgbench_tellers_pkey  |           245760
 2017-02-05 09:38:51.37226+01 | 1486283931.37226 | pgbench_accounts_pkey |       2246197248

 2017-02-05 09:38:52.452085+01 | 1486283932.45209 | pgbench_branches_pkey |            40960
 2017-02-05 09:38:52.452085+01 | 1486283932.45209 | pgbench_tellers_pkey  |           245760
 2017-02-05 09:38:52.452085+01 | 1486283932.45209 | pgbench_accounts_pkey |       2246197248

 2017-02-05 09:38:53.533442+01 | 1486283933.53344 | pgbench_branches_pkey |            40960
 2017-02-05 09:38:53.533442+01 | 1486283933.53344 | pgbench_tellers_pkey  |           245760
 2017-02-05 09:38:53.533442+01 | 1486283933.53344 | pgbench_accounts_pkey |       2246197248

 2017-02-05 09:38:54.613338+01 | 1486283934.61334 | pgbench_branches_pkey |            40960
 2017-02-05 09:38:54.613338+01 | 1486283934.61334 | pgbench_tellers_pkey  |           245760
 2017-02-05 09:38:54.613338+01 | 1486283934.61334 | pgbench_accounts_pkey |       2246197248

 2017-02-05 09:38:55.689972+01 | 1486283935.68997 | pgbench_branches_pkey |            40960
 2017-02-05 09:38:55.689972+01 | 1486283935.68997 | pgbench_tellers_pkey  |           245760
 2017-02-05 09:38:55.689972+01 | 1486283935.68997 | pgbench_accounts_pkey |       2246197248

 2017-02-05 09:38:56.76848+01 | 1486283936.76848 | pgbench_branches_pkey |            40960
 2017-02-05 09:38:56.76848+01 | 1486283936.76848 | pgbench_tellers_pkey  |           245760
 2017-02-05 09:38:56.76848+01 | 1486283936.76848 | pgbench_accounts_pkey |       2246197248

 2017-02-05 09:38:57.851428+01 | 1486283937.85143 | pgbench_branches_pkey |            40960
 2017-02-05 09:38:57.851428+01 | 1486283937.85143 | pgbench_tellers_pkey  |           245760
 2017-02-05 09:38:57.851428+01 | 1486283937.85143 | pgbench_accounts_pkey |       2246197248

 2017-02-05 09:38:58.930458+01 | 1486283938.93046 | pgbench_branches_pkey |            40960
 2017-02-05 09:38:58.930458+01 | 1486283938.93046 | pgbench_tellers_pkey  |           245760
 2017-02-05 09:38:58.930458+01 | 1486283938.93046 | pgbench_accounts_pkey |       2246197248

 2017-02-05 09:39:00.015373+01 | 1486283940.01537 | pgbench_branches_pkey |            40960
 2017-02-05 09:39:00.015373+01 | 1486283940.01537 | pgbench_tellers_pkey  |           245760
 2017-02-05 09:39:00.015373+01 | 1486283940.01537 | pgbench_accounts_pkey |       2246197248

 2017-02-05 09:39:01.094115+01 | 1486283941.09412 | pgbench_branches_pkey |            40960
 2017-02-05 09:39:01.094115+01 | 1486283941.09412 | pgbench_tellers_pkey  |           245760
 2017-02-05 09:39:01.094115+01 | 1486283941.09412 | pgbench_accounts_pkey |       2246197248

 2017-02-05 09:39:02.170475+01 | 1486283942.17048 | pgbench_branches_pkey |            40960
 2017-02-05 09:39:02.170475+01 | 1486283942.17048 | pgbench_tellers_pkey  |           245760
 2017-02-05 09:39:02.170475+01 | 1486283942.17048 | pgbench_accounts_pkey |       2246197248

 2017-02-05 09:39:03.251107+01 | 1486283943.25111 | pgbench_branches_pkey |            40960
 2017-02-05 09:39:03.251107+01 | 1486283943.25111 | pgbench_tellers_pkey  |           245760
 2017-02-05 09:39:03.251107+01 | 1486283943.25111 | pgbench_accounts_pkey |       2246197248

 2017-02-05 09:39:04.335922+01 | 1486283944.33592 | pgbench_branches_pkey |            40960
 2017-02-05 09:39:04.335922+01 | 1486283944.33592 | pgbench_tellers_pkey  |           245760
 2017-02-05 09:39:04.335922+01 | 1486283944.33592 | pgbench_accounts_pkey |       2246197248

 2017-02-05 09:39:05.411175+01 | 1486283945.41118 | pgbench_branches_pkey |            40960
 2017-02-05 09:39:05.411175+01 | 1486283945.41118 | pgbench_tellers_pkey  |           245760
 2017-02-05 09:39:05.411175+01 | 1486283945.41118 | pgbench_accounts_pkey |       2246197248

 2017-02-05 09:39:06.489293+01 | 1486283946.48929 | pgbench_branches_pkey |            40960
 2017-02-05 09:39:06.489293+01 | 1486283946.48929 | pgbench_tellers_pkey  |           245760
 2017-02-05 09:39:06.489293+01 | 1486283946.48929 | pgbench_accounts_pkey |       2246197248

 2017-02-05 09:39:07.571254+01 | 1486283947.57125 | pgbench_branches_pkey |            40960
 2017-02-05 09:39:07.571254+01 | 1486283947.57125 | pgbench_tellers_pkey  |           245760
 2017-02-05 09:39:07.571254+01 | 1486283947.57125 | pgbench_accounts_pkey |       2246197248

 2017-02-05 09:39:08.652066+01 | 1486283948.65207 | pgbench_branches_pkey |            40960
 2017-02-05 09:39:08.652066+01 | 1486283948.65207 | pgbench_tellers_pkey  |           245760
 2017-02-05 09:39:08.652066+01 | 1486283948.65207 | pgbench_accounts_pkey |       2246197248

 2017-02-05 09:39:09.725967+01 | 1486283949.72597 | pgbench_branches_pkey |            40960
 2017-02-05 09:39:09.725967+01 | 1486283949.72597 | pgbench_tellers_pkey  |           245760
 2017-02-05 09:39:09.725967+01 | 1486283949.72597 | pgbench_accounts_pkey |       2246197248

 2017-02-05 09:39:10.80282+01 | 1486283950.80282 | pgbench_branches_pkey |            40960
 2017-02-05 09:39:10.80282+01 | 1486283950.80282 | pgbench_tellers_pkey  |           245760
 2017-02-05 09:39:10.80282+01 | 1486283950.80282 | pgbench_accounts_pkey |       2246197248

 2017-02-05 09:39:11.879462+01 | 1486283951.87946 | pgbench_branches_pkey |            40960
 2017-02-05 09:39:11.879462+01 | 1486283951.87946 | pgbench_tellers_pkey  |           245760
 2017-02-05 09:39:11.879462+01 | 1486283951.87946 | pgbench_accounts_pkey |       2246197248

 2017-02-05 09:39:12.958082+01 | 1486283952.95808 | pgbench_branches_pkey |            40960
 2017-02-05 09:39:12.958082+01 | 1486283952.95808 | pgbench_tellers_pkey  |           245760
 2017-02-05 09:39:12.958082+01 | 1486283952.95808 | pgbench_accounts_pkey |       2246197248

 2017-02-05 09:39:14.034246+01 | 1486283954.03425 | pgbench_branches_pkey |            40960
 2017-02-05 09:39:14.034246+01 | 1486283954.03425 | pgbench_tellers_pkey  |           245760
 2017-02-05 09:39:14.034246+01 | 1486283954.03425 | pgbench_accounts_pkey |       2246197248

 2017-02-05 09:39:15.113119+01 | 1486283955.11312 | pgbench_branches_pkey |            40960
 2017-02-05 09:39:15.113119+01 | 1486283955.11312 | pgbench_tellers_pkey  |           245760
 2017-02-05 09:39:15.113119+01 | 1486283955.11312 | pgbench_accounts_pkey |       2246197248

 2017-02-05 09:39:16.194414+01 | 1486283956.19441 | pgbench_branches_pkey |            40960
 2017-02-05 09:39:16.194414+01 | 1486283956.19441 | pgbench_tellers_pkey  |           245760
 2017-02-05 09:39:16.194414+01 | 1486283956.19441 | pgbench_accounts_pkey |       2246197248

 2017-02-05 09:39:17.277047+01 | 1486283957.27705 | pgbench_branches_pkey |            40960
 2017-02-05 09:39:17.277047+01 | 1486283957.27705 | pgbench_tellers_pkey  |           245760
 2017-02-05 09:39:17.277047+01 | 1486283957.27705 | pgbench_accounts_pkey |       2246197248

 2017-02-05 09:39:18.355373+01 | 1486283958.35537 | pgbench_branches_pkey |            40960
 2017-02-05 09:39:18.355373+01 | 1486283958.35537 | pgbench_tellers_pkey  |           245760
 2017-02-05 09:39:18.355373+01 | 1486283958.35537 | pgbench_accounts_pkey |       2246197248

 2017-02-05 09:39:19.441715+01 | 1486283959.44172 | pgbench_branches_pkey |            40960
 2017-02-05 09:39:19.441715+01 | 1486283959.44172 | pgbench_tellers_pkey  |           245760
 2017-02-05 09:39:19.441715+01 | 1486283959.44172 | pgbench_accounts_pkey |       2246197248

 2017-02-05 09:39:20.512982+01 | 1486283960.51298 | pgbench_branches_pkey |            40960
 2017-02-05 09:39:20.512982+01 | 1486283960.51298 | pgbench_tellers_pkey  |           245760
 2017-02-05 09:39:20.512982+01 | 1486283960.51298 | pgbench_accounts_pkey |       2246197248

 2017-02-05 09:39:21.583529+01 | 1486283961.58353 | pgbench_branches_pkey |            40960
 2017-02-05 09:39:21.583529+01 | 1486283961.58353 | pgbench_tellers_pkey  |           245760
 2017-02-05 09:39:21.583529+01 | 1486283961.58353 | pgbench_accounts_pkey |       2246197248

 2017-02-05 09:39:22.659182+01 | 1486283962.65918 | pgbench_branches_pkey |            40960
 2017-02-05 09:39:22.659182+01 | 1486283962.65918 | pgbench_tellers_pkey  |           245760
 2017-02-05 09:39:22.659182+01 | 1486283962.65918 | pgbench_accounts_pkey |       2246197248

 2017-02-05 09:39:23.745694+01 | 1486283963.74569 | pgbench_branches_pkey |            40960
 2017-02-05 09:39:23.745694+01 | 1486283963.74569 | pgbench_tellers_pkey  |           245760
 2017-02-05 09:39:23.745694+01 | 1486283963.74569 | pgbench_accounts_pkey |       2246197248

 2017-02-05 09:39:24.829148+01 | 1486283964.82915 | pgbench_branches_pkey |            40960
 2017-02-05 09:39:24.829148+01 | 1486283964.82915 | pgbench_tellers_pkey  |           245760
 2017-02-05 09:39:24.829148+01 | 1486283964.82915 | pgbench_accounts_pkey |       2246197248

 2017-02-05 09:39:25.908569+01 | 1486283965.90857 | pgbench_branches_pkey |            40960
 2017-02-05 09:39:25.908569+01 | 1486283965.90857 | pgbench_tellers_pkey  |           245760
 2017-02-05 09:39:25.908569+01 | 1486283965.90857 | pgbench_accounts_pkey |       2246197248

