 2017-02-03 14:31:28.997699+01 | 1486128688.9977 | pgbench_accounts |      13429514240
 2017-02-03 14:31:28.997699+01 | 1486128688.9977 | pgbench_tellers  |           450560
 2017-02-03 14:31:28.997699+01 | 1486128688.9977 | pgbench_history  |                0
 2017-02-03 14:31:28.997699+01 | 1486128688.9977 | pgbench_branches |            40960

 2017-02-03 14:31:30.117352+01 | 1486128690.11735 | pgbench_accounts |      13429514240
 2017-02-03 14:31:30.117352+01 | 1486128690.11735 | pgbench_tellers  |           450560
 2017-02-03 14:31:30.117352+01 | 1486128690.11735 | pgbench_history  |                0
 2017-02-03 14:31:30.117352+01 | 1486128690.11735 | pgbench_branches |            40960

 2017-02-03 14:31:31.230485+01 | 1486128691.23048 | pgbench_accounts |      13429514240
 2017-02-03 14:31:31.230485+01 | 1486128691.23048 | pgbench_tellers  |           450560
 2017-02-03 14:31:31.230485+01 | 1486128691.23048 | pgbench_history  |                0
 2017-02-03 14:31:31.230485+01 | 1486128691.23048 | pgbench_branches |            40960

 2017-02-03 14:31:32.36522+01 | 1486128692.36522 | pgbench_accounts |      13429514240
 2017-02-03 14:31:32.36522+01 | 1486128692.36522 | pgbench_tellers  |           450560
 2017-02-03 14:31:32.36522+01 | 1486128692.36522 | pgbench_history  |                0
 2017-02-03 14:31:32.36522+01 | 1486128692.36522 | pgbench_branches |            40960

 2017-02-03 14:31:33.486779+01 | 1486128693.48678 | pgbench_accounts |      13429514240
 2017-02-03 14:31:33.486779+01 | 1486128693.48678 | pgbench_tellers  |           450560
 2017-02-03 14:31:33.486779+01 | 1486128693.48678 | pgbench_history  |                0
 2017-02-03 14:31:33.486779+01 | 1486128693.48678 | pgbench_branches |            40960

 2017-02-03 14:31:34.631806+01 | 1486128694.63181 | pgbench_accounts |      13429514240
 2017-02-03 14:31:34.631806+01 | 1486128694.63181 | pgbench_tellers  |           450560
 2017-02-03 14:31:34.631806+01 | 1486128694.63181 | pgbench_history  |                0
 2017-02-03 14:31:34.631806+01 | 1486128694.63181 | pgbench_branches |            40960

 2017-02-03 14:31:35.753421+01 | 1486128695.75342 | pgbench_accounts |      13429514240
 2017-02-03 14:31:35.753421+01 | 1486128695.75342 | pgbench_tellers  |           450560
 2017-02-03 14:31:35.753421+01 | 1486128695.75342 | pgbench_history  |                0
 2017-02-03 14:31:35.753421+01 | 1486128695.75342 | pgbench_branches |            40960

 2017-02-03 14:31:36.867249+01 | 1486128696.86725 | pgbench_accounts |      13429514240
 2017-02-03 14:31:36.867249+01 | 1486128696.86725 | pgbench_tellers  |           450560
 2017-02-03 14:31:36.867249+01 | 1486128696.86725 | pgbench_history  |                0
 2017-02-03 14:31:36.867249+01 | 1486128696.86725 | pgbench_branches |            40960

 2017-02-03 14:31:37.995133+01 | 1486128697.99513 | pgbench_accounts |      13429514240
 2017-02-03 14:31:37.995133+01 | 1486128697.99513 | pgbench_tellers  |           450560
 2017-02-03 14:31:37.995133+01 | 1486128697.99513 | pgbench_history  |                0
 2017-02-03 14:31:37.995133+01 | 1486128697.99513 | pgbench_branches |            40960

 2017-02-03 14:31:39.092713+01 | 1486128699.09271 | pgbench_accounts |      13429514240
 2017-02-03 14:31:39.092713+01 | 1486128699.09271 | pgbench_tellers  |           450560
 2017-02-03 14:31:39.092713+01 | 1486128699.09271 | pgbench_history  |                0
 2017-02-03 14:31:39.092713+01 | 1486128699.09271 | pgbench_branches |            40960

 2017-02-03 14:31:40.239381+01 | 1486128700.23938 | pgbench_accounts |      13429514240
 2017-02-03 14:31:40.239381+01 | 1486128700.23938 | pgbench_tellers  |           450560
 2017-02-03 14:31:40.239381+01 | 1486128700.23938 | pgbench_history  |                0
 2017-02-03 14:31:40.239381+01 | 1486128700.23938 | pgbench_branches |            40960

 2017-02-03 14:31:41.365276+01 | 1486128701.36528 | pgbench_accounts |      13429514240
 2017-02-03 14:31:41.365276+01 | 1486128701.36528 | pgbench_tellers  |           450560
 2017-02-03 14:31:41.365276+01 | 1486128701.36528 | pgbench_history  |                0
 2017-02-03 14:31:41.365276+01 | 1486128701.36528 | pgbench_branches |            40960

 2017-02-03 14:31:42.517185+01 | 1486128702.51718 | pgbench_accounts |      13429514240
 2017-02-03 14:31:42.517185+01 | 1486128702.51718 | pgbench_tellers  |           450560
 2017-02-03 14:31:42.517185+01 | 1486128702.51718 | pgbench_history  |                0
 2017-02-03 14:31:42.517185+01 | 1486128702.51718 | pgbench_branches |            40960

 2017-02-03 14:31:43.666916+01 | 1486128703.66692 | pgbench_accounts |      13429514240
 2017-02-03 14:31:43.666916+01 | 1486128703.66692 | pgbench_tellers  |           450560
 2017-02-03 14:31:43.666916+01 | 1486128703.66692 | pgbench_history  |                0
 2017-02-03 14:31:43.666916+01 | 1486128703.66692 | pgbench_branches |            40960

 2017-02-03 14:31:44.806982+01 | 1486128704.80698 | pgbench_accounts |      13429514240
 2017-02-03 14:31:44.806982+01 | 1486128704.80698 | pgbench_tellers  |           450560
 2017-02-03 14:31:44.806982+01 | 1486128704.80698 | pgbench_history  |                0
 2017-02-03 14:31:44.806982+01 | 1486128704.80698 | pgbench_branches |            40960

 2017-02-03 14:31:45.938014+01 | 1486128705.93801 | pgbench_accounts |      13429514240
 2017-02-03 14:31:45.938014+01 | 1486128705.93801 | pgbench_tellers  |           450560
 2017-02-03 14:31:45.938014+01 | 1486128705.93801 | pgbench_history  |                0
 2017-02-03 14:31:45.938014+01 | 1486128705.93801 | pgbench_branches |            40960

 2017-02-03 14:31:47.063313+01 | 1486128707.06331 | pgbench_accounts |      13429514240
 2017-02-03 14:31:47.063313+01 | 1486128707.06331 | pgbench_tellers  |           450560
 2017-02-03 14:31:47.063313+01 | 1486128707.06331 | pgbench_history  |                0
 2017-02-03 14:31:47.063313+01 | 1486128707.06331 | pgbench_branches |            40960

 2017-02-03 14:31:48.185958+01 | 1486128708.18596 | pgbench_accounts |      13429514240
 2017-02-03 14:31:48.185958+01 | 1486128708.18596 | pgbench_tellers  |           450560
 2017-02-03 14:31:48.185958+01 | 1486128708.18596 | pgbench_history  |                0
 2017-02-03 14:31:48.185958+01 | 1486128708.18596 | pgbench_branches |            40960

 2017-02-03 14:31:49.332069+01 | 1486128709.33207 | pgbench_accounts |      13429514240
 2017-02-03 14:31:49.332069+01 | 1486128709.33207 | pgbench_tellers  |           450560
 2017-02-03 14:31:49.332069+01 | 1486128709.33207 | pgbench_history  |                0
 2017-02-03 14:31:49.332069+01 | 1486128709.33207 | pgbench_branches |            40960

 2017-02-03 14:31:50.464028+01 | 1486128710.46403 | pgbench_accounts |      13429514240
 2017-02-03 14:31:50.464028+01 | 1486128710.46403 | pgbench_tellers  |           450560
 2017-02-03 14:31:50.464028+01 | 1486128710.46403 | pgbench_history  |                0
 2017-02-03 14:31:50.464028+01 | 1486128710.46403 | pgbench_branches |            40960

 2017-02-03 14:31:51.58197+01 | 1486128711.58197 | pgbench_accounts |      13429514240
 2017-02-03 14:31:51.58197+01 | 1486128711.58197 | pgbench_tellers  |           450560
 2017-02-03 14:31:51.58197+01 | 1486128711.58197 | pgbench_history  |                0
 2017-02-03 14:31:51.58197+01 | 1486128711.58197 | pgbench_branches |            40960

 2017-02-03 14:31:52.725185+01 | 1486128712.72518 | pgbench_accounts |      13429514240
 2017-02-03 14:31:52.725185+01 | 1486128712.72518 | pgbench_tellers  |           450560
 2017-02-03 14:31:52.725185+01 | 1486128712.72518 | pgbench_history  |                0
 2017-02-03 14:31:52.725185+01 | 1486128712.72518 | pgbench_branches |            40960

 2017-02-03 14:31:53.878252+01 | 1486128713.87825 | pgbench_accounts |      13429514240
 2017-02-03 14:31:53.878252+01 | 1486128713.87825 | pgbench_tellers  |           450560
 2017-02-03 14:31:53.878252+01 | 1486128713.87825 | pgbench_history  |                0
 2017-02-03 14:31:53.878252+01 | 1486128713.87825 | pgbench_branches |            40960

 2017-02-03 14:31:55.00655+01 | 1486128715.00655 | pgbench_accounts |      13429514240
 2017-02-03 14:31:55.00655+01 | 1486128715.00655 | pgbench_tellers  |           450560
 2017-02-03 14:31:55.00655+01 | 1486128715.00655 | pgbench_history  |                0
 2017-02-03 14:31:55.00655+01 | 1486128715.00655 | pgbench_branches |            40960

 2017-02-03 14:31:56.148061+01 | 1486128716.14806 | pgbench_accounts |      13429514240
 2017-02-03 14:31:56.148061+01 | 1486128716.14806 | pgbench_tellers  |           450560
 2017-02-03 14:31:56.148061+01 | 1486128716.14806 | pgbench_history  |                0
 2017-02-03 14:31:56.148061+01 | 1486128716.14806 | pgbench_branches |            40960

 2017-02-03 14:31:57.281407+01 | 1486128717.28141 | pgbench_accounts |      13429514240
 2017-02-03 14:31:57.281407+01 | 1486128717.28141 | pgbench_tellers  |           450560
 2017-02-03 14:31:57.281407+01 | 1486128717.28141 | pgbench_history  |                0
 2017-02-03 14:31:57.281407+01 | 1486128717.28141 | pgbench_branches |            40960

 2017-02-03 14:31:58.442069+01 | 1486128718.44207 | pgbench_accounts |      13429514240
 2017-02-03 14:31:58.442069+01 | 1486128718.44207 | pgbench_tellers  |           450560
 2017-02-03 14:31:58.442069+01 | 1486128718.44207 | pgbench_history  |                0
 2017-02-03 14:31:58.442069+01 | 1486128718.44207 | pgbench_branches |            40960

 2017-02-03 14:31:59.564875+01 | 1486128719.56487 | pgbench_accounts |      13429514240
 2017-02-03 14:31:59.564875+01 | 1486128719.56487 | pgbench_tellers  |           450560
 2017-02-03 14:31:59.564875+01 | 1486128719.56487 | pgbench_history  |                0
 2017-02-03 14:31:59.564875+01 | 1486128719.56487 | pgbench_branches |            40960

 2017-02-03 14:32:00.669824+01 | 1486128720.66982 | pgbench_accounts |      13429514240
 2017-02-03 14:32:00.669824+01 | 1486128720.66982 | pgbench_tellers  |           450560
 2017-02-03 14:32:00.669824+01 | 1486128720.66982 | pgbench_history  |                0
 2017-02-03 14:32:00.669824+01 | 1486128720.66982 | pgbench_branches |            40960

 2017-02-03 14:32:01.796418+01 | 1486128721.79642 | pgbench_accounts |      13429514240
 2017-02-03 14:32:01.796418+01 | 1486128721.79642 | pgbench_tellers  |           450560
 2017-02-03 14:32:01.796418+01 | 1486128721.79642 | pgbench_history  |                0
 2017-02-03 14:32:01.796418+01 | 1486128721.79642 | pgbench_branches |            40960

 2017-02-03 14:32:02.906965+01 | 1486128722.90697 | pgbench_accounts |      13429514240
 2017-02-03 14:32:02.906965+01 | 1486128722.90697 | pgbench_tellers  |           450560
 2017-02-03 14:32:02.906965+01 | 1486128722.90697 | pgbench_history  |                0
 2017-02-03 14:32:02.906965+01 | 1486128722.90697 | pgbench_branches |            40960

 2017-02-03 14:32:04.071725+01 | 1486128724.07172 | pgbench_accounts |      13429514240
 2017-02-03 14:32:04.071725+01 | 1486128724.07172 | pgbench_tellers  |           450560
 2017-02-03 14:32:04.071725+01 | 1486128724.07172 | pgbench_history  |                0
 2017-02-03 14:32:04.071725+01 | 1486128724.07172 | pgbench_branches |            40960

 2017-02-03 14:32:05.203608+01 | 1486128725.20361 | pgbench_accounts |      13429514240
 2017-02-03 14:32:05.203608+01 | 1486128725.20361 | pgbench_tellers  |           450560
 2017-02-03 14:32:05.203608+01 | 1486128725.20361 | pgbench_history  |                0
 2017-02-03 14:32:05.203608+01 | 1486128725.20361 | pgbench_branches |            40960

 2017-02-03 14:32:06.335528+01 | 1486128726.33553 | pgbench_accounts |      13429514240
 2017-02-03 14:32:06.335528+01 | 1486128726.33553 | pgbench_tellers  |           450560
 2017-02-03 14:32:06.335528+01 | 1486128726.33553 | pgbench_history  |                0
 2017-02-03 14:32:06.335528+01 | 1486128726.33553 | pgbench_branches |            40960

 2017-02-03 14:32:07.449816+01 | 1486128727.44982 | pgbench_accounts |      13429514240
 2017-02-03 14:32:07.449816+01 | 1486128727.44982 | pgbench_tellers  |           450560
 2017-02-03 14:32:07.449816+01 | 1486128727.44982 | pgbench_history  |                0
 2017-02-03 14:32:07.449816+01 | 1486128727.44982 | pgbench_branches |            40960

 2017-02-03 14:32:08.598139+01 | 1486128728.59814 | pgbench_accounts |      13429514240
 2017-02-03 14:32:08.598139+01 | 1486128728.59814 | pgbench_tellers  |           450560
 2017-02-03 14:32:08.598139+01 | 1486128728.59814 | pgbench_history  |                0
 2017-02-03 14:32:08.598139+01 | 1486128728.59814 | pgbench_branches |            40960

 2017-02-03 14:32:09.719871+01 | 1486128729.71987 | pgbench_accounts |      13429514240
 2017-02-03 14:32:09.719871+01 | 1486128729.71987 | pgbench_tellers  |           450560
 2017-02-03 14:32:09.719871+01 | 1486128729.71987 | pgbench_history  |                0
 2017-02-03 14:32:09.719871+01 | 1486128729.71987 | pgbench_branches |            40960

 2017-02-03 14:32:10.835184+01 | 1486128730.83518 | pgbench_accounts |      13429514240
 2017-02-03 14:32:10.835184+01 | 1486128730.83518 | pgbench_tellers  |           450560
 2017-02-03 14:32:10.835184+01 | 1486128730.83518 | pgbench_history  |                0
 2017-02-03 14:32:10.835184+01 | 1486128730.83518 | pgbench_branches |            40960

 2017-02-03 14:32:11.980279+01 | 1486128731.98028 | pgbench_accounts |      13429514240
 2017-02-03 14:32:11.980279+01 | 1486128731.98028 | pgbench_tellers  |           450560
 2017-02-03 14:32:11.980279+01 | 1486128731.98028 | pgbench_history  |                0
 2017-02-03 14:32:11.980279+01 | 1486128731.98028 | pgbench_branches |            40960

 2017-02-03 14:32:13.162504+01 | 1486128733.1625 | pgbench_accounts |      13429514240
 2017-02-03 14:32:13.162504+01 | 1486128733.1625 | pgbench_tellers  |           450560
 2017-02-03 14:32:13.162504+01 | 1486128733.1625 | pgbench_history  |                0
 2017-02-03 14:32:13.162504+01 | 1486128733.1625 | pgbench_branches |            40960

 2017-02-03 14:32:14.332743+01 | 1486128734.33274 | pgbench_accounts |      13429514240
 2017-02-03 14:32:14.332743+01 | 1486128734.33274 | pgbench_tellers  |           450560
 2017-02-03 14:32:14.332743+01 | 1486128734.33274 | pgbench_history  |                0
 2017-02-03 14:32:14.332743+01 | 1486128734.33274 | pgbench_branches |            40960

 2017-02-03 14:32:15.463708+01 | 1486128735.46371 | pgbench_accounts |      13429514240
 2017-02-03 14:32:15.463708+01 | 1486128735.46371 | pgbench_tellers  |           450560
 2017-02-03 14:32:15.463708+01 | 1486128735.46371 | pgbench_history  |                0
 2017-02-03 14:32:15.463708+01 | 1486128735.46371 | pgbench_branches |            40960

 2017-02-03 14:32:16.584989+01 | 1486128736.58499 | pgbench_accounts |      13429514240
 2017-02-03 14:32:16.584989+01 | 1486128736.58499 | pgbench_tellers  |           450560
 2017-02-03 14:32:16.584989+01 | 1486128736.58499 | pgbench_history  |                0
 2017-02-03 14:32:16.584989+01 | 1486128736.58499 | pgbench_branches |            40960

 2017-02-03 14:32:17.722657+01 | 1486128737.72266 | pgbench_accounts |      13429514240
 2017-02-03 14:32:17.722657+01 | 1486128737.72266 | pgbench_tellers  |           450560
 2017-02-03 14:32:17.722657+01 | 1486128737.72266 | pgbench_history  |                0
 2017-02-03 14:32:17.722657+01 | 1486128737.72266 | pgbench_branches |            40960

 2017-02-03 14:32:18.858141+01 | 1486128738.85814 | pgbench_accounts |      13429514240
 2017-02-03 14:32:18.858141+01 | 1486128738.85814 | pgbench_tellers  |           450560
 2017-02-03 14:32:18.858141+01 | 1486128738.85814 | pgbench_history  |                0
 2017-02-03 14:32:18.858141+01 | 1486128738.85814 | pgbench_branches |            40960

 2017-02-03 14:32:20.004946+01 | 1486128740.00495 | pgbench_accounts |      13429514240
 2017-02-03 14:32:20.004946+01 | 1486128740.00495 | pgbench_tellers  |           450560
 2017-02-03 14:32:20.004946+01 | 1486128740.00495 | pgbench_history  |                0
 2017-02-03 14:32:20.004946+01 | 1486128740.00495 | pgbench_branches |            40960

 2017-02-03 14:32:21.138467+01 | 1486128741.13847 | pgbench_accounts |      13429514240
 2017-02-03 14:32:21.138467+01 | 1486128741.13847 | pgbench_tellers  |           450560
 2017-02-03 14:32:21.138467+01 | 1486128741.13847 | pgbench_history  |                0
 2017-02-03 14:32:21.138467+01 | 1486128741.13847 | pgbench_branches |            40960

 2017-02-03 14:32:22.276342+01 | 1486128742.27634 | pgbench_accounts |      13429514240
 2017-02-03 14:32:22.276342+01 | 1486128742.27634 | pgbench_tellers  |           450560
 2017-02-03 14:32:22.276342+01 | 1486128742.27634 | pgbench_history  |                0
 2017-02-03 14:32:22.276342+01 | 1486128742.27634 | pgbench_branches |            40960

 2017-02-03 14:32:23.429081+01 | 1486128743.42908 | pgbench_accounts |      13429514240
 2017-02-03 14:32:23.429081+01 | 1486128743.42908 | pgbench_tellers  |           450560
 2017-02-03 14:32:23.429081+01 | 1486128743.42908 | pgbench_history  |                0
 2017-02-03 14:32:23.429081+01 | 1486128743.42908 | pgbench_branches |            40960

 2017-02-03 14:32:24.570954+01 | 1486128744.57095 | pgbench_accounts |      13429514240
 2017-02-03 14:32:24.570954+01 | 1486128744.57095 | pgbench_tellers  |           450560
 2017-02-03 14:32:24.570954+01 | 1486128744.57095 | pgbench_history  |                0
 2017-02-03 14:32:24.570954+01 | 1486128744.57095 | pgbench_branches |            40960

 2017-02-03 14:32:25.684323+01 | 1486128745.68432 | pgbench_accounts |      13429514240
 2017-02-03 14:32:25.684323+01 | 1486128745.68432 | pgbench_tellers  |           450560
 2017-02-03 14:32:25.684323+01 | 1486128745.68432 | pgbench_history  |                0
 2017-02-03 14:32:25.684323+01 | 1486128745.68432 | pgbench_branches |            40960

 2017-02-03 14:32:26.827092+01 | 1486128746.82709 | pgbench_accounts |      13429514240
 2017-02-03 14:32:26.827092+01 | 1486128746.82709 | pgbench_tellers  |           450560
 2017-02-03 14:32:26.827092+01 | 1486128746.82709 | pgbench_history  |                0
 2017-02-03 14:32:26.827092+01 | 1486128746.82709 | pgbench_branches |            40960

 2017-02-03 14:32:27.976957+01 | 1486128747.97696 | pgbench_accounts |      13429514240
 2017-02-03 14:32:27.976957+01 | 1486128747.97696 | pgbench_tellers  |           450560
 2017-02-03 14:32:27.976957+01 | 1486128747.97696 | pgbench_history  |                0
 2017-02-03 14:32:27.976957+01 | 1486128747.97696 | pgbench_branches |            40960

 2017-02-03 14:32:29.102391+01 | 1486128749.10239 | pgbench_accounts |      13429514240
 2017-02-03 14:32:29.102391+01 | 1486128749.10239 | pgbench_tellers  |           450560
 2017-02-03 14:32:29.102391+01 | 1486128749.10239 | pgbench_history  |                0
 2017-02-03 14:32:29.102391+01 | 1486128749.10239 | pgbench_branches |            40960

 2017-02-03 14:32:30.227036+01 | 1486128750.22704 | pgbench_accounts |      13429514240
 2017-02-03 14:32:30.227036+01 | 1486128750.22704 | pgbench_tellers  |           450560
 2017-02-03 14:32:30.227036+01 | 1486128750.22704 | pgbench_history  |                0
 2017-02-03 14:32:30.227036+01 | 1486128750.22704 | pgbench_branches |            40960

 2017-02-03 14:32:31.36036+01 | 1486128751.36036 | pgbench_accounts |      13429514240
 2017-02-03 14:32:31.36036+01 | 1486128751.36036 | pgbench_tellers  |           450560
 2017-02-03 14:32:31.36036+01 | 1486128751.36036 | pgbench_history  |                0
 2017-02-03 14:32:31.36036+01 | 1486128751.36036 | pgbench_branches |            40960

 2017-02-03 14:32:32.484183+01 | 1486128752.48418 | pgbench_accounts |      13429514240
 2017-02-03 14:32:32.484183+01 | 1486128752.48418 | pgbench_tellers  |           450560
 2017-02-03 14:32:32.484183+01 | 1486128752.48418 | pgbench_history  |                0
 2017-02-03 14:32:32.484183+01 | 1486128752.48418 | pgbench_branches |            40960

 2017-02-03 14:32:33.637076+01 | 1486128753.63708 | pgbench_accounts |      13429514240
 2017-02-03 14:32:33.637076+01 | 1486128753.63708 | pgbench_tellers  |           450560
 2017-02-03 14:32:33.637076+01 | 1486128753.63708 | pgbench_history  |                0
 2017-02-03 14:32:33.637076+01 | 1486128753.63708 | pgbench_branches |            40960

 2017-02-03 14:32:34.764256+01 | 1486128754.76426 | pgbench_accounts |      13429514240
 2017-02-03 14:32:34.764256+01 | 1486128754.76426 | pgbench_tellers  |           450560
 2017-02-03 14:32:34.764256+01 | 1486128754.76426 | pgbench_history  |                0
 2017-02-03 14:32:34.764256+01 | 1486128754.76426 | pgbench_branches |            40960

 2017-02-03 14:32:35.875379+01 | 1486128755.87538 | pgbench_accounts |      13429514240
 2017-02-03 14:32:35.875379+01 | 1486128755.87538 | pgbench_tellers  |           450560
 2017-02-03 14:32:35.875379+01 | 1486128755.87538 | pgbench_history  |                0
 2017-02-03 14:32:35.875379+01 | 1486128755.87538 | pgbench_branches |            40960

 2017-02-03 14:32:36.99268+01 | 1486128756.99268 | pgbench_accounts |      13429514240
 2017-02-03 14:32:36.99268+01 | 1486128756.99268 | pgbench_tellers  |           450560
 2017-02-03 14:32:36.99268+01 | 1486128756.99268 | pgbench_history  |                0
 2017-02-03 14:32:36.99268+01 | 1486128756.99268 | pgbench_branches |            40960

 2017-02-03 14:32:38.108507+01 | 1486128758.10851 | pgbench_accounts |      13429514240
 2017-02-03 14:32:38.108507+01 | 1486128758.10851 | pgbench_tellers  |           450560
 2017-02-03 14:32:38.108507+01 | 1486128758.10851 | pgbench_history  |                0
 2017-02-03 14:32:38.108507+01 | 1486128758.10851 | pgbench_branches |            40960

 2017-02-03 14:32:39.26103+01 | 1486128759.26103 | pgbench_accounts |      13429514240
 2017-02-03 14:32:39.26103+01 | 1486128759.26103 | pgbench_tellers  |           450560
 2017-02-03 14:32:39.26103+01 | 1486128759.26103 | pgbench_history  |                0
 2017-02-03 14:32:39.26103+01 | 1486128759.26103 | pgbench_branches |            40960

 2017-02-03 14:32:40.405934+01 | 1486128760.40593 | pgbench_accounts |      13429514240
 2017-02-03 14:32:40.405934+01 | 1486128760.40593 | pgbench_tellers  |           450560
 2017-02-03 14:32:40.405934+01 | 1486128760.40593 | pgbench_history  |                0
 2017-02-03 14:32:40.405934+01 | 1486128760.40593 | pgbench_branches |            40960

 2017-02-03 14:32:41.533661+01 | 1486128761.53366 | pgbench_accounts |      13429514240
 2017-02-03 14:32:41.533661+01 | 1486128761.53366 | pgbench_tellers  |           450560
 2017-02-03 14:32:41.533661+01 | 1486128761.53366 | pgbench_history  |                0
 2017-02-03 14:32:41.533661+01 | 1486128761.53366 | pgbench_branches |            40960

 2017-02-03 14:32:42.690122+01 | 1486128762.69012 | pgbench_accounts |      13429514240
 2017-02-03 14:32:42.690122+01 | 1486128762.69012 | pgbench_tellers  |           450560
 2017-02-03 14:32:42.690122+01 | 1486128762.69012 | pgbench_history  |                0
 2017-02-03 14:32:42.690122+01 | 1486128762.69012 | pgbench_branches |            40960

 2017-02-03 14:32:43.837435+01 | 1486128763.83744 | pgbench_accounts |      13429514240
 2017-02-03 14:32:43.837435+01 | 1486128763.83744 | pgbench_tellers  |           450560
 2017-02-03 14:32:43.837435+01 | 1486128763.83744 | pgbench_history  |                0
 2017-02-03 14:32:43.837435+01 | 1486128763.83744 | pgbench_branches |            40960

 2017-02-03 14:32:44.976629+01 | 1486128764.97663 | pgbench_accounts |      13429514240
 2017-02-03 14:32:44.976629+01 | 1486128764.97663 | pgbench_tellers  |           450560
 2017-02-03 14:32:44.976629+01 | 1486128764.97663 | pgbench_history  |                0
 2017-02-03 14:32:44.976629+01 | 1486128764.97663 | pgbench_branches |            40960

 2017-02-03 14:32:46.105327+01 | 1486128766.10533 | pgbench_accounts |      13429514240
 2017-02-03 14:32:46.105327+01 | 1486128766.10533 | pgbench_tellers  |           450560
 2017-02-03 14:32:46.105327+01 | 1486128766.10533 | pgbench_history  |                0
 2017-02-03 14:32:46.105327+01 | 1486128766.10533 | pgbench_branches |            40960

 2017-02-03 14:32:47.238511+01 | 1486128767.23851 | pgbench_accounts |      13429514240
 2017-02-03 14:32:47.238511+01 | 1486128767.23851 | pgbench_tellers  |           450560
 2017-02-03 14:32:47.238511+01 | 1486128767.23851 | pgbench_history  |                0
 2017-02-03 14:32:47.238511+01 | 1486128767.23851 | pgbench_branches |            40960

 2017-02-03 14:32:48.357739+01 | 1486128768.35774 | pgbench_accounts |      13429514240
 2017-02-03 14:32:48.357739+01 | 1486128768.35774 | pgbench_tellers  |           450560
 2017-02-03 14:32:48.357739+01 | 1486128768.35774 | pgbench_history  |                0
 2017-02-03 14:32:48.357739+01 | 1486128768.35774 | pgbench_branches |            40960

 2017-02-03 14:32:49.470029+01 | 1486128769.47003 | pgbench_accounts |      13429514240
 2017-02-03 14:32:49.470029+01 | 1486128769.47003 | pgbench_tellers  |           450560
 2017-02-03 14:32:49.470029+01 | 1486128769.47003 | pgbench_history  |                0
 2017-02-03 14:32:49.470029+01 | 1486128769.47003 | pgbench_branches |            40960

 2017-02-03 14:32:50.595646+01 | 1486128770.59565 | pgbench_accounts |      13429514240
 2017-02-03 14:32:50.595646+01 | 1486128770.59565 | pgbench_tellers  |           450560
 2017-02-03 14:32:50.595646+01 | 1486128770.59565 | pgbench_history  |                0
 2017-02-03 14:32:50.595646+01 | 1486128770.59565 | pgbench_branches |            40960

 2017-02-03 14:32:51.733415+01 | 1486128771.73341 | pgbench_accounts |      13429514240
 2017-02-03 14:32:51.733415+01 | 1486128771.73341 | pgbench_tellers  |           450560
 2017-02-03 14:32:51.733415+01 | 1486128771.73341 | pgbench_history  |                0
 2017-02-03 14:32:51.733415+01 | 1486128771.73341 | pgbench_branches |            40960

 2017-02-03 14:32:52.899284+01 | 1486128772.89928 | pgbench_accounts |      13429514240
 2017-02-03 14:32:52.899284+01 | 1486128772.89928 | pgbench_tellers  |           450560
 2017-02-03 14:32:52.899284+01 | 1486128772.89928 | pgbench_history  |                0
 2017-02-03 14:32:52.899284+01 | 1486128772.89928 | pgbench_branches |            40960

 2017-02-03 14:32:54.042922+01 | 1486128774.04292 | pgbench_accounts |      13429514240
 2017-02-03 14:32:54.042922+01 | 1486128774.04292 | pgbench_tellers  |           450560
 2017-02-03 14:32:54.042922+01 | 1486128774.04292 | pgbench_history  |                0
 2017-02-03 14:32:54.042922+01 | 1486128774.04292 | pgbench_branches |            40960

 2017-02-03 14:32:55.171972+01 | 1486128775.17197 | pgbench_accounts |      13429514240
 2017-02-03 14:32:55.171972+01 | 1486128775.17197 | pgbench_tellers  |           450560
 2017-02-03 14:32:55.171972+01 | 1486128775.17197 | pgbench_history  |                0
 2017-02-03 14:32:55.171972+01 | 1486128775.17197 | pgbench_branches |            40960

 2017-02-03 14:32:56.29883+01 | 1486128776.29883 | pgbench_accounts |      13429514240
 2017-02-03 14:32:56.29883+01 | 1486128776.29883 | pgbench_tellers  |           450560
 2017-02-03 14:32:56.29883+01 | 1486128776.29883 | pgbench_history  |                0
 2017-02-03 14:32:56.29883+01 | 1486128776.29883 | pgbench_branches |            40960

 2017-02-03 14:32:57.432901+01 | 1486128777.4329 | pgbench_accounts |      13429514240
 2017-02-03 14:32:57.432901+01 | 1486128777.4329 | pgbench_tellers  |           450560
 2017-02-03 14:32:57.432901+01 | 1486128777.4329 | pgbench_history  |                0
 2017-02-03 14:32:57.432901+01 | 1486128777.4329 | pgbench_branches |            40960

 2017-02-03 14:32:58.597538+01 | 1486128778.59754 | pgbench_accounts |      13429514240
 2017-02-03 14:32:58.597538+01 | 1486128778.59754 | pgbench_tellers  |           450560
 2017-02-03 14:32:58.597538+01 | 1486128778.59754 | pgbench_history  |                0
 2017-02-03 14:32:58.597538+01 | 1486128778.59754 | pgbench_branches |            40960

 2017-02-03 14:32:59.729922+01 | 1486128779.72992 | pgbench_accounts |      13429514240
 2017-02-03 14:32:59.729922+01 | 1486128779.72992 | pgbench_tellers  |           450560
 2017-02-03 14:32:59.729922+01 | 1486128779.72992 | pgbench_history  |                0
 2017-02-03 14:32:59.729922+01 | 1486128779.72992 | pgbench_branches |            40960

 2017-02-03 14:33:00.877512+01 | 1486128780.87751 | pgbench_accounts |      13429514240
 2017-02-03 14:33:00.877512+01 | 1486128780.87751 | pgbench_tellers  |           450560
 2017-02-03 14:33:00.877512+01 | 1486128780.87751 | pgbench_history  |                0
 2017-02-03 14:33:00.877512+01 | 1486128780.87751 | pgbench_branches |            40960

 2017-02-03 14:33:01.998086+01 | 1486128781.99809 | pgbench_accounts |      13429514240
 2017-02-03 14:33:01.998086+01 | 1486128781.99809 | pgbench_tellers  |           450560
 2017-02-03 14:33:01.998086+01 | 1486128781.99809 | pgbench_history  |                0
 2017-02-03 14:33:01.998086+01 | 1486128781.99809 | pgbench_branches |            40960

 2017-02-03 14:33:03.129263+01 | 1486128783.12926 | pgbench_accounts |      13429514240
 2017-02-03 14:33:03.129263+01 | 1486128783.12926 | pgbench_tellers  |           450560
 2017-02-03 14:33:03.129263+01 | 1486128783.12926 | pgbench_history  |                0
 2017-02-03 14:33:03.129263+01 | 1486128783.12926 | pgbench_branches |            40960

 2017-02-03 14:33:04.289783+01 | 1486128784.28978 | pgbench_accounts |      13429514240
 2017-02-03 14:33:04.289783+01 | 1486128784.28978 | pgbench_tellers  |           450560
 2017-02-03 14:33:04.289783+01 | 1486128784.28978 | pgbench_history  |                0
 2017-02-03 14:33:04.289783+01 | 1486128784.28978 | pgbench_branches |            40960

 2017-02-03 14:33:05.425986+01 | 1486128785.42599 | pgbench_accounts |      13429514240
 2017-02-03 14:33:05.425986+01 | 1486128785.42599 | pgbench_tellers  |           450560
 2017-02-03 14:33:05.425986+01 | 1486128785.42599 | pgbench_history  |                0
 2017-02-03 14:33:05.425986+01 | 1486128785.42599 | pgbench_branches |            40960

 2017-02-03 14:33:06.561178+01 | 1486128786.56118 | pgbench_accounts |      13429514240
 2017-02-03 14:33:06.561178+01 | 1486128786.56118 | pgbench_tellers  |           450560
 2017-02-03 14:33:06.561178+01 | 1486128786.56118 | pgbench_history  |                0
 2017-02-03 14:33:06.561178+01 | 1486128786.56118 | pgbench_branches |            40960

 2017-02-03 14:33:07.700755+01 | 1486128787.70075 | pgbench_accounts |      13429514240
 2017-02-03 14:33:07.700755+01 | 1486128787.70075 | pgbench_tellers  |           450560
 2017-02-03 14:33:07.700755+01 | 1486128787.70075 | pgbench_history  |                0
 2017-02-03 14:33:07.700755+01 | 1486128787.70075 | pgbench_branches |            40960

 2017-02-03 14:33:08.81482+01 | 1486128788.81482 | pgbench_accounts |      13429514240
 2017-02-03 14:33:08.81482+01 | 1486128788.81482 | pgbench_tellers  |           450560
 2017-02-03 14:33:08.81482+01 | 1486128788.81482 | pgbench_history  |                0
 2017-02-03 14:33:08.81482+01 | 1486128788.81482 | pgbench_branches |            40960

 2017-02-03 14:33:09.934895+01 | 1486128789.9349 | pgbench_accounts |      13429514240
 2017-02-03 14:33:09.934895+01 | 1486128789.9349 | pgbench_tellers  |           450560
 2017-02-03 14:33:09.934895+01 | 1486128789.9349 | pgbench_history  |                0
 2017-02-03 14:33:09.934895+01 | 1486128789.9349 | pgbench_branches |            40960

 2017-02-03 14:33:11.067817+01 | 1486128791.06782 | pgbench_accounts |      13429514240
 2017-02-03 14:33:11.067817+01 | 1486128791.06782 | pgbench_tellers  |           450560
 2017-02-03 14:33:11.067817+01 | 1486128791.06782 | pgbench_history  |                0
 2017-02-03 14:33:11.067817+01 | 1486128791.06782 | pgbench_branches |            40960

 2017-02-03 14:33:12.219484+01 | 1486128792.21948 | pgbench_accounts |      13429514240
 2017-02-03 14:33:12.219484+01 | 1486128792.21948 | pgbench_tellers  |           450560
 2017-02-03 14:33:12.219484+01 | 1486128792.21948 | pgbench_history  |                0
 2017-02-03 14:33:12.219484+01 | 1486128792.21948 | pgbench_branches |            40960

 2017-02-03 14:33:13.350224+01 | 1486128793.35022 | pgbench_accounts |      13429514240
 2017-02-03 14:33:13.350224+01 | 1486128793.35022 | pgbench_tellers  |           450560
 2017-02-03 14:33:13.350224+01 | 1486128793.35022 | pgbench_history  |                0
 2017-02-03 14:33:13.350224+01 | 1486128793.35022 | pgbench_branches |            40960

 2017-02-03 14:33:14.503739+01 | 1486128794.50374 | pgbench_accounts |      13429514240
 2017-02-03 14:33:14.503739+01 | 1486128794.50374 | pgbench_tellers  |           450560
 2017-02-03 14:33:14.503739+01 | 1486128794.50374 | pgbench_history  |                0
 2017-02-03 14:33:14.503739+01 | 1486128794.50374 | pgbench_branches |            40960

 2017-02-03 14:33:15.632762+01 | 1486128795.63276 | pgbench_accounts |      13429514240
 2017-02-03 14:33:15.632762+01 | 1486128795.63276 | pgbench_tellers  |           450560
 2017-02-03 14:33:15.632762+01 | 1486128795.63276 | pgbench_history  |                0
 2017-02-03 14:33:15.632762+01 | 1486128795.63276 | pgbench_branches |            40960

 2017-02-03 14:33:16.767595+01 | 1486128796.7676 | pgbench_accounts |      13429514240
 2017-02-03 14:33:16.767595+01 | 1486128796.7676 | pgbench_tellers  |           450560
 2017-02-03 14:33:16.767595+01 | 1486128796.7676 | pgbench_history  |                0
 2017-02-03 14:33:16.767595+01 | 1486128796.7676 | pgbench_branches |            40960

 2017-02-03 14:33:17.902141+01 | 1486128797.90214 | pgbench_accounts |      13429514240
 2017-02-03 14:33:17.902141+01 | 1486128797.90214 | pgbench_tellers  |           450560
 2017-02-03 14:33:17.902141+01 | 1486128797.90214 | pgbench_history  |                0
 2017-02-03 14:33:17.902141+01 | 1486128797.90214 | pgbench_branches |            40960

 2017-02-03 14:33:19.032646+01 | 1486128799.03265 | pgbench_accounts |      13429514240
 2017-02-03 14:33:19.032646+01 | 1486128799.03265 | pgbench_tellers  |           450560
 2017-02-03 14:33:19.032646+01 | 1486128799.03265 | pgbench_history  |                0
 2017-02-03 14:33:19.032646+01 | 1486128799.03265 | pgbench_branches |            40960

 2017-02-03 14:33:20.170498+01 | 1486128800.1705 | pgbench_accounts |      13429514240
 2017-02-03 14:33:20.170498+01 | 1486128800.1705 | pgbench_tellers  |           450560
 2017-02-03 14:33:20.170498+01 | 1486128800.1705 | pgbench_history  |                0
 2017-02-03 14:33:20.170498+01 | 1486128800.1705 | pgbench_branches |            40960

 2017-02-03 14:33:21.32764+01 | 1486128801.32764 | pgbench_accounts |      13429514240
 2017-02-03 14:33:21.32764+01 | 1486128801.32764 | pgbench_tellers  |           450560
 2017-02-03 14:33:21.32764+01 | 1486128801.32764 | pgbench_history  |                0
 2017-02-03 14:33:21.32764+01 | 1486128801.32764 | pgbench_branches |            40960

 2017-02-03 14:33:22.461214+01 | 1486128802.46121 | pgbench_accounts |      13429514240
 2017-02-03 14:33:22.461214+01 | 1486128802.46121 | pgbench_tellers  |           450560
 2017-02-03 14:33:22.461214+01 | 1486128802.46121 | pgbench_history  |                0
 2017-02-03 14:33:22.461214+01 | 1486128802.46121 | pgbench_branches |            40960

 2017-02-03 14:33:23.605668+01 | 1486128803.60567 | pgbench_accounts |      13429514240
 2017-02-03 14:33:23.605668+01 | 1486128803.60567 | pgbench_tellers  |           450560
 2017-02-03 14:33:23.605668+01 | 1486128803.60567 | pgbench_history  |                0
 2017-02-03 14:33:23.605668+01 | 1486128803.60567 | pgbench_branches |            40960

 2017-02-03 14:33:24.736427+01 | 1486128804.73643 | pgbench_accounts |      13429514240
 2017-02-03 14:33:24.736427+01 | 1486128804.73643 | pgbench_tellers  |           450560
 2017-02-03 14:33:24.736427+01 | 1486128804.73643 | pgbench_history  |                0
 2017-02-03 14:33:24.736427+01 | 1486128804.73643 | pgbench_branches |            40960

 2017-02-03 14:33:25.853817+01 | 1486128805.85382 | pgbench_accounts |      13429514240
 2017-02-03 14:33:25.853817+01 | 1486128805.85382 | pgbench_tellers  |           450560
 2017-02-03 14:33:25.853817+01 | 1486128805.85382 | pgbench_history  |                0
 2017-02-03 14:33:25.853817+01 | 1486128805.85382 | pgbench_branches |            40960

 2017-02-03 14:33:26.994459+01 | 1486128806.99446 | pgbench_accounts |      13429514240
 2017-02-03 14:33:26.994459+01 | 1486128806.99446 | pgbench_tellers  |           450560
 2017-02-03 14:33:26.994459+01 | 1486128806.99446 | pgbench_history  |                0
 2017-02-03 14:33:26.994459+01 | 1486128806.99446 | pgbench_branches |            40960

 2017-02-03 14:33:28.140047+01 | 1486128808.14005 | pgbench_accounts |      13429514240
 2017-02-03 14:33:28.140047+01 | 1486128808.14005 | pgbench_tellers  |           450560
 2017-02-03 14:33:28.140047+01 | 1486128808.14005 | pgbench_history  |                0
 2017-02-03 14:33:28.140047+01 | 1486128808.14005 | pgbench_branches |            40960

 2017-02-03 14:33:29.270726+01 | 1486128809.27073 | pgbench_accounts |      13429514240
 2017-02-03 14:33:29.270726+01 | 1486128809.27073 | pgbench_tellers  |           450560
 2017-02-03 14:33:29.270726+01 | 1486128809.27073 | pgbench_history  |                0
 2017-02-03 14:33:29.270726+01 | 1486128809.27073 | pgbench_branches |            40960

 2017-02-03 14:33:30.393526+01 | 1486128810.39353 | pgbench_accounts |      13429514240
 2017-02-03 14:33:30.393526+01 | 1486128810.39353 | pgbench_tellers  |           450560
 2017-02-03 14:33:30.393526+01 | 1486128810.39353 | pgbench_history  |                0
 2017-02-03 14:33:30.393526+01 | 1486128810.39353 | pgbench_branches |            40960

 2017-02-03 14:33:31.567534+01 | 1486128811.56753 | pgbench_accounts |      13429514240
 2017-02-03 14:33:31.567534+01 | 1486128811.56753 | pgbench_tellers  |           450560
 2017-02-03 14:33:31.567534+01 | 1486128811.56753 | pgbench_history  |                0
 2017-02-03 14:33:31.567534+01 | 1486128811.56753 | pgbench_branches |            40960

 2017-02-03 14:33:32.697774+01 | 1486128812.69777 | pgbench_accounts |      13429514240
 2017-02-03 14:33:32.697774+01 | 1486128812.69777 | pgbench_tellers  |           450560
 2017-02-03 14:33:32.697774+01 | 1486128812.69777 | pgbench_history  |                0
 2017-02-03 14:33:32.697774+01 | 1486128812.69777 | pgbench_branches |            40960

 2017-02-03 14:33:33.847121+01 | 1486128813.84712 | pgbench_accounts |      13429514240
 2017-02-03 14:33:33.847121+01 | 1486128813.84712 | pgbench_tellers  |           450560
 2017-02-03 14:33:33.847121+01 | 1486128813.84712 | pgbench_history  |                0
 2017-02-03 14:33:33.847121+01 | 1486128813.84712 | pgbench_branches |            40960

 2017-02-03 14:33:34.977624+01 | 1486128814.97762 | pgbench_accounts |      13429514240
 2017-02-03 14:33:34.977624+01 | 1486128814.97762 | pgbench_tellers  |           450560
 2017-02-03 14:33:34.977624+01 | 1486128814.97762 | pgbench_history  |                0
 2017-02-03 14:33:34.977624+01 | 1486128814.97762 | pgbench_branches |            40960

 2017-02-03 14:33:36.10975+01 | 1486128816.10975 | pgbench_accounts |      13429514240
 2017-02-03 14:33:36.10975+01 | 1486128816.10975 | pgbench_tellers  |           450560
 2017-02-03 14:33:36.10975+01 | 1486128816.10975 | pgbench_history  |                0
 2017-02-03 14:33:36.10975+01 | 1486128816.10975 | pgbench_branches |            40960

 2017-02-03 14:33:37.24504+01 | 1486128817.24504 | pgbench_accounts |      13429514240
 2017-02-03 14:33:37.24504+01 | 1486128817.24504 | pgbench_tellers  |           450560
 2017-02-03 14:33:37.24504+01 | 1486128817.24504 | pgbench_history  |                0
 2017-02-03 14:33:37.24504+01 | 1486128817.24504 | pgbench_branches |            40960

 2017-02-03 14:33:38.372597+01 | 1486128818.3726 | pgbench_accounts |      13429514240
 2017-02-03 14:33:38.372597+01 | 1486128818.3726 | pgbench_tellers  |           450560
 2017-02-03 14:33:38.372597+01 | 1486128818.3726 | pgbench_history  |                0
 2017-02-03 14:33:38.372597+01 | 1486128818.3726 | pgbench_branches |            40960

 2017-02-03 14:33:39.50922+01 | 1486128819.50922 | pgbench_accounts |      13429514240
 2017-02-03 14:33:39.50922+01 | 1486128819.50922 | pgbench_tellers  |           450560
 2017-02-03 14:33:39.50922+01 | 1486128819.50922 | pgbench_history  |                0
 2017-02-03 14:33:39.50922+01 | 1486128819.50922 | pgbench_branches |            40960

 2017-02-03 14:33:40.650057+01 | 1486128820.65006 | pgbench_accounts |      13429514240
 2017-02-03 14:33:40.650057+01 | 1486128820.65006 | pgbench_tellers  |           450560
 2017-02-03 14:33:40.650057+01 | 1486128820.65006 | pgbench_history  |                0
 2017-02-03 14:33:40.650057+01 | 1486128820.65006 | pgbench_branches |            40960

 2017-02-03 14:33:41.763232+01 | 1486128821.76323 | pgbench_accounts |      13429514240
 2017-02-03 14:33:41.763232+01 | 1486128821.76323 | pgbench_tellers  |           450560
 2017-02-03 14:33:41.763232+01 | 1486128821.76323 | pgbench_history  |                0
 2017-02-03 14:33:41.763232+01 | 1486128821.76323 | pgbench_branches |            40960

 2017-02-03 14:33:42.890381+01 | 1486128822.89038 | pgbench_accounts |      13429514240
 2017-02-03 14:33:42.890381+01 | 1486128822.89038 | pgbench_tellers  |           450560
 2017-02-03 14:33:42.890381+01 | 1486128822.89038 | pgbench_history  |                0
 2017-02-03 14:33:42.890381+01 | 1486128822.89038 | pgbench_branches |            40960

 2017-02-03 14:33:44.039696+01 | 1486128824.0397 | pgbench_accounts |      13429514240
 2017-02-03 14:33:44.039696+01 | 1486128824.0397 | pgbench_tellers  |           450560
 2017-02-03 14:33:44.039696+01 | 1486128824.0397 | pgbench_history  |                0
 2017-02-03 14:33:44.039696+01 | 1486128824.0397 | pgbench_branches |            40960

 2017-02-03 14:33:45.179075+01 | 1486128825.17908 | pgbench_accounts |      13429514240
 2017-02-03 14:33:45.179075+01 | 1486128825.17908 | pgbench_tellers  |           450560
 2017-02-03 14:33:45.179075+01 | 1486128825.17908 | pgbench_history  |                0
 2017-02-03 14:33:45.179075+01 | 1486128825.17908 | pgbench_branches |            40960

 2017-02-03 14:33:46.31706+01 | 1486128826.31706 | pgbench_accounts |      13429514240
 2017-02-03 14:33:46.31706+01 | 1486128826.31706 | pgbench_tellers  |           450560
 2017-02-03 14:33:46.31706+01 | 1486128826.31706 | pgbench_history  |                0
 2017-02-03 14:33:46.31706+01 | 1486128826.31706 | pgbench_branches |            40960

 2017-02-03 14:33:47.454645+01 | 1486128827.45464 | pgbench_accounts |      13429514240
 2017-02-03 14:33:47.454645+01 | 1486128827.45464 | pgbench_tellers  |           450560
 2017-02-03 14:33:47.454645+01 | 1486128827.45464 | pgbench_history  |                0
 2017-02-03 14:33:47.454645+01 | 1486128827.45464 | pgbench_branches |            40960

 2017-02-03 14:33:48.575878+01 | 1486128828.57588 | pgbench_accounts |      13429514240
 2017-02-03 14:33:48.575878+01 | 1486128828.57588 | pgbench_tellers  |           450560
 2017-02-03 14:33:48.575878+01 | 1486128828.57588 | pgbench_history  |                0
 2017-02-03 14:33:48.575878+01 | 1486128828.57588 | pgbench_branches |            40960

 2017-02-03 14:33:49.707499+01 | 1486128829.7075 | pgbench_accounts |      13429514240
 2017-02-03 14:33:49.707499+01 | 1486128829.7075 | pgbench_tellers  |           450560
 2017-02-03 14:33:49.707499+01 | 1486128829.7075 | pgbench_history  |                0
 2017-02-03 14:33:49.707499+01 | 1486128829.7075 | pgbench_branches |            40960

 2017-02-03 14:33:50.828156+01 | 1486128830.82816 | pgbench_accounts |      13429514240
 2017-02-03 14:33:50.828156+01 | 1486128830.82816 | pgbench_tellers  |           450560
 2017-02-03 14:33:50.828156+01 | 1486128830.82816 | pgbench_history  |                0
 2017-02-03 14:33:50.828156+01 | 1486128830.82816 | pgbench_branches |            40960

 2017-02-03 14:33:51.966131+01 | 1486128831.96613 | pgbench_accounts |      13429514240
 2017-02-03 14:33:51.966131+01 | 1486128831.96613 | pgbench_tellers  |           450560
 2017-02-03 14:33:51.966131+01 | 1486128831.96613 | pgbench_history  |                0
 2017-02-03 14:33:51.966131+01 | 1486128831.96613 | pgbench_branches |            40960

 2017-02-03 14:33:53.104002+01 | 1486128833.104 | pgbench_accounts |      13429514240
 2017-02-03 14:33:53.104002+01 | 1486128833.104 | pgbench_tellers  |           450560
 2017-02-03 14:33:53.104002+01 | 1486128833.104 | pgbench_history  |                0
 2017-02-03 14:33:53.104002+01 | 1486128833.104 | pgbench_branches |            40960

 2017-02-03 14:33:54.241524+01 | 1486128834.24152 | pgbench_accounts |      13429514240
 2017-02-03 14:33:54.241524+01 | 1486128834.24152 | pgbench_tellers  |           450560
 2017-02-03 14:33:54.241524+01 | 1486128834.24152 | pgbench_history  |                0
 2017-02-03 14:33:54.241524+01 | 1486128834.24152 | pgbench_branches |            40960

 2017-02-03 14:33:55.390865+01 | 1486128835.39087 | pgbench_accounts |      13429514240
 2017-02-03 14:33:55.390865+01 | 1486128835.39087 | pgbench_tellers  |           450560
 2017-02-03 14:33:55.390865+01 | 1486128835.39087 | pgbench_history  |                0
 2017-02-03 14:33:55.390865+01 | 1486128835.39087 | pgbench_branches |            40960

 2017-02-03 14:33:56.52145+01 | 1486128836.52145 | pgbench_accounts |      13429514240
 2017-02-03 14:33:56.52145+01 | 1486128836.52145 | pgbench_tellers  |           450560
 2017-02-03 14:33:56.52145+01 | 1486128836.52145 | pgbench_history  |                0
 2017-02-03 14:33:56.52145+01 | 1486128836.52145 | pgbench_branches |            40960

 2017-02-03 14:33:57.670416+01 | 1486128837.67042 | pgbench_accounts |      13429514240
 2017-02-03 14:33:57.670416+01 | 1486128837.67042 | pgbench_tellers  |           450560
 2017-02-03 14:33:57.670416+01 | 1486128837.67042 | pgbench_history  |                0
 2017-02-03 14:33:57.670416+01 | 1486128837.67042 | pgbench_branches |            40960

 2017-02-03 14:33:58.827686+01 | 1486128838.82769 | pgbench_accounts |      13429514240
 2017-02-03 14:33:58.827686+01 | 1486128838.82769 | pgbench_tellers  |           450560
 2017-02-03 14:33:58.827686+01 | 1486128838.82769 | pgbench_history  |                0
 2017-02-03 14:33:58.827686+01 | 1486128838.82769 | pgbench_branches |            40960

 2017-02-03 14:33:59.970837+01 | 1486128839.97084 | pgbench_accounts |      13429514240
 2017-02-03 14:33:59.970837+01 | 1486128839.97084 | pgbench_tellers  |           450560
 2017-02-03 14:33:59.970837+01 | 1486128839.97084 | pgbench_history  |                0
 2017-02-03 14:33:59.970837+01 | 1486128839.97084 | pgbench_branches |            40960

 2017-02-03 14:34:01.105592+01 | 1486128841.10559 | pgbench_accounts |      13429514240
 2017-02-03 14:34:01.105592+01 | 1486128841.10559 | pgbench_tellers  |           450560
 2017-02-03 14:34:01.105592+01 | 1486128841.10559 | pgbench_history  |                0
 2017-02-03 14:34:01.105592+01 | 1486128841.10559 | pgbench_branches |            40960

 2017-02-03 14:34:02.230582+01 | 1486128842.23058 | pgbench_accounts |      13429514240
 2017-02-03 14:34:02.230582+01 | 1486128842.23058 | pgbench_tellers  |           450560
 2017-02-03 14:34:02.230582+01 | 1486128842.23058 | pgbench_history  |                0
 2017-02-03 14:34:02.230582+01 | 1486128842.23058 | pgbench_branches |            40960

 2017-02-03 14:34:03.352643+01 | 1486128843.35264 | pgbench_accounts |      13429514240
 2017-02-03 14:34:03.352643+01 | 1486128843.35264 | pgbench_tellers  |           450560
 2017-02-03 14:34:03.352643+01 | 1486128843.35264 | pgbench_history  |                0
 2017-02-03 14:34:03.352643+01 | 1486128843.35264 | pgbench_branches |            40960

 2017-02-03 14:34:04.479308+01 | 1486128844.47931 | pgbench_accounts |      13429514240
 2017-02-03 14:34:04.479308+01 | 1486128844.47931 | pgbench_tellers  |           450560
 2017-02-03 14:34:04.479308+01 | 1486128844.47931 | pgbench_history  |                0
 2017-02-03 14:34:04.479308+01 | 1486128844.47931 | pgbench_branches |            40960

 2017-02-03 14:34:05.603907+01 | 1486128845.60391 | pgbench_accounts |      13429514240
 2017-02-03 14:34:05.603907+01 | 1486128845.60391 | pgbench_tellers  |           450560
 2017-02-03 14:34:05.603907+01 | 1486128845.60391 | pgbench_history  |                0
 2017-02-03 14:34:05.603907+01 | 1486128845.60391 | pgbench_branches |            40960

 2017-02-03 14:34:06.723637+01 | 1486128846.72364 | pgbench_accounts |      13429514240
 2017-02-03 14:34:06.723637+01 | 1486128846.72364 | pgbench_tellers  |           450560
 2017-02-03 14:34:06.723637+01 | 1486128846.72364 | pgbench_history  |                0
 2017-02-03 14:34:06.723637+01 | 1486128846.72364 | pgbench_branches |            40960

 2017-02-03 14:34:07.849861+01 | 1486128847.84986 | pgbench_accounts |      13429514240
 2017-02-03 14:34:07.849861+01 | 1486128847.84986 | pgbench_tellers  |           450560
 2017-02-03 14:34:07.849861+01 | 1486128847.84986 | pgbench_history  |                0
 2017-02-03 14:34:07.849861+01 | 1486128847.84986 | pgbench_branches |            40960

 2017-02-03 14:34:08.974369+01 | 1486128848.97437 | pgbench_accounts |      13429514240
 2017-02-03 14:34:08.974369+01 | 1486128848.97437 | pgbench_tellers  |           450560
 2017-02-03 14:34:08.974369+01 | 1486128848.97437 | pgbench_history  |                0
 2017-02-03 14:34:08.974369+01 | 1486128848.97437 | pgbench_branches |            40960

 2017-02-03 14:34:10.122699+01 | 1486128850.1227 | pgbench_accounts |      13429514240
 2017-02-03 14:34:10.122699+01 | 1486128850.1227 | pgbench_tellers  |           450560
 2017-02-03 14:34:10.122699+01 | 1486128850.1227 | pgbench_history  |                0
 2017-02-03 14:34:10.122699+01 | 1486128850.1227 | pgbench_branches |            40960

 2017-02-03 14:34:11.277483+01 | 1486128851.27748 | pgbench_accounts |      13429514240
 2017-02-03 14:34:11.277483+01 | 1486128851.27748 | pgbench_tellers  |           450560
 2017-02-03 14:34:11.277483+01 | 1486128851.27748 | pgbench_history  |                0
 2017-02-03 14:34:11.277483+01 | 1486128851.27748 | pgbench_branches |            40960

 2017-02-03 14:34:12.419559+01 | 1486128852.41956 | pgbench_accounts |      13429514240
 2017-02-03 14:34:12.419559+01 | 1486128852.41956 | pgbench_tellers  |           450560
 2017-02-03 14:34:12.419559+01 | 1486128852.41956 | pgbench_history  |                0
 2017-02-03 14:34:12.419559+01 | 1486128852.41956 | pgbench_branches |            40960

 2017-02-03 14:34:13.539593+01 | 1486128853.53959 | pgbench_accounts |      13429514240
 2017-02-03 14:34:13.539593+01 | 1486128853.53959 | pgbench_tellers  |           450560
 2017-02-03 14:34:13.539593+01 | 1486128853.53959 | pgbench_history  |                0
 2017-02-03 14:34:13.539593+01 | 1486128853.53959 | pgbench_branches |            40960

 2017-02-03 14:34:14.660248+01 | 1486128854.66025 | pgbench_accounts |      13429514240
 2017-02-03 14:34:14.660248+01 | 1486128854.66025 | pgbench_tellers  |           450560
 2017-02-03 14:34:14.660248+01 | 1486128854.66025 | pgbench_history  |                0
 2017-02-03 14:34:14.660248+01 | 1486128854.66025 | pgbench_branches |            40960

 2017-02-03 14:34:15.798739+01 | 1486128855.79874 | pgbench_accounts |      13429514240
 2017-02-03 14:34:15.798739+01 | 1486128855.79874 | pgbench_tellers  |           450560
 2017-02-03 14:34:15.798739+01 | 1486128855.79874 | pgbench_history  |                0
 2017-02-03 14:34:15.798739+01 | 1486128855.79874 | pgbench_branches |            40960

 2017-02-03 14:34:16.910502+01 | 1486128856.9105 | pgbench_accounts |      13429514240
 2017-02-03 14:34:16.910502+01 | 1486128856.9105 | pgbench_tellers  |           450560
 2017-02-03 14:34:16.910502+01 | 1486128856.9105 | pgbench_history  |                0
 2017-02-03 14:34:16.910502+01 | 1486128856.9105 | pgbench_branches |            40960

 2017-02-03 14:34:18.04438+01 | 1486128858.04438 | pgbench_accounts |      13429514240
 2017-02-03 14:34:18.04438+01 | 1486128858.04438 | pgbench_tellers  |           450560
 2017-02-03 14:34:18.04438+01 | 1486128858.04438 | pgbench_history  |                0
 2017-02-03 14:34:18.04438+01 | 1486128858.04438 | pgbench_branches |            40960

 2017-02-03 14:34:19.173471+01 | 1486128859.17347 | pgbench_accounts |      13429514240
 2017-02-03 14:34:19.173471+01 | 1486128859.17347 | pgbench_tellers  |           450560
 2017-02-03 14:34:19.173471+01 | 1486128859.17347 | pgbench_history  |                0
 2017-02-03 14:34:19.173471+01 | 1486128859.17347 | pgbench_branches |            40960

 2017-02-03 14:34:20.2956+01 | 1486128860.2956 | pgbench_accounts |      13429514240
 2017-02-03 14:34:20.2956+01 | 1486128860.2956 | pgbench_tellers  |           450560
 2017-02-03 14:34:20.2956+01 | 1486128860.2956 | pgbench_history  |                0
 2017-02-03 14:34:20.2956+01 | 1486128860.2956 | pgbench_branches |            40960

 2017-02-03 14:34:21.409265+01 | 1486128861.40927 | pgbench_accounts |      13429514240
 2017-02-03 14:34:21.409265+01 | 1486128861.40927 | pgbench_tellers  |           450560
 2017-02-03 14:34:21.409265+01 | 1486128861.40927 | pgbench_history  |                0
 2017-02-03 14:34:21.409265+01 | 1486128861.40927 | pgbench_branches |            40960

 2017-02-03 14:34:22.556687+01 | 1486128862.55669 | pgbench_accounts |      13429514240
 2017-02-03 14:34:22.556687+01 | 1486128862.55669 | pgbench_tellers  |           450560
 2017-02-03 14:34:22.556687+01 | 1486128862.55669 | pgbench_history  |                0
 2017-02-03 14:34:22.556687+01 | 1486128862.55669 | pgbench_branches |            40960

 2017-02-03 14:34:23.68063+01 | 1486128863.68063 | pgbench_accounts |      13429514240
 2017-02-03 14:34:23.68063+01 | 1486128863.68063 | pgbench_tellers  |           450560
 2017-02-03 14:34:23.68063+01 | 1486128863.68063 | pgbench_history  |                0
 2017-02-03 14:34:23.68063+01 | 1486128863.68063 | pgbench_branches |            40960

 2017-02-03 14:34:24.817775+01 | 1486128864.81778 | pgbench_accounts |      13429514240
 2017-02-03 14:34:24.817775+01 | 1486128864.81778 | pgbench_tellers  |           450560
 2017-02-03 14:34:24.817775+01 | 1486128864.81778 | pgbench_history  |                0
 2017-02-03 14:34:24.817775+01 | 1486128864.81778 | pgbench_branches |            40960

 2017-02-03 14:34:25.964131+01 | 1486128865.96413 | pgbench_accounts |      13429514240
 2017-02-03 14:34:25.964131+01 | 1486128865.96413 | pgbench_tellers  |           450560
 2017-02-03 14:34:25.964131+01 | 1486128865.96413 | pgbench_history  |                0
 2017-02-03 14:34:25.964131+01 | 1486128865.96413 | pgbench_branches |            40960

 2017-02-03 14:34:27.107255+01 | 1486128867.10725 | pgbench_accounts |      13429514240
 2017-02-03 14:34:27.107255+01 | 1486128867.10725 | pgbench_tellers  |           450560
 2017-02-03 14:34:27.107255+01 | 1486128867.10725 | pgbench_history  |                0
 2017-02-03 14:34:27.107255+01 | 1486128867.10725 | pgbench_branches |            40960

 2017-02-03 14:34:28.24217+01 | 1486128868.24217 | pgbench_accounts |      13429514240
 2017-02-03 14:34:28.24217+01 | 1486128868.24217 | pgbench_tellers  |           450560
 2017-02-03 14:34:28.24217+01 | 1486128868.24217 | pgbench_history  |                0
 2017-02-03 14:34:28.24217+01 | 1486128868.24217 | pgbench_branches |            40960

 2017-02-03 14:34:29.373391+01 | 1486128869.37339 | pgbench_accounts |      13429514240
 2017-02-03 14:34:29.373391+01 | 1486128869.37339 | pgbench_tellers  |           450560
 2017-02-03 14:34:29.373391+01 | 1486128869.37339 | pgbench_history  |                0
 2017-02-03 14:34:29.373391+01 | 1486128869.37339 | pgbench_branches |            40960

 2017-02-03 14:34:30.552626+01 | 1486128870.55263 | pgbench_accounts |      13429514240
 2017-02-03 14:34:30.552626+01 | 1486128870.55263 | pgbench_tellers  |           450560
 2017-02-03 14:34:30.552626+01 | 1486128870.55263 | pgbench_history  |                0
 2017-02-03 14:34:30.552626+01 | 1486128870.55263 | pgbench_branches |            40960

 2017-02-03 14:34:31.677229+01 | 1486128871.67723 | pgbench_accounts |      13429514240
 2017-02-03 14:34:31.677229+01 | 1486128871.67723 | pgbench_tellers  |           450560
 2017-02-03 14:34:31.677229+01 | 1486128871.67723 | pgbench_history  |                0
 2017-02-03 14:34:31.677229+01 | 1486128871.67723 | pgbench_branches |            40960

 2017-02-03 14:34:32.808229+01 | 1486128872.80823 | pgbench_accounts |      13429514240
 2017-02-03 14:34:32.808229+01 | 1486128872.80823 | pgbench_tellers  |           450560
 2017-02-03 14:34:32.808229+01 | 1486128872.80823 | pgbench_history  |                0
 2017-02-03 14:34:32.808229+01 | 1486128872.80823 | pgbench_branches |            40960

 2017-02-03 14:34:33.944589+01 | 1486128873.94459 | pgbench_accounts |      13429514240
 2017-02-03 14:34:33.944589+01 | 1486128873.94459 | pgbench_tellers  |           450560
 2017-02-03 14:34:33.944589+01 | 1486128873.94459 | pgbench_history  |                0
 2017-02-03 14:34:33.944589+01 | 1486128873.94459 | pgbench_branches |            40960

 2017-02-03 14:34:35.078983+01 | 1486128875.07898 | pgbench_accounts |      13429514240
 2017-02-03 14:34:35.078983+01 | 1486128875.07898 | pgbench_tellers  |           450560
 2017-02-03 14:34:35.078983+01 | 1486128875.07898 | pgbench_history  |                0
 2017-02-03 14:34:35.078983+01 | 1486128875.07898 | pgbench_branches |            40960

 2017-02-03 14:34:36.198376+01 | 1486128876.19838 | pgbench_accounts |      13429514240
 2017-02-03 14:34:36.198376+01 | 1486128876.19838 | pgbench_tellers  |           450560
 2017-02-03 14:34:36.198376+01 | 1486128876.19838 | pgbench_history  |                0
 2017-02-03 14:34:36.198376+01 | 1486128876.19838 | pgbench_branches |            40960

 2017-02-03 14:34:37.343999+01 | 1486128877.344 | pgbench_accounts |      13429514240
 2017-02-03 14:34:37.343999+01 | 1486128877.344 | pgbench_tellers  |           450560
 2017-02-03 14:34:37.343999+01 | 1486128877.344 | pgbench_history  |                0
 2017-02-03 14:34:37.343999+01 | 1486128877.344 | pgbench_branches |            40960

 2017-02-03 14:34:38.465883+01 | 1486128878.46588 | pgbench_accounts |      13429514240
 2017-02-03 14:34:38.465883+01 | 1486128878.46588 | pgbench_tellers  |           450560
 2017-02-03 14:34:38.465883+01 | 1486128878.46588 | pgbench_history  |                0
 2017-02-03 14:34:38.465883+01 | 1486128878.46588 | pgbench_branches |            40960

 2017-02-03 14:34:39.596921+01 | 1486128879.59692 | pgbench_accounts |      13429514240
 2017-02-03 14:34:39.596921+01 | 1486128879.59692 | pgbench_tellers  |           450560
 2017-02-03 14:34:39.596921+01 | 1486128879.59692 | pgbench_history  |                0
 2017-02-03 14:34:39.596921+01 | 1486128879.59692 | pgbench_branches |            40960

 2017-02-03 14:34:40.733535+01 | 1486128880.73354 | pgbench_accounts |      13429514240
 2017-02-03 14:34:40.733535+01 | 1486128880.73354 | pgbench_tellers  |           450560
 2017-02-03 14:34:40.733535+01 | 1486128880.73354 | pgbench_history  |                0
 2017-02-03 14:34:40.733535+01 | 1486128880.73354 | pgbench_branches |            40960

 2017-02-03 14:34:41.857029+01 | 1486128881.85703 | pgbench_accounts |      13429514240
 2017-02-03 14:34:41.857029+01 | 1486128881.85703 | pgbench_tellers  |           450560
 2017-02-03 14:34:41.857029+01 | 1486128881.85703 | pgbench_history  |                0
 2017-02-03 14:34:41.857029+01 | 1486128881.85703 | pgbench_branches |            40960

 2017-02-03 14:34:42.986895+01 | 1486128882.9869 | pgbench_accounts |      13429514240
 2017-02-03 14:34:42.986895+01 | 1486128882.9869 | pgbench_tellers  |           450560
 2017-02-03 14:34:42.986895+01 | 1486128882.9869 | pgbench_history  |                0
 2017-02-03 14:34:42.986895+01 | 1486128882.9869 | pgbench_branches |            40960

 2017-02-03 14:34:44.127622+01 | 1486128884.12762 | pgbench_accounts |      13429514240
 2017-02-03 14:34:44.127622+01 | 1486128884.12762 | pgbench_tellers  |           450560
 2017-02-03 14:34:44.127622+01 | 1486128884.12762 | pgbench_history  |                0
 2017-02-03 14:34:44.127622+01 | 1486128884.12762 | pgbench_branches |            40960

 2017-02-03 14:34:45.260072+01 | 1486128885.26007 | pgbench_accounts |      13429514240
 2017-02-03 14:34:45.260072+01 | 1486128885.26007 | pgbench_tellers  |           450560
 2017-02-03 14:34:45.260072+01 | 1486128885.26007 | pgbench_history  |                0
 2017-02-03 14:34:45.260072+01 | 1486128885.26007 | pgbench_branches |            40960

 2017-02-03 14:34:46.387292+01 | 1486128886.38729 | pgbench_accounts |      13429514240
 2017-02-03 14:34:46.387292+01 | 1486128886.38729 | pgbench_tellers  |           450560
 2017-02-03 14:34:46.387292+01 | 1486128886.38729 | pgbench_history  |                0
 2017-02-03 14:34:46.387292+01 | 1486128886.38729 | pgbench_branches |            40960

 2017-02-03 14:34:47.541054+01 | 1486128887.54105 | pgbench_accounts |      13429514240
 2017-02-03 14:34:47.541054+01 | 1486128887.54105 | pgbench_tellers  |           450560
 2017-02-03 14:34:47.541054+01 | 1486128887.54105 | pgbench_history  |                0
 2017-02-03 14:34:47.541054+01 | 1486128887.54105 | pgbench_branches |            40960

 2017-02-03 14:34:48.650784+01 | 1486128888.65078 | pgbench_accounts |      13429514240
 2017-02-03 14:34:48.650784+01 | 1486128888.65078 | pgbench_tellers  |           450560
 2017-02-03 14:34:48.650784+01 | 1486128888.65078 | pgbench_history  |                0
 2017-02-03 14:34:48.650784+01 | 1486128888.65078 | pgbench_branches |            40960

 2017-02-03 14:34:49.781508+01 | 1486128889.78151 | pgbench_accounts |      13429514240
 2017-02-03 14:34:49.781508+01 | 1486128889.78151 | pgbench_tellers  |           450560
 2017-02-03 14:34:49.781508+01 | 1486128889.78151 | pgbench_history  |                0
 2017-02-03 14:34:49.781508+01 | 1486128889.78151 | pgbench_branches |            40960

 2017-02-03 14:34:50.901127+01 | 1486128890.90113 | pgbench_accounts |      13429514240
 2017-02-03 14:34:50.901127+01 | 1486128890.90113 | pgbench_tellers  |           450560
 2017-02-03 14:34:50.901127+01 | 1486128890.90113 | pgbench_history  |                0
 2017-02-03 14:34:50.901127+01 | 1486128890.90113 | pgbench_branches |            40960

 2017-02-03 14:34:52.052961+01 | 1486128892.05296 | pgbench_accounts |      13429514240
 2017-02-03 14:34:52.052961+01 | 1486128892.05296 | pgbench_tellers  |           450560
 2017-02-03 14:34:52.052961+01 | 1486128892.05296 | pgbench_history  |                0
 2017-02-03 14:34:52.052961+01 | 1486128892.05296 | pgbench_branches |            40960

 2017-02-03 14:34:53.165414+01 | 1486128893.16541 | pgbench_accounts |      13429514240
 2017-02-03 14:34:53.165414+01 | 1486128893.16541 | pgbench_tellers  |           450560
 2017-02-03 14:34:53.165414+01 | 1486128893.16541 | pgbench_history  |                0
 2017-02-03 14:34:53.165414+01 | 1486128893.16541 | pgbench_branches |            40960

 2017-02-03 14:34:54.315924+01 | 1486128894.31592 | pgbench_accounts |      13429514240
 2017-02-03 14:34:54.315924+01 | 1486128894.31592 | pgbench_tellers  |           450560
 2017-02-03 14:34:54.315924+01 | 1486128894.31592 | pgbench_history  |                0
 2017-02-03 14:34:54.315924+01 | 1486128894.31592 | pgbench_branches |            40960

 2017-02-03 14:34:55.420047+01 | 1486128895.42005 | pgbench_accounts |      13429514240
 2017-02-03 14:34:55.420047+01 | 1486128895.42005 | pgbench_tellers  |           450560
 2017-02-03 14:34:55.420047+01 | 1486128895.42005 | pgbench_history  |                0
 2017-02-03 14:34:55.420047+01 | 1486128895.42005 | pgbench_branches |            40960

 2017-02-03 14:34:56.549555+01 | 1486128896.54956 | pgbench_accounts |      13429514240
 2017-02-03 14:34:56.549555+01 | 1486128896.54956 | pgbench_tellers  |           450560
 2017-02-03 14:34:56.549555+01 | 1486128896.54956 | pgbench_history  |                0
 2017-02-03 14:34:56.549555+01 | 1486128896.54956 | pgbench_branches |            40960

 2017-02-03 14:34:57.679682+01 | 1486128897.67968 | pgbench_accounts |      13429514240
 2017-02-03 14:34:57.679682+01 | 1486128897.67968 | pgbench_tellers  |           450560
 2017-02-03 14:34:57.679682+01 | 1486128897.67968 | pgbench_history  |                0
 2017-02-03 14:34:57.679682+01 | 1486128897.67968 | pgbench_branches |            40960

 2017-02-03 14:34:58.825+01 | 1486128898.825 | pgbench_accounts |      13429514240
 2017-02-03 14:34:58.825+01 | 1486128898.825 | pgbench_tellers  |           450560
 2017-02-03 14:34:58.825+01 | 1486128898.825 | pgbench_history  |                0
 2017-02-03 14:34:58.825+01 | 1486128898.825 | pgbench_branches |            40960

 2017-02-03 14:34:59.960889+01 | 1486128899.96089 | pgbench_accounts |      13429514240
 2017-02-03 14:34:59.960889+01 | 1486128899.96089 | pgbench_tellers  |           450560
 2017-02-03 14:34:59.960889+01 | 1486128899.96089 | pgbench_history  |                0
 2017-02-03 14:34:59.960889+01 | 1486128899.96089 | pgbench_branches |            40960

 2017-02-03 14:35:01.084936+01 | 1486128901.08494 | pgbench_accounts |      13429514240
 2017-02-03 14:35:01.084936+01 | 1486128901.08494 | pgbench_tellers  |           450560
 2017-02-03 14:35:01.084936+01 | 1486128901.08494 | pgbench_history  |                0
 2017-02-03 14:35:01.084936+01 | 1486128901.08494 | pgbench_branches |            40960

 2017-02-03 14:35:02.214938+01 | 1486128902.21494 | pgbench_accounts |      13429514240
 2017-02-03 14:35:02.214938+01 | 1486128902.21494 | pgbench_tellers  |           450560
 2017-02-03 14:35:02.214938+01 | 1486128902.21494 | pgbench_history  |                0
 2017-02-03 14:35:02.214938+01 | 1486128902.21494 | pgbench_branches |            40960

 2017-02-03 14:35:03.36904+01 | 1486128903.36904 | pgbench_accounts |      13429514240
 2017-02-03 14:35:03.36904+01 | 1486128903.36904 | pgbench_tellers  |           450560
 2017-02-03 14:35:03.36904+01 | 1486128903.36904 | pgbench_history  |                0
 2017-02-03 14:35:03.36904+01 | 1486128903.36904 | pgbench_branches |            40960

 2017-02-03 14:35:04.498316+01 | 1486128904.49832 | pgbench_accounts |      13429514240
 2017-02-03 14:35:04.498316+01 | 1486128904.49832 | pgbench_tellers  |           450560
 2017-02-03 14:35:04.498316+01 | 1486128904.49832 | pgbench_history  |                0
 2017-02-03 14:35:04.498316+01 | 1486128904.49832 | pgbench_branches |            40960

 2017-02-03 14:35:05.634747+01 | 1486128905.63475 | pgbench_accounts |      13429514240
 2017-02-03 14:35:05.634747+01 | 1486128905.63475 | pgbench_tellers  |           450560
 2017-02-03 14:35:05.634747+01 | 1486128905.63475 | pgbench_history  |                0
 2017-02-03 14:35:05.634747+01 | 1486128905.63475 | pgbench_branches |            40960

 2017-02-03 14:35:06.755764+01 | 1486128906.75576 | pgbench_accounts |      13429514240
 2017-02-03 14:35:06.755764+01 | 1486128906.75576 | pgbench_tellers  |           450560
 2017-02-03 14:35:06.755764+01 | 1486128906.75576 | pgbench_history  |                0
 2017-02-03 14:35:06.755764+01 | 1486128906.75576 | pgbench_branches |            40960

 2017-02-03 14:35:07.883227+01 | 1486128907.88323 | pgbench_accounts |      13429514240
 2017-02-03 14:35:07.883227+01 | 1486128907.88323 | pgbench_tellers  |           450560
 2017-02-03 14:35:07.883227+01 | 1486128907.88323 | pgbench_history  |                0
 2017-02-03 14:35:07.883227+01 | 1486128907.88323 | pgbench_branches |            40960

 2017-02-03 14:35:09.051942+01 | 1486128909.05194 | pgbench_accounts |      13429514240
 2017-02-03 14:35:09.051942+01 | 1486128909.05194 | pgbench_tellers  |           450560
 2017-02-03 14:35:09.051942+01 | 1486128909.05194 | pgbench_history  |                0
 2017-02-03 14:35:09.051942+01 | 1486128909.05194 | pgbench_branches |            40960

 2017-02-03 14:35:10.183712+01 | 1486128910.18371 | pgbench_accounts |      13429514240
 2017-02-03 14:35:10.183712+01 | 1486128910.18371 | pgbench_tellers  |           450560
 2017-02-03 14:35:10.183712+01 | 1486128910.18371 | pgbench_history  |                0
 2017-02-03 14:35:10.183712+01 | 1486128910.18371 | pgbench_branches |            40960

 2017-02-03 14:35:11.296492+01 | 1486128911.29649 | pgbench_accounts |      13429514240
 2017-02-03 14:35:11.296492+01 | 1486128911.29649 | pgbench_tellers  |           450560
 2017-02-03 14:35:11.296492+01 | 1486128911.29649 | pgbench_history  |                0
 2017-02-03 14:35:11.296492+01 | 1486128911.29649 | pgbench_branches |            40960

 2017-02-03 14:35:12.440713+01 | 1486128912.44071 | pgbench_accounts |      13429514240
 2017-02-03 14:35:12.440713+01 | 1486128912.44071 | pgbench_tellers  |           450560
 2017-02-03 14:35:12.440713+01 | 1486128912.44071 | pgbench_history  |                0
 2017-02-03 14:35:12.440713+01 | 1486128912.44071 | pgbench_branches |            40960

 2017-02-03 14:35:13.578963+01 | 1486128913.57896 | pgbench_accounts |      13429514240
 2017-02-03 14:35:13.578963+01 | 1486128913.57896 | pgbench_tellers  |           450560
 2017-02-03 14:35:13.578963+01 | 1486128913.57896 | pgbench_history  |                0
 2017-02-03 14:35:13.578963+01 | 1486128913.57896 | pgbench_branches |            40960

 2017-02-03 14:35:14.70363+01 | 1486128914.70363 | pgbench_accounts |      13429514240
 2017-02-03 14:35:14.70363+01 | 1486128914.70363 | pgbench_tellers  |           450560
 2017-02-03 14:35:14.70363+01 | 1486128914.70363 | pgbench_history  |                0
 2017-02-03 14:35:14.70363+01 | 1486128914.70363 | pgbench_branches |            40960

 2017-02-03 14:35:15.839554+01 | 1486128915.83955 | pgbench_accounts |      13429514240
 2017-02-03 14:35:15.839554+01 | 1486128915.83955 | pgbench_tellers  |           450560
 2017-02-03 14:35:15.839554+01 | 1486128915.83955 | pgbench_history  |                0
 2017-02-03 14:35:15.839554+01 | 1486128915.83955 | pgbench_branches |            40960

 2017-02-03 14:35:16.967188+01 | 1486128916.96719 | pgbench_accounts |      13429514240
 2017-02-03 14:35:16.967188+01 | 1486128916.96719 | pgbench_tellers  |           450560
 2017-02-03 14:35:16.967188+01 | 1486128916.96719 | pgbench_history  |                0
 2017-02-03 14:35:16.967188+01 | 1486128916.96719 | pgbench_branches |            40960

 2017-02-03 14:35:18.091101+01 | 1486128918.0911 | pgbench_accounts |      13429514240
 2017-02-03 14:35:18.091101+01 | 1486128918.0911 | pgbench_tellers  |           450560
 2017-02-03 14:35:18.091101+01 | 1486128918.0911 | pgbench_history  |                0
 2017-02-03 14:35:18.091101+01 | 1486128918.0911 | pgbench_branches |            40960

 2017-02-03 14:35:19.236096+01 | 1486128919.2361 | pgbench_accounts |      13429514240
 2017-02-03 14:35:19.236096+01 | 1486128919.2361 | pgbench_tellers  |           450560
 2017-02-03 14:35:19.236096+01 | 1486128919.2361 | pgbench_history  |                0
 2017-02-03 14:35:19.236096+01 | 1486128919.2361 | pgbench_branches |            40960

 2017-02-03 14:35:20.377311+01 | 1486128920.37731 | pgbench_accounts |      13429514240
 2017-02-03 14:35:20.377311+01 | 1486128920.37731 | pgbench_tellers  |           450560
 2017-02-03 14:35:20.377311+01 | 1486128920.37731 | pgbench_history  |                0
 2017-02-03 14:35:20.377311+01 | 1486128920.37731 | pgbench_branches |            40960

 2017-02-03 14:35:21.515456+01 | 1486128921.51546 | pgbench_accounts |      13429514240
 2017-02-03 14:35:21.515456+01 | 1486128921.51546 | pgbench_tellers  |           450560
 2017-02-03 14:35:21.515456+01 | 1486128921.51546 | pgbench_history  |                0
 2017-02-03 14:35:21.515456+01 | 1486128921.51546 | pgbench_branches |            40960

 2017-02-03 14:35:22.654171+01 | 1486128922.65417 | pgbench_accounts |      13429514240
 2017-02-03 14:35:22.654171+01 | 1486128922.65417 | pgbench_tellers  |           450560
 2017-02-03 14:35:22.654171+01 | 1486128922.65417 | pgbench_history  |                0
 2017-02-03 14:35:22.654171+01 | 1486128922.65417 | pgbench_branches |            40960

 2017-02-03 14:35:23.801872+01 | 1486128923.80187 | pgbench_accounts |      13429514240
 2017-02-03 14:35:23.801872+01 | 1486128923.80187 | pgbench_tellers  |           450560
 2017-02-03 14:35:23.801872+01 | 1486128923.80187 | pgbench_history  |                0
 2017-02-03 14:35:23.801872+01 | 1486128923.80187 | pgbench_branches |            40960

 2017-02-03 14:35:24.93807+01 | 1486128924.93807 | pgbench_accounts |      13429514240
 2017-02-03 14:35:24.93807+01 | 1486128924.93807 | pgbench_tellers  |           450560
 2017-02-03 14:35:24.93807+01 | 1486128924.93807 | pgbench_history  |                0
 2017-02-03 14:35:24.93807+01 | 1486128924.93807 | pgbench_branches |            40960

 2017-02-03 14:35:26.058909+01 | 1486128926.05891 | pgbench_accounts |      13429514240
 2017-02-03 14:35:26.058909+01 | 1486128926.05891 | pgbench_tellers  |           450560
 2017-02-03 14:35:26.058909+01 | 1486128926.05891 | pgbench_history  |                0
 2017-02-03 14:35:26.058909+01 | 1486128926.05891 | pgbench_branches |            40960

 2017-02-03 14:35:27.211679+01 | 1486128927.21168 | pgbench_accounts |      13429514240
 2017-02-03 14:35:27.211679+01 | 1486128927.21168 | pgbench_tellers  |           450560
 2017-02-03 14:35:27.211679+01 | 1486128927.21168 | pgbench_history  |                0
 2017-02-03 14:35:27.211679+01 | 1486128927.21168 | pgbench_branches |            40960

 2017-02-03 14:35:28.34126+01 | 1486128928.34126 | pgbench_accounts |      13429514240
 2017-02-03 14:35:28.34126+01 | 1486128928.34126 | pgbench_tellers  |           450560
 2017-02-03 14:35:28.34126+01 | 1486128928.34126 | pgbench_history  |                0
 2017-02-03 14:35:28.34126+01 | 1486128928.34126 | pgbench_branches |            40960

 2017-02-03 14:35:29.460687+01 | 1486128929.46069 | pgbench_accounts |      13429514240
 2017-02-03 14:35:29.460687+01 | 1486128929.46069 | pgbench_tellers  |           450560
 2017-02-03 14:35:29.460687+01 | 1486128929.46069 | pgbench_history  |                0
 2017-02-03 14:35:29.460687+01 | 1486128929.46069 | pgbench_branches |            40960

 2017-02-03 14:35:30.609129+01 | 1486128930.60913 | pgbench_accounts |      13429514240
 2017-02-03 14:35:30.609129+01 | 1486128930.60913 | pgbench_tellers  |           450560
 2017-02-03 14:35:30.609129+01 | 1486128930.60913 | pgbench_history  |                0
 2017-02-03 14:35:30.609129+01 | 1486128930.60913 | pgbench_branches |            40960

 2017-02-03 14:35:31.760299+01 | 1486128931.7603 | pgbench_accounts |      13429514240
 2017-02-03 14:35:31.760299+01 | 1486128931.7603 | pgbench_tellers  |           450560
 2017-02-03 14:35:31.760299+01 | 1486128931.7603 | pgbench_history  |                0
 2017-02-03 14:35:31.760299+01 | 1486128931.7603 | pgbench_branches |            40960

 2017-02-03 14:35:32.898147+01 | 1486128932.89815 | pgbench_accounts |      13429514240
 2017-02-03 14:35:32.898147+01 | 1486128932.89815 | pgbench_tellers  |           450560
 2017-02-03 14:35:32.898147+01 | 1486128932.89815 | pgbench_history  |                0
 2017-02-03 14:35:32.898147+01 | 1486128932.89815 | pgbench_branches |            40960

 2017-02-03 14:35:34.065452+01 | 1486128934.06545 | pgbench_accounts |      13429514240
 2017-02-03 14:35:34.065452+01 | 1486128934.06545 | pgbench_tellers  |           450560
 2017-02-03 14:35:34.065452+01 | 1486128934.06545 | pgbench_history  |                0
 2017-02-03 14:35:34.065452+01 | 1486128934.06545 | pgbench_branches |            40960

 2017-02-03 14:35:35.190838+01 | 1486128935.19084 | pgbench_accounts |      13429514240
 2017-02-03 14:35:35.190838+01 | 1486128935.19084 | pgbench_tellers  |           450560
 2017-02-03 14:35:35.190838+01 | 1486128935.19084 | pgbench_history  |                0
 2017-02-03 14:35:35.190838+01 | 1486128935.19084 | pgbench_branches |            40960

 2017-02-03 14:35:36.318271+01 | 1486128936.31827 | pgbench_accounts |      13429514240
 2017-02-03 14:35:36.318271+01 | 1486128936.31827 | pgbench_tellers  |           450560
 2017-02-03 14:35:36.318271+01 | 1486128936.31827 | pgbench_history  |                0
 2017-02-03 14:35:36.318271+01 | 1486128936.31827 | pgbench_branches |            40960

 2017-02-03 14:35:37.447657+01 | 1486128937.44766 | pgbench_accounts |      13429514240
 2017-02-03 14:35:37.447657+01 | 1486128937.44766 | pgbench_tellers  |           450560
 2017-02-03 14:35:37.447657+01 | 1486128937.44766 | pgbench_history  |                0
 2017-02-03 14:35:37.447657+01 | 1486128937.44766 | pgbench_branches |            40960

 2017-02-03 14:35:38.567194+01 | 1486128938.56719 | pgbench_accounts |      13429514240
 2017-02-03 14:35:38.567194+01 | 1486128938.56719 | pgbench_tellers  |           450560
 2017-02-03 14:35:38.567194+01 | 1486128938.56719 | pgbench_history  |                0
 2017-02-03 14:35:38.567194+01 | 1486128938.56719 | pgbench_branches |            40960

 2017-02-03 14:35:39.687906+01 | 1486128939.68791 | pgbench_accounts |      13429514240
 2017-02-03 14:35:39.687906+01 | 1486128939.68791 | pgbench_tellers  |           450560
 2017-02-03 14:35:39.687906+01 | 1486128939.68791 | pgbench_history  |                0
 2017-02-03 14:35:39.687906+01 | 1486128939.68791 | pgbench_branches |            40960

 2017-02-03 14:35:40.806598+01 | 1486128940.8066 | pgbench_accounts |      13429514240
 2017-02-03 14:35:40.806598+01 | 1486128940.8066 | pgbench_tellers  |           450560
 2017-02-03 14:35:40.806598+01 | 1486128940.8066 | pgbench_history  |                0
 2017-02-03 14:35:40.806598+01 | 1486128940.8066 | pgbench_branches |            40960

 2017-02-03 14:35:41.964123+01 | 1486128941.96412 | pgbench_accounts |      13429514240
 2017-02-03 14:35:41.964123+01 | 1486128941.96412 | pgbench_tellers  |           450560
 2017-02-03 14:35:41.964123+01 | 1486128941.96412 | pgbench_history  |                0
 2017-02-03 14:35:41.964123+01 | 1486128941.96412 | pgbench_branches |            40960

 2017-02-03 14:35:43.101076+01 | 1486128943.10108 | pgbench_accounts |      13429514240
 2017-02-03 14:35:43.101076+01 | 1486128943.10108 | pgbench_tellers  |           450560
 2017-02-03 14:35:43.101076+01 | 1486128943.10108 | pgbench_history  |                0
 2017-02-03 14:35:43.101076+01 | 1486128943.10108 | pgbench_branches |            40960

 2017-02-03 14:35:44.23109+01 | 1486128944.23109 | pgbench_accounts |      13429514240
 2017-02-03 14:35:44.23109+01 | 1486128944.23109 | pgbench_tellers  |           450560
 2017-02-03 14:35:44.23109+01 | 1486128944.23109 | pgbench_history  |                0
 2017-02-03 14:35:44.23109+01 | 1486128944.23109 | pgbench_branches |            40960

 2017-02-03 14:35:45.380788+01 | 1486128945.38079 | pgbench_accounts |      13429514240
 2017-02-03 14:35:45.380788+01 | 1486128945.38079 | pgbench_tellers  |           450560
 2017-02-03 14:35:45.380788+01 | 1486128945.38079 | pgbench_history  |                0
 2017-02-03 14:35:45.380788+01 | 1486128945.38079 | pgbench_branches |            40960

 2017-02-03 14:35:46.508015+01 | 1486128946.50801 | pgbench_accounts |      13429514240
 2017-02-03 14:35:46.508015+01 | 1486128946.50801 | pgbench_tellers  |           450560
 2017-02-03 14:35:46.508015+01 | 1486128946.50801 | pgbench_history  |                0
 2017-02-03 14:35:46.508015+01 | 1486128946.50801 | pgbench_branches |            40960

 2017-02-03 14:35:47.622264+01 | 1486128947.62226 | pgbench_accounts |      13429514240
 2017-02-03 14:35:47.622264+01 | 1486128947.62226 | pgbench_tellers  |           450560
 2017-02-03 14:35:47.622264+01 | 1486128947.62226 | pgbench_history  |                0
 2017-02-03 14:35:47.622264+01 | 1486128947.62226 | pgbench_branches |            40960

 2017-02-03 14:35:48.75711+01 | 1486128948.75711 | pgbench_accounts |      13429514240
 2017-02-03 14:35:48.75711+01 | 1486128948.75711 | pgbench_tellers  |           450560
 2017-02-03 14:35:48.75711+01 | 1486128948.75711 | pgbench_history  |                0
 2017-02-03 14:35:48.75711+01 | 1486128948.75711 | pgbench_branches |            40960

 2017-02-03 14:35:49.922217+01 | 1486128949.92222 | pgbench_accounts |      13429514240
 2017-02-03 14:35:49.922217+01 | 1486128949.92222 | pgbench_tellers  |           450560
 2017-02-03 14:35:49.922217+01 | 1486128949.92222 | pgbench_history  |                0
 2017-02-03 14:35:49.922217+01 | 1486128949.92222 | pgbench_branches |            40960

 2017-02-03 14:35:51.063959+01 | 1486128951.06396 | pgbench_accounts |      13429514240
 2017-02-03 14:35:51.063959+01 | 1486128951.06396 | pgbench_tellers  |           450560
 2017-02-03 14:35:51.063959+01 | 1486128951.06396 | pgbench_history  |                0
 2017-02-03 14:35:51.063959+01 | 1486128951.06396 | pgbench_branches |            40960

 2017-02-03 14:35:52.212494+01 | 1486128952.21249 | pgbench_accounts |      13429514240
 2017-02-03 14:35:52.212494+01 | 1486128952.21249 | pgbench_tellers  |           450560
 2017-02-03 14:35:52.212494+01 | 1486128952.21249 | pgbench_history  |                0
 2017-02-03 14:35:52.212494+01 | 1486128952.21249 | pgbench_branches |            40960

 2017-02-03 14:35:53.327002+01 | 1486128953.327 | pgbench_accounts |      13429514240
 2017-02-03 14:35:53.327002+01 | 1486128953.327 | pgbench_tellers  |           450560
 2017-02-03 14:35:53.327002+01 | 1486128953.327 | pgbench_history  |                0
 2017-02-03 14:35:53.327002+01 | 1486128953.327 | pgbench_branches |            40960

 2017-02-03 14:35:54.455436+01 | 1486128954.45544 | pgbench_accounts |      13429514240
 2017-02-03 14:35:54.455436+01 | 1486128954.45544 | pgbench_tellers  |           450560
 2017-02-03 14:35:54.455436+01 | 1486128954.45544 | pgbench_history  |                0
 2017-02-03 14:35:54.455436+01 | 1486128954.45544 | pgbench_branches |            40960

 2017-02-03 14:35:55.577521+01 | 1486128955.57752 | pgbench_accounts |      13429514240
 2017-02-03 14:35:55.577521+01 | 1486128955.57752 | pgbench_tellers  |           450560
 2017-02-03 14:35:55.577521+01 | 1486128955.57752 | pgbench_history  |                0
 2017-02-03 14:35:55.577521+01 | 1486128955.57752 | pgbench_branches |            40960

 2017-02-03 14:35:56.693379+01 | 1486128956.69338 | pgbench_accounts |      13429514240
 2017-02-03 14:35:56.693379+01 | 1486128956.69338 | pgbench_tellers  |           450560
 2017-02-03 14:35:56.693379+01 | 1486128956.69338 | pgbench_history  |                0
 2017-02-03 14:35:56.693379+01 | 1486128956.69338 | pgbench_branches |            40960

 2017-02-03 14:35:57.812018+01 | 1486128957.81202 | pgbench_accounts |      13429514240
 2017-02-03 14:35:57.812018+01 | 1486128957.81202 | pgbench_tellers  |           450560
 2017-02-03 14:35:57.812018+01 | 1486128957.81202 | pgbench_history  |                0
 2017-02-03 14:35:57.812018+01 | 1486128957.81202 | pgbench_branches |            40960

 2017-02-03 14:35:58.932846+01 | 1486128958.93285 | pgbench_accounts |      13429514240
 2017-02-03 14:35:58.932846+01 | 1486128958.93285 | pgbench_tellers  |           450560
 2017-02-03 14:35:58.932846+01 | 1486128958.93285 | pgbench_history  |                0
 2017-02-03 14:35:58.932846+01 | 1486128958.93285 | pgbench_branches |            40960

 2017-02-03 14:36:00.08944+01 | 1486128960.08944 | pgbench_accounts |      13429514240
 2017-02-03 14:36:00.08944+01 | 1486128960.08944 | pgbench_tellers  |           450560
 2017-02-03 14:36:00.08944+01 | 1486128960.08944 | pgbench_history  |                0
 2017-02-03 14:36:00.08944+01 | 1486128960.08944 | pgbench_branches |            40960

 2017-02-03 14:36:01.196786+01 | 1486128961.19679 | pgbench_accounts |      13429514240
 2017-02-03 14:36:01.196786+01 | 1486128961.19679 | pgbench_tellers  |           450560
 2017-02-03 14:36:01.196786+01 | 1486128961.19679 | pgbench_history  |                0
 2017-02-03 14:36:01.196786+01 | 1486128961.19679 | pgbench_branches |            40960

 2017-02-03 14:36:02.337378+01 | 1486128962.33738 | pgbench_accounts |      13429514240
 2017-02-03 14:36:02.337378+01 | 1486128962.33738 | pgbench_tellers  |           450560
 2017-02-03 14:36:02.337378+01 | 1486128962.33738 | pgbench_history  |                0
 2017-02-03 14:36:02.337378+01 | 1486128962.33738 | pgbench_branches |            40960

 2017-02-03 14:36:03.485675+01 | 1486128963.48568 | pgbench_accounts |      13429514240
 2017-02-03 14:36:03.485675+01 | 1486128963.48568 | pgbench_tellers  |           450560
 2017-02-03 14:36:03.485675+01 | 1486128963.48568 | pgbench_history  |                0
 2017-02-03 14:36:03.485675+01 | 1486128963.48568 | pgbench_branches |            40960

 2017-02-03 14:36:04.634399+01 | 1486128964.6344 | pgbench_accounts |      13429514240
 2017-02-03 14:36:04.634399+01 | 1486128964.6344 | pgbench_tellers  |           450560
 2017-02-03 14:36:04.634399+01 | 1486128964.6344 | pgbench_history  |                0
 2017-02-03 14:36:04.634399+01 | 1486128964.6344 | pgbench_branches |            40960

 2017-02-03 14:36:05.786547+01 | 1486128965.78655 | pgbench_accounts |      13429514240
 2017-02-03 14:36:05.786547+01 | 1486128965.78655 | pgbench_tellers  |           450560
 2017-02-03 14:36:05.786547+01 | 1486128965.78655 | pgbench_history  |                0
 2017-02-03 14:36:05.786547+01 | 1486128965.78655 | pgbench_branches |            40960

 2017-02-03 14:36:06.910546+01 | 1486128966.91055 | pgbench_accounts |      13429514240
 2017-02-03 14:36:06.910546+01 | 1486128966.91055 | pgbench_tellers  |           450560
 2017-02-03 14:36:06.910546+01 | 1486128966.91055 | pgbench_history  |                0
 2017-02-03 14:36:06.910546+01 | 1486128966.91055 | pgbench_branches |            40960

 2017-02-03 14:36:08.029175+01 | 1486128968.02918 | pgbench_accounts |      13429514240
 2017-02-03 14:36:08.029175+01 | 1486128968.02918 | pgbench_tellers  |           450560
 2017-02-03 14:36:08.029175+01 | 1486128968.02918 | pgbench_history  |                0
 2017-02-03 14:36:08.029175+01 | 1486128968.02918 | pgbench_branches |            40960

 2017-02-03 14:36:09.142021+01 | 1486128969.14202 | pgbench_accounts |      13429514240
 2017-02-03 14:36:09.142021+01 | 1486128969.14202 | pgbench_tellers  |           450560
 2017-02-03 14:36:09.142021+01 | 1486128969.14202 | pgbench_history  |                0
 2017-02-03 14:36:09.142021+01 | 1486128969.14202 | pgbench_branches |            40960

 2017-02-03 14:36:10.314333+01 | 1486128970.31433 | pgbench_accounts |      13429514240
 2017-02-03 14:36:10.314333+01 | 1486128970.31433 | pgbench_tellers  |           450560
 2017-02-03 14:36:10.314333+01 | 1486128970.31433 | pgbench_history  |                0
 2017-02-03 14:36:10.314333+01 | 1486128970.31433 | pgbench_branches |            40960

 2017-02-03 14:36:11.427597+01 | 1486128971.4276 | pgbench_accounts |      13429514240
 2017-02-03 14:36:11.427597+01 | 1486128971.4276 | pgbench_tellers  |           450560
 2017-02-03 14:36:11.427597+01 | 1486128971.4276 | pgbench_history  |                0
 2017-02-03 14:36:11.427597+01 | 1486128971.4276 | pgbench_branches |            40960

 2017-02-03 14:36:12.55176+01 | 1486128972.55176 | pgbench_accounts |      13429514240
 2017-02-03 14:36:12.55176+01 | 1486128972.55176 | pgbench_tellers  |           450560
 2017-02-03 14:36:12.55176+01 | 1486128972.55176 | pgbench_history  |                0
 2017-02-03 14:36:12.55176+01 | 1486128972.55176 | pgbench_branches |            40960

 2017-02-03 14:36:13.683389+01 | 1486128973.68339 | pgbench_accounts |      13429514240
 2017-02-03 14:36:13.683389+01 | 1486128973.68339 | pgbench_tellers  |           450560
 2017-02-03 14:36:13.683389+01 | 1486128973.68339 | pgbench_history  |                0
 2017-02-03 14:36:13.683389+01 | 1486128973.68339 | pgbench_branches |            40960

 2017-02-03 14:36:14.787637+01 | 1486128974.78764 | pgbench_accounts |      13429514240
 2017-02-03 14:36:14.787637+01 | 1486128974.78764 | pgbench_tellers  |           450560
 2017-02-03 14:36:14.787637+01 | 1486128974.78764 | pgbench_history  |                0
 2017-02-03 14:36:14.787637+01 | 1486128974.78764 | pgbench_branches |            40960

 2017-02-03 14:36:15.913782+01 | 1486128975.91378 | pgbench_accounts |      13429514240
 2017-02-03 14:36:15.913782+01 | 1486128975.91378 | pgbench_tellers  |           450560
 2017-02-03 14:36:15.913782+01 | 1486128975.91378 | pgbench_history  |                0
 2017-02-03 14:36:15.913782+01 | 1486128975.91378 | pgbench_branches |            40960

 2017-02-03 14:36:17.057035+01 | 1486128977.05703 | pgbench_accounts |      13429514240
 2017-02-03 14:36:17.057035+01 | 1486128977.05703 | pgbench_tellers  |           450560
 2017-02-03 14:36:17.057035+01 | 1486128977.05703 | pgbench_history  |                0
 2017-02-03 14:36:17.057035+01 | 1486128977.05703 | pgbench_branches |            40960

 2017-02-03 14:36:18.184494+01 | 1486128978.18449 | pgbench_accounts |      13429514240
 2017-02-03 14:36:18.184494+01 | 1486128978.18449 | pgbench_tellers  |           450560
 2017-02-03 14:36:18.184494+01 | 1486128978.18449 | pgbench_history  |                0
 2017-02-03 14:36:18.184494+01 | 1486128978.18449 | pgbench_branches |            40960

 2017-02-03 14:36:19.331197+01 | 1486128979.3312 | pgbench_accounts |      13429514240
 2017-02-03 14:36:19.331197+01 | 1486128979.3312 | pgbench_tellers  |           450560
 2017-02-03 14:36:19.331197+01 | 1486128979.3312 | pgbench_history  |                0
 2017-02-03 14:36:19.331197+01 | 1486128979.3312 | pgbench_branches |            40960

 2017-02-03 14:36:20.45198+01 | 1486128980.45198 | pgbench_accounts |      13429514240
 2017-02-03 14:36:20.45198+01 | 1486128980.45198 | pgbench_tellers  |           450560
 2017-02-03 14:36:20.45198+01 | 1486128980.45198 | pgbench_history  |                0
 2017-02-03 14:36:20.45198+01 | 1486128980.45198 | pgbench_branches |            40960

 2017-02-03 14:36:21.561043+01 | 1486128981.56104 | pgbench_accounts |      13429514240
 2017-02-03 14:36:21.561043+01 | 1486128981.56104 | pgbench_tellers  |           450560
 2017-02-03 14:36:21.561043+01 | 1486128981.56104 | pgbench_history  |                0
 2017-02-03 14:36:21.561043+01 | 1486128981.56104 | pgbench_branches |            40960

 2017-02-03 14:36:22.683874+01 | 1486128982.68387 | pgbench_accounts |      13429514240
 2017-02-03 14:36:22.683874+01 | 1486128982.68387 | pgbench_tellers  |           450560
 2017-02-03 14:36:22.683874+01 | 1486128982.68387 | pgbench_history  |                0
 2017-02-03 14:36:22.683874+01 | 1486128982.68387 | pgbench_branches |            40960

 2017-02-03 14:36:23.80925+01 | 1486128983.80925 | pgbench_accounts |      13429514240
 2017-02-03 14:36:23.80925+01 | 1486128983.80925 | pgbench_tellers  |           450560
 2017-02-03 14:36:23.80925+01 | 1486128983.80925 | pgbench_history  |                0
 2017-02-03 14:36:23.80925+01 | 1486128983.80925 | pgbench_branches |            40960

 2017-02-03 14:36:24.933358+01 | 1486128984.93336 | pgbench_accounts |      13429514240
 2017-02-03 14:36:24.933358+01 | 1486128984.93336 | pgbench_tellers  |           450560
 2017-02-03 14:36:24.933358+01 | 1486128984.93336 | pgbench_history  |                0
 2017-02-03 14:36:24.933358+01 | 1486128984.93336 | pgbench_branches |            40960

 2017-02-03 14:36:26.060718+01 | 1486128986.06072 | pgbench_accounts |      13429514240
 2017-02-03 14:36:26.060718+01 | 1486128986.06072 | pgbench_tellers  |           450560
 2017-02-03 14:36:26.060718+01 | 1486128986.06072 | pgbench_history  |                0
 2017-02-03 14:36:26.060718+01 | 1486128986.06072 | pgbench_branches |            40960

 2017-02-03 14:36:27.177494+01 | 1486128987.17749 | pgbench_accounts |      13429514240
 2017-02-03 14:36:27.177494+01 | 1486128987.17749 | pgbench_tellers  |           450560
 2017-02-03 14:36:27.177494+01 | 1486128987.17749 | pgbench_history  |                0
 2017-02-03 14:36:27.177494+01 | 1486128987.17749 | pgbench_branches |            40960

 2017-02-03 14:36:28.324281+01 | 1486128988.32428 | pgbench_accounts |      13429514240
 2017-02-03 14:36:28.324281+01 | 1486128988.32428 | pgbench_tellers  |           450560
 2017-02-03 14:36:28.324281+01 | 1486128988.32428 | pgbench_history  |                0
 2017-02-03 14:36:28.324281+01 | 1486128988.32428 | pgbench_branches |            40960

