 2017-02-06 13:31:28.746887+01 | 1486384288.74689 |                 0 |              13 |                170736 |                 3148 |            9748550 |       1707077 |            16775 |        36479315 |                     0 |      34968533 | 2017-02-06 12:24:33.04114+01

 2017-02-06 13:31:29.833261+01 | 1486384289.83326 |                 0 |              13 |                170736 |                 3148 |            9748550 |       1707077 |            16775 |        36479315 |                     0 |      34976125 | 2017-02-06 12:24:33.04114+01

 2017-02-06 13:31:30.916234+01 | 1486384290.91623 |                 0 |              13 |                170736 |                 3148 |            9748550 |       1707077 |            16775 |        36479315 |                     0 |      34985815 | 2017-02-06 12:24:33.04114+01

 2017-02-06 13:31:32.004215+01 | 1486384292.00422 |                 0 |              13 |                170736 |                 3148 |            9748550 |       1707077 |            16775 |        36479315 |                     0 |      34998249 | 2017-02-06 12:24:33.04114+01

 2017-02-06 13:31:33.086748+01 | 1486384293.08675 |                 0 |              13 |                170736 |                 3148 |            9748550 |       1707077 |            16775 |        36479315 |                     0 |      35009530 | 2017-02-06 12:24:33.04114+01

 2017-02-06 13:31:34.176321+01 | 1486384294.17632 |                 0 |              13 |                170736 |                 3148 |            9748550 |       1707077 |            16775 |        36479315 |                     0 |      35024393 | 2017-02-06 12:24:33.04114+01

 2017-02-06 13:31:35.247832+01 | 1486384295.24783 |                 0 |              13 |                170736 |                 3148 |            9748550 |       1707077 |            16775 |        36479315 |                     0 |      35032594 | 2017-02-06 12:24:33.04114+01

 2017-02-06 13:31:36.337046+01 | 1486384296.33705 |                 0 |              13 |                170736 |                 3148 |            9748550 |       1707077 |            16775 |        36479315 |                     0 |      35054438 | 2017-02-06 12:24:33.04114+01

 2017-02-06 13:31:37.428232+01 | 1486384297.42823 |                 0 |              13 |                170736 |                 3148 |            9748550 |       1707077 |            16775 |        36479315 |                     0 |      35068440 | 2017-02-06 12:24:33.04114+01

 2017-02-06 13:31:38.528892+01 | 1486384298.52889 |                 0 |              13 |                170736 |                 3148 |            9748550 |       1707077 |            16775 |        36479315 |                     0 |      35082646 | 2017-02-06 12:24:33.04114+01

 2017-02-06 13:31:39.610505+01 | 1486384299.61051 |                 0 |              13 |                170736 |                 3148 |            9748550 |       1707077 |            16775 |        36479315 |                     0 |      35099916 | 2017-02-06 12:24:33.04114+01

 2017-02-06 13:31:40.695451+01 | 1486384300.69545 |                 0 |              13 |                170736 |                 3148 |            9748550 |       1707077 |            16775 |        36479315 |                     0 |      35114037 | 2017-02-06 12:24:33.04114+01

 2017-02-06 13:31:41.777828+01 | 1486384301.77783 |                 0 |              13 |                170736 |                 3148 |            9748550 |       1707147 |            16775 |        36479315 |                     0 |      35131362 | 2017-02-06 12:24:33.04114+01

 2017-02-06 13:31:42.857083+01 | 1486384302.85708 |                 0 |              13 |                170736 |                 3148 |            9748550 |       1707232 |            16775 |        36479315 |                     0 |      35145438 | 2017-02-06 12:24:33.04114+01

 2017-02-06 13:31:43.95241+01 | 1486384303.95241 |                 0 |              13 |                170736 |                 3148 |            9748550 |       1707307 |            16775 |        36479315 |                     0 |      35159882 | 2017-02-06 12:24:33.04114+01

 2017-02-06 13:31:45.037298+01 | 1486384305.0373 |                 0 |              13 |                170736 |                 3148 |            9748550 |       1707479 |            16775 |        36479315 |                     0 |      35177561 | 2017-02-06 12:24:33.04114+01

 2017-02-06 13:31:46.130736+01 | 1486384306.13074 |                 0 |              13 |                170736 |                 3148 |            9748550 |       1707616 |            16775 |        36479315 |                     0 |      35190707 | 2017-02-06 12:24:33.04114+01

 2017-02-06 13:31:47.219575+01 | 1486384307.21957 |                 0 |              13 |                170736 |                 3148 |            9748550 |       1707828 |            16775 |        36479315 |                     0 |      35208515 | 2017-02-06 12:24:33.04114+01

 2017-02-06 13:31:48.31492+01 | 1486384308.31492 |                 0 |              13 |                170736 |                 3148 |            9748550 |       1708029 |            16775 |        36479315 |                     0 |      35223544 | 2017-02-06 12:24:33.04114+01

 2017-02-06 13:31:49.409533+01 | 1486384309.40953 |                 0 |              13 |                170736 |                 3148 |            9748550 |       1708219 |            16775 |        36479315 |                     0 |      35238084 | 2017-02-06 12:24:33.04114+01

 2017-02-06 13:31:50.494027+01 | 1486384310.49403 |                 0 |              13 |                170736 |                 3148 |            9748550 |       1708475 |            16775 |        36479315 |                     0 |      35255644 | 2017-02-06 12:24:33.04114+01

 2017-02-06 13:31:51.578622+01 | 1486384311.57862 |                 0 |              13 |                170736 |                 3148 |            9748550 |       1708720 |            16775 |        36479315 |                     0 |      35269097 | 2017-02-06 12:24:33.04114+01

 2017-02-06 13:31:52.663216+01 | 1486384312.66322 |                 0 |              13 |                170736 |                 3148 |            9748550 |       1709000 |            16775 |        36479315 |                     0 |      35287000 | 2017-02-06 12:24:33.04114+01

 2017-02-06 13:31:53.740648+01 | 1486384313.74065 |                 0 |              13 |                170736 |                 3148 |            9748550 |       1709349 |            16777 |        36479315 |                     0 |      35301583 | 2017-02-06 12:24:33.04114+01

 2017-02-06 13:31:54.821249+01 | 1486384314.82125 |                 0 |              13 |                170736 |                 3148 |            9748550 |       1709849 |            16782 |        36479315 |                     0 |      35316197 | 2017-02-06 12:24:33.04114+01

 2017-02-06 13:31:55.916009+01 | 1486384315.91601 |                 0 |              13 |                170736 |                 3148 |            9748550 |       1710449 |            16788 |        36479315 |                     0 |      35333917 | 2017-02-06 12:24:33.04114+01

 2017-02-06 13:31:57.007453+01 | 1486384317.00745 |                 0 |              13 |                170736 |                 3148 |            9748550 |       1710949 |            16793 |        36479315 |                     0 |      35349097 | 2017-02-06 12:24:33.04114+01

 2017-02-06 13:31:58.100461+01 | 1486384318.10046 |                 0 |              13 |                170736 |                 3148 |            9748550 |       1711449 |            16798 |        36479315 |                     0 |      35364159 | 2017-02-06 12:24:33.04114+01

 2017-02-06 13:31:59.1986+01 | 1486384319.1986 |                 0 |              13 |                170736 |                 3148 |            9748550 |       1712049 |            16804 |        36479315 |                     0 |      35379922 | 2017-02-06 12:24:33.04114+01

 2017-02-06 13:32:00.289036+01 | 1486384320.28904 |                 0 |              13 |                170736 |                 3148 |            9748550 |       1712549 |            16809 |        36479315 |                     0 |      35394043 | 2017-02-06 12:24:33.04114+01

 2017-02-06 13:32:01.368981+01 | 1486384321.36898 |                 0 |              13 |                170736 |                 3148 |            9748550 |       1713149 |            16815 |        36479315 |                     0 |      35411809 | 2017-02-06 12:24:33.04114+01

 2017-02-06 13:32:02.468538+01 | 1486384322.46854 |                 0 |              13 |                170736 |                 3148 |            9748550 |       1713649 |            16820 |        36479315 |                     0 |      35427107 | 2017-02-06 12:24:33.04114+01

 2017-02-06 13:32:03.560667+01 | 1486384323.56067 |                 0 |              13 |                170736 |                 3148 |            9748550 |       1714149 |            16825 |        36479315 |                     0 |      35441811 | 2017-02-06 12:24:33.04114+01

 2017-02-06 13:32:04.645492+01 | 1486384324.64549 |                 0 |              13 |                170736 |                 3148 |            9748550 |       1714749 |            16831 |        36479315 |                     0 |      35458208 | 2017-02-06 12:24:33.04114+01

 2017-02-06 13:32:05.725577+01 | 1486384325.72558 |                 0 |              13 |                170736 |                 3148 |            9748550 |       1715249 |            16836 |        36479315 |                     0 |      35473106 | 2017-02-06 12:24:33.04114+01

 2017-02-06 13:32:06.80689+01 | 1486384326.80689 |                 0 |              13 |                170736 |                 3148 |            9748550 |       1715849 |            16842 |        36479315 |                     0 |      35490102 | 2017-02-06 12:24:33.04114+01

 2017-02-06 13:32:07.89177+01 | 1486384327.89177 |                 0 |              13 |                170736 |                 3148 |            9748550 |       1716349 |            16847 |        36479315 |                     0 |      35503994 | 2017-02-06 12:24:33.04114+01

 2017-02-06 13:32:08.979226+01 | 1486384328.97923 |                 0 |              13 |                170736 |                 3148 |            9748550 |       1716849 |            16852 |        36479315 |                     0 |      35517955 | 2017-02-06 12:24:33.04114+01

 2017-02-06 13:32:10.078908+01 | 1486384330.07891 |                 0 |              13 |                170736 |                 3148 |            9748550 |       1717449 |            16858 |        36479315 |                     0 |      35534674 | 2017-02-06 12:24:33.04114+01

 2017-02-06 13:32:11.173929+01 | 1486384331.17393 |                 0 |              13 |                170736 |                 3148 |            9748550 |       1717949 |            16863 |        36479315 |                     0 |      35548281 | 2017-02-06 12:24:33.04114+01

 2017-02-06 13:32:12.267836+01 | 1486384332.26784 |                 0 |              13 |                170736 |                 3148 |            9748550 |       1718549 |            16869 |        36479315 |                     0 |      35565280 | 2017-02-06 12:24:33.04114+01

 2017-02-06 13:32:13.353951+01 | 1486384333.35395 |                 0 |              13 |                170736 |                 3148 |            9748550 |       1719049 |            16874 |        36479315 |                     0 |      35578473 | 2017-02-06 12:24:33.04114+01

 2017-02-06 13:32:14.456421+01 | 1486384334.45642 |                 0 |              13 |                170736 |                 3148 |            9748550 |       1719549 |            16879 |        36479315 |                     0 |      35593397 | 2017-02-06 12:24:33.04114+01

 2017-02-06 13:32:15.561787+01 | 1486384335.56179 |                 0 |              13 |                170736 |                 3148 |            9748550 |       1720149 |            16885 |        36479315 |                     0 |      35609055 | 2017-02-06 12:24:33.04114+01

 2017-02-06 13:32:16.650617+01 | 1486384336.65062 |                 0 |              13 |                170736 |                 3148 |            9748550 |       1720649 |            16890 |        36479315 |                     0 |      35622787 | 2017-02-06 12:24:33.04114+01

 2017-02-06 13:32:17.73068+01 | 1486384337.73068 |                 0 |              13 |                170736 |                 3148 |            9748550 |       1721249 |            16896 |        36479315 |                     0 |      35639536 | 2017-02-06 12:24:33.04114+01

 2017-02-06 13:32:18.810464+01 | 1486384338.81046 |                 0 |              13 |                170736 |                 3148 |            9748550 |       1721749 |            16901 |        36479315 |                     0 |      35652750 | 2017-02-06 12:24:33.04114+01

 2017-02-06 13:32:19.8962+01 | 1486384339.8962 |                 0 |              13 |                170736 |                 3148 |            9748550 |       1722249 |            16906 |        36479315 |                     0 |      35666171 | 2017-02-06 12:24:33.04114+01

 2017-02-06 13:32:20.98621+01 | 1486384340.98621 |                 0 |              13 |                170736 |                 3148 |            9748550 |       1722849 |            16912 |        36479315 |                     0 |      35682049 | 2017-02-06 12:24:33.04114+01

 2017-02-06 13:32:22.076934+01 | 1486384342.07693 |                 0 |              13 |                170736 |                 3148 |            9748550 |       1723349 |            16917 |        36479315 |                     0 |      35696411 | 2017-02-06 12:24:33.04114+01

 2017-02-06 13:32:23.173317+01 | 1486384343.17332 |                 0 |              13 |                170736 |                 3148 |            9748550 |       1723849 |            16922 |        36479315 |                     0 |      35710770 | 2017-02-06 12:24:33.04114+01

 2017-02-06 13:32:24.265083+01 | 1486384344.26508 |                 0 |              13 |                170736 |                 3148 |            9748550 |       1724449 |            16928 |        36479315 |                     0 |      35726350 | 2017-02-06 12:24:33.04114+01

 2017-02-06 13:32:25.351018+01 | 1486384345.35102 |                 0 |              13 |                170736 |                 3148 |            9748550 |       1724949 |            16933 |        36479315 |                     0 |      35739680 | 2017-02-06 12:24:33.04114+01

 2017-02-06 13:32:26.446376+01 | 1486384346.44638 |                 0 |              13 |                170736 |                 3148 |            9748550 |       1725549 |            16939 |        36479315 |                     0 |      35755556 | 2017-02-06 12:24:33.04114+01

 2017-02-06 13:32:27.534302+01 | 1486384347.5343 |                 0 |              13 |                170736 |                 3148 |            9748550 |       1726049 |            16944 |        36479315 |                     0 |      35769391 | 2017-02-06 12:24:33.04114+01

 2017-02-06 13:32:28.61656+01 | 1486384348.61656 |                 0 |              13 |                170736 |                 3148 |            9748550 |       1726549 |            16949 |        36479315 |                     0 |      35782705 | 2017-02-06 12:24:33.04114+01

 2017-02-06 13:32:29.70884+01 | 1486384349.70884 |                 0 |              13 |                170736 |                 3148 |            9748550 |       1727149 |            16955 |        36479315 |                     0 |      35799092 | 2017-02-06 12:24:33.04114+01

 2017-02-06 13:32:30.79183+01 | 1486384350.79183 |                 0 |              13 |                170736 |                 3148 |            9748550 |       1727649 |            16960 |        36479315 |                     0 |      35812097 | 2017-02-06 12:24:33.04114+01

 2017-02-06 13:32:31.875031+01 | 1486384351.87503 |                 0 |              13 |                170736 |                 3148 |            9748550 |       1728249 |            16966 |        36479315 |                     0 |      35828584 | 2017-02-06 12:24:33.04114+01

 2017-02-06 13:32:32.965982+01 | 1486384352.96598 |                 0 |              13 |                170736 |                 3148 |            9748550 |       1728749 |            16971 |        36479315 |                     0 |      35841665 | 2017-02-06 12:24:33.04114+01

 2017-02-06 13:32:34.05905+01 | 1486384354.05905 |                 0 |              13 |                170736 |                 3148 |            9748550 |       1729249 |            16976 |        36479315 |                     0 |      35855772 | 2017-02-06 12:24:33.04114+01

 2017-02-06 13:32:35.149155+01 | 1486384355.14915 |                 0 |              13 |                170736 |                 3148 |            9748550 |       1729749 |            16981 |        36479315 |                     0 |      35869041 | 2017-02-06 12:24:33.04114+01

 2017-02-06 13:32:36.205197+01 | 1486384356.2052 |                 0 |              13 |                170736 |                 3148 |            9748550 |       1730249 |            16986 |        36479315 |                     0 |      35880424 | 2017-02-06 12:24:33.04114+01

 2017-02-06 13:32:37.295032+01 | 1486384357.29503 |                 0 |              13 |                170736 |                 3148 |            9748550 |       1730849 |            16992 |        36479315 |                     0 |      35892184 | 2017-02-06 12:24:33.04114+01

 2017-02-06 13:32:38.359165+01 | 1486384358.35916 |                 0 |              13 |                170736 |                 3148 |            9748550 |       1731449 |            16998 |        36479315 |                     0 |      35907221 | 2017-02-06 12:24:33.04114+01

 2017-02-06 13:32:39.436242+01 | 1486384359.43624 |                 0 |              13 |                170736 |                 3148 |            9748550 |       1731949 |            17003 |        36479315 |                     0 |      35918886 | 2017-02-06 12:24:33.04114+01

 2017-02-06 13:32:40.543935+01 | 1486384360.54394 |                 0 |              13 |                170736 |                 3148 |            9748550 |       1732449 |            17008 |        36978333 |                     0 |      35931312 | 2017-02-06 12:24:33.04114+01

 2017-02-06 13:32:41.633988+01 | 1486384361.63399 |                 0 |              13 |                170736 |                 3148 |            9748550 |       1733049 |            17014 |        36978333 |                     0 |      35945483 | 2017-02-06 12:24:33.04114+01

 2017-02-06 13:32:42.725289+01 | 1486384362.72529 |                 0 |              13 |                170736 |                 3148 |            9748550 |       1733549 |            17019 |        36978333 |                     0 |      35957660 | 2017-02-06 12:24:33.04114+01

 2017-02-06 13:32:43.805048+01 | 1486384363.80505 |                 0 |              13 |                170736 |                 3148 |            9748550 |       1734149 |            17025 |        36978333 |                     0 |      35969562 | 2017-02-06 12:24:33.04114+01

 2017-02-06 13:32:44.88943+01 | 1486384364.88943 |                 0 |              13 |                170736 |                 3148 |            9748550 |       1734649 |            17030 |        36978333 |                     0 |      35980893 | 2017-02-06 12:24:33.04114+01

 2017-02-06 13:32:45.96599+01 | 1486384365.96599 |                 0 |              13 |                170736 |                 3148 |            9748550 |       1735149 |            17035 |        36978333 |                     0 |      35993725 | 2017-02-06 12:24:33.04114+01

 2017-02-06 13:32:47.05314+01 | 1486384367.05314 |                 0 |              13 |                170736 |                 3148 |            9748550 |       1735749 |            17041 |        36978333 |                     0 |      36009505 | 2017-02-06 12:24:33.04114+01

 2017-02-06 13:32:48.138698+01 | 1486384368.1387 |                 0 |              13 |                170736 |                 3148 |            9748550 |       1736249 |            17046 |        36978333 |                     0 |      36023502 | 2017-02-06 12:24:33.04114+01

 2017-02-06 13:32:49.229387+01 | 1486384369.22939 |                 0 |              13 |                170736 |                 3148 |            9748550 |       1736749 |            17051 |        36978333 |                     0 |      36036030 | 2017-02-06 12:24:33.04114+01

 2017-02-06 13:32:50.320501+01 | 1486384370.3205 |                 0 |              13 |                170736 |                 3148 |            9748550 |       1737349 |            17057 |        36978333 |                     0 |      36053328 | 2017-02-06 12:24:33.04114+01

 2017-02-06 13:32:51.414944+01 | 1486384371.41494 |                 0 |              13 |                170736 |                 3148 |            9748550 |       1737849 |            17062 |        36978333 |                     0 |      36067215 | 2017-02-06 12:24:33.04114+01

 2017-02-06 13:32:52.514908+01 | 1486384372.51491 |                 0 |              13 |                170736 |                 3148 |            9748550 |       1738449 |            17068 |        36978333 |                     0 |      36082968 | 2017-02-06 12:24:33.04114+01

 2017-02-06 13:32:53.583447+01 | 1486384373.58345 |                 0 |              13 |                170736 |                 3148 |            9748550 |       1738949 |            17073 |        36978333 |                     0 |      36096313 | 2017-02-06 12:24:33.04114+01

 2017-02-06 13:32:54.66359+01 | 1486384374.66359 |                 0 |              13 |                170736 |                 3148 |            9748550 |       1739449 |            17078 |        36978333 |                     0 |      36108543 | 2017-02-06 12:24:33.04114+01

 2017-02-06 13:32:55.752223+01 | 1486384375.75222 |                 0 |              13 |                170736 |                 3148 |            9748550 |       1740049 |            17084 |        36978333 |                     0 |      36124891 | 2017-02-06 12:24:33.04114+01

 2017-02-06 13:32:56.836044+01 | 1486384376.83604 |                 0 |              13 |                170736 |                 3148 |            9748550 |       1740549 |            17089 |        36978333 |                     0 |      36138806 | 2017-02-06 12:24:33.04114+01

 2017-02-06 13:32:57.912867+01 | 1486384377.91287 |                 0 |              13 |                170736 |                 3148 |            9748550 |       1741049 |            17094 |        36978333 |                     0 |      36150329 | 2017-02-06 12:24:33.04114+01

 2017-02-06 13:32:58.995593+01 | 1486384378.99559 |                 0 |              13 |                170736 |                 3148 |            9748550 |       1741649 |            17100 |        36978333 |                     0 |      36164772 | 2017-02-06 12:24:33.04114+01

 2017-02-06 13:33:00.08367+01 | 1486384380.08367 |                 0 |              13 |                170736 |                 3148 |            9748550 |       1742149 |            17105 |        36978333 |                     0 |      36177242 | 2017-02-06 12:24:33.04114+01

 2017-02-06 13:33:01.179887+01 | 1486384381.17989 |                 0 |              13 |                170736 |                 3148 |            9748550 |       1742749 |            17111 |        36978333 |                     0 |      36192032 | 2017-02-06 12:24:33.04114+01

 2017-02-06 13:33:02.277548+01 | 1486384382.27755 |                 0 |              13 |                170736 |                 3148 |            9748550 |       1743249 |            17116 |        36978333 |                     0 |      36204897 | 2017-02-06 12:24:33.04114+01

 2017-02-06 13:33:03.361058+01 | 1486384383.36106 |                 0 |              13 |                170736 |                 3148 |            9748550 |       1743749 |            17121 |        36978333 |                     0 |      36217444 | 2017-02-06 12:24:33.04114+01

 2017-02-06 13:33:04.453579+01 | 1486384384.45358 |                 0 |              13 |                170736 |                 3148 |            9748550 |       1744349 |            17127 |        36978333 |                     0 |      36229972 | 2017-02-06 12:24:33.04114+01

 2017-02-06 13:33:05.53462+01 | 1486384385.53462 |                 0 |              13 |                170736 |                 3148 |            9748550 |       1744849 |            17132 |        36978333 |                     0 |      36243285 | 2017-02-06 12:24:33.04114+01

 2017-02-06 13:33:06.616479+01 | 1486384386.61648 |                 0 |              13 |                170736 |                 3148 |            9748550 |       1745349 |            17137 |        36978333 |                     0 |      36255804 | 2017-02-06 12:24:33.04114+01

 2017-02-06 13:33:07.711687+01 | 1486384387.71169 |                 0 |              13 |                170736 |                 3148 |            9748550 |       1745949 |            17143 |        36978333 |                     0 |      36271667 | 2017-02-06 12:24:33.04114+01

 2017-02-06 13:33:08.798097+01 | 1486384388.7981 |                 0 |              13 |                170736 |                 3148 |            9748550 |       1746449 |            17148 |        36978333 |                     0 |      36285141 | 2017-02-06 12:24:33.04114+01

 2017-02-06 13:33:09.885834+01 | 1486384389.88583 |                 0 |              13 |                170736 |                 3148 |            9748550 |       1747049 |            17154 |        36978333 |                     0 |      36300727 | 2017-02-06 12:24:33.04114+01

 2017-02-06 13:33:10.964208+01 | 1486384390.96421 |                 0 |              13 |                170736 |                 3148 |            9748550 |       1747549 |            17159 |        36978333 |                     0 |      36313739 | 2017-02-06 12:24:33.04114+01

 2017-02-06 13:33:12.037731+01 | 1486384392.03773 |                 0 |              13 |                170736 |                 3148 |            9748550 |       1748049 |            17164 |        36978333 |                     0 |      36327183 | 2017-02-06 12:24:33.04114+01

 2017-02-06 13:33:13.099035+01 | 1486384393.09904 |                 0 |              13 |                170736 |                 3148 |            9748550 |       1748649 |            17170 |        36978333 |                     0 |      36341726 | 2017-02-06 12:24:33.04114+01

 2017-02-06 13:33:14.178327+01 | 1486384394.17833 |                 0 |              13 |                170736 |                 3148 |            9748550 |       1749149 |            17175 |        36978333 |                     0 |      36350775 | 2017-02-06 12:24:33.04114+01

 2017-02-06 13:33:15.252577+01 | 1486384395.25258 |                 0 |              13 |                170736 |                 3148 |            9748550 |       1749649 |            17180 |        36978333 |                     0 |      36362258 | 2017-02-06 12:24:33.04114+01

 2017-02-06 13:33:16.343011+01 | 1486384396.34301 |                 0 |              13 |                170736 |                 3148 |            9748550 |       1750249 |            17186 |        36978333 |                     0 |      36374395 | 2017-02-06 12:24:33.04114+01

 2017-02-06 13:33:17.434649+01 | 1486384397.43465 |                 0 |              13 |                170736 |                 3148 |            9748550 |       1750749 |            17191 |        36978333 |                     0 |      36386272 | 2017-02-06 12:24:33.04114+01

 2017-02-06 13:33:18.529417+01 | 1486384398.52942 |                 0 |              13 |                170736 |                 3148 |            9748550 |       1751249 |            17196 |        37483822 |                     0 |      36398742 | 2017-02-06 12:24:33.04114+01

 2017-02-06 13:33:19.613311+01 | 1486384399.61331 |                 0 |              13 |                170736 |                 3148 |            9748550 |       1751849 |            17202 |        37483822 |                     0 |      36412769 | 2017-02-06 12:24:33.04114+01

 2017-02-06 13:33:20.701095+01 | 1486384400.7011 |                 0 |              13 |                170736 |                 3148 |            9748550 |       1752349 |            17207 |        37483822 |                     0 |      36421184 | 2017-02-06 12:24:33.04114+01

 2017-02-06 13:33:21.768696+01 | 1486384401.7687 |                 0 |              13 |                170736 |                 3148 |            9748550 |       1752949 |            17213 |        37483822 |                     0 |      36433962 | 2017-02-06 12:24:33.04114+01

 2017-02-06 13:33:22.838813+01 | 1486384402.83881 |                 0 |              13 |                170736 |                 3148 |            9748550 |       1753449 |            17218 |        37483822 |                     0 |      36443421 | 2017-02-06 12:24:33.04114+01

 2017-02-06 13:33:23.931257+01 | 1486384403.93126 |                 0 |              13 |                170736 |                 3148 |            9748550 |       1753949 |            17223 |        37483822 |                     0 |      36453011 | 2017-02-06 12:24:33.04114+01

 2017-02-06 13:33:25.004695+01 | 1486384405.00469 |                 0 |              13 |                170736 |                 3148 |            9748550 |       1754549 |            17229 |        37483822 |                     0 |      36465304 | 2017-02-06 12:24:33.04114+01

 2017-02-06 13:33:26.083418+01 | 1486384406.08342 |                 0 |              13 |                170736 |                 3148 |            9748550 |       1755049 |            17234 |        37483822 |                     0 |      36474280 | 2017-02-06 12:24:33.04114+01

 2017-02-06 13:33:27.170126+01 | 1486384407.17013 |                 0 |              13 |                170736 |                 3148 |            9748550 |       1755549 |            17239 |        37483822 |                     0 |      36485429 | 2017-02-06 12:24:33.04114+01

 2017-02-06 13:33:28.256464+01 | 1486384408.25646 |                 0 |              13 |                170736 |                 3148 |            9748550 |       1756149 |            17245 |        37483822 |                     0 |      36496726 | 2017-02-06 12:24:33.04114+01

 2017-02-06 13:33:29.321928+01 | 1486384409.32193 |                 0 |              13 |                170736 |                 3148 |            9748550 |       1756649 |            17250 |        37483822 |                     0 |      36507328 | 2017-02-06 12:24:33.04114+01

 2017-02-06 13:33:30.408759+01 | 1486384410.40876 |                 0 |              13 |                170736 |                 3148 |            9748550 |       1757149 |            17255 |        37483822 |                     0 |      36518380 | 2017-02-06 12:24:33.04114+01

 2017-02-06 13:33:31.506067+01 | 1486384411.50607 |                 0 |              13 |                170736 |                 3148 |            9748550 |       1757749 |            17261 |        37483822 |                     0 |      36531852 | 2017-02-06 12:24:33.04114+01

 2017-02-06 13:33:32.611763+01 | 1486384412.61176 |                 0 |              13 |                170736 |                 3148 |            9748550 |       1758249 |            17266 |        37483822 |                     0 |      36543737 | 2017-02-06 12:24:33.04114+01

 2017-02-06 13:33:33.709002+01 | 1486384413.709 |                 0 |              13 |                170736 |                 3148 |            9748550 |       1758849 |            17272 |        37483822 |                     0 |      36558739 | 2017-02-06 12:24:33.04114+01

 2017-02-06 13:33:34.797787+01 | 1486384414.79779 |                 0 |              13 |                170736 |                 3148 |            9748550 |       1759349 |            17277 |        37483822 |                     0 |      36572015 | 2017-02-06 12:24:33.04114+01

 2017-02-06 13:33:35.870321+01 | 1486384415.87032 |                 0 |              13 |                170736 |                 3148 |            9748550 |       1759849 |            17282 |        37483822 |                     0 |      36584553 | 2017-02-06 12:24:33.04114+01

 2017-02-06 13:33:36.944428+01 | 1486384416.94443 |                 0 |              13 |                170736 |                 3148 |            9748550 |       1760449 |            17288 |        37483822 |                     0 |      36600909 | 2017-02-06 12:24:33.04114+01

 2017-02-06 13:33:38.037551+01 | 1486384418.03755 |                 0 |              13 |                170736 |                 3148 |            9748550 |       1760949 |            17293 |        37483822 |                     0 |      36612809 | 2017-02-06 12:24:33.04114+01

 2017-02-06 13:33:39.113836+01 | 1486384419.11384 |                 0 |              13 |                170736 |                 3148 |            9748550 |       1761449 |            17298 |        37483822 |                     0 |      36622677 | 2017-02-06 12:24:33.04114+01

 2017-02-06 13:33:40.200297+01 | 1486384420.2003 |                 0 |              13 |                170736 |                 3148 |            9748550 |       1762049 |            17304 |        37483822 |                     0 |      36636884 | 2017-02-06 12:24:33.04114+01

 2017-02-06 13:33:41.276262+01 | 1486384421.27626 |                 0 |              13 |                170736 |                 3148 |            9748550 |       1762549 |            17309 |        37483822 |                     0 |      36649647 | 2017-02-06 12:24:33.04114+01

 2017-02-06 13:33:42.371875+01 | 1486384422.37188 |                 0 |              13 |                170736 |                 3148 |            9748550 |       1763049 |            17314 |        37483822 |                     0 |      36660934 | 2017-02-06 12:24:33.04114+01

 2017-02-06 13:33:43.455954+01 | 1486384423.45595 |                 0 |              13 |                170736 |                 3148 |            9748550 |       1763649 |            17320 |        37483822 |                     0 |      36676807 | 2017-02-06 12:24:33.04114+01

 2017-02-06 13:33:44.535477+01 | 1486384424.53548 |                 0 |              13 |                170736 |                 3148 |            9748550 |       1764149 |            17325 |        37483822 |                     0 |      36689931 | 2017-02-06 12:24:33.04114+01

 2017-02-06 13:33:45.630831+01 | 1486384425.63083 |                 0 |              13 |                170736 |                 3148 |            9748550 |       1764749 |            17331 |        37483822 |                     0 |      36705194 | 2017-02-06 12:24:33.04114+01

 2017-02-06 13:33:46.71917+01 | 1486384426.71917 |                 0 |              13 |                170736 |                 3148 |            9748550 |       1765249 |            17336 |        37483822 |                     0 |      36717980 | 2017-02-06 12:24:33.04114+01

 2017-02-06 13:33:47.804725+01 | 1486384427.80472 |                 0 |              13 |                170736 |                 3148 |            9748550 |       1765749 |            17341 |        37483822 |                     0 |      36730808 | 2017-02-06 12:24:33.04114+01

 2017-02-06 13:33:48.900299+01 | 1486384428.9003 |                 0 |              13 |                170736 |                 3148 |            9748550 |       1766349 |            17347 |        37483822 |                     0 |      36746893 | 2017-02-06 12:24:33.04114+01

 2017-02-06 13:33:49.966245+01 | 1486384429.96624 |                 0 |              13 |                170736 |                 3148 |            9748550 |       1766849 |            17352 |        37483822 |                     0 |      36760624 | 2017-02-06 12:24:33.04114+01

 2017-02-06 13:33:51.047042+01 | 1486384431.04704 |                 0 |              13 |                170736 |                 3148 |            9748550 |       1767349 |            17357 |        37483822 |                     0 |      36772912 | 2017-02-06 12:24:33.04114+01

 2017-02-06 13:33:52.131404+01 | 1486384432.1314 |                 0 |              13 |                170736 |                 3148 |            9748550 |       1767949 |            17363 |        37483822 |                     0 |      36788984 | 2017-02-06 12:24:33.04114+01

 2017-02-06 13:33:53.213079+01 | 1486384433.21308 |                 0 |              13 |                170736 |                 3148 |            9748550 |       1768449 |            17368 |        37483822 |                     0 |      36802596 | 2017-02-06 12:24:33.04114+01

 2017-02-06 13:33:54.295349+01 | 1486384434.29535 |                 0 |              13 |                170736 |                 3148 |            9748550 |       1768949 |            17373 |        37483822 |                     0 |      36815713 | 2017-02-06 12:24:33.04114+01

 2017-02-06 13:33:55.382749+01 | 1486384435.38275 |                 0 |              13 |                170736 |                 3148 |            9748550 |       1769549 |            17379 |        37483822 |                     0 |      36831612 | 2017-02-06 12:24:33.04114+01

 2017-02-06 13:33:56.473544+01 | 1486384436.47354 |                 0 |              13 |                170736 |                 3148 |            9748550 |       1770049 |            17384 |        37483822 |                     0 |      36845808 | 2017-02-06 12:24:33.04114+01

 2017-02-06 13:33:57.562198+01 | 1486384437.5622 |                 0 |              13 |                170736 |                 3148 |            9748550 |       1770649 |            17390 |        37483822 |                     0 |      36861260 | 2017-02-06 12:24:33.04114+01

 2017-02-06 13:33:58.641448+01 | 1486384438.64145 |                 0 |              13 |                170736 |                 3148 |            9748550 |       1771149 |            17395 |        37988512 |                     0 |      36874913 | 2017-02-06 12:24:33.04114+01

 2017-02-06 13:33:59.724412+01 | 1486384439.72441 |                 0 |              13 |                170736 |                 3148 |            9748550 |       1771649 |            17400 |        37988512 |                     0 |      36886845 | 2017-02-06 12:24:33.04114+01

 2017-02-06 13:34:00.815955+01 | 1486384440.81595 |                 0 |              13 |                170736 |                 3148 |            9748550 |       1772249 |            17406 |        37988512 |                     0 |      36899454 | 2017-02-06 12:24:33.04114+01

 2017-02-06 13:34:01.891272+01 | 1486384441.89127 |                 0 |              13 |                170736 |                 3148 |            9748550 |       1772749 |            17411 |        37988512 |                     0 |      36911149 | 2017-02-06 12:24:33.04114+01

 2017-02-06 13:34:02.995837+01 | 1486384442.99584 |                 0 |              13 |                170736 |                 3148 |            9748550 |       1773249 |            17416 |        37988512 |                     0 |      36921712 | 2017-02-06 12:24:33.04114+01

 2017-02-06 13:34:04.084201+01 | 1486384444.0842 |                 0 |              13 |                170736 |                 3148 |            9748550 |       1773849 |            17422 |        37988512 |                     0 |      36933328 | 2017-02-06 12:24:33.04114+01

 2017-02-06 13:34:05.164226+01 | 1486384445.16423 |                 0 |              13 |                170736 |                 3148 |            9748550 |       1774349 |            17427 |        37988512 |                     0 |      36944043 | 2017-02-06 12:24:33.04114+01

 2017-02-06 13:34:06.245529+01 | 1486384446.24553 |                 0 |              13 |                170736 |                 3148 |            9748550 |       1774949 |            17433 |        37988512 |                     0 |      36956813 | 2017-02-06 12:24:33.04114+01

 2017-02-06 13:34:07.331083+01 | 1486384447.33108 |                 0 |              13 |                170736 |                 3148 |            9748550 |       1775449 |            17438 |        37988512 |                     0 |      36968276 | 2017-02-06 12:24:33.04114+01

 2017-02-06 13:34:08.415481+01 | 1486384448.41548 |                 0 |              13 |                170736 |                 3148 |            9748550 |       1775949 |            17443 |        37988512 |                     0 |      36978909 | 2017-02-06 12:24:33.04114+01

 2017-02-06 13:34:09.505568+01 | 1486384449.50557 |                 0 |              13 |                170736 |                 3148 |            9748550 |       1776549 |            17449 |        37988512 |                     0 |      36995226 | 2017-02-06 12:24:33.04114+01

 2017-02-06 13:34:10.591878+01 | 1486384450.59188 |                 0 |              13 |                170736 |                 3148 |            9748550 |       1777049 |            17454 |        37988512 |                     0 |      37008554 | 2017-02-06 12:24:33.04114+01

 2017-02-06 13:34:11.678062+01 | 1486384451.67806 |                 0 |              13 |                170736 |                 3148 |            9748550 |       1777649 |            17460 |        37988512 |                     0 |      37023660 | 2017-02-06 12:24:33.04114+01

 2017-02-06 13:34:12.779081+01 | 1486384452.77908 |                 0 |              13 |                170736 |                 3148 |            9748550 |       1778149 |            17465 |        37988512 |                     0 |      37037478 | 2017-02-06 12:24:33.04114+01

 2017-02-06 13:34:13.872358+01 | 1486384453.87236 |                 0 |              13 |                170736 |                 3148 |            9748550 |       1778649 |            17470 |        37988512 |                     0 |      37051145 | 2017-02-06 12:24:33.04114+01

 2017-02-06 13:34:14.939562+01 | 1486384454.93956 |                 0 |              13 |                170736 |                 3148 |            9748550 |       1779249 |            17476 |        37988512 |                     0 |      37067101 | 2017-02-06 12:24:33.04114+01

 2017-02-06 13:34:16.027415+01 | 1486384456.02742 |                 0 |              13 |                170736 |                 3148 |            9748550 |       1779749 |            17481 |        37988512 |                     0 |      37076287 | 2017-02-06 12:24:33.04114+01

 2017-02-06 13:34:17.117233+01 | 1486384457.11723 |                 0 |              13 |                170736 |                 3148 |            9748550 |       1780249 |            17486 |        37988512 |                     0 |      37088752 | 2017-02-06 12:24:33.04114+01

 2017-02-06 13:34:18.185621+01 | 1486384458.18562 |                 0 |              13 |                170736 |                 3148 |            9748550 |       1780849 |            17492 |        37988512 |                     0 |      37101690 | 2017-02-06 12:24:33.04114+01

 2017-02-06 13:34:19.271954+01 | 1486384459.27195 |                 0 |              13 |                170736 |                 3148 |            9748550 |       1781349 |            17497 |        37988512 |                     0 |      37112478 | 2017-02-06 12:24:33.04114+01

 2017-02-06 13:34:20.355855+01 | 1486384460.35585 |                 0 |              13 |                170736 |                 3148 |            9748550 |       1781849 |            17502 |        37988512 |                     0 |      37124615 | 2017-02-06 12:24:33.04114+01

 2017-02-06 13:34:21.436477+01 | 1486384461.43648 |                 0 |              13 |                170736 |                 3148 |            9748550 |       1782449 |            17508 |        37988512 |                     0 |      37137490 | 2017-02-06 12:24:33.04114+01

 2017-02-06 13:34:22.513908+01 | 1486384462.51391 |                 0 |              13 |                170736 |                 3148 |            9748550 |       1782949 |            17513 |        37988512 |                     0 |      37150701 | 2017-02-06 12:24:33.04114+01

 2017-02-06 13:34:23.597086+01 | 1486384463.59709 |                 0 |              13 |                170736 |                 3148 |            9748550 |       1783549 |            17519 |        37988512 |                     0 |      37165784 | 2017-02-06 12:24:33.04114+01

 2017-02-06 13:34:24.683851+01 | 1486384464.68385 |                 0 |              13 |                170736 |                 3148 |            9748550 |       1784049 |            17524 |        37988512 |                     0 |      37179398 | 2017-02-06 12:24:33.04114+01

 2017-02-06 13:34:25.775603+01 | 1486384465.7756 |                 0 |              13 |                170736 |                 3148 |            9748550 |       1784549 |            17529 |        37988512 |                     0 |      37192713 | 2017-02-06 12:24:33.04114+01

 2017-02-06 13:34:26.861972+01 | 1486384466.86197 |                 0 |              13 |                170736 |                 3148 |            9748550 |       1785149 |            17535 |        37988512 |                     0 |      37209686 | 2017-02-06 12:24:33.04114+01

 2017-02-06 13:34:27.953815+01 | 1486384467.95381 |                 0 |              13 |                170736 |                 3148 |            9748550 |       1785649 |            17540 |        37988512 |                     0 |      37222933 | 2017-02-06 12:24:33.04114+01

 2017-02-06 13:34:29.050284+01 | 1486384469.05028 |                 0 |              13 |                170736 |                 3148 |            9748550 |       1786149 |            17545 |        37988512 |                     0 |      37234608 | 2017-02-06 12:24:33.04114+01

 2017-02-06 13:34:30.132437+01 | 1486384470.13244 |                 0 |              13 |                170736 |                 3148 |            9748550 |       1786749 |            17551 |        37988512 |                     0 |      37251952 | 2017-02-06 12:24:33.04114+01

 2017-02-06 13:34:31.197357+01 | 1486384471.19736 |                 0 |              13 |                170736 |                 3148 |            9748550 |       1787249 |            17556 |        37988512 |                     0 |      37266080 | 2017-02-06 12:24:33.04114+01

 2017-02-06 13:34:32.286858+01 | 1486384472.28686 |                 0 |              13 |                170736 |                 3148 |            9748550 |       1787749 |            17561 |        37988512 |                     0 |      37279612 | 2017-02-06 12:24:33.04114+01

 2017-02-06 13:34:33.367344+01 | 1486384473.36734 |                 0 |              13 |                170736 |                 3148 |            9748550 |       1788349 |            17567 |        37988512 |                     0 |      37294168 | 2017-02-06 12:24:33.04114+01

 2017-02-06 13:34:34.448629+01 | 1486384474.44863 |                 0 |              13 |                170736 |                 3148 |            9748550 |       1788849 |            17572 |        37988512 |                     0 |      37307842 | 2017-02-06 12:24:33.04114+01

 2017-02-06 13:34:35.528743+01 | 1486384475.52874 |                 0 |              13 |                170736 |                 3148 |            9748550 |       1789449 |            17578 |        37988512 |                     0 |      37324068 | 2017-02-06 12:24:33.04114+01

 2017-02-06 13:34:36.604752+01 | 1486384476.60475 |                 0 |              13 |                170736 |                 3148 |            9748550 |       1789849 |            17582 |        37988512 |                     0 |      37335104 | 2017-02-06 12:24:33.04114+01

 2017-02-06 13:34:37.688411+01 | 1486384477.68841 |                 0 |              13 |                170736 |                 3148 |            9748550 |       1790449 |            17588 |        37988512 |                     0 |      37350342 | 2017-02-06 12:24:33.04114+01

 2017-02-06 13:34:38.776141+01 | 1486384478.77614 |                 0 |              13 |                170736 |                 3148 |            9748550 |       1791049 |            17594 |        37988512 |                     0 |      37367513 | 2017-02-06 12:24:33.04114+01

 2017-02-06 13:34:39.839328+01 | 1486384479.83933 |                 0 |              13 |                170736 |                 3148 |            9748550 |       1791549 |            17599 |        38492100 |                     0 |      37381002 | 2017-02-06 12:24:33.04114+01

 2017-02-06 13:34:40.931038+01 | 1486384480.93104 |                 0 |              13 |                170736 |                 3148 |            9748550 |       1792049 |            17604 |        38492100 |                     0 |      37393622 | 2017-02-06 12:24:33.04114+01

 2017-02-06 13:34:42.012336+01 | 1486384482.01234 |                 0 |              13 |                170736 |                 3148 |            9748550 |       1792649 |            17610 |        38492100 |                     0 |      37410320 | 2017-02-06 12:24:33.04114+01

 2017-02-06 13:34:43.108099+01 | 1486384483.1081 |                 0 |              13 |                170736 |                 3148 |            9748550 |       1793149 |            17615 |        38492100 |                     0 |      37423683 | 2017-02-06 12:24:33.04114+01

 2017-02-06 13:34:44.180325+01 | 1486384484.18033 |                 0 |              13 |                170736 |                 3148 |            9748550 |       1793649 |            17620 |        38492100 |                     0 |      37436918 | 2017-02-06 12:24:33.04114+01

 2017-02-06 13:34:45.261198+01 | 1486384485.2612 |                 0 |              13 |                170736 |                 3148 |            9748550 |       1794249 |            17626 |        38492100 |                     0 |      37452571 | 2017-02-06 12:24:33.04114+01

 2017-02-06 13:34:46.348965+01 | 1486384486.34896 |                 0 |              13 |                170736 |                 3148 |            9748550 |       1794749 |            17631 |        38492100 |                     0 |      37466334 | 2017-02-06 12:24:33.04114+01

 2017-02-06 13:34:47.435511+01 | 1486384487.43551 |                 0 |              13 |                170736 |                 3148 |            9748550 |       1795349 |            17637 |        38492100 |                     0 |      37483247 | 2017-02-06 12:24:33.04114+01

 2017-02-06 13:34:48.517884+01 | 1486384488.51788 |                 0 |              13 |                170736 |                 3148 |            9748550 |       1795849 |            17642 |        38492100 |                     0 |      37497399 | 2017-02-06 12:24:33.04114+01

 2017-02-06 13:34:49.607159+01 | 1486384489.60716 |                 0 |              13 |                170736 |                 3148 |            9748550 |       1796349 |            17647 |        38492100 |                     0 |      37510028 | 2017-02-06 12:24:33.04114+01

 2017-02-06 13:34:50.698889+01 | 1486384490.69889 |                 0 |              13 |                170736 |                 3148 |            9748550 |       1796949 |            17653 |        38492100 |                     0 |      37526650 | 2017-02-06 12:24:33.04114+01

 2017-02-06 13:34:51.785172+01 | 1486384491.78517 |                 0 |              13 |                170736 |                 3148 |            9748550 |       1797449 |            17658 |        38492100 |                     0 |      37540540 | 2017-02-06 12:24:33.04114+01

 2017-02-06 13:34:52.881793+01 | 1486384492.88179 |                 0 |              13 |                170736 |                 3148 |            9748550 |       1797949 |            17663 |        38492100 |                     0 |      37554458 | 2017-02-06 12:24:33.04114+01

 2017-02-06 13:34:53.97205+01 | 1486384493.97205 |                 0 |              13 |                170736 |                 3148 |            9748550 |       1798549 |            17669 |        38492100 |                     0 |      37571076 | 2017-02-06 12:24:33.04114+01

 2017-02-06 13:34:55.062724+01 | 1486384495.06272 |                 0 |              13 |                170736 |                 3148 |            9748550 |       1799049 |            17674 |        38492100 |                     0 |      37584890 | 2017-02-06 12:24:33.04114+01

 2017-02-06 13:34:56.151624+01 | 1486384496.15162 |                 0 |              13 |                170736 |                 3148 |            9748550 |       1799649 |            17680 |        38492100 |                     0 |      37601055 | 2017-02-06 12:24:33.04114+01

 2017-02-06 13:34:57.241731+01 | 1486384497.24173 |                 0 |              13 |                170736 |                 3148 |            9748550 |       1800149 |            17685 |        38492100 |                     0 |      37614791 | 2017-02-06 12:24:33.04114+01

 2017-02-06 13:34:58.322987+01 | 1486384498.32299 |                 0 |              13 |                170736 |                 3148 |            9748550 |       1800649 |            17690 |        38492100 |                     0 |      37628925 | 2017-02-06 12:24:33.04114+01

 2017-02-06 13:34:59.399722+01 | 1486384499.39972 |                 0 |              13 |                170736 |                 3148 |            9748550 |       1801249 |            17696 |        38492100 |                     0 |      37643952 | 2017-02-06 12:24:33.04114+01

 2017-02-06 13:35:00.479338+01 | 1486384500.47934 |                 0 |              13 |                170736 |                 3148 |            9748550 |       1801749 |            17701 |        38492100 |                     0 |      37658039 | 2017-02-06 12:24:33.04114+01

 2017-02-06 13:35:01.565579+01 | 1486384501.56558 |                 0 |              13 |                170736 |                 3148 |            9748550 |       1802249 |            17706 |        38492100 |                     0 |      37671960 | 2017-02-06 12:24:33.04114+01

 2017-02-06 13:35:02.652134+01 | 1486384502.65213 |                 0 |              13 |                170736 |                 3148 |            9748550 |       1802849 |            17712 |        38492100 |                     0 |      37687213 | 2017-02-06 12:24:33.04114+01

 2017-02-06 13:35:03.720226+01 | 1486384503.72023 |                 0 |              13 |                170736 |                 3148 |            9748550 |       1803349 |            17717 |        38492100 |                     0 |      37700735 | 2017-02-06 12:24:33.04114+01

 2017-02-06 13:35:04.80654+01 | 1486384504.80654 |                 0 |              13 |                170736 |                 3148 |            9748550 |       1803849 |            17722 |        38492100 |                     0 |      37713683 | 2017-02-06 12:24:33.04114+01

 2017-02-06 13:35:05.89+01 | 1486384505.89 |                 0 |              13 |                170736 |                 3148 |            9748550 |       1804449 |            17728 |        38492100 |                     0 |      37731008 | 2017-02-06 12:24:33.04114+01

 2017-02-06 13:35:06.976309+01 | 1486384506.97631 |                 0 |              13 |                170736 |                 3148 |            9748550 |       1804949 |            17733 |        38492100 |                     0 |      37744182 | 2017-02-06 12:24:33.04114+01

 2017-02-06 13:35:08.07585+01 | 1486384508.07585 |                 0 |              13 |                170736 |                 3148 |            9748550 |       1805549 |            17739 |        38492100 |                     0 |      37762145 | 2017-02-06 12:24:33.04114+01

 2017-02-06 13:35:09.15918+01 | 1486384509.15918 |                 0 |              13 |                170736 |                 3148 |            9748550 |       1806049 |            17744 |        38492100 |                     0 |      37775912 | 2017-02-06 12:24:33.04114+01

 2017-02-06 13:35:10.251713+01 | 1486384510.25171 |                 0 |              13 |                170736 |                 3148 |            9748550 |       1806549 |            17749 |        38492100 |                     0 |      37788618 | 2017-02-06 12:24:33.04114+01

 2017-02-06 13:35:11.334265+01 | 1486384511.33426 |                 0 |              13 |                170736 |                 3148 |            9748550 |       1807149 |            17755 |        38492100 |                     0 |      37805231 | 2017-02-06 12:24:33.04114+01

 2017-02-06 13:35:12.41551+01 | 1486384512.41551 |                 0 |              13 |                170736 |                 3148 |            9748550 |       1807649 |            17760 |        38492100 |                     0 |      37819475 | 2017-02-06 12:24:33.04114+01

 2017-02-06 13:35:13.494821+01 | 1486384513.49482 |                 0 |              13 |                170736 |                 3148 |            9748550 |       1808249 |            17766 |        38492100 |                     0 |      37836415 | 2017-02-06 12:24:33.04114+01

 2017-02-06 13:35:14.573813+01 | 1486384514.57381 |                 0 |              13 |                170736 |                 3148 |            9748550 |       1808749 |            17771 |        38492100 |                     0 |      37849419 | 2017-02-06 12:24:33.04114+01

 2017-02-06 13:35:15.640963+01 | 1486384515.64096 |                 0 |              13 |                170736 |                 3148 |            9748550 |       1809249 |            17776 |        38492100 |                     0 |      37862976 | 2017-02-06 12:24:33.04114+01

 2017-02-06 13:35:16.723952+01 | 1486384516.72395 |                 0 |              13 |                170736 |                 3148 |            9748550 |       1809849 |            17782 |        38998488 |                     0 |      37878692 | 2017-02-06 12:24:33.04114+01

 2017-02-06 13:35:17.813588+01 | 1486384517.81359 |                 0 |              13 |                170736 |                 3148 |            9748550 |       1810349 |            17787 |        38998488 |                     0 |      37892810 | 2017-02-06 12:24:33.04114+01

 2017-02-06 13:35:18.908837+01 | 1486384518.90884 |                 0 |              13 |                170736 |                 3148 |            9748550 |       1810849 |            17792 |        38998488 |                     0 |      37906440 | 2017-02-06 12:24:33.04114+01

 2017-02-06 13:35:19.994782+01 | 1486384519.99478 |                 0 |              13 |                170736 |                 3148 |            9748550 |       1811449 |            17798 |        38998488 |                     0 |      37922659 | 2017-02-06 12:24:33.04114+01

 2017-02-06 13:35:21.087669+01 | 1486384521.08767 |                 0 |              13 |                170736 |                 3148 |            9748550 |       1811949 |            17803 |        38998488 |                     0 |      37936901 | 2017-02-06 12:24:33.04114+01

 2017-02-06 13:35:22.177504+01 | 1486384522.1775 |                 0 |              13 |                170736 |                 3148 |            9748550 |       1812549 |            17809 |        38998488 |                     0 |      37953116 | 2017-02-06 12:24:33.04114+01

 2017-02-06 13:35:23.263671+01 | 1486384523.26367 |                 0 |              13 |                170736 |                 3148 |            9748550 |       1813049 |            17814 |        38998488 |                     0 |      37967539 | 2017-02-06 12:24:33.04114+01

 2017-02-06 13:35:24.34904+01 | 1486384524.34904 |                 0 |              13 |                170736 |                 3148 |            9748550 |       1813549 |            17819 |        38998488 |                     0 |      37979540 | 2017-02-06 12:24:33.04114+01

 2017-02-06 13:35:25.439079+01 | 1486384525.43908 |                 0 |              13 |                170736 |                 3148 |            9748550 |       1814149 |            17825 |        38998488 |                     0 |      37992574 | 2017-02-06 12:24:33.04114+01

 2017-02-06 13:35:26.525209+01 | 1486384526.52521 |                 0 |              13 |                170736 |                 3148 |            9748550 |       1814649 |            17830 |        38998488 |                     0 |      38004742 | 2017-02-06 12:24:33.04114+01

 2017-02-06 13:35:27.59443+01 | 1486384527.59443 |                 0 |              13 |                170736 |                 3148 |            9748550 |       1815149 |            17835 |        38998488 |                     0 |      38014653 | 2017-02-06 12:24:33.04114+01

 2017-02-06 13:35:28.671135+01 | 1486384528.67113 |                 0 |              13 |                170736 |                 3148 |            9748550 |       1815749 |            17841 |        38998488 |                     0 |      38028715 | 2017-02-06 12:24:33.04114+01

 2017-02-06 13:35:29.753247+01 | 1486384529.75325 |                 0 |              13 |                170736 |                 3148 |            9748550 |       1816249 |            17846 |        38998488 |                     0 |      38038755 | 2017-02-06 12:24:33.04114+01

 2017-02-06 13:35:30.840401+01 | 1486384530.8404 |                 0 |              13 |                170736 |                 3148 |            9748550 |       1816749 |            17851 |        38998488 |                     0 |      38049436 | 2017-02-06 12:24:33.04114+01

 2017-02-06 13:35:31.920431+01 | 1486384531.92043 |                 0 |              13 |                170736 |                 3148 |            9748550 |       1817349 |            17857 |        38998488 |                     0 |      38064135 | 2017-02-06 12:24:33.04114+01

 2017-02-06 13:35:32.997579+01 | 1486384532.99758 |                 0 |              13 |                170736 |                 3148 |            9748550 |       1817849 |            17862 |        38998488 |                     0 |      38076072 | 2017-02-06 12:24:33.04114+01

 2017-02-06 13:35:34.090138+01 | 1486384534.09014 |                 0 |              13 |                170736 |                 3148 |            9748550 |       1818349 |            17867 |        38998488 |                     0 |      38086216 | 2017-02-06 12:24:33.04114+01

 2017-02-06 13:35:35.168318+01 | 1486384535.16832 |                 0 |              13 |                170736 |                 3148 |            9748550 |       1818849 |            17872 |        38998488 |                     0 |      38097165 | 2017-02-06 12:24:33.04114+01

 2017-02-06 13:35:36.242583+01 | 1486384536.24258 |                 0 |              13 |                170736 |                 3148 |            9748550 |       1819449 |            17878 |        38998488 |                     0 |      38110059 | 2017-02-06 12:24:33.04114+01

 2017-02-06 13:35:37.324264+01 | 1486384537.32426 |                 0 |              13 |                170736 |                 3148 |            9748550 |       1819949 |            17883 |        38998488 |                     0 |      38120915 | 2017-02-06 12:24:33.04114+01

 2017-02-06 13:35:38.404279+01 | 1486384538.40428 |                 0 |              13 |                170736 |                 3148 |            9748550 |       1820549 |            17889 |        38998488 |                     0 |      38134139 | 2017-02-06 12:24:33.04114+01

 2017-02-06 13:35:39.4816+01 | 1486384539.4816 |                 0 |              13 |                170736 |                 3148 |            9748550 |       1821049 |            17894 |        38998488 |                     0 |      38145757 | 2017-02-06 12:24:33.04114+01

 2017-02-06 13:35:40.566807+01 | 1486384540.56681 |                 0 |              13 |                170736 |                 3148 |            9748550 |       1821549 |            17899 |        38998488 |                     0 |      38157485 | 2017-02-06 12:24:33.04114+01

 2017-02-06 13:35:41.648523+01 | 1486384541.64852 |                 0 |              13 |                170736 |                 3148 |            9748550 |       1822149 |            17905 |        38998488 |                     0 |      38170791 | 2017-02-06 12:24:33.04114+01

 2017-02-06 13:35:42.737199+01 | 1486384542.7372 |                 0 |              13 |                170736 |                 3148 |            9748550 |       1822649 |            17910 |        38998488 |                     0 |      38182984 | 2017-02-06 12:24:33.04114+01

 2017-02-06 13:35:43.834477+01 | 1486384543.83448 |                 0 |              13 |                170736 |                 3148 |            9748550 |       1823249 |            17916 |        38998488 |                     0 |      38195888 | 2017-02-06 12:24:33.04114+01

 2017-02-06 13:35:44.900672+01 | 1486384544.90067 |                 0 |              13 |                170736 |                 3148 |            9748550 |       1823749 |            17921 |        38998488 |                     0 |      38208104 | 2017-02-06 12:24:33.04114+01

 2017-02-06 13:35:45.985283+01 | 1486384545.98528 |                 0 |              13 |                170736 |                 3148 |            9748550 |       1824249 |            17926 |        38998488 |                     0 |      38217044 | 2017-02-06 12:24:33.04114+01

 2017-02-06 13:35:47.071887+01 | 1486384547.07189 |                 0 |              13 |                170736 |                 3148 |            9748550 |       1824849 |            17932 |        38998488 |                     0 |      38231612 | 2017-02-06 12:24:33.04114+01

 2017-02-06 13:35:48.159788+01 | 1486384548.15979 |                 0 |              13 |                170736 |                 3148 |            9748550 |       1825349 |            17937 |        38998488 |                     0 |      38243706 | 2017-02-06 12:24:33.04114+01

 2017-02-06 13:35:49.250547+01 | 1486384549.25055 |                 0 |              13 |                170736 |                 3148 |            9748550 |       1825849 |            17942 |        38998488 |                     0 |      38256880 | 2017-02-06 12:24:33.04114+01

 2017-02-06 13:35:50.347567+01 | 1486384550.34757 |                 0 |              13 |                170736 |                 3148 |            9748550 |       1826449 |            17948 |        38998488 |                     0 |      38271741 | 2017-02-06 12:24:33.04114+01

 2017-02-06 13:35:51.438908+01 | 1486384551.43891 |                 0 |              13 |                170736 |                 3148 |            9748550 |       1826949 |            17953 |        38998488 |                     0 |      38283548 | 2017-02-06 12:24:33.04114+01

 2017-02-06 13:35:52.531166+01 | 1486384552.53117 |                 0 |              13 |                170736 |                 3148 |            9748550 |       1827549 |            17959 |        38998488 |                     0 |      38297021 | 2017-02-06 12:24:33.04114+01

 2017-02-06 13:35:53.620025+01 | 1486384553.62002 |                 0 |              13 |                170736 |                 3148 |            9748550 |       1828049 |            17964 |        38998488 |                     0 |      38306914 | 2017-02-06 12:24:33.04114+01

 2017-02-06 13:35:54.703178+01 | 1486384554.70318 |                 0 |              13 |                170736 |                 3148 |            9748550 |       1828549 |            17969 |        38998488 |                     0 |      38318697 | 2017-02-06 12:24:33.04114+01

 2017-02-06 13:35:55.781146+01 | 1486384555.78115 |                 0 |              13 |                170736 |                 3148 |            9748550 |       1829149 |            17975 |        38998488 |                     0 |      38331273 | 2017-02-06 12:24:33.04114+01

 2017-02-06 13:35:56.868921+01 | 1486384556.86892 |                 0 |              13 |                170736 |                 3148 |            9748550 |       1829649 |            17980 |        39502776 |                     0 |      38341747 | 2017-02-06 12:24:33.04114+01

 2017-02-06 13:35:57.939805+01 | 1486384557.93981 |                 0 |              13 |                170736 |                 3148 |            9748550 |       1830249 |            17986 |        39502776 |                     0 |      38355730 | 2017-02-06 12:24:33.04114+01

 2017-02-06 13:35:59.022592+01 | 1486384559.02259 |                 0 |              13 |                170736 |                 3148 |            9748550 |       1830749 |            17991 |        39502776 |                     0 |      38368369 | 2017-02-06 12:24:33.04114+01

 2017-02-06 13:36:00.109602+01 | 1486384560.1096 |                 0 |              13 |                170736 |                 3148 |            9748550 |       1831249 |            17996 |        39502776 |                     0 |      38380343 | 2017-02-06 12:24:33.04114+01

 2017-02-06 13:36:01.176637+01 | 1486384561.17664 |                 0 |              13 |                170736 |                 3148 |            9748550 |       1831849 |            18002 |        39502776 |                     0 |      38395008 | 2017-02-06 12:24:33.04114+01

 2017-02-06 13:36:02.251774+01 | 1486384562.25177 |                 0 |              13 |                170736 |                 3148 |            9748550 |       1832349 |            18007 |        39502776 |                     0 |      38404894 | 2017-02-06 12:24:33.04114+01

 2017-02-06 13:36:03.339503+01 | 1486384563.3395 |                 0 |              13 |                170736 |                 3148 |            9748550 |       1832849 |            18012 |        39502776 |                     0 |      38414651 | 2017-02-06 12:24:33.04114+01

 2017-02-06 13:36:04.425286+01 | 1486384564.42529 |                 0 |              13 |                170736 |                 3148 |            9748550 |       1833449 |            18018 |        39502776 |                     0 |      38427642 | 2017-02-06 12:24:33.04114+01

 2017-02-06 13:36:05.521032+01 | 1486384565.52103 |                 0 |              13 |                170736 |                 3148 |            9748550 |       1833949 |            18023 |        39502776 |                     0 |      38436680 | 2017-02-06 12:24:33.04114+01

 2017-02-06 13:36:06.597516+01 | 1486384566.59752 |                 0 |              13 |                170736 |                 3148 |            9748550 |       1834449 |            18028 |        39502776 |                     0 |      38449003 | 2017-02-06 12:24:33.04114+01

 2017-02-06 13:36:07.670722+01 | 1486384567.67072 |                 0 |              13 |                170736 |                 3148 |            9748550 |       1835049 |            18034 |        39502776 |                     0 |      38463577 | 2017-02-06 12:24:33.04114+01

 2017-02-06 13:36:08.755623+01 | 1486384568.75562 |                 0 |              13 |                170736 |                 3148 |            9748550 |       1835549 |            18039 |        39502776 |                     0 |      38475591 | 2017-02-06 12:24:33.04114+01

 2017-02-06 13:36:09.839054+01 | 1486384569.83905 |                 0 |              13 |                170736 |                 3148 |            9748550 |       1836049 |            18044 |        39502776 |                     0 |      38488935 | 2017-02-06 12:24:33.04114+01

 2017-02-06 13:36:10.90307+01 | 1486384570.90307 |                 0 |              13 |                170736 |                 3148 |            9748550 |       1836649 |            18050 |        39502776 |                     0 |      38503611 | 2017-02-06 12:24:33.04114+01

 2017-02-06 13:36:11.988883+01 | 1486384571.98888 |                 0 |              13 |                170736 |                 3148 |            9748550 |       1837149 |            18055 |        39502776 |                     0 |      38513490 | 2017-02-06 12:24:33.04114+01

 2017-02-06 13:36:13.072195+01 | 1486384573.0722 |                 0 |              13 |                170736 |                 3148 |            9748550 |       1837649 |            18060 |        39502776 |                     0 |      38524075 | 2017-02-06 12:24:33.04114+01

 2017-02-06 13:36:14.156078+01 | 1486384574.15608 |                 0 |              13 |                170736 |                 3148 |            9748550 |       1838249 |            18066 |        39502776 |                     0 |      38537075 | 2017-02-06 12:24:33.04114+01

 2017-02-06 13:36:15.252342+01 | 1486384575.25234 |                 0 |              13 |                170736 |                 3148 |            9748550 |       1838749 |            18071 |        39502776 |                     0 |      38547459 | 2017-02-06 12:24:33.04114+01

 2017-02-06 13:36:16.329539+01 | 1486384576.32954 |                 0 |              13 |                170736 |                 3148 |            9748550 |       1839249 |            18076 |        39502776 |                     0 |      38557691 | 2017-02-06 12:24:33.04114+01

 2017-02-06 13:36:17.421995+01 | 1486384577.42199 |                 0 |              13 |                170736 |                 3148 |            9748550 |       1839849 |            18082 |        39502776 |                     0 |      38569697 | 2017-02-06 12:24:33.04114+01

 2017-02-06 13:36:18.491613+01 | 1486384578.49161 |                 0 |              13 |                170736 |                 3148 |            9748550 |       1840349 |            18087 |        39502776 |                     0 |      38582002 | 2017-02-06 12:24:33.04114+01

 2017-02-06 13:36:19.574465+01 | 1486384579.57447 |                 0 |              13 |                170736 |                 3148 |            9748550 |       1840849 |            18092 |        39502776 |                     0 |      38592138 | 2017-02-06 12:24:33.04114+01

 2017-02-06 13:36:20.64711+01 | 1486384580.64711 |                 0 |              13 |                170736 |                 3148 |            9748550 |       1841449 |            18098 |        39502776 |                     0 |      38605951 | 2017-02-06 12:24:33.04114+01

 2017-02-06 13:36:21.730549+01 | 1486384581.73055 |                 0 |              13 |                170736 |                 3148 |            9748550 |       1841949 |            18103 |        39502776 |                     0 |      38617581 | 2017-02-06 12:24:33.04114+01

 2017-02-06 13:36:22.812993+01 | 1486384582.81299 |                 0 |              13 |                170736 |                 3148 |            9748550 |       1842549 |            18109 |        39502776 |                     0 |      38632745 | 2017-02-06 12:24:33.04114+01

 2017-02-06 13:36:23.89304+01 | 1486384583.89304 |                 0 |              13 |                170736 |                 3148 |            9748550 |       1843049 |            18114 |        39502776 |                     0 |      38645145 | 2017-02-06 12:24:33.04114+01

 2017-02-06 13:36:24.964195+01 | 1486384584.9642 |                 0 |              13 |                170736 |                 3148 |            9748550 |       1843549 |            18119 |        39502776 |                     0 |      38654549 | 2017-02-06 12:24:33.04114+01

 2017-02-06 13:36:26.045409+01 | 1486384586.04541 |                 0 |              13 |                170736 |                 3148 |            9748550 |       1844149 |            18125 |        39502776 |                     0 |      38667185 | 2017-02-06 12:24:33.04114+01

 2017-02-06 13:36:27.13758+01 | 1486384587.13758 |                 0 |              13 |                170736 |                 3148 |            9748550 |       1844649 |            18130 |        39502776 |                     0 |      38678980 | 2017-02-06 12:24:33.04114+01

 2017-02-06 13:36:28.23057+01 | 1486384588.23057 |                 0 |              13 |                170736 |                 3148 |            9748550 |       1845149 |            18135 |        39502776 |                     0 |      38689780 | 2017-02-06 12:24:33.04114+01

