 2017-02-03 12:22:08.305175+01 | 1486120928.30518 | pgbench_branches_pkey |            16384
 2017-02-03 12:22:08.305175+01 | 1486120928.30518 | pgbench_tellers_pkey  |            40960
 2017-02-03 12:22:08.305175+01 | 1486120928.30518 | pgbench_accounts_pkey |        224641024

 2017-02-03 12:22:09.397966+01 | 1486120929.39797 | pgbench_branches_pkey |            16384
 2017-02-03 12:22:09.397966+01 | 1486120929.39797 | pgbench_tellers_pkey  |            40960
 2017-02-03 12:22:09.397966+01 | 1486120929.39797 | pgbench_accounts_pkey |        224641024

 2017-02-03 12:22:10.497781+01 | 1486120930.49778 | pgbench_branches_pkey |            16384
 2017-02-03 12:22:10.497781+01 | 1486120930.49778 | pgbench_tellers_pkey  |            40960
 2017-02-03 12:22:10.497781+01 | 1486120930.49778 | pgbench_accounts_pkey |        224641024

 2017-02-03 12:22:11.584704+01 | 1486120931.5847 | pgbench_branches_pkey |            16384
 2017-02-03 12:22:11.584704+01 | 1486120931.5847 | pgbench_tellers_pkey  |            40960
 2017-02-03 12:22:11.584704+01 | 1486120931.5847 | pgbench_accounts_pkey |        224641024

 2017-02-03 12:22:12.672215+01 | 1486120932.67221 | pgbench_branches_pkey |            16384
 2017-02-03 12:22:12.672215+01 | 1486120932.67221 | pgbench_tellers_pkey  |            40960
 2017-02-03 12:22:12.672215+01 | 1486120932.67221 | pgbench_accounts_pkey |        224641024

 2017-02-03 12:22:13.785816+01 | 1486120933.78582 | pgbench_branches_pkey |            16384
 2017-02-03 12:22:13.785816+01 | 1486120933.78582 | pgbench_tellers_pkey  |            40960
 2017-02-03 12:22:13.785816+01 | 1486120933.78582 | pgbench_accounts_pkey |        224641024

 2017-02-03 12:22:14.881124+01 | 1486120934.88112 | pgbench_branches_pkey |            16384
 2017-02-03 12:22:14.881124+01 | 1486120934.88112 | pgbench_tellers_pkey  |            40960
 2017-02-03 12:22:14.881124+01 | 1486120934.88112 | pgbench_accounts_pkey |        224641024

 2017-02-03 12:22:15.988346+01 | 1486120935.98835 | pgbench_branches_pkey |            16384
 2017-02-03 12:22:15.988346+01 | 1486120935.98835 | pgbench_tellers_pkey  |            40960
 2017-02-03 12:22:15.988346+01 | 1486120935.98835 | pgbench_accounts_pkey |        224641024

 2017-02-03 12:22:17.100267+01 | 1486120937.10027 | pgbench_branches_pkey |            16384
 2017-02-03 12:22:17.100267+01 | 1486120937.10027 | pgbench_tellers_pkey  |            40960
 2017-02-03 12:22:17.100267+01 | 1486120937.10027 | pgbench_accounts_pkey |        224641024

 2017-02-03 12:22:18.230387+01 | 1486120938.23039 | pgbench_branches_pkey |            16384
 2017-02-03 12:22:18.230387+01 | 1486120938.23039 | pgbench_tellers_pkey  |            40960
 2017-02-03 12:22:18.230387+01 | 1486120938.23039 | pgbench_accounts_pkey |        224641024

 2017-02-03 12:22:19.32385+01 | 1486120939.32385 | pgbench_branches_pkey |            16384
 2017-02-03 12:22:19.32385+01 | 1486120939.32385 | pgbench_tellers_pkey  |            40960
 2017-02-03 12:22:19.32385+01 | 1486120939.32385 | pgbench_accounts_pkey |        224641024

 2017-02-03 12:22:20.430936+01 | 1486120940.43094 | pgbench_branches_pkey |            16384
 2017-02-03 12:22:20.430936+01 | 1486120940.43094 | pgbench_tellers_pkey  |            40960
 2017-02-03 12:22:20.430936+01 | 1486120940.43094 | pgbench_accounts_pkey |        224641024

 2017-02-03 12:22:21.531076+01 | 1486120941.53108 | pgbench_branches_pkey |            16384
 2017-02-03 12:22:21.531076+01 | 1486120941.53108 | pgbench_tellers_pkey  |            40960
 2017-02-03 12:22:21.531076+01 | 1486120941.53108 | pgbench_accounts_pkey |        224641024

 2017-02-03 12:22:22.624832+01 | 1486120942.62483 | pgbench_branches_pkey |            16384
 2017-02-03 12:22:22.624832+01 | 1486120942.62483 | pgbench_tellers_pkey  |            40960
 2017-02-03 12:22:22.624832+01 | 1486120942.62483 | pgbench_accounts_pkey |        224641024

 2017-02-03 12:22:23.720786+01 | 1486120943.72079 | pgbench_branches_pkey |            16384
 2017-02-03 12:22:23.720786+01 | 1486120943.72079 | pgbench_tellers_pkey  |            40960
 2017-02-03 12:22:23.720786+01 | 1486120943.72079 | pgbench_accounts_pkey |        224641024

 2017-02-03 12:22:24.812112+01 | 1486120944.81211 | pgbench_branches_pkey |            16384
 2017-02-03 12:22:24.812112+01 | 1486120944.81211 | pgbench_tellers_pkey  |            40960
 2017-02-03 12:22:24.812112+01 | 1486120944.81211 | pgbench_accounts_pkey |        224641024

 2017-02-03 12:22:25.923984+01 | 1486120945.92398 | pgbench_branches_pkey |            16384
 2017-02-03 12:22:25.923984+01 | 1486120945.92398 | pgbench_tellers_pkey  |            40960
 2017-02-03 12:22:25.923984+01 | 1486120945.92398 | pgbench_accounts_pkey |        224641024

 2017-02-03 12:22:27.037788+01 | 1486120947.03779 | pgbench_branches_pkey |            16384
 2017-02-03 12:22:27.037788+01 | 1486120947.03779 | pgbench_tellers_pkey  |            40960
 2017-02-03 12:22:27.037788+01 | 1486120947.03779 | pgbench_accounts_pkey |        224641024

 2017-02-03 12:22:28.136549+01 | 1486120948.13655 | pgbench_branches_pkey |            16384
 2017-02-03 12:22:28.136549+01 | 1486120948.13655 | pgbench_tellers_pkey  |            40960
 2017-02-03 12:22:28.136549+01 | 1486120948.13655 | pgbench_accounts_pkey |        224641024

 2017-02-03 12:22:29.233391+01 | 1486120949.23339 | pgbench_branches_pkey |            16384
 2017-02-03 12:22:29.233391+01 | 1486120949.23339 | pgbench_tellers_pkey  |            40960
 2017-02-03 12:22:29.233391+01 | 1486120949.23339 | pgbench_accounts_pkey |        224641024

 2017-02-03 12:22:30.402636+01 | 1486120950.40264 | pgbench_branches_pkey |            16384
 2017-02-03 12:22:30.402636+01 | 1486120950.40264 | pgbench_tellers_pkey  |            40960
 2017-02-03 12:22:30.402636+01 | 1486120950.40264 | pgbench_accounts_pkey |        224641024

 2017-02-03 12:22:31.510931+01 | 1486120951.51093 | pgbench_branches_pkey |            16384
 2017-02-03 12:22:31.510931+01 | 1486120951.51093 | pgbench_tellers_pkey  |            40960
 2017-02-03 12:22:31.510931+01 | 1486120951.51093 | pgbench_accounts_pkey |        224641024

 2017-02-03 12:22:32.609101+01 | 1486120952.6091 | pgbench_branches_pkey |            16384
 2017-02-03 12:22:32.609101+01 | 1486120952.6091 | pgbench_tellers_pkey  |            40960
 2017-02-03 12:22:32.609101+01 | 1486120952.6091 | pgbench_accounts_pkey |        224641024

 2017-02-03 12:22:33.708712+01 | 1486120953.70871 | pgbench_branches_pkey |            16384
 2017-02-03 12:22:33.708712+01 | 1486120953.70871 | pgbench_tellers_pkey  |            40960
 2017-02-03 12:22:33.708712+01 | 1486120953.70871 | pgbench_accounts_pkey |        224641024

 2017-02-03 12:22:34.823676+01 | 1486120954.82368 | pgbench_branches_pkey |            16384
 2017-02-03 12:22:34.823676+01 | 1486120954.82368 | pgbench_tellers_pkey  |            40960
 2017-02-03 12:22:34.823676+01 | 1486120954.82368 | pgbench_accounts_pkey |        224641024

 2017-02-03 12:22:35.92722+01 | 1486120955.92722 | pgbench_branches_pkey |            16384
 2017-02-03 12:22:35.92722+01 | 1486120955.92722 | pgbench_tellers_pkey  |            40960
 2017-02-03 12:22:35.92722+01 | 1486120955.92722 | pgbench_accounts_pkey |        224641024

 2017-02-03 12:22:37.037467+01 | 1486120957.03747 | pgbench_branches_pkey |            16384
 2017-02-03 12:22:37.037467+01 | 1486120957.03747 | pgbench_tellers_pkey  |            40960
 2017-02-03 12:22:37.037467+01 | 1486120957.03747 | pgbench_accounts_pkey |        224641024

 2017-02-03 12:22:38.143178+01 | 1486120958.14318 | pgbench_branches_pkey |            16384
 2017-02-03 12:22:38.143178+01 | 1486120958.14318 | pgbench_tellers_pkey  |            40960
 2017-02-03 12:22:38.143178+01 | 1486120958.14318 | pgbench_accounts_pkey |        224641024

 2017-02-03 12:22:39.257511+01 | 1486120959.25751 | pgbench_branches_pkey |            16384
 2017-02-03 12:22:39.257511+01 | 1486120959.25751 | pgbench_tellers_pkey  |            40960
 2017-02-03 12:22:39.257511+01 | 1486120959.25751 | pgbench_accounts_pkey |        224641024

 2017-02-03 12:22:40.384915+01 | 1486120960.38492 | pgbench_branches_pkey |            16384
 2017-02-03 12:22:40.384915+01 | 1486120960.38492 | pgbench_tellers_pkey  |            40960
 2017-02-03 12:22:40.384915+01 | 1486120960.38492 | pgbench_accounts_pkey |        224641024

 2017-02-03 12:22:41.512759+01 | 1486120961.51276 | pgbench_branches_pkey |            16384
 2017-02-03 12:22:41.512759+01 | 1486120961.51276 | pgbench_tellers_pkey  |            40960
 2017-02-03 12:22:41.512759+01 | 1486120961.51276 | pgbench_accounts_pkey |        224641024

 2017-02-03 12:22:42.636226+01 | 1486120962.63623 | pgbench_branches_pkey |            16384
 2017-02-03 12:22:42.636226+01 | 1486120962.63623 | pgbench_tellers_pkey  |            40960
 2017-02-03 12:22:42.636226+01 | 1486120962.63623 | pgbench_accounts_pkey |        224641024

 2017-02-03 12:22:43.73741+01 | 1486120963.73741 | pgbench_branches_pkey |            16384
 2017-02-03 12:22:43.73741+01 | 1486120963.73741 | pgbench_tellers_pkey  |            40960
 2017-02-03 12:22:43.73741+01 | 1486120963.73741 | pgbench_accounts_pkey |        224641024

 2017-02-03 12:22:44.844957+01 | 1486120964.84496 | pgbench_branches_pkey |            16384
 2017-02-03 12:22:44.844957+01 | 1486120964.84496 | pgbench_tellers_pkey  |            40960
 2017-02-03 12:22:44.844957+01 | 1486120964.84496 | pgbench_accounts_pkey |        224641024

 2017-02-03 12:22:45.938605+01 | 1486120965.93861 | pgbench_branches_pkey |            16384
 2017-02-03 12:22:45.938605+01 | 1486120965.93861 | pgbench_tellers_pkey  |            40960
 2017-02-03 12:22:45.938605+01 | 1486120965.93861 | pgbench_accounts_pkey |        224641024

 2017-02-03 12:22:47.041307+01 | 1486120967.04131 | pgbench_branches_pkey |            16384
 2017-02-03 12:22:47.041307+01 | 1486120967.04131 | pgbench_tellers_pkey  |            40960
 2017-02-03 12:22:47.041307+01 | 1486120967.04131 | pgbench_accounts_pkey |        224641024

 2017-02-03 12:22:48.144571+01 | 1486120968.14457 | pgbench_branches_pkey |            16384
 2017-02-03 12:22:48.144571+01 | 1486120968.14457 | pgbench_tellers_pkey  |            40960
 2017-02-03 12:22:48.144571+01 | 1486120968.14457 | pgbench_accounts_pkey |        224641024

 2017-02-03 12:22:49.241287+01 | 1486120969.24129 | pgbench_branches_pkey |            16384
 2017-02-03 12:22:49.241287+01 | 1486120969.24129 | pgbench_tellers_pkey  |            40960
 2017-02-03 12:22:49.241287+01 | 1486120969.24129 | pgbench_accounts_pkey |        224641024

 2017-02-03 12:22:50.35398+01 | 1486120970.35398 | pgbench_branches_pkey |            16384
 2017-02-03 12:22:50.35398+01 | 1486120970.35398 | pgbench_tellers_pkey  |            40960
 2017-02-03 12:22:50.35398+01 | 1486120970.35398 | pgbench_accounts_pkey |        224641024

 2017-02-03 12:22:51.471994+01 | 1486120971.47199 | pgbench_branches_pkey |            16384
 2017-02-03 12:22:51.471994+01 | 1486120971.47199 | pgbench_tellers_pkey  |            40960
 2017-02-03 12:22:51.471994+01 | 1486120971.47199 | pgbench_accounts_pkey |        224641024

 2017-02-03 12:22:52.584776+01 | 1486120972.58478 | pgbench_branches_pkey |            16384
 2017-02-03 12:22:52.584776+01 | 1486120972.58478 | pgbench_tellers_pkey  |            40960
 2017-02-03 12:22:52.584776+01 | 1486120972.58478 | pgbench_accounts_pkey |        224641024

 2017-02-03 12:22:53.67416+01 | 1486120973.67416 | pgbench_branches_pkey |            16384
 2017-02-03 12:22:53.67416+01 | 1486120973.67416 | pgbench_tellers_pkey  |            40960
 2017-02-03 12:22:53.67416+01 | 1486120973.67416 | pgbench_accounts_pkey |        224641024

 2017-02-03 12:22:54.782931+01 | 1486120974.78293 | pgbench_branches_pkey |            16384
 2017-02-03 12:22:54.782931+01 | 1486120974.78293 | pgbench_tellers_pkey  |            40960
 2017-02-03 12:22:54.782931+01 | 1486120974.78293 | pgbench_accounts_pkey |        224641024

 2017-02-03 12:22:55.880331+01 | 1486120975.88033 | pgbench_branches_pkey |            16384
 2017-02-03 12:22:55.880331+01 | 1486120975.88033 | pgbench_tellers_pkey  |            40960
 2017-02-03 12:22:55.880331+01 | 1486120975.88033 | pgbench_accounts_pkey |        224641024

 2017-02-03 12:22:56.972165+01 | 1486120976.97217 | pgbench_branches_pkey |            16384
 2017-02-03 12:22:56.972165+01 | 1486120976.97217 | pgbench_tellers_pkey  |            40960
 2017-02-03 12:22:56.972165+01 | 1486120976.97217 | pgbench_accounts_pkey |        224641024

 2017-02-03 12:22:58.07305+01 | 1486120978.07305 | pgbench_branches_pkey |            16384
 2017-02-03 12:22:58.07305+01 | 1486120978.07305 | pgbench_tellers_pkey  |            40960
 2017-02-03 12:22:58.07305+01 | 1486120978.07305 | pgbench_accounts_pkey |        224641024

 2017-02-03 12:22:59.176632+01 | 1486120979.17663 | pgbench_branches_pkey |            16384
 2017-02-03 12:22:59.176632+01 | 1486120979.17663 | pgbench_tellers_pkey  |            40960
 2017-02-03 12:22:59.176632+01 | 1486120979.17663 | pgbench_accounts_pkey |        224641024

 2017-02-03 12:23:00.267161+01 | 1486120980.26716 | pgbench_branches_pkey |            16384
 2017-02-03 12:23:00.267161+01 | 1486120980.26716 | pgbench_tellers_pkey  |            40960
 2017-02-03 12:23:00.267161+01 | 1486120980.26716 | pgbench_accounts_pkey |        224641024

 2017-02-03 12:23:01.368548+01 | 1486120981.36855 | pgbench_branches_pkey |            16384
 2017-02-03 12:23:01.368548+01 | 1486120981.36855 | pgbench_tellers_pkey  |            40960
 2017-02-03 12:23:01.368548+01 | 1486120981.36855 | pgbench_accounts_pkey |        224641024

 2017-02-03 12:23:02.478512+01 | 1486120982.47851 | pgbench_branches_pkey |            16384
 2017-02-03 12:23:02.478512+01 | 1486120982.47851 | pgbench_tellers_pkey  |            40960
 2017-02-03 12:23:02.478512+01 | 1486120982.47851 | pgbench_accounts_pkey |        224641024

 2017-02-03 12:23:03.58962+01 | 1486120983.58962 | pgbench_branches_pkey |            16384
 2017-02-03 12:23:03.58962+01 | 1486120983.58962 | pgbench_tellers_pkey  |            40960
 2017-02-03 12:23:03.58962+01 | 1486120983.58962 | pgbench_accounts_pkey |        224641024

 2017-02-03 12:23:04.690677+01 | 1486120984.69068 | pgbench_branches_pkey |            16384
 2017-02-03 12:23:04.690677+01 | 1486120984.69068 | pgbench_tellers_pkey  |            40960
 2017-02-03 12:23:04.690677+01 | 1486120984.69068 | pgbench_accounts_pkey |        224641024

 2017-02-03 12:23:05.815901+01 | 1486120985.8159 | pgbench_branches_pkey |            16384
 2017-02-03 12:23:05.815901+01 | 1486120985.8159 | pgbench_tellers_pkey  |            40960
 2017-02-03 12:23:05.815901+01 | 1486120985.8159 | pgbench_accounts_pkey |        224641024

 2017-02-03 12:23:06.929944+01 | 1486120986.92994 | pgbench_branches_pkey |            16384
 2017-02-03 12:23:06.929944+01 | 1486120986.92994 | pgbench_tellers_pkey  |            40960
 2017-02-03 12:23:06.929944+01 | 1486120986.92994 | pgbench_accounts_pkey |        224641024

 2017-02-03 12:23:08.046392+01 | 1486120988.04639 | pgbench_branches_pkey |            16384
 2017-02-03 12:23:08.046392+01 | 1486120988.04639 | pgbench_tellers_pkey  |            40960
 2017-02-03 12:23:08.046392+01 | 1486120988.04639 | pgbench_accounts_pkey |        224641024

 2017-02-03 12:23:09.147004+01 | 1486120989.147 | pgbench_branches_pkey |            16384
 2017-02-03 12:23:09.147004+01 | 1486120989.147 | pgbench_tellers_pkey  |            40960
 2017-02-03 12:23:09.147004+01 | 1486120989.147 | pgbench_accounts_pkey |        224641024

 2017-02-03 12:23:10.243122+01 | 1486120990.24312 | pgbench_branches_pkey |            16384
 2017-02-03 12:23:10.243122+01 | 1486120990.24312 | pgbench_tellers_pkey  |            40960
 2017-02-03 12:23:10.243122+01 | 1486120990.24312 | pgbench_accounts_pkey |        224641024

 2017-02-03 12:23:11.344501+01 | 1486120991.3445 | pgbench_branches_pkey |            16384
 2017-02-03 12:23:11.344501+01 | 1486120991.3445 | pgbench_tellers_pkey  |            40960
 2017-02-03 12:23:11.344501+01 | 1486120991.3445 | pgbench_accounts_pkey |        224641024

 2017-02-03 12:23:12.442151+01 | 1486120992.44215 | pgbench_branches_pkey |            16384
 2017-02-03 12:23:12.442151+01 | 1486120992.44215 | pgbench_tellers_pkey  |            40960
 2017-02-03 12:23:12.442151+01 | 1486120992.44215 | pgbench_accounts_pkey |        224641024

 2017-02-03 12:23:13.540542+01 | 1486120993.54054 | pgbench_branches_pkey |            16384
 2017-02-03 12:23:13.540542+01 | 1486120993.54054 | pgbench_tellers_pkey  |            40960
 2017-02-03 12:23:13.540542+01 | 1486120993.54054 | pgbench_accounts_pkey |        224641024

 2017-02-03 12:23:14.643092+01 | 1486120994.64309 | pgbench_branches_pkey |            16384
 2017-02-03 12:23:14.643092+01 | 1486120994.64309 | pgbench_tellers_pkey  |            40960
 2017-02-03 12:23:14.643092+01 | 1486120994.64309 | pgbench_accounts_pkey |        224641024

 2017-02-03 12:23:15.757101+01 | 1486120995.7571 | pgbench_branches_pkey |            16384
 2017-02-03 12:23:15.757101+01 | 1486120995.7571 | pgbench_tellers_pkey  |            40960
 2017-02-03 12:23:15.757101+01 | 1486120995.7571 | pgbench_accounts_pkey |        224641024

 2017-02-03 12:23:16.856004+01 | 1486120996.856 | pgbench_branches_pkey |            16384
 2017-02-03 12:23:16.856004+01 | 1486120996.856 | pgbench_tellers_pkey  |            40960
 2017-02-03 12:23:16.856004+01 | 1486120996.856 | pgbench_accounts_pkey |        224641024

 2017-02-03 12:23:17.967065+01 | 1486120997.96707 | pgbench_branches_pkey |            16384
 2017-02-03 12:23:17.967065+01 | 1486120997.96707 | pgbench_tellers_pkey  |            40960
 2017-02-03 12:23:17.967065+01 | 1486120997.96707 | pgbench_accounts_pkey |        224641024

 2017-02-03 12:23:19.070189+01 | 1486120999.07019 | pgbench_branches_pkey |            16384
 2017-02-03 12:23:19.070189+01 | 1486120999.07019 | pgbench_tellers_pkey  |            40960
 2017-02-03 12:23:19.070189+01 | 1486120999.07019 | pgbench_accounts_pkey |        224641024

 2017-02-03 12:23:20.183717+01 | 1486121000.18372 | pgbench_branches_pkey |            16384
 2017-02-03 12:23:20.183717+01 | 1486121000.18372 | pgbench_tellers_pkey  |            40960
 2017-02-03 12:23:20.183717+01 | 1486121000.18372 | pgbench_accounts_pkey |        224641024

 2017-02-03 12:23:21.279539+01 | 1486121001.27954 | pgbench_branches_pkey |            16384
 2017-02-03 12:23:21.279539+01 | 1486121001.27954 | pgbench_tellers_pkey  |            40960
 2017-02-03 12:23:21.279539+01 | 1486121001.27954 | pgbench_accounts_pkey |        224641024

 2017-02-03 12:23:22.381514+01 | 1486121002.38151 | pgbench_branches_pkey |            16384
 2017-02-03 12:23:22.381514+01 | 1486121002.38151 | pgbench_tellers_pkey  |            40960
 2017-02-03 12:23:22.381514+01 | 1486121002.38151 | pgbench_accounts_pkey |        224641024

 2017-02-03 12:23:23.481008+01 | 1486121003.48101 | pgbench_branches_pkey |            16384
 2017-02-03 12:23:23.481008+01 | 1486121003.48101 | pgbench_tellers_pkey  |            40960
 2017-02-03 12:23:23.481008+01 | 1486121003.48101 | pgbench_accounts_pkey |        224641024

 2017-02-03 12:23:24.578879+01 | 1486121004.57888 | pgbench_branches_pkey |            16384
 2017-02-03 12:23:24.578879+01 | 1486121004.57888 | pgbench_tellers_pkey  |            40960
 2017-02-03 12:23:24.578879+01 | 1486121004.57888 | pgbench_accounts_pkey |        224641024

 2017-02-03 12:23:25.685373+01 | 1486121005.68537 | pgbench_branches_pkey |            16384
 2017-02-03 12:23:25.685373+01 | 1486121005.68537 | pgbench_tellers_pkey  |            40960
 2017-02-03 12:23:25.685373+01 | 1486121005.68537 | pgbench_accounts_pkey |        224641024

 2017-02-03 12:23:26.778678+01 | 1486121006.77868 | pgbench_branches_pkey |            16384
 2017-02-03 12:23:26.778678+01 | 1486121006.77868 | pgbench_tellers_pkey  |            40960
 2017-02-03 12:23:26.778678+01 | 1486121006.77868 | pgbench_accounts_pkey |        224641024

 2017-02-03 12:23:27.889829+01 | 1486121007.88983 | pgbench_branches_pkey |            16384
 2017-02-03 12:23:27.889829+01 | 1486121007.88983 | pgbench_tellers_pkey  |            40960
 2017-02-03 12:23:27.889829+01 | 1486121007.88983 | pgbench_accounts_pkey |        224641024

 2017-02-03 12:23:28.995018+01 | 1486121008.99502 | pgbench_branches_pkey |            16384
 2017-02-03 12:23:28.995018+01 | 1486121008.99502 | pgbench_tellers_pkey  |            40960
 2017-02-03 12:23:28.995018+01 | 1486121008.99502 | pgbench_accounts_pkey |        224641024

 2017-02-03 12:23:30.112276+01 | 1486121010.11228 | pgbench_branches_pkey |            16384
 2017-02-03 12:23:30.112276+01 | 1486121010.11228 | pgbench_tellers_pkey  |            40960
 2017-02-03 12:23:30.112276+01 | 1486121010.11228 | pgbench_accounts_pkey |        224641024

 2017-02-03 12:23:31.233982+01 | 1486121011.23398 | pgbench_branches_pkey |            16384
 2017-02-03 12:23:31.233982+01 | 1486121011.23398 | pgbench_tellers_pkey  |            40960
 2017-02-03 12:23:31.233982+01 | 1486121011.23398 | pgbench_accounts_pkey |        224641024

 2017-02-03 12:23:32.336357+01 | 1486121012.33636 | pgbench_branches_pkey |            16384
 2017-02-03 12:23:32.336357+01 | 1486121012.33636 | pgbench_tellers_pkey  |            40960
 2017-02-03 12:23:32.336357+01 | 1486121012.33636 | pgbench_accounts_pkey |        224641024

 2017-02-03 12:23:33.441595+01 | 1486121013.4416 | pgbench_branches_pkey |            16384
 2017-02-03 12:23:33.441595+01 | 1486121013.4416 | pgbench_tellers_pkey  |            40960
 2017-02-03 12:23:33.441595+01 | 1486121013.4416 | pgbench_accounts_pkey |        224641024

 2017-02-03 12:23:34.547486+01 | 1486121014.54749 | pgbench_branches_pkey |            16384
 2017-02-03 12:23:34.547486+01 | 1486121014.54749 | pgbench_tellers_pkey  |            40960
 2017-02-03 12:23:34.547486+01 | 1486121014.54749 | pgbench_accounts_pkey |        224641024

 2017-02-03 12:23:35.641917+01 | 1486121015.64192 | pgbench_branches_pkey |            16384
 2017-02-03 12:23:35.641917+01 | 1486121015.64192 | pgbench_tellers_pkey  |            40960
 2017-02-03 12:23:35.641917+01 | 1486121015.64192 | pgbench_accounts_pkey |        224641024

 2017-02-03 12:23:36.742403+01 | 1486121016.7424 | pgbench_branches_pkey |            16384
 2017-02-03 12:23:36.742403+01 | 1486121016.7424 | pgbench_tellers_pkey  |            40960
 2017-02-03 12:23:36.742403+01 | 1486121016.7424 | pgbench_accounts_pkey |        224641024

 2017-02-03 12:23:37.832823+01 | 1486121017.83282 | pgbench_branches_pkey |            16384
 2017-02-03 12:23:37.832823+01 | 1486121017.83282 | pgbench_tellers_pkey  |            40960
 2017-02-03 12:23:37.832823+01 | 1486121017.83282 | pgbench_accounts_pkey |        224641024

 2017-02-03 12:23:38.930811+01 | 1486121018.93081 | pgbench_branches_pkey |            16384
 2017-02-03 12:23:38.930811+01 | 1486121018.93081 | pgbench_tellers_pkey  |            40960
 2017-02-03 12:23:38.930811+01 | 1486121018.93081 | pgbench_accounts_pkey |        224641024

 2017-02-03 12:23:40.06158+01 | 1486121020.06158 | pgbench_branches_pkey |            16384
 2017-02-03 12:23:40.06158+01 | 1486121020.06158 | pgbench_tellers_pkey  |            40960
 2017-02-03 12:23:40.06158+01 | 1486121020.06158 | pgbench_accounts_pkey |        224641024

 2017-02-03 12:23:41.159823+01 | 1486121021.15982 | pgbench_branches_pkey |            16384
 2017-02-03 12:23:41.159823+01 | 1486121021.15982 | pgbench_tellers_pkey  |            40960
 2017-02-03 12:23:41.159823+01 | 1486121021.15982 | pgbench_accounts_pkey |        224641024

 2017-02-03 12:23:42.252515+01 | 1486121022.25252 | pgbench_branches_pkey |            16384
 2017-02-03 12:23:42.252515+01 | 1486121022.25252 | pgbench_tellers_pkey  |            40960
 2017-02-03 12:23:42.252515+01 | 1486121022.25252 | pgbench_accounts_pkey |        224641024

 2017-02-03 12:23:43.374759+01 | 1486121023.37476 | pgbench_branches_pkey |            16384
 2017-02-03 12:23:43.374759+01 | 1486121023.37476 | pgbench_tellers_pkey  |            40960
 2017-02-03 12:23:43.374759+01 | 1486121023.37476 | pgbench_accounts_pkey |        224641024

 2017-02-03 12:23:44.471153+01 | 1486121024.47115 | pgbench_branches_pkey |            16384
 2017-02-03 12:23:44.471153+01 | 1486121024.47115 | pgbench_tellers_pkey  |            40960
 2017-02-03 12:23:44.471153+01 | 1486121024.47115 | pgbench_accounts_pkey |        224641024

 2017-02-03 12:23:45.565171+01 | 1486121025.56517 | pgbench_branches_pkey |            16384
 2017-02-03 12:23:45.565171+01 | 1486121025.56517 | pgbench_tellers_pkey  |            40960
 2017-02-03 12:23:45.565171+01 | 1486121025.56517 | pgbench_accounts_pkey |        224641024

 2017-02-03 12:23:46.655491+01 | 1486121026.65549 | pgbench_branches_pkey |            16384
 2017-02-03 12:23:46.655491+01 | 1486121026.65549 | pgbench_tellers_pkey  |            40960
 2017-02-03 12:23:46.655491+01 | 1486121026.65549 | pgbench_accounts_pkey |        224641024

 2017-02-03 12:23:47.755686+01 | 1486121027.75569 | pgbench_branches_pkey |            16384
 2017-02-03 12:23:47.755686+01 | 1486121027.75569 | pgbench_tellers_pkey  |            40960
 2017-02-03 12:23:47.755686+01 | 1486121027.75569 | pgbench_accounts_pkey |        224641024

 2017-02-03 12:23:48.856431+01 | 1486121028.85643 | pgbench_branches_pkey |            16384
 2017-02-03 12:23:48.856431+01 | 1486121028.85643 | pgbench_tellers_pkey  |            40960
 2017-02-03 12:23:48.856431+01 | 1486121028.85643 | pgbench_accounts_pkey |        224641024

 2017-02-03 12:23:49.957802+01 | 1486121029.9578 | pgbench_branches_pkey |            16384
 2017-02-03 12:23:49.957802+01 | 1486121029.9578 | pgbench_tellers_pkey  |            40960
 2017-02-03 12:23:49.957802+01 | 1486121029.9578 | pgbench_accounts_pkey |        224641024

 2017-02-03 12:23:51.050111+01 | 1486121031.05011 | pgbench_branches_pkey |            16384
 2017-02-03 12:23:51.050111+01 | 1486121031.05011 | pgbench_tellers_pkey  |            40960
 2017-02-03 12:23:51.050111+01 | 1486121031.05011 | pgbench_accounts_pkey |        224641024

 2017-02-03 12:23:52.145707+01 | 1486121032.14571 | pgbench_branches_pkey |            16384
 2017-02-03 12:23:52.145707+01 | 1486121032.14571 | pgbench_tellers_pkey  |            40960
 2017-02-03 12:23:52.145707+01 | 1486121032.14571 | pgbench_accounts_pkey |        224641024

 2017-02-03 12:23:53.256403+01 | 1486121033.2564 | pgbench_branches_pkey |            16384
 2017-02-03 12:23:53.256403+01 | 1486121033.2564 | pgbench_tellers_pkey  |            40960
 2017-02-03 12:23:53.256403+01 | 1486121033.2564 | pgbench_accounts_pkey |        224641024

 2017-02-03 12:23:54.369884+01 | 1486121034.36988 | pgbench_branches_pkey |            16384
 2017-02-03 12:23:54.369884+01 | 1486121034.36988 | pgbench_tellers_pkey  |            40960
 2017-02-03 12:23:54.369884+01 | 1486121034.36988 | pgbench_accounts_pkey |        224641024

 2017-02-03 12:23:55.508324+01 | 1486121035.50832 | pgbench_branches_pkey |            16384
 2017-02-03 12:23:55.508324+01 | 1486121035.50832 | pgbench_tellers_pkey  |            40960
 2017-02-03 12:23:55.508324+01 | 1486121035.50832 | pgbench_accounts_pkey |        224641024

 2017-02-03 12:23:56.621412+01 | 1486121036.62141 | pgbench_branches_pkey |            16384
 2017-02-03 12:23:56.621412+01 | 1486121036.62141 | pgbench_tellers_pkey  |            40960
 2017-02-03 12:23:56.621412+01 | 1486121036.62141 | pgbench_accounts_pkey |        224641024

 2017-02-03 12:23:57.717821+01 | 1486121037.71782 | pgbench_branches_pkey |            16384
 2017-02-03 12:23:57.717821+01 | 1486121037.71782 | pgbench_tellers_pkey  |            40960
 2017-02-03 12:23:57.717821+01 | 1486121037.71782 | pgbench_accounts_pkey |        224641024

 2017-02-03 12:23:58.82776+01 | 1486121038.82776 | pgbench_branches_pkey |            16384
 2017-02-03 12:23:58.82776+01 | 1486121038.82776 | pgbench_tellers_pkey  |            40960
 2017-02-03 12:23:58.82776+01 | 1486121038.82776 | pgbench_accounts_pkey |        224641024

 2017-02-03 12:23:59.932446+01 | 1486121039.93245 | pgbench_branches_pkey |            16384
 2017-02-03 12:23:59.932446+01 | 1486121039.93245 | pgbench_tellers_pkey  |            40960
 2017-02-03 12:23:59.932446+01 | 1486121039.93245 | pgbench_accounts_pkey |        224641024

 2017-02-03 12:24:01.050397+01 | 1486121041.0504 | pgbench_branches_pkey |            16384
 2017-02-03 12:24:01.050397+01 | 1486121041.0504 | pgbench_tellers_pkey  |            40960
 2017-02-03 12:24:01.050397+01 | 1486121041.0504 | pgbench_accounts_pkey |        224641024

 2017-02-03 12:24:02.146591+01 | 1486121042.14659 | pgbench_branches_pkey |            16384
 2017-02-03 12:24:02.146591+01 | 1486121042.14659 | pgbench_tellers_pkey  |            40960
 2017-02-03 12:24:02.146591+01 | 1486121042.14659 | pgbench_accounts_pkey |        224641024

 2017-02-03 12:24:03.26632+01 | 1486121043.26632 | pgbench_branches_pkey |            16384
 2017-02-03 12:24:03.26632+01 | 1486121043.26632 | pgbench_tellers_pkey  |            40960
 2017-02-03 12:24:03.26632+01 | 1486121043.26632 | pgbench_accounts_pkey |        224641024

 2017-02-03 12:24:04.382696+01 | 1486121044.3827 | pgbench_branches_pkey |            16384
 2017-02-03 12:24:04.382696+01 | 1486121044.3827 | pgbench_tellers_pkey  |            40960
 2017-02-03 12:24:04.382696+01 | 1486121044.3827 | pgbench_accounts_pkey |        224641024

 2017-02-03 12:24:05.485861+01 | 1486121045.48586 | pgbench_branches_pkey |            16384
 2017-02-03 12:24:05.485861+01 | 1486121045.48586 | pgbench_tellers_pkey  |            40960
 2017-02-03 12:24:05.485861+01 | 1486121045.48586 | pgbench_accounts_pkey |        224641024

 2017-02-03 12:24:06.599404+01 | 1486121046.5994 | pgbench_branches_pkey |            16384
 2017-02-03 12:24:06.599404+01 | 1486121046.5994 | pgbench_tellers_pkey  |            40960
 2017-02-03 12:24:06.599404+01 | 1486121046.5994 | pgbench_accounts_pkey |        224641024

 2017-02-03 12:24:07.712712+01 | 1486121047.71271 | pgbench_branches_pkey |            16384
 2017-02-03 12:24:07.712712+01 | 1486121047.71271 | pgbench_tellers_pkey  |            40960
 2017-02-03 12:24:07.712712+01 | 1486121047.71271 | pgbench_accounts_pkey |        224641024

 2017-02-03 12:24:08.804568+01 | 1486121048.80457 | pgbench_branches_pkey |            16384
 2017-02-03 12:24:08.804568+01 | 1486121048.80457 | pgbench_tellers_pkey  |            40960
 2017-02-03 12:24:08.804568+01 | 1486121048.80457 | pgbench_accounts_pkey |        224641024

 2017-02-03 12:24:09.89341+01 | 1486121049.89341 | pgbench_branches_pkey |            16384
 2017-02-03 12:24:09.89341+01 | 1486121049.89341 | pgbench_tellers_pkey  |            40960
 2017-02-03 12:24:09.89341+01 | 1486121049.89341 | pgbench_accounts_pkey |        224641024

 2017-02-03 12:24:10.994198+01 | 1486121050.9942 | pgbench_branches_pkey |            16384
 2017-02-03 12:24:10.994198+01 | 1486121050.9942 | pgbench_tellers_pkey  |            40960
 2017-02-03 12:24:10.994198+01 | 1486121050.9942 | pgbench_accounts_pkey |        224641024

 2017-02-03 12:24:12.08607+01 | 1486121052.08607 | pgbench_branches_pkey |            16384
 2017-02-03 12:24:12.08607+01 | 1486121052.08607 | pgbench_tellers_pkey  |            40960
 2017-02-03 12:24:12.08607+01 | 1486121052.08607 | pgbench_accounts_pkey |        224641024

 2017-02-03 12:24:13.177808+01 | 1486121053.17781 | pgbench_branches_pkey |            16384
 2017-02-03 12:24:13.177808+01 | 1486121053.17781 | pgbench_tellers_pkey  |            40960
 2017-02-03 12:24:13.177808+01 | 1486121053.17781 | pgbench_accounts_pkey |        224641024

 2017-02-03 12:24:14.287147+01 | 1486121054.28715 | pgbench_branches_pkey |            16384
 2017-02-03 12:24:14.287147+01 | 1486121054.28715 | pgbench_tellers_pkey  |            40960
 2017-02-03 12:24:14.287147+01 | 1486121054.28715 | pgbench_accounts_pkey |        224641024

 2017-02-03 12:24:15.40492+01 | 1486121055.40492 | pgbench_branches_pkey |            16384
 2017-02-03 12:24:15.40492+01 | 1486121055.40492 | pgbench_tellers_pkey  |            40960
 2017-02-03 12:24:15.40492+01 | 1486121055.40492 | pgbench_accounts_pkey |        224641024

 2017-02-03 12:24:16.506028+01 | 1486121056.50603 | pgbench_branches_pkey |            16384
 2017-02-03 12:24:16.506028+01 | 1486121056.50603 | pgbench_tellers_pkey  |            40960
 2017-02-03 12:24:16.506028+01 | 1486121056.50603 | pgbench_accounts_pkey |        224641024

 2017-02-03 12:24:17.609672+01 | 1486121057.60967 | pgbench_branches_pkey |            16384
 2017-02-03 12:24:17.609672+01 | 1486121057.60967 | pgbench_tellers_pkey  |            40960
 2017-02-03 12:24:17.609672+01 | 1486121057.60967 | pgbench_accounts_pkey |        224641024

 2017-02-03 12:24:18.72261+01 | 1486121058.72261 | pgbench_branches_pkey |            16384
 2017-02-03 12:24:18.72261+01 | 1486121058.72261 | pgbench_tellers_pkey  |            40960
 2017-02-03 12:24:18.72261+01 | 1486121058.72261 | pgbench_accounts_pkey |        224641024

 2017-02-03 12:24:19.834281+01 | 1486121059.83428 | pgbench_branches_pkey |            16384
 2017-02-03 12:24:19.834281+01 | 1486121059.83428 | pgbench_tellers_pkey  |            40960
 2017-02-03 12:24:19.834281+01 | 1486121059.83428 | pgbench_accounts_pkey |        224641024

 2017-02-03 12:24:20.948327+01 | 1486121060.94833 | pgbench_branches_pkey |            16384
 2017-02-03 12:24:20.948327+01 | 1486121060.94833 | pgbench_tellers_pkey  |            40960
 2017-02-03 12:24:20.948327+01 | 1486121060.94833 | pgbench_accounts_pkey |        224641024

 2017-02-03 12:24:22.064835+01 | 1486121062.06484 | pgbench_branches_pkey |            16384
 2017-02-03 12:24:22.064835+01 | 1486121062.06484 | pgbench_tellers_pkey  |            40960
 2017-02-03 12:24:22.064835+01 | 1486121062.06484 | pgbench_accounts_pkey |        224641024

 2017-02-03 12:24:23.154292+01 | 1486121063.15429 | pgbench_branches_pkey |            16384
 2017-02-03 12:24:23.154292+01 | 1486121063.15429 | pgbench_tellers_pkey  |            40960
 2017-02-03 12:24:23.154292+01 | 1486121063.15429 | pgbench_accounts_pkey |        224641024

 2017-02-03 12:24:24.25031+01 | 1486121064.25031 | pgbench_branches_pkey |            16384
 2017-02-03 12:24:24.25031+01 | 1486121064.25031 | pgbench_tellers_pkey  |            40960
 2017-02-03 12:24:24.25031+01 | 1486121064.25031 | pgbench_accounts_pkey |        224641024

 2017-02-03 12:24:25.349277+01 | 1486121065.34928 | pgbench_branches_pkey |            16384
 2017-02-03 12:24:25.349277+01 | 1486121065.34928 | pgbench_tellers_pkey  |            40960
 2017-02-03 12:24:25.349277+01 | 1486121065.34928 | pgbench_accounts_pkey |        224641024

 2017-02-03 12:24:26.444324+01 | 1486121066.44432 | pgbench_branches_pkey |            16384
 2017-02-03 12:24:26.444324+01 | 1486121066.44432 | pgbench_tellers_pkey  |            40960
 2017-02-03 12:24:26.444324+01 | 1486121066.44432 | pgbench_accounts_pkey |        224641024

 2017-02-03 12:24:27.555541+01 | 1486121067.55554 | pgbench_branches_pkey |            16384
 2017-02-03 12:24:27.555541+01 | 1486121067.55554 | pgbench_tellers_pkey  |            40960
 2017-02-03 12:24:27.555541+01 | 1486121067.55554 | pgbench_accounts_pkey |        224641024

 2017-02-03 12:24:28.653896+01 | 1486121068.6539 | pgbench_branches_pkey |            16384
 2017-02-03 12:24:28.653896+01 | 1486121068.6539 | pgbench_tellers_pkey  |            40960
 2017-02-03 12:24:28.653896+01 | 1486121068.6539 | pgbench_accounts_pkey |        224641024

 2017-02-03 12:24:29.769913+01 | 1486121069.76991 | pgbench_branches_pkey |            16384
 2017-02-03 12:24:29.769913+01 | 1486121069.76991 | pgbench_tellers_pkey  |            40960
 2017-02-03 12:24:29.769913+01 | 1486121069.76991 | pgbench_accounts_pkey |        224641024

 2017-02-03 12:24:30.891343+01 | 1486121070.89134 | pgbench_branches_pkey |            16384
 2017-02-03 12:24:30.891343+01 | 1486121070.89134 | pgbench_tellers_pkey  |            40960
 2017-02-03 12:24:30.891343+01 | 1486121070.89134 | pgbench_accounts_pkey |        224641024

 2017-02-03 12:24:32.010174+01 | 1486121072.01017 | pgbench_branches_pkey |            16384
 2017-02-03 12:24:32.010174+01 | 1486121072.01017 | pgbench_tellers_pkey  |            40960
 2017-02-03 12:24:32.010174+01 | 1486121072.01017 | pgbench_accounts_pkey |        224641024

 2017-02-03 12:24:33.126394+01 | 1486121073.12639 | pgbench_branches_pkey |            16384
 2017-02-03 12:24:33.126394+01 | 1486121073.12639 | pgbench_tellers_pkey  |            40960
 2017-02-03 12:24:33.126394+01 | 1486121073.12639 | pgbench_accounts_pkey |        224641024

 2017-02-03 12:24:34.2315+01 | 1486121074.2315 | pgbench_branches_pkey |            16384
 2017-02-03 12:24:34.2315+01 | 1486121074.2315 | pgbench_tellers_pkey  |            40960
 2017-02-03 12:24:34.2315+01 | 1486121074.2315 | pgbench_accounts_pkey |        224641024

 2017-02-03 12:24:35.321491+01 | 1486121075.32149 | pgbench_branches_pkey |            16384
 2017-02-03 12:24:35.321491+01 | 1486121075.32149 | pgbench_tellers_pkey  |            40960
 2017-02-03 12:24:35.321491+01 | 1486121075.32149 | pgbench_accounts_pkey |        224641024

 2017-02-03 12:24:36.411197+01 | 1486121076.4112 | pgbench_branches_pkey |            16384
 2017-02-03 12:24:36.411197+01 | 1486121076.4112 | pgbench_tellers_pkey  |            40960
 2017-02-03 12:24:36.411197+01 | 1486121076.4112 | pgbench_accounts_pkey |        224641024

 2017-02-03 12:24:37.508087+01 | 1486121077.50809 | pgbench_branches_pkey |            16384
 2017-02-03 12:24:37.508087+01 | 1486121077.50809 | pgbench_tellers_pkey  |            40960
 2017-02-03 12:24:37.508087+01 | 1486121077.50809 | pgbench_accounts_pkey |        224641024

 2017-02-03 12:24:38.605271+01 | 1486121078.60527 | pgbench_branches_pkey |            16384
 2017-02-03 12:24:38.605271+01 | 1486121078.60527 | pgbench_tellers_pkey  |            40960
 2017-02-03 12:24:38.605271+01 | 1486121078.60527 | pgbench_accounts_pkey |        224641024

 2017-02-03 12:24:39.708342+01 | 1486121079.70834 | pgbench_branches_pkey |            16384
 2017-02-03 12:24:39.708342+01 | 1486121079.70834 | pgbench_tellers_pkey  |            40960
 2017-02-03 12:24:39.708342+01 | 1486121079.70834 | pgbench_accounts_pkey |        224641024

 2017-02-03 12:24:40.807948+01 | 1486121080.80795 | pgbench_branches_pkey |            16384
 2017-02-03 12:24:40.807948+01 | 1486121080.80795 | pgbench_tellers_pkey  |            40960
 2017-02-03 12:24:40.807948+01 | 1486121080.80795 | pgbench_accounts_pkey |        224641024

 2017-02-03 12:24:41.9253+01 | 1486121081.9253 | pgbench_branches_pkey |            16384
 2017-02-03 12:24:41.9253+01 | 1486121081.9253 | pgbench_tellers_pkey  |            40960
 2017-02-03 12:24:41.9253+01 | 1486121081.9253 | pgbench_accounts_pkey |        224641024

 2017-02-03 12:24:43.054293+01 | 1486121083.05429 | pgbench_branches_pkey |            16384
 2017-02-03 12:24:43.054293+01 | 1486121083.05429 | pgbench_tellers_pkey  |            40960
 2017-02-03 12:24:43.054293+01 | 1486121083.05429 | pgbench_accounts_pkey |        224641024

 2017-02-03 12:24:44.16032+01 | 1486121084.16032 | pgbench_branches_pkey |            16384
 2017-02-03 12:24:44.16032+01 | 1486121084.16032 | pgbench_tellers_pkey  |            40960
 2017-02-03 12:24:44.16032+01 | 1486121084.16032 | pgbench_accounts_pkey |        224641024

 2017-02-03 12:24:45.284404+01 | 1486121085.2844 | pgbench_branches_pkey |            16384
 2017-02-03 12:24:45.284404+01 | 1486121085.2844 | pgbench_tellers_pkey  |            40960
 2017-02-03 12:24:45.284404+01 | 1486121085.2844 | pgbench_accounts_pkey |        224641024

 2017-02-03 12:24:46.39259+01 | 1486121086.39259 | pgbench_branches_pkey |            16384
 2017-02-03 12:24:46.39259+01 | 1486121086.39259 | pgbench_tellers_pkey  |            40960
 2017-02-03 12:24:46.39259+01 | 1486121086.39259 | pgbench_accounts_pkey |        224641024

 2017-02-03 12:24:47.486742+01 | 1486121087.48674 | pgbench_branches_pkey |            16384
 2017-02-03 12:24:47.486742+01 | 1486121087.48674 | pgbench_tellers_pkey  |            40960
 2017-02-03 12:24:47.486742+01 | 1486121087.48674 | pgbench_accounts_pkey |        224641024

 2017-02-03 12:24:48.583181+01 | 1486121088.58318 | pgbench_branches_pkey |            16384
 2017-02-03 12:24:48.583181+01 | 1486121088.58318 | pgbench_tellers_pkey  |            40960
 2017-02-03 12:24:48.583181+01 | 1486121088.58318 | pgbench_accounts_pkey |        224641024

 2017-02-03 12:24:49.677257+01 | 1486121089.67726 | pgbench_branches_pkey |            16384
 2017-02-03 12:24:49.677257+01 | 1486121089.67726 | pgbench_tellers_pkey  |            40960
 2017-02-03 12:24:49.677257+01 | 1486121089.67726 | pgbench_accounts_pkey |        224641024

 2017-02-03 12:24:50.778115+01 | 1486121090.77812 | pgbench_branches_pkey |            16384
 2017-02-03 12:24:50.778115+01 | 1486121090.77812 | pgbench_tellers_pkey  |            40960
 2017-02-03 12:24:50.778115+01 | 1486121090.77812 | pgbench_accounts_pkey |        224641024

 2017-02-03 12:24:51.876885+01 | 1486121091.87688 | pgbench_branches_pkey |            16384
 2017-02-03 12:24:51.876885+01 | 1486121091.87688 | pgbench_tellers_pkey  |            40960
 2017-02-03 12:24:51.876885+01 | 1486121091.87688 | pgbench_accounts_pkey |        224641024

 2017-02-03 12:24:52.973033+01 | 1486121092.97303 | pgbench_branches_pkey |            16384
 2017-02-03 12:24:52.973033+01 | 1486121092.97303 | pgbench_tellers_pkey  |            40960
 2017-02-03 12:24:52.973033+01 | 1486121092.97303 | pgbench_accounts_pkey |        224641024

 2017-02-03 12:24:54.079706+01 | 1486121094.07971 | pgbench_branches_pkey |            16384
 2017-02-03 12:24:54.079706+01 | 1486121094.07971 | pgbench_tellers_pkey  |            40960
 2017-02-03 12:24:54.079706+01 | 1486121094.07971 | pgbench_accounts_pkey |        224641024

 2017-02-03 12:24:55.183271+01 | 1486121095.18327 | pgbench_branches_pkey |            16384
 2017-02-03 12:24:55.183271+01 | 1486121095.18327 | pgbench_tellers_pkey  |            40960
 2017-02-03 12:24:55.183271+01 | 1486121095.18327 | pgbench_accounts_pkey |        224641024

 2017-02-03 12:24:56.297717+01 | 1486121096.29772 | pgbench_branches_pkey |            16384
 2017-02-03 12:24:56.297717+01 | 1486121096.29772 | pgbench_tellers_pkey  |            40960
 2017-02-03 12:24:56.297717+01 | 1486121096.29772 | pgbench_accounts_pkey |        224641024

 2017-02-03 12:24:57.41892+01 | 1486121097.41892 | pgbench_branches_pkey |            16384
 2017-02-03 12:24:57.41892+01 | 1486121097.41892 | pgbench_tellers_pkey  |            40960
 2017-02-03 12:24:57.41892+01 | 1486121097.41892 | pgbench_accounts_pkey |        224641024

 2017-02-03 12:24:58.529753+01 | 1486121098.52975 | pgbench_branches_pkey |            16384
 2017-02-03 12:24:58.529753+01 | 1486121098.52975 | pgbench_tellers_pkey  |            40960
 2017-02-03 12:24:58.529753+01 | 1486121098.52975 | pgbench_accounts_pkey |        224641024

 2017-02-03 12:24:59.632552+01 | 1486121099.63255 | pgbench_branches_pkey |            16384
 2017-02-03 12:24:59.632552+01 | 1486121099.63255 | pgbench_tellers_pkey  |            40960
 2017-02-03 12:24:59.632552+01 | 1486121099.63255 | pgbench_accounts_pkey |        224641024

 2017-02-03 12:25:00.734623+01 | 1486121100.73462 | pgbench_branches_pkey |            16384
 2017-02-03 12:25:00.734623+01 | 1486121100.73462 | pgbench_tellers_pkey  |            40960
 2017-02-03 12:25:00.734623+01 | 1486121100.73462 | pgbench_accounts_pkey |        224641024

 2017-02-03 12:25:01.822198+01 | 1486121101.8222 | pgbench_branches_pkey |            16384
 2017-02-03 12:25:01.822198+01 | 1486121101.8222 | pgbench_tellers_pkey  |            40960
 2017-02-03 12:25:01.822198+01 | 1486121101.8222 | pgbench_accounts_pkey |        224641024

 2017-02-03 12:25:02.934219+01 | 1486121102.93422 | pgbench_branches_pkey |            16384
 2017-02-03 12:25:02.934219+01 | 1486121102.93422 | pgbench_tellers_pkey  |            40960
 2017-02-03 12:25:02.934219+01 | 1486121102.93422 | pgbench_accounts_pkey |        224641024

 2017-02-03 12:25:04.032437+01 | 1486121104.03244 | pgbench_branches_pkey |            16384
 2017-02-03 12:25:04.032437+01 | 1486121104.03244 | pgbench_tellers_pkey  |            40960
 2017-02-03 12:25:04.032437+01 | 1486121104.03244 | pgbench_accounts_pkey |        224641024

 2017-02-03 12:25:05.133198+01 | 1486121105.1332 | pgbench_branches_pkey |            16384
 2017-02-03 12:25:05.133198+01 | 1486121105.1332 | pgbench_tellers_pkey  |            40960
 2017-02-03 12:25:05.133198+01 | 1486121105.1332 | pgbench_accounts_pkey |        224641024

 2017-02-03 12:25:06.237274+01 | 1486121106.23727 | pgbench_branches_pkey |            16384
 2017-02-03 12:25:06.237274+01 | 1486121106.23727 | pgbench_tellers_pkey  |            40960
 2017-02-03 12:25:06.237274+01 | 1486121106.23727 | pgbench_accounts_pkey |        224641024

 2017-02-03 12:25:07.366988+01 | 1486121107.36699 | pgbench_branches_pkey |            16384
 2017-02-03 12:25:07.366988+01 | 1486121107.36699 | pgbench_tellers_pkey  |            40960
 2017-02-03 12:25:07.366988+01 | 1486121107.36699 | pgbench_accounts_pkey |        224641024

 2017-02-03 12:25:08.500035+01 | 1486121108.50004 | pgbench_branches_pkey |            16384
 2017-02-03 12:25:08.500035+01 | 1486121108.50004 | pgbench_tellers_pkey  |            40960
 2017-02-03 12:25:08.500035+01 | 1486121108.50004 | pgbench_accounts_pkey |        224641024

 2017-02-03 12:25:09.601034+01 | 1486121109.60103 | pgbench_branches_pkey |            16384
 2017-02-03 12:25:09.601034+01 | 1486121109.60103 | pgbench_tellers_pkey  |            40960
 2017-02-03 12:25:09.601034+01 | 1486121109.60103 | pgbench_accounts_pkey |        224641024

 2017-02-03 12:25:10.69537+01 | 1486121110.69537 | pgbench_branches_pkey |            16384
 2017-02-03 12:25:10.69537+01 | 1486121110.69537 | pgbench_tellers_pkey  |            40960
 2017-02-03 12:25:10.69537+01 | 1486121110.69537 | pgbench_accounts_pkey |        224641024

 2017-02-03 12:25:11.795836+01 | 1486121111.79584 | pgbench_branches_pkey |            16384
 2017-02-03 12:25:11.795836+01 | 1486121111.79584 | pgbench_tellers_pkey  |            40960
 2017-02-03 12:25:11.795836+01 | 1486121111.79584 | pgbench_accounts_pkey |        224641024

 2017-02-03 12:25:12.877742+01 | 1486121112.87774 | pgbench_branches_pkey |            16384
 2017-02-03 12:25:12.877742+01 | 1486121112.87774 | pgbench_tellers_pkey  |            40960
 2017-02-03 12:25:12.877742+01 | 1486121112.87774 | pgbench_accounts_pkey |        224641024

 2017-02-03 12:25:13.97405+01 | 1486121113.97405 | pgbench_branches_pkey |            16384
 2017-02-03 12:25:13.97405+01 | 1486121113.97405 | pgbench_tellers_pkey  |            40960
 2017-02-03 12:25:13.97405+01 | 1486121113.97405 | pgbench_accounts_pkey |        224641024

 2017-02-03 12:25:15.0676+01 | 1486121115.0676 | pgbench_branches_pkey |            16384
 2017-02-03 12:25:15.0676+01 | 1486121115.0676 | pgbench_tellers_pkey  |            40960
 2017-02-03 12:25:15.0676+01 | 1486121115.0676 | pgbench_accounts_pkey |        224641024

 2017-02-03 12:25:16.162953+01 | 1486121116.16295 | pgbench_branches_pkey |            16384
 2017-02-03 12:25:16.162953+01 | 1486121116.16295 | pgbench_tellers_pkey  |            40960
 2017-02-03 12:25:16.162953+01 | 1486121116.16295 | pgbench_accounts_pkey |        224641024

 2017-02-03 12:25:17.255674+01 | 1486121117.25567 | pgbench_branches_pkey |            16384
 2017-02-03 12:25:17.255674+01 | 1486121117.25567 | pgbench_tellers_pkey  |            40960
 2017-02-03 12:25:17.255674+01 | 1486121117.25567 | pgbench_accounts_pkey |        224641024

 2017-02-03 12:25:18.385244+01 | 1486121118.38524 | pgbench_branches_pkey |            16384
 2017-02-03 12:25:18.385244+01 | 1486121118.38524 | pgbench_tellers_pkey  |            40960
 2017-02-03 12:25:18.385244+01 | 1486121118.38524 | pgbench_accounts_pkey |        224641024

 2017-02-03 12:25:19.527007+01 | 1486121119.52701 | pgbench_branches_pkey |            16384
 2017-02-03 12:25:19.527007+01 | 1486121119.52701 | pgbench_tellers_pkey  |            40960
 2017-02-03 12:25:19.527007+01 | 1486121119.52701 | pgbench_accounts_pkey |        224641024

 2017-02-03 12:25:20.633176+01 | 1486121120.63318 | pgbench_branches_pkey |            16384
 2017-02-03 12:25:20.633176+01 | 1486121120.63318 | pgbench_tellers_pkey  |            40960
 2017-02-03 12:25:20.633176+01 | 1486121120.63318 | pgbench_accounts_pkey |        224641024

 2017-02-03 12:25:21.73816+01 | 1486121121.73816 | pgbench_branches_pkey |            16384
 2017-02-03 12:25:21.73816+01 | 1486121121.73816 | pgbench_tellers_pkey  |            40960
 2017-02-03 12:25:21.73816+01 | 1486121121.73816 | pgbench_accounts_pkey |        224641024

 2017-02-03 12:25:22.834151+01 | 1486121122.83415 | pgbench_branches_pkey |            16384
 2017-02-03 12:25:22.834151+01 | 1486121122.83415 | pgbench_tellers_pkey  |            40960
 2017-02-03 12:25:22.834151+01 | 1486121122.83415 | pgbench_accounts_pkey |        224641024

 2017-02-03 12:25:23.935447+01 | 1486121123.93545 | pgbench_branches_pkey |            16384
 2017-02-03 12:25:23.935447+01 | 1486121123.93545 | pgbench_tellers_pkey  |            40960
 2017-02-03 12:25:23.935447+01 | 1486121123.93545 | pgbench_accounts_pkey |        224641024

 2017-02-03 12:25:25.030873+01 | 1486121125.03087 | pgbench_branches_pkey |            16384
 2017-02-03 12:25:25.030873+01 | 1486121125.03087 | pgbench_tellers_pkey  |            40960
 2017-02-03 12:25:25.030873+01 | 1486121125.03087 | pgbench_accounts_pkey |        224641024

 2017-02-03 12:25:26.12805+01 | 1486121126.12805 | pgbench_branches_pkey |            16384
 2017-02-03 12:25:26.12805+01 | 1486121126.12805 | pgbench_tellers_pkey  |            40960
 2017-02-03 12:25:26.12805+01 | 1486121126.12805 | pgbench_accounts_pkey |        224641024

 2017-02-03 12:25:27.219175+01 | 1486121127.21918 | pgbench_branches_pkey |            16384
 2017-02-03 12:25:27.219175+01 | 1486121127.21918 | pgbench_tellers_pkey  |            40960
 2017-02-03 12:25:27.219175+01 | 1486121127.21918 | pgbench_accounts_pkey |        224641024

 2017-02-03 12:25:28.311141+01 | 1486121128.31114 | pgbench_branches_pkey |            16384
 2017-02-03 12:25:28.311141+01 | 1486121128.31114 | pgbench_tellers_pkey  |            40960
 2017-02-03 12:25:28.311141+01 | 1486121128.31114 | pgbench_accounts_pkey |        224641024

 2017-02-03 12:25:29.420249+01 | 1486121129.42025 | pgbench_branches_pkey |            16384
 2017-02-03 12:25:29.420249+01 | 1486121129.42025 | pgbench_tellers_pkey  |            40960
 2017-02-03 12:25:29.420249+01 | 1486121129.42025 | pgbench_accounts_pkey |        224641024

 2017-02-03 12:25:30.545318+01 | 1486121130.54532 | pgbench_branches_pkey |            16384
 2017-02-03 12:25:30.545318+01 | 1486121130.54532 | pgbench_tellers_pkey  |            40960
 2017-02-03 12:25:30.545318+01 | 1486121130.54532 | pgbench_accounts_pkey |        224641024

 2017-02-03 12:25:31.665104+01 | 1486121131.6651 | pgbench_branches_pkey |            16384
 2017-02-03 12:25:31.665104+01 | 1486121131.6651 | pgbench_tellers_pkey  |            40960
 2017-02-03 12:25:31.665104+01 | 1486121131.6651 | pgbench_accounts_pkey |        224641024

 2017-02-03 12:25:32.766048+01 | 1486121132.76605 | pgbench_branches_pkey |            16384
 2017-02-03 12:25:32.766048+01 | 1486121132.76605 | pgbench_tellers_pkey  |            40960
 2017-02-03 12:25:32.766048+01 | 1486121132.76605 | pgbench_accounts_pkey |        224641024

 2017-02-03 12:25:33.879642+01 | 1486121133.87964 | pgbench_branches_pkey |            16384
 2017-02-03 12:25:33.879642+01 | 1486121133.87964 | pgbench_tellers_pkey  |            40960
 2017-02-03 12:25:33.879642+01 | 1486121133.87964 | pgbench_accounts_pkey |        224641024

 2017-02-03 12:25:34.990273+01 | 1486121134.99027 | pgbench_branches_pkey |            16384
 2017-02-03 12:25:34.990273+01 | 1486121134.99027 | pgbench_tellers_pkey  |            40960
 2017-02-03 12:25:34.990273+01 | 1486121134.99027 | pgbench_accounts_pkey |        224641024

 2017-02-03 12:25:36.088262+01 | 1486121136.08826 | pgbench_branches_pkey |            16384
 2017-02-03 12:25:36.088262+01 | 1486121136.08826 | pgbench_tellers_pkey  |            40960
 2017-02-03 12:25:36.088262+01 | 1486121136.08826 | pgbench_accounts_pkey |        224641024

 2017-02-03 12:25:37.221102+01 | 1486121137.2211 | pgbench_branches_pkey |            16384
 2017-02-03 12:25:37.221102+01 | 1486121137.2211 | pgbench_tellers_pkey  |            40960
 2017-02-03 12:25:37.221102+01 | 1486121137.2211 | pgbench_accounts_pkey |        224641024

 2017-02-03 12:25:38.319968+01 | 1486121138.31997 | pgbench_branches_pkey |            16384
 2017-02-03 12:25:38.319968+01 | 1486121138.31997 | pgbench_tellers_pkey  |            40960
 2017-02-03 12:25:38.319968+01 | 1486121138.31997 | pgbench_accounts_pkey |        224641024

 2017-02-03 12:25:39.414224+01 | 1486121139.41422 | pgbench_branches_pkey |            16384
 2017-02-03 12:25:39.414224+01 | 1486121139.41422 | pgbench_tellers_pkey  |            40960
 2017-02-03 12:25:39.414224+01 | 1486121139.41422 | pgbench_accounts_pkey |        224641024

 2017-02-03 12:25:40.524888+01 | 1486121140.52489 | pgbench_branches_pkey |            16384
 2017-02-03 12:25:40.524888+01 | 1486121140.52489 | pgbench_tellers_pkey  |            40960
 2017-02-03 12:25:40.524888+01 | 1486121140.52489 | pgbench_accounts_pkey |        224641024

 2017-02-03 12:25:41.645319+01 | 1486121141.64532 | pgbench_branches_pkey |            16384
 2017-02-03 12:25:41.645319+01 | 1486121141.64532 | pgbench_tellers_pkey  |            40960
 2017-02-03 12:25:41.645319+01 | 1486121141.64532 | pgbench_accounts_pkey |        224641024

 2017-02-03 12:25:42.771568+01 | 1486121142.77157 | pgbench_branches_pkey |            16384
 2017-02-03 12:25:42.771568+01 | 1486121142.77157 | pgbench_tellers_pkey  |            40960
 2017-02-03 12:25:42.771568+01 | 1486121142.77157 | pgbench_accounts_pkey |        224641024

 2017-02-03 12:25:43.881058+01 | 1486121143.88106 | pgbench_branches_pkey |            16384
 2017-02-03 12:25:43.881058+01 | 1486121143.88106 | pgbench_tellers_pkey  |            40960
 2017-02-03 12:25:43.881058+01 | 1486121143.88106 | pgbench_accounts_pkey |        224641024

 2017-02-03 12:25:44.994916+01 | 1486121144.99492 | pgbench_branches_pkey |            16384
 2017-02-03 12:25:44.994916+01 | 1486121144.99492 | pgbench_tellers_pkey  |            40960
 2017-02-03 12:25:44.994916+01 | 1486121144.99492 | pgbench_accounts_pkey |        224641024

 2017-02-03 12:25:46.108052+01 | 1486121146.10805 | pgbench_branches_pkey |            16384
 2017-02-03 12:25:46.108052+01 | 1486121146.10805 | pgbench_tellers_pkey  |            40960
 2017-02-03 12:25:46.108052+01 | 1486121146.10805 | pgbench_accounts_pkey |        224641024

 2017-02-03 12:25:47.225719+01 | 1486121147.22572 | pgbench_branches_pkey |            16384
 2017-02-03 12:25:47.225719+01 | 1486121147.22572 | pgbench_tellers_pkey  |            40960
 2017-02-03 12:25:47.225719+01 | 1486121147.22572 | pgbench_accounts_pkey |        224641024

 2017-02-03 12:25:48.320769+01 | 1486121148.32077 | pgbench_branches_pkey |            16384
 2017-02-03 12:25:48.320769+01 | 1486121148.32077 | pgbench_tellers_pkey  |            40960
 2017-02-03 12:25:48.320769+01 | 1486121148.32077 | pgbench_accounts_pkey |        224641024

 2017-02-03 12:25:49.410435+01 | 1486121149.41043 | pgbench_branches_pkey |            16384
 2017-02-03 12:25:49.410435+01 | 1486121149.41043 | pgbench_tellers_pkey  |            40960
 2017-02-03 12:25:49.410435+01 | 1486121149.41043 | pgbench_accounts_pkey |        224641024

 2017-02-03 12:25:50.51312+01 | 1486121150.51312 | pgbench_branches_pkey |            16384
 2017-02-03 12:25:50.51312+01 | 1486121150.51312 | pgbench_tellers_pkey  |            40960
 2017-02-03 12:25:50.51312+01 | 1486121150.51312 | pgbench_accounts_pkey |        224641024

 2017-02-03 12:25:51.602243+01 | 1486121151.60224 | pgbench_branches_pkey |            16384
 2017-02-03 12:25:51.602243+01 | 1486121151.60224 | pgbench_tellers_pkey  |            40960
 2017-02-03 12:25:51.602243+01 | 1486121151.60224 | pgbench_accounts_pkey |        224641024

 2017-02-03 12:25:52.703004+01 | 1486121152.703 | pgbench_branches_pkey |            16384
 2017-02-03 12:25:52.703004+01 | 1486121152.703 | pgbench_tellers_pkey  |            40960
 2017-02-03 12:25:52.703004+01 | 1486121152.703 | pgbench_accounts_pkey |        224641024

 2017-02-03 12:25:53.820028+01 | 1486121153.82003 | pgbench_branches_pkey |            16384
 2017-02-03 12:25:53.820028+01 | 1486121153.82003 | pgbench_tellers_pkey  |            40960
 2017-02-03 12:25:53.820028+01 | 1486121153.82003 | pgbench_accounts_pkey |        224641024

 2017-02-03 12:25:54.937496+01 | 1486121154.9375 | pgbench_branches_pkey |            16384
 2017-02-03 12:25:54.937496+01 | 1486121154.9375 | pgbench_tellers_pkey  |            40960
 2017-02-03 12:25:54.937496+01 | 1486121154.9375 | pgbench_accounts_pkey |        224641024

 2017-02-03 12:25:56.045161+01 | 1486121156.04516 | pgbench_branches_pkey |            16384
 2017-02-03 12:25:56.045161+01 | 1486121156.04516 | pgbench_tellers_pkey  |            40960
 2017-02-03 12:25:56.045161+01 | 1486121156.04516 | pgbench_accounts_pkey |        224641024

 2017-02-03 12:25:57.147117+01 | 1486121157.14712 | pgbench_branches_pkey |            16384
 2017-02-03 12:25:57.147117+01 | 1486121157.14712 | pgbench_tellers_pkey  |            40960
 2017-02-03 12:25:57.147117+01 | 1486121157.14712 | pgbench_accounts_pkey |        224641024

 2017-02-03 12:25:58.2425+01 | 1486121158.2425 | pgbench_branches_pkey |            16384
 2017-02-03 12:25:58.2425+01 | 1486121158.2425 | pgbench_tellers_pkey  |            40960
 2017-02-03 12:25:58.2425+01 | 1486121158.2425 | pgbench_accounts_pkey |        224641024

 2017-02-03 12:25:59.334589+01 | 1486121159.33459 | pgbench_branches_pkey |            16384
 2017-02-03 12:25:59.334589+01 | 1486121159.33459 | pgbench_tellers_pkey  |            40960
 2017-02-03 12:25:59.334589+01 | 1486121159.33459 | pgbench_accounts_pkey |        224641024

 2017-02-03 12:26:00.42864+01 | 1486121160.42864 | pgbench_branches_pkey |            16384
 2017-02-03 12:26:00.42864+01 | 1486121160.42864 | pgbench_tellers_pkey  |            40960
 2017-02-03 12:26:00.42864+01 | 1486121160.42864 | pgbench_accounts_pkey |        224641024

 2017-02-03 12:26:01.52802+01 | 1486121161.52802 | pgbench_branches_pkey |            16384
 2017-02-03 12:26:01.52802+01 | 1486121161.52802 | pgbench_tellers_pkey  |            40960
 2017-02-03 12:26:01.52802+01 | 1486121161.52802 | pgbench_accounts_pkey |        224641024

 2017-02-03 12:26:02.622985+01 | 1486121162.62298 | pgbench_branches_pkey |            16384
 2017-02-03 12:26:02.622985+01 | 1486121162.62298 | pgbench_tellers_pkey  |            40960
 2017-02-03 12:26:02.622985+01 | 1486121162.62298 | pgbench_accounts_pkey |        224641024

 2017-02-03 12:26:03.723733+01 | 1486121163.72373 | pgbench_branches_pkey |            16384
 2017-02-03 12:26:03.723733+01 | 1486121163.72373 | pgbench_tellers_pkey  |            40960
 2017-02-03 12:26:03.723733+01 | 1486121163.72373 | pgbench_accounts_pkey |        224641024

 2017-02-03 12:26:04.82059+01 | 1486121164.82059 | pgbench_branches_pkey |            16384
 2017-02-03 12:26:04.82059+01 | 1486121164.82059 | pgbench_tellers_pkey  |            40960
 2017-02-03 12:26:04.82059+01 | 1486121164.82059 | pgbench_accounts_pkey |        224641024

 2017-02-03 12:26:05.913202+01 | 1486121165.9132 | pgbench_branches_pkey |            16384
 2017-02-03 12:26:05.913202+01 | 1486121165.9132 | pgbench_tellers_pkey  |            40960
 2017-02-03 12:26:05.913202+01 | 1486121165.9132 | pgbench_accounts_pkey |        224641024

 2017-02-03 12:26:07.031517+01 | 1486121167.03152 | pgbench_branches_pkey |            16384
 2017-02-03 12:26:07.031517+01 | 1486121167.03152 | pgbench_tellers_pkey  |            40960
 2017-02-03 12:26:07.031517+01 | 1486121167.03152 | pgbench_accounts_pkey |        224641024

 2017-02-03 12:26:08.157103+01 | 1486121168.1571 | pgbench_branches_pkey |            16384
 2017-02-03 12:26:08.157103+01 | 1486121168.1571 | pgbench_tellers_pkey  |            40960
 2017-02-03 12:26:08.157103+01 | 1486121168.1571 | pgbench_accounts_pkey |        224641024

 2017-02-03 12:26:09.266585+01 | 1486121169.26659 | pgbench_branches_pkey |            16384
 2017-02-03 12:26:09.266585+01 | 1486121169.26659 | pgbench_tellers_pkey  |            40960
 2017-02-03 12:26:09.266585+01 | 1486121169.26659 | pgbench_accounts_pkey |        224641024

 2017-02-03 12:26:10.367697+01 | 1486121170.3677 | pgbench_branches_pkey |            16384
 2017-02-03 12:26:10.367697+01 | 1486121170.3677 | pgbench_tellers_pkey  |            40960
 2017-02-03 12:26:10.367697+01 | 1486121170.3677 | pgbench_accounts_pkey |        224641024

 2017-02-03 12:26:11.457484+01 | 1486121171.45748 | pgbench_branches_pkey |            16384
 2017-02-03 12:26:11.457484+01 | 1486121171.45748 | pgbench_tellers_pkey  |            40960
 2017-02-03 12:26:11.457484+01 | 1486121171.45748 | pgbench_accounts_pkey |        224641024

 2017-02-03 12:26:12.564081+01 | 1486121172.56408 | pgbench_branches_pkey |            16384
 2017-02-03 12:26:12.564081+01 | 1486121172.56408 | pgbench_tellers_pkey  |            40960
 2017-02-03 12:26:12.564081+01 | 1486121172.56408 | pgbench_accounts_pkey |        224641024

 2017-02-03 12:26:13.663229+01 | 1486121173.66323 | pgbench_branches_pkey |            16384
 2017-02-03 12:26:13.663229+01 | 1486121173.66323 | pgbench_tellers_pkey  |            40960
 2017-02-03 12:26:13.663229+01 | 1486121173.66323 | pgbench_accounts_pkey |        224641024

 2017-02-03 12:26:14.764951+01 | 1486121174.76495 | pgbench_branches_pkey |            16384
 2017-02-03 12:26:14.764951+01 | 1486121174.76495 | pgbench_tellers_pkey  |            40960
 2017-02-03 12:26:14.764951+01 | 1486121174.76495 | pgbench_accounts_pkey |        224641024

 2017-02-03 12:26:15.857058+01 | 1486121175.85706 | pgbench_branches_pkey |            16384
 2017-02-03 12:26:15.857058+01 | 1486121175.85706 | pgbench_tellers_pkey  |            40960
 2017-02-03 12:26:15.857058+01 | 1486121175.85706 | pgbench_accounts_pkey |        224641024

 2017-02-03 12:26:16.961039+01 | 1486121176.96104 | pgbench_branches_pkey |            16384
 2017-02-03 12:26:16.961039+01 | 1486121176.96104 | pgbench_tellers_pkey  |            40960
 2017-02-03 12:26:16.961039+01 | 1486121176.96104 | pgbench_accounts_pkey |        224641024

 2017-02-03 12:26:18.065445+01 | 1486121178.06544 | pgbench_branches_pkey |            16384
 2017-02-03 12:26:18.065445+01 | 1486121178.06544 | pgbench_tellers_pkey  |            40960
 2017-02-03 12:26:18.065445+01 | 1486121178.06544 | pgbench_accounts_pkey |        224641024

 2017-02-03 12:26:19.158444+01 | 1486121179.15844 | pgbench_branches_pkey |            16384
 2017-02-03 12:26:19.158444+01 | 1486121179.15844 | pgbench_tellers_pkey  |            40960
 2017-02-03 12:26:19.158444+01 | 1486121179.15844 | pgbench_accounts_pkey |        224641024

 2017-02-03 12:26:20.297826+01 | 1486121180.29783 | pgbench_branches_pkey |            16384
 2017-02-03 12:26:20.297826+01 | 1486121180.29783 | pgbench_tellers_pkey  |            40960
 2017-02-03 12:26:20.297826+01 | 1486121180.29783 | pgbench_accounts_pkey |        224641024

 2017-02-03 12:26:21.425086+01 | 1486121181.42509 | pgbench_branches_pkey |            16384
 2017-02-03 12:26:21.425086+01 | 1486121181.42509 | pgbench_tellers_pkey  |            40960
 2017-02-03 12:26:21.425086+01 | 1486121181.42509 | pgbench_accounts_pkey |        224641024

 2017-02-03 12:26:22.522181+01 | 1486121182.52218 | pgbench_branches_pkey |            16384
 2017-02-03 12:26:22.522181+01 | 1486121182.52218 | pgbench_tellers_pkey  |            40960
 2017-02-03 12:26:22.522181+01 | 1486121182.52218 | pgbench_accounts_pkey |        224641024

 2017-02-03 12:26:23.608992+01 | 1486121183.60899 | pgbench_branches_pkey |            16384
 2017-02-03 12:26:23.608992+01 | 1486121183.60899 | pgbench_tellers_pkey  |            40960
 2017-02-03 12:26:23.608992+01 | 1486121183.60899 | pgbench_accounts_pkey |        224641024

 2017-02-03 12:26:24.710778+01 | 1486121184.71078 | pgbench_branches_pkey |            16384
 2017-02-03 12:26:24.710778+01 | 1486121184.71078 | pgbench_tellers_pkey  |            40960
 2017-02-03 12:26:24.710778+01 | 1486121184.71078 | pgbench_accounts_pkey |        224641024

 2017-02-03 12:26:25.81502+01 | 1486121185.81502 | pgbench_branches_pkey |            16384
 2017-02-03 12:26:25.81502+01 | 1486121185.81502 | pgbench_tellers_pkey  |            40960
 2017-02-03 12:26:25.81502+01 | 1486121185.81502 | pgbench_accounts_pkey |        224641024

 2017-02-03 12:26:26.918203+01 | 1486121186.9182 | pgbench_branches_pkey |            16384
 2017-02-03 12:26:26.918203+01 | 1486121186.9182 | pgbench_tellers_pkey  |            40960
 2017-02-03 12:26:26.918203+01 | 1486121186.9182 | pgbench_accounts_pkey |        224641024

 2017-02-03 12:26:28.024799+01 | 1486121188.0248 | pgbench_branches_pkey |            16384
 2017-02-03 12:26:28.024799+01 | 1486121188.0248 | pgbench_tellers_pkey  |            40960
 2017-02-03 12:26:28.024799+01 | 1486121188.0248 | pgbench_accounts_pkey |        224641024

 2017-02-03 12:26:29.12454+01 | 1486121189.12454 | pgbench_branches_pkey |            16384
 2017-02-03 12:26:29.12454+01 | 1486121189.12454 | pgbench_tellers_pkey  |            40960
 2017-02-03 12:26:29.12454+01 | 1486121189.12454 | pgbench_accounts_pkey |        224641024

 2017-02-03 12:26:30.240012+01 | 1486121190.24001 | pgbench_branches_pkey |            16384
 2017-02-03 12:26:30.240012+01 | 1486121190.24001 | pgbench_tellers_pkey  |            40960
 2017-02-03 12:26:30.240012+01 | 1486121190.24001 | pgbench_accounts_pkey |        224641024

 2017-02-03 12:26:31.35693+01 | 1486121191.35693 | pgbench_branches_pkey |            16384
 2017-02-03 12:26:31.35693+01 | 1486121191.35693 | pgbench_tellers_pkey  |            40960
 2017-02-03 12:26:31.35693+01 | 1486121191.35693 | pgbench_accounts_pkey |        224641024

 2017-02-03 12:26:32.465185+01 | 1486121192.46518 | pgbench_branches_pkey |            16384
 2017-02-03 12:26:32.465185+01 | 1486121192.46518 | pgbench_tellers_pkey  |            40960
 2017-02-03 12:26:32.465185+01 | 1486121192.46518 | pgbench_accounts_pkey |        224641024

 2017-02-03 12:26:33.566044+01 | 1486121193.56604 | pgbench_branches_pkey |            16384
 2017-02-03 12:26:33.566044+01 | 1486121193.56604 | pgbench_tellers_pkey  |            40960
 2017-02-03 12:26:33.566044+01 | 1486121193.56604 | pgbench_accounts_pkey |        224641024

 2017-02-03 12:26:34.671405+01 | 1486121194.67141 | pgbench_branches_pkey |            16384
 2017-02-03 12:26:34.671405+01 | 1486121194.67141 | pgbench_tellers_pkey  |            40960
 2017-02-03 12:26:34.671405+01 | 1486121194.67141 | pgbench_accounts_pkey |        224641024

 2017-02-03 12:26:35.763268+01 | 1486121195.76327 | pgbench_branches_pkey |            16384
 2017-02-03 12:26:35.763268+01 | 1486121195.76327 | pgbench_tellers_pkey  |            40960
 2017-02-03 12:26:35.763268+01 | 1486121195.76327 | pgbench_accounts_pkey |        224641024

 2017-02-03 12:26:36.858952+01 | 1486121196.85895 | pgbench_branches_pkey |            16384
 2017-02-03 12:26:36.858952+01 | 1486121196.85895 | pgbench_tellers_pkey  |            40960
 2017-02-03 12:26:36.858952+01 | 1486121196.85895 | pgbench_accounts_pkey |        224641024

 2017-02-03 12:26:37.959737+01 | 1486121197.95974 | pgbench_branches_pkey |            16384
 2017-02-03 12:26:37.959737+01 | 1486121197.95974 | pgbench_tellers_pkey  |            40960
 2017-02-03 12:26:37.959737+01 | 1486121197.95974 | pgbench_accounts_pkey |        224641024

 2017-02-03 12:26:39.063351+01 | 1486121199.06335 | pgbench_branches_pkey |            16384
 2017-02-03 12:26:39.063351+01 | 1486121199.06335 | pgbench_tellers_pkey  |            40960
 2017-02-03 12:26:39.063351+01 | 1486121199.06335 | pgbench_accounts_pkey |        224641024

 2017-02-03 12:26:40.176356+01 | 1486121200.17636 | pgbench_branches_pkey |            16384
 2017-02-03 12:26:40.176356+01 | 1486121200.17636 | pgbench_tellers_pkey  |            40960
 2017-02-03 12:26:40.176356+01 | 1486121200.17636 | pgbench_accounts_pkey |        224641024

 2017-02-03 12:26:41.284983+01 | 1486121201.28498 | pgbench_branches_pkey |            16384
 2017-02-03 12:26:41.284983+01 | 1486121201.28498 | pgbench_tellers_pkey  |            40960
 2017-02-03 12:26:41.284983+01 | 1486121201.28498 | pgbench_accounts_pkey |        224641024

 2017-02-03 12:26:42.378911+01 | 1486121202.37891 | pgbench_branches_pkey |            16384
 2017-02-03 12:26:42.378911+01 | 1486121202.37891 | pgbench_tellers_pkey  |            40960
 2017-02-03 12:26:42.378911+01 | 1486121202.37891 | pgbench_accounts_pkey |        224641024

 2017-02-03 12:26:43.482033+01 | 1486121203.48203 | pgbench_branches_pkey |            16384
 2017-02-03 12:26:43.482033+01 | 1486121203.48203 | pgbench_tellers_pkey  |            40960
 2017-02-03 12:26:43.482033+01 | 1486121203.48203 | pgbench_accounts_pkey |        224641024

 2017-02-03 12:26:44.593459+01 | 1486121204.59346 | pgbench_branches_pkey |            16384
 2017-02-03 12:26:44.593459+01 | 1486121204.59346 | pgbench_tellers_pkey  |            40960
 2017-02-03 12:26:44.593459+01 | 1486121204.59346 | pgbench_accounts_pkey |        224641024

 2017-02-03 12:26:45.706235+01 | 1486121205.70623 | pgbench_branches_pkey |            16384
 2017-02-03 12:26:45.706235+01 | 1486121205.70623 | pgbench_tellers_pkey  |            40960
 2017-02-03 12:26:45.706235+01 | 1486121205.70623 | pgbench_accounts_pkey |        224641024

 2017-02-03 12:26:46.803355+01 | 1486121206.80335 | pgbench_branches_pkey |            16384
 2017-02-03 12:26:46.803355+01 | 1486121206.80335 | pgbench_tellers_pkey  |            40960
 2017-02-03 12:26:46.803355+01 | 1486121206.80335 | pgbench_accounts_pkey |        224641024

 2017-02-03 12:26:47.905447+01 | 1486121207.90545 | pgbench_branches_pkey |            16384
 2017-02-03 12:26:47.905447+01 | 1486121207.90545 | pgbench_tellers_pkey  |            40960
 2017-02-03 12:26:47.905447+01 | 1486121207.90545 | pgbench_accounts_pkey |        224641024

 2017-02-03 12:26:49.003093+01 | 1486121209.00309 | pgbench_branches_pkey |            16384
 2017-02-03 12:26:49.003093+01 | 1486121209.00309 | pgbench_tellers_pkey  |            40960
 2017-02-03 12:26:49.003093+01 | 1486121209.00309 | pgbench_accounts_pkey |        224641024

 2017-02-03 12:26:50.096718+01 | 1486121210.09672 | pgbench_branches_pkey |            16384
 2017-02-03 12:26:50.096718+01 | 1486121210.09672 | pgbench_tellers_pkey  |            40960
 2017-02-03 12:26:50.096718+01 | 1486121210.09672 | pgbench_accounts_pkey |        224641024

 2017-02-03 12:26:51.192501+01 | 1486121211.1925 | pgbench_branches_pkey |            16384
 2017-02-03 12:26:51.192501+01 | 1486121211.1925 | pgbench_tellers_pkey  |            40960
 2017-02-03 12:26:51.192501+01 | 1486121211.1925 | pgbench_accounts_pkey |        224641024

 2017-02-03 12:26:52.298277+01 | 1486121212.29828 | pgbench_branches_pkey |            16384
 2017-02-03 12:26:52.298277+01 | 1486121212.29828 | pgbench_tellers_pkey  |            40960
 2017-02-03 12:26:52.298277+01 | 1486121212.29828 | pgbench_accounts_pkey |        224641024

 2017-02-03 12:26:53.385702+01 | 1486121213.3857 | pgbench_branches_pkey |            16384
 2017-02-03 12:26:53.385702+01 | 1486121213.3857 | pgbench_tellers_pkey  |            40960
 2017-02-03 12:26:53.385702+01 | 1486121213.3857 | pgbench_accounts_pkey |        224641024

 2017-02-03 12:26:54.482327+01 | 1486121214.48233 | pgbench_branches_pkey |            16384
 2017-02-03 12:26:54.482327+01 | 1486121214.48233 | pgbench_tellers_pkey  |            40960
 2017-02-03 12:26:54.482327+01 | 1486121214.48233 | pgbench_accounts_pkey |        224641024

 2017-02-03 12:26:55.576361+01 | 1486121215.57636 | pgbench_branches_pkey |            16384
 2017-02-03 12:26:55.576361+01 | 1486121215.57636 | pgbench_tellers_pkey  |            40960
 2017-02-03 12:26:55.576361+01 | 1486121215.57636 | pgbench_accounts_pkey |        224641024

 2017-02-03 12:26:56.676789+01 | 1486121216.67679 | pgbench_branches_pkey |            16384
 2017-02-03 12:26:56.676789+01 | 1486121216.67679 | pgbench_tellers_pkey  |            40960
 2017-02-03 12:26:56.676789+01 | 1486121216.67679 | pgbench_accounts_pkey |        224641024

 2017-02-03 12:26:57.787935+01 | 1486121217.78794 | pgbench_branches_pkey |            16384
 2017-02-03 12:26:57.787935+01 | 1486121217.78794 | pgbench_tellers_pkey  |            40960
 2017-02-03 12:26:57.787935+01 | 1486121217.78794 | pgbench_accounts_pkey |        224641024

 2017-02-03 12:26:58.904091+01 | 1486121218.90409 | pgbench_branches_pkey |            16384
 2017-02-03 12:26:58.904091+01 | 1486121218.90409 | pgbench_tellers_pkey  |            40960
 2017-02-03 12:26:58.904091+01 | 1486121218.90409 | pgbench_accounts_pkey |        224641024

 2017-02-03 12:27:00.020865+01 | 1486121220.02086 | pgbench_branches_pkey |            16384
 2017-02-03 12:27:00.020865+01 | 1486121220.02086 | pgbench_tellers_pkey  |            40960
 2017-02-03 12:27:00.020865+01 | 1486121220.02086 | pgbench_accounts_pkey |        224641024

 2017-02-03 12:27:01.143587+01 | 1486121221.14359 | pgbench_branches_pkey |            16384
 2017-02-03 12:27:01.143587+01 | 1486121221.14359 | pgbench_tellers_pkey  |            40960
 2017-02-03 12:27:01.143587+01 | 1486121221.14359 | pgbench_accounts_pkey |        224641024

 2017-02-03 12:27:02.241939+01 | 1486121222.24194 | pgbench_branches_pkey |            16384
 2017-02-03 12:27:02.241939+01 | 1486121222.24194 | pgbench_tellers_pkey  |            40960
 2017-02-03 12:27:02.241939+01 | 1486121222.24194 | pgbench_accounts_pkey |        224641024

 2017-02-03 12:27:03.34089+01 | 1486121223.34089 | pgbench_branches_pkey |            16384
 2017-02-03 12:27:03.34089+01 | 1486121223.34089 | pgbench_tellers_pkey  |            40960
 2017-02-03 12:27:03.34089+01 | 1486121223.34089 | pgbench_accounts_pkey |        224641024

 2017-02-03 12:27:04.441156+01 | 1486121224.44116 | pgbench_branches_pkey |            16384
 2017-02-03 12:27:04.441156+01 | 1486121224.44116 | pgbench_tellers_pkey  |            40960
 2017-02-03 12:27:04.441156+01 | 1486121224.44116 | pgbench_accounts_pkey |        224641024

 2017-02-03 12:27:05.545777+01 | 1486121225.54578 | pgbench_branches_pkey |            16384
 2017-02-03 12:27:05.545777+01 | 1486121225.54578 | pgbench_tellers_pkey  |            40960
 2017-02-03 12:27:05.545777+01 | 1486121225.54578 | pgbench_accounts_pkey |        224641024

 2017-02-03 12:27:06.650348+01 | 1486121226.65035 | pgbench_branches_pkey |            16384
 2017-02-03 12:27:06.650348+01 | 1486121226.65035 | pgbench_tellers_pkey  |            40960
 2017-02-03 12:27:06.650348+01 | 1486121226.65035 | pgbench_accounts_pkey |        224641024

 2017-02-03 12:27:07.749609+01 | 1486121227.74961 | pgbench_branches_pkey |            16384
 2017-02-03 12:27:07.749609+01 | 1486121227.74961 | pgbench_tellers_pkey  |            40960
 2017-02-03 12:27:07.749609+01 | 1486121227.74961 | pgbench_accounts_pkey |        224641024

