 2017-02-03 17:02:46.818934+01 | 1486137766.81893 |                 0 |              10 |                   310 |                    1 |               2201 |             0 |                0 |          487818 |                     0 |        191842 | 2017-02-03 16:12:20.928298+01

 2017-02-03 17:02:47.900512+01 | 1486137767.90051 |                 0 |              11 |                   334 |                    1 |               2207 |             0 |                0 |          487823 |                     0 |        191842 | 2017-02-03 16:12:20.928298+01

 2017-02-03 17:02:48.984899+01 | 1486137768.9849 |                 0 |              11 |                   334 |                    1 |               2207 |             0 |                0 |          487823 |                     0 |        191842 | 2017-02-03 16:12:20.928298+01

 2017-02-03 17:02:50.078563+01 | 1486137770.07856 |                 0 |              11 |                   334 |                    1 |               2207 |             0 |                0 |          487823 |                     0 |        191842 | 2017-02-03 16:12:20.928298+01

 2017-02-03 17:02:51.163281+01 | 1486137771.16328 |                 0 |              11 |                   334 |                    1 |               2207 |             0 |                0 |          487823 |                     0 |        191842 | 2017-02-03 16:12:20.928298+01

 2017-02-03 17:02:52.248+01 | 1486137772.248 |                 0 |              11 |                   334 |                    1 |               2207 |             0 |                0 |          487823 |                     0 |        191842 | 2017-02-03 16:12:20.928298+01

 2017-02-03 17:02:53.331053+01 | 1486137773.33105 |                 0 |              11 |                   334 |                    1 |               2207 |             0 |                0 |          487823 |                     0 |        191842 | 2017-02-03 16:12:20.928298+01

 2017-02-03 17:02:54.415928+01 | 1486137774.41593 |                 0 |              11 |                   334 |                    1 |               2207 |             0 |                0 |          487823 |                     0 |        191842 | 2017-02-03 16:12:20.928298+01

 2017-02-03 17:02:55.50211+01 | 1486137775.50211 |                 0 |              11 |                   334 |                    1 |               2207 |             0 |                0 |          487823 |                     0 |        191842 | 2017-02-03 16:12:20.928298+01

 2017-02-03 17:02:56.589806+01 | 1486137776.58981 |                 0 |              11 |                   334 |                    1 |               2207 |             0 |                0 |          487823 |                     0 |        191842 | 2017-02-03 16:12:20.928298+01

 2017-02-03 17:02:57.675019+01 | 1486137777.67502 |                 0 |              11 |                   334 |                    1 |               2207 |             0 |                0 |          487823 |                     0 |        191842 | 2017-02-03 16:12:20.928298+01

 2017-02-03 17:02:58.757566+01 | 1486137778.75757 |                 0 |              11 |                   334 |                    1 |               2207 |             0 |                0 |          487823 |                     0 |        191842 | 2017-02-03 16:12:20.928298+01

 2017-02-03 17:02:59.845765+01 | 1486137779.84577 |                 0 |              11 |                   334 |                    1 |               2207 |             0 |                0 |          487823 |                     0 |        191842 | 2017-02-03 16:12:20.928298+01

 2017-02-03 17:03:00.93612+01 | 1486137780.93612 |                 0 |              11 |                   334 |                    1 |               2207 |             0 |                0 |          487823 |                     0 |        191842 | 2017-02-03 16:12:20.928298+01

 2017-02-03 17:03:02.021191+01 | 1486137782.02119 |                 0 |              11 |                   334 |                    1 |               2207 |             0 |                0 |          487823 |                     0 |        191842 | 2017-02-03 16:12:20.928298+01

 2017-02-03 17:03:03.100468+01 | 1486137783.10047 |                 0 |              11 |                   334 |                    1 |               2207 |             0 |                0 |          487823 |                     0 |        191842 | 2017-02-03 16:12:20.928298+01

 2017-02-03 17:03:04.191866+01 | 1486137784.19187 |                 0 |              11 |                   334 |                    1 |               2207 |             0 |                0 |          487823 |                     0 |        191842 | 2017-02-03 16:12:20.928298+01

 2017-02-03 17:03:05.275307+01 | 1486137785.27531 |                 0 |              11 |                   334 |                    1 |               2207 |             0 |                0 |          487823 |                     0 |        191842 | 2017-02-03 16:12:20.928298+01

 2017-02-03 17:03:06.359945+01 | 1486137786.35995 |                 0 |              11 |                   334 |                    1 |               2207 |             0 |                0 |          487823 |                     0 |        191842 | 2017-02-03 16:12:20.928298+01

 2017-02-03 17:03:07.44463+01 | 1486137787.44463 |                 0 |              11 |                   334 |                    1 |               2207 |             0 |                0 |          487823 |                     0 |        191842 | 2017-02-03 16:12:20.928298+01

 2017-02-03 17:03:08.531087+01 | 1486137788.53109 |                 0 |              11 |                   334 |                    1 |               2207 |             0 |                0 |          487823 |                     0 |        191842 | 2017-02-03 16:12:20.928298+01

 2017-02-03 17:03:09.614363+01 | 1486137789.61436 |                 0 |              11 |                   334 |                    1 |               2207 |             0 |                0 |          487823 |                     0 |        191842 | 2017-02-03 16:12:20.928298+01

 2017-02-03 17:03:10.708051+01 | 1486137790.70805 |                 0 |              11 |                   334 |                    1 |               2207 |             0 |                0 |          487823 |                     0 |        191842 | 2017-02-03 16:12:20.928298+01

 2017-02-03 17:03:11.79141+01 | 1486137791.79141 |                 0 |              11 |                   334 |                    1 |               2207 |             0 |                0 |          487823 |                     0 |        191842 | 2017-02-03 16:12:20.928298+01

 2017-02-03 17:03:12.874966+01 | 1486137792.87497 |                 0 |              11 |                   334 |                    1 |               2207 |             0 |                0 |          487823 |                     0 |        191842 | 2017-02-03 16:12:20.928298+01

 2017-02-03 17:03:13.964813+01 | 1486137793.96481 |                 0 |              11 |                   334 |                    1 |               2207 |             0 |                0 |          487823 |                     0 |        191842 | 2017-02-03 16:12:20.928298+01

 2017-02-03 17:03:15.054736+01 | 1486137795.05474 |                 0 |              11 |                   334 |                    1 |               2207 |             0 |                0 |          487823 |                     0 |        191842 | 2017-02-03 16:12:20.928298+01

 2017-02-03 17:03:16.143763+01 | 1486137796.14376 |                 0 |              11 |                   334 |                    1 |               2207 |             0 |                0 |          487823 |                     0 |        191842 | 2017-02-03 16:12:20.928298+01

 2017-02-03 17:03:17.232218+01 | 1486137797.23222 |                 0 |              11 |                   334 |                    1 |               2207 |             0 |                0 |          487823 |                     0 |        191842 | 2017-02-03 16:12:20.928298+01

 2017-02-03 17:03:18.319464+01 | 1486137798.31946 |                 0 |              11 |                   334 |                    1 |               2207 |             0 |                0 |          487823 |                     0 |        191842 | 2017-02-03 16:12:20.928298+01

 2017-02-03 17:03:19.406755+01 | 1486137799.40675 |                 0 |              11 |                   334 |                    1 |               2207 |             0 |                0 |          487823 |                     0 |        191842 | 2017-02-03 16:12:20.928298+01

 2017-02-03 17:03:20.485117+01 | 1486137800.48512 |                 0 |              11 |                   334 |                    1 |               2207 |             0 |                0 |          487823 |                     0 |        191842 | 2017-02-03 16:12:20.928298+01

 2017-02-03 17:03:21.568465+01 | 1486137801.56846 |                 0 |              11 |                   334 |                    1 |               2207 |             0 |                0 |          487823 |                     0 |        191842 | 2017-02-03 16:12:20.928298+01

 2017-02-03 17:03:22.652781+01 | 1486137802.65278 |                 0 |              11 |                   334 |                    1 |               2207 |             0 |                0 |          487823 |                     0 |        191842 | 2017-02-03 16:12:20.928298+01

 2017-02-03 17:03:23.733904+01 | 1486137803.7339 |                 0 |              11 |                   334 |                    1 |               2207 |             0 |                0 |          487823 |                     0 |        191842 | 2017-02-03 16:12:20.928298+01

 2017-02-03 17:03:24.819073+01 | 1486137804.81907 |                 0 |              11 |                   334 |                    1 |               2207 |             0 |                0 |          487823 |                     0 |        191842 | 2017-02-03 16:12:20.928298+01

 2017-02-03 17:03:25.902826+01 | 1486137805.90283 |                 0 |              11 |                   334 |                    1 |               2207 |             0 |                0 |          487823 |                     0 |        191842 | 2017-02-03 16:12:20.928298+01

 2017-02-03 17:03:26.986345+01 | 1486137806.98635 |                 0 |              11 |                   334 |                    1 |               2207 |             0 |                0 |          487823 |                     0 |        191842 | 2017-02-03 16:12:20.928298+01

 2017-02-03 17:03:28.070717+01 | 1486137808.07072 |                 0 |              11 |                   334 |                    1 |               2207 |             0 |                0 |          487823 |                     0 |        191842 | 2017-02-03 16:12:20.928298+01

 2017-02-03 17:03:29.156405+01 | 1486137809.1564 |                 0 |              11 |                   334 |                    1 |               2207 |             0 |                0 |          487823 |                     0 |        191842 | 2017-02-03 16:12:20.928298+01

 2017-02-03 17:03:30.244313+01 | 1486137810.24431 |                 0 |              11 |                   334 |                    1 |               2207 |             0 |                0 |          487823 |                     0 |        191842 | 2017-02-03 16:12:20.928298+01

 2017-02-03 17:03:31.334397+01 | 1486137811.3344 |                 0 |              11 |                   334 |                    1 |               2207 |             0 |                0 |          487823 |                     0 |        191842 | 2017-02-03 16:12:20.928298+01

 2017-02-03 17:03:32.422318+01 | 1486137812.42232 |                 0 |              11 |                   334 |                    1 |               2207 |             0 |                0 |          487823 |                     0 |        191842 | 2017-02-03 16:12:20.928298+01

 2017-02-03 17:03:33.51731+01 | 1486137813.51731 |                 0 |              11 |                   334 |                    1 |               2207 |             0 |                0 |          487823 |                     0 |        191842 | 2017-02-03 16:12:20.928298+01

 2017-02-03 17:03:34.59966+01 | 1486137814.59966 |                 0 |              11 |                   334 |                    1 |               2207 |             0 |                0 |          487823 |                     0 |        191842 | 2017-02-03 16:12:20.928298+01

 2017-02-03 17:03:35.691193+01 | 1486137815.69119 |                 0 |              11 |                   334 |                    1 |               2207 |             0 |                0 |          487823 |                     0 |        191842 | 2017-02-03 16:12:20.928298+01

 2017-02-03 17:03:36.778274+01 | 1486137816.77827 |                 0 |              11 |                   334 |                    1 |               2207 |             0 |                0 |          487823 |                     0 |        191842 | 2017-02-03 16:12:20.928298+01

 2017-02-03 17:03:37.87007+01 | 1486137817.87007 |                 0 |              11 |                   334 |                    1 |               2207 |             0 |                0 |          487823 |                     0 |        191842 | 2017-02-03 16:12:20.928298+01

 2017-02-03 17:03:38.957229+01 | 1486137818.95723 |                 0 |              11 |                   334 |                    1 |               2207 |             0 |                0 |          487823 |                     0 |        191842 | 2017-02-03 16:12:20.928298+01

 2017-02-03 17:03:40.051245+01 | 1486137820.05124 |                 0 |              11 |                   334 |                    1 |               2207 |             0 |                0 |          487823 |                     0 |        191842 | 2017-02-03 16:12:20.928298+01

 2017-02-03 17:03:41.14226+01 | 1486137821.14226 |                 0 |              11 |                   334 |                    1 |               2207 |             0 |                0 |          487823 |                     0 |        191842 | 2017-02-03 16:12:20.928298+01

 2017-02-03 17:03:42.224686+01 | 1486137822.22469 |                 0 |              11 |                   334 |                    1 |               2207 |             0 |                0 |          487823 |                     0 |        191842 | 2017-02-03 16:12:20.928298+01

 2017-02-03 17:03:43.309994+01 | 1486137823.30999 |                 0 |              11 |                   334 |                    1 |               2207 |             0 |                0 |          487823 |                     0 |        191842 | 2017-02-03 16:12:20.928298+01

 2017-02-03 17:03:44.389134+01 | 1486137824.38913 |                 0 |              11 |                   334 |                    1 |               2207 |             0 |                0 |          487823 |                     0 |        191842 | 2017-02-03 16:12:20.928298+01

 2017-02-03 17:03:45.469549+01 | 1486137825.46955 |                 0 |              11 |                   334 |                    1 |               2207 |             0 |                0 |          487823 |                     0 |        191842 | 2017-02-03 16:12:20.928298+01

 2017-02-03 17:03:46.557246+01 | 1486137826.55725 |                 0 |              11 |                   334 |                    1 |               2207 |             0 |                0 |          487823 |                     0 |        191842 | 2017-02-03 16:12:20.928298+01

 2017-02-03 17:03:47.647083+01 | 1486137827.64708 |                 0 |              11 |                   334 |                    1 |               2207 |             0 |                0 |          487823 |                     0 |        191842 | 2017-02-03 16:12:20.928298+01

 2017-02-03 17:03:48.723833+01 | 1486137828.72383 |                 0 |              11 |                   334 |                    1 |               2207 |             0 |                0 |          487823 |                     0 |        191842 | 2017-02-03 16:12:20.928298+01

 2017-02-03 17:03:49.809895+01 | 1486137829.8099 |                 0 |              11 |                   334 |                    1 |               2207 |             0 |                0 |          487823 |                     0 |        191842 | 2017-02-03 16:12:20.928298+01

 2017-02-03 17:03:50.894303+01 | 1486137830.8943 |                 0 |              11 |                   334 |                    1 |               2207 |             0 |                0 |          487823 |                     0 |        191842 | 2017-02-03 16:12:20.928298+01

 2017-02-03 17:03:51.980748+01 | 1486137831.98075 |                 0 |              11 |                   334 |                    1 |               2207 |             0 |                0 |          487823 |                     0 |        191842 | 2017-02-03 16:12:20.928298+01

 2017-02-03 17:03:53.066312+01 | 1486137833.06631 |                 0 |              11 |                   334 |                    1 |               2207 |             0 |                0 |          487823 |                     0 |        191842 | 2017-02-03 16:12:20.928298+01

 2017-02-03 17:03:54.152077+01 | 1486137834.15208 |                 0 |              11 |                   334 |                    1 |               2207 |             0 |                0 |          487823 |                     0 |        191842 | 2017-02-03 16:12:20.928298+01

 2017-02-03 17:03:55.23949+01 | 1486137835.23949 |                 0 |              11 |                   334 |                    1 |               2207 |             0 |                0 |          487823 |                     0 |        191842 | 2017-02-03 16:12:20.928298+01

 2017-02-03 17:03:56.322792+01 | 1486137836.32279 |                 0 |              11 |                   334 |                    1 |               2207 |             0 |                0 |          487823 |                     0 |        191842 | 2017-02-03 16:12:20.928298+01

 2017-02-03 17:03:57.410516+01 | 1486137837.41052 |                 0 |              11 |                   334 |                    1 |               2207 |             0 |                0 |          487823 |                     0 |        191842 | 2017-02-03 16:12:20.928298+01

 2017-02-03 17:03:58.491012+01 | 1486137838.49101 |                 0 |              11 |                   334 |                    1 |               2207 |             0 |                0 |          487823 |                     0 |        191842 | 2017-02-03 16:12:20.928298+01

 2017-02-03 17:03:59.57551+01 | 1486137839.57551 |                 0 |              11 |                   334 |                    1 |               2207 |             0 |                0 |          487823 |                     0 |        191842 | 2017-02-03 16:12:20.928298+01

 2017-02-03 17:04:00.659648+01 | 1486137840.65965 |                 0 |              11 |                   334 |                    1 |               2207 |             0 |                0 |          487823 |                     0 |        191842 | 2017-02-03 16:12:20.928298+01

 2017-02-03 17:04:01.740054+01 | 1486137841.74005 |                 0 |              11 |                   334 |                    1 |               2207 |             0 |                0 |          487823 |                     0 |        191842 | 2017-02-03 16:12:20.928298+01

 2017-02-03 17:04:02.81859+01 | 1486137842.81859 |                 0 |              11 |                   334 |                    1 |               2207 |             0 |                0 |          487823 |                     0 |        191842 | 2017-02-03 16:12:20.928298+01

 2017-02-03 17:04:03.90685+01 | 1486137843.90685 |                 0 |              11 |                   334 |                    1 |               2207 |             0 |                0 |          487823 |                     0 |        191842 | 2017-02-03 16:12:20.928298+01

 2017-02-03 17:04:04.989298+01 | 1486137844.9893 |                 0 |              11 |                   334 |                    1 |               2207 |             0 |                0 |          487823 |                     0 |        191842 | 2017-02-03 16:12:20.928298+01

 2017-02-03 17:04:06.068978+01 | 1486137846.06898 |                 0 |              11 |                   334 |                    1 |               2207 |             0 |                0 |          487823 |                     0 |        191842 | 2017-02-03 16:12:20.928298+01

 2017-02-03 17:04:07.149683+01 | 1486137847.14968 |                 0 |              11 |                   334 |                    1 |               2207 |             0 |                0 |          487823 |                     0 |        191842 | 2017-02-03 16:12:20.928298+01

 2017-02-03 17:04:08.234384+01 | 1486137848.23438 |                 0 |              11 |                   334 |                    1 |               2207 |             0 |                0 |          487823 |                     0 |        191842 | 2017-02-03 16:12:20.928298+01

 2017-02-03 17:04:09.321633+01 | 1486137849.32163 |                 0 |              11 |                   334 |                    1 |               2207 |             0 |                0 |          487823 |                     0 |        191842 | 2017-02-03 16:12:20.928298+01

 2017-02-03 17:04:10.411239+01 | 1486137850.41124 |                 0 |              11 |                   334 |                    1 |               2207 |             0 |                0 |          487823 |                     0 |        191842 | 2017-02-03 16:12:20.928298+01

 2017-02-03 17:04:11.49774+01 | 1486137851.49774 |                 0 |              11 |                   334 |                    1 |               2207 |             0 |                0 |          487823 |                     0 |        191842 | 2017-02-03 16:12:20.928298+01

 2017-02-03 17:04:12.58536+01 | 1486137852.58536 |                 0 |              11 |                   334 |                    1 |               2207 |             0 |                0 |          487823 |                     0 |        191842 | 2017-02-03 16:12:20.928298+01

 2017-02-03 17:04:13.670309+01 | 1486137853.67031 |                 0 |              11 |                   334 |                    1 |               2207 |             0 |                0 |          487823 |                     0 |        191842 | 2017-02-03 16:12:20.928298+01

 2017-02-03 17:04:14.749895+01 | 1486137854.7499 |                 0 |              11 |                   334 |                    1 |               2207 |             0 |                0 |          487823 |                     0 |        191842 | 2017-02-03 16:12:20.928298+01

 2017-02-03 17:04:15.832831+01 | 1486137855.83283 |                 0 |              11 |                   334 |                    1 |               2207 |             0 |                0 |          487823 |                     0 |        191842 | 2017-02-03 16:12:20.928298+01

 2017-02-03 17:04:16.922531+01 | 1486137856.92253 |                 0 |              11 |                   334 |                    1 |               2207 |             0 |                0 |          487823 |                     0 |        191842 | 2017-02-03 16:12:20.928298+01

 2017-02-03 17:04:18.005357+01 | 1486137858.00536 |                 0 |              11 |                   334 |                    1 |               2207 |             0 |                0 |          487823 |                     0 |        191842 | 2017-02-03 16:12:20.928298+01

 2017-02-03 17:04:19.090531+01 | 1486137859.09053 |                 0 |              11 |                   334 |                    1 |               2207 |             0 |                0 |          487823 |                     0 |        191842 | 2017-02-03 16:12:20.928298+01

 2017-02-03 17:04:20.179102+01 | 1486137860.1791 |                 0 |              11 |                   334 |                    1 |               2207 |             0 |                0 |          487823 |                     0 |        191842 | 2017-02-03 16:12:20.928298+01

 2017-02-03 17:04:21.262822+01 | 1486137861.26282 |                 0 |              11 |                   334 |                    1 |               2207 |             0 |                0 |          487823 |                     0 |        191842 | 2017-02-03 16:12:20.928298+01

 2017-02-03 17:04:22.345056+01 | 1486137862.34506 |                 0 |              11 |                   334 |                    1 |               2207 |             0 |                0 |          487823 |                     0 |        191842 | 2017-02-03 16:12:20.928298+01

 2017-02-03 17:04:23.435462+01 | 1486137863.43546 |                 0 |              11 |                   334 |                    1 |               2207 |             0 |                0 |          487823 |                     0 |        191842 | 2017-02-03 16:12:20.928298+01

 2017-02-03 17:04:24.52053+01 | 1486137864.52053 |                 0 |              11 |                   334 |                    1 |               2207 |             0 |                0 |          487823 |                     0 |        191842 | 2017-02-03 16:12:20.928298+01

 2017-02-03 17:04:25.604071+01 | 1486137865.60407 |                 0 |              11 |                   334 |                    1 |               2207 |             0 |                0 |          487823 |                     0 |        191842 | 2017-02-03 16:12:20.928298+01

 2017-02-03 17:04:26.684481+01 | 1486137866.68448 |                 0 |              11 |                   334 |                    1 |               2207 |             0 |                0 |          487823 |                     0 |        191842 | 2017-02-03 16:12:20.928298+01

 2017-02-03 17:04:27.765432+01 | 1486137867.76543 |                 0 |              11 |                   334 |                    1 |               2207 |             0 |                0 |          487823 |                     0 |        191842 | 2017-02-03 16:12:20.928298+01

 2017-02-03 17:04:28.848945+01 | 1486137868.84894 |                 0 |              11 |                   334 |                    1 |               2207 |             0 |                0 |          487823 |                     0 |        191842 | 2017-02-03 16:12:20.928298+01

 2017-02-03 17:04:29.939966+01 | 1486137869.93997 |                 0 |              11 |                   334 |                    1 |               2207 |             0 |                0 |          487823 |                     0 |        191842 | 2017-02-03 16:12:20.928298+01

 2017-02-03 17:04:31.036815+01 | 1486137871.03681 |                 0 |              11 |                   334 |                    1 |               2207 |             0 |                0 |          487823 |                     0 |        191842 | 2017-02-03 16:12:20.928298+01

 2017-02-03 17:04:32.125642+01 | 1486137872.12564 |                 0 |              11 |                   334 |                    1 |               2207 |             0 |                0 |          487823 |                     0 |        191842 | 2017-02-03 16:12:20.928298+01

 2017-02-03 17:04:33.209219+01 | 1486137873.20922 |                 0 |              11 |                   334 |                    1 |               2207 |             0 |                0 |          487823 |                     0 |        191842 | 2017-02-03 16:12:20.928298+01

 2017-02-03 17:04:34.296554+01 | 1486137874.29655 |                 0 |              11 |                   334 |                    1 |               2207 |             0 |                0 |          487823 |                     0 |        191842 | 2017-02-03 16:12:20.928298+01

 2017-02-03 17:04:35.382214+01 | 1486137875.38221 |                 0 |              11 |                   334 |                    1 |               2207 |             0 |                0 |          487823 |                     0 |        191842 | 2017-02-03 16:12:20.928298+01

 2017-02-03 17:04:36.464609+01 | 1486137876.46461 |                 0 |              11 |                   334 |                    1 |               2207 |             0 |                0 |          487823 |                     0 |        191842 | 2017-02-03 16:12:20.928298+01

 2017-02-03 17:04:37.549816+01 | 1486137877.54982 |                 0 |              11 |                   334 |                    1 |               2207 |             0 |                0 |          487823 |                     0 |        191842 | 2017-02-03 16:12:20.928298+01

 2017-02-03 17:04:38.634473+01 | 1486137878.63447 |                 0 |              11 |                   334 |                    1 |               2207 |             0 |                0 |          487823 |                     0 |        191842 | 2017-02-03 16:12:20.928298+01

 2017-02-03 17:04:39.720452+01 | 1486137879.72045 |                 0 |              11 |                   334 |                    1 |               2207 |             0 |                0 |          487823 |                     0 |        191842 | 2017-02-03 16:12:20.928298+01

 2017-02-03 17:04:40.800607+01 | 1486137880.80061 |                 0 |              11 |                   334 |                    1 |               2207 |             0 |                0 |          487823 |                     0 |        191842 | 2017-02-03 16:12:20.928298+01

 2017-02-03 17:04:41.883796+01 | 1486137881.8838 |                 0 |              11 |                   334 |                    1 |               2207 |             0 |                0 |          487823 |                     0 |        191842 | 2017-02-03 16:12:20.928298+01

 2017-02-03 17:04:42.967295+01 | 1486137882.96729 |                 0 |              11 |                   334 |                    1 |               2207 |             0 |                0 |          487823 |                     0 |        191842 | 2017-02-03 16:12:20.928298+01

 2017-02-03 17:04:44.058694+01 | 1486137884.05869 |                 0 |              11 |                   334 |                    1 |               2207 |             0 |                0 |          487823 |                     0 |        191842 | 2017-02-03 16:12:20.928298+01

 2017-02-03 17:04:45.146824+01 | 1486137885.14682 |                 0 |              11 |                   334 |                    1 |               2207 |             0 |                0 |          487823 |                     0 |        191842 | 2017-02-03 16:12:20.928298+01

 2017-02-03 17:04:46.231944+01 | 1486137886.23194 |                 0 |              11 |                   334 |                    1 |               2207 |             0 |                0 |          487823 |                     0 |        191842 | 2017-02-03 16:12:20.928298+01

 2017-02-03 17:04:47.320347+01 | 1486137887.32035 |                 0 |              11 |                   334 |                    1 |               2207 |             0 |                0 |          487823 |                     0 |        191842 | 2017-02-03 16:12:20.928298+01

 2017-02-03 17:04:48.409816+01 | 1486137888.40982 |                 0 |              11 |                   334 |                    1 |               2207 |             0 |                0 |          487823 |                     0 |        191842 | 2017-02-03 16:12:20.928298+01

 2017-02-03 17:04:49.4943+01 | 1486137889.4943 |                 0 |              11 |                   334 |                    1 |               2207 |             0 |                0 |          487823 |                     0 |        191842 | 2017-02-03 16:12:20.928298+01

 2017-02-03 17:04:50.577893+01 | 1486137890.57789 |                 0 |              11 |                   334 |                    1 |               2207 |             0 |                0 |          487823 |                     0 |        191842 | 2017-02-03 16:12:20.928298+01

 2017-02-03 17:04:51.665176+01 | 1486137891.66518 |                 0 |              11 |                   334 |                    1 |               2207 |             0 |                0 |          487823 |                     0 |        191842 | 2017-02-03 16:12:20.928298+01

 2017-02-03 17:04:52.736849+01 | 1486137892.73685 |                 0 |              11 |                   334 |                    1 |               2207 |             0 |                0 |          487823 |                     0 |        191842 | 2017-02-03 16:12:20.928298+01

 2017-02-03 17:04:53.825088+01 | 1486137893.82509 |                 0 |              11 |                   334 |                    1 |               2207 |             0 |                0 |          487823 |                     0 |        191842 | 2017-02-03 16:12:20.928298+01

 2017-02-03 17:04:54.910466+01 | 1486137894.91047 |                 0 |              11 |                   334 |                    1 |               2207 |             0 |                0 |          487823 |                     0 |        191842 | 2017-02-03 16:12:20.928298+01

 2017-02-03 17:04:55.995788+01 | 1486137895.99579 |                 0 |              11 |                   334 |                    1 |               2207 |             0 |                0 |          487823 |                     0 |        191842 | 2017-02-03 16:12:20.928298+01

 2017-02-03 17:04:57.082416+01 | 1486137897.08242 |                 0 |              11 |                   334 |                    1 |               2207 |             0 |                0 |          487823 |                     0 |        191842 | 2017-02-03 16:12:20.928298+01

 2017-02-03 17:04:58.169246+01 | 1486137898.16925 |                 0 |              11 |                   334 |                    1 |               2207 |             0 |                0 |          487823 |                     0 |        191842 | 2017-02-03 16:12:20.928298+01

 2017-02-03 17:04:59.253747+01 | 1486137899.25375 |                 0 |              11 |                   334 |                    1 |               2207 |             0 |                0 |          487823 |                     0 |        191842 | 2017-02-03 16:12:20.928298+01

 2017-02-03 17:05:00.339445+01 | 1486137900.33945 |                 0 |              11 |                   334 |                    1 |               2207 |             0 |                0 |          487823 |                     0 |        191842 | 2017-02-03 16:12:20.928298+01

 2017-02-03 17:05:01.423101+01 | 1486137901.4231 |                 0 |              11 |                   334 |                    1 |               2207 |             0 |                0 |          487823 |                     0 |        191842 | 2017-02-03 16:12:20.928298+01

 2017-02-03 17:05:02.512485+01 | 1486137902.51249 |                 0 |              11 |                   334 |                    1 |               2207 |             0 |                0 |          487823 |                     0 |        191842 | 2017-02-03 16:12:20.928298+01

 2017-02-03 17:05:03.59754+01 | 1486137903.59754 |                 0 |              11 |                   334 |                    1 |               2207 |             0 |                0 |          487823 |                     0 |        191842 | 2017-02-03 16:12:20.928298+01

 2017-02-03 17:05:04.682035+01 | 1486137904.68203 |                 0 |              11 |                   334 |                    1 |               2207 |             0 |                0 |          487823 |                     0 |        191842 | 2017-02-03 16:12:20.928298+01

 2017-02-03 17:05:05.767463+01 | 1486137905.76746 |                 0 |              11 |                   334 |                    1 |               2207 |             0 |                0 |          487823 |                     0 |        191842 | 2017-02-03 16:12:20.928298+01

 2017-02-03 17:05:06.850668+01 | 1486137906.85067 |                 0 |              11 |                   334 |                    1 |               2207 |             0 |                0 |          487823 |                     0 |        191842 | 2017-02-03 16:12:20.928298+01

 2017-02-03 17:05:07.937186+01 | 1486137907.93719 |                 0 |              11 |                   334 |                    1 |               2207 |             0 |                0 |          487823 |                     0 |        191842 | 2017-02-03 16:12:20.928298+01

 2017-02-03 17:05:09.023349+01 | 1486137909.02335 |                 0 |              11 |                   334 |                    1 |               2207 |             0 |                0 |          487823 |                     0 |        191842 | 2017-02-03 16:12:20.928298+01

 2017-02-03 17:05:10.107367+01 | 1486137910.10737 |                 0 |              11 |                   334 |                    1 |               2207 |             0 |                0 |          487823 |                     0 |        191842 | 2017-02-03 16:12:20.928298+01

 2017-02-03 17:05:11.196097+01 | 1486137911.1961 |                 0 |              11 |                   334 |                    1 |               2207 |             0 |                0 |          487823 |                     0 |        191842 | 2017-02-03 16:12:20.928298+01

 2017-02-03 17:05:12.279541+01 | 1486137912.27954 |                 0 |              11 |                   334 |                    1 |               2207 |             0 |                0 |          487823 |                     0 |        191842 | 2017-02-03 16:12:20.928298+01

 2017-02-03 17:05:13.362531+01 | 1486137913.36253 |                 0 |              11 |                   334 |                    1 |               2207 |             0 |                0 |          487823 |                     0 |        191842 | 2017-02-03 16:12:20.928298+01

 2017-02-03 17:05:14.452364+01 | 1486137914.45236 |                 0 |              11 |                   334 |                    1 |               2207 |             0 |                0 |          487823 |                     0 |        191842 | 2017-02-03 16:12:20.928298+01

 2017-02-03 17:05:15.54057+01 | 1486137915.54057 |                 0 |              11 |                   334 |                    1 |               2207 |             0 |                0 |          487823 |                     0 |        191842 | 2017-02-03 16:12:20.928298+01

 2017-02-03 17:05:16.637349+01 | 1486137916.63735 |                 0 |              11 |                   334 |                    1 |               2207 |             0 |                0 |          487823 |                     0 |        191842 | 2017-02-03 16:12:20.928298+01

 2017-02-03 17:05:17.722633+01 | 1486137917.72263 |                 0 |              11 |                   334 |                    1 |               2207 |             0 |                0 |          487823 |                     0 |        191842 | 2017-02-03 16:12:20.928298+01

 2017-02-03 17:05:18.81275+01 | 1486137918.81275 |                 0 |              11 |                   334 |                    1 |               2207 |             0 |                0 |          487823 |                     0 |        191842 | 2017-02-03 16:12:20.928298+01

 2017-02-03 17:05:19.898633+01 | 1486137919.89863 |                 0 |              11 |                   334 |                    1 |               2207 |             0 |                0 |          487823 |                     0 |        191842 | 2017-02-03 16:12:20.928298+01

 2017-02-03 17:05:21.000185+01 | 1486137921.00019 |                 0 |              11 |                   334 |                    1 |               2207 |             0 |                0 |          487823 |                     0 |        191842 | 2017-02-03 16:12:20.928298+01

 2017-02-03 17:05:22.091773+01 | 1486137922.09177 |                 0 |              11 |                   334 |                    1 |               2207 |             0 |                0 |          487823 |                     0 |        191842 | 2017-02-03 16:12:20.928298+01

 2017-02-03 17:05:23.175951+01 | 1486137923.17595 |                 0 |              11 |                   334 |                    1 |               2207 |             0 |                0 |          487823 |                     0 |        191842 | 2017-02-03 16:12:20.928298+01

 2017-02-03 17:05:24.266536+01 | 1486137924.26654 |                 0 |              11 |                   334 |                    1 |               2207 |             0 |                0 |          487823 |                     0 |        191842 | 2017-02-03 16:12:20.928298+01

 2017-02-03 17:05:25.349262+01 | 1486137925.34926 |                 0 |              11 |                   334 |                    1 |               2207 |             0 |                0 |          487823 |                     0 |        191842 | 2017-02-03 16:12:20.928298+01

 2017-02-03 17:05:26.434031+01 | 1486137926.43403 |                 0 |              11 |                   334 |                    1 |               2207 |             0 |                0 |          487823 |                     0 |        191842 | 2017-02-03 16:12:20.928298+01

 2017-02-03 17:05:27.525995+01 | 1486137927.526 |                 0 |              11 |                   334 |                    1 |               2207 |             0 |                0 |          487823 |                     0 |        191842 | 2017-02-03 16:12:20.928298+01

 2017-02-03 17:05:28.608299+01 | 1486137928.6083 |                 0 |              11 |                   334 |                    1 |               2207 |             0 |                0 |          487823 |                     0 |        191842 | 2017-02-03 16:12:20.928298+01

 2017-02-03 17:05:29.694464+01 | 1486137929.69446 |                 0 |              11 |                   334 |                    1 |               2207 |             0 |                0 |          487823 |                     0 |        191842 | 2017-02-03 16:12:20.928298+01

 2017-02-03 17:05:30.782055+01 | 1486137930.78205 |                 0 |              11 |                   334 |                    1 |               2207 |             0 |                0 |          487823 |                     0 |        191842 | 2017-02-03 16:12:20.928298+01

 2017-02-03 17:05:31.864527+01 | 1486137931.86453 |                 0 |              11 |                   334 |                    1 |               2207 |             0 |                0 |          487823 |                     0 |        191842 | 2017-02-03 16:12:20.928298+01

 2017-02-03 17:05:32.946215+01 | 1486137932.94621 |                 0 |              11 |                   334 |                    1 |               2207 |             0 |                0 |          487823 |                     0 |        191842 | 2017-02-03 16:12:20.928298+01

 2017-02-03 17:05:34.034424+01 | 1486137934.03442 |                 0 |              11 |                   334 |                    1 |               2207 |             0 |                0 |          487823 |                     0 |        191842 | 2017-02-03 16:12:20.928298+01

 2017-02-03 17:05:35.121925+01 | 1486137935.12193 |                 0 |              11 |                   334 |                    1 |               2207 |             0 |                0 |          487823 |                     0 |        191842 | 2017-02-03 16:12:20.928298+01

 2017-02-03 17:05:36.206647+01 | 1486137936.20665 |                 0 |              11 |                   334 |                    1 |               2207 |             0 |                0 |          487823 |                     0 |        191842 | 2017-02-03 16:12:20.928298+01

 2017-02-03 17:05:37.292184+01 | 1486137937.29218 |                 0 |              11 |                   334 |                    1 |               2207 |             0 |                0 |          487823 |                     0 |        191842 | 2017-02-03 16:12:20.928298+01

 2017-02-03 17:05:38.382385+01 | 1486137938.38239 |                 0 |              11 |                   334 |                    1 |               2207 |             0 |                0 |          487823 |                     0 |        191842 | 2017-02-03 16:12:20.928298+01

 2017-02-03 17:05:39.471044+01 | 1486137939.47104 |                 0 |              11 |                   334 |                    1 |               2207 |             0 |                0 |          487823 |                     0 |        191842 | 2017-02-03 16:12:20.928298+01

 2017-02-03 17:05:40.559553+01 | 1486137940.55955 |                 0 |              11 |                   334 |                    1 |               2207 |             0 |                0 |          487823 |                     0 |        191842 | 2017-02-03 16:12:20.928298+01

 2017-02-03 17:05:41.648339+01 | 1486137941.64834 |                 0 |              11 |                   334 |                    1 |               2207 |             0 |                0 |          487823 |                     0 |        191842 | 2017-02-03 16:12:20.928298+01

 2017-02-03 17:05:42.734778+01 | 1486137942.73478 |                 0 |              11 |                   334 |                    1 |               2207 |             0 |                0 |          487823 |                     0 |        191842 | 2017-02-03 16:12:20.928298+01

 2017-02-03 17:05:43.821869+01 | 1486137943.82187 |                 0 |              11 |                   334 |                    1 |               2207 |             0 |                0 |          487823 |                     0 |        191842 | 2017-02-03 16:12:20.928298+01

 2017-02-03 17:05:44.903097+01 | 1486137944.9031 |                 0 |              11 |                   334 |                    1 |               2207 |             0 |                0 |          487823 |                     0 |        191842 | 2017-02-03 16:12:20.928298+01

 2017-02-03 17:05:45.983731+01 | 1486137945.98373 |                 0 |              11 |                   334 |                    1 |               2207 |             0 |                0 |          487823 |                     0 |        191842 | 2017-02-03 16:12:20.928298+01

 2017-02-03 17:05:47.066135+01 | 1486137947.06613 |                 0 |              11 |                   334 |                    1 |               2207 |             0 |                0 |          487823 |                     0 |        191842 | 2017-02-03 16:12:20.928298+01

 2017-02-03 17:05:48.155823+01 | 1486137948.15582 |                 0 |              11 |                   334 |                    1 |               2207 |             0 |                0 |          487823 |                     0 |        191842 | 2017-02-03 16:12:20.928298+01

 2017-02-03 17:05:49.239092+01 | 1486137949.23909 |                 0 |              11 |                   334 |                    1 |               2207 |             0 |                0 |          487823 |                     0 |        191842 | 2017-02-03 16:12:20.928298+01

 2017-02-03 17:05:50.327522+01 | 1486137950.32752 |                 0 |              11 |                   334 |                    1 |               2207 |             0 |                0 |          487823 |                     0 |        191842 | 2017-02-03 16:12:20.928298+01

 2017-02-03 17:05:51.409693+01 | 1486137951.40969 |                 0 |              11 |                   334 |                    1 |               2207 |             0 |                0 |          487823 |                     0 |        191842 | 2017-02-03 16:12:20.928298+01

 2017-02-03 17:05:52.497353+01 | 1486137952.49735 |                 0 |              11 |                   334 |                    1 |               2207 |             0 |                0 |          487823 |                     0 |        191842 | 2017-02-03 16:12:20.928298+01

 2017-02-03 17:05:53.580538+01 | 1486137953.58054 |                 0 |              11 |                   334 |                    1 |               2207 |             0 |                0 |          487823 |                     0 |        191842 | 2017-02-03 16:12:20.928298+01

 2017-02-03 17:05:54.669392+01 | 1486137954.66939 |                 0 |              11 |                   334 |                    1 |               2207 |             0 |                0 |          487823 |                     0 |        191842 | 2017-02-03 16:12:20.928298+01

 2017-02-03 17:05:55.757674+01 | 1486137955.75767 |                 0 |              11 |                   334 |                    1 |               2207 |             0 |                0 |          487823 |                     0 |        191842 | 2017-02-03 16:12:20.928298+01

 2017-02-03 17:05:56.839487+01 | 1486137956.83949 |                 0 |              11 |                   334 |                    1 |               2207 |             0 |                0 |          487823 |                     0 |        191842 | 2017-02-03 16:12:20.928298+01

 2017-02-03 17:05:57.92122+01 | 1486137957.92122 |                 0 |              11 |                   334 |                    1 |               2207 |             0 |                0 |          487823 |                     0 |        191842 | 2017-02-03 16:12:20.928298+01

 2017-02-03 17:05:59.009958+01 | 1486137959.00996 |                 0 |              11 |                   334 |                    1 |               2207 |             0 |                0 |          487823 |                     0 |        191842 | 2017-02-03 16:12:20.928298+01

 2017-02-03 17:06:00.096243+01 | 1486137960.09624 |                 0 |              11 |                   334 |                    1 |               2207 |             0 |                0 |          487823 |                     0 |        191842 | 2017-02-03 16:12:20.928298+01

 2017-02-03 17:06:01.180713+01 | 1486137961.18071 |                 0 |              11 |                   334 |                    1 |               2207 |             0 |                0 |          487823 |                     0 |        191842 | 2017-02-03 16:12:20.928298+01

 2017-02-03 17:06:02.263097+01 | 1486137962.2631 |                 0 |              11 |                   334 |                    1 |               2207 |             0 |                0 |          487823 |                     0 |        191842 | 2017-02-03 16:12:20.928298+01

 2017-02-03 17:06:03.3461+01 | 1486137963.3461 |                 0 |              11 |                   334 |                    1 |               2207 |             0 |                0 |          487823 |                     0 |        191842 | 2017-02-03 16:12:20.928298+01

 2017-02-03 17:06:04.431113+01 | 1486137964.43111 |                 0 |              11 |                   334 |                    1 |               2207 |             0 |                0 |          487823 |                     0 |        191842 | 2017-02-03 16:12:20.928298+01

 2017-02-03 17:06:05.514058+01 | 1486137965.51406 |                 0 |              11 |                   334 |                    1 |               2207 |             0 |                0 |          487823 |                     0 |        191842 | 2017-02-03 16:12:20.928298+01

 2017-02-03 17:06:06.598509+01 | 1486137966.59851 |                 0 |              11 |                   334 |                    1 |               2207 |             0 |                0 |          487823 |                     0 |        191842 | 2017-02-03 16:12:20.928298+01

 2017-02-03 17:06:07.684327+01 | 1486137967.68433 |                 0 |              11 |                   334 |                    1 |               2207 |             0 |                0 |          487823 |                     0 |        191842 | 2017-02-03 16:12:20.928298+01

 2017-02-03 17:06:08.772785+01 | 1486137968.77278 |                 0 |              11 |                   334 |                    1 |               2207 |             0 |                0 |          487823 |                     0 |        191842 | 2017-02-03 16:12:20.928298+01

 2017-02-03 17:06:09.851519+01 | 1486137969.85152 |                 0 |              11 |                   334 |                    1 |               2207 |             0 |                0 |          487823 |                     0 |        191842 | 2017-02-03 16:12:20.928298+01

 2017-02-03 17:06:10.930481+01 | 1486137970.93048 |                 0 |              11 |                   334 |                    1 |               2207 |             0 |                0 |          487823 |                     0 |        191842 | 2017-02-03 16:12:20.928298+01

 2017-02-03 17:06:12.00942+01 | 1486137972.00942 |                 0 |              11 |                   334 |                    1 |               2207 |             0 |                0 |          487823 |                     0 |        191842 | 2017-02-03 16:12:20.928298+01

 2017-02-03 17:06:13.097616+01 | 1486137973.09762 |                 0 |              11 |                   334 |                    1 |               2207 |             0 |                0 |          487823 |                     0 |        191842 | 2017-02-03 16:12:20.928298+01

 2017-02-03 17:06:14.185644+01 | 1486137974.18564 |                 0 |              11 |                   334 |                    1 |               2207 |             0 |                0 |          487823 |                     0 |        191842 | 2017-02-03 16:12:20.928298+01

 2017-02-03 17:06:15.279608+01 | 1486137975.27961 |                 0 |              11 |                   334 |                    1 |               2207 |             0 |                0 |          487823 |                     0 |        191842 | 2017-02-03 16:12:20.928298+01

 2017-02-03 17:06:16.367586+01 | 1486137976.36759 |                 0 |              11 |                   334 |                    1 |               2207 |             0 |                0 |          487823 |                     0 |        191842 | 2017-02-03 16:12:20.928298+01

 2017-02-03 17:06:17.460284+01 | 1486137977.46028 |                 0 |              11 |                   334 |                    1 |               2207 |             0 |                0 |          487823 |                     0 |        191842 | 2017-02-03 16:12:20.928298+01

 2017-02-03 17:06:18.548446+01 | 1486137978.54845 |                 0 |              11 |                   334 |                    1 |               2207 |             0 |                0 |          487823 |                     0 |        191842 | 2017-02-03 16:12:20.928298+01

 2017-02-03 17:06:19.638745+01 | 1486137979.63875 |                 0 |              11 |                   334 |                    1 |               2207 |             0 |                0 |          487823 |                     0 |        191842 | 2017-02-03 16:12:20.928298+01

 2017-02-03 17:06:20.720107+01 | 1486137980.72011 |                 0 |              11 |                   334 |                    1 |               2207 |             0 |                0 |          487823 |                     0 |        191842 | 2017-02-03 16:12:20.928298+01

 2017-02-03 17:06:21.805949+01 | 1486137981.80595 |                 0 |              11 |                   334 |                    1 |               2207 |             0 |                0 |          487823 |                     0 |        191842 | 2017-02-03 16:12:20.928298+01

 2017-02-03 17:06:22.894626+01 | 1486137982.89463 |                 0 |              11 |                   334 |                    1 |               2207 |             0 |                0 |          487823 |                     0 |        191842 | 2017-02-03 16:12:20.928298+01

 2017-02-03 17:06:23.981636+01 | 1486137983.98164 |                 0 |              11 |                   334 |                    1 |               2207 |             0 |                0 |          487823 |                     0 |        191842 | 2017-02-03 16:12:20.928298+01

 2017-02-03 17:06:25.067307+01 | 1486137985.06731 |                 0 |              11 |                   334 |                    1 |               2207 |             0 |                0 |          487823 |                     0 |        191842 | 2017-02-03 16:12:20.928298+01

 2017-02-03 17:06:26.14968+01 | 1486137986.14968 |                 0 |              11 |                   334 |                    1 |               2207 |             0 |                0 |          487823 |                     0 |        191842 | 2017-02-03 16:12:20.928298+01

 2017-02-03 17:06:27.251157+01 | 1486137987.25116 |                 0 |              11 |                   334 |                    1 |               2207 |             0 |                0 |          487823 |                     0 |        191842 | 2017-02-03 16:12:20.928298+01

 2017-02-03 17:06:28.341499+01 | 1486137988.3415 |                 0 |              11 |                   334 |                    1 |               2207 |             0 |                0 |          487823 |                     0 |        191842 | 2017-02-03 16:12:20.928298+01

 2017-02-03 17:06:29.427251+01 | 1486137989.42725 |                 0 |              11 |                   334 |                    1 |               2207 |             0 |                0 |          487823 |                     0 |        191842 | 2017-02-03 16:12:20.928298+01

 2017-02-03 17:06:30.51291+01 | 1486137990.51291 |                 0 |              11 |                   334 |                    1 |               2207 |             0 |                0 |          487823 |                     0 |        191842 | 2017-02-03 16:12:20.928298+01

 2017-02-03 17:06:31.5984+01 | 1486137991.5984 |                 0 |              11 |                   334 |                    1 |               2207 |             0 |                0 |          487823 |                     0 |        191842 | 2017-02-03 16:12:20.928298+01

 2017-02-03 17:06:32.68245+01 | 1486137992.68245 |                 0 |              11 |                   334 |                    1 |               2207 |             0 |                0 |          487823 |                     0 |        191842 | 2017-02-03 16:12:20.928298+01

 2017-02-03 17:06:33.767921+01 | 1486137993.76792 |                 0 |              11 |                   334 |                    1 |               2207 |             0 |                0 |          487823 |                     0 |        191842 | 2017-02-03 16:12:20.928298+01

 2017-02-03 17:06:34.848306+01 | 1486137994.84831 |                 0 |              11 |                   334 |                    1 |               2207 |             0 |                0 |          487823 |                     0 |        191842 | 2017-02-03 16:12:20.928298+01

 2017-02-03 17:06:35.935154+01 | 1486137995.93515 |                 0 |              11 |                   334 |                    1 |               2207 |             0 |                0 |          487823 |                     0 |        191842 | 2017-02-03 16:12:20.928298+01

 2017-02-03 17:06:37.027243+01 | 1486137997.02724 |                 0 |              11 |                   334 |                    1 |               2207 |             0 |                0 |          487823 |                     0 |        191842 | 2017-02-03 16:12:20.928298+01

 2017-02-03 17:06:38.112374+01 | 1486137998.11237 |                 0 |              11 |                   334 |                    1 |               2207 |             0 |                0 |          487823 |                     0 |        191842 | 2017-02-03 16:12:20.928298+01

 2017-02-03 17:06:39.192514+01 | 1486137999.19251 |                 0 |              11 |                   334 |                    1 |               2207 |             0 |                0 |          487823 |                     0 |        191842 | 2017-02-03 16:12:20.928298+01

 2017-02-03 17:06:40.277807+01 | 1486138000.27781 |                 0 |              11 |                   334 |                    1 |               2207 |             0 |                0 |          487823 |                     0 |        191842 | 2017-02-03 16:12:20.928298+01

 2017-02-03 17:06:41.366901+01 | 1486138001.3669 |                 0 |              11 |                   334 |                    1 |               2207 |             0 |                0 |          487823 |                     0 |        191842 | 2017-02-03 16:12:20.928298+01

 2017-02-03 17:06:42.452304+01 | 1486138002.4523 |                 0 |              11 |                   334 |                    1 |               2207 |             0 |                0 |          487823 |                     0 |        191842 | 2017-02-03 16:12:20.928298+01

 2017-02-03 17:06:43.534226+01 | 1486138003.53423 |                 0 |              11 |                   334 |                    1 |               2207 |             0 |                0 |          487823 |                     0 |        191842 | 2017-02-03 16:12:20.928298+01

 2017-02-03 17:06:44.620667+01 | 1486138004.62067 |                 0 |              11 |                   334 |                    1 |               2207 |             0 |                0 |          487823 |                     0 |        191842 | 2017-02-03 16:12:20.928298+01

 2017-02-03 17:06:45.704316+01 | 1486138005.70432 |                 0 |              11 |                   334 |                    1 |               2207 |             0 |                0 |          487823 |                     0 |        191842 | 2017-02-03 16:12:20.928298+01

 2017-02-03 17:06:46.788667+01 | 1486138006.78867 |                 0 |              11 |                   334 |                    1 |               2207 |             0 |                0 |          487823 |                     0 |        191842 | 2017-02-03 16:12:20.928298+01

 2017-02-03 17:06:47.878628+01 | 1486138007.87863 |                 0 |              11 |                   334 |                    1 |               2207 |             0 |                0 |          487823 |                     0 |        191842 | 2017-02-03 16:12:20.928298+01

 2017-02-03 17:06:48.974361+01 | 1486138008.97436 |                 0 |              11 |                   334 |                    1 |               2207 |             0 |                0 |          487823 |                     0 |        191842 | 2017-02-03 16:12:20.928298+01

 2017-02-03 17:06:50.054225+01 | 1486138010.05422 |                 0 |              11 |                   334 |                    1 |               2207 |             0 |                0 |          487823 |                     0 |        191842 | 2017-02-03 16:12:20.928298+01

 2017-02-03 17:06:51.136342+01 | 1486138011.13634 |                 0 |              11 |                   334 |                    1 |               2207 |             0 |                0 |          487823 |                     0 |        191842 | 2017-02-03 16:12:20.928298+01

 2017-02-03 17:06:52.221336+01 | 1486138012.22134 |                 0 |              11 |                   334 |                    1 |               2207 |             0 |                0 |          487823 |                     0 |        191842 | 2017-02-03 16:12:20.928298+01

 2017-02-03 17:06:53.311176+01 | 1486138013.31118 |                 0 |              11 |                   334 |                    1 |               2207 |             0 |                0 |          487823 |                     0 |        191842 | 2017-02-03 16:12:20.928298+01

 2017-02-03 17:06:54.401464+01 | 1486138014.40146 |                 0 |              11 |                   334 |                    1 |               2207 |             0 |                0 |          487823 |                     0 |        191842 | 2017-02-03 16:12:20.928298+01

 2017-02-03 17:06:55.487409+01 | 1486138015.48741 |                 0 |              11 |                   334 |                    1 |               2207 |             0 |                0 |          487823 |                     0 |        191842 | 2017-02-03 16:12:20.928298+01

 2017-02-03 17:06:56.571856+01 | 1486138016.57186 |                 0 |              11 |                   334 |                    1 |               2207 |             0 |                0 |          487823 |                     0 |        191842 | 2017-02-03 16:12:20.928298+01

 2017-02-03 17:06:57.659119+01 | 1486138017.65912 |                 0 |              11 |                   334 |                    1 |               2207 |             0 |                0 |          487823 |                     0 |        191842 | 2017-02-03 16:12:20.928298+01

 2017-02-03 17:06:58.744702+01 | 1486138018.7447 |                 0 |              11 |                   334 |                    1 |               2207 |             0 |                0 |          487823 |                     0 |        191842 | 2017-02-03 16:12:20.928298+01

 2017-02-03 17:06:59.829956+01 | 1486138019.82996 |                 0 |              11 |                   334 |                    1 |               2207 |             0 |                0 |          487823 |                     0 |        191842 | 2017-02-03 16:12:20.928298+01

 2017-02-03 17:07:00.916335+01 | 1486138020.91634 |                 0 |              11 |                   334 |                    1 |               2207 |             0 |                0 |          487823 |                     0 |        191842 | 2017-02-03 16:12:20.928298+01

 2017-02-03 17:07:02.000039+01 | 1486138022.00004 |                 0 |              11 |                   334 |                    1 |               2207 |             0 |                0 |          487823 |                     0 |        191842 | 2017-02-03 16:12:20.928298+01

 2017-02-03 17:07:03.086772+01 | 1486138023.08677 |                 0 |              11 |                   334 |                    1 |               2207 |             0 |                0 |          487823 |                     0 |        191842 | 2017-02-03 16:12:20.928298+01

 2017-02-03 17:07:04.172019+01 | 1486138024.17202 |                 0 |              11 |                   334 |                    1 |               2207 |             0 |                0 |          487823 |                     0 |        191842 | 2017-02-03 16:12:20.928298+01

 2017-02-03 17:07:05.266614+01 | 1486138025.26661 |                 0 |              11 |                   334 |                    1 |               2207 |             0 |                0 |          487823 |                     0 |        191842 | 2017-02-03 16:12:20.928298+01

 2017-02-03 17:07:06.35089+01 | 1486138026.35089 |                 0 |              11 |                   334 |                    1 |               2207 |             0 |                0 |          487823 |                     0 |        191842 | 2017-02-03 16:12:20.928298+01

 2017-02-03 17:07:07.437581+01 | 1486138027.43758 |                 0 |              11 |                   334 |                    1 |               2207 |             0 |                0 |          487823 |                     0 |        191842 | 2017-02-03 16:12:20.928298+01

 2017-02-03 17:07:08.523413+01 | 1486138028.52341 |                 0 |              11 |                   334 |                    1 |               2207 |             0 |                0 |          487823 |                     0 |        191842 | 2017-02-03 16:12:20.928298+01

 2017-02-03 17:07:09.614507+01 | 1486138029.61451 |                 0 |              11 |                   334 |                    1 |               2207 |             0 |                0 |          487823 |                     0 |        191842 | 2017-02-03 16:12:20.928298+01

 2017-02-03 17:07:10.699442+01 | 1486138030.69944 |                 0 |              11 |                   334 |                    1 |               2207 |             0 |                0 |          487823 |                     0 |        191842 | 2017-02-03 16:12:20.928298+01

 2017-02-03 17:07:11.784278+01 | 1486138031.78428 |                 0 |              11 |                   334 |                    1 |               2207 |             0 |                0 |          487823 |                     0 |        191842 | 2017-02-03 16:12:20.928298+01

 2017-02-03 17:07:12.869021+01 | 1486138032.86902 |                 0 |              11 |                   334 |                    1 |               2207 |             0 |                0 |          487823 |                     0 |        191842 | 2017-02-03 16:12:20.928298+01

 2017-02-03 17:07:13.956027+01 | 1486138033.95603 |                 0 |              11 |                   334 |                    1 |               2207 |             0 |                0 |          487823 |                     0 |        191842 | 2017-02-03 16:12:20.928298+01

 2017-02-03 17:07:15.040697+01 | 1486138035.0407 |                 0 |              11 |                   334 |                    1 |               2207 |             0 |                0 |          487823 |                     0 |        191842 | 2017-02-03 16:12:20.928298+01

 2017-02-03 17:07:16.12615+01 | 1486138036.12615 |                 0 |              11 |                   334 |                    1 |               2207 |             0 |                0 |          487823 |                     0 |        191842 | 2017-02-03 16:12:20.928298+01

 2017-02-03 17:07:17.213279+01 | 1486138037.21328 |                 0 |              11 |                   334 |                    1 |               2207 |             0 |                0 |          487823 |                     0 |        191842 | 2017-02-03 16:12:20.928298+01

 2017-02-03 17:07:18.294559+01 | 1486138038.29456 |                 0 |              11 |                   334 |                    1 |               2207 |             0 |                0 |          487823 |                     0 |        191842 | 2017-02-03 16:12:20.928298+01

 2017-02-03 17:07:19.390884+01 | 1486138039.39088 |                 0 |              11 |                   334 |                    1 |               2207 |             0 |                0 |          487823 |                     0 |        191842 | 2017-02-03 16:12:20.928298+01

 2017-02-03 17:07:20.480313+01 | 1486138040.48031 |                 0 |              11 |                   334 |                    1 |               2207 |             0 |                0 |          487823 |                     0 |        191842 | 2017-02-03 16:12:20.928298+01

 2017-02-03 17:07:21.56972+01 | 1486138041.56972 |                 0 |              11 |                   334 |                    1 |               2207 |             0 |                0 |          487823 |                     0 |        191842 | 2017-02-03 16:12:20.928298+01

 2017-02-03 17:07:22.6559+01 | 1486138042.6559 |                 0 |              11 |                   334 |                    1 |               2207 |             0 |                0 |          487823 |                     0 |        191842 | 2017-02-03 16:12:20.928298+01

 2017-02-03 17:07:23.74147+01 | 1486138043.74147 |                 0 |              11 |                   334 |                    1 |               2207 |             0 |                0 |          487823 |                     0 |        191842 | 2017-02-03 16:12:20.928298+01

 2017-02-03 17:07:24.83043+01 | 1486138044.83043 |                 0 |              11 |                   334 |                    1 |               2207 |             0 |                0 |          487823 |                     0 |        191842 | 2017-02-03 16:12:20.928298+01

 2017-02-03 17:07:25.916958+01 | 1486138045.91696 |                 0 |              11 |                   334 |                    1 |               2207 |             0 |                0 |          487823 |                     0 |        191842 | 2017-02-03 16:12:20.928298+01

 2017-02-03 17:07:27.006285+01 | 1486138047.00628 |                 0 |              11 |                   334 |                    1 |               2207 |             0 |                0 |          487823 |                     0 |        191842 | 2017-02-03 16:12:20.928298+01

 2017-02-03 17:07:28.089044+01 | 1486138048.08904 |                 0 |              11 |                   334 |                    1 |               2207 |             0 |                0 |          487823 |                     0 |        191842 | 2017-02-03 16:12:20.928298+01

 2017-02-03 17:07:29.172941+01 | 1486138049.17294 |                 0 |              11 |                   334 |                    1 |               2207 |             0 |                0 |          487823 |                     0 |        191842 | 2017-02-03 16:12:20.928298+01

 2017-02-03 17:07:30.260343+01 | 1486138050.26034 |                 0 |              11 |                   334 |                    1 |               2207 |             0 |                0 |          487823 |                     0 |        191842 | 2017-02-03 16:12:20.928298+01

 2017-02-03 17:07:31.347175+01 | 1486138051.34717 |                 0 |              11 |                   334 |                    1 |               2207 |             0 |                0 |          487823 |                     0 |        191842 | 2017-02-03 16:12:20.928298+01

 2017-02-03 17:07:32.43281+01 | 1486138052.43281 |                 0 |              11 |                   334 |                    1 |               2207 |             0 |                0 |          487823 |                     0 |        191842 | 2017-02-03 16:12:20.928298+01

 2017-02-03 17:07:33.522956+01 | 1486138053.52296 |                 0 |              11 |                   334 |                    1 |               2207 |             0 |                0 |          487823 |                     0 |        191842 | 2017-02-03 16:12:20.928298+01

 2017-02-03 17:07:34.610509+01 | 1486138054.61051 |                 0 |              11 |                   334 |                    1 |               2207 |             0 |                0 |          487823 |                     0 |        191842 | 2017-02-03 16:12:20.928298+01

 2017-02-03 17:07:35.691723+01 | 1486138055.69172 |                 0 |              11 |                   334 |                    1 |               2207 |             0 |                0 |          487823 |                     0 |        191842 | 2017-02-03 16:12:20.928298+01

 2017-02-03 17:07:36.778591+01 | 1486138056.77859 |                 0 |              11 |                   334 |                    1 |               2207 |             0 |                0 |          487823 |                     0 |        191842 | 2017-02-03 16:12:20.928298+01

 2017-02-03 17:07:37.861409+01 | 1486138057.86141 |                 0 |              11 |                   334 |                    1 |               2207 |             0 |                0 |          487823 |                     0 |        191842 | 2017-02-03 16:12:20.928298+01

 2017-02-03 17:07:38.951381+01 | 1486138058.95138 |                 0 |              11 |                   334 |                    1 |               2207 |             0 |                0 |          487823 |                     0 |        191842 | 2017-02-03 16:12:20.928298+01

 2017-02-03 17:07:40.032694+01 | 1486138060.03269 |                 0 |              11 |                   334 |                    1 |               2207 |             0 |                0 |          487823 |                     0 |        191842 | 2017-02-03 16:12:20.928298+01

 2017-02-03 17:07:41.112942+01 | 1486138061.11294 |                 0 |              11 |                   334 |                    1 |               2207 |             0 |                0 |          487823 |                     0 |        191842 | 2017-02-03 16:12:20.928298+01

 2017-02-03 17:07:42.203379+01 | 1486138062.20338 |                 0 |              11 |                   334 |                    1 |               2207 |             0 |                0 |          487823 |                     0 |        191842 | 2017-02-03 16:12:20.928298+01

 2017-02-03 17:07:43.284374+01 | 1486138063.28437 |                 0 |              11 |                   334 |                    1 |               2207 |             0 |                0 |          487823 |                     0 |        191842 | 2017-02-03 16:12:20.928298+01

 2017-02-03 17:07:44.364636+01 | 1486138064.36464 |                 0 |              11 |                   334 |                    1 |               2207 |             0 |                0 |          487823 |                     0 |        191842 | 2017-02-03 16:12:20.928298+01

 2017-02-03 17:07:45.453174+01 | 1486138065.45317 |                 0 |              11 |                   334 |                    1 |               2207 |             0 |                0 |          487823 |                     0 |        191842 | 2017-02-03 16:12:20.928298+01

 2017-02-03 17:07:46.551318+01 | 1486138066.55132 |                 0 |              11 |                   334 |                    1 |               2207 |             0 |                0 |          487823 |                     0 |        191842 | 2017-02-03 16:12:20.928298+01

