 2017-02-06 10:48:13.71037+01 | 1486374493.71037 | pgbench_branches_pkey |            49152
 2017-02-06 10:48:13.71037+01 | 1486374493.71037 | pgbench_tellers_pkey  |           188416
 2017-02-06 10:48:13.71037+01 | 1486374493.71037 | pgbench_accounts_pkey |        224641024

 2017-02-06 10:48:14.806908+01 | 1486374494.80691 | pgbench_branches_pkey |            49152
 2017-02-06 10:48:14.806908+01 | 1486374494.80691 | pgbench_tellers_pkey  |           188416
 2017-02-06 10:48:14.806908+01 | 1486374494.80691 | pgbench_accounts_pkey |        224641024

 2017-02-06 10:48:15.896426+01 | 1486374495.89643 | pgbench_branches_pkey |            49152
 2017-02-06 10:48:15.896426+01 | 1486374495.89643 | pgbench_tellers_pkey  |           188416
 2017-02-06 10:48:15.896426+01 | 1486374495.89643 | pgbench_accounts_pkey |        224641024

 2017-02-06 10:48:16.977124+01 | 1486374496.97712 | pgbench_branches_pkey |            49152
 2017-02-06 10:48:16.977124+01 | 1486374496.97712 | pgbench_tellers_pkey  |           188416
 2017-02-06 10:48:16.977124+01 | 1486374496.97712 | pgbench_accounts_pkey |        224641024

 2017-02-06 10:48:18.073477+01 | 1486374498.07348 | pgbench_branches_pkey |            49152
 2017-02-06 10:48:18.073477+01 | 1486374498.07348 | pgbench_tellers_pkey  |           188416
 2017-02-06 10:48:18.073477+01 | 1486374498.07348 | pgbench_accounts_pkey |        224641024

 2017-02-06 10:48:19.166211+01 | 1486374499.16621 | pgbench_branches_pkey |            49152
 2017-02-06 10:48:19.166211+01 | 1486374499.16621 | pgbench_tellers_pkey  |           188416
 2017-02-06 10:48:19.166211+01 | 1486374499.16621 | pgbench_accounts_pkey |        224641024

 2017-02-06 10:48:20.262219+01 | 1486374500.26222 | pgbench_branches_pkey |            49152
 2017-02-06 10:48:20.262219+01 | 1486374500.26222 | pgbench_tellers_pkey  |           188416
 2017-02-06 10:48:20.262219+01 | 1486374500.26222 | pgbench_accounts_pkey |        224641024

 2017-02-06 10:48:21.358599+01 | 1486374501.3586 | pgbench_branches_pkey |            49152
 2017-02-06 10:48:21.358599+01 | 1486374501.3586 | pgbench_tellers_pkey  |           188416
 2017-02-06 10:48:21.358599+01 | 1486374501.3586 | pgbench_accounts_pkey |        224641024

 2017-02-06 10:48:22.461972+01 | 1486374502.46197 | pgbench_branches_pkey |            49152
 2017-02-06 10:48:22.461972+01 | 1486374502.46197 | pgbench_tellers_pkey  |           188416
 2017-02-06 10:48:22.461972+01 | 1486374502.46197 | pgbench_accounts_pkey |        224641024

 2017-02-06 10:48:23.557278+01 | 1486374503.55728 | pgbench_branches_pkey |            49152
 2017-02-06 10:48:23.557278+01 | 1486374503.55728 | pgbench_tellers_pkey  |           188416
 2017-02-06 10:48:23.557278+01 | 1486374503.55728 | pgbench_accounts_pkey |        224641024

 2017-02-06 10:48:24.63973+01 | 1486374504.63973 | pgbench_branches_pkey |            49152
 2017-02-06 10:48:24.63973+01 | 1486374504.63973 | pgbench_tellers_pkey  |           188416
 2017-02-06 10:48:24.63973+01 | 1486374504.63973 | pgbench_accounts_pkey |        224641024

 2017-02-06 10:48:25.715979+01 | 1486374505.71598 | pgbench_branches_pkey |            49152
 2017-02-06 10:48:25.715979+01 | 1486374505.71598 | pgbench_tellers_pkey  |           188416
 2017-02-06 10:48:25.715979+01 | 1486374505.71598 | pgbench_accounts_pkey |        224641024

 2017-02-06 10:48:26.803423+01 | 1486374506.80342 | pgbench_branches_pkey |            49152
 2017-02-06 10:48:26.803423+01 | 1486374506.80342 | pgbench_tellers_pkey  |           188416
 2017-02-06 10:48:26.803423+01 | 1486374506.80342 | pgbench_accounts_pkey |        224641024

 2017-02-06 10:48:27.910217+01 | 1486374507.91022 | pgbench_branches_pkey |            49152
 2017-02-06 10:48:27.910217+01 | 1486374507.91022 | pgbench_tellers_pkey  |           188416
 2017-02-06 10:48:27.910217+01 | 1486374507.91022 | pgbench_accounts_pkey |        224641024

 2017-02-06 10:48:28.995215+01 | 1486374508.99521 | pgbench_branches_pkey |            49152
 2017-02-06 10:48:28.995215+01 | 1486374508.99521 | pgbench_tellers_pkey  |           188416
 2017-02-06 10:48:28.995215+01 | 1486374508.99521 | pgbench_accounts_pkey |        224641024

 2017-02-06 10:48:30.082691+01 | 1486374510.08269 | pgbench_branches_pkey |            49152
 2017-02-06 10:48:30.082691+01 | 1486374510.08269 | pgbench_tellers_pkey  |           188416
 2017-02-06 10:48:30.082691+01 | 1486374510.08269 | pgbench_accounts_pkey |        224641024

 2017-02-06 10:48:31.183491+01 | 1486374511.18349 | pgbench_branches_pkey |            49152
 2017-02-06 10:48:31.183491+01 | 1486374511.18349 | pgbench_tellers_pkey  |           188416
 2017-02-06 10:48:31.183491+01 | 1486374511.18349 | pgbench_accounts_pkey |        224641024

 2017-02-06 10:48:32.284552+01 | 1486374512.28455 | pgbench_branches_pkey |            49152
 2017-02-06 10:48:32.284552+01 | 1486374512.28455 | pgbench_tellers_pkey  |           188416
 2017-02-06 10:48:32.284552+01 | 1486374512.28455 | pgbench_accounts_pkey |        224641024

 2017-02-06 10:48:33.38583+01 | 1486374513.38583 | pgbench_branches_pkey |            49152
 2017-02-06 10:48:33.38583+01 | 1486374513.38583 | pgbench_tellers_pkey  |           188416
 2017-02-06 10:48:33.38583+01 | 1486374513.38583 | pgbench_accounts_pkey |        224641024

 2017-02-06 10:48:34.490166+01 | 1486374514.49017 | pgbench_branches_pkey |            49152
 2017-02-06 10:48:34.490166+01 | 1486374514.49017 | pgbench_tellers_pkey  |           188416
 2017-02-06 10:48:34.490166+01 | 1486374514.49017 | pgbench_accounts_pkey |        224641024

 2017-02-06 10:48:35.575924+01 | 1486374515.57592 | pgbench_branches_pkey |            49152
 2017-02-06 10:48:35.575924+01 | 1486374515.57592 | pgbench_tellers_pkey  |           188416
 2017-02-06 10:48:35.575924+01 | 1486374515.57592 | pgbench_accounts_pkey |        224641024

 2017-02-06 10:48:36.654054+01 | 1486374516.65405 | pgbench_branches_pkey |            49152
 2017-02-06 10:48:36.654054+01 | 1486374516.65405 | pgbench_tellers_pkey  |           188416
 2017-02-06 10:48:36.654054+01 | 1486374516.65405 | pgbench_accounts_pkey |        224641024

 2017-02-06 10:48:37.738974+01 | 1486374517.73897 | pgbench_branches_pkey |            49152
 2017-02-06 10:48:37.738974+01 | 1486374517.73897 | pgbench_tellers_pkey  |           188416
 2017-02-06 10:48:37.738974+01 | 1486374517.73897 | pgbench_accounts_pkey |        224641024

 2017-02-06 10:48:38.829997+01 | 1486374518.83 | pgbench_branches_pkey |            49152
 2017-02-06 10:48:38.829997+01 | 1486374518.83 | pgbench_tellers_pkey  |           188416
 2017-02-06 10:48:38.829997+01 | 1486374518.83 | pgbench_accounts_pkey |        224641024

 2017-02-06 10:48:39.924597+01 | 1486374519.9246 | pgbench_branches_pkey |            49152
 2017-02-06 10:48:39.924597+01 | 1486374519.9246 | pgbench_tellers_pkey  |           188416
 2017-02-06 10:48:39.924597+01 | 1486374519.9246 | pgbench_accounts_pkey |        224641024

 2017-02-06 10:48:41.016554+01 | 1486374521.01655 | pgbench_branches_pkey |            49152
 2017-02-06 10:48:41.016554+01 | 1486374521.01655 | pgbench_tellers_pkey  |           188416
 2017-02-06 10:48:41.016554+01 | 1486374521.01655 | pgbench_accounts_pkey |        224641024

 2017-02-06 10:48:42.113067+01 | 1486374522.11307 | pgbench_branches_pkey |            49152
 2017-02-06 10:48:42.113067+01 | 1486374522.11307 | pgbench_tellers_pkey  |           188416
 2017-02-06 10:48:42.113067+01 | 1486374522.11307 | pgbench_accounts_pkey |        224641024

 2017-02-06 10:48:43.213028+01 | 1486374523.21303 | pgbench_branches_pkey |            49152
 2017-02-06 10:48:43.213028+01 | 1486374523.21303 | pgbench_tellers_pkey  |           188416
 2017-02-06 10:48:43.213028+01 | 1486374523.21303 | pgbench_accounts_pkey |        224641024

 2017-02-06 10:48:44.305275+01 | 1486374524.30527 | pgbench_branches_pkey |            49152
 2017-02-06 10:48:44.305275+01 | 1486374524.30527 | pgbench_tellers_pkey  |           188416
 2017-02-06 10:48:44.305275+01 | 1486374524.30527 | pgbench_accounts_pkey |        224641024

 2017-02-06 10:48:45.400712+01 | 1486374525.40071 | pgbench_branches_pkey |            49152
 2017-02-06 10:48:45.400712+01 | 1486374525.40071 | pgbench_tellers_pkey  |           188416
 2017-02-06 10:48:45.400712+01 | 1486374525.40071 | pgbench_accounts_pkey |        224641024

 2017-02-06 10:48:46.501926+01 | 1486374526.50193 | pgbench_branches_pkey |            49152
 2017-02-06 10:48:46.501926+01 | 1486374526.50193 | pgbench_tellers_pkey  |           188416
 2017-02-06 10:48:46.501926+01 | 1486374526.50193 | pgbench_accounts_pkey |        224641024

 2017-02-06 10:48:47.590756+01 | 1486374527.59076 | pgbench_branches_pkey |            49152
 2017-02-06 10:48:47.590756+01 | 1486374527.59076 | pgbench_tellers_pkey  |           188416
 2017-02-06 10:48:47.590756+01 | 1486374527.59076 | pgbench_accounts_pkey |        224641024

 2017-02-06 10:48:48.676777+01 | 1486374528.67678 | pgbench_branches_pkey |            49152
 2017-02-06 10:48:48.676777+01 | 1486374528.67678 | pgbench_tellers_pkey  |           188416
 2017-02-06 10:48:48.676777+01 | 1486374528.67678 | pgbench_accounts_pkey |        224641024

 2017-02-06 10:48:49.762959+01 | 1486374529.76296 | pgbench_branches_pkey |            49152
 2017-02-06 10:48:49.762959+01 | 1486374529.76296 | pgbench_tellers_pkey  |           188416
 2017-02-06 10:48:49.762959+01 | 1486374529.76296 | pgbench_accounts_pkey |        224641024

 2017-02-06 10:48:50.835749+01 | 1486374530.83575 | pgbench_branches_pkey |            49152
 2017-02-06 10:48:50.835749+01 | 1486374530.83575 | pgbench_tellers_pkey  |           188416
 2017-02-06 10:48:50.835749+01 | 1486374530.83575 | pgbench_accounts_pkey |        224641024

 2017-02-06 10:48:51.944717+01 | 1486374531.94472 | pgbench_branches_pkey |            49152
 2017-02-06 10:48:51.944717+01 | 1486374531.94472 | pgbench_tellers_pkey  |           188416
 2017-02-06 10:48:51.944717+01 | 1486374531.94472 | pgbench_accounts_pkey |        224641024

 2017-02-06 10:48:53.047598+01 | 1486374533.0476 | pgbench_branches_pkey |            49152
 2017-02-06 10:48:53.047598+01 | 1486374533.0476 | pgbench_tellers_pkey  |           188416
 2017-02-06 10:48:53.047598+01 | 1486374533.0476 | pgbench_accounts_pkey |        224641024

 2017-02-06 10:48:54.140965+01 | 1486374534.14096 | pgbench_branches_pkey |            49152
 2017-02-06 10:48:54.140965+01 | 1486374534.14096 | pgbench_tellers_pkey  |           188416
 2017-02-06 10:48:54.140965+01 | 1486374534.14096 | pgbench_accounts_pkey |        224641024

 2017-02-06 10:48:55.234877+01 | 1486374535.23488 | pgbench_branches_pkey |            49152
 2017-02-06 10:48:55.234877+01 | 1486374535.23488 | pgbench_tellers_pkey  |           188416
 2017-02-06 10:48:55.234877+01 | 1486374535.23488 | pgbench_accounts_pkey |        224641024

 2017-02-06 10:48:56.344983+01 | 1486374536.34498 | pgbench_branches_pkey |            49152
 2017-02-06 10:48:56.344983+01 | 1486374536.34498 | pgbench_tellers_pkey  |           188416
 2017-02-06 10:48:56.344983+01 | 1486374536.34498 | pgbench_accounts_pkey |        224641024

 2017-02-06 10:48:57.433522+01 | 1486374537.43352 | pgbench_branches_pkey |            49152
 2017-02-06 10:48:57.433522+01 | 1486374537.43352 | pgbench_tellers_pkey  |           188416
 2017-02-06 10:48:57.433522+01 | 1486374537.43352 | pgbench_accounts_pkey |        224641024

 2017-02-06 10:48:58.530394+01 | 1486374538.53039 | pgbench_branches_pkey |            49152
 2017-02-06 10:48:58.530394+01 | 1486374538.53039 | pgbench_tellers_pkey  |           188416
 2017-02-06 10:48:58.530394+01 | 1486374538.53039 | pgbench_accounts_pkey |        224641024

 2017-02-06 10:48:59.615468+01 | 1486374539.61547 | pgbench_branches_pkey |            49152
 2017-02-06 10:48:59.615468+01 | 1486374539.61547 | pgbench_tellers_pkey  |           188416
 2017-02-06 10:48:59.615468+01 | 1486374539.61547 | pgbench_accounts_pkey |        224641024

 2017-02-06 10:49:00.698896+01 | 1486374540.6989 | pgbench_branches_pkey |            49152
 2017-02-06 10:49:00.698896+01 | 1486374540.6989 | pgbench_tellers_pkey  |           188416
 2017-02-06 10:49:00.698896+01 | 1486374540.6989 | pgbench_accounts_pkey |        224641024

 2017-02-06 10:49:01.777324+01 | 1486374541.77732 | pgbench_branches_pkey |            49152
 2017-02-06 10:49:01.777324+01 | 1486374541.77732 | pgbench_tellers_pkey  |           188416
 2017-02-06 10:49:01.777324+01 | 1486374541.77732 | pgbench_accounts_pkey |        224641024

 2017-02-06 10:49:02.866763+01 | 1486374542.86676 | pgbench_branches_pkey |            49152
 2017-02-06 10:49:02.866763+01 | 1486374542.86676 | pgbench_tellers_pkey  |           188416
 2017-02-06 10:49:02.866763+01 | 1486374542.86676 | pgbench_accounts_pkey |        224641024

 2017-02-06 10:49:03.965988+01 | 1486374543.96599 | pgbench_branches_pkey |            49152
 2017-02-06 10:49:03.965988+01 | 1486374543.96599 | pgbench_tellers_pkey  |           188416
 2017-02-06 10:49:03.965988+01 | 1486374543.96599 | pgbench_accounts_pkey |        224641024

 2017-02-06 10:49:05.068995+01 | 1486374545.06899 | pgbench_branches_pkey |            49152
 2017-02-06 10:49:05.068995+01 | 1486374545.06899 | pgbench_tellers_pkey  |           188416
 2017-02-06 10:49:05.068995+01 | 1486374545.06899 | pgbench_accounts_pkey |        224641024

 2017-02-06 10:49:06.174882+01 | 1486374546.17488 | pgbench_branches_pkey |            49152
 2017-02-06 10:49:06.174882+01 | 1486374546.17488 | pgbench_tellers_pkey  |           188416
 2017-02-06 10:49:06.174882+01 | 1486374546.17488 | pgbench_accounts_pkey |        224641024

 2017-02-06 10:49:07.264947+01 | 1486374547.26495 | pgbench_branches_pkey |            49152
 2017-02-06 10:49:07.264947+01 | 1486374547.26495 | pgbench_tellers_pkey  |           188416
 2017-02-06 10:49:07.264947+01 | 1486374547.26495 | pgbench_accounts_pkey |        224641024

 2017-02-06 10:49:08.356165+01 | 1486374548.35616 | pgbench_branches_pkey |            49152
 2017-02-06 10:49:08.356165+01 | 1486374548.35616 | pgbench_tellers_pkey  |           188416
 2017-02-06 10:49:08.356165+01 | 1486374548.35616 | pgbench_accounts_pkey |        224641024

 2017-02-06 10:49:09.445533+01 | 1486374549.44553 | pgbench_branches_pkey |            49152
 2017-02-06 10:49:09.445533+01 | 1486374549.44553 | pgbench_tellers_pkey  |           188416
 2017-02-06 10:49:09.445533+01 | 1486374549.44553 | pgbench_accounts_pkey |        224641024

 2017-02-06 10:49:10.544994+01 | 1486374550.54499 | pgbench_branches_pkey |            49152
 2017-02-06 10:49:10.544994+01 | 1486374550.54499 | pgbench_tellers_pkey  |           188416
 2017-02-06 10:49:10.544994+01 | 1486374550.54499 | pgbench_accounts_pkey |        224641024

 2017-02-06 10:49:11.639896+01 | 1486374551.6399 | pgbench_branches_pkey |            49152
 2017-02-06 10:49:11.639896+01 | 1486374551.6399 | pgbench_tellers_pkey  |           188416
 2017-02-06 10:49:11.639896+01 | 1486374551.6399 | pgbench_accounts_pkey |        224641024

 2017-02-06 10:49:12.723597+01 | 1486374552.7236 | pgbench_branches_pkey |            49152
 2017-02-06 10:49:12.723597+01 | 1486374552.7236 | pgbench_tellers_pkey  |           188416
 2017-02-06 10:49:12.723597+01 | 1486374552.7236 | pgbench_accounts_pkey |        224641024

 2017-02-06 10:49:13.801485+01 | 1486374553.80149 | pgbench_branches_pkey |            49152
 2017-02-06 10:49:13.801485+01 | 1486374553.80149 | pgbench_tellers_pkey  |           188416
 2017-02-06 10:49:13.801485+01 | 1486374553.80149 | pgbench_accounts_pkey |        224641024

 2017-02-06 10:49:14.894014+01 | 1486374554.89401 | pgbench_branches_pkey |            49152
 2017-02-06 10:49:14.894014+01 | 1486374554.89401 | pgbench_tellers_pkey  |           188416
 2017-02-06 10:49:14.894014+01 | 1486374554.89401 | pgbench_accounts_pkey |        224641024

 2017-02-06 10:49:15.989602+01 | 1486374555.9896 | pgbench_branches_pkey |            49152
 2017-02-06 10:49:15.989602+01 | 1486374555.9896 | pgbench_tellers_pkey  |           188416
 2017-02-06 10:49:15.989602+01 | 1486374555.9896 | pgbench_accounts_pkey |        224641024

 2017-02-06 10:49:17.089416+01 | 1486374557.08942 | pgbench_branches_pkey |            49152
 2017-02-06 10:49:17.089416+01 | 1486374557.08942 | pgbench_tellers_pkey  |           188416
 2017-02-06 10:49:17.089416+01 | 1486374557.08942 | pgbench_accounts_pkey |        224641024

 2017-02-06 10:49:18.187629+01 | 1486374558.18763 | pgbench_branches_pkey |            49152
 2017-02-06 10:49:18.187629+01 | 1486374558.18763 | pgbench_tellers_pkey  |           188416
 2017-02-06 10:49:18.187629+01 | 1486374558.18763 | pgbench_accounts_pkey |        224641024

 2017-02-06 10:49:19.279447+01 | 1486374559.27945 | pgbench_branches_pkey |            49152
 2017-02-06 10:49:19.279447+01 | 1486374559.27945 | pgbench_tellers_pkey  |           188416
 2017-02-06 10:49:19.279447+01 | 1486374559.27945 | pgbench_accounts_pkey |        224641024

 2017-02-06 10:49:20.393696+01 | 1486374560.3937 | pgbench_branches_pkey |            49152
 2017-02-06 10:49:20.393696+01 | 1486374560.3937 | pgbench_tellers_pkey  |           188416
 2017-02-06 10:49:20.393696+01 | 1486374560.3937 | pgbench_accounts_pkey |        224641024

 2017-02-06 10:49:21.498322+01 | 1486374561.49832 | pgbench_branches_pkey |            49152
 2017-02-06 10:49:21.498322+01 | 1486374561.49832 | pgbench_tellers_pkey  |           188416
 2017-02-06 10:49:21.498322+01 | 1486374561.49832 | pgbench_accounts_pkey |        224641024

 2017-02-06 10:49:22.605985+01 | 1486374562.60598 | pgbench_branches_pkey |            49152
 2017-02-06 10:49:22.605985+01 | 1486374562.60598 | pgbench_tellers_pkey  |           188416
 2017-02-06 10:49:22.605985+01 | 1486374562.60598 | pgbench_accounts_pkey |        224641024

 2017-02-06 10:49:23.684735+01 | 1486374563.68474 | pgbench_branches_pkey |            49152
 2017-02-06 10:49:23.684735+01 | 1486374563.68474 | pgbench_tellers_pkey  |           188416
 2017-02-06 10:49:23.684735+01 | 1486374563.68474 | pgbench_accounts_pkey |        224641024

 2017-02-06 10:49:24.765614+01 | 1486374564.76561 | pgbench_branches_pkey |            49152
 2017-02-06 10:49:24.765614+01 | 1486374564.76561 | pgbench_tellers_pkey  |           188416
 2017-02-06 10:49:24.765614+01 | 1486374564.76561 | pgbench_accounts_pkey |        224641024

 2017-02-06 10:49:25.857069+01 | 1486374565.85707 | pgbench_branches_pkey |            49152
 2017-02-06 10:49:25.857069+01 | 1486374565.85707 | pgbench_tellers_pkey  |           188416
 2017-02-06 10:49:25.857069+01 | 1486374565.85707 | pgbench_accounts_pkey |        224641024

 2017-02-06 10:49:26.945822+01 | 1486374566.94582 | pgbench_branches_pkey |            49152
 2017-02-06 10:49:26.945822+01 | 1486374566.94582 | pgbench_tellers_pkey  |           188416
 2017-02-06 10:49:26.945822+01 | 1486374566.94582 | pgbench_accounts_pkey |        224641024

 2017-02-06 10:49:28.045929+01 | 1486374568.04593 | pgbench_branches_pkey |            49152
 2017-02-06 10:49:28.045929+01 | 1486374568.04593 | pgbench_tellers_pkey  |           188416
 2017-02-06 10:49:28.045929+01 | 1486374568.04593 | pgbench_accounts_pkey |        224641024

 2017-02-06 10:49:29.1398+01 | 1486374569.1398 | pgbench_branches_pkey |            49152
 2017-02-06 10:49:29.1398+01 | 1486374569.1398 | pgbench_tellers_pkey  |           188416
 2017-02-06 10:49:29.1398+01 | 1486374569.1398 | pgbench_accounts_pkey |        224641024

 2017-02-06 10:49:30.234145+01 | 1486374570.23414 | pgbench_branches_pkey |            49152
 2017-02-06 10:49:30.234145+01 | 1486374570.23414 | pgbench_tellers_pkey  |           188416
 2017-02-06 10:49:30.234145+01 | 1486374570.23414 | pgbench_accounts_pkey |        224641024

 2017-02-06 10:49:31.323058+01 | 1486374571.32306 | pgbench_branches_pkey |            49152
 2017-02-06 10:49:31.323058+01 | 1486374571.32306 | pgbench_tellers_pkey  |           188416
 2017-02-06 10:49:31.323058+01 | 1486374571.32306 | pgbench_accounts_pkey |        224641024

 2017-02-06 10:49:32.419393+01 | 1486374572.41939 | pgbench_branches_pkey |            49152
 2017-02-06 10:49:32.419393+01 | 1486374572.41939 | pgbench_tellers_pkey  |           188416
 2017-02-06 10:49:32.419393+01 | 1486374572.41939 | pgbench_accounts_pkey |        224641024

 2017-02-06 10:49:33.507425+01 | 1486374573.50743 | pgbench_branches_pkey |            49152
 2017-02-06 10:49:33.507425+01 | 1486374573.50743 | pgbench_tellers_pkey  |           188416
 2017-02-06 10:49:33.507425+01 | 1486374573.50743 | pgbench_accounts_pkey |        224641024

 2017-02-06 10:49:34.607744+01 | 1486374574.60774 | pgbench_branches_pkey |            49152
 2017-02-06 10:49:34.607744+01 | 1486374574.60774 | pgbench_tellers_pkey  |           188416
 2017-02-06 10:49:34.607744+01 | 1486374574.60774 | pgbench_accounts_pkey |        224641024

 2017-02-06 10:49:35.686901+01 | 1486374575.6869 | pgbench_branches_pkey |            49152
 2017-02-06 10:49:35.686901+01 | 1486374575.6869 | pgbench_tellers_pkey  |           188416
 2017-02-06 10:49:35.686901+01 | 1486374575.6869 | pgbench_accounts_pkey |        224641024

 2017-02-06 10:49:36.766612+01 | 1486374576.76661 | pgbench_branches_pkey |            49152
 2017-02-06 10:49:36.766612+01 | 1486374576.76661 | pgbench_tellers_pkey  |           188416
 2017-02-06 10:49:36.766612+01 | 1486374576.76661 | pgbench_accounts_pkey |        224641024

 2017-02-06 10:49:37.848715+01 | 1486374577.84872 | pgbench_branches_pkey |            49152
 2017-02-06 10:49:37.848715+01 | 1486374577.84872 | pgbench_tellers_pkey  |           188416
 2017-02-06 10:49:37.848715+01 | 1486374577.84872 | pgbench_accounts_pkey |        224641024

 2017-02-06 10:49:38.939604+01 | 1486374578.9396 | pgbench_branches_pkey |            49152
 2017-02-06 10:49:38.939604+01 | 1486374578.9396 | pgbench_tellers_pkey  |           188416
 2017-02-06 10:49:38.939604+01 | 1486374578.9396 | pgbench_accounts_pkey |        224641024

 2017-02-06 10:49:40.033149+01 | 1486374580.03315 | pgbench_branches_pkey |            49152
 2017-02-06 10:49:40.033149+01 | 1486374580.03315 | pgbench_tellers_pkey  |           188416
 2017-02-06 10:49:40.033149+01 | 1486374580.03315 | pgbench_accounts_pkey |        224641024

 2017-02-06 10:49:41.122451+01 | 1486374581.12245 | pgbench_branches_pkey |            49152
 2017-02-06 10:49:41.122451+01 | 1486374581.12245 | pgbench_tellers_pkey  |           188416
 2017-02-06 10:49:41.122451+01 | 1486374581.12245 | pgbench_accounts_pkey |        224641024

 2017-02-06 10:49:42.229121+01 | 1486374582.22912 | pgbench_branches_pkey |            49152
 2017-02-06 10:49:42.229121+01 | 1486374582.22912 | pgbench_tellers_pkey  |           188416
 2017-02-06 10:49:42.229121+01 | 1486374582.22912 | pgbench_accounts_pkey |        224641024

 2017-02-06 10:49:43.337489+01 | 1486374583.33749 | pgbench_branches_pkey |            49152
 2017-02-06 10:49:43.337489+01 | 1486374583.33749 | pgbench_tellers_pkey  |           188416
 2017-02-06 10:49:43.337489+01 | 1486374583.33749 | pgbench_accounts_pkey |        224641024

 2017-02-06 10:49:44.435185+01 | 1486374584.43518 | pgbench_branches_pkey |            49152
 2017-02-06 10:49:44.435185+01 | 1486374584.43518 | pgbench_tellers_pkey  |           188416
 2017-02-06 10:49:44.435185+01 | 1486374584.43518 | pgbench_accounts_pkey |        224641024

 2017-02-06 10:49:45.53531+01 | 1486374585.53531 | pgbench_branches_pkey |            49152
 2017-02-06 10:49:45.53531+01 | 1486374585.53531 | pgbench_tellers_pkey  |           188416
 2017-02-06 10:49:45.53531+01 | 1486374585.53531 | pgbench_accounts_pkey |        224641024

 2017-02-06 10:49:46.6304+01 | 1486374586.6304 | pgbench_branches_pkey |            49152
 2017-02-06 10:49:46.6304+01 | 1486374586.6304 | pgbench_tellers_pkey  |           188416
 2017-02-06 10:49:46.6304+01 | 1486374586.6304 | pgbench_accounts_pkey |        224641024

 2017-02-06 10:49:47.713287+01 | 1486374587.71329 | pgbench_branches_pkey |            49152
 2017-02-06 10:49:47.713287+01 | 1486374587.71329 | pgbench_tellers_pkey  |           188416
 2017-02-06 10:49:47.713287+01 | 1486374587.71329 | pgbench_accounts_pkey |        224641024

 2017-02-06 10:49:48.790761+01 | 1486374588.79076 | pgbench_branches_pkey |            49152
 2017-02-06 10:49:48.790761+01 | 1486374588.79076 | pgbench_tellers_pkey  |           188416
 2017-02-06 10:49:48.790761+01 | 1486374588.79076 | pgbench_accounts_pkey |        224641024

 2017-02-06 10:49:49.874297+01 | 1486374589.8743 | pgbench_branches_pkey |            49152
 2017-02-06 10:49:49.874297+01 | 1486374589.8743 | pgbench_tellers_pkey  |           188416
 2017-02-06 10:49:49.874297+01 | 1486374589.8743 | pgbench_accounts_pkey |        224641024

 2017-02-06 10:49:50.955957+01 | 1486374590.95596 | pgbench_branches_pkey |            49152
 2017-02-06 10:49:50.955957+01 | 1486374590.95596 | pgbench_tellers_pkey  |           188416
 2017-02-06 10:49:50.955957+01 | 1486374590.95596 | pgbench_accounts_pkey |        224641024

 2017-02-06 10:49:52.057093+01 | 1486374592.05709 | pgbench_branches_pkey |            49152
 2017-02-06 10:49:52.057093+01 | 1486374592.05709 | pgbench_tellers_pkey  |           188416
 2017-02-06 10:49:52.057093+01 | 1486374592.05709 | pgbench_accounts_pkey |        224641024

 2017-02-06 10:49:53.155578+01 | 1486374593.15558 | pgbench_branches_pkey |            49152
 2017-02-06 10:49:53.155578+01 | 1486374593.15558 | pgbench_tellers_pkey  |           188416
 2017-02-06 10:49:53.155578+01 | 1486374593.15558 | pgbench_accounts_pkey |        224641024

 2017-02-06 10:49:54.251966+01 | 1486374594.25197 | pgbench_branches_pkey |            49152
 2017-02-06 10:49:54.251966+01 | 1486374594.25197 | pgbench_tellers_pkey  |           188416
 2017-02-06 10:49:54.251966+01 | 1486374594.25197 | pgbench_accounts_pkey |        224641024

 2017-02-06 10:49:55.348392+01 | 1486374595.34839 | pgbench_branches_pkey |            49152
 2017-02-06 10:49:55.348392+01 | 1486374595.34839 | pgbench_tellers_pkey  |           188416
 2017-02-06 10:49:55.348392+01 | 1486374595.34839 | pgbench_accounts_pkey |        224641024

 2017-02-06 10:49:56.44027+01 | 1486374596.44027 | pgbench_branches_pkey |            49152
 2017-02-06 10:49:56.44027+01 | 1486374596.44027 | pgbench_tellers_pkey  |           188416
 2017-02-06 10:49:56.44027+01 | 1486374596.44027 | pgbench_accounts_pkey |        224641024

 2017-02-06 10:49:57.539629+01 | 1486374597.53963 | pgbench_branches_pkey |            49152
 2017-02-06 10:49:57.539629+01 | 1486374597.53963 | pgbench_tellers_pkey  |           188416
 2017-02-06 10:49:57.539629+01 | 1486374597.53963 | pgbench_accounts_pkey |        224641024

 2017-02-06 10:49:58.645831+01 | 1486374598.64583 | pgbench_branches_pkey |            49152
 2017-02-06 10:49:58.645831+01 | 1486374598.64583 | pgbench_tellers_pkey  |           188416
 2017-02-06 10:49:58.645831+01 | 1486374598.64583 | pgbench_accounts_pkey |        224641024

 2017-02-06 10:49:59.722186+01 | 1486374599.72219 | pgbench_branches_pkey |            49152
 2017-02-06 10:49:59.722186+01 | 1486374599.72219 | pgbench_tellers_pkey  |           188416
 2017-02-06 10:49:59.722186+01 | 1486374599.72219 | pgbench_accounts_pkey |        224641024

 2017-02-06 10:50:00.801065+01 | 1486374600.80106 | pgbench_branches_pkey |            49152
 2017-02-06 10:50:00.801065+01 | 1486374600.80106 | pgbench_tellers_pkey  |           188416
 2017-02-06 10:50:00.801065+01 | 1486374600.80106 | pgbench_accounts_pkey |        224641024

 2017-02-06 10:50:01.879615+01 | 1486374601.87962 | pgbench_branches_pkey |            49152
 2017-02-06 10:50:01.879615+01 | 1486374601.87962 | pgbench_tellers_pkey  |           188416
 2017-02-06 10:50:01.879615+01 | 1486374601.87962 | pgbench_accounts_pkey |        224641024

 2017-02-06 10:50:02.959643+01 | 1486374602.95964 | pgbench_branches_pkey |            49152
 2017-02-06 10:50:02.959643+01 | 1486374602.95964 | pgbench_tellers_pkey  |           188416
 2017-02-06 10:50:02.959643+01 | 1486374602.95964 | pgbench_accounts_pkey |        224641024

 2017-02-06 10:50:04.047903+01 | 1486374604.0479 | pgbench_branches_pkey |            49152
 2017-02-06 10:50:04.047903+01 | 1486374604.0479 | pgbench_tellers_pkey  |           188416
 2017-02-06 10:50:04.047903+01 | 1486374604.0479 | pgbench_accounts_pkey |        224641024

 2017-02-06 10:50:05.159293+01 | 1486374605.15929 | pgbench_branches_pkey |            49152
 2017-02-06 10:50:05.159293+01 | 1486374605.15929 | pgbench_tellers_pkey  |           188416
 2017-02-06 10:50:05.159293+01 | 1486374605.15929 | pgbench_accounts_pkey |        224641024

 2017-02-06 10:50:06.248689+01 | 1486374606.24869 | pgbench_branches_pkey |            49152
 2017-02-06 10:50:06.248689+01 | 1486374606.24869 | pgbench_tellers_pkey  |           188416
 2017-02-06 10:50:06.248689+01 | 1486374606.24869 | pgbench_accounts_pkey |        224641024

 2017-02-06 10:50:07.347769+01 | 1486374607.34777 | pgbench_branches_pkey |            49152
 2017-02-06 10:50:07.347769+01 | 1486374607.34777 | pgbench_tellers_pkey  |           188416
 2017-02-06 10:50:07.347769+01 | 1486374607.34777 | pgbench_accounts_pkey |        224641024

 2017-02-06 10:50:08.445413+01 | 1486374608.44541 | pgbench_branches_pkey |            49152
 2017-02-06 10:50:08.445413+01 | 1486374608.44541 | pgbench_tellers_pkey  |           188416
 2017-02-06 10:50:08.445413+01 | 1486374608.44541 | pgbench_accounts_pkey |        224641024

 2017-02-06 10:50:09.534587+01 | 1486374609.53459 | pgbench_branches_pkey |            49152
 2017-02-06 10:50:09.534587+01 | 1486374609.53459 | pgbench_tellers_pkey  |           188416
 2017-02-06 10:50:09.534587+01 | 1486374609.53459 | pgbench_accounts_pkey |        224641024

 2017-02-06 10:50:10.6208+01 | 1486374610.6208 | pgbench_branches_pkey |            49152
 2017-02-06 10:50:10.6208+01 | 1486374610.6208 | pgbench_tellers_pkey  |           188416
 2017-02-06 10:50:10.6208+01 | 1486374610.6208 | pgbench_accounts_pkey |        224641024

 2017-02-06 10:50:11.708734+01 | 1486374611.70873 | pgbench_branches_pkey |            49152
 2017-02-06 10:50:11.708734+01 | 1486374611.70873 | pgbench_tellers_pkey  |           188416
 2017-02-06 10:50:11.708734+01 | 1486374611.70873 | pgbench_accounts_pkey |        224641024

 2017-02-06 10:50:12.790878+01 | 1486374612.79088 | pgbench_branches_pkey |            49152
 2017-02-06 10:50:12.790878+01 | 1486374612.79088 | pgbench_tellers_pkey  |           188416
 2017-02-06 10:50:12.790878+01 | 1486374612.79088 | pgbench_accounts_pkey |        224641024

 2017-02-06 10:50:13.881154+01 | 1486374613.88115 | pgbench_branches_pkey |            49152
 2017-02-06 10:50:13.881154+01 | 1486374613.88115 | pgbench_tellers_pkey  |           188416
 2017-02-06 10:50:13.881154+01 | 1486374613.88115 | pgbench_accounts_pkey |        224641024

 2017-02-06 10:50:14.95862+01 | 1486374614.95862 | pgbench_branches_pkey |            49152
 2017-02-06 10:50:14.95862+01 | 1486374614.95862 | pgbench_tellers_pkey  |           188416
 2017-02-06 10:50:14.95862+01 | 1486374614.95862 | pgbench_accounts_pkey |        224641024

 2017-02-06 10:50:16.050599+01 | 1486374616.0506 | pgbench_branches_pkey |            49152
 2017-02-06 10:50:16.050599+01 | 1486374616.0506 | pgbench_tellers_pkey  |           188416
 2017-02-06 10:50:16.050599+01 | 1486374616.0506 | pgbench_accounts_pkey |        224641024

 2017-02-06 10:50:17.145125+01 | 1486374617.14512 | pgbench_branches_pkey |            49152
 2017-02-06 10:50:17.145125+01 | 1486374617.14512 | pgbench_tellers_pkey  |           188416
 2017-02-06 10:50:17.145125+01 | 1486374617.14512 | pgbench_accounts_pkey |        224641024

 2017-02-06 10:50:18.245049+01 | 1486374618.24505 | pgbench_branches_pkey |            49152
 2017-02-06 10:50:18.245049+01 | 1486374618.24505 | pgbench_tellers_pkey  |           188416
 2017-02-06 10:50:18.245049+01 | 1486374618.24505 | pgbench_accounts_pkey |        224641024

 2017-02-06 10:50:19.341406+01 | 1486374619.34141 | pgbench_branches_pkey |            49152
 2017-02-06 10:50:19.341406+01 | 1486374619.34141 | pgbench_tellers_pkey  |           188416
 2017-02-06 10:50:19.341406+01 | 1486374619.34141 | pgbench_accounts_pkey |        224641024

 2017-02-06 10:50:20.431901+01 | 1486374620.4319 | pgbench_branches_pkey |            49152
 2017-02-06 10:50:20.431901+01 | 1486374620.4319 | pgbench_tellers_pkey  |           188416
 2017-02-06 10:50:20.431901+01 | 1486374620.4319 | pgbench_accounts_pkey |        224641024

 2017-02-06 10:50:21.526962+01 | 1486374621.52696 | pgbench_branches_pkey |            49152
 2017-02-06 10:50:21.526962+01 | 1486374621.52696 | pgbench_tellers_pkey  |           188416
 2017-02-06 10:50:21.526962+01 | 1486374621.52696 | pgbench_accounts_pkey |        224641024

 2017-02-06 10:50:22.625089+01 | 1486374622.62509 | pgbench_branches_pkey |            49152
 2017-02-06 10:50:22.625089+01 | 1486374622.62509 | pgbench_tellers_pkey  |           188416
 2017-02-06 10:50:22.625089+01 | 1486374622.62509 | pgbench_accounts_pkey |        224641024

 2017-02-06 10:50:23.715115+01 | 1486374623.71512 | pgbench_branches_pkey |            49152
 2017-02-06 10:50:23.715115+01 | 1486374623.71512 | pgbench_tellers_pkey  |           188416
 2017-02-06 10:50:23.715115+01 | 1486374623.71512 | pgbench_accounts_pkey |        224641024

 2017-02-06 10:50:24.795127+01 | 1486374624.79513 | pgbench_branches_pkey |            49152
 2017-02-06 10:50:24.795127+01 | 1486374624.79513 | pgbench_tellers_pkey  |           188416
 2017-02-06 10:50:24.795127+01 | 1486374624.79513 | pgbench_accounts_pkey |        224641024

 2017-02-06 10:50:25.874786+01 | 1486374625.87479 | pgbench_branches_pkey |            49152
 2017-02-06 10:50:25.874786+01 | 1486374625.87479 | pgbench_tellers_pkey  |           188416
 2017-02-06 10:50:25.874786+01 | 1486374625.87479 | pgbench_accounts_pkey |        224641024

 2017-02-06 10:50:26.964184+01 | 1486374626.96418 | pgbench_branches_pkey |            49152
 2017-02-06 10:50:26.964184+01 | 1486374626.96418 | pgbench_tellers_pkey  |           188416
 2017-02-06 10:50:26.964184+01 | 1486374626.96418 | pgbench_accounts_pkey |        224641024

 2017-02-06 10:50:28.049984+01 | 1486374628.04998 | pgbench_branches_pkey |            49152
 2017-02-06 10:50:28.049984+01 | 1486374628.04998 | pgbench_tellers_pkey  |           188416
 2017-02-06 10:50:28.049984+01 | 1486374628.04998 | pgbench_accounts_pkey |        224641024

 2017-02-06 10:50:29.144752+01 | 1486374629.14475 | pgbench_branches_pkey |            49152
 2017-02-06 10:50:29.144752+01 | 1486374629.14475 | pgbench_tellers_pkey  |           188416
 2017-02-06 10:50:29.144752+01 | 1486374629.14475 | pgbench_accounts_pkey |        224641024

 2017-02-06 10:50:30.237584+01 | 1486374630.23758 | pgbench_branches_pkey |            49152
 2017-02-06 10:50:30.237584+01 | 1486374630.23758 | pgbench_tellers_pkey  |           188416
 2017-02-06 10:50:30.237584+01 | 1486374630.23758 | pgbench_accounts_pkey |        224641024

 2017-02-06 10:50:31.336649+01 | 1486374631.33665 | pgbench_branches_pkey |            49152
 2017-02-06 10:50:31.336649+01 | 1486374631.33665 | pgbench_tellers_pkey  |           188416
 2017-02-06 10:50:31.336649+01 | 1486374631.33665 | pgbench_accounts_pkey |        224641024

 2017-02-06 10:50:32.433885+01 | 1486374632.43389 | pgbench_branches_pkey |            49152
 2017-02-06 10:50:32.433885+01 | 1486374632.43389 | pgbench_tellers_pkey  |           188416
 2017-02-06 10:50:32.433885+01 | 1486374632.43389 | pgbench_accounts_pkey |        224641024

 2017-02-06 10:50:33.531184+01 | 1486374633.53118 | pgbench_branches_pkey |            49152
 2017-02-06 10:50:33.531184+01 | 1486374633.53118 | pgbench_tellers_pkey  |           188416
 2017-02-06 10:50:33.531184+01 | 1486374633.53118 | pgbench_accounts_pkey |        224641024

 2017-02-06 10:50:34.629174+01 | 1486374634.62917 | pgbench_branches_pkey |            49152
 2017-02-06 10:50:34.629174+01 | 1486374634.62917 | pgbench_tellers_pkey  |           188416
 2017-02-06 10:50:34.629174+01 | 1486374634.62917 | pgbench_accounts_pkey |        224641024

 2017-02-06 10:50:35.71137+01 | 1486374635.71137 | pgbench_branches_pkey |            49152
 2017-02-06 10:50:35.71137+01 | 1486374635.71137 | pgbench_tellers_pkey  |           188416
 2017-02-06 10:50:35.71137+01 | 1486374635.71137 | pgbench_accounts_pkey |        224641024

 2017-02-06 10:50:36.792745+01 | 1486374636.79275 | pgbench_branches_pkey |            49152
 2017-02-06 10:50:36.792745+01 | 1486374636.79275 | pgbench_tellers_pkey  |           188416
 2017-02-06 10:50:36.792745+01 | 1486374636.79275 | pgbench_accounts_pkey |        224641024

 2017-02-06 10:50:37.868981+01 | 1486374637.86898 | pgbench_branches_pkey |            49152
 2017-02-06 10:50:37.868981+01 | 1486374637.86898 | pgbench_tellers_pkey  |           188416
 2017-02-06 10:50:37.868981+01 | 1486374637.86898 | pgbench_accounts_pkey |        224641024

 2017-02-06 10:50:38.951441+01 | 1486374638.95144 | pgbench_branches_pkey |            49152
 2017-02-06 10:50:38.951441+01 | 1486374638.95144 | pgbench_tellers_pkey  |           188416
 2017-02-06 10:50:38.951441+01 | 1486374638.95144 | pgbench_accounts_pkey |        224641024

 2017-02-06 10:50:40.042392+01 | 1486374640.04239 | pgbench_branches_pkey |            49152
 2017-02-06 10:50:40.042392+01 | 1486374640.04239 | pgbench_tellers_pkey  |           188416
 2017-02-06 10:50:40.042392+01 | 1486374640.04239 | pgbench_accounts_pkey |        224641024

 2017-02-06 10:50:41.127694+01 | 1486374641.12769 | pgbench_branches_pkey |            49152
 2017-02-06 10:50:41.127694+01 | 1486374641.12769 | pgbench_tellers_pkey  |           188416
 2017-02-06 10:50:41.127694+01 | 1486374641.12769 | pgbench_accounts_pkey |        224641024

 2017-02-06 10:50:42.218154+01 | 1486374642.21815 | pgbench_branches_pkey |            49152
 2017-02-06 10:50:42.218154+01 | 1486374642.21815 | pgbench_tellers_pkey  |           188416
 2017-02-06 10:50:42.218154+01 | 1486374642.21815 | pgbench_accounts_pkey |        224641024

 2017-02-06 10:50:43.313288+01 | 1486374643.31329 | pgbench_branches_pkey |            49152
 2017-02-06 10:50:43.313288+01 | 1486374643.31329 | pgbench_tellers_pkey  |           188416
 2017-02-06 10:50:43.313288+01 | 1486374643.31329 | pgbench_accounts_pkey |        224641024

 2017-02-06 10:50:44.408405+01 | 1486374644.40841 | pgbench_branches_pkey |            49152
 2017-02-06 10:50:44.408405+01 | 1486374644.40841 | pgbench_tellers_pkey  |           188416
 2017-02-06 10:50:44.408405+01 | 1486374644.40841 | pgbench_accounts_pkey |        224641024

 2017-02-06 10:50:45.509482+01 | 1486374645.50948 | pgbench_branches_pkey |            49152
 2017-02-06 10:50:45.509482+01 | 1486374645.50948 | pgbench_tellers_pkey  |           188416
 2017-02-06 10:50:45.509482+01 | 1486374645.50948 | pgbench_accounts_pkey |        224641024

 2017-02-06 10:50:46.605022+01 | 1486374646.60502 | pgbench_branches_pkey |            49152
 2017-02-06 10:50:46.605022+01 | 1486374646.60502 | pgbench_tellers_pkey  |           188416
 2017-02-06 10:50:46.605022+01 | 1486374646.60502 | pgbench_accounts_pkey |        224641024

 2017-02-06 10:50:47.695758+01 | 1486374647.69576 | pgbench_branches_pkey |            49152
 2017-02-06 10:50:47.695758+01 | 1486374647.69576 | pgbench_tellers_pkey  |           188416
 2017-02-06 10:50:47.695758+01 | 1486374647.69576 | pgbench_accounts_pkey |        224641024

 2017-02-06 10:50:48.773966+01 | 1486374648.77397 | pgbench_branches_pkey |            49152
 2017-02-06 10:50:48.773966+01 | 1486374648.77397 | pgbench_tellers_pkey  |           188416
 2017-02-06 10:50:48.773966+01 | 1486374648.77397 | pgbench_accounts_pkey |        224641024

 2017-02-06 10:50:49.848987+01 | 1486374649.84899 | pgbench_branches_pkey |            49152
 2017-02-06 10:50:49.848987+01 | 1486374649.84899 | pgbench_tellers_pkey  |           188416
 2017-02-06 10:50:49.848987+01 | 1486374649.84899 | pgbench_accounts_pkey |        224641024

 2017-02-06 10:50:50.923692+01 | 1486374650.92369 | pgbench_branches_pkey |            49152
 2017-02-06 10:50:50.923692+01 | 1486374650.92369 | pgbench_tellers_pkey  |           188416
 2017-02-06 10:50:50.923692+01 | 1486374650.92369 | pgbench_accounts_pkey |        224641024

 2017-02-06 10:50:52.006684+01 | 1486374652.00668 | pgbench_branches_pkey |            49152
 2017-02-06 10:50:52.006684+01 | 1486374652.00668 | pgbench_tellers_pkey  |           188416
 2017-02-06 10:50:52.006684+01 | 1486374652.00668 | pgbench_accounts_pkey |        224641024

 2017-02-06 10:50:53.103005+01 | 1486374653.103 | pgbench_branches_pkey |            49152
 2017-02-06 10:50:53.103005+01 | 1486374653.103 | pgbench_tellers_pkey  |           188416
 2017-02-06 10:50:53.103005+01 | 1486374653.103 | pgbench_accounts_pkey |        224641024

 2017-02-06 10:50:54.192818+01 | 1486374654.19282 | pgbench_branches_pkey |            49152
 2017-02-06 10:50:54.192818+01 | 1486374654.19282 | pgbench_tellers_pkey  |           188416
 2017-02-06 10:50:54.192818+01 | 1486374654.19282 | pgbench_accounts_pkey |        224641024

 2017-02-06 10:50:55.28961+01 | 1486374655.28961 | pgbench_branches_pkey |            49152
 2017-02-06 10:50:55.28961+01 | 1486374655.28961 | pgbench_tellers_pkey  |           188416
 2017-02-06 10:50:55.28961+01 | 1486374655.28961 | pgbench_accounts_pkey |        224641024

 2017-02-06 10:50:56.386096+01 | 1486374656.3861 | pgbench_branches_pkey |            49152
 2017-02-06 10:50:56.386096+01 | 1486374656.3861 | pgbench_tellers_pkey  |           188416
 2017-02-06 10:50:56.386096+01 | 1486374656.3861 | pgbench_accounts_pkey |        224641024

 2017-02-06 10:50:57.484142+01 | 1486374657.48414 | pgbench_branches_pkey |            49152
 2017-02-06 10:50:57.484142+01 | 1486374657.48414 | pgbench_tellers_pkey  |           188416
 2017-02-06 10:50:57.484142+01 | 1486374657.48414 | pgbench_accounts_pkey |        224641024

 2017-02-06 10:50:58.588922+01 | 1486374658.58892 | pgbench_branches_pkey |            49152
 2017-02-06 10:50:58.588922+01 | 1486374658.58892 | pgbench_tellers_pkey  |           188416
 2017-02-06 10:50:58.588922+01 | 1486374658.58892 | pgbench_accounts_pkey |        224641024

 2017-02-06 10:50:59.683952+01 | 1486374659.68395 | pgbench_branches_pkey |            49152
 2017-02-06 10:50:59.683952+01 | 1486374659.68395 | pgbench_tellers_pkey  |           188416
 2017-02-06 10:50:59.683952+01 | 1486374659.68395 | pgbench_accounts_pkey |        224641024

 2017-02-06 10:51:00.772257+01 | 1486374660.77226 | pgbench_branches_pkey |            49152
 2017-02-06 10:51:00.772257+01 | 1486374660.77226 | pgbench_tellers_pkey  |           188416
 2017-02-06 10:51:00.772257+01 | 1486374660.77226 | pgbench_accounts_pkey |        224641024

 2017-02-06 10:51:01.850833+01 | 1486374661.85083 | pgbench_branches_pkey |            49152
 2017-02-06 10:51:01.850833+01 | 1486374661.85083 | pgbench_tellers_pkey  |           188416
 2017-02-06 10:51:01.850833+01 | 1486374661.85083 | pgbench_accounts_pkey |        224641024

 2017-02-06 10:51:02.929709+01 | 1486374662.92971 | pgbench_branches_pkey |            49152
 2017-02-06 10:51:02.929709+01 | 1486374662.92971 | pgbench_tellers_pkey  |           188416
 2017-02-06 10:51:02.929709+01 | 1486374662.92971 | pgbench_accounts_pkey |        224641024

 2017-02-06 10:51:04.017269+01 | 1486374664.01727 | pgbench_branches_pkey |            49152
 2017-02-06 10:51:04.017269+01 | 1486374664.01727 | pgbench_tellers_pkey  |           188416
 2017-02-06 10:51:04.017269+01 | 1486374664.01727 | pgbench_accounts_pkey |        224641024

 2017-02-06 10:51:05.097999+01 | 1486374665.098 | pgbench_branches_pkey |            49152
 2017-02-06 10:51:05.097999+01 | 1486374665.098 | pgbench_tellers_pkey  |           188416
 2017-02-06 10:51:05.097999+01 | 1486374665.098 | pgbench_accounts_pkey |        224641024

 2017-02-06 10:51:06.186864+01 | 1486374666.18686 | pgbench_branches_pkey |            49152
 2017-02-06 10:51:06.186864+01 | 1486374666.18686 | pgbench_tellers_pkey  |           188416
 2017-02-06 10:51:06.186864+01 | 1486374666.18686 | pgbench_accounts_pkey |        224641024

 2017-02-06 10:51:07.287213+01 | 1486374667.28721 | pgbench_branches_pkey |            49152
 2017-02-06 10:51:07.287213+01 | 1486374667.28721 | pgbench_tellers_pkey  |           188416
 2017-02-06 10:51:07.287213+01 | 1486374667.28721 | pgbench_accounts_pkey |        224641024

 2017-02-06 10:51:08.394621+01 | 1486374668.39462 | pgbench_branches_pkey |            49152
 2017-02-06 10:51:08.394621+01 | 1486374668.39462 | pgbench_tellers_pkey  |           188416
 2017-02-06 10:51:08.394621+01 | 1486374668.39462 | pgbench_accounts_pkey |        224641024

 2017-02-06 10:51:09.498921+01 | 1486374669.49892 | pgbench_branches_pkey |            49152
 2017-02-06 10:51:09.498921+01 | 1486374669.49892 | pgbench_tellers_pkey  |           188416
 2017-02-06 10:51:09.498921+01 | 1486374669.49892 | pgbench_accounts_pkey |        224641024

 2017-02-06 10:51:10.591534+01 | 1486374670.59153 | pgbench_branches_pkey |            49152
 2017-02-06 10:51:10.591534+01 | 1486374670.59153 | pgbench_tellers_pkey  |           188416
 2017-02-06 10:51:10.591534+01 | 1486374670.59153 | pgbench_accounts_pkey |        224641024

 2017-02-06 10:51:11.708705+01 | 1486374671.7087 | pgbench_branches_pkey |            49152
 2017-02-06 10:51:11.708705+01 | 1486374671.7087 | pgbench_tellers_pkey  |           188416
 2017-02-06 10:51:11.708705+01 | 1486374671.7087 | pgbench_accounts_pkey |        224641024

 2017-02-06 10:51:12.790048+01 | 1486374672.79005 | pgbench_branches_pkey |            49152
 2017-02-06 10:51:12.790048+01 | 1486374672.79005 | pgbench_tellers_pkey  |           188416
 2017-02-06 10:51:12.790048+01 | 1486374672.79005 | pgbench_accounts_pkey |        224641024

 2017-02-06 10:51:13.870823+01 | 1486374673.87082 | pgbench_branches_pkey |            49152
 2017-02-06 10:51:13.870823+01 | 1486374673.87082 | pgbench_tellers_pkey  |           188416
 2017-02-06 10:51:13.870823+01 | 1486374673.87082 | pgbench_accounts_pkey |        224641024

 2017-02-06 10:51:14.950501+01 | 1486374674.9505 | pgbench_branches_pkey |            49152
 2017-02-06 10:51:14.950501+01 | 1486374674.9505 | pgbench_tellers_pkey  |           188416
 2017-02-06 10:51:14.950501+01 | 1486374674.9505 | pgbench_accounts_pkey |        224641024

 2017-02-06 10:51:16.033603+01 | 1486374676.0336 | pgbench_branches_pkey |            49152
 2017-02-06 10:51:16.033603+01 | 1486374676.0336 | pgbench_tellers_pkey  |           188416
 2017-02-06 10:51:16.033603+01 | 1486374676.0336 | pgbench_accounts_pkey |        224641024

 2017-02-06 10:51:17.117994+01 | 1486374677.11799 | pgbench_branches_pkey |            49152
 2017-02-06 10:51:17.117994+01 | 1486374677.11799 | pgbench_tellers_pkey  |           188416
 2017-02-06 10:51:17.117994+01 | 1486374677.11799 | pgbench_accounts_pkey |        224641024

 2017-02-06 10:51:18.205696+01 | 1486374678.2057 | pgbench_branches_pkey |            49152
 2017-02-06 10:51:18.205696+01 | 1486374678.2057 | pgbench_tellers_pkey  |           188416
 2017-02-06 10:51:18.205696+01 | 1486374678.2057 | pgbench_accounts_pkey |        224641024

 2017-02-06 10:51:19.291139+01 | 1486374679.29114 | pgbench_branches_pkey |            49152
 2017-02-06 10:51:19.291139+01 | 1486374679.29114 | pgbench_tellers_pkey  |           188416
 2017-02-06 10:51:19.291139+01 | 1486374679.29114 | pgbench_accounts_pkey |        224641024

 2017-02-06 10:51:20.389581+01 | 1486374680.38958 | pgbench_branches_pkey |            49152
 2017-02-06 10:51:20.389581+01 | 1486374680.38958 | pgbench_tellers_pkey  |           188416
 2017-02-06 10:51:20.389581+01 | 1486374680.38958 | pgbench_accounts_pkey |        224641024

 2017-02-06 10:51:21.489052+01 | 1486374681.48905 | pgbench_branches_pkey |            49152
 2017-02-06 10:51:21.489052+01 | 1486374681.48905 | pgbench_tellers_pkey  |           188416
 2017-02-06 10:51:21.489052+01 | 1486374681.48905 | pgbench_accounts_pkey |        224641024

 2017-02-06 10:51:22.584815+01 | 1486374682.58482 | pgbench_branches_pkey |            49152
 2017-02-06 10:51:22.584815+01 | 1486374682.58482 | pgbench_tellers_pkey  |           188416
 2017-02-06 10:51:22.584815+01 | 1486374682.58482 | pgbench_accounts_pkey |        224641024

 2017-02-06 10:51:23.688346+01 | 1486374683.68835 | pgbench_branches_pkey |            49152
 2017-02-06 10:51:23.688346+01 | 1486374683.68835 | pgbench_tellers_pkey  |           188416
 2017-02-06 10:51:23.688346+01 | 1486374683.68835 | pgbench_accounts_pkey |        224641024

 2017-02-06 10:51:24.777523+01 | 1486374684.77752 | pgbench_branches_pkey |            49152
 2017-02-06 10:51:24.777523+01 | 1486374684.77752 | pgbench_tellers_pkey  |           188416
 2017-02-06 10:51:24.777523+01 | 1486374684.77752 | pgbench_accounts_pkey |        224641024

 2017-02-06 10:51:25.856615+01 | 1486374685.85662 | pgbench_branches_pkey |            49152
 2017-02-06 10:51:25.856615+01 | 1486374685.85662 | pgbench_tellers_pkey  |           188416
 2017-02-06 10:51:25.856615+01 | 1486374685.85662 | pgbench_accounts_pkey |        224641024

 2017-02-06 10:51:26.942477+01 | 1486374686.94248 | pgbench_branches_pkey |            49152
 2017-02-06 10:51:26.942477+01 | 1486374686.94248 | pgbench_tellers_pkey  |           188416
 2017-02-06 10:51:26.942477+01 | 1486374686.94248 | pgbench_accounts_pkey |        224641024

 2017-02-06 10:51:28.027025+01 | 1486374688.02702 | pgbench_branches_pkey |            49152
 2017-02-06 10:51:28.027025+01 | 1486374688.02702 | pgbench_tellers_pkey  |           188416
 2017-02-06 10:51:28.027025+01 | 1486374688.02702 | pgbench_accounts_pkey |        224641024

 2017-02-06 10:51:29.110341+01 | 1486374689.11034 | pgbench_branches_pkey |            49152
 2017-02-06 10:51:29.110341+01 | 1486374689.11034 | pgbench_tellers_pkey  |           188416
 2017-02-06 10:51:29.110341+01 | 1486374689.11034 | pgbench_accounts_pkey |        224641024

 2017-02-06 10:51:30.198316+01 | 1486374690.19832 | pgbench_branches_pkey |            49152
 2017-02-06 10:51:30.198316+01 | 1486374690.19832 | pgbench_tellers_pkey  |           188416
 2017-02-06 10:51:30.198316+01 | 1486374690.19832 | pgbench_accounts_pkey |        224641024

 2017-02-06 10:51:31.291941+01 | 1486374691.29194 | pgbench_branches_pkey |            49152
 2017-02-06 10:51:31.291941+01 | 1486374691.29194 | pgbench_tellers_pkey  |           188416
 2017-02-06 10:51:31.291941+01 | 1486374691.29194 | pgbench_accounts_pkey |        224641024

 2017-02-06 10:51:32.404514+01 | 1486374692.40451 | pgbench_branches_pkey |            49152
 2017-02-06 10:51:32.404514+01 | 1486374692.40451 | pgbench_tellers_pkey  |           188416
 2017-02-06 10:51:32.404514+01 | 1486374692.40451 | pgbench_accounts_pkey |        224641024

 2017-02-06 10:51:33.500298+01 | 1486374693.5003 | pgbench_branches_pkey |            49152
 2017-02-06 10:51:33.500298+01 | 1486374693.5003 | pgbench_tellers_pkey  |           188416
 2017-02-06 10:51:33.500298+01 | 1486374693.5003 | pgbench_accounts_pkey |        224641024

 2017-02-06 10:51:34.604044+01 | 1486374694.60404 | pgbench_branches_pkey |            49152
 2017-02-06 10:51:34.604044+01 | 1486374694.60404 | pgbench_tellers_pkey  |           188416
 2017-02-06 10:51:34.604044+01 | 1486374694.60404 | pgbench_accounts_pkey |        224641024

 2017-02-06 10:51:35.695732+01 | 1486374695.69573 | pgbench_branches_pkey |            49152
 2017-02-06 10:51:35.695732+01 | 1486374695.69573 | pgbench_tellers_pkey  |           188416
 2017-02-06 10:51:35.695732+01 | 1486374695.69573 | pgbench_accounts_pkey |        224641024

 2017-02-06 10:51:36.785728+01 | 1486374696.78573 | pgbench_branches_pkey |            49152
 2017-02-06 10:51:36.785728+01 | 1486374696.78573 | pgbench_tellers_pkey  |           188416
 2017-02-06 10:51:36.785728+01 | 1486374696.78573 | pgbench_accounts_pkey |        224641024

 2017-02-06 10:51:37.870101+01 | 1486374697.8701 | pgbench_branches_pkey |            49152
 2017-02-06 10:51:37.870101+01 | 1486374697.8701 | pgbench_tellers_pkey  |           188416
 2017-02-06 10:51:37.870101+01 | 1486374697.8701 | pgbench_accounts_pkey |        224641024

 2017-02-06 10:51:38.956663+01 | 1486374698.95666 | pgbench_branches_pkey |            49152
 2017-02-06 10:51:38.956663+01 | 1486374698.95666 | pgbench_tellers_pkey  |           188416
 2017-02-06 10:51:38.956663+01 | 1486374698.95666 | pgbench_accounts_pkey |        224641024

 2017-02-06 10:51:40.039039+01 | 1486374700.03904 | pgbench_branches_pkey |            49152
 2017-02-06 10:51:40.039039+01 | 1486374700.03904 | pgbench_tellers_pkey  |           188416
 2017-02-06 10:51:40.039039+01 | 1486374700.03904 | pgbench_accounts_pkey |        224641024

 2017-02-06 10:51:41.122603+01 | 1486374701.1226 | pgbench_branches_pkey |            49152
 2017-02-06 10:51:41.122603+01 | 1486374701.1226 | pgbench_tellers_pkey  |           188416
 2017-02-06 10:51:41.122603+01 | 1486374701.1226 | pgbench_accounts_pkey |        224641024

 2017-02-06 10:51:42.212835+01 | 1486374702.21284 | pgbench_branches_pkey |            49152
 2017-02-06 10:51:42.212835+01 | 1486374702.21284 | pgbench_tellers_pkey  |           188416
 2017-02-06 10:51:42.212835+01 | 1486374702.21284 | pgbench_accounts_pkey |        224641024

 2017-02-06 10:51:43.298054+01 | 1486374703.29805 | pgbench_branches_pkey |            49152
 2017-02-06 10:51:43.298054+01 | 1486374703.29805 | pgbench_tellers_pkey  |           188416
 2017-02-06 10:51:43.298054+01 | 1486374703.29805 | pgbench_accounts_pkey |        224641024

 2017-02-06 10:51:44.390145+01 | 1486374704.39015 | pgbench_branches_pkey |            49152
 2017-02-06 10:51:44.390145+01 | 1486374704.39015 | pgbench_tellers_pkey  |           188416
 2017-02-06 10:51:44.390145+01 | 1486374704.39015 | pgbench_accounts_pkey |        224641024

 2017-02-06 10:51:45.508505+01 | 1486374705.50851 | pgbench_branches_pkey |            49152
 2017-02-06 10:51:45.508505+01 | 1486374705.50851 | pgbench_tellers_pkey  |           188416
 2017-02-06 10:51:45.508505+01 | 1486374705.50851 | pgbench_accounts_pkey |        224641024

 2017-02-06 10:51:46.60428+01 | 1486374706.60428 | pgbench_branches_pkey |            49152
 2017-02-06 10:51:46.60428+01 | 1486374706.60428 | pgbench_tellers_pkey  |           188416
 2017-02-06 10:51:46.60428+01 | 1486374706.60428 | pgbench_accounts_pkey |        224641024

 2017-02-06 10:51:47.703275+01 | 1486374707.70327 | pgbench_branches_pkey |            49152
 2017-02-06 10:51:47.703275+01 | 1486374707.70327 | pgbench_tellers_pkey  |           188416
 2017-02-06 10:51:47.703275+01 | 1486374707.70327 | pgbench_accounts_pkey |        224641024

 2017-02-06 10:51:48.794759+01 | 1486374708.79476 | pgbench_branches_pkey |            49152
 2017-02-06 10:51:48.794759+01 | 1486374708.79476 | pgbench_tellers_pkey  |           188416
 2017-02-06 10:51:48.794759+01 | 1486374708.79476 | pgbench_accounts_pkey |        224641024

 2017-02-06 10:51:49.876253+01 | 1486374709.87625 | pgbench_branches_pkey |            49152
 2017-02-06 10:51:49.876253+01 | 1486374709.87625 | pgbench_tellers_pkey  |           188416
 2017-02-06 10:51:49.876253+01 | 1486374709.87625 | pgbench_accounts_pkey |        224641024

 2017-02-06 10:51:50.945422+01 | 1486374710.94542 | pgbench_branches_pkey |            49152
 2017-02-06 10:51:50.945422+01 | 1486374710.94542 | pgbench_tellers_pkey  |           188416
 2017-02-06 10:51:50.945422+01 | 1486374710.94542 | pgbench_accounts_pkey |        224641024

 2017-02-06 10:51:52.026134+01 | 1486374712.02613 | pgbench_branches_pkey |            49152
 2017-02-06 10:51:52.026134+01 | 1486374712.02613 | pgbench_tellers_pkey  |           188416
 2017-02-06 10:51:52.026134+01 | 1486374712.02613 | pgbench_accounts_pkey |        224641024

 2017-02-06 10:51:53.102807+01 | 1486374713.10281 | pgbench_branches_pkey |            49152
 2017-02-06 10:51:53.102807+01 | 1486374713.10281 | pgbench_tellers_pkey  |           188416
 2017-02-06 10:51:53.102807+01 | 1486374713.10281 | pgbench_accounts_pkey |        224641024

 2017-02-06 10:51:54.18729+01 | 1486374714.18729 | pgbench_branches_pkey |            49152
 2017-02-06 10:51:54.18729+01 | 1486374714.18729 | pgbench_tellers_pkey  |           188416
 2017-02-06 10:51:54.18729+01 | 1486374714.18729 | pgbench_accounts_pkey |        224641024

 2017-02-06 10:51:55.283611+01 | 1486374715.28361 | pgbench_branches_pkey |            49152
 2017-02-06 10:51:55.283611+01 | 1486374715.28361 | pgbench_tellers_pkey  |           188416
 2017-02-06 10:51:55.283611+01 | 1486374715.28361 | pgbench_accounts_pkey |        224641024

 2017-02-06 10:51:56.371413+01 | 1486374716.37141 | pgbench_branches_pkey |            49152
 2017-02-06 10:51:56.371413+01 | 1486374716.37141 | pgbench_tellers_pkey  |           188416
 2017-02-06 10:51:56.371413+01 | 1486374716.37141 | pgbench_accounts_pkey |        224641024

 2017-02-06 10:51:57.465962+01 | 1486374717.46596 | pgbench_branches_pkey |            49152
 2017-02-06 10:51:57.465962+01 | 1486374717.46596 | pgbench_tellers_pkey  |           188416
 2017-02-06 10:51:57.465962+01 | 1486374717.46596 | pgbench_accounts_pkey |        224641024

 2017-02-06 10:51:58.554259+01 | 1486374718.55426 | pgbench_branches_pkey |            49152
 2017-02-06 10:51:58.554259+01 | 1486374718.55426 | pgbench_tellers_pkey  |           188416
 2017-02-06 10:51:58.554259+01 | 1486374718.55426 | pgbench_accounts_pkey |        224641024

 2017-02-06 10:51:59.662771+01 | 1486374719.66277 | pgbench_branches_pkey |            49152
 2017-02-06 10:51:59.662771+01 | 1486374719.66277 | pgbench_tellers_pkey  |           188416
 2017-02-06 10:51:59.662771+01 | 1486374719.66277 | pgbench_accounts_pkey |        224641024

 2017-02-06 10:52:00.759682+01 | 1486374720.75968 | pgbench_branches_pkey |            49152
 2017-02-06 10:52:00.759682+01 | 1486374720.75968 | pgbench_tellers_pkey  |           188416
 2017-02-06 10:52:00.759682+01 | 1486374720.75968 | pgbench_accounts_pkey |        224641024

 2017-02-06 10:52:01.845214+01 | 1486374721.84521 | pgbench_branches_pkey |            49152
 2017-02-06 10:52:01.845214+01 | 1486374721.84521 | pgbench_tellers_pkey  |           188416
 2017-02-06 10:52:01.845214+01 | 1486374721.84521 | pgbench_accounts_pkey |        224641024

 2017-02-06 10:52:02.923763+01 | 1486374722.92376 | pgbench_branches_pkey |            49152
 2017-02-06 10:52:02.923763+01 | 1486374722.92376 | pgbench_tellers_pkey  |           188416
 2017-02-06 10:52:02.923763+01 | 1486374722.92376 | pgbench_accounts_pkey |        224641024

 2017-02-06 10:52:04.009666+01 | 1486374724.00967 | pgbench_branches_pkey |            49152
 2017-02-06 10:52:04.009666+01 | 1486374724.00967 | pgbench_tellers_pkey  |           188416
 2017-02-06 10:52:04.009666+01 | 1486374724.00967 | pgbench_accounts_pkey |        224641024

 2017-02-06 10:52:05.087024+01 | 1486374725.08702 | pgbench_branches_pkey |            49152
 2017-02-06 10:52:05.087024+01 | 1486374725.08702 | pgbench_tellers_pkey  |           188416
 2017-02-06 10:52:05.087024+01 | 1486374725.08702 | pgbench_accounts_pkey |        224641024

 2017-02-06 10:52:06.178902+01 | 1486374726.1789 | pgbench_branches_pkey |            49152
 2017-02-06 10:52:06.178902+01 | 1486374726.1789 | pgbench_tellers_pkey  |           188416
 2017-02-06 10:52:06.178902+01 | 1486374726.1789 | pgbench_accounts_pkey |        224641024

 2017-02-06 10:52:07.270691+01 | 1486374727.27069 | pgbench_branches_pkey |            49152
 2017-02-06 10:52:07.270691+01 | 1486374727.27069 | pgbench_tellers_pkey  |           188416
 2017-02-06 10:52:07.270691+01 | 1486374727.27069 | pgbench_accounts_pkey |        224641024

 2017-02-06 10:52:08.365769+01 | 1486374728.36577 | pgbench_branches_pkey |            49152
 2017-02-06 10:52:08.365769+01 | 1486374728.36577 | pgbench_tellers_pkey  |           188416
 2017-02-06 10:52:08.365769+01 | 1486374728.36577 | pgbench_accounts_pkey |        224641024

 2017-02-06 10:52:09.459485+01 | 1486374729.45949 | pgbench_branches_pkey |            49152
 2017-02-06 10:52:09.459485+01 | 1486374729.45949 | pgbench_tellers_pkey  |           188416
 2017-02-06 10:52:09.459485+01 | 1486374729.45949 | pgbench_accounts_pkey |        224641024

 2017-02-06 10:52:10.561629+01 | 1486374730.56163 | pgbench_branches_pkey |            49152
 2017-02-06 10:52:10.561629+01 | 1486374730.56163 | pgbench_tellers_pkey  |           188416
 2017-02-06 10:52:10.561629+01 | 1486374730.56163 | pgbench_accounts_pkey |        224641024

 2017-02-06 10:52:11.653901+01 | 1486374731.6539 | pgbench_branches_pkey |            49152
 2017-02-06 10:52:11.653901+01 | 1486374731.6539 | pgbench_tellers_pkey  |           188416
 2017-02-06 10:52:11.653901+01 | 1486374731.6539 | pgbench_accounts_pkey |        224641024

 2017-02-06 10:52:12.745149+01 | 1486374732.74515 | pgbench_branches_pkey |            49152
 2017-02-06 10:52:12.745149+01 | 1486374732.74515 | pgbench_tellers_pkey  |           188416
 2017-02-06 10:52:12.745149+01 | 1486374732.74515 | pgbench_accounts_pkey |        224641024

 2017-02-06 10:52:13.832867+01 | 1486374733.83287 | pgbench_branches_pkey |            49152
 2017-02-06 10:52:13.832867+01 | 1486374733.83287 | pgbench_tellers_pkey  |           188416
 2017-02-06 10:52:13.832867+01 | 1486374733.83287 | pgbench_accounts_pkey |        224641024

 2017-02-06 10:52:14.91466+01 | 1486374734.91466 | pgbench_branches_pkey |            49152
 2017-02-06 10:52:14.91466+01 | 1486374734.91466 | pgbench_tellers_pkey  |           188416
 2017-02-06 10:52:14.91466+01 | 1486374734.91466 | pgbench_accounts_pkey |        224641024

 2017-02-06 10:52:15.998774+01 | 1486374735.99877 | pgbench_branches_pkey |            49152
 2017-02-06 10:52:15.998774+01 | 1486374735.99877 | pgbench_tellers_pkey  |           188416
 2017-02-06 10:52:15.998774+01 | 1486374735.99877 | pgbench_accounts_pkey |        224641024

 2017-02-06 10:52:17.075232+01 | 1486374737.07523 | pgbench_branches_pkey |            49152
 2017-02-06 10:52:17.075232+01 | 1486374737.07523 | pgbench_tellers_pkey  |           188416
 2017-02-06 10:52:17.075232+01 | 1486374737.07523 | pgbench_accounts_pkey |        224641024

 2017-02-06 10:52:18.161073+01 | 1486374738.16107 | pgbench_branches_pkey |            49152
 2017-02-06 10:52:18.161073+01 | 1486374738.16107 | pgbench_tellers_pkey  |           188416
 2017-02-06 10:52:18.161073+01 | 1486374738.16107 | pgbench_accounts_pkey |        224641024

 2017-02-06 10:52:19.242686+01 | 1486374739.24269 | pgbench_branches_pkey |            49152
 2017-02-06 10:52:19.242686+01 | 1486374739.24269 | pgbench_tellers_pkey  |           188416
 2017-02-06 10:52:19.242686+01 | 1486374739.24269 | pgbench_accounts_pkey |        224641024

 2017-02-06 10:52:20.32996+01 | 1486374740.32996 | pgbench_branches_pkey |            49152
 2017-02-06 10:52:20.32996+01 | 1486374740.32996 | pgbench_tellers_pkey  |           188416
 2017-02-06 10:52:20.32996+01 | 1486374740.32996 | pgbench_accounts_pkey |        224641024

 2017-02-06 10:52:21.424619+01 | 1486374741.42462 | pgbench_branches_pkey |            49152
 2017-02-06 10:52:21.424619+01 | 1486374741.42462 | pgbench_tellers_pkey  |           188416
 2017-02-06 10:52:21.424619+01 | 1486374741.42462 | pgbench_accounts_pkey |        224641024

 2017-02-06 10:52:22.533466+01 | 1486374742.53347 | pgbench_branches_pkey |            49152
 2017-02-06 10:52:22.533466+01 | 1486374742.53347 | pgbench_tellers_pkey  |           188416
 2017-02-06 10:52:22.533466+01 | 1486374742.53347 | pgbench_accounts_pkey |        224641024

 2017-02-06 10:52:23.636448+01 | 1486374743.63645 | pgbench_branches_pkey |            49152
 2017-02-06 10:52:23.636448+01 | 1486374743.63645 | pgbench_tellers_pkey  |           188416
 2017-02-06 10:52:23.636448+01 | 1486374743.63645 | pgbench_accounts_pkey |        224641024

 2017-02-06 10:52:24.727786+01 | 1486374744.72779 | pgbench_branches_pkey |            49152
 2017-02-06 10:52:24.727786+01 | 1486374744.72779 | pgbench_tellers_pkey  |           188416
 2017-02-06 10:52:24.727786+01 | 1486374744.72779 | pgbench_accounts_pkey |        224641024

 2017-02-06 10:52:25.813995+01 | 1486374745.81399 | pgbench_branches_pkey |            49152
 2017-02-06 10:52:25.813995+01 | 1486374745.81399 | pgbench_tellers_pkey  |           188416
 2017-02-06 10:52:25.813995+01 | 1486374745.81399 | pgbench_accounts_pkey |        224641024

 2017-02-06 10:52:26.898822+01 | 1486374746.89882 | pgbench_branches_pkey |            49152
 2017-02-06 10:52:26.898822+01 | 1486374746.89882 | pgbench_tellers_pkey  |           188416
 2017-02-06 10:52:26.898822+01 | 1486374746.89882 | pgbench_accounts_pkey |        224641024

 2017-02-06 10:52:27.982464+01 | 1486374747.98246 | pgbench_branches_pkey |            49152
 2017-02-06 10:52:27.982464+01 | 1486374747.98246 | pgbench_tellers_pkey  |           188416
 2017-02-06 10:52:27.982464+01 | 1486374747.98246 | pgbench_accounts_pkey |        224641024

 2017-02-06 10:52:29.059581+01 | 1486374749.05958 | pgbench_branches_pkey |            49152
 2017-02-06 10:52:29.059581+01 | 1486374749.05958 | pgbench_tellers_pkey  |           188416
 2017-02-06 10:52:29.059581+01 | 1486374749.05958 | pgbench_accounts_pkey |        224641024

 2017-02-06 10:52:30.137671+01 | 1486374750.13767 | pgbench_branches_pkey |            49152
 2017-02-06 10:52:30.137671+01 | 1486374750.13767 | pgbench_tellers_pkey  |           188416
 2017-02-06 10:52:30.137671+01 | 1486374750.13767 | pgbench_accounts_pkey |        224641024

 2017-02-06 10:52:31.215075+01 | 1486374751.21508 | pgbench_branches_pkey |            49152
 2017-02-06 10:52:31.215075+01 | 1486374751.21508 | pgbench_tellers_pkey  |           188416
 2017-02-06 10:52:31.215075+01 | 1486374751.21508 | pgbench_accounts_pkey |        224641024

 2017-02-06 10:52:32.302633+01 | 1486374752.30263 | pgbench_branches_pkey |            49152
 2017-02-06 10:52:32.302633+01 | 1486374752.30263 | pgbench_tellers_pkey  |           188416
 2017-02-06 10:52:32.302633+01 | 1486374752.30263 | pgbench_accounts_pkey |        224641024

 2017-02-06 10:52:33.397258+01 | 1486374753.39726 | pgbench_branches_pkey |            49152
 2017-02-06 10:52:33.397258+01 | 1486374753.39726 | pgbench_tellers_pkey  |           188416
 2017-02-06 10:52:33.397258+01 | 1486374753.39726 | pgbench_accounts_pkey |        224641024

 2017-02-06 10:52:34.495026+01 | 1486374754.49503 | pgbench_branches_pkey |            49152
 2017-02-06 10:52:34.495026+01 | 1486374754.49503 | pgbench_tellers_pkey  |           188416
 2017-02-06 10:52:34.495026+01 | 1486374754.49503 | pgbench_accounts_pkey |        224641024

 2017-02-06 10:52:35.60083+01 | 1486374755.60083 | pgbench_branches_pkey |            49152
 2017-02-06 10:52:35.60083+01 | 1486374755.60083 | pgbench_tellers_pkey  |           188416
 2017-02-06 10:52:35.60083+01 | 1486374755.60083 | pgbench_accounts_pkey |        224641024

 2017-02-06 10:52:36.708537+01 | 1486374756.70854 | pgbench_branches_pkey |            49152
 2017-02-06 10:52:36.708537+01 | 1486374756.70854 | pgbench_tellers_pkey  |           188416
 2017-02-06 10:52:36.708537+01 | 1486374756.70854 | pgbench_accounts_pkey |        224641024

 2017-02-06 10:52:37.802307+01 | 1486374757.80231 | pgbench_branches_pkey |            49152
 2017-02-06 10:52:37.802307+01 | 1486374757.80231 | pgbench_tellers_pkey  |           188416
 2017-02-06 10:52:37.802307+01 | 1486374757.80231 | pgbench_accounts_pkey |        224641024

 2017-02-06 10:52:38.880797+01 | 1486374758.8808 | pgbench_branches_pkey |            49152
 2017-02-06 10:52:38.880797+01 | 1486374758.8808 | pgbench_tellers_pkey  |           188416
 2017-02-06 10:52:38.880797+01 | 1486374758.8808 | pgbench_accounts_pkey |        224641024

 2017-02-06 10:52:39.973828+01 | 1486374759.97383 | pgbench_branches_pkey |            49152
 2017-02-06 10:52:39.973828+01 | 1486374759.97383 | pgbench_tellers_pkey  |           188416
 2017-02-06 10:52:39.973828+01 | 1486374759.97383 | pgbench_accounts_pkey |        224641024

 2017-02-06 10:52:41.068034+01 | 1486374761.06803 | pgbench_branches_pkey |            49152
 2017-02-06 10:52:41.068034+01 | 1486374761.06803 | pgbench_tellers_pkey  |           188416
 2017-02-06 10:52:41.068034+01 | 1486374761.06803 | pgbench_accounts_pkey |        224641024

 2017-02-06 10:52:42.156027+01 | 1486374762.15603 | pgbench_branches_pkey |            49152
 2017-02-06 10:52:42.156027+01 | 1486374762.15603 | pgbench_tellers_pkey  |           188416
 2017-02-06 10:52:42.156027+01 | 1486374762.15603 | pgbench_accounts_pkey |        224641024

 2017-02-06 10:52:43.243178+01 | 1486374763.24318 | pgbench_branches_pkey |            49152
 2017-02-06 10:52:43.243178+01 | 1486374763.24318 | pgbench_tellers_pkey  |           188416
 2017-02-06 10:52:43.243178+01 | 1486374763.24318 | pgbench_accounts_pkey |        224641024

 2017-02-06 10:52:44.336087+01 | 1486374764.33609 | pgbench_branches_pkey |            49152
 2017-02-06 10:52:44.336087+01 | 1486374764.33609 | pgbench_tellers_pkey  |           188416
 2017-02-06 10:52:44.336087+01 | 1486374764.33609 | pgbench_accounts_pkey |        224641024

 2017-02-06 10:52:45.420871+01 | 1486374765.42087 | pgbench_branches_pkey |            49152
 2017-02-06 10:52:45.420871+01 | 1486374765.42087 | pgbench_tellers_pkey  |           188416
 2017-02-06 10:52:45.420871+01 | 1486374765.42087 | pgbench_accounts_pkey |        224641024

 2017-02-06 10:52:46.510878+01 | 1486374766.51088 | pgbench_branches_pkey |            49152
 2017-02-06 10:52:46.510878+01 | 1486374766.51088 | pgbench_tellers_pkey  |           188416
 2017-02-06 10:52:46.510878+01 | 1486374766.51088 | pgbench_accounts_pkey |        224641024

 2017-02-06 10:52:47.60873+01 | 1486374767.60873 | pgbench_branches_pkey |            49152
 2017-02-06 10:52:47.60873+01 | 1486374767.60873 | pgbench_tellers_pkey  |           188416
 2017-02-06 10:52:47.60873+01 | 1486374767.60873 | pgbench_accounts_pkey |        224641024

 2017-02-06 10:52:48.71886+01 | 1486374768.71886 | pgbench_branches_pkey |            49152
 2017-02-06 10:52:48.71886+01 | 1486374768.71886 | pgbench_tellers_pkey  |           188416
 2017-02-06 10:52:48.71886+01 | 1486374768.71886 | pgbench_accounts_pkey |        224641024

 2017-02-06 10:52:49.816657+01 | 1486374769.81666 | pgbench_branches_pkey |            49152
 2017-02-06 10:52:49.816657+01 | 1486374769.81666 | pgbench_tellers_pkey  |           188416
 2017-02-06 10:52:49.816657+01 | 1486374769.81666 | pgbench_accounts_pkey |        224641024

 2017-02-06 10:52:50.905751+01 | 1486374770.90575 | pgbench_branches_pkey |            49152
 2017-02-06 10:52:50.905751+01 | 1486374770.90575 | pgbench_tellers_pkey  |           188416
 2017-02-06 10:52:50.905751+01 | 1486374770.90575 | pgbench_accounts_pkey |        224641024

 2017-02-06 10:52:51.979714+01 | 1486374771.97971 | pgbench_branches_pkey |            49152
 2017-02-06 10:52:51.979714+01 | 1486374771.97971 | pgbench_tellers_pkey  |           188416
 2017-02-06 10:52:51.979714+01 | 1486374771.97971 | pgbench_accounts_pkey |        224641024

 2017-02-06 10:52:53.057891+01 | 1486374773.05789 | pgbench_branches_pkey |            49152
 2017-02-06 10:52:53.057891+01 | 1486374773.05789 | pgbench_tellers_pkey  |           188416
 2017-02-06 10:52:53.057891+01 | 1486374773.05789 | pgbench_accounts_pkey |        224641024

 2017-02-06 10:52:54.13737+01 | 1486374774.13737 | pgbench_branches_pkey |            49152
 2017-02-06 10:52:54.13737+01 | 1486374774.13737 | pgbench_tellers_pkey  |           188416
 2017-02-06 10:52:54.13737+01 | 1486374774.13737 | pgbench_accounts_pkey |        224641024

 2017-02-06 10:52:55.216731+01 | 1486374775.21673 | pgbench_branches_pkey |            49152
 2017-02-06 10:52:55.216731+01 | 1486374775.21673 | pgbench_tellers_pkey  |           188416
 2017-02-06 10:52:55.216731+01 | 1486374775.21673 | pgbench_accounts_pkey |        224641024

 2017-02-06 10:52:56.290957+01 | 1486374776.29096 | pgbench_branches_pkey |            49152
 2017-02-06 10:52:56.290957+01 | 1486374776.29096 | pgbench_tellers_pkey  |           188416
 2017-02-06 10:52:56.290957+01 | 1486374776.29096 | pgbench_accounts_pkey |        224641024

 2017-02-06 10:52:57.378031+01 | 1486374777.37803 | pgbench_branches_pkey |            49152
 2017-02-06 10:52:57.378031+01 | 1486374777.37803 | pgbench_tellers_pkey  |           188416
 2017-02-06 10:52:57.378031+01 | 1486374777.37803 | pgbench_accounts_pkey |        224641024

 2017-02-06 10:52:58.467232+01 | 1486374778.46723 | pgbench_branches_pkey |            49152
 2017-02-06 10:52:58.467232+01 | 1486374778.46723 | pgbench_tellers_pkey  |           188416
 2017-02-06 10:52:58.467232+01 | 1486374778.46723 | pgbench_accounts_pkey |        224641024

 2017-02-06 10:52:59.568566+01 | 1486374779.56857 | pgbench_branches_pkey |            49152
 2017-02-06 10:52:59.568566+01 | 1486374779.56857 | pgbench_tellers_pkey  |           188416
 2017-02-06 10:52:59.568566+01 | 1486374779.56857 | pgbench_accounts_pkey |        224641024

 2017-02-06 10:53:00.667966+01 | 1486374780.66797 | pgbench_branches_pkey |            49152
 2017-02-06 10:53:00.667966+01 | 1486374780.66797 | pgbench_tellers_pkey  |           188416
 2017-02-06 10:53:00.667966+01 | 1486374780.66797 | pgbench_accounts_pkey |        224641024

 2017-02-06 10:53:01.765112+01 | 1486374781.76511 | pgbench_branches_pkey |            49152
 2017-02-06 10:53:01.765112+01 | 1486374781.76511 | pgbench_tellers_pkey  |           188416
 2017-02-06 10:53:01.765112+01 | 1486374781.76511 | pgbench_accounts_pkey |        224641024

 2017-02-06 10:53:02.866492+01 | 1486374782.86649 | pgbench_branches_pkey |            49152
 2017-02-06 10:53:02.866492+01 | 1486374782.86649 | pgbench_tellers_pkey  |           188416
 2017-02-06 10:53:02.866492+01 | 1486374782.86649 | pgbench_accounts_pkey |        224641024

 2017-02-06 10:53:03.949786+01 | 1486374783.94979 | pgbench_branches_pkey |            49152
 2017-02-06 10:53:03.949786+01 | 1486374783.94979 | pgbench_tellers_pkey  |           188416
 2017-02-06 10:53:03.949786+01 | 1486374783.94979 | pgbench_accounts_pkey |        224641024

 2017-02-06 10:53:05.027752+01 | 1486374785.02775 | pgbench_branches_pkey |            49152
 2017-02-06 10:53:05.027752+01 | 1486374785.02775 | pgbench_tellers_pkey  |           188416
 2017-02-06 10:53:05.027752+01 | 1486374785.02775 | pgbench_accounts_pkey |        224641024

 2017-02-06 10:53:06.114892+01 | 1486374786.11489 | pgbench_branches_pkey |            49152
 2017-02-06 10:53:06.114892+01 | 1486374786.11489 | pgbench_tellers_pkey  |           188416
 2017-02-06 10:53:06.114892+01 | 1486374786.11489 | pgbench_accounts_pkey |        224641024

 2017-02-06 10:53:07.201923+01 | 1486374787.20192 | pgbench_branches_pkey |            49152
 2017-02-06 10:53:07.201923+01 | 1486374787.20192 | pgbench_tellers_pkey  |           188416
 2017-02-06 10:53:07.201923+01 | 1486374787.20192 | pgbench_accounts_pkey |        224641024

 2017-02-06 10:53:08.298212+01 | 1486374788.29821 | pgbench_branches_pkey |            49152
 2017-02-06 10:53:08.298212+01 | 1486374788.29821 | pgbench_tellers_pkey  |           188416
 2017-02-06 10:53:08.298212+01 | 1486374788.29821 | pgbench_accounts_pkey |        224641024

 2017-02-06 10:53:09.373114+01 | 1486374789.37311 | pgbench_branches_pkey |            49152
 2017-02-06 10:53:09.373114+01 | 1486374789.37311 | pgbench_tellers_pkey  |           188416
 2017-02-06 10:53:09.373114+01 | 1486374789.37311 | pgbench_accounts_pkey |        224641024

 2017-02-06 10:53:10.468081+01 | 1486374790.46808 | pgbench_branches_pkey |            49152
 2017-02-06 10:53:10.468081+01 | 1486374790.46808 | pgbench_tellers_pkey  |           188416
 2017-02-06 10:53:10.468081+01 | 1486374790.46808 | pgbench_accounts_pkey |        224641024

 2017-02-06 10:53:11.565263+01 | 1486374791.56526 | pgbench_branches_pkey |            49152
 2017-02-06 10:53:11.565263+01 | 1486374791.56526 | pgbench_tellers_pkey  |           188416
 2017-02-06 10:53:11.565263+01 | 1486374791.56526 | pgbench_accounts_pkey |        224641024

 2017-02-06 10:53:12.658742+01 | 1486374792.65874 | pgbench_branches_pkey |            49152
 2017-02-06 10:53:12.658742+01 | 1486374792.65874 | pgbench_tellers_pkey  |           188416
 2017-02-06 10:53:12.658742+01 | 1486374792.65874 | pgbench_accounts_pkey |        224641024

 2017-02-06 10:53:13.871089+01 | 1486374793.87109 | pgbench_branches_pkey |            49152
 2017-02-06 10:53:13.871089+01 | 1486374793.87109 | pgbench_tellers_pkey  |           188416
 2017-02-06 10:53:13.871089+01 | 1486374793.87109 | pgbench_accounts_pkey |        224641024

