 2017-02-04 13:46:13.8576+01 | 1486212373.8576 |                 0 |              24 |                 40838 |                 2144 |            4759072 |             0 |                0 |         1784770 |                     0 |       1489486 | 2017-02-04 11:49:56.627292+01

 2017-02-04 13:46:14.948014+01 | 1486212374.94801 |                 0 |              24 |                 40838 |                 2144 |            4759072 |             0 |                0 |         1784770 |                     0 |       1489596 | 2017-02-04 11:49:56.627292+01

 2017-02-04 13:46:16.025737+01 | 1486212376.02574 |                 0 |              24 |                 40838 |                 2144 |            4759072 |             0 |                0 |         1784770 |                     0 |       1489850 | 2017-02-04 11:49:56.627292+01

 2017-02-04 13:46:17.10025+01 | 1486212377.10025 |                 0 |              24 |                 40838 |                 2144 |            4759072 |             0 |                0 |         1784770 |                     0 |       1490160 | 2017-02-04 11:49:56.627292+01

 2017-02-04 13:46:18.17895+01 | 1486212378.17895 |                 0 |              24 |                 40838 |                 2144 |            4759072 |             0 |                0 |         1784770 |                     0 |       1490369 | 2017-02-04 11:49:56.627292+01

 2017-02-04 13:46:19.253022+01 | 1486212379.25302 |                 0 |              24 |                 40838 |                 2144 |            4759072 |             0 |                0 |         1784770 |                     0 |       1490522 | 2017-02-04 11:49:56.627292+01

 2017-02-04 13:46:20.33402+01 | 1486212380.33402 |                 0 |              24 |                 40838 |                 2144 |            4759072 |             0 |                0 |         1784770 |                     0 |       1490862 | 2017-02-04 11:49:56.627292+01

 2017-02-04 13:46:21.409442+01 | 1486212381.40944 |                 0 |              24 |                 40838 |                 2144 |            4759072 |             0 |                0 |         1784770 |                     0 |       1491031 | 2017-02-04 11:49:56.627292+01

 2017-02-04 13:46:22.48236+01 | 1486212382.48236 |                 0 |              24 |                 40838 |                 2144 |            4759072 |             0 |                0 |         1784770 |                     0 |       1491154 | 2017-02-04 11:49:56.627292+01

 2017-02-04 13:46:23.557578+01 | 1486212383.55758 |                 0 |              24 |                 40838 |                 2144 |            4759072 |             0 |                0 |         1784770 |                     0 |       1491523 | 2017-02-04 11:49:56.627292+01

 2017-02-04 13:46:24.634126+01 | 1486212384.63413 |                 0 |              24 |                 40838 |                 2144 |            4759072 |             0 |                0 |         1784770 |                     0 |       1491801 | 2017-02-04 11:49:56.627292+01

 2017-02-04 13:46:25.712078+01 | 1486212385.71208 |                 0 |              24 |                 40838 |                 2144 |            4759072 |             0 |                0 |         1784770 |                     0 |       1492033 | 2017-02-04 11:49:56.627292+01

 2017-02-04 13:46:26.790819+01 | 1486212386.79082 |                 0 |              24 |                 40838 |                 2144 |            4759072 |             0 |                0 |         1784770 |                     0 |       1492266 | 2017-02-04 11:49:56.627292+01

 2017-02-04 13:46:27.865198+01 | 1486212387.8652 |                 0 |              24 |                 40838 |                 2144 |            4759072 |             0 |                0 |         1784770 |                     0 |       1492562 | 2017-02-04 11:49:56.627292+01

 2017-02-04 13:46:28.942038+01 | 1486212388.94204 |                 0 |              24 |                 40838 |                 2144 |            4759072 |             0 |                0 |         1784770 |                     0 |       1492964 | 2017-02-04 11:49:56.627292+01

 2017-02-04 13:46:30.02577+01 | 1486212390.02577 |                 0 |              24 |                 40838 |                 2144 |            4759072 |             0 |                0 |         1784770 |                     0 |       1493344 | 2017-02-04 11:49:56.627292+01

 2017-02-04 13:46:31.104203+01 | 1486212391.1042 |                 0 |              24 |                 40838 |                 2144 |            4759072 |             0 |                0 |         1784770 |                     0 |       1493573 | 2017-02-04 11:49:56.627292+01

 2017-02-04 13:46:32.176997+01 | 1486212392.177 |                 0 |              24 |                 40838 |                 2144 |            4759072 |             0 |                0 |         1784770 |                     0 |       1493782 | 2017-02-04 11:49:56.627292+01

 2017-02-04 13:46:33.256476+01 | 1486212393.25648 |                 0 |              24 |                 40838 |                 2144 |            4759072 |             0 |                0 |         1784770 |                     0 |       1494100 | 2017-02-04 11:49:56.627292+01

 2017-02-04 13:46:34.336639+01 | 1486212394.33664 |                 0 |              24 |                 40838 |                 2144 |            4759072 |             0 |                0 |         1784770 |                     0 |       1494321 | 2017-02-04 11:49:56.627292+01

 2017-02-04 13:46:35.411591+01 | 1486212395.41159 |                 0 |              24 |                 40838 |                 2144 |            4759072 |             0 |                0 |         1784770 |                     0 |       1494620 | 2017-02-04 11:49:56.627292+01

 2017-02-04 13:46:36.489185+01 | 1486212396.48919 |                 0 |              24 |                 40838 |                 2144 |            4759072 |             0 |                0 |         1784770 |                     0 |       1494763 | 2017-02-04 11:49:56.627292+01

 2017-02-04 13:46:37.568588+01 | 1486212397.56859 |                 0 |              24 |                 40838 |                 2144 |            4759072 |             0 |                0 |         1784770 |                     0 |       1495056 | 2017-02-04 11:49:56.627292+01

 2017-02-04 13:46:38.644431+01 | 1486212398.64443 |                 0 |              24 |                 40838 |                 2144 |            4759072 |             0 |                0 |         1784770 |                     0 |       1495311 | 2017-02-04 11:49:56.627292+01

 2017-02-04 13:46:39.722086+01 | 1486212399.72209 |                 0 |              24 |                 40838 |                 2144 |            4759072 |             0 |                0 |         1784770 |                     0 |       1495507 | 2017-02-04 11:49:56.627292+01

 2017-02-04 13:46:40.804755+01 | 1486212400.80475 |                 0 |              24 |                 40838 |                 2144 |            4759072 |             0 |                0 |         1784770 |                     0 |       1495733 | 2017-02-04 11:49:56.627292+01

 2017-02-04 13:46:41.882124+01 | 1486212401.88212 |                 0 |              24 |                 40838 |                 2144 |            4759072 |             0 |                0 |         1784770 |                     0 |       1496074 | 2017-02-04 11:49:56.627292+01

 2017-02-04 13:46:42.981952+01 | 1486212402.98195 |                 0 |              24 |                 40838 |                 2144 |            4759072 |             0 |                0 |         1784770 |                     0 |       1496260 | 2017-02-04 11:49:56.627292+01

 2017-02-04 13:46:44.063477+01 | 1486212404.06348 |                 0 |              24 |                 40838 |                 2144 |            4759072 |             0 |                0 |         1784770 |                     0 |       1496426 | 2017-02-04 11:49:56.627292+01

 2017-02-04 13:46:45.158994+01 | 1486212405.15899 |                 0 |              24 |                 40838 |                 2144 |            4759072 |             0 |                0 |         1784770 |                     0 |       1496735 | 2017-02-04 11:49:56.627292+01

 2017-02-04 13:46:46.239558+01 | 1486212406.23956 |                 0 |              24 |                 40838 |                 2144 |            4759072 |             0 |                0 |         1784770 |                     0 |       1497015 | 2017-02-04 11:49:56.627292+01

 2017-02-04 13:46:47.317898+01 | 1486212407.3179 |                 0 |              24 |                 40838 |                 2144 |            4759072 |             0 |                0 |         1784770 |                     0 |       1497229 | 2017-02-04 11:49:56.627292+01

 2017-02-04 13:46:48.397102+01 | 1486212408.3971 |                 0 |              24 |                 40838 |                 2144 |            4759072 |             0 |                0 |         1784770 |                     0 |       1497419 | 2017-02-04 11:49:56.627292+01

 2017-02-04 13:46:49.469984+01 | 1486212409.46998 |                 0 |              24 |                 40838 |                 2144 |            4759072 |             0 |                0 |         1784770 |                     0 |       1497691 | 2017-02-04 11:49:56.627292+01

 2017-02-04 13:46:50.5568+01 | 1486212410.5568 |                 0 |              24 |                 40838 |                 2144 |            4759072 |             0 |                0 |         1784770 |                     0 |       1497981 | 2017-02-04 11:49:56.627292+01

 2017-02-04 13:46:51.634932+01 | 1486212411.63493 |                 0 |              24 |                 40838 |                 2144 |            4759072 |             0 |                0 |         1784770 |                     0 |       1498127 | 2017-02-04 11:49:56.627292+01

 2017-02-04 13:46:52.711352+01 | 1486212412.71135 |                 0 |              24 |                 40838 |                 2144 |            4759072 |             0 |                0 |         1784770 |                     0 |       1498421 | 2017-02-04 11:49:56.627292+01

 2017-02-04 13:46:53.792614+01 | 1486212413.79261 |                 0 |              24 |                 40838 |                 2144 |            4759072 |             0 |                0 |         1784770 |                     0 |       1498567 | 2017-02-04 11:49:56.627292+01

 2017-02-04 13:46:54.877004+01 | 1486212414.877 |                 0 |              24 |                 40838 |                 2144 |            4759072 |             0 |                0 |         1784770 |                     0 |       1498837 | 2017-02-04 11:49:56.627292+01

 2017-02-04 13:46:55.953508+01 | 1486212415.95351 |                 0 |              24 |                 40838 |                 2144 |            4759072 |             0 |                0 |         1784770 |                     0 |       1499152 | 2017-02-04 11:49:56.627292+01

 2017-02-04 13:46:57.026685+01 | 1486212417.02668 |                 0 |              24 |                 40838 |                 2144 |            4759072 |             0 |                0 |         1784770 |                     0 |       1499347 | 2017-02-04 11:49:56.627292+01

 2017-02-04 13:46:58.104685+01 | 1486212418.10469 |                 0 |              24 |                 40838 |                 2144 |            4759072 |             0 |                0 |         1784770 |                     0 |       1499667 | 2017-02-04 11:49:56.627292+01

 2017-02-04 13:46:59.182254+01 | 1486212419.18225 |                 0 |              24 |                 40838 |                 2144 |            4759072 |             0 |                0 |         1784770 |                     0 |       1499841 | 2017-02-04 11:49:56.627292+01

 2017-02-04 13:47:00.258172+01 | 1486212420.25817 |                 0 |              24 |                 40838 |                 2144 |            4759072 |             0 |                0 |         1784770 |                     0 |       1500176 | 2017-02-04 11:49:56.627292+01

 2017-02-04 13:47:01.332772+01 | 1486212421.33277 |                 0 |              24 |                 40838 |                 2144 |            4759072 |             0 |                0 |         1784770 |                     0 |       1500365 | 2017-02-04 11:49:56.627292+01

 2017-02-04 13:47:02.415215+01 | 1486212422.41522 |                 0 |              24 |                 40838 |                 2144 |            4759072 |             0 |                0 |         1784770 |                     0 |       1500637 | 2017-02-04 11:49:56.627292+01

 2017-02-04 13:47:03.490079+01 | 1486212423.49008 |                 0 |              24 |                 40838 |                 2144 |            4759072 |             0 |                0 |         1784770 |                     0 |       1500802 | 2017-02-04 11:49:56.627292+01

 2017-02-04 13:47:04.562245+01 | 1486212424.56224 |                 0 |              24 |                 40838 |                 2144 |            4759072 |             0 |                0 |         1784770 |                     0 |       1501096 | 2017-02-04 11:49:56.627292+01

 2017-02-04 13:47:05.645857+01 | 1486212425.64586 |                 0 |              24 |                 40838 |                 2144 |            4759072 |             0 |                0 |         1784770 |                     0 |       1501332 | 2017-02-04 11:49:56.627292+01

 2017-02-04 13:47:06.722813+01 | 1486212426.72281 |                 0 |              24 |                 40838 |                 2144 |            4759072 |             0 |                0 |         1784770 |                     0 |       1501585 | 2017-02-04 11:49:56.627292+01

 2017-02-04 13:47:07.803533+01 | 1486212427.80353 |                 0 |              24 |                 40838 |                 2144 |            4759072 |             0 |                0 |         1784770 |                     0 |       1501769 | 2017-02-04 11:49:56.627292+01

 2017-02-04 13:47:08.878367+01 | 1486212428.87837 |                 0 |              24 |                 40838 |                 2144 |            4759072 |             0 |                0 |         1784770 |                     0 |       1502085 | 2017-02-04 11:49:56.627292+01

 2017-02-04 13:47:09.950442+01 | 1486212429.95044 |                 0 |              24 |                 40838 |                 2144 |            4759072 |             0 |                0 |         1784770 |                     0 |       1502326 | 2017-02-04 11:49:56.627292+01

 2017-02-04 13:47:11.021928+01 | 1486212431.02193 |                 0 |              24 |                 40838 |                 2144 |            4759072 |             0 |                0 |         1784770 |                     0 |       1502622 | 2017-02-04 11:49:56.627292+01

 2017-02-04 13:47:12.106321+01 | 1486212432.10632 |                 0 |              24 |                 40838 |                 2144 |            4759072 |             0 |                0 |         1784770 |                     0 |       1502750 | 2017-02-04 11:49:56.627292+01

 2017-02-04 13:47:13.183932+01 | 1486212433.18393 |                 0 |              24 |                 40838 |                 2144 |            4759072 |             0 |                0 |         1784770 |                     0 |       1502981 | 2017-02-04 11:49:56.627292+01

 2017-02-04 13:47:14.258902+01 | 1486212434.2589 |                 0 |              24 |                 40838 |                 2144 |            4759072 |             0 |                0 |         1784770 |                     0 |       1503208 | 2017-02-04 11:49:56.627292+01

 2017-02-04 13:47:15.336987+01 | 1486212435.33699 |                 0 |              24 |                 40838 |                 2144 |            4759072 |             0 |                0 |         1784770 |                     0 |       1503529 | 2017-02-04 11:49:56.627292+01

 2017-02-04 13:47:16.410612+01 | 1486212436.41061 |                 0 |              24 |                 40838 |                 2144 |            4759072 |             0 |                0 |         1784770 |                     0 |       1503842 | 2017-02-04 11:49:56.627292+01

 2017-02-04 13:47:17.490957+01 | 1486212437.49096 |                 0 |              24 |                 40838 |                 2144 |            4759072 |             0 |                0 |         1784770 |                     0 |       1504009 | 2017-02-04 11:49:56.627292+01

 2017-02-04 13:47:18.565172+01 | 1486212438.56517 |                 0 |              24 |                 40838 |                 2144 |            4759072 |             0 |                0 |         1784770 |                     0 |       1504222 | 2017-02-04 11:49:56.627292+01

 2017-02-04 13:47:19.644613+01 | 1486212439.64461 |                 0 |              24 |                 40838 |                 2144 |            4759072 |             0 |                0 |         1784770 |                     0 |       1504538 | 2017-02-04 11:49:56.627292+01

 2017-02-04 13:47:20.727703+01 | 1486212440.7277 |                 0 |              24 |                 40838 |                 2144 |            4759072 |             0 |                0 |         1784770 |                     0 |       1504727 | 2017-02-04 11:49:56.627292+01

 2017-02-04 13:47:21.805901+01 | 1486212441.8059 |                 0 |              24 |                 40838 |                 2144 |            4759072 |             0 |                0 |         1784770 |                     0 |       1504920 | 2017-02-04 11:49:56.627292+01

 2017-02-04 13:47:22.888094+01 | 1486212442.88809 |                 0 |              24 |                 40838 |                 2144 |            4759072 |             0 |                0 |         1784770 |                     0 |       1505143 | 2017-02-04 11:49:56.627292+01

 2017-02-04 13:47:23.963414+01 | 1486212443.96341 |                 0 |              24 |                 40838 |                 2144 |            4759072 |             0 |                0 |         1784770 |                     0 |       1505402 | 2017-02-04 11:49:56.627292+01

 2017-02-04 13:47:25.04963+01 | 1486212445.04963 |                 0 |              24 |                 40838 |                 2144 |            4759072 |             0 |                0 |         1784770 |                     0 |       1505548 | 2017-02-04 11:49:56.627292+01

 2017-02-04 13:47:26.130688+01 | 1486212446.13069 |                 0 |              24 |                 40838 |                 2144 |            4759072 |             0 |                0 |         1784770 |                     0 |       1505926 | 2017-02-04 11:49:56.627292+01

 2017-02-04 13:47:27.21671+01 | 1486212447.21671 |                 0 |              24 |                 40838 |                 2144 |            4759072 |             0 |                0 |         1784770 |                     0 |       1506253 | 2017-02-04 11:49:56.627292+01

 2017-02-04 13:47:28.289771+01 | 1486212448.28977 |                 0 |              24 |                 40838 |                 2144 |            4759072 |             0 |                0 |         1784770 |                     0 |       1506501 | 2017-02-04 11:49:56.627292+01

 2017-02-04 13:47:29.382977+01 | 1486212449.38298 |                 0 |              24 |                 40838 |                 2144 |            4759072 |             0 |                0 |         1784770 |                     0 |       1506664 | 2017-02-04 11:49:56.627292+01

 2017-02-04 13:47:30.458242+01 | 1486212450.45824 |                 0 |              24 |                 40838 |                 2144 |            4759072 |             0 |                0 |         1784770 |                     0 |       1506792 | 2017-02-04 11:49:56.627292+01

 2017-02-04 13:47:31.537274+01 | 1486212451.53727 |                 0 |              24 |                 40838 |                 2144 |            4759072 |             0 |                0 |         1784770 |                     0 |       1507186 | 2017-02-04 11:49:56.627292+01

 2017-02-04 13:47:32.619812+01 | 1486212452.61981 |                 0 |              24 |                 40838 |                 2144 |            4759072 |             0 |                0 |         1784770 |                     0 |       1507311 | 2017-02-04 11:49:56.627292+01

 2017-02-04 13:47:33.696665+01 | 1486212453.69667 |                 0 |              24 |                 40838 |                 2144 |            4759072 |             0 |                0 |         1784770 |                     0 |       1507751 | 2017-02-04 11:49:56.627292+01

 2017-02-04 13:47:34.769361+01 | 1486212454.76936 |                 0 |              24 |                 40838 |                 2144 |            4759072 |             0 |                0 |         1784770 |                     0 |       1507856 | 2017-02-04 11:49:56.627292+01

 2017-02-04 13:47:35.84237+01 | 1486212455.84237 |                 0 |              24 |                 40838 |                 2144 |            4759072 |             0 |                0 |         1784770 |                     0 |       1508093 | 2017-02-04 11:49:56.627292+01

 2017-02-04 13:47:36.921146+01 | 1486212456.92115 |                 0 |              24 |                 40838 |                 2144 |            4759072 |             0 |                0 |         1784770 |                     0 |       1508384 | 2017-02-04 11:49:56.627292+01

 2017-02-04 13:47:38.003565+01 | 1486212458.00357 |                 0 |              24 |                 40838 |                 2144 |            4759072 |             0 |                0 |         1784770 |                     0 |       1508656 | 2017-02-04 11:49:56.627292+01

 2017-02-04 13:47:39.084482+01 | 1486212459.08448 |                 0 |              24 |                 40838 |                 2144 |            4759072 |             0 |                0 |         1784770 |                     0 |       1509069 | 2017-02-04 11:49:56.627292+01

 2017-02-04 13:47:40.164004+01 | 1486212460.164 |                 0 |              24 |                 40838 |                 2144 |            4759072 |             0 |                0 |         1784770 |                     0 |       1509072 | 2017-02-04 11:49:56.627292+01

 2017-02-04 13:47:41.242517+01 | 1486212461.24252 |                 0 |              24 |                 40838 |                 2144 |            4759072 |             0 |                0 |         1784770 |                     0 |       1509382 | 2017-02-04 11:49:56.627292+01

 2017-02-04 13:47:42.321796+01 | 1486212462.3218 |                 0 |              24 |                 40838 |                 2144 |            4759072 |             0 |                0 |         1784770 |                     0 |       1509723 | 2017-02-04 11:49:56.627292+01

 2017-02-04 13:47:43.399803+01 | 1486212463.3998 |                 0 |              24 |                 40838 |                 2144 |            4759072 |             0 |                0 |         1784770 |                     0 |       1509862 | 2017-02-04 11:49:56.627292+01

 2017-02-04 13:47:44.478214+01 | 1486212464.47821 |                 0 |              24 |                 40838 |                 2144 |            4759072 |             0 |                0 |         1784770 |                     0 |       1510108 | 2017-02-04 11:49:56.627292+01

 2017-02-04 13:47:45.558513+01 | 1486212465.55851 |                 0 |              24 |                 40838 |                 2144 |            4759072 |             0 |                0 |         1784770 |                     0 |       1510385 | 2017-02-04 11:49:56.627292+01

 2017-02-04 13:47:46.641346+01 | 1486212466.64135 |                 0 |              24 |                 40838 |                 2144 |            4759072 |             0 |                0 |         1784770 |                     0 |       1510578 | 2017-02-04 11:49:56.627292+01

 2017-02-04 13:47:47.720629+01 | 1486212467.72063 |                 0 |              24 |                 40838 |                 2144 |            4759072 |             0 |                0 |         1784770 |                     0 |       1510883 | 2017-02-04 11:49:56.627292+01

 2017-02-04 13:47:48.798508+01 | 1486212468.79851 |                 0 |              24 |                 40838 |                 2144 |            4759072 |             0 |                0 |         1784770 |                     0 |       1511099 | 2017-02-04 11:49:56.627292+01

 2017-02-04 13:47:49.878421+01 | 1486212469.87842 |                 0 |              24 |                 40838 |                 2144 |            4759072 |             0 |                0 |         1784770 |                     0 |       1511387 | 2017-02-04 11:49:56.627292+01

 2017-02-04 13:47:50.958772+01 | 1486212470.95877 |                 0 |              24 |                 40838 |                 2144 |            4759072 |             0 |                0 |         1784770 |                     0 |       1511644 | 2017-02-04 11:49:56.627292+01

 2017-02-04 13:47:52.036642+01 | 1486212472.03664 |                 0 |              24 |                 40838 |                 2144 |            4759072 |             0 |                0 |         1784770 |                     0 |       1511849 | 2017-02-04 11:49:56.627292+01

 2017-02-04 13:47:53.114288+01 | 1486212473.11429 |                 0 |              24 |                 40838 |                 2144 |            4759072 |             0 |                0 |         1784770 |                     0 |       1512056 | 2017-02-04 11:49:56.627292+01

 2017-02-04 13:47:54.189429+01 | 1486212474.18943 |                 0 |              24 |                 40838 |                 2144 |            4759072 |             0 |                0 |         1784770 |                     0 |       1512262 | 2017-02-04 11:49:56.627292+01

 2017-02-04 13:47:55.268106+01 | 1486212475.26811 |                 0 |              24 |                 40838 |                 2144 |            4759072 |             0 |                0 |         1784770 |                     0 |       1512448 | 2017-02-04 11:49:56.627292+01

 2017-02-04 13:47:56.349278+01 | 1486212476.34928 |                 0 |              24 |                 40838 |                 2144 |            4759072 |             0 |                0 |         1784770 |                     0 |       1512837 | 2017-02-04 11:49:56.627292+01

 2017-02-04 13:47:57.431528+01 | 1486212477.43153 |                 0 |              24 |                 40838 |                 2144 |            4759072 |             0 |                0 |         1784770 |                     0 |       1512983 | 2017-02-04 11:49:56.627292+01

 2017-02-04 13:47:58.513032+01 | 1486212478.51303 |                 0 |              24 |                 40838 |                 2144 |            4759072 |             0 |                0 |         1784770 |                     0 |       1513272 | 2017-02-04 11:49:56.627292+01

 2017-02-04 13:47:59.59321+01 | 1486212479.59321 |                 0 |              24 |                 40838 |                 2144 |            4759072 |             0 |                0 |         1784770 |                     0 |       1513461 | 2017-02-04 11:49:56.627292+01

 2017-02-04 13:48:00.677775+01 | 1486212480.67777 |                 0 |              24 |                 40838 |                 2144 |            4759072 |             0 |                0 |         1784770 |                     0 |       1513774 | 2017-02-04 11:49:56.627292+01

 2017-02-04 13:48:01.759451+01 | 1486212481.75945 |                 0 |              24 |                 40838 |                 2144 |            4759072 |             0 |                0 |         1784770 |                     0 |       1513962 | 2017-02-04 11:49:56.627292+01

 2017-02-04 13:48:02.837009+01 | 1486212482.83701 |                 0 |              24 |                 40838 |                 2144 |            4759072 |             0 |                0 |         1784770 |                     0 |       1514199 | 2017-02-04 11:49:56.627292+01

 2017-02-04 13:48:03.910322+01 | 1486212483.91032 |                 0 |              24 |                 40838 |                 2144 |            4759072 |             0 |                0 |         1784770 |                     0 |       1514363 | 2017-02-04 11:49:56.627292+01

 2017-02-04 13:48:04.985595+01 | 1486212484.98559 |                 0 |              24 |                 40838 |                 2144 |            4759072 |             0 |                0 |         1784770 |                     0 |       1514673 | 2017-02-04 11:49:56.627292+01

 2017-02-04 13:48:06.059626+01 | 1486212486.05963 |                 0 |              24 |                 40838 |                 2144 |            4759072 |             0 |                0 |         1784770 |                     0 |       1514943 | 2017-02-04 11:49:56.627292+01

 2017-02-04 13:48:07.137409+01 | 1486212487.13741 |                 0 |              24 |                 40838 |                 2144 |            4759072 |             0 |                0 |         1784770 |                     0 |       1515195 | 2017-02-04 11:49:56.627292+01

 2017-02-04 13:48:08.226479+01 | 1486212488.22648 |                 0 |              24 |                 40838 |                 2144 |            4759072 |             0 |                0 |         1784770 |                     0 |       1515451 | 2017-02-04 11:49:56.627292+01

 2017-02-04 13:48:09.303255+01 | 1486212489.30326 |                 0 |              24 |                 40838 |                 2144 |            4759072 |             0 |                0 |         1784770 |                     0 |       1515737 | 2017-02-04 11:49:56.627292+01

 2017-02-04 13:48:10.385582+01 | 1486212490.38558 |                 0 |              24 |                 40838 |                 2144 |            4759072 |             0 |                0 |         1784770 |                     0 |       1515923 | 2017-02-04 11:49:56.627292+01

 2017-02-04 13:48:11.466404+01 | 1486212491.4664 |                 0 |              24 |                 40838 |                 2144 |            4759072 |             0 |                0 |         1784770 |                     0 |       1516187 | 2017-02-04 11:49:56.627292+01

 2017-02-04 13:48:12.548166+01 | 1486212492.54817 |                 0 |              24 |                 40838 |                 2144 |            4759072 |             0 |                0 |         1784770 |                     0 |       1516376 | 2017-02-04 11:49:56.627292+01

 2017-02-04 13:48:13.630009+01 | 1486212493.63001 |                 0 |              24 |                 40838 |                 2144 |            4759072 |             0 |                0 |         1784770 |                     0 |       1516607 | 2017-02-04 11:49:56.627292+01

 2017-02-04 13:48:14.704454+01 | 1486212494.70445 |                 0 |              24 |                 40838 |                 2144 |            4759072 |             0 |                0 |         1784770 |                     0 |       1516862 | 2017-02-04 11:49:56.627292+01

 2017-02-04 13:48:15.783607+01 | 1486212495.78361 |                 0 |              24 |                 40838 |                 2144 |            4759072 |             0 |                0 |         1784770 |                     0 |       1517078 | 2017-02-04 11:49:56.627292+01

 2017-02-04 13:48:16.865024+01 | 1486212496.86502 |                 0 |              24 |                 40838 |                 2144 |            4759072 |             0 |                0 |         1784770 |                     0 |       1517347 | 2017-02-04 11:49:56.627292+01

 2017-02-04 13:48:17.938088+01 | 1486212497.93809 |                 0 |              24 |                 40838 |                 2144 |            4759072 |             0 |                0 |         1784770 |                     0 |       1517616 | 2017-02-04 11:49:56.627292+01

 2017-02-04 13:48:19.015984+01 | 1486212499.01598 |                 0 |              24 |                 40838 |                 2144 |            4759072 |             0 |                0 |         1784770 |                     0 |       1517865 | 2017-02-04 11:49:56.627292+01

 2017-02-04 13:48:20.101253+01 | 1486212500.10125 |                 0 |              24 |                 40838 |                 2144 |            4759072 |             0 |                0 |         1784770 |                     0 |       1518098 | 2017-02-04 11:49:56.627292+01

 2017-02-04 13:48:21.18233+01 | 1486212501.18233 |                 0 |              24 |                 40838 |                 2144 |            4759072 |             0 |                0 |         1784770 |                     0 |       1518244 | 2017-02-04 11:49:56.627292+01

 2017-02-04 13:48:22.263715+01 | 1486212502.26372 |                 0 |              24 |                 40838 |                 2144 |            4759072 |             0 |                0 |         1784770 |                     0 |       1518560 | 2017-02-04 11:49:56.627292+01

 2017-02-04 13:48:23.33907+01 | 1486212503.33907 |                 0 |              24 |                 40838 |                 2144 |            4759072 |             0 |                0 |         1784770 |                     0 |       1518732 | 2017-02-04 11:49:56.627292+01

 2017-02-04 13:48:24.415125+01 | 1486212504.41512 |                 0 |              24 |                 40838 |                 2144 |            4759072 |             0 |                0 |         1784770 |                     0 |       1519058 | 2017-02-04 11:49:56.627292+01

 2017-02-04 13:48:25.488469+01 | 1486212505.48847 |                 0 |              24 |                 40838 |                 2144 |            4759072 |             0 |                0 |         1784770 |                     0 |       1519271 | 2017-02-04 11:49:56.627292+01

 2017-02-04 13:48:26.565934+01 | 1486212506.56593 |                 0 |              24 |                 40838 |                 2144 |            4759072 |             0 |                0 |         1784770 |                     0 |       1519484 | 2017-02-04 11:49:56.627292+01

 2017-02-04 13:48:27.646709+01 | 1486212507.64671 |                 0 |              24 |                 40838 |                 2144 |            4759072 |             0 |                0 |         1784770 |                     0 |       1519740 | 2017-02-04 11:49:56.627292+01

 2017-02-04 13:48:28.72393+01 | 1486212508.72393 |                 0 |              24 |                 40838 |                 2144 |            4759072 |             0 |                0 |         1784770 |                     0 |       1519989 | 2017-02-04 11:49:56.627292+01

 2017-02-04 13:48:29.798047+01 | 1486212509.79805 |                 0 |              24 |                 40838 |                 2144 |            4759072 |             0 |                0 |         1784770 |                     0 |       1520216 | 2017-02-04 11:49:56.627292+01

 2017-02-04 13:48:30.883967+01 | 1486212510.88397 |                 0 |              24 |                 40838 |                 2144 |            4759072 |             0 |                0 |         1784770 |                     0 |       1520509 | 2017-02-04 11:49:56.627292+01

 2017-02-04 13:48:31.963768+01 | 1486212511.96377 |                 0 |              24 |                 40838 |                 2144 |            4759072 |             0 |                0 |         1784770 |                     0 |       1520698 | 2017-02-04 11:49:56.627292+01

 2017-02-04 13:48:33.038787+01 | 1486212513.03879 |                 0 |              24 |                 40838 |                 2144 |            4759072 |             0 |                0 |         1784770 |                     0 |       1520842 | 2017-02-04 11:49:56.627292+01

 2017-02-04 13:48:34.108647+01 | 1486212514.10865 |                 0 |              24 |                 40838 |                 2144 |            4759072 |             0 |                0 |         1784770 |                     0 |       1521132 | 2017-02-04 11:49:56.627292+01

 2017-02-04 13:48:35.176036+01 | 1486212515.17604 |                 0 |              24 |                 40838 |                 2144 |            4759072 |             0 |                0 |         1784770 |                     0 |       1521451 | 2017-02-04 11:49:56.627292+01

 2017-02-04 13:48:36.254788+01 | 1486212516.25479 |                 0 |              24 |                 40838 |                 2144 |            4759072 |             0 |                0 |         1784770 |                     0 |       1521661 | 2017-02-04 11:49:56.627292+01

 2017-02-04 13:48:37.333712+01 | 1486212517.33371 |                 0 |              24 |                 40838 |                 2144 |            4759072 |             0 |                0 |         1784770 |                     0 |       1521989 | 2017-02-04 11:49:56.627292+01

 2017-02-04 13:48:38.425201+01 | 1486212518.4252 |                 0 |              24 |                 40838 |                 2144 |            4759072 |             0 |                0 |         1784770 |                     0 |       1522244 | 2017-02-04 11:49:56.627292+01

 2017-02-04 13:48:39.498902+01 | 1486212519.4989 |                 0 |              24 |                 40838 |                 2144 |            4759072 |             0 |                0 |         1784770 |                     0 |       1522411 | 2017-02-04 11:49:56.627292+01

 2017-02-04 13:48:40.572954+01 | 1486212520.57295 |                 0 |              24 |                 40838 |                 2144 |            4759072 |             0 |                0 |         1784770 |                     0 |       1522666 | 2017-02-04 11:49:56.627292+01

 2017-02-04 13:48:41.650618+01 | 1486212521.65062 |                 0 |              24 |                 40838 |                 2144 |            4759072 |             0 |                0 |         1784770 |                     0 |       1522915 | 2017-02-04 11:49:56.627292+01

 2017-02-04 13:48:42.722856+01 | 1486212522.72286 |                 0 |              24 |                 40838 |                 2144 |            4759072 |             0 |                0 |         1784770 |                     0 |       1523287 | 2017-02-04 11:49:56.627292+01

 2017-02-04 13:48:43.796829+01 | 1486212523.79683 |                 0 |              24 |                 40838 |                 2144 |            4759072 |             0 |                0 |         1784770 |                     0 |       1523393 | 2017-02-04 11:49:56.627292+01

 2017-02-04 13:48:44.874476+01 | 1486212524.87448 |                 0 |              24 |                 40838 |                 2144 |            4759072 |             0 |                0 |         1784770 |                     0 |       1523722 | 2017-02-04 11:49:56.627292+01

 2017-02-04 13:48:45.947537+01 | 1486212525.94754 |                 0 |              24 |                 40838 |                 2144 |            4759072 |             0 |                0 |         1784770 |                     0 |       1523928 | 2017-02-04 11:49:56.627292+01

 2017-02-04 13:48:47.024226+01 | 1486212527.02423 |                 0 |              24 |                 40838 |                 2144 |            4759072 |             0 |                0 |         1784770 |                     0 |       1524264 | 2017-02-04 11:49:56.627292+01

 2017-02-04 13:48:48.099938+01 | 1486212528.09994 |                 0 |              24 |                 40838 |                 2144 |            4759072 |             0 |                0 |         1784770 |                     0 |       1524416 | 2017-02-04 11:49:56.627292+01

 2017-02-04 13:48:49.177006+01 | 1486212529.17701 |                 0 |              24 |                 40838 |                 2144 |            4759072 |             0 |                0 |         1784770 |                     0 |       1524649 | 2017-02-04 11:49:56.627292+01

 2017-02-04 13:48:50.255999+01 | 1486212530.256 |                 0 |              24 |                 40838 |                 2144 |            4759072 |             0 |                0 |         1784770 |                     0 |       1524995 | 2017-02-04 11:49:56.627292+01

 2017-02-04 13:48:51.331965+01 | 1486212531.33196 |                 0 |              24 |                 40838 |                 2144 |            4759072 |             0 |                0 |         1784770 |                     0 |       1525167 | 2017-02-04 11:49:56.627292+01

 2017-02-04 13:48:52.413525+01 | 1486212532.41353 |                 0 |              24 |                 40838 |                 2144 |            4759072 |             0 |                0 |         1784770 |                     0 |       1525376 | 2017-02-04 11:49:56.627292+01

 2017-02-04 13:48:53.496816+01 | 1486212533.49682 |                 0 |              24 |                 40838 |                 2144 |            4759072 |             0 |                0 |         1784770 |                     0 |       1525648 | 2017-02-04 11:49:56.627292+01

 2017-02-04 13:48:54.582321+01 | 1486212534.58232 |                 0 |              24 |                 40838 |                 2144 |            4759072 |             0 |                0 |         1784770 |                     0 |       1525880 | 2017-02-04 11:49:56.627292+01

 2017-02-04 13:48:55.658992+01 | 1486212535.65899 |                 0 |              24 |                 40838 |                 2144 |            4759072 |             0 |                0 |         1784770 |                     0 |       1526152 | 2017-02-04 11:49:56.627292+01

 2017-02-04 13:48:56.738005+01 | 1486212536.738 |                 0 |              24 |                 40838 |                 2144 |            4759072 |             0 |                0 |         1784770 |                     0 |       1526386 | 2017-02-04 11:49:56.627292+01

 2017-02-04 13:48:57.817942+01 | 1486212537.81794 |                 0 |              24 |                 40838 |                 2144 |            4759072 |             0 |                0 |         1784770 |                     0 |       1526618 | 2017-02-04 11:49:56.627292+01

 2017-02-04 13:48:58.890586+01 | 1486212538.89059 |                 0 |              24 |                 40838 |                 2144 |            4759072 |             0 |                0 |         1784770 |                     0 |       1526975 | 2017-02-04 11:49:56.627292+01

 2017-02-04 13:48:59.970962+01 | 1486212539.97096 |                 0 |              24 |                 40838 |                 2144 |            4759072 |             0 |                0 |         1784770 |                     0 |       1527099 | 2017-02-04 11:49:56.627292+01

 2017-02-04 13:49:01.047877+01 | 1486212541.04788 |                 0 |              24 |                 40838 |                 2144 |            4759072 |             0 |                0 |         1784770 |                     0 |       1527447 | 2017-02-04 11:49:56.627292+01

 2017-02-04 13:49:02.125452+01 | 1486212542.12545 |                 0 |              24 |                 40838 |                 2144 |            4759072 |             0 |                0 |         1784770 |                     0 |       1527613 | 2017-02-04 11:49:56.627292+01

 2017-02-04 13:49:03.2022+01 | 1486212543.2022 |                 0 |              24 |                 40838 |                 2144 |            4759072 |             0 |                0 |         1784770 |                     0 |       1527908 | 2017-02-04 11:49:56.627292+01

 2017-02-04 13:49:04.283721+01 | 1486212544.28372 |                 0 |              24 |                 40838 |                 2144 |            4759072 |             0 |                0 |         1784770 |                     0 |       1528099 | 2017-02-04 11:49:56.627292+01

 2017-02-04 13:49:05.359988+01 | 1486212545.35999 |                 0 |              24 |                 40838 |                 2144 |            4759072 |             0 |                0 |         1784770 |                     0 |       1528368 | 2017-02-04 11:49:56.627292+01

 2017-02-04 13:49:06.438481+01 | 1486212546.43848 |                 0 |              24 |                 40838 |                 2144 |            4759072 |             0 |                0 |         1784770 |                     0 |       1528638 | 2017-02-04 11:49:56.627292+01

 2017-02-04 13:49:07.515304+01 | 1486212547.5153 |                 0 |              24 |                 40838 |                 2144 |            4759072 |             0 |                0 |         1784770 |                     0 |       1528997 | 2017-02-04 11:49:56.627292+01

 2017-02-04 13:49:08.594285+01 | 1486212548.59429 |                 0 |              24 |                 40838 |                 2144 |            4759072 |             0 |                0 |         1784770 |                     0 |       1529146 | 2017-02-04 11:49:56.627292+01

 2017-02-04 13:49:09.670512+01 | 1486212549.67051 |                 0 |              24 |                 40838 |                 2144 |            4759072 |             0 |                0 |         1784770 |                     0 |       1529464 | 2017-02-04 11:49:56.627292+01

 2017-02-04 13:49:10.748436+01 | 1486212550.74844 |                 0 |              24 |                 40838 |                 2144 |            4759072 |             0 |                0 |         1784770 |                     0 |       1529690 | 2017-02-04 11:49:56.627292+01

 2017-02-04 13:49:11.830262+01 | 1486212551.83026 |                 0 |              24 |                 40838 |                 2144 |            4759072 |             0 |                0 |         1784770 |                     0 |       1529903 | 2017-02-04 11:49:56.627292+01

 2017-02-04 13:49:12.906694+01 | 1486212552.90669 |                 0 |              24 |                 40838 |                 2144 |            4759072 |             0 |                0 |         1784770 |                     0 |       1530150 | 2017-02-04 11:49:56.627292+01

 2017-02-04 13:49:13.986091+01 | 1486212553.98609 |                 0 |              24 |                 40838 |                 2144 |            4759072 |             0 |                0 |         1784770 |                     0 |       1530482 | 2017-02-04 11:49:56.627292+01

 2017-02-04 13:49:15.061573+01 | 1486212555.06157 |                 0 |              24 |                 40838 |                 2144 |            4759072 |             0 |                0 |         1784770 |                     0 |       1530672 | 2017-02-04 11:49:56.627292+01

 2017-02-04 13:49:16.133448+01 | 1486212556.13345 |                 0 |              24 |                 40838 |                 2144 |            4759072 |             0 |                0 |         1784770 |                     0 |       1530962 | 2017-02-04 11:49:56.627292+01

 2017-02-04 13:49:17.206914+01 | 1486212557.20691 |                 0 |              24 |                 40838 |                 2144 |            4759072 |             0 |                0 |         1784770 |                     0 |       1531169 | 2017-02-04 11:49:56.627292+01

 2017-02-04 13:49:18.281776+01 | 1486212558.28178 |                 0 |              24 |                 40838 |                 2144 |            4759072 |             0 |                0 |         1784770 |                     0 |       1531420 | 2017-02-04 11:49:56.627292+01

 2017-02-04 13:49:19.365332+01 | 1486212559.36533 |                 0 |              24 |                 40838 |                 2144 |            4759072 |             0 |                0 |         1784770 |                     0 |       1531713 | 2017-02-04 11:49:56.627292+01

 2017-02-04 13:49:20.440839+01 | 1486212560.44084 |                 0 |              24 |                 40838 |                 2144 |            4759072 |             0 |                0 |         1784770 |                     0 |       1531922 | 2017-02-04 11:49:56.627292+01

 2017-02-04 13:49:21.523571+01 | 1486212561.52357 |                 0 |              24 |                 40838 |                 2144 |            4759072 |             0 |                0 |         1784770 |                     0 |       1532174 | 2017-02-04 11:49:56.627292+01

 2017-02-04 13:49:22.60215+01 | 1486212562.60215 |                 0 |              24 |                 40838 |                 2144 |            4759072 |             0 |                0 |         1784770 |                     0 |       1532460 | 2017-02-04 11:49:56.627292+01

 2017-02-04 13:49:23.676745+01 | 1486212563.67674 |                 0 |              24 |                 40838 |                 2144 |            4759072 |             0 |                0 |         1784770 |                     0 |       1532668 | 2017-02-04 11:49:56.627292+01

 2017-02-04 13:49:24.750501+01 | 1486212564.7505 |                 0 |              24 |                 40838 |                 2144 |            4759072 |             0 |                0 |         1784770 |                     0 |       1532956 | 2017-02-04 11:49:56.627292+01

 2017-02-04 13:49:25.829305+01 | 1486212565.8293 |                 0 |              24 |                 40838 |                 2144 |            4759072 |             0 |                0 |         1784770 |                     0 |       1533168 | 2017-02-04 11:49:56.627292+01

 2017-02-04 13:49:26.908851+01 | 1486212566.90885 |                 0 |              24 |                 40838 |                 2144 |            4759072 |             0 |                0 |         1784770 |                     0 |       1533440 | 2017-02-04 11:49:56.627292+01

 2017-02-04 13:49:27.990038+01 | 1486212567.99004 |                 0 |              24 |                 40838 |                 2144 |            4759072 |             0 |                0 |         1784770 |                     0 |       1533647 | 2017-02-04 11:49:56.627292+01

 2017-02-04 13:49:29.062913+01 | 1486212569.06291 |                 0 |              24 |                 40838 |                 2144 |            4759072 |             0 |                0 |         1784770 |                     0 |       1534043 | 2017-02-04 11:49:56.627292+01

 2017-02-04 13:49:30.141122+01 | 1486212570.14112 |                 0 |              24 |                 40838 |                 2144 |            4759072 |             0 |                0 |         1784770 |                     0 |       1534169 | 2017-02-04 11:49:56.627292+01

 2017-02-04 13:49:31.225675+01 | 1486212571.22568 |                 0 |              24 |                 40838 |                 2144 |            4759072 |             0 |                0 |         1784770 |                     0 |       1534395 | 2017-02-04 11:49:56.627292+01

 2017-02-04 13:49:32.305296+01 | 1486212572.3053 |                 0 |              24 |                 40838 |                 2144 |            4759072 |             0 |                0 |         1784770 |                     0 |       1534684 | 2017-02-04 11:49:56.627292+01

 2017-02-04 13:49:33.382901+01 | 1486212573.3829 |                 0 |              24 |                 40838 |                 2144 |            4759072 |             0 |                0 |         1784770 |                     0 |       1534891 | 2017-02-04 11:49:56.627292+01

 2017-02-04 13:49:34.460721+01 | 1486212574.46072 |                 0 |              24 |                 40838 |                 2144 |            4759072 |             0 |                0 |         1784770 |                     0 |       1535139 | 2017-02-04 11:49:56.627292+01

 2017-02-04 13:49:35.544742+01 | 1486212575.54474 |                 0 |              24 |                 40838 |                 2144 |            4759072 |             0 |                0 |         1784770 |                     0 |       1535449 | 2017-02-04 11:49:56.627292+01

 2017-02-04 13:49:36.627624+01 | 1486212576.62762 |                 0 |              24 |                 40838 |                 2144 |            4759072 |             0 |                0 |         1784770 |                     0 |       1535616 | 2017-02-04 11:49:56.627292+01

 2017-02-04 13:49:37.704628+01 | 1486212577.70463 |                 0 |              24 |                 40838 |                 2144 |            4759072 |             0 |                0 |         1784770 |                     0 |       1535945 | 2017-02-04 11:49:56.627292+01

 2017-02-04 13:49:38.777796+01 | 1486212578.7778 |                 0 |              24 |                 40838 |                 2144 |            4759072 |             0 |                0 |         1784770 |                     0 |       1536091 | 2017-02-04 11:49:56.627292+01

 2017-02-04 13:49:39.859683+01 | 1486212579.85968 |                 0 |              24 |                 40838 |                 2144 |            4759072 |             0 |                0 |         1784770 |                     0 |       1536377 | 2017-02-04 11:49:56.627292+01

 2017-02-04 13:49:40.937031+01 | 1486212580.93703 |                 0 |              24 |                 40838 |                 2144 |            4759072 |             0 |                0 |         1784770 |                     0 |       1536635 | 2017-02-04 11:49:56.627292+01

 2017-02-04 13:49:42.01439+01 | 1486212582.01439 |                 0 |              24 |                 40838 |                 2144 |            4759072 |             0 |                0 |         1784770 |                     0 |       1536887 | 2017-02-04 11:49:56.627292+01

 2017-02-04 13:49:43.085983+01 | 1486212583.08598 |                 0 |              24 |                 40838 |                 2144 |            4759072 |             0 |                0 |         1784770 |                     0 |       1537156 | 2017-02-04 11:49:56.627292+01

 2017-02-04 13:49:44.161272+01 | 1486212584.16127 |                 0 |              24 |                 40838 |                 2144 |            4759072 |             0 |                0 |         1784770 |                     0 |       1537346 | 2017-02-04 11:49:56.627292+01

 2017-02-04 13:49:45.241998+01 | 1486212585.242 |                 0 |              24 |                 40838 |                 2144 |            4759072 |             0 |                0 |         1784770 |                     0 |       1537671 | 2017-02-04 11:49:56.627292+01

 2017-02-04 13:49:46.320103+01 | 1486212586.3201 |                 0 |              24 |                 40838 |                 2144 |            4759072 |             0 |                0 |         1784770 |                     0 |       1537794 | 2017-02-04 11:49:56.627292+01

 2017-02-04 13:49:47.395262+01 | 1486212587.39526 |                 0 |              24 |                 40838 |                 2144 |            4759072 |             0 |                0 |         1784770 |                     0 |       1538163 | 2017-02-04 11:49:56.627292+01

 2017-02-04 13:49:48.469685+01 | 1486212588.46969 |                 0 |              24 |                 40838 |                 2144 |            4759072 |             0 |                0 |         1784770 |                     0 |       1538432 | 2017-02-04 11:49:56.627292+01

 2017-02-04 13:49:49.544592+01 | 1486212589.54459 |                 0 |              24 |                 40838 |                 2144 |            4759072 |             0 |                0 |         1784770 |                     0 |       1538641 | 2017-02-04 11:49:56.627292+01

 2017-02-04 13:49:50.627295+01 | 1486212590.6273 |                 0 |              24 |                 40838 |                 2144 |            4759072 |             0 |                0 |         1784770 |                     0 |       1538784 | 2017-02-04 11:49:56.627292+01

 2017-02-04 13:49:51.70399+01 | 1486212591.70399 |                 0 |              24 |                 40838 |                 2144 |            4759072 |             0 |                0 |         1784770 |                     0 |       1539071 | 2017-02-04 11:49:56.627292+01

 2017-02-04 13:49:52.780333+01 | 1486212592.78033 |                 0 |              24 |                 40838 |                 2144 |            4759072 |             0 |                0 |         1784770 |                     0 |       1539466 | 2017-02-04 11:49:56.627292+01

 2017-02-04 13:49:53.855519+01 | 1486212593.85552 |                 0 |              24 |                 40838 |                 2144 |            4759072 |             0 |                0 |         1784770 |                     0 |       1539609 | 2017-02-04 11:49:56.627292+01

 2017-02-04 13:49:54.936474+01 | 1486212594.93647 |                 0 |              24 |                 40838 |                 2144 |            4759072 |             0 |                0 |         1784770 |                     0 |       1539943 | 2017-02-04 11:49:56.627292+01

 2017-02-04 13:49:56.008015+01 | 1486212596.00801 |                 0 |              24 |                 40838 |                 2144 |            4759072 |             0 |                0 |         1784770 |                     0 |       1540112 | 2017-02-04 11:49:56.627292+01

 2017-02-04 13:49:57.083575+01 | 1486212597.08358 |                 0 |              24 |                 40838 |                 2144 |            4759072 |             0 |                0 |         1784770 |                     0 |       1540458 | 2017-02-04 11:49:56.627292+01

 2017-02-04 13:49:58.154611+01 | 1486212598.15461 |                 0 |              24 |                 40838 |                 2144 |            4759072 |             0 |                0 |         1784770 |                     0 |       1540607 | 2017-02-04 11:49:56.627292+01

 2017-02-04 13:49:59.234813+01 | 1486212599.23481 |                 0 |              24 |                 40838 |                 2144 |            4759072 |             0 |                0 |         1784770 |                     0 |       1540924 | 2017-02-04 11:49:56.627292+01

 2017-02-04 13:50:00.314985+01 | 1486212600.31499 |                 0 |              24 |                 40838 |                 2144 |            4759072 |             0 |                0 |         1784770 |                     0 |       1541032 | 2017-02-04 11:49:56.627292+01

 2017-02-04 13:50:01.391055+01 | 1486212601.39106 |                 0 |              24 |                 40838 |                 2144 |            4759072 |             0 |                0 |         1784770 |                     0 |       1541407 | 2017-02-04 11:49:56.627292+01

 2017-02-04 13:50:02.465521+01 | 1486212602.46552 |                 0 |              24 |                 40838 |                 2144 |            4759072 |             0 |                0 |         1784770 |                     0 |       1541553 | 2017-02-04 11:49:56.627292+01

 2017-02-04 13:50:03.54508+01 | 1486212603.54508 |                 0 |              24 |                 40838 |                 2144 |            4759072 |             0 |                0 |         1784770 |                     0 |       1541782 | 2017-02-04 11:49:56.627292+01

 2017-02-04 13:50:04.619757+01 | 1486212604.61976 |                 0 |              24 |                 40838 |                 2144 |            4759072 |             0 |                0 |         1784770 |                     0 |       1542054 | 2017-02-04 11:49:56.627292+01

 2017-02-04 13:50:05.699422+01 | 1486212605.69942 |                 0 |              24 |                 40838 |                 2144 |            4759072 |             0 |                0 |         1784770 |                     0 |       1542263 | 2017-02-04 11:49:56.627292+01

 2017-02-04 13:50:06.772292+01 | 1486212606.77229 |                 0 |              24 |                 40838 |                 2144 |            4759072 |             0 |                0 |         1784770 |                     0 |       1542515 | 2017-02-04 11:49:56.627292+01

 2017-02-04 13:50:07.84802+01 | 1486212607.84802 |                 0 |              24 |                 40838 |                 2144 |            4759072 |             0 |                0 |         1784770 |                     0 |       1542873 | 2017-02-04 11:49:56.627292+01

 2017-02-04 13:50:08.925333+01 | 1486212608.92533 |                 0 |              24 |                 40838 |                 2144 |            4759072 |             0 |                0 |         1784770 |                     0 |       1543040 | 2017-02-04 11:49:56.627292+01

 2017-02-04 13:50:10.000603+01 | 1486212610.0006 |                 0 |              24 |                 40838 |                 2144 |            4759072 |             0 |                0 |         1784770 |                     0 |       1543254 | 2017-02-04 11:49:56.627292+01

 2017-02-04 13:50:11.079068+01 | 1486212611.07907 |                 0 |              24 |                 40838 |                 2144 |            4759072 |             0 |                0 |         1784770 |                     0 |       1543471 | 2017-02-04 11:49:56.627292+01

 2017-02-04 13:50:12.154307+01 | 1486212612.15431 |                 0 |              24 |                 40838 |                 2144 |            4759072 |             0 |                0 |         1784770 |                     0 |       1543780 | 2017-02-04 11:49:56.627292+01

 2017-02-04 13:50:13.232977+01 | 1486212613.23298 |                 0 |              24 |                 40838 |                 2144 |            4759072 |             0 |                0 |         1784770 |                     0 |       1543967 | 2017-02-04 11:49:56.627292+01

 2017-02-04 13:50:14.314938+01 | 1486212614.31494 |                 0 |              24 |                 40838 |                 2144 |            4759072 |             0 |                0 |         1784770 |                     0 |       1544219 | 2017-02-04 11:49:56.627292+01

 2017-02-04 13:50:15.393563+01 | 1486212615.39356 |                 0 |              24 |                 40838 |                 2144 |            4759072 |             0 |                0 |         1784770 |                     0 |       1544488 | 2017-02-04 11:49:56.627292+01

 2017-02-04 13:50:16.470099+01 | 1486212616.4701 |                 0 |              24 |                 40838 |                 2144 |            4759072 |             0 |                0 |         1784770 |                     0 |       1544797 | 2017-02-04 11:49:56.627292+01

 2017-02-04 13:50:17.546683+01 | 1486212617.54668 |                 0 |              24 |                 40838 |                 2144 |            4759072 |             0 |                0 |         1784770 |                     0 |       1544983 | 2017-02-04 11:49:56.627292+01

 2017-02-04 13:50:18.62043+01 | 1486212618.62043 |                 0 |              24 |                 40838 |                 2144 |            4759072 |             0 |                0 |         1784770 |                     0 |       1545252 | 2017-02-04 11:49:56.627292+01

 2017-02-04 13:50:19.70004+01 | 1486212619.70004 |                 0 |              24 |                 40838 |                 2144 |            4759072 |             0 |                0 |         1784770 |                     0 |       1545521 | 2017-02-04 11:49:56.627292+01

 2017-02-04 13:50:20.778955+01 | 1486212620.77895 |                 0 |              24 |                 40838 |                 2144 |            4759072 |             0 |                0 |         1784770 |                     0 |       1545644 | 2017-02-04 11:49:56.627292+01

 2017-02-04 13:50:21.856508+01 | 1486212621.85651 |                 0 |              24 |                 40838 |                 2144 |            4759072 |             0 |                0 |         1784770 |                     0 |       1545911 | 2017-02-04 11:49:56.627292+01

 2017-02-04 13:50:22.933361+01 | 1486212622.93336 |                 0 |              24 |                 40838 |                 2144 |            4759072 |             0 |                0 |         1784770 |                     0 |       1546200 | 2017-02-04 11:49:56.627292+01

 2017-02-04 13:50:24.00856+01 | 1486212624.00856 |                 0 |              24 |                 40838 |                 2144 |            4759072 |             0 |                0 |         1784770 |                     0 |       1546466 | 2017-02-04 11:49:56.627292+01

 2017-02-04 13:50:25.08331+01 | 1486212625.08331 |                 0 |              24 |                 40838 |                 2144 |            4759072 |             0 |                0 |         1784770 |                     0 |       1546732 | 2017-02-04 11:49:56.627292+01

 2017-02-04 13:50:26.160777+01 | 1486212626.16078 |                 0 |              24 |                 40838 |                 2144 |            4759072 |             0 |                0 |         1784770 |                     0 |       1546981 | 2017-02-04 11:49:56.627292+01

 2017-02-04 13:50:27.240568+01 | 1486212627.24057 |                 0 |              24 |                 40838 |                 2144 |            4759072 |             0 |                0 |         1784770 |                     0 |       1547242 | 2017-02-04 11:49:56.627292+01

 2017-02-04 13:50:28.316904+01 | 1486212628.3169 |                 0 |              24 |                 40838 |                 2144 |            4759072 |             0 |                0 |         1784770 |                     0 |       1547386 | 2017-02-04 11:49:56.627292+01

 2017-02-04 13:50:29.390421+01 | 1486212629.39042 |                 0 |              24 |                 40838 |                 2144 |            4759072 |             0 |                0 |         1784770 |                     0 |       1547691 | 2017-02-04 11:49:56.627292+01

 2017-02-04 13:50:30.471083+01 | 1486212630.47108 |                 0 |              24 |                 40838 |                 2144 |            4759072 |             0 |                0 |         1784770 |                     0 |       1547860 | 2017-02-04 11:49:56.627292+01

 2017-02-04 13:50:31.547462+01 | 1486212631.54746 |                 0 |              24 |                 40838 |                 2144 |            4759072 |             0 |                0 |         1784770 |                     0 |       1548149 | 2017-02-04 11:49:56.627292+01

 2017-02-04 13:50:32.625132+01 | 1486212632.62513 |                 0 |              24 |                 40838 |                 2144 |            4759072 |             0 |                0 |         1784770 |                     0 |       1548398 | 2017-02-04 11:49:56.627292+01

 2017-02-04 13:50:33.704076+01 | 1486212633.70408 |                 0 |              24 |                 40838 |                 2144 |            4759072 |             0 |                0 |         1784770 |                     0 |       1548653 | 2017-02-04 11:49:56.627292+01

 2017-02-04 13:50:34.793624+01 | 1486212634.79362 |                 0 |              24 |                 40838 |                 2144 |            4759072 |             0 |                0 |         1784770 |                     0 |       1548863 | 2017-02-04 11:49:56.627292+01

 2017-02-04 13:50:35.872525+01 | 1486212635.87252 |                 0 |              24 |                 40838 |                 2144 |            4759072 |             0 |                0 |         1784770 |                     0 |       1549090 | 2017-02-04 11:49:56.627292+01

 2017-02-04 13:50:36.950617+01 | 1486212636.95062 |                 0 |              24 |                 40838 |                 2144 |            4759072 |             0 |                0 |         1784770 |                     0 |       1549536 | 2017-02-04 11:49:56.627292+01

 2017-02-04 13:50:38.025669+01 | 1486212638.02567 |                 0 |              24 |                 40838 |                 2144 |            4759072 |             0 |                0 |         1784770 |                     0 |       1549537 | 2017-02-04 11:49:56.627292+01

 2017-02-04 13:50:39.105537+01 | 1486212639.10554 |                 0 |              24 |                 40838 |                 2144 |            4759072 |             0 |                0 |         1784770 |                     0 |       1549808 | 2017-02-04 11:49:56.627292+01

 2017-02-04 13:50:40.183692+01 | 1486212640.18369 |                 0 |              24 |                 40838 |                 2144 |            4759072 |             0 |                0 |         1784770 |                     0 |       1549994 | 2017-02-04 11:49:56.627292+01

 2017-02-04 13:50:41.263087+01 | 1486212641.26309 |                 0 |              24 |                 40838 |                 2144 |            4759072 |             0 |                0 |         1784770 |                     0 |       1550312 | 2017-02-04 11:49:56.627292+01

 2017-02-04 13:50:42.3419+01 | 1486212642.3419 |                 0 |              24 |                 40838 |                 2144 |            4759072 |             0 |                0 |         1784770 |                     0 |       1550559 | 2017-02-04 11:49:56.627292+01

 2017-02-04 13:50:43.424134+01 | 1486212643.42413 |                 0 |              24 |                 40838 |                 2144 |            4759072 |             0 |                0 |         1784770 |                     0 |       1550747 | 2017-02-04 11:49:56.627292+01

 2017-02-04 13:50:44.502533+01 | 1486212644.50253 |                 0 |              24 |                 40838 |                 2144 |            4759072 |             0 |                0 |         1784770 |                     0 |       1551016 | 2017-02-04 11:49:56.627292+01

 2017-02-04 13:50:45.577854+01 | 1486212645.57785 |                 0 |              24 |                 40838 |                 2144 |            4759072 |             0 |                0 |         1784770 |                     0 |       1551210 | 2017-02-04 11:49:56.627292+01

 2017-02-04 13:50:46.650769+01 | 1486212646.65077 |                 0 |              24 |                 40838 |                 2144 |            4759072 |             0 |                0 |         1784770 |                     0 |       1551544 | 2017-02-04 11:49:56.627292+01

 2017-02-04 13:50:47.729271+01 | 1486212647.72927 |                 0 |              24 |                 40838 |                 2144 |            4759072 |             0 |                0 |         1784770 |                     0 |       1551767 | 2017-02-04 11:49:56.627292+01

 2017-02-04 13:50:48.808607+01 | 1486212648.80861 |                 0 |              24 |                 40838 |                 2144 |            4759072 |             0 |                0 |         1784770 |                     0 |       1551945 | 2017-02-04 11:49:56.627292+01

 2017-02-04 13:50:49.885037+01 | 1486212649.88504 |                 0 |              24 |                 40838 |                 2144 |            4759072 |             0 |                0 |         1784770 |                     0 |       1552161 | 2017-02-04 11:49:56.627292+01

 2017-02-04 13:50:50.968331+01 | 1486212650.96833 |                 0 |              24 |                 40838 |                 2144 |            4759072 |             0 |                0 |         1784770 |                     0 |       1552554 | 2017-02-04 11:49:56.627292+01

 2017-02-04 13:50:52.04699+01 | 1486212652.04699 |                 0 |              24 |                 40838 |                 2144 |            4759072 |             0 |                0 |         1784770 |                     0 |       1552622 | 2017-02-04 11:49:56.627292+01

 2017-02-04 13:50:53.118591+01 | 1486212653.11859 |                 0 |              24 |                 40838 |                 2144 |            4759072 |             0 |                0 |         1784770 |                     0 |       1552846 | 2017-02-04 11:49:56.627292+01

 2017-02-04 13:50:54.186785+01 | 1486212654.18678 |                 0 |              24 |                 40838 |                 2144 |            4759072 |             0 |                0 |         1784770 |                     0 |       1553108 | 2017-02-04 11:49:56.627292+01

 2017-02-04 13:50:55.262668+01 | 1486212655.26267 |                 0 |              24 |                 40838 |                 2144 |            4759072 |             0 |                0 |         1784770 |                     0 |       1553377 | 2017-02-04 11:49:56.627292+01

 2017-02-04 13:50:56.34366+01 | 1486212656.34366 |                 0 |              24 |                 40838 |                 2144 |            4759072 |             0 |                0 |         1784770 |                     0 |       1553540 | 2017-02-04 11:49:56.627292+01

 2017-02-04 13:50:57.420738+01 | 1486212657.42074 |                 0 |              24 |                 40838 |                 2144 |            4759072 |             0 |                0 |         1784770 |                     0 |       1553846 | 2017-02-04 11:49:56.627292+01

 2017-02-04 13:50:58.497429+01 | 1486212658.49743 |                 0 |              24 |                 40838 |                 2144 |            4759072 |             0 |                0 |         1784770 |                     0 |       1554035 | 2017-02-04 11:49:56.627292+01

 2017-02-04 13:50:59.574637+01 | 1486212659.57464 |                 0 |              24 |                 40838 |                 2144 |            4759072 |             0 |                0 |         1784770 |                     0 |       1554289 | 2017-02-04 11:49:56.627292+01

 2017-02-04 13:51:00.651542+01 | 1486212660.65154 |                 0 |              24 |                 40838 |                 2144 |            4759072 |             0 |                0 |         1784770 |                     0 |       1554525 | 2017-02-04 11:49:56.627292+01

 2017-02-04 13:51:01.729594+01 | 1486212661.72959 |                 0 |              24 |                 40838 |                 2144 |            4759072 |             0 |                0 |         1784770 |                     0 |       1554700 | 2017-02-04 11:49:56.627292+01

 2017-02-04 13:51:02.817076+01 | 1486212662.81708 |                 0 |              24 |                 40838 |                 2144 |            4759072 |             0 |                0 |         1784770 |                     0 |       1555035 | 2017-02-04 11:49:56.627292+01

 2017-02-04 13:51:03.889738+01 | 1486212663.88974 |                 0 |              24 |                 40838 |                 2144 |            4759072 |             0 |                0 |         1784770 |                     0 |       1555211 | 2017-02-04 11:49:56.627292+01

 2017-02-04 13:51:04.964728+01 | 1486212664.96473 |                 0 |              24 |                 40838 |                 2144 |            4759072 |             0 |                0 |         1784770 |                     0 |       1555490 | 2017-02-04 11:49:56.627292+01

 2017-02-04 13:51:06.03711+01 | 1486212666.03711 |                 0 |              24 |                 40838 |                 2144 |            4759072 |             0 |                0 |         1784770 |                     0 |       1555821 | 2017-02-04 11:49:56.627292+01

 2017-02-04 13:51:07.11268+01 | 1486212667.11268 |                 0 |              24 |                 40838 |                 2144 |            4759072 |             0 |                0 |         1784770 |                     0 |       1555967 | 2017-02-04 11:49:56.627292+01

 2017-02-04 13:51:08.187361+01 | 1486212668.18736 |                 0 |              24 |                 40838 |                 2144 |            4759072 |             0 |                0 |         1784770 |                     0 |       1556239 | 2017-02-04 11:49:56.627292+01

 2017-02-04 13:51:09.262755+01 | 1486212669.26275 |                 0 |              24 |                 40838 |                 2144 |            4759072 |             0 |                0 |         1784770 |                     0 |       1556425 | 2017-02-04 11:49:56.627292+01

 2017-02-04 13:51:10.342086+01 | 1486212670.34209 |                 0 |              24 |                 40838 |                 2144 |            4759072 |             0 |                0 |         1784770 |                     0 |       1556691 | 2017-02-04 11:49:56.627292+01

 2017-02-04 13:51:11.421218+01 | 1486212671.42122 |                 0 |              24 |                 40838 |                 2144 |            4759072 |             0 |                0 |         1784770 |                     0 |       1556967 | 2017-02-04 11:49:56.627292+01

 2017-02-04 13:51:12.496129+01 | 1486212672.49613 |                 0 |              24 |                 40838 |                 2144 |            4759072 |             0 |                0 |         1784770 |                     0 |       1557153 | 2017-02-04 11:49:56.627292+01

 2017-02-04 13:51:13.574998+01 | 1486212673.575 |                 0 |              24 |                 40838 |                 2144 |            4759072 |             0 |                0 |         1784770 |                     0 |       1557422 | 2017-02-04 11:49:56.627292+01

