 2017-02-04 18:38:33.300943+01 | 1486229913.30094 | pgbench_branches_pkey |            90112
 2017-02-04 18:38:33.300943+01 | 1486229913.30094 | pgbench_tellers_pkey  |           458752
 2017-02-04 18:38:33.300943+01 | 1486229913.30094 | pgbench_accounts_pkey |        224641024

 2017-02-04 18:38:34.391283+01 | 1486229914.39128 | pgbench_branches_pkey |            90112
 2017-02-04 18:38:34.391283+01 | 1486229914.39128 | pgbench_tellers_pkey  |           458752
 2017-02-04 18:38:34.391283+01 | 1486229914.39128 | pgbench_accounts_pkey |        224641024

 2017-02-04 18:38:35.475207+01 | 1486229915.47521 | pgbench_branches_pkey |            90112
 2017-02-04 18:38:35.475207+01 | 1486229915.47521 | pgbench_tellers_pkey  |           458752
 2017-02-04 18:38:35.475207+01 | 1486229915.47521 | pgbench_accounts_pkey |        224641024

 2017-02-04 18:38:36.551555+01 | 1486229916.55155 | pgbench_branches_pkey |            90112
 2017-02-04 18:38:36.551555+01 | 1486229916.55155 | pgbench_tellers_pkey  |           458752
 2017-02-04 18:38:36.551555+01 | 1486229916.55155 | pgbench_accounts_pkey |        224641024

 2017-02-04 18:38:37.636355+01 | 1486229917.63635 | pgbench_branches_pkey |            90112
 2017-02-04 18:38:37.636355+01 | 1486229917.63635 | pgbench_tellers_pkey  |           458752
 2017-02-04 18:38:37.636355+01 | 1486229917.63635 | pgbench_accounts_pkey |        224641024

 2017-02-04 18:38:38.713012+01 | 1486229918.71301 | pgbench_branches_pkey |            90112
 2017-02-04 18:38:38.713012+01 | 1486229918.71301 | pgbench_tellers_pkey  |           458752
 2017-02-04 18:38:38.713012+01 | 1486229918.71301 | pgbench_accounts_pkey |        224641024

 2017-02-04 18:38:39.788815+01 | 1486229919.78882 | pgbench_branches_pkey |            90112
 2017-02-04 18:38:39.788815+01 | 1486229919.78882 | pgbench_tellers_pkey  |           458752
 2017-02-04 18:38:39.788815+01 | 1486229919.78882 | pgbench_accounts_pkey |        224641024

 2017-02-04 18:38:40.8626+01 | 1486229920.8626 | pgbench_branches_pkey |            90112
 2017-02-04 18:38:40.8626+01 | 1486229920.8626 | pgbench_tellers_pkey  |           458752
 2017-02-04 18:38:40.8626+01 | 1486229920.8626 | pgbench_accounts_pkey |        224641024

 2017-02-04 18:38:41.940607+01 | 1486229921.94061 | pgbench_branches_pkey |            90112
 2017-02-04 18:38:41.940607+01 | 1486229921.94061 | pgbench_tellers_pkey  |           458752
 2017-02-04 18:38:41.940607+01 | 1486229921.94061 | pgbench_accounts_pkey |        224641024

 2017-02-04 18:38:43.024324+01 | 1486229923.02432 | pgbench_branches_pkey |            90112
 2017-02-04 18:38:43.024324+01 | 1486229923.02432 | pgbench_tellers_pkey  |           458752
 2017-02-04 18:38:43.024324+01 | 1486229923.02432 | pgbench_accounts_pkey |        224641024

 2017-02-04 18:38:44.110174+01 | 1486229924.11017 | pgbench_branches_pkey |            90112
 2017-02-04 18:38:44.110174+01 | 1486229924.11017 | pgbench_tellers_pkey  |           458752
 2017-02-04 18:38:44.110174+01 | 1486229924.11017 | pgbench_accounts_pkey |        224641024

 2017-02-04 18:38:45.192182+01 | 1486229925.19218 | pgbench_branches_pkey |            90112
 2017-02-04 18:38:45.192182+01 | 1486229925.19218 | pgbench_tellers_pkey  |           458752
 2017-02-04 18:38:45.192182+01 | 1486229925.19218 | pgbench_accounts_pkey |        224641024

 2017-02-04 18:38:46.270619+01 | 1486229926.27062 | pgbench_branches_pkey |            90112
 2017-02-04 18:38:46.270619+01 | 1486229926.27062 | pgbench_tellers_pkey  |           458752
 2017-02-04 18:38:46.270619+01 | 1486229926.27062 | pgbench_accounts_pkey |        224641024

 2017-02-04 18:38:47.34441+01 | 1486229927.34441 | pgbench_branches_pkey |            90112
 2017-02-04 18:38:47.34441+01 | 1486229927.34441 | pgbench_tellers_pkey  |           458752
 2017-02-04 18:38:47.34441+01 | 1486229927.34441 | pgbench_accounts_pkey |        224641024

 2017-02-04 18:38:48.421175+01 | 1486229928.42118 | pgbench_branches_pkey |            90112
 2017-02-04 18:38:48.421175+01 | 1486229928.42118 | pgbench_tellers_pkey  |           458752
 2017-02-04 18:38:48.421175+01 | 1486229928.42118 | pgbench_accounts_pkey |        224641024

 2017-02-04 18:38:49.500078+01 | 1486229929.50008 | pgbench_branches_pkey |            90112
 2017-02-04 18:38:49.500078+01 | 1486229929.50008 | pgbench_tellers_pkey  |           458752
 2017-02-04 18:38:49.500078+01 | 1486229929.50008 | pgbench_accounts_pkey |        224641024

 2017-02-04 18:38:50.579975+01 | 1486229930.57997 | pgbench_branches_pkey |            90112
 2017-02-04 18:38:50.579975+01 | 1486229930.57997 | pgbench_tellers_pkey  |           458752
 2017-02-04 18:38:50.579975+01 | 1486229930.57997 | pgbench_accounts_pkey |        224641024

 2017-02-04 18:38:51.659451+01 | 1486229931.65945 | pgbench_branches_pkey |            90112
 2017-02-04 18:38:51.659451+01 | 1486229931.65945 | pgbench_tellers_pkey  |           458752
 2017-02-04 18:38:51.659451+01 | 1486229931.65945 | pgbench_accounts_pkey |        224641024

 2017-02-04 18:38:52.735205+01 | 1486229932.7352 | pgbench_branches_pkey |            90112
 2017-02-04 18:38:52.735205+01 | 1486229932.7352 | pgbench_tellers_pkey  |           458752
 2017-02-04 18:38:52.735205+01 | 1486229932.7352 | pgbench_accounts_pkey |        224641024

 2017-02-04 18:38:53.815377+01 | 1486229933.81538 | pgbench_branches_pkey |            90112
 2017-02-04 18:38:53.815377+01 | 1486229933.81538 | pgbench_tellers_pkey  |           458752
 2017-02-04 18:38:53.815377+01 | 1486229933.81538 | pgbench_accounts_pkey |        224641024

 2017-02-04 18:38:54.896539+01 | 1486229934.89654 | pgbench_branches_pkey |            90112
 2017-02-04 18:38:54.896539+01 | 1486229934.89654 | pgbench_tellers_pkey  |           458752
 2017-02-04 18:38:54.896539+01 | 1486229934.89654 | pgbench_accounts_pkey |        224641024

 2017-02-04 18:38:55.986369+01 | 1486229935.98637 | pgbench_branches_pkey |            90112
 2017-02-04 18:38:55.986369+01 | 1486229935.98637 | pgbench_tellers_pkey  |           458752
 2017-02-04 18:38:55.986369+01 | 1486229935.98637 | pgbench_accounts_pkey |        224641024

 2017-02-04 18:38:57.067219+01 | 1486229937.06722 | pgbench_branches_pkey |            90112
 2017-02-04 18:38:57.067219+01 | 1486229937.06722 | pgbench_tellers_pkey  |           458752
 2017-02-04 18:38:57.067219+01 | 1486229937.06722 | pgbench_accounts_pkey |        224641024

 2017-02-04 18:38:58.141427+01 | 1486229938.14143 | pgbench_branches_pkey |            90112
 2017-02-04 18:38:58.141427+01 | 1486229938.14143 | pgbench_tellers_pkey  |           458752
 2017-02-04 18:38:58.141427+01 | 1486229938.14143 | pgbench_accounts_pkey |        224641024

 2017-02-04 18:38:59.219875+01 | 1486229939.21988 | pgbench_branches_pkey |            90112
 2017-02-04 18:38:59.219875+01 | 1486229939.21988 | pgbench_tellers_pkey  |           458752
 2017-02-04 18:38:59.219875+01 | 1486229939.21988 | pgbench_accounts_pkey |        224641024

 2017-02-04 18:39:00.291726+01 | 1486229940.29173 | pgbench_branches_pkey |            90112
 2017-02-04 18:39:00.291726+01 | 1486229940.29173 | pgbench_tellers_pkey  |           458752
 2017-02-04 18:39:00.291726+01 | 1486229940.29173 | pgbench_accounts_pkey |        224641024

 2017-02-04 18:39:01.375461+01 | 1486229941.37546 | pgbench_branches_pkey |            90112
 2017-02-04 18:39:01.375461+01 | 1486229941.37546 | pgbench_tellers_pkey  |           458752
 2017-02-04 18:39:01.375461+01 | 1486229941.37546 | pgbench_accounts_pkey |        224641024

 2017-02-04 18:39:02.456545+01 | 1486229942.45655 | pgbench_branches_pkey |            90112
 2017-02-04 18:39:02.456545+01 | 1486229942.45655 | pgbench_tellers_pkey  |           458752
 2017-02-04 18:39:02.456545+01 | 1486229942.45655 | pgbench_accounts_pkey |        224641024

 2017-02-04 18:39:03.536384+01 | 1486229943.53638 | pgbench_branches_pkey |            90112
 2017-02-04 18:39:03.536384+01 | 1486229943.53638 | pgbench_tellers_pkey  |           458752
 2017-02-04 18:39:03.536384+01 | 1486229943.53638 | pgbench_accounts_pkey |        224641024

 2017-02-04 18:39:04.610517+01 | 1486229944.61052 | pgbench_branches_pkey |            90112
 2017-02-04 18:39:04.610517+01 | 1486229944.61052 | pgbench_tellers_pkey  |           458752
 2017-02-04 18:39:04.610517+01 | 1486229944.61052 | pgbench_accounts_pkey |        224641024

 2017-02-04 18:39:05.691626+01 | 1486229945.69163 | pgbench_branches_pkey |            90112
 2017-02-04 18:39:05.691626+01 | 1486229945.69163 | pgbench_tellers_pkey  |           458752
 2017-02-04 18:39:05.691626+01 | 1486229945.69163 | pgbench_accounts_pkey |        224641024

 2017-02-04 18:39:06.753894+01 | 1486229946.75389 | pgbench_branches_pkey |            90112
 2017-02-04 18:39:06.753894+01 | 1486229946.75389 | pgbench_tellers_pkey  |           458752
 2017-02-04 18:39:06.753894+01 | 1486229946.75389 | pgbench_accounts_pkey |        224641024

 2017-02-04 18:39:07.84122+01 | 1486229947.84122 | pgbench_branches_pkey |            90112
 2017-02-04 18:39:07.84122+01 | 1486229947.84122 | pgbench_tellers_pkey  |           458752
 2017-02-04 18:39:07.84122+01 | 1486229947.84122 | pgbench_accounts_pkey |        224641024

 2017-02-04 18:39:08.928451+01 | 1486229948.92845 | pgbench_branches_pkey |            90112
 2017-02-04 18:39:08.928451+01 | 1486229948.92845 | pgbench_tellers_pkey  |           458752
 2017-02-04 18:39:08.928451+01 | 1486229948.92845 | pgbench_accounts_pkey |        224641024

 2017-02-04 18:39:10.014974+01 | 1486229950.01497 | pgbench_branches_pkey |            90112
 2017-02-04 18:39:10.014974+01 | 1486229950.01497 | pgbench_tellers_pkey  |           458752
 2017-02-04 18:39:10.014974+01 | 1486229950.01497 | pgbench_accounts_pkey |        224641024

 2017-02-04 18:39:11.093182+01 | 1486229951.09318 | pgbench_branches_pkey |            90112
 2017-02-04 18:39:11.093182+01 | 1486229951.09318 | pgbench_tellers_pkey  |           458752
 2017-02-04 18:39:11.093182+01 | 1486229951.09318 | pgbench_accounts_pkey |        224641024

 2017-02-04 18:39:12.16838+01 | 1486229952.16838 | pgbench_branches_pkey |            90112
 2017-02-04 18:39:12.16838+01 | 1486229952.16838 | pgbench_tellers_pkey  |           458752
 2017-02-04 18:39:12.16838+01 | 1486229952.16838 | pgbench_accounts_pkey |        224641024

 2017-02-04 18:39:13.247616+01 | 1486229953.24762 | pgbench_branches_pkey |            90112
 2017-02-04 18:39:13.247616+01 | 1486229953.24762 | pgbench_tellers_pkey  |           458752
 2017-02-04 18:39:13.247616+01 | 1486229953.24762 | pgbench_accounts_pkey |        224641024

 2017-02-04 18:39:14.334812+01 | 1486229954.33481 | pgbench_branches_pkey |            90112
 2017-02-04 18:39:14.334812+01 | 1486229954.33481 | pgbench_tellers_pkey  |           458752
 2017-02-04 18:39:14.334812+01 | 1486229954.33481 | pgbench_accounts_pkey |        224641024

 2017-02-04 18:39:15.411092+01 | 1486229955.41109 | pgbench_branches_pkey |            90112
 2017-02-04 18:39:15.411092+01 | 1486229955.41109 | pgbench_tellers_pkey  |           458752
 2017-02-04 18:39:15.411092+01 | 1486229955.41109 | pgbench_accounts_pkey |        224641024

 2017-02-04 18:39:16.487561+01 | 1486229956.48756 | pgbench_branches_pkey |            90112
 2017-02-04 18:39:16.487561+01 | 1486229956.48756 | pgbench_tellers_pkey  |           458752
 2017-02-04 18:39:16.487561+01 | 1486229956.48756 | pgbench_accounts_pkey |        224641024

 2017-02-04 18:39:17.568431+01 | 1486229957.56843 | pgbench_branches_pkey |            90112
 2017-02-04 18:39:17.568431+01 | 1486229957.56843 | pgbench_tellers_pkey  |           458752
 2017-02-04 18:39:17.568431+01 | 1486229957.56843 | pgbench_accounts_pkey |        224641024

 2017-02-04 18:39:18.647974+01 | 1486229958.64797 | pgbench_branches_pkey |            90112
 2017-02-04 18:39:18.647974+01 | 1486229958.64797 | pgbench_tellers_pkey  |           458752
 2017-02-04 18:39:18.647974+01 | 1486229958.64797 | pgbench_accounts_pkey |        224641024

 2017-02-04 18:39:19.726049+01 | 1486229959.72605 | pgbench_branches_pkey |            90112
 2017-02-04 18:39:19.726049+01 | 1486229959.72605 | pgbench_tellers_pkey  |           458752
 2017-02-04 18:39:19.726049+01 | 1486229959.72605 | pgbench_accounts_pkey |        224641024

 2017-02-04 18:39:20.81112+01 | 1486229960.81112 | pgbench_branches_pkey |            90112
 2017-02-04 18:39:20.81112+01 | 1486229960.81112 | pgbench_tellers_pkey  |           458752
 2017-02-04 18:39:20.81112+01 | 1486229960.81112 | pgbench_accounts_pkey |        224641024

 2017-02-04 18:39:21.898591+01 | 1486229961.89859 | pgbench_branches_pkey |            90112
 2017-02-04 18:39:21.898591+01 | 1486229961.89859 | pgbench_tellers_pkey  |           458752
 2017-02-04 18:39:21.898591+01 | 1486229961.89859 | pgbench_accounts_pkey |        224641024

 2017-02-04 18:39:22.968967+01 | 1486229962.96897 | pgbench_branches_pkey |            90112
 2017-02-04 18:39:22.968967+01 | 1486229962.96897 | pgbench_tellers_pkey  |           458752
 2017-02-04 18:39:22.968967+01 | 1486229962.96897 | pgbench_accounts_pkey |        224641024

 2017-02-04 18:39:24.045092+01 | 1486229964.04509 | pgbench_branches_pkey |            90112
 2017-02-04 18:39:24.045092+01 | 1486229964.04509 | pgbench_tellers_pkey  |           458752
 2017-02-04 18:39:24.045092+01 | 1486229964.04509 | pgbench_accounts_pkey |        224641024

 2017-02-04 18:39:25.134944+01 | 1486229965.13494 | pgbench_branches_pkey |            90112
 2017-02-04 18:39:25.134944+01 | 1486229965.13494 | pgbench_tellers_pkey  |           458752
 2017-02-04 18:39:25.134944+01 | 1486229965.13494 | pgbench_accounts_pkey |        224641024

 2017-02-04 18:39:26.209328+01 | 1486229966.20933 | pgbench_branches_pkey |            90112
 2017-02-04 18:39:26.209328+01 | 1486229966.20933 | pgbench_tellers_pkey  |           458752
 2017-02-04 18:39:26.209328+01 | 1486229966.20933 | pgbench_accounts_pkey |        224641024

 2017-02-04 18:39:27.29136+01 | 1486229967.29136 | pgbench_branches_pkey |            90112
 2017-02-04 18:39:27.29136+01 | 1486229967.29136 | pgbench_tellers_pkey  |           458752
 2017-02-04 18:39:27.29136+01 | 1486229967.29136 | pgbench_accounts_pkey |        224641024

 2017-02-04 18:39:28.367374+01 | 1486229968.36737 | pgbench_branches_pkey |            90112
 2017-02-04 18:39:28.367374+01 | 1486229968.36737 | pgbench_tellers_pkey  |           458752
 2017-02-04 18:39:28.367374+01 | 1486229968.36737 | pgbench_accounts_pkey |        224641024

 2017-02-04 18:39:29.457016+01 | 1486229969.45702 | pgbench_branches_pkey |            90112
 2017-02-04 18:39:29.457016+01 | 1486229969.45702 | pgbench_tellers_pkey  |           458752
 2017-02-04 18:39:29.457016+01 | 1486229969.45702 | pgbench_accounts_pkey |        224641024

 2017-02-04 18:39:30.537608+01 | 1486229970.53761 | pgbench_branches_pkey |            90112
 2017-02-04 18:39:30.537608+01 | 1486229970.53761 | pgbench_tellers_pkey  |           458752
 2017-02-04 18:39:30.537608+01 | 1486229970.53761 | pgbench_accounts_pkey |        224641024

 2017-02-04 18:39:31.617022+01 | 1486229971.61702 | pgbench_branches_pkey |            90112
 2017-02-04 18:39:31.617022+01 | 1486229971.61702 | pgbench_tellers_pkey  |           458752
 2017-02-04 18:39:31.617022+01 | 1486229971.61702 | pgbench_accounts_pkey |        224641024

 2017-02-04 18:39:32.689315+01 | 1486229972.68932 | pgbench_branches_pkey |            90112
 2017-02-04 18:39:32.689315+01 | 1486229972.68932 | pgbench_tellers_pkey  |           458752
 2017-02-04 18:39:32.689315+01 | 1486229972.68932 | pgbench_accounts_pkey |        224641024

 2017-02-04 18:39:33.766557+01 | 1486229973.76656 | pgbench_branches_pkey |            90112
 2017-02-04 18:39:33.766557+01 | 1486229973.76656 | pgbench_tellers_pkey  |           458752
 2017-02-04 18:39:33.766557+01 | 1486229973.76656 | pgbench_accounts_pkey |        224641024

 2017-02-04 18:39:34.843891+01 | 1486229974.84389 | pgbench_branches_pkey |            90112
 2017-02-04 18:39:34.843891+01 | 1486229974.84389 | pgbench_tellers_pkey  |           458752
 2017-02-04 18:39:34.843891+01 | 1486229974.84389 | pgbench_accounts_pkey |        224641024

 2017-02-04 18:39:35.924477+01 | 1486229975.92448 | pgbench_branches_pkey |            90112
 2017-02-04 18:39:35.924477+01 | 1486229975.92448 | pgbench_tellers_pkey  |           458752
 2017-02-04 18:39:35.924477+01 | 1486229975.92448 | pgbench_accounts_pkey |        224641024

 2017-02-04 18:39:37.005078+01 | 1486229977.00508 | pgbench_branches_pkey |            90112
 2017-02-04 18:39:37.005078+01 | 1486229977.00508 | pgbench_tellers_pkey  |           458752
 2017-02-04 18:39:37.005078+01 | 1486229977.00508 | pgbench_accounts_pkey |        224641024

 2017-02-04 18:39:38.084252+01 | 1486229978.08425 | pgbench_branches_pkey |            90112
 2017-02-04 18:39:38.084252+01 | 1486229978.08425 | pgbench_tellers_pkey  |           458752
 2017-02-04 18:39:38.084252+01 | 1486229978.08425 | pgbench_accounts_pkey |        224641024

 2017-02-04 18:39:39.16194+01 | 1486229979.16194 | pgbench_branches_pkey |            90112
 2017-02-04 18:39:39.16194+01 | 1486229979.16194 | pgbench_tellers_pkey  |           458752
 2017-02-04 18:39:39.16194+01 | 1486229979.16194 | pgbench_accounts_pkey |        224641024

 2017-02-04 18:39:40.236918+01 | 1486229980.23692 | pgbench_branches_pkey |            90112
 2017-02-04 18:39:40.236918+01 | 1486229980.23692 | pgbench_tellers_pkey  |           458752
 2017-02-04 18:39:40.236918+01 | 1486229980.23692 | pgbench_accounts_pkey |        224641024

 2017-02-04 18:39:41.317657+01 | 1486229981.31766 | pgbench_branches_pkey |            90112
 2017-02-04 18:39:41.317657+01 | 1486229981.31766 | pgbench_tellers_pkey  |           458752
 2017-02-04 18:39:41.317657+01 | 1486229981.31766 | pgbench_accounts_pkey |        224641024

 2017-02-04 18:39:42.399827+01 | 1486229982.39983 | pgbench_branches_pkey |            90112
 2017-02-04 18:39:42.399827+01 | 1486229982.39983 | pgbench_tellers_pkey  |           458752
 2017-02-04 18:39:42.399827+01 | 1486229982.39983 | pgbench_accounts_pkey |        224641024

 2017-02-04 18:39:43.47513+01 | 1486229983.47513 | pgbench_branches_pkey |            90112
 2017-02-04 18:39:43.47513+01 | 1486229983.47513 | pgbench_tellers_pkey  |           458752
 2017-02-04 18:39:43.47513+01 | 1486229983.47513 | pgbench_accounts_pkey |        224641024

 2017-02-04 18:39:44.559295+01 | 1486229984.55929 | pgbench_branches_pkey |            90112
 2017-02-04 18:39:44.559295+01 | 1486229984.55929 | pgbench_tellers_pkey  |           458752
 2017-02-04 18:39:44.559295+01 | 1486229984.55929 | pgbench_accounts_pkey |        224641024

 2017-02-04 18:39:45.638391+01 | 1486229985.63839 | pgbench_branches_pkey |            90112
 2017-02-04 18:39:45.638391+01 | 1486229985.63839 | pgbench_tellers_pkey  |           458752
 2017-02-04 18:39:45.638391+01 | 1486229985.63839 | pgbench_accounts_pkey |        224641024

 2017-02-04 18:39:46.716283+01 | 1486229986.71628 | pgbench_branches_pkey |            90112
 2017-02-04 18:39:46.716283+01 | 1486229986.71628 | pgbench_tellers_pkey  |           458752
 2017-02-04 18:39:46.716283+01 | 1486229986.71628 | pgbench_accounts_pkey |        224641024

 2017-02-04 18:39:47.794507+01 | 1486229987.79451 | pgbench_branches_pkey |            90112
 2017-02-04 18:39:47.794507+01 | 1486229987.79451 | pgbench_tellers_pkey  |           458752
 2017-02-04 18:39:47.794507+01 | 1486229987.79451 | pgbench_accounts_pkey |        224641024

 2017-02-04 18:39:48.87508+01 | 1486229988.87508 | pgbench_branches_pkey |            90112
 2017-02-04 18:39:48.87508+01 | 1486229988.87508 | pgbench_tellers_pkey  |           458752
 2017-02-04 18:39:48.87508+01 | 1486229988.87508 | pgbench_accounts_pkey |        224641024

 2017-02-04 18:39:49.951199+01 | 1486229989.9512 | pgbench_branches_pkey |            90112
 2017-02-04 18:39:49.951199+01 | 1486229989.9512 | pgbench_tellers_pkey  |           458752
 2017-02-04 18:39:49.951199+01 | 1486229989.9512 | pgbench_accounts_pkey |        224641024

 2017-02-04 18:39:51.031934+01 | 1486229991.03193 | pgbench_branches_pkey |            90112
 2017-02-04 18:39:51.031934+01 | 1486229991.03193 | pgbench_tellers_pkey  |           458752
 2017-02-04 18:39:51.031934+01 | 1486229991.03193 | pgbench_accounts_pkey |        224641024

 2017-02-04 18:39:52.104229+01 | 1486229992.10423 | pgbench_branches_pkey |            90112
 2017-02-04 18:39:52.104229+01 | 1486229992.10423 | pgbench_tellers_pkey  |           458752
 2017-02-04 18:39:52.104229+01 | 1486229992.10423 | pgbench_accounts_pkey |        224641024

 2017-02-04 18:39:53.186567+01 | 1486229993.18657 | pgbench_branches_pkey |            90112
 2017-02-04 18:39:53.186567+01 | 1486229993.18657 | pgbench_tellers_pkey  |           458752
 2017-02-04 18:39:53.186567+01 | 1486229993.18657 | pgbench_accounts_pkey |        224641024

 2017-02-04 18:39:54.266315+01 | 1486229994.26631 | pgbench_branches_pkey |            90112
 2017-02-04 18:39:54.266315+01 | 1486229994.26631 | pgbench_tellers_pkey  |           458752
 2017-02-04 18:39:54.266315+01 | 1486229994.26631 | pgbench_accounts_pkey |        224641024

 2017-02-04 18:39:55.339689+01 | 1486229995.33969 | pgbench_branches_pkey |            90112
 2017-02-04 18:39:55.339689+01 | 1486229995.33969 | pgbench_tellers_pkey  |           458752
 2017-02-04 18:39:55.339689+01 | 1486229995.33969 | pgbench_accounts_pkey |        224641024

 2017-02-04 18:39:56.414119+01 | 1486229996.41412 | pgbench_branches_pkey |            90112
 2017-02-04 18:39:56.414119+01 | 1486229996.41412 | pgbench_tellers_pkey  |           458752
 2017-02-04 18:39:56.414119+01 | 1486229996.41412 | pgbench_accounts_pkey |        224641024

 2017-02-04 18:39:57.497582+01 | 1486229997.49758 | pgbench_branches_pkey |            90112
 2017-02-04 18:39:57.497582+01 | 1486229997.49758 | pgbench_tellers_pkey  |           458752
 2017-02-04 18:39:57.497582+01 | 1486229997.49758 | pgbench_accounts_pkey |        224641024

 2017-02-04 18:39:58.577351+01 | 1486229998.57735 | pgbench_branches_pkey |            90112
 2017-02-04 18:39:58.577351+01 | 1486229998.57735 | pgbench_tellers_pkey  |           458752
 2017-02-04 18:39:58.577351+01 | 1486229998.57735 | pgbench_accounts_pkey |        224641024

 2017-02-04 18:39:59.654886+01 | 1486229999.65489 | pgbench_branches_pkey |            90112
 2017-02-04 18:39:59.654886+01 | 1486229999.65489 | pgbench_tellers_pkey  |           458752
 2017-02-04 18:39:59.654886+01 | 1486229999.65489 | pgbench_accounts_pkey |        224641024

 2017-02-04 18:40:00.732708+01 | 1486230000.73271 | pgbench_branches_pkey |            90112
 2017-02-04 18:40:00.732708+01 | 1486230000.73271 | pgbench_tellers_pkey  |           458752
 2017-02-04 18:40:00.732708+01 | 1486230000.73271 | pgbench_accounts_pkey |        224641024

 2017-02-04 18:40:01.823115+01 | 1486230001.82312 | pgbench_branches_pkey |            90112
 2017-02-04 18:40:01.823115+01 | 1486230001.82312 | pgbench_tellers_pkey  |           458752
 2017-02-04 18:40:01.823115+01 | 1486230001.82312 | pgbench_accounts_pkey |        224641024

 2017-02-04 18:40:02.908551+01 | 1486230002.90855 | pgbench_branches_pkey |            90112
 2017-02-04 18:40:02.908551+01 | 1486230002.90855 | pgbench_tellers_pkey  |           458752
 2017-02-04 18:40:02.908551+01 | 1486230002.90855 | pgbench_accounts_pkey |        224641024

 2017-02-04 18:40:03.992923+01 | 1486230003.99292 | pgbench_branches_pkey |            90112
 2017-02-04 18:40:03.992923+01 | 1486230003.99292 | pgbench_tellers_pkey  |           458752
 2017-02-04 18:40:03.992923+01 | 1486230003.99292 | pgbench_accounts_pkey |        224641024

 2017-02-04 18:40:05.063891+01 | 1486230005.06389 | pgbench_branches_pkey |            90112
 2017-02-04 18:40:05.063891+01 | 1486230005.06389 | pgbench_tellers_pkey  |           458752
 2017-02-04 18:40:05.063891+01 | 1486230005.06389 | pgbench_accounts_pkey |        224641024

 2017-02-04 18:40:06.148932+01 | 1486230006.14893 | pgbench_branches_pkey |            90112
 2017-02-04 18:40:06.148932+01 | 1486230006.14893 | pgbench_tellers_pkey  |           458752
 2017-02-04 18:40:06.148932+01 | 1486230006.14893 | pgbench_accounts_pkey |        224641024

 2017-02-04 18:40:07.225231+01 | 1486230007.22523 | pgbench_branches_pkey |            90112
 2017-02-04 18:40:07.225231+01 | 1486230007.22523 | pgbench_tellers_pkey  |           458752
 2017-02-04 18:40:07.225231+01 | 1486230007.22523 | pgbench_accounts_pkey |        224641024

 2017-02-04 18:40:08.304519+01 | 1486230008.30452 | pgbench_branches_pkey |            90112
 2017-02-04 18:40:08.304519+01 | 1486230008.30452 | pgbench_tellers_pkey  |           458752
 2017-02-04 18:40:08.304519+01 | 1486230008.30452 | pgbench_accounts_pkey |        224641024

 2017-02-04 18:40:09.380099+01 | 1486230009.3801 | pgbench_branches_pkey |            90112
 2017-02-04 18:40:09.380099+01 | 1486230009.3801 | pgbench_tellers_pkey  |           458752
 2017-02-04 18:40:09.380099+01 | 1486230009.3801 | pgbench_accounts_pkey |        224641024

 2017-02-04 18:40:10.464071+01 | 1486230010.46407 | pgbench_branches_pkey |            90112
 2017-02-04 18:40:10.464071+01 | 1486230010.46407 | pgbench_tellers_pkey  |           458752
 2017-02-04 18:40:10.464071+01 | 1486230010.46407 | pgbench_accounts_pkey |        224641024

 2017-02-04 18:40:11.543737+01 | 1486230011.54374 | pgbench_branches_pkey |            90112
 2017-02-04 18:40:11.543737+01 | 1486230011.54374 | pgbench_tellers_pkey  |           458752
 2017-02-04 18:40:11.543737+01 | 1486230011.54374 | pgbench_accounts_pkey |        224641024

 2017-02-04 18:40:12.622155+01 | 1486230012.62215 | pgbench_branches_pkey |            90112
 2017-02-04 18:40:12.622155+01 | 1486230012.62215 | pgbench_tellers_pkey  |           458752
 2017-02-04 18:40:12.622155+01 | 1486230012.62215 | pgbench_accounts_pkey |        224641024

 2017-02-04 18:40:13.700643+01 | 1486230013.70064 | pgbench_branches_pkey |            90112
 2017-02-04 18:40:13.700643+01 | 1486230013.70064 | pgbench_tellers_pkey  |           458752
 2017-02-04 18:40:13.700643+01 | 1486230013.70064 | pgbench_accounts_pkey |        224641024

 2017-02-04 18:40:14.784368+01 | 1486230014.78437 | pgbench_branches_pkey |            90112
 2017-02-04 18:40:14.784368+01 | 1486230014.78437 | pgbench_tellers_pkey  |           458752
 2017-02-04 18:40:14.784368+01 | 1486230014.78437 | pgbench_accounts_pkey |        224641024

 2017-02-04 18:40:15.864146+01 | 1486230015.86415 | pgbench_branches_pkey |            90112
 2017-02-04 18:40:15.864146+01 | 1486230015.86415 | pgbench_tellers_pkey  |           458752
 2017-02-04 18:40:15.864146+01 | 1486230015.86415 | pgbench_accounts_pkey |        224641024

 2017-02-04 18:40:16.936201+01 | 1486230016.9362 | pgbench_branches_pkey |            90112
 2017-02-04 18:40:16.936201+01 | 1486230016.9362 | pgbench_tellers_pkey  |           458752
 2017-02-04 18:40:16.936201+01 | 1486230016.9362 | pgbench_accounts_pkey |        224641024

 2017-02-04 18:40:18.011492+01 | 1486230018.01149 | pgbench_branches_pkey |            90112
 2017-02-04 18:40:18.011492+01 | 1486230018.01149 | pgbench_tellers_pkey  |           458752
 2017-02-04 18:40:18.011492+01 | 1486230018.01149 | pgbench_accounts_pkey |        224641024

 2017-02-04 18:40:19.096042+01 | 1486230019.09604 | pgbench_branches_pkey |            90112
 2017-02-04 18:40:19.096042+01 | 1486230019.09604 | pgbench_tellers_pkey  |           458752
 2017-02-04 18:40:19.096042+01 | 1486230019.09604 | pgbench_accounts_pkey |        224641024

 2017-02-04 18:40:20.175576+01 | 1486230020.17558 | pgbench_branches_pkey |            90112
 2017-02-04 18:40:20.175576+01 | 1486230020.17558 | pgbench_tellers_pkey  |           458752
 2017-02-04 18:40:20.175576+01 | 1486230020.17558 | pgbench_accounts_pkey |        224641024

 2017-02-04 18:40:21.25733+01 | 1486230021.25733 | pgbench_branches_pkey |            90112
 2017-02-04 18:40:21.25733+01 | 1486230021.25733 | pgbench_tellers_pkey  |           458752
 2017-02-04 18:40:21.25733+01 | 1486230021.25733 | pgbench_accounts_pkey |        224641024

 2017-02-04 18:40:22.33756+01 | 1486230022.33756 | pgbench_branches_pkey |            90112
 2017-02-04 18:40:22.33756+01 | 1486230022.33756 | pgbench_tellers_pkey  |           458752
 2017-02-04 18:40:22.33756+01 | 1486230022.33756 | pgbench_accounts_pkey |        224641024

 2017-02-04 18:40:23.41128+01 | 1486230023.41128 | pgbench_branches_pkey |            90112
 2017-02-04 18:40:23.41128+01 | 1486230023.41128 | pgbench_tellers_pkey  |           458752
 2017-02-04 18:40:23.41128+01 | 1486230023.41128 | pgbench_accounts_pkey |        224641024

 2017-02-04 18:40:24.478769+01 | 1486230024.47877 | pgbench_branches_pkey |            90112
 2017-02-04 18:40:24.478769+01 | 1486230024.47877 | pgbench_tellers_pkey  |           458752
 2017-02-04 18:40:24.478769+01 | 1486230024.47877 | pgbench_accounts_pkey |        224641024

 2017-02-04 18:40:25.55829+01 | 1486230025.55829 | pgbench_branches_pkey |            90112
 2017-02-04 18:40:25.55829+01 | 1486230025.55829 | pgbench_tellers_pkey  |           458752
 2017-02-04 18:40:25.55829+01 | 1486230025.55829 | pgbench_accounts_pkey |        224641024

 2017-02-04 18:40:26.630353+01 | 1486230026.63035 | pgbench_branches_pkey |            90112
 2017-02-04 18:40:26.630353+01 | 1486230026.63035 | pgbench_tellers_pkey  |           458752
 2017-02-04 18:40:26.630353+01 | 1486230026.63035 | pgbench_accounts_pkey |        224641024

 2017-02-04 18:40:27.712815+01 | 1486230027.71282 | pgbench_branches_pkey |            90112
 2017-02-04 18:40:27.712815+01 | 1486230027.71282 | pgbench_tellers_pkey  |           458752
 2017-02-04 18:40:27.712815+01 | 1486230027.71282 | pgbench_accounts_pkey |        224641024

 2017-02-04 18:40:28.791402+01 | 1486230028.7914 | pgbench_branches_pkey |            90112
 2017-02-04 18:40:28.791402+01 | 1486230028.7914 | pgbench_tellers_pkey  |           458752
 2017-02-04 18:40:28.791402+01 | 1486230028.7914 | pgbench_accounts_pkey |        224641024

 2017-02-04 18:40:29.869367+01 | 1486230029.86937 | pgbench_branches_pkey |            90112
 2017-02-04 18:40:29.869367+01 | 1486230029.86937 | pgbench_tellers_pkey  |           458752
 2017-02-04 18:40:29.869367+01 | 1486230029.86937 | pgbench_accounts_pkey |        224641024

 2017-02-04 18:40:30.940133+01 | 1486230030.94013 | pgbench_branches_pkey |            90112
 2017-02-04 18:40:30.940133+01 | 1486230030.94013 | pgbench_tellers_pkey  |           458752
 2017-02-04 18:40:30.940133+01 | 1486230030.94013 | pgbench_accounts_pkey |        224641024

 2017-02-04 18:40:32.021332+01 | 1486230032.02133 | pgbench_branches_pkey |            90112
 2017-02-04 18:40:32.021332+01 | 1486230032.02133 | pgbench_tellers_pkey  |           458752
 2017-02-04 18:40:32.021332+01 | 1486230032.02133 | pgbench_accounts_pkey |        224641024

 2017-02-04 18:40:33.098064+01 | 1486230033.09806 | pgbench_branches_pkey |            90112
 2017-02-04 18:40:33.098064+01 | 1486230033.09806 | pgbench_tellers_pkey  |           458752
 2017-02-04 18:40:33.098064+01 | 1486230033.09806 | pgbench_accounts_pkey |        224641024

 2017-02-04 18:40:34.181974+01 | 1486230034.18197 | pgbench_branches_pkey |            90112
 2017-02-04 18:40:34.181974+01 | 1486230034.18197 | pgbench_tellers_pkey  |           458752
 2017-02-04 18:40:34.181974+01 | 1486230034.18197 | pgbench_accounts_pkey |        224641024

 2017-02-04 18:40:35.263714+01 | 1486230035.26371 | pgbench_branches_pkey |            90112
 2017-02-04 18:40:35.263714+01 | 1486230035.26371 | pgbench_tellers_pkey  |           458752
 2017-02-04 18:40:35.263714+01 | 1486230035.26371 | pgbench_accounts_pkey |        224641024

 2017-02-04 18:40:36.355216+01 | 1486230036.35522 | pgbench_branches_pkey |            90112
 2017-02-04 18:40:36.355216+01 | 1486230036.35522 | pgbench_tellers_pkey  |           458752
 2017-02-04 18:40:36.355216+01 | 1486230036.35522 | pgbench_accounts_pkey |        224641024

 2017-02-04 18:40:37.433541+01 | 1486230037.43354 | pgbench_branches_pkey |            90112
 2017-02-04 18:40:37.433541+01 | 1486230037.43354 | pgbench_tellers_pkey  |           458752
 2017-02-04 18:40:37.433541+01 | 1486230037.43354 | pgbench_accounts_pkey |        224641024

 2017-02-04 18:40:38.514167+01 | 1486230038.51417 | pgbench_branches_pkey |            90112
 2017-02-04 18:40:38.514167+01 | 1486230038.51417 | pgbench_tellers_pkey  |           458752
 2017-02-04 18:40:38.514167+01 | 1486230038.51417 | pgbench_accounts_pkey |        224641024

 2017-02-04 18:40:39.593259+01 | 1486230039.59326 | pgbench_branches_pkey |            90112
 2017-02-04 18:40:39.593259+01 | 1486230039.59326 | pgbench_tellers_pkey  |           458752
 2017-02-04 18:40:39.593259+01 | 1486230039.59326 | pgbench_accounts_pkey |        224641024

 2017-02-04 18:40:40.673944+01 | 1486230040.67394 | pgbench_branches_pkey |            90112
 2017-02-04 18:40:40.673944+01 | 1486230040.67394 | pgbench_tellers_pkey  |           458752
 2017-02-04 18:40:40.673944+01 | 1486230040.67394 | pgbench_accounts_pkey |        224641024

 2017-02-04 18:40:41.756292+01 | 1486230041.75629 | pgbench_branches_pkey |            90112
 2017-02-04 18:40:41.756292+01 | 1486230041.75629 | pgbench_tellers_pkey  |           458752
 2017-02-04 18:40:41.756292+01 | 1486230041.75629 | pgbench_accounts_pkey |        224641024

 2017-02-04 18:40:42.837573+01 | 1486230042.83757 | pgbench_branches_pkey |            90112
 2017-02-04 18:40:42.837573+01 | 1486230042.83757 | pgbench_tellers_pkey  |           458752
 2017-02-04 18:40:42.837573+01 | 1486230042.83757 | pgbench_accounts_pkey |        224641024

 2017-02-04 18:40:43.910259+01 | 1486230043.91026 | pgbench_branches_pkey |            90112
 2017-02-04 18:40:43.910259+01 | 1486230043.91026 | pgbench_tellers_pkey  |           458752
 2017-02-04 18:40:43.910259+01 | 1486230043.91026 | pgbench_accounts_pkey |        224641024

 2017-02-04 18:40:44.989849+01 | 1486230044.98985 | pgbench_branches_pkey |            90112
 2017-02-04 18:40:44.989849+01 | 1486230044.98985 | pgbench_tellers_pkey  |           458752
 2017-02-04 18:40:44.989849+01 | 1486230044.98985 | pgbench_accounts_pkey |        224641024

 2017-02-04 18:40:46.068167+01 | 1486230046.06817 | pgbench_branches_pkey |            90112
 2017-02-04 18:40:46.068167+01 | 1486230046.06817 | pgbench_tellers_pkey  |           458752
 2017-02-04 18:40:46.068167+01 | 1486230046.06817 | pgbench_accounts_pkey |        224641024

 2017-02-04 18:40:47.144321+01 | 1486230047.14432 | pgbench_branches_pkey |            90112
 2017-02-04 18:40:47.144321+01 | 1486230047.14432 | pgbench_tellers_pkey  |           458752
 2017-02-04 18:40:47.144321+01 | 1486230047.14432 | pgbench_accounts_pkey |        224641024

 2017-02-04 18:40:48.216679+01 | 1486230048.21668 | pgbench_branches_pkey |            90112
 2017-02-04 18:40:48.216679+01 | 1486230048.21668 | pgbench_tellers_pkey  |           458752
 2017-02-04 18:40:48.216679+01 | 1486230048.21668 | pgbench_accounts_pkey |        224641024

 2017-02-04 18:40:49.302976+01 | 1486230049.30298 | pgbench_branches_pkey |            90112
 2017-02-04 18:40:49.302976+01 | 1486230049.30298 | pgbench_tellers_pkey  |           458752
 2017-02-04 18:40:49.302976+01 | 1486230049.30298 | pgbench_accounts_pkey |        224641024

 2017-02-04 18:40:50.382216+01 | 1486230050.38222 | pgbench_branches_pkey |            90112
 2017-02-04 18:40:50.382216+01 | 1486230050.38222 | pgbench_tellers_pkey  |           458752
 2017-02-04 18:40:50.382216+01 | 1486230050.38222 | pgbench_accounts_pkey |        224641024

 2017-02-04 18:40:51.456726+01 | 1486230051.45673 | pgbench_branches_pkey |            90112
 2017-02-04 18:40:51.456726+01 | 1486230051.45673 | pgbench_tellers_pkey  |           458752
 2017-02-04 18:40:51.456726+01 | 1486230051.45673 | pgbench_accounts_pkey |        224641024

 2017-02-04 18:40:52.539667+01 | 1486230052.53967 | pgbench_branches_pkey |            90112
 2017-02-04 18:40:52.539667+01 | 1486230052.53967 | pgbench_tellers_pkey  |           458752
 2017-02-04 18:40:52.539667+01 | 1486230052.53967 | pgbench_accounts_pkey |        224641024

 2017-02-04 18:40:53.615033+01 | 1486230053.61503 | pgbench_branches_pkey |            90112
 2017-02-04 18:40:53.615033+01 | 1486230053.61503 | pgbench_tellers_pkey  |           458752
 2017-02-04 18:40:53.615033+01 | 1486230053.61503 | pgbench_accounts_pkey |        224641024

 2017-02-04 18:40:54.692931+01 | 1486230054.69293 | pgbench_branches_pkey |            90112
 2017-02-04 18:40:54.692931+01 | 1486230054.69293 | pgbench_tellers_pkey  |           458752
 2017-02-04 18:40:54.692931+01 | 1486230054.69293 | pgbench_accounts_pkey |        224641024

 2017-02-04 18:40:55.770624+01 | 1486230055.77062 | pgbench_branches_pkey |            90112
 2017-02-04 18:40:55.770624+01 | 1486230055.77062 | pgbench_tellers_pkey  |           458752
 2017-02-04 18:40:55.770624+01 | 1486230055.77062 | pgbench_accounts_pkey |        224641024

 2017-02-04 18:40:56.847966+01 | 1486230056.84797 | pgbench_branches_pkey |            90112
 2017-02-04 18:40:56.847966+01 | 1486230056.84797 | pgbench_tellers_pkey  |           458752
 2017-02-04 18:40:56.847966+01 | 1486230056.84797 | pgbench_accounts_pkey |        224641024

 2017-02-04 18:40:57.925661+01 | 1486230057.92566 | pgbench_branches_pkey |            90112
 2017-02-04 18:40:57.925661+01 | 1486230057.92566 | pgbench_tellers_pkey  |           458752
 2017-02-04 18:40:57.925661+01 | 1486230057.92566 | pgbench_accounts_pkey |        224641024

 2017-02-04 18:40:59.005565+01 | 1486230059.00556 | pgbench_branches_pkey |            90112
 2017-02-04 18:40:59.005565+01 | 1486230059.00556 | pgbench_tellers_pkey  |           458752
 2017-02-04 18:40:59.005565+01 | 1486230059.00556 | pgbench_accounts_pkey |        224641024

 2017-02-04 18:41:00.079546+01 | 1486230060.07955 | pgbench_branches_pkey |            90112
 2017-02-04 18:41:00.079546+01 | 1486230060.07955 | pgbench_tellers_pkey  |           458752
 2017-02-04 18:41:00.079546+01 | 1486230060.07955 | pgbench_accounts_pkey |        224641024

 2017-02-04 18:41:01.153681+01 | 1486230061.15368 | pgbench_branches_pkey |            90112
 2017-02-04 18:41:01.153681+01 | 1486230061.15368 | pgbench_tellers_pkey  |           458752
 2017-02-04 18:41:01.153681+01 | 1486230061.15368 | pgbench_accounts_pkey |        224641024

 2017-02-04 18:41:02.227738+01 | 1486230062.22774 | pgbench_branches_pkey |            90112
 2017-02-04 18:41:02.227738+01 | 1486230062.22774 | pgbench_tellers_pkey  |           458752
 2017-02-04 18:41:02.227738+01 | 1486230062.22774 | pgbench_accounts_pkey |        224641024

 2017-02-04 18:41:03.306518+01 | 1486230063.30652 | pgbench_branches_pkey |            90112
 2017-02-04 18:41:03.306518+01 | 1486230063.30652 | pgbench_tellers_pkey  |           458752
 2017-02-04 18:41:03.306518+01 | 1486230063.30652 | pgbench_accounts_pkey |        224641024

 2017-02-04 18:41:04.382898+01 | 1486230064.3829 | pgbench_branches_pkey |            90112
 2017-02-04 18:41:04.382898+01 | 1486230064.3829 | pgbench_tellers_pkey  |           458752
 2017-02-04 18:41:04.382898+01 | 1486230064.3829 | pgbench_accounts_pkey |        224641024

 2017-02-04 18:41:05.470684+01 | 1486230065.47068 | pgbench_branches_pkey |            90112
 2017-02-04 18:41:05.470684+01 | 1486230065.47068 | pgbench_tellers_pkey  |           458752
 2017-02-04 18:41:05.470684+01 | 1486230065.47068 | pgbench_accounts_pkey |        224641024

 2017-02-04 18:41:06.542188+01 | 1486230066.54219 | pgbench_branches_pkey |            90112
 2017-02-04 18:41:06.542188+01 | 1486230066.54219 | pgbench_tellers_pkey  |           458752
 2017-02-04 18:41:06.542188+01 | 1486230066.54219 | pgbench_accounts_pkey |        224641024

 2017-02-04 18:41:07.617046+01 | 1486230067.61705 | pgbench_branches_pkey |            90112
 2017-02-04 18:41:07.617046+01 | 1486230067.61705 | pgbench_tellers_pkey  |           458752
 2017-02-04 18:41:07.617046+01 | 1486230067.61705 | pgbench_accounts_pkey |        224641024

 2017-02-04 18:41:08.694157+01 | 1486230068.69416 | pgbench_branches_pkey |            90112
 2017-02-04 18:41:08.694157+01 | 1486230068.69416 | pgbench_tellers_pkey  |           458752
 2017-02-04 18:41:08.694157+01 | 1486230068.69416 | pgbench_accounts_pkey |        224641024

 2017-02-04 18:41:09.778429+01 | 1486230069.77843 | pgbench_branches_pkey |            90112
 2017-02-04 18:41:09.778429+01 | 1486230069.77843 | pgbench_tellers_pkey  |           458752
 2017-02-04 18:41:09.778429+01 | 1486230069.77843 | pgbench_accounts_pkey |        224641024

 2017-02-04 18:41:10.859791+01 | 1486230070.85979 | pgbench_branches_pkey |            90112
 2017-02-04 18:41:10.859791+01 | 1486230070.85979 | pgbench_tellers_pkey  |           458752
 2017-02-04 18:41:10.859791+01 | 1486230070.85979 | pgbench_accounts_pkey |        224641024

 2017-02-04 18:41:11.939835+01 | 1486230071.93984 | pgbench_branches_pkey |            90112
 2017-02-04 18:41:11.939835+01 | 1486230071.93984 | pgbench_tellers_pkey  |           458752
 2017-02-04 18:41:11.939835+01 | 1486230071.93984 | pgbench_accounts_pkey |        224641024

 2017-02-04 18:41:13.02147+01 | 1486230073.02147 | pgbench_branches_pkey |            90112
 2017-02-04 18:41:13.02147+01 | 1486230073.02147 | pgbench_tellers_pkey  |           458752
 2017-02-04 18:41:13.02147+01 | 1486230073.02147 | pgbench_accounts_pkey |        224641024

 2017-02-04 18:41:14.105083+01 | 1486230074.10508 | pgbench_branches_pkey |            90112
 2017-02-04 18:41:14.105083+01 | 1486230074.10508 | pgbench_tellers_pkey  |           458752
 2017-02-04 18:41:14.105083+01 | 1486230074.10508 | pgbench_accounts_pkey |        224641024

 2017-02-04 18:41:15.190752+01 | 1486230075.19075 | pgbench_branches_pkey |            90112
 2017-02-04 18:41:15.190752+01 | 1486230075.19075 | pgbench_tellers_pkey  |           458752
 2017-02-04 18:41:15.190752+01 | 1486230075.19075 | pgbench_accounts_pkey |        224641024

 2017-02-04 18:41:16.27621+01 | 1486230076.27621 | pgbench_branches_pkey |            90112
 2017-02-04 18:41:16.27621+01 | 1486230076.27621 | pgbench_tellers_pkey  |           458752
 2017-02-04 18:41:16.27621+01 | 1486230076.27621 | pgbench_accounts_pkey |        224641024

 2017-02-04 18:41:17.35693+01 | 1486230077.35693 | pgbench_branches_pkey |            90112
 2017-02-04 18:41:17.35693+01 | 1486230077.35693 | pgbench_tellers_pkey  |           458752
 2017-02-04 18:41:17.35693+01 | 1486230077.35693 | pgbench_accounts_pkey |        224641024

 2017-02-04 18:41:18.437623+01 | 1486230078.43762 | pgbench_branches_pkey |            90112
 2017-02-04 18:41:18.437623+01 | 1486230078.43762 | pgbench_tellers_pkey  |           458752
 2017-02-04 18:41:18.437623+01 | 1486230078.43762 | pgbench_accounts_pkey |        224641024

 2017-02-04 18:41:19.522588+01 | 1486230079.52259 | pgbench_branches_pkey |            90112
 2017-02-04 18:41:19.522588+01 | 1486230079.52259 | pgbench_tellers_pkey  |           458752
 2017-02-04 18:41:19.522588+01 | 1486230079.52259 | pgbench_accounts_pkey |        224641024

 2017-02-04 18:41:20.613805+01 | 1486230080.61381 | pgbench_branches_pkey |            90112
 2017-02-04 18:41:20.613805+01 | 1486230080.61381 | pgbench_tellers_pkey  |           458752
 2017-02-04 18:41:20.613805+01 | 1486230080.61381 | pgbench_accounts_pkey |        224641024

 2017-02-04 18:41:21.694714+01 | 1486230081.69471 | pgbench_branches_pkey |            90112
 2017-02-04 18:41:21.694714+01 | 1486230081.69471 | pgbench_tellers_pkey  |           458752
 2017-02-04 18:41:21.694714+01 | 1486230081.69471 | pgbench_accounts_pkey |        224641024

 2017-02-04 18:41:22.772522+01 | 1486230082.77252 | pgbench_branches_pkey |            90112
 2017-02-04 18:41:22.772522+01 | 1486230082.77252 | pgbench_tellers_pkey  |           458752
 2017-02-04 18:41:22.772522+01 | 1486230082.77252 | pgbench_accounts_pkey |        224641024

 2017-02-04 18:41:23.85519+01 | 1486230083.85519 | pgbench_branches_pkey |            90112
 2017-02-04 18:41:23.85519+01 | 1486230083.85519 | pgbench_tellers_pkey  |           458752
 2017-02-04 18:41:23.85519+01 | 1486230083.85519 | pgbench_accounts_pkey |        224641024

 2017-02-04 18:41:24.931076+01 | 1486230084.93108 | pgbench_branches_pkey |            90112
 2017-02-04 18:41:24.931076+01 | 1486230084.93108 | pgbench_tellers_pkey  |           458752
 2017-02-04 18:41:24.931076+01 | 1486230084.93108 | pgbench_accounts_pkey |        224641024

 2017-02-04 18:41:26.020647+01 | 1486230086.02065 | pgbench_branches_pkey |            90112
 2017-02-04 18:41:26.020647+01 | 1486230086.02065 | pgbench_tellers_pkey  |           458752
 2017-02-04 18:41:26.020647+01 | 1486230086.02065 | pgbench_accounts_pkey |        224641024

 2017-02-04 18:41:27.092099+01 | 1486230087.0921 | pgbench_branches_pkey |            90112
 2017-02-04 18:41:27.092099+01 | 1486230087.0921 | pgbench_tellers_pkey  |           458752
 2017-02-04 18:41:27.092099+01 | 1486230087.0921 | pgbench_accounts_pkey |        224641024

 2017-02-04 18:41:28.174098+01 | 1486230088.1741 | pgbench_branches_pkey |            90112
 2017-02-04 18:41:28.174098+01 | 1486230088.1741 | pgbench_tellers_pkey  |           458752
 2017-02-04 18:41:28.174098+01 | 1486230088.1741 | pgbench_accounts_pkey |        224641024

 2017-02-04 18:41:29.256215+01 | 1486230089.25622 | pgbench_branches_pkey |            90112
 2017-02-04 18:41:29.256215+01 | 1486230089.25622 | pgbench_tellers_pkey  |           458752
 2017-02-04 18:41:29.256215+01 | 1486230089.25622 | pgbench_accounts_pkey |        224641024

 2017-02-04 18:41:30.332091+01 | 1486230090.33209 | pgbench_branches_pkey |            90112
 2017-02-04 18:41:30.332091+01 | 1486230090.33209 | pgbench_tellers_pkey  |           458752
 2017-02-04 18:41:30.332091+01 | 1486230090.33209 | pgbench_accounts_pkey |        224641024

 2017-02-04 18:41:31.410475+01 | 1486230091.41048 | pgbench_branches_pkey |            90112
 2017-02-04 18:41:31.410475+01 | 1486230091.41048 | pgbench_tellers_pkey  |           458752
 2017-02-04 18:41:31.410475+01 | 1486230091.41048 | pgbench_accounts_pkey |        224641024

 2017-02-04 18:41:32.487391+01 | 1486230092.48739 | pgbench_branches_pkey |            90112
 2017-02-04 18:41:32.487391+01 | 1486230092.48739 | pgbench_tellers_pkey  |           458752
 2017-02-04 18:41:32.487391+01 | 1486230092.48739 | pgbench_accounts_pkey |        224641024

 2017-02-04 18:41:33.570798+01 | 1486230093.5708 | pgbench_branches_pkey |            90112
 2017-02-04 18:41:33.570798+01 | 1486230093.5708 | pgbench_tellers_pkey  |           458752
 2017-02-04 18:41:33.570798+01 | 1486230093.5708 | pgbench_accounts_pkey |        224641024

 2017-02-04 18:41:34.644966+01 | 1486230094.64497 | pgbench_branches_pkey |            90112
 2017-02-04 18:41:34.644966+01 | 1486230094.64497 | pgbench_tellers_pkey  |           458752
 2017-02-04 18:41:34.644966+01 | 1486230094.64497 | pgbench_accounts_pkey |        224641024

 2017-02-04 18:41:35.726343+01 | 1486230095.72634 | pgbench_branches_pkey |            90112
 2017-02-04 18:41:35.726343+01 | 1486230095.72634 | pgbench_tellers_pkey  |           458752
 2017-02-04 18:41:35.726343+01 | 1486230095.72634 | pgbench_accounts_pkey |        224641024

 2017-02-04 18:41:36.80396+01 | 1486230096.80396 | pgbench_branches_pkey |            90112
 2017-02-04 18:41:36.80396+01 | 1486230096.80396 | pgbench_tellers_pkey  |           458752
 2017-02-04 18:41:36.80396+01 | 1486230096.80396 | pgbench_accounts_pkey |        224641024

 2017-02-04 18:41:37.883078+01 | 1486230097.88308 | pgbench_branches_pkey |            90112
 2017-02-04 18:41:37.883078+01 | 1486230097.88308 | pgbench_tellers_pkey  |           458752
 2017-02-04 18:41:37.883078+01 | 1486230097.88308 | pgbench_accounts_pkey |        224641024

 2017-02-04 18:41:38.960986+01 | 1486230098.96099 | pgbench_branches_pkey |            90112
 2017-02-04 18:41:38.960986+01 | 1486230098.96099 | pgbench_tellers_pkey  |           458752
 2017-02-04 18:41:38.960986+01 | 1486230098.96099 | pgbench_accounts_pkey |        224641024

 2017-02-04 18:41:40.042646+01 | 1486230100.04265 | pgbench_branches_pkey |            90112
 2017-02-04 18:41:40.042646+01 | 1486230100.04265 | pgbench_tellers_pkey  |           458752
 2017-02-04 18:41:40.042646+01 | 1486230100.04265 | pgbench_accounts_pkey |        224641024

 2017-02-04 18:41:41.13391+01 | 1486230101.13391 | pgbench_branches_pkey |            90112
 2017-02-04 18:41:41.13391+01 | 1486230101.13391 | pgbench_tellers_pkey  |           458752
 2017-02-04 18:41:41.13391+01 | 1486230101.13391 | pgbench_accounts_pkey |        224641024

 2017-02-04 18:41:42.213533+01 | 1486230102.21353 | pgbench_branches_pkey |            90112
 2017-02-04 18:41:42.213533+01 | 1486230102.21353 | pgbench_tellers_pkey  |           458752
 2017-02-04 18:41:42.213533+01 | 1486230102.21353 | pgbench_accounts_pkey |        224641024

 2017-02-04 18:41:43.288355+01 | 1486230103.28836 | pgbench_branches_pkey |            90112
 2017-02-04 18:41:43.288355+01 | 1486230103.28836 | pgbench_tellers_pkey  |           458752
 2017-02-04 18:41:43.288355+01 | 1486230103.28836 | pgbench_accounts_pkey |        224641024

 2017-02-04 18:41:44.360143+01 | 1486230104.36014 | pgbench_branches_pkey |            90112
 2017-02-04 18:41:44.360143+01 | 1486230104.36014 | pgbench_tellers_pkey  |           458752
 2017-02-04 18:41:44.360143+01 | 1486230104.36014 | pgbench_accounts_pkey |        224641024

 2017-02-04 18:41:45.436007+01 | 1486230105.43601 | pgbench_branches_pkey |            90112
 2017-02-04 18:41:45.436007+01 | 1486230105.43601 | pgbench_tellers_pkey  |           458752
 2017-02-04 18:41:45.436007+01 | 1486230105.43601 | pgbench_accounts_pkey |        224641024

 2017-02-04 18:41:46.520192+01 | 1486230106.52019 | pgbench_branches_pkey |            90112
 2017-02-04 18:41:46.520192+01 | 1486230106.52019 | pgbench_tellers_pkey  |           458752
 2017-02-04 18:41:46.520192+01 | 1486230106.52019 | pgbench_accounts_pkey |        224641024

 2017-02-04 18:41:47.605809+01 | 1486230107.60581 | pgbench_branches_pkey |            90112
 2017-02-04 18:41:47.605809+01 | 1486230107.60581 | pgbench_tellers_pkey  |           458752
 2017-02-04 18:41:47.605809+01 | 1486230107.60581 | pgbench_accounts_pkey |        224641024

 2017-02-04 18:41:48.680828+01 | 1486230108.68083 | pgbench_branches_pkey |            90112
 2017-02-04 18:41:48.680828+01 | 1486230108.68083 | pgbench_tellers_pkey  |           458752
 2017-02-04 18:41:48.680828+01 | 1486230108.68083 | pgbench_accounts_pkey |        224641024

 2017-02-04 18:41:49.755608+01 | 1486230109.75561 | pgbench_branches_pkey |            90112
 2017-02-04 18:41:49.755608+01 | 1486230109.75561 | pgbench_tellers_pkey  |           458752
 2017-02-04 18:41:49.755608+01 | 1486230109.75561 | pgbench_accounts_pkey |        224641024

 2017-02-04 18:41:50.830667+01 | 1486230110.83067 | pgbench_branches_pkey |            90112
 2017-02-04 18:41:50.830667+01 | 1486230110.83067 | pgbench_tellers_pkey  |           458752
 2017-02-04 18:41:50.830667+01 | 1486230110.83067 | pgbench_accounts_pkey |        224641024

 2017-02-04 18:41:51.912294+01 | 1486230111.91229 | pgbench_branches_pkey |            90112
 2017-02-04 18:41:51.912294+01 | 1486230111.91229 | pgbench_tellers_pkey  |           458752
 2017-02-04 18:41:51.912294+01 | 1486230111.91229 | pgbench_accounts_pkey |        224641024

 2017-02-04 18:41:52.99788+01 | 1486230112.99788 | pgbench_branches_pkey |            90112
 2017-02-04 18:41:52.99788+01 | 1486230112.99788 | pgbench_tellers_pkey  |           458752
 2017-02-04 18:41:52.99788+01 | 1486230112.99788 | pgbench_accounts_pkey |        224641024

 2017-02-04 18:41:54.078978+01 | 1486230114.07898 | pgbench_branches_pkey |            90112
 2017-02-04 18:41:54.078978+01 | 1486230114.07898 | pgbench_tellers_pkey  |           458752
 2017-02-04 18:41:54.078978+01 | 1486230114.07898 | pgbench_accounts_pkey |        224641024

 2017-02-04 18:41:55.16164+01 | 1486230115.16164 | pgbench_branches_pkey |            90112
 2017-02-04 18:41:55.16164+01 | 1486230115.16164 | pgbench_tellers_pkey  |           458752
 2017-02-04 18:41:55.16164+01 | 1486230115.16164 | pgbench_accounts_pkey |        224641024

 2017-02-04 18:41:56.236974+01 | 1486230116.23697 | pgbench_branches_pkey |            90112
 2017-02-04 18:41:56.236974+01 | 1486230116.23697 | pgbench_tellers_pkey  |           458752
 2017-02-04 18:41:56.236974+01 | 1486230116.23697 | pgbench_accounts_pkey |        224641024

 2017-02-04 18:41:57.311875+01 | 1486230117.31188 | pgbench_branches_pkey |            90112
 2017-02-04 18:41:57.311875+01 | 1486230117.31188 | pgbench_tellers_pkey  |           458752
 2017-02-04 18:41:57.311875+01 | 1486230117.31188 | pgbench_accounts_pkey |        224641024

 2017-02-04 18:41:58.393245+01 | 1486230118.39324 | pgbench_branches_pkey |            90112
 2017-02-04 18:41:58.393245+01 | 1486230118.39324 | pgbench_tellers_pkey  |           458752
 2017-02-04 18:41:58.393245+01 | 1486230118.39324 | pgbench_accounts_pkey |        224641024

 2017-02-04 18:41:59.475993+01 | 1486230119.47599 | pgbench_branches_pkey |            90112
 2017-02-04 18:41:59.475993+01 | 1486230119.47599 | pgbench_tellers_pkey  |           458752
 2017-02-04 18:41:59.475993+01 | 1486230119.47599 | pgbench_accounts_pkey |        224641024

 2017-02-04 18:42:00.560661+01 | 1486230120.56066 | pgbench_branches_pkey |            90112
 2017-02-04 18:42:00.560661+01 | 1486230120.56066 | pgbench_tellers_pkey  |           458752
 2017-02-04 18:42:00.560661+01 | 1486230120.56066 | pgbench_accounts_pkey |        224641024

 2017-02-04 18:42:01.632352+01 | 1486230121.63235 | pgbench_branches_pkey |            90112
 2017-02-04 18:42:01.632352+01 | 1486230121.63235 | pgbench_tellers_pkey  |           458752
 2017-02-04 18:42:01.632352+01 | 1486230121.63235 | pgbench_accounts_pkey |        224641024

 2017-02-04 18:42:02.707138+01 | 1486230122.70714 | pgbench_branches_pkey |            90112
 2017-02-04 18:42:02.707138+01 | 1486230122.70714 | pgbench_tellers_pkey  |           458752
 2017-02-04 18:42:02.707138+01 | 1486230122.70714 | pgbench_accounts_pkey |        224641024

 2017-02-04 18:42:03.788171+01 | 1486230123.78817 | pgbench_branches_pkey |            90112
 2017-02-04 18:42:03.788171+01 | 1486230123.78817 | pgbench_tellers_pkey  |           458752
 2017-02-04 18:42:03.788171+01 | 1486230123.78817 | pgbench_accounts_pkey |        224641024

 2017-02-04 18:42:04.865441+01 | 1486230124.86544 | pgbench_branches_pkey |            90112
 2017-02-04 18:42:04.865441+01 | 1486230124.86544 | pgbench_tellers_pkey  |           458752
 2017-02-04 18:42:04.865441+01 | 1486230124.86544 | pgbench_accounts_pkey |        224641024

 2017-02-04 18:42:05.939622+01 | 1486230125.93962 | pgbench_branches_pkey |            90112
 2017-02-04 18:42:05.939622+01 | 1486230125.93962 | pgbench_tellers_pkey  |           458752
 2017-02-04 18:42:05.939622+01 | 1486230125.93962 | pgbench_accounts_pkey |        224641024

 2017-02-04 18:42:07.017577+01 | 1486230127.01758 | pgbench_branches_pkey |            90112
 2017-02-04 18:42:07.017577+01 | 1486230127.01758 | pgbench_tellers_pkey  |           458752
 2017-02-04 18:42:07.017577+01 | 1486230127.01758 | pgbench_accounts_pkey |        224641024

 2017-02-04 18:42:08.106954+01 | 1486230128.10695 | pgbench_branches_pkey |            90112
 2017-02-04 18:42:08.106954+01 | 1486230128.10695 | pgbench_tellers_pkey  |           458752
 2017-02-04 18:42:08.106954+01 | 1486230128.10695 | pgbench_accounts_pkey |        224641024

 2017-02-04 18:42:09.182544+01 | 1486230129.18254 | pgbench_branches_pkey |            90112
 2017-02-04 18:42:09.182544+01 | 1486230129.18254 | pgbench_tellers_pkey  |           458752
 2017-02-04 18:42:09.182544+01 | 1486230129.18254 | pgbench_accounts_pkey |        224641024

 2017-02-04 18:42:10.254712+01 | 1486230130.25471 | pgbench_branches_pkey |            90112
 2017-02-04 18:42:10.254712+01 | 1486230130.25471 | pgbench_tellers_pkey  |           458752
 2017-02-04 18:42:10.254712+01 | 1486230130.25471 | pgbench_accounts_pkey |        224641024

 2017-02-04 18:42:11.316147+01 | 1486230131.31615 | pgbench_branches_pkey |            90112
 2017-02-04 18:42:11.316147+01 | 1486230131.31615 | pgbench_tellers_pkey  |           458752
 2017-02-04 18:42:11.316147+01 | 1486230131.31615 | pgbench_accounts_pkey |        224641024

 2017-02-04 18:42:12.401581+01 | 1486230132.40158 | pgbench_branches_pkey |            90112
 2017-02-04 18:42:12.401581+01 | 1486230132.40158 | pgbench_tellers_pkey  |           458752
 2017-02-04 18:42:12.401581+01 | 1486230132.40158 | pgbench_accounts_pkey |        224641024

 2017-02-04 18:42:13.471134+01 | 1486230133.47113 | pgbench_branches_pkey |            90112
 2017-02-04 18:42:13.471134+01 | 1486230133.47113 | pgbench_tellers_pkey  |           458752
 2017-02-04 18:42:13.471134+01 | 1486230133.47113 | pgbench_accounts_pkey |        224641024

 2017-02-04 18:42:14.545914+01 | 1486230134.54591 | pgbench_branches_pkey |            90112
 2017-02-04 18:42:14.545914+01 | 1486230134.54591 | pgbench_tellers_pkey  |           458752
 2017-02-04 18:42:14.545914+01 | 1486230134.54591 | pgbench_accounts_pkey |        224641024

 2017-02-04 18:42:15.626062+01 | 1486230135.62606 | pgbench_branches_pkey |            90112
 2017-02-04 18:42:15.626062+01 | 1486230135.62606 | pgbench_tellers_pkey  |           458752
 2017-02-04 18:42:15.626062+01 | 1486230135.62606 | pgbench_accounts_pkey |        224641024

 2017-02-04 18:42:16.712254+01 | 1486230136.71225 | pgbench_branches_pkey |            90112
 2017-02-04 18:42:16.712254+01 | 1486230136.71225 | pgbench_tellers_pkey  |           458752
 2017-02-04 18:42:16.712254+01 | 1486230136.71225 | pgbench_accounts_pkey |        224641024

 2017-02-04 18:42:17.790875+01 | 1486230137.79087 | pgbench_branches_pkey |            90112
 2017-02-04 18:42:17.790875+01 | 1486230137.79087 | pgbench_tellers_pkey  |           458752
 2017-02-04 18:42:17.790875+01 | 1486230137.79087 | pgbench_accounts_pkey |        224641024

 2017-02-04 18:42:18.875294+01 | 1486230138.87529 | pgbench_branches_pkey |            90112
 2017-02-04 18:42:18.875294+01 | 1486230138.87529 | pgbench_tellers_pkey  |           458752
 2017-02-04 18:42:18.875294+01 | 1486230138.87529 | pgbench_accounts_pkey |        224641024

 2017-02-04 18:42:19.956085+01 | 1486230139.95608 | pgbench_branches_pkey |            90112
 2017-02-04 18:42:19.956085+01 | 1486230139.95608 | pgbench_tellers_pkey  |           458752
 2017-02-04 18:42:19.956085+01 | 1486230139.95608 | pgbench_accounts_pkey |        224641024

 2017-02-04 18:42:21.029133+01 | 1486230141.02913 | pgbench_branches_pkey |            90112
 2017-02-04 18:42:21.029133+01 | 1486230141.02913 | pgbench_tellers_pkey  |           458752
 2017-02-04 18:42:21.029133+01 | 1486230141.02913 | pgbench_accounts_pkey |        224641024

 2017-02-04 18:42:22.106705+01 | 1486230142.1067 | pgbench_branches_pkey |            90112
 2017-02-04 18:42:22.106705+01 | 1486230142.1067 | pgbench_tellers_pkey  |           458752
 2017-02-04 18:42:22.106705+01 | 1486230142.1067 | pgbench_accounts_pkey |        224641024

 2017-02-04 18:42:23.183492+01 | 1486230143.18349 | pgbench_branches_pkey |            90112
 2017-02-04 18:42:23.183492+01 | 1486230143.18349 | pgbench_tellers_pkey  |           458752
 2017-02-04 18:42:23.183492+01 | 1486230143.18349 | pgbench_accounts_pkey |        224641024

 2017-02-04 18:42:24.260824+01 | 1486230144.26082 | pgbench_branches_pkey |            90112
 2017-02-04 18:42:24.260824+01 | 1486230144.26082 | pgbench_tellers_pkey  |           458752
 2017-02-04 18:42:24.260824+01 | 1486230144.26082 | pgbench_accounts_pkey |        224641024

 2017-02-04 18:42:25.339008+01 | 1486230145.33901 | pgbench_branches_pkey |            90112
 2017-02-04 18:42:25.339008+01 | 1486230145.33901 | pgbench_tellers_pkey  |           458752
 2017-02-04 18:42:25.339008+01 | 1486230145.33901 | pgbench_accounts_pkey |        224641024

 2017-02-04 18:42:26.418168+01 | 1486230146.41817 | pgbench_branches_pkey |            90112
 2017-02-04 18:42:26.418168+01 | 1486230146.41817 | pgbench_tellers_pkey  |           458752
 2017-02-04 18:42:26.418168+01 | 1486230146.41817 | pgbench_accounts_pkey |        224641024

 2017-02-04 18:42:27.493248+01 | 1486230147.49325 | pgbench_branches_pkey |            90112
 2017-02-04 18:42:27.493248+01 | 1486230147.49325 | pgbench_tellers_pkey  |           458752
 2017-02-04 18:42:27.493248+01 | 1486230147.49325 | pgbench_accounts_pkey |        224641024

 2017-02-04 18:42:28.573571+01 | 1486230148.57357 | pgbench_branches_pkey |            90112
 2017-02-04 18:42:28.573571+01 | 1486230148.57357 | pgbench_tellers_pkey  |           458752
 2017-02-04 18:42:28.573571+01 | 1486230148.57357 | pgbench_accounts_pkey |        224641024

 2017-02-04 18:42:29.650506+01 | 1486230149.65051 | pgbench_branches_pkey |            90112
 2017-02-04 18:42:29.650506+01 | 1486230149.65051 | pgbench_tellers_pkey  |           458752
 2017-02-04 18:42:29.650506+01 | 1486230149.65051 | pgbench_accounts_pkey |        224641024

 2017-02-04 18:42:30.726775+01 | 1486230150.72677 | pgbench_branches_pkey |            90112
 2017-02-04 18:42:30.726775+01 | 1486230150.72677 | pgbench_tellers_pkey  |           458752
 2017-02-04 18:42:30.726775+01 | 1486230150.72677 | pgbench_accounts_pkey |        224641024

 2017-02-04 18:42:31.804392+01 | 1486230151.80439 | pgbench_branches_pkey |            90112
 2017-02-04 18:42:31.804392+01 | 1486230151.80439 | pgbench_tellers_pkey  |           458752
 2017-02-04 18:42:31.804392+01 | 1486230151.80439 | pgbench_accounts_pkey |        224641024

 2017-02-04 18:42:32.881852+01 | 1486230152.88185 | pgbench_branches_pkey |            90112
 2017-02-04 18:42:32.881852+01 | 1486230152.88185 | pgbench_tellers_pkey  |           458752
 2017-02-04 18:42:32.881852+01 | 1486230152.88185 | pgbench_accounts_pkey |        224641024

 2017-02-04 18:42:33.959712+01 | 1486230153.95971 | pgbench_branches_pkey |            90112
 2017-02-04 18:42:33.959712+01 | 1486230153.95971 | pgbench_tellers_pkey  |           458752
 2017-02-04 18:42:33.959712+01 | 1486230153.95971 | pgbench_accounts_pkey |        224641024

 2017-02-04 18:42:35.032996+01 | 1486230155.033 | pgbench_branches_pkey |            90112
 2017-02-04 18:42:35.032996+01 | 1486230155.033 | pgbench_tellers_pkey  |           458752
 2017-02-04 18:42:35.032996+01 | 1486230155.033 | pgbench_accounts_pkey |        224641024

 2017-02-04 18:42:36.121396+01 | 1486230156.1214 | pgbench_branches_pkey |            90112
 2017-02-04 18:42:36.121396+01 | 1486230156.1214 | pgbench_tellers_pkey  |           458752
 2017-02-04 18:42:36.121396+01 | 1486230156.1214 | pgbench_accounts_pkey |        224641024

 2017-02-04 18:42:37.197551+01 | 1486230157.19755 | pgbench_branches_pkey |            90112
 2017-02-04 18:42:37.197551+01 | 1486230157.19755 | pgbench_tellers_pkey  |           458752
 2017-02-04 18:42:37.197551+01 | 1486230157.19755 | pgbench_accounts_pkey |        224641024

 2017-02-04 18:42:38.290378+01 | 1486230158.29038 | pgbench_branches_pkey |            90112
 2017-02-04 18:42:38.290378+01 | 1486230158.29038 | pgbench_tellers_pkey  |           458752
 2017-02-04 18:42:38.290378+01 | 1486230158.29038 | pgbench_accounts_pkey |        224641024

 2017-02-04 18:42:39.368781+01 | 1486230159.36878 | pgbench_branches_pkey |            90112
 2017-02-04 18:42:39.368781+01 | 1486230159.36878 | pgbench_tellers_pkey  |           458752
 2017-02-04 18:42:39.368781+01 | 1486230159.36878 | pgbench_accounts_pkey |        224641024

 2017-02-04 18:42:40.447944+01 | 1486230160.44794 | pgbench_branches_pkey |            90112
 2017-02-04 18:42:40.447944+01 | 1486230160.44794 | pgbench_tellers_pkey  |           458752
 2017-02-04 18:42:40.447944+01 | 1486230160.44794 | pgbench_accounts_pkey |        224641024

 2017-02-04 18:42:41.53148+01 | 1486230161.53148 | pgbench_branches_pkey |            90112
 2017-02-04 18:42:41.53148+01 | 1486230161.53148 | pgbench_tellers_pkey  |           458752
 2017-02-04 18:42:41.53148+01 | 1486230161.53148 | pgbench_accounts_pkey |        224641024

 2017-02-04 18:42:42.608054+01 | 1486230162.60805 | pgbench_branches_pkey |            90112
 2017-02-04 18:42:42.608054+01 | 1486230162.60805 | pgbench_tellers_pkey  |           458752
 2017-02-04 18:42:42.608054+01 | 1486230162.60805 | pgbench_accounts_pkey |        224641024

 2017-02-04 18:42:43.689033+01 | 1486230163.68903 | pgbench_branches_pkey |            90112
 2017-02-04 18:42:43.689033+01 | 1486230163.68903 | pgbench_tellers_pkey  |           458752
 2017-02-04 18:42:43.689033+01 | 1486230163.68903 | pgbench_accounts_pkey |        224641024

 2017-02-04 18:42:44.761515+01 | 1486230164.76151 | pgbench_branches_pkey |            90112
 2017-02-04 18:42:44.761515+01 | 1486230164.76151 | pgbench_tellers_pkey  |           458752
 2017-02-04 18:42:44.761515+01 | 1486230164.76151 | pgbench_accounts_pkey |        224641024

 2017-02-04 18:42:45.842967+01 | 1486230165.84297 | pgbench_branches_pkey |            90112
 2017-02-04 18:42:45.842967+01 | 1486230165.84297 | pgbench_tellers_pkey  |           458752
 2017-02-04 18:42:45.842967+01 | 1486230165.84297 | pgbench_accounts_pkey |        224641024

 2017-02-04 18:42:46.926142+01 | 1486230166.92614 | pgbench_branches_pkey |            90112
 2017-02-04 18:42:46.926142+01 | 1486230166.92614 | pgbench_tellers_pkey  |           458752
 2017-02-04 18:42:46.926142+01 | 1486230166.92614 | pgbench_accounts_pkey |        224641024

 2017-02-04 18:42:47.995596+01 | 1486230167.9956 | pgbench_branches_pkey |            90112
 2017-02-04 18:42:47.995596+01 | 1486230167.9956 | pgbench_tellers_pkey  |           458752
 2017-02-04 18:42:47.995596+01 | 1486230167.9956 | pgbench_accounts_pkey |        224641024

 2017-02-04 18:42:49.072142+01 | 1486230169.07214 | pgbench_branches_pkey |            90112
 2017-02-04 18:42:49.072142+01 | 1486230169.07214 | pgbench_tellers_pkey  |           458752
 2017-02-04 18:42:49.072142+01 | 1486230169.07214 | pgbench_accounts_pkey |        224641024

 2017-02-04 18:42:50.145069+01 | 1486230170.14507 | pgbench_branches_pkey |            90112
 2017-02-04 18:42:50.145069+01 | 1486230170.14507 | pgbench_tellers_pkey  |           458752
 2017-02-04 18:42:50.145069+01 | 1486230170.14507 | pgbench_accounts_pkey |        224641024

 2017-02-04 18:42:51.227986+01 | 1486230171.22799 | pgbench_branches_pkey |            90112
 2017-02-04 18:42:51.227986+01 | 1486230171.22799 | pgbench_tellers_pkey  |           458752
 2017-02-04 18:42:51.227986+01 | 1486230171.22799 | pgbench_accounts_pkey |        224641024

 2017-02-04 18:42:52.304672+01 | 1486230172.30467 | pgbench_branches_pkey |            90112
 2017-02-04 18:42:52.304672+01 | 1486230172.30467 | pgbench_tellers_pkey  |           458752
 2017-02-04 18:42:52.304672+01 | 1486230172.30467 | pgbench_accounts_pkey |        224641024

 2017-02-04 18:42:53.38315+01 | 1486230173.38315 | pgbench_branches_pkey |            90112
 2017-02-04 18:42:53.38315+01 | 1486230173.38315 | pgbench_tellers_pkey  |           458752
 2017-02-04 18:42:53.38315+01 | 1486230173.38315 | pgbench_accounts_pkey |        224641024

 2017-02-04 18:42:54.457451+01 | 1486230174.45745 | pgbench_branches_pkey |            90112
 2017-02-04 18:42:54.457451+01 | 1486230174.45745 | pgbench_tellers_pkey  |           458752
 2017-02-04 18:42:54.457451+01 | 1486230174.45745 | pgbench_accounts_pkey |        224641024

 2017-02-04 18:42:55.544511+01 | 1486230175.54451 | pgbench_branches_pkey |            90112
 2017-02-04 18:42:55.544511+01 | 1486230175.54451 | pgbench_tellers_pkey  |           458752
 2017-02-04 18:42:55.544511+01 | 1486230175.54451 | pgbench_accounts_pkey |        224641024

 2017-02-04 18:42:56.622854+01 | 1486230176.62285 | pgbench_branches_pkey |            90112
 2017-02-04 18:42:56.622854+01 | 1486230176.62285 | pgbench_tellers_pkey  |           458752
 2017-02-04 18:42:56.622854+01 | 1486230176.62285 | pgbench_accounts_pkey |        224641024

 2017-02-04 18:42:57.701496+01 | 1486230177.7015 | pgbench_branches_pkey |            90112
 2017-02-04 18:42:57.701496+01 | 1486230177.7015 | pgbench_tellers_pkey  |           458752
 2017-02-04 18:42:57.701496+01 | 1486230177.7015 | pgbench_accounts_pkey |        224641024

 2017-02-04 18:42:58.784444+01 | 1486230178.78444 | pgbench_branches_pkey |            90112
 2017-02-04 18:42:58.784444+01 | 1486230178.78444 | pgbench_tellers_pkey  |           458752
 2017-02-04 18:42:58.784444+01 | 1486230178.78444 | pgbench_accounts_pkey |        224641024

 2017-02-04 18:42:59.861984+01 | 1486230179.86198 | pgbench_branches_pkey |            90112
 2017-02-04 18:42:59.861984+01 | 1486230179.86198 | pgbench_tellers_pkey  |           458752
 2017-02-04 18:42:59.861984+01 | 1486230179.86198 | pgbench_accounts_pkey |        224641024

 2017-02-04 18:43:00.948968+01 | 1486230180.94897 | pgbench_branches_pkey |            90112
 2017-02-04 18:43:00.948968+01 | 1486230180.94897 | pgbench_tellers_pkey  |           458752
 2017-02-04 18:43:00.948968+01 | 1486230180.94897 | pgbench_accounts_pkey |        224641024

 2017-02-04 18:43:02.03194+01 | 1486230182.03194 | pgbench_branches_pkey |            90112
 2017-02-04 18:43:02.03194+01 | 1486230182.03194 | pgbench_tellers_pkey  |           458752
 2017-02-04 18:43:02.03194+01 | 1486230182.03194 | pgbench_accounts_pkey |        224641024

 2017-02-04 18:43:03.108227+01 | 1486230183.10823 | pgbench_branches_pkey |            90112
 2017-02-04 18:43:03.108227+01 | 1486230183.10823 | pgbench_tellers_pkey  |           458752
 2017-02-04 18:43:03.108227+01 | 1486230183.10823 | pgbench_accounts_pkey |        224641024

 2017-02-04 18:43:04.188912+01 | 1486230184.18891 | pgbench_branches_pkey |            90112
 2017-02-04 18:43:04.188912+01 | 1486230184.18891 | pgbench_tellers_pkey  |           458752
 2017-02-04 18:43:04.188912+01 | 1486230184.18891 | pgbench_accounts_pkey |        224641024

 2017-02-04 18:43:05.263563+01 | 1486230185.26356 | pgbench_branches_pkey |            90112
 2017-02-04 18:43:05.263563+01 | 1486230185.26356 | pgbench_tellers_pkey  |           458752
 2017-02-04 18:43:05.263563+01 | 1486230185.26356 | pgbench_accounts_pkey |        224641024

 2017-02-04 18:43:06.347331+01 | 1486230186.34733 | pgbench_branches_pkey |            90112
 2017-02-04 18:43:06.347331+01 | 1486230186.34733 | pgbench_tellers_pkey  |           458752
 2017-02-04 18:43:06.347331+01 | 1486230186.34733 | pgbench_accounts_pkey |        224641024

 2017-02-04 18:43:07.426965+01 | 1486230187.42696 | pgbench_branches_pkey |            90112
 2017-02-04 18:43:07.426965+01 | 1486230187.42696 | pgbench_tellers_pkey  |           458752
 2017-02-04 18:43:07.426965+01 | 1486230187.42696 | pgbench_accounts_pkey |        224641024

 2017-02-04 18:43:08.50412+01 | 1486230188.50412 | pgbench_branches_pkey |            90112
 2017-02-04 18:43:08.50412+01 | 1486230188.50412 | pgbench_tellers_pkey  |           458752
 2017-02-04 18:43:08.50412+01 | 1486230188.50412 | pgbench_accounts_pkey |        224641024

 2017-02-04 18:43:09.578721+01 | 1486230189.57872 | pgbench_branches_pkey |            90112
 2017-02-04 18:43:09.578721+01 | 1486230189.57872 | pgbench_tellers_pkey  |           458752
 2017-02-04 18:43:09.578721+01 | 1486230189.57872 | pgbench_accounts_pkey |        224641024

 2017-02-04 18:43:10.659248+01 | 1486230190.65925 | pgbench_branches_pkey |            90112
 2017-02-04 18:43:10.659248+01 | 1486230190.65925 | pgbench_tellers_pkey  |           458752
 2017-02-04 18:43:10.659248+01 | 1486230190.65925 | pgbench_accounts_pkey |        224641024

 2017-02-04 18:43:11.749012+01 | 1486230191.74901 | pgbench_branches_pkey |            90112
 2017-02-04 18:43:11.749012+01 | 1486230191.74901 | pgbench_tellers_pkey  |           458752
 2017-02-04 18:43:11.749012+01 | 1486230191.74901 | pgbench_accounts_pkey |        224641024

 2017-02-04 18:43:12.829376+01 | 1486230192.82938 | pgbench_branches_pkey |            90112
 2017-02-04 18:43:12.829376+01 | 1486230192.82938 | pgbench_tellers_pkey  |           458752
 2017-02-04 18:43:12.829376+01 | 1486230192.82938 | pgbench_accounts_pkey |        224641024

 2017-02-04 18:43:13.913124+01 | 1486230193.91312 | pgbench_branches_pkey |            90112
 2017-02-04 18:43:13.913124+01 | 1486230193.91312 | pgbench_tellers_pkey  |           458752
 2017-02-04 18:43:13.913124+01 | 1486230193.91312 | pgbench_accounts_pkey |        224641024

 2017-02-04 18:43:14.991619+01 | 1486230194.99162 | pgbench_branches_pkey |            90112
 2017-02-04 18:43:14.991619+01 | 1486230194.99162 | pgbench_tellers_pkey  |           458752
 2017-02-04 18:43:14.991619+01 | 1486230194.99162 | pgbench_accounts_pkey |        224641024

 2017-02-04 18:43:16.075115+01 | 1486230196.07511 | pgbench_branches_pkey |            90112
 2017-02-04 18:43:16.075115+01 | 1486230196.07511 | pgbench_tellers_pkey  |           458752
 2017-02-04 18:43:16.075115+01 | 1486230196.07511 | pgbench_accounts_pkey |        224641024

 2017-02-04 18:43:17.152335+01 | 1486230197.15233 | pgbench_branches_pkey |            90112
 2017-02-04 18:43:17.152335+01 | 1486230197.15233 | pgbench_tellers_pkey  |           458752
 2017-02-04 18:43:17.152335+01 | 1486230197.15233 | pgbench_accounts_pkey |        224641024

 2017-02-04 18:43:18.225684+01 | 1486230198.22568 | pgbench_branches_pkey |            90112
 2017-02-04 18:43:18.225684+01 | 1486230198.22568 | pgbench_tellers_pkey  |           458752
 2017-02-04 18:43:18.225684+01 | 1486230198.22568 | pgbench_accounts_pkey |        224641024

 2017-02-04 18:43:19.297864+01 | 1486230199.29786 | pgbench_branches_pkey |            90112
 2017-02-04 18:43:19.297864+01 | 1486230199.29786 | pgbench_tellers_pkey  |           458752
 2017-02-04 18:43:19.297864+01 | 1486230199.29786 | pgbench_accounts_pkey |        224641024

 2017-02-04 18:43:20.373467+01 | 1486230200.37347 | pgbench_branches_pkey |            90112
 2017-02-04 18:43:20.373467+01 | 1486230200.37347 | pgbench_tellers_pkey  |           458752
 2017-02-04 18:43:20.373467+01 | 1486230200.37347 | pgbench_accounts_pkey |        224641024

 2017-02-04 18:43:21.455029+01 | 1486230201.45503 | pgbench_branches_pkey |            90112
 2017-02-04 18:43:21.455029+01 | 1486230201.45503 | pgbench_tellers_pkey  |           458752
 2017-02-04 18:43:21.455029+01 | 1486230201.45503 | pgbench_accounts_pkey |        224641024

 2017-02-04 18:43:22.535299+01 | 1486230202.5353 | pgbench_branches_pkey |            90112
 2017-02-04 18:43:22.535299+01 | 1486230202.5353 | pgbench_tellers_pkey  |           458752
 2017-02-04 18:43:22.535299+01 | 1486230202.5353 | pgbench_accounts_pkey |        224641024

 2017-02-04 18:43:23.616046+01 | 1486230203.61605 | pgbench_branches_pkey |            90112
 2017-02-04 18:43:23.616046+01 | 1486230203.61605 | pgbench_tellers_pkey  |           458752
 2017-02-04 18:43:23.616046+01 | 1486230203.61605 | pgbench_accounts_pkey |        224641024

 2017-02-04 18:43:24.696963+01 | 1486230204.69696 | pgbench_branches_pkey |            90112
 2017-02-04 18:43:24.696963+01 | 1486230204.69696 | pgbench_tellers_pkey  |           458752
 2017-02-04 18:43:24.696963+01 | 1486230204.69696 | pgbench_accounts_pkey |        224641024

 2017-02-04 18:43:25.777224+01 | 1486230205.77722 | pgbench_branches_pkey |            90112
 2017-02-04 18:43:25.777224+01 | 1486230205.77722 | pgbench_tellers_pkey  |           458752
 2017-02-04 18:43:25.777224+01 | 1486230205.77722 | pgbench_accounts_pkey |        224641024

 2017-02-04 18:43:26.854526+01 | 1486230206.85453 | pgbench_branches_pkey |            90112
 2017-02-04 18:43:26.854526+01 | 1486230206.85453 | pgbench_tellers_pkey  |           458752
 2017-02-04 18:43:26.854526+01 | 1486230206.85453 | pgbench_accounts_pkey |        224641024

 2017-02-04 18:43:27.930202+01 | 1486230207.9302 | pgbench_branches_pkey |            90112
 2017-02-04 18:43:27.930202+01 | 1486230207.9302 | pgbench_tellers_pkey  |           458752
 2017-02-04 18:43:27.930202+01 | 1486230207.9302 | pgbench_accounts_pkey |        224641024

 2017-02-04 18:43:29.001686+01 | 1486230209.00169 | pgbench_branches_pkey |            90112
 2017-02-04 18:43:29.001686+01 | 1486230209.00169 | pgbench_tellers_pkey  |           458752
 2017-02-04 18:43:29.001686+01 | 1486230209.00169 | pgbench_accounts_pkey |        224641024

 2017-02-04 18:43:30.07651+01 | 1486230210.07651 | pgbench_branches_pkey |            90112
 2017-02-04 18:43:30.07651+01 | 1486230210.07651 | pgbench_tellers_pkey  |           458752
 2017-02-04 18:43:30.07651+01 | 1486230210.07651 | pgbench_accounts_pkey |        224641024

 2017-02-04 18:43:31.152804+01 | 1486230211.1528 | pgbench_branches_pkey |            90112
 2017-02-04 18:43:31.152804+01 | 1486230211.1528 | pgbench_tellers_pkey  |           458752
 2017-02-04 18:43:31.152804+01 | 1486230211.1528 | pgbench_accounts_pkey |        224641024

 2017-02-04 18:43:32.236672+01 | 1486230212.23667 | pgbench_branches_pkey |            90112
 2017-02-04 18:43:32.236672+01 | 1486230212.23667 | pgbench_tellers_pkey  |           458752
 2017-02-04 18:43:32.236672+01 | 1486230212.23667 | pgbench_accounts_pkey |        224641024

