 2017-02-05 00:21:14.915851+01 | 1486250474.91585 | pgbench_accounts |       1392427008
 2017-02-05 00:21:14.915851+01 | 1486250474.91585 | pgbench_tellers  |            49152
 2017-02-05 00:21:14.915851+01 | 1486250474.91585 | pgbench_history  |                0
 2017-02-05 00:21:14.915851+01 | 1486250474.91585 | pgbench_branches |             8192

 2017-02-05 00:21:16.005473+01 | 1486250476.00547 | pgbench_accounts |       1392427008
 2017-02-05 00:21:16.005473+01 | 1486250476.00547 | pgbench_tellers  |            49152
 2017-02-05 00:21:16.005473+01 | 1486250476.00547 | pgbench_history  |                0
 2017-02-05 00:21:16.005473+01 | 1486250476.00547 | pgbench_branches |             8192

 2017-02-05 00:21:17.086315+01 | 1486250477.08631 | pgbench_accounts |       1392427008
 2017-02-05 00:21:17.086315+01 | 1486250477.08631 | pgbench_tellers  |            49152
 2017-02-05 00:21:17.086315+01 | 1486250477.08631 | pgbench_history  |                0
 2017-02-05 00:21:17.086315+01 | 1486250477.08631 | pgbench_branches |             8192

 2017-02-05 00:21:18.170806+01 | 1486250478.17081 | pgbench_accounts |       1392427008
 2017-02-05 00:21:18.170806+01 | 1486250478.17081 | pgbench_tellers  |            49152
 2017-02-05 00:21:18.170806+01 | 1486250478.17081 | pgbench_history  |                0
 2017-02-05 00:21:18.170806+01 | 1486250478.17081 | pgbench_branches |             8192

 2017-02-05 00:21:19.260516+01 | 1486250479.26052 | pgbench_accounts |       1392427008
 2017-02-05 00:21:19.260516+01 | 1486250479.26052 | pgbench_tellers  |            49152
 2017-02-05 00:21:19.260516+01 | 1486250479.26052 | pgbench_history  |                0
 2017-02-05 00:21:19.260516+01 | 1486250479.26052 | pgbench_branches |             8192

 2017-02-05 00:21:20.347427+01 | 1486250480.34743 | pgbench_accounts |       1392427008
 2017-02-05 00:21:20.347427+01 | 1486250480.34743 | pgbench_tellers  |            49152
 2017-02-05 00:21:20.347427+01 | 1486250480.34743 | pgbench_history  |                0
 2017-02-05 00:21:20.347427+01 | 1486250480.34743 | pgbench_branches |             8192

 2017-02-05 00:21:21.429082+01 | 1486250481.42908 | pgbench_accounts |       1392427008
 2017-02-05 00:21:21.429082+01 | 1486250481.42908 | pgbench_tellers  |            49152
 2017-02-05 00:21:21.429082+01 | 1486250481.42908 | pgbench_history  |                0
 2017-02-05 00:21:21.429082+01 | 1486250481.42908 | pgbench_branches |             8192

 2017-02-05 00:21:22.509174+01 | 1486250482.50917 | pgbench_accounts |       1392427008
 2017-02-05 00:21:22.509174+01 | 1486250482.50917 | pgbench_tellers  |            49152
 2017-02-05 00:21:22.509174+01 | 1486250482.50917 | pgbench_history  |                0
 2017-02-05 00:21:22.509174+01 | 1486250482.50917 | pgbench_branches |             8192

 2017-02-05 00:21:23.588512+01 | 1486250483.58851 | pgbench_accounts |       1392427008
 2017-02-05 00:21:23.588512+01 | 1486250483.58851 | pgbench_tellers  |            49152
 2017-02-05 00:21:23.588512+01 | 1486250483.58851 | pgbench_history  |                0
 2017-02-05 00:21:23.588512+01 | 1486250483.58851 | pgbench_branches |             8192

 2017-02-05 00:21:24.674468+01 | 1486250484.67447 | pgbench_accounts |       1392427008
 2017-02-05 00:21:24.674468+01 | 1486250484.67447 | pgbench_tellers  |            49152
 2017-02-05 00:21:24.674468+01 | 1486250484.67447 | pgbench_history  |                0
 2017-02-05 00:21:24.674468+01 | 1486250484.67447 | pgbench_branches |             8192

 2017-02-05 00:21:25.756338+01 | 1486250485.75634 | pgbench_accounts |       1392427008
 2017-02-05 00:21:25.756338+01 | 1486250485.75634 | pgbench_tellers  |            49152
 2017-02-05 00:21:25.756338+01 | 1486250485.75634 | pgbench_history  |                0
 2017-02-05 00:21:25.756338+01 | 1486250485.75634 | pgbench_branches |             8192

 2017-02-05 00:21:26.832784+01 | 1486250486.83278 | pgbench_accounts |       1392427008
 2017-02-05 00:21:26.832784+01 | 1486250486.83278 | pgbench_tellers  |            49152
 2017-02-05 00:21:26.832784+01 | 1486250486.83278 | pgbench_history  |                0
 2017-02-05 00:21:26.832784+01 | 1486250486.83278 | pgbench_branches |             8192

 2017-02-05 00:21:27.915609+01 | 1486250487.91561 | pgbench_accounts |       1392427008
 2017-02-05 00:21:27.915609+01 | 1486250487.91561 | pgbench_tellers  |            49152
 2017-02-05 00:21:27.915609+01 | 1486250487.91561 | pgbench_history  |                0
 2017-02-05 00:21:27.915609+01 | 1486250487.91561 | pgbench_branches |             8192

 2017-02-05 00:21:29.000794+01 | 1486250489.00079 | pgbench_accounts |       1392427008
 2017-02-05 00:21:29.000794+01 | 1486250489.00079 | pgbench_tellers  |            49152
 2017-02-05 00:21:29.000794+01 | 1486250489.00079 | pgbench_history  |                0
 2017-02-05 00:21:29.000794+01 | 1486250489.00079 | pgbench_branches |             8192

 2017-02-05 00:21:30.084046+01 | 1486250490.08405 | pgbench_accounts |       1392427008
 2017-02-05 00:21:30.084046+01 | 1486250490.08405 | pgbench_tellers  |            49152
 2017-02-05 00:21:30.084046+01 | 1486250490.08405 | pgbench_history  |                0
 2017-02-05 00:21:30.084046+01 | 1486250490.08405 | pgbench_branches |             8192

 2017-02-05 00:21:31.17876+01 | 1486250491.17876 | pgbench_accounts |       1392427008
 2017-02-05 00:21:31.17876+01 | 1486250491.17876 | pgbench_tellers  |            49152
 2017-02-05 00:21:31.17876+01 | 1486250491.17876 | pgbench_history  |                0
 2017-02-05 00:21:31.17876+01 | 1486250491.17876 | pgbench_branches |             8192

 2017-02-05 00:21:32.270659+01 | 1486250492.27066 | pgbench_accounts |       1392427008
 2017-02-05 00:21:32.270659+01 | 1486250492.27066 | pgbench_tellers  |            49152
 2017-02-05 00:21:32.270659+01 | 1486250492.27066 | pgbench_history  |                0
 2017-02-05 00:21:32.270659+01 | 1486250492.27066 | pgbench_branches |             8192

 2017-02-05 00:21:33.360607+01 | 1486250493.36061 | pgbench_accounts |       1392427008
 2017-02-05 00:21:33.360607+01 | 1486250493.36061 | pgbench_tellers  |            49152
 2017-02-05 00:21:33.360607+01 | 1486250493.36061 | pgbench_history  |                0
 2017-02-05 00:21:33.360607+01 | 1486250493.36061 | pgbench_branches |             8192

 2017-02-05 00:21:34.449126+01 | 1486250494.44913 | pgbench_accounts |       1392427008
 2017-02-05 00:21:34.449126+01 | 1486250494.44913 | pgbench_tellers  |            49152
 2017-02-05 00:21:34.449126+01 | 1486250494.44913 | pgbench_history  |                0
 2017-02-05 00:21:34.449126+01 | 1486250494.44913 | pgbench_branches |             8192

 2017-02-05 00:21:35.532936+01 | 1486250495.53294 | pgbench_accounts |       1392427008
 2017-02-05 00:21:35.532936+01 | 1486250495.53294 | pgbench_tellers  |            49152
 2017-02-05 00:21:35.532936+01 | 1486250495.53294 | pgbench_history  |                0
 2017-02-05 00:21:35.532936+01 | 1486250495.53294 | pgbench_branches |             8192

 2017-02-05 00:21:36.613434+01 | 1486250496.61343 | pgbench_accounts |       1392427008
 2017-02-05 00:21:36.613434+01 | 1486250496.61343 | pgbench_tellers  |            49152
 2017-02-05 00:21:36.613434+01 | 1486250496.61343 | pgbench_history  |                0
 2017-02-05 00:21:36.613434+01 | 1486250496.61343 | pgbench_branches |             8192

 2017-02-05 00:21:37.702933+01 | 1486250497.70293 | pgbench_accounts |       1392427008
 2017-02-05 00:21:37.702933+01 | 1486250497.70293 | pgbench_tellers  |            49152
 2017-02-05 00:21:37.702933+01 | 1486250497.70293 | pgbench_history  |                0
 2017-02-05 00:21:37.702933+01 | 1486250497.70293 | pgbench_branches |             8192

 2017-02-05 00:21:38.787552+01 | 1486250498.78755 | pgbench_accounts |       1392427008
 2017-02-05 00:21:38.787552+01 | 1486250498.78755 | pgbench_tellers  |            49152
 2017-02-05 00:21:38.787552+01 | 1486250498.78755 | pgbench_history  |                0
 2017-02-05 00:21:38.787552+01 | 1486250498.78755 | pgbench_branches |             8192

 2017-02-05 00:21:39.872324+01 | 1486250499.87232 | pgbench_accounts |       1392427008
 2017-02-05 00:21:39.872324+01 | 1486250499.87232 | pgbench_tellers  |            49152
 2017-02-05 00:21:39.872324+01 | 1486250499.87232 | pgbench_history  |                0
 2017-02-05 00:21:39.872324+01 | 1486250499.87232 | pgbench_branches |             8192

 2017-02-05 00:21:40.951018+01 | 1486250500.95102 | pgbench_accounts |       1392427008
 2017-02-05 00:21:40.951018+01 | 1486250500.95102 | pgbench_tellers  |            49152
 2017-02-05 00:21:40.951018+01 | 1486250500.95102 | pgbench_history  |                0
 2017-02-05 00:21:40.951018+01 | 1486250500.95102 | pgbench_branches |             8192

 2017-02-05 00:21:42.03398+01 | 1486250502.03398 | pgbench_accounts |       1392427008
 2017-02-05 00:21:42.03398+01 | 1486250502.03398 | pgbench_tellers  |            49152
 2017-02-05 00:21:42.03398+01 | 1486250502.03398 | pgbench_history  |                0
 2017-02-05 00:21:42.03398+01 | 1486250502.03398 | pgbench_branches |             8192

 2017-02-05 00:21:43.122001+01 | 1486250503.122 | pgbench_accounts |       1392427008
 2017-02-05 00:21:43.122001+01 | 1486250503.122 | pgbench_tellers  |            49152
 2017-02-05 00:21:43.122001+01 | 1486250503.122 | pgbench_history  |                0
 2017-02-05 00:21:43.122001+01 | 1486250503.122 | pgbench_branches |             8192

 2017-02-05 00:21:44.210039+01 | 1486250504.21004 | pgbench_accounts |       1392427008
 2017-02-05 00:21:44.210039+01 | 1486250504.21004 | pgbench_tellers  |            49152
 2017-02-05 00:21:44.210039+01 | 1486250504.21004 | pgbench_history  |                0
 2017-02-05 00:21:44.210039+01 | 1486250504.21004 | pgbench_branches |             8192

 2017-02-05 00:21:45.29562+01 | 1486250505.29562 | pgbench_accounts |       1392427008
 2017-02-05 00:21:45.29562+01 | 1486250505.29562 | pgbench_tellers  |            49152
 2017-02-05 00:21:45.29562+01 | 1486250505.29562 | pgbench_history  |                0
 2017-02-05 00:21:45.29562+01 | 1486250505.29562 | pgbench_branches |             8192

 2017-02-05 00:21:46.376745+01 | 1486250506.37674 | pgbench_accounts |       1392427008
 2017-02-05 00:21:46.376745+01 | 1486250506.37674 | pgbench_tellers  |            49152
 2017-02-05 00:21:46.376745+01 | 1486250506.37674 | pgbench_history  |                0
 2017-02-05 00:21:46.376745+01 | 1486250506.37674 | pgbench_branches |             8192

 2017-02-05 00:21:47.46135+01 | 1486250507.46135 | pgbench_accounts |       1392427008
 2017-02-05 00:21:47.46135+01 | 1486250507.46135 | pgbench_tellers  |            49152
 2017-02-05 00:21:47.46135+01 | 1486250507.46135 | pgbench_history  |                0
 2017-02-05 00:21:47.46135+01 | 1486250507.46135 | pgbench_branches |             8192

 2017-02-05 00:21:48.552194+01 | 1486250508.55219 | pgbench_accounts |       1392427008
 2017-02-05 00:21:48.552194+01 | 1486250508.55219 | pgbench_tellers  |            49152
 2017-02-05 00:21:48.552194+01 | 1486250508.55219 | pgbench_history  |                0
 2017-02-05 00:21:48.552194+01 | 1486250508.55219 | pgbench_branches |             8192

 2017-02-05 00:21:49.638993+01 | 1486250509.63899 | pgbench_accounts |       1392427008
 2017-02-05 00:21:49.638993+01 | 1486250509.63899 | pgbench_tellers  |            49152
 2017-02-05 00:21:49.638993+01 | 1486250509.63899 | pgbench_history  |                0
 2017-02-05 00:21:49.638993+01 | 1486250509.63899 | pgbench_branches |             8192

 2017-02-05 00:21:50.724162+01 | 1486250510.72416 | pgbench_accounts |       1392427008
 2017-02-05 00:21:50.724162+01 | 1486250510.72416 | pgbench_tellers  |            49152
 2017-02-05 00:21:50.724162+01 | 1486250510.72416 | pgbench_history  |                0
 2017-02-05 00:21:50.724162+01 | 1486250510.72416 | pgbench_branches |             8192

 2017-02-05 00:21:51.809556+01 | 1486250511.80956 | pgbench_accounts |       1392427008
 2017-02-05 00:21:51.809556+01 | 1486250511.80956 | pgbench_tellers  |            49152
 2017-02-05 00:21:51.809556+01 | 1486250511.80956 | pgbench_history  |                0
 2017-02-05 00:21:51.809556+01 | 1486250511.80956 | pgbench_branches |             8192

 2017-02-05 00:21:52.893348+01 | 1486250512.89335 | pgbench_accounts |       1392427008
 2017-02-05 00:21:52.893348+01 | 1486250512.89335 | pgbench_tellers  |            49152
 2017-02-05 00:21:52.893348+01 | 1486250512.89335 | pgbench_history  |                0
 2017-02-05 00:21:52.893348+01 | 1486250512.89335 | pgbench_branches |             8192

 2017-02-05 00:21:53.973891+01 | 1486250513.97389 | pgbench_accounts |       1392427008
 2017-02-05 00:21:53.973891+01 | 1486250513.97389 | pgbench_tellers  |            49152
 2017-02-05 00:21:53.973891+01 | 1486250513.97389 | pgbench_history  |                0
 2017-02-05 00:21:53.973891+01 | 1486250513.97389 | pgbench_branches |             8192

 2017-02-05 00:21:55.060211+01 | 1486250515.06021 | pgbench_accounts |       1392427008
 2017-02-05 00:21:55.060211+01 | 1486250515.06021 | pgbench_tellers  |            49152
 2017-02-05 00:21:55.060211+01 | 1486250515.06021 | pgbench_history  |                0
 2017-02-05 00:21:55.060211+01 | 1486250515.06021 | pgbench_branches |             8192

 2017-02-05 00:21:56.147106+01 | 1486250516.14711 | pgbench_accounts |       1392427008
 2017-02-05 00:21:56.147106+01 | 1486250516.14711 | pgbench_tellers  |            49152
 2017-02-05 00:21:56.147106+01 | 1486250516.14711 | pgbench_history  |                0
 2017-02-05 00:21:56.147106+01 | 1486250516.14711 | pgbench_branches |             8192

 2017-02-05 00:21:57.235945+01 | 1486250517.23594 | pgbench_accounts |       1392427008
 2017-02-05 00:21:57.235945+01 | 1486250517.23594 | pgbench_tellers  |            49152
 2017-02-05 00:21:57.235945+01 | 1486250517.23594 | pgbench_history  |                0
 2017-02-05 00:21:57.235945+01 | 1486250517.23594 | pgbench_branches |             8192

 2017-02-05 00:21:58.321693+01 | 1486250518.32169 | pgbench_accounts |       1392427008
 2017-02-05 00:21:58.321693+01 | 1486250518.32169 | pgbench_tellers  |            49152
 2017-02-05 00:21:58.321693+01 | 1486250518.32169 | pgbench_history  |                0
 2017-02-05 00:21:58.321693+01 | 1486250518.32169 | pgbench_branches |             8192

 2017-02-05 00:21:59.410137+01 | 1486250519.41014 | pgbench_accounts |       1392427008
 2017-02-05 00:21:59.410137+01 | 1486250519.41014 | pgbench_tellers  |            49152
 2017-02-05 00:21:59.410137+01 | 1486250519.41014 | pgbench_history  |                0
 2017-02-05 00:21:59.410137+01 | 1486250519.41014 | pgbench_branches |             8192

 2017-02-05 00:22:00.495783+01 | 1486250520.49578 | pgbench_accounts |       1392427008
 2017-02-05 00:22:00.495783+01 | 1486250520.49578 | pgbench_tellers  |            49152
 2017-02-05 00:22:00.495783+01 | 1486250520.49578 | pgbench_history  |                0
 2017-02-05 00:22:00.495783+01 | 1486250520.49578 | pgbench_branches |             8192

 2017-02-05 00:22:01.581111+01 | 1486250521.58111 | pgbench_accounts |       1392427008
 2017-02-05 00:22:01.581111+01 | 1486250521.58111 | pgbench_tellers  |            49152
 2017-02-05 00:22:01.581111+01 | 1486250521.58111 | pgbench_history  |                0
 2017-02-05 00:22:01.581111+01 | 1486250521.58111 | pgbench_branches |             8192

 2017-02-05 00:22:02.66766+01 | 1486250522.66766 | pgbench_accounts |       1392427008
 2017-02-05 00:22:02.66766+01 | 1486250522.66766 | pgbench_tellers  |            49152
 2017-02-05 00:22:02.66766+01 | 1486250522.66766 | pgbench_history  |                0
 2017-02-05 00:22:02.66766+01 | 1486250522.66766 | pgbench_branches |             8192

 2017-02-05 00:22:03.751562+01 | 1486250523.75156 | pgbench_accounts |       1392427008
 2017-02-05 00:22:03.751562+01 | 1486250523.75156 | pgbench_tellers  |            49152
 2017-02-05 00:22:03.751562+01 | 1486250523.75156 | pgbench_history  |                0
 2017-02-05 00:22:03.751562+01 | 1486250523.75156 | pgbench_branches |             8192

 2017-02-05 00:22:04.837012+01 | 1486250524.83701 | pgbench_accounts |       1392427008
 2017-02-05 00:22:04.837012+01 | 1486250524.83701 | pgbench_tellers  |            49152
 2017-02-05 00:22:04.837012+01 | 1486250524.83701 | pgbench_history  |                0
 2017-02-05 00:22:04.837012+01 | 1486250524.83701 | pgbench_branches |             8192

 2017-02-05 00:22:05.919149+01 | 1486250525.91915 | pgbench_accounts |       1392427008
 2017-02-05 00:22:05.919149+01 | 1486250525.91915 | pgbench_tellers  |            49152
 2017-02-05 00:22:05.919149+01 | 1486250525.91915 | pgbench_history  |                0
 2017-02-05 00:22:05.919149+01 | 1486250525.91915 | pgbench_branches |             8192

 2017-02-05 00:22:07.004114+01 | 1486250527.00411 | pgbench_accounts |       1392427008
 2017-02-05 00:22:07.004114+01 | 1486250527.00411 | pgbench_tellers  |            49152
 2017-02-05 00:22:07.004114+01 | 1486250527.00411 | pgbench_history  |                0
 2017-02-05 00:22:07.004114+01 | 1486250527.00411 | pgbench_branches |             8192

 2017-02-05 00:22:08.093433+01 | 1486250528.09343 | pgbench_accounts |       1392427008
 2017-02-05 00:22:08.093433+01 | 1486250528.09343 | pgbench_tellers  |            49152
 2017-02-05 00:22:08.093433+01 | 1486250528.09343 | pgbench_history  |                0
 2017-02-05 00:22:08.093433+01 | 1486250528.09343 | pgbench_branches |             8192

 2017-02-05 00:22:09.179112+01 | 1486250529.17911 | pgbench_accounts |       1392427008
 2017-02-05 00:22:09.179112+01 | 1486250529.17911 | pgbench_tellers  |            49152
 2017-02-05 00:22:09.179112+01 | 1486250529.17911 | pgbench_history  |                0
 2017-02-05 00:22:09.179112+01 | 1486250529.17911 | pgbench_branches |             8192

 2017-02-05 00:22:10.270148+01 | 1486250530.27015 | pgbench_accounts |       1392427008
 2017-02-05 00:22:10.270148+01 | 1486250530.27015 | pgbench_tellers  |            49152
 2017-02-05 00:22:10.270148+01 | 1486250530.27015 | pgbench_history  |                0
 2017-02-05 00:22:10.270148+01 | 1486250530.27015 | pgbench_branches |             8192

 2017-02-05 00:22:11.356085+01 | 1486250531.35609 | pgbench_accounts |       1392427008
 2017-02-05 00:22:11.356085+01 | 1486250531.35609 | pgbench_tellers  |            49152
 2017-02-05 00:22:11.356085+01 | 1486250531.35609 | pgbench_history  |                0
 2017-02-05 00:22:11.356085+01 | 1486250531.35609 | pgbench_branches |             8192

 2017-02-05 00:22:12.445606+01 | 1486250532.44561 | pgbench_accounts |       1392427008
 2017-02-05 00:22:12.445606+01 | 1486250532.44561 | pgbench_tellers  |            49152
 2017-02-05 00:22:12.445606+01 | 1486250532.44561 | pgbench_history  |                0
 2017-02-05 00:22:12.445606+01 | 1486250532.44561 | pgbench_branches |             8192

 2017-02-05 00:22:13.533193+01 | 1486250533.53319 | pgbench_accounts |       1392427008
 2017-02-05 00:22:13.533193+01 | 1486250533.53319 | pgbench_tellers  |            49152
 2017-02-05 00:22:13.533193+01 | 1486250533.53319 | pgbench_history  |                0
 2017-02-05 00:22:13.533193+01 | 1486250533.53319 | pgbench_branches |             8192

 2017-02-05 00:22:14.614425+01 | 1486250534.61442 | pgbench_accounts |       1392427008
 2017-02-05 00:22:14.614425+01 | 1486250534.61442 | pgbench_tellers  |            49152
 2017-02-05 00:22:14.614425+01 | 1486250534.61442 | pgbench_history  |                0
 2017-02-05 00:22:14.614425+01 | 1486250534.61442 | pgbench_branches |             8192

 2017-02-05 00:22:15.69845+01 | 1486250535.69845 | pgbench_accounts |       1392427008
 2017-02-05 00:22:15.69845+01 | 1486250535.69845 | pgbench_tellers  |            49152
 2017-02-05 00:22:15.69845+01 | 1486250535.69845 | pgbench_history  |                0
 2017-02-05 00:22:15.69845+01 | 1486250535.69845 | pgbench_branches |             8192

 2017-02-05 00:22:16.780612+01 | 1486250536.78061 | pgbench_accounts |       1392427008
 2017-02-05 00:22:16.780612+01 | 1486250536.78061 | pgbench_tellers  |            49152
 2017-02-05 00:22:16.780612+01 | 1486250536.78061 | pgbench_history  |                0
 2017-02-05 00:22:16.780612+01 | 1486250536.78061 | pgbench_branches |             8192

 2017-02-05 00:22:17.860357+01 | 1486250537.86036 | pgbench_accounts |       1392427008
 2017-02-05 00:22:17.860357+01 | 1486250537.86036 | pgbench_tellers  |            49152
 2017-02-05 00:22:17.860357+01 | 1486250537.86036 | pgbench_history  |                0
 2017-02-05 00:22:17.860357+01 | 1486250537.86036 | pgbench_branches |             8192

 2017-02-05 00:22:18.939486+01 | 1486250538.93949 | pgbench_accounts |       1392427008
 2017-02-05 00:22:18.939486+01 | 1486250538.93949 | pgbench_tellers  |            49152
 2017-02-05 00:22:18.939486+01 | 1486250538.93949 | pgbench_history  |                0
 2017-02-05 00:22:18.939486+01 | 1486250538.93949 | pgbench_branches |             8192

 2017-02-05 00:22:20.02124+01 | 1486250540.02124 | pgbench_accounts |       1392427008
 2017-02-05 00:22:20.02124+01 | 1486250540.02124 | pgbench_tellers  |            49152
 2017-02-05 00:22:20.02124+01 | 1486250540.02124 | pgbench_history  |                0
 2017-02-05 00:22:20.02124+01 | 1486250540.02124 | pgbench_branches |             8192

 2017-02-05 00:22:21.106552+01 | 1486250541.10655 | pgbench_accounts |       1392427008
 2017-02-05 00:22:21.106552+01 | 1486250541.10655 | pgbench_tellers  |            49152
 2017-02-05 00:22:21.106552+01 | 1486250541.10655 | pgbench_history  |                0
 2017-02-05 00:22:21.106552+01 | 1486250541.10655 | pgbench_branches |             8192

 2017-02-05 00:22:22.19002+01 | 1486250542.19002 | pgbench_accounts |       1392427008
 2017-02-05 00:22:22.19002+01 | 1486250542.19002 | pgbench_tellers  |            49152
 2017-02-05 00:22:22.19002+01 | 1486250542.19002 | pgbench_history  |                0
 2017-02-05 00:22:22.19002+01 | 1486250542.19002 | pgbench_branches |             8192

 2017-02-05 00:22:23.277155+01 | 1486250543.27715 | pgbench_accounts |       1392427008
 2017-02-05 00:22:23.277155+01 | 1486250543.27715 | pgbench_tellers  |            49152
 2017-02-05 00:22:23.277155+01 | 1486250543.27715 | pgbench_history  |                0
 2017-02-05 00:22:23.277155+01 | 1486250543.27715 | pgbench_branches |             8192

 2017-02-05 00:22:24.360927+01 | 1486250544.36093 | pgbench_accounts |       1392427008
 2017-02-05 00:22:24.360927+01 | 1486250544.36093 | pgbench_tellers  |            49152
 2017-02-05 00:22:24.360927+01 | 1486250544.36093 | pgbench_history  |                0
 2017-02-05 00:22:24.360927+01 | 1486250544.36093 | pgbench_branches |             8192

 2017-02-05 00:22:25.449223+01 | 1486250545.44922 | pgbench_accounts |       1392427008
 2017-02-05 00:22:25.449223+01 | 1486250545.44922 | pgbench_tellers  |            49152
 2017-02-05 00:22:25.449223+01 | 1486250545.44922 | pgbench_history  |                0
 2017-02-05 00:22:25.449223+01 | 1486250545.44922 | pgbench_branches |             8192

 2017-02-05 00:22:26.531296+01 | 1486250546.5313 | pgbench_accounts |       1392427008
 2017-02-05 00:22:26.531296+01 | 1486250546.5313 | pgbench_tellers  |            49152
 2017-02-05 00:22:26.531296+01 | 1486250546.5313 | pgbench_history  |                0
 2017-02-05 00:22:26.531296+01 | 1486250546.5313 | pgbench_branches |             8192

 2017-02-05 00:22:27.612171+01 | 1486250547.61217 | pgbench_accounts |       1392427008
 2017-02-05 00:22:27.612171+01 | 1486250547.61217 | pgbench_tellers  |            49152
 2017-02-05 00:22:27.612171+01 | 1486250547.61217 | pgbench_history  |                0
 2017-02-05 00:22:27.612171+01 | 1486250547.61217 | pgbench_branches |             8192

 2017-02-05 00:22:28.692945+01 | 1486250548.69295 | pgbench_accounts |       1392427008
 2017-02-05 00:22:28.692945+01 | 1486250548.69295 | pgbench_tellers  |            49152
 2017-02-05 00:22:28.692945+01 | 1486250548.69295 | pgbench_history  |                0
 2017-02-05 00:22:28.692945+01 | 1486250548.69295 | pgbench_branches |             8192

 2017-02-05 00:22:29.777915+01 | 1486250549.77792 | pgbench_accounts |       1392427008
 2017-02-05 00:22:29.777915+01 | 1486250549.77792 | pgbench_tellers  |            49152
 2017-02-05 00:22:29.777915+01 | 1486250549.77792 | pgbench_history  |                0
 2017-02-05 00:22:29.777915+01 | 1486250549.77792 | pgbench_branches |             8192

 2017-02-05 00:22:30.865507+01 | 1486250550.86551 | pgbench_accounts |       1392427008
 2017-02-05 00:22:30.865507+01 | 1486250550.86551 | pgbench_tellers  |            49152
 2017-02-05 00:22:30.865507+01 | 1486250550.86551 | pgbench_history  |                0
 2017-02-05 00:22:30.865507+01 | 1486250550.86551 | pgbench_branches |             8192

 2017-02-05 00:22:31.948383+01 | 1486250551.94838 | pgbench_accounts |       1392427008
 2017-02-05 00:22:31.948383+01 | 1486250551.94838 | pgbench_tellers  |            49152
 2017-02-05 00:22:31.948383+01 | 1486250551.94838 | pgbench_history  |                0
 2017-02-05 00:22:31.948383+01 | 1486250551.94838 | pgbench_branches |             8192

 2017-02-05 00:22:33.030646+01 | 1486250553.03065 | pgbench_accounts |       1392427008
 2017-02-05 00:22:33.030646+01 | 1486250553.03065 | pgbench_tellers  |            49152
 2017-02-05 00:22:33.030646+01 | 1486250553.03065 | pgbench_history  |                0
 2017-02-05 00:22:33.030646+01 | 1486250553.03065 | pgbench_branches |             8192

 2017-02-05 00:22:34.119769+01 | 1486250554.11977 | pgbench_accounts |       1392427008
 2017-02-05 00:22:34.119769+01 | 1486250554.11977 | pgbench_tellers  |            49152
 2017-02-05 00:22:34.119769+01 | 1486250554.11977 | pgbench_history  |                0
 2017-02-05 00:22:34.119769+01 | 1486250554.11977 | pgbench_branches |             8192

 2017-02-05 00:22:35.204254+01 | 1486250555.20425 | pgbench_accounts |       1392427008
 2017-02-05 00:22:35.204254+01 | 1486250555.20425 | pgbench_tellers  |            49152
 2017-02-05 00:22:35.204254+01 | 1486250555.20425 | pgbench_history  |                0
 2017-02-05 00:22:35.204254+01 | 1486250555.20425 | pgbench_branches |             8192

 2017-02-05 00:22:36.287836+01 | 1486250556.28784 | pgbench_accounts |       1392427008
 2017-02-05 00:22:36.287836+01 | 1486250556.28784 | pgbench_tellers  |            49152
 2017-02-05 00:22:36.287836+01 | 1486250556.28784 | pgbench_history  |                0
 2017-02-05 00:22:36.287836+01 | 1486250556.28784 | pgbench_branches |             8192

 2017-02-05 00:22:37.372117+01 | 1486250557.37212 | pgbench_accounts |       1392427008
 2017-02-05 00:22:37.372117+01 | 1486250557.37212 | pgbench_tellers  |            49152
 2017-02-05 00:22:37.372117+01 | 1486250557.37212 | pgbench_history  |                0
 2017-02-05 00:22:37.372117+01 | 1486250557.37212 | pgbench_branches |             8192

 2017-02-05 00:22:38.461386+01 | 1486250558.46139 | pgbench_accounts |       1392427008
 2017-02-05 00:22:38.461386+01 | 1486250558.46139 | pgbench_tellers  |            49152
 2017-02-05 00:22:38.461386+01 | 1486250558.46139 | pgbench_history  |                0
 2017-02-05 00:22:38.461386+01 | 1486250558.46139 | pgbench_branches |             8192

 2017-02-05 00:22:39.542811+01 | 1486250559.54281 | pgbench_accounts |       1392427008
 2017-02-05 00:22:39.542811+01 | 1486250559.54281 | pgbench_tellers  |            49152
 2017-02-05 00:22:39.542811+01 | 1486250559.54281 | pgbench_history  |                0
 2017-02-05 00:22:39.542811+01 | 1486250559.54281 | pgbench_branches |             8192

 2017-02-05 00:22:40.634238+01 | 1486250560.63424 | pgbench_accounts |       1392427008
 2017-02-05 00:22:40.634238+01 | 1486250560.63424 | pgbench_tellers  |            49152
 2017-02-05 00:22:40.634238+01 | 1486250560.63424 | pgbench_history  |                0
 2017-02-05 00:22:40.634238+01 | 1486250560.63424 | pgbench_branches |             8192

 2017-02-05 00:22:41.712482+01 | 1486250561.71248 | pgbench_accounts |       1392427008
 2017-02-05 00:22:41.712482+01 | 1486250561.71248 | pgbench_tellers  |            49152
 2017-02-05 00:22:41.712482+01 | 1486250561.71248 | pgbench_history  |                0
 2017-02-05 00:22:41.712482+01 | 1486250561.71248 | pgbench_branches |             8192

 2017-02-05 00:22:42.806899+01 | 1486250562.8069 | pgbench_accounts |       1392427008
 2017-02-05 00:22:42.806899+01 | 1486250562.8069 | pgbench_tellers  |            49152
 2017-02-05 00:22:42.806899+01 | 1486250562.8069 | pgbench_history  |                0
 2017-02-05 00:22:42.806899+01 | 1486250562.8069 | pgbench_branches |             8192

 2017-02-05 00:22:43.883366+01 | 1486250563.88337 | pgbench_accounts |       1392427008
 2017-02-05 00:22:43.883366+01 | 1486250563.88337 | pgbench_tellers  |            49152
 2017-02-05 00:22:43.883366+01 | 1486250563.88337 | pgbench_history  |                0
 2017-02-05 00:22:43.883366+01 | 1486250563.88337 | pgbench_branches |             8192

 2017-02-05 00:22:44.960796+01 | 1486250564.9608 | pgbench_accounts |       1392427008
 2017-02-05 00:22:44.960796+01 | 1486250564.9608 | pgbench_tellers  |            49152
 2017-02-05 00:22:44.960796+01 | 1486250564.9608 | pgbench_history  |                0
 2017-02-05 00:22:44.960796+01 | 1486250564.9608 | pgbench_branches |             8192

 2017-02-05 00:22:46.046131+01 | 1486250566.04613 | pgbench_accounts |       1392427008
 2017-02-05 00:22:46.046131+01 | 1486250566.04613 | pgbench_tellers  |            49152
 2017-02-05 00:22:46.046131+01 | 1486250566.04613 | pgbench_history  |                0
 2017-02-05 00:22:46.046131+01 | 1486250566.04613 | pgbench_branches |             8192

 2017-02-05 00:22:47.127641+01 | 1486250567.12764 | pgbench_accounts |       1392427008
 2017-02-05 00:22:47.127641+01 | 1486250567.12764 | pgbench_tellers  |            49152
 2017-02-05 00:22:47.127641+01 | 1486250567.12764 | pgbench_history  |                0
 2017-02-05 00:22:47.127641+01 | 1486250567.12764 | pgbench_branches |             8192

 2017-02-05 00:22:48.219119+01 | 1486250568.21912 | pgbench_accounts |       1392427008
 2017-02-05 00:22:48.219119+01 | 1486250568.21912 | pgbench_tellers  |            49152
 2017-02-05 00:22:48.219119+01 | 1486250568.21912 | pgbench_history  |                0
 2017-02-05 00:22:48.219119+01 | 1486250568.21912 | pgbench_branches |             8192

 2017-02-05 00:22:49.304284+01 | 1486250569.30428 | pgbench_accounts |       1392427008
 2017-02-05 00:22:49.304284+01 | 1486250569.30428 | pgbench_tellers  |            49152
 2017-02-05 00:22:49.304284+01 | 1486250569.30428 | pgbench_history  |                0
 2017-02-05 00:22:49.304284+01 | 1486250569.30428 | pgbench_branches |             8192

 2017-02-05 00:22:50.385514+01 | 1486250570.38551 | pgbench_accounts |       1392427008
 2017-02-05 00:22:50.385514+01 | 1486250570.38551 | pgbench_tellers  |            49152
 2017-02-05 00:22:50.385514+01 | 1486250570.38551 | pgbench_history  |                0
 2017-02-05 00:22:50.385514+01 | 1486250570.38551 | pgbench_branches |             8192

 2017-02-05 00:22:51.473444+01 | 1486250571.47344 | pgbench_accounts |       1392427008
 2017-02-05 00:22:51.473444+01 | 1486250571.47344 | pgbench_tellers  |            49152
 2017-02-05 00:22:51.473444+01 | 1486250571.47344 | pgbench_history  |                0
 2017-02-05 00:22:51.473444+01 | 1486250571.47344 | pgbench_branches |             8192

 2017-02-05 00:22:52.558518+01 | 1486250572.55852 | pgbench_accounts |       1392427008
 2017-02-05 00:22:52.558518+01 | 1486250572.55852 | pgbench_tellers  |            49152
 2017-02-05 00:22:52.558518+01 | 1486250572.55852 | pgbench_history  |                0
 2017-02-05 00:22:52.558518+01 | 1486250572.55852 | pgbench_branches |             8192

 2017-02-05 00:22:53.647495+01 | 1486250573.6475 | pgbench_accounts |       1392427008
 2017-02-05 00:22:53.647495+01 | 1486250573.6475 | pgbench_tellers  |            49152
 2017-02-05 00:22:53.647495+01 | 1486250573.6475 | pgbench_history  |                0
 2017-02-05 00:22:53.647495+01 | 1486250573.6475 | pgbench_branches |             8192

 2017-02-05 00:22:54.733702+01 | 1486250574.7337 | pgbench_accounts |       1392427008
 2017-02-05 00:22:54.733702+01 | 1486250574.7337 | pgbench_tellers  |            49152
 2017-02-05 00:22:54.733702+01 | 1486250574.7337 | pgbench_history  |                0
 2017-02-05 00:22:54.733702+01 | 1486250574.7337 | pgbench_branches |             8192

 2017-02-05 00:22:55.816429+01 | 1486250575.81643 | pgbench_accounts |       1392427008
 2017-02-05 00:22:55.816429+01 | 1486250575.81643 | pgbench_tellers  |            49152
 2017-02-05 00:22:55.816429+01 | 1486250575.81643 | pgbench_history  |                0
 2017-02-05 00:22:55.816429+01 | 1486250575.81643 | pgbench_branches |             8192

 2017-02-05 00:22:56.896337+01 | 1486250576.89634 | pgbench_accounts |       1392427008
 2017-02-05 00:22:56.896337+01 | 1486250576.89634 | pgbench_tellers  |            49152
 2017-02-05 00:22:56.896337+01 | 1486250576.89634 | pgbench_history  |                0
 2017-02-05 00:22:56.896337+01 | 1486250576.89634 | pgbench_branches |             8192

 2017-02-05 00:22:57.967303+01 | 1486250577.9673 | pgbench_accounts |       1392427008
 2017-02-05 00:22:57.967303+01 | 1486250577.9673 | pgbench_tellers  |            49152
 2017-02-05 00:22:57.967303+01 | 1486250577.9673 | pgbench_history  |                0
 2017-02-05 00:22:57.967303+01 | 1486250577.9673 | pgbench_branches |             8192

 2017-02-05 00:22:59.050013+01 | 1486250579.05001 | pgbench_accounts |       1392427008
 2017-02-05 00:22:59.050013+01 | 1486250579.05001 | pgbench_tellers  |            49152
 2017-02-05 00:22:59.050013+01 | 1486250579.05001 | pgbench_history  |                0
 2017-02-05 00:22:59.050013+01 | 1486250579.05001 | pgbench_branches |             8192

 2017-02-05 00:23:00.133199+01 | 1486250580.1332 | pgbench_accounts |       1392427008
 2017-02-05 00:23:00.133199+01 | 1486250580.1332 | pgbench_tellers  |            49152
 2017-02-05 00:23:00.133199+01 | 1486250580.1332 | pgbench_history  |                0
 2017-02-05 00:23:00.133199+01 | 1486250580.1332 | pgbench_branches |             8192

 2017-02-05 00:23:01.216204+01 | 1486250581.2162 | pgbench_accounts |       1392427008
 2017-02-05 00:23:01.216204+01 | 1486250581.2162 | pgbench_tellers  |            49152
 2017-02-05 00:23:01.216204+01 | 1486250581.2162 | pgbench_history  |                0
 2017-02-05 00:23:01.216204+01 | 1486250581.2162 | pgbench_branches |             8192

 2017-02-05 00:23:02.295359+01 | 1486250582.29536 | pgbench_accounts |       1392427008
 2017-02-05 00:23:02.295359+01 | 1486250582.29536 | pgbench_tellers  |            49152
 2017-02-05 00:23:02.295359+01 | 1486250582.29536 | pgbench_history  |                0
 2017-02-05 00:23:02.295359+01 | 1486250582.29536 | pgbench_branches |             8192

 2017-02-05 00:23:03.377616+01 | 1486250583.37762 | pgbench_accounts |       1392427008
 2017-02-05 00:23:03.377616+01 | 1486250583.37762 | pgbench_tellers  |            49152
 2017-02-05 00:23:03.377616+01 | 1486250583.37762 | pgbench_history  |                0
 2017-02-05 00:23:03.377616+01 | 1486250583.37762 | pgbench_branches |             8192

 2017-02-05 00:23:04.461714+01 | 1486250584.46171 | pgbench_accounts |       1392427008
 2017-02-05 00:23:04.461714+01 | 1486250584.46171 | pgbench_tellers  |            49152
 2017-02-05 00:23:04.461714+01 | 1486250584.46171 | pgbench_history  |                0
 2017-02-05 00:23:04.461714+01 | 1486250584.46171 | pgbench_branches |             8192

 2017-02-05 00:23:05.545347+01 | 1486250585.54535 | pgbench_accounts |       1392427008
 2017-02-05 00:23:05.545347+01 | 1486250585.54535 | pgbench_tellers  |            49152
 2017-02-05 00:23:05.545347+01 | 1486250585.54535 | pgbench_history  |                0
 2017-02-05 00:23:05.545347+01 | 1486250585.54535 | pgbench_branches |             8192

 2017-02-05 00:23:06.62845+01 | 1486250586.62845 | pgbench_accounts |       1392427008
 2017-02-05 00:23:06.62845+01 | 1486250586.62845 | pgbench_tellers  |            49152
 2017-02-05 00:23:06.62845+01 | 1486250586.62845 | pgbench_history  |                0
 2017-02-05 00:23:06.62845+01 | 1486250586.62845 | pgbench_branches |             8192

 2017-02-05 00:23:07.708106+01 | 1486250587.70811 | pgbench_accounts |       1392427008
 2017-02-05 00:23:07.708106+01 | 1486250587.70811 | pgbench_tellers  |            49152
 2017-02-05 00:23:07.708106+01 | 1486250587.70811 | pgbench_history  |                0
 2017-02-05 00:23:07.708106+01 | 1486250587.70811 | pgbench_branches |             8192

 2017-02-05 00:23:08.791629+01 | 1486250588.79163 | pgbench_accounts |       1392427008
 2017-02-05 00:23:08.791629+01 | 1486250588.79163 | pgbench_tellers  |            49152
 2017-02-05 00:23:08.791629+01 | 1486250588.79163 | pgbench_history  |                0
 2017-02-05 00:23:08.791629+01 | 1486250588.79163 | pgbench_branches |             8192

 2017-02-05 00:23:09.878096+01 | 1486250589.8781 | pgbench_accounts |       1392427008
 2017-02-05 00:23:09.878096+01 | 1486250589.8781 | pgbench_tellers  |            49152
 2017-02-05 00:23:09.878096+01 | 1486250589.8781 | pgbench_history  |                0
 2017-02-05 00:23:09.878096+01 | 1486250589.8781 | pgbench_branches |             8192

 2017-02-05 00:23:10.953083+01 | 1486250590.95308 | pgbench_accounts |       1392427008
 2017-02-05 00:23:10.953083+01 | 1486250590.95308 | pgbench_tellers  |            49152
 2017-02-05 00:23:10.953083+01 | 1486250590.95308 | pgbench_history  |                0
 2017-02-05 00:23:10.953083+01 | 1486250590.95308 | pgbench_branches |             8192

 2017-02-05 00:23:12.037045+01 | 1486250592.03705 | pgbench_accounts |       1392427008
 2017-02-05 00:23:12.037045+01 | 1486250592.03705 | pgbench_tellers  |            49152
 2017-02-05 00:23:12.037045+01 | 1486250592.03705 | pgbench_history  |                0
 2017-02-05 00:23:12.037045+01 | 1486250592.03705 | pgbench_branches |             8192

 2017-02-05 00:23:13.128361+01 | 1486250593.12836 | pgbench_accounts |       1392427008
 2017-02-05 00:23:13.128361+01 | 1486250593.12836 | pgbench_tellers  |            49152
 2017-02-05 00:23:13.128361+01 | 1486250593.12836 | pgbench_history  |                0
 2017-02-05 00:23:13.128361+01 | 1486250593.12836 | pgbench_branches |             8192

 2017-02-05 00:23:14.21293+01 | 1486250594.21293 | pgbench_accounts |       1392427008
 2017-02-05 00:23:14.21293+01 | 1486250594.21293 | pgbench_tellers  |            49152
 2017-02-05 00:23:14.21293+01 | 1486250594.21293 | pgbench_history  |                0
 2017-02-05 00:23:14.21293+01 | 1486250594.21293 | pgbench_branches |             8192

 2017-02-05 00:23:15.306708+01 | 1486250595.30671 | pgbench_accounts |       1392427008
 2017-02-05 00:23:15.306708+01 | 1486250595.30671 | pgbench_tellers  |            49152
 2017-02-05 00:23:15.306708+01 | 1486250595.30671 | pgbench_history  |                0
 2017-02-05 00:23:15.306708+01 | 1486250595.30671 | pgbench_branches |             8192

 2017-02-05 00:23:16.389761+01 | 1486250596.38976 | pgbench_accounts |       1392427008
 2017-02-05 00:23:16.389761+01 | 1486250596.38976 | pgbench_tellers  |            49152
 2017-02-05 00:23:16.389761+01 | 1486250596.38976 | pgbench_history  |                0
 2017-02-05 00:23:16.389761+01 | 1486250596.38976 | pgbench_branches |             8192

 2017-02-05 00:23:17.473963+01 | 1486250597.47396 | pgbench_accounts |       1392427008
 2017-02-05 00:23:17.473963+01 | 1486250597.47396 | pgbench_tellers  |            49152
 2017-02-05 00:23:17.473963+01 | 1486250597.47396 | pgbench_history  |                0
 2017-02-05 00:23:17.473963+01 | 1486250597.47396 | pgbench_branches |             8192

 2017-02-05 00:23:18.567217+01 | 1486250598.56722 | pgbench_accounts |       1392427008
 2017-02-05 00:23:18.567217+01 | 1486250598.56722 | pgbench_tellers  |            49152
 2017-02-05 00:23:18.567217+01 | 1486250598.56722 | pgbench_history  |                0
 2017-02-05 00:23:18.567217+01 | 1486250598.56722 | pgbench_branches |             8192

 2017-02-05 00:23:19.653828+01 | 1486250599.65383 | pgbench_accounts |       1392427008
 2017-02-05 00:23:19.653828+01 | 1486250599.65383 | pgbench_tellers  |            49152
 2017-02-05 00:23:19.653828+01 | 1486250599.65383 | pgbench_history  |                0
 2017-02-05 00:23:19.653828+01 | 1486250599.65383 | pgbench_branches |             8192

 2017-02-05 00:23:20.745625+01 | 1486250600.74563 | pgbench_accounts |       1392427008
 2017-02-05 00:23:20.745625+01 | 1486250600.74563 | pgbench_tellers  |            49152
 2017-02-05 00:23:20.745625+01 | 1486250600.74563 | pgbench_history  |                0
 2017-02-05 00:23:20.745625+01 | 1486250600.74563 | pgbench_branches |             8192

 2017-02-05 00:23:21.826799+01 | 1486250601.8268 | pgbench_accounts |       1392427008
 2017-02-05 00:23:21.826799+01 | 1486250601.8268 | pgbench_tellers  |            49152
 2017-02-05 00:23:21.826799+01 | 1486250601.8268 | pgbench_history  |                0
 2017-02-05 00:23:21.826799+01 | 1486250601.8268 | pgbench_branches |             8192

 2017-02-05 00:23:22.90995+01 | 1486250602.90995 | pgbench_accounts |       1392427008
 2017-02-05 00:23:22.90995+01 | 1486250602.90995 | pgbench_tellers  |            49152
 2017-02-05 00:23:22.90995+01 | 1486250602.90995 | pgbench_history  |                0
 2017-02-05 00:23:22.90995+01 | 1486250602.90995 | pgbench_branches |             8192

 2017-02-05 00:23:23.983998+01 | 1486250603.984 | pgbench_accounts |       1392427008
 2017-02-05 00:23:23.983998+01 | 1486250603.984 | pgbench_tellers  |            49152
 2017-02-05 00:23:23.983998+01 | 1486250603.984 | pgbench_history  |                0
 2017-02-05 00:23:23.983998+01 | 1486250603.984 | pgbench_branches |             8192

 2017-02-05 00:23:25.05992+01 | 1486250605.05992 | pgbench_accounts |       1392427008
 2017-02-05 00:23:25.05992+01 | 1486250605.05992 | pgbench_tellers  |            49152
 2017-02-05 00:23:25.05992+01 | 1486250605.05992 | pgbench_history  |                0
 2017-02-05 00:23:25.05992+01 | 1486250605.05992 | pgbench_branches |             8192

 2017-02-05 00:23:26.139056+01 | 1486250606.13906 | pgbench_accounts |       1392427008
 2017-02-05 00:23:26.139056+01 | 1486250606.13906 | pgbench_tellers  |            49152
 2017-02-05 00:23:26.139056+01 | 1486250606.13906 | pgbench_history  |                0
 2017-02-05 00:23:26.139056+01 | 1486250606.13906 | pgbench_branches |             8192

 2017-02-05 00:23:27.232866+01 | 1486250607.23287 | pgbench_accounts |       1392427008
 2017-02-05 00:23:27.232866+01 | 1486250607.23287 | pgbench_tellers  |            49152
 2017-02-05 00:23:27.232866+01 | 1486250607.23287 | pgbench_history  |                0
 2017-02-05 00:23:27.232866+01 | 1486250607.23287 | pgbench_branches |             8192

 2017-02-05 00:23:28.316089+01 | 1486250608.31609 | pgbench_accounts |       1392427008
 2017-02-05 00:23:28.316089+01 | 1486250608.31609 | pgbench_tellers  |            49152
 2017-02-05 00:23:28.316089+01 | 1486250608.31609 | pgbench_history  |                0
 2017-02-05 00:23:28.316089+01 | 1486250608.31609 | pgbench_branches |             8192

 2017-02-05 00:23:29.407535+01 | 1486250609.40754 | pgbench_accounts |       1392427008
 2017-02-05 00:23:29.407535+01 | 1486250609.40754 | pgbench_tellers  |            49152
 2017-02-05 00:23:29.407535+01 | 1486250609.40754 | pgbench_history  |                0
 2017-02-05 00:23:29.407535+01 | 1486250609.40754 | pgbench_branches |             8192

 2017-02-05 00:23:30.490242+01 | 1486250610.49024 | pgbench_accounts |       1392427008
 2017-02-05 00:23:30.490242+01 | 1486250610.49024 | pgbench_tellers  |            49152
 2017-02-05 00:23:30.490242+01 | 1486250610.49024 | pgbench_history  |                0
 2017-02-05 00:23:30.490242+01 | 1486250610.49024 | pgbench_branches |             8192

 2017-02-05 00:23:31.575853+01 | 1486250611.57585 | pgbench_accounts |       1392427008
 2017-02-05 00:23:31.575853+01 | 1486250611.57585 | pgbench_tellers  |            49152
 2017-02-05 00:23:31.575853+01 | 1486250611.57585 | pgbench_history  |                0
 2017-02-05 00:23:31.575853+01 | 1486250611.57585 | pgbench_branches |             8192

 2017-02-05 00:23:32.663077+01 | 1486250612.66308 | pgbench_accounts |       1392427008
 2017-02-05 00:23:32.663077+01 | 1486250612.66308 | pgbench_tellers  |            49152
 2017-02-05 00:23:32.663077+01 | 1486250612.66308 | pgbench_history  |                0
 2017-02-05 00:23:32.663077+01 | 1486250612.66308 | pgbench_branches |             8192

 2017-02-05 00:23:33.742183+01 | 1486250613.74218 | pgbench_accounts |       1392427008
 2017-02-05 00:23:33.742183+01 | 1486250613.74218 | pgbench_tellers  |            49152
 2017-02-05 00:23:33.742183+01 | 1486250613.74218 | pgbench_history  |                0
 2017-02-05 00:23:33.742183+01 | 1486250613.74218 | pgbench_branches |             8192

 2017-02-05 00:23:34.828804+01 | 1486250614.8288 | pgbench_accounts |       1392427008
 2017-02-05 00:23:34.828804+01 | 1486250614.8288 | pgbench_tellers  |            49152
 2017-02-05 00:23:34.828804+01 | 1486250614.8288 | pgbench_history  |                0
 2017-02-05 00:23:34.828804+01 | 1486250614.8288 | pgbench_branches |             8192

 2017-02-05 00:23:35.910266+01 | 1486250615.91027 | pgbench_accounts |       1392427008
 2017-02-05 00:23:35.910266+01 | 1486250615.91027 | pgbench_tellers  |            49152
 2017-02-05 00:23:35.910266+01 | 1486250615.91027 | pgbench_history  |                0
 2017-02-05 00:23:35.910266+01 | 1486250615.91027 | pgbench_branches |             8192

 2017-02-05 00:23:36.987446+01 | 1486250616.98745 | pgbench_accounts |       1392427008
 2017-02-05 00:23:36.987446+01 | 1486250616.98745 | pgbench_tellers  |            49152
 2017-02-05 00:23:36.987446+01 | 1486250616.98745 | pgbench_history  |                0
 2017-02-05 00:23:36.987446+01 | 1486250616.98745 | pgbench_branches |             8192

 2017-02-05 00:23:38.068092+01 | 1486250618.06809 | pgbench_accounts |       1392427008
 2017-02-05 00:23:38.068092+01 | 1486250618.06809 | pgbench_tellers  |            49152
 2017-02-05 00:23:38.068092+01 | 1486250618.06809 | pgbench_history  |                0
 2017-02-05 00:23:38.068092+01 | 1486250618.06809 | pgbench_branches |             8192

 2017-02-05 00:23:39.162309+01 | 1486250619.16231 | pgbench_accounts |       1392427008
 2017-02-05 00:23:39.162309+01 | 1486250619.16231 | pgbench_tellers  |            49152
 2017-02-05 00:23:39.162309+01 | 1486250619.16231 | pgbench_history  |                0
 2017-02-05 00:23:39.162309+01 | 1486250619.16231 | pgbench_branches |             8192

 2017-02-05 00:23:40.237902+01 | 1486250620.2379 | pgbench_accounts |       1392427008
 2017-02-05 00:23:40.237902+01 | 1486250620.2379 | pgbench_tellers  |            49152
 2017-02-05 00:23:40.237902+01 | 1486250620.2379 | pgbench_history  |                0
 2017-02-05 00:23:40.237902+01 | 1486250620.2379 | pgbench_branches |             8192

 2017-02-05 00:23:41.327625+01 | 1486250621.32763 | pgbench_accounts |       1392427008
 2017-02-05 00:23:41.327625+01 | 1486250621.32763 | pgbench_tellers  |            49152
 2017-02-05 00:23:41.327625+01 | 1486250621.32763 | pgbench_history  |                0
 2017-02-05 00:23:41.327625+01 | 1486250621.32763 | pgbench_branches |             8192

 2017-02-05 00:23:42.415111+01 | 1486250622.41511 | pgbench_accounts |       1392427008
 2017-02-05 00:23:42.415111+01 | 1486250622.41511 | pgbench_tellers  |            49152
 2017-02-05 00:23:42.415111+01 | 1486250622.41511 | pgbench_history  |                0
 2017-02-05 00:23:42.415111+01 | 1486250622.41511 | pgbench_branches |             8192

 2017-02-05 00:23:43.501129+01 | 1486250623.50113 | pgbench_accounts |       1392427008
 2017-02-05 00:23:43.501129+01 | 1486250623.50113 | pgbench_tellers  |            49152
 2017-02-05 00:23:43.501129+01 | 1486250623.50113 | pgbench_history  |                0
 2017-02-05 00:23:43.501129+01 | 1486250623.50113 | pgbench_branches |             8192

 2017-02-05 00:23:44.586598+01 | 1486250624.5866 | pgbench_accounts |       1392427008
 2017-02-05 00:23:44.586598+01 | 1486250624.5866 | pgbench_tellers  |            49152
 2017-02-05 00:23:44.586598+01 | 1486250624.5866 | pgbench_history  |                0
 2017-02-05 00:23:44.586598+01 | 1486250624.5866 | pgbench_branches |             8192

 2017-02-05 00:23:45.664082+01 | 1486250625.66408 | pgbench_accounts |       1392427008
 2017-02-05 00:23:45.664082+01 | 1486250625.66408 | pgbench_tellers  |            49152
 2017-02-05 00:23:45.664082+01 | 1486250625.66408 | pgbench_history  |                0
 2017-02-05 00:23:45.664082+01 | 1486250625.66408 | pgbench_branches |             8192

 2017-02-05 00:23:46.740363+01 | 1486250626.74036 | pgbench_accounts |       1392427008
 2017-02-05 00:23:46.740363+01 | 1486250626.74036 | pgbench_tellers  |            49152
 2017-02-05 00:23:46.740363+01 | 1486250626.74036 | pgbench_history  |                0
 2017-02-05 00:23:46.740363+01 | 1486250626.74036 | pgbench_branches |             8192

 2017-02-05 00:23:47.825752+01 | 1486250627.82575 | pgbench_accounts |       1392427008
 2017-02-05 00:23:47.825752+01 | 1486250627.82575 | pgbench_tellers  |            49152
 2017-02-05 00:23:47.825752+01 | 1486250627.82575 | pgbench_history  |                0
 2017-02-05 00:23:47.825752+01 | 1486250627.82575 | pgbench_branches |             8192

 2017-02-05 00:23:48.90616+01 | 1486250628.90616 | pgbench_accounts |       1392427008
 2017-02-05 00:23:48.90616+01 | 1486250628.90616 | pgbench_tellers  |            49152
 2017-02-05 00:23:48.90616+01 | 1486250628.90616 | pgbench_history  |                0
 2017-02-05 00:23:48.90616+01 | 1486250628.90616 | pgbench_branches |             8192

 2017-02-05 00:23:49.97871+01 | 1486250629.97871 | pgbench_accounts |       1392427008
 2017-02-05 00:23:49.97871+01 | 1486250629.97871 | pgbench_tellers  |            49152
 2017-02-05 00:23:49.97871+01 | 1486250629.97871 | pgbench_history  |                0
 2017-02-05 00:23:49.97871+01 | 1486250629.97871 | pgbench_branches |             8192

 2017-02-05 00:23:51.063069+01 | 1486250631.06307 | pgbench_accounts |       1392427008
 2017-02-05 00:23:51.063069+01 | 1486250631.06307 | pgbench_tellers  |            49152
 2017-02-05 00:23:51.063069+01 | 1486250631.06307 | pgbench_history  |                0
 2017-02-05 00:23:51.063069+01 | 1486250631.06307 | pgbench_branches |             8192

 2017-02-05 00:23:52.13299+01 | 1486250632.13299 | pgbench_accounts |       1392427008
 2017-02-05 00:23:52.13299+01 | 1486250632.13299 | pgbench_tellers  |            49152
 2017-02-05 00:23:52.13299+01 | 1486250632.13299 | pgbench_history  |                0
 2017-02-05 00:23:52.13299+01 | 1486250632.13299 | pgbench_branches |             8192

 2017-02-05 00:23:53.228037+01 | 1486250633.22804 | pgbench_accounts |       1392427008
 2017-02-05 00:23:53.228037+01 | 1486250633.22804 | pgbench_tellers  |            49152
 2017-02-05 00:23:53.228037+01 | 1486250633.22804 | pgbench_history  |                0
 2017-02-05 00:23:53.228037+01 | 1486250633.22804 | pgbench_branches |             8192

 2017-02-05 00:23:54.316652+01 | 1486250634.31665 | pgbench_accounts |       1392427008
 2017-02-05 00:23:54.316652+01 | 1486250634.31665 | pgbench_tellers  |            49152
 2017-02-05 00:23:54.316652+01 | 1486250634.31665 | pgbench_history  |                0
 2017-02-05 00:23:54.316652+01 | 1486250634.31665 | pgbench_branches |             8192

 2017-02-05 00:23:55.403057+01 | 1486250635.40306 | pgbench_accounts |       1392427008
 2017-02-05 00:23:55.403057+01 | 1486250635.40306 | pgbench_tellers  |            49152
 2017-02-05 00:23:55.403057+01 | 1486250635.40306 | pgbench_history  |                0
 2017-02-05 00:23:55.403057+01 | 1486250635.40306 | pgbench_branches |             8192

 2017-02-05 00:23:56.491366+01 | 1486250636.49137 | pgbench_accounts |       1392427008
 2017-02-05 00:23:56.491366+01 | 1486250636.49137 | pgbench_tellers  |            49152
 2017-02-05 00:23:56.491366+01 | 1486250636.49137 | pgbench_history  |                0
 2017-02-05 00:23:56.491366+01 | 1486250636.49137 | pgbench_branches |             8192

 2017-02-05 00:23:57.565987+01 | 1486250637.56599 | pgbench_accounts |       1392427008
 2017-02-05 00:23:57.565987+01 | 1486250637.56599 | pgbench_tellers  |            49152
 2017-02-05 00:23:57.565987+01 | 1486250637.56599 | pgbench_history  |                0
 2017-02-05 00:23:57.565987+01 | 1486250637.56599 | pgbench_branches |             8192

 2017-02-05 00:23:58.647231+01 | 1486250638.64723 | pgbench_accounts |       1392427008
 2017-02-05 00:23:58.647231+01 | 1486250638.64723 | pgbench_tellers  |            49152
 2017-02-05 00:23:58.647231+01 | 1486250638.64723 | pgbench_history  |                0
 2017-02-05 00:23:58.647231+01 | 1486250638.64723 | pgbench_branches |             8192

 2017-02-05 00:23:59.737935+01 | 1486250639.73794 | pgbench_accounts |       1392427008
 2017-02-05 00:23:59.737935+01 | 1486250639.73794 | pgbench_tellers  |            49152
 2017-02-05 00:23:59.737935+01 | 1486250639.73794 | pgbench_history  |                0
 2017-02-05 00:23:59.737935+01 | 1486250639.73794 | pgbench_branches |             8192

 2017-02-05 00:24:00.819666+01 | 1486250640.81967 | pgbench_accounts |       1392427008
 2017-02-05 00:24:00.819666+01 | 1486250640.81967 | pgbench_tellers  |            49152
 2017-02-05 00:24:00.819666+01 | 1486250640.81967 | pgbench_history  |                0
 2017-02-05 00:24:00.819666+01 | 1486250640.81967 | pgbench_branches |             8192

 2017-02-05 00:24:01.910059+01 | 1486250641.91006 | pgbench_accounts |       1392427008
 2017-02-05 00:24:01.910059+01 | 1486250641.91006 | pgbench_tellers  |            49152
 2017-02-05 00:24:01.910059+01 | 1486250641.91006 | pgbench_history  |                0
 2017-02-05 00:24:01.910059+01 | 1486250641.91006 | pgbench_branches |             8192

 2017-02-05 00:24:02.984608+01 | 1486250642.98461 | pgbench_accounts |       1392427008
 2017-02-05 00:24:02.984608+01 | 1486250642.98461 | pgbench_tellers  |            49152
 2017-02-05 00:24:02.984608+01 | 1486250642.98461 | pgbench_history  |                0
 2017-02-05 00:24:02.984608+01 | 1486250642.98461 | pgbench_branches |             8192

 2017-02-05 00:24:04.063581+01 | 1486250644.06358 | pgbench_accounts |       1392427008
 2017-02-05 00:24:04.063581+01 | 1486250644.06358 | pgbench_tellers  |            49152
 2017-02-05 00:24:04.063581+01 | 1486250644.06358 | pgbench_history  |                0
 2017-02-05 00:24:04.063581+01 | 1486250644.06358 | pgbench_branches |             8192

 2017-02-05 00:24:05.148757+01 | 1486250645.14876 | pgbench_accounts |       1392427008
 2017-02-05 00:24:05.148757+01 | 1486250645.14876 | pgbench_tellers  |            49152
 2017-02-05 00:24:05.148757+01 | 1486250645.14876 | pgbench_history  |                0
 2017-02-05 00:24:05.148757+01 | 1486250645.14876 | pgbench_branches |             8192

 2017-02-05 00:24:06.232558+01 | 1486250646.23256 | pgbench_accounts |       1392427008
 2017-02-05 00:24:06.232558+01 | 1486250646.23256 | pgbench_tellers  |            49152
 2017-02-05 00:24:06.232558+01 | 1486250646.23256 | pgbench_history  |                0
 2017-02-05 00:24:06.232558+01 | 1486250646.23256 | pgbench_branches |             8192

 2017-02-05 00:24:07.314523+01 | 1486250647.31452 | pgbench_accounts |       1392427008
 2017-02-05 00:24:07.314523+01 | 1486250647.31452 | pgbench_tellers  |            49152
 2017-02-05 00:24:07.314523+01 | 1486250647.31452 | pgbench_history  |                0
 2017-02-05 00:24:07.314523+01 | 1486250647.31452 | pgbench_branches |             8192

 2017-02-05 00:24:08.397651+01 | 1486250648.39765 | pgbench_accounts |       1392427008
 2017-02-05 00:24:08.397651+01 | 1486250648.39765 | pgbench_tellers  |            49152
 2017-02-05 00:24:08.397651+01 | 1486250648.39765 | pgbench_history  |                0
 2017-02-05 00:24:08.397651+01 | 1486250648.39765 | pgbench_branches |             8192

 2017-02-05 00:24:09.478644+01 | 1486250649.47864 | pgbench_accounts |       1392427008
 2017-02-05 00:24:09.478644+01 | 1486250649.47864 | pgbench_tellers  |            49152
 2017-02-05 00:24:09.478644+01 | 1486250649.47864 | pgbench_history  |                0
 2017-02-05 00:24:09.478644+01 | 1486250649.47864 | pgbench_branches |             8192

 2017-02-05 00:24:10.56045+01 | 1486250650.56045 | pgbench_accounts |       1392427008
 2017-02-05 00:24:10.56045+01 | 1486250650.56045 | pgbench_tellers  |            49152
 2017-02-05 00:24:10.56045+01 | 1486250650.56045 | pgbench_history  |                0
 2017-02-05 00:24:10.56045+01 | 1486250650.56045 | pgbench_branches |             8192

 2017-02-05 00:24:11.648556+01 | 1486250651.64856 | pgbench_accounts |       1392427008
 2017-02-05 00:24:11.648556+01 | 1486250651.64856 | pgbench_tellers  |            49152
 2017-02-05 00:24:11.648556+01 | 1486250651.64856 | pgbench_history  |                0
 2017-02-05 00:24:11.648556+01 | 1486250651.64856 | pgbench_branches |             8192

 2017-02-05 00:24:12.735295+01 | 1486250652.7353 | pgbench_accounts |       1392427008
 2017-02-05 00:24:12.735295+01 | 1486250652.7353 | pgbench_tellers  |            49152
 2017-02-05 00:24:12.735295+01 | 1486250652.7353 | pgbench_history  |                0
 2017-02-05 00:24:12.735295+01 | 1486250652.7353 | pgbench_branches |             8192

 2017-02-05 00:24:13.818439+01 | 1486250653.81844 | pgbench_accounts |       1392427008
 2017-02-05 00:24:13.818439+01 | 1486250653.81844 | pgbench_tellers  |            49152
 2017-02-05 00:24:13.818439+01 | 1486250653.81844 | pgbench_history  |                0
 2017-02-05 00:24:13.818439+01 | 1486250653.81844 | pgbench_branches |             8192

 2017-02-05 00:24:14.907221+01 | 1486250654.90722 | pgbench_accounts |       1392427008
 2017-02-05 00:24:14.907221+01 | 1486250654.90722 | pgbench_tellers  |            49152
 2017-02-05 00:24:14.907221+01 | 1486250654.90722 | pgbench_history  |                0
 2017-02-05 00:24:14.907221+01 | 1486250654.90722 | pgbench_branches |             8192

 2017-02-05 00:24:15.984876+01 | 1486250655.98488 | pgbench_accounts |       1392427008
 2017-02-05 00:24:15.984876+01 | 1486250655.98488 | pgbench_tellers  |            49152
 2017-02-05 00:24:15.984876+01 | 1486250655.98488 | pgbench_history  |                0
 2017-02-05 00:24:15.984876+01 | 1486250655.98488 | pgbench_branches |             8192

 2017-02-05 00:24:17.058952+01 | 1486250657.05895 | pgbench_accounts |       1392427008
 2017-02-05 00:24:17.058952+01 | 1486250657.05895 | pgbench_tellers  |            49152
 2017-02-05 00:24:17.058952+01 | 1486250657.05895 | pgbench_history  |                0
 2017-02-05 00:24:17.058952+01 | 1486250657.05895 | pgbench_branches |             8192

 2017-02-05 00:24:18.144877+01 | 1486250658.14488 | pgbench_accounts |       1392427008
 2017-02-05 00:24:18.144877+01 | 1486250658.14488 | pgbench_tellers  |            49152
 2017-02-05 00:24:18.144877+01 | 1486250658.14488 | pgbench_history  |                0
 2017-02-05 00:24:18.144877+01 | 1486250658.14488 | pgbench_branches |             8192

 2017-02-05 00:24:19.225449+01 | 1486250659.22545 | pgbench_accounts |       1392427008
 2017-02-05 00:24:19.225449+01 | 1486250659.22545 | pgbench_tellers  |            49152
 2017-02-05 00:24:19.225449+01 | 1486250659.22545 | pgbench_history  |                0
 2017-02-05 00:24:19.225449+01 | 1486250659.22545 | pgbench_branches |             8192

 2017-02-05 00:24:20.31004+01 | 1486250660.31004 | pgbench_accounts |       1392427008
 2017-02-05 00:24:20.31004+01 | 1486250660.31004 | pgbench_tellers  |            49152
 2017-02-05 00:24:20.31004+01 | 1486250660.31004 | pgbench_history  |                0
 2017-02-05 00:24:20.31004+01 | 1486250660.31004 | pgbench_branches |             8192

 2017-02-05 00:24:21.400331+01 | 1486250661.40033 | pgbench_accounts |       1392427008
 2017-02-05 00:24:21.400331+01 | 1486250661.40033 | pgbench_tellers  |            49152
 2017-02-05 00:24:21.400331+01 | 1486250661.40033 | pgbench_history  |                0
 2017-02-05 00:24:21.400331+01 | 1486250661.40033 | pgbench_branches |             8192

 2017-02-05 00:24:22.485801+01 | 1486250662.4858 | pgbench_accounts |       1392427008
 2017-02-05 00:24:22.485801+01 | 1486250662.4858 | pgbench_tellers  |            49152
 2017-02-05 00:24:22.485801+01 | 1486250662.4858 | pgbench_history  |                0
 2017-02-05 00:24:22.485801+01 | 1486250662.4858 | pgbench_branches |             8192

 2017-02-05 00:24:23.574552+01 | 1486250663.57455 | pgbench_accounts |       1392427008
 2017-02-05 00:24:23.574552+01 | 1486250663.57455 | pgbench_tellers  |            49152
 2017-02-05 00:24:23.574552+01 | 1486250663.57455 | pgbench_history  |                0
 2017-02-05 00:24:23.574552+01 | 1486250663.57455 | pgbench_branches |             8192

 2017-02-05 00:24:24.657509+01 | 1486250664.65751 | pgbench_accounts |       1392427008
 2017-02-05 00:24:24.657509+01 | 1486250664.65751 | pgbench_tellers  |            49152
 2017-02-05 00:24:24.657509+01 | 1486250664.65751 | pgbench_history  |                0
 2017-02-05 00:24:24.657509+01 | 1486250664.65751 | pgbench_branches |             8192

 2017-02-05 00:24:25.745261+01 | 1486250665.74526 | pgbench_accounts |       1392427008
 2017-02-05 00:24:25.745261+01 | 1486250665.74526 | pgbench_tellers  |            49152
 2017-02-05 00:24:25.745261+01 | 1486250665.74526 | pgbench_history  |                0
 2017-02-05 00:24:25.745261+01 | 1486250665.74526 | pgbench_branches |             8192

 2017-02-05 00:24:26.833557+01 | 1486250666.83356 | pgbench_accounts |       1392427008
 2017-02-05 00:24:26.833557+01 | 1486250666.83356 | pgbench_tellers  |            49152
 2017-02-05 00:24:26.833557+01 | 1486250666.83356 | pgbench_history  |                0
 2017-02-05 00:24:26.833557+01 | 1486250666.83356 | pgbench_branches |             8192

 2017-02-05 00:24:27.918728+01 | 1486250667.91873 | pgbench_accounts |       1392427008
 2017-02-05 00:24:27.918728+01 | 1486250667.91873 | pgbench_tellers  |            49152
 2017-02-05 00:24:27.918728+01 | 1486250667.91873 | pgbench_history  |                0
 2017-02-05 00:24:27.918728+01 | 1486250667.91873 | pgbench_branches |             8192

 2017-02-05 00:24:28.99665+01 | 1486250668.99665 | pgbench_accounts |       1392427008
 2017-02-05 00:24:28.99665+01 | 1486250668.99665 | pgbench_tellers  |            49152
 2017-02-05 00:24:28.99665+01 | 1486250668.99665 | pgbench_history  |                0
 2017-02-05 00:24:28.99665+01 | 1486250668.99665 | pgbench_branches |             8192

 2017-02-05 00:24:30.073609+01 | 1486250670.07361 | pgbench_accounts |       1392427008
 2017-02-05 00:24:30.073609+01 | 1486250670.07361 | pgbench_tellers  |            49152
 2017-02-05 00:24:30.073609+01 | 1486250670.07361 | pgbench_history  |                0
 2017-02-05 00:24:30.073609+01 | 1486250670.07361 | pgbench_branches |             8192

 2017-02-05 00:24:31.15355+01 | 1486250671.15355 | pgbench_accounts |       1392427008
 2017-02-05 00:24:31.15355+01 | 1486250671.15355 | pgbench_tellers  |            49152
 2017-02-05 00:24:31.15355+01 | 1486250671.15355 | pgbench_history  |                0
 2017-02-05 00:24:31.15355+01 | 1486250671.15355 | pgbench_branches |             8192

 2017-02-05 00:24:32.241112+01 | 1486250672.24111 | pgbench_accounts |       1392427008
 2017-02-05 00:24:32.241112+01 | 1486250672.24111 | pgbench_tellers  |            49152
 2017-02-05 00:24:32.241112+01 | 1486250672.24111 | pgbench_history  |                0
 2017-02-05 00:24:32.241112+01 | 1486250672.24111 | pgbench_branches |             8192

 2017-02-05 00:24:33.329417+01 | 1486250673.32942 | pgbench_accounts |       1392427008
 2017-02-05 00:24:33.329417+01 | 1486250673.32942 | pgbench_tellers  |            49152
 2017-02-05 00:24:33.329417+01 | 1486250673.32942 | pgbench_history  |                0
 2017-02-05 00:24:33.329417+01 | 1486250673.32942 | pgbench_branches |             8192

 2017-02-05 00:24:34.407756+01 | 1486250674.40776 | pgbench_accounts |       1392427008
 2017-02-05 00:24:34.407756+01 | 1486250674.40776 | pgbench_tellers  |            49152
 2017-02-05 00:24:34.407756+01 | 1486250674.40776 | pgbench_history  |                0
 2017-02-05 00:24:34.407756+01 | 1486250674.40776 | pgbench_branches |             8192

 2017-02-05 00:24:35.494234+01 | 1486250675.49423 | pgbench_accounts |       1392427008
 2017-02-05 00:24:35.494234+01 | 1486250675.49423 | pgbench_tellers  |            49152
 2017-02-05 00:24:35.494234+01 | 1486250675.49423 | pgbench_history  |                0
 2017-02-05 00:24:35.494234+01 | 1486250675.49423 | pgbench_branches |             8192

 2017-02-05 00:24:36.58044+01 | 1486250676.58044 | pgbench_accounts |       1392427008
 2017-02-05 00:24:36.58044+01 | 1486250676.58044 | pgbench_tellers  |            49152
 2017-02-05 00:24:36.58044+01 | 1486250676.58044 | pgbench_history  |                0
 2017-02-05 00:24:36.58044+01 | 1486250676.58044 | pgbench_branches |             8192

 2017-02-05 00:24:37.666676+01 | 1486250677.66668 | pgbench_accounts |       1392427008
 2017-02-05 00:24:37.666676+01 | 1486250677.66668 | pgbench_tellers  |            49152
 2017-02-05 00:24:37.666676+01 | 1486250677.66668 | pgbench_history  |                0
 2017-02-05 00:24:37.666676+01 | 1486250677.66668 | pgbench_branches |             8192

 2017-02-05 00:24:38.751989+01 | 1486250678.75199 | pgbench_accounts |       1392427008
 2017-02-05 00:24:38.751989+01 | 1486250678.75199 | pgbench_tellers  |            49152
 2017-02-05 00:24:38.751989+01 | 1486250678.75199 | pgbench_history  |                0
 2017-02-05 00:24:38.751989+01 | 1486250678.75199 | pgbench_branches |             8192

 2017-02-05 00:24:39.842873+01 | 1486250679.84287 | pgbench_accounts |       1392427008
 2017-02-05 00:24:39.842873+01 | 1486250679.84287 | pgbench_tellers  |            49152
 2017-02-05 00:24:39.842873+01 | 1486250679.84287 | pgbench_history  |                0
 2017-02-05 00:24:39.842873+01 | 1486250679.84287 | pgbench_branches |             8192

 2017-02-05 00:24:40.927126+01 | 1486250680.92713 | pgbench_accounts |       1392427008
 2017-02-05 00:24:40.927126+01 | 1486250680.92713 | pgbench_tellers  |            49152
 2017-02-05 00:24:40.927126+01 | 1486250680.92713 | pgbench_history  |                0
 2017-02-05 00:24:40.927126+01 | 1486250680.92713 | pgbench_branches |             8192

 2017-02-05 00:24:42.004801+01 | 1486250682.0048 | pgbench_accounts |       1392427008
 2017-02-05 00:24:42.004801+01 | 1486250682.0048 | pgbench_tellers  |            49152
 2017-02-05 00:24:42.004801+01 | 1486250682.0048 | pgbench_history  |                0
 2017-02-05 00:24:42.004801+01 | 1486250682.0048 | pgbench_branches |             8192

 2017-02-05 00:24:43.077862+01 | 1486250683.07786 | pgbench_accounts |       1392427008
 2017-02-05 00:24:43.077862+01 | 1486250683.07786 | pgbench_tellers  |            49152
 2017-02-05 00:24:43.077862+01 | 1486250683.07786 | pgbench_history  |                0
 2017-02-05 00:24:43.077862+01 | 1486250683.07786 | pgbench_branches |             8192

 2017-02-05 00:24:44.161825+01 | 1486250684.16182 | pgbench_accounts |       1392427008
 2017-02-05 00:24:44.161825+01 | 1486250684.16182 | pgbench_tellers  |            49152
 2017-02-05 00:24:44.161825+01 | 1486250684.16182 | pgbench_history  |                0
 2017-02-05 00:24:44.161825+01 | 1486250684.16182 | pgbench_branches |             8192

 2017-02-05 00:24:45.243576+01 | 1486250685.24358 | pgbench_accounts |       1392427008
 2017-02-05 00:24:45.243576+01 | 1486250685.24358 | pgbench_tellers  |            49152
 2017-02-05 00:24:45.243576+01 | 1486250685.24358 | pgbench_history  |                0
 2017-02-05 00:24:45.243576+01 | 1486250685.24358 | pgbench_branches |             8192

 2017-02-05 00:24:46.326876+01 | 1486250686.32688 | pgbench_accounts |       1392427008
 2017-02-05 00:24:46.326876+01 | 1486250686.32688 | pgbench_tellers  |            49152
 2017-02-05 00:24:46.326876+01 | 1486250686.32688 | pgbench_history  |                0
 2017-02-05 00:24:46.326876+01 | 1486250686.32688 | pgbench_branches |             8192

 2017-02-05 00:24:47.410871+01 | 1486250687.41087 | pgbench_accounts |       1392427008
 2017-02-05 00:24:47.410871+01 | 1486250687.41087 | pgbench_tellers  |            49152
 2017-02-05 00:24:47.410871+01 | 1486250687.41087 | pgbench_history  |                0
 2017-02-05 00:24:47.410871+01 | 1486250687.41087 | pgbench_branches |             8192

 2017-02-05 00:24:48.496996+01 | 1486250688.497 | pgbench_accounts |       1392427008
 2017-02-05 00:24:48.496996+01 | 1486250688.497 | pgbench_tellers  |            49152
 2017-02-05 00:24:48.496996+01 | 1486250688.497 | pgbench_history  |                0
 2017-02-05 00:24:48.496996+01 | 1486250688.497 | pgbench_branches |             8192

 2017-02-05 00:24:49.581049+01 | 1486250689.58105 | pgbench_accounts |       1392427008
 2017-02-05 00:24:49.581049+01 | 1486250689.58105 | pgbench_tellers  |            49152
 2017-02-05 00:24:49.581049+01 | 1486250689.58105 | pgbench_history  |                0
 2017-02-05 00:24:49.581049+01 | 1486250689.58105 | pgbench_branches |             8192

 2017-02-05 00:24:50.661567+01 | 1486250690.66157 | pgbench_accounts |       1392427008
 2017-02-05 00:24:50.661567+01 | 1486250690.66157 | pgbench_tellers  |            49152
 2017-02-05 00:24:50.661567+01 | 1486250690.66157 | pgbench_history  |                0
 2017-02-05 00:24:50.661567+01 | 1486250690.66157 | pgbench_branches |             8192

 2017-02-05 00:24:51.74697+01 | 1486250691.74697 | pgbench_accounts |       1392427008
 2017-02-05 00:24:51.74697+01 | 1486250691.74697 | pgbench_tellers  |            49152
 2017-02-05 00:24:51.74697+01 | 1486250691.74697 | pgbench_history  |                0
 2017-02-05 00:24:51.74697+01 | 1486250691.74697 | pgbench_branches |             8192

 2017-02-05 00:24:52.835277+01 | 1486250692.83528 | pgbench_accounts |       1392427008
 2017-02-05 00:24:52.835277+01 | 1486250692.83528 | pgbench_tellers  |            49152
 2017-02-05 00:24:52.835277+01 | 1486250692.83528 | pgbench_history  |                0
 2017-02-05 00:24:52.835277+01 | 1486250692.83528 | pgbench_branches |             8192

 2017-02-05 00:24:53.917245+01 | 1486250693.91724 | pgbench_accounts |       1392427008
 2017-02-05 00:24:53.917245+01 | 1486250693.91724 | pgbench_tellers  |            49152
 2017-02-05 00:24:53.917245+01 | 1486250693.91724 | pgbench_history  |                0
 2017-02-05 00:24:53.917245+01 | 1486250693.91724 | pgbench_branches |             8192

 2017-02-05 00:24:54.998283+01 | 1486250694.99828 | pgbench_accounts |       1392427008
 2017-02-05 00:24:54.998283+01 | 1486250694.99828 | pgbench_tellers  |            49152
 2017-02-05 00:24:54.998283+01 | 1486250694.99828 | pgbench_history  |                0
 2017-02-05 00:24:54.998283+01 | 1486250694.99828 | pgbench_branches |             8192

 2017-02-05 00:24:56.076566+01 | 1486250696.07657 | pgbench_accounts |       1392427008
 2017-02-05 00:24:56.076566+01 | 1486250696.07657 | pgbench_tellers  |            49152
 2017-02-05 00:24:56.076566+01 | 1486250696.07657 | pgbench_history  |                0
 2017-02-05 00:24:56.076566+01 | 1486250696.07657 | pgbench_branches |             8192

 2017-02-05 00:24:57.157383+01 | 1486250697.15738 | pgbench_accounts |       1392427008
 2017-02-05 00:24:57.157383+01 | 1486250697.15738 | pgbench_tellers  |            49152
 2017-02-05 00:24:57.157383+01 | 1486250697.15738 | pgbench_history  |                0
 2017-02-05 00:24:57.157383+01 | 1486250697.15738 | pgbench_branches |             8192

 2017-02-05 00:24:58.237181+01 | 1486250698.23718 | pgbench_accounts |       1392427008
 2017-02-05 00:24:58.237181+01 | 1486250698.23718 | pgbench_tellers  |            49152
 2017-02-05 00:24:58.237181+01 | 1486250698.23718 | pgbench_history  |                0
 2017-02-05 00:24:58.237181+01 | 1486250698.23718 | pgbench_branches |             8192

 2017-02-05 00:24:59.325695+01 | 1486250699.3257 | pgbench_accounts |       1392427008
 2017-02-05 00:24:59.325695+01 | 1486250699.3257 | pgbench_tellers  |            49152
 2017-02-05 00:24:59.325695+01 | 1486250699.3257 | pgbench_history  |                0
 2017-02-05 00:24:59.325695+01 | 1486250699.3257 | pgbench_branches |             8192

 2017-02-05 00:25:00.415361+01 | 1486250700.41536 | pgbench_accounts |       1392427008
 2017-02-05 00:25:00.415361+01 | 1486250700.41536 | pgbench_tellers  |            49152
 2017-02-05 00:25:00.415361+01 | 1486250700.41536 | pgbench_history  |                0
 2017-02-05 00:25:00.415361+01 | 1486250700.41536 | pgbench_branches |             8192

 2017-02-05 00:25:01.497417+01 | 1486250701.49742 | pgbench_accounts |       1392427008
 2017-02-05 00:25:01.497417+01 | 1486250701.49742 | pgbench_tellers  |            49152
 2017-02-05 00:25:01.497417+01 | 1486250701.49742 | pgbench_history  |                0
 2017-02-05 00:25:01.497417+01 | 1486250701.49742 | pgbench_branches |             8192

 2017-02-05 00:25:02.581518+01 | 1486250702.58152 | pgbench_accounts |       1392427008
 2017-02-05 00:25:02.581518+01 | 1486250702.58152 | pgbench_tellers  |            49152
 2017-02-05 00:25:02.581518+01 | 1486250702.58152 | pgbench_history  |                0
 2017-02-05 00:25:02.581518+01 | 1486250702.58152 | pgbench_branches |             8192

 2017-02-05 00:25:03.664137+01 | 1486250703.66414 | pgbench_accounts |       1392427008
 2017-02-05 00:25:03.664137+01 | 1486250703.66414 | pgbench_tellers  |            49152
 2017-02-05 00:25:03.664137+01 | 1486250703.66414 | pgbench_history  |                0
 2017-02-05 00:25:03.664137+01 | 1486250703.66414 | pgbench_branches |             8192

 2017-02-05 00:25:04.745338+01 | 1486250704.74534 | pgbench_accounts |       1392427008
 2017-02-05 00:25:04.745338+01 | 1486250704.74534 | pgbench_tellers  |            49152
 2017-02-05 00:25:04.745338+01 | 1486250704.74534 | pgbench_history  |                0
 2017-02-05 00:25:04.745338+01 | 1486250704.74534 | pgbench_branches |             8192

 2017-02-05 00:25:05.841093+01 | 1486250705.84109 | pgbench_accounts |       1392427008
 2017-02-05 00:25:05.841093+01 | 1486250705.84109 | pgbench_tellers  |            49152
 2017-02-05 00:25:05.841093+01 | 1486250705.84109 | pgbench_history  |                0
 2017-02-05 00:25:05.841093+01 | 1486250705.84109 | pgbench_branches |             8192

 2017-02-05 00:25:06.927443+01 | 1486250706.92744 | pgbench_accounts |       1392427008
 2017-02-05 00:25:06.927443+01 | 1486250706.92744 | pgbench_tellers  |            49152
 2017-02-05 00:25:06.927443+01 | 1486250706.92744 | pgbench_history  |                0
 2017-02-05 00:25:06.927443+01 | 1486250706.92744 | pgbench_branches |             8192

 2017-02-05 00:25:08.01306+01 | 1486250708.01306 | pgbench_accounts |       1392427008
 2017-02-05 00:25:08.01306+01 | 1486250708.01306 | pgbench_tellers  |            49152
 2017-02-05 00:25:08.01306+01 | 1486250708.01306 | pgbench_history  |                0
 2017-02-05 00:25:08.01306+01 | 1486250708.01306 | pgbench_branches |             8192

 2017-02-05 00:25:09.096432+01 | 1486250709.09643 | pgbench_accounts |       1392427008
 2017-02-05 00:25:09.096432+01 | 1486250709.09643 | pgbench_tellers  |            49152
 2017-02-05 00:25:09.096432+01 | 1486250709.09643 | pgbench_history  |                0
 2017-02-05 00:25:09.096432+01 | 1486250709.09643 | pgbench_branches |             8192

 2017-02-05 00:25:10.181186+01 | 1486250710.18119 | pgbench_accounts |       1392427008
 2017-02-05 00:25:10.181186+01 | 1486250710.18119 | pgbench_tellers  |            49152
 2017-02-05 00:25:10.181186+01 | 1486250710.18119 | pgbench_history  |                0
 2017-02-05 00:25:10.181186+01 | 1486250710.18119 | pgbench_branches |             8192

 2017-02-05 00:25:11.264143+01 | 1486250711.26414 | pgbench_accounts |       1392427008
 2017-02-05 00:25:11.264143+01 | 1486250711.26414 | pgbench_tellers  |            49152
 2017-02-05 00:25:11.264143+01 | 1486250711.26414 | pgbench_history  |                0
 2017-02-05 00:25:11.264143+01 | 1486250711.26414 | pgbench_branches |             8192

 2017-02-05 00:25:12.347334+01 | 1486250712.34733 | pgbench_accounts |       1392427008
 2017-02-05 00:25:12.347334+01 | 1486250712.34733 | pgbench_tellers  |            49152
 2017-02-05 00:25:12.347334+01 | 1486250712.34733 | pgbench_history  |                0
 2017-02-05 00:25:12.347334+01 | 1486250712.34733 | pgbench_branches |             8192

 2017-02-05 00:25:13.435701+01 | 1486250713.4357 | pgbench_accounts |       1392427008
 2017-02-05 00:25:13.435701+01 | 1486250713.4357 | pgbench_tellers  |            49152
 2017-02-05 00:25:13.435701+01 | 1486250713.4357 | pgbench_history  |                0
 2017-02-05 00:25:13.435701+01 | 1486250713.4357 | pgbench_branches |             8192

 2017-02-05 00:25:14.513531+01 | 1486250714.51353 | pgbench_accounts |       1392427008
 2017-02-05 00:25:14.513531+01 | 1486250714.51353 | pgbench_tellers  |            49152
 2017-02-05 00:25:14.513531+01 | 1486250714.51353 | pgbench_history  |                0
 2017-02-05 00:25:14.513531+01 | 1486250714.51353 | pgbench_branches |             8192

 2017-02-05 00:25:15.605963+01 | 1486250715.60596 | pgbench_accounts |       1392427008
 2017-02-05 00:25:15.605963+01 | 1486250715.60596 | pgbench_tellers  |            49152
 2017-02-05 00:25:15.605963+01 | 1486250715.60596 | pgbench_history  |                0
 2017-02-05 00:25:15.605963+01 | 1486250715.60596 | pgbench_branches |             8192

 2017-02-05 00:25:16.694308+01 | 1486250716.69431 | pgbench_accounts |       1392427008
 2017-02-05 00:25:16.694308+01 | 1486250716.69431 | pgbench_tellers  |            49152
 2017-02-05 00:25:16.694308+01 | 1486250716.69431 | pgbench_history  |                0
 2017-02-05 00:25:16.694308+01 | 1486250716.69431 | pgbench_branches |             8192

 2017-02-05 00:25:17.784489+01 | 1486250717.78449 | pgbench_accounts |       1392427008
 2017-02-05 00:25:17.784489+01 | 1486250717.78449 | pgbench_tellers  |            49152
 2017-02-05 00:25:17.784489+01 | 1486250717.78449 | pgbench_history  |                0
 2017-02-05 00:25:17.784489+01 | 1486250717.78449 | pgbench_branches |             8192

 2017-02-05 00:25:18.877019+01 | 1486250718.87702 | pgbench_accounts |       1392427008
 2017-02-05 00:25:18.877019+01 | 1486250718.87702 | pgbench_tellers  |            49152
 2017-02-05 00:25:18.877019+01 | 1486250718.87702 | pgbench_history  |                0
 2017-02-05 00:25:18.877019+01 | 1486250718.87702 | pgbench_branches |             8192

 2017-02-05 00:25:19.96326+01 | 1486250719.96326 | pgbench_accounts |       1392427008
 2017-02-05 00:25:19.96326+01 | 1486250719.96326 | pgbench_tellers  |            49152
 2017-02-05 00:25:19.96326+01 | 1486250719.96326 | pgbench_history  |                0
 2017-02-05 00:25:19.96326+01 | 1486250719.96326 | pgbench_branches |             8192

 2017-02-05 00:25:21.056903+01 | 1486250721.0569 | pgbench_accounts |       1392427008
 2017-02-05 00:25:21.056903+01 | 1486250721.0569 | pgbench_tellers  |            49152
 2017-02-05 00:25:21.056903+01 | 1486250721.0569 | pgbench_history  |                0
 2017-02-05 00:25:21.056903+01 | 1486250721.0569 | pgbench_branches |             8192

 2017-02-05 00:25:22.130868+01 | 1486250722.13087 | pgbench_accounts |       1392427008
 2017-02-05 00:25:22.130868+01 | 1486250722.13087 | pgbench_tellers  |            49152
 2017-02-05 00:25:22.130868+01 | 1486250722.13087 | pgbench_history  |                0
 2017-02-05 00:25:22.130868+01 | 1486250722.13087 | pgbench_branches |             8192

 2017-02-05 00:25:23.216564+01 | 1486250723.21656 | pgbench_accounts |       1392427008
 2017-02-05 00:25:23.216564+01 | 1486250723.21656 | pgbench_tellers  |            49152
 2017-02-05 00:25:23.216564+01 | 1486250723.21656 | pgbench_history  |                0
 2017-02-05 00:25:23.216564+01 | 1486250723.21656 | pgbench_branches |             8192

 2017-02-05 00:25:24.302392+01 | 1486250724.30239 | pgbench_accounts |       1392427008
 2017-02-05 00:25:24.302392+01 | 1486250724.30239 | pgbench_tellers  |            49152
 2017-02-05 00:25:24.302392+01 | 1486250724.30239 | pgbench_history  |                0
 2017-02-05 00:25:24.302392+01 | 1486250724.30239 | pgbench_branches |             8192

 2017-02-05 00:25:25.388323+01 | 1486250725.38832 | pgbench_accounts |       1392427008
 2017-02-05 00:25:25.388323+01 | 1486250725.38832 | pgbench_tellers  |            49152
 2017-02-05 00:25:25.388323+01 | 1486250725.38832 | pgbench_history  |                0
 2017-02-05 00:25:25.388323+01 | 1486250725.38832 | pgbench_branches |             8192

 2017-02-05 00:25:26.477719+01 | 1486250726.47772 | pgbench_accounts |       1392427008
 2017-02-05 00:25:26.477719+01 | 1486250726.47772 | pgbench_tellers  |            49152
 2017-02-05 00:25:26.477719+01 | 1486250726.47772 | pgbench_history  |                0
 2017-02-05 00:25:26.477719+01 | 1486250726.47772 | pgbench_branches |             8192

 2017-02-05 00:25:27.565753+01 | 1486250727.56575 | pgbench_accounts |       1392427008
 2017-02-05 00:25:27.565753+01 | 1486250727.56575 | pgbench_tellers  |            49152
 2017-02-05 00:25:27.565753+01 | 1486250727.56575 | pgbench_history  |                0
 2017-02-05 00:25:27.565753+01 | 1486250727.56575 | pgbench_branches |             8192

 2017-02-05 00:25:28.646862+01 | 1486250728.64686 | pgbench_accounts |       1392427008
 2017-02-05 00:25:28.646862+01 | 1486250728.64686 | pgbench_tellers  |            49152
 2017-02-05 00:25:28.646862+01 | 1486250728.64686 | pgbench_history  |                0
 2017-02-05 00:25:28.646862+01 | 1486250728.64686 | pgbench_branches |             8192

 2017-02-05 00:25:29.730506+01 | 1486250729.73051 | pgbench_accounts |       1392427008
 2017-02-05 00:25:29.730506+01 | 1486250729.73051 | pgbench_tellers  |            49152
 2017-02-05 00:25:29.730506+01 | 1486250729.73051 | pgbench_history  |                0
 2017-02-05 00:25:29.730506+01 | 1486250729.73051 | pgbench_branches |             8192

 2017-02-05 00:25:30.811462+01 | 1486250730.81146 | pgbench_accounts |       1392427008
 2017-02-05 00:25:30.811462+01 | 1486250730.81146 | pgbench_tellers  |            49152
 2017-02-05 00:25:30.811462+01 | 1486250730.81146 | pgbench_history  |                0
 2017-02-05 00:25:30.811462+01 | 1486250730.81146 | pgbench_branches |             8192

 2017-02-05 00:25:31.890896+01 | 1486250731.8909 | pgbench_accounts |       1392427008
 2017-02-05 00:25:31.890896+01 | 1486250731.8909 | pgbench_tellers  |            49152
 2017-02-05 00:25:31.890896+01 | 1486250731.8909 | pgbench_history  |                0
 2017-02-05 00:25:31.890896+01 | 1486250731.8909 | pgbench_branches |             8192

 2017-02-05 00:25:32.976667+01 | 1486250732.97667 | pgbench_accounts |       1392427008
 2017-02-05 00:25:32.976667+01 | 1486250732.97667 | pgbench_tellers  |            49152
 2017-02-05 00:25:32.976667+01 | 1486250732.97667 | pgbench_history  |                0
 2017-02-05 00:25:32.976667+01 | 1486250732.97667 | pgbench_branches |             8192

 2017-02-05 00:25:34.054937+01 | 1486250734.05494 | pgbench_accounts |       1392427008
 2017-02-05 00:25:34.054937+01 | 1486250734.05494 | pgbench_tellers  |            49152
 2017-02-05 00:25:34.054937+01 | 1486250734.05494 | pgbench_history  |                0
 2017-02-05 00:25:34.054937+01 | 1486250734.05494 | pgbench_branches |             8192

 2017-02-05 00:25:35.131059+01 | 1486250735.13106 | pgbench_accounts |       1392427008
 2017-02-05 00:25:35.131059+01 | 1486250735.13106 | pgbench_tellers  |            49152
 2017-02-05 00:25:35.131059+01 | 1486250735.13106 | pgbench_history  |                0
 2017-02-05 00:25:35.131059+01 | 1486250735.13106 | pgbench_branches |             8192

 2017-02-05 00:25:36.210031+01 | 1486250736.21003 | pgbench_accounts |       1392427008
 2017-02-05 00:25:36.210031+01 | 1486250736.21003 | pgbench_tellers  |            49152
 2017-02-05 00:25:36.210031+01 | 1486250736.21003 | pgbench_history  |                0
 2017-02-05 00:25:36.210031+01 | 1486250736.21003 | pgbench_branches |             8192

 2017-02-05 00:25:37.287953+01 | 1486250737.28795 | pgbench_accounts |       1392427008
 2017-02-05 00:25:37.287953+01 | 1486250737.28795 | pgbench_tellers  |            49152
 2017-02-05 00:25:37.287953+01 | 1486250737.28795 | pgbench_history  |                0
 2017-02-05 00:25:37.287953+01 | 1486250737.28795 | pgbench_branches |             8192

 2017-02-05 00:25:38.371741+01 | 1486250738.37174 | pgbench_accounts |       1392427008
 2017-02-05 00:25:38.371741+01 | 1486250738.37174 | pgbench_tellers  |            49152
 2017-02-05 00:25:38.371741+01 | 1486250738.37174 | pgbench_history  |                0
 2017-02-05 00:25:38.371741+01 | 1486250738.37174 | pgbench_branches |             8192

 2017-02-05 00:25:39.458066+01 | 1486250739.45807 | pgbench_accounts |       1392427008
 2017-02-05 00:25:39.458066+01 | 1486250739.45807 | pgbench_tellers  |            49152
 2017-02-05 00:25:39.458066+01 | 1486250739.45807 | pgbench_history  |                0
 2017-02-05 00:25:39.458066+01 | 1486250739.45807 | pgbench_branches |             8192

 2017-02-05 00:25:40.5538+01 | 1486250740.5538 | pgbench_accounts |       1392427008
 2017-02-05 00:25:40.5538+01 | 1486250740.5538 | pgbench_tellers  |            49152
 2017-02-05 00:25:40.5538+01 | 1486250740.5538 | pgbench_history  |                0
 2017-02-05 00:25:40.5538+01 | 1486250740.5538 | pgbench_branches |             8192

 2017-02-05 00:25:41.6382+01 | 1486250741.6382 | pgbench_accounts |       1392427008
 2017-02-05 00:25:41.6382+01 | 1486250741.6382 | pgbench_tellers  |            49152
 2017-02-05 00:25:41.6382+01 | 1486250741.6382 | pgbench_history  |                0
 2017-02-05 00:25:41.6382+01 | 1486250741.6382 | pgbench_branches |             8192

 2017-02-05 00:25:42.724821+01 | 1486250742.72482 | pgbench_accounts |       1392427008
 2017-02-05 00:25:42.724821+01 | 1486250742.72482 | pgbench_tellers  |            49152
 2017-02-05 00:25:42.724821+01 | 1486250742.72482 | pgbench_history  |                0
 2017-02-05 00:25:42.724821+01 | 1486250742.72482 | pgbench_branches |             8192

 2017-02-05 00:25:43.807939+01 | 1486250743.80794 | pgbench_accounts |       1392427008
 2017-02-05 00:25:43.807939+01 | 1486250743.80794 | pgbench_tellers  |            49152
 2017-02-05 00:25:43.807939+01 | 1486250743.80794 | pgbench_history  |                0
 2017-02-05 00:25:43.807939+01 | 1486250743.80794 | pgbench_branches |             8192

 2017-02-05 00:25:44.890212+01 | 1486250744.89021 | pgbench_accounts |       1392427008
 2017-02-05 00:25:44.890212+01 | 1486250744.89021 | pgbench_tellers  |            49152
 2017-02-05 00:25:44.890212+01 | 1486250744.89021 | pgbench_history  |                0
 2017-02-05 00:25:44.890212+01 | 1486250744.89021 | pgbench_branches |             8192

 2017-02-05 00:25:45.975289+01 | 1486250745.97529 | pgbench_accounts |       1392427008
 2017-02-05 00:25:45.975289+01 | 1486250745.97529 | pgbench_tellers  |            49152
 2017-02-05 00:25:45.975289+01 | 1486250745.97529 | pgbench_history  |                0
 2017-02-05 00:25:45.975289+01 | 1486250745.97529 | pgbench_branches |             8192

 2017-02-05 00:25:47.06039+01 | 1486250747.06039 | pgbench_accounts |       1392427008
 2017-02-05 00:25:47.06039+01 | 1486250747.06039 | pgbench_tellers  |            49152
 2017-02-05 00:25:47.06039+01 | 1486250747.06039 | pgbench_history  |                0
 2017-02-05 00:25:47.06039+01 | 1486250747.06039 | pgbench_branches |             8192

 2017-02-05 00:25:48.133378+01 | 1486250748.13338 | pgbench_accounts |       1392427008
 2017-02-05 00:25:48.133378+01 | 1486250748.13338 | pgbench_tellers  |            49152
 2017-02-05 00:25:48.133378+01 | 1486250748.13338 | pgbench_history  |                0
 2017-02-05 00:25:48.133378+01 | 1486250748.13338 | pgbench_branches |             8192

 2017-02-05 00:25:49.216954+01 | 1486250749.21695 | pgbench_accounts |       1392427008
 2017-02-05 00:25:49.216954+01 | 1486250749.21695 | pgbench_tellers  |            49152
 2017-02-05 00:25:49.216954+01 | 1486250749.21695 | pgbench_history  |                0
 2017-02-05 00:25:49.216954+01 | 1486250749.21695 | pgbench_branches |             8192

 2017-02-05 00:25:50.297535+01 | 1486250750.29753 | pgbench_accounts |       1392427008
 2017-02-05 00:25:50.297535+01 | 1486250750.29753 | pgbench_tellers  |            49152
 2017-02-05 00:25:50.297535+01 | 1486250750.29753 | pgbench_history  |                0
 2017-02-05 00:25:50.297535+01 | 1486250750.29753 | pgbench_branches |             8192

 2017-02-05 00:25:51.397637+01 | 1486250751.39764 | pgbench_accounts |       1392427008
 2017-02-05 00:25:51.397637+01 | 1486250751.39764 | pgbench_tellers  |            49152
 2017-02-05 00:25:51.397637+01 | 1486250751.39764 | pgbench_history  |                0
 2017-02-05 00:25:51.397637+01 | 1486250751.39764 | pgbench_branches |             8192

 2017-02-05 00:25:52.474013+01 | 1486250752.47401 | pgbench_accounts |       1392427008
 2017-02-05 00:25:52.474013+01 | 1486250752.47401 | pgbench_tellers  |            49152
 2017-02-05 00:25:52.474013+01 | 1486250752.47401 | pgbench_history  |                0
 2017-02-05 00:25:52.474013+01 | 1486250752.47401 | pgbench_branches |             8192

 2017-02-05 00:25:53.567868+01 | 1486250753.56787 | pgbench_accounts |       1392427008
 2017-02-05 00:25:53.567868+01 | 1486250753.56787 | pgbench_tellers  |            49152
 2017-02-05 00:25:53.567868+01 | 1486250753.56787 | pgbench_history  |                0
 2017-02-05 00:25:53.567868+01 | 1486250753.56787 | pgbench_branches |             8192

 2017-02-05 00:25:54.653773+01 | 1486250754.65377 | pgbench_accounts |       1392427008
 2017-02-05 00:25:54.653773+01 | 1486250754.65377 | pgbench_tellers  |            49152
 2017-02-05 00:25:54.653773+01 | 1486250754.65377 | pgbench_history  |                0
 2017-02-05 00:25:54.653773+01 | 1486250754.65377 | pgbench_branches |             8192

 2017-02-05 00:25:55.736174+01 | 1486250755.73617 | pgbench_accounts |       1392427008
 2017-02-05 00:25:55.736174+01 | 1486250755.73617 | pgbench_tellers  |            49152
 2017-02-05 00:25:55.736174+01 | 1486250755.73617 | pgbench_history  |                0
 2017-02-05 00:25:55.736174+01 | 1486250755.73617 | pgbench_branches |             8192

 2017-02-05 00:25:56.826029+01 | 1486250756.82603 | pgbench_accounts |       1392427008
 2017-02-05 00:25:56.826029+01 | 1486250756.82603 | pgbench_tellers  |            49152
 2017-02-05 00:25:56.826029+01 | 1486250756.82603 | pgbench_history  |                0
 2017-02-05 00:25:56.826029+01 | 1486250756.82603 | pgbench_branches |             8192

 2017-02-05 00:25:57.911334+01 | 1486250757.91133 | pgbench_accounts |       1392427008
 2017-02-05 00:25:57.911334+01 | 1486250757.91133 | pgbench_tellers  |            49152
 2017-02-05 00:25:57.911334+01 | 1486250757.91133 | pgbench_history  |                0
 2017-02-05 00:25:57.911334+01 | 1486250757.91133 | pgbench_branches |             8192

 2017-02-05 00:25:59.00054+01 | 1486250759.00054 | pgbench_accounts |       1392427008
 2017-02-05 00:25:59.00054+01 | 1486250759.00054 | pgbench_tellers  |            49152
 2017-02-05 00:25:59.00054+01 | 1486250759.00054 | pgbench_history  |                0
 2017-02-05 00:25:59.00054+01 | 1486250759.00054 | pgbench_branches |             8192

 2017-02-05 00:26:00.081135+01 | 1486250760.08114 | pgbench_accounts |       1392427008
 2017-02-05 00:26:00.081135+01 | 1486250760.08114 | pgbench_tellers  |            49152
 2017-02-05 00:26:00.081135+01 | 1486250760.08114 | pgbench_history  |                0
 2017-02-05 00:26:00.081135+01 | 1486250760.08114 | pgbench_branches |             8192

 2017-02-05 00:26:01.157717+01 | 1486250761.15772 | pgbench_accounts |       1392427008
 2017-02-05 00:26:01.157717+01 | 1486250761.15772 | pgbench_tellers  |            49152
 2017-02-05 00:26:01.157717+01 | 1486250761.15772 | pgbench_history  |                0
 2017-02-05 00:26:01.157717+01 | 1486250761.15772 | pgbench_branches |             8192

 2017-02-05 00:26:02.238616+01 | 1486250762.23862 | pgbench_accounts |       1392427008
 2017-02-05 00:26:02.238616+01 | 1486250762.23862 | pgbench_tellers  |            49152
 2017-02-05 00:26:02.238616+01 | 1486250762.23862 | pgbench_history  |                0
 2017-02-05 00:26:02.238616+01 | 1486250762.23862 | pgbench_branches |             8192

 2017-02-05 00:26:03.317826+01 | 1486250763.31783 | pgbench_accounts |       1392427008
 2017-02-05 00:26:03.317826+01 | 1486250763.31783 | pgbench_tellers  |            49152
 2017-02-05 00:26:03.317826+01 | 1486250763.31783 | pgbench_history  |                0
 2017-02-05 00:26:03.317826+01 | 1486250763.31783 | pgbench_branches |             8192

 2017-02-05 00:26:04.400411+01 | 1486250764.40041 | pgbench_accounts |       1392427008
 2017-02-05 00:26:04.400411+01 | 1486250764.40041 | pgbench_tellers  |            49152
 2017-02-05 00:26:04.400411+01 | 1486250764.40041 | pgbench_history  |                0
 2017-02-05 00:26:04.400411+01 | 1486250764.40041 | pgbench_branches |             8192

 2017-02-05 00:26:05.488609+01 | 1486250765.48861 | pgbench_accounts |       1392427008
 2017-02-05 00:26:05.488609+01 | 1486250765.48861 | pgbench_tellers  |            49152
 2017-02-05 00:26:05.488609+01 | 1486250765.48861 | pgbench_history  |                0
 2017-02-05 00:26:05.488609+01 | 1486250765.48861 | pgbench_branches |             8192

 2017-02-05 00:26:06.575162+01 | 1486250766.57516 | pgbench_accounts |       1392427008
 2017-02-05 00:26:06.575162+01 | 1486250766.57516 | pgbench_tellers  |            49152
 2017-02-05 00:26:06.575162+01 | 1486250766.57516 | pgbench_history  |                0
 2017-02-05 00:26:06.575162+01 | 1486250766.57516 | pgbench_branches |             8192

 2017-02-05 00:26:07.657987+01 | 1486250767.65799 | pgbench_accounts |       1392427008
 2017-02-05 00:26:07.657987+01 | 1486250767.65799 | pgbench_tellers  |            49152
 2017-02-05 00:26:07.657987+01 | 1486250767.65799 | pgbench_history  |                0
 2017-02-05 00:26:07.657987+01 | 1486250767.65799 | pgbench_branches |             8192

 2017-02-05 00:26:08.740744+01 | 1486250768.74074 | pgbench_accounts |       1392427008
 2017-02-05 00:26:08.740744+01 | 1486250768.74074 | pgbench_tellers  |            49152
 2017-02-05 00:26:08.740744+01 | 1486250768.74074 | pgbench_history  |                0
 2017-02-05 00:26:08.740744+01 | 1486250768.74074 | pgbench_branches |             8192

 2017-02-05 00:26:09.826301+01 | 1486250769.8263 | pgbench_accounts |       1392427008
 2017-02-05 00:26:09.826301+01 | 1486250769.8263 | pgbench_tellers  |            49152
 2017-02-05 00:26:09.826301+01 | 1486250769.8263 | pgbench_history  |                0
 2017-02-05 00:26:09.826301+01 | 1486250769.8263 | pgbench_branches |             8192

 2017-02-05 00:26:10.916246+01 | 1486250770.91625 | pgbench_accounts |       1392427008
 2017-02-05 00:26:10.916246+01 | 1486250770.91625 | pgbench_tellers  |            49152
 2017-02-05 00:26:10.916246+01 | 1486250770.91625 | pgbench_history  |                0
 2017-02-05 00:26:10.916246+01 | 1486250770.91625 | pgbench_branches |             8192

 2017-02-05 00:26:11.996995+01 | 1486250771.99699 | pgbench_accounts |       1392427008
 2017-02-05 00:26:11.996995+01 | 1486250771.99699 | pgbench_tellers  |            49152
 2017-02-05 00:26:11.996995+01 | 1486250771.99699 | pgbench_history  |                0
 2017-02-05 00:26:11.996995+01 | 1486250771.99699 | pgbench_branches |             8192

 2017-02-05 00:26:13.075767+01 | 1486250773.07577 | pgbench_accounts |       1392427008
 2017-02-05 00:26:13.075767+01 | 1486250773.07577 | pgbench_tellers  |            49152
 2017-02-05 00:26:13.075767+01 | 1486250773.07577 | pgbench_history  |                0
 2017-02-05 00:26:13.075767+01 | 1486250773.07577 | pgbench_branches |             8192

 2017-02-05 00:26:14.15187+01 | 1486250774.15187 | pgbench_accounts |       1392427008
 2017-02-05 00:26:14.15187+01 | 1486250774.15187 | pgbench_tellers  |            49152
 2017-02-05 00:26:14.15187+01 | 1486250774.15187 | pgbench_history  |                0
 2017-02-05 00:26:14.15187+01 | 1486250774.15187 | pgbench_branches |             8192

