 2017-02-04 16:45:35.234724+01 | 1486223135.23472 | pgbench_accounts |      13684817920
 2017-02-04 16:45:35.234724+01 | 1486223135.23472 | pgbench_tellers  |         15523840
 2017-02-04 16:45:35.234724+01 | 1486223135.23472 | pgbench_history  |                0
 2017-02-04 16:45:35.234724+01 | 1486223135.23472 | pgbench_branches |         12599296

 2017-02-04 16:45:36.336073+01 | 1486223136.33607 | pgbench_accounts |      13685088256
 2017-02-04 16:45:36.336073+01 | 1486223136.33607 | pgbench_tellers  |         15523840
 2017-02-04 16:45:36.336073+01 | 1486223136.33607 | pgbench_history  |          1662976
 2017-02-04 16:45:36.336073+01 | 1486223136.33607 | pgbench_branches |         12599296

 2017-02-04 16:45:37.419309+01 | 1486223137.41931 | pgbench_accounts |      13685170176
 2017-02-04 16:45:37.419309+01 | 1486223137.41931 | pgbench_tellers  |         15523840
 2017-02-04 16:45:37.419309+01 | 1486223137.41931 | pgbench_history  |          2998272
 2017-02-04 16:45:37.419309+01 | 1486223137.41931 | pgbench_branches |         12599296

 2017-02-04 16:45:38.515837+01 | 1486223138.51584 | pgbench_accounts |      13685170176
 2017-02-04 16:45:38.515837+01 | 1486223138.51584 | pgbench_tellers  |         15523840
 2017-02-04 16:45:38.515837+01 | 1486223138.51584 | pgbench_history  |          6184960
 2017-02-04 16:45:38.515837+01 | 1486223138.51584 | pgbench_branches |         12599296

 2017-02-04 16:45:39.600464+01 | 1486223139.60046 | pgbench_accounts |      13685202944
 2017-02-04 16:45:39.600464+01 | 1486223139.60046 | pgbench_tellers  |         15523840
 2017-02-04 16:45:39.600464+01 | 1486223139.60046 | pgbench_history  |          6537216
 2017-02-04 16:45:39.600464+01 | 1486223139.60046 | pgbench_branches |         12599296

 2017-02-04 16:45:40.69038+01 | 1486223140.69038 | pgbench_accounts |      13685260288
 2017-02-04 16:45:40.69038+01 | 1486223140.69038 | pgbench_tellers  |         15523840
 2017-02-04 16:45:40.69038+01 | 1486223140.69038 | pgbench_history  |          8577024
 2017-02-04 16:45:40.69038+01 | 1486223140.69038 | pgbench_branches |         12599296

 2017-02-04 16:45:41.791481+01 | 1486223141.79148 | pgbench_accounts |      13685407744
 2017-02-04 16:45:41.791481+01 | 1486223141.79148 | pgbench_tellers  |         15523840
 2017-02-04 16:45:41.791481+01 | 1486223141.79148 | pgbench_history  |         11624448
 2017-02-04 16:45:41.791481+01 | 1486223141.79148 | pgbench_branches |         12599296

 2017-02-04 16:45:42.884978+01 | 1486223142.88498 | pgbench_accounts |      13685456896
 2017-02-04 16:45:42.884978+01 | 1486223142.88498 | pgbench_tellers  |         15523840
 2017-02-04 16:45:42.884978+01 | 1486223142.88498 | pgbench_history  |         14458880
 2017-02-04 16:45:42.884978+01 | 1486223142.88498 | pgbench_branches |         12599296

 2017-02-04 16:45:43.975047+01 | 1486223143.97505 | pgbench_accounts |      13685563392
 2017-02-04 16:45:43.975047+01 | 1486223143.97505 | pgbench_tellers  |         15523840
 2017-02-04 16:45:43.975047+01 | 1486223143.97505 | pgbench_history  |         16613376
 2017-02-04 16:45:43.975047+01 | 1486223143.97505 | pgbench_branches |         12599296

 2017-02-04 16:45:45.062788+01 | 1486223145.06279 | pgbench_accounts |      13685563392
 2017-02-04 16:45:45.062788+01 | 1486223145.06279 | pgbench_tellers  |         15523840
 2017-02-04 16:45:45.062788+01 | 1486223145.06279 | pgbench_history  |         18300928
 2017-02-04 16:45:45.062788+01 | 1486223145.06279 | pgbench_branches |         12599296

 2017-02-04 16:45:46.14109+01 | 1486223146.14109 | pgbench_accounts |      13685563392
 2017-02-04 16:45:46.14109+01 | 1486223146.14109 | pgbench_tellers  |         15523840
 2017-02-04 16:45:46.14109+01 | 1486223146.14109 | pgbench_history  |         20643840
 2017-02-04 16:45:46.14109+01 | 1486223146.14109 | pgbench_branches |         12599296

 2017-02-04 16:45:47.218938+01 | 1486223147.21894 | pgbench_accounts |      13685563392
 2017-02-04 16:45:47.218938+01 | 1486223147.21894 | pgbench_tellers  |         15523840
 2017-02-04 16:45:47.218938+01 | 1486223147.21894 | pgbench_history  |         22740992
 2017-02-04 16:45:47.218938+01 | 1486223147.21894 | pgbench_branches |         12599296

 2017-02-04 16:45:48.299571+01 | 1486223148.29957 | pgbench_accounts |      13685563392
 2017-02-04 16:45:48.299571+01 | 1486223148.29957 | pgbench_tellers  |         15523840
 2017-02-04 16:45:48.299571+01 | 1486223148.29957 | pgbench_history  |         25436160
 2017-02-04 16:45:48.299571+01 | 1486223148.29957 | pgbench_branches |         12599296

 2017-02-04 16:45:49.384067+01 | 1486223149.38407 | pgbench_accounts |      13685563392
 2017-02-04 16:45:49.384067+01 | 1486223149.38407 | pgbench_tellers  |         15523840
 2017-02-04 16:45:49.384067+01 | 1486223149.38407 | pgbench_history  |         29655040
 2017-02-04 16:45:49.384067+01 | 1486223149.38407 | pgbench_branches |         12599296

 2017-02-04 16:45:50.474057+01 | 1486223150.47406 | pgbench_accounts |      13685563392
 2017-02-04 16:45:50.474057+01 | 1486223150.47406 | pgbench_tellers  |         15523840
 2017-02-04 16:45:50.474057+01 | 1486223150.47406 | pgbench_history  |         29655040
 2017-02-04 16:45:50.474057+01 | 1486223150.47406 | pgbench_branches |         12599296

 2017-02-04 16:45:51.564039+01 | 1486223151.56404 | pgbench_accounts |      13685563392
 2017-02-04 16:45:51.564039+01 | 1486223151.56404 | pgbench_tellers  |         15523840
 2017-02-04 16:45:51.564039+01 | 1486223151.56404 | pgbench_history  |         31186944
 2017-02-04 16:45:51.564039+01 | 1486223151.56404 | pgbench_branches |         12599296

 2017-02-04 16:45:52.667786+01 | 1486223152.66779 | pgbench_accounts |      13685563392
 2017-02-04 16:45:52.667786+01 | 1486223152.66779 | pgbench_tellers  |         15523840
 2017-02-04 16:45:52.667786+01 | 1486223152.66779 | pgbench_history  |         34029568
 2017-02-04 16:45:52.667786+01 | 1486223152.66779 | pgbench_branches |         12599296

 2017-02-04 16:45:53.761145+01 | 1486223153.76115 | pgbench_accounts |      13685563392
 2017-02-04 16:45:53.761145+01 | 1486223153.76115 | pgbench_tellers  |         17022976
 2017-02-04 16:45:53.761145+01 | 1486223153.76115 | pgbench_history  |         36208640
 2017-02-04 16:45:53.761145+01 | 1486223153.76115 | pgbench_branches |         12599296

 2017-02-04 16:45:54.853705+01 | 1486223154.8537 | pgbench_accounts |      13685563392
 2017-02-04 16:45:54.853705+01 | 1486223154.8537 | pgbench_tellers  |         17022976
 2017-02-04 16:45:54.853705+01 | 1486223154.8537 | pgbench_history  |         37871616
 2017-02-04 16:45:54.853705+01 | 1486223154.8537 | pgbench_branches |         13606912

 2017-02-04 16:45:55.961181+01 | 1486223155.96118 | pgbench_accounts |      13685563392
 2017-02-04 16:45:55.961181+01 | 1486223155.96118 | pgbench_tellers  |         17022976
 2017-02-04 16:45:55.961181+01 | 1486223155.96118 | pgbench_history  |         40427520
 2017-02-04 16:45:55.961181+01 | 1486223155.96118 | pgbench_branches |         13606912

 2017-02-04 16:45:57.056457+01 | 1486223157.05646 | pgbench_accounts |      13685563392
 2017-02-04 16:45:57.056457+01 | 1486223157.05646 | pgbench_tellers  |         17022976
 2017-02-04 16:45:57.056457+01 | 1486223157.05646 | pgbench_history  |         44597248
 2017-02-04 16:45:57.056457+01 | 1486223157.05646 | pgbench_branches |         13606912

 2017-02-04 16:45:58.146399+01 | 1486223158.1464 | pgbench_accounts |      13685563392
 2017-02-04 16:45:58.146399+01 | 1486223158.1464 | pgbench_tellers  |         17022976
 2017-02-04 16:45:58.146399+01 | 1486223158.1464 | pgbench_history  |         47644672
 2017-02-04 16:45:58.146399+01 | 1486223158.1464 | pgbench_branches |         13606912

 2017-02-04 16:45:59.237016+01 | 1486223159.23702 | pgbench_accounts |      13685563392
 2017-02-04 16:45:59.237016+01 | 1486223159.23702 | pgbench_tellers  |         17022976
 2017-02-04 16:45:59.237016+01 | 1486223159.23702 | pgbench_history  |         49635328
 2017-02-04 16:45:59.237016+01 | 1486223159.23702 | pgbench_branches |         13606912

 2017-02-04 16:46:00.318457+01 | 1486223160.31846 | pgbench_accounts |      13685563392
 2017-02-04 16:46:00.318457+01 | 1486223160.31846 | pgbench_tellers  |         17022976
 2017-02-04 16:46:00.318457+01 | 1486223160.31846 | pgbench_history  |         51486720
 2017-02-04 16:46:00.318457+01 | 1486223160.31846 | pgbench_branches |         13606912

 2017-02-04 16:46:01.396837+01 | 1486223161.39684 | pgbench_accounts |      13685563392
 2017-02-04 16:46:01.396837+01 | 1486223161.39684 | pgbench_tellers  |         17022976
 2017-02-04 16:46:01.396837+01 | 1486223161.39684 | pgbench_history  |         54550528
 2017-02-04 16:46:01.396837+01 | 1486223161.39684 | pgbench_branches |         13606912

 2017-02-04 16:46:02.485478+01 | 1486223162.48548 | pgbench_accounts |      13685563392
 2017-02-04 16:46:02.485478+01 | 1486223162.48548 | pgbench_tellers  |         17022976
 2017-02-04 16:46:02.485478+01 | 1486223162.48548 | pgbench_history  |         58114048
 2017-02-04 16:46:02.485478+01 | 1486223162.48548 | pgbench_branches |         13606912

 2017-02-04 16:46:03.57985+01 | 1486223163.57985 | pgbench_accounts |      13685563392
 2017-02-04 16:46:03.57985+01 | 1486223163.57985 | pgbench_tellers  |         17022976
 2017-02-04 16:46:03.57985+01 | 1486223163.57985 | pgbench_history  |         59990016
 2017-02-04 16:46:03.57985+01 | 1486223163.57985 | pgbench_branches |         13606912

 2017-02-04 16:46:04.672096+01 | 1486223164.6721 | pgbench_accounts |      13685563392
 2017-02-04 16:46:04.672096+01 | 1486223164.6721 | pgbench_tellers  |         17022976
 2017-02-04 16:46:04.672096+01 | 1486223164.6721 | pgbench_history  |         64487424
 2017-02-04 16:46:04.672096+01 | 1486223164.6721 | pgbench_branches |         13606912

 2017-02-04 16:46:05.764446+01 | 1486223165.76445 | pgbench_accounts |      13685563392
 2017-02-04 16:46:05.764446+01 | 1486223165.76445 | pgbench_tellers  |         17022976
 2017-02-04 16:46:05.764446+01 | 1486223165.76445 | pgbench_history  |         65519616
 2017-02-04 16:46:05.764446+01 | 1486223165.76445 | pgbench_branches |         13606912

 2017-02-04 16:46:06.860458+01 | 1486223166.86046 | pgbench_accounts |      13685563392
 2017-02-04 16:46:06.860458+01 | 1486223166.86046 | pgbench_tellers  |         17022976
 2017-02-04 16:46:06.860458+01 | 1486223166.86046 | pgbench_history  |         68747264
 2017-02-04 16:46:06.860458+01 | 1486223166.86046 | pgbench_branches |         13606912

 2017-02-04 16:46:07.952317+01 | 1486223167.95232 | pgbench_accounts |      13685563392
 2017-02-04 16:46:07.952317+01 | 1486223167.95232 | pgbench_tellers  |         17022976
 2017-02-04 16:46:07.952317+01 | 1486223167.95232 | pgbench_history  |         72097792
 2017-02-04 16:46:07.952317+01 | 1486223167.95232 | pgbench_branches |         13606912

 2017-02-04 16:46:09.05126+01 | 1486223169.05126 | pgbench_accounts |      13685563392
 2017-02-04 16:46:09.05126+01 | 1486223169.05126 | pgbench_tellers  |         17022976
 2017-02-04 16:46:09.05126+01 | 1486223169.05126 | pgbench_history  |         74678272
 2017-02-04 16:46:09.05126+01 | 1486223169.05126 | pgbench_branches |         13606912

 2017-02-04 16:46:10.14197+01 | 1486223170.14197 | pgbench_accounts |      13685563392
 2017-02-04 16:46:10.14197+01 | 1486223170.14197 | pgbench_tellers  |         17022976
 2017-02-04 16:46:10.14197+01 | 1486223170.14197 | pgbench_history  |         77709312
 2017-02-04 16:46:10.14197+01 | 1486223170.14197 | pgbench_branches |         13606912

 2017-02-04 16:46:11.220833+01 | 1486223171.22083 | pgbench_accounts |      13685563392
 2017-02-04 16:46:11.220833+01 | 1486223171.22083 | pgbench_tellers  |         17022976
 2017-02-04 16:46:11.220833+01 | 1486223171.22083 | pgbench_history  |         81715200
 2017-02-04 16:46:11.220833+01 | 1486223171.22083 | pgbench_branches |         13606912

 2017-02-04 16:46:12.30024+01 | 1486223172.30024 | pgbench_accounts |      13685563392
 2017-02-04 16:46:12.30024+01 | 1486223172.30024 | pgbench_tellers  |         17022976
 2017-02-04 16:46:12.30024+01 | 1486223172.30024 | pgbench_history  |         82231296
 2017-02-04 16:46:12.30024+01 | 1486223172.30024 | pgbench_branches |         13606912

 2017-02-04 16:46:13.377499+01 | 1486223173.3775 | pgbench_accounts |      13685563392
 2017-02-04 16:46:13.377499+01 | 1486223173.3775 | pgbench_tellers  |         17022976
 2017-02-04 16:46:13.377499+01 | 1486223173.3775 | pgbench_history  |         84484096
 2017-02-04 16:46:13.377499+01 | 1486223173.3775 | pgbench_branches |         13606912

 2017-02-04 16:46:14.463836+01 | 1486223174.46384 | pgbench_accounts |      13685563392
 2017-02-04 16:46:14.463836+01 | 1486223174.46384 | pgbench_tellers  |         17022976
 2017-02-04 16:46:14.463836+01 | 1486223174.46384 | pgbench_history  |         87015424
 2017-02-04 16:46:14.463836+01 | 1486223174.46384 | pgbench_branches |         13606912

 2017-02-04 16:46:15.560452+01 | 1486223175.56045 | pgbench_accounts |      13685563392
 2017-02-04 16:46:15.560452+01 | 1486223175.56045 | pgbench_tellers  |         17022976
 2017-02-04 16:46:15.560452+01 | 1486223175.56045 | pgbench_history  |         89571328
 2017-02-04 16:46:15.560452+01 | 1486223175.56045 | pgbench_branches |         13606912

 2017-02-04 16:46:16.659065+01 | 1486223176.65907 | pgbench_accounts |      13685563392
 2017-02-04 16:46:16.659065+01 | 1486223176.65907 | pgbench_tellers  |         17022976
 2017-02-04 16:46:16.659065+01 | 1486223176.65907 | pgbench_history  |         92299264
 2017-02-04 16:46:16.659065+01 | 1486223176.65907 | pgbench_branches |         13606912

 2017-02-04 16:46:17.753919+01 | 1486223177.75392 | pgbench_accounts |      13685563392
 2017-02-04 16:46:17.753919+01 | 1486223177.75392 | pgbench_tellers  |         17022976
 2017-02-04 16:46:17.753919+01 | 1486223177.75392 | pgbench_history  |         95379456
 2017-02-04 16:46:17.753919+01 | 1486223177.75392 | pgbench_branches |         13606912

 2017-02-04 16:46:18.848932+01 | 1486223178.84893 | pgbench_accounts |      13685563392
 2017-02-04 16:46:18.848932+01 | 1486223178.84893 | pgbench_tellers  |         17022976
 2017-02-04 16:46:18.848932+01 | 1486223178.84893 | pgbench_history  |         97828864
 2017-02-04 16:46:18.848932+01 | 1486223178.84893 | pgbench_branches |         13606912

 2017-02-04 16:46:19.938035+01 | 1486223179.93804 | pgbench_accounts |      13685563392
 2017-02-04 16:46:19.938035+01 | 1486223179.93804 | pgbench_tellers  |         17022976
 2017-02-04 16:46:19.938035+01 | 1486223179.93804 | pgbench_history  |        100687872
 2017-02-04 16:46:19.938035+01 | 1486223179.93804 | pgbench_branches |         13606912

 2017-02-04 16:46:21.033076+01 | 1486223181.03308 | pgbench_accounts |      13685563392
 2017-02-04 16:46:21.033076+01 | 1486223181.03308 | pgbench_tellers  |         17022976
 2017-02-04 16:46:21.033076+01 | 1486223181.03308 | pgbench_history  |        103710720
 2017-02-04 16:46:21.033076+01 | 1486223181.03308 | pgbench_branches |         13606912

 2017-02-04 16:46:22.122888+01 | 1486223182.12289 | pgbench_accounts |      13685563392
 2017-02-04 16:46:22.122888+01 | 1486223182.12289 | pgbench_tellers  |         17022976
 2017-02-04 16:46:22.122888+01 | 1486223182.12289 | pgbench_history  |        106569728
 2017-02-04 16:46:22.122888+01 | 1486223182.12289 | pgbench_branches |         13606912

 2017-02-04 16:46:23.203144+01 | 1486223183.20314 | pgbench_accounts |      13685563392
 2017-02-04 16:46:23.203144+01 | 1486223183.20314 | pgbench_tellers  |         17022976
 2017-02-04 16:46:23.203144+01 | 1486223183.20314 | pgbench_history  |        109666304
 2017-02-04 16:46:23.203144+01 | 1486223183.20314 | pgbench_branches |         13606912

 2017-02-04 16:46:24.285199+01 | 1486223184.2852 | pgbench_accounts |      13685563392
 2017-02-04 16:46:24.285199+01 | 1486223184.2852 | pgbench_tellers  |         17022976
 2017-02-04 16:46:24.285199+01 | 1486223184.2852 | pgbench_history  |        112877568
 2017-02-04 16:46:24.285199+01 | 1486223184.2852 | pgbench_branches |         13606912

 2017-02-04 16:46:25.368265+01 | 1486223185.36826 | pgbench_accounts |      13685563392
 2017-02-04 16:46:25.368265+01 | 1486223185.36826 | pgbench_tellers  |         17022976
 2017-02-04 16:46:25.368265+01 | 1486223185.36826 | pgbench_history  |        114868224
 2017-02-04 16:46:25.368265+01 | 1486223185.36826 | pgbench_branches |         13606912

 2017-02-04 16:46:26.455688+01 | 1486223186.45569 | pgbench_accounts |      13685563392
 2017-02-04 16:46:26.455688+01 | 1486223186.45569 | pgbench_tellers  |         17022976
 2017-02-04 16:46:26.455688+01 | 1486223186.45569 | pgbench_history  |        117587968
 2017-02-04 16:46:26.455688+01 | 1486223186.45569 | pgbench_branches |         13606912

 2017-02-04 16:46:27.548691+01 | 1486223187.54869 | pgbench_accounts |      13685563392
 2017-02-04 16:46:27.548691+01 | 1486223187.54869 | pgbench_tellers  |         17022976
 2017-02-04 16:46:27.548691+01 | 1486223187.54869 | pgbench_history  |        121266176
 2017-02-04 16:46:27.548691+01 | 1486223187.54869 | pgbench_branches |         13606912

 2017-02-04 16:46:28.644586+01 | 1486223188.64459 | pgbench_accounts |      13685563392
 2017-02-04 16:46:28.644586+01 | 1486223188.64459 | pgbench_tellers  |         17022976
 2017-02-04 16:46:28.644586+01 | 1486223188.64459 | pgbench_history  |        123469824
 2017-02-04 16:46:28.644586+01 | 1486223188.64459 | pgbench_branches |         13606912

 2017-02-04 16:46:29.731521+01 | 1486223189.73152 | pgbench_accounts |      13685563392
 2017-02-04 16:46:29.731521+01 | 1486223189.73152 | pgbench_tellers  |         17022976
 2017-02-04 16:46:29.731521+01 | 1486223189.73152 | pgbench_history  |        127688704
 2017-02-04 16:46:29.731521+01 | 1486223189.73152 | pgbench_branches |         13606912

 2017-02-04 16:46:30.832099+01 | 1486223190.8321 | pgbench_accounts |      13685563392
 2017-02-04 16:46:30.832099+01 | 1486223190.8321 | pgbench_tellers  |         17022976
 2017-02-04 16:46:30.832099+01 | 1486223190.8321 | pgbench_history  |        128368640
 2017-02-04 16:46:30.832099+01 | 1486223190.8321 | pgbench_branches |         13606912

 2017-02-04 16:46:31.929059+01 | 1486223191.92906 | pgbench_accounts |      13685563392
 2017-02-04 16:46:31.929059+01 | 1486223191.92906 | pgbench_tellers  |         17022976
 2017-02-04 16:46:31.929059+01 | 1486223191.92906 | pgbench_history  |        133554176
 2017-02-04 16:46:31.929059+01 | 1486223191.92906 | pgbench_branches |         13606912

 2017-02-04 16:46:33.022437+01 | 1486223193.02244 | pgbench_accounts |      13685563392
 2017-02-04 16:46:33.022437+01 | 1486223193.02244 | pgbench_tellers  |         17022976
 2017-02-04 16:46:33.022437+01 | 1486223193.02244 | pgbench_history  |        134397952
 2017-02-04 16:46:33.022437+01 | 1486223193.02244 | pgbench_branches |         13606912

 2017-02-04 16:46:34.113056+01 | 1486223194.11306 | pgbench_accounts |      13685563392
 2017-02-04 16:46:34.113056+01 | 1486223194.11306 | pgbench_tellers  |         17022976
 2017-02-04 16:46:34.113056+01 | 1486223194.11306 | pgbench_history  |        136929280
 2017-02-04 16:46:34.113056+01 | 1486223194.11306 | pgbench_branches |         13606912

 2017-02-04 16:46:35.192917+01 | 1486223195.19292 | pgbench_accounts |      13685563392
 2017-02-04 16:46:35.192917+01 | 1486223195.19292 | pgbench_tellers  |         17022976
 2017-02-04 16:46:35.192917+01 | 1486223195.19292 | pgbench_history  |        139960320
 2017-02-04 16:46:35.192917+01 | 1486223195.19292 | pgbench_branches |         13606912

 2017-02-04 16:46:36.271681+01 | 1486223196.27168 | pgbench_accounts |      13685563392
 2017-02-04 16:46:36.271681+01 | 1486223196.27168 | pgbench_tellers  |         17022976
 2017-02-04 16:46:36.271681+01 | 1486223196.27168 | pgbench_history  |        142680064
 2017-02-04 16:46:36.271681+01 | 1486223196.27168 | pgbench_branches |         13606912

 2017-02-04 16:46:37.354355+01 | 1486223197.35436 | pgbench_accounts |      13685563392
 2017-02-04 16:46:37.354355+01 | 1486223197.35436 | pgbench_tellers  |         17022976
 2017-02-04 16:46:37.354355+01 | 1486223197.35436 | pgbench_history  |        145539072
 2017-02-04 16:46:37.354355+01 | 1486223197.35436 | pgbench_branches |         13606912

 2017-02-04 16:46:38.434937+01 | 1486223198.43494 | pgbench_accounts |      13685563392
 2017-02-04 16:46:38.434937+01 | 1486223198.43494 | pgbench_tellers  |         17022976
 2017-02-04 16:46:38.434937+01 | 1486223198.43494 | pgbench_history  |        148258816
 2017-02-04 16:46:38.434937+01 | 1486223198.43494 | pgbench_branches |         13606912

 2017-02-04 16:46:39.522033+01 | 1486223199.52203 | pgbench_accounts |      13685563392
 2017-02-04 16:46:39.522033+01 | 1486223199.52203 | pgbench_tellers  |         17022976
 2017-02-04 16:46:39.522033+01 | 1486223199.52203 | pgbench_history  |        152756224
 2017-02-04 16:46:39.522033+01 | 1486223199.52203 | pgbench_branches |         13606912

 2017-02-04 16:46:40.620142+01 | 1486223200.62014 | pgbench_accounts |      13685563392
 2017-02-04 16:46:40.620142+01 | 1486223200.62014 | pgbench_tellers  |         17022976
 2017-02-04 16:46:40.620142+01 | 1486223200.62014 | pgbench_history  |        153272320
 2017-02-04 16:46:40.620142+01 | 1486223200.62014 | pgbench_branches |         13606912

 2017-02-04 16:46:41.711633+01 | 1486223201.71163 | pgbench_accounts |      13685563392
 2017-02-04 16:46:41.711633+01 | 1486223201.71163 | pgbench_tellers  |         17022976
 2017-02-04 16:46:41.711633+01 | 1486223201.71163 | pgbench_history  |        156999680
 2017-02-04 16:46:41.711633+01 | 1486223201.71163 | pgbench_branches |         13606912

 2017-02-04 16:46:42.804766+01 | 1486223202.80477 | pgbench_accounts |      13685563392
 2017-02-04 16:46:42.804766+01 | 1486223202.80477 | pgbench_tellers  |         17022976
 2017-02-04 16:46:42.804766+01 | 1486223202.80477 | pgbench_history  |        158687232
 2017-02-04 16:46:42.804766+01 | 1486223202.80477 | pgbench_branches |         13606912

 2017-02-04 16:46:43.90118+01 | 1486223203.90118 | pgbench_accounts |      13685563392
 2017-02-04 16:46:43.90118+01 | 1486223203.90118 | pgbench_tellers  |         17022976
 2017-02-04 16:46:43.90118+01 | 1486223203.90118 | pgbench_history  |        161030144
 2017-02-04 16:46:43.90118+01 | 1486223203.90118 | pgbench_branches |         13606912

 2017-02-04 16:46:44.979034+01 | 1486223204.97903 | pgbench_accounts |      13685563392
 2017-02-04 16:46:44.979034+01 | 1486223204.97903 | pgbench_tellers  |         17022976
 2017-02-04 16:46:44.979034+01 | 1486223204.97903 | pgbench_history  |        164872192
 2017-02-04 16:46:44.979034+01 | 1486223204.97903 | pgbench_branches |         13606912

 2017-02-04 16:46:46.072763+01 | 1486223206.07276 | pgbench_accounts |      13685563392
 2017-02-04 16:46:46.072763+01 | 1486223206.07276 | pgbench_tellers  |         17022976
 2017-02-04 16:46:46.072763+01 | 1486223206.07276 | pgbench_history  |        166043648
 2017-02-04 16:46:46.072763+01 | 1486223206.07276 | pgbench_branches |         13606912

 2017-02-04 16:46:47.162067+01 | 1486223207.16207 | pgbench_accounts |      13685563392
 2017-02-04 16:46:47.162067+01 | 1486223207.16207 | pgbench_tellers  |         17022976
 2017-02-04 16:46:47.162067+01 | 1486223207.16207 | pgbench_history  |        169066496
 2017-02-04 16:46:47.162067+01 | 1486223207.16207 | pgbench_branches |         13606912

 2017-02-04 16:46:48.245521+01 | 1486223208.24552 | pgbench_accounts |      13685563392
 2017-02-04 16:46:48.245521+01 | 1486223208.24552 | pgbench_tellers  |         17022976
 2017-02-04 16:46:48.245521+01 | 1486223208.24552 | pgbench_history  |        171491328
 2017-02-04 16:46:48.245521+01 | 1486223208.24552 | pgbench_branches |         13606912

 2017-02-04 16:46:49.328153+01 | 1486223209.32815 | pgbench_accounts |      13685563392
 2017-02-04 16:46:49.328153+01 | 1486223209.32815 | pgbench_tellers  |         17022976
 2017-02-04 16:46:49.328153+01 | 1486223209.32815 | pgbench_history  |        174260224
 2017-02-04 16:46:49.328153+01 | 1486223209.32815 | pgbench_branches |         13606912

 2017-02-04 16:46:50.409605+01 | 1486223210.40961 | pgbench_accounts |      13685563392
 2017-02-04 16:46:50.409605+01 | 1486223210.40961 | pgbench_tellers  |         17022976
 2017-02-04 16:46:50.409605+01 | 1486223210.40961 | pgbench_history  |        176857088
 2017-02-04 16:46:50.409605+01 | 1486223210.40961 | pgbench_branches |         13606912

 2017-02-04 16:46:51.498298+01 | 1486223211.4983 | pgbench_accounts |      13685563392
 2017-02-04 16:46:51.498298+01 | 1486223211.4983 | pgbench_tellers  |         17022976
 2017-02-04 16:46:51.498298+01 | 1486223211.4983 | pgbench_history  |        179879936
 2017-02-04 16:46:51.498298+01 | 1486223211.4983 | pgbench_branches |         13606912

 2017-02-04 16:46:52.603936+01 | 1486223212.60394 | pgbench_accounts |      13685563392
 2017-02-04 16:46:52.603936+01 | 1486223212.60394 | pgbench_tellers  |         17022976
 2017-02-04 16:46:52.603936+01 | 1486223212.60394 | pgbench_history  |        183279616
 2017-02-04 16:46:52.603936+01 | 1486223212.60394 | pgbench_branches |         13606912

 2017-02-04 16:46:53.693161+01 | 1486223213.69316 | pgbench_accounts |      13685563392
 2017-02-04 16:46:53.693161+01 | 1486223213.69316 | pgbench_tellers  |         17022976
 2017-02-04 16:46:53.693161+01 | 1486223213.69316 | pgbench_history  |        185458688
 2017-02-04 16:46:53.693161+01 | 1486223213.69316 | pgbench_branches |         13606912

 2017-02-04 16:46:54.779471+01 | 1486223214.77947 | pgbench_accounts |      13685563392
 2017-02-04 16:46:54.779471+01 | 1486223214.77947 | pgbench_tellers  |         17022976
 2017-02-04 16:46:54.779471+01 | 1486223214.77947 | pgbench_history  |        188194816
 2017-02-04 16:46:54.779471+01 | 1486223214.77947 | pgbench_branches |         13606912

 2017-02-04 16:46:55.875139+01 | 1486223215.87514 | pgbench_accounts |      13685563392
 2017-02-04 16:46:55.875139+01 | 1486223215.87514 | pgbench_tellers  |         17022976
 2017-02-04 16:46:55.875139+01 | 1486223215.87514 | pgbench_history  |        190889984
 2017-02-04 16:46:55.875139+01 | 1486223215.87514 | pgbench_branches |         13606912

 2017-02-04 16:46:56.967834+01 | 1486223216.96783 | pgbench_accounts |      13685563392
 2017-02-04 16:46:56.967834+01 | 1486223216.96783 | pgbench_tellers  |         17022976
 2017-02-04 16:46:56.967834+01 | 1486223216.96783 | pgbench_history  |        197320704
 2017-02-04 16:46:56.967834+01 | 1486223216.96783 | pgbench_branches |         13606912

 2017-02-04 16:46:58.064457+01 | 1486223218.06446 | pgbench_accounts |      13685563392
 2017-02-04 16:46:58.064457+01 | 1486223218.06446 | pgbench_tellers  |         17022976
 2017-02-04 16:46:58.064457+01 | 1486223218.06446 | pgbench_history  |        197320704
 2017-02-04 16:46:58.064457+01 | 1486223218.06446 | pgbench_branches |         13606912

 2017-02-04 16:46:59.151467+01 | 1486223219.15147 | pgbench_accounts |      13685563392
 2017-02-04 16:46:59.151467+01 | 1486223219.15147 | pgbench_tellers  |         17022976
 2017-02-04 16:46:59.151467+01 | 1486223219.15147 | pgbench_history  |        199663616
 2017-02-04 16:46:59.151467+01 | 1486223219.15147 | pgbench_branches |         13606912

 2017-02-04 16:47:00.236217+01 | 1486223220.23622 | pgbench_accounts |      13685563392
 2017-02-04 16:47:00.236217+01 | 1486223220.23622 | pgbench_tellers  |         17022976
 2017-02-04 16:47:00.236217+01 | 1486223220.23622 | pgbench_history  |        203014144
 2017-02-04 16:47:00.236217+01 | 1486223220.23622 | pgbench_branches |         13606912

 2017-02-04 16:47:01.319875+01 | 1486223221.31988 | pgbench_accounts |      13685563392
 2017-02-04 16:47:01.319875+01 | 1486223221.31988 | pgbench_tellers  |         17022976
 2017-02-04 16:47:01.319875+01 | 1486223221.31988 | pgbench_history  |        205053952
 2017-02-04 16:47:01.319875+01 | 1486223221.31988 | pgbench_branches |         13606912

 2017-02-04 16:47:02.399412+01 | 1486223222.39941 | pgbench_accounts |      13685563392
 2017-02-04 16:47:02.399412+01 | 1486223222.39941 | pgbench_tellers  |         17022976
 2017-02-04 16:47:02.399412+01 | 1486223222.39941 | pgbench_history  |        208404480
 2017-02-04 16:47:02.399412+01 | 1486223222.39941 | pgbench_branches |         13606912

 2017-02-04 16:47:03.486027+01 | 1486223223.48603 | pgbench_accounts |      13685563392
 2017-02-04 16:47:03.486027+01 | 1486223223.48603 | pgbench_tellers  |         17022976
 2017-02-04 16:47:03.486027+01 | 1486223223.48603 | pgbench_history  |        210960384
 2017-02-04 16:47:03.486027+01 | 1486223223.48603 | pgbench_branches |         13606912

 2017-02-04 16:47:04.578244+01 | 1486223224.57824 | pgbench_accounts |      13685563392
 2017-02-04 16:47:04.578244+01 | 1486223224.57824 | pgbench_tellers  |         17022976
 2017-02-04 16:47:04.578244+01 | 1486223224.57824 | pgbench_history  |        214499328
 2017-02-04 16:47:04.578244+01 | 1486223224.57824 | pgbench_branches |         13606912

 2017-02-04 16:47:05.670275+01 | 1486223225.67027 | pgbench_accounts |      13685563392
 2017-02-04 16:47:05.670275+01 | 1486223225.67027 | pgbench_tellers  |         17022976
 2017-02-04 16:47:05.670275+01 | 1486223225.67027 | pgbench_history  |        216866816
 2017-02-04 16:47:05.670275+01 | 1486223225.67027 | pgbench_branches |         13606912

 2017-02-04 16:47:06.761494+01 | 1486223226.76149 | pgbench_accounts |      13685563392
 2017-02-04 16:47:06.761494+01 | 1486223226.76149 | pgbench_tellers  |         17022976
 2017-02-04 16:47:06.761494+01 | 1486223226.76149 | pgbench_history  |        219865088
 2017-02-04 16:47:06.761494+01 | 1486223226.76149 | pgbench_branches |         13606912

 2017-02-04 16:47:07.854806+01 | 1486223227.85481 | pgbench_accounts |      13685563392
 2017-02-04 16:47:07.854806+01 | 1486223227.85481 | pgbench_tellers  |         17022976
 2017-02-04 16:47:07.854806+01 | 1486223227.85481 | pgbench_history  |        222748672
 2017-02-04 16:47:07.854806+01 | 1486223227.85481 | pgbench_branches |         13606912

 2017-02-04 16:47:08.949236+01 | 1486223228.94924 | pgbench_accounts |      13685563392
 2017-02-04 16:47:08.949236+01 | 1486223228.94924 | pgbench_tellers  |         17022976
 2017-02-04 16:47:08.949236+01 | 1486223228.94924 | pgbench_history  |        225116160
 2017-02-04 16:47:08.949236+01 | 1486223228.94924 | pgbench_branches |         13606912

 2017-02-04 16:47:10.041232+01 | 1486223230.04123 | pgbench_accounts |      13685563392
 2017-02-04 16:47:10.041232+01 | 1486223230.04123 | pgbench_tellers  |         17022976
 2017-02-04 16:47:10.041232+01 | 1486223230.04123 | pgbench_history  |        227983360
 2017-02-04 16:47:10.041232+01 | 1486223230.04123 | pgbench_branches |         13606912

 2017-02-04 16:47:11.141704+01 | 1486223231.1417 | pgbench_accounts |      13685563392
 2017-02-04 16:47:11.141704+01 | 1486223231.1417 | pgbench_tellers  |         17022976
 2017-02-04 16:47:11.141704+01 | 1486223231.1417 | pgbench_history  |        230678528
 2017-02-04 16:47:11.141704+01 | 1486223231.1417 | pgbench_branches |         13606912

 2017-02-04 16:47:12.223879+01 | 1486223232.22388 | pgbench_accounts |      13685563392
 2017-02-04 16:47:12.223879+01 | 1486223232.22388 | pgbench_tellers  |         17022976
 2017-02-04 16:47:12.223879+01 | 1486223232.22388 | pgbench_history  |        234602496
 2017-02-04 16:47:12.223879+01 | 1486223232.22388 | pgbench_branches |         13606912

 2017-02-04 16:47:13.30611+01 | 1486223233.30611 | pgbench_accounts |      13685563392
 2017-02-04 16:47:13.30611+01 | 1486223233.30611 | pgbench_tellers  |         17022976
 2017-02-04 16:47:13.30611+01 | 1486223233.30611 | pgbench_history  |        237469696
 2017-02-04 16:47:13.30611+01 | 1486223233.30611 | pgbench_branches |         13606912

 2017-02-04 16:47:14.388059+01 | 1486223234.38806 | pgbench_accounts |      13685563392
 2017-02-04 16:47:14.388059+01 | 1486223234.38806 | pgbench_tellers  |         17022976
 2017-02-04 16:47:14.388059+01 | 1486223234.38806 | pgbench_history  |        239673344
 2017-02-04 16:47:14.388059+01 | 1486223234.38806 | pgbench_branches |         13606912

 2017-02-04 16:47:15.470654+01 | 1486223235.47065 | pgbench_accounts |      13685563392
 2017-02-04 16:47:15.470654+01 | 1486223235.47065 | pgbench_tellers  |         17022976
 2017-02-04 16:47:15.470654+01 | 1486223235.47065 | pgbench_history  |        242368512
 2017-02-04 16:47:15.470654+01 | 1486223235.47065 | pgbench_branches |         13606912

 2017-02-04 16:47:16.561069+01 | 1486223236.56107 | pgbench_accounts |      13685563392
 2017-02-04 16:47:16.561069+01 | 1486223236.56107 | pgbench_tellers  |         17022976
 2017-02-04 16:47:16.561069+01 | 1486223236.56107 | pgbench_history  |        245391360
 2017-02-04 16:47:16.561069+01 | 1486223236.56107 | pgbench_branches |         13606912

 2017-02-04 16:47:17.653299+01 | 1486223237.6533 | pgbench_accounts |      13685563392
 2017-02-04 16:47:17.653299+01 | 1486223237.6533 | pgbench_tellers  |         17022976
 2017-02-04 16:47:17.653299+01 | 1486223237.6533 | pgbench_history  |        247971840
 2017-02-04 16:47:17.653299+01 | 1486223237.6533 | pgbench_branches |         13606912

 2017-02-04 16:47:18.752039+01 | 1486223238.75204 | pgbench_accounts |      13685563392
 2017-02-04 16:47:18.752039+01 | 1486223238.75204 | pgbench_tellers  |         17022976
 2017-02-04 16:47:18.752039+01 | 1486223238.75204 | pgbench_history  |        250667008
 2017-02-04 16:47:18.752039+01 | 1486223238.75204 | pgbench_branches |         13606912

 2017-02-04 16:47:19.846187+01 | 1486223239.84619 | pgbench_accounts |      13685563392
 2017-02-04 16:47:19.846187+01 | 1486223239.84619 | pgbench_tellers  |         17022976
 2017-02-04 16:47:19.846187+01 | 1486223239.84619 | pgbench_history  |        253362176
 2017-02-04 16:47:19.846187+01 | 1486223239.84619 | pgbench_branches |         13606912

 2017-02-04 16:47:20.939686+01 | 1486223240.93969 | pgbench_accounts |      13685563392
 2017-02-04 16:47:20.939686+01 | 1486223240.93969 | pgbench_tellers  |         17022976
 2017-02-04 16:47:20.939686+01 | 1486223240.93969 | pgbench_history  |        256753664
 2017-02-04 16:47:20.939686+01 | 1486223240.93969 | pgbench_branches |         13606912

 2017-02-04 16:47:22.0314+01 | 1486223242.0314 | pgbench_accounts |      13685563392
 2017-02-04 16:47:22.0314+01 | 1486223242.0314 | pgbench_tellers  |         17022976
 2017-02-04 16:47:22.0314+01 | 1486223242.0314 | pgbench_history  |        259588096
 2017-02-04 16:47:22.0314+01 | 1486223242.0314 | pgbench_branches |         13606912

 2017-02-04 16:47:23.132385+01 | 1486223243.13239 | pgbench_accounts |      13685563392
 2017-02-04 16:47:23.132385+01 | 1486223243.13239 | pgbench_tellers  |         17022976
 2017-02-04 16:47:23.132385+01 | 1486223243.13239 | pgbench_history  |        263151616
 2017-02-04 16:47:23.132385+01 | 1486223243.13239 | pgbench_branches |         13606912

 2017-02-04 16:47:24.226926+01 | 1486223244.22693 | pgbench_accounts |      13685563392
 2017-02-04 16:47:24.226926+01 | 1486223244.22693 | pgbench_tellers  |         17022976
 2017-02-04 16:47:24.226926+01 | 1486223244.22693 | pgbench_history  |        265330688
 2017-02-04 16:47:24.226926+01 | 1486223244.22693 | pgbench_branches |         13606912

 2017-02-04 16:47:25.312093+01 | 1486223245.31209 | pgbench_accounts |      13685563392
 2017-02-04 16:47:25.312093+01 | 1486223245.31209 | pgbench_tellers  |         17022976
 2017-02-04 16:47:25.312093+01 | 1486223245.31209 | pgbench_history  |        268746752
 2017-02-04 16:47:25.312093+01 | 1486223245.31209 | pgbench_branches |         13606912

 2017-02-04 16:47:26.400876+01 | 1486223246.40088 | pgbench_accounts |      13685563392
 2017-02-04 16:47:26.400876+01 | 1486223246.40088 | pgbench_tellers  |         17022976
 2017-02-04 16:47:26.400876+01 | 1486223246.40088 | pgbench_history  |        271089664
 2017-02-04 16:47:26.400876+01 | 1486223246.40088 | pgbench_branches |         13606912

 2017-02-04 16:47:27.487451+01 | 1486223247.48745 | pgbench_accounts |      13685563392
 2017-02-04 16:47:27.487451+01 | 1486223247.48745 | pgbench_tellers  |         17022976
 2017-02-04 16:47:27.487451+01 | 1486223247.48745 | pgbench_history  |        274489344
 2017-02-04 16:47:27.487451+01 | 1486223247.48745 | pgbench_branches |         13606912

 2017-02-04 16:47:28.58079+01 | 1486223248.58079 | pgbench_accounts |      13685563392
 2017-02-04 16:47:28.58079+01 | 1486223248.58079 | pgbench_tellers  |         17022976
 2017-02-04 16:47:28.58079+01 | 1486223248.58079 | pgbench_history  |        278167552
 2017-02-04 16:47:28.58079+01 | 1486223248.58079 | pgbench_branches |         13606912

 2017-02-04 16:47:29.673095+01 | 1486223249.67309 | pgbench_accounts |      13685563392
 2017-02-04 16:47:29.673095+01 | 1486223249.67309 | pgbench_tellers  |         17022976
 2017-02-04 16:47:29.673095+01 | 1486223249.67309 | pgbench_history  |        279527424
 2017-02-04 16:47:29.673095+01 | 1486223249.67309 | pgbench_branches |         13606912

 2017-02-04 16:47:30.770301+01 | 1486223250.7703 | pgbench_accounts |      13685563392
 2017-02-04 16:47:30.770301+01 | 1486223250.7703 | pgbench_tellers  |         17022976
 2017-02-04 16:47:30.770301+01 | 1486223250.7703 | pgbench_history  |        282058752
 2017-02-04 16:47:30.770301+01 | 1486223250.7703 | pgbench_branches |         13606912

 2017-02-04 16:47:31.866265+01 | 1486223251.86627 | pgbench_accounts |      13685563392
 2017-02-04 16:47:31.866265+01 | 1486223251.86627 | pgbench_tellers  |         17022976
 2017-02-04 16:47:31.866265+01 | 1486223251.86627 | pgbench_history  |        285843456
 2017-02-04 16:47:31.866265+01 | 1486223251.86627 | pgbench_branches |         13606912

 2017-02-04 16:47:32.956712+01 | 1486223252.95671 | pgbench_accounts |      13685563392
 2017-02-04 16:47:32.956712+01 | 1486223252.95671 | pgbench_tellers  |         17022976
 2017-02-04 16:47:32.956712+01 | 1486223252.95671 | pgbench_history  |        288563200
 2017-02-04 16:47:32.956712+01 | 1486223252.95671 | pgbench_branches |         13606912

 2017-02-04 16:47:34.046149+01 | 1486223254.04615 | pgbench_accounts |      13685563392
 2017-02-04 16:47:34.046149+01 | 1486223254.04615 | pgbench_tellers  |         17022976
 2017-02-04 16:47:34.046149+01 | 1486223254.04615 | pgbench_history  |        291094528
 2017-02-04 16:47:34.046149+01 | 1486223254.04615 | pgbench_branches |         13606912

 2017-02-04 16:47:35.135648+01 | 1486223255.13565 | pgbench_accounts |      13685563392
 2017-02-04 16:47:35.135648+01 | 1486223255.13565 | pgbench_tellers  |         17022976
 2017-02-04 16:47:35.135648+01 | 1486223255.13565 | pgbench_history  |        293650432
 2017-02-04 16:47:35.135648+01 | 1486223255.13565 | pgbench_branches |         13606912

 2017-02-04 16:47:36.232892+01 | 1486223256.23289 | pgbench_accounts |      13685563392
 2017-02-04 16:47:36.232892+01 | 1486223256.23289 | pgbench_tellers  |         17022976
 2017-02-04 16:47:36.232892+01 | 1486223256.23289 | pgbench_history  |        297705472
 2017-02-04 16:47:36.232892+01 | 1486223256.23289 | pgbench_branches |         13606912

 2017-02-04 16:47:37.314446+01 | 1486223257.31445 | pgbench_accounts |      13685563392
 2017-02-04 16:47:37.314446+01 | 1486223257.31445 | pgbench_tellers  |         17022976
 2017-02-04 16:47:37.314446+01 | 1486223257.31445 | pgbench_history  |        299417600
 2017-02-04 16:47:37.314446+01 | 1486223257.31445 | pgbench_branches |         13606912

 2017-02-04 16:47:38.392115+01 | 1486223258.39212 | pgbench_accounts |      13685563392
 2017-02-04 16:47:38.392115+01 | 1486223258.39212 | pgbench_tellers  |         17022976
 2017-02-04 16:47:38.392115+01 | 1486223258.39212 | pgbench_history  |        302473216
 2017-02-04 16:47:38.392115+01 | 1486223258.39212 | pgbench_branches |         13606912

 2017-02-04 16:47:39.472364+01 | 1486223259.47236 | pgbench_accounts |      13685563392
 2017-02-04 16:47:39.472364+01 | 1486223259.47236 | pgbench_tellers  |         17022976
 2017-02-04 16:47:39.472364+01 | 1486223259.47236 | pgbench_history  |        305004544
 2017-02-04 16:47:39.472364+01 | 1486223259.47236 | pgbench_branches |         13606912

 2017-02-04 16:47:40.552573+01 | 1486223260.55257 | pgbench_accounts |      13685563392
 2017-02-04 16:47:40.552573+01 | 1486223260.55257 | pgbench_tellers  |         17022976
 2017-02-04 16:47:40.552573+01 | 1486223260.55257 | pgbench_history  |        308051968
 2017-02-04 16:47:40.552573+01 | 1486223260.55257 | pgbench_branches |         13606912

 2017-02-04 16:47:41.644869+01 | 1486223261.64487 | pgbench_accounts |      13685563392
 2017-02-04 16:47:41.644869+01 | 1486223261.64487 | pgbench_tellers  |         17022976
 2017-02-04 16:47:41.644869+01 | 1486223261.64487 | pgbench_history  |        310091776
 2017-02-04 16:47:41.644869+01 | 1486223261.64487 | pgbench_branches |         13606912

 2017-02-04 16:47:42.743769+01 | 1486223262.74377 | pgbench_accounts |      13685563392
 2017-02-04 16:47:42.743769+01 | 1486223262.74377 | pgbench_tellers  |         17022976
 2017-02-04 16:47:42.743769+01 | 1486223262.74377 | pgbench_history  |        313114624
 2017-02-04 16:47:42.743769+01 | 1486223262.74377 | pgbench_branches |         13606912

 2017-02-04 16:47:43.843135+01 | 1486223263.84314 | pgbench_accounts |      13685563392
 2017-02-04 16:47:43.843135+01 | 1486223263.84314 | pgbench_tellers  |         17022976
 2017-02-04 16:47:43.843135+01 | 1486223263.84314 | pgbench_history  |        315973632
 2017-02-04 16:47:43.843135+01 | 1486223263.84314 | pgbench_branches |         13606912

 2017-02-04 16:47:44.93568+01 | 1486223264.93568 | pgbench_accounts |      13685563392
 2017-02-04 16:47:44.93568+01 | 1486223264.93568 | pgbench_tellers  |         17022976
 2017-02-04 16:47:44.93568+01 | 1486223264.93568 | pgbench_history  |        319184896
 2017-02-04 16:47:44.93568+01 | 1486223264.93568 | pgbench_branches |         13606912

 2017-02-04 16:47:46.026381+01 | 1486223266.02638 | pgbench_accounts |      13685563392
 2017-02-04 16:47:46.026381+01 | 1486223266.02638 | pgbench_tellers  |         17022976
 2017-02-04 16:47:46.026381+01 | 1486223266.02638 | pgbench_history  |        322535424
 2017-02-04 16:47:46.026381+01 | 1486223266.02638 | pgbench_branches |         13606912

 2017-02-04 16:47:47.120864+01 | 1486223267.12086 | pgbench_accounts |      13685563392
 2017-02-04 16:47:47.120864+01 | 1486223267.12086 | pgbench_tellers  |         17022976
 2017-02-04 16:47:47.120864+01 | 1486223267.12086 | pgbench_history  |        324083712
 2017-02-04 16:47:47.120864+01 | 1486223267.12086 | pgbench_branches |         13606912

 2017-02-04 16:47:48.214937+01 | 1486223268.21494 | pgbench_accounts |      13685563392
 2017-02-04 16:47:48.214937+01 | 1486223268.21494 | pgbench_tellers  |         17022976
 2017-02-04 16:47:48.214937+01 | 1486223268.21494 | pgbench_history  |        326615040
 2017-02-04 16:47:48.214937+01 | 1486223268.21494 | pgbench_branches |         13606912

 2017-02-04 16:47:49.295346+01 | 1486223269.29535 | pgbench_accounts |      13685563392
 2017-02-04 16:47:49.295346+01 | 1486223269.29535 | pgbench_tellers  |         17022976
 2017-02-04 16:47:49.295346+01 | 1486223269.29535 | pgbench_history  |        329474048
 2017-02-04 16:47:49.295346+01 | 1486223269.29535 | pgbench_branches |         13606912

 2017-02-04 16:47:50.380839+01 | 1486223270.38084 | pgbench_accounts |      13685563392
 2017-02-04 16:47:50.380839+01 | 1486223270.38084 | pgbench_tellers  |         17022976
 2017-02-04 16:47:50.380839+01 | 1486223270.38084 | pgbench_history  |        331874304
 2017-02-04 16:47:50.380839+01 | 1486223270.38084 | pgbench_branches |         13606912

 2017-02-04 16:47:51.462521+01 | 1486223271.46252 | pgbench_accounts |      13685563392
 2017-02-04 16:47:51.462521+01 | 1486223271.46252 | pgbench_tellers  |         17022976
 2017-02-04 16:47:51.462521+01 | 1486223271.46252 | pgbench_history  |        335388672
 2017-02-04 16:47:51.462521+01 | 1486223271.46252 | pgbench_branches |         13606912

 2017-02-04 16:47:52.543141+01 | 1486223272.54314 | pgbench_accounts |      13685563392
 2017-02-04 16:47:52.543141+01 | 1486223272.54314 | pgbench_tellers  |         17022976
 2017-02-04 16:47:52.543141+01 | 1486223272.54314 | pgbench_history  |        337920000
 2017-02-04 16:47:52.543141+01 | 1486223272.54314 | pgbench_branches |         13606912

 2017-02-04 16:47:53.625738+01 | 1486223273.62574 | pgbench_accounts |      13685563392
 2017-02-04 16:47:53.625738+01 | 1486223273.62574 | pgbench_tellers  |         17022976
 2017-02-04 16:47:53.625738+01 | 1486223273.62574 | pgbench_history  |        340754432
 2017-02-04 16:47:53.625738+01 | 1486223273.62574 | pgbench_branches |         13606912

 2017-02-04 16:47:54.72424+01 | 1486223274.72424 | pgbench_accounts |      13685563392
 2017-02-04 16:47:54.72424+01 | 1486223274.72424 | pgbench_tellers  |         17022976
 2017-02-04 16:47:54.72424+01 | 1486223274.72424 | pgbench_history  |        343826432
 2017-02-04 16:47:54.72424+01 | 1486223274.72424 | pgbench_branches |         13606912

 2017-02-04 16:47:55.818257+01 | 1486223275.81826 | pgbench_accounts |      13685563392
 2017-02-04 16:47:55.818257+01 | 1486223275.81826 | pgbench_tellers  |         17022976
 2017-02-04 16:47:55.818257+01 | 1486223275.81826 | pgbench_history  |        346513408
 2017-02-04 16:47:55.818257+01 | 1486223275.81826 | pgbench_branches |         13606912

 2017-02-04 16:47:56.914577+01 | 1486223276.91458 | pgbench_accounts |      13685563392
 2017-02-04 16:47:56.914577+01 | 1486223276.91458 | pgbench_tellers  |         17022976
 2017-02-04 16:47:56.914577+01 | 1486223276.91458 | pgbench_history  |        348766208
 2017-02-04 16:47:56.914577+01 | 1486223276.91458 | pgbench_branches |         13606912

 2017-02-04 16:47:58.012305+01 | 1486223278.01231 | pgbench_accounts |      13685563392
 2017-02-04 16:47:58.012305+01 | 1486223278.01231 | pgbench_tellers  |         17022976
 2017-02-04 16:47:58.012305+01 | 1486223278.01231 | pgbench_history  |        351649792
 2017-02-04 16:47:58.012305+01 | 1486223278.01231 | pgbench_branches |         13606912

 2017-02-04 16:47:59.114636+01 | 1486223279.11464 | pgbench_accounts |      13685563392
 2017-02-04 16:47:59.114636+01 | 1486223279.11464 | pgbench_tellers  |         17022976
 2017-02-04 16:47:59.114636+01 | 1486223279.11464 | pgbench_history  |        354353152
 2017-02-04 16:47:59.114636+01 | 1486223279.11464 | pgbench_branches |         13606912

 2017-02-04 16:48:00.208987+01 | 1486223280.20899 | pgbench_accounts |      13685563392
 2017-02-04 16:48:00.208987+01 | 1486223280.20899 | pgbench_tellers  |         17022976
 2017-02-04 16:48:00.208987+01 | 1486223280.20899 | pgbench_history  |        357982208
 2017-02-04 16:48:00.208987+01 | 1486223280.20899 | pgbench_branches |         13606912

 2017-02-04 16:48:01.293419+01 | 1486223281.29342 | pgbench_accounts |      13685563392
 2017-02-04 16:48:01.293419+01 | 1486223281.29342 | pgbench_tellers  |         17022976
 2017-02-04 16:48:01.293419+01 | 1486223281.29342 | pgbench_history  |        360677376
 2017-02-04 16:48:01.293419+01 | 1486223281.29342 | pgbench_branches |         13606912

 2017-02-04 16:48:02.371256+01 | 1486223282.37126 | pgbench_accounts |      13685563392
 2017-02-04 16:48:02.371256+01 | 1486223282.37126 | pgbench_tellers  |         17022976
 2017-02-04 16:48:02.371256+01 | 1486223282.37126 | pgbench_history  |        363233280
 2017-02-04 16:48:02.371256+01 | 1486223282.37126 | pgbench_branches |         13606912

 2017-02-04 16:48:03.453259+01 | 1486223283.45326 | pgbench_accounts |      13685563392
 2017-02-04 16:48:03.453259+01 | 1486223283.45326 | pgbench_tellers  |         17022976
 2017-02-04 16:48:03.453259+01 | 1486223283.45326 | pgbench_history  |        365633536
 2017-02-04 16:48:03.453259+01 | 1486223283.45326 | pgbench_branches |         13606912

 2017-02-04 16:48:04.537359+01 | 1486223284.53736 | pgbench_accounts |      13685563392
 2017-02-04 16:48:04.537359+01 | 1486223284.53736 | pgbench_tellers  |         17022976
 2017-02-04 16:48:04.537359+01 | 1486223284.53736 | pgbench_history  |        368844800
 2017-02-04 16:48:04.537359+01 | 1486223284.53736 | pgbench_branches |         13606912

 2017-02-04 16:48:05.62214+01 | 1486223285.62214 | pgbench_accounts |      13685563392
 2017-02-04 16:48:05.62214+01 | 1486223285.62214 | pgbench_tellers  |         17022976
 2017-02-04 16:48:05.62214+01 | 1486223285.62214 | pgbench_history  |        371843072
 2017-02-04 16:48:05.62214+01 | 1486223285.62214 | pgbench_branches |         13606912

 2017-02-04 16:48:06.71255+01 | 1486223286.71255 | pgbench_accounts |      13685563392
 2017-02-04 16:48:06.71255+01 | 1486223286.71255 | pgbench_tellers  |         17022976
 2017-02-04 16:48:06.71255+01 | 1486223286.71255 | pgbench_history  |        374710272
 2017-02-04 16:48:06.71255+01 | 1486223286.71255 | pgbench_branches |         13606912

 2017-02-04 16:48:07.804782+01 | 1486223287.80478 | pgbench_accounts |      13685563392
 2017-02-04 16:48:07.804782+01 | 1486223287.80478 | pgbench_tellers  |         17022976
 2017-02-04 16:48:07.804782+01 | 1486223287.80478 | pgbench_history  |        377241600
 2017-02-04 16:48:07.804782+01 | 1486223287.80478 | pgbench_branches |         13606912

 2017-02-04 16:48:08.895114+01 | 1486223288.89511 | pgbench_accounts |      13685563392
 2017-02-04 16:48:08.895114+01 | 1486223288.89511 | pgbench_tellers  |         17022976
 2017-02-04 16:48:08.895114+01 | 1486223288.89511 | pgbench_history  |        380100608
 2017-02-04 16:48:08.895114+01 | 1486223288.89511 | pgbench_branches |         13606912

 2017-02-04 16:48:09.990394+01 | 1486223289.99039 | pgbench_accounts |      13685563392
 2017-02-04 16:48:09.990394+01 | 1486223289.99039 | pgbench_tellers  |         17022976
 2017-02-04 16:48:09.990394+01 | 1486223289.99039 | pgbench_history  |        383172608
 2017-02-04 16:48:09.990394+01 | 1486223289.99039 | pgbench_branches |         13606912

 2017-02-04 16:48:11.080044+01 | 1486223291.08004 | pgbench_accounts |      13685563392
 2017-02-04 16:48:11.080044+01 | 1486223291.08004 | pgbench_tellers  |         17022976
 2017-02-04 16:48:11.080044+01 | 1486223291.08004 | pgbench_history  |        387178496
 2017-02-04 16:48:11.080044+01 | 1486223291.08004 | pgbench_branches |         13606912

 2017-02-04 16:48:12.180096+01 | 1486223292.1801 | pgbench_accounts |      13685563392
 2017-02-04 16:48:12.180096+01 | 1486223292.1801 | pgbench_tellers  |         17022976
 2017-02-04 16:48:12.180096+01 | 1486223292.1801 | pgbench_history  |        388562944
 2017-02-04 16:48:12.180096+01 | 1486223292.1801 | pgbench_branches |         13606912

 2017-02-04 16:48:13.281555+01 | 1486223293.28155 | pgbench_accounts |      13685563392
 2017-02-04 16:48:13.281555+01 | 1486223293.28155 | pgbench_tellers  |         17022976
 2017-02-04 16:48:13.281555+01 | 1486223293.28155 | pgbench_history  |        393297920
 2017-02-04 16:48:13.281555+01 | 1486223293.28155 | pgbench_branches |         13606912

 2017-02-04 16:48:14.364462+01 | 1486223294.36446 | pgbench_accounts |      13685563392
 2017-02-04 16:48:14.364462+01 | 1486223294.36446 | pgbench_tellers  |         17022976
 2017-02-04 16:48:14.364462+01 | 1486223294.36446 | pgbench_history  |        394330112
 2017-02-04 16:48:14.364462+01 | 1486223294.36446 | pgbench_branches |         13606912

 2017-02-04 16:48:15.441314+01 | 1486223295.44131 | pgbench_accounts |      13685563392
 2017-02-04 16:48:15.441314+01 | 1486223295.44131 | pgbench_tellers  |         17022976
 2017-02-04 16:48:15.441314+01 | 1486223295.44131 | pgbench_history  |        397328384
 2017-02-04 16:48:15.441314+01 | 1486223295.44131 | pgbench_branches |         13606912

 2017-02-04 16:48:16.523996+01 | 1486223296.524 | pgbench_accounts |      13685563392
 2017-02-04 16:48:16.523996+01 | 1486223296.524 | pgbench_tellers  |         17022976
 2017-02-04 16:48:16.523996+01 | 1486223296.524 | pgbench_history  |        400187392
 2017-02-04 16:48:16.523996+01 | 1486223296.524 | pgbench_branches |         13606912

 2017-02-04 16:48:17.607909+01 | 1486223297.60791 | pgbench_accounts |      13685563392
 2017-02-04 16:48:17.607909+01 | 1486223297.60791 | pgbench_tellers  |         17022976
 2017-02-04 16:48:17.607909+01 | 1486223297.60791 | pgbench_history  |        403046400
 2017-02-04 16:48:17.607909+01 | 1486223297.60791 | pgbench_branches |         13606912

 2017-02-04 16:48:18.692978+01 | 1486223298.69298 | pgbench_accounts |      13685563392
 2017-02-04 16:48:18.692978+01 | 1486223298.69298 | pgbench_tellers  |         17022976
 2017-02-04 16:48:18.692978+01 | 1486223298.69298 | pgbench_history  |        406724608
 2017-02-04 16:48:18.692978+01 | 1486223298.69298 | pgbench_branches |         13606912

 2017-02-04 16:48:19.78405+01 | 1486223299.78405 | pgbench_accounts |      13685563392
 2017-02-04 16:48:19.78405+01 | 1486223299.78405 | pgbench_tellers  |         17022976
 2017-02-04 16:48:19.78405+01 | 1486223299.78405 | pgbench_history  |        408928256
 2017-02-04 16:48:19.78405+01 | 1486223299.78405 | pgbench_branches |         13606912

 2017-02-04 16:48:20.873562+01 | 1486223300.87356 | pgbench_accounts |      13685563392
 2017-02-04 16:48:20.873562+01 | 1486223300.87356 | pgbench_tellers  |         17022976
 2017-02-04 16:48:20.873562+01 | 1486223300.87356 | pgbench_history  |        411443200
 2017-02-04 16:48:20.873562+01 | 1486223300.87356 | pgbench_branches |         13606912

 2017-02-04 16:48:21.973629+01 | 1486223301.97363 | pgbench_accounts |      13685563392
 2017-02-04 16:48:21.973629+01 | 1486223301.97363 | pgbench_tellers  |         17022976
 2017-02-04 16:48:21.973629+01 | 1486223301.97363 | pgbench_history  |        414277632
 2017-02-04 16:48:21.973629+01 | 1486223301.97363 | pgbench_branches |         13606912

 2017-02-04 16:48:23.062743+01 | 1486223303.06274 | pgbench_accounts |      13685563392
 2017-02-04 16:48:23.062743+01 | 1486223303.06274 | pgbench_tellers  |         17022976
 2017-02-04 16:48:23.062743+01 | 1486223303.06274 | pgbench_history  |        417357824
 2017-02-04 16:48:23.062743+01 | 1486223303.06274 | pgbench_branches |         13606912

 2017-02-04 16:48:24.156021+01 | 1486223304.15602 | pgbench_accounts |      13685563392
 2017-02-04 16:48:24.156021+01 | 1486223304.15602 | pgbench_tellers  |         17022976
 2017-02-04 16:48:24.156021+01 | 1486223304.15602 | pgbench_history  |        420569088
 2017-02-04 16:48:24.156021+01 | 1486223304.15602 | pgbench_branches |         13606912

 2017-02-04 16:48:25.250046+01 | 1486223305.25005 | pgbench_accounts |      13685563392
 2017-02-04 16:48:25.250046+01 | 1486223305.25005 | pgbench_tellers  |         17022976
 2017-02-04 16:48:25.250046+01 | 1486223305.25005 | pgbench_history  |        422944768
 2017-02-04 16:48:25.250046+01 | 1486223305.25005 | pgbench_branches |         13606912

 2017-02-04 16:48:26.332705+01 | 1486223306.33271 | pgbench_accounts |      13685563392
 2017-02-04 16:48:26.332705+01 | 1486223306.33271 | pgbench_tellers  |         17022976
 2017-02-04 16:48:26.332705+01 | 1486223306.33271 | pgbench_history  |        425533440
 2017-02-04 16:48:26.332705+01 | 1486223306.33271 | pgbench_branches |         13606912

 2017-02-04 16:48:27.419105+01 | 1486223307.41911 | pgbench_accounts |      13685563392
 2017-02-04 16:48:27.419105+01 | 1486223307.41911 | pgbench_tellers  |         17022976
 2017-02-04 16:48:27.419105+01 | 1486223307.41911 | pgbench_history  |        428744704
 2017-02-04 16:48:27.419105+01 | 1486223307.41911 | pgbench_branches |         13606912

 2017-02-04 16:48:28.501085+01 | 1486223308.50109 | pgbench_accounts |      13685563392
 2017-02-04 16:48:28.501085+01 | 1486223308.50109 | pgbench_tellers  |         17022976
 2017-02-04 16:48:28.501085+01 | 1486223308.50109 | pgbench_history  |        432283648
 2017-02-04 16:48:28.501085+01 | 1486223308.50109 | pgbench_branches |         13606912

 2017-02-04 16:48:29.584815+01 | 1486223309.58482 | pgbench_accounts |      13685563392
 2017-02-04 16:48:29.584815+01 | 1486223309.58482 | pgbench_tellers  |         17022976
 2017-02-04 16:48:29.584815+01 | 1486223309.58482 | pgbench_history  |        434601984
 2017-02-04 16:48:29.584815+01 | 1486223309.58482 | pgbench_branches |         13606912

 2017-02-04 16:48:30.666584+01 | 1486223310.66658 | pgbench_accounts |      13685563392
 2017-02-04 16:48:30.666584+01 | 1486223310.66658 | pgbench_tellers  |         17022976
 2017-02-04 16:48:30.666584+01 | 1486223310.66658 | pgbench_history  |        436502528
 2017-02-04 16:48:30.666584+01 | 1486223310.66658 | pgbench_branches |         13606912

 2017-02-04 16:48:31.761783+01 | 1486223311.76178 | pgbench_accounts |      13685563392
 2017-02-04 16:48:31.761783+01 | 1486223311.76178 | pgbench_tellers  |         17022976
 2017-02-04 16:48:31.761783+01 | 1486223311.76178 | pgbench_history  |        440041472
 2017-02-04 16:48:31.761783+01 | 1486223311.76178 | pgbench_branches |         13606912

 2017-02-04 16:48:32.851271+01 | 1486223312.85127 | pgbench_accounts |      13685563392
 2017-02-04 16:48:32.851271+01 | 1486223312.85127 | pgbench_tellers  |         17022976
 2017-02-04 16:48:32.851271+01 | 1486223312.85127 | pgbench_history  |        444891136
 2017-02-04 16:48:32.851271+01 | 1486223312.85127 | pgbench_branches |         13606912

 2017-02-04 16:48:33.946328+01 | 1486223313.94633 | pgbench_accounts |      13685563392
 2017-02-04 16:48:33.946328+01 | 1486223313.94633 | pgbench_tellers  |         17022976
 2017-02-04 16:48:33.946328+01 | 1486223313.94633 | pgbench_history  |        444891136
 2017-02-04 16:48:33.946328+01 | 1486223313.94633 | pgbench_branches |         13606912

 2017-02-04 16:48:35.043264+01 | 1486223315.04326 | pgbench_accounts |      13685563392
 2017-02-04 16:48:35.043264+01 | 1486223315.04326 | pgbench_tellers  |         17022976
 2017-02-04 16:48:35.043264+01 | 1486223315.04326 | pgbench_history  |        448266240
 2017-02-04 16:48:35.043264+01 | 1486223315.04326 | pgbench_branches |         13606912

 2017-02-04 16:48:36.13804+01 | 1486223316.13804 | pgbench_accounts |      13685563392
 2017-02-04 16:48:36.13804+01 | 1486223316.13804 | pgbench_tellers  |         17022976
 2017-02-04 16:48:36.13804+01 | 1486223316.13804 | pgbench_history  |        451174400
 2017-02-04 16:48:36.13804+01 | 1486223316.13804 | pgbench_branches |         13606912

 2017-02-04 16:48:37.22994+01 | 1486223317.22994 | pgbench_accounts |      13685563392
 2017-02-04 16:48:37.22994+01 | 1486223317.22994 | pgbench_tellers  |         17022976
 2017-02-04 16:48:37.22994+01 | 1486223317.22994 | pgbench_history  |        456499200
 2017-02-04 16:48:37.22994+01 | 1486223317.22994 | pgbench_branches |         13606912

 2017-02-04 16:48:38.32412+01 | 1486223318.32412 | pgbench_accounts |      13685563392
 2017-02-04 16:48:38.32412+01 | 1486223318.32412 | pgbench_tellers  |         17022976
 2017-02-04 16:48:38.32412+01 | 1486223318.32412 | pgbench_history  |        456499200
 2017-02-04 16:48:38.32412+01 | 1486223318.32412 | pgbench_branches |         13606912

 2017-02-04 16:48:39.406668+01 | 1486223319.40667 | pgbench_accounts |      13685563392
 2017-02-04 16:48:39.406668+01 | 1486223319.40667 | pgbench_tellers  |         17022976
 2017-02-04 16:48:39.406668+01 | 1486223319.40667 | pgbench_history  |        459358208
 2017-02-04 16:48:39.406668+01 | 1486223319.40667 | pgbench_branches |         13606912

 2017-02-04 16:48:40.492464+01 | 1486223320.49246 | pgbench_accounts |      13685563392
 2017-02-04 16:48:40.492464+01 | 1486223320.49246 | pgbench_tellers  |         17022976
 2017-02-04 16:48:40.492464+01 | 1486223320.49246 | pgbench_history  |        462577664
 2017-02-04 16:48:40.492464+01 | 1486223320.49246 | pgbench_branches |         13606912

 2017-02-04 16:48:41.583572+01 | 1486223321.58357 | pgbench_accounts |      13685563392
 2017-02-04 16:48:41.583572+01 | 1486223321.58357 | pgbench_tellers  |         17022976
 2017-02-04 16:48:41.583572+01 | 1486223321.58357 | pgbench_history  |        465764352
 2017-02-04 16:48:41.583572+01 | 1486223321.58357 | pgbench_branches |         13606912

 2017-02-04 16:48:42.671403+01 | 1486223322.6714 | pgbench_accounts |      13685563392
 2017-02-04 16:48:42.671403+01 | 1486223322.6714 | pgbench_tellers  |         17022976
 2017-02-04 16:48:42.671403+01 | 1486223322.6714 | pgbench_history  |        468164608
 2017-02-04 16:48:42.671403+01 | 1486223322.6714 | pgbench_branches |         13606912

 2017-02-04 16:48:43.765067+01 | 1486223323.76507 | pgbench_accounts |      13685563392
 2017-02-04 16:48:43.765067+01 | 1486223323.76507 | pgbench_tellers  |         17022976
 2017-02-04 16:48:43.765067+01 | 1486223323.76507 | pgbench_history  |        471498752
 2017-02-04 16:48:43.765067+01 | 1486223323.76507 | pgbench_branches |         13606912

 2017-02-04 16:48:44.848296+01 | 1486223324.8483 | pgbench_accounts |      13685563392
 2017-02-04 16:48:44.848296+01 | 1486223324.8483 | pgbench_tellers  |         17022976
 2017-02-04 16:48:44.848296+01 | 1486223324.8483 | pgbench_history  |        473194496
 2017-02-04 16:48:44.848296+01 | 1486223324.8483 | pgbench_branches |         13606912

 2017-02-04 16:48:45.937575+01 | 1486223325.93758 | pgbench_accounts |      13685563392
 2017-02-04 16:48:45.937575+01 | 1486223325.93758 | pgbench_tellers  |         17022976
 2017-02-04 16:48:45.937575+01 | 1486223325.93758 | pgbench_history  |        476758016
 2017-02-04 16:48:45.937575+01 | 1486223325.93758 | pgbench_branches |         13606912

 2017-02-04 16:48:47.035347+01 | 1486223327.03535 | pgbench_accounts |      13685563392
 2017-02-04 16:48:47.035347+01 | 1486223327.03535 | pgbench_tellers  |         17022976
 2017-02-04 16:48:47.035347+01 | 1486223327.03535 | pgbench_history  |        478445568
 2017-02-04 16:48:47.035347+01 | 1486223327.03535 | pgbench_branches |         13606912

 2017-02-04 16:48:48.119485+01 | 1486223328.11948 | pgbench_accounts |      13685563392
 2017-02-04 16:48:48.119485+01 | 1486223328.11948 | pgbench_tellers  |         17022976
 2017-02-04 16:48:48.119485+01 | 1486223328.11948 | pgbench_history  |        481075200
 2017-02-04 16:48:48.119485+01 | 1486223328.11948 | pgbench_branches |         13606912

 2017-02-04 16:48:49.208959+01 | 1486223329.20896 | pgbench_accounts |      13685563392
 2017-02-04 16:48:49.208959+01 | 1486223329.20896 | pgbench_tellers  |         17022976
 2017-02-04 16:48:49.208959+01 | 1486223329.20896 | pgbench_history  |        483442688
 2017-02-04 16:48:49.208959+01 | 1486223329.20896 | pgbench_branches |         13606912

 2017-02-04 16:48:50.295106+01 | 1486223330.29511 | pgbench_accounts |      13685563392
 2017-02-04 16:48:50.295106+01 | 1486223330.29511 | pgbench_tellers  |         17022976
 2017-02-04 16:48:50.295106+01 | 1486223330.29511 | pgbench_history  |        485507072
 2017-02-04 16:48:50.295106+01 | 1486223330.29511 | pgbench_branches |         13606912

 2017-02-04 16:48:51.379694+01 | 1486223331.37969 | pgbench_accounts |      13685563392
 2017-02-04 16:48:51.379694+01 | 1486223331.37969 | pgbench_tellers  |         17022976
 2017-02-04 16:48:51.379694+01 | 1486223331.37969 | pgbench_history  |        487735296
 2017-02-04 16:48:51.379694+01 | 1486223331.37969 | pgbench_branches |         13606912

 2017-02-04 16:48:52.467979+01 | 1486223332.46798 | pgbench_accounts |      13685563392
 2017-02-04 16:48:52.467979+01 | 1486223332.46798 | pgbench_tellers  |         17022976
 2017-02-04 16:48:52.467979+01 | 1486223332.46798 | pgbench_history  |        489775104
 2017-02-04 16:48:52.467979+01 | 1486223332.46798 | pgbench_branches |         13606912

 2017-02-04 16:48:53.552057+01 | 1486223333.55206 | pgbench_accounts |      13685563392
 2017-02-04 16:48:53.552057+01 | 1486223333.55206 | pgbench_tellers  |         17022976
 2017-02-04 16:48:53.552057+01 | 1486223333.55206 | pgbench_history  |        492634112
 2017-02-04 16:48:53.552057+01 | 1486223333.55206 | pgbench_branches |         13606912

 2017-02-04 16:48:54.644172+01 | 1486223334.64417 | pgbench_accounts |      13685563392
 2017-02-04 16:48:54.644172+01 | 1486223334.64417 | pgbench_tellers  |         17022976
 2017-02-04 16:48:54.644172+01 | 1486223334.64417 | pgbench_history  |        495304704
 2017-02-04 16:48:54.644172+01 | 1486223334.64417 | pgbench_branches |         13606912

 2017-02-04 16:48:55.726195+01 | 1486223335.7262 | pgbench_accounts |      13685563392
 2017-02-04 16:48:55.726195+01 | 1486223335.7262 | pgbench_tellers  |         17022976
 2017-02-04 16:48:55.726195+01 | 1486223335.7262 | pgbench_history  |        498679808
 2017-02-04 16:48:55.726195+01 | 1486223335.7262 | pgbench_branches |         13606912

 2017-02-04 16:48:56.826506+01 | 1486223336.82651 | pgbench_accounts |      13685563392
 2017-02-04 16:48:56.826506+01 | 1486223336.82651 | pgbench_tellers  |         17022976
 2017-02-04 16:48:56.826506+01 | 1486223336.82651 | pgbench_history  |        500039680
 2017-02-04 16:48:56.826506+01 | 1486223336.82651 | pgbench_branches |         13606912

 2017-02-04 16:48:57.915193+01 | 1486223337.91519 | pgbench_accounts |      13685563392
 2017-02-04 16:48:57.915193+01 | 1486223337.91519 | pgbench_tellers  |         17022976
 2017-02-04 16:48:57.915193+01 | 1486223337.91519 | pgbench_history  |        503578624
 2017-02-04 16:48:57.915193+01 | 1486223337.91519 | pgbench_branches |         13606912

 2017-02-04 16:48:59.013952+01 | 1486223339.01395 | pgbench_accounts |      13685563392
 2017-02-04 16:48:59.013952+01 | 1486223339.01395 | pgbench_tellers  |         17022976
 2017-02-04 16:48:59.013952+01 | 1486223339.01395 | pgbench_history  |        506904576
 2017-02-04 16:48:59.013952+01 | 1486223339.01395 | pgbench_branches |         13606912

 2017-02-04 16:49:00.125263+01 | 1486223340.12526 | pgbench_accounts |      13685563392
 2017-02-04 16:49:00.125263+01 | 1486223340.12526 | pgbench_tellers  |         17022976
 2017-02-04 16:49:00.125263+01 | 1486223340.12526 | pgbench_history  |        508575744
 2017-02-04 16:49:00.125263+01 | 1486223340.12526 | pgbench_branches |         13606912

 2017-02-04 16:49:01.219195+01 | 1486223341.21919 | pgbench_accounts |      13685563392
 2017-02-04 16:49:01.219195+01 | 1486223341.21919 | pgbench_tellers  |         17022976
 2017-02-04 16:49:01.219195+01 | 1486223341.21919 | pgbench_history  |        512278528
 2017-02-04 16:49:01.219195+01 | 1486223341.21919 | pgbench_branches |         13606912

 2017-02-04 16:49:02.315446+01 | 1486223342.31545 | pgbench_accounts |      13685563392
 2017-02-04 16:49:02.315446+01 | 1486223342.31545 | pgbench_tellers  |         17022976
 2017-02-04 16:49:02.315446+01 | 1486223342.31545 | pgbench_history  |        515088384
 2017-02-04 16:49:02.315446+01 | 1486223342.31545 | pgbench_branches |         13606912

 2017-02-04 16:49:03.399272+01 | 1486223343.39927 | pgbench_accounts |      13685563392
 2017-02-04 16:49:03.399272+01 | 1486223343.39927 | pgbench_tellers  |         17022976
 2017-02-04 16:49:03.399272+01 | 1486223343.39927 | pgbench_history  |        516915200
 2017-02-04 16:49:03.399272+01 | 1486223343.39927 | pgbench_branches |         13606912

 2017-02-04 16:49:04.482914+01 | 1486223344.48291 | pgbench_accounts |      13685563392
 2017-02-04 16:49:04.482914+01 | 1486223344.48291 | pgbench_tellers  |         17022976
 2017-02-04 16:49:04.482914+01 | 1486223344.48291 | pgbench_history  |        519962624
 2017-02-04 16:49:04.482914+01 | 1486223344.48291 | pgbench_branches |         13606912

 2017-02-04 16:49:05.569072+01 | 1486223345.56907 | pgbench_accounts |      13685563392
 2017-02-04 16:49:05.569072+01 | 1486223345.56907 | pgbench_tellers  |         17022976
 2017-02-04 16:49:05.569072+01 | 1486223345.56907 | pgbench_history  |        523780096
 2017-02-04 16:49:05.569072+01 | 1486223345.56907 | pgbench_branches |         13606912

 2017-02-04 16:49:06.657693+01 | 1486223346.65769 | pgbench_accounts |      13685563392
 2017-02-04 16:49:06.657693+01 | 1486223346.65769 | pgbench_tellers  |         17022976
 2017-02-04 16:49:06.657693+01 | 1486223346.65769 | pgbench_history  |        525656064
 2017-02-04 16:49:06.657693+01 | 1486223346.65769 | pgbench_branches |         13606912

 2017-02-04 16:49:07.743524+01 | 1486223347.74352 | pgbench_accounts |      13685563392
 2017-02-04 16:49:07.743524+01 | 1486223347.74352 | pgbench_tellers  |         17022976
 2017-02-04 16:49:07.743524+01 | 1486223347.74352 | pgbench_history  |        528187392
 2017-02-04 16:49:07.743524+01 | 1486223347.74352 | pgbench_branches |         13606912

 2017-02-04 16:49:08.825627+01 | 1486223348.82563 | pgbench_accounts |      13685563392
 2017-02-04 16:49:08.825627+01 | 1486223348.82563 | pgbench_tellers  |         17022976
 2017-02-04 16:49:08.825627+01 | 1486223348.82563 | pgbench_history  |        531398656
 2017-02-04 16:49:08.825627+01 | 1486223348.82563 | pgbench_branches |         13606912

 2017-02-04 16:49:09.921853+01 | 1486223349.92185 | pgbench_accounts |      13685563392
 2017-02-04 16:49:09.921853+01 | 1486223349.92185 | pgbench_tellers  |         17022976
 2017-02-04 16:49:09.921853+01 | 1486223349.92185 | pgbench_history  |        533790720
 2017-02-04 16:49:09.921853+01 | 1486223349.92185 | pgbench_branches |         13606912

 2017-02-04 16:49:11.012943+01 | 1486223351.01294 | pgbench_accounts |      13685563392
 2017-02-04 16:49:11.012943+01 | 1486223351.01294 | pgbench_tellers  |         17022976
 2017-02-04 16:49:11.012943+01 | 1486223351.01294 | pgbench_history  |        536813568
 2017-02-04 16:49:11.012943+01 | 1486223351.01294 | pgbench_branches |         13606912

 2017-02-04 16:49:12.104785+01 | 1486223352.10478 | pgbench_accounts |      13685563392
 2017-02-04 16:49:12.104785+01 | 1486223352.10478 | pgbench_tellers  |         17022976
 2017-02-04 16:49:12.104785+01 | 1486223352.10478 | pgbench_history  |        539541504
 2017-02-04 16:49:12.104785+01 | 1486223352.10478 | pgbench_branches |         13606912

 2017-02-04 16:49:13.198905+01 | 1486223353.1989 | pgbench_accounts |      13685563392
 2017-02-04 16:49:13.198905+01 | 1486223353.1989 | pgbench_tellers  |         17022976
 2017-02-04 16:49:13.198905+01 | 1486223353.1989 | pgbench_history  |        541229056
 2017-02-04 16:49:13.198905+01 | 1486223353.1989 | pgbench_branches |         13606912

 2017-02-04 16:49:14.289236+01 | 1486223354.28924 | pgbench_accounts |      13685563392
 2017-02-04 16:49:14.289236+01 | 1486223354.28924 | pgbench_tellers  |         17022976
 2017-02-04 16:49:14.289236+01 | 1486223354.28924 | pgbench_history  |        543293440
 2017-02-04 16:49:14.289236+01 | 1486223354.28924 | pgbench_branches |         13606912

 2017-02-04 16:49:15.373188+01 | 1486223355.37319 | pgbench_accounts |      13685563392
 2017-02-04 16:49:15.373188+01 | 1486223355.37319 | pgbench_tellers  |         17022976
 2017-02-04 16:49:15.373188+01 | 1486223355.37319 | pgbench_history  |        545521664
 2017-02-04 16:49:15.373188+01 | 1486223355.37319 | pgbench_branches |         13606912

 2017-02-04 16:49:16.454914+01 | 1486223356.45491 | pgbench_accounts |      13685563392
 2017-02-04 16:49:16.454914+01 | 1486223356.45491 | pgbench_tellers  |         17022976
 2017-02-04 16:49:16.454914+01 | 1486223356.45491 | pgbench_history  |        548413440
 2017-02-04 16:49:16.454914+01 | 1486223356.45491 | pgbench_branches |         13606912

 2017-02-04 16:49:17.533165+01 | 1486223357.53316 | pgbench_accounts |      13685563392
 2017-02-04 16:49:17.533165+01 | 1486223357.53316 | pgbench_tellers  |         17022976
 2017-02-04 16:49:17.533165+01 | 1486223357.53316 | pgbench_history  |        550289408
 2017-02-04 16:49:17.533165+01 | 1486223357.53316 | pgbench_branches |         13606912

 2017-02-04 16:49:18.605011+01 | 1486223358.60501 | pgbench_accounts |      13685563392
 2017-02-04 16:49:18.605011+01 | 1486223358.60501 | pgbench_tellers  |         17022976
 2017-02-04 16:49:18.605011+01 | 1486223358.60501 | pgbench_history  |        553967616
 2017-02-04 16:49:18.605011+01 | 1486223358.60501 | pgbench_branches |         13606912

 2017-02-04 16:49:19.687267+01 | 1486223359.68727 | pgbench_accounts |      13685563392
 2017-02-04 16:49:19.687267+01 | 1486223359.68727 | pgbench_tellers  |         17022976
 2017-02-04 16:49:19.687267+01 | 1486223359.68727 | pgbench_history  |        555982848
 2017-02-04 16:49:19.687267+01 | 1486223359.68727 | pgbench_branches |         13606912

 2017-02-04 16:49:20.769675+01 | 1486223360.76968 | pgbench_accounts |      13685563392
 2017-02-04 16:49:20.769675+01 | 1486223360.76968 | pgbench_tellers  |         17022976
 2017-02-04 16:49:20.769675+01 | 1486223360.76968 | pgbench_history  |        558514176
 2017-02-04 16:49:20.769675+01 | 1486223360.76968 | pgbench_branches |         13606912

 2017-02-04 16:49:21.85969+01 | 1486223361.85969 | pgbench_accounts |      13685563392
 2017-02-04 16:49:21.85969+01 | 1486223361.85969 | pgbench_tellers  |         17022976
 2017-02-04 16:49:21.85969+01 | 1486223361.85969 | pgbench_history  |        561373184
 2017-02-04 16:49:21.85969+01 | 1486223361.85969 | pgbench_branches |         13606912

 2017-02-04 16:49:22.95485+01 | 1486223362.95485 | pgbench_accounts |      13685563392
 2017-02-04 16:49:22.95485+01 | 1486223362.95485 | pgbench_tellers  |         17022976
 2017-02-04 16:49:22.95485+01 | 1486223362.95485 | pgbench_history  |        565059584
 2017-02-04 16:49:22.95485+01 | 1486223362.95485 | pgbench_branches |         13606912

 2017-02-04 16:49:24.050873+01 | 1486223364.05087 | pgbench_accounts |      13685563392
 2017-02-04 16:49:24.050873+01 | 1486223364.05087 | pgbench_tellers  |         17022976
 2017-02-04 16:49:24.050873+01 | 1486223364.05087 | pgbench_history  |        567615488
 2017-02-04 16:49:24.050873+01 | 1486223364.05087 | pgbench_branches |         13606912

 2017-02-04 16:49:25.153048+01 | 1486223365.15305 | pgbench_accounts |      13685563392
 2017-02-04 16:49:25.153048+01 | 1486223365.15305 | pgbench_tellers  |         17022976
 2017-02-04 16:49:25.153048+01 | 1486223365.15305 | pgbench_history  |        570146816
 2017-02-04 16:49:25.153048+01 | 1486223365.15305 | pgbench_branches |         13606912

 2017-02-04 16:49:26.249887+01 | 1486223366.24989 | pgbench_accounts |      13685563392
 2017-02-04 16:49:26.249887+01 | 1486223366.24989 | pgbench_tellers  |         17022976
 2017-02-04 16:49:26.249887+01 | 1486223366.24989 | pgbench_history  |        574365696
 2017-02-04 16:49:26.249887+01 | 1486223366.24989 | pgbench_branches |         13606912

 2017-02-04 16:49:27.343521+01 | 1486223367.34352 | pgbench_accounts |      13685563392
 2017-02-04 16:49:27.343521+01 | 1486223367.34352 | pgbench_tellers  |         17022976
 2017-02-04 16:49:27.343521+01 | 1486223367.34352 | pgbench_history  |        575700992
 2017-02-04 16:49:27.343521+01 | 1486223367.34352 | pgbench_branches |         13606912

 2017-02-04 16:49:28.435503+01 | 1486223368.4355 | pgbench_accounts |      13685563392
 2017-02-04 16:49:28.435503+01 | 1486223368.4355 | pgbench_tellers  |         17022976
 2017-02-04 16:49:28.435503+01 | 1486223368.4355 | pgbench_history  |        579493888
 2017-02-04 16:49:28.435503+01 | 1486223368.4355 | pgbench_branches |         13606912

 2017-02-04 16:49:29.522838+01 | 1486223369.52284 | pgbench_accounts |      13685563392
 2017-02-04 16:49:29.522838+01 | 1486223369.52284 | pgbench_tellers  |         17022976
 2017-02-04 16:49:29.522838+01 | 1486223369.52284 | pgbench_history  |        583311360
 2017-02-04 16:49:29.522838+01 | 1486223369.52284 | pgbench_branches |         13606912

 2017-02-04 16:49:30.608275+01 | 1486223370.60827 | pgbench_accounts |      13685563392
 2017-02-04 16:49:30.608275+01 | 1486223370.60827 | pgbench_tellers  |         17022976
 2017-02-04 16:49:30.608275+01 | 1486223370.60827 | pgbench_history  |        584155136
 2017-02-04 16:49:30.608275+01 | 1486223370.60827 | pgbench_branches |         13606912

 2017-02-04 16:49:31.675892+01 | 1486223371.67589 | pgbench_accounts |      13685563392
 2017-02-04 16:49:31.675892+01 | 1486223371.67589 | pgbench_tellers  |         17022976
 2017-02-04 16:49:31.675892+01 | 1486223371.67589 | pgbench_history  |        587202560
 2017-02-04 16:49:31.675892+01 | 1486223371.67589 | pgbench_branches |         13606912

 2017-02-04 16:49:32.747701+01 | 1486223372.7477 | pgbench_accounts |      13685563392
 2017-02-04 16:49:32.747701+01 | 1486223372.7477 | pgbench_tellers  |         17022976
 2017-02-04 16:49:32.747701+01 | 1486223372.7477 | pgbench_history  |        589922304
 2017-02-04 16:49:32.747701+01 | 1486223372.7477 | pgbench_branches |         13606912

 2017-02-04 16:49:33.83425+01 | 1486223373.83425 | pgbench_accounts |      13685563392
 2017-02-04 16:49:33.83425+01 | 1486223373.83425 | pgbench_tellers  |         17022976
 2017-02-04 16:49:33.83425+01 | 1486223373.83425 | pgbench_history  |        591970304
 2017-02-04 16:49:33.83425+01 | 1486223373.83425 | pgbench_branches |         13606912

 2017-02-04 16:49:34.921292+01 | 1486223374.92129 | pgbench_accounts |      13685563392
 2017-02-04 16:49:34.921292+01 | 1486223374.92129 | pgbench_tellers  |         17022976
 2017-02-04 16:49:34.921292+01 | 1486223374.92129 | pgbench_history  |        594976768
 2017-02-04 16:49:34.921292+01 | 1486223374.92129 | pgbench_branches |         13606912

 2017-02-04 16:49:36.009243+01 | 1486223376.00924 | pgbench_accounts |      13685563392
 2017-02-04 16:49:36.009243+01 | 1486223376.00924 | pgbench_tellers  |         17022976
 2017-02-04 16:49:36.009243+01 | 1486223376.00924 | pgbench_history  |        597483520
 2017-02-04 16:49:36.009243+01 | 1486223376.00924 | pgbench_branches |         13606912

 2017-02-04 16:49:37.105507+01 | 1486223377.10551 | pgbench_accounts |      13685563392
 2017-02-04 16:49:37.105507+01 | 1486223377.10551 | pgbench_tellers  |         17022976
 2017-02-04 16:49:37.105507+01 | 1486223377.10551 | pgbench_history  |        600694784
 2017-02-04 16:49:37.105507+01 | 1486223377.10551 | pgbench_branches |         13606912

 2017-02-04 16:49:38.200068+01 | 1486223378.20007 | pgbench_accounts |      13685563392
 2017-02-04 16:49:38.200068+01 | 1486223378.20007 | pgbench_tellers  |         17022976
 2017-02-04 16:49:38.200068+01 | 1486223378.20007 | pgbench_history  |        603881472
 2017-02-04 16:49:38.200068+01 | 1486223378.20007 | pgbench_branches |         13606912

 2017-02-04 16:49:39.284724+01 | 1486223379.28472 | pgbench_accounts |      13685563392
 2017-02-04 16:49:39.284724+01 | 1486223379.28472 | pgbench_tellers  |         17022976
 2017-02-04 16:49:39.284724+01 | 1486223379.28472 | pgbench_history  |        606797824
 2017-02-04 16:49:39.284724+01 | 1486223379.28472 | pgbench_branches |         13606912

 2017-02-04 16:49:40.385522+01 | 1486223380.38552 | pgbench_accounts |      13685563392
 2017-02-04 16:49:40.385522+01 | 1486223380.38552 | pgbench_tellers  |         17022976
 2017-02-04 16:49:40.385522+01 | 1486223380.38552 | pgbench_history  |        609271808
 2017-02-04 16:49:40.385522+01 | 1486223380.38552 | pgbench_branches |         13606912

 2017-02-04 16:49:41.470956+01 | 1486223381.47096 | pgbench_accounts |      13685563392
 2017-02-04 16:49:41.470956+01 | 1486223381.47096 | pgbench_tellers  |         17022976
 2017-02-04 16:49:41.470956+01 | 1486223381.47096 | pgbench_history  |        612229120
 2017-02-04 16:49:41.470956+01 | 1486223381.47096 | pgbench_branches |         13606912

 2017-02-04 16:49:42.554647+01 | 1486223382.55465 | pgbench_accounts |      13685563392
 2017-02-04 16:49:42.554647+01 | 1486223382.55465 | pgbench_tellers  |         17022976
 2017-02-04 16:49:42.554647+01 | 1486223382.55465 | pgbench_history  |        614457344
 2017-02-04 16:49:42.554647+01 | 1486223382.55465 | pgbench_branches |         13606912

 2017-02-04 16:49:43.641102+01 | 1486223383.6411 | pgbench_accounts |      13685563392
 2017-02-04 16:49:43.641102+01 | 1486223383.6411 | pgbench_tellers  |         17022976
 2017-02-04 16:49:43.641102+01 | 1486223383.6411 | pgbench_history  |        618790912
 2017-02-04 16:49:43.641102+01 | 1486223383.6411 | pgbench_branches |         13606912

 2017-02-04 16:49:44.7151+01 | 1486223384.7151 | pgbench_accounts |      13685563392
 2017-02-04 16:49:44.7151+01 | 1486223384.7151 | pgbench_tellers  |         17022976
 2017-02-04 16:49:44.7151+01 | 1486223384.7151 | pgbench_history  |        620290048
 2017-02-04 16:49:44.7151+01 | 1486223384.7151 | pgbench_branches |         13606912

 2017-02-04 16:49:45.806828+01 | 1486223385.80683 | pgbench_accounts |      13685563392
 2017-02-04 16:49:45.806828+01 | 1486223385.80683 | pgbench_tellers  |         17022976
 2017-02-04 16:49:45.806828+01 | 1486223385.80683 | pgbench_history  |        622657536
 2017-02-04 16:49:45.806828+01 | 1486223385.80683 | pgbench_branches |         13606912

 2017-02-04 16:49:46.900549+01 | 1486223386.90055 | pgbench_accounts |      13685563392
 2017-02-04 16:49:46.900549+01 | 1486223386.90055 | pgbench_tellers  |         17022976
 2017-02-04 16:49:46.900549+01 | 1486223386.90055 | pgbench_history  |        626286592
 2017-02-04 16:49:46.900549+01 | 1486223386.90055 | pgbench_branches |         13606912

 2017-02-04 16:49:47.994659+01 | 1486223387.99466 | pgbench_accounts |      13685563392
 2017-02-04 16:49:47.994659+01 | 1486223387.99466 | pgbench_tellers  |         17022976
 2017-02-04 16:49:47.994659+01 | 1486223387.99466 | pgbench_history  |        628490240
 2017-02-04 16:49:47.994659+01 | 1486223387.99466 | pgbench_branches |         13606912

 2017-02-04 16:49:49.08569+01 | 1486223389.08569 | pgbench_accounts |      13685563392
 2017-02-04 16:49:49.08569+01 | 1486223389.08569 | pgbench_tellers  |         17022976
 2017-02-04 16:49:49.08569+01 | 1486223389.08569 | pgbench_history  |        631742464
 2017-02-04 16:49:49.08569+01 | 1486223389.08569 | pgbench_branches |         13606912

 2017-02-04 16:49:50.167146+01 | 1486223390.16715 | pgbench_accounts |      13685563392
 2017-02-04 16:49:50.167146+01 | 1486223390.16715 | pgbench_tellers  |         17022976
 2017-02-04 16:49:50.167146+01 | 1486223390.16715 | pgbench_history  |        634798080
 2017-02-04 16:49:50.167146+01 | 1486223390.16715 | pgbench_branches |         13606912

 2017-02-04 16:49:51.250416+01 | 1486223391.25042 | pgbench_accounts |      13685563392
 2017-02-04 16:49:51.250416+01 | 1486223391.25042 | pgbench_tellers  |         17022976
 2017-02-04 16:49:51.250416+01 | 1486223391.25042 | pgbench_history  |        637165568
 2017-02-04 16:49:51.250416+01 | 1486223391.25042 | pgbench_branches |         13606912

 2017-02-04 16:49:52.331953+01 | 1486223392.33195 | pgbench_accounts |      13685563392
 2017-02-04 16:49:52.331953+01 | 1486223392.33195 | pgbench_tellers  |         17022976
 2017-02-04 16:49:52.331953+01 | 1486223392.33195 | pgbench_history  |        640000000
 2017-02-04 16:49:52.331953+01 | 1486223392.33195 | pgbench_branches |         13606912

 2017-02-04 16:49:53.430752+01 | 1486223393.43075 | pgbench_accounts |      13685563392
 2017-02-04 16:49:53.430752+01 | 1486223393.43075 | pgbench_tellers  |         17022976
 2017-02-04 16:49:53.430752+01 | 1486223393.43075 | pgbench_history  |        643702784
 2017-02-04 16:49:53.430752+01 | 1486223393.43075 | pgbench_branches |         13606912

 2017-02-04 16:49:54.512672+01 | 1486223394.51267 | pgbench_accounts |      13685563392
 2017-02-04 16:49:54.512672+01 | 1486223394.51267 | pgbench_tellers  |         17022976
 2017-02-04 16:49:54.512672+01 | 1486223394.51267 | pgbench_history  |        645554176
 2017-02-04 16:49:54.512672+01 | 1486223394.51267 | pgbench_branches |         13606912

 2017-02-04 16:49:55.589146+01 | 1486223395.58915 | pgbench_accounts |      13685563392
 2017-02-04 16:49:55.589146+01 | 1486223395.58915 | pgbench_tellers  |         17022976
 2017-02-04 16:49:55.589146+01 | 1486223395.58915 | pgbench_history  |        649912320
 2017-02-04 16:49:55.589146+01 | 1486223395.58915 | pgbench_branches |         13606912

 2017-02-04 16:49:56.685512+01 | 1486223396.68551 | pgbench_accounts |      13685563392
 2017-02-04 16:49:56.685512+01 | 1486223396.68551 | pgbench_tellers  |         17022976
 2017-02-04 16:49:56.685512+01 | 1486223396.68551 | pgbench_history  |        650592256
 2017-02-04 16:49:56.685512+01 | 1486223396.68551 | pgbench_branches |         13606912

 2017-02-04 16:49:57.765382+01 | 1486223397.76538 | pgbench_accounts |      13685563392
 2017-02-04 16:49:57.765382+01 | 1486223397.76538 | pgbench_tellers  |         17022976
 2017-02-04 16:49:57.765382+01 | 1486223397.76538 | pgbench_history  |        653123584
 2017-02-04 16:49:57.765382+01 | 1486223397.76538 | pgbench_branches |         13606912

 2017-02-04 16:49:58.856965+01 | 1486223398.85697 | pgbench_accounts |      13685563392
 2017-02-04 16:49:58.856965+01 | 1486223398.85697 | pgbench_tellers  |         17022976
 2017-02-04 16:49:58.856965+01 | 1486223398.85697 | pgbench_history  |        655941632
 2017-02-04 16:49:58.856965+01 | 1486223398.85697 | pgbench_branches |         13606912

 2017-02-04 16:49:59.94434+01 | 1486223399.94434 | pgbench_accounts |      13685563392
 2017-02-04 16:49:59.94434+01 | 1486223399.94434 | pgbench_tellers  |         17022976
 2017-02-04 16:49:59.94434+01 | 1486223399.94434 | pgbench_history  |        657801216
 2017-02-04 16:49:59.94434+01 | 1486223399.94434 | pgbench_branches |         13606912

 2017-02-04 16:50:01.034368+01 | 1486223401.03437 | pgbench_accounts |      13685563392
 2017-02-04 16:50:01.034368+01 | 1486223401.03437 | pgbench_tellers  |         17022976
 2017-02-04 16:50:01.034368+01 | 1486223401.03437 | pgbench_history  |        660307968
 2017-02-04 16:50:01.034368+01 | 1486223401.03437 | pgbench_branches |         13606912

 2017-02-04 16:50:02.118919+01 | 1486223402.11892 | pgbench_accounts |      13685563392
 2017-02-04 16:50:02.118919+01 | 1486223402.11892 | pgbench_tellers  |         17022976
 2017-02-04 16:50:02.118919+01 | 1486223402.11892 | pgbench_history  |        663683072
 2017-02-04 16:50:02.118919+01 | 1486223402.11892 | pgbench_branches |         13606912

 2017-02-04 16:50:03.214274+01 | 1486223403.21427 | pgbench_accounts |      13685563392
 2017-02-04 16:50:03.214274+01 | 1486223403.21427 | pgbench_tellers  |         17022976
 2017-02-04 16:50:03.214274+01 | 1486223403.21427 | pgbench_history  |        667009024
 2017-02-04 16:50:03.214274+01 | 1486223403.21427 | pgbench_branches |         13606912

 2017-02-04 16:50:04.306926+01 | 1486223404.30693 | pgbench_accounts |      13685563392
 2017-02-04 16:50:04.306926+01 | 1486223404.30693 | pgbench_tellers  |         17022976
 2017-02-04 16:50:04.306926+01 | 1486223404.30693 | pgbench_history  |        668180480
 2017-02-04 16:50:04.306926+01 | 1486223404.30693 | pgbench_branches |         13606912

 2017-02-04 16:50:05.395606+01 | 1486223405.39561 | pgbench_accounts |      13685563392
 2017-02-04 16:50:05.395606+01 | 1486223405.39561 | pgbench_tellers  |         17022976
 2017-02-04 16:50:05.395606+01 | 1486223405.39561 | pgbench_history  |        670220288
 2017-02-04 16:50:05.395606+01 | 1486223405.39561 | pgbench_branches |         13606912

 2017-02-04 16:50:06.484618+01 | 1486223406.48462 | pgbench_accounts |      13685563392
 2017-02-04 16:50:06.484618+01 | 1486223406.48462 | pgbench_tellers  |         17022976
 2017-02-04 16:50:06.484618+01 | 1486223406.48462 | pgbench_history  |        673767424
 2017-02-04 16:50:06.484618+01 | 1486223406.48462 | pgbench_branches |         13606912

 2017-02-04 16:50:07.564607+01 | 1486223407.56461 | pgbench_accounts |      13685563392
 2017-02-04 16:50:07.564607+01 | 1486223407.56461 | pgbench_tellers  |         17022976
 2017-02-04 16:50:07.564607+01 | 1486223407.56461 | pgbench_history  |        676413440
 2017-02-04 16:50:07.564607+01 | 1486223407.56461 | pgbench_branches |         13606912

 2017-02-04 16:50:08.642079+01 | 1486223408.64208 | pgbench_accounts |      13685563392
 2017-02-04 16:50:08.642079+01 | 1486223408.64208 | pgbench_tellers  |         17022976
 2017-02-04 16:50:08.642079+01 | 1486223408.64208 | pgbench_history  |        678666240
 2017-02-04 16:50:08.642079+01 | 1486223408.64208 | pgbench_branches |         13606912

 2017-02-04 16:50:09.724914+01 | 1486223409.72491 | pgbench_accounts |      13685563392
 2017-02-04 16:50:09.724914+01 | 1486223409.72491 | pgbench_tellers  |         17022976
 2017-02-04 16:50:09.724914+01 | 1486223409.72491 | pgbench_history  |        681082880
 2017-02-04 16:50:09.724914+01 | 1486223409.72491 | pgbench_branches |         13606912

 2017-02-04 16:50:10.809432+01 | 1486223410.80943 | pgbench_accounts |      13685563392
 2017-02-04 16:50:10.809432+01 | 1486223410.80943 | pgbench_tellers  |         17022976
 2017-02-04 16:50:10.809432+01 | 1486223410.80943 | pgbench_history  |        684605440
 2017-02-04 16:50:10.809432+01 | 1486223410.80943 | pgbench_branches |         13606912

 2017-02-04 16:50:11.892813+01 | 1486223411.89281 | pgbench_accounts |      13685563392
 2017-02-04 16:50:11.892813+01 | 1486223411.89281 | pgbench_tellers  |         17022976
 2017-02-04 16:50:11.892813+01 | 1486223411.89281 | pgbench_history  |        686645248
 2017-02-04 16:50:11.892813+01 | 1486223411.89281 | pgbench_branches |         13606912

 2017-02-04 16:50:12.97834+01 | 1486223412.97834 | pgbench_accounts |      13685563392
 2017-02-04 16:50:12.97834+01 | 1486223412.97834 | pgbench_tellers  |         17022976
 2017-02-04 16:50:12.97834+01 | 1486223412.97834 | pgbench_history  |        691634176
 2017-02-04 16:50:12.97834+01 | 1486223412.97834 | pgbench_branches |         13606912

 2017-02-04 16:50:14.079868+01 | 1486223414.07987 | pgbench_accounts |      13685563392
 2017-02-04 16:50:14.079868+01 | 1486223414.07987 | pgbench_tellers  |         17022976
 2017-02-04 16:50:14.079868+01 | 1486223414.07987 | pgbench_history  |        693460992
 2017-02-04 16:50:14.079868+01 | 1486223414.07987 | pgbench_branches |         13606912

 2017-02-04 16:50:15.173534+01 | 1486223415.17353 | pgbench_accounts |      13685563392
 2017-02-04 16:50:15.173534+01 | 1486223415.17353 | pgbench_tellers  |         17022976
 2017-02-04 16:50:15.173534+01 | 1486223415.17353 | pgbench_history  |        694984704
 2017-02-04 16:50:15.173534+01 | 1486223415.17353 | pgbench_branches |         13606912

 2017-02-04 16:50:16.271042+01 | 1486223416.27104 | pgbench_accounts |      13685563392
 2017-02-04 16:50:16.271042+01 | 1486223416.27104 | pgbench_tellers  |         17022976
 2017-02-04 16:50:16.271042+01 | 1486223416.27104 | pgbench_history  |        697827328
 2017-02-04 16:50:16.271042+01 | 1486223416.27104 | pgbench_branches |         13606912

 2017-02-04 16:50:17.36282+01 | 1486223417.36282 | pgbench_accounts |      13685563392
 2017-02-04 16:50:17.36282+01 | 1486223417.36282 | pgbench_tellers  |         17022976
 2017-02-04 16:50:17.36282+01 | 1486223417.36282 | pgbench_history  |        700727296
 2017-02-04 16:50:17.36282+01 | 1486223417.36282 | pgbench_branches |         13606912

 2017-02-04 16:50:18.451784+01 | 1486223418.45178 | pgbench_accounts |      13685563392
 2017-02-04 16:50:18.451784+01 | 1486223418.45178 | pgbench_tellers  |         17022976
 2017-02-04 16:50:18.451784+01 | 1486223418.45178 | pgbench_history  |        704241664
 2017-02-04 16:50:18.451784+01 | 1486223418.45178 | pgbench_branches |         13606912

 2017-02-04 16:50:19.544901+01 | 1486223419.5449 | pgbench_accounts |      13685563392
 2017-02-04 16:50:19.544901+01 | 1486223419.5449 | pgbench_tellers  |         17022976
 2017-02-04 16:50:19.544901+01 | 1486223419.5449 | pgbench_history  |        706797568
 2017-02-04 16:50:19.544901+01 | 1486223419.5449 | pgbench_branches |         13606912

 2017-02-04 16:50:20.618896+01 | 1486223420.6189 | pgbench_accounts |      13685563392
 2017-02-04 16:50:20.618896+01 | 1486223420.6189 | pgbench_tellers  |         17022976
 2017-02-04 16:50:20.618896+01 | 1486223420.6189 | pgbench_history  |        709189632
 2017-02-04 16:50:20.618896+01 | 1486223420.6189 | pgbench_branches |         13606912

 2017-02-04 16:50:21.699052+01 | 1486223421.69905 | pgbench_accounts |      13685563392
 2017-02-04 16:50:21.699052+01 | 1486223421.69905 | pgbench_tellers  |         17022976
 2017-02-04 16:50:21.699052+01 | 1486223421.69905 | pgbench_history  |        712376320
 2017-02-04 16:50:21.699052+01 | 1486223421.69905 | pgbench_branches |         13606912

 2017-02-04 16:50:22.783877+01 | 1486223422.78388 | pgbench_accounts |      13685563392
 2017-02-04 16:50:22.783877+01 | 1486223422.78388 | pgbench_tellers  |         17022976
 2017-02-04 16:50:22.783877+01 | 1486223422.78388 | pgbench_history  |        714227712
 2017-02-04 16:50:22.783877+01 | 1486223422.78388 | pgbench_branches |         13606912

 2017-02-04 16:50:23.870008+01 | 1486223423.87001 | pgbench_accounts |      13685563392
 2017-02-04 16:50:23.870008+01 | 1486223423.87001 | pgbench_tellers  |         17022976
 2017-02-04 16:50:23.870008+01 | 1486223423.87001 | pgbench_history  |        717463552
 2017-02-04 16:50:23.870008+01 | 1486223423.87001 | pgbench_branches |         13606912

 2017-02-04 16:50:24.965794+01 | 1486223424.96579 | pgbench_accounts |      13685563392
 2017-02-04 16:50:24.965794+01 | 1486223424.96579 | pgbench_tellers  |         17022976
 2017-02-04 16:50:24.965794+01 | 1486223424.96579 | pgbench_history  |        719839232
 2017-02-04 16:50:24.965794+01 | 1486223424.96579 | pgbench_branches |         13606912

 2017-02-04 16:50:26.058262+01 | 1486223426.05826 | pgbench_accounts |      13685563392
 2017-02-04 16:50:26.058262+01 | 1486223426.05826 | pgbench_tellers  |         17022976
 2017-02-04 16:50:26.058262+01 | 1486223426.05826 | pgbench_history  |        723050496
 2017-02-04 16:50:26.058262+01 | 1486223426.05826 | pgbench_branches |         13606912

 2017-02-04 16:50:27.150885+01 | 1486223427.15089 | pgbench_accounts |      13685563392
 2017-02-04 16:50:27.150885+01 | 1486223427.15089 | pgbench_tellers  |         17022976
 2017-02-04 16:50:27.150885+01 | 1486223427.15089 | pgbench_history  |        726237184
 2017-02-04 16:50:27.150885+01 | 1486223427.15089 | pgbench_branches |         13606912

 2017-02-04 16:50:28.246596+01 | 1486223428.2466 | pgbench_accounts |      13685563392
 2017-02-04 16:50:28.246596+01 | 1486223428.2466 | pgbench_tellers  |         17022976
 2017-02-04 16:50:28.246596+01 | 1486223428.2466 | pgbench_history  |        728227840
 2017-02-04 16:50:28.246596+01 | 1486223428.2466 | pgbench_branches |         13606912

 2017-02-04 16:50:29.334084+01 | 1486223429.33408 | pgbench_accounts |      13685563392
 2017-02-04 16:50:29.334084+01 | 1486223429.33408 | pgbench_tellers  |         17022976
 2017-02-04 16:50:29.334084+01 | 1486223429.33408 | pgbench_history  |        730923008
 2017-02-04 16:50:29.334084+01 | 1486223429.33408 | pgbench_branches |         13606912

 2017-02-04 16:50:30.432454+01 | 1486223430.43245 | pgbench_accounts |      13685563392
 2017-02-04 16:50:30.432454+01 | 1486223430.43245 | pgbench_tellers  |         17022976
 2017-02-04 16:50:30.432454+01 | 1486223430.43245 | pgbench_history  |        733511680
 2017-02-04 16:50:30.432454+01 | 1486223430.43245 | pgbench_branches |         13606912

 2017-02-04 16:50:31.532392+01 | 1486223431.53239 | pgbench_accounts |      13685563392
 2017-02-04 16:50:31.532392+01 | 1486223431.53239 | pgbench_tellers  |         17022976
 2017-02-04 16:50:31.532392+01 | 1486223431.53239 | pgbench_history  |        736043008
 2017-02-04 16:50:31.532392+01 | 1486223431.53239 | pgbench_branches |         13606912

 2017-02-04 16:50:32.616863+01 | 1486223432.61686 | pgbench_accounts |      13685563392
 2017-02-04 16:50:32.616863+01 | 1486223432.61686 | pgbench_tellers  |         17022976
 2017-02-04 16:50:32.616863+01 | 1486223432.61686 | pgbench_history  |        740761600
 2017-02-04 16:50:32.616863+01 | 1486223432.61686 | pgbench_branches |         13606912

 2017-02-04 16:50:33.694232+01 | 1486223433.69423 | pgbench_accounts |      13685563392
 2017-02-04 16:50:33.694232+01 | 1486223433.69423 | pgbench_tellers  |         17022976
 2017-02-04 16:50:33.694232+01 | 1486223433.69423 | pgbench_history  |        740761600
 2017-02-04 16:50:33.694232+01 | 1486223433.69423 | pgbench_branches |         13606912

 2017-02-04 16:50:34.773812+01 | 1486223434.77381 | pgbench_accounts |      13685563392
 2017-02-04 16:50:34.773812+01 | 1486223434.77381 | pgbench_tellers  |         17022976
 2017-02-04 16:50:34.773812+01 | 1486223434.77381 | pgbench_history  |        743301120
 2017-02-04 16:50:34.773812+01 | 1486223434.77381 | pgbench_branches |         13606912

