 2017-02-06 00:56:45.185741+01 | 1486339005.18574 |                 0 |              26 |                   796 |                   33 |               2297 |             0 |                0 |          487898 |                     0 |        191841 | 2017-02-05 22:51:16.555195+01

 2017-02-06 00:56:46.277679+01 | 1486339006.27768 |                 0 |              26 |                   796 |                   33 |               2297 |             0 |                0 |          487898 |                     0 |        191841 | 2017-02-05 22:51:16.555195+01

 2017-02-06 00:56:47.369733+01 | 1486339007.36973 |                 0 |              26 |                   796 |                   33 |               2297 |             0 |                0 |          487898 |                     0 |        191841 | 2017-02-05 22:51:16.555195+01

 2017-02-06 00:56:48.46504+01 | 1486339008.46504 |                 0 |              26 |                   796 |                   33 |               2297 |             0 |                0 |          487898 |                     0 |        191841 | 2017-02-05 22:51:16.555195+01

 2017-02-06 00:56:49.549677+01 | 1486339009.54968 |                 0 |              26 |                   796 |                   33 |               2297 |             0 |                0 |          487898 |                     0 |        191841 | 2017-02-05 22:51:16.555195+01

 2017-02-06 00:56:50.659111+01 | 1486339010.65911 |                 0 |              26 |                   796 |                   33 |               2297 |             0 |                0 |          487898 |                     0 |        191841 | 2017-02-05 22:51:16.555195+01

 2017-02-06 00:56:51.773959+01 | 1486339011.77396 |                 0 |              26 |                   796 |                   33 |               2297 |             0 |                0 |          487898 |                     0 |        191841 | 2017-02-05 22:51:16.555195+01

 2017-02-06 00:56:52.880702+01 | 1486339012.8807 |                 0 |              26 |                   796 |                   33 |               2297 |             0 |                0 |          487898 |                     0 |        191841 | 2017-02-05 22:51:16.555195+01

 2017-02-06 00:56:53.995221+01 | 1486339013.99522 |                 0 |              26 |                   796 |                   33 |               2297 |             0 |                0 |          487898 |                     0 |        191841 | 2017-02-05 22:51:16.555195+01

 2017-02-06 00:56:55.145426+01 | 1486339015.14543 |                 0 |              26 |                   796 |                   33 |               2297 |             0 |                0 |          487898 |                     0 |        191841 | 2017-02-05 22:51:16.555195+01

 2017-02-06 00:56:56.247264+01 | 1486339016.24726 |                 0 |              26 |                   796 |                   33 |               2297 |             0 |                0 |          487898 |                     0 |        191841 | 2017-02-05 22:51:16.555195+01

 2017-02-06 00:56:57.341057+01 | 1486339017.34106 |                 0 |              26 |                   796 |                   33 |               2297 |             0 |                0 |          487898 |                     0 |        191841 | 2017-02-05 22:51:16.555195+01

 2017-02-06 00:56:58.433563+01 | 1486339018.43356 |                 0 |              26 |                   796 |                   33 |               2297 |             0 |                0 |          487898 |                     0 |        191841 | 2017-02-05 22:51:16.555195+01

 2017-02-06 00:56:59.533663+01 | 1486339019.53366 |                 0 |              26 |                   796 |                   33 |               2297 |             0 |                0 |          487898 |                     0 |        191841 | 2017-02-05 22:51:16.555195+01

 2017-02-06 00:57:00.621708+01 | 1486339020.62171 |                 0 |              26 |                   796 |                   33 |               2297 |             0 |                0 |          487898 |                     0 |        191841 | 2017-02-05 22:51:16.555195+01

 2017-02-06 00:57:01.732453+01 | 1486339021.73245 |                 0 |              26 |                   796 |                   33 |               2297 |             0 |                0 |          487898 |                     0 |        191841 | 2017-02-05 22:51:16.555195+01

 2017-02-06 00:57:02.829212+01 | 1486339022.82921 |                 0 |              26 |                   796 |                   33 |               2297 |             0 |                0 |          487898 |                     0 |        191841 | 2017-02-05 22:51:16.555195+01

 2017-02-06 00:57:03.94585+01 | 1486339023.94585 |                 0 |              26 |                   796 |                   33 |               2297 |             0 |                0 |          487898 |                     0 |        191841 | 2017-02-05 22:51:16.555195+01

 2017-02-06 00:57:05.049991+01 | 1486339025.04999 |                 0 |              26 |                   796 |                   33 |               2297 |             0 |                0 |          487898 |                     0 |        191841 | 2017-02-05 22:51:16.555195+01

 2017-02-06 00:57:06.150109+01 | 1486339026.15011 |                 0 |              26 |                   796 |                   33 |               2297 |             0 |                0 |          487898 |                     0 |        191841 | 2017-02-05 22:51:16.555195+01

 2017-02-06 00:57:07.24593+01 | 1486339027.24593 |                 0 |              26 |                   796 |                   33 |               2297 |             0 |                0 |          487898 |                     0 |        191841 | 2017-02-05 22:51:16.555195+01

 2017-02-06 00:57:08.333972+01 | 1486339028.33397 |                 0 |              26 |                   796 |                   33 |               2297 |             0 |                0 |          487898 |                     0 |        191841 | 2017-02-05 22:51:16.555195+01

 2017-02-06 00:57:09.427252+01 | 1486339029.42725 |                 0 |              26 |                   796 |                   33 |               2297 |             0 |                0 |          487898 |                     0 |        191841 | 2017-02-05 22:51:16.555195+01

 2017-02-06 00:57:10.518131+01 | 1486339030.51813 |                 0 |              26 |                   796 |                   33 |               2297 |             0 |                0 |          487898 |                     0 |        191841 | 2017-02-05 22:51:16.555195+01

 2017-02-06 00:57:11.605911+01 | 1486339031.60591 |                 0 |              26 |                   796 |                   33 |               2297 |             0 |                0 |          487898 |                     0 |        191841 | 2017-02-05 22:51:16.555195+01

 2017-02-06 00:57:12.71321+01 | 1486339032.71321 |                 0 |              26 |                   796 |                   33 |               2297 |             0 |                0 |          487898 |                     0 |        191841 | 2017-02-05 22:51:16.555195+01

 2017-02-06 00:57:13.821256+01 | 1486339033.82126 |                 0 |              26 |                   796 |                   33 |               2297 |             0 |                0 |          487898 |                     0 |        191841 | 2017-02-05 22:51:16.555195+01

 2017-02-06 00:57:14.929575+01 | 1486339034.92957 |                 0 |              26 |                   796 |                   33 |               2297 |             0 |                0 |          487898 |                     0 |        191841 | 2017-02-05 22:51:16.555195+01

 2017-02-06 00:57:16.05103+01 | 1486339036.05103 |                 0 |              26 |                   796 |                   33 |               2297 |             0 |                0 |          487898 |                     0 |        191841 | 2017-02-05 22:51:16.555195+01

 2017-02-06 00:57:17.160011+01 | 1486339037.16001 |                 0 |              26 |                   796 |                   33 |               2297 |             0 |                0 |          487898 |                     0 |        191841 | 2017-02-05 22:51:16.555195+01

 2017-02-06 00:57:18.263236+01 | 1486339038.26324 |                 0 |              26 |                   796 |                   33 |               2297 |             0 |                0 |          487898 |                     0 |        191841 | 2017-02-05 22:51:16.555195+01

 2017-02-06 00:57:19.352751+01 | 1486339039.35275 |                 0 |              26 |                   796 |                   33 |               2297 |             0 |                0 |          487898 |                     0 |        191841 | 2017-02-05 22:51:16.555195+01

 2017-02-06 00:57:20.44712+01 | 1486339040.44712 |                 0 |              26 |                   796 |                   33 |               2297 |             0 |                0 |          487898 |                     0 |        191841 | 2017-02-05 22:51:16.555195+01

 2017-02-06 00:57:21.530085+01 | 1486339041.53009 |                 0 |              26 |                   796 |                   33 |               2297 |             0 |                0 |          487898 |                     0 |        191841 | 2017-02-05 22:51:16.555195+01

 2017-02-06 00:57:22.62343+01 | 1486339042.62343 |                 0 |              26 |                   796 |                   33 |               2297 |             0 |                0 |          487898 |                     0 |        191841 | 2017-02-05 22:51:16.555195+01

 2017-02-06 00:57:23.727276+01 | 1486339043.72728 |                 0 |              26 |                   796 |                   33 |               2297 |             0 |                0 |          487898 |                     0 |        191841 | 2017-02-05 22:51:16.555195+01

 2017-02-06 00:57:24.832671+01 | 1486339044.83267 |                 0 |              26 |                   796 |                   33 |               2297 |             0 |                0 |          487898 |                     0 |        191841 | 2017-02-05 22:51:16.555195+01

 2017-02-06 00:57:25.929804+01 | 1486339045.9298 |                 0 |              26 |                   796 |                   33 |               2297 |             0 |                0 |          487898 |                     0 |        191841 | 2017-02-05 22:51:16.555195+01

 2017-02-06 00:57:27.014443+01 | 1486339047.01444 |                 0 |              26 |                   796 |                   33 |               2297 |             0 |                0 |          487898 |                     0 |        191841 | 2017-02-05 22:51:16.555195+01

 2017-02-06 00:57:28.117904+01 | 1486339048.1179 |                 0 |              26 |                   796 |                   33 |               2297 |             0 |                0 |          487898 |                     0 |        191841 | 2017-02-05 22:51:16.555195+01

 2017-02-06 00:57:29.219536+01 | 1486339049.21954 |                 0 |              26 |                   796 |                   33 |               2297 |             0 |                0 |          487898 |                     0 |        191841 | 2017-02-05 22:51:16.555195+01

 2017-02-06 00:57:30.322944+01 | 1486339050.32294 |                 0 |              26 |                   796 |                   33 |               2297 |             0 |                0 |          487898 |                     0 |        191841 | 2017-02-05 22:51:16.555195+01

 2017-02-06 00:57:31.41847+01 | 1486339051.41847 |                 0 |              26 |                   796 |                   33 |               2297 |             0 |                0 |          487898 |                     0 |        191841 | 2017-02-05 22:51:16.555195+01

 2017-02-06 00:57:32.510224+01 | 1486339052.51022 |                 0 |              26 |                   796 |                   33 |               2297 |             0 |                0 |          487898 |                     0 |        191841 | 2017-02-05 22:51:16.555195+01

 2017-02-06 00:57:33.60073+01 | 1486339053.60073 |                 0 |              26 |                   796 |                   33 |               2297 |             0 |                0 |          487898 |                     0 |        191841 | 2017-02-05 22:51:16.555195+01

 2017-02-06 00:57:34.685866+01 | 1486339054.68587 |                 0 |              26 |                   796 |                   33 |               2297 |             0 |                0 |          487898 |                     0 |        191841 | 2017-02-05 22:51:16.555195+01

 2017-02-06 00:57:35.782208+01 | 1486339055.78221 |                 0 |              26 |                   796 |                   33 |               2297 |             0 |                0 |          487898 |                     0 |        191841 | 2017-02-05 22:51:16.555195+01

 2017-02-06 00:57:36.868851+01 | 1486339056.86885 |                 0 |              26 |                   796 |                   33 |               2297 |             0 |                0 |          487898 |                     0 |        191841 | 2017-02-05 22:51:16.555195+01

 2017-02-06 00:57:37.96302+01 | 1486339057.96302 |                 0 |              26 |                   796 |                   33 |               2297 |             0 |                0 |          487898 |                     0 |        191841 | 2017-02-05 22:51:16.555195+01

 2017-02-06 00:57:39.060734+01 | 1486339059.06073 |                 0 |              26 |                   796 |                   33 |               2297 |             0 |                0 |          487898 |                     0 |        191841 | 2017-02-05 22:51:16.555195+01

 2017-02-06 00:57:40.157356+01 | 1486339060.15736 |                 0 |              26 |                   796 |                   33 |               2297 |             0 |                0 |          487898 |                     0 |        191841 | 2017-02-05 22:51:16.555195+01

 2017-02-06 00:57:41.273905+01 | 1486339061.27391 |                 0 |              26 |                   796 |                   33 |               2297 |             0 |                0 |          487898 |                     0 |        191841 | 2017-02-05 22:51:16.555195+01

 2017-02-06 00:57:42.378947+01 | 1486339062.37895 |                 0 |              26 |                   796 |                   33 |               2297 |             0 |                0 |          487898 |                     0 |        191841 | 2017-02-05 22:51:16.555195+01

 2017-02-06 00:57:43.476527+01 | 1486339063.47653 |                 0 |              26 |                   796 |                   33 |               2297 |             0 |                0 |          487898 |                     0 |        191841 | 2017-02-05 22:51:16.555195+01

 2017-02-06 00:57:44.577527+01 | 1486339064.57753 |                 0 |              26 |                   796 |                   33 |               2297 |             0 |                0 |          487898 |                     0 |        191841 | 2017-02-05 22:51:16.555195+01

 2017-02-06 00:57:45.671045+01 | 1486339065.67105 |                 0 |              26 |                   796 |                   33 |               2297 |             0 |                0 |          487898 |                     0 |        191841 | 2017-02-05 22:51:16.555195+01

 2017-02-06 00:57:46.75359+01 | 1486339066.75359 |                 0 |              26 |                   796 |                   33 |               2297 |             0 |                0 |          487898 |                     0 |        191841 | 2017-02-05 22:51:16.555195+01

 2017-02-06 00:57:47.8455+01 | 1486339067.8455 |                 0 |              26 |                   796 |                   33 |               2297 |             0 |                0 |          487898 |                     0 |        191841 | 2017-02-05 22:51:16.555195+01

 2017-02-06 00:57:48.9293+01 | 1486339068.9293 |                 0 |              26 |                   796 |                   33 |               2297 |             0 |                0 |          487898 |                     0 |        191841 | 2017-02-05 22:51:16.555195+01

 2017-02-06 00:57:50.016788+01 | 1486339070.01679 |                 0 |              26 |                   796 |                   33 |               2297 |             0 |                0 |          487898 |                     0 |        191841 | 2017-02-05 22:51:16.555195+01

 2017-02-06 00:57:51.114088+01 | 1486339071.11409 |                 0 |              26 |                   796 |                   33 |               2297 |             0 |                0 |          487898 |                     0 |        191841 | 2017-02-05 22:51:16.555195+01

 2017-02-06 00:57:52.206764+01 | 1486339072.20676 |                 0 |              26 |                   796 |                   33 |               2297 |             0 |                0 |          487898 |                     0 |        191841 | 2017-02-05 22:51:16.555195+01

 2017-02-06 00:57:53.303733+01 | 1486339073.30373 |                 0 |              26 |                   796 |                   33 |               2297 |             0 |                0 |          487898 |                     0 |        191841 | 2017-02-05 22:51:16.555195+01

 2017-02-06 00:57:54.397106+01 | 1486339074.39711 |                 0 |              26 |                   796 |                   33 |               2297 |             0 |                0 |          487898 |                     0 |        191841 | 2017-02-05 22:51:16.555195+01

 2017-02-06 00:57:55.491849+01 | 1486339075.49185 |                 0 |              26 |                   796 |                   33 |               2297 |             0 |                0 |          487898 |                     0 |        191841 | 2017-02-05 22:51:16.555195+01

 2017-02-06 00:57:56.576199+01 | 1486339076.5762 |                 0 |              26 |                   796 |                   33 |               2297 |             0 |                0 |          487898 |                     0 |        191841 | 2017-02-05 22:51:16.555195+01

 2017-02-06 00:57:57.669945+01 | 1486339077.66995 |                 0 |              26 |                   796 |                   33 |               2297 |             0 |                0 |          487898 |                     0 |        191841 | 2017-02-05 22:51:16.555195+01

 2017-02-06 00:57:58.765246+01 | 1486339078.76525 |                 0 |              26 |                   796 |                   33 |               2297 |             0 |                0 |          487898 |                     0 |        191841 | 2017-02-05 22:51:16.555195+01

 2017-02-06 00:57:59.863137+01 | 1486339079.86314 |                 0 |              26 |                   796 |                   33 |               2297 |             0 |                0 |          487898 |                     0 |        191841 | 2017-02-05 22:51:16.555195+01

 2017-02-06 00:58:00.958029+01 | 1486339080.95803 |                 0 |              26 |                   796 |                   33 |               2297 |             0 |                0 |          487898 |                     0 |        191841 | 2017-02-05 22:51:16.555195+01

 2017-02-06 00:58:02.055902+01 | 1486339082.0559 |                 0 |              26 |                   796 |                   33 |               2297 |             0 |                0 |          487898 |                     0 |        191841 | 2017-02-05 22:51:16.555195+01

 2017-02-06 00:58:03.149249+01 | 1486339083.14925 |                 0 |              26 |                   796 |                   33 |               2297 |             0 |                0 |          487898 |                     0 |        191841 | 2017-02-05 22:51:16.555195+01

 2017-02-06 00:58:04.250308+01 | 1486339084.25031 |                 0 |              26 |                   796 |                   33 |               2297 |             0 |                0 |          487898 |                     0 |        191841 | 2017-02-05 22:51:16.555195+01

 2017-02-06 00:58:05.349674+01 | 1486339085.34967 |                 0 |              26 |                   796 |                   33 |               2297 |             0 |                0 |          487898 |                     0 |        191841 | 2017-02-05 22:51:16.555195+01

 2017-02-06 00:58:06.447614+01 | 1486339086.44761 |                 0 |              26 |                   796 |                   33 |               2297 |             0 |                0 |          487898 |                     0 |        191841 | 2017-02-05 22:51:16.555195+01

 2017-02-06 00:58:07.551979+01 | 1486339087.55198 |                 0 |              26 |                   796 |                   33 |               2297 |             0 |                0 |          487898 |                     0 |        191841 | 2017-02-05 22:51:16.555195+01

 2017-02-06 00:58:08.663127+01 | 1486339088.66313 |                 0 |              26 |                   796 |                   33 |               2297 |             0 |                0 |          487898 |                     0 |        191841 | 2017-02-05 22:51:16.555195+01

 2017-02-06 00:58:09.758727+01 | 1486339089.75873 |                 0 |              26 |                   796 |                   33 |               2297 |             0 |                0 |          487898 |                     0 |        191841 | 2017-02-05 22:51:16.555195+01

 2017-02-06 00:58:10.856975+01 | 1486339090.85698 |                 0 |              26 |                   796 |                   33 |               2297 |             0 |                0 |          487898 |                     0 |        191841 | 2017-02-05 22:51:16.555195+01

 2017-02-06 00:58:11.950006+01 | 1486339091.95001 |                 0 |              26 |                   796 |                   33 |               2297 |             0 |                0 |          487898 |                     0 |        191841 | 2017-02-05 22:51:16.555195+01

 2017-02-06 00:58:13.03496+01 | 1486339093.03496 |                 0 |              26 |                   796 |                   33 |               2297 |             0 |                0 |          487898 |                     0 |        191841 | 2017-02-05 22:51:16.555195+01

 2017-02-06 00:58:14.120475+01 | 1486339094.12048 |                 0 |              26 |                   796 |                   33 |               2297 |             0 |                0 |          487898 |                     0 |        191841 | 2017-02-05 22:51:16.555195+01

 2017-02-06 00:58:15.204546+01 | 1486339095.20455 |                 0 |              26 |                   796 |                   33 |               2297 |             0 |                0 |          487898 |                     0 |        191841 | 2017-02-05 22:51:16.555195+01

 2017-02-06 00:58:16.307435+01 | 1486339096.30744 |                 0 |              26 |                   796 |                   33 |               2297 |             0 |                0 |          487898 |                     0 |        191841 | 2017-02-05 22:51:16.555195+01

 2017-02-06 00:58:17.40607+01 | 1486339097.40607 |                 0 |              26 |                   796 |                   33 |               2297 |             0 |                0 |          487898 |                     0 |        191841 | 2017-02-05 22:51:16.555195+01

 2017-02-06 00:58:18.509213+01 | 1486339098.50921 |                 0 |              26 |                   796 |                   33 |               2297 |             0 |                0 |          487898 |                     0 |        191841 | 2017-02-05 22:51:16.555195+01

 2017-02-06 00:58:19.603087+01 | 1486339099.60309 |                 0 |              26 |                   796 |                   33 |               2297 |             0 |                0 |          487898 |                     0 |        191841 | 2017-02-05 22:51:16.555195+01

 2017-02-06 00:58:20.68737+01 | 1486339100.68737 |                 0 |              26 |                   796 |                   33 |               2297 |             0 |                0 |          487898 |                     0 |        191841 | 2017-02-05 22:51:16.555195+01

 2017-02-06 00:58:21.779276+01 | 1486339101.77928 |                 0 |              26 |                   796 |                   33 |               2297 |             0 |                0 |          487898 |                     0 |        191841 | 2017-02-05 22:51:16.555195+01

 2017-02-06 00:58:22.864153+01 | 1486339102.86415 |                 0 |              26 |                   796 |                   33 |               2297 |             0 |                0 |          487898 |                     0 |        191841 | 2017-02-05 22:51:16.555195+01

 2017-02-06 00:58:23.955068+01 | 1486339103.95507 |                 0 |              26 |                   796 |                   33 |               2297 |             0 |                0 |          487898 |                     0 |        191841 | 2017-02-05 22:51:16.555195+01

 2017-02-06 00:58:25.047987+01 | 1486339105.04799 |                 0 |              26 |                   796 |                   33 |               2297 |             0 |                0 |          487898 |                     0 |        191841 | 2017-02-05 22:51:16.555195+01

 2017-02-06 00:58:26.139776+01 | 1486339106.13978 |                 0 |              26 |                   796 |                   33 |               2297 |             0 |                0 |          487898 |                     0 |        191841 | 2017-02-05 22:51:16.555195+01

 2017-02-06 00:58:27.229082+01 | 1486339107.22908 |                 0 |              26 |                   796 |                   33 |               2297 |             0 |                0 |          487898 |                     0 |        191841 | 2017-02-05 22:51:16.555195+01

 2017-02-06 00:58:28.330477+01 | 1486339108.33048 |                 0 |              26 |                   796 |                   33 |               2297 |             0 |                0 |          487898 |                     0 |        191841 | 2017-02-05 22:51:16.555195+01

 2017-02-06 00:58:29.421648+01 | 1486339109.42165 |                 0 |              26 |                   796 |                   33 |               2297 |             0 |                0 |          487898 |                     0 |        191841 | 2017-02-05 22:51:16.555195+01

 2017-02-06 00:58:30.507634+01 | 1486339110.50763 |                 0 |              26 |                   796 |                   33 |               2297 |             0 |                0 |          487898 |                     0 |        191841 | 2017-02-05 22:51:16.555195+01

 2017-02-06 00:58:31.600112+01 | 1486339111.60011 |                 0 |              26 |                   796 |                   33 |               2297 |             0 |                0 |          487898 |                     0 |        191841 | 2017-02-05 22:51:16.555195+01

 2017-02-06 00:58:32.711721+01 | 1486339112.71172 |                 0 |              26 |                   796 |                   33 |               2297 |             0 |                0 |          487898 |                     0 |        191841 | 2017-02-05 22:51:16.555195+01

 2017-02-06 00:58:33.815139+01 | 1486339113.81514 |                 0 |              26 |                   796 |                   33 |               2297 |             0 |                0 |          487898 |                     0 |        191841 | 2017-02-05 22:51:16.555195+01

 2017-02-06 00:58:34.909606+01 | 1486339114.90961 |                 0 |              26 |                   796 |                   33 |               2297 |             0 |                0 |          487898 |                     0 |        191841 | 2017-02-05 22:51:16.555195+01

 2017-02-06 00:58:36.006366+01 | 1486339116.00637 |                 0 |              26 |                   796 |                   33 |               2297 |             0 |                0 |          487898 |                     0 |        191841 | 2017-02-05 22:51:16.555195+01

 2017-02-06 00:58:37.100718+01 | 1486339117.10072 |                 0 |              26 |                   796 |                   33 |               2297 |             0 |                0 |          487898 |                     0 |        191841 | 2017-02-05 22:51:16.555195+01

 2017-02-06 00:58:38.183467+01 | 1486339118.18347 |                 0 |              26 |                   796 |                   33 |               2297 |             0 |                0 |          487898 |                     0 |        191841 | 2017-02-05 22:51:16.555195+01

 2017-02-06 00:58:39.267629+01 | 1486339119.26763 |                 0 |              26 |                   796 |                   33 |               2297 |             0 |                0 |          487898 |                     0 |        191841 | 2017-02-05 22:51:16.555195+01

 2017-02-06 00:58:40.367838+01 | 1486339120.36784 |                 0 |              26 |                   796 |                   33 |               2297 |             0 |                0 |          487898 |                     0 |        191841 | 2017-02-05 22:51:16.555195+01

 2017-02-06 00:58:41.472324+01 | 1486339121.47232 |                 0 |              26 |                   796 |                   33 |               2297 |             0 |                0 |          487898 |                     0 |        191841 | 2017-02-05 22:51:16.555195+01

 2017-02-06 00:58:42.564768+01 | 1486339122.56477 |                 0 |              26 |                   796 |                   33 |               2297 |             0 |                0 |          487898 |                     0 |        191841 | 2017-02-05 22:51:16.555195+01

 2017-02-06 00:58:43.669116+01 | 1486339123.66912 |                 0 |              26 |                   796 |                   33 |               2297 |             0 |                0 |          487898 |                     0 |        191841 | 2017-02-05 22:51:16.555195+01

 2017-02-06 00:58:44.775344+01 | 1486339124.77534 |                 0 |              26 |                   796 |                   33 |               2297 |             0 |                0 |          487898 |                     0 |        191841 | 2017-02-05 22:51:16.555195+01

 2017-02-06 00:58:45.884314+01 | 1486339125.88431 |                 0 |              26 |                   796 |                   33 |               2297 |             0 |                0 |          487898 |                     0 |        191841 | 2017-02-05 22:51:16.555195+01

 2017-02-06 00:58:46.986201+01 | 1486339126.9862 |                 0 |              26 |                   796 |                   33 |               2297 |             0 |                0 |          487898 |                     0 |        191841 | 2017-02-05 22:51:16.555195+01

 2017-02-06 00:58:48.069915+01 | 1486339128.06992 |                 0 |              26 |                   796 |                   33 |               2297 |             0 |                0 |          487898 |                     0 |        191841 | 2017-02-05 22:51:16.555195+01

 2017-02-06 00:58:49.163166+01 | 1486339129.16317 |                 0 |              26 |                   796 |                   33 |               2297 |             0 |                0 |          487898 |                     0 |        191841 | 2017-02-05 22:51:16.555195+01

 2017-02-06 00:58:50.252527+01 | 1486339130.25253 |                 0 |              26 |                   796 |                   33 |               2297 |             0 |                0 |          487898 |                     0 |        191841 | 2017-02-05 22:51:16.555195+01

 2017-02-06 00:58:51.354158+01 | 1486339131.35416 |                 0 |              26 |                   796 |                   33 |               2297 |             0 |                0 |          487898 |                     0 |        191841 | 2017-02-05 22:51:16.555195+01

 2017-02-06 00:58:52.459757+01 | 1486339132.45976 |                 0 |              26 |                   796 |                   33 |               2297 |             0 |                0 |          487898 |                     0 |        191841 | 2017-02-05 22:51:16.555195+01

 2017-02-06 00:58:53.556214+01 | 1486339133.55621 |                 0 |              26 |                   796 |                   33 |               2297 |             0 |                0 |          487898 |                     0 |        191841 | 2017-02-05 22:51:16.555195+01

 2017-02-06 00:58:54.644457+01 | 1486339134.64446 |                 0 |              26 |                   796 |                   33 |               2297 |             0 |                0 |          487898 |                     0 |        191841 | 2017-02-05 22:51:16.555195+01

 2017-02-06 00:58:55.745643+01 | 1486339135.74564 |                 0 |              26 |                   796 |                   33 |               2297 |             0 |                0 |          487898 |                     0 |        191841 | 2017-02-05 22:51:16.555195+01

 2017-02-06 00:58:56.832363+01 | 1486339136.83236 |                 0 |              26 |                   796 |                   33 |               2297 |             0 |                0 |          487898 |                     0 |        191841 | 2017-02-05 22:51:16.555195+01

 2017-02-06 00:58:57.944966+01 | 1486339137.94497 |                 0 |              26 |                   796 |                   33 |               2297 |             0 |                0 |          487898 |                     0 |        191841 | 2017-02-05 22:51:16.555195+01

 2017-02-06 00:58:59.044192+01 | 1486339139.04419 |                 0 |              26 |                   796 |                   33 |               2297 |             0 |                0 |          487898 |                     0 |        191841 | 2017-02-05 22:51:16.555195+01

 2017-02-06 00:59:00.134761+01 | 1486339140.13476 |                 0 |              26 |                   796 |                   33 |               2297 |             0 |                0 |          487898 |                     0 |        191841 | 2017-02-05 22:51:16.555195+01

 2017-02-06 00:59:01.220093+01 | 1486339141.22009 |                 0 |              26 |                   796 |                   33 |               2297 |             0 |                0 |          487898 |                     0 |        191841 | 2017-02-05 22:51:16.555195+01

 2017-02-06 00:59:02.303023+01 | 1486339142.30302 |                 0 |              26 |                   796 |                   33 |               2297 |             0 |                0 |          487898 |                     0 |        191841 | 2017-02-05 22:51:16.555195+01

 2017-02-06 00:59:03.399331+01 | 1486339143.39933 |                 0 |              26 |                   796 |                   33 |               2297 |             0 |                0 |          487898 |                     0 |        191841 | 2017-02-05 22:51:16.555195+01

 2017-02-06 00:59:04.508144+01 | 1486339144.50814 |                 0 |              26 |                   796 |                   33 |               2297 |             0 |                0 |          487898 |                     0 |        191841 | 2017-02-05 22:51:16.555195+01

 2017-02-06 00:59:05.602515+01 | 1486339145.60251 |                 0 |              26 |                   796 |                   33 |               2297 |             0 |                0 |          487898 |                     0 |        191841 | 2017-02-05 22:51:16.555195+01

 2017-02-06 00:59:06.714972+01 | 1486339146.71497 |                 0 |              26 |                   796 |                   33 |               2297 |             0 |                0 |          487898 |                     0 |        191841 | 2017-02-05 22:51:16.555195+01

 2017-02-06 00:59:07.808093+01 | 1486339147.80809 |                 0 |              26 |                   796 |                   33 |               2297 |             0 |                0 |          487898 |                     0 |        191841 | 2017-02-05 22:51:16.555195+01

 2017-02-06 00:59:08.910066+01 | 1486339148.91007 |                 0 |              26 |                   796 |                   33 |               2297 |             0 |                0 |          487898 |                     0 |        191841 | 2017-02-05 22:51:16.555195+01

 2017-02-06 00:59:10.00883+01 | 1486339150.00883 |                 0 |              26 |                   796 |                   33 |               2297 |             0 |                0 |          487898 |                     0 |        191841 | 2017-02-05 22:51:16.555195+01

 2017-02-06 00:59:11.111809+01 | 1486339151.11181 |                 0 |              26 |                   796 |                   33 |               2297 |             0 |                0 |          487898 |                     0 |        191841 | 2017-02-05 22:51:16.555195+01

 2017-02-06 00:59:12.210992+01 | 1486339152.21099 |                 0 |              26 |                   796 |                   33 |               2297 |             0 |                0 |          487898 |                     0 |        191841 | 2017-02-05 22:51:16.555195+01

 2017-02-06 00:59:13.309251+01 | 1486339153.30925 |                 0 |              26 |                   796 |                   33 |               2297 |             0 |                0 |          487898 |                     0 |        191841 | 2017-02-05 22:51:16.555195+01

 2017-02-06 00:59:14.399093+01 | 1486339154.39909 |                 0 |              26 |                   796 |                   33 |               2297 |             0 |                0 |          487898 |                     0 |        191841 | 2017-02-05 22:51:16.555195+01

 2017-02-06 00:59:15.489978+01 | 1486339155.48998 |                 0 |              26 |                   796 |                   33 |               2297 |             0 |                0 |          487898 |                     0 |        191841 | 2017-02-05 22:51:16.555195+01

 2017-02-06 00:59:16.581154+01 | 1486339156.58115 |                 0 |              26 |                   796 |                   33 |               2297 |             0 |                0 |          487898 |                     0 |        191841 | 2017-02-05 22:51:16.555195+01

 2017-02-06 00:59:17.67121+01 | 1486339157.67121 |                 0 |              26 |                   796 |                   33 |               2297 |             0 |                0 |          487898 |                     0 |        191841 | 2017-02-05 22:51:16.555195+01

 2017-02-06 00:59:18.766762+01 | 1486339158.76676 |                 0 |              26 |                   796 |                   33 |               2297 |             0 |                0 |          487898 |                     0 |        191841 | 2017-02-05 22:51:16.555195+01

 2017-02-06 00:59:19.869098+01 | 1486339159.8691 |                 0 |              26 |                   796 |                   33 |               2297 |             0 |                0 |          487898 |                     0 |        191841 | 2017-02-05 22:51:16.555195+01

 2017-02-06 00:59:20.985801+01 | 1486339160.9858 |                 0 |              26 |                   796 |                   33 |               2297 |             0 |                0 |          487898 |                     0 |        191841 | 2017-02-05 22:51:16.555195+01

 2017-02-06 00:59:22.081015+01 | 1486339162.08102 |                 0 |              26 |                   796 |                   33 |               2297 |             0 |                0 |          487898 |                     0 |        191841 | 2017-02-05 22:51:16.555195+01

 2017-02-06 00:59:23.181107+01 | 1486339163.18111 |                 0 |              26 |                   796 |                   33 |               2297 |             0 |                0 |          487898 |                     0 |        191841 | 2017-02-05 22:51:16.555195+01

 2017-02-06 00:59:24.271847+01 | 1486339164.27185 |                 0 |              26 |                   796 |                   33 |               2297 |             0 |                0 |          487898 |                     0 |        191841 | 2017-02-05 22:51:16.555195+01

 2017-02-06 00:59:25.361964+01 | 1486339165.36196 |                 0 |              26 |                   796 |                   33 |               2297 |             0 |                0 |          487898 |                     0 |        191841 | 2017-02-05 22:51:16.555195+01

 2017-02-06 00:59:26.453755+01 | 1486339166.45375 |                 0 |              26 |                   796 |                   33 |               2297 |             0 |                0 |          487898 |                     0 |        191841 | 2017-02-05 22:51:16.555195+01

 2017-02-06 00:59:27.534085+01 | 1486339167.53409 |                 0 |              26 |                   796 |                   33 |               2297 |             0 |                0 |          487898 |                     0 |        191841 | 2017-02-05 22:51:16.555195+01

 2017-02-06 00:59:28.630892+01 | 1486339168.63089 |                 0 |              26 |                   796 |                   33 |               2297 |             0 |                0 |          487898 |                     0 |        191841 | 2017-02-05 22:51:16.555195+01

 2017-02-06 00:59:29.731262+01 | 1486339169.73126 |                 0 |              26 |                   796 |                   33 |               2297 |             0 |                0 |          487898 |                     0 |        191841 | 2017-02-05 22:51:16.555195+01

 2017-02-06 00:59:30.822748+01 | 1486339170.82275 |                 0 |              26 |                   796 |                   33 |               2297 |             0 |                0 |          487898 |                     0 |        191841 | 2017-02-05 22:51:16.555195+01

 2017-02-06 00:59:31.909223+01 | 1486339171.90922 |                 0 |              26 |                   796 |                   33 |               2297 |             0 |                0 |          487898 |                     0 |        191841 | 2017-02-05 22:51:16.555195+01

 2017-02-06 00:59:33.006262+01 | 1486339173.00626 |                 0 |              26 |                   796 |                   33 |               2297 |             0 |                0 |          487898 |                     0 |        191841 | 2017-02-05 22:51:16.555195+01

 2017-02-06 00:59:34.098241+01 | 1486339174.09824 |                 0 |              26 |                   796 |                   33 |               2297 |             0 |                0 |          487898 |                     0 |        191841 | 2017-02-05 22:51:16.555195+01

 2017-02-06 00:59:35.20557+01 | 1486339175.20557 |                 0 |              26 |                   796 |                   33 |               2297 |             0 |                0 |          487898 |                     0 |        191841 | 2017-02-05 22:51:16.555195+01

 2017-02-06 00:59:36.296585+01 | 1486339176.29659 |                 0 |              26 |                   796 |                   33 |               2297 |             0 |                0 |          487898 |                     0 |        191841 | 2017-02-05 22:51:16.555195+01

 2017-02-06 00:59:37.392684+01 | 1486339177.39268 |                 0 |              26 |                   796 |                   33 |               2297 |             0 |                0 |          487898 |                     0 |        191841 | 2017-02-05 22:51:16.555195+01

 2017-02-06 00:59:38.495431+01 | 1486339178.49543 |                 0 |              26 |                   796 |                   33 |               2297 |             0 |                0 |          487898 |                     0 |        191841 | 2017-02-05 22:51:16.555195+01

 2017-02-06 00:59:39.585789+01 | 1486339179.58579 |                 0 |              26 |                   796 |                   33 |               2297 |             0 |                0 |          487898 |                     0 |        191841 | 2017-02-05 22:51:16.555195+01

 2017-02-06 00:59:40.674635+01 | 1486339180.67463 |                 0 |              26 |                   796 |                   33 |               2297 |             0 |                0 |          487898 |                     0 |        191841 | 2017-02-05 22:51:16.555195+01

 2017-02-06 00:59:41.766041+01 | 1486339181.76604 |                 0 |              26 |                   796 |                   33 |               2297 |             0 |                0 |          487898 |                     0 |        191841 | 2017-02-05 22:51:16.555195+01

 2017-02-06 00:59:42.863008+01 | 1486339182.86301 |                 0 |              26 |                   796 |                   33 |               2297 |             0 |                0 |          487898 |                     0 |        191841 | 2017-02-05 22:51:16.555195+01

 2017-02-06 00:59:43.968012+01 | 1486339183.96801 |                 0 |              26 |                   796 |                   33 |               2297 |             0 |                0 |          487898 |                     0 |        191841 | 2017-02-05 22:51:16.555195+01

 2017-02-06 00:59:45.076289+01 | 1486339185.07629 |                 0 |              26 |                   796 |                   33 |               2297 |             0 |                0 |          487898 |                     0 |        191841 | 2017-02-05 22:51:16.555195+01

 2017-02-06 00:59:46.198232+01 | 1486339186.19823 |                 0 |              26 |                   796 |                   33 |               2297 |             0 |                0 |          487898 |                     0 |        191841 | 2017-02-05 22:51:16.555195+01

 2017-02-06 00:59:47.313472+01 | 1486339187.31347 |                 0 |              26 |                   796 |                   33 |               2297 |             0 |                0 |          487898 |                     0 |        191841 | 2017-02-05 22:51:16.555195+01

 2017-02-06 00:59:48.412933+01 | 1486339188.41293 |                 0 |              26 |                   796 |                   33 |               2297 |             0 |                0 |          487898 |                     0 |        191841 | 2017-02-05 22:51:16.555195+01

 2017-02-06 00:59:49.509288+01 | 1486339189.50929 |                 0 |              26 |                   796 |                   33 |               2297 |             0 |                0 |          487898 |                     0 |        191841 | 2017-02-05 22:51:16.555195+01

 2017-02-06 00:59:50.606305+01 | 1486339190.6063 |                 0 |              26 |                   796 |                   33 |               2297 |             0 |                0 |          487898 |                     0 |        191841 | 2017-02-05 22:51:16.555195+01

 2017-02-06 00:59:51.686784+01 | 1486339191.68678 |                 0 |              26 |                   796 |                   33 |               2297 |             0 |                0 |          487898 |                     0 |        191841 | 2017-02-05 22:51:16.555195+01

 2017-02-06 00:59:52.793556+01 | 1486339192.79356 |                 0 |              26 |                   796 |                   33 |               2297 |             0 |                0 |          487898 |                     0 |        191841 | 2017-02-05 22:51:16.555195+01

 2017-02-06 00:59:53.87138+01 | 1486339193.87138 |                 0 |              26 |                   796 |                   33 |               2297 |             0 |                0 |          487898 |                     0 |        191841 | 2017-02-05 22:51:16.555195+01

 2017-02-06 00:59:54.967413+01 | 1486339194.96741 |                 0 |              26 |                   796 |                   33 |               2297 |             0 |                0 |          487898 |                     0 |        191841 | 2017-02-05 22:51:16.555195+01

 2017-02-06 00:59:56.0564+01 | 1486339196.0564 |                 0 |              26 |                   796 |                   33 |               2297 |             0 |                0 |          487898 |                     0 |        191841 | 2017-02-05 22:51:16.555195+01

 2017-02-06 00:59:57.146109+01 | 1486339197.14611 |                 0 |              26 |                   796 |                   33 |               2297 |             0 |                0 |          487898 |                     0 |        191841 | 2017-02-05 22:51:16.555195+01

 2017-02-06 00:59:58.254376+01 | 1486339198.25438 |                 0 |              26 |                   796 |                   33 |               2297 |             0 |                0 |          487898 |                     0 |        191841 | 2017-02-05 22:51:16.555195+01

 2017-02-06 00:59:59.356813+01 | 1486339199.35681 |                 0 |              26 |                   796 |                   33 |               2297 |             0 |                0 |          487898 |                     0 |        191841 | 2017-02-05 22:51:16.555195+01

 2017-02-06 01:00:00.466001+01 | 1486339200.466 |                 0 |              26 |                   796 |                   33 |               2297 |             0 |                0 |          487898 |                     0 |        191841 | 2017-02-05 22:51:16.555195+01

 2017-02-06 01:00:01.572578+01 | 1486339201.57258 |                 0 |              26 |                   796 |                   33 |               2297 |             0 |                0 |          487898 |                     0 |        191841 | 2017-02-05 22:51:16.555195+01

 2017-02-06 01:00:02.666602+01 | 1486339202.6666 |                 0 |              26 |                   796 |                   33 |               2297 |             0 |                0 |          487898 |                     0 |        191841 | 2017-02-05 22:51:16.555195+01

 2017-02-06 01:00:03.760963+01 | 1486339203.76096 |                 0 |              26 |                   796 |                   33 |               2297 |             0 |                0 |          487898 |                     0 |        191841 | 2017-02-05 22:51:16.555195+01

 2017-02-06 01:00:04.860644+01 | 1486339204.86064 |                 0 |              26 |                   796 |                   33 |               2297 |             0 |                0 |          487898 |                     0 |        191841 | 2017-02-05 22:51:16.555195+01

 2017-02-06 01:00:05.966866+01 | 1486339205.96687 |                 0 |              26 |                   796 |                   33 |               2297 |             0 |                0 |          487898 |                     0 |        191841 | 2017-02-05 22:51:16.555195+01

 2017-02-06 01:00:07.06056+01 | 1486339207.06056 |                 0 |              26 |                   796 |                   33 |               2297 |             0 |                0 |          487898 |                     0 |        191841 | 2017-02-05 22:51:16.555195+01

 2017-02-06 01:00:08.155299+01 | 1486339208.1553 |                 0 |              26 |                   796 |                   33 |               2297 |             0 |                0 |          487898 |                     0 |        191841 | 2017-02-05 22:51:16.555195+01

 2017-02-06 01:00:09.241153+01 | 1486339209.24115 |                 0 |              26 |                   796 |                   33 |               2297 |             0 |                0 |          487898 |                     0 |        191841 | 2017-02-05 22:51:16.555195+01

 2017-02-06 01:00:10.349221+01 | 1486339210.34922 |                 0 |              26 |                   796 |                   33 |               2297 |             0 |                0 |          487898 |                     0 |        191841 | 2017-02-05 22:51:16.555195+01

 2017-02-06 01:00:11.446648+01 | 1486339211.44665 |                 0 |              26 |                   796 |                   33 |               2297 |             0 |                0 |          487898 |                     0 |        191841 | 2017-02-05 22:51:16.555195+01

 2017-02-06 01:00:12.545279+01 | 1486339212.54528 |                 0 |              26 |                   796 |                   33 |               2297 |             0 |                0 |          487898 |                     0 |        191841 | 2017-02-05 22:51:16.555195+01

 2017-02-06 01:00:13.655027+01 | 1486339213.65503 |                 0 |              26 |                   796 |                   33 |               2297 |             0 |                0 |          487898 |                     0 |        191841 | 2017-02-05 22:51:16.555195+01

 2017-02-06 01:00:14.748533+01 | 1486339214.74853 |                 0 |              26 |                   796 |                   33 |               2297 |             0 |                0 |          487898 |                     0 |        191841 | 2017-02-05 22:51:16.555195+01

 2017-02-06 01:00:15.850031+01 | 1486339215.85003 |                 0 |              26 |                   796 |                   33 |               2297 |             0 |                0 |          487898 |                     0 |        191841 | 2017-02-05 22:51:16.555195+01

 2017-02-06 01:00:16.949141+01 | 1486339216.94914 |                 0 |              26 |                   796 |                   33 |               2297 |             0 |                0 |          487898 |                     0 |        191841 | 2017-02-05 22:51:16.555195+01

 2017-02-06 01:00:18.034403+01 | 1486339218.0344 |                 0 |              26 |                   796 |                   33 |               2297 |             0 |                0 |          487898 |                     0 |        191841 | 2017-02-05 22:51:16.555195+01

 2017-02-06 01:00:19.133003+01 | 1486339219.133 |                 0 |              26 |                   796 |                   33 |               2297 |             0 |                0 |          487898 |                     0 |        191841 | 2017-02-05 22:51:16.555195+01

 2017-02-06 01:00:20.227693+01 | 1486339220.22769 |                 0 |              26 |                   796 |                   33 |               2297 |             0 |                0 |          487898 |                     0 |        191841 | 2017-02-05 22:51:16.555195+01

 2017-02-06 01:00:21.342205+01 | 1486339221.34221 |                 0 |              26 |                   796 |                   33 |               2297 |             0 |                0 |          487898 |                     0 |        191841 | 2017-02-05 22:51:16.555195+01

 2017-02-06 01:00:22.450606+01 | 1486339222.45061 |                 0 |              26 |                   796 |                   33 |               2297 |             0 |                0 |          487898 |                     0 |        191841 | 2017-02-05 22:51:16.555195+01

 2017-02-06 01:00:23.537021+01 | 1486339223.53702 |                 0 |              26 |                   796 |                   33 |               2297 |             0 |                0 |          487898 |                     0 |        191841 | 2017-02-05 22:51:16.555195+01

 2017-02-06 01:00:24.641226+01 | 1486339224.64123 |                 0 |              26 |                   796 |                   33 |               2297 |             0 |                0 |          487898 |                     0 |        191841 | 2017-02-05 22:51:16.555195+01

 2017-02-06 01:00:25.743214+01 | 1486339225.74321 |                 0 |              26 |                   796 |                   33 |               2297 |             0 |                0 |          487898 |                     0 |        191841 | 2017-02-05 22:51:16.555195+01

 2017-02-06 01:00:26.849091+01 | 1486339226.84909 |                 0 |              26 |                   796 |                   33 |               2297 |             0 |                0 |          487898 |                     0 |        191841 | 2017-02-05 22:51:16.555195+01

 2017-02-06 01:00:27.943388+01 | 1486339227.94339 |                 0 |              26 |                   796 |                   33 |               2297 |             0 |                0 |          487898 |                     0 |        191841 | 2017-02-05 22:51:16.555195+01

 2017-02-06 01:00:29.029256+01 | 1486339229.02926 |                 0 |              26 |                   796 |                   33 |               2297 |             0 |                0 |          487898 |                     0 |        191841 | 2017-02-05 22:51:16.555195+01

 2017-02-06 01:00:30.122327+01 | 1486339230.12233 |                 0 |              26 |                   796 |                   33 |               2297 |             0 |                0 |          487898 |                     0 |        191841 | 2017-02-05 22:51:16.555195+01

 2017-02-06 01:00:31.215588+01 | 1486339231.21559 |                 0 |              26 |                   796 |                   33 |               2297 |             0 |                0 |          487898 |                     0 |        191841 | 2017-02-05 22:51:16.555195+01

 2017-02-06 01:00:32.304551+01 | 1486339232.30455 |                 0 |              26 |                   796 |                   33 |               2297 |             0 |                0 |          487898 |                     0 |        191841 | 2017-02-05 22:51:16.555195+01

 2017-02-06 01:00:33.401937+01 | 1486339233.40194 |                 0 |              26 |                   796 |                   33 |               2297 |             0 |                0 |          487898 |                     0 |        191841 | 2017-02-05 22:51:16.555195+01

 2017-02-06 01:00:34.501281+01 | 1486339234.50128 |                 0 |              26 |                   796 |                   33 |               2297 |             0 |                0 |          487898 |                     0 |        191841 | 2017-02-05 22:51:16.555195+01

 2017-02-06 01:00:35.588101+01 | 1486339235.5881 |                 0 |              26 |                   796 |                   33 |               2297 |             0 |                0 |          487898 |                     0 |        191841 | 2017-02-05 22:51:16.555195+01

 2017-02-06 01:00:36.678635+01 | 1486339236.67863 |                 0 |              26 |                   796 |                   33 |               2297 |             0 |                0 |          487898 |                     0 |        191841 | 2017-02-05 22:51:16.555195+01

 2017-02-06 01:00:37.782941+01 | 1486339237.78294 |                 0 |              26 |                   796 |                   33 |               2297 |             0 |                0 |          487898 |                     0 |        191841 | 2017-02-05 22:51:16.555195+01

 2017-02-06 01:00:38.87448+01 | 1486339238.87448 |                 0 |              26 |                   796 |                   33 |               2297 |             0 |                0 |          487898 |                     0 |        191841 | 2017-02-05 22:51:16.555195+01

 2017-02-06 01:00:39.965183+01 | 1486339239.96518 |                 0 |              26 |                   796 |                   33 |               2297 |             0 |                0 |          487898 |                     0 |        191841 | 2017-02-05 22:51:16.555195+01

 2017-02-06 01:00:41.053644+01 | 1486339241.05364 |                 0 |              26 |                   796 |                   33 |               2297 |             0 |                0 |          487898 |                     0 |        191841 | 2017-02-05 22:51:16.555195+01

 2017-02-06 01:00:42.138621+01 | 1486339242.13862 |                 0 |              26 |                   796 |                   33 |               2297 |             0 |                0 |          487898 |                     0 |        191841 | 2017-02-05 22:51:16.555195+01

 2017-02-06 01:00:43.232908+01 | 1486339243.23291 |                 0 |              26 |                   796 |                   33 |               2297 |             0 |                0 |          487898 |                     0 |        191841 | 2017-02-05 22:51:16.555195+01

 2017-02-06 01:00:44.331131+01 | 1486339244.33113 |                 0 |              26 |                   796 |                   33 |               2297 |             0 |                0 |          487898 |                     0 |        191841 | 2017-02-05 22:51:16.555195+01

 2017-02-06 01:00:45.424948+01 | 1486339245.42495 |                 0 |              26 |                   796 |                   33 |               2297 |             0 |                0 |          487898 |                     0 |        191841 | 2017-02-05 22:51:16.555195+01

 2017-02-06 01:00:46.53727+01 | 1486339246.53727 |                 0 |              26 |                   796 |                   33 |               2297 |             0 |                0 |          487898 |                     0 |        191841 | 2017-02-05 22:51:16.555195+01

 2017-02-06 01:00:47.641694+01 | 1486339247.64169 |                 0 |              26 |                   796 |                   33 |               2297 |             0 |                0 |          487898 |                     0 |        191841 | 2017-02-05 22:51:16.555195+01

 2017-02-06 01:00:48.729949+01 | 1486339248.72995 |                 0 |              26 |                   796 |                   33 |               2297 |             0 |                0 |          487898 |                     0 |        191841 | 2017-02-05 22:51:16.555195+01

 2017-02-06 01:00:49.824312+01 | 1486339249.82431 |                 0 |              26 |                   796 |                   33 |               2297 |             0 |                0 |          487898 |                     0 |        191841 | 2017-02-05 22:51:16.555195+01

 2017-02-06 01:00:50.930424+01 | 1486339250.93042 |                 0 |              26 |                   796 |                   33 |               2297 |             0 |                0 |          487898 |                     0 |        191841 | 2017-02-05 22:51:16.555195+01

 2017-02-06 01:00:52.021736+01 | 1486339252.02174 |                 0 |              26 |                   796 |                   33 |               2297 |             0 |                0 |          487898 |                     0 |        191841 | 2017-02-05 22:51:16.555195+01

 2017-02-06 01:00:53.108128+01 | 1486339253.10813 |                 0 |              26 |                   796 |                   33 |               2297 |             0 |                0 |          487898 |                     0 |        191841 | 2017-02-05 22:51:16.555195+01

 2017-02-06 01:00:54.199238+01 | 1486339254.19924 |                 0 |              26 |                   796 |                   33 |               2297 |             0 |                0 |          487898 |                     0 |        191841 | 2017-02-05 22:51:16.555195+01

 2017-02-06 01:00:55.282269+01 | 1486339255.28227 |                 0 |              26 |                   796 |                   33 |               2297 |             0 |                0 |          487898 |                     0 |        191841 | 2017-02-05 22:51:16.555195+01

 2017-02-06 01:00:56.370011+01 | 1486339256.37001 |                 0 |              26 |                   796 |                   33 |               2297 |             0 |                0 |          487898 |                     0 |        191841 | 2017-02-05 22:51:16.555195+01

 2017-02-06 01:00:57.47465+01 | 1486339257.47465 |                 0 |              26 |                   796 |                   33 |               2297 |             0 |                0 |          487898 |                     0 |        191841 | 2017-02-05 22:51:16.555195+01

 2017-02-06 01:00:58.577257+01 | 1486339258.57726 |                 0 |              26 |                   796 |                   33 |               2297 |             0 |                0 |          487898 |                     0 |        191841 | 2017-02-05 22:51:16.555195+01

 2017-02-06 01:00:59.672097+01 | 1486339259.6721 |                 0 |              26 |                   796 |                   33 |               2297 |             0 |                0 |          487898 |                     0 |        191841 | 2017-02-05 22:51:16.555195+01

 2017-02-06 01:01:00.760778+01 | 1486339260.76078 |                 0 |              26 |                   796 |                   33 |               2297 |             0 |                0 |          487898 |                     0 |        191841 | 2017-02-05 22:51:16.555195+01

 2017-02-06 01:01:01.872161+01 | 1486339261.87216 |                 0 |              26 |                   796 |                   33 |               2297 |             0 |                0 |          487898 |                     0 |        191841 | 2017-02-05 22:51:16.555195+01

 2017-02-06 01:01:02.971943+01 | 1486339262.97194 |                 0 |              26 |                   796 |                   33 |               2297 |             0 |                0 |          487898 |                     0 |        191841 | 2017-02-05 22:51:16.555195+01

 2017-02-06 01:01:04.065671+01 | 1486339264.06567 |                 0 |              26 |                   796 |                   33 |               2297 |             0 |                0 |          487898 |                     0 |        191841 | 2017-02-05 22:51:16.555195+01

 2017-02-06 01:01:05.162504+01 | 1486339265.1625 |                 0 |              26 |                   796 |                   33 |               2297 |             0 |                0 |          487898 |                     0 |        191841 | 2017-02-05 22:51:16.555195+01

 2017-02-06 01:01:06.250483+01 | 1486339266.25048 |                 0 |              26 |                   796 |                   33 |               2297 |             0 |                0 |          487898 |                     0 |        191841 | 2017-02-05 22:51:16.555195+01

 2017-02-06 01:01:07.345032+01 | 1486339267.34503 |                 0 |              26 |                   796 |                   33 |               2297 |             0 |                0 |          487898 |                     0 |        191841 | 2017-02-05 22:51:16.555195+01

 2017-02-06 01:01:08.443768+01 | 1486339268.44377 |                 0 |              26 |                   796 |                   33 |               2297 |             0 |                0 |          487898 |                     0 |        191841 | 2017-02-05 22:51:16.555195+01

 2017-02-06 01:01:09.547082+01 | 1486339269.54708 |                 0 |              26 |                   796 |                   33 |               2297 |             0 |                0 |          487898 |                     0 |        191841 | 2017-02-05 22:51:16.555195+01

 2017-02-06 01:01:10.640283+01 | 1486339270.64028 |                 0 |              26 |                   796 |                   33 |               2297 |             0 |                0 |          487898 |                     0 |        191841 | 2017-02-05 22:51:16.555195+01

 2017-02-06 01:01:11.727013+01 | 1486339271.72701 |                 0 |              26 |                   796 |                   33 |               2297 |             0 |                0 |          487898 |                     0 |        191841 | 2017-02-05 22:51:16.555195+01

 2017-02-06 01:01:12.83165+01 | 1486339272.83165 |                 0 |              26 |                   796 |                   33 |               2297 |             0 |                0 |          487898 |                     0 |        191841 | 2017-02-05 22:51:16.555195+01

 2017-02-06 01:01:13.93672+01 | 1486339273.93672 |                 0 |              26 |                   796 |                   33 |               2297 |             0 |                0 |          487898 |                     0 |        191841 | 2017-02-05 22:51:16.555195+01

 2017-02-06 01:01:15.056906+01 | 1486339275.05691 |                 0 |              26 |                   796 |                   33 |               2297 |             0 |                0 |          487898 |                     0 |        191841 | 2017-02-05 22:51:16.555195+01

 2017-02-06 01:01:16.149558+01 | 1486339276.14956 |                 0 |              26 |                   796 |                   33 |               2297 |             0 |                0 |          487898 |                     0 |        191841 | 2017-02-05 22:51:16.555195+01

 2017-02-06 01:01:17.244068+01 | 1486339277.24407 |                 0 |              26 |                   796 |                   33 |               2297 |             0 |                0 |          487898 |                     0 |        191841 | 2017-02-05 22:51:16.555195+01

 2017-02-06 01:01:18.337654+01 | 1486339278.33765 |                 0 |              26 |                   796 |                   33 |               2297 |             0 |                0 |          487898 |                     0 |        191841 | 2017-02-05 22:51:16.555195+01

 2017-02-06 01:01:19.437166+01 | 1486339279.43717 |                 0 |              26 |                   796 |                   33 |               2297 |             0 |                0 |          487898 |                     0 |        191841 | 2017-02-05 22:51:16.555195+01

 2017-02-06 01:01:20.531333+01 | 1486339280.53133 |                 0 |              26 |                   796 |                   33 |               2297 |             0 |                0 |          487898 |                     0 |        191841 | 2017-02-05 22:51:16.555195+01

 2017-02-06 01:01:21.633938+01 | 1486339281.63394 |                 0 |              26 |                   796 |                   33 |               2297 |             0 |                0 |          487898 |                     0 |        191841 | 2017-02-05 22:51:16.555195+01

 2017-02-06 01:01:22.720078+01 | 1486339282.72008 |                 0 |              26 |                   796 |                   33 |               2297 |             0 |                0 |          487898 |                     0 |        191841 | 2017-02-05 22:51:16.555195+01

 2017-02-06 01:01:23.811535+01 | 1486339283.81153 |                 0 |              26 |                   796 |                   33 |               2297 |             0 |                0 |          487898 |                     0 |        191841 | 2017-02-05 22:51:16.555195+01

 2017-02-06 01:01:24.915934+01 | 1486339284.91593 |                 0 |              26 |                   796 |                   33 |               2297 |             0 |                0 |          487898 |                     0 |        191841 | 2017-02-05 22:51:16.555195+01

 2017-02-06 01:01:26.025032+01 | 1486339286.02503 |                 0 |              26 |                   796 |                   33 |               2297 |             0 |                0 |          487898 |                     0 |        191841 | 2017-02-05 22:51:16.555195+01

 2017-02-06 01:01:27.136519+01 | 1486339287.13652 |                 0 |              26 |                   796 |                   33 |               2297 |             0 |                0 |          487898 |                     0 |        191841 | 2017-02-05 22:51:16.555195+01

 2017-02-06 01:01:28.225026+01 | 1486339288.22503 |                 0 |              26 |                   796 |                   33 |               2297 |             0 |                0 |          487898 |                     0 |        191841 | 2017-02-05 22:51:16.555195+01

 2017-02-06 01:01:29.315726+01 | 1486339289.31573 |                 0 |              26 |                   796 |                   33 |               2297 |             0 |                0 |          487898 |                     0 |        191841 | 2017-02-05 22:51:16.555195+01

 2017-02-06 01:01:30.423764+01 | 1486339290.42376 |                 0 |              26 |                   796 |                   33 |               2297 |             0 |                0 |          487898 |                     0 |        191841 | 2017-02-05 22:51:16.555195+01

 2017-02-06 01:01:31.520497+01 | 1486339291.5205 |                 0 |              26 |                   796 |                   33 |               2297 |             0 |                0 |          487898 |                     0 |        191841 | 2017-02-05 22:51:16.555195+01

 2017-02-06 01:01:32.617498+01 | 1486339292.6175 |                 0 |              26 |                   796 |                   33 |               2297 |             0 |                0 |          487898 |                     0 |        191841 | 2017-02-05 22:51:16.555195+01

 2017-02-06 01:01:33.708604+01 | 1486339293.7086 |                 0 |              26 |                   796 |                   33 |               2297 |             0 |                0 |          487898 |                     0 |        191841 | 2017-02-05 22:51:16.555195+01

 2017-02-06 01:01:34.800294+01 | 1486339294.80029 |                 0 |              26 |                   796 |                   33 |               2297 |             0 |                0 |          487898 |                     0 |        191841 | 2017-02-05 22:51:16.555195+01

 2017-02-06 01:01:35.893572+01 | 1486339295.89357 |                 0 |              26 |                   796 |                   33 |               2297 |             0 |                0 |          487898 |                     0 |        191841 | 2017-02-05 22:51:16.555195+01

 2017-02-06 01:01:36.985638+01 | 1486339296.98564 |                 0 |              26 |                   796 |                   33 |               2297 |             0 |                0 |          487898 |                     0 |        191841 | 2017-02-05 22:51:16.555195+01

 2017-02-06 01:01:38.090618+01 | 1486339298.09062 |                 0 |              26 |                   796 |                   33 |               2297 |             0 |                0 |          487898 |                     0 |        191841 | 2017-02-05 22:51:16.555195+01

 2017-02-06 01:01:39.207106+01 | 1486339299.20711 |                 0 |              26 |                   796 |                   33 |               2297 |             0 |                0 |          487898 |                     0 |        191841 | 2017-02-05 22:51:16.555195+01

 2017-02-06 01:01:40.307571+01 | 1486339300.30757 |                 0 |              26 |                   796 |                   33 |               2297 |             0 |                0 |          487898 |                     0 |        191841 | 2017-02-05 22:51:16.555195+01

 2017-02-06 01:01:41.398287+01 | 1486339301.39829 |                 0 |              26 |                   796 |                   33 |               2297 |             0 |                0 |          487898 |                     0 |        191841 | 2017-02-05 22:51:16.555195+01

 2017-02-06 01:01:42.487765+01 | 1486339302.48777 |                 0 |              26 |                   796 |                   33 |               2297 |             0 |                0 |          487898 |                     0 |        191841 | 2017-02-05 22:51:16.555195+01

 2017-02-06 01:01:43.580224+01 | 1486339303.58022 |                 0 |              26 |                   796 |                   33 |               2297 |             0 |                0 |          487898 |                     0 |        191841 | 2017-02-05 22:51:16.555195+01

 2017-02-06 01:01:44.680229+01 | 1486339304.68023 |                 0 |              26 |                   796 |                   33 |               2297 |             0 |                0 |          487898 |                     0 |        191841 | 2017-02-05 22:51:16.555195+01

