 2017-02-04 14:51:25.078259+01 | 1486216285.07826 | pgbench_accounts |      13586219008
 2017-02-04 14:51:25.078259+01 | 1486216285.07826 | pgbench_tellers  |          9240576
 2017-02-04 14:51:25.078259+01 | 1486216285.07826 | pgbench_history  |           352256
 2017-02-04 14:51:25.078259+01 | 1486216285.07826 | pgbench_branches |          7479296

 2017-02-04 14:51:26.157854+01 | 1486216286.15785 | pgbench_accounts |      13586350080
 2017-02-04 14:51:26.157854+01 | 1486216286.15785 | pgbench_tellers  |          9240576
 2017-02-04 14:51:26.157854+01 | 1486216286.15785 | pgbench_history  |          1261568
 2017-02-04 14:51:26.157854+01 | 1486216286.15785 | pgbench_branches |          7479296

 2017-02-04 14:51:27.236662+01 | 1486216287.23666 | pgbench_accounts |      13586350080
 2017-02-04 14:51:27.236662+01 | 1486216287.23666 | pgbench_tellers  |          9240576
 2017-02-04 14:51:27.236662+01 | 1486216287.23666 | pgbench_history  |          2179072
 2017-02-04 14:51:27.236662+01 | 1486216287.23666 | pgbench_branches |          7479296

 2017-02-04 14:51:28.319221+01 | 1486216288.31922 | pgbench_accounts |      13586423808
 2017-02-04 14:51:28.319221+01 | 1486216288.31922 | pgbench_tellers  |          9240576
 2017-02-04 14:51:28.319221+01 | 1486216288.31922 | pgbench_history  |          3219456
 2017-02-04 14:51:28.319221+01 | 1486216288.31922 | pgbench_branches |          7479296

 2017-02-04 14:51:29.407706+01 | 1486216289.40771 | pgbench_accounts |      13586481152
 2017-02-04 14:51:29.407706+01 | 1486216289.40771 | pgbench_tellers  |          9240576
 2017-02-04 14:51:29.407706+01 | 1486216289.40771 | pgbench_history  |          4808704
 2017-02-04 14:51:29.407706+01 | 1486216289.40771 | pgbench_branches |          7479296

 2017-02-04 14:51:30.484173+01 | 1486216290.48417 | pgbench_accounts |      13586530304
 2017-02-04 14:51:30.484173+01 | 1486216290.48417 | pgbench_tellers  |          9240576
 2017-02-04 14:51:30.484173+01 | 1486216290.48417 | pgbench_history  |          5701632
 2017-02-04 14:51:30.484173+01 | 1486216290.48417 | pgbench_branches |          7479296

 2017-02-04 14:51:31.559144+01 | 1486216291.55914 | pgbench_accounts |      13586612224
 2017-02-04 14:51:31.559144+01 | 1486216291.55914 | pgbench_tellers  |          9240576
 2017-02-04 14:51:31.559144+01 | 1486216291.55914 | pgbench_history  |          7299072
 2017-02-04 14:51:31.559144+01 | 1486216291.55914 | pgbench_branches |          7479296

 2017-02-04 14:51:32.637988+01 | 1486216292.63799 | pgbench_accounts |      13586653184
 2017-02-04 14:51:32.637988+01 | 1486216292.63799 | pgbench_tellers  |          9240576
 2017-02-04 14:51:32.637988+01 | 1486216292.63799 | pgbench_history  |          8257536
 2017-02-04 14:51:32.637988+01 | 1486216292.63799 | pgbench_branches |          7479296

 2017-02-04 14:51:33.71593+01 | 1486216293.71593 | pgbench_accounts |      13586743296
 2017-02-04 14:51:33.71593+01 | 1486216293.71593 | pgbench_tellers  |          9240576
 2017-02-04 14:51:33.71593+01 | 1486216293.71593 | pgbench_history  |          9691136
 2017-02-04 14:51:33.71593+01 | 1486216293.71593 | pgbench_branches |          7479296

 2017-02-04 14:51:34.792075+01 | 1486216294.79207 | pgbench_accounts |      13586751488
 2017-02-04 14:51:34.792075+01 | 1486216294.79207 | pgbench_tellers  |          9240576
 2017-02-04 14:51:34.792075+01 | 1486216294.79207 | pgbench_history  |         10731520
 2017-02-04 14:51:34.792075+01 | 1486216294.79207 | pgbench_branches |          7479296

 2017-02-04 14:51:35.868176+01 | 1486216295.86818 | pgbench_accounts |      13586808832
 2017-02-04 14:51:35.868176+01 | 1486216295.86818 | pgbench_tellers  |          9240576
 2017-02-04 14:51:35.868176+01 | 1486216295.86818 | pgbench_history  |         11968512
 2017-02-04 14:51:35.868176+01 | 1486216295.86818 | pgbench_branches |          7479296

 2017-02-04 14:51:36.952195+01 | 1486216296.95219 | pgbench_accounts |      13586866176
 2017-02-04 14:51:36.952195+01 | 1486216296.95219 | pgbench_tellers  |          9240576
 2017-02-04 14:51:36.952195+01 | 1486216296.95219 | pgbench_history  |         12648448
 2017-02-04 14:51:36.952195+01 | 1486216296.95219 | pgbench_branches |          7479296

 2017-02-04 14:51:38.029826+01 | 1486216298.02983 | pgbench_accounts |      13586882560
 2017-02-04 14:51:38.029826+01 | 1486216298.02983 | pgbench_tellers  |          9240576
 2017-02-04 14:51:38.029826+01 | 1486216298.02983 | pgbench_history  |         14049280
 2017-02-04 14:51:38.029826+01 | 1486216298.02983 | pgbench_branches |          7479296

 2017-02-04 14:51:39.109741+01 | 1486216299.10974 | pgbench_accounts |      13586948096
 2017-02-04 14:51:39.109741+01 | 1486216299.10974 | pgbench_tellers  |          9240576
 2017-02-04 14:51:39.109741+01 | 1486216299.10974 | pgbench_history  |         15245312
 2017-02-04 14:51:39.109741+01 | 1486216299.10974 | pgbench_branches |          7479296

 2017-02-04 14:51:40.182258+01 | 1486216300.18226 | pgbench_accounts |      13587013632
 2017-02-04 14:51:40.182258+01 | 1486216300.18226 | pgbench_tellers  |          9240576
 2017-02-04 14:51:40.182258+01 | 1486216300.18226 | pgbench_history  |         16187392
 2017-02-04 14:51:40.182258+01 | 1486216300.18226 | pgbench_branches |          7479296

 2017-02-04 14:51:41.256959+01 | 1486216301.25696 | pgbench_accounts |      13587054592
 2017-02-04 14:51:41.256959+01 | 1486216301.25696 | pgbench_tellers  |          9240576
 2017-02-04 14:51:41.256959+01 | 1486216301.25696 | pgbench_history  |         17416192
 2017-02-04 14:51:41.256959+01 | 1486216301.25696 | pgbench_branches |          7479296

 2017-02-04 14:51:42.331517+01 | 1486216302.33152 | pgbench_accounts |      13587103744
 2017-02-04 14:51:42.331517+01 | 1486216302.33152 | pgbench_tellers  |          9240576
 2017-02-04 14:51:42.331517+01 | 1486216302.33152 | pgbench_history  |         18300928
 2017-02-04 14:51:42.331517+01 | 1486216302.33152 | pgbench_branches |          7479296

 2017-02-04 14:51:43.407715+01 | 1486216303.40772 | pgbench_accounts |      13587136512
 2017-02-04 14:51:43.407715+01 | 1486216303.40772 | pgbench_tellers  |          9240576
 2017-02-04 14:51:43.407715+01 | 1486216303.40772 | pgbench_history  |         19496960
 2017-02-04 14:51:43.407715+01 | 1486216303.40772 | pgbench_branches |          7479296

 2017-02-04 14:51:44.482377+01 | 1486216304.48238 | pgbench_accounts |      13587193856
 2017-02-04 14:51:44.482377+01 | 1486216304.48238 | pgbench_tellers  |          9240576
 2017-02-04 14:51:44.482377+01 | 1486216304.48238 | pgbench_history  |         20537344
 2017-02-04 14:51:44.482377+01 | 1486216304.48238 | pgbench_branches |          7479296

 2017-02-04 14:51:45.561913+01 | 1486216305.56191 | pgbench_accounts |      13587243008
 2017-02-04 14:51:45.561913+01 | 1486216305.56191 | pgbench_tellers  |          9240576
 2017-02-04 14:51:45.561913+01 | 1486216305.56191 | pgbench_history  |         21602304
 2017-02-04 14:51:45.561913+01 | 1486216305.56191 | pgbench_branches |          7479296

 2017-02-04 14:51:46.637136+01 | 1486216306.63714 | pgbench_accounts |      13587251200
 2017-02-04 14:51:46.637136+01 | 1486216306.63714 | pgbench_tellers  |          9240576
 2017-02-04 14:51:46.637136+01 | 1486216306.63714 | pgbench_history  |         22495232
 2017-02-04 14:51:46.637136+01 | 1486216306.63714 | pgbench_branches |          7479296

 2017-02-04 14:51:47.716181+01 | 1486216307.71618 | pgbench_accounts |      13587251200
 2017-02-04 14:51:47.716181+01 | 1486216307.71618 | pgbench_tellers  |          9240576
 2017-02-04 14:51:47.716181+01 | 1486216307.71618 | pgbench_history  |         23527424
 2017-02-04 14:51:47.716181+01 | 1486216307.71618 | pgbench_branches |          7479296

 2017-02-04 14:51:48.79156+01 | 1486216308.79156 | pgbench_accounts |      13587251200
 2017-02-04 14:51:48.79156+01 | 1486216308.79156 | pgbench_tellers  |          9240576
 2017-02-04 14:51:48.79156+01 | 1486216308.79156 | pgbench_history  |         24616960
 2017-02-04 14:51:48.79156+01 | 1486216308.79156 | pgbench_branches |          7479296

 2017-02-04 14:51:49.873454+01 | 1486216309.87345 | pgbench_accounts |      13587251200
 2017-02-04 14:51:49.873454+01 | 1486216309.87345 | pgbench_tellers  |          9240576
 2017-02-04 14:51:49.873454+01 | 1486216309.87345 | pgbench_history  |         25870336
 2017-02-04 14:51:49.873454+01 | 1486216309.87345 | pgbench_branches |          7479296

 2017-02-04 14:51:50.948473+01 | 1486216310.94847 | pgbench_accounts |      13587251200
 2017-02-04 14:51:50.948473+01 | 1486216310.94847 | pgbench_tellers  |          9240576
 2017-02-04 14:51:50.948473+01 | 1486216310.94847 | pgbench_history  |         27295744
 2017-02-04 14:51:50.948473+01 | 1486216310.94847 | pgbench_branches |          7479296

 2017-02-04 14:51:52.027305+01 | 1486216312.0273 | pgbench_accounts |      13587251200
 2017-02-04 14:51:52.027305+01 | 1486216312.0273 | pgbench_tellers  |          9240576
 2017-02-04 14:51:52.027305+01 | 1486216312.0273 | pgbench_history  |         28549120
 2017-02-04 14:51:52.027305+01 | 1486216312.0273 | pgbench_branches |          7479296

 2017-02-04 14:51:53.092538+01 | 1486216313.09254 | pgbench_accounts |      13587251200
 2017-02-04 14:51:53.092538+01 | 1486216313.09254 | pgbench_tellers  |          9240576
 2017-02-04 14:51:53.092538+01 | 1486216313.09254 | pgbench_history  |         29958144
 2017-02-04 14:51:53.092538+01 | 1486216313.09254 | pgbench_branches |          7479296

 2017-02-04 14:51:54.167408+01 | 1486216314.16741 | pgbench_accounts |      13587251200
 2017-02-04 14:51:54.167408+01 | 1486216314.16741 | pgbench_tellers  |          9240576
 2017-02-04 14:51:54.167408+01 | 1486216314.16741 | pgbench_history  |         31227904
 2017-02-04 14:51:54.167408+01 | 1486216314.16741 | pgbench_branches |          7479296

 2017-02-04 14:51:55.233795+01 | 1486216315.23379 | pgbench_accounts |      13587251200
 2017-02-04 14:51:55.233795+01 | 1486216315.23379 | pgbench_tellers  |          9240576
 2017-02-04 14:51:55.233795+01 | 1486216315.23379 | pgbench_history  |         31932416
 2017-02-04 14:51:55.233795+01 | 1486216315.23379 | pgbench_branches |          7479296

 2017-02-04 14:51:56.307523+01 | 1486216316.30752 | pgbench_accounts |      13587251200
 2017-02-04 14:51:56.307523+01 | 1486216316.30752 | pgbench_tellers  |          9240576
 2017-02-04 14:51:56.307523+01 | 1486216316.30752 | pgbench_history  |         32989184
 2017-02-04 14:51:56.307523+01 | 1486216316.30752 | pgbench_branches |          7479296

 2017-02-04 14:51:57.38766+01 | 1486216317.38766 | pgbench_accounts |      13587251200
 2017-02-04 14:51:57.38766+01 | 1486216317.38766 | pgbench_tellers  |          9240576
 2017-02-04 14:51:57.38766+01 | 1486216317.38766 | pgbench_history  |         34045952
 2017-02-04 14:51:57.38766+01 | 1486216317.38766 | pgbench_branches |          7479296

 2017-02-04 14:51:58.462026+01 | 1486216318.46203 | pgbench_accounts |      13587251200
 2017-02-04 14:51:58.462026+01 | 1486216318.46203 | pgbench_tellers  |          9240576
 2017-02-04 14:51:58.462026+01 | 1486216318.46203 | pgbench_history  |         35078144
 2017-02-04 14:51:58.462026+01 | 1486216318.46203 | pgbench_branches |          7479296

 2017-02-04 14:51:59.542251+01 | 1486216319.54225 | pgbench_accounts |      13587251200
 2017-02-04 14:51:59.542251+01 | 1486216319.54225 | pgbench_tellers  |          9240576
 2017-02-04 14:51:59.542251+01 | 1486216319.54225 | pgbench_history  |         36626432
 2017-02-04 14:51:59.542251+01 | 1486216319.54225 | pgbench_branches |          7479296

 2017-02-04 14:52:00.620104+01 | 1486216320.6201 | pgbench_accounts |      13587251200
 2017-02-04 14:52:00.620104+01 | 1486216320.6201 | pgbench_tellers  |          9240576
 2017-02-04 14:52:00.620104+01 | 1486216320.6201 | pgbench_history  |         37986304
 2017-02-04 14:52:00.620104+01 | 1486216320.6201 | pgbench_branches |          7479296

 2017-02-04 14:52:01.700152+01 | 1486216321.70015 | pgbench_accounts |      13587251200
 2017-02-04 14:52:01.700152+01 | 1486216321.70015 | pgbench_tellers  |          9240576
 2017-02-04 14:52:01.700152+01 | 1486216321.70015 | pgbench_history  |         38862848
 2017-02-04 14:52:01.700152+01 | 1486216321.70015 | pgbench_branches |          7479296

 2017-02-04 14:52:02.773536+01 | 1486216322.77354 | pgbench_accounts |      13587251200
 2017-02-04 14:52:02.773536+01 | 1486216322.77354 | pgbench_tellers  |          9240576
 2017-02-04 14:52:02.773536+01 | 1486216322.77354 | pgbench_history  |         40083456
 2017-02-04 14:52:02.773536+01 | 1486216322.77354 | pgbench_branches |          7479296

 2017-02-04 14:52:03.849342+01 | 1486216323.84934 | pgbench_accounts |      13587251200
 2017-02-04 14:52:03.849342+01 | 1486216323.84934 | pgbench_tellers  |          9240576
 2017-02-04 14:52:03.849342+01 | 1486216323.84934 | pgbench_history  |         40976384
 2017-02-04 14:52:03.849342+01 | 1486216323.84934 | pgbench_branches |          7479296

 2017-02-04 14:52:04.929423+01 | 1486216324.92942 | pgbench_accounts |      13587251200
 2017-02-04 14:52:04.929423+01 | 1486216324.92942 | pgbench_tellers  |          9240576
 2017-02-04 14:52:04.929423+01 | 1486216324.92942 | pgbench_history  |         42598400
 2017-02-04 14:52:04.929423+01 | 1486216324.92942 | pgbench_branches |          7479296

 2017-02-04 14:52:06.008219+01 | 1486216326.00822 | pgbench_accounts |      13587251200
 2017-02-04 14:52:06.008219+01 | 1486216326.00822 | pgbench_tellers  |          9240576
 2017-02-04 14:52:06.008219+01 | 1486216326.00822 | pgbench_history  |         43982848
 2017-02-04 14:52:06.008219+01 | 1486216326.00822 | pgbench_branches |          7479296

 2017-02-04 14:52:07.086756+01 | 1486216327.08676 | pgbench_accounts |      13587251200
 2017-02-04 14:52:07.086756+01 | 1486216327.08676 | pgbench_tellers  |          9240576
 2017-02-04 14:52:07.086756+01 | 1486216327.08676 | pgbench_history  |         44662784
 2017-02-04 14:52:07.086756+01 | 1486216327.08676 | pgbench_branches |          7479296

 2017-02-04 14:52:08.16995+01 | 1486216328.16995 | pgbench_accounts |      13587251200
 2017-02-04 14:52:08.16995+01 | 1486216328.16995 | pgbench_tellers  |          9240576
 2017-02-04 14:52:08.16995+01 | 1486216328.16995 | pgbench_history  |         46063616
 2017-02-04 14:52:08.16995+01 | 1486216328.16995 | pgbench_branches |          7479296

 2017-02-04 14:52:09.243296+01 | 1486216329.2433 | pgbench_accounts |      13587251200
 2017-02-04 14:52:09.243296+01 | 1486216329.2433 | pgbench_tellers  |          9240576
 2017-02-04 14:52:09.243296+01 | 1486216329.2433 | pgbench_history  |         46825472
 2017-02-04 14:52:09.243296+01 | 1486216329.2433 | pgbench_branches |          7479296

 2017-02-04 14:52:10.316619+01 | 1486216330.31662 | pgbench_accounts |      13587251200
 2017-02-04 14:52:10.316619+01 | 1486216330.31662 | pgbench_tellers  |          9240576
 2017-02-04 14:52:10.316619+01 | 1486216330.31662 | pgbench_history  |         47915008
 2017-02-04 14:52:10.316619+01 | 1486216330.31662 | pgbench_branches |          7479296

 2017-02-04 14:52:11.394007+01 | 1486216331.39401 | pgbench_accounts |      13587251200
 2017-02-04 14:52:11.394007+01 | 1486216331.39401 | pgbench_tellers  |          9240576
 2017-02-04 14:52:11.394007+01 | 1486216331.39401 | pgbench_history  |         49438720
 2017-02-04 14:52:11.394007+01 | 1486216331.39401 | pgbench_branches |          7479296

 2017-02-04 14:52:12.475224+01 | 1486216332.47522 | pgbench_accounts |      13587251200
 2017-02-04 14:52:12.475224+01 | 1486216332.47522 | pgbench_tellers  |          9240576
 2017-02-04 14:52:12.475224+01 | 1486216332.47522 | pgbench_history  |         50544640
 2017-02-04 14:52:12.475224+01 | 1486216332.47522 | pgbench_branches |          7479296

 2017-02-04 14:52:13.554312+01 | 1486216333.55431 | pgbench_accounts |      13587251200
 2017-02-04 14:52:13.554312+01 | 1486216333.55431 | pgbench_tellers  |          9240576
 2017-02-04 14:52:13.554312+01 | 1486216333.55431 | pgbench_history  |         51642368
 2017-02-04 14:52:13.554312+01 | 1486216333.55431 | pgbench_branches |          7479296

 2017-02-04 14:52:14.624055+01 | 1486216334.62405 | pgbench_accounts |      13587251200
 2017-02-04 14:52:14.624055+01 | 1486216334.62405 | pgbench_tellers  |          9240576
 2017-02-04 14:52:14.624055+01 | 1486216334.62405 | pgbench_history  |         52862976
 2017-02-04 14:52:14.624055+01 | 1486216334.62405 | pgbench_branches |          7479296

 2017-02-04 14:52:15.703236+01 | 1486216335.70324 | pgbench_accounts |      13587251200
 2017-02-04 14:52:15.703236+01 | 1486216335.70324 | pgbench_tellers  |          9240576
 2017-02-04 14:52:15.703236+01 | 1486216335.70324 | pgbench_history  |         54116352
 2017-02-04 14:52:15.703236+01 | 1486216335.70324 | pgbench_branches |          7479296

 2017-02-04 14:52:16.774646+01 | 1486216336.77465 | pgbench_accounts |      13587251200
 2017-02-04 14:52:16.774646+01 | 1486216336.77465 | pgbench_tellers  |          9240576
 2017-02-04 14:52:16.774646+01 | 1486216336.77465 | pgbench_history  |         55377920
 2017-02-04 14:52:16.774646+01 | 1486216336.77465 | pgbench_branches |          7479296

 2017-02-04 14:52:17.850011+01 | 1486216337.85001 | pgbench_accounts |      13587251200
 2017-02-04 14:52:17.850011+01 | 1486216337.85001 | pgbench_tellers  |          9240576
 2017-02-04 14:52:17.850011+01 | 1486216337.85001 | pgbench_history  |         56606720
 2017-02-04 14:52:17.850011+01 | 1486216337.85001 | pgbench_branches |          7479296

 2017-02-04 14:52:18.92625+01 | 1486216338.92625 | pgbench_accounts |      13587251200
 2017-02-04 14:52:18.92625+01 | 1486216338.92625 | pgbench_tellers  |          9240576
 2017-02-04 14:52:18.92625+01 | 1486216338.92625 | pgbench_history  |         57991168
 2017-02-04 14:52:18.92625+01 | 1486216338.92625 | pgbench_branches |          7479296

 2017-02-04 14:52:20.00678+01 | 1486216340.00678 | pgbench_accounts |      13587251200
 2017-02-04 14:52:20.00678+01 | 1486216340.00678 | pgbench_tellers  |          9240576
 2017-02-04 14:52:20.00678+01 | 1486216340.00678 | pgbench_history  |         59031552
 2017-02-04 14:52:20.00678+01 | 1486216340.00678 | pgbench_branches |          7479296

 2017-02-04 14:52:21.088726+01 | 1486216341.08873 | pgbench_accounts |      13587251200
 2017-02-04 14:52:21.088726+01 | 1486216341.08873 | pgbench_tellers  |          9240576
 2017-02-04 14:52:21.088726+01 | 1486216341.08873 | pgbench_history  |         60416000
 2017-02-04 14:52:21.088726+01 | 1486216341.08873 | pgbench_branches |          7479296

 2017-02-04 14:52:22.163428+01 | 1486216342.16343 | pgbench_accounts |      13587251200
 2017-02-04 14:52:22.163428+01 | 1486216342.16343 | pgbench_tellers  |          9240576
 2017-02-04 14:52:22.163428+01 | 1486216342.16343 | pgbench_history  |         61833216
 2017-02-04 14:52:22.163428+01 | 1486216342.16343 | pgbench_branches |          7479296

 2017-02-04 14:52:23.250024+01 | 1486216343.25002 | pgbench_accounts |      13587251200
 2017-02-04 14:52:23.250024+01 | 1486216343.25002 | pgbench_tellers  |          9240576
 2017-02-04 14:52:23.250024+01 | 1486216343.25002 | pgbench_history  |         62930944
 2017-02-04 14:52:23.250024+01 | 1486216343.25002 | pgbench_branches |          7479296

 2017-02-04 14:52:24.324119+01 | 1486216344.32412 | pgbench_accounts |      13587251200
 2017-02-04 14:52:24.324119+01 | 1486216344.32412 | pgbench_tellers  |          9240576
 2017-02-04 14:52:24.324119+01 | 1486216344.32412 | pgbench_history  |         64176128
 2017-02-04 14:52:24.324119+01 | 1486216344.32412 | pgbench_branches |          7479296

 2017-02-04 14:52:25.407683+01 | 1486216345.40768 | pgbench_accounts |      13587251200
 2017-02-04 14:52:25.407683+01 | 1486216345.40768 | pgbench_tellers  |          9240576
 2017-02-04 14:52:25.407683+01 | 1486216345.40768 | pgbench_history  |         65617920
 2017-02-04 14:52:25.407683+01 | 1486216345.40768 | pgbench_branches |          7479296

 2017-02-04 14:52:26.483745+01 | 1486216346.48375 | pgbench_accounts |      13587251200
 2017-02-04 14:52:26.483745+01 | 1486216346.48375 | pgbench_tellers  |          9240576
 2017-02-04 14:52:26.483745+01 | 1486216346.48375 | pgbench_history  |         66871296
 2017-02-04 14:52:26.483745+01 | 1486216346.48375 | pgbench_branches |          7479296

 2017-02-04 14:52:27.550474+01 | 1486216347.55047 | pgbench_accounts |      13587251200
 2017-02-04 14:52:27.550474+01 | 1486216347.55047 | pgbench_tellers  |          9240576
 2017-02-04 14:52:27.550474+01 | 1486216347.55047 | pgbench_history  |         67919872
 2017-02-04 14:52:27.550474+01 | 1486216347.55047 | pgbench_branches |          7479296

 2017-02-04 14:52:28.629544+01 | 1486216348.62954 | pgbench_accounts |      13587251200
 2017-02-04 14:52:28.629544+01 | 1486216348.62954 | pgbench_tellers  |          9240576
 2017-02-04 14:52:28.629544+01 | 1486216348.62954 | pgbench_history  |         69492736
 2017-02-04 14:52:28.629544+01 | 1486216348.62954 | pgbench_branches |          7479296

 2017-02-04 14:52:29.710734+01 | 1486216349.71073 | pgbench_accounts |      13587251200
 2017-02-04 14:52:29.710734+01 | 1486216349.71073 | pgbench_tellers  |          9240576
 2017-02-04 14:52:29.710734+01 | 1486216349.71073 | pgbench_history  |         70909952
 2017-02-04 14:52:29.710734+01 | 1486216349.71073 | pgbench_branches |          7479296

 2017-02-04 14:52:30.792345+01 | 1486216350.79235 | pgbench_accounts |      13587251200
 2017-02-04 14:52:30.792345+01 | 1486216350.79235 | pgbench_tellers  |          9240576
 2017-02-04 14:52:30.792345+01 | 1486216350.79235 | pgbench_history  |         72269824
 2017-02-04 14:52:30.792345+01 | 1486216350.79235 | pgbench_branches |          7479296

 2017-02-04 14:52:31.868895+01 | 1486216351.8689 | pgbench_accounts |      13587251200
 2017-02-04 14:52:31.868895+01 | 1486216351.8689 | pgbench_tellers  |          9240576
 2017-02-04 14:52:31.868895+01 | 1486216351.8689 | pgbench_history  |         72949760
 2017-02-04 14:52:31.868895+01 | 1486216351.8689 | pgbench_branches |          7479296

 2017-02-04 14:52:32.954033+01 | 1486216352.95403 | pgbench_accounts |      13587251200
 2017-02-04 14:52:32.954033+01 | 1486216352.95403 | pgbench_tellers  |          9240576
 2017-02-04 14:52:32.954033+01 | 1486216352.95403 | pgbench_history  |         74358784
 2017-02-04 14:52:32.954033+01 | 1486216352.95403 | pgbench_branches |          7479296

 2017-02-04 14:52:34.027052+01 | 1486216354.02705 | pgbench_accounts |      13587251200
 2017-02-04 14:52:34.027052+01 | 1486216354.02705 | pgbench_tellers  |          9240576
 2017-02-04 14:52:34.027052+01 | 1486216354.02705 | pgbench_history  |         76251136
 2017-02-04 14:52:34.027052+01 | 1486216354.02705 | pgbench_branches |          7479296

 2017-02-04 14:52:35.108448+01 | 1486216355.10845 | pgbench_accounts |      13587251200
 2017-02-04 14:52:35.108448+01 | 1486216355.10845 | pgbench_tellers  |          9240576
 2017-02-04 14:52:35.108448+01 | 1486216355.10845 | pgbench_history  |         76955648
 2017-02-04 14:52:35.108448+01 | 1486216355.10845 | pgbench_branches |          7479296

 2017-02-04 14:52:36.181023+01 | 1486216356.18102 | pgbench_accounts |      13587251200
 2017-02-04 14:52:36.181023+01 | 1486216356.18102 | pgbench_tellers  |          9240576
 2017-02-04 14:52:36.181023+01 | 1486216356.18102 | pgbench_history  |         78340096
 2017-02-04 14:52:36.181023+01 | 1486216356.18102 | pgbench_branches |          7479296

 2017-02-04 14:52:37.2584+01 | 1486216357.2584 | pgbench_accounts |      13587251200
 2017-02-04 14:52:37.2584+01 | 1486216357.2584 | pgbench_tellers  |          9240576
 2017-02-04 14:52:37.2584+01 | 1486216357.2584 | pgbench_history  |         79380480
 2017-02-04 14:52:37.2584+01 | 1486216357.2584 | pgbench_branches |          7479296

 2017-02-04 14:52:38.345208+01 | 1486216358.34521 | pgbench_accounts |      13587251200
 2017-02-04 14:52:38.345208+01 | 1486216358.34521 | pgbench_tellers  |          9240576
 2017-02-04 14:52:38.345208+01 | 1486216358.34521 | pgbench_history  |         80601088
 2017-02-04 14:52:38.345208+01 | 1486216358.34521 | pgbench_branches |          7479296

 2017-02-04 14:52:39.428459+01 | 1486216359.42846 | pgbench_accounts |      13587251200
 2017-02-04 14:52:39.428459+01 | 1486216359.42846 | pgbench_tellers  |          9240576
 2017-02-04 14:52:39.428459+01 | 1486216359.42846 | pgbench_history  |         81960960
 2017-02-04 14:52:39.428459+01 | 1486216359.42846 | pgbench_branches |          7479296

 2017-02-04 14:52:40.495298+01 | 1486216360.4953 | pgbench_accounts |      13587251200
 2017-02-04 14:52:40.495298+01 | 1486216360.4953 | pgbench_tellers  |          9240576
 2017-02-04 14:52:40.495298+01 | 1486216360.4953 | pgbench_history  |         82993152
 2017-02-04 14:52:40.495298+01 | 1486216360.4953 | pgbench_branches |          7479296

 2017-02-04 14:52:41.576059+01 | 1486216361.57606 | pgbench_accounts |      13587251200
 2017-02-04 14:52:41.576059+01 | 1486216361.57606 | pgbench_tellers  |          9240576
 2017-02-04 14:52:41.576059+01 | 1486216361.57606 | pgbench_history  |         84082688
 2017-02-04 14:52:41.576059+01 | 1486216361.57606 | pgbench_branches |          7479296

 2017-02-04 14:52:42.651906+01 | 1486216362.65191 | pgbench_accounts |      13587251200
 2017-02-04 14:52:42.651906+01 | 1486216362.65191 | pgbench_tellers  |          9240576
 2017-02-04 14:52:42.651906+01 | 1486216362.65191 | pgbench_history  |         85311488
 2017-02-04 14:52:42.651906+01 | 1486216362.65191 | pgbench_branches |          7479296

 2017-02-04 14:52:43.734272+01 | 1486216363.73427 | pgbench_accounts |      13587251200
 2017-02-04 14:52:43.734272+01 | 1486216363.73427 | pgbench_tellers  |          9240576
 2017-02-04 14:52:43.734272+01 | 1486216363.73427 | pgbench_history  |         86605824
 2017-02-04 14:52:43.734272+01 | 1486216363.73427 | pgbench_branches |          7479296

 2017-02-04 14:52:44.804431+01 | 1486216364.80443 | pgbench_accounts |      13587251200
 2017-02-04 14:52:44.804431+01 | 1486216364.80443 | pgbench_tellers  |          9240576
 2017-02-04 14:52:44.804431+01 | 1486216364.80443 | pgbench_history  |         87752704
 2017-02-04 14:52:44.804431+01 | 1486216364.80443 | pgbench_branches |          7479296

 2017-02-04 14:52:45.882824+01 | 1486216365.88282 | pgbench_accounts |      13587251200
 2017-02-04 14:52:45.882824+01 | 1486216365.88282 | pgbench_tellers  |          9240576
 2017-02-04 14:52:45.882824+01 | 1486216365.88282 | pgbench_history  |         89186304
 2017-02-04 14:52:45.882824+01 | 1486216365.88282 | pgbench_branches |          7479296

 2017-02-04 14:52:46.965383+01 | 1486216366.96538 | pgbench_accounts |      13587251200
 2017-02-04 14:52:46.965383+01 | 1486216366.96538 | pgbench_tellers  |          9240576
 2017-02-04 14:52:46.965383+01 | 1486216366.96538 | pgbench_history  |         91234304
 2017-02-04 14:52:46.965383+01 | 1486216366.96538 | pgbench_branches |          7479296

 2017-02-04 14:52:48.042332+01 | 1486216368.04233 | pgbench_accounts |      13587251200
 2017-02-04 14:52:48.042332+01 | 1486216368.04233 | pgbench_tellers  |          9240576
 2017-02-04 14:52:48.042332+01 | 1486216368.04233 | pgbench_history  |         91766784
 2017-02-04 14:52:48.042332+01 | 1486216368.04233 | pgbench_branches |          7479296

 2017-02-04 14:52:49.118102+01 | 1486216369.1181 | pgbench_accounts |      13587251200
 2017-02-04 14:52:49.118102+01 | 1486216369.1181 | pgbench_tellers  |          9240576
 2017-02-04 14:52:49.118102+01 | 1486216369.1181 | pgbench_history  |         92667904
 2017-02-04 14:52:49.118102+01 | 1486216369.1181 | pgbench_branches |          7479296

 2017-02-04 14:52:50.202459+01 | 1486216370.20246 | pgbench_accounts |      13587251200
 2017-02-04 14:52:50.202459+01 | 1486216370.20246 | pgbench_tellers  |          9240576
 2017-02-04 14:52:50.202459+01 | 1486216370.20246 | pgbench_history  |         93913088
 2017-02-04 14:52:50.202459+01 | 1486216370.20246 | pgbench_branches |          7479296

 2017-02-04 14:52:51.282883+01 | 1486216371.28288 | pgbench_accounts |      13587251200
 2017-02-04 14:52:51.282883+01 | 1486216371.28288 | pgbench_tellers  |          9240576
 2017-02-04 14:52:51.282883+01 | 1486216371.28288 | pgbench_history  |         95674368
 2017-02-04 14:52:51.282883+01 | 1486216371.28288 | pgbench_branches |          7479296

 2017-02-04 14:52:52.365153+01 | 1486216372.36515 | pgbench_accounts |      13587251200
 2017-02-04 14:52:52.365153+01 | 1486216372.36515 | pgbench_tellers  |          9240576
 2017-02-04 14:52:52.365153+01 | 1486216372.36515 | pgbench_history  |         96886784
 2017-02-04 14:52:52.365153+01 | 1486216372.36515 | pgbench_branches |          7479296

 2017-02-04 14:52:53.439784+01 | 1486216373.43978 | pgbench_accounts |      13587251200
 2017-02-04 14:52:53.439784+01 | 1486216373.43978 | pgbench_tellers  |          9240576
 2017-02-04 14:52:53.439784+01 | 1486216373.43978 | pgbench_history  |         97812480
 2017-02-04 14:52:53.439784+01 | 1486216373.43978 | pgbench_branches |          7479296

 2017-02-04 14:52:54.52369+01 | 1486216374.52369 | pgbench_accounts |      13587251200
 2017-02-04 14:52:54.52369+01 | 1486216374.52369 | pgbench_tellers  |          9240576
 2017-02-04 14:52:54.52369+01 | 1486216374.52369 | pgbench_history  |         99229696
 2017-02-04 14:52:54.52369+01 | 1486216374.52369 | pgbench_branches |          7479296

 2017-02-04 14:52:55.612648+01 | 1486216375.61265 | pgbench_accounts |      13587251200
 2017-02-04 14:52:55.612648+01 | 1486216375.61265 | pgbench_tellers  |          9240576
 2017-02-04 14:52:55.612648+01 | 1486216375.61265 | pgbench_history  |        100327424
 2017-02-04 14:52:55.612648+01 | 1486216375.61265 | pgbench_branches |          7479296

 2017-02-04 14:52:56.696087+01 | 1486216376.69609 | pgbench_accounts |      13587251200
 2017-02-04 14:52:56.696087+01 | 1486216376.69609 | pgbench_tellers  |          9240576
 2017-02-04 14:52:56.696087+01 | 1486216376.69609 | pgbench_history  |        101703680
 2017-02-04 14:52:56.696087+01 | 1486216376.69609 | pgbench_branches |          7479296

 2017-02-04 14:52:57.778126+01 | 1486216377.77813 | pgbench_accounts |      13587251200
 2017-02-04 14:52:57.778126+01 | 1486216377.77813 | pgbench_tellers  |          9240576
 2017-02-04 14:52:57.778126+01 | 1486216377.77813 | pgbench_history  |        103120896
 2017-02-04 14:52:57.778126+01 | 1486216377.77813 | pgbench_branches |          7479296

 2017-02-04 14:52:58.858532+01 | 1486216378.85853 | pgbench_accounts |      13587251200
 2017-02-04 14:52:58.858532+01 | 1486216378.85853 | pgbench_tellers  |          9240576
 2017-02-04 14:52:58.858532+01 | 1486216378.85853 | pgbench_history  |        104554496
 2017-02-04 14:52:58.858532+01 | 1486216378.85853 | pgbench_branches |          7479296

 2017-02-04 14:52:59.932432+01 | 1486216379.93243 | pgbench_accounts |      13587251200
 2017-02-04 14:52:59.932432+01 | 1486216379.93243 | pgbench_tellers  |          9240576
 2017-02-04 14:52:59.932432+01 | 1486216379.93243 | pgbench_history  |        105676800
 2017-02-04 14:52:59.932432+01 | 1486216379.93243 | pgbench_branches |          7479296

 2017-02-04 14:53:01.012968+01 | 1486216381.01297 | pgbench_accounts |      13587251200
 2017-02-04 14:53:01.012968+01 | 1486216381.01297 | pgbench_tellers  |          9240576
 2017-02-04 14:53:01.012968+01 | 1486216381.01297 | pgbench_history  |        106962944
 2017-02-04 14:53:01.012968+01 | 1486216381.01297 | pgbench_branches |          7479296

 2017-02-04 14:53:02.08927+01 | 1486216382.08927 | pgbench_accounts |      13587251200
 2017-02-04 14:53:02.08927+01 | 1486216382.08927 | pgbench_tellers  |          9240576
 2017-02-04 14:53:02.08927+01 | 1486216382.08927 | pgbench_history  |        108101632
 2017-02-04 14:53:02.08927+01 | 1486216382.08927 | pgbench_branches |          7479296

 2017-02-04 14:53:03.171089+01 | 1486216383.17109 | pgbench_accounts |      13587251200
 2017-02-04 14:53:03.171089+01 | 1486216383.17109 | pgbench_tellers  |          9240576
 2017-02-04 14:53:03.171089+01 | 1486216383.17109 | pgbench_history  |        109682688
 2017-02-04 14:53:03.171089+01 | 1486216383.17109 | pgbench_branches |          7479296

 2017-02-04 14:53:04.246251+01 | 1486216384.24625 | pgbench_accounts |      13587251200
 2017-02-04 14:53:04.246251+01 | 1486216384.24625 | pgbench_tellers  |          9240576
 2017-02-04 14:53:04.246251+01 | 1486216384.24625 | pgbench_history  |        110878720
 2017-02-04 14:53:04.246251+01 | 1486216384.24625 | pgbench_branches |          7479296

 2017-02-04 14:53:05.32506+01 | 1486216385.32506 | pgbench_accounts |      13587251200
 2017-02-04 14:53:05.32506+01 | 1486216385.32506 | pgbench_tellers  |          9240576
 2017-02-04 14:53:05.32506+01 | 1486216385.32506 | pgbench_history  |        111943680
 2017-02-04 14:53:05.32506+01 | 1486216385.32506 | pgbench_branches |          7479296

 2017-02-04 14:53:06.408727+01 | 1486216386.40873 | pgbench_accounts |      13587251200
 2017-02-04 14:53:06.408727+01 | 1486216386.40873 | pgbench_tellers  |          9240576
 2017-02-04 14:53:06.408727+01 | 1486216386.40873 | pgbench_history  |        113328128
 2017-02-04 14:53:06.408727+01 | 1486216386.40873 | pgbench_branches |          7479296

 2017-02-04 14:53:07.485763+01 | 1486216387.48576 | pgbench_accounts |      13587251200
 2017-02-04 14:53:07.485763+01 | 1486216387.48576 | pgbench_tellers  |          9240576
 2017-02-04 14:53:07.485763+01 | 1486216387.48576 | pgbench_history  |        114417664
 2017-02-04 14:53:07.485763+01 | 1486216387.48576 | pgbench_branches |          7479296

 2017-02-04 14:53:08.568162+01 | 1486216388.56816 | pgbench_accounts |      13587251200
 2017-02-04 14:53:08.568162+01 | 1486216388.56816 | pgbench_tellers  |          9240576
 2017-02-04 14:53:08.568162+01 | 1486216388.56816 | pgbench_history  |        115802112
 2017-02-04 14:53:08.568162+01 | 1486216388.56816 | pgbench_branches |          7479296

 2017-02-04 14:53:09.643871+01 | 1486216389.64387 | pgbench_accounts |      13587251200
 2017-02-04 14:53:09.643871+01 | 1486216389.64387 | pgbench_tellers  |          9240576
 2017-02-04 14:53:09.643871+01 | 1486216389.64387 | pgbench_history  |        117137408
 2017-02-04 14:53:09.643871+01 | 1486216389.64387 | pgbench_branches |          7479296

 2017-02-04 14:53:10.715686+01 | 1486216390.71569 | pgbench_accounts |      13587251200
 2017-02-04 14:53:10.715686+01 | 1486216390.71569 | pgbench_tellers  |          9240576
 2017-02-04 14:53:10.715686+01 | 1486216390.71569 | pgbench_history  |        118546432
 2017-02-04 14:53:10.715686+01 | 1486216390.71569 | pgbench_branches |          7479296

 2017-02-04 14:53:11.790422+01 | 1486216391.79042 | pgbench_accounts |      13587251200
 2017-02-04 14:53:11.790422+01 | 1486216391.79042 | pgbench_tellers  |          9240576
 2017-02-04 14:53:11.790422+01 | 1486216391.79042 | pgbench_history  |        119775232
 2017-02-04 14:53:11.790422+01 | 1486216391.79042 | pgbench_branches |          7479296

 2017-02-04 14:53:12.86639+01 | 1486216392.86639 | pgbench_accounts |      13587251200
 2017-02-04 14:53:12.86639+01 | 1486216392.86639 | pgbench_tellers  |          9240576
 2017-02-04 14:53:12.86639+01 | 1486216392.86639 | pgbench_history  |        120848384
 2017-02-04 14:53:12.86639+01 | 1486216392.86639 | pgbench_branches |          7479296

 2017-02-04 14:53:13.945263+01 | 1486216393.94526 | pgbench_accounts |      13587251200
 2017-02-04 14:53:13.945263+01 | 1486216393.94526 | pgbench_tellers  |          9240576
 2017-02-04 14:53:13.945263+01 | 1486216393.94526 | pgbench_history  |        122658816
 2017-02-04 14:53:13.945263+01 | 1486216393.94526 | pgbench_branches |          7479296

 2017-02-04 14:53:15.029936+01 | 1486216395.02994 | pgbench_accounts |      13587251200
 2017-02-04 14:53:15.029936+01 | 1486216395.02994 | pgbench_tellers  |          9240576
 2017-02-04 14:53:15.029936+01 | 1486216395.02994 | pgbench_history  |        123543552
 2017-02-04 14:53:15.029936+01 | 1486216395.02994 | pgbench_branches |          7479296

 2017-02-04 14:53:16.105254+01 | 1486216396.10525 | pgbench_accounts |      13587251200
 2017-02-04 14:53:16.105254+01 | 1486216396.10525 | pgbench_tellers  |          9240576
 2017-02-04 14:53:16.105254+01 | 1486216396.10525 | pgbench_history  |        125231104
 2017-02-04 14:53:16.105254+01 | 1486216396.10525 | pgbench_branches |          7479296

 2017-02-04 14:53:17.197063+01 | 1486216397.19706 | pgbench_accounts |      13587251200
 2017-02-04 14:53:17.197063+01 | 1486216397.19706 | pgbench_tellers  |          9240576
 2017-02-04 14:53:17.197063+01 | 1486216397.19706 | pgbench_history  |        126099456
 2017-02-04 14:53:17.197063+01 | 1486216397.19706 | pgbench_branches |          7479296

 2017-02-04 14:53:18.27456+01 | 1486216398.27456 | pgbench_accounts |      13587251200
 2017-02-04 14:53:18.27456+01 | 1486216398.27456 | pgbench_tellers  |          9240576
 2017-02-04 14:53:18.27456+01 | 1486216398.27456 | pgbench_history  |        127500288
 2017-02-04 14:53:18.27456+01 | 1486216398.27456 | pgbench_branches |          7479296

 2017-02-04 14:53:19.351045+01 | 1486216399.35104 | pgbench_accounts |      13587251200
 2017-02-04 14:53:19.351045+01 | 1486216399.35104 | pgbench_tellers  |          9240576
 2017-02-04 14:53:19.351045+01 | 1486216399.35104 | pgbench_history  |        128598016
 2017-02-04 14:53:19.351045+01 | 1486216399.35104 | pgbench_branches |          7479296

 2017-02-04 14:53:20.433027+01 | 1486216400.43303 | pgbench_accounts |      13587251200
 2017-02-04 14:53:20.433027+01 | 1486216400.43303 | pgbench_tellers  |          9240576
 2017-02-04 14:53:20.433027+01 | 1486216400.43303 | pgbench_history  |        130039808
 2017-02-04 14:53:20.433027+01 | 1486216400.43303 | pgbench_branches |          7479296

 2017-02-04 14:53:21.512692+01 | 1486216401.51269 | pgbench_accounts |      13587251200
 2017-02-04 14:53:21.512692+01 | 1486216401.51269 | pgbench_tellers  |          9240576
 2017-02-04 14:53:21.512692+01 | 1486216401.51269 | pgbench_history  |        131309568
 2017-02-04 14:53:21.512692+01 | 1486216401.51269 | pgbench_branches |          7479296

 2017-02-04 14:53:22.598578+01 | 1486216402.59858 | pgbench_accounts |      13587251200
 2017-02-04 14:53:22.598578+01 | 1486216402.59858 | pgbench_tellers  |          9240576
 2017-02-04 14:53:22.598578+01 | 1486216402.59858 | pgbench_history  |        132669440
 2017-02-04 14:53:22.598578+01 | 1486216402.59858 | pgbench_branches |          7479296

 2017-02-04 14:53:23.681246+01 | 1486216403.68125 | pgbench_accounts |      13587251200
 2017-02-04 14:53:23.681246+01 | 1486216403.68125 | pgbench_tellers  |          9240576
 2017-02-04 14:53:23.681246+01 | 1486216403.68125 | pgbench_history  |        133758976
 2017-02-04 14:53:23.681246+01 | 1486216403.68125 | pgbench_branches |          7479296

 2017-02-04 14:53:24.76411+01 | 1486216404.76411 | pgbench_accounts |      13587251200
 2017-02-04 14:53:24.76411+01 | 1486216404.76411 | pgbench_tellers  |          9240576
 2017-02-04 14:53:24.76411+01 | 1486216404.76411 | pgbench_history  |        135020544
 2017-02-04 14:53:24.76411+01 | 1486216404.76411 | pgbench_branches |          7479296

 2017-02-04 14:53:25.84217+01 | 1486216405.84217 | pgbench_accounts |      13587251200
 2017-02-04 14:53:25.84217+01 | 1486216405.84217 | pgbench_tellers  |          9240576
 2017-02-04 14:53:25.84217+01 | 1486216405.84217 | pgbench_history  |        136380416
 2017-02-04 14:53:25.84217+01 | 1486216405.84217 | pgbench_branches |          7479296

 2017-02-04 14:53:26.922999+01 | 1486216406.923 | pgbench_accounts |      13587251200
 2017-02-04 14:53:26.922999+01 | 1486216406.923 | pgbench_tellers  |          9240576
 2017-02-04 14:53:26.922999+01 | 1486216406.923 | pgbench_history  |        137461760
 2017-02-04 14:53:26.922999+01 | 1486216406.923 | pgbench_branches |          7479296

 2017-02-04 14:53:27.997352+01 | 1486216407.99735 | pgbench_accounts |      13587251200
 2017-02-04 14:53:27.997352+01 | 1486216407.99735 | pgbench_tellers  |          9240576
 2017-02-04 14:53:27.997352+01 | 1486216407.99735 | pgbench_history  |        138723328
 2017-02-04 14:53:27.997352+01 | 1486216407.99735 | pgbench_branches |          7479296

 2017-02-04 14:53:29.082031+01 | 1486216409.08203 | pgbench_accounts |      13587251200
 2017-02-04 14:53:29.082031+01 | 1486216409.08203 | pgbench_tellers  |          9240576
 2017-02-04 14:53:29.082031+01 | 1486216409.08203 | pgbench_history  |        140132352
 2017-02-04 14:53:29.082031+01 | 1486216409.08203 | pgbench_branches |          7479296

 2017-02-04 14:53:30.154738+01 | 1486216410.15474 | pgbench_accounts |      13587251200
 2017-02-04 14:53:30.154738+01 | 1486216410.15474 | pgbench_tellers  |          9240576
 2017-02-04 14:53:30.154738+01 | 1486216410.15474 | pgbench_history  |        141377536
 2017-02-04 14:53:30.154738+01 | 1486216410.15474 | pgbench_branches |          7479296

 2017-02-04 14:53:31.232815+01 | 1486216411.23282 | pgbench_accounts |      13587251200
 2017-02-04 14:53:31.232815+01 | 1486216411.23282 | pgbench_tellers  |          9240576
 2017-02-04 14:53:31.232815+01 | 1486216411.23282 | pgbench_history  |        142630912
 2017-02-04 14:53:31.232815+01 | 1486216411.23282 | pgbench_branches |          7479296

 2017-02-04 14:53:32.308358+01 | 1486216412.30836 | pgbench_accounts |      13587251200
 2017-02-04 14:53:32.308358+01 | 1486216412.30836 | pgbench_tellers  |          9240576
 2017-02-04 14:53:32.308358+01 | 1486216412.30836 | pgbench_history  |        144023552
 2017-02-04 14:53:32.308358+01 | 1486216412.30836 | pgbench_branches |          7479296

 2017-02-04 14:53:33.383925+01 | 1486216413.38392 | pgbench_accounts |      13587251200
 2017-02-04 14:53:33.383925+01 | 1486216413.38392 | pgbench_tellers  |          9240576
 2017-02-04 14:53:33.383925+01 | 1486216413.38392 | pgbench_history  |        145063936
 2017-02-04 14:53:33.383925+01 | 1486216413.38392 | pgbench_branches |          7479296

 2017-02-04 14:53:34.465917+01 | 1486216414.46592 | pgbench_accounts |      13587251200
 2017-02-04 14:53:34.465917+01 | 1486216414.46592 | pgbench_tellers  |          9240576
 2017-02-04 14:53:34.465917+01 | 1486216414.46592 | pgbench_history  |        146448384
 2017-02-04 14:53:34.465917+01 | 1486216414.46592 | pgbench_branches |          7479296

 2017-02-04 14:53:35.549159+01 | 1486216415.54916 | pgbench_accounts |      13587251200
 2017-02-04 14:53:35.549159+01 | 1486216415.54916 | pgbench_tellers  |          9240576
 2017-02-04 14:53:35.549159+01 | 1486216415.54916 | pgbench_history  |        147726336
 2017-02-04 14:53:35.549159+01 | 1486216415.54916 | pgbench_branches |          7479296

 2017-02-04 14:53:36.627595+01 | 1486216416.62759 | pgbench_accounts |      13587251200
 2017-02-04 14:53:36.627595+01 | 1486216416.62759 | pgbench_tellers  |          9240576
 2017-02-04 14:53:36.627595+01 | 1486216416.62759 | pgbench_history  |        149323776
 2017-02-04 14:53:36.627595+01 | 1486216416.62759 | pgbench_branches |          7479296

 2017-02-04 14:53:37.690365+01 | 1486216417.69037 | pgbench_accounts |      13587251200
 2017-02-04 14:53:37.690365+01 | 1486216417.69037 | pgbench_tellers  |          9240576
 2017-02-04 14:53:37.690365+01 | 1486216417.69037 | pgbench_history  |        150544384
 2017-02-04 14:53:37.690365+01 | 1486216417.69037 | pgbench_branches |          7479296

 2017-02-04 14:53:38.769959+01 | 1486216418.76996 | pgbench_accounts |      13587251200
 2017-02-04 14:53:38.769959+01 | 1486216418.76996 | pgbench_tellers  |          9240576
 2017-02-04 14:53:38.769959+01 | 1486216418.76996 | pgbench_history  |        151609344
 2017-02-04 14:53:38.769959+01 | 1486216418.76996 | pgbench_branches |          7479296

 2017-02-04 14:53:39.861411+01 | 1486216419.86141 | pgbench_accounts |      13587251200
 2017-02-04 14:53:39.861411+01 | 1486216419.86141 | pgbench_tellers  |          9240576
 2017-02-04 14:53:39.861411+01 | 1486216419.86141 | pgbench_history  |        152993792
 2017-02-04 14:53:39.861411+01 | 1486216419.86141 | pgbench_branches |          7479296

 2017-02-04 14:53:40.938481+01 | 1486216420.93848 | pgbench_accounts |      13587251200
 2017-02-04 14:53:40.938481+01 | 1486216420.93848 | pgbench_tellers  |          9240576
 2017-02-04 14:53:40.938481+01 | 1486216420.93848 | pgbench_history  |        154411008
 2017-02-04 14:53:40.938481+01 | 1486216420.93848 | pgbench_branches |          7479296

 2017-02-04 14:53:42.020981+01 | 1486216422.02098 | pgbench_accounts |      13587251200
 2017-02-04 14:53:42.020981+01 | 1486216422.02098 | pgbench_tellers  |          9240576
 2017-02-04 14:53:42.020981+01 | 1486216422.02098 | pgbench_history  |        155648000
 2017-02-04 14:53:42.020981+01 | 1486216422.02098 | pgbench_branches |          7479296

 2017-02-04 14:53:43.098248+01 | 1486216423.09825 | pgbench_accounts |      13587251200
 2017-02-04 14:53:43.098248+01 | 1486216423.09825 | pgbench_tellers  |          9240576
 2017-02-04 14:53:43.098248+01 | 1486216423.09825 | pgbench_history  |        156524544
 2017-02-04 14:53:43.098248+01 | 1486216423.09825 | pgbench_branches |          7479296

 2017-02-04 14:53:44.178542+01 | 1486216424.17854 | pgbench_accounts |      13587251200
 2017-02-04 14:53:44.178542+01 | 1486216424.17854 | pgbench_tellers  |          9240576
 2017-02-04 14:53:44.178542+01 | 1486216424.17854 | pgbench_history  |        158031872
 2017-02-04 14:53:44.178542+01 | 1486216424.17854 | pgbench_branches |          7479296

 2017-02-04 14:53:45.253436+01 | 1486216425.25344 | pgbench_accounts |      13587251200
 2017-02-04 14:53:45.253436+01 | 1486216425.25344 | pgbench_tellers  |          9240576
 2017-02-04 14:53:45.253436+01 | 1486216425.25344 | pgbench_history  |        159580160
 2017-02-04 14:53:45.253436+01 | 1486216425.25344 | pgbench_branches |          7479296

 2017-02-04 14:53:46.328937+01 | 1486216426.32894 | pgbench_accounts |      13587251200
 2017-02-04 14:53:46.328937+01 | 1486216426.32894 | pgbench_tellers  |          9240576
 2017-02-04 14:53:46.328937+01 | 1486216426.32894 | pgbench_history  |        160129024
 2017-02-04 14:53:46.328937+01 | 1486216426.32894 | pgbench_branches |          7479296

 2017-02-04 14:53:47.40699+01 | 1486216427.40699 | pgbench_accounts |      13587251200
 2017-02-04 14:53:47.40699+01 | 1486216427.40699 | pgbench_tellers  |          9240576
 2017-02-04 14:53:47.40699+01 | 1486216427.40699 | pgbench_history  |        161464320
 2017-02-04 14:53:47.40699+01 | 1486216427.40699 | pgbench_branches |          7479296

 2017-02-04 14:53:48.486403+01 | 1486216428.4864 | pgbench_accounts |      13587251200
 2017-02-04 14:53:48.486403+01 | 1486216428.4864 | pgbench_tellers  |          9240576
 2017-02-04 14:53:48.486403+01 | 1486216428.4864 | pgbench_history  |        162611200
 2017-02-04 14:53:48.486403+01 | 1486216428.4864 | pgbench_branches |          7479296

 2017-02-04 14:53:49.558175+01 | 1486216429.55818 | pgbench_accounts |      13587251200
 2017-02-04 14:53:49.558175+01 | 1486216429.55818 | pgbench_tellers  |          9240576
 2017-02-04 14:53:49.558175+01 | 1486216429.55818 | pgbench_history  |        163831808
 2017-02-04 14:53:49.558175+01 | 1486216429.55818 | pgbench_branches |          7479296

 2017-02-04 14:53:50.627558+01 | 1486216430.62756 | pgbench_accounts |      13587251200
 2017-02-04 14:53:50.627558+01 | 1486216430.62756 | pgbench_tellers  |          9240576
 2017-02-04 14:53:50.627558+01 | 1486216430.62756 | pgbench_history  |        165429248
 2017-02-04 14:53:50.627558+01 | 1486216430.62756 | pgbench_branches |          7479296

 2017-02-04 14:53:51.707482+01 | 1486216431.70748 | pgbench_accounts |      13587251200
 2017-02-04 14:53:51.707482+01 | 1486216431.70748 | pgbench_tellers  |          9240576
 2017-02-04 14:53:51.707482+01 | 1486216431.70748 | pgbench_history  |        166322176
 2017-02-04 14:53:51.707482+01 | 1486216431.70748 | pgbench_branches |          7479296

 2017-02-04 14:53:52.781115+01 | 1486216432.78112 | pgbench_accounts |      13587251200
 2017-02-04 14:53:52.781115+01 | 1486216432.78112 | pgbench_tellers  |          9240576
 2017-02-04 14:53:52.781115+01 | 1486216432.78112 | pgbench_history  |        167559168
 2017-02-04 14:53:52.781115+01 | 1486216432.78112 | pgbench_branches |          7479296

 2017-02-04 14:53:53.863749+01 | 1486216433.86375 | pgbench_accounts |      13587251200
 2017-02-04 14:53:53.863749+01 | 1486216433.86375 | pgbench_tellers  |          9240576
 2017-02-04 14:53:53.863749+01 | 1486216433.86375 | pgbench_history  |        168779776
 2017-02-04 14:53:53.863749+01 | 1486216433.86375 | pgbench_branches |          7479296

 2017-02-04 14:53:54.941775+01 | 1486216434.94178 | pgbench_accounts |      13587251200
 2017-02-04 14:53:54.941775+01 | 1486216434.94178 | pgbench_tellers  |          9240576
 2017-02-04 14:53:54.941775+01 | 1486216434.94178 | pgbench_history  |        170696704
 2017-02-04 14:53:54.941775+01 | 1486216434.94178 | pgbench_branches |          7479296

 2017-02-04 14:53:56.014173+01 | 1486216436.01417 | pgbench_accounts |      13587251200
 2017-02-04 14:53:56.014173+01 | 1486216436.01417 | pgbench_tellers  |          9240576
 2017-02-04 14:53:56.014173+01 | 1486216436.01417 | pgbench_history  |        171581440
 2017-02-04 14:53:56.014173+01 | 1486216436.01417 | pgbench_branches |          7479296

 2017-02-04 14:53:57.088957+01 | 1486216437.08896 | pgbench_accounts |      13587251200
 2017-02-04 14:53:57.088957+01 | 1486216437.08896 | pgbench_tellers  |          9240576
 2017-02-04 14:53:57.088957+01 | 1486216437.08896 | pgbench_history  |        172515328
 2017-02-04 14:53:57.088957+01 | 1486216437.08896 | pgbench_branches |          7479296

 2017-02-04 14:53:58.164616+01 | 1486216438.16462 | pgbench_accounts |      13587251200
 2017-02-04 14:53:58.164616+01 | 1486216438.16462 | pgbench_tellers  |          9240576
 2017-02-04 14:53:58.164616+01 | 1486216438.16462 | pgbench_history  |        173596672
 2017-02-04 14:53:58.164616+01 | 1486216438.16462 | pgbench_branches |          7479296

 2017-02-04 14:53:59.247218+01 | 1486216439.24722 | pgbench_accounts |      13587251200
 2017-02-04 14:53:59.247218+01 | 1486216439.24722 | pgbench_tellers  |          9240576
 2017-02-04 14:53:59.247218+01 | 1486216439.24722 | pgbench_history  |        174981120
 2017-02-04 14:53:59.247218+01 | 1486216439.24722 | pgbench_branches |          7479296

 2017-02-04 14:54:00.321974+01 | 1486216440.32197 | pgbench_accounts |      13587251200
 2017-02-04 14:54:00.321974+01 | 1486216440.32197 | pgbench_tellers  |          9240576
 2017-02-04 14:54:00.321974+01 | 1486216440.32197 | pgbench_history  |        176431104
 2017-02-04 14:54:00.321974+01 | 1486216440.32197 | pgbench_branches |          7479296

 2017-02-04 14:54:01.408901+01 | 1486216441.4089 | pgbench_accounts |      13587251200
 2017-02-04 14:54:01.408901+01 | 1486216441.4089 | pgbench_tellers  |          9240576
 2017-02-04 14:54:01.408901+01 | 1486216441.4089 | pgbench_history  |        177496064
 2017-02-04 14:54:01.408901+01 | 1486216441.4089 | pgbench_branches |          7479296

 2017-02-04 14:54:02.479702+01 | 1486216442.4797 | pgbench_accounts |      13587251200
 2017-02-04 14:54:02.479702+01 | 1486216442.4797 | pgbench_tellers  |          9240576
 2017-02-04 14:54:02.479702+01 | 1486216442.4797 | pgbench_history  |        178692096
 2017-02-04 14:54:02.479702+01 | 1486216442.4797 | pgbench_branches |          7479296

 2017-02-04 14:54:03.563999+01 | 1486216443.564 | pgbench_accounts |      13587251200
 2017-02-04 14:54:03.563999+01 | 1486216443.564 | pgbench_tellers  |          9240576
 2017-02-04 14:54:03.563999+01 | 1486216443.564 | pgbench_history  |        179478528
 2017-02-04 14:54:03.563999+01 | 1486216443.564 | pgbench_branches |          7479296

 2017-02-04 14:54:04.638367+01 | 1486216444.63837 | pgbench_accounts |      13587251200
 2017-02-04 14:54:04.638367+01 | 1486216444.63837 | pgbench_tellers  |          9240576
 2017-02-04 14:54:04.638367+01 | 1486216444.63837 | pgbench_history  |        180543488
 2017-02-04 14:54:04.638367+01 | 1486216444.63837 | pgbench_branches |          7479296

 2017-02-04 14:54:05.719723+01 | 1486216445.71972 | pgbench_accounts |      13587251200
 2017-02-04 14:54:05.719723+01 | 1486216445.71972 | pgbench_tellers  |          9240576
 2017-02-04 14:54:05.719723+01 | 1486216445.71972 | pgbench_history  |        181886976
 2017-02-04 14:54:05.719723+01 | 1486216445.71972 | pgbench_branches |          7479296

 2017-02-04 14:54:06.800084+01 | 1486216446.80008 | pgbench_accounts |      13587251200
 2017-02-04 14:54:06.800084+01 | 1486216446.80008 | pgbench_tellers  |          9240576
 2017-02-04 14:54:06.800084+01 | 1486216446.80008 | pgbench_history  |        182566912
 2017-02-04 14:54:06.800084+01 | 1486216446.80008 | pgbench_branches |          7479296

 2017-02-04 14:54:07.873647+01 | 1486216447.87365 | pgbench_accounts |      13587251200
 2017-02-04 14:54:07.873647+01 | 1486216447.87365 | pgbench_tellers  |          9240576
 2017-02-04 14:54:07.873647+01 | 1486216447.87365 | pgbench_history  |        183738368
 2017-02-04 14:54:07.873647+01 | 1486216447.87365 | pgbench_branches |          7479296

 2017-02-04 14:54:08.953802+01 | 1486216448.9538 | pgbench_accounts |      13587251200
 2017-02-04 14:54:08.953802+01 | 1486216448.9538 | pgbench_tellers  |          9240576
 2017-02-04 14:54:08.953802+01 | 1486216448.9538 | pgbench_history  |        184639488
 2017-02-04 14:54:08.953802+01 | 1486216448.9538 | pgbench_branches |          7479296

 2017-02-04 14:54:10.028062+01 | 1486216450.02806 | pgbench_accounts |      13587251200
 2017-02-04 14:54:10.028062+01 | 1486216450.02806 | pgbench_tellers  |          9240576
 2017-02-04 14:54:10.028062+01 | 1486216450.02806 | pgbench_history  |        186007552
 2017-02-04 14:54:10.028062+01 | 1486216450.02806 | pgbench_branches |          7479296

 2017-02-04 14:54:11.102451+01 | 1486216451.10245 | pgbench_accounts |      13587251200
 2017-02-04 14:54:11.102451+01 | 1486216451.10245 | pgbench_tellers  |          9240576
 2017-02-04 14:54:11.102451+01 | 1486216451.10245 | pgbench_history  |        187129856
 2017-02-04 14:54:11.102451+01 | 1486216451.10245 | pgbench_branches |          7479296

 2017-02-04 14:54:12.182879+01 | 1486216452.18288 | pgbench_accounts |      13587251200
 2017-02-04 14:54:12.182879+01 | 1486216452.18288 | pgbench_tellers  |          9240576
 2017-02-04 14:54:12.182879+01 | 1486216452.18288 | pgbench_history  |        188006400
 2017-02-04 14:54:12.182879+01 | 1486216452.18288 | pgbench_branches |          7479296

 2017-02-04 14:54:13.261833+01 | 1486216453.26183 | pgbench_accounts |      13587251200
 2017-02-04 14:54:13.261833+01 | 1486216453.26183 | pgbench_tellers  |          9240576
 2017-02-04 14:54:13.261833+01 | 1486216453.26183 | pgbench_history  |        188891136
 2017-02-04 14:54:13.261833+01 | 1486216453.26183 | pgbench_branches |          7479296

 2017-02-04 14:54:14.340477+01 | 1486216454.34048 | pgbench_accounts |      13587251200
 2017-02-04 14:54:14.340477+01 | 1486216454.34048 | pgbench_tellers  |          9240576
 2017-02-04 14:54:14.340477+01 | 1486216454.34048 | pgbench_history  |        189972480
 2017-02-04 14:54:14.340477+01 | 1486216454.34048 | pgbench_branches |          7479296

 2017-02-04 14:54:15.426354+01 | 1486216455.42635 | pgbench_accounts |      13587251200
 2017-02-04 14:54:15.426354+01 | 1486216455.42635 | pgbench_tellers  |          9240576
 2017-02-04 14:54:15.426354+01 | 1486216455.42635 | pgbench_history  |        191569920
 2017-02-04 14:54:15.426354+01 | 1486216455.42635 | pgbench_branches |          7479296

 2017-02-04 14:54:16.520563+01 | 1486216456.52056 | pgbench_accounts |      13587251200
 2017-02-04 14:54:16.520563+01 | 1486216456.52056 | pgbench_tellers  |          9240576
 2017-02-04 14:54:16.520563+01 | 1486216456.52056 | pgbench_history  |        192438272
 2017-02-04 14:54:16.520563+01 | 1486216456.52056 | pgbench_branches |          7479296

 2017-02-04 14:54:17.601205+01 | 1486216457.60121 | pgbench_accounts |      13587251200
 2017-02-04 14:54:17.601205+01 | 1486216457.60121 | pgbench_tellers  |          9240576
 2017-02-04 14:54:17.601205+01 | 1486216457.60121 | pgbench_history  |        194011136
 2017-02-04 14:54:17.601205+01 | 1486216457.60121 | pgbench_branches |          7479296

 2017-02-04 14:54:18.674496+01 | 1486216458.6745 | pgbench_accounts |      13587251200
 2017-02-04 14:54:18.674496+01 | 1486216458.6745 | pgbench_tellers  |          9240576
 2017-02-04 14:54:18.674496+01 | 1486216458.6745 | pgbench_history  |        194879488
 2017-02-04 14:54:18.674496+01 | 1486216458.6745 | pgbench_branches |          7479296

 2017-02-04 14:54:19.759334+01 | 1486216459.75933 | pgbench_accounts |      13587251200
 2017-02-04 14:54:19.759334+01 | 1486216459.75933 | pgbench_tellers  |          9240576
 2017-02-04 14:54:19.759334+01 | 1486216459.75933 | pgbench_history  |        196313088
 2017-02-04 14:54:19.759334+01 | 1486216459.75933 | pgbench_branches |          7479296

 2017-02-04 14:54:20.842216+01 | 1486216460.84222 | pgbench_accounts |      13587251200
 2017-02-04 14:54:20.842216+01 | 1486216460.84222 | pgbench_tellers  |          9240576
 2017-02-04 14:54:20.842216+01 | 1486216460.84222 | pgbench_history  |        197566464
 2017-02-04 14:54:20.842216+01 | 1486216460.84222 | pgbench_branches |          7479296

 2017-02-04 14:54:21.920519+01 | 1486216461.92052 | pgbench_accounts |      13587251200
 2017-02-04 14:54:21.920519+01 | 1486216461.92052 | pgbench_tellers  |          9240576
 2017-02-04 14:54:21.920519+01 | 1486216461.92052 | pgbench_history  |        198647808
 2017-02-04 14:54:21.920519+01 | 1486216461.92052 | pgbench_branches |          7479296

 2017-02-04 14:54:22.996692+01 | 1486216462.99669 | pgbench_accounts |      13587251200
 2017-02-04 14:54:22.996692+01 | 1486216462.99669 | pgbench_tellers  |          9240576
 2017-02-04 14:54:22.996692+01 | 1486216462.99669 | pgbench_history  |        199876608
 2017-02-04 14:54:22.996692+01 | 1486216462.99669 | pgbench_branches |          7479296

 2017-02-04 14:54:24.081464+01 | 1486216464.08146 | pgbench_accounts |      13587251200
 2017-02-04 14:54:24.081464+01 | 1486216464.08146 | pgbench_tellers  |          9240576
 2017-02-04 14:54:24.081464+01 | 1486216464.08146 | pgbench_history  |        201457664
 2017-02-04 14:54:24.081464+01 | 1486216464.08146 | pgbench_branches |          7479296

 2017-02-04 14:54:25.156217+01 | 1486216465.15622 | pgbench_accounts |      13587251200
 2017-02-04 14:54:25.156217+01 | 1486216465.15622 | pgbench_tellers  |          9240576
 2017-02-04 14:54:25.156217+01 | 1486216465.15622 | pgbench_history  |        202727424
 2017-02-04 14:54:25.156217+01 | 1486216465.15622 | pgbench_branches |          7479296

 2017-02-04 14:54:26.235665+01 | 1486216466.23567 | pgbench_accounts |      13587251200
 2017-02-04 14:54:26.235665+01 | 1486216466.23567 | pgbench_tellers  |          9240576
 2017-02-04 14:54:26.235665+01 | 1486216466.23567 | pgbench_history  |        205127680
 2017-02-04 14:54:26.235665+01 | 1486216466.23567 | pgbench_branches |          7479296

 2017-02-04 14:54:27.304803+01 | 1486216467.3048 | pgbench_accounts |      13587251200
 2017-02-04 14:54:27.304803+01 | 1486216467.3048 | pgbench_tellers  |          9240576
 2017-02-04 14:54:27.304803+01 | 1486216467.3048 | pgbench_history  |        205127680
 2017-02-04 14:54:27.304803+01 | 1486216467.3048 | pgbench_branches |          7479296

 2017-02-04 14:54:28.390183+01 | 1486216468.39018 | pgbench_accounts |      13587251200
 2017-02-04 14:54:28.390183+01 | 1486216468.39018 | pgbench_tellers  |          9240576
 2017-02-04 14:54:28.390183+01 | 1486216468.39018 | pgbench_history  |        206372864
 2017-02-04 14:54:28.390183+01 | 1486216468.39018 | pgbench_branches |          7479296

 2017-02-04 14:54:29.466176+01 | 1486216469.46618 | pgbench_accounts |      13587251200
 2017-02-04 14:54:29.466176+01 | 1486216469.46618 | pgbench_tellers  |          9240576
 2017-02-04 14:54:29.466176+01 | 1486216469.46618 | pgbench_history  |        207273984
 2017-02-04 14:54:29.466176+01 | 1486216469.46618 | pgbench_branches |          7479296

 2017-02-04 14:54:30.538892+01 | 1486216470.53889 | pgbench_accounts |      13587251200
 2017-02-04 14:54:30.538892+01 | 1486216470.53889 | pgbench_tellers  |          9240576
 2017-02-04 14:54:30.538892+01 | 1486216470.53889 | pgbench_history  |        208470016
 2017-02-04 14:54:30.538892+01 | 1486216470.53889 | pgbench_branches |          7479296

 2017-02-04 14:54:31.617451+01 | 1486216471.61745 | pgbench_accounts |      13587251200
 2017-02-04 14:54:31.617451+01 | 1486216471.61745 | pgbench_tellers  |          9240576
 2017-02-04 14:54:31.617451+01 | 1486216471.61745 | pgbench_history  |        210182144
 2017-02-04 14:54:31.617451+01 | 1486216471.61745 | pgbench_branches |          7479296

 2017-02-04 14:54:32.698089+01 | 1486216472.69809 | pgbench_accounts |      13587251200
 2017-02-04 14:54:32.698089+01 | 1486216472.69809 | pgbench_tellers  |          9240576
 2017-02-04 14:54:32.698089+01 | 1486216472.69809 | pgbench_history  |        211050496
 2017-02-04 14:54:32.698089+01 | 1486216472.69809 | pgbench_branches |          7479296

 2017-02-04 14:54:33.7703+01 | 1486216473.7703 | pgbench_accounts |      13587251200
 2017-02-04 14:54:33.7703+01 | 1486216473.7703 | pgbench_tellers  |          9240576
 2017-02-04 14:54:33.7703+01 | 1486216473.7703 | pgbench_history  |        212475904
 2017-02-04 14:54:33.7703+01 | 1486216473.7703 | pgbench_branches |          7479296

 2017-02-04 14:54:34.845374+01 | 1486216474.84537 | pgbench_accounts |      13587251200
 2017-02-04 14:54:34.845374+01 | 1486216474.84537 | pgbench_tellers  |          9240576
 2017-02-04 14:54:34.845374+01 | 1486216474.84537 | pgbench_history  |        213696512
 2017-02-04 14:54:34.845374+01 | 1486216474.84537 | pgbench_branches |          7479296

 2017-02-04 14:54:35.92342+01 | 1486216475.92342 | pgbench_accounts |      13587251200
 2017-02-04 14:54:35.92342+01 | 1486216475.92342 | pgbench_tellers  |          9240576
 2017-02-04 14:54:35.92342+01 | 1486216475.92342 | pgbench_history  |        214835200
 2017-02-04 14:54:35.92342+01 | 1486216475.92342 | pgbench_branches |          7479296

 2017-02-04 14:54:37.003627+01 | 1486216477.00363 | pgbench_accounts |      13587251200
 2017-02-04 14:54:37.003627+01 | 1486216477.00363 | pgbench_tellers  |          9240576
 2017-02-04 14:54:37.003627+01 | 1486216477.00363 | pgbench_history  |        216268800
 2017-02-04 14:54:37.003627+01 | 1486216477.00363 | pgbench_branches |          7479296

 2017-02-04 14:54:38.083118+01 | 1486216478.08312 | pgbench_accounts |      13587251200
 2017-02-04 14:54:38.083118+01 | 1486216478.08312 | pgbench_tellers  |          9240576
 2017-02-04 14:54:38.083118+01 | 1486216478.08312 | pgbench_history  |        217325568
 2017-02-04 14:54:38.083118+01 | 1486216478.08312 | pgbench_branches |          7479296

 2017-02-04 14:54:39.159058+01 | 1486216479.15906 | pgbench_accounts |      13587251200
 2017-02-04 14:54:39.159058+01 | 1486216479.15906 | pgbench_tellers  |          9240576
 2017-02-04 14:54:39.159058+01 | 1486216479.15906 | pgbench_history  |        218742784
 2017-02-04 14:54:39.159058+01 | 1486216479.15906 | pgbench_branches |          7479296

 2017-02-04 14:54:40.233142+01 | 1486216480.23314 | pgbench_accounts |      13587251200
 2017-02-04 14:54:40.233142+01 | 1486216480.23314 | pgbench_tellers  |          9240576
 2017-02-04 14:54:40.233142+01 | 1486216480.23314 | pgbench_history  |        219971584
 2017-02-04 14:54:40.233142+01 | 1486216480.23314 | pgbench_branches |          7479296

 2017-02-04 14:54:41.308239+01 | 1486216481.30824 | pgbench_accounts |      13587251200
 2017-02-04 14:54:41.308239+01 | 1486216481.30824 | pgbench_tellers  |          9240576
 2017-02-04 14:54:41.308239+01 | 1486216481.30824 | pgbench_history  |        221003776
 2017-02-04 14:54:41.308239+01 | 1486216481.30824 | pgbench_branches |          7479296

 2017-02-04 14:54:42.384721+01 | 1486216482.38472 | pgbench_accounts |      13587251200
 2017-02-04 14:54:42.384721+01 | 1486216482.38472 | pgbench_tellers  |          9240576
 2017-02-04 14:54:42.384721+01 | 1486216482.38472 | pgbench_history  |        222453760
 2017-02-04 14:54:42.384721+01 | 1486216482.38472 | pgbench_branches |          7479296

 2017-02-04 14:54:43.459337+01 | 1486216483.45934 | pgbench_accounts |      13587251200
 2017-02-04 14:54:43.459337+01 | 1486216483.45934 | pgbench_tellers  |          9240576
 2017-02-04 14:54:43.459337+01 | 1486216483.45934 | pgbench_history  |        223584256
 2017-02-04 14:54:43.459337+01 | 1486216483.45934 | pgbench_branches |          7479296

 2017-02-04 14:54:44.545596+01 | 1486216484.5456 | pgbench_accounts |      13587251200
 2017-02-04 14:54:44.545596+01 | 1486216484.5456 | pgbench_tellers  |          9240576
 2017-02-04 14:54:44.545596+01 | 1486216484.5456 | pgbench_history  |        224813056
 2017-02-04 14:54:44.545596+01 | 1486216484.5456 | pgbench_branches |          7479296

 2017-02-04 14:54:45.627364+01 | 1486216485.62736 | pgbench_accounts |      13587251200
 2017-02-04 14:54:45.627364+01 | 1486216485.62736 | pgbench_tellers  |          9240576
 2017-02-04 14:54:45.627364+01 | 1486216485.62736 | pgbench_history  |        226246656
 2017-02-04 14:54:45.627364+01 | 1486216485.62736 | pgbench_branches |          7479296

 2017-02-04 14:54:46.701788+01 | 1486216486.70179 | pgbench_accounts |      13587251200
 2017-02-04 14:54:46.701788+01 | 1486216486.70179 | pgbench_tellers  |          9240576
 2017-02-04 14:54:46.701788+01 | 1486216486.70179 | pgbench_history  |        227500032
 2017-02-04 14:54:46.701788+01 | 1486216486.70179 | pgbench_branches |          7479296

 2017-02-04 14:54:47.787796+01 | 1486216487.7878 | pgbench_accounts |      13587251200
 2017-02-04 14:54:47.787796+01 | 1486216487.7878 | pgbench_tellers  |          9240576
 2017-02-04 14:54:47.787796+01 | 1486216487.7878 | pgbench_history  |        228777984
 2017-02-04 14:54:47.787796+01 | 1486216487.7878 | pgbench_branches |          7479296

 2017-02-04 14:54:48.869148+01 | 1486216488.86915 | pgbench_accounts |      13587251200
 2017-02-04 14:54:48.869148+01 | 1486216488.86915 | pgbench_tellers  |          9240576
 2017-02-04 14:54:48.869148+01 | 1486216488.86915 | pgbench_history  |        230301696
 2017-02-04 14:54:48.869148+01 | 1486216488.86915 | pgbench_branches |          7479296

 2017-02-04 14:54:49.945178+01 | 1486216489.94518 | pgbench_accounts |      13587251200
 2017-02-04 14:54:49.945178+01 | 1486216489.94518 | pgbench_tellers  |          9240576
 2017-02-04 14:54:49.945178+01 | 1486216489.94518 | pgbench_history  |        231514112
 2017-02-04 14:54:49.945178+01 | 1486216489.94518 | pgbench_branches |          7479296

 2017-02-04 14:54:51.025695+01 | 1486216491.0257 | pgbench_accounts |      13587251200
 2017-02-04 14:54:51.025695+01 | 1486216491.0257 | pgbench_tellers  |          9240576
 2017-02-04 14:54:51.025695+01 | 1486216491.0257 | pgbench_history  |        232898560
 2017-02-04 14:54:51.025695+01 | 1486216491.0257 | pgbench_branches |          7479296

 2017-02-04 14:54:52.100576+01 | 1486216492.10058 | pgbench_accounts |      13587251200
 2017-02-04 14:54:52.100576+01 | 1486216492.10058 | pgbench_tellers  |          9240576
 2017-02-04 14:54:52.100576+01 | 1486216492.10058 | pgbench_history  |        233807872
 2017-02-04 14:54:52.100576+01 | 1486216492.10058 | pgbench_branches |          7479296

 2017-02-04 14:54:53.184759+01 | 1486216493.18476 | pgbench_accounts |      13587251200
 2017-02-04 14:54:53.184759+01 | 1486216493.18476 | pgbench_tellers  |          9240576
 2017-02-04 14:54:53.184759+01 | 1486216493.18476 | pgbench_history  |        235593728
 2017-02-04 14:54:53.184759+01 | 1486216493.18476 | pgbench_branches |          7479296

 2017-02-04 14:54:54.264647+01 | 1486216494.26465 | pgbench_accounts |      13587251200
 2017-02-04 14:54:54.264647+01 | 1486216494.26465 | pgbench_tellers  |          9240576
 2017-02-04 14:54:54.264647+01 | 1486216494.26465 | pgbench_history  |        236306432
 2017-02-04 14:54:54.264647+01 | 1486216494.26465 | pgbench_branches |          7479296

 2017-02-04 14:54:55.341831+01 | 1486216495.34183 | pgbench_accounts |      13587251200
 2017-02-04 14:54:55.341831+01 | 1486216495.34183 | pgbench_tellers  |          9240576
 2017-02-04 14:54:55.341831+01 | 1486216495.34183 | pgbench_history  |        237690880
 2017-02-04 14:54:55.341831+01 | 1486216495.34183 | pgbench_branches |          7479296

 2017-02-04 14:54:56.422508+01 | 1486216496.42251 | pgbench_accounts |      13587251200
 2017-02-04 14:54:56.422508+01 | 1486216496.42251 | pgbench_tellers  |          9240576
 2017-02-04 14:54:56.422508+01 | 1486216496.42251 | pgbench_history  |        238895104
 2017-02-04 14:54:56.422508+01 | 1486216496.42251 | pgbench_branches |          7479296

 2017-02-04 14:54:57.498641+01 | 1486216497.49864 | pgbench_accounts |      13587251200
 2017-02-04 14:54:57.498641+01 | 1486216497.49864 | pgbench_tellers  |          9240576
 2017-02-04 14:54:57.498641+01 | 1486216497.49864 | pgbench_history  |        240312320
 2017-02-04 14:54:57.498641+01 | 1486216497.49864 | pgbench_branches |          7479296

 2017-02-04 14:54:58.573+01 | 1486216498.573 | pgbench_accounts |      13587251200
 2017-02-04 14:54:58.573+01 | 1486216498.573 | pgbench_tellers  |          9240576
 2017-02-04 14:54:58.573+01 | 1486216498.573 | pgbench_history  |        242188288
 2017-02-04 14:54:58.573+01 | 1486216498.573 | pgbench_branches |          7479296

 2017-02-04 14:54:59.660047+01 | 1486216499.66005 | pgbench_accounts |      13587251200
 2017-02-04 14:54:59.660047+01 | 1486216499.66005 | pgbench_tellers  |          9240576
 2017-02-04 14:54:59.660047+01 | 1486216499.66005 | pgbench_history  |        242565120
 2017-02-04 14:54:59.660047+01 | 1486216499.66005 | pgbench_branches |          7479296

 2017-02-04 14:55:00.742876+01 | 1486216500.74288 | pgbench_accounts |      13587251200
 2017-02-04 14:55:00.742876+01 | 1486216500.74288 | pgbench_tellers  |          9240576
 2017-02-04 14:55:00.742876+01 | 1486216500.74288 | pgbench_history  |        244121600
 2017-02-04 14:55:00.742876+01 | 1486216500.74288 | pgbench_branches |          7479296

 2017-02-04 14:55:01.819977+01 | 1486216501.81998 | pgbench_accounts |      13587251200
 2017-02-04 14:55:01.819977+01 | 1486216501.81998 | pgbench_tellers  |          9240576
 2017-02-04 14:55:01.819977+01 | 1486216501.81998 | pgbench_history  |        245325824
 2017-02-04 14:55:01.819977+01 | 1486216501.81998 | pgbench_branches |          7479296

 2017-02-04 14:55:02.903498+01 | 1486216502.9035 | pgbench_accounts |      13587251200
 2017-02-04 14:55:02.903498+01 | 1486216502.9035 | pgbench_tellers  |          9240576
 2017-02-04 14:55:02.903498+01 | 1486216502.9035 | pgbench_history  |        247209984
 2017-02-04 14:55:02.903498+01 | 1486216502.9035 | pgbench_branches |          7479296

 2017-02-04 14:55:03.983568+01 | 1486216503.98357 | pgbench_accounts |      13587251200
 2017-02-04 14:55:03.983568+01 | 1486216503.98357 | pgbench_tellers  |          9240576
 2017-02-04 14:55:03.983568+01 | 1486216503.98357 | pgbench_history  |        247742464
 2017-02-04 14:55:03.983568+01 | 1486216503.98357 | pgbench_branches |          7479296

 2017-02-04 14:55:05.062699+01 | 1486216505.0627 | pgbench_accounts |      13587251200
 2017-02-04 14:55:05.062699+01 | 1486216505.0627 | pgbench_tellers  |          9240576
 2017-02-04 14:55:05.062699+01 | 1486216505.0627 | pgbench_history  |        249061376
 2017-02-04 14:55:05.062699+01 | 1486216505.0627 | pgbench_branches |          7479296

 2017-02-04 14:55:06.129551+01 | 1486216506.12955 | pgbench_accounts |      13587251200
 2017-02-04 14:55:06.129551+01 | 1486216506.12955 | pgbench_tellers  |          9240576
 2017-02-04 14:55:06.129551+01 | 1486216506.12955 | pgbench_history  |        250527744
 2017-02-04 14:55:06.129551+01 | 1486216506.12955 | pgbench_branches |          7479296

 2017-02-04 14:55:07.211509+01 | 1486216507.21151 | pgbench_accounts |      13587251200
 2017-02-04 14:55:07.211509+01 | 1486216507.21151 | pgbench_tellers  |          9240576
 2017-02-04 14:55:07.211509+01 | 1486216507.21151 | pgbench_history  |        252100608
 2017-02-04 14:55:07.211509+01 | 1486216507.21151 | pgbench_branches |          7479296

 2017-02-04 14:55:08.284225+01 | 1486216508.28422 | pgbench_accounts |      13587251200
 2017-02-04 14:55:08.284225+01 | 1486216508.28422 | pgbench_tellers  |          9240576
 2017-02-04 14:55:08.284225+01 | 1486216508.28422 | pgbench_history  |        252616704
 2017-02-04 14:55:08.284225+01 | 1486216508.28422 | pgbench_branches |          7479296

 2017-02-04 14:55:09.362591+01 | 1486216509.36259 | pgbench_accounts |      13587251200
 2017-02-04 14:55:09.362591+01 | 1486216509.36259 | pgbench_tellers  |          9240576
 2017-02-04 14:55:09.362591+01 | 1486216509.36259 | pgbench_history  |        254173184
 2017-02-04 14:55:09.362591+01 | 1486216509.36259 | pgbench_branches |          7479296

 2017-02-04 14:55:10.438037+01 | 1486216510.43804 | pgbench_accounts |      13587251200
 2017-02-04 14:55:10.438037+01 | 1486216510.43804 | pgbench_tellers  |          9240576
 2017-02-04 14:55:10.438037+01 | 1486216510.43804 | pgbench_history  |        255418368
 2017-02-04 14:55:10.438037+01 | 1486216510.43804 | pgbench_branches |          7479296

 2017-02-04 14:55:11.514875+01 | 1486216511.51487 | pgbench_accounts |      13587251200
 2017-02-04 14:55:11.514875+01 | 1486216511.51487 | pgbench_tellers  |          9240576
 2017-02-04 14:55:11.514875+01 | 1486216511.51487 | pgbench_history  |        256679936
 2017-02-04 14:55:11.514875+01 | 1486216511.51487 | pgbench_branches |          7479296

 2017-02-04 14:55:12.588323+01 | 1486216512.58832 | pgbench_accounts |      13587251200
 2017-02-04 14:55:12.588323+01 | 1486216512.58832 | pgbench_tellers  |          9240576
 2017-02-04 14:55:12.588323+01 | 1486216512.58832 | pgbench_history  |        257875968
 2017-02-04 14:55:12.588323+01 | 1486216512.58832 | pgbench_branches |          7479296

 2017-02-04 14:55:13.668273+01 | 1486216513.66827 | pgbench_accounts |      13587251200
 2017-02-04 14:55:13.668273+01 | 1486216513.66827 | pgbench_tellers  |          9240576
 2017-02-04 14:55:13.668273+01 | 1486216513.66827 | pgbench_history  |        258957312
 2017-02-04 14:55:13.668273+01 | 1486216513.66827 | pgbench_branches |          7479296

 2017-02-04 14:55:14.753414+01 | 1486216514.75341 | pgbench_accounts |      13587251200
 2017-02-04 14:55:14.753414+01 | 1486216514.75341 | pgbench_tellers  |          9240576
 2017-02-04 14:55:14.753414+01 | 1486216514.75341 | pgbench_history  |        261513216
 2017-02-04 14:55:14.753414+01 | 1486216514.75341 | pgbench_branches |          7479296

 2017-02-04 14:55:15.836249+01 | 1486216515.83625 | pgbench_accounts |      13587251200
 2017-02-04 14:55:15.836249+01 | 1486216515.83625 | pgbench_tellers  |          9240576
 2017-02-04 14:55:15.836249+01 | 1486216515.83625 | pgbench_history  |        261513216
 2017-02-04 14:55:15.836249+01 | 1486216515.83625 | pgbench_branches |          7479296

 2017-02-04 14:55:16.919203+01 | 1486216516.9192 | pgbench_accounts |      13587251200
 2017-02-04 14:55:16.919203+01 | 1486216516.9192 | pgbench_tellers  |          9240576
 2017-02-04 14:55:16.919203+01 | 1486216516.9192 | pgbench_history  |        262922240
 2017-02-04 14:55:16.919203+01 | 1486216516.9192 | pgbench_branches |          7479296

 2017-02-04 14:55:18.002151+01 | 1486216518.00215 | pgbench_accounts |      13587251200
 2017-02-04 14:55:18.002151+01 | 1486216518.00215 | pgbench_tellers  |          9240576
 2017-02-04 14:55:18.002151+01 | 1486216518.00215 | pgbench_history  |        264167424
 2017-02-04 14:55:18.002151+01 | 1486216518.00215 | pgbench_branches |          7479296

 2017-02-04 14:55:19.082285+01 | 1486216519.08228 | pgbench_accounts |      13587251200
 2017-02-04 14:55:19.082285+01 | 1486216519.08228 | pgbench_tellers  |          9240576
 2017-02-04 14:55:19.082285+01 | 1486216519.08228 | pgbench_history  |        265601024
 2017-02-04 14:55:19.082285+01 | 1486216519.08228 | pgbench_branches |          7479296

 2017-02-04 14:55:20.157068+01 | 1486216520.15707 | pgbench_accounts |      13587251200
 2017-02-04 14:55:20.157068+01 | 1486216520.15707 | pgbench_tellers  |          9240576
 2017-02-04 14:55:20.157068+01 | 1486216520.15707 | pgbench_history  |        266477568
 2017-02-04 14:55:20.157068+01 | 1486216520.15707 | pgbench_branches |          7479296

 2017-02-04 14:55:21.24039+01 | 1486216521.24039 | pgbench_accounts |      13587251200
 2017-02-04 14:55:21.24039+01 | 1486216521.24039 | pgbench_tellers  |          9240576
 2017-02-04 14:55:21.24039+01 | 1486216521.24039 | pgbench_history  |        267886592
 2017-02-04 14:55:21.24039+01 | 1486216521.24039 | pgbench_branches |          7479296

 2017-02-04 14:55:22.315159+01 | 1486216522.31516 | pgbench_accounts |      13587251200
 2017-02-04 14:55:22.315159+01 | 1486216522.31516 | pgbench_tellers  |          9240576
 2017-02-04 14:55:22.315159+01 | 1486216522.31516 | pgbench_history  |        269598720
 2017-02-04 14:55:22.315159+01 | 1486216522.31516 | pgbench_branches |          7479296

 2017-02-04 14:55:23.394062+01 | 1486216523.39406 | pgbench_accounts |      13587251200
 2017-02-04 14:55:23.394062+01 | 1486216523.39406 | pgbench_tellers  |          9240576
 2017-02-04 14:55:23.394062+01 | 1486216523.39406 | pgbench_history  |        270303232
 2017-02-04 14:55:23.394062+01 | 1486216523.39406 | pgbench_branches |          7479296

 2017-02-04 14:55:24.48029+01 | 1486216524.48029 | pgbench_accounts |      13587251200
 2017-02-04 14:55:24.48029+01 | 1486216524.48029 | pgbench_tellers  |          9240576
 2017-02-04 14:55:24.48029+01 | 1486216524.48029 | pgbench_history  |        271499264
 2017-02-04 14:55:24.48029+01 | 1486216524.48029 | pgbench_branches |          7479296

 2017-02-04 14:55:25.563816+01 | 1486216525.56382 | pgbench_accounts |      13587251200
 2017-02-04 14:55:25.563816+01 | 1486216525.56382 | pgbench_tellers  |          9240576
 2017-02-04 14:55:25.563816+01 | 1486216525.56382 | pgbench_history  |        273006592
 2017-02-04 14:55:25.563816+01 | 1486216525.56382 | pgbench_branches |          7479296

 2017-02-04 14:55:26.645512+01 | 1486216526.64551 | pgbench_accounts |      13587251200
 2017-02-04 14:55:26.645512+01 | 1486216526.64551 | pgbench_tellers  |          9240576
 2017-02-04 14:55:26.645512+01 | 1486216526.64551 | pgbench_history  |        274243584
 2017-02-04 14:55:26.645512+01 | 1486216526.64551 | pgbench_branches |          7479296

 2017-02-04 14:55:27.727429+01 | 1486216527.72743 | pgbench_accounts |      13587251200
 2017-02-04 14:55:27.727429+01 | 1486216527.72743 | pgbench_tellers  |          9240576
 2017-02-04 14:55:27.727429+01 | 1486216527.72743 | pgbench_history  |        275300352
 2017-02-04 14:55:27.727429+01 | 1486216527.72743 | pgbench_branches |          7479296

 2017-02-04 14:55:28.810723+01 | 1486216528.81072 | pgbench_accounts |      13587251200
 2017-02-04 14:55:28.810723+01 | 1486216528.81072 | pgbench_tellers  |          9240576
 2017-02-04 14:55:28.810723+01 | 1486216528.81072 | pgbench_history  |        276766720
 2017-02-04 14:55:28.810723+01 | 1486216528.81072 | pgbench_branches |          7479296

 2017-02-04 14:55:29.882826+01 | 1486216529.88283 | pgbench_accounts |      13587251200
 2017-02-04 14:55:29.882826+01 | 1486216529.88283 | pgbench_tellers  |          9240576
 2017-02-04 14:55:29.882826+01 | 1486216529.88283 | pgbench_history  |        277839872
 2017-02-04 14:55:29.882826+01 | 1486216529.88283 | pgbench_branches |          7479296

 2017-02-04 14:55:30.964975+01 | 1486216530.96498 | pgbench_accounts |      13587251200
 2017-02-04 14:55:30.964975+01 | 1486216530.96498 | pgbench_tellers  |          9240576
 2017-02-04 14:55:30.964975+01 | 1486216530.96498 | pgbench_history  |        279756800
 2017-02-04 14:55:30.964975+01 | 1486216530.96498 | pgbench_branches |          7479296

 2017-02-04 14:55:32.037528+01 | 1486216532.03753 | pgbench_accounts |      13587251200
 2017-02-04 14:55:32.037528+01 | 1486216532.03753 | pgbench_tellers  |          9240576
 2017-02-04 14:55:32.037528+01 | 1486216532.03753 | pgbench_history  |        281174016
 2017-02-04 14:55:32.037528+01 | 1486216532.03753 | pgbench_branches |          7479296

 2017-02-04 14:55:33.114334+01 | 1486216533.11433 | pgbench_accounts |      13587251200
 2017-02-04 14:55:33.114334+01 | 1486216533.11433 | pgbench_tellers  |          9240576
 2017-02-04 14:55:33.114334+01 | 1486216533.11433 | pgbench_history  |        281853952
 2017-02-04 14:55:33.114334+01 | 1486216533.11433 | pgbench_branches |          7479296

 2017-02-04 14:55:34.190548+01 | 1486216534.19055 | pgbench_accounts |      13587251200
 2017-02-04 14:55:34.190548+01 | 1486216534.19055 | pgbench_tellers  |          9240576
 2017-02-04 14:55:34.190548+01 | 1486216534.19055 | pgbench_history  |        282787840
 2017-02-04 14:55:34.190548+01 | 1486216534.19055 | pgbench_branches |          7479296

 2017-02-04 14:55:35.268363+01 | 1486216535.26836 | pgbench_accounts |      13587251200
 2017-02-04 14:55:35.268363+01 | 1486216535.26836 | pgbench_tellers  |          9240576
 2017-02-04 14:55:35.268363+01 | 1486216535.26836 | pgbench_history  |        285024256
 2017-02-04 14:55:35.268363+01 | 1486216535.26836 | pgbench_branches |          7479296

 2017-02-04 14:55:36.341355+01 | 1486216536.34136 | pgbench_accounts |      13587251200
 2017-02-04 14:55:36.341355+01 | 1486216536.34136 | pgbench_tellers  |          9240576
 2017-02-04 14:55:36.341355+01 | 1486216536.34136 | pgbench_history  |        285376512
 2017-02-04 14:55:36.341355+01 | 1486216536.34136 | pgbench_branches |          7479296

 2017-02-04 14:55:37.405639+01 | 1486216537.40564 | pgbench_accounts |      13587251200
 2017-02-04 14:55:37.405639+01 | 1486216537.40564 | pgbench_tellers  |          9240576
 2017-02-04 14:55:37.405639+01 | 1486216537.40564 | pgbench_history  |        286810112
 2017-02-04 14:55:37.405639+01 | 1486216537.40564 | pgbench_branches |          7479296

 2017-02-04 14:55:38.487042+01 | 1486216538.48704 | pgbench_accounts |      13587251200
 2017-02-04 14:55:38.487042+01 | 1486216538.48704 | pgbench_tellers  |          9240576
 2017-02-04 14:55:38.487042+01 | 1486216538.48704 | pgbench_history  |        288055296
 2017-02-04 14:55:38.487042+01 | 1486216538.48704 | pgbench_branches |          7479296

 2017-02-04 14:55:39.560303+01 | 1486216539.5603 | pgbench_accounts |      13587251200
 2017-02-04 14:55:39.560303+01 | 1486216539.5603 | pgbench_tellers  |          9240576
 2017-02-04 14:55:39.560303+01 | 1486216539.5603 | pgbench_history  |        289275904
 2017-02-04 14:55:39.560303+01 | 1486216539.5603 | pgbench_branches |          7479296

 2017-02-04 14:55:40.630945+01 | 1486216540.63094 | pgbench_accounts |      13587251200
 2017-02-04 14:55:40.630945+01 | 1486216540.63094 | pgbench_tellers  |          9240576
 2017-02-04 14:55:40.630945+01 | 1486216540.63094 | pgbench_history  |        290340864
 2017-02-04 14:55:40.630945+01 | 1486216540.63094 | pgbench_branches |          7479296

 2017-02-04 14:55:41.706279+01 | 1486216541.70628 | pgbench_accounts |      13587251200
 2017-02-04 14:55:41.706279+01 | 1486216541.70628 | pgbench_tellers  |          9240576
 2017-02-04 14:55:41.706279+01 | 1486216541.70628 | pgbench_history  |        291594240
 2017-02-04 14:55:41.706279+01 | 1486216541.70628 | pgbench_branches |          7479296

 2017-02-04 14:55:42.791944+01 | 1486216542.79194 | pgbench_accounts |      13587251200
 2017-02-04 14:55:42.791944+01 | 1486216542.79194 | pgbench_tellers  |          9240576
 2017-02-04 14:55:42.791944+01 | 1486216542.79194 | pgbench_history  |        293019648
 2017-02-04 14:55:42.791944+01 | 1486216542.79194 | pgbench_branches |          7479296

 2017-02-04 14:55:43.876676+01 | 1486216543.87668 | pgbench_accounts |      13587251200
 2017-02-04 14:55:43.876676+01 | 1486216543.87668 | pgbench_tellers  |          9240576
 2017-02-04 14:55:43.876676+01 | 1486216543.87668 | pgbench_history  |        294281216
 2017-02-04 14:55:43.876676+01 | 1486216543.87668 | pgbench_branches |          7479296

 2017-02-04 14:55:44.955896+01 | 1486216544.9559 | pgbench_accounts |      13587251200
 2017-02-04 14:55:44.955896+01 | 1486216544.9559 | pgbench_tellers  |          9240576
 2017-02-04 14:55:44.955896+01 | 1486216544.9559 | pgbench_history  |        295378944
 2017-02-04 14:55:44.955896+01 | 1486216544.9559 | pgbench_branches |          7479296

 2017-02-04 14:55:46.02811+01 | 1486216546.02811 | pgbench_accounts |      13587251200
 2017-02-04 14:55:46.02811+01 | 1486216546.02811 | pgbench_tellers  |          9240576
 2017-02-04 14:55:46.02811+01 | 1486216546.02811 | pgbench_history  |        296927232
 2017-02-04 14:55:46.02811+01 | 1486216546.02811 | pgbench_branches |          7479296

 2017-02-04 14:55:47.110771+01 | 1486216547.11077 | pgbench_accounts |      13587251200
 2017-02-04 14:55:47.110771+01 | 1486216547.11077 | pgbench_tellers  |          9240576
 2017-02-04 14:55:47.110771+01 | 1486216547.11077 | pgbench_history  |        299139072
 2017-02-04 14:55:47.110771+01 | 1486216547.11077 | pgbench_branches |          7479296

 2017-02-04 14:55:48.193087+01 | 1486216548.19309 | pgbench_accounts |      13587251200
 2017-02-04 14:55:48.193087+01 | 1486216548.19309 | pgbench_tellers  |          9240576
 2017-02-04 14:55:48.193087+01 | 1486216548.19309 | pgbench_history  |        299491328
 2017-02-04 14:55:48.193087+01 | 1486216548.19309 | pgbench_branches |          7479296

 2017-02-04 14:55:49.268956+01 | 1486216549.26896 | pgbench_accounts |      13587251200
 2017-02-04 14:55:49.268956+01 | 1486216549.26896 | pgbench_tellers  |          9240576
 2017-02-04 14:55:49.268956+01 | 1486216549.26896 | pgbench_history  |        300630016
 2017-02-04 14:55:49.268956+01 | 1486216549.26896 | pgbench_branches |          7479296

 2017-02-04 14:55:50.343804+01 | 1486216550.3438 | pgbench_accounts |      13587251200
 2017-02-04 14:55:50.343804+01 | 1486216550.3438 | pgbench_tellers  |          9240576
 2017-02-04 14:55:50.343804+01 | 1486216550.3438 | pgbench_history  |        301727744
 2017-02-04 14:55:50.343804+01 | 1486216550.3438 | pgbench_branches |          7479296

 2017-02-04 14:55:51.423352+01 | 1486216551.42335 | pgbench_accounts |      13587251200
 2017-02-04 14:55:51.423352+01 | 1486216551.42335 | pgbench_tellers  |          9240576
 2017-02-04 14:55:51.423352+01 | 1486216551.42335 | pgbench_history  |        303144960
 2017-02-04 14:55:51.423352+01 | 1486216551.42335 | pgbench_branches |          7479296

 2017-02-04 14:55:52.502456+01 | 1486216552.50246 | pgbench_accounts |      13587251200
 2017-02-04 14:55:52.502456+01 | 1486216552.50246 | pgbench_tellers  |          9240576
 2017-02-04 14:55:52.502456+01 | 1486216552.50246 | pgbench_history  |        304922624
 2017-02-04 14:55:52.502456+01 | 1486216552.50246 | pgbench_branches |          7479296

 2017-02-04 14:55:53.589315+01 | 1486216553.58931 | pgbench_accounts |      13587251200
 2017-02-04 14:55:53.589315+01 | 1486216553.58931 | pgbench_tellers  |          9240576
 2017-02-04 14:55:53.589315+01 | 1486216553.58931 | pgbench_history  |        305807360
 2017-02-04 14:55:53.589315+01 | 1486216553.58931 | pgbench_branches |          7479296

 2017-02-04 14:55:54.659804+01 | 1486216554.6598 | pgbench_accounts |      13587251200
 2017-02-04 14:55:54.659804+01 | 1486216554.6598 | pgbench_tellers  |          9240576
 2017-02-04 14:55:54.659804+01 | 1486216554.6598 | pgbench_history  |        307003392
 2017-02-04 14:55:54.659804+01 | 1486216554.6598 | pgbench_branches |          7479296

 2017-02-04 14:55:55.741049+01 | 1486216555.74105 | pgbench_accounts |      13587251200
 2017-02-04 14:55:55.741049+01 | 1486216555.74105 | pgbench_tellers  |          9240576
 2017-02-04 14:55:55.741049+01 | 1486216555.74105 | pgbench_history  |        308420608
 2017-02-04 14:55:55.741049+01 | 1486216555.74105 | pgbench_branches |          7479296

 2017-02-04 14:55:56.816314+01 | 1486216556.81631 | pgbench_accounts |      13587251200
 2017-02-04 14:55:56.816314+01 | 1486216556.81631 | pgbench_tellers  |          9240576
 2017-02-04 14:55:56.816314+01 | 1486216556.81631 | pgbench_history  |        309837824
 2017-02-04 14:55:56.816314+01 | 1486216556.81631 | pgbench_branches |          7479296

 2017-02-04 14:55:57.893738+01 | 1486216557.89374 | pgbench_accounts |      13587251200
 2017-02-04 14:55:57.893738+01 | 1486216557.89374 | pgbench_tellers  |          9240576
 2017-02-04 14:55:57.893738+01 | 1486216557.89374 | pgbench_history  |        311074816
 2017-02-04 14:55:57.893738+01 | 1486216557.89374 | pgbench_branches |          7479296

 2017-02-04 14:55:58.965175+01 | 1486216558.96517 | pgbench_accounts |      13587251200
 2017-02-04 14:55:58.965175+01 | 1486216558.96517 | pgbench_tellers  |          9240576
 2017-02-04 14:55:58.965175+01 | 1486216558.96517 | pgbench_history  |        311992320
 2017-02-04 14:55:58.965175+01 | 1486216558.96517 | pgbench_branches |          7479296

 2017-02-04 14:56:00.053322+01 | 1486216560.05332 | pgbench_accounts |      13587251200
 2017-02-04 14:56:00.053322+01 | 1486216560.05332 | pgbench_tellers  |          9240576
 2017-02-04 14:56:00.053322+01 | 1486216560.05332 | pgbench_history  |        313909248
 2017-02-04 14:56:00.053322+01 | 1486216560.05332 | pgbench_branches |          7479296

 2017-02-04 14:56:01.132431+01 | 1486216561.13243 | pgbench_accounts |      13587251200
 2017-02-04 14:56:01.132431+01 | 1486216561.13243 | pgbench_tellers  |          9240576
 2017-02-04 14:56:01.132431+01 | 1486216561.13243 | pgbench_history  |        314613760
 2017-02-04 14:56:01.132431+01 | 1486216561.13243 | pgbench_branches |          7479296

 2017-02-04 14:56:02.211599+01 | 1486216562.2116 | pgbench_accounts |      13587251200
 2017-02-04 14:56:02.211599+01 | 1486216562.2116 | pgbench_tellers  |          9240576
 2017-02-04 14:56:02.211599+01 | 1486216562.2116 | pgbench_history  |        316170240
 2017-02-04 14:56:02.211599+01 | 1486216562.2116 | pgbench_branches |          7479296

 2017-02-04 14:56:03.289628+01 | 1486216563.28963 | pgbench_accounts |      13587251200
 2017-02-04 14:56:03.289628+01 | 1486216563.28963 | pgbench_tellers  |          9240576
 2017-02-04 14:56:03.289628+01 | 1486216563.28963 | pgbench_history  |        317947904
 2017-02-04 14:56:03.289628+01 | 1486216563.28963 | pgbench_branches |          7479296

 2017-02-04 14:56:04.367955+01 | 1486216564.36795 | pgbench_accounts |      13587251200
 2017-02-04 14:56:04.367955+01 | 1486216564.36795 | pgbench_tellers  |          9240576
 2017-02-04 14:56:04.367955+01 | 1486216564.36795 | pgbench_history  |        318513152
 2017-02-04 14:56:04.367955+01 | 1486216564.36795 | pgbench_branches |          7479296

 2017-02-04 14:56:05.437787+01 | 1486216565.43779 | pgbench_accounts |      13587251200
 2017-02-04 14:56:05.437787+01 | 1486216565.43779 | pgbench_tellers  |          9240576
 2017-02-04 14:56:05.437787+01 | 1486216565.43779 | pgbench_history  |        319741952
 2017-02-04 14:56:05.437787+01 | 1486216565.43779 | pgbench_branches |          7479296

 2017-02-04 14:56:06.511217+01 | 1486216566.51122 | pgbench_accounts |      13587251200
 2017-02-04 14:56:06.511217+01 | 1486216566.51122 | pgbench_tellers  |          9240576
 2017-02-04 14:56:06.511217+01 | 1486216566.51122 | pgbench_history  |        321216512
 2017-02-04 14:56:06.511217+01 | 1486216566.51122 | pgbench_branches |          7479296

 2017-02-04 14:56:07.593942+01 | 1486216567.59394 | pgbench_accounts |      13587251200
 2017-02-04 14:56:07.593942+01 | 1486216567.59394 | pgbench_tellers  |          9240576
 2017-02-04 14:56:07.593942+01 | 1486216567.59394 | pgbench_history  |        322740224
 2017-02-04 14:56:07.593942+01 | 1486216567.59394 | pgbench_branches |          7479296

 2017-02-04 14:56:08.673602+01 | 1486216568.6736 | pgbench_accounts |      13587251200
 2017-02-04 14:56:08.673602+01 | 1486216568.6736 | pgbench_tellers  |          9240576
 2017-02-04 14:56:08.673602+01 | 1486216568.6736 | pgbench_history  |        323813376
 2017-02-04 14:56:08.673602+01 | 1486216568.6736 | pgbench_branches |          7479296

 2017-02-04 14:56:09.747332+01 | 1486216569.74733 | pgbench_accounts |      13587251200
 2017-02-04 14:56:09.747332+01 | 1486216569.74733 | pgbench_tellers  |          9240576
 2017-02-04 14:56:09.747332+01 | 1486216569.74733 | pgbench_history  |        325222400
 2017-02-04 14:56:09.747332+01 | 1486216569.74733 | pgbench_branches |          7479296

 2017-02-04 14:56:10.820359+01 | 1486216570.82036 | pgbench_accounts |      13587251200
 2017-02-04 14:56:10.820359+01 | 1486216570.82036 | pgbench_tellers  |          9240576
 2017-02-04 14:56:10.820359+01 | 1486216570.82036 | pgbench_history  |        326656000
 2017-02-04 14:56:10.820359+01 | 1486216570.82036 | pgbench_branches |          7479296

 2017-02-04 14:56:11.893074+01 | 1486216571.89307 | pgbench_accounts |      13587251200
 2017-02-04 14:56:11.893074+01 | 1486216571.89307 | pgbench_tellers  |          9240576
 2017-02-04 14:56:11.893074+01 | 1486216571.89307 | pgbench_history  |        327417856
 2017-02-04 14:56:11.893074+01 | 1486216571.89307 | pgbench_branches |          7479296

 2017-02-04 14:56:12.967109+01 | 1486216572.96711 | pgbench_accounts |      13587251200
 2017-02-04 14:56:12.967109+01 | 1486216572.96711 | pgbench_tellers  |          9240576
 2017-02-04 14:56:12.967109+01 | 1486216572.96711 | pgbench_history  |        329039872
 2017-02-04 14:56:12.967109+01 | 1486216572.96711 | pgbench_branches |          7479296

 2017-02-04 14:56:14.049151+01 | 1486216574.04915 | pgbench_accounts |      13587251200
 2017-02-04 14:56:14.049151+01 | 1486216574.04915 | pgbench_tellers  |          9240576
 2017-02-04 14:56:14.049151+01 | 1486216574.04915 | pgbench_history  |        330948608
 2017-02-04 14:56:14.049151+01 | 1486216574.04915 | pgbench_branches |          7479296

 2017-02-04 14:56:15.126462+01 | 1486216575.12646 | pgbench_accounts |      13587251200
 2017-02-04 14:56:15.126462+01 | 1486216575.12646 | pgbench_tellers  |          9240576
 2017-02-04 14:56:15.126462+01 | 1486216575.12646 | pgbench_history  |        331464704
 2017-02-04 14:56:15.126462+01 | 1486216575.12646 | pgbench_branches |          7479296

 2017-02-04 14:56:16.198576+01 | 1486216576.19858 | pgbench_accounts |      13587251200
 2017-02-04 14:56:16.198576+01 | 1486216576.19858 | pgbench_tellers  |          9240576
 2017-02-04 14:56:16.198576+01 | 1486216576.19858 | pgbench_history  |        332537856
 2017-02-04 14:56:16.198576+01 | 1486216576.19858 | pgbench_branches |          7479296

 2017-02-04 14:56:17.279215+01 | 1486216577.27922 | pgbench_accounts |      13587251200
 2017-02-04 14:56:17.279215+01 | 1486216577.27922 | pgbench_tellers  |          9240576
 2017-02-04 14:56:17.279215+01 | 1486216577.27922 | pgbench_history  |        333946880
 2017-02-04 14:56:17.279215+01 | 1486216577.27922 | pgbench_branches |          7479296

 2017-02-04 14:56:18.353647+01 | 1486216578.35365 | pgbench_accounts |      13587251200
 2017-02-04 14:56:18.353647+01 | 1486216578.35365 | pgbench_tellers  |          9240576
 2017-02-04 14:56:18.353647+01 | 1486216578.35365 | pgbench_history  |        335175680
 2017-02-04 14:56:18.353647+01 | 1486216578.35365 | pgbench_branches |          7479296

 2017-02-04 14:56:19.437776+01 | 1486216579.43778 | pgbench_accounts |      13587251200
 2017-02-04 14:56:19.437776+01 | 1486216579.43778 | pgbench_tellers  |          9240576
 2017-02-04 14:56:19.437776+01 | 1486216579.43778 | pgbench_history  |        336568320
 2017-02-04 14:56:19.437776+01 | 1486216579.43778 | pgbench_branches |          7479296

 2017-02-04 14:56:20.513644+01 | 1486216580.51364 | pgbench_accounts |      13587251200
 2017-02-04 14:56:20.513644+01 | 1486216580.51364 | pgbench_tellers  |          9240576
 2017-02-04 14:56:20.513644+01 | 1486216580.51364 | pgbench_history  |        337690624
 2017-02-04 14:56:20.513644+01 | 1486216580.51364 | pgbench_branches |          7479296

 2017-02-04 14:56:21.59809+01 | 1486216581.59809 | pgbench_accounts |      13587251200
 2017-02-04 14:56:21.59809+01 | 1486216581.59809 | pgbench_tellers  |          9240576
 2017-02-04 14:56:21.59809+01 | 1486216581.59809 | pgbench_history  |        338960384
 2017-02-04 14:56:21.59809+01 | 1486216581.59809 | pgbench_branches |          7479296

 2017-02-04 14:56:22.674062+01 | 1486216582.67406 | pgbench_accounts |      13587251200
 2017-02-04 14:56:22.674062+01 | 1486216582.67406 | pgbench_tellers  |          9240576
 2017-02-04 14:56:22.674062+01 | 1486216582.67406 | pgbench_history  |        340516864
 2017-02-04 14:56:22.674062+01 | 1486216582.67406 | pgbench_branches |          7479296

 2017-02-04 14:56:23.752233+01 | 1486216583.75223 | pgbench_accounts |      13587251200
 2017-02-04 14:56:23.752233+01 | 1486216583.75223 | pgbench_tellers  |          9240576
 2017-02-04 14:56:23.752233+01 | 1486216583.75223 | pgbench_history  |        341794816
 2017-02-04 14:56:23.752233+01 | 1486216583.75223 | pgbench_branches |          7479296

 2017-02-04 14:56:24.82634+01 | 1486216584.82634 | pgbench_accounts |      13587251200
 2017-02-04 14:56:24.82634+01 | 1486216584.82634 | pgbench_tellers  |          9240576
 2017-02-04 14:56:24.82634+01 | 1486216584.82634 | pgbench_history  |        343367680
 2017-02-04 14:56:24.82634+01 | 1486216584.82634 | pgbench_branches |          7479296

