 2017-02-05 14:30:41.882125+01 | 1486301441.88212 | pgbench_branches_pkey |            40960
 2017-02-05 14:30:41.882125+01 | 1486301441.88212 | pgbench_tellers_pkey  |           245760
 2017-02-05 14:30:41.882125+01 | 1486301441.88212 | pgbench_accounts_pkey |       2246197248

 2017-02-05 14:30:42.970809+01 | 1486301442.97081 | pgbench_branches_pkey |            40960
 2017-02-05 14:30:42.970809+01 | 1486301442.97081 | pgbench_tellers_pkey  |           245760
 2017-02-05 14:30:42.970809+01 | 1486301442.97081 | pgbench_accounts_pkey |       2246197248

 2017-02-05 14:30:44.049625+01 | 1486301444.04962 | pgbench_branches_pkey |            40960
 2017-02-05 14:30:44.049625+01 | 1486301444.04962 | pgbench_tellers_pkey  |           245760
 2017-02-05 14:30:44.049625+01 | 1486301444.04962 | pgbench_accounts_pkey |       2246197248

 2017-02-05 14:30:45.135423+01 | 1486301445.13542 | pgbench_branches_pkey |            40960
 2017-02-05 14:30:45.135423+01 | 1486301445.13542 | pgbench_tellers_pkey  |           245760
 2017-02-05 14:30:45.135423+01 | 1486301445.13542 | pgbench_accounts_pkey |       2246197248

 2017-02-05 14:30:46.218917+01 | 1486301446.21892 | pgbench_branches_pkey |            40960
 2017-02-05 14:30:46.218917+01 | 1486301446.21892 | pgbench_tellers_pkey  |           245760
 2017-02-05 14:30:46.218917+01 | 1486301446.21892 | pgbench_accounts_pkey |       2246197248

 2017-02-05 14:30:47.302648+01 | 1486301447.30265 | pgbench_branches_pkey |            40960
 2017-02-05 14:30:47.302648+01 | 1486301447.30265 | pgbench_tellers_pkey  |           245760
 2017-02-05 14:30:47.302648+01 | 1486301447.30265 | pgbench_accounts_pkey |       2246197248

 2017-02-05 14:30:48.381117+01 | 1486301448.38112 | pgbench_branches_pkey |            40960
 2017-02-05 14:30:48.381117+01 | 1486301448.38112 | pgbench_tellers_pkey  |           245760
 2017-02-05 14:30:48.381117+01 | 1486301448.38112 | pgbench_accounts_pkey |       2246197248

 2017-02-05 14:30:49.463279+01 | 1486301449.46328 | pgbench_branches_pkey |            40960
 2017-02-05 14:30:49.463279+01 | 1486301449.46328 | pgbench_tellers_pkey  |           245760
 2017-02-05 14:30:49.463279+01 | 1486301449.46328 | pgbench_accounts_pkey |       2246197248

 2017-02-05 14:30:50.540643+01 | 1486301450.54064 | pgbench_branches_pkey |            40960
 2017-02-05 14:30:50.540643+01 | 1486301450.54064 | pgbench_tellers_pkey  |           245760
 2017-02-05 14:30:50.540643+01 | 1486301450.54064 | pgbench_accounts_pkey |       2246197248

 2017-02-05 14:30:51.618631+01 | 1486301451.61863 | pgbench_branches_pkey |            40960
 2017-02-05 14:30:51.618631+01 | 1486301451.61863 | pgbench_tellers_pkey  |           245760
 2017-02-05 14:30:51.618631+01 | 1486301451.61863 | pgbench_accounts_pkey |       2246197248

 2017-02-05 14:30:52.699595+01 | 1486301452.69959 | pgbench_branches_pkey |            40960
 2017-02-05 14:30:52.699595+01 | 1486301452.69959 | pgbench_tellers_pkey  |           245760
 2017-02-05 14:30:52.699595+01 | 1486301452.69959 | pgbench_accounts_pkey |       2246197248

 2017-02-05 14:30:53.784415+01 | 1486301453.78442 | pgbench_branches_pkey |            40960
 2017-02-05 14:30:53.784415+01 | 1486301453.78442 | pgbench_tellers_pkey  |           245760
 2017-02-05 14:30:53.784415+01 | 1486301453.78442 | pgbench_accounts_pkey |       2246197248

 2017-02-05 14:30:54.872774+01 | 1486301454.87277 | pgbench_branches_pkey |            40960
 2017-02-05 14:30:54.872774+01 | 1486301454.87277 | pgbench_tellers_pkey  |           245760
 2017-02-05 14:30:54.872774+01 | 1486301454.87277 | pgbench_accounts_pkey |       2246197248

 2017-02-05 14:30:55.960156+01 | 1486301455.96016 | pgbench_branches_pkey |            40960
 2017-02-05 14:30:55.960156+01 | 1486301455.96016 | pgbench_tellers_pkey  |           245760
 2017-02-05 14:30:55.960156+01 | 1486301455.96016 | pgbench_accounts_pkey |       2246197248

 2017-02-05 14:30:57.038511+01 | 1486301457.03851 | pgbench_branches_pkey |            40960
 2017-02-05 14:30:57.038511+01 | 1486301457.03851 | pgbench_tellers_pkey  |           245760
 2017-02-05 14:30:57.038511+01 | 1486301457.03851 | pgbench_accounts_pkey |       2246197248

 2017-02-05 14:30:58.119117+01 | 1486301458.11912 | pgbench_branches_pkey |            40960
 2017-02-05 14:30:58.119117+01 | 1486301458.11912 | pgbench_tellers_pkey  |           245760
 2017-02-05 14:30:58.119117+01 | 1486301458.11912 | pgbench_accounts_pkey |       2246197248

 2017-02-05 14:30:59.198864+01 | 1486301459.19886 | pgbench_branches_pkey |            40960
 2017-02-05 14:30:59.198864+01 | 1486301459.19886 | pgbench_tellers_pkey  |           245760
 2017-02-05 14:30:59.198864+01 | 1486301459.19886 | pgbench_accounts_pkey |       2246197248

 2017-02-05 14:31:00.277917+01 | 1486301460.27792 | pgbench_branches_pkey |            40960
 2017-02-05 14:31:00.277917+01 | 1486301460.27792 | pgbench_tellers_pkey  |           245760
 2017-02-05 14:31:00.277917+01 | 1486301460.27792 | pgbench_accounts_pkey |       2246197248

 2017-02-05 14:31:01.353974+01 | 1486301461.35397 | pgbench_branches_pkey |            40960
 2017-02-05 14:31:01.353974+01 | 1486301461.35397 | pgbench_tellers_pkey  |           245760
 2017-02-05 14:31:01.353974+01 | 1486301461.35397 | pgbench_accounts_pkey |       2246197248

 2017-02-05 14:31:02.441318+01 | 1486301462.44132 | pgbench_branches_pkey |            40960
 2017-02-05 14:31:02.441318+01 | 1486301462.44132 | pgbench_tellers_pkey  |           245760
 2017-02-05 14:31:02.441318+01 | 1486301462.44132 | pgbench_accounts_pkey |       2246197248

 2017-02-05 14:31:03.502378+01 | 1486301463.50238 | pgbench_branches_pkey |            40960
 2017-02-05 14:31:03.502378+01 | 1486301463.50238 | pgbench_tellers_pkey  |           245760
 2017-02-05 14:31:03.502378+01 | 1486301463.50238 | pgbench_accounts_pkey |       2246197248

 2017-02-05 14:31:04.58086+01 | 1486301464.58086 | pgbench_branches_pkey |            40960
 2017-02-05 14:31:04.58086+01 | 1486301464.58086 | pgbench_tellers_pkey  |           245760
 2017-02-05 14:31:04.58086+01 | 1486301464.58086 | pgbench_accounts_pkey |       2246197248

 2017-02-05 14:31:05.658659+01 | 1486301465.65866 | pgbench_branches_pkey |            40960
 2017-02-05 14:31:05.658659+01 | 1486301465.65866 | pgbench_tellers_pkey  |           245760
 2017-02-05 14:31:05.658659+01 | 1486301465.65866 | pgbench_accounts_pkey |       2246197248

 2017-02-05 14:31:06.736989+01 | 1486301466.73699 | pgbench_branches_pkey |            40960
 2017-02-05 14:31:06.736989+01 | 1486301466.73699 | pgbench_tellers_pkey  |           245760
 2017-02-05 14:31:06.736989+01 | 1486301466.73699 | pgbench_accounts_pkey |       2246197248

 2017-02-05 14:31:07.816961+01 | 1486301467.81696 | pgbench_branches_pkey |            40960
 2017-02-05 14:31:07.816961+01 | 1486301467.81696 | pgbench_tellers_pkey  |           245760
 2017-02-05 14:31:07.816961+01 | 1486301467.81696 | pgbench_accounts_pkey |       2246197248

 2017-02-05 14:31:08.896575+01 | 1486301468.89657 | pgbench_branches_pkey |            40960
 2017-02-05 14:31:08.896575+01 | 1486301468.89657 | pgbench_tellers_pkey  |           245760
 2017-02-05 14:31:08.896575+01 | 1486301468.89657 | pgbench_accounts_pkey |       2246197248

 2017-02-05 14:31:09.973127+01 | 1486301469.97313 | pgbench_branches_pkey |            40960
 2017-02-05 14:31:09.973127+01 | 1486301469.97313 | pgbench_tellers_pkey  |           245760
 2017-02-05 14:31:09.973127+01 | 1486301469.97313 | pgbench_accounts_pkey |       2246197248

 2017-02-05 14:31:11.052384+01 | 1486301471.05238 | pgbench_branches_pkey |            40960
 2017-02-05 14:31:11.052384+01 | 1486301471.05238 | pgbench_tellers_pkey  |           245760
 2017-02-05 14:31:11.052384+01 | 1486301471.05238 | pgbench_accounts_pkey |       2246197248

 2017-02-05 14:31:12.139055+01 | 1486301472.13906 | pgbench_branches_pkey |            40960
 2017-02-05 14:31:12.139055+01 | 1486301472.13906 | pgbench_tellers_pkey  |           245760
 2017-02-05 14:31:12.139055+01 | 1486301472.13906 | pgbench_accounts_pkey |       2246197248

 2017-02-05 14:31:13.226647+01 | 1486301473.22665 | pgbench_branches_pkey |            40960
 2017-02-05 14:31:13.226647+01 | 1486301473.22665 | pgbench_tellers_pkey  |           245760
 2017-02-05 14:31:13.226647+01 | 1486301473.22665 | pgbench_accounts_pkey |       2246197248

 2017-02-05 14:31:14.306959+01 | 1486301474.30696 | pgbench_branches_pkey |            40960
 2017-02-05 14:31:14.306959+01 | 1486301474.30696 | pgbench_tellers_pkey  |           245760
 2017-02-05 14:31:14.306959+01 | 1486301474.30696 | pgbench_accounts_pkey |       2246197248

 2017-02-05 14:31:15.388073+01 | 1486301475.38807 | pgbench_branches_pkey |            40960
 2017-02-05 14:31:15.388073+01 | 1486301475.38807 | pgbench_tellers_pkey  |           245760
 2017-02-05 14:31:15.388073+01 | 1486301475.38807 | pgbench_accounts_pkey |       2246197248

 2017-02-05 14:31:16.466458+01 | 1486301476.46646 | pgbench_branches_pkey |            40960
 2017-02-05 14:31:16.466458+01 | 1486301476.46646 | pgbench_tellers_pkey  |           245760
 2017-02-05 14:31:16.466458+01 | 1486301476.46646 | pgbench_accounts_pkey |       2246197248

 2017-02-05 14:31:17.544079+01 | 1486301477.54408 | pgbench_branches_pkey |            40960
 2017-02-05 14:31:17.544079+01 | 1486301477.54408 | pgbench_tellers_pkey  |           245760
 2017-02-05 14:31:17.544079+01 | 1486301477.54408 | pgbench_accounts_pkey |       2246197248

 2017-02-05 14:31:18.62225+01 | 1486301478.62225 | pgbench_branches_pkey |            40960
 2017-02-05 14:31:18.62225+01 | 1486301478.62225 | pgbench_tellers_pkey  |           245760
 2017-02-05 14:31:18.62225+01 | 1486301478.62225 | pgbench_accounts_pkey |       2246197248

 2017-02-05 14:31:19.702043+01 | 1486301479.70204 | pgbench_branches_pkey |            40960
 2017-02-05 14:31:19.702043+01 | 1486301479.70204 | pgbench_tellers_pkey  |           245760
 2017-02-05 14:31:19.702043+01 | 1486301479.70204 | pgbench_accounts_pkey |       2246197248

 2017-02-05 14:31:20.783509+01 | 1486301480.78351 | pgbench_branches_pkey |            40960
 2017-02-05 14:31:20.783509+01 | 1486301480.78351 | pgbench_tellers_pkey  |           245760
 2017-02-05 14:31:20.783509+01 | 1486301480.78351 | pgbench_accounts_pkey |       2246197248

 2017-02-05 14:31:21.873342+01 | 1486301481.87334 | pgbench_branches_pkey |            40960
 2017-02-05 14:31:21.873342+01 | 1486301481.87334 | pgbench_tellers_pkey  |           245760
 2017-02-05 14:31:21.873342+01 | 1486301481.87334 | pgbench_accounts_pkey |       2246197248

 2017-02-05 14:31:22.957999+01 | 1486301482.958 | pgbench_branches_pkey |            40960
 2017-02-05 14:31:22.957999+01 | 1486301482.958 | pgbench_tellers_pkey  |           245760
 2017-02-05 14:31:22.957999+01 | 1486301482.958 | pgbench_accounts_pkey |       2246197248

 2017-02-05 14:31:24.037917+01 | 1486301484.03792 | pgbench_branches_pkey |            40960
 2017-02-05 14:31:24.037917+01 | 1486301484.03792 | pgbench_tellers_pkey  |           245760
 2017-02-05 14:31:24.037917+01 | 1486301484.03792 | pgbench_accounts_pkey |       2246197248

 2017-02-05 14:31:25.116642+01 | 1486301485.11664 | pgbench_branches_pkey |            40960
 2017-02-05 14:31:25.116642+01 | 1486301485.11664 | pgbench_tellers_pkey  |           245760
 2017-02-05 14:31:25.116642+01 | 1486301485.11664 | pgbench_accounts_pkey |       2246197248

 2017-02-05 14:31:26.192544+01 | 1486301486.19254 | pgbench_branches_pkey |            40960
 2017-02-05 14:31:26.192544+01 | 1486301486.19254 | pgbench_tellers_pkey  |           245760
 2017-02-05 14:31:26.192544+01 | 1486301486.19254 | pgbench_accounts_pkey |       2246197248

 2017-02-05 14:31:27.27402+01 | 1486301487.27402 | pgbench_branches_pkey |            40960
 2017-02-05 14:31:27.27402+01 | 1486301487.27402 | pgbench_tellers_pkey  |           245760
 2017-02-05 14:31:27.27402+01 | 1486301487.27402 | pgbench_accounts_pkey |       2246197248

 2017-02-05 14:31:28.354134+01 | 1486301488.35413 | pgbench_branches_pkey |            40960
 2017-02-05 14:31:28.354134+01 | 1486301488.35413 | pgbench_tellers_pkey  |           245760
 2017-02-05 14:31:28.354134+01 | 1486301488.35413 | pgbench_accounts_pkey |       2246197248

 2017-02-05 14:31:29.431801+01 | 1486301489.4318 | pgbench_branches_pkey |            40960
 2017-02-05 14:31:29.431801+01 | 1486301489.4318 | pgbench_tellers_pkey  |           245760
 2017-02-05 14:31:29.431801+01 | 1486301489.4318 | pgbench_accounts_pkey |       2246197248

 2017-02-05 14:31:30.512957+01 | 1486301490.51296 | pgbench_branches_pkey |            40960
 2017-02-05 14:31:30.512957+01 | 1486301490.51296 | pgbench_tellers_pkey  |           245760
 2017-02-05 14:31:30.512957+01 | 1486301490.51296 | pgbench_accounts_pkey |       2246197248

 2017-02-05 14:31:31.59089+01 | 1486301491.59089 | pgbench_branches_pkey |            40960
 2017-02-05 14:31:31.59089+01 | 1486301491.59089 | pgbench_tellers_pkey  |           245760
 2017-02-05 14:31:31.59089+01 | 1486301491.59089 | pgbench_accounts_pkey |       2246197248

 2017-02-05 14:31:32.668933+01 | 1486301492.66893 | pgbench_branches_pkey |            40960
 2017-02-05 14:31:32.668933+01 | 1486301492.66893 | pgbench_tellers_pkey  |           245760
 2017-02-05 14:31:32.668933+01 | 1486301492.66893 | pgbench_accounts_pkey |       2246197248

 2017-02-05 14:31:33.752885+01 | 1486301493.75289 | pgbench_branches_pkey |            40960
 2017-02-05 14:31:33.752885+01 | 1486301493.75289 | pgbench_tellers_pkey  |           245760
 2017-02-05 14:31:33.752885+01 | 1486301493.75289 | pgbench_accounts_pkey |       2246197248

 2017-02-05 14:31:34.83356+01 | 1486301494.83356 | pgbench_branches_pkey |            40960
 2017-02-05 14:31:34.83356+01 | 1486301494.83356 | pgbench_tellers_pkey  |           245760
 2017-02-05 14:31:34.83356+01 | 1486301494.83356 | pgbench_accounts_pkey |       2246197248

 2017-02-05 14:31:35.911519+01 | 1486301495.91152 | pgbench_branches_pkey |            40960
 2017-02-05 14:31:35.911519+01 | 1486301495.91152 | pgbench_tellers_pkey  |           245760
 2017-02-05 14:31:35.911519+01 | 1486301495.91152 | pgbench_accounts_pkey |       2246197248

 2017-02-05 14:31:36.988827+01 | 1486301496.98883 | pgbench_branches_pkey |            40960
 2017-02-05 14:31:36.988827+01 | 1486301496.98883 | pgbench_tellers_pkey  |           245760
 2017-02-05 14:31:36.988827+01 | 1486301496.98883 | pgbench_accounts_pkey |       2246197248

 2017-02-05 14:31:38.067555+01 | 1486301498.06755 | pgbench_branches_pkey |            40960
 2017-02-05 14:31:38.067555+01 | 1486301498.06755 | pgbench_tellers_pkey  |           245760
 2017-02-05 14:31:38.067555+01 | 1486301498.06755 | pgbench_accounts_pkey |       2246197248

 2017-02-05 14:31:39.141174+01 | 1486301499.14117 | pgbench_branches_pkey |            40960
 2017-02-05 14:31:39.141174+01 | 1486301499.14117 | pgbench_tellers_pkey  |           245760
 2017-02-05 14:31:39.141174+01 | 1486301499.14117 | pgbench_accounts_pkey |       2246197248

 2017-02-05 14:31:40.222003+01 | 1486301500.222 | pgbench_branches_pkey |            40960
 2017-02-05 14:31:40.222003+01 | 1486301500.222 | pgbench_tellers_pkey  |           245760
 2017-02-05 14:31:40.222003+01 | 1486301500.222 | pgbench_accounts_pkey |       2246197248

 2017-02-05 14:31:41.299025+01 | 1486301501.29903 | pgbench_branches_pkey |            40960
 2017-02-05 14:31:41.299025+01 | 1486301501.29903 | pgbench_tellers_pkey  |           245760
 2017-02-05 14:31:41.299025+01 | 1486301501.29903 | pgbench_accounts_pkey |       2246197248

 2017-02-05 14:31:42.385023+01 | 1486301502.38502 | pgbench_branches_pkey |            40960
 2017-02-05 14:31:42.385023+01 | 1486301502.38502 | pgbench_tellers_pkey  |           245760
 2017-02-05 14:31:42.385023+01 | 1486301502.38502 | pgbench_accounts_pkey |       2246197248

 2017-02-05 14:31:43.474769+01 | 1486301503.47477 | pgbench_branches_pkey |            40960
 2017-02-05 14:31:43.474769+01 | 1486301503.47477 | pgbench_tellers_pkey  |           245760
 2017-02-05 14:31:43.474769+01 | 1486301503.47477 | pgbench_accounts_pkey |       2246197248

 2017-02-05 14:31:44.553004+01 | 1486301504.553 | pgbench_branches_pkey |            40960
 2017-02-05 14:31:44.553004+01 | 1486301504.553 | pgbench_tellers_pkey  |           245760
 2017-02-05 14:31:44.553004+01 | 1486301504.553 | pgbench_accounts_pkey |       2246197248

 2017-02-05 14:31:45.63039+01 | 1486301505.63039 | pgbench_branches_pkey |            40960
 2017-02-05 14:31:45.63039+01 | 1486301505.63039 | pgbench_tellers_pkey  |           245760
 2017-02-05 14:31:45.63039+01 | 1486301505.63039 | pgbench_accounts_pkey |       2246197248

 2017-02-05 14:31:46.709424+01 | 1486301506.70942 | pgbench_branches_pkey |            40960
 2017-02-05 14:31:46.709424+01 | 1486301506.70942 | pgbench_tellers_pkey  |           245760
 2017-02-05 14:31:46.709424+01 | 1486301506.70942 | pgbench_accounts_pkey |       2246197248

 2017-02-05 14:31:47.778983+01 | 1486301507.77898 | pgbench_branches_pkey |            40960
 2017-02-05 14:31:47.778983+01 | 1486301507.77898 | pgbench_tellers_pkey  |           245760
 2017-02-05 14:31:47.778983+01 | 1486301507.77898 | pgbench_accounts_pkey |       2246197248

 2017-02-05 14:31:48.854022+01 | 1486301508.85402 | pgbench_branches_pkey |            40960
 2017-02-05 14:31:48.854022+01 | 1486301508.85402 | pgbench_tellers_pkey  |           245760
 2017-02-05 14:31:48.854022+01 | 1486301508.85402 | pgbench_accounts_pkey |       2246197248

 2017-02-05 14:31:49.927421+01 | 1486301509.92742 | pgbench_branches_pkey |            40960
 2017-02-05 14:31:49.927421+01 | 1486301509.92742 | pgbench_tellers_pkey  |           245760
 2017-02-05 14:31:49.927421+01 | 1486301509.92742 | pgbench_accounts_pkey |       2246197248

 2017-02-05 14:31:51.002819+01 | 1486301511.00282 | pgbench_branches_pkey |            40960
 2017-02-05 14:31:51.002819+01 | 1486301511.00282 | pgbench_tellers_pkey  |           245760
 2017-02-05 14:31:51.002819+01 | 1486301511.00282 | pgbench_accounts_pkey |       2246197248

 2017-02-05 14:31:52.076468+01 | 1486301512.07647 | pgbench_branches_pkey |            40960
 2017-02-05 14:31:52.076468+01 | 1486301512.07647 | pgbench_tellers_pkey  |           245760
 2017-02-05 14:31:52.076468+01 | 1486301512.07647 | pgbench_accounts_pkey |       2246197248

 2017-02-05 14:31:53.165173+01 | 1486301513.16517 | pgbench_branches_pkey |            40960
 2017-02-05 14:31:53.165173+01 | 1486301513.16517 | pgbench_tellers_pkey  |           245760
 2017-02-05 14:31:53.165173+01 | 1486301513.16517 | pgbench_accounts_pkey |       2246197248

 2017-02-05 14:31:54.241349+01 | 1486301514.24135 | pgbench_branches_pkey |            40960
 2017-02-05 14:31:54.241349+01 | 1486301514.24135 | pgbench_tellers_pkey  |           245760
 2017-02-05 14:31:54.241349+01 | 1486301514.24135 | pgbench_accounts_pkey |       2246197248

 2017-02-05 14:31:55.31828+01 | 1486301515.31828 | pgbench_branches_pkey |            40960
 2017-02-05 14:31:55.31828+01 | 1486301515.31828 | pgbench_tellers_pkey  |           245760
 2017-02-05 14:31:55.31828+01 | 1486301515.31828 | pgbench_accounts_pkey |       2246197248

 2017-02-05 14:31:56.391497+01 | 1486301516.3915 | pgbench_branches_pkey |            40960
 2017-02-05 14:31:56.391497+01 | 1486301516.3915 | pgbench_tellers_pkey  |           245760
 2017-02-05 14:31:56.391497+01 | 1486301516.3915 | pgbench_accounts_pkey |       2246197248

 2017-02-05 14:31:57.470698+01 | 1486301517.4707 | pgbench_branches_pkey |            40960
 2017-02-05 14:31:57.470698+01 | 1486301517.4707 | pgbench_tellers_pkey  |           245760
 2017-02-05 14:31:57.470698+01 | 1486301517.4707 | pgbench_accounts_pkey |       2246197248

 2017-02-05 14:31:58.552235+01 | 1486301518.55223 | pgbench_branches_pkey |            40960
 2017-02-05 14:31:58.552235+01 | 1486301518.55223 | pgbench_tellers_pkey  |           245760
 2017-02-05 14:31:58.552235+01 | 1486301518.55223 | pgbench_accounts_pkey |       2246197248

 2017-02-05 14:31:59.631341+01 | 1486301519.63134 | pgbench_branches_pkey |            40960
 2017-02-05 14:31:59.631341+01 | 1486301519.63134 | pgbench_tellers_pkey  |           245760
 2017-02-05 14:31:59.631341+01 | 1486301519.63134 | pgbench_accounts_pkey |       2246197248

 2017-02-05 14:32:00.710552+01 | 1486301520.71055 | pgbench_branches_pkey |            40960
 2017-02-05 14:32:00.710552+01 | 1486301520.71055 | pgbench_tellers_pkey  |           245760
 2017-02-05 14:32:00.710552+01 | 1486301520.71055 | pgbench_accounts_pkey |       2246197248

 2017-02-05 14:32:01.783808+01 | 1486301521.78381 | pgbench_branches_pkey |            40960
 2017-02-05 14:32:01.783808+01 | 1486301521.78381 | pgbench_tellers_pkey  |           245760
 2017-02-05 14:32:01.783808+01 | 1486301521.78381 | pgbench_accounts_pkey |       2246197248

 2017-02-05 14:32:02.87054+01 | 1486301522.87054 | pgbench_branches_pkey |            40960
 2017-02-05 14:32:02.87054+01 | 1486301522.87054 | pgbench_tellers_pkey  |           245760
 2017-02-05 14:32:02.87054+01 | 1486301522.87054 | pgbench_accounts_pkey |       2246197248

 2017-02-05 14:32:03.947945+01 | 1486301523.94795 | pgbench_branches_pkey |            40960
 2017-02-05 14:32:03.947945+01 | 1486301523.94795 | pgbench_tellers_pkey  |           245760
 2017-02-05 14:32:03.947945+01 | 1486301523.94795 | pgbench_accounts_pkey |       2246197248

 2017-02-05 14:32:05.038736+01 | 1486301525.03874 | pgbench_branches_pkey |            40960
 2017-02-05 14:32:05.038736+01 | 1486301525.03874 | pgbench_tellers_pkey  |           245760
 2017-02-05 14:32:05.038736+01 | 1486301525.03874 | pgbench_accounts_pkey |       2246197248

 2017-02-05 14:32:06.122622+01 | 1486301526.12262 | pgbench_branches_pkey |            40960
 2017-02-05 14:32:06.122622+01 | 1486301526.12262 | pgbench_tellers_pkey  |           245760
 2017-02-05 14:32:06.122622+01 | 1486301526.12262 | pgbench_accounts_pkey |       2246197248

 2017-02-05 14:32:07.197954+01 | 1486301527.19795 | pgbench_branches_pkey |            40960
 2017-02-05 14:32:07.197954+01 | 1486301527.19795 | pgbench_tellers_pkey  |           245760
 2017-02-05 14:32:07.197954+01 | 1486301527.19795 | pgbench_accounts_pkey |       2246197248

 2017-02-05 14:32:08.285663+01 | 1486301528.28566 | pgbench_branches_pkey |            40960
 2017-02-05 14:32:08.285663+01 | 1486301528.28566 | pgbench_tellers_pkey  |           245760
 2017-02-05 14:32:08.285663+01 | 1486301528.28566 | pgbench_accounts_pkey |       2246197248

 2017-02-05 14:32:09.363147+01 | 1486301529.36315 | pgbench_branches_pkey |            40960
 2017-02-05 14:32:09.363147+01 | 1486301529.36315 | pgbench_tellers_pkey  |           245760
 2017-02-05 14:32:09.363147+01 | 1486301529.36315 | pgbench_accounts_pkey |       2246197248

 2017-02-05 14:32:10.43895+01 | 1486301530.43895 | pgbench_branches_pkey |            40960
 2017-02-05 14:32:10.43895+01 | 1486301530.43895 | pgbench_tellers_pkey  |           245760
 2017-02-05 14:32:10.43895+01 | 1486301530.43895 | pgbench_accounts_pkey |       2246197248

 2017-02-05 14:32:11.509608+01 | 1486301531.50961 | pgbench_branches_pkey |            40960
 2017-02-05 14:32:11.509608+01 | 1486301531.50961 | pgbench_tellers_pkey  |           245760
 2017-02-05 14:32:11.509608+01 | 1486301531.50961 | pgbench_accounts_pkey |       2246197248

 2017-02-05 14:32:12.592435+01 | 1486301532.59243 | pgbench_branches_pkey |            40960
 2017-02-05 14:32:12.592435+01 | 1486301532.59243 | pgbench_tellers_pkey  |           245760
 2017-02-05 14:32:12.592435+01 | 1486301532.59243 | pgbench_accounts_pkey |       2246197248

 2017-02-05 14:32:13.675632+01 | 1486301533.67563 | pgbench_branches_pkey |            40960
 2017-02-05 14:32:13.675632+01 | 1486301533.67563 | pgbench_tellers_pkey  |           245760
 2017-02-05 14:32:13.675632+01 | 1486301533.67563 | pgbench_accounts_pkey |       2246197248

 2017-02-05 14:32:14.754781+01 | 1486301534.75478 | pgbench_branches_pkey |            40960
 2017-02-05 14:32:14.754781+01 | 1486301534.75478 | pgbench_tellers_pkey  |           245760
 2017-02-05 14:32:14.754781+01 | 1486301534.75478 | pgbench_accounts_pkey |       2246197248

 2017-02-05 14:32:15.831981+01 | 1486301535.83198 | pgbench_branches_pkey |            40960
 2017-02-05 14:32:15.831981+01 | 1486301535.83198 | pgbench_tellers_pkey  |           245760
 2017-02-05 14:32:15.831981+01 | 1486301535.83198 | pgbench_accounts_pkey |       2246197248

 2017-02-05 14:32:16.90615+01 | 1486301536.90615 | pgbench_branches_pkey |            40960
 2017-02-05 14:32:16.90615+01 | 1486301536.90615 | pgbench_tellers_pkey  |           245760
 2017-02-05 14:32:16.90615+01 | 1486301536.90615 | pgbench_accounts_pkey |       2246197248

 2017-02-05 14:32:17.982494+01 | 1486301537.98249 | pgbench_branches_pkey |            40960
 2017-02-05 14:32:17.982494+01 | 1486301537.98249 | pgbench_tellers_pkey  |           245760
 2017-02-05 14:32:17.982494+01 | 1486301537.98249 | pgbench_accounts_pkey |       2246197248

 2017-02-05 14:32:19.066628+01 | 1486301539.06663 | pgbench_branches_pkey |            40960
 2017-02-05 14:32:19.066628+01 | 1486301539.06663 | pgbench_tellers_pkey  |           245760
 2017-02-05 14:32:19.066628+01 | 1486301539.06663 | pgbench_accounts_pkey |       2246197248

 2017-02-05 14:32:20.141371+01 | 1486301540.14137 | pgbench_branches_pkey |            40960
 2017-02-05 14:32:20.141371+01 | 1486301540.14137 | pgbench_tellers_pkey  |           245760
 2017-02-05 14:32:20.141371+01 | 1486301540.14137 | pgbench_accounts_pkey |       2246197248

 2017-02-05 14:32:21.219363+01 | 1486301541.21936 | pgbench_branches_pkey |            40960
 2017-02-05 14:32:21.219363+01 | 1486301541.21936 | pgbench_tellers_pkey  |           245760
 2017-02-05 14:32:21.219363+01 | 1486301541.21936 | pgbench_accounts_pkey |       2246197248

 2017-02-05 14:32:22.296719+01 | 1486301542.29672 | pgbench_branches_pkey |            40960
 2017-02-05 14:32:22.296719+01 | 1486301542.29672 | pgbench_tellers_pkey  |           245760
 2017-02-05 14:32:22.296719+01 | 1486301542.29672 | pgbench_accounts_pkey |       2246197248

 2017-02-05 14:32:23.375886+01 | 1486301543.37589 | pgbench_branches_pkey |            40960
 2017-02-05 14:32:23.375886+01 | 1486301543.37589 | pgbench_tellers_pkey  |           245760
 2017-02-05 14:32:23.375886+01 | 1486301543.37589 | pgbench_accounts_pkey |       2246197248

 2017-02-05 14:32:24.454185+01 | 1486301544.45419 | pgbench_branches_pkey |            40960
 2017-02-05 14:32:24.454185+01 | 1486301544.45419 | pgbench_tellers_pkey  |           245760
 2017-02-05 14:32:24.454185+01 | 1486301544.45419 | pgbench_accounts_pkey |       2246197248

 2017-02-05 14:32:25.52537+01 | 1486301545.52537 | pgbench_branches_pkey |            40960
 2017-02-05 14:32:25.52537+01 | 1486301545.52537 | pgbench_tellers_pkey  |           245760
 2017-02-05 14:32:25.52537+01 | 1486301545.52537 | pgbench_accounts_pkey |       2246197248

 2017-02-05 14:32:26.601313+01 | 1486301546.60131 | pgbench_branches_pkey |            40960
 2017-02-05 14:32:26.601313+01 | 1486301546.60131 | pgbench_tellers_pkey  |           245760
 2017-02-05 14:32:26.601313+01 | 1486301546.60131 | pgbench_accounts_pkey |       2246197248

 2017-02-05 14:32:27.681168+01 | 1486301547.68117 | pgbench_branches_pkey |            40960
 2017-02-05 14:32:27.681168+01 | 1486301547.68117 | pgbench_tellers_pkey  |           245760
 2017-02-05 14:32:27.681168+01 | 1486301547.68117 | pgbench_accounts_pkey |       2246197248

 2017-02-05 14:32:28.751131+01 | 1486301548.75113 | pgbench_branches_pkey |            40960
 2017-02-05 14:32:28.751131+01 | 1486301548.75113 | pgbench_tellers_pkey  |           245760
 2017-02-05 14:32:28.751131+01 | 1486301548.75113 | pgbench_accounts_pkey |       2246197248

 2017-02-05 14:32:29.823544+01 | 1486301549.82354 | pgbench_branches_pkey |            40960
 2017-02-05 14:32:29.823544+01 | 1486301549.82354 | pgbench_tellers_pkey  |           245760
 2017-02-05 14:32:29.823544+01 | 1486301549.82354 | pgbench_accounts_pkey |       2246197248

 2017-02-05 14:32:30.89685+01 | 1486301550.89685 | pgbench_branches_pkey |            40960
 2017-02-05 14:32:30.89685+01 | 1486301550.89685 | pgbench_tellers_pkey  |           245760
 2017-02-05 14:32:30.89685+01 | 1486301550.89685 | pgbench_accounts_pkey |       2246197248

 2017-02-05 14:32:31.975892+01 | 1486301551.97589 | pgbench_branches_pkey |            40960
 2017-02-05 14:32:31.975892+01 | 1486301551.97589 | pgbench_tellers_pkey  |           245760
 2017-02-05 14:32:31.975892+01 | 1486301551.97589 | pgbench_accounts_pkey |       2246197248

 2017-02-05 14:32:33.055673+01 | 1486301553.05567 | pgbench_branches_pkey |            40960
 2017-02-05 14:32:33.055673+01 | 1486301553.05567 | pgbench_tellers_pkey  |           245760
 2017-02-05 14:32:33.055673+01 | 1486301553.05567 | pgbench_accounts_pkey |       2246197248

 2017-02-05 14:32:34.14146+01 | 1486301554.14146 | pgbench_branches_pkey |            40960
 2017-02-05 14:32:34.14146+01 | 1486301554.14146 | pgbench_tellers_pkey  |           245760
 2017-02-05 14:32:34.14146+01 | 1486301554.14146 | pgbench_accounts_pkey |       2246197248

 2017-02-05 14:32:35.219303+01 | 1486301555.2193 | pgbench_branches_pkey |            40960
 2017-02-05 14:32:35.219303+01 | 1486301555.2193 | pgbench_tellers_pkey  |           245760
 2017-02-05 14:32:35.219303+01 | 1486301555.2193 | pgbench_accounts_pkey |       2246197248

 2017-02-05 14:32:36.301094+01 | 1486301556.30109 | pgbench_branches_pkey |            40960
 2017-02-05 14:32:36.301094+01 | 1486301556.30109 | pgbench_tellers_pkey  |           245760
 2017-02-05 14:32:36.301094+01 | 1486301556.30109 | pgbench_accounts_pkey |       2246197248

 2017-02-05 14:32:37.382029+01 | 1486301557.38203 | pgbench_branches_pkey |            40960
 2017-02-05 14:32:37.382029+01 | 1486301557.38203 | pgbench_tellers_pkey  |           245760
 2017-02-05 14:32:37.382029+01 | 1486301557.38203 | pgbench_accounts_pkey |       2246197248

 2017-02-05 14:32:38.462366+01 | 1486301558.46237 | pgbench_branches_pkey |            40960
 2017-02-05 14:32:38.462366+01 | 1486301558.46237 | pgbench_tellers_pkey  |           245760
 2017-02-05 14:32:38.462366+01 | 1486301558.46237 | pgbench_accounts_pkey |       2246197248

 2017-02-05 14:32:39.53929+01 | 1486301559.53929 | pgbench_branches_pkey |            40960
 2017-02-05 14:32:39.53929+01 | 1486301559.53929 | pgbench_tellers_pkey  |           245760
 2017-02-05 14:32:39.53929+01 | 1486301559.53929 | pgbench_accounts_pkey |       2246197248

 2017-02-05 14:32:40.629268+01 | 1486301560.62927 | pgbench_branches_pkey |            40960
 2017-02-05 14:32:40.629268+01 | 1486301560.62927 | pgbench_tellers_pkey  |           245760
 2017-02-05 14:32:40.629268+01 | 1486301560.62927 | pgbench_accounts_pkey |       2246197248

 2017-02-05 14:32:41.712757+01 | 1486301561.71276 | pgbench_branches_pkey |            40960
 2017-02-05 14:32:41.712757+01 | 1486301561.71276 | pgbench_tellers_pkey  |           245760
 2017-02-05 14:32:41.712757+01 | 1486301561.71276 | pgbench_accounts_pkey |       2246197248

 2017-02-05 14:32:42.793175+01 | 1486301562.79317 | pgbench_branches_pkey |            40960
 2017-02-05 14:32:42.793175+01 | 1486301562.79317 | pgbench_tellers_pkey  |           245760
 2017-02-05 14:32:42.793175+01 | 1486301562.79317 | pgbench_accounts_pkey |       2246197248

 2017-02-05 14:32:43.868096+01 | 1486301563.8681 | pgbench_branches_pkey |            40960
 2017-02-05 14:32:43.868096+01 | 1486301563.8681 | pgbench_tellers_pkey  |           245760
 2017-02-05 14:32:43.868096+01 | 1486301563.8681 | pgbench_accounts_pkey |       2246197248

 2017-02-05 14:32:44.94835+01 | 1486301564.94835 | pgbench_branches_pkey |            40960
 2017-02-05 14:32:44.94835+01 | 1486301564.94835 | pgbench_tellers_pkey  |           245760
 2017-02-05 14:32:44.94835+01 | 1486301564.94835 | pgbench_accounts_pkey |       2246197248

 2017-02-05 14:32:46.02341+01 | 1486301566.02341 | pgbench_branches_pkey |            40960
 2017-02-05 14:32:46.02341+01 | 1486301566.02341 | pgbench_tellers_pkey  |           245760
 2017-02-05 14:32:46.02341+01 | 1486301566.02341 | pgbench_accounts_pkey |       2246197248

 2017-02-05 14:32:47.106952+01 | 1486301567.10695 | pgbench_branches_pkey |            40960
 2017-02-05 14:32:47.106952+01 | 1486301567.10695 | pgbench_tellers_pkey  |           245760
 2017-02-05 14:32:47.106952+01 | 1486301567.10695 | pgbench_accounts_pkey |       2246197248

 2017-02-05 14:32:48.185672+01 | 1486301568.18567 | pgbench_branches_pkey |            40960
 2017-02-05 14:32:48.185672+01 | 1486301568.18567 | pgbench_tellers_pkey  |           245760
 2017-02-05 14:32:48.185672+01 | 1486301568.18567 | pgbench_accounts_pkey |       2246197248

 2017-02-05 14:32:49.271946+01 | 1486301569.27195 | pgbench_branches_pkey |            40960
 2017-02-05 14:32:49.271946+01 | 1486301569.27195 | pgbench_tellers_pkey  |           245760
 2017-02-05 14:32:49.271946+01 | 1486301569.27195 | pgbench_accounts_pkey |       2246197248

 2017-02-05 14:32:50.349066+01 | 1486301570.34907 | pgbench_branches_pkey |            40960
 2017-02-05 14:32:50.349066+01 | 1486301570.34907 | pgbench_tellers_pkey  |           245760
 2017-02-05 14:32:50.349066+01 | 1486301570.34907 | pgbench_accounts_pkey |       2246197248

 2017-02-05 14:32:51.427201+01 | 1486301571.4272 | pgbench_branches_pkey |            40960
 2017-02-05 14:32:51.427201+01 | 1486301571.4272 | pgbench_tellers_pkey  |           245760
 2017-02-05 14:32:51.427201+01 | 1486301571.4272 | pgbench_accounts_pkey |       2246197248

 2017-02-05 14:32:52.508067+01 | 1486301572.50807 | pgbench_branches_pkey |            40960
 2017-02-05 14:32:52.508067+01 | 1486301572.50807 | pgbench_tellers_pkey  |           245760
 2017-02-05 14:32:52.508067+01 | 1486301572.50807 | pgbench_accounts_pkey |       2246197248

 2017-02-05 14:32:53.588902+01 | 1486301573.5889 | pgbench_branches_pkey |            40960
 2017-02-05 14:32:53.588902+01 | 1486301573.5889 | pgbench_tellers_pkey  |           245760
 2017-02-05 14:32:53.588902+01 | 1486301573.5889 | pgbench_accounts_pkey |       2246197248

 2017-02-05 14:32:54.668778+01 | 1486301574.66878 | pgbench_branches_pkey |            40960
 2017-02-05 14:32:54.668778+01 | 1486301574.66878 | pgbench_tellers_pkey  |           245760
 2017-02-05 14:32:54.668778+01 | 1486301574.66878 | pgbench_accounts_pkey |       2246197248

 2017-02-05 14:32:55.751297+01 | 1486301575.7513 | pgbench_branches_pkey |            40960
 2017-02-05 14:32:55.751297+01 | 1486301575.7513 | pgbench_tellers_pkey  |           245760
 2017-02-05 14:32:55.751297+01 | 1486301575.7513 | pgbench_accounts_pkey |       2246197248

 2017-02-05 14:32:56.828531+01 | 1486301576.82853 | pgbench_branches_pkey |            40960
 2017-02-05 14:32:56.828531+01 | 1486301576.82853 | pgbench_tellers_pkey  |           245760
 2017-02-05 14:32:56.828531+01 | 1486301576.82853 | pgbench_accounts_pkey |       2246197248

 2017-02-05 14:32:57.90949+01 | 1486301577.90949 | pgbench_branches_pkey |            40960
 2017-02-05 14:32:57.90949+01 | 1486301577.90949 | pgbench_tellers_pkey  |           245760
 2017-02-05 14:32:57.90949+01 | 1486301577.90949 | pgbench_accounts_pkey |       2246197248

 2017-02-05 14:32:58.990909+01 | 1486301578.99091 | pgbench_branches_pkey |            40960
 2017-02-05 14:32:58.990909+01 | 1486301578.99091 | pgbench_tellers_pkey  |           245760
 2017-02-05 14:32:58.990909+01 | 1486301578.99091 | pgbench_accounts_pkey |       2246197248

 2017-02-05 14:33:00.07156+01 | 1486301580.07156 | pgbench_branches_pkey |            40960
 2017-02-05 14:33:00.07156+01 | 1486301580.07156 | pgbench_tellers_pkey  |           245760
 2017-02-05 14:33:00.07156+01 | 1486301580.07156 | pgbench_accounts_pkey |       2246197248

 2017-02-05 14:33:01.160894+01 | 1486301581.16089 | pgbench_branches_pkey |            40960
 2017-02-05 14:33:01.160894+01 | 1486301581.16089 | pgbench_tellers_pkey  |           245760
 2017-02-05 14:33:01.160894+01 | 1486301581.16089 | pgbench_accounts_pkey |       2246197248

 2017-02-05 14:33:02.246943+01 | 1486301582.24694 | pgbench_branches_pkey |            40960
 2017-02-05 14:33:02.246943+01 | 1486301582.24694 | pgbench_tellers_pkey  |           245760
 2017-02-05 14:33:02.246943+01 | 1486301582.24694 | pgbench_accounts_pkey |       2246197248

 2017-02-05 14:33:03.340851+01 | 1486301583.34085 | pgbench_branches_pkey |            40960
 2017-02-05 14:33:03.340851+01 | 1486301583.34085 | pgbench_tellers_pkey  |           245760
 2017-02-05 14:33:03.340851+01 | 1486301583.34085 | pgbench_accounts_pkey |       2246197248

 2017-02-05 14:33:04.436225+01 | 1486301584.43622 | pgbench_branches_pkey |            40960
 2017-02-05 14:33:04.436225+01 | 1486301584.43622 | pgbench_tellers_pkey  |           245760
 2017-02-05 14:33:04.436225+01 | 1486301584.43622 | pgbench_accounts_pkey |       2246197248

 2017-02-05 14:33:05.517682+01 | 1486301585.51768 | pgbench_branches_pkey |            40960
 2017-02-05 14:33:05.517682+01 | 1486301585.51768 | pgbench_tellers_pkey  |           245760
 2017-02-05 14:33:05.517682+01 | 1486301585.51768 | pgbench_accounts_pkey |       2246197248

 2017-02-05 14:33:06.597982+01 | 1486301586.59798 | pgbench_branches_pkey |            40960
 2017-02-05 14:33:06.597982+01 | 1486301586.59798 | pgbench_tellers_pkey  |           245760
 2017-02-05 14:33:06.597982+01 | 1486301586.59798 | pgbench_accounts_pkey |       2246197248

 2017-02-05 14:33:07.678297+01 | 1486301587.6783 | pgbench_branches_pkey |            40960
 2017-02-05 14:33:07.678297+01 | 1486301587.6783 | pgbench_tellers_pkey  |           245760
 2017-02-05 14:33:07.678297+01 | 1486301587.6783 | pgbench_accounts_pkey |       2246197248

 2017-02-05 14:33:08.751002+01 | 1486301588.751 | pgbench_branches_pkey |            40960
 2017-02-05 14:33:08.751002+01 | 1486301588.751 | pgbench_tellers_pkey  |           245760
 2017-02-05 14:33:08.751002+01 | 1486301588.751 | pgbench_accounts_pkey |       2246197248

 2017-02-05 14:33:09.824325+01 | 1486301589.82433 | pgbench_branches_pkey |            40960
 2017-02-05 14:33:09.824325+01 | 1486301589.82433 | pgbench_tellers_pkey  |           245760
 2017-02-05 14:33:09.824325+01 | 1486301589.82433 | pgbench_accounts_pkey |       2246197248

 2017-02-05 14:33:10.917211+01 | 1486301590.91721 | pgbench_branches_pkey |            40960
 2017-02-05 14:33:10.917211+01 | 1486301590.91721 | pgbench_tellers_pkey  |           245760
 2017-02-05 14:33:10.917211+01 | 1486301590.91721 | pgbench_accounts_pkey |       2246197248

 2017-02-05 14:33:11.994661+01 | 1486301591.99466 | pgbench_branches_pkey |            40960
 2017-02-05 14:33:11.994661+01 | 1486301591.99466 | pgbench_tellers_pkey  |           245760
 2017-02-05 14:33:11.994661+01 | 1486301591.99466 | pgbench_accounts_pkey |       2246197248

 2017-02-05 14:33:13.076938+01 | 1486301593.07694 | pgbench_branches_pkey |            40960
 2017-02-05 14:33:13.076938+01 | 1486301593.07694 | pgbench_tellers_pkey  |           245760
 2017-02-05 14:33:13.076938+01 | 1486301593.07694 | pgbench_accounts_pkey |       2246197248

 2017-02-05 14:33:14.157837+01 | 1486301594.15784 | pgbench_branches_pkey |            40960
 2017-02-05 14:33:14.157837+01 | 1486301594.15784 | pgbench_tellers_pkey  |           245760
 2017-02-05 14:33:14.157837+01 | 1486301594.15784 | pgbench_accounts_pkey |       2246197248

 2017-02-05 14:33:15.244557+01 | 1486301595.24456 | pgbench_branches_pkey |            40960
 2017-02-05 14:33:15.244557+01 | 1486301595.24456 | pgbench_tellers_pkey  |           245760
 2017-02-05 14:33:15.244557+01 | 1486301595.24456 | pgbench_accounts_pkey |       2246197248

 2017-02-05 14:33:16.321241+01 | 1486301596.32124 | pgbench_branches_pkey |            40960
 2017-02-05 14:33:16.321241+01 | 1486301596.32124 | pgbench_tellers_pkey  |           245760
 2017-02-05 14:33:16.321241+01 | 1486301596.32124 | pgbench_accounts_pkey |       2246197248

 2017-02-05 14:33:17.407669+01 | 1486301597.40767 | pgbench_branches_pkey |            40960
 2017-02-05 14:33:17.407669+01 | 1486301597.40767 | pgbench_tellers_pkey  |           245760
 2017-02-05 14:33:17.407669+01 | 1486301597.40767 | pgbench_accounts_pkey |       2246197248

 2017-02-05 14:33:18.48845+01 | 1486301598.48845 | pgbench_branches_pkey |            40960
 2017-02-05 14:33:18.48845+01 | 1486301598.48845 | pgbench_tellers_pkey  |           245760
 2017-02-05 14:33:18.48845+01 | 1486301598.48845 | pgbench_accounts_pkey |       2246197248

 2017-02-05 14:33:19.568066+01 | 1486301599.56807 | pgbench_branches_pkey |            40960
 2017-02-05 14:33:19.568066+01 | 1486301599.56807 | pgbench_tellers_pkey  |           245760
 2017-02-05 14:33:19.568066+01 | 1486301599.56807 | pgbench_accounts_pkey |       2246197248

 2017-02-05 14:33:20.652645+01 | 1486301600.65265 | pgbench_branches_pkey |            40960
 2017-02-05 14:33:20.652645+01 | 1486301600.65265 | pgbench_tellers_pkey  |           245760
 2017-02-05 14:33:20.652645+01 | 1486301600.65265 | pgbench_accounts_pkey |       2246197248

 2017-02-05 14:33:21.727958+01 | 1486301601.72796 | pgbench_branches_pkey |            40960
 2017-02-05 14:33:21.727958+01 | 1486301601.72796 | pgbench_tellers_pkey  |           245760
 2017-02-05 14:33:21.727958+01 | 1486301601.72796 | pgbench_accounts_pkey |       2246197248

 2017-02-05 14:33:22.806369+01 | 1486301602.80637 | pgbench_branches_pkey |            40960
 2017-02-05 14:33:22.806369+01 | 1486301602.80637 | pgbench_tellers_pkey  |           245760
 2017-02-05 14:33:22.806369+01 | 1486301602.80637 | pgbench_accounts_pkey |       2246197248

 2017-02-05 14:33:23.889532+01 | 1486301603.88953 | pgbench_branches_pkey |            40960
 2017-02-05 14:33:23.889532+01 | 1486301603.88953 | pgbench_tellers_pkey  |           245760
 2017-02-05 14:33:23.889532+01 | 1486301603.88953 | pgbench_accounts_pkey |       2246197248

 2017-02-05 14:33:24.976651+01 | 1486301604.97665 | pgbench_branches_pkey |            40960
 2017-02-05 14:33:24.976651+01 | 1486301604.97665 | pgbench_tellers_pkey  |           245760
 2017-02-05 14:33:24.976651+01 | 1486301604.97665 | pgbench_accounts_pkey |       2246197248

 2017-02-05 14:33:26.057033+01 | 1486301606.05703 | pgbench_branches_pkey |            40960
 2017-02-05 14:33:26.057033+01 | 1486301606.05703 | pgbench_tellers_pkey  |           245760
 2017-02-05 14:33:26.057033+01 | 1486301606.05703 | pgbench_accounts_pkey |       2246197248

 2017-02-05 14:33:27.140694+01 | 1486301607.14069 | pgbench_branches_pkey |            40960
 2017-02-05 14:33:27.140694+01 | 1486301607.14069 | pgbench_tellers_pkey  |           245760
 2017-02-05 14:33:27.140694+01 | 1486301607.14069 | pgbench_accounts_pkey |       2246197248

 2017-02-05 14:33:28.210152+01 | 1486301608.21015 | pgbench_branches_pkey |            40960
 2017-02-05 14:33:28.210152+01 | 1486301608.21015 | pgbench_tellers_pkey  |           245760
 2017-02-05 14:33:28.210152+01 | 1486301608.21015 | pgbench_accounts_pkey |       2246197248

 2017-02-05 14:33:29.287089+01 | 1486301609.28709 | pgbench_branches_pkey |            40960
 2017-02-05 14:33:29.287089+01 | 1486301609.28709 | pgbench_tellers_pkey  |           245760
 2017-02-05 14:33:29.287089+01 | 1486301609.28709 | pgbench_accounts_pkey |       2246197248

 2017-02-05 14:33:30.369374+01 | 1486301610.36937 | pgbench_branches_pkey |            40960
 2017-02-05 14:33:30.369374+01 | 1486301610.36937 | pgbench_tellers_pkey  |           245760
 2017-02-05 14:33:30.369374+01 | 1486301610.36937 | pgbench_accounts_pkey |       2246197248

 2017-02-05 14:33:31.445109+01 | 1486301611.44511 | pgbench_branches_pkey |            40960
 2017-02-05 14:33:31.445109+01 | 1486301611.44511 | pgbench_tellers_pkey  |           245760
 2017-02-05 14:33:31.445109+01 | 1486301611.44511 | pgbench_accounts_pkey |       2246197248

 2017-02-05 14:33:32.521483+01 | 1486301612.52148 | pgbench_branches_pkey |            40960
 2017-02-05 14:33:32.521483+01 | 1486301612.52148 | pgbench_tellers_pkey  |           245760
 2017-02-05 14:33:32.521483+01 | 1486301612.52148 | pgbench_accounts_pkey |       2246197248

 2017-02-05 14:33:33.609046+01 | 1486301613.60905 | pgbench_branches_pkey |            40960
 2017-02-05 14:33:33.609046+01 | 1486301613.60905 | pgbench_tellers_pkey  |           245760
 2017-02-05 14:33:33.609046+01 | 1486301613.60905 | pgbench_accounts_pkey |       2246197248

 2017-02-05 14:33:34.68555+01 | 1486301614.68555 | pgbench_branches_pkey |            40960
 2017-02-05 14:33:34.68555+01 | 1486301614.68555 | pgbench_tellers_pkey  |           245760
 2017-02-05 14:33:34.68555+01 | 1486301614.68555 | pgbench_accounts_pkey |       2246197248

 2017-02-05 14:33:35.765972+01 | 1486301615.76597 | pgbench_branches_pkey |            40960
 2017-02-05 14:33:35.765972+01 | 1486301615.76597 | pgbench_tellers_pkey  |           245760
 2017-02-05 14:33:35.765972+01 | 1486301615.76597 | pgbench_accounts_pkey |       2246197248

 2017-02-05 14:33:36.846603+01 | 1486301616.8466 | pgbench_branches_pkey |            40960
 2017-02-05 14:33:36.846603+01 | 1486301616.8466 | pgbench_tellers_pkey  |           245760
 2017-02-05 14:33:36.846603+01 | 1486301616.8466 | pgbench_accounts_pkey |       2246197248

 2017-02-05 14:33:37.928179+01 | 1486301617.92818 | pgbench_branches_pkey |            40960
 2017-02-05 14:33:37.928179+01 | 1486301617.92818 | pgbench_tellers_pkey  |           245760
 2017-02-05 14:33:37.928179+01 | 1486301617.92818 | pgbench_accounts_pkey |       2246197248

 2017-02-05 14:33:39.007171+01 | 1486301619.00717 | pgbench_branches_pkey |            40960
 2017-02-05 14:33:39.007171+01 | 1486301619.00717 | pgbench_tellers_pkey  |           245760
 2017-02-05 14:33:39.007171+01 | 1486301619.00717 | pgbench_accounts_pkey |       2246197248

 2017-02-05 14:33:40.079448+01 | 1486301620.07945 | pgbench_branches_pkey |            40960
 2017-02-05 14:33:40.079448+01 | 1486301620.07945 | pgbench_tellers_pkey  |           245760
 2017-02-05 14:33:40.079448+01 | 1486301620.07945 | pgbench_accounts_pkey |       2246197248

 2017-02-05 14:33:41.160298+01 | 1486301621.1603 | pgbench_branches_pkey |            40960
 2017-02-05 14:33:41.160298+01 | 1486301621.1603 | pgbench_tellers_pkey  |           245760
 2017-02-05 14:33:41.160298+01 | 1486301621.1603 | pgbench_accounts_pkey |       2246197248

 2017-02-05 14:33:42.240018+01 | 1486301622.24002 | pgbench_branches_pkey |            40960
 2017-02-05 14:33:42.240018+01 | 1486301622.24002 | pgbench_tellers_pkey  |           245760
 2017-02-05 14:33:42.240018+01 | 1486301622.24002 | pgbench_accounts_pkey |       2246197248

 2017-02-05 14:33:43.326346+01 | 1486301623.32635 | pgbench_branches_pkey |            40960
 2017-02-05 14:33:43.326346+01 | 1486301623.32635 | pgbench_tellers_pkey  |           245760
 2017-02-05 14:33:43.326346+01 | 1486301623.32635 | pgbench_accounts_pkey |       2246197248

 2017-02-05 14:33:44.412314+01 | 1486301624.41231 | pgbench_branches_pkey |            40960
 2017-02-05 14:33:44.412314+01 | 1486301624.41231 | pgbench_tellers_pkey  |           245760
 2017-02-05 14:33:44.412314+01 | 1486301624.41231 | pgbench_accounts_pkey |       2246197248

 2017-02-05 14:33:45.48672+01 | 1486301625.48672 | pgbench_branches_pkey |            40960
 2017-02-05 14:33:45.48672+01 | 1486301625.48672 | pgbench_tellers_pkey  |           245760
 2017-02-05 14:33:45.48672+01 | 1486301625.48672 | pgbench_accounts_pkey |       2246197248

 2017-02-05 14:33:46.563847+01 | 1486301626.56385 | pgbench_branches_pkey |            40960
 2017-02-05 14:33:46.563847+01 | 1486301626.56385 | pgbench_tellers_pkey  |           245760
 2017-02-05 14:33:46.563847+01 | 1486301626.56385 | pgbench_accounts_pkey |       2246197248

 2017-02-05 14:33:47.647423+01 | 1486301627.64742 | pgbench_branches_pkey |            40960
 2017-02-05 14:33:47.647423+01 | 1486301627.64742 | pgbench_tellers_pkey  |           245760
 2017-02-05 14:33:47.647423+01 | 1486301627.64742 | pgbench_accounts_pkey |       2246197248

 2017-02-05 14:33:48.731311+01 | 1486301628.73131 | pgbench_branches_pkey |            40960
 2017-02-05 14:33:48.731311+01 | 1486301628.73131 | pgbench_tellers_pkey  |           245760
 2017-02-05 14:33:48.731311+01 | 1486301628.73131 | pgbench_accounts_pkey |       2246197248

 2017-02-05 14:33:49.809297+01 | 1486301629.8093 | pgbench_branches_pkey |            40960
 2017-02-05 14:33:49.809297+01 | 1486301629.8093 | pgbench_tellers_pkey  |           245760
 2017-02-05 14:33:49.809297+01 | 1486301629.8093 | pgbench_accounts_pkey |       2246197248

 2017-02-05 14:33:50.890334+01 | 1486301630.89033 | pgbench_branches_pkey |            40960
 2017-02-05 14:33:50.890334+01 | 1486301630.89033 | pgbench_tellers_pkey  |           245760
 2017-02-05 14:33:50.890334+01 | 1486301630.89033 | pgbench_accounts_pkey |       2246197248

 2017-02-05 14:33:51.965586+01 | 1486301631.96559 | pgbench_branches_pkey |            40960
 2017-02-05 14:33:51.965586+01 | 1486301631.96559 | pgbench_tellers_pkey  |           245760
 2017-02-05 14:33:51.965586+01 | 1486301631.96559 | pgbench_accounts_pkey |       2246197248

 2017-02-05 14:33:53.04289+01 | 1486301633.04289 | pgbench_branches_pkey |            40960
 2017-02-05 14:33:53.04289+01 | 1486301633.04289 | pgbench_tellers_pkey  |           245760
 2017-02-05 14:33:53.04289+01 | 1486301633.04289 | pgbench_accounts_pkey |       2246197248

 2017-02-05 14:33:54.119123+01 | 1486301634.11912 | pgbench_branches_pkey |            40960
 2017-02-05 14:33:54.119123+01 | 1486301634.11912 | pgbench_tellers_pkey  |           245760
 2017-02-05 14:33:54.119123+01 | 1486301634.11912 | pgbench_accounts_pkey |       2246197248

 2017-02-05 14:33:55.206048+01 | 1486301635.20605 | pgbench_branches_pkey |            40960
 2017-02-05 14:33:55.206048+01 | 1486301635.20605 | pgbench_tellers_pkey  |           245760
 2017-02-05 14:33:55.206048+01 | 1486301635.20605 | pgbench_accounts_pkey |       2246197248

 2017-02-05 14:33:56.282215+01 | 1486301636.28222 | pgbench_branches_pkey |            40960
 2017-02-05 14:33:56.282215+01 | 1486301636.28222 | pgbench_tellers_pkey  |           245760
 2017-02-05 14:33:56.282215+01 | 1486301636.28222 | pgbench_accounts_pkey |       2246197248

 2017-02-05 14:33:57.357667+01 | 1486301637.35767 | pgbench_branches_pkey |            40960
 2017-02-05 14:33:57.357667+01 | 1486301637.35767 | pgbench_tellers_pkey  |           245760
 2017-02-05 14:33:57.357667+01 | 1486301637.35767 | pgbench_accounts_pkey |       2246197248

 2017-02-05 14:33:58.442322+01 | 1486301638.44232 | pgbench_branches_pkey |            40960
 2017-02-05 14:33:58.442322+01 | 1486301638.44232 | pgbench_tellers_pkey  |           245760
 2017-02-05 14:33:58.442322+01 | 1486301638.44232 | pgbench_accounts_pkey |       2246197248

 2017-02-05 14:33:59.520342+01 | 1486301639.52034 | pgbench_branches_pkey |            40960
 2017-02-05 14:33:59.520342+01 | 1486301639.52034 | pgbench_tellers_pkey  |           245760
 2017-02-05 14:33:59.520342+01 | 1486301639.52034 | pgbench_accounts_pkey |       2246197248

 2017-02-05 14:34:00.59911+01 | 1486301640.59911 | pgbench_branches_pkey |            40960
 2017-02-05 14:34:00.59911+01 | 1486301640.59911 | pgbench_tellers_pkey  |           245760
 2017-02-05 14:34:00.59911+01 | 1486301640.59911 | pgbench_accounts_pkey |       2246197248

 2017-02-05 14:34:01.679637+01 | 1486301641.67964 | pgbench_branches_pkey |            40960
 2017-02-05 14:34:01.679637+01 | 1486301641.67964 | pgbench_tellers_pkey  |           245760
 2017-02-05 14:34:01.679637+01 | 1486301641.67964 | pgbench_accounts_pkey |       2246197248

 2017-02-05 14:34:02.757106+01 | 1486301642.75711 | pgbench_branches_pkey |            40960
 2017-02-05 14:34:02.757106+01 | 1486301642.75711 | pgbench_tellers_pkey  |           245760
 2017-02-05 14:34:02.757106+01 | 1486301642.75711 | pgbench_accounts_pkey |       2246197248

 2017-02-05 14:34:03.828115+01 | 1486301643.82811 | pgbench_branches_pkey |            40960
 2017-02-05 14:34:03.828115+01 | 1486301643.82811 | pgbench_tellers_pkey  |           245760
 2017-02-05 14:34:03.828115+01 | 1486301643.82811 | pgbench_accounts_pkey |       2246197248

 2017-02-05 14:34:04.903203+01 | 1486301644.9032 | pgbench_branches_pkey |            40960
 2017-02-05 14:34:04.903203+01 | 1486301644.9032 | pgbench_tellers_pkey  |           245760
 2017-02-05 14:34:04.903203+01 | 1486301644.9032 | pgbench_accounts_pkey |       2246197248

 2017-02-05 14:34:05.975198+01 | 1486301645.9752 | pgbench_branches_pkey |            40960
 2017-02-05 14:34:05.975198+01 | 1486301645.9752 | pgbench_tellers_pkey  |           245760
 2017-02-05 14:34:05.975198+01 | 1486301645.9752 | pgbench_accounts_pkey |       2246197248

 2017-02-05 14:34:07.06409+01 | 1486301647.06409 | pgbench_branches_pkey |            40960
 2017-02-05 14:34:07.06409+01 | 1486301647.06409 | pgbench_tellers_pkey  |           245760
 2017-02-05 14:34:07.06409+01 | 1486301647.06409 | pgbench_accounts_pkey |       2246197248

 2017-02-05 14:34:08.14152+01 | 1486301648.14152 | pgbench_branches_pkey |            40960
 2017-02-05 14:34:08.14152+01 | 1486301648.14152 | pgbench_tellers_pkey  |           245760
 2017-02-05 14:34:08.14152+01 | 1486301648.14152 | pgbench_accounts_pkey |       2246197248

 2017-02-05 14:34:09.22362+01 | 1486301649.22362 | pgbench_branches_pkey |            40960
 2017-02-05 14:34:09.22362+01 | 1486301649.22362 | pgbench_tellers_pkey  |           245760
 2017-02-05 14:34:09.22362+01 | 1486301649.22362 | pgbench_accounts_pkey |       2246197248

 2017-02-05 14:34:10.308351+01 | 1486301650.30835 | pgbench_branches_pkey |            40960
 2017-02-05 14:34:10.308351+01 | 1486301650.30835 | pgbench_tellers_pkey  |           245760
 2017-02-05 14:34:10.308351+01 | 1486301650.30835 | pgbench_accounts_pkey |       2246197248

 2017-02-05 14:34:11.392408+01 | 1486301651.39241 | pgbench_branches_pkey |            40960
 2017-02-05 14:34:11.392408+01 | 1486301651.39241 | pgbench_tellers_pkey  |           245760
 2017-02-05 14:34:11.392408+01 | 1486301651.39241 | pgbench_accounts_pkey |       2246197248

 2017-02-05 14:34:12.464496+01 | 1486301652.4645 | pgbench_branches_pkey |            40960
 2017-02-05 14:34:12.464496+01 | 1486301652.4645 | pgbench_tellers_pkey  |           245760
 2017-02-05 14:34:12.464496+01 | 1486301652.4645 | pgbench_accounts_pkey |       2246197248

 2017-02-05 14:34:13.549068+01 | 1486301653.54907 | pgbench_branches_pkey |            40960
 2017-02-05 14:34:13.549068+01 | 1486301653.54907 | pgbench_tellers_pkey  |           245760
 2017-02-05 14:34:13.549068+01 | 1486301653.54907 | pgbench_accounts_pkey |       2246197248

 2017-02-05 14:34:14.624267+01 | 1486301654.62427 | pgbench_branches_pkey |            40960
 2017-02-05 14:34:14.624267+01 | 1486301654.62427 | pgbench_tellers_pkey  |           245760
 2017-02-05 14:34:14.624267+01 | 1486301654.62427 | pgbench_accounts_pkey |       2246197248

 2017-02-05 14:34:15.70887+01 | 1486301655.70887 | pgbench_branches_pkey |            40960
 2017-02-05 14:34:15.70887+01 | 1486301655.70887 | pgbench_tellers_pkey  |           245760
 2017-02-05 14:34:15.70887+01 | 1486301655.70887 | pgbench_accounts_pkey |       2246197248

 2017-02-05 14:34:16.783606+01 | 1486301656.78361 | pgbench_branches_pkey |            40960
 2017-02-05 14:34:16.783606+01 | 1486301656.78361 | pgbench_tellers_pkey  |           245760
 2017-02-05 14:34:16.783606+01 | 1486301656.78361 | pgbench_accounts_pkey |       2246197248

 2017-02-05 14:34:17.864342+01 | 1486301657.86434 | pgbench_branches_pkey |            40960
 2017-02-05 14:34:17.864342+01 | 1486301657.86434 | pgbench_tellers_pkey  |           245760
 2017-02-05 14:34:17.864342+01 | 1486301657.86434 | pgbench_accounts_pkey |       2246197248

 2017-02-05 14:34:18.943208+01 | 1486301658.94321 | pgbench_branches_pkey |            40960
 2017-02-05 14:34:18.943208+01 | 1486301658.94321 | pgbench_tellers_pkey  |           245760
 2017-02-05 14:34:18.943208+01 | 1486301658.94321 | pgbench_accounts_pkey |       2246197248

 2017-02-05 14:34:20.026481+01 | 1486301660.02648 | pgbench_branches_pkey |            40960
 2017-02-05 14:34:20.026481+01 | 1486301660.02648 | pgbench_tellers_pkey  |           245760
 2017-02-05 14:34:20.026481+01 | 1486301660.02648 | pgbench_accounts_pkey |       2246197248

 2017-02-05 14:34:21.106238+01 | 1486301661.10624 | pgbench_branches_pkey |            40960
 2017-02-05 14:34:21.106238+01 | 1486301661.10624 | pgbench_tellers_pkey  |           245760
 2017-02-05 14:34:21.106238+01 | 1486301661.10624 | pgbench_accounts_pkey |       2246197248

 2017-02-05 14:34:22.192778+01 | 1486301662.19278 | pgbench_branches_pkey |            40960
 2017-02-05 14:34:22.192778+01 | 1486301662.19278 | pgbench_tellers_pkey  |           245760
 2017-02-05 14:34:22.192778+01 | 1486301662.19278 | pgbench_accounts_pkey |       2246197248

 2017-02-05 14:34:23.27714+01 | 1486301663.27714 | pgbench_branches_pkey |            40960
 2017-02-05 14:34:23.27714+01 | 1486301663.27714 | pgbench_tellers_pkey  |           245760
 2017-02-05 14:34:23.27714+01 | 1486301663.27714 | pgbench_accounts_pkey |       2246197248

 2017-02-05 14:34:24.356173+01 | 1486301664.35617 | pgbench_branches_pkey |            40960
 2017-02-05 14:34:24.356173+01 | 1486301664.35617 | pgbench_tellers_pkey  |           245760
 2017-02-05 14:34:24.356173+01 | 1486301664.35617 | pgbench_accounts_pkey |       2246197248

 2017-02-05 14:34:25.428249+01 | 1486301665.42825 | pgbench_branches_pkey |            40960
 2017-02-05 14:34:25.428249+01 | 1486301665.42825 | pgbench_tellers_pkey  |           245760
 2017-02-05 14:34:25.428249+01 | 1486301665.42825 | pgbench_accounts_pkey |       2246197248

 2017-02-05 14:34:26.516794+01 | 1486301666.51679 | pgbench_branches_pkey |            40960
 2017-02-05 14:34:26.516794+01 | 1486301666.51679 | pgbench_tellers_pkey  |           245760
 2017-02-05 14:34:26.516794+01 | 1486301666.51679 | pgbench_accounts_pkey |       2246197248

 2017-02-05 14:34:27.591478+01 | 1486301667.59148 | pgbench_branches_pkey |            40960
 2017-02-05 14:34:27.591478+01 | 1486301667.59148 | pgbench_tellers_pkey  |           245760
 2017-02-05 14:34:27.591478+01 | 1486301667.59148 | pgbench_accounts_pkey |       2246197248

 2017-02-05 14:34:28.671399+01 | 1486301668.6714 | pgbench_branches_pkey |            40960
 2017-02-05 14:34:28.671399+01 | 1486301668.6714 | pgbench_tellers_pkey  |           245760
 2017-02-05 14:34:28.671399+01 | 1486301668.6714 | pgbench_accounts_pkey |       2246197248

 2017-02-05 14:34:29.749064+01 | 1486301669.74906 | pgbench_branches_pkey |            40960
 2017-02-05 14:34:29.749064+01 | 1486301669.74906 | pgbench_tellers_pkey  |           245760
 2017-02-05 14:34:29.749064+01 | 1486301669.74906 | pgbench_accounts_pkey |       2246197248

 2017-02-05 14:34:30.822961+01 | 1486301670.82296 | pgbench_branches_pkey |            40960
 2017-02-05 14:34:30.822961+01 | 1486301670.82296 | pgbench_tellers_pkey  |           245760
 2017-02-05 14:34:30.822961+01 | 1486301670.82296 | pgbench_accounts_pkey |       2246197248

 2017-02-05 14:34:31.901833+01 | 1486301671.90183 | pgbench_branches_pkey |            40960
 2017-02-05 14:34:31.901833+01 | 1486301671.90183 | pgbench_tellers_pkey  |           245760
 2017-02-05 14:34:31.901833+01 | 1486301671.90183 | pgbench_accounts_pkey |       2246197248

 2017-02-05 14:34:32.981193+01 | 1486301672.98119 | pgbench_branches_pkey |            40960
 2017-02-05 14:34:32.981193+01 | 1486301672.98119 | pgbench_tellers_pkey  |           245760
 2017-02-05 14:34:32.981193+01 | 1486301672.98119 | pgbench_accounts_pkey |       2246197248

 2017-02-05 14:34:34.061384+01 | 1486301674.06138 | pgbench_branches_pkey |            40960
 2017-02-05 14:34:34.061384+01 | 1486301674.06138 | pgbench_tellers_pkey  |           245760
 2017-02-05 14:34:34.061384+01 | 1486301674.06138 | pgbench_accounts_pkey |       2246197248

 2017-02-05 14:34:35.135284+01 | 1486301675.13528 | pgbench_branches_pkey |            40960
 2017-02-05 14:34:35.135284+01 | 1486301675.13528 | pgbench_tellers_pkey  |           245760
 2017-02-05 14:34:35.135284+01 | 1486301675.13528 | pgbench_accounts_pkey |       2246197248

 2017-02-05 14:34:36.222511+01 | 1486301676.22251 | pgbench_branches_pkey |            40960
 2017-02-05 14:34:36.222511+01 | 1486301676.22251 | pgbench_tellers_pkey  |           245760
 2017-02-05 14:34:36.222511+01 | 1486301676.22251 | pgbench_accounts_pkey |       2246197248

 2017-02-05 14:34:37.300898+01 | 1486301677.3009 | pgbench_branches_pkey |            40960
 2017-02-05 14:34:37.300898+01 | 1486301677.3009 | pgbench_tellers_pkey  |           245760
 2017-02-05 14:34:37.300898+01 | 1486301677.3009 | pgbench_accounts_pkey |       2246197248

 2017-02-05 14:34:38.376894+01 | 1486301678.37689 | pgbench_branches_pkey |            40960
 2017-02-05 14:34:38.376894+01 | 1486301678.37689 | pgbench_tellers_pkey  |           245760
 2017-02-05 14:34:38.376894+01 | 1486301678.37689 | pgbench_accounts_pkey |       2246197248

 2017-02-05 14:34:39.455185+01 | 1486301679.45518 | pgbench_branches_pkey |            40960
 2017-02-05 14:34:39.455185+01 | 1486301679.45518 | pgbench_tellers_pkey  |           245760
 2017-02-05 14:34:39.455185+01 | 1486301679.45518 | pgbench_accounts_pkey |       2246197248

 2017-02-05 14:34:40.537344+01 | 1486301680.53734 | pgbench_branches_pkey |            40960
 2017-02-05 14:34:40.537344+01 | 1486301680.53734 | pgbench_tellers_pkey  |           245760
 2017-02-05 14:34:40.537344+01 | 1486301680.53734 | pgbench_accounts_pkey |       2246197248

 2017-02-05 14:34:41.617349+01 | 1486301681.61735 | pgbench_branches_pkey |            40960
 2017-02-05 14:34:41.617349+01 | 1486301681.61735 | pgbench_tellers_pkey  |           245760
 2017-02-05 14:34:41.617349+01 | 1486301681.61735 | pgbench_accounts_pkey |       2246197248

 2017-02-05 14:34:42.707198+01 | 1486301682.7072 | pgbench_branches_pkey |            40960
 2017-02-05 14:34:42.707198+01 | 1486301682.7072 | pgbench_tellers_pkey  |           245760
 2017-02-05 14:34:42.707198+01 | 1486301682.7072 | pgbench_accounts_pkey |       2246197248

 2017-02-05 14:34:43.783674+01 | 1486301683.78367 | pgbench_branches_pkey |            40960
 2017-02-05 14:34:43.783674+01 | 1486301683.78367 | pgbench_tellers_pkey  |           245760
 2017-02-05 14:34:43.783674+01 | 1486301683.78367 | pgbench_accounts_pkey |       2246197248

 2017-02-05 14:34:44.860927+01 | 1486301684.86093 | pgbench_branches_pkey |            40960
 2017-02-05 14:34:44.860927+01 | 1486301684.86093 | pgbench_tellers_pkey  |           245760
 2017-02-05 14:34:44.860927+01 | 1486301684.86093 | pgbench_accounts_pkey |       2246197248

 2017-02-05 14:34:45.942126+01 | 1486301685.94213 | pgbench_branches_pkey |            40960
 2017-02-05 14:34:45.942126+01 | 1486301685.94213 | pgbench_tellers_pkey  |           245760
 2017-02-05 14:34:45.942126+01 | 1486301685.94213 | pgbench_accounts_pkey |       2246197248

 2017-02-05 14:34:47.018565+01 | 1486301687.01856 | pgbench_branches_pkey |            40960
 2017-02-05 14:34:47.018565+01 | 1486301687.01856 | pgbench_tellers_pkey  |           245760
 2017-02-05 14:34:47.018565+01 | 1486301687.01856 | pgbench_accounts_pkey |       2246197248

 2017-02-05 14:34:48.093743+01 | 1486301688.09374 | pgbench_branches_pkey |            40960
 2017-02-05 14:34:48.093743+01 | 1486301688.09374 | pgbench_tellers_pkey  |           245760
 2017-02-05 14:34:48.093743+01 | 1486301688.09374 | pgbench_accounts_pkey |       2246197248

 2017-02-05 14:34:49.16922+01 | 1486301689.16922 | pgbench_branches_pkey |            40960
 2017-02-05 14:34:49.16922+01 | 1486301689.16922 | pgbench_tellers_pkey  |           245760
 2017-02-05 14:34:49.16922+01 | 1486301689.16922 | pgbench_accounts_pkey |       2246197248

 2017-02-05 14:34:50.243593+01 | 1486301690.24359 | pgbench_branches_pkey |            40960
 2017-02-05 14:34:50.243593+01 | 1486301690.24359 | pgbench_tellers_pkey  |           245760
 2017-02-05 14:34:50.243593+01 | 1486301690.24359 | pgbench_accounts_pkey |       2246197248

 2017-02-05 14:34:51.319977+01 | 1486301691.31998 | pgbench_branches_pkey |            40960
 2017-02-05 14:34:51.319977+01 | 1486301691.31998 | pgbench_tellers_pkey  |           245760
 2017-02-05 14:34:51.319977+01 | 1486301691.31998 | pgbench_accounts_pkey |       2246197248

 2017-02-05 14:34:52.396711+01 | 1486301692.39671 | pgbench_branches_pkey |            40960
 2017-02-05 14:34:52.396711+01 | 1486301692.39671 | pgbench_tellers_pkey  |           245760
 2017-02-05 14:34:52.396711+01 | 1486301692.39671 | pgbench_accounts_pkey |       2246197248

 2017-02-05 14:34:53.46942+01 | 1486301693.46942 | pgbench_branches_pkey |            40960
 2017-02-05 14:34:53.46942+01 | 1486301693.46942 | pgbench_tellers_pkey  |           245760
 2017-02-05 14:34:53.46942+01 | 1486301693.46942 | pgbench_accounts_pkey |       2246197248

 2017-02-05 14:34:54.546745+01 | 1486301694.54675 | pgbench_branches_pkey |            40960
 2017-02-05 14:34:54.546745+01 | 1486301694.54675 | pgbench_tellers_pkey  |           245760
 2017-02-05 14:34:54.546745+01 | 1486301694.54675 | pgbench_accounts_pkey |       2246197248

 2017-02-05 14:34:55.621798+01 | 1486301695.6218 | pgbench_branches_pkey |            40960
 2017-02-05 14:34:55.621798+01 | 1486301695.6218 | pgbench_tellers_pkey  |           245760
 2017-02-05 14:34:55.621798+01 | 1486301695.6218 | pgbench_accounts_pkey |       2246197248

 2017-02-05 14:34:56.708434+01 | 1486301696.70843 | pgbench_branches_pkey |            40960
 2017-02-05 14:34:56.708434+01 | 1486301696.70843 | pgbench_tellers_pkey  |           245760
 2017-02-05 14:34:56.708434+01 | 1486301696.70843 | pgbench_accounts_pkey |       2246197248

 2017-02-05 14:34:57.788849+01 | 1486301697.78885 | pgbench_branches_pkey |            40960
 2017-02-05 14:34:57.788849+01 | 1486301697.78885 | pgbench_tellers_pkey  |           245760
 2017-02-05 14:34:57.788849+01 | 1486301697.78885 | pgbench_accounts_pkey |       2246197248

 2017-02-05 14:34:58.877984+01 | 1486301698.87798 | pgbench_branches_pkey |            40960
 2017-02-05 14:34:58.877984+01 | 1486301698.87798 | pgbench_tellers_pkey  |           245760
 2017-02-05 14:34:58.877984+01 | 1486301698.87798 | pgbench_accounts_pkey |       2246197248

 2017-02-05 14:34:59.957097+01 | 1486301699.9571 | pgbench_branches_pkey |            40960
 2017-02-05 14:34:59.957097+01 | 1486301699.9571 | pgbench_tellers_pkey  |           245760
 2017-02-05 14:34:59.957097+01 | 1486301699.9571 | pgbench_accounts_pkey |       2246197248

 2017-02-05 14:35:01.043534+01 | 1486301701.04353 | pgbench_branches_pkey |            40960
 2017-02-05 14:35:01.043534+01 | 1486301701.04353 | pgbench_tellers_pkey  |           245760
 2017-02-05 14:35:01.043534+01 | 1486301701.04353 | pgbench_accounts_pkey |       2246197248

 2017-02-05 14:35:02.121662+01 | 1486301702.12166 | pgbench_branches_pkey |            40960
 2017-02-05 14:35:02.121662+01 | 1486301702.12166 | pgbench_tellers_pkey  |           245760
 2017-02-05 14:35:02.121662+01 | 1486301702.12166 | pgbench_accounts_pkey |       2246197248

 2017-02-05 14:35:03.199316+01 | 1486301703.19932 | pgbench_branches_pkey |            40960
 2017-02-05 14:35:03.199316+01 | 1486301703.19932 | pgbench_tellers_pkey  |           245760
 2017-02-05 14:35:03.199316+01 | 1486301703.19932 | pgbench_accounts_pkey |       2246197248

 2017-02-05 14:35:04.280197+01 | 1486301704.2802 | pgbench_branches_pkey |            40960
 2017-02-05 14:35:04.280197+01 | 1486301704.2802 | pgbench_tellers_pkey  |           245760
 2017-02-05 14:35:04.280197+01 | 1486301704.2802 | pgbench_accounts_pkey |       2246197248

 2017-02-05 14:35:05.36446+01 | 1486301705.36446 | pgbench_branches_pkey |            40960
 2017-02-05 14:35:05.36446+01 | 1486301705.36446 | pgbench_tellers_pkey  |           245760
 2017-02-05 14:35:05.36446+01 | 1486301705.36446 | pgbench_accounts_pkey |       2246197248

 2017-02-05 14:35:06.444816+01 | 1486301706.44482 | pgbench_branches_pkey |            40960
 2017-02-05 14:35:06.444816+01 | 1486301706.44482 | pgbench_tellers_pkey  |           245760
 2017-02-05 14:35:06.444816+01 | 1486301706.44482 | pgbench_accounts_pkey |       2246197248

 2017-02-05 14:35:07.519483+01 | 1486301707.51948 | pgbench_branches_pkey |            40960
 2017-02-05 14:35:07.519483+01 | 1486301707.51948 | pgbench_tellers_pkey  |           245760
 2017-02-05 14:35:07.519483+01 | 1486301707.51948 | pgbench_accounts_pkey |       2246197248

 2017-02-05 14:35:08.609715+01 | 1486301708.60971 | pgbench_branches_pkey |            40960
 2017-02-05 14:35:08.609715+01 | 1486301708.60971 | pgbench_tellers_pkey  |           245760
 2017-02-05 14:35:08.609715+01 | 1486301708.60971 | pgbench_accounts_pkey |       2246197248

 2017-02-05 14:35:09.691012+01 | 1486301709.69101 | pgbench_branches_pkey |            40960
 2017-02-05 14:35:09.691012+01 | 1486301709.69101 | pgbench_tellers_pkey  |           245760
 2017-02-05 14:35:09.691012+01 | 1486301709.69101 | pgbench_accounts_pkey |       2246197248

 2017-02-05 14:35:10.768463+01 | 1486301710.76846 | pgbench_branches_pkey |            40960
 2017-02-05 14:35:10.768463+01 | 1486301710.76846 | pgbench_tellers_pkey  |           245760
 2017-02-05 14:35:10.768463+01 | 1486301710.76846 | pgbench_accounts_pkey |       2246197248

 2017-02-05 14:35:11.844717+01 | 1486301711.84472 | pgbench_branches_pkey |            40960
 2017-02-05 14:35:11.844717+01 | 1486301711.84472 | pgbench_tellers_pkey  |           245760
 2017-02-05 14:35:11.844717+01 | 1486301711.84472 | pgbench_accounts_pkey |       2246197248

 2017-02-05 14:35:12.925484+01 | 1486301712.92548 | pgbench_branches_pkey |            40960
 2017-02-05 14:35:12.925484+01 | 1486301712.92548 | pgbench_tellers_pkey  |           245760
 2017-02-05 14:35:12.925484+01 | 1486301712.92548 | pgbench_accounts_pkey |       2246197248

 2017-02-05 14:35:14.008815+01 | 1486301714.00882 | pgbench_branches_pkey |            40960
 2017-02-05 14:35:14.008815+01 | 1486301714.00882 | pgbench_tellers_pkey  |           245760
 2017-02-05 14:35:14.008815+01 | 1486301714.00882 | pgbench_accounts_pkey |       2246197248

 2017-02-05 14:35:15.095468+01 | 1486301715.09547 | pgbench_branches_pkey |            40960
 2017-02-05 14:35:15.095468+01 | 1486301715.09547 | pgbench_tellers_pkey  |           245760
 2017-02-05 14:35:15.095468+01 | 1486301715.09547 | pgbench_accounts_pkey |       2246197248

 2017-02-05 14:35:16.172925+01 | 1486301716.17292 | pgbench_branches_pkey |            40960
 2017-02-05 14:35:16.172925+01 | 1486301716.17292 | pgbench_tellers_pkey  |           245760
 2017-02-05 14:35:16.172925+01 | 1486301716.17292 | pgbench_accounts_pkey |       2246197248

 2017-02-05 14:35:17.252482+01 | 1486301717.25248 | pgbench_branches_pkey |            40960
 2017-02-05 14:35:17.252482+01 | 1486301717.25248 | pgbench_tellers_pkey  |           245760
 2017-02-05 14:35:17.252482+01 | 1486301717.25248 | pgbench_accounts_pkey |       2246197248

 2017-02-05 14:35:18.334671+01 | 1486301718.33467 | pgbench_branches_pkey |            40960
 2017-02-05 14:35:18.334671+01 | 1486301718.33467 | pgbench_tellers_pkey  |           245760
 2017-02-05 14:35:18.334671+01 | 1486301718.33467 | pgbench_accounts_pkey |       2246197248

 2017-02-05 14:35:19.41005+01 | 1486301719.41005 | pgbench_branches_pkey |            40960
 2017-02-05 14:35:19.41005+01 | 1486301719.41005 | pgbench_tellers_pkey  |           245760
 2017-02-05 14:35:19.41005+01 | 1486301719.41005 | pgbench_accounts_pkey |       2246197248

 2017-02-05 14:35:20.493376+01 | 1486301720.49338 | pgbench_branches_pkey |            40960
 2017-02-05 14:35:20.493376+01 | 1486301720.49338 | pgbench_tellers_pkey  |           245760
 2017-02-05 14:35:20.493376+01 | 1486301720.49338 | pgbench_accounts_pkey |       2246197248

 2017-02-05 14:35:21.57564+01 | 1486301721.57564 | pgbench_branches_pkey |            40960
 2017-02-05 14:35:21.57564+01 | 1486301721.57564 | pgbench_tellers_pkey  |           245760
 2017-02-05 14:35:21.57564+01 | 1486301721.57564 | pgbench_accounts_pkey |       2246197248

 2017-02-05 14:35:22.653619+01 | 1486301722.65362 | pgbench_branches_pkey |            40960
 2017-02-05 14:35:22.653619+01 | 1486301722.65362 | pgbench_tellers_pkey  |           245760
 2017-02-05 14:35:22.653619+01 | 1486301722.65362 | pgbench_accounts_pkey |       2246197248

 2017-02-05 14:35:23.729924+01 | 1486301723.72992 | pgbench_branches_pkey |            40960
 2017-02-05 14:35:23.729924+01 | 1486301723.72992 | pgbench_tellers_pkey  |           245760
 2017-02-05 14:35:23.729924+01 | 1486301723.72992 | pgbench_accounts_pkey |       2246197248

 2017-02-05 14:35:24.816827+01 | 1486301724.81683 | pgbench_branches_pkey |            40960
 2017-02-05 14:35:24.816827+01 | 1486301724.81683 | pgbench_tellers_pkey  |           245760
 2017-02-05 14:35:24.816827+01 | 1486301724.81683 | pgbench_accounts_pkey |       2246197248

 2017-02-05 14:35:25.895418+01 | 1486301725.89542 | pgbench_branches_pkey |            40960
 2017-02-05 14:35:25.895418+01 | 1486301725.89542 | pgbench_tellers_pkey  |           245760
 2017-02-05 14:35:25.895418+01 | 1486301725.89542 | pgbench_accounts_pkey |       2246197248

 2017-02-05 14:35:26.970862+01 | 1486301726.97086 | pgbench_branches_pkey |            40960
 2017-02-05 14:35:26.970862+01 | 1486301726.97086 | pgbench_tellers_pkey  |           245760
 2017-02-05 14:35:26.970862+01 | 1486301726.97086 | pgbench_accounts_pkey |       2246197248

 2017-02-05 14:35:28.051059+01 | 1486301728.05106 | pgbench_branches_pkey |            40960
 2017-02-05 14:35:28.051059+01 | 1486301728.05106 | pgbench_tellers_pkey  |           245760
 2017-02-05 14:35:28.051059+01 | 1486301728.05106 | pgbench_accounts_pkey |       2246197248

 2017-02-05 14:35:29.136433+01 | 1486301729.13643 | pgbench_branches_pkey |            40960
 2017-02-05 14:35:29.136433+01 | 1486301729.13643 | pgbench_tellers_pkey  |           245760
 2017-02-05 14:35:29.136433+01 | 1486301729.13643 | pgbench_accounts_pkey |       2246197248

 2017-02-05 14:35:30.212523+01 | 1486301730.21252 | pgbench_branches_pkey |            40960
 2017-02-05 14:35:30.212523+01 | 1486301730.21252 | pgbench_tellers_pkey  |           245760
 2017-02-05 14:35:30.212523+01 | 1486301730.21252 | pgbench_accounts_pkey |       2246197248

 2017-02-05 14:35:31.290124+01 | 1486301731.29012 | pgbench_branches_pkey |            40960
 2017-02-05 14:35:31.290124+01 | 1486301731.29012 | pgbench_tellers_pkey  |           245760
 2017-02-05 14:35:31.290124+01 | 1486301731.29012 | pgbench_accounts_pkey |       2246197248

 2017-02-05 14:35:32.366267+01 | 1486301732.36627 | pgbench_branches_pkey |            40960
 2017-02-05 14:35:32.366267+01 | 1486301732.36627 | pgbench_tellers_pkey  |           245760
 2017-02-05 14:35:32.366267+01 | 1486301732.36627 | pgbench_accounts_pkey |       2246197248

 2017-02-05 14:35:33.44106+01 | 1486301733.44106 | pgbench_branches_pkey |            40960
 2017-02-05 14:35:33.44106+01 | 1486301733.44106 | pgbench_tellers_pkey  |           245760
 2017-02-05 14:35:33.44106+01 | 1486301733.44106 | pgbench_accounts_pkey |       2246197248

 2017-02-05 14:35:34.52039+01 | 1486301734.52039 | pgbench_branches_pkey |            40960
 2017-02-05 14:35:34.52039+01 | 1486301734.52039 | pgbench_tellers_pkey  |           245760
 2017-02-05 14:35:34.52039+01 | 1486301734.52039 | pgbench_accounts_pkey |       2246197248

 2017-02-05 14:35:35.598649+01 | 1486301735.59865 | pgbench_branches_pkey |            40960
 2017-02-05 14:35:35.598649+01 | 1486301735.59865 | pgbench_tellers_pkey  |           245760
 2017-02-05 14:35:35.598649+01 | 1486301735.59865 | pgbench_accounts_pkey |       2246197248

 2017-02-05 14:35:36.672061+01 | 1486301736.67206 | pgbench_branches_pkey |            40960
 2017-02-05 14:35:36.672061+01 | 1486301736.67206 | pgbench_tellers_pkey  |           245760
 2017-02-05 14:35:36.672061+01 | 1486301736.67206 | pgbench_accounts_pkey |       2246197248

 2017-02-05 14:35:37.763314+01 | 1486301737.76331 | pgbench_branches_pkey |            40960
 2017-02-05 14:35:37.763314+01 | 1486301737.76331 | pgbench_tellers_pkey  |           245760
 2017-02-05 14:35:37.763314+01 | 1486301737.76331 | pgbench_accounts_pkey |       2246197248

 2017-02-05 14:35:38.844365+01 | 1486301738.84436 | pgbench_branches_pkey |            40960
 2017-02-05 14:35:38.844365+01 | 1486301738.84436 | pgbench_tellers_pkey  |           245760
 2017-02-05 14:35:38.844365+01 | 1486301738.84436 | pgbench_accounts_pkey |       2246197248

 2017-02-05 14:35:39.923989+01 | 1486301739.92399 | pgbench_branches_pkey |            40960
 2017-02-05 14:35:39.923989+01 | 1486301739.92399 | pgbench_tellers_pkey  |           245760
 2017-02-05 14:35:39.923989+01 | 1486301739.92399 | pgbench_accounts_pkey |       2246197248

 2017-02-05 14:35:41.005362+01 | 1486301741.00536 | pgbench_branches_pkey |            40960
 2017-02-05 14:35:41.005362+01 | 1486301741.00536 | pgbench_tellers_pkey  |           245760
 2017-02-05 14:35:41.005362+01 | 1486301741.00536 | pgbench_accounts_pkey |       2246197248

