 2017-02-05 02:36:58.98209+01 | 1486258618.98209 | pgbench_branches_pkey |            40960
 2017-02-05 02:36:58.98209+01 | 1486258618.98209 | pgbench_tellers_pkey  |           245760
 2017-02-05 02:36:58.98209+01 | 1486258618.98209 | pgbench_accounts_pkey |       2246197248

 2017-02-05 02:37:00.074698+01 | 1486258620.0747 | pgbench_branches_pkey |            40960
 2017-02-05 02:37:00.074698+01 | 1486258620.0747 | pgbench_tellers_pkey  |           245760
 2017-02-05 02:37:00.074698+01 | 1486258620.0747 | pgbench_accounts_pkey |       2246197248

 2017-02-05 02:37:01.172916+01 | 1486258621.17292 | pgbench_branches_pkey |            40960
 2017-02-05 02:37:01.172916+01 | 1486258621.17292 | pgbench_tellers_pkey  |           245760
 2017-02-05 02:37:01.172916+01 | 1486258621.17292 | pgbench_accounts_pkey |       2246197248

 2017-02-05 02:37:02.261076+01 | 1486258622.26108 | pgbench_branches_pkey |            40960
 2017-02-05 02:37:02.261076+01 | 1486258622.26108 | pgbench_tellers_pkey  |           245760
 2017-02-05 02:37:02.261076+01 | 1486258622.26108 | pgbench_accounts_pkey |       2246197248

 2017-02-05 02:37:03.352446+01 | 1486258623.35245 | pgbench_branches_pkey |            40960
 2017-02-05 02:37:03.352446+01 | 1486258623.35245 | pgbench_tellers_pkey  |           245760
 2017-02-05 02:37:03.352446+01 | 1486258623.35245 | pgbench_accounts_pkey |       2246197248

 2017-02-05 02:37:04.448275+01 | 1486258624.44828 | pgbench_branches_pkey |            40960
 2017-02-05 02:37:04.448275+01 | 1486258624.44828 | pgbench_tellers_pkey  |           245760
 2017-02-05 02:37:04.448275+01 | 1486258624.44828 | pgbench_accounts_pkey |       2246197248

 2017-02-05 02:37:05.530251+01 | 1486258625.53025 | pgbench_branches_pkey |            40960
 2017-02-05 02:37:05.530251+01 | 1486258625.53025 | pgbench_tellers_pkey  |           245760
 2017-02-05 02:37:05.530251+01 | 1486258625.53025 | pgbench_accounts_pkey |       2246197248

 2017-02-05 02:37:06.623961+01 | 1486258626.62396 | pgbench_branches_pkey |            40960
 2017-02-05 02:37:06.623961+01 | 1486258626.62396 | pgbench_tellers_pkey  |           245760
 2017-02-05 02:37:06.623961+01 | 1486258626.62396 | pgbench_accounts_pkey |       2246197248

 2017-02-05 02:37:07.70928+01 | 1486258627.70928 | pgbench_branches_pkey |            40960
 2017-02-05 02:37:07.70928+01 | 1486258627.70928 | pgbench_tellers_pkey  |           245760
 2017-02-05 02:37:07.70928+01 | 1486258627.70928 | pgbench_accounts_pkey |       2246197248

 2017-02-05 02:37:08.793885+01 | 1486258628.79388 | pgbench_branches_pkey |            40960
 2017-02-05 02:37:08.793885+01 | 1486258628.79388 | pgbench_tellers_pkey  |           245760
 2017-02-05 02:37:08.793885+01 | 1486258628.79388 | pgbench_accounts_pkey |       2246197248

 2017-02-05 02:37:09.869052+01 | 1486258629.86905 | pgbench_branches_pkey |            40960
 2017-02-05 02:37:09.869052+01 | 1486258629.86905 | pgbench_tellers_pkey  |           245760
 2017-02-05 02:37:09.869052+01 | 1486258629.86905 | pgbench_accounts_pkey |       2246197248

 2017-02-05 02:37:10.950421+01 | 1486258630.95042 | pgbench_branches_pkey |            40960
 2017-02-05 02:37:10.950421+01 | 1486258630.95042 | pgbench_tellers_pkey  |           245760
 2017-02-05 02:37:10.950421+01 | 1486258630.95042 | pgbench_accounts_pkey |       2246197248

 2017-02-05 02:37:12.036431+01 | 1486258632.03643 | pgbench_branches_pkey |            40960
 2017-02-05 02:37:12.036431+01 | 1486258632.03643 | pgbench_tellers_pkey  |           245760
 2017-02-05 02:37:12.036431+01 | 1486258632.03643 | pgbench_accounts_pkey |       2246197248

 2017-02-05 02:37:13.129569+01 | 1486258633.12957 | pgbench_branches_pkey |            40960
 2017-02-05 02:37:13.129569+01 | 1486258633.12957 | pgbench_tellers_pkey  |           245760
 2017-02-05 02:37:13.129569+01 | 1486258633.12957 | pgbench_accounts_pkey |       2246197248

 2017-02-05 02:37:14.227323+01 | 1486258634.22732 | pgbench_branches_pkey |            40960
 2017-02-05 02:37:14.227323+01 | 1486258634.22732 | pgbench_tellers_pkey  |           245760
 2017-02-05 02:37:14.227323+01 | 1486258634.22732 | pgbench_accounts_pkey |       2246197248

 2017-02-05 02:37:15.324605+01 | 1486258635.3246 | pgbench_branches_pkey |            40960
 2017-02-05 02:37:15.324605+01 | 1486258635.3246 | pgbench_tellers_pkey  |           245760
 2017-02-05 02:37:15.324605+01 | 1486258635.3246 | pgbench_accounts_pkey |       2246197248

 2017-02-05 02:37:16.403193+01 | 1486258636.40319 | pgbench_branches_pkey |            40960
 2017-02-05 02:37:16.403193+01 | 1486258636.40319 | pgbench_tellers_pkey  |           245760
 2017-02-05 02:37:16.403193+01 | 1486258636.40319 | pgbench_accounts_pkey |       2246197248

 2017-02-05 02:37:17.48313+01 | 1486258637.48313 | pgbench_branches_pkey |            40960
 2017-02-05 02:37:17.48313+01 | 1486258637.48313 | pgbench_tellers_pkey  |           245760
 2017-02-05 02:37:17.48313+01 | 1486258637.48313 | pgbench_accounts_pkey |       2246197248

 2017-02-05 02:37:18.567461+01 | 1486258638.56746 | pgbench_branches_pkey |            40960
 2017-02-05 02:37:18.567461+01 | 1486258638.56746 | pgbench_tellers_pkey  |           245760
 2017-02-05 02:37:18.567461+01 | 1486258638.56746 | pgbench_accounts_pkey |       2246197248

 2017-02-05 02:37:19.655+01 | 1486258639.655 | pgbench_branches_pkey |            40960
 2017-02-05 02:37:19.655+01 | 1486258639.655 | pgbench_tellers_pkey  |           245760
 2017-02-05 02:37:19.655+01 | 1486258639.655 | pgbench_accounts_pkey |       2246197248

 2017-02-05 02:37:20.725957+01 | 1486258640.72596 | pgbench_branches_pkey |            40960
 2017-02-05 02:37:20.725957+01 | 1486258640.72596 | pgbench_tellers_pkey  |           245760
 2017-02-05 02:37:20.725957+01 | 1486258640.72596 | pgbench_accounts_pkey |       2246197248

 2017-02-05 02:37:21.815927+01 | 1486258641.81593 | pgbench_branches_pkey |            40960
 2017-02-05 02:37:21.815927+01 | 1486258641.81593 | pgbench_tellers_pkey  |           245760
 2017-02-05 02:37:21.815927+01 | 1486258641.81593 | pgbench_accounts_pkey |       2246197248

 2017-02-05 02:37:22.901086+01 | 1486258642.90109 | pgbench_branches_pkey |            40960
 2017-02-05 02:37:22.901086+01 | 1486258642.90109 | pgbench_tellers_pkey  |           245760
 2017-02-05 02:37:22.901086+01 | 1486258642.90109 | pgbench_accounts_pkey |       2246197248

 2017-02-05 02:37:23.992551+01 | 1486258643.99255 | pgbench_branches_pkey |            40960
 2017-02-05 02:37:23.992551+01 | 1486258643.99255 | pgbench_tellers_pkey  |           245760
 2017-02-05 02:37:23.992551+01 | 1486258643.99255 | pgbench_accounts_pkey |       2246197248

 2017-02-05 02:37:25.084992+01 | 1486258645.08499 | pgbench_branches_pkey |            40960
 2017-02-05 02:37:25.084992+01 | 1486258645.08499 | pgbench_tellers_pkey  |           245760
 2017-02-05 02:37:25.084992+01 | 1486258645.08499 | pgbench_accounts_pkey |       2246197248

 2017-02-05 02:37:26.19309+01 | 1486258646.19309 | pgbench_branches_pkey |            40960
 2017-02-05 02:37:26.19309+01 | 1486258646.19309 | pgbench_tellers_pkey  |           245760
 2017-02-05 02:37:26.19309+01 | 1486258646.19309 | pgbench_accounts_pkey |       2246197248

 2017-02-05 02:37:27.28353+01 | 1486258647.28353 | pgbench_branches_pkey |            40960
 2017-02-05 02:37:27.28353+01 | 1486258647.28353 | pgbench_tellers_pkey  |           245760
 2017-02-05 02:37:27.28353+01 | 1486258647.28353 | pgbench_accounts_pkey |       2246197248

 2017-02-05 02:37:28.361031+01 | 1486258648.36103 | pgbench_branches_pkey |            40960
 2017-02-05 02:37:28.361031+01 | 1486258648.36103 | pgbench_tellers_pkey  |           245760
 2017-02-05 02:37:28.361031+01 | 1486258648.36103 | pgbench_accounts_pkey |       2246197248

 2017-02-05 02:37:29.451005+01 | 1486258649.451 | pgbench_branches_pkey |            40960
 2017-02-05 02:37:29.451005+01 | 1486258649.451 | pgbench_tellers_pkey  |           245760
 2017-02-05 02:37:29.451005+01 | 1486258649.451 | pgbench_accounts_pkey |       2246197248

 2017-02-05 02:37:30.542252+01 | 1486258650.54225 | pgbench_branches_pkey |            40960
 2017-02-05 02:37:30.542252+01 | 1486258650.54225 | pgbench_tellers_pkey  |           245760
 2017-02-05 02:37:30.542252+01 | 1486258650.54225 | pgbench_accounts_pkey |       2246197248

 2017-02-05 02:37:31.62944+01 | 1486258651.62944 | pgbench_branches_pkey |            40960
 2017-02-05 02:37:31.62944+01 | 1486258651.62944 | pgbench_tellers_pkey  |           245760
 2017-02-05 02:37:31.62944+01 | 1486258651.62944 | pgbench_accounts_pkey |       2246197248

 2017-02-05 02:37:32.701848+01 | 1486258652.70185 | pgbench_branches_pkey |            40960
 2017-02-05 02:37:32.701848+01 | 1486258652.70185 | pgbench_tellers_pkey  |           245760
 2017-02-05 02:37:32.701848+01 | 1486258652.70185 | pgbench_accounts_pkey |       2246197248

 2017-02-05 02:37:33.782848+01 | 1486258653.78285 | pgbench_branches_pkey |            40960
 2017-02-05 02:37:33.782848+01 | 1486258653.78285 | pgbench_tellers_pkey  |           245760
 2017-02-05 02:37:33.782848+01 | 1486258653.78285 | pgbench_accounts_pkey |       2246197248

 2017-02-05 02:37:34.861861+01 | 1486258654.86186 | pgbench_branches_pkey |            40960
 2017-02-05 02:37:34.861861+01 | 1486258654.86186 | pgbench_tellers_pkey  |           245760
 2017-02-05 02:37:34.861861+01 | 1486258654.86186 | pgbench_accounts_pkey |       2246197248

 2017-02-05 02:37:35.930364+01 | 1486258655.93036 | pgbench_branches_pkey |            40960
 2017-02-05 02:37:35.930364+01 | 1486258655.93036 | pgbench_tellers_pkey  |           245760
 2017-02-05 02:37:35.930364+01 | 1486258655.93036 | pgbench_accounts_pkey |       2246197248

 2017-02-05 02:37:37.0117+01 | 1486258657.0117 | pgbench_branches_pkey |            40960
 2017-02-05 02:37:37.0117+01 | 1486258657.0117 | pgbench_tellers_pkey  |           245760
 2017-02-05 02:37:37.0117+01 | 1486258657.0117 | pgbench_accounts_pkey |       2246197248

 2017-02-05 02:37:38.093102+01 | 1486258658.0931 | pgbench_branches_pkey |            40960
 2017-02-05 02:37:38.093102+01 | 1486258658.0931 | pgbench_tellers_pkey  |           245760
 2017-02-05 02:37:38.093102+01 | 1486258658.0931 | pgbench_accounts_pkey |       2246197248

 2017-02-05 02:37:39.174809+01 | 1486258659.17481 | pgbench_branches_pkey |            40960
 2017-02-05 02:37:39.174809+01 | 1486258659.17481 | pgbench_tellers_pkey  |           245760
 2017-02-05 02:37:39.174809+01 | 1486258659.17481 | pgbench_accounts_pkey |       2246197248

 2017-02-05 02:37:40.251323+01 | 1486258660.25132 | pgbench_branches_pkey |            40960
 2017-02-05 02:37:40.251323+01 | 1486258660.25132 | pgbench_tellers_pkey  |           245760
 2017-02-05 02:37:40.251323+01 | 1486258660.25132 | pgbench_accounts_pkey |       2246197248

 2017-02-05 02:37:41.335127+01 | 1486258661.33513 | pgbench_branches_pkey |            40960
 2017-02-05 02:37:41.335127+01 | 1486258661.33513 | pgbench_tellers_pkey  |           245760
 2017-02-05 02:37:41.335127+01 | 1486258661.33513 | pgbench_accounts_pkey |       2246197248

 2017-02-05 02:37:42.403719+01 | 1486258662.40372 | pgbench_branches_pkey |            40960
 2017-02-05 02:37:42.403719+01 | 1486258662.40372 | pgbench_tellers_pkey  |           245760
 2017-02-05 02:37:42.403719+01 | 1486258662.40372 | pgbench_accounts_pkey |       2246197248

 2017-02-05 02:37:43.477701+01 | 1486258663.4777 | pgbench_branches_pkey |            40960
 2017-02-05 02:37:43.477701+01 | 1486258663.4777 | pgbench_tellers_pkey  |           245760
 2017-02-05 02:37:43.477701+01 | 1486258663.4777 | pgbench_accounts_pkey |       2246197248

 2017-02-05 02:37:44.545116+01 | 1486258664.54512 | pgbench_branches_pkey |            40960
 2017-02-05 02:37:44.545116+01 | 1486258664.54512 | pgbench_tellers_pkey  |           245760
 2017-02-05 02:37:44.545116+01 | 1486258664.54512 | pgbench_accounts_pkey |       2246197248

 2017-02-05 02:37:45.631238+01 | 1486258665.63124 | pgbench_branches_pkey |            40960
 2017-02-05 02:37:45.631238+01 | 1486258665.63124 | pgbench_tellers_pkey  |           245760
 2017-02-05 02:37:45.631238+01 | 1486258665.63124 | pgbench_accounts_pkey |       2246197248

 2017-02-05 02:37:46.713377+01 | 1486258666.71338 | pgbench_branches_pkey |            40960
 2017-02-05 02:37:46.713377+01 | 1486258666.71338 | pgbench_tellers_pkey  |           245760
 2017-02-05 02:37:46.713377+01 | 1486258666.71338 | pgbench_accounts_pkey |       2246197248

 2017-02-05 02:37:47.79625+01 | 1486258667.79625 | pgbench_branches_pkey |            40960
 2017-02-05 02:37:47.79625+01 | 1486258667.79625 | pgbench_tellers_pkey  |           245760
 2017-02-05 02:37:47.79625+01 | 1486258667.79625 | pgbench_accounts_pkey |       2246197248

 2017-02-05 02:37:48.888089+01 | 1486258668.88809 | pgbench_branches_pkey |            40960
 2017-02-05 02:37:48.888089+01 | 1486258668.88809 | pgbench_tellers_pkey  |           245760
 2017-02-05 02:37:48.888089+01 | 1486258668.88809 | pgbench_accounts_pkey |       2246197248

 2017-02-05 02:37:49.954974+01 | 1486258669.95497 | pgbench_branches_pkey |            40960
 2017-02-05 02:37:49.954974+01 | 1486258669.95497 | pgbench_tellers_pkey  |           245760
 2017-02-05 02:37:49.954974+01 | 1486258669.95497 | pgbench_accounts_pkey |       2246197248

 2017-02-05 02:37:51.030183+01 | 1486258671.03018 | pgbench_branches_pkey |            40960
 2017-02-05 02:37:51.030183+01 | 1486258671.03018 | pgbench_tellers_pkey  |           245760
 2017-02-05 02:37:51.030183+01 | 1486258671.03018 | pgbench_accounts_pkey |       2246197248

 2017-02-05 02:37:52.12844+01 | 1486258672.12844 | pgbench_branches_pkey |            40960
 2017-02-05 02:37:52.12844+01 | 1486258672.12844 | pgbench_tellers_pkey  |           245760
 2017-02-05 02:37:52.12844+01 | 1486258672.12844 | pgbench_accounts_pkey |       2246197248

 2017-02-05 02:37:53.222756+01 | 1486258673.22276 | pgbench_branches_pkey |            40960
 2017-02-05 02:37:53.222756+01 | 1486258673.22276 | pgbench_tellers_pkey  |           245760
 2017-02-05 02:37:53.222756+01 | 1486258673.22276 | pgbench_accounts_pkey |       2246197248

 2017-02-05 02:37:54.297478+01 | 1486258674.29748 | pgbench_branches_pkey |            40960
 2017-02-05 02:37:54.297478+01 | 1486258674.29748 | pgbench_tellers_pkey  |           245760
 2017-02-05 02:37:54.297478+01 | 1486258674.29748 | pgbench_accounts_pkey |       2246197248

 2017-02-05 02:37:55.394451+01 | 1486258675.39445 | pgbench_branches_pkey |            40960
 2017-02-05 02:37:55.394451+01 | 1486258675.39445 | pgbench_tellers_pkey  |           245760
 2017-02-05 02:37:55.394451+01 | 1486258675.39445 | pgbench_accounts_pkey |       2246197248

 2017-02-05 02:37:56.486047+01 | 1486258676.48605 | pgbench_branches_pkey |            40960
 2017-02-05 02:37:56.486047+01 | 1486258676.48605 | pgbench_tellers_pkey  |           245760
 2017-02-05 02:37:56.486047+01 | 1486258676.48605 | pgbench_accounts_pkey |       2246197248

 2017-02-05 02:37:57.569664+01 | 1486258677.56966 | pgbench_branches_pkey |            40960
 2017-02-05 02:37:57.569664+01 | 1486258677.56966 | pgbench_tellers_pkey  |           245760
 2017-02-05 02:37:57.569664+01 | 1486258677.56966 | pgbench_accounts_pkey |       2246197248

 2017-02-05 02:37:58.650249+01 | 1486258678.65025 | pgbench_branches_pkey |            40960
 2017-02-05 02:37:58.650249+01 | 1486258678.65025 | pgbench_tellers_pkey  |           245760
 2017-02-05 02:37:58.650249+01 | 1486258678.65025 | pgbench_accounts_pkey |       2246197248

 2017-02-05 02:37:59.736134+01 | 1486258679.73613 | pgbench_branches_pkey |            40960
 2017-02-05 02:37:59.736134+01 | 1486258679.73613 | pgbench_tellers_pkey  |           245760
 2017-02-05 02:37:59.736134+01 | 1486258679.73613 | pgbench_accounts_pkey |       2246197248

 2017-02-05 02:38:00.821524+01 | 1486258680.82152 | pgbench_branches_pkey |            40960
 2017-02-05 02:38:00.821524+01 | 1486258680.82152 | pgbench_tellers_pkey  |           245760
 2017-02-05 02:38:00.821524+01 | 1486258680.82152 | pgbench_accounts_pkey |       2246197248

 2017-02-05 02:38:01.907027+01 | 1486258681.90703 | pgbench_branches_pkey |            40960
 2017-02-05 02:38:01.907027+01 | 1486258681.90703 | pgbench_tellers_pkey  |           245760
 2017-02-05 02:38:01.907027+01 | 1486258681.90703 | pgbench_accounts_pkey |       2246197248

 2017-02-05 02:38:02.979793+01 | 1486258682.97979 | pgbench_branches_pkey |            40960
 2017-02-05 02:38:02.979793+01 | 1486258682.97979 | pgbench_tellers_pkey  |           245760
 2017-02-05 02:38:02.979793+01 | 1486258682.97979 | pgbench_accounts_pkey |       2246197248

 2017-02-05 02:38:04.066884+01 | 1486258684.06688 | pgbench_branches_pkey |            40960
 2017-02-05 02:38:04.066884+01 | 1486258684.06688 | pgbench_tellers_pkey  |           245760
 2017-02-05 02:38:04.066884+01 | 1486258684.06688 | pgbench_accounts_pkey |       2246197248

 2017-02-05 02:38:05.146564+01 | 1486258685.14656 | pgbench_branches_pkey |            40960
 2017-02-05 02:38:05.146564+01 | 1486258685.14656 | pgbench_tellers_pkey  |           245760
 2017-02-05 02:38:05.146564+01 | 1486258685.14656 | pgbench_accounts_pkey |       2246197248

 2017-02-05 02:38:06.229268+01 | 1486258686.22927 | pgbench_branches_pkey |            40960
 2017-02-05 02:38:06.229268+01 | 1486258686.22927 | pgbench_tellers_pkey  |           245760
 2017-02-05 02:38:06.229268+01 | 1486258686.22927 | pgbench_accounts_pkey |       2246197248

 2017-02-05 02:38:07.322072+01 | 1486258687.32207 | pgbench_branches_pkey |            40960
 2017-02-05 02:38:07.322072+01 | 1486258687.32207 | pgbench_tellers_pkey  |           245760
 2017-02-05 02:38:07.322072+01 | 1486258687.32207 | pgbench_accounts_pkey |       2246197248

 2017-02-05 02:38:08.392579+01 | 1486258688.39258 | pgbench_branches_pkey |            40960
 2017-02-05 02:38:08.392579+01 | 1486258688.39258 | pgbench_tellers_pkey  |           245760
 2017-02-05 02:38:08.392579+01 | 1486258688.39258 | pgbench_accounts_pkey |       2246197248

 2017-02-05 02:38:09.487425+01 | 1486258689.48743 | pgbench_branches_pkey |            40960
 2017-02-05 02:38:09.487425+01 | 1486258689.48743 | pgbench_tellers_pkey  |           245760
 2017-02-05 02:38:09.487425+01 | 1486258689.48743 | pgbench_accounts_pkey |       2246197248

 2017-02-05 02:38:10.561625+01 | 1486258690.56163 | pgbench_branches_pkey |            40960
 2017-02-05 02:38:10.561625+01 | 1486258690.56163 | pgbench_tellers_pkey  |           245760
 2017-02-05 02:38:10.561625+01 | 1486258690.56163 | pgbench_accounts_pkey |       2246197248

 2017-02-05 02:38:11.637621+01 | 1486258691.63762 | pgbench_branches_pkey |            40960
 2017-02-05 02:38:11.637621+01 | 1486258691.63762 | pgbench_tellers_pkey  |           245760
 2017-02-05 02:38:11.637621+01 | 1486258691.63762 | pgbench_accounts_pkey |       2246197248

 2017-02-05 02:38:12.705057+01 | 1486258692.70506 | pgbench_branches_pkey |            40960
 2017-02-05 02:38:12.705057+01 | 1486258692.70506 | pgbench_tellers_pkey  |           245760
 2017-02-05 02:38:12.705057+01 | 1486258692.70506 | pgbench_accounts_pkey |       2246197248

 2017-02-05 02:38:13.807633+01 | 1486258693.80763 | pgbench_branches_pkey |            40960
 2017-02-05 02:38:13.807633+01 | 1486258693.80763 | pgbench_tellers_pkey  |           245760
 2017-02-05 02:38:13.807633+01 | 1486258693.80763 | pgbench_accounts_pkey |       2246197248

 2017-02-05 02:38:14.903656+01 | 1486258694.90366 | pgbench_branches_pkey |            40960
 2017-02-05 02:38:14.903656+01 | 1486258694.90366 | pgbench_tellers_pkey  |           245760
 2017-02-05 02:38:14.903656+01 | 1486258694.90366 | pgbench_accounts_pkey |       2246197248

 2017-02-05 02:38:15.981098+01 | 1486258695.9811 | pgbench_branches_pkey |            40960
 2017-02-05 02:38:15.981098+01 | 1486258695.9811 | pgbench_tellers_pkey  |           245760
 2017-02-05 02:38:15.981098+01 | 1486258695.9811 | pgbench_accounts_pkey |       2246197248

 2017-02-05 02:38:17.050642+01 | 1486258697.05064 | pgbench_branches_pkey |            40960
 2017-02-05 02:38:17.050642+01 | 1486258697.05064 | pgbench_tellers_pkey  |           245760
 2017-02-05 02:38:17.050642+01 | 1486258697.05064 | pgbench_accounts_pkey |       2246197248

 2017-02-05 02:38:18.132661+01 | 1486258698.13266 | pgbench_branches_pkey |            40960
 2017-02-05 02:38:18.132661+01 | 1486258698.13266 | pgbench_tellers_pkey  |           245760
 2017-02-05 02:38:18.132661+01 | 1486258698.13266 | pgbench_accounts_pkey |       2246197248

 2017-02-05 02:38:19.214179+01 | 1486258699.21418 | pgbench_branches_pkey |            40960
 2017-02-05 02:38:19.214179+01 | 1486258699.21418 | pgbench_tellers_pkey  |           245760
 2017-02-05 02:38:19.214179+01 | 1486258699.21418 | pgbench_accounts_pkey |       2246197248

 2017-02-05 02:38:20.289895+01 | 1486258700.2899 | pgbench_branches_pkey |            40960
 2017-02-05 02:38:20.289895+01 | 1486258700.2899 | pgbench_tellers_pkey  |           245760
 2017-02-05 02:38:20.289895+01 | 1486258700.2899 | pgbench_accounts_pkey |       2246197248

 2017-02-05 02:38:21.38852+01 | 1486258701.38852 | pgbench_branches_pkey |            40960
 2017-02-05 02:38:21.38852+01 | 1486258701.38852 | pgbench_tellers_pkey  |           245760
 2017-02-05 02:38:21.38852+01 | 1486258701.38852 | pgbench_accounts_pkey |       2246197248

 2017-02-05 02:38:22.462249+01 | 1486258702.46225 | pgbench_branches_pkey |            40960
 2017-02-05 02:38:22.462249+01 | 1486258702.46225 | pgbench_tellers_pkey  |           245760
 2017-02-05 02:38:22.462249+01 | 1486258702.46225 | pgbench_accounts_pkey |       2246197248

 2017-02-05 02:38:23.546797+01 | 1486258703.5468 | pgbench_branches_pkey |            40960
 2017-02-05 02:38:23.546797+01 | 1486258703.5468 | pgbench_tellers_pkey  |           245760
 2017-02-05 02:38:23.546797+01 | 1486258703.5468 | pgbench_accounts_pkey |       2246197248

 2017-02-05 02:38:24.631324+01 | 1486258704.63132 | pgbench_branches_pkey |            40960
 2017-02-05 02:38:24.631324+01 | 1486258704.63132 | pgbench_tellers_pkey  |           245760
 2017-02-05 02:38:24.631324+01 | 1486258704.63132 | pgbench_accounts_pkey |       2246197248

 2017-02-05 02:38:25.723526+01 | 1486258705.72353 | pgbench_branches_pkey |            40960
 2017-02-05 02:38:25.723526+01 | 1486258705.72353 | pgbench_tellers_pkey  |           245760
 2017-02-05 02:38:25.723526+01 | 1486258705.72353 | pgbench_accounts_pkey |       2246197248

 2017-02-05 02:38:26.807732+01 | 1486258706.80773 | pgbench_branches_pkey |            40960
 2017-02-05 02:38:26.807732+01 | 1486258706.80773 | pgbench_tellers_pkey  |           245760
 2017-02-05 02:38:26.807732+01 | 1486258706.80773 | pgbench_accounts_pkey |       2246197248

 2017-02-05 02:38:27.887315+01 | 1486258707.88732 | pgbench_branches_pkey |            40960
 2017-02-05 02:38:27.887315+01 | 1486258707.88732 | pgbench_tellers_pkey  |           245760
 2017-02-05 02:38:27.887315+01 | 1486258707.88732 | pgbench_accounts_pkey |       2246197248

 2017-02-05 02:38:28.958539+01 | 1486258708.95854 | pgbench_branches_pkey |            40960
 2017-02-05 02:38:28.958539+01 | 1486258708.95854 | pgbench_tellers_pkey  |           245760
 2017-02-05 02:38:28.958539+01 | 1486258708.95854 | pgbench_accounts_pkey |       2246197248

 2017-02-05 02:38:30.040965+01 | 1486258710.04097 | pgbench_branches_pkey |            40960
 2017-02-05 02:38:30.040965+01 | 1486258710.04097 | pgbench_tellers_pkey  |           245760
 2017-02-05 02:38:30.040965+01 | 1486258710.04097 | pgbench_accounts_pkey |       2246197248

 2017-02-05 02:38:31.122747+01 | 1486258711.12275 | pgbench_branches_pkey |            40960
 2017-02-05 02:38:31.122747+01 | 1486258711.12275 | pgbench_tellers_pkey  |           245760
 2017-02-05 02:38:31.122747+01 | 1486258711.12275 | pgbench_accounts_pkey |       2246197248

 2017-02-05 02:38:32.206198+01 | 1486258712.2062 | pgbench_branches_pkey |            40960
 2017-02-05 02:38:32.206198+01 | 1486258712.2062 | pgbench_tellers_pkey  |           245760
 2017-02-05 02:38:32.206198+01 | 1486258712.2062 | pgbench_accounts_pkey |       2246197248

 2017-02-05 02:38:33.305879+01 | 1486258713.30588 | pgbench_branches_pkey |            40960
 2017-02-05 02:38:33.305879+01 | 1486258713.30588 | pgbench_tellers_pkey  |           245760
 2017-02-05 02:38:33.305879+01 | 1486258713.30588 | pgbench_accounts_pkey |       2246197248

 2017-02-05 02:38:34.391086+01 | 1486258714.39109 | pgbench_branches_pkey |            40960
 2017-02-05 02:38:34.391086+01 | 1486258714.39109 | pgbench_tellers_pkey  |           245760
 2017-02-05 02:38:34.391086+01 | 1486258714.39109 | pgbench_accounts_pkey |       2246197248

 2017-02-05 02:38:35.482874+01 | 1486258715.48287 | pgbench_branches_pkey |            40960
 2017-02-05 02:38:35.482874+01 | 1486258715.48287 | pgbench_tellers_pkey  |           245760
 2017-02-05 02:38:35.482874+01 | 1486258715.48287 | pgbench_accounts_pkey |       2246197248

 2017-02-05 02:38:36.570574+01 | 1486258716.57057 | pgbench_branches_pkey |            40960
 2017-02-05 02:38:36.570574+01 | 1486258716.57057 | pgbench_tellers_pkey  |           245760
 2017-02-05 02:38:36.570574+01 | 1486258716.57057 | pgbench_accounts_pkey |       2246197248

 2017-02-05 02:38:37.650067+01 | 1486258717.65007 | pgbench_branches_pkey |            40960
 2017-02-05 02:38:37.650067+01 | 1486258717.65007 | pgbench_tellers_pkey  |           245760
 2017-02-05 02:38:37.650067+01 | 1486258717.65007 | pgbench_accounts_pkey |       2246197248

 2017-02-05 02:38:38.718561+01 | 1486258718.71856 | pgbench_branches_pkey |            40960
 2017-02-05 02:38:38.718561+01 | 1486258718.71856 | pgbench_tellers_pkey  |           245760
 2017-02-05 02:38:38.718561+01 | 1486258718.71856 | pgbench_accounts_pkey |       2246197248

 2017-02-05 02:38:39.802341+01 | 1486258719.80234 | pgbench_branches_pkey |            40960
 2017-02-05 02:38:39.802341+01 | 1486258719.80234 | pgbench_tellers_pkey  |           245760
 2017-02-05 02:38:39.802341+01 | 1486258719.80234 | pgbench_accounts_pkey |       2246197248

 2017-02-05 02:38:40.892575+01 | 1486258720.89258 | pgbench_branches_pkey |            40960
 2017-02-05 02:38:40.892575+01 | 1486258720.89258 | pgbench_tellers_pkey  |           245760
 2017-02-05 02:38:40.892575+01 | 1486258720.89258 | pgbench_accounts_pkey |       2246197248

 2017-02-05 02:38:41.971349+01 | 1486258721.97135 | pgbench_branches_pkey |            40960
 2017-02-05 02:38:41.971349+01 | 1486258721.97135 | pgbench_tellers_pkey  |           245760
 2017-02-05 02:38:41.971349+01 | 1486258721.97135 | pgbench_accounts_pkey |       2246197248

 2017-02-05 02:38:43.034867+01 | 1486258723.03487 | pgbench_branches_pkey |            40960
 2017-02-05 02:38:43.034867+01 | 1486258723.03487 | pgbench_tellers_pkey  |           245760
 2017-02-05 02:38:43.034867+01 | 1486258723.03487 | pgbench_accounts_pkey |       2246197248

 2017-02-05 02:38:44.117939+01 | 1486258724.11794 | pgbench_branches_pkey |            40960
 2017-02-05 02:38:44.117939+01 | 1486258724.11794 | pgbench_tellers_pkey  |           245760
 2017-02-05 02:38:44.117939+01 | 1486258724.11794 | pgbench_accounts_pkey |       2246197248

 2017-02-05 02:38:45.20998+01 | 1486258725.20998 | pgbench_branches_pkey |            40960
 2017-02-05 02:38:45.20998+01 | 1486258725.20998 | pgbench_tellers_pkey  |           245760
 2017-02-05 02:38:45.20998+01 | 1486258725.20998 | pgbench_accounts_pkey |       2246197248

 2017-02-05 02:38:46.304697+01 | 1486258726.3047 | pgbench_branches_pkey |            40960
 2017-02-05 02:38:46.304697+01 | 1486258726.3047 | pgbench_tellers_pkey  |           245760
 2017-02-05 02:38:46.304697+01 | 1486258726.3047 | pgbench_accounts_pkey |       2246197248

 2017-02-05 02:38:47.388244+01 | 1486258727.38824 | pgbench_branches_pkey |            40960
 2017-02-05 02:38:47.388244+01 | 1486258727.38824 | pgbench_tellers_pkey  |           245760
 2017-02-05 02:38:47.388244+01 | 1486258727.38824 | pgbench_accounts_pkey |       2246197248

 2017-02-05 02:38:48.475209+01 | 1486258728.47521 | pgbench_branches_pkey |            40960
 2017-02-05 02:38:48.475209+01 | 1486258728.47521 | pgbench_tellers_pkey  |           245760
 2017-02-05 02:38:48.475209+01 | 1486258728.47521 | pgbench_accounts_pkey |       2246197248

 2017-02-05 02:38:49.557357+01 | 1486258729.55736 | pgbench_branches_pkey |            40960
 2017-02-05 02:38:49.557357+01 | 1486258729.55736 | pgbench_tellers_pkey  |           245760
 2017-02-05 02:38:49.557357+01 | 1486258729.55736 | pgbench_accounts_pkey |       2246197248

 2017-02-05 02:38:50.645491+01 | 1486258730.64549 | pgbench_branches_pkey |            40960
 2017-02-05 02:38:50.645491+01 | 1486258730.64549 | pgbench_tellers_pkey  |           245760
 2017-02-05 02:38:50.645491+01 | 1486258730.64549 | pgbench_accounts_pkey |       2246197248

 2017-02-05 02:38:51.739857+01 | 1486258731.73986 | pgbench_branches_pkey |            40960
 2017-02-05 02:38:51.739857+01 | 1486258731.73986 | pgbench_tellers_pkey  |           245760
 2017-02-05 02:38:51.739857+01 | 1486258731.73986 | pgbench_accounts_pkey |       2246197248

 2017-02-05 02:38:52.838364+01 | 1486258732.83836 | pgbench_branches_pkey |            40960
 2017-02-05 02:38:52.838364+01 | 1486258732.83836 | pgbench_tellers_pkey  |           245760
 2017-02-05 02:38:52.838364+01 | 1486258732.83836 | pgbench_accounts_pkey |       2246197248

 2017-02-05 02:38:53.916058+01 | 1486258733.91606 | pgbench_branches_pkey |            40960
 2017-02-05 02:38:53.916058+01 | 1486258733.91606 | pgbench_tellers_pkey  |           245760
 2017-02-05 02:38:53.916058+01 | 1486258733.91606 | pgbench_accounts_pkey |       2246197248

 2017-02-05 02:38:55.005312+01 | 1486258735.00531 | pgbench_branches_pkey |            40960
 2017-02-05 02:38:55.005312+01 | 1486258735.00531 | pgbench_tellers_pkey  |           245760
 2017-02-05 02:38:55.005312+01 | 1486258735.00531 | pgbench_accounts_pkey |       2246197248

 2017-02-05 02:38:56.072629+01 | 1486258736.07263 | pgbench_branches_pkey |            40960
 2017-02-05 02:38:56.072629+01 | 1486258736.07263 | pgbench_tellers_pkey  |           245760
 2017-02-05 02:38:56.072629+01 | 1486258736.07263 | pgbench_accounts_pkey |       2246197248

 2017-02-05 02:38:57.153053+01 | 1486258737.15305 | pgbench_branches_pkey |            40960
 2017-02-05 02:38:57.153053+01 | 1486258737.15305 | pgbench_tellers_pkey  |           245760
 2017-02-05 02:38:57.153053+01 | 1486258737.15305 | pgbench_accounts_pkey |       2246197248

 2017-02-05 02:38:58.220438+01 | 1486258738.22044 | pgbench_branches_pkey |            40960
 2017-02-05 02:38:58.220438+01 | 1486258738.22044 | pgbench_tellers_pkey  |           245760
 2017-02-05 02:38:58.220438+01 | 1486258738.22044 | pgbench_accounts_pkey |       2246197248

 2017-02-05 02:38:59.319055+01 | 1486258739.31906 | pgbench_branches_pkey |            40960
 2017-02-05 02:38:59.319055+01 | 1486258739.31906 | pgbench_tellers_pkey  |           245760
 2017-02-05 02:38:59.319055+01 | 1486258739.31906 | pgbench_accounts_pkey |       2246197248

 2017-02-05 02:39:00.402553+01 | 1486258740.40255 | pgbench_branches_pkey |            40960
 2017-02-05 02:39:00.402553+01 | 1486258740.40255 | pgbench_tellers_pkey  |           245760
 2017-02-05 02:39:00.402553+01 | 1486258740.40255 | pgbench_accounts_pkey |       2246197248

 2017-02-05 02:39:01.479623+01 | 1486258741.47962 | pgbench_branches_pkey |            40960
 2017-02-05 02:39:01.479623+01 | 1486258741.47962 | pgbench_tellers_pkey  |           245760
 2017-02-05 02:39:01.479623+01 | 1486258741.47962 | pgbench_accounts_pkey |       2246197248

 2017-02-05 02:39:02.55452+01 | 1486258742.55452 | pgbench_branches_pkey |            40960
 2017-02-05 02:39:02.55452+01 | 1486258742.55452 | pgbench_tellers_pkey  |           245760
 2017-02-05 02:39:02.55452+01 | 1486258742.55452 | pgbench_accounts_pkey |       2246197248

 2017-02-05 02:39:03.634535+01 | 1486258743.63454 | pgbench_branches_pkey |            40960
 2017-02-05 02:39:03.634535+01 | 1486258743.63454 | pgbench_tellers_pkey  |           245760
 2017-02-05 02:39:03.634535+01 | 1486258743.63454 | pgbench_accounts_pkey |       2246197248

 2017-02-05 02:39:04.716527+01 | 1486258744.71653 | pgbench_branches_pkey |            40960
 2017-02-05 02:39:04.716527+01 | 1486258744.71653 | pgbench_tellers_pkey  |           245760
 2017-02-05 02:39:04.716527+01 | 1486258744.71653 | pgbench_accounts_pkey |       2246197248

 2017-02-05 02:39:05.806817+01 | 1486258745.80682 | pgbench_branches_pkey |            40960
 2017-02-05 02:39:05.806817+01 | 1486258745.80682 | pgbench_tellers_pkey  |           245760
 2017-02-05 02:39:05.806817+01 | 1486258745.80682 | pgbench_accounts_pkey |       2246197248

 2017-02-05 02:39:06.893347+01 | 1486258746.89335 | pgbench_branches_pkey |            40960
 2017-02-05 02:39:06.893347+01 | 1486258746.89335 | pgbench_tellers_pkey  |           245760
 2017-02-05 02:39:06.893347+01 | 1486258746.89335 | pgbench_accounts_pkey |       2246197248

 2017-02-05 02:39:07.982254+01 | 1486258747.98225 | pgbench_branches_pkey |            40960
 2017-02-05 02:39:07.982254+01 | 1486258747.98225 | pgbench_tellers_pkey  |           245760
 2017-02-05 02:39:07.982254+01 | 1486258747.98225 | pgbench_accounts_pkey |       2246197248

 2017-02-05 02:39:09.054425+01 | 1486258749.05443 | pgbench_branches_pkey |            40960
 2017-02-05 02:39:09.054425+01 | 1486258749.05443 | pgbench_tellers_pkey  |           245760
 2017-02-05 02:39:09.054425+01 | 1486258749.05443 | pgbench_accounts_pkey |       2246197248

 2017-02-05 02:39:10.14223+01 | 1486258750.14223 | pgbench_branches_pkey |            40960
 2017-02-05 02:39:10.14223+01 | 1486258750.14223 | pgbench_tellers_pkey  |           245760
 2017-02-05 02:39:10.14223+01 | 1486258750.14223 | pgbench_accounts_pkey |       2246197248

 2017-02-05 02:39:11.217407+01 | 1486258751.21741 | pgbench_branches_pkey |            40960
 2017-02-05 02:39:11.217407+01 | 1486258751.21741 | pgbench_tellers_pkey  |           245760
 2017-02-05 02:39:11.217407+01 | 1486258751.21741 | pgbench_accounts_pkey |       2246197248

 2017-02-05 02:39:12.30369+01 | 1486258752.30369 | pgbench_branches_pkey |            40960
 2017-02-05 02:39:12.30369+01 | 1486258752.30369 | pgbench_tellers_pkey  |           245760
 2017-02-05 02:39:12.30369+01 | 1486258752.30369 | pgbench_accounts_pkey |       2246197248

 2017-02-05 02:39:13.396316+01 | 1486258753.39632 | pgbench_branches_pkey |            40960
 2017-02-05 02:39:13.396316+01 | 1486258753.39632 | pgbench_tellers_pkey  |           245760
 2017-02-05 02:39:13.396316+01 | 1486258753.39632 | pgbench_accounts_pkey |       2246197248

 2017-02-05 02:39:14.482338+01 | 1486258754.48234 | pgbench_branches_pkey |            40960
 2017-02-05 02:39:14.482338+01 | 1486258754.48234 | pgbench_tellers_pkey  |           245760
 2017-02-05 02:39:14.482338+01 | 1486258754.48234 | pgbench_accounts_pkey |       2246197248

 2017-02-05 02:39:15.575337+01 | 1486258755.57534 | pgbench_branches_pkey |            40960
 2017-02-05 02:39:15.575337+01 | 1486258755.57534 | pgbench_tellers_pkey  |           245760
 2017-02-05 02:39:15.575337+01 | 1486258755.57534 | pgbench_accounts_pkey |       2246197248

 2017-02-05 02:39:16.6611+01 | 1486258756.6611 | pgbench_branches_pkey |            40960
 2017-02-05 02:39:16.6611+01 | 1486258756.6611 | pgbench_tellers_pkey  |           245760
 2017-02-05 02:39:16.6611+01 | 1486258756.6611 | pgbench_accounts_pkey |       2246197248

 2017-02-05 02:39:17.741622+01 | 1486258757.74162 | pgbench_branches_pkey |            40960
 2017-02-05 02:39:17.741622+01 | 1486258757.74162 | pgbench_tellers_pkey  |           245760
 2017-02-05 02:39:17.741622+01 | 1486258757.74162 | pgbench_accounts_pkey |       2246197248

 2017-02-05 02:39:18.829912+01 | 1486258758.82991 | pgbench_branches_pkey |            40960
 2017-02-05 02:39:18.829912+01 | 1486258758.82991 | pgbench_tellers_pkey  |           245760
 2017-02-05 02:39:18.829912+01 | 1486258758.82991 | pgbench_accounts_pkey |       2246197248

 2017-02-05 02:39:19.929144+01 | 1486258759.92914 | pgbench_branches_pkey |            40960
 2017-02-05 02:39:19.929144+01 | 1486258759.92914 | pgbench_tellers_pkey  |           245760
 2017-02-05 02:39:19.929144+01 | 1486258759.92914 | pgbench_accounts_pkey |       2246197248

 2017-02-05 02:39:21.028106+01 | 1486258761.02811 | pgbench_branches_pkey |            40960
 2017-02-05 02:39:21.028106+01 | 1486258761.02811 | pgbench_tellers_pkey  |           245760
 2017-02-05 02:39:21.028106+01 | 1486258761.02811 | pgbench_accounts_pkey |       2246197248

 2017-02-05 02:39:22.118098+01 | 1486258762.1181 | pgbench_branches_pkey |            40960
 2017-02-05 02:39:22.118098+01 | 1486258762.1181 | pgbench_tellers_pkey  |           245760
 2017-02-05 02:39:22.118098+01 | 1486258762.1181 | pgbench_accounts_pkey |       2246197248

 2017-02-05 02:39:23.208021+01 | 1486258763.20802 | pgbench_branches_pkey |            40960
 2017-02-05 02:39:23.208021+01 | 1486258763.20802 | pgbench_tellers_pkey  |           245760
 2017-02-05 02:39:23.208021+01 | 1486258763.20802 | pgbench_accounts_pkey |       2246197248

 2017-02-05 02:39:24.294762+01 | 1486258764.29476 | pgbench_branches_pkey |            40960
 2017-02-05 02:39:24.294762+01 | 1486258764.29476 | pgbench_tellers_pkey  |           245760
 2017-02-05 02:39:24.294762+01 | 1486258764.29476 | pgbench_accounts_pkey |       2246197248

 2017-02-05 02:39:25.373614+01 | 1486258765.37361 | pgbench_branches_pkey |            40960
 2017-02-05 02:39:25.373614+01 | 1486258765.37361 | pgbench_tellers_pkey  |           245760
 2017-02-05 02:39:25.373614+01 | 1486258765.37361 | pgbench_accounts_pkey |       2246197248

 2017-02-05 02:39:26.462613+01 | 1486258766.46261 | pgbench_branches_pkey |            40960
 2017-02-05 02:39:26.462613+01 | 1486258766.46261 | pgbench_tellers_pkey  |           245760
 2017-02-05 02:39:26.462613+01 | 1486258766.46261 | pgbench_accounts_pkey |       2246197248

 2017-02-05 02:39:27.537968+01 | 1486258767.53797 | pgbench_branches_pkey |            40960
 2017-02-05 02:39:27.537968+01 | 1486258767.53797 | pgbench_tellers_pkey  |           245760
 2017-02-05 02:39:27.537968+01 | 1486258767.53797 | pgbench_accounts_pkey |       2246197248

 2017-02-05 02:39:28.620465+01 | 1486258768.62047 | pgbench_branches_pkey |            40960
 2017-02-05 02:39:28.620465+01 | 1486258768.62047 | pgbench_tellers_pkey  |           245760
 2017-02-05 02:39:28.620465+01 | 1486258768.62047 | pgbench_accounts_pkey |       2246197248

 2017-02-05 02:39:29.703822+01 | 1486258769.70382 | pgbench_branches_pkey |            40960
 2017-02-05 02:39:29.703822+01 | 1486258769.70382 | pgbench_tellers_pkey  |           245760
 2017-02-05 02:39:29.703822+01 | 1486258769.70382 | pgbench_accounts_pkey |       2246197248

 2017-02-05 02:39:30.791997+01 | 1486258770.792 | pgbench_branches_pkey |            40960
 2017-02-05 02:39:30.791997+01 | 1486258770.792 | pgbench_tellers_pkey  |           245760
 2017-02-05 02:39:30.791997+01 | 1486258770.792 | pgbench_accounts_pkey |       2246197248

 2017-02-05 02:39:31.866255+01 | 1486258771.86626 | pgbench_branches_pkey |            40960
 2017-02-05 02:39:31.866255+01 | 1486258771.86626 | pgbench_tellers_pkey  |           245760
 2017-02-05 02:39:31.866255+01 | 1486258771.86626 | pgbench_accounts_pkey |       2246197248

 2017-02-05 02:39:32.95289+01 | 1486258772.95289 | pgbench_branches_pkey |            40960
 2017-02-05 02:39:32.95289+01 | 1486258772.95289 | pgbench_tellers_pkey  |           245760
 2017-02-05 02:39:32.95289+01 | 1486258772.95289 | pgbench_accounts_pkey |       2246197248

 2017-02-05 02:39:34.043941+01 | 1486258774.04394 | pgbench_branches_pkey |            40960
 2017-02-05 02:39:34.043941+01 | 1486258774.04394 | pgbench_tellers_pkey  |           245760
 2017-02-05 02:39:34.043941+01 | 1486258774.04394 | pgbench_accounts_pkey |       2246197248

 2017-02-05 02:39:35.120579+01 | 1486258775.12058 | pgbench_branches_pkey |            40960
 2017-02-05 02:39:35.120579+01 | 1486258775.12058 | pgbench_tellers_pkey  |           245760
 2017-02-05 02:39:35.120579+01 | 1486258775.12058 | pgbench_accounts_pkey |       2246197248

 2017-02-05 02:39:36.205556+01 | 1486258776.20556 | pgbench_branches_pkey |            40960
 2017-02-05 02:39:36.205556+01 | 1486258776.20556 | pgbench_tellers_pkey  |           245760
 2017-02-05 02:39:36.205556+01 | 1486258776.20556 | pgbench_accounts_pkey |       2246197248

 2017-02-05 02:39:37.291587+01 | 1486258777.29159 | pgbench_branches_pkey |            40960
 2017-02-05 02:39:37.291587+01 | 1486258777.29159 | pgbench_tellers_pkey  |           245760
 2017-02-05 02:39:37.291587+01 | 1486258777.29159 | pgbench_accounts_pkey |       2246197248

 2017-02-05 02:39:38.384921+01 | 1486258778.38492 | pgbench_branches_pkey |            40960
 2017-02-05 02:39:38.384921+01 | 1486258778.38492 | pgbench_tellers_pkey  |           245760
 2017-02-05 02:39:38.384921+01 | 1486258778.38492 | pgbench_accounts_pkey |       2246197248

 2017-02-05 02:39:39.457201+01 | 1486258779.4572 | pgbench_branches_pkey |            40960
 2017-02-05 02:39:39.457201+01 | 1486258779.4572 | pgbench_tellers_pkey  |           245760
 2017-02-05 02:39:39.457201+01 | 1486258779.4572 | pgbench_accounts_pkey |       2246197248

 2017-02-05 02:39:40.541705+01 | 1486258780.5417 | pgbench_branches_pkey |            40960
 2017-02-05 02:39:40.541705+01 | 1486258780.5417 | pgbench_tellers_pkey  |           245760
 2017-02-05 02:39:40.541705+01 | 1486258780.5417 | pgbench_accounts_pkey |       2246197248

 2017-02-05 02:39:41.62052+01 | 1486258781.62052 | pgbench_branches_pkey |            40960
 2017-02-05 02:39:41.62052+01 | 1486258781.62052 | pgbench_tellers_pkey  |           245760
 2017-02-05 02:39:41.62052+01 | 1486258781.62052 | pgbench_accounts_pkey |       2246197248

 2017-02-05 02:39:42.708973+01 | 1486258782.70897 | pgbench_branches_pkey |            40960
 2017-02-05 02:39:42.708973+01 | 1486258782.70897 | pgbench_tellers_pkey  |           245760
 2017-02-05 02:39:42.708973+01 | 1486258782.70897 | pgbench_accounts_pkey |       2246197248

 2017-02-05 02:39:43.794643+01 | 1486258783.79464 | pgbench_branches_pkey |            40960
 2017-02-05 02:39:43.794643+01 | 1486258783.79464 | pgbench_tellers_pkey  |           245760
 2017-02-05 02:39:43.794643+01 | 1486258783.79464 | pgbench_accounts_pkey |       2246197248

 2017-02-05 02:39:44.880174+01 | 1486258784.88017 | pgbench_branches_pkey |            40960
 2017-02-05 02:39:44.880174+01 | 1486258784.88017 | pgbench_tellers_pkey  |           245760
 2017-02-05 02:39:44.880174+01 | 1486258784.88017 | pgbench_accounts_pkey |       2246197248

 2017-02-05 02:39:45.961826+01 | 1486258785.96183 | pgbench_branches_pkey |            40960
 2017-02-05 02:39:45.961826+01 | 1486258785.96183 | pgbench_tellers_pkey  |           245760
 2017-02-05 02:39:45.961826+01 | 1486258785.96183 | pgbench_accounts_pkey |       2246197248

 2017-02-05 02:39:47.040556+01 | 1486258787.04056 | pgbench_branches_pkey |            40960
 2017-02-05 02:39:47.040556+01 | 1486258787.04056 | pgbench_tellers_pkey  |           245760
 2017-02-05 02:39:47.040556+01 | 1486258787.04056 | pgbench_accounts_pkey |       2246197248

 2017-02-05 02:39:48.124081+01 | 1486258788.12408 | pgbench_branches_pkey |            40960
 2017-02-05 02:39:48.124081+01 | 1486258788.12408 | pgbench_tellers_pkey  |           245760
 2017-02-05 02:39:48.124081+01 | 1486258788.12408 | pgbench_accounts_pkey |       2246197248

 2017-02-05 02:39:49.208151+01 | 1486258789.20815 | pgbench_branches_pkey |            40960
 2017-02-05 02:39:49.208151+01 | 1486258789.20815 | pgbench_tellers_pkey  |           245760
 2017-02-05 02:39:49.208151+01 | 1486258789.20815 | pgbench_accounts_pkey |       2246197248

 2017-02-05 02:39:50.289039+01 | 1486258790.28904 | pgbench_branches_pkey |            40960
 2017-02-05 02:39:50.289039+01 | 1486258790.28904 | pgbench_tellers_pkey  |           245760
 2017-02-05 02:39:50.289039+01 | 1486258790.28904 | pgbench_accounts_pkey |       2246197248

 2017-02-05 02:39:51.371816+01 | 1486258791.37182 | pgbench_branches_pkey |            40960
 2017-02-05 02:39:51.371816+01 | 1486258791.37182 | pgbench_tellers_pkey  |           245760
 2017-02-05 02:39:51.371816+01 | 1486258791.37182 | pgbench_accounts_pkey |       2246197248

 2017-02-05 02:39:52.457212+01 | 1486258792.45721 | pgbench_branches_pkey |            40960
 2017-02-05 02:39:52.457212+01 | 1486258792.45721 | pgbench_tellers_pkey  |           245760
 2017-02-05 02:39:52.457212+01 | 1486258792.45721 | pgbench_accounts_pkey |       2246197248

 2017-02-05 02:39:53.539634+01 | 1486258793.53963 | pgbench_branches_pkey |            40960
 2017-02-05 02:39:53.539634+01 | 1486258793.53963 | pgbench_tellers_pkey  |           245760
 2017-02-05 02:39:53.539634+01 | 1486258793.53963 | pgbench_accounts_pkey |       2246197248

 2017-02-05 02:39:54.61261+01 | 1486258794.61261 | pgbench_branches_pkey |            40960
 2017-02-05 02:39:54.61261+01 | 1486258794.61261 | pgbench_tellers_pkey  |           245760
 2017-02-05 02:39:54.61261+01 | 1486258794.61261 | pgbench_accounts_pkey |       2246197248

 2017-02-05 02:39:55.680008+01 | 1486258795.68001 | pgbench_branches_pkey |            40960
 2017-02-05 02:39:55.680008+01 | 1486258795.68001 | pgbench_tellers_pkey  |           245760
 2017-02-05 02:39:55.680008+01 | 1486258795.68001 | pgbench_accounts_pkey |       2246197248

 2017-02-05 02:39:56.759937+01 | 1486258796.75994 | pgbench_branches_pkey |            40960
 2017-02-05 02:39:56.759937+01 | 1486258796.75994 | pgbench_tellers_pkey  |           245760
 2017-02-05 02:39:56.759937+01 | 1486258796.75994 | pgbench_accounts_pkey |       2246197248

 2017-02-05 02:39:57.850744+01 | 1486258797.85074 | pgbench_branches_pkey |            40960
 2017-02-05 02:39:57.850744+01 | 1486258797.85074 | pgbench_tellers_pkey  |           245760
 2017-02-05 02:39:57.850744+01 | 1486258797.85074 | pgbench_accounts_pkey |       2246197248

 2017-02-05 02:39:58.930985+01 | 1486258798.93098 | pgbench_branches_pkey |            40960
 2017-02-05 02:39:58.930985+01 | 1486258798.93098 | pgbench_tellers_pkey  |           245760
 2017-02-05 02:39:58.930985+01 | 1486258798.93098 | pgbench_accounts_pkey |       2246197248

 2017-02-05 02:40:00.028113+01 | 1486258800.02811 | pgbench_branches_pkey |            40960
 2017-02-05 02:40:00.028113+01 | 1486258800.02811 | pgbench_tellers_pkey  |           245760
 2017-02-05 02:40:00.028113+01 | 1486258800.02811 | pgbench_accounts_pkey |       2246197248

 2017-02-05 02:40:01.112371+01 | 1486258801.11237 | pgbench_branches_pkey |            40960
 2017-02-05 02:40:01.112371+01 | 1486258801.11237 | pgbench_tellers_pkey  |           245760
 2017-02-05 02:40:01.112371+01 | 1486258801.11237 | pgbench_accounts_pkey |       2246197248

 2017-02-05 02:40:02.203838+01 | 1486258802.20384 | pgbench_branches_pkey |            40960
 2017-02-05 02:40:02.203838+01 | 1486258802.20384 | pgbench_tellers_pkey  |           245760
 2017-02-05 02:40:02.203838+01 | 1486258802.20384 | pgbench_accounts_pkey |       2246197248

 2017-02-05 02:40:03.311348+01 | 1486258803.31135 | pgbench_branches_pkey |            40960
 2017-02-05 02:40:03.311348+01 | 1486258803.31135 | pgbench_tellers_pkey  |           245760
 2017-02-05 02:40:03.311348+01 | 1486258803.31135 | pgbench_accounts_pkey |       2246197248

 2017-02-05 02:40:04.410467+01 | 1486258804.41047 | pgbench_branches_pkey |            40960
 2017-02-05 02:40:04.410467+01 | 1486258804.41047 | pgbench_tellers_pkey  |           245760
 2017-02-05 02:40:04.410467+01 | 1486258804.41047 | pgbench_accounts_pkey |       2246197248

 2017-02-05 02:40:05.508133+01 | 1486258805.50813 | pgbench_branches_pkey |            40960
 2017-02-05 02:40:05.508133+01 | 1486258805.50813 | pgbench_tellers_pkey  |           245760
 2017-02-05 02:40:05.508133+01 | 1486258805.50813 | pgbench_accounts_pkey |       2246197248

 2017-02-05 02:40:06.587028+01 | 1486258806.58703 | pgbench_branches_pkey |            40960
 2017-02-05 02:40:06.587028+01 | 1486258806.58703 | pgbench_tellers_pkey  |           245760
 2017-02-05 02:40:06.587028+01 | 1486258806.58703 | pgbench_accounts_pkey |       2246197248

 2017-02-05 02:40:07.668752+01 | 1486258807.66875 | pgbench_branches_pkey |            40960
 2017-02-05 02:40:07.668752+01 | 1486258807.66875 | pgbench_tellers_pkey  |           245760
 2017-02-05 02:40:07.668752+01 | 1486258807.66875 | pgbench_accounts_pkey |       2246197248

 2017-02-05 02:40:08.748346+01 | 1486258808.74835 | pgbench_branches_pkey |            40960
 2017-02-05 02:40:08.748346+01 | 1486258808.74835 | pgbench_tellers_pkey  |           245760
 2017-02-05 02:40:08.748346+01 | 1486258808.74835 | pgbench_accounts_pkey |       2246197248

 2017-02-05 02:40:09.834536+01 | 1486258809.83454 | pgbench_branches_pkey |            40960
 2017-02-05 02:40:09.834536+01 | 1486258809.83454 | pgbench_tellers_pkey  |           245760
 2017-02-05 02:40:09.834536+01 | 1486258809.83454 | pgbench_accounts_pkey |       2246197248

 2017-02-05 02:40:10.905908+01 | 1486258810.90591 | pgbench_branches_pkey |            40960
 2017-02-05 02:40:10.905908+01 | 1486258810.90591 | pgbench_tellers_pkey  |           245760
 2017-02-05 02:40:10.905908+01 | 1486258810.90591 | pgbench_accounts_pkey |       2246197248

 2017-02-05 02:40:11.989213+01 | 1486258811.98921 | pgbench_branches_pkey |            40960
 2017-02-05 02:40:11.989213+01 | 1486258811.98921 | pgbench_tellers_pkey  |           245760
 2017-02-05 02:40:11.989213+01 | 1486258811.98921 | pgbench_accounts_pkey |       2246197248

 2017-02-05 02:40:13.074026+01 | 1486258813.07403 | pgbench_branches_pkey |            40960
 2017-02-05 02:40:13.074026+01 | 1486258813.07403 | pgbench_tellers_pkey  |           245760
 2017-02-05 02:40:13.074026+01 | 1486258813.07403 | pgbench_accounts_pkey |       2246197248

 2017-02-05 02:40:14.161912+01 | 1486258814.16191 | pgbench_branches_pkey |            40960
 2017-02-05 02:40:14.161912+01 | 1486258814.16191 | pgbench_tellers_pkey  |           245760
 2017-02-05 02:40:14.161912+01 | 1486258814.16191 | pgbench_accounts_pkey |       2246197248

 2017-02-05 02:40:15.256085+01 | 1486258815.25608 | pgbench_branches_pkey |            40960
 2017-02-05 02:40:15.256085+01 | 1486258815.25608 | pgbench_tellers_pkey  |           245760
 2017-02-05 02:40:15.256085+01 | 1486258815.25608 | pgbench_accounts_pkey |       2246197248

 2017-02-05 02:40:16.349275+01 | 1486258816.34928 | pgbench_branches_pkey |            40960
 2017-02-05 02:40:16.349275+01 | 1486258816.34928 | pgbench_tellers_pkey  |           245760
 2017-02-05 02:40:16.349275+01 | 1486258816.34928 | pgbench_accounts_pkey |       2246197248

 2017-02-05 02:40:17.44374+01 | 1486258817.44374 | pgbench_branches_pkey |            40960
 2017-02-05 02:40:17.44374+01 | 1486258817.44374 | pgbench_tellers_pkey  |           245760
 2017-02-05 02:40:17.44374+01 | 1486258817.44374 | pgbench_accounts_pkey |       2246197248

 2017-02-05 02:40:18.544656+01 | 1486258818.54466 | pgbench_branches_pkey |            40960
 2017-02-05 02:40:18.544656+01 | 1486258818.54466 | pgbench_tellers_pkey  |           245760
 2017-02-05 02:40:18.544656+01 | 1486258818.54466 | pgbench_accounts_pkey |       2246197248

 2017-02-05 02:40:19.619008+01 | 1486258819.61901 | pgbench_branches_pkey |            40960
 2017-02-05 02:40:19.619008+01 | 1486258819.61901 | pgbench_tellers_pkey  |           245760
 2017-02-05 02:40:19.619008+01 | 1486258819.61901 | pgbench_accounts_pkey |       2246197248

 2017-02-05 02:40:20.694654+01 | 1486258820.69465 | pgbench_branches_pkey |            40960
 2017-02-05 02:40:20.694654+01 | 1486258820.69465 | pgbench_tellers_pkey  |           245760
 2017-02-05 02:40:20.694654+01 | 1486258820.69465 | pgbench_accounts_pkey |       2246197248

 2017-02-05 02:40:21.777177+01 | 1486258821.77718 | pgbench_branches_pkey |            40960
 2017-02-05 02:40:21.777177+01 | 1486258821.77718 | pgbench_tellers_pkey  |           245760
 2017-02-05 02:40:21.777177+01 | 1486258821.77718 | pgbench_accounts_pkey |       2246197248

 2017-02-05 02:40:22.86474+01 | 1486258822.86474 | pgbench_branches_pkey |            40960
 2017-02-05 02:40:22.86474+01 | 1486258822.86474 | pgbench_tellers_pkey  |           245760
 2017-02-05 02:40:22.86474+01 | 1486258822.86474 | pgbench_accounts_pkey |       2246197248

 2017-02-05 02:40:23.952407+01 | 1486258823.95241 | pgbench_branches_pkey |            40960
 2017-02-05 02:40:23.952407+01 | 1486258823.95241 | pgbench_tellers_pkey  |           245760
 2017-02-05 02:40:23.952407+01 | 1486258823.95241 | pgbench_accounts_pkey |       2246197248

 2017-02-05 02:40:25.029323+01 | 1486258825.02932 | pgbench_branches_pkey |            40960
 2017-02-05 02:40:25.029323+01 | 1486258825.02932 | pgbench_tellers_pkey  |           245760
 2017-02-05 02:40:25.029323+01 | 1486258825.02932 | pgbench_accounts_pkey |       2246197248

 2017-02-05 02:40:26.113769+01 | 1486258826.11377 | pgbench_branches_pkey |            40960
 2017-02-05 02:40:26.113769+01 | 1486258826.11377 | pgbench_tellers_pkey  |           245760
 2017-02-05 02:40:26.113769+01 | 1486258826.11377 | pgbench_accounts_pkey |       2246197248

 2017-02-05 02:40:27.206291+01 | 1486258827.20629 | pgbench_branches_pkey |            40960
 2017-02-05 02:40:27.206291+01 | 1486258827.20629 | pgbench_tellers_pkey  |           245760
 2017-02-05 02:40:27.206291+01 | 1486258827.20629 | pgbench_accounts_pkey |       2246197248

 2017-02-05 02:40:28.301576+01 | 1486258828.30158 | pgbench_branches_pkey |            40960
 2017-02-05 02:40:28.301576+01 | 1486258828.30158 | pgbench_tellers_pkey  |           245760
 2017-02-05 02:40:28.301576+01 | 1486258828.30158 | pgbench_accounts_pkey |       2246197248

 2017-02-05 02:40:29.381666+01 | 1486258829.38167 | pgbench_branches_pkey |            40960
 2017-02-05 02:40:29.381666+01 | 1486258829.38167 | pgbench_tellers_pkey  |           245760
 2017-02-05 02:40:29.381666+01 | 1486258829.38167 | pgbench_accounts_pkey |       2246197248

 2017-02-05 02:40:30.471518+01 | 1486258830.47152 | pgbench_branches_pkey |            40960
 2017-02-05 02:40:30.471518+01 | 1486258830.47152 | pgbench_tellers_pkey  |           245760
 2017-02-05 02:40:30.471518+01 | 1486258830.47152 | pgbench_accounts_pkey |       2246197248

 2017-02-05 02:40:31.566716+01 | 1486258831.56672 | pgbench_branches_pkey |            40960
 2017-02-05 02:40:31.566716+01 | 1486258831.56672 | pgbench_tellers_pkey  |           245760
 2017-02-05 02:40:31.566716+01 | 1486258831.56672 | pgbench_accounts_pkey |       2246197248

 2017-02-05 02:40:32.646803+01 | 1486258832.6468 | pgbench_branches_pkey |            40960
 2017-02-05 02:40:32.646803+01 | 1486258832.6468 | pgbench_tellers_pkey  |           245760
 2017-02-05 02:40:32.646803+01 | 1486258832.6468 | pgbench_accounts_pkey |       2246197248

 2017-02-05 02:40:33.725174+01 | 1486258833.72517 | pgbench_branches_pkey |            40960
 2017-02-05 02:40:33.725174+01 | 1486258833.72517 | pgbench_tellers_pkey  |           245760
 2017-02-05 02:40:33.725174+01 | 1486258833.72517 | pgbench_accounts_pkey |       2246197248

 2017-02-05 02:40:34.80722+01 | 1486258834.80722 | pgbench_branches_pkey |            40960
 2017-02-05 02:40:34.80722+01 | 1486258834.80722 | pgbench_tellers_pkey  |           245760
 2017-02-05 02:40:34.80722+01 | 1486258834.80722 | pgbench_accounts_pkey |       2246197248

 2017-02-05 02:40:35.89338+01 | 1486258835.89338 | pgbench_branches_pkey |            40960
 2017-02-05 02:40:35.89338+01 | 1486258835.89338 | pgbench_tellers_pkey  |           245760
 2017-02-05 02:40:35.89338+01 | 1486258835.89338 | pgbench_accounts_pkey |       2246197248

 2017-02-05 02:40:36.967454+01 | 1486258836.96745 | pgbench_branches_pkey |            40960
 2017-02-05 02:40:36.967454+01 | 1486258836.96745 | pgbench_tellers_pkey  |           245760
 2017-02-05 02:40:36.967454+01 | 1486258836.96745 | pgbench_accounts_pkey |       2246197248

 2017-02-05 02:40:38.05914+01 | 1486258838.05914 | pgbench_branches_pkey |            40960
 2017-02-05 02:40:38.05914+01 | 1486258838.05914 | pgbench_tellers_pkey  |           245760
 2017-02-05 02:40:38.05914+01 | 1486258838.05914 | pgbench_accounts_pkey |       2246197248

 2017-02-05 02:40:39.134766+01 | 1486258839.13477 | pgbench_branches_pkey |            40960
 2017-02-05 02:40:39.134766+01 | 1486258839.13477 | pgbench_tellers_pkey  |           245760
 2017-02-05 02:40:39.134766+01 | 1486258839.13477 | pgbench_accounts_pkey |       2246197248

 2017-02-05 02:40:40.218341+01 | 1486258840.21834 | pgbench_branches_pkey |            40960
 2017-02-05 02:40:40.218341+01 | 1486258840.21834 | pgbench_tellers_pkey  |           245760
 2017-02-05 02:40:40.218341+01 | 1486258840.21834 | pgbench_accounts_pkey |       2246197248

 2017-02-05 02:40:41.289422+01 | 1486258841.28942 | pgbench_branches_pkey |            40960
 2017-02-05 02:40:41.289422+01 | 1486258841.28942 | pgbench_tellers_pkey  |           245760
 2017-02-05 02:40:41.289422+01 | 1486258841.28942 | pgbench_accounts_pkey |       2246197248

 2017-02-05 02:40:42.381074+01 | 1486258842.38107 | pgbench_branches_pkey |            40960
 2017-02-05 02:40:42.381074+01 | 1486258842.38107 | pgbench_tellers_pkey  |           245760
 2017-02-05 02:40:42.381074+01 | 1486258842.38107 | pgbench_accounts_pkey |       2246197248

 2017-02-05 02:40:43.461083+01 | 1486258843.46108 | pgbench_branches_pkey |            40960
 2017-02-05 02:40:43.461083+01 | 1486258843.46108 | pgbench_tellers_pkey  |           245760
 2017-02-05 02:40:43.461083+01 | 1486258843.46108 | pgbench_accounts_pkey |       2246197248

 2017-02-05 02:40:44.531778+01 | 1486258844.53178 | pgbench_branches_pkey |            40960
 2017-02-05 02:40:44.531778+01 | 1486258844.53178 | pgbench_tellers_pkey  |           245760
 2017-02-05 02:40:44.531778+01 | 1486258844.53178 | pgbench_accounts_pkey |       2246197248

 2017-02-05 02:40:45.618875+01 | 1486258845.61888 | pgbench_branches_pkey |            40960
 2017-02-05 02:40:45.618875+01 | 1486258845.61888 | pgbench_tellers_pkey  |           245760
 2017-02-05 02:40:45.618875+01 | 1486258845.61888 | pgbench_accounts_pkey |       2246197248

 2017-02-05 02:40:46.69124+01 | 1486258846.69124 | pgbench_branches_pkey |            40960
 2017-02-05 02:40:46.69124+01 | 1486258846.69124 | pgbench_tellers_pkey  |           245760
 2017-02-05 02:40:46.69124+01 | 1486258846.69124 | pgbench_accounts_pkey |       2246197248

 2017-02-05 02:40:47.775734+01 | 1486258847.77573 | pgbench_branches_pkey |            40960
 2017-02-05 02:40:47.775734+01 | 1486258847.77573 | pgbench_tellers_pkey  |           245760
 2017-02-05 02:40:47.775734+01 | 1486258847.77573 | pgbench_accounts_pkey |       2246197248

 2017-02-05 02:40:48.850271+01 | 1486258848.85027 | pgbench_branches_pkey |            40960
 2017-02-05 02:40:48.850271+01 | 1486258848.85027 | pgbench_tellers_pkey  |           245760
 2017-02-05 02:40:48.850271+01 | 1486258848.85027 | pgbench_accounts_pkey |       2246197248

 2017-02-05 02:40:49.93519+01 | 1486258849.93519 | pgbench_branches_pkey |            40960
 2017-02-05 02:40:49.93519+01 | 1486258849.93519 | pgbench_tellers_pkey  |           245760
 2017-02-05 02:40:49.93519+01 | 1486258849.93519 | pgbench_accounts_pkey |       2246197248

 2017-02-05 02:40:51.023302+01 | 1486258851.0233 | pgbench_branches_pkey |            40960
 2017-02-05 02:40:51.023302+01 | 1486258851.0233 | pgbench_tellers_pkey  |           245760
 2017-02-05 02:40:51.023302+01 | 1486258851.0233 | pgbench_accounts_pkey |       2246197248

 2017-02-05 02:40:52.119442+01 | 1486258852.11944 | pgbench_branches_pkey |            40960
 2017-02-05 02:40:52.119442+01 | 1486258852.11944 | pgbench_tellers_pkey  |           245760
 2017-02-05 02:40:52.119442+01 | 1486258852.11944 | pgbench_accounts_pkey |       2246197248

 2017-02-05 02:40:53.208873+01 | 1486258853.20887 | pgbench_branches_pkey |            40960
 2017-02-05 02:40:53.208873+01 | 1486258853.20887 | pgbench_tellers_pkey  |           245760
 2017-02-05 02:40:53.208873+01 | 1486258853.20887 | pgbench_accounts_pkey |       2246197248

 2017-02-05 02:40:54.305781+01 | 1486258854.30578 | pgbench_branches_pkey |            40960
 2017-02-05 02:40:54.305781+01 | 1486258854.30578 | pgbench_tellers_pkey  |           245760
 2017-02-05 02:40:54.305781+01 | 1486258854.30578 | pgbench_accounts_pkey |       2246197248

 2017-02-05 02:40:55.401493+01 | 1486258855.40149 | pgbench_branches_pkey |            40960
 2017-02-05 02:40:55.401493+01 | 1486258855.40149 | pgbench_tellers_pkey  |           245760
 2017-02-05 02:40:55.401493+01 | 1486258855.40149 | pgbench_accounts_pkey |       2246197248

 2017-02-05 02:40:56.499127+01 | 1486258856.49913 | pgbench_branches_pkey |            40960
 2017-02-05 02:40:56.499127+01 | 1486258856.49913 | pgbench_tellers_pkey  |           245760
 2017-02-05 02:40:56.499127+01 | 1486258856.49913 | pgbench_accounts_pkey |       2246197248

 2017-02-05 02:40:57.580881+01 | 1486258857.58088 | pgbench_branches_pkey |            40960
 2017-02-05 02:40:57.580881+01 | 1486258857.58088 | pgbench_tellers_pkey  |           245760
 2017-02-05 02:40:57.580881+01 | 1486258857.58088 | pgbench_accounts_pkey |       2246197248

 2017-02-05 02:40:58.677692+01 | 1486258858.67769 | pgbench_branches_pkey |            40960
 2017-02-05 02:40:58.677692+01 | 1486258858.67769 | pgbench_tellers_pkey  |           245760
 2017-02-05 02:40:58.677692+01 | 1486258858.67769 | pgbench_accounts_pkey |       2246197248

 2017-02-05 02:40:59.770611+01 | 1486258859.77061 | pgbench_branches_pkey |            40960
 2017-02-05 02:40:59.770611+01 | 1486258859.77061 | pgbench_tellers_pkey  |           245760
 2017-02-05 02:40:59.770611+01 | 1486258859.77061 | pgbench_accounts_pkey |       2246197248

 2017-02-05 02:41:00.846376+01 | 1486258860.84638 | pgbench_branches_pkey |            40960
 2017-02-05 02:41:00.846376+01 | 1486258860.84638 | pgbench_tellers_pkey  |           245760
 2017-02-05 02:41:00.846376+01 | 1486258860.84638 | pgbench_accounts_pkey |       2246197248

 2017-02-05 02:41:01.923195+01 | 1486258861.92319 | pgbench_branches_pkey |            40960
 2017-02-05 02:41:01.923195+01 | 1486258861.92319 | pgbench_tellers_pkey  |           245760
 2017-02-05 02:41:01.923195+01 | 1486258861.92319 | pgbench_accounts_pkey |       2246197248

 2017-02-05 02:41:03.00449+01 | 1486258863.00449 | pgbench_branches_pkey |            40960
 2017-02-05 02:41:03.00449+01 | 1486258863.00449 | pgbench_tellers_pkey  |           245760
 2017-02-05 02:41:03.00449+01 | 1486258863.00449 | pgbench_accounts_pkey |       2246197248

 2017-02-05 02:41:04.082031+01 | 1486258864.08203 | pgbench_branches_pkey |            40960
 2017-02-05 02:41:04.082031+01 | 1486258864.08203 | pgbench_tellers_pkey  |           245760
 2017-02-05 02:41:04.082031+01 | 1486258864.08203 | pgbench_accounts_pkey |       2246197248

 2017-02-05 02:41:05.162179+01 | 1486258865.16218 | pgbench_branches_pkey |            40960
 2017-02-05 02:41:05.162179+01 | 1486258865.16218 | pgbench_tellers_pkey  |           245760
 2017-02-05 02:41:05.162179+01 | 1486258865.16218 | pgbench_accounts_pkey |       2246197248

 2017-02-05 02:41:06.250156+01 | 1486258866.25016 | pgbench_branches_pkey |            40960
 2017-02-05 02:41:06.250156+01 | 1486258866.25016 | pgbench_tellers_pkey  |           245760
 2017-02-05 02:41:06.250156+01 | 1486258866.25016 | pgbench_accounts_pkey |       2246197248

 2017-02-05 02:41:07.345956+01 | 1486258867.34596 | pgbench_branches_pkey |            40960
 2017-02-05 02:41:07.345956+01 | 1486258867.34596 | pgbench_tellers_pkey  |           245760
 2017-02-05 02:41:07.345956+01 | 1486258867.34596 | pgbench_accounts_pkey |       2246197248

 2017-02-05 02:41:08.434963+01 | 1486258868.43496 | pgbench_branches_pkey |            40960
 2017-02-05 02:41:08.434963+01 | 1486258868.43496 | pgbench_tellers_pkey  |           245760
 2017-02-05 02:41:08.434963+01 | 1486258868.43496 | pgbench_accounts_pkey |       2246197248

 2017-02-05 02:41:09.519286+01 | 1486258869.51929 | pgbench_branches_pkey |            40960
 2017-02-05 02:41:09.519286+01 | 1486258869.51929 | pgbench_tellers_pkey  |           245760
 2017-02-05 02:41:09.519286+01 | 1486258869.51929 | pgbench_accounts_pkey |       2246197248

 2017-02-05 02:41:10.614292+01 | 1486258870.61429 | pgbench_branches_pkey |            40960
 2017-02-05 02:41:10.614292+01 | 1486258870.61429 | pgbench_tellers_pkey  |           245760
 2017-02-05 02:41:10.614292+01 | 1486258870.61429 | pgbench_accounts_pkey |       2246197248

 2017-02-05 02:41:11.709048+01 | 1486258871.70905 | pgbench_branches_pkey |            40960
 2017-02-05 02:41:11.709048+01 | 1486258871.70905 | pgbench_tellers_pkey  |           245760
 2017-02-05 02:41:11.709048+01 | 1486258871.70905 | pgbench_accounts_pkey |       2246197248

 2017-02-05 02:41:12.795623+01 | 1486258872.79562 | pgbench_branches_pkey |            40960
 2017-02-05 02:41:12.795623+01 | 1486258872.79562 | pgbench_tellers_pkey  |           245760
 2017-02-05 02:41:12.795623+01 | 1486258872.79562 | pgbench_accounts_pkey |       2246197248

 2017-02-05 02:41:13.87535+01 | 1486258873.87535 | pgbench_branches_pkey |            40960
 2017-02-05 02:41:13.87535+01 | 1486258873.87535 | pgbench_tellers_pkey  |           245760
 2017-02-05 02:41:13.87535+01 | 1486258873.87535 | pgbench_accounts_pkey |       2246197248

 2017-02-05 02:41:14.955671+01 | 1486258874.95567 | pgbench_branches_pkey |            40960
 2017-02-05 02:41:14.955671+01 | 1486258874.95567 | pgbench_tellers_pkey  |           245760
 2017-02-05 02:41:14.955671+01 | 1486258874.95567 | pgbench_accounts_pkey |       2246197248

 2017-02-05 02:41:16.044563+01 | 1486258876.04456 | pgbench_branches_pkey |            40960
 2017-02-05 02:41:16.044563+01 | 1486258876.04456 | pgbench_tellers_pkey  |           245760
 2017-02-05 02:41:16.044563+01 | 1486258876.04456 | pgbench_accounts_pkey |       2246197248

 2017-02-05 02:41:17.128418+01 | 1486258877.12842 | pgbench_branches_pkey |            40960
 2017-02-05 02:41:17.128418+01 | 1486258877.12842 | pgbench_tellers_pkey  |           245760
 2017-02-05 02:41:17.128418+01 | 1486258877.12842 | pgbench_accounts_pkey |       2246197248

 2017-02-05 02:41:18.203755+01 | 1486258878.20375 | pgbench_branches_pkey |            40960
 2017-02-05 02:41:18.203755+01 | 1486258878.20375 | pgbench_tellers_pkey  |           245760
 2017-02-05 02:41:18.203755+01 | 1486258878.20375 | pgbench_accounts_pkey |       2246197248

 2017-02-05 02:41:19.284383+01 | 1486258879.28438 | pgbench_branches_pkey |            40960
 2017-02-05 02:41:19.284383+01 | 1486258879.28438 | pgbench_tellers_pkey  |           245760
 2017-02-05 02:41:19.284383+01 | 1486258879.28438 | pgbench_accounts_pkey |       2246197248

 2017-02-05 02:41:20.354907+01 | 1486258880.35491 | pgbench_branches_pkey |            40960
 2017-02-05 02:41:20.354907+01 | 1486258880.35491 | pgbench_tellers_pkey  |           245760
 2017-02-05 02:41:20.354907+01 | 1486258880.35491 | pgbench_accounts_pkey |       2246197248

 2017-02-05 02:41:21.445849+01 | 1486258881.44585 | pgbench_branches_pkey |            40960
 2017-02-05 02:41:21.445849+01 | 1486258881.44585 | pgbench_tellers_pkey  |           245760
 2017-02-05 02:41:21.445849+01 | 1486258881.44585 | pgbench_accounts_pkey |       2246197248

 2017-02-05 02:41:22.538916+01 | 1486258882.53892 | pgbench_branches_pkey |            40960
 2017-02-05 02:41:22.538916+01 | 1486258882.53892 | pgbench_tellers_pkey  |           245760
 2017-02-05 02:41:22.538916+01 | 1486258882.53892 | pgbench_accounts_pkey |       2246197248

 2017-02-05 02:41:23.610672+01 | 1486258883.61067 | pgbench_branches_pkey |            40960
 2017-02-05 02:41:23.610672+01 | 1486258883.61067 | pgbench_tellers_pkey  |           245760
 2017-02-05 02:41:23.610672+01 | 1486258883.61067 | pgbench_accounts_pkey |       2246197248

 2017-02-05 02:41:24.714973+01 | 1486258884.71497 | pgbench_branches_pkey |            40960
 2017-02-05 02:41:24.714973+01 | 1486258884.71497 | pgbench_tellers_pkey  |           245760
 2017-02-05 02:41:24.714973+01 | 1486258884.71497 | pgbench_accounts_pkey |       2246197248

 2017-02-05 02:41:25.805421+01 | 1486258885.80542 | pgbench_branches_pkey |            40960
 2017-02-05 02:41:25.805421+01 | 1486258885.80542 | pgbench_tellers_pkey  |           245760
 2017-02-05 02:41:25.805421+01 | 1486258885.80542 | pgbench_accounts_pkey |       2246197248

 2017-02-05 02:41:26.887288+01 | 1486258886.88729 | pgbench_branches_pkey |            40960
 2017-02-05 02:41:26.887288+01 | 1486258886.88729 | pgbench_tellers_pkey  |           245760
 2017-02-05 02:41:26.887288+01 | 1486258886.88729 | pgbench_accounts_pkey |       2246197248

 2017-02-05 02:41:27.962108+01 | 1486258887.96211 | pgbench_branches_pkey |            40960
 2017-02-05 02:41:27.962108+01 | 1486258887.96211 | pgbench_tellers_pkey  |           245760
 2017-02-05 02:41:27.962108+01 | 1486258887.96211 | pgbench_accounts_pkey |       2246197248

 2017-02-05 02:41:29.044821+01 | 1486258889.04482 | pgbench_branches_pkey |            40960
 2017-02-05 02:41:29.044821+01 | 1486258889.04482 | pgbench_tellers_pkey  |           245760
 2017-02-05 02:41:29.044821+01 | 1486258889.04482 | pgbench_accounts_pkey |       2246197248

 2017-02-05 02:41:30.117722+01 | 1486258890.11772 | pgbench_branches_pkey |            40960
 2017-02-05 02:41:30.117722+01 | 1486258890.11772 | pgbench_tellers_pkey  |           245760
 2017-02-05 02:41:30.117722+01 | 1486258890.11772 | pgbench_accounts_pkey |       2246197248

 2017-02-05 02:41:31.202558+01 | 1486258891.20256 | pgbench_branches_pkey |            40960
 2017-02-05 02:41:31.202558+01 | 1486258891.20256 | pgbench_tellers_pkey  |           245760
 2017-02-05 02:41:31.202558+01 | 1486258891.20256 | pgbench_accounts_pkey |       2246197248

 2017-02-05 02:41:32.281585+01 | 1486258892.28158 | pgbench_branches_pkey |            40960
 2017-02-05 02:41:32.281585+01 | 1486258892.28158 | pgbench_tellers_pkey  |           245760
 2017-02-05 02:41:32.281585+01 | 1486258892.28158 | pgbench_accounts_pkey |       2246197248

 2017-02-05 02:41:33.367543+01 | 1486258893.36754 | pgbench_branches_pkey |            40960
 2017-02-05 02:41:33.367543+01 | 1486258893.36754 | pgbench_tellers_pkey  |           245760
 2017-02-05 02:41:33.367543+01 | 1486258893.36754 | pgbench_accounts_pkey |       2246197248

 2017-02-05 02:41:34.457354+01 | 1486258894.45735 | pgbench_branches_pkey |            40960
 2017-02-05 02:41:34.457354+01 | 1486258894.45735 | pgbench_tellers_pkey  |           245760
 2017-02-05 02:41:34.457354+01 | 1486258894.45735 | pgbench_accounts_pkey |       2246197248

 2017-02-05 02:41:35.547994+01 | 1486258895.54799 | pgbench_branches_pkey |            40960
 2017-02-05 02:41:35.547994+01 | 1486258895.54799 | pgbench_tellers_pkey  |           245760
 2017-02-05 02:41:35.547994+01 | 1486258895.54799 | pgbench_accounts_pkey |       2246197248

 2017-02-05 02:41:36.640578+01 | 1486258896.64058 | pgbench_branches_pkey |            40960
 2017-02-05 02:41:36.640578+01 | 1486258896.64058 | pgbench_tellers_pkey  |           245760
 2017-02-05 02:41:36.640578+01 | 1486258896.64058 | pgbench_accounts_pkey |       2246197248

 2017-02-05 02:41:37.719808+01 | 1486258897.71981 | pgbench_branches_pkey |            40960
 2017-02-05 02:41:37.719808+01 | 1486258897.71981 | pgbench_tellers_pkey  |           245760
 2017-02-05 02:41:37.719808+01 | 1486258897.71981 | pgbench_accounts_pkey |       2246197248

 2017-02-05 02:41:38.805252+01 | 1486258898.80525 | pgbench_branches_pkey |            40960
 2017-02-05 02:41:38.805252+01 | 1486258898.80525 | pgbench_tellers_pkey  |           245760
 2017-02-05 02:41:38.805252+01 | 1486258898.80525 | pgbench_accounts_pkey |       2246197248

 2017-02-05 02:41:39.884508+01 | 1486258899.88451 | pgbench_branches_pkey |            40960
 2017-02-05 02:41:39.884508+01 | 1486258899.88451 | pgbench_tellers_pkey  |           245760
 2017-02-05 02:41:39.884508+01 | 1486258899.88451 | pgbench_accounts_pkey |       2246197248

 2017-02-05 02:41:40.962395+01 | 1486258900.96239 | pgbench_branches_pkey |            40960
 2017-02-05 02:41:40.962395+01 | 1486258900.96239 | pgbench_tellers_pkey  |           245760
 2017-02-05 02:41:40.962395+01 | 1486258900.96239 | pgbench_accounts_pkey |       2246197248

 2017-02-05 02:41:42.030135+01 | 1486258902.03013 | pgbench_branches_pkey |            40960
 2017-02-05 02:41:42.030135+01 | 1486258902.03013 | pgbench_tellers_pkey  |           245760
 2017-02-05 02:41:42.030135+01 | 1486258902.03013 | pgbench_accounts_pkey |       2246197248

 2017-02-05 02:41:43.111684+01 | 1486258903.11168 | pgbench_branches_pkey |            40960
 2017-02-05 02:41:43.111684+01 | 1486258903.11168 | pgbench_tellers_pkey  |           245760
 2017-02-05 02:41:43.111684+01 | 1486258903.11168 | pgbench_accounts_pkey |       2246197248

 2017-02-05 02:41:44.209793+01 | 1486258904.20979 | pgbench_branches_pkey |            40960
 2017-02-05 02:41:44.209793+01 | 1486258904.20979 | pgbench_tellers_pkey  |           245760
 2017-02-05 02:41:44.209793+01 | 1486258904.20979 | pgbench_accounts_pkey |       2246197248

 2017-02-05 02:41:45.296911+01 | 1486258905.29691 | pgbench_branches_pkey |            40960
 2017-02-05 02:41:45.296911+01 | 1486258905.29691 | pgbench_tellers_pkey  |           245760
 2017-02-05 02:41:45.296911+01 | 1486258905.29691 | pgbench_accounts_pkey |       2246197248

 2017-02-05 02:41:46.38747+01 | 1486258906.38747 | pgbench_branches_pkey |            40960
 2017-02-05 02:41:46.38747+01 | 1486258906.38747 | pgbench_tellers_pkey  |           245760
 2017-02-05 02:41:46.38747+01 | 1486258906.38747 | pgbench_accounts_pkey |       2246197248

 2017-02-05 02:41:47.478193+01 | 1486258907.47819 | pgbench_branches_pkey |            40960
 2017-02-05 02:41:47.478193+01 | 1486258907.47819 | pgbench_tellers_pkey  |           245760
 2017-02-05 02:41:47.478193+01 | 1486258907.47819 | pgbench_accounts_pkey |       2246197248

 2017-02-05 02:41:48.571201+01 | 1486258908.5712 | pgbench_branches_pkey |            40960
 2017-02-05 02:41:48.571201+01 | 1486258908.5712 | pgbench_tellers_pkey  |           245760
 2017-02-05 02:41:48.571201+01 | 1486258908.5712 | pgbench_accounts_pkey |       2246197248

 2017-02-05 02:41:49.666867+01 | 1486258909.66687 | pgbench_branches_pkey |            40960
 2017-02-05 02:41:49.666867+01 | 1486258909.66687 | pgbench_tellers_pkey  |           245760
 2017-02-05 02:41:49.666867+01 | 1486258909.66687 | pgbench_accounts_pkey |       2246197248

 2017-02-05 02:41:50.745534+01 | 1486258910.74553 | pgbench_branches_pkey |            40960
 2017-02-05 02:41:50.745534+01 | 1486258910.74553 | pgbench_tellers_pkey  |           245760
 2017-02-05 02:41:50.745534+01 | 1486258910.74553 | pgbench_accounts_pkey |       2246197248

 2017-02-05 02:41:51.84284+01 | 1486258911.84284 | pgbench_branches_pkey |            40960
 2017-02-05 02:41:51.84284+01 | 1486258911.84284 | pgbench_tellers_pkey  |           245760
 2017-02-05 02:41:51.84284+01 | 1486258911.84284 | pgbench_accounts_pkey |       2246197248

 2017-02-05 02:41:52.922306+01 | 1486258912.92231 | pgbench_branches_pkey |            40960
 2017-02-05 02:41:52.922306+01 | 1486258912.92231 | pgbench_tellers_pkey  |           245760
 2017-02-05 02:41:52.922306+01 | 1486258912.92231 | pgbench_accounts_pkey |       2246197248

 2017-02-05 02:41:54.017216+01 | 1486258914.01722 | pgbench_branches_pkey |            40960
 2017-02-05 02:41:54.017216+01 | 1486258914.01722 | pgbench_tellers_pkey  |           245760
 2017-02-05 02:41:54.017216+01 | 1486258914.01722 | pgbench_accounts_pkey |       2246197248

 2017-02-05 02:41:55.109904+01 | 1486258915.1099 | pgbench_branches_pkey |            40960
 2017-02-05 02:41:55.109904+01 | 1486258915.1099 | pgbench_tellers_pkey  |           245760
 2017-02-05 02:41:55.109904+01 | 1486258915.1099 | pgbench_accounts_pkey |       2246197248

 2017-02-05 02:41:56.21782+01 | 1486258916.21782 | pgbench_branches_pkey |            40960
 2017-02-05 02:41:56.21782+01 | 1486258916.21782 | pgbench_tellers_pkey  |           245760
 2017-02-05 02:41:56.21782+01 | 1486258916.21782 | pgbench_accounts_pkey |       2246197248

 2017-02-05 02:41:57.316551+01 | 1486258917.31655 | pgbench_branches_pkey |            40960
 2017-02-05 02:41:57.316551+01 | 1486258917.31655 | pgbench_tellers_pkey  |           245760
 2017-02-05 02:41:57.316551+01 | 1486258917.31655 | pgbench_accounts_pkey |       2246197248

 2017-02-05 02:41:58.406836+01 | 1486258918.40684 | pgbench_branches_pkey |            40960
 2017-02-05 02:41:58.406836+01 | 1486258918.40684 | pgbench_tellers_pkey  |           245760
 2017-02-05 02:41:58.406836+01 | 1486258918.40684 | pgbench_accounts_pkey |       2246197248

