 2017-02-05 04:45:43.04208+01 | 1486266343.04208 | pgbench_accounts |       1388961792
 2017-02-05 04:45:43.04208+01 | 1486266343.04208 | pgbench_tellers  |            49152
 2017-02-05 04:45:43.04208+01 | 1486266343.04208 | pgbench_history  |                0
 2017-02-05 04:45:43.04208+01 | 1486266343.04208 | pgbench_branches |             8192

 2017-02-05 04:45:44.127076+01 | 1486266344.12708 | pgbench_accounts |       1388961792
 2017-02-05 04:45:44.127076+01 | 1486266344.12708 | pgbench_tellers  |            49152
 2017-02-05 04:45:44.127076+01 | 1486266344.12708 | pgbench_history  |                0
 2017-02-05 04:45:44.127076+01 | 1486266344.12708 | pgbench_branches |             8192

 2017-02-05 04:45:45.212775+01 | 1486266345.21277 | pgbench_accounts |       1388961792
 2017-02-05 04:45:45.212775+01 | 1486266345.21277 | pgbench_tellers  |            49152
 2017-02-05 04:45:45.212775+01 | 1486266345.21277 | pgbench_history  |                0
 2017-02-05 04:45:45.212775+01 | 1486266345.21277 | pgbench_branches |             8192

 2017-02-05 04:45:46.289209+01 | 1486266346.28921 | pgbench_accounts |       1388961792
 2017-02-05 04:45:46.289209+01 | 1486266346.28921 | pgbench_tellers  |            49152
 2017-02-05 04:45:46.289209+01 | 1486266346.28921 | pgbench_history  |                0
 2017-02-05 04:45:46.289209+01 | 1486266346.28921 | pgbench_branches |             8192

 2017-02-05 04:45:47.358551+01 | 1486266347.35855 | pgbench_accounts |       1388961792
 2017-02-05 04:45:47.358551+01 | 1486266347.35855 | pgbench_tellers  |            49152
 2017-02-05 04:45:47.358551+01 | 1486266347.35855 | pgbench_history  |                0
 2017-02-05 04:45:47.358551+01 | 1486266347.35855 | pgbench_branches |             8192

 2017-02-05 04:45:48.439994+01 | 1486266348.43999 | pgbench_accounts |       1388961792
 2017-02-05 04:45:48.439994+01 | 1486266348.43999 | pgbench_tellers  |            49152
 2017-02-05 04:45:48.439994+01 | 1486266348.43999 | pgbench_history  |                0
 2017-02-05 04:45:48.439994+01 | 1486266348.43999 | pgbench_branches |             8192

 2017-02-05 04:45:49.515945+01 | 1486266349.51594 | pgbench_accounts |       1388961792
 2017-02-05 04:45:49.515945+01 | 1486266349.51594 | pgbench_tellers  |            49152
 2017-02-05 04:45:49.515945+01 | 1486266349.51594 | pgbench_history  |                0
 2017-02-05 04:45:49.515945+01 | 1486266349.51594 | pgbench_branches |             8192

 2017-02-05 04:45:50.588885+01 | 1486266350.58889 | pgbench_accounts |       1388961792
 2017-02-05 04:45:50.588885+01 | 1486266350.58889 | pgbench_tellers  |            49152
 2017-02-05 04:45:50.588885+01 | 1486266350.58889 | pgbench_history  |                0
 2017-02-05 04:45:50.588885+01 | 1486266350.58889 | pgbench_branches |             8192

 2017-02-05 04:45:51.665536+01 | 1486266351.66554 | pgbench_accounts |       1388961792
 2017-02-05 04:45:51.665536+01 | 1486266351.66554 | pgbench_tellers  |            49152
 2017-02-05 04:45:51.665536+01 | 1486266351.66554 | pgbench_history  |                0
 2017-02-05 04:45:51.665536+01 | 1486266351.66554 | pgbench_branches |             8192

 2017-02-05 04:45:52.738752+01 | 1486266352.73875 | pgbench_accounts |       1388961792
 2017-02-05 04:45:52.738752+01 | 1486266352.73875 | pgbench_tellers  |            49152
 2017-02-05 04:45:52.738752+01 | 1486266352.73875 | pgbench_history  |                0
 2017-02-05 04:45:52.738752+01 | 1486266352.73875 | pgbench_branches |             8192

 2017-02-05 04:45:53.811413+01 | 1486266353.81141 | pgbench_accounts |       1388961792
 2017-02-05 04:45:53.811413+01 | 1486266353.81141 | pgbench_tellers  |            49152
 2017-02-05 04:45:53.811413+01 | 1486266353.81141 | pgbench_history  |                0
 2017-02-05 04:45:53.811413+01 | 1486266353.81141 | pgbench_branches |             8192

 2017-02-05 04:45:54.885241+01 | 1486266354.88524 | pgbench_accounts |       1388961792
 2017-02-05 04:45:54.885241+01 | 1486266354.88524 | pgbench_tellers  |            49152
 2017-02-05 04:45:54.885241+01 | 1486266354.88524 | pgbench_history  |                0
 2017-02-05 04:45:54.885241+01 | 1486266354.88524 | pgbench_branches |             8192

 2017-02-05 04:45:55.957814+01 | 1486266355.95781 | pgbench_accounts |       1388961792
 2017-02-05 04:45:55.957814+01 | 1486266355.95781 | pgbench_tellers  |            49152
 2017-02-05 04:45:55.957814+01 | 1486266355.95781 | pgbench_history  |                0
 2017-02-05 04:45:55.957814+01 | 1486266355.95781 | pgbench_branches |             8192

 2017-02-05 04:45:57.03264+01 | 1486266357.03264 | pgbench_accounts |       1388961792
 2017-02-05 04:45:57.03264+01 | 1486266357.03264 | pgbench_tellers  |            49152
 2017-02-05 04:45:57.03264+01 | 1486266357.03264 | pgbench_history  |                0
 2017-02-05 04:45:57.03264+01 | 1486266357.03264 | pgbench_branches |             8192

 2017-02-05 04:45:58.105408+01 | 1486266358.10541 | pgbench_accounts |       1388961792
 2017-02-05 04:45:58.105408+01 | 1486266358.10541 | pgbench_tellers  |            49152
 2017-02-05 04:45:58.105408+01 | 1486266358.10541 | pgbench_history  |                0
 2017-02-05 04:45:58.105408+01 | 1486266358.10541 | pgbench_branches |             8192

 2017-02-05 04:45:59.180184+01 | 1486266359.18018 | pgbench_accounts |       1388961792
 2017-02-05 04:45:59.180184+01 | 1486266359.18018 | pgbench_tellers  |            49152
 2017-02-05 04:45:59.180184+01 | 1486266359.18018 | pgbench_history  |                0
 2017-02-05 04:45:59.180184+01 | 1486266359.18018 | pgbench_branches |             8192

 2017-02-05 04:46:00.253706+01 | 1486266360.25371 | pgbench_accounts |       1388961792
 2017-02-05 04:46:00.253706+01 | 1486266360.25371 | pgbench_tellers  |            49152
 2017-02-05 04:46:00.253706+01 | 1486266360.25371 | pgbench_history  |                0
 2017-02-05 04:46:00.253706+01 | 1486266360.25371 | pgbench_branches |             8192

 2017-02-05 04:46:01.330036+01 | 1486266361.33004 | pgbench_accounts |       1388961792
 2017-02-05 04:46:01.330036+01 | 1486266361.33004 | pgbench_tellers  |            49152
 2017-02-05 04:46:01.330036+01 | 1486266361.33004 | pgbench_history  |                0
 2017-02-05 04:46:01.330036+01 | 1486266361.33004 | pgbench_branches |             8192

 2017-02-05 04:46:02.408587+01 | 1486266362.40859 | pgbench_accounts |       1388961792
 2017-02-05 04:46:02.408587+01 | 1486266362.40859 | pgbench_tellers  |            49152
 2017-02-05 04:46:02.408587+01 | 1486266362.40859 | pgbench_history  |                0
 2017-02-05 04:46:02.408587+01 | 1486266362.40859 | pgbench_branches |             8192

 2017-02-05 04:46:03.492933+01 | 1486266363.49293 | pgbench_accounts |       1388961792
 2017-02-05 04:46:03.492933+01 | 1486266363.49293 | pgbench_tellers  |            49152
 2017-02-05 04:46:03.492933+01 | 1486266363.49293 | pgbench_history  |                0
 2017-02-05 04:46:03.492933+01 | 1486266363.49293 | pgbench_branches |             8192

 2017-02-05 04:46:04.56404+01 | 1486266364.56404 | pgbench_accounts |       1388961792
 2017-02-05 04:46:04.56404+01 | 1486266364.56404 | pgbench_tellers  |            49152
 2017-02-05 04:46:04.56404+01 | 1486266364.56404 | pgbench_history  |                0
 2017-02-05 04:46:04.56404+01 | 1486266364.56404 | pgbench_branches |             8192

 2017-02-05 04:46:05.63791+01 | 1486266365.63791 | pgbench_accounts |       1388961792
 2017-02-05 04:46:05.63791+01 | 1486266365.63791 | pgbench_tellers  |            49152
 2017-02-05 04:46:05.63791+01 | 1486266365.63791 | pgbench_history  |                0
 2017-02-05 04:46:05.63791+01 | 1486266365.63791 | pgbench_branches |             8192

 2017-02-05 04:46:06.714171+01 | 1486266366.71417 | pgbench_accounts |       1388961792
 2017-02-05 04:46:06.714171+01 | 1486266366.71417 | pgbench_tellers  |            49152
 2017-02-05 04:46:06.714171+01 | 1486266366.71417 | pgbench_history  |                0
 2017-02-05 04:46:06.714171+01 | 1486266366.71417 | pgbench_branches |             8192

 2017-02-05 04:46:07.791141+01 | 1486266367.79114 | pgbench_accounts |       1388961792
 2017-02-05 04:46:07.791141+01 | 1486266367.79114 | pgbench_tellers  |            49152
 2017-02-05 04:46:07.791141+01 | 1486266367.79114 | pgbench_history  |                0
 2017-02-05 04:46:07.791141+01 | 1486266367.79114 | pgbench_branches |             8192

 2017-02-05 04:46:08.872572+01 | 1486266368.87257 | pgbench_accounts |       1388961792
 2017-02-05 04:46:08.872572+01 | 1486266368.87257 | pgbench_tellers  |            49152
 2017-02-05 04:46:08.872572+01 | 1486266368.87257 | pgbench_history  |                0
 2017-02-05 04:46:08.872572+01 | 1486266368.87257 | pgbench_branches |             8192

 2017-02-05 04:46:09.949156+01 | 1486266369.94916 | pgbench_accounts |       1388961792
 2017-02-05 04:46:09.949156+01 | 1486266369.94916 | pgbench_tellers  |            49152
 2017-02-05 04:46:09.949156+01 | 1486266369.94916 | pgbench_history  |                0
 2017-02-05 04:46:09.949156+01 | 1486266369.94916 | pgbench_branches |             8192

 2017-02-05 04:46:11.022046+01 | 1486266371.02205 | pgbench_accounts |       1388961792
 2017-02-05 04:46:11.022046+01 | 1486266371.02205 | pgbench_tellers  |            49152
 2017-02-05 04:46:11.022046+01 | 1486266371.02205 | pgbench_history  |                0
 2017-02-05 04:46:11.022046+01 | 1486266371.02205 | pgbench_branches |             8192

 2017-02-05 04:46:12.098945+01 | 1486266372.09894 | pgbench_accounts |       1388961792
 2017-02-05 04:46:12.098945+01 | 1486266372.09894 | pgbench_tellers  |            49152
 2017-02-05 04:46:12.098945+01 | 1486266372.09894 | pgbench_history  |                0
 2017-02-05 04:46:12.098945+01 | 1486266372.09894 | pgbench_branches |             8192

 2017-02-05 04:46:13.174901+01 | 1486266373.1749 | pgbench_accounts |       1388961792
 2017-02-05 04:46:13.174901+01 | 1486266373.1749 | pgbench_tellers  |            49152
 2017-02-05 04:46:13.174901+01 | 1486266373.1749 | pgbench_history  |                0
 2017-02-05 04:46:13.174901+01 | 1486266373.1749 | pgbench_branches |             8192

 2017-02-05 04:46:14.249564+01 | 1486266374.24956 | pgbench_accounts |       1388961792
 2017-02-05 04:46:14.249564+01 | 1486266374.24956 | pgbench_tellers  |            49152
 2017-02-05 04:46:14.249564+01 | 1486266374.24956 | pgbench_history  |                0
 2017-02-05 04:46:14.249564+01 | 1486266374.24956 | pgbench_branches |             8192

 2017-02-05 04:46:15.325545+01 | 1486266375.32555 | pgbench_accounts |       1388961792
 2017-02-05 04:46:15.325545+01 | 1486266375.32555 | pgbench_tellers  |            49152
 2017-02-05 04:46:15.325545+01 | 1486266375.32555 | pgbench_history  |                0
 2017-02-05 04:46:15.325545+01 | 1486266375.32555 | pgbench_branches |             8192

 2017-02-05 04:46:16.400144+01 | 1486266376.40014 | pgbench_accounts |       1388961792
 2017-02-05 04:46:16.400144+01 | 1486266376.40014 | pgbench_tellers  |            49152
 2017-02-05 04:46:16.400144+01 | 1486266376.40014 | pgbench_history  |                0
 2017-02-05 04:46:16.400144+01 | 1486266376.40014 | pgbench_branches |             8192

 2017-02-05 04:46:17.475807+01 | 1486266377.47581 | pgbench_accounts |       1388961792
 2017-02-05 04:46:17.475807+01 | 1486266377.47581 | pgbench_tellers  |            49152
 2017-02-05 04:46:17.475807+01 | 1486266377.47581 | pgbench_history  |                0
 2017-02-05 04:46:17.475807+01 | 1486266377.47581 | pgbench_branches |             8192

 2017-02-05 04:46:18.548128+01 | 1486266378.54813 | pgbench_accounts |       1388961792
 2017-02-05 04:46:18.548128+01 | 1486266378.54813 | pgbench_tellers  |            49152
 2017-02-05 04:46:18.548128+01 | 1486266378.54813 | pgbench_history  |                0
 2017-02-05 04:46:18.548128+01 | 1486266378.54813 | pgbench_branches |             8192

 2017-02-05 04:46:19.619009+01 | 1486266379.61901 | pgbench_accounts |       1388961792
 2017-02-05 04:46:19.619009+01 | 1486266379.61901 | pgbench_tellers  |            49152
 2017-02-05 04:46:19.619009+01 | 1486266379.61901 | pgbench_history  |                0
 2017-02-05 04:46:19.619009+01 | 1486266379.61901 | pgbench_branches |             8192

 2017-02-05 04:46:20.69549+01 | 1486266380.69549 | pgbench_accounts |       1388961792
 2017-02-05 04:46:20.69549+01 | 1486266380.69549 | pgbench_tellers  |            49152
 2017-02-05 04:46:20.69549+01 | 1486266380.69549 | pgbench_history  |                0
 2017-02-05 04:46:20.69549+01 | 1486266380.69549 | pgbench_branches |             8192

 2017-02-05 04:46:21.771704+01 | 1486266381.7717 | pgbench_accounts |       1388961792
 2017-02-05 04:46:21.771704+01 | 1486266381.7717 | pgbench_tellers  |            49152
 2017-02-05 04:46:21.771704+01 | 1486266381.7717 | pgbench_history  |                0
 2017-02-05 04:46:21.771704+01 | 1486266381.7717 | pgbench_branches |             8192

 2017-02-05 04:46:22.84471+01 | 1486266382.84471 | pgbench_accounts |       1388961792
 2017-02-05 04:46:22.84471+01 | 1486266382.84471 | pgbench_tellers  |            49152
 2017-02-05 04:46:22.84471+01 | 1486266382.84471 | pgbench_history  |                0
 2017-02-05 04:46:22.84471+01 | 1486266382.84471 | pgbench_branches |             8192

 2017-02-05 04:46:23.91894+01 | 1486266383.91894 | pgbench_accounts |       1388961792
 2017-02-05 04:46:23.91894+01 | 1486266383.91894 | pgbench_tellers  |            49152
 2017-02-05 04:46:23.91894+01 | 1486266383.91894 | pgbench_history  |                0
 2017-02-05 04:46:23.91894+01 | 1486266383.91894 | pgbench_branches |             8192

 2017-02-05 04:46:24.988818+01 | 1486266384.98882 | pgbench_accounts |       1388961792
 2017-02-05 04:46:24.988818+01 | 1486266384.98882 | pgbench_tellers  |            49152
 2017-02-05 04:46:24.988818+01 | 1486266384.98882 | pgbench_history  |                0
 2017-02-05 04:46:24.988818+01 | 1486266384.98882 | pgbench_branches |             8192

 2017-02-05 04:46:26.063367+01 | 1486266386.06337 | pgbench_accounts |       1388961792
 2017-02-05 04:46:26.063367+01 | 1486266386.06337 | pgbench_tellers  |            49152
 2017-02-05 04:46:26.063367+01 | 1486266386.06337 | pgbench_history  |                0
 2017-02-05 04:46:26.063367+01 | 1486266386.06337 | pgbench_branches |             8192

 2017-02-05 04:46:27.142928+01 | 1486266387.14293 | pgbench_accounts |       1388961792
 2017-02-05 04:46:27.142928+01 | 1486266387.14293 | pgbench_tellers  |            49152
 2017-02-05 04:46:27.142928+01 | 1486266387.14293 | pgbench_history  |                0
 2017-02-05 04:46:27.142928+01 | 1486266387.14293 | pgbench_branches |             8192

 2017-02-05 04:46:28.217095+01 | 1486266388.21709 | pgbench_accounts |       1388961792
 2017-02-05 04:46:28.217095+01 | 1486266388.21709 | pgbench_tellers  |            49152
 2017-02-05 04:46:28.217095+01 | 1486266388.21709 | pgbench_history  |                0
 2017-02-05 04:46:28.217095+01 | 1486266388.21709 | pgbench_branches |             8192

 2017-02-05 04:46:29.290689+01 | 1486266389.29069 | pgbench_accounts |       1388961792
 2017-02-05 04:46:29.290689+01 | 1486266389.29069 | pgbench_tellers  |            49152
 2017-02-05 04:46:29.290689+01 | 1486266389.29069 | pgbench_history  |                0
 2017-02-05 04:46:29.290689+01 | 1486266389.29069 | pgbench_branches |             8192

 2017-02-05 04:46:30.365849+01 | 1486266390.36585 | pgbench_accounts |       1388961792
 2017-02-05 04:46:30.365849+01 | 1486266390.36585 | pgbench_tellers  |            49152
 2017-02-05 04:46:30.365849+01 | 1486266390.36585 | pgbench_history  |                0
 2017-02-05 04:46:30.365849+01 | 1486266390.36585 | pgbench_branches |             8192

 2017-02-05 04:46:31.439147+01 | 1486266391.43915 | pgbench_accounts |       1388961792
 2017-02-05 04:46:31.439147+01 | 1486266391.43915 | pgbench_tellers  |            49152
 2017-02-05 04:46:31.439147+01 | 1486266391.43915 | pgbench_history  |                0
 2017-02-05 04:46:31.439147+01 | 1486266391.43915 | pgbench_branches |             8192

 2017-02-05 04:46:32.517698+01 | 1486266392.5177 | pgbench_accounts |       1388961792
 2017-02-05 04:46:32.517698+01 | 1486266392.5177 | pgbench_tellers  |            49152
 2017-02-05 04:46:32.517698+01 | 1486266392.5177 | pgbench_history  |                0
 2017-02-05 04:46:32.517698+01 | 1486266392.5177 | pgbench_branches |             8192

 2017-02-05 04:46:33.591384+01 | 1486266393.59138 | pgbench_accounts |       1388961792
 2017-02-05 04:46:33.591384+01 | 1486266393.59138 | pgbench_tellers  |            49152
 2017-02-05 04:46:33.591384+01 | 1486266393.59138 | pgbench_history  |                0
 2017-02-05 04:46:33.591384+01 | 1486266393.59138 | pgbench_branches |             8192

 2017-02-05 04:46:34.67039+01 | 1486266394.67039 | pgbench_accounts |       1388961792
 2017-02-05 04:46:34.67039+01 | 1486266394.67039 | pgbench_tellers  |            49152
 2017-02-05 04:46:34.67039+01 | 1486266394.67039 | pgbench_history  |                0
 2017-02-05 04:46:34.67039+01 | 1486266394.67039 | pgbench_branches |             8192

 2017-02-05 04:46:35.756636+01 | 1486266395.75664 | pgbench_accounts |       1388961792
 2017-02-05 04:46:35.756636+01 | 1486266395.75664 | pgbench_tellers  |            49152
 2017-02-05 04:46:35.756636+01 | 1486266395.75664 | pgbench_history  |                0
 2017-02-05 04:46:35.756636+01 | 1486266395.75664 | pgbench_branches |             8192

 2017-02-05 04:46:36.834119+01 | 1486266396.83412 | pgbench_accounts |       1388961792
 2017-02-05 04:46:36.834119+01 | 1486266396.83412 | pgbench_tellers  |            49152
 2017-02-05 04:46:36.834119+01 | 1486266396.83412 | pgbench_history  |                0
 2017-02-05 04:46:36.834119+01 | 1486266396.83412 | pgbench_branches |             8192

 2017-02-05 04:46:37.907866+01 | 1486266397.90787 | pgbench_accounts |       1388961792
 2017-02-05 04:46:37.907866+01 | 1486266397.90787 | pgbench_tellers  |            49152
 2017-02-05 04:46:37.907866+01 | 1486266397.90787 | pgbench_history  |                0
 2017-02-05 04:46:37.907866+01 | 1486266397.90787 | pgbench_branches |             8192

 2017-02-05 04:46:38.982398+01 | 1486266398.9824 | pgbench_accounts |       1388961792
 2017-02-05 04:46:38.982398+01 | 1486266398.9824 | pgbench_tellers  |            49152
 2017-02-05 04:46:38.982398+01 | 1486266398.9824 | pgbench_history  |                0
 2017-02-05 04:46:38.982398+01 | 1486266398.9824 | pgbench_branches |             8192

 2017-02-05 04:46:40.058138+01 | 1486266400.05814 | pgbench_accounts |       1388961792
 2017-02-05 04:46:40.058138+01 | 1486266400.05814 | pgbench_tellers  |            49152
 2017-02-05 04:46:40.058138+01 | 1486266400.05814 | pgbench_history  |                0
 2017-02-05 04:46:40.058138+01 | 1486266400.05814 | pgbench_branches |             8192

 2017-02-05 04:46:41.135135+01 | 1486266401.13513 | pgbench_accounts |       1388961792
 2017-02-05 04:46:41.135135+01 | 1486266401.13513 | pgbench_tellers  |            49152
 2017-02-05 04:46:41.135135+01 | 1486266401.13513 | pgbench_history  |                0
 2017-02-05 04:46:41.135135+01 | 1486266401.13513 | pgbench_branches |             8192

 2017-02-05 04:46:42.213937+01 | 1486266402.21394 | pgbench_accounts |       1388961792
 2017-02-05 04:46:42.213937+01 | 1486266402.21394 | pgbench_tellers  |            49152
 2017-02-05 04:46:42.213937+01 | 1486266402.21394 | pgbench_history  |                0
 2017-02-05 04:46:42.213937+01 | 1486266402.21394 | pgbench_branches |             8192

 2017-02-05 04:46:43.289433+01 | 1486266403.28943 | pgbench_accounts |       1388961792
 2017-02-05 04:46:43.289433+01 | 1486266403.28943 | pgbench_tellers  |            49152
 2017-02-05 04:46:43.289433+01 | 1486266403.28943 | pgbench_history  |                0
 2017-02-05 04:46:43.289433+01 | 1486266403.28943 | pgbench_branches |             8192

 2017-02-05 04:46:44.364109+01 | 1486266404.36411 | pgbench_accounts |       1388961792
 2017-02-05 04:46:44.364109+01 | 1486266404.36411 | pgbench_tellers  |            49152
 2017-02-05 04:46:44.364109+01 | 1486266404.36411 | pgbench_history  |                0
 2017-02-05 04:46:44.364109+01 | 1486266404.36411 | pgbench_branches |             8192

 2017-02-05 04:46:45.442275+01 | 1486266405.44228 | pgbench_accounts |       1388961792
 2017-02-05 04:46:45.442275+01 | 1486266405.44228 | pgbench_tellers  |            49152
 2017-02-05 04:46:45.442275+01 | 1486266405.44228 | pgbench_history  |                0
 2017-02-05 04:46:45.442275+01 | 1486266405.44228 | pgbench_branches |             8192

 2017-02-05 04:46:46.516298+01 | 1486266406.5163 | pgbench_accounts |       1388961792
 2017-02-05 04:46:46.516298+01 | 1486266406.5163 | pgbench_tellers  |            49152
 2017-02-05 04:46:46.516298+01 | 1486266406.5163 | pgbench_history  |                0
 2017-02-05 04:46:46.516298+01 | 1486266406.5163 | pgbench_branches |             8192

 2017-02-05 04:46:47.594589+01 | 1486266407.59459 | pgbench_accounts |       1388961792
 2017-02-05 04:46:47.594589+01 | 1486266407.59459 | pgbench_tellers  |            49152
 2017-02-05 04:46:47.594589+01 | 1486266407.59459 | pgbench_history  |                0
 2017-02-05 04:46:47.594589+01 | 1486266407.59459 | pgbench_branches |             8192

 2017-02-05 04:46:48.66448+01 | 1486266408.66448 | pgbench_accounts |       1388961792
 2017-02-05 04:46:48.66448+01 | 1486266408.66448 | pgbench_tellers  |            49152
 2017-02-05 04:46:48.66448+01 | 1486266408.66448 | pgbench_history  |                0
 2017-02-05 04:46:48.66448+01 | 1486266408.66448 | pgbench_branches |             8192

 2017-02-05 04:46:49.74223+01 | 1486266409.74223 | pgbench_accounts |       1388961792
 2017-02-05 04:46:49.74223+01 | 1486266409.74223 | pgbench_tellers  |            49152
 2017-02-05 04:46:49.74223+01 | 1486266409.74223 | pgbench_history  |                0
 2017-02-05 04:46:49.74223+01 | 1486266409.74223 | pgbench_branches |             8192

 2017-02-05 04:46:50.815936+01 | 1486266410.81594 | pgbench_accounts |       1388961792
 2017-02-05 04:46:50.815936+01 | 1486266410.81594 | pgbench_tellers  |            49152
 2017-02-05 04:46:50.815936+01 | 1486266410.81594 | pgbench_history  |                0
 2017-02-05 04:46:50.815936+01 | 1486266410.81594 | pgbench_branches |             8192

 2017-02-05 04:46:51.888724+01 | 1486266411.88872 | pgbench_accounts |       1388961792
 2017-02-05 04:46:51.888724+01 | 1486266411.88872 | pgbench_tellers  |            49152
 2017-02-05 04:46:51.888724+01 | 1486266411.88872 | pgbench_history  |                0
 2017-02-05 04:46:51.888724+01 | 1486266411.88872 | pgbench_branches |             8192

 2017-02-05 04:46:52.970793+01 | 1486266412.97079 | pgbench_accounts |       1389158400
 2017-02-05 04:46:52.970793+01 | 1486266412.97079 | pgbench_tellers  |            49152
 2017-02-05 04:46:52.970793+01 | 1486266412.97079 | pgbench_history  |                0
 2017-02-05 04:46:52.970793+01 | 1486266412.97079 | pgbench_branches |             8192

 2017-02-05 04:46:54.047192+01 | 1486266414.04719 | pgbench_accounts |       1389355008
 2017-02-05 04:46:54.047192+01 | 1486266414.04719 | pgbench_tellers  |            49152
 2017-02-05 04:46:54.047192+01 | 1486266414.04719 | pgbench_history  |                0
 2017-02-05 04:46:54.047192+01 | 1486266414.04719 | pgbench_branches |             8192

 2017-02-05 04:46:55.121854+01 | 1486266415.12185 | pgbench_accounts |       1389355008
 2017-02-05 04:46:55.121854+01 | 1486266415.12185 | pgbench_tellers  |            49152
 2017-02-05 04:46:55.121854+01 | 1486266415.12185 | pgbench_history  |                0
 2017-02-05 04:46:55.121854+01 | 1486266415.12185 | pgbench_branches |             8192

 2017-02-05 04:46:56.197915+01 | 1486266416.19792 | pgbench_accounts |       1389355008
 2017-02-05 04:46:56.197915+01 | 1486266416.19792 | pgbench_tellers  |            49152
 2017-02-05 04:46:56.197915+01 | 1486266416.19792 | pgbench_history  |                0
 2017-02-05 04:46:56.197915+01 | 1486266416.19792 | pgbench_branches |             8192

 2017-02-05 04:46:57.270899+01 | 1486266417.2709 | pgbench_accounts |       1389355008
 2017-02-05 04:46:57.270899+01 | 1486266417.2709 | pgbench_tellers  |            49152
 2017-02-05 04:46:57.270899+01 | 1486266417.2709 | pgbench_history  |                0
 2017-02-05 04:46:57.270899+01 | 1486266417.2709 | pgbench_branches |             8192

 2017-02-05 04:46:58.354033+01 | 1486266418.35403 | pgbench_accounts |       1389355008
 2017-02-05 04:46:58.354033+01 | 1486266418.35403 | pgbench_tellers  |            49152
 2017-02-05 04:46:58.354033+01 | 1486266418.35403 | pgbench_history  |                0
 2017-02-05 04:46:58.354033+01 | 1486266418.35403 | pgbench_branches |             8192

 2017-02-05 04:46:59.428163+01 | 1486266419.42816 | pgbench_accounts |       1389355008
 2017-02-05 04:46:59.428163+01 | 1486266419.42816 | pgbench_tellers  |            49152
 2017-02-05 04:46:59.428163+01 | 1486266419.42816 | pgbench_history  |                0
 2017-02-05 04:46:59.428163+01 | 1486266419.42816 | pgbench_branches |             8192

 2017-02-05 04:47:00.49993+01 | 1486266420.49993 | pgbench_accounts |       1389355008
 2017-02-05 04:47:00.49993+01 | 1486266420.49993 | pgbench_tellers  |            49152
 2017-02-05 04:47:00.49993+01 | 1486266420.49993 | pgbench_history  |                0
 2017-02-05 04:47:00.49993+01 | 1486266420.49993 | pgbench_branches |             8192

 2017-02-05 04:47:01.576565+01 | 1486266421.57657 | pgbench_accounts |       1389355008
 2017-02-05 04:47:01.576565+01 | 1486266421.57657 | pgbench_tellers  |            49152
 2017-02-05 04:47:01.576565+01 | 1486266421.57657 | pgbench_history  |                0
 2017-02-05 04:47:01.576565+01 | 1486266421.57657 | pgbench_branches |             8192

 2017-02-05 04:47:02.652176+01 | 1486266422.65218 | pgbench_accounts |       1389355008
 2017-02-05 04:47:02.652176+01 | 1486266422.65218 | pgbench_tellers  |            49152
 2017-02-05 04:47:02.652176+01 | 1486266422.65218 | pgbench_history  |                0
 2017-02-05 04:47:02.652176+01 | 1486266422.65218 | pgbench_branches |             8192

 2017-02-05 04:47:03.726032+01 | 1486266423.72603 | pgbench_accounts |       1389355008
 2017-02-05 04:47:03.726032+01 | 1486266423.72603 | pgbench_tellers  |            49152
 2017-02-05 04:47:03.726032+01 | 1486266423.72603 | pgbench_history  |                0
 2017-02-05 04:47:03.726032+01 | 1486266423.72603 | pgbench_branches |             8192

 2017-02-05 04:47:04.801833+01 | 1486266424.80183 | pgbench_accounts |       1389355008
 2017-02-05 04:47:04.801833+01 | 1486266424.80183 | pgbench_tellers  |            49152
 2017-02-05 04:47:04.801833+01 | 1486266424.80183 | pgbench_history  |                0
 2017-02-05 04:47:04.801833+01 | 1486266424.80183 | pgbench_branches |             8192

 2017-02-05 04:47:05.878129+01 | 1486266425.87813 | pgbench_accounts |       1389355008
 2017-02-05 04:47:05.878129+01 | 1486266425.87813 | pgbench_tellers  |            49152
 2017-02-05 04:47:05.878129+01 | 1486266425.87813 | pgbench_history  |                0
 2017-02-05 04:47:05.878129+01 | 1486266425.87813 | pgbench_branches |             8192

 2017-02-05 04:47:06.950738+01 | 1486266426.95074 | pgbench_accounts |       1389355008
 2017-02-05 04:47:06.950738+01 | 1486266426.95074 | pgbench_tellers  |            49152
 2017-02-05 04:47:06.950738+01 | 1486266426.95074 | pgbench_history  |                0
 2017-02-05 04:47:06.950738+01 | 1486266426.95074 | pgbench_branches |             8192

 2017-02-05 04:47:08.024088+01 | 1486266428.02409 | pgbench_accounts |       1389355008
 2017-02-05 04:47:08.024088+01 | 1486266428.02409 | pgbench_tellers  |            49152
 2017-02-05 04:47:08.024088+01 | 1486266428.02409 | pgbench_history  |                0
 2017-02-05 04:47:08.024088+01 | 1486266428.02409 | pgbench_branches |             8192

 2017-02-05 04:47:09.092834+01 | 1486266429.09283 | pgbench_accounts |       1389355008
 2017-02-05 04:47:09.092834+01 | 1486266429.09283 | pgbench_tellers  |            49152
 2017-02-05 04:47:09.092834+01 | 1486266429.09283 | pgbench_history  |                0
 2017-02-05 04:47:09.092834+01 | 1486266429.09283 | pgbench_branches |             8192

 2017-02-05 04:47:10.167938+01 | 1486266430.16794 | pgbench_accounts |       1389355008
 2017-02-05 04:47:10.167938+01 | 1486266430.16794 | pgbench_tellers  |            49152
 2017-02-05 04:47:10.167938+01 | 1486266430.16794 | pgbench_history  |                0
 2017-02-05 04:47:10.167938+01 | 1486266430.16794 | pgbench_branches |             8192

 2017-02-05 04:47:11.24131+01 | 1486266431.24131 | pgbench_accounts |       1389355008
 2017-02-05 04:47:11.24131+01 | 1486266431.24131 | pgbench_tellers  |            49152
 2017-02-05 04:47:11.24131+01 | 1486266431.24131 | pgbench_history  |                0
 2017-02-05 04:47:11.24131+01 | 1486266431.24131 | pgbench_branches |             8192

 2017-02-05 04:47:12.316621+01 | 1486266432.31662 | pgbench_accounts |       1389355008
 2017-02-05 04:47:12.316621+01 | 1486266432.31662 | pgbench_tellers  |            49152
 2017-02-05 04:47:12.316621+01 | 1486266432.31662 | pgbench_history  |                0
 2017-02-05 04:47:12.316621+01 | 1486266432.31662 | pgbench_branches |             8192

 2017-02-05 04:47:13.393891+01 | 1486266433.39389 | pgbench_accounts |       1389355008
 2017-02-05 04:47:13.393891+01 | 1486266433.39389 | pgbench_tellers  |            49152
 2017-02-05 04:47:13.393891+01 | 1486266433.39389 | pgbench_history  |                0
 2017-02-05 04:47:13.393891+01 | 1486266433.39389 | pgbench_branches |             8192

 2017-02-05 04:47:14.466402+01 | 1486266434.4664 | pgbench_accounts |       1389355008
 2017-02-05 04:47:14.466402+01 | 1486266434.4664 | pgbench_tellers  |            49152
 2017-02-05 04:47:14.466402+01 | 1486266434.4664 | pgbench_history  |                0
 2017-02-05 04:47:14.466402+01 | 1486266434.4664 | pgbench_branches |             8192

 2017-02-05 04:47:15.542595+01 | 1486266435.54259 | pgbench_accounts |       1389355008
 2017-02-05 04:47:15.542595+01 | 1486266435.54259 | pgbench_tellers  |            49152
 2017-02-05 04:47:15.542595+01 | 1486266435.54259 | pgbench_history  |                0
 2017-02-05 04:47:15.542595+01 | 1486266435.54259 | pgbench_branches |             8192

 2017-02-05 04:47:16.622822+01 | 1486266436.62282 | pgbench_accounts |       1389355008
 2017-02-05 04:47:16.622822+01 | 1486266436.62282 | pgbench_tellers  |            49152
 2017-02-05 04:47:16.622822+01 | 1486266436.62282 | pgbench_history  |                0
 2017-02-05 04:47:16.622822+01 | 1486266436.62282 | pgbench_branches |             8192

 2017-02-05 04:47:17.699984+01 | 1486266437.69998 | pgbench_accounts |       1389355008
 2017-02-05 04:47:17.699984+01 | 1486266437.69998 | pgbench_tellers  |            49152
 2017-02-05 04:47:17.699984+01 | 1486266437.69998 | pgbench_history  |                0
 2017-02-05 04:47:17.699984+01 | 1486266437.69998 | pgbench_branches |             8192

 2017-02-05 04:47:18.769116+01 | 1486266438.76912 | pgbench_accounts |       1389355008
 2017-02-05 04:47:18.769116+01 | 1486266438.76912 | pgbench_tellers  |            49152
 2017-02-05 04:47:18.769116+01 | 1486266438.76912 | pgbench_history  |                0
 2017-02-05 04:47:18.769116+01 | 1486266438.76912 | pgbench_branches |             8192

 2017-02-05 04:47:19.842663+01 | 1486266439.84266 | pgbench_accounts |       1389355008
 2017-02-05 04:47:19.842663+01 | 1486266439.84266 | pgbench_tellers  |            49152
 2017-02-05 04:47:19.842663+01 | 1486266439.84266 | pgbench_history  |                0
 2017-02-05 04:47:19.842663+01 | 1486266439.84266 | pgbench_branches |             8192

 2017-02-05 04:47:20.916178+01 | 1486266440.91618 | pgbench_accounts |       1389355008
 2017-02-05 04:47:20.916178+01 | 1486266440.91618 | pgbench_tellers  |            49152
 2017-02-05 04:47:20.916178+01 | 1486266440.91618 | pgbench_history  |                0
 2017-02-05 04:47:20.916178+01 | 1486266440.91618 | pgbench_branches |             8192

 2017-02-05 04:47:21.991341+01 | 1486266441.99134 | pgbench_accounts |       1389355008
 2017-02-05 04:47:21.991341+01 | 1486266441.99134 | pgbench_tellers  |            49152
 2017-02-05 04:47:21.991341+01 | 1486266441.99134 | pgbench_history  |                0
 2017-02-05 04:47:21.991341+01 | 1486266441.99134 | pgbench_branches |             8192

 2017-02-05 04:47:23.060603+01 | 1486266443.0606 | pgbench_accounts |       1389355008
 2017-02-05 04:47:23.060603+01 | 1486266443.0606 | pgbench_tellers  |            49152
 2017-02-05 04:47:23.060603+01 | 1486266443.0606 | pgbench_history  |                0
 2017-02-05 04:47:23.060603+01 | 1486266443.0606 | pgbench_branches |             8192

 2017-02-05 04:47:24.137408+01 | 1486266444.13741 | pgbench_accounts |       1389355008
 2017-02-05 04:47:24.137408+01 | 1486266444.13741 | pgbench_tellers  |            49152
 2017-02-05 04:47:24.137408+01 | 1486266444.13741 | pgbench_history  |                0
 2017-02-05 04:47:24.137408+01 | 1486266444.13741 | pgbench_branches |             8192

 2017-02-05 04:47:25.209304+01 | 1486266445.2093 | pgbench_accounts |       1389355008
 2017-02-05 04:47:25.209304+01 | 1486266445.2093 | pgbench_tellers  |            49152
 2017-02-05 04:47:25.209304+01 | 1486266445.2093 | pgbench_history  |                0
 2017-02-05 04:47:25.209304+01 | 1486266445.2093 | pgbench_branches |             8192

 2017-02-05 04:47:26.281783+01 | 1486266446.28178 | pgbench_accounts |       1389355008
 2017-02-05 04:47:26.281783+01 | 1486266446.28178 | pgbench_tellers  |            49152
 2017-02-05 04:47:26.281783+01 | 1486266446.28178 | pgbench_history  |                0
 2017-02-05 04:47:26.281783+01 | 1486266446.28178 | pgbench_branches |             8192

 2017-02-05 04:47:27.357243+01 | 1486266447.35724 | pgbench_accounts |       1389355008
 2017-02-05 04:47:27.357243+01 | 1486266447.35724 | pgbench_tellers  |            49152
 2017-02-05 04:47:27.357243+01 | 1486266447.35724 | pgbench_history  |                0
 2017-02-05 04:47:27.357243+01 | 1486266447.35724 | pgbench_branches |             8192

 2017-02-05 04:47:28.433797+01 | 1486266448.4338 | pgbench_accounts |       1389355008
 2017-02-05 04:47:28.433797+01 | 1486266448.4338 | pgbench_tellers  |            49152
 2017-02-05 04:47:28.433797+01 | 1486266448.4338 | pgbench_history  |                0
 2017-02-05 04:47:28.433797+01 | 1486266448.4338 | pgbench_branches |             8192

 2017-02-05 04:47:29.507969+01 | 1486266449.50797 | pgbench_accounts |       1389355008
 2017-02-05 04:47:29.507969+01 | 1486266449.50797 | pgbench_tellers  |            49152
 2017-02-05 04:47:29.507969+01 | 1486266449.50797 | pgbench_history  |                0
 2017-02-05 04:47:29.507969+01 | 1486266449.50797 | pgbench_branches |             8192

 2017-02-05 04:47:30.57714+01 | 1486266450.57714 | pgbench_accounts |       1389355008
 2017-02-05 04:47:30.57714+01 | 1486266450.57714 | pgbench_tellers  |            49152
 2017-02-05 04:47:30.57714+01 | 1486266450.57714 | pgbench_history  |                0
 2017-02-05 04:47:30.57714+01 | 1486266450.57714 | pgbench_branches |             8192

 2017-02-05 04:47:31.651606+01 | 1486266451.65161 | pgbench_accounts |       1389355008
 2017-02-05 04:47:31.651606+01 | 1486266451.65161 | pgbench_tellers  |            49152
 2017-02-05 04:47:31.651606+01 | 1486266451.65161 | pgbench_history  |                0
 2017-02-05 04:47:31.651606+01 | 1486266451.65161 | pgbench_branches |             8192

 2017-02-05 04:47:32.717838+01 | 1486266452.71784 | pgbench_accounts |       1389355008
 2017-02-05 04:47:32.717838+01 | 1486266452.71784 | pgbench_tellers  |            49152
 2017-02-05 04:47:32.717838+01 | 1486266452.71784 | pgbench_history  |                0
 2017-02-05 04:47:32.717838+01 | 1486266452.71784 | pgbench_branches |             8192

 2017-02-05 04:47:33.789676+01 | 1486266453.78968 | pgbench_accounts |       1389355008
 2017-02-05 04:47:33.789676+01 | 1486266453.78968 | pgbench_tellers  |            49152
 2017-02-05 04:47:33.789676+01 | 1486266453.78968 | pgbench_history  |                0
 2017-02-05 04:47:33.789676+01 | 1486266453.78968 | pgbench_branches |             8192

 2017-02-05 04:47:34.864955+01 | 1486266454.86495 | pgbench_accounts |       1389355008
 2017-02-05 04:47:34.864955+01 | 1486266454.86495 | pgbench_tellers  |            49152
 2017-02-05 04:47:34.864955+01 | 1486266454.86495 | pgbench_history  |                0
 2017-02-05 04:47:34.864955+01 | 1486266454.86495 | pgbench_branches |             8192

 2017-02-05 04:47:35.93109+01 | 1486266455.93109 | pgbench_accounts |       1389355008
 2017-02-05 04:47:35.93109+01 | 1486266455.93109 | pgbench_tellers  |            49152
 2017-02-05 04:47:35.93109+01 | 1486266455.93109 | pgbench_history  |                0
 2017-02-05 04:47:35.93109+01 | 1486266455.93109 | pgbench_branches |             8192

 2017-02-05 04:47:37.010395+01 | 1486266457.0104 | pgbench_accounts |       1389355008
 2017-02-05 04:47:37.010395+01 | 1486266457.0104 | pgbench_tellers  |            49152
 2017-02-05 04:47:37.010395+01 | 1486266457.0104 | pgbench_history  |                0
 2017-02-05 04:47:37.010395+01 | 1486266457.0104 | pgbench_branches |             8192

 2017-02-05 04:47:38.083883+01 | 1486266458.08388 | pgbench_accounts |       1389355008
 2017-02-05 04:47:38.083883+01 | 1486266458.08388 | pgbench_tellers  |            49152
 2017-02-05 04:47:38.083883+01 | 1486266458.08388 | pgbench_history  |                0
 2017-02-05 04:47:38.083883+01 | 1486266458.08388 | pgbench_branches |             8192

 2017-02-05 04:47:39.160606+01 | 1486266459.16061 | pgbench_accounts |       1389355008
 2017-02-05 04:47:39.160606+01 | 1486266459.16061 | pgbench_tellers  |            49152
 2017-02-05 04:47:39.160606+01 | 1486266459.16061 | pgbench_history  |                0
 2017-02-05 04:47:39.160606+01 | 1486266459.16061 | pgbench_branches |             8192

 2017-02-05 04:47:40.236286+01 | 1486266460.23629 | pgbench_accounts |       1389355008
 2017-02-05 04:47:40.236286+01 | 1486266460.23629 | pgbench_tellers  |            49152
 2017-02-05 04:47:40.236286+01 | 1486266460.23629 | pgbench_history  |                0
 2017-02-05 04:47:40.236286+01 | 1486266460.23629 | pgbench_branches |             8192

 2017-02-05 04:47:41.314621+01 | 1486266461.31462 | pgbench_accounts |       1389355008
 2017-02-05 04:47:41.314621+01 | 1486266461.31462 | pgbench_tellers  |            49152
 2017-02-05 04:47:41.314621+01 | 1486266461.31462 | pgbench_history  |                0
 2017-02-05 04:47:41.314621+01 | 1486266461.31462 | pgbench_branches |             8192

 2017-02-05 04:47:42.388106+01 | 1486266462.38811 | pgbench_accounts |       1389355008
 2017-02-05 04:47:42.388106+01 | 1486266462.38811 | pgbench_tellers  |            49152
 2017-02-05 04:47:42.388106+01 | 1486266462.38811 | pgbench_history  |                0
 2017-02-05 04:47:42.388106+01 | 1486266462.38811 | pgbench_branches |             8192

 2017-02-05 04:47:43.460303+01 | 1486266463.4603 | pgbench_accounts |       1389355008
 2017-02-05 04:47:43.460303+01 | 1486266463.4603 | pgbench_tellers  |            49152
 2017-02-05 04:47:43.460303+01 | 1486266463.4603 | pgbench_history  |                0
 2017-02-05 04:47:43.460303+01 | 1486266463.4603 | pgbench_branches |             8192

 2017-02-05 04:47:44.537551+01 | 1486266464.53755 | pgbench_accounts |       1389355008
 2017-02-05 04:47:44.537551+01 | 1486266464.53755 | pgbench_tellers  |            49152
 2017-02-05 04:47:44.537551+01 | 1486266464.53755 | pgbench_history  |                0
 2017-02-05 04:47:44.537551+01 | 1486266464.53755 | pgbench_branches |             8192

 2017-02-05 04:47:45.608476+01 | 1486266465.60848 | pgbench_accounts |       1389355008
 2017-02-05 04:47:45.608476+01 | 1486266465.60848 | pgbench_tellers  |            49152
 2017-02-05 04:47:45.608476+01 | 1486266465.60848 | pgbench_history  |                0
 2017-02-05 04:47:45.608476+01 | 1486266465.60848 | pgbench_branches |             8192

 2017-02-05 04:47:46.677995+01 | 1486266466.67799 | pgbench_accounts |       1389355008
 2017-02-05 04:47:46.677995+01 | 1486266466.67799 | pgbench_tellers  |            49152
 2017-02-05 04:47:46.677995+01 | 1486266466.67799 | pgbench_history  |                0
 2017-02-05 04:47:46.677995+01 | 1486266466.67799 | pgbench_branches |             8192

 2017-02-05 04:47:47.751215+01 | 1486266467.75121 | pgbench_accounts |       1389355008
 2017-02-05 04:47:47.751215+01 | 1486266467.75121 | pgbench_tellers  |            49152
 2017-02-05 04:47:47.751215+01 | 1486266467.75121 | pgbench_history  |                0
 2017-02-05 04:47:47.751215+01 | 1486266467.75121 | pgbench_branches |             8192

 2017-02-05 04:47:48.823328+01 | 1486266468.82333 | pgbench_accounts |       1389355008
 2017-02-05 04:47:48.823328+01 | 1486266468.82333 | pgbench_tellers  |            49152
 2017-02-05 04:47:48.823328+01 | 1486266468.82333 | pgbench_history  |                0
 2017-02-05 04:47:48.823328+01 | 1486266468.82333 | pgbench_branches |             8192

 2017-02-05 04:47:49.89791+01 | 1486266469.89791 | pgbench_accounts |       1389355008
 2017-02-05 04:47:49.89791+01 | 1486266469.89791 | pgbench_tellers  |            49152
 2017-02-05 04:47:49.89791+01 | 1486266469.89791 | pgbench_history  |                0
 2017-02-05 04:47:49.89791+01 | 1486266469.89791 | pgbench_branches |             8192

 2017-02-05 04:47:50.972834+01 | 1486266470.97283 | pgbench_accounts |       1389355008
 2017-02-05 04:47:50.972834+01 | 1486266470.97283 | pgbench_tellers  |            49152
 2017-02-05 04:47:50.972834+01 | 1486266470.97283 | pgbench_history  |                0
 2017-02-05 04:47:50.972834+01 | 1486266470.97283 | pgbench_branches |             8192

 2017-02-05 04:47:52.046091+01 | 1486266472.04609 | pgbench_accounts |       1389355008
 2017-02-05 04:47:52.046091+01 | 1486266472.04609 | pgbench_tellers  |            49152
 2017-02-05 04:47:52.046091+01 | 1486266472.04609 | pgbench_history  |                0
 2017-02-05 04:47:52.046091+01 | 1486266472.04609 | pgbench_branches |             8192

 2017-02-05 04:47:53.122333+01 | 1486266473.12233 | pgbench_accounts |       1389355008
 2017-02-05 04:47:53.122333+01 | 1486266473.12233 | pgbench_tellers  |            49152
 2017-02-05 04:47:53.122333+01 | 1486266473.12233 | pgbench_history  |                0
 2017-02-05 04:47:53.122333+01 | 1486266473.12233 | pgbench_branches |             8192

 2017-02-05 04:47:54.196945+01 | 1486266474.19694 | pgbench_accounts |       1389355008
 2017-02-05 04:47:54.196945+01 | 1486266474.19694 | pgbench_tellers  |            49152
 2017-02-05 04:47:54.196945+01 | 1486266474.19694 | pgbench_history  |                0
 2017-02-05 04:47:54.196945+01 | 1486266474.19694 | pgbench_branches |             8192

 2017-02-05 04:47:55.268921+01 | 1486266475.26892 | pgbench_accounts |       1389355008
 2017-02-05 04:47:55.268921+01 | 1486266475.26892 | pgbench_tellers  |            49152
 2017-02-05 04:47:55.268921+01 | 1486266475.26892 | pgbench_history  |                0
 2017-02-05 04:47:55.268921+01 | 1486266475.26892 | pgbench_branches |             8192

 2017-02-05 04:47:56.345662+01 | 1486266476.34566 | pgbench_accounts |       1389355008
 2017-02-05 04:47:56.345662+01 | 1486266476.34566 | pgbench_tellers  |            49152
 2017-02-05 04:47:56.345662+01 | 1486266476.34566 | pgbench_history  |                0
 2017-02-05 04:47:56.345662+01 | 1486266476.34566 | pgbench_branches |             8192

 2017-02-05 04:47:57.416598+01 | 1486266477.4166 | pgbench_accounts |       1389355008
 2017-02-05 04:47:57.416598+01 | 1486266477.4166 | pgbench_tellers  |            49152
 2017-02-05 04:47:57.416598+01 | 1486266477.4166 | pgbench_history  |                0
 2017-02-05 04:47:57.416598+01 | 1486266477.4166 | pgbench_branches |             8192

 2017-02-05 04:47:58.489659+01 | 1486266478.48966 | pgbench_accounts |       1389355008
 2017-02-05 04:47:58.489659+01 | 1486266478.48966 | pgbench_tellers  |            49152
 2017-02-05 04:47:58.489659+01 | 1486266478.48966 | pgbench_history  |                0
 2017-02-05 04:47:58.489659+01 | 1486266478.48966 | pgbench_branches |             8192

 2017-02-05 04:47:59.567938+01 | 1486266479.56794 | pgbench_accounts |       1389355008
 2017-02-05 04:47:59.567938+01 | 1486266479.56794 | pgbench_tellers  |            49152
 2017-02-05 04:47:59.567938+01 | 1486266479.56794 | pgbench_history  |                0
 2017-02-05 04:47:59.567938+01 | 1486266479.56794 | pgbench_branches |             8192

 2017-02-05 04:48:00.643041+01 | 1486266480.64304 | pgbench_accounts |       1389355008
 2017-02-05 04:48:00.643041+01 | 1486266480.64304 | pgbench_tellers  |            49152
 2017-02-05 04:48:00.643041+01 | 1486266480.64304 | pgbench_history  |                0
 2017-02-05 04:48:00.643041+01 | 1486266480.64304 | pgbench_branches |             8192

 2017-02-05 04:48:01.714657+01 | 1486266481.71466 | pgbench_accounts |       1389355008
 2017-02-05 04:48:01.714657+01 | 1486266481.71466 | pgbench_tellers  |            49152
 2017-02-05 04:48:01.714657+01 | 1486266481.71466 | pgbench_history  |                0
 2017-02-05 04:48:01.714657+01 | 1486266481.71466 | pgbench_branches |             8192

 2017-02-05 04:48:02.796695+01 | 1486266482.79669 | pgbench_accounts |       1389355008
 2017-02-05 04:48:02.796695+01 | 1486266482.79669 | pgbench_tellers  |            49152
 2017-02-05 04:48:02.796695+01 | 1486266482.79669 | pgbench_history  |                0
 2017-02-05 04:48:02.796695+01 | 1486266482.79669 | pgbench_branches |             8192

 2017-02-05 04:48:03.872483+01 | 1486266483.87248 | pgbench_accounts |       1389355008
 2017-02-05 04:48:03.872483+01 | 1486266483.87248 | pgbench_tellers  |            49152
 2017-02-05 04:48:03.872483+01 | 1486266483.87248 | pgbench_history  |                0
 2017-02-05 04:48:03.872483+01 | 1486266483.87248 | pgbench_branches |             8192

 2017-02-05 04:48:04.951559+01 | 1486266484.95156 | pgbench_accounts |       1389355008
 2017-02-05 04:48:04.951559+01 | 1486266484.95156 | pgbench_tellers  |            49152
 2017-02-05 04:48:04.951559+01 | 1486266484.95156 | pgbench_history  |                0
 2017-02-05 04:48:04.951559+01 | 1486266484.95156 | pgbench_branches |             8192

 2017-02-05 04:48:06.024853+01 | 1486266486.02485 | pgbench_accounts |       1389355008
 2017-02-05 04:48:06.024853+01 | 1486266486.02485 | pgbench_tellers  |            49152
 2017-02-05 04:48:06.024853+01 | 1486266486.02485 | pgbench_history  |                0
 2017-02-05 04:48:06.024853+01 | 1486266486.02485 | pgbench_branches |             8192

 2017-02-05 04:48:07.096341+01 | 1486266487.09634 | pgbench_accounts |       1389355008
 2017-02-05 04:48:07.096341+01 | 1486266487.09634 | pgbench_tellers  |            49152
 2017-02-05 04:48:07.096341+01 | 1486266487.09634 | pgbench_history  |                0
 2017-02-05 04:48:07.096341+01 | 1486266487.09634 | pgbench_branches |             8192

 2017-02-05 04:48:08.168309+01 | 1486266488.16831 | pgbench_accounts |       1389355008
 2017-02-05 04:48:08.168309+01 | 1486266488.16831 | pgbench_tellers  |            49152
 2017-02-05 04:48:08.168309+01 | 1486266488.16831 | pgbench_history  |                0
 2017-02-05 04:48:08.168309+01 | 1486266488.16831 | pgbench_branches |             8192

 2017-02-05 04:48:09.245604+01 | 1486266489.2456 | pgbench_accounts |       1389355008
 2017-02-05 04:48:09.245604+01 | 1486266489.2456 | pgbench_tellers  |            49152
 2017-02-05 04:48:09.245604+01 | 1486266489.2456 | pgbench_history  |                0
 2017-02-05 04:48:09.245604+01 | 1486266489.2456 | pgbench_branches |             8192

 2017-02-05 04:48:10.321724+01 | 1486266490.32172 | pgbench_accounts |       1389355008
 2017-02-05 04:48:10.321724+01 | 1486266490.32172 | pgbench_tellers  |            49152
 2017-02-05 04:48:10.321724+01 | 1486266490.32172 | pgbench_history  |                0
 2017-02-05 04:48:10.321724+01 | 1486266490.32172 | pgbench_branches |             8192

 2017-02-05 04:48:11.397779+01 | 1486266491.39778 | pgbench_accounts |       1389355008
 2017-02-05 04:48:11.397779+01 | 1486266491.39778 | pgbench_tellers  |            49152
 2017-02-05 04:48:11.397779+01 | 1486266491.39778 | pgbench_history  |                0
 2017-02-05 04:48:11.397779+01 | 1486266491.39778 | pgbench_branches |             8192

 2017-02-05 04:48:12.472762+01 | 1486266492.47276 | pgbench_accounts |       1389355008
 2017-02-05 04:48:12.472762+01 | 1486266492.47276 | pgbench_tellers  |            49152
 2017-02-05 04:48:12.472762+01 | 1486266492.47276 | pgbench_history  |                0
 2017-02-05 04:48:12.472762+01 | 1486266492.47276 | pgbench_branches |             8192

 2017-02-05 04:48:13.555436+01 | 1486266493.55544 | pgbench_accounts |       1389355008
 2017-02-05 04:48:13.555436+01 | 1486266493.55544 | pgbench_tellers  |            49152
 2017-02-05 04:48:13.555436+01 | 1486266493.55544 | pgbench_history  |                0
 2017-02-05 04:48:13.555436+01 | 1486266493.55544 | pgbench_branches |             8192

 2017-02-05 04:48:14.629645+01 | 1486266494.62965 | pgbench_accounts |       1389355008
 2017-02-05 04:48:14.629645+01 | 1486266494.62965 | pgbench_tellers  |            49152
 2017-02-05 04:48:14.629645+01 | 1486266494.62965 | pgbench_history  |                0
 2017-02-05 04:48:14.629645+01 | 1486266494.62965 | pgbench_branches |             8192

 2017-02-05 04:48:15.702113+01 | 1486266495.70211 | pgbench_accounts |       1389355008
 2017-02-05 04:48:15.702113+01 | 1486266495.70211 | pgbench_tellers  |            49152
 2017-02-05 04:48:15.702113+01 | 1486266495.70211 | pgbench_history  |                0
 2017-02-05 04:48:15.702113+01 | 1486266495.70211 | pgbench_branches |             8192

 2017-02-05 04:48:16.776241+01 | 1486266496.77624 | pgbench_accounts |       1389355008
 2017-02-05 04:48:16.776241+01 | 1486266496.77624 | pgbench_tellers  |            49152
 2017-02-05 04:48:16.776241+01 | 1486266496.77624 | pgbench_history  |                0
 2017-02-05 04:48:16.776241+01 | 1486266496.77624 | pgbench_branches |             8192

 2017-02-05 04:48:17.847816+01 | 1486266497.84782 | pgbench_accounts |       1389355008
 2017-02-05 04:48:17.847816+01 | 1486266497.84782 | pgbench_tellers  |            49152
 2017-02-05 04:48:17.847816+01 | 1486266497.84782 | pgbench_history  |                0
 2017-02-05 04:48:17.847816+01 | 1486266497.84782 | pgbench_branches |             8192

 2017-02-05 04:48:18.933849+01 | 1486266498.93385 | pgbench_accounts |       1389355008
 2017-02-05 04:48:18.933849+01 | 1486266498.93385 | pgbench_tellers  |            49152
 2017-02-05 04:48:18.933849+01 | 1486266498.93385 | pgbench_history  |                0
 2017-02-05 04:48:18.933849+01 | 1486266498.93385 | pgbench_branches |             8192

 2017-02-05 04:48:20.009219+01 | 1486266500.00922 | pgbench_accounts |       1389355008
 2017-02-05 04:48:20.009219+01 | 1486266500.00922 | pgbench_tellers  |            49152
 2017-02-05 04:48:20.009219+01 | 1486266500.00922 | pgbench_history  |                0
 2017-02-05 04:48:20.009219+01 | 1486266500.00922 | pgbench_branches |             8192

 2017-02-05 04:48:21.090808+01 | 1486266501.09081 | pgbench_accounts |       1389355008
 2017-02-05 04:48:21.090808+01 | 1486266501.09081 | pgbench_tellers  |            49152
 2017-02-05 04:48:21.090808+01 | 1486266501.09081 | pgbench_history  |                0
 2017-02-05 04:48:21.090808+01 | 1486266501.09081 | pgbench_branches |             8192

 2017-02-05 04:48:22.167586+01 | 1486266502.16759 | pgbench_accounts |       1389355008
 2017-02-05 04:48:22.167586+01 | 1486266502.16759 | pgbench_tellers  |            49152
 2017-02-05 04:48:22.167586+01 | 1486266502.16759 | pgbench_history  |                0
 2017-02-05 04:48:22.167586+01 | 1486266502.16759 | pgbench_branches |             8192

 2017-02-05 04:48:23.240397+01 | 1486266503.2404 | pgbench_accounts |       1389355008
 2017-02-05 04:48:23.240397+01 | 1486266503.2404 | pgbench_tellers  |            49152
 2017-02-05 04:48:23.240397+01 | 1486266503.2404 | pgbench_history  |                0
 2017-02-05 04:48:23.240397+01 | 1486266503.2404 | pgbench_branches |             8192

 2017-02-05 04:48:24.314239+01 | 1486266504.31424 | pgbench_accounts |       1389355008
 2017-02-05 04:48:24.314239+01 | 1486266504.31424 | pgbench_tellers  |            49152
 2017-02-05 04:48:24.314239+01 | 1486266504.31424 | pgbench_history  |                0
 2017-02-05 04:48:24.314239+01 | 1486266504.31424 | pgbench_branches |             8192

 2017-02-05 04:48:25.389259+01 | 1486266505.38926 | pgbench_accounts |       1389355008
 2017-02-05 04:48:25.389259+01 | 1486266505.38926 | pgbench_tellers  |            49152
 2017-02-05 04:48:25.389259+01 | 1486266505.38926 | pgbench_history  |                0
 2017-02-05 04:48:25.389259+01 | 1486266505.38926 | pgbench_branches |             8192

 2017-02-05 04:48:26.467527+01 | 1486266506.46753 | pgbench_accounts |       1389355008
 2017-02-05 04:48:26.467527+01 | 1486266506.46753 | pgbench_tellers  |            49152
 2017-02-05 04:48:26.467527+01 | 1486266506.46753 | pgbench_history  |                0
 2017-02-05 04:48:26.467527+01 | 1486266506.46753 | pgbench_branches |             8192

 2017-02-05 04:48:27.539424+01 | 1486266507.53942 | pgbench_accounts |       1389355008
 2017-02-05 04:48:27.539424+01 | 1486266507.53942 | pgbench_tellers  |            49152
 2017-02-05 04:48:27.539424+01 | 1486266507.53942 | pgbench_history  |                0
 2017-02-05 04:48:27.539424+01 | 1486266507.53942 | pgbench_branches |             8192

 2017-02-05 04:48:28.613714+01 | 1486266508.61371 | pgbench_accounts |       1389355008
 2017-02-05 04:48:28.613714+01 | 1486266508.61371 | pgbench_tellers  |            49152
 2017-02-05 04:48:28.613714+01 | 1486266508.61371 | pgbench_history  |                0
 2017-02-05 04:48:28.613714+01 | 1486266508.61371 | pgbench_branches |             8192

 2017-02-05 04:48:29.691089+01 | 1486266509.69109 | pgbench_accounts |       1389355008
 2017-02-05 04:48:29.691089+01 | 1486266509.69109 | pgbench_tellers  |            49152
 2017-02-05 04:48:29.691089+01 | 1486266509.69109 | pgbench_history  |                0
 2017-02-05 04:48:29.691089+01 | 1486266509.69109 | pgbench_branches |             8192

 2017-02-05 04:48:30.764709+01 | 1486266510.76471 | pgbench_accounts |       1389355008
 2017-02-05 04:48:30.764709+01 | 1486266510.76471 | pgbench_tellers  |            49152
 2017-02-05 04:48:30.764709+01 | 1486266510.76471 | pgbench_history  |                0
 2017-02-05 04:48:30.764709+01 | 1486266510.76471 | pgbench_branches |             8192

 2017-02-05 04:48:31.836762+01 | 1486266511.83676 | pgbench_accounts |       1389355008
 2017-02-05 04:48:31.836762+01 | 1486266511.83676 | pgbench_tellers  |            49152
 2017-02-05 04:48:31.836762+01 | 1486266511.83676 | pgbench_history  |                0
 2017-02-05 04:48:31.836762+01 | 1486266511.83676 | pgbench_branches |             8192

 2017-02-05 04:48:32.911988+01 | 1486266512.91199 | pgbench_accounts |       1389355008
 2017-02-05 04:48:32.911988+01 | 1486266512.91199 | pgbench_tellers  |            49152
 2017-02-05 04:48:32.911988+01 | 1486266512.91199 | pgbench_history  |                0
 2017-02-05 04:48:32.911988+01 | 1486266512.91199 | pgbench_branches |             8192

 2017-02-05 04:48:33.986664+01 | 1486266513.98666 | pgbench_accounts |       1389355008
 2017-02-05 04:48:33.986664+01 | 1486266513.98666 | pgbench_tellers  |            49152
 2017-02-05 04:48:33.986664+01 | 1486266513.98666 | pgbench_history  |                0
 2017-02-05 04:48:33.986664+01 | 1486266513.98666 | pgbench_branches |             8192

 2017-02-05 04:48:35.057405+01 | 1486266515.0574 | pgbench_accounts |       1389355008
 2017-02-05 04:48:35.057405+01 | 1486266515.0574 | pgbench_tellers  |            49152
 2017-02-05 04:48:35.057405+01 | 1486266515.0574 | pgbench_history  |                0
 2017-02-05 04:48:35.057405+01 | 1486266515.0574 | pgbench_branches |             8192

 2017-02-05 04:48:36.131168+01 | 1486266516.13117 | pgbench_accounts |       1389355008
 2017-02-05 04:48:36.131168+01 | 1486266516.13117 | pgbench_tellers  |            49152
 2017-02-05 04:48:36.131168+01 | 1486266516.13117 | pgbench_history  |                0
 2017-02-05 04:48:36.131168+01 | 1486266516.13117 | pgbench_branches |             8192

 2017-02-05 04:48:37.206147+01 | 1486266517.20615 | pgbench_accounts |       1389355008
 2017-02-05 04:48:37.206147+01 | 1486266517.20615 | pgbench_tellers  |            49152
 2017-02-05 04:48:37.206147+01 | 1486266517.20615 | pgbench_history  |                0
 2017-02-05 04:48:37.206147+01 | 1486266517.20615 | pgbench_branches |             8192

 2017-02-05 04:48:38.290481+01 | 1486266518.29048 | pgbench_accounts |       1389355008
 2017-02-05 04:48:38.290481+01 | 1486266518.29048 | pgbench_tellers  |            49152
 2017-02-05 04:48:38.290481+01 | 1486266518.29048 | pgbench_history  |                0
 2017-02-05 04:48:38.290481+01 | 1486266518.29048 | pgbench_branches |             8192

 2017-02-05 04:48:39.359772+01 | 1486266519.35977 | pgbench_accounts |       1389355008
 2017-02-05 04:48:39.359772+01 | 1486266519.35977 | pgbench_tellers  |            49152
 2017-02-05 04:48:39.359772+01 | 1486266519.35977 | pgbench_history  |                0
 2017-02-05 04:48:39.359772+01 | 1486266519.35977 | pgbench_branches |             8192

 2017-02-05 04:48:40.444878+01 | 1486266520.44488 | pgbench_accounts |       1389355008
 2017-02-05 04:48:40.444878+01 | 1486266520.44488 | pgbench_tellers  |            49152
 2017-02-05 04:48:40.444878+01 | 1486266520.44488 | pgbench_history  |                0
 2017-02-05 04:48:40.444878+01 | 1486266520.44488 | pgbench_branches |             8192

 2017-02-05 04:48:41.523989+01 | 1486266521.52399 | pgbench_accounts |       1389355008
 2017-02-05 04:48:41.523989+01 | 1486266521.52399 | pgbench_tellers  |            49152
 2017-02-05 04:48:41.523989+01 | 1486266521.52399 | pgbench_history  |                0
 2017-02-05 04:48:41.523989+01 | 1486266521.52399 | pgbench_branches |             8192

 2017-02-05 04:48:42.59625+01 | 1486266522.59625 | pgbench_accounts |       1389355008
 2017-02-05 04:48:42.59625+01 | 1486266522.59625 | pgbench_tellers  |            49152
 2017-02-05 04:48:42.59625+01 | 1486266522.59625 | pgbench_history  |                0
 2017-02-05 04:48:42.59625+01 | 1486266522.59625 | pgbench_branches |             8192

 2017-02-05 04:48:43.672193+01 | 1486266523.67219 | pgbench_accounts |       1389355008
 2017-02-05 04:48:43.672193+01 | 1486266523.67219 | pgbench_tellers  |            49152
 2017-02-05 04:48:43.672193+01 | 1486266523.67219 | pgbench_history  |                0
 2017-02-05 04:48:43.672193+01 | 1486266523.67219 | pgbench_branches |             8192

 2017-02-05 04:48:44.743628+01 | 1486266524.74363 | pgbench_accounts |       1389355008
 2017-02-05 04:48:44.743628+01 | 1486266524.74363 | pgbench_tellers  |            49152
 2017-02-05 04:48:44.743628+01 | 1486266524.74363 | pgbench_history  |                0
 2017-02-05 04:48:44.743628+01 | 1486266524.74363 | pgbench_branches |             8192

 2017-02-05 04:48:45.817877+01 | 1486266525.81788 | pgbench_accounts |       1389355008
 2017-02-05 04:48:45.817877+01 | 1486266525.81788 | pgbench_tellers  |            49152
 2017-02-05 04:48:45.817877+01 | 1486266525.81788 | pgbench_history  |                0
 2017-02-05 04:48:45.817877+01 | 1486266525.81788 | pgbench_branches |             8192

 2017-02-05 04:48:46.892474+01 | 1486266526.89247 | pgbench_accounts |       1389355008
 2017-02-05 04:48:46.892474+01 | 1486266526.89247 | pgbench_tellers  |            49152
 2017-02-05 04:48:46.892474+01 | 1486266526.89247 | pgbench_history  |                0
 2017-02-05 04:48:46.892474+01 | 1486266526.89247 | pgbench_branches |             8192

 2017-02-05 04:48:47.966698+01 | 1486266527.9667 | pgbench_accounts |       1389355008
 2017-02-05 04:48:47.966698+01 | 1486266527.9667 | pgbench_tellers  |            49152
 2017-02-05 04:48:47.966698+01 | 1486266527.9667 | pgbench_history  |                0
 2017-02-05 04:48:47.966698+01 | 1486266527.9667 | pgbench_branches |             8192

 2017-02-05 04:48:49.043211+01 | 1486266529.04321 | pgbench_accounts |       1389355008
 2017-02-05 04:48:49.043211+01 | 1486266529.04321 | pgbench_tellers  |            49152
 2017-02-05 04:48:49.043211+01 | 1486266529.04321 | pgbench_history  |                0
 2017-02-05 04:48:49.043211+01 | 1486266529.04321 | pgbench_branches |             8192

 2017-02-05 04:48:50.115963+01 | 1486266530.11596 | pgbench_accounts |       1389355008
 2017-02-05 04:48:50.115963+01 | 1486266530.11596 | pgbench_tellers  |            49152
 2017-02-05 04:48:50.115963+01 | 1486266530.11596 | pgbench_history  |                0
 2017-02-05 04:48:50.115963+01 | 1486266530.11596 | pgbench_branches |             8192

 2017-02-05 04:48:51.187673+01 | 1486266531.18767 | pgbench_accounts |       1389355008
 2017-02-05 04:48:51.187673+01 | 1486266531.18767 | pgbench_tellers  |            49152
 2017-02-05 04:48:51.187673+01 | 1486266531.18767 | pgbench_history  |                0
 2017-02-05 04:48:51.187673+01 | 1486266531.18767 | pgbench_branches |             8192

 2017-02-05 04:48:52.261342+01 | 1486266532.26134 | pgbench_accounts |       1389355008
 2017-02-05 04:48:52.261342+01 | 1486266532.26134 | pgbench_tellers  |            49152
 2017-02-05 04:48:52.261342+01 | 1486266532.26134 | pgbench_history  |                0
 2017-02-05 04:48:52.261342+01 | 1486266532.26134 | pgbench_branches |             8192

 2017-02-05 04:48:53.336521+01 | 1486266533.33652 | pgbench_accounts |       1389355008
 2017-02-05 04:48:53.336521+01 | 1486266533.33652 | pgbench_tellers  |            49152
 2017-02-05 04:48:53.336521+01 | 1486266533.33652 | pgbench_history  |                0
 2017-02-05 04:48:53.336521+01 | 1486266533.33652 | pgbench_branches |             8192

 2017-02-05 04:48:54.414103+01 | 1486266534.4141 | pgbench_accounts |       1389355008
 2017-02-05 04:48:54.414103+01 | 1486266534.4141 | pgbench_tellers  |            49152
 2017-02-05 04:48:54.414103+01 | 1486266534.4141 | pgbench_history  |                0
 2017-02-05 04:48:54.414103+01 | 1486266534.4141 | pgbench_branches |             8192

 2017-02-05 04:48:55.48832+01 | 1486266535.48832 | pgbench_accounts |       1389355008
 2017-02-05 04:48:55.48832+01 | 1486266535.48832 | pgbench_tellers  |            49152
 2017-02-05 04:48:55.48832+01 | 1486266535.48832 | pgbench_history  |                0
 2017-02-05 04:48:55.48832+01 | 1486266535.48832 | pgbench_branches |             8192

 2017-02-05 04:48:56.563639+01 | 1486266536.56364 | pgbench_accounts |       1389355008
 2017-02-05 04:48:56.563639+01 | 1486266536.56364 | pgbench_tellers  |            49152
 2017-02-05 04:48:56.563639+01 | 1486266536.56364 | pgbench_history  |                0
 2017-02-05 04:48:56.563639+01 | 1486266536.56364 | pgbench_branches |             8192

 2017-02-05 04:48:57.633546+01 | 1486266537.63355 | pgbench_accounts |       1389355008
 2017-02-05 04:48:57.633546+01 | 1486266537.63355 | pgbench_tellers  |            49152
 2017-02-05 04:48:57.633546+01 | 1486266537.63355 | pgbench_history  |                0
 2017-02-05 04:48:57.633546+01 | 1486266537.63355 | pgbench_branches |             8192

 2017-02-05 04:48:58.710894+01 | 1486266538.71089 | pgbench_accounts |       1389355008
 2017-02-05 04:48:58.710894+01 | 1486266538.71089 | pgbench_tellers  |            49152
 2017-02-05 04:48:58.710894+01 | 1486266538.71089 | pgbench_history  |                0
 2017-02-05 04:48:58.710894+01 | 1486266538.71089 | pgbench_branches |             8192

 2017-02-05 04:48:59.795226+01 | 1486266539.79523 | pgbench_accounts |       1389355008
 2017-02-05 04:48:59.795226+01 | 1486266539.79523 | pgbench_tellers  |            49152
 2017-02-05 04:48:59.795226+01 | 1486266539.79523 | pgbench_history  |                0
 2017-02-05 04:48:59.795226+01 | 1486266539.79523 | pgbench_branches |             8192

 2017-02-05 04:49:00.871886+01 | 1486266540.87189 | pgbench_accounts |       1389355008
 2017-02-05 04:49:00.871886+01 | 1486266540.87189 | pgbench_tellers  |            49152
 2017-02-05 04:49:00.871886+01 | 1486266540.87189 | pgbench_history  |                0
 2017-02-05 04:49:00.871886+01 | 1486266540.87189 | pgbench_branches |             8192

 2017-02-05 04:49:01.948043+01 | 1486266541.94804 | pgbench_accounts |       1389355008
 2017-02-05 04:49:01.948043+01 | 1486266541.94804 | pgbench_tellers  |            49152
 2017-02-05 04:49:01.948043+01 | 1486266541.94804 | pgbench_history  |                0
 2017-02-05 04:49:01.948043+01 | 1486266541.94804 | pgbench_branches |             8192

 2017-02-05 04:49:03.028305+01 | 1486266543.02831 | pgbench_accounts |       1389355008
 2017-02-05 04:49:03.028305+01 | 1486266543.02831 | pgbench_tellers  |            49152
 2017-02-05 04:49:03.028305+01 | 1486266543.02831 | pgbench_history  |                0
 2017-02-05 04:49:03.028305+01 | 1486266543.02831 | pgbench_branches |             8192

 2017-02-05 04:49:04.101023+01 | 1486266544.10102 | pgbench_accounts |       1389355008
 2017-02-05 04:49:04.101023+01 | 1486266544.10102 | pgbench_tellers  |            49152
 2017-02-05 04:49:04.101023+01 | 1486266544.10102 | pgbench_history  |                0
 2017-02-05 04:49:04.101023+01 | 1486266544.10102 | pgbench_branches |             8192

 2017-02-05 04:49:05.176325+01 | 1486266545.17633 | pgbench_accounts |       1389355008
 2017-02-05 04:49:05.176325+01 | 1486266545.17633 | pgbench_tellers  |            49152
 2017-02-05 04:49:05.176325+01 | 1486266545.17633 | pgbench_history  |                0
 2017-02-05 04:49:05.176325+01 | 1486266545.17633 | pgbench_branches |             8192

 2017-02-05 04:49:06.251116+01 | 1486266546.25112 | pgbench_accounts |       1389355008
 2017-02-05 04:49:06.251116+01 | 1486266546.25112 | pgbench_tellers  |            49152
 2017-02-05 04:49:06.251116+01 | 1486266546.25112 | pgbench_history  |                0
 2017-02-05 04:49:06.251116+01 | 1486266546.25112 | pgbench_branches |             8192

 2017-02-05 04:49:07.324361+01 | 1486266547.32436 | pgbench_accounts |       1389355008
 2017-02-05 04:49:07.324361+01 | 1486266547.32436 | pgbench_tellers  |            49152
 2017-02-05 04:49:07.324361+01 | 1486266547.32436 | pgbench_history  |                0
 2017-02-05 04:49:07.324361+01 | 1486266547.32436 | pgbench_branches |             8192

 2017-02-05 04:49:08.400319+01 | 1486266548.40032 | pgbench_accounts |       1389355008
 2017-02-05 04:49:08.400319+01 | 1486266548.40032 | pgbench_tellers  |            49152
 2017-02-05 04:49:08.400319+01 | 1486266548.40032 | pgbench_history  |                0
 2017-02-05 04:49:08.400319+01 | 1486266548.40032 | pgbench_branches |             8192

 2017-02-05 04:49:09.476241+01 | 1486266549.47624 | pgbench_accounts |       1389355008
 2017-02-05 04:49:09.476241+01 | 1486266549.47624 | pgbench_tellers  |            49152
 2017-02-05 04:49:09.476241+01 | 1486266549.47624 | pgbench_history  |                0
 2017-02-05 04:49:09.476241+01 | 1486266549.47624 | pgbench_branches |             8192

 2017-02-05 04:49:10.55119+01 | 1486266550.55119 | pgbench_accounts |       1389355008
 2017-02-05 04:49:10.55119+01 | 1486266550.55119 | pgbench_tellers  |            49152
 2017-02-05 04:49:10.55119+01 | 1486266550.55119 | pgbench_history  |                0
 2017-02-05 04:49:10.55119+01 | 1486266550.55119 | pgbench_branches |             8192

 2017-02-05 04:49:11.627105+01 | 1486266551.6271 | pgbench_accounts |       1389355008
 2017-02-05 04:49:11.627105+01 | 1486266551.6271 | pgbench_tellers  |            49152
 2017-02-05 04:49:11.627105+01 | 1486266551.6271 | pgbench_history  |                0
 2017-02-05 04:49:11.627105+01 | 1486266551.6271 | pgbench_branches |             8192

 2017-02-05 04:49:12.701534+01 | 1486266552.70153 | pgbench_accounts |       1389355008
 2017-02-05 04:49:12.701534+01 | 1486266552.70153 | pgbench_tellers  |            49152
 2017-02-05 04:49:12.701534+01 | 1486266552.70153 | pgbench_history  |                0
 2017-02-05 04:49:12.701534+01 | 1486266552.70153 | pgbench_branches |             8192

 2017-02-05 04:49:13.775181+01 | 1486266553.77518 | pgbench_accounts |       1389355008
 2017-02-05 04:49:13.775181+01 | 1486266553.77518 | pgbench_tellers  |            49152
 2017-02-05 04:49:13.775181+01 | 1486266553.77518 | pgbench_history  |                0
 2017-02-05 04:49:13.775181+01 | 1486266553.77518 | pgbench_branches |             8192

 2017-02-05 04:49:14.845524+01 | 1486266554.84552 | pgbench_accounts |       1389355008
 2017-02-05 04:49:14.845524+01 | 1486266554.84552 | pgbench_tellers  |            49152
 2017-02-05 04:49:14.845524+01 | 1486266554.84552 | pgbench_history  |                0
 2017-02-05 04:49:14.845524+01 | 1486266554.84552 | pgbench_branches |             8192

 2017-02-05 04:49:15.920235+01 | 1486266555.92023 | pgbench_accounts |       1389355008
 2017-02-05 04:49:15.920235+01 | 1486266555.92023 | pgbench_tellers  |            49152
 2017-02-05 04:49:15.920235+01 | 1486266555.92023 | pgbench_history  |                0
 2017-02-05 04:49:15.920235+01 | 1486266555.92023 | pgbench_branches |             8192

 2017-02-05 04:49:16.993667+01 | 1486266556.99367 | pgbench_accounts |       1389355008
 2017-02-05 04:49:16.993667+01 | 1486266556.99367 | pgbench_tellers  |            49152
 2017-02-05 04:49:16.993667+01 | 1486266556.99367 | pgbench_history  |                0
 2017-02-05 04:49:16.993667+01 | 1486266556.99367 | pgbench_branches |             8192

 2017-02-05 04:49:18.069635+01 | 1486266558.06963 | pgbench_accounts |       1389355008
 2017-02-05 04:49:18.069635+01 | 1486266558.06963 | pgbench_tellers  |            49152
 2017-02-05 04:49:18.069635+01 | 1486266558.06963 | pgbench_history  |                0
 2017-02-05 04:49:18.069635+01 | 1486266558.06963 | pgbench_branches |             8192

 2017-02-05 04:49:19.142366+01 | 1486266559.14237 | pgbench_accounts |       1389355008
 2017-02-05 04:49:19.142366+01 | 1486266559.14237 | pgbench_tellers  |            49152
 2017-02-05 04:49:19.142366+01 | 1486266559.14237 | pgbench_history  |                0
 2017-02-05 04:49:19.142366+01 | 1486266559.14237 | pgbench_branches |             8192

 2017-02-05 04:49:20.213085+01 | 1486266560.21308 | pgbench_accounts |       1389355008
 2017-02-05 04:49:20.213085+01 | 1486266560.21308 | pgbench_tellers  |            49152
 2017-02-05 04:49:20.213085+01 | 1486266560.21308 | pgbench_history  |                0
 2017-02-05 04:49:20.213085+01 | 1486266560.21308 | pgbench_branches |             8192

 2017-02-05 04:49:21.286578+01 | 1486266561.28658 | pgbench_accounts |       1389355008
 2017-02-05 04:49:21.286578+01 | 1486266561.28658 | pgbench_tellers  |            49152
 2017-02-05 04:49:21.286578+01 | 1486266561.28658 | pgbench_history  |                0
 2017-02-05 04:49:21.286578+01 | 1486266561.28658 | pgbench_branches |             8192

 2017-02-05 04:49:22.358871+01 | 1486266562.35887 | pgbench_accounts |       1389355008
 2017-02-05 04:49:22.358871+01 | 1486266562.35887 | pgbench_tellers  |            49152
 2017-02-05 04:49:22.358871+01 | 1486266562.35887 | pgbench_history  |                0
 2017-02-05 04:49:22.358871+01 | 1486266562.35887 | pgbench_branches |             8192

 2017-02-05 04:49:23.440174+01 | 1486266563.44017 | pgbench_accounts |       1389355008
 2017-02-05 04:49:23.440174+01 | 1486266563.44017 | pgbench_tellers  |            49152
 2017-02-05 04:49:23.440174+01 | 1486266563.44017 | pgbench_history  |                0
 2017-02-05 04:49:23.440174+01 | 1486266563.44017 | pgbench_branches |             8192

 2017-02-05 04:49:24.516877+01 | 1486266564.51688 | pgbench_accounts |       1389355008
 2017-02-05 04:49:24.516877+01 | 1486266564.51688 | pgbench_tellers  |            49152
 2017-02-05 04:49:24.516877+01 | 1486266564.51688 | pgbench_history  |                0
 2017-02-05 04:49:24.516877+01 | 1486266564.51688 | pgbench_branches |             8192

 2017-02-05 04:49:25.596987+01 | 1486266565.59699 | pgbench_accounts |       1389355008
 2017-02-05 04:49:25.596987+01 | 1486266565.59699 | pgbench_tellers  |            49152
 2017-02-05 04:49:25.596987+01 | 1486266565.59699 | pgbench_history  |                0
 2017-02-05 04:49:25.596987+01 | 1486266565.59699 | pgbench_branches |             8192

 2017-02-05 04:49:26.669259+01 | 1486266566.66926 | pgbench_accounts |       1389355008
 2017-02-05 04:49:26.669259+01 | 1486266566.66926 | pgbench_tellers  |            49152
 2017-02-05 04:49:26.669259+01 | 1486266566.66926 | pgbench_history  |                0
 2017-02-05 04:49:26.669259+01 | 1486266566.66926 | pgbench_branches |             8192

 2017-02-05 04:49:27.745346+01 | 1486266567.74535 | pgbench_accounts |       1389355008
 2017-02-05 04:49:27.745346+01 | 1486266567.74535 | pgbench_tellers  |            49152
 2017-02-05 04:49:27.745346+01 | 1486266567.74535 | pgbench_history  |                0
 2017-02-05 04:49:27.745346+01 | 1486266567.74535 | pgbench_branches |             8192

 2017-02-05 04:49:28.814746+01 | 1486266568.81475 | pgbench_accounts |       1389355008
 2017-02-05 04:49:28.814746+01 | 1486266568.81475 | pgbench_tellers  |            49152
 2017-02-05 04:49:28.814746+01 | 1486266568.81475 | pgbench_history  |                0
 2017-02-05 04:49:28.814746+01 | 1486266568.81475 | pgbench_branches |             8192

 2017-02-05 04:49:29.896718+01 | 1486266569.89672 | pgbench_accounts |       1389355008
 2017-02-05 04:49:29.896718+01 | 1486266569.89672 | pgbench_tellers  |            49152
 2017-02-05 04:49:29.896718+01 | 1486266569.89672 | pgbench_history  |                0
 2017-02-05 04:49:29.896718+01 | 1486266569.89672 | pgbench_branches |             8192

 2017-02-05 04:49:30.976118+01 | 1486266570.97612 | pgbench_accounts |       1389355008
 2017-02-05 04:49:30.976118+01 | 1486266570.97612 | pgbench_tellers  |            49152
 2017-02-05 04:49:30.976118+01 | 1486266570.97612 | pgbench_history  |                0
 2017-02-05 04:49:30.976118+01 | 1486266570.97612 | pgbench_branches |             8192

 2017-02-05 04:49:32.047528+01 | 1486266572.04753 | pgbench_accounts |       1389355008
 2017-02-05 04:49:32.047528+01 | 1486266572.04753 | pgbench_tellers  |            49152
 2017-02-05 04:49:32.047528+01 | 1486266572.04753 | pgbench_history  |                0
 2017-02-05 04:49:32.047528+01 | 1486266572.04753 | pgbench_branches |             8192

 2017-02-05 04:49:33.117394+01 | 1486266573.11739 | pgbench_accounts |       1389355008
 2017-02-05 04:49:33.117394+01 | 1486266573.11739 | pgbench_tellers  |            49152
 2017-02-05 04:49:33.117394+01 | 1486266573.11739 | pgbench_history  |                0
 2017-02-05 04:49:33.117394+01 | 1486266573.11739 | pgbench_branches |             8192

 2017-02-05 04:49:34.196389+01 | 1486266574.19639 | pgbench_accounts |       1389355008
 2017-02-05 04:49:34.196389+01 | 1486266574.19639 | pgbench_tellers  |            49152
 2017-02-05 04:49:34.196389+01 | 1486266574.19639 | pgbench_history  |                0
 2017-02-05 04:49:34.196389+01 | 1486266574.19639 | pgbench_branches |             8192

 2017-02-05 04:49:35.273905+01 | 1486266575.27391 | pgbench_accounts |       1389355008
 2017-02-05 04:49:35.273905+01 | 1486266575.27391 | pgbench_tellers  |            49152
 2017-02-05 04:49:35.273905+01 | 1486266575.27391 | pgbench_history  |                0
 2017-02-05 04:49:35.273905+01 | 1486266575.27391 | pgbench_branches |             8192

 2017-02-05 04:49:36.344726+01 | 1486266576.34473 | pgbench_accounts |       1389355008
 2017-02-05 04:49:36.344726+01 | 1486266576.34473 | pgbench_tellers  |            49152
 2017-02-05 04:49:36.344726+01 | 1486266576.34473 | pgbench_history  |                0
 2017-02-05 04:49:36.344726+01 | 1486266576.34473 | pgbench_branches |             8192

 2017-02-05 04:49:37.420818+01 | 1486266577.42082 | pgbench_accounts |       1389355008
 2017-02-05 04:49:37.420818+01 | 1486266577.42082 | pgbench_tellers  |            49152
 2017-02-05 04:49:37.420818+01 | 1486266577.42082 | pgbench_history  |                0
 2017-02-05 04:49:37.420818+01 | 1486266577.42082 | pgbench_branches |             8192

 2017-02-05 04:49:38.49105+01 | 1486266578.49105 | pgbench_accounts |       1389355008
 2017-02-05 04:49:38.49105+01 | 1486266578.49105 | pgbench_tellers  |            49152
 2017-02-05 04:49:38.49105+01 | 1486266578.49105 | pgbench_history  |                0
 2017-02-05 04:49:38.49105+01 | 1486266578.49105 | pgbench_branches |             8192

 2017-02-05 04:49:39.556132+01 | 1486266579.55613 | pgbench_accounts |       1389355008
 2017-02-05 04:49:39.556132+01 | 1486266579.55613 | pgbench_tellers  |            49152
 2017-02-05 04:49:39.556132+01 | 1486266579.55613 | pgbench_history  |                0
 2017-02-05 04:49:39.556132+01 | 1486266579.55613 | pgbench_branches |             8192

 2017-02-05 04:49:40.639175+01 | 1486266580.63917 | pgbench_accounts |       1389355008
 2017-02-05 04:49:40.639175+01 | 1486266580.63917 | pgbench_tellers  |            49152
 2017-02-05 04:49:40.639175+01 | 1486266580.63917 | pgbench_history  |                0
 2017-02-05 04:49:40.639175+01 | 1486266580.63917 | pgbench_branches |             8192

 2017-02-05 04:49:41.71+01 | 1486266581.71 | pgbench_accounts |       1389355008
 2017-02-05 04:49:41.71+01 | 1486266581.71 | pgbench_tellers  |            49152
 2017-02-05 04:49:41.71+01 | 1486266581.71 | pgbench_history  |                0
 2017-02-05 04:49:41.71+01 | 1486266581.71 | pgbench_branches |             8192

 2017-02-05 04:49:42.783+01 | 1486266582.783 | pgbench_accounts |       1389355008
 2017-02-05 04:49:42.783+01 | 1486266582.783 | pgbench_tellers  |            49152
 2017-02-05 04:49:42.783+01 | 1486266582.783 | pgbench_history  |                0
 2017-02-05 04:49:42.783+01 | 1486266582.783 | pgbench_branches |             8192

 2017-02-05 04:49:43.862426+01 | 1486266583.86243 | pgbench_accounts |       1389355008
 2017-02-05 04:49:43.862426+01 | 1486266583.86243 | pgbench_tellers  |            49152
 2017-02-05 04:49:43.862426+01 | 1486266583.86243 | pgbench_history  |                0
 2017-02-05 04:49:43.862426+01 | 1486266583.86243 | pgbench_branches |             8192

 2017-02-05 04:49:44.936541+01 | 1486266584.93654 | pgbench_accounts |       1389355008
 2017-02-05 04:49:44.936541+01 | 1486266584.93654 | pgbench_tellers  |            49152
 2017-02-05 04:49:44.936541+01 | 1486266584.93654 | pgbench_history  |                0
 2017-02-05 04:49:44.936541+01 | 1486266584.93654 | pgbench_branches |             8192

 2017-02-05 04:49:46.013033+01 | 1486266586.01303 | pgbench_accounts |       1389355008
 2017-02-05 04:49:46.013033+01 | 1486266586.01303 | pgbench_tellers  |            49152
 2017-02-05 04:49:46.013033+01 | 1486266586.01303 | pgbench_history  |                0
 2017-02-05 04:49:46.013033+01 | 1486266586.01303 | pgbench_branches |             8192

 2017-02-05 04:49:47.085437+01 | 1486266587.08544 | pgbench_accounts |       1389355008
 2017-02-05 04:49:47.085437+01 | 1486266587.08544 | pgbench_tellers  |            49152
 2017-02-05 04:49:47.085437+01 | 1486266587.08544 | pgbench_history  |                0
 2017-02-05 04:49:47.085437+01 | 1486266587.08544 | pgbench_branches |             8192

 2017-02-05 04:49:48.164796+01 | 1486266588.1648 | pgbench_accounts |       1389355008
 2017-02-05 04:49:48.164796+01 | 1486266588.1648 | pgbench_tellers  |            49152
 2017-02-05 04:49:48.164796+01 | 1486266588.1648 | pgbench_history  |                0
 2017-02-05 04:49:48.164796+01 | 1486266588.1648 | pgbench_branches |             8192

 2017-02-05 04:49:49.237782+01 | 1486266589.23778 | pgbench_accounts |       1389355008
 2017-02-05 04:49:49.237782+01 | 1486266589.23778 | pgbench_tellers  |            49152
 2017-02-05 04:49:49.237782+01 | 1486266589.23778 | pgbench_history  |                0
 2017-02-05 04:49:49.237782+01 | 1486266589.23778 | pgbench_branches |             8192

 2017-02-05 04:49:50.305128+01 | 1486266590.30513 | pgbench_accounts |       1389355008
 2017-02-05 04:49:50.305128+01 | 1486266590.30513 | pgbench_tellers  |            49152
 2017-02-05 04:49:50.305128+01 | 1486266590.30513 | pgbench_history  |                0
 2017-02-05 04:49:50.305128+01 | 1486266590.30513 | pgbench_branches |             8192

 2017-02-05 04:49:51.379437+01 | 1486266591.37944 | pgbench_accounts |       1389355008
 2017-02-05 04:49:51.379437+01 | 1486266591.37944 | pgbench_tellers  |            49152
 2017-02-05 04:49:51.379437+01 | 1486266591.37944 | pgbench_history  |                0
 2017-02-05 04:49:51.379437+01 | 1486266591.37944 | pgbench_branches |             8192

 2017-02-05 04:49:52.451208+01 | 1486266592.45121 | pgbench_accounts |       1389355008
 2017-02-05 04:49:52.451208+01 | 1486266592.45121 | pgbench_tellers  |            49152
 2017-02-05 04:49:52.451208+01 | 1486266592.45121 | pgbench_history  |                0
 2017-02-05 04:49:52.451208+01 | 1486266592.45121 | pgbench_branches |             8192

 2017-02-05 04:49:53.528379+01 | 1486266593.52838 | pgbench_accounts |       1389355008
 2017-02-05 04:49:53.528379+01 | 1486266593.52838 | pgbench_tellers  |            49152
 2017-02-05 04:49:53.528379+01 | 1486266593.52838 | pgbench_history  |                0
 2017-02-05 04:49:53.528379+01 | 1486266593.52838 | pgbench_branches |             8192

 2017-02-05 04:49:54.601878+01 | 1486266594.60188 | pgbench_accounts |       1389355008
 2017-02-05 04:49:54.601878+01 | 1486266594.60188 | pgbench_tellers  |            49152
 2017-02-05 04:49:54.601878+01 | 1486266594.60188 | pgbench_history  |                0
 2017-02-05 04:49:54.601878+01 | 1486266594.60188 | pgbench_branches |             8192

 2017-02-05 04:49:55.675615+01 | 1486266595.67562 | pgbench_accounts |       1389355008
 2017-02-05 04:49:55.675615+01 | 1486266595.67562 | pgbench_tellers  |            49152
 2017-02-05 04:49:55.675615+01 | 1486266595.67562 | pgbench_history  |                0
 2017-02-05 04:49:55.675615+01 | 1486266595.67562 | pgbench_branches |             8192

 2017-02-05 04:49:56.749161+01 | 1486266596.74916 | pgbench_accounts |       1389355008
 2017-02-05 04:49:56.749161+01 | 1486266596.74916 | pgbench_tellers  |            49152
 2017-02-05 04:49:56.749161+01 | 1486266596.74916 | pgbench_history  |                0
 2017-02-05 04:49:56.749161+01 | 1486266596.74916 | pgbench_branches |             8192

 2017-02-05 04:49:57.819707+01 | 1486266597.81971 | pgbench_accounts |       1389355008
 2017-02-05 04:49:57.819707+01 | 1486266597.81971 | pgbench_tellers  |            49152
 2017-02-05 04:49:57.819707+01 | 1486266597.81971 | pgbench_history  |                0
 2017-02-05 04:49:57.819707+01 | 1486266597.81971 | pgbench_branches |             8192

 2017-02-05 04:49:58.894126+01 | 1486266598.89413 | pgbench_accounts |       1389355008
 2017-02-05 04:49:58.894126+01 | 1486266598.89413 | pgbench_tellers  |            49152
 2017-02-05 04:49:58.894126+01 | 1486266598.89413 | pgbench_history  |                0
 2017-02-05 04:49:58.894126+01 | 1486266598.89413 | pgbench_branches |             8192

 2017-02-05 04:49:59.971219+01 | 1486266599.97122 | pgbench_accounts |       1389355008
 2017-02-05 04:49:59.971219+01 | 1486266599.97122 | pgbench_tellers  |            49152
 2017-02-05 04:49:59.971219+01 | 1486266599.97122 | pgbench_history  |                0
 2017-02-05 04:49:59.971219+01 | 1486266599.97122 | pgbench_branches |             8192

 2017-02-05 04:50:01.043017+01 | 1486266601.04302 | pgbench_accounts |       1389355008
 2017-02-05 04:50:01.043017+01 | 1486266601.04302 | pgbench_tellers  |            49152
 2017-02-05 04:50:01.043017+01 | 1486266601.04302 | pgbench_history  |                0
 2017-02-05 04:50:01.043017+01 | 1486266601.04302 | pgbench_branches |             8192

 2017-02-05 04:50:02.11685+01 | 1486266602.11685 | pgbench_accounts |       1389355008
 2017-02-05 04:50:02.11685+01 | 1486266602.11685 | pgbench_tellers  |            49152
 2017-02-05 04:50:02.11685+01 | 1486266602.11685 | pgbench_history  |                0
 2017-02-05 04:50:02.11685+01 | 1486266602.11685 | pgbench_branches |             8192

 2017-02-05 04:50:03.189252+01 | 1486266603.18925 | pgbench_accounts |       1389355008
 2017-02-05 04:50:03.189252+01 | 1486266603.18925 | pgbench_tellers  |            49152
 2017-02-05 04:50:03.189252+01 | 1486266603.18925 | pgbench_history  |                0
 2017-02-05 04:50:03.189252+01 | 1486266603.18925 | pgbench_branches |             8192

 2017-02-05 04:50:04.264289+01 | 1486266604.26429 | pgbench_accounts |       1389355008
 2017-02-05 04:50:04.264289+01 | 1486266604.26429 | pgbench_tellers  |            49152
 2017-02-05 04:50:04.264289+01 | 1486266604.26429 | pgbench_history  |                0
 2017-02-05 04:50:04.264289+01 | 1486266604.26429 | pgbench_branches |             8192

 2017-02-05 04:50:05.337125+01 | 1486266605.33713 | pgbench_accounts |       1389355008
 2017-02-05 04:50:05.337125+01 | 1486266605.33713 | pgbench_tellers  |            49152
 2017-02-05 04:50:05.337125+01 | 1486266605.33713 | pgbench_history  |                0
 2017-02-05 04:50:05.337125+01 | 1486266605.33713 | pgbench_branches |             8192

 2017-02-05 04:50:06.408124+01 | 1486266606.40812 | pgbench_accounts |       1389355008
 2017-02-05 04:50:06.408124+01 | 1486266606.40812 | pgbench_tellers  |            49152
 2017-02-05 04:50:06.408124+01 | 1486266606.40812 | pgbench_history  |                0
 2017-02-05 04:50:06.408124+01 | 1486266606.40812 | pgbench_branches |             8192

 2017-02-05 04:50:07.48253+01 | 1486266607.48253 | pgbench_accounts |       1389355008
 2017-02-05 04:50:07.48253+01 | 1486266607.48253 | pgbench_tellers  |            49152
 2017-02-05 04:50:07.48253+01 | 1486266607.48253 | pgbench_history  |                0
 2017-02-05 04:50:07.48253+01 | 1486266607.48253 | pgbench_branches |             8192

 2017-02-05 04:50:08.558451+01 | 1486266608.55845 | pgbench_accounts |       1389355008
 2017-02-05 04:50:08.558451+01 | 1486266608.55845 | pgbench_tellers  |            49152
 2017-02-05 04:50:08.558451+01 | 1486266608.55845 | pgbench_history  |                0
 2017-02-05 04:50:08.558451+01 | 1486266608.55845 | pgbench_branches |             8192

 2017-02-05 04:50:09.639618+01 | 1486266609.63962 | pgbench_accounts |       1389355008
 2017-02-05 04:50:09.639618+01 | 1486266609.63962 | pgbench_tellers  |            49152
 2017-02-05 04:50:09.639618+01 | 1486266609.63962 | pgbench_history  |                0
 2017-02-05 04:50:09.639618+01 | 1486266609.63962 | pgbench_branches |             8192

 2017-02-05 04:50:10.718354+01 | 1486266610.71835 | pgbench_accounts |       1389355008
 2017-02-05 04:50:10.718354+01 | 1486266610.71835 | pgbench_tellers  |            49152
 2017-02-05 04:50:10.718354+01 | 1486266610.71835 | pgbench_history  |                0
 2017-02-05 04:50:10.718354+01 | 1486266610.71835 | pgbench_branches |             8192

 2017-02-05 04:50:11.787353+01 | 1486266611.78735 | pgbench_accounts |       1389355008
 2017-02-05 04:50:11.787353+01 | 1486266611.78735 | pgbench_tellers  |            49152
 2017-02-05 04:50:11.787353+01 | 1486266611.78735 | pgbench_history  |                0
 2017-02-05 04:50:11.787353+01 | 1486266611.78735 | pgbench_branches |             8192

 2017-02-05 04:50:12.864554+01 | 1486266612.86455 | pgbench_accounts |       1389355008
 2017-02-05 04:50:12.864554+01 | 1486266612.86455 | pgbench_tellers  |            49152
 2017-02-05 04:50:12.864554+01 | 1486266612.86455 | pgbench_history  |                0
 2017-02-05 04:50:12.864554+01 | 1486266612.86455 | pgbench_branches |             8192

 2017-02-05 04:50:13.942562+01 | 1486266613.94256 | pgbench_accounts |       1389355008
 2017-02-05 04:50:13.942562+01 | 1486266613.94256 | pgbench_tellers  |            49152
 2017-02-05 04:50:13.942562+01 | 1486266613.94256 | pgbench_history  |                0
 2017-02-05 04:50:13.942562+01 | 1486266613.94256 | pgbench_branches |             8192

 2017-02-05 04:50:15.013559+01 | 1486266615.01356 | pgbench_accounts |       1389355008
 2017-02-05 04:50:15.013559+01 | 1486266615.01356 | pgbench_tellers  |            49152
 2017-02-05 04:50:15.013559+01 | 1486266615.01356 | pgbench_history  |                0
 2017-02-05 04:50:15.013559+01 | 1486266615.01356 | pgbench_branches |             8192

 2017-02-05 04:50:16.093286+01 | 1486266616.09329 | pgbench_accounts |       1389355008
 2017-02-05 04:50:16.093286+01 | 1486266616.09329 | pgbench_tellers  |            49152
 2017-02-05 04:50:16.093286+01 | 1486266616.09329 | pgbench_history  |                0
 2017-02-05 04:50:16.093286+01 | 1486266616.09329 | pgbench_branches |             8192

 2017-02-05 04:50:17.168346+01 | 1486266617.16835 | pgbench_accounts |       1389355008
 2017-02-05 04:50:17.168346+01 | 1486266617.16835 | pgbench_tellers  |            49152
 2017-02-05 04:50:17.168346+01 | 1486266617.16835 | pgbench_history  |                0
 2017-02-05 04:50:17.168346+01 | 1486266617.16835 | pgbench_branches |             8192

 2017-02-05 04:50:18.242226+01 | 1486266618.24223 | pgbench_accounts |       1389355008
 2017-02-05 04:50:18.242226+01 | 1486266618.24223 | pgbench_tellers  |            49152
 2017-02-05 04:50:18.242226+01 | 1486266618.24223 | pgbench_history  |                0
 2017-02-05 04:50:18.242226+01 | 1486266618.24223 | pgbench_branches |             8192

 2017-02-05 04:50:19.313631+01 | 1486266619.31363 | pgbench_accounts |       1389355008
 2017-02-05 04:50:19.313631+01 | 1486266619.31363 | pgbench_tellers  |            49152
 2017-02-05 04:50:19.313631+01 | 1486266619.31363 | pgbench_history  |                0
 2017-02-05 04:50:19.313631+01 | 1486266619.31363 | pgbench_branches |             8192

 2017-02-05 04:50:20.388416+01 | 1486266620.38842 | pgbench_accounts |       1389355008
 2017-02-05 04:50:20.388416+01 | 1486266620.38842 | pgbench_tellers  |            49152
 2017-02-05 04:50:20.388416+01 | 1486266620.38842 | pgbench_history  |                0
 2017-02-05 04:50:20.388416+01 | 1486266620.38842 | pgbench_branches |             8192

 2017-02-05 04:50:21.468051+01 | 1486266621.46805 | pgbench_accounts |       1389355008
 2017-02-05 04:50:21.468051+01 | 1486266621.46805 | pgbench_tellers  |            49152
 2017-02-05 04:50:21.468051+01 | 1486266621.46805 | pgbench_history  |                0
 2017-02-05 04:50:21.468051+01 | 1486266621.46805 | pgbench_branches |             8192

 2017-02-05 04:50:22.542933+01 | 1486266622.54293 | pgbench_accounts |       1389355008
 2017-02-05 04:50:22.542933+01 | 1486266622.54293 | pgbench_tellers  |            49152
 2017-02-05 04:50:22.542933+01 | 1486266622.54293 | pgbench_history  |                0
 2017-02-05 04:50:22.542933+01 | 1486266622.54293 | pgbench_branches |             8192

 2017-02-05 04:50:23.622973+01 | 1486266623.62297 | pgbench_accounts |       1389355008
 2017-02-05 04:50:23.622973+01 | 1486266623.62297 | pgbench_tellers  |            49152
 2017-02-05 04:50:23.622973+01 | 1486266623.62297 | pgbench_history  |                0
 2017-02-05 04:50:23.622973+01 | 1486266623.62297 | pgbench_branches |             8192

 2017-02-05 04:50:24.698865+01 | 1486266624.69886 | pgbench_accounts |       1389355008
 2017-02-05 04:50:24.698865+01 | 1486266624.69886 | pgbench_tellers  |            49152
 2017-02-05 04:50:24.698865+01 | 1486266624.69886 | pgbench_history  |                0
 2017-02-05 04:50:24.698865+01 | 1486266624.69886 | pgbench_branches |             8192

 2017-02-05 04:50:25.774893+01 | 1486266625.77489 | pgbench_accounts |       1389355008
 2017-02-05 04:50:25.774893+01 | 1486266625.77489 | pgbench_tellers  |            49152
 2017-02-05 04:50:25.774893+01 | 1486266625.77489 | pgbench_history  |                0
 2017-02-05 04:50:25.774893+01 | 1486266625.77489 | pgbench_branches |             8192

 2017-02-05 04:50:26.858316+01 | 1486266626.85832 | pgbench_accounts |       1389355008
 2017-02-05 04:50:26.858316+01 | 1486266626.85832 | pgbench_tellers  |            49152
 2017-02-05 04:50:26.858316+01 | 1486266626.85832 | pgbench_history  |                0
 2017-02-05 04:50:26.858316+01 | 1486266626.85832 | pgbench_branches |             8192

 2017-02-05 04:50:27.936371+01 | 1486266627.93637 | pgbench_accounts |       1389355008
 2017-02-05 04:50:27.936371+01 | 1486266627.93637 | pgbench_tellers  |            49152
 2017-02-05 04:50:27.936371+01 | 1486266627.93637 | pgbench_history  |                0
 2017-02-05 04:50:27.936371+01 | 1486266627.93637 | pgbench_branches |             8192

 2017-02-05 04:50:29.011172+01 | 1486266629.01117 | pgbench_accounts |       1389355008
 2017-02-05 04:50:29.011172+01 | 1486266629.01117 | pgbench_tellers  |            49152
 2017-02-05 04:50:29.011172+01 | 1486266629.01117 | pgbench_history  |                0
 2017-02-05 04:50:29.011172+01 | 1486266629.01117 | pgbench_branches |             8192

 2017-02-05 04:50:30.083626+01 | 1486266630.08363 | pgbench_accounts |       1389355008
 2017-02-05 04:50:30.083626+01 | 1486266630.08363 | pgbench_tellers  |            49152
 2017-02-05 04:50:30.083626+01 | 1486266630.08363 | pgbench_history  |                0
 2017-02-05 04:50:30.083626+01 | 1486266630.08363 | pgbench_branches |             8192

 2017-02-05 04:50:31.155277+01 | 1486266631.15528 | pgbench_accounts |       1389355008
 2017-02-05 04:50:31.155277+01 | 1486266631.15528 | pgbench_tellers  |            49152
 2017-02-05 04:50:31.155277+01 | 1486266631.15528 | pgbench_history  |                0
 2017-02-05 04:50:31.155277+01 | 1486266631.15528 | pgbench_branches |             8192

 2017-02-05 04:50:32.226206+01 | 1486266632.22621 | pgbench_accounts |       1389355008
 2017-02-05 04:50:32.226206+01 | 1486266632.22621 | pgbench_tellers  |            49152
 2017-02-05 04:50:32.226206+01 | 1486266632.22621 | pgbench_history  |                0
 2017-02-05 04:50:32.226206+01 | 1486266632.22621 | pgbench_branches |             8192

 2017-02-05 04:50:33.299225+01 | 1486266633.29923 | pgbench_accounts |       1389355008
 2017-02-05 04:50:33.299225+01 | 1486266633.29923 | pgbench_tellers  |            49152
 2017-02-05 04:50:33.299225+01 | 1486266633.29923 | pgbench_history  |                0
 2017-02-05 04:50:33.299225+01 | 1486266633.29923 | pgbench_branches |             8192

 2017-02-05 04:50:34.376356+01 | 1486266634.37636 | pgbench_accounts |       1389355008
 2017-02-05 04:50:34.376356+01 | 1486266634.37636 | pgbench_tellers  |            49152
 2017-02-05 04:50:34.376356+01 | 1486266634.37636 | pgbench_history  |                0
 2017-02-05 04:50:34.376356+01 | 1486266634.37636 | pgbench_branches |             8192

 2017-02-05 04:50:35.448299+01 | 1486266635.4483 | pgbench_accounts |       1389355008
 2017-02-05 04:50:35.448299+01 | 1486266635.4483 | pgbench_tellers  |            49152
 2017-02-05 04:50:35.448299+01 | 1486266635.4483 | pgbench_history  |                0
 2017-02-05 04:50:35.448299+01 | 1486266635.4483 | pgbench_branches |             8192

 2017-02-05 04:50:36.524825+01 | 1486266636.52483 | pgbench_accounts |       1389355008
 2017-02-05 04:50:36.524825+01 | 1486266636.52483 | pgbench_tellers  |            49152
 2017-02-05 04:50:36.524825+01 | 1486266636.52483 | pgbench_history  |                0
 2017-02-05 04:50:36.524825+01 | 1486266636.52483 | pgbench_branches |             8192

 2017-02-05 04:50:37.598349+01 | 1486266637.59835 | pgbench_accounts |       1389355008
 2017-02-05 04:50:37.598349+01 | 1486266637.59835 | pgbench_tellers  |            49152
 2017-02-05 04:50:37.598349+01 | 1486266637.59835 | pgbench_history  |                0
 2017-02-05 04:50:37.598349+01 | 1486266637.59835 | pgbench_branches |             8192

 2017-02-05 04:50:38.677117+01 | 1486266638.67712 | pgbench_accounts |       1389355008
 2017-02-05 04:50:38.677117+01 | 1486266638.67712 | pgbench_tellers  |            49152
 2017-02-05 04:50:38.677117+01 | 1486266638.67712 | pgbench_history  |                0
 2017-02-05 04:50:38.677117+01 | 1486266638.67712 | pgbench_branches |             8192

 2017-02-05 04:50:39.738472+01 | 1486266639.73847 | pgbench_accounts |       1389355008
 2017-02-05 04:50:39.738472+01 | 1486266639.73847 | pgbench_tellers  |            49152
 2017-02-05 04:50:39.738472+01 | 1486266639.73847 | pgbench_history  |                0
 2017-02-05 04:50:39.738472+01 | 1486266639.73847 | pgbench_branches |             8192

 2017-02-05 04:50:40.814193+01 | 1486266640.81419 | pgbench_accounts |       1389355008
 2017-02-05 04:50:40.814193+01 | 1486266640.81419 | pgbench_tellers  |            49152
 2017-02-05 04:50:40.814193+01 | 1486266640.81419 | pgbench_history  |                0
 2017-02-05 04:50:40.814193+01 | 1486266640.81419 | pgbench_branches |             8192

 2017-02-05 04:50:41.886357+01 | 1486266641.88636 | pgbench_accounts |       1389355008
 2017-02-05 04:50:41.886357+01 | 1486266641.88636 | pgbench_tellers  |            49152
 2017-02-05 04:50:41.886357+01 | 1486266641.88636 | pgbench_history  |                0
 2017-02-05 04:50:41.886357+01 | 1486266641.88636 | pgbench_branches |             8192

