 2017-02-03 19:07:03.56077+01 | 1486145223.56077 | 3/1AA88F8                |           12912855288

 2017-02-03 19:07:04.655943+01 | 1486145224.65594 | 3/1AA88F8                |           12912855288

 2017-02-03 19:07:05.745405+01 | 1486145225.7454 | 3/1AA88F8                |           12912855288

 2017-02-03 19:07:06.829126+01 | 1486145226.82913 | 3/1AA88F8                |           12912855288

 2017-02-03 19:07:07.91397+01 | 1486145227.91397 | 3/1AA88F8                |           12912855288

 2017-02-03 19:07:08.98293+01 | 1486145228.98293 | 3/1AA88F8                |           12912855288

 2017-02-03 19:07:10.071895+01 | 1486145230.07189 | 3/1AA88F8                |           12912855288

 2017-02-03 19:07:11.162436+01 | 1486145231.16244 | 3/1AA88F8                |           12912855288

 2017-02-03 19:07:12.255935+01 | 1486145232.25593 | 3/1AA88F8                |           12912855288

 2017-02-03 19:07:13.339104+01 | 1486145233.3391 | 3/1AA88F8                |           12912855288

 2017-02-03 19:07:14.418957+01 | 1486145234.41896 | 3/1AA88F8                |           12912855288

 2017-02-03 19:07:15.494871+01 | 1486145235.49487 | 3/1AA88F8                |           12912855288

 2017-02-03 19:07:16.576307+01 | 1486145236.57631 | 3/1AA88F8                |           12912855288

 2017-02-03 19:07:17.653429+01 | 1486145237.65343 | 3/1AA88F8                |           12912855288

 2017-02-03 19:07:18.732825+01 | 1486145238.73283 | 3/1AA88F8                |           12912855288

 2017-02-03 19:07:19.813513+01 | 1486145239.81351 | 3/1AA88F8                |           12912855288

 2017-02-03 19:07:20.889342+01 | 1486145240.88934 | 3/1AA88F8                |           12912855288

 2017-02-03 19:07:21.974923+01 | 1486145241.97492 | 3/1AA88F8                |           12912855288

 2017-02-03 19:07:23.042392+01 | 1486145243.04239 | 3/1AA88F8                |           12912855288

 2017-02-03 19:07:24.127886+01 | 1486145244.12789 | 3/1AA88F8                |           12912855288

 2017-02-03 19:07:25.208838+01 | 1486145245.20884 | 3/1AA88F8                |           12912855288

 2017-02-03 19:07:26.280896+01 | 1486145246.2809 | 3/1AA88F8                |           12912855288

 2017-02-03 19:07:27.365043+01 | 1486145247.36504 | 3/1AA88F8                |           12912855288

 2017-02-03 19:07:28.447474+01 | 1486145248.44747 | 3/1AA88F8                |           12912855288

 2017-02-03 19:07:29.523343+01 | 1486145249.52334 | 3/1AA88F8                |           12912855288

 2017-02-03 19:07:30.608442+01 | 1486145250.60844 | 3/1AA88F8                |           12912855288

 2017-02-03 19:07:31.691919+01 | 1486145251.69192 | 3/1AA88F8                |           12912855288

 2017-02-03 19:07:32.772241+01 | 1486145252.77224 | 3/1AA88F8                |           12912855288

 2017-02-03 19:07:33.855562+01 | 1486145253.85556 | 3/1AA88F8                |           12912855288

 2017-02-03 19:07:34.944961+01 | 1486145254.94496 | 3/1AA88F8                |           12912855288

 2017-02-03 19:07:36.03369+01 | 1486145256.03369 | 3/1AA88F8                |           12912855288

 2017-02-03 19:07:37.116765+01 | 1486145257.11677 | 3/1AA88F8                |           12912855288

 2017-02-03 19:07:38.184256+01 | 1486145258.18426 | 3/1AA88F8                |           12912855288

 2017-02-03 19:07:39.268027+01 | 1486145259.26803 | 3/1AA88F8                |           12912855288

 2017-02-03 19:07:40.358195+01 | 1486145260.3582 | 3/1AA88F8                |           12912855288

 2017-02-03 19:07:41.439361+01 | 1486145261.43936 | 3/1AA88F8                |           12912855288

 2017-02-03 19:07:42.519948+01 | 1486145262.51995 | 3/1AA88F8                |           12912855288

 2017-02-03 19:07:43.612973+01 | 1486145263.61297 | 3/1AA88F8                |           12912855288

 2017-02-03 19:07:44.690863+01 | 1486145264.69086 | 3/1AA88F8                |           12912855288

 2017-02-03 19:07:45.76205+01 | 1486145265.76205 | 3/1AA88F8                |           12912855288

 2017-02-03 19:07:46.83989+01 | 1486145266.83989 | 3/1AA88F8                |           12912855288

 2017-02-03 19:07:47.924265+01 | 1486145267.92426 | 3/1AA88F8                |           12912855288

 2017-02-03 19:07:49.013536+01 | 1486145269.01354 | 3/1AA88F8                |           12912855288

 2017-02-03 19:07:50.093685+01 | 1486145270.09368 | 3/1AA88F8                |           12912855288

 2017-02-03 19:07:51.167313+01 | 1486145271.16731 | 3/1AA88F8                |           12912855288

 2017-02-03 19:07:52.246482+01 | 1486145272.24648 | 3/1AA88F8                |           12912855288

 2017-02-03 19:07:53.324603+01 | 1486145273.3246 | 3/1AA88F8                |           12912855288

 2017-02-03 19:07:54.411587+01 | 1486145274.41159 | 3/1AA88F8                |           12912855288

 2017-02-03 19:07:55.497262+01 | 1486145275.49726 | 3/1AA88F8                |           12912855288

 2017-02-03 19:07:56.576124+01 | 1486145276.57612 | 3/1AA88F8                |           12912855288

 2017-02-03 19:07:57.66198+01 | 1486145277.66198 | 3/1AA88F8                |           12912855288

 2017-02-03 19:07:58.742108+01 | 1486145278.74211 | 3/1AA88F8                |           12912855288

 2017-02-03 19:07:59.821051+01 | 1486145279.82105 | 3/1AA88F8                |           12912855288

 2017-02-03 19:08:00.901403+01 | 1486145280.9014 | 3/1AA88F8                |           12912855288

 2017-02-03 19:08:01.978941+01 | 1486145281.97894 | 3/1AA88F8                |           12912855288

 2017-02-03 19:08:03.054364+01 | 1486145283.05436 | 3/1AA88F8                |           12912855288

 2017-02-03 19:08:04.131877+01 | 1486145284.13188 | 3/1AA88F8                |           12912855288

 2017-02-03 19:08:05.221447+01 | 1486145285.22145 | 3/1AA88F8                |           12912855288

 2017-02-03 19:08:06.298426+01 | 1486145286.29843 | 3/1AA88F8                |           12912855288

 2017-02-03 19:08:07.373323+01 | 1486145287.37332 | 3/1AA88F8                |           12912855288

 2017-02-03 19:08:08.448486+01 | 1486145288.44849 | 3/1AA88F8                |           12912855288

 2017-02-03 19:08:09.532209+01 | 1486145289.53221 | 3/1AA88F8                |           12912855288

 2017-02-03 19:08:10.622365+01 | 1486145290.62236 | 3/1AA88F8                |           12912855288

 2017-02-03 19:08:11.696292+01 | 1486145291.69629 | 3/1AA88F8                |           12912855288

 2017-02-03 19:08:12.78628+01 | 1486145292.78628 | 3/1AA88F8                |           12912855288

 2017-02-03 19:08:13.864148+01 | 1486145293.86415 | 3/1AA88F8                |           12912855288

 2017-02-03 19:08:14.947131+01 | 1486145294.94713 | 3/1AA88F8                |           12912855288

 2017-02-03 19:08:16.024839+01 | 1486145296.02484 | 3/1AA88F8                |           12912855288

 2017-02-03 19:08:17.115453+01 | 1486145297.11545 | 3/1AA88F8                |           12912855288

 2017-02-03 19:08:18.203522+01 | 1486145298.20352 | 3/1AA88F8                |           12912855288

 2017-02-03 19:08:19.281641+01 | 1486145299.28164 | 3/1AA88F8                |           12912855288

 2017-02-03 19:08:20.368333+01 | 1486145300.36833 | 3/1AA88F8                |           12912855288

 2017-02-03 19:08:21.442541+01 | 1486145301.44254 | 3/1AA88F8                |           12912855288

 2017-02-03 19:08:22.507512+01 | 1486145302.50751 | 3/1AA88F8                |           12912855288

 2017-02-03 19:08:23.592835+01 | 1486145303.59283 | 3/1AA88F8                |           12912855288

 2017-02-03 19:08:24.680721+01 | 1486145304.68072 | 3/1AA88F8                |           12912855288

 2017-02-03 19:08:25.760156+01 | 1486145305.76016 | 3/1AA88F8                |           12912855288

 2017-02-03 19:08:26.835219+01 | 1486145306.83522 | 3/1AA88F8                |           12912855288

 2017-02-03 19:08:27.928819+01 | 1486145307.92882 | 3/1AA88F8                |           12912855288

 2017-02-03 19:08:29.01183+01 | 1486145309.01183 | 3/1AA88F8                |           12912855288

 2017-02-03 19:08:30.09195+01 | 1486145310.09195 | 3/1AA88F8                |           12912855288

 2017-02-03 19:08:31.170333+01 | 1486145311.17033 | 3/1AA88F8                |           12912855288

 2017-02-03 19:08:32.245419+01 | 1486145312.24542 | 3/1AA88F8                |           12912855288

 2017-02-03 19:08:33.320189+01 | 1486145313.32019 | 3/1AA88F8                |           12912855288

 2017-02-03 19:08:34.39852+01 | 1486145314.39852 | 3/1AA88F8                |           12912855288

 2017-02-03 19:08:35.479642+01 | 1486145315.47964 | 3/1AA88F8                |           12912855288

 2017-02-03 19:08:36.559371+01 | 1486145316.55937 | 3/1AA88F8                |           12912855288

 2017-02-03 19:08:37.632639+01 | 1486145317.63264 | 3/1AA88F8                |           12912855288

 2017-02-03 19:08:38.711541+01 | 1486145318.71154 | 3/1AA88F8                |           12912855288

 2017-02-03 19:08:39.789184+01 | 1486145319.78918 | 3/1AA88F8                |           12912855288

 2017-02-03 19:08:40.867531+01 | 1486145320.86753 | 3/1AA88F8                |           12912855288

 2017-02-03 19:08:41.952902+01 | 1486145321.9529 | 3/1AA88F8                |           12912855288

 2017-02-03 19:08:43.027118+01 | 1486145323.02712 | 3/1AA88F8                |           12912855288

 2017-02-03 19:08:44.115761+01 | 1486145324.11576 | 3/1AA88F8                |           12912855288

 2017-02-03 19:08:45.204589+01 | 1486145325.20459 | 3/1AA88F8                |           12912855288

 2017-02-03 19:08:46.29281+01 | 1486145326.29281 | 3/1AA88F8                |           12912855288

 2017-02-03 19:08:47.372628+01 | 1486145327.37263 | 3/1AA88F8                |           12912855288

 2017-02-03 19:08:48.448468+01 | 1486145328.44847 | 3/1AA88F8                |           12912855288

 2017-02-03 19:08:49.535168+01 | 1486145329.53517 | 3/1AA88F8                |           12912855288

 2017-02-03 19:08:50.597963+01 | 1486145330.59796 | 3/1AA88F8                |           12912855288

 2017-02-03 19:08:51.665453+01 | 1486145331.66545 | 3/1AA88F8                |           12912855288

 2017-02-03 19:08:52.746954+01 | 1486145332.74695 | 3/1AA88F8                |           12912855288

 2017-02-03 19:08:53.828857+01 | 1486145333.82886 | 3/1AA88F8                |           12912855288

 2017-02-03 19:08:54.903829+01 | 1486145334.90383 | 3/1AA88F8                |           12912855288

 2017-02-03 19:08:55.980444+01 | 1486145335.98044 | 3/1AA88F8                |           12912855288

 2017-02-03 19:08:57.070161+01 | 1486145337.07016 | 3/1AA88F8                |           12912855288

 2017-02-03 19:08:58.152161+01 | 1486145338.15216 | 3/1AA88F8                |           12912855288

 2017-02-03 19:08:59.227679+01 | 1486145339.22768 | 3/1AA88F8                |           12912855288

 2017-02-03 19:09:00.29652+01 | 1486145340.29652 | 3/1AA88F8                |           12912855288

 2017-02-03 19:09:01.38226+01 | 1486145341.38226 | 3/1AA88F8                |           12912855288

 2017-02-03 19:09:02.458299+01 | 1486145342.4583 | 3/1AA88F8                |           12912855288

 2017-02-03 19:09:03.542081+01 | 1486145343.54208 | 3/1AA88F8                |           12912855288

 2017-02-03 19:09:04.629029+01 | 1486145344.62903 | 3/1AA88F8                |           12912855288

 2017-02-03 19:09:05.706284+01 | 1486145345.70628 | 3/1AA88F8                |           12912855288

 2017-02-03 19:09:06.780235+01 | 1486145346.78024 | 3/1AA88F8                |           12912855288

 2017-02-03 19:09:07.859116+01 | 1486145347.85912 | 3/1AA88F8                |           12912855288

 2017-02-03 19:09:08.944445+01 | 1486145348.94444 | 3/1AA88F8                |           12912855288

 2017-02-03 19:09:10.019241+01 | 1486145350.01924 | 3/1AA88F8                |           12912855288

 2017-02-03 19:09:11.111797+01 | 1486145351.1118 | 3/1AA88F8                |           12912855288

 2017-02-03 19:09:12.189707+01 | 1486145352.18971 | 3/1AA88F8                |           12912855288

 2017-02-03 19:09:13.268997+01 | 1486145353.269 | 3/1AA88F8                |           12912855288

 2017-02-03 19:09:14.347558+01 | 1486145354.34756 | 3/1AA88F8                |           12912855288

 2017-02-03 19:09:15.435468+01 | 1486145355.43547 | 3/1AA88F8                |           12912855288

 2017-02-03 19:09:16.527+01 | 1486145356.527 | 3/1AA88F8                |           12912855288

 2017-02-03 19:09:17.609802+01 | 1486145357.6098 | 3/1AA88F8                |           12912855288

 2017-02-03 19:09:18.701119+01 | 1486145358.70112 | 3/1AA88F8                |           12912855288

 2017-02-03 19:09:19.795915+01 | 1486145359.79591 | 3/1AA88F8                |           12912855288

 2017-02-03 19:09:20.880856+01 | 1486145360.88086 | 3/1AA88F8                |           12912855288

 2017-02-03 19:09:21.963272+01 | 1486145361.96327 | 3/1AA88F8                |           12912855288

 2017-02-03 19:09:23.040519+01 | 1486145363.04052 | 3/1AA88F8                |           12912855288

 2017-02-03 19:09:24.117801+01 | 1486145364.1178 | 3/1AA88F8                |           12912855288

 2017-02-03 19:09:25.19952+01 | 1486145365.19952 | 3/1AA88F8                |           12912855288

 2017-02-03 19:09:26.292466+01 | 1486145366.29247 | 3/1AA88F8                |           12912855288

 2017-02-03 19:09:27.37025+01 | 1486145367.37025 | 3/1AA88F8                |           12912855288

 2017-02-03 19:09:28.451082+01 | 1486145368.45108 | 3/1AA88F8                |           12912855288

 2017-02-03 19:09:29.529995+01 | 1486145369.52999 | 3/1AA88F8                |           12912855288

 2017-02-03 19:09:30.617541+01 | 1486145370.61754 | 3/1AA88F8                |           12912855288

 2017-02-03 19:09:31.69732+01 | 1486145371.69732 | 3/1AA88F8                |           12912855288

 2017-02-03 19:09:32.771105+01 | 1486145372.77111 | 3/1AA88F8                |           12912855288

 2017-02-03 19:09:33.851092+01 | 1486145373.85109 | 3/1AA88F8                |           12912855288

 2017-02-03 19:09:34.936335+01 | 1486145374.93634 | 3/1AA88F8                |           12912855288

 2017-02-03 19:09:36.016438+01 | 1486145376.01644 | 3/1AA88F8                |           12912855288

 2017-02-03 19:09:37.095102+01 | 1486145377.0951 | 3/1AA88F8                |           12912855288

 2017-02-03 19:09:38.173442+01 | 1486145378.17344 | 3/1AA88F8                |           12912855288

 2017-02-03 19:09:39.248463+01 | 1486145379.24846 | 3/1AA88F8                |           12912855288

 2017-02-03 19:09:40.326798+01 | 1486145380.3268 | 3/1AA88F8                |           12912855288

 2017-02-03 19:09:41.411569+01 | 1486145381.41157 | 3/1AA88F8                |           12912855288

 2017-02-03 19:09:42.497146+01 | 1486145382.49715 | 3/1AA88F8                |           12912855288

 2017-02-03 19:09:43.579899+01 | 1486145383.5799 | 3/1AA88F8                |           12912855288

 2017-02-03 19:09:44.65354+01 | 1486145384.65354 | 3/1AA88F8                |           12912855288

 2017-02-03 19:09:45.728504+01 | 1486145385.7285 | 3/1AA88F8                |           12912855288

 2017-02-03 19:09:46.798463+01 | 1486145386.79846 | 3/1AA88F8                |           12912855288

 2017-02-03 19:09:47.887137+01 | 1486145387.88714 | 3/1AA88F8                |           12912855288

 2017-02-03 19:09:48.981741+01 | 1486145388.98174 | 3/1AA88F8                |           12912855288

 2017-02-03 19:09:50.060013+01 | 1486145390.06001 | 3/1AA88F8                |           12912855288

 2017-02-03 19:09:51.143916+01 | 1486145391.14392 | 3/1AA88F8                |           12912855288

 2017-02-03 19:09:52.21313+01 | 1486145392.21313 | 3/1AA88F8                |           12912855288

 2017-02-03 19:09:53.290901+01 | 1486145393.2909 | 3/1AA88F8                |           12912855288

 2017-02-03 19:09:54.37201+01 | 1486145394.37201 | 3/1AA88F8                |           12912855288

 2017-02-03 19:09:55.452912+01 | 1486145395.45291 | 3/1AA88F8                |           12912855288

 2017-02-03 19:09:56.531023+01 | 1486145396.53102 | 3/1AA88F8                |           12912855288

 2017-02-03 19:09:57.623498+01 | 1486145397.6235 | 3/1AA88F8                |           12912855288

 2017-02-03 19:09:58.702641+01 | 1486145398.70264 | 3/1AA88F8                |           12912855288

 2017-02-03 19:09:59.775941+01 | 1486145399.77594 | 3/1AA88F8                |           12912855288

 2017-02-03 19:10:00.856563+01 | 1486145400.85656 | 3/1AA88F8                |           12912855288

 2017-02-03 19:10:01.930596+01 | 1486145401.9306 | 3/1AA88F8                |           12912855288

 2017-02-03 19:10:03.007784+01 | 1486145403.00778 | 3/1AA88F8                |           12912855288

 2017-02-03 19:10:04.09832+01 | 1486145404.09832 | 3/1AA88F8                |           12912855288

 2017-02-03 19:10:05.181736+01 | 1486145405.18174 | 3/1AA88F8                |           12912855288

 2017-02-03 19:10:06.256307+01 | 1486145406.25631 | 3/1AA88F8                |           12912855288

 2017-02-03 19:10:07.344063+01 | 1486145407.34406 | 3/1AA88F8                |           12912855288

 2017-02-03 19:10:08.429986+01 | 1486145408.42999 | 3/1AA88F8                |           12912855288

 2017-02-03 19:10:09.515972+01 | 1486145409.51597 | 3/1AA88F8                |           12912855288

 2017-02-03 19:10:10.598922+01 | 1486145410.59892 | 3/1AA88F8                |           12912855288

 2017-02-03 19:10:11.670874+01 | 1486145411.67087 | 3/1AA88F8                |           12912855288

 2017-02-03 19:10:12.758801+01 | 1486145412.7588 | 3/1AA88F8                |           12912855288

 2017-02-03 19:10:13.838375+01 | 1486145413.83838 | 3/1AA88F8                |           12912855288

 2017-02-03 19:10:14.930096+01 | 1486145414.9301 | 3/1AA88F8                |           12912855288

 2017-02-03 19:10:16.011425+01 | 1486145416.01143 | 3/1AA88F8                |           12912855288

 2017-02-03 19:10:17.085732+01 | 1486145417.08573 | 3/1AA88F8                |           12912855288

 2017-02-03 19:10:18.163071+01 | 1486145418.16307 | 3/1AA88F8                |           12912855288

 2017-02-03 19:10:19.234143+01 | 1486145419.23414 | 3/1AA88F8                |           12912855288

 2017-02-03 19:10:20.312289+01 | 1486145420.31229 | 3/1AA88F8                |           12912855288

 2017-02-03 19:10:21.400436+01 | 1486145421.40044 | 3/1AA88F8                |           12912855288

 2017-02-03 19:10:22.480252+01 | 1486145422.48025 | 3/1AA88F8                |           12912855288

 2017-02-03 19:10:23.557639+01 | 1486145423.55764 | 3/1AA88F8                |           12912855288

 2017-02-03 19:10:24.636176+01 | 1486145424.63618 | 3/1AA88F8                |           12912855288

 2017-02-03 19:10:25.714729+01 | 1486145425.71473 | 3/1AA88F8                |           12912855288

 2017-02-03 19:10:26.796278+01 | 1486145426.79628 | 3/1AA88F8                |           12912855288

 2017-02-03 19:10:27.878764+01 | 1486145427.87876 | 3/1AA88F8                |           12912855288

 2017-02-03 19:10:28.956661+01 | 1486145428.95666 | 3/1AA88F8                |           12912855288

 2017-02-03 19:10:30.033535+01 | 1486145430.03354 | 3/1AA88F8                |           12912855288

 2017-02-03 19:10:31.112899+01 | 1486145431.1129 | 3/1AA88F8                |           12912855288

 2017-02-03 19:10:32.195902+01 | 1486145432.1959 | 3/1AA88F8                |           12912855288

 2017-02-03 19:10:33.273004+01 | 1486145433.273 | 3/1AA88F8                |           12912855288

 2017-02-03 19:10:34.346599+01 | 1486145434.3466 | 3/1AA88F8                |           12912855288

 2017-02-03 19:10:35.422939+01 | 1486145435.42294 | 3/1AA88F8                |           12912855288

 2017-02-03 19:10:36.507127+01 | 1486145436.50713 | 3/1AA88F8                |           12912855288

 2017-02-03 19:10:37.593503+01 | 1486145437.5935 | 3/1AA88F8                |           12912855288

 2017-02-03 19:10:38.659291+01 | 1486145438.65929 | 3/1AA88F8                |           12912855288

 2017-02-03 19:10:39.738913+01 | 1486145439.73891 | 3/1AA88F8                |           12912855288

 2017-02-03 19:10:40.816976+01 | 1486145440.81698 | 3/1AA88F8                |           12912855288

 2017-02-03 19:10:41.904086+01 | 1486145441.90409 | 3/1AA88F8                |           12912855288

 2017-02-03 19:10:42.985504+01 | 1486145442.9855 | 3/1AA88F8                |           12912855288

 2017-02-03 19:10:44.064951+01 | 1486145444.06495 | 3/1AA88F8                |           12912855288

 2017-02-03 19:10:45.142014+01 | 1486145445.14201 | 3/1AA88F8                |           12912855288

 2017-02-03 19:10:46.229527+01 | 1486145446.22953 | 3/1AA88F8                |           12912855288

 2017-02-03 19:10:47.310203+01 | 1486145447.3102 | 3/1AA88F8                |           12912855288

 2017-02-03 19:10:48.382206+01 | 1486145448.38221 | 3/1AA88F8                |           12912855288

 2017-02-03 19:10:49.464826+01 | 1486145449.46483 | 3/1AA88F8                |           12912855288

 2017-02-03 19:10:50.533967+01 | 1486145450.53397 | 3/1AA88F8                |           12912855288

 2017-02-03 19:10:51.616007+01 | 1486145451.61601 | 3/1AA88F8                |           12912855288

 2017-02-03 19:10:52.685026+01 | 1486145452.68503 | 3/1AA88F8                |           12912855288

 2017-02-03 19:10:53.761713+01 | 1486145453.76171 | 3/1AA88F8                |           12912855288

 2017-02-03 19:10:54.833293+01 | 1486145454.83329 | 3/1AA88F8                |           12912855288

 2017-02-03 19:10:55.908407+01 | 1486145455.90841 | 3/1AA88F8                |           12912855288

 2017-02-03 19:10:56.98588+01 | 1486145456.98588 | 3/1AA88F8                |           12912855288

 2017-02-03 19:10:58.071467+01 | 1486145458.07147 | 3/1AA88F8                |           12912855288

 2017-02-03 19:10:59.143175+01 | 1486145459.14317 | 3/1AA88F8                |           12912855288

 2017-02-03 19:11:00.215828+01 | 1486145460.21583 | 3/1AA88F8                |           12912855288

 2017-02-03 19:11:01.294507+01 | 1486145461.29451 | 3/1AA88F8                |           12912855288

 2017-02-03 19:11:02.372102+01 | 1486145462.3721 | 3/1AA88F8                |           12912855288

 2017-02-03 19:11:03.447992+01 | 1486145463.44799 | 3/1AA88F8                |           12912855288

 2017-02-03 19:11:04.528478+01 | 1486145464.52848 | 3/1AA88F8                |           12912855288

 2017-02-03 19:11:05.605693+01 | 1486145465.60569 | 3/1AA88F8                |           12912855288

 2017-02-03 19:11:06.690581+01 | 1486145466.69058 | 3/1AA88F8                |           12912855288

 2017-02-03 19:11:07.771228+01 | 1486145467.77123 | 3/1AA88F8                |           12912855288

 2017-02-03 19:11:08.843359+01 | 1486145468.84336 | 3/1AA88F8                |           12912855288

 2017-02-03 19:11:09.922486+01 | 1486145469.92249 | 3/1AA88F8                |           12912855288

 2017-02-03 19:11:11.008725+01 | 1486145471.00872 | 3/1AA88F8                |           12912855288

 2017-02-03 19:11:12.08392+01 | 1486145472.08392 | 3/1AA88F8                |           12912855288

 2017-02-03 19:11:13.158371+01 | 1486145473.15837 | 3/1AA88F8                |           12912855288

 2017-02-03 19:11:14.236901+01 | 1486145474.2369 | 3/1AA88F8                |           12912855288

 2017-02-03 19:11:15.316933+01 | 1486145475.31693 | 3/1AA88F8                |           12912855288

 2017-02-03 19:11:16.398917+01 | 1486145476.39892 | 3/1AA88F8                |           12912855288

 2017-02-03 19:11:17.476808+01 | 1486145477.47681 | 3/1AA88F8                |           12912855288

 2017-02-03 19:11:18.549705+01 | 1486145478.54971 | 3/1AA88F8                |           12912855288

 2017-02-03 19:11:19.625453+01 | 1486145479.62545 | 3/1AA88F8                |           12912855288

 2017-02-03 19:11:20.698181+01 | 1486145480.69818 | 3/1AA88F8                |           12912855288

 2017-02-03 19:11:21.78105+01 | 1486145481.78105 | 3/1AA88F8                |           12912855288

 2017-02-03 19:11:22.865483+01 | 1486145482.86548 | 3/1AA88F8                |           12912855288

 2017-02-03 19:11:23.956356+01 | 1486145483.95636 | 3/1AA88F8                |           12912855288

 2017-02-03 19:11:25.030723+01 | 1486145485.03072 | 3/1AA88F8                |           12912855288

 2017-02-03 19:11:26.108718+01 | 1486145486.10872 | 3/1AA88F8                |           12912855288

 2017-02-03 19:11:27.186181+01 | 1486145487.18618 | 3/1AA88F8                |           12912855288

 2017-02-03 19:11:28.266056+01 | 1486145488.26606 | 3/1AA88F8                |           12912855288

 2017-02-03 19:11:29.339816+01 | 1486145489.33982 | 3/1AA88F8                |           12912855288

 2017-02-03 19:11:30.42089+01 | 1486145490.42089 | 3/1AA88F8                |           12912855288

 2017-02-03 19:11:31.499591+01 | 1486145491.49959 | 3/1AA88F8                |           12912855288

 2017-02-03 19:11:32.573263+01 | 1486145492.57326 | 3/1AA88F8                |           12912855288

 2017-02-03 19:11:33.643462+01 | 1486145493.64346 | 3/1AA88F8                |           12912855288

 2017-02-03 19:11:34.717288+01 | 1486145494.71729 | 3/1AA88F8                |           12912855288

 2017-02-03 19:11:35.793683+01 | 1486145495.79368 | 3/1AA88F8                |           12912855288

 2017-02-03 19:11:36.86932+01 | 1486145496.86932 | 3/1AA88F8                |           12912855288

 2017-02-03 19:11:37.960651+01 | 1486145497.96065 | 3/1AA88F8                |           12912855288

 2017-02-03 19:11:39.05199+01 | 1486145499.05199 | 3/1AA88F8                |           12912855288

 2017-02-03 19:11:40.133615+01 | 1486145500.13362 | 3/1AA88F8                |           12912855288

 2017-02-03 19:11:41.215382+01 | 1486145501.21538 | 3/1AA88F8                |           12912855288

 2017-02-03 19:11:42.295683+01 | 1486145502.29568 | 3/1AA88F8                |           12912855288

 2017-02-03 19:11:43.370272+01 | 1486145503.37027 | 3/1AA88F8                |           12912855288

 2017-02-03 19:11:44.449995+01 | 1486145504.45 | 3/1AA88F8                |           12912855288

 2017-02-03 19:11:45.531079+01 | 1486145505.53108 | 3/1AA88F8                |           12912855288

 2017-02-03 19:11:46.614526+01 | 1486145506.61453 | 3/1AA88F8                |           12912855288

 2017-02-03 19:11:47.699285+01 | 1486145507.69929 | 3/1AA88F8                |           12912855288

 2017-02-03 19:11:48.774128+01 | 1486145508.77413 | 3/1AA88F8                |           12912855288

 2017-02-03 19:11:49.856546+01 | 1486145509.85655 | 3/1AA88F8                |           12912855288

 2017-02-03 19:11:50.935941+01 | 1486145510.93594 | 3/1AA88F8                |           12912855288

 2017-02-03 19:11:52.014108+01 | 1486145512.01411 | 3/1AA88F8                |           12912855288

 2017-02-03 19:11:53.093578+01 | 1486145513.09358 | 3/1AA88F8                |           12912855288

 2017-02-03 19:11:54.175259+01 | 1486145514.17526 | 3/1AA88F8                |           12912855288

 2017-02-03 19:11:55.250203+01 | 1486145515.2502 | 3/1AA88F8                |           12912855288

 2017-02-03 19:11:56.323988+01 | 1486145516.32399 | 3/1AA88F8                |           12912855288

 2017-02-03 19:11:57.402674+01 | 1486145517.40267 | 3/1AA88F8                |           12912855288

 2017-02-03 19:11:58.480702+01 | 1486145518.4807 | 3/1AA88F8                |           12912855288

 2017-02-03 19:11:59.554814+01 | 1486145519.55481 | 3/1AA88F8                |           12912855288

 2017-02-03 19:12:00.621758+01 | 1486145520.62176 | 3/1AA88F8                |           12912855288

 2017-02-03 19:12:01.706029+01 | 1486145521.70603 | 3/1AA88F8                |           12912855288

 2017-02-03 19:12:02.776667+01 | 1486145522.77667 | 3/1AA88F8                |           12912855288

