 2017-02-04 22:49:30.729429+01 | 1486244970.72943 | pgbench_branches_pkey |          1318912
 2017-02-04 22:49:30.729429+01 | 1486244970.72943 | pgbench_tellers_pkey  |          3629056
 2017-02-04 22:49:30.729429+01 | 1486244970.72943 | pgbench_accounts_pkey |       2246197248

 2017-02-04 22:49:31.83569+01 | 1486244971.83569 | pgbench_branches_pkey |          1318912
 2017-02-04 22:49:31.83569+01 | 1486244971.83569 | pgbench_tellers_pkey  |          3629056
 2017-02-04 22:49:31.83569+01 | 1486244971.83569 | pgbench_accounts_pkey |       2246197248

 2017-02-04 22:49:32.93148+01 | 1486244972.93148 | pgbench_branches_pkey |          1318912
 2017-02-04 22:49:32.93148+01 | 1486244972.93148 | pgbench_tellers_pkey  |          3629056
 2017-02-04 22:49:32.93148+01 | 1486244972.93148 | pgbench_accounts_pkey |       2246197248

 2017-02-04 22:49:34.015026+01 | 1486244974.01503 | pgbench_branches_pkey |          1318912
 2017-02-04 22:49:34.015026+01 | 1486244974.01503 | pgbench_tellers_pkey  |          3629056
 2017-02-04 22:49:34.015026+01 | 1486244974.01503 | pgbench_accounts_pkey |       2246197248

 2017-02-04 22:49:35.102792+01 | 1486244975.10279 | pgbench_branches_pkey |          1318912
 2017-02-04 22:49:35.102792+01 | 1486244975.10279 | pgbench_tellers_pkey  |          3629056
 2017-02-04 22:49:35.102792+01 | 1486244975.10279 | pgbench_accounts_pkey |       2246197248

 2017-02-04 22:49:36.188653+01 | 1486244976.18865 | pgbench_branches_pkey |          1318912
 2017-02-04 22:49:36.188653+01 | 1486244976.18865 | pgbench_tellers_pkey  |          3629056
 2017-02-04 22:49:36.188653+01 | 1486244976.18865 | pgbench_accounts_pkey |       2246197248

 2017-02-04 22:49:37.274305+01 | 1486244977.27431 | pgbench_branches_pkey |          1318912
 2017-02-04 22:49:37.274305+01 | 1486244977.27431 | pgbench_tellers_pkey  |          3629056
 2017-02-04 22:49:37.274305+01 | 1486244977.27431 | pgbench_accounts_pkey |       2246197248

 2017-02-04 22:49:38.357117+01 | 1486244978.35712 | pgbench_branches_pkey |          1318912
 2017-02-04 22:49:38.357117+01 | 1486244978.35712 | pgbench_tellers_pkey  |          3629056
 2017-02-04 22:49:38.357117+01 | 1486244978.35712 | pgbench_accounts_pkey |       2246197248

 2017-02-04 22:49:39.445651+01 | 1486244979.44565 | pgbench_branches_pkey |          1318912
 2017-02-04 22:49:39.445651+01 | 1486244979.44565 | pgbench_tellers_pkey  |          3629056
 2017-02-04 22:49:39.445651+01 | 1486244979.44565 | pgbench_accounts_pkey |       2246197248

 2017-02-04 22:49:40.534632+01 | 1486244980.53463 | pgbench_branches_pkey |          1318912
 2017-02-04 22:49:40.534632+01 | 1486244980.53463 | pgbench_tellers_pkey  |          3629056
 2017-02-04 22:49:40.534632+01 | 1486244980.53463 | pgbench_accounts_pkey |       2246197248

 2017-02-04 22:49:41.621174+01 | 1486244981.62117 | pgbench_branches_pkey |          1318912
 2017-02-04 22:49:41.621174+01 | 1486244981.62117 | pgbench_tellers_pkey  |          3629056
 2017-02-04 22:49:41.621174+01 | 1486244981.62117 | pgbench_accounts_pkey |       2246197248

 2017-02-04 22:49:42.710498+01 | 1486244982.7105 | pgbench_branches_pkey |          1318912
 2017-02-04 22:49:42.710498+01 | 1486244982.7105 | pgbench_tellers_pkey  |          3629056
 2017-02-04 22:49:42.710498+01 | 1486244982.7105 | pgbench_accounts_pkey |       2246197248

 2017-02-04 22:49:43.799772+01 | 1486244983.79977 | pgbench_branches_pkey |          1318912
 2017-02-04 22:49:43.799772+01 | 1486244983.79977 | pgbench_tellers_pkey  |          3629056
 2017-02-04 22:49:43.799772+01 | 1486244983.79977 | pgbench_accounts_pkey |       2246197248

 2017-02-04 22:49:44.886034+01 | 1486244984.88603 | pgbench_branches_pkey |          1318912
 2017-02-04 22:49:44.886034+01 | 1486244984.88603 | pgbench_tellers_pkey  |          3629056
 2017-02-04 22:49:44.886034+01 | 1486244984.88603 | pgbench_accounts_pkey |       2246197248

 2017-02-04 22:49:45.973741+01 | 1486244985.97374 | pgbench_branches_pkey |          1318912
 2017-02-04 22:49:45.973741+01 | 1486244985.97374 | pgbench_tellers_pkey  |          3629056
 2017-02-04 22:49:45.973741+01 | 1486244985.97374 | pgbench_accounts_pkey |       2246197248

 2017-02-04 22:49:47.060246+01 | 1486244987.06025 | pgbench_branches_pkey |          1318912
 2017-02-04 22:49:47.060246+01 | 1486244987.06025 | pgbench_tellers_pkey  |          3629056
 2017-02-04 22:49:47.060246+01 | 1486244987.06025 | pgbench_accounts_pkey |       2246197248

 2017-02-04 22:49:48.152607+01 | 1486244988.15261 | pgbench_branches_pkey |          1318912
 2017-02-04 22:49:48.152607+01 | 1486244988.15261 | pgbench_tellers_pkey  |          3629056
 2017-02-04 22:49:48.152607+01 | 1486244988.15261 | pgbench_accounts_pkey |       2246197248

 2017-02-04 22:49:49.248347+01 | 1486244989.24835 | pgbench_branches_pkey |          1318912
 2017-02-04 22:49:49.248347+01 | 1486244989.24835 | pgbench_tellers_pkey  |          3629056
 2017-02-04 22:49:49.248347+01 | 1486244989.24835 | pgbench_accounts_pkey |       2246197248

 2017-02-04 22:49:50.336209+01 | 1486244990.33621 | pgbench_branches_pkey |          1318912
 2017-02-04 22:49:50.336209+01 | 1486244990.33621 | pgbench_tellers_pkey  |          3629056
 2017-02-04 22:49:50.336209+01 | 1486244990.33621 | pgbench_accounts_pkey |       2246197248

 2017-02-04 22:49:51.418446+01 | 1486244991.41845 | pgbench_branches_pkey |          1318912
 2017-02-04 22:49:51.418446+01 | 1486244991.41845 | pgbench_tellers_pkey  |          3629056
 2017-02-04 22:49:51.418446+01 | 1486244991.41845 | pgbench_accounts_pkey |       2246197248

 2017-02-04 22:49:52.511335+01 | 1486244992.51133 | pgbench_branches_pkey |          1318912
 2017-02-04 22:49:52.511335+01 | 1486244992.51133 | pgbench_tellers_pkey  |          3629056
 2017-02-04 22:49:52.511335+01 | 1486244992.51133 | pgbench_accounts_pkey |       2246197248

 2017-02-04 22:49:53.60547+01 | 1486244993.60547 | pgbench_branches_pkey |          1318912
 2017-02-04 22:49:53.60547+01 | 1486244993.60547 | pgbench_tellers_pkey  |          3629056
 2017-02-04 22:49:53.60547+01 | 1486244993.60547 | pgbench_accounts_pkey |       2246197248

 2017-02-04 22:49:54.694753+01 | 1486244994.69475 | pgbench_branches_pkey |          1318912
 2017-02-04 22:49:54.694753+01 | 1486244994.69475 | pgbench_tellers_pkey  |          3629056
 2017-02-04 22:49:54.694753+01 | 1486244994.69475 | pgbench_accounts_pkey |       2246197248

 2017-02-04 22:49:55.784796+01 | 1486244995.7848 | pgbench_branches_pkey |          1318912
 2017-02-04 22:49:55.784796+01 | 1486244995.7848 | pgbench_tellers_pkey  |          3629056
 2017-02-04 22:49:55.784796+01 | 1486244995.7848 | pgbench_accounts_pkey |       2246197248

 2017-02-04 22:49:56.882556+01 | 1486244996.88256 | pgbench_branches_pkey |          1318912
 2017-02-04 22:49:56.882556+01 | 1486244996.88256 | pgbench_tellers_pkey  |          3629056
 2017-02-04 22:49:56.882556+01 | 1486244996.88256 | pgbench_accounts_pkey |       2246197248

 2017-02-04 22:49:57.97709+01 | 1486244997.97709 | pgbench_branches_pkey |          1318912
 2017-02-04 22:49:57.97709+01 | 1486244997.97709 | pgbench_tellers_pkey  |          3629056
 2017-02-04 22:49:57.97709+01 | 1486244997.97709 | pgbench_accounts_pkey |       2246197248

 2017-02-04 22:49:59.062875+01 | 1486244999.06288 | pgbench_branches_pkey |          1318912
 2017-02-04 22:49:59.062875+01 | 1486244999.06288 | pgbench_tellers_pkey  |          3629056
 2017-02-04 22:49:59.062875+01 | 1486244999.06288 | pgbench_accounts_pkey |       2246197248

 2017-02-04 22:50:00.153628+01 | 1486245000.15363 | pgbench_branches_pkey |          1318912
 2017-02-04 22:50:00.153628+01 | 1486245000.15363 | pgbench_tellers_pkey  |          3629056
 2017-02-04 22:50:00.153628+01 | 1486245000.15363 | pgbench_accounts_pkey |       2246197248

 2017-02-04 22:50:01.255432+01 | 1486245001.25543 | pgbench_branches_pkey |          1318912
 2017-02-04 22:50:01.255432+01 | 1486245001.25543 | pgbench_tellers_pkey  |          3629056
 2017-02-04 22:50:01.255432+01 | 1486245001.25543 | pgbench_accounts_pkey |       2246197248

 2017-02-04 22:50:02.356143+01 | 1486245002.35614 | pgbench_branches_pkey |          1318912
 2017-02-04 22:50:02.356143+01 | 1486245002.35614 | pgbench_tellers_pkey  |          3629056
 2017-02-04 22:50:02.356143+01 | 1486245002.35614 | pgbench_accounts_pkey |       2246197248

 2017-02-04 22:50:03.444796+01 | 1486245003.4448 | pgbench_branches_pkey |          1318912
 2017-02-04 22:50:03.444796+01 | 1486245003.4448 | pgbench_tellers_pkey  |          3629056
 2017-02-04 22:50:03.444796+01 | 1486245003.4448 | pgbench_accounts_pkey |       2246197248

 2017-02-04 22:50:04.54325+01 | 1486245004.54325 | pgbench_branches_pkey |          1318912
 2017-02-04 22:50:04.54325+01 | 1486245004.54325 | pgbench_tellers_pkey  |          3629056
 2017-02-04 22:50:04.54325+01 | 1486245004.54325 | pgbench_accounts_pkey |       2246197248

 2017-02-04 22:50:05.641605+01 | 1486245005.6416 | pgbench_branches_pkey |          1318912
 2017-02-04 22:50:05.641605+01 | 1486245005.6416 | pgbench_tellers_pkey  |          3629056
 2017-02-04 22:50:05.641605+01 | 1486245005.6416 | pgbench_accounts_pkey |       2246197248

 2017-02-04 22:50:06.736945+01 | 1486245006.73694 | pgbench_branches_pkey |          1318912
 2017-02-04 22:50:06.736945+01 | 1486245006.73694 | pgbench_tellers_pkey  |          3629056
 2017-02-04 22:50:06.736945+01 | 1486245006.73694 | pgbench_accounts_pkey |       2246197248

 2017-02-04 22:50:07.832854+01 | 1486245007.83285 | pgbench_branches_pkey |          1318912
 2017-02-04 22:50:07.832854+01 | 1486245007.83285 | pgbench_tellers_pkey  |          3629056
 2017-02-04 22:50:07.832854+01 | 1486245007.83285 | pgbench_accounts_pkey |       2246197248

 2017-02-04 22:50:08.923858+01 | 1486245008.92386 | pgbench_branches_pkey |          1318912
 2017-02-04 22:50:08.923858+01 | 1486245008.92386 | pgbench_tellers_pkey  |          3629056
 2017-02-04 22:50:08.923858+01 | 1486245008.92386 | pgbench_accounts_pkey |       2246197248

 2017-02-04 22:50:10.014571+01 | 1486245010.01457 | pgbench_branches_pkey |          1318912
 2017-02-04 22:50:10.014571+01 | 1486245010.01457 | pgbench_tellers_pkey  |          3629056
 2017-02-04 22:50:10.014571+01 | 1486245010.01457 | pgbench_accounts_pkey |       2246197248

 2017-02-04 22:50:11.103139+01 | 1486245011.10314 | pgbench_branches_pkey |          1318912
 2017-02-04 22:50:11.103139+01 | 1486245011.10314 | pgbench_tellers_pkey  |          3629056
 2017-02-04 22:50:11.103139+01 | 1486245011.10314 | pgbench_accounts_pkey |       2246197248

 2017-02-04 22:50:12.197145+01 | 1486245012.19714 | pgbench_branches_pkey |          1318912
 2017-02-04 22:50:12.197145+01 | 1486245012.19714 | pgbench_tellers_pkey  |          3629056
 2017-02-04 22:50:12.197145+01 | 1486245012.19714 | pgbench_accounts_pkey |       2246197248

 2017-02-04 22:50:13.297424+01 | 1486245013.29742 | pgbench_branches_pkey |          1318912
 2017-02-04 22:50:13.297424+01 | 1486245013.29742 | pgbench_tellers_pkey  |          3629056
 2017-02-04 22:50:13.297424+01 | 1486245013.29742 | pgbench_accounts_pkey |       2246197248

 2017-02-04 22:50:14.392738+01 | 1486245014.39274 | pgbench_branches_pkey |          1318912
 2017-02-04 22:50:14.392738+01 | 1486245014.39274 | pgbench_tellers_pkey  |          3629056
 2017-02-04 22:50:14.392738+01 | 1486245014.39274 | pgbench_accounts_pkey |       2246197248

 2017-02-04 22:50:15.49207+01 | 1486245015.49207 | pgbench_branches_pkey |          1318912
 2017-02-04 22:50:15.49207+01 | 1486245015.49207 | pgbench_tellers_pkey  |          3629056
 2017-02-04 22:50:15.49207+01 | 1486245015.49207 | pgbench_accounts_pkey |       2246197248

 2017-02-04 22:50:16.585693+01 | 1486245016.58569 | pgbench_branches_pkey |          1318912
 2017-02-04 22:50:16.585693+01 | 1486245016.58569 | pgbench_tellers_pkey  |          3629056
 2017-02-04 22:50:16.585693+01 | 1486245016.58569 | pgbench_accounts_pkey |       2246197248

 2017-02-04 22:50:17.682214+01 | 1486245017.68221 | pgbench_branches_pkey |          1318912
 2017-02-04 22:50:17.682214+01 | 1486245017.68221 | pgbench_tellers_pkey  |          3629056
 2017-02-04 22:50:17.682214+01 | 1486245017.68221 | pgbench_accounts_pkey |       2246197248

 2017-02-04 22:50:18.771044+01 | 1486245018.77104 | pgbench_branches_pkey |          1318912
 2017-02-04 22:50:18.771044+01 | 1486245018.77104 | pgbench_tellers_pkey  |          3629056
 2017-02-04 22:50:18.771044+01 | 1486245018.77104 | pgbench_accounts_pkey |       2246197248

 2017-02-04 22:50:19.861884+01 | 1486245019.86188 | pgbench_branches_pkey |          1318912
 2017-02-04 22:50:19.861884+01 | 1486245019.86188 | pgbench_tellers_pkey  |          3629056
 2017-02-04 22:50:19.861884+01 | 1486245019.86188 | pgbench_accounts_pkey |       2246197248

 2017-02-04 22:50:20.949528+01 | 1486245020.94953 | pgbench_branches_pkey |          1318912
 2017-02-04 22:50:20.949528+01 | 1486245020.94953 | pgbench_tellers_pkey  |          3629056
 2017-02-04 22:50:20.949528+01 | 1486245020.94953 | pgbench_accounts_pkey |       2246197248

 2017-02-04 22:50:22.036451+01 | 1486245022.03645 | pgbench_branches_pkey |          1318912
 2017-02-04 22:50:22.036451+01 | 1486245022.03645 | pgbench_tellers_pkey  |          3629056
 2017-02-04 22:50:22.036451+01 | 1486245022.03645 | pgbench_accounts_pkey |       2246197248

 2017-02-04 22:50:23.130333+01 | 1486245023.13033 | pgbench_branches_pkey |          1318912
 2017-02-04 22:50:23.130333+01 | 1486245023.13033 | pgbench_tellers_pkey  |          3629056
 2017-02-04 22:50:23.130333+01 | 1486245023.13033 | pgbench_accounts_pkey |       2246197248

 2017-02-04 22:50:24.219165+01 | 1486245024.21917 | pgbench_branches_pkey |          1318912
 2017-02-04 22:50:24.219165+01 | 1486245024.21917 | pgbench_tellers_pkey  |          3629056
 2017-02-04 22:50:24.219165+01 | 1486245024.21917 | pgbench_accounts_pkey |       2246197248

 2017-02-04 22:50:25.312072+01 | 1486245025.31207 | pgbench_branches_pkey |          1318912
 2017-02-04 22:50:25.312072+01 | 1486245025.31207 | pgbench_tellers_pkey  |          3629056
 2017-02-04 22:50:25.312072+01 | 1486245025.31207 | pgbench_accounts_pkey |       2246197248

 2017-02-04 22:50:26.403192+01 | 1486245026.40319 | pgbench_branches_pkey |          1318912
 2017-02-04 22:50:26.403192+01 | 1486245026.40319 | pgbench_tellers_pkey  |          3629056
 2017-02-04 22:50:26.403192+01 | 1486245026.40319 | pgbench_accounts_pkey |       2246197248

 2017-02-04 22:50:27.494057+01 | 1486245027.49406 | pgbench_branches_pkey |          1318912
 2017-02-04 22:50:27.494057+01 | 1486245027.49406 | pgbench_tellers_pkey  |          3629056
 2017-02-04 22:50:27.494057+01 | 1486245027.49406 | pgbench_accounts_pkey |       2246197248

 2017-02-04 22:50:28.580355+01 | 1486245028.58035 | pgbench_branches_pkey |          1318912
 2017-02-04 22:50:28.580355+01 | 1486245028.58035 | pgbench_tellers_pkey  |          3629056
 2017-02-04 22:50:28.580355+01 | 1486245028.58035 | pgbench_accounts_pkey |       2246197248

 2017-02-04 22:50:29.677063+01 | 1486245029.67706 | pgbench_branches_pkey |          1318912
 2017-02-04 22:50:29.677063+01 | 1486245029.67706 | pgbench_tellers_pkey  |          3629056
 2017-02-04 22:50:29.677063+01 | 1486245029.67706 | pgbench_accounts_pkey |       2246197248

 2017-02-04 22:50:30.771444+01 | 1486245030.77144 | pgbench_branches_pkey |          1318912
 2017-02-04 22:50:30.771444+01 | 1486245030.77144 | pgbench_tellers_pkey  |          3629056
 2017-02-04 22:50:30.771444+01 | 1486245030.77144 | pgbench_accounts_pkey |       2246197248

 2017-02-04 22:50:31.86734+01 | 1486245031.86734 | pgbench_branches_pkey |          1318912
 2017-02-04 22:50:31.86734+01 | 1486245031.86734 | pgbench_tellers_pkey  |          3629056
 2017-02-04 22:50:31.86734+01 | 1486245031.86734 | pgbench_accounts_pkey |       2246197248

 2017-02-04 22:50:32.966502+01 | 1486245032.9665 | pgbench_branches_pkey |          1318912
 2017-02-04 22:50:32.966502+01 | 1486245032.9665 | pgbench_tellers_pkey  |          3629056
 2017-02-04 22:50:32.966502+01 | 1486245032.9665 | pgbench_accounts_pkey |       2246197248

 2017-02-04 22:50:34.055769+01 | 1486245034.05577 | pgbench_branches_pkey |          1318912
 2017-02-04 22:50:34.055769+01 | 1486245034.05577 | pgbench_tellers_pkey  |          3629056
 2017-02-04 22:50:34.055769+01 | 1486245034.05577 | pgbench_accounts_pkey |       2246197248

 2017-02-04 22:50:35.155208+01 | 1486245035.15521 | pgbench_branches_pkey |          1318912
 2017-02-04 22:50:35.155208+01 | 1486245035.15521 | pgbench_tellers_pkey  |          3629056
 2017-02-04 22:50:35.155208+01 | 1486245035.15521 | pgbench_accounts_pkey |       2246197248

 2017-02-04 22:50:36.241774+01 | 1486245036.24177 | pgbench_branches_pkey |          1318912
 2017-02-04 22:50:36.241774+01 | 1486245036.24177 | pgbench_tellers_pkey  |          3629056
 2017-02-04 22:50:36.241774+01 | 1486245036.24177 | pgbench_accounts_pkey |       2246197248

 2017-02-04 22:50:37.338749+01 | 1486245037.33875 | pgbench_branches_pkey |          1318912
 2017-02-04 22:50:37.338749+01 | 1486245037.33875 | pgbench_tellers_pkey  |          3629056
 2017-02-04 22:50:37.338749+01 | 1486245037.33875 | pgbench_accounts_pkey |       2246197248

 2017-02-04 22:50:38.434327+01 | 1486245038.43433 | pgbench_branches_pkey |          1318912
 2017-02-04 22:50:38.434327+01 | 1486245038.43433 | pgbench_tellers_pkey  |          3629056
 2017-02-04 22:50:38.434327+01 | 1486245038.43433 | pgbench_accounts_pkey |       2246197248

 2017-02-04 22:50:39.516104+01 | 1486245039.5161 | pgbench_branches_pkey |          1318912
 2017-02-04 22:50:39.516104+01 | 1486245039.5161 | pgbench_tellers_pkey  |          3629056
 2017-02-04 22:50:39.516104+01 | 1486245039.5161 | pgbench_accounts_pkey |       2246197248

 2017-02-04 22:50:40.611109+01 | 1486245040.61111 | pgbench_branches_pkey |          1318912
 2017-02-04 22:50:40.611109+01 | 1486245040.61111 | pgbench_tellers_pkey  |          3629056
 2017-02-04 22:50:40.611109+01 | 1486245040.61111 | pgbench_accounts_pkey |       2246197248

 2017-02-04 22:50:41.708135+01 | 1486245041.70813 | pgbench_branches_pkey |          1318912
 2017-02-04 22:50:41.708135+01 | 1486245041.70813 | pgbench_tellers_pkey  |          3629056
 2017-02-04 22:50:41.708135+01 | 1486245041.70813 | pgbench_accounts_pkey |       2246197248

 2017-02-04 22:50:42.794394+01 | 1486245042.79439 | pgbench_branches_pkey |          1318912
 2017-02-04 22:50:42.794394+01 | 1486245042.79439 | pgbench_tellers_pkey  |          3629056
 2017-02-04 22:50:42.794394+01 | 1486245042.79439 | pgbench_accounts_pkey |       2246197248

 2017-02-04 22:50:43.883092+01 | 1486245043.88309 | pgbench_branches_pkey |          1318912
 2017-02-04 22:50:43.883092+01 | 1486245043.88309 | pgbench_tellers_pkey  |          3629056
 2017-02-04 22:50:43.883092+01 | 1486245043.88309 | pgbench_accounts_pkey |       2246197248

 2017-02-04 22:50:44.975056+01 | 1486245044.97506 | pgbench_branches_pkey |          1318912
 2017-02-04 22:50:44.975056+01 | 1486245044.97506 | pgbench_tellers_pkey  |          3629056
 2017-02-04 22:50:44.975056+01 | 1486245044.97506 | pgbench_accounts_pkey |       2246197248

 2017-02-04 22:50:46.063132+01 | 1486245046.06313 | pgbench_branches_pkey |          1318912
 2017-02-04 22:50:46.063132+01 | 1486245046.06313 | pgbench_tellers_pkey  |          3629056
 2017-02-04 22:50:46.063132+01 | 1486245046.06313 | pgbench_accounts_pkey |       2246197248

 2017-02-04 22:50:47.147525+01 | 1486245047.14753 | pgbench_branches_pkey |          1318912
 2017-02-04 22:50:47.147525+01 | 1486245047.14753 | pgbench_tellers_pkey  |          3629056
 2017-02-04 22:50:47.147525+01 | 1486245047.14753 | pgbench_accounts_pkey |       2246197248

 2017-02-04 22:50:48.247335+01 | 1486245048.24733 | pgbench_branches_pkey |          1318912
 2017-02-04 22:50:48.247335+01 | 1486245048.24733 | pgbench_tellers_pkey  |          3629056
 2017-02-04 22:50:48.247335+01 | 1486245048.24733 | pgbench_accounts_pkey |       2246197248

 2017-02-04 22:50:49.3494+01 | 1486245049.3494 | pgbench_branches_pkey |          1318912
 2017-02-04 22:50:49.3494+01 | 1486245049.3494 | pgbench_tellers_pkey  |          3629056
 2017-02-04 22:50:49.3494+01 | 1486245049.3494 | pgbench_accounts_pkey |       2246197248

 2017-02-04 22:50:50.46242+01 | 1486245050.46242 | pgbench_branches_pkey |          1318912
 2017-02-04 22:50:50.46242+01 | 1486245050.46242 | pgbench_tellers_pkey  |          3629056
 2017-02-04 22:50:50.46242+01 | 1486245050.46242 | pgbench_accounts_pkey |       2246197248

 2017-02-04 22:50:51.55865+01 | 1486245051.55865 | pgbench_branches_pkey |          1318912
 2017-02-04 22:50:51.55865+01 | 1486245051.55865 | pgbench_tellers_pkey  |          3629056
 2017-02-04 22:50:51.55865+01 | 1486245051.55865 | pgbench_accounts_pkey |       2246197248

 2017-02-04 22:50:52.650552+01 | 1486245052.65055 | pgbench_branches_pkey |          1318912
 2017-02-04 22:50:52.650552+01 | 1486245052.65055 | pgbench_tellers_pkey  |          3629056
 2017-02-04 22:50:52.650552+01 | 1486245052.65055 | pgbench_accounts_pkey |       2246197248

 2017-02-04 22:50:53.742144+01 | 1486245053.74214 | pgbench_branches_pkey |          1318912
 2017-02-04 22:50:53.742144+01 | 1486245053.74214 | pgbench_tellers_pkey  |          3629056
 2017-02-04 22:50:53.742144+01 | 1486245053.74214 | pgbench_accounts_pkey |       2246197248

 2017-02-04 22:50:54.832153+01 | 1486245054.83215 | pgbench_branches_pkey |          1318912
 2017-02-04 22:50:54.832153+01 | 1486245054.83215 | pgbench_tellers_pkey  |          3629056
 2017-02-04 22:50:54.832153+01 | 1486245054.83215 | pgbench_accounts_pkey |       2246197248

 2017-02-04 22:50:55.92957+01 | 1486245055.92957 | pgbench_branches_pkey |          1318912
 2017-02-04 22:50:55.92957+01 | 1486245055.92957 | pgbench_tellers_pkey  |          3629056
 2017-02-04 22:50:55.92957+01 | 1486245055.92957 | pgbench_accounts_pkey |       2246197248

 2017-02-04 22:50:57.018462+01 | 1486245057.01846 | pgbench_branches_pkey |          1318912
 2017-02-04 22:50:57.018462+01 | 1486245057.01846 | pgbench_tellers_pkey  |          3629056
 2017-02-04 22:50:57.018462+01 | 1486245057.01846 | pgbench_accounts_pkey |       2246197248

 2017-02-04 22:50:58.101078+01 | 1486245058.10108 | pgbench_branches_pkey |          1318912
 2017-02-04 22:50:58.101078+01 | 1486245058.10108 | pgbench_tellers_pkey  |          3629056
 2017-02-04 22:50:58.101078+01 | 1486245058.10108 | pgbench_accounts_pkey |       2246197248

 2017-02-04 22:50:59.190762+01 | 1486245059.19076 | pgbench_branches_pkey |          1318912
 2017-02-04 22:50:59.190762+01 | 1486245059.19076 | pgbench_tellers_pkey  |          3629056
 2017-02-04 22:50:59.190762+01 | 1486245059.19076 | pgbench_accounts_pkey |       2246197248

 2017-02-04 22:51:00.286653+01 | 1486245060.28665 | pgbench_branches_pkey |          1318912
 2017-02-04 22:51:00.286653+01 | 1486245060.28665 | pgbench_tellers_pkey  |          3629056
 2017-02-04 22:51:00.286653+01 | 1486245060.28665 | pgbench_accounts_pkey |       2246197248

 2017-02-04 22:51:01.368591+01 | 1486245061.36859 | pgbench_branches_pkey |          1318912
 2017-02-04 22:51:01.368591+01 | 1486245061.36859 | pgbench_tellers_pkey  |          3629056
 2017-02-04 22:51:01.368591+01 | 1486245061.36859 | pgbench_accounts_pkey |       2246197248

 2017-02-04 22:51:02.453865+01 | 1486245062.45387 | pgbench_branches_pkey |          1318912
 2017-02-04 22:51:02.453865+01 | 1486245062.45387 | pgbench_tellers_pkey  |          3629056
 2017-02-04 22:51:02.453865+01 | 1486245062.45387 | pgbench_accounts_pkey |       2246197248

 2017-02-04 22:51:03.545623+01 | 1486245063.54562 | pgbench_branches_pkey |          1318912
 2017-02-04 22:51:03.545623+01 | 1486245063.54562 | pgbench_tellers_pkey  |          3629056
 2017-02-04 22:51:03.545623+01 | 1486245063.54562 | pgbench_accounts_pkey |       2246197248

 2017-02-04 22:51:04.642454+01 | 1486245064.64245 | pgbench_branches_pkey |          1318912
 2017-02-04 22:51:04.642454+01 | 1486245064.64245 | pgbench_tellers_pkey  |          3629056
 2017-02-04 22:51:04.642454+01 | 1486245064.64245 | pgbench_accounts_pkey |       2246197248

 2017-02-04 22:51:05.738282+01 | 1486245065.73828 | pgbench_branches_pkey |          1318912
 2017-02-04 22:51:05.738282+01 | 1486245065.73828 | pgbench_tellers_pkey  |          3629056
 2017-02-04 22:51:05.738282+01 | 1486245065.73828 | pgbench_accounts_pkey |       2246197248

 2017-02-04 22:51:06.848888+01 | 1486245066.84889 | pgbench_branches_pkey |          1318912
 2017-02-04 22:51:06.848888+01 | 1486245066.84889 | pgbench_tellers_pkey  |          3629056
 2017-02-04 22:51:06.848888+01 | 1486245066.84889 | pgbench_accounts_pkey |       2246197248

 2017-02-04 22:51:07.95044+01 | 1486245067.95044 | pgbench_branches_pkey |          1318912
 2017-02-04 22:51:07.95044+01 | 1486245067.95044 | pgbench_tellers_pkey  |          3629056
 2017-02-04 22:51:07.95044+01 | 1486245067.95044 | pgbench_accounts_pkey |       2246197248

 2017-02-04 22:51:09.042557+01 | 1486245069.04256 | pgbench_branches_pkey |          1318912
 2017-02-04 22:51:09.042557+01 | 1486245069.04256 | pgbench_tellers_pkey  |          3629056
 2017-02-04 22:51:09.042557+01 | 1486245069.04256 | pgbench_accounts_pkey |       2246197248

 2017-02-04 22:51:10.12322+01 | 1486245070.12322 | pgbench_branches_pkey |          1318912
 2017-02-04 22:51:10.12322+01 | 1486245070.12322 | pgbench_tellers_pkey  |          3629056
 2017-02-04 22:51:10.12322+01 | 1486245070.12322 | pgbench_accounts_pkey |       2246197248

 2017-02-04 22:51:11.212976+01 | 1486245071.21298 | pgbench_branches_pkey |          1318912
 2017-02-04 22:51:11.212976+01 | 1486245071.21298 | pgbench_tellers_pkey  |          3629056
 2017-02-04 22:51:11.212976+01 | 1486245071.21298 | pgbench_accounts_pkey |       2246197248

 2017-02-04 22:51:12.309942+01 | 1486245072.30994 | pgbench_branches_pkey |          1318912
 2017-02-04 22:51:12.309942+01 | 1486245072.30994 | pgbench_tellers_pkey  |          3629056
 2017-02-04 22:51:12.309942+01 | 1486245072.30994 | pgbench_accounts_pkey |       2246197248

 2017-02-04 22:51:13.405574+01 | 1486245073.40557 | pgbench_branches_pkey |          1318912
 2017-02-04 22:51:13.405574+01 | 1486245073.40557 | pgbench_tellers_pkey  |          3629056
 2017-02-04 22:51:13.405574+01 | 1486245073.40557 | pgbench_accounts_pkey |       2246197248

 2017-02-04 22:51:14.498693+01 | 1486245074.49869 | pgbench_branches_pkey |          1318912
 2017-02-04 22:51:14.498693+01 | 1486245074.49869 | pgbench_tellers_pkey  |          3629056
 2017-02-04 22:51:14.498693+01 | 1486245074.49869 | pgbench_accounts_pkey |       2246197248

 2017-02-04 22:51:15.592255+01 | 1486245075.59226 | pgbench_branches_pkey |          1318912
 2017-02-04 22:51:15.592255+01 | 1486245075.59226 | pgbench_tellers_pkey  |          3629056
 2017-02-04 22:51:15.592255+01 | 1486245075.59226 | pgbench_accounts_pkey |       2246197248

 2017-02-04 22:51:16.686608+01 | 1486245076.68661 | pgbench_branches_pkey |          1318912
 2017-02-04 22:51:16.686608+01 | 1486245076.68661 | pgbench_tellers_pkey  |          3629056
 2017-02-04 22:51:16.686608+01 | 1486245076.68661 | pgbench_accounts_pkey |       2246197248

 2017-02-04 22:51:17.77587+01 | 1486245077.77587 | pgbench_branches_pkey |          1318912
 2017-02-04 22:51:17.77587+01 | 1486245077.77587 | pgbench_tellers_pkey  |          3629056
 2017-02-04 22:51:17.77587+01 | 1486245077.77587 | pgbench_accounts_pkey |       2246197248

 2017-02-04 22:51:18.880572+01 | 1486245078.88057 | pgbench_branches_pkey |          1318912
 2017-02-04 22:51:18.880572+01 | 1486245078.88057 | pgbench_tellers_pkey  |          3629056
 2017-02-04 22:51:18.880572+01 | 1486245078.88057 | pgbench_accounts_pkey |       2246197248

 2017-02-04 22:51:19.981876+01 | 1486245079.98188 | pgbench_branches_pkey |          1318912
 2017-02-04 22:51:19.981876+01 | 1486245079.98188 | pgbench_tellers_pkey  |          3629056
 2017-02-04 22:51:19.981876+01 | 1486245079.98188 | pgbench_accounts_pkey |       2246197248

 2017-02-04 22:51:21.06586+01 | 1486245081.06586 | pgbench_branches_pkey |          1318912
 2017-02-04 22:51:21.06586+01 | 1486245081.06586 | pgbench_tellers_pkey  |          3629056
 2017-02-04 22:51:21.06586+01 | 1486245081.06586 | pgbench_accounts_pkey |       2246197248

 2017-02-04 22:51:22.147592+01 | 1486245082.14759 | pgbench_branches_pkey |          1318912
 2017-02-04 22:51:22.147592+01 | 1486245082.14759 | pgbench_tellers_pkey  |          3629056
 2017-02-04 22:51:22.147592+01 | 1486245082.14759 | pgbench_accounts_pkey |       2246197248

 2017-02-04 22:51:23.237019+01 | 1486245083.23702 | pgbench_branches_pkey |          1318912
 2017-02-04 22:51:23.237019+01 | 1486245083.23702 | pgbench_tellers_pkey  |          3629056
 2017-02-04 22:51:23.237019+01 | 1486245083.23702 | pgbench_accounts_pkey |       2246197248

 2017-02-04 22:51:24.326991+01 | 1486245084.32699 | pgbench_branches_pkey |          1318912
 2017-02-04 22:51:24.326991+01 | 1486245084.32699 | pgbench_tellers_pkey  |          3629056
 2017-02-04 22:51:24.326991+01 | 1486245084.32699 | pgbench_accounts_pkey |       2246197248

 2017-02-04 22:51:25.423399+01 | 1486245085.4234 | pgbench_branches_pkey |          1318912
 2017-02-04 22:51:25.423399+01 | 1486245085.4234 | pgbench_tellers_pkey  |          3629056
 2017-02-04 22:51:25.423399+01 | 1486245085.4234 | pgbench_accounts_pkey |       2246197248

 2017-02-04 22:51:26.52349+01 | 1486245086.52349 | pgbench_branches_pkey |          1318912
 2017-02-04 22:51:26.52349+01 | 1486245086.52349 | pgbench_tellers_pkey  |          3629056
 2017-02-04 22:51:26.52349+01 | 1486245086.52349 | pgbench_accounts_pkey |       2246197248

 2017-02-04 22:51:27.629227+01 | 1486245087.62923 | pgbench_branches_pkey |          1318912
 2017-02-04 22:51:27.629227+01 | 1486245087.62923 | pgbench_tellers_pkey  |          3629056
 2017-02-04 22:51:27.629227+01 | 1486245087.62923 | pgbench_accounts_pkey |       2246197248

 2017-02-04 22:51:28.726391+01 | 1486245088.72639 | pgbench_branches_pkey |          1318912
 2017-02-04 22:51:28.726391+01 | 1486245088.72639 | pgbench_tellers_pkey  |          3629056
 2017-02-04 22:51:28.726391+01 | 1486245088.72639 | pgbench_accounts_pkey |       2246197248

 2017-02-04 22:51:29.824648+01 | 1486245089.82465 | pgbench_branches_pkey |          1318912
 2017-02-04 22:51:29.824648+01 | 1486245089.82465 | pgbench_tellers_pkey  |          3629056
 2017-02-04 22:51:29.824648+01 | 1486245089.82465 | pgbench_accounts_pkey |       2246197248

 2017-02-04 22:51:30.922831+01 | 1486245090.92283 | pgbench_branches_pkey |          1318912
 2017-02-04 22:51:30.922831+01 | 1486245090.92283 | pgbench_tellers_pkey  |          3629056
 2017-02-04 22:51:30.922831+01 | 1486245090.92283 | pgbench_accounts_pkey |       2246197248

 2017-02-04 22:51:32.010457+01 | 1486245092.01046 | pgbench_branches_pkey |          1318912
 2017-02-04 22:51:32.010457+01 | 1486245092.01046 | pgbench_tellers_pkey  |          3629056
 2017-02-04 22:51:32.010457+01 | 1486245092.01046 | pgbench_accounts_pkey |       2246197248

 2017-02-04 22:51:33.090625+01 | 1486245093.09063 | pgbench_branches_pkey |          1318912
 2017-02-04 22:51:33.090625+01 | 1486245093.09063 | pgbench_tellers_pkey  |          3629056
 2017-02-04 22:51:33.090625+01 | 1486245093.09063 | pgbench_accounts_pkey |       2246197248

 2017-02-04 22:51:34.178491+01 | 1486245094.17849 | pgbench_branches_pkey |          1318912
 2017-02-04 22:51:34.178491+01 | 1486245094.17849 | pgbench_tellers_pkey  |          3629056
 2017-02-04 22:51:34.178491+01 | 1486245094.17849 | pgbench_accounts_pkey |       2246197248

 2017-02-04 22:51:35.278955+01 | 1486245095.27895 | pgbench_branches_pkey |          1318912
 2017-02-04 22:51:35.278955+01 | 1486245095.27895 | pgbench_tellers_pkey  |          3629056
 2017-02-04 22:51:35.278955+01 | 1486245095.27895 | pgbench_accounts_pkey |       2246197248

 2017-02-04 22:51:36.384377+01 | 1486245096.38438 | pgbench_branches_pkey |          1318912
 2017-02-04 22:51:36.384377+01 | 1486245096.38438 | pgbench_tellers_pkey  |          3629056
 2017-02-04 22:51:36.384377+01 | 1486245096.38438 | pgbench_accounts_pkey |       2246197248

 2017-02-04 22:51:37.4799+01 | 1486245097.4799 | pgbench_branches_pkey |          1318912
 2017-02-04 22:51:37.4799+01 | 1486245097.4799 | pgbench_tellers_pkey  |          3629056
 2017-02-04 22:51:37.4799+01 | 1486245097.4799 | pgbench_accounts_pkey |       2246197248

 2017-02-04 22:51:38.577189+01 | 1486245098.57719 | pgbench_branches_pkey |          1318912
 2017-02-04 22:51:38.577189+01 | 1486245098.57719 | pgbench_tellers_pkey  |          3629056
 2017-02-04 22:51:38.577189+01 | 1486245098.57719 | pgbench_accounts_pkey |       2246197248

 2017-02-04 22:51:39.683907+01 | 1486245099.68391 | pgbench_branches_pkey |          1318912
 2017-02-04 22:51:39.683907+01 | 1486245099.68391 | pgbench_tellers_pkey  |          3629056
 2017-02-04 22:51:39.683907+01 | 1486245099.68391 | pgbench_accounts_pkey |       2246197248

 2017-02-04 22:51:40.767821+01 | 1486245100.76782 | pgbench_branches_pkey |          1318912
 2017-02-04 22:51:40.767821+01 | 1486245100.76782 | pgbench_tellers_pkey  |          3629056
 2017-02-04 22:51:40.767821+01 | 1486245100.76782 | pgbench_accounts_pkey |       2246197248

 2017-02-04 22:51:41.871576+01 | 1486245101.87158 | pgbench_branches_pkey |          1318912
 2017-02-04 22:51:41.871576+01 | 1486245101.87158 | pgbench_tellers_pkey  |          3629056
 2017-02-04 22:51:41.871576+01 | 1486245101.87158 | pgbench_accounts_pkey |       2246197248

 2017-02-04 22:51:42.976537+01 | 1486245102.97654 | pgbench_branches_pkey |          1318912
 2017-02-04 22:51:42.976537+01 | 1486245102.97654 | pgbench_tellers_pkey  |          3629056
 2017-02-04 22:51:42.976537+01 | 1486245102.97654 | pgbench_accounts_pkey |       2246197248

 2017-02-04 22:51:44.072916+01 | 1486245104.07292 | pgbench_branches_pkey |          1318912
 2017-02-04 22:51:44.072916+01 | 1486245104.07292 | pgbench_tellers_pkey  |          3629056
 2017-02-04 22:51:44.072916+01 | 1486245104.07292 | pgbench_accounts_pkey |       2246197248

 2017-02-04 22:51:45.15662+01 | 1486245105.15662 | pgbench_branches_pkey |          1318912
 2017-02-04 22:51:45.15662+01 | 1486245105.15662 | pgbench_tellers_pkey  |          3629056
 2017-02-04 22:51:45.15662+01 | 1486245105.15662 | pgbench_accounts_pkey |       2246197248

 2017-02-04 22:51:46.24774+01 | 1486245106.24774 | pgbench_branches_pkey |          1318912
 2017-02-04 22:51:46.24774+01 | 1486245106.24774 | pgbench_tellers_pkey  |          3629056
 2017-02-04 22:51:46.24774+01 | 1486245106.24774 | pgbench_accounts_pkey |       2246197248

 2017-02-04 22:51:47.348533+01 | 1486245107.34853 | pgbench_branches_pkey |          1318912
 2017-02-04 22:51:47.348533+01 | 1486245107.34853 | pgbench_tellers_pkey  |          3629056
 2017-02-04 22:51:47.348533+01 | 1486245107.34853 | pgbench_accounts_pkey |       2246197248

 2017-02-04 22:51:48.438705+01 | 1486245108.4387 | pgbench_branches_pkey |          1318912
 2017-02-04 22:51:48.438705+01 | 1486245108.4387 | pgbench_tellers_pkey  |          3629056
 2017-02-04 22:51:48.438705+01 | 1486245108.4387 | pgbench_accounts_pkey |       2246197248

 2017-02-04 22:51:49.535083+01 | 1486245109.53508 | pgbench_branches_pkey |          1318912
 2017-02-04 22:51:49.535083+01 | 1486245109.53508 | pgbench_tellers_pkey  |          3629056
 2017-02-04 22:51:49.535083+01 | 1486245109.53508 | pgbench_accounts_pkey |       2246197248

 2017-02-04 22:51:50.631294+01 | 1486245110.63129 | pgbench_branches_pkey |          1318912
 2017-02-04 22:51:50.631294+01 | 1486245110.63129 | pgbench_tellers_pkey  |          3629056
 2017-02-04 22:51:50.631294+01 | 1486245110.63129 | pgbench_accounts_pkey |       2246197248

 2017-02-04 22:51:51.733287+01 | 1486245111.73329 | pgbench_branches_pkey |          1318912
 2017-02-04 22:51:51.733287+01 | 1486245111.73329 | pgbench_tellers_pkey  |          3629056
 2017-02-04 22:51:51.733287+01 | 1486245111.73329 | pgbench_accounts_pkey |       2246197248

 2017-02-04 22:51:52.830205+01 | 1486245112.8302 | pgbench_branches_pkey |          1318912
 2017-02-04 22:51:52.830205+01 | 1486245112.8302 | pgbench_tellers_pkey  |          3629056
 2017-02-04 22:51:52.830205+01 | 1486245112.8302 | pgbench_accounts_pkey |       2246197248

 2017-02-04 22:51:53.930197+01 | 1486245113.9302 | pgbench_branches_pkey |          1318912
 2017-02-04 22:51:53.930197+01 | 1486245113.9302 | pgbench_tellers_pkey  |          3629056
 2017-02-04 22:51:53.930197+01 | 1486245113.9302 | pgbench_accounts_pkey |       2246197248

 2017-02-04 22:51:55.036774+01 | 1486245115.03677 | pgbench_branches_pkey |          1318912
 2017-02-04 22:51:55.036774+01 | 1486245115.03677 | pgbench_tellers_pkey  |          3629056
 2017-02-04 22:51:55.036774+01 | 1486245115.03677 | pgbench_accounts_pkey |       2246197248

 2017-02-04 22:51:56.128727+01 | 1486245116.12873 | pgbench_branches_pkey |          1318912
 2017-02-04 22:51:56.128727+01 | 1486245116.12873 | pgbench_tellers_pkey  |          3629056
 2017-02-04 22:51:56.128727+01 | 1486245116.12873 | pgbench_accounts_pkey |       2246197248

 2017-02-04 22:51:57.219314+01 | 1486245117.21931 | pgbench_branches_pkey |          1318912
 2017-02-04 22:51:57.219314+01 | 1486245117.21931 | pgbench_tellers_pkey  |          3629056
 2017-02-04 22:51:57.219314+01 | 1486245117.21931 | pgbench_accounts_pkey |       2246197248

 2017-02-04 22:51:58.306591+01 | 1486245118.30659 | pgbench_branches_pkey |          1318912
 2017-02-04 22:51:58.306591+01 | 1486245118.30659 | pgbench_tellers_pkey  |          3629056
 2017-02-04 22:51:58.306591+01 | 1486245118.30659 | pgbench_accounts_pkey |       2246197248

 2017-02-04 22:51:59.405101+01 | 1486245119.4051 | pgbench_branches_pkey |          1318912
 2017-02-04 22:51:59.405101+01 | 1486245119.4051 | pgbench_tellers_pkey  |          3629056
 2017-02-04 22:51:59.405101+01 | 1486245119.4051 | pgbench_accounts_pkey |       2246197248

 2017-02-04 22:52:00.497015+01 | 1486245120.49701 | pgbench_branches_pkey |          1318912
 2017-02-04 22:52:00.497015+01 | 1486245120.49701 | pgbench_tellers_pkey  |          3629056
 2017-02-04 22:52:00.497015+01 | 1486245120.49701 | pgbench_accounts_pkey |       2246197248

 2017-02-04 22:52:01.591282+01 | 1486245121.59128 | pgbench_branches_pkey |          1318912
 2017-02-04 22:52:01.591282+01 | 1486245121.59128 | pgbench_tellers_pkey  |          3629056
 2017-02-04 22:52:01.591282+01 | 1486245121.59128 | pgbench_accounts_pkey |       2246197248

 2017-02-04 22:52:02.682389+01 | 1486245122.68239 | pgbench_branches_pkey |          1318912
 2017-02-04 22:52:02.682389+01 | 1486245122.68239 | pgbench_tellers_pkey  |          3629056
 2017-02-04 22:52:02.682389+01 | 1486245122.68239 | pgbench_accounts_pkey |       2246197248

 2017-02-04 22:52:03.788752+01 | 1486245123.78875 | pgbench_branches_pkey |          1318912
 2017-02-04 22:52:03.788752+01 | 1486245123.78875 | pgbench_tellers_pkey  |          3629056
 2017-02-04 22:52:03.788752+01 | 1486245123.78875 | pgbench_accounts_pkey |       2246197248

 2017-02-04 22:52:04.880797+01 | 1486245124.8808 | pgbench_branches_pkey |          1318912
 2017-02-04 22:52:04.880797+01 | 1486245124.8808 | pgbench_tellers_pkey  |          3629056
 2017-02-04 22:52:04.880797+01 | 1486245124.8808 | pgbench_accounts_pkey |       2246197248

 2017-02-04 22:52:05.974253+01 | 1486245125.97425 | pgbench_branches_pkey |          1318912
 2017-02-04 22:52:05.974253+01 | 1486245125.97425 | pgbench_tellers_pkey  |          3629056
 2017-02-04 22:52:05.974253+01 | 1486245125.97425 | pgbench_accounts_pkey |       2246197248

 2017-02-04 22:52:07.071455+01 | 1486245127.07146 | pgbench_branches_pkey |          1318912
 2017-02-04 22:52:07.071455+01 | 1486245127.07146 | pgbench_tellers_pkey  |          3629056
 2017-02-04 22:52:07.071455+01 | 1486245127.07146 | pgbench_accounts_pkey |       2246197248

 2017-02-04 22:52:08.162667+01 | 1486245128.16267 | pgbench_branches_pkey |          1318912
 2017-02-04 22:52:08.162667+01 | 1486245128.16267 | pgbench_tellers_pkey  |          3629056
 2017-02-04 22:52:08.162667+01 | 1486245128.16267 | pgbench_accounts_pkey |       2246197248

 2017-02-04 22:52:09.255032+01 | 1486245129.25503 | pgbench_branches_pkey |          1318912
 2017-02-04 22:52:09.255032+01 | 1486245129.25503 | pgbench_tellers_pkey  |          3629056
 2017-02-04 22:52:09.255032+01 | 1486245129.25503 | pgbench_accounts_pkey |       2246197248

 2017-02-04 22:52:10.349825+01 | 1486245130.34982 | pgbench_branches_pkey |          1318912
 2017-02-04 22:52:10.349825+01 | 1486245130.34982 | pgbench_tellers_pkey  |          3629056
 2017-02-04 22:52:10.349825+01 | 1486245130.34982 | pgbench_accounts_pkey |       2246197248

 2017-02-04 22:52:11.444286+01 | 1486245131.44429 | pgbench_branches_pkey |          1318912
 2017-02-04 22:52:11.444286+01 | 1486245131.44429 | pgbench_tellers_pkey  |          3629056
 2017-02-04 22:52:11.444286+01 | 1486245131.44429 | pgbench_accounts_pkey |       2246197248

 2017-02-04 22:52:12.532512+01 | 1486245132.53251 | pgbench_branches_pkey |          1318912
 2017-02-04 22:52:12.532512+01 | 1486245132.53251 | pgbench_tellers_pkey  |          3629056
 2017-02-04 22:52:12.532512+01 | 1486245132.53251 | pgbench_accounts_pkey |       2246197248

 2017-02-04 22:52:13.62138+01 | 1486245133.62138 | pgbench_branches_pkey |          1318912
 2017-02-04 22:52:13.62138+01 | 1486245133.62138 | pgbench_tellers_pkey  |          3629056
 2017-02-04 22:52:13.62138+01 | 1486245133.62138 | pgbench_accounts_pkey |       2246197248

 2017-02-04 22:52:14.707698+01 | 1486245134.7077 | pgbench_branches_pkey |          1318912
 2017-02-04 22:52:14.707698+01 | 1486245134.7077 | pgbench_tellers_pkey  |          3629056
 2017-02-04 22:52:14.707698+01 | 1486245134.7077 | pgbench_accounts_pkey |       2246197248

 2017-02-04 22:52:15.795918+01 | 1486245135.79592 | pgbench_branches_pkey |          1318912
 2017-02-04 22:52:15.795918+01 | 1486245135.79592 | pgbench_tellers_pkey  |          3629056
 2017-02-04 22:52:15.795918+01 | 1486245135.79592 | pgbench_accounts_pkey |       2246197248

 2017-02-04 22:52:16.884625+01 | 1486245136.88462 | pgbench_branches_pkey |          1318912
 2017-02-04 22:52:16.884625+01 | 1486245136.88462 | pgbench_tellers_pkey  |          3629056
 2017-02-04 22:52:16.884625+01 | 1486245136.88462 | pgbench_accounts_pkey |       2246197248

 2017-02-04 22:52:17.974634+01 | 1486245137.97463 | pgbench_branches_pkey |          1318912
 2017-02-04 22:52:17.974634+01 | 1486245137.97463 | pgbench_tellers_pkey  |          3629056
 2017-02-04 22:52:17.974634+01 | 1486245137.97463 | pgbench_accounts_pkey |       2246197248

 2017-02-04 22:52:19.073431+01 | 1486245139.07343 | pgbench_branches_pkey |          1318912
 2017-02-04 22:52:19.073431+01 | 1486245139.07343 | pgbench_tellers_pkey  |          3629056
 2017-02-04 22:52:19.073431+01 | 1486245139.07343 | pgbench_accounts_pkey |       2246197248

 2017-02-04 22:52:20.163087+01 | 1486245140.16309 | pgbench_branches_pkey |          1318912
 2017-02-04 22:52:20.163087+01 | 1486245140.16309 | pgbench_tellers_pkey  |          3629056
 2017-02-04 22:52:20.163087+01 | 1486245140.16309 | pgbench_accounts_pkey |       2246197248

 2017-02-04 22:52:21.25183+01 | 1486245141.25183 | pgbench_branches_pkey |          1318912
 2017-02-04 22:52:21.25183+01 | 1486245141.25183 | pgbench_tellers_pkey  |          3629056
 2017-02-04 22:52:21.25183+01 | 1486245141.25183 | pgbench_accounts_pkey |       2246197248

 2017-02-04 22:52:22.342595+01 | 1486245142.3426 | pgbench_branches_pkey |          1318912
 2017-02-04 22:52:22.342595+01 | 1486245142.3426 | pgbench_tellers_pkey  |          3629056
 2017-02-04 22:52:22.342595+01 | 1486245142.3426 | pgbench_accounts_pkey |       2246197248

 2017-02-04 22:52:23.431271+01 | 1486245143.43127 | pgbench_branches_pkey |          1318912
 2017-02-04 22:52:23.431271+01 | 1486245143.43127 | pgbench_tellers_pkey  |          3629056
 2017-02-04 22:52:23.431271+01 | 1486245143.43127 | pgbench_accounts_pkey |       2246197248

 2017-02-04 22:52:24.517563+01 | 1486245144.51756 | pgbench_branches_pkey |          1318912
 2017-02-04 22:52:24.517563+01 | 1486245144.51756 | pgbench_tellers_pkey  |          3629056
 2017-02-04 22:52:24.517563+01 | 1486245144.51756 | pgbench_accounts_pkey |       2246197248

 2017-02-04 22:52:25.609938+01 | 1486245145.60994 | pgbench_branches_pkey |          1318912
 2017-02-04 22:52:25.609938+01 | 1486245145.60994 | pgbench_tellers_pkey  |          3629056
 2017-02-04 22:52:25.609938+01 | 1486245145.60994 | pgbench_accounts_pkey |       2246197248

 2017-02-04 22:52:26.691825+01 | 1486245146.69182 | pgbench_branches_pkey |          1318912
 2017-02-04 22:52:26.691825+01 | 1486245146.69182 | pgbench_tellers_pkey  |          3629056
 2017-02-04 22:52:26.691825+01 | 1486245146.69182 | pgbench_accounts_pkey |       2246197248

 2017-02-04 22:52:27.772265+01 | 1486245147.77226 | pgbench_branches_pkey |          1318912
 2017-02-04 22:52:27.772265+01 | 1486245147.77226 | pgbench_tellers_pkey  |          3629056
 2017-02-04 22:52:27.772265+01 | 1486245147.77226 | pgbench_accounts_pkey |       2246197248

 2017-02-04 22:52:28.874095+01 | 1486245148.87409 | pgbench_branches_pkey |          1318912
 2017-02-04 22:52:28.874095+01 | 1486245148.87409 | pgbench_tellers_pkey  |          3629056
 2017-02-04 22:52:28.874095+01 | 1486245148.87409 | pgbench_accounts_pkey |       2246197248

 2017-02-04 22:52:29.958479+01 | 1486245149.95848 | pgbench_branches_pkey |          1318912
 2017-02-04 22:52:29.958479+01 | 1486245149.95848 | pgbench_tellers_pkey  |          3629056
 2017-02-04 22:52:29.958479+01 | 1486245149.95848 | pgbench_accounts_pkey |       2246197248

 2017-02-04 22:52:31.037676+01 | 1486245151.03768 | pgbench_branches_pkey |          1318912
 2017-02-04 22:52:31.037676+01 | 1486245151.03768 | pgbench_tellers_pkey  |          3629056
 2017-02-04 22:52:31.037676+01 | 1486245151.03768 | pgbench_accounts_pkey |       2246197248

 2017-02-04 22:52:32.129309+01 | 1486245152.12931 | pgbench_branches_pkey |          1318912
 2017-02-04 22:52:32.129309+01 | 1486245152.12931 | pgbench_tellers_pkey  |          3629056
 2017-02-04 22:52:32.129309+01 | 1486245152.12931 | pgbench_accounts_pkey |       2246197248

 2017-02-04 22:52:33.212111+01 | 1486245153.21211 | pgbench_branches_pkey |          1318912
 2017-02-04 22:52:33.212111+01 | 1486245153.21211 | pgbench_tellers_pkey  |          3629056
 2017-02-04 22:52:33.212111+01 | 1486245153.21211 | pgbench_accounts_pkey |       2246197248

 2017-02-04 22:52:34.29601+01 | 1486245154.29601 | pgbench_branches_pkey |          1318912
 2017-02-04 22:52:34.29601+01 | 1486245154.29601 | pgbench_tellers_pkey  |          3629056
 2017-02-04 22:52:34.29601+01 | 1486245154.29601 | pgbench_accounts_pkey |       2246197248

 2017-02-04 22:52:35.385086+01 | 1486245155.38509 | pgbench_branches_pkey |          1318912
 2017-02-04 22:52:35.385086+01 | 1486245155.38509 | pgbench_tellers_pkey  |          3629056
 2017-02-04 22:52:35.385086+01 | 1486245155.38509 | pgbench_accounts_pkey |       2246197248

 2017-02-04 22:52:36.483921+01 | 1486245156.48392 | pgbench_branches_pkey |          1318912
 2017-02-04 22:52:36.483921+01 | 1486245156.48392 | pgbench_tellers_pkey  |          3629056
 2017-02-04 22:52:36.483921+01 | 1486245156.48392 | pgbench_accounts_pkey |       2246197248

 2017-02-04 22:52:37.582761+01 | 1486245157.58276 | pgbench_branches_pkey |          1318912
 2017-02-04 22:52:37.582761+01 | 1486245157.58276 | pgbench_tellers_pkey  |          3629056
 2017-02-04 22:52:37.582761+01 | 1486245157.58276 | pgbench_accounts_pkey |       2246197248

 2017-02-04 22:52:38.672558+01 | 1486245158.67256 | pgbench_branches_pkey |          1318912
 2017-02-04 22:52:38.672558+01 | 1486245158.67256 | pgbench_tellers_pkey  |          3629056
 2017-02-04 22:52:38.672558+01 | 1486245158.67256 | pgbench_accounts_pkey |       2246197248

 2017-02-04 22:52:39.758074+01 | 1486245159.75807 | pgbench_branches_pkey |          1318912
 2017-02-04 22:52:39.758074+01 | 1486245159.75807 | pgbench_tellers_pkey  |          3629056
 2017-02-04 22:52:39.758074+01 | 1486245159.75807 | pgbench_accounts_pkey |       2246197248

 2017-02-04 22:52:40.848613+01 | 1486245160.84861 | pgbench_branches_pkey |          1318912
 2017-02-04 22:52:40.848613+01 | 1486245160.84861 | pgbench_tellers_pkey  |          3629056
 2017-02-04 22:52:40.848613+01 | 1486245160.84861 | pgbench_accounts_pkey |       2246197248

 2017-02-04 22:52:41.93407+01 | 1486245161.93407 | pgbench_branches_pkey |          1318912
 2017-02-04 22:52:41.93407+01 | 1486245161.93407 | pgbench_tellers_pkey  |          3629056
 2017-02-04 22:52:41.93407+01 | 1486245161.93407 | pgbench_accounts_pkey |       2246197248

 2017-02-04 22:52:43.034142+01 | 1486245163.03414 | pgbench_branches_pkey |          1318912
 2017-02-04 22:52:43.034142+01 | 1486245163.03414 | pgbench_tellers_pkey  |          3629056
 2017-02-04 22:52:43.034142+01 | 1486245163.03414 | pgbench_accounts_pkey |       2246197248

 2017-02-04 22:52:44.131583+01 | 1486245164.13158 | pgbench_branches_pkey |          1318912
 2017-02-04 22:52:44.131583+01 | 1486245164.13158 | pgbench_tellers_pkey  |          3629056
 2017-02-04 22:52:44.131583+01 | 1486245164.13158 | pgbench_accounts_pkey |       2246197248

 2017-02-04 22:52:45.215363+01 | 1486245165.21536 | pgbench_branches_pkey |          1318912
 2017-02-04 22:52:45.215363+01 | 1486245165.21536 | pgbench_tellers_pkey  |          3629056
 2017-02-04 22:52:45.215363+01 | 1486245165.21536 | pgbench_accounts_pkey |       2246197248

 2017-02-04 22:52:46.302398+01 | 1486245166.3024 | pgbench_branches_pkey |          1318912
 2017-02-04 22:52:46.302398+01 | 1486245166.3024 | pgbench_tellers_pkey  |          3629056
 2017-02-04 22:52:46.302398+01 | 1486245166.3024 | pgbench_accounts_pkey |       2246197248

 2017-02-04 22:52:47.388589+01 | 1486245167.38859 | pgbench_branches_pkey |          1318912
 2017-02-04 22:52:47.388589+01 | 1486245167.38859 | pgbench_tellers_pkey  |          3629056
 2017-02-04 22:52:47.388589+01 | 1486245167.38859 | pgbench_accounts_pkey |       2246197248

 2017-02-04 22:52:48.486655+01 | 1486245168.48665 | pgbench_branches_pkey |          1318912
 2017-02-04 22:52:48.486655+01 | 1486245168.48665 | pgbench_tellers_pkey  |          3629056
 2017-02-04 22:52:48.486655+01 | 1486245168.48665 | pgbench_accounts_pkey |       2246197248

 2017-02-04 22:52:49.574453+01 | 1486245169.57445 | pgbench_branches_pkey |          1318912
 2017-02-04 22:52:49.574453+01 | 1486245169.57445 | pgbench_tellers_pkey  |          3629056
 2017-02-04 22:52:49.574453+01 | 1486245169.57445 | pgbench_accounts_pkey |       2246197248

 2017-02-04 22:52:50.665349+01 | 1486245170.66535 | pgbench_branches_pkey |          1318912
 2017-02-04 22:52:50.665349+01 | 1486245170.66535 | pgbench_tellers_pkey  |          3629056
 2017-02-04 22:52:50.665349+01 | 1486245170.66535 | pgbench_accounts_pkey |       2246197248

 2017-02-04 22:52:51.759556+01 | 1486245171.75956 | pgbench_branches_pkey |          1318912
 2017-02-04 22:52:51.759556+01 | 1486245171.75956 | pgbench_tellers_pkey  |          3629056
 2017-02-04 22:52:51.759556+01 | 1486245171.75956 | pgbench_accounts_pkey |       2246197248

 2017-02-04 22:52:52.861951+01 | 1486245172.86195 | pgbench_branches_pkey |          1318912
 2017-02-04 22:52:52.861951+01 | 1486245172.86195 | pgbench_tellers_pkey  |          3629056
 2017-02-04 22:52:52.861951+01 | 1486245172.86195 | pgbench_accounts_pkey |       2246197248

 2017-02-04 22:52:53.961239+01 | 1486245173.96124 | pgbench_branches_pkey |          1318912
 2017-02-04 22:52:53.961239+01 | 1486245173.96124 | pgbench_tellers_pkey  |          3629056
 2017-02-04 22:52:53.961239+01 | 1486245173.96124 | pgbench_accounts_pkey |       2246197248

 2017-02-04 22:52:55.053614+01 | 1486245175.05361 | pgbench_branches_pkey |          1318912
 2017-02-04 22:52:55.053614+01 | 1486245175.05361 | pgbench_tellers_pkey  |          3629056
 2017-02-04 22:52:55.053614+01 | 1486245175.05361 | pgbench_accounts_pkey |       2246197248

 2017-02-04 22:52:56.146097+01 | 1486245176.1461 | pgbench_branches_pkey |          1318912
 2017-02-04 22:52:56.146097+01 | 1486245176.1461 | pgbench_tellers_pkey  |          3629056
 2017-02-04 22:52:56.146097+01 | 1486245176.1461 | pgbench_accounts_pkey |       2246197248

 2017-02-04 22:52:57.23074+01 | 1486245177.23074 | pgbench_branches_pkey |          1318912
 2017-02-04 22:52:57.23074+01 | 1486245177.23074 | pgbench_tellers_pkey  |          3629056
 2017-02-04 22:52:57.23074+01 | 1486245177.23074 | pgbench_accounts_pkey |       2246197248

 2017-02-04 22:52:58.324477+01 | 1486245178.32448 | pgbench_branches_pkey |          1318912
 2017-02-04 22:52:58.324477+01 | 1486245178.32448 | pgbench_tellers_pkey  |          3629056
 2017-02-04 22:52:58.324477+01 | 1486245178.32448 | pgbench_accounts_pkey |       2246197248

 2017-02-04 22:52:59.421349+01 | 1486245179.42135 | pgbench_branches_pkey |          1318912
 2017-02-04 22:52:59.421349+01 | 1486245179.42135 | pgbench_tellers_pkey  |          3629056
 2017-02-04 22:52:59.421349+01 | 1486245179.42135 | pgbench_accounts_pkey |       2246197248

 2017-02-04 22:53:00.520306+01 | 1486245180.52031 | pgbench_branches_pkey |          1318912
 2017-02-04 22:53:00.520306+01 | 1486245180.52031 | pgbench_tellers_pkey  |          3629056
 2017-02-04 22:53:00.520306+01 | 1486245180.52031 | pgbench_accounts_pkey |       2246197248

 2017-02-04 22:53:01.61459+01 | 1486245181.61459 | pgbench_branches_pkey |          1318912
 2017-02-04 22:53:01.61459+01 | 1486245181.61459 | pgbench_tellers_pkey  |          3629056
 2017-02-04 22:53:01.61459+01 | 1486245181.61459 | pgbench_accounts_pkey |       2246197248

 2017-02-04 22:53:02.716248+01 | 1486245182.71625 | pgbench_branches_pkey |          1318912
 2017-02-04 22:53:02.716248+01 | 1486245182.71625 | pgbench_tellers_pkey  |          3629056
 2017-02-04 22:53:02.716248+01 | 1486245182.71625 | pgbench_accounts_pkey |       2246197248

 2017-02-04 22:53:03.804442+01 | 1486245183.80444 | pgbench_branches_pkey |          1318912
 2017-02-04 22:53:03.804442+01 | 1486245183.80444 | pgbench_tellers_pkey  |          3629056
 2017-02-04 22:53:03.804442+01 | 1486245183.80444 | pgbench_accounts_pkey |       2246197248

 2017-02-04 22:53:04.896325+01 | 1486245184.89633 | pgbench_branches_pkey |          1318912
 2017-02-04 22:53:04.896325+01 | 1486245184.89633 | pgbench_tellers_pkey  |          3629056
 2017-02-04 22:53:04.896325+01 | 1486245184.89633 | pgbench_accounts_pkey |       2246197248

 2017-02-04 22:53:05.989726+01 | 1486245185.98973 | pgbench_branches_pkey |          1318912
 2017-02-04 22:53:05.989726+01 | 1486245185.98973 | pgbench_tellers_pkey  |          3629056
 2017-02-04 22:53:05.989726+01 | 1486245185.98973 | pgbench_accounts_pkey |       2246197248

 2017-02-04 22:53:07.08875+01 | 1486245187.08875 | pgbench_branches_pkey |          1318912
 2017-02-04 22:53:07.08875+01 | 1486245187.08875 | pgbench_tellers_pkey  |          3629056
 2017-02-04 22:53:07.08875+01 | 1486245187.08875 | pgbench_accounts_pkey |       2246197248

 2017-02-04 22:53:08.178676+01 | 1486245188.17868 | pgbench_branches_pkey |          1318912
 2017-02-04 22:53:08.178676+01 | 1486245188.17868 | pgbench_tellers_pkey  |          3629056
 2017-02-04 22:53:08.178676+01 | 1486245188.17868 | pgbench_accounts_pkey |       2246197248

 2017-02-04 22:53:09.266896+01 | 1486245189.2669 | pgbench_branches_pkey |          1318912
 2017-02-04 22:53:09.266896+01 | 1486245189.2669 | pgbench_tellers_pkey  |          3629056
 2017-02-04 22:53:09.266896+01 | 1486245189.2669 | pgbench_accounts_pkey |       2246197248

 2017-02-04 22:53:10.347652+01 | 1486245190.34765 | pgbench_branches_pkey |          1318912
 2017-02-04 22:53:10.347652+01 | 1486245190.34765 | pgbench_tellers_pkey  |          3629056
 2017-02-04 22:53:10.347652+01 | 1486245190.34765 | pgbench_accounts_pkey |       2246197248

 2017-02-04 22:53:11.43134+01 | 1486245191.43134 | pgbench_branches_pkey |          1318912
 2017-02-04 22:53:11.43134+01 | 1486245191.43134 | pgbench_tellers_pkey  |          3629056
 2017-02-04 22:53:11.43134+01 | 1486245191.43134 | pgbench_accounts_pkey |       2246197248

 2017-02-04 22:53:12.526968+01 | 1486245192.52697 | pgbench_branches_pkey |          1318912
 2017-02-04 22:53:12.526968+01 | 1486245192.52697 | pgbench_tellers_pkey  |          3629056
 2017-02-04 22:53:12.526968+01 | 1486245192.52697 | pgbench_accounts_pkey |       2246197248

 2017-02-04 22:53:13.625756+01 | 1486245193.62576 | pgbench_branches_pkey |          1318912
 2017-02-04 22:53:13.625756+01 | 1486245193.62576 | pgbench_tellers_pkey  |          3629056
 2017-02-04 22:53:13.625756+01 | 1486245193.62576 | pgbench_accounts_pkey |       2246197248

 2017-02-04 22:53:14.720249+01 | 1486245194.72025 | pgbench_branches_pkey |          1318912
 2017-02-04 22:53:14.720249+01 | 1486245194.72025 | pgbench_tellers_pkey  |          3629056
 2017-02-04 22:53:14.720249+01 | 1486245194.72025 | pgbench_accounts_pkey |       2246197248

 2017-02-04 22:53:15.819773+01 | 1486245195.81977 | pgbench_branches_pkey |          1318912
 2017-02-04 22:53:15.819773+01 | 1486245195.81977 | pgbench_tellers_pkey  |          3629056
 2017-02-04 22:53:15.819773+01 | 1486245195.81977 | pgbench_accounts_pkey |       2246197248

 2017-02-04 22:53:16.91615+01 | 1486245196.91615 | pgbench_branches_pkey |          1318912
 2017-02-04 22:53:16.91615+01 | 1486245196.91615 | pgbench_tellers_pkey  |          3629056
 2017-02-04 22:53:16.91615+01 | 1486245196.91615 | pgbench_accounts_pkey |       2246197248

 2017-02-04 22:53:18.006725+01 | 1486245198.00673 | pgbench_branches_pkey |          1318912
 2017-02-04 22:53:18.006725+01 | 1486245198.00673 | pgbench_tellers_pkey  |          3629056
 2017-02-04 22:53:18.006725+01 | 1486245198.00673 | pgbench_accounts_pkey |       2246197248

 2017-02-04 22:53:19.096622+01 | 1486245199.09662 | pgbench_branches_pkey |          1318912
 2017-02-04 22:53:19.096622+01 | 1486245199.09662 | pgbench_tellers_pkey  |          3629056
 2017-02-04 22:53:19.096622+01 | 1486245199.09662 | pgbench_accounts_pkey |       2246197248

 2017-02-04 22:53:20.185044+01 | 1486245200.18504 | pgbench_branches_pkey |          1318912
 2017-02-04 22:53:20.185044+01 | 1486245200.18504 | pgbench_tellers_pkey  |          3629056
 2017-02-04 22:53:20.185044+01 | 1486245200.18504 | pgbench_accounts_pkey |       2246197248

 2017-02-04 22:53:21.274725+01 | 1486245201.27472 | pgbench_branches_pkey |          1318912
 2017-02-04 22:53:21.274725+01 | 1486245201.27472 | pgbench_tellers_pkey  |          3629056
 2017-02-04 22:53:21.274725+01 | 1486245201.27472 | pgbench_accounts_pkey |       2246197248

 2017-02-04 22:53:22.358772+01 | 1486245202.35877 | pgbench_branches_pkey |          1318912
 2017-02-04 22:53:22.358772+01 | 1486245202.35877 | pgbench_tellers_pkey  |          3629056
 2017-02-04 22:53:22.358772+01 | 1486245202.35877 | pgbench_accounts_pkey |       2246197248

 2017-02-04 22:53:23.447277+01 | 1486245203.44728 | pgbench_branches_pkey |          1318912
 2017-02-04 22:53:23.447277+01 | 1486245203.44728 | pgbench_tellers_pkey  |          3629056
 2017-02-04 22:53:23.447277+01 | 1486245203.44728 | pgbench_accounts_pkey |       2246197248

 2017-02-04 22:53:24.549352+01 | 1486245204.54935 | pgbench_branches_pkey |          1318912
 2017-02-04 22:53:24.549352+01 | 1486245204.54935 | pgbench_tellers_pkey  |          3629056
 2017-02-04 22:53:24.549352+01 | 1486245204.54935 | pgbench_accounts_pkey |       2246197248

 2017-02-04 22:53:25.646266+01 | 1486245205.64627 | pgbench_branches_pkey |          1318912
 2017-02-04 22:53:25.646266+01 | 1486245205.64627 | pgbench_tellers_pkey  |          3629056
 2017-02-04 22:53:25.646266+01 | 1486245205.64627 | pgbench_accounts_pkey |       2246197248

 2017-02-04 22:53:26.72941+01 | 1486245206.72941 | pgbench_branches_pkey |          1318912
 2017-02-04 22:53:26.72941+01 | 1486245206.72941 | pgbench_tellers_pkey  |          3629056
 2017-02-04 22:53:26.72941+01 | 1486245206.72941 | pgbench_accounts_pkey |       2246197248

 2017-02-04 22:53:27.816198+01 | 1486245207.8162 | pgbench_branches_pkey |          1318912
 2017-02-04 22:53:27.816198+01 | 1486245207.8162 | pgbench_tellers_pkey  |          3629056
 2017-02-04 22:53:27.816198+01 | 1486245207.8162 | pgbench_accounts_pkey |       2246197248

 2017-02-04 22:53:28.91167+01 | 1486245208.91167 | pgbench_branches_pkey |          1318912
 2017-02-04 22:53:28.91167+01 | 1486245208.91167 | pgbench_tellers_pkey  |          3629056
 2017-02-04 22:53:28.91167+01 | 1486245208.91167 | pgbench_accounts_pkey |       2246197248

 2017-02-04 22:53:30.008552+01 | 1486245210.00855 | pgbench_branches_pkey |          1318912
 2017-02-04 22:53:30.008552+01 | 1486245210.00855 | pgbench_tellers_pkey  |          3629056
 2017-02-04 22:53:30.008552+01 | 1486245210.00855 | pgbench_accounts_pkey |       2246197248

 2017-02-04 22:53:31.095912+01 | 1486245211.09591 | pgbench_branches_pkey |          1318912
 2017-02-04 22:53:31.095912+01 | 1486245211.09591 | pgbench_tellers_pkey  |          3629056
 2017-02-04 22:53:31.095912+01 | 1486245211.09591 | pgbench_accounts_pkey |       2246197248

 2017-02-04 22:53:32.18832+01 | 1486245212.18832 | pgbench_branches_pkey |          1318912
 2017-02-04 22:53:32.18832+01 | 1486245212.18832 | pgbench_tellers_pkey  |          3629056
 2017-02-04 22:53:32.18832+01 | 1486245212.18832 | pgbench_accounts_pkey |       2246197248

 2017-02-04 22:53:33.267018+01 | 1486245213.26702 | pgbench_branches_pkey |          1318912
 2017-02-04 22:53:33.267018+01 | 1486245213.26702 | pgbench_tellers_pkey  |          3629056
 2017-02-04 22:53:33.267018+01 | 1486245213.26702 | pgbench_accounts_pkey |       2246197248

 2017-02-04 22:53:34.346795+01 | 1486245214.3468 | pgbench_branches_pkey |          1318912
 2017-02-04 22:53:34.346795+01 | 1486245214.3468 | pgbench_tellers_pkey  |          3629056
 2017-02-04 22:53:34.346795+01 | 1486245214.3468 | pgbench_accounts_pkey |       2246197248

 2017-02-04 22:53:35.42757+01 | 1486245215.42757 | pgbench_branches_pkey |          1318912
 2017-02-04 22:53:35.42757+01 | 1486245215.42757 | pgbench_tellers_pkey  |          3629056
 2017-02-04 22:53:35.42757+01 | 1486245215.42757 | pgbench_accounts_pkey |       2246197248

 2017-02-04 22:53:36.52375+01 | 1486245216.52375 | pgbench_branches_pkey |          1318912
 2017-02-04 22:53:36.52375+01 | 1486245216.52375 | pgbench_tellers_pkey  |          3629056
 2017-02-04 22:53:36.52375+01 | 1486245216.52375 | pgbench_accounts_pkey |       2246197248

 2017-02-04 22:53:37.627697+01 | 1486245217.6277 | pgbench_branches_pkey |          1318912
 2017-02-04 22:53:37.627697+01 | 1486245217.6277 | pgbench_tellers_pkey  |          3629056
 2017-02-04 22:53:37.627697+01 | 1486245217.6277 | pgbench_accounts_pkey |       2246197248

 2017-02-04 22:53:38.721366+01 | 1486245218.72137 | pgbench_branches_pkey |          1318912
 2017-02-04 22:53:38.721366+01 | 1486245218.72137 | pgbench_tellers_pkey  |          3629056
 2017-02-04 22:53:38.721366+01 | 1486245218.72137 | pgbench_accounts_pkey |       2246197248

 2017-02-04 22:53:39.813514+01 | 1486245219.81351 | pgbench_branches_pkey |          1318912
 2017-02-04 22:53:39.813514+01 | 1486245219.81351 | pgbench_tellers_pkey  |          3629056
 2017-02-04 22:53:39.813514+01 | 1486245219.81351 | pgbench_accounts_pkey |       2246197248

 2017-02-04 22:53:40.91106+01 | 1486245220.91106 | pgbench_branches_pkey |          1318912
 2017-02-04 22:53:40.91106+01 | 1486245220.91106 | pgbench_tellers_pkey  |          3629056
 2017-02-04 22:53:40.91106+01 | 1486245220.91106 | pgbench_accounts_pkey |       2246197248

 2017-02-04 22:53:42.004483+01 | 1486245222.00448 | pgbench_branches_pkey |          1318912
 2017-02-04 22:53:42.004483+01 | 1486245222.00448 | pgbench_tellers_pkey  |          3629056
 2017-02-04 22:53:42.004483+01 | 1486245222.00448 | pgbench_accounts_pkey |       2246197248

 2017-02-04 22:53:43.092561+01 | 1486245223.09256 | pgbench_branches_pkey |          1318912
 2017-02-04 22:53:43.092561+01 | 1486245223.09256 | pgbench_tellers_pkey  |          3629056
 2017-02-04 22:53:43.092561+01 | 1486245223.09256 | pgbench_accounts_pkey |       2246197248

 2017-02-04 22:53:44.189714+01 | 1486245224.18971 | pgbench_branches_pkey |          1318912
 2017-02-04 22:53:44.189714+01 | 1486245224.18971 | pgbench_tellers_pkey  |          3629056
 2017-02-04 22:53:44.189714+01 | 1486245224.18971 | pgbench_accounts_pkey |       2246197248

 2017-02-04 22:53:45.275491+01 | 1486245225.27549 | pgbench_branches_pkey |          1318912
 2017-02-04 22:53:45.275491+01 | 1486245225.27549 | pgbench_tellers_pkey  |          3629056
 2017-02-04 22:53:45.275491+01 | 1486245225.27549 | pgbench_accounts_pkey |       2246197248

 2017-02-04 22:53:46.359644+01 | 1486245226.35964 | pgbench_branches_pkey |          1318912
 2017-02-04 22:53:46.359644+01 | 1486245226.35964 | pgbench_tellers_pkey  |          3629056
 2017-02-04 22:53:46.359644+01 | 1486245226.35964 | pgbench_accounts_pkey |       2246197248

 2017-02-04 22:53:47.442884+01 | 1486245227.44288 | pgbench_branches_pkey |          1318912
 2017-02-04 22:53:47.442884+01 | 1486245227.44288 | pgbench_tellers_pkey  |          3629056
 2017-02-04 22:53:47.442884+01 | 1486245227.44288 | pgbench_accounts_pkey |       2246197248

 2017-02-04 22:53:48.544241+01 | 1486245228.54424 | pgbench_branches_pkey |          1318912
 2017-02-04 22:53:48.544241+01 | 1486245228.54424 | pgbench_tellers_pkey  |          3629056
 2017-02-04 22:53:48.544241+01 | 1486245228.54424 | pgbench_accounts_pkey |       2246197248

 2017-02-04 22:53:49.640682+01 | 1486245229.64068 | pgbench_branches_pkey |          1318912
 2017-02-04 22:53:49.640682+01 | 1486245229.64068 | pgbench_tellers_pkey  |          3629056
 2017-02-04 22:53:49.640682+01 | 1486245229.64068 | pgbench_accounts_pkey |       2246197248

 2017-02-04 22:53:50.743063+01 | 1486245230.74306 | pgbench_branches_pkey |          1318912
 2017-02-04 22:53:50.743063+01 | 1486245230.74306 | pgbench_tellers_pkey  |          3629056
 2017-02-04 22:53:50.743063+01 | 1486245230.74306 | pgbench_accounts_pkey |       2246197248

 2017-02-04 22:53:51.84319+01 | 1486245231.84319 | pgbench_branches_pkey |          1318912
 2017-02-04 22:53:51.84319+01 | 1486245231.84319 | pgbench_tellers_pkey  |          3629056
 2017-02-04 22:53:51.84319+01 | 1486245231.84319 | pgbench_accounts_pkey |       2246197248

 2017-02-04 22:53:52.932948+01 | 1486245232.93295 | pgbench_branches_pkey |          1318912
 2017-02-04 22:53:52.932948+01 | 1486245232.93295 | pgbench_tellers_pkey  |          3629056
 2017-02-04 22:53:52.932948+01 | 1486245232.93295 | pgbench_accounts_pkey |       2246197248

 2017-02-04 22:53:54.032459+01 | 1486245234.03246 | pgbench_branches_pkey |          1318912
 2017-02-04 22:53:54.032459+01 | 1486245234.03246 | pgbench_tellers_pkey  |          3629056
 2017-02-04 22:53:54.032459+01 | 1486245234.03246 | pgbench_accounts_pkey |       2246197248

 2017-02-04 22:53:55.12936+01 | 1486245235.12936 | pgbench_branches_pkey |          1318912
 2017-02-04 22:53:55.12936+01 | 1486245235.12936 | pgbench_tellers_pkey  |          3629056
 2017-02-04 22:53:55.12936+01 | 1486245235.12936 | pgbench_accounts_pkey |       2246197248

 2017-02-04 22:53:56.229062+01 | 1486245236.22906 | pgbench_branches_pkey |          1318912
 2017-02-04 22:53:56.229062+01 | 1486245236.22906 | pgbench_tellers_pkey  |          3629056
 2017-02-04 22:53:56.229062+01 | 1486245236.22906 | pgbench_accounts_pkey |       2246197248

 2017-02-04 22:53:57.3115+01 | 1486245237.3115 | pgbench_branches_pkey |          1318912
 2017-02-04 22:53:57.3115+01 | 1486245237.3115 | pgbench_tellers_pkey  |          3629056
 2017-02-04 22:53:57.3115+01 | 1486245237.3115 | pgbench_accounts_pkey |       2246197248

 2017-02-04 22:53:58.39211+01 | 1486245238.39211 | pgbench_branches_pkey |          1318912
 2017-02-04 22:53:58.39211+01 | 1486245238.39211 | pgbench_tellers_pkey  |          3629056
 2017-02-04 22:53:58.39211+01 | 1486245238.39211 | pgbench_accounts_pkey |       2246197248

 2017-02-04 22:53:59.474295+01 | 1486245239.47429 | pgbench_branches_pkey |          1318912
 2017-02-04 22:53:59.474295+01 | 1486245239.47429 | pgbench_tellers_pkey  |          3629056
 2017-02-04 22:53:59.474295+01 | 1486245239.47429 | pgbench_accounts_pkey |       2246197248

 2017-02-04 22:54:00.56091+01 | 1486245240.56091 | pgbench_branches_pkey |          1318912
 2017-02-04 22:54:00.56091+01 | 1486245240.56091 | pgbench_tellers_pkey  |          3629056
 2017-02-04 22:54:00.56091+01 | 1486245240.56091 | pgbench_accounts_pkey |       2246197248

 2017-02-04 22:54:01.646909+01 | 1486245241.64691 | pgbench_branches_pkey |          1318912
 2017-02-04 22:54:01.646909+01 | 1486245241.64691 | pgbench_tellers_pkey  |          3629056
 2017-02-04 22:54:01.646909+01 | 1486245241.64691 | pgbench_accounts_pkey |       2246197248

 2017-02-04 22:54:02.738049+01 | 1486245242.73805 | pgbench_branches_pkey |          1318912
 2017-02-04 22:54:02.738049+01 | 1486245242.73805 | pgbench_tellers_pkey  |          3629056
 2017-02-04 22:54:02.738049+01 | 1486245242.73805 | pgbench_accounts_pkey |       2246197248

 2017-02-04 22:54:03.839696+01 | 1486245243.8397 | pgbench_branches_pkey |          1318912
 2017-02-04 22:54:03.839696+01 | 1486245243.8397 | pgbench_tellers_pkey  |          3629056
 2017-02-04 22:54:03.839696+01 | 1486245243.8397 | pgbench_accounts_pkey |       2246197248

 2017-02-04 22:54:04.92714+01 | 1486245244.92714 | pgbench_branches_pkey |          1318912
 2017-02-04 22:54:04.92714+01 | 1486245244.92714 | pgbench_tellers_pkey  |          3629056
 2017-02-04 22:54:04.92714+01 | 1486245244.92714 | pgbench_accounts_pkey |       2246197248

 2017-02-04 22:54:06.020413+01 | 1486245246.02041 | pgbench_branches_pkey |          1318912
 2017-02-04 22:54:06.020413+01 | 1486245246.02041 | pgbench_tellers_pkey  |          3629056
 2017-02-04 22:54:06.020413+01 | 1486245246.02041 | pgbench_accounts_pkey |       2246197248

 2017-02-04 22:54:07.107125+01 | 1486245247.10713 | pgbench_branches_pkey |          1318912
 2017-02-04 22:54:07.107125+01 | 1486245247.10713 | pgbench_tellers_pkey  |          3629056
 2017-02-04 22:54:07.107125+01 | 1486245247.10713 | pgbench_accounts_pkey |       2246197248

 2017-02-04 22:54:08.202445+01 | 1486245248.20245 | pgbench_branches_pkey |          1318912
 2017-02-04 22:54:08.202445+01 | 1486245248.20245 | pgbench_tellers_pkey  |          3629056
 2017-02-04 22:54:08.202445+01 | 1486245248.20245 | pgbench_accounts_pkey |       2246197248

 2017-02-04 22:54:09.293491+01 | 1486245249.29349 | pgbench_branches_pkey |          1318912
 2017-02-04 22:54:09.293491+01 | 1486245249.29349 | pgbench_tellers_pkey  |          3629056
 2017-02-04 22:54:09.293491+01 | 1486245249.29349 | pgbench_accounts_pkey |       2246197248

 2017-02-04 22:54:10.373072+01 | 1486245250.37307 | pgbench_branches_pkey |          1318912
 2017-02-04 22:54:10.373072+01 | 1486245250.37307 | pgbench_tellers_pkey  |          3629056
 2017-02-04 22:54:10.373072+01 | 1486245250.37307 | pgbench_accounts_pkey |       2246197248

 2017-02-04 22:54:11.453437+01 | 1486245251.45344 | pgbench_branches_pkey |          1318912
 2017-02-04 22:54:11.453437+01 | 1486245251.45344 | pgbench_tellers_pkey  |          3629056
 2017-02-04 22:54:11.453437+01 | 1486245251.45344 | pgbench_accounts_pkey |       2246197248

 2017-02-04 22:54:12.545528+01 | 1486245252.54553 | pgbench_branches_pkey |          1318912
 2017-02-04 22:54:12.545528+01 | 1486245252.54553 | pgbench_tellers_pkey  |          3629056
 2017-02-04 22:54:12.545528+01 | 1486245252.54553 | pgbench_accounts_pkey |       2246197248

 2017-02-04 22:54:13.635124+01 | 1486245253.63512 | pgbench_branches_pkey |          1318912
 2017-02-04 22:54:13.635124+01 | 1486245253.63512 | pgbench_tellers_pkey  |          3629056
 2017-02-04 22:54:13.635124+01 | 1486245253.63512 | pgbench_accounts_pkey |       2246197248

 2017-02-04 22:54:14.733157+01 | 1486245254.73316 | pgbench_branches_pkey |          1318912
 2017-02-04 22:54:14.733157+01 | 1486245254.73316 | pgbench_tellers_pkey  |          3629056
 2017-02-04 22:54:14.733157+01 | 1486245254.73316 | pgbench_accounts_pkey |       2246197248

 2017-02-04 22:54:15.828584+01 | 1486245255.82858 | pgbench_branches_pkey |          1318912
 2017-02-04 22:54:15.828584+01 | 1486245255.82858 | pgbench_tellers_pkey  |          3629056
 2017-02-04 22:54:15.828584+01 | 1486245255.82858 | pgbench_accounts_pkey |       2246197248

 2017-02-04 22:54:16.921734+01 | 1486245256.92173 | pgbench_branches_pkey |          1318912
 2017-02-04 22:54:16.921734+01 | 1486245256.92173 | pgbench_tellers_pkey  |          3629056
 2017-02-04 22:54:16.921734+01 | 1486245256.92173 | pgbench_accounts_pkey |       2246197248

 2017-02-04 22:54:18.012634+01 | 1486245258.01263 | pgbench_branches_pkey |          1318912
 2017-02-04 22:54:18.012634+01 | 1486245258.01263 | pgbench_tellers_pkey  |          3629056
 2017-02-04 22:54:18.012634+01 | 1486245258.01263 | pgbench_accounts_pkey |       2246197248

 2017-02-04 22:54:19.110395+01 | 1486245259.11039 | pgbench_branches_pkey |          1318912
 2017-02-04 22:54:19.110395+01 | 1486245259.11039 | pgbench_tellers_pkey  |          3629056
 2017-02-04 22:54:19.110395+01 | 1486245259.11039 | pgbench_accounts_pkey |       2246197248

 2017-02-04 22:54:20.211489+01 | 1486245260.21149 | pgbench_branches_pkey |          1318912
 2017-02-04 22:54:20.211489+01 | 1486245260.21149 | pgbench_tellers_pkey  |          3629056
 2017-02-04 22:54:20.211489+01 | 1486245260.21149 | pgbench_accounts_pkey |       2246197248

 2017-02-04 22:54:21.299576+01 | 1486245261.29958 | pgbench_branches_pkey |          1318912
 2017-02-04 22:54:21.299576+01 | 1486245261.29958 | pgbench_tellers_pkey  |          3629056
 2017-02-04 22:54:21.299576+01 | 1486245261.29958 | pgbench_accounts_pkey |       2246197248

 2017-02-04 22:54:22.381879+01 | 1486245262.38188 | pgbench_branches_pkey |          1318912
 2017-02-04 22:54:22.381879+01 | 1486245262.38188 | pgbench_tellers_pkey  |          3629056
 2017-02-04 22:54:22.381879+01 | 1486245262.38188 | pgbench_accounts_pkey |       2246197248

 2017-02-04 22:54:23.464519+01 | 1486245263.46452 | pgbench_branches_pkey |          1318912
 2017-02-04 22:54:23.464519+01 | 1486245263.46452 | pgbench_tellers_pkey  |          3629056
 2017-02-04 22:54:23.464519+01 | 1486245263.46452 | pgbench_accounts_pkey |       2246197248

 2017-02-04 22:54:24.558886+01 | 1486245264.55889 | pgbench_branches_pkey |          1318912
 2017-02-04 22:54:24.558886+01 | 1486245264.55889 | pgbench_tellers_pkey  |          3629056
 2017-02-04 22:54:24.558886+01 | 1486245264.55889 | pgbench_accounts_pkey |       2246197248

 2017-02-04 22:54:25.646578+01 | 1486245265.64658 | pgbench_branches_pkey |          1318912
 2017-02-04 22:54:25.646578+01 | 1486245265.64658 | pgbench_tellers_pkey  |          3629056
 2017-02-04 22:54:25.646578+01 | 1486245265.64658 | pgbench_accounts_pkey |       2246197248

 2017-02-04 22:54:26.731183+01 | 1486245266.73118 | pgbench_branches_pkey |          1318912
 2017-02-04 22:54:26.731183+01 | 1486245266.73118 | pgbench_tellers_pkey  |          3629056
 2017-02-04 22:54:26.731183+01 | 1486245266.73118 | pgbench_accounts_pkey |       2246197248

 2017-02-04 22:54:27.806512+01 | 1486245267.80651 | pgbench_branches_pkey |          1318912
 2017-02-04 22:54:27.806512+01 | 1486245267.80651 | pgbench_tellers_pkey  |          3629056
 2017-02-04 22:54:27.806512+01 | 1486245267.80651 | pgbench_accounts_pkey |       2246197248

 2017-02-04 22:54:28.911022+01 | 1486245268.91102 | pgbench_branches_pkey |          1318912
 2017-02-04 22:54:28.911022+01 | 1486245268.91102 | pgbench_tellers_pkey  |          3629056
 2017-02-04 22:54:28.911022+01 | 1486245268.91102 | pgbench_accounts_pkey |       2246197248

 2017-02-04 22:54:29.995386+01 | 1486245269.99539 | pgbench_branches_pkey |          1318912
 2017-02-04 22:54:29.995386+01 | 1486245269.99539 | pgbench_tellers_pkey  |          3629056
 2017-02-04 22:54:29.995386+01 | 1486245269.99539 | pgbench_accounts_pkey |       2246197248

