 2017-02-06 12:18:57.542853+01 | 1486379937.54285 |                 0 |              32 |                 58962 |                 2511 |            7083872 |             0 |                0 |         1712316 |                     0 |       1416170 | 2017-02-06 09:42:18.893067+01

 2017-02-06 12:18:58.629253+01 | 1486379938.62925 |                 0 |              32 |                 58962 |                 2511 |            7083872 |             0 |                0 |         1712316 |                     0 |       1416370 | 2017-02-06 09:42:18.893067+01

 2017-02-06 12:18:59.713283+01 | 1486379939.71328 |                 0 |              32 |                 58962 |                 2511 |            7083872 |             0 |                0 |         1712316 |                     0 |       1416541 | 2017-02-06 09:42:18.893067+01

 2017-02-06 12:19:00.79606+01 | 1486379940.79606 |                 0 |              32 |                 58962 |                 2511 |            7083872 |             0 |                0 |         1712316 |                     0 |       1416687 | 2017-02-06 09:42:18.893067+01

 2017-02-06 12:19:01.897516+01 | 1486379941.89752 |                 0 |              32 |                 58962 |                 2511 |            7083872 |             0 |                0 |         1712316 |                     0 |       1416816 | 2017-02-06 09:42:18.893067+01

 2017-02-06 12:19:02.999729+01 | 1486379942.99973 |                 0 |              32 |                 58962 |                 2511 |            7083872 |             0 |                0 |         1712316 |                     0 |       1416981 | 2017-02-06 09:42:18.893067+01

 2017-02-06 12:19:04.088497+01 | 1486379944.0885 |                 0 |              32 |                 58962 |                 2511 |            7083872 |             0 |                0 |         1712316 |                     0 |       1417184 | 2017-02-06 09:42:18.893067+01

 2017-02-06 12:19:05.179134+01 | 1486379945.17913 |                 0 |              32 |                 58962 |                 2511 |            7083872 |             0 |                0 |         1712316 |                     0 |       1417652 | 2017-02-06 09:42:18.893067+01

 2017-02-06 12:19:06.272958+01 | 1486379946.27296 |                 0 |              32 |                 58962 |                 2511 |            7083872 |             0 |                0 |         1712316 |                     0 |       1417652 | 2017-02-06 09:42:18.893067+01

 2017-02-06 12:19:07.366206+01 | 1486379947.36621 |                 0 |              32 |                 58962 |                 2511 |            7083872 |             0 |                0 |         1712316 |                     0 |       1417885 | 2017-02-06 09:42:18.893067+01

 2017-02-06 12:19:08.449723+01 | 1486379948.44972 |                 0 |              32 |                 58962 |                 2511 |            7083872 |             0 |                0 |         1712316 |                     0 |       1418038 | 2017-02-06 09:42:18.893067+01

 2017-02-06 12:19:09.532335+01 | 1486379949.53234 |                 0 |              32 |                 58962 |                 2511 |            7083872 |             0 |                0 |         1712316 |                     0 |       1418251 | 2017-02-06 09:42:18.893067+01

 2017-02-06 12:19:10.636572+01 | 1486379950.63657 |                 0 |              32 |                 58962 |                 2511 |            7083872 |             0 |                0 |         1712316 |                     0 |       1418447 | 2017-02-06 09:42:18.893067+01

 2017-02-06 12:19:11.734126+01 | 1486379951.73413 |                 0 |              32 |                 58962 |                 2511 |            7083872 |             0 |                0 |         1712316 |                     0 |       1418638 | 2017-02-06 09:42:18.893067+01

 2017-02-06 12:19:12.825931+01 | 1486379952.82593 |                 0 |              32 |                 58962 |                 2511 |            7083872 |             0 |                0 |         1712316 |                     0 |       1418806 | 2017-02-06 09:42:18.893067+01

 2017-02-06 12:19:13.915148+01 | 1486379953.91515 |                 0 |              32 |                 58962 |                 2511 |            7083872 |             0 |                0 |         1712316 |                     0 |       1419517 | 2017-02-06 09:42:18.893067+01

 2017-02-06 12:19:15.007343+01 | 1486379955.00734 |                 0 |              32 |                 58962 |                 2511 |            7083872 |             0 |                0 |         1712316 |                     0 |       1419517 | 2017-02-06 09:42:18.893067+01

 2017-02-06 12:19:16.117222+01 | 1486379956.11722 |                 0 |              32 |                 58962 |                 2511 |            7083872 |             0 |                0 |         1712316 |                     0 |       1419517 | 2017-02-06 09:42:18.893067+01

 2017-02-06 12:19:17.208749+01 | 1486379957.20875 |                 0 |              32 |                 58962 |                 2511 |            7083872 |             0 |                0 |         1712316 |                     0 |       1419706 | 2017-02-06 09:42:18.893067+01

 2017-02-06 12:19:18.299381+01 | 1486379958.29938 |                 0 |              32 |                 58962 |                 2511 |            7083872 |             0 |                0 |         1712316 |                     0 |       1419835 | 2017-02-06 09:42:18.893067+01

 2017-02-06 12:19:19.397397+01 | 1486379959.3974 |                 0 |              32 |                 58962 |                 2511 |            7083872 |             0 |                0 |         1712316 |                     0 |       1420048 | 2017-02-06 09:42:18.893067+01

 2017-02-06 12:19:20.481082+01 | 1486379960.48108 |                 0 |              32 |                 58962 |                 2511 |            7083872 |             0 |                0 |         1712316 |                     0 |       1420224 | 2017-02-06 09:42:18.893067+01

 2017-02-06 12:19:21.569524+01 | 1486379961.56952 |                 0 |              32 |                 58962 |                 2511 |            7083872 |             0 |                0 |         1712316 |                     0 |       1420414 | 2017-02-06 09:42:18.893067+01

 2017-02-06 12:19:22.660911+01 | 1486379962.66091 |                 0 |              32 |                 58962 |                 2511 |            7083872 |             0 |                0 |         1712316 |                     0 |       1420815 | 2017-02-06 09:42:18.893067+01

 2017-02-06 12:19:23.759043+01 | 1486379963.75904 |                 0 |              32 |                 58962 |                 2511 |            7083872 |             0 |                0 |         1712316 |                     0 |       1420820 | 2017-02-06 09:42:18.893067+01

 2017-02-06 12:19:24.849072+01 | 1486379964.84907 |                 0 |              32 |                 58962 |                 2511 |            7083872 |             0 |                0 |         1712316 |                     0 |       1420984 | 2017-02-06 09:42:18.893067+01

 2017-02-06 12:19:25.941417+01 | 1486379965.94142 |                 0 |              32 |                 58962 |                 2511 |            7083872 |             0 |                0 |         1712316 |                     0 |       1421242 | 2017-02-06 09:42:18.893067+01

 2017-02-06 12:19:27.044492+01 | 1486379967.04449 |                 0 |              32 |                 58962 |                 2511 |            7083872 |             0 |                0 |         1712316 |                     0 |       1421436 | 2017-02-06 09:42:18.893067+01

 2017-02-06 12:19:28.140129+01 | 1486379968.14013 |                 0 |              32 |                 58962 |                 2511 |            7083872 |             0 |                0 |         1712316 |                     0 |       1421649 | 2017-02-06 09:42:18.893067+01

 2017-02-06 12:19:29.231246+01 | 1486379969.23125 |                 0 |              32 |                 58962 |                 2511 |            7083872 |             0 |                0 |         1712316 |                     0 |       1421836 | 2017-02-06 09:42:18.893067+01

 2017-02-06 12:19:30.32901+01 | 1486379970.32901 |                 0 |              32 |                 58962 |                 2511 |            7083872 |             0 |                0 |         1712316 |                     0 |       1422167 | 2017-02-06 09:42:18.893067+01

 2017-02-06 12:19:31.413762+01 | 1486379971.41376 |                 0 |              32 |                 58962 |                 2511 |            7083872 |             0 |                0 |         1712316 |                     0 |       1422250 | 2017-02-06 09:42:18.893067+01

 2017-02-06 12:19:32.504729+01 | 1486379972.50473 |                 0 |              32 |                 58962 |                 2511 |            7083872 |             0 |                0 |         1712316 |                     0 |       1422357 | 2017-02-06 09:42:18.893067+01

 2017-02-06 12:19:33.609881+01 | 1486379973.60988 |                 0 |              32 |                 58962 |                 2511 |            7083872 |             0 |                0 |         1712316 |                     0 |       1422607 | 2017-02-06 09:42:18.893067+01

 2017-02-06 12:19:34.70859+01 | 1486379974.70859 |                 0 |              32 |                 58962 |                 2511 |            7083872 |             0 |                0 |         1712316 |                     0 |       1422975 | 2017-02-06 09:42:18.893067+01

 2017-02-06 12:19:35.806406+01 | 1486379975.80641 |                 0 |              32 |                 58962 |                 2511 |            7083872 |             0 |                0 |         1712316 |                     0 |       1423058 | 2017-02-06 09:42:18.893067+01

 2017-02-06 12:19:36.908963+01 | 1486379976.90896 |                 0 |              32 |                 58962 |                 2511 |            7083872 |             0 |                0 |         1712316 |                     0 |       1423227 | 2017-02-06 09:42:18.893067+01

 2017-02-06 12:19:38.008539+01 | 1486379978.00854 |                 0 |              32 |                 58962 |                 2511 |            7083872 |             0 |                0 |         1712316 |                     0 |       1423414 | 2017-02-06 09:42:18.893067+01

 2017-02-06 12:19:39.101862+01 | 1486379979.10186 |                 0 |              32 |                 58962 |                 2511 |            7083872 |             0 |                0 |         1712316 |                     0 |       1423706 | 2017-02-06 09:42:18.893067+01

 2017-02-06 12:19:40.192807+01 | 1486379980.19281 |                 0 |              32 |                 58962 |                 2511 |            7083872 |             0 |                0 |         1712316 |                     0 |       1423897 | 2017-02-06 09:42:18.893067+01

 2017-02-06 12:19:41.283485+01 | 1486379981.28348 |                 0 |              32 |                 58962 |                 2511 |            7083872 |             0 |                0 |         1712316 |                     0 |       1424071 | 2017-02-06 09:42:18.893067+01

 2017-02-06 12:19:42.381318+01 | 1486379982.38132 |                 0 |              32 |                 58962 |                 2511 |            7083872 |             0 |                0 |         1712316 |                     0 |       1424262 | 2017-02-06 09:42:18.893067+01

 2017-02-06 12:19:43.462641+01 | 1486379983.46264 |                 0 |              32 |                 58962 |                 2511 |            7083872 |             0 |                0 |         1712316 |                     0 |       1424459 | 2017-02-06 09:42:18.893067+01

 2017-02-06 12:19:44.543498+01 | 1486379984.5435 |                 0 |              32 |                 58962 |                 2511 |            7083872 |             0 |                0 |         1712316 |                     0 |       1424714 | 2017-02-06 09:42:18.893067+01

 2017-02-06 12:19:45.629197+01 | 1486379985.6292 |                 0 |              32 |                 58962 |                 2511 |            7083872 |             0 |                0 |         1712316 |                     0 |       1424865 | 2017-02-06 09:42:18.893067+01

 2017-02-06 12:19:46.731587+01 | 1486379986.73159 |                 0 |              32 |                 58962 |                 2511 |            7083872 |             0 |                0 |         1712316 |                     0 |       1425051 | 2017-02-06 09:42:18.893067+01

 2017-02-06 12:19:47.832458+01 | 1486379987.83246 |                 0 |              32 |                 58962 |                 2511 |            7083872 |             0 |                0 |         1712316 |                     0 |       1425283 | 2017-02-06 09:42:18.893067+01

 2017-02-06 12:19:48.925836+01 | 1486379988.92584 |                 0 |              32 |                 58962 |                 2511 |            7083872 |             0 |                0 |         1712316 |                     0 |       1425575 | 2017-02-06 09:42:18.893067+01

 2017-02-06 12:19:50.019375+01 | 1486379990.01938 |                 0 |              32 |                 58962 |                 2511 |            7083872 |             0 |                0 |         1712316 |                     0 |       1425575 | 2017-02-06 09:42:18.893067+01

 2017-02-06 12:19:51.103616+01 | 1486379991.10362 |                 0 |              32 |                 58962 |                 2511 |            7083872 |             0 |                0 |         1712316 |                     0 |       1425942 | 2017-02-06 09:42:18.893067+01

 2017-02-06 12:19:52.201303+01 | 1486379992.2013 |                 0 |              32 |                 58962 |                 2511 |            7083872 |             0 |                0 |         1712316 |                     0 |       1426090 | 2017-02-06 09:42:18.893067+01

 2017-02-06 12:19:53.304448+01 | 1486379993.30445 |                 0 |              32 |                 58962 |                 2511 |            7083872 |             0 |                0 |         1712316 |                     0 |       1426561 | 2017-02-06 09:42:18.893067+01

 2017-02-06 12:19:54.397347+01 | 1486379994.39735 |                 0 |              32 |                 58962 |                 2511 |            7083872 |             0 |                0 |         1712316 |                     0 |       1426561 | 2017-02-06 09:42:18.893067+01

 2017-02-06 12:19:55.475867+01 | 1486379995.47587 |                 0 |              32 |                 58962 |                 2511 |            7083872 |             0 |                0 |         1712316 |                     0 |       1426747 | 2017-02-06 09:42:18.893067+01

 2017-02-06 12:19:56.560658+01 | 1486379996.56066 |                 0 |              32 |                 58962 |                 2511 |            7083872 |             0 |                0 |         1712316 |                     0 |       1427000 | 2017-02-06 09:42:18.893067+01

 2017-02-06 12:19:57.649791+01 | 1486379997.64979 |                 0 |              32 |                 58962 |                 2511 |            7083872 |             0 |                0 |         1712316 |                     0 |       1427154 | 2017-02-06 09:42:18.893067+01

 2017-02-06 12:19:58.727722+01 | 1486379998.72772 |                 0 |              32 |                 58962 |                 2511 |            7083872 |             0 |                0 |         1712316 |                     0 |       1427280 | 2017-02-06 09:42:18.893067+01

 2017-02-06 12:19:59.830776+01 | 1486379999.83078 |                 0 |              32 |                 58962 |                 2511 |            7083872 |             0 |                0 |         1712316 |                     0 |       1427519 | 2017-02-06 09:42:18.893067+01

 2017-02-06 12:20:00.922396+01 | 1486380000.9224 |                 0 |              32 |                 58962 |                 2511 |            7083872 |             0 |                0 |         1712316 |                     0 |       1427682 | 2017-02-06 09:42:18.893067+01

 2017-02-06 12:20:02.030336+01 | 1486380002.03034 |                 0 |              32 |                 58962 |                 2511 |            7083872 |             0 |                0 |         1712316 |                     0 |       1427892 | 2017-02-06 09:42:18.893067+01

 2017-02-06 12:20:03.129085+01 | 1486380003.12909 |                 0 |              32 |                 58962 |                 2511 |            7083872 |             0 |                0 |         1712316 |                     0 |       1428105 | 2017-02-06 09:42:18.893067+01

 2017-02-06 12:20:04.218892+01 | 1486380004.21889 |                 0 |              32 |                 58962 |                 2511 |            7083872 |             0 |                0 |         1712316 |                     0 |       1428372 | 2017-02-06 09:42:18.893067+01

 2017-02-06 12:20:05.3187+01 | 1486380005.3187 |                 0 |              32 |                 58962 |                 2511 |            7083872 |             0 |                0 |         1712316 |                     0 |       1428481 | 2017-02-06 09:42:18.893067+01

 2017-02-06 12:20:06.407513+01 | 1486380006.40751 |                 0 |              32 |                 58962 |                 2511 |            7083872 |             0 |                0 |         1712316 |                     0 |       1428699 | 2017-02-06 09:42:18.893067+01

 2017-02-06 12:20:07.498449+01 | 1486380007.49845 |                 0 |              32 |                 58962 |                 2511 |            7083872 |             0 |                0 |         1712316 |                     0 |       1428905 | 2017-02-06 09:42:18.893067+01

 2017-02-06 12:20:08.579723+01 | 1486380008.57972 |                 0 |              32 |                 58962 |                 2511 |            7083872 |             0 |                0 |         1712316 |                     0 |       1429072 | 2017-02-06 09:42:18.893067+01

 2017-02-06 12:20:09.66633+01 | 1486380009.66633 |                 0 |              32 |                 58962 |                 2511 |            7083872 |             0 |                0 |         1712316 |                     0 |       1429279 | 2017-02-06 09:42:18.893067+01

 2017-02-06 12:20:10.758872+01 | 1486380010.75887 |                 0 |              32 |                 58962 |                 2511 |            7083872 |             0 |                0 |         1712316 |                     0 |       1429510 | 2017-02-06 09:42:18.893067+01

 2017-02-06 12:20:11.862571+01 | 1486380011.86257 |                 0 |              32 |                 58962 |                 2511 |            7083872 |             0 |                0 |         1712316 |                     0 |       1429690 | 2017-02-06 09:42:18.893067+01

 2017-02-06 12:20:12.958699+01 | 1486380012.9587 |                 0 |              32 |                 58962 |                 2511 |            7083872 |             0 |                0 |         1712316 |                     0 |       1429854 | 2017-02-06 09:42:18.893067+01

 2017-02-06 12:20:14.04997+01 | 1486380014.04997 |                 0 |              32 |                 58962 |                 2511 |            7083872 |             0 |                0 |         1712316 |                     0 |       1430112 | 2017-02-06 09:42:18.893067+01

 2017-02-06 12:20:15.146347+01 | 1486380015.14635 |                 0 |              32 |                 58962 |                 2511 |            7083872 |             0 |                0 |         1712316 |                     0 |       1430279 | 2017-02-06 09:42:18.893067+01

 2017-02-06 12:20:16.257826+01 | 1486380016.25783 |                 0 |              32 |                 58962 |                 2511 |            7083872 |             0 |                0 |         1712316 |                     0 |       1430527 | 2017-02-06 09:42:18.893067+01

 2017-02-06 12:20:17.360331+01 | 1486380017.36033 |                 0 |              32 |                 58962 |                 2511 |            7083872 |             0 |                0 |         1712316 |                     0 |       1430713 | 2017-02-06 09:42:18.893067+01

 2017-02-06 12:20:18.454669+01 | 1486380018.45467 |                 0 |              32 |                 58962 |                 2511 |            7083872 |             0 |                0 |         1712316 |                     0 |       1430905 | 2017-02-06 09:42:18.893067+01

 2017-02-06 12:20:19.537586+01 | 1486380019.53759 |                 0 |              32 |                 58962 |                 2511 |            7083872 |             0 |                0 |         1712316 |                     0 |       1431091 | 2017-02-06 09:42:18.893067+01

 2017-02-06 12:20:20.616249+01 | 1486380020.61625 |                 0 |              32 |                 58962 |                 2511 |            7083872 |             0 |                0 |         1712316 |                     0 |       1431374 | 2017-02-06 09:42:18.893067+01

 2017-02-06 12:20:21.697535+01 | 1486380021.69754 |                 0 |              32 |                 58962 |                 2511 |            7083872 |             0 |                0 |         1712316 |                     0 |       1431501 | 2017-02-06 09:42:18.893067+01

 2017-02-06 12:20:22.784696+01 | 1486380022.7847 |                 0 |              32 |                 58962 |                 2511 |            7083872 |             0 |                0 |         1712316 |                     0 |       1431727 | 2017-02-06 09:42:18.893067+01

 2017-02-06 12:20:23.879718+01 | 1486380023.87972 |                 0 |              32 |                 58962 |                 2511 |            7083872 |             0 |                0 |         1712316 |                     0 |       1431880 | 2017-02-06 09:42:18.893067+01

 2017-02-06 12:20:24.975446+01 | 1486380024.97545 |                 0 |              32 |                 58962 |                 2511 |            7083872 |             0 |                0 |         1712316 |                     0 |       1432073 | 2017-02-06 09:42:18.893067+01

 2017-02-06 12:20:26.068386+01 | 1486380026.06839 |                 0 |              32 |                 58962 |                 2511 |            7083872 |             0 |                0 |         1712316 |                     0 |       1432309 | 2017-02-06 09:42:18.893067+01

 2017-02-06 12:20:27.168367+01 | 1486380027.16837 |                 0 |              32 |                 58962 |                 2511 |            7083872 |             0 |                0 |         1712316 |                     0 |       1432495 | 2017-02-06 09:42:18.893067+01

 2017-02-06 12:20:28.278541+01 | 1486380028.27854 |                 0 |              32 |                 58962 |                 2511 |            7083872 |             0 |                0 |         1712316 |                     0 |       1432725 | 2017-02-06 09:42:18.893067+01

 2017-02-06 12:20:29.380885+01 | 1486380029.38088 |                 0 |              32 |                 58962 |                 2511 |            7083872 |             0 |                0 |         1712316 |                     0 |       1432914 | 2017-02-06 09:42:18.893067+01

 2017-02-06 12:20:30.469587+01 | 1486380030.46959 |                 0 |              32 |                 58962 |                 2511 |            7083872 |             0 |                0 |         1712316 |                     0 |       1433117 | 2017-02-06 09:42:18.893067+01

 2017-02-06 12:20:31.54965+01 | 1486380031.54965 |                 0 |              32 |                 58962 |                 2511 |            7083872 |             0 |                0 |         1712316 |                     0 |       1433327 | 2017-02-06 09:42:18.893067+01

 2017-02-06 12:20:32.629412+01 | 1486380032.62941 |                 0 |              32 |                 58962 |                 2511 |            7083872 |             0 |                0 |         1712316 |                     0 |       1433510 | 2017-02-06 09:42:18.893067+01

 2017-02-06 12:20:33.712048+01 | 1486380033.71205 |                 0 |              32 |                 58962 |                 2511 |            7083872 |             0 |                0 |         1712316 |                     0 |       1433686 | 2017-02-06 09:42:18.893067+01

 2017-02-06 12:20:34.804556+01 | 1486380034.80456 |                 0 |              32 |                 58962 |                 2511 |            7083872 |             0 |                0 |         1712316 |                     0 |       1433876 | 2017-02-06 09:42:18.893067+01

 2017-02-06 12:20:35.90029+01 | 1486380035.90029 |                 0 |              32 |                 58962 |                 2511 |            7083872 |             0 |                0 |         1712316 |                     0 |       1434065 | 2017-02-06 09:42:18.893067+01

 2017-02-06 12:20:36.99451+01 | 1486380036.99451 |                 0 |              32 |                 58962 |                 2511 |            7083872 |             0 |                0 |         1712316 |                     0 |       1434310 | 2017-02-06 09:42:18.893067+01

 2017-02-06 12:20:38.083883+01 | 1486380038.08388 |                 0 |              32 |                 58962 |                 2511 |            7083872 |             0 |                0 |         1712316 |                     0 |       1434479 | 2017-02-06 09:42:18.893067+01

 2017-02-06 12:20:39.182379+01 | 1486380039.18238 |                 0 |              32 |                 58962 |                 2511 |            7083872 |             0 |                0 |         1712316 |                     0 |       1434628 | 2017-02-06 09:42:18.893067+01

 2017-02-06 12:20:40.273426+01 | 1486380040.27343 |                 0 |              32 |                 58962 |                 2511 |            7083872 |             0 |                0 |         1712316 |                     0 |       1434893 | 2017-02-06 09:42:18.893067+01

 2017-02-06 12:20:41.363943+01 | 1486380041.36394 |                 0 |              32 |                 58962 |                 2511 |            7083872 |             0 |                0 |         1712316 |                     0 |       1435084 | 2017-02-06 09:42:18.893067+01

 2017-02-06 12:20:42.453914+01 | 1486380042.45391 |                 0 |              32 |                 58962 |                 2511 |            7083872 |             0 |                0 |         1712316 |                     0 |       1435229 | 2017-02-06 09:42:18.893067+01

 2017-02-06 12:20:43.539951+01 | 1486380043.53995 |                 0 |              32 |                 58962 |                 2511 |            7083872 |             0 |                0 |         1712316 |                     0 |       1435456 | 2017-02-06 09:42:18.893067+01

 2017-02-06 12:20:44.623292+01 | 1486380044.62329 |                 0 |              32 |                 58962 |                 2511 |            7083872 |             0 |                0 |         1712316 |                     0 |       1435705 | 2017-02-06 09:42:18.893067+01

 2017-02-06 12:20:45.714039+01 | 1486380045.71404 |                 0 |              32 |                 58962 |                 2511 |            7083872 |             0 |                0 |         1712316 |                     0 |       1435849 | 2017-02-06 09:42:18.893067+01

 2017-02-06 12:20:46.80894+01 | 1486380046.80894 |                 0 |              32 |                 58962 |                 2511 |            7083872 |             0 |                0 |         1712316 |                     0 |       1436022 | 2017-02-06 09:42:18.893067+01

 2017-02-06 12:20:47.916683+01 | 1486380047.91668 |                 0 |              32 |                 58962 |                 2511 |            7083872 |             0 |                0 |         1712316 |                     0 |       1436231 | 2017-02-06 09:42:18.893067+01

 2017-02-06 12:20:49.023975+01 | 1486380049.02397 |                 0 |              32 |                 58962 |                 2511 |            7083872 |             0 |                0 |         1712316 |                     0 |       1436596 | 2017-02-06 09:42:18.893067+01

 2017-02-06 12:20:50.117549+01 | 1486380050.11755 |                 0 |              32 |                 58962 |                 2511 |            7083872 |             0 |                0 |         1712316 |                     0 |       1436640 | 2017-02-06 09:42:18.893067+01

 2017-02-06 12:20:51.230975+01 | 1486380051.23097 |                 0 |              32 |                 58962 |                 2511 |            7083872 |             0 |                0 |         1712316 |                     0 |       1436806 | 2017-02-06 09:42:18.893067+01

 2017-02-06 12:20:52.331432+01 | 1486380052.33143 |                 0 |              32 |                 58962 |                 2511 |            7083872 |             0 |                0 |         1712316 |                     0 |       1436977 | 2017-02-06 09:42:18.893067+01

 2017-02-06 12:20:53.431607+01 | 1486380053.43161 |                 0 |              32 |                 58962 |                 2511 |            7083872 |             0 |                0 |         1712316 |                     0 |       1437304 | 2017-02-06 09:42:18.893067+01

 2017-02-06 12:20:54.526386+01 | 1486380054.52639 |                 0 |              32 |                 58962 |                 2511 |            7083872 |             0 |                0 |         1712316 |                     0 |       1437454 | 2017-02-06 09:42:18.893067+01

 2017-02-06 12:20:55.608509+01 | 1486380055.60851 |                 0 |              32 |                 58962 |                 2511 |            7083872 |             0 |                0 |         1712316 |                     0 |       1437897 | 2017-02-06 09:42:18.893067+01

 2017-02-06 12:20:56.687261+01 | 1486380056.68726 |                 0 |              32 |                 58962 |                 2511 |            7083872 |             0 |                0 |         1712316 |                     0 |       1437897 | 2017-02-06 09:42:18.893067+01

 2017-02-06 12:20:57.77542+01 | 1486380057.77542 |                 0 |              32 |                 58962 |                 2511 |            7083872 |             0 |                0 |         1712316 |                     0 |       1438026 | 2017-02-06 09:42:18.893067+01

 2017-02-06 12:20:58.860092+01 | 1486380058.86009 |                 0 |              32 |                 58962 |                 2511 |            7083872 |             0 |                0 |         1712316 |                     0 |       1438220 | 2017-02-06 09:42:18.893067+01

 2017-02-06 12:20:59.970344+01 | 1486380059.97034 |                 0 |              32 |                 58962 |                 2511 |            7083872 |             0 |                0 |         1712316 |                     0 |       1438463 | 2017-02-06 09:42:18.893067+01

 2017-02-06 12:21:01.074809+01 | 1486380061.07481 |                 0 |              32 |                 58962 |                 2511 |            7083872 |             0 |                0 |         1712316 |                     0 |       1438726 | 2017-02-06 09:42:18.893067+01

 2017-02-06 12:21:02.168018+01 | 1486380062.16802 |                 0 |              32 |                 58962 |                 2511 |            7083872 |             0 |                0 |         1712316 |                     0 |       1438816 | 2017-02-06 09:42:18.893067+01

 2017-02-06 12:21:03.25662+01 | 1486380063.25662 |                 0 |              32 |                 58962 |                 2511 |            7083872 |             0 |                0 |         1712316 |                     0 |       1439008 | 2017-02-06 09:42:18.893067+01

 2017-02-06 12:21:04.357875+01 | 1486380064.35788 |                 0 |              32 |                 58962 |                 2511 |            7083872 |             0 |                0 |         1712316 |                     0 |       1439259 | 2017-02-06 09:42:18.893067+01

 2017-02-06 12:21:05.44772+01 | 1486380065.44772 |                 0 |              32 |                 58962 |                 2511 |            7083872 |             0 |                0 |         1712316 |                     0 |       1439530 | 2017-02-06 09:42:18.893067+01

 2017-02-06 12:21:06.533611+01 | 1486380066.53361 |                 0 |              32 |                 58962 |                 2511 |            7083872 |             0 |                0 |         1712316 |                     0 |       1439573 | 2017-02-06 09:42:18.893067+01

 2017-02-06 12:21:07.618814+01 | 1486380067.61881 |                 0 |              32 |                 58962 |                 2511 |            7083872 |             0 |                0 |         1712316 |                     0 |       1439795 | 2017-02-06 09:42:18.893067+01

 2017-02-06 12:21:08.710883+01 | 1486380068.71088 |                 0 |              32 |                 58962 |                 2511 |            7083872 |             0 |                0 |         1712316 |                     0 |       1439980 | 2017-02-06 09:42:18.893067+01

 2017-02-06 12:21:09.80106+01 | 1486380069.80106 |                 0 |              32 |                 58962 |                 2511 |            7083872 |             0 |                0 |         1712316 |                     0 |       1440171 | 2017-02-06 09:42:18.893067+01

 2017-02-06 12:21:10.900206+01 | 1486380070.90021 |                 0 |              32 |                 58962 |                 2511 |            7083872 |             0 |                0 |         1712316 |                     0 |       1440366 | 2017-02-06 09:42:18.893067+01

 2017-02-06 12:21:11.997204+01 | 1486380071.9972 |                 0 |              32 |                 58962 |                 2511 |            7083872 |             0 |                0 |         1712316 |                     0 |       1440595 | 2017-02-06 09:42:18.893067+01

 2017-02-06 12:21:13.092301+01 | 1486380073.0923 |                 0 |              32 |                 58962 |                 2511 |            7083872 |             0 |                0 |         1712316 |                     0 |       1440847 | 2017-02-06 09:42:18.893067+01

 2017-02-06 12:21:14.185372+01 | 1486380074.18537 |                 0 |              32 |                 58962 |                 2511 |            7083872 |             0 |                0 |         1712316 |                     0 |       1440974 | 2017-02-06 09:42:18.893067+01

 2017-02-06 12:21:15.274429+01 | 1486380075.27443 |                 0 |              32 |                 58962 |                 2511 |            7083872 |             0 |                0 |         1712316 |                     0 |       1441301 | 2017-02-06 09:42:18.893067+01

 2017-02-06 12:21:16.37791+01 | 1486380076.37791 |                 0 |              32 |                 58962 |                 2511 |            7083872 |             0 |                0 |         1712316 |                     0 |       1441385 | 2017-02-06 09:42:18.893067+01

 2017-02-06 12:21:17.469705+01 | 1486380077.46971 |                 0 |              32 |                 58962 |                 2511 |            7083872 |             0 |                0 |         1712316 |                     0 |       1441571 | 2017-02-06 09:42:18.893067+01

 2017-02-06 12:21:18.554814+01 | 1486380078.55481 |                 0 |              32 |                 58962 |                 2511 |            7083872 |             0 |                0 |         1712316 |                     0 |       1441964 | 2017-02-06 09:42:18.893067+01

 2017-02-06 12:21:19.644663+01 | 1486380079.64466 |                 0 |              32 |                 58962 |                 2511 |            7083872 |             0 |                0 |         1712316 |                     0 |       1441966 | 2017-02-06 09:42:18.893067+01

 2017-02-06 12:21:20.728639+01 | 1486380080.72864 |                 0 |              32 |                 58962 |                 2511 |            7083872 |             0 |                0 |         1712316 |                     0 |       1442179 | 2017-02-06 09:42:18.893067+01

 2017-02-06 12:21:21.817987+01 | 1486380081.81799 |                 0 |              32 |                 58962 |                 2511 |            7083872 |             0 |                0 |         1712316 |                     0 |       1442362 | 2017-02-06 09:42:18.893067+01

 2017-02-06 12:21:22.911711+01 | 1486380082.91171 |                 0 |              32 |                 58962 |                 2511 |            7083872 |             0 |                0 |         1712316 |                     0 |       1442565 | 2017-02-06 09:42:18.893067+01

 2017-02-06 12:21:24.005796+01 | 1486380084.0058 |                 0 |              32 |                 58962 |                 2511 |            7083872 |             0 |                0 |         1712316 |                     0 |       1442757 | 2017-02-06 09:42:18.893067+01

 2017-02-06 12:21:25.111132+01 | 1486380085.11113 |                 0 |              32 |                 58962 |                 2511 |            7083872 |             0 |                0 |         1712316 |                     0 |       1442987 | 2017-02-06 09:42:18.893067+01

 2017-02-06 12:21:26.210773+01 | 1486380086.21077 |                 0 |              32 |                 58962 |                 2511 |            7083872 |             0 |                0 |         1712316 |                     0 |       1443136 | 2017-02-06 09:42:18.893067+01

 2017-02-06 12:21:27.319683+01 | 1486380087.31968 |                 0 |              32 |                 58962 |                 2511 |            7083872 |             0 |                0 |         1712316 |                     0 |       1443355 | 2017-02-06 09:42:18.893067+01

 2017-02-06 12:21:28.416196+01 | 1486380088.4162 |                 0 |              32 |                 58962 |                 2511 |            7083872 |             0 |                0 |         1712316 |                     0 |       1443531 | 2017-02-06 09:42:18.893067+01

 2017-02-06 12:21:29.5041+01 | 1486380089.5041 |                 0 |              32 |                 58962 |                 2511 |            7083872 |             0 |                0 |         1712316 |                     0 |       1443724 | 2017-02-06 09:42:18.893067+01

 2017-02-06 12:21:30.590262+01 | 1486380090.59026 |                 0 |              32 |                 58962 |                 2511 |            7083872 |             0 |                0 |         1712316 |                     0 |       1443940 | 2017-02-06 09:42:18.893067+01

 2017-02-06 12:21:31.665646+01 | 1486380091.66565 |                 0 |              32 |                 58962 |                 2511 |            7083872 |             0 |                0 |         1712316 |                     0 |       1444129 | 2017-02-06 09:42:18.893067+01

 2017-02-06 12:21:32.749672+01 | 1486380092.74967 |                 0 |              32 |                 58962 |                 2511 |            7083872 |             0 |                0 |         1712316 |                     0 |       1444366 | 2017-02-06 09:42:18.893067+01

 2017-02-06 12:21:33.830907+01 | 1486380093.83091 |                 0 |              32 |                 58962 |                 2511 |            7083872 |             0 |                0 |         1712316 |                     0 |       1444512 | 2017-02-06 09:42:18.893067+01

 2017-02-06 12:21:34.919088+01 | 1486380094.91909 |                 0 |              32 |                 58962 |                 2511 |            7083872 |             0 |                0 |         1712316 |                     0 |       1444904 | 2017-02-06 09:42:18.893067+01

 2017-02-06 12:21:36.022639+01 | 1486380096.02264 |                 0 |              32 |                 58962 |                 2511 |            7083872 |             0 |                0 |         1712316 |                     0 |       1444948 | 2017-02-06 09:42:18.893067+01

 2017-02-06 12:21:37.122902+01 | 1486380097.1229 |                 0 |              32 |                 58962 |                 2511 |            7083872 |             0 |                0 |         1712316 |                     0 |       1445159 | 2017-02-06 09:42:18.893067+01

 2017-02-06 12:21:38.213388+01 | 1486380098.21339 |                 0 |              32 |                 58962 |                 2511 |            7083872 |             0 |                0 |         1712316 |                     0 |       1445329 | 2017-02-06 09:42:18.893067+01

 2017-02-06 12:21:39.310659+01 | 1486380099.31066 |                 0 |              32 |                 58962 |                 2511 |            7083872 |             0 |                0 |         1712316 |                     0 |       1445475 | 2017-02-06 09:42:18.893067+01

 2017-02-06 12:21:40.411965+01 | 1486380100.41196 |                 0 |              32 |                 58962 |                 2511 |            7083872 |             0 |                0 |         1712316 |                     0 |       1445777 | 2017-02-06 09:42:18.893067+01

 2017-02-06 12:21:41.503779+01 | 1486380101.50378 |                 0 |              32 |                 58962 |                 2511 |            7083872 |             0 |                0 |         1712316 |                     0 |       1445908 | 2017-02-06 09:42:18.893067+01

 2017-02-06 12:21:42.593042+01 | 1486380102.59304 |                 0 |              32 |                 58962 |                 2511 |            7083872 |             0 |                0 |         1712316 |                     0 |       1446134 | 2017-02-06 09:42:18.893067+01

 2017-02-06 12:21:43.679997+01 | 1486380103.68 |                 0 |              32 |                 58962 |                 2511 |            7083872 |             0 |                0 |         1712316 |                     0 |       1446291 | 2017-02-06 09:42:18.893067+01

 2017-02-06 12:21:44.761971+01 | 1486380104.76197 |                 0 |              32 |                 58962 |                 2511 |            7083872 |             0 |                0 |         1712316 |                     0 |       1446505 | 2017-02-06 09:42:18.893067+01

 2017-02-06 12:21:45.849359+01 | 1486380105.84936 |                 0 |              32 |                 58962 |                 2511 |            7083872 |             0 |                0 |         1712316 |                     0 |       1446840 | 2017-02-06 09:42:18.893067+01

 2017-02-06 12:21:46.944442+01 | 1486380106.94444 |                 0 |              32 |                 58962 |                 2511 |            7083872 |             0 |                0 |         1712316 |                     0 |       1446923 | 2017-02-06 09:42:18.893067+01

 2017-02-06 12:21:48.043145+01 | 1486380108.04314 |                 0 |              32 |                 58962 |                 2511 |            7083872 |             0 |                0 |         1712316 |                     0 |       1447190 | 2017-02-06 09:42:18.893067+01

 2017-02-06 12:21:49.150595+01 | 1486380109.15059 |                 0 |              32 |                 58962 |                 2511 |            7083872 |             0 |                0 |         1712316 |                     0 |       1447273 | 2017-02-06 09:42:18.893067+01

 2017-02-06 12:21:50.245397+01 | 1486380110.2454 |                 0 |              32 |                 58962 |                 2511 |            7083872 |             0 |                0 |         1712316 |                     0 |       1447446 | 2017-02-06 09:42:18.893067+01

 2017-02-06 12:21:51.342707+01 | 1486380111.34271 |                 0 |              32 |                 58962 |                 2511 |            7083872 |             0 |                0 |         1712316 |                     0 |       1447726 | 2017-02-06 09:42:18.893067+01

 2017-02-06 12:21:52.440462+01 | 1486380112.44046 |                 0 |              32 |                 58962 |                 2511 |            7083872 |             0 |                0 |         1712316 |                     0 |       1447830 | 2017-02-06 09:42:18.893067+01

 2017-02-06 12:21:53.527012+01 | 1486380113.52701 |                 0 |              32 |                 58962 |                 2511 |            7083872 |             0 |                0 |         1712316 |                     0 |       1448124 | 2017-02-06 09:42:18.893067+01

 2017-02-06 12:21:54.613259+01 | 1486380114.61326 |                 0 |              32 |                 58962 |                 2511 |            7083872 |             0 |                0 |         1712316 |                     0 |       1448230 | 2017-02-06 09:42:18.893067+01

 2017-02-06 12:21:55.695877+01 | 1486380115.69588 |                 0 |              32 |                 58962 |                 2511 |            7083872 |             0 |                0 |         1712316 |                     0 |       1448423 | 2017-02-06 09:42:18.893067+01

 2017-02-06 12:21:56.77843+01 | 1486380116.77843 |                 0 |              32 |                 58962 |                 2511 |            7083872 |             0 |                0 |         1712316 |                     0 |       1448618 | 2017-02-06 09:42:18.893067+01

 2017-02-06 12:21:57.857642+01 | 1486380117.85764 |                 0 |              32 |                 58962 |                 2511 |            7083872 |             0 |                0 |         1712316 |                     0 |       1448828 | 2017-02-06 09:42:18.893067+01

 2017-02-06 12:21:58.949013+01 | 1486380118.94901 |                 0 |              32 |                 58962 |                 2511 |            7083872 |             0 |                0 |         1712316 |                     0 |       1449002 | 2017-02-06 09:42:18.893067+01

 2017-02-06 12:22:00.042008+01 | 1486380120.04201 |                 0 |              32 |                 58962 |                 2511 |            7083872 |             0 |                0 |         1712316 |                     0 |       1449286 | 2017-02-06 09:42:18.893067+01

 2017-02-06 12:22:01.139049+01 | 1486380121.13905 |                 0 |              32 |                 58962 |                 2511 |            7083872 |             0 |                0 |         1712316 |                     0 |       1449369 | 2017-02-06 09:42:18.893067+01

 2017-02-06 12:22:02.248302+01 | 1486380122.2483 |                 0 |              32 |                 58962 |                 2511 |            7083872 |             0 |                0 |         1712316 |                     0 |       1449610 | 2017-02-06 09:42:18.893067+01

 2017-02-06 12:22:03.351166+01 | 1486380123.35117 |                 0 |              32 |                 58962 |                 2511 |            7083872 |             0 |                0 |         1712316 |                     0 |       1449756 | 2017-02-06 09:42:18.893067+01

 2017-02-06 12:22:04.443467+01 | 1486380124.44347 |                 0 |              32 |                 58962 |                 2511 |            7083872 |             0 |                0 |         1712316 |                     0 |       1450010 | 2017-02-06 09:42:18.893067+01

 2017-02-06 12:22:05.536939+01 | 1486380125.53694 |                 0 |              32 |                 58962 |                 2511 |            7083872 |             0 |                0 |         1712316 |                     0 |       1450139 | 2017-02-06 09:42:18.893067+01

 2017-02-06 12:22:06.617044+01 | 1486380126.61704 |                 0 |              32 |                 58962 |                 2511 |            7083872 |             0 |                0 |         1712316 |                     0 |       1450328 | 2017-02-06 09:42:18.893067+01

 2017-02-06 12:22:07.701795+01 | 1486380127.7018 |                 0 |              32 |                 58962 |                 2511 |            7083872 |             0 |                0 |         1712316 |                     0 |       1450560 | 2017-02-06 09:42:18.893067+01

 2017-02-06 12:22:08.797881+01 | 1486380128.79788 |                 0 |              32 |                 58962 |                 2511 |            7083872 |             0 |                0 |         1712316 |                     0 |       1450706 | 2017-02-06 09:42:18.893067+01

 2017-02-06 12:22:09.889389+01 | 1486380129.88939 |                 0 |              32 |                 58962 |                 2511 |            7083872 |             0 |                0 |         1712316 |                     0 |       1451003 | 2017-02-06 09:42:18.893067+01

 2017-02-06 12:22:10.980735+01 | 1486380130.98074 |                 0 |              32 |                 58962 |                 2511 |            7083872 |             0 |                0 |         1712316 |                     0 |       1451089 | 2017-02-06 09:42:18.893067+01

 2017-02-06 12:22:12.074661+01 | 1486380132.07466 |                 0 |              32 |                 58962 |                 2511 |            7083872 |             0 |                0 |         1712316 |                     0 |       1451276 | 2017-02-06 09:42:18.893067+01

 2017-02-06 12:22:13.173237+01 | 1486380133.17324 |                 0 |              32 |                 58962 |                 2511 |            7083872 |             0 |                0 |         1712316 |                     0 |       1451422 | 2017-02-06 09:42:18.893067+01

 2017-02-06 12:22:14.273572+01 | 1486380134.27357 |                 0 |              32 |                 58962 |                 2511 |            7083872 |             0 |                0 |         1712316 |                     0 |       1451672 | 2017-02-06 09:42:18.893067+01

 2017-02-06 12:22:15.377453+01 | 1486380135.37745 |                 0 |              32 |                 58962 |                 2511 |            7083872 |             0 |                0 |         1712316 |                     0 |       1452141 | 2017-02-06 09:42:18.893067+01

 2017-02-06 12:22:16.485905+01 | 1486380136.4859 |                 0 |              32 |                 58962 |                 2511 |            7083872 |             0 |                0 |         1712316 |                     0 |       1452141 | 2017-02-06 09:42:18.893067+01

 2017-02-06 12:22:17.57647+01 | 1486380137.57647 |                 0 |              32 |                 58962 |                 2511 |            7083872 |             0 |                0 |         1712316 |                     0 |       1452255 | 2017-02-06 09:42:18.893067+01

 2017-02-06 12:22:18.661305+01 | 1486380138.6613 |                 0 |              32 |                 58962 |                 2511 |            7083872 |             0 |                0 |         1712316 |                     0 |       1452465 | 2017-02-06 09:42:18.893067+01

 2017-02-06 12:22:19.75762+01 | 1486380139.75762 |                 0 |              32 |                 58962 |                 2511 |            7083872 |             0 |                0 |         1712316 |                     0 |       1453004 | 2017-02-06 09:42:18.893067+01

 2017-02-06 12:22:20.836051+01 | 1486380140.83605 |                 0 |              32 |                 58962 |                 2511 |            7083872 |             0 |                0 |         1712316 |                     0 |       1453004 | 2017-02-06 09:42:18.893067+01

 2017-02-06 12:22:21.915018+01 | 1486380141.91502 |                 0 |              32 |                 58962 |                 2511 |            7083872 |             0 |                0 |         1712316 |                     0 |       1453004 | 2017-02-06 09:42:18.893067+01

 2017-02-06 12:22:22.998556+01 | 1486380142.99856 |                 0 |              32 |                 58962 |                 2511 |            7083872 |             0 |                0 |         1712316 |                     0 |       1453214 | 2017-02-06 09:42:18.893067+01

 2017-02-06 12:22:24.103995+01 | 1486380144.104 |                 0 |              32 |                 58962 |                 2511 |            7083872 |             0 |                0 |         1712316 |                     0 |       1453337 | 2017-02-06 09:42:18.893067+01

 2017-02-06 12:22:25.208988+01 | 1486380145.20899 |                 0 |              32 |                 58962 |                 2511 |            7083872 |             0 |                0 |         1712316 |                     0 |       1453539 | 2017-02-06 09:42:18.893067+01

 2017-02-06 12:22:26.307884+01 | 1486380146.30788 |                 0 |              32 |                 58962 |                 2511 |            7083872 |             0 |                0 |         1712316 |                     0 |       1453772 | 2017-02-06 09:42:18.893067+01

 2017-02-06 12:22:27.404132+01 | 1486380147.40413 |                 0 |              32 |                 58962 |                 2511 |            7083872 |             0 |                0 |         1712316 |                     0 |       1453898 | 2017-02-06 09:42:18.893067+01

 2017-02-06 12:22:28.497939+01 | 1486380148.49794 |                 0 |              32 |                 58962 |                 2511 |            7083872 |             0 |                0 |         1712316 |                     0 |       1454226 | 2017-02-06 09:42:18.893067+01

 2017-02-06 12:22:29.590646+01 | 1486380149.59065 |                 0 |              32 |                 58962 |                 2511 |            7083872 |             0 |                0 |         1712316 |                     0 |       1454389 | 2017-02-06 09:42:18.893067+01

 2017-02-06 12:22:30.67978+01 | 1486380150.67978 |                 0 |              32 |                 58962 |                 2511 |            7083872 |             0 |                0 |         1712316 |                     0 |       1454521 | 2017-02-06 09:42:18.893067+01

 2017-02-06 12:22:31.758015+01 | 1486380151.75801 |                 0 |              32 |                 58962 |                 2511 |            7083872 |             0 |                0 |         1712316 |                     0 |       1454731 | 2017-02-06 09:42:18.893067+01

 2017-02-06 12:22:32.840351+01 | 1486380152.84035 |                 0 |              32 |                 58962 |                 2511 |            7083872 |             0 |                0 |         1712316 |                     0 |       1454917 | 2017-02-06 09:42:18.893067+01

 2017-02-06 12:22:33.917786+01 | 1486380153.91779 |                 0 |              32 |                 58962 |                 2511 |            7083872 |             0 |                0 |         1712316 |                     0 |       1455066 | 2017-02-06 09:42:18.893067+01

 2017-02-06 12:22:35.006949+01 | 1486380155.00695 |                 0 |              32 |                 58962 |                 2511 |            7083872 |             0 |                0 |         1712316 |                     0 |       1455229 | 2017-02-06 09:42:18.893067+01

 2017-02-06 12:22:36.097769+01 | 1486380156.09777 |                 0 |              32 |                 58962 |                 2511 |            7083872 |             0 |                0 |         1712316 |                     0 |       1455436 | 2017-02-06 09:42:18.893067+01

 2017-02-06 12:22:37.197888+01 | 1486380157.19789 |                 0 |              32 |                 58962 |                 2511 |            7083872 |             0 |                0 |         1712316 |                     0 |       1455606 | 2017-02-06 09:42:18.893067+01

 2017-02-06 12:22:38.299009+01 | 1486380158.29901 |                 0 |              32 |                 58962 |                 2511 |            7083872 |             0 |                0 |         1712316 |                     0 |       1455796 | 2017-02-06 09:42:18.893067+01

 2017-02-06 12:22:39.399557+01 | 1486380159.39956 |                 0 |              32 |                 58962 |                 2511 |            7083872 |             0 |                0 |         1712316 |                     0 |       1456051 | 2017-02-06 09:42:18.893067+01

 2017-02-06 12:22:40.49435+01 | 1486380160.49435 |                 0 |              32 |                 58962 |                 2511 |            7083872 |             0 |                0 |         1712316 |                     0 |       1456185 | 2017-02-06 09:42:18.893067+01

 2017-02-06 12:22:41.606726+01 | 1486380161.60673 |                 0 |              32 |                 58962 |                 2511 |            7083872 |             0 |                0 |         1712316 |                     0 |       1456333 | 2017-02-06 09:42:18.893067+01

 2017-02-06 12:22:42.687018+01 | 1486380162.68702 |                 0 |              32 |                 58962 |                 2511 |            7083872 |             0 |                0 |         1712316 |                     0 |       1456538 | 2017-02-06 09:42:18.893067+01

 2017-02-06 12:22:43.768338+01 | 1486380163.76834 |                 0 |              32 |                 58962 |                 2511 |            7083872 |             0 |                0 |         1712316 |                     0 |       1456710 | 2017-02-06 09:42:18.893067+01

 2017-02-06 12:22:44.848666+01 | 1486380164.84867 |                 0 |              32 |                 58962 |                 2511 |            7083872 |             0 |                0 |         1712316 |                     0 |       1456980 | 2017-02-06 09:42:18.893067+01

 2017-02-06 12:22:45.931865+01 | 1486380165.93186 |                 0 |              32 |                 58962 |                 2511 |            7083872 |             0 |                0 |         1712316 |                     0 |       1457324 | 2017-02-06 09:42:18.893067+01

 2017-02-06 12:22:47.014812+01 | 1486380167.01481 |                 0 |              32 |                 58962 |                 2511 |            7083872 |             0 |                0 |         1712316 |                     0 |       1457324 | 2017-02-06 09:42:18.893067+01

 2017-02-06 12:22:48.097829+01 | 1486380168.09783 |                 0 |              32 |                 58962 |                 2511 |            7083872 |             0 |                0 |         1712316 |                     0 |       1457447 | 2017-02-06 09:42:18.893067+01

 2017-02-06 12:22:49.206233+01 | 1486380169.20623 |                 0 |              32 |                 58962 |                 2511 |            7083872 |             0 |                0 |         1712316 |                     0 |       1457631 | 2017-02-06 09:42:18.893067+01

 2017-02-06 12:22:50.309601+01 | 1486380170.3096 |                 0 |              32 |                 58962 |                 2511 |            7083872 |             0 |                0 |         1712316 |                     0 |       1457834 | 2017-02-06 09:42:18.893067+01

 2017-02-06 12:22:51.403655+01 | 1486380171.40366 |                 0 |              32 |                 58962 |                 2511 |            7083872 |             0 |                0 |         1712316 |                     0 |       1458285 | 2017-02-06 09:42:18.893067+01

 2017-02-06 12:22:52.498129+01 | 1486380172.49813 |                 0 |              32 |                 58962 |                 2511 |            7083872 |             0 |                0 |         1712316 |                     0 |       1458285 | 2017-02-06 09:42:18.893067+01

 2017-02-06 12:22:53.586928+01 | 1486380173.58693 |                 0 |              32 |                 58962 |                 2511 |            7083872 |             0 |                0 |         1712316 |                     0 |       1458398 | 2017-02-06 09:42:18.893067+01

 2017-02-06 12:22:54.66993+01 | 1486380174.66993 |                 0 |              32 |                 58962 |                 2511 |            7083872 |             0 |                0 |         1712316 |                     0 |       1458646 | 2017-02-06 09:42:18.893067+01

 2017-02-06 12:22:55.750832+01 | 1486380175.75083 |                 0 |              32 |                 58962 |                 2511 |            7083872 |             0 |                0 |         1712316 |                     0 |       1458792 | 2017-02-06 09:42:18.893067+01

 2017-02-06 12:22:56.827626+01 | 1486380176.82763 |                 0 |              32 |                 58962 |                 2511 |            7083872 |             0 |                0 |         1712316 |                     0 |       1458967 | 2017-02-06 09:42:18.893067+01

 2017-02-06 12:22:57.914721+01 | 1486380177.91472 |                 0 |              32 |                 58962 |                 2511 |            7083872 |             0 |                0 |         1712316 |                     0 |       1459120 | 2017-02-06 09:42:18.893067+01

 2017-02-06 12:22:59.002658+01 | 1486380179.00266 |                 0 |              32 |                 58962 |                 2511 |            7083872 |             0 |                0 |         1712316 |                     0 |       1459289 | 2017-02-06 09:42:18.893067+01

 2017-02-06 12:23:00.092513+01 | 1486380180.09251 |                 0 |              32 |                 58962 |                 2511 |            7083872 |             0 |                0 |         1712316 |                     0 |       1459505 | 2017-02-06 09:42:18.893067+01

 2017-02-06 12:23:01.197838+01 | 1486380181.19784 |                 0 |              32 |                 58962 |                 2511 |            7083872 |             0 |                0 |         1712316 |                     0 |       1459715 | 2017-02-06 09:42:18.893067+01

 2017-02-06 12:23:02.306157+01 | 1486380182.30616 |                 0 |              32 |                 58962 |                 2511 |            7083872 |             0 |                0 |         1712316 |                     0 |       1459901 | 2017-02-06 09:42:18.893067+01

 2017-02-06 12:23:03.401187+01 | 1486380183.40119 |                 0 |              32 |                 58962 |                 2511 |            7083872 |             0 |                0 |         1712316 |                     0 |       1460051 | 2017-02-06 09:42:18.893067+01

 2017-02-06 12:23:04.50405+01 | 1486380184.50405 |                 0 |              32 |                 58962 |                 2511 |            7083872 |             0 |                0 |         1712316 |                     0 |       1460217 | 2017-02-06 09:42:18.893067+01

 2017-02-06 12:23:05.59898+01 | 1486380185.59898 |                 0 |              32 |                 58962 |                 2511 |            7083872 |             0 |                0 |         1712316 |                     0 |       1460485 | 2017-02-06 09:42:18.893067+01

 2017-02-06 12:23:06.683222+01 | 1486380186.68322 |                 0 |              32 |                 58962 |                 2511 |            7083872 |             0 |                0 |         1712316 |                     0 |       1460613 | 2017-02-06 09:42:18.893067+01

 2017-02-06 12:23:07.773596+01 | 1486380187.7736 |                 0 |              32 |                 58962 |                 2511 |            7083872 |             0 |                0 |         1712316 |                     0 |       1460835 | 2017-02-06 09:42:18.893067+01

 2017-02-06 12:23:08.85466+01 | 1486380188.85466 |                 0 |              32 |                 58962 |                 2511 |            7083872 |             0 |                0 |         1712316 |                     0 |       1460989 | 2017-02-06 09:42:18.893067+01

 2017-02-06 12:23:09.941191+01 | 1486380189.94119 |                 0 |              32 |                 58962 |                 2511 |            7083872 |             0 |                0 |         1712316 |                     0 |       1461296 | 2017-02-06 09:42:18.893067+01

 2017-02-06 12:23:11.027404+01 | 1486380191.0274 |                 0 |              32 |                 58962 |                 2511 |            7083872 |             0 |                0 |         1712316 |                     0 |       1461439 | 2017-02-06 09:42:18.893067+01

 2017-02-06 12:23:12.122041+01 | 1486380192.12204 |                 0 |              32 |                 58962 |                 2511 |            7083872 |             0 |                0 |         1712316 |                     0 |       1461545 | 2017-02-06 09:42:18.893067+01

 2017-02-06 12:23:13.211922+01 | 1486380193.21192 |                 0 |              32 |                 58962 |                 2511 |            7083872 |             0 |                0 |         1712316 |                     0 |       1461729 | 2017-02-06 09:42:18.893067+01

 2017-02-06 12:23:14.30862+01 | 1486380194.30862 |                 0 |              32 |                 58962 |                 2511 |            7083872 |             0 |                0 |         1712316 |                     0 |       1461835 | 2017-02-06 09:42:18.893067+01

 2017-02-06 12:23:15.412777+01 | 1486380195.41278 |                 0 |              32 |                 58962 |                 2511 |            7083872 |             0 |                0 |         1712316 |                     0 |       1462105 | 2017-02-06 09:42:18.893067+01

 2017-02-06 12:23:16.51798+01 | 1486380196.51798 |                 0 |              32 |                 58962 |                 2511 |            7083872 |             0 |                0 |         1712316 |                     0 |       1462354 | 2017-02-06 09:42:18.893067+01

 2017-02-06 12:23:17.615887+01 | 1486380197.61589 |                 0 |              32 |                 58962 |                 2511 |            7083872 |             0 |                0 |         1712316 |                     0 |       1462503 | 2017-02-06 09:42:18.893067+01

 2017-02-06 12:23:18.70627+01 | 1486380198.70627 |                 0 |              32 |                 58962 |                 2511 |            7083872 |             0 |                0 |         1712316 |                     0 |       1462698 | 2017-02-06 09:42:18.893067+01

 2017-02-06 12:23:19.79622+01 | 1486380199.79622 |                 0 |              32 |                 58962 |                 2511 |            7083872 |             0 |                0 |         1712316 |                     0 |       1462842 | 2017-02-06 09:42:18.893067+01

 2017-02-06 12:23:20.877213+01 | 1486380200.87721 |                 0 |              32 |                 58962 |                 2511 |            7083872 |             0 |                0 |         1712316 |                     0 |       1463053 | 2017-02-06 09:42:18.893067+01

 2017-02-06 12:23:21.95845+01 | 1486380201.95845 |                 0 |              32 |                 58962 |                 2511 |            7083872 |             0 |                0 |         1712316 |                     0 |       1463241 | 2017-02-06 09:42:18.893067+01

 2017-02-06 12:23:23.045775+01 | 1486380203.04577 |                 0 |              32 |                 58962 |                 2511 |            7083872 |             0 |                0 |         1712316 |                     0 |       1463390 | 2017-02-06 09:42:18.893067+01

 2017-02-06 12:23:24.135444+01 | 1486380204.13544 |                 0 |              32 |                 58962 |                 2511 |            7083872 |             0 |                0 |         1712316 |                     0 |       1463580 | 2017-02-06 09:42:18.893067+01

 2017-02-06 12:23:25.235131+01 | 1486380205.23513 |                 0 |              32 |                 58962 |                 2511 |            7083872 |             0 |                0 |         1712316 |                     0 |       1463786 | 2017-02-06 09:42:18.893067+01

 2017-02-06 12:23:26.33581+01 | 1486380206.33581 |                 0 |              32 |                 58962 |                 2511 |            7083872 |             0 |                0 |         1712316 |                     0 |       1463976 | 2017-02-06 09:42:18.893067+01

 2017-02-06 12:23:27.433735+01 | 1486380207.43373 |                 0 |              32 |                 58962 |                 2511 |            7083872 |             0 |                0 |         1712316 |                     0 |       1464163 | 2017-02-06 09:42:18.893067+01

 2017-02-06 12:23:28.538406+01 | 1486380208.53841 |                 0 |              32 |                 58962 |                 2511 |            7083872 |             0 |                0 |         1712316 |                     0 |       1464486 | 2017-02-06 09:42:18.893067+01

 2017-02-06 12:23:29.641677+01 | 1486380209.64168 |                 0 |              32 |                 58962 |                 2511 |            7083872 |             0 |                0 |         1712316 |                     0 |       1464589 | 2017-02-06 09:42:18.893067+01

 2017-02-06 12:23:30.724172+01 | 1486380210.72417 |                 0 |              32 |                 58962 |                 2511 |            7083872 |             0 |                0 |         1712316 |                     0 |       1464718 | 2017-02-06 09:42:18.893067+01

 2017-02-06 12:23:31.808864+01 | 1486380211.80886 |                 0 |              32 |                 58962 |                 2511 |            7083872 |             0 |                0 |         1712316 |                     0 |       1464897 | 2017-02-06 09:42:18.893067+01

 2017-02-06 12:23:32.88983+01 | 1486380212.88983 |                 0 |              32 |                 58962 |                 2511 |            7083872 |             0 |                0 |         1712316 |                     0 |       1465100 | 2017-02-06 09:42:18.893067+01

 2017-02-06 12:23:33.971402+01 | 1486380213.9714 |                 0 |              32 |                 58962 |                 2511 |            7083872 |             0 |                0 |         1712316 |                     0 |       1465294 | 2017-02-06 09:42:18.893067+01

 2017-02-06 12:23:35.056558+01 | 1486380215.05656 |                 0 |              32 |                 58962 |                 2511 |            7083872 |             0 |                0 |         1712316 |                     0 |       1465446 | 2017-02-06 09:42:18.893067+01

 2017-02-06 12:23:36.137128+01 | 1486380216.13713 |                 0 |              32 |                 58962 |                 2511 |            7083872 |             0 |                0 |         1712316 |                     0 |       1465638 | 2017-02-06 09:42:18.893067+01

 2017-02-06 12:23:37.227738+01 | 1486380217.22774 |                 0 |              32 |                 58962 |                 2511 |            7083872 |             0 |                0 |         1712316 |                     0 |       1465787 | 2017-02-06 09:42:18.893067+01

 2017-02-06 12:23:38.321578+01 | 1486380218.32158 |                 0 |              32 |                 58962 |                 2511 |            7083872 |             0 |                0 |         1712316 |                     0 |       1465963 | 2017-02-06 09:42:18.893067+01

 2017-02-06 12:23:39.415343+01 | 1486380219.41534 |                 0 |              32 |                 58962 |                 2511 |            7083872 |             0 |                0 |         1712316 |                     0 |       1466157 | 2017-02-06 09:42:18.893067+01

 2017-02-06 12:23:40.511719+01 | 1486380220.51172 |                 0 |              32 |                 58962 |                 2511 |            7083872 |             0 |                0 |         1712316 |                     0 |       1466450 | 2017-02-06 09:42:18.893067+01

 2017-02-06 12:23:41.607713+01 | 1486380221.60771 |                 0 |              32 |                 58962 |                 2511 |            7083872 |             0 |                0 |         1712316 |                     0 |       1466538 | 2017-02-06 09:42:18.893067+01

 2017-02-06 12:23:42.704665+01 | 1486380222.70466 |                 0 |              32 |                 58962 |                 2511 |            7083872 |             0 |                0 |         1712316 |                     0 |       1466869 | 2017-02-06 09:42:18.893067+01

 2017-02-06 12:23:43.793772+01 | 1486380223.79377 |                 0 |              32 |                 58962 |                 2511 |            7083872 |             0 |                0 |         1712316 |                     0 |       1466974 | 2017-02-06 09:42:18.893067+01

 2017-02-06 12:23:44.873433+01 | 1486380224.87343 |                 0 |              32 |                 58962 |                 2511 |            7083872 |             0 |                0 |         1712316 |                     0 |       1467120 | 2017-02-06 09:42:18.893067+01

 2017-02-06 12:23:45.957579+01 | 1486380225.95758 |                 0 |              32 |                 58962 |                 2511 |            7083872 |             0 |                0 |         1712316 |                     0 |       1467326 | 2017-02-06 09:42:18.893067+01

 2017-02-06 12:23:47.044789+01 | 1486380227.04479 |                 0 |              32 |                 58962 |                 2511 |            7083872 |             0 |                0 |         1712316 |                     0 |       1467495 | 2017-02-06 09:42:18.893067+01

 2017-02-06 12:23:48.129828+01 | 1486380228.12983 |                 0 |              32 |                 58962 |                 2511 |            7083872 |             0 |                0 |         1712316 |                     0 |       1467643 | 2017-02-06 09:42:18.893067+01

 2017-02-06 12:23:49.218115+01 | 1486380229.21812 |                 0 |              32 |                 58962 |                 2511 |            7083872 |             0 |                0 |         1712316 |                     0 |       1467857 | 2017-02-06 09:42:18.893067+01

 2017-02-06 12:23:50.314606+01 | 1486380230.31461 |                 0 |              32 |                 58962 |                 2511 |            7083872 |             0 |                0 |         1712316 |                     0 |       1468029 | 2017-02-06 09:42:18.893067+01

 2017-02-06 12:23:51.406561+01 | 1486380231.40656 |                 0 |              32 |                 58962 |                 2511 |            7083872 |             0 |                0 |         1712316 |                     0 |       1468241 | 2017-02-06 09:42:18.893067+01

 2017-02-06 12:23:52.508658+01 | 1486380232.50866 |                 0 |              32 |                 58962 |                 2511 |            7083872 |             0 |                0 |         1712316 |                     0 |       1468411 | 2017-02-06 09:42:18.893067+01

 2017-02-06 12:23:53.591564+01 | 1486380233.59156 |                 0 |              32 |                 58962 |                 2511 |            7083872 |             0 |                0 |         1712316 |                     0 |       1468583 | 2017-02-06 09:42:18.893067+01

 2017-02-06 12:23:54.676683+01 | 1486380234.67668 |                 0 |              32 |                 58962 |                 2511 |            7083872 |             0 |                0 |         1712316 |                     0 |       1468746 | 2017-02-06 09:42:18.893067+01

 2017-02-06 12:23:55.75462+01 | 1486380235.75462 |                 0 |              32 |                 58962 |                 2511 |            7083872 |             0 |                0 |         1712316 |                     0 |       1468998 | 2017-02-06 09:42:18.893067+01

 2017-02-06 12:23:56.836863+01 | 1486380236.83686 |                 0 |              32 |                 58962 |                 2511 |            7083872 |             0 |                0 |         1712316 |                     0 |       1469184 | 2017-02-06 09:42:18.893067+01

