 2017-02-04 21:05:35.78133+01 | 1486238735.78133 |                 0 |              12 |                105352 |                 2130 |            9668089 |        864418 |             7871 |         7813089 |                     0 |       3529835 | 2017-02-04 20:04:48.025022+01

 2017-02-04 21:05:36.872726+01 | 1486238736.87273 |                 0 |              12 |                105352 |                 2130 |            9668089 |        864418 |             7871 |         7813089 |                     0 |       3530696 | 2017-02-04 20:04:48.025022+01

 2017-02-04 21:05:37.952721+01 | 1486238737.95272 |                 0 |              12 |                105352 |                 2130 |            9668089 |        864418 |             7871 |         7813089 |                     0 |       3532016 | 2017-02-04 20:04:48.025022+01

 2017-02-04 21:05:39.028906+01 | 1486238739.02891 |                 0 |              12 |                105352 |                 2130 |            9668089 |        864418 |             7871 |         7813089 |                     0 |       3533230 | 2017-02-04 20:04:48.025022+01

 2017-02-04 21:05:40.118738+01 | 1486238740.11874 |                 0 |              12 |                105352 |                 2130 |            9668089 |        864418 |             7871 |         7813089 |                     0 |       3534592 | 2017-02-04 20:04:48.025022+01

 2017-02-04 21:05:41.209234+01 | 1486238741.20923 |                 0 |              12 |                105352 |                 2130 |            9668089 |        864418 |             7871 |         7813089 |                     0 |       3536072 | 2017-02-04 20:04:48.025022+01

 2017-02-04 21:05:42.28061+01 | 1486238742.28061 |                 0 |              12 |                105352 |                 2130 |            9668089 |        864418 |             7871 |         7813089 |                     0 |       3537254 | 2017-02-04 20:04:48.025022+01

 2017-02-04 21:05:43.359997+01 | 1486238743.36 |                 0 |              12 |                105352 |                 2130 |            9668089 |        864418 |             7871 |         7813089 |                     0 |       3538672 | 2017-02-04 20:04:48.025022+01

 2017-02-04 21:05:44.443932+01 | 1486238744.44393 |                 0 |              12 |                105352 |                 2130 |            9668089 |        864418 |             7871 |         7813089 |                     0 |       3540086 | 2017-02-04 20:04:48.025022+01

 2017-02-04 21:05:45.527675+01 | 1486238745.52767 |                 0 |              12 |                105352 |                 2130 |            9668089 |        864418 |             7871 |         7813089 |                     0 |       3541299 | 2017-02-04 20:04:48.025022+01

 2017-02-04 21:05:46.607242+01 | 1486238746.60724 |                 0 |              12 |                105352 |                 2130 |            9668089 |        864418 |             7871 |         7813089 |                     0 |       3543050 | 2017-02-04 20:04:48.025022+01

 2017-02-04 21:05:47.682487+01 | 1486238747.68249 |                 0 |              12 |                105352 |                 2130 |            9668089 |        864418 |             7871 |         7813089 |                     0 |       3544190 | 2017-02-04 20:04:48.025022+01

 2017-02-04 21:05:48.768242+01 | 1486238748.76824 |                 0 |              12 |                105352 |                 2130 |            9668089 |        864418 |             7871 |         7813089 |                     0 |       3545460 | 2017-02-04 20:04:48.025022+01

 2017-02-04 21:05:49.846371+01 | 1486238749.84637 |                 0 |              12 |                105352 |                 2130 |            9668089 |        864418 |             7871 |         7813089 |                     0 |       3546929 | 2017-02-04 20:04:48.025022+01

 2017-02-04 21:05:50.925694+01 | 1486238750.92569 |                 0 |              12 |                105352 |                 2130 |            9668089 |        864418 |             7871 |         7813089 |                     0 |       3548282 | 2017-02-04 20:04:48.025022+01

 2017-02-04 21:05:52.003255+01 | 1486238752.00325 |                 0 |              12 |                105352 |                 2130 |            9668089 |        864418 |             7871 |         7813089 |                     0 |       3550016 | 2017-02-04 20:04:48.025022+01

 2017-02-04 21:05:53.082915+01 | 1486238753.08292 |                 0 |              12 |                105352 |                 2130 |            9668089 |        864418 |             7871 |         7813089 |                     0 |       3551374 | 2017-02-04 20:04:48.025022+01

 2017-02-04 21:05:54.162221+01 | 1486238754.16222 |                 0 |              12 |                105352 |                 2130 |            9668089 |        864418 |             7871 |         7813089 |                     0 |       3552981 | 2017-02-04 20:04:48.025022+01

 2017-02-04 21:05:55.238169+01 | 1486238755.23817 |                 0 |              12 |                105352 |                 2130 |            9668089 |        864418 |             7871 |         7813089 |                     0 |       3554569 | 2017-02-04 20:04:48.025022+01

 2017-02-04 21:05:56.31401+01 | 1486238756.31401 |                 0 |              12 |                105352 |                 2130 |            9668089 |        864418 |             7871 |         7813089 |                     0 |       3556075 | 2017-02-04 20:04:48.025022+01

 2017-02-04 21:05:57.393874+01 | 1486238757.39387 |                 0 |              12 |                105352 |                 2130 |            9668089 |        864418 |             7871 |         7813089 |                     0 |       3557855 | 2017-02-04 20:04:48.025022+01

 2017-02-04 21:05:58.471356+01 | 1486238758.47136 |                 0 |              12 |                105352 |                 2130 |            9668089 |        864418 |             7871 |         7813089 |                     0 |       3559293 | 2017-02-04 20:04:48.025022+01

 2017-02-04 21:05:59.551639+01 | 1486238759.55164 |                 0 |              12 |                105352 |                 2130 |            9668089 |        864418 |             7871 |         7813089 |                     0 |       3560756 | 2017-02-04 20:04:48.025022+01

 2017-02-04 21:06:00.633555+01 | 1486238760.63355 |                 0 |              12 |                105352 |                 2130 |            9668089 |        864418 |             7871 |         7813089 |                     0 |       3562334 | 2017-02-04 20:04:48.025022+01

 2017-02-04 21:06:01.712158+01 | 1486238761.71216 |                 0 |              12 |                105352 |                 2130 |            9668089 |        864418 |             7871 |         7813089 |                     0 |       3563508 | 2017-02-04 20:04:48.025022+01

 2017-02-04 21:06:02.784613+01 | 1486238762.78461 |                 0 |              12 |                105352 |                 2130 |            9668089 |        864418 |             7871 |         7813089 |                     0 |       3565250 | 2017-02-04 20:04:48.025022+01

 2017-02-04 21:06:03.864514+01 | 1486238763.86451 |                 0 |              12 |                105352 |                 2130 |            9668089 |        864418 |             7871 |         7813089 |                     0 |       3566501 | 2017-02-04 20:04:48.025022+01

 2017-02-04 21:06:04.947781+01 | 1486238764.94778 |                 0 |              12 |                105352 |                 2130 |            9668089 |        864418 |             7871 |         7813089 |                     0 |       3568054 | 2017-02-04 20:04:48.025022+01

 2017-02-04 21:06:06.028568+01 | 1486238766.02857 |                 0 |              12 |                105352 |                 2130 |            9668089 |        864418 |             7871 |         7813089 |                     0 |       3569659 | 2017-02-04 20:04:48.025022+01

 2017-02-04 21:06:07.102716+01 | 1486238767.10272 |                 0 |              12 |                105352 |                 2130 |            9668089 |        864418 |             7871 |         7813089 |                     0 |       3571041 | 2017-02-04 20:04:48.025022+01

 2017-02-04 21:06:08.179769+01 | 1486238768.17977 |                 0 |              12 |                105352 |                 2130 |            9668089 |        864418 |             7871 |         7813089 |                     0 |       3572618 | 2017-02-04 20:04:48.025022+01

 2017-02-04 21:06:09.260963+01 | 1486238769.26096 |                 0 |              12 |                105352 |                 2130 |            9668089 |        864418 |             7871 |         7813089 |                     0 |       3574477 | 2017-02-04 20:04:48.025022+01

 2017-02-04 21:06:10.343882+01 | 1486238770.34388 |                 0 |              12 |                105352 |                 2130 |            9668089 |        864418 |             7871 |         7813089 |                     0 |       3575809 | 2017-02-04 20:04:48.025022+01

 2017-02-04 21:06:11.423106+01 | 1486238771.42311 |                 0 |              12 |                105352 |                 2130 |            9668089 |        864418 |             7871 |         7813089 |                     0 |       3577107 | 2017-02-04 20:04:48.025022+01

 2017-02-04 21:06:12.496058+01 | 1486238772.49606 |                 0 |              12 |                105352 |                 2130 |            9668089 |        864418 |             7871 |         7813089 |                     0 |       3578573 | 2017-02-04 20:04:48.025022+01

 2017-02-04 21:06:13.574605+01 | 1486238773.5746 |                 0 |              12 |                105352 |                 2130 |            9668089 |        864418 |             7871 |         7813089 |                     0 |       3579853 | 2017-02-04 20:04:48.025022+01

 2017-02-04 21:06:14.655323+01 | 1486238774.65532 |                 0 |              12 |                105352 |                 2130 |            9668089 |        864418 |             7871 |         7813089 |                     0 |       3581617 | 2017-02-04 20:04:48.025022+01

 2017-02-04 21:06:15.729581+01 | 1486238775.72958 |                 0 |              12 |                105352 |                 2130 |            9668089 |        864418 |             7871 |         7813089 |                     0 |       3582875 | 2017-02-04 20:04:48.025022+01

 2017-02-04 21:06:16.806697+01 | 1486238776.8067 |                 0 |              12 |                105352 |                 2130 |            9668089 |        864418 |             7871 |         7813089 |                     0 |       3584142 | 2017-02-04 20:04:48.025022+01

 2017-02-04 21:06:17.886421+01 | 1486238777.88642 |                 0 |              12 |                105352 |                 2130 |            9668089 |        864418 |             7871 |         7813089 |                     0 |       3585959 | 2017-02-04 20:04:48.025022+01

 2017-02-04 21:06:18.962994+01 | 1486238778.96299 |                 0 |              12 |                105352 |                 2130 |            9668089 |        864418 |             7871 |         7813089 |                     0 |       3586951 | 2017-02-04 20:04:48.025022+01

 2017-02-04 21:06:20.030168+01 | 1486238780.03017 |                 0 |              12 |                105352 |                 2130 |            9668089 |        864418 |             7871 |         7813089 |                     0 |       3588361 | 2017-02-04 20:04:48.025022+01

 2017-02-04 21:06:21.107301+01 | 1486238781.1073 |                 0 |              12 |                105352 |                 2130 |            9668089 |        864418 |             7871 |         7813089 |                     0 |       3590678 | 2017-02-04 20:04:48.025022+01

 2017-02-04 21:06:22.1831+01 | 1486238782.1831 |                 0 |              12 |                105352 |                 2130 |            9668089 |        864430 |             7871 |         7813089 |                     0 |       3591892 | 2017-02-04 20:04:48.025022+01

 2017-02-04 21:06:23.256156+01 | 1486238783.25616 |                 0 |              12 |                105352 |                 2130 |            9668089 |        864761 |             7871 |         7813089 |                     0 |       3593160 | 2017-02-04 20:04:48.025022+01

 2017-02-04 21:06:24.335609+01 | 1486238784.33561 |                 0 |              12 |                105352 |                 2130 |            9668089 |        865029 |             7871 |         7813089 |                     0 |       3594185 | 2017-02-04 20:04:48.025022+01

 2017-02-04 21:06:25.415896+01 | 1486238785.4159 |                 0 |              12 |                105352 |                 2130 |            9668089 |        865370 |             7871 |         7813089 |                     0 |       3595374 | 2017-02-04 20:04:48.025022+01

 2017-02-04 21:06:26.489287+01 | 1486238786.48929 |                 0 |              12 |                105352 |                 2130 |            9668089 |        865742 |             7871 |         7813089 |                     0 |       3596816 | 2017-02-04 20:04:48.025022+01

 2017-02-04 21:06:27.564661+01 | 1486238787.56466 |                 0 |              12 |                105352 |                 2130 |            9668089 |        866038 |             7871 |         7813089 |                     0 |       3598247 | 2017-02-04 20:04:48.025022+01

 2017-02-04 21:06:28.641108+01 | 1486238788.64111 |                 0 |              12 |                105352 |                 2130 |            9668089 |        866323 |             7871 |         7813089 |                     0 |       3599697 | 2017-02-04 20:04:48.025022+01

 2017-02-04 21:06:29.71625+01 | 1486238789.71625 |                 0 |              12 |                105352 |                 2130 |            9668089 |        866683 |             7871 |         7813089 |                     0 |       3601421 | 2017-02-04 20:04:48.025022+01

 2017-02-04 21:06:30.797596+01 | 1486238790.7976 |                 0 |              12 |                105352 |                 2130 |            9668089 |        866959 |             7871 |         7813089 |                     0 |       3602804 | 2017-02-04 20:04:48.025022+01

 2017-02-04 21:06:31.873263+01 | 1486238791.87326 |                 0 |              12 |                105352 |                 2130 |            9668089 |        867299 |             7871 |         7813089 |                     0 |       3604264 | 2017-02-04 20:04:48.025022+01

 2017-02-04 21:06:32.953546+01 | 1486238792.95355 |                 0 |              12 |                105352 |                 2130 |            9668089 |        867699 |             7871 |         7813089 |                     0 |       3606023 | 2017-02-04 20:04:48.025022+01

 2017-02-04 21:06:34.036303+01 | 1486238794.0363 |                 0 |              12 |                105352 |                 2130 |            9668089 |        867969 |             7871 |         7813089 |                     0 |       3607328 | 2017-02-04 20:04:48.025022+01

 2017-02-04 21:06:35.115388+01 | 1486238795.11539 |                 0 |              12 |                105352 |                 2130 |            9668089 |        868333 |             7871 |         7813089 |                     0 |       3608896 | 2017-02-04 20:04:48.025022+01

 2017-02-04 21:06:36.196875+01 | 1486238796.19688 |                 0 |              12 |                105352 |                 2130 |            9668089 |        868669 |             7872 |         7813089 |                     0 |       3610383 | 2017-02-04 20:04:48.025022+01

 2017-02-04 21:06:37.283547+01 | 1486238797.28355 |                 0 |              12 |                105352 |                 2130 |            9668089 |        869006 |             7872 |         7813089 |                     0 |       3611954 | 2017-02-04 20:04:48.025022+01

 2017-02-04 21:06:38.359549+01 | 1486238798.35955 |                 0 |              12 |                105352 |                 2130 |            9668089 |        869389 |             7872 |         7813089 |                     0 |       3613820 | 2017-02-04 20:04:48.025022+01

 2017-02-04 21:06:39.441261+01 | 1486238799.44126 |                 0 |              12 |                105352 |                 2130 |            9668089 |        869721 |             7872 |         7813089 |                     0 |       3615264 | 2017-02-04 20:04:48.025022+01

 2017-02-04 21:06:40.520278+01 | 1486238800.52028 |                 0 |              12 |                105352 |                 2130 |            9668089 |        870043 |             7873 |         7813089 |                     0 |       3616701 | 2017-02-04 20:04:48.025022+01

 2017-02-04 21:06:41.599135+01 | 1486238801.59913 |                 0 |              12 |                105352 |                 2130 |            9668089 |        870387 |             7873 |         7813089 |                     0 |       3618308 | 2017-02-04 20:04:48.025022+01

 2017-02-04 21:06:42.680074+01 | 1486238802.68007 |                 0 |              12 |                105352 |                 2130 |            9668089 |        870706 |             7874 |         7813089 |                     0 |       3619799 | 2017-02-04 20:04:48.025022+01

 2017-02-04 21:06:43.756496+01 | 1486238803.7565 |                 0 |              12 |                105352 |                 2130 |            9668089 |        871072 |             7874 |         7813089 |                     0 |       3621392 | 2017-02-04 20:04:48.025022+01

 2017-02-04 21:06:44.832781+01 | 1486238804.83278 |                 0 |              12 |                105352 |                 2130 |            9668089 |        871445 |             7874 |         7813089 |                     0 |       3623018 | 2017-02-04 20:04:48.025022+01

 2017-02-04 21:06:45.910025+01 | 1486238805.91002 |                 0 |              12 |                105352 |                 2130 |            9668089 |        871749 |             7874 |         7813089 |                     0 |       3624543 | 2017-02-04 20:04:48.025022+01

 2017-02-04 21:06:46.997119+01 | 1486238806.99712 |                 0 |              12 |                105352 |                 2130 |            9668089 |        872036 |             7874 |         7813089 |                     0 |       3625928 | 2017-02-04 20:04:48.025022+01

 2017-02-04 21:06:48.068744+01 | 1486238808.06874 |                 0 |              12 |                105352 |                 2130 |            9668089 |        872414 |             7874 |         7813089 |                     0 |       3627686 | 2017-02-04 20:04:48.025022+01

 2017-02-04 21:06:49.145233+01 | 1486238809.14523 |                 0 |              12 |                105352 |                 2130 |            9668089 |        872754 |             7876 |         7813089 |                     0 |       3629117 | 2017-02-04 20:04:48.025022+01

 2017-02-04 21:06:50.220591+01 | 1486238810.22059 |                 0 |              12 |                105352 |                 2130 |            9668089 |        873254 |             7881 |         7813089 |                     0 |       3630525 | 2017-02-04 20:04:48.025022+01

 2017-02-04 21:06:51.300056+01 | 1486238811.30006 |                 0 |              12 |                105352 |                 2130 |            9668089 |        873854 |             7887 |         7813089 |                     0 |       3632277 | 2017-02-04 20:04:48.025022+01

 2017-02-04 21:06:52.381757+01 | 1486238812.38176 |                 0 |              12 |                105352 |                 2130 |            9668089 |        874354 |             7892 |         7813089 |                     0 |       3633791 | 2017-02-04 20:04:48.025022+01

 2017-02-04 21:06:53.458499+01 | 1486238813.4585 |                 0 |              12 |                105352 |                 2130 |            9668089 |        874954 |             7898 |         7813089 |                     0 |       3635589 | 2017-02-04 20:04:48.025022+01

 2017-02-04 21:06:54.538656+01 | 1486238814.53866 |                 0 |              12 |                105352 |                 2130 |            9668089 |        875454 |             7903 |         7813089 |                     0 |       3637028 | 2017-02-04 20:04:48.025022+01

 2017-02-04 21:06:55.618361+01 | 1486238815.61836 |                 0 |              12 |                105352 |                 2130 |            9668089 |        875954 |             7908 |         7813089 |                     0 |       3638507 | 2017-02-04 20:04:48.025022+01

 2017-02-04 21:06:56.700336+01 | 1486238816.70034 |                 0 |              12 |                105352 |                 2130 |            9668089 |        876554 |             7914 |         7813089 |                     0 |       3640436 | 2017-02-04 20:04:48.025022+01

 2017-02-04 21:06:57.779807+01 | 1486238817.77981 |                 0 |              12 |                105352 |                 2130 |            9668089 |        877054 |             7919 |         7813089 |                     0 |       3641430 | 2017-02-04 20:04:48.025022+01

 2017-02-04 21:06:58.860407+01 | 1486238818.86041 |                 0 |              12 |                105352 |                 2130 |            9668089 |        877554 |             7924 |         7813089 |                     0 |       3642928 | 2017-02-04 20:04:48.025022+01

 2017-02-04 21:06:59.943958+01 | 1486238819.94396 |                 0 |              12 |                105352 |                 2130 |            9668089 |        878154 |             7930 |         7813089 |                     0 |       3644222 | 2017-02-04 20:04:48.025022+01

 2017-02-04 21:07:01.025471+01 | 1486238821.02547 |                 0 |              12 |                105352 |                 2130 |            9668089 |        878654 |             7935 |         7813089 |                     0 |       3645271 | 2017-02-04 20:04:48.025022+01

 2017-02-04 21:07:02.107458+01 | 1486238822.10746 |                 0 |              12 |                105352 |                 2130 |            9668089 |        879154 |             7940 |         7813089 |                     0 |       3646124 | 2017-02-04 20:04:48.025022+01

 2017-02-04 21:07:03.187715+01 | 1486238823.18772 |                 0 |              12 |                105352 |                 2130 |            9668089 |        879754 |             7946 |         7813089 |                     0 |       3647270 | 2017-02-04 20:04:48.025022+01

 2017-02-04 21:07:04.262878+01 | 1486238824.26288 |                 0 |              12 |                105352 |                 2130 |            9668089 |        880254 |             7951 |         7813089 |                     0 |       3648215 | 2017-02-04 20:04:48.025022+01

 2017-02-04 21:07:05.34192+01 | 1486238825.34192 |                 0 |              12 |                105352 |                 2130 |            9668089 |        880754 |             7956 |         7813089 |                     0 |       3649258 | 2017-02-04 20:04:48.025022+01

 2017-02-04 21:07:06.42255+01 | 1486238826.42255 |                 0 |              12 |                105352 |                 2130 |            9668089 |        881354 |             7962 |         7813089 |                     0 |       3650201 | 2017-02-04 20:04:48.025022+01

 2017-02-04 21:07:07.500082+01 | 1486238827.50008 |                 0 |              12 |                105352 |                 2130 |            9668089 |        881854 |             7967 |         7813089 |                     0 |       3651375 | 2017-02-04 20:04:48.025022+01

 2017-02-04 21:07:08.575011+01 | 1486238828.57501 |                 0 |              12 |                105352 |                 2130 |            9668089 |        882354 |             7972 |         7813089 |                     0 |       3652089 | 2017-02-04 20:04:48.025022+01

 2017-02-04 21:07:09.652634+01 | 1486238829.65263 |                 0 |              12 |                105352 |                 2130 |            9668089 |        882954 |             7978 |         7813089 |                     0 |       3653277 | 2017-02-04 20:04:48.025022+01

 2017-02-04 21:07:10.727986+01 | 1486238830.72799 |                 0 |              12 |                105352 |                 2130 |            9668089 |        883454 |             7983 |         7813089 |                     0 |       3654201 | 2017-02-04 20:04:48.025022+01

 2017-02-04 21:07:11.804762+01 | 1486238831.80476 |                 0 |              12 |                105352 |                 2130 |            9668089 |        883954 |             7988 |         7813089 |                     0 |       3655268 | 2017-02-04 20:04:48.025022+01

 2017-02-04 21:07:12.876566+01 | 1486238832.87657 |                 0 |              12 |                105352 |                 2130 |            9668089 |        884501 |             7991 |         7813089 |                     0 |       3656428 | 2017-02-04 20:04:48.025022+01

 2017-02-04 21:07:13.960636+01 | 1486238833.96064 |                 0 |              12 |                105352 |                 2130 |            9668089 |        884856 |             7991 |         7813089 |                     0 |       3657377 | 2017-02-04 20:04:48.025022+01

 2017-02-04 21:07:15.041941+01 | 1486238835.04194 |                 0 |              12 |                105352 |                 2130 |            9668089 |        885213 |             7992 |         7813089 |                     0 |       3658351 | 2017-02-04 20:04:48.025022+01

 2017-02-04 21:07:16.132069+01 | 1486238836.13207 |                 0 |              12 |                105352 |                 2130 |            9668089 |        885719 |             7996 |         7813089 |                     0 |       3659556 | 2017-02-04 20:04:48.025022+01

 2017-02-04 21:07:17.211216+01 | 1486238837.21122 |                 0 |              12 |                105352 |                 2130 |            9668089 |        886219 |             8001 |         7813089 |                     0 |       3660698 | 2017-02-04 20:04:48.025022+01

 2017-02-04 21:07:18.2866+01 | 1486238838.2866 |                 0 |              12 |                105352 |                 2130 |            9668089 |        886600 |             8002 |         7813089 |                     0 |       3661662 | 2017-02-04 20:04:48.025022+01

 2017-02-04 21:07:19.376417+01 | 1486238839.37642 |                 0 |              12 |                105352 |                 2130 |            9668089 |        887088 |             8004 |         7813089 |                     0 |       3662832 | 2017-02-04 20:04:48.025022+01

 2017-02-04 21:07:20.441143+01 | 1486238840.44114 |                 0 |              12 |                105352 |                 2130 |            9668089 |        887581 |             8008 |         7813089 |                     0 |       3663735 | 2017-02-04 20:04:48.025022+01

 2017-02-04 21:07:21.530096+01 | 1486238841.5301 |                 0 |              12 |                105352 |                 2130 |            9668089 |        888081 |             8013 |         7813089 |                     0 |       3664813 | 2017-02-04 20:04:48.025022+01

 2017-02-04 21:07:22.606617+01 | 1486238842.60662 |                 0 |              12 |                105352 |                 2130 |            9668089 |        888677 |             8018 |         7813089 |                     0 |       3665912 | 2017-02-04 20:04:48.025022+01

 2017-02-04 21:07:23.684008+01 | 1486238843.68401 |                 0 |              12 |                105352 |                 2130 |            9668089 |        889160 |             8022 |         7813089 |                     0 |       3666853 | 2017-02-04 20:04:48.025022+01

 2017-02-04 21:07:24.762985+01 | 1486238844.76298 |                 0 |              12 |                105352 |                 2130 |            9668089 |        889647 |             8026 |         7813089 |                     0 |       3667797 | 2017-02-04 20:04:48.025022+01

 2017-02-04 21:07:25.824901+01 | 1486238845.8249 |                 0 |              12 |                105352 |                 2130 |            9668089 |        890032 |             8028 |         7813089 |                     0 |       3668512 | 2017-02-04 20:04:48.025022+01

 2017-02-04 21:07:26.90661+01 | 1486238846.90661 |                 0 |              12 |                105352 |                 2130 |            9668089 |        890710 |             8033 |         7813089 |                     0 |       3669850 | 2017-02-04 20:04:48.025022+01

 2017-02-04 21:07:27.981932+01 | 1486238847.98193 |                 0 |              12 |                105352 |                 2130 |            9668089 |        891183 |             8037 |         7813089 |                     0 |       3670771 | 2017-02-04 20:04:48.025022+01

 2017-02-04 21:07:29.060633+01 | 1486238849.06063 |                 0 |              12 |                105352 |                 2130 |            9668089 |        891783 |             8043 |         7813089 |                     0 |       3671915 | 2017-02-04 20:04:48.025022+01

 2017-02-04 21:07:30.141167+01 | 1486238850.14117 |                 0 |              12 |                105352 |                 2130 |            9668089 |        892221 |             8047 |         7813089 |                     0 |       3672753 | 2017-02-04 20:04:48.025022+01

 2017-02-04 21:07:31.222432+01 | 1486238851.22243 |                 0 |              12 |                105352 |                 2130 |            9668089 |        892721 |             8052 |         7813089 |                     0 |       3673742 | 2017-02-04 20:04:48.025022+01

 2017-02-04 21:07:32.298147+01 | 1486238852.29815 |                 0 |              12 |                105352 |                 2130 |            9668089 |        893290 |             8057 |         7813089 |                     0 |       3674846 | 2017-02-04 20:04:48.025022+01

 2017-02-04 21:07:33.372945+01 | 1486238853.37295 |                 0 |              12 |                105352 |                 2130 |            9668089 |        893758 |             8060 |         7813089 |                     0 |       3675775 | 2017-02-04 20:04:48.025022+01

 2017-02-04 21:07:34.454151+01 | 1486238854.45415 |                 0 |              12 |                105352 |                 2130 |            9668089 |        894234 |             8063 |         7813089 |                     0 |       3676794 | 2017-02-04 20:04:48.025022+01

 2017-02-04 21:07:35.534879+01 | 1486238855.53488 |                 0 |              12 |                105352 |                 2130 |            9668089 |        894775 |             8065 |         7813089 |                     0 |       3677973 | 2017-02-04 20:04:48.025022+01

 2017-02-04 21:07:36.615695+01 | 1486238856.61569 |                 0 |              12 |                105352 |                 2130 |            9668089 |        895243 |             8068 |         7813089 |                     0 |       3678908 | 2017-02-04 20:04:48.025022+01

 2017-02-04 21:07:37.688769+01 | 1486238857.68877 |                 0 |              12 |                105352 |                 2130 |            9668089 |        895677 |             8071 |         7813089 |                     0 |       3679955 | 2017-02-04 20:04:48.025022+01

 2017-02-04 21:07:38.76346+01 | 1486238858.76346 |                 0 |              12 |                105352 |                 2130 |            9668089 |        896173 |             8073 |         7813089 |                     0 |       3681018 | 2017-02-04 20:04:48.025022+01

 2017-02-04 21:07:39.844946+01 | 1486238859.84495 |                 0 |              12 |                105352 |                 2130 |            9668089 |        896601 |             8075 |         7813089 |                     0 |       3682042 | 2017-02-04 20:04:48.025022+01

 2017-02-04 21:07:40.920544+01 | 1486238860.92054 |                 0 |              12 |                105352 |                 2130 |            9668089 |        897022 |             8078 |         7813089 |                     0 |       3683021 | 2017-02-04 20:04:48.025022+01

 2017-02-04 21:07:41.997223+01 | 1486238861.99722 |                 0 |              12 |                105352 |                 2130 |            9668089 |        897578 |             8081 |         7813089 |                     0 |       3684243 | 2017-02-04 20:04:48.025022+01

 2017-02-04 21:07:43.081112+01 | 1486238863.08111 |                 0 |              12 |                105352 |                 2130 |            9668089 |        898078 |             8086 |         7813089 |                     0 |       3685353 | 2017-02-04 20:04:48.025022+01

 2017-02-04 21:07:44.162889+01 | 1486238864.16289 |                 0 |              12 |                105352 |                 2130 |            9668089 |        898635 |             8090 |         7813089 |                     0 |       3686391 | 2017-02-04 20:04:48.025022+01

 2017-02-04 21:07:45.24233+01 | 1486238865.24233 |                 0 |              12 |                105352 |                 2130 |            9668089 |        899135 |             8095 |         7813089 |                     0 |       3687497 | 2017-02-04 20:04:48.025022+01

 2017-02-04 21:07:46.32562+01 | 1486238866.32562 |                 0 |              12 |                105352 |                 2130 |            9668089 |        899635 |             8100 |         7813089 |                     0 |       3688453 | 2017-02-04 20:04:48.025022+01

 2017-02-04 21:07:47.405465+01 | 1486238867.40546 |                 0 |              12 |                105352 |                 2130 |            9668089 |        900235 |             8106 |         7813089 |                     0 |       3689458 | 2017-02-04 20:04:48.025022+01

 2017-02-04 21:07:48.483276+01 | 1486238868.48328 |                 0 |              12 |                105352 |                 2130 |            9668089 |        900735 |             8111 |         7813089 |                     0 |       3690505 | 2017-02-04 20:04:48.025022+01

 2017-02-04 21:07:49.5649+01 | 1486238869.5649 |                 0 |              12 |                105352 |                 2130 |            9668089 |        901235 |             8116 |         7813089 |                     0 |       3691492 | 2017-02-04 20:04:48.025022+01

 2017-02-04 21:07:50.643413+01 | 1486238870.64341 |                 0 |              12 |                105352 |                 2130 |            9668089 |        901835 |             8122 |         7813089 |                     0 |       3692640 | 2017-02-04 20:04:48.025022+01

 2017-02-04 21:07:51.719673+01 | 1486238871.71967 |                 0 |              12 |                105352 |                 2130 |            9668089 |        902335 |             8127 |         7813089 |                     0 |       3693625 | 2017-02-04 20:04:48.025022+01

 2017-02-04 21:07:52.800019+01 | 1486238872.80002 |                 0 |              12 |                105352 |                 2130 |            9668089 |        902835 |             8132 |         7813089 |                     0 |       3694606 | 2017-02-04 20:04:48.025022+01

 2017-02-04 21:07:53.880993+01 | 1486238873.88099 |                 0 |              12 |                105352 |                 2130 |            9668089 |        903435 |             8138 |         7813089 |                     0 |       3695871 | 2017-02-04 20:04:48.025022+01

 2017-02-04 21:07:54.959139+01 | 1486238874.95914 |                 0 |              12 |                105352 |                 2130 |            9668089 |        903935 |             8143 |         7813089 |                     0 |       3696938 | 2017-02-04 20:04:48.025022+01

 2017-02-04 21:07:56.040337+01 | 1486238876.04034 |                 0 |              12 |                105352 |                 2130 |            9668089 |        904435 |             8148 |         7813089 |                     0 |       3697850 | 2017-02-04 20:04:48.025022+01

 2017-02-04 21:07:57.123686+01 | 1486238877.12369 |                 0 |              12 |                105352 |                 2130 |            9668089 |        905035 |             8154 |         7813089 |                     0 |       3699035 | 2017-02-04 20:04:48.025022+01

 2017-02-04 21:07:58.208928+01 | 1486238878.20893 |                 0 |              12 |                105352 |                 2130 |            9668089 |        905535 |             8159 |         7813089 |                     0 |       3700053 | 2017-02-04 20:04:48.025022+01

 2017-02-04 21:07:59.292417+01 | 1486238879.29242 |                 0 |              12 |                105352 |                 2130 |            9668089 |        906135 |             8165 |         7813089 |                     0 |       3701367 | 2017-02-04 20:04:48.025022+01

 2017-02-04 21:08:00.380473+01 | 1486238880.38047 |                 0 |              12 |                105352 |                 2130 |            9668089 |        906635 |             8170 |         7813089 |                     0 |       3702426 | 2017-02-04 20:04:48.025022+01

 2017-02-04 21:08:01.457854+01 | 1486238881.45785 |                 0 |              12 |                105352 |                 2130 |            9668089 |        907135 |             8175 |         7813089 |                     0 |       3703411 | 2017-02-04 20:04:48.025022+01

 2017-02-04 21:08:02.535411+01 | 1486238882.53541 |                 0 |              12 |                105352 |                 2130 |            9668089 |        907735 |             8181 |         7813089 |                     0 |       3704810 | 2017-02-04 20:04:48.025022+01

 2017-02-04 21:08:03.601344+01 | 1486238883.60134 |                 0 |              12 |                105352 |                 2130 |            9668089 |        908235 |             8186 |         7813089 |                     0 |       3705712 | 2017-02-04 20:04:48.025022+01

 2017-02-04 21:08:04.690231+01 | 1486238884.69023 |                 0 |              12 |                105352 |                 2130 |            9668089 |        908735 |             8191 |         7813089 |                     0 |       3706688 | 2017-02-04 20:04:48.025022+01

 2017-02-04 21:08:05.772012+01 | 1486238885.77201 |                 0 |              12 |                105352 |                 2130 |            9668089 |        909335 |             8197 |         7813089 |                     0 |       3707807 | 2017-02-04 20:04:48.025022+01

 2017-02-04 21:08:06.847543+01 | 1486238886.84754 |                 0 |              12 |                105352 |                 2130 |            9668089 |        909835 |             8202 |         7813089 |                     0 |       3709150 | 2017-02-04 20:04:48.025022+01

 2017-02-04 21:08:07.928599+01 | 1486238887.9286 |                 0 |              12 |                105352 |                 2130 |            9668089 |        910335 |             8207 |         7813089 |                     0 |       3709919 | 2017-02-04 20:04:48.025022+01

 2017-02-04 21:08:09.003956+01 | 1486238889.00396 |                 0 |              12 |                105352 |                 2130 |            9668089 |        910935 |             8213 |         7813089 |                     0 |       3711238 | 2017-02-04 20:04:48.025022+01

 2017-02-04 21:08:10.084558+01 | 1486238890.08456 |                 0 |              12 |                105352 |                 2130 |            9668089 |        911435 |             8218 |         7813089 |                     0 |       3712252 | 2017-02-04 20:04:48.025022+01

 2017-02-04 21:08:11.169988+01 | 1486238891.16999 |                 0 |              12 |                105352 |                 2130 |            9668089 |        911935 |             8223 |         7813089 |                     0 |       3713359 | 2017-02-04 20:04:48.025022+01

 2017-02-04 21:08:12.258984+01 | 1486238892.25898 |                 0 |              12 |                105352 |                 2130 |            9668089 |        912535 |             8229 |         7813089 |                     0 |       3714555 | 2017-02-04 20:04:48.025022+01

 2017-02-04 21:08:13.338963+01 | 1486238893.33896 |                 0 |              12 |                105352 |                 2130 |            9668089 |        913035 |             8234 |         7813089 |                     0 |       3715604 | 2017-02-04 20:04:48.025022+01

 2017-02-04 21:08:14.419848+01 | 1486238894.41985 |                 0 |              12 |                105352 |                 2130 |            9668089 |        913535 |             8239 |         7813089 |                     0 |       3716756 | 2017-02-04 20:04:48.025022+01

 2017-02-04 21:08:15.498878+01 | 1486238895.49888 |                 0 |              12 |                105352 |                 2130 |            9668089 |        914135 |             8245 |         7813089 |                     0 |       3717875 | 2017-02-04 20:04:48.025022+01

 2017-02-04 21:08:16.578911+01 | 1486238896.57891 |                 0 |              12 |                105352 |                 2130 |            9668089 |        914635 |             8250 |         7813089 |                     0 |       3718962 | 2017-02-04 20:04:48.025022+01

 2017-02-04 21:08:17.66664+01 | 1486238897.66664 |                 0 |              12 |                105352 |                 2130 |            9668089 |        915135 |             8255 |         7813089 |                     0 |       3719984 | 2017-02-04 20:04:48.025022+01

 2017-02-04 21:08:18.741366+01 | 1486238898.74137 |                 0 |              12 |                105352 |                 2130 |            9668089 |        915735 |             8261 |         7813089 |                     0 |       3721278 | 2017-02-04 20:04:48.025022+01

 2017-02-04 21:08:19.809635+01 | 1486238899.80963 |                 0 |              12 |                105352 |                 2130 |            9668089 |        916235 |             8266 |         7813089 |                     0 |       3722229 | 2017-02-04 20:04:48.025022+01

 2017-02-04 21:08:20.888565+01 | 1486238900.88857 |                 0 |              12 |                105352 |                 2130 |            9668089 |        916735 |             8271 |         7813089 |                     0 |       3723411 | 2017-02-04 20:04:48.025022+01

 2017-02-04 21:08:21.965699+01 | 1486238901.9657 |                 0 |              12 |                105352 |                 2130 |            9668089 |        917335 |             8277 |         7813089 |                     0 |       3725279 | 2017-02-04 20:04:48.025022+01

 2017-02-04 21:08:23.046879+01 | 1486238903.04688 |                 0 |              12 |                105352 |                 2130 |            9668089 |        917835 |             8282 |         7813089 |                     0 |       3727119 | 2017-02-04 20:04:48.025022+01

 2017-02-04 21:08:24.133022+01 | 1486238904.13302 |                 0 |              12 |                105352 |                 2130 |            9668089 |        918435 |             8288 |         7813089 |                     0 |       3729270 | 2017-02-04 20:04:48.025022+01

 2017-02-04 21:08:25.220631+01 | 1486238905.22063 |                 0 |              12 |                105352 |                 2130 |            9668089 |        918935 |             8293 |         7813089 |                     0 |       3731079 | 2017-02-04 20:04:48.025022+01

 2017-02-04 21:08:26.298601+01 | 1486238906.2986 |                 0 |              12 |                105352 |                 2130 |            9668089 |        919435 |             8298 |         7813089 |                     0 |       3732856 | 2017-02-04 20:04:48.025022+01

 2017-02-04 21:08:27.378098+01 | 1486238907.3781 |                 0 |              12 |                105352 |                 2130 |            9668089 |        920035 |             8304 |         7813089 |                     0 |       3735103 | 2017-02-04 20:04:48.025022+01

 2017-02-04 21:08:28.453598+01 | 1486238908.4536 |                 0 |              12 |                105352 |                 2130 |            9668089 |        920535 |             8309 |         7813089 |                     0 |       3736970 | 2017-02-04 20:04:48.025022+01

 2017-02-04 21:08:29.534308+01 | 1486238909.53431 |                 0 |              12 |                105352 |                 2130 |            9668089 |        921035 |             8314 |         7813089 |                     0 |       3738756 | 2017-02-04 20:04:48.025022+01

 2017-02-04 21:08:30.616174+01 | 1486238910.61617 |                 0 |              12 |                105352 |                 2130 |            9668089 |        921635 |             8320 |         7813089 |                     0 |       3740765 | 2017-02-04 20:04:48.025022+01

 2017-02-04 21:08:31.692032+01 | 1486238911.69203 |                 0 |              12 |                105352 |                 2130 |            9668089 |        922135 |             8325 |         7813089 |                     0 |       3742541 | 2017-02-04 20:04:48.025022+01

 2017-02-04 21:08:32.772856+01 | 1486238912.77286 |                 0 |              12 |                105352 |                 2130 |            9668089 |        922635 |             8330 |         7813089 |                     0 |       3744258 | 2017-02-04 20:04:48.025022+01

 2017-02-04 21:08:33.848965+01 | 1486238913.84896 |                 0 |              12 |                105352 |                 2130 |            9668089 |        923235 |             8336 |         7813089 |                     0 |       3746239 | 2017-02-04 20:04:48.025022+01

 2017-02-04 21:08:34.930544+01 | 1486238914.93054 |                 0 |              12 |                105352 |                 2130 |            9668089 |        923735 |             8341 |         7813089 |                     0 |       3747867 | 2017-02-04 20:04:48.025022+01

 2017-02-04 21:08:36.013639+01 | 1486238916.01364 |                 0 |              12 |                105352 |                 2130 |            9668089 |        924235 |             8346 |         7813089 |                     0 |       3749630 | 2017-02-04 20:04:48.025022+01

 2017-02-04 21:08:37.088466+01 | 1486238917.08847 |                 0 |              12 |                105352 |                 2130 |            9668089 |        924835 |             8352 |         7813089 |                     0 |       3751725 | 2017-02-04 20:04:48.025022+01

 2017-02-04 21:08:38.171791+01 | 1486238918.17179 |                 0 |              12 |                105352 |                 2130 |            9668089 |        925335 |             8357 |         7813089 |                     0 |       3753343 | 2017-02-04 20:04:48.025022+01

 2017-02-04 21:08:39.252486+01 | 1486238919.25249 |                 0 |              12 |                105352 |                 2130 |            9668089 |        925835 |             8362 |         7813089 |                     0 |       3754932 | 2017-02-04 20:04:48.025022+01

 2017-02-04 21:08:40.323365+01 | 1486238920.32336 |                 0 |              12 |                105352 |                 2130 |            9668089 |        926435 |             8368 |         7813089 |                     0 |       3756700 | 2017-02-04 20:04:48.025022+01

 2017-02-04 21:08:41.398519+01 | 1486238921.39852 |                 0 |              12 |                105352 |                 2130 |            9668089 |        926935 |             8373 |         7813089 |                     0 |       3758191 | 2017-02-04 20:04:48.025022+01

 2017-02-04 21:08:42.479964+01 | 1486238922.47996 |                 0 |              12 |                105352 |                 2130 |            9668089 |        927435 |             8378 |         7813089 |                     0 |       3759660 | 2017-02-04 20:04:48.025022+01

 2017-02-04 21:08:43.5553+01 | 1486238923.5553 |                 0 |              12 |                105352 |                 2130 |            9668089 |        928035 |             8384 |         7813089 |                     0 |       3761745 | 2017-02-04 20:04:48.025022+01

 2017-02-04 21:08:44.633179+01 | 1486238924.63318 |                 0 |              12 |                105352 |                 2130 |            9668089 |        928535 |             8389 |         7813089 |                     0 |       3763038 | 2017-02-04 20:04:48.025022+01

 2017-02-04 21:08:45.716208+01 | 1486238925.71621 |                 0 |              12 |                105352 |                 2130 |            9668089 |        929035 |             8394 |         7813089 |                     0 |       3764455 | 2017-02-04 20:04:48.025022+01

 2017-02-04 21:08:46.793518+01 | 1486238926.79352 |                 0 |              12 |                105352 |                 2130 |            9668089 |        929635 |             8400 |         7813089 |                     0 |       3766268 | 2017-02-04 20:04:48.025022+01

 2017-02-04 21:08:47.869272+01 | 1486238927.86927 |                 0 |              12 |                105352 |                 2130 |            9668089 |        930135 |             8405 |         7813089 |                     0 |       3767752 | 2017-02-04 20:04:48.025022+01

 2017-02-04 21:08:48.944092+01 | 1486238928.94409 |                 0 |              12 |                105352 |                 2130 |            9668089 |        930635 |             8410 |         7813089 |                     0 |       3769315 | 2017-02-04 20:04:48.025022+01

 2017-02-04 21:08:50.018166+01 | 1486238930.01817 |                 0 |              12 |                105352 |                 2130 |            9668089 |        931235 |             8416 |         7813089 |                     0 |       3771368 | 2017-02-04 20:04:48.025022+01

 2017-02-04 21:08:51.095186+01 | 1486238931.09519 |                 0 |              12 |                105352 |                 2130 |            9668089 |        931735 |             8421 |         7813089 |                     0 |       3773085 | 2017-02-04 20:04:48.025022+01

 2017-02-04 21:08:52.179551+01 | 1486238932.17955 |                 0 |              12 |                105352 |                 2130 |            9668089 |        932235 |             8426 |         7813089 |                     0 |       3774819 | 2017-02-04 20:04:48.025022+01

 2017-02-04 21:08:53.259051+01 | 1486238933.25905 |                 0 |              12 |                105352 |                 2130 |            9668089 |        932835 |             8432 |         7813089 |                     0 |       3776398 | 2017-02-04 20:04:48.025022+01

 2017-02-04 21:08:54.338522+01 | 1486238934.33852 |                 0 |              12 |                105352 |                 2130 |            9668089 |        933335 |             8437 |         7813089 |                     0 |       3777832 | 2017-02-04 20:04:48.025022+01

 2017-02-04 21:08:55.414509+01 | 1486238935.41451 |                 0 |              12 |                105352 |                 2130 |            9668089 |        933835 |             8442 |         7813089 |                     0 |       3779207 | 2017-02-04 20:04:48.025022+01

 2017-02-04 21:08:56.492926+01 | 1486238936.49293 |                 0 |              12 |                105352 |                 2130 |            9668089 |        934435 |             8448 |         7813089 |                     0 |       3781002 | 2017-02-04 20:04:48.025022+01

 2017-02-04 21:08:57.578554+01 | 1486238937.57855 |                 0 |              12 |                105352 |                 2130 |            9668089 |        934935 |             8453 |         7813089 |                     0 |       3782474 | 2017-02-04 20:04:48.025022+01

 2017-02-04 21:08:58.663406+01 | 1486238938.66341 |                 0 |              12 |                105352 |                 2130 |            9668089 |        935435 |             8458 |         7813089 |                     0 |       3784039 | 2017-02-04 20:04:48.025022+01

 2017-02-04 21:08:59.742138+01 | 1486238939.74214 |                 0 |              12 |                105352 |                 2130 |            9668089 |        936035 |             8464 |         7813089 |                     0 |       3785698 | 2017-02-04 20:04:48.025022+01

 2017-02-04 21:09:00.824098+01 | 1486238940.8241 |                 0 |              12 |                105352 |                 2130 |            9668089 |        936535 |             8469 |         7813089 |                     0 |       3787405 | 2017-02-04 20:04:48.025022+01

 2017-02-04 21:09:01.901167+01 | 1486238941.90117 |                 0 |              12 |                105352 |                 2130 |            9668089 |        937035 |             8474 |         7813089 |                     0 |       3789032 | 2017-02-04 20:04:48.025022+01

 2017-02-04 21:09:02.982469+01 | 1486238942.98247 |                 0 |              12 |                105352 |                 2130 |            9668089 |        937635 |             8480 |         7813089 |                     0 |       3791073 | 2017-02-04 20:04:48.025022+01

 2017-02-04 21:09:04.064892+01 | 1486238944.06489 |                 0 |              12 |                105352 |                 2130 |            9668089 |        938135 |             8485 |         7813089 |                     0 |       3792838 | 2017-02-04 20:04:48.025022+01

 2017-02-04 21:09:05.146222+01 | 1486238945.14622 |                 0 |              12 |                105352 |                 2130 |            9668089 |        938735 |             8491 |         7813089 |                     0 |       3795066 | 2017-02-04 20:04:48.025022+01

 2017-02-04 21:09:06.224427+01 | 1486238946.22443 |                 0 |              12 |                105352 |                 2130 |            9668089 |        939235 |             8496 |         7813089 |                     0 |       3796808 | 2017-02-04 20:04:48.025022+01

 2017-02-04 21:09:07.310983+01 | 1486238947.31098 |                 0 |              12 |                105352 |                 2130 |            9668089 |        939735 |             8501 |         7813089 |                     0 |       3798577 | 2017-02-04 20:04:48.025022+01

 2017-02-04 21:09:08.399054+01 | 1486238948.39905 |                 0 |              12 |                105352 |                 2130 |            9668089 |        940335 |             8507 |         7813089 |                     0 |       3800751 | 2017-02-04 20:04:48.025022+01

 2017-02-04 21:09:09.47759+01 | 1486238949.47759 |                 0 |              12 |                105352 |                 2130 |            9668089 |        940835 |             8512 |         7813089 |                     0 |       3802561 | 2017-02-04 20:04:48.025022+01

 2017-02-04 21:09:10.559233+01 | 1486238950.55923 |                 0 |              12 |                105352 |                 2130 |            9668089 |        941335 |             8517 |         7813089 |                     0 |       3804239 | 2017-02-04 20:04:48.025022+01

 2017-02-04 21:09:11.643287+01 | 1486238951.64329 |                 0 |              12 |                105352 |                 2130 |            9668089 |        941935 |             8523 |         7813089 |                     0 |       3806422 | 2017-02-04 20:04:48.025022+01

 2017-02-04 21:09:12.719947+01 | 1486238952.71995 |                 0 |              12 |                105352 |                 2130 |            9668089 |        942435 |             8528 |         7813089 |                     0 |       3807850 | 2017-02-04 20:04:48.025022+01

 2017-02-04 21:09:13.800002+01 | 1486238953.8 |                 0 |              12 |                105352 |                 2130 |            9668089 |        942935 |             8533 |         7813089 |                     0 |       3809615 | 2017-02-04 20:04:48.025022+01

 2017-02-04 21:09:14.87663+01 | 1486238954.87663 |                 0 |              12 |                105352 |                 2130 |            9668089 |        943535 |             8539 |         7813089 |                     0 |       3811760 | 2017-02-04 20:04:48.025022+01

 2017-02-04 21:09:15.959127+01 | 1486238955.95913 |                 0 |              12 |                105352 |                 2130 |            9668089 |        944035 |             8544 |         7813089 |                     0 |       3813491 | 2017-02-04 20:04:48.025022+01

 2017-02-04 21:09:17.04419+01 | 1486238957.04419 |                 0 |              12 |                105352 |                 2130 |            9668089 |        944535 |             8549 |         7813089 |                     0 |       3815236 | 2017-02-04 20:04:48.025022+01

 2017-02-04 21:09:18.125356+01 | 1486238958.12536 |                 0 |              12 |                105352 |                 2130 |            9668089 |        945135 |             8555 |         7813089 |                     0 |       3817269 | 2017-02-04 20:04:48.025022+01

 2017-02-04 21:09:19.208261+01 | 1486238959.20826 |                 0 |              12 |                105352 |                 2130 |            9668089 |        945635 |             8560 |         7813089 |                     0 |       3818896 | 2017-02-04 20:04:48.025022+01

 2017-02-04 21:09:20.276146+01 | 1486238960.27615 |                 0 |              12 |                105352 |                 2130 |            9668089 |        946135 |             8565 |         7813089 |                     0 |       3820461 | 2017-02-04 20:04:48.025022+01

 2017-02-04 21:09:21.362963+01 | 1486238961.36296 |                 0 |              12 |                105352 |                 2130 |            9668089 |        946735 |             8571 |         7813089 |                     0 |       3823811 | 2017-02-04 20:04:48.025022+01

 2017-02-04 21:09:22.44398+01 | 1486238962.44398 |                 0 |              12 |                105352 |                 2130 |            9668089 |        947235 |             8576 |         7813089 |                     0 |       3828572 | 2017-02-04 20:04:48.025022+01

 2017-02-04 21:09:23.52169+01 | 1486238963.52169 |                 0 |              12 |                105352 |                 2130 |            9668089 |        947735 |             8581 |         7813089 |                     0 |       3830391 | 2017-02-04 20:04:48.025022+01

 2017-02-04 21:09:24.602555+01 | 1486238964.60256 |                 0 |              12 |                105352 |                 2130 |            9668089 |        948335 |             8587 |         7813089 |                     0 |       3832404 | 2017-02-04 20:04:48.025022+01

 2017-02-04 21:09:25.683796+01 | 1486238965.6838 |                 0 |              12 |                105352 |                 2130 |            9668089 |        948835 |             8592 |         7813089 |                     0 |       3834096 | 2017-02-04 20:04:48.025022+01

 2017-02-04 21:09:26.755561+01 | 1486238966.75556 |                 0 |              12 |                105352 |                 2130 |            9668089 |        949435 |             8598 |         7813089 |                     0 |       3836293 | 2017-02-04 20:04:48.025022+01

 2017-02-04 21:09:27.834984+01 | 1486238967.83498 |                 0 |              12 |                105352 |                 2130 |            9668089 |        949935 |             8603 |         7813089 |                     0 |       3837721 | 2017-02-04 20:04:48.025022+01

 2017-02-04 21:09:28.909969+01 | 1486238968.90997 |                 0 |              12 |                105352 |                 2130 |            9668089 |        950435 |             8608 |         7813089 |                     0 |       3839507 | 2017-02-04 20:04:48.025022+01

 2017-02-04 21:09:29.98522+01 | 1486238969.98522 |                 0 |              12 |                105352 |                 2130 |            9668089 |        951035 |             8614 |         7813089 |                     0 |       3841407 | 2017-02-04 20:04:48.025022+01

 2017-02-04 21:09:31.063045+01 | 1486238971.06305 |                 0 |              12 |                105352 |                 2130 |            9668089 |        951535 |             8619 |         7813089 |                     0 |       3843056 | 2017-02-04 20:04:48.025022+01

 2017-02-04 21:09:32.13944+01 | 1486238972.13944 |                 0 |              12 |                105352 |                 2130 |            9668089 |        952035 |             8624 |         7813089 |                     0 |       3844911 | 2017-02-04 20:04:48.025022+01

 2017-02-04 21:09:33.21785+01 | 1486238973.21785 |                 0 |              12 |                105352 |                 2130 |            9668089 |        952535 |             8629 |         7813089 |                     0 |       3846384 | 2017-02-04 20:04:48.025022+01

 2017-02-04 21:09:34.30291+01 | 1486238974.30291 |                 0 |              12 |                105352 |                 2130 |            9668089 |        953135 |             8635 |         7813089 |                     0 |       3848449 | 2017-02-04 20:04:48.025022+01

 2017-02-04 21:09:35.383204+01 | 1486238975.3832 |                 0 |              12 |                105352 |                 2130 |            9668089 |        953635 |             8640 |         7813089 |                     0 |       3849984 | 2017-02-04 20:04:48.025022+01

 2017-02-04 21:09:36.46141+01 | 1486238976.46141 |                 0 |              12 |                105352 |                 2130 |            9668089 |        954235 |             8646 |         7813089 |                     0 |       3851983 | 2017-02-04 20:04:48.025022+01

 2017-02-04 21:09:37.546434+01 | 1486238977.54643 |                 0 |              12 |                105352 |                 2130 |            9668089 |        954735 |             8651 |         7813089 |                     0 |       3853775 | 2017-02-04 20:04:48.025022+01

 2017-02-04 21:09:38.634204+01 | 1486238978.6342 |                 0 |              12 |                105352 |                 2130 |            9668089 |        955235 |             8656 |         7813089 |                     0 |       3855507 | 2017-02-04 20:04:48.025022+01

 2017-02-04 21:09:39.71236+01 | 1486238979.71236 |                 0 |              12 |                105352 |                 2130 |            9668089 |        955835 |             8662 |         7813089 |                     0 |       3857504 | 2017-02-04 20:04:48.025022+01

 2017-02-04 21:09:40.788367+01 | 1486238980.78837 |                 0 |              12 |                105352 |                 2130 |            9668089 |        956335 |             8667 |         7813089 |                     0 |       3858988 | 2017-02-04 20:04:48.025022+01

 2017-02-04 21:09:41.863132+01 | 1486238981.86313 |                 0 |              12 |                105352 |                 2130 |            9668089 |        956835 |             8672 |         7813089 |                     0 |       3860674 | 2017-02-04 20:04:48.025022+01

 2017-02-04 21:09:42.938859+01 | 1486238982.93886 |                 0 |              12 |                105352 |                 2130 |            9668089 |        957435 |             8678 |         7813089 |                     0 |       3862618 | 2017-02-04 20:04:48.025022+01

 2017-02-04 21:09:44.014532+01 | 1486238984.01453 |                 0 |              12 |                105352 |                 2130 |            9668089 |        957935 |             8683 |         7813089 |                     0 |       3864374 | 2017-02-04 20:04:48.025022+01

 2017-02-04 21:09:45.094007+01 | 1486238985.09401 |                 0 |              12 |                105352 |                 2130 |            9668089 |        958435 |             8688 |         7813089 |                     0 |       3866150 | 2017-02-04 20:04:48.025022+01

 2017-02-04 21:09:46.171745+01 | 1486238986.17175 |                 0 |              12 |                105352 |                 2130 |            9668089 |        959035 |             8694 |         7813089 |                     0 |       3868279 | 2017-02-04 20:04:48.025022+01

 2017-02-04 21:09:47.254017+01 | 1486238987.25402 |                 0 |              12 |                105352 |                 2130 |            9668089 |        959535 |             8699 |         7813089 |                     0 |       3869796 | 2017-02-04 20:04:48.025022+01

 2017-02-04 21:09:48.335606+01 | 1486238988.33561 |                 0 |              12 |                105352 |                 2130 |            9668089 |        960035 |             8704 |         7813089 |                     0 |       3871416 | 2017-02-04 20:04:48.025022+01

 2017-02-04 21:09:49.413983+01 | 1486238989.41398 |                 0 |              12 |                105352 |                 2130 |            9668089 |        960635 |             8710 |         7813089 |                     0 |       3873449 | 2017-02-04 20:04:48.025022+01

 2017-02-04 21:09:50.490598+01 | 1486238990.4906 |                 0 |              12 |                105352 |                 2130 |            9668089 |        961135 |             8715 |         7813089 |                     0 |       3875098 | 2017-02-04 20:04:48.025022+01

 2017-02-04 21:09:51.574219+01 | 1486238991.57422 |                 0 |              12 |                105352 |                 2130 |            9668089 |        961635 |             8720 |         7813089 |                     0 |       3876675 | 2017-02-04 20:04:48.025022+01

 2017-02-04 21:09:52.655737+01 | 1486238992.65574 |                 0 |              12 |                105352 |                 2130 |            9668089 |        962235 |             8726 |         7813089 |                     0 |       3878742 | 2017-02-04 20:04:48.025022+01

 2017-02-04 21:09:53.734802+01 | 1486238993.7348 |                 0 |              12 |                105352 |                 2130 |            9668089 |        962735 |             8731 |         7813089 |                     0 |       3880420 | 2017-02-04 20:04:48.025022+01

 2017-02-04 21:09:54.819296+01 | 1486238994.8193 |                 0 |              12 |                105352 |                 2130 |            9668089 |        963235 |             8736 |         7813089 |                     0 |       3882129 | 2017-02-04 20:04:48.025022+01

 2017-02-04 21:09:55.897121+01 | 1486238995.89712 |                 0 |              12 |                105352 |                 2130 |            9668089 |        963835 |             8742 |         7813089 |                     0 |       3884233 | 2017-02-04 20:04:48.025022+01

 2017-02-04 21:09:56.980384+01 | 1486238996.98038 |                 0 |              12 |                105352 |                 2130 |            9668089 |        964335 |             8747 |         7813089 |                     0 |       3885925 | 2017-02-04 20:04:48.025022+01

 2017-02-04 21:09:58.052814+01 | 1486238998.05281 |                 0 |              12 |                105352 |                 2130 |            9668089 |        964935 |             8753 |         7813089 |                     0 |       3888049 | 2017-02-04 20:04:48.025022+01

 2017-02-04 21:09:59.132151+01 | 1486238999.13215 |                 0 |              12 |                105352 |                 2130 |            9668089 |        965435 |             8758 |         7813089 |                     0 |       3889787 | 2017-02-04 20:04:48.025022+01

 2017-02-04 21:10:00.21428+01 | 1486239000.21428 |                 0 |              12 |                105352 |                 2130 |            9668089 |        965935 |             8763 |         7813089 |                     0 |       3891459 | 2017-02-04 20:04:48.025022+01

 2017-02-04 21:10:01.305124+01 | 1486239001.30512 |                 0 |              12 |                105352 |                 2130 |            9668089 |        966535 |             8769 |         7813089 |                     0 |       3893536 | 2017-02-04 20:04:48.025022+01

 2017-02-04 21:10:02.386499+01 | 1486239002.3865 |                 0 |              12 |                105352 |                 2130 |            9668089 |        967035 |             8774 |         7813089 |                     0 |       3895285 | 2017-02-04 20:04:48.025022+01

 2017-02-04 21:10:03.463828+01 | 1486239003.46383 |                 0 |              12 |                105352 |                 2130 |            9668089 |        967535 |             8779 |         7813089 |                     0 |       3897099 | 2017-02-04 20:04:48.025022+01

 2017-02-04 21:10:04.549872+01 | 1486239004.54987 |                 0 |              12 |                105352 |                 2130 |            9668089 |        968135 |             8785 |         7813089 |                     0 |       3898987 | 2017-02-04 20:04:48.025022+01

 2017-02-04 21:10:05.633142+01 | 1486239005.63314 |                 0 |              12 |                105352 |                 2130 |            9668089 |        968635 |             8790 |         7813089 |                     0 |       3900758 | 2017-02-04 20:04:48.025022+01

 2017-02-04 21:10:06.710962+01 | 1486239006.71096 |                 0 |              12 |                105352 |                 2130 |            9668089 |        969135 |             8795 |         7813089 |                     0 |       3902517 | 2017-02-04 20:04:48.025022+01

 2017-02-04 21:10:07.779475+01 | 1486239007.77947 |                 0 |              12 |                105352 |                 2130 |            9668089 |        969735 |             8801 |         7813089 |                     0 |       3904566 | 2017-02-04 20:04:48.025022+01

 2017-02-04 21:10:08.857206+01 | 1486239008.85721 |                 0 |              12 |                105352 |                 2130 |            9668089 |        970235 |             8806 |         7813089 |                     0 |       3906141 | 2017-02-04 20:04:48.025022+01

 2017-02-04 21:10:09.936669+01 | 1486239009.93667 |                 0 |              12 |                105352 |                 2130 |            9668089 |        970735 |             8811 |         7813089 |                     0 |       3908002 | 2017-02-04 20:04:48.025022+01

 2017-02-04 21:10:11.01474+01 | 1486239011.01474 |                 0 |              12 |                105352 |                 2130 |            9668089 |        971335 |             8817 |         7813089 |                     0 |       3910119 | 2017-02-04 20:04:48.025022+01

 2017-02-04 21:10:12.095455+01 | 1486239012.09545 |                 0 |              12 |                105352 |                 2130 |            9668089 |        971835 |             8822 |         7813089 |                     0 |       3911987 | 2017-02-04 20:04:48.025022+01

 2017-02-04 21:10:13.175282+01 | 1486239013.17528 |                 0 |              12 |                105352 |                 2130 |            9668089 |        972335 |             8827 |         7813089 |                     0 |       3913785 | 2017-02-04 20:04:48.025022+01

 2017-02-04 21:10:14.252568+01 | 1486239014.25257 |                 0 |              12 |                105352 |                 2130 |            9668089 |        972935 |             8833 |         7813089 |                     0 |       3915732 | 2017-02-04 20:04:48.025022+01

 2017-02-04 21:10:15.333118+01 | 1486239015.33312 |                 0 |              12 |                105352 |                 2130 |            9668089 |        973435 |             8838 |         7813089 |                     0 |       3917497 | 2017-02-04 20:04:48.025022+01

 2017-02-04 21:10:16.412051+01 | 1486239016.41205 |                 0 |              12 |                105352 |                 2130 |            9668089 |        973935 |             8843 |         7813089 |                     0 |       3919170 | 2017-02-04 20:04:48.025022+01

 2017-02-04 21:10:17.501128+01 | 1486239017.50113 |                 0 |              12 |                105352 |                 2130 |            9668089 |        974535 |             8849 |         7813089 |                     0 |       3921226 | 2017-02-04 20:04:48.025022+01

 2017-02-04 21:10:18.57817+01 | 1486239018.57817 |                 0 |              12 |                105352 |                 2130 |            9668089 |        975035 |             8854 |         7813089 |                     0 |       3922947 | 2017-02-04 20:04:48.025022+01

 2017-02-04 21:10:19.657511+01 | 1486239019.65751 |                 0 |              12 |                105352 |                 2130 |            9668089 |        975535 |             8859 |         7813089 |                     0 |       3924750 | 2017-02-04 20:04:48.025022+01

 2017-02-04 21:10:20.734855+01 | 1486239020.73485 |                 0 |              12 |                105352 |                 2130 |            9668089 |        976135 |             8865 |         7813089 |                     0 |       3926979 | 2017-02-04 20:04:48.025022+01

 2017-02-04 21:10:21.814924+01 | 1486239021.81492 |                 0 |              12 |                105352 |                 2130 |            9668089 |        976635 |             8870 |         7813089 |                     0 |       3931166 | 2017-02-04 20:04:48.025022+01

 2017-02-04 21:10:22.892779+01 | 1486239022.89278 |                 0 |              12 |                105352 |                 2130 |            9668089 |        977135 |             8875 |         7813089 |                     0 |       3934791 | 2017-02-04 20:04:48.025022+01

 2017-02-04 21:10:23.971239+01 | 1486239023.97124 |                 0 |              12 |                105352 |                 2130 |            9668089 |        977735 |             8881 |         7813089 |                     0 |       3936927 | 2017-02-04 20:04:48.025022+01

 2017-02-04 21:10:25.047028+01 | 1486239025.04703 |                 0 |              12 |                105352 |                 2130 |            9668089 |        978235 |             8886 |         7813089 |                     0 |       3938768 | 2017-02-04 20:04:48.025022+01

 2017-02-04 21:10:26.124651+01 | 1486239026.12465 |                 0 |              12 |                105352 |                 2130 |            9668089 |        978735 |             8891 |         7813089 |                     0 |       3940405 | 2017-02-04 20:04:48.025022+01

 2017-02-04 21:10:27.19867+01 | 1486239027.19867 |                 0 |              12 |                105352 |                 2130 |            9668089 |        979335 |             8897 |         7813089 |                     0 |       3942585 | 2017-02-04 20:04:48.025022+01

 2017-02-04 21:10:28.285111+01 | 1486239028.28511 |                 0 |              12 |                105352 |                 2130 |            9668089 |        979835 |             8902 |         7813089 |                     0 |       3944358 | 2017-02-04 20:04:48.025022+01

 2017-02-04 21:10:29.366356+01 | 1486239029.36636 |                 0 |              12 |                105352 |                 2130 |            9668089 |        980435 |             8908 |         7813089 |                     0 |       3946538 | 2017-02-04 20:04:48.025022+01

 2017-02-04 21:10:30.443644+01 | 1486239030.44364 |                 0 |              12 |                105352 |                 2130 |            9668089 |        980935 |             8913 |         7813089 |                     0 |       3948482 | 2017-02-04 20:04:48.025022+01

 2017-02-04 21:10:31.522414+01 | 1486239031.52241 |                 0 |              12 |                105352 |                 2130 |            9668089 |        981435 |             8918 |         7813089 |                     0 |       3950224 | 2017-02-04 20:04:48.025022+01

 2017-02-04 21:10:32.603834+01 | 1486239032.60383 |                 0 |              12 |                105352 |                 2130 |            9668089 |        982035 |             8924 |         7813089 |                     0 |       3952493 | 2017-02-04 20:04:48.025022+01

 2017-02-04 21:10:33.683524+01 | 1486239033.68352 |                 0 |              12 |                105352 |                 2130 |            9668089 |        982535 |             8929 |         7813089 |                     0 |       3954364 | 2017-02-04 20:04:48.025022+01

 2017-02-04 21:10:34.763202+01 | 1486239034.7632 |                 0 |              12 |                105352 |                 2130 |            9668089 |        983035 |             8934 |         8219060 |                     0 |       3956323 | 2017-02-04 20:04:48.025022+01

