 2017-02-06 14:29:41.118994+01 | 1486387781.11899 | pgbench_accounts |      13894320128
 2017-02-06 14:29:41.118994+01 | 1486387781.11899 | pgbench_tellers  |         16769024
 2017-02-06 14:29:41.118994+01 | 1486387781.11899 | pgbench_history  |                0
 2017-02-06 14:29:41.118994+01 | 1486387781.11899 | pgbench_branches |          9322496

 2017-02-06 14:29:43.102638+01 | 1486387783.10264 | pgbench_accounts |      13894320128
 2017-02-06 14:29:43.102638+01 | 1486387783.10264 | pgbench_tellers  |         16769024
 2017-02-06 14:29:43.102638+01 | 1486387783.10264 | pgbench_history  |          3956736
 2017-02-06 14:29:43.102638+01 | 1486387783.10264 | pgbench_branches |          9322496

 2017-02-06 14:29:44.189806+01 | 1486387784.18981 | pgbench_accounts |      13894320128
 2017-02-06 14:29:44.189806+01 | 1486387784.18981 | pgbench_tellers  |         16769024
 2017-02-06 14:29:44.189806+01 | 1486387784.18981 | pgbench_history  |          3956736
 2017-02-06 14:29:44.189806+01 | 1486387784.18981 | pgbench_branches |          9322496

 2017-02-06 14:29:45.264586+01 | 1486387785.26459 | pgbench_accounts |      13894320128
 2017-02-06 14:29:45.264586+01 | 1486387785.26459 | pgbench_tellers  |         16769024
 2017-02-06 14:29:45.264586+01 | 1486387785.26459 | pgbench_history  |          3956736
 2017-02-06 14:29:45.264586+01 | 1486387785.26459 | pgbench_branches |          9322496

 2017-02-06 14:29:46.348726+01 | 1486387786.34873 | pgbench_accounts |      13894320128
 2017-02-06 14:29:46.348726+01 | 1486387786.34873 | pgbench_tellers  |         16769024
 2017-02-06 14:29:46.348726+01 | 1486387786.34873 | pgbench_history  |          3956736
 2017-02-06 14:29:46.348726+01 | 1486387786.34873 | pgbench_branches |          9322496

 2017-02-06 14:29:47.427527+01 | 1486387787.42753 | pgbench_accounts |      13894320128
 2017-02-06 14:29:47.427527+01 | 1486387787.42753 | pgbench_tellers  |         16769024
 2017-02-06 14:29:47.427527+01 | 1486387787.42753 | pgbench_history  |          5185536
 2017-02-06 14:29:47.427527+01 | 1486387787.42753 | pgbench_branches |          9322496

 2017-02-06 14:29:48.505312+01 | 1486387788.50531 | pgbench_accounts |      13894320128
 2017-02-06 14:29:48.505312+01 | 1486387788.50531 | pgbench_tellers  |         16769024
 2017-02-06 14:29:48.505312+01 | 1486387788.50531 | pgbench_history  |          6914048
 2017-02-06 14:29:48.505312+01 | 1486387788.50531 | pgbench_branches |          9322496

 2017-02-06 14:29:49.587322+01 | 1486387789.58732 | pgbench_accounts |      13894320128
 2017-02-06 14:29:49.587322+01 | 1486387789.58732 | pgbench_tellers  |         16769024
 2017-02-06 14:29:49.587322+01 | 1486387789.58732 | pgbench_history  |          7430144
 2017-02-06 14:29:49.587322+01 | 1486387789.58732 | pgbench_branches |          9322496

 2017-02-06 14:29:50.665716+01 | 1486387790.66572 | pgbench_accounts |      13894320128
 2017-02-06 14:29:50.665716+01 | 1486387790.66572 | pgbench_tellers  |         16769024
 2017-02-06 14:29:50.665716+01 | 1486387790.66572 | pgbench_history  |          8953856
 2017-02-06 14:29:50.665716+01 | 1486387790.66572 | pgbench_branches |          9322496

 2017-02-06 14:29:51.744167+01 | 1486387791.74417 | pgbench_accounts |      13894320128
 2017-02-06 14:29:51.744167+01 | 1486387791.74417 | pgbench_tellers  |         16769024
 2017-02-06 14:29:51.744167+01 | 1486387791.74417 | pgbench_history  |         10174464
 2017-02-06 14:29:51.744167+01 | 1486387791.74417 | pgbench_branches |          9322496

 2017-02-06 14:29:52.819436+01 | 1486387792.81944 | pgbench_accounts |      13894320128
 2017-02-06 14:29:52.819436+01 | 1486387792.81944 | pgbench_tellers  |         16769024
 2017-02-06 14:29:52.819436+01 | 1486387792.81944 | pgbench_history  |         11018240
 2017-02-06 14:29:52.819436+01 | 1486387792.81944 | pgbench_branches |          9322496

 2017-02-06 14:29:53.89593+01 | 1486387793.89593 | pgbench_accounts |      13894320128
 2017-02-06 14:29:53.89593+01 | 1486387793.89593 | pgbench_tellers  |         16769024
 2017-02-06 14:29:53.89593+01 | 1486387793.89593 | pgbench_history  |         12222464
 2017-02-06 14:29:53.89593+01 | 1486387793.89593 | pgbench_branches |          9322496

 2017-02-06 14:29:54.976985+01 | 1486387794.97698 | pgbench_accounts |      13894320128
 2017-02-06 14:29:54.976985+01 | 1486387794.97698 | pgbench_tellers  |         16769024
 2017-02-06 14:29:54.976985+01 | 1486387794.97698 | pgbench_history  |         13393920
 2017-02-06 14:29:54.976985+01 | 1486387794.97698 | pgbench_branches |          9322496

 2017-02-06 14:29:56.052217+01 | 1486387796.05222 | pgbench_accounts |      13894320128
 2017-02-06 14:29:56.052217+01 | 1486387796.05222 | pgbench_tellers  |         16769024
 2017-02-06 14:29:56.052217+01 | 1486387796.05222 | pgbench_history  |         14589952
 2017-02-06 14:29:56.052217+01 | 1486387796.05222 | pgbench_branches |          9322496

 2017-02-06 14:29:57.129286+01 | 1486387797.12929 | pgbench_accounts |      13894320128
 2017-02-06 14:29:57.129286+01 | 1486387797.12929 | pgbench_tellers  |         16769024
 2017-02-06 14:29:57.129286+01 | 1486387797.12929 | pgbench_history  |         15966208
 2017-02-06 14:29:57.129286+01 | 1486387797.12929 | pgbench_branches |          9322496

 2017-02-06 14:29:58.207752+01 | 1486387798.20775 | pgbench_accounts |      13894320128
 2017-02-06 14:29:58.207752+01 | 1486387798.20775 | pgbench_tellers  |         16769024
 2017-02-06 14:29:58.207752+01 | 1486387798.20775 | pgbench_history  |         16859136
 2017-02-06 14:29:58.207752+01 | 1486387798.20775 | pgbench_branches |          9322496

 2017-02-06 14:29:59.283683+01 | 1486387799.28368 | pgbench_accounts |      13894320128
 2017-02-06 14:29:59.283683+01 | 1486387799.28368 | pgbench_tellers  |         16769024
 2017-02-06 14:29:59.283683+01 | 1486387799.28368 | pgbench_history  |         18071552
 2017-02-06 14:29:59.283683+01 | 1486387799.28368 | pgbench_branches |          9322496

 2017-02-06 14:30:00.363867+01 | 1486387800.36387 | pgbench_accounts |      13894320128
 2017-02-06 14:30:00.363867+01 | 1486387800.36387 | pgbench_tellers  |         16769024
 2017-02-06 14:30:00.363867+01 | 1486387800.36387 | pgbench_history  |         19480576
 2017-02-06 14:30:00.363867+01 | 1486387800.36387 | pgbench_branches |          9322496

 2017-02-06 14:30:01.446792+01 | 1486387801.44679 | pgbench_accounts |      13894320128
 2017-02-06 14:30:01.446792+01 | 1486387801.44679 | pgbench_tellers  |         16769024
 2017-02-06 14:30:01.446792+01 | 1486387801.44679 | pgbench_history  |         21192704
 2017-02-06 14:30:01.446792+01 | 1486387801.44679 | pgbench_branches |          9322496

 2017-02-06 14:30:02.525468+01 | 1486387802.52547 | pgbench_accounts |      13894320128
 2017-02-06 14:30:02.525468+01 | 1486387802.52547 | pgbench_tellers  |         16769024
 2017-02-06 14:30:02.525468+01 | 1486387802.52547 | pgbench_history  |         21905408
 2017-02-06 14:30:02.525468+01 | 1486387802.52547 | pgbench_branches |          9322496

 2017-02-06 14:30:03.605332+01 | 1486387803.60533 | pgbench_accounts |      13894320128
 2017-02-06 14:30:03.605332+01 | 1486387803.60533 | pgbench_tellers  |         16769024
 2017-02-06 14:30:03.605332+01 | 1486387803.60533 | pgbench_history  |         23314432
 2017-02-06 14:30:03.605332+01 | 1486387803.60533 | pgbench_branches |          9322496

 2017-02-06 14:30:04.681166+01 | 1486387804.68117 | pgbench_accounts |      13894320128
 2017-02-06 14:30:04.681166+01 | 1486387804.68117 | pgbench_tellers  |         16769024
 2017-02-06 14:30:04.681166+01 | 1486387804.68117 | pgbench_history  |         24543232
 2017-02-06 14:30:04.681166+01 | 1486387804.68117 | pgbench_branches |          9322496

 2017-02-06 14:30:05.760679+01 | 1486387805.76068 | pgbench_accounts |      13894320128
 2017-02-06 14:30:05.760679+01 | 1486387805.76068 | pgbench_tellers  |         16769024
 2017-02-06 14:30:05.760679+01 | 1486387805.76068 | pgbench_history  |         25600000
 2017-02-06 14:30:05.760679+01 | 1486387805.76068 | pgbench_branches |          9322496

 2017-02-06 14:30:06.837681+01 | 1486387806.83768 | pgbench_accounts |      13894320128
 2017-02-06 14:30:06.837681+01 | 1486387806.83768 | pgbench_tellers  |         16769024
 2017-02-06 14:30:06.837681+01 | 1486387806.83768 | pgbench_history  |         26902528
 2017-02-06 14:30:06.837681+01 | 1486387806.83768 | pgbench_branches |          9322496

 2017-02-06 14:30:07.920315+01 | 1486387807.92032 | pgbench_accounts |      13894320128
 2017-02-06 14:30:07.920315+01 | 1486387807.92032 | pgbench_tellers  |         16769024
 2017-02-06 14:30:07.920315+01 | 1486387807.92032 | pgbench_history  |         28164096
 2017-02-06 14:30:07.920315+01 | 1486387807.92032 | pgbench_branches |          9322496

 2017-02-06 14:30:08.99924+01 | 1486387808.99924 | pgbench_accounts |      13894320128
 2017-02-06 14:30:08.99924+01 | 1486387808.99924 | pgbench_tellers  |         16769024
 2017-02-06 14:30:08.99924+01 | 1486387808.99924 | pgbench_history  |         29384704
 2017-02-06 14:30:08.99924+01 | 1486387808.99924 | pgbench_branches |          9322496

 2017-02-06 14:30:10.076944+01 | 1486387810.07694 | pgbench_accounts |      13894320128
 2017-02-06 14:30:10.076944+01 | 1486387810.07694 | pgbench_tellers  |         16769024
 2017-02-06 14:30:10.076944+01 | 1486387810.07694 | pgbench_history  |         30580736
 2017-02-06 14:30:10.076944+01 | 1486387810.07694 | pgbench_branches |          9322496

 2017-02-06 14:30:11.16217+01 | 1486387811.16217 | pgbench_accounts |      13894320128
 2017-02-06 14:30:11.16217+01 | 1486387811.16217 | pgbench_tellers  |         16769024
 2017-02-06 14:30:11.16217+01 | 1486387811.16217 | pgbench_history  |         31850496
 2017-02-06 14:30:11.16217+01 | 1486387811.16217 | pgbench_branches |          9322496

 2017-02-06 14:30:12.241177+01 | 1486387812.24118 | pgbench_accounts |      13894320128
 2017-02-06 14:30:12.241177+01 | 1486387812.24118 | pgbench_tellers  |         16769024
 2017-02-06 14:30:12.241177+01 | 1486387812.24118 | pgbench_history  |         33079296
 2017-02-06 14:30:12.241177+01 | 1486387812.24118 | pgbench_branches |          9322496

 2017-02-06 14:30:13.317706+01 | 1486387813.31771 | pgbench_accounts |      13894320128
 2017-02-06 14:30:13.317706+01 | 1486387813.31771 | pgbench_tellers  |         16769024
 2017-02-06 14:30:13.317706+01 | 1486387813.31771 | pgbench_history  |         34447360
 2017-02-06 14:30:13.317706+01 | 1486387813.31771 | pgbench_branches |          9322496

 2017-02-06 14:30:14.390175+01 | 1486387814.39018 | pgbench_accounts |      13894320128
 2017-02-06 14:30:14.390175+01 | 1486387814.39018 | pgbench_tellers  |         16769024
 2017-02-06 14:30:14.390175+01 | 1486387814.39018 | pgbench_history  |         35545088
 2017-02-06 14:30:14.390175+01 | 1486387814.39018 | pgbench_branches |          9322496

 2017-02-06 14:30:15.466645+01 | 1486387815.46665 | pgbench_accounts |      13894320128
 2017-02-06 14:30:15.466645+01 | 1486387815.46665 | pgbench_tellers  |         16769024
 2017-02-06 14:30:15.466645+01 | 1486387815.46665 | pgbench_history  |         36839424
 2017-02-06 14:30:15.466645+01 | 1486387815.46665 | pgbench_branches |          9322496

 2017-02-06 14:30:16.548985+01 | 1486387816.54899 | pgbench_accounts |      13894320128
 2017-02-06 14:30:16.548985+01 | 1486387816.54899 | pgbench_tellers  |         16769024
 2017-02-06 14:30:16.548985+01 | 1486387816.54899 | pgbench_history  |         38084608
 2017-02-06 14:30:16.548985+01 | 1486387816.54899 | pgbench_branches |          9322496

 2017-02-06 14:30:17.625711+01 | 1486387817.62571 | pgbench_accounts |      13894320128
 2017-02-06 14:30:17.625711+01 | 1486387817.62571 | pgbench_tellers  |         16769024
 2017-02-06 14:30:17.625711+01 | 1486387817.62571 | pgbench_history  |         39485440
 2017-02-06 14:30:17.625711+01 | 1486387817.62571 | pgbench_branches |          9322496

 2017-02-06 14:30:18.709315+01 | 1486387818.70932 | pgbench_accounts |      13894320128
 2017-02-06 14:30:18.709315+01 | 1486387818.70932 | pgbench_tellers  |         16769024
 2017-02-06 14:30:18.709315+01 | 1486387818.70932 | pgbench_history  |         40738816
 2017-02-06 14:30:18.709315+01 | 1486387818.70932 | pgbench_branches |          9322496

 2017-02-06 14:30:19.786598+01 | 1486387819.7866 | pgbench_accounts |      13894320128
 2017-02-06 14:30:19.786598+01 | 1486387819.7866 | pgbench_tellers  |         16769024
 2017-02-06 14:30:19.786598+01 | 1486387819.7866 | pgbench_history  |         41820160
 2017-02-06 14:30:19.786598+01 | 1486387819.7866 | pgbench_branches |          9322496

 2017-02-06 14:30:20.863155+01 | 1486387820.86315 | pgbench_accounts |      13894320128
 2017-02-06 14:30:20.863155+01 | 1486387820.86315 | pgbench_tellers  |         16769024
 2017-02-06 14:30:20.863155+01 | 1486387820.86315 | pgbench_history  |         42893312
 2017-02-06 14:30:20.863155+01 | 1486387820.86315 | pgbench_branches |          9322496

 2017-02-06 14:30:21.94238+01 | 1486387821.94238 | pgbench_accounts |      13894320128
 2017-02-06 14:30:21.94238+01 | 1486387821.94238 | pgbench_tellers  |         16769024
 2017-02-06 14:30:21.94238+01 | 1486387821.94238 | pgbench_history  |         44179456
 2017-02-06 14:30:21.94238+01 | 1486387821.94238 | pgbench_branches |          9322496

 2017-02-06 14:30:23.016194+01 | 1486387823.01619 | pgbench_accounts |      13894320128
 2017-02-06 14:30:23.016194+01 | 1486387823.01619 | pgbench_tellers  |         16769024
 2017-02-06 14:30:23.016194+01 | 1486387823.01619 | pgbench_history  |         45785088
 2017-02-06 14:30:23.016194+01 | 1486387823.01619 | pgbench_branches |          9322496

 2017-02-06 14:30:24.096158+01 | 1486387824.09616 | pgbench_accounts |      13894320128
 2017-02-06 14:30:24.096158+01 | 1486387824.09616 | pgbench_tellers  |         16769024
 2017-02-06 14:30:24.096158+01 | 1486387824.09616 | pgbench_history  |         47153152
 2017-02-06 14:30:24.096158+01 | 1486387824.09616 | pgbench_branches |          9322496

 2017-02-06 14:30:25.169458+01 | 1486387825.16946 | pgbench_accounts |      13894320128
 2017-02-06 14:30:25.169458+01 | 1486387825.16946 | pgbench_tellers  |         16769024
 2017-02-06 14:30:25.169458+01 | 1486387825.16946 | pgbench_history  |         48013312
 2017-02-06 14:30:25.169458+01 | 1486387825.16946 | pgbench_branches |          9322496

 2017-02-06 14:30:26.243604+01 | 1486387826.2436 | pgbench_accounts |      13894320128
 2017-02-06 14:30:26.243604+01 | 1486387826.2436 | pgbench_tellers  |         16769024
 2017-02-06 14:30:26.243604+01 | 1486387826.2436 | pgbench_history  |         49373184
 2017-02-06 14:30:26.243604+01 | 1486387826.2436 | pgbench_branches |          9322496

 2017-02-06 14:30:27.317557+01 | 1486387827.31756 | pgbench_accounts |      13894320128
 2017-02-06 14:30:27.317557+01 | 1486387827.31756 | pgbench_tellers  |         16769024
 2017-02-06 14:30:27.317557+01 | 1486387827.31756 | pgbench_history  |         50315264
 2017-02-06 14:30:27.317557+01 | 1486387827.31756 | pgbench_branches |          9322496

 2017-02-06 14:30:28.39424+01 | 1486387828.39424 | pgbench_accounts |      13894320128
 2017-02-06 14:30:28.39424+01 | 1486387828.39424 | pgbench_tellers  |         16769024
 2017-02-06 14:30:28.39424+01 | 1486387828.39424 | pgbench_history  |         51535872
 2017-02-06 14:30:28.39424+01 | 1486387828.39424 | pgbench_branches |          9322496

 2017-02-06 14:30:29.477441+01 | 1486387829.47744 | pgbench_accounts |      13894320128
 2017-02-06 14:30:29.477441+01 | 1486387829.47744 | pgbench_tellers  |         16769024
 2017-02-06 14:30:29.477441+01 | 1486387829.47744 | pgbench_history  |         52813824
 2017-02-06 14:30:29.477441+01 | 1486387829.47744 | pgbench_branches |          9322496

 2017-02-06 14:30:30.55406+01 | 1486387830.55406 | pgbench_accounts |      13894320128
 2017-02-06 14:30:30.55406+01 | 1486387830.55406 | pgbench_tellers  |         16769024
 2017-02-06 14:30:30.55406+01 | 1486387830.55406 | pgbench_history  |         53764096
 2017-02-06 14:30:30.55406+01 | 1486387830.55406 | pgbench_branches |          9322496

 2017-02-06 14:30:31.63086+01 | 1486387831.63086 | pgbench_accounts |      13894320128
 2017-02-06 14:30:31.63086+01 | 1486387831.63086 | pgbench_tellers  |         16769024
 2017-02-06 14:30:31.63086+01 | 1486387831.63086 | pgbench_history  |         55197696
 2017-02-06 14:30:31.63086+01 | 1486387831.63086 | pgbench_branches |          9322496

 2017-02-06 14:30:32.714791+01 | 1486387832.71479 | pgbench_accounts |      13894320128
 2017-02-06 14:30:32.714791+01 | 1486387832.71479 | pgbench_tellers  |         16769024
 2017-02-06 14:30:32.714791+01 | 1486387832.71479 | pgbench_history  |         56557568
 2017-02-06 14:30:32.714791+01 | 1486387832.71479 | pgbench_branches |          9322496

 2017-02-06 14:30:33.801252+01 | 1486387833.80125 | pgbench_accounts |      13894320128
 2017-02-06 14:30:33.801252+01 | 1486387833.80125 | pgbench_tellers  |         16769024
 2017-02-06 14:30:33.801252+01 | 1486387833.80125 | pgbench_history  |         57294848
 2017-02-06 14:30:33.801252+01 | 1486387833.80125 | pgbench_branches |          9322496

 2017-02-06 14:30:34.882032+01 | 1486387834.88203 | pgbench_accounts |      13894320128
 2017-02-06 14:30:34.882032+01 | 1486387834.88203 | pgbench_tellers  |         16769024
 2017-02-06 14:30:34.882032+01 | 1486387834.88203 | pgbench_history  |         58540032
 2017-02-06 14:30:34.882032+01 | 1486387834.88203 | pgbench_branches |          9322496

 2017-02-06 14:30:35.965494+01 | 1486387835.96549 | pgbench_accounts |      13894320128
 2017-02-06 14:30:35.965494+01 | 1486387835.96549 | pgbench_tellers  |         16769024
 2017-02-06 14:30:35.965494+01 | 1486387835.96549 | pgbench_history  |         60121088
 2017-02-06 14:30:35.965494+01 | 1486387835.96549 | pgbench_branches |          9322496

 2017-02-06 14:30:37.044819+01 | 1486387837.04482 | pgbench_accounts |      13894320128
 2017-02-06 14:30:37.044819+01 | 1486387837.04482 | pgbench_tellers  |         16769024
 2017-02-06 14:30:37.044819+01 | 1486387837.04482 | pgbench_history  |         61308928
 2017-02-06 14:30:37.044819+01 | 1486387837.04482 | pgbench_branches |          9322496

 2017-02-06 14:30:38.123215+01 | 1486387838.12321 | pgbench_accounts |      13894320128
 2017-02-06 14:30:38.123215+01 | 1486387838.12321 | pgbench_tellers  |         16769024
 2017-02-06 14:30:38.123215+01 | 1486387838.12321 | pgbench_history  |         62013440
 2017-02-06 14:30:38.123215+01 | 1486387838.12321 | pgbench_branches |          9322496

 2017-02-06 14:30:39.203315+01 | 1486387839.20332 | pgbench_accounts |      13894320128
 2017-02-06 14:30:39.203315+01 | 1486387839.20332 | pgbench_tellers  |         16769024
 2017-02-06 14:30:39.203315+01 | 1486387839.20332 | pgbench_history  |         63078400
 2017-02-06 14:30:39.203315+01 | 1486387839.20332 | pgbench_branches |          9322496

 2017-02-06 14:30:40.276489+01 | 1486387840.27649 | pgbench_accounts |      13894320128
 2017-02-06 14:30:40.276489+01 | 1486387840.27649 | pgbench_tellers  |         16769024
 2017-02-06 14:30:40.276489+01 | 1486387840.27649 | pgbench_history  |         64274432
 2017-02-06 14:30:40.276489+01 | 1486387840.27649 | pgbench_branches |          9322496

 2017-02-06 14:30:41.348052+01 | 1486387841.34805 | pgbench_accounts |      13894320128
 2017-02-06 14:30:41.348052+01 | 1486387841.34805 | pgbench_tellers  |         16769024
 2017-02-06 14:30:41.348052+01 | 1486387841.34805 | pgbench_history  |         66019328
 2017-02-06 14:30:41.348052+01 | 1486387841.34805 | pgbench_branches |          9322496

 2017-02-06 14:30:42.415767+01 | 1486387842.41577 | pgbench_accounts |      13894320128
 2017-02-06 14:30:42.415767+01 | 1486387842.41577 | pgbench_tellers  |         16769024
 2017-02-06 14:30:42.415767+01 | 1486387842.41577 | pgbench_history  |         67518464
 2017-02-06 14:30:42.415767+01 | 1486387842.41577 | pgbench_branches |          9322496

 2017-02-06 14:30:43.488156+01 | 1486387843.48816 | pgbench_accounts |      13894320128
 2017-02-06 14:30:43.488156+01 | 1486387843.48816 | pgbench_tellers  |         16769024
 2017-02-06 14:30:43.488156+01 | 1486387843.48816 | pgbench_history  |         68034560
 2017-02-06 14:30:43.488156+01 | 1486387843.48816 | pgbench_branches |          9322496

 2017-02-06 14:30:44.55743+01 | 1486387844.55743 | pgbench_accounts |      13894320128
 2017-02-06 14:30:44.55743+01 | 1486387844.55743 | pgbench_tellers  |         16769024
 2017-02-06 14:30:44.55743+01 | 1486387844.55743 | pgbench_history  |         69451776
 2017-02-06 14:30:44.55743+01 | 1486387844.55743 | pgbench_branches |          9322496

 2017-02-06 14:30:45.634812+01 | 1486387845.63481 | pgbench_accounts |      13894320128
 2017-02-06 14:30:45.634812+01 | 1486387845.63481 | pgbench_tellers  |         16769024
 2017-02-06 14:30:45.634812+01 | 1486387845.63481 | pgbench_history  |         70483968
 2017-02-06 14:30:45.634812+01 | 1486387845.63481 | pgbench_branches |          9322496

 2017-02-06 14:30:46.714416+01 | 1486387846.71442 | pgbench_accounts |      13894320128
 2017-02-06 14:30:46.714416+01 | 1486387846.71442 | pgbench_tellers  |         16769024
 2017-02-06 14:30:46.714416+01 | 1486387846.71442 | pgbench_history  |         71204864
 2017-02-06 14:30:46.714416+01 | 1486387846.71442 | pgbench_branches |          9322496

 2017-02-06 14:30:47.792312+01 | 1486387847.79231 | pgbench_accounts |      13894320128
 2017-02-06 14:30:47.792312+01 | 1486387847.79231 | pgbench_tellers  |         16769024
 2017-02-06 14:30:47.792312+01 | 1486387847.79231 | pgbench_history  |         72171520
 2017-02-06 14:30:47.792312+01 | 1486387847.79231 | pgbench_branches |          9322496

 2017-02-06 14:30:48.870585+01 | 1486387848.87058 | pgbench_accounts |      13894320128
 2017-02-06 14:30:48.870585+01 | 1486387848.87058 | pgbench_tellers  |         16769024
 2017-02-06 14:30:48.870585+01 | 1486387848.87058 | pgbench_history  |         73252864
 2017-02-06 14:30:48.870585+01 | 1486387848.87058 | pgbench_branches |          9322496

 2017-02-06 14:30:49.947465+01 | 1486387849.94746 | pgbench_accounts |      13894320128
 2017-02-06 14:30:49.947465+01 | 1486387849.94746 | pgbench_tellers  |         16769024
 2017-02-06 14:30:49.947465+01 | 1486387849.94746 | pgbench_history  |         74170368
 2017-02-06 14:30:49.947465+01 | 1486387849.94746 | pgbench_branches |          9322496

 2017-02-06 14:30:51.014235+01 | 1486387851.01424 | pgbench_accounts |      13894320128
 2017-02-06 14:30:51.014235+01 | 1486387851.01424 | pgbench_tellers  |         16769024
 2017-02-06 14:30:51.014235+01 | 1486387851.01424 | pgbench_history  |         75366400
 2017-02-06 14:30:51.014235+01 | 1486387851.01424 | pgbench_branches |          9322496

 2017-02-06 14:30:52.095249+01 | 1486387852.09525 | pgbench_accounts |      13894320128
 2017-02-06 14:30:52.095249+01 | 1486387852.09525 | pgbench_tellers  |         16769024
 2017-02-06 14:30:52.095249+01 | 1486387852.09525 | pgbench_history  |         76759040
 2017-02-06 14:30:52.095249+01 | 1486387852.09525 | pgbench_branches |          9322496

 2017-02-06 14:30:53.164922+01 | 1486387853.16492 | pgbench_accounts |      13894320128
 2017-02-06 14:30:53.164922+01 | 1486387853.16492 | pgbench_tellers  |         16769024
 2017-02-06 14:30:53.164922+01 | 1486387853.16492 | pgbench_history  |         78323712
 2017-02-06 14:30:53.164922+01 | 1486387853.16492 | pgbench_branches |          9322496

 2017-02-06 14:30:54.248565+01 | 1486387854.24856 | pgbench_accounts |      13894320128
 2017-02-06 14:30:54.248565+01 | 1486387854.24856 | pgbench_tellers  |         16769024
 2017-02-06 14:30:54.248565+01 | 1486387854.24856 | pgbench_history  |         78864384
 2017-02-06 14:30:54.248565+01 | 1486387854.24856 | pgbench_branches |          9322496

 2017-02-06 14:30:55.326131+01 | 1486387855.32613 | pgbench_accounts |      13894320128
 2017-02-06 14:30:55.326131+01 | 1486387855.32613 | pgbench_tellers  |         16769024
 2017-02-06 14:30:55.326131+01 | 1486387855.32613 | pgbench_history  |         79577088
 2017-02-06 14:30:55.326131+01 | 1486387855.32613 | pgbench_branches |          9322496

 2017-02-06 14:30:56.401305+01 | 1486387856.4013 | pgbench_accounts |      13894320128
 2017-02-06 14:30:56.401305+01 | 1486387856.4013 | pgbench_tellers  |         16769024
 2017-02-06 14:30:56.401305+01 | 1486387856.4013 | pgbench_history  |         80830464
 2017-02-06 14:30:56.401305+01 | 1486387856.4013 | pgbench_branches |          9322496

 2017-02-06 14:30:57.483147+01 | 1486387857.48315 | pgbench_accounts |      13894320128
 2017-02-06 14:30:57.483147+01 | 1486387857.48315 | pgbench_tellers  |         16769024
 2017-02-06 14:30:57.483147+01 | 1486387857.48315 | pgbench_history  |         82403328
 2017-02-06 14:30:57.483147+01 | 1486387857.48315 | pgbench_branches |          9322496

 2017-02-06 14:30:58.561427+01 | 1486387858.56143 | pgbench_accounts |      13894320128
 2017-02-06 14:30:58.561427+01 | 1486387858.56143 | pgbench_tellers  |         16769024
 2017-02-06 14:30:58.561427+01 | 1486387858.56143 | pgbench_history  |         83107840
 2017-02-06 14:30:58.561427+01 | 1486387858.56143 | pgbench_branches |          9322496

 2017-02-06 14:30:59.640495+01 | 1486387859.6405 | pgbench_accounts |      13894320128
 2017-02-06 14:30:59.640495+01 | 1486387859.6405 | pgbench_tellers  |         16769024
 2017-02-06 14:30:59.640495+01 | 1486387859.6405 | pgbench_history  |         85360640
 2017-02-06 14:30:59.640495+01 | 1486387859.6405 | pgbench_branches |          9322496

 2017-02-06 14:31:00.723692+01 | 1486387860.72369 | pgbench_accounts |      13894320128
 2017-02-06 14:31:00.723692+01 | 1486387860.72369 | pgbench_tellers  |         16769024
 2017-02-06 14:31:00.723692+01 | 1486387860.72369 | pgbench_history  |         85360640
 2017-02-06 14:31:00.723692+01 | 1486387860.72369 | pgbench_branches |          9322496

 2017-02-06 14:31:01.811062+01 | 1486387861.81106 | pgbench_accounts |      13894320128
 2017-02-06 14:31:01.811062+01 | 1486387861.81106 | pgbench_tellers  |         16769024
 2017-02-06 14:31:01.811062+01 | 1486387861.81106 | pgbench_history  |         86605824
 2017-02-06 14:31:01.811062+01 | 1486387861.81106 | pgbench_branches |          9322496

 2017-02-06 14:31:02.899786+01 | 1486387862.89979 | pgbench_accounts |      13894320128
 2017-02-06 14:31:02.899786+01 | 1486387862.89979 | pgbench_tellers  |         16769024
 2017-02-06 14:31:02.899786+01 | 1486387862.89979 | pgbench_history  |         87851008
 2017-02-06 14:31:02.899786+01 | 1486387862.89979 | pgbench_branches |          9322496

 2017-02-06 14:31:03.968972+01 | 1486387863.96897 | pgbench_accounts |      13894320128
 2017-02-06 14:31:03.968972+01 | 1486387863.96897 | pgbench_tellers  |         16769024
 2017-02-06 14:31:03.968972+01 | 1486387863.96897 | pgbench_history  |         89350144
 2017-02-06 14:31:03.968972+01 | 1486387863.96897 | pgbench_branches |          9322496

 2017-02-06 14:31:05.044181+01 | 1486387865.04418 | pgbench_accounts |      13894320128
 2017-02-06 14:31:05.044181+01 | 1486387865.04418 | pgbench_tellers  |         16769024
 2017-02-06 14:31:05.044181+01 | 1486387865.04418 | pgbench_history  |         90218496
 2017-02-06 14:31:05.044181+01 | 1486387865.04418 | pgbench_branches |          9322496

 2017-02-06 14:31:06.123819+01 | 1486387866.12382 | pgbench_accounts |      13894320128
 2017-02-06 14:31:06.123819+01 | 1486387866.12382 | pgbench_tellers  |         16769024
 2017-02-06 14:31:06.123819+01 | 1486387866.12382 | pgbench_history  |         91226112
 2017-02-06 14:31:06.123819+01 | 1486387866.12382 | pgbench_branches |          9322496

 2017-02-06 14:31:07.209152+01 | 1486387867.20915 | pgbench_accounts |      13894320128
 2017-02-06 14:31:07.209152+01 | 1486387867.20915 | pgbench_tellers  |         16769024
 2017-02-06 14:31:07.209152+01 | 1486387867.20915 | pgbench_history  |         92315648
 2017-02-06 14:31:07.209152+01 | 1486387867.20915 | pgbench_branches |          9322496

 2017-02-06 14:31:08.294026+01 | 1486387868.29403 | pgbench_accounts |      13894320128
 2017-02-06 14:31:08.294026+01 | 1486387868.29403 | pgbench_tellers  |         16769024
 2017-02-06 14:31:08.294026+01 | 1486387868.29403 | pgbench_history  |         93585408
 2017-02-06 14:31:08.294026+01 | 1486387868.29403 | pgbench_branches |          9322496

 2017-02-06 14:31:09.37484+01 | 1486387869.37484 | pgbench_accounts |      13894320128
 2017-02-06 14:31:09.37484+01 | 1486387869.37484 | pgbench_tellers  |         16769024
 2017-02-06 14:31:09.37484+01 | 1486387869.37484 | pgbench_history  |         94707712
 2017-02-06 14:31:09.37484+01 | 1486387869.37484 | pgbench_branches |          9322496

 2017-02-06 14:31:10.461012+01 | 1486387870.46101 | pgbench_accounts |      13894320128
 2017-02-06 14:31:10.461012+01 | 1486387870.46101 | pgbench_tellers  |         16769024
 2017-02-06 14:31:10.461012+01 | 1486387870.46101 | pgbench_history  |         95625216
 2017-02-06 14:31:10.461012+01 | 1486387870.46101 | pgbench_branches |          9322496

 2017-02-06 14:31:11.541075+01 | 1486387871.54107 | pgbench_accounts |      13894320128
 2017-02-06 14:31:11.541075+01 | 1486387871.54107 | pgbench_tellers  |         16769024
 2017-02-06 14:31:11.541075+01 | 1486387871.54107 | pgbench_history  |         96870400
 2017-02-06 14:31:11.541075+01 | 1486387871.54107 | pgbench_branches |          9322496

 2017-02-06 14:31:12.618732+01 | 1486387872.61873 | pgbench_accounts |      13894320128
 2017-02-06 14:31:12.618732+01 | 1486387872.61873 | pgbench_tellers  |         16769024
 2017-02-06 14:31:12.618732+01 | 1486387872.61873 | pgbench_history  |         97910784
 2017-02-06 14:31:12.618732+01 | 1486387872.61873 | pgbench_branches |          9322496

 2017-02-06 14:31:13.695736+01 | 1486387873.69574 | pgbench_accounts |      13894320128
 2017-02-06 14:31:13.695736+01 | 1486387873.69574 | pgbench_tellers  |         16769024
 2017-02-06 14:31:13.695736+01 | 1486387873.69574 | pgbench_history  |         98435072
 2017-02-06 14:31:13.695736+01 | 1486387873.69574 | pgbench_branches |          9322496

 2017-02-06 14:31:14.777938+01 | 1486387874.77794 | pgbench_accounts |      13894320128
 2017-02-06 14:31:14.777938+01 | 1486387874.77794 | pgbench_tellers  |         16769024
 2017-02-06 14:31:14.777938+01 | 1486387874.77794 | pgbench_history  |         99966976
 2017-02-06 14:31:14.777938+01 | 1486387874.77794 | pgbench_branches |          9322496

 2017-02-06 14:31:15.855432+01 | 1486387875.85543 | pgbench_accounts |      13894320128
 2017-02-06 14:31:15.855432+01 | 1486387875.85543 | pgbench_tellers  |         16769024
 2017-02-06 14:31:15.855432+01 | 1486387875.85543 | pgbench_history  |        100556800
 2017-02-06 14:31:15.855432+01 | 1486387875.85543 | pgbench_branches |          9322496

 2017-02-06 14:31:16.937223+01 | 1486387876.93722 | pgbench_accounts |      13894320128
 2017-02-06 14:31:16.937223+01 | 1486387876.93722 | pgbench_tellers  |         16769024
 2017-02-06 14:31:16.937223+01 | 1486387876.93722 | pgbench_history  |        101777408
 2017-02-06 14:31:16.937223+01 | 1486387876.93722 | pgbench_branches |          9322496

 2017-02-06 14:31:18.021085+01 | 1486387878.02109 | pgbench_accounts |      13894320128
 2017-02-06 14:31:18.021085+01 | 1486387878.02109 | pgbench_tellers  |         16769024
 2017-02-06 14:31:18.021085+01 | 1486387878.02109 | pgbench_history  |        103170048
 2017-02-06 14:31:18.021085+01 | 1486387878.02109 | pgbench_branches |          9322496

 2017-02-06 14:31:19.103464+01 | 1486387879.10346 | pgbench_accounts |      13894320128
 2017-02-06 14:31:19.103464+01 | 1486387879.10346 | pgbench_tellers  |         16769024
 2017-02-06 14:31:19.103464+01 | 1486387879.10346 | pgbench_history  |        104202240
 2017-02-06 14:31:19.103464+01 | 1486387879.10346 | pgbench_branches |          9322496

 2017-02-06 14:31:20.184998+01 | 1486387880.185 | pgbench_accounts |      13894320128
 2017-02-06 14:31:20.184998+01 | 1486387880.185 | pgbench_tellers  |         16769024
 2017-02-06 14:31:20.184998+01 | 1486387880.185 | pgbench_history  |        105750528
 2017-02-06 14:31:20.184998+01 | 1486387880.185 | pgbench_branches |          9322496

 2017-02-06 14:31:21.26038+01 | 1486387881.26038 | pgbench_accounts |      13894320128
 2017-02-06 14:31:21.26038+01 | 1486387881.26038 | pgbench_tellers  |         16769024
 2017-02-06 14:31:21.26038+01 | 1486387881.26038 | pgbench_history  |        106299392
 2017-02-06 14:31:21.26038+01 | 1486387881.26038 | pgbench_branches |          9322496

 2017-02-06 14:31:22.343742+01 | 1486387882.34374 | pgbench_accounts |      13894320128
 2017-02-06 14:31:22.343742+01 | 1486387882.34374 | pgbench_tellers  |         16769024
 2017-02-06 14:31:22.343742+01 | 1486387882.34374 | pgbench_history  |        107986944
 2017-02-06 14:31:22.343742+01 | 1486387882.34374 | pgbench_branches |          9322496

 2017-02-06 14:31:23.423065+01 | 1486387883.42306 | pgbench_accounts |      13894320128
 2017-02-06 14:31:23.423065+01 | 1486387883.42306 | pgbench_tellers  |         16769024
 2017-02-06 14:31:23.423065+01 | 1486387883.42306 | pgbench_history  |        108544000
 2017-02-06 14:31:23.423065+01 | 1486387883.42306 | pgbench_branches |          9322496

 2017-02-06 14:31:24.510468+01 | 1486387884.51047 | pgbench_accounts |      13894320128
 2017-02-06 14:31:24.510468+01 | 1486387884.51047 | pgbench_tellers  |         16769024
 2017-02-06 14:31:24.510468+01 | 1486387884.51047 | pgbench_history  |        109617152
 2017-02-06 14:31:24.510468+01 | 1486387884.51047 | pgbench_branches |          9322496

 2017-02-06 14:31:25.595427+01 | 1486387885.59543 | pgbench_accounts |      13894320128
 2017-02-06 14:31:25.595427+01 | 1486387885.59543 | pgbench_tellers  |         16769024
 2017-02-06 14:31:25.595427+01 | 1486387885.59543 | pgbench_history  |        110895104
 2017-02-06 14:31:25.595427+01 | 1486387885.59543 | pgbench_branches |          9322496

 2017-02-06 14:31:26.677939+01 | 1486387886.67794 | pgbench_accounts |      13894320128
 2017-02-06 14:31:26.677939+01 | 1486387886.67794 | pgbench_tellers  |         16769024
 2017-02-06 14:31:26.677939+01 | 1486387886.67794 | pgbench_history  |        112254976
 2017-02-06 14:31:26.677939+01 | 1486387886.67794 | pgbench_branches |          9322496

 2017-02-06 14:31:27.755194+01 | 1486387887.75519 | pgbench_accounts |      13894320128
 2017-02-06 14:31:27.755194+01 | 1486387887.75519 | pgbench_tellers  |         16769024
 2017-02-06 14:31:27.755194+01 | 1486387887.75519 | pgbench_history  |        113328128
 2017-02-06 14:31:27.755194+01 | 1486387887.75519 | pgbench_branches |          9322496

 2017-02-06 14:31:28.828377+01 | 1486387888.82838 | pgbench_accounts |      13894320128
 2017-02-06 14:31:28.828377+01 | 1486387888.82838 | pgbench_tellers  |         16769024
 2017-02-06 14:31:28.828377+01 | 1486387888.82838 | pgbench_history  |        114614272
 2017-02-06 14:31:28.828377+01 | 1486387888.82838 | pgbench_branches |          9322496

 2017-02-06 14:31:29.91187+01 | 1486387889.91187 | pgbench_accounts |      13894320128
 2017-02-06 14:31:29.91187+01 | 1486387889.91187 | pgbench_tellers  |         16769024
 2017-02-06 14:31:29.91187+01 | 1486387889.91187 | pgbench_history  |        115695616
 2017-02-06 14:31:29.91187+01 | 1486387889.91187 | pgbench_branches |          9322496

 2017-02-06 14:31:30.993819+01 | 1486387890.99382 | pgbench_accounts |      13894320128
 2017-02-06 14:31:30.993819+01 | 1486387890.99382 | pgbench_tellers  |         16769024
 2017-02-06 14:31:30.993819+01 | 1486387890.99382 | pgbench_history  |        117407744
 2017-02-06 14:31:30.993819+01 | 1486387890.99382 | pgbench_branches |          9322496

 2017-02-06 14:31:32.074554+01 | 1486387892.07455 | pgbench_accounts |      13894320128
 2017-02-06 14:31:32.074554+01 | 1486387892.07455 | pgbench_tellers  |         16769024
 2017-02-06 14:31:32.074554+01 | 1486387892.07455 | pgbench_history  |        118169600
 2017-02-06 14:31:32.074554+01 | 1486387892.07455 | pgbench_branches |          9322496

 2017-02-06 14:31:33.151648+01 | 1486387893.15165 | pgbench_accounts |      13894320128
 2017-02-06 14:31:33.151648+01 | 1486387893.15165 | pgbench_tellers  |         16769024
 2017-02-06 14:31:33.151648+01 | 1486387893.15165 | pgbench_history  |        119529472
 2017-02-06 14:31:33.151648+01 | 1486387893.15165 | pgbench_branches |          9322496

 2017-02-06 14:31:34.23906+01 | 1486387894.23906 | pgbench_accounts |      13894320128
 2017-02-06 14:31:34.23906+01 | 1486387894.23906 | pgbench_tellers  |         16769024
 2017-02-06 14:31:34.23906+01 | 1486387894.23906 | pgbench_history  |        120406016
 2017-02-06 14:31:34.23906+01 | 1486387894.23906 | pgbench_branches |          9322496

 2017-02-06 14:31:35.311213+01 | 1486387895.31121 | pgbench_accounts |      13894320128
 2017-02-06 14:31:35.311213+01 | 1486387895.31121 | pgbench_tellers  |         16769024
 2017-02-06 14:31:35.311213+01 | 1486387895.31121 | pgbench_history  |        121602048
 2017-02-06 14:31:35.311213+01 | 1486387895.31121 | pgbench_branches |          9322496

 2017-02-06 14:31:36.385472+01 | 1486387896.38547 | pgbench_accounts |      13894320128
 2017-02-06 14:31:36.385472+01 | 1486387896.38547 | pgbench_tellers  |         16769024
 2017-02-06 14:31:36.385472+01 | 1486387896.38547 | pgbench_history  |        122855424
 2017-02-06 14:31:36.385472+01 | 1486387896.38547 | pgbench_branches |          9322496

 2017-02-06 14:31:37.45655+01 | 1486387897.45655 | pgbench_accounts |      13894320128
 2017-02-06 14:31:37.45655+01 | 1486387897.45655 | pgbench_tellers  |         16769024
 2017-02-06 14:31:37.45655+01 | 1486387897.45655 | pgbench_history  |        124297216
 2017-02-06 14:31:37.45655+01 | 1486387897.45655 | pgbench_branches |          9322496

 2017-02-06 14:31:38.539112+01 | 1486387898.53911 | pgbench_accounts |      13894320128
 2017-02-06 14:31:38.539112+01 | 1486387898.53911 | pgbench_tellers  |         16769024
 2017-02-06 14:31:38.539112+01 | 1486387898.53911 | pgbench_history  |        125206528
 2017-02-06 14:31:38.539112+01 | 1486387898.53911 | pgbench_branches |          9322496

 2017-02-06 14:31:39.62028+01 | 1486387899.62028 | pgbench_accounts |      13894320128
 2017-02-06 14:31:39.62028+01 | 1486387899.62028 | pgbench_tellers  |         16769024
 2017-02-06 14:31:39.62028+01 | 1486387899.62028 | pgbench_history  |        126820352
 2017-02-06 14:31:39.62028+01 | 1486387899.62028 | pgbench_branches |          9322496

 2017-02-06 14:31:40.695772+01 | 1486387900.69577 | pgbench_accounts |      13894320128
 2017-02-06 14:31:40.695772+01 | 1486387900.69577 | pgbench_tellers  |         16769024
 2017-02-06 14:31:40.695772+01 | 1486387900.69577 | pgbench_history  |        127574016
 2017-02-06 14:31:40.695772+01 | 1486387900.69577 | pgbench_branches |          9322496

 2017-02-06 14:31:41.767962+01 | 1486387901.76796 | pgbench_accounts |      13894320128
 2017-02-06 14:31:41.767962+01 | 1486387901.76796 | pgbench_tellers  |         16769024
 2017-02-06 14:31:41.767962+01 | 1486387901.76796 | pgbench_history  |        128090112
 2017-02-06 14:31:41.767962+01 | 1486387901.76796 | pgbench_branches |          9322496

 2017-02-06 14:31:42.840586+01 | 1486387902.84059 | pgbench_accounts |      13894320128
 2017-02-06 14:31:42.840586+01 | 1486387902.84059 | pgbench_tellers  |         16769024
 2017-02-06 14:31:42.840586+01 | 1486387902.84059 | pgbench_history  |        129359872
 2017-02-06 14:31:42.840586+01 | 1486387902.84059 | pgbench_branches |          9322496

 2017-02-06 14:31:43.922648+01 | 1486387903.92265 | pgbench_accounts |      13894320128
 2017-02-06 14:31:43.922648+01 | 1486387903.92265 | pgbench_tellers  |         16769024
 2017-02-06 14:31:43.922648+01 | 1486387903.92265 | pgbench_history  |        130228224
 2017-02-06 14:31:43.922648+01 | 1486387903.92265 | pgbench_branches |          9322496

 2017-02-06 14:31:44.997386+01 | 1486387904.99739 | pgbench_accounts |      13894320128
 2017-02-06 14:31:44.997386+01 | 1486387904.99739 | pgbench_tellers  |         16769024
 2017-02-06 14:31:44.997386+01 | 1486387904.99739 | pgbench_history  |        131325952
 2017-02-06 14:31:44.997386+01 | 1486387904.99739 | pgbench_branches |          9322496

 2017-02-06 14:31:46.075503+01 | 1486387906.0755 | pgbench_accounts |      13894320128
 2017-02-06 14:31:46.075503+01 | 1486387906.0755 | pgbench_tellers  |         16769024
 2017-02-06 14:31:46.075503+01 | 1486387906.0755 | pgbench_history  |        132210688
 2017-02-06 14:31:46.075503+01 | 1486387906.0755 | pgbench_branches |          9322496

 2017-02-06 14:31:47.159529+01 | 1486387907.15953 | pgbench_accounts |      13894320128
 2017-02-06 14:31:47.159529+01 | 1486387907.15953 | pgbench_tellers  |         16769024
 2017-02-06 14:31:47.159529+01 | 1486387907.15953 | pgbench_history  |        133111808
 2017-02-06 14:31:47.159529+01 | 1486387907.15953 | pgbench_branches |          9322496

 2017-02-06 14:31:48.238568+01 | 1486387908.23857 | pgbench_accounts |      13894320128
 2017-02-06 14:31:48.238568+01 | 1486387908.23857 | pgbench_tellers  |         16769024
 2017-02-06 14:31:48.238568+01 | 1486387908.23857 | pgbench_history  |        134709248
 2017-02-06 14:31:48.238568+01 | 1486387908.23857 | pgbench_branches |          9322496

 2017-02-06 14:31:49.317357+01 | 1486387909.31736 | pgbench_accounts |      13894320128
 2017-02-06 14:31:49.317357+01 | 1486387909.31736 | pgbench_tellers  |         16769024
 2017-02-06 14:31:49.317357+01 | 1486387909.31736 | pgbench_history  |        135602176
 2017-02-06 14:31:49.317357+01 | 1486387909.31736 | pgbench_branches |          9322496

 2017-02-06 14:31:50.398868+01 | 1486387910.39887 | pgbench_accounts |      13894320128
 2017-02-06 14:31:50.398868+01 | 1486387910.39887 | pgbench_tellers  |         16769024
 2017-02-06 14:31:50.398868+01 | 1486387910.39887 | pgbench_history  |        136462336
 2017-02-06 14:31:50.398868+01 | 1486387910.39887 | pgbench_branches |          9322496

 2017-02-06 14:31:51.484197+01 | 1486387911.4842 | pgbench_accounts |      13894320128
 2017-02-06 14:31:51.484197+01 | 1486387911.4842 | pgbench_tellers  |         16769024
 2017-02-06 14:31:51.484197+01 | 1486387911.4842 | pgbench_history  |        138174464
 2017-02-06 14:31:51.484197+01 | 1486387911.4842 | pgbench_branches |          9322496

 2017-02-06 14:31:52.558405+01 | 1486387912.5584 | pgbench_accounts |      13894320128
 2017-02-06 14:31:52.558405+01 | 1486387912.5584 | pgbench_tellers  |         16769024
 2017-02-06 14:31:52.558405+01 | 1486387912.5584 | pgbench_history  |        139042816
 2017-02-06 14:31:52.558405+01 | 1486387912.5584 | pgbench_branches |          9322496

 2017-02-06 14:31:53.640255+01 | 1486387913.64025 | pgbench_accounts |      13894320128
 2017-02-06 14:31:53.640255+01 | 1486387913.64025 | pgbench_tellers  |         16769024
 2017-02-06 14:31:53.640255+01 | 1486387913.64025 | pgbench_history  |        139919360
 2017-02-06 14:31:53.640255+01 | 1486387913.64025 | pgbench_branches |          9322496

 2017-02-06 14:31:54.716024+01 | 1486387914.71602 | pgbench_accounts |      13894320128
 2017-02-06 14:31:54.716024+01 | 1486387914.71602 | pgbench_tellers  |         16769024
 2017-02-06 14:31:54.716024+01 | 1486387914.71602 | pgbench_history  |        141303808
 2017-02-06 14:31:54.716024+01 | 1486387914.71602 | pgbench_branches |          9322496

 2017-02-06 14:31:55.791802+01 | 1486387915.7918 | pgbench_accounts |      13894320128
 2017-02-06 14:31:55.791802+01 | 1486387915.7918 | pgbench_tellers  |         16769024
 2017-02-06 14:31:55.791802+01 | 1486387915.7918 | pgbench_history  |        142188544
 2017-02-06 14:31:55.791802+01 | 1486387915.7918 | pgbench_branches |          9322496

 2017-02-06 14:31:56.8709+01 | 1486387916.8709 | pgbench_accounts |      13894320128
 2017-02-06 14:31:56.8709+01 | 1486387916.8709 | pgbench_tellers  |         16769024
 2017-02-06 14:31:56.8709+01 | 1486387916.8709 | pgbench_history  |        143556608
 2017-02-06 14:31:56.8709+01 | 1486387916.8709 | pgbench_branches |          9322496

 2017-02-06 14:31:57.946857+01 | 1486387917.94686 | pgbench_accounts |      13894320128
 2017-02-06 14:31:57.946857+01 | 1486387917.94686 | pgbench_tellers  |         16769024
 2017-02-06 14:31:57.946857+01 | 1486387917.94686 | pgbench_history  |        145711104
 2017-02-06 14:31:57.946857+01 | 1486387917.94686 | pgbench_branches |          9322496

 2017-02-06 14:31:59.026808+01 | 1486387919.02681 | pgbench_accounts |      13894320128
 2017-02-06 14:31:59.026808+01 | 1486387919.02681 | pgbench_tellers  |         16769024
 2017-02-06 14:31:59.026808+01 | 1486387919.02681 | pgbench_history  |        145711104
 2017-02-06 14:31:59.026808+01 | 1486387919.02681 | pgbench_branches |          9322496

 2017-02-06 14:32:00.107984+01 | 1486387920.10798 | pgbench_accounts |      13894320128
 2017-02-06 14:32:00.107984+01 | 1486387920.10798 | pgbench_tellers  |         16769024
 2017-02-06 14:32:00.107984+01 | 1486387920.10798 | pgbench_history  |        146989056
 2017-02-06 14:32:00.107984+01 | 1486387920.10798 | pgbench_branches |          9322496

 2017-02-06 14:32:01.187079+01 | 1486387921.18708 | pgbench_accounts |      13894320128
 2017-02-06 14:32:01.187079+01 | 1486387921.18708 | pgbench_tellers  |         16769024
 2017-02-06 14:32:01.187079+01 | 1486387921.18708 | pgbench_history  |        149200896
 2017-02-06 14:32:01.187079+01 | 1486387921.18708 | pgbench_branches |          9322496

 2017-02-06 14:32:02.26227+01 | 1486387922.26227 | pgbench_accounts |      13894320128
 2017-02-06 14:32:02.26227+01 | 1486387922.26227 | pgbench_tellers  |         16769024
 2017-02-06 14:32:02.26227+01 | 1486387922.26227 | pgbench_history  |        149389312
 2017-02-06 14:32:02.26227+01 | 1486387922.26227 | pgbench_branches |          9322496

 2017-02-06 14:32:03.345647+01 | 1486387923.34565 | pgbench_accounts |      13894320128
 2017-02-06 14:32:03.345647+01 | 1486387923.34565 | pgbench_tellers  |         16769024
 2017-02-06 14:32:03.345647+01 | 1486387923.34565 | pgbench_history  |        150790144
 2017-02-06 14:32:03.345647+01 | 1486387923.34565 | pgbench_branches |          9322496

 2017-02-06 14:32:04.420731+01 | 1486387924.42073 | pgbench_accounts |      13894320128
 2017-02-06 14:32:04.420731+01 | 1486387924.42073 | pgbench_tellers  |         16769024
 2017-02-06 14:32:04.420731+01 | 1486387924.42073 | pgbench_history  |        152313856
 2017-02-06 14:32:04.420731+01 | 1486387924.42073 | pgbench_branches |          9322496

 2017-02-06 14:32:05.496314+01 | 1486387925.49631 | pgbench_accounts |      13894320128
 2017-02-06 14:32:05.496314+01 | 1486387925.49631 | pgbench_tellers  |         16769024
 2017-02-06 14:32:05.496314+01 | 1486387925.49631 | pgbench_history  |        152862720
 2017-02-06 14:32:05.496314+01 | 1486387925.49631 | pgbench_branches |          9322496

 2017-02-06 14:32:06.569764+01 | 1486387926.56976 | pgbench_accounts |      13894320128
 2017-02-06 14:32:06.569764+01 | 1486387926.56976 | pgbench_tellers  |         16769024
 2017-02-06 14:32:06.569764+01 | 1486387926.56976 | pgbench_history  |        153894912
 2017-02-06 14:32:06.569764+01 | 1486387926.56976 | pgbench_branches |          9322496

 2017-02-06 14:32:07.657022+01 | 1486387927.65702 | pgbench_accounts |      13894320128
 2017-02-06 14:32:07.657022+01 | 1486387927.65702 | pgbench_tellers  |         16769024
 2017-02-06 14:32:07.657022+01 | 1486387927.65702 | pgbench_history  |        154902528
 2017-02-06 14:32:07.657022+01 | 1486387927.65702 | pgbench_branches |          9322496

 2017-02-06 14:32:08.734881+01 | 1486387928.73488 | pgbench_accounts |      13894320128
 2017-02-06 14:32:08.734881+01 | 1486387928.73488 | pgbench_tellers  |         16769024
 2017-02-06 14:32:08.734881+01 | 1486387928.73488 | pgbench_history  |        155475968
 2017-02-06 14:32:08.734881+01 | 1486387928.73488 | pgbench_branches |          9322496

 2017-02-06 14:32:09.825879+01 | 1486387929.82588 | pgbench_accounts |      13894320128
 2017-02-06 14:32:09.825879+01 | 1486387929.82588 | pgbench_tellers  |         16769024
 2017-02-06 14:32:09.825879+01 | 1486387929.82588 | pgbench_history  |        156557312
 2017-02-06 14:32:09.825879+01 | 1486387929.82588 | pgbench_branches |          9322496

 2017-02-06 14:32:10.90518+01 | 1486387930.90518 | pgbench_accounts |      13894320128
 2017-02-06 14:32:10.90518+01 | 1486387930.90518 | pgbench_tellers  |         16769024
 2017-02-06 14:32:10.90518+01 | 1486387930.90518 | pgbench_history  |        158056448
 2017-02-06 14:32:10.90518+01 | 1486387930.90518 | pgbench_branches |          9322496

 2017-02-06 14:32:11.993778+01 | 1486387931.99378 | pgbench_accounts |      13894320128
 2017-02-06 14:32:11.993778+01 | 1486387931.99378 | pgbench_tellers  |         16769024
 2017-02-06 14:32:11.993778+01 | 1486387931.99378 | pgbench_history  |        159326208
 2017-02-06 14:32:11.993778+01 | 1486387931.99378 | pgbench_branches |          9322496

 2017-02-06 14:32:13.072553+01 | 1486387933.07255 | pgbench_accounts |      13894320128
 2017-02-06 14:32:13.072553+01 | 1486387933.07255 | pgbench_tellers  |         16769024
 2017-02-06 14:32:13.072553+01 | 1486387933.07255 | pgbench_history  |        160169984
 2017-02-06 14:32:13.072553+01 | 1486387933.07255 | pgbench_branches |          9322496

 2017-02-06 14:32:14.165106+01 | 1486387934.16511 | pgbench_accounts |      13894320128
 2017-02-06 14:32:14.165106+01 | 1486387934.16511 | pgbench_tellers  |         16769024
 2017-02-06 14:32:14.165106+01 | 1486387934.16511 | pgbench_history  |        161210368
 2017-02-06 14:32:14.165106+01 | 1486387934.16511 | pgbench_branches |          9322496

 2017-02-06 14:32:15.240791+01 | 1486387935.24079 | pgbench_accounts |      13894320128
 2017-02-06 14:32:15.240791+01 | 1486387935.24079 | pgbench_tellers  |         16769024
 2017-02-06 14:32:15.240791+01 | 1486387935.24079 | pgbench_history  |        162635776
 2017-02-06 14:32:15.240791+01 | 1486387935.24079 | pgbench_branches |          9322496

 2017-02-06 14:32:16.329143+01 | 1486387936.32914 | pgbench_accounts |      13894320128
 2017-02-06 14:32:16.329143+01 | 1486387936.32914 | pgbench_tellers  |         16769024
 2017-02-06 14:32:16.329143+01 | 1486387936.32914 | pgbench_history  |        164184064
 2017-02-06 14:32:16.329143+01 | 1486387936.32914 | pgbench_branches |          9322496

 2017-02-06 14:32:17.406017+01 | 1486387937.40602 | pgbench_accounts |      13894320128
 2017-02-06 14:32:17.406017+01 | 1486387937.40602 | pgbench_tellers  |         16769024
 2017-02-06 14:32:17.406017+01 | 1486387937.40602 | pgbench_history  |        165240832
 2017-02-06 14:32:17.406017+01 | 1486387937.40602 | pgbench_branches |          9322496

 2017-02-06 14:32:18.481401+01 | 1486387938.4814 | pgbench_accounts |      13894320128
 2017-02-06 14:32:18.481401+01 | 1486387938.4814 | pgbench_tellers  |         16769024
 2017-02-06 14:32:18.481401+01 | 1486387938.4814 | pgbench_history  |        166117376
 2017-02-06 14:32:18.481401+01 | 1486387938.4814 | pgbench_branches |          9322496

 2017-02-06 14:32:19.560362+01 | 1486387939.56036 | pgbench_accounts |      13894320128
 2017-02-06 14:32:19.560362+01 | 1486387939.56036 | pgbench_tellers  |         16769024
 2017-02-06 14:32:19.560362+01 | 1486387939.56036 | pgbench_history  |        167337984
 2017-02-06 14:32:19.560362+01 | 1486387939.56036 | pgbench_branches |          9322496

 2017-02-06 14:32:20.634524+01 | 1486387940.63452 | pgbench_accounts |      13894320128
 2017-02-06 14:32:20.634524+01 | 1486387940.63452 | pgbench_tellers  |         16769024
 2017-02-06 14:32:20.634524+01 | 1486387940.63452 | pgbench_history  |        169000960
 2017-02-06 14:32:20.634524+01 | 1486387940.63452 | pgbench_branches |          9322496

 2017-02-06 14:32:21.715716+01 | 1486387941.71572 | pgbench_accounts |      13894320128
 2017-02-06 14:32:21.715716+01 | 1486387941.71572 | pgbench_tellers  |         16769024
 2017-02-06 14:32:21.715716+01 | 1486387941.71572 | pgbench_history  |        169705472
 2017-02-06 14:32:21.715716+01 | 1486387941.71572 | pgbench_branches |          9322496

 2017-02-06 14:32:22.797101+01 | 1486387942.7971 | pgbench_accounts |      13894320128
 2017-02-06 14:32:22.797101+01 | 1486387942.7971 | pgbench_tellers  |         16769024
 2017-02-06 14:32:22.797101+01 | 1486387942.7971 | pgbench_history  |        171204608
 2017-02-06 14:32:22.797101+01 | 1486387942.7971 | pgbench_branches |          9322496

 2017-02-06 14:32:23.882438+01 | 1486387943.88244 | pgbench_accounts |      13894320128
 2017-02-06 14:32:23.882438+01 | 1486387943.88244 | pgbench_tellers  |         16769024
 2017-02-06 14:32:23.882438+01 | 1486387943.88244 | pgbench_history  |        172236800
 2017-02-06 14:32:23.882438+01 | 1486387943.88244 | pgbench_branches |          9322496

 2017-02-06 14:32:24.965402+01 | 1486387944.9654 | pgbench_accounts |      13894320128
 2017-02-06 14:32:24.965402+01 | 1486387944.9654 | pgbench_tellers  |         16769024
 2017-02-06 14:32:24.965402+01 | 1486387944.9654 | pgbench_history  |        173621248
 2017-02-06 14:32:24.965402+01 | 1486387944.9654 | pgbench_branches |          9322496

 2017-02-06 14:32:26.046997+01 | 1486387946.047 | pgbench_accounts |      13894320128
 2017-02-06 14:32:26.046997+01 | 1486387946.047 | pgbench_tellers  |         16769024
 2017-02-06 14:32:26.046997+01 | 1486387946.047 | pgbench_history  |        174489600
 2017-02-06 14:32:26.046997+01 | 1486387946.047 | pgbench_branches |          9322496

 2017-02-06 14:32:27.130366+01 | 1486387947.13037 | pgbench_accounts |      13894320128
 2017-02-06 14:32:27.130366+01 | 1486387947.13037 | pgbench_tellers  |         16769024
 2017-02-06 14:32:27.130366+01 | 1486387947.13037 | pgbench_history  |        175906816
 2017-02-06 14:32:27.130366+01 | 1486387947.13037 | pgbench_branches |          9322496

 2017-02-06 14:32:28.204306+01 | 1486387948.20431 | pgbench_accounts |      13894320128
 2017-02-06 14:32:28.204306+01 | 1486387948.20431 | pgbench_tellers  |         16769024
 2017-02-06 14:32:28.204306+01 | 1486387948.20431 | pgbench_history  |        177274880
 2017-02-06 14:32:28.204306+01 | 1486387948.20431 | pgbench_branches |          9322496

 2017-02-06 14:32:29.297239+01 | 1486387949.29724 | pgbench_accounts |      13894320128
 2017-02-06 14:32:29.297239+01 | 1486387949.29724 | pgbench_tellers  |         16769024
 2017-02-06 14:32:29.297239+01 | 1486387949.29724 | pgbench_history  |        177979392
 2017-02-06 14:32:29.297239+01 | 1486387949.29724 | pgbench_branches |          9322496

 2017-02-06 14:32:30.383492+01 | 1486387950.38349 | pgbench_accounts |      13894320128
 2017-02-06 14:32:30.383492+01 | 1486387950.38349 | pgbench_tellers  |         16769024
 2017-02-06 14:32:30.383492+01 | 1486387950.38349 | pgbench_history  |        179232768
 2017-02-06 14:32:30.383492+01 | 1486387950.38349 | pgbench_branches |          9322496

 2017-02-06 14:32:31.459797+01 | 1486387951.4598 | pgbench_accounts |      13894320128
 2017-02-06 14:32:31.459797+01 | 1486387951.4598 | pgbench_tellers  |         16769024
 2017-02-06 14:32:31.459797+01 | 1486387951.4598 | pgbench_history  |        180436992
 2017-02-06 14:32:31.459797+01 | 1486387951.4598 | pgbench_branches |          9322496

 2017-02-06 14:32:32.530772+01 | 1486387952.53077 | pgbench_accounts |      13894320128
 2017-02-06 14:32:32.530772+01 | 1486387952.53077 | pgbench_tellers  |         16769024
 2017-02-06 14:32:32.530772+01 | 1486387952.53077 | pgbench_history  |        181682176
 2017-02-06 14:32:32.530772+01 | 1486387952.53077 | pgbench_branches |          9322496

 2017-02-06 14:32:33.60543+01 | 1486387953.60543 | pgbench_accounts |      13894320128
 2017-02-06 14:32:33.60543+01 | 1486387953.60543 | pgbench_tellers  |         16769024
 2017-02-06 14:32:33.60543+01 | 1486387953.60543 | pgbench_history  |        183083008
 2017-02-06 14:32:33.60543+01 | 1486387953.60543 | pgbench_branches |          9322496

 2017-02-06 14:32:34.68635+01 | 1486387954.68635 | pgbench_accounts |      13894320128
 2017-02-06 14:32:34.68635+01 | 1486387954.68635 | pgbench_tellers  |         16769024
 2017-02-06 14:32:34.68635+01 | 1486387954.68635 | pgbench_history  |        184532992
 2017-02-06 14:32:34.68635+01 | 1486387954.68635 | pgbench_branches |          9322496

 2017-02-06 14:32:35.774547+01 | 1486387955.77455 | pgbench_accounts |      13894320128
 2017-02-06 14:32:35.774547+01 | 1486387955.77455 | pgbench_tellers  |         16769024
 2017-02-06 14:32:35.774547+01 | 1486387955.77455 | pgbench_history  |        185434112
 2017-02-06 14:32:35.774547+01 | 1486387955.77455 | pgbench_branches |          9322496

 2017-02-06 14:32:36.847988+01 | 1486387956.84799 | pgbench_accounts |      13894320128
 2017-02-06 14:32:36.847988+01 | 1486387956.84799 | pgbench_tellers  |         16769024
 2017-02-06 14:32:36.847988+01 | 1486387956.84799 | pgbench_history  |        186466304
 2017-02-06 14:32:36.847988+01 | 1486387956.84799 | pgbench_branches |          9322496

 2017-02-06 14:32:37.922933+01 | 1486387957.92293 | pgbench_accounts |      13894320128
 2017-02-06 14:32:37.922933+01 | 1486387957.92293 | pgbench_tellers  |         16769024
 2017-02-06 14:32:37.922933+01 | 1486387957.92293 | pgbench_history  |        188047360
 2017-02-06 14:32:37.922933+01 | 1486387957.92293 | pgbench_branches |          9322496

 2017-02-06 14:32:38.997115+01 | 1486387958.99711 | pgbench_accounts |      13894320128
 2017-02-06 14:32:38.997115+01 | 1486387958.99711 | pgbench_tellers  |         16769024
 2017-02-06 14:32:38.997115+01 | 1486387958.99711 | pgbench_history  |        188932096
 2017-02-06 14:32:38.997115+01 | 1486387958.99711 | pgbench_branches |          9322496

 2017-02-06 14:32:40.079154+01 | 1486387960.07915 | pgbench_accounts |      13894320128
 2017-02-06 14:32:40.079154+01 | 1486387960.07915 | pgbench_tellers  |         16769024
 2017-02-06 14:32:40.079154+01 | 1486387960.07915 | pgbench_history  |        191332352
 2017-02-06 14:32:40.079154+01 | 1486387960.07915 | pgbench_branches |          9322496

 2017-02-06 14:32:41.164311+01 | 1486387961.16431 | pgbench_accounts |      13894320128
 2017-02-06 14:32:41.164311+01 | 1486387961.16431 | pgbench_tellers  |         16769024
 2017-02-06 14:32:41.164311+01 | 1486387961.16431 | pgbench_history  |        191332352
 2017-02-06 14:32:41.164311+01 | 1486387961.16431 | pgbench_branches |          9322496

 2017-02-06 14:32:42.247601+01 | 1486387962.2476 | pgbench_accounts |      13894320128
 2017-02-06 14:32:42.247601+01 | 1486387962.2476 | pgbench_tellers  |         16769024
 2017-02-06 14:32:42.247601+01 | 1486387962.2476 | pgbench_history  |        192905216
 2017-02-06 14:32:42.247601+01 | 1486387962.2476 | pgbench_branches |          9322496

 2017-02-06 14:32:43.326985+01 | 1486387963.32698 | pgbench_accounts |      13894320128
 2017-02-06 14:32:43.326985+01 | 1486387963.32698 | pgbench_tellers  |         16769024
 2017-02-06 14:32:43.326985+01 | 1486387963.32698 | pgbench_history  |        193748992
 2017-02-06 14:32:43.326985+01 | 1486387963.32698 | pgbench_branches |          9322496

 2017-02-06 14:32:44.421486+01 | 1486387964.42149 | pgbench_accounts |      13894320128
 2017-02-06 14:32:44.421486+01 | 1486387964.42149 | pgbench_tellers  |         16769024
 2017-02-06 14:32:44.421486+01 | 1486387964.42149 | pgbench_history  |        195158016
 2017-02-06 14:32:44.421486+01 | 1486387964.42149 | pgbench_branches |          9322496

 2017-02-06 14:32:45.511785+01 | 1486387965.51179 | pgbench_accounts |      13894320128
 2017-02-06 14:32:45.511785+01 | 1486387965.51179 | pgbench_tellers  |         16769024
 2017-02-06 14:32:45.511785+01 | 1486387965.51179 | pgbench_history  |        196026368
 2017-02-06 14:32:45.511785+01 | 1486387965.51179 | pgbench_branches |          9322496

 2017-02-06 14:32:46.586578+01 | 1486387966.58658 | pgbench_accounts |      13894320128
 2017-02-06 14:32:46.586578+01 | 1486387966.58658 | pgbench_tellers  |         16769024
 2017-02-06 14:32:46.586578+01 | 1486387966.58658 | pgbench_history  |        197132288
 2017-02-06 14:32:46.586578+01 | 1486387966.58658 | pgbench_branches |          9322496

 2017-02-06 14:32:47.666294+01 | 1486387967.66629 | pgbench_accounts |      13894320128
 2017-02-06 14:32:47.666294+01 | 1486387967.66629 | pgbench_tellers  |         16769024
 2017-02-06 14:32:47.666294+01 | 1486387967.66629 | pgbench_history  |        198557696
 2017-02-06 14:32:47.666294+01 | 1486387967.66629 | pgbench_branches |          9322496

 2017-02-06 14:32:48.743967+01 | 1486387968.74397 | pgbench_accounts |      13894320128
 2017-02-06 14:32:48.743967+01 | 1486387968.74397 | pgbench_tellers  |         16769024
 2017-02-06 14:32:48.743967+01 | 1486387968.74397 | pgbench_history  |        199458816
 2017-02-06 14:32:48.743967+01 | 1486387968.74397 | pgbench_branches |          9322496

 2017-02-06 14:32:49.813529+01 | 1486387969.81353 | pgbench_accounts |      13894320128
 2017-02-06 14:32:49.813529+01 | 1486387969.81353 | pgbench_tellers  |         16769024
 2017-02-06 14:32:49.813529+01 | 1486387969.81353 | pgbench_history  |        201023488
 2017-02-06 14:32:49.813529+01 | 1486387969.81353 | pgbench_branches |          9322496

 2017-02-06 14:32:50.88072+01 | 1486387970.88072 | pgbench_accounts |      13894320128
 2017-02-06 14:32:50.88072+01 | 1486387970.88072 | pgbench_tellers  |         16769024
 2017-02-06 14:32:50.88072+01 | 1486387970.88072 | pgbench_history  |        202031104
 2017-02-06 14:32:50.88072+01 | 1486387970.88072 | pgbench_branches |          9322496

 2017-02-06 14:32:51.966821+01 | 1486387971.96682 | pgbench_accounts |      13894320128
 2017-02-06 14:32:51.966821+01 | 1486387971.96682 | pgbench_tellers  |         16769024
 2017-02-06 14:32:51.966821+01 | 1486387971.96682 | pgbench_history  |        203767808
 2017-02-06 14:32:51.966821+01 | 1486387971.96682 | pgbench_branches |          9322496

 2017-02-06 14:32:53.047698+01 | 1486387973.0477 | pgbench_accounts |      13894320128
 2017-02-06 14:32:53.047698+01 | 1486387973.0477 | pgbench_tellers  |         16769024
 2017-02-06 14:32:53.047698+01 | 1486387973.0477 | pgbench_history  |        204644352
 2017-02-06 14:32:53.047698+01 | 1486387973.0477 | pgbench_branches |          9322496

 2017-02-06 14:32:54.117499+01 | 1486387974.1175 | pgbench_accounts |      13894320128
 2017-02-06 14:32:54.117499+01 | 1486387974.1175 | pgbench_tellers  |         16769024
 2017-02-06 14:32:54.117499+01 | 1486387974.1175 | pgbench_history  |        206659584
 2017-02-06 14:32:54.117499+01 | 1486387974.1175 | pgbench_branches |          9322496

 2017-02-06 14:32:55.196885+01 | 1486387975.19689 | pgbench_accounts |      13894320128
 2017-02-06 14:32:55.196885+01 | 1486387975.19689 | pgbench_tellers  |         16769024
 2017-02-06 14:32:55.196885+01 | 1486387975.19689 | pgbench_history  |        207175680
 2017-02-06 14:32:55.196885+01 | 1486387975.19689 | pgbench_branches |          9322496

 2017-02-06 14:32:56.282137+01 | 1486387976.28214 | pgbench_accounts |      13894320128
 2017-02-06 14:32:56.282137+01 | 1486387976.28214 | pgbench_tellers  |         16769024
 2017-02-06 14:32:56.282137+01 | 1486387976.28214 | pgbench_history  |        208265216
 2017-02-06 14:32:56.282137+01 | 1486387976.28214 | pgbench_branches |          9322496

 2017-02-06 14:32:57.365389+01 | 1486387977.36539 | pgbench_accounts |      13894320128
 2017-02-06 14:32:57.365389+01 | 1486387977.36539 | pgbench_tellers  |         16769024
 2017-02-06 14:32:57.365389+01 | 1486387977.36539 | pgbench_history  |        210124800
 2017-02-06 14:32:57.365389+01 | 1486387977.36539 | pgbench_branches |          9322496

 2017-02-06 14:32:58.444874+01 | 1486387978.44487 | pgbench_accounts |      13894320128
 2017-02-06 14:32:58.444874+01 | 1486387978.44487 | pgbench_tellers  |         16769024
 2017-02-06 14:32:58.444874+01 | 1486387978.44487 | pgbench_history  |        210640896
 2017-02-06 14:32:58.444874+01 | 1486387978.44487 | pgbench_branches |          9322496

 2017-02-06 14:32:59.5221+01 | 1486387979.5221 | pgbench_accounts |      13894320128
 2017-02-06 14:32:59.5221+01 | 1486387979.5221 | pgbench_tellers  |         16769024
 2017-02-06 14:32:59.5221+01 | 1486387979.5221 | pgbench_history  |        212140032
 2017-02-06 14:32:59.5221+01 | 1486387979.5221 | pgbench_branches |          9322496

 2017-02-06 14:33:00.599314+01 | 1486387980.59931 | pgbench_accounts |      13894320128
 2017-02-06 14:33:00.599314+01 | 1486387980.59931 | pgbench_tellers  |         16769024
 2017-02-06 14:33:00.599314+01 | 1486387980.59931 | pgbench_history  |        212819968
 2017-02-06 14:33:00.599314+01 | 1486387980.59931 | pgbench_branches |          9322496

 2017-02-06 14:33:01.680363+01 | 1486387981.68036 | pgbench_accounts |      13894320128
 2017-02-06 14:33:01.680363+01 | 1486387981.68036 | pgbench_tellers  |         16769024
 2017-02-06 14:33:01.680363+01 | 1486387981.68036 | pgbench_history  |        214024192
 2017-02-06 14:33:01.680363+01 | 1486387981.68036 | pgbench_branches |          9322496

 2017-02-06 14:33:02.763977+01 | 1486387982.76398 | pgbench_accounts |      13894320128
 2017-02-06 14:33:02.763977+01 | 1486387982.76398 | pgbench_tellers  |         16769024
 2017-02-06 14:33:02.763977+01 | 1486387982.76398 | pgbench_history  |        215269376
 2017-02-06 14:33:02.763977+01 | 1486387982.76398 | pgbench_branches |          9322496

 2017-02-06 14:33:03.846312+01 | 1486387983.84631 | pgbench_accounts |      13894320128
 2017-02-06 14:33:03.846312+01 | 1486387983.84631 | pgbench_tellers  |         16769024
 2017-02-06 14:33:03.846312+01 | 1486387983.84631 | pgbench_history  |        216850432
 2017-02-06 14:33:03.846312+01 | 1486387983.84631 | pgbench_branches |          9322496

 2017-02-06 14:33:04.922445+01 | 1486387984.92245 | pgbench_accounts |      13894320128
 2017-02-06 14:33:04.922445+01 | 1486387984.92245 | pgbench_tellers  |         16769024
 2017-02-06 14:33:04.922445+01 | 1486387984.92245 | pgbench_history  |        217751552
 2017-02-06 14:33:04.922445+01 | 1486387984.92245 | pgbench_branches |          9322496

 2017-02-06 14:33:05.999006+01 | 1486387985.99901 | pgbench_accounts |      13894320128
 2017-02-06 14:33:05.999006+01 | 1486387985.99901 | pgbench_tellers  |         16769024
 2017-02-06 14:33:05.999006+01 | 1486387985.99901 | pgbench_history  |        219324416
 2017-02-06 14:33:05.999006+01 | 1486387985.99901 | pgbench_branches |          9322496

 2017-02-06 14:33:07.077665+01 | 1486387987.07767 | pgbench_accounts |      13894320128
 2017-02-06 14:33:07.077665+01 | 1486387987.07767 | pgbench_tellers  |         16769024
 2017-02-06 14:33:07.077665+01 | 1486387987.07767 | pgbench_history  |        220389376
 2017-02-06 14:33:07.077665+01 | 1486387987.07767 | pgbench_branches |          9322496

 2017-02-06 14:33:08.165435+01 | 1486387988.16544 | pgbench_accounts |      13894320128
 2017-02-06 14:33:08.165435+01 | 1486387988.16544 | pgbench_tellers  |         16769024
 2017-02-06 14:33:08.165435+01 | 1486387988.16544 | pgbench_history  |        221446144
 2017-02-06 14:33:08.165435+01 | 1486387988.16544 | pgbench_branches |          9322496

 2017-02-06 14:33:09.248219+01 | 1486387989.24822 | pgbench_accounts |      13894320128
 2017-02-06 14:33:09.248219+01 | 1486387989.24822 | pgbench_tellers  |         16769024
 2017-02-06 14:33:09.248219+01 | 1486387989.24822 | pgbench_history  |        223051776
 2017-02-06 14:33:09.248219+01 | 1486387989.24822 | pgbench_branches |          9322496

 2017-02-06 14:33:10.333014+01 | 1486387990.33301 | pgbench_accounts |      13894320128
 2017-02-06 14:33:10.333014+01 | 1486387990.33301 | pgbench_tellers  |         16769024
 2017-02-06 14:33:10.333014+01 | 1486387990.33301 | pgbench_history  |        223928320
 2017-02-06 14:33:10.333014+01 | 1486387990.33301 | pgbench_branches |          9322496

 2017-02-06 14:33:11.415457+01 | 1486387991.41546 | pgbench_accounts |      13894320128
 2017-02-06 14:33:11.415457+01 | 1486387991.41546 | pgbench_tellers  |         16769024
 2017-02-06 14:33:11.415457+01 | 1486387991.41546 | pgbench_history  |        225009664
 2017-02-06 14:33:11.415457+01 | 1486387991.41546 | pgbench_branches |          9322496

 2017-02-06 14:33:12.495861+01 | 1486387992.49586 | pgbench_accounts |      13894320128
 2017-02-06 14:33:12.495861+01 | 1486387992.49586 | pgbench_tellers  |         16769024
 2017-02-06 14:33:12.495861+01 | 1486387992.49586 | pgbench_history  |        226369536
 2017-02-06 14:33:12.495861+01 | 1486387992.49586 | pgbench_branches |          9322496

 2017-02-06 14:33:13.576755+01 | 1486387993.57676 | pgbench_accounts |      13894320128
 2017-02-06 14:33:13.576755+01 | 1486387993.57676 | pgbench_tellers  |         16769024
 2017-02-06 14:33:13.576755+01 | 1486387993.57676 | pgbench_history  |        227606528
 2017-02-06 14:33:13.576755+01 | 1486387993.57676 | pgbench_branches |          9322496

 2017-02-06 14:33:14.650937+01 | 1486387994.65094 | pgbench_accounts |      13894320128
 2017-02-06 14:33:14.650937+01 | 1486387994.65094 | pgbench_tellers  |         16769024
 2017-02-06 14:33:14.650937+01 | 1486387994.65094 | pgbench_history  |        228868096
 2017-02-06 14:33:14.650937+01 | 1486387994.65094 | pgbench_branches |          9322496

 2017-02-06 14:33:15.736884+01 | 1486387995.73688 | pgbench_accounts |      13894320128
 2017-02-06 14:33:15.736884+01 | 1486387995.73688 | pgbench_tellers  |         16769024
 2017-02-06 14:33:15.736884+01 | 1486387995.73688 | pgbench_history  |        229900288
 2017-02-06 14:33:15.736884+01 | 1486387995.73688 | pgbench_branches |          9322496

 2017-02-06 14:33:16.815477+01 | 1486387996.81548 | pgbench_accounts |      13894320128
 2017-02-06 14:33:16.815477+01 | 1486387996.81548 | pgbench_tellers  |         16769024
 2017-02-06 14:33:16.815477+01 | 1486387996.81548 | pgbench_history  |        231874560
 2017-02-06 14:33:16.815477+01 | 1486387996.81548 | pgbench_branches |          9322496

 2017-02-06 14:33:17.883627+01 | 1486387997.88363 | pgbench_accounts |      13894320128
 2017-02-06 14:33:17.883627+01 | 1486387997.88363 | pgbench_tellers  |         16769024
 2017-02-06 14:33:17.883627+01 | 1486387997.88363 | pgbench_history  |        232259584
 2017-02-06 14:33:17.883627+01 | 1486387997.88363 | pgbench_branches |          9322496

 2017-02-06 14:33:18.968812+01 | 1486387998.96881 | pgbench_accounts |      13894320128
 2017-02-06 14:33:18.968812+01 | 1486387998.96881 | pgbench_tellers  |         16769024
 2017-02-06 14:33:18.968812+01 | 1486387998.96881 | pgbench_history  |        233816064
 2017-02-06 14:33:18.968812+01 | 1486387998.96881 | pgbench_branches |          9322496

 2017-02-06 14:33:20.050553+01 | 1486388000.05055 | pgbench_accounts |      13894320128
 2017-02-06 14:33:20.050553+01 | 1486388000.05055 | pgbench_tellers  |         16769024
 2017-02-06 14:33:20.050553+01 | 1486388000.05055 | pgbench_history  |        234872832
 2017-02-06 14:33:20.050553+01 | 1486388000.05055 | pgbench_branches |          9322496

 2017-02-06 14:33:21.123921+01 | 1486388001.12392 | pgbench_accounts |      13894320128
 2017-02-06 14:33:21.123921+01 | 1486388001.12392 | pgbench_tellers  |         16769024
 2017-02-06 14:33:21.123921+01 | 1486388001.12392 | pgbench_history  |        237076480
 2017-02-06 14:33:21.123921+01 | 1486388001.12392 | pgbench_branches |          9322496

 2017-02-06 14:33:22.198564+01 | 1486388002.19856 | pgbench_accounts |      13894320128
 2017-02-06 14:33:22.198564+01 | 1486388002.19856 | pgbench_tellers  |         16769024
 2017-02-06 14:33:22.198564+01 | 1486388002.19856 | pgbench_history  |        237428736
 2017-02-06 14:33:22.198564+01 | 1486388002.19856 | pgbench_branches |          9322496

 2017-02-06 14:33:23.2896+01 | 1486388003.2896 | pgbench_accounts |      13894320128
 2017-02-06 14:33:23.2896+01 | 1486388003.2896 | pgbench_tellers  |         16769024
 2017-02-06 14:33:23.2896+01 | 1486388003.2896 | pgbench_history  |        238657536
 2017-02-06 14:33:23.2896+01 | 1486388003.2896 | pgbench_branches |          9322496

 2017-02-06 14:33:24.365749+01 | 1486388004.36575 | pgbench_accounts |      13894320128
 2017-02-06 14:33:24.365749+01 | 1486388004.36575 | pgbench_tellers  |         16769024
 2017-02-06 14:33:24.365749+01 | 1486388004.36575 | pgbench_history  |        240181248
 2017-02-06 14:33:24.365749+01 | 1486388004.36575 | pgbench_branches |          9322496

 2017-02-06 14:33:25.448921+01 | 1486388005.44892 | pgbench_accounts |      13894320128
 2017-02-06 14:33:25.448921+01 | 1486388005.44892 | pgbench_tellers  |         16769024
 2017-02-06 14:33:25.448921+01 | 1486388005.44892 | pgbench_history  |        240910336
 2017-02-06 14:33:25.448921+01 | 1486388005.44892 | pgbench_branches |          9322496

 2017-02-06 14:33:26.528055+01 | 1486388006.52805 | pgbench_accounts |      13894320128
 2017-02-06 14:33:26.528055+01 | 1486388006.52805 | pgbench_tellers  |         16769024
 2017-02-06 14:33:26.528055+01 | 1486388006.52805 | pgbench_history  |        242343936
 2017-02-06 14:33:26.528055+01 | 1486388006.52805 | pgbench_branches |          9322496

 2017-02-06 14:33:27.602676+01 | 1486388007.60268 | pgbench_accounts |      13894320128
 2017-02-06 14:33:27.602676+01 | 1486388007.60268 | pgbench_tellers  |         16769024
 2017-02-06 14:33:27.602676+01 | 1486388007.60268 | pgbench_history  |        243539968
 2017-02-06 14:33:27.602676+01 | 1486388007.60268 | pgbench_branches |          9322496

 2017-02-06 14:33:28.67591+01 | 1486388008.67591 | pgbench_accounts |      13894320128
 2017-02-06 14:33:28.67591+01 | 1486388008.67591 | pgbench_tellers  |         16769024
 2017-02-06 14:33:28.67591+01 | 1486388008.67591 | pgbench_history  |        244408320
 2017-02-06 14:33:28.67591+01 | 1486388008.67591 | pgbench_branches |          9322496

 2017-02-06 14:33:29.756403+01 | 1486388009.7564 | pgbench_accounts |      13894320128
 2017-02-06 14:33:29.756403+01 | 1486388009.7564 | pgbench_tellers  |         16769024
 2017-02-06 14:33:29.756403+01 | 1486388009.7564 | pgbench_history  |        245628928
 2017-02-06 14:33:29.756403+01 | 1486388009.7564 | pgbench_branches |          9322496

 2017-02-06 14:33:30.831124+01 | 1486388010.83112 | pgbench_accounts |      13894320128
 2017-02-06 14:33:30.831124+01 | 1486388010.83112 | pgbench_tellers  |         16769024
 2017-02-06 14:33:30.831124+01 | 1486388010.83112 | pgbench_history  |        246824960
 2017-02-06 14:33:30.831124+01 | 1486388010.83112 | pgbench_branches |          9322496

 2017-02-06 14:33:31.924677+01 | 1486388011.92468 | pgbench_accounts |      13894320128
 2017-02-06 14:33:31.924677+01 | 1486388011.92468 | pgbench_tellers  |         16769024
 2017-02-06 14:33:31.924677+01 | 1486388011.92468 | pgbench_history  |        248045568
 2017-02-06 14:33:31.924677+01 | 1486388011.92468 | pgbench_branches |          9322496

 2017-02-06 14:33:33.010156+01 | 1486388013.01016 | pgbench_accounts |      13894320128
 2017-02-06 14:33:33.010156+01 | 1486388013.01016 | pgbench_tellers  |         16769024
 2017-02-06 14:33:33.010156+01 | 1486388013.01016 | pgbench_history  |        249307136
 2017-02-06 14:33:33.010156+01 | 1486388013.01016 | pgbench_branches |          9322496

 2017-02-06 14:33:34.096543+01 | 1486388014.09654 | pgbench_accounts |      13894320128
 2017-02-06 14:33:34.096543+01 | 1486388014.09654 | pgbench_tellers  |         16769024
 2017-02-06 14:33:34.096543+01 | 1486388014.09654 | pgbench_history  |        250888192
 2017-02-06 14:33:34.096543+01 | 1486388014.09654 | pgbench_branches |          9322496

 2017-02-06 14:33:35.180758+01 | 1486388015.18076 | pgbench_accounts |      13894320128
 2017-02-06 14:33:35.180758+01 | 1486388015.18076 | pgbench_tellers  |         16769024
 2017-02-06 14:33:35.180758+01 | 1486388015.18076 | pgbench_history  |        251756544
 2017-02-06 14:33:35.180758+01 | 1486388015.18076 | pgbench_branches |          9322496

 2017-02-06 14:33:36.255484+01 | 1486388016.25548 | pgbench_accounts |      13894320128
 2017-02-06 14:33:36.255484+01 | 1486388016.25548 | pgbench_tellers  |         16769024
 2017-02-06 14:33:36.255484+01 | 1486388016.25548 | pgbench_history  |        253050880
 2017-02-06 14:33:36.255484+01 | 1486388016.25548 | pgbench_branches |          9322496

 2017-02-06 14:33:37.320135+01 | 1486388017.32014 | pgbench_accounts |      13894320128
 2017-02-06 14:33:37.320135+01 | 1486388017.32014 | pgbench_tellers  |         16769024
 2017-02-06 14:33:37.320135+01 | 1486388017.32014 | pgbench_history  |        254189568
 2017-02-06 14:33:37.320135+01 | 1486388017.32014 | pgbench_branches |          9322496

 2017-02-06 14:33:38.40357+01 | 1486388018.40357 | pgbench_accounts |      13894320128
 2017-02-06 14:33:38.40357+01 | 1486388018.40357 | pgbench_tellers  |         16769024
 2017-02-06 14:33:38.40357+01 | 1486388018.40357 | pgbench_history  |        256131072
 2017-02-06 14:33:38.40357+01 | 1486388018.40357 | pgbench_branches |          9322496

 2017-02-06 14:33:39.480672+01 | 1486388019.48067 | pgbench_accounts |      13894320128
 2017-02-06 14:33:39.480672+01 | 1486388019.48067 | pgbench_tellers  |         16769024
 2017-02-06 14:33:39.480672+01 | 1486388019.48067 | pgbench_history  |        256647168
 2017-02-06 14:33:39.480672+01 | 1486388019.48067 | pgbench_branches |          9322496

 2017-02-06 14:33:40.562387+01 | 1486388020.56239 | pgbench_accounts |      13894320128
 2017-02-06 14:33:40.562387+01 | 1486388020.56239 | pgbench_tellers  |         16769024
 2017-02-06 14:33:40.562387+01 | 1486388020.56239 | pgbench_history  |        258080768
 2017-02-06 14:33:40.562387+01 | 1486388020.56239 | pgbench_branches |          9322496

 2017-02-06 14:33:41.646901+01 | 1486388021.6469 | pgbench_accounts |      13894320128
 2017-02-06 14:33:41.646901+01 | 1486388021.6469 | pgbench_tellers  |         16769024
 2017-02-06 14:33:41.646901+01 | 1486388021.6469 | pgbench_history  |        259588096
 2017-02-06 14:33:41.646901+01 | 1486388021.6469 | pgbench_branches |          9322496

 2017-02-06 14:33:42.727058+01 | 1486388022.72706 | pgbench_accounts |      13894320128
 2017-02-06 14:33:42.727058+01 | 1486388022.72706 | pgbench_tellers  |         16769024
 2017-02-06 14:33:42.727058+01 | 1486388022.72706 | pgbench_history  |        260104192
 2017-02-06 14:33:42.727058+01 | 1486388022.72706 | pgbench_branches |          9322496

 2017-02-06 14:33:43.810179+01 | 1486388023.81018 | pgbench_accounts |      13894320128
 2017-02-06 14:33:43.810179+01 | 1486388023.81018 | pgbench_tellers  |         16769024
 2017-02-06 14:33:43.810179+01 | 1486388023.81018 | pgbench_history  |        261201920
 2017-02-06 14:33:43.810179+01 | 1486388023.81018 | pgbench_branches |          9322496

 2017-02-06 14:33:44.896738+01 | 1486388024.89674 | pgbench_accounts |      13894320128
 2017-02-06 14:33:44.896738+01 | 1486388024.89674 | pgbench_tellers  |         16769024
 2017-02-06 14:33:44.896738+01 | 1486388024.89674 | pgbench_history  |        262430720
 2017-02-06 14:33:44.896738+01 | 1486388024.89674 | pgbench_branches |          9322496

 2017-02-06 14:33:45.970099+01 | 1486388025.9701 | pgbench_accounts |      13894320128
 2017-02-06 14:33:45.970099+01 | 1486388025.9701 | pgbench_tellers  |         16769024
 2017-02-06 14:33:45.970099+01 | 1486388025.9701 | pgbench_history  |        263806976
 2017-02-06 14:33:45.970099+01 | 1486388025.9701 | pgbench_branches |          9322496

 2017-02-06 14:33:47.056935+01 | 1486388027.05694 | pgbench_accounts |      13894320128
 2017-02-06 14:33:47.056935+01 | 1486388027.05694 | pgbench_tellers  |         16769024
 2017-02-06 14:33:47.056935+01 | 1486388027.05694 | pgbench_history  |        264486912
 2017-02-06 14:33:47.056935+01 | 1486388027.05694 | pgbench_branches |          9322496

 2017-02-06 14:33:48.15528+01 | 1486388028.15528 | pgbench_accounts |      13894320128
 2017-02-06 14:33:48.15528+01 | 1486388028.15528 | pgbench_tellers  |         16769024
 2017-02-06 14:33:48.15528+01 | 1486388028.15528 | pgbench_history  |        266338304
 2017-02-06 14:33:48.15528+01 | 1486388028.15528 | pgbench_branches |          9322496

 2017-02-06 14:33:49.244966+01 | 1486388029.24497 | pgbench_accounts |      13894320128
 2017-02-06 14:33:49.244966+01 | 1486388029.24497 | pgbench_tellers  |         16769024
 2017-02-06 14:33:49.244966+01 | 1486388029.24497 | pgbench_history  |        266338304
 2017-02-06 14:33:49.244966+01 | 1486388029.24497 | pgbench_branches |          9322496

 2017-02-06 14:33:50.327837+01 | 1486388030.32784 | pgbench_accounts |      13894320128
 2017-02-06 14:33:50.327837+01 | 1486388030.32784 | pgbench_tellers  |         16769024
 2017-02-06 14:33:50.327837+01 | 1486388030.32784 | pgbench_history  |        267698176
 2017-02-06 14:33:50.327837+01 | 1486388030.32784 | pgbench_branches |          9322496

 2017-02-06 14:33:51.405596+01 | 1486388031.4056 | pgbench_accounts |      13894320128
 2017-02-06 14:33:51.405596+01 | 1486388031.4056 | pgbench_tellers  |         16769024
 2017-02-06 14:33:51.405596+01 | 1486388031.4056 | pgbench_history  |        269410304
 2017-02-06 14:33:51.405596+01 | 1486388031.4056 | pgbench_branches |          9322496

 2017-02-06 14:33:52.487791+01 | 1486388032.48779 | pgbench_accounts |      13894320128
 2017-02-06 14:33:52.487791+01 | 1486388032.48779 | pgbench_tellers  |         16769024
 2017-02-06 14:33:52.487791+01 | 1486388032.48779 | pgbench_history  |        270254080
 2017-02-06 14:33:52.487791+01 | 1486388032.48779 | pgbench_branches |          9322496

 2017-02-06 14:33:53.56759+01 | 1486388033.56759 | pgbench_accounts |      13894320128
 2017-02-06 14:33:53.56759+01 | 1486388033.56759 | pgbench_tellers  |         16769024
 2017-02-06 14:33:53.56759+01 | 1486388033.56759 | pgbench_history  |        270934016
 2017-02-06 14:33:53.56759+01 | 1486388033.56759 | pgbench_branches |          9322496

 2017-02-06 14:33:54.648897+01 | 1486388034.6489 | pgbench_accounts |      13894320128
 2017-02-06 14:33:54.648897+01 | 1486388034.6489 | pgbench_tellers  |         16769024
 2017-02-06 14:33:54.648897+01 | 1486388034.6489 | pgbench_history  |        272973824
 2017-02-06 14:33:54.648897+01 | 1486388034.6489 | pgbench_branches |          9322496

 2017-02-06 14:33:55.732014+01 | 1486388035.73201 | pgbench_accounts |      13894320128
 2017-02-06 14:33:55.732014+01 | 1486388035.73201 | pgbench_tellers  |         16769024
 2017-02-06 14:33:55.732014+01 | 1486388035.73201 | pgbench_history  |        272973824
 2017-02-06 14:33:55.732014+01 | 1486388035.73201 | pgbench_branches |          9322496

 2017-02-06 14:33:56.809622+01 | 1486388036.80962 | pgbench_accounts |      13894320128
 2017-02-06 14:33:56.809622+01 | 1486388036.80962 | pgbench_tellers  |         16769024
 2017-02-06 14:33:56.809622+01 | 1486388036.80962 | pgbench_history  |        274055168
 2017-02-06 14:33:56.809622+01 | 1486388036.80962 | pgbench_branches |          9322496

 2017-02-06 14:33:57.887198+01 | 1486388037.8872 | pgbench_accounts |      13894320128
 2017-02-06 14:33:57.887198+01 | 1486388037.8872 | pgbench_tellers  |         16769024
 2017-02-06 14:33:57.887198+01 | 1486388037.8872 | pgbench_history  |        275120128
 2017-02-06 14:33:57.887198+01 | 1486388037.8872 | pgbench_branches |          9322496

 2017-02-06 14:33:58.969666+01 | 1486388038.96967 | pgbench_accounts |      13894320128
 2017-02-06 14:33:58.969666+01 | 1486388038.96967 | pgbench_tellers  |         16769024
 2017-02-06 14:33:58.969666+01 | 1486388038.96967 | pgbench_history  |        276291584
 2017-02-06 14:33:58.969666+01 | 1486388038.96967 | pgbench_branches |          9322496

 2017-02-06 14:34:00.053221+01 | 1486388040.05322 | pgbench_accounts |      13894320128
 2017-02-06 14:34:00.053221+01 | 1486388040.05322 | pgbench_tellers  |         16769024
 2017-02-06 14:34:00.053221+01 | 1486388040.05322 | pgbench_history  |        277979136
 2017-02-06 14:34:00.053221+01 | 1486388040.05322 | pgbench_branches |          9322496

 2017-02-06 14:34:01.143837+01 | 1486388041.14384 | pgbench_accounts |      13894320128
 2017-02-06 14:34:01.143837+01 | 1486388041.14384 | pgbench_tellers  |         16769024
 2017-02-06 14:34:01.143837+01 | 1486388041.14384 | pgbench_history  |        279175168
 2017-02-06 14:34:01.143837+01 | 1486388041.14384 | pgbench_branches |          9322496

 2017-02-06 14:34:02.23397+01 | 1486388042.23397 | pgbench_accounts |      13894320128
 2017-02-06 14:34:02.23397+01 | 1486388042.23397 | pgbench_tellers  |         16769024
 2017-02-06 14:34:02.23397+01 | 1486388042.23397 | pgbench_history  |        279896064
 2017-02-06 14:34:02.23397+01 | 1486388042.23397 | pgbench_branches |          9322496

 2017-02-06 14:34:03.316846+01 | 1486388043.31685 | pgbench_accounts |      13894320128
 2017-02-06 14:34:03.316846+01 | 1486388043.31685 | pgbench_tellers  |         16769024
 2017-02-06 14:34:03.316846+01 | 1486388043.31685 | pgbench_history  |        281419776
 2017-02-06 14:34:03.316846+01 | 1486388043.31685 | pgbench_branches |          9322496

 2017-02-06 14:34:04.399026+01 | 1486388044.39903 | pgbench_accounts |      13894320128
 2017-02-06 14:34:04.399026+01 | 1486388044.39903 | pgbench_tellers  |         16769024
 2017-02-06 14:34:04.399026+01 | 1486388044.39903 | pgbench_history  |        282542080
 2017-02-06 14:34:04.399026+01 | 1486388044.39903 | pgbench_branches |          9322496

 2017-02-06 14:34:05.478345+01 | 1486388045.47834 | pgbench_accounts |      13894320128
 2017-02-06 14:34:05.478345+01 | 1486388045.47834 | pgbench_tellers  |         16769024
 2017-02-06 14:34:05.478345+01 | 1486388045.47834 | pgbench_history  |        284401664
 2017-02-06 14:34:05.478345+01 | 1486388045.47834 | pgbench_branches |          9322496

 2017-02-06 14:34:06.569835+01 | 1486388046.56983 | pgbench_accounts |      13894320128
 2017-02-06 14:34:06.569835+01 | 1486388046.56983 | pgbench_tellers  |         16769024
 2017-02-06 14:34:06.569835+01 | 1486388046.56983 | pgbench_history  |        284753920
 2017-02-06 14:34:06.569835+01 | 1486388046.56983 | pgbench_branches |          9322496

 2017-02-06 14:34:07.650187+01 | 1486388047.65019 | pgbench_accounts |      13894320128
 2017-02-06 14:34:07.650187+01 | 1486388047.65019 | pgbench_tellers  |         16769024
 2017-02-06 14:34:07.650187+01 | 1486388047.65019 | pgbench_history  |        285974528
 2017-02-06 14:34:07.650187+01 | 1486388047.65019 | pgbench_branches |          9322496

 2017-02-06 14:34:08.724851+01 | 1486388048.72485 | pgbench_accounts |      13894320128
 2017-02-06 14:34:08.724851+01 | 1486388048.72485 | pgbench_tellers  |         16769024
 2017-02-06 14:34:08.724851+01 | 1486388048.72485 | pgbench_history  |        287301632
 2017-02-06 14:34:08.724851+01 | 1486388048.72485 | pgbench_branches |          9322496

 2017-02-06 14:34:09.799057+01 | 1486388049.79906 | pgbench_accounts |      13894320128
 2017-02-06 14:34:09.799057+01 | 1486388049.79906 | pgbench_tellers  |         16769024
 2017-02-06 14:34:09.799057+01 | 1486388049.79906 | pgbench_history  |        288399360
 2017-02-06 14:34:09.799057+01 | 1486388049.79906 | pgbench_branches |          9322496

 2017-02-06 14:34:10.875998+01 | 1486388050.876 | pgbench_accounts |      13894320128
 2017-02-06 14:34:10.875998+01 | 1486388050.876 | pgbench_tellers  |         16769024
 2017-02-06 14:34:10.875998+01 | 1486388050.876 | pgbench_history  |        289669120
 2017-02-06 14:34:10.875998+01 | 1486388050.876 | pgbench_branches |          9322496

 2017-02-06 14:34:11.961369+01 | 1486388051.96137 | pgbench_accounts |      13894320128
 2017-02-06 14:34:11.961369+01 | 1486388051.96137 | pgbench_tellers  |         16769024
 2017-02-06 14:34:11.961369+01 | 1486388051.96137 | pgbench_history  |        290873344
 2017-02-06 14:34:11.961369+01 | 1486388051.96137 | pgbench_branches |          9322496

 2017-02-06 14:34:13.062329+01 | 1486388053.06233 | pgbench_accounts |      13894320128
 2017-02-06 14:34:13.062329+01 | 1486388053.06233 | pgbench_tellers  |         16769024
 2017-02-06 14:34:13.062329+01 | 1486388053.06233 | pgbench_history  |        292421632
 2017-02-06 14:34:13.062329+01 | 1486388053.06233 | pgbench_branches |          9322496

 2017-02-06 14:34:14.150606+01 | 1486388054.15061 | pgbench_accounts |      13894320128
 2017-02-06 14:34:14.150606+01 | 1486388054.15061 | pgbench_tellers  |         16769024
 2017-02-06 14:34:14.150606+01 | 1486388054.15061 | pgbench_history  |        293650432
 2017-02-06 14:34:14.150606+01 | 1486388054.15061 | pgbench_branches |          9322496

 2017-02-06 14:34:15.252121+01 | 1486388055.25212 | pgbench_accounts |      13894320128
 2017-02-06 14:34:15.252121+01 | 1486388055.25212 | pgbench_tellers  |         16769024
 2017-02-06 14:34:15.252121+01 | 1486388055.25212 | pgbench_history  |        294993920
 2017-02-06 14:34:15.252121+01 | 1486388055.25212 | pgbench_branches |          9322496

 2017-02-06 14:34:16.335547+01 | 1486388056.33555 | pgbench_accounts |      13894320128
 2017-02-06 14:34:16.335547+01 | 1486388056.33555 | pgbench_tellers  |         16769024
 2017-02-06 14:34:16.335547+01 | 1486388056.33555 | pgbench_history  |        295706624
 2017-02-06 14:34:16.335547+01 | 1486388056.33555 | pgbench_branches |          9322496

 2017-02-06 14:34:17.41603+01 | 1486388057.41603 | pgbench_accounts |      13894320128
 2017-02-06 14:34:17.41603+01 | 1486388057.41603 | pgbench_tellers  |         16769024
 2017-02-06 14:34:17.41603+01 | 1486388057.41603 | pgbench_history  |        297336832
 2017-02-06 14:34:17.41603+01 | 1486388057.41603 | pgbench_branches |          9322496

 2017-02-06 14:34:18.498463+01 | 1486388058.49846 | pgbench_accounts |      13894320128
 2017-02-06 14:34:18.498463+01 | 1486388058.49846 | pgbench_tellers  |         16769024
 2017-02-06 14:34:18.498463+01 | 1486388058.49846 | pgbench_history  |        298065920
 2017-02-06 14:34:18.498463+01 | 1486388058.49846 | pgbench_branches |          9322496

 2017-02-06 14:34:19.583469+01 | 1486388059.58347 | pgbench_accounts |      13894320128
 2017-02-06 14:34:19.583469+01 | 1486388059.58347 | pgbench_tellers  |         16769024
 2017-02-06 14:34:19.583469+01 | 1486388059.58347 | pgbench_history  |        299261952
 2017-02-06 14:34:19.583469+01 | 1486388059.58347 | pgbench_branches |          9322496

 2017-02-06 14:34:20.666557+01 | 1486388060.66656 | pgbench_accounts |      13894320128
 2017-02-06 14:34:20.666557+01 | 1486388060.66656 | pgbench_tellers  |         16769024
 2017-02-06 14:34:20.666557+01 | 1486388060.66656 | pgbench_history  |        301203456
 2017-02-06 14:34:20.666557+01 | 1486388060.66656 | pgbench_branches |          9322496

 2017-02-06 14:34:21.746058+01 | 1486388061.74606 | pgbench_accounts |      13894320128
 2017-02-06 14:34:21.746058+01 | 1486388061.74606 | pgbench_tellers  |         16769024
 2017-02-06 14:34:21.746058+01 | 1486388061.74606 | pgbench_history  |        301883392
 2017-02-06 14:34:21.746058+01 | 1486388061.74606 | pgbench_branches |          9322496

 2017-02-06 14:34:22.841434+01 | 1486388062.84143 | pgbench_accounts |      13894320128
 2017-02-06 14:34:22.841434+01 | 1486388062.84143 | pgbench_tellers  |         16769024
 2017-02-06 14:34:22.841434+01 | 1486388062.84143 | pgbench_history  |        302964736
 2017-02-06 14:34:22.841434+01 | 1486388062.84143 | pgbench_branches |          9322496

 2017-02-06 14:34:23.920931+01 | 1486388063.92093 | pgbench_accounts |      13894320128
 2017-02-06 14:34:23.920931+01 | 1486388063.92093 | pgbench_tellers  |         16769024
 2017-02-06 14:34:23.920931+01 | 1486388063.92093 | pgbench_history  |        304709632
 2017-02-06 14:34:23.920931+01 | 1486388063.92093 | pgbench_branches |          9322496

 2017-02-06 14:34:25.00012+01 | 1486388065.00012 | pgbench_accounts |      13894320128
 2017-02-06 14:34:25.00012+01 | 1486388065.00012 | pgbench_tellers  |         16769024
 2017-02-06 14:34:25.00012+01 | 1486388065.00012 | pgbench_history  |        305438720
 2017-02-06 14:34:25.00012+01 | 1486388065.00012 | pgbench_branches |          9322496

 2017-02-06 14:34:26.077973+01 | 1486388066.07797 | pgbench_accounts |      13894320128
 2017-02-06 14:34:26.077973+01 | 1486388066.07797 | pgbench_tellers  |         16769024
 2017-02-06 14:34:26.077973+01 | 1486388066.07797 | pgbench_history  |        306651136
 2017-02-06 14:34:26.077973+01 | 1486388066.07797 | pgbench_branches |          9322496

 2017-02-06 14:34:27.155435+01 | 1486388067.15544 | pgbench_accounts |      13894320128
 2017-02-06 14:34:27.155435+01 | 1486388067.15544 | pgbench_tellers  |         16769024
 2017-02-06 14:34:27.155435+01 | 1486388067.15544 | pgbench_history  |        307683328
 2017-02-06 14:34:27.155435+01 | 1486388067.15544 | pgbench_branches |          9322496

 2017-02-06 14:34:28.240898+01 | 1486388068.2409 | pgbench_accounts |      13894320128
 2017-02-06 14:34:28.240898+01 | 1486388068.2409 | pgbench_tellers  |         16769024
 2017-02-06 14:34:28.240898+01 | 1486388068.2409 | pgbench_history  |        309108736
 2017-02-06 14:34:28.240898+01 | 1486388068.2409 | pgbench_branches |          9322496

 2017-02-06 14:34:29.331131+01 | 1486388069.33113 | pgbench_accounts |      13894320128
 2017-02-06 14:34:29.331131+01 | 1486388069.33113 | pgbench_tellers  |         16769024
 2017-02-06 14:34:29.331131+01 | 1486388069.33113 | pgbench_history  |        310173696
 2017-02-06 14:34:29.331131+01 | 1486388069.33113 | pgbench_branches |          9322496

 2017-02-06 14:34:30.403854+01 | 1486388070.40385 | pgbench_accounts |      13894320128
 2017-02-06 14:34:30.403854+01 | 1486388070.40385 | pgbench_tellers  |         16769024
 2017-02-06 14:34:30.403854+01 | 1486388070.40385 | pgbench_history  |        311410688
 2017-02-06 14:34:30.403854+01 | 1486388070.40385 | pgbench_branches |          9322496

 2017-02-06 14:34:31.484386+01 | 1486388071.48439 | pgbench_accounts |      13894320128
 2017-02-06 14:34:31.484386+01 | 1486388071.48439 | pgbench_tellers  |         16769024
 2017-02-06 14:34:31.484386+01 | 1486388071.48439 | pgbench_history  |        312770560
 2017-02-06 14:34:31.484386+01 | 1486388071.48439 | pgbench_branches |          9322496

 2017-02-06 14:34:32.569189+01 | 1486388072.56919 | pgbench_accounts |      13894320128
 2017-02-06 14:34:32.569189+01 | 1486388072.56919 | pgbench_tellers  |         16769024
 2017-02-06 14:34:32.569189+01 | 1486388072.56919 | pgbench_history  |        313843712
 2017-02-06 14:34:32.569189+01 | 1486388072.56919 | pgbench_branches |          9322496

 2017-02-06 14:34:33.649472+01 | 1486388073.64947 | pgbench_accounts |      13894320128
 2017-02-06 14:34:33.649472+01 | 1486388073.64947 | pgbench_tellers  |         16769024
 2017-02-06 14:34:33.649472+01 | 1486388073.64947 | pgbench_history  |        315015168
 2017-02-06 14:34:33.649472+01 | 1486388073.64947 | pgbench_branches |          9322496

 2017-02-06 14:34:34.734171+01 | 1486388074.73417 | pgbench_accounts |      13894320128
 2017-02-06 14:34:34.734171+01 | 1486388074.73417 | pgbench_tellers  |         16769024
 2017-02-06 14:34:34.734171+01 | 1486388074.73417 | pgbench_history  |        316252160
 2017-02-06 14:34:34.734171+01 | 1486388074.73417 | pgbench_branches |          9322496

 2017-02-06 14:34:35.818121+01 | 1486388075.81812 | pgbench_accounts |      13894320128
 2017-02-06 14:34:35.818121+01 | 1486388075.81812 | pgbench_tellers  |         16769024
 2017-02-06 14:34:35.818121+01 | 1486388075.81812 | pgbench_history  |        317497344
 2017-02-06 14:34:35.818121+01 | 1486388075.81812 | pgbench_branches |          9322496

 2017-02-06 14:34:36.887982+01 | 1486388076.88798 | pgbench_accounts |      13894320128
 2017-02-06 14:34:36.887982+01 | 1486388076.88798 | pgbench_tellers  |         16769024
 2017-02-06 14:34:36.887982+01 | 1486388076.88798 | pgbench_history  |        318717952
 2017-02-06 14:34:36.887982+01 | 1486388076.88798 | pgbench_branches |          9322496

 2017-02-06 14:34:37.951674+01 | 1486388077.95167 | pgbench_accounts |      13894320128
 2017-02-06 14:34:37.951674+01 | 1486388077.95167 | pgbench_tellers  |         16769024
 2017-02-06 14:34:37.951674+01 | 1486388077.95167 | pgbench_history  |        319913984
 2017-02-06 14:34:37.951674+01 | 1486388077.95167 | pgbench_branches |          9322496

 2017-02-06 14:34:39.021688+01 | 1486388079.02169 | pgbench_accounts |      13894320128
 2017-02-06 14:34:39.021688+01 | 1486388079.02169 | pgbench_tellers  |         16769024
 2017-02-06 14:34:39.021688+01 | 1486388079.02169 | pgbench_history  |        321011712
 2017-02-06 14:34:39.021688+01 | 1486388079.02169 | pgbench_branches |          9322496

 2017-02-06 14:34:40.097972+01 | 1486388080.09797 | pgbench_accounts |      13894320128
 2017-02-06 14:34:40.097972+01 | 1486388080.09797 | pgbench_tellers  |         16769024
 2017-02-06 14:34:40.097972+01 | 1486388080.09797 | pgbench_history  |        322535424
 2017-02-06 14:34:40.097972+01 | 1486388080.09797 | pgbench_branches |          9322496

 2017-02-06 14:34:41.187046+01 | 1486388081.18705 | pgbench_accounts |      13894320128
 2017-02-06 14:34:41.187046+01 | 1486388081.18705 | pgbench_tellers  |         16769024
 2017-02-06 14:34:41.187046+01 | 1486388081.18705 | pgbench_history  |        323428352
 2017-02-06 14:34:41.187046+01 | 1486388081.18705 | pgbench_branches |          9322496

