 2017-02-06 07:36:41.5433+01 | 1486363001.5433 |                 0 |               8 |                   228 |                    0 |                 27 |          1369 |               11 |         4915756 |                     0 |     218831431 | 2017-02-06 06:57:50.159005+01

 2017-02-06 07:36:42.731176+01 | 1486363002.73118 |                 0 |               8 |                   228 |                    0 |                 27 |          1369 |               11 |         4915756 |                     0 |     218944091 | 2017-02-06 06:57:50.159005+01

 2017-02-06 07:36:43.899513+01 | 1486363003.89951 |                 0 |               8 |                   228 |                    0 |                 27 |          1369 |               11 |         4915756 |                     0 |     219089574 | 2017-02-06 06:57:50.159005+01

 2017-02-06 07:36:45.028362+01 | 1486363005.02836 |                 0 |               8 |                   228 |                    0 |                 27 |          1369 |               11 |         4915756 |                     0 |     219237142 | 2017-02-06 06:57:50.159005+01

 2017-02-06 07:36:46.168462+01 | 1486363006.16846 |                 0 |               8 |                   228 |                    0 |                 27 |          1370 |               11 |         4915756 |                     0 |     219360392 | 2017-02-06 06:57:50.159005+01

 2017-02-06 07:36:47.320417+01 | 1486363007.32042 |                 0 |               8 |                   228 |                    0 |                 27 |          1370 |               11 |         4915756 |                     0 |     219509758 | 2017-02-06 06:57:50.159005+01

 2017-02-06 07:36:48.442814+01 | 1486363008.44281 |                 0 |               8 |                   228 |                    0 |                 27 |          1372 |               11 |         4915756 |                     0 |     219660124 | 2017-02-06 06:57:50.159005+01

 2017-02-06 07:36:49.613839+01 | 1486363009.61384 |                 0 |               8 |                   228 |                    0 |                 27 |          1372 |               11 |         4915756 |                     0 |     219786031 | 2017-02-06 06:57:50.159005+01

 2017-02-06 07:36:50.774014+01 | 1486363010.77401 |                 0 |               8 |                   228 |                    0 |                 27 |          1372 |               11 |         4915756 |                     0 |     219938350 | 2017-02-06 06:57:50.159005+01

 2017-02-06 07:36:51.914946+01 | 1486363011.91495 |                 0 |               8 |                   228 |                    0 |                 27 |          1372 |               11 |         4915756 |                     0 |     220089645 | 2017-02-06 06:57:50.159005+01

 2017-02-06 07:36:53.051185+01 | 1486363013.05118 |                 0 |               8 |                   228 |                    0 |                 27 |          1372 |               11 |         4915756 |                     0 |     220216694 | 2017-02-06 06:57:50.159005+01

 2017-02-06 07:36:54.173661+01 | 1486363014.17366 |                 0 |               8 |                   228 |                    0 |                 27 |          1372 |               11 |         4915756 |                     0 |     220368598 | 2017-02-06 06:57:50.159005+01

 2017-02-06 07:36:55.328742+01 | 1486363015.32874 |                 0 |               8 |                   228 |                    0 |                 27 |          1373 |               11 |         4915756 |                     0 |     220495908 | 2017-02-06 06:57:50.159005+01

 2017-02-06 07:36:56.475885+01 | 1486363016.47588 |                 0 |               8 |                   228 |                    0 |                 27 |          1373 |               11 |         4915756 |                     0 |     220649988 | 2017-02-06 06:57:50.159005+01

 2017-02-06 07:36:57.638642+01 | 1486363017.63864 |                 0 |               8 |                   228 |                    0 |                 27 |          1373 |               11 |         4915756 |                     0 |     220802217 | 2017-02-06 06:57:50.159005+01

 2017-02-06 07:36:58.786665+01 | 1486363018.78666 |                 0 |               8 |                   228 |                    0 |                 27 |          1373 |               11 |         4915756 |                     0 |     220930827 | 2017-02-06 06:57:50.159005+01

 2017-02-06 07:36:59.936565+01 | 1486363019.93656 |                 0 |               8 |                   228 |                    0 |                 27 |          1373 |               11 |         4915756 |                     0 |     221085479 | 2017-02-06 06:57:50.159005+01

 2017-02-06 07:37:01.080952+01 | 1486363021.08095 |                 0 |               8 |                   228 |                    0 |                 27 |          1373 |               11 |         4915756 |                     0 |     221241051 | 2017-02-06 06:57:50.159005+01

 2017-02-06 07:37:02.211442+01 | 1486363022.21144 |                 0 |               8 |                   228 |                    0 |                 27 |          1373 |               11 |         4915756 |                     0 |     221369259 | 2017-02-06 06:57:50.159005+01

 2017-02-06 07:37:03.364715+01 | 1486363023.36472 |                 0 |               8 |                   228 |                    0 |                 27 |          1373 |               11 |         4915756 |                     0 |     221524756 | 2017-02-06 06:57:50.159005+01

 2017-02-06 07:37:04.516223+01 | 1486363024.51622 |                 0 |               8 |                   228 |                    0 |                 27 |          1373 |               11 |         4915756 |                     0 |     221680125 | 2017-02-06 06:57:50.159005+01

 2017-02-06 07:37:05.65873+01 | 1486363025.65873 |                 0 |               8 |                   228 |                    0 |                 27 |          1373 |               11 |         4915756 |                     0 |     221810606 | 2017-02-06 06:57:50.159005+01

 2017-02-06 07:37:06.803665+01 | 1486363026.80366 |                 0 |               8 |                   228 |                    0 |                 27 |          1373 |               11 |         4915756 |                     0 |     221967077 | 2017-02-06 06:57:50.159005+01

 2017-02-06 07:37:07.923378+01 | 1486363027.92338 |                 0 |               8 |                   228 |                    0 |                 27 |          1373 |               11 |         4915756 |                     0 |     222097834 | 2017-02-06 06:57:50.159005+01

 2017-02-06 07:37:09.086498+01 | 1486363029.0865 |                 0 |               8 |                   228 |                    0 |                 27 |          1373 |               11 |         4915756 |                     0 |     222253643 | 2017-02-06 06:57:50.159005+01

 2017-02-06 07:37:10.246153+01 | 1486363030.24615 |                 0 |               8 |                   228 |                    0 |                 27 |          1373 |               11 |         4915756 |                     0 |     222409890 | 2017-02-06 06:57:50.159005+01

 2017-02-06 07:37:11.401371+01 | 1486363031.40137 |                 0 |               8 |                   228 |                    0 |                 27 |          1373 |               11 |         4915756 |                     0 |     222541340 | 2017-02-06 06:57:50.159005+01

 2017-02-06 07:37:12.545079+01 | 1486363032.54508 |                 0 |               8 |                   228 |                    0 |                 27 |          1373 |               11 |         4915756 |                     0 |     222697829 | 2017-02-06 06:57:50.159005+01

 2017-02-06 07:37:13.694081+01 | 1486363033.69408 |                 0 |               8 |                   228 |                    0 |                 27 |          1373 |               11 |         4915756 |                     0 |     222855654 | 2017-02-06 06:57:50.159005+01

 2017-02-06 07:37:14.889808+01 | 1486363034.88981 |                 0 |               8 |                   228 |                    0 |                 27 |          1373 |               11 |         4915756 |                     0 |     222986858 | 2017-02-06 06:57:50.159005+01

 2017-02-06 07:37:16.06265+01 | 1486363036.06265 |                 0 |               8 |                   228 |                    0 |                 27 |          1373 |               11 |         4915756 |                     0 |     223144765 | 2017-02-06 06:57:50.159005+01

 2017-02-06 07:37:17.202571+01 | 1486363037.20257 |                 0 |               8 |                   228 |                    0 |                 27 |          1373 |               11 |         4915756 |                     0 |     223303353 | 2017-02-06 06:57:50.159005+01

 2017-02-06 07:37:18.356795+01 | 1486363038.3568 |                 0 |               8 |                   228 |                    0 |                 27 |          1373 |               11 |         4915756 |                     0 |     223462185 | 2017-02-06 06:57:50.159005+01

 2017-02-06 07:37:19.528826+01 | 1486363039.52883 |                 0 |               8 |                   228 |                    0 |                 27 |          1373 |               11 |         4915756 |                     0 |     223594687 | 2017-02-06 06:57:50.159005+01

 2017-02-06 07:37:20.71303+01 | 1486363040.71303 |                 0 |               8 |                   228 |                    0 |                 27 |          1373 |               11 |         4915756 |                     0 |     223752934 | 2017-02-06 06:57:50.159005+01

 2017-02-06 07:37:21.856187+01 | 1486363041.85619 |                 0 |               8 |                   228 |                    0 |                 27 |          1373 |               11 |         4915756 |                     0 |     223858746 | 2017-02-06 06:57:50.159005+01

 2017-02-06 07:37:23.006945+01 | 1486363043.00694 |                 0 |               8 |                   228 |                    0 |                 27 |          1373 |               11 |         4915756 |                     0 |     224044772 | 2017-02-06 06:57:50.159005+01

 2017-02-06 07:37:24.145051+01 | 1486363044.14505 |                 0 |               8 |                   228 |                    0 |                 27 |          1373 |               11 |         4915756 |                     0 |     224205838 | 2017-02-06 06:57:50.159005+01

 2017-02-06 07:37:25.2886+01 | 1486363045.2886 |                 0 |               8 |                   228 |                    0 |                 27 |          1373 |               11 |         4915756 |                     0 |     224366457 | 2017-02-06 06:57:50.159005+01

 2017-02-06 07:37:26.425649+01 | 1486363046.42565 |                 0 |               8 |                   228 |                    0 |                 27 |          1373 |               11 |         4915756 |                     0 |     224500071 | 2017-02-06 06:57:50.159005+01

 2017-02-06 07:37:27.580216+01 | 1486363047.58022 |                 0 |               8 |                   228 |                    0 |                 27 |          1373 |               11 |         4915756 |                     0 |     224659926 | 2017-02-06 06:57:50.159005+01

 2017-02-06 07:37:28.711823+01 | 1486363048.71182 |                 0 |               8 |                   228 |                    0 |                 27 |          1373 |               11 |         4915756 |                     0 |     224820175 | 2017-02-06 06:57:50.159005+01

 2017-02-06 07:37:29.858867+01 | 1486363049.85887 |                 0 |               8 |                   228 |                    0 |                 27 |          1373 |               11 |         4915756 |                     0 |     224953756 | 2017-02-06 06:57:50.159005+01

 2017-02-06 07:37:30.991547+01 | 1486363050.99155 |                 0 |               8 |                   228 |                    0 |                 27 |          1373 |               11 |         4915756 |                     0 |     225112421 | 2017-02-06 06:57:50.159005+01

 2017-02-06 07:37:32.115062+01 | 1486363052.11506 |                 0 |               8 |                   228 |                    0 |                 27 |          1373 |               11 |         4915756 |                     0 |     225244499 | 2017-02-06 06:57:50.159005+01

 2017-02-06 07:37:33.26898+01 | 1486363053.26898 |                 0 |               8 |                   228 |                    0 |                 27 |          1373 |               11 |         4915756 |                     0 |     225403369 | 2017-02-06 06:57:50.159005+01

 2017-02-06 07:37:34.387963+01 | 1486363054.38796 |                 0 |               8 |                   228 |                    0 |                 27 |          1373 |               11 |         4915756 |                     0 |     225537239 | 2017-02-06 06:57:50.159005+01

 2017-02-06 07:37:35.514223+01 | 1486363055.51422 |                 0 |               8 |                   228 |                    0 |                 27 |          1373 |               11 |         4915756 |                     0 |     225696747 | 2017-02-06 06:57:50.159005+01

 2017-02-06 07:37:36.666137+01 | 1486363056.66614 |                 0 |               8 |                   228 |                    0 |                 27 |          1373 |               11 |         4915756 |                     0 |     225831482 | 2017-02-06 06:57:50.159005+01

 2017-02-06 07:37:37.794146+01 | 1486363057.79415 |                 0 |               8 |                   228 |                    0 |                 27 |          1373 |               11 |         4915756 |                     0 |     225993642 | 2017-02-06 06:57:50.159005+01

 2017-02-06 07:37:38.916625+01 | 1486363058.91663 |                 0 |               8 |                   228 |                    0 |                 27 |          1373 |               11 |         4915756 |                     0 |     226153453 | 2017-02-06 06:57:50.159005+01

 2017-02-06 07:37:40.098852+01 | 1486363060.09885 |                 0 |               8 |                   228 |                    0 |                 27 |          1373 |               11 |         4915756 |                     0 |     226287663 | 2017-02-06 06:57:50.159005+01

 2017-02-06 07:37:41.253708+01 | 1486363061.25371 |                 0 |               8 |                   228 |                    0 |                 27 |          1373 |               11 |         4915756 |                     0 |     226446689 | 2017-02-06 06:57:50.159005+01

 2017-02-06 07:37:42.385805+01 | 1486363062.3858 |                 0 |               8 |                   228 |                    0 |                 27 |          1373 |               11 |         4915756 |                     0 |     226607384 | 2017-02-06 06:57:50.159005+01

 2017-02-06 07:37:43.545122+01 | 1486363063.54512 |                 0 |               8 |                   228 |                    0 |                 27 |          1373 |               11 |         4915756 |                     0 |     226739909 | 2017-02-06 06:57:50.159005+01

 2017-02-06 07:37:44.690559+01 | 1486363064.69056 |                 0 |               8 |                   228 |                    0 |                 27 |          1373 |               11 |         4915756 |                     0 |     226899972 | 2017-02-06 06:57:50.159005+01

 2017-02-06 07:37:45.824689+01 | 1486363065.82469 |                 0 |               8 |                   228 |                    0 |                 27 |          1373 |               11 |         4915756 |                     0 |     227060794 | 2017-02-06 06:57:50.159005+01

 2017-02-06 07:37:46.959896+01 | 1486363066.9599 |                 0 |               8 |                   228 |                    0 |                 27 |          1373 |               11 |         4915756 |                     0 |     227193933 | 2017-02-06 06:57:50.159005+01

 2017-02-06 07:37:48.118971+01 | 1486363068.11897 |                 0 |               8 |                   228 |                    0 |                 27 |          1373 |               11 |         4915756 |                     0 |     227354709 | 2017-02-06 06:57:50.159005+01

 2017-02-06 07:37:49.260681+01 | 1486363069.26068 |                 0 |               8 |                   228 |                    0 |                 27 |          1373 |               11 |         4915756 |                     0 |     227488972 | 2017-02-06 06:57:50.159005+01

 2017-02-06 07:37:50.396033+01 | 1486363070.39603 |                 0 |               8 |                   228 |                    0 |                 27 |          1373 |               11 |         4915756 |                     0 |     227651228 | 2017-02-06 06:57:50.159005+01

 2017-02-06 07:37:51.538834+01 | 1486363071.53883 |                 0 |               8 |                   228 |                    0 |                 27 |          1373 |               11 |         4915756 |                     0 |     227811739 | 2017-02-06 06:57:50.159005+01

 2017-02-06 07:37:52.670281+01 | 1486363072.67028 |                 0 |               8 |                   228 |                    0 |                 27 |          1373 |               11 |         4915756 |                     0 |     227945833 | 2017-02-06 06:57:50.159005+01

 2017-02-06 07:37:53.818502+01 | 1486363073.8185 |                 0 |               8 |                   228 |                    0 |                 27 |          1373 |               11 |         4915756 |                     0 |     228107048 | 2017-02-06 06:57:50.159005+01

 2017-02-06 07:37:54.962585+01 | 1486363074.96258 |                 0 |               8 |                   228 |                    0 |                 27 |          1373 |               11 |         4915756 |                     0 |     228242029 | 2017-02-06 06:57:50.159005+01

 2017-02-06 07:37:56.119873+01 | 1486363076.11987 |                 0 |               8 |                   228 |                    0 |                 27 |          1373 |               11 |         4915756 |                     0 |     228402970 | 2017-02-06 06:57:50.159005+01

 2017-02-06 07:37:57.289148+01 | 1486363077.28915 |                 0 |               8 |                   228 |                    0 |                 27 |          1373 |               11 |         4915756 |                     0 |     228564334 | 2017-02-06 06:57:50.159005+01

 2017-02-06 07:37:58.447414+01 | 1486363078.44741 |                 0 |               8 |                   228 |                    0 |                 27 |          1373 |               11 |         4915756 |                     0 |     228699245 | 2017-02-06 06:57:50.159005+01

 2017-02-06 07:37:59.597256+01 | 1486363079.59726 |                 0 |               8 |                   228 |                    0 |                 27 |          1373 |               11 |         4915756 |                     0 |     228862315 | 2017-02-06 06:57:50.159005+01

 2017-02-06 07:38:00.744705+01 | 1486363080.7447 |                 0 |               8 |                   228 |                    0 |                 27 |          1373 |               11 |         4915756 |                     0 |     229024944 | 2017-02-06 06:57:50.159005+01

 2017-02-06 07:38:01.891221+01 | 1486363081.89122 |                 0 |               8 |                   228 |                    0 |                 27 |          1373 |               11 |         4915756 |                     0 |     229159805 | 2017-02-06 06:57:50.159005+01

 2017-02-06 07:38:03.029916+01 | 1486363083.02992 |                 0 |               8 |                   228 |                    0 |                 27 |          1373 |               11 |         4915756 |                     0 |     229322722 | 2017-02-06 06:57:50.159005+01

 2017-02-06 07:38:04.174781+01 | 1486363084.17478 |                 0 |               8 |                   228 |                    0 |                 27 |          1373 |               11 |         4915756 |                     0 |     229485693 | 2017-02-06 06:57:50.159005+01

 2017-02-06 07:38:05.293163+01 | 1486363085.29316 |                 0 |               8 |                   228 |                    0 |                 27 |          1373 |               11 |         4915756 |                     0 |     229619839 | 2017-02-06 06:57:50.159005+01

 2017-02-06 07:38:06.436287+01 | 1486363086.43629 |                 0 |               8 |                   228 |                    0 |                 27 |          1373 |               11 |         4915756 |                     0 |     229781850 | 2017-02-06 06:57:50.159005+01

 2017-02-06 07:38:07.566586+01 | 1486363087.56659 |                 0 |               8 |                   228 |                    0 |                 27 |          1373 |               11 |         4915756 |                     0 |     229917565 | 2017-02-06 06:57:50.159005+01

 2017-02-06 07:38:08.695249+01 | 1486363088.69525 |                 0 |               8 |                   228 |                    0 |                 27 |          1373 |               11 |         4915756 |                     0 |     230079798 | 2017-02-06 06:57:50.159005+01

 2017-02-06 07:38:09.887588+01 | 1486363089.88759 |                 0 |               8 |                   228 |                    0 |                 27 |          1373 |               11 |         4915756 |                     0 |     230241726 | 2017-02-06 06:57:50.159005+01

 2017-02-06 07:38:11.012291+01 | 1486363091.01229 |                 0 |               8 |                   228 |                    0 |                 27 |          1373 |               11 |         4915756 |                     0 |     230377004 | 2017-02-06 06:57:50.159005+01

 2017-02-06 07:38:12.173654+01 | 1486363092.17365 |                 0 |               8 |                   228 |                    0 |                 27 |          1373 |               11 |         4915756 |                     0 |     230538756 | 2017-02-06 06:57:50.159005+01

 2017-02-06 07:38:13.336141+01 | 1486363093.33614 |                 0 |               8 |                   228 |                    0 |                 27 |          1373 |               11 |         4915756 |                     0 |     230702399 | 2017-02-06 06:57:50.159005+01

 2017-02-06 07:38:14.49545+01 | 1486363094.49545 |                 0 |               8 |                   228 |                    0 |                 27 |          1373 |               11 |         4915756 |                     0 |     230838793 | 2017-02-06 06:57:50.159005+01

 2017-02-06 07:38:15.647785+01 | 1486363095.64778 |                 0 |               8 |                   228 |                    0 |                 27 |          1373 |               11 |         4915756 |                     0 |     231000393 | 2017-02-06 06:57:50.159005+01

 2017-02-06 07:38:16.787377+01 | 1486363096.78738 |                 0 |               8 |                   228 |                    0 |                 27 |          1373 |               11 |         4915756 |                     0 |     231163641 | 2017-02-06 06:57:50.159005+01

 2017-02-06 07:38:17.945099+01 | 1486363097.9451 |                 0 |               8 |                   228 |                    0 |                 27 |          1373 |               11 |         4915756 |                     0 |     231299242 | 2017-02-06 06:57:50.159005+01

 2017-02-06 07:38:19.100755+01 | 1486363099.10075 |                 0 |               8 |                   228 |                    0 |                 27 |          1373 |               11 |         4915756 |                     0 |     231461566 | 2017-02-06 06:57:50.159005+01

 2017-02-06 07:38:20.253114+01 | 1486363100.25311 |                 0 |               8 |                   228 |                    0 |                 27 |          1373 |               11 |         4915756 |                     0 |     231624900 | 2017-02-06 06:57:50.159005+01

 2017-02-06 07:38:21.390064+01 | 1486363101.39006 |                 0 |               8 |                   228 |                    0 |                 27 |          1373 |               11 |         4915756 |                     0 |     231759651 | 2017-02-06 06:57:50.159005+01

 2017-02-06 07:38:22.532635+01 | 1486363102.53263 |                 0 |               8 |                   228 |                    0 |                 27 |          1373 |               11 |         4915756 |                     0 |     231923432 | 2017-02-06 06:57:50.159005+01

 2017-02-06 07:38:23.670262+01 | 1486363103.67026 |                 0 |               8 |                   228 |                    0 |                 27 |          1373 |               11 |         4915756 |                     0 |     232057687 | 2017-02-06 06:57:50.159005+01

 2017-02-06 07:38:24.820139+01 | 1486363104.82014 |                 0 |               8 |                   228 |                    0 |                 27 |          1373 |               11 |         4915756 |                     0 |     232221798 | 2017-02-06 06:57:50.159005+01

 2017-02-06 07:38:25.99254+01 | 1486363105.99254 |                 0 |               8 |                   228 |                    0 |                 27 |          1373 |               11 |         4915756 |                     0 |     232385118 | 2017-02-06 06:57:50.159005+01

 2017-02-06 07:38:27.156742+01 | 1486363107.15674 |                 0 |               8 |                   228 |                    0 |                 27 |          1373 |               11 |         4915756 |                     0 |     232520962 | 2017-02-06 06:57:50.159005+01

 2017-02-06 07:38:28.323485+01 | 1486363108.32348 |                 0 |               8 |                   228 |                    0 |                 27 |          1373 |               11 |         4915756 |                     0 |     232684561 | 2017-02-06 06:57:50.159005+01

 2017-02-06 07:38:29.477575+01 | 1486363109.47758 |                 0 |               8 |                   228 |                    0 |                 27 |          1373 |               11 |         4915756 |                     0 |     232847170 | 2017-02-06 06:57:50.159005+01

 2017-02-06 07:38:30.628627+01 | 1486363110.62863 |                 0 |               8 |                   228 |                    0 |                 27 |          1373 |               11 |         4915756 |                     0 |     233010767 | 2017-02-06 06:57:50.159005+01

 2017-02-06 07:38:31.766396+01 | 1486363111.7664 |                 0 |               8 |                   228 |                    0 |                 27 |          1373 |               11 |         4915756 |                     0 |     233146578 | 2017-02-06 06:57:50.159005+01

 2017-02-06 07:38:32.906123+01 | 1486363112.90612 |                 0 |               8 |                   228 |                    0 |                 27 |          1373 |               11 |         4915756 |                     0 |     233309567 | 2017-02-06 06:57:50.159005+01

 2017-02-06 07:38:34.053967+01 | 1486363114.05397 |                 0 |               8 |                   228 |                    0 |                 27 |          1373 |               11 |         4915756 |                     0 |     233445119 | 2017-02-06 06:57:50.159005+01

 2017-02-06 07:38:35.196213+01 | 1486363115.19621 |                 0 |               8 |                   228 |                    0 |                 27 |          1373 |               11 |         4915756 |                     0 |     233607439 | 2017-02-06 06:57:50.159005+01

 2017-02-06 07:38:36.327032+01 | 1486363116.32703 |                 0 |               8 |                   228 |                    0 |                 27 |          1373 |               11 |         4915756 |                     0 |     233770766 | 2017-02-06 06:57:50.159005+01

 2017-02-06 07:38:37.456231+01 | 1486363117.45623 |                 0 |               8 |                   228 |                    0 |                 27 |          1373 |               11 |         4915756 |                     0 |     233906529 | 2017-02-06 06:57:50.159005+01

 2017-02-06 07:38:38.599343+01 | 1486363118.59934 |                 0 |               8 |                   228 |                    0 |                 27 |          1373 |               11 |         4915756 |                     0 |     234069883 | 2017-02-06 06:57:50.159005+01

 2017-02-06 07:38:39.741045+01 | 1486363119.74104 |                 0 |               8 |                   228 |                    0 |                 27 |          1373 |               11 |         4915756 |                     0 |     234206516 | 2017-02-06 06:57:50.159005+01

 2017-02-06 07:38:40.869028+01 | 1486363120.86903 |                 0 |               8 |                   228 |                    0 |                 27 |          1373 |               11 |         4915756 |                     0 |     234371207 | 2017-02-06 06:57:50.159005+01

 2017-02-06 07:38:41.996272+01 | 1486363121.99627 |                 0 |               8 |                   228 |                    0 |                 27 |          1373 |               11 |         4915756 |                     0 |     234507582 | 2017-02-06 06:57:50.159005+01

 2017-02-06 07:38:43.120195+01 | 1486363123.12019 |                 0 |               8 |                   228 |                    0 |                 27 |          1373 |               11 |         4915756 |                     0 |     234669288 | 2017-02-06 06:57:50.159005+01

 2017-02-06 07:38:44.253791+01 | 1486363124.25379 |                 0 |               8 |                   228 |                    0 |                 27 |          1373 |               11 |         4915756 |                     0 |     234832342 | 2017-02-06 06:57:50.159005+01

 2017-02-06 07:38:45.421197+01 | 1486363125.4212 |                 0 |               8 |                   228 |                    0 |                 27 |          1373 |               11 |         4915756 |                     0 |     234967234 | 2017-02-06 06:57:50.159005+01

 2017-02-06 07:38:46.55308+01 | 1486363126.55308 |                 0 |               8 |                   228 |                    0 |                 27 |          1373 |               11 |         4915756 |                     0 |     235129665 | 2017-02-06 06:57:50.159005+01

 2017-02-06 07:38:47.705755+01 | 1486363127.70575 |                 0 |               8 |                   228 |                    0 |                 27 |          1373 |               11 |         4915756 |                     0 |     235264810 | 2017-02-06 06:57:50.159005+01

 2017-02-06 07:38:48.85968+01 | 1486363128.85968 |                 0 |               8 |                   228 |                    0 |                 27 |          1373 |               11 |         4915756 |                     0 |     235429635 | 2017-02-06 06:57:50.159005+01

 2017-02-06 07:38:50.04025+01 | 1486363130.04025 |                 0 |               8 |                   228 |                    0 |                 27 |          1373 |               11 |         4915756 |                     0 |     235593287 | 2017-02-06 06:57:50.159005+01

 2017-02-06 07:38:51.190995+01 | 1486363131.19099 |                 0 |               8 |                   228 |                    0 |                 27 |          1373 |               11 |         4915756 |                     0 |     235755802 | 2017-02-06 06:57:50.159005+01

 2017-02-06 07:38:52.349671+01 | 1486363132.34967 |                 0 |               8 |                   228 |                    0 |                 27 |          1373 |               11 |         4915756 |                     0 |     235891898 | 2017-02-06 06:57:50.159005+01

 2017-02-06 07:38:53.483531+01 | 1486363133.48353 |                 0 |               8 |                   228 |                    0 |                 27 |          1373 |               11 |         4915756 |                     0 |     236055146 | 2017-02-06 06:57:50.159005+01

 2017-02-06 07:38:54.607245+01 | 1486363134.60724 |                 0 |               8 |                   228 |                    0 |                 27 |          1373 |               11 |         4915756 |                     0 |     236190744 | 2017-02-06 06:57:50.159005+01

 2017-02-06 07:38:55.815333+01 | 1486363135.81533 |                 0 |               8 |                   228 |                    0 |                 27 |          1373 |               11 |         4915756 |                     0 |     236352987 | 2017-02-06 06:57:50.159005+01

 2017-02-06 07:38:56.966445+01 | 1486363136.96644 |                 0 |               8 |                   228 |                    0 |                 27 |          1373 |               11 |         4915756 |                     0 |     236514771 | 2017-02-06 06:57:50.159005+01

 2017-02-06 07:38:58.115254+01 | 1486363138.11525 |                 0 |               8 |                   228 |                    0 |                 27 |          1373 |               11 |         4915756 |                     0 |     236678867 | 2017-02-06 06:57:50.159005+01

 2017-02-06 07:38:59.261905+01 | 1486363139.2619 |                 0 |               8 |                   228 |                    0 |                 27 |          1373 |               11 |         4915756 |                     0 |     236815577 | 2017-02-06 06:57:50.159005+01

 2017-02-06 07:39:00.407182+01 | 1486363140.40718 |                 0 |               8 |                   228 |                    0 |                 27 |          1373 |               11 |         4915756 |                     0 |     236978803 | 2017-02-06 06:57:50.159005+01

 2017-02-06 07:39:01.567451+01 | 1486363141.56745 |                 0 |               8 |                   228 |                    0 |                 27 |          1373 |               11 |         4915756 |                     0 |     237115247 | 2017-02-06 06:57:50.159005+01

 2017-02-06 07:39:02.731738+01 | 1486363142.73174 |                 0 |               8 |                   228 |                    0 |                 27 |          1373 |               11 |         4915756 |                     0 |     237277064 | 2017-02-06 06:57:50.159005+01

 2017-02-06 07:39:03.878045+01 | 1486363143.87805 |                 0 |               8 |                   228 |                    0 |                 27 |          1373 |               11 |         4915756 |                     0 |     237438689 | 2017-02-06 06:57:50.159005+01

 2017-02-06 07:39:05.004505+01 | 1486363145.0045 |                 0 |               8 |                   228 |                    0 |                 27 |          1373 |               11 |         4915756 |                     0 |     237601455 | 2017-02-06 06:57:50.159005+01

 2017-02-06 07:39:06.157108+01 | 1486363146.15711 |                 0 |               8 |                   228 |                    0 |                 27 |          1373 |               11 |         4915756 |                     0 |     237737589 | 2017-02-06 06:57:50.159005+01

 2017-02-06 07:39:07.30695+01 | 1486363147.30695 |                 0 |               8 |                   228 |                    0 |                 27 |          1373 |               11 |         4915756 |                     0 |     237901062 | 2017-02-06 06:57:50.159005+01

 2017-02-06 07:39:08.474173+01 | 1486363148.47417 |                 0 |               8 |                   228 |                    0 |                 27 |          1373 |               11 |         4915756 |                     0 |     238038057 | 2017-02-06 06:57:50.159005+01

 2017-02-06 07:39:09.612632+01 | 1486363149.61263 |                 0 |               8 |                   228 |                    0 |                 27 |          1373 |               11 |         4915756 |                     0 |     238201313 | 2017-02-06 06:57:50.159005+01

 2017-02-06 07:39:10.757965+01 | 1486363150.75797 |                 0 |               8 |                   228 |                    0 |                 27 |          1373 |               11 |         4915756 |                     0 |     238365286 | 2017-02-06 06:57:50.159005+01

 2017-02-06 07:39:11.95006+01 | 1486363151.95006 |                 0 |               8 |                   228 |                    0 |                 27 |          1373 |               11 |         4915756 |                     0 |     238501905 | 2017-02-06 06:57:50.159005+01

 2017-02-06 07:39:13.111853+01 | 1486363153.11185 |                 0 |               8 |                   228 |                    0 |                 27 |          1373 |               11 |         4915756 |                     0 |     238666013 | 2017-02-06 06:57:50.159005+01

 2017-02-06 07:39:14.252112+01 | 1486363154.25211 |                 0 |               8 |                   228 |                    0 |                 27 |          1373 |               11 |         4915756 |                     0 |     238829662 | 2017-02-06 06:57:50.159005+01

 2017-02-06 07:39:15.38705+01 | 1486363155.38705 |                 0 |               8 |                   228 |                    0 |                 27 |          1373 |               11 |         4915756 |                     0 |     238965958 | 2017-02-06 06:57:50.159005+01

 2017-02-06 07:39:16.522803+01 | 1486363156.5228 |                 0 |               8 |                   228 |                    0 |                 27 |          1373 |               11 |         4915756 |                     0 |     239129523 | 2017-02-06 06:57:50.159005+01

 2017-02-06 07:39:17.658478+01 | 1486363157.65848 |                 0 |               8 |                   228 |                    0 |                 27 |          1373 |               11 |         4915756 |                     0 |     239293904 | 2017-02-06 06:57:50.159005+01

 2017-02-06 07:39:18.777504+01 | 1486363158.7775 |                 0 |               8 |                   228 |                    0 |                 27 |          1373 |               11 |         4915756 |                     0 |     239431024 | 2017-02-06 06:57:50.159005+01

 2017-02-06 07:39:19.948368+01 | 1486363159.94837 |                 0 |               8 |                   228 |                    0 |                 27 |          1373 |               11 |         4915756 |                     0 |     239594720 | 2017-02-06 06:57:50.159005+01

 2017-02-06 07:39:21.092464+01 | 1486363161.09246 |                 0 |               8 |                   228 |                    0 |                 27 |          1373 |               11 |         4915756 |                     0 |     239731374 | 2017-02-06 06:57:50.159005+01

 2017-02-06 07:39:22.246922+01 | 1486363162.24692 |                 0 |               8 |                   228 |                    0 |                 27 |          1373 |               11 |         4915756 |                     0 |     239896192 | 2017-02-06 06:57:50.159005+01

 2017-02-06 07:39:23.385213+01 | 1486363163.38521 |                 0 |               8 |                   228 |                    0 |                 27 |          1373 |               11 |         4915756 |                     0 |     240060634 | 2017-02-06 06:57:50.159005+01

 2017-02-06 07:39:24.539113+01 | 1486363164.53911 |                 0 |               8 |                   228 |                    0 |                 27 |          1373 |               11 |         4915756 |                     0 |     240197450 | 2017-02-06 06:57:50.159005+01

 2017-02-06 07:39:25.687959+01 | 1486363165.68796 |                 0 |               8 |                   228 |                    0 |                 27 |          1373 |               11 |         4915756 |                     0 |     240361540 | 2017-02-06 06:57:50.159005+01

 2017-02-06 07:39:26.832528+01 | 1486363166.83253 |                 0 |               8 |                   228 |                    0 |                 27 |          1373 |               11 |         4915756 |                     0 |     240525020 | 2017-02-06 06:57:50.159005+01

 2017-02-06 07:39:27.969486+01 | 1486363167.96949 |                 0 |               8 |                   228 |                    0 |                 27 |          1373 |               11 |         4915756 |                     0 |     240662050 | 2017-02-06 06:57:50.159005+01

 2017-02-06 07:39:29.118565+01 | 1486363169.11857 |                 0 |               8 |                   228 |                    0 |                 27 |          1373 |               11 |         4915756 |                     0 |     240826390 | 2017-02-06 06:57:50.159005+01

 2017-02-06 07:39:30.262236+01 | 1486363170.26224 |                 0 |               8 |                   228 |                    0 |                 27 |          1373 |               11 |         4915756 |                     0 |     240991676 | 2017-02-06 06:57:50.159005+01

 2017-02-06 07:39:31.388498+01 | 1486363171.3885 |                 0 |               8 |                   228 |                    0 |                 27 |          1373 |               11 |         4915756 |                     0 |     241128657 | 2017-02-06 06:57:50.159005+01

 2017-02-06 07:39:32.53763+01 | 1486363172.53763 |                 0 |               8 |                   228 |                    0 |                 27 |          1373 |               11 |         4915756 |                     0 |     241292860 | 2017-02-06 06:57:50.159005+01

 2017-02-06 07:39:33.678252+01 | 1486363173.67825 |                 0 |               8 |                   228 |                    0 |                 27 |          1373 |               11 |         4915756 |                     0 |     241429878 | 2017-02-06 06:57:50.159005+01

 2017-02-06 07:39:34.849493+01 | 1486363174.84949 |                 0 |               8 |                   228 |                    0 |                 27 |          1373 |               11 |         4915756 |                     0 |     241594322 | 2017-02-06 06:57:50.159005+01

 2017-02-06 07:39:35.987735+01 | 1486363175.98774 |                 0 |               8 |                   228 |                    0 |                 27 |          1373 |               11 |         4915756 |                     0 |     241757687 | 2017-02-06 06:57:50.159005+01

 2017-02-06 07:39:37.126229+01 | 1486363177.12623 |                 0 |               8 |                   228 |                    0 |                 27 |          1373 |               11 |         4915756 |                     0 |     241893662 | 2017-02-06 06:57:50.159005+01

 2017-02-06 07:39:38.274208+01 | 1486363178.27421 |                 0 |               8 |                   228 |                    0 |                 27 |          1373 |               11 |         4915756 |                     0 |     242057452 | 2017-02-06 06:57:50.159005+01

 2017-02-06 07:39:39.405821+01 | 1486363179.40582 |                 0 |               8 |                   228 |                    0 |                 27 |          1373 |               11 |         4915756 |                     0 |     242194756 | 2017-02-06 06:57:50.159005+01

 2017-02-06 07:39:40.574527+01 | 1486363180.57453 |                 0 |               8 |                   228 |                    0 |                 27 |          1373 |               11 |         4915756 |                     0 |     242358290 | 2017-02-06 06:57:50.159005+01

 2017-02-06 07:39:41.731818+01 | 1486363181.73182 |                 0 |               8 |                   228 |                    0 |                 27 |          1373 |               11 |         4915756 |                     0 |     242522778 | 2017-02-06 06:57:50.159005+01

 2017-02-06 07:39:42.875709+01 | 1486363182.87571 |                 0 |               8 |                   228 |                    0 |                 27 |          1373 |               11 |         4915756 |                     0 |     242659538 | 2017-02-06 06:57:50.159005+01

 2017-02-06 07:39:44.007207+01 | 1486363184.00721 |                 0 |               8 |                   228 |                    0 |                 27 |          1373 |               11 |         4915756 |                     0 |     242822754 | 2017-02-06 06:57:50.159005+01

 2017-02-06 07:39:45.156428+01 | 1486363185.15643 |                 0 |               8 |                   228 |                    0 |                 27 |          1373 |               11 |         4915756 |                     0 |     242986122 | 2017-02-06 06:57:50.159005+01

 2017-02-06 07:39:46.265868+01 | 1486363186.26587 |                 0 |               8 |                   228 |                    0 |                 27 |          1373 |               11 |         4915756 |                     0 |     243122290 | 2017-02-06 06:57:50.159005+01

 2017-02-06 07:39:47.404576+01 | 1486363187.40458 |                 0 |               8 |                   228 |                    0 |                 27 |          1373 |               11 |         4915756 |                     0 |     243286540 | 2017-02-06 06:57:50.159005+01

 2017-02-06 07:39:48.545126+01 | 1486363188.54513 |                 0 |               8 |                   228 |                    0 |                 27 |          1373 |               11 |         4915756 |                     0 |     243423644 | 2017-02-06 06:57:50.159005+01

 2017-02-06 07:39:49.702678+01 | 1486363189.70268 |                 0 |               8 |                   228 |                    0 |                 27 |          1373 |               11 |         4915756 |                     0 |     243587570 | 2017-02-06 06:57:50.159005+01

 2017-02-06 07:39:50.844237+01 | 1486363190.84424 |                 0 |               8 |                   228 |                    0 |                 27 |          1373 |               11 |         4915756 |                     0 |     243752276 | 2017-02-06 06:57:50.159005+01

 2017-02-06 07:39:51.973579+01 | 1486363191.97358 |                 0 |               8 |                   228 |                    0 |                 27 |          1373 |               11 |         4915756 |                     0 |     243888925 | 2017-02-06 06:57:50.159005+01

 2017-02-06 07:39:53.12986+01 | 1486363193.12986 |                 0 |               8 |                   228 |                    0 |                 27 |          1373 |               11 |         4915756 |                     0 |     244052441 | 2017-02-06 06:57:50.159005+01

 2017-02-06 07:39:54.275759+01 | 1486363194.27576 |                 0 |               8 |                   228 |                    0 |                 27 |          1373 |               11 |         4915756 |                     0 |     244190096 | 2017-02-06 06:57:50.159005+01

 2017-02-06 07:39:55.419282+01 | 1486363195.41928 |                 0 |               8 |                   228 |                    0 |                 27 |          1373 |               11 |         4915756 |                     0 |     244353937 | 2017-02-06 06:57:50.159005+01

 2017-02-06 07:39:56.570077+01 | 1486363196.57008 |                 0 |               8 |                   228 |                    0 |                 27 |          1373 |               11 |         4915756 |                     0 |     244518006 | 2017-02-06 06:57:50.159005+01

 2017-02-06 07:39:57.740007+01 | 1486363197.74001 |                 0 |               8 |                   228 |                    0 |                 27 |          1373 |               11 |         4915756 |                     0 |     244654835 | 2017-02-06 06:57:50.159005+01

 2017-02-06 07:39:58.89248+01 | 1486363198.89248 |                 0 |               8 |                   228 |                    0 |                 27 |          1373 |               11 |         4915756 |                     0 |     244819679 | 2017-02-06 06:57:50.159005+01

 2017-02-06 07:40:00.061248+01 | 1486363200.06125 |                 0 |               8 |                   228 |                    0 |                 27 |          1373 |               11 |         4915756 |                     0 |     244983022 | 2017-02-06 06:57:50.159005+01

 2017-02-06 07:40:01.236975+01 | 1486363201.23697 |                 0 |               8 |                   228 |                    0 |                 27 |          1373 |               11 |         4915756 |                     0 |     245146999 | 2017-02-06 06:57:50.159005+01

 2017-02-06 07:40:02.385606+01 | 1486363202.38561 |                 0 |               8 |                   228 |                    0 |                 27 |          1373 |               11 |         4915756 |                     0 |     245282032 | 2017-02-06 06:57:50.159005+01

 2017-02-06 07:40:03.519079+01 | 1486363203.51908 |                 0 |               8 |                   228 |                    0 |                 27 |          1373 |               11 |         4915756 |                     0 |     245446320 | 2017-02-06 06:57:50.159005+01

 2017-02-06 07:40:04.668022+01 | 1486363204.66802 |                 0 |               8 |                   228 |                    0 |                 27 |          1373 |               11 |         4915756 |                     0 |     245611070 | 2017-02-06 06:57:50.159005+01

 2017-02-06 07:40:05.814732+01 | 1486363205.81473 |                 0 |               8 |                   228 |                    0 |                 27 |          1373 |               11 |         4915756 |                     0 |     245746707 | 2017-02-06 06:57:50.159005+01

 2017-02-06 07:40:06.948871+01 | 1486363206.94887 |                 0 |               8 |                   228 |                    0 |                 27 |          1373 |               11 |         4915756 |                     0 |     245910257 | 2017-02-06 06:57:50.159005+01

 2017-02-06 07:40:08.094914+01 | 1486363208.09491 |                 0 |               8 |                   228 |                    0 |                 27 |          1373 |               11 |         4915756 |                     0 |     246047215 | 2017-02-06 06:57:50.159005+01

 2017-02-06 07:40:09.246298+01 | 1486363209.2463 |                 0 |               8 |                   228 |                    0 |                 27 |          1373 |               11 |         4915756 |                     0 |     246211277 | 2017-02-06 06:57:50.159005+01

 2017-02-06 07:40:10.396564+01 | 1486363210.39656 |                 0 |               8 |                   228 |                    0 |                 27 |          1373 |               11 |         4915756 |                     0 |     246374811 | 2017-02-06 06:57:50.159005+01

 2017-02-06 07:40:11.55342+01 | 1486363211.55342 |                 0 |               8 |                   228 |                    0 |                 27 |          1373 |               11 |         4915756 |                     0 |     246512089 | 2017-02-06 06:57:50.159005+01

 2017-02-06 07:40:12.701066+01 | 1486363212.70107 |                 0 |               8 |                   228 |                    0 |                 27 |          1373 |               11 |         4915756 |                     0 |     246674134 | 2017-02-06 06:57:50.159005+01

 2017-02-06 07:40:13.862228+01 | 1486363213.86223 |                 0 |               8 |                   228 |                    0 |                 27 |          1373 |               11 |         4915756 |                     0 |     246838448 | 2017-02-06 06:57:50.159005+01

 2017-02-06 07:40:15.015944+01 | 1486363215.01594 |                 0 |               8 |                   228 |                    0 |                 27 |          1373 |               11 |         4915756 |                     0 |     246975601 | 2017-02-06 06:57:50.159005+01

 2017-02-06 07:40:16.193929+01 | 1486363216.19393 |                 0 |               8 |                   228 |                    0 |                 27 |          1373 |               11 |         4915756 |                     0 |     247140568 | 2017-02-06 06:57:50.159005+01

 2017-02-06 07:40:17.350663+01 | 1486363217.35066 |                 0 |               8 |                   228 |                    0 |                 27 |          1373 |               11 |         4915756 |                     0 |     247304785 | 2017-02-06 06:57:50.159005+01

 2017-02-06 07:40:18.489166+01 | 1486363218.48917 |                 0 |               8 |                   228 |                    0 |                 27 |          1373 |               11 |         4915756 |                     0 |     247441564 | 2017-02-06 06:57:50.159005+01

 2017-02-06 07:40:19.635344+01 | 1486363219.63534 |                 0 |               8 |                   228 |                    0 |                 27 |          1373 |               11 |         4915756 |                     0 |     247606265 | 2017-02-06 06:57:50.159005+01

 2017-02-06 07:40:20.788317+01 | 1486363220.78832 |                 0 |               8 |                   228 |                    0 |                 27 |          1373 |               11 |         4915756 |                     0 |     247770259 | 2017-02-06 06:57:50.159005+01

 2017-02-06 07:40:21.903634+01 | 1486363221.90363 |                 0 |               8 |                   228 |                    0 |                 27 |          1373 |               11 |         4915756 |                     0 |     247879123 | 2017-02-06 06:57:50.159005+01

 2017-02-06 07:40:23.048718+01 | 1486363223.04872 |                 0 |               8 |                   228 |                    0 |                 27 |          1373 |               11 |         4915756 |                     0 |     248071621 | 2017-02-06 06:57:50.159005+01

 2017-02-06 07:40:24.201128+01 | 1486363224.20113 |                 0 |               8 |                   228 |                    0 |                 27 |          1373 |               11 |         4915756 |                     0 |     248208767 | 2017-02-06 06:57:50.159005+01

 2017-02-06 07:40:25.362859+01 | 1486363225.36286 |                 0 |               8 |                   228 |                    0 |                 27 |          1373 |               11 |         4915756 |                     0 |     248373457 | 2017-02-06 06:57:50.159005+01

 2017-02-06 07:40:26.539637+01 | 1486363226.53964 |                 0 |               8 |                   228 |                    0 |                 27 |          1373 |               11 |         4915756 |                     0 |     248538174 | 2017-02-06 06:57:50.159005+01

 2017-02-06 07:40:27.69519+01 | 1486363227.69519 |                 0 |               8 |                   228 |                    0 |                 27 |          1373 |               11 |         4915756 |                     0 |     248702569 | 2017-02-06 06:57:50.159005+01

 2017-02-06 07:40:28.842299+01 | 1486363228.8423 |                 0 |               8 |                   228 |                    0 |                 27 |          1373 |               11 |         4915756 |                     0 |     248840138 | 2017-02-06 06:57:50.159005+01

 2017-02-06 07:40:29.983604+01 | 1486363229.9836 |                 0 |               8 |                   228 |                    0 |                 27 |          1373 |               11 |         4915756 |                     0 |     249005324 | 2017-02-06 06:57:50.159005+01

 2017-02-06 07:40:31.127299+01 | 1486363231.1273 |                 0 |               8 |                   228 |                    0 |                 27 |          1373 |               11 |         4915756 |                     0 |     249141485 | 2017-02-06 06:57:50.159005+01

 2017-02-06 07:40:32.260658+01 | 1486363232.26066 |                 0 |               8 |                   228 |                    0 |                 27 |          1373 |               11 |         4915756 |                     0 |     249305065 | 2017-02-06 06:57:50.159005+01

 2017-02-06 07:40:33.429119+01 | 1486363233.42912 |                 0 |               8 |                   228 |                    0 |                 27 |          1373 |               11 |         4915756 |                     0 |     249468970 | 2017-02-06 06:57:50.159005+01

 2017-02-06 07:40:34.529976+01 | 1486363234.52998 |                 0 |               8 |                   228 |                    0 |                 27 |          1373 |               11 |         4915756 |                     0 |     249605815 | 2017-02-06 06:57:50.159005+01

 2017-02-06 07:40:35.66867+01 | 1486363235.66867 |                 0 |               8 |                   228 |                    0 |                 27 |          1373 |               11 |         4915756 |                     0 |     249770741 | 2017-02-06 06:57:50.159005+01

 2017-02-06 07:40:36.810198+01 | 1486363236.8102 |                 0 |               8 |                   228 |                    0 |                 27 |          1373 |               11 |         4915756 |                     0 |     249907675 | 2017-02-06 06:57:50.159005+01

 2017-02-06 07:40:37.968142+01 | 1486363237.96814 |                 0 |               8 |                   228 |                    0 |                 27 |          1373 |               11 |         4915756 |                     0 |     250070818 | 2017-02-06 06:57:50.159005+01

 2017-02-06 07:40:39.099347+01 | 1486363239.09935 |                 0 |               8 |                   228 |                    0 |                 27 |          1373 |               11 |         4915756 |                     0 |     250235432 | 2017-02-06 06:57:50.159005+01

 2017-02-06 07:40:40.25623+01 | 1486363240.25623 |                 0 |               8 |                   228 |                    0 |                 27 |          1373 |               11 |         4915756 |                     0 |     250371300 | 2017-02-06 06:57:50.159005+01

 2017-02-06 07:40:41.410895+01 | 1486363241.4109 |                 0 |               8 |                   228 |                    0 |                 27 |          1373 |               11 |         4915756 |                     0 |     250535266 | 2017-02-06 06:57:50.159005+01

 2017-02-06 07:40:42.545941+01 | 1486363242.54594 |                 0 |               8 |                   228 |                    0 |                 27 |          1373 |               11 |         4915756 |                     0 |     250699229 | 2017-02-06 06:57:50.159005+01

 2017-02-06 07:40:43.693667+01 | 1486363243.69367 |                 0 |               8 |                   228 |                    0 |                 27 |          1373 |               11 |         4915756 |                     0 |     250835889 | 2017-02-06 06:57:50.159005+01

 2017-02-06 07:40:44.824874+01 | 1486363244.82487 |                 0 |               8 |                   228 |                    0 |                 27 |          1373 |               11 |         4915756 |                     0 |     251001170 | 2017-02-06 06:57:50.159005+01

 2017-02-06 07:40:45.968321+01 | 1486363245.96832 |                 0 |               8 |                   228 |                    0 |                 27 |          1373 |               11 |         4915756 |                     0 |     251135215 | 2017-02-06 06:57:50.159005+01

 2017-02-06 07:40:47.10238+01 | 1486363247.10238 |                 0 |               8 |                   228 |                    0 |                 27 |          1373 |               11 |         4915756 |                     0 |     251299499 | 2017-02-06 06:57:50.159005+01

 2017-02-06 07:40:48.248168+01 | 1486363248.24817 |                 0 |               8 |                   228 |                    0 |                 27 |          1373 |               11 |         4915756 |                     0 |     251465045 | 2017-02-06 06:57:50.159005+01

 2017-02-06 07:40:49.374975+01 | 1486363249.37497 |                 0 |               8 |                   228 |                    0 |                 27 |          1373 |               11 |         4915756 |                     0 |     251602025 | 2017-02-06 06:57:50.159005+01

 2017-02-06 07:40:50.525389+01 | 1486363250.52539 |                 0 |               8 |                   228 |                    0 |                 27 |          1373 |               11 |         4915756 |                     0 |     251766793 | 2017-02-06 06:57:50.159005+01

 2017-02-06 07:40:51.651081+01 | 1486363251.65108 |                 0 |               8 |                   228 |                    0 |                 27 |          1373 |               11 |         4915756 |                     0 |     251903767 | 2017-02-06 06:57:50.159005+01

 2017-02-06 07:40:52.786262+01 | 1486363252.78626 |                 0 |               8 |                   228 |                    0 |                 27 |          1373 |               11 |         4915756 |                     0 |     252068638 | 2017-02-06 06:57:50.159005+01

 2017-02-06 07:40:53.944601+01 | 1486363253.9446 |                 0 |               8 |                   228 |                    0 |                 27 |          1373 |               11 |         4915756 |                     0 |     252206256 | 2017-02-06 06:57:50.159005+01

 2017-02-06 07:40:55.109865+01 | 1486363255.10986 |                 0 |               8 |                   228 |                    0 |                 27 |          1373 |               11 |         4915756 |                     0 |     252369919 | 2017-02-06 06:57:50.159005+01

 2017-02-06 07:40:56.296207+01 | 1486363256.29621 |                 0 |               8 |                   228 |                    0 |                 27 |          1373 |               11 |         4915756 |                     0 |     252533489 | 2017-02-06 06:57:50.159005+01

 2017-02-06 07:40:57.430907+01 | 1486363257.43091 |                 0 |               8 |                   228 |                    0 |                 27 |          1373 |               11 |         4915756 |                     0 |     252696200 | 2017-02-06 06:57:50.159005+01

 2017-02-06 07:40:58.575164+01 | 1486363258.57516 |                 0 |               8 |                   228 |                    0 |                 27 |          1373 |               11 |         4915756 |                     0 |     252831762 | 2017-02-06 06:57:50.159005+01

 2017-02-06 07:40:59.73149+01 | 1486363259.73149 |                 0 |               8 |                   228 |                    0 |                 27 |          1373 |               11 |         4915756 |                     0 |     252995235 | 2017-02-06 06:57:50.159005+01

 2017-02-06 07:41:00.881416+01 | 1486363260.88142 |                 0 |               8 |                   228 |                    0 |                 27 |          1373 |               11 |         4915756 |                     0 |     253159490 | 2017-02-06 06:57:50.159005+01

 2017-02-06 07:41:02.012703+01 | 1486363262.0127 |                 0 |               8 |                   228 |                    0 |                 27 |          1373 |               11 |         4915756 |                     0 |     253295522 | 2017-02-06 06:57:50.159005+01

 2017-02-06 07:41:03.168014+01 | 1486363263.16801 |                 0 |               8 |                   228 |                    0 |                 27 |          1373 |               11 |         4915756 |                     0 |     253459471 | 2017-02-06 06:57:50.159005+01

 2017-02-06 07:41:04.327023+01 | 1486363264.32702 |                 0 |               8 |                   228 |                    0 |                 27 |          1373 |               11 |         4915756 |                     0 |     253595912 | 2017-02-06 06:57:50.159005+01

 2017-02-06 07:41:05.467195+01 | 1486363265.4672 |                 0 |               8 |                   228 |                    0 |                 27 |          1373 |               11 |         4915756 |                     0 |     253760471 | 2017-02-06 06:57:50.159005+01

 2017-02-06 07:41:06.62233+01 | 1486363266.62233 |                 0 |               8 |                   228 |                    0 |                 27 |          1373 |               11 |         4915756 |                     0 |     253924509 | 2017-02-06 06:57:50.159005+01

 2017-02-06 07:41:07.771417+01 | 1486363267.77142 |                 0 |               8 |                   228 |                    0 |                 27 |          1373 |               11 |         4915756 |                     0 |     254061070 | 2017-02-06 06:57:50.159005+01

 2017-02-06 07:41:08.943632+01 | 1486363268.94363 |                 0 |               8 |                   228 |                    0 |                 27 |          1373 |               11 |         4915756 |                     0 |     254225335 | 2017-02-06 06:57:50.159005+01

 2017-02-06 07:41:10.09315+01 | 1486363270.09315 |                 0 |               8 |                   228 |                    0 |                 27 |          1373 |               11 |         4915756 |                     0 |     254388935 | 2017-02-06 06:57:50.159005+01

 2017-02-06 07:41:11.238293+01 | 1486363271.23829 |                 0 |               8 |                   228 |                    0 |                 27 |          1373 |               11 |         4915756 |                     0 |     254525214 | 2017-02-06 06:57:50.159005+01

 2017-02-06 07:41:12.411125+01 | 1486363272.41112 |                 0 |               8 |                   228 |                    0 |                 27 |          1373 |               11 |         4915756 |                     0 |     254688365 | 2017-02-06 06:57:50.159005+01

 2017-02-06 07:41:13.521666+01 | 1486363273.52167 |                 0 |               8 |                   228 |                    0 |                 27 |          1373 |               11 |         4915756 |                     0 |     254851065 | 2017-02-06 06:57:50.159005+01

 2017-02-06 07:41:14.702768+01 | 1486363274.70277 |                 0 |               8 |                   228 |                    0 |                 27 |          1373 |               11 |         4915756 |                     0 |     254988411 | 2017-02-06 06:57:50.159005+01

 2017-02-06 07:41:15.862245+01 | 1486363275.86225 |                 0 |               8 |                   228 |                    0 |                 27 |          1373 |               11 |         4915756 |                     0 |     255153543 | 2017-02-06 06:57:50.159005+01

 2017-02-06 07:41:17.001986+01 | 1486363277.00199 |                 0 |               8 |                   228 |                    0 |                 27 |          1373 |               11 |         4915756 |                     0 |     255316784 | 2017-02-06 06:57:50.159005+01

 2017-02-06 07:41:18.172746+01 | 1486363278.17275 |                 0 |               8 |                   228 |                    0 |                 27 |          1373 |               11 |         4915756 |                     0 |     255454198 | 2017-02-06 06:57:50.159005+01

 2017-02-06 07:41:19.34406+01 | 1486363279.34406 |                 0 |               8 |                   228 |                    0 |                 27 |          1373 |               11 |         4915756 |                     0 |     255618211 | 2017-02-06 06:57:50.159005+01

 2017-02-06 07:41:20.465854+01 | 1486363280.46585 |                 0 |               8 |                   228 |                    0 |                 27 |          1373 |               11 |         4915756 |                     0 |     255782194 | 2017-02-06 06:57:50.159005+01

 2017-02-06 07:41:21.62428+01 | 1486363281.62428 |                 0 |               8 |                   228 |                    0 |                 27 |          1373 |               11 |         4915756 |                     0 |     255918535 | 2017-02-06 06:57:50.159005+01

 2017-02-06 07:41:22.745642+01 | 1486363282.74564 |                 0 |               8 |                   228 |                    0 |                 27 |          1373 |               11 |         4915756 |                     0 |     256083303 | 2017-02-06 06:57:50.159005+01

 2017-02-06 07:41:23.890485+01 | 1486363283.89049 |                 0 |               8 |                   228 |                    0 |                 27 |          1373 |               11 |         4915756 |                     0 |     256245944 | 2017-02-06 06:57:50.159005+01

 2017-02-06 07:41:25.042181+01 | 1486363285.04218 |                 0 |               8 |                   228 |                    0 |                 27 |          1373 |               11 |         4915756 |                     0 |     256382610 | 2017-02-06 06:57:50.159005+01

 2017-02-06 07:41:26.179779+01 | 1486363286.17978 |                 0 |               8 |                   228 |                    0 |                 27 |          1373 |               11 |         4915756 |                     0 |     256546486 | 2017-02-06 06:57:50.159005+01

 2017-02-06 07:41:27.340968+01 | 1486363287.34097 |                 0 |               8 |                   228 |                    0 |                 27 |          1373 |               11 |         4915756 |                     0 |     256682532 | 2017-02-06 06:57:50.159005+01

 2017-02-06 07:41:28.492709+01 | 1486363288.49271 |                 0 |               8 |                   228 |                    0 |                 27 |          1373 |               11 |         4915756 |                     0 |     256846977 | 2017-02-06 06:57:50.159005+01

 2017-02-06 07:41:29.607851+01 | 1486363289.60785 |                 0 |               8 |                   228 |                    0 |                 27 |          1373 |               11 |         4915756 |                     0 |     257012269 | 2017-02-06 06:57:50.159005+01

 2017-02-06 07:41:30.75747+01 | 1486363290.75747 |                 0 |               8 |                   228 |                    0 |                 27 |          1373 |               11 |         4915756 |                     0 |     257149153 | 2017-02-06 06:57:50.159005+01

 2017-02-06 07:41:31.891672+01 | 1486363291.89167 |                 0 |               8 |                   228 |                    0 |                 27 |          1373 |               11 |         4915756 |                     0 |     257314086 | 2017-02-06 06:57:50.159005+01

 2017-02-06 07:41:33.027697+01 | 1486363293.0277 |                 0 |               8 |                   228 |                    0 |                 27 |          1373 |               11 |         4915756 |                     0 |     257447755 | 2017-02-06 06:57:50.159005+01

 2017-02-06 07:41:34.186496+01 | 1486363294.1865 |                 0 |               8 |                   228 |                    0 |                 27 |          1373 |               11 |         4915756 |                     0 |     257612286 | 2017-02-06 06:57:50.159005+01

 2017-02-06 07:41:35.330967+01 | 1486363295.33097 |                 0 |               8 |                   228 |                    0 |                 27 |          1373 |               11 |         4915756 |                     0 |     257774308 | 2017-02-06 06:57:50.159005+01

 2017-02-06 07:41:36.4718+01 | 1486363296.4718 |                 0 |               8 |                   228 |                    0 |                 27 |          1373 |               11 |         4915756 |                     0 |     257911341 | 2017-02-06 06:57:50.159005+01

 2017-02-06 07:41:37.614483+01 | 1486363297.61448 |                 0 |               8 |                   228 |                    0 |                 27 |          1373 |               11 |         4915756 |                     0 |     258073579 | 2017-02-06 06:57:50.159005+01

 2017-02-06 07:41:38.768944+01 | 1486363298.76894 |                 0 |               8 |                   228 |                    0 |                 27 |          1373 |               11 |         4915756 |                     0 |     258237592 | 2017-02-06 06:57:50.159005+01

 2017-02-06 07:41:39.887776+01 | 1486363299.88778 |                 0 |               8 |                   228 |                    0 |                 27 |          1373 |               11 |         4915756 |                     0 |     258374239 | 2017-02-06 06:57:50.159005+01

 2017-02-06 07:41:41.040366+01 | 1486363301.04037 |                 0 |               8 |                   228 |                    0 |                 27 |          1373 |               11 |         4915756 |                     0 |     258538639 | 2017-02-06 06:57:50.159005+01

