 2017-02-06 07:36:41.453432+01 | 1486363001.45343 | 3/1AC4130                |           12912967984

 2017-02-06 07:36:42.583041+01 | 1486363002.58304 | 3/1AC4130                |           12912967984

 2017-02-06 07:36:43.77127+01 | 1486363003.77127 | 3/1AC4130                |           12912967984

 2017-02-06 07:36:44.931146+01 | 1486363004.93115 | 3/1AC4130                |           12912967984

 2017-02-06 07:36:46.058043+01 | 1486363006.05804 | 3/1AC4130                |           12912967984

 2017-02-06 07:36:47.191745+01 | 1486363007.19175 | 3/1AC4130                |           12912967984

 2017-02-06 07:36:48.345679+01 | 1486363008.34568 | 3/1AC4130                |           12912967984

 2017-02-06 07:36:49.472384+01 | 1486363009.47238 | 3/1AC4130                |           12912967984

 2017-02-06 07:36:50.646689+01 | 1486363010.64669 | 3/1AC4130                |           12912967984

 2017-02-06 07:36:51.810641+01 | 1486363011.81064 | 3/1AC4130                |           12912967984

 2017-02-06 07:36:52.938296+01 | 1486363012.9383 | 3/1AC4130                |           12912967984

 2017-02-06 07:36:54.075974+01 | 1486363014.07597 | 3/1AC4130                |           12912967984

 2017-02-06 07:36:55.20975+01 | 1486363015.20975 | 3/1AC4130                |           12912967984

 2017-02-06 07:36:56.363368+01 | 1486363016.36337 | 3/1AC4168                |           12912968040

 2017-02-06 07:36:57.506665+01 | 1486363017.50666 | 3/1AC4168                |           12912968040

 2017-02-06 07:36:58.669199+01 | 1486363018.6692 | 3/1AC4168                |           12912968040

 2017-02-06 07:36:59.819329+01 | 1486363019.81933 | 3/1AC4168                |           12912968040

 2017-02-06 07:37:00.973322+01 | 1486363020.97332 | 3/1AC4168                |           12912968040

 2017-02-06 07:37:02.105397+01 | 1486363022.1054 | 3/1AC4168                |           12912968040

 2017-02-06 07:37:03.258077+01 | 1486363023.25808 | 3/1AC4168                |           12912968040

 2017-02-06 07:37:04.400492+01 | 1486363024.40049 | 3/1AC4168                |           12912968040

 2017-02-06 07:37:05.561425+01 | 1486363025.56142 | 3/1AC4168                |           12912968040

 2017-02-06 07:37:06.691126+01 | 1486363026.69113 | 3/1AC4168                |           12912968040

 2017-02-06 07:37:07.827835+01 | 1486363027.82784 | 3/1AC4168                |           12912968040

 2017-02-06 07:37:08.952286+01 | 1486363028.95229 | 3/1AC4168                |           12912968040

 2017-02-06 07:37:10.121503+01 | 1486363030.1215 | 3/1AC4168                |           12912968040

 2017-02-06 07:37:11.272573+01 | 1486363031.27257 | 3/1AC4168                |           12912968040

 2017-02-06 07:37:12.442093+01 | 1486363032.44209 | 3/1AC4168                |           12912968040

 2017-02-06 07:37:13.580232+01 | 1486363033.58023 | 3/1AC4168                |           12912968040

 2017-02-06 07:37:14.720822+01 | 1486363034.72082 | 3/1AC4168                |           12912968040

 2017-02-06 07:37:15.927121+01 | 1486363035.92712 | 3/1AC4168                |           12912968040

 2017-02-06 07:37:17.08403+01 | 1486363037.08403 | 3/1AC4168                |           12912968040

 2017-02-06 07:37:18.242399+01 | 1486363038.2424 | 3/1AC4168                |           12912968040

 2017-02-06 07:37:19.391532+01 | 1486363039.39153 | 3/1AC4168                |           12912968040

 2017-02-06 07:37:20.55978+01 | 1486363040.55978 | 3/1AC4168                |           12912968040

 2017-02-06 07:37:21.749333+01 | 1486363041.74933 | 3/1AC4168                |           12912968040

 2017-02-06 07:37:22.881558+01 | 1486363042.88156 | 3/1AC4168                |           12912968040

 2017-02-06 07:37:24.029749+01 | 1486363044.02975 | 3/1AC4168                |           12912968040

 2017-02-06 07:37:25.172821+01 | 1486363045.17282 | 3/1AC4168                |           12912968040

 2017-02-06 07:37:26.313519+01 | 1486363046.31352 | 3/1AC4168                |           12912968040

 2017-02-06 07:37:27.456926+01 | 1486363047.45693 | 3/1AC4168                |           12912968040

 2017-02-06 07:37:28.61058+01 | 1486363048.61058 | 3/1AC4168                |           12912968040

 2017-02-06 07:37:29.751463+01 | 1486363049.75146 | 3/1AC4168                |           12912968040

 2017-02-06 07:37:30.881645+01 | 1486363050.88164 | 3/1AC4168                |           12912968040

 2017-02-06 07:37:32.019701+01 | 1486363052.0197 | 3/1AC4168                |           12912968040

 2017-02-06 07:37:33.14468+01 | 1486363053.14468 | 3/1AC4168                |           12912968040

 2017-02-06 07:37:34.293154+01 | 1486363054.29315 | 3/1AC4168                |           12912968040

 2017-02-06 07:37:35.419942+01 | 1486363055.41994 | 3/1AC4168                |           12912968040

 2017-02-06 07:37:36.545035+01 | 1486363056.54503 | 3/1AC4168                |           12912968040

 2017-02-06 07:37:37.68825+01 | 1486363057.68825 | 3/1AC4168                |           12912968040

 2017-02-06 07:37:38.81852+01 | 1486363058.81852 | 3/1AC4168                |           12912968040

 2017-02-06 07:37:39.954744+01 | 1486363059.95474 | 3/1AC4168                |           12912968040

 2017-02-06 07:37:41.128149+01 | 1486363061.12815 | 3/1AC4168                |           12912968040

 2017-02-06 07:37:42.275459+01 | 1486363062.27546 | 3/1AC4168                |           12912968040

 2017-02-06 07:37:43.415991+01 | 1486363063.41599 | 3/1AC4168                |           12912968040

 2017-02-06 07:37:44.572126+01 | 1486363064.57213 | 3/1AC4168                |           12912968040

 2017-02-06 07:37:45.722751+01 | 1486363065.72275 | 3/1AC4168                |           12912968040

 2017-02-06 07:37:46.848928+01 | 1486363066.84893 | 3/1AC4168                |           12912968040

 2017-02-06 07:37:47.985945+01 | 1486363067.98594 | 3/1AC4168                |           12912968040

 2017-02-06 07:37:49.152397+01 | 1486363069.1524 | 3/1AC4168                |           12912968040

 2017-02-06 07:37:50.280338+01 | 1486363070.28034 | 3/1AC4168                |           12912968040

 2017-02-06 07:37:51.438648+01 | 1486363071.43865 | 3/1AC4168                |           12912968040

 2017-02-06 07:37:52.569248+01 | 1486363072.56925 | 3/1AC4168                |           12912968040

 2017-02-06 07:37:53.704454+01 | 1486363073.70445 | 3/1AC4168                |           12912968040

 2017-02-06 07:37:54.857121+01 | 1486363074.85712 | 3/1AC4168                |           12912968040

 2017-02-06 07:37:56.000923+01 | 1486363076.00092 | 3/1AC4168                |           12912968040

 2017-02-06 07:37:57.165074+01 | 1486363077.16507 | 3/1AC4168                |           12912968040

 2017-02-06 07:37:58.330425+01 | 1486363078.33043 | 3/1AC4168                |           12912968040

 2017-02-06 07:37:59.479697+01 | 1486363079.4797 | 3/1AC4168                |           12912968040

 2017-02-06 07:38:00.642353+01 | 1486363080.64235 | 3/1AC4168                |           12912968040

 2017-02-06 07:38:01.780942+01 | 1486363081.78094 | 3/1AC4168                |           12912968040

 2017-02-06 07:38:02.927985+01 | 1486363082.92798 | 3/1AC4168                |           12912968040

 2017-02-06 07:38:04.060675+01 | 1486363084.06067 | 3/1AC4168                |           12912968040

 2017-02-06 07:38:05.196258+01 | 1486363085.19626 | 3/1AC4168                |           12912968040

 2017-02-06 07:38:06.325556+01 | 1486363086.32556 | 3/1AC4168                |           12912968040

 2017-02-06 07:38:07.461773+01 | 1486363087.46177 | 3/1AC4168                |           12912968040

 2017-02-06 07:38:08.598144+01 | 1486363088.59814 | 3/1AC4168                |           12912968040

 2017-02-06 07:38:09.748606+01 | 1486363089.74861 | 3/1AC4168                |           12912968040

 2017-02-06 07:38:10.914215+01 | 1486363090.91422 | 3/1AC4168                |           12912968040

 2017-02-06 07:38:12.052509+01 | 1486363092.05251 | 3/1AC4168                |           12912968040

 2017-02-06 07:38:13.213297+01 | 1486363093.2133 | 3/1AC4168                |           12912968040

 2017-02-06 07:38:14.367435+01 | 1486363094.36743 | 3/1AC4168                |           12912968040

 2017-02-06 07:38:15.534113+01 | 1486363095.53411 | 3/1AC4168                |           12912968040

 2017-02-06 07:38:16.67594+01 | 1486363096.67594 | 3/1AC4168                |           12912968040

 2017-02-06 07:38:17.82306+01 | 1486363097.82306 | 3/1AC4168                |           12912968040

 2017-02-06 07:38:18.976282+01 | 1486363098.97628 | 3/1AC4168                |           12912968040

 2017-02-06 07:38:20.132889+01 | 1486363100.13289 | 3/1AC4168                |           12912968040

 2017-02-06 07:38:21.279955+01 | 1486363101.27995 | 3/1AC4168                |           12912968040

 2017-02-06 07:38:22.434635+01 | 1486363102.43463 | 3/1AC4168                |           12912968040

 2017-02-06 07:38:23.566805+01 | 1486363103.5668 | 3/1AC4168                |           12912968040

 2017-02-06 07:38:24.699979+01 | 1486363104.69998 | 3/1AC4168                |           12912968040

 2017-02-06 07:38:25.859483+01 | 1486363105.85948 | 3/1AC4168                |           12912968040

 2017-02-06 07:38:27.017849+01 | 1486363107.01785 | 3/1AC4168                |           12912968040

 2017-02-06 07:38:28.1866+01 | 1486363108.1866 | 3/1AC4168                |           12912968040

 2017-02-06 07:38:29.358788+01 | 1486363109.35879 | 3/1AC4168                |           12912968040

 2017-02-06 07:38:30.514391+01 | 1486363110.51439 | 3/1AC4168                |           12912968040

 2017-02-06 07:38:31.652425+01 | 1486363111.65243 | 3/1AC4168                |           12912968040

 2017-02-06 07:38:32.79413+01 | 1486363112.79413 | 3/1AC4168                |           12912968040

 2017-02-06 07:38:33.934868+01 | 1486363113.93487 | 3/1AC4168                |           12912968040

 2017-02-06 07:38:35.087179+01 | 1486363115.08718 | 3/1AC4168                |           12912968040

 2017-02-06 07:38:36.21952+01 | 1486363116.21952 | 3/1AC4168                |           12912968040

 2017-02-06 07:38:37.357667+01 | 1486363117.35767 | 3/1AC4168                |           12912968040

 2017-02-06 07:38:38.473205+01 | 1486363118.47321 | 3/1AC4168                |           12912968040

 2017-02-06 07:38:39.632526+01 | 1486363119.63253 | 3/1AC4168                |           12912968040

 2017-02-06 07:38:40.767691+01 | 1486363120.76769 | 3/1AC4168                |           12912968040

 2017-02-06 07:38:41.893807+01 | 1486363121.89381 | 3/1AC4168                |           12912968040

 2017-02-06 07:38:43.021231+01 | 1486363123.02123 | 3/1AC4168                |           12912968040

 2017-02-06 07:38:44.153294+01 | 1486363124.15329 | 3/1AC4168                |           12912968040

 2017-02-06 07:38:45.297379+01 | 1486363125.29738 | 3/1AC4168                |           12912968040

 2017-02-06 07:38:46.471164+01 | 1486363126.47116 | 3/1AC4168                |           12912968040

 2017-02-06 07:38:47.585393+01 | 1486363127.58539 | 3/1AC4168                |           12912968040

 2017-02-06 07:38:48.73392+01 | 1486363128.73392 | 3/1AC4168                |           12912968040

 2017-02-06 07:38:49.894484+01 | 1486363129.89448 | 3/1AC4168                |           12912968040

 2017-02-06 07:38:51.065802+01 | 1486363131.0658 | 3/1AC4168                |           12912968040

 2017-02-06 07:38:52.231383+01 | 1486363132.23138 | 3/1AC4168                |           12912968040

 2017-02-06 07:38:53.381373+01 | 1486363133.38137 | 3/1AC4168                |           12912968040

 2017-02-06 07:38:54.507374+01 | 1486363134.50737 | 3/1AC4168                |           12912968040

 2017-02-06 07:38:55.657764+01 | 1486363135.65776 | 3/1AC4168                |           12912968040

 2017-02-06 07:38:56.843708+01 | 1486363136.84371 | 3/1AC4168                |           12912968040

 2017-02-06 07:38:58.007049+01 | 1486363138.00705 | 3/1AC4168                |           12912968040

 2017-02-06 07:38:59.154576+01 | 1486363139.15458 | 3/1AC4168                |           12912968040

 2017-02-06 07:39:00.28843+01 | 1486363140.28843 | 3/1AC4168                |           12912968040

 2017-02-06 07:39:01.432978+01 | 1486363141.43298 | 3/1AC4168                |           12912968040

 2017-02-06 07:39:02.605912+01 | 1486363142.60591 | 3/1AC4168                |           12912968040

 2017-02-06 07:39:03.762089+01 | 1486363143.76209 | 3/1AC4168                |           12912968040

 2017-02-06 07:39:04.908824+01 | 1486363144.90882 | 3/1AC4168                |           12912968040

 2017-02-06 07:39:06.043169+01 | 1486363146.04317 | 3/1AC4168                |           12912968040

 2017-02-06 07:39:07.183636+01 | 1486363147.18364 | 3/1AC4168                |           12912968040

 2017-02-06 07:39:08.334618+01 | 1486363148.33462 | 3/1AC4168                |           12912968040

 2017-02-06 07:39:09.505808+01 | 1486363149.50581 | 3/1AC4168                |           12912968040

 2017-02-06 07:39:10.639008+01 | 1486363150.63901 | 3/1AC4168                |           12912968040

 2017-02-06 07:39:11.799615+01 | 1486363151.79961 | 3/1AC4168                |           12912968040

 2017-02-06 07:39:12.989188+01 | 1486363152.98919 | 3/1AC4168                |           12912968040

 2017-02-06 07:39:14.152347+01 | 1486363154.15235 | 3/1AC4168                |           12912968040

 2017-02-06 07:39:15.275612+01 | 1486363155.27561 | 3/1AC4168                |           12912968040

 2017-02-06 07:39:16.421711+01 | 1486363156.42171 | 3/1AC4168                |           12912968040

 2017-02-06 07:39:17.542081+01 | 1486363157.54208 | 3/1AC4168                |           12912968040

 2017-02-06 07:39:18.684468+01 | 1486363158.68447 | 3/1AC4168                |           12912968040

 2017-02-06 07:39:19.798818+01 | 1486363159.79882 | 3/1AC4168                |           12912968040

 2017-02-06 07:39:20.976669+01 | 1486363160.97667 | 3/1AC4168                |           12912968040

 2017-02-06 07:39:22.115807+01 | 1486363162.11581 | 3/1AC4168                |           12912968040

 2017-02-06 07:39:23.273858+01 | 1486363163.27386 | 3/1AC4168                |           12912968040

 2017-02-06 07:39:24.411348+01 | 1486363164.41135 | 3/1AC4168                |           12912968040

 2017-02-06 07:39:25.56414+01 | 1486363165.56414 | 3/1AC4168                |           12912968040

 2017-02-06 07:39:26.710014+01 | 1486363166.71001 | 3/1AC4168                |           12912968040

 2017-02-06 07:39:27.860468+01 | 1486363167.86047 | 3/1AC4168                |           12912968040

 2017-02-06 07:39:29.002099+01 | 1486363169.0021 | 3/1AC4168                |           12912968040

 2017-02-06 07:39:30.15089+01 | 1486363170.15089 | 3/1AC4168                |           12912968040

 2017-02-06 07:39:31.288826+01 | 1486363171.28883 | 3/1AC4168                |           12912968040

 2017-02-06 07:39:32.429037+01 | 1486363172.42904 | 3/1AC4168                |           12912968040

 2017-02-06 07:39:33.570772+01 | 1486363173.57077 | 3/1AC4168                |           12912968040

 2017-02-06 07:39:34.744974+01 | 1486363174.74497 | 3/1AC4168                |           12912968040

 2017-02-06 07:39:35.879904+01 | 1486363175.8799 | 3/1AC4168                |           12912968040

 2017-02-06 07:39:37.010676+01 | 1486363177.01068 | 3/1AC4168                |           12912968040

 2017-02-06 07:39:38.146934+01 | 1486363178.14693 | 3/1AC4168                |           12912968040

 2017-02-06 07:39:39.300934+01 | 1486363179.30093 | 3/1AC4168                |           12912968040

 2017-02-06 07:39:40.433757+01 | 1486363180.43376 | 3/1AC4168                |           12912968040

 2017-02-06 07:39:41.606056+01 | 1486363181.60606 | 3/1AC4168                |           12912968040

 2017-02-06 07:39:42.752233+01 | 1486363182.75223 | 3/1AC4168                |           12912968040

 2017-02-06 07:39:43.900125+01 | 1486363183.90013 | 3/1AC4168                |           12912968040

 2017-02-06 07:39:45.040271+01 | 1486363185.04027 | 3/1AC4168                |           12912968040

 2017-02-06 07:39:46.179423+01 | 1486363186.17942 | 3/1AC4168                |           12912968040

 2017-02-06 07:39:47.29271+01 | 1486363187.29271 | 3/1AC4168                |           12912968040

 2017-02-06 07:39:48.431321+01 | 1486363188.43132 | 3/1AC4168                |           12912968040

 2017-02-06 07:39:49.573119+01 | 1486363189.57312 | 3/1AC4168                |           12912968040

 2017-02-06 07:39:50.734752+01 | 1486363190.73475 | 3/1AC4168                |           12912968040

 2017-02-06 07:39:51.881106+01 | 1486363191.88111 | 3/1AC4168                |           12912968040

 2017-02-06 07:39:53.00849+01 | 1486363193.00849 | 3/1AC4168                |           12912968040

 2017-02-06 07:39:54.162483+01 | 1486363194.16248 | 3/1AC4168                |           12912968040

 2017-02-06 07:39:55.311852+01 | 1486363195.31185 | 3/1AC4168                |           12912968040

 2017-02-06 07:39:56.450278+01 | 1486363196.45028 | 3/1AC4168                |           12912968040

 2017-02-06 07:39:57.609706+01 | 1486363197.60971 | 3/1AC4168                |           12912968040

 2017-02-06 07:39:58.774533+01 | 1486363198.77453 | 3/1AC4168                |           12912968040

 2017-02-06 07:39:59.935942+01 | 1486363199.93594 | 3/1AC4168                |           12912968040

 2017-02-06 07:40:01.10406+01 | 1486363201.10406 | 3/1AC4168                |           12912968040

 2017-02-06 07:40:02.264031+01 | 1486363202.26403 | 3/1AC4168                |           12912968040

 2017-02-06 07:40:03.407931+01 | 1486363203.40793 | 3/1AC4168                |           12912968040

 2017-02-06 07:40:04.560352+01 | 1486363204.56035 | 3/1AC4168                |           12912968040

 2017-02-06 07:40:05.706369+01 | 1486363205.70637 | 3/1AC4168                |           12912968040

 2017-02-06 07:40:06.839301+01 | 1486363206.8393 | 3/1AC4168                |           12912968040

 2017-02-06 07:40:07.979142+01 | 1486363207.97914 | 3/1AC4168                |           12912968040

 2017-02-06 07:40:09.128465+01 | 1486363209.12846 | 3/1AC4168                |           12912968040

 2017-02-06 07:40:10.281995+01 | 1486363210.282 | 3/1AC4168                |           12912968040

 2017-02-06 07:40:11.438413+01 | 1486363211.43841 | 3/1AC4168                |           12912968040

 2017-02-06 07:40:12.596135+01 | 1486363212.59613 | 3/1AC4168                |           12912968040

 2017-02-06 07:40:13.722824+01 | 1486363213.72282 | 3/1AC4168                |           12912968040

 2017-02-06 07:40:14.888972+01 | 1486363214.88897 | 3/1AC4168                |           12912968040

 2017-02-06 07:40:16.057121+01 | 1486363216.05712 | 3/1AC4168                |           12912968040

 2017-02-06 07:40:17.227641+01 | 1486363217.22764 | 3/1AC4168                |           12912968040

 2017-02-06 07:40:18.381859+01 | 1486363218.38186 | 3/1AC4168                |           12912968040

 2017-02-06 07:40:19.514273+01 | 1486363219.51427 | 3/1AC4168                |           12912968040

 2017-02-06 07:40:20.665897+01 | 1486363220.6659 | 3/1AC4168                |           12912968040

 2017-02-06 07:40:21.813016+01 | 1486363221.81302 | 3/1AC4168                |           12912968040

 2017-02-06 07:40:22.930077+01 | 1486363222.93008 | 3/1AC4168                |           12912968040

 2017-02-06 07:40:24.078608+01 | 1486363224.07861 | 3/1AC4168                |           12912968040

 2017-02-06 07:40:25.235739+01 | 1486363225.23574 | 3/1AC4168                |           12912968040

 2017-02-06 07:40:26.393173+01 | 1486363226.39317 | 3/1AC4168                |           12912968040

 2017-02-06 07:40:27.587176+01 | 1486363227.58718 | 3/1AC4168                |           12912968040

 2017-02-06 07:40:28.719115+01 | 1486363228.71912 | 3/1AC4168                |           12912968040

 2017-02-06 07:40:29.872636+01 | 1486363229.87264 | 3/1AC4168                |           12912968040

 2017-02-06 07:40:31.007345+01 | 1486363231.00734 | 3/1AC4168                |           12912968040

 2017-02-06 07:40:32.154743+01 | 1486363232.15474 | 3/1AC4168                |           12912968040

 2017-02-06 07:40:33.303781+01 | 1486363233.30378 | 3/1AC4168                |           12912968040

 2017-02-06 07:40:34.452491+01 | 1486363234.45249 | 3/1AC4168                |           12912968040

 2017-02-06 07:40:35.557837+01 | 1486363235.55784 | 3/1AC4168                |           12912968040

 2017-02-06 07:40:36.694331+01 | 1486363236.69433 | 3/1AC4168                |           12912968040

 2017-02-06 07:40:37.847239+01 | 1486363237.84724 | 3/1AC4168                |           12912968040

 2017-02-06 07:40:38.99673+01 | 1486363238.99673 | 3/1AC4168                |           12912968040

 2017-02-06 07:40:40.130731+01 | 1486363240.13073 | 3/1AC4168                |           12912968040

 2017-02-06 07:40:41.293103+01 | 1486363241.2931 | 3/1AC4168                |           12912968040

 2017-02-06 07:40:42.434701+01 | 1486363242.4347 | 3/1AC4168                |           12912968040

 2017-02-06 07:40:43.579921+01 | 1486363243.57992 | 3/1AC4168                |           12912968040

 2017-02-06 07:40:44.715908+01 | 1486363244.71591 | 3/1AC4168                |           12912968040

 2017-02-06 07:40:45.856457+01 | 1486363245.85646 | 3/1AC4168                |           12912968040

 2017-02-06 07:40:47.000801+01 | 1486363247.0008 | 3/1AC4168                |           12912968040

 2017-02-06 07:40:48.142503+01 | 1486363248.1425 | 3/1AC4168                |           12912968040

 2017-02-06 07:40:49.269533+01 | 1486363249.26953 | 3/1AC4168                |           12912968040

 2017-02-06 07:40:50.408087+01 | 1486363250.40809 | 3/1AC4168                |           12912968040

 2017-02-06 07:40:51.55209+01 | 1486363251.55209 | 3/1AC4168                |           12912968040

 2017-02-06 07:40:52.676434+01 | 1486363252.67643 | 3/1AC4168                |           12912968040

 2017-02-06 07:40:53.819245+01 | 1486363253.81925 | 3/1AC4168                |           12912968040

 2017-02-06 07:40:54.983636+01 | 1486363254.98364 | 3/1AC4168                |           12912968040

 2017-02-06 07:40:56.148342+01 | 1486363256.14834 | 3/1AC4168                |           12912968040

 2017-02-06 07:40:57.329396+01 | 1486363257.3294 | 3/1AC4168                |           12912968040

 2017-02-06 07:40:58.464157+01 | 1486363258.46416 | 3/1AC4168                |           12912968040

 2017-02-06 07:40:59.605562+01 | 1486363259.60556 | 3/1AC4168                |           12912968040

 2017-02-06 07:41:00.759647+01 | 1486363260.75965 | 3/1AC4168                |           12912968040

 2017-02-06 07:41:01.915835+01 | 1486363261.91583 | 3/1AC4168                |           12912968040

 2017-02-06 07:41:03.055136+01 | 1486363263.05514 | 3/1AC4168                |           12912968040

 2017-02-06 07:41:04.207965+01 | 1486363264.20796 | 3/1AC4168                |           12912968040

 2017-02-06 07:41:05.354526+01 | 1486363265.35453 | 3/1AC4168                |           12912968040

 2017-02-06 07:41:06.496938+01 | 1486363266.49694 | 3/1AC4168                |           12912968040

 2017-02-06 07:41:07.654721+01 | 1486363267.65472 | 3/1AC4168                |           12912968040

 2017-02-06 07:41:08.813712+01 | 1486363268.81371 | 3/1AC4168                |           12912968040

 2017-02-06 07:41:09.974126+01 | 1486363269.97413 | 3/1AC4168                |           12912968040

 2017-02-06 07:41:11.125941+01 | 1486363271.12594 | 3/1AC4168                |           12912968040

 2017-02-06 07:41:12.285498+01 | 1486363272.2855 | 3/1AC4168                |           12912968040

 2017-02-06 07:41:13.439119+01 | 1486363273.43912 | 3/1AC4168                |           12912968040

 2017-02-06 07:41:14.549701+01 | 1486363274.5497 | 3/1AC4168                |           12912968040

 2017-02-06 07:41:15.738021+01 | 1486363275.73802 | 3/1AC4168                |           12912968040

 2017-02-06 07:41:16.886154+01 | 1486363276.88615 | 3/1AC4168                |           12912968040

 2017-02-06 07:41:18.047339+01 | 1486363278.04734 | 3/1AC4168                |           12912968040

 2017-02-06 07:41:19.203923+01 | 1486363279.20392 | 3/1AC4168                |           12912968040

 2017-02-06 07:41:20.371254+01 | 1486363280.37125 | 3/1AC4168                |           12912968040

 2017-02-06 07:41:21.511892+01 | 1486363281.51189 | 3/1AC4168                |           12912968040

 2017-02-06 07:41:22.656449+01 | 1486363282.65645 | 3/1AC4168                |           12912968040

 2017-02-06 07:41:23.782464+01 | 1486363283.78246 | 3/1AC4168                |           12912968040

 2017-02-06 07:41:24.916428+01 | 1486363284.91643 | 3/1AC4168                |           12912968040

 2017-02-06 07:41:26.0675+01 | 1486363286.0675 | 3/1AC4168                |           12912968040

 2017-02-06 07:41:27.210097+01 | 1486363287.2101 | 3/1AC4168                |           12912968040

 2017-02-06 07:41:28.380927+01 | 1486363288.38093 | 3/1AC4168                |           12912968040

 2017-02-06 07:41:29.526575+01 | 1486363289.52658 | 3/1AC4168                |           12912968040

 2017-02-06 07:41:30.643285+01 | 1486363290.64329 | 3/1AC4168                |           12912968040

 2017-02-06 07:41:31.786606+01 | 1486363291.78661 | 3/1AC4168                |           12912968040

 2017-02-06 07:41:32.918266+01 | 1486363292.91827 | 3/1AC4168                |           12912968040

 2017-02-06 07:41:34.070389+01 | 1486363294.07039 | 3/1AC4168                |           12912968040

 2017-02-06 07:41:35.206226+01 | 1486363295.20623 | 3/1AC4168                |           12912968040

 2017-02-06 07:41:36.351643+01 | 1486363296.35164 | 3/1AC4168                |           12912968040

 2017-02-06 07:41:37.490376+01 | 1486363297.49038 | 3/1AC4168                |           12912968040

 2017-02-06 07:41:38.658775+01 | 1486363298.65878 | 3/1AC4168                |           12912968040

 2017-02-06 07:41:39.79777+01 | 1486363299.79777 | 3/1AC4168                |           12912968040

 2017-02-06 07:41:40.91285+01 | 1486363300.91285 | 3/1AC4168                |           12912968040

