 2017-02-03 22:53:50.962071+01 | 1486158830.96207 | pgbench_branches_pkey |            57344
 2017-02-03 22:53:50.962071+01 | 1486158830.96207 | pgbench_tellers_pkey  |           270336
 2017-02-03 22:53:50.962071+01 | 1486158830.96207 | pgbench_accounts_pkey |        224641024

 2017-02-03 22:53:52.0465+01 | 1486158832.0465 | pgbench_branches_pkey |            57344
 2017-02-03 22:53:52.0465+01 | 1486158832.0465 | pgbench_tellers_pkey  |           270336
 2017-02-03 22:53:52.0465+01 | 1486158832.0465 | pgbench_accounts_pkey |        224641024

 2017-02-03 22:53:53.123795+01 | 1486158833.1238 | pgbench_branches_pkey |            57344
 2017-02-03 22:53:53.123795+01 | 1486158833.1238 | pgbench_tellers_pkey  |           270336
 2017-02-03 22:53:53.123795+01 | 1486158833.1238 | pgbench_accounts_pkey |        224641024

 2017-02-03 22:53:54.204073+01 | 1486158834.20407 | pgbench_branches_pkey |            57344
 2017-02-03 22:53:54.204073+01 | 1486158834.20407 | pgbench_tellers_pkey  |           270336
 2017-02-03 22:53:54.204073+01 | 1486158834.20407 | pgbench_accounts_pkey |        224641024

 2017-02-03 22:53:55.284061+01 | 1486158835.28406 | pgbench_branches_pkey |            57344
 2017-02-03 22:53:55.284061+01 | 1486158835.28406 | pgbench_tellers_pkey  |           270336
 2017-02-03 22:53:55.284061+01 | 1486158835.28406 | pgbench_accounts_pkey |        224641024

 2017-02-03 22:53:56.360639+01 | 1486158836.36064 | pgbench_branches_pkey |            57344
 2017-02-03 22:53:56.360639+01 | 1486158836.36064 | pgbench_tellers_pkey  |           270336
 2017-02-03 22:53:56.360639+01 | 1486158836.36064 | pgbench_accounts_pkey |        224641024

 2017-02-03 22:53:57.433026+01 | 1486158837.43303 | pgbench_branches_pkey |            57344
 2017-02-03 22:53:57.433026+01 | 1486158837.43303 | pgbench_tellers_pkey  |           270336
 2017-02-03 22:53:57.433026+01 | 1486158837.43303 | pgbench_accounts_pkey |        224641024

 2017-02-03 22:53:58.511128+01 | 1486158838.51113 | pgbench_branches_pkey |            57344
 2017-02-03 22:53:58.511128+01 | 1486158838.51113 | pgbench_tellers_pkey  |           270336
 2017-02-03 22:53:58.511128+01 | 1486158838.51113 | pgbench_accounts_pkey |        224641024

 2017-02-03 22:53:59.5891+01 | 1486158839.5891 | pgbench_branches_pkey |            57344
 2017-02-03 22:53:59.5891+01 | 1486158839.5891 | pgbench_tellers_pkey  |           270336
 2017-02-03 22:53:59.5891+01 | 1486158839.5891 | pgbench_accounts_pkey |        224641024

 2017-02-03 22:54:00.671544+01 | 1486158840.67154 | pgbench_branches_pkey |            57344
 2017-02-03 22:54:00.671544+01 | 1486158840.67154 | pgbench_tellers_pkey  |           270336
 2017-02-03 22:54:00.671544+01 | 1486158840.67154 | pgbench_accounts_pkey |        224641024

 2017-02-03 22:54:01.74871+01 | 1486158841.74871 | pgbench_branches_pkey |            57344
 2017-02-03 22:54:01.74871+01 | 1486158841.74871 | pgbench_tellers_pkey  |           270336
 2017-02-03 22:54:01.74871+01 | 1486158841.74871 | pgbench_accounts_pkey |        224641024

 2017-02-03 22:54:02.829863+01 | 1486158842.82986 | pgbench_branches_pkey |            57344
 2017-02-03 22:54:02.829863+01 | 1486158842.82986 | pgbench_tellers_pkey  |           270336
 2017-02-03 22:54:02.829863+01 | 1486158842.82986 | pgbench_accounts_pkey |        224641024

 2017-02-03 22:54:03.911956+01 | 1486158843.91196 | pgbench_branches_pkey |            57344
 2017-02-03 22:54:03.911956+01 | 1486158843.91196 | pgbench_tellers_pkey  |           270336
 2017-02-03 22:54:03.911956+01 | 1486158843.91196 | pgbench_accounts_pkey |        224641024

 2017-02-03 22:54:04.987684+01 | 1486158844.98768 | pgbench_branches_pkey |            57344
 2017-02-03 22:54:04.987684+01 | 1486158844.98768 | pgbench_tellers_pkey  |           270336
 2017-02-03 22:54:04.987684+01 | 1486158844.98768 | pgbench_accounts_pkey |        224641024

 2017-02-03 22:54:06.07+01 | 1486158846.07 | pgbench_branches_pkey |            57344
 2017-02-03 22:54:06.07+01 | 1486158846.07 | pgbench_tellers_pkey  |           270336
 2017-02-03 22:54:06.07+01 | 1486158846.07 | pgbench_accounts_pkey |        224641024

 2017-02-03 22:54:07.156131+01 | 1486158847.15613 | pgbench_branches_pkey |            57344
 2017-02-03 22:54:07.156131+01 | 1486158847.15613 | pgbench_tellers_pkey  |           270336
 2017-02-03 22:54:07.156131+01 | 1486158847.15613 | pgbench_accounts_pkey |        224641024

 2017-02-03 22:54:08.237702+01 | 1486158848.2377 | pgbench_branches_pkey |            57344
 2017-02-03 22:54:08.237702+01 | 1486158848.2377 | pgbench_tellers_pkey  |           270336
 2017-02-03 22:54:08.237702+01 | 1486158848.2377 | pgbench_accounts_pkey |        224641024

 2017-02-03 22:54:09.31444+01 | 1486158849.31444 | pgbench_branches_pkey |            57344
 2017-02-03 22:54:09.31444+01 | 1486158849.31444 | pgbench_tellers_pkey  |           270336
 2017-02-03 22:54:09.31444+01 | 1486158849.31444 | pgbench_accounts_pkey |        224641024

 2017-02-03 22:54:10.394384+01 | 1486158850.39438 | pgbench_branches_pkey |            57344
 2017-02-03 22:54:10.394384+01 | 1486158850.39438 | pgbench_tellers_pkey  |           270336
 2017-02-03 22:54:10.394384+01 | 1486158850.39438 | pgbench_accounts_pkey |        224641024

 2017-02-03 22:54:11.466829+01 | 1486158851.46683 | pgbench_branches_pkey |            57344
 2017-02-03 22:54:11.466829+01 | 1486158851.46683 | pgbench_tellers_pkey  |           270336
 2017-02-03 22:54:11.466829+01 | 1486158851.46683 | pgbench_accounts_pkey |        224641024

 2017-02-03 22:54:12.548895+01 | 1486158852.54889 | pgbench_branches_pkey |            57344
 2017-02-03 22:54:12.548895+01 | 1486158852.54889 | pgbench_tellers_pkey  |           270336
 2017-02-03 22:54:12.548895+01 | 1486158852.54889 | pgbench_accounts_pkey |        224641024

 2017-02-03 22:54:13.632334+01 | 1486158853.63233 | pgbench_branches_pkey |            57344
 2017-02-03 22:54:13.632334+01 | 1486158853.63233 | pgbench_tellers_pkey  |           270336
 2017-02-03 22:54:13.632334+01 | 1486158853.63233 | pgbench_accounts_pkey |        224641024

 2017-02-03 22:54:14.706278+01 | 1486158854.70628 | pgbench_branches_pkey |            57344
 2017-02-03 22:54:14.706278+01 | 1486158854.70628 | pgbench_tellers_pkey  |           270336
 2017-02-03 22:54:14.706278+01 | 1486158854.70628 | pgbench_accounts_pkey |        224641024

 2017-02-03 22:54:15.790827+01 | 1486158855.79083 | pgbench_branches_pkey |            57344
 2017-02-03 22:54:15.790827+01 | 1486158855.79083 | pgbench_tellers_pkey  |           270336
 2017-02-03 22:54:15.790827+01 | 1486158855.79083 | pgbench_accounts_pkey |        224641024

 2017-02-03 22:54:16.872017+01 | 1486158856.87202 | pgbench_branches_pkey |            57344
 2017-02-03 22:54:16.872017+01 | 1486158856.87202 | pgbench_tellers_pkey  |           270336
 2017-02-03 22:54:16.872017+01 | 1486158856.87202 | pgbench_accounts_pkey |        224641024

 2017-02-03 22:54:17.940911+01 | 1486158857.94091 | pgbench_branches_pkey |            57344
 2017-02-03 22:54:17.940911+01 | 1486158857.94091 | pgbench_tellers_pkey  |           270336
 2017-02-03 22:54:17.940911+01 | 1486158857.94091 | pgbench_accounts_pkey |        224641024

 2017-02-03 22:54:19.009823+01 | 1486158859.00982 | pgbench_branches_pkey |            57344
 2017-02-03 22:54:19.009823+01 | 1486158859.00982 | pgbench_tellers_pkey  |           270336
 2017-02-03 22:54:19.009823+01 | 1486158859.00982 | pgbench_accounts_pkey |        224641024

 2017-02-03 22:54:20.08456+01 | 1486158860.08456 | pgbench_branches_pkey |            57344
 2017-02-03 22:54:20.08456+01 | 1486158860.08456 | pgbench_tellers_pkey  |           270336
 2017-02-03 22:54:20.08456+01 | 1486158860.08456 | pgbench_accounts_pkey |        224641024

 2017-02-03 22:54:21.163248+01 | 1486158861.16325 | pgbench_branches_pkey |            57344
 2017-02-03 22:54:21.163248+01 | 1486158861.16325 | pgbench_tellers_pkey  |           270336
 2017-02-03 22:54:21.163248+01 | 1486158861.16325 | pgbench_accounts_pkey |        224641024

 2017-02-03 22:54:22.235023+01 | 1486158862.23502 | pgbench_branches_pkey |            57344
 2017-02-03 22:54:22.235023+01 | 1486158862.23502 | pgbench_tellers_pkey  |           270336
 2017-02-03 22:54:22.235023+01 | 1486158862.23502 | pgbench_accounts_pkey |        224641024

 2017-02-03 22:54:23.310993+01 | 1486158863.31099 | pgbench_branches_pkey |            57344
 2017-02-03 22:54:23.310993+01 | 1486158863.31099 | pgbench_tellers_pkey  |           270336
 2017-02-03 22:54:23.310993+01 | 1486158863.31099 | pgbench_accounts_pkey |        224641024

 2017-02-03 22:54:24.397347+01 | 1486158864.39735 | pgbench_branches_pkey |            57344
 2017-02-03 22:54:24.397347+01 | 1486158864.39735 | pgbench_tellers_pkey  |           270336
 2017-02-03 22:54:24.397347+01 | 1486158864.39735 | pgbench_accounts_pkey |        224641024

 2017-02-03 22:54:25.483224+01 | 1486158865.48322 | pgbench_branches_pkey |            57344
 2017-02-03 22:54:25.483224+01 | 1486158865.48322 | pgbench_tellers_pkey  |           270336
 2017-02-03 22:54:25.483224+01 | 1486158865.48322 | pgbench_accounts_pkey |        224641024

 2017-02-03 22:54:26.563995+01 | 1486158866.56399 | pgbench_branches_pkey |            57344
 2017-02-03 22:54:26.563995+01 | 1486158866.56399 | pgbench_tellers_pkey  |           270336
 2017-02-03 22:54:26.563995+01 | 1486158866.56399 | pgbench_accounts_pkey |        224641024

 2017-02-03 22:54:27.642955+01 | 1486158867.64296 | pgbench_branches_pkey |            57344
 2017-02-03 22:54:27.642955+01 | 1486158867.64296 | pgbench_tellers_pkey  |           270336
 2017-02-03 22:54:27.642955+01 | 1486158867.64296 | pgbench_accounts_pkey |        224641024

 2017-02-03 22:54:28.720185+01 | 1486158868.72019 | pgbench_branches_pkey |            57344
 2017-02-03 22:54:28.720185+01 | 1486158868.72019 | pgbench_tellers_pkey  |           270336
 2017-02-03 22:54:28.720185+01 | 1486158868.72019 | pgbench_accounts_pkey |        224641024

 2017-02-03 22:54:29.795602+01 | 1486158869.7956 | pgbench_branches_pkey |            57344
 2017-02-03 22:54:29.795602+01 | 1486158869.7956 | pgbench_tellers_pkey  |           270336
 2017-02-03 22:54:29.795602+01 | 1486158869.7956 | pgbench_accounts_pkey |        224641024

 2017-02-03 22:54:30.87116+01 | 1486158870.87116 | pgbench_branches_pkey |            57344
 2017-02-03 22:54:30.87116+01 | 1486158870.87116 | pgbench_tellers_pkey  |           270336
 2017-02-03 22:54:30.87116+01 | 1486158870.87116 | pgbench_accounts_pkey |        224641024

 2017-02-03 22:54:31.945229+01 | 1486158871.94523 | pgbench_branches_pkey |            57344
 2017-02-03 22:54:31.945229+01 | 1486158871.94523 | pgbench_tellers_pkey  |           270336
 2017-02-03 22:54:31.945229+01 | 1486158871.94523 | pgbench_accounts_pkey |        224641024

 2017-02-03 22:54:33.02503+01 | 1486158873.02503 | pgbench_branches_pkey |            57344
 2017-02-03 22:54:33.02503+01 | 1486158873.02503 | pgbench_tellers_pkey  |           270336
 2017-02-03 22:54:33.02503+01 | 1486158873.02503 | pgbench_accounts_pkey |        224641024

 2017-02-03 22:54:34.101254+01 | 1486158874.10125 | pgbench_branches_pkey |            57344
 2017-02-03 22:54:34.101254+01 | 1486158874.10125 | pgbench_tellers_pkey  |           270336
 2017-02-03 22:54:34.101254+01 | 1486158874.10125 | pgbench_accounts_pkey |        224641024

 2017-02-03 22:54:35.178769+01 | 1486158875.17877 | pgbench_branches_pkey |            57344
 2017-02-03 22:54:35.178769+01 | 1486158875.17877 | pgbench_tellers_pkey  |           270336
 2017-02-03 22:54:35.178769+01 | 1486158875.17877 | pgbench_accounts_pkey |        224641024

 2017-02-03 22:54:36.252541+01 | 1486158876.25254 | pgbench_branches_pkey |            57344
 2017-02-03 22:54:36.252541+01 | 1486158876.25254 | pgbench_tellers_pkey  |           270336
 2017-02-03 22:54:36.252541+01 | 1486158876.25254 | pgbench_accounts_pkey |        224641024

 2017-02-03 22:54:37.329696+01 | 1486158877.3297 | pgbench_branches_pkey |            57344
 2017-02-03 22:54:37.329696+01 | 1486158877.3297 | pgbench_tellers_pkey  |           270336
 2017-02-03 22:54:37.329696+01 | 1486158877.3297 | pgbench_accounts_pkey |        224641024

 2017-02-03 22:54:38.408978+01 | 1486158878.40898 | pgbench_branches_pkey |            57344
 2017-02-03 22:54:38.408978+01 | 1486158878.40898 | pgbench_tellers_pkey  |           270336
 2017-02-03 22:54:38.408978+01 | 1486158878.40898 | pgbench_accounts_pkey |        224641024

 2017-02-03 22:54:39.484639+01 | 1486158879.48464 | pgbench_branches_pkey |            57344
 2017-02-03 22:54:39.484639+01 | 1486158879.48464 | pgbench_tellers_pkey  |           270336
 2017-02-03 22:54:39.484639+01 | 1486158879.48464 | pgbench_accounts_pkey |        224641024

 2017-02-03 22:54:40.564451+01 | 1486158880.56445 | pgbench_branches_pkey |            57344
 2017-02-03 22:54:40.564451+01 | 1486158880.56445 | pgbench_tellers_pkey  |           270336
 2017-02-03 22:54:40.564451+01 | 1486158880.56445 | pgbench_accounts_pkey |        224641024

 2017-02-03 22:54:41.643235+01 | 1486158881.64323 | pgbench_branches_pkey |            57344
 2017-02-03 22:54:41.643235+01 | 1486158881.64323 | pgbench_tellers_pkey  |           270336
 2017-02-03 22:54:41.643235+01 | 1486158881.64323 | pgbench_accounts_pkey |        224641024

 2017-02-03 22:54:42.718277+01 | 1486158882.71828 | pgbench_branches_pkey |            57344
 2017-02-03 22:54:42.718277+01 | 1486158882.71828 | pgbench_tellers_pkey  |           270336
 2017-02-03 22:54:42.718277+01 | 1486158882.71828 | pgbench_accounts_pkey |        224641024

 2017-02-03 22:54:43.801542+01 | 1486158883.80154 | pgbench_branches_pkey |            57344
 2017-02-03 22:54:43.801542+01 | 1486158883.80154 | pgbench_tellers_pkey  |           270336
 2017-02-03 22:54:43.801542+01 | 1486158883.80154 | pgbench_accounts_pkey |        224641024

 2017-02-03 22:54:44.875075+01 | 1486158884.87508 | pgbench_branches_pkey |            57344
 2017-02-03 22:54:44.875075+01 | 1486158884.87508 | pgbench_tellers_pkey  |           270336
 2017-02-03 22:54:44.875075+01 | 1486158884.87508 | pgbench_accounts_pkey |        224641024

 2017-02-03 22:54:45.947625+01 | 1486158885.94762 | pgbench_branches_pkey |            57344
 2017-02-03 22:54:45.947625+01 | 1486158885.94762 | pgbench_tellers_pkey  |           270336
 2017-02-03 22:54:45.947625+01 | 1486158885.94762 | pgbench_accounts_pkey |        224641024

 2017-02-03 22:54:47.031216+01 | 1486158887.03122 | pgbench_branches_pkey |            57344
 2017-02-03 22:54:47.031216+01 | 1486158887.03122 | pgbench_tellers_pkey  |           270336
 2017-02-03 22:54:47.031216+01 | 1486158887.03122 | pgbench_accounts_pkey |        224641024

 2017-02-03 22:54:48.10839+01 | 1486158888.10839 | pgbench_branches_pkey |            57344
 2017-02-03 22:54:48.10839+01 | 1486158888.10839 | pgbench_tellers_pkey  |           270336
 2017-02-03 22:54:48.10839+01 | 1486158888.10839 | pgbench_accounts_pkey |        224641024

 2017-02-03 22:54:49.19691+01 | 1486158889.19691 | pgbench_branches_pkey |            57344
 2017-02-03 22:54:49.19691+01 | 1486158889.19691 | pgbench_tellers_pkey  |           270336
 2017-02-03 22:54:49.19691+01 | 1486158889.19691 | pgbench_accounts_pkey |        224641024

 2017-02-03 22:54:50.280262+01 | 1486158890.28026 | pgbench_branches_pkey |            57344
 2017-02-03 22:54:50.280262+01 | 1486158890.28026 | pgbench_tellers_pkey  |           270336
 2017-02-03 22:54:50.280262+01 | 1486158890.28026 | pgbench_accounts_pkey |        224641024

 2017-02-03 22:54:51.364859+01 | 1486158891.36486 | pgbench_branches_pkey |            57344
 2017-02-03 22:54:51.364859+01 | 1486158891.36486 | pgbench_tellers_pkey  |           270336
 2017-02-03 22:54:51.364859+01 | 1486158891.36486 | pgbench_accounts_pkey |        224641024

 2017-02-03 22:54:52.447411+01 | 1486158892.44741 | pgbench_branches_pkey |            57344
 2017-02-03 22:54:52.447411+01 | 1486158892.44741 | pgbench_tellers_pkey  |           270336
 2017-02-03 22:54:52.447411+01 | 1486158892.44741 | pgbench_accounts_pkey |        224641024

 2017-02-03 22:54:53.520727+01 | 1486158893.52073 | pgbench_branches_pkey |            57344
 2017-02-03 22:54:53.520727+01 | 1486158893.52073 | pgbench_tellers_pkey  |           270336
 2017-02-03 22:54:53.520727+01 | 1486158893.52073 | pgbench_accounts_pkey |        224641024

 2017-02-03 22:54:54.616066+01 | 1486158894.61607 | pgbench_branches_pkey |            57344
 2017-02-03 22:54:54.616066+01 | 1486158894.61607 | pgbench_tellers_pkey  |           270336
 2017-02-03 22:54:54.616066+01 | 1486158894.61607 | pgbench_accounts_pkey |        224641024

 2017-02-03 22:54:55.70468+01 | 1486158895.70468 | pgbench_branches_pkey |            57344
 2017-02-03 22:54:55.70468+01 | 1486158895.70468 | pgbench_tellers_pkey  |           270336
 2017-02-03 22:54:55.70468+01 | 1486158895.70468 | pgbench_accounts_pkey |        224641024

 2017-02-03 22:54:56.783982+01 | 1486158896.78398 | pgbench_branches_pkey |            57344
 2017-02-03 22:54:56.783982+01 | 1486158896.78398 | pgbench_tellers_pkey  |           270336
 2017-02-03 22:54:56.783982+01 | 1486158896.78398 | pgbench_accounts_pkey |        224641024

 2017-02-03 22:54:57.869933+01 | 1486158897.86993 | pgbench_branches_pkey |            57344
 2017-02-03 22:54:57.869933+01 | 1486158897.86993 | pgbench_tellers_pkey  |           270336
 2017-02-03 22:54:57.869933+01 | 1486158897.86993 | pgbench_accounts_pkey |        224641024

 2017-02-03 22:54:58.947559+01 | 1486158898.94756 | pgbench_branches_pkey |            57344
 2017-02-03 22:54:58.947559+01 | 1486158898.94756 | pgbench_tellers_pkey  |           270336
 2017-02-03 22:54:58.947559+01 | 1486158898.94756 | pgbench_accounts_pkey |        224641024

 2017-02-03 22:55:00.032603+01 | 1486158900.0326 | pgbench_branches_pkey |            57344
 2017-02-03 22:55:00.032603+01 | 1486158900.0326 | pgbench_tellers_pkey  |           270336
 2017-02-03 22:55:00.032603+01 | 1486158900.0326 | pgbench_accounts_pkey |        224641024

 2017-02-03 22:55:01.105398+01 | 1486158901.1054 | pgbench_branches_pkey |            57344
 2017-02-03 22:55:01.105398+01 | 1486158901.1054 | pgbench_tellers_pkey  |           270336
 2017-02-03 22:55:01.105398+01 | 1486158901.1054 | pgbench_accounts_pkey |        224641024

 2017-02-03 22:55:02.182555+01 | 1486158902.18255 | pgbench_branches_pkey |            57344
 2017-02-03 22:55:02.182555+01 | 1486158902.18255 | pgbench_tellers_pkey  |           270336
 2017-02-03 22:55:02.182555+01 | 1486158902.18255 | pgbench_accounts_pkey |        224641024

 2017-02-03 22:55:03.263327+01 | 1486158903.26333 | pgbench_branches_pkey |            57344
 2017-02-03 22:55:03.263327+01 | 1486158903.26333 | pgbench_tellers_pkey  |           270336
 2017-02-03 22:55:03.263327+01 | 1486158903.26333 | pgbench_accounts_pkey |        224641024

 2017-02-03 22:55:04.336726+01 | 1486158904.33673 | pgbench_branches_pkey |            57344
 2017-02-03 22:55:04.336726+01 | 1486158904.33673 | pgbench_tellers_pkey  |           270336
 2017-02-03 22:55:04.336726+01 | 1486158904.33673 | pgbench_accounts_pkey |        224641024

 2017-02-03 22:55:05.418209+01 | 1486158905.41821 | pgbench_branches_pkey |            57344
 2017-02-03 22:55:05.418209+01 | 1486158905.41821 | pgbench_tellers_pkey  |           270336
 2017-02-03 22:55:05.418209+01 | 1486158905.41821 | pgbench_accounts_pkey |        224641024

 2017-02-03 22:55:06.494119+01 | 1486158906.49412 | pgbench_branches_pkey |            57344
 2017-02-03 22:55:06.494119+01 | 1486158906.49412 | pgbench_tellers_pkey  |           270336
 2017-02-03 22:55:06.494119+01 | 1486158906.49412 | pgbench_accounts_pkey |        224641024

 2017-02-03 22:55:07.574386+01 | 1486158907.57439 | pgbench_branches_pkey |            57344
 2017-02-03 22:55:07.574386+01 | 1486158907.57439 | pgbench_tellers_pkey  |           270336
 2017-02-03 22:55:07.574386+01 | 1486158907.57439 | pgbench_accounts_pkey |        224641024

 2017-02-03 22:55:08.65297+01 | 1486158908.65297 | pgbench_branches_pkey |            57344
 2017-02-03 22:55:08.65297+01 | 1486158908.65297 | pgbench_tellers_pkey  |           270336
 2017-02-03 22:55:08.65297+01 | 1486158908.65297 | pgbench_accounts_pkey |        224641024

 2017-02-03 22:55:09.726085+01 | 1486158909.72608 | pgbench_branches_pkey |            57344
 2017-02-03 22:55:09.726085+01 | 1486158909.72608 | pgbench_tellers_pkey  |           270336
 2017-02-03 22:55:09.726085+01 | 1486158909.72608 | pgbench_accounts_pkey |        224641024

 2017-02-03 22:55:10.801641+01 | 1486158910.80164 | pgbench_branches_pkey |            57344
 2017-02-03 22:55:10.801641+01 | 1486158910.80164 | pgbench_tellers_pkey  |           270336
 2017-02-03 22:55:10.801641+01 | 1486158910.80164 | pgbench_accounts_pkey |        224641024

 2017-02-03 22:55:11.885919+01 | 1486158911.88592 | pgbench_branches_pkey |            57344
 2017-02-03 22:55:11.885919+01 | 1486158911.88592 | pgbench_tellers_pkey  |           270336
 2017-02-03 22:55:11.885919+01 | 1486158911.88592 | pgbench_accounts_pkey |        224641024

 2017-02-03 22:55:12.962873+01 | 1486158912.96287 | pgbench_branches_pkey |            57344
 2017-02-03 22:55:12.962873+01 | 1486158912.96287 | pgbench_tellers_pkey  |           270336
 2017-02-03 22:55:12.962873+01 | 1486158912.96287 | pgbench_accounts_pkey |        224641024

 2017-02-03 22:55:14.037833+01 | 1486158914.03783 | pgbench_branches_pkey |            57344
 2017-02-03 22:55:14.037833+01 | 1486158914.03783 | pgbench_tellers_pkey  |           270336
 2017-02-03 22:55:14.037833+01 | 1486158914.03783 | pgbench_accounts_pkey |        224641024

 2017-02-03 22:55:15.112757+01 | 1486158915.11276 | pgbench_branches_pkey |            57344
 2017-02-03 22:55:15.112757+01 | 1486158915.11276 | pgbench_tellers_pkey  |           270336
 2017-02-03 22:55:15.112757+01 | 1486158915.11276 | pgbench_accounts_pkey |        224641024

 2017-02-03 22:55:16.184075+01 | 1486158916.18408 | pgbench_branches_pkey |            57344
 2017-02-03 22:55:16.184075+01 | 1486158916.18408 | pgbench_tellers_pkey  |           270336
 2017-02-03 22:55:16.184075+01 | 1486158916.18408 | pgbench_accounts_pkey |        224641024

 2017-02-03 22:55:17.269927+01 | 1486158917.26993 | pgbench_branches_pkey |            57344
 2017-02-03 22:55:17.269927+01 | 1486158917.26993 | pgbench_tellers_pkey  |           270336
 2017-02-03 22:55:17.269927+01 | 1486158917.26993 | pgbench_accounts_pkey |        224641024

 2017-02-03 22:55:18.338809+01 | 1486158918.33881 | pgbench_branches_pkey |            57344
 2017-02-03 22:55:18.338809+01 | 1486158918.33881 | pgbench_tellers_pkey  |           270336
 2017-02-03 22:55:18.338809+01 | 1486158918.33881 | pgbench_accounts_pkey |        224641024

 2017-02-03 22:55:19.419323+01 | 1486158919.41932 | pgbench_branches_pkey |            57344
 2017-02-03 22:55:19.419323+01 | 1486158919.41932 | pgbench_tellers_pkey  |           270336
 2017-02-03 22:55:19.419323+01 | 1486158919.41932 | pgbench_accounts_pkey |        224641024

 2017-02-03 22:55:20.493608+01 | 1486158920.49361 | pgbench_branches_pkey |            57344
 2017-02-03 22:55:20.493608+01 | 1486158920.49361 | pgbench_tellers_pkey  |           270336
 2017-02-03 22:55:20.493608+01 | 1486158920.49361 | pgbench_accounts_pkey |        224641024

 2017-02-03 22:55:21.573692+01 | 1486158921.57369 | pgbench_branches_pkey |            57344
 2017-02-03 22:55:21.573692+01 | 1486158921.57369 | pgbench_tellers_pkey  |           270336
 2017-02-03 22:55:21.573692+01 | 1486158921.57369 | pgbench_accounts_pkey |        224641024

 2017-02-03 22:55:22.653983+01 | 1486158922.65398 | pgbench_branches_pkey |            57344
 2017-02-03 22:55:22.653983+01 | 1486158922.65398 | pgbench_tellers_pkey  |           270336
 2017-02-03 22:55:22.653983+01 | 1486158922.65398 | pgbench_accounts_pkey |        224641024

 2017-02-03 22:55:23.733938+01 | 1486158923.73394 | pgbench_branches_pkey |            57344
 2017-02-03 22:55:23.733938+01 | 1486158923.73394 | pgbench_tellers_pkey  |           270336
 2017-02-03 22:55:23.733938+01 | 1486158923.73394 | pgbench_accounts_pkey |        224641024

 2017-02-03 22:55:24.810283+01 | 1486158924.81028 | pgbench_branches_pkey |            57344
 2017-02-03 22:55:24.810283+01 | 1486158924.81028 | pgbench_tellers_pkey  |           270336
 2017-02-03 22:55:24.810283+01 | 1486158924.81028 | pgbench_accounts_pkey |        224641024

 2017-02-03 22:55:25.890512+01 | 1486158925.89051 | pgbench_branches_pkey |            57344
 2017-02-03 22:55:25.890512+01 | 1486158925.89051 | pgbench_tellers_pkey  |           270336
 2017-02-03 22:55:25.890512+01 | 1486158925.89051 | pgbench_accounts_pkey |        224641024

 2017-02-03 22:55:26.970104+01 | 1486158926.9701 | pgbench_branches_pkey |            57344
 2017-02-03 22:55:26.970104+01 | 1486158926.9701 | pgbench_tellers_pkey  |           270336
 2017-02-03 22:55:26.970104+01 | 1486158926.9701 | pgbench_accounts_pkey |        224641024

 2017-02-03 22:55:28.051076+01 | 1486158928.05108 | pgbench_branches_pkey |            57344
 2017-02-03 22:55:28.051076+01 | 1486158928.05108 | pgbench_tellers_pkey  |           270336
 2017-02-03 22:55:28.051076+01 | 1486158928.05108 | pgbench_accounts_pkey |        224641024

 2017-02-03 22:55:29.137182+01 | 1486158929.13718 | pgbench_branches_pkey |            57344
 2017-02-03 22:55:29.137182+01 | 1486158929.13718 | pgbench_tellers_pkey  |           270336
 2017-02-03 22:55:29.137182+01 | 1486158929.13718 | pgbench_accounts_pkey |        224641024

 2017-02-03 22:55:30.218019+01 | 1486158930.21802 | pgbench_branches_pkey |            57344
 2017-02-03 22:55:30.218019+01 | 1486158930.21802 | pgbench_tellers_pkey  |           270336
 2017-02-03 22:55:30.218019+01 | 1486158930.21802 | pgbench_accounts_pkey |        224641024

 2017-02-03 22:55:31.291875+01 | 1486158931.29187 | pgbench_branches_pkey |            57344
 2017-02-03 22:55:31.291875+01 | 1486158931.29187 | pgbench_tellers_pkey  |           270336
 2017-02-03 22:55:31.291875+01 | 1486158931.29187 | pgbench_accounts_pkey |        224641024

 2017-02-03 22:55:32.373581+01 | 1486158932.37358 | pgbench_branches_pkey |            57344
 2017-02-03 22:55:32.373581+01 | 1486158932.37358 | pgbench_tellers_pkey  |           270336
 2017-02-03 22:55:32.373581+01 | 1486158932.37358 | pgbench_accounts_pkey |        224641024

 2017-02-03 22:55:33.452811+01 | 1486158933.45281 | pgbench_branches_pkey |            57344
 2017-02-03 22:55:33.452811+01 | 1486158933.45281 | pgbench_tellers_pkey  |           270336
 2017-02-03 22:55:33.452811+01 | 1486158933.45281 | pgbench_accounts_pkey |        224641024

 2017-02-03 22:55:34.529441+01 | 1486158934.52944 | pgbench_branches_pkey |            57344
 2017-02-03 22:55:34.529441+01 | 1486158934.52944 | pgbench_tellers_pkey  |           270336
 2017-02-03 22:55:34.529441+01 | 1486158934.52944 | pgbench_accounts_pkey |        224641024

 2017-02-03 22:55:35.611404+01 | 1486158935.6114 | pgbench_branches_pkey |            57344
 2017-02-03 22:55:35.611404+01 | 1486158935.6114 | pgbench_tellers_pkey  |           270336
 2017-02-03 22:55:35.611404+01 | 1486158935.6114 | pgbench_accounts_pkey |        224641024

 2017-02-03 22:55:36.695126+01 | 1486158936.69513 | pgbench_branches_pkey |            57344
 2017-02-03 22:55:36.695126+01 | 1486158936.69513 | pgbench_tellers_pkey  |           270336
 2017-02-03 22:55:36.695126+01 | 1486158936.69513 | pgbench_accounts_pkey |        224641024

 2017-02-03 22:55:37.772213+01 | 1486158937.77221 | pgbench_branches_pkey |            57344
 2017-02-03 22:55:37.772213+01 | 1486158937.77221 | pgbench_tellers_pkey  |           270336
 2017-02-03 22:55:37.772213+01 | 1486158937.77221 | pgbench_accounts_pkey |        224641024

 2017-02-03 22:55:38.851599+01 | 1486158938.8516 | pgbench_branches_pkey |            57344
 2017-02-03 22:55:38.851599+01 | 1486158938.8516 | pgbench_tellers_pkey  |           270336
 2017-02-03 22:55:38.851599+01 | 1486158938.8516 | pgbench_accounts_pkey |        224641024

 2017-02-03 22:55:39.930819+01 | 1486158939.93082 | pgbench_branches_pkey |            57344
 2017-02-03 22:55:39.930819+01 | 1486158939.93082 | pgbench_tellers_pkey  |           270336
 2017-02-03 22:55:39.930819+01 | 1486158939.93082 | pgbench_accounts_pkey |        224641024

 2017-02-03 22:55:41.009061+01 | 1486158941.00906 | pgbench_branches_pkey |            57344
 2017-02-03 22:55:41.009061+01 | 1486158941.00906 | pgbench_tellers_pkey  |           270336
 2017-02-03 22:55:41.009061+01 | 1486158941.00906 | pgbench_accounts_pkey |        224641024

 2017-02-03 22:55:42.08371+01 | 1486158942.08371 | pgbench_branches_pkey |            57344
 2017-02-03 22:55:42.08371+01 | 1486158942.08371 | pgbench_tellers_pkey  |           270336
 2017-02-03 22:55:42.08371+01 | 1486158942.08371 | pgbench_accounts_pkey |        224641024

 2017-02-03 22:55:43.167697+01 | 1486158943.1677 | pgbench_branches_pkey |            57344
 2017-02-03 22:55:43.167697+01 | 1486158943.1677 | pgbench_tellers_pkey  |           270336
 2017-02-03 22:55:43.167697+01 | 1486158943.1677 | pgbench_accounts_pkey |        224641024

 2017-02-03 22:55:44.24697+01 | 1486158944.24697 | pgbench_branches_pkey |            57344
 2017-02-03 22:55:44.24697+01 | 1486158944.24697 | pgbench_tellers_pkey  |           270336
 2017-02-03 22:55:44.24697+01 | 1486158944.24697 | pgbench_accounts_pkey |        224641024

 2017-02-03 22:55:45.327248+01 | 1486158945.32725 | pgbench_branches_pkey |            57344
 2017-02-03 22:55:45.327248+01 | 1486158945.32725 | pgbench_tellers_pkey  |           270336
 2017-02-03 22:55:45.327248+01 | 1486158945.32725 | pgbench_accounts_pkey |        224641024

 2017-02-03 22:55:46.405118+01 | 1486158946.40512 | pgbench_branches_pkey |            57344
 2017-02-03 22:55:46.405118+01 | 1486158946.40512 | pgbench_tellers_pkey  |           270336
 2017-02-03 22:55:46.405118+01 | 1486158946.40512 | pgbench_accounts_pkey |        224641024

 2017-02-03 22:55:47.484504+01 | 1486158947.4845 | pgbench_branches_pkey |            57344
 2017-02-03 22:55:47.484504+01 | 1486158947.4845 | pgbench_tellers_pkey  |           270336
 2017-02-03 22:55:47.484504+01 | 1486158947.4845 | pgbench_accounts_pkey |        224641024

 2017-02-03 22:55:48.5609+01 | 1486158948.5609 | pgbench_branches_pkey |            57344
 2017-02-03 22:55:48.5609+01 | 1486158948.5609 | pgbench_tellers_pkey  |           270336
 2017-02-03 22:55:48.5609+01 | 1486158948.5609 | pgbench_accounts_pkey |        224641024

 2017-02-03 22:55:49.654114+01 | 1486158949.65411 | pgbench_branches_pkey |            57344
 2017-02-03 22:55:49.654114+01 | 1486158949.65411 | pgbench_tellers_pkey  |           270336
 2017-02-03 22:55:49.654114+01 | 1486158949.65411 | pgbench_accounts_pkey |        224641024

 2017-02-03 22:55:50.731772+01 | 1486158950.73177 | pgbench_branches_pkey |            57344
 2017-02-03 22:55:50.731772+01 | 1486158950.73177 | pgbench_tellers_pkey  |           270336
 2017-02-03 22:55:50.731772+01 | 1486158950.73177 | pgbench_accounts_pkey |        224641024

 2017-02-03 22:55:51.808459+01 | 1486158951.80846 | pgbench_branches_pkey |            57344
 2017-02-03 22:55:51.808459+01 | 1486158951.80846 | pgbench_tellers_pkey  |           270336
 2017-02-03 22:55:51.808459+01 | 1486158951.80846 | pgbench_accounts_pkey |        224641024

 2017-02-03 22:55:52.885005+01 | 1486158952.885 | pgbench_branches_pkey |            57344
 2017-02-03 22:55:52.885005+01 | 1486158952.885 | pgbench_tellers_pkey  |           270336
 2017-02-03 22:55:52.885005+01 | 1486158952.885 | pgbench_accounts_pkey |        224641024

 2017-02-03 22:55:53.962737+01 | 1486158953.96274 | pgbench_branches_pkey |            57344
 2017-02-03 22:55:53.962737+01 | 1486158953.96274 | pgbench_tellers_pkey  |           270336
 2017-02-03 22:55:53.962737+01 | 1486158953.96274 | pgbench_accounts_pkey |        224641024

 2017-02-03 22:55:55.047923+01 | 1486158955.04792 | pgbench_branches_pkey |            57344
 2017-02-03 22:55:55.047923+01 | 1486158955.04792 | pgbench_tellers_pkey  |           270336
 2017-02-03 22:55:55.047923+01 | 1486158955.04792 | pgbench_accounts_pkey |        224641024

 2017-02-03 22:55:56.124764+01 | 1486158956.12476 | pgbench_branches_pkey |            57344
 2017-02-03 22:55:56.124764+01 | 1486158956.12476 | pgbench_tellers_pkey  |           270336
 2017-02-03 22:55:56.124764+01 | 1486158956.12476 | pgbench_accounts_pkey |        224641024

 2017-02-03 22:55:57.205481+01 | 1486158957.20548 | pgbench_branches_pkey |            57344
 2017-02-03 22:55:57.205481+01 | 1486158957.20548 | pgbench_tellers_pkey  |           270336
 2017-02-03 22:55:57.205481+01 | 1486158957.20548 | pgbench_accounts_pkey |        224641024

 2017-02-03 22:55:58.279185+01 | 1486158958.27919 | pgbench_branches_pkey |            57344
 2017-02-03 22:55:58.279185+01 | 1486158958.27919 | pgbench_tellers_pkey  |           270336
 2017-02-03 22:55:58.279185+01 | 1486158958.27919 | pgbench_accounts_pkey |        224641024

 2017-02-03 22:55:59.351492+01 | 1486158959.35149 | pgbench_branches_pkey |            57344
 2017-02-03 22:55:59.351492+01 | 1486158959.35149 | pgbench_tellers_pkey  |           270336
 2017-02-03 22:55:59.351492+01 | 1486158959.35149 | pgbench_accounts_pkey |        224641024

 2017-02-03 22:56:00.438184+01 | 1486158960.43818 | pgbench_branches_pkey |            57344
 2017-02-03 22:56:00.438184+01 | 1486158960.43818 | pgbench_tellers_pkey  |           270336
 2017-02-03 22:56:00.438184+01 | 1486158960.43818 | pgbench_accounts_pkey |        224641024

 2017-02-03 22:56:01.512563+01 | 1486158961.51256 | pgbench_branches_pkey |            57344
 2017-02-03 22:56:01.512563+01 | 1486158961.51256 | pgbench_tellers_pkey  |           270336
 2017-02-03 22:56:01.512563+01 | 1486158961.51256 | pgbench_accounts_pkey |        224641024

 2017-02-03 22:56:02.599402+01 | 1486158962.5994 | pgbench_branches_pkey |            57344
 2017-02-03 22:56:02.599402+01 | 1486158962.5994 | pgbench_tellers_pkey  |           270336
 2017-02-03 22:56:02.599402+01 | 1486158962.5994 | pgbench_accounts_pkey |        224641024

 2017-02-03 22:56:03.67661+01 | 1486158963.67661 | pgbench_branches_pkey |            57344
 2017-02-03 22:56:03.67661+01 | 1486158963.67661 | pgbench_tellers_pkey  |           270336
 2017-02-03 22:56:03.67661+01 | 1486158963.67661 | pgbench_accounts_pkey |        224641024

 2017-02-03 22:56:04.759485+01 | 1486158964.75949 | pgbench_branches_pkey |            57344
 2017-02-03 22:56:04.759485+01 | 1486158964.75949 | pgbench_tellers_pkey  |           270336
 2017-02-03 22:56:04.759485+01 | 1486158964.75949 | pgbench_accounts_pkey |        224641024

 2017-02-03 22:56:05.839175+01 | 1486158965.83917 | pgbench_branches_pkey |            57344
 2017-02-03 22:56:05.839175+01 | 1486158965.83917 | pgbench_tellers_pkey  |           270336
 2017-02-03 22:56:05.839175+01 | 1486158965.83917 | pgbench_accounts_pkey |        224641024

 2017-02-03 22:56:06.914737+01 | 1486158966.91474 | pgbench_branches_pkey |            57344
 2017-02-03 22:56:06.914737+01 | 1486158966.91474 | pgbench_tellers_pkey  |           270336
 2017-02-03 22:56:06.914737+01 | 1486158966.91474 | pgbench_accounts_pkey |        224641024

 2017-02-03 22:56:07.987808+01 | 1486158967.98781 | pgbench_branches_pkey |            57344
 2017-02-03 22:56:07.987808+01 | 1486158967.98781 | pgbench_tellers_pkey  |           270336
 2017-02-03 22:56:07.987808+01 | 1486158967.98781 | pgbench_accounts_pkey |        224641024

 2017-02-03 22:56:09.066406+01 | 1486158969.06641 | pgbench_branches_pkey |            57344
 2017-02-03 22:56:09.066406+01 | 1486158969.06641 | pgbench_tellers_pkey  |           270336
 2017-02-03 22:56:09.066406+01 | 1486158969.06641 | pgbench_accounts_pkey |        224641024

 2017-02-03 22:56:10.143172+01 | 1486158970.14317 | pgbench_branches_pkey |            57344
 2017-02-03 22:56:10.143172+01 | 1486158970.14317 | pgbench_tellers_pkey  |           270336
 2017-02-03 22:56:10.143172+01 | 1486158970.14317 | pgbench_accounts_pkey |        224641024

 2017-02-03 22:56:11.219323+01 | 1486158971.21932 | pgbench_branches_pkey |            57344
 2017-02-03 22:56:11.219323+01 | 1486158971.21932 | pgbench_tellers_pkey  |           270336
 2017-02-03 22:56:11.219323+01 | 1486158971.21932 | pgbench_accounts_pkey |        224641024

 2017-02-03 22:56:12.295783+01 | 1486158972.29578 | pgbench_branches_pkey |            57344
 2017-02-03 22:56:12.295783+01 | 1486158972.29578 | pgbench_tellers_pkey  |           270336
 2017-02-03 22:56:12.295783+01 | 1486158972.29578 | pgbench_accounts_pkey |        224641024

 2017-02-03 22:56:13.376852+01 | 1486158973.37685 | pgbench_branches_pkey |            57344
 2017-02-03 22:56:13.376852+01 | 1486158973.37685 | pgbench_tellers_pkey  |           270336
 2017-02-03 22:56:13.376852+01 | 1486158973.37685 | pgbench_accounts_pkey |        224641024

 2017-02-03 22:56:14.451789+01 | 1486158974.45179 | pgbench_branches_pkey |            57344
 2017-02-03 22:56:14.451789+01 | 1486158974.45179 | pgbench_tellers_pkey  |           270336
 2017-02-03 22:56:14.451789+01 | 1486158974.45179 | pgbench_accounts_pkey |        224641024

 2017-02-03 22:56:15.533058+01 | 1486158975.53306 | pgbench_branches_pkey |            57344
 2017-02-03 22:56:15.533058+01 | 1486158975.53306 | pgbench_tellers_pkey  |           270336
 2017-02-03 22:56:15.533058+01 | 1486158975.53306 | pgbench_accounts_pkey |        224641024

 2017-02-03 22:56:16.609593+01 | 1486158976.60959 | pgbench_branches_pkey |            57344
 2017-02-03 22:56:16.609593+01 | 1486158976.60959 | pgbench_tellers_pkey  |           270336
 2017-02-03 22:56:16.609593+01 | 1486158976.60959 | pgbench_accounts_pkey |        224641024

 2017-02-03 22:56:17.690428+01 | 1486158977.69043 | pgbench_branches_pkey |            57344
 2017-02-03 22:56:17.690428+01 | 1486158977.69043 | pgbench_tellers_pkey  |           270336
 2017-02-03 22:56:17.690428+01 | 1486158977.69043 | pgbench_accounts_pkey |        224641024

 2017-02-03 22:56:18.76599+01 | 1486158978.76599 | pgbench_branches_pkey |            57344
 2017-02-03 22:56:18.76599+01 | 1486158978.76599 | pgbench_tellers_pkey  |           270336
 2017-02-03 22:56:18.76599+01 | 1486158978.76599 | pgbench_accounts_pkey |        224641024

 2017-02-03 22:56:19.839876+01 | 1486158979.83988 | pgbench_branches_pkey |            57344
 2017-02-03 22:56:19.839876+01 | 1486158979.83988 | pgbench_tellers_pkey  |           270336
 2017-02-03 22:56:19.839876+01 | 1486158979.83988 | pgbench_accounts_pkey |        224641024

 2017-02-03 22:56:20.917295+01 | 1486158980.91729 | pgbench_branches_pkey |            57344
 2017-02-03 22:56:20.917295+01 | 1486158980.91729 | pgbench_tellers_pkey  |           270336
 2017-02-03 22:56:20.917295+01 | 1486158980.91729 | pgbench_accounts_pkey |        224641024

 2017-02-03 22:56:21.995124+01 | 1486158981.99512 | pgbench_branches_pkey |            57344
 2017-02-03 22:56:21.995124+01 | 1486158981.99512 | pgbench_tellers_pkey  |           270336
 2017-02-03 22:56:21.995124+01 | 1486158981.99512 | pgbench_accounts_pkey |        224641024

 2017-02-03 22:56:23.073341+01 | 1486158983.07334 | pgbench_branches_pkey |            57344
 2017-02-03 22:56:23.073341+01 | 1486158983.07334 | pgbench_tellers_pkey  |           270336
 2017-02-03 22:56:23.073341+01 | 1486158983.07334 | pgbench_accounts_pkey |        224641024

 2017-02-03 22:56:24.154748+01 | 1486158984.15475 | pgbench_branches_pkey |            57344
 2017-02-03 22:56:24.154748+01 | 1486158984.15475 | pgbench_tellers_pkey  |           270336
 2017-02-03 22:56:24.154748+01 | 1486158984.15475 | pgbench_accounts_pkey |        224641024

 2017-02-03 22:56:25.229614+01 | 1486158985.22961 | pgbench_branches_pkey |            57344
 2017-02-03 22:56:25.229614+01 | 1486158985.22961 | pgbench_tellers_pkey  |           270336
 2017-02-03 22:56:25.229614+01 | 1486158985.22961 | pgbench_accounts_pkey |        224641024

 2017-02-03 22:56:26.303072+01 | 1486158986.30307 | pgbench_branches_pkey |            57344
 2017-02-03 22:56:26.303072+01 | 1486158986.30307 | pgbench_tellers_pkey  |           270336
 2017-02-03 22:56:26.303072+01 | 1486158986.30307 | pgbench_accounts_pkey |        224641024

 2017-02-03 22:56:27.379299+01 | 1486158987.3793 | pgbench_branches_pkey |            57344
 2017-02-03 22:56:27.379299+01 | 1486158987.3793 | pgbench_tellers_pkey  |           270336
 2017-02-03 22:56:27.379299+01 | 1486158987.3793 | pgbench_accounts_pkey |        224641024

 2017-02-03 22:56:28.457089+01 | 1486158988.45709 | pgbench_branches_pkey |            57344
 2017-02-03 22:56:28.457089+01 | 1486158988.45709 | pgbench_tellers_pkey  |           270336
 2017-02-03 22:56:28.457089+01 | 1486158988.45709 | pgbench_accounts_pkey |        224641024

 2017-02-03 22:56:29.534435+01 | 1486158989.53444 | pgbench_branches_pkey |            57344
 2017-02-03 22:56:29.534435+01 | 1486158989.53444 | pgbench_tellers_pkey  |           270336
 2017-02-03 22:56:29.534435+01 | 1486158989.53444 | pgbench_accounts_pkey |        224641024

 2017-02-03 22:56:30.610903+01 | 1486158990.6109 | pgbench_branches_pkey |            57344
 2017-02-03 22:56:30.610903+01 | 1486158990.6109 | pgbench_tellers_pkey  |           270336
 2017-02-03 22:56:30.610903+01 | 1486158990.6109 | pgbench_accounts_pkey |        224641024

 2017-02-03 22:56:31.677211+01 | 1486158991.67721 | pgbench_branches_pkey |            57344
 2017-02-03 22:56:31.677211+01 | 1486158991.67721 | pgbench_tellers_pkey  |           270336
 2017-02-03 22:56:31.677211+01 | 1486158991.67721 | pgbench_accounts_pkey |        224641024

 2017-02-03 22:56:32.755531+01 | 1486158992.75553 | pgbench_branches_pkey |            57344
 2017-02-03 22:56:32.755531+01 | 1486158992.75553 | pgbench_tellers_pkey  |           270336
 2017-02-03 22:56:32.755531+01 | 1486158992.75553 | pgbench_accounts_pkey |        224641024

 2017-02-03 22:56:33.830855+01 | 1486158993.83085 | pgbench_branches_pkey |            57344
 2017-02-03 22:56:33.830855+01 | 1486158993.83085 | pgbench_tellers_pkey  |           270336
 2017-02-03 22:56:33.830855+01 | 1486158993.83085 | pgbench_accounts_pkey |        224641024

 2017-02-03 22:56:34.909999+01 | 1486158994.91 | pgbench_branches_pkey |            57344
 2017-02-03 22:56:34.909999+01 | 1486158994.91 | pgbench_tellers_pkey  |           270336
 2017-02-03 22:56:34.909999+01 | 1486158994.91 | pgbench_accounts_pkey |        224641024

 2017-02-03 22:56:35.989011+01 | 1486158995.98901 | pgbench_branches_pkey |            57344
 2017-02-03 22:56:35.989011+01 | 1486158995.98901 | pgbench_tellers_pkey  |           270336
 2017-02-03 22:56:35.989011+01 | 1486158995.98901 | pgbench_accounts_pkey |        224641024

 2017-02-03 22:56:37.072618+01 | 1486158997.07262 | pgbench_branches_pkey |            57344
 2017-02-03 22:56:37.072618+01 | 1486158997.07262 | pgbench_tellers_pkey  |           270336
 2017-02-03 22:56:37.072618+01 | 1486158997.07262 | pgbench_accounts_pkey |        224641024

 2017-02-03 22:56:38.145277+01 | 1486158998.14528 | pgbench_branches_pkey |            57344
 2017-02-03 22:56:38.145277+01 | 1486158998.14528 | pgbench_tellers_pkey  |           270336
 2017-02-03 22:56:38.145277+01 | 1486158998.14528 | pgbench_accounts_pkey |        224641024

 2017-02-03 22:56:39.220907+01 | 1486158999.22091 | pgbench_branches_pkey |            57344
 2017-02-03 22:56:39.220907+01 | 1486158999.22091 | pgbench_tellers_pkey  |           270336
 2017-02-03 22:56:39.220907+01 | 1486158999.22091 | pgbench_accounts_pkey |        224641024

 2017-02-03 22:56:40.294825+01 | 1486159000.29483 | pgbench_branches_pkey |            57344
 2017-02-03 22:56:40.294825+01 | 1486159000.29483 | pgbench_tellers_pkey  |           270336
 2017-02-03 22:56:40.294825+01 | 1486159000.29483 | pgbench_accounts_pkey |        224641024

 2017-02-03 22:56:41.363715+01 | 1486159001.36371 | pgbench_branches_pkey |            57344
 2017-02-03 22:56:41.363715+01 | 1486159001.36371 | pgbench_tellers_pkey  |           270336
 2017-02-03 22:56:41.363715+01 | 1486159001.36371 | pgbench_accounts_pkey |        224641024

 2017-02-03 22:56:42.435968+01 | 1486159002.43597 | pgbench_branches_pkey |            57344
 2017-02-03 22:56:42.435968+01 | 1486159002.43597 | pgbench_tellers_pkey  |           270336
 2017-02-03 22:56:42.435968+01 | 1486159002.43597 | pgbench_accounts_pkey |        224641024

 2017-02-03 22:56:43.510593+01 | 1486159003.51059 | pgbench_branches_pkey |            57344
 2017-02-03 22:56:43.510593+01 | 1486159003.51059 | pgbench_tellers_pkey  |           270336
 2017-02-03 22:56:43.510593+01 | 1486159003.51059 | pgbench_accounts_pkey |        224641024

 2017-02-03 22:56:44.590923+01 | 1486159004.59092 | pgbench_branches_pkey |            57344
 2017-02-03 22:56:44.590923+01 | 1486159004.59092 | pgbench_tellers_pkey  |           270336
 2017-02-03 22:56:44.590923+01 | 1486159004.59092 | pgbench_accounts_pkey |        224641024

 2017-02-03 22:56:45.665798+01 | 1486159005.6658 | pgbench_branches_pkey |            57344
 2017-02-03 22:56:45.665798+01 | 1486159005.6658 | pgbench_tellers_pkey  |           270336
 2017-02-03 22:56:45.665798+01 | 1486159005.6658 | pgbench_accounts_pkey |        224641024

 2017-02-03 22:56:46.74714+01 | 1486159006.74714 | pgbench_branches_pkey |            57344
 2017-02-03 22:56:46.74714+01 | 1486159006.74714 | pgbench_tellers_pkey  |           270336
 2017-02-03 22:56:46.74714+01 | 1486159006.74714 | pgbench_accounts_pkey |        224641024

 2017-02-03 22:56:47.82728+01 | 1486159007.82728 | pgbench_branches_pkey |            57344
 2017-02-03 22:56:47.82728+01 | 1486159007.82728 | pgbench_tellers_pkey  |           270336
 2017-02-03 22:56:47.82728+01 | 1486159007.82728 | pgbench_accounts_pkey |        224641024

 2017-02-03 22:56:48.916933+01 | 1486159008.91693 | pgbench_branches_pkey |            57344
 2017-02-03 22:56:48.916933+01 | 1486159008.91693 | pgbench_tellers_pkey  |           270336
 2017-02-03 22:56:48.916933+01 | 1486159008.91693 | pgbench_accounts_pkey |        224641024

 2017-02-03 22:56:49.996427+01 | 1486159009.99643 | pgbench_branches_pkey |            57344
 2017-02-03 22:56:49.996427+01 | 1486159009.99643 | pgbench_tellers_pkey  |           270336
 2017-02-03 22:56:49.996427+01 | 1486159009.99643 | pgbench_accounts_pkey |        224641024

 2017-02-03 22:56:51.080857+01 | 1486159011.08086 | pgbench_branches_pkey |            57344
 2017-02-03 22:56:51.080857+01 | 1486159011.08086 | pgbench_tellers_pkey  |           270336
 2017-02-03 22:56:51.080857+01 | 1486159011.08086 | pgbench_accounts_pkey |        224641024

 2017-02-03 22:56:52.165252+01 | 1486159012.16525 | pgbench_branches_pkey |            57344
 2017-02-03 22:56:52.165252+01 | 1486159012.16525 | pgbench_tellers_pkey  |           270336
 2017-02-03 22:56:52.165252+01 | 1486159012.16525 | pgbench_accounts_pkey |        224641024

 2017-02-03 22:56:53.24082+01 | 1486159013.24082 | pgbench_branches_pkey |            57344
 2017-02-03 22:56:53.24082+01 | 1486159013.24082 | pgbench_tellers_pkey  |           270336
 2017-02-03 22:56:53.24082+01 | 1486159013.24082 | pgbench_accounts_pkey |        224641024

 2017-02-03 22:56:54.321368+01 | 1486159014.32137 | pgbench_branches_pkey |            57344
 2017-02-03 22:56:54.321368+01 | 1486159014.32137 | pgbench_tellers_pkey  |           270336
 2017-02-03 22:56:54.321368+01 | 1486159014.32137 | pgbench_accounts_pkey |        224641024

 2017-02-03 22:56:55.391457+01 | 1486159015.39146 | pgbench_branches_pkey |            57344
 2017-02-03 22:56:55.391457+01 | 1486159015.39146 | pgbench_tellers_pkey  |           270336
 2017-02-03 22:56:55.391457+01 | 1486159015.39146 | pgbench_accounts_pkey |        224641024

 2017-02-03 22:56:56.473917+01 | 1486159016.47392 | pgbench_branches_pkey |            57344
 2017-02-03 22:56:56.473917+01 | 1486159016.47392 | pgbench_tellers_pkey  |           270336
 2017-02-03 22:56:56.473917+01 | 1486159016.47392 | pgbench_accounts_pkey |        224641024

 2017-02-03 22:56:57.553704+01 | 1486159017.5537 | pgbench_branches_pkey |            57344
 2017-02-03 22:56:57.553704+01 | 1486159017.5537 | pgbench_tellers_pkey  |           270336
 2017-02-03 22:56:57.553704+01 | 1486159017.5537 | pgbench_accounts_pkey |        224641024

 2017-02-03 22:56:58.637923+01 | 1486159018.63792 | pgbench_branches_pkey |            57344
 2017-02-03 22:56:58.637923+01 | 1486159018.63792 | pgbench_tellers_pkey  |           270336
 2017-02-03 22:56:58.637923+01 | 1486159018.63792 | pgbench_accounts_pkey |        224641024

 2017-02-03 22:56:59.711209+01 | 1486159019.71121 | pgbench_branches_pkey |            57344
 2017-02-03 22:56:59.711209+01 | 1486159019.71121 | pgbench_tellers_pkey  |           270336
 2017-02-03 22:56:59.711209+01 | 1486159019.71121 | pgbench_accounts_pkey |        224641024

 2017-02-03 22:57:00.789923+01 | 1486159020.78992 | pgbench_branches_pkey |            57344
 2017-02-03 22:57:00.789923+01 | 1486159020.78992 | pgbench_tellers_pkey  |           270336
 2017-02-03 22:57:00.789923+01 | 1486159020.78992 | pgbench_accounts_pkey |        224641024

 2017-02-03 22:57:01.870729+01 | 1486159021.87073 | pgbench_branches_pkey |            57344
 2017-02-03 22:57:01.870729+01 | 1486159021.87073 | pgbench_tellers_pkey  |           270336
 2017-02-03 22:57:01.870729+01 | 1486159021.87073 | pgbench_accounts_pkey |        224641024

 2017-02-03 22:57:02.958611+01 | 1486159022.95861 | pgbench_branches_pkey |            57344
 2017-02-03 22:57:02.958611+01 | 1486159022.95861 | pgbench_tellers_pkey  |           270336
 2017-02-03 22:57:02.958611+01 | 1486159022.95861 | pgbench_accounts_pkey |        224641024

 2017-02-03 22:57:04.036936+01 | 1486159024.03694 | pgbench_branches_pkey |            57344
 2017-02-03 22:57:04.036936+01 | 1486159024.03694 | pgbench_tellers_pkey  |           270336
 2017-02-03 22:57:04.036936+01 | 1486159024.03694 | pgbench_accounts_pkey |        224641024

 2017-02-03 22:57:05.114562+01 | 1486159025.11456 | pgbench_branches_pkey |            57344
 2017-02-03 22:57:05.114562+01 | 1486159025.11456 | pgbench_tellers_pkey  |           270336
 2017-02-03 22:57:05.114562+01 | 1486159025.11456 | pgbench_accounts_pkey |        224641024

 2017-02-03 22:57:06.192118+01 | 1486159026.19212 | pgbench_branches_pkey |            57344
 2017-02-03 22:57:06.192118+01 | 1486159026.19212 | pgbench_tellers_pkey  |           270336
 2017-02-03 22:57:06.192118+01 | 1486159026.19212 | pgbench_accounts_pkey |        224641024

 2017-02-03 22:57:07.27007+01 | 1486159027.27007 | pgbench_branches_pkey |            57344
 2017-02-03 22:57:07.27007+01 | 1486159027.27007 | pgbench_tellers_pkey  |           270336
 2017-02-03 22:57:07.27007+01 | 1486159027.27007 | pgbench_accounts_pkey |        224641024

 2017-02-03 22:57:08.346917+01 | 1486159028.34692 | pgbench_branches_pkey |            57344
 2017-02-03 22:57:08.346917+01 | 1486159028.34692 | pgbench_tellers_pkey  |           270336
 2017-02-03 22:57:08.346917+01 | 1486159028.34692 | pgbench_accounts_pkey |        224641024

 2017-02-03 22:57:09.419119+01 | 1486159029.41912 | pgbench_branches_pkey |            57344
 2017-02-03 22:57:09.419119+01 | 1486159029.41912 | pgbench_tellers_pkey  |           270336
 2017-02-03 22:57:09.419119+01 | 1486159029.41912 | pgbench_accounts_pkey |        224641024

 2017-02-03 22:57:10.494389+01 | 1486159030.49439 | pgbench_branches_pkey |            57344
 2017-02-03 22:57:10.494389+01 | 1486159030.49439 | pgbench_tellers_pkey  |           270336
 2017-02-03 22:57:10.494389+01 | 1486159030.49439 | pgbench_accounts_pkey |        224641024

 2017-02-03 22:57:11.575323+01 | 1486159031.57532 | pgbench_branches_pkey |            57344
 2017-02-03 22:57:11.575323+01 | 1486159031.57532 | pgbench_tellers_pkey  |           270336
 2017-02-03 22:57:11.575323+01 | 1486159031.57532 | pgbench_accounts_pkey |        224641024

 2017-02-03 22:57:12.648344+01 | 1486159032.64834 | pgbench_branches_pkey |            57344
 2017-02-03 22:57:12.648344+01 | 1486159032.64834 | pgbench_tellers_pkey  |           270336
 2017-02-03 22:57:12.648344+01 | 1486159032.64834 | pgbench_accounts_pkey |        224641024

 2017-02-03 22:57:13.723805+01 | 1486159033.7238 | pgbench_branches_pkey |            57344
 2017-02-03 22:57:13.723805+01 | 1486159033.7238 | pgbench_tellers_pkey  |           270336
 2017-02-03 22:57:13.723805+01 | 1486159033.7238 | pgbench_accounts_pkey |        224641024

 2017-02-03 22:57:14.799043+01 | 1486159034.79904 | pgbench_branches_pkey |            57344
 2017-02-03 22:57:14.799043+01 | 1486159034.79904 | pgbench_tellers_pkey  |           270336
 2017-02-03 22:57:14.799043+01 | 1486159034.79904 | pgbench_accounts_pkey |        224641024

 2017-02-03 22:57:15.88702+01 | 1486159035.88702 | pgbench_branches_pkey |            57344
 2017-02-03 22:57:15.88702+01 | 1486159035.88702 | pgbench_tellers_pkey  |           270336
 2017-02-03 22:57:15.88702+01 | 1486159035.88702 | pgbench_accounts_pkey |        224641024

 2017-02-03 22:57:16.973999+01 | 1486159036.974 | pgbench_branches_pkey |            57344
 2017-02-03 22:57:16.973999+01 | 1486159036.974 | pgbench_tellers_pkey  |           270336
 2017-02-03 22:57:16.973999+01 | 1486159036.974 | pgbench_accounts_pkey |        224641024

 2017-02-03 22:57:18.04892+01 | 1486159038.04892 | pgbench_branches_pkey |            57344
 2017-02-03 22:57:18.04892+01 | 1486159038.04892 | pgbench_tellers_pkey  |           270336
 2017-02-03 22:57:18.04892+01 | 1486159038.04892 | pgbench_accounts_pkey |        224641024

 2017-02-03 22:57:19.112945+01 | 1486159039.11295 | pgbench_branches_pkey |            57344
 2017-02-03 22:57:19.112945+01 | 1486159039.11295 | pgbench_tellers_pkey  |           270336
 2017-02-03 22:57:19.112945+01 | 1486159039.11295 | pgbench_accounts_pkey |        224641024

 2017-02-03 22:57:20.194821+01 | 1486159040.19482 | pgbench_branches_pkey |            57344
 2017-02-03 22:57:20.194821+01 | 1486159040.19482 | pgbench_tellers_pkey  |           270336
 2017-02-03 22:57:20.194821+01 | 1486159040.19482 | pgbench_accounts_pkey |        224641024

 2017-02-03 22:57:21.270703+01 | 1486159041.2707 | pgbench_branches_pkey |            57344
 2017-02-03 22:57:21.270703+01 | 1486159041.2707 | pgbench_tellers_pkey  |           270336
 2017-02-03 22:57:21.270703+01 | 1486159041.2707 | pgbench_accounts_pkey |        224641024

 2017-02-03 22:57:22.351166+01 | 1486159042.35117 | pgbench_branches_pkey |            57344
 2017-02-03 22:57:22.351166+01 | 1486159042.35117 | pgbench_tellers_pkey  |           270336
 2017-02-03 22:57:22.351166+01 | 1486159042.35117 | pgbench_accounts_pkey |        224641024

 2017-02-03 22:57:23.429424+01 | 1486159043.42942 | pgbench_branches_pkey |            57344
 2017-02-03 22:57:23.429424+01 | 1486159043.42942 | pgbench_tellers_pkey  |           270336
 2017-02-03 22:57:23.429424+01 | 1486159043.42942 | pgbench_accounts_pkey |        224641024

 2017-02-03 22:57:24.508384+01 | 1486159044.50838 | pgbench_branches_pkey |            57344
 2017-02-03 22:57:24.508384+01 | 1486159044.50838 | pgbench_tellers_pkey  |           270336
 2017-02-03 22:57:24.508384+01 | 1486159044.50838 | pgbench_accounts_pkey |        224641024

 2017-02-03 22:57:25.585095+01 | 1486159045.58509 | pgbench_branches_pkey |            57344
 2017-02-03 22:57:25.585095+01 | 1486159045.58509 | pgbench_tellers_pkey  |           270336
 2017-02-03 22:57:25.585095+01 | 1486159045.58509 | pgbench_accounts_pkey |        224641024

 2017-02-03 22:57:26.673331+01 | 1486159046.67333 | pgbench_branches_pkey |            57344
 2017-02-03 22:57:26.673331+01 | 1486159046.67333 | pgbench_tellers_pkey  |           270336
 2017-02-03 22:57:26.673331+01 | 1486159046.67333 | pgbench_accounts_pkey |        224641024

 2017-02-03 22:57:27.751332+01 | 1486159047.75133 | pgbench_branches_pkey |            57344
 2017-02-03 22:57:27.751332+01 | 1486159047.75133 | pgbench_tellers_pkey  |           270336
 2017-02-03 22:57:27.751332+01 | 1486159047.75133 | pgbench_accounts_pkey |        224641024

 2017-02-03 22:57:28.836144+01 | 1486159048.83614 | pgbench_branches_pkey |            57344
 2017-02-03 22:57:28.836144+01 | 1486159048.83614 | pgbench_tellers_pkey  |           270336
 2017-02-03 22:57:28.836144+01 | 1486159048.83614 | pgbench_accounts_pkey |        224641024

 2017-02-03 22:57:29.913454+01 | 1486159049.91345 | pgbench_branches_pkey |            57344
 2017-02-03 22:57:29.913454+01 | 1486159049.91345 | pgbench_tellers_pkey  |           270336
 2017-02-03 22:57:29.913454+01 | 1486159049.91345 | pgbench_accounts_pkey |        224641024

 2017-02-03 22:57:30.99418+01 | 1486159050.99418 | pgbench_branches_pkey |            57344
 2017-02-03 22:57:30.99418+01 | 1486159050.99418 | pgbench_tellers_pkey  |           270336
 2017-02-03 22:57:30.99418+01 | 1486159050.99418 | pgbench_accounts_pkey |        224641024

 2017-02-03 22:57:32.056379+01 | 1486159052.05638 | pgbench_branches_pkey |            57344
 2017-02-03 22:57:32.056379+01 | 1486159052.05638 | pgbench_tellers_pkey  |           270336
 2017-02-03 22:57:32.056379+01 | 1486159052.05638 | pgbench_accounts_pkey |        224641024

 2017-02-03 22:57:33.132202+01 | 1486159053.1322 | pgbench_branches_pkey |            57344
 2017-02-03 22:57:33.132202+01 | 1486159053.1322 | pgbench_tellers_pkey  |           270336
 2017-02-03 22:57:33.132202+01 | 1486159053.1322 | pgbench_accounts_pkey |        224641024

 2017-02-03 22:57:34.210293+01 | 1486159054.21029 | pgbench_branches_pkey |            57344
 2017-02-03 22:57:34.210293+01 | 1486159054.21029 | pgbench_tellers_pkey  |           270336
 2017-02-03 22:57:34.210293+01 | 1486159054.21029 | pgbench_accounts_pkey |        224641024

 2017-02-03 22:57:35.29935+01 | 1486159055.29935 | pgbench_branches_pkey |            57344
 2017-02-03 22:57:35.29935+01 | 1486159055.29935 | pgbench_tellers_pkey  |           270336
 2017-02-03 22:57:35.29935+01 | 1486159055.29935 | pgbench_accounts_pkey |        224641024

 2017-02-03 22:57:36.374333+01 | 1486159056.37433 | pgbench_branches_pkey |            57344
 2017-02-03 22:57:36.374333+01 | 1486159056.37433 | pgbench_tellers_pkey  |           270336
 2017-02-03 22:57:36.374333+01 | 1486159056.37433 | pgbench_accounts_pkey |        224641024

 2017-02-03 22:57:37.467168+01 | 1486159057.46717 | pgbench_branches_pkey |            57344
 2017-02-03 22:57:37.467168+01 | 1486159057.46717 | pgbench_tellers_pkey  |           270336
 2017-02-03 22:57:37.467168+01 | 1486159057.46717 | pgbench_accounts_pkey |        224641024

 2017-02-03 22:57:38.559386+01 | 1486159058.55939 | pgbench_branches_pkey |            57344
 2017-02-03 22:57:38.559386+01 | 1486159058.55939 | pgbench_tellers_pkey  |           270336
 2017-02-03 22:57:38.559386+01 | 1486159058.55939 | pgbench_accounts_pkey |        224641024

 2017-02-03 22:57:39.642593+01 | 1486159059.64259 | pgbench_branches_pkey |            57344
 2017-02-03 22:57:39.642593+01 | 1486159059.64259 | pgbench_tellers_pkey  |           270336
 2017-02-03 22:57:39.642593+01 | 1486159059.64259 | pgbench_accounts_pkey |        224641024

 2017-02-03 22:57:40.720053+01 | 1486159060.72005 | pgbench_branches_pkey |            57344
 2017-02-03 22:57:40.720053+01 | 1486159060.72005 | pgbench_tellers_pkey  |           270336
 2017-02-03 22:57:40.720053+01 | 1486159060.72005 | pgbench_accounts_pkey |        224641024

 2017-02-03 22:57:41.797587+01 | 1486159061.79759 | pgbench_branches_pkey |            57344
 2017-02-03 22:57:41.797587+01 | 1486159061.79759 | pgbench_tellers_pkey  |           270336
 2017-02-03 22:57:41.797587+01 | 1486159061.79759 | pgbench_accounts_pkey |        224641024

 2017-02-03 22:57:42.870689+01 | 1486159062.87069 | pgbench_branches_pkey |            57344
 2017-02-03 22:57:42.870689+01 | 1486159062.87069 | pgbench_tellers_pkey  |           270336
 2017-02-03 22:57:42.870689+01 | 1486159062.87069 | pgbench_accounts_pkey |        224641024

 2017-02-03 22:57:43.941251+01 | 1486159063.94125 | pgbench_branches_pkey |            57344
 2017-02-03 22:57:43.941251+01 | 1486159063.94125 | pgbench_tellers_pkey  |           270336
 2017-02-03 22:57:43.941251+01 | 1486159063.94125 | pgbench_accounts_pkey |        224641024

 2017-02-03 22:57:45.029391+01 | 1486159065.02939 | pgbench_branches_pkey |            57344
 2017-02-03 22:57:45.029391+01 | 1486159065.02939 | pgbench_tellers_pkey  |           270336
 2017-02-03 22:57:45.029391+01 | 1486159065.02939 | pgbench_accounts_pkey |        224641024

 2017-02-03 22:57:46.111611+01 | 1486159066.11161 | pgbench_branches_pkey |            57344
 2017-02-03 22:57:46.111611+01 | 1486159066.11161 | pgbench_tellers_pkey  |           270336
 2017-02-03 22:57:46.111611+01 | 1486159066.11161 | pgbench_accounts_pkey |        224641024

 2017-02-03 22:57:47.189363+01 | 1486159067.18936 | pgbench_branches_pkey |            57344
 2017-02-03 22:57:47.189363+01 | 1486159067.18936 | pgbench_tellers_pkey  |           270336
 2017-02-03 22:57:47.189363+01 | 1486159067.18936 | pgbench_accounts_pkey |        224641024

 2017-02-03 22:57:48.267252+01 | 1486159068.26725 | pgbench_branches_pkey |            57344
 2017-02-03 22:57:48.267252+01 | 1486159068.26725 | pgbench_tellers_pkey  |           270336
 2017-02-03 22:57:48.267252+01 | 1486159068.26725 | pgbench_accounts_pkey |        224641024

 2017-02-03 22:57:49.341909+01 | 1486159069.34191 | pgbench_branches_pkey |            57344
 2017-02-03 22:57:49.341909+01 | 1486159069.34191 | pgbench_tellers_pkey  |           270336
 2017-02-03 22:57:49.341909+01 | 1486159069.34191 | pgbench_accounts_pkey |        224641024

 2017-02-03 22:57:50.422951+01 | 1486159070.42295 | pgbench_branches_pkey |            57344
 2017-02-03 22:57:50.422951+01 | 1486159070.42295 | pgbench_tellers_pkey  |           270336
 2017-02-03 22:57:50.422951+01 | 1486159070.42295 | pgbench_accounts_pkey |        224641024

 2017-02-03 22:57:51.501786+01 | 1486159071.50179 | pgbench_branches_pkey |            57344
 2017-02-03 22:57:51.501786+01 | 1486159071.50179 | pgbench_tellers_pkey  |           270336
 2017-02-03 22:57:51.501786+01 | 1486159071.50179 | pgbench_accounts_pkey |        224641024

 2017-02-03 22:57:52.579775+01 | 1486159072.57978 | pgbench_branches_pkey |            57344
 2017-02-03 22:57:52.579775+01 | 1486159072.57978 | pgbench_tellers_pkey  |           270336
 2017-02-03 22:57:52.579775+01 | 1486159072.57978 | pgbench_accounts_pkey |        224641024

 2017-02-03 22:57:53.652547+01 | 1486159073.65255 | pgbench_branches_pkey |            57344
 2017-02-03 22:57:53.652547+01 | 1486159073.65255 | pgbench_tellers_pkey  |           270336
 2017-02-03 22:57:53.652547+01 | 1486159073.65255 | pgbench_accounts_pkey |        224641024

 2017-02-03 22:57:54.727279+01 | 1486159074.72728 | pgbench_branches_pkey |            57344
 2017-02-03 22:57:54.727279+01 | 1486159074.72728 | pgbench_tellers_pkey  |           270336
 2017-02-03 22:57:54.727279+01 | 1486159074.72728 | pgbench_accounts_pkey |        224641024

 2017-02-03 22:57:55.803715+01 | 1486159075.80371 | pgbench_branches_pkey |            57344
 2017-02-03 22:57:55.803715+01 | 1486159075.80371 | pgbench_tellers_pkey  |           270336
 2017-02-03 22:57:55.803715+01 | 1486159075.80371 | pgbench_accounts_pkey |        224641024

 2017-02-03 22:57:56.886013+01 | 1486159076.88601 | pgbench_branches_pkey |            57344
 2017-02-03 22:57:56.886013+01 | 1486159076.88601 | pgbench_tellers_pkey  |           270336
 2017-02-03 22:57:56.886013+01 | 1486159076.88601 | pgbench_accounts_pkey |        224641024

 2017-02-03 22:57:57.959036+01 | 1486159077.95904 | pgbench_branches_pkey |            57344
 2017-02-03 22:57:57.959036+01 | 1486159077.95904 | pgbench_tellers_pkey  |           270336
 2017-02-03 22:57:57.959036+01 | 1486159077.95904 | pgbench_accounts_pkey |        224641024

 2017-02-03 22:57:59.032632+01 | 1486159079.03263 | pgbench_branches_pkey |            57344
 2017-02-03 22:57:59.032632+01 | 1486159079.03263 | pgbench_tellers_pkey  |           270336
 2017-02-03 22:57:59.032632+01 | 1486159079.03263 | pgbench_accounts_pkey |        224641024

 2017-02-03 22:58:00.104133+01 | 1486159080.10413 | pgbench_branches_pkey |            57344
 2017-02-03 22:58:00.104133+01 | 1486159080.10413 | pgbench_tellers_pkey  |           270336
 2017-02-03 22:58:00.104133+01 | 1486159080.10413 | pgbench_accounts_pkey |        224641024

 2017-02-03 22:58:01.176883+01 | 1486159081.17688 | pgbench_branches_pkey |            57344
 2017-02-03 22:58:01.176883+01 | 1486159081.17688 | pgbench_tellers_pkey  |           270336
 2017-02-03 22:58:01.176883+01 | 1486159081.17688 | pgbench_accounts_pkey |        224641024

 2017-02-03 22:58:02.253255+01 | 1486159082.25325 | pgbench_branches_pkey |            57344
 2017-02-03 22:58:02.253255+01 | 1486159082.25325 | pgbench_tellers_pkey  |           270336
 2017-02-03 22:58:02.253255+01 | 1486159082.25325 | pgbench_accounts_pkey |        224641024

 2017-02-03 22:58:03.330193+01 | 1486159083.33019 | pgbench_branches_pkey |            57344
 2017-02-03 22:58:03.330193+01 | 1486159083.33019 | pgbench_tellers_pkey  |           270336
 2017-02-03 22:58:03.330193+01 | 1486159083.33019 | pgbench_accounts_pkey |        224641024

 2017-02-03 22:58:04.40517+01 | 1486159084.40517 | pgbench_branches_pkey |            57344
 2017-02-03 22:58:04.40517+01 | 1486159084.40517 | pgbench_tellers_pkey  |           270336
 2017-02-03 22:58:04.40517+01 | 1486159084.40517 | pgbench_accounts_pkey |        224641024

 2017-02-03 22:58:05.485764+01 | 1486159085.48576 | pgbench_branches_pkey |            57344
 2017-02-03 22:58:05.485764+01 | 1486159085.48576 | pgbench_tellers_pkey  |           270336
 2017-02-03 22:58:05.485764+01 | 1486159085.48576 | pgbench_accounts_pkey |        224641024

 2017-02-03 22:58:06.56388+01 | 1486159086.56388 | pgbench_branches_pkey |            57344
 2017-02-03 22:58:06.56388+01 | 1486159086.56388 | pgbench_tellers_pkey  |           270336
 2017-02-03 22:58:06.56388+01 | 1486159086.56388 | pgbench_accounts_pkey |        224641024

 2017-02-03 22:58:07.645781+01 | 1486159087.64578 | pgbench_branches_pkey |            57344
 2017-02-03 22:58:07.645781+01 | 1486159087.64578 | pgbench_tellers_pkey  |           270336
 2017-02-03 22:58:07.645781+01 | 1486159087.64578 | pgbench_accounts_pkey |        224641024

 2017-02-03 22:58:08.725434+01 | 1486159088.72543 | pgbench_branches_pkey |            57344
 2017-02-03 22:58:08.725434+01 | 1486159088.72543 | pgbench_tellers_pkey  |           270336
 2017-02-03 22:58:08.725434+01 | 1486159088.72543 | pgbench_accounts_pkey |        224641024

 2017-02-03 22:58:09.817601+01 | 1486159089.8176 | pgbench_branches_pkey |            57344
 2017-02-03 22:58:09.817601+01 | 1486159089.8176 | pgbench_tellers_pkey  |           270336
 2017-02-03 22:58:09.817601+01 | 1486159089.8176 | pgbench_accounts_pkey |        224641024

 2017-02-03 22:58:10.895375+01 | 1486159090.89538 | pgbench_branches_pkey |            57344
 2017-02-03 22:58:10.895375+01 | 1486159090.89538 | pgbench_tellers_pkey  |           270336
 2017-02-03 22:58:10.895375+01 | 1486159090.89538 | pgbench_accounts_pkey |        224641024

 2017-02-03 22:58:11.97237+01 | 1486159091.97237 | pgbench_branches_pkey |            57344
 2017-02-03 22:58:11.97237+01 | 1486159091.97237 | pgbench_tellers_pkey  |           270336
 2017-02-03 22:58:11.97237+01 | 1486159091.97237 | pgbench_accounts_pkey |        224641024

 2017-02-03 22:58:13.043314+01 | 1486159093.04331 | pgbench_branches_pkey |            57344
 2017-02-03 22:58:13.043314+01 | 1486159093.04331 | pgbench_tellers_pkey  |           270336
 2017-02-03 22:58:13.043314+01 | 1486159093.04331 | pgbench_accounts_pkey |        224641024

 2017-02-03 22:58:14.118224+01 | 1486159094.11822 | pgbench_branches_pkey |            57344
 2017-02-03 22:58:14.118224+01 | 1486159094.11822 | pgbench_tellers_pkey  |           270336
 2017-02-03 22:58:14.118224+01 | 1486159094.11822 | pgbench_accounts_pkey |        224641024

 2017-02-03 22:58:15.19823+01 | 1486159095.19823 | pgbench_branches_pkey |            57344
 2017-02-03 22:58:15.19823+01 | 1486159095.19823 | pgbench_tellers_pkey  |           270336
 2017-02-03 22:58:15.19823+01 | 1486159095.19823 | pgbench_accounts_pkey |        224641024

 2017-02-03 22:58:16.283261+01 | 1486159096.28326 | pgbench_branches_pkey |            57344
 2017-02-03 22:58:16.283261+01 | 1486159096.28326 | pgbench_tellers_pkey  |           270336
 2017-02-03 22:58:16.283261+01 | 1486159096.28326 | pgbench_accounts_pkey |        224641024

 2017-02-03 22:58:17.3578+01 | 1486159097.3578 | pgbench_branches_pkey |            57344
 2017-02-03 22:58:17.3578+01 | 1486159097.3578 | pgbench_tellers_pkey  |           270336
 2017-02-03 22:58:17.3578+01 | 1486159097.3578 | pgbench_accounts_pkey |        224641024

 2017-02-03 22:58:18.430747+01 | 1486159098.43075 | pgbench_branches_pkey |            57344
 2017-02-03 22:58:18.430747+01 | 1486159098.43075 | pgbench_tellers_pkey  |           270336
 2017-02-03 22:58:18.430747+01 | 1486159098.43075 | pgbench_accounts_pkey |        224641024

 2017-02-03 22:58:19.510894+01 | 1486159099.51089 | pgbench_branches_pkey |            57344
 2017-02-03 22:58:19.510894+01 | 1486159099.51089 | pgbench_tellers_pkey  |           270336
 2017-02-03 22:58:19.510894+01 | 1486159099.51089 | pgbench_accounts_pkey |        224641024

 2017-02-03 22:58:20.589652+01 | 1486159100.58965 | pgbench_branches_pkey |            57344
 2017-02-03 22:58:20.589652+01 | 1486159100.58965 | pgbench_tellers_pkey  |           270336
 2017-02-03 22:58:20.589652+01 | 1486159100.58965 | pgbench_accounts_pkey |        224641024

 2017-02-03 22:58:21.672836+01 | 1486159101.67284 | pgbench_branches_pkey |            57344
 2017-02-03 22:58:21.672836+01 | 1486159101.67284 | pgbench_tellers_pkey  |           270336
 2017-02-03 22:58:21.672836+01 | 1486159101.67284 | pgbench_accounts_pkey |        224641024

 2017-02-03 22:58:22.752917+01 | 1486159102.75292 | pgbench_branches_pkey |            57344
 2017-02-03 22:58:22.752917+01 | 1486159102.75292 | pgbench_tellers_pkey  |           270336
 2017-02-03 22:58:22.752917+01 | 1486159102.75292 | pgbench_accounts_pkey |        224641024

 2017-02-03 22:58:23.831751+01 | 1486159103.83175 | pgbench_branches_pkey |            57344
 2017-02-03 22:58:23.831751+01 | 1486159103.83175 | pgbench_tellers_pkey  |           270336
 2017-02-03 22:58:23.831751+01 | 1486159103.83175 | pgbench_accounts_pkey |        224641024

 2017-02-03 22:58:24.909927+01 | 1486159104.90993 | pgbench_branches_pkey |            57344
 2017-02-03 22:58:24.909927+01 | 1486159104.90993 | pgbench_tellers_pkey  |           270336
 2017-02-03 22:58:24.909927+01 | 1486159104.90993 | pgbench_accounts_pkey |        224641024

 2017-02-03 22:58:25.990545+01 | 1486159105.99055 | pgbench_branches_pkey |            57344
 2017-02-03 22:58:25.990545+01 | 1486159105.99055 | pgbench_tellers_pkey  |           270336
 2017-02-03 22:58:25.990545+01 | 1486159105.99055 | pgbench_accounts_pkey |        224641024

 2017-02-03 22:58:27.07255+01 | 1486159107.07255 | pgbench_branches_pkey |            57344
 2017-02-03 22:58:27.07255+01 | 1486159107.07255 | pgbench_tellers_pkey  |           270336
 2017-02-03 22:58:27.07255+01 | 1486159107.07255 | pgbench_accounts_pkey |        224641024

 2017-02-03 22:58:28.145487+01 | 1486159108.14549 | pgbench_branches_pkey |            57344
 2017-02-03 22:58:28.145487+01 | 1486159108.14549 | pgbench_tellers_pkey  |           270336
 2017-02-03 22:58:28.145487+01 | 1486159108.14549 | pgbench_accounts_pkey |        224641024

 2017-02-03 22:58:29.225586+01 | 1486159109.22559 | pgbench_branches_pkey |            57344
 2017-02-03 22:58:29.225586+01 | 1486159109.22559 | pgbench_tellers_pkey  |           270336
 2017-02-03 22:58:29.225586+01 | 1486159109.22559 | pgbench_accounts_pkey |        224641024

 2017-02-03 22:58:30.303795+01 | 1486159110.3038 | pgbench_branches_pkey |            57344
 2017-02-03 22:58:30.303795+01 | 1486159110.3038 | pgbench_tellers_pkey  |           270336
 2017-02-03 22:58:30.303795+01 | 1486159110.3038 | pgbench_accounts_pkey |        224641024

 2017-02-03 22:58:31.380805+01 | 1486159111.38081 | pgbench_branches_pkey |            57344
 2017-02-03 22:58:31.380805+01 | 1486159111.38081 | pgbench_tellers_pkey  |           270336
 2017-02-03 22:58:31.380805+01 | 1486159111.38081 | pgbench_accounts_pkey |        224641024

 2017-02-03 22:58:32.45878+01 | 1486159112.45878 | pgbench_branches_pkey |            57344
 2017-02-03 22:58:32.45878+01 | 1486159112.45878 | pgbench_tellers_pkey  |           270336
 2017-02-03 22:58:32.45878+01 | 1486159112.45878 | pgbench_accounts_pkey |        224641024

 2017-02-03 22:58:33.538762+01 | 1486159113.53876 | pgbench_branches_pkey |            57344
 2017-02-03 22:58:33.538762+01 | 1486159113.53876 | pgbench_tellers_pkey  |           270336
 2017-02-03 22:58:33.538762+01 | 1486159113.53876 | pgbench_accounts_pkey |        224641024

 2017-02-03 22:58:34.620886+01 | 1486159114.62089 | pgbench_branches_pkey |            57344
 2017-02-03 22:58:34.620886+01 | 1486159114.62089 | pgbench_tellers_pkey  |           270336
 2017-02-03 22:58:34.620886+01 | 1486159114.62089 | pgbench_accounts_pkey |        224641024

 2017-02-03 22:58:35.701106+01 | 1486159115.70111 | pgbench_branches_pkey |            57344
 2017-02-03 22:58:35.701106+01 | 1486159115.70111 | pgbench_tellers_pkey  |           270336
 2017-02-03 22:58:35.701106+01 | 1486159115.70111 | pgbench_accounts_pkey |        224641024

 2017-02-03 22:58:36.776357+01 | 1486159116.77636 | pgbench_branches_pkey |            57344
 2017-02-03 22:58:36.776357+01 | 1486159116.77636 | pgbench_tellers_pkey  |           270336
 2017-02-03 22:58:36.776357+01 | 1486159116.77636 | pgbench_accounts_pkey |        224641024

 2017-02-03 22:58:37.855567+01 | 1486159117.85557 | pgbench_branches_pkey |            57344
 2017-02-03 22:58:37.855567+01 | 1486159117.85557 | pgbench_tellers_pkey  |           270336
 2017-02-03 22:58:37.855567+01 | 1486159117.85557 | pgbench_accounts_pkey |        224641024

 2017-02-03 22:58:38.943187+01 | 1486159118.94319 | pgbench_branches_pkey |            57344
 2017-02-03 22:58:38.943187+01 | 1486159118.94319 | pgbench_tellers_pkey  |           270336
 2017-02-03 22:58:38.943187+01 | 1486159118.94319 | pgbench_accounts_pkey |        224641024

 2017-02-03 22:58:40.024068+01 | 1486159120.02407 | pgbench_branches_pkey |            57344
 2017-02-03 22:58:40.024068+01 | 1486159120.02407 | pgbench_tellers_pkey  |           270336
 2017-02-03 22:58:40.024068+01 | 1486159120.02407 | pgbench_accounts_pkey |        224641024

 2017-02-03 22:58:41.104443+01 | 1486159121.10444 | pgbench_branches_pkey |            57344
 2017-02-03 22:58:41.104443+01 | 1486159121.10444 | pgbench_tellers_pkey  |           270336
 2017-02-03 22:58:41.104443+01 | 1486159121.10444 | pgbench_accounts_pkey |        224641024

 2017-02-03 22:58:42.188538+01 | 1486159122.18854 | pgbench_branches_pkey |            57344
 2017-02-03 22:58:42.188538+01 | 1486159122.18854 | pgbench_tellers_pkey  |           270336
 2017-02-03 22:58:42.188538+01 | 1486159122.18854 | pgbench_accounts_pkey |        224641024

 2017-02-03 22:58:43.26452+01 | 1486159123.26452 | pgbench_branches_pkey |            57344
 2017-02-03 22:58:43.26452+01 | 1486159123.26452 | pgbench_tellers_pkey  |           270336
 2017-02-03 22:58:43.26452+01 | 1486159123.26452 | pgbench_accounts_pkey |        224641024

 2017-02-03 22:58:44.34415+01 | 1486159124.34415 | pgbench_branches_pkey |            57344
 2017-02-03 22:58:44.34415+01 | 1486159124.34415 | pgbench_tellers_pkey  |           270336
 2017-02-03 22:58:44.34415+01 | 1486159124.34415 | pgbench_accounts_pkey |        224641024

 2017-02-03 22:58:45.424352+01 | 1486159125.42435 | pgbench_branches_pkey |            57344
 2017-02-03 22:58:45.424352+01 | 1486159125.42435 | pgbench_tellers_pkey  |           270336
 2017-02-03 22:58:45.424352+01 | 1486159125.42435 | pgbench_accounts_pkey |        224641024

 2017-02-03 22:58:46.494734+01 | 1486159126.49473 | pgbench_branches_pkey |            57344
 2017-02-03 22:58:46.494734+01 | 1486159126.49473 | pgbench_tellers_pkey  |           270336
 2017-02-03 22:58:46.494734+01 | 1486159126.49473 | pgbench_accounts_pkey |        224641024

 2017-02-03 22:58:47.569944+01 | 1486159127.56994 | pgbench_branches_pkey |            57344
 2017-02-03 22:58:47.569944+01 | 1486159127.56994 | pgbench_tellers_pkey  |           270336
 2017-02-03 22:58:47.569944+01 | 1486159127.56994 | pgbench_accounts_pkey |        224641024

 2017-02-03 22:58:48.654921+01 | 1486159128.65492 | pgbench_branches_pkey |            57344
 2017-02-03 22:58:48.654921+01 | 1486159128.65492 | pgbench_tellers_pkey  |           270336
 2017-02-03 22:58:48.654921+01 | 1486159128.65492 | pgbench_accounts_pkey |        224641024

 2017-02-03 22:58:49.73127+01 | 1486159129.73127 | pgbench_branches_pkey |            57344
 2017-02-03 22:58:49.73127+01 | 1486159129.73127 | pgbench_tellers_pkey  |           270336
 2017-02-03 22:58:49.73127+01 | 1486159129.73127 | pgbench_accounts_pkey |        224641024

 2017-02-03 22:58:50.810955+01 | 1486159130.81096 | pgbench_branches_pkey |            57344
 2017-02-03 22:58:50.810955+01 | 1486159130.81096 | pgbench_tellers_pkey  |           270336
 2017-02-03 22:58:50.810955+01 | 1486159130.81096 | pgbench_accounts_pkey |        224641024

