 2017-02-04 07:57:49.933023+01 | 1486191469.93302 | pgbench_branches_pkey |          1826816
 2017-02-04 07:57:49.933023+01 | 1486191469.93302 | pgbench_tellers_pkey  |          7118848
 2017-02-04 07:57:49.933023+01 | 1486191469.93302 | pgbench_accounts_pkey |       2246197248

 2017-02-04 07:57:51.015577+01 | 1486191471.01558 | pgbench_branches_pkey |          1826816
 2017-02-04 07:57:51.015577+01 | 1486191471.01558 | pgbench_tellers_pkey  |          7118848
 2017-02-04 07:57:51.015577+01 | 1486191471.01558 | pgbench_accounts_pkey |       2246197248

 2017-02-04 07:57:52.091447+01 | 1486191472.09145 | pgbench_branches_pkey |          1826816
 2017-02-04 07:57:52.091447+01 | 1486191472.09145 | pgbench_tellers_pkey  |          7118848
 2017-02-04 07:57:52.091447+01 | 1486191472.09145 | pgbench_accounts_pkey |       2246197248

 2017-02-04 07:57:53.181412+01 | 1486191473.18141 | pgbench_branches_pkey |          1826816
 2017-02-04 07:57:53.181412+01 | 1486191473.18141 | pgbench_tellers_pkey  |          7118848
 2017-02-04 07:57:53.181412+01 | 1486191473.18141 | pgbench_accounts_pkey |       2246197248

 2017-02-04 07:57:54.258319+01 | 1486191474.25832 | pgbench_branches_pkey |          1826816
 2017-02-04 07:57:54.258319+01 | 1486191474.25832 | pgbench_tellers_pkey  |          7118848
 2017-02-04 07:57:54.258319+01 | 1486191474.25832 | pgbench_accounts_pkey |       2246197248

 2017-02-04 07:57:55.334697+01 | 1486191475.3347 | pgbench_branches_pkey |          1826816
 2017-02-04 07:57:55.334697+01 | 1486191475.3347 | pgbench_tellers_pkey  |          7118848
 2017-02-04 07:57:55.334697+01 | 1486191475.3347 | pgbench_accounts_pkey |       2246197248

 2017-02-04 07:57:56.409871+01 | 1486191476.40987 | pgbench_branches_pkey |          1826816
 2017-02-04 07:57:56.409871+01 | 1486191476.40987 | pgbench_tellers_pkey  |          7118848
 2017-02-04 07:57:56.409871+01 | 1486191476.40987 | pgbench_accounts_pkey |       2246197248

 2017-02-04 07:57:57.487992+01 | 1486191477.48799 | pgbench_branches_pkey |          1826816
 2017-02-04 07:57:57.487992+01 | 1486191477.48799 | pgbench_tellers_pkey  |          7118848
 2017-02-04 07:57:57.487992+01 | 1486191477.48799 | pgbench_accounts_pkey |       2246197248

 2017-02-04 07:57:58.571883+01 | 1486191478.57188 | pgbench_branches_pkey |          1826816
 2017-02-04 07:57:58.571883+01 | 1486191478.57188 | pgbench_tellers_pkey  |          7118848
 2017-02-04 07:57:58.571883+01 | 1486191478.57188 | pgbench_accounts_pkey |       2246197248

 2017-02-04 07:57:59.650549+01 | 1486191479.65055 | pgbench_branches_pkey |          1826816
 2017-02-04 07:57:59.650549+01 | 1486191479.65055 | pgbench_tellers_pkey  |          7118848
 2017-02-04 07:57:59.650549+01 | 1486191479.65055 | pgbench_accounts_pkey |       2246197248

 2017-02-04 07:58:00.730112+01 | 1486191480.73011 | pgbench_branches_pkey |          1826816
 2017-02-04 07:58:00.730112+01 | 1486191480.73011 | pgbench_tellers_pkey  |          7118848
 2017-02-04 07:58:00.730112+01 | 1486191480.73011 | pgbench_accounts_pkey |       2246197248

 2017-02-04 07:58:01.806142+01 | 1486191481.80614 | pgbench_branches_pkey |          1826816
 2017-02-04 07:58:01.806142+01 | 1486191481.80614 | pgbench_tellers_pkey  |          7118848
 2017-02-04 07:58:01.806142+01 | 1486191481.80614 | pgbench_accounts_pkey |       2246197248

 2017-02-04 07:58:02.884828+01 | 1486191482.88483 | pgbench_branches_pkey |          1826816
 2017-02-04 07:58:02.884828+01 | 1486191482.88483 | pgbench_tellers_pkey  |          7118848
 2017-02-04 07:58:02.884828+01 | 1486191482.88483 | pgbench_accounts_pkey |       2246197248

 2017-02-04 07:58:03.962987+01 | 1486191483.96299 | pgbench_branches_pkey |          1826816
 2017-02-04 07:58:03.962987+01 | 1486191483.96299 | pgbench_tellers_pkey  |          7118848
 2017-02-04 07:58:03.962987+01 | 1486191483.96299 | pgbench_accounts_pkey |       2246197248

 2017-02-04 07:58:05.038416+01 | 1486191485.03842 | pgbench_branches_pkey |          1826816
 2017-02-04 07:58:05.038416+01 | 1486191485.03842 | pgbench_tellers_pkey  |          7118848
 2017-02-04 07:58:05.038416+01 | 1486191485.03842 | pgbench_accounts_pkey |       2246197248

 2017-02-04 07:58:06.11434+01 | 1486191486.11434 | pgbench_branches_pkey |          1826816
 2017-02-04 07:58:06.11434+01 | 1486191486.11434 | pgbench_tellers_pkey  |          7118848
 2017-02-04 07:58:06.11434+01 | 1486191486.11434 | pgbench_accounts_pkey |       2246197248

 2017-02-04 07:58:07.195503+01 | 1486191487.1955 | pgbench_branches_pkey |          1826816
 2017-02-04 07:58:07.195503+01 | 1486191487.1955 | pgbench_tellers_pkey  |          7118848
 2017-02-04 07:58:07.195503+01 | 1486191487.1955 | pgbench_accounts_pkey |       2246197248

 2017-02-04 07:58:08.277937+01 | 1486191488.27794 | pgbench_branches_pkey |          1826816
 2017-02-04 07:58:08.277937+01 | 1486191488.27794 | pgbench_tellers_pkey  |          7118848
 2017-02-04 07:58:08.277937+01 | 1486191488.27794 | pgbench_accounts_pkey |       2246197248

 2017-02-04 07:58:09.356437+01 | 1486191489.35644 | pgbench_branches_pkey |          1826816
 2017-02-04 07:58:09.356437+01 | 1486191489.35644 | pgbench_tellers_pkey  |          7118848
 2017-02-04 07:58:09.356437+01 | 1486191489.35644 | pgbench_accounts_pkey |       2246197248

 2017-02-04 07:58:10.433272+01 | 1486191490.43327 | pgbench_branches_pkey |          1826816
 2017-02-04 07:58:10.433272+01 | 1486191490.43327 | pgbench_tellers_pkey  |          7118848
 2017-02-04 07:58:10.433272+01 | 1486191490.43327 | pgbench_accounts_pkey |       2246197248

 2017-02-04 07:58:11.509096+01 | 1486191491.5091 | pgbench_branches_pkey |          1826816
 2017-02-04 07:58:11.509096+01 | 1486191491.5091 | pgbench_tellers_pkey  |          7118848
 2017-02-04 07:58:11.509096+01 | 1486191491.5091 | pgbench_accounts_pkey |       2246197248

 2017-02-04 07:58:12.599281+01 | 1486191492.59928 | pgbench_branches_pkey |          1826816
 2017-02-04 07:58:12.599281+01 | 1486191492.59928 | pgbench_tellers_pkey  |          7118848
 2017-02-04 07:58:12.599281+01 | 1486191492.59928 | pgbench_accounts_pkey |       2246197248

 2017-02-04 07:58:13.676119+01 | 1486191493.67612 | pgbench_branches_pkey |          1826816
 2017-02-04 07:58:13.676119+01 | 1486191493.67612 | pgbench_tellers_pkey  |          7118848
 2017-02-04 07:58:13.676119+01 | 1486191493.67612 | pgbench_accounts_pkey |       2246197248

 2017-02-04 07:58:14.754311+01 | 1486191494.75431 | pgbench_branches_pkey |          1826816
 2017-02-04 07:58:14.754311+01 | 1486191494.75431 | pgbench_tellers_pkey  |          7118848
 2017-02-04 07:58:14.754311+01 | 1486191494.75431 | pgbench_accounts_pkey |       2246197248

 2017-02-04 07:58:15.827248+01 | 1486191495.82725 | pgbench_branches_pkey |          1826816
 2017-02-04 07:58:15.827248+01 | 1486191495.82725 | pgbench_tellers_pkey  |          7118848
 2017-02-04 07:58:15.827248+01 | 1486191495.82725 | pgbench_accounts_pkey |       2246197248

 2017-02-04 07:58:16.904732+01 | 1486191496.90473 | pgbench_branches_pkey |          1826816
 2017-02-04 07:58:16.904732+01 | 1486191496.90473 | pgbench_tellers_pkey  |          7118848
 2017-02-04 07:58:16.904732+01 | 1486191496.90473 | pgbench_accounts_pkey |       2246197248

 2017-02-04 07:58:17.98001+01 | 1486191497.98001 | pgbench_branches_pkey |          1826816
 2017-02-04 07:58:17.98001+01 | 1486191497.98001 | pgbench_tellers_pkey  |          7118848
 2017-02-04 07:58:17.98001+01 | 1486191497.98001 | pgbench_accounts_pkey |       2246197248

 2017-02-04 07:58:19.058333+01 | 1486191499.05833 | pgbench_branches_pkey |          1826816
 2017-02-04 07:58:19.058333+01 | 1486191499.05833 | pgbench_tellers_pkey  |          7118848
 2017-02-04 07:58:19.058333+01 | 1486191499.05833 | pgbench_accounts_pkey |       2246197248

 2017-02-04 07:58:20.13397+01 | 1486191500.13397 | pgbench_branches_pkey |          1826816
 2017-02-04 07:58:20.13397+01 | 1486191500.13397 | pgbench_tellers_pkey  |          7118848
 2017-02-04 07:58:20.13397+01 | 1486191500.13397 | pgbench_accounts_pkey |       2246197248

 2017-02-04 07:58:21.217939+01 | 1486191501.21794 | pgbench_branches_pkey |          1826816
 2017-02-04 07:58:21.217939+01 | 1486191501.21794 | pgbench_tellers_pkey  |          7118848
 2017-02-04 07:58:21.217939+01 | 1486191501.21794 | pgbench_accounts_pkey |       2246197248

 2017-02-04 07:58:22.29557+01 | 1486191502.29557 | pgbench_branches_pkey |          1826816
 2017-02-04 07:58:22.29557+01 | 1486191502.29557 | pgbench_tellers_pkey  |          7118848
 2017-02-04 07:58:22.29557+01 | 1486191502.29557 | pgbench_accounts_pkey |       2246197248

 2017-02-04 07:58:23.369987+01 | 1486191503.36999 | pgbench_branches_pkey |          1826816
 2017-02-04 07:58:23.369987+01 | 1486191503.36999 | pgbench_tellers_pkey  |          7118848
 2017-02-04 07:58:23.369987+01 | 1486191503.36999 | pgbench_accounts_pkey |       2246197248

 2017-02-04 07:58:24.445784+01 | 1486191504.44578 | pgbench_branches_pkey |          1826816
 2017-02-04 07:58:24.445784+01 | 1486191504.44578 | pgbench_tellers_pkey  |          7118848
 2017-02-04 07:58:24.445784+01 | 1486191504.44578 | pgbench_accounts_pkey |       2246197248

 2017-02-04 07:58:25.524334+01 | 1486191505.52433 | pgbench_branches_pkey |          1826816
 2017-02-04 07:58:25.524334+01 | 1486191505.52433 | pgbench_tellers_pkey  |          7118848
 2017-02-04 07:58:25.524334+01 | 1486191505.52433 | pgbench_accounts_pkey |       2246197248

 2017-02-04 07:58:26.60071+01 | 1486191506.60071 | pgbench_branches_pkey |          1826816
 2017-02-04 07:58:26.60071+01 | 1486191506.60071 | pgbench_tellers_pkey  |          7118848
 2017-02-04 07:58:26.60071+01 | 1486191506.60071 | pgbench_accounts_pkey |       2246197248

 2017-02-04 07:58:27.684301+01 | 1486191507.6843 | pgbench_branches_pkey |          1826816
 2017-02-04 07:58:27.684301+01 | 1486191507.6843 | pgbench_tellers_pkey  |          7118848
 2017-02-04 07:58:27.684301+01 | 1486191507.6843 | pgbench_accounts_pkey |       2246197248

 2017-02-04 07:58:28.758807+01 | 1486191508.75881 | pgbench_branches_pkey |          1826816
 2017-02-04 07:58:28.758807+01 | 1486191508.75881 | pgbench_tellers_pkey  |          7118848
 2017-02-04 07:58:28.758807+01 | 1486191508.75881 | pgbench_accounts_pkey |       2246197248

 2017-02-04 07:58:29.835138+01 | 1486191509.83514 | pgbench_branches_pkey |          1826816
 2017-02-04 07:58:29.835138+01 | 1486191509.83514 | pgbench_tellers_pkey  |          7118848
 2017-02-04 07:58:29.835138+01 | 1486191509.83514 | pgbench_accounts_pkey |       2246197248

 2017-02-04 07:58:30.915674+01 | 1486191510.91567 | pgbench_branches_pkey |          1826816
 2017-02-04 07:58:30.915674+01 | 1486191510.91567 | pgbench_tellers_pkey  |          7118848
 2017-02-04 07:58:30.915674+01 | 1486191510.91567 | pgbench_accounts_pkey |       2246197248

 2017-02-04 07:58:32.008203+01 | 1486191512.0082 | pgbench_branches_pkey |          1826816
 2017-02-04 07:58:32.008203+01 | 1486191512.0082 | pgbench_tellers_pkey  |          7118848
 2017-02-04 07:58:32.008203+01 | 1486191512.0082 | pgbench_accounts_pkey |       2246197248

 2017-02-04 07:58:33.091133+01 | 1486191513.09113 | pgbench_branches_pkey |          1826816
 2017-02-04 07:58:33.091133+01 | 1486191513.09113 | pgbench_tellers_pkey  |          7118848
 2017-02-04 07:58:33.091133+01 | 1486191513.09113 | pgbench_accounts_pkey |       2246197248

 2017-02-04 07:58:34.17515+01 | 1486191514.17515 | pgbench_branches_pkey |          1826816
 2017-02-04 07:58:34.17515+01 | 1486191514.17515 | pgbench_tellers_pkey  |          7118848
 2017-02-04 07:58:34.17515+01 | 1486191514.17515 | pgbench_accounts_pkey |       2246197248

 2017-02-04 07:58:35.256529+01 | 1486191515.25653 | pgbench_branches_pkey |          1826816
 2017-02-04 07:58:35.256529+01 | 1486191515.25653 | pgbench_tellers_pkey  |          7118848
 2017-02-04 07:58:35.256529+01 | 1486191515.25653 | pgbench_accounts_pkey |       2246197248

 2017-02-04 07:58:36.33655+01 | 1486191516.33655 | pgbench_branches_pkey |          1826816
 2017-02-04 07:58:36.33655+01 | 1486191516.33655 | pgbench_tellers_pkey  |          7118848
 2017-02-04 07:58:36.33655+01 | 1486191516.33655 | pgbench_accounts_pkey |       2246197248

 2017-02-04 07:58:37.412168+01 | 1486191517.41217 | pgbench_branches_pkey |          1826816
 2017-02-04 07:58:37.412168+01 | 1486191517.41217 | pgbench_tellers_pkey  |          7118848
 2017-02-04 07:58:37.412168+01 | 1486191517.41217 | pgbench_accounts_pkey |       2246197248

 2017-02-04 07:58:38.495022+01 | 1486191518.49502 | pgbench_branches_pkey |          1826816
 2017-02-04 07:58:38.495022+01 | 1486191518.49502 | pgbench_tellers_pkey  |          7118848
 2017-02-04 07:58:38.495022+01 | 1486191518.49502 | pgbench_accounts_pkey |       2246197248

 2017-02-04 07:58:39.572405+01 | 1486191519.57241 | pgbench_branches_pkey |          1826816
 2017-02-04 07:58:39.572405+01 | 1486191519.57241 | pgbench_tellers_pkey  |          7118848
 2017-02-04 07:58:39.572405+01 | 1486191519.57241 | pgbench_accounts_pkey |       2246197248

 2017-02-04 07:58:40.659693+01 | 1486191520.65969 | pgbench_branches_pkey |          1826816
 2017-02-04 07:58:40.659693+01 | 1486191520.65969 | pgbench_tellers_pkey  |          7118848
 2017-02-04 07:58:40.659693+01 | 1486191520.65969 | pgbench_accounts_pkey |       2246197248

 2017-02-04 07:58:41.742729+01 | 1486191521.74273 | pgbench_branches_pkey |          1826816
 2017-02-04 07:58:41.742729+01 | 1486191521.74273 | pgbench_tellers_pkey  |          7118848
 2017-02-04 07:58:41.742729+01 | 1486191521.74273 | pgbench_accounts_pkey |       2246197248

 2017-02-04 07:58:42.813253+01 | 1486191522.81325 | pgbench_branches_pkey |          1826816
 2017-02-04 07:58:42.813253+01 | 1486191522.81325 | pgbench_tellers_pkey  |          7118848
 2017-02-04 07:58:42.813253+01 | 1486191522.81325 | pgbench_accounts_pkey |       2246197248

 2017-02-04 07:58:43.891249+01 | 1486191523.89125 | pgbench_branches_pkey |          1826816
 2017-02-04 07:58:43.891249+01 | 1486191523.89125 | pgbench_tellers_pkey  |          7118848
 2017-02-04 07:58:43.891249+01 | 1486191523.89125 | pgbench_accounts_pkey |       2246197248

 2017-02-04 07:58:44.967189+01 | 1486191524.96719 | pgbench_branches_pkey |          1826816
 2017-02-04 07:58:44.967189+01 | 1486191524.96719 | pgbench_tellers_pkey  |          7118848
 2017-02-04 07:58:44.967189+01 | 1486191524.96719 | pgbench_accounts_pkey |       2246197248

 2017-02-04 07:58:46.044616+01 | 1486191526.04462 | pgbench_branches_pkey |          1826816
 2017-02-04 07:58:46.044616+01 | 1486191526.04462 | pgbench_tellers_pkey  |          7118848
 2017-02-04 07:58:46.044616+01 | 1486191526.04462 | pgbench_accounts_pkey |       2246197248

 2017-02-04 07:58:47.116164+01 | 1486191527.11616 | pgbench_branches_pkey |          1826816
 2017-02-04 07:58:47.116164+01 | 1486191527.11616 | pgbench_tellers_pkey  |          7118848
 2017-02-04 07:58:47.116164+01 | 1486191527.11616 | pgbench_accounts_pkey |       2246197248

 2017-02-04 07:58:48.19315+01 | 1486191528.19315 | pgbench_branches_pkey |          1826816
 2017-02-04 07:58:48.19315+01 | 1486191528.19315 | pgbench_tellers_pkey  |          7118848
 2017-02-04 07:58:48.19315+01 | 1486191528.19315 | pgbench_accounts_pkey |       2246197248

 2017-02-04 07:58:49.26696+01 | 1486191529.26696 | pgbench_branches_pkey |          1826816
 2017-02-04 07:58:49.26696+01 | 1486191529.26696 | pgbench_tellers_pkey  |          7118848
 2017-02-04 07:58:49.26696+01 | 1486191529.26696 | pgbench_accounts_pkey |       2246197248

 2017-02-04 07:58:50.349111+01 | 1486191530.34911 | pgbench_branches_pkey |          1826816
 2017-02-04 07:58:50.349111+01 | 1486191530.34911 | pgbench_tellers_pkey  |          7118848
 2017-02-04 07:58:50.349111+01 | 1486191530.34911 | pgbench_accounts_pkey |       2246197248

 2017-02-04 07:58:51.431458+01 | 1486191531.43146 | pgbench_branches_pkey |          1826816
 2017-02-04 07:58:51.431458+01 | 1486191531.43146 | pgbench_tellers_pkey  |          7118848
 2017-02-04 07:58:51.431458+01 | 1486191531.43146 | pgbench_accounts_pkey |       2246197248

 2017-02-04 07:58:52.508566+01 | 1486191532.50857 | pgbench_branches_pkey |          1826816
 2017-02-04 07:58:52.508566+01 | 1486191532.50857 | pgbench_tellers_pkey  |          7118848
 2017-02-04 07:58:52.508566+01 | 1486191532.50857 | pgbench_accounts_pkey |       2246197248

 2017-02-04 07:58:53.580189+01 | 1486191533.58019 | pgbench_branches_pkey |          1826816
 2017-02-04 07:58:53.580189+01 | 1486191533.58019 | pgbench_tellers_pkey  |          7118848
 2017-02-04 07:58:53.580189+01 | 1486191533.58019 | pgbench_accounts_pkey |       2246197248

 2017-02-04 07:58:54.655954+01 | 1486191534.65595 | pgbench_branches_pkey |          1826816
 2017-02-04 07:58:54.655954+01 | 1486191534.65595 | pgbench_tellers_pkey  |          7118848
 2017-02-04 07:58:54.655954+01 | 1486191534.65595 | pgbench_accounts_pkey |       2246197248

 2017-02-04 07:58:55.733344+01 | 1486191535.73334 | pgbench_branches_pkey |          1826816
 2017-02-04 07:58:55.733344+01 | 1486191535.73334 | pgbench_tellers_pkey  |          7118848
 2017-02-04 07:58:55.733344+01 | 1486191535.73334 | pgbench_accounts_pkey |       2246197248

 2017-02-04 07:58:56.806518+01 | 1486191536.80652 | pgbench_branches_pkey |          1826816
 2017-02-04 07:58:56.806518+01 | 1486191536.80652 | pgbench_tellers_pkey  |          7118848
 2017-02-04 07:58:56.806518+01 | 1486191536.80652 | pgbench_accounts_pkey |       2246197248

 2017-02-04 07:58:57.880455+01 | 1486191537.88046 | pgbench_branches_pkey |          1826816
 2017-02-04 07:58:57.880455+01 | 1486191537.88046 | pgbench_tellers_pkey  |          7118848
 2017-02-04 07:58:57.880455+01 | 1486191537.88046 | pgbench_accounts_pkey |       2246197248

 2017-02-04 07:58:58.960113+01 | 1486191538.96011 | pgbench_branches_pkey |          1826816
 2017-02-04 07:58:58.960113+01 | 1486191538.96011 | pgbench_tellers_pkey  |          7118848
 2017-02-04 07:58:58.960113+01 | 1486191538.96011 | pgbench_accounts_pkey |       2246197248

 2017-02-04 07:59:00.03895+01 | 1486191540.03895 | pgbench_branches_pkey |          1826816
 2017-02-04 07:59:00.03895+01 | 1486191540.03895 | pgbench_tellers_pkey  |          7118848
 2017-02-04 07:59:00.03895+01 | 1486191540.03895 | pgbench_accounts_pkey |       2246197248

 2017-02-04 07:59:01.118822+01 | 1486191541.11882 | pgbench_branches_pkey |          1826816
 2017-02-04 07:59:01.118822+01 | 1486191541.11882 | pgbench_tellers_pkey  |          7118848
 2017-02-04 07:59:01.118822+01 | 1486191541.11882 | pgbench_accounts_pkey |       2246197248

 2017-02-04 07:59:02.204116+01 | 1486191542.20412 | pgbench_branches_pkey |          1826816
 2017-02-04 07:59:02.204116+01 | 1486191542.20412 | pgbench_tellers_pkey  |          7118848
 2017-02-04 07:59:02.204116+01 | 1486191542.20412 | pgbench_accounts_pkey |       2246197248

 2017-02-04 07:59:03.286335+01 | 1486191543.28633 | pgbench_branches_pkey |          1826816
 2017-02-04 07:59:03.286335+01 | 1486191543.28633 | pgbench_tellers_pkey  |          7118848
 2017-02-04 07:59:03.286335+01 | 1486191543.28633 | pgbench_accounts_pkey |       2246197248

 2017-02-04 07:59:04.36986+01 | 1486191544.36986 | pgbench_branches_pkey |          1826816
 2017-02-04 07:59:04.36986+01 | 1486191544.36986 | pgbench_tellers_pkey  |          7118848
 2017-02-04 07:59:04.36986+01 | 1486191544.36986 | pgbench_accounts_pkey |       2246197248

 2017-02-04 07:59:05.451372+01 | 1486191545.45137 | pgbench_branches_pkey |          1826816
 2017-02-04 07:59:05.451372+01 | 1486191545.45137 | pgbench_tellers_pkey  |          7118848
 2017-02-04 07:59:05.451372+01 | 1486191545.45137 | pgbench_accounts_pkey |       2246197248

 2017-02-04 07:59:06.520035+01 | 1486191546.52004 | pgbench_branches_pkey |          1826816
 2017-02-04 07:59:06.520035+01 | 1486191546.52004 | pgbench_tellers_pkey  |          7118848
 2017-02-04 07:59:06.520035+01 | 1486191546.52004 | pgbench_accounts_pkey |       2246197248

 2017-02-04 07:59:07.598798+01 | 1486191547.5988 | pgbench_branches_pkey |          1826816
 2017-02-04 07:59:07.598798+01 | 1486191547.5988 | pgbench_tellers_pkey  |          7118848
 2017-02-04 07:59:07.598798+01 | 1486191547.5988 | pgbench_accounts_pkey |       2246197248

 2017-02-04 07:59:08.677084+01 | 1486191548.67708 | pgbench_branches_pkey |          1826816
 2017-02-04 07:59:08.677084+01 | 1486191548.67708 | pgbench_tellers_pkey  |          7118848
 2017-02-04 07:59:08.677084+01 | 1486191548.67708 | pgbench_accounts_pkey |       2246197248

 2017-02-04 07:59:09.757815+01 | 1486191549.75781 | pgbench_branches_pkey |          1826816
 2017-02-04 07:59:09.757815+01 | 1486191549.75781 | pgbench_tellers_pkey  |          7118848
 2017-02-04 07:59:09.757815+01 | 1486191549.75781 | pgbench_accounts_pkey |       2246197248

 2017-02-04 07:59:10.846542+01 | 1486191550.84654 | pgbench_branches_pkey |          1826816
 2017-02-04 07:59:10.846542+01 | 1486191550.84654 | pgbench_tellers_pkey  |          7118848
 2017-02-04 07:59:10.846542+01 | 1486191550.84654 | pgbench_accounts_pkey |       2246197248

 2017-02-04 07:59:11.929345+01 | 1486191551.92934 | pgbench_branches_pkey |          1826816
 2017-02-04 07:59:11.929345+01 | 1486191551.92934 | pgbench_tellers_pkey  |          7118848
 2017-02-04 07:59:11.929345+01 | 1486191551.92934 | pgbench_accounts_pkey |       2246197248

 2017-02-04 07:59:13.023074+01 | 1486191553.02307 | pgbench_branches_pkey |          1826816
 2017-02-04 07:59:13.023074+01 | 1486191553.02307 | pgbench_tellers_pkey  |          7118848
 2017-02-04 07:59:13.023074+01 | 1486191553.02307 | pgbench_accounts_pkey |       2246197248

 2017-02-04 07:59:14.10165+01 | 1486191554.10165 | pgbench_branches_pkey |          1826816
 2017-02-04 07:59:14.10165+01 | 1486191554.10165 | pgbench_tellers_pkey  |          7118848
 2017-02-04 07:59:14.10165+01 | 1486191554.10165 | pgbench_accounts_pkey |       2246197248

 2017-02-04 07:59:15.180759+01 | 1486191555.18076 | pgbench_branches_pkey |          1826816
 2017-02-04 07:59:15.180759+01 | 1486191555.18076 | pgbench_tellers_pkey  |          7118848
 2017-02-04 07:59:15.180759+01 | 1486191555.18076 | pgbench_accounts_pkey |       2246197248

 2017-02-04 07:59:16.253264+01 | 1486191556.25326 | pgbench_branches_pkey |          1826816
 2017-02-04 07:59:16.253264+01 | 1486191556.25326 | pgbench_tellers_pkey  |          7118848
 2017-02-04 07:59:16.253264+01 | 1486191556.25326 | pgbench_accounts_pkey |       2246197248

 2017-02-04 07:59:17.325223+01 | 1486191557.32522 | pgbench_branches_pkey |          1826816
 2017-02-04 07:59:17.325223+01 | 1486191557.32522 | pgbench_tellers_pkey  |          7118848
 2017-02-04 07:59:17.325223+01 | 1486191557.32522 | pgbench_accounts_pkey |       2246197248

 2017-02-04 07:59:18.400151+01 | 1486191558.40015 | pgbench_branches_pkey |          1826816
 2017-02-04 07:59:18.400151+01 | 1486191558.40015 | pgbench_tellers_pkey  |          7118848
 2017-02-04 07:59:18.400151+01 | 1486191558.40015 | pgbench_accounts_pkey |       2246197248

 2017-02-04 07:59:19.478911+01 | 1486191559.47891 | pgbench_branches_pkey |          1826816
 2017-02-04 07:59:19.478911+01 | 1486191559.47891 | pgbench_tellers_pkey  |          7118848
 2017-02-04 07:59:19.478911+01 | 1486191559.47891 | pgbench_accounts_pkey |       2246197248

 2017-02-04 07:59:20.548999+01 | 1486191560.549 | pgbench_branches_pkey |          1826816
 2017-02-04 07:59:20.548999+01 | 1486191560.549 | pgbench_tellers_pkey  |          7118848
 2017-02-04 07:59:20.548999+01 | 1486191560.549 | pgbench_accounts_pkey |       2246197248

 2017-02-04 07:59:21.623815+01 | 1486191561.62382 | pgbench_branches_pkey |          1826816
 2017-02-04 07:59:21.623815+01 | 1486191561.62382 | pgbench_tellers_pkey  |          7118848
 2017-02-04 07:59:21.623815+01 | 1486191561.62382 | pgbench_accounts_pkey |       2246197248

 2017-02-04 07:59:22.699901+01 | 1486191562.6999 | pgbench_branches_pkey |          1826816
 2017-02-04 07:59:22.699901+01 | 1486191562.6999 | pgbench_tellers_pkey  |          7118848
 2017-02-04 07:59:22.699901+01 | 1486191562.6999 | pgbench_accounts_pkey |       2246197248

 2017-02-04 07:59:23.78152+01 | 1486191563.78152 | pgbench_branches_pkey |          1826816
 2017-02-04 07:59:23.78152+01 | 1486191563.78152 | pgbench_tellers_pkey  |          7118848
 2017-02-04 07:59:23.78152+01 | 1486191563.78152 | pgbench_accounts_pkey |       2246197248

 2017-02-04 07:59:24.8664+01 | 1486191564.8664 | pgbench_branches_pkey |          1826816
 2017-02-04 07:59:24.8664+01 | 1486191564.8664 | pgbench_tellers_pkey  |          7118848
 2017-02-04 07:59:24.8664+01 | 1486191564.8664 | pgbench_accounts_pkey |       2246197248

 2017-02-04 07:59:25.942987+01 | 1486191565.94299 | pgbench_branches_pkey |          1826816
 2017-02-04 07:59:25.942987+01 | 1486191565.94299 | pgbench_tellers_pkey  |          7118848
 2017-02-04 07:59:25.942987+01 | 1486191565.94299 | pgbench_accounts_pkey |       2246197248

 2017-02-04 07:59:27.020747+01 | 1486191567.02075 | pgbench_branches_pkey |          1826816
 2017-02-04 07:59:27.020747+01 | 1486191567.02075 | pgbench_tellers_pkey  |          7118848
 2017-02-04 07:59:27.020747+01 | 1486191567.02075 | pgbench_accounts_pkey |       2246197248

 2017-02-04 07:59:28.10496+01 | 1486191568.10496 | pgbench_branches_pkey |          1826816
 2017-02-04 07:59:28.10496+01 | 1486191568.10496 | pgbench_tellers_pkey  |          7118848
 2017-02-04 07:59:28.10496+01 | 1486191568.10496 | pgbench_accounts_pkey |       2246197248

 2017-02-04 07:59:29.182879+01 | 1486191569.18288 | pgbench_branches_pkey |          1826816
 2017-02-04 07:59:29.182879+01 | 1486191569.18288 | pgbench_tellers_pkey  |          7118848
 2017-02-04 07:59:29.182879+01 | 1486191569.18288 | pgbench_accounts_pkey |       2246197248

 2017-02-04 07:59:30.269853+01 | 1486191570.26985 | pgbench_branches_pkey |          1826816
 2017-02-04 07:59:30.269853+01 | 1486191570.26985 | pgbench_tellers_pkey  |          7118848
 2017-02-04 07:59:30.269853+01 | 1486191570.26985 | pgbench_accounts_pkey |       2246197248

 2017-02-04 07:59:31.350167+01 | 1486191571.35017 | pgbench_branches_pkey |          1826816
 2017-02-04 07:59:31.350167+01 | 1486191571.35017 | pgbench_tellers_pkey  |          7118848
 2017-02-04 07:59:31.350167+01 | 1486191571.35017 | pgbench_accounts_pkey |       2246197248

 2017-02-04 07:59:32.427194+01 | 1486191572.42719 | pgbench_branches_pkey |          1826816
 2017-02-04 07:59:32.427194+01 | 1486191572.42719 | pgbench_tellers_pkey  |          7118848
 2017-02-04 07:59:32.427194+01 | 1486191572.42719 | pgbench_accounts_pkey |       2246197248

 2017-02-04 07:59:33.495152+01 | 1486191573.49515 | pgbench_branches_pkey |          1826816
 2017-02-04 07:59:33.495152+01 | 1486191573.49515 | pgbench_tellers_pkey  |          7118848
 2017-02-04 07:59:33.495152+01 | 1486191573.49515 | pgbench_accounts_pkey |       2246197248

 2017-02-04 07:59:34.57645+01 | 1486191574.57645 | pgbench_branches_pkey |          1826816
 2017-02-04 07:59:34.57645+01 | 1486191574.57645 | pgbench_tellers_pkey  |          7118848
 2017-02-04 07:59:34.57645+01 | 1486191574.57645 | pgbench_accounts_pkey |       2246197248

 2017-02-04 07:59:35.659044+01 | 1486191575.65904 | pgbench_branches_pkey |          1826816
 2017-02-04 07:59:35.659044+01 | 1486191575.65904 | pgbench_tellers_pkey  |          7118848
 2017-02-04 07:59:35.659044+01 | 1486191575.65904 | pgbench_accounts_pkey |       2246197248

 2017-02-04 07:59:36.740928+01 | 1486191576.74093 | pgbench_branches_pkey |          1826816
 2017-02-04 07:59:36.740928+01 | 1486191576.74093 | pgbench_tellers_pkey  |          7118848
 2017-02-04 07:59:36.740928+01 | 1486191576.74093 | pgbench_accounts_pkey |       2246197248

 2017-02-04 07:59:37.826708+01 | 1486191577.82671 | pgbench_branches_pkey |          1826816
 2017-02-04 07:59:37.826708+01 | 1486191577.82671 | pgbench_tellers_pkey  |          7118848
 2017-02-04 07:59:37.826708+01 | 1486191577.82671 | pgbench_accounts_pkey |       2246197248

 2017-02-04 07:59:38.903199+01 | 1486191578.9032 | pgbench_branches_pkey |          1826816
 2017-02-04 07:59:38.903199+01 | 1486191578.9032 | pgbench_tellers_pkey  |          7118848
 2017-02-04 07:59:38.903199+01 | 1486191578.9032 | pgbench_accounts_pkey |       2246197248

 2017-02-04 07:59:39.974619+01 | 1486191579.97462 | pgbench_branches_pkey |          1826816
 2017-02-04 07:59:39.974619+01 | 1486191579.97462 | pgbench_tellers_pkey  |          7118848
 2017-02-04 07:59:39.974619+01 | 1486191579.97462 | pgbench_accounts_pkey |       2246197248

 2017-02-04 07:59:41.053739+01 | 1486191581.05374 | pgbench_branches_pkey |          1826816
 2017-02-04 07:59:41.053739+01 | 1486191581.05374 | pgbench_tellers_pkey  |          7118848
 2017-02-04 07:59:41.053739+01 | 1486191581.05374 | pgbench_accounts_pkey |       2246197248

 2017-02-04 07:59:42.129636+01 | 1486191582.12964 | pgbench_branches_pkey |          1826816
 2017-02-04 07:59:42.129636+01 | 1486191582.12964 | pgbench_tellers_pkey  |          7118848
 2017-02-04 07:59:42.129636+01 | 1486191582.12964 | pgbench_accounts_pkey |       2246197248

 2017-02-04 07:59:43.202515+01 | 1486191583.20251 | pgbench_branches_pkey |          1826816
 2017-02-04 07:59:43.202515+01 | 1486191583.20251 | pgbench_tellers_pkey  |          7118848
 2017-02-04 07:59:43.202515+01 | 1486191583.20251 | pgbench_accounts_pkey |       2246197248

 2017-02-04 07:59:44.285782+01 | 1486191584.28578 | pgbench_branches_pkey |          1826816
 2017-02-04 07:59:44.285782+01 | 1486191584.28578 | pgbench_tellers_pkey  |          7118848
 2017-02-04 07:59:44.285782+01 | 1486191584.28578 | pgbench_accounts_pkey |       2246197248

 2017-02-04 07:59:45.356459+01 | 1486191585.35646 | pgbench_branches_pkey |          1826816
 2017-02-04 07:59:45.356459+01 | 1486191585.35646 | pgbench_tellers_pkey  |          7118848
 2017-02-04 07:59:45.356459+01 | 1486191585.35646 | pgbench_accounts_pkey |       2246197248

 2017-02-04 07:59:46.442717+01 | 1486191586.44272 | pgbench_branches_pkey |          1826816
 2017-02-04 07:59:46.442717+01 | 1486191586.44272 | pgbench_tellers_pkey  |          7118848
 2017-02-04 07:59:46.442717+01 | 1486191586.44272 | pgbench_accounts_pkey |       2246197248

 2017-02-04 07:59:47.523432+01 | 1486191587.52343 | pgbench_branches_pkey |          1826816
 2017-02-04 07:59:47.523432+01 | 1486191587.52343 | pgbench_tellers_pkey  |          7118848
 2017-02-04 07:59:47.523432+01 | 1486191587.52343 | pgbench_accounts_pkey |       2246197248

 2017-02-04 07:59:48.6047+01 | 1486191588.6047 | pgbench_branches_pkey |          1826816
 2017-02-04 07:59:48.6047+01 | 1486191588.6047 | pgbench_tellers_pkey  |          7118848
 2017-02-04 07:59:48.6047+01 | 1486191588.6047 | pgbench_accounts_pkey |       2246197248

 2017-02-04 07:59:49.689499+01 | 1486191589.6895 | pgbench_branches_pkey |          1826816
 2017-02-04 07:59:49.689499+01 | 1486191589.6895 | pgbench_tellers_pkey  |          7118848
 2017-02-04 07:59:49.689499+01 | 1486191589.6895 | pgbench_accounts_pkey |       2246197248

 2017-02-04 07:59:50.763363+01 | 1486191590.76336 | pgbench_branches_pkey |          1826816
 2017-02-04 07:59:50.763363+01 | 1486191590.76336 | pgbench_tellers_pkey  |          7118848
 2017-02-04 07:59:50.763363+01 | 1486191590.76336 | pgbench_accounts_pkey |       2246197248

 2017-02-04 07:59:51.821575+01 | 1486191591.82157 | pgbench_branches_pkey |          1826816
 2017-02-04 07:59:51.821575+01 | 1486191591.82157 | pgbench_tellers_pkey  |          7118848
 2017-02-04 07:59:51.821575+01 | 1486191591.82157 | pgbench_accounts_pkey |       2246197248

 2017-02-04 07:59:52.892537+01 | 1486191592.89254 | pgbench_branches_pkey |          1826816
 2017-02-04 07:59:52.892537+01 | 1486191592.89254 | pgbench_tellers_pkey  |          7118848
 2017-02-04 07:59:52.892537+01 | 1486191592.89254 | pgbench_accounts_pkey |       2246197248

 2017-02-04 07:59:53.953768+01 | 1486191593.95377 | pgbench_branches_pkey |          1826816
 2017-02-04 07:59:53.953768+01 | 1486191593.95377 | pgbench_tellers_pkey  |          7118848
 2017-02-04 07:59:53.953768+01 | 1486191593.95377 | pgbench_accounts_pkey |       2246197248

 2017-02-04 07:59:55.031812+01 | 1486191595.03181 | pgbench_branches_pkey |          1826816
 2017-02-04 07:59:55.031812+01 | 1486191595.03181 | pgbench_tellers_pkey  |          7118848
 2017-02-04 07:59:55.031812+01 | 1486191595.03181 | pgbench_accounts_pkey |       2246197248

 2017-02-04 07:59:56.117352+01 | 1486191596.11735 | pgbench_branches_pkey |          1826816
 2017-02-04 07:59:56.117352+01 | 1486191596.11735 | pgbench_tellers_pkey  |          7118848
 2017-02-04 07:59:56.117352+01 | 1486191596.11735 | pgbench_accounts_pkey |       2246197248

 2017-02-04 07:59:57.197183+01 | 1486191597.19718 | pgbench_branches_pkey |          1826816
 2017-02-04 07:59:57.197183+01 | 1486191597.19718 | pgbench_tellers_pkey  |          7118848
 2017-02-04 07:59:57.197183+01 | 1486191597.19718 | pgbench_accounts_pkey |       2246197248

 2017-02-04 07:59:58.274043+01 | 1486191598.27404 | pgbench_branches_pkey |          1826816
 2017-02-04 07:59:58.274043+01 | 1486191598.27404 | pgbench_tellers_pkey  |          7118848
 2017-02-04 07:59:58.274043+01 | 1486191598.27404 | pgbench_accounts_pkey |       2246197248

 2017-02-04 07:59:59.361089+01 | 1486191599.36109 | pgbench_branches_pkey |          1826816
 2017-02-04 07:59:59.361089+01 | 1486191599.36109 | pgbench_tellers_pkey  |          7118848
 2017-02-04 07:59:59.361089+01 | 1486191599.36109 | pgbench_accounts_pkey |       2246197248

 2017-02-04 08:00:00.436555+01 | 1486191600.43655 | pgbench_branches_pkey |          1826816
 2017-02-04 08:00:00.436555+01 | 1486191600.43655 | pgbench_tellers_pkey  |          7118848
 2017-02-04 08:00:00.436555+01 | 1486191600.43655 | pgbench_accounts_pkey |       2246197248

 2017-02-04 08:00:01.516898+01 | 1486191601.5169 | pgbench_branches_pkey |          1826816
 2017-02-04 08:00:01.516898+01 | 1486191601.5169 | pgbench_tellers_pkey  |          7118848
 2017-02-04 08:00:01.516898+01 | 1486191601.5169 | pgbench_accounts_pkey |       2246197248

 2017-02-04 08:00:02.592779+01 | 1486191602.59278 | pgbench_branches_pkey |          1826816
 2017-02-04 08:00:02.592779+01 | 1486191602.59278 | pgbench_tellers_pkey  |          7118848
 2017-02-04 08:00:02.592779+01 | 1486191602.59278 | pgbench_accounts_pkey |       2246197248

 2017-02-04 08:00:03.673296+01 | 1486191603.6733 | pgbench_branches_pkey |          1826816
 2017-02-04 08:00:03.673296+01 | 1486191603.6733 | pgbench_tellers_pkey  |          7118848
 2017-02-04 08:00:03.673296+01 | 1486191603.6733 | pgbench_accounts_pkey |       2246197248

 2017-02-04 08:00:04.750502+01 | 1486191604.7505 | pgbench_branches_pkey |          1826816
 2017-02-04 08:00:04.750502+01 | 1486191604.7505 | pgbench_tellers_pkey  |          7118848
 2017-02-04 08:00:04.750502+01 | 1486191604.7505 | pgbench_accounts_pkey |       2246197248

 2017-02-04 08:00:05.828559+01 | 1486191605.82856 | pgbench_branches_pkey |          1826816
 2017-02-04 08:00:05.828559+01 | 1486191605.82856 | pgbench_tellers_pkey  |          7118848
 2017-02-04 08:00:05.828559+01 | 1486191605.82856 | pgbench_accounts_pkey |       2246197248

 2017-02-04 08:00:06.917921+01 | 1486191606.91792 | pgbench_branches_pkey |          1826816
 2017-02-04 08:00:06.917921+01 | 1486191606.91792 | pgbench_tellers_pkey  |          7118848
 2017-02-04 08:00:06.917921+01 | 1486191606.91792 | pgbench_accounts_pkey |       2246197248

 2017-02-04 08:00:07.991526+01 | 1486191607.99153 | pgbench_branches_pkey |          1826816
 2017-02-04 08:00:07.991526+01 | 1486191607.99153 | pgbench_tellers_pkey  |          7118848
 2017-02-04 08:00:07.991526+01 | 1486191607.99153 | pgbench_accounts_pkey |       2246197248

 2017-02-04 08:00:09.064565+01 | 1486191609.06456 | pgbench_branches_pkey |          1826816
 2017-02-04 08:00:09.064565+01 | 1486191609.06456 | pgbench_tellers_pkey  |          7118848
 2017-02-04 08:00:09.064565+01 | 1486191609.06456 | pgbench_accounts_pkey |       2246197248

 2017-02-04 08:00:10.151384+01 | 1486191610.15138 | pgbench_branches_pkey |          1826816
 2017-02-04 08:00:10.151384+01 | 1486191610.15138 | pgbench_tellers_pkey  |          7118848
 2017-02-04 08:00:10.151384+01 | 1486191610.15138 | pgbench_accounts_pkey |       2246197248

 2017-02-04 08:00:11.228022+01 | 1486191611.22802 | pgbench_branches_pkey |          1826816
 2017-02-04 08:00:11.228022+01 | 1486191611.22802 | pgbench_tellers_pkey  |          7118848
 2017-02-04 08:00:11.228022+01 | 1486191611.22802 | pgbench_accounts_pkey |       2246197248

 2017-02-04 08:00:12.300152+01 | 1486191612.30015 | pgbench_branches_pkey |          1826816
 2017-02-04 08:00:12.300152+01 | 1486191612.30015 | pgbench_tellers_pkey  |          7118848
 2017-02-04 08:00:12.300152+01 | 1486191612.30015 | pgbench_accounts_pkey |       2246197248

 2017-02-04 08:00:13.379015+01 | 1486191613.37901 | pgbench_branches_pkey |          1826816
 2017-02-04 08:00:13.379015+01 | 1486191613.37901 | pgbench_tellers_pkey  |          7118848
 2017-02-04 08:00:13.379015+01 | 1486191613.37901 | pgbench_accounts_pkey |       2246197248

 2017-02-04 08:00:14.456439+01 | 1486191614.45644 | pgbench_branches_pkey |          1826816
 2017-02-04 08:00:14.456439+01 | 1486191614.45644 | pgbench_tellers_pkey  |          7118848
 2017-02-04 08:00:14.456439+01 | 1486191614.45644 | pgbench_accounts_pkey |       2246197248

 2017-02-04 08:00:15.535068+01 | 1486191615.53507 | pgbench_branches_pkey |          1826816
 2017-02-04 08:00:15.535068+01 | 1486191615.53507 | pgbench_tellers_pkey  |          7118848
 2017-02-04 08:00:15.535068+01 | 1486191615.53507 | pgbench_accounts_pkey |       2246197248

 2017-02-04 08:00:16.615747+01 | 1486191616.61575 | pgbench_branches_pkey |          1826816
 2017-02-04 08:00:16.615747+01 | 1486191616.61575 | pgbench_tellers_pkey  |          7118848
 2017-02-04 08:00:16.615747+01 | 1486191616.61575 | pgbench_accounts_pkey |       2246197248

 2017-02-04 08:00:17.700548+01 | 1486191617.70055 | pgbench_branches_pkey |          1826816
 2017-02-04 08:00:17.700548+01 | 1486191617.70055 | pgbench_tellers_pkey  |          7118848
 2017-02-04 08:00:17.700548+01 | 1486191617.70055 | pgbench_accounts_pkey |       2246197248

 2017-02-04 08:00:18.786213+01 | 1486191618.78621 | pgbench_branches_pkey |          1826816
 2017-02-04 08:00:18.786213+01 | 1486191618.78621 | pgbench_tellers_pkey  |          7118848
 2017-02-04 08:00:18.786213+01 | 1486191618.78621 | pgbench_accounts_pkey |       2246197248

 2017-02-04 08:00:19.864337+01 | 1486191619.86434 | pgbench_branches_pkey |          1826816
 2017-02-04 08:00:19.864337+01 | 1486191619.86434 | pgbench_tellers_pkey  |          7118848
 2017-02-04 08:00:19.864337+01 | 1486191619.86434 | pgbench_accounts_pkey |       2246197248

 2017-02-04 08:00:20.946446+01 | 1486191620.94645 | pgbench_branches_pkey |          1826816
 2017-02-04 08:00:20.946446+01 | 1486191620.94645 | pgbench_tellers_pkey  |          7118848
 2017-02-04 08:00:20.946446+01 | 1486191620.94645 | pgbench_accounts_pkey |       2246197248

 2017-02-04 08:00:22.02376+01 | 1486191622.02376 | pgbench_branches_pkey |          1826816
 2017-02-04 08:00:22.02376+01 | 1486191622.02376 | pgbench_tellers_pkey  |          7118848
 2017-02-04 08:00:22.02376+01 | 1486191622.02376 | pgbench_accounts_pkey |       2246197248

 2017-02-04 08:00:23.101635+01 | 1486191623.10163 | pgbench_branches_pkey |          1826816
 2017-02-04 08:00:23.101635+01 | 1486191623.10163 | pgbench_tellers_pkey  |          7118848
 2017-02-04 08:00:23.101635+01 | 1486191623.10163 | pgbench_accounts_pkey |       2246197248

 2017-02-04 08:00:24.183964+01 | 1486191624.18396 | pgbench_branches_pkey |          1826816
 2017-02-04 08:00:24.183964+01 | 1486191624.18396 | pgbench_tellers_pkey  |          7118848
 2017-02-04 08:00:24.183964+01 | 1486191624.18396 | pgbench_accounts_pkey |       2246197248

 2017-02-04 08:00:25.270662+01 | 1486191625.27066 | pgbench_branches_pkey |          1826816
 2017-02-04 08:00:25.270662+01 | 1486191625.27066 | pgbench_tellers_pkey  |          7118848
 2017-02-04 08:00:25.270662+01 | 1486191625.27066 | pgbench_accounts_pkey |       2246197248

 2017-02-04 08:00:26.358556+01 | 1486191626.35856 | pgbench_branches_pkey |          1826816
 2017-02-04 08:00:26.358556+01 | 1486191626.35856 | pgbench_tellers_pkey  |          7118848
 2017-02-04 08:00:26.358556+01 | 1486191626.35856 | pgbench_accounts_pkey |       2246197248

 2017-02-04 08:00:27.434607+01 | 1486191627.43461 | pgbench_branches_pkey |          1826816
 2017-02-04 08:00:27.434607+01 | 1486191627.43461 | pgbench_tellers_pkey  |          7118848
 2017-02-04 08:00:27.434607+01 | 1486191627.43461 | pgbench_accounts_pkey |       2246197248

 2017-02-04 08:00:28.510422+01 | 1486191628.51042 | pgbench_branches_pkey |          1826816
 2017-02-04 08:00:28.510422+01 | 1486191628.51042 | pgbench_tellers_pkey  |          7118848
 2017-02-04 08:00:28.510422+01 | 1486191628.51042 | pgbench_accounts_pkey |       2246197248

 2017-02-04 08:00:29.587858+01 | 1486191629.58786 | pgbench_branches_pkey |          1826816
 2017-02-04 08:00:29.587858+01 | 1486191629.58786 | pgbench_tellers_pkey  |          7118848
 2017-02-04 08:00:29.587858+01 | 1486191629.58786 | pgbench_accounts_pkey |       2246197248

 2017-02-04 08:00:30.663658+01 | 1486191630.66366 | pgbench_branches_pkey |          1826816
 2017-02-04 08:00:30.663658+01 | 1486191630.66366 | pgbench_tellers_pkey  |          7118848
 2017-02-04 08:00:30.663658+01 | 1486191630.66366 | pgbench_accounts_pkey |       2246197248

 2017-02-04 08:00:31.738107+01 | 1486191631.73811 | pgbench_branches_pkey |          1826816
 2017-02-04 08:00:31.738107+01 | 1486191631.73811 | pgbench_tellers_pkey  |          7118848
 2017-02-04 08:00:31.738107+01 | 1486191631.73811 | pgbench_accounts_pkey |       2246197248

 2017-02-04 08:00:32.821958+01 | 1486191632.82196 | pgbench_branches_pkey |          1826816
 2017-02-04 08:00:32.821958+01 | 1486191632.82196 | pgbench_tellers_pkey  |          7118848
 2017-02-04 08:00:32.821958+01 | 1486191632.82196 | pgbench_accounts_pkey |       2246197248

 2017-02-04 08:00:33.900636+01 | 1486191633.90064 | pgbench_branches_pkey |          1826816
 2017-02-04 08:00:33.900636+01 | 1486191633.90064 | pgbench_tellers_pkey  |          7118848
 2017-02-04 08:00:33.900636+01 | 1486191633.90064 | pgbench_accounts_pkey |       2246197248

 2017-02-04 08:00:34.969224+01 | 1486191634.96922 | pgbench_branches_pkey |          1826816
 2017-02-04 08:00:34.969224+01 | 1486191634.96922 | pgbench_tellers_pkey  |          7118848
 2017-02-04 08:00:34.969224+01 | 1486191634.96922 | pgbench_accounts_pkey |       2246197248

 2017-02-04 08:00:36.046079+01 | 1486191636.04608 | pgbench_branches_pkey |          1826816
 2017-02-04 08:00:36.046079+01 | 1486191636.04608 | pgbench_tellers_pkey  |          7118848
 2017-02-04 08:00:36.046079+01 | 1486191636.04608 | pgbench_accounts_pkey |       2246197248

 2017-02-04 08:00:37.134958+01 | 1486191637.13496 | pgbench_branches_pkey |          1826816
 2017-02-04 08:00:37.134958+01 | 1486191637.13496 | pgbench_tellers_pkey  |          7118848
 2017-02-04 08:00:37.134958+01 | 1486191637.13496 | pgbench_accounts_pkey |       2246197248

 2017-02-04 08:00:38.218473+01 | 1486191638.21847 | pgbench_branches_pkey |          1826816
 2017-02-04 08:00:38.218473+01 | 1486191638.21847 | pgbench_tellers_pkey  |          7118848
 2017-02-04 08:00:38.218473+01 | 1486191638.21847 | pgbench_accounts_pkey |       2246197248

 2017-02-04 08:00:39.299647+01 | 1486191639.29965 | pgbench_branches_pkey |          1826816
 2017-02-04 08:00:39.299647+01 | 1486191639.29965 | pgbench_tellers_pkey  |          7118848
 2017-02-04 08:00:39.299647+01 | 1486191639.29965 | pgbench_accounts_pkey |       2246197248

 2017-02-04 08:00:40.375039+01 | 1486191640.37504 | pgbench_branches_pkey |          1826816
 2017-02-04 08:00:40.375039+01 | 1486191640.37504 | pgbench_tellers_pkey  |          7118848
 2017-02-04 08:00:40.375039+01 | 1486191640.37504 | pgbench_accounts_pkey |       2246197248

 2017-02-04 08:00:41.452914+01 | 1486191641.45291 | pgbench_branches_pkey |          1826816
 2017-02-04 08:00:41.452914+01 | 1486191641.45291 | pgbench_tellers_pkey  |          7118848
 2017-02-04 08:00:41.452914+01 | 1486191641.45291 | pgbench_accounts_pkey |       2246197248

 2017-02-04 08:00:42.532122+01 | 1486191642.53212 | pgbench_branches_pkey |          1826816
 2017-02-04 08:00:42.532122+01 | 1486191642.53212 | pgbench_tellers_pkey  |          7118848
 2017-02-04 08:00:42.532122+01 | 1486191642.53212 | pgbench_accounts_pkey |       2246197248

 2017-02-04 08:00:43.612554+01 | 1486191643.61255 | pgbench_branches_pkey |          1826816
 2017-02-04 08:00:43.612554+01 | 1486191643.61255 | pgbench_tellers_pkey  |          7118848
 2017-02-04 08:00:43.612554+01 | 1486191643.61255 | pgbench_accounts_pkey |       2246197248

 2017-02-04 08:00:44.688603+01 | 1486191644.6886 | pgbench_branches_pkey |          1826816
 2017-02-04 08:00:44.688603+01 | 1486191644.6886 | pgbench_tellers_pkey  |          7118848
 2017-02-04 08:00:44.688603+01 | 1486191644.6886 | pgbench_accounts_pkey |       2246197248

 2017-02-04 08:00:45.777715+01 | 1486191645.77771 | pgbench_branches_pkey |          1826816
 2017-02-04 08:00:45.777715+01 | 1486191645.77771 | pgbench_tellers_pkey  |          7118848
 2017-02-04 08:00:45.777715+01 | 1486191645.77771 | pgbench_accounts_pkey |       2246197248

 2017-02-04 08:00:46.854517+01 | 1486191646.85452 | pgbench_branches_pkey |          1826816
 2017-02-04 08:00:46.854517+01 | 1486191646.85452 | pgbench_tellers_pkey  |          7118848
 2017-02-04 08:00:46.854517+01 | 1486191646.85452 | pgbench_accounts_pkey |       2246197248

 2017-02-04 08:00:47.93332+01 | 1486191647.93332 | pgbench_branches_pkey |          1826816
 2017-02-04 08:00:47.93332+01 | 1486191647.93332 | pgbench_tellers_pkey  |          7118848
 2017-02-04 08:00:47.93332+01 | 1486191647.93332 | pgbench_accounts_pkey |       2246197248

 2017-02-04 08:00:49.013748+01 | 1486191649.01375 | pgbench_branches_pkey |          1826816
 2017-02-04 08:00:49.013748+01 | 1486191649.01375 | pgbench_tellers_pkey  |          7118848
 2017-02-04 08:00:49.013748+01 | 1486191649.01375 | pgbench_accounts_pkey |       2246197248

 2017-02-04 08:00:50.096992+01 | 1486191650.09699 | pgbench_branches_pkey |          1826816
 2017-02-04 08:00:50.096992+01 | 1486191650.09699 | pgbench_tellers_pkey  |          7118848
 2017-02-04 08:00:50.096992+01 | 1486191650.09699 | pgbench_accounts_pkey |       2246197248

 2017-02-04 08:00:51.174797+01 | 1486191651.1748 | pgbench_branches_pkey |          1826816
 2017-02-04 08:00:51.174797+01 | 1486191651.1748 | pgbench_tellers_pkey  |          7118848
 2017-02-04 08:00:51.174797+01 | 1486191651.1748 | pgbench_accounts_pkey |       2246197248

 2017-02-04 08:00:52.244521+01 | 1486191652.24452 | pgbench_branches_pkey |          1826816
 2017-02-04 08:00:52.244521+01 | 1486191652.24452 | pgbench_tellers_pkey  |          7118848
 2017-02-04 08:00:52.244521+01 | 1486191652.24452 | pgbench_accounts_pkey |       2246197248

 2017-02-04 08:00:53.325407+01 | 1486191653.32541 | pgbench_branches_pkey |          1826816
 2017-02-04 08:00:53.325407+01 | 1486191653.32541 | pgbench_tellers_pkey  |          7118848
 2017-02-04 08:00:53.325407+01 | 1486191653.32541 | pgbench_accounts_pkey |       2246197248

 2017-02-04 08:00:54.385161+01 | 1486191654.38516 | pgbench_branches_pkey |          1826816
 2017-02-04 08:00:54.385161+01 | 1486191654.38516 | pgbench_tellers_pkey  |          7118848
 2017-02-04 08:00:54.385161+01 | 1486191654.38516 | pgbench_accounts_pkey |       2246197248

 2017-02-04 08:00:55.472092+01 | 1486191655.47209 | pgbench_branches_pkey |          1826816
 2017-02-04 08:00:55.472092+01 | 1486191655.47209 | pgbench_tellers_pkey  |          7118848
 2017-02-04 08:00:55.472092+01 | 1486191655.47209 | pgbench_accounts_pkey |       2246197248

 2017-02-04 08:00:56.554384+01 | 1486191656.55438 | pgbench_branches_pkey |          1826816
 2017-02-04 08:00:56.554384+01 | 1486191656.55438 | pgbench_tellers_pkey  |          7118848
 2017-02-04 08:00:56.554384+01 | 1486191656.55438 | pgbench_accounts_pkey |       2246197248

 2017-02-04 08:00:57.629955+01 | 1486191657.62996 | pgbench_branches_pkey |          1826816
 2017-02-04 08:00:57.629955+01 | 1486191657.62996 | pgbench_tellers_pkey  |          7118848
 2017-02-04 08:00:57.629955+01 | 1486191657.62996 | pgbench_accounts_pkey |       2246197248

 2017-02-04 08:00:58.706648+01 | 1486191658.70665 | pgbench_branches_pkey |          1826816
 2017-02-04 08:00:58.706648+01 | 1486191658.70665 | pgbench_tellers_pkey  |          7118848
 2017-02-04 08:00:58.706648+01 | 1486191658.70665 | pgbench_accounts_pkey |       2246197248

 2017-02-04 08:00:59.779572+01 | 1486191659.77957 | pgbench_branches_pkey |          1826816
 2017-02-04 08:00:59.779572+01 | 1486191659.77957 | pgbench_tellers_pkey  |          7118848
 2017-02-04 08:00:59.779572+01 | 1486191659.77957 | pgbench_accounts_pkey |       2246197248

 2017-02-04 08:01:00.854359+01 | 1486191660.85436 | pgbench_branches_pkey |          1826816
 2017-02-04 08:01:00.854359+01 | 1486191660.85436 | pgbench_tellers_pkey  |          7118848
 2017-02-04 08:01:00.854359+01 | 1486191660.85436 | pgbench_accounts_pkey |       2246197248

 2017-02-04 08:01:01.935796+01 | 1486191661.9358 | pgbench_branches_pkey |          1826816
 2017-02-04 08:01:01.935796+01 | 1486191661.9358 | pgbench_tellers_pkey  |          7118848
 2017-02-04 08:01:01.935796+01 | 1486191661.9358 | pgbench_accounts_pkey |       2246197248

 2017-02-04 08:01:03.013755+01 | 1486191663.01376 | pgbench_branches_pkey |          1826816
 2017-02-04 08:01:03.013755+01 | 1486191663.01376 | pgbench_tellers_pkey  |          7118848
 2017-02-04 08:01:03.013755+01 | 1486191663.01376 | pgbench_accounts_pkey |       2246197248

 2017-02-04 08:01:04.093772+01 | 1486191664.09377 | pgbench_branches_pkey |          1826816
 2017-02-04 08:01:04.093772+01 | 1486191664.09377 | pgbench_tellers_pkey  |          7118848
 2017-02-04 08:01:04.093772+01 | 1486191664.09377 | pgbench_accounts_pkey |       2246197248

 2017-02-04 08:01:05.167138+01 | 1486191665.16714 | pgbench_branches_pkey |          1826816
 2017-02-04 08:01:05.167138+01 | 1486191665.16714 | pgbench_tellers_pkey  |          7118848
 2017-02-04 08:01:05.167138+01 | 1486191665.16714 | pgbench_accounts_pkey |       2246197248

 2017-02-04 08:01:06.243713+01 | 1486191666.24371 | pgbench_branches_pkey |          1826816
 2017-02-04 08:01:06.243713+01 | 1486191666.24371 | pgbench_tellers_pkey  |          7118848
 2017-02-04 08:01:06.243713+01 | 1486191666.24371 | pgbench_accounts_pkey |       2246197248

 2017-02-04 08:01:07.319671+01 | 1486191667.31967 | pgbench_branches_pkey |          1826816
 2017-02-04 08:01:07.319671+01 | 1486191667.31967 | pgbench_tellers_pkey  |          7118848
 2017-02-04 08:01:07.319671+01 | 1486191667.31967 | pgbench_accounts_pkey |       2246197248

 2017-02-04 08:01:08.399254+01 | 1486191668.39925 | pgbench_branches_pkey |          1826816
 2017-02-04 08:01:08.399254+01 | 1486191668.39925 | pgbench_tellers_pkey  |          7118848
 2017-02-04 08:01:08.399254+01 | 1486191668.39925 | pgbench_accounts_pkey |       2246197248

 2017-02-04 08:01:09.47492+01 | 1486191669.47492 | pgbench_branches_pkey |          1826816
 2017-02-04 08:01:09.47492+01 | 1486191669.47492 | pgbench_tellers_pkey  |          7118848
 2017-02-04 08:01:09.47492+01 | 1486191669.47492 | pgbench_accounts_pkey |       2246197248

 2017-02-04 08:01:10.553273+01 | 1486191670.55327 | pgbench_branches_pkey |          1826816
 2017-02-04 08:01:10.553273+01 | 1486191670.55327 | pgbench_tellers_pkey  |          7118848
 2017-02-04 08:01:10.553273+01 | 1486191670.55327 | pgbench_accounts_pkey |       2246197248

 2017-02-04 08:01:11.625895+01 | 1486191671.6259 | pgbench_branches_pkey |          1826816
 2017-02-04 08:01:11.625895+01 | 1486191671.6259 | pgbench_tellers_pkey  |          7118848
 2017-02-04 08:01:11.625895+01 | 1486191671.6259 | pgbench_accounts_pkey |       2246197248

 2017-02-04 08:01:12.694862+01 | 1486191672.69486 | pgbench_branches_pkey |          1826816
 2017-02-04 08:01:12.694862+01 | 1486191672.69486 | pgbench_tellers_pkey  |          7118848
 2017-02-04 08:01:12.694862+01 | 1486191672.69486 | pgbench_accounts_pkey |       2246197248

 2017-02-04 08:01:13.763419+01 | 1486191673.76342 | pgbench_branches_pkey |          1826816
 2017-02-04 08:01:13.763419+01 | 1486191673.76342 | pgbench_tellers_pkey  |          7118848
 2017-02-04 08:01:13.763419+01 | 1486191673.76342 | pgbench_accounts_pkey |       2246197248

 2017-02-04 08:01:14.836239+01 | 1486191674.83624 | pgbench_branches_pkey |          1826816
 2017-02-04 08:01:14.836239+01 | 1486191674.83624 | pgbench_tellers_pkey  |          7118848
 2017-02-04 08:01:14.836239+01 | 1486191674.83624 | pgbench_accounts_pkey |       2246197248

 2017-02-04 08:01:15.915448+01 | 1486191675.91545 | pgbench_branches_pkey |          1826816
 2017-02-04 08:01:15.915448+01 | 1486191675.91545 | pgbench_tellers_pkey  |          7118848
 2017-02-04 08:01:15.915448+01 | 1486191675.91545 | pgbench_accounts_pkey |       2246197248

 2017-02-04 08:01:16.993311+01 | 1486191676.99331 | pgbench_branches_pkey |          1826816
 2017-02-04 08:01:16.993311+01 | 1486191676.99331 | pgbench_tellers_pkey  |          7118848
 2017-02-04 08:01:16.993311+01 | 1486191676.99331 | pgbench_accounts_pkey |       2246197248

 2017-02-04 08:01:18.063038+01 | 1486191678.06304 | pgbench_branches_pkey |          1826816
 2017-02-04 08:01:18.063038+01 | 1486191678.06304 | pgbench_tellers_pkey  |          7118848
 2017-02-04 08:01:18.063038+01 | 1486191678.06304 | pgbench_accounts_pkey |       2246197248

 2017-02-04 08:01:19.13354+01 | 1486191679.13354 | pgbench_branches_pkey |          1826816
 2017-02-04 08:01:19.13354+01 | 1486191679.13354 | pgbench_tellers_pkey  |          7118848
 2017-02-04 08:01:19.13354+01 | 1486191679.13354 | pgbench_accounts_pkey |       2246197248

 2017-02-04 08:01:20.202911+01 | 1486191680.20291 | pgbench_branches_pkey |          1826816
 2017-02-04 08:01:20.202911+01 | 1486191680.20291 | pgbench_tellers_pkey  |          7118848
 2017-02-04 08:01:20.202911+01 | 1486191680.20291 | pgbench_accounts_pkey |       2246197248

 2017-02-04 08:01:21.288302+01 | 1486191681.2883 | pgbench_branches_pkey |          1826816
 2017-02-04 08:01:21.288302+01 | 1486191681.2883 | pgbench_tellers_pkey  |          7118848
 2017-02-04 08:01:21.288302+01 | 1486191681.2883 | pgbench_accounts_pkey |       2246197248

 2017-02-04 08:01:22.365112+01 | 1486191682.36511 | pgbench_branches_pkey |          1826816
 2017-02-04 08:01:22.365112+01 | 1486191682.36511 | pgbench_tellers_pkey  |          7118848
 2017-02-04 08:01:22.365112+01 | 1486191682.36511 | pgbench_accounts_pkey |       2246197248

 2017-02-04 08:01:23.441603+01 | 1486191683.4416 | pgbench_branches_pkey |          1826816
 2017-02-04 08:01:23.441603+01 | 1486191683.4416 | pgbench_tellers_pkey  |          7118848
 2017-02-04 08:01:23.441603+01 | 1486191683.4416 | pgbench_accounts_pkey |       2246197248

 2017-02-04 08:01:24.515171+01 | 1486191684.51517 | pgbench_branches_pkey |          1826816
 2017-02-04 08:01:24.515171+01 | 1486191684.51517 | pgbench_tellers_pkey  |          7118848
 2017-02-04 08:01:24.515171+01 | 1486191684.51517 | pgbench_accounts_pkey |       2246197248

 2017-02-04 08:01:25.589753+01 | 1486191685.58975 | pgbench_branches_pkey |          1826816
 2017-02-04 08:01:25.589753+01 | 1486191685.58975 | pgbench_tellers_pkey  |          7118848
 2017-02-04 08:01:25.589753+01 | 1486191685.58975 | pgbench_accounts_pkey |       2246197248

 2017-02-04 08:01:26.664645+01 | 1486191686.66464 | pgbench_branches_pkey |          1826816
 2017-02-04 08:01:26.664645+01 | 1486191686.66464 | pgbench_tellers_pkey  |          7118848
 2017-02-04 08:01:26.664645+01 | 1486191686.66464 | pgbench_accounts_pkey |       2246197248

 2017-02-04 08:01:27.740887+01 | 1486191687.74089 | pgbench_branches_pkey |          1826816
 2017-02-04 08:01:27.740887+01 | 1486191687.74089 | pgbench_tellers_pkey  |          7118848
 2017-02-04 08:01:27.740887+01 | 1486191687.74089 | pgbench_accounts_pkey |       2246197248

 2017-02-04 08:01:28.821128+01 | 1486191688.82113 | pgbench_branches_pkey |          1826816
 2017-02-04 08:01:28.821128+01 | 1486191688.82113 | pgbench_tellers_pkey  |          7118848
 2017-02-04 08:01:28.821128+01 | 1486191688.82113 | pgbench_accounts_pkey |       2246197248

 2017-02-04 08:01:29.89985+01 | 1486191689.89985 | pgbench_branches_pkey |          1826816
 2017-02-04 08:01:29.89985+01 | 1486191689.89985 | pgbench_tellers_pkey  |          7118848
 2017-02-04 08:01:29.89985+01 | 1486191689.89985 | pgbench_accounts_pkey |       2246197248

 2017-02-04 08:01:30.975015+01 | 1486191690.97501 | pgbench_branches_pkey |          1826816
 2017-02-04 08:01:30.975015+01 | 1486191690.97501 | pgbench_tellers_pkey  |          7118848
 2017-02-04 08:01:30.975015+01 | 1486191690.97501 | pgbench_accounts_pkey |       2246197248

 2017-02-04 08:01:32.04748+01 | 1486191692.04748 | pgbench_branches_pkey |          1826816
 2017-02-04 08:01:32.04748+01 | 1486191692.04748 | pgbench_tellers_pkey  |          7118848
 2017-02-04 08:01:32.04748+01 | 1486191692.04748 | pgbench_accounts_pkey |       2246197248

 2017-02-04 08:01:33.124802+01 | 1486191693.1248 | pgbench_branches_pkey |          1826816
 2017-02-04 08:01:33.124802+01 | 1486191693.1248 | pgbench_tellers_pkey  |          7118848
 2017-02-04 08:01:33.124802+01 | 1486191693.1248 | pgbench_accounts_pkey |       2246197248

 2017-02-04 08:01:34.199584+01 | 1486191694.19958 | pgbench_branches_pkey |          1826816
 2017-02-04 08:01:34.199584+01 | 1486191694.19958 | pgbench_tellers_pkey  |          7118848
 2017-02-04 08:01:34.199584+01 | 1486191694.19958 | pgbench_accounts_pkey |       2246197248

 2017-02-04 08:01:35.277924+01 | 1486191695.27792 | pgbench_branches_pkey |          1826816
 2017-02-04 08:01:35.277924+01 | 1486191695.27792 | pgbench_tellers_pkey  |          7118848
 2017-02-04 08:01:35.277924+01 | 1486191695.27792 | pgbench_accounts_pkey |       2246197248

 2017-02-04 08:01:36.358159+01 | 1486191696.35816 | pgbench_branches_pkey |          1826816
 2017-02-04 08:01:36.358159+01 | 1486191696.35816 | pgbench_tellers_pkey  |          7118848
 2017-02-04 08:01:36.358159+01 | 1486191696.35816 | pgbench_accounts_pkey |       2246197248

 2017-02-04 08:01:37.431476+01 | 1486191697.43148 | pgbench_branches_pkey |          1826816
 2017-02-04 08:01:37.431476+01 | 1486191697.43148 | pgbench_tellers_pkey  |          7118848
 2017-02-04 08:01:37.431476+01 | 1486191697.43148 | pgbench_accounts_pkey |       2246197248

 2017-02-04 08:01:38.509329+01 | 1486191698.50933 | pgbench_branches_pkey |          1826816
 2017-02-04 08:01:38.509329+01 | 1486191698.50933 | pgbench_tellers_pkey  |          7118848
 2017-02-04 08:01:38.509329+01 | 1486191698.50933 | pgbench_accounts_pkey |       2246197248

 2017-02-04 08:01:39.581803+01 | 1486191699.5818 | pgbench_branches_pkey |          1826816
 2017-02-04 08:01:39.581803+01 | 1486191699.5818 | pgbench_tellers_pkey  |          7118848
 2017-02-04 08:01:39.581803+01 | 1486191699.5818 | pgbench_accounts_pkey |       2246197248

 2017-02-04 08:01:40.656523+01 | 1486191700.65652 | pgbench_branches_pkey |          1826816
 2017-02-04 08:01:40.656523+01 | 1486191700.65652 | pgbench_tellers_pkey  |          7118848
 2017-02-04 08:01:40.656523+01 | 1486191700.65652 | pgbench_accounts_pkey |       2246197248

 2017-02-04 08:01:41.731206+01 | 1486191701.73121 | pgbench_branches_pkey |          1826816
 2017-02-04 08:01:41.731206+01 | 1486191701.73121 | pgbench_tellers_pkey  |          7118848
 2017-02-04 08:01:41.731206+01 | 1486191701.73121 | pgbench_accounts_pkey |       2246197248

 2017-02-04 08:01:42.801998+01 | 1486191702.802 | pgbench_branches_pkey |          1826816
 2017-02-04 08:01:42.801998+01 | 1486191702.802 | pgbench_tellers_pkey  |          7118848
 2017-02-04 08:01:42.801998+01 | 1486191702.802 | pgbench_accounts_pkey |       2246197248

 2017-02-04 08:01:43.874272+01 | 1486191703.87427 | pgbench_branches_pkey |          1826816
 2017-02-04 08:01:43.874272+01 | 1486191703.87427 | pgbench_tellers_pkey  |          7118848
 2017-02-04 08:01:43.874272+01 | 1486191703.87427 | pgbench_accounts_pkey |       2246197248

 2017-02-04 08:01:44.950367+01 | 1486191704.95037 | pgbench_branches_pkey |          1826816
 2017-02-04 08:01:44.950367+01 | 1486191704.95037 | pgbench_tellers_pkey  |          7118848
 2017-02-04 08:01:44.950367+01 | 1486191704.95037 | pgbench_accounts_pkey |       2246197248

 2017-02-04 08:01:46.027144+01 | 1486191706.02714 | pgbench_branches_pkey |          1826816
 2017-02-04 08:01:46.027144+01 | 1486191706.02714 | pgbench_tellers_pkey  |          7118848
 2017-02-04 08:01:46.027144+01 | 1486191706.02714 | pgbench_accounts_pkey |       2246197248

 2017-02-04 08:01:47.100247+01 | 1486191707.10025 | pgbench_branches_pkey |          1826816
 2017-02-04 08:01:47.100247+01 | 1486191707.10025 | pgbench_tellers_pkey  |          7118848
 2017-02-04 08:01:47.100247+01 | 1486191707.10025 | pgbench_accounts_pkey |       2246197248

 2017-02-04 08:01:48.175433+01 | 1486191708.17543 | pgbench_branches_pkey |          1826816
 2017-02-04 08:01:48.175433+01 | 1486191708.17543 | pgbench_tellers_pkey  |          7118848
 2017-02-04 08:01:48.175433+01 | 1486191708.17543 | pgbench_accounts_pkey |       2246197248

 2017-02-04 08:01:49.258279+01 | 1486191709.25828 | pgbench_branches_pkey |          1826816
 2017-02-04 08:01:49.258279+01 | 1486191709.25828 | pgbench_tellers_pkey  |          7118848
 2017-02-04 08:01:49.258279+01 | 1486191709.25828 | pgbench_accounts_pkey |       2246197248

 2017-02-04 08:01:50.334756+01 | 1486191710.33476 | pgbench_branches_pkey |          1826816
 2017-02-04 08:01:50.334756+01 | 1486191710.33476 | pgbench_tellers_pkey  |          7118848
 2017-02-04 08:01:50.334756+01 | 1486191710.33476 | pgbench_accounts_pkey |       2246197248

 2017-02-04 08:01:51.408739+01 | 1486191711.40874 | pgbench_branches_pkey |          1826816
 2017-02-04 08:01:51.408739+01 | 1486191711.40874 | pgbench_tellers_pkey  |          7118848
 2017-02-04 08:01:51.408739+01 | 1486191711.40874 | pgbench_accounts_pkey |       2246197248

 2017-02-04 08:01:52.484873+01 | 1486191712.48487 | pgbench_branches_pkey |          1826816
 2017-02-04 08:01:52.484873+01 | 1486191712.48487 | pgbench_tellers_pkey  |          7118848
 2017-02-04 08:01:52.484873+01 | 1486191712.48487 | pgbench_accounts_pkey |       2246197248

 2017-02-04 08:01:53.551959+01 | 1486191713.55196 | pgbench_branches_pkey |          1826816
 2017-02-04 08:01:53.551959+01 | 1486191713.55196 | pgbench_tellers_pkey  |          7118848
 2017-02-04 08:01:53.551959+01 | 1486191713.55196 | pgbench_accounts_pkey |       2246197248

 2017-02-04 08:01:54.617809+01 | 1486191714.61781 | pgbench_branches_pkey |          1826816
 2017-02-04 08:01:54.617809+01 | 1486191714.61781 | pgbench_tellers_pkey  |          7118848
 2017-02-04 08:01:54.617809+01 | 1486191714.61781 | pgbench_accounts_pkey |       2246197248

 2017-02-04 08:01:55.692802+01 | 1486191715.6928 | pgbench_branches_pkey |          1826816
 2017-02-04 08:01:55.692802+01 | 1486191715.6928 | pgbench_tellers_pkey  |          7118848
 2017-02-04 08:01:55.692802+01 | 1486191715.6928 | pgbench_accounts_pkey |       2246197248

 2017-02-04 08:01:56.771197+01 | 1486191716.7712 | pgbench_branches_pkey |          1826816
 2017-02-04 08:01:56.771197+01 | 1486191716.7712 | pgbench_tellers_pkey  |          7118848
 2017-02-04 08:01:56.771197+01 | 1486191716.7712 | pgbench_accounts_pkey |       2246197248

 2017-02-04 08:01:57.849821+01 | 1486191717.84982 | pgbench_branches_pkey |          1826816
 2017-02-04 08:01:57.849821+01 | 1486191717.84982 | pgbench_tellers_pkey  |          7118848
 2017-02-04 08:01:57.849821+01 | 1486191717.84982 | pgbench_accounts_pkey |       2246197248

 2017-02-04 08:01:58.925447+01 | 1486191718.92545 | pgbench_branches_pkey |          1826816
 2017-02-04 08:01:58.925447+01 | 1486191718.92545 | pgbench_tellers_pkey  |          7118848
 2017-02-04 08:01:58.925447+01 | 1486191718.92545 | pgbench_accounts_pkey |       2246197248

 2017-02-04 08:02:00.006101+01 | 1486191720.0061 | pgbench_branches_pkey |          1826816
 2017-02-04 08:02:00.006101+01 | 1486191720.0061 | pgbench_tellers_pkey  |          7118848
 2017-02-04 08:02:00.006101+01 | 1486191720.0061 | pgbench_accounts_pkey |       2246197248

 2017-02-04 08:02:01.082792+01 | 1486191721.08279 | pgbench_branches_pkey |          1826816
 2017-02-04 08:02:01.082792+01 | 1486191721.08279 | pgbench_tellers_pkey  |          7118848
 2017-02-04 08:02:01.082792+01 | 1486191721.08279 | pgbench_accounts_pkey |       2246197248

 2017-02-04 08:02:02.166945+01 | 1486191722.16694 | pgbench_branches_pkey |          1826816
 2017-02-04 08:02:02.166945+01 | 1486191722.16694 | pgbench_tellers_pkey  |          7118848
 2017-02-04 08:02:02.166945+01 | 1486191722.16694 | pgbench_accounts_pkey |       2246197248

 2017-02-04 08:02:03.248727+01 | 1486191723.24873 | pgbench_branches_pkey |          1826816
 2017-02-04 08:02:03.248727+01 | 1486191723.24873 | pgbench_tellers_pkey  |          7118848
 2017-02-04 08:02:03.248727+01 | 1486191723.24873 | pgbench_accounts_pkey |       2246197248

 2017-02-04 08:02:04.323789+01 | 1486191724.32379 | pgbench_branches_pkey |          1826816
 2017-02-04 08:02:04.323789+01 | 1486191724.32379 | pgbench_tellers_pkey  |          7118848
 2017-02-04 08:02:04.323789+01 | 1486191724.32379 | pgbench_accounts_pkey |       2246197248

 2017-02-04 08:02:05.407544+01 | 1486191725.40754 | pgbench_branches_pkey |          1826816
 2017-02-04 08:02:05.407544+01 | 1486191725.40754 | pgbench_tellers_pkey  |          7118848
 2017-02-04 08:02:05.407544+01 | 1486191725.40754 | pgbench_accounts_pkey |       2246197248

 2017-02-04 08:02:06.48574+01 | 1486191726.48574 | pgbench_branches_pkey |          1826816
 2017-02-04 08:02:06.48574+01 | 1486191726.48574 | pgbench_tellers_pkey  |          7118848
 2017-02-04 08:02:06.48574+01 | 1486191726.48574 | pgbench_accounts_pkey |       2246197248

 2017-02-04 08:02:07.561508+01 | 1486191727.56151 | pgbench_branches_pkey |          1826816
 2017-02-04 08:02:07.561508+01 | 1486191727.56151 | pgbench_tellers_pkey  |          7118848
 2017-02-04 08:02:07.561508+01 | 1486191727.56151 | pgbench_accounts_pkey |       2246197248

 2017-02-04 08:02:08.633189+01 | 1486191728.63319 | pgbench_branches_pkey |          1826816
 2017-02-04 08:02:08.633189+01 | 1486191728.63319 | pgbench_tellers_pkey  |          7118848
 2017-02-04 08:02:08.633189+01 | 1486191728.63319 | pgbench_accounts_pkey |       2246197248

 2017-02-04 08:02:09.706602+01 | 1486191729.7066 | pgbench_branches_pkey |          1826816
 2017-02-04 08:02:09.706602+01 | 1486191729.7066 | pgbench_tellers_pkey  |          7118848
 2017-02-04 08:02:09.706602+01 | 1486191729.7066 | pgbench_accounts_pkey |       2246197248

 2017-02-04 08:02:10.786596+01 | 1486191730.7866 | pgbench_branches_pkey |          1826816
 2017-02-04 08:02:10.786596+01 | 1486191730.7866 | pgbench_tellers_pkey  |          7118848
 2017-02-04 08:02:10.786596+01 | 1486191730.7866 | pgbench_accounts_pkey |       2246197248

 2017-02-04 08:02:11.862918+01 | 1486191731.86292 | pgbench_branches_pkey |          1826816
 2017-02-04 08:02:11.862918+01 | 1486191731.86292 | pgbench_tellers_pkey  |          7118848
 2017-02-04 08:02:11.862918+01 | 1486191731.86292 | pgbench_accounts_pkey |       2246197248

 2017-02-04 08:02:12.952753+01 | 1486191732.95275 | pgbench_branches_pkey |          1826816
 2017-02-04 08:02:12.952753+01 | 1486191732.95275 | pgbench_tellers_pkey  |          7118848
 2017-02-04 08:02:12.952753+01 | 1486191732.95275 | pgbench_accounts_pkey |       2246197248

 2017-02-04 08:02:14.031532+01 | 1486191734.03153 | pgbench_branches_pkey |          1826816
 2017-02-04 08:02:14.031532+01 | 1486191734.03153 | pgbench_tellers_pkey  |          7118848
 2017-02-04 08:02:14.031532+01 | 1486191734.03153 | pgbench_accounts_pkey |       2246197248

 2017-02-04 08:02:15.107006+01 | 1486191735.10701 | pgbench_branches_pkey |          1826816
 2017-02-04 08:02:15.107006+01 | 1486191735.10701 | pgbench_tellers_pkey  |          7118848
 2017-02-04 08:02:15.107006+01 | 1486191735.10701 | pgbench_accounts_pkey |       2246197248

 2017-02-04 08:02:16.183305+01 | 1486191736.18331 | pgbench_branches_pkey |          1826816
 2017-02-04 08:02:16.183305+01 | 1486191736.18331 | pgbench_tellers_pkey  |          7118848
 2017-02-04 08:02:16.183305+01 | 1486191736.18331 | pgbench_accounts_pkey |       2246197248

 2017-02-04 08:02:17.251219+01 | 1486191737.25122 | pgbench_branches_pkey |          1826816
 2017-02-04 08:02:17.251219+01 | 1486191737.25122 | pgbench_tellers_pkey  |          7118848
 2017-02-04 08:02:17.251219+01 | 1486191737.25122 | pgbench_accounts_pkey |       2246197248

 2017-02-04 08:02:18.325192+01 | 1486191738.32519 | pgbench_branches_pkey |          1826816
 2017-02-04 08:02:18.325192+01 | 1486191738.32519 | pgbench_tellers_pkey  |          7118848
 2017-02-04 08:02:18.325192+01 | 1486191738.32519 | pgbench_accounts_pkey |       2246197248

 2017-02-04 08:02:19.3932+01 | 1486191739.3932 | pgbench_branches_pkey |          1826816
 2017-02-04 08:02:19.3932+01 | 1486191739.3932 | pgbench_tellers_pkey  |          7118848
 2017-02-04 08:02:19.3932+01 | 1486191739.3932 | pgbench_accounts_pkey |       2246197248

 2017-02-04 08:02:20.466175+01 | 1486191740.46618 | pgbench_branches_pkey |          1826816
 2017-02-04 08:02:20.466175+01 | 1486191740.46618 | pgbench_tellers_pkey  |          7118848
 2017-02-04 08:02:20.466175+01 | 1486191740.46618 | pgbench_accounts_pkey |       2246197248

 2017-02-04 08:02:21.534829+01 | 1486191741.53483 | pgbench_branches_pkey |          1826816
 2017-02-04 08:02:21.534829+01 | 1486191741.53483 | pgbench_tellers_pkey  |          7118848
 2017-02-04 08:02:21.534829+01 | 1486191741.53483 | pgbench_accounts_pkey |       2246197248

 2017-02-04 08:02:22.609727+01 | 1486191742.60973 | pgbench_branches_pkey |          1826816
 2017-02-04 08:02:22.609727+01 | 1486191742.60973 | pgbench_tellers_pkey  |          7118848
 2017-02-04 08:02:22.609727+01 | 1486191742.60973 | pgbench_accounts_pkey |       2246197248

 2017-02-04 08:02:23.687931+01 | 1486191743.68793 | pgbench_branches_pkey |          1826816
 2017-02-04 08:02:23.687931+01 | 1486191743.68793 | pgbench_tellers_pkey  |          7118848
 2017-02-04 08:02:23.687931+01 | 1486191743.68793 | pgbench_accounts_pkey |       2246197248

 2017-02-04 08:02:24.777324+01 | 1486191744.77732 | pgbench_branches_pkey |          1826816
 2017-02-04 08:02:24.777324+01 | 1486191744.77732 | pgbench_tellers_pkey  |          7118848
 2017-02-04 08:02:24.777324+01 | 1486191744.77732 | pgbench_accounts_pkey |       2246197248

 2017-02-04 08:02:25.860993+01 | 1486191745.86099 | pgbench_branches_pkey |          1826816
 2017-02-04 08:02:25.860993+01 | 1486191745.86099 | pgbench_tellers_pkey  |          7118848
 2017-02-04 08:02:25.860993+01 | 1486191745.86099 | pgbench_accounts_pkey |       2246197248

 2017-02-04 08:02:26.934904+01 | 1486191746.9349 | pgbench_branches_pkey |          1826816
 2017-02-04 08:02:26.934904+01 | 1486191746.9349 | pgbench_tellers_pkey  |          7118848
 2017-02-04 08:02:26.934904+01 | 1486191746.9349 | pgbench_accounts_pkey |       2246197248

 2017-02-04 08:02:28.007168+01 | 1486191748.00717 | pgbench_branches_pkey |          1826816
 2017-02-04 08:02:28.007168+01 | 1486191748.00717 | pgbench_tellers_pkey  |          7118848
 2017-02-04 08:02:28.007168+01 | 1486191748.00717 | pgbench_accounts_pkey |       2246197248

 2017-02-04 08:02:29.079213+01 | 1486191749.07921 | pgbench_branches_pkey |          1826816
 2017-02-04 08:02:29.079213+01 | 1486191749.07921 | pgbench_tellers_pkey  |          7118848
 2017-02-04 08:02:29.079213+01 | 1486191749.07921 | pgbench_accounts_pkey |       2246197248

 2017-02-04 08:02:30.154454+01 | 1486191750.15445 | pgbench_branches_pkey |          1826816
 2017-02-04 08:02:30.154454+01 | 1486191750.15445 | pgbench_tellers_pkey  |          7118848
 2017-02-04 08:02:30.154454+01 | 1486191750.15445 | pgbench_accounts_pkey |       2246197248

 2017-02-04 08:02:31.230071+01 | 1486191751.23007 | pgbench_branches_pkey |          1826816
 2017-02-04 08:02:31.230071+01 | 1486191751.23007 | pgbench_tellers_pkey  |          7118848
 2017-02-04 08:02:31.230071+01 | 1486191751.23007 | pgbench_accounts_pkey |       2246197248

 2017-02-04 08:02:32.306652+01 | 1486191752.30665 | pgbench_branches_pkey |          1826816
 2017-02-04 08:02:32.306652+01 | 1486191752.30665 | pgbench_tellers_pkey  |          7118848
 2017-02-04 08:02:32.306652+01 | 1486191752.30665 | pgbench_accounts_pkey |       2246197248

 2017-02-04 08:02:33.38147+01 | 1486191753.38147 | pgbench_branches_pkey |          1826816
 2017-02-04 08:02:33.38147+01 | 1486191753.38147 | pgbench_tellers_pkey  |          7118848
 2017-02-04 08:02:33.38147+01 | 1486191753.38147 | pgbench_accounts_pkey |       2246197248

 2017-02-04 08:02:34.465471+01 | 1486191754.46547 | pgbench_branches_pkey |          1826816
 2017-02-04 08:02:34.465471+01 | 1486191754.46547 | pgbench_tellers_pkey  |          7118848
 2017-02-04 08:02:34.465471+01 | 1486191754.46547 | pgbench_accounts_pkey |       2246197248

 2017-02-04 08:02:35.542684+01 | 1486191755.54268 | pgbench_branches_pkey |          1826816
 2017-02-04 08:02:35.542684+01 | 1486191755.54268 | pgbench_tellers_pkey  |          7118848
 2017-02-04 08:02:35.542684+01 | 1486191755.54268 | pgbench_accounts_pkey |       2246197248

 2017-02-04 08:02:36.617131+01 | 1486191756.61713 | pgbench_branches_pkey |          1826816
 2017-02-04 08:02:36.617131+01 | 1486191756.61713 | pgbench_tellers_pkey  |          7118848
 2017-02-04 08:02:36.617131+01 | 1486191756.61713 | pgbench_accounts_pkey |       2246197248

 2017-02-04 08:02:37.69695+01 | 1486191757.69695 | pgbench_branches_pkey |          1826816
 2017-02-04 08:02:37.69695+01 | 1486191757.69695 | pgbench_tellers_pkey  |          7118848
 2017-02-04 08:02:37.69695+01 | 1486191757.69695 | pgbench_accounts_pkey |       2246197248

 2017-02-04 08:02:38.773894+01 | 1486191758.77389 | pgbench_branches_pkey |          1826816
 2017-02-04 08:02:38.773894+01 | 1486191758.77389 | pgbench_tellers_pkey  |          7118848
 2017-02-04 08:02:38.773894+01 | 1486191758.77389 | pgbench_accounts_pkey |       2246197248

 2017-02-04 08:02:39.843416+01 | 1486191759.84342 | pgbench_branches_pkey |          1826816
 2017-02-04 08:02:39.843416+01 | 1486191759.84342 | pgbench_tellers_pkey  |          7118848
 2017-02-04 08:02:39.843416+01 | 1486191759.84342 | pgbench_accounts_pkey |       2246197248

 2017-02-04 08:02:40.915075+01 | 1486191760.91508 | pgbench_branches_pkey |          1826816
 2017-02-04 08:02:40.915075+01 | 1486191760.91508 | pgbench_tellers_pkey  |          7118848
 2017-02-04 08:02:40.915075+01 | 1486191760.91508 | pgbench_accounts_pkey |       2246197248

 2017-02-04 08:02:41.994197+01 | 1486191761.9942 | pgbench_branches_pkey |          1826816
 2017-02-04 08:02:41.994197+01 | 1486191761.9942 | pgbench_tellers_pkey  |          7118848
 2017-02-04 08:02:41.994197+01 | 1486191761.9942 | pgbench_accounts_pkey |       2246197248

 2017-02-04 08:02:43.075288+01 | 1486191763.07529 | pgbench_branches_pkey |          1826816
 2017-02-04 08:02:43.075288+01 | 1486191763.07529 | pgbench_tellers_pkey  |          7118848
 2017-02-04 08:02:43.075288+01 | 1486191763.07529 | pgbench_accounts_pkey |       2246197248

 2017-02-04 08:02:44.149235+01 | 1486191764.14924 | pgbench_branches_pkey |          1826816
 2017-02-04 08:02:44.149235+01 | 1486191764.14924 | pgbench_tellers_pkey  |          7118848
 2017-02-04 08:02:44.149235+01 | 1486191764.14924 | pgbench_accounts_pkey |       2246197248

 2017-02-04 08:02:45.22629+01 | 1486191765.22629 | pgbench_branches_pkey |          1826816
 2017-02-04 08:02:45.22629+01 | 1486191765.22629 | pgbench_tellers_pkey  |          7118848
 2017-02-04 08:02:45.22629+01 | 1486191765.22629 | pgbench_accounts_pkey |       2246197248

 2017-02-04 08:02:46.299254+01 | 1486191766.29925 | pgbench_branches_pkey |          1826816
 2017-02-04 08:02:46.299254+01 | 1486191766.29925 | pgbench_tellers_pkey  |          7118848
 2017-02-04 08:02:46.299254+01 | 1486191766.29925 | pgbench_accounts_pkey |       2246197248

 2017-02-04 08:02:47.374975+01 | 1486191767.37497 | pgbench_branches_pkey |          1826816
 2017-02-04 08:02:47.374975+01 | 1486191767.37497 | pgbench_tellers_pkey  |          7118848
 2017-02-04 08:02:47.374975+01 | 1486191767.37497 | pgbench_accounts_pkey |       2246197248

 2017-02-04 08:02:48.457647+01 | 1486191768.45765 | pgbench_branches_pkey |          1826816
 2017-02-04 08:02:48.457647+01 | 1486191768.45765 | pgbench_tellers_pkey  |          7118848
 2017-02-04 08:02:48.457647+01 | 1486191768.45765 | pgbench_accounts_pkey |       2246197248

 2017-02-04 08:02:49.536663+01 | 1486191769.53666 | pgbench_branches_pkey |          1826816
 2017-02-04 08:02:49.536663+01 | 1486191769.53666 | pgbench_tellers_pkey  |          7118848
 2017-02-04 08:02:49.536663+01 | 1486191769.53666 | pgbench_accounts_pkey |       2246197248

