 2017-02-06 01:56:13.808943+01 | 1486342573.80894 | pgbench_branches_pkey |            40960
 2017-02-06 01:56:13.808943+01 | 1486342573.80894 | pgbench_tellers_pkey  |           245760
 2017-02-06 01:56:13.808943+01 | 1486342573.80894 | pgbench_accounts_pkey |       2246197248

 2017-02-06 01:56:14.897888+01 | 1486342574.89789 | pgbench_branches_pkey |            40960
 2017-02-06 01:56:14.897888+01 | 1486342574.89789 | pgbench_tellers_pkey  |           245760
 2017-02-06 01:56:14.897888+01 | 1486342574.89789 | pgbench_accounts_pkey |       2246197248

 2017-02-06 01:56:15.986886+01 | 1486342575.98689 | pgbench_branches_pkey |            40960
 2017-02-06 01:56:15.986886+01 | 1486342575.98689 | pgbench_tellers_pkey  |           245760
 2017-02-06 01:56:15.986886+01 | 1486342575.98689 | pgbench_accounts_pkey |       2246197248

 2017-02-06 01:56:17.078953+01 | 1486342577.07895 | pgbench_branches_pkey |            40960
 2017-02-06 01:56:17.078953+01 | 1486342577.07895 | pgbench_tellers_pkey  |           245760
 2017-02-06 01:56:17.078953+01 | 1486342577.07895 | pgbench_accounts_pkey |       2246197248

 2017-02-06 01:56:18.163525+01 | 1486342578.16353 | pgbench_branches_pkey |            40960
 2017-02-06 01:56:18.163525+01 | 1486342578.16353 | pgbench_tellers_pkey  |           245760
 2017-02-06 01:56:18.163525+01 | 1486342578.16353 | pgbench_accounts_pkey |       2246197248

 2017-02-06 01:56:19.257438+01 | 1486342579.25744 | pgbench_branches_pkey |            40960
 2017-02-06 01:56:19.257438+01 | 1486342579.25744 | pgbench_tellers_pkey  |           245760
 2017-02-06 01:56:19.257438+01 | 1486342579.25744 | pgbench_accounts_pkey |       2246197248

 2017-02-06 01:56:20.340111+01 | 1486342580.34011 | pgbench_branches_pkey |            40960
 2017-02-06 01:56:20.340111+01 | 1486342580.34011 | pgbench_tellers_pkey  |           245760
 2017-02-06 01:56:20.340111+01 | 1486342580.34011 | pgbench_accounts_pkey |       2246197248

 2017-02-06 01:56:21.431342+01 | 1486342581.43134 | pgbench_branches_pkey |            40960
 2017-02-06 01:56:21.431342+01 | 1486342581.43134 | pgbench_tellers_pkey  |           245760
 2017-02-06 01:56:21.431342+01 | 1486342581.43134 | pgbench_accounts_pkey |       2246197248

 2017-02-06 01:56:22.52175+01 | 1486342582.52175 | pgbench_branches_pkey |            40960
 2017-02-06 01:56:22.52175+01 | 1486342582.52175 | pgbench_tellers_pkey  |           245760
 2017-02-06 01:56:22.52175+01 | 1486342582.52175 | pgbench_accounts_pkey |       2246197248

 2017-02-06 01:56:23.61159+01 | 1486342583.61159 | pgbench_branches_pkey |            40960
 2017-02-06 01:56:23.61159+01 | 1486342583.61159 | pgbench_tellers_pkey  |           245760
 2017-02-06 01:56:23.61159+01 | 1486342583.61159 | pgbench_accounts_pkey |       2246197248

 2017-02-06 01:56:24.704468+01 | 1486342584.70447 | pgbench_branches_pkey |            40960
 2017-02-06 01:56:24.704468+01 | 1486342584.70447 | pgbench_tellers_pkey  |           245760
 2017-02-06 01:56:24.704468+01 | 1486342584.70447 | pgbench_accounts_pkey |       2246197248

 2017-02-06 01:56:25.795345+01 | 1486342585.79535 | pgbench_branches_pkey |            40960
 2017-02-06 01:56:25.795345+01 | 1486342585.79535 | pgbench_tellers_pkey  |           245760
 2017-02-06 01:56:25.795345+01 | 1486342585.79535 | pgbench_accounts_pkey |       2246197248

 2017-02-06 01:56:26.881513+01 | 1486342586.88151 | pgbench_branches_pkey |            40960
 2017-02-06 01:56:26.881513+01 | 1486342586.88151 | pgbench_tellers_pkey  |           245760
 2017-02-06 01:56:26.881513+01 | 1486342586.88151 | pgbench_accounts_pkey |       2246197248

 2017-02-06 01:56:27.982429+01 | 1486342587.98243 | pgbench_branches_pkey |            40960
 2017-02-06 01:56:27.982429+01 | 1486342587.98243 | pgbench_tellers_pkey  |           245760
 2017-02-06 01:56:27.982429+01 | 1486342587.98243 | pgbench_accounts_pkey |       2246197248

 2017-02-06 01:56:29.083124+01 | 1486342589.08312 | pgbench_branches_pkey |            40960
 2017-02-06 01:56:29.083124+01 | 1486342589.08312 | pgbench_tellers_pkey  |           245760
 2017-02-06 01:56:29.083124+01 | 1486342589.08312 | pgbench_accounts_pkey |       2246197248

 2017-02-06 01:56:30.167356+01 | 1486342590.16736 | pgbench_branches_pkey |            40960
 2017-02-06 01:56:30.167356+01 | 1486342590.16736 | pgbench_tellers_pkey  |           245760
 2017-02-06 01:56:30.167356+01 | 1486342590.16736 | pgbench_accounts_pkey |       2246197248

 2017-02-06 01:56:31.256203+01 | 1486342591.2562 | pgbench_branches_pkey |            40960
 2017-02-06 01:56:31.256203+01 | 1486342591.2562 | pgbench_tellers_pkey  |           245760
 2017-02-06 01:56:31.256203+01 | 1486342591.2562 | pgbench_accounts_pkey |       2246197248

 2017-02-06 01:56:32.348855+01 | 1486342592.34886 | pgbench_branches_pkey |            40960
 2017-02-06 01:56:32.348855+01 | 1486342592.34886 | pgbench_tellers_pkey  |           245760
 2017-02-06 01:56:32.348855+01 | 1486342592.34886 | pgbench_accounts_pkey |       2246197248

 2017-02-06 01:56:33.44091+01 | 1486342593.44091 | pgbench_branches_pkey |            40960
 2017-02-06 01:56:33.44091+01 | 1486342593.44091 | pgbench_tellers_pkey  |           245760
 2017-02-06 01:56:33.44091+01 | 1486342593.44091 | pgbench_accounts_pkey |       2246197248

 2017-02-06 01:56:34.529682+01 | 1486342594.52968 | pgbench_branches_pkey |            40960
 2017-02-06 01:56:34.529682+01 | 1486342594.52968 | pgbench_tellers_pkey  |           245760
 2017-02-06 01:56:34.529682+01 | 1486342594.52968 | pgbench_accounts_pkey |       2246197248

 2017-02-06 01:56:35.619244+01 | 1486342595.61924 | pgbench_branches_pkey |            40960
 2017-02-06 01:56:35.619244+01 | 1486342595.61924 | pgbench_tellers_pkey  |           245760
 2017-02-06 01:56:35.619244+01 | 1486342595.61924 | pgbench_accounts_pkey |       2246197248

 2017-02-06 01:56:36.712851+01 | 1486342596.71285 | pgbench_branches_pkey |            40960
 2017-02-06 01:56:36.712851+01 | 1486342596.71285 | pgbench_tellers_pkey  |           245760
 2017-02-06 01:56:36.712851+01 | 1486342596.71285 | pgbench_accounts_pkey |       2246197248

 2017-02-06 01:56:37.803305+01 | 1486342597.8033 | pgbench_branches_pkey |            40960
 2017-02-06 01:56:37.803305+01 | 1486342597.8033 | pgbench_tellers_pkey  |           245760
 2017-02-06 01:56:37.803305+01 | 1486342597.8033 | pgbench_accounts_pkey |       2246197248

 2017-02-06 01:56:38.900317+01 | 1486342598.90032 | pgbench_branches_pkey |            40960
 2017-02-06 01:56:38.900317+01 | 1486342598.90032 | pgbench_tellers_pkey  |           245760
 2017-02-06 01:56:38.900317+01 | 1486342598.90032 | pgbench_accounts_pkey |       2246197248

 2017-02-06 01:56:39.983699+01 | 1486342599.9837 | pgbench_branches_pkey |            40960
 2017-02-06 01:56:39.983699+01 | 1486342599.9837 | pgbench_tellers_pkey  |           245760
 2017-02-06 01:56:39.983699+01 | 1486342599.9837 | pgbench_accounts_pkey |       2246197248

 2017-02-06 01:56:41.073497+01 | 1486342601.0735 | pgbench_branches_pkey |            40960
 2017-02-06 01:56:41.073497+01 | 1486342601.0735 | pgbench_tellers_pkey  |           245760
 2017-02-06 01:56:41.073497+01 | 1486342601.0735 | pgbench_accounts_pkey |       2246197248

 2017-02-06 01:56:42.168534+01 | 1486342602.16853 | pgbench_branches_pkey |            40960
 2017-02-06 01:56:42.168534+01 | 1486342602.16853 | pgbench_tellers_pkey  |           245760
 2017-02-06 01:56:42.168534+01 | 1486342602.16853 | pgbench_accounts_pkey |       2246197248

 2017-02-06 01:56:43.257307+01 | 1486342603.25731 | pgbench_branches_pkey |            40960
 2017-02-06 01:56:43.257307+01 | 1486342603.25731 | pgbench_tellers_pkey  |           245760
 2017-02-06 01:56:43.257307+01 | 1486342603.25731 | pgbench_accounts_pkey |       2246197248

 2017-02-06 01:56:44.351785+01 | 1486342604.35178 | pgbench_branches_pkey |            40960
 2017-02-06 01:56:44.351785+01 | 1486342604.35178 | pgbench_tellers_pkey  |           245760
 2017-02-06 01:56:44.351785+01 | 1486342604.35178 | pgbench_accounts_pkey |       2246197248

 2017-02-06 01:56:45.446579+01 | 1486342605.44658 | pgbench_branches_pkey |            40960
 2017-02-06 01:56:45.446579+01 | 1486342605.44658 | pgbench_tellers_pkey  |           245760
 2017-02-06 01:56:45.446579+01 | 1486342605.44658 | pgbench_accounts_pkey |       2246197248

 2017-02-06 01:56:46.534013+01 | 1486342606.53401 | pgbench_branches_pkey |            40960
 2017-02-06 01:56:46.534013+01 | 1486342606.53401 | pgbench_tellers_pkey  |           245760
 2017-02-06 01:56:46.534013+01 | 1486342606.53401 | pgbench_accounts_pkey |       2246197248

 2017-02-06 01:56:47.623754+01 | 1486342607.62375 | pgbench_branches_pkey |            40960
 2017-02-06 01:56:47.623754+01 | 1486342607.62375 | pgbench_tellers_pkey  |           245760
 2017-02-06 01:56:47.623754+01 | 1486342607.62375 | pgbench_accounts_pkey |       2246197248

 2017-02-06 01:56:48.711249+01 | 1486342608.71125 | pgbench_branches_pkey |            40960
 2017-02-06 01:56:48.711249+01 | 1486342608.71125 | pgbench_tellers_pkey  |           245760
 2017-02-06 01:56:48.711249+01 | 1486342608.71125 | pgbench_accounts_pkey |       2246197248

 2017-02-06 01:56:49.80214+01 | 1486342609.80214 | pgbench_branches_pkey |            40960
 2017-02-06 01:56:49.80214+01 | 1486342609.80214 | pgbench_tellers_pkey  |           245760
 2017-02-06 01:56:49.80214+01 | 1486342609.80214 | pgbench_accounts_pkey |       2246197248

 2017-02-06 01:56:50.888068+01 | 1486342610.88807 | pgbench_branches_pkey |            40960
 2017-02-06 01:56:50.888068+01 | 1486342610.88807 | pgbench_tellers_pkey  |           245760
 2017-02-06 01:56:50.888068+01 | 1486342610.88807 | pgbench_accounts_pkey |       2246197248

 2017-02-06 01:56:51.986179+01 | 1486342611.98618 | pgbench_branches_pkey |            40960
 2017-02-06 01:56:51.986179+01 | 1486342611.98618 | pgbench_tellers_pkey  |           245760
 2017-02-06 01:56:51.986179+01 | 1486342611.98618 | pgbench_accounts_pkey |       2246197248

 2017-02-06 01:56:53.073822+01 | 1486342613.07382 | pgbench_branches_pkey |            40960
 2017-02-06 01:56:53.073822+01 | 1486342613.07382 | pgbench_tellers_pkey  |           245760
 2017-02-06 01:56:53.073822+01 | 1486342613.07382 | pgbench_accounts_pkey |       2246197248

 2017-02-06 01:56:54.158892+01 | 1486342614.15889 | pgbench_branches_pkey |            40960
 2017-02-06 01:56:54.158892+01 | 1486342614.15889 | pgbench_tellers_pkey  |           245760
 2017-02-06 01:56:54.158892+01 | 1486342614.15889 | pgbench_accounts_pkey |       2246197248

 2017-02-06 01:56:55.248859+01 | 1486342615.24886 | pgbench_branches_pkey |            40960
 2017-02-06 01:56:55.248859+01 | 1486342615.24886 | pgbench_tellers_pkey  |           245760
 2017-02-06 01:56:55.248859+01 | 1486342615.24886 | pgbench_accounts_pkey |       2246197248

 2017-02-06 01:56:56.346259+01 | 1486342616.34626 | pgbench_branches_pkey |            40960
 2017-02-06 01:56:56.346259+01 | 1486342616.34626 | pgbench_tellers_pkey  |           245760
 2017-02-06 01:56:56.346259+01 | 1486342616.34626 | pgbench_accounts_pkey |       2246197248

 2017-02-06 01:56:57.440404+01 | 1486342617.4404 | pgbench_branches_pkey |            40960
 2017-02-06 01:56:57.440404+01 | 1486342617.4404 | pgbench_tellers_pkey  |           245760
 2017-02-06 01:56:57.440404+01 | 1486342617.4404 | pgbench_accounts_pkey |       2246197248

 2017-02-06 01:56:58.528952+01 | 1486342618.52895 | pgbench_branches_pkey |            40960
 2017-02-06 01:56:58.528952+01 | 1486342618.52895 | pgbench_tellers_pkey  |           245760
 2017-02-06 01:56:58.528952+01 | 1486342618.52895 | pgbench_accounts_pkey |       2246197248

 2017-02-06 01:56:59.615616+01 | 1486342619.61562 | pgbench_branches_pkey |            40960
 2017-02-06 01:56:59.615616+01 | 1486342619.61562 | pgbench_tellers_pkey  |           245760
 2017-02-06 01:56:59.615616+01 | 1486342619.61562 | pgbench_accounts_pkey |       2246197248

 2017-02-06 01:57:00.702876+01 | 1486342620.70288 | pgbench_branches_pkey |            40960
 2017-02-06 01:57:00.702876+01 | 1486342620.70288 | pgbench_tellers_pkey  |           245760
 2017-02-06 01:57:00.702876+01 | 1486342620.70288 | pgbench_accounts_pkey |       2246197248

 2017-02-06 01:57:01.791876+01 | 1486342621.79188 | pgbench_branches_pkey |            40960
 2017-02-06 01:57:01.791876+01 | 1486342621.79188 | pgbench_tellers_pkey  |           245760
 2017-02-06 01:57:01.791876+01 | 1486342621.79188 | pgbench_accounts_pkey |       2246197248

 2017-02-06 01:57:02.881104+01 | 1486342622.8811 | pgbench_branches_pkey |            40960
 2017-02-06 01:57:02.881104+01 | 1486342622.8811 | pgbench_tellers_pkey  |           245760
 2017-02-06 01:57:02.881104+01 | 1486342622.8811 | pgbench_accounts_pkey |       2246197248

 2017-02-06 01:57:03.965153+01 | 1486342623.96515 | pgbench_branches_pkey |            40960
 2017-02-06 01:57:03.965153+01 | 1486342623.96515 | pgbench_tellers_pkey  |           245760
 2017-02-06 01:57:03.965153+01 | 1486342623.96515 | pgbench_accounts_pkey |       2246197248

 2017-02-06 01:57:05.059506+01 | 1486342625.05951 | pgbench_branches_pkey |            40960
 2017-02-06 01:57:05.059506+01 | 1486342625.05951 | pgbench_tellers_pkey  |           245760
 2017-02-06 01:57:05.059506+01 | 1486342625.05951 | pgbench_accounts_pkey |       2246197248

 2017-02-06 01:57:06.155157+01 | 1486342626.15516 | pgbench_branches_pkey |            40960
 2017-02-06 01:57:06.155157+01 | 1486342626.15516 | pgbench_tellers_pkey  |           245760
 2017-02-06 01:57:06.155157+01 | 1486342626.15516 | pgbench_accounts_pkey |       2246197248

 2017-02-06 01:57:07.24556+01 | 1486342627.24556 | pgbench_branches_pkey |            40960
 2017-02-06 01:57:07.24556+01 | 1486342627.24556 | pgbench_tellers_pkey  |           245760
 2017-02-06 01:57:07.24556+01 | 1486342627.24556 | pgbench_accounts_pkey |       2246197248

 2017-02-06 01:57:08.331096+01 | 1486342628.3311 | pgbench_branches_pkey |            40960
 2017-02-06 01:57:08.331096+01 | 1486342628.3311 | pgbench_tellers_pkey  |           245760
 2017-02-06 01:57:08.331096+01 | 1486342628.3311 | pgbench_accounts_pkey |       2246197248

 2017-02-06 01:57:09.414701+01 | 1486342629.4147 | pgbench_branches_pkey |            40960
 2017-02-06 01:57:09.414701+01 | 1486342629.4147 | pgbench_tellers_pkey  |           245760
 2017-02-06 01:57:09.414701+01 | 1486342629.4147 | pgbench_accounts_pkey |       2246197248

 2017-02-06 01:57:10.504436+01 | 1486342630.50444 | pgbench_branches_pkey |            40960
 2017-02-06 01:57:10.504436+01 | 1486342630.50444 | pgbench_tellers_pkey  |           245760
 2017-02-06 01:57:10.504436+01 | 1486342630.50444 | pgbench_accounts_pkey |       2246197248

 2017-02-06 01:57:11.598799+01 | 1486342631.5988 | pgbench_branches_pkey |            40960
 2017-02-06 01:57:11.598799+01 | 1486342631.5988 | pgbench_tellers_pkey  |           245760
 2017-02-06 01:57:11.598799+01 | 1486342631.5988 | pgbench_accounts_pkey |       2246197248

 2017-02-06 01:57:12.686473+01 | 1486342632.68647 | pgbench_branches_pkey |            40960
 2017-02-06 01:57:12.686473+01 | 1486342632.68647 | pgbench_tellers_pkey  |           245760
 2017-02-06 01:57:12.686473+01 | 1486342632.68647 | pgbench_accounts_pkey |       2246197248

 2017-02-06 01:57:13.766486+01 | 1486342633.76649 | pgbench_branches_pkey |            40960
 2017-02-06 01:57:13.766486+01 | 1486342633.76649 | pgbench_tellers_pkey  |           245760
 2017-02-06 01:57:13.766486+01 | 1486342633.76649 | pgbench_accounts_pkey |       2246197248

 2017-02-06 01:57:14.854724+01 | 1486342634.85472 | pgbench_branches_pkey |            40960
 2017-02-06 01:57:14.854724+01 | 1486342634.85472 | pgbench_tellers_pkey  |           245760
 2017-02-06 01:57:14.854724+01 | 1486342634.85472 | pgbench_accounts_pkey |       2246197248

 2017-02-06 01:57:15.938828+01 | 1486342635.93883 | pgbench_branches_pkey |            40960
 2017-02-06 01:57:15.938828+01 | 1486342635.93883 | pgbench_tellers_pkey  |           245760
 2017-02-06 01:57:15.938828+01 | 1486342635.93883 | pgbench_accounts_pkey |       2246197248

 2017-02-06 01:57:17.028936+01 | 1486342637.02894 | pgbench_branches_pkey |            40960
 2017-02-06 01:57:17.028936+01 | 1486342637.02894 | pgbench_tellers_pkey  |           245760
 2017-02-06 01:57:17.028936+01 | 1486342637.02894 | pgbench_accounts_pkey |       2246197248

 2017-02-06 01:57:18.116932+01 | 1486342638.11693 | pgbench_branches_pkey |            40960
 2017-02-06 01:57:18.116932+01 | 1486342638.11693 | pgbench_tellers_pkey  |           245760
 2017-02-06 01:57:18.116932+01 | 1486342638.11693 | pgbench_accounts_pkey |       2246197248

 2017-02-06 01:57:19.201951+01 | 1486342639.20195 | pgbench_branches_pkey |            40960
 2017-02-06 01:57:19.201951+01 | 1486342639.20195 | pgbench_tellers_pkey  |           245760
 2017-02-06 01:57:19.201951+01 | 1486342639.20195 | pgbench_accounts_pkey |       2246197248

 2017-02-06 01:57:20.294029+01 | 1486342640.29403 | pgbench_branches_pkey |            40960
 2017-02-06 01:57:20.294029+01 | 1486342640.29403 | pgbench_tellers_pkey  |           245760
 2017-02-06 01:57:20.294029+01 | 1486342640.29403 | pgbench_accounts_pkey |       2246197248

 2017-02-06 01:57:21.384848+01 | 1486342641.38485 | pgbench_branches_pkey |            40960
 2017-02-06 01:57:21.384848+01 | 1486342641.38485 | pgbench_tellers_pkey  |           245760
 2017-02-06 01:57:21.384848+01 | 1486342641.38485 | pgbench_accounts_pkey |       2246197248

 2017-02-06 01:57:22.48388+01 | 1486342642.48388 | pgbench_branches_pkey |            40960
 2017-02-06 01:57:22.48388+01 | 1486342642.48388 | pgbench_tellers_pkey  |           245760
 2017-02-06 01:57:22.48388+01 | 1486342642.48388 | pgbench_accounts_pkey |       2246197248

 2017-02-06 01:57:23.567831+01 | 1486342643.56783 | pgbench_branches_pkey |            40960
 2017-02-06 01:57:23.567831+01 | 1486342643.56783 | pgbench_tellers_pkey  |           245760
 2017-02-06 01:57:23.567831+01 | 1486342643.56783 | pgbench_accounts_pkey |       2246197248

 2017-02-06 01:57:24.654522+01 | 1486342644.65452 | pgbench_branches_pkey |            40960
 2017-02-06 01:57:24.654522+01 | 1486342644.65452 | pgbench_tellers_pkey  |           245760
 2017-02-06 01:57:24.654522+01 | 1486342644.65452 | pgbench_accounts_pkey |       2246197248

 2017-02-06 01:57:25.752282+01 | 1486342645.75228 | pgbench_branches_pkey |            40960
 2017-02-06 01:57:25.752282+01 | 1486342645.75228 | pgbench_tellers_pkey  |           245760
 2017-02-06 01:57:25.752282+01 | 1486342645.75228 | pgbench_accounts_pkey |       2246197248

 2017-02-06 01:57:26.838906+01 | 1486342646.83891 | pgbench_branches_pkey |            40960
 2017-02-06 01:57:26.838906+01 | 1486342646.83891 | pgbench_tellers_pkey  |           245760
 2017-02-06 01:57:26.838906+01 | 1486342646.83891 | pgbench_accounts_pkey |       2246197248

 2017-02-06 01:57:27.922832+01 | 1486342647.92283 | pgbench_branches_pkey |            40960
 2017-02-06 01:57:27.922832+01 | 1486342647.92283 | pgbench_tellers_pkey  |           245760
 2017-02-06 01:57:27.922832+01 | 1486342647.92283 | pgbench_accounts_pkey |       2246197248

 2017-02-06 01:57:29.012352+01 | 1486342649.01235 | pgbench_branches_pkey |            40960
 2017-02-06 01:57:29.012352+01 | 1486342649.01235 | pgbench_tellers_pkey  |           245760
 2017-02-06 01:57:29.012352+01 | 1486342649.01235 | pgbench_accounts_pkey |       2246197248

 2017-02-06 01:57:30.106572+01 | 1486342650.10657 | pgbench_branches_pkey |            40960
 2017-02-06 01:57:30.106572+01 | 1486342650.10657 | pgbench_tellers_pkey  |           245760
 2017-02-06 01:57:30.106572+01 | 1486342650.10657 | pgbench_accounts_pkey |       2246197248

 2017-02-06 01:57:31.204002+01 | 1486342651.204 | pgbench_branches_pkey |            40960
 2017-02-06 01:57:31.204002+01 | 1486342651.204 | pgbench_tellers_pkey  |           245760
 2017-02-06 01:57:31.204002+01 | 1486342651.204 | pgbench_accounts_pkey |       2246197248

 2017-02-06 01:57:32.29395+01 | 1486342652.29395 | pgbench_branches_pkey |            40960
 2017-02-06 01:57:32.29395+01 | 1486342652.29395 | pgbench_tellers_pkey  |           245760
 2017-02-06 01:57:32.29395+01 | 1486342652.29395 | pgbench_accounts_pkey |       2246197248

 2017-02-06 01:57:33.385468+01 | 1486342653.38547 | pgbench_branches_pkey |            40960
 2017-02-06 01:57:33.385468+01 | 1486342653.38547 | pgbench_tellers_pkey  |           245760
 2017-02-06 01:57:33.385468+01 | 1486342653.38547 | pgbench_accounts_pkey |       2246197248

 2017-02-06 01:57:34.475639+01 | 1486342654.47564 | pgbench_branches_pkey |            40960
 2017-02-06 01:57:34.475639+01 | 1486342654.47564 | pgbench_tellers_pkey  |           245760
 2017-02-06 01:57:34.475639+01 | 1486342654.47564 | pgbench_accounts_pkey |       2246197248

 2017-02-06 01:57:35.563155+01 | 1486342655.56315 | pgbench_branches_pkey |            40960
 2017-02-06 01:57:35.563155+01 | 1486342655.56315 | pgbench_tellers_pkey  |           245760
 2017-02-06 01:57:35.563155+01 | 1486342655.56315 | pgbench_accounts_pkey |       2246197248

 2017-02-06 01:57:36.65179+01 | 1486342656.65179 | pgbench_branches_pkey |            40960
 2017-02-06 01:57:36.65179+01 | 1486342656.65179 | pgbench_tellers_pkey  |           245760
 2017-02-06 01:57:36.65179+01 | 1486342656.65179 | pgbench_accounts_pkey |       2246197248

 2017-02-06 01:57:37.746734+01 | 1486342657.74673 | pgbench_branches_pkey |            40960
 2017-02-06 01:57:37.746734+01 | 1486342657.74673 | pgbench_tellers_pkey  |           245760
 2017-02-06 01:57:37.746734+01 | 1486342657.74673 | pgbench_accounts_pkey |       2246197248

 2017-02-06 01:57:38.837494+01 | 1486342658.83749 | pgbench_branches_pkey |            40960
 2017-02-06 01:57:38.837494+01 | 1486342658.83749 | pgbench_tellers_pkey  |           245760
 2017-02-06 01:57:38.837494+01 | 1486342658.83749 | pgbench_accounts_pkey |       2246197248

 2017-02-06 01:57:39.920915+01 | 1486342659.92091 | pgbench_branches_pkey |            40960
 2017-02-06 01:57:39.920915+01 | 1486342659.92091 | pgbench_tellers_pkey  |           245760
 2017-02-06 01:57:39.920915+01 | 1486342659.92091 | pgbench_accounts_pkey |       2246197248

 2017-02-06 01:57:41.013945+01 | 1486342661.01395 | pgbench_branches_pkey |            40960
 2017-02-06 01:57:41.013945+01 | 1486342661.01395 | pgbench_tellers_pkey  |           245760
 2017-02-06 01:57:41.013945+01 | 1486342661.01395 | pgbench_accounts_pkey |       2246197248

 2017-02-06 01:57:42.110501+01 | 1486342662.1105 | pgbench_branches_pkey |            40960
 2017-02-06 01:57:42.110501+01 | 1486342662.1105 | pgbench_tellers_pkey  |           245760
 2017-02-06 01:57:42.110501+01 | 1486342662.1105 | pgbench_accounts_pkey |       2246197248

 2017-02-06 01:57:43.200907+01 | 1486342663.20091 | pgbench_branches_pkey |            40960
 2017-02-06 01:57:43.200907+01 | 1486342663.20091 | pgbench_tellers_pkey  |           245760
 2017-02-06 01:57:43.200907+01 | 1486342663.20091 | pgbench_accounts_pkey |       2246197248

 2017-02-06 01:57:44.284877+01 | 1486342664.28488 | pgbench_branches_pkey |            40960
 2017-02-06 01:57:44.284877+01 | 1486342664.28488 | pgbench_tellers_pkey  |           245760
 2017-02-06 01:57:44.284877+01 | 1486342664.28488 | pgbench_accounts_pkey |       2246197248

 2017-02-06 01:57:45.381049+01 | 1486342665.38105 | pgbench_branches_pkey |            40960
 2017-02-06 01:57:45.381049+01 | 1486342665.38105 | pgbench_tellers_pkey  |           245760
 2017-02-06 01:57:45.381049+01 | 1486342665.38105 | pgbench_accounts_pkey |       2246197248

 2017-02-06 01:57:46.47265+01 | 1486342666.47265 | pgbench_branches_pkey |            40960
 2017-02-06 01:57:46.47265+01 | 1486342666.47265 | pgbench_tellers_pkey  |           245760
 2017-02-06 01:57:46.47265+01 | 1486342666.47265 | pgbench_accounts_pkey |       2246197248

 2017-02-06 01:57:47.565616+01 | 1486342667.56562 | pgbench_branches_pkey |            40960
 2017-02-06 01:57:47.565616+01 | 1486342667.56562 | pgbench_tellers_pkey  |           245760
 2017-02-06 01:57:47.565616+01 | 1486342667.56562 | pgbench_accounts_pkey |       2246197248

 2017-02-06 01:57:48.660475+01 | 1486342668.66048 | pgbench_branches_pkey |            40960
 2017-02-06 01:57:48.660475+01 | 1486342668.66048 | pgbench_tellers_pkey  |           245760
 2017-02-06 01:57:48.660475+01 | 1486342668.66048 | pgbench_accounts_pkey |       2246197248

 2017-02-06 01:57:49.748096+01 | 1486342669.7481 | pgbench_branches_pkey |            40960
 2017-02-06 01:57:49.748096+01 | 1486342669.7481 | pgbench_tellers_pkey  |           245760
 2017-02-06 01:57:49.748096+01 | 1486342669.7481 | pgbench_accounts_pkey |       2246197248

 2017-02-06 01:57:50.844065+01 | 1486342670.84406 | pgbench_branches_pkey |            40960
 2017-02-06 01:57:50.844065+01 | 1486342670.84406 | pgbench_tellers_pkey  |           245760
 2017-02-06 01:57:50.844065+01 | 1486342670.84406 | pgbench_accounts_pkey |       2246197248

 2017-02-06 01:57:51.927028+01 | 1486342671.92703 | pgbench_branches_pkey |            40960
 2017-02-06 01:57:51.927028+01 | 1486342671.92703 | pgbench_tellers_pkey  |           245760
 2017-02-06 01:57:51.927028+01 | 1486342671.92703 | pgbench_accounts_pkey |       2246197248

 2017-02-06 01:57:53.025099+01 | 1486342673.0251 | pgbench_branches_pkey |            40960
 2017-02-06 01:57:53.025099+01 | 1486342673.0251 | pgbench_tellers_pkey  |           245760
 2017-02-06 01:57:53.025099+01 | 1486342673.0251 | pgbench_accounts_pkey |       2246197248

 2017-02-06 01:57:54.115487+01 | 1486342674.11549 | pgbench_branches_pkey |            40960
 2017-02-06 01:57:54.115487+01 | 1486342674.11549 | pgbench_tellers_pkey  |           245760
 2017-02-06 01:57:54.115487+01 | 1486342674.11549 | pgbench_accounts_pkey |       2246197248

 2017-02-06 01:57:55.202105+01 | 1486342675.20211 | pgbench_branches_pkey |            40960
 2017-02-06 01:57:55.202105+01 | 1486342675.20211 | pgbench_tellers_pkey  |           245760
 2017-02-06 01:57:55.202105+01 | 1486342675.20211 | pgbench_accounts_pkey |       2246197248

 2017-02-06 01:57:56.288617+01 | 1486342676.28862 | pgbench_branches_pkey |            40960
 2017-02-06 01:57:56.288617+01 | 1486342676.28862 | pgbench_tellers_pkey  |           245760
 2017-02-06 01:57:56.288617+01 | 1486342676.28862 | pgbench_accounts_pkey |       2246197248

 2017-02-06 01:57:57.381824+01 | 1486342677.38182 | pgbench_branches_pkey |            40960
 2017-02-06 01:57:57.381824+01 | 1486342677.38182 | pgbench_tellers_pkey  |           245760
 2017-02-06 01:57:57.381824+01 | 1486342677.38182 | pgbench_accounts_pkey |       2246197248

 2017-02-06 01:57:58.47747+01 | 1486342678.47747 | pgbench_branches_pkey |            40960
 2017-02-06 01:57:58.47747+01 | 1486342678.47747 | pgbench_tellers_pkey  |           245760
 2017-02-06 01:57:58.47747+01 | 1486342678.47747 | pgbench_accounts_pkey |       2246197248

 2017-02-06 01:57:59.566027+01 | 1486342679.56603 | pgbench_branches_pkey |            40960
 2017-02-06 01:57:59.566027+01 | 1486342679.56603 | pgbench_tellers_pkey  |           245760
 2017-02-06 01:57:59.566027+01 | 1486342679.56603 | pgbench_accounts_pkey |       2246197248

 2017-02-06 01:58:00.662321+01 | 1486342680.66232 | pgbench_branches_pkey |            40960
 2017-02-06 01:58:00.662321+01 | 1486342680.66232 | pgbench_tellers_pkey  |           245760
 2017-02-06 01:58:00.662321+01 | 1486342680.66232 | pgbench_accounts_pkey |       2246197248

 2017-02-06 01:58:01.753421+01 | 1486342681.75342 | pgbench_branches_pkey |            40960
 2017-02-06 01:58:01.753421+01 | 1486342681.75342 | pgbench_tellers_pkey  |           245760
 2017-02-06 01:58:01.753421+01 | 1486342681.75342 | pgbench_accounts_pkey |       2246197248

 2017-02-06 01:58:02.841291+01 | 1486342682.84129 | pgbench_branches_pkey |            40960
 2017-02-06 01:58:02.841291+01 | 1486342682.84129 | pgbench_tellers_pkey  |           245760
 2017-02-06 01:58:02.841291+01 | 1486342682.84129 | pgbench_accounts_pkey |       2246197248

 2017-02-06 01:58:03.930657+01 | 1486342683.93066 | pgbench_branches_pkey |            40960
 2017-02-06 01:58:03.930657+01 | 1486342683.93066 | pgbench_tellers_pkey  |           245760
 2017-02-06 01:58:03.930657+01 | 1486342683.93066 | pgbench_accounts_pkey |       2246197248

 2017-02-06 01:58:05.018094+01 | 1486342685.01809 | pgbench_branches_pkey |            40960
 2017-02-06 01:58:05.018094+01 | 1486342685.01809 | pgbench_tellers_pkey  |           245760
 2017-02-06 01:58:05.018094+01 | 1486342685.01809 | pgbench_accounts_pkey |       2246197248

 2017-02-06 01:58:06.106485+01 | 1486342686.10648 | pgbench_branches_pkey |            40960
 2017-02-06 01:58:06.106485+01 | 1486342686.10648 | pgbench_tellers_pkey  |           245760
 2017-02-06 01:58:06.106485+01 | 1486342686.10648 | pgbench_accounts_pkey |       2246197248

 2017-02-06 01:58:07.191292+01 | 1486342687.19129 | pgbench_branches_pkey |            40960
 2017-02-06 01:58:07.191292+01 | 1486342687.19129 | pgbench_tellers_pkey  |           245760
 2017-02-06 01:58:07.191292+01 | 1486342687.19129 | pgbench_accounts_pkey |       2246197248

 2017-02-06 01:58:08.274303+01 | 1486342688.2743 | pgbench_branches_pkey |            40960
 2017-02-06 01:58:08.274303+01 | 1486342688.2743 | pgbench_tellers_pkey  |           245760
 2017-02-06 01:58:08.274303+01 | 1486342688.2743 | pgbench_accounts_pkey |       2246197248

 2017-02-06 01:58:09.364626+01 | 1486342689.36463 | pgbench_branches_pkey |            40960
 2017-02-06 01:58:09.364626+01 | 1486342689.36463 | pgbench_tellers_pkey  |           245760
 2017-02-06 01:58:09.364626+01 | 1486342689.36463 | pgbench_accounts_pkey |       2246197248

 2017-02-06 01:58:10.452813+01 | 1486342690.45281 | pgbench_branches_pkey |            40960
 2017-02-06 01:58:10.452813+01 | 1486342690.45281 | pgbench_tellers_pkey  |           245760
 2017-02-06 01:58:10.452813+01 | 1486342690.45281 | pgbench_accounts_pkey |       2246197248

 2017-02-06 01:58:11.542986+01 | 1486342691.54299 | pgbench_branches_pkey |            40960
 2017-02-06 01:58:11.542986+01 | 1486342691.54299 | pgbench_tellers_pkey  |           245760
 2017-02-06 01:58:11.542986+01 | 1486342691.54299 | pgbench_accounts_pkey |       2246197248

 2017-02-06 01:58:12.623647+01 | 1486342692.62365 | pgbench_branches_pkey |            40960
 2017-02-06 01:58:12.623647+01 | 1486342692.62365 | pgbench_tellers_pkey  |           245760
 2017-02-06 01:58:12.623647+01 | 1486342692.62365 | pgbench_accounts_pkey |       2246197248

 2017-02-06 01:58:13.716508+01 | 1486342693.71651 | pgbench_branches_pkey |            40960
 2017-02-06 01:58:13.716508+01 | 1486342693.71651 | pgbench_tellers_pkey  |           245760
 2017-02-06 01:58:13.716508+01 | 1486342693.71651 | pgbench_accounts_pkey |       2246197248

 2017-02-06 01:58:14.813508+01 | 1486342694.81351 | pgbench_branches_pkey |            40960
 2017-02-06 01:58:14.813508+01 | 1486342694.81351 | pgbench_tellers_pkey  |           245760
 2017-02-06 01:58:14.813508+01 | 1486342694.81351 | pgbench_accounts_pkey |       2246197248

 2017-02-06 01:58:15.908678+01 | 1486342695.90868 | pgbench_branches_pkey |            40960
 2017-02-06 01:58:15.908678+01 | 1486342695.90868 | pgbench_tellers_pkey  |           245760
 2017-02-06 01:58:15.908678+01 | 1486342695.90868 | pgbench_accounts_pkey |       2246197248

 2017-02-06 01:58:16.997528+01 | 1486342696.99753 | pgbench_branches_pkey |            40960
 2017-02-06 01:58:16.997528+01 | 1486342696.99753 | pgbench_tellers_pkey  |           245760
 2017-02-06 01:58:16.997528+01 | 1486342696.99753 | pgbench_accounts_pkey |       2246197248

 2017-02-06 01:58:18.088501+01 | 1486342698.0885 | pgbench_branches_pkey |            40960
 2017-02-06 01:58:18.088501+01 | 1486342698.0885 | pgbench_tellers_pkey  |           245760
 2017-02-06 01:58:18.088501+01 | 1486342698.0885 | pgbench_accounts_pkey |       2246197248

 2017-02-06 01:58:19.17492+01 | 1486342699.17492 | pgbench_branches_pkey |            40960
 2017-02-06 01:58:19.17492+01 | 1486342699.17492 | pgbench_tellers_pkey  |           245760
 2017-02-06 01:58:19.17492+01 | 1486342699.17492 | pgbench_accounts_pkey |       2246197248

 2017-02-06 01:58:20.261706+01 | 1486342700.26171 | pgbench_branches_pkey |            40960
 2017-02-06 01:58:20.261706+01 | 1486342700.26171 | pgbench_tellers_pkey  |           245760
 2017-02-06 01:58:20.261706+01 | 1486342700.26171 | pgbench_accounts_pkey |       2246197248

 2017-02-06 01:58:21.348196+01 | 1486342701.3482 | pgbench_branches_pkey |            40960
 2017-02-06 01:58:21.348196+01 | 1486342701.3482 | pgbench_tellers_pkey  |           245760
 2017-02-06 01:58:21.348196+01 | 1486342701.3482 | pgbench_accounts_pkey |       2246197248

 2017-02-06 01:58:22.448414+01 | 1486342702.44841 | pgbench_branches_pkey |            40960
 2017-02-06 01:58:22.448414+01 | 1486342702.44841 | pgbench_tellers_pkey  |           245760
 2017-02-06 01:58:22.448414+01 | 1486342702.44841 | pgbench_accounts_pkey |       2246197248

 2017-02-06 01:58:23.538928+01 | 1486342703.53893 | pgbench_branches_pkey |            40960
 2017-02-06 01:58:23.538928+01 | 1486342703.53893 | pgbench_tellers_pkey  |           245760
 2017-02-06 01:58:23.538928+01 | 1486342703.53893 | pgbench_accounts_pkey |       2246197248

 2017-02-06 01:58:24.626093+01 | 1486342704.62609 | pgbench_branches_pkey |            40960
 2017-02-06 01:58:24.626093+01 | 1486342704.62609 | pgbench_tellers_pkey  |           245760
 2017-02-06 01:58:24.626093+01 | 1486342704.62609 | pgbench_accounts_pkey |       2246197248

 2017-02-06 01:58:25.710901+01 | 1486342705.7109 | pgbench_branches_pkey |            40960
 2017-02-06 01:58:25.710901+01 | 1486342705.7109 | pgbench_tellers_pkey  |           245760
 2017-02-06 01:58:25.710901+01 | 1486342705.7109 | pgbench_accounts_pkey |       2246197248

 2017-02-06 01:58:26.803924+01 | 1486342706.80392 | pgbench_branches_pkey |            40960
 2017-02-06 01:58:26.803924+01 | 1486342706.80392 | pgbench_tellers_pkey  |           245760
 2017-02-06 01:58:26.803924+01 | 1486342706.80392 | pgbench_accounts_pkey |       2246197248

 2017-02-06 01:58:27.893044+01 | 1486342707.89304 | pgbench_branches_pkey |            40960
 2017-02-06 01:58:27.893044+01 | 1486342707.89304 | pgbench_tellers_pkey  |           245760
 2017-02-06 01:58:27.893044+01 | 1486342707.89304 | pgbench_accounts_pkey |       2246197248

 2017-02-06 01:58:28.986373+01 | 1486342708.98637 | pgbench_branches_pkey |            40960
 2017-02-06 01:58:28.986373+01 | 1486342708.98637 | pgbench_tellers_pkey  |           245760
 2017-02-06 01:58:28.986373+01 | 1486342708.98637 | pgbench_accounts_pkey |       2246197248

 2017-02-06 01:58:30.076505+01 | 1486342710.0765 | pgbench_branches_pkey |            40960
 2017-02-06 01:58:30.076505+01 | 1486342710.0765 | pgbench_tellers_pkey  |           245760
 2017-02-06 01:58:30.076505+01 | 1486342710.0765 | pgbench_accounts_pkey |       2246197248

 2017-02-06 01:58:31.165768+01 | 1486342711.16577 | pgbench_branches_pkey |            40960
 2017-02-06 01:58:31.165768+01 | 1486342711.16577 | pgbench_tellers_pkey  |           245760
 2017-02-06 01:58:31.165768+01 | 1486342711.16577 | pgbench_accounts_pkey |       2246197248

 2017-02-06 01:58:32.249939+01 | 1486342712.24994 | pgbench_branches_pkey |            40960
 2017-02-06 01:58:32.249939+01 | 1486342712.24994 | pgbench_tellers_pkey  |           245760
 2017-02-06 01:58:32.249939+01 | 1486342712.24994 | pgbench_accounts_pkey |       2246197248

 2017-02-06 01:58:33.347428+01 | 1486342713.34743 | pgbench_branches_pkey |            40960
 2017-02-06 01:58:33.347428+01 | 1486342713.34743 | pgbench_tellers_pkey  |           245760
 2017-02-06 01:58:33.347428+01 | 1486342713.34743 | pgbench_accounts_pkey |       2246197248

 2017-02-06 01:58:34.440268+01 | 1486342714.44027 | pgbench_branches_pkey |            40960
 2017-02-06 01:58:34.440268+01 | 1486342714.44027 | pgbench_tellers_pkey  |           245760
 2017-02-06 01:58:34.440268+01 | 1486342714.44027 | pgbench_accounts_pkey |       2246197248

 2017-02-06 01:58:35.539799+01 | 1486342715.5398 | pgbench_branches_pkey |            40960
 2017-02-06 01:58:35.539799+01 | 1486342715.5398 | pgbench_tellers_pkey  |           245760
 2017-02-06 01:58:35.539799+01 | 1486342715.5398 | pgbench_accounts_pkey |       2246197248

 2017-02-06 01:58:36.632575+01 | 1486342716.63258 | pgbench_branches_pkey |            40960
 2017-02-06 01:58:36.632575+01 | 1486342716.63258 | pgbench_tellers_pkey  |           245760
 2017-02-06 01:58:36.632575+01 | 1486342716.63258 | pgbench_accounts_pkey |       2246197248

 2017-02-06 01:58:37.721274+01 | 1486342717.72127 | pgbench_branches_pkey |            40960
 2017-02-06 01:58:37.721274+01 | 1486342717.72127 | pgbench_tellers_pkey  |           245760
 2017-02-06 01:58:37.721274+01 | 1486342717.72127 | pgbench_accounts_pkey |       2246197248

 2017-02-06 01:58:38.80649+01 | 1486342718.80649 | pgbench_branches_pkey |            40960
 2017-02-06 01:58:38.80649+01 | 1486342718.80649 | pgbench_tellers_pkey  |           245760
 2017-02-06 01:58:38.80649+01 | 1486342718.80649 | pgbench_accounts_pkey |       2246197248

 2017-02-06 01:58:39.894646+01 | 1486342719.89465 | pgbench_branches_pkey |            40960
 2017-02-06 01:58:39.894646+01 | 1486342719.89465 | pgbench_tellers_pkey  |           245760
 2017-02-06 01:58:39.894646+01 | 1486342719.89465 | pgbench_accounts_pkey |       2246197248

 2017-02-06 01:58:40.988761+01 | 1486342720.98876 | pgbench_branches_pkey |            40960
 2017-02-06 01:58:40.988761+01 | 1486342720.98876 | pgbench_tellers_pkey  |           245760
 2017-02-06 01:58:40.988761+01 | 1486342720.98876 | pgbench_accounts_pkey |       2246197248

 2017-02-06 01:58:42.074832+01 | 1486342722.07483 | pgbench_branches_pkey |            40960
 2017-02-06 01:58:42.074832+01 | 1486342722.07483 | pgbench_tellers_pkey  |           245760
 2017-02-06 01:58:42.074832+01 | 1486342722.07483 | pgbench_accounts_pkey |       2246197248

 2017-02-06 01:58:43.167978+01 | 1486342723.16798 | pgbench_branches_pkey |            40960
 2017-02-06 01:58:43.167978+01 | 1486342723.16798 | pgbench_tellers_pkey  |           245760
 2017-02-06 01:58:43.167978+01 | 1486342723.16798 | pgbench_accounts_pkey |       2246197248

 2017-02-06 01:58:44.257637+01 | 1486342724.25764 | pgbench_branches_pkey |            40960
 2017-02-06 01:58:44.257637+01 | 1486342724.25764 | pgbench_tellers_pkey  |           245760
 2017-02-06 01:58:44.257637+01 | 1486342724.25764 | pgbench_accounts_pkey |       2246197248

 2017-02-06 01:58:45.344856+01 | 1486342725.34486 | pgbench_branches_pkey |            40960
 2017-02-06 01:58:45.344856+01 | 1486342725.34486 | pgbench_tellers_pkey  |           245760
 2017-02-06 01:58:45.344856+01 | 1486342725.34486 | pgbench_accounts_pkey |       2246197248

 2017-02-06 01:58:46.443512+01 | 1486342726.44351 | pgbench_branches_pkey |            40960
 2017-02-06 01:58:46.443512+01 | 1486342726.44351 | pgbench_tellers_pkey  |           245760
 2017-02-06 01:58:46.443512+01 | 1486342726.44351 | pgbench_accounts_pkey |       2246197248

 2017-02-06 01:58:47.540366+01 | 1486342727.54037 | pgbench_branches_pkey |            40960
 2017-02-06 01:58:47.540366+01 | 1486342727.54037 | pgbench_tellers_pkey  |           245760
 2017-02-06 01:58:47.540366+01 | 1486342727.54037 | pgbench_accounts_pkey |       2246197248

 2017-02-06 01:58:48.638388+01 | 1486342728.63839 | pgbench_branches_pkey |            40960
 2017-02-06 01:58:48.638388+01 | 1486342728.63839 | pgbench_tellers_pkey  |           245760
 2017-02-06 01:58:48.638388+01 | 1486342728.63839 | pgbench_accounts_pkey |       2246197248

 2017-02-06 01:58:49.724699+01 | 1486342729.7247 | pgbench_branches_pkey |            40960
 2017-02-06 01:58:49.724699+01 | 1486342729.7247 | pgbench_tellers_pkey  |           245760
 2017-02-06 01:58:49.724699+01 | 1486342729.7247 | pgbench_accounts_pkey |       2246197248

 2017-02-06 01:58:50.815493+01 | 1486342730.81549 | pgbench_branches_pkey |            40960
 2017-02-06 01:58:50.815493+01 | 1486342730.81549 | pgbench_tellers_pkey  |           245760
 2017-02-06 01:58:50.815493+01 | 1486342730.81549 | pgbench_accounts_pkey |       2246197248

 2017-02-06 01:58:51.907025+01 | 1486342731.90703 | pgbench_branches_pkey |            40960
 2017-02-06 01:58:51.907025+01 | 1486342731.90703 | pgbench_tellers_pkey  |           245760
 2017-02-06 01:58:51.907025+01 | 1486342731.90703 | pgbench_accounts_pkey |       2246197248

 2017-02-06 01:58:53.003106+01 | 1486342733.00311 | pgbench_branches_pkey |            40960
 2017-02-06 01:58:53.003106+01 | 1486342733.00311 | pgbench_tellers_pkey  |           245760
 2017-02-06 01:58:53.003106+01 | 1486342733.00311 | pgbench_accounts_pkey |       2246197248

 2017-02-06 01:58:54.089611+01 | 1486342734.08961 | pgbench_branches_pkey |            40960
 2017-02-06 01:58:54.089611+01 | 1486342734.08961 | pgbench_tellers_pkey  |           245760
 2017-02-06 01:58:54.089611+01 | 1486342734.08961 | pgbench_accounts_pkey |       2246197248

 2017-02-06 01:58:55.182329+01 | 1486342735.18233 | pgbench_branches_pkey |            40960
 2017-02-06 01:58:55.182329+01 | 1486342735.18233 | pgbench_tellers_pkey  |           245760
 2017-02-06 01:58:55.182329+01 | 1486342735.18233 | pgbench_accounts_pkey |       2246197248

 2017-02-06 01:58:56.273799+01 | 1486342736.2738 | pgbench_branches_pkey |            40960
 2017-02-06 01:58:56.273799+01 | 1486342736.2738 | pgbench_tellers_pkey  |           245760
 2017-02-06 01:58:56.273799+01 | 1486342736.2738 | pgbench_accounts_pkey |       2246197248

 2017-02-06 01:58:57.364355+01 | 1486342737.36436 | pgbench_branches_pkey |            40960
 2017-02-06 01:58:57.364355+01 | 1486342737.36436 | pgbench_tellers_pkey  |           245760
 2017-02-06 01:58:57.364355+01 | 1486342737.36436 | pgbench_accounts_pkey |       2246197248

 2017-02-06 01:58:58.454101+01 | 1486342738.4541 | pgbench_branches_pkey |            40960
 2017-02-06 01:58:58.454101+01 | 1486342738.4541 | pgbench_tellers_pkey  |           245760
 2017-02-06 01:58:58.454101+01 | 1486342738.4541 | pgbench_accounts_pkey |       2246197248

 2017-02-06 01:58:59.545385+01 | 1486342739.54538 | pgbench_branches_pkey |            40960
 2017-02-06 01:58:59.545385+01 | 1486342739.54538 | pgbench_tellers_pkey  |           245760
 2017-02-06 01:58:59.545385+01 | 1486342739.54538 | pgbench_accounts_pkey |       2246197248

 2017-02-06 01:59:00.649299+01 | 1486342740.6493 | pgbench_branches_pkey |            40960
 2017-02-06 01:59:00.649299+01 | 1486342740.6493 | pgbench_tellers_pkey  |           245760
 2017-02-06 01:59:00.649299+01 | 1486342740.6493 | pgbench_accounts_pkey |       2246197248

 2017-02-06 01:59:01.758172+01 | 1486342741.75817 | pgbench_branches_pkey |            40960
 2017-02-06 01:59:01.758172+01 | 1486342741.75817 | pgbench_tellers_pkey  |           245760
 2017-02-06 01:59:01.758172+01 | 1486342741.75817 | pgbench_accounts_pkey |       2246197248

 2017-02-06 01:59:02.841983+01 | 1486342742.84198 | pgbench_branches_pkey |            40960
 2017-02-06 01:59:02.841983+01 | 1486342742.84198 | pgbench_tellers_pkey  |           245760
 2017-02-06 01:59:02.841983+01 | 1486342742.84198 | pgbench_accounts_pkey |       2246197248

 2017-02-06 01:59:03.926896+01 | 1486342743.9269 | pgbench_branches_pkey |            40960
 2017-02-06 01:59:03.926896+01 | 1486342743.9269 | pgbench_tellers_pkey  |           245760
 2017-02-06 01:59:03.926896+01 | 1486342743.9269 | pgbench_accounts_pkey |       2246197248

 2017-02-06 01:59:05.018237+01 | 1486342745.01824 | pgbench_branches_pkey |            40960
 2017-02-06 01:59:05.018237+01 | 1486342745.01824 | pgbench_tellers_pkey  |           245760
 2017-02-06 01:59:05.018237+01 | 1486342745.01824 | pgbench_accounts_pkey |       2246197248

 2017-02-06 01:59:06.110144+01 | 1486342746.11014 | pgbench_branches_pkey |            40960
 2017-02-06 01:59:06.110144+01 | 1486342746.11014 | pgbench_tellers_pkey  |           245760
 2017-02-06 01:59:06.110144+01 | 1486342746.11014 | pgbench_accounts_pkey |       2246197248

 2017-02-06 01:59:07.199767+01 | 1486342747.19977 | pgbench_branches_pkey |            40960
 2017-02-06 01:59:07.199767+01 | 1486342747.19977 | pgbench_tellers_pkey  |           245760
 2017-02-06 01:59:07.199767+01 | 1486342747.19977 | pgbench_accounts_pkey |       2246197248

 2017-02-06 01:59:08.292934+01 | 1486342748.29293 | pgbench_branches_pkey |            40960
 2017-02-06 01:59:08.292934+01 | 1486342748.29293 | pgbench_tellers_pkey  |           245760
 2017-02-06 01:59:08.292934+01 | 1486342748.29293 | pgbench_accounts_pkey |       2246197248

 2017-02-06 01:59:09.383195+01 | 1486342749.38319 | pgbench_branches_pkey |            40960
 2017-02-06 01:59:09.383195+01 | 1486342749.38319 | pgbench_tellers_pkey  |           245760
 2017-02-06 01:59:09.383195+01 | 1486342749.38319 | pgbench_accounts_pkey |       2246197248

 2017-02-06 01:59:10.473952+01 | 1486342750.47395 | pgbench_branches_pkey |            40960
 2017-02-06 01:59:10.473952+01 | 1486342750.47395 | pgbench_tellers_pkey  |           245760
 2017-02-06 01:59:10.473952+01 | 1486342750.47395 | pgbench_accounts_pkey |       2246197248

 2017-02-06 01:59:11.562356+01 | 1486342751.56236 | pgbench_branches_pkey |            40960
 2017-02-06 01:59:11.562356+01 | 1486342751.56236 | pgbench_tellers_pkey  |           245760
 2017-02-06 01:59:11.562356+01 | 1486342751.56236 | pgbench_accounts_pkey |       2246197248

 2017-02-06 01:59:12.65317+01 | 1486342752.65317 | pgbench_branches_pkey |            40960
 2017-02-06 01:59:12.65317+01 | 1486342752.65317 | pgbench_tellers_pkey  |           245760
 2017-02-06 01:59:12.65317+01 | 1486342752.65317 | pgbench_accounts_pkey |       2246197248

 2017-02-06 01:59:13.744014+01 | 1486342753.74401 | pgbench_branches_pkey |            40960
 2017-02-06 01:59:13.744014+01 | 1486342753.74401 | pgbench_tellers_pkey  |           245760
 2017-02-06 01:59:13.744014+01 | 1486342753.74401 | pgbench_accounts_pkey |       2246197248

 2017-02-06 01:59:14.834434+01 | 1486342754.83443 | pgbench_branches_pkey |            40960
 2017-02-06 01:59:14.834434+01 | 1486342754.83443 | pgbench_tellers_pkey  |           245760
 2017-02-06 01:59:14.834434+01 | 1486342754.83443 | pgbench_accounts_pkey |       2246197248

 2017-02-06 01:59:15.923995+01 | 1486342755.924 | pgbench_branches_pkey |            40960
 2017-02-06 01:59:15.923995+01 | 1486342755.924 | pgbench_tellers_pkey  |           245760
 2017-02-06 01:59:15.923995+01 | 1486342755.924 | pgbench_accounts_pkey |       2246197248

 2017-02-06 01:59:17.010696+01 | 1486342757.0107 | pgbench_branches_pkey |            40960
 2017-02-06 01:59:17.010696+01 | 1486342757.0107 | pgbench_tellers_pkey  |           245760
 2017-02-06 01:59:17.010696+01 | 1486342757.0107 | pgbench_accounts_pkey |       2246197248

 2017-02-06 01:59:18.099809+01 | 1486342758.09981 | pgbench_branches_pkey |            40960
 2017-02-06 01:59:18.099809+01 | 1486342758.09981 | pgbench_tellers_pkey  |           245760
 2017-02-06 01:59:18.099809+01 | 1486342758.09981 | pgbench_accounts_pkey |       2246197248

 2017-02-06 01:59:19.205662+01 | 1486342759.20566 | pgbench_branches_pkey |            40960
 2017-02-06 01:59:19.205662+01 | 1486342759.20566 | pgbench_tellers_pkey  |           245760
 2017-02-06 01:59:19.205662+01 | 1486342759.20566 | pgbench_accounts_pkey |       2246197248

 2017-02-06 01:59:20.293082+01 | 1486342760.29308 | pgbench_branches_pkey |            40960
 2017-02-06 01:59:20.293082+01 | 1486342760.29308 | pgbench_tellers_pkey  |           245760
 2017-02-06 01:59:20.293082+01 | 1486342760.29308 | pgbench_accounts_pkey |       2246197248

 2017-02-06 01:59:21.383965+01 | 1486342761.38397 | pgbench_branches_pkey |            40960
 2017-02-06 01:59:21.383965+01 | 1486342761.38397 | pgbench_tellers_pkey  |           245760
 2017-02-06 01:59:21.383965+01 | 1486342761.38397 | pgbench_accounts_pkey |       2246197248

 2017-02-06 01:59:22.480432+01 | 1486342762.48043 | pgbench_branches_pkey |            40960
 2017-02-06 01:59:22.480432+01 | 1486342762.48043 | pgbench_tellers_pkey  |           245760
 2017-02-06 01:59:22.480432+01 | 1486342762.48043 | pgbench_accounts_pkey |       2246197248

 2017-02-06 01:59:23.568772+01 | 1486342763.56877 | pgbench_branches_pkey |            40960
 2017-02-06 01:59:23.568772+01 | 1486342763.56877 | pgbench_tellers_pkey  |           245760
 2017-02-06 01:59:23.568772+01 | 1486342763.56877 | pgbench_accounts_pkey |       2246197248

 2017-02-06 01:59:24.656875+01 | 1486342764.65687 | pgbench_branches_pkey |            40960
 2017-02-06 01:59:24.656875+01 | 1486342764.65687 | pgbench_tellers_pkey  |           245760
 2017-02-06 01:59:24.656875+01 | 1486342764.65687 | pgbench_accounts_pkey |       2246197248

 2017-02-06 01:59:25.742588+01 | 1486342765.74259 | pgbench_branches_pkey |            40960
 2017-02-06 01:59:25.742588+01 | 1486342765.74259 | pgbench_tellers_pkey  |           245760
 2017-02-06 01:59:25.742588+01 | 1486342765.74259 | pgbench_accounts_pkey |       2246197248

 2017-02-06 01:59:26.82345+01 | 1486342766.82345 | pgbench_branches_pkey |            40960
 2017-02-06 01:59:26.82345+01 | 1486342766.82345 | pgbench_tellers_pkey  |           245760
 2017-02-06 01:59:26.82345+01 | 1486342766.82345 | pgbench_accounts_pkey |       2246197248

 2017-02-06 01:59:27.91195+01 | 1486342767.91195 | pgbench_branches_pkey |            40960
 2017-02-06 01:59:27.91195+01 | 1486342767.91195 | pgbench_tellers_pkey  |           245760
 2017-02-06 01:59:27.91195+01 | 1486342767.91195 | pgbench_accounts_pkey |       2246197248

 2017-02-06 01:59:29.005528+01 | 1486342769.00553 | pgbench_branches_pkey |            40960
 2017-02-06 01:59:29.005528+01 | 1486342769.00553 | pgbench_tellers_pkey  |           245760
 2017-02-06 01:59:29.005528+01 | 1486342769.00553 | pgbench_accounts_pkey |       2246197248

 2017-02-06 01:59:30.09566+01 | 1486342770.09566 | pgbench_branches_pkey |            40960
 2017-02-06 01:59:30.09566+01 | 1486342770.09566 | pgbench_tellers_pkey  |           245760
 2017-02-06 01:59:30.09566+01 | 1486342770.09566 | pgbench_accounts_pkey |       2246197248

 2017-02-06 01:59:31.190038+01 | 1486342771.19004 | pgbench_branches_pkey |            40960
 2017-02-06 01:59:31.190038+01 | 1486342771.19004 | pgbench_tellers_pkey  |           245760
 2017-02-06 01:59:31.190038+01 | 1486342771.19004 | pgbench_accounts_pkey |       2246197248

 2017-02-06 01:59:32.282047+01 | 1486342772.28205 | pgbench_branches_pkey |            40960
 2017-02-06 01:59:32.282047+01 | 1486342772.28205 | pgbench_tellers_pkey  |           245760
 2017-02-06 01:59:32.282047+01 | 1486342772.28205 | pgbench_accounts_pkey |       2246197248

 2017-02-06 01:59:33.370363+01 | 1486342773.37036 | pgbench_branches_pkey |            40960
 2017-02-06 01:59:33.370363+01 | 1486342773.37036 | pgbench_tellers_pkey  |           245760
 2017-02-06 01:59:33.370363+01 | 1486342773.37036 | pgbench_accounts_pkey |       2246197248

 2017-02-06 01:59:34.458817+01 | 1486342774.45882 | pgbench_branches_pkey |            40960
 2017-02-06 01:59:34.458817+01 | 1486342774.45882 | pgbench_tellers_pkey  |           245760
 2017-02-06 01:59:34.458817+01 | 1486342774.45882 | pgbench_accounts_pkey |       2246197248

 2017-02-06 01:59:35.547746+01 | 1486342775.54775 | pgbench_branches_pkey |            40960
 2017-02-06 01:59:35.547746+01 | 1486342775.54775 | pgbench_tellers_pkey  |           245760
 2017-02-06 01:59:35.547746+01 | 1486342775.54775 | pgbench_accounts_pkey |       2246197248

 2017-02-06 01:59:36.635055+01 | 1486342776.63506 | pgbench_branches_pkey |            40960
 2017-02-06 01:59:36.635055+01 | 1486342776.63506 | pgbench_tellers_pkey  |           245760
 2017-02-06 01:59:36.635055+01 | 1486342776.63506 | pgbench_accounts_pkey |       2246197248

 2017-02-06 01:59:37.728429+01 | 1486342777.72843 | pgbench_branches_pkey |            40960
 2017-02-06 01:59:37.728429+01 | 1486342777.72843 | pgbench_tellers_pkey  |           245760
 2017-02-06 01:59:37.728429+01 | 1486342777.72843 | pgbench_accounts_pkey |       2246197248

 2017-02-06 01:59:38.820125+01 | 1486342778.82013 | pgbench_branches_pkey |            40960
 2017-02-06 01:59:38.820125+01 | 1486342778.82013 | pgbench_tellers_pkey  |           245760
 2017-02-06 01:59:38.820125+01 | 1486342778.82013 | pgbench_accounts_pkey |       2246197248

 2017-02-06 01:59:39.911639+01 | 1486342779.91164 | pgbench_branches_pkey |            40960
 2017-02-06 01:59:39.911639+01 | 1486342779.91164 | pgbench_tellers_pkey  |           245760
 2017-02-06 01:59:39.911639+01 | 1486342779.91164 | pgbench_accounts_pkey |       2246197248

 2017-02-06 01:59:41.003165+01 | 1486342781.00317 | pgbench_branches_pkey |            40960
 2017-02-06 01:59:41.003165+01 | 1486342781.00317 | pgbench_tellers_pkey  |           245760
 2017-02-06 01:59:41.003165+01 | 1486342781.00317 | pgbench_accounts_pkey |       2246197248

 2017-02-06 01:59:42.087775+01 | 1486342782.08777 | pgbench_branches_pkey |            40960
 2017-02-06 01:59:42.087775+01 | 1486342782.08777 | pgbench_tellers_pkey  |           245760
 2017-02-06 01:59:42.087775+01 | 1486342782.08777 | pgbench_accounts_pkey |       2246197248

 2017-02-06 01:59:43.178122+01 | 1486342783.17812 | pgbench_branches_pkey |            40960
 2017-02-06 01:59:43.178122+01 | 1486342783.17812 | pgbench_tellers_pkey  |           245760
 2017-02-06 01:59:43.178122+01 | 1486342783.17812 | pgbench_accounts_pkey |       2246197248

 2017-02-06 01:59:44.263804+01 | 1486342784.2638 | pgbench_branches_pkey |            40960
 2017-02-06 01:59:44.263804+01 | 1486342784.2638 | pgbench_tellers_pkey  |           245760
 2017-02-06 01:59:44.263804+01 | 1486342784.2638 | pgbench_accounts_pkey |       2246197248

 2017-02-06 01:59:45.352865+01 | 1486342785.35286 | pgbench_branches_pkey |            40960
 2017-02-06 01:59:45.352865+01 | 1486342785.35286 | pgbench_tellers_pkey  |           245760
 2017-02-06 01:59:45.352865+01 | 1486342785.35286 | pgbench_accounts_pkey |       2246197248

 2017-02-06 01:59:46.438688+01 | 1486342786.43869 | pgbench_branches_pkey |            40960
 2017-02-06 01:59:46.438688+01 | 1486342786.43869 | pgbench_tellers_pkey  |           245760
 2017-02-06 01:59:46.438688+01 | 1486342786.43869 | pgbench_accounts_pkey |       2246197248

 2017-02-06 01:59:47.523394+01 | 1486342787.52339 | pgbench_branches_pkey |            40960
 2017-02-06 01:59:47.523394+01 | 1486342787.52339 | pgbench_tellers_pkey  |           245760
 2017-02-06 01:59:47.523394+01 | 1486342787.52339 | pgbench_accounts_pkey |       2246197248

 2017-02-06 01:59:48.616343+01 | 1486342788.61634 | pgbench_branches_pkey |            40960
 2017-02-06 01:59:48.616343+01 | 1486342788.61634 | pgbench_tellers_pkey  |           245760
 2017-02-06 01:59:48.616343+01 | 1486342788.61634 | pgbench_accounts_pkey |       2246197248

 2017-02-06 01:59:49.707405+01 | 1486342789.70741 | pgbench_branches_pkey |            40960
 2017-02-06 01:59:49.707405+01 | 1486342789.70741 | pgbench_tellers_pkey  |           245760
 2017-02-06 01:59:49.707405+01 | 1486342789.70741 | pgbench_accounts_pkey |       2246197248

 2017-02-06 01:59:50.792902+01 | 1486342790.7929 | pgbench_branches_pkey |            40960
 2017-02-06 01:59:50.792902+01 | 1486342790.7929 | pgbench_tellers_pkey  |           245760
 2017-02-06 01:59:50.792902+01 | 1486342790.7929 | pgbench_accounts_pkey |       2246197248

 2017-02-06 01:59:51.886101+01 | 1486342791.8861 | pgbench_branches_pkey |            40960
 2017-02-06 01:59:51.886101+01 | 1486342791.8861 | pgbench_tellers_pkey  |           245760
 2017-02-06 01:59:51.886101+01 | 1486342791.8861 | pgbench_accounts_pkey |       2246197248

 2017-02-06 01:59:52.96987+01 | 1486342792.96987 | pgbench_branches_pkey |            40960
 2017-02-06 01:59:52.96987+01 | 1486342792.96987 | pgbench_tellers_pkey  |           245760
 2017-02-06 01:59:52.96987+01 | 1486342792.96987 | pgbench_accounts_pkey |       2246197248

 2017-02-06 01:59:54.059711+01 | 1486342794.05971 | pgbench_branches_pkey |            40960
 2017-02-06 01:59:54.059711+01 | 1486342794.05971 | pgbench_tellers_pkey  |           245760
 2017-02-06 01:59:54.059711+01 | 1486342794.05971 | pgbench_accounts_pkey |       2246197248

 2017-02-06 01:59:55.150952+01 | 1486342795.15095 | pgbench_branches_pkey |            40960
 2017-02-06 01:59:55.150952+01 | 1486342795.15095 | pgbench_tellers_pkey  |           245760
 2017-02-06 01:59:55.150952+01 | 1486342795.15095 | pgbench_accounts_pkey |       2246197248

 2017-02-06 01:59:56.239817+01 | 1486342796.23982 | pgbench_branches_pkey |            40960
 2017-02-06 01:59:56.239817+01 | 1486342796.23982 | pgbench_tellers_pkey  |           245760
 2017-02-06 01:59:56.239817+01 | 1486342796.23982 | pgbench_accounts_pkey |       2246197248

 2017-02-06 01:59:57.343876+01 | 1486342797.34388 | pgbench_branches_pkey |            40960
 2017-02-06 01:59:57.343876+01 | 1486342797.34388 | pgbench_tellers_pkey  |           245760
 2017-02-06 01:59:57.343876+01 | 1486342797.34388 | pgbench_accounts_pkey |       2246197248

 2017-02-06 01:59:58.433072+01 | 1486342798.43307 | pgbench_branches_pkey |            40960
 2017-02-06 01:59:58.433072+01 | 1486342798.43307 | pgbench_tellers_pkey  |           245760
 2017-02-06 01:59:58.433072+01 | 1486342798.43307 | pgbench_accounts_pkey |       2246197248

 2017-02-06 01:59:59.519128+01 | 1486342799.51913 | pgbench_branches_pkey |            40960
 2017-02-06 01:59:59.519128+01 | 1486342799.51913 | pgbench_tellers_pkey  |           245760
 2017-02-06 01:59:59.519128+01 | 1486342799.51913 | pgbench_accounts_pkey |       2246197248

 2017-02-06 02:00:00.605395+01 | 1486342800.6054 | pgbench_branches_pkey |            40960
 2017-02-06 02:00:00.605395+01 | 1486342800.6054 | pgbench_tellers_pkey  |           245760
 2017-02-06 02:00:00.605395+01 | 1486342800.6054 | pgbench_accounts_pkey |       2246197248

 2017-02-06 02:00:01.697595+01 | 1486342801.69759 | pgbench_branches_pkey |            40960
 2017-02-06 02:00:01.697595+01 | 1486342801.69759 | pgbench_tellers_pkey  |           245760
 2017-02-06 02:00:01.697595+01 | 1486342801.69759 | pgbench_accounts_pkey |       2246197248

 2017-02-06 02:00:02.788172+01 | 1486342802.78817 | pgbench_branches_pkey |            40960
 2017-02-06 02:00:02.788172+01 | 1486342802.78817 | pgbench_tellers_pkey  |           245760
 2017-02-06 02:00:02.788172+01 | 1486342802.78817 | pgbench_accounts_pkey |       2246197248

 2017-02-06 02:00:03.881101+01 | 1486342803.8811 | pgbench_branches_pkey |            40960
 2017-02-06 02:00:03.881101+01 | 1486342803.8811 | pgbench_tellers_pkey  |           245760
 2017-02-06 02:00:03.881101+01 | 1486342803.8811 | pgbench_accounts_pkey |       2246197248

 2017-02-06 02:00:04.972545+01 | 1486342804.97254 | pgbench_branches_pkey |            40960
 2017-02-06 02:00:04.972545+01 | 1486342804.97254 | pgbench_tellers_pkey  |           245760
 2017-02-06 02:00:04.972545+01 | 1486342804.97254 | pgbench_accounts_pkey |       2246197248

 2017-02-06 02:00:06.057182+01 | 1486342806.05718 | pgbench_branches_pkey |            40960
 2017-02-06 02:00:06.057182+01 | 1486342806.05718 | pgbench_tellers_pkey  |           245760
 2017-02-06 02:00:06.057182+01 | 1486342806.05718 | pgbench_accounts_pkey |       2246197248

 2017-02-06 02:00:07.179697+01 | 1486342807.1797 | pgbench_branches_pkey |            40960
 2017-02-06 02:00:07.179697+01 | 1486342807.1797 | pgbench_tellers_pkey  |           245760
 2017-02-06 02:00:07.179697+01 | 1486342807.1797 | pgbench_accounts_pkey |       2246197248

 2017-02-06 02:00:08.27282+01 | 1486342808.27282 | pgbench_branches_pkey |            40960
 2017-02-06 02:00:08.27282+01 | 1486342808.27282 | pgbench_tellers_pkey  |           245760
 2017-02-06 02:00:08.27282+01 | 1486342808.27282 | pgbench_accounts_pkey |       2246197248

 2017-02-06 02:00:09.368032+01 | 1486342809.36803 | pgbench_branches_pkey |            40960
 2017-02-06 02:00:09.368032+01 | 1486342809.36803 | pgbench_tellers_pkey  |           245760
 2017-02-06 02:00:09.368032+01 | 1486342809.36803 | pgbench_accounts_pkey |       2246197248

 2017-02-06 02:00:10.459417+01 | 1486342810.45942 | pgbench_branches_pkey |            40960
 2017-02-06 02:00:10.459417+01 | 1486342810.45942 | pgbench_tellers_pkey  |           245760
 2017-02-06 02:00:10.459417+01 | 1486342810.45942 | pgbench_accounts_pkey |       2246197248

 2017-02-06 02:00:11.543588+01 | 1486342811.54359 | pgbench_branches_pkey |            40960
 2017-02-06 02:00:11.543588+01 | 1486342811.54359 | pgbench_tellers_pkey  |           245760
 2017-02-06 02:00:11.543588+01 | 1486342811.54359 | pgbench_accounts_pkey |       2246197248

 2017-02-06 02:00:12.642122+01 | 1486342812.64212 | pgbench_branches_pkey |            40960
 2017-02-06 02:00:12.642122+01 | 1486342812.64212 | pgbench_tellers_pkey  |           245760
 2017-02-06 02:00:12.642122+01 | 1486342812.64212 | pgbench_accounts_pkey |       2246197248

 2017-02-06 02:00:13.7309+01 | 1486342813.7309 | pgbench_branches_pkey |            40960
 2017-02-06 02:00:13.7309+01 | 1486342813.7309 | pgbench_tellers_pkey  |           245760
 2017-02-06 02:00:13.7309+01 | 1486342813.7309 | pgbench_accounts_pkey |       2246197248

 2017-02-06 02:00:14.819012+01 | 1486342814.81901 | pgbench_branches_pkey |            40960
 2017-02-06 02:00:14.819012+01 | 1486342814.81901 | pgbench_tellers_pkey  |           245760
 2017-02-06 02:00:14.819012+01 | 1486342814.81901 | pgbench_accounts_pkey |       2246197248

 2017-02-06 02:00:15.911908+01 | 1486342815.91191 | pgbench_branches_pkey |            40960
 2017-02-06 02:00:15.911908+01 | 1486342815.91191 | pgbench_tellers_pkey  |           245760
 2017-02-06 02:00:15.911908+01 | 1486342815.91191 | pgbench_accounts_pkey |       2246197248

 2017-02-06 02:00:17.000932+01 | 1486342817.00093 | pgbench_branches_pkey |            40960
 2017-02-06 02:00:17.000932+01 | 1486342817.00093 | pgbench_tellers_pkey  |           245760
 2017-02-06 02:00:17.000932+01 | 1486342817.00093 | pgbench_accounts_pkey |       2246197248

 2017-02-06 02:00:18.095543+01 | 1486342818.09554 | pgbench_branches_pkey |            40960
 2017-02-06 02:00:18.095543+01 | 1486342818.09554 | pgbench_tellers_pkey  |           245760
 2017-02-06 02:00:18.095543+01 | 1486342818.09554 | pgbench_accounts_pkey |       2246197248

 2017-02-06 02:00:19.185657+01 | 1486342819.18566 | pgbench_branches_pkey |            40960
 2017-02-06 02:00:19.185657+01 | 1486342819.18566 | pgbench_tellers_pkey  |           245760
 2017-02-06 02:00:19.185657+01 | 1486342819.18566 | pgbench_accounts_pkey |       2246197248

 2017-02-06 02:00:20.278457+01 | 1486342820.27846 | pgbench_branches_pkey |            40960
 2017-02-06 02:00:20.278457+01 | 1486342820.27846 | pgbench_tellers_pkey  |           245760
 2017-02-06 02:00:20.278457+01 | 1486342820.27846 | pgbench_accounts_pkey |       2246197248

 2017-02-06 02:00:21.364036+01 | 1486342821.36404 | pgbench_branches_pkey |            40960
 2017-02-06 02:00:21.364036+01 | 1486342821.36404 | pgbench_tellers_pkey  |           245760
 2017-02-06 02:00:21.364036+01 | 1486342821.36404 | pgbench_accounts_pkey |       2246197248

 2017-02-06 02:00:22.454209+01 | 1486342822.45421 | pgbench_branches_pkey |            40960
 2017-02-06 02:00:22.454209+01 | 1486342822.45421 | pgbench_tellers_pkey  |           245760
 2017-02-06 02:00:22.454209+01 | 1486342822.45421 | pgbench_accounts_pkey |       2246197248

 2017-02-06 02:00:23.541637+01 | 1486342823.54164 | pgbench_branches_pkey |            40960
 2017-02-06 02:00:23.541637+01 | 1486342823.54164 | pgbench_tellers_pkey  |           245760
 2017-02-06 02:00:23.541637+01 | 1486342823.54164 | pgbench_accounts_pkey |       2246197248

 2017-02-06 02:00:24.634533+01 | 1486342824.63453 | pgbench_branches_pkey |            40960
 2017-02-06 02:00:24.634533+01 | 1486342824.63453 | pgbench_tellers_pkey  |           245760
 2017-02-06 02:00:24.634533+01 | 1486342824.63453 | pgbench_accounts_pkey |       2246197248

 2017-02-06 02:00:25.734023+01 | 1486342825.73402 | pgbench_branches_pkey |            40960
 2017-02-06 02:00:25.734023+01 | 1486342825.73402 | pgbench_tellers_pkey  |           245760
 2017-02-06 02:00:25.734023+01 | 1486342825.73402 | pgbench_accounts_pkey |       2246197248

 2017-02-06 02:00:26.821036+01 | 1486342826.82104 | pgbench_branches_pkey |            40960
 2017-02-06 02:00:26.821036+01 | 1486342826.82104 | pgbench_tellers_pkey  |           245760
 2017-02-06 02:00:26.821036+01 | 1486342826.82104 | pgbench_accounts_pkey |       2246197248

 2017-02-06 02:00:27.910993+01 | 1486342827.91099 | pgbench_branches_pkey |            40960
 2017-02-06 02:00:27.910993+01 | 1486342827.91099 | pgbench_tellers_pkey  |           245760
 2017-02-06 02:00:27.910993+01 | 1486342827.91099 | pgbench_accounts_pkey |       2246197248

 2017-02-06 02:00:29.003004+01 | 1486342829.003 | pgbench_branches_pkey |            40960
 2017-02-06 02:00:29.003004+01 | 1486342829.003 | pgbench_tellers_pkey  |           245760
 2017-02-06 02:00:29.003004+01 | 1486342829.003 | pgbench_accounts_pkey |       2246197248

 2017-02-06 02:00:30.090262+01 | 1486342830.09026 | pgbench_branches_pkey |            40960
 2017-02-06 02:00:30.090262+01 | 1486342830.09026 | pgbench_tellers_pkey  |           245760
 2017-02-06 02:00:30.090262+01 | 1486342830.09026 | pgbench_accounts_pkey |       2246197248

 2017-02-06 02:00:31.176538+01 | 1486342831.17654 | pgbench_branches_pkey |            40960
 2017-02-06 02:00:31.176538+01 | 1486342831.17654 | pgbench_tellers_pkey  |           245760
 2017-02-06 02:00:31.176538+01 | 1486342831.17654 | pgbench_accounts_pkey |       2246197248

 2017-02-06 02:00:32.266515+01 | 1486342832.26652 | pgbench_branches_pkey |            40960
 2017-02-06 02:00:32.266515+01 | 1486342832.26652 | pgbench_tellers_pkey  |           245760
 2017-02-06 02:00:32.266515+01 | 1486342832.26652 | pgbench_accounts_pkey |       2246197248

 2017-02-06 02:00:33.352898+01 | 1486342833.3529 | pgbench_branches_pkey |            40960
 2017-02-06 02:00:33.352898+01 | 1486342833.3529 | pgbench_tellers_pkey  |           245760
 2017-02-06 02:00:33.352898+01 | 1486342833.3529 | pgbench_accounts_pkey |       2246197248

 2017-02-06 02:00:34.44366+01 | 1486342834.44366 | pgbench_branches_pkey |            40960
 2017-02-06 02:00:34.44366+01 | 1486342834.44366 | pgbench_tellers_pkey  |           245760
 2017-02-06 02:00:34.44366+01 | 1486342834.44366 | pgbench_accounts_pkey |       2246197248

 2017-02-06 02:00:35.530998+01 | 1486342835.531 | pgbench_branches_pkey |            40960
 2017-02-06 02:00:35.530998+01 | 1486342835.531 | pgbench_tellers_pkey  |           245760
 2017-02-06 02:00:35.530998+01 | 1486342835.531 | pgbench_accounts_pkey |       2246197248

 2017-02-06 02:00:36.621751+01 | 1486342836.62175 | pgbench_branches_pkey |            40960
 2017-02-06 02:00:36.621751+01 | 1486342836.62175 | pgbench_tellers_pkey  |           245760
 2017-02-06 02:00:36.621751+01 | 1486342836.62175 | pgbench_accounts_pkey |       2246197248

 2017-02-06 02:00:37.712476+01 | 1486342837.71248 | pgbench_branches_pkey |            40960
 2017-02-06 02:00:37.712476+01 | 1486342837.71248 | pgbench_tellers_pkey  |           245760
 2017-02-06 02:00:37.712476+01 | 1486342837.71248 | pgbench_accounts_pkey |       2246197248

 2017-02-06 02:00:38.813852+01 | 1486342838.81385 | pgbench_branches_pkey |            40960
 2017-02-06 02:00:38.813852+01 | 1486342838.81385 | pgbench_tellers_pkey  |           245760
 2017-02-06 02:00:38.813852+01 | 1486342838.81385 | pgbench_accounts_pkey |       2246197248

 2017-02-06 02:00:39.899606+01 | 1486342839.89961 | pgbench_branches_pkey |            40960
 2017-02-06 02:00:39.899606+01 | 1486342839.89961 | pgbench_tellers_pkey  |           245760
 2017-02-06 02:00:39.899606+01 | 1486342839.89961 | pgbench_accounts_pkey |       2246197248

 2017-02-06 02:00:40.979643+01 | 1486342840.97964 | pgbench_branches_pkey |            40960
 2017-02-06 02:00:40.979643+01 | 1486342840.97964 | pgbench_tellers_pkey  |           245760
 2017-02-06 02:00:40.979643+01 | 1486342840.97964 | pgbench_accounts_pkey |       2246197248

 2017-02-06 02:00:42.06997+01 | 1486342842.06997 | pgbench_branches_pkey |            40960
 2017-02-06 02:00:42.06997+01 | 1486342842.06997 | pgbench_tellers_pkey  |           245760
 2017-02-06 02:00:42.06997+01 | 1486342842.06997 | pgbench_accounts_pkey |       2246197248

 2017-02-06 02:00:43.162937+01 | 1486342843.16294 | pgbench_branches_pkey |            40960
 2017-02-06 02:00:43.162937+01 | 1486342843.16294 | pgbench_tellers_pkey  |           245760
 2017-02-06 02:00:43.162937+01 | 1486342843.16294 | pgbench_accounts_pkey |       2246197248

 2017-02-06 02:00:44.250395+01 | 1486342844.2504 | pgbench_branches_pkey |            40960
 2017-02-06 02:00:44.250395+01 | 1486342844.2504 | pgbench_tellers_pkey  |           245760
 2017-02-06 02:00:44.250395+01 | 1486342844.2504 | pgbench_accounts_pkey |       2246197248

 2017-02-06 02:00:45.346975+01 | 1486342845.34698 | pgbench_branches_pkey |            40960
 2017-02-06 02:00:45.346975+01 | 1486342845.34698 | pgbench_tellers_pkey  |           245760
 2017-02-06 02:00:45.346975+01 | 1486342845.34698 | pgbench_accounts_pkey |       2246197248

 2017-02-06 02:00:46.441582+01 | 1486342846.44158 | pgbench_branches_pkey |            40960
 2017-02-06 02:00:46.441582+01 | 1486342846.44158 | pgbench_tellers_pkey  |           245760
 2017-02-06 02:00:46.441582+01 | 1486342846.44158 | pgbench_accounts_pkey |       2246197248

 2017-02-06 02:00:47.531078+01 | 1486342847.53108 | pgbench_branches_pkey |            40960
 2017-02-06 02:00:47.531078+01 | 1486342847.53108 | pgbench_tellers_pkey  |           245760
 2017-02-06 02:00:47.531078+01 | 1486342847.53108 | pgbench_accounts_pkey |       2246197248

 2017-02-06 02:00:48.620082+01 | 1486342848.62008 | pgbench_branches_pkey |            40960
 2017-02-06 02:00:48.620082+01 | 1486342848.62008 | pgbench_tellers_pkey  |           245760
 2017-02-06 02:00:48.620082+01 | 1486342848.62008 | pgbench_accounts_pkey |       2246197248

 2017-02-06 02:00:49.711379+01 | 1486342849.71138 | pgbench_branches_pkey |            40960
 2017-02-06 02:00:49.711379+01 | 1486342849.71138 | pgbench_tellers_pkey  |           245760
 2017-02-06 02:00:49.711379+01 | 1486342849.71138 | pgbench_accounts_pkey |       2246197248

 2017-02-06 02:00:50.809145+01 | 1486342850.80914 | pgbench_branches_pkey |            40960
 2017-02-06 02:00:50.809145+01 | 1486342850.80914 | pgbench_tellers_pkey  |           245760
 2017-02-06 02:00:50.809145+01 | 1486342850.80914 | pgbench_accounts_pkey |       2246197248

 2017-02-06 02:00:51.896703+01 | 1486342851.8967 | pgbench_branches_pkey |            40960
 2017-02-06 02:00:51.896703+01 | 1486342851.8967 | pgbench_tellers_pkey  |           245760
 2017-02-06 02:00:51.896703+01 | 1486342851.8967 | pgbench_accounts_pkey |       2246197248

 2017-02-06 02:00:52.984134+01 | 1486342852.98413 | pgbench_branches_pkey |            40960
 2017-02-06 02:00:52.984134+01 | 1486342852.98413 | pgbench_tellers_pkey  |           245760
 2017-02-06 02:00:52.984134+01 | 1486342852.98413 | pgbench_accounts_pkey |       2246197248

 2017-02-06 02:00:54.075112+01 | 1486342854.07511 | pgbench_branches_pkey |            40960
 2017-02-06 02:00:54.075112+01 | 1486342854.07511 | pgbench_tellers_pkey  |           245760
 2017-02-06 02:00:54.075112+01 | 1486342854.07511 | pgbench_accounts_pkey |       2246197248

 2017-02-06 02:00:55.159325+01 | 1486342855.15932 | pgbench_branches_pkey |            40960
 2017-02-06 02:00:55.159325+01 | 1486342855.15932 | pgbench_tellers_pkey  |           245760
 2017-02-06 02:00:55.159325+01 | 1486342855.15932 | pgbench_accounts_pkey |       2246197248

 2017-02-06 02:00:56.244343+01 | 1486342856.24434 | pgbench_branches_pkey |            40960
 2017-02-06 02:00:56.244343+01 | 1486342856.24434 | pgbench_tellers_pkey  |           245760
 2017-02-06 02:00:56.244343+01 | 1486342856.24434 | pgbench_accounts_pkey |       2246197248

 2017-02-06 02:00:57.322601+01 | 1486342857.3226 | pgbench_branches_pkey |            40960
 2017-02-06 02:00:57.322601+01 | 1486342857.3226 | pgbench_tellers_pkey  |           245760
 2017-02-06 02:00:57.322601+01 | 1486342857.3226 | pgbench_accounts_pkey |       2246197248

 2017-02-06 02:00:58.414972+01 | 1486342858.41497 | pgbench_branches_pkey |            40960
 2017-02-06 02:00:58.414972+01 | 1486342858.41497 | pgbench_tellers_pkey  |           245760
 2017-02-06 02:00:58.414972+01 | 1486342858.41497 | pgbench_accounts_pkey |       2246197248

 2017-02-06 02:00:59.508359+01 | 1486342859.50836 | pgbench_branches_pkey |            40960
 2017-02-06 02:00:59.508359+01 | 1486342859.50836 | pgbench_tellers_pkey  |           245760
 2017-02-06 02:00:59.508359+01 | 1486342859.50836 | pgbench_accounts_pkey |       2246197248

 2017-02-06 02:01:00.59999+01 | 1486342860.59999 | pgbench_branches_pkey |            40960
 2017-02-06 02:01:00.59999+01 | 1486342860.59999 | pgbench_tellers_pkey  |           245760
 2017-02-06 02:01:00.59999+01 | 1486342860.59999 | pgbench_accounts_pkey |       2246197248

 2017-02-06 02:01:01.689411+01 | 1486342861.68941 | pgbench_branches_pkey |            40960
 2017-02-06 02:01:01.689411+01 | 1486342861.68941 | pgbench_tellers_pkey  |           245760
 2017-02-06 02:01:01.689411+01 | 1486342861.68941 | pgbench_accounts_pkey |       2246197248

 2017-02-06 02:01:02.770393+01 | 1486342862.77039 | pgbench_branches_pkey |            40960
 2017-02-06 02:01:02.770393+01 | 1486342862.77039 | pgbench_tellers_pkey  |           245760
 2017-02-06 02:01:02.770393+01 | 1486342862.77039 | pgbench_accounts_pkey |       2246197248

 2017-02-06 02:01:03.855361+01 | 1486342863.85536 | pgbench_branches_pkey |            40960
 2017-02-06 02:01:03.855361+01 | 1486342863.85536 | pgbench_tellers_pkey  |           245760
 2017-02-06 02:01:03.855361+01 | 1486342863.85536 | pgbench_accounts_pkey |       2246197248

 2017-02-06 02:01:04.946418+01 | 1486342864.94642 | pgbench_branches_pkey |            40960
 2017-02-06 02:01:04.946418+01 | 1486342864.94642 | pgbench_tellers_pkey  |           245760
 2017-02-06 02:01:04.946418+01 | 1486342864.94642 | pgbench_accounts_pkey |       2246197248

 2017-02-06 02:01:06.036879+01 | 1486342866.03688 | pgbench_branches_pkey |            40960
 2017-02-06 02:01:06.036879+01 | 1486342866.03688 | pgbench_tellers_pkey  |           245760
 2017-02-06 02:01:06.036879+01 | 1486342866.03688 | pgbench_accounts_pkey |       2246197248

 2017-02-06 02:01:07.128856+01 | 1486342867.12886 | pgbench_branches_pkey |            40960
 2017-02-06 02:01:07.128856+01 | 1486342867.12886 | pgbench_tellers_pkey  |           245760
 2017-02-06 02:01:07.128856+01 | 1486342867.12886 | pgbench_accounts_pkey |       2246197248

 2017-02-06 02:01:08.21944+01 | 1486342868.21944 | pgbench_branches_pkey |            40960
 2017-02-06 02:01:08.21944+01 | 1486342868.21944 | pgbench_tellers_pkey  |           245760
 2017-02-06 02:01:08.21944+01 | 1486342868.21944 | pgbench_accounts_pkey |       2246197248

 2017-02-06 02:01:09.314211+01 | 1486342869.31421 | pgbench_branches_pkey |            40960
 2017-02-06 02:01:09.314211+01 | 1486342869.31421 | pgbench_tellers_pkey  |           245760
 2017-02-06 02:01:09.314211+01 | 1486342869.31421 | pgbench_accounts_pkey |       2246197248

 2017-02-06 02:01:10.406558+01 | 1486342870.40656 | pgbench_branches_pkey |            40960
 2017-02-06 02:01:10.406558+01 | 1486342870.40656 | pgbench_tellers_pkey  |           245760
 2017-02-06 02:01:10.406558+01 | 1486342870.40656 | pgbench_accounts_pkey |       2246197248

 2017-02-06 02:01:11.495688+01 | 1486342871.49569 | pgbench_branches_pkey |            40960
 2017-02-06 02:01:11.495688+01 | 1486342871.49569 | pgbench_tellers_pkey  |           245760
 2017-02-06 02:01:11.495688+01 | 1486342871.49569 | pgbench_accounts_pkey |       2246197248

 2017-02-06 02:01:12.583338+01 | 1486342872.58334 | pgbench_branches_pkey |            40960
 2017-02-06 02:01:12.583338+01 | 1486342872.58334 | pgbench_tellers_pkey  |           245760
 2017-02-06 02:01:12.583338+01 | 1486342872.58334 | pgbench_accounts_pkey |       2246197248

