 2017-02-06 15:06:33.786673+01 | 1486389993.78667 |                 0 |              31 |                448162 |                 9014 |           25544605 |       4298714 |            42169 |        87621266 |                     0 |      91507074 | 2017-02-06 12:24:33.04114+01

 2017-02-06 15:06:34.866274+01 | 1486389994.86627 |                 0 |              31 |                448162 |                 9014 |           25544605 |       4298714 |            42169 |        87621266 |                     0 |      91515433 | 2017-02-06 12:24:33.04114+01

 2017-02-06 15:06:35.960046+01 | 1486389995.96005 |                 0 |              31 |                448162 |                 9014 |           25544605 |       4298714 |            42169 |        87621266 |                     0 |      91527570 | 2017-02-06 12:24:33.04114+01

 2017-02-06 15:06:37.039677+01 | 1486389997.03968 |                 0 |              31 |                448162 |                 9014 |           25544605 |       4298714 |            42169 |        87621266 |                     0 |      91537872 | 2017-02-06 12:24:33.04114+01

 2017-02-06 15:06:38.121947+01 | 1486389998.12195 |                 0 |              31 |                448162 |                 9014 |           25544605 |       4298714 |            42169 |        87621266 |                     0 |      91549192 | 2017-02-06 12:24:33.04114+01

 2017-02-06 15:06:39.19092+01 | 1486389999.19092 |                 0 |              31 |                448162 |                 9014 |           25544605 |       4298714 |            42169 |        87621266 |                     0 |      91566273 | 2017-02-06 12:24:33.04114+01

 2017-02-06 15:06:40.272489+01 | 1486390000.27249 |                 0 |              31 |                448162 |                 9014 |           25544605 |       4298714 |            42169 |        87621266 |                     0 |      91579903 | 2017-02-06 12:24:33.04114+01

 2017-02-06 15:06:41.36375+01 | 1486390001.36375 |                 0 |              31 |                448162 |                 9014 |           25544605 |       4298714 |            42169 |        87621266 |                     0 |      91596918 | 2017-02-06 12:24:33.04114+01

 2017-02-06 15:06:42.454956+01 | 1486390002.45496 |                 0 |              31 |                448162 |                 9014 |           25544605 |       4298714 |            42169 |        87621266 |                     0 |      91610491 | 2017-02-06 12:24:33.04114+01

 2017-02-06 15:06:43.537932+01 | 1486390003.53793 |                 0 |              31 |                448162 |                 9014 |           25544605 |       4298714 |            42169 |        87621266 |                     0 |      91624954 | 2017-02-06 12:24:33.04114+01

 2017-02-06 15:06:44.625676+01 | 1486390004.62568 |                 0 |              31 |                448162 |                 9014 |           25544605 |       4298714 |            42169 |        87621266 |                     0 |      91641324 | 2017-02-06 12:24:33.04114+01

 2017-02-06 15:06:45.70268+01 | 1486390005.70268 |                 0 |              31 |                448162 |                 9014 |           25544605 |       4298714 |            42169 |        87621266 |                     0 |      91655547 | 2017-02-06 12:24:33.04114+01

 2017-02-06 15:06:46.787749+01 | 1486390006.78775 |                 0 |              31 |                448162 |                 9014 |           25544605 |       4298743 |            42169 |        87621266 |                     0 |      91672844 | 2017-02-06 12:24:33.04114+01

 2017-02-06 15:06:47.882805+01 | 1486390007.88281 |                 0 |              31 |                448162 |                 9014 |           25544605 |       4298843 |            42169 |        87621266 |                     0 |      91686672 | 2017-02-06 12:24:33.04114+01

 2017-02-06 15:06:48.981408+01 | 1486390008.98141 |                 0 |              31 |                448162 |                 9014 |           25544605 |       4298983 |            42169 |        87621266 |                     0 |      91701385 | 2017-02-06 12:24:33.04114+01

 2017-02-06 15:06:50.073236+01 | 1486390010.07324 |                 0 |              31 |                448162 |                 9014 |           25544605 |       4299151 |            42169 |        87621266 |                     0 |      91717852 | 2017-02-06 12:24:33.04114+01

 2017-02-06 15:06:51.159443+01 | 1486390011.15944 |                 0 |              31 |                448162 |                 9014 |           25544605 |       4299289 |            42169 |        87621266 |                     0 |      91730730 | 2017-02-06 12:24:33.04114+01

 2017-02-06 15:06:52.248961+01 | 1486390012.24896 |                 0 |              31 |                448162 |                 9014 |           25544605 |       4299452 |            42169 |        87621266 |                     0 |      91745713 | 2017-02-06 12:24:33.04114+01

 2017-02-06 15:06:53.335101+01 | 1486390013.3351 |                 0 |              31 |                448162 |                 9014 |           25544605 |       4299588 |            42169 |        87621266 |                     0 |      91759145 | 2017-02-06 12:24:33.04114+01

 2017-02-06 15:06:54.431127+01 | 1486390014.43113 |                 0 |              31 |                448162 |                 9014 |           25544605 |       4299825 |            42169 |        87621266 |                     0 |      91776781 | 2017-02-06 12:24:33.04114+01

 2017-02-06 15:06:55.514816+01 | 1486390015.51482 |                 0 |              31 |                448162 |                 9014 |           25544605 |       4300010 |            42169 |        87621266 |                     0 |      91791840 | 2017-02-06 12:24:33.04114+01

 2017-02-06 15:06:56.600186+01 | 1486390016.60019 |                 0 |              31 |                448162 |                 9014 |           25544605 |       4300197 |            42169 |        87621266 |                     0 |      91805532 | 2017-02-06 12:24:33.04114+01

 2017-02-06 15:06:57.678779+01 | 1486390017.67878 |                 0 |              31 |                448162 |                 9014 |           25544605 |       4300443 |            42169 |        87621266 |                     0 |      91823584 | 2017-02-06 12:24:33.04114+01

 2017-02-06 15:06:58.779946+01 | 1486390018.77995 |                 0 |              31 |                448162 |                 9014 |           25544605 |       4300783 |            42170 |        87621266 |                     0 |      91838783 | 2017-02-06 12:24:33.04114+01

 2017-02-06 15:06:59.870501+01 | 1486390019.8705 |                 0 |              31 |                448162 |                 9014 |           25544605 |       4301383 |            42176 |        87621266 |                     0 |      91856678 | 2017-02-06 12:24:33.04114+01

 2017-02-06 15:07:00.96405+01 | 1486390020.96405 |                 0 |              31 |                448162 |                 9014 |           25544605 |       4301883 |            42181 |        87621266 |                     0 |      91871544 | 2017-02-06 12:24:33.04114+01

 2017-02-06 15:07:02.051439+01 | 1486390022.05144 |                 0 |              31 |                448162 |                 9014 |           25544605 |       4302383 |            42186 |        87621266 |                     0 |      91886754 | 2017-02-06 12:24:33.04114+01

 2017-02-06 15:07:03.134752+01 | 1486390023.13475 |                 0 |              31 |                448162 |                 9014 |           25544605 |       4302983 |            42192 |        87621266 |                     0 |      91905870 | 2017-02-06 12:24:33.04114+01

 2017-02-06 15:07:04.22308+01 | 1486390024.22308 |                 0 |              31 |                448162 |                 9014 |           25544605 |       4303483 |            42197 |        87621266 |                     0 |      91919446 | 2017-02-06 12:24:33.04114+01

 2017-02-06 15:07:05.317484+01 | 1486390025.31748 |                 0 |              31 |                448162 |                 9014 |           25544605 |       4303983 |            42202 |        87621266 |                     0 |      91934906 | 2017-02-06 12:24:33.04114+01

 2017-02-06 15:07:06.404525+01 | 1486390026.40453 |                 0 |              31 |                448162 |                 9014 |           25544605 |       4304583 |            42208 |        87621266 |                     0 |      91953352 | 2017-02-06 12:24:33.04114+01

 2017-02-06 15:07:07.496453+01 | 1486390027.49645 |                 0 |              31 |                448162 |                 9014 |           25544605 |       4305083 |            42213 |        87621266 |                     0 |      91968942 | 2017-02-06 12:24:33.04114+01

 2017-02-06 15:07:08.588229+01 | 1486390028.58823 |                 0 |              31 |                448162 |                 9014 |           25544605 |       4305683 |            42219 |        87621266 |                     0 |      91987523 | 2017-02-06 12:24:33.04114+01

 2017-02-06 15:07:09.673771+01 | 1486390029.67377 |                 0 |              31 |                448162 |                 9014 |           25544605 |       4306183 |            42224 |        87621266 |                     0 |      92002189 | 2017-02-06 12:24:33.04114+01

 2017-02-06 15:07:10.75288+01 | 1486390030.75288 |                 0 |              31 |                448162 |                 9014 |           25544605 |       4306683 |            42229 |        87621266 |                     0 |      92015908 | 2017-02-06 12:24:33.04114+01

 2017-02-06 15:07:11.833818+01 | 1486390031.83382 |                 0 |              31 |                448162 |                 9014 |           25544605 |       4307283 |            42235 |        87621266 |                     0 |      92032058 | 2017-02-06 12:24:33.04114+01

 2017-02-06 15:07:12.925082+01 | 1486390032.92508 |                 0 |              31 |                448162 |                 9014 |           25544605 |       4307783 |            42240 |        87621266 |                     0 |      92043268 | 2017-02-06 12:24:33.04114+01

 2017-02-06 15:07:14.022759+01 | 1486390034.02276 |                 0 |              31 |                448162 |                 9014 |           25544605 |       4308283 |            42245 |        87621266 |                     0 |      92057548 | 2017-02-06 12:24:33.04114+01

 2017-02-06 15:07:15.114496+01 | 1486390035.1145 |                 0 |              31 |                448162 |                 9014 |           25544605 |       4308883 |            42251 |        87621266 |                     0 |      92074106 | 2017-02-06 12:24:33.04114+01

 2017-02-06 15:07:16.202174+01 | 1486390036.20217 |                 0 |              31 |                448162 |                 9014 |           25544605 |       4309383 |            42256 |        87621266 |                     0 |      92088310 | 2017-02-06 12:24:33.04114+01

 2017-02-06 15:07:17.292433+01 | 1486390037.29243 |                 0 |              31 |                448162 |                 9014 |           25544605 |       4309983 |            42262 |        87621266 |                     0 |      92105450 | 2017-02-06 12:24:33.04114+01

 2017-02-06 15:07:18.377271+01 | 1486390038.37727 |                 0 |              31 |                448162 |                 9014 |           25544605 |       4310483 |            42267 |        87621266 |                     0 |      92117719 | 2017-02-06 12:24:33.04114+01

 2017-02-06 15:07:19.472784+01 | 1486390039.47278 |                 0 |              31 |                448162 |                 9014 |           25544605 |       4310983 |            42272 |        87621266 |                     0 |      92127744 | 2017-02-06 12:24:33.04114+01

 2017-02-06 15:07:20.572388+01 | 1486390040.57239 |                 0 |              31 |                448162 |                 9014 |           25544605 |       4311583 |            42278 |        87621266 |                     0 |      92140963 | 2017-02-06 12:24:33.04114+01

 2017-02-06 15:07:21.662948+01 | 1486390041.66295 |                 0 |              31 |                448162 |                 9014 |           25544605 |       4312083 |            42283 |        87621266 |                     0 |      92153908 | 2017-02-06 12:24:33.04114+01

 2017-02-06 15:07:22.750218+01 | 1486390042.75022 |                 0 |              31 |                448162 |                 9014 |           25544605 |       4312683 |            42289 |        87621266 |                     0 |      92171112 | 2017-02-06 12:24:33.04114+01

 2017-02-06 15:07:23.835889+01 | 1486390043.83589 |                 0 |              31 |                448162 |                 9014 |           25544605 |       4313183 |            42294 |        87621266 |                     0 |      92183150 | 2017-02-06 12:24:33.04114+01

 2017-02-06 15:07:24.92773+01 | 1486390044.92773 |                 0 |              31 |                448162 |                 9014 |           25544605 |       4313683 |            42299 |        87621266 |                     0 |      92195932 | 2017-02-06 12:24:33.04114+01

 2017-02-06 15:07:26.030458+01 | 1486390046.03046 |                 0 |              31 |                448162 |                 9014 |           25544605 |       4314283 |            42305 |        87621266 |                     0 |      92211675 | 2017-02-06 12:24:33.04114+01

 2017-02-06 15:07:27.113211+01 | 1486390047.11321 |                 0 |              31 |                448162 |                 9014 |           25544605 |       4314783 |            42310 |        87621266 |                     0 |      92224976 | 2017-02-06 12:24:33.04114+01

 2017-02-06 15:07:28.186827+01 | 1486390048.18683 |                 0 |              31 |                448162 |                 9014 |           25544605 |       4315383 |            42316 |        87621266 |                     0 |      92241096 | 2017-02-06 12:24:33.04114+01

 2017-02-06 15:07:29.289565+01 | 1486390049.28957 |                 0 |              31 |                448162 |                 9014 |           25544605 |       4315883 |            42321 |        87621266 |                     0 |      92253806 | 2017-02-06 12:24:33.04114+01

 2017-02-06 15:07:30.382465+01 | 1486390050.38246 |                 0 |              31 |                448162 |                 9014 |           25544605 |       4316383 |            42326 |        87621266 |                     0 |      92267067 | 2017-02-06 12:24:33.04114+01

 2017-02-06 15:07:31.474923+01 | 1486390051.47492 |                 0 |              31 |                448162 |                 9014 |           25544605 |       4316983 |            42332 |        87621266 |                     0 |      92283866 | 2017-02-06 12:24:33.04114+01

 2017-02-06 15:07:32.578617+01 | 1486390052.57862 |                 0 |              31 |                448162 |                 9014 |           25544605 |       4317483 |            42337 |        87621266 |                     0 |      92296335 | 2017-02-06 12:24:33.04114+01

 2017-02-06 15:07:33.671069+01 | 1486390053.67107 |                 0 |              31 |                448162 |                 9014 |           25544605 |       4318083 |            42343 |        87621266 |                     0 |      92313632 | 2017-02-06 12:24:33.04114+01

 2017-02-06 15:07:34.747997+01 | 1486390054.748 |                 0 |              31 |                448162 |                 9014 |           25544605 |       4318583 |            42348 |        87621266 |                     0 |      92327306 | 2017-02-06 12:24:33.04114+01

 2017-02-06 15:07:35.834266+01 | 1486390055.83427 |                 0 |              31 |                448162 |                 9014 |           25544605 |       4319083 |            42353 |        87621266 |                     0 |      92339724 | 2017-02-06 12:24:33.04114+01

 2017-02-06 15:07:36.921988+01 | 1486390056.92199 |                 0 |              31 |                448162 |                 9014 |           25544605 |       4319683 |            42359 |        87621266 |                     0 |      92354297 | 2017-02-06 12:24:33.04114+01

 2017-02-06 15:07:38.003192+01 | 1486390058.00319 |                 0 |              31 |                448162 |                 9014 |           25544605 |       4320183 |            42364 |        87621266 |                     0 |      92368194 | 2017-02-06 12:24:33.04114+01

 2017-02-06 15:07:39.112458+01 | 1486390059.11246 |                 0 |              31 |                448162 |                 9014 |           25544605 |       4320783 |            42370 |        87621266 |                     0 |      92383636 | 2017-02-06 12:24:33.04114+01

 2017-02-06 15:07:40.213858+01 | 1486390060.21386 |                 0 |              31 |                448162 |                 9014 |           25544605 |       4321283 |            42375 |        87621266 |                     0 |      92397215 | 2017-02-06 12:24:33.04114+01

 2017-02-06 15:07:41.312306+01 | 1486390061.31231 |                 0 |              31 |                448162 |                 9014 |           25544605 |       4321783 |            42380 |        87621266 |                     0 |      92409943 | 2017-02-06 12:24:33.04114+01

 2017-02-06 15:07:42.395567+01 | 1486390062.39557 |                 0 |              31 |                448162 |                 9014 |           25544605 |       4322383 |            42386 |        87621266 |                     0 |      92426751 | 2017-02-06 12:24:33.04114+01

 2017-02-06 15:07:43.49692+01 | 1486390063.49692 |                 0 |              31 |                448162 |                 9014 |           25544605 |       4322883 |            42391 |        87621266 |                     0 |      92439489 | 2017-02-06 12:24:33.04114+01

 2017-02-06 15:07:44.601785+01 | 1486390064.60178 |                 0 |              31 |                448162 |                 9014 |           25544605 |       4323483 |            42397 |        87621266 |                     0 |      92457582 | 2017-02-06 12:24:33.04114+01

 2017-02-06 15:07:45.691005+01 | 1486390065.691 |                 0 |              31 |                448162 |                 9014 |           25544605 |       4323983 |            42402 |        87621266 |                     0 |      92470102 | 2017-02-06 12:24:33.04114+01

 2017-02-06 15:07:46.778069+01 | 1486390066.77807 |                 0 |              31 |                448162 |                 9014 |           25544605 |       4324583 |            42408 |        88119985 |                     0 |      92487843 | 2017-02-06 12:24:33.04114+01

 2017-02-06 15:07:47.849603+01 | 1486390067.8496 |                 0 |              31 |                448162 |                 9014 |           25544605 |       4325083 |            42413 |        88119985 |                     0 |      92501610 | 2017-02-06 12:24:33.04114+01

 2017-02-06 15:07:48.926458+01 | 1486390068.92646 |                 0 |              31 |                448162 |                 9014 |           25544605 |       4325583 |            42418 |        88119985 |                     0 |      92514163 | 2017-02-06 12:24:33.04114+01

 2017-02-06 15:07:50.012314+01 | 1486390070.01231 |                 0 |              31 |                448162 |                 9014 |           25544605 |       4326183 |            42424 |        88119985 |                     0 |      92531050 | 2017-02-06 12:24:33.04114+01

 2017-02-06 15:07:51.107552+01 | 1486390071.10755 |                 0 |              31 |                448162 |                 9014 |           25544605 |       4326683 |            42429 |        88119985 |                     0 |      92542118 | 2017-02-06 12:24:33.04114+01

 2017-02-06 15:07:52.204322+01 | 1486390072.20432 |                 0 |              31 |                448162 |                 9014 |           25544605 |       4327183 |            42434 |        88119985 |                     0 |      92554883 | 2017-02-06 12:24:33.04114+01

 2017-02-06 15:07:53.292829+01 | 1486390073.29283 |                 0 |              31 |                448162 |                 9014 |           25544605 |       4327783 |            42440 |        88119985 |                     0 |      92571014 | 2017-02-06 12:24:33.04114+01

 2017-02-06 15:07:54.374834+01 | 1486390074.37483 |                 0 |              31 |                448162 |                 9014 |           25544605 |       4328283 |            42445 |        88119985 |                     0 |      92584593 | 2017-02-06 12:24:33.04114+01

 2017-02-06 15:07:55.457394+01 | 1486390075.45739 |                 0 |              31 |                448162 |                 9014 |           25544605 |       4328783 |            42450 |        88119985 |                     0 |      92596736 | 2017-02-06 12:24:33.04114+01

 2017-02-06 15:07:56.551168+01 | 1486390076.55117 |                 0 |              31 |                448162 |                 9014 |           25544605 |       4329383 |            42456 |        88119985 |                     0 |      92612033 | 2017-02-06 12:24:33.04114+01

 2017-02-06 15:07:57.639373+01 | 1486390077.63937 |                 0 |              31 |                448162 |                 9014 |           25544605 |       4329883 |            42461 |        88119985 |                     0 |      92622356 | 2017-02-06 12:24:33.04114+01

 2017-02-06 15:07:58.733205+01 | 1486390078.73321 |                 0 |              31 |                448162 |                 9014 |           25544605 |       4330483 |            42467 |        88119985 |                     0 |      92636432 | 2017-02-06 12:24:33.04114+01

 2017-02-06 15:07:59.821706+01 | 1486390079.82171 |                 0 |              31 |                448162 |                 9014 |           25544605 |       4330983 |            42472 |        88119985 |                     0 |      92648516 | 2017-02-06 12:24:33.04114+01

 2017-02-06 15:08:00.895319+01 | 1486390080.89532 |                 0 |              31 |                448162 |                 9014 |           25544605 |       4331483 |            42477 |        88119985 |                     0 |      92660416 | 2017-02-06 12:24:33.04114+01

 2017-02-06 15:08:01.972484+01 | 1486390081.97248 |                 0 |              31 |                448162 |                 9014 |           25544605 |       4332083 |            42483 |        88119985 |                     0 |      92672124 | 2017-02-06 12:24:33.04114+01

 2017-02-06 15:08:03.048737+01 | 1486390083.04874 |                 0 |              31 |                448162 |                 9014 |           25544605 |       4332583 |            42488 |        88119985 |                     0 |      92683726 | 2017-02-06 12:24:33.04114+01

 2017-02-06 15:08:04.129481+01 | 1486390084.12948 |                 0 |              31 |                448162 |                 9014 |           25544605 |       4333083 |            42493 |        88119985 |                     0 |      92693543 | 2017-02-06 12:24:33.04114+01

 2017-02-06 15:08:05.21781+01 | 1486390085.21781 |                 0 |              31 |                448162 |                 9014 |           25544605 |       4333683 |            42499 |        88119985 |                     0 |      92709995 | 2017-02-06 12:24:33.04114+01

 2017-02-06 15:08:06.302148+01 | 1486390086.30215 |                 0 |              31 |                448162 |                 9014 |           25544605 |       4334183 |            42504 |        88119985 |                     0 |      92723319 | 2017-02-06 12:24:33.04114+01

 2017-02-06 15:08:07.398223+01 | 1486390087.39822 |                 0 |              31 |                448162 |                 9014 |           25544605 |       4334683 |            42509 |        88119985 |                     0 |      92736346 | 2017-02-06 12:24:33.04114+01

 2017-02-06 15:08:08.502468+01 | 1486390088.50247 |                 0 |              31 |                448162 |                 9014 |           25544605 |       4335283 |            42515 |        88119985 |                     0 |      92751452 | 2017-02-06 12:24:33.04114+01

 2017-02-06 15:08:09.583384+01 | 1486390089.58338 |                 0 |              31 |                448162 |                 9014 |           25544605 |       4335783 |            42520 |        88119985 |                     0 |      92765213 | 2017-02-06 12:24:33.04114+01

 2017-02-06 15:08:10.667038+01 | 1486390090.66704 |                 0 |              31 |                448162 |                 9014 |           25544605 |       4336383 |            42526 |        88119985 |                     0 |      92779959 | 2017-02-06 12:24:33.04114+01

 2017-02-06 15:08:11.757076+01 | 1486390091.75708 |                 0 |              31 |                448162 |                 9014 |           25544605 |       4336883 |            42531 |        88119985 |                     0 |      92792841 | 2017-02-06 12:24:33.04114+01

 2017-02-06 15:08:12.833788+01 | 1486390092.83379 |                 0 |              31 |                448162 |                 9014 |           25544605 |       4337383 |            42536 |        88119985 |                     0 |      92807328 | 2017-02-06 12:24:33.04114+01

 2017-02-06 15:08:13.918054+01 | 1486390093.91805 |                 0 |              31 |                448162 |                 9014 |           25544605 |       4337983 |            42542 |        88119985 |                     0 |      92822211 | 2017-02-06 12:24:33.04114+01

 2017-02-06 15:08:14.998425+01 | 1486390094.99843 |                 0 |              31 |                448162 |                 9014 |           25544605 |       4338483 |            42547 |        88119985 |                     0 |      92830521 | 2017-02-06 12:24:33.04114+01

 2017-02-06 15:08:16.066606+01 | 1486390096.06661 |                 0 |              31 |                448162 |                 9014 |           25544605 |       4338983 |            42552 |        88119985 |                     0 |      92842980 | 2017-02-06 12:24:33.04114+01

 2017-02-06 15:08:17.144609+01 | 1486390097.14461 |                 0 |              31 |                448162 |                 9014 |           25544605 |       4339583 |            42558 |        88119985 |                     0 |      92854666 | 2017-02-06 12:24:33.04114+01

 2017-02-06 15:08:18.221771+01 | 1486390098.22177 |                 0 |              31 |                448162 |                 9014 |           25544605 |       4340083 |            42563 |        88119985 |                     0 |      92866467 | 2017-02-06 12:24:33.04114+01

 2017-02-06 15:08:19.301749+01 | 1486390099.30175 |                 0 |              31 |                448162 |                 9014 |           25544605 |       4340583 |            42568 |        88119985 |                     0 |      92875735 | 2017-02-06 12:24:33.04114+01

 2017-02-06 15:08:20.393661+01 | 1486390100.39366 |                 0 |              31 |                448162 |                 9014 |           25544605 |       4341183 |            42574 |        88119985 |                     0 |      92884348 | 2017-02-06 12:24:33.04114+01

 2017-02-06 15:08:21.478218+01 | 1486390101.47822 |                 0 |              31 |                448162 |                 9014 |           25544605 |       4341683 |            42579 |        88119985 |                     0 |      92898280 | 2017-02-06 12:24:33.04114+01

 2017-02-06 15:08:22.573167+01 | 1486390102.57317 |                 0 |              31 |                448162 |                 9014 |           25544605 |       4342283 |            42585 |        88119985 |                     0 |      92908948 | 2017-02-06 12:24:33.04114+01

 2017-02-06 15:08:23.652726+01 | 1486390103.65273 |                 0 |              31 |                448162 |                 9014 |           25544605 |       4342783 |            42590 |        88119985 |                     0 |      92920496 | 2017-02-06 12:24:33.04114+01

 2017-02-06 15:08:24.74642+01 | 1486390104.74642 |                 0 |              31 |                448162 |                 9014 |           25544605 |       4343283 |            42595 |        88119985 |                     0 |      92930605 | 2017-02-06 12:24:33.04114+01

 2017-02-06 15:08:25.845462+01 | 1486390105.84546 |                 0 |              31 |                448162 |                 9014 |           25544605 |       4343883 |            42601 |        88119985 |                     0 |      92945505 | 2017-02-06 12:24:33.04114+01

 2017-02-06 15:08:26.923962+01 | 1486390106.92396 |                 0 |              31 |                448162 |                 9014 |           25544605 |       4344383 |            42606 |        88624628 |                     0 |      92958957 | 2017-02-06 12:24:33.04114+01

 2017-02-06 15:08:28.022086+01 | 1486390108.02209 |                 0 |              31 |                448162 |                 9014 |           25544605 |       4344883 |            42611 |        88624628 |                     0 |      92972554 | 2017-02-06 12:24:33.04114+01

 2017-02-06 15:08:29.114891+01 | 1486390109.11489 |                 0 |              31 |                448162 |                 9014 |           25544605 |       4345483 |            42617 |        88624628 |                     0 |      92987183 | 2017-02-06 12:24:33.04114+01

 2017-02-06 15:08:30.195347+01 | 1486390110.19535 |                 0 |              31 |                448162 |                 9014 |           25544605 |       4345983 |            42622 |        88624628 |                     0 |      93000851 | 2017-02-06 12:24:33.04114+01

 2017-02-06 15:08:31.259025+01 | 1486390111.25903 |                 0 |              31 |                448162 |                 9014 |           25544605 |       4346583 |            42628 |        88624628 |                     0 |      93016499 | 2017-02-06 12:24:33.04114+01

 2017-02-06 15:08:32.344749+01 | 1486390112.34475 |                 0 |              31 |                448162 |                 9014 |           25544605 |       4347083 |            42633 |        88624628 |                     0 |      93028670 | 2017-02-06 12:24:33.04114+01

 2017-02-06 15:08:33.433503+01 | 1486390113.4335 |                 0 |              31 |                448162 |                 9014 |           25544605 |       4347583 |            42638 |        88624628 |                     0 |      93041947 | 2017-02-06 12:24:33.04114+01

 2017-02-06 15:08:34.517673+01 | 1486390114.51767 |                 0 |              31 |                448162 |                 9014 |           25544605 |       4348183 |            42644 |        88624628 |                     0 |      93057672 | 2017-02-06 12:24:33.04114+01

 2017-02-06 15:08:35.614969+01 | 1486390115.61497 |                 0 |              31 |                448162 |                 9014 |           25544605 |       4348683 |            42649 |        88624628 |                     0 |      93069164 | 2017-02-06 12:24:33.04114+01

 2017-02-06 15:08:36.708737+01 | 1486390116.70874 |                 0 |              31 |                448162 |                 9014 |           25544605 |       4349183 |            42654 |        88624628 |                     0 |      93082422 | 2017-02-06 12:24:33.04114+01

 2017-02-06 15:08:37.76565+01 | 1486390117.76565 |                 0 |              31 |                448162 |                 9014 |           25544605 |       4349583 |            42658 |        88624628 |                     0 |      93093016 | 2017-02-06 12:24:33.04114+01

 2017-02-06 15:08:38.820171+01 | 1486390118.82017 |                 0 |              31 |                448162 |                 9014 |           25544605 |       4350283 |            42665 |        88624628 |                     0 |      93110662 | 2017-02-06 12:24:33.04114+01

 2017-02-06 15:08:39.898653+01 | 1486390119.89865 |                 0 |              31 |                448162 |                 9014 |           25544605 |       4350683 |            42669 |        88624628 |                     0 |      93119154 | 2017-02-06 12:24:33.04114+01

 2017-02-06 15:08:40.980199+01 | 1486390120.9802 |                 0 |              31 |                448162 |                 9014 |           25544605 |       4351383 |            42676 |        88624628 |                     0 |      93133824 | 2017-02-06 12:24:33.04114+01

 2017-02-06 15:08:42.065097+01 | 1486390122.0651 |                 0 |              31 |                448162 |                 9014 |           25544605 |       4351883 |            42681 |        88624628 |                     0 |      93145091 | 2017-02-06 12:24:33.04114+01

 2017-02-06 15:08:43.141662+01 | 1486390123.14166 |                 0 |              31 |                448162 |                 9014 |           25544605 |       4352383 |            42686 |        88624628 |                     0 |      93156965 | 2017-02-06 12:24:33.04114+01

 2017-02-06 15:08:44.228055+01 | 1486390124.22806 |                 0 |              31 |                448162 |                 9014 |           25544605 |       4352983 |            42692 |        88624628 |                     0 |      93171181 | 2017-02-06 12:24:33.04114+01

 2017-02-06 15:08:45.308992+01 | 1486390125.30899 |                 0 |              31 |                448162 |                 9014 |           25544605 |       4353483 |            42697 |        88624628 |                     0 |      93183949 | 2017-02-06 12:24:33.04114+01

 2017-02-06 15:08:46.37953+01 | 1486390126.37953 |                 0 |              31 |                448162 |                 9014 |           25544605 |       4353983 |            42702 |        88624628 |                     0 |      93196857 | 2017-02-06 12:24:33.04114+01

 2017-02-06 15:08:47.450693+01 | 1486390127.45069 |                 0 |              31 |                448162 |                 9014 |           25544605 |       4354583 |            42708 |        88624628 |                     0 |      93211779 | 2017-02-06 12:24:33.04114+01

 2017-02-06 15:08:48.548441+01 | 1486390128.54844 |                 0 |              31 |                448162 |                 9014 |           25544605 |       4355083 |            42713 |        88624628 |                     0 |      93223952 | 2017-02-06 12:24:33.04114+01

 2017-02-06 15:08:49.638418+01 | 1486390129.63842 |                 0 |              31 |                448162 |                 9014 |           25544605 |       4355583 |            42718 |        88624628 |                     0 |      93235563 | 2017-02-06 12:24:33.04114+01

 2017-02-06 15:08:50.719557+01 | 1486390130.71956 |                 0 |              31 |                448162 |                 9014 |           25544605 |       4356183 |            42724 |        88624628 |                     0 |      93250612 | 2017-02-06 12:24:33.04114+01

 2017-02-06 15:08:51.801686+01 | 1486390131.80169 |                 0 |              31 |                448162 |                 9014 |           25544605 |       4356683 |            42729 |        88624628 |                     0 |      93263695 | 2017-02-06 12:24:33.04114+01

 2017-02-06 15:08:52.895832+01 | 1486390132.89583 |                 0 |              31 |                448162 |                 9014 |           25544605 |       4357283 |            42735 |        88624628 |                     0 |      93278179 | 2017-02-06 12:24:33.04114+01

 2017-02-06 15:08:53.9849+01 | 1486390133.9849 |                 0 |              31 |                448162 |                 9014 |           25544605 |       4357783 |            42740 |        88624628 |                     0 |      93291643 | 2017-02-06 12:24:33.04114+01

 2017-02-06 15:08:55.065836+01 | 1486390135.06584 |                 0 |              31 |                448162 |                 9014 |           25544605 |       4358283 |            42745 |        88624628 |                     0 |      93304446 | 2017-02-06 12:24:33.04114+01

 2017-02-06 15:08:56.146069+01 | 1486390136.14607 |                 0 |              31 |                448162 |                 9014 |           25544605 |       4358883 |            42751 |        88624628 |                     0 |      93319857 | 2017-02-06 12:24:33.04114+01

 2017-02-06 15:08:57.225113+01 | 1486390137.22511 |                 0 |              31 |                448162 |                 9014 |           25544605 |       4359383 |            42756 |        88624628 |                     0 |      93333940 | 2017-02-06 12:24:33.04114+01

 2017-02-06 15:08:58.303377+01 | 1486390138.30338 |                 0 |              31 |                448162 |                 9014 |           25544605 |       4359883 |            42761 |        88624628 |                     0 |      93347765 | 2017-02-06 12:24:33.04114+01

 2017-02-06 15:08:59.385089+01 | 1486390139.38509 |                 0 |              31 |                448162 |                 9014 |           25544605 |       4360483 |            42767 |        88624628 |                     0 |      93362459 | 2017-02-06 12:24:33.04114+01

 2017-02-06 15:09:00.472154+01 | 1486390140.47215 |                 0 |              31 |                448162 |                 9014 |           25544605 |       4360983 |            42772 |        88624628 |                     0 |      93376016 | 2017-02-06 12:24:33.04114+01

 2017-02-06 15:09:01.540101+01 | 1486390141.5401 |                 0 |              31 |                448162 |                 9014 |           25544605 |       4361483 |            42777 |        88624628 |                     0 |      93389476 | 2017-02-06 12:24:33.04114+01

 2017-02-06 15:09:02.635037+01 | 1486390142.63504 |                 0 |              31 |                448162 |                 9014 |           25544605 |       4362083 |            42783 |        88624628 |                     0 |      93404373 | 2017-02-06 12:24:33.04114+01

 2017-02-06 15:09:03.726457+01 | 1486390143.72646 |                 0 |              31 |                448162 |                 9014 |           25544605 |       4362583 |            42788 |        88624628 |                     0 |      93417939 | 2017-02-06 12:24:33.04114+01

 2017-02-06 15:09:04.825474+01 | 1486390144.82547 |                 0 |              31 |                448162 |                 9014 |           25544605 |       4363183 |            42794 |        89130165 |                     0 |      93433013 | 2017-02-06 12:24:33.04114+01

 2017-02-06 15:09:05.921861+01 | 1486390145.92186 |                 0 |              31 |                448162 |                 9014 |           25544605 |       4363683 |            42799 |        89130165 |                     0 |      93446177 | 2017-02-06 12:24:33.04114+01

 2017-02-06 15:09:07.013045+01 | 1486390147.01305 |                 0 |              31 |                448162 |                 9014 |           25544605 |       4364283 |            42805 |        89130165 |                     0 |      93462574 | 2017-02-06 12:24:33.04114+01

 2017-02-06 15:09:08.092671+01 | 1486390148.09267 |                 0 |              31 |                448162 |                 9014 |           25544605 |       4364783 |            42810 |        89130165 |                     0 |      93474860 | 2017-02-06 12:24:33.04114+01

 2017-02-06 15:09:09.171282+01 | 1486390149.17128 |                 0 |              31 |                448162 |                 9014 |           25544605 |       4365283 |            42815 |        89130165 |                     0 |      93488956 | 2017-02-06 12:24:33.04114+01

 2017-02-06 15:09:10.248823+01 | 1486390150.24882 |                 0 |              31 |                448162 |                 9014 |           25544605 |       4365883 |            42821 |        89130165 |                     0 |      93505029 | 2017-02-06 12:24:33.04114+01

 2017-02-06 15:09:11.33642+01 | 1486390151.33642 |                 0 |              31 |                448162 |                 9014 |           25544605 |       4366383 |            42826 |        89130165 |                     0 |      93517872 | 2017-02-06 12:24:33.04114+01

 2017-02-06 15:09:12.416748+01 | 1486390152.41675 |                 0 |              31 |                448162 |                 9014 |           25544605 |       4366883 |            42831 |        89130165 |                     0 |      93531221 | 2017-02-06 12:24:33.04114+01

 2017-02-06 15:09:13.506426+01 | 1486390153.50643 |                 0 |              31 |                448162 |                 9014 |           25544605 |       4367483 |            42837 |        89130165 |                     0 |      93544447 | 2017-02-06 12:24:33.04114+01

 2017-02-06 15:09:14.589086+01 | 1486390154.58909 |                 0 |              31 |                448162 |                 9014 |           25544605 |       4367983 |            42842 |        89130165 |                     0 |      93555585 | 2017-02-06 12:24:33.04114+01

 2017-02-06 15:09:15.67131+01 | 1486390155.67131 |                 0 |              31 |                448162 |                 9014 |           25544605 |       4368483 |            42847 |        89130165 |                     0 |      93565885 | 2017-02-06 12:24:33.04114+01

 2017-02-06 15:09:16.765458+01 | 1486390156.76546 |                 0 |              31 |                448162 |                 9014 |           25544605 |       4369083 |            42853 |        89130165 |                     0 |      93578453 | 2017-02-06 12:24:33.04114+01

 2017-02-06 15:09:17.857963+01 | 1486390157.85796 |                 0 |              31 |                448162 |                 9014 |           25544605 |       4369583 |            42858 |        89130165 |                     0 |      93588719 | 2017-02-06 12:24:33.04114+01

 2017-02-06 15:09:18.928966+01 | 1486390158.92897 |                 0 |              31 |                448162 |                 9014 |           25544605 |       4370183 |            42864 |        89130165 |                     0 |      93603085 | 2017-02-06 12:24:33.04114+01

 2017-02-06 15:09:20.027442+01 | 1486390160.02744 |                 0 |              31 |                448162 |                 9014 |           25544605 |       4370683 |            42869 |        89130165 |                     0 |      93612650 | 2017-02-06 12:24:33.04114+01

 2017-02-06 15:09:21.112033+01 | 1486390161.11203 |                 0 |              31 |                448162 |                 9014 |           25544605 |       4371183 |            42874 |        89130165 |                     0 |      93626304 | 2017-02-06 12:24:33.04114+01

 2017-02-06 15:09:22.191776+01 | 1486390162.19178 |                 0 |              31 |                448162 |                 9014 |           25544605 |       4371783 |            42880 |        89130165 |                     0 |      93641681 | 2017-02-06 12:24:33.04114+01

 2017-02-06 15:09:23.269314+01 | 1486390163.26931 |                 0 |              31 |                448162 |                 9014 |           25544605 |       4372283 |            42885 |        89130165 |                     0 |      93655500 | 2017-02-06 12:24:33.04114+01

 2017-02-06 15:09:24.350955+01 | 1486390164.35096 |                 0 |              31 |                448162 |                 9014 |           25544605 |       4372783 |            42890 |        89130165 |                     0 |      93667671 | 2017-02-06 12:24:33.04114+01

 2017-02-06 15:09:25.429295+01 | 1486390165.4293 |                 0 |              31 |                448162 |                 9014 |           25544605 |       4373383 |            42896 |        89130165 |                     0 |      93684554 | 2017-02-06 12:24:33.04114+01

 2017-02-06 15:09:26.518022+01 | 1486390166.51802 |                 0 |              31 |                448162 |                 9014 |           25544605 |       4373883 |            42901 |        89130165 |                     0 |      93698372 | 2017-02-06 12:24:33.04114+01

 2017-02-06 15:09:27.604703+01 | 1486390167.6047 |                 0 |              31 |                448162 |                 9014 |           25544605 |       4374383 |            42906 |        89130165 |                     0 |      93711379 | 2017-02-06 12:24:33.04114+01

 2017-02-06 15:09:28.690134+01 | 1486390168.69013 |                 0 |              31 |                448162 |                 9014 |           25544605 |       4374983 |            42912 |        89130165 |                     0 |      93727185 | 2017-02-06 12:24:33.04114+01

 2017-02-06 15:09:29.77866+01 | 1486390169.77866 |                 0 |              31 |                448162 |                 9014 |           25544605 |       4375483 |            42917 |        89130165 |                     0 |      93740011 | 2017-02-06 12:24:33.04114+01

 2017-02-06 15:09:30.866623+01 | 1486390170.86662 |                 0 |              31 |                448162 |                 9014 |           25544605 |       4376083 |            42923 |        89130165 |                     0 |      93755167 | 2017-02-06 12:24:33.04114+01

 2017-02-06 15:09:31.942875+01 | 1486390171.94287 |                 0 |              31 |                448162 |                 9014 |           25544605 |       4376583 |            42928 |        89130165 |                     0 |      93769107 | 2017-02-06 12:24:33.04114+01

 2017-02-06 15:09:33.032871+01 | 1486390173.03287 |                 0 |              31 |                448162 |                 9014 |           25544605 |       4377083 |            42933 |        89130165 |                     0 |      93782226 | 2017-02-06 12:24:33.04114+01

 2017-02-06 15:09:34.120973+01 | 1486390174.12097 |                 0 |              31 |                448162 |                 9014 |           25544605 |       4377683 |            42939 |        89130165 |                     0 |      93798798 | 2017-02-06 12:24:33.04114+01

 2017-02-06 15:09:35.199943+01 | 1486390175.19994 |                 0 |              31 |                448162 |                 9014 |           25544605 |       4378183 |            42944 |        89130165 |                     0 |      93811823 | 2017-02-06 12:24:33.04114+01

 2017-02-06 15:09:36.279195+01 | 1486390176.2792 |                 0 |              31 |                448162 |                 9014 |           25544605 |       4378683 |            42949 |        89130165 |                     0 |      93825332 | 2017-02-06 12:24:33.04114+01

 2017-02-06 15:09:37.359803+01 | 1486390177.3598 |                 0 |              31 |                448162 |                 9014 |           25544605 |       4379283 |            42955 |        89130165 |                     0 |      93839870 | 2017-02-06 12:24:33.04114+01

 2017-02-06 15:09:38.435042+01 | 1486390178.43504 |                 0 |              31 |                448162 |                 9014 |           25544605 |       4379783 |            42960 |        89130165 |                     0 |      93854121 | 2017-02-06 12:24:33.04114+01

 2017-02-06 15:09:39.506093+01 | 1486390179.50609 |                 0 |              31 |                448162 |                 9014 |           25544605 |       4380283 |            42965 |        89130165 |                     0 |      93867290 | 2017-02-06 12:24:33.04114+01

 2017-02-06 15:09:40.593256+01 | 1486390180.59326 |                 0 |              31 |                448162 |                 9014 |           25544605 |       4380883 |            42971 |        89130165 |                     0 |      93884243 | 2017-02-06 12:24:33.04114+01

 2017-02-06 15:09:41.65955+01 | 1486390181.65955 |                 0 |              31 |                448162 |                 9014 |           25544605 |       4381383 |            42976 |        89635954 |                     0 |      93898284 | 2017-02-06 12:24:33.04114+01

 2017-02-06 15:09:42.745031+01 | 1486390182.74503 |                 0 |              31 |                448162 |                 9014 |           25544605 |       4381883 |            42981 |        89635954 |                     0 |      93911762 | 2017-02-06 12:24:33.04114+01

 2017-02-06 15:09:43.847304+01 | 1486390183.8473 |                 0 |              31 |                448162 |                 9014 |           25544605 |       4382483 |            42987 |        89635954 |                     0 |      93928369 | 2017-02-06 12:24:33.04114+01

 2017-02-06 15:09:44.940291+01 | 1486390184.94029 |                 0 |              31 |                448162 |                 9014 |           25544605 |       4382983 |            42992 |        89635954 |                     0 |      93942675 | 2017-02-06 12:24:33.04114+01

 2017-02-06 15:09:46.036981+01 | 1486390186.03698 |                 0 |              31 |                448162 |                 9014 |           25544605 |       4383583 |            42998 |        89635954 |                     0 |      93958765 | 2017-02-06 12:24:33.04114+01

 2017-02-06 15:09:47.120736+01 | 1486390187.12074 |                 0 |              31 |                448162 |                 9014 |           25544605 |       4384083 |            43003 |        89635954 |                     0 |      93971613 | 2017-02-06 12:24:33.04114+01

 2017-02-06 15:09:48.199717+01 | 1486390188.19972 |                 0 |              31 |                448162 |                 9014 |           25544605 |       4384583 |            43008 |        89635954 |                     0 |      93985426 | 2017-02-06 12:24:33.04114+01

 2017-02-06 15:09:49.280892+01 | 1486390189.28089 |                 0 |              31 |                448162 |                 9014 |           25544605 |       4385183 |            43014 |        89635954 |                     0 |      94002050 | 2017-02-06 12:24:33.04114+01

 2017-02-06 15:09:50.365894+01 | 1486390190.36589 |                 0 |              31 |                448162 |                 9014 |           25544605 |       4385683 |            43019 |        89635954 |                     0 |      94016093 | 2017-02-06 12:24:33.04114+01

 2017-02-06 15:09:51.461158+01 | 1486390191.46116 |                 0 |              31 |                448162 |                 9014 |           25544605 |       4386183 |            43024 |        89635954 |                     0 |      94027051 | 2017-02-06 12:24:33.04114+01

 2017-02-06 15:09:52.538147+01 | 1486390192.53815 |                 0 |              31 |                448162 |                 9014 |           25544605 |       4386783 |            43030 |        89635954 |                     0 |      94041785 | 2017-02-06 12:24:33.04114+01

 2017-02-06 15:09:53.629559+01 | 1486390193.62956 |                 0 |              31 |                448162 |                 9014 |           25544605 |       4387283 |            43035 |        89635954 |                     0 |      94051044 | 2017-02-06 12:24:33.04114+01

 2017-02-06 15:09:54.718025+01 | 1486390194.71802 |                 0 |              31 |                448162 |                 9014 |           25544605 |       4387883 |            43041 |        89635954 |                     0 |      94065629 | 2017-02-06 12:24:33.04114+01

 2017-02-06 15:09:55.810219+01 | 1486390195.81022 |                 0 |              31 |                448162 |                 9014 |           25544605 |       4388383 |            43046 |        89635954 |                     0 |      94075343 | 2017-02-06 12:24:33.04114+01

 2017-02-06 15:09:56.878033+01 | 1486390196.87803 |                 0 |              31 |                448162 |                 9014 |           25544605 |       4388883 |            43051 |        89635954 |                     0 |      94087904 | 2017-02-06 12:24:33.04114+01

 2017-02-06 15:09:57.971379+01 | 1486390197.97138 |                 0 |              31 |                448162 |                 9014 |           25544605 |       4389483 |            43057 |        89635954 |                     0 |      94103829 | 2017-02-06 12:24:33.04114+01

 2017-02-06 15:09:59.051359+01 | 1486390199.05136 |                 0 |              31 |                448162 |                 9014 |           25544605 |       4389983 |            43062 |        89635954 |                     0 |      94117820 | 2017-02-06 12:24:33.04114+01

 2017-02-06 15:10:00.138849+01 | 1486390200.13885 |                 0 |              31 |                448162 |                 9014 |           25544605 |       4390483 |            43067 |        89635954 |                     0 |      94130866 | 2017-02-06 12:24:33.04114+01

 2017-02-06 15:10:01.218949+01 | 1486390201.21895 |                 0 |              31 |                448162 |                 9014 |           25544605 |       4391083 |            43073 |        89635954 |                     0 |      94148141 | 2017-02-06 12:24:33.04114+01

 2017-02-06 15:10:02.303269+01 | 1486390202.30327 |                 0 |              31 |                448162 |                 9014 |           25544605 |       4391583 |            43078 |        89635954 |                     0 |      94160349 | 2017-02-06 12:24:33.04114+01

 2017-02-06 15:10:03.386761+01 | 1486390203.38676 |                 0 |              31 |                448162 |                 9014 |           25544605 |       4392183 |            43084 |        89635954 |                     0 |      94177184 | 2017-02-06 12:24:33.04114+01

 2017-02-06 15:10:04.463484+01 | 1486390204.46348 |                 0 |              31 |                448162 |                 9014 |           25544605 |       4392683 |            43089 |        89635954 |                     0 |      94190448 | 2017-02-06 12:24:33.04114+01

 2017-02-06 15:10:05.540533+01 | 1486390205.54053 |                 0 |              31 |                448162 |                 9014 |           25544605 |       4393183 |            43094 |        89635954 |                     0 |      94201609 | 2017-02-06 12:24:33.04114+01

 2017-02-06 15:10:06.621575+01 | 1486390206.62158 |                 0 |              31 |                448162 |                 9014 |           25544605 |       4393683 |            43099 |        89635954 |                     0 |      94211653 | 2017-02-06 12:24:33.04114+01

 2017-02-06 15:10:07.709853+01 | 1486390207.70985 |                 0 |              31 |                448162 |                 9014 |           25544605 |       4394283 |            43105 |        89635954 |                     0 |      94225664 | 2017-02-06 12:24:33.04114+01

 2017-02-06 15:10:08.7949+01 | 1486390208.7949 |                 0 |              31 |                448162 |                 9014 |           25544605 |       4394783 |            43110 |        89635954 |                     0 |      94238321 | 2017-02-06 12:24:33.04114+01

 2017-02-06 15:10:09.876174+01 | 1486390209.87617 |                 0 |              31 |                448162 |                 9014 |           25544605 |       4395383 |            43116 |        89635954 |                     0 |      94253994 | 2017-02-06 12:24:33.04114+01

 2017-02-06 15:10:10.947769+01 | 1486390210.94777 |                 0 |              31 |                448162 |                 9014 |           25544605 |       4395883 |            43121 |        89635954 |                     0 |      94268064 | 2017-02-06 12:24:33.04114+01

 2017-02-06 15:10:12.042003+01 | 1486390212.042 |                 0 |              31 |                448162 |                 9014 |           25544605 |       4396383 |            43126 |        89635954 |                     0 |      94280992 | 2017-02-06 12:24:33.04114+01

 2017-02-06 15:10:13.147052+01 | 1486390213.14705 |                 0 |              31 |                448162 |                 9014 |           25544605 |       4396983 |            43132 |        89635954 |                     0 |      94297055 | 2017-02-06 12:24:33.04114+01

 2017-02-06 15:10:14.233593+01 | 1486390214.23359 |                 0 |              31 |                448162 |                 9014 |           25544605 |       4397483 |            43137 |        89635954 |                     0 |      94311408 | 2017-02-06 12:24:33.04114+01

 2017-02-06 15:10:15.320617+01 | 1486390215.32062 |                 0 |              31 |                448162 |                 9014 |           25544605 |       4398083 |            43143 |        89635954 |                     0 |      94326856 | 2017-02-06 12:24:33.04114+01

 2017-02-06 15:10:16.409143+01 | 1486390216.40914 |                 0 |              31 |                448162 |                 9014 |           25544605 |       4398583 |            43148 |        89635954 |                     0 |      94340636 | 2017-02-06 12:24:33.04114+01

 2017-02-06 15:10:17.488487+01 | 1486390217.48849 |                 0 |              31 |                448162 |                 9014 |           25544605 |       4399083 |            43153 |        89635954 |                     0 |      94353910 | 2017-02-06 12:24:33.04114+01

 2017-02-06 15:10:18.574018+01 | 1486390218.57402 |                 0 |              31 |                448162 |                 9014 |           25544605 |       4399683 |            43159 |        90141842 |                     0 |      94370378 | 2017-02-06 12:24:33.04114+01

 2017-02-06 15:10:19.656386+01 | 1486390219.65639 |                 0 |              31 |                448162 |                 9014 |           25544605 |       4400183 |            43164 |        90141842 |                     0 |      94384224 | 2017-02-06 12:24:33.04114+01

 2017-02-06 15:10:20.741551+01 | 1486390220.74155 |                 0 |              31 |                448162 |                 9014 |           25544605 |       4400683 |            43169 |        90141842 |                     0 |      94398036 | 2017-02-06 12:24:33.04114+01

 2017-02-06 15:10:21.845188+01 | 1486390221.84519 |                 0 |              31 |                448162 |                 9014 |           25544605 |       4401283 |            43175 |        90141842 |                     0 |      94414222 | 2017-02-06 12:24:33.04114+01

 2017-02-06 15:10:22.930912+01 | 1486390222.93091 |                 0 |              31 |                448162 |                 9014 |           25544605 |       4401783 |            43180 |        90141842 |                     0 |      94429226 | 2017-02-06 12:24:33.04114+01

 2017-02-06 15:10:24.007022+01 | 1486390224.00702 |                 0 |              31 |                448162 |                 9014 |           25544605 |       4402383 |            43186 |        90141842 |                     0 |      94446566 | 2017-02-06 12:24:33.04114+01

 2017-02-06 15:10:25.095465+01 | 1486390225.09546 |                 0 |              31 |                448162 |                 9014 |           25544605 |       4402883 |            43191 |        90141842 |                     0 |      94459081 | 2017-02-06 12:24:33.04114+01

 2017-02-06 15:10:26.190434+01 | 1486390226.19043 |                 0 |              31 |                448162 |                 9014 |           25544605 |       4403383 |            43196 |        90141842 |                     0 |      94473754 | 2017-02-06 12:24:33.04114+01

 2017-02-06 15:10:27.275894+01 | 1486390227.27589 |                 0 |              31 |                448162 |                 9014 |           25544605 |       4403983 |            43202 |        90141842 |                     0 |      94489436 | 2017-02-06 12:24:33.04114+01

 2017-02-06 15:10:28.362672+01 | 1486390228.36267 |                 0 |              31 |                448162 |                 9014 |           25544605 |       4404483 |            43207 |        90141842 |                     0 |      94503668 | 2017-02-06 12:24:33.04114+01

 2017-02-06 15:10:29.445788+01 | 1486390229.44579 |                 0 |              31 |                448162 |                 9014 |           25544605 |       4404983 |            43212 |        90141842 |                     0 |      94518732 | 2017-02-06 12:24:33.04114+01

 2017-02-06 15:10:30.534199+01 | 1486390230.5342 |                 0 |              31 |                448162 |                 9014 |           25544605 |       4405583 |            43218 |        90141842 |                     0 |      94534954 | 2017-02-06 12:24:33.04114+01

 2017-02-06 15:10:31.610503+01 | 1486390231.6105 |                 0 |              31 |                448162 |                 9014 |           25544605 |       4406083 |            43223 |        90141842 |                     0 |      94548248 | 2017-02-06 12:24:33.04114+01

 2017-02-06 15:10:32.702812+01 | 1486390232.70281 |                 0 |              31 |                448162 |                 9014 |           25544605 |       4406683 |            43229 |        90141842 |                     0 |      94565008 | 2017-02-06 12:24:33.04114+01

 2017-02-06 15:10:33.790389+01 | 1486390233.79039 |                 0 |              31 |                448162 |                 9014 |           25544605 |       4407183 |            43234 |        90141842 |                     0 |      94577763 | 2017-02-06 12:24:33.04114+01

 2017-02-06 15:10:34.878463+01 | 1486390234.87846 |                 0 |              31 |                448162 |                 9014 |           25544605 |       4407683 |            43239 |        90141842 |                     0 |      94591671 | 2017-02-06 12:24:33.04114+01

 2017-02-06 15:10:35.970815+01 | 1486390235.97081 |                 0 |              31 |                448162 |                 9014 |           25544605 |       4408283 |            43245 |        90141842 |                     0 |      94607571 | 2017-02-06 12:24:33.04114+01

 2017-02-06 15:10:37.05652+01 | 1486390237.05652 |                 0 |              31 |                448162 |                 9014 |           25544605 |       4408783 |            43250 |        90141842 |                     0 |      94621015 | 2017-02-06 12:24:33.04114+01

 2017-02-06 15:10:38.151896+01 | 1486390238.1519 |                 0 |              31 |                448162 |                 9014 |           25544605 |       4409383 |            43256 |        90141842 |                     0 |      94638889 | 2017-02-06 12:24:33.04114+01

 2017-02-06 15:10:39.225437+01 | 1486390239.22544 |                 0 |              31 |                448162 |                 9014 |           25544605 |       4409883 |            43261 |        90141842 |                     0 |      94652366 | 2017-02-06 12:24:33.04114+01

 2017-02-06 15:10:40.303224+01 | 1486390240.30322 |                 0 |              31 |                448162 |                 9014 |           25544605 |       4410383 |            43266 |        90141842 |                     0 |      94665707 | 2017-02-06 12:24:33.04114+01

 2017-02-06 15:10:41.391526+01 | 1486390241.39153 |                 0 |              31 |                448162 |                 9014 |           25544605 |       4410983 |            43272 |        90141842 |                     0 |      94683041 | 2017-02-06 12:24:33.04114+01

 2017-02-06 15:10:42.468359+01 | 1486390242.46836 |                 0 |              31 |                448162 |                 9014 |           25544605 |       4411483 |            43277 |        90141842 |                     0 |      94697503 | 2017-02-06 12:24:33.04114+01

 2017-02-06 15:10:43.555611+01 | 1486390243.55561 |                 0 |              31 |                448162 |                 9014 |           25544605 |       4411983 |            43282 |        90141842 |                     0 |      94711118 | 2017-02-06 12:24:33.04114+01

 2017-02-06 15:10:44.661312+01 | 1486390244.66131 |                 0 |              31 |                448162 |                 9014 |           25544605 |       4412583 |            43288 |        90141842 |                     0 |      94728028 | 2017-02-06 12:24:33.04114+01

 2017-02-06 15:10:45.739348+01 | 1486390245.73935 |                 0 |              31 |                448162 |                 9014 |           25544605 |       4413083 |            43293 |        90141842 |                     0 |      94742971 | 2017-02-06 12:24:33.04114+01

 2017-02-06 15:10:46.804998+01 | 1486390246.805 |                 0 |              31 |                448162 |                 9014 |           25544605 |       4413583 |            43298 |        90141842 |                     0 |      94757124 | 2017-02-06 12:24:33.04114+01

 2017-02-06 15:10:47.898274+01 | 1486390247.89827 |                 0 |              31 |                448162 |                 9014 |           25544605 |       4414183 |            43304 |        90141842 |                     0 |      94772902 | 2017-02-06 12:24:33.04114+01

 2017-02-06 15:10:48.986864+01 | 1486390248.98686 |                 0 |              31 |                448162 |                 9014 |           25544605 |       4414683 |            43309 |        90141842 |                     0 |      94786590 | 2017-02-06 12:24:33.04114+01

 2017-02-06 15:10:50.072961+01 | 1486390250.07296 |                 0 |              31 |                448162 |                 9014 |           25544605 |       4415283 |            43315 |        90141842 |                     0 |      94803400 | 2017-02-06 12:24:33.04114+01

 2017-02-06 15:10:51.174242+01 | 1486390251.17424 |                 0 |              31 |                448162 |                 9014 |           25544605 |       4415783 |            43320 |        90141842 |                     0 |      94816198 | 2017-02-06 12:24:33.04114+01

 2017-02-06 15:10:52.248562+01 | 1486390252.24856 |                 0 |              31 |                448162 |                 9014 |           25544605 |       4416283 |            43325 |        90141842 |                     0 |      94830888 | 2017-02-06 12:24:33.04114+01

 2017-02-06 15:10:53.331319+01 | 1486390253.33132 |                 0 |              31 |                448162 |                 9014 |           25544605 |       4416883 |            43331 |        90141842 |                     0 |      94846784 | 2017-02-06 12:24:33.04114+01

 2017-02-06 15:10:54.414976+01 | 1486390254.41498 |                 0 |              31 |                448162 |                 9014 |           25544605 |       4417383 |            43336 |        90648831 |                     0 |      94861171 | 2017-02-06 12:24:33.04114+01

 2017-02-06 15:10:55.498871+01 | 1486390255.49887 |                 0 |              31 |                448162 |                 9014 |           25544605 |       4417883 |            43341 |        90648831 |                     0 |      94874541 | 2017-02-06 12:24:33.04114+01

 2017-02-06 15:10:56.583618+01 | 1486390256.58362 |                 0 |              31 |                448162 |                 9014 |           25544605 |       4418483 |            43347 |        90648831 |                     0 |      94891323 | 2017-02-06 12:24:33.04114+01

 2017-02-06 15:10:57.673496+01 | 1486390257.6735 |                 0 |              31 |                448162 |                 9014 |           25544605 |       4418983 |            43352 |        90648831 |                     0 |      94906078 | 2017-02-06 12:24:33.04114+01

 2017-02-06 15:10:58.760906+01 | 1486390258.76091 |                 0 |              31 |                448162 |                 9014 |           25544605 |       4419583 |            43358 |        90648831 |                     0 |      94922028 | 2017-02-06 12:24:33.04114+01

 2017-02-06 15:10:59.833164+01 | 1486390259.83316 |                 0 |              31 |                448162 |                 9014 |           25544605 |       4420083 |            43363 |        90648831 |                     0 |      94936381 | 2017-02-06 12:24:33.04114+01

 2017-02-06 15:11:00.927728+01 | 1486390260.92773 |                 0 |              31 |                448162 |                 9014 |           25544605 |       4420583 |            43368 |        90648831 |                     0 |      94949737 | 2017-02-06 12:24:33.04114+01

 2017-02-06 15:11:02.026609+01 | 1486390262.02661 |                 0 |              31 |                448162 |                 9014 |           25544605 |       4421183 |            43374 |        90648831 |                     0 |      94966775 | 2017-02-06 12:24:33.04114+01

 2017-02-06 15:11:03.123598+01 | 1486390263.1236 |                 0 |              31 |                448162 |                 9014 |           25544605 |       4421683 |            43379 |        90648831 |                     0 |      94980583 | 2017-02-06 12:24:33.04114+01

 2017-02-06 15:11:04.211508+01 | 1486390264.21151 |                 0 |              31 |                448162 |                 9014 |           25544605 |       4422283 |            43385 |        90648831 |                     0 |      94997243 | 2017-02-06 12:24:33.04114+01

 2017-02-06 15:11:05.295957+01 | 1486390265.29596 |                 0 |              31 |                448162 |                 9014 |           25544605 |       4422783 |            43390 |        90648831 |                     0 |      95011420 | 2017-02-06 12:24:33.04114+01

 2017-02-06 15:11:06.377006+01 | 1486390266.37701 |                 0 |              31 |                448162 |                 9014 |           25544605 |       4423283 |            43395 |        90648831 |                     0 |      95023970 | 2017-02-06 12:24:33.04114+01

 2017-02-06 15:11:07.45959+01 | 1486390267.45959 |                 0 |              31 |                448162 |                 9014 |           25544605 |       4423883 |            43401 |        90648831 |                     0 |      95040983 | 2017-02-06 12:24:33.04114+01

 2017-02-06 15:11:08.542501+01 | 1486390268.5425 |                 0 |              31 |                448162 |                 9014 |           25544605 |       4424383 |            43406 |        90648831 |                     0 |      95055380 | 2017-02-06 12:24:33.04114+01

 2017-02-06 15:11:09.625324+01 | 1486390269.62532 |                 0 |              31 |                448162 |                 9014 |           25544605 |       4424883 |            43411 |        90648831 |                     0 |      95068460 | 2017-02-06 12:24:33.04114+01

 2017-02-06 15:11:10.723783+01 | 1486390270.72378 |                 0 |              31 |                448162 |                 9014 |           25544605 |       4425483 |            43417 |        90648831 |                     0 |      95085299 | 2017-02-06 12:24:33.04114+01

 2017-02-06 15:11:11.810789+01 | 1486390271.81079 |                 0 |              31 |                448162 |                 9014 |           25544605 |       4425983 |            43422 |        90648831 |                     0 |      95099152 | 2017-02-06 12:24:33.04114+01

 2017-02-06 15:11:12.905882+01 | 1486390272.90588 |                 0 |              31 |                448162 |                 9014 |           25544605 |       4426583 |            43428 |        90648831 |                     0 |      95116207 | 2017-02-06 12:24:33.04114+01

 2017-02-06 15:11:13.987979+01 | 1486390273.98798 |                 0 |              31 |                448162 |                 9014 |           25544605 |       4427083 |            43433 |        90648831 |                     0 |      95129689 | 2017-02-06 12:24:33.04114+01

 2017-02-06 15:11:15.07104+01 | 1486390275.07104 |                 0 |              31 |                448162 |                 9014 |           25544605 |       4427583 |            43438 |        90648831 |                     0 |      95144593 | 2017-02-06 12:24:33.04114+01

 2017-02-06 15:11:16.16142+01 | 1486390276.16142 |                 0 |              31 |                448162 |                 9014 |           25544605 |       4428183 |            43444 |        90648831 |                     0 |      95160876 | 2017-02-06 12:24:33.04114+01

 2017-02-06 15:11:17.248287+01 | 1486390277.24829 |                 0 |              31 |                448162 |                 9014 |           25544605 |       4428683 |            43449 |        90648831 |                     0 |      95175211 | 2017-02-06 12:24:33.04114+01

 2017-02-06 15:11:18.331498+01 | 1486390278.3315 |                 0 |              31 |                448162 |                 9014 |           25544605 |       4429183 |            43454 |        90648831 |                     0 |      95188468 | 2017-02-06 12:24:33.04114+01

 2017-02-06 15:11:19.418889+01 | 1486390279.41889 |                 0 |              31 |                448162 |                 9014 |           25544605 |       4429783 |            43460 |        90648831 |                     0 |      95205905 | 2017-02-06 12:24:33.04114+01

 2017-02-06 15:11:20.502152+01 | 1486390280.50215 |                 0 |              31 |                448162 |                 9014 |           25544605 |       4430283 |            43465 |        90648831 |                     0 |      95220138 | 2017-02-06 12:24:33.04114+01

 2017-02-06 15:11:21.591453+01 | 1486390281.59145 |                 0 |              31 |                448162 |                 9014 |           25544605 |       4430883 |            43471 |        90648831 |                     0 |      95236730 | 2017-02-06 12:24:33.04114+01

 2017-02-06 15:11:22.685611+01 | 1486390282.68561 |                 0 |              31 |                448162 |                 9014 |           25544605 |       4431383 |            43476 |        90648831 |                     0 |      95251132 | 2017-02-06 12:24:33.04114+01

 2017-02-06 15:11:23.774016+01 | 1486390283.77402 |                 0 |              31 |                448162 |                 9014 |           25544605 |       4431883 |            43481 |        90648831 |                     0 |      95265533 | 2017-02-06 12:24:33.04114+01

 2017-02-06 15:11:24.858681+01 | 1486390284.85868 |                 0 |              31 |                448162 |                 9014 |           25544605 |       4432483 |            43487 |        90648831 |                     0 |      95283365 | 2017-02-06 12:24:33.04114+01

 2017-02-06 15:11:25.942515+01 | 1486390285.94251 |                 0 |              31 |                448162 |                 9014 |           25544605 |       4432983 |            43492 |        90648831 |                     0 |      95296879 | 2017-02-06 12:24:33.04114+01

 2017-02-06 15:11:27.023086+01 | 1486390287.02309 |                 0 |              31 |                448162 |                 9014 |           25544605 |       4433483 |            43497 |        90648831 |                     0 |      95311696 | 2017-02-06 12:24:33.04114+01

 2017-02-06 15:11:28.114307+01 | 1486390288.11431 |                 0 |              31 |                448162 |                 9014 |           25544605 |       4434083 |            43503 |        91156121 |                     0 |      95327995 | 2017-02-06 12:24:33.04114+01

 2017-02-06 15:11:29.19826+01 | 1486390289.19826 |                 0 |              31 |                448162 |                 9014 |           25544605 |       4434583 |            43508 |        91156121 |                     0 |      95342124 | 2017-02-06 12:24:33.04114+01

 2017-02-06 15:11:30.283812+01 | 1486390290.28381 |                 0 |              31 |                448162 |                 9014 |           25544605 |       4435183 |            43514 |        91156121 |                     0 |      95358081 | 2017-02-06 12:24:33.04114+01

 2017-02-06 15:11:31.373206+01 | 1486390291.37321 |                 0 |              31 |                448162 |                 9014 |           25544605 |       4435683 |            43519 |        91156121 |                     0 |      95372883 | 2017-02-06 12:24:33.04114+01

 2017-02-06 15:11:32.467015+01 | 1486390292.46702 |                 0 |              31 |                448162 |                 9014 |           25544605 |       4436183 |            43524 |        91156121 |                     0 |      95386758 | 2017-02-06 12:24:33.04114+01

 2017-02-06 15:11:33.553086+01 | 1486390293.55309 |                 0 |              31 |                448162 |                 9014 |           25544605 |       4436783 |            43530 |        91156121 |                     0 |      95403141 | 2017-02-06 12:24:33.04114+01

