 2017-02-05 15:12:19.784071+01 | 1486303939.78407 | 53/85CF4618              |          358727239192

 2017-02-05 15:12:20.874848+01 | 1486303940.87485 | 53/957A9D08              |          358990126344

 2017-02-05 15:12:21.960739+01 | 1486303941.96074 | 53/A79E4430              |          359294452784

 2017-02-05 15:12:23.042847+01 | 1486303943.04285 | 53/B82B7830              |          359572142128

 2017-02-05 15:12:24.125752+01 | 1486303944.12575 | 53/C7215800              |          359823136768

 2017-02-05 15:12:25.211061+01 | 1486303945.21106 | 53/D68C2F78              |          360081796984

 2017-02-05 15:12:26.290564+01 | 1486303946.29056 | 53/E55D3978              |          360330377592

 2017-02-05 15:12:27.372748+01 | 1486303947.37275 | 53/F1B60CB8              |          360537525432

 2017-02-05 15:12:28.449661+01 | 1486303948.44966 | 53/FD28DAC8              |          360729598664

 2017-02-05 15:12:29.534117+01 | 1486303949.53412 | 54/869FA90               |          360918416016

 2017-02-05 15:12:30.61313+01 | 1486303950.61313 | 54/12679A20              |          361086032416

 2017-02-05 15:12:31.693559+01 | 1486303951.69356 | 54/1C274868              |          361249589352

 2017-02-05 15:12:32.773728+01 | 1486303952.77373 | 54/25165110              |          361399472400

 2017-02-05 15:12:33.847593+01 | 1486303953.84759 | 54/2D847AD8              |          361540909784

 2017-02-05 15:12:34.930218+01 | 1486303954.93022 | 54/35517C98              |          361671785624

 2017-02-05 15:12:36.007951+01 | 1486303956.00795 | 54/3D11D990              |          361801832848

 2017-02-05 15:12:37.086385+01 | 1486303957.08639 | 54/449E18B0              |          361928464560

 2017-02-05 15:12:38.173112+01 | 1486303958.17311 | 54/4BB9CD18              |          362047720728

 2017-02-05 15:12:39.252287+01 | 1486303959.25229 | 54/52641870              |          362159544432

 2017-02-05 15:12:40.338943+01 | 1486303960.33894 | 54/587667E8              |          362261407720

 2017-02-05 15:12:41.418536+01 | 1486303961.41854 | 54/5DE660F0              |          362352632048

 2017-02-05 15:12:42.491781+01 | 1486303962.49178 | 54/6374F028              |          362445860904

 2017-02-05 15:12:43.571454+01 | 1486303963.57145 | 54/68CCAE68              |          362535497320

 2017-02-05 15:12:44.649016+01 | 1486303964.64902 | 54/6DB96F00              |          362618121984

 2017-02-05 15:12:45.725944+01 | 1486303965.72594 | 54/72965D00              |          362699709696

 2017-02-05 15:12:46.811406+01 | 1486303966.81141 | 54/7768F1F0              |          362780619248

 2017-02-05 15:12:47.890628+01 | 1486303967.89063 | 54/7C127338              |          362858836792

 2017-02-05 15:12:48.974828+01 | 1486303968.97483 | 54/80E28210              |          362939580944

 2017-02-05 15:12:50.051717+01 | 1486303970.05172 | 54/85F90F88              |          363024945032

 2017-02-05 15:12:51.128394+01 | 1486303971.12839 | 54/8ACC15C8              |          363105883592

 2017-02-05 15:12:52.202404+01 | 1486303972.2024 | 54/8F9B1458              |          363186558040

 2017-02-05 15:12:53.281241+01 | 1486303973.28124 | 54/94439538              |          363264709944

 2017-02-05 15:12:54.360472+01 | 1486303974.36047 | 54/98BCF4F0              |          363339773168

 2017-02-05 15:12:55.432622+01 | 1486303975.43262 | 54/9CB2D010              |          363406217232

 2017-02-05 15:12:56.50792+01 | 1486303976.50792 | 54/A0AA99C8              |          363472787912

 2017-02-05 15:12:57.585487+01 | 1486303977.58549 | 54/A4B5EF28              |          363540639528

 2017-02-05 15:12:58.666438+01 | 1486303978.66644 | 54/A8D84588              |          363609998728

 2017-02-05 15:12:59.743224+01 | 1486303979.74322 | 54/ACD3BEB0              |          363676810928

 2017-02-05 15:13:00.821498+01 | 1486303980.8215 | 54/B0ABF1E8              |          363741311464

 2017-02-05 15:13:01.906404+01 | 1486303981.9064 | 54/B48C6288              |          363806352008

 2017-02-05 15:13:02.983968+01 | 1486303982.98397 | 54/B84DF8D0              |          363869370576

 2017-02-05 15:13:04.065219+01 | 1486303984.06522 | 54/BBFD7828              |          363931203624

 2017-02-05 15:13:05.138377+01 | 1486303985.13838 | 54/BF913C78              |          363991219320

 2017-02-05 15:13:06.213637+01 | 1486303986.21364 | 54/C3439CB8              |          364053241016

 2017-02-05 15:13:07.287664+01 | 1486303987.28766 | 54/C6ED4770              |          364114691952

 2017-02-05 15:13:08.364509+01 | 1486303988.36451 | 54/CA778648              |          364174083656

 2017-02-05 15:13:09.43886+01 | 1486303989.43886 | 54/CE06C0B8              |          364233801912

 2017-02-05 15:13:10.512851+01 | 1486303990.51285 | 54/D16147F0              |          364290066416

 2017-02-05 15:13:11.590719+01 | 1486303991.59072 | 54/D4A3DA20              |          364344760864

 2017-02-05 15:13:12.668645+01 | 1486303992.66864 | 54/D80CAB18              |          364401961752

 2017-02-05 15:13:13.745574+01 | 1486303993.74557 | 54/DB5FC640              |          364457739840

 2017-02-05 15:13:14.818197+01 | 1486303994.8182 | 54/DEAF99F8              |          364513303032

 2017-02-05 15:13:15.894934+01 | 1486303995.89493 | 54/E1E61B98              |          364567206808

 2017-02-05 15:13:16.973961+01 | 1486303996.97396 | 54/E5221E28              |          364621471272

 2017-02-05 15:13:18.048929+01 | 1486303998.04893 | 54/E83C2710              |          364673509136

 2017-02-05 15:13:19.127377+01 | 1486303999.12738 | 54/EB703AB8              |          364727253688

 2017-02-05 15:13:20.204689+01 | 1486304000.20469 | 54/EE887FF0              |          364779175920

 2017-02-05 15:13:21.280963+01 | 1486304001.28096 | 54/F18E1FD0              |          364829876176

 2017-02-05 15:13:22.36315+01 | 1486304002.36315 | 54/F48A4AA0              |          364879956640

 2017-02-05 15:13:23.439939+01 | 1486304003.43994 | 54/F76D47C0              |          364928387008

 2017-02-05 15:13:24.513158+01 | 1486304004.51316 | 54/FA400058              |          364975751256

 2017-02-05 15:13:25.594893+01 | 1486304005.59489 | 54/FCD139D0              |          365018823120

 2017-02-05 15:13:26.690596+01 | 1486304006.6906 | 54/FFA7DFF0              |          365066444784

 2017-02-05 15:13:27.772003+01 | 1486304007.772 | 55/261B880               |          365112178816

 2017-02-05 15:13:28.84877+01 | 1486304008.84877 | 55/528CBC0               |          365158779840

 2017-02-05 15:13:29.931324+01 | 1486304009.93132 | 55/7FB7E68               |          365206142568

 2017-02-05 15:13:31.009157+01 | 1486304011.00916 | 55/ACDF798               |          365253490584

 2017-02-05 15:13:32.082827+01 | 1486304012.08283 | 55/D9FA8D0               |          365300787408

 2017-02-05 15:13:33.156217+01 | 1486304013.15622 | 55/106F1E18              |          365347937816

 2017-02-05 15:13:34.235508+01 | 1486304014.23551 | 55/1328B5E0              |          365393655264

 2017-02-05 15:13:35.298084+01 | 1486304015.29808 | 55/15C1C4C0              |          365437240512

 2017-02-05 15:13:36.384708+01 | 1486304016.38471 | 55/18A84690              |          365485901456

 2017-02-05 15:13:37.464628+01 | 1486304017.46463 | 55/1B5C2108              |          365531242760

 2017-02-05 15:13:38.543777+01 | 1486304018.54378 | 55/1E03D9A8              |          365575788968

 2017-02-05 15:13:39.618185+01 | 1486304019.61819 | 55/20A57C18              |          365619936280

 2017-02-05 15:13:40.697958+01 | 1486304020.69796 | 55/233B6630              |          365663315504

 2017-02-05 15:13:41.776248+01 | 1486304021.77625 | 55/25E5CDD0              |          365708037584

 2017-02-05 15:13:42.850838+01 | 1486304022.85084 | 55/287F5338              |          365751653176

 2017-02-05 15:13:43.932487+01 | 1486304023.93249 | 55/2B1B85F8              |          365795444216

 2017-02-05 15:13:45.015018+01 | 1486304025.01502 | 55/2DA84BA8              |          365838224296

 2017-02-05 15:13:46.095159+01 | 1486304026.09516 | 55/304BA530              |          365882484016

 2017-02-05 15:13:47.169407+01 | 1486304027.16941 | 55/32C98B38              |          365924289336

 2017-02-05 15:13:48.245199+01 | 1486304028.2452 | 55/35571998              |          365967120792

 2017-02-05 15:13:49.323025+01 | 1486304029.32302 | 55/37DA9CB0              |          366009294000

 2017-02-05 15:13:50.399131+01 | 1486304030.39913 | 55/3A5FD300              |          366051578624

 2017-02-05 15:13:51.480388+01 | 1486304031.48039 | 55/3CAB46A8              |          366090077864

 2017-02-05 15:13:52.560155+01 | 1486304032.56015 | 55/3EE42DE0              |          366127361504

 2017-02-05 15:13:53.63843+01 | 1486304033.63843 | 55/41207308              |          366164865800

 2017-02-05 15:13:54.716291+01 | 1486304034.71629 | 55/43666FF0              |          366203006960

 2017-02-05 15:13:55.789972+01 | 1486304035.78997 | 55/45A8E150              |          366240915792

 2017-02-05 15:13:56.864926+01 | 1486304036.86493 | 55/478A4890              |          366272465040

 2017-02-05 15:13:57.943731+01 | 1486304037.94373 | 55/49ADF8A8              |          366308358312

 2017-02-05 15:13:59.013154+01 | 1486304039.01315 | 55/4BDC3D18              |          366344944920

 2017-02-05 15:14:00.087707+01 | 1486304040.08771 | 55/4E06D120              |          366381289760

 2017-02-05 15:14:01.163532+01 | 1486304041.16353 | 55/50515A80              |          366419729024

 2017-02-05 15:14:02.244399+01 | 1486304042.2444 | 55/52A60D48              |          366458834248

 2017-02-05 15:14:03.32078+01 | 1486304043.32078 | 55/54EC9F98              |          366497013656

 2017-02-05 15:14:04.39767+01 | 1486304044.39767 | 55/5736C780              |          366535427968

 2017-02-05 15:14:05.475717+01 | 1486304045.47572 | 55/59748140              |          366573027648

 2017-02-05 15:14:06.55142+01 | 1486304046.55142 | 55/5BB20B08              |          366610615048

 2017-02-05 15:14:07.630774+01 | 1486304047.63077 | 55/5DDD8668              |          366647019112

 2017-02-05 15:14:08.709373+01 | 1486304048.70937 | 55/5FDB7518              |          366680438040

 2017-02-05 15:14:09.78242+01 | 1486304049.78242 | 55/621BAD20              |          366718201120

 2017-02-05 15:14:10.861216+01 | 1486304050.86122 | 55/64525DA8              |          366755339688

 2017-02-05 15:14:11.9361+01 | 1486304051.9361 | 55/668A3FC0              |          366792556480

 2017-02-05 15:14:13.015517+01 | 1486304053.01552 | 55/68C2AB40              |          366829808448

 2017-02-05 15:14:14.094091+01 | 1486304054.09409 | 55/6B028C30              |          366867549232

 2017-02-05 15:14:15.175704+01 | 1486304055.1757 | 55/6D3A33A8              |          366904751016

 2017-02-05 15:14:16.254459+01 | 1486304056.25446 | 55/6F529510              |          366939903248

 2017-02-05 15:14:17.335952+01 | 1486304057.33595 | 55/717E50E8              |          366976323816

 2017-02-05 15:14:18.410466+01 | 1486304058.41047 | 55/73AAC770              |          367012792176

 2017-02-05 15:14:19.486337+01 | 1486304059.48634 | 55/75C7EEC8              |          367048257224

 2017-02-05 15:14:20.566138+01 | 1486304060.56614 | 55/77C5F880              |          367081683072

 2017-02-05 15:14:21.644883+01 | 1486304061.64488 | 55/79F44888              |          367118272648

 2017-02-05 15:14:22.722775+01 | 1486304062.72277 | 55/7C1819C0              |          367154174400

 2017-02-05 15:14:23.798984+01 | 1486304063.79898 | 55/7E3BB890              |          367190063248

 2017-02-05 15:14:24.877358+01 | 1486304064.87736 | 55/8048CE18              |          367224475160

 2017-02-05 15:14:25.950835+01 | 1486304065.95083 | 55/825BF868              |          367259285608

 2017-02-05 15:14:27.026791+01 | 1486304067.02679 | 55/847AC818              |          367294859288

 2017-02-05 15:14:28.10194+01 | 1486304068.10194 | 55/868FB4D0              |          367329785040

 2017-02-05 15:14:29.17762+01 | 1486304069.17762 | 55/88A120E0              |          367364481248

 2017-02-05 15:14:30.250673+01 | 1486304070.25067 | 55/8ABD5760              |          367399884640

 2017-02-05 15:14:31.324716+01 | 1486304071.32472 | 55/8CD7D7D8              |          367435175896

 2017-02-05 15:14:32.404352+01 | 1486304072.40435 | 55/8EBF07B0              |          367467104176

 2017-02-05 15:14:33.483503+01 | 1486304073.4835 | 55/90D25228              |          367501922856

 2017-02-05 15:14:34.560657+01 | 1486304074.56066 | 55/92B43458              |          367533503576

 2017-02-05 15:14:35.637249+01 | 1486304075.63725 | 55/94B03F78              |          367566798712

 2017-02-05 15:14:36.712081+01 | 1486304076.71208 | 55/96C0C058              |          367601434712

 2017-02-05 15:14:37.78682+01 | 1486304077.78682 | 55/98BF6C60              |          367634902112

 2017-02-05 15:14:38.865877+01 | 1486304078.86588 | 55/9AC50938              |          367668824376

 2017-02-05 15:14:39.949122+01 | 1486304079.94912 | 55/9CB48C20              |          367701298208

 2017-02-05 15:14:41.026302+01 | 1486304081.0263 | 55/9EB9CB00              |          367735196416

 2017-02-05 15:14:42.10003+01 | 1486304082.10003 | 55/A0AF2A68              |          367768054376

 2017-02-05 15:14:43.177137+01 | 1486304083.17714 | 55/A2A36740              |          367800837952

 2017-02-05 15:14:44.242815+01 | 1486304084.24282 | 55/A45D8F58              |          367829815128

 2017-02-05 15:14:45.325457+01 | 1486304085.32546 | 55/A6528078              |          367862644856

 2017-02-05 15:14:46.402872+01 | 1486304086.40287 | 55/A83845D0              |          367894480336

 2017-02-05 15:14:47.478764+01 | 1486304087.47876 | 55/AA1D29C0              |          367926258112

 2017-02-05 15:14:48.554441+01 | 1486304088.55444 | 55/AC0F1110              |          367958888720

 2017-02-05 15:14:49.630393+01 | 1486304089.63039 | 55/ADF0D148              |          367990460744

 2017-02-05 15:14:50.708047+01 | 1486304090.70805 | 55/AFDCDB68              |          368022707048

 2017-02-05 15:14:51.789027+01 | 1486304091.78903 | 55/B1CB1990              |          368055097744

 2017-02-05 15:14:52.866112+01 | 1486304092.86611 | 55/B3A92FB8              |          368086429624

 2017-02-05 15:14:53.948543+01 | 1486304093.94854 | 55/B55CC2F8              |          368114975480

 2017-02-05 15:14:55.027664+01 | 1486304095.02766 | 55/B7487268              |          368147198568

 2017-02-05 15:14:56.104045+01 | 1486304096.10404 | 55/B9324B18              |          368179301144

 2017-02-05 15:14:57.179679+01 | 1486304097.17968 | 55/BB140ED8              |          368210874072

 2017-02-05 15:14:58.256282+01 | 1486304098.25628 | 55/BCF92BD0              |          368242666448

 2017-02-05 15:14:59.334306+01 | 1486304099.33431 | 55/BEDD3F08              |          368274390792

 2017-02-05 15:15:00.411028+01 | 1486304100.41103 | 55/C0B42D10              |          368305253648

 2017-02-05 15:15:01.487023+01 | 1486304101.48702 | 55/C2938438              |          368336667704

 2017-02-05 15:15:02.56664+01 | 1486304102.56664 | 55/C4755B38              |          368368245560

 2017-02-05 15:15:03.644307+01 | 1486304103.64431 | 55/C6224C98              |          368396356760

 2017-02-05 15:15:04.722687+01 | 1486304104.72269 | 55/C7F2F138              |          368426807608

 2017-02-05 15:15:05.798164+01 | 1486304105.79816 | 55/C9CF9B40              |          368458046272

 2017-02-05 15:15:06.878666+01 | 1486304106.87867 | 55/CBA607D0              |          368488875984

 2017-02-05 15:15:07.957073+01 | 1486304107.95707 | 55/CD747CC0              |          368519183552

 2017-02-05 15:15:09.031481+01 | 1486304109.03148 | 55/CF3F0230              |          368549233200

 2017-02-05 15:15:10.109467+01 | 1486304110.10947 | 55/D0E08838              |          368576596024

 2017-02-05 15:15:11.186899+01 | 1486304111.1869 | 55/D25B29F0              |          368601410032

 2017-02-05 15:15:12.264484+01 | 1486304112.26448 | 55/D404A320              |          368629293856

 2017-02-05 15:15:13.341409+01 | 1486304113.34141 | 55/D5AAE640              |          368656967232

 2017-02-05 15:15:14.423655+01 | 1486304114.42366 | 55/D7508380              |          368684598144

 2017-02-05 15:15:15.503708+01 | 1486304115.50371 | 55/D8AC4968              |          368707389800

 2017-02-05 15:15:16.581531+01 | 1486304116.58153 | 55/DA3E2810              |          368733726736

 2017-02-05 15:15:17.654602+01 | 1486304117.6546 | 55/DBD3DA20              |          368760314400

 2017-02-05 15:15:18.728759+01 | 1486304118.72876 | 55/DD704980              |          368787343744

 2017-02-05 15:15:19.805407+01 | 1486304119.80541 | 55/DF32B7C8              |          368816863176

 2017-02-05 15:15:20.880512+01 | 1486304120.88051 | 55/E0FD3640              |          368846911040

 2017-02-05 15:15:21.956357+01 | 1486304121.95636 | 55/E2ACBD50              |          368875191632

 2017-02-05 15:15:23.031263+01 | 1486304123.03126 | 55/E46A06E0              |          368904373984

 2017-02-05 15:15:24.105562+01 | 1486304124.10556 | 55/E62BF8A0              |          368933861536

 2017-02-05 15:15:25.182911+01 | 1486304125.18291 | 55/E7F5D0B8              |          368963866808

 2017-02-05 15:15:26.26013+01 | 1486304126.26013 | 55/E9C15868              |          368993982568

 2017-02-05 15:15:27.337133+01 | 1486304127.33713 | 55/EB7B6D70              |          369022954864

 2017-02-05 15:15:28.415735+01 | 1486304128.41574 | 55/ED3AABC8              |          369052265416

 2017-02-05 15:15:29.493712+01 | 1486304129.49371 | 55/EEC780A8              |          369078272168

 2017-02-05 15:15:30.572769+01 | 1486304130.57277 | 55/F07C2FC0              |          369106890688

 2017-02-05 15:15:31.65152+01 | 1486304131.65152 | 55/F221B788              |          369134516104

 2017-02-05 15:15:32.735757+01 | 1486304132.73576 | 55/F3D9D870              |          369163360368

 2017-02-05 15:15:33.812349+01 | 1486304133.81235 | 55/F59080F0              |          369192108272

 2017-02-05 15:15:34.888985+01 | 1486304134.88898 | 55/F71B3070              |          369217974384

 2017-02-05 15:15:35.964673+01 | 1486304135.96467 | 55/F8CFABA8              |          369246579624

 2017-02-05 15:15:37.041824+01 | 1486304137.04182 | 55/FA663DC8              |          369273224648

 2017-02-05 15:15:38.117979+01 | 1486304138.11798 | 55/FC1BA048              |          369301889096

 2017-02-05 15:15:39.197339+01 | 1486304139.19734 | 55/FDD64030              |          369330896944

 2017-02-05 15:15:40.274042+01 | 1486304140.27404 | 55/FF8DD540              |          369359705408

 2017-02-05 15:15:41.349125+01 | 1486304141.34912 | 56/13FEAC0               |          369388153536

 2017-02-05 15:15:42.42575+01 | 1486304142.42575 | 56/2E86750               |          369415972688

 2017-02-05 15:15:43.505229+01 | 1486304143.50523 | 56/49B9120               |          369444491552

 2017-02-05 15:15:44.579557+01 | 1486304144.57956 | 56/64D8260               |          369472930400

 2017-02-05 15:15:45.655903+01 | 1486304145.6559 | 56/7D90830               |          369498851376

 2017-02-05 15:15:46.733814+01 | 1486304146.73381 | 56/98956B0               |          369527183024

 2017-02-05 15:15:47.806137+01 | 1486304147.80614 | 56/B34B718               |          369555191576

 2017-02-05 15:15:48.881248+01 | 1486304148.88125 | 56/CE22AD0               |          369583336144

 2017-02-05 15:15:49.954181+01 | 1486304149.95418 | 56/E8B0F60               |          369611181920

 2017-02-05 15:15:51.029407+01 | 1486304151.02941 | 56/10259B30              |          369638087472

 2017-02-05 15:15:52.102455+01 | 1486304152.10245 | 56/11B91700              |          369664530176

 2017-02-05 15:15:53.197033+01 | 1486304153.19703 | 56/1364F3E0              |          369692570592

 2017-02-05 15:15:54.273782+01 | 1486304154.27378 | 56/15084450              |          369720050768

 2017-02-05 15:15:55.352727+01 | 1486304155.35273 | 56/16A7E2B0              |          369747288752

 2017-02-05 15:15:56.432584+01 | 1486304156.43258 | 56/183E2508              |          369773913352

 2017-02-05 15:15:57.510118+01 | 1486304157.51012 | 56/19D94CC8              |          369800858824

 2017-02-05 15:15:58.589418+01 | 1486304158.58942 | 56/1B7C6960              |          369828325728

 2017-02-05 15:15:59.665976+01 | 1486304159.66598 | 56/1CDA54A0              |          369851258016

 2017-02-05 15:16:00.744029+01 | 1486304160.74403 | 56/1E6561D8              |          369877148120

 2017-02-05 15:16:01.816137+01 | 1486304161.81614 | 56/1FE57A00              |          369902320128

 2017-02-05 15:16:02.887793+01 | 1486304162.88779 | 56/215C8778              |          369926899576

 2017-02-05 15:16:03.964337+01 | 1486304163.96434 | 56/22E15468              |          369952380008

 2017-02-05 15:16:05.042325+01 | 1486304165.04233 | 56/247AE998              |          369979222424

 2017-02-05 15:16:06.119244+01 | 1486304166.11924 | 56/25F54938              |          370004019512

 2017-02-05 15:16:07.194639+01 | 1486304167.19464 | 56/27819CE0              |          370029993184

 2017-02-05 15:16:08.272354+01 | 1486304168.27235 | 56/2920FD38              |          370057215288

 2017-02-05 15:16:09.349462+01 | 1486304169.34946 | 56/2AB7E5D8              |          370083882456

 2017-02-05 15:16:10.421536+01 | 1486304170.42154 | 56/2C505C90              |          370110651536

 2017-02-05 15:16:11.498348+01 | 1486304171.49835 | 56/2DDDE800              |          370136705024

 2017-02-05 15:16:12.573726+01 | 1486304172.57373 | 56/2F738760              |          370163287904

 2017-02-05 15:16:13.647382+01 | 1486304173.64738 | 56/30E4CC50              |          370187488336

 2017-02-05 15:16:14.72328+01 | 1486304174.72328 | 56/32781238              |          370213917240

 2017-02-05 15:16:15.801654+01 | 1486304175.80165 | 56/33FC3680              |          370239354496

 2017-02-05 15:16:16.875965+01 | 1486304176.87597 | 56/358922D8              |          370265367256

 2017-02-05 15:16:17.95069+01 | 1486304177.95069 | 56/370C4B28              |          370290740008

 2017-02-05 15:16:19.032408+01 | 1486304179.03241 | 56/389DA0C8              |          370317041864

 2017-02-05 15:16:20.108004+01 | 1486304180.108 | 56/3A3CE3A0              |          370344256416

 2017-02-05 15:16:21.181747+01 | 1486304181.18175 | 56/3BA15738              |          370367616824

 2017-02-05 15:16:22.258819+01 | 1486304182.25882 | 56/3D1F7008              |          370392657928

 2017-02-05 15:16:23.341352+01 | 1486304183.34135 | 56/3EA3C220              |          370418106912

 2017-02-05 15:16:24.422439+01 | 1486304184.42244 | 56/403666E0              |          370444494560

 2017-02-05 15:16:25.504362+01 | 1486304185.50436 | 56/41C81680              |          370470819456

 2017-02-05 15:16:26.579806+01 | 1486304186.57981 | 56/434F22D8              |          370496447192

 2017-02-05 15:16:27.65465+01 | 1486304187.65465 | 56/44E31E80              |          370522922624

 2017-02-05 15:16:28.725182+01 | 1486304188.72518 | 56/464A5698              |          370546464408

 2017-02-05 15:16:29.799988+01 | 1486304189.79999 | 56/47CF6B78              |          370571963256

 2017-02-05 15:16:30.879704+01 | 1486304190.8797 | 56/496277B8              |          370598377400

 2017-02-05 15:16:31.954179+01 | 1486304191.95418 | 56/4AEE4808              |          370624317448

 2017-02-05 15:16:33.033027+01 | 1486304193.03303 | 56/4C89D660              |          370651289184

 2017-02-05 15:16:34.106808+01 | 1486304194.10681 | 56/4E0875D8              |          370676364760

 2017-02-05 15:16:35.180219+01 | 1486304195.18022 | 56/4F65B250              |          370699252304

 2017-02-05 15:16:36.253416+01 | 1486304196.25342 | 56/50C670E8              |          370722369768

 2017-02-05 15:16:37.328608+01 | 1486304197.32861 | 56/524BB5F0              |          370747880944

 2017-02-05 15:16:38.404419+01 | 1486304198.40442 | 56/53CE2978              |          370773207416

 2017-02-05 15:16:39.478988+01 | 1486304199.47899 | 56/553E9258              |          370797351512

 2017-02-05 15:16:40.555131+01 | 1486304200.55513 | 56/56B647D0              |          370821973968

 2017-02-05 15:16:41.633952+01 | 1486304201.63395 | 56/5810A4E8              |          370844673256

 2017-02-05 15:16:42.711001+01 | 1486304202.711 | 56/597FC4C0              |          370868733120

 2017-02-05 15:16:43.786039+01 | 1486304203.78604 | 56/5AEA29C0              |          370892483008

 2017-02-05 15:16:44.86033+01 | 1486304204.86033 | 56/5C246428              |          370913076264

 2017-02-05 15:16:45.93743+01 | 1486304205.93743 | 56/5D821FA8              |          370935996328

 2017-02-05 15:16:47.019079+01 | 1486304207.01908 | 56/5EEEF0E8              |          370959905000

 2017-02-05 15:16:48.093715+01 | 1486304208.09371 | 56/605B81A8              |          370983797160

 2017-02-05 15:16:49.170253+01 | 1486304209.17025 | 56/61A40C00              |          371005328384

 2017-02-05 15:16:50.245603+01 | 1486304210.2456 | 56/630571B8              |          371028488632

 2017-02-05 15:16:51.320587+01 | 1486304211.32059 | 56/64639228              |          371051434536

 2017-02-05 15:16:52.39231+01 | 1486304212.39231 | 56/65CA5098              |          371074945176

 2017-02-05 15:16:53.46561+01 | 1486304213.46561 | 56/66F08BD8              |          371094227928

 2017-02-05 15:16:54.536368+01 | 1486304214.53637 | 56/6840DE60              |          371116269152

 2017-02-05 15:16:55.610815+01 | 1486304215.61082 | 56/69940E50              |          371138498128

 2017-02-05 15:16:56.681244+01 | 1486304216.68124 | 56/6AE6F1A0              |          371160707488

 2017-02-05 15:16:57.76033+01 | 1486304217.76033 | 56/6C460990              |          371183716752

 2017-02-05 15:16:58.837593+01 | 1486304218.83759 | 56/6D7CC910              |          371204081936

 2017-02-05 15:16:59.911013+01 | 1486304219.91101 | 56/6ECD43C0              |          371226133440

 2017-02-05 15:17:00.985334+01 | 1486304220.98533 | 56/7010F4C8              |          371247346888

 2017-02-05 15:17:02.061893+01 | 1486304222.06189 | 56/71567400              |          371268678656

 2017-02-05 15:17:03.136804+01 | 1486304223.1368 | 56/72650E98              |          371286412952

 2017-02-05 15:17:04.211506+01 | 1486304224.21151 | 56/73A4BF70              |          371307364208

 2017-02-05 15:17:05.287257+01 | 1486304225.28726 | 56/74D26D40              |          371327135040

 2017-02-05 15:17:06.360279+01 | 1486304226.36028 | 56/75FE8D08              |          371346803976

 2017-02-05 15:17:07.435146+01 | 1486304227.43515 | 56/77305800              |          371366844416

 2017-02-05 15:17:08.509687+01 | 1486304228.50969 | 56/7837E0A0              |          371384115360

 2017-02-05 15:17:09.585466+01 | 1486304229.58547 | 56/7983E5C0              |          371405874624

 2017-02-05 15:17:10.656836+01 | 1486304230.65684 | 56/7AD0CE70              |          371427692144

 2017-02-05 15:17:11.732679+01 | 1486304231.73268 | 56/7C320980              |          371450841472

 2017-02-05 15:17:12.807365+01 | 1486304232.80736 | 56/7D66CAE8              |          371471076072

 2017-02-05 15:17:13.883217+01 | 1486304233.88322 | 56/7EC81CD0              |          371494231248

 2017-02-05 15:17:14.959817+01 | 1486304234.95982 | 56/803218F0              |          371517954288

 2017-02-05 15:17:16.037681+01 | 1486304236.03768 | 56/818C21A8              |          371540631976

 2017-02-05 15:17:17.116152+01 | 1486304237.11615 | 56/82E3A350              |          371563144016

 2017-02-05 15:17:18.192403+01 | 1486304238.1924 | 56/84340A08              |          371585190408

 2017-02-05 15:17:19.273351+01 | 1486304239.27335 | 56/85609488              |          371604886664

