 2017-02-06 20:26:25.205526+01 | 1486409185.20553 | pgbench_accounts |      13896155136
 2017-02-06 20:26:25.205526+01 | 1486409185.20553 | pgbench_tellers  |         27271168
 2017-02-06 20:26:25.205526+01 | 1486409185.20553 | pgbench_history  |           516096
 2017-02-06 20:26:25.205526+01 | 1486409185.20553 | pgbench_branches |         24510464

 2017-02-06 20:26:26.296612+01 | 1486409186.29661 | pgbench_accounts |      13896155136
 2017-02-06 20:26:26.296612+01 | 1486409186.29661 | pgbench_tellers  |         27271168
 2017-02-06 20:26:26.296612+01 | 1486409186.29661 | pgbench_history  |           704512
 2017-02-06 20:26:26.296612+01 | 1486409186.29661 | pgbench_branches |         24510464

 2017-02-06 20:26:27.384561+01 | 1486409187.38456 | pgbench_accounts |      13896155136
 2017-02-06 20:26:27.384561+01 | 1486409187.38456 | pgbench_tellers  |         27271168
 2017-02-06 20:26:27.384561+01 | 1486409187.38456 | pgbench_history  |          1736704
 2017-02-06 20:26:27.384561+01 | 1486409187.38456 | pgbench_branches |         24510464

 2017-02-06 20:26:28.474666+01 | 1486409188.47467 | pgbench_accounts |      13896155136
 2017-02-06 20:26:28.474666+01 | 1486409188.47467 | pgbench_tellers  |         27271168
 2017-02-06 20:26:28.474666+01 | 1486409188.47467 | pgbench_history  |          2457600
 2017-02-06 20:26:28.474666+01 | 1486409188.47467 | pgbench_branches |         24510464

 2017-02-06 20:26:29.557375+01 | 1486409189.55737 | pgbench_accounts |      13896155136
 2017-02-06 20:26:29.557375+01 | 1486409189.55737 | pgbench_tellers  |         27271168
 2017-02-06 20:26:29.557375+01 | 1486409189.55737 | pgbench_history  |          3391488
 2017-02-06 20:26:29.557375+01 | 1486409189.55737 | pgbench_branches |         24510464

 2017-02-06 20:26:30.635018+01 | 1486409190.63502 | pgbench_accounts |      13896155136
 2017-02-06 20:26:30.635018+01 | 1486409190.63502 | pgbench_tellers  |         27271168
 2017-02-06 20:26:30.635018+01 | 1486409190.63502 | pgbench_history  |          4308992
 2017-02-06 20:26:30.635018+01 | 1486409190.63502 | pgbench_branches |         24510464

 2017-02-06 20:26:31.709406+01 | 1486409191.70941 | pgbench_accounts |      13896155136
 2017-02-06 20:26:31.709406+01 | 1486409191.70941 | pgbench_tellers  |         27271168
 2017-02-06 20:26:31.709406+01 | 1486409191.70941 | pgbench_history  |          5029888
 2017-02-06 20:26:31.709406+01 | 1486409191.70941 | pgbench_branches |         24510464

 2017-02-06 20:26:32.778268+01 | 1486409192.77827 | pgbench_accounts |      13896155136
 2017-02-06 20:26:32.778268+01 | 1486409192.77827 | pgbench_tellers  |         27271168
 2017-02-06 20:26:32.778268+01 | 1486409192.77827 | pgbench_history  |          5955584
 2017-02-06 20:26:32.778268+01 | 1486409192.77827 | pgbench_branches |         24510464

 2017-02-06 20:26:33.854805+01 | 1486409193.8548 | pgbench_accounts |      13896155136
 2017-02-06 20:26:33.854805+01 | 1486409193.8548 | pgbench_tellers  |         27271168
 2017-02-06 20:26:33.854805+01 | 1486409193.8548 | pgbench_history  |          7036928
 2017-02-06 20:26:33.854805+01 | 1486409193.8548 | pgbench_branches |         24510464

 2017-02-06 20:26:34.931774+01 | 1486409194.93177 | pgbench_accounts |      13896155136
 2017-02-06 20:26:34.931774+01 | 1486409194.93177 | pgbench_tellers  |         27271168
 2017-02-06 20:26:34.931774+01 | 1486409194.93177 | pgbench_history  |          7577600
 2017-02-06 20:26:34.931774+01 | 1486409194.93177 | pgbench_branches |         24510464

 2017-02-06 20:26:36.017452+01 | 1486409196.01745 | pgbench_accounts |      13896155136
 2017-02-06 20:26:36.017452+01 | 1486409196.01745 | pgbench_tellers  |         27271168
 2017-02-06 20:26:36.017452+01 | 1486409196.01745 | pgbench_history  |          8593408
 2017-02-06 20:26:36.017452+01 | 1486409196.01745 | pgbench_branches |         24510464

 2017-02-06 20:26:37.090901+01 | 1486409197.0909 | pgbench_accounts |      13896155136
 2017-02-06 20:26:37.090901+01 | 1486409197.0909 | pgbench_tellers  |         27271168
 2017-02-06 20:26:37.090901+01 | 1486409197.0909 | pgbench_history  |          9658368
 2017-02-06 20:26:37.090901+01 | 1486409197.0909 | pgbench_branches |         24510464

 2017-02-06 20:26:38.166549+01 | 1486409198.16655 | pgbench_accounts |      13896155136
 2017-02-06 20:26:38.166549+01 | 1486409198.16655 | pgbench_tellers  |         27271168
 2017-02-06 20:26:38.166549+01 | 1486409198.16655 | pgbench_history  |         10190848
 2017-02-06 20:26:38.166549+01 | 1486409198.16655 | pgbench_branches |         24510464

 2017-02-06 20:26:39.252608+01 | 1486409199.25261 | pgbench_accounts |      13896155136
 2017-02-06 20:26:39.252608+01 | 1486409199.25261 | pgbench_tellers  |         27271168
 2017-02-06 20:26:39.252608+01 | 1486409199.25261 | pgbench_history  |         10969088
 2017-02-06 20:26:39.252608+01 | 1486409199.25261 | pgbench_branches |         24510464

 2017-02-06 20:26:40.331142+01 | 1486409200.33114 | pgbench_accounts |      13896155136
 2017-02-06 20:26:40.331142+01 | 1486409200.33114 | pgbench_tellers  |         27271168
 2017-02-06 20:26:40.331142+01 | 1486409200.33114 | pgbench_history  |         12230656
 2017-02-06 20:26:40.331142+01 | 1486409200.33114 | pgbench_branches |         24510464

 2017-02-06 20:26:41.411381+01 | 1486409201.41138 | pgbench_accounts |      13896155136
 2017-02-06 20:26:41.411381+01 | 1486409201.41138 | pgbench_tellers  |         27271168
 2017-02-06 20:26:41.411381+01 | 1486409201.41138 | pgbench_history  |         12779520
 2017-02-06 20:26:41.411381+01 | 1486409201.41138 | pgbench_branches |         24510464

 2017-02-06 20:26:42.490753+01 | 1486409202.49075 | pgbench_accounts |      13896155136
 2017-02-06 20:26:42.490753+01 | 1486409202.49075 | pgbench_tellers  |         27271168
 2017-02-06 20:26:42.490753+01 | 1486409202.49075 | pgbench_history  |         13516800
 2017-02-06 20:26:42.490753+01 | 1486409202.49075 | pgbench_branches |         24510464

 2017-02-06 20:26:43.570049+01 | 1486409203.57005 | pgbench_accounts |      13896155136
 2017-02-06 20:26:43.570049+01 | 1486409203.57005 | pgbench_tellers  |         27271168
 2017-02-06 20:26:43.570049+01 | 1486409203.57005 | pgbench_history  |         14221312
 2017-02-06 20:26:43.570049+01 | 1486409203.57005 | pgbench_branches |         24510464

 2017-02-06 20:26:44.644543+01 | 1486409204.64454 | pgbench_accounts |      13896155136
 2017-02-06 20:26:44.644543+01 | 1486409204.64454 | pgbench_tellers  |         27271168
 2017-02-06 20:26:44.644543+01 | 1486409204.64454 | pgbench_history  |         15638528
 2017-02-06 20:26:44.644543+01 | 1486409204.64454 | pgbench_branches |         24510464

 2017-02-06 20:26:45.721898+01 | 1486409205.7219 | pgbench_accounts |      13896155136
 2017-02-06 20:26:45.721898+01 | 1486409205.7219 | pgbench_tellers  |         27271168
 2017-02-06 20:26:45.721898+01 | 1486409205.7219 | pgbench_history  |         16031744
 2017-02-06 20:26:45.721898+01 | 1486409205.7219 | pgbench_branches |         24510464

 2017-02-06 20:26:46.801065+01 | 1486409206.80106 | pgbench_accounts |      13896155136
 2017-02-06 20:26:46.801065+01 | 1486409206.80106 | pgbench_tellers  |         27271168
 2017-02-06 20:26:46.801065+01 | 1486409206.80106 | pgbench_history  |         16859136
 2017-02-06 20:26:46.801065+01 | 1486409206.80106 | pgbench_branches |         24510464

 2017-02-06 20:26:47.87546+01 | 1486409207.87546 | pgbench_accounts |      13896155136
 2017-02-06 20:26:47.87546+01 | 1486409207.87546 | pgbench_tellers  |         27271168
 2017-02-06 20:26:47.87546+01 | 1486409207.87546 | pgbench_history  |         17956864
 2017-02-06 20:26:47.87546+01 | 1486409207.87546 | pgbench_branches |         24510464

 2017-02-06 20:26:48.948179+01 | 1486409208.94818 | pgbench_accounts |      13896155136
 2017-02-06 20:26:48.948179+01 | 1486409208.94818 | pgbench_tellers  |         27271168
 2017-02-06 20:26:48.948179+01 | 1486409208.94818 | pgbench_history  |         18522112
 2017-02-06 20:26:48.948179+01 | 1486409208.94818 | pgbench_branches |         24510464

 2017-02-06 20:26:50.021338+01 | 1486409210.02134 | pgbench_accounts |      13896155136
 2017-02-06 20:26:50.021338+01 | 1486409210.02134 | pgbench_tellers  |         27271168
 2017-02-06 20:26:50.021338+01 | 1486409210.02134 | pgbench_history  |         19611648
 2017-02-06 20:26:50.021338+01 | 1486409210.02134 | pgbench_branches |         24510464

 2017-02-06 20:26:51.101303+01 | 1486409211.1013 | pgbench_accounts |      13896155136
 2017-02-06 20:26:51.101303+01 | 1486409211.1013 | pgbench_tellers  |         27271168
 2017-02-06 20:26:51.101303+01 | 1486409211.1013 | pgbench_history  |         20176896
 2017-02-06 20:26:51.101303+01 | 1486409211.1013 | pgbench_branches |         24510464

 2017-02-06 20:26:52.165641+01 | 1486409212.16564 | pgbench_accounts |      13896155136
 2017-02-06 20:26:52.165641+01 | 1486409212.16564 | pgbench_tellers  |         27271168
 2017-02-06 20:26:52.165641+01 | 1486409212.16564 | pgbench_history  |         21118976
 2017-02-06 20:26:52.165641+01 | 1486409212.16564 | pgbench_branches |         24510464

 2017-02-06 20:26:53.240172+01 | 1486409213.24017 | pgbench_accounts |      13896155136
 2017-02-06 20:26:53.240172+01 | 1486409213.24017 | pgbench_tellers  |         27271168
 2017-02-06 20:26:53.240172+01 | 1486409213.24017 | pgbench_history  |         22183936
 2017-02-06 20:26:53.240172+01 | 1486409213.24017 | pgbench_branches |         24510464

 2017-02-06 20:26:54.320614+01 | 1486409214.32061 | pgbench_accounts |      13896155136
 2017-02-06 20:26:54.320614+01 | 1486409214.32061 | pgbench_tellers  |         27271168
 2017-02-06 20:26:54.320614+01 | 1486409214.32061 | pgbench_history  |         22921216
 2017-02-06 20:26:54.320614+01 | 1486409214.32061 | pgbench_branches |         24510464

 2017-02-06 20:26:55.400886+01 | 1486409215.40089 | pgbench_accounts |      13896155136
 2017-02-06 20:26:55.400886+01 | 1486409215.40089 | pgbench_tellers  |         27271168
 2017-02-06 20:26:55.400886+01 | 1486409215.40089 | pgbench_history  |         23928832
 2017-02-06 20:26:55.400886+01 | 1486409215.40089 | pgbench_branches |         24510464

 2017-02-06 20:26:56.491105+01 | 1486409216.49111 | pgbench_accounts |      13896155136
 2017-02-06 20:26:56.491105+01 | 1486409216.49111 | pgbench_tellers  |         27271168
 2017-02-06 20:26:56.491105+01 | 1486409216.49111 | pgbench_history  |         24469504
 2017-02-06 20:26:56.491105+01 | 1486409216.49111 | pgbench_branches |         24510464

 2017-02-06 20:26:57.572421+01 | 1486409217.57242 | pgbench_accounts |      13896155136
 2017-02-06 20:26:57.572421+01 | 1486409217.57242 | pgbench_tellers  |         27271168
 2017-02-06 20:26:57.572421+01 | 1486409217.57242 | pgbench_history  |         25190400
 2017-02-06 20:26:57.572421+01 | 1486409217.57242 | pgbench_branches |         24510464

 2017-02-06 20:26:58.654818+01 | 1486409218.65482 | pgbench_accounts |      13896155136
 2017-02-06 20:26:58.654818+01 | 1486409218.65482 | pgbench_tellers  |         27271168
 2017-02-06 20:26:58.654818+01 | 1486409218.65482 | pgbench_history  |         25870336
 2017-02-06 20:26:58.654818+01 | 1486409218.65482 | pgbench_branches |         24510464

 2017-02-06 20:26:59.726051+01 | 1486409219.72605 | pgbench_accounts |      13896155136
 2017-02-06 20:26:59.726051+01 | 1486409219.72605 | pgbench_tellers  |         27271168
 2017-02-06 20:26:59.726051+01 | 1486409219.72605 | pgbench_history  |         26632192
 2017-02-06 20:26:59.726051+01 | 1486409219.72605 | pgbench_branches |         24510464

 2017-02-06 20:27:00.80836+01 | 1486409220.80836 | pgbench_accounts |      13896155136
 2017-02-06 20:27:00.80836+01 | 1486409220.80836 | pgbench_tellers  |         27271168
 2017-02-06 20:27:00.80836+01 | 1486409220.80836 | pgbench_history  |         27353088
 2017-02-06 20:27:00.80836+01 | 1486409220.80836 | pgbench_branches |         24510464

 2017-02-06 20:27:01.88562+01 | 1486409221.88562 | pgbench_accounts |      13896155136
 2017-02-06 20:27:01.88562+01 | 1486409221.88562 | pgbench_tellers  |         27271168
 2017-02-06 20:27:01.88562+01 | 1486409221.88562 | pgbench_history  |         28114944
 2017-02-06 20:27:01.88562+01 | 1486409221.88562 | pgbench_branches |         24510464

 2017-02-06 20:27:02.965821+01 | 1486409222.96582 | pgbench_accounts |      13896155136
 2017-02-06 20:27:02.965821+01 | 1486409222.96582 | pgbench_tellers  |         27271168
 2017-02-06 20:27:02.965821+01 | 1486409222.96582 | pgbench_history  |         29245440
 2017-02-06 20:27:02.965821+01 | 1486409222.96582 | pgbench_branches |         24510464

 2017-02-06 20:27:04.05671+01 | 1486409224.05671 | pgbench_accounts |      13896155136
 2017-02-06 20:27:04.05671+01 | 1486409224.05671 | pgbench_tellers  |         27271168
 2017-02-06 20:27:04.05671+01 | 1486409224.05671 | pgbench_history  |         29958144
 2017-02-06 20:27:04.05671+01 | 1486409224.05671 | pgbench_branches |         24510464

 2017-02-06 20:27:05.128154+01 | 1486409225.12815 | pgbench_accounts |      13896155136
 2017-02-06 20:27:05.128154+01 | 1486409225.12815 | pgbench_tellers  |         27271168
 2017-02-06 20:27:05.128154+01 | 1486409225.12815 | pgbench_history  |         30851072
 2017-02-06 20:27:05.128154+01 | 1486409225.12815 | pgbench_branches |         24510464

 2017-02-06 20:27:06.205993+01 | 1486409226.20599 | pgbench_accounts |      13896155136
 2017-02-06 20:27:06.205993+01 | 1486409226.20599 | pgbench_tellers  |         27271168
 2017-02-06 20:27:06.205993+01 | 1486409226.20599 | pgbench_history  |         31244288
 2017-02-06 20:27:06.205993+01 | 1486409226.20599 | pgbench_branches |         24510464

 2017-02-06 20:27:07.274562+01 | 1486409227.27456 | pgbench_accounts |      13896155136
 2017-02-06 20:27:07.274562+01 | 1486409227.27456 | pgbench_tellers  |         27271168
 2017-02-06 20:27:07.274562+01 | 1486409227.27456 | pgbench_history  |         32325632
 2017-02-06 20:27:07.274562+01 | 1486409227.27456 | pgbench_branches |         24510464

 2017-02-06 20:27:08.352974+01 | 1486409228.35297 | pgbench_accounts |      13896155136
 2017-02-06 20:27:08.352974+01 | 1486409228.35297 | pgbench_tellers  |         27271168
 2017-02-06 20:27:08.352974+01 | 1486409228.35297 | pgbench_history  |         33095680
 2017-02-06 20:27:08.352974+01 | 1486409228.35297 | pgbench_branches |         24510464

 2017-02-06 20:27:09.434259+01 | 1486409229.43426 | pgbench_accounts |      13896155136
 2017-02-06 20:27:09.434259+01 | 1486409229.43426 | pgbench_tellers  |         27271168
 2017-02-06 20:27:09.434259+01 | 1486409229.43426 | pgbench_history  |         33849344
 2017-02-06 20:27:09.434259+01 | 1486409229.43426 | pgbench_branches |         24510464

 2017-02-06 20:27:10.51157+01 | 1486409230.51157 | pgbench_accounts |      13896155136
 2017-02-06 20:27:10.51157+01 | 1486409230.51157 | pgbench_tellers  |         27271168
 2017-02-06 20:27:10.51157+01 | 1486409230.51157 | pgbench_history  |         34816000
 2017-02-06 20:27:10.51157+01 | 1486409230.51157 | pgbench_branches |         24510464

 2017-02-06 20:27:11.590029+01 | 1486409231.59003 | pgbench_accounts |      13896155136
 2017-02-06 20:27:11.590029+01 | 1486409231.59003 | pgbench_tellers  |         27271168
 2017-02-06 20:27:11.590029+01 | 1486409231.59003 | pgbench_history  |         35749888
 2017-02-06 20:27:11.590029+01 | 1486409231.59003 | pgbench_branches |         24510464

 2017-02-06 20:27:12.667398+01 | 1486409232.6674 | pgbench_accounts |      13896155136
 2017-02-06 20:27:12.667398+01 | 1486409232.6674 | pgbench_tellers  |         27271168
 2017-02-06 20:27:12.667398+01 | 1486409232.6674 | pgbench_history  |         36577280
 2017-02-06 20:27:12.667398+01 | 1486409232.6674 | pgbench_branches |         24510464

 2017-02-06 20:27:13.746753+01 | 1486409233.74675 | pgbench_accounts |      13896155136
 2017-02-06 20:27:13.746753+01 | 1486409233.74675 | pgbench_tellers  |         27271168
 2017-02-06 20:27:13.746753+01 | 1486409233.74675 | pgbench_history  |         37289984
 2017-02-06 20:27:13.746753+01 | 1486409233.74675 | pgbench_branches |         24510464

 2017-02-06 20:27:14.836999+01 | 1486409234.837 | pgbench_accounts |      13896155136
 2017-02-06 20:27:14.836999+01 | 1486409234.837 | pgbench_tellers  |         27271168
 2017-02-06 20:27:14.836999+01 | 1486409234.837 | pgbench_history  |         38215680
 2017-02-06 20:27:14.836999+01 | 1486409234.837 | pgbench_branches |         24510464

 2017-02-06 20:27:15.90485+01 | 1486409235.90485 | pgbench_accounts |      13896155136
 2017-02-06 20:27:15.90485+01 | 1486409235.90485 | pgbench_tellers  |         27271168
 2017-02-06 20:27:15.90485+01 | 1486409235.90485 | pgbench_history  |         39411712
 2017-02-06 20:27:15.90485+01 | 1486409235.90485 | pgbench_branches |         24510464

 2017-02-06 20:27:16.983943+01 | 1486409236.98394 | pgbench_accounts |      13896155136
 2017-02-06 20:27:16.983943+01 | 1486409236.98394 | pgbench_tellers  |         27271168
 2017-02-06 20:27:16.983943+01 | 1486409236.98394 | pgbench_history  |         40443904
 2017-02-06 20:27:16.983943+01 | 1486409236.98394 | pgbench_branches |         24510464

 2017-02-06 20:27:18.065455+01 | 1486409238.06545 | pgbench_accounts |      13896155136
 2017-02-06 20:27:18.065455+01 | 1486409238.06545 | pgbench_tellers  |         27271168
 2017-02-06 20:27:18.065455+01 | 1486409238.06545 | pgbench_history  |         40632320
 2017-02-06 20:27:18.065455+01 | 1486409238.06545 | pgbench_branches |         24510464

 2017-02-06 20:27:19.145376+01 | 1486409239.14538 | pgbench_accounts |      13896155136
 2017-02-06 20:27:19.145376+01 | 1486409239.14538 | pgbench_tellers  |         27271168
 2017-02-06 20:27:19.145376+01 | 1486409239.14538 | pgbench_history  |         41500672
 2017-02-06 20:27:19.145376+01 | 1486409239.14538 | pgbench_branches |         24510464

 2017-02-06 20:27:20.222419+01 | 1486409240.22242 | pgbench_accounts |      13896155136
 2017-02-06 20:27:20.222419+01 | 1486409240.22242 | pgbench_tellers  |         27271168
 2017-02-06 20:27:20.222419+01 | 1486409240.22242 | pgbench_history  |         42483712
 2017-02-06 20:27:20.222419+01 | 1486409240.22242 | pgbench_branches |         24510464

 2017-02-06 20:27:21.296504+01 | 1486409241.2965 | pgbench_accounts |      13896155136
 2017-02-06 20:27:21.296504+01 | 1486409241.2965 | pgbench_tellers  |         27271168
 2017-02-06 20:27:21.296504+01 | 1486409241.2965 | pgbench_history  |         43376640
 2017-02-06 20:27:21.296504+01 | 1486409241.2965 | pgbench_branches |         24510464

 2017-02-06 20:27:22.371511+01 | 1486409242.37151 | pgbench_accounts |      13896155136
 2017-02-06 20:27:22.371511+01 | 1486409242.37151 | pgbench_tellers  |         27271168
 2017-02-06 20:27:22.371511+01 | 1486409242.37151 | pgbench_history  |         44081152
 2017-02-06 20:27:22.371511+01 | 1486409242.37151 | pgbench_branches |         24510464

 2017-02-06 20:27:23.457594+01 | 1486409243.45759 | pgbench_accounts |      13896155136
 2017-02-06 20:27:23.457594+01 | 1486409243.45759 | pgbench_tellers  |         27271168
 2017-02-06 20:27:23.457594+01 | 1486409243.45759 | pgbench_history  |         44982272
 2017-02-06 20:27:23.457594+01 | 1486409243.45759 | pgbench_branches |         24510464

 2017-02-06 20:27:24.531636+01 | 1486409244.53164 | pgbench_accounts |      13896155136
 2017-02-06 20:27:24.531636+01 | 1486409244.53164 | pgbench_tellers  |         27271168
 2017-02-06 20:27:24.531636+01 | 1486409244.53164 | pgbench_history  |         45850624
 2017-02-06 20:27:24.531636+01 | 1486409244.53164 | pgbench_branches |         24510464

 2017-02-06 20:27:25.600978+01 | 1486409245.60098 | pgbench_accounts |      13896155136
 2017-02-06 20:27:25.600978+01 | 1486409245.60098 | pgbench_tellers  |         27271168
 2017-02-06 20:27:25.600978+01 | 1486409245.60098 | pgbench_history  |         46751744
 2017-02-06 20:27:25.600978+01 | 1486409245.60098 | pgbench_branches |         24510464

 2017-02-06 20:27:26.68296+01 | 1486409246.68296 | pgbench_accounts |      13896155136
 2017-02-06 20:27:26.68296+01 | 1486409246.68296 | pgbench_tellers  |         27271168
 2017-02-06 20:27:26.68296+01 | 1486409246.68296 | pgbench_history  |         47521792
 2017-02-06 20:27:26.68296+01 | 1486409246.68296 | pgbench_branches |         24510464

 2017-02-06 20:27:27.755277+01 | 1486409247.75528 | pgbench_accounts |      13896155136
 2017-02-06 20:27:27.755277+01 | 1486409247.75528 | pgbench_tellers  |         27271168
 2017-02-06 20:27:27.755277+01 | 1486409247.75528 | pgbench_history  |         48275456
 2017-02-06 20:27:27.755277+01 | 1486409247.75528 | pgbench_branches |         24510464

 2017-02-06 20:27:28.829865+01 | 1486409248.82986 | pgbench_accounts |      13896155136
 2017-02-06 20:27:28.829865+01 | 1486409248.82986 | pgbench_tellers  |         27271168
 2017-02-06 20:27:28.829865+01 | 1486409248.82986 | pgbench_history  |         48988160
 2017-02-06 20:27:28.829865+01 | 1486409248.82986 | pgbench_branches |         24510464

 2017-02-06 20:27:29.904088+01 | 1486409249.90409 | pgbench_accounts |      13896155136
 2017-02-06 20:27:29.904088+01 | 1486409249.90409 | pgbench_tellers  |         27271168
 2017-02-06 20:27:29.904088+01 | 1486409249.90409 | pgbench_history  |         49881088
 2017-02-06 20:27:29.904088+01 | 1486409249.90409 | pgbench_branches |         24510464

 2017-02-06 20:27:30.975244+01 | 1486409250.97524 | pgbench_accounts |      13896155136
 2017-02-06 20:27:30.975244+01 | 1486409250.97524 | pgbench_tellers  |         27271168
 2017-02-06 20:27:30.975244+01 | 1486409250.97524 | pgbench_history  |         50642944
 2017-02-06 20:27:30.975244+01 | 1486409250.97524 | pgbench_branches |         24510464

 2017-02-06 20:27:32.057071+01 | 1486409252.05707 | pgbench_accounts |      13896155136
 2017-02-06 20:27:32.057071+01 | 1486409252.05707 | pgbench_tellers  |         27271168
 2017-02-06 20:27:32.057071+01 | 1486409252.05707 | pgbench_history  |         51593216
 2017-02-06 20:27:32.057071+01 | 1486409252.05707 | pgbench_branches |         24510464

 2017-02-06 20:27:33.135401+01 | 1486409253.1354 | pgbench_accounts |      13896155136
 2017-02-06 20:27:33.135401+01 | 1486409253.1354 | pgbench_tellers  |         27271168
 2017-02-06 20:27:33.135401+01 | 1486409253.1354 | pgbench_history  |         52789248
 2017-02-06 20:27:33.135401+01 | 1486409253.1354 | pgbench_branches |         24510464

 2017-02-06 20:27:34.215095+01 | 1486409254.2151 | pgbench_accounts |      13896155136
 2017-02-06 20:27:34.215095+01 | 1486409254.2151 | pgbench_tellers  |         27271168
 2017-02-06 20:27:34.215095+01 | 1486409254.2151 | pgbench_history  |         53182464
 2017-02-06 20:27:34.215095+01 | 1486409254.2151 | pgbench_branches |         24510464

 2017-02-06 20:27:35.301612+01 | 1486409255.30161 | pgbench_accounts |      13896155136
 2017-02-06 20:27:35.301612+01 | 1486409255.30161 | pgbench_tellers  |         27271168
 2017-02-06 20:27:35.301612+01 | 1486409255.30161 | pgbench_history  |         54099968
 2017-02-06 20:27:35.301612+01 | 1486409255.30161 | pgbench_branches |         24510464

 2017-02-06 20:27:36.377888+01 | 1486409256.37789 | pgbench_accounts |      13896155136
 2017-02-06 20:27:36.377888+01 | 1486409256.37789 | pgbench_tellers  |         27271168
 2017-02-06 20:27:36.377888+01 | 1486409256.37789 | pgbench_history  |         54665216
 2017-02-06 20:27:36.377888+01 | 1486409256.37789 | pgbench_branches |         24510464

 2017-02-06 20:27:37.449534+01 | 1486409257.44953 | pgbench_accounts |      13896155136
 2017-02-06 20:27:37.449534+01 | 1486409257.44953 | pgbench_tellers  |         27271168
 2017-02-06 20:27:37.449534+01 | 1486409257.44953 | pgbench_history  |         55599104
 2017-02-06 20:27:37.449534+01 | 1486409257.44953 | pgbench_branches |         24510464

 2017-02-06 20:27:38.532071+01 | 1486409258.53207 | pgbench_accounts |      13896155136
 2017-02-06 20:27:38.532071+01 | 1486409258.53207 | pgbench_tellers  |         27271168
 2017-02-06 20:27:38.532071+01 | 1486409258.53207 | pgbench_history  |         56377344
 2017-02-06 20:27:38.532071+01 | 1486409258.53207 | pgbench_branches |         24510464

 2017-02-06 20:27:39.603279+01 | 1486409259.60328 | pgbench_accounts |      13896155136
 2017-02-06 20:27:39.603279+01 | 1486409259.60328 | pgbench_tellers  |         27271168
 2017-02-06 20:27:39.603279+01 | 1486409259.60328 | pgbench_history  |         57294848
 2017-02-06 20:27:39.603279+01 | 1486409259.60328 | pgbench_branches |         24510464

 2017-02-06 20:27:40.678404+01 | 1486409260.6784 | pgbench_accounts |      13896155136
 2017-02-06 20:27:40.678404+01 | 1486409260.6784 | pgbench_tellers  |         27271168
 2017-02-06 20:27:40.678404+01 | 1486409260.6784 | pgbench_history  |         58064896
 2017-02-06 20:27:40.678404+01 | 1486409260.6784 | pgbench_branches |         24510464

 2017-02-06 20:27:41.76095+01 | 1486409261.76095 | pgbench_accounts |      13896155136
 2017-02-06 20:27:41.76095+01 | 1486409261.76095 | pgbench_tellers  |         27271168
 2017-02-06 20:27:41.76095+01 | 1486409261.76095 | pgbench_history  |         58777600
 2017-02-06 20:27:41.76095+01 | 1486409261.76095 | pgbench_branches |         24510464

 2017-02-06 20:27:42.833633+01 | 1486409262.83363 | pgbench_accounts |      13896155136
 2017-02-06 20:27:42.833633+01 | 1486409262.83363 | pgbench_tellers  |         27271168
 2017-02-06 20:27:42.833633+01 | 1486409262.83363 | pgbench_history  |         59670528
 2017-02-06 20:27:42.833633+01 | 1486409262.83363 | pgbench_branches |         24510464

 2017-02-06 20:27:43.913147+01 | 1486409263.91315 | pgbench_accounts |      13896155136
 2017-02-06 20:27:43.913147+01 | 1486409263.91315 | pgbench_tellers  |         27271168
 2017-02-06 20:27:43.913147+01 | 1486409263.91315 | pgbench_history  |         60211200
 2017-02-06 20:27:43.913147+01 | 1486409263.91315 | pgbench_branches |         24510464

 2017-02-06 20:27:44.986103+01 | 1486409264.9861 | pgbench_accounts |      13896155136
 2017-02-06 20:27:44.986103+01 | 1486409264.9861 | pgbench_tellers  |         27271168
 2017-02-06 20:27:44.986103+01 | 1486409264.9861 | pgbench_history  |         61136896
 2017-02-06 20:27:44.986103+01 | 1486409264.9861 | pgbench_branches |         24510464

 2017-02-06 20:27:46.059094+01 | 1486409266.05909 | pgbench_accounts |      13896155136
 2017-02-06 20:27:46.059094+01 | 1486409266.05909 | pgbench_tellers  |         27271168
 2017-02-06 20:27:46.059094+01 | 1486409266.05909 | pgbench_history  |         61890560
 2017-02-06 20:27:46.059094+01 | 1486409266.05909 | pgbench_branches |         24510464

 2017-02-06 20:27:47.138006+01 | 1486409267.13801 | pgbench_accounts |      13896155136
 2017-02-06 20:27:47.138006+01 | 1486409267.13801 | pgbench_tellers  |         27271168
 2017-02-06 20:27:47.138006+01 | 1486409267.13801 | pgbench_history  |         62939136
 2017-02-06 20:27:47.138006+01 | 1486409267.13801 | pgbench_branches |         24510464

 2017-02-06 20:27:48.218452+01 | 1486409268.21845 | pgbench_accounts |      13896155136
 2017-02-06 20:27:48.218452+01 | 1486409268.21845 | pgbench_tellers  |         27271168
 2017-02-06 20:27:48.218452+01 | 1486409268.21845 | pgbench_history  |         63815680
 2017-02-06 20:27:48.218452+01 | 1486409268.21845 | pgbench_branches |         24510464

 2017-02-06 20:27:49.296186+01 | 1486409269.29619 | pgbench_accounts |      13896155136
 2017-02-06 20:27:49.296186+01 | 1486409269.29619 | pgbench_tellers  |         27271168
 2017-02-06 20:27:49.296186+01 | 1486409269.29619 | pgbench_history  |         64167936
 2017-02-06 20:27:49.296186+01 | 1486409269.29619 | pgbench_branches |         24510464

 2017-02-06 20:27:50.368929+01 | 1486409270.36893 | pgbench_accounts |      13896155136
 2017-02-06 20:27:50.368929+01 | 1486409270.36893 | pgbench_tellers  |         27271168
 2017-02-06 20:27:50.368929+01 | 1486409270.36893 | pgbench_history  |         65069056
 2017-02-06 20:27:50.368929+01 | 1486409270.36893 | pgbench_branches |         24510464

 2017-02-06 20:27:51.451024+01 | 1486409271.45102 | pgbench_accounts |      13896155136
 2017-02-06 20:27:51.451024+01 | 1486409271.45102 | pgbench_tellers  |         27271168
 2017-02-06 20:27:51.451024+01 | 1486409271.45102 | pgbench_history  |         65609728
 2017-02-06 20:27:51.451024+01 | 1486409271.45102 | pgbench_branches |         24510464

 2017-02-06 20:27:52.528526+01 | 1486409272.52853 | pgbench_accounts |      13896155136
 2017-02-06 20:27:52.528526+01 | 1486409272.52853 | pgbench_tellers  |         27271168
 2017-02-06 20:27:52.528526+01 | 1486409272.52853 | pgbench_history  |         66682880
 2017-02-06 20:27:52.528526+01 | 1486409272.52853 | pgbench_branches |         24510464

 2017-02-06 20:27:53.61134+01 | 1486409273.61134 | pgbench_accounts |      13896155136
 2017-02-06 20:27:53.61134+01 | 1486409273.61134 | pgbench_tellers  |         27271168
 2017-02-06 20:27:53.61134+01 | 1486409273.61134 | pgbench_history  |         67387392
 2017-02-06 20:27:53.61134+01 | 1486409273.61134 | pgbench_branches |         24510464

 2017-02-06 20:27:54.686758+01 | 1486409274.68676 | pgbench_accounts |      13896155136
 2017-02-06 20:27:54.686758+01 | 1486409274.68676 | pgbench_tellers  |         27271168
 2017-02-06 20:27:54.686758+01 | 1486409274.68676 | pgbench_history  |         68091904
 2017-02-06 20:27:54.686758+01 | 1486409274.68676 | pgbench_branches |         24510464

 2017-02-06 20:27:55.76062+01 | 1486409275.76062 | pgbench_accounts |      13896155136
 2017-02-06 20:27:55.76062+01 | 1486409275.76062 | pgbench_tellers  |         27271168
 2017-02-06 20:27:55.76062+01 | 1486409275.76062 | pgbench_history  |         68796416
 2017-02-06 20:27:55.76062+01 | 1486409275.76062 | pgbench_branches |         24510464

 2017-02-06 20:27:56.84605+01 | 1486409276.84605 | pgbench_accounts |      13896155136
 2017-02-06 20:27:56.84605+01 | 1486409276.84605 | pgbench_tellers  |         27271168
 2017-02-06 20:27:56.84605+01 | 1486409276.84605 | pgbench_history  |         69574656
 2017-02-06 20:27:56.84605+01 | 1486409276.84605 | pgbench_branches |         24510464

 2017-02-06 20:27:57.918036+01 | 1486409277.91804 | pgbench_accounts |      13896155136
 2017-02-06 20:27:57.918036+01 | 1486409277.91804 | pgbench_tellers  |         27271168
 2017-02-06 20:27:57.918036+01 | 1486409277.91804 | pgbench_history  |         70443008
 2017-02-06 20:27:57.918036+01 | 1486409277.91804 | pgbench_branches |         24510464

 2017-02-06 20:27:58.990224+01 | 1486409278.99022 | pgbench_accounts |      13896155136
 2017-02-06 20:27:58.990224+01 | 1486409278.99022 | pgbench_tellers  |         27271168
 2017-02-06 20:27:58.990224+01 | 1486409278.99022 | pgbench_history  |         71221248
 2017-02-06 20:27:58.990224+01 | 1486409278.99022 | pgbench_branches |         24510464

 2017-02-06 20:28:00.06671+01 | 1486409280.06671 | pgbench_accounts |      13896155136
 2017-02-06 20:28:00.06671+01 | 1486409280.06671 | pgbench_tellers  |         27271168
 2017-02-06 20:28:00.06671+01 | 1486409280.06671 | pgbench_history  |         72114176
 2017-02-06 20:28:00.06671+01 | 1486409280.06671 | pgbench_branches |         24510464

 2017-02-06 20:28:01.144134+01 | 1486409281.14413 | pgbench_accounts |      13896155136
 2017-02-06 20:28:01.144134+01 | 1486409281.14413 | pgbench_tellers  |         27271168
 2017-02-06 20:28:01.144134+01 | 1486409281.14413 | pgbench_history  |         72654848
 2017-02-06 20:28:01.144134+01 | 1486409281.14413 | pgbench_branches |         24510464

 2017-02-06 20:28:02.226285+01 | 1486409282.22628 | pgbench_accounts |      13896155136
 2017-02-06 20:28:02.226285+01 | 1486409282.22628 | pgbench_tellers  |         27271168
 2017-02-06 20:28:02.226285+01 | 1486409282.22628 | pgbench_history  |         73850880
 2017-02-06 20:28:02.226285+01 | 1486409282.22628 | pgbench_branches |         24510464

 2017-02-06 20:28:03.312597+01 | 1486409283.3126 | pgbench_accounts |      13896155136
 2017-02-06 20:28:03.312597+01 | 1486409283.3126 | pgbench_tellers  |         27271168
 2017-02-06 20:28:03.312597+01 | 1486409283.3126 | pgbench_history  |         74424320
 2017-02-06 20:28:03.312597+01 | 1486409283.3126 | pgbench_branches |         24510464

 2017-02-06 20:28:04.391079+01 | 1486409284.39108 | pgbench_accounts |      13896155136
 2017-02-06 20:28:04.391079+01 | 1486409284.39108 | pgbench_tellers  |         27271168
 2017-02-06 20:28:04.391079+01 | 1486409284.39108 | pgbench_history  |         75153408
 2017-02-06 20:28:04.391079+01 | 1486409284.39108 | pgbench_branches |         24510464

 2017-02-06 20:28:05.466751+01 | 1486409285.46675 | pgbench_accounts |      13896155136
 2017-02-06 20:28:05.466751+01 | 1486409285.46675 | pgbench_tellers  |         27271168
 2017-02-06 20:28:05.466751+01 | 1486409285.46675 | pgbench_history  |         76029952
 2017-02-06 20:28:05.466751+01 | 1486409285.46675 | pgbench_branches |         24510464

 2017-02-06 20:28:06.545585+01 | 1486409286.54558 | pgbench_accounts |      13896155136
 2017-02-06 20:28:06.545585+01 | 1486409286.54558 | pgbench_tellers  |         27271168
 2017-02-06 20:28:06.545585+01 | 1486409286.54558 | pgbench_history  |         76939264
 2017-02-06 20:28:06.545585+01 | 1486409286.54558 | pgbench_branches |         24510464

 2017-02-06 20:28:07.625784+01 | 1486409287.62578 | pgbench_accounts |      13896155136
 2017-02-06 20:28:07.625784+01 | 1486409287.62578 | pgbench_tellers  |         27271168
 2017-02-06 20:28:07.625784+01 | 1486409287.62578 | pgbench_history  |         77316096
 2017-02-06 20:28:07.625784+01 | 1486409287.62578 | pgbench_branches |         24510464

 2017-02-06 20:28:08.71284+01 | 1486409288.71284 | pgbench_accounts |      13896155136
 2017-02-06 20:28:08.71284+01 | 1486409288.71284 | pgbench_tellers  |         27271168
 2017-02-06 20:28:08.71284+01 | 1486409288.71284 | pgbench_history  |         78192640
 2017-02-06 20:28:08.71284+01 | 1486409288.71284 | pgbench_branches |         24510464

 2017-02-06 20:28:09.787277+01 | 1486409289.78728 | pgbench_accounts |      13896155136
 2017-02-06 20:28:09.787277+01 | 1486409289.78728 | pgbench_tellers  |         27271168
 2017-02-06 20:28:09.787277+01 | 1486409289.78728 | pgbench_history  |         79060992
 2017-02-06 20:28:09.787277+01 | 1486409289.78728 | pgbench_branches |         24510464

 2017-02-06 20:28:10.866587+01 | 1486409290.86659 | pgbench_accounts |      13896155136
 2017-02-06 20:28:10.866587+01 | 1486409290.86659 | pgbench_tellers  |         27271168
 2017-02-06 20:28:10.866587+01 | 1486409290.86659 | pgbench_history  |         79765504
 2017-02-06 20:28:10.866587+01 | 1486409290.86659 | pgbench_branches |         24510464

 2017-02-06 20:28:11.93705+01 | 1486409291.93705 | pgbench_accounts |      13896155136
 2017-02-06 20:28:11.93705+01 | 1486409291.93705 | pgbench_tellers  |         27271168
 2017-02-06 20:28:11.93705+01 | 1486409291.93705 | pgbench_history  |         80117760
 2017-02-06 20:28:11.93705+01 | 1486409291.93705 | pgbench_branches |         24510464

 2017-02-06 20:28:13.011121+01 | 1486409293.01112 | pgbench_accounts |      13896155136
 2017-02-06 20:28:13.011121+01 | 1486409293.01112 | pgbench_tellers  |         27271168
 2017-02-06 20:28:13.011121+01 | 1486409293.01112 | pgbench_history  |         80527360
 2017-02-06 20:28:13.011121+01 | 1486409293.01112 | pgbench_branches |         24510464

 2017-02-06 20:28:14.08975+01 | 1486409294.08975 | pgbench_accounts |      13896155136
 2017-02-06 20:28:14.08975+01 | 1486409294.08975 | pgbench_tellers  |         27271168
 2017-02-06 20:28:14.08975+01 | 1486409294.08975 | pgbench_history  |         81936384
 2017-02-06 20:28:14.08975+01 | 1486409294.08975 | pgbench_branches |         24510464

 2017-02-06 20:28:15.16759+01 | 1486409295.16759 | pgbench_accounts |      13896155136
 2017-02-06 20:28:15.16759+01 | 1486409295.16759 | pgbench_tellers  |         27271168
 2017-02-06 20:28:15.16759+01 | 1486409295.16759 | pgbench_history  |         81936384
 2017-02-06 20:28:15.16759+01 | 1486409295.16759 | pgbench_branches |         24510464

 2017-02-06 20:28:16.256204+01 | 1486409296.2562 | pgbench_accounts |      13896155136
 2017-02-06 20:28:16.256204+01 | 1486409296.2562 | pgbench_tellers  |         27271168
 2017-02-06 20:28:16.256204+01 | 1486409296.2562 | pgbench_history  |         82976768
 2017-02-06 20:28:16.256204+01 | 1486409296.2562 | pgbench_branches |         24510464

 2017-02-06 20:28:17.326986+01 | 1486409297.32699 | pgbench_accounts |      13896155136
 2017-02-06 20:28:17.326986+01 | 1486409297.32699 | pgbench_tellers  |         27271168
 2017-02-06 20:28:17.326986+01 | 1486409297.32699 | pgbench_history  |         83369984
 2017-02-06 20:28:17.326986+01 | 1486409297.32699 | pgbench_branches |         24510464

 2017-02-06 20:28:18.406446+01 | 1486409298.40645 | pgbench_accounts |      13896155136
 2017-02-06 20:28:18.406446+01 | 1486409298.40645 | pgbench_tellers  |         27271168
 2017-02-06 20:28:18.406446+01 | 1486409298.40645 | pgbench_history  |         84262912
 2017-02-06 20:28:18.406446+01 | 1486409298.40645 | pgbench_branches |         24510464

 2017-02-06 20:28:19.490481+01 | 1486409299.49048 | pgbench_accounts |      13896155136
 2017-02-06 20:28:19.490481+01 | 1486409299.49048 | pgbench_tellers  |         27271168
 2017-02-06 20:28:19.490481+01 | 1486409299.49048 | pgbench_history  |         84836352
 2017-02-06 20:28:19.490481+01 | 1486409299.49048 | pgbench_branches |         24510464

 2017-02-06 20:28:20.569179+01 | 1486409300.56918 | pgbench_accounts |      13896155136
 2017-02-06 20:28:20.569179+01 | 1486409300.56918 | pgbench_tellers  |         27271168
 2017-02-06 20:28:20.569179+01 | 1486409300.56918 | pgbench_history  |         85614592
 2017-02-06 20:28:20.569179+01 | 1486409300.56918 | pgbench_branches |         24510464

 2017-02-06 20:28:21.643139+01 | 1486409301.64314 | pgbench_accounts |      13896155136
 2017-02-06 20:28:21.643139+01 | 1486409301.64314 | pgbench_tellers  |         27271168
 2017-02-06 20:28:21.643139+01 | 1486409301.64314 | pgbench_history  |         86507520
 2017-02-06 20:28:21.643139+01 | 1486409301.64314 | pgbench_branches |         24510464

 2017-02-06 20:28:22.720494+01 | 1486409302.72049 | pgbench_accounts |      13896155136
 2017-02-06 20:28:22.720494+01 | 1486409302.72049 | pgbench_tellers  |         27271168
 2017-02-06 20:28:22.720494+01 | 1486409302.72049 | pgbench_history  |         87408640
 2017-02-06 20:28:22.720494+01 | 1486409302.72049 | pgbench_branches |         24510464

 2017-02-06 20:28:23.799169+01 | 1486409303.79917 | pgbench_accounts |      13896155136
 2017-02-06 20:28:23.799169+01 | 1486409303.79917 | pgbench_tellers  |         27271168
 2017-02-06 20:28:23.799169+01 | 1486409303.79917 | pgbench_history  |         88113152
 2017-02-06 20:28:23.799169+01 | 1486409303.79917 | pgbench_branches |         24510464

 2017-02-06 20:28:24.873316+01 | 1486409304.87332 | pgbench_accounts |      13896155136
 2017-02-06 20:28:24.873316+01 | 1486409304.87332 | pgbench_tellers  |         27271168
 2017-02-06 20:28:24.873316+01 | 1486409304.87332 | pgbench_history  |         88858624
 2017-02-06 20:28:24.873316+01 | 1486409304.87332 | pgbench_branches |         24510464

 2017-02-06 20:28:25.963741+01 | 1486409305.96374 | pgbench_accounts |      13896155136
 2017-02-06 20:28:25.963741+01 | 1486409305.96374 | pgbench_tellers  |         27271168
 2017-02-06 20:28:25.963741+01 | 1486409305.96374 | pgbench_history  |         89817088
 2017-02-06 20:28:25.963741+01 | 1486409305.96374 | pgbench_branches |         24510464

 2017-02-06 20:28:27.041006+01 | 1486409307.04101 | pgbench_accounts |      13896155136
 2017-02-06 20:28:27.041006+01 | 1486409307.04101 | pgbench_tellers  |         27271168
 2017-02-06 20:28:27.041006+01 | 1486409307.04101 | pgbench_history  |         90546176
 2017-02-06 20:28:27.041006+01 | 1486409307.04101 | pgbench_branches |         24510464

 2017-02-06 20:28:28.125026+01 | 1486409308.12503 | pgbench_accounts |      13896155136
 2017-02-06 20:28:28.125026+01 | 1486409308.12503 | pgbench_tellers  |         27271168
 2017-02-06 20:28:28.125026+01 | 1486409308.12503 | pgbench_history  |         91783168
 2017-02-06 20:28:28.125026+01 | 1486409308.12503 | pgbench_branches |         24510464

 2017-02-06 20:28:29.198329+01 | 1486409309.19833 | pgbench_accounts |      13896155136
 2017-02-06 20:28:29.198329+01 | 1486409309.19833 | pgbench_tellers  |         27271168
 2017-02-06 20:28:29.198329+01 | 1486409309.19833 | pgbench_history  |         91783168
 2017-02-06 20:28:29.198329+01 | 1486409309.19833 | pgbench_branches |         24510464

 2017-02-06 20:28:30.272365+01 | 1486409310.27237 | pgbench_accounts |      13896155136
 2017-02-06 20:28:30.272365+01 | 1486409310.27237 | pgbench_tellers  |         27271168
 2017-02-06 20:28:30.272365+01 | 1486409310.27237 | pgbench_history  |         92561408
 2017-02-06 20:28:30.272365+01 | 1486409310.27237 | pgbench_branches |         24510464

 2017-02-06 20:28:31.346773+01 | 1486409311.34677 | pgbench_accounts |      13896155136
 2017-02-06 20:28:31.346773+01 | 1486409311.34677 | pgbench_tellers  |         27271168
 2017-02-06 20:28:31.346773+01 | 1486409311.34677 | pgbench_history  |         93347840
 2017-02-06 20:28:31.346773+01 | 1486409311.34677 | pgbench_branches |         24510464

 2017-02-06 20:28:32.421389+01 | 1486409312.42139 | pgbench_accounts |      13896155136
 2017-02-06 20:28:32.421389+01 | 1486409312.42139 | pgbench_tellers  |         27271168
 2017-02-06 20:28:32.421389+01 | 1486409312.42139 | pgbench_history  |         94117888
 2017-02-06 20:28:32.421389+01 | 1486409312.42139 | pgbench_branches |         24510464

 2017-02-06 20:28:33.500005+01 | 1486409313.50001 | pgbench_accounts |      13896155136
 2017-02-06 20:28:33.500005+01 | 1486409313.50001 | pgbench_tellers  |         27271168
 2017-02-06 20:28:33.500005+01 | 1486409313.50001 | pgbench_history  |         94986240
 2017-02-06 20:28:33.500005+01 | 1486409313.50001 | pgbench_branches |         24510464

 2017-02-06 20:28:34.58341+01 | 1486409314.58341 | pgbench_accounts |      13896155136
 2017-02-06 20:28:34.58341+01 | 1486409314.58341 | pgbench_tellers  |         27271168
 2017-02-06 20:28:34.58341+01 | 1486409314.58341 | pgbench_history  |         95592448
 2017-02-06 20:28:34.58341+01 | 1486409314.58341 | pgbench_branches |         24510464

 2017-02-06 20:28:35.660654+01 | 1486409315.66065 | pgbench_accounts |      13896155136
 2017-02-06 20:28:35.660654+01 | 1486409315.66065 | pgbench_tellers  |         27271168
 2017-02-06 20:28:35.660654+01 | 1486409315.66065 | pgbench_history  |         96346112
 2017-02-06 20:28:35.660654+01 | 1486409315.66065 | pgbench_branches |         24510464

 2017-02-06 20:28:36.737711+01 | 1486409316.73771 | pgbench_accounts |      13896155136
 2017-02-06 20:28:36.737711+01 | 1486409316.73771 | pgbench_tellers  |         27271168
 2017-02-06 20:28:36.737711+01 | 1486409316.73771 | pgbench_history  |         97222656
 2017-02-06 20:28:36.737711+01 | 1486409316.73771 | pgbench_branches |         24510464

 2017-02-06 20:28:37.815956+01 | 1486409317.81596 | pgbench_accounts |      13896155136
 2017-02-06 20:28:37.815956+01 | 1486409317.81596 | pgbench_tellers  |         27271168
 2017-02-06 20:28:37.815956+01 | 1486409317.81596 | pgbench_history  |         97878016
 2017-02-06 20:28:37.815956+01 | 1486409317.81596 | pgbench_branches |         24510464

 2017-02-06 20:28:38.893384+01 | 1486409318.89338 | pgbench_accounts |      13896155136
 2017-02-06 20:28:38.893384+01 | 1486409318.89338 | pgbench_tellers  |         27271168
 2017-02-06 20:28:38.893384+01 | 1486409318.89338 | pgbench_history  |         98607104
 2017-02-06 20:28:38.893384+01 | 1486409318.89338 | pgbench_branches |         24510464

 2017-02-06 20:28:39.968166+01 | 1486409319.96817 | pgbench_accounts |      13896155136
 2017-02-06 20:28:39.968166+01 | 1486409319.96817 | pgbench_tellers  |         27271168
 2017-02-06 20:28:39.968166+01 | 1486409319.96817 | pgbench_history  |         99360768
 2017-02-06 20:28:39.968166+01 | 1486409319.96817 | pgbench_branches |         24510464

 2017-02-06 20:28:41.046979+01 | 1486409321.04698 | pgbench_accounts |      13896155136
 2017-02-06 20:28:41.046979+01 | 1486409321.04698 | pgbench_tellers  |         27271168
 2017-02-06 20:28:41.046979+01 | 1486409321.04698 | pgbench_history  |        100089856
 2017-02-06 20:28:41.046979+01 | 1486409321.04698 | pgbench_branches |         24510464

 2017-02-06 20:28:42.126768+01 | 1486409322.12677 | pgbench_accounts |      13896155136
 2017-02-06 20:28:42.126768+01 | 1486409322.12677 | pgbench_tellers  |         27271168
 2017-02-06 20:28:42.126768+01 | 1486409322.12677 | pgbench_history  |        101195776
 2017-02-06 20:28:42.126768+01 | 1486409322.12677 | pgbench_branches |         24510464

 2017-02-06 20:28:43.203964+01 | 1486409323.20396 | pgbench_accounts |      13896155136
 2017-02-06 20:28:43.203964+01 | 1486409323.20396 | pgbench_tellers  |         27271168
 2017-02-06 20:28:43.203964+01 | 1486409323.20396 | pgbench_history  |        101736448
 2017-02-06 20:28:43.203964+01 | 1486409323.20396 | pgbench_branches |         24510464

 2017-02-06 20:28:44.27988+01 | 1486409324.27988 | pgbench_accounts |      13896155136
 2017-02-06 20:28:44.27988+01 | 1486409324.27988 | pgbench_tellers  |         27271168
 2017-02-06 20:28:44.27988+01 | 1486409324.27988 | pgbench_history  |        102498304
 2017-02-06 20:28:44.27988+01 | 1486409324.27988 | pgbench_branches |         24510464

 2017-02-06 20:28:45.348527+01 | 1486409325.34853 | pgbench_accounts |      13896155136
 2017-02-06 20:28:45.348527+01 | 1486409325.34853 | pgbench_tellers  |         27271168
 2017-02-06 20:28:45.348527+01 | 1486409325.34853 | pgbench_history  |        103383040
 2017-02-06 20:28:45.348527+01 | 1486409325.34853 | pgbench_branches |         24510464

 2017-02-06 20:28:46.409615+01 | 1486409326.40962 | pgbench_accounts |      13896155136
 2017-02-06 20:28:46.409615+01 | 1486409326.40962 | pgbench_tellers  |         27271168
 2017-02-06 20:28:46.409615+01 | 1486409326.40962 | pgbench_history  |        104284160
 2017-02-06 20:28:46.409615+01 | 1486409326.40962 | pgbench_branches |         24510464

 2017-02-06 20:28:47.471751+01 | 1486409327.47175 | pgbench_accounts |      13896155136
 2017-02-06 20:28:47.471751+01 | 1486409327.47175 | pgbench_tellers  |         27271168
 2017-02-06 20:28:47.471751+01 | 1486409327.47175 | pgbench_history  |        105005056
 2017-02-06 20:28:47.471751+01 | 1486409327.47175 | pgbench_branches |         24510464

 2017-02-06 20:28:48.546249+01 | 1486409328.54625 | pgbench_accounts |      13896155136
 2017-02-06 20:28:48.546249+01 | 1486409328.54625 | pgbench_tellers  |         27271168
 2017-02-06 20:28:48.546249+01 | 1486409328.54625 | pgbench_history  |        105684992
 2017-02-06 20:28:48.546249+01 | 1486409328.54625 | pgbench_branches |         24510464

 2017-02-06 20:28:49.62761+01 | 1486409329.62761 | pgbench_accounts |      13896155136
 2017-02-06 20:28:49.62761+01 | 1486409329.62761 | pgbench_tellers  |         27271168
 2017-02-06 20:28:49.62761+01 | 1486409329.62761 | pgbench_history  |        106242048
 2017-02-06 20:28:49.62761+01 | 1486409329.62761 | pgbench_branches |         24510464

 2017-02-06 20:28:50.708551+01 | 1486409330.70855 | pgbench_accounts |      13896155136
 2017-02-06 20:28:50.708551+01 | 1486409330.70855 | pgbench_tellers  |         27271168
 2017-02-06 20:28:50.708551+01 | 1486409330.70855 | pgbench_history  |        107274240
 2017-02-06 20:28:50.708551+01 | 1486409330.70855 | pgbench_branches |         24510464

 2017-02-06 20:28:51.78584+01 | 1486409331.78584 | pgbench_accounts |      13896155136
 2017-02-06 20:28:51.78584+01 | 1486409331.78584 | pgbench_tellers  |         27271168
 2017-02-06 20:28:51.78584+01 | 1486409331.78584 | pgbench_history  |        107683840
 2017-02-06 20:28:51.78584+01 | 1486409331.78584 | pgbench_branches |         24510464

 2017-02-06 20:28:52.860436+01 | 1486409332.86044 | pgbench_accounts |      13896155136
 2017-02-06 20:28:52.860436+01 | 1486409332.86044 | pgbench_tellers  |         27271168
 2017-02-06 20:28:52.860436+01 | 1486409332.86044 | pgbench_history  |        108904448
 2017-02-06 20:28:52.860436+01 | 1486409332.86044 | pgbench_branches |         24510464

 2017-02-06 20:28:53.934854+01 | 1486409333.93485 | pgbench_accounts |      13896155136
 2017-02-06 20:28:53.934854+01 | 1486409333.93485 | pgbench_tellers  |         27271168
 2017-02-06 20:28:53.934854+01 | 1486409333.93485 | pgbench_history  |        109641728
 2017-02-06 20:28:53.934854+01 | 1486409333.93485 | pgbench_branches |         24510464

 2017-02-06 20:28:55.008425+01 | 1486409335.00842 | pgbench_accounts |      13896155136
 2017-02-06 20:28:55.008425+01 | 1486409335.00842 | pgbench_tellers  |         27271168
 2017-02-06 20:28:55.008425+01 | 1486409335.00842 | pgbench_history  |        110157824
 2017-02-06 20:28:55.008425+01 | 1486409335.00842 | pgbench_branches |         24510464

 2017-02-06 20:28:56.090696+01 | 1486409336.0907 | pgbench_accounts |      13896155136
 2017-02-06 20:28:56.090696+01 | 1486409336.0907 | pgbench_tellers  |         27271168
 2017-02-06 20:28:56.090696+01 | 1486409336.0907 | pgbench_history  |        111124480
 2017-02-06 20:28:56.090696+01 | 1486409336.0907 | pgbench_branches |         24510464

 2017-02-06 20:28:57.171713+01 | 1486409337.17171 | pgbench_accounts |      13896155136
 2017-02-06 20:28:57.171713+01 | 1486409337.17171 | pgbench_tellers  |         27271168
 2017-02-06 20:28:57.171713+01 | 1486409337.17171 | pgbench_history  |        111656960
 2017-02-06 20:28:57.171713+01 | 1486409337.17171 | pgbench_branches |         24510464

 2017-02-06 20:28:58.255819+01 | 1486409338.25582 | pgbench_accounts |      13896155136
 2017-02-06 20:28:58.255819+01 | 1486409338.25582 | pgbench_tellers  |         27271168
 2017-02-06 20:28:58.255819+01 | 1486409338.25582 | pgbench_history  |        112287744
 2017-02-06 20:28:58.255819+01 | 1486409338.25582 | pgbench_branches |         24510464

 2017-02-06 20:28:59.341502+01 | 1486409339.3415 | pgbench_accounts |      13896155136
 2017-02-06 20:28:59.341502+01 | 1486409339.3415 | pgbench_tellers  |         27271168
 2017-02-06 20:28:59.341502+01 | 1486409339.3415 | pgbench_history  |        113156096
 2017-02-06 20:28:59.341502+01 | 1486409339.3415 | pgbench_branches |         24510464

 2017-02-06 20:29:00.415996+01 | 1486409340.416 | pgbench_accounts |      13896155136
 2017-02-06 20:29:00.415996+01 | 1486409340.416 | pgbench_tellers  |         27271168
 2017-02-06 20:29:00.415996+01 | 1486409340.416 | pgbench_history  |        114196480
 2017-02-06 20:29:00.415996+01 | 1486409340.416 | pgbench_branches |         24510464

 2017-02-06 20:29:01.502188+01 | 1486409341.50219 | pgbench_accounts |      13896155136
 2017-02-06 20:29:01.502188+01 | 1486409341.50219 | pgbench_tellers  |         27271168
 2017-02-06 20:29:01.502188+01 | 1486409341.50219 | pgbench_history  |        114802688
 2017-02-06 20:29:01.502188+01 | 1486409341.50219 | pgbench_branches |         24510464

 2017-02-06 20:29:02.578002+01 | 1486409342.578 | pgbench_accounts |      13896155136
 2017-02-06 20:29:02.578002+01 | 1486409342.578 | pgbench_tellers  |         27271168
 2017-02-06 20:29:02.578002+01 | 1486409342.578 | pgbench_history  |        115695616
 2017-02-06 20:29:02.578002+01 | 1486409342.578 | pgbench_branches |         24510464

 2017-02-06 20:29:03.65187+01 | 1486409343.65187 | pgbench_accounts |      13896155136
 2017-02-06 20:29:03.65187+01 | 1486409343.65187 | pgbench_tellers  |         27271168
 2017-02-06 20:29:03.65187+01 | 1486409343.65187 | pgbench_history  |        116219904
 2017-02-06 20:29:03.65187+01 | 1486409343.65187 | pgbench_branches |         24510464

 2017-02-06 20:29:04.736287+01 | 1486409344.73629 | pgbench_accounts |      13896155136
 2017-02-06 20:29:04.736287+01 | 1486409344.73629 | pgbench_tellers  |         27271168
 2017-02-06 20:29:04.736287+01 | 1486409344.73629 | pgbench_history  |        117137408
 2017-02-06 20:29:04.736287+01 | 1486409344.73629 | pgbench_branches |         24510464

 2017-02-06 20:29:05.812034+01 | 1486409345.81203 | pgbench_accounts |      13896155136
 2017-02-06 20:29:05.812034+01 | 1486409345.81203 | pgbench_tellers  |         27271168
 2017-02-06 20:29:05.812034+01 | 1486409345.81203 | pgbench_history  |        117694464
 2017-02-06 20:29:05.812034+01 | 1486409345.81203 | pgbench_branches |         24510464

 2017-02-06 20:29:06.894407+01 | 1486409346.89441 | pgbench_accounts |      13896155136
 2017-02-06 20:29:06.894407+01 | 1486409346.89441 | pgbench_tellers  |         27271168
 2017-02-06 20:29:06.894407+01 | 1486409346.89441 | pgbench_history  |        118587392
 2017-02-06 20:29:06.894407+01 | 1486409346.89441 | pgbench_branches |         24510464

 2017-02-06 20:29:07.986758+01 | 1486409347.98676 | pgbench_accounts |      13896155136
 2017-02-06 20:29:07.986758+01 | 1486409347.98676 | pgbench_tellers  |         27271168
 2017-02-06 20:29:07.986758+01 | 1486409347.98676 | pgbench_history  |        119488512
 2017-02-06 20:29:07.986758+01 | 1486409347.98676 | pgbench_branches |         24510464

 2017-02-06 20:29:09.066812+01 | 1486409349.06681 | pgbench_accounts |      13896155136
 2017-02-06 20:29:09.066812+01 | 1486409349.06681 | pgbench_tellers  |         27271168
 2017-02-06 20:29:09.066812+01 | 1486409349.06681 | pgbench_history  |        119898112
 2017-02-06 20:29:09.066812+01 | 1486409349.06681 | pgbench_branches |         24510464

 2017-02-06 20:29:10.150023+01 | 1486409350.15002 | pgbench_accounts |      13896155136
 2017-02-06 20:29:10.150023+01 | 1486409350.15002 | pgbench_tellers  |         27271168
 2017-02-06 20:29:10.150023+01 | 1486409350.15002 | pgbench_history  |        120684544
 2017-02-06 20:29:10.150023+01 | 1486409350.15002 | pgbench_branches |         24510464

 2017-02-06 20:29:11.242021+01 | 1486409351.24202 | pgbench_accounts |      13896155136
 2017-02-06 20:29:11.242021+01 | 1486409351.24202 | pgbench_tellers  |         27271168
 2017-02-06 20:29:11.242021+01 | 1486409351.24202 | pgbench_history  |        121749504
 2017-02-06 20:29:11.242021+01 | 1486409351.24202 | pgbench_branches |         24510464

 2017-02-06 20:29:12.327059+01 | 1486409352.32706 | pgbench_accounts |      13896155136
 2017-02-06 20:29:12.327059+01 | 1486409352.32706 | pgbench_tellers  |         27271168
 2017-02-06 20:29:12.327059+01 | 1486409352.32706 | pgbench_history  |        122617856
 2017-02-06 20:29:12.327059+01 | 1486409352.32706 | pgbench_branches |         24510464

 2017-02-06 20:29:13.406655+01 | 1486409353.40666 | pgbench_accounts |      13896155136
 2017-02-06 20:29:13.406655+01 | 1486409353.40666 | pgbench_tellers  |         27271168
 2017-02-06 20:29:13.406655+01 | 1486409353.40666 | pgbench_history  |        123183104
 2017-02-06 20:29:13.406655+01 | 1486409353.40666 | pgbench_branches |         24510464

 2017-02-06 20:29:14.477516+01 | 1486409354.47752 | pgbench_accounts |      13896155136
 2017-02-06 20:29:14.477516+01 | 1486409354.47752 | pgbench_tellers  |         27271168
 2017-02-06 20:29:14.477516+01 | 1486409354.47752 | pgbench_history  |        123740160
 2017-02-06 20:29:14.477516+01 | 1486409354.47752 | pgbench_branches |         24510464

 2017-02-06 20:29:15.55396+01 | 1486409355.55396 | pgbench_accounts |      13896155136
 2017-02-06 20:29:15.55396+01 | 1486409355.55396 | pgbench_tellers  |         27271168
 2017-02-06 20:29:15.55396+01 | 1486409355.55396 | pgbench_history  |        124452864
 2017-02-06 20:29:15.55396+01 | 1486409355.55396 | pgbench_branches |         24510464

 2017-02-06 20:29:16.632982+01 | 1486409356.63298 | pgbench_accounts |      13896155136
 2017-02-06 20:29:16.632982+01 | 1486409356.63298 | pgbench_tellers  |         27271168
 2017-02-06 20:29:16.632982+01 | 1486409356.63298 | pgbench_history  |        125157376
 2017-02-06 20:29:16.632982+01 | 1486409356.63298 | pgbench_branches |         24510464

 2017-02-06 20:29:17.71948+01 | 1486409357.71948 | pgbench_accounts |      13896155136
 2017-02-06 20:29:17.71948+01 | 1486409357.71948 | pgbench_tellers  |         27271168
 2017-02-06 20:29:17.71948+01 | 1486409357.71948 | pgbench_history  |        126058496
 2017-02-06 20:29:17.71948+01 | 1486409357.71948 | pgbench_branches |         24510464

 2017-02-06 20:29:18.802882+01 | 1486409358.80288 | pgbench_accounts |      13896155136
 2017-02-06 20:29:18.802882+01 | 1486409358.80288 | pgbench_tellers  |         27271168
 2017-02-06 20:29:18.802882+01 | 1486409358.80288 | pgbench_history  |        126836736
 2017-02-06 20:29:18.802882+01 | 1486409358.80288 | pgbench_branches |         24510464

 2017-02-06 20:29:19.883877+01 | 1486409359.88388 | pgbench_accounts |      13896155136
 2017-02-06 20:29:19.883877+01 | 1486409359.88388 | pgbench_tellers  |         27271168
 2017-02-06 20:29:19.883877+01 | 1486409359.88388 | pgbench_history  |        127557632
 2017-02-06 20:29:19.883877+01 | 1486409359.88388 | pgbench_branches |         24510464

 2017-02-06 20:29:20.968823+01 | 1486409360.96882 | pgbench_accounts |      13896155136
 2017-02-06 20:29:20.968823+01 | 1486409360.96882 | pgbench_tellers  |         27271168
 2017-02-06 20:29:20.968823+01 | 1486409360.96882 | pgbench_history  |        128450560
 2017-02-06 20:29:20.968823+01 | 1486409360.96882 | pgbench_branches |         24510464

 2017-02-06 20:29:22.044258+01 | 1486409362.04426 | pgbench_accounts |      13896155136
 2017-02-06 20:29:22.044258+01 | 1486409362.04426 | pgbench_tellers  |         27271168
 2017-02-06 20:29:22.044258+01 | 1486409362.04426 | pgbench_history  |        129040384
 2017-02-06 20:29:22.044258+01 | 1486409362.04426 | pgbench_branches |         24510464

 2017-02-06 20:29:23.12321+01 | 1486409363.12321 | pgbench_accounts |      13896155136
 2017-02-06 20:29:23.12321+01 | 1486409363.12321 | pgbench_tellers  |         27271168
 2017-02-06 20:29:23.12321+01 | 1486409363.12321 | pgbench_history  |        129769472
 2017-02-06 20:29:23.12321+01 | 1486409363.12321 | pgbench_branches |         24510464

 2017-02-06 20:29:24.203161+01 | 1486409364.20316 | pgbench_accounts |      13896155136
 2017-02-06 20:29:24.203161+01 | 1486409364.20316 | pgbench_tellers  |         27271168
 2017-02-06 20:29:24.203161+01 | 1486409364.20316 | pgbench_history  |        130637824
 2017-02-06 20:29:24.203161+01 | 1486409364.20316 | pgbench_branches |         24510464

 2017-02-06 20:29:25.28057+01 | 1486409365.28057 | pgbench_accounts |      13896155136
 2017-02-06 20:29:25.28057+01 | 1486409365.28057 | pgbench_tellers  |         27271168
 2017-02-06 20:29:25.28057+01 | 1486409365.28057 | pgbench_history  |        131342336
 2017-02-06 20:29:25.28057+01 | 1486409365.28057 | pgbench_branches |         24510464

 2017-02-06 20:29:26.35612+01 | 1486409366.35612 | pgbench_accounts |      13896155136
 2017-02-06 20:29:26.35612+01 | 1486409366.35612 | pgbench_tellers  |         27271168
 2017-02-06 20:29:26.35612+01 | 1486409366.35612 | pgbench_history  |        132079616
 2017-02-06 20:29:26.35612+01 | 1486409366.35612 | pgbench_branches |         24510464

 2017-02-06 20:29:27.441674+01 | 1486409367.44167 | pgbench_accounts |      13896155136
 2017-02-06 20:29:27.441674+01 | 1486409367.44167 | pgbench_tellers  |         27271168
 2017-02-06 20:29:27.441674+01 | 1486409367.44167 | pgbench_history  |        132792320
 2017-02-06 20:29:27.441674+01 | 1486409367.44167 | pgbench_branches |         24510464

 2017-02-06 20:29:28.533143+01 | 1486409368.53314 | pgbench_accounts |      13896155136
 2017-02-06 20:29:28.533143+01 | 1486409368.53314 | pgbench_tellers  |         27271168
 2017-02-06 20:29:28.533143+01 | 1486409368.53314 | pgbench_history  |        133586944
 2017-02-06 20:29:28.533143+01 | 1486409368.53314 | pgbench_branches |         24510464

 2017-02-06 20:29:29.616147+01 | 1486409369.61615 | pgbench_accounts |      13896155136
 2017-02-06 20:29:29.616147+01 | 1486409369.61615 | pgbench_tellers  |         27271168
 2017-02-06 20:29:29.616147+01 | 1486409369.61615 | pgbench_history  |        134643712
 2017-02-06 20:29:29.616147+01 | 1486409369.61615 | pgbench_branches |         24510464

 2017-02-06 20:29:30.69329+01 | 1486409370.69329 | pgbench_accounts |      13896155136
 2017-02-06 20:29:30.69329+01 | 1486409370.69329 | pgbench_tellers  |         27271168
 2017-02-06 20:29:30.69329+01 | 1486409370.69329 | pgbench_history  |        135249920
 2017-02-06 20:29:30.69329+01 | 1486409370.69329 | pgbench_branches |         24510464

 2017-02-06 20:29:31.777997+01 | 1486409371.778 | pgbench_accounts |      13896155136
 2017-02-06 20:29:31.777997+01 | 1486409371.778 | pgbench_tellers  |         27271168
 2017-02-06 20:29:31.777997+01 | 1486409371.778 | pgbench_history  |        135929856
 2017-02-06 20:29:31.777997+01 | 1486409371.778 | pgbench_branches |         24510464

 2017-02-06 20:29:32.859556+01 | 1486409372.85956 | pgbench_accounts |      13896155136
 2017-02-06 20:29:32.859556+01 | 1486409372.85956 | pgbench_tellers  |         27271168
 2017-02-06 20:29:32.859556+01 | 1486409372.85956 | pgbench_history  |        136642560
 2017-02-06 20:29:32.859556+01 | 1486409372.85956 | pgbench_branches |         24510464

 2017-02-06 20:29:33.943109+01 | 1486409373.94311 | pgbench_accounts |      13896155136
 2017-02-06 20:29:33.943109+01 | 1486409373.94311 | pgbench_tellers  |         27271168
 2017-02-06 20:29:33.943109+01 | 1486409373.94311 | pgbench_history  |        137371648
 2017-02-06 20:29:33.943109+01 | 1486409373.94311 | pgbench_branches |         24510464

 2017-02-06 20:29:35.019204+01 | 1486409375.0192 | pgbench_accounts |      13896155136
 2017-02-06 20:29:35.019204+01 | 1486409375.0192 | pgbench_tellers  |         27271168
 2017-02-06 20:29:35.019204+01 | 1486409375.0192 | pgbench_history  |        138051584
 2017-02-06 20:29:35.019204+01 | 1486409375.0192 | pgbench_branches |         24510464

 2017-02-06 20:29:36.097969+01 | 1486409376.09797 | pgbench_accounts |      13896155136
 2017-02-06 20:29:36.097969+01 | 1486409376.09797 | pgbench_tellers  |         27271168
 2017-02-06 20:29:36.097969+01 | 1486409376.09797 | pgbench_history  |        138780672
 2017-02-06 20:29:36.097969+01 | 1486409376.09797 | pgbench_branches |         24510464

 2017-02-06 20:29:37.17254+01 | 1486409377.17254 | pgbench_accounts |      13896155136
 2017-02-06 20:29:37.17254+01 | 1486409377.17254 | pgbench_tellers  |         27271168
 2017-02-06 20:29:37.17254+01 | 1486409377.17254 | pgbench_history  |        139337728
 2017-02-06 20:29:37.17254+01 | 1486409377.17254 | pgbench_branches |         24510464

 2017-02-06 20:29:38.255689+01 | 1486409378.25569 | pgbench_accounts |      13896155136
 2017-02-06 20:29:38.255689+01 | 1486409378.25569 | pgbench_tellers  |         27271168
 2017-02-06 20:29:38.255689+01 | 1486409378.25569 | pgbench_history  |        140091392
 2017-02-06 20:29:38.255689+01 | 1486409378.25569 | pgbench_branches |         24510464

 2017-02-06 20:29:39.331517+01 | 1486409379.33152 | pgbench_accounts |      13896155136
 2017-02-06 20:29:39.331517+01 | 1486409379.33152 | pgbench_tellers  |         27271168
 2017-02-06 20:29:39.331517+01 | 1486409379.33152 | pgbench_history  |        141664256
 2017-02-06 20:29:39.331517+01 | 1486409379.33152 | pgbench_branches |         24510464

 2017-02-06 20:29:40.409963+01 | 1486409380.40996 | pgbench_accounts |      13896155136
 2017-02-06 20:29:40.409963+01 | 1486409380.40996 | pgbench_tellers  |         27271168
 2017-02-06 20:29:40.409963+01 | 1486409380.40996 | pgbench_history  |        141664256
 2017-02-06 20:29:40.409963+01 | 1486409380.40996 | pgbench_branches |         24510464

 2017-02-06 20:29:41.490088+01 | 1486409381.49009 | pgbench_accounts |      13896155136
 2017-02-06 20:29:41.490088+01 | 1486409381.49009 | pgbench_tellers  |         27271168
 2017-02-06 20:29:41.490088+01 | 1486409381.49009 | pgbench_history  |        142540800
 2017-02-06 20:29:41.490088+01 | 1486409381.49009 | pgbench_branches |         24510464

 2017-02-06 20:29:42.56668+01 | 1486409382.56668 | pgbench_accounts |      13896155136
 2017-02-06 20:29:42.56668+01 | 1486409382.56668 | pgbench_tellers  |         27271168
 2017-02-06 20:29:42.56668+01 | 1486409382.56668 | pgbench_history  |        143245312
 2017-02-06 20:29:42.56668+01 | 1486409382.56668 | pgbench_branches |         24510464

 2017-02-06 20:29:43.645438+01 | 1486409383.64544 | pgbench_accounts |      13896155136
 2017-02-06 20:29:43.645438+01 | 1486409383.64544 | pgbench_tellers  |         27271168
 2017-02-06 20:29:43.645438+01 | 1486409383.64544 | pgbench_history  |        143695872
 2017-02-06 20:29:43.645438+01 | 1486409383.64544 | pgbench_branches |         24510464

 2017-02-06 20:29:44.726459+01 | 1486409384.72646 | pgbench_accounts |      13896155136
 2017-02-06 20:29:44.726459+01 | 1486409384.72646 | pgbench_tellers  |         27271168
 2017-02-06 20:29:44.726459+01 | 1486409384.72646 | pgbench_history  |        144408576
 2017-02-06 20:29:44.726459+01 | 1486409384.72646 | pgbench_branches |         24510464

 2017-02-06 20:29:45.806307+01 | 1486409385.80631 | pgbench_accounts |      13896155136
 2017-02-06 20:29:45.806307+01 | 1486409385.80631 | pgbench_tellers  |         27271168
 2017-02-06 20:29:45.806307+01 | 1486409385.80631 | pgbench_history  |        145178624
 2017-02-06 20:29:45.806307+01 | 1486409385.80631 | pgbench_branches |         24510464

 2017-02-06 20:29:46.891661+01 | 1486409386.89166 | pgbench_accounts |      13896155136
 2017-02-06 20:29:46.891661+01 | 1486409386.89166 | pgbench_tellers  |         27271168
 2017-02-06 20:29:46.891661+01 | 1486409386.89166 | pgbench_history  |        146087936
 2017-02-06 20:29:46.891661+01 | 1486409386.89166 | pgbench_branches |         24510464

 2017-02-06 20:29:47.975434+01 | 1486409387.97543 | pgbench_accounts |      13896155136
 2017-02-06 20:29:47.975434+01 | 1486409387.97543 | pgbench_tellers  |         27271168
 2017-02-06 20:29:47.975434+01 | 1486409387.97543 | pgbench_history  |        146882560
 2017-02-06 20:29:47.975434+01 | 1486409387.97543 | pgbench_branches |         24510464

 2017-02-06 20:29:49.058054+01 | 1486409389.05805 | pgbench_accounts |      13896155136
 2017-02-06 20:29:49.058054+01 | 1486409389.05805 | pgbench_tellers  |         27271168
 2017-02-06 20:29:49.058054+01 | 1486409389.05805 | pgbench_history  |        147816448
 2017-02-06 20:29:49.058054+01 | 1486409389.05805 | pgbench_branches |         24510464

 2017-02-06 20:29:50.137728+01 | 1486409390.13773 | pgbench_accounts |      13896155136
 2017-02-06 20:29:50.137728+01 | 1486409390.13773 | pgbench_tellers  |         27271168
 2017-02-06 20:29:50.137728+01 | 1486409390.13773 | pgbench_history  |        148168704
 2017-02-06 20:29:50.137728+01 | 1486409390.13773 | pgbench_branches |         24510464

 2017-02-06 20:29:51.22085+01 | 1486409391.22085 | pgbench_accounts |      13896155136
 2017-02-06 20:29:51.22085+01 | 1486409391.22085 | pgbench_tellers  |         27271168
 2017-02-06 20:29:51.22085+01 | 1486409391.22085 | pgbench_history  |        148914176
 2017-02-06 20:29:51.22085+01 | 1486409391.22085 | pgbench_branches |         24510464

 2017-02-06 20:29:52.298043+01 | 1486409392.29804 | pgbench_accounts |      13896155136
 2017-02-06 20:29:52.298043+01 | 1486409392.29804 | pgbench_tellers  |         27271168
 2017-02-06 20:29:52.298043+01 | 1486409392.29804 | pgbench_history  |        150020096
 2017-02-06 20:29:52.298043+01 | 1486409392.29804 | pgbench_branches |         24510464

 2017-02-06 20:29:53.377142+01 | 1486409393.37714 | pgbench_accounts |      13896155136
 2017-02-06 20:29:53.377142+01 | 1486409393.37714 | pgbench_tellers  |         27271168
 2017-02-06 20:29:53.377142+01 | 1486409393.37714 | pgbench_history  |        150732800
 2017-02-06 20:29:53.377142+01 | 1486409393.37714 | pgbench_branches |         24510464

 2017-02-06 20:29:54.455685+01 | 1486409394.45568 | pgbench_accounts |      13896155136
 2017-02-06 20:29:54.455685+01 | 1486409394.45568 | pgbench_tellers  |         27271168
 2017-02-06 20:29:54.455685+01 | 1486409394.45568 | pgbench_history  |        151265280
 2017-02-06 20:29:54.455685+01 | 1486409394.45568 | pgbench_branches |         24510464

 2017-02-06 20:29:55.534602+01 | 1486409395.5346 | pgbench_accounts |      13896155136
 2017-02-06 20:29:55.534602+01 | 1486409395.5346 | pgbench_tellers  |         27271168
 2017-02-06 20:29:55.534602+01 | 1486409395.5346 | pgbench_history  |        152002560
 2017-02-06 20:29:55.534602+01 | 1486409395.5346 | pgbench_branches |         24510464

 2017-02-06 20:29:56.615718+01 | 1486409396.61572 | pgbench_accounts |      13896155136
 2017-02-06 20:29:56.615718+01 | 1486409396.61572 | pgbench_tellers  |         27271168
 2017-02-06 20:29:56.615718+01 | 1486409396.61572 | pgbench_history  |        152739840
 2017-02-06 20:29:56.615718+01 | 1486409396.61572 | pgbench_branches |         24510464

 2017-02-06 20:29:57.695374+01 | 1486409397.69537 | pgbench_accounts |      13896155136
 2017-02-06 20:29:57.695374+01 | 1486409397.69537 | pgbench_tellers  |         27271168
 2017-02-06 20:29:57.695374+01 | 1486409397.69537 | pgbench_history  |        154001408
 2017-02-06 20:29:57.695374+01 | 1486409397.69537 | pgbench_branches |         24510464

 2017-02-06 20:29:58.790384+01 | 1486409398.79038 | pgbench_accounts |      13896155136
 2017-02-06 20:29:58.790384+01 | 1486409398.79038 | pgbench_tellers  |         27271168
 2017-02-06 20:29:58.790384+01 | 1486409398.79038 | pgbench_history  |        154419200
 2017-02-06 20:29:58.790384+01 | 1486409398.79038 | pgbench_branches |         24510464

 2017-02-06 20:29:59.870767+01 | 1486409399.87077 | pgbench_accounts |      13896155136
 2017-02-06 20:29:59.870767+01 | 1486409399.87077 | pgbench_tellers  |         27271168
 2017-02-06 20:29:59.870767+01 | 1486409399.87077 | pgbench_history  |        155148288
 2017-02-06 20:29:59.870767+01 | 1486409399.87077 | pgbench_branches |         24510464

 2017-02-06 20:30:00.946755+01 | 1486409400.94675 | pgbench_accounts |      13896155136
 2017-02-06 20:30:00.946755+01 | 1486409400.94675 | pgbench_tellers  |         27271168
 2017-02-06 20:30:00.946755+01 | 1486409400.94675 | pgbench_history  |        155910144
 2017-02-06 20:30:00.946755+01 | 1486409400.94675 | pgbench_branches |         24510464

 2017-02-06 20:30:02.026228+01 | 1486409402.02623 | pgbench_accounts |      13896155136
 2017-02-06 20:30:02.026228+01 | 1486409402.02623 | pgbench_tellers  |         27271168
 2017-02-06 20:30:02.026228+01 | 1486409402.02623 | pgbench_history  |        156631040
 2017-02-06 20:30:02.026228+01 | 1486409402.02623 | pgbench_branches |         24510464

 2017-02-06 20:30:03.105964+01 | 1486409403.10596 | pgbench_accounts |      13896155136
 2017-02-06 20:30:03.105964+01 | 1486409403.10596 | pgbench_tellers  |         27271168
 2017-02-06 20:30:03.105964+01 | 1486409403.10596 | pgbench_history  |        157523968
 2017-02-06 20:30:03.105964+01 | 1486409403.10596 | pgbench_branches |         24510464

 2017-02-06 20:30:04.183894+01 | 1486409404.18389 | pgbench_accounts |      13896155136
 2017-02-06 20:30:04.183894+01 | 1486409404.18389 | pgbench_tellers  |         27271168
 2017-02-06 20:30:04.183894+01 | 1486409404.18389 | pgbench_history  |        158253056
 2017-02-06 20:30:04.183894+01 | 1486409404.18389 | pgbench_branches |         24510464

 2017-02-06 20:30:05.260745+01 | 1486409405.26075 | pgbench_accounts |      13896155136
 2017-02-06 20:30:05.260745+01 | 1486409405.26075 | pgbench_tellers  |         27271168
 2017-02-06 20:30:05.260745+01 | 1486409405.26075 | pgbench_history  |        158957568
 2017-02-06 20:30:05.260745+01 | 1486409405.26075 | pgbench_branches |         24510464

 2017-02-06 20:30:06.335754+01 | 1486409406.33575 | pgbench_accounts |      13896155136
 2017-02-06 20:30:06.335754+01 | 1486409406.33575 | pgbench_tellers  |         27271168
 2017-02-06 20:30:06.335754+01 | 1486409406.33575 | pgbench_history  |        159547392
 2017-02-06 20:30:06.335754+01 | 1486409406.33575 | pgbench_branches |         24510464

 2017-02-06 20:30:07.411324+01 | 1486409407.41132 | pgbench_accounts |      13896155136
 2017-02-06 20:30:07.411324+01 | 1486409407.41132 | pgbench_tellers  |         27271168
 2017-02-06 20:30:07.411324+01 | 1486409407.41132 | pgbench_history  |        160473088
 2017-02-06 20:30:07.411324+01 | 1486409407.41132 | pgbench_branches |         24510464

 2017-02-06 20:30:08.498516+01 | 1486409408.49852 | pgbench_accounts |      13896155136
 2017-02-06 20:30:08.498516+01 | 1486409408.49852 | pgbench_tellers  |         27271168
 2017-02-06 20:30:08.498516+01 | 1486409408.49852 | pgbench_history  |        161529856
 2017-02-06 20:30:08.498516+01 | 1486409408.49852 | pgbench_branches |         24510464

 2017-02-06 20:30:09.573078+01 | 1486409409.57308 | pgbench_accounts |      13896155136
 2017-02-06 20:30:09.573078+01 | 1486409409.57308 | pgbench_tellers  |         27271168
 2017-02-06 20:30:09.573078+01 | 1486409409.57308 | pgbench_history  |        161882112
 2017-02-06 20:30:09.573078+01 | 1486409409.57308 | pgbench_branches |         24510464

 2017-02-06 20:30:10.660299+01 | 1486409410.6603 | pgbench_accounts |      13896155136
 2017-02-06 20:30:10.660299+01 | 1486409410.6603 | pgbench_tellers  |         27271168
 2017-02-06 20:30:10.660299+01 | 1486409410.6603 | pgbench_history  |        162619392
 2017-02-06 20:30:10.660299+01 | 1486409410.6603 | pgbench_branches |         24510464

 2017-02-06 20:30:11.734329+01 | 1486409411.73433 | pgbench_accounts |      13896155136
 2017-02-06 20:30:11.734329+01 | 1486409411.73433 | pgbench_tellers  |         27271168
 2017-02-06 20:30:11.734329+01 | 1486409411.73433 | pgbench_history  |        163356672
 2017-02-06 20:30:11.734329+01 | 1486409411.73433 | pgbench_branches |         24510464

 2017-02-06 20:30:12.815735+01 | 1486409412.81574 | pgbench_accounts |      13896155136
 2017-02-06 20:30:12.815735+01 | 1486409412.81574 | pgbench_tellers  |         27271168
 2017-02-06 20:30:12.815735+01 | 1486409412.81574 | pgbench_history  |        164618240
 2017-02-06 20:30:12.815735+01 | 1486409412.81574 | pgbench_branches |         24510464

 2017-02-06 20:30:13.895907+01 | 1486409413.89591 | pgbench_accounts |      13896155136
 2017-02-06 20:30:13.895907+01 | 1486409413.89591 | pgbench_tellers  |         27271168
 2017-02-06 20:30:13.895907+01 | 1486409413.89591 | pgbench_history  |        165330944
 2017-02-06 20:30:13.895907+01 | 1486409413.89591 | pgbench_branches |         24510464

 2017-02-06 20:30:14.97489+01 | 1486409414.97489 | pgbench_accounts |      13896155136
 2017-02-06 20:30:14.97489+01 | 1486409414.97489 | pgbench_tellers  |         27271168
 2017-02-06 20:30:14.97489+01 | 1486409414.97489 | pgbench_history  |        165683200
 2017-02-06 20:30:14.97489+01 | 1486409414.97489 | pgbench_branches |         24510464

 2017-02-06 20:30:16.057881+01 | 1486409416.05788 | pgbench_accounts |      13896155136
 2017-02-06 20:30:16.057881+01 | 1486409416.05788 | pgbench_tellers  |         27271168
 2017-02-06 20:30:16.057881+01 | 1486409416.05788 | pgbench_history  |        166797312
 2017-02-06 20:30:16.057881+01 | 1486409416.05788 | pgbench_branches |         24510464

 2017-02-06 20:30:17.137268+01 | 1486409417.13727 | pgbench_accounts |      13896155136
 2017-02-06 20:30:17.137268+01 | 1486409417.13727 | pgbench_tellers  |         27271168
 2017-02-06 20:30:17.137268+01 | 1486409417.13727 | pgbench_history  |        167149568
 2017-02-06 20:30:17.137268+01 | 1486409417.13727 | pgbench_branches |         24510464

 2017-02-06 20:30:18.211838+01 | 1486409418.21184 | pgbench_accounts |      13896155136
 2017-02-06 20:30:18.211838+01 | 1486409418.21184 | pgbench_tellers  |         27271168
 2017-02-06 20:30:18.211838+01 | 1486409418.21184 | pgbench_history  |        167706624
 2017-02-06 20:30:18.211838+01 | 1486409418.21184 | pgbench_branches |         24510464

 2017-02-06 20:30:19.298313+01 | 1486409419.29831 | pgbench_accounts |      13896155136
 2017-02-06 20:30:19.298313+01 | 1486409419.29831 | pgbench_tellers  |         27271168
 2017-02-06 20:30:19.298313+01 | 1486409419.29831 | pgbench_history  |        168968192
 2017-02-06 20:30:19.298313+01 | 1486409419.29831 | pgbench_branches |         24510464

 2017-02-06 20:30:20.392005+01 | 1486409420.392 | pgbench_accounts |      13896155136
 2017-02-06 20:30:20.392005+01 | 1486409420.392 | pgbench_tellers  |         27271168
 2017-02-06 20:30:20.392005+01 | 1486409420.392 | pgbench_history  |        168968192
 2017-02-06 20:30:20.392005+01 | 1486409420.392 | pgbench_branches |         24510464

 2017-02-06 20:30:21.47056+01 | 1486409421.47056 | pgbench_accounts |      13896155136
 2017-02-06 20:30:21.47056+01 | 1486409421.47056 | pgbench_tellers  |         27271168
 2017-02-06 20:30:21.47056+01 | 1486409421.47056 | pgbench_history  |        169852928
 2017-02-06 20:30:21.47056+01 | 1486409421.47056 | pgbench_branches |         24510464

 2017-02-06 20:30:22.558934+01 | 1486409422.55893 | pgbench_accounts |      13896155136
 2017-02-06 20:30:22.558934+01 | 1486409422.55893 | pgbench_tellers  |         27271168
 2017-02-06 20:30:22.558934+01 | 1486409422.55893 | pgbench_history  |        170582016
 2017-02-06 20:30:22.558934+01 | 1486409422.55893 | pgbench_branches |         24510464

 2017-02-06 20:30:23.637067+01 | 1486409423.63707 | pgbench_accounts |      13896155136
 2017-02-06 20:30:23.637067+01 | 1486409423.63707 | pgbench_tellers  |         27271168
 2017-02-06 20:30:23.637067+01 | 1486409423.63707 | pgbench_history  |        171057152
 2017-02-06 20:30:23.637067+01 | 1486409423.63707 | pgbench_branches |         24510464

 2017-02-06 20:30:24.714351+01 | 1486409424.71435 | pgbench_accounts |      13896155136
 2017-02-06 20:30:24.714351+01 | 1486409424.71435 | pgbench_tellers  |         27271168
 2017-02-06 20:30:24.714351+01 | 1486409424.71435 | pgbench_history  |        171761664
 2017-02-06 20:30:24.714351+01 | 1486409424.71435 | pgbench_branches |         24510464

 2017-02-06 20:30:25.802825+01 | 1486409425.80282 | pgbench_accounts |      13896155136
 2017-02-06 20:30:25.802825+01 | 1486409425.80282 | pgbench_tellers  |         27271168
 2017-02-06 20:30:25.802825+01 | 1486409425.80282 | pgbench_history  |        172466176
 2017-02-06 20:30:25.802825+01 | 1486409425.80282 | pgbench_branches |         24510464

 2017-02-06 20:30:26.877527+01 | 1486409426.87753 | pgbench_accounts |      13896155136
 2017-02-06 20:30:26.877527+01 | 1486409426.87753 | pgbench_tellers  |         27271168
 2017-02-06 20:30:26.877527+01 | 1486409426.87753 | pgbench_history  |        173563904
 2017-02-06 20:30:26.877527+01 | 1486409426.87753 | pgbench_branches |         24510464

 2017-02-06 20:30:27.953726+01 | 1486409427.95373 | pgbench_accounts |      13896155136
 2017-02-06 20:30:27.953726+01 | 1486409427.95373 | pgbench_tellers  |         27271168
 2017-02-06 20:30:27.953726+01 | 1486409427.95373 | pgbench_history  |        173916160
 2017-02-06 20:30:27.953726+01 | 1486409427.95373 | pgbench_branches |         24510464

 2017-02-06 20:30:29.03352+01 | 1486409429.03352 | pgbench_accounts |      13896155136
 2017-02-06 20:30:29.03352+01 | 1486409429.03352 | pgbench_tellers  |         27271168
 2017-02-06 20:30:29.03352+01 | 1486409429.03352 | pgbench_history  |        174825472
 2017-02-06 20:30:29.03352+01 | 1486409429.03352 | pgbench_branches |         24510464

 2017-02-06 20:30:30.11294+01 | 1486409430.11294 | pgbench_accounts |      13896155136
 2017-02-06 20:30:30.11294+01 | 1486409430.11294 | pgbench_tellers  |         27271168
 2017-02-06 20:30:30.11294+01 | 1486409430.11294 | pgbench_history  |        175423488
 2017-02-06 20:30:30.11294+01 | 1486409430.11294 | pgbench_branches |         24510464

 2017-02-06 20:30:31.194164+01 | 1486409431.19416 | pgbench_accounts |      13896155136
 2017-02-06 20:30:31.194164+01 | 1486409431.19416 | pgbench_tellers  |         27271168
 2017-02-06 20:30:31.194164+01 | 1486409431.19416 | pgbench_history  |        176300032
 2017-02-06 20:30:31.194164+01 | 1486409431.19416 | pgbench_branches |         24510464

 2017-02-06 20:30:32.26839+01 | 1486409432.26839 | pgbench_accounts |      13896155136
 2017-02-06 20:30:32.26839+01 | 1486409432.26839 | pgbench_tellers  |         27271168
 2017-02-06 20:30:32.26839+01 | 1486409432.26839 | pgbench_history  |        176685056
 2017-02-06 20:30:32.26839+01 | 1486409432.26839 | pgbench_branches |         24510464

 2017-02-06 20:30:33.34294+01 | 1486409433.34294 | pgbench_accounts |      13896155136
 2017-02-06 20:30:33.34294+01 | 1486409433.34294 | pgbench_tellers  |         27271168
 2017-02-06 20:30:33.34294+01 | 1486409433.34294 | pgbench_history  |        177299456
 2017-02-06 20:30:33.34294+01 | 1486409433.34294 | pgbench_branches |         24510464

 2017-02-06 20:30:34.419456+01 | 1486409434.41946 | pgbench_accounts |      13896155136
 2017-02-06 20:30:34.419456+01 | 1486409434.41946 | pgbench_tellers  |         27271168
 2017-02-06 20:30:34.419456+01 | 1486409434.41946 | pgbench_history  |        177848320
 2017-02-06 20:30:34.419456+01 | 1486409434.41946 | pgbench_branches |         24510464

 2017-02-06 20:30:35.505007+01 | 1486409435.50501 | pgbench_accounts |      13896155136
 2017-02-06 20:30:35.505007+01 | 1486409435.50501 | pgbench_tellers  |         27271168
 2017-02-06 20:30:35.505007+01 | 1486409435.50501 | pgbench_history  |        178585600
 2017-02-06 20:30:35.505007+01 | 1486409435.50501 | pgbench_branches |         24510464

 2017-02-06 20:30:36.589064+01 | 1486409436.58906 | pgbench_accounts |      13896155136
 2017-02-06 20:30:36.589064+01 | 1486409436.58906 | pgbench_tellers  |         27271168
 2017-02-06 20:30:36.589064+01 | 1486409436.58906 | pgbench_history  |        179298304
 2017-02-06 20:30:36.589064+01 | 1486409436.58906 | pgbench_branches |         24510464

 2017-02-06 20:30:37.674015+01 | 1486409437.67402 | pgbench_accounts |      13896155136
 2017-02-06 20:30:37.674015+01 | 1486409437.67402 | pgbench_tellers  |         27271168
 2017-02-06 20:30:37.674015+01 | 1486409437.67402 | pgbench_history  |        180092928
 2017-02-06 20:30:37.674015+01 | 1486409437.67402 | pgbench_branches |         24510464

 2017-02-06 20:30:38.75058+01 | 1486409438.75058 | pgbench_accounts |      13896155136
 2017-02-06 20:30:38.75058+01 | 1486409438.75058 | pgbench_tellers  |         27271168
 2017-02-06 20:30:38.75058+01 | 1486409438.75058 | pgbench_history  |        180682752
 2017-02-06 20:30:38.75058+01 | 1486409438.75058 | pgbench_branches |         24510464

 2017-02-06 20:30:39.823287+01 | 1486409439.82329 | pgbench_accounts |      13896155136
 2017-02-06 20:30:39.823287+01 | 1486409439.82329 | pgbench_tellers  |         27271168
 2017-02-06 20:30:39.823287+01 | 1486409439.82329 | pgbench_history  |        181739520
 2017-02-06 20:30:39.823287+01 | 1486409439.82329 | pgbench_branches |         24510464

 2017-02-06 20:30:40.90363+01 | 1486409440.90363 | pgbench_accounts |      13896155136
 2017-02-06 20:30:40.90363+01 | 1486409440.90363 | pgbench_tellers  |         27271168
 2017-02-06 20:30:40.90363+01 | 1486409440.90363 | pgbench_history  |        182304768
 2017-02-06 20:30:40.90363+01 | 1486409440.90363 | pgbench_branches |         24510464

 2017-02-06 20:30:41.978851+01 | 1486409441.97885 | pgbench_accounts |      13896155136
 2017-02-06 20:30:41.978851+01 | 1486409441.97885 | pgbench_tellers  |         27271168
 2017-02-06 20:30:41.978851+01 | 1486409441.97885 | pgbench_history  |        183427072
 2017-02-06 20:30:41.978851+01 | 1486409441.97885 | pgbench_branches |         24510464

 2017-02-06 20:30:43.05458+01 | 1486409443.05458 | pgbench_accounts |      13896155136
 2017-02-06 20:30:43.05458+01 | 1486409443.05458 | pgbench_tellers  |         27271168
 2017-02-06 20:30:43.05458+01 | 1486409443.05458 | pgbench_history  |        184107008
 2017-02-06 20:30:43.05458+01 | 1486409443.05458 | pgbench_branches |         24510464

 2017-02-06 20:30:44.131023+01 | 1486409444.13102 | pgbench_accounts |      13896155136
 2017-02-06 20:30:44.131023+01 | 1486409444.13102 | pgbench_tellers  |         27271168
 2017-02-06 20:30:44.131023+01 | 1486409444.13102 | pgbench_history  |        184647680
 2017-02-06 20:30:44.131023+01 | 1486409444.13102 | pgbench_branches |         24510464

 2017-02-06 20:30:45.198787+01 | 1486409445.19879 | pgbench_accounts |      13896155136
 2017-02-06 20:30:45.198787+01 | 1486409445.19879 | pgbench_tellers  |         27271168
 2017-02-06 20:30:45.198787+01 | 1486409445.19879 | pgbench_history  |        185524224
 2017-02-06 20:30:45.198787+01 | 1486409445.19879 | pgbench_branches |         24510464

 2017-02-06 20:30:46.269818+01 | 1486409446.26982 | pgbench_accounts |      13896155136
 2017-02-06 20:30:46.269818+01 | 1486409446.26982 | pgbench_tellers  |         27271168
 2017-02-06 20:30:46.269818+01 | 1486409446.26982 | pgbench_history  |        186064896
 2017-02-06 20:30:46.269818+01 | 1486409446.26982 | pgbench_branches |         24510464

 2017-02-06 20:30:47.342323+01 | 1486409447.34232 | pgbench_accounts |      13896155136
 2017-02-06 20:30:47.342323+01 | 1486409447.34232 | pgbench_tellers  |         27271168
 2017-02-06 20:30:47.342323+01 | 1486409447.34232 | pgbench_history  |        186753024
 2017-02-06 20:30:47.342323+01 | 1486409447.34232 | pgbench_branches |         24510464

 2017-02-06 20:30:48.424473+01 | 1486409448.42447 | pgbench_accounts |      13896155136
 2017-02-06 20:30:48.424473+01 | 1486409448.42447 | pgbench_tellers  |         27271168
 2017-02-06 20:30:48.424473+01 | 1486409448.42447 | pgbench_history  |        187514880
 2017-02-06 20:30:48.424473+01 | 1486409448.42447 | pgbench_branches |         24510464

 2017-02-06 20:30:49.493815+01 | 1486409449.49381 | pgbench_accounts |      13896155136
 2017-02-06 20:30:49.493815+01 | 1486409449.49381 | pgbench_tellers  |         27271168
 2017-02-06 20:30:49.493815+01 | 1486409449.49381 | pgbench_history  |        188424192
 2017-02-06 20:30:49.493815+01 | 1486409449.49381 | pgbench_branches |         24510464

 2017-02-06 20:30:50.566408+01 | 1486409450.56641 | pgbench_accounts |      13896155136
 2017-02-06 20:30:50.566408+01 | 1486409450.56641 | pgbench_tellers  |         27271168
 2017-02-06 20:30:50.566408+01 | 1486409450.56641 | pgbench_history  |        189128704
 2017-02-06 20:30:50.566408+01 | 1486409450.56641 | pgbench_branches |         24510464

 2017-02-06 20:30:51.638402+01 | 1486409451.6384 | pgbench_accounts |      13896155136
 2017-02-06 20:30:51.638402+01 | 1486409451.6384 | pgbench_tellers  |         27271168
 2017-02-06 20:30:51.638402+01 | 1486409451.6384 | pgbench_history  |        189898752
 2017-02-06 20:30:51.638402+01 | 1486409451.6384 | pgbench_branches |         24510464

 2017-02-06 20:30:52.718123+01 | 1486409452.71812 | pgbench_accounts |      13896155136
 2017-02-06 20:30:52.718123+01 | 1486409452.71812 | pgbench_tellers  |         27271168
 2017-02-06 20:30:52.718123+01 | 1486409452.71812 | pgbench_history  |        190578688
 2017-02-06 20:30:52.718123+01 | 1486409452.71812 | pgbench_branches |         24510464

 2017-02-06 20:30:53.799387+01 | 1486409453.79939 | pgbench_accounts |      13896155136
 2017-02-06 20:30:53.799387+01 | 1486409453.79939 | pgbench_tellers  |         27271168
 2017-02-06 20:30:53.799387+01 | 1486409453.79939 | pgbench_history  |        191324160
 2017-02-06 20:30:53.799387+01 | 1486409453.79939 | pgbench_branches |         24510464

 2017-02-06 20:30:54.886612+01 | 1486409454.88661 | pgbench_accounts |      13896155136
 2017-02-06 20:30:54.886612+01 | 1486409454.88661 | pgbench_tellers  |         27271168
 2017-02-06 20:30:54.886612+01 | 1486409454.88661 | pgbench_history  |        192552960
 2017-02-06 20:30:54.886612+01 | 1486409454.88661 | pgbench_branches |         24510464

 2017-02-06 20:30:55.961918+01 | 1486409455.96192 | pgbench_accounts |      13896155136
 2017-02-06 20:30:55.961918+01 | 1486409455.96192 | pgbench_tellers  |         27271168
 2017-02-06 20:30:55.961918+01 | 1486409455.96192 | pgbench_history  |        193085440
 2017-02-06 20:30:55.961918+01 | 1486409455.96192 | pgbench_branches |         24510464

 2017-02-06 20:30:57.044402+01 | 1486409457.0444 | pgbench_accounts |      13896155136
 2017-02-06 20:30:57.044402+01 | 1486409457.0444 | pgbench_tellers  |         27271168
 2017-02-06 20:30:57.044402+01 | 1486409457.0444 | pgbench_history  |        193626112
 2017-02-06 20:30:57.044402+01 | 1486409457.0444 | pgbench_branches |         24510464

 2017-02-06 20:30:58.127468+01 | 1486409458.12747 | pgbench_accounts |      13896155136
 2017-02-06 20:30:58.127468+01 | 1486409458.12747 | pgbench_tellers  |         27271168
 2017-02-06 20:30:58.127468+01 | 1486409458.12747 | pgbench_history  |        194551808
 2017-02-06 20:30:58.127468+01 | 1486409458.12747 | pgbench_branches |         24510464

 2017-02-06 20:30:59.203646+01 | 1486409459.20365 | pgbench_accounts |      13896155136
 2017-02-06 20:30:59.203646+01 | 1486409459.20365 | pgbench_tellers  |         27271168
 2017-02-06 20:30:59.203646+01 | 1486409459.20365 | pgbench_history  |        195256320
 2017-02-06 20:30:59.203646+01 | 1486409459.20365 | pgbench_branches |         24510464

 2017-02-06 20:31:00.283084+01 | 1486409460.28308 | pgbench_accounts |      13896155136
 2017-02-06 20:31:00.283084+01 | 1486409460.28308 | pgbench_tellers  |         27271168
 2017-02-06 20:31:00.283084+01 | 1486409460.28308 | pgbench_history  |        196182016
 2017-02-06 20:31:00.283084+01 | 1486409460.28308 | pgbench_branches |         24510464

 2017-02-06 20:31:01.367885+01 | 1486409461.36789 | pgbench_accounts |      13896155136
 2017-02-06 20:31:01.367885+01 | 1486409461.36789 | pgbench_tellers  |         27271168
 2017-02-06 20:31:01.367885+01 | 1486409461.36789 | pgbench_history  |        196886528
 2017-02-06 20:31:01.367885+01 | 1486409461.36789 | pgbench_branches |         24510464

 2017-02-06 20:31:02.446004+01 | 1486409462.446 | pgbench_accounts |      13896155136
 2017-02-06 20:31:02.446004+01 | 1486409462.446 | pgbench_tellers  |         27271168
 2017-02-06 20:31:02.446004+01 | 1486409462.446 | pgbench_history  |        197664768
 2017-02-06 20:31:02.446004+01 | 1486409462.446 | pgbench_branches |         24510464

 2017-02-06 20:31:03.521048+01 | 1486409463.52105 | pgbench_accounts |      13896155136
 2017-02-06 20:31:03.521048+01 | 1486409463.52105 | pgbench_tellers  |         27271168
 2017-02-06 20:31:03.521048+01 | 1486409463.52105 | pgbench_history  |        198459392
 2017-02-06 20:31:03.521048+01 | 1486409463.52105 | pgbench_branches |         24510464

 2017-02-06 20:31:04.598236+01 | 1486409464.59824 | pgbench_accounts |      13896155136
 2017-02-06 20:31:04.598236+01 | 1486409464.59824 | pgbench_tellers  |         27271168
 2017-02-06 20:31:04.598236+01 | 1486409464.59824 | pgbench_history  |        199360512
 2017-02-06 20:31:04.598236+01 | 1486409464.59824 | pgbench_branches |         24510464

 2017-02-06 20:31:05.674671+01 | 1486409465.67467 | pgbench_accounts |      13896155136
 2017-02-06 20:31:05.674671+01 | 1486409465.67467 | pgbench_tellers  |         27271168
 2017-02-06 20:31:05.674671+01 | 1486409465.67467 | pgbench_history  |        200089600
 2017-02-06 20:31:05.674671+01 | 1486409465.67467 | pgbench_branches |         24510464

 2017-02-06 20:31:06.752773+01 | 1486409466.75277 | pgbench_accounts |      13896155136
 2017-02-06 20:31:06.752773+01 | 1486409466.75277 | pgbench_tellers  |         27271168
 2017-02-06 20:31:06.752773+01 | 1486409466.75277 | pgbench_history  |        200630272
 2017-02-06 20:31:06.752773+01 | 1486409466.75277 | pgbench_branches |         24510464

 2017-02-06 20:31:07.826286+01 | 1486409467.82629 | pgbench_accounts |      13896155136
 2017-02-06 20:31:07.826286+01 | 1486409467.82629 | pgbench_tellers  |         27271168
 2017-02-06 20:31:07.826286+01 | 1486409467.82629 | pgbench_history  |        201367552
 2017-02-06 20:31:07.826286+01 | 1486409467.82629 | pgbench_branches |         24510464

 2017-02-06 20:31:08.904798+01 | 1486409468.9048 | pgbench_accounts |      13896155136
 2017-02-06 20:31:08.904798+01 | 1486409468.9048 | pgbench_tellers  |         27271168
 2017-02-06 20:31:08.904798+01 | 1486409468.9048 | pgbench_history  |        202072064
 2017-02-06 20:31:08.904798+01 | 1486409468.9048 | pgbench_branches |         24510464

 2017-02-06 20:31:09.987439+01 | 1486409469.98744 | pgbench_accounts |      13896155136
 2017-02-06 20:31:09.987439+01 | 1486409469.98744 | pgbench_tellers  |         27271168
 2017-02-06 20:31:09.987439+01 | 1486409469.98744 | pgbench_history  |        203350016
 2017-02-06 20:31:09.987439+01 | 1486409469.98744 | pgbench_branches |         24510464

 2017-02-06 20:31:11.061663+01 | 1486409471.06166 | pgbench_accounts |      13896155136
 2017-02-06 20:31:11.061663+01 | 1486409471.06166 | pgbench_tellers  |         27271168
 2017-02-06 20:31:11.061663+01 | 1486409471.06166 | pgbench_history  |        204029952
 2017-02-06 20:31:11.061663+01 | 1486409471.06166 | pgbench_branches |         24510464

 2017-02-06 20:31:12.143519+01 | 1486409472.14352 | pgbench_accounts |      13896155136
 2017-02-06 20:31:12.143519+01 | 1486409472.14352 | pgbench_tellers  |         27271168
 2017-02-06 20:31:12.143519+01 | 1486409472.14352 | pgbench_history  |        204390400
 2017-02-06 20:31:12.143519+01 | 1486409472.14352 | pgbench_branches |         24510464

 2017-02-06 20:31:13.209805+01 | 1486409473.20981 | pgbench_accounts |      13896155136
 2017-02-06 20:31:13.209805+01 | 1486409473.20981 | pgbench_tellers  |         27271168
 2017-02-06 20:31:13.209805+01 | 1486409473.20981 | pgbench_history  |        205201408
 2017-02-06 20:31:13.209805+01 | 1486409473.20981 | pgbench_branches |         24510464

 2017-02-06 20:31:14.283886+01 | 1486409474.28389 | pgbench_accounts |      13896155136
 2017-02-06 20:31:14.283886+01 | 1486409474.28389 | pgbench_tellers  |         27271168
 2017-02-06 20:31:14.283886+01 | 1486409474.28389 | pgbench_history  |        205938688
 2017-02-06 20:31:14.283886+01 | 1486409474.28389 | pgbench_branches |         24510464

 2017-02-06 20:31:15.375634+01 | 1486409475.37563 | pgbench_accounts |      13896155136
 2017-02-06 20:31:15.375634+01 | 1486409475.37563 | pgbench_tellers  |         27271168
 2017-02-06 20:31:15.375634+01 | 1486409475.37563 | pgbench_history  |        207036416
 2017-02-06 20:31:15.375634+01 | 1486409475.37563 | pgbench_branches |         24510464

 2017-02-06 20:31:16.452779+01 | 1486409476.45278 | pgbench_accounts |      13896155136
 2017-02-06 20:31:16.452779+01 | 1486409476.45278 | pgbench_tellers  |         27271168
 2017-02-06 20:31:16.452779+01 | 1486409476.45278 | pgbench_history  |        207552512
 2017-02-06 20:31:16.452779+01 | 1486409476.45278 | pgbench_branches |         24510464

 2017-02-06 20:31:17.530155+01 | 1486409477.53015 | pgbench_accounts |      13896155136
 2017-02-06 20:31:17.530155+01 | 1486409477.53015 | pgbench_tellers  |         27271168
 2017-02-06 20:31:17.530155+01 | 1486409477.53015 | pgbench_history  |        208666624
 2017-02-06 20:31:17.530155+01 | 1486409477.53015 | pgbench_branches |         24510464

 2017-02-06 20:31:18.628667+01 | 1486409478.62867 | pgbench_accounts |      13896155136
 2017-02-06 20:31:18.628667+01 | 1486409478.62867 | pgbench_tellers  |         27271168
 2017-02-06 20:31:18.628667+01 | 1486409478.62867 | pgbench_history  |        209395712
 2017-02-06 20:31:18.628667+01 | 1486409478.62867 | pgbench_branches |         24510464

 2017-02-06 20:31:19.712585+01 | 1486409479.71258 | pgbench_accounts |      13896155136
 2017-02-06 20:31:19.712585+01 | 1486409479.71258 | pgbench_tellers  |         27271168
 2017-02-06 20:31:19.712585+01 | 1486409479.71258 | pgbench_history  |        209764352
 2017-02-06 20:31:19.712585+01 | 1486409479.71258 | pgbench_branches |         24510464

 2017-02-06 20:31:20.794512+01 | 1486409480.79451 | pgbench_accounts |      13896155136
 2017-02-06 20:31:20.794512+01 | 1486409480.79451 | pgbench_tellers  |         27271168
 2017-02-06 20:31:20.794512+01 | 1486409480.79451 | pgbench_history  |        211009536
 2017-02-06 20:31:20.794512+01 | 1486409480.79451 | pgbench_branches |         24510464

 2017-02-06 20:31:21.870413+01 | 1486409481.87041 | pgbench_accounts |      13896155136
 2017-02-06 20:31:21.870413+01 | 1486409481.87041 | pgbench_tellers  |         27271168
 2017-02-06 20:31:21.870413+01 | 1486409481.87041 | pgbench_history  |        211877888
 2017-02-06 20:31:21.870413+01 | 1486409481.87041 | pgbench_branches |         24510464

 2017-02-06 20:31:22.94643+01 | 1486409482.94643 | pgbench_accounts |      13896155136
 2017-02-06 20:31:22.94643+01 | 1486409482.94643 | pgbench_tellers  |         27271168
 2017-02-06 20:31:22.94643+01 | 1486409482.94643 | pgbench_history  |        212254720
 2017-02-06 20:31:22.94643+01 | 1486409482.94643 | pgbench_branches |         24510464

 2017-02-06 20:31:24.018644+01 | 1486409484.01864 | pgbench_accounts |      13896155136
 2017-02-06 20:31:24.018644+01 | 1486409484.01864 | pgbench_tellers  |         27271168
 2017-02-06 20:31:24.018644+01 | 1486409484.01864 | pgbench_history  |        213123072
 2017-02-06 20:31:24.018644+01 | 1486409484.01864 | pgbench_branches |         24510464

 2017-02-06 20:31:25.097255+01 | 1486409485.09725 | pgbench_accounts |      13896155136
 2017-02-06 20:31:25.097255+01 | 1486409485.09725 | pgbench_tellers  |         27271168
 2017-02-06 20:31:25.097255+01 | 1486409485.09725 | pgbench_history  |        213647360
 2017-02-06 20:31:25.097255+01 | 1486409485.09725 | pgbench_branches |         24510464

