 2017-02-04 20:08:39.637522+01 | 1486235319.63752 | 3/1B940F8                |           12913819896

 2017-02-04 20:08:40.71315+01 | 1486235320.71315 | 3/2AA34B0                |           12929610928

 2017-02-04 20:08:41.794644+01 | 1486235321.79464 | 3/3988230                |           12945228336

 2017-02-04 20:08:42.866361+01 | 1486235322.86636 | 3/4857308                |           12960756488

 2017-02-04 20:08:43.936045+01 | 1486235323.93604 | 3/565DE48                |           12975464008

 2017-02-04 20:08:45.011206+01 | 1486235325.01121 | 3/641F3A0                |           12989887392

 2017-02-04 20:08:46.08309+01 | 1486235326.08309 | 3/7227820                |           13004601376

 2017-02-04 20:08:47.162277+01 | 1486235327.16228 | 3/812B108                |           13020344584

 2017-02-04 20:08:48.233694+01 | 1486235328.23369 | 3/8FC8C48                |           13035670600

 2017-02-04 20:08:49.296997+01 | 1486235329.297 | 3/9E86F58                |           13051129688

 2017-02-04 20:08:50.368187+01 | 1486235330.36819 | 3/AD75828                |           13066786856

 2017-02-04 20:08:51.439853+01 | 1486235331.43985 | 3/BB88F10                |           13081546512

 2017-02-04 20:08:52.521699+01 | 1486235332.5217 | 3/C9D05E0                |           13096519136

 2017-02-04 20:08:53.602773+01 | 1486235333.60277 | 3/D790AA8                |           13110938280

 2017-02-04 20:08:54.6842+01 | 1486235334.6842 | 3/E57E590                |           13125543312

 2017-02-04 20:08:55.760929+01 | 1486235335.76093 | 3/F37BC48                |           13140212808

 2017-02-04 20:08:56.839625+01 | 1486235336.83962 | 3/10207CF8               |           13155466488

 2017-02-04 20:08:57.914702+01 | 1486235337.9147 | 3/110DB2D0               |           13171012304

 2017-02-04 20:08:58.990356+01 | 1486235338.99036 | 3/120451E0               |           13187174880

 2017-02-04 20:09:00.065381+01 | 1486235340.06538 | 3/12F78B38               |           13203114808

 2017-02-04 20:09:01.137634+01 | 1486235341.13763 | 3/13E398B8               |           13218584760

 2017-02-04 20:09:02.214134+01 | 1486235342.21413 | 3/14CA1718               |           13233690392

 2017-02-04 20:09:03.28343+01 | 1486235343.28343 | 3/15B2C0D0               |           13248938192

 2017-02-04 20:09:04.359512+01 | 1486235344.35951 | 3/169A8DE0               |           13264129504

 2017-02-04 20:09:05.435251+01 | 1486235345.43525 | 3/178D29C0               |           13280029120

 2017-02-04 20:09:06.508548+01 | 1486235346.50855 | 3/1879B950               |           13295532368

 2017-02-04 20:09:07.582615+01 | 1486235347.58261 | 3/19632D80               |           13310832000

 2017-02-04 20:09:08.657612+01 | 1486235348.65761 | 3/1A4D2110               |           13326164240

 2017-02-04 20:09:09.732618+01 | 1486235349.73262 | 3/1B295F68               |           13340598120

 2017-02-04 20:09:10.805774+01 | 1486235350.80577 | 3/1C06E900               |           13355116800

 2017-02-04 20:09:11.888603+01 | 1486235351.8886 | 3/1CF6F510               |           13370848528

 2017-02-04 20:09:12.957366+01 | 1486235352.95737 | 3/1DD0CD10               |           13385125136

 2017-02-04 20:09:14.030701+01 | 1486235354.0307 | 3/1EB6F3C0               |           13400208320

 2017-02-04 20:09:15.106608+01 | 1486235355.10661 | 3/1F8466F0               |           13413672688

 2017-02-04 20:09:16.181387+01 | 1486235356.18139 | 3/20632A08               |           13428271624

 2017-02-04 20:09:17.251235+01 | 1486235357.25124 | 3/213C54F8               |           13442503928

 2017-02-04 20:09:18.32503+01 | 1486235358.32503 | 3/221EBF38               |           13457342264

 2017-02-04 20:09:19.386963+01 | 1486235359.38696 | 3/23081F40               |           13472636736

 2017-02-04 20:09:20.460394+01 | 1486235360.46039 | 3/23F31398               |           13488034712

 2017-02-04 20:09:21.537312+01 | 1486235361.53731 | 3/24CA2D18               |           13502131480

 2017-02-04 20:09:22.613467+01 | 1486235362.61347 | 3/25AFA6D0               |           13517170384

 2017-02-04 20:09:23.68924+01 | 1486235363.68924 | 3/26906E40               |           13531901504

 2017-02-04 20:09:24.761784+01 | 1486235364.76178 | 3/27793390               |           13547156368

 2017-02-04 20:09:25.835797+01 | 1486235365.8358 | 3/28548F58               |           13561532248

 2017-02-04 20:09:26.909906+01 | 1486235366.90991 | 3/293BBFA8               |           13576683432

 2017-02-04 20:09:27.980302+01 | 1486235367.9803 | 3/2A1A2BD8               |           13591260120

 2017-02-04 20:09:29.059336+01 | 1486235369.05934 | 3/2AFFFC00               |           13606321152

 2017-02-04 20:09:30.139923+01 | 1486235370.13992 | 3/2BDF98F8               |           13620975864

 2017-02-04 20:09:31.215491+01 | 1486235371.21549 | 3/2CBFC720               |           13635667744

 2017-02-04 20:09:32.298114+01 | 1486235372.29811 | 3/2D9638D0               |           13649721552

 2017-02-04 20:09:33.372051+01 | 1486235373.37205 | 3/2E71FE00               |           13664124416

 2017-02-04 20:09:34.447465+01 | 1486235374.44746 | 3/2F518628               |           13678773800

 2017-02-04 20:09:35.520343+01 | 1486235375.52034 | 3/303F8B70               |           13694372720

 2017-02-04 20:09:36.587982+01 | 1486235376.58798 | 3/311E3260               |           13708964448

 2017-02-04 20:09:37.662584+01 | 1486235377.66258 | 3/31F8EE00               |           13723299328

 2017-02-04 20:09:38.726781+01 | 1486235378.72678 | 3/32D218D8               |           13737531608

 2017-02-04 20:09:39.80063+01 | 1486235379.80063 | 3/33AA64C8               |           13751706824

 2017-02-04 20:09:40.877186+01 | 1486235380.87719 | 3/348ADD30               |           13766417712

 2017-02-04 20:09:41.949032+01 | 1486235381.94903 | 3/3574EB20               |           13781756704

 2017-02-04 20:09:43.019901+01 | 1486235383.0199 | 3/365D5DB0               |           13796990384

 2017-02-04 20:09:44.094799+01 | 1486235384.0948 | 3/37467D78               |           13812268408

 2017-02-04 20:09:45.167132+01 | 1486235385.16713 | 3/3823DE80               |           13826776704

 2017-02-04 20:09:46.247026+01 | 1486235386.24703 | 3/390B1C38               |           13841931320

 2017-02-04 20:09:47.323462+01 | 1486235387.32346 | 3/39E71138               |           13856346424

 2017-02-04 20:09:48.393946+01 | 1486235388.39395 | 3/3AC8B0C0               |           13871132864

 2017-02-04 20:09:49.469634+01 | 1486235389.46963 | 3/3BAAB038               |           13885943864

 2017-02-04 20:09:50.547345+01 | 1486235390.54734 | 3/3C8FBD38               |           13900954936

 2017-02-04 20:09:51.625865+01 | 1486235391.62586 | 3/3D74DE60               |           13915971168

 2017-02-04 20:09:52.698142+01 | 1486235392.69814 | 3/3E51CF08               |           13930450696

 2017-02-04 20:09:53.773283+01 | 1486235393.77328 | 3/3F2FBD10               |           13944995088

 2017-02-04 20:09:54.844043+01 | 1486235394.84404 | 3/4011D3B0               |           13959812016

 2017-02-04 20:09:55.920433+01 | 1486235395.92043 | 3/410192E0               |           13975524064

 2017-02-04 20:09:56.99916+01 | 1486235396.99916 | 3/41F1AC90               |           13991259280

 2017-02-04 20:09:58.06963+01 | 1486235398.06963 | 3/42D8C618               |           14006404632

 2017-02-04 20:09:59.143076+01 | 1486235399.14308 | 3/43AFDEF0               |           14020501232

 2017-02-04 20:10:00.215638+01 | 1486235400.21564 | 3/44943BD0               |           14035467216

 2017-02-04 20:10:01.284534+01 | 1486235401.28453 | 3/4575A0A0               |           14050238624

 2017-02-04 20:10:02.360094+01 | 1486235402.36009 | 3/46576808               |           14065035272

 2017-02-04 20:10:03.431502+01 | 1486235403.4315 | 3/4735DBF0               |           14079613936

 2017-02-04 20:10:04.504224+01 | 1486235404.50422 | 3/480D5100               |           14093734144

 2017-02-04 20:10:05.581171+01 | 1486235405.58117 | 3/48F3C4C8               |           14108837064

 2017-02-04 20:10:06.649711+01 | 1486235406.64971 | 3/49CE4F48               |           14123159368

 2017-02-04 20:10:07.723249+01 | 1486235407.72325 | 3/4AA118A0               |           14136973472

 2017-02-04 20:10:08.79371+01 | 1486235408.79371 | 3/4B76FEE8               |           14150991592

 2017-02-04 20:10:09.870415+01 | 1486235409.87041 | 3/4C599808               |           14165841928

 2017-02-04 20:10:10.944399+01 | 1486235410.9444 | 3/4D3EDCD0               |           14180867280

 2017-02-04 20:10:12.015658+01 | 1486235412.01566 | 3/4E188E48               |           14195134024

 2017-02-04 20:10:13.088069+01 | 1486235413.08807 | 3/4EFFC328               |           14210286376

 2017-02-04 20:10:14.163818+01 | 1486235414.16382 | 3/4FD01268               |           14223938152

 2017-02-04 20:10:15.237058+01 | 1486235415.23706 | 3/50A84B78               |           14238108536

 2017-02-04 20:10:16.313798+01 | 1486235416.3138 | 3/51719308               |           14251299592

 2017-02-04 20:10:17.389007+01 | 1486235417.38901 | 3/524104E0               |           14264894688

 2017-02-04 20:10:18.463874+01 | 1486235418.46387 | 3/5311CC58               |           14278577240

 2017-02-04 20:10:19.526863+01 | 1486235419.52686 | 3/53E836E0               |           14292629216

 2017-02-04 20:10:20.611533+01 | 1486235420.61153 | 3/54BDBDC0               |           14306622912

 2017-02-04 20:10:21.688014+01 | 1486235421.68801 | 3/55A11E78               |           14321524344

 2017-02-04 20:10:22.764697+01 | 1486235422.7647 | 3/5690DFB0               |           14337236912

 2017-02-04 20:10:23.83751+01 | 1486235423.83751 | 3/57846BA8               |           14353197992

 2017-02-04 20:10:24.911199+01 | 1486235424.9112 | 3/586092F0               |           14367625968

 2017-02-04 20:10:25.993139+01 | 1486235425.99314 | 3/594CF810               |           14383118352

 2017-02-04 20:10:27.063726+01 | 1486235427.06373 | 3/5A33A048               |           14398234696

 2017-02-04 20:10:28.139768+01 | 1486235428.13977 | 3/5B157A98               |           14413036184

 2017-02-04 20:10:29.213922+01 | 1486235429.21392 | 3/5BFB7590               |           14428108176

 2017-02-04 20:10:30.283036+01 | 1486235430.28304 | 3/5CDB3C28               |           14442773544

 2017-02-04 20:10:31.359156+01 | 1486235431.35916 | 3/5DB02470               |           14456726640

 2017-02-04 20:10:32.436703+01 | 1486235432.4367 | 3/5E808B88               |           14470384520

 2017-02-04 20:10:33.510244+01 | 1486235433.51024 | 3/5F4BFD70               |           14483717488

 2017-02-04 20:10:34.586212+01 | 1486235434.58621 | 3/601407D0               |           14496827344

 2017-02-04 20:10:35.658376+01 | 1486235435.65838 | 3/60EB3A88               |           14510930568

 2017-02-04 20:10:36.730369+01 | 1486235436.73037 | 3/61B107D0               |           14523893712

 2017-02-04 20:10:37.80172+01 | 1486235437.80172 | 3/627E27E8               |           14537336808

 2017-02-04 20:10:38.874135+01 | 1486235438.87414 | 3/63413490               |           14550119568

 2017-02-04 20:10:39.945629+01 | 1486235439.94563 | 3/640BB958               |           14563391832

 2017-02-04 20:10:41.021603+01 | 1486235441.0216 | 3/64F47A88               |           14578645640

 2017-02-04 20:10:42.100153+01 | 1486235442.10015 | 3/65D64FC0               |           14593445824

 2017-02-04 20:10:43.174798+01 | 1486235443.1748 | 3/66B461E8               |           14607999464

 2017-02-04 20:10:44.250677+01 | 1486235444.25068 | 3/67958278               |           14622753400

 2017-02-04 20:10:45.322429+01 | 1486235445.32243 | 3/686A9508               |           14636717320

 2017-02-04 20:10:46.392586+01 | 1486235446.39259 | 3/69471E10               |           14651170320

 2017-02-04 20:10:47.47054+01 | 1486235447.47054 | 3/6A108830               |           14664370224

 2017-02-04 20:10:48.545615+01 | 1486235448.54561 | 3/6AFE0E48               |           14679936584

 2017-02-04 20:10:49.627933+01 | 1486235449.62793 | 3/6BD823B0               |           14694228912

 2017-02-04 20:10:50.696752+01 | 1486235450.69675 | 3/6CB19928               |           14708480296

 2017-02-04 20:10:51.770339+01 | 1486235451.77034 | 3/6D8E8A08               |           14722959880

 2017-02-04 20:10:52.842609+01 | 1486235452.84261 | 3/6E653E48               |           14737030728

 2017-02-04 20:10:53.917139+01 | 1486235453.91714 | 3/6F44A840               |           14751672384

 2017-02-04 20:10:54.993073+01 | 1486235454.99307 | 3/70185968               |           14765545832

 2017-02-04 20:10:56.063096+01 | 1486235456.0631 | 3/70FE6880               |           14780622976

 2017-02-04 20:10:57.134188+01 | 1486235457.13419 | 3/71DC7EF8               |           14795177720

 2017-02-04 20:10:58.214461+01 | 1486235458.21446 | 3/72A89000               |           14808551424

 2017-02-04 20:10:59.285111+01 | 1486235459.28511 | 3/73860B68               |           14823066472

 2017-02-04 20:11:00.356594+01 | 1486235460.35659 | 3/745B2D80               |           14837034368

 2017-02-04 20:11:01.431254+01 | 1486235461.43125 | 3/753C1470               |           14851773552

 2017-02-04 20:11:02.504908+01 | 1486235462.50491 | 3/761F3578               |           14866658680

 2017-02-04 20:11:03.574305+01 | 1486235463.57431 | 3/76FFF900               |           14881388800

 2017-02-04 20:11:04.652768+01 | 1486235464.65277 | 3/77D8B788               |           14895593352

 2017-02-04 20:11:05.726725+01 | 1486235465.72673 | 3/78B30808               |           14909900808

 2017-02-04 20:11:06.801307+01 | 1486235466.80131 | 3/797B5CB8               |           14923031336

 2017-02-04 20:11:07.87398+01 | 1486235467.87398 | 3/7A478798               |           14936410008

 2017-02-04 20:11:08.947724+01 | 1486235468.94772 | 3/7B0EDD80               |           14949473664

 2017-02-04 20:11:10.020323+01 | 1486235470.02032 | 3/7BDD7DB8               |           14963015096

 2017-02-04 20:11:11.090635+01 | 1486235471.09064 | 3/7CA44A78               |           14976043640

 2017-02-04 20:11:12.159043+01 | 1486235472.15904 | 3/7D6883F0               |           14988903408

 2017-02-04 20:11:13.232706+01 | 1486235473.23271 | 3/7E2A1A58               |           15001590360

 2017-02-04 20:11:14.308903+01 | 1486235474.3089 | 3/7F029588               |           15015777672

 2017-02-04 20:11:15.392262+01 | 1486235475.39226 | 3/7FED6220               |           15031165472

 2017-02-04 20:11:16.464555+01 | 1486235476.46456 | 3/80D40938               |           15046281528

 2017-02-04 20:11:17.535498+01 | 1486235477.5355 | 3/819D3F48               |           15059468104

 2017-02-04 20:11:18.60734+01 | 1486235478.60734 | 3/827F99A0               |           15074302368

 2017-02-04 20:11:19.670735+01 | 1486235479.67073 | 3/83969A90               |           15092587152

 2017-02-04 20:11:20.74327+01 | 1486235480.74327 | 3/84B35590               |           15111247248

 2017-02-04 20:11:21.818739+01 | 1486235481.81874 | 3/8597BC78               |           15126215800

 2017-02-04 20:11:22.887833+01 | 1486235482.88783 | 3/867FF988               |           15141435784

 2017-02-04 20:11:23.964133+01 | 1486235483.96413 | 3/87643960               |           15156394336

 2017-02-04 20:11:25.037953+01 | 1486235485.03795 | 3/88493138               |           15171399992

 2017-02-04 20:11:26.11695+01 | 1486235486.11695 | 3/89327778               |           15186687864

 2017-02-04 20:11:27.196799+01 | 1486235487.1968 | 3/8A1BD820               |           15201982496

 2017-02-04 20:11:28.271015+01 | 1486235488.27101 | 3/8B07C100               |           15217443072

 2017-02-04 20:11:29.342945+01 | 1486235489.34295 | 3/8BF27888               |           15232825480

 2017-02-04 20:11:30.412588+01 | 1486235490.41259 | 3/8CDE0E58               |           15248264792

 2017-02-04 20:11:31.481435+01 | 1486235491.48144 | 3/8DC7E440               |           15263589440

 2017-02-04 20:11:32.554882+01 | 1486235492.55488 | 3/8EAF5630               |           15278757424

 2017-02-04 20:11:33.623811+01 | 1486235493.62381 | 3/8F865298               |           15292846744

 2017-02-04 20:11:34.701092+01 | 1486235494.70109 | 3/90638C20               |           15307344928

 2017-02-04 20:11:35.77499+01 | 1486235495.77499 | 3/914D3550               |           15322658128

 2017-02-04 20:11:36.844305+01 | 1486235496.84431 | 3/9232B828               |           15337699368

 2017-02-04 20:11:37.914831+01 | 1486235497.91483 | 3/931644E8               |           15352612072

 2017-02-04 20:11:38.982558+01 | 1486235498.98256 | 3/93FE6A70               |           15367826032

 2017-02-04 20:11:40.053832+01 | 1486235500.05383 | 3/94D21F58               |           15381700440

 2017-02-04 20:11:41.131077+01 | 1486235501.13108 | 3/95B4B150               |           15396548944

 2017-02-04 20:11:42.198758+01 | 1486235502.19876 | 3/969C2AE8               |           15411718888

 2017-02-04 20:11:43.272891+01 | 1486235503.27289 | 3/9781BBB0               |           15426763696

 2017-02-04 20:11:44.346489+01 | 1486235504.34649 | 3/986B9610               |           15442089488

 2017-02-04 20:11:45.414861+01 | 1486235505.41486 | 3/994C2378               |           15456805752

 2017-02-04 20:11:46.487257+01 | 1486235506.48726 | 3/9A2B9B78               |           15471451000

 2017-02-04 20:11:47.560081+01 | 1486235507.56008 | 3/9B10DA38               |           15486474808

 2017-02-04 20:11:48.638899+01 | 1486235508.6389 | 3/9BED0C20               |           15500905504

 2017-02-04 20:11:49.707881+01 | 1486235509.70788 | 3/9CCF5B80               |           15515736960

 2017-02-04 20:11:50.779476+01 | 1486235510.77948 | 3/9DAB7A10               |           15530162704

 2017-02-04 20:11:51.852266+01 | 1486235511.85227 | 3/9E8D99B0               |           15544981936

 2017-02-04 20:11:52.929215+01 | 1486235512.92921 | 3/9F728560               |           15559984480

 2017-02-04 20:11:53.998914+01 | 1486235513.99891 | 3/A055E920               |           15574886688

 2017-02-04 20:11:55.07135+01 | 1486235515.07135 | 3/A13FDDB0               |           15590219184

 2017-02-04 20:11:56.147134+01 | 1486235516.14713 | 3/A2261A90               |           15605308048

 2017-02-04 20:11:57.220549+01 | 1486235517.22055 | 3/A3111EF8               |           15620710136

 2017-02-04 20:11:58.29344+01 | 1486235518.29344 | 3/A3FBBB38               |           15636085560

 2017-02-04 20:11:59.366293+01 | 1486235519.36629 | 3/A4E67A28               |           15651469864

 2017-02-04 20:12:00.435382+01 | 1486235520.43538 | 3/A5CC19C8               |           15666518472

 2017-02-04 20:12:01.509392+01 | 1486235521.50939 | 3/A6ADBBD0               |           15681305552

 2017-02-04 20:12:02.577245+01 | 1486235522.57724 | 3/A78F1C90               |           15696075920

 2017-02-04 20:12:03.651775+01 | 1486235523.65177 | 3/A86DFAC8               |           15710681800

 2017-02-04 20:12:04.726702+01 | 1486235524.7267 | 3/A942D178               |           15724630392

 2017-02-04 20:12:05.802352+01 | 1486235525.80235 | 3/AA11D578               |           15738197368

 2017-02-04 20:12:06.87759+01 | 1486235526.87759 | 3/AADA7270               |           15751344752

 2017-02-04 20:12:07.95275+01 | 1486235527.95275 | 3/AB9AD480               |           15763952768

 2017-02-04 20:12:09.022274+01 | 1486235529.02227 | 3/AC571CF8               |           15776292088

 2017-02-04 20:12:10.095033+01 | 1486235530.09503 | 3/AD1A9D40               |           15789104448

 2017-02-04 20:12:11.165824+01 | 1486235531.16582 | 3/ADFFFF28               |           15804137256

 2017-02-04 20:12:12.245244+01 | 1486235532.24524 | 3/AEDE84C8               |           15818720456

 2017-02-04 20:12:13.323729+01 | 1486235533.32373 | 3/AFB71A70               |           15832914544

 2017-02-04 20:12:14.393501+01 | 1486235534.3935 | 3/B089B970               |           15846717808

 2017-02-04 20:12:15.464774+01 | 1486235535.46477 | 3/B163CE00               |           15861009920

 2017-02-04 20:12:16.539352+01 | 1486235536.53935 | 3/B241D3C8               |           15875560392

 2017-02-04 20:12:17.613459+01 | 1486235537.61346 | 3/B30FDB00               |           15889062656

 2017-02-04 20:12:18.687176+01 | 1486235538.68718 | 3/B3EC5940               |           15903512896

 2017-02-04 20:12:19.751602+01 | 1486235539.7516 | 3/B4E7A858               |           15919982680

 2017-02-04 20:12:20.820937+01 | 1486235540.82094 | 3/B5CB60D0               |           15934906576

 2017-02-04 20:12:21.893405+01 | 1486235541.8934 | 3/B6A2CFF8               |           15949025272

 2017-02-04 20:12:22.96452+01 | 1486235542.96452 | 3/B7762860               |           15962876000

 2017-02-04 20:12:24.038126+01 | 1486235544.03813 | 3/B856F558               |           15977608536

 2017-02-04 20:12:25.112785+01 | 1486235545.11279 | 3/B9296948               |           15991400776

 2017-02-04 20:12:26.184228+01 | 1486235546.18423 | 3/BA06A4C8               |           16005899464

 2017-02-04 20:12:27.260102+01 | 1486235547.2601 | 3/BAED14A0               |           16021001376

 2017-02-04 20:12:28.336003+01 | 1486235548.336 | 3/BBC75A60               |           16035306080

 2017-02-04 20:12:29.416014+01 | 1486235549.41601 | 3/BC9F3238               |           16049451576

 2017-02-04 20:12:30.48871+01 | 1486235550.48871 | 3/BD7C4F40               |           16063942464

 2017-02-04 20:12:31.567039+01 | 1486235551.56704 | 3/BE5601A0               |           16078209440

 2017-02-04 20:12:32.641145+01 | 1486235552.64114 | 3/BF355CE0               |           16092847328

 2017-02-04 20:12:33.713037+01 | 1486235553.71304 | 3/C0141510               |           16107443472

 2017-02-04 20:12:34.791643+01 | 1486235554.79164 | 3/C0FC6D78               |           16122670456

 2017-02-04 20:12:35.872873+01 | 1486235555.87287 | 3/C1DA0528               |           16137192744

 2017-02-04 20:12:36.966+01 | 1486235556.966 | 3/C2B6C380               |           16151659392

 2017-02-04 20:12:38.042179+01 | 1486235558.04218 | 3/C39C4C78               |           16166702200

 2017-02-04 20:12:39.118863+01 | 1486235559.11886 | 3/C47712B8               |           16181039800

 2017-02-04 20:12:40.19925+01 | 1486235560.19925 | 3/C55319A0               |           16195459488

 2017-02-04 20:12:41.281993+01 | 1486235561.28199 | 3/C626E6C8               |           16209340104

 2017-02-04 20:12:42.358972+01 | 1486235562.35897 | 3/C702F090               |           16223760528

 2017-02-04 20:12:43.440237+01 | 1486235563.44024 | 3/C7DEBF38               |           16238165816

 2017-02-04 20:12:44.517665+01 | 1486235564.51766 | 3/C8C1E378               |           16253051768

 2017-02-04 20:12:45.593475+01 | 1486235565.59348 | 3/C9A482C0               |           16267903680

 2017-02-04 20:12:46.666415+01 | 1486235566.66641 | 3/CA8CB0D8               |           16283119832

 2017-02-04 20:12:47.743358+01 | 1486235567.74336 | 3/CB673918               |           16297441560

 2017-02-04 20:12:48.814904+01 | 1486235568.8149 | 3/CC3F95F8               |           16311621112

 2017-02-04 20:12:49.887154+01 | 1486235569.88715 | 3/CD1330F0               |           16325488880

 2017-02-04 20:12:50.965702+01 | 1486235570.9657 | 3/CDF2FCF8               |           16340155640

 2017-02-04 20:12:52.042229+01 | 1486235572.04223 | 3/CECA0498               |           16354247832

 2017-02-04 20:12:53.122646+01 | 1486235573.12265 | 3/CFA84678               |           16368813688

 2017-02-04 20:12:54.194313+01 | 1486235574.19431 | 3/D0809CB0               |           16382991536

 2017-02-04 20:12:55.266679+01 | 1486235575.26668 | 3/D1518B30               |           16396684080

 2017-02-04 20:12:56.339899+01 | 1486235576.3399 | 3/D22BCF68               |           16410988392

 2017-02-04 20:12:57.413071+01 | 1486235577.41307 | 3/D31045E8               |           16425960936

 2017-02-04 20:12:58.481669+01 | 1486235578.48167 | 3/D3F21960               |           16440760672

 2017-02-04 20:12:59.550551+01 | 1486235579.55055 | 3/D4D2EF98               |           16455495576

 2017-02-04 20:13:00.621014+01 | 1486235580.62101 | 3/D5B2C848               |           16470165576

 2017-02-04 20:13:01.692975+01 | 1486235581.69298 | 3/D691F970               |           16484792688

 2017-02-04 20:13:02.769461+01 | 1486235582.76946 | 3/D77404B0               |           16499606704

 2017-02-04 20:13:03.839029+01 | 1486235583.83903 | 3/D8557B58               |           16514382680

 2017-02-04 20:13:04.908906+01 | 1486235584.90891 | 3/D93DA4E8               |           16529597672

 2017-02-04 20:13:05.9815+01 | 1486235585.9815 | 3/DA19A120               |           16544014624

 2017-02-04 20:13:07.049047+01 | 1486235587.04905 | 3/DAF3B470               |           16558306416

 2017-02-04 20:13:08.120986+01 | 1486235588.12099 | 3/DBC6FCD0               |           16572153040

 2017-02-04 20:13:09.196897+01 | 1486235589.1969 | 3/DCACCA60               |           16587213408

 2017-02-04 20:13:10.270953+01 | 1486235590.27095 | 3/DD91CFA8               |           16602222504

 2017-02-04 20:13:11.3458+01 | 1486235591.3458 | 3/DE7B7EC0               |           16617537216

 2017-02-04 20:13:12.421365+01 | 1486235592.42137 | 3/DF6B2078               |           16633241720

 2017-02-04 20:13:13.495257+01 | 1486235593.49526 | 3/E0613410               |           16649368592

 2017-02-04 20:13:14.568566+01 | 1486235594.56857 | 3/E1560440               |           16665412672

 2017-02-04 20:13:15.644186+01 | 1486235595.64419 | 3/E24B8BF8               |           16681503736

 2017-02-04 20:13:16.714832+01 | 1486235596.71483 | 3/E344E1A0               |           16697844128

 2017-02-04 20:13:17.785382+01 | 1486235597.78538 | 3/E42DB760               |           16713103200

 2017-02-04 20:13:18.855198+01 | 1486235598.8552 | 3/E51EC528               |           16728900904

 2017-02-04 20:13:19.919175+01 | 1486235599.91917 | 3/E633F4C8               |           16747066568

 2017-02-04 20:13:20.99346+01 | 1486235600.99346 | 3/E708F158               |           16761024856

 2017-02-04 20:13:22.072512+01 | 1486235602.07251 | 3/E7E8CEA8               |           16775696040

 2017-02-04 20:13:23.14234+01 | 1486235603.14234 | 3/E8C3A408               |           16790037512

 2017-02-04 20:13:24.221279+01 | 1486235604.22128 | 3/E99CC570               |           16804267376

 2017-02-04 20:13:25.294704+01 | 1486235605.2947 | 3/EA755C08               |           16818461704

 2017-02-04 20:13:26.36561+01 | 1486235606.36561 | 3/EB50AFE8               |           16832835560

 2017-02-04 20:13:27.435864+01 | 1486235607.43586 | 3/EC222EB0               |           16846565040

 2017-02-04 20:13:28.506778+01 | 1486235608.50678 | 3/ECFFFBE8               |           16861101032

 2017-02-04 20:13:29.585701+01 | 1486235609.5857 | 3/EDFE9E40               |           16877788736

 2017-02-04 20:13:30.663214+01 | 1486235610.66321 | 3/EEF25150               |           16893759824

 2017-02-04 20:13:31.733151+01 | 1486235611.73315 | 3/EFE274F8               |           16909497592

 2017-02-04 20:13:32.8075+01 | 1486235612.8075 | 3/F0C9E4B8               |           16924665016

 2017-02-04 20:13:33.886535+01 | 1486235613.88653 | 3/F1B8CD28               |           16940322088

 2017-02-04 20:13:34.962118+01 | 1486235614.96212 | 3/F2BC0360               |           16957309792

 2017-02-04 20:13:36.037981+01 | 1486235616.03798 | 3/F3BD8360               |           16974185312

 2017-02-04 20:13:37.117263+01 | 1486235617.11726 | 3/F49B6188               |           16988725640

 2017-02-04 20:13:38.19444+01 | 1486235618.19444 | 3/F576B970               |           17003100528

 2017-02-04 20:13:39.267622+01 | 1486235619.26762 | 3/F64C5A28               |           17017100840

 2017-02-04 20:13:40.340513+01 | 1486235620.34051 | 3/F72D96D0               |           17031861968

 2017-02-04 20:13:41.411577+01 | 1486235621.41158 | 3/F8117CF8               |           17046797560

 2017-02-04 20:13:42.498351+01 | 1486235622.49835 | 3/F8FB4D50               |           17062120784

 2017-02-04 20:13:43.571833+01 | 1486235623.57183 | 3/F9D82328               |           17076593448

 2017-02-04 20:13:44.655411+01 | 1486235624.65541 | 3/FAB29F50               |           17090912080

 2017-02-04 20:13:45.727256+01 | 1486235625.72726 | 3/FB8E3E20               |           17105305120

 2017-02-04 20:13:46.799314+01 | 1486235626.79931 | 3/FC6E7B98               |           17120000920

 2017-02-04 20:13:47.869895+01 | 1486235627.86989 | 3/FD4B01E8               |           17134453224

 2017-02-04 20:13:48.94381+01 | 1486235628.94381 | 3/FE1F0750               |           17148348240

 2017-02-04 20:13:50.019758+01 | 1486235630.01976 | 3/FEFB6A00               |           17162791424

 2017-02-04 20:13:51.091057+01 | 1486235631.09106 | 3/FFC2CB08               |           17175857928

 2017-02-04 20:13:52.164138+01 | 1486235632.16414 | 4/9A0200                 |           17189962240

 2017-02-04 20:13:53.23868+01 | 1486235633.23868 | 4/175D300                |           17204368128

 2017-02-04 20:13:54.317114+01 | 1486235634.31711 | 4/2519BE0                |           17218771936

 2017-02-04 20:13:55.390786+01 | 1486235635.39079 | 4/31F8A78                |           17232267896

 2017-02-04 20:13:56.463306+01 | 1486235636.46331 | 4/3F9D9A8                |           17246575016

 2017-02-04 20:13:57.546469+01 | 1486235637.54647 | 4/4B8E5D0                |           17259095504

 2017-02-04 20:13:58.621336+01 | 1486235638.62134 | 4/5822CA8                |           17272286376

 2017-02-04 20:13:59.693313+01 | 1486235639.69331 | 4/6483F18                |           17285267224

 2017-02-04 20:14:00.767677+01 | 1486235640.76768 | 4/70FE370                |           17298350960

 2017-02-04 20:14:01.839782+01 | 1486235641.83978 | 4/7D857B8                |           17311487928

 2017-02-04 20:14:02.919239+01 | 1486235642.91924 | 4/8A0A7B8                |           17324615608

 2017-02-04 20:14:03.99209+01 | 1486235643.99209 | 4/978EC50                |           17338788944

 2017-02-04 20:14:05.066926+01 | 1486235645.06693 | 4/A61E9D8                |           17354058200

 2017-02-04 20:14:06.137241+01 | 1486235646.13724 | 4/B431B90                |           17368816528

 2017-02-04 20:14:07.205761+01 | 1486235647.20576 | 4/C204758                |           17383311192

 2017-02-04 20:14:08.281836+01 | 1486235648.28184 | 4/D0218B8                |           17398110392

 2017-02-04 20:14:09.362341+01 | 1486235649.36234 | 4/DE45070                |           17412935792

 2017-02-04 20:14:10.434978+01 | 1486235650.43498 | 4/EBAD780                |           17426995072

 2017-02-04 20:14:11.507761+01 | 1486235651.50776 | 4/F9827B8                |           17441499064

 2017-02-04 20:14:12.581397+01 | 1486235652.5814 | 4/1074FF40               |           17455972160

 2017-02-04 20:14:13.657269+01 | 1486235653.65727 | 4/114BA618               |           17470039576

 2017-02-04 20:14:14.733883+01 | 1486235654.73388 | 4/122C9168               |           17484779880

 2017-02-04 20:14:15.814042+01 | 1486235655.81404 | 4/130519C0               |           17498970560

 2017-02-04 20:14:16.890267+01 | 1486235656.89027 | 4/13D78400               |           17512760320

 2017-02-04 20:14:17.965353+01 | 1486235657.96535 | 4/14883CE8               |           17524341992

 2017-02-04 20:14:19.038283+01 | 1486235659.03828 | 4/15468DC8               |           17536814536

 2017-02-04 20:14:20.119644+01 | 1486235660.11964 | 4/162557A0               |           17551415200

 2017-02-04 20:14:21.196392+01 | 1486235661.19639 | 4/171BAF48               |           17567559496

 2017-02-04 20:14:22.270744+01 | 1486235662.27074 | 4/18065A08               |           17582938632

 2017-02-04 20:14:23.347568+01 | 1486235663.34757 | 4/18FE82C8               |           17599201992

 2017-02-04 20:14:24.437073+01 | 1486235664.43707 | 4/19D60CF0               |           17613327600

 2017-02-04 20:14:25.511604+01 | 1486235665.5116 | 4/1AC1DB60               |           17628781408

 2017-02-04 20:14:26.581668+01 | 1486235666.58167 | 4/1B7CC0D0               |           17641029840

 2017-02-04 20:14:27.656317+01 | 1486235667.65632 | 4/1C67EF88               |           17656442760

 2017-02-04 20:14:28.727376+01 | 1486235668.72738 | 4/1D500D10               |           17671654672

 2017-02-04 20:14:29.802162+01 | 1486235669.80216 | 4/1E3013E0               |           17686336480

 2017-02-04 20:14:30.878676+01 | 1486235670.87868 | 4/1F18D8B0               |           17701591216

 2017-02-04 20:14:31.95141+01 | 1486235671.95141 | 4/1FFFFF10               |           17716739856

 2017-02-04 20:14:33.025344+01 | 1486235673.02534 | 4/20D52A48               |           17730710088

 2017-02-04 20:14:34.098698+01 | 1486235674.0987 | 4/21AAB450               |           17744704592

 2017-02-04 20:14:35.174222+01 | 1486235675.17422 | 4/228BBB90               |           17759452048

 2017-02-04 20:14:36.24922+01 | 1486235676.24922 | 4/235C25B8               |           17773110712

 2017-02-04 20:14:37.327898+01 | 1486235677.3279 | 4/2431A128               |           17787101480

 2017-02-04 20:14:38.40126+01 | 1486235678.40126 | 4/25078918               |           17801121456

 2017-02-04 20:14:39.47716+01 | 1486235679.47716 | 4/25E6DE70               |           17815756400

 2017-02-04 20:14:40.55011+01 | 1486235680.55011 | 4/26BB9CC8               |           17829698760

 2017-02-04 20:14:41.623787+01 | 1486235681.62379 | 4/279BDBF8               |           17844395000

 2017-02-04 20:14:42.701798+01 | 1486235682.7018 | 4/28768DC0               |           17858727360

 2017-02-04 20:14:43.776355+01 | 1486235683.77636 | 4/29585A70               |           17873525360

 2017-02-04 20:14:44.849988+01 | 1486235684.84999 | 4/2A371AF8               |           17888123640

 2017-02-04 20:14:45.926244+01 | 1486235685.92624 | 4/2B1CAD68               |           17903168872

 2017-02-04 20:14:47.004278+01 | 1486235687.00428 | 4/2C014A58               |           17918151256

 2017-02-04 20:14:48.08751+01 | 1486235688.08751 | 4/2CDE3DB8               |           17932632728

 2017-02-04 20:14:49.156101+01 | 1486235689.1561 | 4/2DB66508               |           17946797320

 2017-02-04 20:14:50.224317+01 | 1486235690.22432 | 4/2E997E18               |           17961680408

 2017-02-04 20:14:51.295384+01 | 1486235691.29538 | 4/2F671580               |           17975154048

 2017-02-04 20:14:52.367565+01 | 1486235692.36756 | 4/304477D8               |           17989662680

 2017-02-04 20:14:53.440107+01 | 1486235693.44011 | 4/31269600               |           18004483120

 2017-02-04 20:14:54.513592+01 | 1486235694.51359 | 4/320EE6C0               |           18019706560

 2017-02-04 20:14:55.587528+01 | 1486235695.58753 | 4/32F8A728               |           18035025704

 2017-02-04 20:14:56.655738+01 | 1486235696.65574 | 4/33D65EC0               |           18049556160

 2017-02-04 20:14:57.729417+01 | 1486235697.72942 | 4/34B67D28               |           18064244008

 2017-02-04 20:14:58.802437+01 | 1486235698.80244 | 4/358D8B30               |           18078337840

 2017-02-04 20:14:59.875763+01 | 1486235699.87576 | 4/3664D4E0               |           18092446944

 2017-02-04 20:15:00.94922+01 | 1486235700.94922 | 4/374120D8               |           18106884312

 2017-02-04 20:15:02.022877+01 | 1486235702.02288 | 4/381941B0               |           18121048496

 2017-02-04 20:15:03.095746+01 | 1486235703.09575 | 4/38FABE88               |           18135826056

 2017-02-04 20:15:04.169293+01 | 1486235704.16929 | 4/39DBD7B8               |           18150578104

 2017-02-04 20:15:05.241299+01 | 1486235705.2413 | 4/3AB02E60               |           18164493920

 2017-02-04 20:15:06.310834+01 | 1486235706.31083 | 4/3B83F728               |           18178373416

 2017-02-04 20:15:07.38517+01 | 1486235707.38517 | 4/3C5BD300               |           18192519936

 2017-02-04 20:15:08.46198+01 | 1486235708.46198 | 4/3D3CD218               |           18207265304

 2017-02-04 20:15:09.535496+01 | 1486235709.5355 | 4/3E1E9148               |           18222059848

 2017-02-04 20:15:10.607322+01 | 1486235710.60732 | 4/3F042428               |           18237105192

 2017-02-04 20:15:11.679242+01 | 1486235711.67924 | 4/3FF445D0               |           18252842448

 2017-02-04 20:15:12.751577+01 | 1486235712.75158 | 4/40D8C420               |           18267816992

 2017-02-04 20:15:13.82707+01 | 1486235713.82707 | 4/41C4AFD8               |           18283278296

 2017-02-04 20:15:14.898432+01 | 1486235714.89843 | 4/42AE4F50               |           18298589008

 2017-02-04 20:15:15.96772+01 | 1486235715.96772 | 4/438D9D48               |           18313223496

 2017-02-04 20:15:17.039926+01 | 1486235717.03993 | 4/4471D1D8               |           18328179160

 2017-02-04 20:15:18.111534+01 | 1486235718.11153 | 4/453BF630               |           18341426736

 2017-02-04 20:15:19.18901+01 | 1486235719.18901 | 4/4636B350               |           18357859152

 2017-02-04 20:15:20.260264+01 | 1486235720.26026 | 4/4721D800               |           18373269504

 2017-02-04 20:15:21.336102+01 | 1486235721.3361 | 4/480AE418               |           18388542488

 2017-02-04 20:15:22.40803+01 | 1486235722.40803 | 4/48FFF990               |           18404604304

 2017-02-04 20:15:23.485947+01 | 1486235723.48595 | 4/49EF5CB8               |           18420292792

 2017-02-04 20:15:24.558873+01 | 1486235724.55887 | 4/4ADFB2E8               |           18436043496

 2017-02-04 20:15:25.633423+01 | 1486235725.63342 | 4/4BC3C820               |           18450991136

 2017-02-04 20:15:26.703875+01 | 1486235726.70388 | 4/4C989B10               |           18464938768

 2017-02-04 20:15:27.771346+01 | 1486235727.77135 | 4/4D6CE610               |           18478851600

 2017-02-04 20:15:28.843331+01 | 1486235728.84333 | 4/4E44B9B8               |           18492996024

 2017-02-04 20:15:29.914875+01 | 1486235729.91488 | 4/4F1444C8               |           18506597576

 2017-02-04 20:15:30.984954+01 | 1486235730.98495 | 4/4FFC90B8               |           18521821368

 2017-02-04 20:15:32.062656+01 | 1486235732.06266 | 4/50D50228               |           18536006184

 2017-02-04 20:15:33.14294+01 | 1486235733.14294 | 4/51BFA848               |           18551384136

 2017-02-04 20:15:34.213066+01 | 1486235734.21307 | 4/52ADA3A8               |           18566980520

 2017-02-04 20:15:35.285179+01 | 1486235735.28518 | 4/539B5080               |           18582556800

 2017-02-04 20:15:36.355131+01 | 1486235736.35513 | 4/54896DB8               |           18598161848

 2017-02-04 20:15:37.435202+01 | 1486235737.4352 | 4/557050D0               |           18613293264

 2017-02-04 20:15:38.514197+01 | 1486235738.5142 | 4/565D7D48               |           18628836680

 2017-02-04 20:15:39.585033+01 | 1486235739.58503 | 4/574A8268               |           18644370024

 2017-02-04 20:15:40.660731+01 | 1486235740.66073 | 4/583F0BB0               |           18660395952

 2017-02-04 20:15:41.734316+01 | 1486235741.73432 | 4/593944C0               |           18676794560

 2017-02-04 20:15:42.806139+01 | 1486235742.80614 | 4/5A26D650               |           18692363856

 2017-02-04 20:15:43.876724+01 | 1486235743.87672 | 4/5B05E378               |           18706981752

 2017-02-04 20:15:44.953815+01 | 1486235744.95381 | 4/5BFBFE30               |           18723110448

 2017-02-04 20:15:46.025633+01 | 1486235746.02563 | 4/5CE5B9D8               |           18738428376

 2017-02-04 20:15:47.100062+01 | 1486235747.10006 | 4/5DD22528               |           18753922344

 2017-02-04 20:15:48.175076+01 | 1486235748.17508 | 4/5EB5CAB8               |           18768841400

 2017-02-04 20:15:49.25081+01 | 1486235749.25081 | 4/5F9B7D40               |           18783894848

 2017-02-04 20:15:50.326495+01 | 1486235750.32649 | 4/608864A8               |           18799420584

 2017-02-04 20:15:51.400579+01 | 1486235751.40058 | 4/616600A0               |           18813943968

 2017-02-04 20:15:52.47575+01 | 1486235752.47575 | 4/62478BE8               |           18828725224

 2017-02-04 20:15:53.546718+01 | 1486235753.54672 | 4/6327DFD0               |           18843426768

 2017-02-04 20:15:54.616287+01 | 1486235754.61629 | 4/64150B30               |           18858969904

 2017-02-04 20:15:55.689595+01 | 1486235755.68959 | 4/64FFFA78               |           18874366584

 2017-02-04 20:15:56.776856+01 | 1486235756.77686 | 4/65D75898               |           18888480920

 2017-02-04 20:15:57.85275+01 | 1486235757.85275 | 4/66BB97C8               |           18903439304

 2017-02-04 20:15:58.921833+01 | 1486235758.92183 | 4/67A3CB88               |           18918656904

 2017-02-04 20:15:59.996686+01 | 1486235759.99669 | 4/68863978               |           18933498432

 2017-02-04 20:16:01.067673+01 | 1486235761.06767 | 4/6963A3D8               |           18948006872

 2017-02-04 20:16:02.144194+01 | 1486235762.14419 | 4/6A45BA50               |           18962823760

 2017-02-04 20:16:03.219393+01 | 1486235763.21939 | 4/6B2A95F8               |           18977822200

 2017-02-04 20:16:04.289737+01 | 1486235764.28974 | 4/6C0B3D70               |           18992545136

 2017-02-04 20:16:05.356088+01 | 1486235765.35609 | 4/6CF5CD70               |           19007917424

 2017-02-04 20:16:06.427936+01 | 1486235766.42794 | 4/6DDA1748               |           19022878536

 2017-02-04 20:16:07.497+01 | 1486235767.497 | 4/6EBB3848               |           19037632584

 2017-02-04 20:16:08.572307+01 | 1486235768.57231 | 4/6F8EC518               |           19051496728

 2017-02-04 20:16:09.645038+01 | 1486235769.64504 | 4/70728C08               |           19066424328

 2017-02-04 20:16:10.718836+01 | 1486235770.71884 | 4/7152BFF0               |           19081117680

 2017-02-04 20:16:11.787431+01 | 1486235771.78743 | 4/72341870               |           19095885936

 2017-02-04 20:16:12.860335+01 | 1486235772.86034 | 4/7317BCD8               |           19110804696

 2017-02-04 20:16:13.932271+01 | 1486235773.93227 | 4/73FA5970               |           19125655920

 2017-02-04 20:16:14.999339+01 | 1486235774.99934 | 4/74E2B530               |           19140883760

 2017-02-04 20:16:16.071812+01 | 1486235776.07181 | 4/75C5BEE8               |           19155762920

 2017-02-04 20:16:17.143979+01 | 1486235777.14398 | 4/76A7B610               |           19170571792

 2017-02-04 20:16:18.215736+01 | 1486235778.21574 | 4/77831B90               |           19184950160

 2017-02-04 20:16:19.29255+01 | 1486235779.29255 | 4/785A1348               |           19199038280

 2017-02-04 20:16:20.366477+01 | 1486235780.36648 | 4/792B3760               |           19212744544

 2017-02-04 20:16:21.443738+01 | 1486235781.44374 | 4/79FD4F08               |           19226513160

 2017-02-04 20:16:22.508976+01 | 1486235782.50898 | 4/7ABEEE68               |           19239202408

 2017-02-04 20:16:23.5817+01 | 1486235783.5817 | 4/7B7FF700               |           19251853056

 2017-02-04 20:16:24.649004+01 | 1486235784.649 | 4/7C459F38               |           19264806712

 2017-02-04 20:16:25.718869+01 | 1486235785.71887 | 4/7CFC4F08               |           19276779272

 2017-02-04 20:16:26.781495+01 | 1486235786.7815 | 4/7DBB0670               |           19289278064

 2017-02-04 20:16:27.854831+01 | 1486235787.85483 | 4/7E925900               |           19303389440

 2017-02-04 20:16:28.928536+01 | 1486235788.92854 | 4/7F6C03B8               |           19317654456

 2017-02-04 20:16:29.998735+01 | 1486235789.99873 | 4/804D7480               |           19332428928

 2017-02-04 20:16:31.072449+01 | 1486235791.07245 | 4/811E2538               |           19346105656

 2017-02-04 20:16:32.144161+01 | 1486235792.14416 | 4/81FD4FD0               |           19360731088

 2017-02-04 20:16:33.21199+01 | 1486235793.21199 | 4/82E06CA0               |           19375615136

 2017-02-04 20:16:34.283089+01 | 1486235794.28309 | 4/83B0F740               |           19389282112

 2017-02-04 20:16:35.357261+01 | 1486235795.35726 | 4/849506C0               |           19404228288

 2017-02-04 20:16:36.429202+01 | 1486235796.4292 | 4/8576D0A0               |           19419025568

 2017-02-04 20:16:37.503053+01 | 1486235797.50305 | 4/8650ABD0               |           19433302992

 2017-02-04 20:16:38.572194+01 | 1486235798.57219 | 4/871E86F8               |           19446793976

 2017-02-04 20:16:39.643198+01 | 1486235799.6432 | 4/87E288D0               |           19459639504

 2017-02-04 20:16:40.714713+01 | 1486235800.71471 | 4/88A8E4B0               |           19472639152

 2017-02-04 20:16:41.783565+01 | 1486235801.78357 | 4/896CA298               |           19485467288

 2017-02-04 20:16:42.854142+01 | 1486235802.85414 | 4/8A305488               |           19498292360

 2017-02-04 20:16:43.933557+01 | 1486235803.93356 | 4/8AFFFB40               |           19511900992

 2017-02-04 20:16:45.005549+01 | 1486235805.00555 | 4/8BC42E18               |           19524759064

 2017-02-04 20:16:46.081051+01 | 1486235806.08105 | 4/8CA4A540               |           19539469632

 2017-02-04 20:16:47.157424+01 | 1486235807.15742 | 4/8D88E8A8               |           19554429096

 2017-02-04 20:16:48.23229+01 | 1486235808.23229 | 4/8E50EE58               |           19567537752

 2017-02-04 20:16:49.307882+01 | 1486235809.30788 | 4/8F34D6D0               |           19582473936

 2017-02-04 20:16:50.378004+01 | 1486235810.378 | 4/90195E30               |           19597450800

 2017-02-04 20:16:51.453442+01 | 1486235811.45344 | 4/91041198               |           19612832152

 2017-02-04 20:16:52.530011+01 | 1486235812.53001 | 4/91ECB060               |           19628077152

 2017-02-04 20:16:53.604213+01 | 1486235813.60421 | 4/92CED838               |           19642898488

 2017-02-04 20:16:54.677481+01 | 1486235814.67748 | 4/93AF9EF0               |           19657629424

 2017-02-04 20:16:55.75096+01 | 1486235815.75096 | 4/94941C58               |           19672603736

 2017-02-04 20:16:56.825031+01 | 1486235816.82503 | 4/9573DFD8               |           19687268312

 2017-02-04 20:16:57.895325+01 | 1486235817.89532 | 4/9654D230               |           19702010416

 2017-02-04 20:16:58.96948+01 | 1486235818.96948 | 4/97350B08               |           19716705032

 2017-02-04 20:17:00.043399+01 | 1486235820.0434 | 4/98151950               |           19731388752

 2017-02-04 20:17:01.117337+01 | 1486235821.11734 | 4/98FFFC78               |           19746782328

 2017-02-04 20:17:02.189258+01 | 1486235822.18926 | 4/99D42F70               |           19760689008

 2017-02-04 20:17:03.258602+01 | 1486235823.2586 | 4/9AB9BCE0               |           19775732960

 2017-02-04 20:17:04.329723+01 | 1486235824.32972 | 4/9B9D4CB8               |           19790646456

 2017-02-04 20:17:05.403131+01 | 1486235825.40313 | 4/9C80A110               |           19805544720

 2017-02-04 20:17:06.473365+01 | 1486235826.47337 | 4/9D4FEC10               |           19819129872

 2017-02-04 20:17:07.559076+01 | 1486235827.55908 | 4/9E322E48               |           19833957960

 2017-02-04 20:17:08.629545+01 | 1486235828.62954 | 4/9F182950               |           19849029968

 2017-02-04 20:17:09.698899+01 | 1486235829.6989 | 4/9FFE8A88               |           19864128136

 2017-02-04 20:17:10.770044+01 | 1486235830.77004 | 4/A0E4CE58               |           19879218776

 2017-02-04 20:17:11.852672+01 | 1486235831.85267 | 4/A1CA2D50               |           19894250832

 2017-02-04 20:17:12.926516+01 | 1486235832.92652 | 4/A2AC0E80               |           19909054080

 2017-02-04 20:17:13.997887+01 | 1486235833.99789 | 4/A3957F28               |           19924352808

 2017-02-04 20:17:15.075213+01 | 1486235835.07521 | 4/A46D89E0               |           19938511328

 2017-02-04 20:17:16.145601+01 | 1486235836.1456 | 4/A554B030               |           19953659952

 2017-02-04 20:17:17.21812+01 | 1486235837.21812 | 4/A63C9900               |           19968858368

 2017-02-04 20:17:18.29108+01 | 1486235838.29108 | 4/A709EC20               |           19982314528

 2017-02-04 20:17:19.364934+01 | 1486235839.36493 | 4/A8064950               |           19998853456

 2017-02-04 20:17:20.436133+01 | 1486235840.43613 | 4/A91ADAA8               |           20016978600

 2017-02-04 20:17:21.512352+01 | 1486235841.51235 | 4/AA28F708               |           20034680584

 2017-02-04 20:17:22.585335+01 | 1486235842.58534 | 4/AB1D7BC8               |           20050705352

 2017-02-04 20:17:23.655051+01 | 1486235843.65505 | 4/ABFFF860               |           20065548384

 2017-02-04 20:17:24.729294+01 | 1486235844.72929 | 4/ACE1F360               |           20080358240

 2017-02-04 20:17:25.802539+01 | 1486235845.80254 | 4/ADC50328               |           20095238952

 2017-02-04 20:17:26.877053+01 | 1486235846.87705 | 4/AEAD1570               |           20110447984

 2017-02-04 20:17:27.944243+01 | 1486235847.94424 | 4/AF888DA0               |           20124831136

 2017-02-04 20:17:29.014954+01 | 1486235849.01495 | 4/B0676C58               |           20139437144

 2017-02-04 20:17:30.088393+01 | 1486235850.08839 | 4/B142E890               |           20153821328

 2017-02-04 20:17:31.15468+01 | 1486235851.15468 | 4/B21E40F0               |           20168196336

 2017-02-04 20:17:32.229084+01 | 1486235852.22908 | 4/B303D9F8               |           20183243256

 2017-02-04 20:17:33.306223+01 | 1486235853.30622 | 4/B3F260F0               |           20198875376

 2017-02-04 20:17:34.375281+01 | 1486235854.37528 | 4/B4D23218               |           20213543448

 2017-02-04 20:17:35.447897+01 | 1486235855.4479 | 4/B59E2750               |           20226910032

 2017-02-04 20:17:36.519743+01 | 1486235856.51974 | 4/B67D70D0               |           20241543376

 2017-02-04 20:17:37.595896+01 | 1486235857.5959 | 4/B75C91C8               |           20256166344

 2017-02-04 20:17:38.666316+01 | 1486235858.66632 | 4/B8386E68               |           20270575208

 2017-02-04 20:17:39.73938+01 | 1486235859.73938 | 4/B919EB90               |           20285352848

 2017-02-04 20:17:40.813159+01 | 1486235860.81316 | 4/BA002768               |           20300441448

 2017-02-04 20:17:41.896749+01 | 1486235861.89675 | 4/BAECDF20               |           20315954976

 2017-02-04 20:17:42.970449+01 | 1486235862.97045 | 4/BBCEB280               |           20330754688

 2017-02-04 20:17:44.04021+01 | 1486235864.04021 | 4/BCAEB230               |           20345434672

 2017-02-04 20:17:45.113924+01 | 1486235865.11392 | 4/BD911108               |           20360270088

 2017-02-04 20:17:46.183833+01 | 1486235866.18383 | 4/BE6A85D8               |           20374521304

 2017-02-04 20:17:47.259264+01 | 1486235867.25926 | 4/BF4B79E0               |           20389263840

 2017-02-04 20:17:48.330853+01 | 1486235868.33085 | 4/C02BBDC0               |           20403961280

 2017-02-04 20:17:49.401972+01 | 1486235869.40197 | 4/C112AAB0               |           20419095216

 2017-02-04 20:17:50.473565+01 | 1486235870.47357 | 4/C1FECA78               |           20434569848

 2017-02-04 20:17:51.545257+01 | 1486235871.54526 | 4/C2E565C0               |           20449682880

 2017-02-04 20:17:52.618103+01 | 1486235872.6181 | 4/C3B66F18               |           20463382296

 2017-02-04 20:17:53.691783+01 | 1486235873.69178 | 4/C49A39E0               |           20478310880

 2017-02-04 20:17:54.760666+01 | 1486235874.76067 | 4/C57BBCB8               |           20493089976

 2017-02-04 20:17:55.831741+01 | 1486235875.83174 | 4/C65568F8               |           20507355384

 2017-02-04 20:17:56.907419+01 | 1486235876.90742 | 4/C732F5A0               |           20521874848

 2017-02-04 20:17:57.985688+01 | 1486235877.98569 | 4/C80F8138               |           20536328504

 2017-02-04 20:17:59.062305+01 | 1486235879.0623 | 4/C8F85470               |           20551586928

 2017-02-04 20:18:00.129462+01 | 1486235880.12946 | 4/C9D5EEA8               |           20566109864

 2017-02-04 20:18:01.207655+01 | 1486235881.20765 | 4/CAB982B8               |           20581024440

 2017-02-04 20:18:02.279917+01 | 1486235882.27992 | 4/CB97D6F0               |           20595594992

 2017-02-04 20:18:03.355962+01 | 1486235883.35596 | 4/CC5F9C58               |           20608687192

 2017-02-04 20:18:04.430204+01 | 1486235884.4302 | 4/CD242E40               |           20621569600

 2017-02-04 20:18:05.4989+01 | 1486235885.4989 | 4/CDF76E00               |           20635414016

 2017-02-04 20:18:06.567718+01 | 1486235886.56772 | 4/CEDD78D0               |           20650490064

 2017-02-04 20:18:07.645586+01 | 1486235887.64559 | 4/CFC07E78               |           20665368184

 2017-02-04 20:18:08.716951+01 | 1486235888.71695 | 4/D0A26990               |           20680173968

 2017-02-04 20:18:09.785926+01 | 1486235889.78593 | 4/D17FA3B8               |           20694672312

 2017-02-04 20:18:10.86145+01 | 1486235890.86145 | 4/D2495AD8               |           20707891928

 2017-02-04 20:18:11.935077+01 | 1486235891.93508 | 4/D32DD338               |           20722864952

 2017-02-04 20:18:13.006494+01 | 1486235893.00649 | 4/D40B3AA8               |           20737374888

 2017-02-04 20:18:14.087156+01 | 1486235894.08716 | 4/D4F3F280               |           20752626304

 2017-02-04 20:18:15.158178+01 | 1486235895.15818 | 4/D5D3FB90               |           20767310176

 2017-02-04 20:18:16.22656+01 | 1486235896.22656 | 4/D6B4C788               |           20782040968

 2017-02-04 20:18:17.296435+01 | 1486235897.29644 | 4/D7939F40               |           20796645184

 2017-02-04 20:18:18.369645+01 | 1486235898.36965 | 4/D86832C0               |           20810576576

 2017-02-04 20:18:19.436463+01 | 1486235899.43646 | 4/D952E2D8               |           20825957080

 2017-02-04 20:18:20.509682+01 | 1486235900.50968 | 4/DA5C0970               |           20843334000

 2017-02-04 20:18:21.587669+01 | 1486235901.58767 | 4/DB774F20               |           20861898528

 2017-02-04 20:18:22.66595+01 | 1486235902.66595 | 4/DC9751B0               |           20880773552

 2017-02-04 20:18:23.741104+01 | 1486235903.7411 | 4/DDC65A60               |           20900633184

 2017-02-04 20:18:24.818652+01 | 1486235904.81865 | 4/DEEC0B38               |           20919880504

 2017-02-04 20:18:25.890449+01 | 1486235905.89045 | 4/DFC4D9D0               |           20934089168

 2017-02-04 20:18:26.958871+01 | 1486235906.95887 | 4/E0A85B50               |           20948998992

 2017-02-04 20:18:28.037902+01 | 1486235908.0379 | 4/E18D9088               |           20964020360

 2017-02-04 20:18:29.112086+01 | 1486235909.11209 | 4/E26CF2C0               |           20978660032

 2017-02-04 20:18:30.183154+01 | 1486235910.18315 | 4/E34BA738               |           20993255224

 2017-02-04 20:18:31.257973+01 | 1486235911.25797 | 4/E424EAA0               |           21007493792

 2017-02-04 20:18:32.333592+01 | 1486235912.33359 | 4/E505DB98               |           21022235544

 2017-02-04 20:18:33.413901+01 | 1486235913.4139 | 4/E5EF1DC0               |           21037522368

 2017-02-04 20:18:34.48542+01 | 1486235914.48542 | 4/E6C67FF8               |           21051637752

 2017-02-04 20:18:35.556487+01 | 1486235915.55649 | 4/E79E6EA8               |           21065789096

 2017-02-04 20:18:36.624872+01 | 1486235916.62487 | 4/E8619140               |           21078577472

 2017-02-04 20:18:37.697106+01 | 1486235917.69711 | 4/E926CCB8               |           21091503288

 2017-02-04 20:18:38.77206+01 | 1486235918.77206 | 4/E9FFE568               |           21105730920

