 2017-02-06 08:06:42.77942+01 | 1486364802.77942 | pgbench_branches_pkey |            40960
 2017-02-06 08:06:42.77942+01 | 1486364802.77942 | pgbench_tellers_pkey  |           245760
 2017-02-06 08:06:42.77942+01 | 1486364802.77942 | pgbench_accounts_pkey |       2246197248

 2017-02-06 08:06:43.907207+01 | 1486364803.90721 | pgbench_branches_pkey |            40960
 2017-02-06 08:06:43.907207+01 | 1486364803.90721 | pgbench_tellers_pkey  |           245760
 2017-02-06 08:06:43.907207+01 | 1486364803.90721 | pgbench_accounts_pkey |       2246197248

 2017-02-06 08:06:45.077059+01 | 1486364805.07706 | pgbench_branches_pkey |            40960
 2017-02-06 08:06:45.077059+01 | 1486364805.07706 | pgbench_tellers_pkey  |           245760
 2017-02-06 08:06:45.077059+01 | 1486364805.07706 | pgbench_accounts_pkey |       2246197248

 2017-02-06 08:06:46.231747+01 | 1486364806.23175 | pgbench_branches_pkey |            40960
 2017-02-06 08:06:46.231747+01 | 1486364806.23175 | pgbench_tellers_pkey  |           245760
 2017-02-06 08:06:46.231747+01 | 1486364806.23175 | pgbench_accounts_pkey |       2246197248

 2017-02-06 08:06:47.377572+01 | 1486364807.37757 | pgbench_branches_pkey |            40960
 2017-02-06 08:06:47.377572+01 | 1486364807.37757 | pgbench_tellers_pkey  |           245760
 2017-02-06 08:06:47.377572+01 | 1486364807.37757 | pgbench_accounts_pkey |       2246197248

 2017-02-06 08:06:48.542163+01 | 1486364808.54216 | pgbench_branches_pkey |            40960
 2017-02-06 08:06:48.542163+01 | 1486364808.54216 | pgbench_tellers_pkey  |           245760
 2017-02-06 08:06:48.542163+01 | 1486364808.54216 | pgbench_accounts_pkey |       2246197248

 2017-02-06 08:06:49.666945+01 | 1486364809.66694 | pgbench_branches_pkey |            40960
 2017-02-06 08:06:49.666945+01 | 1486364809.66694 | pgbench_tellers_pkey  |           245760
 2017-02-06 08:06:49.666945+01 | 1486364809.66694 | pgbench_accounts_pkey |       2246197248

 2017-02-06 08:06:50.832968+01 | 1486364810.83297 | pgbench_branches_pkey |            40960
 2017-02-06 08:06:50.832968+01 | 1486364810.83297 | pgbench_tellers_pkey  |           245760
 2017-02-06 08:06:50.832968+01 | 1486364810.83297 | pgbench_accounts_pkey |       2246197248

 2017-02-06 08:06:51.984362+01 | 1486364811.98436 | pgbench_branches_pkey |            40960
 2017-02-06 08:06:51.984362+01 | 1486364811.98436 | pgbench_tellers_pkey  |           245760
 2017-02-06 08:06:51.984362+01 | 1486364811.98436 | pgbench_accounts_pkey |       2246197248

 2017-02-06 08:06:53.111983+01 | 1486364813.11198 | pgbench_branches_pkey |            40960
 2017-02-06 08:06:53.111983+01 | 1486364813.11198 | pgbench_tellers_pkey  |           245760
 2017-02-06 08:06:53.111983+01 | 1486364813.11198 | pgbench_accounts_pkey |       2246197248

 2017-02-06 08:06:54.248717+01 | 1486364814.24872 | pgbench_branches_pkey |            40960
 2017-02-06 08:06:54.248717+01 | 1486364814.24872 | pgbench_tellers_pkey  |           245760
 2017-02-06 08:06:54.248717+01 | 1486364814.24872 | pgbench_accounts_pkey |       2246197248

 2017-02-06 08:06:55.388836+01 | 1486364815.38884 | pgbench_branches_pkey |            40960
 2017-02-06 08:06:55.388836+01 | 1486364815.38884 | pgbench_tellers_pkey  |           245760
 2017-02-06 08:06:55.388836+01 | 1486364815.38884 | pgbench_accounts_pkey |       2246197248

 2017-02-06 08:06:56.561795+01 | 1486364816.56179 | pgbench_branches_pkey |            40960
 2017-02-06 08:06:56.561795+01 | 1486364816.56179 | pgbench_tellers_pkey  |           245760
 2017-02-06 08:06:56.561795+01 | 1486364816.56179 | pgbench_accounts_pkey |       2246197248

 2017-02-06 08:06:57.714903+01 | 1486364817.7149 | pgbench_branches_pkey |            40960
 2017-02-06 08:06:57.714903+01 | 1486364817.7149 | pgbench_tellers_pkey  |           245760
 2017-02-06 08:06:57.714903+01 | 1486364817.7149 | pgbench_accounts_pkey |       2246197248

 2017-02-06 08:06:58.845093+01 | 1486364818.84509 | pgbench_branches_pkey |            40960
 2017-02-06 08:06:58.845093+01 | 1486364818.84509 | pgbench_tellers_pkey  |           245760
 2017-02-06 08:06:58.845093+01 | 1486364818.84509 | pgbench_accounts_pkey |       2246197248

 2017-02-06 08:07:00.01733+01 | 1486364820.01733 | pgbench_branches_pkey |            40960
 2017-02-06 08:07:00.01733+01 | 1486364820.01733 | pgbench_tellers_pkey  |           245760
 2017-02-06 08:07:00.01733+01 | 1486364820.01733 | pgbench_accounts_pkey |       2246197248

 2017-02-06 08:07:01.16377+01 | 1486364821.16377 | pgbench_branches_pkey |            40960
 2017-02-06 08:07:01.16377+01 | 1486364821.16377 | pgbench_tellers_pkey  |           245760
 2017-02-06 08:07:01.16377+01 | 1486364821.16377 | pgbench_accounts_pkey |       2246197248

 2017-02-06 08:07:02.292795+01 | 1486364822.29279 | pgbench_branches_pkey |            40960
 2017-02-06 08:07:02.292795+01 | 1486364822.29279 | pgbench_tellers_pkey  |           245760
 2017-02-06 08:07:02.292795+01 | 1486364822.29279 | pgbench_accounts_pkey |       2246197248

 2017-02-06 08:07:03.462592+01 | 1486364823.46259 | pgbench_branches_pkey |            40960
 2017-02-06 08:07:03.462592+01 | 1486364823.46259 | pgbench_tellers_pkey  |           245760
 2017-02-06 08:07:03.462592+01 | 1486364823.46259 | pgbench_accounts_pkey |       2246197248

 2017-02-06 08:07:04.593324+01 | 1486364824.59332 | pgbench_branches_pkey |            40960
 2017-02-06 08:07:04.593324+01 | 1486364824.59332 | pgbench_tellers_pkey  |           245760
 2017-02-06 08:07:04.593324+01 | 1486364824.59332 | pgbench_accounts_pkey |       2246197248

 2017-02-06 08:07:05.722948+01 | 1486364825.72295 | pgbench_branches_pkey |            40960
 2017-02-06 08:07:05.722948+01 | 1486364825.72295 | pgbench_tellers_pkey  |           245760
 2017-02-06 08:07:05.722948+01 | 1486364825.72295 | pgbench_accounts_pkey |       2246197248

 2017-02-06 08:07:06.880811+01 | 1486364826.88081 | pgbench_branches_pkey |            40960
 2017-02-06 08:07:06.880811+01 | 1486364826.88081 | pgbench_tellers_pkey  |           245760
 2017-02-06 08:07:06.880811+01 | 1486364826.88081 | pgbench_accounts_pkey |       2246197248

 2017-02-06 08:07:08.024755+01 | 1486364828.02476 | pgbench_branches_pkey |            40960
 2017-02-06 08:07:08.024755+01 | 1486364828.02476 | pgbench_tellers_pkey  |           245760
 2017-02-06 08:07:08.024755+01 | 1486364828.02476 | pgbench_accounts_pkey |       2246197248

 2017-02-06 08:07:09.174835+01 | 1486364829.17483 | pgbench_branches_pkey |            40960
 2017-02-06 08:07:09.174835+01 | 1486364829.17483 | pgbench_tellers_pkey  |           245760
 2017-02-06 08:07:09.174835+01 | 1486364829.17483 | pgbench_accounts_pkey |       2246197248

 2017-02-06 08:07:10.353478+01 | 1486364830.35348 | pgbench_branches_pkey |            40960
 2017-02-06 08:07:10.353478+01 | 1486364830.35348 | pgbench_tellers_pkey  |           245760
 2017-02-06 08:07:10.353478+01 | 1486364830.35348 | pgbench_accounts_pkey |       2246197248

 2017-02-06 08:07:11.483942+01 | 1486364831.48394 | pgbench_branches_pkey |            40960
 2017-02-06 08:07:11.483942+01 | 1486364831.48394 | pgbench_tellers_pkey  |           245760
 2017-02-06 08:07:11.483942+01 | 1486364831.48394 | pgbench_accounts_pkey |       2246197248

 2017-02-06 08:07:12.632529+01 | 1486364832.63253 | pgbench_branches_pkey |            40960
 2017-02-06 08:07:12.632529+01 | 1486364832.63253 | pgbench_tellers_pkey  |           245760
 2017-02-06 08:07:12.632529+01 | 1486364832.63253 | pgbench_accounts_pkey |       2246197248

 2017-02-06 08:07:13.777716+01 | 1486364833.77772 | pgbench_branches_pkey |            40960
 2017-02-06 08:07:13.777716+01 | 1486364833.77772 | pgbench_tellers_pkey  |           245760
 2017-02-06 08:07:13.777716+01 | 1486364833.77772 | pgbench_accounts_pkey |       2246197248

 2017-02-06 08:07:14.910913+01 | 1486364834.91091 | pgbench_branches_pkey |            40960
 2017-02-06 08:07:14.910913+01 | 1486364834.91091 | pgbench_tellers_pkey  |           245760
 2017-02-06 08:07:14.910913+01 | 1486364834.91091 | pgbench_accounts_pkey |       2246197248

 2017-02-06 08:07:16.073457+01 | 1486364836.07346 | pgbench_branches_pkey |            40960
 2017-02-06 08:07:16.073457+01 | 1486364836.07346 | pgbench_tellers_pkey  |           245760
 2017-02-06 08:07:16.073457+01 | 1486364836.07346 | pgbench_accounts_pkey |       2246197248

 2017-02-06 08:07:17.213008+01 | 1486364837.21301 | pgbench_branches_pkey |            40960
 2017-02-06 08:07:17.213008+01 | 1486364837.21301 | pgbench_tellers_pkey  |           245760
 2017-02-06 08:07:17.213008+01 | 1486364837.21301 | pgbench_accounts_pkey |       2246197248

 2017-02-06 08:07:18.361161+01 | 1486364838.36116 | pgbench_branches_pkey |            40960
 2017-02-06 08:07:18.361161+01 | 1486364838.36116 | pgbench_tellers_pkey  |           245760
 2017-02-06 08:07:18.361161+01 | 1486364838.36116 | pgbench_accounts_pkey |       2246197248

 2017-02-06 08:07:19.539289+01 | 1486364839.53929 | pgbench_branches_pkey |            40960
 2017-02-06 08:07:19.539289+01 | 1486364839.53929 | pgbench_tellers_pkey  |           245760
 2017-02-06 08:07:19.539289+01 | 1486364839.53929 | pgbench_accounts_pkey |       2246197248

 2017-02-06 08:07:20.685884+01 | 1486364840.68588 | pgbench_branches_pkey |            40960
 2017-02-06 08:07:20.685884+01 | 1486364840.68588 | pgbench_tellers_pkey  |           245760
 2017-02-06 08:07:20.685884+01 | 1486364840.68588 | pgbench_accounts_pkey |       2246197248

 2017-02-06 08:07:21.821143+01 | 1486364841.82114 | pgbench_branches_pkey |            40960
 2017-02-06 08:07:21.821143+01 | 1486364841.82114 | pgbench_tellers_pkey  |           245760
 2017-02-06 08:07:21.821143+01 | 1486364841.82114 | pgbench_accounts_pkey |       2246197248

 2017-02-06 08:07:22.960431+01 | 1486364842.96043 | pgbench_branches_pkey |            40960
 2017-02-06 08:07:22.960431+01 | 1486364842.96043 | pgbench_tellers_pkey  |           245760
 2017-02-06 08:07:22.960431+01 | 1486364842.96043 | pgbench_accounts_pkey |       2246197248

 2017-02-06 08:07:24.122722+01 | 1486364844.12272 | pgbench_branches_pkey |            40960
 2017-02-06 08:07:24.122722+01 | 1486364844.12272 | pgbench_tellers_pkey  |           245760
 2017-02-06 08:07:24.122722+01 | 1486364844.12272 | pgbench_accounts_pkey |       2246197248

 2017-02-06 08:07:25.296704+01 | 1486364845.2967 | pgbench_branches_pkey |            40960
 2017-02-06 08:07:25.296704+01 | 1486364845.2967 | pgbench_tellers_pkey  |           245760
 2017-02-06 08:07:25.296704+01 | 1486364845.2967 | pgbench_accounts_pkey |       2246197248

 2017-02-06 08:07:26.466681+01 | 1486364846.46668 | pgbench_branches_pkey |            40960
 2017-02-06 08:07:26.466681+01 | 1486364846.46668 | pgbench_tellers_pkey  |           245760
 2017-02-06 08:07:26.466681+01 | 1486364846.46668 | pgbench_accounts_pkey |       2246197248

 2017-02-06 08:07:27.634587+01 | 1486364847.63459 | pgbench_branches_pkey |            40960
 2017-02-06 08:07:27.634587+01 | 1486364847.63459 | pgbench_tellers_pkey  |           245760
 2017-02-06 08:07:27.634587+01 | 1486364847.63459 | pgbench_accounts_pkey |       2246197248

 2017-02-06 08:07:28.772066+01 | 1486364848.77207 | pgbench_branches_pkey |            40960
 2017-02-06 08:07:28.772066+01 | 1486364848.77207 | pgbench_tellers_pkey  |           245760
 2017-02-06 08:07:28.772066+01 | 1486364848.77207 | pgbench_accounts_pkey |       2246197248

 2017-02-06 08:07:29.935504+01 | 1486364849.9355 | pgbench_branches_pkey |            40960
 2017-02-06 08:07:29.935504+01 | 1486364849.9355 | pgbench_tellers_pkey  |           245760
 2017-02-06 08:07:29.935504+01 | 1486364849.9355 | pgbench_accounts_pkey |       2246197248

 2017-02-06 08:07:31.083166+01 | 1486364851.08317 | pgbench_branches_pkey |            40960
 2017-02-06 08:07:31.083166+01 | 1486364851.08317 | pgbench_tellers_pkey  |           245760
 2017-02-06 08:07:31.083166+01 | 1486364851.08317 | pgbench_accounts_pkey |       2246197248

 2017-02-06 08:07:32.229926+01 | 1486364852.22993 | pgbench_branches_pkey |            40960
 2017-02-06 08:07:32.229926+01 | 1486364852.22993 | pgbench_tellers_pkey  |           245760
 2017-02-06 08:07:32.229926+01 | 1486364852.22993 | pgbench_accounts_pkey |       2246197248

 2017-02-06 08:07:33.432755+01 | 1486364853.43275 | pgbench_branches_pkey |            40960
 2017-02-06 08:07:33.432755+01 | 1486364853.43275 | pgbench_tellers_pkey  |           245760
 2017-02-06 08:07:33.432755+01 | 1486364853.43275 | pgbench_accounts_pkey |       2246197248

 2017-02-06 08:07:34.571487+01 | 1486364854.57149 | pgbench_branches_pkey |            40960
 2017-02-06 08:07:34.571487+01 | 1486364854.57149 | pgbench_tellers_pkey  |           245760
 2017-02-06 08:07:34.571487+01 | 1486364854.57149 | pgbench_accounts_pkey |       2246197248

 2017-02-06 08:07:35.731041+01 | 1486364855.73104 | pgbench_branches_pkey |            40960
 2017-02-06 08:07:35.731041+01 | 1486364855.73104 | pgbench_tellers_pkey  |           245760
 2017-02-06 08:07:35.731041+01 | 1486364855.73104 | pgbench_accounts_pkey |       2246197248

 2017-02-06 08:07:36.855962+01 | 1486364856.85596 | pgbench_branches_pkey |            40960
 2017-02-06 08:07:36.855962+01 | 1486364856.85596 | pgbench_tellers_pkey  |           245760
 2017-02-06 08:07:36.855962+01 | 1486364856.85596 | pgbench_accounts_pkey |       2246197248

 2017-02-06 08:07:37.992311+01 | 1486364857.99231 | pgbench_branches_pkey |            40960
 2017-02-06 08:07:37.992311+01 | 1486364857.99231 | pgbench_tellers_pkey  |           245760
 2017-02-06 08:07:37.992311+01 | 1486364857.99231 | pgbench_accounts_pkey |       2246197248

 2017-02-06 08:07:39.145721+01 | 1486364859.14572 | pgbench_branches_pkey |            40960
 2017-02-06 08:07:39.145721+01 | 1486364859.14572 | pgbench_tellers_pkey  |           245760
 2017-02-06 08:07:39.145721+01 | 1486364859.14572 | pgbench_accounts_pkey |       2246197248

 2017-02-06 08:07:40.300527+01 | 1486364860.30053 | pgbench_branches_pkey |            40960
 2017-02-06 08:07:40.300527+01 | 1486364860.30053 | pgbench_tellers_pkey  |           245760
 2017-02-06 08:07:40.300527+01 | 1486364860.30053 | pgbench_accounts_pkey |       2246197248

 2017-02-06 08:07:41.471112+01 | 1486364861.47111 | pgbench_branches_pkey |            40960
 2017-02-06 08:07:41.471112+01 | 1486364861.47111 | pgbench_tellers_pkey  |           245760
 2017-02-06 08:07:41.471112+01 | 1486364861.47111 | pgbench_accounts_pkey |       2246197248

 2017-02-06 08:07:42.616093+01 | 1486364862.61609 | pgbench_branches_pkey |            40960
 2017-02-06 08:07:42.616093+01 | 1486364862.61609 | pgbench_tellers_pkey  |           245760
 2017-02-06 08:07:42.616093+01 | 1486364862.61609 | pgbench_accounts_pkey |       2246197248

 2017-02-06 08:07:43.77808+01 | 1486364863.77808 | pgbench_branches_pkey |            40960
 2017-02-06 08:07:43.77808+01 | 1486364863.77808 | pgbench_tellers_pkey  |           245760
 2017-02-06 08:07:43.77808+01 | 1486364863.77808 | pgbench_accounts_pkey |       2246197248

 2017-02-06 08:07:44.887333+01 | 1486364864.88733 | pgbench_branches_pkey |            40960
 2017-02-06 08:07:44.887333+01 | 1486364864.88733 | pgbench_tellers_pkey  |           245760
 2017-02-06 08:07:44.887333+01 | 1486364864.88733 | pgbench_accounts_pkey |       2246197248

 2017-02-06 08:07:46.017539+01 | 1486364866.01754 | pgbench_branches_pkey |            40960
 2017-02-06 08:07:46.017539+01 | 1486364866.01754 | pgbench_tellers_pkey  |           245760
 2017-02-06 08:07:46.017539+01 | 1486364866.01754 | pgbench_accounts_pkey |       2246197248

 2017-02-06 08:07:47.16902+01 | 1486364867.16902 | pgbench_branches_pkey |            40960
 2017-02-06 08:07:47.16902+01 | 1486364867.16902 | pgbench_tellers_pkey  |           245760
 2017-02-06 08:07:47.16902+01 | 1486364867.16902 | pgbench_accounts_pkey |       2246197248

 2017-02-06 08:07:48.289491+01 | 1486364868.28949 | pgbench_branches_pkey |            40960
 2017-02-06 08:07:48.289491+01 | 1486364868.28949 | pgbench_tellers_pkey  |           245760
 2017-02-06 08:07:48.289491+01 | 1486364868.28949 | pgbench_accounts_pkey |       2246197248

 2017-02-06 08:07:49.415357+01 | 1486364869.41536 | pgbench_branches_pkey |            40960
 2017-02-06 08:07:49.415357+01 | 1486364869.41536 | pgbench_tellers_pkey  |           245760
 2017-02-06 08:07:49.415357+01 | 1486364869.41536 | pgbench_accounts_pkey |       2246197248

 2017-02-06 08:07:50.566421+01 | 1486364870.56642 | pgbench_branches_pkey |            40960
 2017-02-06 08:07:50.566421+01 | 1486364870.56642 | pgbench_tellers_pkey  |           245760
 2017-02-06 08:07:50.566421+01 | 1486364870.56642 | pgbench_accounts_pkey |       2246197248

 2017-02-06 08:07:51.68848+01 | 1486364871.68848 | pgbench_branches_pkey |            40960
 2017-02-06 08:07:51.68848+01 | 1486364871.68848 | pgbench_tellers_pkey  |           245760
 2017-02-06 08:07:51.68848+01 | 1486364871.68848 | pgbench_accounts_pkey |       2246197248

 2017-02-06 08:07:52.820037+01 | 1486364872.82004 | pgbench_branches_pkey |            40960
 2017-02-06 08:07:52.820037+01 | 1486364872.82004 | pgbench_tellers_pkey  |           245760
 2017-02-06 08:07:52.820037+01 | 1486364872.82004 | pgbench_accounts_pkey |       2246197248

 2017-02-06 08:07:53.967198+01 | 1486364873.9672 | pgbench_branches_pkey |            40960
 2017-02-06 08:07:53.967198+01 | 1486364873.9672 | pgbench_tellers_pkey  |           245760
 2017-02-06 08:07:53.967198+01 | 1486364873.9672 | pgbench_accounts_pkey |       2246197248

 2017-02-06 08:07:55.140065+01 | 1486364875.14006 | pgbench_branches_pkey |            40960
 2017-02-06 08:07:55.140065+01 | 1486364875.14006 | pgbench_tellers_pkey  |           245760
 2017-02-06 08:07:55.140065+01 | 1486364875.14006 | pgbench_accounts_pkey |       2246197248

 2017-02-06 08:07:56.276155+01 | 1486364876.27615 | pgbench_branches_pkey |            40960
 2017-02-06 08:07:56.276155+01 | 1486364876.27615 | pgbench_tellers_pkey  |           245760
 2017-02-06 08:07:56.276155+01 | 1486364876.27615 | pgbench_accounts_pkey |       2246197248

 2017-02-06 08:07:57.44174+01 | 1486364877.44174 | pgbench_branches_pkey |            40960
 2017-02-06 08:07:57.44174+01 | 1486364877.44174 | pgbench_tellers_pkey  |           245760
 2017-02-06 08:07:57.44174+01 | 1486364877.44174 | pgbench_accounts_pkey |       2246197248

 2017-02-06 08:07:58.591548+01 | 1486364878.59155 | pgbench_branches_pkey |            40960
 2017-02-06 08:07:58.591548+01 | 1486364878.59155 | pgbench_tellers_pkey  |           245760
 2017-02-06 08:07:58.591548+01 | 1486364878.59155 | pgbench_accounts_pkey |       2246197248

 2017-02-06 08:07:59.728264+01 | 1486364879.72826 | pgbench_branches_pkey |            40960
 2017-02-06 08:07:59.728264+01 | 1486364879.72826 | pgbench_tellers_pkey  |           245760
 2017-02-06 08:07:59.728264+01 | 1486364879.72826 | pgbench_accounts_pkey |       2246197248

 2017-02-06 08:08:00.862404+01 | 1486364880.8624 | pgbench_branches_pkey |            40960
 2017-02-06 08:08:00.862404+01 | 1486364880.8624 | pgbench_tellers_pkey  |           245760
 2017-02-06 08:08:00.862404+01 | 1486364880.8624 | pgbench_accounts_pkey |       2246197248

 2017-02-06 08:08:02.022906+01 | 1486364882.02291 | pgbench_branches_pkey |            40960
 2017-02-06 08:08:02.022906+01 | 1486364882.02291 | pgbench_tellers_pkey  |           245760
 2017-02-06 08:08:02.022906+01 | 1486364882.02291 | pgbench_accounts_pkey |       2246197248

 2017-02-06 08:08:03.156644+01 | 1486364883.15664 | pgbench_branches_pkey |            40960
 2017-02-06 08:08:03.156644+01 | 1486364883.15664 | pgbench_tellers_pkey  |           245760
 2017-02-06 08:08:03.156644+01 | 1486364883.15664 | pgbench_accounts_pkey |       2246197248

 2017-02-06 08:08:04.281174+01 | 1486364884.28117 | pgbench_branches_pkey |            40960
 2017-02-06 08:08:04.281174+01 | 1486364884.28117 | pgbench_tellers_pkey  |           245760
 2017-02-06 08:08:04.281174+01 | 1486364884.28117 | pgbench_accounts_pkey |       2246197248

 2017-02-06 08:08:05.418105+01 | 1486364885.4181 | pgbench_branches_pkey |            40960
 2017-02-06 08:08:05.418105+01 | 1486364885.4181 | pgbench_tellers_pkey  |           245760
 2017-02-06 08:08:05.418105+01 | 1486364885.4181 | pgbench_accounts_pkey |       2246197248

 2017-02-06 08:08:06.554661+01 | 1486364886.55466 | pgbench_branches_pkey |            40960
 2017-02-06 08:08:06.554661+01 | 1486364886.55466 | pgbench_tellers_pkey  |           245760
 2017-02-06 08:08:06.554661+01 | 1486364886.55466 | pgbench_accounts_pkey |       2246197248

 2017-02-06 08:08:07.733015+01 | 1486364887.73302 | pgbench_branches_pkey |            40960
 2017-02-06 08:08:07.733015+01 | 1486364887.73302 | pgbench_tellers_pkey  |           245760
 2017-02-06 08:08:07.733015+01 | 1486364887.73302 | pgbench_accounts_pkey |       2246197248

 2017-02-06 08:08:08.872491+01 | 1486364888.87249 | pgbench_branches_pkey |            40960
 2017-02-06 08:08:08.872491+01 | 1486364888.87249 | pgbench_tellers_pkey  |           245760
 2017-02-06 08:08:08.872491+01 | 1486364888.87249 | pgbench_accounts_pkey |       2246197248

 2017-02-06 08:08:09.988513+01 | 1486364889.98851 | pgbench_branches_pkey |            40960
 2017-02-06 08:08:09.988513+01 | 1486364889.98851 | pgbench_tellers_pkey  |           245760
 2017-02-06 08:08:09.988513+01 | 1486364889.98851 | pgbench_accounts_pkey |       2246197248

 2017-02-06 08:08:11.137578+01 | 1486364891.13758 | pgbench_branches_pkey |            40960
 2017-02-06 08:08:11.137578+01 | 1486364891.13758 | pgbench_tellers_pkey  |           245760
 2017-02-06 08:08:11.137578+01 | 1486364891.13758 | pgbench_accounts_pkey |       2246197248

 2017-02-06 08:08:12.277157+01 | 1486364892.27716 | pgbench_branches_pkey |            40960
 2017-02-06 08:08:12.277157+01 | 1486364892.27716 | pgbench_tellers_pkey  |           245760
 2017-02-06 08:08:12.277157+01 | 1486364892.27716 | pgbench_accounts_pkey |       2246197248

 2017-02-06 08:08:13.424107+01 | 1486364893.42411 | pgbench_branches_pkey |            40960
 2017-02-06 08:08:13.424107+01 | 1486364893.42411 | pgbench_tellers_pkey  |           245760
 2017-02-06 08:08:13.424107+01 | 1486364893.42411 | pgbench_accounts_pkey |       2246197248

 2017-02-06 08:08:14.567549+01 | 1486364894.56755 | pgbench_branches_pkey |            40960
 2017-02-06 08:08:14.567549+01 | 1486364894.56755 | pgbench_tellers_pkey  |           245760
 2017-02-06 08:08:14.567549+01 | 1486364894.56755 | pgbench_accounts_pkey |       2246197248

 2017-02-06 08:08:15.691363+01 | 1486364895.69136 | pgbench_branches_pkey |            40960
 2017-02-06 08:08:15.691363+01 | 1486364895.69136 | pgbench_tellers_pkey  |           245760
 2017-02-06 08:08:15.691363+01 | 1486364895.69136 | pgbench_accounts_pkey |       2246197248

 2017-02-06 08:08:16.843447+01 | 1486364896.84345 | pgbench_branches_pkey |            40960
 2017-02-06 08:08:16.843447+01 | 1486364896.84345 | pgbench_tellers_pkey  |           245760
 2017-02-06 08:08:16.843447+01 | 1486364896.84345 | pgbench_accounts_pkey |       2246197248

 2017-02-06 08:08:17.978396+01 | 1486364897.9784 | pgbench_branches_pkey |            40960
 2017-02-06 08:08:17.978396+01 | 1486364897.9784 | pgbench_tellers_pkey  |           245760
 2017-02-06 08:08:17.978396+01 | 1486364897.9784 | pgbench_accounts_pkey |       2246197248

 2017-02-06 08:08:19.128738+01 | 1486364899.12874 | pgbench_branches_pkey |            40960
 2017-02-06 08:08:19.128738+01 | 1486364899.12874 | pgbench_tellers_pkey  |           245760
 2017-02-06 08:08:19.128738+01 | 1486364899.12874 | pgbench_accounts_pkey |       2246197248

 2017-02-06 08:08:20.299246+01 | 1486364900.29925 | pgbench_branches_pkey |            40960
 2017-02-06 08:08:20.299246+01 | 1486364900.29925 | pgbench_tellers_pkey  |           245760
 2017-02-06 08:08:20.299246+01 | 1486364900.29925 | pgbench_accounts_pkey |       2246197248

 2017-02-06 08:08:21.45112+01 | 1486364901.45112 | pgbench_branches_pkey |            40960
 2017-02-06 08:08:21.45112+01 | 1486364901.45112 | pgbench_tellers_pkey  |           245760
 2017-02-06 08:08:21.45112+01 | 1486364901.45112 | pgbench_accounts_pkey |       2246197248

 2017-02-06 08:08:22.589641+01 | 1486364902.58964 | pgbench_branches_pkey |            40960
 2017-02-06 08:08:22.589641+01 | 1486364902.58964 | pgbench_tellers_pkey  |           245760
 2017-02-06 08:08:22.589641+01 | 1486364902.58964 | pgbench_accounts_pkey |       2246197248

 2017-02-06 08:08:23.717213+01 | 1486364903.71721 | pgbench_branches_pkey |            40960
 2017-02-06 08:08:23.717213+01 | 1486364903.71721 | pgbench_tellers_pkey  |           245760
 2017-02-06 08:08:23.717213+01 | 1486364903.71721 | pgbench_accounts_pkey |       2246197248

 2017-02-06 08:08:24.871031+01 | 1486364904.87103 | pgbench_branches_pkey |            40960
 2017-02-06 08:08:24.871031+01 | 1486364904.87103 | pgbench_tellers_pkey  |           245760
 2017-02-06 08:08:24.871031+01 | 1486364904.87103 | pgbench_accounts_pkey |       2246197248

 2017-02-06 08:08:25.998586+01 | 1486364905.99859 | pgbench_branches_pkey |            40960
 2017-02-06 08:08:25.998586+01 | 1486364905.99859 | pgbench_tellers_pkey  |           245760
 2017-02-06 08:08:25.998586+01 | 1486364905.99859 | pgbench_accounts_pkey |       2246197248

 2017-02-06 08:08:27.15515+01 | 1486364907.15515 | pgbench_branches_pkey |            40960
 2017-02-06 08:08:27.15515+01 | 1486364907.15515 | pgbench_tellers_pkey  |           245760
 2017-02-06 08:08:27.15515+01 | 1486364907.15515 | pgbench_accounts_pkey |       2246197248

 2017-02-06 08:08:28.296399+01 | 1486364908.2964 | pgbench_branches_pkey |            40960
 2017-02-06 08:08:28.296399+01 | 1486364908.2964 | pgbench_tellers_pkey  |           245760
 2017-02-06 08:08:28.296399+01 | 1486364908.2964 | pgbench_accounts_pkey |       2246197248

 2017-02-06 08:08:29.450507+01 | 1486364909.45051 | pgbench_branches_pkey |            40960
 2017-02-06 08:08:29.450507+01 | 1486364909.45051 | pgbench_tellers_pkey  |           245760
 2017-02-06 08:08:29.450507+01 | 1486364909.45051 | pgbench_accounts_pkey |       2246197248

 2017-02-06 08:08:30.59186+01 | 1486364910.59186 | pgbench_branches_pkey |            40960
 2017-02-06 08:08:30.59186+01 | 1486364910.59186 | pgbench_tellers_pkey  |           245760
 2017-02-06 08:08:30.59186+01 | 1486364910.59186 | pgbench_accounts_pkey |       2246197248

 2017-02-06 08:08:31.714557+01 | 1486364911.71456 | pgbench_branches_pkey |            40960
 2017-02-06 08:08:31.714557+01 | 1486364911.71456 | pgbench_tellers_pkey  |           245760
 2017-02-06 08:08:31.714557+01 | 1486364911.71456 | pgbench_accounts_pkey |       2246197248

 2017-02-06 08:08:32.884697+01 | 1486364912.8847 | pgbench_branches_pkey |            40960
 2017-02-06 08:08:32.884697+01 | 1486364912.8847 | pgbench_tellers_pkey  |           245760
 2017-02-06 08:08:32.884697+01 | 1486364912.8847 | pgbench_accounts_pkey |       2246197248

 2017-02-06 08:08:34.042182+01 | 1486364914.04218 | pgbench_branches_pkey |            40960
 2017-02-06 08:08:34.042182+01 | 1486364914.04218 | pgbench_tellers_pkey  |           245760
 2017-02-06 08:08:34.042182+01 | 1486364914.04218 | pgbench_accounts_pkey |       2246197248

 2017-02-06 08:08:35.165276+01 | 1486364915.16528 | pgbench_branches_pkey |            40960
 2017-02-06 08:08:35.165276+01 | 1486364915.16528 | pgbench_tellers_pkey  |           245760
 2017-02-06 08:08:35.165276+01 | 1486364915.16528 | pgbench_accounts_pkey |       2246197248

 2017-02-06 08:08:36.319811+01 | 1486364916.31981 | pgbench_branches_pkey |            40960
 2017-02-06 08:08:36.319811+01 | 1486364916.31981 | pgbench_tellers_pkey  |           245760
 2017-02-06 08:08:36.319811+01 | 1486364916.31981 | pgbench_accounts_pkey |       2246197248

 2017-02-06 08:08:37.448746+01 | 1486364917.44875 | pgbench_branches_pkey |            40960
 2017-02-06 08:08:37.448746+01 | 1486364917.44875 | pgbench_tellers_pkey  |           245760
 2017-02-06 08:08:37.448746+01 | 1486364917.44875 | pgbench_accounts_pkey |       2246197248

 2017-02-06 08:08:38.612961+01 | 1486364918.61296 | pgbench_branches_pkey |            40960
 2017-02-06 08:08:38.612961+01 | 1486364918.61296 | pgbench_tellers_pkey  |           245760
 2017-02-06 08:08:38.612961+01 | 1486364918.61296 | pgbench_accounts_pkey |       2246197248

 2017-02-06 08:08:39.767989+01 | 1486364919.76799 | pgbench_branches_pkey |            40960
 2017-02-06 08:08:39.767989+01 | 1486364919.76799 | pgbench_tellers_pkey  |           245760
 2017-02-06 08:08:39.767989+01 | 1486364919.76799 | pgbench_accounts_pkey |       2246197248

 2017-02-06 08:08:40.900944+01 | 1486364920.90094 | pgbench_branches_pkey |            40960
 2017-02-06 08:08:40.900944+01 | 1486364920.90094 | pgbench_tellers_pkey  |           245760
 2017-02-06 08:08:40.900944+01 | 1486364920.90094 | pgbench_accounts_pkey |       2246197248

 2017-02-06 08:08:42.050905+01 | 1486364922.0509 | pgbench_branches_pkey |            40960
 2017-02-06 08:08:42.050905+01 | 1486364922.0509 | pgbench_tellers_pkey  |           245760
 2017-02-06 08:08:42.050905+01 | 1486364922.0509 | pgbench_accounts_pkey |       2246197248

 2017-02-06 08:08:43.190851+01 | 1486364923.19085 | pgbench_branches_pkey |            40960
 2017-02-06 08:08:43.190851+01 | 1486364923.19085 | pgbench_tellers_pkey  |           245760
 2017-02-06 08:08:43.190851+01 | 1486364923.19085 | pgbench_accounts_pkey |       2246197248

 2017-02-06 08:08:44.311963+01 | 1486364924.31196 | pgbench_branches_pkey |            40960
 2017-02-06 08:08:44.311963+01 | 1486364924.31196 | pgbench_tellers_pkey  |           245760
 2017-02-06 08:08:44.311963+01 | 1486364924.31196 | pgbench_accounts_pkey |       2246197248

 2017-02-06 08:08:45.46814+01 | 1486364925.46814 | pgbench_branches_pkey |            40960
 2017-02-06 08:08:45.46814+01 | 1486364925.46814 | pgbench_tellers_pkey  |           245760
 2017-02-06 08:08:45.46814+01 | 1486364925.46814 | pgbench_accounts_pkey |       2246197248

 2017-02-06 08:08:46.605658+01 | 1486364926.60566 | pgbench_branches_pkey |            40960
 2017-02-06 08:08:46.605658+01 | 1486364926.60566 | pgbench_tellers_pkey  |           245760
 2017-02-06 08:08:46.605658+01 | 1486364926.60566 | pgbench_accounts_pkey |       2246197248

 2017-02-06 08:08:47.748077+01 | 1486364927.74808 | pgbench_branches_pkey |            40960
 2017-02-06 08:08:47.748077+01 | 1486364927.74808 | pgbench_tellers_pkey  |           245760
 2017-02-06 08:08:47.748077+01 | 1486364927.74808 | pgbench_accounts_pkey |       2246197248

 2017-02-06 08:08:48.904243+01 | 1486364928.90424 | pgbench_branches_pkey |            40960
 2017-02-06 08:08:48.904243+01 | 1486364928.90424 | pgbench_tellers_pkey  |           245760
 2017-02-06 08:08:48.904243+01 | 1486364928.90424 | pgbench_accounts_pkey |       2246197248

 2017-02-06 08:08:50.052864+01 | 1486364930.05286 | pgbench_branches_pkey |            40960
 2017-02-06 08:08:50.052864+01 | 1486364930.05286 | pgbench_tellers_pkey  |           245760
 2017-02-06 08:08:50.052864+01 | 1486364930.05286 | pgbench_accounts_pkey |       2246197248

 2017-02-06 08:08:51.20692+01 | 1486364931.20692 | pgbench_branches_pkey |            40960
 2017-02-06 08:08:51.20692+01 | 1486364931.20692 | pgbench_tellers_pkey  |           245760
 2017-02-06 08:08:51.20692+01 | 1486364931.20692 | pgbench_accounts_pkey |       2246197248

 2017-02-06 08:08:52.359391+01 | 1486364932.35939 | pgbench_branches_pkey |            40960
 2017-02-06 08:08:52.359391+01 | 1486364932.35939 | pgbench_tellers_pkey  |           245760
 2017-02-06 08:08:52.359391+01 | 1486364932.35939 | pgbench_accounts_pkey |       2246197248

 2017-02-06 08:08:53.51299+01 | 1486364933.51299 | pgbench_branches_pkey |            40960
 2017-02-06 08:08:53.51299+01 | 1486364933.51299 | pgbench_tellers_pkey  |           245760
 2017-02-06 08:08:53.51299+01 | 1486364933.51299 | pgbench_accounts_pkey |       2246197248

 2017-02-06 08:08:54.643085+01 | 1486364934.64309 | pgbench_branches_pkey |            40960
 2017-02-06 08:08:54.643085+01 | 1486364934.64309 | pgbench_tellers_pkey  |           245760
 2017-02-06 08:08:54.643085+01 | 1486364934.64309 | pgbench_accounts_pkey |       2246197248

 2017-02-06 08:08:55.79476+01 | 1486364935.79476 | pgbench_branches_pkey |            40960
 2017-02-06 08:08:55.79476+01 | 1486364935.79476 | pgbench_tellers_pkey  |           245760
 2017-02-06 08:08:55.79476+01 | 1486364935.79476 | pgbench_accounts_pkey |       2246197248

 2017-02-06 08:08:56.925625+01 | 1486364936.92563 | pgbench_branches_pkey |            40960
 2017-02-06 08:08:56.925625+01 | 1486364936.92563 | pgbench_tellers_pkey  |           245760
 2017-02-06 08:08:56.925625+01 | 1486364936.92563 | pgbench_accounts_pkey |       2246197248

 2017-02-06 08:08:58.098486+01 | 1486364938.09849 | pgbench_branches_pkey |            40960
 2017-02-06 08:08:58.098486+01 | 1486364938.09849 | pgbench_tellers_pkey  |           245760
 2017-02-06 08:08:58.098486+01 | 1486364938.09849 | pgbench_accounts_pkey |       2246197248

 2017-02-06 08:08:59.248096+01 | 1486364939.2481 | pgbench_branches_pkey |            40960
 2017-02-06 08:08:59.248096+01 | 1486364939.2481 | pgbench_tellers_pkey  |           245760
 2017-02-06 08:08:59.248096+01 | 1486364939.2481 | pgbench_accounts_pkey |       2246197248

 2017-02-06 08:09:00.406129+01 | 1486364940.40613 | pgbench_branches_pkey |            40960
 2017-02-06 08:09:00.406129+01 | 1486364940.40613 | pgbench_tellers_pkey  |           245760
 2017-02-06 08:09:00.406129+01 | 1486364940.40613 | pgbench_accounts_pkey |       2246197248

 2017-02-06 08:09:01.555495+01 | 1486364941.5555 | pgbench_branches_pkey |            40960
 2017-02-06 08:09:01.555495+01 | 1486364941.5555 | pgbench_tellers_pkey  |           245760
 2017-02-06 08:09:01.555495+01 | 1486364941.5555 | pgbench_accounts_pkey |       2246197248

 2017-02-06 08:09:02.719261+01 | 1486364942.71926 | pgbench_branches_pkey |            40960
 2017-02-06 08:09:02.719261+01 | 1486364942.71926 | pgbench_tellers_pkey  |           245760
 2017-02-06 08:09:02.719261+01 | 1486364942.71926 | pgbench_accounts_pkey |       2246197248

 2017-02-06 08:09:03.868788+01 | 1486364943.86879 | pgbench_branches_pkey |            40960
 2017-02-06 08:09:03.868788+01 | 1486364943.86879 | pgbench_tellers_pkey  |           245760
 2017-02-06 08:09:03.868788+01 | 1486364943.86879 | pgbench_accounts_pkey |       2246197248

 2017-02-06 08:09:05.012996+01 | 1486364945.013 | pgbench_branches_pkey |            40960
 2017-02-06 08:09:05.012996+01 | 1486364945.013 | pgbench_tellers_pkey  |           245760
 2017-02-06 08:09:05.012996+01 | 1486364945.013 | pgbench_accounts_pkey |       2246197248

 2017-02-06 08:09:06.16185+01 | 1486364946.16185 | pgbench_branches_pkey |            40960
 2017-02-06 08:09:06.16185+01 | 1486364946.16185 | pgbench_tellers_pkey  |           245760
 2017-02-06 08:09:06.16185+01 | 1486364946.16185 | pgbench_accounts_pkey |       2246197248

 2017-02-06 08:09:07.294869+01 | 1486364947.29487 | pgbench_branches_pkey |            40960
 2017-02-06 08:09:07.294869+01 | 1486364947.29487 | pgbench_tellers_pkey  |           245760
 2017-02-06 08:09:07.294869+01 | 1486364947.29487 | pgbench_accounts_pkey |       2246197248

 2017-02-06 08:09:08.493926+01 | 1486364948.49393 | pgbench_branches_pkey |            40960
 2017-02-06 08:09:08.493926+01 | 1486364948.49393 | pgbench_tellers_pkey  |           245760
 2017-02-06 08:09:08.493926+01 | 1486364948.49393 | pgbench_accounts_pkey |       2246197248

 2017-02-06 08:09:09.618666+01 | 1486364949.61867 | pgbench_branches_pkey |            40960
 2017-02-06 08:09:09.618666+01 | 1486364949.61867 | pgbench_tellers_pkey  |           245760
 2017-02-06 08:09:09.618666+01 | 1486364949.61867 | pgbench_accounts_pkey |       2246197248

 2017-02-06 08:09:10.783549+01 | 1486364950.78355 | pgbench_branches_pkey |            40960
 2017-02-06 08:09:10.783549+01 | 1486364950.78355 | pgbench_tellers_pkey  |           245760
 2017-02-06 08:09:10.783549+01 | 1486364950.78355 | pgbench_accounts_pkey |       2246197248

 2017-02-06 08:09:11.921821+01 | 1486364951.92182 | pgbench_branches_pkey |            40960
 2017-02-06 08:09:11.921821+01 | 1486364951.92182 | pgbench_tellers_pkey  |           245760
 2017-02-06 08:09:11.921821+01 | 1486364951.92182 | pgbench_accounts_pkey |       2246197248

 2017-02-06 08:09:13.101003+01 | 1486364953.101 | pgbench_branches_pkey |            40960
 2017-02-06 08:09:13.101003+01 | 1486364953.101 | pgbench_tellers_pkey  |           245760
 2017-02-06 08:09:13.101003+01 | 1486364953.101 | pgbench_accounts_pkey |       2246197248

 2017-02-06 08:09:14.251537+01 | 1486364954.25154 | pgbench_branches_pkey |            40960
 2017-02-06 08:09:14.251537+01 | 1486364954.25154 | pgbench_tellers_pkey  |           245760
 2017-02-06 08:09:14.251537+01 | 1486364954.25154 | pgbench_accounts_pkey |       2246197248

 2017-02-06 08:09:15.392058+01 | 1486364955.39206 | pgbench_branches_pkey |            40960
 2017-02-06 08:09:15.392058+01 | 1486364955.39206 | pgbench_tellers_pkey  |           245760
 2017-02-06 08:09:15.392058+01 | 1486364955.39206 | pgbench_accounts_pkey |       2246197248

 2017-02-06 08:09:16.54355+01 | 1486364956.54355 | pgbench_branches_pkey |            40960
 2017-02-06 08:09:16.54355+01 | 1486364956.54355 | pgbench_tellers_pkey  |           245760
 2017-02-06 08:09:16.54355+01 | 1486364956.54355 | pgbench_accounts_pkey |       2246197248

 2017-02-06 08:09:17.709219+01 | 1486364957.70922 | pgbench_branches_pkey |            40960
 2017-02-06 08:09:17.709219+01 | 1486364957.70922 | pgbench_tellers_pkey  |           245760
 2017-02-06 08:09:17.709219+01 | 1486364957.70922 | pgbench_accounts_pkey |       2246197248

 2017-02-06 08:09:18.845766+01 | 1486364958.84577 | pgbench_branches_pkey |            40960
 2017-02-06 08:09:18.845766+01 | 1486364958.84577 | pgbench_tellers_pkey  |           245760
 2017-02-06 08:09:18.845766+01 | 1486364958.84577 | pgbench_accounts_pkey |       2246197248

 2017-02-06 08:09:19.985285+01 | 1486364959.98529 | pgbench_branches_pkey |            40960
 2017-02-06 08:09:19.985285+01 | 1486364959.98529 | pgbench_tellers_pkey  |           245760
 2017-02-06 08:09:19.985285+01 | 1486364959.98529 | pgbench_accounts_pkey |       2246197248

 2017-02-06 08:09:21.154026+01 | 1486364961.15403 | pgbench_branches_pkey |            40960
 2017-02-06 08:09:21.154026+01 | 1486364961.15403 | pgbench_tellers_pkey  |           245760
 2017-02-06 08:09:21.154026+01 | 1486364961.15403 | pgbench_accounts_pkey |       2246197248

 2017-02-06 08:09:22.30511+01 | 1486364962.30511 | pgbench_branches_pkey |            40960
 2017-02-06 08:09:22.30511+01 | 1486364962.30511 | pgbench_tellers_pkey  |           245760
 2017-02-06 08:09:22.30511+01 | 1486364962.30511 | pgbench_accounts_pkey |       2246197248

 2017-02-06 08:09:23.469444+01 | 1486364963.46944 | pgbench_branches_pkey |            40960
 2017-02-06 08:09:23.469444+01 | 1486364963.46944 | pgbench_tellers_pkey  |           245760
 2017-02-06 08:09:23.469444+01 | 1486364963.46944 | pgbench_accounts_pkey |       2246197248

 2017-02-06 08:09:24.617715+01 | 1486364964.61771 | pgbench_branches_pkey |            40960
 2017-02-06 08:09:24.617715+01 | 1486364964.61771 | pgbench_tellers_pkey  |           245760
 2017-02-06 08:09:24.617715+01 | 1486364964.61771 | pgbench_accounts_pkey |       2246197248

 2017-02-06 08:09:25.783761+01 | 1486364965.78376 | pgbench_branches_pkey |            40960
 2017-02-06 08:09:25.783761+01 | 1486364965.78376 | pgbench_tellers_pkey  |           245760
 2017-02-06 08:09:25.783761+01 | 1486364965.78376 | pgbench_accounts_pkey |       2246197248

 2017-02-06 08:09:26.933037+01 | 1486364966.93304 | pgbench_branches_pkey |            40960
 2017-02-06 08:09:26.933037+01 | 1486364966.93304 | pgbench_tellers_pkey  |           245760
 2017-02-06 08:09:26.933037+01 | 1486364966.93304 | pgbench_accounts_pkey |       2246197248

 2017-02-06 08:09:28.078178+01 | 1486364968.07818 | pgbench_branches_pkey |            40960
 2017-02-06 08:09:28.078178+01 | 1486364968.07818 | pgbench_tellers_pkey  |           245760
 2017-02-06 08:09:28.078178+01 | 1486364968.07818 | pgbench_accounts_pkey |       2246197248

 2017-02-06 08:09:29.217547+01 | 1486364969.21755 | pgbench_branches_pkey |            40960
 2017-02-06 08:09:29.217547+01 | 1486364969.21755 | pgbench_tellers_pkey  |           245760
 2017-02-06 08:09:29.217547+01 | 1486364969.21755 | pgbench_accounts_pkey |       2246197248

 2017-02-06 08:09:30.345417+01 | 1486364970.34542 | pgbench_branches_pkey |            40960
 2017-02-06 08:09:30.345417+01 | 1486364970.34542 | pgbench_tellers_pkey  |           245760
 2017-02-06 08:09:30.345417+01 | 1486364970.34542 | pgbench_accounts_pkey |       2246197248

 2017-02-06 08:09:31.511861+01 | 1486364971.51186 | pgbench_branches_pkey |            40960
 2017-02-06 08:09:31.511861+01 | 1486364971.51186 | pgbench_tellers_pkey  |           245760
 2017-02-06 08:09:31.511861+01 | 1486364971.51186 | pgbench_accounts_pkey |       2246197248

 2017-02-06 08:09:32.670412+01 | 1486364972.67041 | pgbench_branches_pkey |            40960
 2017-02-06 08:09:32.670412+01 | 1486364972.67041 | pgbench_tellers_pkey  |           245760
 2017-02-06 08:09:32.670412+01 | 1486364972.67041 | pgbench_accounts_pkey |       2246197248

 2017-02-06 08:09:33.801433+01 | 1486364973.80143 | pgbench_branches_pkey |            40960
 2017-02-06 08:09:33.801433+01 | 1486364973.80143 | pgbench_tellers_pkey  |           245760
 2017-02-06 08:09:33.801433+01 | 1486364973.80143 | pgbench_accounts_pkey |       2246197248

 2017-02-06 08:09:34.95964+01 | 1486364974.95964 | pgbench_branches_pkey |            40960
 2017-02-06 08:09:34.95964+01 | 1486364974.95964 | pgbench_tellers_pkey  |           245760
 2017-02-06 08:09:34.95964+01 | 1486364974.95964 | pgbench_accounts_pkey |       2246197248

 2017-02-06 08:09:36.142274+01 | 1486364976.14227 | pgbench_branches_pkey |            40960
 2017-02-06 08:09:36.142274+01 | 1486364976.14227 | pgbench_tellers_pkey  |           245760
 2017-02-06 08:09:36.142274+01 | 1486364976.14227 | pgbench_accounts_pkey |       2246197248

 2017-02-06 08:09:37.290539+01 | 1486364977.29054 | pgbench_branches_pkey |            40960
 2017-02-06 08:09:37.290539+01 | 1486364977.29054 | pgbench_tellers_pkey  |           245760
 2017-02-06 08:09:37.290539+01 | 1486364977.29054 | pgbench_accounts_pkey |       2246197248

 2017-02-06 08:09:38.423386+01 | 1486364978.42339 | pgbench_branches_pkey |            40960
 2017-02-06 08:09:38.423386+01 | 1486364978.42339 | pgbench_tellers_pkey  |           245760
 2017-02-06 08:09:38.423386+01 | 1486364978.42339 | pgbench_accounts_pkey |       2246197248

 2017-02-06 08:09:39.591223+01 | 1486364979.59122 | pgbench_branches_pkey |            40960
 2017-02-06 08:09:39.591223+01 | 1486364979.59122 | pgbench_tellers_pkey  |           245760
 2017-02-06 08:09:39.591223+01 | 1486364979.59122 | pgbench_accounts_pkey |       2246197248

 2017-02-06 08:09:40.725025+01 | 1486364980.72502 | pgbench_branches_pkey |            40960
 2017-02-06 08:09:40.725025+01 | 1486364980.72502 | pgbench_tellers_pkey  |           245760
 2017-02-06 08:09:40.725025+01 | 1486364980.72502 | pgbench_accounts_pkey |       2246197248

 2017-02-06 08:09:41.873689+01 | 1486364981.87369 | pgbench_branches_pkey |            40960
 2017-02-06 08:09:41.873689+01 | 1486364981.87369 | pgbench_tellers_pkey  |           245760
 2017-02-06 08:09:41.873689+01 | 1486364981.87369 | pgbench_accounts_pkey |       2246197248

 2017-02-06 08:09:43.033074+01 | 1486364983.03307 | pgbench_branches_pkey |            40960
 2017-02-06 08:09:43.033074+01 | 1486364983.03307 | pgbench_tellers_pkey  |           245760
 2017-02-06 08:09:43.033074+01 | 1486364983.03307 | pgbench_accounts_pkey |       2246197248

 2017-02-06 08:09:44.182277+01 | 1486364984.18228 | pgbench_branches_pkey |            40960
 2017-02-06 08:09:44.182277+01 | 1486364984.18228 | pgbench_tellers_pkey  |           245760
 2017-02-06 08:09:44.182277+01 | 1486364984.18228 | pgbench_accounts_pkey |       2246197248

 2017-02-06 08:09:45.321851+01 | 1486364985.32185 | pgbench_branches_pkey |            40960
 2017-02-06 08:09:45.321851+01 | 1486364985.32185 | pgbench_tellers_pkey  |           245760
 2017-02-06 08:09:45.321851+01 | 1486364985.32185 | pgbench_accounts_pkey |       2246197248

 2017-02-06 08:09:46.461742+01 | 1486364986.46174 | pgbench_branches_pkey |            40960
 2017-02-06 08:09:46.461742+01 | 1486364986.46174 | pgbench_tellers_pkey  |           245760
 2017-02-06 08:09:46.461742+01 | 1486364986.46174 | pgbench_accounts_pkey |       2246197248

 2017-02-06 08:09:47.600989+01 | 1486364987.60099 | pgbench_branches_pkey |            40960
 2017-02-06 08:09:47.600989+01 | 1486364987.60099 | pgbench_tellers_pkey  |           245760
 2017-02-06 08:09:47.600989+01 | 1486364987.60099 | pgbench_accounts_pkey |       2246197248

 2017-02-06 08:09:48.754212+01 | 1486364988.75421 | pgbench_branches_pkey |            40960
 2017-02-06 08:09:48.754212+01 | 1486364988.75421 | pgbench_tellers_pkey  |           245760
 2017-02-06 08:09:48.754212+01 | 1486364988.75421 | pgbench_accounts_pkey |       2246197248

 2017-02-06 08:09:49.918328+01 | 1486364989.91833 | pgbench_branches_pkey |            40960
 2017-02-06 08:09:49.918328+01 | 1486364989.91833 | pgbench_tellers_pkey  |           245760
 2017-02-06 08:09:49.918328+01 | 1486364989.91833 | pgbench_accounts_pkey |       2246197248

 2017-02-06 08:09:51.067219+01 | 1486364991.06722 | pgbench_branches_pkey |            40960
 2017-02-06 08:09:51.067219+01 | 1486364991.06722 | pgbench_tellers_pkey  |           245760
 2017-02-06 08:09:51.067219+01 | 1486364991.06722 | pgbench_accounts_pkey |       2246197248

 2017-02-06 08:09:52.247279+01 | 1486364992.24728 | pgbench_branches_pkey |            40960
 2017-02-06 08:09:52.247279+01 | 1486364992.24728 | pgbench_tellers_pkey  |           245760
 2017-02-06 08:09:52.247279+01 | 1486364992.24728 | pgbench_accounts_pkey |       2246197248

 2017-02-06 08:09:53.395109+01 | 1486364993.39511 | pgbench_branches_pkey |            40960
 2017-02-06 08:09:53.395109+01 | 1486364993.39511 | pgbench_tellers_pkey  |           245760
 2017-02-06 08:09:53.395109+01 | 1486364993.39511 | pgbench_accounts_pkey |       2246197248

 2017-02-06 08:09:54.542211+01 | 1486364994.54221 | pgbench_branches_pkey |            40960
 2017-02-06 08:09:54.542211+01 | 1486364994.54221 | pgbench_tellers_pkey  |           245760
 2017-02-06 08:09:54.542211+01 | 1486364994.54221 | pgbench_accounts_pkey |       2246197248

 2017-02-06 08:09:55.676926+01 | 1486364995.67693 | pgbench_branches_pkey |            40960
 2017-02-06 08:09:55.676926+01 | 1486364995.67693 | pgbench_tellers_pkey  |           245760
 2017-02-06 08:09:55.676926+01 | 1486364995.67693 | pgbench_accounts_pkey |       2246197248

 2017-02-06 08:09:56.788705+01 | 1486364996.78871 | pgbench_branches_pkey |            40960
 2017-02-06 08:09:56.788705+01 | 1486364996.78871 | pgbench_tellers_pkey  |           245760
 2017-02-06 08:09:56.788705+01 | 1486364996.78871 | pgbench_accounts_pkey |       2246197248

 2017-02-06 08:09:57.925668+01 | 1486364997.92567 | pgbench_branches_pkey |            40960
 2017-02-06 08:09:57.925668+01 | 1486364997.92567 | pgbench_tellers_pkey  |           245760
 2017-02-06 08:09:57.925668+01 | 1486364997.92567 | pgbench_accounts_pkey |       2246197248

 2017-02-06 08:09:59.069812+01 | 1486364999.06981 | pgbench_branches_pkey |            40960
 2017-02-06 08:09:59.069812+01 | 1486364999.06981 | pgbench_tellers_pkey  |           245760
 2017-02-06 08:09:59.069812+01 | 1486364999.06981 | pgbench_accounts_pkey |       2246197248

 2017-02-06 08:10:00.24236+01 | 1486365000.24236 | pgbench_branches_pkey |            40960
 2017-02-06 08:10:00.24236+01 | 1486365000.24236 | pgbench_tellers_pkey  |           245760
 2017-02-06 08:10:00.24236+01 | 1486365000.24236 | pgbench_accounts_pkey |       2246197248

 2017-02-06 08:10:01.381832+01 | 1486365001.38183 | pgbench_branches_pkey |            40960
 2017-02-06 08:10:01.381832+01 | 1486365001.38183 | pgbench_tellers_pkey  |           245760
 2017-02-06 08:10:01.381832+01 | 1486365001.38183 | pgbench_accounts_pkey |       2246197248

 2017-02-06 08:10:02.538115+01 | 1486365002.53812 | pgbench_branches_pkey |            40960
 2017-02-06 08:10:02.538115+01 | 1486365002.53812 | pgbench_tellers_pkey  |           245760
 2017-02-06 08:10:02.538115+01 | 1486365002.53812 | pgbench_accounts_pkey |       2246197248

 2017-02-06 08:10:03.678623+01 | 1486365003.67862 | pgbench_branches_pkey |            40960
 2017-02-06 08:10:03.678623+01 | 1486365003.67862 | pgbench_tellers_pkey  |           245760
 2017-02-06 08:10:03.678623+01 | 1486365003.67862 | pgbench_accounts_pkey |       2246197248

 2017-02-06 08:10:04.829755+01 | 1486365004.82976 | pgbench_branches_pkey |            40960
 2017-02-06 08:10:04.829755+01 | 1486365004.82976 | pgbench_tellers_pkey  |           245760
 2017-02-06 08:10:04.829755+01 | 1486365004.82976 | pgbench_accounts_pkey |       2246197248

 2017-02-06 08:10:05.965058+01 | 1486365005.96506 | pgbench_branches_pkey |            40960
 2017-02-06 08:10:05.965058+01 | 1486365005.96506 | pgbench_tellers_pkey  |           245760
 2017-02-06 08:10:05.965058+01 | 1486365005.96506 | pgbench_accounts_pkey |       2246197248

 2017-02-06 08:10:07.121637+01 | 1486365007.12164 | pgbench_branches_pkey |            40960
 2017-02-06 08:10:07.121637+01 | 1486365007.12164 | pgbench_tellers_pkey  |           245760
 2017-02-06 08:10:07.121637+01 | 1486365007.12164 | pgbench_accounts_pkey |       2246197248

 2017-02-06 08:10:08.226568+01 | 1486365008.22657 | pgbench_branches_pkey |            40960
 2017-02-06 08:10:08.226568+01 | 1486365008.22657 | pgbench_tellers_pkey  |           245760
 2017-02-06 08:10:08.226568+01 | 1486365008.22657 | pgbench_accounts_pkey |       2246197248

 2017-02-06 08:10:09.363461+01 | 1486365009.36346 | pgbench_branches_pkey |            40960
 2017-02-06 08:10:09.363461+01 | 1486365009.36346 | pgbench_tellers_pkey  |           245760
 2017-02-06 08:10:09.363461+01 | 1486365009.36346 | pgbench_accounts_pkey |       2246197248

 2017-02-06 08:10:10.545166+01 | 1486365010.54517 | pgbench_branches_pkey |            40960
 2017-02-06 08:10:10.545166+01 | 1486365010.54517 | pgbench_tellers_pkey  |           245760
 2017-02-06 08:10:10.545166+01 | 1486365010.54517 | pgbench_accounts_pkey |       2246197248

 2017-02-06 08:10:11.702966+01 | 1486365011.70297 | pgbench_branches_pkey |            40960
 2017-02-06 08:10:11.702966+01 | 1486365011.70297 | pgbench_tellers_pkey  |           245760
 2017-02-06 08:10:11.702966+01 | 1486365011.70297 | pgbench_accounts_pkey |       2246197248

 2017-02-06 08:10:12.868673+01 | 1486365012.86867 | pgbench_branches_pkey |            40960
 2017-02-06 08:10:12.868673+01 | 1486365012.86867 | pgbench_tellers_pkey  |           245760
 2017-02-06 08:10:12.868673+01 | 1486365012.86867 | pgbench_accounts_pkey |       2246197248

 2017-02-06 08:10:14.0179+01 | 1486365014.0179 | pgbench_branches_pkey |            40960
 2017-02-06 08:10:14.0179+01 | 1486365014.0179 | pgbench_tellers_pkey  |           245760
 2017-02-06 08:10:14.0179+01 | 1486365014.0179 | pgbench_accounts_pkey |       2246197248

 2017-02-06 08:10:15.152545+01 | 1486365015.15254 | pgbench_branches_pkey |            40960
 2017-02-06 08:10:15.152545+01 | 1486365015.15254 | pgbench_tellers_pkey  |           245760
 2017-02-06 08:10:15.152545+01 | 1486365015.15254 | pgbench_accounts_pkey |       2246197248

 2017-02-06 08:10:16.276614+01 | 1486365016.27661 | pgbench_branches_pkey |            40960
 2017-02-06 08:10:16.276614+01 | 1486365016.27661 | pgbench_tellers_pkey  |           245760
 2017-02-06 08:10:16.276614+01 | 1486365016.27661 | pgbench_accounts_pkey |       2246197248

 2017-02-06 08:10:17.424254+01 | 1486365017.42425 | pgbench_branches_pkey |            40960
 2017-02-06 08:10:17.424254+01 | 1486365017.42425 | pgbench_tellers_pkey  |           245760
 2017-02-06 08:10:17.424254+01 | 1486365017.42425 | pgbench_accounts_pkey |       2246197248

 2017-02-06 08:10:18.575931+01 | 1486365018.57593 | pgbench_branches_pkey |            40960
 2017-02-06 08:10:18.575931+01 | 1486365018.57593 | pgbench_tellers_pkey  |           245760
 2017-02-06 08:10:18.575931+01 | 1486365018.57593 | pgbench_accounts_pkey |       2246197248

 2017-02-06 08:10:19.723134+01 | 1486365019.72313 | pgbench_branches_pkey |            40960
 2017-02-06 08:10:19.723134+01 | 1486365019.72313 | pgbench_tellers_pkey  |           245760
 2017-02-06 08:10:19.723134+01 | 1486365019.72313 | pgbench_accounts_pkey |       2246197248

 2017-02-06 08:10:20.868202+01 | 1486365020.8682 | pgbench_branches_pkey |            40960
 2017-02-06 08:10:20.868202+01 | 1486365020.8682 | pgbench_tellers_pkey  |           245760
 2017-02-06 08:10:20.868202+01 | 1486365020.8682 | pgbench_accounts_pkey |       2246197248

 2017-02-06 08:10:22.0216+01 | 1486365022.0216 | pgbench_branches_pkey |            40960
 2017-02-06 08:10:22.0216+01 | 1486365022.0216 | pgbench_tellers_pkey  |           245760
 2017-02-06 08:10:22.0216+01 | 1486365022.0216 | pgbench_accounts_pkey |       2246197248

 2017-02-06 08:10:23.177161+01 | 1486365023.17716 | pgbench_branches_pkey |            40960
 2017-02-06 08:10:23.177161+01 | 1486365023.17716 | pgbench_tellers_pkey  |           245760
 2017-02-06 08:10:23.177161+01 | 1486365023.17716 | pgbench_accounts_pkey |       2246197248

 2017-02-06 08:10:24.329631+01 | 1486365024.32963 | pgbench_branches_pkey |            40960
 2017-02-06 08:10:24.329631+01 | 1486365024.32963 | pgbench_tellers_pkey  |           245760
 2017-02-06 08:10:24.329631+01 | 1486365024.32963 | pgbench_accounts_pkey |       2246197248

 2017-02-06 08:10:25.486659+01 | 1486365025.48666 | pgbench_branches_pkey |            40960
 2017-02-06 08:10:25.486659+01 | 1486365025.48666 | pgbench_tellers_pkey  |           245760
 2017-02-06 08:10:25.486659+01 | 1486365025.48666 | pgbench_accounts_pkey |       2246197248

 2017-02-06 08:10:26.623761+01 | 1486365026.62376 | pgbench_branches_pkey |            40960
 2017-02-06 08:10:26.623761+01 | 1486365026.62376 | pgbench_tellers_pkey  |           245760
 2017-02-06 08:10:26.623761+01 | 1486365026.62376 | pgbench_accounts_pkey |       2246197248

 2017-02-06 08:10:27.769923+01 | 1486365027.76992 | pgbench_branches_pkey |            40960
 2017-02-06 08:10:27.769923+01 | 1486365027.76992 | pgbench_tellers_pkey  |           245760
 2017-02-06 08:10:27.769923+01 | 1486365027.76992 | pgbench_accounts_pkey |       2246197248

 2017-02-06 08:10:28.902895+01 | 1486365028.90289 | pgbench_branches_pkey |            40960
 2017-02-06 08:10:28.902895+01 | 1486365028.90289 | pgbench_tellers_pkey  |           245760
 2017-02-06 08:10:28.902895+01 | 1486365028.90289 | pgbench_accounts_pkey |       2246197248

 2017-02-06 08:10:30.061466+01 | 1486365030.06147 | pgbench_branches_pkey |            40960
 2017-02-06 08:10:30.061466+01 | 1486365030.06147 | pgbench_tellers_pkey  |           245760
 2017-02-06 08:10:30.061466+01 | 1486365030.06147 | pgbench_accounts_pkey |       2246197248

 2017-02-06 08:10:31.195728+01 | 1486365031.19573 | pgbench_branches_pkey |            40960
 2017-02-06 08:10:31.195728+01 | 1486365031.19573 | pgbench_tellers_pkey  |           245760
 2017-02-06 08:10:31.195728+01 | 1486365031.19573 | pgbench_accounts_pkey |       2246197248

 2017-02-06 08:10:32.350388+01 | 1486365032.35039 | pgbench_branches_pkey |            40960
 2017-02-06 08:10:32.350388+01 | 1486365032.35039 | pgbench_tellers_pkey  |           245760
 2017-02-06 08:10:32.350388+01 | 1486365032.35039 | pgbench_accounts_pkey |       2246197248

 2017-02-06 08:10:33.512038+01 | 1486365033.51204 | pgbench_branches_pkey |            40960
 2017-02-06 08:10:33.512038+01 | 1486365033.51204 | pgbench_tellers_pkey  |           245760
 2017-02-06 08:10:33.512038+01 | 1486365033.51204 | pgbench_accounts_pkey |       2246197248

 2017-02-06 08:10:34.684231+01 | 1486365034.68423 | pgbench_branches_pkey |            40960
 2017-02-06 08:10:34.684231+01 | 1486365034.68423 | pgbench_tellers_pkey  |           245760
 2017-02-06 08:10:34.684231+01 | 1486365034.68423 | pgbench_accounts_pkey |       2246197248

 2017-02-06 08:10:35.871571+01 | 1486365035.87157 | pgbench_branches_pkey |            40960
 2017-02-06 08:10:35.871571+01 | 1486365035.87157 | pgbench_tellers_pkey  |           245760
 2017-02-06 08:10:35.871571+01 | 1486365035.87157 | pgbench_accounts_pkey |       2246197248

 2017-02-06 08:10:37.014784+01 | 1486365037.01478 | pgbench_branches_pkey |            40960
 2017-02-06 08:10:37.014784+01 | 1486365037.01478 | pgbench_tellers_pkey  |           245760
 2017-02-06 08:10:37.014784+01 | 1486365037.01478 | pgbench_accounts_pkey |       2246197248

 2017-02-06 08:10:38.161395+01 | 1486365038.1614 | pgbench_branches_pkey |            40960
 2017-02-06 08:10:38.161395+01 | 1486365038.1614 | pgbench_tellers_pkey  |           245760
 2017-02-06 08:10:38.161395+01 | 1486365038.1614 | pgbench_accounts_pkey |       2246197248

 2017-02-06 08:10:39.294491+01 | 1486365039.29449 | pgbench_branches_pkey |            40960
 2017-02-06 08:10:39.294491+01 | 1486365039.29449 | pgbench_tellers_pkey  |           245760
 2017-02-06 08:10:39.294491+01 | 1486365039.29449 | pgbench_accounts_pkey |       2246197248

 2017-02-06 08:10:40.455126+01 | 1486365040.45513 | pgbench_branches_pkey |            40960
 2017-02-06 08:10:40.455126+01 | 1486365040.45513 | pgbench_tellers_pkey  |           245760
 2017-02-06 08:10:40.455126+01 | 1486365040.45513 | pgbench_accounts_pkey |       2246197248

 2017-02-06 08:10:41.608381+01 | 1486365041.60838 | pgbench_branches_pkey |            40960
 2017-02-06 08:10:41.608381+01 | 1486365041.60838 | pgbench_tellers_pkey  |           245760
 2017-02-06 08:10:41.608381+01 | 1486365041.60838 | pgbench_accounts_pkey |       2246197248

 2017-02-06 08:10:42.75689+01 | 1486365042.75689 | pgbench_branches_pkey |            40960
 2017-02-06 08:10:42.75689+01 | 1486365042.75689 | pgbench_tellers_pkey  |           245760
 2017-02-06 08:10:42.75689+01 | 1486365042.75689 | pgbench_accounts_pkey |       2246197248

 2017-02-06 08:10:43.902138+01 | 1486365043.90214 | pgbench_branches_pkey |            40960
 2017-02-06 08:10:43.902138+01 | 1486365043.90214 | pgbench_tellers_pkey  |           245760
 2017-02-06 08:10:43.902138+01 | 1486365043.90214 | pgbench_accounts_pkey |       2246197248

 2017-02-06 08:10:45.045742+01 | 1486365045.04574 | pgbench_branches_pkey |            40960
 2017-02-06 08:10:45.045742+01 | 1486365045.04574 | pgbench_tellers_pkey  |           245760
 2017-02-06 08:10:45.045742+01 | 1486365045.04574 | pgbench_accounts_pkey |       2246197248

 2017-02-06 08:10:46.189441+01 | 1486365046.18944 | pgbench_branches_pkey |            40960
 2017-02-06 08:10:46.189441+01 | 1486365046.18944 | pgbench_tellers_pkey  |           245760
 2017-02-06 08:10:46.189441+01 | 1486365046.18944 | pgbench_accounts_pkey |       2246197248

 2017-02-06 08:10:47.364235+01 | 1486365047.36423 | pgbench_branches_pkey |            40960
 2017-02-06 08:10:47.364235+01 | 1486365047.36423 | pgbench_tellers_pkey  |           245760
 2017-02-06 08:10:47.364235+01 | 1486365047.36423 | pgbench_accounts_pkey |       2246197248

 2017-02-06 08:10:48.519082+01 | 1486365048.51908 | pgbench_branches_pkey |            40960
 2017-02-06 08:10:48.519082+01 | 1486365048.51908 | pgbench_tellers_pkey  |           245760
 2017-02-06 08:10:48.519082+01 | 1486365048.51908 | pgbench_accounts_pkey |       2246197248

 2017-02-06 08:10:49.680421+01 | 1486365049.68042 | pgbench_branches_pkey |            40960
 2017-02-06 08:10:49.680421+01 | 1486365049.68042 | pgbench_tellers_pkey  |           245760
 2017-02-06 08:10:49.680421+01 | 1486365049.68042 | pgbench_accounts_pkey |       2246197248

 2017-02-06 08:10:50.853817+01 | 1486365050.85382 | pgbench_branches_pkey |            40960
 2017-02-06 08:10:50.853817+01 | 1486365050.85382 | pgbench_tellers_pkey  |           245760
 2017-02-06 08:10:50.853817+01 | 1486365050.85382 | pgbench_accounts_pkey |       2246197248

 2017-02-06 08:10:51.986534+01 | 1486365051.98653 | pgbench_branches_pkey |            40960
 2017-02-06 08:10:51.986534+01 | 1486365051.98653 | pgbench_tellers_pkey  |           245760
 2017-02-06 08:10:51.986534+01 | 1486365051.98653 | pgbench_accounts_pkey |       2246197248

 2017-02-06 08:10:53.119655+01 | 1486365053.11965 | pgbench_branches_pkey |            40960
 2017-02-06 08:10:53.119655+01 | 1486365053.11965 | pgbench_tellers_pkey  |           245760
 2017-02-06 08:10:53.119655+01 | 1486365053.11965 | pgbench_accounts_pkey |       2246197248

 2017-02-06 08:10:54.273269+01 | 1486365054.27327 | pgbench_branches_pkey |            40960
 2017-02-06 08:10:54.273269+01 | 1486365054.27327 | pgbench_tellers_pkey  |           245760
 2017-02-06 08:10:54.273269+01 | 1486365054.27327 | pgbench_accounts_pkey |       2246197248

 2017-02-06 08:10:55.395731+01 | 1486365055.39573 | pgbench_branches_pkey |            40960
 2017-02-06 08:10:55.395731+01 | 1486365055.39573 | pgbench_tellers_pkey  |           245760
 2017-02-06 08:10:55.395731+01 | 1486365055.39573 | pgbench_accounts_pkey |       2246197248

 2017-02-06 08:10:56.551511+01 | 1486365056.55151 | pgbench_branches_pkey |            40960
 2017-02-06 08:10:56.551511+01 | 1486365056.55151 | pgbench_tellers_pkey  |           245760
 2017-02-06 08:10:56.551511+01 | 1486365056.55151 | pgbench_accounts_pkey |       2246197248

 2017-02-06 08:10:57.710537+01 | 1486365057.71054 | pgbench_branches_pkey |            40960
 2017-02-06 08:10:57.710537+01 | 1486365057.71054 | pgbench_tellers_pkey  |           245760
 2017-02-06 08:10:57.710537+01 | 1486365057.71054 | pgbench_accounts_pkey |       2246197248

 2017-02-06 08:10:58.873327+01 | 1486365058.87333 | pgbench_branches_pkey |            40960
 2017-02-06 08:10:58.873327+01 | 1486365058.87333 | pgbench_tellers_pkey  |           245760
 2017-02-06 08:10:58.873327+01 | 1486365058.87333 | pgbench_accounts_pkey |       2246197248

 2017-02-06 08:11:00.033614+01 | 1486365060.03361 | pgbench_branches_pkey |            40960
 2017-02-06 08:11:00.033614+01 | 1486365060.03361 | pgbench_tellers_pkey  |           245760
 2017-02-06 08:11:00.033614+01 | 1486365060.03361 | pgbench_accounts_pkey |       2246197248

 2017-02-06 08:11:01.17713+01 | 1486365061.17713 | pgbench_branches_pkey |            40960
 2017-02-06 08:11:01.17713+01 | 1486365061.17713 | pgbench_tellers_pkey  |           245760
 2017-02-06 08:11:01.17713+01 | 1486365061.17713 | pgbench_accounts_pkey |       2246197248

 2017-02-06 08:11:02.317849+01 | 1486365062.31785 | pgbench_branches_pkey |            40960
 2017-02-06 08:11:02.317849+01 | 1486365062.31785 | pgbench_tellers_pkey  |           245760
 2017-02-06 08:11:02.317849+01 | 1486365062.31785 | pgbench_accounts_pkey |       2246197248

 2017-02-06 08:11:03.461374+01 | 1486365063.46137 | pgbench_branches_pkey |            40960
 2017-02-06 08:11:03.461374+01 | 1486365063.46137 | pgbench_tellers_pkey  |           245760
 2017-02-06 08:11:03.461374+01 | 1486365063.46137 | pgbench_accounts_pkey |       2246197248

 2017-02-06 08:11:04.608003+01 | 1486365064.608 | pgbench_branches_pkey |            40960
 2017-02-06 08:11:04.608003+01 | 1486365064.608 | pgbench_tellers_pkey  |           245760
 2017-02-06 08:11:04.608003+01 | 1486365064.608 | pgbench_accounts_pkey |       2246197248

 2017-02-06 08:11:05.756084+01 | 1486365065.75608 | pgbench_branches_pkey |            40960
 2017-02-06 08:11:05.756084+01 | 1486365065.75608 | pgbench_tellers_pkey  |           245760
 2017-02-06 08:11:05.756084+01 | 1486365065.75608 | pgbench_accounts_pkey |       2246197248

 2017-02-06 08:11:06.915852+01 | 1486365066.91585 | pgbench_branches_pkey |            40960
 2017-02-06 08:11:06.915852+01 | 1486365066.91585 | pgbench_tellers_pkey  |           245760
 2017-02-06 08:11:06.915852+01 | 1486365066.91585 | pgbench_accounts_pkey |       2246197248

 2017-02-06 08:11:08.072449+01 | 1486365068.07245 | pgbench_branches_pkey |            40960
 2017-02-06 08:11:08.072449+01 | 1486365068.07245 | pgbench_tellers_pkey  |           245760
 2017-02-06 08:11:08.072449+01 | 1486365068.07245 | pgbench_accounts_pkey |       2246197248

 2017-02-06 08:11:09.225994+01 | 1486365069.22599 | pgbench_branches_pkey |            40960
 2017-02-06 08:11:09.225994+01 | 1486365069.22599 | pgbench_tellers_pkey  |           245760
 2017-02-06 08:11:09.225994+01 | 1486365069.22599 | pgbench_accounts_pkey |       2246197248

 2017-02-06 08:11:10.393049+01 | 1486365070.39305 | pgbench_branches_pkey |            40960
 2017-02-06 08:11:10.393049+01 | 1486365070.39305 | pgbench_tellers_pkey  |           245760
 2017-02-06 08:11:10.393049+01 | 1486365070.39305 | pgbench_accounts_pkey |       2246197248

 2017-02-06 08:11:11.554493+01 | 1486365071.55449 | pgbench_branches_pkey |            40960
 2017-02-06 08:11:11.554493+01 | 1486365071.55449 | pgbench_tellers_pkey  |           245760
 2017-02-06 08:11:11.554493+01 | 1486365071.55449 | pgbench_accounts_pkey |       2246197248

 2017-02-06 08:11:12.687537+01 | 1486365072.68754 | pgbench_branches_pkey |            40960
 2017-02-06 08:11:12.687537+01 | 1486365072.68754 | pgbench_tellers_pkey  |           245760
 2017-02-06 08:11:12.687537+01 | 1486365072.68754 | pgbench_accounts_pkey |       2246197248

 2017-02-06 08:11:13.844594+01 | 1486365073.84459 | pgbench_branches_pkey |            40960
 2017-02-06 08:11:13.844594+01 | 1486365073.84459 | pgbench_tellers_pkey  |           245760
 2017-02-06 08:11:13.844594+01 | 1486365073.84459 | pgbench_accounts_pkey |       2246197248

 2017-02-06 08:11:15.02083+01 | 1486365075.02083 | pgbench_branches_pkey |            40960
 2017-02-06 08:11:15.02083+01 | 1486365075.02083 | pgbench_tellers_pkey  |           245760
 2017-02-06 08:11:15.02083+01 | 1486365075.02083 | pgbench_accounts_pkey |       2246197248

 2017-02-06 08:11:16.169922+01 | 1486365076.16992 | pgbench_branches_pkey |            40960
 2017-02-06 08:11:16.169922+01 | 1486365076.16992 | pgbench_tellers_pkey  |           245760
 2017-02-06 08:11:16.169922+01 | 1486365076.16992 | pgbench_accounts_pkey |       2246197248

 2017-02-06 08:11:17.318083+01 | 1486365077.31808 | pgbench_branches_pkey |            40960
 2017-02-06 08:11:17.318083+01 | 1486365077.31808 | pgbench_tellers_pkey  |           245760
 2017-02-06 08:11:17.318083+01 | 1486365077.31808 | pgbench_accounts_pkey |       2246197248

 2017-02-06 08:11:18.466768+01 | 1486365078.46677 | pgbench_branches_pkey |            40960
 2017-02-06 08:11:18.466768+01 | 1486365078.46677 | pgbench_tellers_pkey  |           245760
 2017-02-06 08:11:18.466768+01 | 1486365078.46677 | pgbench_accounts_pkey |       2246197248

 2017-02-06 08:11:19.615884+01 | 1486365079.61588 | pgbench_branches_pkey |            40960
 2017-02-06 08:11:19.615884+01 | 1486365079.61588 | pgbench_tellers_pkey  |           245760
 2017-02-06 08:11:19.615884+01 | 1486365079.61588 | pgbench_accounts_pkey |       2246197248

 2017-02-06 08:11:20.757616+01 | 1486365080.75762 | pgbench_branches_pkey |            40960
 2017-02-06 08:11:20.757616+01 | 1486365080.75762 | pgbench_tellers_pkey  |           245760
 2017-02-06 08:11:20.757616+01 | 1486365080.75762 | pgbench_accounts_pkey |       2246197248

 2017-02-06 08:11:21.905232+01 | 1486365081.90523 | pgbench_branches_pkey |            40960
 2017-02-06 08:11:21.905232+01 | 1486365081.90523 | pgbench_tellers_pkey  |           245760
 2017-02-06 08:11:21.905232+01 | 1486365081.90523 | pgbench_accounts_pkey |       2246197248

 2017-02-06 08:11:23.055667+01 | 1486365083.05567 | pgbench_branches_pkey |            40960
 2017-02-06 08:11:23.055667+01 | 1486365083.05567 | pgbench_tellers_pkey  |           245760
 2017-02-06 08:11:23.055667+01 | 1486365083.05567 | pgbench_accounts_pkey |       2246197248

 2017-02-06 08:11:24.17649+01 | 1486365084.17649 | pgbench_branches_pkey |            40960
 2017-02-06 08:11:24.17649+01 | 1486365084.17649 | pgbench_tellers_pkey  |           245760
 2017-02-06 08:11:24.17649+01 | 1486365084.17649 | pgbench_accounts_pkey |       2246197248

 2017-02-06 08:11:25.324111+01 | 1486365085.32411 | pgbench_branches_pkey |            40960
 2017-02-06 08:11:25.324111+01 | 1486365085.32411 | pgbench_tellers_pkey  |           245760
 2017-02-06 08:11:25.324111+01 | 1486365085.32411 | pgbench_accounts_pkey |       2246197248

 2017-02-06 08:11:26.460468+01 | 1486365086.46047 | pgbench_branches_pkey |            40960
 2017-02-06 08:11:26.460468+01 | 1486365086.46047 | pgbench_tellers_pkey  |           245760
 2017-02-06 08:11:26.460468+01 | 1486365086.46047 | pgbench_accounts_pkey |       2246197248

 2017-02-06 08:11:27.632013+01 | 1486365087.63201 | pgbench_branches_pkey |            40960
 2017-02-06 08:11:27.632013+01 | 1486365087.63201 | pgbench_tellers_pkey  |           245760
 2017-02-06 08:11:27.632013+01 | 1486365087.63201 | pgbench_accounts_pkey |       2246197248

 2017-02-06 08:11:28.801469+01 | 1486365088.80147 | pgbench_branches_pkey |            40960
 2017-02-06 08:11:28.801469+01 | 1486365088.80147 | pgbench_tellers_pkey  |           245760
 2017-02-06 08:11:28.801469+01 | 1486365088.80147 | pgbench_accounts_pkey |       2246197248

 2017-02-06 08:11:29.943466+01 | 1486365089.94347 | pgbench_branches_pkey |            40960
 2017-02-06 08:11:29.943466+01 | 1486365089.94347 | pgbench_tellers_pkey  |           245760
 2017-02-06 08:11:29.943466+01 | 1486365089.94347 | pgbench_accounts_pkey |       2246197248

 2017-02-06 08:11:31.118381+01 | 1486365091.11838 | pgbench_branches_pkey |            40960
 2017-02-06 08:11:31.118381+01 | 1486365091.11838 | pgbench_tellers_pkey  |           245760
 2017-02-06 08:11:31.118381+01 | 1486365091.11838 | pgbench_accounts_pkey |       2246197248

 2017-02-06 08:11:32.275234+01 | 1486365092.27523 | pgbench_branches_pkey |            40960
 2017-02-06 08:11:32.275234+01 | 1486365092.27523 | pgbench_tellers_pkey  |           245760
 2017-02-06 08:11:32.275234+01 | 1486365092.27523 | pgbench_accounts_pkey |       2246197248

 2017-02-06 08:11:33.445962+01 | 1486365093.44596 | pgbench_branches_pkey |            40960
 2017-02-06 08:11:33.445962+01 | 1486365093.44596 | pgbench_tellers_pkey  |           245760
 2017-02-06 08:11:33.445962+01 | 1486365093.44596 | pgbench_accounts_pkey |       2246197248

 2017-02-06 08:11:34.588978+01 | 1486365094.58898 | pgbench_branches_pkey |            40960
 2017-02-06 08:11:34.588978+01 | 1486365094.58898 | pgbench_tellers_pkey  |           245760
 2017-02-06 08:11:34.588978+01 | 1486365094.58898 | pgbench_accounts_pkey |       2246197248

 2017-02-06 08:11:35.729603+01 | 1486365095.7296 | pgbench_branches_pkey |            40960
 2017-02-06 08:11:35.729603+01 | 1486365095.7296 | pgbench_tellers_pkey  |           245760
 2017-02-06 08:11:35.729603+01 | 1486365095.7296 | pgbench_accounts_pkey |       2246197248

 2017-02-06 08:11:36.867333+01 | 1486365096.86733 | pgbench_branches_pkey |            40960
 2017-02-06 08:11:36.867333+01 | 1486365096.86733 | pgbench_tellers_pkey  |           245760
 2017-02-06 08:11:36.867333+01 | 1486365096.86733 | pgbench_accounts_pkey |       2246197248

 2017-02-06 08:11:38.020726+01 | 1486365098.02073 | pgbench_branches_pkey |            40960
 2017-02-06 08:11:38.020726+01 | 1486365098.02073 | pgbench_tellers_pkey  |           245760
 2017-02-06 08:11:38.020726+01 | 1486365098.02073 | pgbench_accounts_pkey |       2246197248

 2017-02-06 08:11:39.156966+01 | 1486365099.15697 | pgbench_branches_pkey |            40960
 2017-02-06 08:11:39.156966+01 | 1486365099.15697 | pgbench_tellers_pkey  |           245760
 2017-02-06 08:11:39.156966+01 | 1486365099.15697 | pgbench_accounts_pkey |       2246197248

 2017-02-06 08:11:40.310102+01 | 1486365100.3101 | pgbench_branches_pkey |            40960
 2017-02-06 08:11:40.310102+01 | 1486365100.3101 | pgbench_tellers_pkey  |           245760
 2017-02-06 08:11:40.310102+01 | 1486365100.3101 | pgbench_accounts_pkey |       2246197248

 2017-02-06 08:11:41.446878+01 | 1486365101.44688 | pgbench_branches_pkey |            40960
 2017-02-06 08:11:41.446878+01 | 1486365101.44688 | pgbench_tellers_pkey  |           245760
 2017-02-06 08:11:41.446878+01 | 1486365101.44688 | pgbench_accounts_pkey |       2246197248

