 2017-02-06 08:06:42.702046+01 | 1486364802.70205 | 3/1AE6A48                |           12913109576

 2017-02-06 08:06:43.812272+01 | 1486364803.81227 | 3/1AE6A48                |           12913109576

 2017-02-06 08:06:44.962952+01 | 1486364804.96295 | 3/1AE6A48                |           12913109576

 2017-02-06 08:06:46.122777+01 | 1486364806.12278 | 3/1AE6A48                |           12913109576

 2017-02-06 08:06:47.27988+01 | 1486364807.27988 | 3/1AE6A48                |           12913109576

 2017-02-06 08:06:48.433459+01 | 1486364808.43346 | 3/1AE6A48                |           12913109576

 2017-02-06 08:06:49.580608+01 | 1486364809.58061 | 3/1AE6A48                |           12913109576

 2017-02-06 08:06:50.712499+01 | 1486364810.7125 | 3/1AE6A48                |           12913109576

 2017-02-06 08:06:51.884313+01 | 1486364811.88431 | 3/1AE6A48                |           12913109576

 2017-02-06 08:06:53.016787+01 | 1486364813.01679 | 3/1AE6A48                |           12913109576

 2017-02-06 08:06:54.157958+01 | 1486364814.15796 | 3/1AE6A48                |           12913109576

 2017-02-06 08:06:55.290501+01 | 1486364815.2905 | 3/1AE6A48                |           12913109576

 2017-02-06 08:06:56.446978+01 | 1486364816.44698 | 3/1AE6A48                |           12913109576

 2017-02-06 08:06:57.616347+01 | 1486364817.61635 | 3/1AE6A48                |           12913109576

 2017-02-06 08:06:58.750432+01 | 1486364818.75043 | 3/1AE6A48                |           12913109576

 2017-02-06 08:06:59.901229+01 | 1486364819.90123 | 3/1AE6A48                |           12913109576

 2017-02-06 08:07:01.08658+01 | 1486364821.08658 | 3/1AE6A48                |           12913109576

 2017-02-06 08:07:02.20575+01 | 1486364822.20575 | 3/1AE6A48                |           12913109576

 2017-02-06 08:07:03.351443+01 | 1486364823.35144 | 3/1AE6A48                |           12913109576

 2017-02-06 08:07:04.4993+01 | 1486364824.4993 | 3/1AE6A48                |           12913109576

 2017-02-06 08:07:05.64322+01 | 1486364825.64322 | 3/1AE6A48                |           12913109576

 2017-02-06 08:07:06.777138+01 | 1486364826.77714 | 3/1AE6A48                |           12913109576

 2017-02-06 08:07:07.928179+01 | 1486364827.92818 | 3/1AE6A48                |           12913109576

 2017-02-06 08:07:09.069077+01 | 1486364829.06908 | 3/1AE6A48                |           12913109576

 2017-02-06 08:07:10.224471+01 | 1486364830.22447 | 3/1AE6A48                |           12913109576

 2017-02-06 08:07:11.39573+01 | 1486364831.39573 | 3/1AE6A48                |           12913109576

 2017-02-06 08:07:12.525091+01 | 1486364832.52509 | 3/1AE6A48                |           12913109576

 2017-02-06 08:07:13.675073+01 | 1486364833.67507 | 3/1AE6A48                |           12913109576

 2017-02-06 08:07:14.824932+01 | 1486364834.82493 | 3/1AE6A48                |           12913109576

 2017-02-06 08:07:15.963071+01 | 1486364835.96307 | 3/1AE6A48                |           12913109576

 2017-02-06 08:07:17.119394+01 | 1486364837.11939 | 3/1AE6A48                |           12913109576

 2017-02-06 08:07:18.258602+01 | 1486364838.2586 | 3/1AE6A48                |           12913109576

 2017-02-06 08:07:19.403431+01 | 1486364839.40343 | 3/1AE6A48                |           12913109576

 2017-02-06 08:07:20.580966+01 | 1486364840.58097 | 3/1AE6A48                |           12913109576

 2017-02-06 08:07:21.715849+01 | 1486364841.71585 | 3/1AE6A48                |           12913109576

 2017-02-06 08:07:22.862738+01 | 1486364842.86274 | 3/1AE6A48                |           12913109576

 2017-02-06 08:07:24.014206+01 | 1486364844.01421 | 3/1AE6A48                |           12913109576

 2017-02-06 08:07:25.199772+01 | 1486364845.19977 | 3/1AE6A48                |           12913109576

 2017-02-06 08:07:26.339546+01 | 1486364846.33955 | 3/1AE6A48                |           12913109576

 2017-02-06 08:07:27.511087+01 | 1486364847.51109 | 3/1AE6A48                |           12913109576

 2017-02-06 08:07:28.684511+01 | 1486364848.68451 | 3/1AE6A48                |           12913109576

 2017-02-06 08:07:29.815408+01 | 1486364849.81541 | 3/1AE6A48                |           12913109576

 2017-02-06 08:07:30.977822+01 | 1486364850.97782 | 3/1AE6A48                |           12913109576

 2017-02-06 08:07:32.133435+01 | 1486364852.13344 | 3/1AE6A48                |           12913109576

 2017-02-06 08:07:33.304127+01 | 1486364853.30413 | 3/1AE6A48                |           12913109576

 2017-02-06 08:07:34.480752+01 | 1486364854.48075 | 3/1AE6A48                |           12913109576

 2017-02-06 08:07:35.616581+01 | 1486364855.61658 | 3/1AE6A48                |           12913109576

 2017-02-06 08:07:36.782931+01 | 1486364856.78293 | 3/1AE6A48                |           12913109576

 2017-02-06 08:07:37.890801+01 | 1486364857.8908 | 3/1AE6A48                |           12913109576

 2017-02-06 08:07:39.040522+01 | 1486364859.04052 | 3/1AE6A48                |           12913109576

 2017-02-06 08:07:40.196804+01 | 1486364860.1968 | 3/1AE6A48                |           12913109576

 2017-02-06 08:07:41.358806+01 | 1486364861.35881 | 3/1AE6A48                |           12913109576

 2017-02-06 08:07:42.502508+01 | 1486364862.50251 | 3/1AE6A48                |           12913109576

 2017-02-06 08:07:43.668282+01 | 1486364863.66828 | 3/1AE6A48                |           12913109576

 2017-02-06 08:07:44.813459+01 | 1486364864.81346 | 3/1AE6A48                |           12913109576

 2017-02-06 08:07:45.921703+01 | 1486364865.9217 | 3/1AE6A48                |           12913109576

 2017-02-06 08:07:47.061852+01 | 1486364867.06185 | 3/1AE6A48                |           12913109576

 2017-02-06 08:07:48.215398+01 | 1486364868.2154 | 3/1AE6A48                |           12913109576

 2017-02-06 08:07:49.326768+01 | 1486364869.32677 | 3/1AE6A48                |           12913109576

 2017-02-06 08:07:50.463366+01 | 1486364870.46337 | 3/1AE6A48                |           12913109576

 2017-02-06 08:07:51.617519+01 | 1486364871.61752 | 3/1AE6A48                |           12913109576

 2017-02-06 08:07:52.731898+01 | 1486364872.7319 | 3/1AE6A48                |           12913109576

 2017-02-06 08:07:53.86045+01 | 1486364873.86045 | 3/1AE6A48                |           12913109576

 2017-02-06 08:07:55.025558+01 | 1486364875.02556 | 3/1AE6A48                |           12913109576

 2017-02-06 08:07:56.178383+01 | 1486364876.17838 | 3/1AE6A48                |           12913109576

 2017-02-06 08:07:57.327071+01 | 1486364877.32707 | 3/1AE6A48                |           12913109576

 2017-02-06 08:07:58.48196+01 | 1486364878.48196 | 3/1AE6A48                |           12913109576

 2017-02-06 08:07:59.627162+01 | 1486364879.62716 | 3/1AE6A48                |           12913109576

 2017-02-06 08:08:00.783392+01 | 1486364880.78339 | 3/1AE6A48                |           12913109576

 2017-02-06 08:08:01.911942+01 | 1486364881.91194 | 3/1AE6A48                |           12913109576

 2017-02-06 08:08:03.067495+01 | 1486364883.0675 | 3/1AE6A48                |           12913109576

 2017-02-06 08:08:04.194588+01 | 1486364884.19459 | 3/1AE6A48                |           12913109576

 2017-02-06 08:08:05.314405+01 | 1486364885.3144 | 3/1AE6A48                |           12913109576

 2017-02-06 08:08:06.446452+01 | 1486364886.44645 | 3/1AE6A48                |           12913109576

 2017-02-06 08:08:07.608154+01 | 1486364887.60815 | 3/1AE6A48                |           12913109576

 2017-02-06 08:08:08.775078+01 | 1486364888.77508 | 3/1AE6A48                |           12913109576

 2017-02-06 08:08:09.90574+01 | 1486364889.90574 | 3/1AE6A48                |           12913109576

 2017-02-06 08:08:11.033015+01 | 1486364891.03302 | 3/1AE6A48                |           12913109576

 2017-02-06 08:08:12.184955+01 | 1486364892.18495 | 3/1AE6A48                |           12913109576

 2017-02-06 08:08:13.314925+01 | 1486364893.31492 | 3/1AE6A48                |           12913109576

 2017-02-06 08:08:14.463815+01 | 1486364894.46381 | 3/1AE6A48                |           12913109576

 2017-02-06 08:08:15.614688+01 | 1486364895.61469 | 3/1AE6A48                |           12913109576

 2017-02-06 08:08:16.74024+01 | 1486364896.74024 | 3/1AE6A48                |           12913109576

 2017-02-06 08:08:17.87232+01 | 1486364897.87232 | 3/1AE6A48                |           12913109576

 2017-02-06 08:08:19.03177+01 | 1486364899.03177 | 3/1AE6A48                |           12913109576

 2017-02-06 08:08:20.200134+01 | 1486364900.20013 | 3/1AE6A48                |           12913109576

 2017-02-06 08:08:21.357925+01 | 1486364901.35792 | 3/1AE6A48                |           12913109576

 2017-02-06 08:08:22.497288+01 | 1486364902.49729 | 3/1AE6A48                |           12913109576

 2017-02-06 08:08:23.621947+01 | 1486364903.62195 | 3/1AE6A48                |           12913109576

 2017-02-06 08:08:24.760135+01 | 1486364904.76013 | 3/1AE6A48                |           12913109576

 2017-02-06 08:08:25.902427+01 | 1486364905.90243 | 3/1AE6A48                |           12913109576

 2017-02-06 08:08:27.048929+01 | 1486364907.04893 | 3/1AE6A48                |           12913109576

 2017-02-06 08:08:28.207001+01 | 1486364908.207 | 3/1AE6A48                |           12913109576

 2017-02-06 08:08:29.340085+01 | 1486364909.34009 | 3/1AE6A48                |           12913109576

 2017-02-06 08:08:30.482622+01 | 1486364910.48262 | 3/1AE6A48                |           12913109576

 2017-02-06 08:08:31.638315+01 | 1486364911.63831 | 3/1AE6A48                |           12913109576

 2017-02-06 08:08:32.767152+01 | 1486364912.76715 | 3/1AE6A48                |           12913109576

 2017-02-06 08:08:33.93591+01 | 1486364913.93591 | 3/1AE6A48                |           12913109576

 2017-02-06 08:08:35.081732+01 | 1486364915.08173 | 3/1AE6A48                |           12913109576

 2017-02-06 08:08:36.21624+01 | 1486364916.21624 | 3/1AE6A48                |           12913109576

 2017-02-06 08:08:37.359795+01 | 1486364917.3598 | 3/1AE6A48                |           12913109576

 2017-02-06 08:08:38.521632+01 | 1486364918.52163 | 3/1AE6A48                |           12913109576

 2017-02-06 08:08:39.65886+01 | 1486364919.65886 | 3/1AE6A48                |           12913109576

 2017-02-06 08:08:40.809836+01 | 1486364920.80984 | 3/1AE6A48                |           12913109576

 2017-02-06 08:08:41.940768+01 | 1486364921.94077 | 3/1AE6A48                |           12913109576

 2017-02-06 08:08:43.088881+01 | 1486364923.08888 | 3/1AE6A48                |           12913109576

 2017-02-06 08:08:44.231198+01 | 1486364924.2312 | 3/1AE6A48                |           12913109576

 2017-02-06 08:08:45.362831+01 | 1486364925.36283 | 3/1AE6A48                |           12913109576

 2017-02-06 08:08:46.500755+01 | 1486364926.50076 | 3/1AE6A48                |           12913109576

 2017-02-06 08:08:47.651867+01 | 1486364927.65187 | 3/1AE6A48                |           12913109576

 2017-02-06 08:08:48.801421+01 | 1486364928.80142 | 3/1AE6A48                |           12913109576

 2017-02-06 08:08:49.962072+01 | 1486364929.96207 | 3/1AE6A48                |           12913109576

 2017-02-06 08:08:51.087603+01 | 1486364931.0876 | 3/1AE6A48                |           12913109576

 2017-02-06 08:08:52.272125+01 | 1486364932.27213 | 3/1AE6A48                |           12913109576

 2017-02-06 08:08:53.4186+01 | 1486364933.4186 | 3/1AE6A48                |           12913109576

 2017-02-06 08:08:54.546905+01 | 1486364934.54691 | 3/1AE6A48                |           12913109576

 2017-02-06 08:08:55.690818+01 | 1486364935.69082 | 3/1AE6A48                |           12913109576

 2017-02-06 08:08:56.838064+01 | 1486364936.83806 | 3/1AE6A48                |           12913109576

 2017-02-06 08:08:57.966631+01 | 1486364937.96663 | 3/1AE6A48                |           12913109576

 2017-02-06 08:08:59.138756+01 | 1486364939.13876 | 3/1AE6A48                |           12913109576

 2017-02-06 08:09:00.301897+01 | 1486364940.3019 | 3/1AE6A48                |           12913109576

 2017-02-06 08:09:01.447239+01 | 1486364941.44724 | 3/1AE6A48                |           12913109576

 2017-02-06 08:09:02.618561+01 | 1486364942.61856 | 3/1AE6A48                |           12913109576

 2017-02-06 08:09:03.762876+01 | 1486364943.76288 | 3/1AE6A48                |           12913109576

 2017-02-06 08:09:04.920699+01 | 1486364944.9207 | 3/1AE6A48                |           12913109576

 2017-02-06 08:09:06.051721+01 | 1486364946.05172 | 3/1AE6A48                |           12913109576

 2017-02-06 08:09:07.20534+01 | 1486364947.20534 | 3/1AE6A48                |           12913109576

 2017-02-06 08:09:08.373718+01 | 1486364948.37372 | 3/1AE6A48                |           12913109576

 2017-02-06 08:09:09.533351+01 | 1486364949.53335 | 3/1AE6A48                |           12913109576

 2017-02-06 08:09:10.665906+01 | 1486364950.66591 | 3/1AE6A48                |           12913109576

 2017-02-06 08:09:11.82696+01 | 1486364951.82696 | 3/1AE6A48                |           12913109576

 2017-02-06 08:09:12.97414+01 | 1486364952.97414 | 3/1AE6A48                |           12913109576

 2017-02-06 08:09:14.153543+01 | 1486364954.15354 | 3/1AE6A48                |           12913109576

 2017-02-06 08:09:15.294871+01 | 1486364955.29487 | 3/1AE6A48                |           12913109576

 2017-02-06 08:09:16.444123+01 | 1486364956.44412 | 3/1AE6A48                |           12913109576

 2017-02-06 08:09:17.593722+01 | 1486364957.59372 | 3/1AE6A48                |           12913109576

 2017-02-06 08:09:18.745773+01 | 1486364958.74577 | 3/1AE6A48                |           12913109576

 2017-02-06 08:09:19.887281+01 | 1486364959.88728 | 3/1AE6A48                |           12913109576

 2017-02-06 08:09:21.039484+01 | 1486364961.03948 | 3/1AE6A48                |           12913109576

 2017-02-06 08:09:22.200168+01 | 1486364962.20017 | 3/1AE6A48                |           12913109576

 2017-02-06 08:09:23.36203+01 | 1486364963.36203 | 3/1AE6A48                |           12913109576

 2017-02-06 08:09:24.521748+01 | 1486364964.52175 | 3/1AE6A48                |           12913109576

 2017-02-06 08:09:25.661678+01 | 1486364965.66168 | 3/1AE6A48                |           12913109576

 2017-02-06 08:09:26.836+01 | 1486364966.836 | 3/1AE6A48                |           12913109576

 2017-02-06 08:09:28.001236+01 | 1486364968.00124 | 3/1AE6A48                |           12913109576

 2017-02-06 08:09:29.122816+01 | 1486364969.12282 | 3/1AE6A48                |           12913109576

 2017-02-06 08:09:30.267947+01 | 1486364970.26795 | 3/1AE6A48                |           12913109576

 2017-02-06 08:09:31.405535+01 | 1486364971.40553 | 3/1AE6A48                |           12913109576

 2017-02-06 08:09:32.568771+01 | 1486364972.56877 | 3/1AE6A48                |           12913109576

 2017-02-06 08:09:33.71029+01 | 1486364973.71029 | 3/1AE6A48                |           12913109576

 2017-02-06 08:09:34.851373+01 | 1486364974.85137 | 3/1AE6A48                |           12913109576

 2017-02-06 08:09:36.040251+01 | 1486364976.04025 | 3/1AE6A48                |           12913109576

 2017-02-06 08:09:37.190801+01 | 1486364977.1908 | 3/1AE6A48                |           12913109576

 2017-02-06 08:09:38.33841+01 | 1486364978.33841 | 3/1AE6A48                |           12913109576

 2017-02-06 08:09:39.47642+01 | 1486364979.47642 | 3/1AE6A48                |           12913109576

 2017-02-06 08:09:40.626876+01 | 1486364980.62688 | 3/1AE6A48                |           12913109576

 2017-02-06 08:09:41.767601+01 | 1486364981.7676 | 3/1AE6A48                |           12913109576

 2017-02-06 08:09:42.931928+01 | 1486364982.93193 | 3/1AE6A48                |           12913109576

 2017-02-06 08:09:44.081707+01 | 1486364984.08171 | 3/1AE6A48                |           12913109576

 2017-02-06 08:09:45.227611+01 | 1486364985.22761 | 3/1AE6A48                |           12913109576

 2017-02-06 08:09:46.366081+01 | 1486364986.36608 | 3/1AE6A48                |           12913109576

 2017-02-06 08:09:47.497997+01 | 1486364987.498 | 3/1AE6A48                |           12913109576

 2017-02-06 08:09:48.649203+01 | 1486364988.6492 | 3/1AE6A48                |           12913109576

 2017-02-06 08:09:49.796814+01 | 1486364989.79681 | 3/1AE6A48                |           12913109576

 2017-02-06 08:09:50.971559+01 | 1486364990.97156 | 3/1AE6A48                |           12913109576

 2017-02-06 08:09:52.103944+01 | 1486364992.10394 | 3/1AE6A48                |           12913109576

 2017-02-06 08:09:53.293118+01 | 1486364993.29312 | 3/1AE6A48                |           12913109576

 2017-02-06 08:09:54.445587+01 | 1486364994.44559 | 3/1AE6A48                |           12913109576

 2017-02-06 08:09:55.591614+01 | 1486364995.59161 | 3/1AE6A48                |           12913109576

 2017-02-06 08:09:56.723144+01 | 1486364996.72314 | 3/1AE6A48                |           12913109576

 2017-02-06 08:09:57.838206+01 | 1486364997.83821 | 3/1AE6A48                |           12913109576

 2017-02-06 08:09:58.973519+01 | 1486364998.97352 | 3/1AE6A48                |           12913109576

 2017-02-06 08:10:00.108541+01 | 1486365000.10854 | 3/1AE6A48                |           12913109576

 2017-02-06 08:10:01.2794+01 | 1486365001.2794 | 3/1AE6A48                |           12913109576

 2017-02-06 08:10:02.432831+01 | 1486365002.43283 | 3/1AE6A48                |           12913109576

 2017-02-06 08:10:03.574508+01 | 1486365003.57451 | 3/1AE6A48                |           12913109576

 2017-02-06 08:10:04.735152+01 | 1486365004.73515 | 3/1AE6A48                |           12913109576

 2017-02-06 08:10:05.872465+01 | 1486365005.87246 | 3/1AE6A48                |           12913109576

 2017-02-06 08:10:07.001318+01 | 1486365007.00132 | 3/1AE6A48                |           12913109576

 2017-02-06 08:10:08.161686+01 | 1486365008.16169 | 3/1AE6A48                |           12913109576

 2017-02-06 08:10:09.271052+01 | 1486365009.27105 | 3/1AE6A48                |           12913109576

 2017-02-06 08:10:10.423155+01 | 1486365010.42316 | 3/1AE6A48                |           12913109576

 2017-02-06 08:10:11.59382+01 | 1486365011.59382 | 3/1AE6A48                |           12913109576

 2017-02-06 08:10:12.77173+01 | 1486365012.77173 | 3/1AE6A48                |           12913109576

 2017-02-06 08:10:13.912781+01 | 1486365013.91278 | 3/1AE6A48                |           12913109576

 2017-02-06 08:10:15.056205+01 | 1486365015.05621 | 3/1AE6A48                |           12913109576

 2017-02-06 08:10:16.190212+01 | 1486365016.19021 | 3/1AE6A48                |           12913109576

 2017-02-06 08:10:17.325933+01 | 1486365017.32593 | 3/1AE6A48                |           12913109576

 2017-02-06 08:10:18.472959+01 | 1486365018.47296 | 3/1AE6A48                |           12913109576

 2017-02-06 08:10:19.621662+01 | 1486365019.62166 | 3/1AE6A48                |           12913109576

 2017-02-06 08:10:20.754006+01 | 1486365020.75401 | 3/1AE6A48                |           12913109576

 2017-02-06 08:10:21.915555+01 | 1486365021.91556 | 3/1AE6A48                |           12913109576

 2017-02-06 08:10:23.063788+01 | 1486365023.06379 | 3/1AE6A48                |           12913109576

 2017-02-06 08:10:24.21768+01 | 1486365024.21768 | 3/1AE6A48                |           12913109576

 2017-02-06 08:10:25.379659+01 | 1486365025.37966 | 3/1AE6A48                |           12913109576

 2017-02-06 08:10:26.536056+01 | 1486365026.53606 | 3/1AE6A48                |           12913109576

 2017-02-06 08:10:27.670928+01 | 1486365027.67093 | 3/1AE6A48                |           12913109576

 2017-02-06 08:10:28.806792+01 | 1486365028.80679 | 3/1AE6A48                |           12913109576

 2017-02-06 08:10:29.957071+01 | 1486365029.95707 | 3/1AE6A48                |           12913109576

 2017-02-06 08:10:31.102716+01 | 1486365031.10272 | 3/1AE6A48                |           12913109576

 2017-02-06 08:10:32.246662+01 | 1486365032.24666 | 3/1AE6A48                |           12913109576

 2017-02-06 08:10:33.395359+01 | 1486365033.39536 | 3/1AE6A48                |           12913109576

 2017-02-06 08:10:34.553154+01 | 1486365034.55315 | 3/1AE6A48                |           12913109576

 2017-02-06 08:10:35.733246+01 | 1486365035.73325 | 3/1AE6A48                |           12913109576

 2017-02-06 08:10:36.911878+01 | 1486365036.91188 | 3/1AE6A48                |           12913109576

 2017-02-06 08:10:38.065424+01 | 1486365038.06542 | 3/1AE6A48                |           12913109576

 2017-02-06 08:10:39.199302+01 | 1486365039.1993 | 3/1AE6A48                |           12913109576

 2017-02-06 08:10:40.347276+01 | 1486365040.34728 | 3/1AE6A48                |           12913109576

 2017-02-06 08:10:41.491756+01 | 1486365041.49176 | 3/1AE6A48                |           12913109576

 2017-02-06 08:10:42.659665+01 | 1486365042.65967 | 3/1AE6A48                |           12913109576

 2017-02-06 08:10:43.805887+01 | 1486365043.80589 | 3/1AE6A48                |           12913109576

 2017-02-06 08:10:44.962245+01 | 1486365044.96224 | 3/1AE6A48                |           12913109576

 2017-02-06 08:10:46.096075+01 | 1486365046.09608 | 3/1AE6A48                |           12913109576

 2017-02-06 08:10:47.237898+01 | 1486365047.2379 | 3/1AE6A48                |           12913109576

 2017-02-06 08:10:48.419535+01 | 1486365048.41953 | 3/1AE6A48                |           12913109576

 2017-02-06 08:10:49.581123+01 | 1486365049.58112 | 3/1AE6A48                |           12913109576

 2017-02-06 08:10:50.726599+01 | 1486365050.7266 | 3/1AE6A48                |           12913109576

 2017-02-06 08:10:51.885212+01 | 1486365051.88521 | 3/1AE6A48                |           12913109576

 2017-02-06 08:10:53.030343+01 | 1486365053.03034 | 3/1AE6A48                |           12913109576

 2017-02-06 08:10:54.162528+01 | 1486365054.16253 | 3/1AE6A48                |           12913109576

 2017-02-06 08:10:55.319013+01 | 1486365055.31901 | 3/1AE6A48                |           12913109576

 2017-02-06 08:10:56.447906+01 | 1486365056.44791 | 3/1AE6A48                |           12913109576

 2017-02-06 08:10:57.611268+01 | 1486365057.61127 | 3/1AE6A48                |           12913109576

 2017-02-06 08:10:58.773851+01 | 1486365058.77385 | 3/1AE6A48                |           12913109576

 2017-02-06 08:10:59.912493+01 | 1486365059.91249 | 3/1AE6A48                |           12913109576

 2017-02-06 08:11:01.078455+01 | 1486365061.07845 | 3/1AE6A48                |           12913109576

 2017-02-06 08:11:02.220144+01 | 1486365062.22014 | 3/1AE6A48                |           12913109576

 2017-02-06 08:11:03.362982+01 | 1486365063.36298 | 3/1AE6A48                |           12913109576

 2017-02-06 08:11:04.498302+01 | 1486365064.4983 | 3/1AE6A48                |           12913109576

 2017-02-06 08:11:05.639522+01 | 1486365065.63952 | 3/1AE6A48                |           12913109576

 2017-02-06 08:11:06.79698+01 | 1486365066.79698 | 3/1AE6A48                |           12913109576

 2017-02-06 08:11:07.972945+01 | 1486365067.97294 | 3/1AE6A48                |           12913109576

 2017-02-06 08:11:09.109334+01 | 1486365069.10933 | 3/1AE6A48                |           12913109576

 2017-02-06 08:11:10.290752+01 | 1486365070.29075 | 3/1AE6A48                |           12913109576

 2017-02-06 08:11:11.445839+01 | 1486365071.44584 | 3/1AE6A48                |           12913109576

 2017-02-06 08:11:12.596699+01 | 1486365072.5967 | 3/1AE6A48                |           12913109576

 2017-02-06 08:11:13.727005+01 | 1486365073.72701 | 3/1AE6A48                |           12913109576

 2017-02-06 08:11:14.904123+01 | 1486365074.90412 | 3/1AE6A48                |           12913109576

 2017-02-06 08:11:16.062875+01 | 1486365076.06288 | 3/1AE6A48                |           12913109576

 2017-02-06 08:11:17.21166+01 | 1486365077.21166 | 3/1AE6A48                |           12913109576

 2017-02-06 08:11:18.356591+01 | 1486365078.35659 | 3/1AE6A48                |           12913109576

 2017-02-06 08:11:19.506795+01 | 1486365079.50679 | 3/1AE6A48                |           12913109576

 2017-02-06 08:11:20.662523+01 | 1486365080.66252 | 3/1AE6A48                |           12913109576

 2017-02-06 08:11:21.803611+01 | 1486365081.80361 | 3/1AE6A48                |           12913109576

 2017-02-06 08:11:22.955779+01 | 1486365082.95578 | 3/1AE6A48                |           12913109576

 2017-02-06 08:11:24.109017+01 | 1486365084.10902 | 3/1AE6A48                |           12913109576

 2017-02-06 08:11:25.241839+01 | 1486365085.24184 | 3/1AE6A48                |           12913109576

 2017-02-06 08:11:26.372152+01 | 1486365086.37215 | 3/1AE6A48                |           12913109576

 2017-02-06 08:11:27.514571+01 | 1486365087.51457 | 3/1AE6A48                |           12913109576

 2017-02-06 08:11:28.689401+01 | 1486365088.6894 | 3/1AE6A48                |           12913109576

 2017-02-06 08:11:29.839776+01 | 1486365089.83978 | 3/1AE6A48                |           12913109576

 2017-02-06 08:11:30.988871+01 | 1486365090.98887 | 3/1AE6A48                |           12913109576

 2017-02-06 08:11:32.166207+01 | 1486365092.16621 | 3/1AE6A48                |           12913109576

 2017-02-06 08:11:33.342067+01 | 1486365093.34207 | 3/1AE6A48                |           12913109576

 2017-02-06 08:11:34.492926+01 | 1486365094.49293 | 3/1AE6A48                |           12913109576

 2017-02-06 08:11:35.628529+01 | 1486365095.62853 | 3/1AE6A48                |           12913109576

 2017-02-06 08:11:36.766536+01 | 1486365096.76654 | 3/1AE6A48                |           12913109576

 2017-02-06 08:11:37.918351+01 | 1486365097.91835 | 3/1AE6A48                |           12913109576

 2017-02-06 08:11:39.060417+01 | 1486365099.06042 | 3/1AE6A48                |           12913109576

 2017-02-06 08:11:40.217635+01 | 1486365100.21763 | 3/1AE6A48                |           12913109576

 2017-02-06 08:11:41.354248+01 | 1486365101.35425 | 3/1AE6A48                |           12913109576

