 2017-02-05 04:35:39.298145+01 | 1486265739.29815 | 0/FAFE1FF0               |            4210958320

 2017-02-05 04:35:40.377836+01 | 1486265740.37784 | 1/2354820                |            4332013600

 2017-02-05 04:35:41.46774+01 | 1486265741.46774 | 1/87D0828                |            4437379112

 2017-02-05 04:35:42.550022+01 | 1486265742.55002 | 1/DDDC0D8                |            4527603928

 2017-02-05 04:35:43.627778+01 | 1486265743.62778 | 1/128C6D28               |            4606160168

 2017-02-05 04:35:44.709086+01 | 1486265744.70909 | 1/16B49FF0               |            4675903472

 2017-02-05 04:35:45.795407+01 | 1486265745.79541 | 1/1A96CD10               |            4741057808

 2017-02-05 04:35:46.892199+01 | 1486265746.8922 | 1/1E28AC80               |            4800949376

 2017-02-05 04:35:47.980482+01 | 1486265747.98048 | 1/21926850               |            4858210384

 2017-02-05 04:35:49.057476+01 | 1486265749.05748 | 1/249C3350               |            4909183824

 2017-02-05 04:35:50.140631+01 | 1486265750.14063 | 1/27BA53F8               |            4961489912

 2017-02-05 04:35:51.22453+01 | 1486265751.22453 | 1/2A8B1FC0               |            5008728000

 2017-02-05 04:35:52.302155+01 | 1486265752.30216 | 1/2CFFE730               |            5049935664

 2017-02-05 04:35:53.374157+01 | 1486265753.37416 | 1/2F4E7998               |            5088639384

 2017-02-05 04:35:54.45628+01 | 1486265754.45628 | 1/318D41D0               |            5126308304

 2017-02-05 04:35:55.544096+01 | 1486265755.5441 | 1/33955070               |            5160390768

 2017-02-05 04:35:56.627738+01 | 1486265756.62774 | 1/35B82590               |            5196227984

 2017-02-05 04:35:57.707902+01 | 1486265757.7079 | 1/38AB4C40               |            5245717568

 2017-02-05 04:35:58.786604+01 | 1486265758.7866 | 1/3B8B22C0               |            5293941440

 2017-02-05 04:35:59.868527+01 | 1486265759.86853 | 1/3E5D7A80               |            5341280896

 2017-02-05 04:36:00.956971+01 | 1486265760.95697 | 1/4141F008               |            5389807624

 2017-02-05 04:36:02.034071+01 | 1486265762.03407 | 1/43FFE568               |            5435811176

 2017-02-05 04:36:03.12207+01 | 1486265763.12207 | 1/46E47508               |            5484344584

 2017-02-05 04:36:04.199685+01 | 1486265764.19969 | 1/4957CB28               |            5525457704

 2017-02-05 04:36:05.275682+01 | 1486265765.27568 | 1/4B700000               |            5560598528

 2017-02-05 04:36:06.356624+01 | 1486265766.35662 | 1/4D60B568               |            5593150824

 2017-02-05 04:36:07.431098+01 | 1486265767.4311 | 1/4F3E5020               |            5624451104

 2017-02-05 04:36:08.50397+01 | 1486265768.50397 | 1/50FB6AE0               |            5653621472

 2017-02-05 04:36:09.586334+01 | 1486265769.58633 | 1/52932438               |            5680342072

 2017-02-05 04:36:10.660548+01 | 1486265770.66055 | 1/54047D68               |            5704547688

 2017-02-05 04:36:11.747523+01 | 1486265771.74752 | 1/55694080               |            5727928448

 2017-02-05 04:36:12.826126+01 | 1486265772.82613 | 1/56ABFC20               |            5749079072

 2017-02-05 04:36:13.902055+01 | 1486265773.90206 | 1/57E34130               |            5769478448

 2017-02-05 04:36:14.98663+01 | 1486265774.98663 | 1/58F024B8               |            5787100344

 2017-02-05 04:36:16.061442+01 | 1486265776.06144 | 1/59F5B468               |            5804242024

 2017-02-05 04:36:17.135448+01 | 1486265777.13545 | 1/5AC9FC80               |            5818154112

 2017-02-05 04:36:18.210205+01 | 1486265778.21021 | 1/5B360988               |            5825235336

 2017-02-05 04:36:19.291356+01 | 1486265779.29136 | 1/5B7D2D28               |            5829897512

 2017-02-05 04:36:20.378677+01 | 1486265780.37868 | 1/5BBF83A0               |            5834245024

 2017-02-05 04:36:21.447147+01 | 1486265781.44715 | 1/5BFFF1F8               |            5838467576

 2017-02-05 04:36:22.52097+01 | 1486265782.52097 | 1/5C379B50               |            5842115408

 2017-02-05 04:36:23.592762+01 | 1486265783.59276 | 1/5C73ABA8               |            5846051752

 2017-02-05 04:36:24.665717+01 | 1486265784.66572 | 1/5CADAAF8               |            5849852664

 2017-02-05 04:36:25.747005+01 | 1486265785.747 | 1/5CE4B658               |            5853460056

 2017-02-05 04:36:26.8304+01 | 1486265786.8304 | 1/5D195AA8               |            5856909992

 2017-02-05 04:36:27.915385+01 | 1486265787.91539 | 1/5D4E7640               |            5860390464

 2017-02-05 04:36:28.998727+01 | 1486265788.99873 | 1/5D7F4000               |            5863587840

 2017-02-05 04:36:30.095773+01 | 1486265790.09577 | 1/5DAEDA10               |            5866707472

 2017-02-05 04:36:31.165433+01 | 1486265791.16543 | 1/5DE0D3B0               |            5869982640

 2017-02-05 04:36:32.243978+01 | 1486265792.24398 | 1/5E100CE0               |            5873077472

 2017-02-05 04:36:33.331928+01 | 1486265793.33193 | 1/5E3F0998               |            5876156824

 2017-02-05 04:36:34.415655+01 | 1486265794.41565 | 1/5E71C2B8               |            5879481016

 2017-02-05 04:36:35.491272+01 | 1486265795.49127 | 1/5E9F0FE8               |            5882449896

 2017-02-05 04:36:36.570353+01 | 1486265796.57035 | 1/5ECE3058               |            5885538392

 2017-02-05 04:36:37.652107+01 | 1486265797.65211 | 1/5EFC0C18               |            5888543768

 2017-02-05 04:36:38.730371+01 | 1486265798.73037 | 1/5F26EA78               |            5891353208

 2017-02-05 04:36:39.804753+01 | 1486265799.80475 | 1/5F533070               |            5894254704

 2017-02-05 04:36:40.886493+01 | 1486265800.88649 | 1/5F808650               |            5897225808

 2017-02-05 04:36:41.966516+01 | 1486265801.96652 | 1/5FA91898               |            5899884696

 2017-02-05 04:36:43.042687+01 | 1486265803.04269 | 1/5FD1CAD0               |            5902551760

 2017-02-05 04:36:44.131417+01 | 1486265804.13142 | 1/5FFB2D88               |            5905264008

 2017-02-05 04:36:45.211768+01 | 1486265805.21177 | 1/60229A58               |            5907847768

 2017-02-05 04:36:46.290926+01 | 1486265806.29093 | 1/604A7948               |            5910460744

 2017-02-05 04:36:47.366537+01 | 1486265807.36654 | 1/607190C8               |            5913022664

 2017-02-05 04:36:48.453431+01 | 1486265808.45343 | 1/60993450               |            5915620432

 2017-02-05 04:36:49.534149+01 | 1486265809.53415 | 1/60BFEE10               |            5918158352

 2017-02-05 04:36:50.612815+01 | 1486265810.61281 | 1/60E69C70               |            5920693360

 2017-02-05 04:36:51.693889+01 | 1486265811.69389 | 1/610BC2F0               |            5923128048

 2017-02-05 04:36:52.773363+01 | 1486265812.77336 | 1/61313CF8               |            5925584120

 2017-02-05 04:36:53.849221+01 | 1486265813.84922 | 1/6159F7D0               |            5928253392

 2017-02-05 04:36:54.922726+01 | 1486265814.92273 | 1/61808A78               |            5930781304

 2017-02-05 04:36:56.005259+01 | 1486265816.00526 | 1/61A54C20               |            5933190176

 2017-02-05 04:36:57.088383+01 | 1486265817.08838 | 1/61CC4560               |            5935744352

 2017-02-05 04:36:58.168788+01 | 1486265818.16879 | 1/61F31E68               |            5938290280

 2017-02-05 04:36:59.249542+01 | 1486265819.24954 | 1/6217AE38               |            5940686392

 2017-02-05 04:37:00.331041+01 | 1486265820.33104 | 1/623CF8E0               |            5943130336

 2017-02-05 04:37:01.403516+01 | 1486265821.40352 | 1/62618E10               |            5945527824

 2017-02-05 04:37:02.484751+01 | 1486265822.48475 | 1/62873950               |            5947996496

 2017-02-05 04:37:03.561803+01 | 1486265823.5618 | 1/62AB95C8               |            5950379464

 2017-02-05 04:37:04.63848+01 | 1486265824.63848 | 1/62D08190               |            5952799120

 2017-02-05 04:37:05.72146+01 | 1486265825.72146 | 1/62F5EDE8               |            5955251688

 2017-02-05 04:37:06.796992+01 | 1486265826.79699 | 1/631B6608               |            5957707272

 2017-02-05 04:37:07.86644+01 | 1486265827.86644 | 1/633E45A0               |            5959992736

 2017-02-05 04:37:08.952914+01 | 1486265828.95291 | 1/63639D78               |            5962440056

 2017-02-05 04:37:10.033756+01 | 1486265830.03376 | 1/638767E0               |            5964785632

 2017-02-05 04:37:11.112728+01 | 1486265831.11273 | 1/63AA9AE8               |            5967092456

 2017-02-05 04:37:12.198776+01 | 1486265832.19878 | 1/63CF9F78               |            5969518456

 2017-02-05 04:37:13.275894+01 | 1486265833.27589 | 1/63F28218               |            5971804696

 2017-02-05 04:37:14.35302+01 | 1486265834.35302 | 1/64163BE0               |            5974146016

 2017-02-05 04:37:15.434257+01 | 1486265835.43426 | 1/643AB4A0               |            5976536224

 2017-02-05 04:37:16.508599+01 | 1486265836.5086 | 1/645E3530               |            5978862896

 2017-02-05 04:37:17.573745+01 | 1486265837.57375 | 1/648122B8               |            5981151928

 2017-02-05 04:37:18.647424+01 | 1486265838.64742 | 1/64A61360               |            5983572832

 2017-02-05 04:37:19.727725+01 | 1486265839.72773 | 1/64C99BA8               |            5985901480

 2017-02-05 04:37:20.806562+01 | 1486265840.80656 | 1/64EE0538               |            5988287800

 2017-02-05 04:37:21.88058+01 | 1486265841.88058 | 1/65100F68               |            5990518632

 2017-02-05 04:37:22.967101+01 | 1486265842.9671 | 1/653421B0               |            5992882608

 2017-02-05 04:37:24.053246+01 | 1486265844.05325 | 1/6558F690               |            5995296400

 2017-02-05 04:37:25.128967+01 | 1486265845.12897 | 1/657DA6B0               |            5997700784

 2017-02-05 04:37:26.209154+01 | 1486265846.20915 | 1/65A05D78               |            5999975800

 2017-02-05 04:37:27.282268+01 | 1486265847.28227 | 1/65C53D20               |            6002392352

 2017-02-05 04:37:28.356358+01 | 1486265848.35636 | 1/65E74FC8               |            6004625352

 2017-02-05 04:37:29.437422+01 | 1486265849.43742 | 1/660A26A8               |            6006908584

 2017-02-05 04:37:30.516403+01 | 1486265850.5164 | 1/662D7150               |            6009221456

 2017-02-05 04:37:31.596976+01 | 1486265851.59698 | 1/664F85F8               |            6011454968

 2017-02-05 04:37:32.66595+01 | 1486265852.66595 | 1/6672DB68               |            6013770600

 2017-02-05 04:37:33.735683+01 | 1486265853.73568 | 1/66963180               |            6016086400

 2017-02-05 04:37:34.807026+01 | 1486265854.80703 | 1/66BA0050               |            6018433104

 2017-02-05 04:37:35.885993+01 | 1486265855.88599 | 1/66DCEA20               |            6020721184

 2017-02-05 04:37:36.961851+01 | 1486265856.96185 | 1/66FFFFE8               |            6023020520

 2017-02-05 04:37:38.037834+01 | 1486265858.03783 | 1/67216920               |            6025210144

 2017-02-05 04:37:39.120145+01 | 1486265859.12015 | 1/6743E5D8               |            6027470296

 2017-02-05 04:37:40.179627+01 | 1486265860.17963 | 1/67656800               |            6029666304

 2017-02-05 04:37:41.258812+01 | 1486265861.25881 | 1/6788AC58               |            6031977560

 2017-02-05 04:37:42.330293+01 | 1486265862.33029 | 1/67ABA5D8               |            6034269656

 2017-02-05 04:37:43.410836+01 | 1486265863.41084 | 1/67CE0A70               |            6036523632

 2017-02-05 04:37:44.490875+01 | 1486265864.49088 | 1/67F0BE00               |            6038797824

 2017-02-05 04:37:45.567921+01 | 1486265865.56792 | 1/6811E898               |            6040971416

 2017-02-05 04:37:46.650686+01 | 1486265866.65069 | 1/683372E8               |            6043169512

 2017-02-05 04:37:47.72699+01 | 1486265867.72699 | 1/68559B48               |            6045408072

 2017-02-05 04:37:48.795799+01 | 1486265868.7958 | 1/687791C8               |            6047633864

 2017-02-05 04:37:49.867545+01 | 1486265869.86754 | 1/689A4510               |            6049907984

 2017-02-05 04:37:50.951834+01 | 1486265870.95183 | 1/68BD0AD8               |            6052186840

 2017-02-05 04:37:52.028633+01 | 1486265872.02863 | 1/68DFC2F0               |            6054462192

 2017-02-05 04:37:53.105337+01 | 1486265873.10534 | 1/690086F0               |            6056609520

 2017-02-05 04:37:54.183458+01 | 1486265874.18346 | 1/692152E0               |            6058758880

 2017-02-05 04:37:55.267929+01 | 1486265875.26793 | 1/6943EB80               |            6061026176

 2017-02-05 04:37:56.340594+01 | 1486265876.34059 | 1/6965D790               |            6063249296

 2017-02-05 04:37:57.416267+01 | 1486265877.41627 | 1/6988EDB0               |            6065548720

 2017-02-05 04:37:58.498919+01 | 1486265878.49892 | 1/69AC0000               |            6067847168

 2017-02-05 04:37:59.581807+01 | 1486265879.58181 | 1/69CEFC50               |            6070139984

 2017-02-05 04:38:00.669018+01 | 1486265880.66902 | 1/69F1AC88               |            6072413320

 2017-02-05 04:38:01.752484+01 | 1486265881.75248 | 1/6A12FB88               |            6074596232

 2017-02-05 04:38:02.835822+01 | 1486265882.83582 | 1/6A35D068               |            6076878952

 2017-02-05 04:38:03.91176+01 | 1486265883.91176 | 1/6A577308               |            6079083272

 2017-02-05 04:38:04.991017+01 | 1486265884.99102 | 1/6A795ED0               |            6081306320

 2017-02-05 04:38:06.066557+01 | 1486265886.06656 | 1/6A9C7E78               |            6083608184

 2017-02-05 04:38:07.152159+01 | 1486265887.15216 | 1/6ABE4470               |            6085821552

 2017-02-05 04:38:08.243727+01 | 1486265888.24373 | 1/6AE07DC8               |            6088064456

 2017-02-05 04:38:09.325727+01 | 1486265889.32573 | 1/6B025580               |            6090282368

 2017-02-05 04:38:10.406059+01 | 1486265890.40606 | 1/6B240AE8               |            6092491496

 2017-02-05 04:38:11.494476+01 | 1486265891.49448 | 1/6B466508               |            6094742792

 2017-02-05 04:38:12.575623+01 | 1486265892.57562 | 1/6B67EC58               |            6096940120

 2017-02-05 04:38:13.653942+01 | 1486265893.65394 | 1/6B88F1E0               |            6099104224

 2017-02-05 04:38:14.73779+01 | 1486265894.73779 | 1/6BAA5A80               |            6101293696

 2017-02-05 04:38:15.827985+01 | 1486265895.82799 | 1/6BCBCFC0               |            6103486400

 2017-02-05 04:38:16.906109+01 | 1486265896.90611 | 1/6BED7580               |            6105691520

 2017-02-05 04:38:17.992267+01 | 1486265897.99227 | 1/6C0CF408               |            6107755528

 2017-02-05 04:38:19.070879+01 | 1486265899.07088 | 1/6C2C6DF8               |            6109818360

 2017-02-05 04:38:20.148066+01 | 1486265900.14807 | 1/6C49EC18               |            6111751192

 2017-02-05 04:38:21.230853+01 | 1486265901.23085 | 1/6C68DD00               |            6113778944

 2017-02-05 04:38:22.30898+01 | 1486265902.30898 | 1/6C8735A0               |            6115767712

 2017-02-05 04:38:23.386395+01 | 1486265903.38639 | 1/6CA672F8               |            6117815032

 2017-02-05 04:38:24.461688+01 | 1486265904.46169 | 1/6CC4C248               |            6119801416

 2017-02-05 04:38:25.530446+01 | 1486265905.53045 | 1/6CE37B40               |            6121814848

 2017-02-05 04:38:26.60713+01 | 1486265906.60713 | 1/6D00CB58               |            6123735896

 2017-02-05 04:38:27.690283+01 | 1486265907.69028 | 1/6D1F9E20               |            6125755936

 2017-02-05 04:38:28.768514+01 | 1486265908.76851 | 1/6D3E4628               |            6127765032

 2017-02-05 04:38:29.849229+01 | 1486265909.84923 | 1/6D5B0EB8               |            6129651384

 2017-02-05 04:38:30.930426+01 | 1486265910.93043 | 1/6D774E78               |            6131502712

 2017-02-05 04:38:32.012564+01 | 1486265912.01256 | 1/6D930838               |            6133319736

 2017-02-05 04:38:33.088481+01 | 1486265913.08848 | 1/6DAC6460               |            6134981728

 2017-02-05 04:38:34.174736+01 | 1486265914.17474 | 1/6DC72E80               |            6136737408

 2017-02-05 04:38:35.239017+01 | 1486265915.23902 | 1/6DE5BB10               |            6138739472

 2017-02-05 04:38:36.312205+01 | 1486265916.31221 | 1/6E061F68               |            6140862576

 2017-02-05 04:38:37.385824+01 | 1486265917.38582 | 1/6E28F548               |            6143145288

 2017-02-05 04:38:38.465261+01 | 1486265918.46526 | 1/6E4BBF20               |            6145425184

 2017-02-05 04:38:39.542798+01 | 1486265919.5428 | 1/6E6EDE88               |            6147726984

 2017-02-05 04:38:40.60729+01 | 1486265920.60729 | 1/6E8F4B00               |            6149851904

 2017-02-05 04:38:41.681812+01 | 1486265921.68181 | 1/6EB33478               |            6152205432

 2017-02-05 04:38:42.767154+01 | 1486265922.76715 | 1/6ED53A08               |            6154435080

 2017-02-05 04:38:43.852682+01 | 1486265923.85268 | 1/6EF8EC08               |            6156774408

 2017-02-05 04:38:44.921+01 | 1486265924.921 | 1/6F1AE998               |            6159002008

 2017-02-05 04:38:46.010004+01 | 1486265926.01 | 1/6F3E1AE8               |            6161308392

 2017-02-05 04:38:47.094134+01 | 1486265927.09413 | 1/6F61E270               |            6163653232

 2017-02-05 04:38:48.165262+01 | 1486265928.16526 | 1/6F8425E0               |            6165898720

 2017-02-05 04:38:49.244748+01 | 1486265929.24475 | 1/6FA76A30               |            6168209968

 2017-02-05 04:38:50.318363+01 | 1486265930.31836 | 1/6FC99B90               |            6170450832

 2017-02-05 04:38:51.396622+01 | 1486265931.39662 | 1/6FEB9008               |            6172676104

 2017-02-05 04:38:52.466153+01 | 1486265932.46615 | 1/700C89E0               |            6174837216

 2017-02-05 04:38:53.540597+01 | 1486265933.5406 | 1/702EC040               |            6177079360

 2017-02-05 04:38:54.633415+01 | 1486265934.63341 | 1/7052CCF0               |            6179441904

 2017-02-05 04:38:55.721243+01 | 1486265935.72124 | 1/70755250               |            6181704272

 2017-02-05 04:38:56.796956+01 | 1486265936.79696 | 1/70972470               |            6183920752

 2017-02-05 04:38:57.87151+01 | 1486265937.87151 | 1/70B8B410               |            6186120208

 2017-02-05 04:38:58.954381+01 | 1486265938.95438 | 1/70DAF4C8               |            6188365000

 2017-02-05 04:39:00.02635+01 | 1486265940.02635 | 1/70FC8130               |            6190563632

 2017-02-05 04:39:01.098064+01 | 1486265941.09806 | 1/711DC980               |            6192744832

 2017-02-05 04:39:02.174927+01 | 1486265942.17493 | 1/71400C88               |            6194990216

 2017-02-05 04:39:03.244236+01 | 1486265943.24424 | 1/71621AE0               |            6197222112

 2017-02-05 04:39:04.330801+01 | 1486265944.3308 | 1/718477C8               |            6199474120

 2017-02-05 04:39:05.405543+01 | 1486265945.40554 | 1/71A5DF70               |            6201663344

 2017-02-05 04:39:06.476961+01 | 1486265946.47696 | 1/71C56FA0               |            6203731872

 2017-02-05 04:39:07.559682+01 | 1486265947.55968 | 1/71E4F8F0               |            6205798640

 2017-02-05 04:39:08.631918+01 | 1486265948.63192 | 1/72030480               |            6207767680

 2017-02-05 04:39:09.719258+01 | 1486265949.71926 | 1/722323B0               |            6209872816

 2017-02-05 04:39:10.787962+01 | 1486265950.78796 | 1/7241F0F0               |            6211891440

 2017-02-05 04:39:11.870879+01 | 1486265951.87088 | 1/72618B48               |            6213962568

 2017-02-05 04:39:12.943414+01 | 1486265952.94341 | 1/7280E520               |            6216017184

 2017-02-05 04:39:14.021012+01 | 1486265954.02101 | 1/72A06998               |            6218082712

 2017-02-05 04:39:15.087006+01 | 1486265955.08701 | 1/72BF0ED8               |            6220091096

 2017-02-05 04:39:16.15962+01 | 1486265956.15962 | 1/72DE9410               |            6222156816

 2017-02-05 04:39:17.228809+01 | 1486265957.22881 | 1/72FDD168               |            6224204136

 2017-02-05 04:39:18.313768+01 | 1486265958.31377 | 1/731D24C8               |            6226257096

 2017-02-05 04:39:19.39058+01 | 1486265959.39058 | 1/733C4D20               |            6228299040

 2017-02-05 04:39:20.46816+01 | 1486265960.46816 | 1/735B10F0               |            6230315248

 2017-02-05 04:39:21.54904+01 | 1486265961.54904 | 1/7378EF10               |            6232272656

 2017-02-05 04:39:22.62282+01 | 1486265962.62282 | 1/73942F40               |            6234058560

 2017-02-05 04:39:23.706671+01 | 1486265963.70667 | 1/73AF0E48               |            6235819592

 2017-02-05 04:39:24.785776+01 | 1486265964.78578 | 1/73CFA3D0               |            6237955024

 2017-02-05 04:39:25.864639+01 | 1486265965.86464 | 1/73F203F0               |            6240207856

 2017-02-05 04:39:26.944935+01 | 1486265966.94494 | 1/74145A78               |            6242458232

 2017-02-05 04:39:28.030708+01 | 1486265968.03071 | 1/743772D8               |            6244758232

 2017-02-05 04:39:29.107215+01 | 1486265969.10721 | 1/745ACEC8               |            6247075528

 2017-02-05 04:39:30.178877+01 | 1486265970.17888 | 1/747DCBA0               |            6249368480

 2017-02-05 04:39:31.258558+01 | 1486265971.25856 | 1/74A1CC78               |            6251727992

 2017-02-05 04:39:32.330824+01 | 1486265972.33082 | 1/74C4DD40               |            6254026048

 2017-02-05 04:39:33.416292+01 | 1486265973.41629 | 1/74E825D8               |            6256338392

 2017-02-05 04:39:34.497002+01 | 1486265974.497 | 1/750AF858               |            6258620504

 2017-02-05 04:39:35.568336+01 | 1486265975.56834 | 1/752CDBE8               |            6260841448

 2017-02-05 04:39:36.652093+01 | 1486265976.65209 | 1/75504000               |            6263160832

 2017-02-05 04:39:37.729898+01 | 1486265977.7299 | 1/757466F8               |            6265530104

 2017-02-05 04:39:38.816537+01 | 1486265978.81654 | 1/75980348               |            6267863880

 2017-02-05 04:39:39.89647+01 | 1486265979.89647 | 1/75C09D68               |            6270524776

 2017-02-05 04:39:40.974413+01 | 1486265980.97441 | 1/75E862D0               |            6273131216

 2017-02-05 04:39:42.063881+01 | 1486265982.06388 | 1/7610FEA8               |            6275792552

 2017-02-05 04:39:43.146733+01 | 1486265983.14673 | 1/764165C8               |            6278964680

 2017-02-05 04:39:44.222942+01 | 1486265984.22294 | 1/7671F230               |            6282146352

 2017-02-05 04:39:45.30185+01 | 1486265985.30185 | 1/769CB680               |            6284949120

 2017-02-05 04:39:46.389455+01 | 1486265986.38946 | 1/76CB1C60               |            6287989856

 2017-02-05 04:39:47.45598+01 | 1486265987.45598 | 1/76F89798               |            6290970520

 2017-02-05 04:39:48.530487+01 | 1486265988.53049 | 1/772B9930               |            6294313264

 2017-02-05 04:39:49.609953+01 | 1486265989.60995 | 1/776C1C98               |            6298541208

 2017-02-05 04:39:50.692824+01 | 1486265990.69282 | 1/77AC9690               |            6302766736

 2017-02-05 04:39:51.766463+01 | 1486265991.76646 | 1/77EA3720               |            6306805536

 2017-02-05 04:39:52.848452+01 | 1486265992.84845 | 1/7828D390               |            6310908816

 2017-02-05 04:39:53.942698+01 | 1486265993.9427 | 1/784EB7F0               |            6313392112

 2017-02-05 04:39:55.032217+01 | 1486265995.03222 | 1/78721E00               |            6315712000

 2017-02-05 04:39:56.103715+01 | 1486265996.10371 | 1/78956D98               |            6318026136

 2017-02-05 04:39:57.179465+01 | 1486265997.17947 | 1/78B8ABE8               |            6320335848

 2017-02-05 04:39:58.24819+01 | 1486265998.24819 | 1/78DB72E8               |            6322615016

 2017-02-05 04:39:59.322083+01 | 1486265999.32208 | 1/78FE4DE8               |            6324899304

 2017-02-05 04:40:00.398761+01 | 1486266000.39876 | 1/7920EE50               |            6327168592

 2017-02-05 04:40:01.486389+01 | 1486266001.48639 | 1/794463C0               |            6329492416

 2017-02-05 04:40:02.558827+01 | 1486266002.55883 | 1/796832A8               |            6331839144

 2017-02-05 04:40:03.626743+01 | 1486266003.62674 | 1/798BB078               |            6334165112

 2017-02-05 04:40:04.69785+01 | 1486266004.69785 | 1/79AEB0D0               |            6336458960

 2017-02-05 04:40:05.774149+01 | 1486266005.77415 | 1/79D2CC08               |            6338825224

 2017-02-05 04:40:06.847016+01 | 1486266006.84702 | 1/79F5A168               |            6341108072

 2017-02-05 04:40:07.920866+01 | 1486266007.92087 | 1/7A17FC08               |            6343359496

 2017-02-05 04:40:09.009153+01 | 1486266009.00915 | 1/7A3B43C0               |            6345671616

 2017-02-05 04:40:10.089784+01 | 1486266010.08978 | 1/7A604FD8               |            6348099544

 2017-02-05 04:40:11.179977+01 | 1486266011.17998 | 1/7A84EE08               |            6350499336

 2017-02-05 04:40:12.264403+01 | 1486266012.2644 | 1/7AA84798               |            6352816024

 2017-02-05 04:40:13.347612+01 | 1486266013.34761 | 1/7ACAF6B0               |            6355089248

 2017-02-05 04:40:14.430337+01 | 1486266014.43034 | 1/7AEE3828               |            6357399592

 2017-02-05 04:40:15.499782+01 | 1486266015.49978 | 1/7B0F8590               |            6359582096

 2017-02-05 04:40:16.576592+01 | 1486266016.57659 | 1/7B3263F8               |            6361867256

 2017-02-05 04:40:17.647464+01 | 1486266017.64746 | 1/7B5766D0               |            6364292816

 2017-02-05 04:40:18.726895+01 | 1486266018.7269 | 1/7B7ADCF0               |            6366616816

 2017-02-05 04:40:19.802933+01 | 1486266019.80293 | 1/7B9D9DE0               |            6368894432

 2017-02-05 04:40:20.878203+01 | 1486266020.8782 | 1/7BC0BF10               |            6371196688

 2017-02-05 04:40:21.954025+01 | 1486266021.95403 | 1/7BE447C8               |            6373525448

 2017-02-05 04:40:23.041829+01 | 1486266023.04183 | 1/7C07A2A8               |            6375842472

 2017-02-05 04:40:24.114522+01 | 1486266024.11452 | 1/7C2BAEA0               |            6378205008

 2017-02-05 04:40:25.188812+01 | 1486266025.18881 | 1/7C508748               |            6380619592

 2017-02-05 04:40:26.273024+01 | 1486266026.27302 | 1/7C74CDC8               |            6382996936

 2017-02-05 04:40:27.359973+01 | 1486266027.35997 | 1/7C975978               |            6385260920

 2017-02-05 04:40:28.437099+01 | 1486266028.4371 | 1/7CBB6958               |            6387624280

 2017-02-05 04:40:29.526016+01 | 1486266029.52602 | 1/7CDFBBE0               |            6390004704

 2017-02-05 04:40:30.600962+01 | 1486266030.60096 | 1/7D0277B8               |            6392281016

 2017-02-05 04:40:31.673128+01 | 1486266031.67313 | 1/7D2728D0               |            6394685648

 2017-02-05 04:40:32.74825+01 | 1486266032.74825 | 1/7D4A5ED0               |            6396993232

 2017-02-05 04:40:33.830887+01 | 1486266033.83089 | 1/7D6E7830               |            6399359024

 2017-02-05 04:40:34.90564+01 | 1486266034.90564 | 1/7D936C68               |            6401780840

 2017-02-05 04:40:35.997286+01 | 1486266035.99729 | 1/7DB76828               |            6404139048

 2017-02-05 04:40:37.092359+01 | 1486266037.09236 | 1/7DDB8FE8               |            6406508520

 2017-02-05 04:40:38.170858+01 | 1486266038.17086 | 1/7DFFE718               |            6408890136

