 2017-02-04 08:45:41.814511+01 | 1486194341.81451 | pgbench_branches_pkey |          1826816
 2017-02-04 08:45:41.814511+01 | 1486194341.81451 | pgbench_tellers_pkey  |          7118848
 2017-02-04 08:45:41.814511+01 | 1486194341.81451 | pgbench_accounts_pkey |       2246197248

 2017-02-04 08:45:42.921979+01 | 1486194342.92198 | pgbench_branches_pkey |          1826816
 2017-02-04 08:45:42.921979+01 | 1486194342.92198 | pgbench_tellers_pkey  |          7118848
 2017-02-04 08:45:42.921979+01 | 1486194342.92198 | pgbench_accounts_pkey |       2246197248

 2017-02-04 08:45:44.012988+01 | 1486194344.01299 | pgbench_branches_pkey |          1826816
 2017-02-04 08:45:44.012988+01 | 1486194344.01299 | pgbench_tellers_pkey  |          7118848
 2017-02-04 08:45:44.012988+01 | 1486194344.01299 | pgbench_accounts_pkey |       2246197248

 2017-02-04 08:45:45.102377+01 | 1486194345.10238 | pgbench_branches_pkey |          1826816
 2017-02-04 08:45:45.102377+01 | 1486194345.10238 | pgbench_tellers_pkey  |          7118848
 2017-02-04 08:45:45.102377+01 | 1486194345.10238 | pgbench_accounts_pkey |       2246197248

 2017-02-04 08:45:46.186595+01 | 1486194346.18659 | pgbench_branches_pkey |          1826816
 2017-02-04 08:45:46.186595+01 | 1486194346.18659 | pgbench_tellers_pkey  |          7118848
 2017-02-04 08:45:46.186595+01 | 1486194346.18659 | pgbench_accounts_pkey |       2246197248

 2017-02-04 08:45:47.275504+01 | 1486194347.2755 | pgbench_branches_pkey |          1826816
 2017-02-04 08:45:47.275504+01 | 1486194347.2755 | pgbench_tellers_pkey  |          7118848
 2017-02-04 08:45:47.275504+01 | 1486194347.2755 | pgbench_accounts_pkey |       2246197248

 2017-02-04 08:45:48.370953+01 | 1486194348.37095 | pgbench_branches_pkey |          1826816
 2017-02-04 08:45:48.370953+01 | 1486194348.37095 | pgbench_tellers_pkey  |          7118848
 2017-02-04 08:45:48.370953+01 | 1486194348.37095 | pgbench_accounts_pkey |       2246197248

 2017-02-04 08:45:49.456352+01 | 1486194349.45635 | pgbench_branches_pkey |          1826816
 2017-02-04 08:45:49.456352+01 | 1486194349.45635 | pgbench_tellers_pkey  |          7118848
 2017-02-04 08:45:49.456352+01 | 1486194349.45635 | pgbench_accounts_pkey |       2246197248

 2017-02-04 08:45:50.536129+01 | 1486194350.53613 | pgbench_branches_pkey |          1826816
 2017-02-04 08:45:50.536129+01 | 1486194350.53613 | pgbench_tellers_pkey  |          7118848
 2017-02-04 08:45:50.536129+01 | 1486194350.53613 | pgbench_accounts_pkey |       2246197248

 2017-02-04 08:45:51.619555+01 | 1486194351.61955 | pgbench_branches_pkey |          1826816
 2017-02-04 08:45:51.619555+01 | 1486194351.61955 | pgbench_tellers_pkey  |          7118848
 2017-02-04 08:45:51.619555+01 | 1486194351.61955 | pgbench_accounts_pkey |       2246197248

 2017-02-04 08:45:52.70294+01 | 1486194352.70294 | pgbench_branches_pkey |          1826816
 2017-02-04 08:45:52.70294+01 | 1486194352.70294 | pgbench_tellers_pkey  |          7118848
 2017-02-04 08:45:52.70294+01 | 1486194352.70294 | pgbench_accounts_pkey |       2246197248

 2017-02-04 08:45:53.784586+01 | 1486194353.78459 | pgbench_branches_pkey |          1826816
 2017-02-04 08:45:53.784586+01 | 1486194353.78459 | pgbench_tellers_pkey  |          7118848
 2017-02-04 08:45:53.784586+01 | 1486194353.78459 | pgbench_accounts_pkey |       2246197248

 2017-02-04 08:45:54.875158+01 | 1486194354.87516 | pgbench_branches_pkey |          1826816
 2017-02-04 08:45:54.875158+01 | 1486194354.87516 | pgbench_tellers_pkey  |          7118848
 2017-02-04 08:45:54.875158+01 | 1486194354.87516 | pgbench_accounts_pkey |       2246197248

 2017-02-04 08:45:55.964727+01 | 1486194355.96473 | pgbench_branches_pkey |          1826816
 2017-02-04 08:45:55.964727+01 | 1486194355.96473 | pgbench_tellers_pkey  |          7118848
 2017-02-04 08:45:55.964727+01 | 1486194355.96473 | pgbench_accounts_pkey |       2246197248

 2017-02-04 08:45:57.057556+01 | 1486194357.05756 | pgbench_branches_pkey |          1826816
 2017-02-04 08:45:57.057556+01 | 1486194357.05756 | pgbench_tellers_pkey  |          7118848
 2017-02-04 08:45:57.057556+01 | 1486194357.05756 | pgbench_accounts_pkey |       2246197248

 2017-02-04 08:45:58.129503+01 | 1486194358.1295 | pgbench_branches_pkey |          1826816
 2017-02-04 08:45:58.129503+01 | 1486194358.1295 | pgbench_tellers_pkey  |          7118848
 2017-02-04 08:45:58.129503+01 | 1486194358.1295 | pgbench_accounts_pkey |       2246197248

 2017-02-04 08:45:59.213734+01 | 1486194359.21373 | pgbench_branches_pkey |          1826816
 2017-02-04 08:45:59.213734+01 | 1486194359.21373 | pgbench_tellers_pkey  |          7118848
 2017-02-04 08:45:59.213734+01 | 1486194359.21373 | pgbench_accounts_pkey |       2246197248

 2017-02-04 08:46:00.304789+01 | 1486194360.30479 | pgbench_branches_pkey |          1826816
 2017-02-04 08:46:00.304789+01 | 1486194360.30479 | pgbench_tellers_pkey  |          7118848
 2017-02-04 08:46:00.304789+01 | 1486194360.30479 | pgbench_accounts_pkey |       2246197248

 2017-02-04 08:46:01.398978+01 | 1486194361.39898 | pgbench_branches_pkey |          1826816
 2017-02-04 08:46:01.398978+01 | 1486194361.39898 | pgbench_tellers_pkey  |          7118848
 2017-02-04 08:46:01.398978+01 | 1486194361.39898 | pgbench_accounts_pkey |       2246197248

 2017-02-04 08:46:02.484081+01 | 1486194362.48408 | pgbench_branches_pkey |          1826816
 2017-02-04 08:46:02.484081+01 | 1486194362.48408 | pgbench_tellers_pkey  |          7118848
 2017-02-04 08:46:02.484081+01 | 1486194362.48408 | pgbench_accounts_pkey |       2246197248

 2017-02-04 08:46:03.574572+01 | 1486194363.57457 | pgbench_branches_pkey |          1826816
 2017-02-04 08:46:03.574572+01 | 1486194363.57457 | pgbench_tellers_pkey  |          7118848
 2017-02-04 08:46:03.574572+01 | 1486194363.57457 | pgbench_accounts_pkey |       2246197248

 2017-02-04 08:46:04.666647+01 | 1486194364.66665 | pgbench_branches_pkey |          1826816
 2017-02-04 08:46:04.666647+01 | 1486194364.66665 | pgbench_tellers_pkey  |          7118848
 2017-02-04 08:46:04.666647+01 | 1486194364.66665 | pgbench_accounts_pkey |       2246197248

 2017-02-04 08:46:05.751129+01 | 1486194365.75113 | pgbench_branches_pkey |          1826816
 2017-02-04 08:46:05.751129+01 | 1486194365.75113 | pgbench_tellers_pkey  |          7118848
 2017-02-04 08:46:05.751129+01 | 1486194365.75113 | pgbench_accounts_pkey |       2246197248

 2017-02-04 08:46:06.837264+01 | 1486194366.83726 | pgbench_branches_pkey |          1826816
 2017-02-04 08:46:06.837264+01 | 1486194366.83726 | pgbench_tellers_pkey  |          7118848
 2017-02-04 08:46:06.837264+01 | 1486194366.83726 | pgbench_accounts_pkey |       2246197248

 2017-02-04 08:46:07.928977+01 | 1486194367.92898 | pgbench_branches_pkey |          1826816
 2017-02-04 08:46:07.928977+01 | 1486194367.92898 | pgbench_tellers_pkey  |          7118848
 2017-02-04 08:46:07.928977+01 | 1486194367.92898 | pgbench_accounts_pkey |       2246197248

 2017-02-04 08:46:09.018246+01 | 1486194369.01825 | pgbench_branches_pkey |          1826816
 2017-02-04 08:46:09.018246+01 | 1486194369.01825 | pgbench_tellers_pkey  |          7118848
 2017-02-04 08:46:09.018246+01 | 1486194369.01825 | pgbench_accounts_pkey |       2246197248

 2017-02-04 08:46:10.110595+01 | 1486194370.11059 | pgbench_branches_pkey |          1826816
 2017-02-04 08:46:10.110595+01 | 1486194370.11059 | pgbench_tellers_pkey  |          7118848
 2017-02-04 08:46:10.110595+01 | 1486194370.11059 | pgbench_accounts_pkey |       2246197248

 2017-02-04 08:46:11.198307+01 | 1486194371.19831 | pgbench_branches_pkey |          1826816
 2017-02-04 08:46:11.198307+01 | 1486194371.19831 | pgbench_tellers_pkey  |          7118848
 2017-02-04 08:46:11.198307+01 | 1486194371.19831 | pgbench_accounts_pkey |       2246197248

 2017-02-04 08:46:12.294417+01 | 1486194372.29442 | pgbench_branches_pkey |          1826816
 2017-02-04 08:46:12.294417+01 | 1486194372.29442 | pgbench_tellers_pkey  |          7118848
 2017-02-04 08:46:12.294417+01 | 1486194372.29442 | pgbench_accounts_pkey |       2246197248

 2017-02-04 08:46:13.373365+01 | 1486194373.37336 | pgbench_branches_pkey |          1826816
 2017-02-04 08:46:13.373365+01 | 1486194373.37336 | pgbench_tellers_pkey  |          7118848
 2017-02-04 08:46:13.373365+01 | 1486194373.37336 | pgbench_accounts_pkey |       2246197248

 2017-02-04 08:46:14.45194+01 | 1486194374.45194 | pgbench_branches_pkey |          1826816
 2017-02-04 08:46:14.45194+01 | 1486194374.45194 | pgbench_tellers_pkey  |          7118848
 2017-02-04 08:46:14.45194+01 | 1486194374.45194 | pgbench_accounts_pkey |       2246197248

 2017-02-04 08:46:15.526872+01 | 1486194375.52687 | pgbench_branches_pkey |          1826816
 2017-02-04 08:46:15.526872+01 | 1486194375.52687 | pgbench_tellers_pkey  |          7118848
 2017-02-04 08:46:15.526872+01 | 1486194375.52687 | pgbench_accounts_pkey |       2246197248

 2017-02-04 08:46:16.621534+01 | 1486194376.62153 | pgbench_branches_pkey |          1826816
 2017-02-04 08:46:16.621534+01 | 1486194376.62153 | pgbench_tellers_pkey  |          7118848
 2017-02-04 08:46:16.621534+01 | 1486194376.62153 | pgbench_accounts_pkey |       2246197248

 2017-02-04 08:46:17.712133+01 | 1486194377.71213 | pgbench_branches_pkey |          1826816
 2017-02-04 08:46:17.712133+01 | 1486194377.71213 | pgbench_tellers_pkey  |          7118848
 2017-02-04 08:46:17.712133+01 | 1486194377.71213 | pgbench_accounts_pkey |       2246197248

 2017-02-04 08:46:18.795429+01 | 1486194378.79543 | pgbench_branches_pkey |          1826816
 2017-02-04 08:46:18.795429+01 | 1486194378.79543 | pgbench_tellers_pkey  |          7118848
 2017-02-04 08:46:18.795429+01 | 1486194378.79543 | pgbench_accounts_pkey |       2246197248

 2017-02-04 08:46:19.885329+01 | 1486194379.88533 | pgbench_branches_pkey |          1826816
 2017-02-04 08:46:19.885329+01 | 1486194379.88533 | pgbench_tellers_pkey  |          7118848
 2017-02-04 08:46:19.885329+01 | 1486194379.88533 | pgbench_accounts_pkey |       2246197248

 2017-02-04 08:46:20.970598+01 | 1486194380.9706 | pgbench_branches_pkey |          1826816
 2017-02-04 08:46:20.970598+01 | 1486194380.9706 | pgbench_tellers_pkey  |          7118848
 2017-02-04 08:46:20.970598+01 | 1486194380.9706 | pgbench_accounts_pkey |       2246197248

 2017-02-04 08:46:22.057667+01 | 1486194382.05767 | pgbench_branches_pkey |          1826816
 2017-02-04 08:46:22.057667+01 | 1486194382.05767 | pgbench_tellers_pkey  |          7118848
 2017-02-04 08:46:22.057667+01 | 1486194382.05767 | pgbench_accounts_pkey |       2246197248

 2017-02-04 08:46:23.14343+01 | 1486194383.14343 | pgbench_branches_pkey |          1826816
 2017-02-04 08:46:23.14343+01 | 1486194383.14343 | pgbench_tellers_pkey  |          7118848
 2017-02-04 08:46:23.14343+01 | 1486194383.14343 | pgbench_accounts_pkey |       2246197248

 2017-02-04 08:46:24.230992+01 | 1486194384.23099 | pgbench_branches_pkey |          1826816
 2017-02-04 08:46:24.230992+01 | 1486194384.23099 | pgbench_tellers_pkey  |          7118848
 2017-02-04 08:46:24.230992+01 | 1486194384.23099 | pgbench_accounts_pkey |       2246197248

 2017-02-04 08:46:25.326923+01 | 1486194385.32692 | pgbench_branches_pkey |          1826816
 2017-02-04 08:46:25.326923+01 | 1486194385.32692 | pgbench_tellers_pkey  |          7118848
 2017-02-04 08:46:25.326923+01 | 1486194385.32692 | pgbench_accounts_pkey |       2246197248

 2017-02-04 08:46:26.396616+01 | 1486194386.39662 | pgbench_branches_pkey |          1826816
 2017-02-04 08:46:26.396616+01 | 1486194386.39662 | pgbench_tellers_pkey  |          7118848
 2017-02-04 08:46:26.396616+01 | 1486194386.39662 | pgbench_accounts_pkey |       2246197248

 2017-02-04 08:46:27.488124+01 | 1486194387.48812 | pgbench_branches_pkey |          1826816
 2017-02-04 08:46:27.488124+01 | 1486194387.48812 | pgbench_tellers_pkey  |          7118848
 2017-02-04 08:46:27.488124+01 | 1486194387.48812 | pgbench_accounts_pkey |       2246197248

 2017-02-04 08:46:28.590185+01 | 1486194388.59018 | pgbench_branches_pkey |          1826816
 2017-02-04 08:46:28.590185+01 | 1486194388.59018 | pgbench_tellers_pkey  |          7118848
 2017-02-04 08:46:28.590185+01 | 1486194388.59018 | pgbench_accounts_pkey |       2246197248

 2017-02-04 08:46:29.68011+01 | 1486194389.68011 | pgbench_branches_pkey |          1826816
 2017-02-04 08:46:29.68011+01 | 1486194389.68011 | pgbench_tellers_pkey  |          7118848
 2017-02-04 08:46:29.68011+01 | 1486194389.68011 | pgbench_accounts_pkey |       2246197248

 2017-02-04 08:46:30.749625+01 | 1486194390.74962 | pgbench_branches_pkey |          1826816
 2017-02-04 08:46:30.749625+01 | 1486194390.74962 | pgbench_tellers_pkey  |          7118848
 2017-02-04 08:46:30.749625+01 | 1486194390.74962 | pgbench_accounts_pkey |       2246197248

 2017-02-04 08:46:31.829971+01 | 1486194391.82997 | pgbench_branches_pkey |          1826816
 2017-02-04 08:46:31.829971+01 | 1486194391.82997 | pgbench_tellers_pkey  |          7118848
 2017-02-04 08:46:31.829971+01 | 1486194391.82997 | pgbench_accounts_pkey |       2246197248

 2017-02-04 08:46:32.913588+01 | 1486194392.91359 | pgbench_branches_pkey |          1826816
 2017-02-04 08:46:32.913588+01 | 1486194392.91359 | pgbench_tellers_pkey  |          7118848
 2017-02-04 08:46:32.913588+01 | 1486194392.91359 | pgbench_accounts_pkey |       2246197248

 2017-02-04 08:46:33.994626+01 | 1486194393.99463 | pgbench_branches_pkey |          1826816
 2017-02-04 08:46:33.994626+01 | 1486194393.99463 | pgbench_tellers_pkey  |          7118848
 2017-02-04 08:46:33.994626+01 | 1486194393.99463 | pgbench_accounts_pkey |       2246197248

 2017-02-04 08:46:35.076176+01 | 1486194395.07618 | pgbench_branches_pkey |          1826816
 2017-02-04 08:46:35.076176+01 | 1486194395.07618 | pgbench_tellers_pkey  |          7118848
 2017-02-04 08:46:35.076176+01 | 1486194395.07618 | pgbench_accounts_pkey |       2246197248

 2017-02-04 08:46:36.191234+01 | 1486194396.19123 | pgbench_branches_pkey |          1826816
 2017-02-04 08:46:36.191234+01 | 1486194396.19123 | pgbench_tellers_pkey  |          7118848
 2017-02-04 08:46:36.191234+01 | 1486194396.19123 | pgbench_accounts_pkey |       2246197248

 2017-02-04 08:46:37.267956+01 | 1486194397.26796 | pgbench_branches_pkey |          1826816
 2017-02-04 08:46:37.267956+01 | 1486194397.26796 | pgbench_tellers_pkey  |          7118848
 2017-02-04 08:46:37.267956+01 | 1486194397.26796 | pgbench_accounts_pkey |       2246197248

 2017-02-04 08:46:38.350589+01 | 1486194398.35059 | pgbench_branches_pkey |          1826816
 2017-02-04 08:46:38.350589+01 | 1486194398.35059 | pgbench_tellers_pkey  |          7118848
 2017-02-04 08:46:38.350589+01 | 1486194398.35059 | pgbench_accounts_pkey |       2246197248

 2017-02-04 08:46:39.448095+01 | 1486194399.4481 | pgbench_branches_pkey |          1826816
 2017-02-04 08:46:39.448095+01 | 1486194399.4481 | pgbench_tellers_pkey  |          7118848
 2017-02-04 08:46:39.448095+01 | 1486194399.4481 | pgbench_accounts_pkey |       2246197248

 2017-02-04 08:46:40.555591+01 | 1486194400.55559 | pgbench_branches_pkey |          1826816
 2017-02-04 08:46:40.555591+01 | 1486194400.55559 | pgbench_tellers_pkey  |          7118848
 2017-02-04 08:46:40.555591+01 | 1486194400.55559 | pgbench_accounts_pkey |       2246197248

 2017-02-04 08:46:41.638458+01 | 1486194401.63846 | pgbench_branches_pkey |          1826816
 2017-02-04 08:46:41.638458+01 | 1486194401.63846 | pgbench_tellers_pkey  |          7118848
 2017-02-04 08:46:41.638458+01 | 1486194401.63846 | pgbench_accounts_pkey |       2246197248

 2017-02-04 08:46:42.72246+01 | 1486194402.72246 | pgbench_branches_pkey |          1826816
 2017-02-04 08:46:42.72246+01 | 1486194402.72246 | pgbench_tellers_pkey  |          7118848
 2017-02-04 08:46:42.72246+01 | 1486194402.72246 | pgbench_accounts_pkey |       2246197248

 2017-02-04 08:46:43.808345+01 | 1486194403.80835 | pgbench_branches_pkey |          1826816
 2017-02-04 08:46:43.808345+01 | 1486194403.80835 | pgbench_tellers_pkey  |          7118848
 2017-02-04 08:46:43.808345+01 | 1486194403.80835 | pgbench_accounts_pkey |       2246197248

 2017-02-04 08:46:44.891685+01 | 1486194404.89169 | pgbench_branches_pkey |          1826816
 2017-02-04 08:46:44.891685+01 | 1486194404.89169 | pgbench_tellers_pkey  |          7118848
 2017-02-04 08:46:44.891685+01 | 1486194404.89169 | pgbench_accounts_pkey |       2246197248

 2017-02-04 08:46:45.978697+01 | 1486194405.9787 | pgbench_branches_pkey |          1826816
 2017-02-04 08:46:45.978697+01 | 1486194405.9787 | pgbench_tellers_pkey  |          7118848
 2017-02-04 08:46:45.978697+01 | 1486194405.9787 | pgbench_accounts_pkey |       2246197248

 2017-02-04 08:46:47.063081+01 | 1486194407.06308 | pgbench_branches_pkey |          1826816
 2017-02-04 08:46:47.063081+01 | 1486194407.06308 | pgbench_tellers_pkey  |          7118848
 2017-02-04 08:46:47.063081+01 | 1486194407.06308 | pgbench_accounts_pkey |       2246197248

 2017-02-04 08:46:48.146005+01 | 1486194408.146 | pgbench_branches_pkey |          1826816
 2017-02-04 08:46:48.146005+01 | 1486194408.146 | pgbench_tellers_pkey  |          7118848
 2017-02-04 08:46:48.146005+01 | 1486194408.146 | pgbench_accounts_pkey |       2246197248

 2017-02-04 08:46:49.225674+01 | 1486194409.22567 | pgbench_branches_pkey |          1826816
 2017-02-04 08:46:49.225674+01 | 1486194409.22567 | pgbench_tellers_pkey  |          7118848
 2017-02-04 08:46:49.225674+01 | 1486194409.22567 | pgbench_accounts_pkey |       2246197248

 2017-02-04 08:46:50.317012+01 | 1486194410.31701 | pgbench_branches_pkey |          1826816
 2017-02-04 08:46:50.317012+01 | 1486194410.31701 | pgbench_tellers_pkey  |          7118848
 2017-02-04 08:46:50.317012+01 | 1486194410.31701 | pgbench_accounts_pkey |       2246197248

 2017-02-04 08:46:51.41953+01 | 1486194411.41953 | pgbench_branches_pkey |          1826816
 2017-02-04 08:46:51.41953+01 | 1486194411.41953 | pgbench_tellers_pkey  |          7118848
 2017-02-04 08:46:51.41953+01 | 1486194411.41953 | pgbench_accounts_pkey |       2246197248

 2017-02-04 08:46:52.519837+01 | 1486194412.51984 | pgbench_branches_pkey |          1826816
 2017-02-04 08:46:52.519837+01 | 1486194412.51984 | pgbench_tellers_pkey  |          7118848
 2017-02-04 08:46:52.519837+01 | 1486194412.51984 | pgbench_accounts_pkey |       2246197248

 2017-02-04 08:46:53.618941+01 | 1486194413.61894 | pgbench_branches_pkey |          1826816
 2017-02-04 08:46:53.618941+01 | 1486194413.61894 | pgbench_tellers_pkey  |          7118848
 2017-02-04 08:46:53.618941+01 | 1486194413.61894 | pgbench_accounts_pkey |       2246197248

 2017-02-04 08:46:54.721459+01 | 1486194414.72146 | pgbench_branches_pkey |          1826816
 2017-02-04 08:46:54.721459+01 | 1486194414.72146 | pgbench_tellers_pkey  |          7118848
 2017-02-04 08:46:54.721459+01 | 1486194414.72146 | pgbench_accounts_pkey |       2246197248

 2017-02-04 08:46:55.820249+01 | 1486194415.82025 | pgbench_branches_pkey |          1826816
 2017-02-04 08:46:55.820249+01 | 1486194415.82025 | pgbench_tellers_pkey  |          7118848
 2017-02-04 08:46:55.820249+01 | 1486194415.82025 | pgbench_accounts_pkey |       2246197248

 2017-02-04 08:46:56.89245+01 | 1486194416.89245 | pgbench_branches_pkey |          1826816
 2017-02-04 08:46:56.89245+01 | 1486194416.89245 | pgbench_tellers_pkey  |          7118848
 2017-02-04 08:46:56.89245+01 | 1486194416.89245 | pgbench_accounts_pkey |       2246197248

 2017-02-04 08:46:57.991252+01 | 1486194417.99125 | pgbench_branches_pkey |          1826816
 2017-02-04 08:46:57.991252+01 | 1486194417.99125 | pgbench_tellers_pkey  |          7118848
 2017-02-04 08:46:57.991252+01 | 1486194417.99125 | pgbench_accounts_pkey |       2246197248

 2017-02-04 08:46:59.07251+01 | 1486194419.07251 | pgbench_branches_pkey |          1826816
 2017-02-04 08:46:59.07251+01 | 1486194419.07251 | pgbench_tellers_pkey  |          7118848
 2017-02-04 08:46:59.07251+01 | 1486194419.07251 | pgbench_accounts_pkey |       2246197248

 2017-02-04 08:47:00.161421+01 | 1486194420.16142 | pgbench_branches_pkey |          1826816
 2017-02-04 08:47:00.161421+01 | 1486194420.16142 | pgbench_tellers_pkey  |          7118848
 2017-02-04 08:47:00.161421+01 | 1486194420.16142 | pgbench_accounts_pkey |       2246197248

 2017-02-04 08:47:01.238126+01 | 1486194421.23813 | pgbench_branches_pkey |          1826816
 2017-02-04 08:47:01.238126+01 | 1486194421.23813 | pgbench_tellers_pkey  |          7118848
 2017-02-04 08:47:01.238126+01 | 1486194421.23813 | pgbench_accounts_pkey |       2246197248

 2017-02-04 08:47:02.316164+01 | 1486194422.31616 | pgbench_branches_pkey |          1826816
 2017-02-04 08:47:02.316164+01 | 1486194422.31616 | pgbench_tellers_pkey  |          7118848
 2017-02-04 08:47:02.316164+01 | 1486194422.31616 | pgbench_accounts_pkey |       2246197248

 2017-02-04 08:47:03.385779+01 | 1486194423.38578 | pgbench_branches_pkey |          1826816
 2017-02-04 08:47:03.385779+01 | 1486194423.38578 | pgbench_tellers_pkey  |          7118848
 2017-02-04 08:47:03.385779+01 | 1486194423.38578 | pgbench_accounts_pkey |       2246197248

 2017-02-04 08:47:04.481703+01 | 1486194424.4817 | pgbench_branches_pkey |          1826816
 2017-02-04 08:47:04.481703+01 | 1486194424.4817 | pgbench_tellers_pkey  |          7118848
 2017-02-04 08:47:04.481703+01 | 1486194424.4817 | pgbench_accounts_pkey |       2246197248

 2017-02-04 08:47:05.580949+01 | 1486194425.58095 | pgbench_branches_pkey |          1826816
 2017-02-04 08:47:05.580949+01 | 1486194425.58095 | pgbench_tellers_pkey  |          7118848
 2017-02-04 08:47:05.580949+01 | 1486194425.58095 | pgbench_accounts_pkey |       2246197248

 2017-02-04 08:47:06.672168+01 | 1486194426.67217 | pgbench_branches_pkey |          1826816
 2017-02-04 08:47:06.672168+01 | 1486194426.67217 | pgbench_tellers_pkey  |          7118848
 2017-02-04 08:47:06.672168+01 | 1486194426.67217 | pgbench_accounts_pkey |       2246197248

 2017-02-04 08:47:07.757793+01 | 1486194427.75779 | pgbench_branches_pkey |          1826816
 2017-02-04 08:47:07.757793+01 | 1486194427.75779 | pgbench_tellers_pkey  |          7118848
 2017-02-04 08:47:07.757793+01 | 1486194427.75779 | pgbench_accounts_pkey |       2246197248

 2017-02-04 08:47:08.830215+01 | 1486194428.83021 | pgbench_branches_pkey |          1826816
 2017-02-04 08:47:08.830215+01 | 1486194428.83021 | pgbench_tellers_pkey  |          7118848
 2017-02-04 08:47:08.830215+01 | 1486194428.83021 | pgbench_accounts_pkey |       2246197248

 2017-02-04 08:47:09.91179+01 | 1486194429.91179 | pgbench_branches_pkey |          1826816
 2017-02-04 08:47:09.91179+01 | 1486194429.91179 | pgbench_tellers_pkey  |          7118848
 2017-02-04 08:47:09.91179+01 | 1486194429.91179 | pgbench_accounts_pkey |       2246197248

 2017-02-04 08:47:10.984774+01 | 1486194430.98477 | pgbench_branches_pkey |          1826816
 2017-02-04 08:47:10.984774+01 | 1486194430.98477 | pgbench_tellers_pkey  |          7118848
 2017-02-04 08:47:10.984774+01 | 1486194430.98477 | pgbench_accounts_pkey |       2246197248

 2017-02-04 08:47:12.071918+01 | 1486194432.07192 | pgbench_branches_pkey |          1826816
 2017-02-04 08:47:12.071918+01 | 1486194432.07192 | pgbench_tellers_pkey  |          7118848
 2017-02-04 08:47:12.071918+01 | 1486194432.07192 | pgbench_accounts_pkey |       2246197248

 2017-02-04 08:47:13.150625+01 | 1486194433.15062 | pgbench_branches_pkey |          1826816
 2017-02-04 08:47:13.150625+01 | 1486194433.15062 | pgbench_tellers_pkey  |          7118848
 2017-02-04 08:47:13.150625+01 | 1486194433.15062 | pgbench_accounts_pkey |       2246197248

 2017-02-04 08:47:14.237836+01 | 1486194434.23784 | pgbench_branches_pkey |          1826816
 2017-02-04 08:47:14.237836+01 | 1486194434.23784 | pgbench_tellers_pkey  |          7118848
 2017-02-04 08:47:14.237836+01 | 1486194434.23784 | pgbench_accounts_pkey |       2246197248

 2017-02-04 08:47:15.329706+01 | 1486194435.32971 | pgbench_branches_pkey |          1826816
 2017-02-04 08:47:15.329706+01 | 1486194435.32971 | pgbench_tellers_pkey  |          7118848
 2017-02-04 08:47:15.329706+01 | 1486194435.32971 | pgbench_accounts_pkey |       2246197248

 2017-02-04 08:47:16.422035+01 | 1486194436.42203 | pgbench_branches_pkey |          1826816
 2017-02-04 08:47:16.422035+01 | 1486194436.42203 | pgbench_tellers_pkey  |          7118848
 2017-02-04 08:47:16.422035+01 | 1486194436.42203 | pgbench_accounts_pkey |       2246197248

 2017-02-04 08:47:17.516388+01 | 1486194437.51639 | pgbench_branches_pkey |          1826816
 2017-02-04 08:47:17.516388+01 | 1486194437.51639 | pgbench_tellers_pkey  |          7118848
 2017-02-04 08:47:17.516388+01 | 1486194437.51639 | pgbench_accounts_pkey |       2246197248

 2017-02-04 08:47:18.611514+01 | 1486194438.61151 | pgbench_branches_pkey |          1826816
 2017-02-04 08:47:18.611514+01 | 1486194438.61151 | pgbench_tellers_pkey  |          7118848
 2017-02-04 08:47:18.611514+01 | 1486194438.61151 | pgbench_accounts_pkey |       2246197248

 2017-02-04 08:47:19.704675+01 | 1486194439.70467 | pgbench_branches_pkey |          1826816
 2017-02-04 08:47:19.704675+01 | 1486194439.70467 | pgbench_tellers_pkey  |          7118848
 2017-02-04 08:47:19.704675+01 | 1486194439.70467 | pgbench_accounts_pkey |       2246197248

 2017-02-04 08:47:20.795988+01 | 1486194440.79599 | pgbench_branches_pkey |          1826816
 2017-02-04 08:47:20.795988+01 | 1486194440.79599 | pgbench_tellers_pkey  |          7118848
 2017-02-04 08:47:20.795988+01 | 1486194440.79599 | pgbench_accounts_pkey |       2246197248

 2017-02-04 08:47:21.906601+01 | 1486194441.9066 | pgbench_branches_pkey |          1826816
 2017-02-04 08:47:21.906601+01 | 1486194441.9066 | pgbench_tellers_pkey  |          7118848
 2017-02-04 08:47:21.906601+01 | 1486194441.9066 | pgbench_accounts_pkey |       2246197248

 2017-02-04 08:47:22.998324+01 | 1486194442.99832 | pgbench_branches_pkey |          1826816
 2017-02-04 08:47:22.998324+01 | 1486194442.99832 | pgbench_tellers_pkey  |          7118848
 2017-02-04 08:47:22.998324+01 | 1486194442.99832 | pgbench_accounts_pkey |       2246197248

 2017-02-04 08:47:24.090727+01 | 1486194444.09073 | pgbench_branches_pkey |          1826816
 2017-02-04 08:47:24.090727+01 | 1486194444.09073 | pgbench_tellers_pkey  |          7118848
 2017-02-04 08:47:24.090727+01 | 1486194444.09073 | pgbench_accounts_pkey |       2246197248

 2017-02-04 08:47:25.16489+01 | 1486194445.16489 | pgbench_branches_pkey |          1826816
 2017-02-04 08:47:25.16489+01 | 1486194445.16489 | pgbench_tellers_pkey  |          7118848
 2017-02-04 08:47:25.16489+01 | 1486194445.16489 | pgbench_accounts_pkey |       2246197248

 2017-02-04 08:47:26.240447+01 | 1486194446.24045 | pgbench_branches_pkey |          1826816
 2017-02-04 08:47:26.240447+01 | 1486194446.24045 | pgbench_tellers_pkey  |          7118848
 2017-02-04 08:47:26.240447+01 | 1486194446.24045 | pgbench_accounts_pkey |       2246197248

 2017-02-04 08:47:27.320769+01 | 1486194447.32077 | pgbench_branches_pkey |          1826816
 2017-02-04 08:47:27.320769+01 | 1486194447.32077 | pgbench_tellers_pkey  |          7118848
 2017-02-04 08:47:27.320769+01 | 1486194447.32077 | pgbench_accounts_pkey |       2246197248

 2017-02-04 08:47:28.412986+01 | 1486194448.41299 | pgbench_branches_pkey |          1826816
 2017-02-04 08:47:28.412986+01 | 1486194448.41299 | pgbench_tellers_pkey  |          7118848
 2017-02-04 08:47:28.412986+01 | 1486194448.41299 | pgbench_accounts_pkey |       2246197248

 2017-02-04 08:47:29.509117+01 | 1486194449.50912 | pgbench_branches_pkey |          1826816
 2017-02-04 08:47:29.509117+01 | 1486194449.50912 | pgbench_tellers_pkey  |          7118848
 2017-02-04 08:47:29.509117+01 | 1486194449.50912 | pgbench_accounts_pkey |       2246197248

 2017-02-04 08:47:30.596848+01 | 1486194450.59685 | pgbench_branches_pkey |          1826816
 2017-02-04 08:47:30.596848+01 | 1486194450.59685 | pgbench_tellers_pkey  |          7118848
 2017-02-04 08:47:30.596848+01 | 1486194450.59685 | pgbench_accounts_pkey |       2246197248

 2017-02-04 08:47:31.682457+01 | 1486194451.68246 | pgbench_branches_pkey |          1826816
 2017-02-04 08:47:31.682457+01 | 1486194451.68246 | pgbench_tellers_pkey  |          7118848
 2017-02-04 08:47:31.682457+01 | 1486194451.68246 | pgbench_accounts_pkey |       2246197248

 2017-02-04 08:47:32.74556+01 | 1486194452.74556 | pgbench_branches_pkey |          1826816
 2017-02-04 08:47:32.74556+01 | 1486194452.74556 | pgbench_tellers_pkey  |          7118848
 2017-02-04 08:47:32.74556+01 | 1486194452.74556 | pgbench_accounts_pkey |       2246197248

 2017-02-04 08:47:33.832449+01 | 1486194453.83245 | pgbench_branches_pkey |          1826816
 2017-02-04 08:47:33.832449+01 | 1486194453.83245 | pgbench_tellers_pkey  |          7118848
 2017-02-04 08:47:33.832449+01 | 1486194453.83245 | pgbench_accounts_pkey |       2246197248

 2017-02-04 08:47:34.922126+01 | 1486194454.92213 | pgbench_branches_pkey |          1826816
 2017-02-04 08:47:34.922126+01 | 1486194454.92213 | pgbench_tellers_pkey  |          7118848
 2017-02-04 08:47:34.922126+01 | 1486194454.92213 | pgbench_accounts_pkey |       2246197248

 2017-02-04 08:47:36.014459+01 | 1486194456.01446 | pgbench_branches_pkey |          1826816
 2017-02-04 08:47:36.014459+01 | 1486194456.01446 | pgbench_tellers_pkey  |          7118848
 2017-02-04 08:47:36.014459+01 | 1486194456.01446 | pgbench_accounts_pkey |       2246197248

 2017-02-04 08:47:37.085409+01 | 1486194457.08541 | pgbench_branches_pkey |          1826816
 2017-02-04 08:47:37.085409+01 | 1486194457.08541 | pgbench_tellers_pkey  |          7118848
 2017-02-04 08:47:37.085409+01 | 1486194457.08541 | pgbench_accounts_pkey |       2246197248

 2017-02-04 08:47:38.172296+01 | 1486194458.1723 | pgbench_branches_pkey |          1826816
 2017-02-04 08:47:38.172296+01 | 1486194458.1723 | pgbench_tellers_pkey  |          7118848
 2017-02-04 08:47:38.172296+01 | 1486194458.1723 | pgbench_accounts_pkey |       2246197248

 2017-02-04 08:47:39.253667+01 | 1486194459.25367 | pgbench_branches_pkey |          1826816
 2017-02-04 08:47:39.253667+01 | 1486194459.25367 | pgbench_tellers_pkey  |          7118848
 2017-02-04 08:47:39.253667+01 | 1486194459.25367 | pgbench_accounts_pkey |       2246197248

 2017-02-04 08:47:40.336064+01 | 1486194460.33606 | pgbench_branches_pkey |          1826816
 2017-02-04 08:47:40.336064+01 | 1486194460.33606 | pgbench_tellers_pkey  |          7118848
 2017-02-04 08:47:40.336064+01 | 1486194460.33606 | pgbench_accounts_pkey |       2246197248

 2017-02-04 08:47:41.420717+01 | 1486194461.42072 | pgbench_branches_pkey |          1826816
 2017-02-04 08:47:41.420717+01 | 1486194461.42072 | pgbench_tellers_pkey  |          7118848
 2017-02-04 08:47:41.420717+01 | 1486194461.42072 | pgbench_accounts_pkey |       2246197248

 2017-02-04 08:47:42.515808+01 | 1486194462.51581 | pgbench_branches_pkey |          1826816
 2017-02-04 08:47:42.515808+01 | 1486194462.51581 | pgbench_tellers_pkey  |          7118848
 2017-02-04 08:47:42.515808+01 | 1486194462.51581 | pgbench_accounts_pkey |       2246197248

 2017-02-04 08:47:43.591323+01 | 1486194463.59132 | pgbench_branches_pkey |          1826816
 2017-02-04 08:47:43.591323+01 | 1486194463.59132 | pgbench_tellers_pkey  |          7118848
 2017-02-04 08:47:43.591323+01 | 1486194463.59132 | pgbench_accounts_pkey |       2246197248

 2017-02-04 08:47:44.666146+01 | 1486194464.66615 | pgbench_branches_pkey |          1826816
 2017-02-04 08:47:44.666146+01 | 1486194464.66615 | pgbench_tellers_pkey  |          7118848
 2017-02-04 08:47:44.666146+01 | 1486194464.66615 | pgbench_accounts_pkey |       2246197248

 2017-02-04 08:47:45.752258+01 | 1486194465.75226 | pgbench_branches_pkey |          1826816
 2017-02-04 08:47:45.752258+01 | 1486194465.75226 | pgbench_tellers_pkey  |          7118848
 2017-02-04 08:47:45.752258+01 | 1486194465.75226 | pgbench_accounts_pkey |       2246197248

 2017-02-04 08:47:46.851092+01 | 1486194466.85109 | pgbench_branches_pkey |          1826816
 2017-02-04 08:47:46.851092+01 | 1486194466.85109 | pgbench_tellers_pkey  |          7118848
 2017-02-04 08:47:46.851092+01 | 1486194466.85109 | pgbench_accounts_pkey |       2246197248

 2017-02-04 08:47:47.943817+01 | 1486194467.94382 | pgbench_branches_pkey |          1826816
 2017-02-04 08:47:47.943817+01 | 1486194467.94382 | pgbench_tellers_pkey  |          7118848
 2017-02-04 08:47:47.943817+01 | 1486194467.94382 | pgbench_accounts_pkey |       2246197248

 2017-02-04 08:47:49.034199+01 | 1486194469.0342 | pgbench_branches_pkey |          1826816
 2017-02-04 08:47:49.034199+01 | 1486194469.0342 | pgbench_tellers_pkey  |          7118848
 2017-02-04 08:47:49.034199+01 | 1486194469.0342 | pgbench_accounts_pkey |       2246197248

 2017-02-04 08:47:50.10708+01 | 1486194470.10708 | pgbench_branches_pkey |          1826816
 2017-02-04 08:47:50.10708+01 | 1486194470.10708 | pgbench_tellers_pkey  |          7118848
 2017-02-04 08:47:50.10708+01 | 1486194470.10708 | pgbench_accounts_pkey |       2246197248

 2017-02-04 08:47:51.173156+01 | 1486194471.17316 | pgbench_branches_pkey |          1826816
 2017-02-04 08:47:51.173156+01 | 1486194471.17316 | pgbench_tellers_pkey  |          7118848
 2017-02-04 08:47:51.173156+01 | 1486194471.17316 | pgbench_accounts_pkey |       2246197248

 2017-02-04 08:47:52.249814+01 | 1486194472.24981 | pgbench_branches_pkey |          1826816
 2017-02-04 08:47:52.249814+01 | 1486194472.24981 | pgbench_tellers_pkey  |          7118848
 2017-02-04 08:47:52.249814+01 | 1486194472.24981 | pgbench_accounts_pkey |       2246197248

 2017-02-04 08:47:53.341368+01 | 1486194473.34137 | pgbench_branches_pkey |          1826816
 2017-02-04 08:47:53.341368+01 | 1486194473.34137 | pgbench_tellers_pkey  |          7118848
 2017-02-04 08:47:53.341368+01 | 1486194473.34137 | pgbench_accounts_pkey |       2246197248

 2017-02-04 08:47:54.423872+01 | 1486194474.42387 | pgbench_branches_pkey |          1826816
 2017-02-04 08:47:54.423872+01 | 1486194474.42387 | pgbench_tellers_pkey  |          7118848
 2017-02-04 08:47:54.423872+01 | 1486194474.42387 | pgbench_accounts_pkey |       2246197248

 2017-02-04 08:47:55.506888+01 | 1486194475.50689 | pgbench_branches_pkey |          1826816
 2017-02-04 08:47:55.506888+01 | 1486194475.50689 | pgbench_tellers_pkey  |          7118848
 2017-02-04 08:47:55.506888+01 | 1486194475.50689 | pgbench_accounts_pkey |       2246197248

 2017-02-04 08:47:56.590415+01 | 1486194476.59042 | pgbench_branches_pkey |          1826816
 2017-02-04 08:47:56.590415+01 | 1486194476.59042 | pgbench_tellers_pkey  |          7118848
 2017-02-04 08:47:56.590415+01 | 1486194476.59042 | pgbench_accounts_pkey |       2246197248

 2017-02-04 08:47:57.690793+01 | 1486194477.69079 | pgbench_branches_pkey |          1826816
 2017-02-04 08:47:57.690793+01 | 1486194477.69079 | pgbench_tellers_pkey  |          7118848
 2017-02-04 08:47:57.690793+01 | 1486194477.69079 | pgbench_accounts_pkey |       2246197248

 2017-02-04 08:47:58.764789+01 | 1486194478.76479 | pgbench_branches_pkey |          1826816
 2017-02-04 08:47:58.764789+01 | 1486194478.76479 | pgbench_tellers_pkey  |          7118848
 2017-02-04 08:47:58.764789+01 | 1486194478.76479 | pgbench_accounts_pkey |       2246197248

 2017-02-04 08:47:59.841108+01 | 1486194479.84111 | pgbench_branches_pkey |          1826816
 2017-02-04 08:47:59.841108+01 | 1486194479.84111 | pgbench_tellers_pkey  |          7118848
 2017-02-04 08:47:59.841108+01 | 1486194479.84111 | pgbench_accounts_pkey |       2246197248

 2017-02-04 08:48:00.93296+01 | 1486194480.93296 | pgbench_branches_pkey |          1826816
 2017-02-04 08:48:00.93296+01 | 1486194480.93296 | pgbench_tellers_pkey  |          7118848
 2017-02-04 08:48:00.93296+01 | 1486194480.93296 | pgbench_accounts_pkey |       2246197248

 2017-02-04 08:48:02.006833+01 | 1486194482.00683 | pgbench_branches_pkey |          1826816
 2017-02-04 08:48:02.006833+01 | 1486194482.00683 | pgbench_tellers_pkey  |          7118848
 2017-02-04 08:48:02.006833+01 | 1486194482.00683 | pgbench_accounts_pkey |       2246197248

 2017-02-04 08:48:03.080097+01 | 1486194483.0801 | pgbench_branches_pkey |          1826816
 2017-02-04 08:48:03.080097+01 | 1486194483.0801 | pgbench_tellers_pkey  |          7118848
 2017-02-04 08:48:03.080097+01 | 1486194483.0801 | pgbench_accounts_pkey |       2246197248

 2017-02-04 08:48:04.161108+01 | 1486194484.16111 | pgbench_branches_pkey |          1826816
 2017-02-04 08:48:04.161108+01 | 1486194484.16111 | pgbench_tellers_pkey  |          7118848
 2017-02-04 08:48:04.161108+01 | 1486194484.16111 | pgbench_accounts_pkey |       2246197248

 2017-02-04 08:48:05.235816+01 | 1486194485.23582 | pgbench_branches_pkey |          1826816
 2017-02-04 08:48:05.235816+01 | 1486194485.23582 | pgbench_tellers_pkey  |          7118848
 2017-02-04 08:48:05.235816+01 | 1486194485.23582 | pgbench_accounts_pkey |       2246197248

 2017-02-04 08:48:06.305978+01 | 1486194486.30598 | pgbench_branches_pkey |          1826816
 2017-02-04 08:48:06.305978+01 | 1486194486.30598 | pgbench_tellers_pkey  |          7118848
 2017-02-04 08:48:06.305978+01 | 1486194486.30598 | pgbench_accounts_pkey |       2246197248

 2017-02-04 08:48:07.368187+01 | 1486194487.36819 | pgbench_branches_pkey |          1826816
 2017-02-04 08:48:07.368187+01 | 1486194487.36819 | pgbench_tellers_pkey  |          7118848
 2017-02-04 08:48:07.368187+01 | 1486194487.36819 | pgbench_accounts_pkey |       2246197248

 2017-02-04 08:48:08.453744+01 | 1486194488.45374 | pgbench_branches_pkey |          1826816
 2017-02-04 08:48:08.453744+01 | 1486194488.45374 | pgbench_tellers_pkey  |          7118848
 2017-02-04 08:48:08.453744+01 | 1486194488.45374 | pgbench_accounts_pkey |       2246197248

 2017-02-04 08:48:09.531906+01 | 1486194489.53191 | pgbench_branches_pkey |          1826816
 2017-02-04 08:48:09.531906+01 | 1486194489.53191 | pgbench_tellers_pkey  |          7118848
 2017-02-04 08:48:09.531906+01 | 1486194489.53191 | pgbench_accounts_pkey |       2246197248

 2017-02-04 08:48:10.612494+01 | 1486194490.61249 | pgbench_branches_pkey |          1826816
 2017-02-04 08:48:10.612494+01 | 1486194490.61249 | pgbench_tellers_pkey  |          7118848
 2017-02-04 08:48:10.612494+01 | 1486194490.61249 | pgbench_accounts_pkey |       2246197248

 2017-02-04 08:48:11.718048+01 | 1486194491.71805 | pgbench_branches_pkey |          1826816
 2017-02-04 08:48:11.718048+01 | 1486194491.71805 | pgbench_tellers_pkey  |          7118848
 2017-02-04 08:48:11.718048+01 | 1486194491.71805 | pgbench_accounts_pkey |       2246197248

 2017-02-04 08:48:12.824033+01 | 1486194492.82403 | pgbench_branches_pkey |          1826816
 2017-02-04 08:48:12.824033+01 | 1486194492.82403 | pgbench_tellers_pkey  |          7118848
 2017-02-04 08:48:12.824033+01 | 1486194492.82403 | pgbench_accounts_pkey |       2246197248

 2017-02-04 08:48:13.909936+01 | 1486194493.90994 | pgbench_branches_pkey |          1826816
 2017-02-04 08:48:13.909936+01 | 1486194493.90994 | pgbench_tellers_pkey  |          7118848
 2017-02-04 08:48:13.909936+01 | 1486194493.90994 | pgbench_accounts_pkey |       2246197248

 2017-02-04 08:48:14.999089+01 | 1486194494.99909 | pgbench_branches_pkey |          1826816
 2017-02-04 08:48:14.999089+01 | 1486194494.99909 | pgbench_tellers_pkey  |          7118848
 2017-02-04 08:48:14.999089+01 | 1486194494.99909 | pgbench_accounts_pkey |       2246197248

 2017-02-04 08:48:16.093875+01 | 1486194496.09387 | pgbench_branches_pkey |          1826816
 2017-02-04 08:48:16.093875+01 | 1486194496.09387 | pgbench_tellers_pkey  |          7118848
 2017-02-04 08:48:16.093875+01 | 1486194496.09387 | pgbench_accounts_pkey |       2246197248

 2017-02-04 08:48:17.17881+01 | 1486194497.17881 | pgbench_branches_pkey |          1826816
 2017-02-04 08:48:17.17881+01 | 1486194497.17881 | pgbench_tellers_pkey  |          7118848
 2017-02-04 08:48:17.17881+01 | 1486194497.17881 | pgbench_accounts_pkey |       2246197248

 2017-02-04 08:48:18.260671+01 | 1486194498.26067 | pgbench_branches_pkey |          1826816
 2017-02-04 08:48:18.260671+01 | 1486194498.26067 | pgbench_tellers_pkey  |          7118848
 2017-02-04 08:48:18.260671+01 | 1486194498.26067 | pgbench_accounts_pkey |       2246197248

 2017-02-04 08:48:19.344533+01 | 1486194499.34453 | pgbench_branches_pkey |          1826816
 2017-02-04 08:48:19.344533+01 | 1486194499.34453 | pgbench_tellers_pkey  |          7118848
 2017-02-04 08:48:19.344533+01 | 1486194499.34453 | pgbench_accounts_pkey |       2246197248

 2017-02-04 08:48:20.430327+01 | 1486194500.43033 | pgbench_branches_pkey |          1826816
 2017-02-04 08:48:20.430327+01 | 1486194500.43033 | pgbench_tellers_pkey  |          7118848
 2017-02-04 08:48:20.430327+01 | 1486194500.43033 | pgbench_accounts_pkey |       2246197248

 2017-02-04 08:48:21.525022+01 | 1486194501.52502 | pgbench_branches_pkey |          1826816
 2017-02-04 08:48:21.525022+01 | 1486194501.52502 | pgbench_tellers_pkey  |          7118848
 2017-02-04 08:48:21.525022+01 | 1486194501.52502 | pgbench_accounts_pkey |       2246197248

 2017-02-04 08:48:22.607658+01 | 1486194502.60766 | pgbench_branches_pkey |          1826816
 2017-02-04 08:48:22.607658+01 | 1486194502.60766 | pgbench_tellers_pkey  |          7118848
 2017-02-04 08:48:22.607658+01 | 1486194502.60766 | pgbench_accounts_pkey |       2246197248

 2017-02-04 08:48:23.692972+01 | 1486194503.69297 | pgbench_branches_pkey |          1826816
 2017-02-04 08:48:23.692972+01 | 1486194503.69297 | pgbench_tellers_pkey  |          7118848
 2017-02-04 08:48:23.692972+01 | 1486194503.69297 | pgbench_accounts_pkey |       2246197248

 2017-02-04 08:48:24.790128+01 | 1486194504.79013 | pgbench_branches_pkey |          1826816
 2017-02-04 08:48:24.790128+01 | 1486194504.79013 | pgbench_tellers_pkey  |          7118848
 2017-02-04 08:48:24.790128+01 | 1486194504.79013 | pgbench_accounts_pkey |       2246197248

 2017-02-04 08:48:25.868905+01 | 1486194505.86891 | pgbench_branches_pkey |          1826816
 2017-02-04 08:48:25.868905+01 | 1486194505.86891 | pgbench_tellers_pkey  |          7118848
 2017-02-04 08:48:25.868905+01 | 1486194505.86891 | pgbench_accounts_pkey |       2246197248

 2017-02-04 08:48:26.940149+01 | 1486194506.94015 | pgbench_branches_pkey |          1826816
 2017-02-04 08:48:26.940149+01 | 1486194506.94015 | pgbench_tellers_pkey  |          7118848
 2017-02-04 08:48:26.940149+01 | 1486194506.94015 | pgbench_accounts_pkey |       2246197248

 2017-02-04 08:48:28.004674+01 | 1486194508.00467 | pgbench_branches_pkey |          1826816
 2017-02-04 08:48:28.004674+01 | 1486194508.00467 | pgbench_tellers_pkey  |          7118848
 2017-02-04 08:48:28.004674+01 | 1486194508.00467 | pgbench_accounts_pkey |       2246197248

 2017-02-04 08:48:29.080552+01 | 1486194509.08055 | pgbench_branches_pkey |          1826816
 2017-02-04 08:48:29.080552+01 | 1486194509.08055 | pgbench_tellers_pkey  |          7118848
 2017-02-04 08:48:29.080552+01 | 1486194509.08055 | pgbench_accounts_pkey |       2246197248

 2017-02-04 08:48:30.1533+01 | 1486194510.1533 | pgbench_branches_pkey |          1826816
 2017-02-04 08:48:30.1533+01 | 1486194510.1533 | pgbench_tellers_pkey  |          7118848
 2017-02-04 08:48:30.1533+01 | 1486194510.1533 | pgbench_accounts_pkey |       2246197248

 2017-02-04 08:48:31.2502+01 | 1486194511.2502 | pgbench_branches_pkey |          1826816
 2017-02-04 08:48:31.2502+01 | 1486194511.2502 | pgbench_tellers_pkey  |          7118848
 2017-02-04 08:48:31.2502+01 | 1486194511.2502 | pgbench_accounts_pkey |       2246197248

 2017-02-04 08:48:32.338432+01 | 1486194512.33843 | pgbench_branches_pkey |          1826816
 2017-02-04 08:48:32.338432+01 | 1486194512.33843 | pgbench_tellers_pkey  |          7118848
 2017-02-04 08:48:32.338432+01 | 1486194512.33843 | pgbench_accounts_pkey |       2246197248

 2017-02-04 08:48:33.416509+01 | 1486194513.41651 | pgbench_branches_pkey |          1826816
 2017-02-04 08:48:33.416509+01 | 1486194513.41651 | pgbench_tellers_pkey  |          7118848
 2017-02-04 08:48:33.416509+01 | 1486194513.41651 | pgbench_accounts_pkey |       2246197248

 2017-02-04 08:48:34.510486+01 | 1486194514.51049 | pgbench_branches_pkey |          1826816
 2017-02-04 08:48:34.510486+01 | 1486194514.51049 | pgbench_tellers_pkey  |          7118848
 2017-02-04 08:48:34.510486+01 | 1486194514.51049 | pgbench_accounts_pkey |       2246197248

 2017-02-04 08:48:35.604145+01 | 1486194515.60415 | pgbench_branches_pkey |          1826816
 2017-02-04 08:48:35.604145+01 | 1486194515.60415 | pgbench_tellers_pkey  |          7118848
 2017-02-04 08:48:35.604145+01 | 1486194515.60415 | pgbench_accounts_pkey |       2246197248

 2017-02-04 08:48:36.695758+01 | 1486194516.69576 | pgbench_branches_pkey |          1826816
 2017-02-04 08:48:36.695758+01 | 1486194516.69576 | pgbench_tellers_pkey  |          7118848
 2017-02-04 08:48:36.695758+01 | 1486194516.69576 | pgbench_accounts_pkey |       2246197248

 2017-02-04 08:48:37.788472+01 | 1486194517.78847 | pgbench_branches_pkey |          1826816
 2017-02-04 08:48:37.788472+01 | 1486194517.78847 | pgbench_tellers_pkey  |          7118848
 2017-02-04 08:48:37.788472+01 | 1486194517.78847 | pgbench_accounts_pkey |       2246197248

 2017-02-04 08:48:38.884715+01 | 1486194518.88472 | pgbench_branches_pkey |          1826816
 2017-02-04 08:48:38.884715+01 | 1486194518.88472 | pgbench_tellers_pkey  |          7118848
 2017-02-04 08:48:38.884715+01 | 1486194518.88472 | pgbench_accounts_pkey |       2246197248

 2017-02-04 08:48:39.978041+01 | 1486194519.97804 | pgbench_branches_pkey |          1826816
 2017-02-04 08:48:39.978041+01 | 1486194519.97804 | pgbench_tellers_pkey  |          7118848
 2017-02-04 08:48:39.978041+01 | 1486194519.97804 | pgbench_accounts_pkey |       2246197248

 2017-02-04 08:48:41.05178+01 | 1486194521.05178 | pgbench_branches_pkey |          1826816
 2017-02-04 08:48:41.05178+01 | 1486194521.05178 | pgbench_tellers_pkey  |          7118848
 2017-02-04 08:48:41.05178+01 | 1486194521.05178 | pgbench_accounts_pkey |       2246197248

 2017-02-04 08:48:42.12123+01 | 1486194522.12123 | pgbench_branches_pkey |          1826816
 2017-02-04 08:48:42.12123+01 | 1486194522.12123 | pgbench_tellers_pkey  |          7118848
 2017-02-04 08:48:42.12123+01 | 1486194522.12123 | pgbench_accounts_pkey |       2246197248

 2017-02-04 08:48:43.203891+01 | 1486194523.20389 | pgbench_branches_pkey |          1826816
 2017-02-04 08:48:43.203891+01 | 1486194523.20389 | pgbench_tellers_pkey  |          7118848
 2017-02-04 08:48:43.203891+01 | 1486194523.20389 | pgbench_accounts_pkey |       2246197248

 2017-02-04 08:48:44.275511+01 | 1486194524.27551 | pgbench_branches_pkey |          1826816
 2017-02-04 08:48:44.275511+01 | 1486194524.27551 | pgbench_tellers_pkey  |          7118848
 2017-02-04 08:48:44.275511+01 | 1486194524.27551 | pgbench_accounts_pkey |       2246197248

 2017-02-04 08:48:45.36072+01 | 1486194525.36072 | pgbench_branches_pkey |          1826816
 2017-02-04 08:48:45.36072+01 | 1486194525.36072 | pgbench_tellers_pkey  |          7118848
 2017-02-04 08:48:45.36072+01 | 1486194525.36072 | pgbench_accounts_pkey |       2246197248

 2017-02-04 08:48:46.453363+01 | 1486194526.45336 | pgbench_branches_pkey |          1826816
 2017-02-04 08:48:46.453363+01 | 1486194526.45336 | pgbench_tellers_pkey  |          7118848
 2017-02-04 08:48:46.453363+01 | 1486194526.45336 | pgbench_accounts_pkey |       2246197248

 2017-02-04 08:48:47.548417+01 | 1486194527.54842 | pgbench_branches_pkey |          1826816
 2017-02-04 08:48:47.548417+01 | 1486194527.54842 | pgbench_tellers_pkey  |          7118848
 2017-02-04 08:48:47.548417+01 | 1486194527.54842 | pgbench_accounts_pkey |       2246197248

 2017-02-04 08:48:48.643087+01 | 1486194528.64309 | pgbench_branches_pkey |          1826816
 2017-02-04 08:48:48.643087+01 | 1486194528.64309 | pgbench_tellers_pkey  |          7118848
 2017-02-04 08:48:48.643087+01 | 1486194528.64309 | pgbench_accounts_pkey |       2246197248

 2017-02-04 08:48:49.737237+01 | 1486194529.73724 | pgbench_branches_pkey |          1826816
 2017-02-04 08:48:49.737237+01 | 1486194529.73724 | pgbench_tellers_pkey  |          7118848
 2017-02-04 08:48:49.737237+01 | 1486194529.73724 | pgbench_accounts_pkey |       2246197248

 2017-02-04 08:48:50.832828+01 | 1486194530.83283 | pgbench_branches_pkey |          1826816
 2017-02-04 08:48:50.832828+01 | 1486194530.83283 | pgbench_tellers_pkey  |          7118848
 2017-02-04 08:48:50.832828+01 | 1486194530.83283 | pgbench_accounts_pkey |       2246197248

 2017-02-04 08:48:51.920341+01 | 1486194531.92034 | pgbench_branches_pkey |          1826816
 2017-02-04 08:48:51.920341+01 | 1486194531.92034 | pgbench_tellers_pkey  |          7118848
 2017-02-04 08:48:51.920341+01 | 1486194531.92034 | pgbench_accounts_pkey |       2246197248

 2017-02-04 08:48:53.012926+01 | 1486194533.01293 | pgbench_branches_pkey |          1826816
 2017-02-04 08:48:53.012926+01 | 1486194533.01293 | pgbench_tellers_pkey  |          7118848
 2017-02-04 08:48:53.012926+01 | 1486194533.01293 | pgbench_accounts_pkey |       2246197248

 2017-02-04 08:48:54.104896+01 | 1486194534.1049 | pgbench_branches_pkey |          1826816
 2017-02-04 08:48:54.104896+01 | 1486194534.1049 | pgbench_tellers_pkey  |          7118848
 2017-02-04 08:48:54.104896+01 | 1486194534.1049 | pgbench_accounts_pkey |       2246197248

 2017-02-04 08:48:55.199181+01 | 1486194535.19918 | pgbench_branches_pkey |          1826816
 2017-02-04 08:48:55.199181+01 | 1486194535.19918 | pgbench_tellers_pkey  |          7118848
 2017-02-04 08:48:55.199181+01 | 1486194535.19918 | pgbench_accounts_pkey |       2246197248

 2017-02-04 08:48:56.286834+01 | 1486194536.28683 | pgbench_branches_pkey |          1826816
 2017-02-04 08:48:56.286834+01 | 1486194536.28683 | pgbench_tellers_pkey  |          7118848
 2017-02-04 08:48:56.286834+01 | 1486194536.28683 | pgbench_accounts_pkey |       2246197248

 2017-02-04 08:48:57.370444+01 | 1486194537.37044 | pgbench_branches_pkey |          1826816
 2017-02-04 08:48:57.370444+01 | 1486194537.37044 | pgbench_tellers_pkey  |          7118848
 2017-02-04 08:48:57.370444+01 | 1486194537.37044 | pgbench_accounts_pkey |       2246197248

 2017-02-04 08:48:58.436053+01 | 1486194538.43605 | pgbench_branches_pkey |          1826816
 2017-02-04 08:48:58.436053+01 | 1486194538.43605 | pgbench_tellers_pkey  |          7118848
 2017-02-04 08:48:58.436053+01 | 1486194538.43605 | pgbench_accounts_pkey |       2246197248

 2017-02-04 08:48:59.513216+01 | 1486194539.51322 | pgbench_branches_pkey |          1826816
 2017-02-04 08:48:59.513216+01 | 1486194539.51322 | pgbench_tellers_pkey  |          7118848
 2017-02-04 08:48:59.513216+01 | 1486194539.51322 | pgbench_accounts_pkey |       2246197248

 2017-02-04 08:49:00.59896+01 | 1486194540.59896 | pgbench_branches_pkey |          1826816
 2017-02-04 08:49:00.59896+01 | 1486194540.59896 | pgbench_tellers_pkey  |          7118848
 2017-02-04 08:49:00.59896+01 | 1486194540.59896 | pgbench_accounts_pkey |       2246197248

 2017-02-04 08:49:01.672534+01 | 1486194541.67253 | pgbench_branches_pkey |          1826816
 2017-02-04 08:49:01.672534+01 | 1486194541.67253 | pgbench_tellers_pkey  |          7118848
 2017-02-04 08:49:01.672534+01 | 1486194541.67253 | pgbench_accounts_pkey |       2246197248

 2017-02-04 08:49:02.752511+01 | 1486194542.75251 | pgbench_branches_pkey |          1826816
 2017-02-04 08:49:02.752511+01 | 1486194542.75251 | pgbench_tellers_pkey  |          7118848
 2017-02-04 08:49:02.752511+01 | 1486194542.75251 | pgbench_accounts_pkey |       2246197248

 2017-02-04 08:49:03.8413+01 | 1486194543.8413 | pgbench_branches_pkey |          1826816
 2017-02-04 08:49:03.8413+01 | 1486194543.8413 | pgbench_tellers_pkey  |          7118848
 2017-02-04 08:49:03.8413+01 | 1486194543.8413 | pgbench_accounts_pkey |       2246197248

 2017-02-04 08:49:04.927347+01 | 1486194544.92735 | pgbench_branches_pkey |          1826816
 2017-02-04 08:49:04.927347+01 | 1486194544.92735 | pgbench_tellers_pkey  |          7118848
 2017-02-04 08:49:04.927347+01 | 1486194544.92735 | pgbench_accounts_pkey |       2246197248

 2017-02-04 08:49:06.009823+01 | 1486194546.00982 | pgbench_branches_pkey |          1826816
 2017-02-04 08:49:06.009823+01 | 1486194546.00982 | pgbench_tellers_pkey  |          7118848
 2017-02-04 08:49:06.009823+01 | 1486194546.00982 | pgbench_accounts_pkey |       2246197248

 2017-02-04 08:49:07.106749+01 | 1486194547.10675 | pgbench_branches_pkey |          1826816
 2017-02-04 08:49:07.106749+01 | 1486194547.10675 | pgbench_tellers_pkey  |          7118848
 2017-02-04 08:49:07.106749+01 | 1486194547.10675 | pgbench_accounts_pkey |       2246197248

 2017-02-04 08:49:08.199057+01 | 1486194548.19906 | pgbench_branches_pkey |          1826816
 2017-02-04 08:49:08.199057+01 | 1486194548.19906 | pgbench_tellers_pkey  |          7118848
 2017-02-04 08:49:08.199057+01 | 1486194548.19906 | pgbench_accounts_pkey |       2246197248

 2017-02-04 08:49:09.296071+01 | 1486194549.29607 | pgbench_branches_pkey |          1826816
 2017-02-04 08:49:09.296071+01 | 1486194549.29607 | pgbench_tellers_pkey  |          7118848
 2017-02-04 08:49:09.296071+01 | 1486194549.29607 | pgbench_accounts_pkey |       2246197248

 2017-02-04 08:49:10.38916+01 | 1486194550.38916 | pgbench_branches_pkey |          1826816
 2017-02-04 08:49:10.38916+01 | 1486194550.38916 | pgbench_tellers_pkey  |          7118848
 2017-02-04 08:49:10.38916+01 | 1486194550.38916 | pgbench_accounts_pkey |       2246197248

 2017-02-04 08:49:11.48863+01 | 1486194551.48863 | pgbench_branches_pkey |          1826816
 2017-02-04 08:49:11.48863+01 | 1486194551.48863 | pgbench_tellers_pkey  |          7118848
 2017-02-04 08:49:11.48863+01 | 1486194551.48863 | pgbench_accounts_pkey |       2246197248

 2017-02-04 08:49:12.569235+01 | 1486194552.56924 | pgbench_branches_pkey |          1826816
 2017-02-04 08:49:12.569235+01 | 1486194552.56924 | pgbench_tellers_pkey  |          7118848
 2017-02-04 08:49:12.569235+01 | 1486194552.56924 | pgbench_accounts_pkey |       2246197248

 2017-02-04 08:49:13.652646+01 | 1486194553.65265 | pgbench_branches_pkey |          1826816
 2017-02-04 08:49:13.652646+01 | 1486194553.65265 | pgbench_tellers_pkey  |          7118848
 2017-02-04 08:49:13.652646+01 | 1486194553.65265 | pgbench_accounts_pkey |       2246197248

 2017-02-04 08:49:14.725811+01 | 1486194554.72581 | pgbench_branches_pkey |          1826816
 2017-02-04 08:49:14.725811+01 | 1486194554.72581 | pgbench_tellers_pkey  |          7118848
 2017-02-04 08:49:14.725811+01 | 1486194554.72581 | pgbench_accounts_pkey |       2246197248

 2017-02-04 08:49:15.802519+01 | 1486194555.80252 | pgbench_branches_pkey |          1826816
 2017-02-04 08:49:15.802519+01 | 1486194555.80252 | pgbench_tellers_pkey  |          7118848
 2017-02-04 08:49:15.802519+01 | 1486194555.80252 | pgbench_accounts_pkey |       2246197248

 2017-02-04 08:49:16.87807+01 | 1486194556.87807 | pgbench_branches_pkey |          1826816
 2017-02-04 08:49:16.87807+01 | 1486194556.87807 | pgbench_tellers_pkey  |          7118848
 2017-02-04 08:49:16.87807+01 | 1486194556.87807 | pgbench_accounts_pkey |       2246197248

 2017-02-04 08:49:17.963194+01 | 1486194557.96319 | pgbench_branches_pkey |          1826816
 2017-02-04 08:49:17.963194+01 | 1486194557.96319 | pgbench_tellers_pkey  |          7118848
 2017-02-04 08:49:17.963194+01 | 1486194557.96319 | pgbench_accounts_pkey |       2246197248

 2017-02-04 08:49:19.047101+01 | 1486194559.0471 | pgbench_branches_pkey |          1826816
 2017-02-04 08:49:19.047101+01 | 1486194559.0471 | pgbench_tellers_pkey  |          7118848
 2017-02-04 08:49:19.047101+01 | 1486194559.0471 | pgbench_accounts_pkey |       2246197248

 2017-02-04 08:49:20.136805+01 | 1486194560.13681 | pgbench_branches_pkey |          1826816
 2017-02-04 08:49:20.136805+01 | 1486194560.13681 | pgbench_tellers_pkey  |          7118848
 2017-02-04 08:49:20.136805+01 | 1486194560.13681 | pgbench_accounts_pkey |       2246197248

 2017-02-04 08:49:21.218273+01 | 1486194561.21827 | pgbench_branches_pkey |          1826816
 2017-02-04 08:49:21.218273+01 | 1486194561.21827 | pgbench_tellers_pkey  |          7118848
 2017-02-04 08:49:21.218273+01 | 1486194561.21827 | pgbench_accounts_pkey |       2246197248

 2017-02-04 08:49:22.298565+01 | 1486194562.29856 | pgbench_branches_pkey |          1826816
 2017-02-04 08:49:22.298565+01 | 1486194562.29856 | pgbench_tellers_pkey  |          7118848
 2017-02-04 08:49:22.298565+01 | 1486194562.29856 | pgbench_accounts_pkey |       2246197248

 2017-02-04 08:49:23.364268+01 | 1486194563.36427 | pgbench_branches_pkey |          1826816
 2017-02-04 08:49:23.364268+01 | 1486194563.36427 | pgbench_tellers_pkey  |          7118848
 2017-02-04 08:49:23.364268+01 | 1486194563.36427 | pgbench_accounts_pkey |       2246197248

 2017-02-04 08:49:24.437692+01 | 1486194564.43769 | pgbench_branches_pkey |          1826816
 2017-02-04 08:49:24.437692+01 | 1486194564.43769 | pgbench_tellers_pkey  |          7118848
 2017-02-04 08:49:24.437692+01 | 1486194564.43769 | pgbench_accounts_pkey |       2246197248

 2017-02-04 08:49:25.513219+01 | 1486194565.51322 | pgbench_branches_pkey |          1826816
 2017-02-04 08:49:25.513219+01 | 1486194565.51322 | pgbench_tellers_pkey  |          7118848
 2017-02-04 08:49:25.513219+01 | 1486194565.51322 | pgbench_accounts_pkey |       2246197248

 2017-02-04 08:49:26.589475+01 | 1486194566.58947 | pgbench_branches_pkey |          1826816
 2017-02-04 08:49:26.589475+01 | 1486194566.58947 | pgbench_tellers_pkey  |          7118848
 2017-02-04 08:49:26.589475+01 | 1486194566.58947 | pgbench_accounts_pkey |       2246197248

 2017-02-04 08:49:27.65395+01 | 1486194567.65395 | pgbench_branches_pkey |          1826816
 2017-02-04 08:49:27.65395+01 | 1486194567.65395 | pgbench_tellers_pkey  |          7118848
 2017-02-04 08:49:27.65395+01 | 1486194567.65395 | pgbench_accounts_pkey |       2246197248

 2017-02-04 08:49:28.737624+01 | 1486194568.73762 | pgbench_branches_pkey |          1826816
 2017-02-04 08:49:28.737624+01 | 1486194568.73762 | pgbench_tellers_pkey  |          7118848
 2017-02-04 08:49:28.737624+01 | 1486194568.73762 | pgbench_accounts_pkey |       2246197248

 2017-02-04 08:49:29.828444+01 | 1486194569.82844 | pgbench_branches_pkey |          1826816
 2017-02-04 08:49:29.828444+01 | 1486194569.82844 | pgbench_tellers_pkey  |          7118848
 2017-02-04 08:49:29.828444+01 | 1486194569.82844 | pgbench_accounts_pkey |       2246197248

 2017-02-04 08:49:30.923059+01 | 1486194570.92306 | pgbench_branches_pkey |          1826816
 2017-02-04 08:49:30.923059+01 | 1486194570.92306 | pgbench_tellers_pkey  |          7118848
 2017-02-04 08:49:30.923059+01 | 1486194570.92306 | pgbench_accounts_pkey |       2246197248

 2017-02-04 08:49:32.011346+01 | 1486194572.01135 | pgbench_branches_pkey |          1826816
 2017-02-04 08:49:32.011346+01 | 1486194572.01135 | pgbench_tellers_pkey  |          7118848
 2017-02-04 08:49:32.011346+01 | 1486194572.01135 | pgbench_accounts_pkey |       2246197248

 2017-02-04 08:49:33.110245+01 | 1486194573.11024 | pgbench_branches_pkey |          1826816
 2017-02-04 08:49:33.110245+01 | 1486194573.11024 | pgbench_tellers_pkey  |          7118848
 2017-02-04 08:49:33.110245+01 | 1486194573.11024 | pgbench_accounts_pkey |       2246197248

 2017-02-04 08:49:34.207288+01 | 1486194574.20729 | pgbench_branches_pkey |          1826816
 2017-02-04 08:49:34.207288+01 | 1486194574.20729 | pgbench_tellers_pkey  |          7118848
 2017-02-04 08:49:34.207288+01 | 1486194574.20729 | pgbench_accounts_pkey |       2246197248

 2017-02-04 08:49:35.303619+01 | 1486194575.30362 | pgbench_branches_pkey |          1826816
 2017-02-04 08:49:35.303619+01 | 1486194575.30362 | pgbench_tellers_pkey  |          7118848
 2017-02-04 08:49:35.303619+01 | 1486194575.30362 | pgbench_accounts_pkey |       2246197248

 2017-02-04 08:49:36.392667+01 | 1486194576.39267 | pgbench_branches_pkey |          1826816
 2017-02-04 08:49:36.392667+01 | 1486194576.39267 | pgbench_tellers_pkey  |          7118848
 2017-02-04 08:49:36.392667+01 | 1486194576.39267 | pgbench_accounts_pkey |       2246197248

 2017-02-04 08:49:37.477835+01 | 1486194577.47783 | pgbench_branches_pkey |          1826816
 2017-02-04 08:49:37.477835+01 | 1486194577.47783 | pgbench_tellers_pkey  |          7118848
 2017-02-04 08:49:37.477835+01 | 1486194577.47783 | pgbench_accounts_pkey |       2246197248

 2017-02-04 08:49:38.56563+01 | 1486194578.56563 | pgbench_branches_pkey |          1826816
 2017-02-04 08:49:38.56563+01 | 1486194578.56563 | pgbench_tellers_pkey  |          7118848
 2017-02-04 08:49:38.56563+01 | 1486194578.56563 | pgbench_accounts_pkey |       2246197248

 2017-02-04 08:49:39.654206+01 | 1486194579.65421 | pgbench_branches_pkey |          1826816
 2017-02-04 08:49:39.654206+01 | 1486194579.65421 | pgbench_tellers_pkey  |          7118848
 2017-02-04 08:49:39.654206+01 | 1486194579.65421 | pgbench_accounts_pkey |       2246197248

 2017-02-04 08:49:40.727642+01 | 1486194580.72764 | pgbench_branches_pkey |          1826816
 2017-02-04 08:49:40.727642+01 | 1486194580.72764 | pgbench_tellers_pkey  |          7118848
 2017-02-04 08:49:40.727642+01 | 1486194580.72764 | pgbench_accounts_pkey |       2246197248

 2017-02-04 08:49:41.801736+01 | 1486194581.80174 | pgbench_branches_pkey |          1826816
 2017-02-04 08:49:41.801736+01 | 1486194581.80174 | pgbench_tellers_pkey  |          7118848
 2017-02-04 08:49:41.801736+01 | 1486194581.80174 | pgbench_accounts_pkey |       2246197248

 2017-02-04 08:49:42.892965+01 | 1486194582.89297 | pgbench_branches_pkey |          1826816
 2017-02-04 08:49:42.892965+01 | 1486194582.89297 | pgbench_tellers_pkey  |          7118848
 2017-02-04 08:49:42.892965+01 | 1486194582.89297 | pgbench_accounts_pkey |       2246197248

 2017-02-04 08:49:43.989705+01 | 1486194583.98971 | pgbench_branches_pkey |          1826816
 2017-02-04 08:49:43.989705+01 | 1486194583.98971 | pgbench_tellers_pkey  |          7118848
 2017-02-04 08:49:43.989705+01 | 1486194583.98971 | pgbench_accounts_pkey |       2246197248

 2017-02-04 08:49:45.084319+01 | 1486194585.08432 | pgbench_branches_pkey |          1826816
 2017-02-04 08:49:45.084319+01 | 1486194585.08432 | pgbench_tellers_pkey  |          7118848
 2017-02-04 08:49:45.084319+01 | 1486194585.08432 | pgbench_accounts_pkey |       2246197248

 2017-02-04 08:49:46.191655+01 | 1486194586.19165 | pgbench_branches_pkey |          1826816
 2017-02-04 08:49:46.191655+01 | 1486194586.19165 | pgbench_tellers_pkey  |          7118848
 2017-02-04 08:49:46.191655+01 | 1486194586.19165 | pgbench_accounts_pkey |       2246197248

 2017-02-04 08:49:47.300237+01 | 1486194587.30024 | pgbench_branches_pkey |          1826816
 2017-02-04 08:49:47.300237+01 | 1486194587.30024 | pgbench_tellers_pkey  |          7118848
 2017-02-04 08:49:47.300237+01 | 1486194587.30024 | pgbench_accounts_pkey |       2246197248

 2017-02-04 08:49:48.396221+01 | 1486194588.39622 | pgbench_branches_pkey |          1826816
 2017-02-04 08:49:48.396221+01 | 1486194588.39622 | pgbench_tellers_pkey  |          7118848
 2017-02-04 08:49:48.396221+01 | 1486194588.39622 | pgbench_accounts_pkey |       2246197248

 2017-02-04 08:49:49.482378+01 | 1486194589.48238 | pgbench_branches_pkey |          1826816
 2017-02-04 08:49:49.482378+01 | 1486194589.48238 | pgbench_tellers_pkey  |          7118848
 2017-02-04 08:49:49.482378+01 | 1486194589.48238 | pgbench_accounts_pkey |       2246197248

 2017-02-04 08:49:50.583668+01 | 1486194590.58367 | pgbench_branches_pkey |          1826816
 2017-02-04 08:49:50.583668+01 | 1486194590.58367 | pgbench_tellers_pkey  |          7118848
 2017-02-04 08:49:50.583668+01 | 1486194590.58367 | pgbench_accounts_pkey |       2246197248

 2017-02-04 08:49:51.677428+01 | 1486194591.67743 | pgbench_branches_pkey |          1826816
 2017-02-04 08:49:51.677428+01 | 1486194591.67743 | pgbench_tellers_pkey  |          7118848
 2017-02-04 08:49:51.677428+01 | 1486194591.67743 | pgbench_accounts_pkey |       2246197248

 2017-02-04 08:49:52.766602+01 | 1486194592.7666 | pgbench_branches_pkey |          1826816
 2017-02-04 08:49:52.766602+01 | 1486194592.7666 | pgbench_tellers_pkey  |          7118848
 2017-02-04 08:49:52.766602+01 | 1486194592.7666 | pgbench_accounts_pkey |       2246197248

 2017-02-04 08:49:53.849397+01 | 1486194593.8494 | pgbench_branches_pkey |          1826816
 2017-02-04 08:49:53.849397+01 | 1486194593.8494 | pgbench_tellers_pkey  |          7118848
 2017-02-04 08:49:53.849397+01 | 1486194593.8494 | pgbench_accounts_pkey |       2246197248

 2017-02-04 08:49:54.938263+01 | 1486194594.93826 | pgbench_branches_pkey |          1826816
 2017-02-04 08:49:54.938263+01 | 1486194594.93826 | pgbench_tellers_pkey  |          7118848
 2017-02-04 08:49:54.938263+01 | 1486194594.93826 | pgbench_accounts_pkey |       2246197248

 2017-02-04 08:49:56.021836+01 | 1486194596.02184 | pgbench_branches_pkey |          1826816
 2017-02-04 08:49:56.021836+01 | 1486194596.02184 | pgbench_tellers_pkey  |          7118848
 2017-02-04 08:49:56.021836+01 | 1486194596.02184 | pgbench_accounts_pkey |       2246197248

 2017-02-04 08:49:57.107304+01 | 1486194597.1073 | pgbench_branches_pkey |          1826816
 2017-02-04 08:49:57.107304+01 | 1486194597.1073 | pgbench_tellers_pkey  |          7118848
 2017-02-04 08:49:57.107304+01 | 1486194597.1073 | pgbench_accounts_pkey |       2246197248

 2017-02-04 08:49:58.185219+01 | 1486194598.18522 | pgbench_branches_pkey |          1826816
 2017-02-04 08:49:58.185219+01 | 1486194598.18522 | pgbench_tellers_pkey  |          7118848
 2017-02-04 08:49:58.185219+01 | 1486194598.18522 | pgbench_accounts_pkey |       2246197248

 2017-02-04 08:49:59.267972+01 | 1486194599.26797 | pgbench_branches_pkey |          1826816
 2017-02-04 08:49:59.267972+01 | 1486194599.26797 | pgbench_tellers_pkey  |          7118848
 2017-02-04 08:49:59.267972+01 | 1486194599.26797 | pgbench_accounts_pkey |       2246197248

 2017-02-04 08:50:00.355991+01 | 1486194600.35599 | pgbench_branches_pkey |          1826816
 2017-02-04 08:50:00.355991+01 | 1486194600.35599 | pgbench_tellers_pkey  |          7118848
 2017-02-04 08:50:00.355991+01 | 1486194600.35599 | pgbench_accounts_pkey |       2246197248

 2017-02-04 08:50:01.435725+01 | 1486194601.43572 | pgbench_branches_pkey |          1826816
 2017-02-04 08:50:01.435725+01 | 1486194601.43572 | pgbench_tellers_pkey  |          7118848
 2017-02-04 08:50:01.435725+01 | 1486194601.43572 | pgbench_accounts_pkey |       2246197248

 2017-02-04 08:50:02.523125+01 | 1486194602.52312 | pgbench_branches_pkey |          1826816
 2017-02-04 08:50:02.523125+01 | 1486194602.52312 | pgbench_tellers_pkey  |          7118848
 2017-02-04 08:50:02.523125+01 | 1486194602.52312 | pgbench_accounts_pkey |       2246197248

 2017-02-04 08:50:03.610747+01 | 1486194603.61075 | pgbench_branches_pkey |          1826816
 2017-02-04 08:50:03.610747+01 | 1486194603.61075 | pgbench_tellers_pkey  |          7118848
 2017-02-04 08:50:03.610747+01 | 1486194603.61075 | pgbench_accounts_pkey |       2246197248

 2017-02-04 08:50:04.716477+01 | 1486194604.71648 | pgbench_branches_pkey |          1826816
 2017-02-04 08:50:04.716477+01 | 1486194604.71648 | pgbench_tellers_pkey  |          7118848
 2017-02-04 08:50:04.716477+01 | 1486194604.71648 | pgbench_accounts_pkey |       2246197248

 2017-02-04 08:50:05.817869+01 | 1486194605.81787 | pgbench_branches_pkey |          1826816
 2017-02-04 08:50:05.817869+01 | 1486194605.81787 | pgbench_tellers_pkey  |          7118848
 2017-02-04 08:50:05.817869+01 | 1486194605.81787 | pgbench_accounts_pkey |       2246197248

 2017-02-04 08:50:06.911627+01 | 1486194606.91163 | pgbench_branches_pkey |          1826816
 2017-02-04 08:50:06.911627+01 | 1486194606.91163 | pgbench_tellers_pkey  |          7118848
 2017-02-04 08:50:06.911627+01 | 1486194606.91163 | pgbench_accounts_pkey |       2246197248

 2017-02-04 08:50:08.010097+01 | 1486194608.0101 | pgbench_branches_pkey |          1826816
 2017-02-04 08:50:08.010097+01 | 1486194608.0101 | pgbench_tellers_pkey  |          7118848
 2017-02-04 08:50:08.010097+01 | 1486194608.0101 | pgbench_accounts_pkey |       2246197248

 2017-02-04 08:50:09.126461+01 | 1486194609.12646 | pgbench_branches_pkey |          1826816
 2017-02-04 08:50:09.126461+01 | 1486194609.12646 | pgbench_tellers_pkey  |          7118848
 2017-02-04 08:50:09.126461+01 | 1486194609.12646 | pgbench_accounts_pkey |       2246197248

 2017-02-04 08:50:10.218104+01 | 1486194610.2181 | pgbench_branches_pkey |          1826816
 2017-02-04 08:50:10.218104+01 | 1486194610.2181 | pgbench_tellers_pkey  |          7118848
 2017-02-04 08:50:10.218104+01 | 1486194610.2181 | pgbench_accounts_pkey |       2246197248

 2017-02-04 08:50:11.325459+01 | 1486194611.32546 | pgbench_branches_pkey |          1826816
 2017-02-04 08:50:11.325459+01 | 1486194611.32546 | pgbench_tellers_pkey  |          7118848
 2017-02-04 08:50:11.325459+01 | 1486194611.32546 | pgbench_accounts_pkey |       2246197248

 2017-02-04 08:50:12.419095+01 | 1486194612.4191 | pgbench_branches_pkey |          1826816
 2017-02-04 08:50:12.419095+01 | 1486194612.4191 | pgbench_tellers_pkey  |          7118848
 2017-02-04 08:50:12.419095+01 | 1486194612.4191 | pgbench_accounts_pkey |       2246197248

 2017-02-04 08:50:13.507194+01 | 1486194613.50719 | pgbench_branches_pkey |          1826816
 2017-02-04 08:50:13.507194+01 | 1486194613.50719 | pgbench_tellers_pkey  |          7118848
 2017-02-04 08:50:13.507194+01 | 1486194613.50719 | pgbench_accounts_pkey |       2246197248

 2017-02-04 08:50:14.600326+01 | 1486194614.60033 | pgbench_branches_pkey |          1826816
 2017-02-04 08:50:14.600326+01 | 1486194614.60033 | pgbench_tellers_pkey  |          7118848
 2017-02-04 08:50:14.600326+01 | 1486194614.60033 | pgbench_accounts_pkey |       2246197248

 2017-02-04 08:50:15.692092+01 | 1486194615.69209 | pgbench_branches_pkey |          1826816
 2017-02-04 08:50:15.692092+01 | 1486194615.69209 | pgbench_tellers_pkey  |          7118848
 2017-02-04 08:50:15.692092+01 | 1486194615.69209 | pgbench_accounts_pkey |       2246197248

 2017-02-04 08:50:16.779442+01 | 1486194616.77944 | pgbench_branches_pkey |          1826816
 2017-02-04 08:50:16.779442+01 | 1486194616.77944 | pgbench_tellers_pkey  |          7118848
 2017-02-04 08:50:16.779442+01 | 1486194616.77944 | pgbench_accounts_pkey |       2246197248

 2017-02-04 08:50:17.864108+01 | 1486194617.86411 | pgbench_branches_pkey |          1826816
 2017-02-04 08:50:17.864108+01 | 1486194617.86411 | pgbench_tellers_pkey  |          7118848
 2017-02-04 08:50:17.864108+01 | 1486194617.86411 | pgbench_accounts_pkey |       2246197248

 2017-02-04 08:50:18.936986+01 | 1486194618.93699 | pgbench_branches_pkey |          1826816
 2017-02-04 08:50:18.936986+01 | 1486194618.93699 | pgbench_tellers_pkey  |          7118848
 2017-02-04 08:50:18.936986+01 | 1486194618.93699 | pgbench_accounts_pkey |       2246197248

 2017-02-04 08:50:20.014737+01 | 1486194620.01474 | pgbench_branches_pkey |          1826816
 2017-02-04 08:50:20.014737+01 | 1486194620.01474 | pgbench_tellers_pkey  |          7118848
 2017-02-04 08:50:20.014737+01 | 1486194620.01474 | pgbench_accounts_pkey |       2246197248

 2017-02-04 08:50:21.083816+01 | 1486194621.08382 | pgbench_branches_pkey |          1826816
 2017-02-04 08:50:21.083816+01 | 1486194621.08382 | pgbench_tellers_pkey  |          7118848
 2017-02-04 08:50:21.083816+01 | 1486194621.08382 | pgbench_accounts_pkey |       2246197248

 2017-02-04 08:50:22.159667+01 | 1486194622.15967 | pgbench_branches_pkey |          1826816
 2017-02-04 08:50:22.159667+01 | 1486194622.15967 | pgbench_tellers_pkey  |          7118848
 2017-02-04 08:50:22.159667+01 | 1486194622.15967 | pgbench_accounts_pkey |       2246197248

 2017-02-04 08:50:23.232857+01 | 1486194623.23286 | pgbench_branches_pkey |          1826816
 2017-02-04 08:50:23.232857+01 | 1486194623.23286 | pgbench_tellers_pkey  |          7118848
 2017-02-04 08:50:23.232857+01 | 1486194623.23286 | pgbench_accounts_pkey |       2246197248

 2017-02-04 08:50:24.319429+01 | 1486194624.31943 | pgbench_branches_pkey |          1826816
 2017-02-04 08:50:24.319429+01 | 1486194624.31943 | pgbench_tellers_pkey  |          7118848
 2017-02-04 08:50:24.319429+01 | 1486194624.31943 | pgbench_accounts_pkey |       2246197248

 2017-02-04 08:50:25.411721+01 | 1486194625.41172 | pgbench_branches_pkey |          1826816
 2017-02-04 08:50:25.411721+01 | 1486194625.41172 | pgbench_tellers_pkey  |          7118848
 2017-02-04 08:50:25.411721+01 | 1486194625.41172 | pgbench_accounts_pkey |       2246197248

 2017-02-04 08:50:26.504366+01 | 1486194626.50437 | pgbench_branches_pkey |          1826816
 2017-02-04 08:50:26.504366+01 | 1486194626.50437 | pgbench_tellers_pkey  |          7118848
 2017-02-04 08:50:26.504366+01 | 1486194626.50437 | pgbench_accounts_pkey |       2246197248

 2017-02-04 08:50:27.582971+01 | 1486194627.58297 | pgbench_branches_pkey |          1826816
 2017-02-04 08:50:27.582971+01 | 1486194627.58297 | pgbench_tellers_pkey  |          7118848
 2017-02-04 08:50:27.582971+01 | 1486194627.58297 | pgbench_accounts_pkey |       2246197248

 2017-02-04 08:50:28.662952+01 | 1486194628.66295 | pgbench_branches_pkey |          1826816
 2017-02-04 08:50:28.662952+01 | 1486194628.66295 | pgbench_tellers_pkey  |          7118848
 2017-02-04 08:50:28.662952+01 | 1486194628.66295 | pgbench_accounts_pkey |       2246197248

 2017-02-04 08:50:29.751891+01 | 1486194629.75189 | pgbench_branches_pkey |          1826816
 2017-02-04 08:50:29.751891+01 | 1486194629.75189 | pgbench_tellers_pkey  |          7118848
 2017-02-04 08:50:29.751891+01 | 1486194629.75189 | pgbench_accounts_pkey |       2246197248

 2017-02-04 08:50:30.842511+01 | 1486194630.84251 | pgbench_branches_pkey |          1826816
 2017-02-04 08:50:30.842511+01 | 1486194630.84251 | pgbench_tellers_pkey  |          7118848
 2017-02-04 08:50:30.842511+01 | 1486194630.84251 | pgbench_accounts_pkey |       2246197248

 2017-02-04 08:50:31.925649+01 | 1486194631.92565 | pgbench_branches_pkey |          1826816
 2017-02-04 08:50:31.925649+01 | 1486194631.92565 | pgbench_tellers_pkey  |          7118848
 2017-02-04 08:50:31.925649+01 | 1486194631.92565 | pgbench_accounts_pkey |       2246197248

 2017-02-04 08:50:33.008766+01 | 1486194633.00877 | pgbench_branches_pkey |          1826816
 2017-02-04 08:50:33.008766+01 | 1486194633.00877 | pgbench_tellers_pkey  |          7118848
 2017-02-04 08:50:33.008766+01 | 1486194633.00877 | pgbench_accounts_pkey |       2246197248

 2017-02-04 08:50:34.098765+01 | 1486194634.09876 | pgbench_branches_pkey |          1826816
 2017-02-04 08:50:34.098765+01 | 1486194634.09876 | pgbench_tellers_pkey  |          7118848
 2017-02-04 08:50:34.098765+01 | 1486194634.09876 | pgbench_accounts_pkey |       2246197248

 2017-02-04 08:50:35.19138+01 | 1486194635.19138 | pgbench_branches_pkey |          1826816
 2017-02-04 08:50:35.19138+01 | 1486194635.19138 | pgbench_tellers_pkey  |          7118848
 2017-02-04 08:50:35.19138+01 | 1486194635.19138 | pgbench_accounts_pkey |       2246197248

 2017-02-04 08:50:36.291623+01 | 1486194636.29162 | pgbench_branches_pkey |          1826816
 2017-02-04 08:50:36.291623+01 | 1486194636.29162 | pgbench_tellers_pkey  |          7118848
 2017-02-04 08:50:36.291623+01 | 1486194636.29162 | pgbench_accounts_pkey |       2246197248

 2017-02-04 08:50:37.380588+01 | 1486194637.38059 | pgbench_branches_pkey |          1826816
 2017-02-04 08:50:37.380588+01 | 1486194637.38059 | pgbench_tellers_pkey  |          7118848
 2017-02-04 08:50:37.380588+01 | 1486194637.38059 | pgbench_accounts_pkey |       2246197248

 2017-02-04 08:50:38.468017+01 | 1486194638.46802 | pgbench_branches_pkey |          1826816
 2017-02-04 08:50:38.468017+01 | 1486194638.46802 | pgbench_tellers_pkey  |          7118848
 2017-02-04 08:50:38.468017+01 | 1486194638.46802 | pgbench_accounts_pkey |       2246197248

 2017-02-04 08:50:39.556934+01 | 1486194639.55693 | pgbench_branches_pkey |          1826816
 2017-02-04 08:50:39.556934+01 | 1486194639.55693 | pgbench_tellers_pkey  |          7118848
 2017-02-04 08:50:39.556934+01 | 1486194639.55693 | pgbench_accounts_pkey |       2246197248

 2017-02-04 08:50:40.644716+01 | 1486194640.64472 | pgbench_branches_pkey |          1826816
 2017-02-04 08:50:40.644716+01 | 1486194640.64472 | pgbench_tellers_pkey  |          7118848
 2017-02-04 08:50:40.644716+01 | 1486194640.64472 | pgbench_accounts_pkey |       2246197248

 2017-02-04 08:50:41.729823+01 | 1486194641.72982 | pgbench_branches_pkey |          1826816
 2017-02-04 08:50:41.729823+01 | 1486194641.72982 | pgbench_tellers_pkey  |          7118848
 2017-02-04 08:50:41.729823+01 | 1486194641.72982 | pgbench_accounts_pkey |       2246197248

