 2017-02-05 08:22:35.60696+01 | 1486279355.60696 | 2A/1DA9F0B0              |          180886302896

 2017-02-05 08:22:36.677117+01 | 1486279356.67712 | 2A/25C3A5D0              |          181022205392

 2017-02-05 08:22:37.745136+01 | 1486279357.74514 | 2A/2E132A28              |          181161634344

 2017-02-05 08:22:38.820822+01 | 1486279358.82082 | 2A/36FB0000              |          181311045632

 2017-02-05 08:22:39.898405+01 | 1486279359.89841 | 2A/405EA000              |          181468569600

 2017-02-05 08:22:40.969463+01 | 1486279360.96946 | 2A/4994A000              |          181623103488

 2017-02-05 08:22:42.052796+01 | 1486279362.0528 | 2A/52DDCEE8              |          181778894568

 2017-02-05 08:22:43.126048+01 | 1486279363.12605 | 2A/5BB2E000              |          181927075840

 2017-02-05 08:22:44.198498+01 | 1486279364.1985 | 2A/63F95388              |          182065910664

 2017-02-05 08:22:45.27965+01 | 1486279365.27965 | 2A/6C3ACC18              |          182204419096

 2017-02-05 08:22:46.352962+01 | 1486279366.35296 | 2A/74607018              |          182341103640

 2017-02-05 08:22:47.444172+01 | 1486279367.44417 | 2A/7B21D800              |          182454441984

 2017-02-05 08:22:48.528414+01 | 1486279368.52841 | 2A/82869958              |          182578485592

 2017-02-05 08:22:49.620068+01 | 1486279369.62007 | 2A/8A2AF268              |          182706696808

 2017-02-05 08:22:50.701711+01 | 1486279370.70171 | 2A/90C981F0              |          182817751536

 2017-02-05 08:22:51.781354+01 | 1486279371.78135 | 2A/978FEB90              |          182931418000

 2017-02-05 08:22:52.856083+01 | 1486279372.85608 | 2A/9E1BA000              |          183041236992

 2017-02-05 08:22:53.950264+01 | 1486279373.95026 | 2A/A4D77660              |          183154210400

 2017-02-05 08:22:55.029972+01 | 1486279375.02997 | 2A/AB08AF08              |          183258099464

 2017-02-05 08:22:56.107233+01 | 1486279376.10723 | 2A/B0FFBBA0              |          183358176160

 2017-02-05 08:22:57.176489+01 | 1486279377.17649 | 2A/B5C6E000              |          183438336000

 2017-02-05 08:22:58.258946+01 | 1486279378.25895 | 2A/BAB09CA0              |          183520763040

 2017-02-05 08:22:59.34838+01 | 1486279379.34838 | 2A/BFB85FE0              |          183605157856

 2017-02-05 08:23:00.43299+01 | 1486279380.43299 | 2A/C5114000              |          183694868480

 2017-02-05 08:23:01.511397+01 | 1486279381.5114 | 2A/CAA09880              |          183788148864

 2017-02-05 08:23:02.600193+01 | 1486279382.60019 | 2A/CF778AA0              |          183869344416

 2017-02-05 08:23:03.678577+01 | 1486279383.67858 | 2A/D38FB338              |          183938036536

 2017-02-05 08:23:04.763299+01 | 1486279384.7633 | 2A/D8B89368              |          184024601448

 2017-02-05 08:23:05.831281+01 | 1486279385.83128 | 2A/DE1D5748              |          184115091272

 2017-02-05 08:23:06.903771+01 | 1486279386.90377 | 2A/E30F0228              |          184198038056

 2017-02-05 08:23:07.975631+01 | 1486279387.97563 | 2A/E82F4F28              |          184284041000

 2017-02-05 08:23:09.066613+01 | 1486279389.06661 | 2A/ED25FDC8              |          184367316424

 2017-02-05 08:23:10.146133+01 | 1486279390.14613 | 2A/F2689850              |          184455567440

 2017-02-05 08:23:11.231724+01 | 1486279391.23172 | 2A/F7D6FF18              |          184546688792

 2017-02-05 08:23:12.322806+01 | 1486279392.32281 | 2A/FCB00BA8              |          184628022184

 2017-02-05 08:23:13.393182+01 | 1486279393.39318 | 2B/1820410               |          184708891664

 2017-02-05 08:23:14.476823+01 | 1486279394.47682 | 2B/6168818               |          184785733656

 2017-02-05 08:23:15.562998+01 | 1486279395.563 | 2B/AA05E98               |          184861875864

 2017-02-05 08:23:16.638042+01 | 1486279396.63804 | 2B/F02B8E0               |          184935430368

 2017-02-05 08:23:17.71248+01 | 1486279397.71248 | 2B/138EC930              |          185011718448

 2017-02-05 08:23:18.79132+01 | 1486279398.79132 | 2B/17D4DD40              |          185083419968

 2017-02-05 08:23:19.867128+01 | 1486279399.86713 | 2B/1C5A79C8              |          185159285192

 2017-02-05 08:23:20.953551+01 | 1486279400.95355 | 2B/20C36528              |          185233270056

 2017-02-05 08:23:22.042893+01 | 1486279402.04289 | 2B/248996D8              |          185296590552

 2017-02-05 08:23:23.118066+01 | 1486279403.11807 | 2B/28D0C1C0              |          185368363456

 2017-02-05 08:23:24.20054+01 | 1486279404.20054 | 2B/2D01EEA0              |          185438695072

 2017-02-05 08:23:25.273533+01 | 1486279405.27353 | 2B/30E70708              |          185504040712

 2017-02-05 08:23:26.36017+01 | 1486279406.36017 | 2B/342F7EF0              |          185559121648

 2017-02-05 08:23:27.444991+01 | 1486279407.44499 | 2B/37DB85B0              |          185620727216

 2017-02-05 08:23:28.520874+01 | 1486279408.52087 | 2B/3B17C630              |          185675007536

 2017-02-05 08:23:29.594903+01 | 1486279409.5949 | 2B/3EA48638              |          185734563384

 2017-02-05 08:23:30.680851+01 | 1486279410.68085 | 2B/42104A00              |          185791957504

 2017-02-05 08:23:31.753116+01 | 1486279411.75312 | 2B/4599F340              |          185851310912

 2017-02-05 08:23:32.829058+01 | 1486279412.82906 | 2B/49D6C300              |          185922405120

 2017-02-05 08:23:33.908044+01 | 1486279413.90804 | 2B/4D98C7B0              |          185985451952

 2017-02-05 08:23:35.002368+01 | 1486279415.00237 | 2B/516314F8              |          186049041656

 2017-02-05 08:23:36.07974+01 | 1486279416.07974 | 2B/55828FF8              |          186118213624

 2017-02-05 08:23:37.159349+01 | 1486279417.15935 | 2B/597170F0              |          186184200432

 2017-02-05 08:23:38.240304+01 | 1486279418.2403 | 2B/5D6D7068              |          186251047016

 2017-02-05 08:23:39.315833+01 | 1486279419.31583 | 2B/61407C88              |          186315209864

 2017-02-05 08:23:40.386394+01 | 1486279420.38639 | 2B/64F6A5C8              |          186377479624

 2017-02-05 08:23:41.45975+01 | 1486279421.45975 | 2B/689A37C0              |          186438531008

 2017-02-05 08:23:42.549299+01 | 1486279422.5493 | 2B/6B8CA000              |          186487971840

 2017-02-05 08:23:43.645735+01 | 1486279423.64574 | 2B/6ECA9908              |          186542364936

 2017-02-05 08:23:44.720766+01 | 1486279424.72077 | 2B/71FE4D28              |          186596085032

 2017-02-05 08:23:45.808665+01 | 1486279425.80867 | 2B/753DACB0              |          186650569904

 2017-02-05 08:23:46.889211+01 | 1486279426.88921 | 2B/7834D348              |          186700321608

 2017-02-05 08:23:47.972568+01 | 1486279427.97257 | 2B/7BD3CF70              |          186761072496

 2017-02-05 08:23:49.04191+01 | 1486279429.04191 | 2B/7F4F90C8              |          186819514568

 2017-02-05 08:23:50.133087+01 | 1486279430.13309 | 2B/82EB7450              |          186880062544

 2017-02-05 08:23:51.226528+01 | 1486279431.22653 | 2B/86B75848              |          186943756360

 2017-02-05 08:23:52.314611+01 | 1486279432.31461 | 2B/8A5320D0              |          187004297424

 2017-02-05 08:23:53.387938+01 | 1486279433.38794 | 2B/8DFAA458              |          187065607256

 2017-02-05 08:23:54.469899+01 | 1486279434.4699 | 2B/91367CC8              |          187119860936

 2017-02-05 08:23:55.559271+01 | 1486279435.55927 | 2B/94AB3928              |          187177842984

 2017-02-05 08:23:56.630633+01 | 1486279436.63063 | 2B/982D7330              |          187236709168

 2017-02-05 08:23:57.708242+01 | 1486279437.70824 | 2B/9BA48AA8              |          187294845608

 2017-02-05 08:23:58.790029+01 | 1486279438.79003 | 2B/9EFBDE28              |          187350900264

 2017-02-05 08:23:59.866242+01 | 1486279439.86624 | 2B/A268A558              |          187408360792

 2017-02-05 08:24:00.945865+01 | 1486279440.94586 | 2B/A5849830              |          187460524080

 2017-02-05 08:24:02.030347+01 | 1486279442.03035 | 2B/A8F85E10              |          187518443320

 2017-02-05 08:24:03.110493+01 | 1486279443.11049 | 2B/AC6C2138              |          187576361272

 2017-02-05 08:24:04.203286+01 | 1486279444.20329 | 2B/AFDEF458              |          187634218072

 2017-02-05 08:24:05.289174+01 | 1486279445.28917 | 2B/B312BF10              |          187687943952

 2017-02-05 08:24:06.368668+01 | 1486279446.36867 | 2B/B619D3E0              |          187738739680

 2017-02-05 08:24:07.452565+01 | 1486279447.45256 | 2B/B9471BC0              |          187792038848

 2017-02-05 08:24:08.546301+01 | 1486279448.5463 | 2B/BC9BC460              |          187847918688

 2017-02-05 08:24:09.634733+01 | 1486279449.63473 | 2B/BFBCCC08              |          187900414984

 2017-02-05 08:24:10.723626+01 | 1486279450.72363 | 2B/C2B32B20              |          187950115616

 2017-02-05 08:24:11.798608+01 | 1486279451.79861 | 2B/C5937E00              |          187998371328

 2017-02-05 08:24:12.876518+01 | 1486279452.87652 | 2B/C8B693A8              |          188051002280

 2017-02-05 08:24:13.947212+01 | 1486279453.94721 | 2B/CBD2EB50              |          188103191376

 2017-02-05 08:24:15.034604+01 | 1486279455.0346 | 2B/CEFA39D0              |          188156099024

 2017-02-05 08:24:16.12129+01 | 1486279456.12129 | 2B/D1ED6370              |          188205589360

 2017-02-05 08:24:17.214079+01 | 1486279457.21408 | 2B/D5073308              |          188257612552

 2017-02-05 08:24:18.289164+01 | 1486279458.28916 | 2B/D820A708              |          188309612296

 2017-02-05 08:24:19.381257+01 | 1486279459.38126 | 2B/DB57F490              |          188363568272

 2017-02-05 08:24:20.464729+01 | 1486279460.46473 | 2B/DE5A7B50              |          188414065488

 2017-02-05 08:24:21.551271+01 | 1486279461.55127 | 2B/E1486B78              |          188463213432

 2017-02-05 08:24:22.625231+01 | 1486279462.62523 | 2B/E4464A18              |          188513405464

 2017-02-05 08:24:23.700609+01 | 1486279463.70061 | 2B/E742CDE8              |          188563508712

 2017-02-05 08:24:24.771193+01 | 1486279464.77119 | 2B/EA38A0B0              |          188613173424

 2017-02-05 08:24:25.855395+01 | 1486279465.8554 | 2B/ECFA33C0              |          188659413952

 2017-02-05 08:24:26.950157+01 | 1486279466.95016 | 2B/EFFCB3D8              |          188709909464

 2017-02-05 08:24:28.022202+01 | 1486279468.0222 | 2B/F30CA898              |          188761286808

 2017-02-05 08:24:29.110159+01 | 1486279469.11016 | 2B/F6075FA8              |          188811272104

 2017-02-05 08:24:30.179286+01 | 1486279470.17929 | 2B/F8B413A8              |          188856144808

 2017-02-05 08:24:31.255156+01 | 1486279471.25516 | 2B/FB988EC8              |          188904672968

 2017-02-05 08:24:32.328111+01 | 1486279472.32811 | 2B/FE81B120              |          188953506080

 2017-02-05 08:24:33.421424+01 | 1486279473.42142 | 2C/143A000               |          188999770112

 2017-02-05 08:24:34.506876+01 | 1486279474.50688 | 2C/38C0F80               |          189038071680

 2017-02-05 08:24:35.599228+01 | 1486279475.59923 | 2C/5F14000               |          189078257664

 2017-02-05 08:24:36.683306+01 | 1486279476.68331 | 2C/8478358               |          189117465432

 2017-02-05 08:24:37.77046+01 | 1486279477.77046 | 2C/AA53DF8               |          189157162488

 2017-02-05 08:24:38.859763+01 | 1486279478.85976 | 2C/CAB0668               |          189191095912

 2017-02-05 08:24:39.946803+01 | 1486279479.9468 | 2C/F5306D0               |          189235660496

 2017-02-05 08:24:41.021262+01 | 1486279481.02126 | 2C/11E01740              |          189278459712

 2017-02-05 08:24:42.109446+01 | 1486279482.10945 | 2C/13F8C3F0              |          189313631216

 2017-02-05 08:24:43.184883+01 | 1486279483.18488 | 2C/16456468              |          189352207464

 2017-02-05 08:24:44.261094+01 | 1486279484.26109 | 2C/18AD6330              |          189392577328

 2017-02-05 08:24:45.34018+01 | 1486279485.34018 | 2C/1AC51E40              |          189427686976

 2017-02-05 08:24:46.4217+01 | 1486279486.4217 | 2C/1D1C8078              |          189466968184

 2017-02-05 08:24:47.493547+01 | 1486279487.49355 | 2C/1F70AE88              |          189506039432

 2017-02-05 08:24:48.57505+01 | 1486279488.57505 | 2C/21E5BD20              |          189547265312

 2017-02-05 08:24:49.658621+01 | 1486279489.65862 | 2C/247455E0              |          189590164960

 2017-02-05 08:24:50.745344+01 | 1486279490.74534 | 2C/26E1D650              |          189630895696

 2017-02-05 08:24:51.823732+01 | 1486279491.82373 | 2C/2976C928              |          189674211624

 2017-02-05 08:24:52.895819+01 | 1486279492.89582 | 2C/2BF6DF60              |          189716160352

 2017-02-05 08:24:53.982074+01 | 1486279493.98207 | 2C/2E9A1640              |          189760411200

 2017-02-05 08:24:55.070515+01 | 1486279495.07051 | 2C/31023150              |          189800788304

 2017-02-05 08:24:56.145222+01 | 1486279496.14522 | 2C/337BB4F0              |          189842306288

 2017-02-05 08:24:57.215973+01 | 1486279497.21597 | 2C/3603C458              |          189884777560

 2017-02-05 08:24:58.300498+01 | 1486279498.3005 | 2C/3886FDF0              |          189926931952

 2017-02-05 08:24:59.373205+01 | 1486279499.3732 | 2C/3AD4F3D8              |          189965595608

 2017-02-05 08:25:00.458748+01 | 1486279500.45875 | 2C/3D46CA90              |          190006610576

 2017-02-05 08:25:01.533322+01 | 1486279501.53332 | 2C/3FB22C08              |          190047202312

 2017-02-05 08:25:02.614015+01 | 1486279502.61402 | 2C/422079A8              |          190087985576

 2017-02-05 08:25:03.693663+01 | 1486279503.69366 | 2C/4482F6C8              |          190127994568

 2017-02-05 08:25:04.774586+01 | 1486279504.77459 | 2C/46D3C5A8              |          190166844840

 2017-02-05 08:25:05.854599+01 | 1486279505.8546 | 2C/4931D740              |          190206564160

 2017-02-05 08:25:06.927085+01 | 1486279506.92708 | 2C/4B953E40              |          190246633024

 2017-02-05 08:25:08.003872+01 | 1486279508.00387 | 2C/4DF66488              |          190286554248

 2017-02-05 08:25:09.092635+01 | 1486279509.09263 | 2C/50444BA0              |          190325214112

 2017-02-05 08:25:10.180162+01 | 1486279510.18016 | 2C/52916000              |          190363820032

 2017-02-05 08:25:11.254969+01 | 1486279511.25497 | 2C/54E12080              |          190402601088

 2017-02-05 08:25:12.342959+01 | 1486279512.34296 | 2C/57319E00              |          190441430528

 2017-02-05 08:25:13.414368+01 | 1486279513.41437 | 2C/5962C3A8              |          190478205864

 2017-02-05 08:25:14.495019+01 | 1486279514.49502 | 2C/5B9EEFB8              |          190515703736

 2017-02-05 08:25:15.582479+01 | 1486279515.58248 | 2C/5DD6AC38              |          190552910904

 2017-02-05 08:25:16.656562+01 | 1486279516.65656 | 2C/6016AA88              |          190590659208

 2017-02-05 08:25:17.735488+01 | 1486279517.73549 | 2C/62620670              |          190629152368

 2017-02-05 08:25:18.807033+01 | 1486279518.80703 | 2C/64850048              |          190664998984

 2017-02-05 08:25:19.877926+01 | 1486279519.87793 | 2C/66AF9950              |          190701345104

 2017-02-05 08:25:20.969154+01 | 1486279520.96915 | 2C/68DAFB98              |          190737742744

 2017-02-05 08:25:22.054557+01 | 1486279522.05456 | 2C/6B185080              |          190775316608

 2017-02-05 08:25:23.122597+01 | 1486279523.1226 | 2C/6D3ADF48              |          190811135816

 2017-02-05 08:25:24.214372+01 | 1486279524.21437 | 2C/6F3FDAC0              |          190845016768

 2017-02-05 08:25:25.289147+01 | 1486279525.28915 | 2C/715EE9D0              |          190880606672

 2017-02-05 08:25:26.368405+01 | 1486279526.36841 | 2C/73884298              |          190916870808

 2017-02-05 08:25:27.440306+01 | 1486279527.44031 | 2C/75AB3390              |          190952715152

 2017-02-05 08:25:28.526215+01 | 1486279528.52622 | 2C/77AB6F70              |          190986284912

 2017-02-05 08:25:29.617653+01 | 1486279529.61765 | 2C/79C22588              |          191021327752

 2017-02-05 08:25:30.693232+01 | 1486279530.69323 | 2C/7BB9D3B0              |          191054336944

 2017-02-05 08:25:31.769265+01 | 1486279531.76926 | 2C/7DC7F9A0              |          191088818592

 2017-02-05 08:25:32.85137+01 | 1486279532.85137 | 2C/7FD64240              |          191123309120

 2017-02-05 08:25:33.932682+01 | 1486279533.93268 | 2C/81DAC560              |          191157159264

 2017-02-05 08:25:35.004603+01 | 1486279535.0046 | 2C/83E94F00              |          191191666432

 2017-02-05 08:25:36.089521+01 | 1486279536.08952 | 2C/85E6B7E8              |          191225051112

 2017-02-05 08:25:37.160682+01 | 1486279537.16068 | 2C/87E3DE50              |          191258418768

 2017-02-05 08:25:38.233674+01 | 1486279538.23367 | 2C/89E9FCB0              |          191292374192

 2017-02-05 08:25:39.313383+01 | 1486279539.31338 | 2C/8BEAA360              |          191325971296

 2017-02-05 08:25:40.394979+01 | 1486279540.39498 | 2C/8DC96CC8              |          191357349064

 2017-02-05 08:25:41.470012+01 | 1486279541.47001 | 2C/8FCDD828              |          191391193128

 2017-02-05 08:25:42.557354+01 | 1486279542.55735 | 2C/91BA1DF0              |          191423454704

 2017-02-05 08:25:43.643197+01 | 1486279543.6432 | 2C/93C6BA00              |          191457835520

 2017-02-05 08:25:44.72908+01 | 1486279544.72908 | 2C/95B21610              |          191490037264

 2017-02-05 08:25:45.817557+01 | 1486279545.81756 | 2C/97943AF8              |          191521635064

 2017-02-05 08:25:46.886796+01 | 1486279546.8868 | 2C/9982FEE8              |          191554060008

 2017-02-05 08:25:47.963769+01 | 1486279547.96377 | 2C/9B6A32C0              |          191585989312

 2017-02-05 08:25:49.046323+01 | 1486279549.04632 | 2C/9D58E560              |          191618409824

 2017-02-05 08:25:50.126385+01 | 1486279550.12638 | 2C/9F22C638              |          191648417336

 2017-02-05 08:25:51.207693+01 | 1486279551.20769 | 2C/A0FFFD88              |          191679692168

 2017-02-05 08:25:52.300823+01 | 1486279552.30082 | 2C/A2FFCC70              |          191713234032

 2017-02-05 08:25:53.381517+01 | 1486279553.38152 | 2C/A4EB1CE8              |          191745432808

 2017-02-05 08:25:54.447736+01 | 1486279554.44774 | 2C/A69C11E0              |          191773807072

 2017-02-05 08:25:55.520687+01 | 1486279555.52069 | 2C/A8746880              |          191804762240

 2017-02-05 08:25:56.598686+01 | 1486279556.59869 | 2C/AA4310C8              |          191835082952

 2017-02-05 08:25:57.673287+01 | 1486279557.67329 | 2C/AC0EF5C0              |          191865222592

 2017-02-05 08:25:58.751513+01 | 1486279558.75151 | 2C/ADDAD0C0              |          191895359680

 2017-02-05 08:25:59.839268+01 | 1486279559.83927 | 2C/AF918000              |          191924109312

 2017-02-05 08:26:00.917495+01 | 1486279560.9175 | 2C/B1542430              |          191953642544

 2017-02-05 08:26:01.99291+01 | 1486279561.99291 | 2C/B3127030              |          191982891056

 2017-02-05 08:26:03.081752+01 | 1486279563.08175 | 2C/B4EA7DC0              |          192013827520

 2017-02-05 08:26:04.162887+01 | 1486279564.16289 | 2C/B69F3A98              |          192042449560

 2017-02-05 08:26:05.246987+01 | 1486279565.24699 | 2C/B86C0D60              |          192072650080

 2017-02-05 08:26:06.322642+01 | 1486279566.32264 | 2C/BA22CE50              |          192101404240

 2017-02-05 08:26:07.397205+01 | 1486279567.39721 | 2C/BBD7E2C0              |          192130048704

 2017-02-05 08:26:08.47159+01 | 1486279568.47159 | 2C/BD774288              |          192157270664

 2017-02-05 08:26:09.561766+01 | 1486279569.56177 | 2C/BF22E3F0              |          192185295856

 2017-02-05 08:26:10.644788+01 | 1486279570.64479 | 2C/C0D5A908              |          192213788936

 2017-02-05 08:26:11.722286+01 | 1486279571.72229 | 2C/C2816B40              |          192241822528

 2017-02-05 08:26:12.795337+01 | 1486279572.79534 | 2C/C421ABC8              |          192269102024

 2017-02-05 08:26:13.865725+01 | 1486279573.86573 | 2C/C5B3D7E0              |          192295458784

 2017-02-05 08:26:14.94512+01 | 1486279574.94512 | 2C/C75A6CD0              |          192323153104

 2017-02-05 08:26:16.019785+01 | 1486279576.01978 | 2C/C9044F88              |          192351063944

 2017-02-05 08:26:17.102409+01 | 1486279577.10241 | 2C/CAABA520              |          192378807584

 2017-02-05 08:26:18.178921+01 | 1486279578.17892 | 2C/CC466C70              |          192405728368

 2017-02-05 08:26:19.26162+01 | 1486279579.26162 | 2C/CDC93DE0              |          192431078880

 2017-02-05 08:26:20.334736+01 | 1486279580.33474 | 2C/CF624CB0              |          192457886896

 2017-02-05 08:26:21.408444+01 | 1486279581.40844 | 2C/D0EF6798              |          192483911576

 2017-02-05 08:26:22.489474+01 | 1486279582.48947 | 2C/D28EF0A0              |          192511144096

 2017-02-05 08:26:23.57188+01 | 1486279583.57188 | 2C/D4313B78              |          192538557304

 2017-02-05 08:26:24.636043+01 | 1486279584.63604 | 2C/D5B4A7B0              |          192563947440

 2017-02-05 08:26:25.708066+01 | 1486279585.70807 | 2C/D758B3A0              |          192591475616

 2017-02-05 08:26:26.777566+01 | 1486279586.77757 | 2C/D8E1E238              |          192617243192

 2017-02-05 08:26:27.86044+01 | 1486279587.86044 | 2C/DA5120C8              |          192641310920

 2017-02-05 08:26:28.951985+01 | 1486279588.95198 | 2C/DBE06058              |          192667476056

 2017-02-05 08:26:30.038622+01 | 1486279590.03862 | 2C/DD698B38              |          192693242680

 2017-02-05 08:26:31.117161+01 | 1486279591.11716 | 2C/DEFDA920              |          192719726880

 2017-02-05 08:26:32.194987+01 | 1486279592.19499 | 2C/E07064A0              |          192744023200

 2017-02-05 08:26:33.262855+01 | 1486279593.26286 | 2C/E1CCBB50              |          192766851920

 2017-02-05 08:26:34.343177+01 | 1486279594.34318 | 2C/E3463908              |          192791591176

 2017-02-05 08:26:35.429731+01 | 1486279595.42973 | 2C/E4D5B8E0              |          192817772768

 2017-02-05 08:26:36.519673+01 | 1486279596.51967 | 2C/E6326AE8              |          192840624872

 2017-02-05 08:26:37.596194+01 | 1486279597.59619 | 2C/E75C93E8              |          192860165096

 2017-02-05 08:26:38.683867+01 | 1486279598.68387 | 2C/E89AC740              |          192881018688

 2017-02-05 08:26:39.753462+01 | 1486279599.75346 | 2C/E9C0C000              |          192900284416

 2017-02-05 08:26:40.831379+01 | 1486279600.83138 | 2C/EAFB3660              |          192920893024

 2017-02-05 08:26:41.914754+01 | 1486279601.91475 | 2C/EC5E88A8              |          192944179368

 2017-02-05 08:26:42.988975+01 | 1486279602.98898 | 2C/EDA83620              |          192965785120

 2017-02-05 08:26:44.060387+01 | 1486279604.06039 | 2C/EEDAE0F0              |          192985882864

 2017-02-05 08:26:45.133767+01 | 1486279605.13377 | 2C/EFF88BE0              |          193004604384

 2017-02-05 08:26:46.221612+01 | 1486279606.22161 | 2C/F13055B0              |          193025037744

 2017-02-05 08:26:47.306329+01 | 1486279607.30633 | 2C/F287B800              |          193047541760

 2017-02-05 08:26:48.379606+01 | 1486279608.37961 | 2C/F3DE2438              |          193069982776

 2017-02-05 08:26:49.449861+01 | 1486279609.44986 | 2C/F511B000              |          193090138112

 2017-02-05 08:26:50.522293+01 | 1486279610.52229 | 2C/F6601E80              |          193112055424

 2017-02-05 08:26:51.612133+01 | 1486279611.61213 | 2C/F7B70C40              |          193134529600

 2017-02-05 08:26:52.699085+01 | 1486279612.69908 | 2C/F91765C0              |          193157621184

 2017-02-05 08:26:53.766317+01 | 1486279613.76632 | 2C/FA72C9F0              |          193180387824

 2017-02-05 08:26:54.854869+01 | 1486279614.85487 | 2C/FBBCF6E8              |          193202026216

 2017-02-05 08:26:55.941523+01 | 1486279615.94152 | 2C/FD123C78              |          193224391800

 2017-02-05 08:26:57.019631+01 | 1486279617.01963 | 2C/FE64BFA0              |          193246576544

 2017-02-05 08:26:58.086185+01 | 1486279618.08618 | 2C/FFAC8000              |          193268056064

 2017-02-05 08:26:59.15797+01 | 1486279619.15797 | 2D/EAE800                |          193288923136

 2017-02-05 08:27:00.236948+01 | 1486279620.23695 | 2D/229E600               |          193309828608

 2017-02-05 08:27:01.323365+01 | 1486279621.32336 | 2D/3779090               |          193331695760

 2017-02-05 08:27:02.42099+01 | 1486279622.42099 | 2D/4C35740               |          193353439040

 2017-02-05 08:27:03.506781+01 | 1486279623.50678 | 2D/607C2D8               |          193374700248

 2017-02-05 08:27:04.580225+01 | 1486279624.58022 | 2D/737B268               |          193394618984

 2017-02-05 08:27:05.653295+01 | 1486279625.6533 | 2D/83790C8               |          193411387592

 2017-02-05 08:27:06.737394+01 | 1486279626.73739 | 2D/95209C8               |          193429899720

 2017-02-05 08:27:07.81381+01 | 1486279627.81381 | 2D/A62CF88               |          193447776136

 2017-02-05 08:27:08.894174+01 | 1486279628.89417 | 2D/B859638               |          193466832440

 2017-02-05 08:27:09.984074+01 | 1486279629.98407 | 2D/CBEB9A8               |          193487354280

 2017-02-05 08:27:11.063101+01 | 1486279631.0631 | 2D/DF05AF8               |          193507384056

 2017-02-05 08:27:12.139632+01 | 1486279632.13963 | 2D/F150000               |          193526562816

 2017-02-05 08:27:13.231658+01 | 1486279633.23166 | 2D/1055D040              |          193547587648

 2017-02-05 08:27:14.318532+01 | 1486279634.31853 | 2D/1188C148              |          193567703368

 2017-02-05 08:27:15.400311+01 | 1486279635.40031 | 2D/12C28F88              |          193588268936

 2017-02-05 08:27:16.467168+01 | 1486279636.46717 | 2D/140A69E8              |          193609755112

 2017-02-05 08:27:17.541248+01 | 1486279637.54125 | 2D/1546D3D0              |          193630491600

 2017-02-05 08:27:18.629374+01 | 1486279638.62937 | 2D/1686E6F8              |          193651468024

 2017-02-05 08:27:19.699917+01 | 1486279639.69992 | 2D/179BDB90              |          193669618576

 2017-02-05 08:27:20.787487+01 | 1486279640.78749 | 2D/18C233F8              |          193688908792

 2017-02-05 08:27:21.878975+01 | 1486279641.87897 | 2D/19F33858              |          193708898392

 2017-02-05 08:27:22.959337+01 | 1486279642.95934 | 2D/1B259AA8              |          193728977576

 2017-02-05 08:27:24.037908+01 | 1486279644.03791 | 2D/1C4F6C78              |          193748495480

 2017-02-05 08:27:25.111542+01 | 1486279645.11154 | 2D/1D64D328              |          193766675240

 2017-02-05 08:27:26.201785+01 | 1486279646.20179 | 2D/1E851140              |          193785565504

 2017-02-05 08:27:27.281459+01 | 1486279647.28146 | 2D/1FA2EA90              |          193804298896

 2017-02-05 08:27:28.349832+01 | 1486279648.34983 | 2D/20C02690              |          193822992016

 2017-02-05 08:27:29.432957+01 | 1486279649.43296 | 2D/21F34BA8              |          193843121064

 2017-02-05 08:27:30.508709+01 | 1486279650.50871 | 2D/23013C68              |          193860811880

 2017-02-05 08:27:31.589571+01 | 1486279651.58957 | 2D/23F28238              |          193876623928

 2017-02-05 08:27:32.674072+01 | 1486279652.67407 | 2D/24D2E490              |          193891329168

 2017-02-05 08:27:33.767672+01 | 1486279653.76767 | 2D/25C57F70              |          193907228528

 2017-02-05 08:27:34.853007+01 | 1486279654.85301 | 2D/26CE4C18              |          193924582424

