 2017-02-05 04:04:07.584473+01 | 1486263847.58447 | pgbench_branches_pkey |            40960
 2017-02-05 04:04:07.584473+01 | 1486263847.58447 | pgbench_tellers_pkey  |           245760
 2017-02-05 04:04:07.584473+01 | 1486263847.58447 | pgbench_accounts_pkey |       2246197248

 2017-02-05 04:04:08.673269+01 | 1486263848.67327 | pgbench_branches_pkey |            40960
 2017-02-05 04:04:08.673269+01 | 1486263848.67327 | pgbench_tellers_pkey  |           245760
 2017-02-05 04:04:08.673269+01 | 1486263848.67327 | pgbench_accounts_pkey |       2246197248

 2017-02-05 04:04:09.76049+01 | 1486263849.76049 | pgbench_branches_pkey |            40960
 2017-02-05 04:04:09.76049+01 | 1486263849.76049 | pgbench_tellers_pkey  |           245760
 2017-02-05 04:04:09.76049+01 | 1486263849.76049 | pgbench_accounts_pkey |       2246197248

 2017-02-05 04:04:10.845083+01 | 1486263850.84508 | pgbench_branches_pkey |            40960
 2017-02-05 04:04:10.845083+01 | 1486263850.84508 | pgbench_tellers_pkey  |           245760
 2017-02-05 04:04:10.845083+01 | 1486263850.84508 | pgbench_accounts_pkey |       2246197248

 2017-02-05 04:04:11.931069+01 | 1486263851.93107 | pgbench_branches_pkey |            40960
 2017-02-05 04:04:11.931069+01 | 1486263851.93107 | pgbench_tellers_pkey  |           245760
 2017-02-05 04:04:11.931069+01 | 1486263851.93107 | pgbench_accounts_pkey |       2246197248

 2017-02-05 04:04:13.01233+01 | 1486263853.01233 | pgbench_branches_pkey |            40960
 2017-02-05 04:04:13.01233+01 | 1486263853.01233 | pgbench_tellers_pkey  |           245760
 2017-02-05 04:04:13.01233+01 | 1486263853.01233 | pgbench_accounts_pkey |       2246197248

 2017-02-05 04:04:14.090709+01 | 1486263854.09071 | pgbench_branches_pkey |            40960
 2017-02-05 04:04:14.090709+01 | 1486263854.09071 | pgbench_tellers_pkey  |           245760
 2017-02-05 04:04:14.090709+01 | 1486263854.09071 | pgbench_accounts_pkey |       2246197248

 2017-02-05 04:04:15.169578+01 | 1486263855.16958 | pgbench_branches_pkey |            40960
 2017-02-05 04:04:15.169578+01 | 1486263855.16958 | pgbench_tellers_pkey  |           245760
 2017-02-05 04:04:15.169578+01 | 1486263855.16958 | pgbench_accounts_pkey |       2246197248

 2017-02-05 04:04:16.246304+01 | 1486263856.2463 | pgbench_branches_pkey |            40960
 2017-02-05 04:04:16.246304+01 | 1486263856.2463 | pgbench_tellers_pkey  |           245760
 2017-02-05 04:04:16.246304+01 | 1486263856.2463 | pgbench_accounts_pkey |       2246197248

 2017-02-05 04:04:17.326111+01 | 1486263857.32611 | pgbench_branches_pkey |            40960
 2017-02-05 04:04:17.326111+01 | 1486263857.32611 | pgbench_tellers_pkey  |           245760
 2017-02-05 04:04:17.326111+01 | 1486263857.32611 | pgbench_accounts_pkey |       2246197248

 2017-02-05 04:04:18.402292+01 | 1486263858.40229 | pgbench_branches_pkey |            40960
 2017-02-05 04:04:18.402292+01 | 1486263858.40229 | pgbench_tellers_pkey  |           245760
 2017-02-05 04:04:18.402292+01 | 1486263858.40229 | pgbench_accounts_pkey |       2246197248

 2017-02-05 04:04:19.486312+01 | 1486263859.48631 | pgbench_branches_pkey |            40960
 2017-02-05 04:04:19.486312+01 | 1486263859.48631 | pgbench_tellers_pkey  |           245760
 2017-02-05 04:04:19.486312+01 | 1486263859.48631 | pgbench_accounts_pkey |       2246197248

 2017-02-05 04:04:20.567269+01 | 1486263860.56727 | pgbench_branches_pkey |            40960
 2017-02-05 04:04:20.567269+01 | 1486263860.56727 | pgbench_tellers_pkey  |           245760
 2017-02-05 04:04:20.567269+01 | 1486263860.56727 | pgbench_accounts_pkey |       2246197248

 2017-02-05 04:04:21.642732+01 | 1486263861.64273 | pgbench_branches_pkey |            40960
 2017-02-05 04:04:21.642732+01 | 1486263861.64273 | pgbench_tellers_pkey  |           245760
 2017-02-05 04:04:21.642732+01 | 1486263861.64273 | pgbench_accounts_pkey |       2246197248

 2017-02-05 04:04:22.73039+01 | 1486263862.73039 | pgbench_branches_pkey |            40960
 2017-02-05 04:04:22.73039+01 | 1486263862.73039 | pgbench_tellers_pkey  |           245760
 2017-02-05 04:04:22.73039+01 | 1486263862.73039 | pgbench_accounts_pkey |       2246197248

 2017-02-05 04:04:23.811277+01 | 1486263863.81128 | pgbench_branches_pkey |            40960
 2017-02-05 04:04:23.811277+01 | 1486263863.81128 | pgbench_tellers_pkey  |           245760
 2017-02-05 04:04:23.811277+01 | 1486263863.81128 | pgbench_accounts_pkey |       2246197248

 2017-02-05 04:04:24.887057+01 | 1486263864.88706 | pgbench_branches_pkey |            40960
 2017-02-05 04:04:24.887057+01 | 1486263864.88706 | pgbench_tellers_pkey  |           245760
 2017-02-05 04:04:24.887057+01 | 1486263864.88706 | pgbench_accounts_pkey |       2246197248

 2017-02-05 04:04:25.969722+01 | 1486263865.96972 | pgbench_branches_pkey |            40960
 2017-02-05 04:04:25.969722+01 | 1486263865.96972 | pgbench_tellers_pkey  |           245760
 2017-02-05 04:04:25.969722+01 | 1486263865.96972 | pgbench_accounts_pkey |       2246197248

 2017-02-05 04:04:27.044155+01 | 1486263867.04415 | pgbench_branches_pkey |            40960
 2017-02-05 04:04:27.044155+01 | 1486263867.04415 | pgbench_tellers_pkey  |           245760
 2017-02-05 04:04:27.044155+01 | 1486263867.04415 | pgbench_accounts_pkey |       2246197248

 2017-02-05 04:04:28.116041+01 | 1486263868.11604 | pgbench_branches_pkey |            40960
 2017-02-05 04:04:28.116041+01 | 1486263868.11604 | pgbench_tellers_pkey  |           245760
 2017-02-05 04:04:28.116041+01 | 1486263868.11604 | pgbench_accounts_pkey |       2246197248

 2017-02-05 04:04:29.184651+01 | 1486263869.18465 | pgbench_branches_pkey |            40960
 2017-02-05 04:04:29.184651+01 | 1486263869.18465 | pgbench_tellers_pkey  |           245760
 2017-02-05 04:04:29.184651+01 | 1486263869.18465 | pgbench_accounts_pkey |       2246197248

 2017-02-05 04:04:30.259024+01 | 1486263870.25902 | pgbench_branches_pkey |            40960
 2017-02-05 04:04:30.259024+01 | 1486263870.25902 | pgbench_tellers_pkey  |           245760
 2017-02-05 04:04:30.259024+01 | 1486263870.25902 | pgbench_accounts_pkey |       2246197248

 2017-02-05 04:04:31.339109+01 | 1486263871.33911 | pgbench_branches_pkey |            40960
 2017-02-05 04:04:31.339109+01 | 1486263871.33911 | pgbench_tellers_pkey  |           245760
 2017-02-05 04:04:31.339109+01 | 1486263871.33911 | pgbench_accounts_pkey |       2246197248

 2017-02-05 04:04:32.418356+01 | 1486263872.41836 | pgbench_branches_pkey |            40960
 2017-02-05 04:04:32.418356+01 | 1486263872.41836 | pgbench_tellers_pkey  |           245760
 2017-02-05 04:04:32.418356+01 | 1486263872.41836 | pgbench_accounts_pkey |       2246197248

 2017-02-05 04:04:33.494183+01 | 1486263873.49418 | pgbench_branches_pkey |            40960
 2017-02-05 04:04:33.494183+01 | 1486263873.49418 | pgbench_tellers_pkey  |           245760
 2017-02-05 04:04:33.494183+01 | 1486263873.49418 | pgbench_accounts_pkey |       2246197248

 2017-02-05 04:04:34.56695+01 | 1486263874.56695 | pgbench_branches_pkey |            40960
 2017-02-05 04:04:34.56695+01 | 1486263874.56695 | pgbench_tellers_pkey  |           245760
 2017-02-05 04:04:34.56695+01 | 1486263874.56695 | pgbench_accounts_pkey |       2246197248

 2017-02-05 04:04:35.650024+01 | 1486263875.65002 | pgbench_branches_pkey |            40960
 2017-02-05 04:04:35.650024+01 | 1486263875.65002 | pgbench_tellers_pkey  |           245760
 2017-02-05 04:04:35.650024+01 | 1486263875.65002 | pgbench_accounts_pkey |       2246197248

 2017-02-05 04:04:36.72562+01 | 1486263876.72562 | pgbench_branches_pkey |            40960
 2017-02-05 04:04:36.72562+01 | 1486263876.72562 | pgbench_tellers_pkey  |           245760
 2017-02-05 04:04:36.72562+01 | 1486263876.72562 | pgbench_accounts_pkey |       2246197248

 2017-02-05 04:04:37.804497+01 | 1486263877.8045 | pgbench_branches_pkey |            40960
 2017-02-05 04:04:37.804497+01 | 1486263877.8045 | pgbench_tellers_pkey  |           245760
 2017-02-05 04:04:37.804497+01 | 1486263877.8045 | pgbench_accounts_pkey |       2246197248

 2017-02-05 04:04:38.890658+01 | 1486263878.89066 | pgbench_branches_pkey |            40960
 2017-02-05 04:04:38.890658+01 | 1486263878.89066 | pgbench_tellers_pkey  |           245760
 2017-02-05 04:04:38.890658+01 | 1486263878.89066 | pgbench_accounts_pkey |       2246197248

 2017-02-05 04:04:39.975831+01 | 1486263879.97583 | pgbench_branches_pkey |            40960
 2017-02-05 04:04:39.975831+01 | 1486263879.97583 | pgbench_tellers_pkey  |           245760
 2017-02-05 04:04:39.975831+01 | 1486263879.97583 | pgbench_accounts_pkey |       2246197248

 2017-02-05 04:04:41.060294+01 | 1486263881.06029 | pgbench_branches_pkey |            40960
 2017-02-05 04:04:41.060294+01 | 1486263881.06029 | pgbench_tellers_pkey  |           245760
 2017-02-05 04:04:41.060294+01 | 1486263881.06029 | pgbench_accounts_pkey |       2246197248

 2017-02-05 04:04:42.139923+01 | 1486263882.13992 | pgbench_branches_pkey |            40960
 2017-02-05 04:04:42.139923+01 | 1486263882.13992 | pgbench_tellers_pkey  |           245760
 2017-02-05 04:04:42.139923+01 | 1486263882.13992 | pgbench_accounts_pkey |       2246197248

 2017-02-05 04:04:43.214627+01 | 1486263883.21463 | pgbench_branches_pkey |            40960
 2017-02-05 04:04:43.214627+01 | 1486263883.21463 | pgbench_tellers_pkey  |           245760
 2017-02-05 04:04:43.214627+01 | 1486263883.21463 | pgbench_accounts_pkey |       2246197248

 2017-02-05 04:04:44.286088+01 | 1486263884.28609 | pgbench_branches_pkey |            40960
 2017-02-05 04:04:44.286088+01 | 1486263884.28609 | pgbench_tellers_pkey  |           245760
 2017-02-05 04:04:44.286088+01 | 1486263884.28609 | pgbench_accounts_pkey |       2246197248

 2017-02-05 04:04:45.363289+01 | 1486263885.36329 | pgbench_branches_pkey |            40960
 2017-02-05 04:04:45.363289+01 | 1486263885.36329 | pgbench_tellers_pkey  |           245760
 2017-02-05 04:04:45.363289+01 | 1486263885.36329 | pgbench_accounts_pkey |       2246197248

 2017-02-05 04:04:46.442161+01 | 1486263886.44216 | pgbench_branches_pkey |            40960
 2017-02-05 04:04:46.442161+01 | 1486263886.44216 | pgbench_tellers_pkey  |           245760
 2017-02-05 04:04:46.442161+01 | 1486263886.44216 | pgbench_accounts_pkey |       2246197248

 2017-02-05 04:04:47.522677+01 | 1486263887.52268 | pgbench_branches_pkey |            40960
 2017-02-05 04:04:47.522677+01 | 1486263887.52268 | pgbench_tellers_pkey  |           245760
 2017-02-05 04:04:47.522677+01 | 1486263887.52268 | pgbench_accounts_pkey |       2246197248

 2017-02-05 04:04:48.615597+01 | 1486263888.6156 | pgbench_branches_pkey |            40960
 2017-02-05 04:04:48.615597+01 | 1486263888.6156 | pgbench_tellers_pkey  |           245760
 2017-02-05 04:04:48.615597+01 | 1486263888.6156 | pgbench_accounts_pkey |       2246197248

 2017-02-05 04:04:49.703284+01 | 1486263889.70328 | pgbench_branches_pkey |            40960
 2017-02-05 04:04:49.703284+01 | 1486263889.70328 | pgbench_tellers_pkey  |           245760
 2017-02-05 04:04:49.703284+01 | 1486263889.70328 | pgbench_accounts_pkey |       2246197248

 2017-02-05 04:04:50.780608+01 | 1486263890.78061 | pgbench_branches_pkey |            40960
 2017-02-05 04:04:50.780608+01 | 1486263890.78061 | pgbench_tellers_pkey  |           245760
 2017-02-05 04:04:50.780608+01 | 1486263890.78061 | pgbench_accounts_pkey |       2246197248

 2017-02-05 04:04:51.863258+01 | 1486263891.86326 | pgbench_branches_pkey |            40960
 2017-02-05 04:04:51.863258+01 | 1486263891.86326 | pgbench_tellers_pkey  |           245760
 2017-02-05 04:04:51.863258+01 | 1486263891.86326 | pgbench_accounts_pkey |       2246197248

 2017-02-05 04:04:52.935109+01 | 1486263892.93511 | pgbench_branches_pkey |            40960
 2017-02-05 04:04:52.935109+01 | 1486263892.93511 | pgbench_tellers_pkey  |           245760
 2017-02-05 04:04:52.935109+01 | 1486263892.93511 | pgbench_accounts_pkey |       2246197248

 2017-02-05 04:04:54.029077+01 | 1486263894.02908 | pgbench_branches_pkey |            40960
 2017-02-05 04:04:54.029077+01 | 1486263894.02908 | pgbench_tellers_pkey  |           245760
 2017-02-05 04:04:54.029077+01 | 1486263894.02908 | pgbench_accounts_pkey |       2246197248

 2017-02-05 04:04:55.120893+01 | 1486263895.12089 | pgbench_branches_pkey |            40960
 2017-02-05 04:04:55.120893+01 | 1486263895.12089 | pgbench_tellers_pkey  |           245760
 2017-02-05 04:04:55.120893+01 | 1486263895.12089 | pgbench_accounts_pkey |       2246197248

 2017-02-05 04:04:56.194288+01 | 1486263896.19429 | pgbench_branches_pkey |            40960
 2017-02-05 04:04:56.194288+01 | 1486263896.19429 | pgbench_tellers_pkey  |           245760
 2017-02-05 04:04:56.194288+01 | 1486263896.19429 | pgbench_accounts_pkey |       2246197248

 2017-02-05 04:04:57.269925+01 | 1486263897.26993 | pgbench_branches_pkey |            40960
 2017-02-05 04:04:57.269925+01 | 1486263897.26993 | pgbench_tellers_pkey  |           245760
 2017-02-05 04:04:57.269925+01 | 1486263897.26993 | pgbench_accounts_pkey |       2246197248

 2017-02-05 04:04:58.35046+01 | 1486263898.35046 | pgbench_branches_pkey |            40960
 2017-02-05 04:04:58.35046+01 | 1486263898.35046 | pgbench_tellers_pkey  |           245760
 2017-02-05 04:04:58.35046+01 | 1486263898.35046 | pgbench_accounts_pkey |       2246197248

 2017-02-05 04:04:59.431899+01 | 1486263899.4319 | pgbench_branches_pkey |            40960
 2017-02-05 04:04:59.431899+01 | 1486263899.4319 | pgbench_tellers_pkey  |           245760
 2017-02-05 04:04:59.431899+01 | 1486263899.4319 | pgbench_accounts_pkey |       2246197248

 2017-02-05 04:05:00.510543+01 | 1486263900.51054 | pgbench_branches_pkey |            40960
 2017-02-05 04:05:00.510543+01 | 1486263900.51054 | pgbench_tellers_pkey  |           245760
 2017-02-05 04:05:00.510543+01 | 1486263900.51054 | pgbench_accounts_pkey |       2246197248

 2017-02-05 04:05:01.594852+01 | 1486263901.59485 | pgbench_branches_pkey |            40960
 2017-02-05 04:05:01.594852+01 | 1486263901.59485 | pgbench_tellers_pkey  |           245760
 2017-02-05 04:05:01.594852+01 | 1486263901.59485 | pgbench_accounts_pkey |       2246197248

 2017-02-05 04:05:02.675667+01 | 1486263902.67567 | pgbench_branches_pkey |            40960
 2017-02-05 04:05:02.675667+01 | 1486263902.67567 | pgbench_tellers_pkey  |           245760
 2017-02-05 04:05:02.675667+01 | 1486263902.67567 | pgbench_accounts_pkey |       2246197248

 2017-02-05 04:05:03.758384+01 | 1486263903.75838 | pgbench_branches_pkey |            40960
 2017-02-05 04:05:03.758384+01 | 1486263903.75838 | pgbench_tellers_pkey  |           245760
 2017-02-05 04:05:03.758384+01 | 1486263903.75838 | pgbench_accounts_pkey |       2246197248

 2017-02-05 04:05:04.850003+01 | 1486263904.85 | pgbench_branches_pkey |            40960
 2017-02-05 04:05:04.850003+01 | 1486263904.85 | pgbench_tellers_pkey  |           245760
 2017-02-05 04:05:04.850003+01 | 1486263904.85 | pgbench_accounts_pkey |       2246197248

 2017-02-05 04:05:05.939311+01 | 1486263905.93931 | pgbench_branches_pkey |            40960
 2017-02-05 04:05:05.939311+01 | 1486263905.93931 | pgbench_tellers_pkey  |           245760
 2017-02-05 04:05:05.939311+01 | 1486263905.93931 | pgbench_accounts_pkey |       2246197248

 2017-02-05 04:05:07.02306+01 | 1486263907.02306 | pgbench_branches_pkey |            40960
 2017-02-05 04:05:07.02306+01 | 1486263907.02306 | pgbench_tellers_pkey  |           245760
 2017-02-05 04:05:07.02306+01 | 1486263907.02306 | pgbench_accounts_pkey |       2246197248

 2017-02-05 04:05:08.115992+01 | 1486263908.11599 | pgbench_branches_pkey |            40960
 2017-02-05 04:05:08.115992+01 | 1486263908.11599 | pgbench_tellers_pkey  |           245760
 2017-02-05 04:05:08.115992+01 | 1486263908.11599 | pgbench_accounts_pkey |       2246197248

 2017-02-05 04:05:09.196914+01 | 1486263909.19691 | pgbench_branches_pkey |            40960
 2017-02-05 04:05:09.196914+01 | 1486263909.19691 | pgbench_tellers_pkey  |           245760
 2017-02-05 04:05:09.196914+01 | 1486263909.19691 | pgbench_accounts_pkey |       2246197248

 2017-02-05 04:05:10.279834+01 | 1486263910.27983 | pgbench_branches_pkey |            40960
 2017-02-05 04:05:10.279834+01 | 1486263910.27983 | pgbench_tellers_pkey  |           245760
 2017-02-05 04:05:10.279834+01 | 1486263910.27983 | pgbench_accounts_pkey |       2246197248

 2017-02-05 04:05:11.358767+01 | 1486263911.35877 | pgbench_branches_pkey |            40960
 2017-02-05 04:05:11.358767+01 | 1486263911.35877 | pgbench_tellers_pkey  |           245760
 2017-02-05 04:05:11.358767+01 | 1486263911.35877 | pgbench_accounts_pkey |       2246197248

 2017-02-05 04:05:12.450914+01 | 1486263912.45091 | pgbench_branches_pkey |            40960
 2017-02-05 04:05:12.450914+01 | 1486263912.45091 | pgbench_tellers_pkey  |           245760
 2017-02-05 04:05:12.450914+01 | 1486263912.45091 | pgbench_accounts_pkey |       2246197248

 2017-02-05 04:05:13.527836+01 | 1486263913.52784 | pgbench_branches_pkey |            40960
 2017-02-05 04:05:13.527836+01 | 1486263913.52784 | pgbench_tellers_pkey  |           245760
 2017-02-05 04:05:13.527836+01 | 1486263913.52784 | pgbench_accounts_pkey |       2246197248

 2017-02-05 04:05:14.60261+01 | 1486263914.60261 | pgbench_branches_pkey |            40960
 2017-02-05 04:05:14.60261+01 | 1486263914.60261 | pgbench_tellers_pkey  |           245760
 2017-02-05 04:05:14.60261+01 | 1486263914.60261 | pgbench_accounts_pkey |       2246197248

 2017-02-05 04:05:15.682305+01 | 1486263915.68231 | pgbench_branches_pkey |            40960
 2017-02-05 04:05:15.682305+01 | 1486263915.68231 | pgbench_tellers_pkey  |           245760
 2017-02-05 04:05:15.682305+01 | 1486263915.68231 | pgbench_accounts_pkey |       2246197248

 2017-02-05 04:05:16.768284+01 | 1486263916.76828 | pgbench_branches_pkey |            40960
 2017-02-05 04:05:16.768284+01 | 1486263916.76828 | pgbench_tellers_pkey  |           245760
 2017-02-05 04:05:16.768284+01 | 1486263916.76828 | pgbench_accounts_pkey |       2246197248

 2017-02-05 04:05:17.839993+01 | 1486263917.83999 | pgbench_branches_pkey |            40960
 2017-02-05 04:05:17.839993+01 | 1486263917.83999 | pgbench_tellers_pkey  |           245760
 2017-02-05 04:05:17.839993+01 | 1486263917.83999 | pgbench_accounts_pkey |       2246197248

 2017-02-05 04:05:18.925388+01 | 1486263918.92539 | pgbench_branches_pkey |            40960
 2017-02-05 04:05:18.925388+01 | 1486263918.92539 | pgbench_tellers_pkey  |           245760
 2017-02-05 04:05:18.925388+01 | 1486263918.92539 | pgbench_accounts_pkey |       2246197248

 2017-02-05 04:05:20.016552+01 | 1486263920.01655 | pgbench_branches_pkey |            40960
 2017-02-05 04:05:20.016552+01 | 1486263920.01655 | pgbench_tellers_pkey  |           245760
 2017-02-05 04:05:20.016552+01 | 1486263920.01655 | pgbench_accounts_pkey |       2246197248

 2017-02-05 04:05:21.101792+01 | 1486263921.10179 | pgbench_branches_pkey |            40960
 2017-02-05 04:05:21.101792+01 | 1486263921.10179 | pgbench_tellers_pkey  |           245760
 2017-02-05 04:05:21.101792+01 | 1486263921.10179 | pgbench_accounts_pkey |       2246197248

 2017-02-05 04:05:22.177235+01 | 1486263922.17723 | pgbench_branches_pkey |            40960
 2017-02-05 04:05:22.177235+01 | 1486263922.17723 | pgbench_tellers_pkey  |           245760
 2017-02-05 04:05:22.177235+01 | 1486263922.17723 | pgbench_accounts_pkey |       2246197248

 2017-02-05 04:05:23.261719+01 | 1486263923.26172 | pgbench_branches_pkey |            40960
 2017-02-05 04:05:23.261719+01 | 1486263923.26172 | pgbench_tellers_pkey  |           245760
 2017-02-05 04:05:23.261719+01 | 1486263923.26172 | pgbench_accounts_pkey |       2246197248

 2017-02-05 04:05:24.34332+01 | 1486263924.34332 | pgbench_branches_pkey |            40960
 2017-02-05 04:05:24.34332+01 | 1486263924.34332 | pgbench_tellers_pkey  |           245760
 2017-02-05 04:05:24.34332+01 | 1486263924.34332 | pgbench_accounts_pkey |       2246197248

 2017-02-05 04:05:25.424403+01 | 1486263925.4244 | pgbench_branches_pkey |            40960
 2017-02-05 04:05:25.424403+01 | 1486263925.4244 | pgbench_tellers_pkey  |           245760
 2017-02-05 04:05:25.424403+01 | 1486263925.4244 | pgbench_accounts_pkey |       2246197248

 2017-02-05 04:05:26.507279+01 | 1486263926.50728 | pgbench_branches_pkey |            40960
 2017-02-05 04:05:26.507279+01 | 1486263926.50728 | pgbench_tellers_pkey  |           245760
 2017-02-05 04:05:26.507279+01 | 1486263926.50728 | pgbench_accounts_pkey |       2246197248

 2017-02-05 04:05:27.590671+01 | 1486263927.59067 | pgbench_branches_pkey |            40960
 2017-02-05 04:05:27.590671+01 | 1486263927.59067 | pgbench_tellers_pkey  |           245760
 2017-02-05 04:05:27.590671+01 | 1486263927.59067 | pgbench_accounts_pkey |       2246197248

 2017-02-05 04:05:28.664168+01 | 1486263928.66417 | pgbench_branches_pkey |            40960
 2017-02-05 04:05:28.664168+01 | 1486263928.66417 | pgbench_tellers_pkey  |           245760
 2017-02-05 04:05:28.664168+01 | 1486263928.66417 | pgbench_accounts_pkey |       2246197248

 2017-02-05 04:05:29.740175+01 | 1486263929.74018 | pgbench_branches_pkey |            40960
 2017-02-05 04:05:29.740175+01 | 1486263929.74018 | pgbench_tellers_pkey  |           245760
 2017-02-05 04:05:29.740175+01 | 1486263929.74018 | pgbench_accounts_pkey |       2246197248

 2017-02-05 04:05:30.820746+01 | 1486263930.82075 | pgbench_branches_pkey |            40960
 2017-02-05 04:05:30.820746+01 | 1486263930.82075 | pgbench_tellers_pkey  |           245760
 2017-02-05 04:05:30.820746+01 | 1486263930.82075 | pgbench_accounts_pkey |       2246197248

 2017-02-05 04:05:31.893766+01 | 1486263931.89377 | pgbench_branches_pkey |            40960
 2017-02-05 04:05:31.893766+01 | 1486263931.89377 | pgbench_tellers_pkey  |           245760
 2017-02-05 04:05:31.893766+01 | 1486263931.89377 | pgbench_accounts_pkey |       2246197248

 2017-02-05 04:05:32.970931+01 | 1486263932.97093 | pgbench_branches_pkey |            40960
 2017-02-05 04:05:32.970931+01 | 1486263932.97093 | pgbench_tellers_pkey  |           245760
 2017-02-05 04:05:32.970931+01 | 1486263932.97093 | pgbench_accounts_pkey |       2246197248

 2017-02-05 04:05:34.049957+01 | 1486263934.04996 | pgbench_branches_pkey |            40960
 2017-02-05 04:05:34.049957+01 | 1486263934.04996 | pgbench_tellers_pkey  |           245760
 2017-02-05 04:05:34.049957+01 | 1486263934.04996 | pgbench_accounts_pkey |       2246197248

 2017-02-05 04:05:35.133166+01 | 1486263935.13317 | pgbench_branches_pkey |            40960
 2017-02-05 04:05:35.133166+01 | 1486263935.13317 | pgbench_tellers_pkey  |           245760
 2017-02-05 04:05:35.133166+01 | 1486263935.13317 | pgbench_accounts_pkey |       2246197248

 2017-02-05 04:05:36.215113+01 | 1486263936.21511 | pgbench_branches_pkey |            40960
 2017-02-05 04:05:36.215113+01 | 1486263936.21511 | pgbench_tellers_pkey  |           245760
 2017-02-05 04:05:36.215113+01 | 1486263936.21511 | pgbench_accounts_pkey |       2246197248

 2017-02-05 04:05:37.293142+01 | 1486263937.29314 | pgbench_branches_pkey |            40960
 2017-02-05 04:05:37.293142+01 | 1486263937.29314 | pgbench_tellers_pkey  |           245760
 2017-02-05 04:05:37.293142+01 | 1486263937.29314 | pgbench_accounts_pkey |       2246197248

 2017-02-05 04:05:38.369885+01 | 1486263938.36988 | pgbench_branches_pkey |            40960
 2017-02-05 04:05:38.369885+01 | 1486263938.36988 | pgbench_tellers_pkey  |           245760
 2017-02-05 04:05:38.369885+01 | 1486263938.36988 | pgbench_accounts_pkey |       2246197248

 2017-02-05 04:05:39.437546+01 | 1486263939.43755 | pgbench_branches_pkey |            40960
 2017-02-05 04:05:39.437546+01 | 1486263939.43755 | pgbench_tellers_pkey  |           245760
 2017-02-05 04:05:39.437546+01 | 1486263939.43755 | pgbench_accounts_pkey |       2246197248

 2017-02-05 04:05:40.521875+01 | 1486263940.52187 | pgbench_branches_pkey |            40960
 2017-02-05 04:05:40.521875+01 | 1486263940.52187 | pgbench_tellers_pkey  |           245760
 2017-02-05 04:05:40.521875+01 | 1486263940.52187 | pgbench_accounts_pkey |       2246197248

 2017-02-05 04:05:41.606578+01 | 1486263941.60658 | pgbench_branches_pkey |            40960
 2017-02-05 04:05:41.606578+01 | 1486263941.60658 | pgbench_tellers_pkey  |           245760
 2017-02-05 04:05:41.606578+01 | 1486263941.60658 | pgbench_accounts_pkey |       2246197248

 2017-02-05 04:05:42.692543+01 | 1486263942.69254 | pgbench_branches_pkey |            40960
 2017-02-05 04:05:42.692543+01 | 1486263942.69254 | pgbench_tellers_pkey  |           245760
 2017-02-05 04:05:42.692543+01 | 1486263942.69254 | pgbench_accounts_pkey |       2246197248

 2017-02-05 04:05:43.770378+01 | 1486263943.77038 | pgbench_branches_pkey |            40960
 2017-02-05 04:05:43.770378+01 | 1486263943.77038 | pgbench_tellers_pkey  |           245760
 2017-02-05 04:05:43.770378+01 | 1486263943.77038 | pgbench_accounts_pkey |       2246197248

 2017-02-05 04:05:44.862451+01 | 1486263944.86245 | pgbench_branches_pkey |            40960
 2017-02-05 04:05:44.862451+01 | 1486263944.86245 | pgbench_tellers_pkey  |           245760
 2017-02-05 04:05:44.862451+01 | 1486263944.86245 | pgbench_accounts_pkey |       2246197248

 2017-02-05 04:05:45.946391+01 | 1486263945.94639 | pgbench_branches_pkey |            40960
 2017-02-05 04:05:45.946391+01 | 1486263945.94639 | pgbench_tellers_pkey  |           245760
 2017-02-05 04:05:45.946391+01 | 1486263945.94639 | pgbench_accounts_pkey |       2246197248

 2017-02-05 04:05:47.024811+01 | 1486263947.02481 | pgbench_branches_pkey |            40960
 2017-02-05 04:05:47.024811+01 | 1486263947.02481 | pgbench_tellers_pkey  |           245760
 2017-02-05 04:05:47.024811+01 | 1486263947.02481 | pgbench_accounts_pkey |       2246197248

 2017-02-05 04:05:48.099403+01 | 1486263948.0994 | pgbench_branches_pkey |            40960
 2017-02-05 04:05:48.099403+01 | 1486263948.0994 | pgbench_tellers_pkey  |           245760
 2017-02-05 04:05:48.099403+01 | 1486263948.0994 | pgbench_accounts_pkey |       2246197248

 2017-02-05 04:05:49.185391+01 | 1486263949.18539 | pgbench_branches_pkey |            40960
 2017-02-05 04:05:49.185391+01 | 1486263949.18539 | pgbench_tellers_pkey  |           245760
 2017-02-05 04:05:49.185391+01 | 1486263949.18539 | pgbench_accounts_pkey |       2246197248

 2017-02-05 04:05:50.266012+01 | 1486263950.26601 | pgbench_branches_pkey |            40960
 2017-02-05 04:05:50.266012+01 | 1486263950.26601 | pgbench_tellers_pkey  |           245760
 2017-02-05 04:05:50.266012+01 | 1486263950.26601 | pgbench_accounts_pkey |       2246197248

 2017-02-05 04:05:51.347107+01 | 1486263951.34711 | pgbench_branches_pkey |            40960
 2017-02-05 04:05:51.347107+01 | 1486263951.34711 | pgbench_tellers_pkey  |           245760
 2017-02-05 04:05:51.347107+01 | 1486263951.34711 | pgbench_accounts_pkey |       2246197248

 2017-02-05 04:05:52.427057+01 | 1486263952.42706 | pgbench_branches_pkey |            40960
 2017-02-05 04:05:52.427057+01 | 1486263952.42706 | pgbench_tellers_pkey  |           245760
 2017-02-05 04:05:52.427057+01 | 1486263952.42706 | pgbench_accounts_pkey |       2246197248

 2017-02-05 04:05:53.499284+01 | 1486263953.49928 | pgbench_branches_pkey |            40960
 2017-02-05 04:05:53.499284+01 | 1486263953.49928 | pgbench_tellers_pkey  |           245760
 2017-02-05 04:05:53.499284+01 | 1486263953.49928 | pgbench_accounts_pkey |       2246197248

 2017-02-05 04:05:54.577512+01 | 1486263954.57751 | pgbench_branches_pkey |            40960
 2017-02-05 04:05:54.577512+01 | 1486263954.57751 | pgbench_tellers_pkey  |           245760
 2017-02-05 04:05:54.577512+01 | 1486263954.57751 | pgbench_accounts_pkey |       2246197248

 2017-02-05 04:05:55.66394+01 | 1486263955.66394 | pgbench_branches_pkey |            40960
 2017-02-05 04:05:55.66394+01 | 1486263955.66394 | pgbench_tellers_pkey  |           245760
 2017-02-05 04:05:55.66394+01 | 1486263955.66394 | pgbench_accounts_pkey |       2246197248

 2017-02-05 04:05:56.76093+01 | 1486263956.76093 | pgbench_branches_pkey |            40960
 2017-02-05 04:05:56.76093+01 | 1486263956.76093 | pgbench_tellers_pkey  |           245760
 2017-02-05 04:05:56.76093+01 | 1486263956.76093 | pgbench_accounts_pkey |       2246197248

 2017-02-05 04:05:57.847798+01 | 1486263957.8478 | pgbench_branches_pkey |            40960
 2017-02-05 04:05:57.847798+01 | 1486263957.8478 | pgbench_tellers_pkey  |           245760
 2017-02-05 04:05:57.847798+01 | 1486263957.8478 | pgbench_accounts_pkey |       2246197248

 2017-02-05 04:05:58.933906+01 | 1486263958.93391 | pgbench_branches_pkey |            40960
 2017-02-05 04:05:58.933906+01 | 1486263958.93391 | pgbench_tellers_pkey  |           245760
 2017-02-05 04:05:58.933906+01 | 1486263958.93391 | pgbench_accounts_pkey |       2246197248

 2017-02-05 04:06:00.018281+01 | 1486263960.01828 | pgbench_branches_pkey |            40960
 2017-02-05 04:06:00.018281+01 | 1486263960.01828 | pgbench_tellers_pkey  |           245760
 2017-02-05 04:06:00.018281+01 | 1486263960.01828 | pgbench_accounts_pkey |       2246197248

 2017-02-05 04:06:01.103184+01 | 1486263961.10318 | pgbench_branches_pkey |            40960
 2017-02-05 04:06:01.103184+01 | 1486263961.10318 | pgbench_tellers_pkey  |           245760
 2017-02-05 04:06:01.103184+01 | 1486263961.10318 | pgbench_accounts_pkey |       2246197248

 2017-02-05 04:06:02.181685+01 | 1486263962.18168 | pgbench_branches_pkey |            40960
 2017-02-05 04:06:02.181685+01 | 1486263962.18168 | pgbench_tellers_pkey  |           245760
 2017-02-05 04:06:02.181685+01 | 1486263962.18168 | pgbench_accounts_pkey |       2246197248

 2017-02-05 04:06:03.268533+01 | 1486263963.26853 | pgbench_branches_pkey |            40960
 2017-02-05 04:06:03.268533+01 | 1486263963.26853 | pgbench_tellers_pkey  |           245760
 2017-02-05 04:06:03.268533+01 | 1486263963.26853 | pgbench_accounts_pkey |       2246197248

 2017-02-05 04:06:04.349202+01 | 1486263964.3492 | pgbench_branches_pkey |            40960
 2017-02-05 04:06:04.349202+01 | 1486263964.3492 | pgbench_tellers_pkey  |           245760
 2017-02-05 04:06:04.349202+01 | 1486263964.3492 | pgbench_accounts_pkey |       2246197248

 2017-02-05 04:06:05.42751+01 | 1486263965.42751 | pgbench_branches_pkey |            40960
 2017-02-05 04:06:05.42751+01 | 1486263965.42751 | pgbench_tellers_pkey  |           245760
 2017-02-05 04:06:05.42751+01 | 1486263965.42751 | pgbench_accounts_pkey |       2246197248

 2017-02-05 04:06:06.50478+01 | 1486263966.50478 | pgbench_branches_pkey |            40960
 2017-02-05 04:06:06.50478+01 | 1486263966.50478 | pgbench_tellers_pkey  |           245760
 2017-02-05 04:06:06.50478+01 | 1486263966.50478 | pgbench_accounts_pkey |       2246197248

 2017-02-05 04:06:07.585466+01 | 1486263967.58547 | pgbench_branches_pkey |            40960
 2017-02-05 04:06:07.585466+01 | 1486263967.58547 | pgbench_tellers_pkey  |           245760
 2017-02-05 04:06:07.585466+01 | 1486263967.58547 | pgbench_accounts_pkey |       2246197248

 2017-02-05 04:06:08.672675+01 | 1486263968.67267 | pgbench_branches_pkey |            40960
 2017-02-05 04:06:08.672675+01 | 1486263968.67267 | pgbench_tellers_pkey  |           245760
 2017-02-05 04:06:08.672675+01 | 1486263968.67267 | pgbench_accounts_pkey |       2246197248

 2017-02-05 04:06:09.757292+01 | 1486263969.75729 | pgbench_branches_pkey |            40960
 2017-02-05 04:06:09.757292+01 | 1486263969.75729 | pgbench_tellers_pkey  |           245760
 2017-02-05 04:06:09.757292+01 | 1486263969.75729 | pgbench_accounts_pkey |       2246197248

 2017-02-05 04:06:10.857264+01 | 1486263970.85726 | pgbench_branches_pkey |            40960
 2017-02-05 04:06:10.857264+01 | 1486263970.85726 | pgbench_tellers_pkey  |           245760
 2017-02-05 04:06:10.857264+01 | 1486263970.85726 | pgbench_accounts_pkey |       2246197248

 2017-02-05 04:06:11.936882+01 | 1486263971.93688 | pgbench_branches_pkey |            40960
 2017-02-05 04:06:11.936882+01 | 1486263971.93688 | pgbench_tellers_pkey  |           245760
 2017-02-05 04:06:11.936882+01 | 1486263971.93688 | pgbench_accounts_pkey |       2246197248

 2017-02-05 04:06:13.015955+01 | 1486263973.01595 | pgbench_branches_pkey |            40960
 2017-02-05 04:06:13.015955+01 | 1486263973.01595 | pgbench_tellers_pkey  |           245760
 2017-02-05 04:06:13.015955+01 | 1486263973.01595 | pgbench_accounts_pkey |       2246197248

 2017-02-05 04:06:14.095473+01 | 1486263974.09547 | pgbench_branches_pkey |            40960
 2017-02-05 04:06:14.095473+01 | 1486263974.09547 | pgbench_tellers_pkey  |           245760
 2017-02-05 04:06:14.095473+01 | 1486263974.09547 | pgbench_accounts_pkey |       2246197248

 2017-02-05 04:06:15.171983+01 | 1486263975.17198 | pgbench_branches_pkey |            40960
 2017-02-05 04:06:15.171983+01 | 1486263975.17198 | pgbench_tellers_pkey  |           245760
 2017-02-05 04:06:15.171983+01 | 1486263975.17198 | pgbench_accounts_pkey |       2246197248

 2017-02-05 04:06:16.247962+01 | 1486263976.24796 | pgbench_branches_pkey |            40960
 2017-02-05 04:06:16.247962+01 | 1486263976.24796 | pgbench_tellers_pkey  |           245760
 2017-02-05 04:06:16.247962+01 | 1486263976.24796 | pgbench_accounts_pkey |       2246197248

 2017-02-05 04:06:17.315738+01 | 1486263977.31574 | pgbench_branches_pkey |            40960
 2017-02-05 04:06:17.315738+01 | 1486263977.31574 | pgbench_tellers_pkey  |           245760
 2017-02-05 04:06:17.315738+01 | 1486263977.31574 | pgbench_accounts_pkey |       2246197248

 2017-02-05 04:06:18.389363+01 | 1486263978.38936 | pgbench_branches_pkey |            40960
 2017-02-05 04:06:18.389363+01 | 1486263978.38936 | pgbench_tellers_pkey  |           245760
 2017-02-05 04:06:18.389363+01 | 1486263978.38936 | pgbench_accounts_pkey |       2246197248

 2017-02-05 04:06:19.46764+01 | 1486263979.46764 | pgbench_branches_pkey |            40960
 2017-02-05 04:06:19.46764+01 | 1486263979.46764 | pgbench_tellers_pkey  |           245760
 2017-02-05 04:06:19.46764+01 | 1486263979.46764 | pgbench_accounts_pkey |       2246197248

 2017-02-05 04:06:20.543513+01 | 1486263980.54351 | pgbench_branches_pkey |            40960
 2017-02-05 04:06:20.543513+01 | 1486263980.54351 | pgbench_tellers_pkey  |           245760
 2017-02-05 04:06:20.543513+01 | 1486263980.54351 | pgbench_accounts_pkey |       2246197248

 2017-02-05 04:06:21.622943+01 | 1486263981.62294 | pgbench_branches_pkey |            40960
 2017-02-05 04:06:21.622943+01 | 1486263981.62294 | pgbench_tellers_pkey  |           245760
 2017-02-05 04:06:21.622943+01 | 1486263981.62294 | pgbench_accounts_pkey |       2246197248

 2017-02-05 04:06:22.709118+01 | 1486263982.70912 | pgbench_branches_pkey |            40960
 2017-02-05 04:06:22.709118+01 | 1486263982.70912 | pgbench_tellers_pkey  |           245760
 2017-02-05 04:06:22.709118+01 | 1486263982.70912 | pgbench_accounts_pkey |       2246197248

 2017-02-05 04:06:23.791622+01 | 1486263983.79162 | pgbench_branches_pkey |            40960
 2017-02-05 04:06:23.791622+01 | 1486263983.79162 | pgbench_tellers_pkey  |           245760
 2017-02-05 04:06:23.791622+01 | 1486263983.79162 | pgbench_accounts_pkey |       2246197248

 2017-02-05 04:06:24.873325+01 | 1486263984.87333 | pgbench_branches_pkey |            40960
 2017-02-05 04:06:24.873325+01 | 1486263984.87333 | pgbench_tellers_pkey  |           245760
 2017-02-05 04:06:24.873325+01 | 1486263984.87333 | pgbench_accounts_pkey |       2246197248

 2017-02-05 04:06:25.955666+01 | 1486263985.95567 | pgbench_branches_pkey |            40960
 2017-02-05 04:06:25.955666+01 | 1486263985.95567 | pgbench_tellers_pkey  |           245760
 2017-02-05 04:06:25.955666+01 | 1486263985.95567 | pgbench_accounts_pkey |       2246197248

 2017-02-05 04:06:27.043937+01 | 1486263987.04394 | pgbench_branches_pkey |            40960
 2017-02-05 04:06:27.043937+01 | 1486263987.04394 | pgbench_tellers_pkey  |           245760
 2017-02-05 04:06:27.043937+01 | 1486263987.04394 | pgbench_accounts_pkey |       2246197248

 2017-02-05 04:06:28.124312+01 | 1486263988.12431 | pgbench_branches_pkey |            40960
 2017-02-05 04:06:28.124312+01 | 1486263988.12431 | pgbench_tellers_pkey  |           245760
 2017-02-05 04:06:28.124312+01 | 1486263988.12431 | pgbench_accounts_pkey |       2246197248

 2017-02-05 04:06:29.208246+01 | 1486263989.20825 | pgbench_branches_pkey |            40960
 2017-02-05 04:06:29.208246+01 | 1486263989.20825 | pgbench_tellers_pkey  |           245760
 2017-02-05 04:06:29.208246+01 | 1486263989.20825 | pgbench_accounts_pkey |       2246197248

 2017-02-05 04:06:30.290781+01 | 1486263990.29078 | pgbench_branches_pkey |            40960
 2017-02-05 04:06:30.290781+01 | 1486263990.29078 | pgbench_tellers_pkey  |           245760
 2017-02-05 04:06:30.290781+01 | 1486263990.29078 | pgbench_accounts_pkey |       2246197248

 2017-02-05 04:06:31.368562+01 | 1486263991.36856 | pgbench_branches_pkey |            40960
 2017-02-05 04:06:31.368562+01 | 1486263991.36856 | pgbench_tellers_pkey  |           245760
 2017-02-05 04:06:31.368562+01 | 1486263991.36856 | pgbench_accounts_pkey |       2246197248

 2017-02-05 04:06:32.450495+01 | 1486263992.4505 | pgbench_branches_pkey |            40960
 2017-02-05 04:06:32.450495+01 | 1486263992.4505 | pgbench_tellers_pkey  |           245760
 2017-02-05 04:06:32.450495+01 | 1486263992.4505 | pgbench_accounts_pkey |       2246197248

 2017-02-05 04:06:33.536548+01 | 1486263993.53655 | pgbench_branches_pkey |            40960
 2017-02-05 04:06:33.536548+01 | 1486263993.53655 | pgbench_tellers_pkey  |           245760
 2017-02-05 04:06:33.536548+01 | 1486263993.53655 | pgbench_accounts_pkey |       2246197248

 2017-02-05 04:06:34.613673+01 | 1486263994.61367 | pgbench_branches_pkey |            40960
 2017-02-05 04:06:34.613673+01 | 1486263994.61367 | pgbench_tellers_pkey  |           245760
 2017-02-05 04:06:34.613673+01 | 1486263994.61367 | pgbench_accounts_pkey |       2246197248

 2017-02-05 04:06:35.697905+01 | 1486263995.69791 | pgbench_branches_pkey |            40960
 2017-02-05 04:06:35.697905+01 | 1486263995.69791 | pgbench_tellers_pkey  |           245760
 2017-02-05 04:06:35.697905+01 | 1486263995.69791 | pgbench_accounts_pkey |       2246197248

 2017-02-05 04:06:36.778253+01 | 1486263996.77825 | pgbench_branches_pkey |            40960
 2017-02-05 04:06:36.778253+01 | 1486263996.77825 | pgbench_tellers_pkey  |           245760
 2017-02-05 04:06:36.778253+01 | 1486263996.77825 | pgbench_accounts_pkey |       2246197248

 2017-02-05 04:06:37.859431+01 | 1486263997.85943 | pgbench_branches_pkey |            40960
 2017-02-05 04:06:37.859431+01 | 1486263997.85943 | pgbench_tellers_pkey  |           245760
 2017-02-05 04:06:37.859431+01 | 1486263997.85943 | pgbench_accounts_pkey |       2246197248

 2017-02-05 04:06:38.940939+01 | 1486263998.94094 | pgbench_branches_pkey |            40960
 2017-02-05 04:06:38.940939+01 | 1486263998.94094 | pgbench_tellers_pkey  |           245760
 2017-02-05 04:06:38.940939+01 | 1486263998.94094 | pgbench_accounts_pkey |       2246197248

 2017-02-05 04:06:40.024142+01 | 1486264000.02414 | pgbench_branches_pkey |            40960
 2017-02-05 04:06:40.024142+01 | 1486264000.02414 | pgbench_tellers_pkey  |           245760
 2017-02-05 04:06:40.024142+01 | 1486264000.02414 | pgbench_accounts_pkey |       2246197248

 2017-02-05 04:06:41.099315+01 | 1486264001.09931 | pgbench_branches_pkey |            40960
 2017-02-05 04:06:41.099315+01 | 1486264001.09931 | pgbench_tellers_pkey  |           245760
 2017-02-05 04:06:41.099315+01 | 1486264001.09931 | pgbench_accounts_pkey |       2246197248

 2017-02-05 04:06:42.179443+01 | 1486264002.17944 | pgbench_branches_pkey |            40960
 2017-02-05 04:06:42.179443+01 | 1486264002.17944 | pgbench_tellers_pkey  |           245760
 2017-02-05 04:06:42.179443+01 | 1486264002.17944 | pgbench_accounts_pkey |       2246197248

 2017-02-05 04:06:43.263246+01 | 1486264003.26325 | pgbench_branches_pkey |            40960
 2017-02-05 04:06:43.263246+01 | 1486264003.26325 | pgbench_tellers_pkey  |           245760
 2017-02-05 04:06:43.263246+01 | 1486264003.26325 | pgbench_accounts_pkey |       2246197248

 2017-02-05 04:06:44.344396+01 | 1486264004.3444 | pgbench_branches_pkey |            40960
 2017-02-05 04:06:44.344396+01 | 1486264004.3444 | pgbench_tellers_pkey  |           245760
 2017-02-05 04:06:44.344396+01 | 1486264004.3444 | pgbench_accounts_pkey |       2246197248

 2017-02-05 04:06:45.420857+01 | 1486264005.42086 | pgbench_branches_pkey |            40960
 2017-02-05 04:06:45.420857+01 | 1486264005.42086 | pgbench_tellers_pkey  |           245760
 2017-02-05 04:06:45.420857+01 | 1486264005.42086 | pgbench_accounts_pkey |       2246197248

 2017-02-05 04:06:46.496825+01 | 1486264006.49682 | pgbench_branches_pkey |            40960
 2017-02-05 04:06:46.496825+01 | 1486264006.49682 | pgbench_tellers_pkey  |           245760
 2017-02-05 04:06:46.496825+01 | 1486264006.49682 | pgbench_accounts_pkey |       2246197248

 2017-02-05 04:06:47.576699+01 | 1486264007.5767 | pgbench_branches_pkey |            40960
 2017-02-05 04:06:47.576699+01 | 1486264007.5767 | pgbench_tellers_pkey  |           245760
 2017-02-05 04:06:47.576699+01 | 1486264007.5767 | pgbench_accounts_pkey |       2246197248

 2017-02-05 04:06:48.664014+01 | 1486264008.66401 | pgbench_branches_pkey |            40960
 2017-02-05 04:06:48.664014+01 | 1486264008.66401 | pgbench_tellers_pkey  |           245760
 2017-02-05 04:06:48.664014+01 | 1486264008.66401 | pgbench_accounts_pkey |       2246197248

 2017-02-05 04:06:49.746582+01 | 1486264009.74658 | pgbench_branches_pkey |            40960
 2017-02-05 04:06:49.746582+01 | 1486264009.74658 | pgbench_tellers_pkey  |           245760
 2017-02-05 04:06:49.746582+01 | 1486264009.74658 | pgbench_accounts_pkey |       2246197248

 2017-02-05 04:06:50.812965+01 | 1486264010.81296 | pgbench_branches_pkey |            40960
 2017-02-05 04:06:50.812965+01 | 1486264010.81296 | pgbench_tellers_pkey  |           245760
 2017-02-05 04:06:50.812965+01 | 1486264010.81296 | pgbench_accounts_pkey |       2246197248

 2017-02-05 04:06:51.883354+01 | 1486264011.88335 | pgbench_branches_pkey |            40960
 2017-02-05 04:06:51.883354+01 | 1486264011.88335 | pgbench_tellers_pkey  |           245760
 2017-02-05 04:06:51.883354+01 | 1486264011.88335 | pgbench_accounts_pkey |       2246197248

 2017-02-05 04:06:52.97335+01 | 1486264012.97335 | pgbench_branches_pkey |            40960
 2017-02-05 04:06:52.97335+01 | 1486264012.97335 | pgbench_tellers_pkey  |           245760
 2017-02-05 04:06:52.97335+01 | 1486264012.97335 | pgbench_accounts_pkey |       2246197248

 2017-02-05 04:06:54.051441+01 | 1486264014.05144 | pgbench_branches_pkey |            40960
 2017-02-05 04:06:54.051441+01 | 1486264014.05144 | pgbench_tellers_pkey  |           245760
 2017-02-05 04:06:54.051441+01 | 1486264014.05144 | pgbench_accounts_pkey |       2246197248

 2017-02-05 04:06:55.131512+01 | 1486264015.13151 | pgbench_branches_pkey |            40960
 2017-02-05 04:06:55.131512+01 | 1486264015.13151 | pgbench_tellers_pkey  |           245760
 2017-02-05 04:06:55.131512+01 | 1486264015.13151 | pgbench_accounts_pkey |       2246197248

 2017-02-05 04:06:56.209993+01 | 1486264016.20999 | pgbench_branches_pkey |            40960
 2017-02-05 04:06:56.209993+01 | 1486264016.20999 | pgbench_tellers_pkey  |           245760
 2017-02-05 04:06:56.209993+01 | 1486264016.20999 | pgbench_accounts_pkey |       2246197248

 2017-02-05 04:06:57.288927+01 | 1486264017.28893 | pgbench_branches_pkey |            40960
 2017-02-05 04:06:57.288927+01 | 1486264017.28893 | pgbench_tellers_pkey  |           245760
 2017-02-05 04:06:57.288927+01 | 1486264017.28893 | pgbench_accounts_pkey |       2246197248

 2017-02-05 04:06:58.376923+01 | 1486264018.37692 | pgbench_branches_pkey |            40960
 2017-02-05 04:06:58.376923+01 | 1486264018.37692 | pgbench_tellers_pkey  |           245760
 2017-02-05 04:06:58.376923+01 | 1486264018.37692 | pgbench_accounts_pkey |       2246197248

 2017-02-05 04:06:59.468551+01 | 1486264019.46855 | pgbench_branches_pkey |            40960
 2017-02-05 04:06:59.468551+01 | 1486264019.46855 | pgbench_tellers_pkey  |           245760
 2017-02-05 04:06:59.468551+01 | 1486264019.46855 | pgbench_accounts_pkey |       2246197248

 2017-02-05 04:07:00.55211+01 | 1486264020.55211 | pgbench_branches_pkey |            40960
 2017-02-05 04:07:00.55211+01 | 1486264020.55211 | pgbench_tellers_pkey  |           245760
 2017-02-05 04:07:00.55211+01 | 1486264020.55211 | pgbench_accounts_pkey |       2246197248

 2017-02-05 04:07:01.633496+01 | 1486264021.6335 | pgbench_branches_pkey |            40960
 2017-02-05 04:07:01.633496+01 | 1486264021.6335 | pgbench_tellers_pkey  |           245760
 2017-02-05 04:07:01.633496+01 | 1486264021.6335 | pgbench_accounts_pkey |       2246197248

 2017-02-05 04:07:02.710346+01 | 1486264022.71035 | pgbench_branches_pkey |            40960
 2017-02-05 04:07:02.710346+01 | 1486264022.71035 | pgbench_tellers_pkey  |           245760
 2017-02-05 04:07:02.710346+01 | 1486264022.71035 | pgbench_accounts_pkey |       2246197248

 2017-02-05 04:07:03.783706+01 | 1486264023.78371 | pgbench_branches_pkey |            40960
 2017-02-05 04:07:03.783706+01 | 1486264023.78371 | pgbench_tellers_pkey  |           245760
 2017-02-05 04:07:03.783706+01 | 1486264023.78371 | pgbench_accounts_pkey |       2246197248

 2017-02-05 04:07:04.867039+01 | 1486264024.86704 | pgbench_branches_pkey |            40960
 2017-02-05 04:07:04.867039+01 | 1486264024.86704 | pgbench_tellers_pkey  |           245760
 2017-02-05 04:07:04.867039+01 | 1486264024.86704 | pgbench_accounts_pkey |       2246197248

 2017-02-05 04:07:05.949487+01 | 1486264025.94949 | pgbench_branches_pkey |            40960
 2017-02-05 04:07:05.949487+01 | 1486264025.94949 | pgbench_tellers_pkey  |           245760
 2017-02-05 04:07:05.949487+01 | 1486264025.94949 | pgbench_accounts_pkey |       2246197248

 2017-02-05 04:07:07.032264+01 | 1486264027.03226 | pgbench_branches_pkey |            40960
 2017-02-05 04:07:07.032264+01 | 1486264027.03226 | pgbench_tellers_pkey  |           245760
 2017-02-05 04:07:07.032264+01 | 1486264027.03226 | pgbench_accounts_pkey |       2246197248

 2017-02-05 04:07:08.118868+01 | 1486264028.11887 | pgbench_branches_pkey |            40960
 2017-02-05 04:07:08.118868+01 | 1486264028.11887 | pgbench_tellers_pkey  |           245760
 2017-02-05 04:07:08.118868+01 | 1486264028.11887 | pgbench_accounts_pkey |       2246197248

 2017-02-05 04:07:09.197681+01 | 1486264029.19768 | pgbench_branches_pkey |            40960
 2017-02-05 04:07:09.197681+01 | 1486264029.19768 | pgbench_tellers_pkey  |           245760
 2017-02-05 04:07:09.197681+01 | 1486264029.19768 | pgbench_accounts_pkey |       2246197248

 2017-02-05 04:07:10.279667+01 | 1486264030.27967 | pgbench_branches_pkey |            40960
 2017-02-05 04:07:10.279667+01 | 1486264030.27967 | pgbench_tellers_pkey  |           245760
 2017-02-05 04:07:10.279667+01 | 1486264030.27967 | pgbench_accounts_pkey |       2246197248

 2017-02-05 04:07:11.358057+01 | 1486264031.35806 | pgbench_branches_pkey |            40960
 2017-02-05 04:07:11.358057+01 | 1486264031.35806 | pgbench_tellers_pkey  |           245760
 2017-02-05 04:07:11.358057+01 | 1486264031.35806 | pgbench_accounts_pkey |       2246197248

 2017-02-05 04:07:12.439429+01 | 1486264032.43943 | pgbench_branches_pkey |            40960
 2017-02-05 04:07:12.439429+01 | 1486264032.43943 | pgbench_tellers_pkey  |           245760
 2017-02-05 04:07:12.439429+01 | 1486264032.43943 | pgbench_accounts_pkey |       2246197248

 2017-02-05 04:07:13.516559+01 | 1486264033.51656 | pgbench_branches_pkey |            40960
 2017-02-05 04:07:13.516559+01 | 1486264033.51656 | pgbench_tellers_pkey  |           245760
 2017-02-05 04:07:13.516559+01 | 1486264033.51656 | pgbench_accounts_pkey |       2246197248

 2017-02-05 04:07:14.599645+01 | 1486264034.59964 | pgbench_branches_pkey |            40960
 2017-02-05 04:07:14.599645+01 | 1486264034.59964 | pgbench_tellers_pkey  |           245760
 2017-02-05 04:07:14.599645+01 | 1486264034.59964 | pgbench_accounts_pkey |       2246197248

 2017-02-05 04:07:15.699907+01 | 1486264035.69991 | pgbench_branches_pkey |            40960
 2017-02-05 04:07:15.699907+01 | 1486264035.69991 | pgbench_tellers_pkey  |           245760
 2017-02-05 04:07:15.699907+01 | 1486264035.69991 | pgbench_accounts_pkey |       2246197248

 2017-02-05 04:07:16.780537+01 | 1486264036.78054 | pgbench_branches_pkey |            40960
 2017-02-05 04:07:16.780537+01 | 1486264036.78054 | pgbench_tellers_pkey  |           245760
 2017-02-05 04:07:16.780537+01 | 1486264036.78054 | pgbench_accounts_pkey |       2246197248

 2017-02-05 04:07:17.862196+01 | 1486264037.8622 | pgbench_branches_pkey |            40960
 2017-02-05 04:07:17.862196+01 | 1486264037.8622 | pgbench_tellers_pkey  |           245760
 2017-02-05 04:07:17.862196+01 | 1486264037.8622 | pgbench_accounts_pkey |       2246197248

 2017-02-05 04:07:18.936307+01 | 1486264038.93631 | pgbench_branches_pkey |            40960
 2017-02-05 04:07:18.936307+01 | 1486264038.93631 | pgbench_tellers_pkey  |           245760
 2017-02-05 04:07:18.936307+01 | 1486264038.93631 | pgbench_accounts_pkey |       2246197248

 2017-02-05 04:07:20.014551+01 | 1486264040.01455 | pgbench_branches_pkey |            40960
 2017-02-05 04:07:20.014551+01 | 1486264040.01455 | pgbench_tellers_pkey  |           245760
 2017-02-05 04:07:20.014551+01 | 1486264040.01455 | pgbench_accounts_pkey |       2246197248

 2017-02-05 04:07:21.104783+01 | 1486264041.10478 | pgbench_branches_pkey |            40960
 2017-02-05 04:07:21.104783+01 | 1486264041.10478 | pgbench_tellers_pkey  |           245760
 2017-02-05 04:07:21.104783+01 | 1486264041.10478 | pgbench_accounts_pkey |       2246197248

 2017-02-05 04:07:22.199588+01 | 1486264042.19959 | pgbench_branches_pkey |            40960
 2017-02-05 04:07:22.199588+01 | 1486264042.19959 | pgbench_tellers_pkey  |           245760
 2017-02-05 04:07:22.199588+01 | 1486264042.19959 | pgbench_accounts_pkey |       2246197248

 2017-02-05 04:07:23.283584+01 | 1486264043.28358 | pgbench_branches_pkey |            40960
 2017-02-05 04:07:23.283584+01 | 1486264043.28358 | pgbench_tellers_pkey  |           245760
 2017-02-05 04:07:23.283584+01 | 1486264043.28358 | pgbench_accounts_pkey |       2246197248

 2017-02-05 04:07:24.364879+01 | 1486264044.36488 | pgbench_branches_pkey |            40960
 2017-02-05 04:07:24.364879+01 | 1486264044.36488 | pgbench_tellers_pkey  |           245760
 2017-02-05 04:07:24.364879+01 | 1486264044.36488 | pgbench_accounts_pkey |       2246197248

 2017-02-05 04:07:25.441626+01 | 1486264045.44163 | pgbench_branches_pkey |            40960
 2017-02-05 04:07:25.441626+01 | 1486264045.44163 | pgbench_tellers_pkey  |           245760
 2017-02-05 04:07:25.441626+01 | 1486264045.44163 | pgbench_accounts_pkey |       2246197248

 2017-02-05 04:07:26.508799+01 | 1486264046.5088 | pgbench_branches_pkey |            40960
 2017-02-05 04:07:26.508799+01 | 1486264046.5088 | pgbench_tellers_pkey  |           245760
 2017-02-05 04:07:26.508799+01 | 1486264046.5088 | pgbench_accounts_pkey |       2246197248

 2017-02-05 04:07:27.605119+01 | 1486264047.60512 | pgbench_branches_pkey |            40960
 2017-02-05 04:07:27.605119+01 | 1486264047.60512 | pgbench_tellers_pkey  |           245760
 2017-02-05 04:07:27.605119+01 | 1486264047.60512 | pgbench_accounts_pkey |       2246197248

 2017-02-05 04:07:28.691414+01 | 1486264048.69141 | pgbench_branches_pkey |            40960
 2017-02-05 04:07:28.691414+01 | 1486264048.69141 | pgbench_tellers_pkey  |           245760
 2017-02-05 04:07:28.691414+01 | 1486264048.69141 | pgbench_accounts_pkey |       2246197248

 2017-02-05 04:07:29.772164+01 | 1486264049.77216 | pgbench_branches_pkey |            40960
 2017-02-05 04:07:29.772164+01 | 1486264049.77216 | pgbench_tellers_pkey  |           245760
 2017-02-05 04:07:29.772164+01 | 1486264049.77216 | pgbench_accounts_pkey |       2246197248

 2017-02-05 04:07:30.850373+01 | 1486264050.85037 | pgbench_branches_pkey |            40960
 2017-02-05 04:07:30.850373+01 | 1486264050.85037 | pgbench_tellers_pkey  |           245760
 2017-02-05 04:07:30.850373+01 | 1486264050.85037 | pgbench_accounts_pkey |       2246197248

 2017-02-05 04:07:31.929635+01 | 1486264051.92964 | pgbench_branches_pkey |            40960
 2017-02-05 04:07:31.929635+01 | 1486264051.92964 | pgbench_tellers_pkey  |           245760
 2017-02-05 04:07:31.929635+01 | 1486264051.92964 | pgbench_accounts_pkey |       2246197248

 2017-02-05 04:07:33.009707+01 | 1486264053.00971 | pgbench_branches_pkey |            40960
 2017-02-05 04:07:33.009707+01 | 1486264053.00971 | pgbench_tellers_pkey  |           245760
 2017-02-05 04:07:33.009707+01 | 1486264053.00971 | pgbench_accounts_pkey |       2246197248

 2017-02-05 04:07:34.096321+01 | 1486264054.09632 | pgbench_branches_pkey |            40960
 2017-02-05 04:07:34.096321+01 | 1486264054.09632 | pgbench_tellers_pkey  |           245760
 2017-02-05 04:07:34.096321+01 | 1486264054.09632 | pgbench_accounts_pkey |       2246197248

 2017-02-05 04:07:35.168729+01 | 1486264055.16873 | pgbench_branches_pkey |            40960
 2017-02-05 04:07:35.168729+01 | 1486264055.16873 | pgbench_tellers_pkey  |           245760
 2017-02-05 04:07:35.168729+01 | 1486264055.16873 | pgbench_accounts_pkey |       2246197248

 2017-02-05 04:07:36.249253+01 | 1486264056.24925 | pgbench_branches_pkey |            40960
 2017-02-05 04:07:36.249253+01 | 1486264056.24925 | pgbench_tellers_pkey  |           245760
 2017-02-05 04:07:36.249253+01 | 1486264056.24925 | pgbench_accounts_pkey |       2246197248

 2017-02-05 04:07:37.33383+01 | 1486264057.33383 | pgbench_branches_pkey |            40960
 2017-02-05 04:07:37.33383+01 | 1486264057.33383 | pgbench_tellers_pkey  |           245760
 2017-02-05 04:07:37.33383+01 | 1486264057.33383 | pgbench_accounts_pkey |       2246197248

 2017-02-05 04:07:38.412994+01 | 1486264058.41299 | pgbench_branches_pkey |            40960
 2017-02-05 04:07:38.412994+01 | 1486264058.41299 | pgbench_tellers_pkey  |           245760
 2017-02-05 04:07:38.412994+01 | 1486264058.41299 | pgbench_accounts_pkey |       2246197248

 2017-02-05 04:07:39.490604+01 | 1486264059.4906 | pgbench_branches_pkey |            40960
 2017-02-05 04:07:39.490604+01 | 1486264059.4906 | pgbench_tellers_pkey  |           245760
 2017-02-05 04:07:39.490604+01 | 1486264059.4906 | pgbench_accounts_pkey |       2246197248

 2017-02-05 04:07:40.58254+01 | 1486264060.58254 | pgbench_branches_pkey |            40960
 2017-02-05 04:07:40.58254+01 | 1486264060.58254 | pgbench_tellers_pkey  |           245760
 2017-02-05 04:07:40.58254+01 | 1486264060.58254 | pgbench_accounts_pkey |       2246197248

 2017-02-05 04:07:41.659096+01 | 1486264061.6591 | pgbench_branches_pkey |            40960
 2017-02-05 04:07:41.659096+01 | 1486264061.6591 | pgbench_tellers_pkey  |           245760
 2017-02-05 04:07:41.659096+01 | 1486264061.6591 | pgbench_accounts_pkey |       2246197248

 2017-02-05 04:07:42.742505+01 | 1486264062.74251 | pgbench_branches_pkey |            40960
 2017-02-05 04:07:42.742505+01 | 1486264062.74251 | pgbench_tellers_pkey  |           245760
 2017-02-05 04:07:42.742505+01 | 1486264062.74251 | pgbench_accounts_pkey |       2246197248

 2017-02-05 04:07:43.827291+01 | 1486264063.82729 | pgbench_branches_pkey |            40960
 2017-02-05 04:07:43.827291+01 | 1486264063.82729 | pgbench_tellers_pkey  |           245760
 2017-02-05 04:07:43.827291+01 | 1486264063.82729 | pgbench_accounts_pkey |       2246197248

 2017-02-05 04:07:44.905321+01 | 1486264064.90532 | pgbench_branches_pkey |            40960
 2017-02-05 04:07:44.905321+01 | 1486264064.90532 | pgbench_tellers_pkey  |           245760
 2017-02-05 04:07:44.905321+01 | 1486264064.90532 | pgbench_accounts_pkey |       2246197248

 2017-02-05 04:07:45.989561+01 | 1486264065.98956 | pgbench_branches_pkey |            40960
 2017-02-05 04:07:45.989561+01 | 1486264065.98956 | pgbench_tellers_pkey  |           245760
 2017-02-05 04:07:45.989561+01 | 1486264065.98956 | pgbench_accounts_pkey |       2246197248

 2017-02-05 04:07:47.066637+01 | 1486264067.06664 | pgbench_branches_pkey |            40960
 2017-02-05 04:07:47.066637+01 | 1486264067.06664 | pgbench_tellers_pkey  |           245760
 2017-02-05 04:07:47.066637+01 | 1486264067.06664 | pgbench_accounts_pkey |       2246197248

 2017-02-05 04:07:48.141706+01 | 1486264068.14171 | pgbench_branches_pkey |            40960
 2017-02-05 04:07:48.141706+01 | 1486264068.14171 | pgbench_tellers_pkey  |           245760
 2017-02-05 04:07:48.141706+01 | 1486264068.14171 | pgbench_accounts_pkey |       2246197248

 2017-02-05 04:07:49.22044+01 | 1486264069.22044 | pgbench_branches_pkey |            40960
 2017-02-05 04:07:49.22044+01 | 1486264069.22044 | pgbench_tellers_pkey  |           245760
 2017-02-05 04:07:49.22044+01 | 1486264069.22044 | pgbench_accounts_pkey |       2246197248

 2017-02-05 04:07:50.309261+01 | 1486264070.30926 | pgbench_branches_pkey |            40960
 2017-02-05 04:07:50.309261+01 | 1486264070.30926 | pgbench_tellers_pkey  |           245760
 2017-02-05 04:07:50.309261+01 | 1486264070.30926 | pgbench_accounts_pkey |       2246197248

 2017-02-05 04:07:51.392161+01 | 1486264071.39216 | pgbench_branches_pkey |            40960
 2017-02-05 04:07:51.392161+01 | 1486264071.39216 | pgbench_tellers_pkey  |           245760
 2017-02-05 04:07:51.392161+01 | 1486264071.39216 | pgbench_accounts_pkey |       2246197248

 2017-02-05 04:07:52.470197+01 | 1486264072.4702 | pgbench_branches_pkey |            40960
 2017-02-05 04:07:52.470197+01 | 1486264072.4702 | pgbench_tellers_pkey  |           245760
 2017-02-05 04:07:52.470197+01 | 1486264072.4702 | pgbench_accounts_pkey |       2246197248

 2017-02-05 04:07:53.54955+01 | 1486264073.54955 | pgbench_branches_pkey |            40960
 2017-02-05 04:07:53.54955+01 | 1486264073.54955 | pgbench_tellers_pkey  |           245760
 2017-02-05 04:07:53.54955+01 | 1486264073.54955 | pgbench_accounts_pkey |       2246197248

 2017-02-05 04:07:54.635269+01 | 1486264074.63527 | pgbench_branches_pkey |            40960
 2017-02-05 04:07:54.635269+01 | 1486264074.63527 | pgbench_tellers_pkey  |           245760
 2017-02-05 04:07:54.635269+01 | 1486264074.63527 | pgbench_accounts_pkey |       2246197248

 2017-02-05 04:07:55.708037+01 | 1486264075.70804 | pgbench_branches_pkey |            40960
 2017-02-05 04:07:55.708037+01 | 1486264075.70804 | pgbench_tellers_pkey  |           245760
 2017-02-05 04:07:55.708037+01 | 1486264075.70804 | pgbench_accounts_pkey |       2246197248

 2017-02-05 04:07:56.793508+01 | 1486264076.79351 | pgbench_branches_pkey |            40960
 2017-02-05 04:07:56.793508+01 | 1486264076.79351 | pgbench_tellers_pkey  |           245760
 2017-02-05 04:07:56.793508+01 | 1486264076.79351 | pgbench_accounts_pkey |       2246197248

 2017-02-05 04:07:57.871664+01 | 1486264077.87166 | pgbench_branches_pkey |            40960
 2017-02-05 04:07:57.871664+01 | 1486264077.87166 | pgbench_tellers_pkey  |           245760
 2017-02-05 04:07:57.871664+01 | 1486264077.87166 | pgbench_accounts_pkey |       2246197248

 2017-02-05 04:07:58.952338+01 | 1486264078.95234 | pgbench_branches_pkey |            40960
 2017-02-05 04:07:58.952338+01 | 1486264078.95234 | pgbench_tellers_pkey  |           245760
 2017-02-05 04:07:58.952338+01 | 1486264078.95234 | pgbench_accounts_pkey |       2246197248

 2017-02-05 04:08:00.030499+01 | 1486264080.0305 | pgbench_branches_pkey |            40960
 2017-02-05 04:08:00.030499+01 | 1486264080.0305 | pgbench_tellers_pkey  |           245760
 2017-02-05 04:08:00.030499+01 | 1486264080.0305 | pgbench_accounts_pkey |       2246197248

 2017-02-05 04:08:01.105155+01 | 1486264081.10515 | pgbench_branches_pkey |            40960
 2017-02-05 04:08:01.105155+01 | 1486264081.10515 | pgbench_tellers_pkey  |           245760
 2017-02-05 04:08:01.105155+01 | 1486264081.10515 | pgbench_accounts_pkey |       2246197248

 2017-02-05 04:08:02.190625+01 | 1486264082.19062 | pgbench_branches_pkey |            40960
 2017-02-05 04:08:02.190625+01 | 1486264082.19062 | pgbench_tellers_pkey  |           245760
 2017-02-05 04:08:02.190625+01 | 1486264082.19062 | pgbench_accounts_pkey |       2246197248

 2017-02-05 04:08:03.272586+01 | 1486264083.27259 | pgbench_branches_pkey |            40960
 2017-02-05 04:08:03.272586+01 | 1486264083.27259 | pgbench_tellers_pkey  |           245760
 2017-02-05 04:08:03.272586+01 | 1486264083.27259 | pgbench_accounts_pkey |       2246197248

 2017-02-05 04:08:04.346975+01 | 1486264084.34698 | pgbench_branches_pkey |            40960
 2017-02-05 04:08:04.346975+01 | 1486264084.34698 | pgbench_tellers_pkey  |           245760
 2017-02-05 04:08:04.346975+01 | 1486264084.34698 | pgbench_accounts_pkey |       2246197248

 2017-02-05 04:08:05.428372+01 | 1486264085.42837 | pgbench_branches_pkey |            40960
 2017-02-05 04:08:05.428372+01 | 1486264085.42837 | pgbench_tellers_pkey  |           245760
 2017-02-05 04:08:05.428372+01 | 1486264085.42837 | pgbench_accounts_pkey |       2246197248

 2017-02-05 04:08:06.505265+01 | 1486264086.50526 | pgbench_branches_pkey |            40960
 2017-02-05 04:08:06.505265+01 | 1486264086.50526 | pgbench_tellers_pkey  |           245760
 2017-02-05 04:08:06.505265+01 | 1486264086.50526 | pgbench_accounts_pkey |       2246197248

 2017-02-05 04:08:07.582701+01 | 1486264087.5827 | pgbench_branches_pkey |            40960
 2017-02-05 04:08:07.582701+01 | 1486264087.5827 | pgbench_tellers_pkey  |           245760
 2017-02-05 04:08:07.582701+01 | 1486264087.5827 | pgbench_accounts_pkey |       2246197248

 2017-02-05 04:08:08.66991+01 | 1486264088.66991 | pgbench_branches_pkey |            40960
 2017-02-05 04:08:08.66991+01 | 1486264088.66991 | pgbench_tellers_pkey  |           245760
 2017-02-05 04:08:08.66991+01 | 1486264088.66991 | pgbench_accounts_pkey |       2246197248

 2017-02-05 04:08:09.747098+01 | 1486264089.7471 | pgbench_branches_pkey |            40960
 2017-02-05 04:08:09.747098+01 | 1486264089.7471 | pgbench_tellers_pkey  |           245760
 2017-02-05 04:08:09.747098+01 | 1486264089.7471 | pgbench_accounts_pkey |       2246197248

 2017-02-05 04:08:10.827707+01 | 1486264090.82771 | pgbench_branches_pkey |            40960
 2017-02-05 04:08:10.827707+01 | 1486264090.82771 | pgbench_tellers_pkey  |           245760
 2017-02-05 04:08:10.827707+01 | 1486264090.82771 | pgbench_accounts_pkey |       2246197248

 2017-02-05 04:08:11.909977+01 | 1486264091.90998 | pgbench_branches_pkey |            40960
 2017-02-05 04:08:11.909977+01 | 1486264091.90998 | pgbench_tellers_pkey  |           245760
 2017-02-05 04:08:11.909977+01 | 1486264091.90998 | pgbench_accounts_pkey |       2246197248

 2017-02-05 04:08:12.979955+01 | 1486264092.97995 | pgbench_branches_pkey |            40960
 2017-02-05 04:08:12.979955+01 | 1486264092.97995 | pgbench_tellers_pkey  |           245760
 2017-02-05 04:08:12.979955+01 | 1486264092.97995 | pgbench_accounts_pkey |       2246197248

 2017-02-05 04:08:14.048717+01 | 1486264094.04872 | pgbench_branches_pkey |            40960
 2017-02-05 04:08:14.048717+01 | 1486264094.04872 | pgbench_tellers_pkey  |           245760
 2017-02-05 04:08:14.048717+01 | 1486264094.04872 | pgbench_accounts_pkey |       2246197248

 2017-02-05 04:08:15.123512+01 | 1486264095.12351 | pgbench_branches_pkey |            40960
 2017-02-05 04:08:15.123512+01 | 1486264095.12351 | pgbench_tellers_pkey  |           245760
 2017-02-05 04:08:15.123512+01 | 1486264095.12351 | pgbench_accounts_pkey |       2246197248

 2017-02-05 04:08:16.205302+01 | 1486264096.2053 | pgbench_branches_pkey |            40960
 2017-02-05 04:08:16.205302+01 | 1486264096.2053 | pgbench_tellers_pkey  |           245760
 2017-02-05 04:08:16.205302+01 | 1486264096.2053 | pgbench_accounts_pkey |       2246197248

 2017-02-05 04:08:17.28783+01 | 1486264097.28783 | pgbench_branches_pkey |            40960
 2017-02-05 04:08:17.28783+01 | 1486264097.28783 | pgbench_tellers_pkey  |           245760
 2017-02-05 04:08:17.28783+01 | 1486264097.28783 | pgbench_accounts_pkey |       2246197248

 2017-02-05 04:08:18.36997+01 | 1486264098.36997 | pgbench_branches_pkey |            40960
 2017-02-05 04:08:18.36997+01 | 1486264098.36997 | pgbench_tellers_pkey  |           245760
 2017-02-05 04:08:18.36997+01 | 1486264098.36997 | pgbench_accounts_pkey |       2246197248

 2017-02-05 04:08:19.449999+01 | 1486264099.45 | pgbench_branches_pkey |            40960
 2017-02-05 04:08:19.449999+01 | 1486264099.45 | pgbench_tellers_pkey  |           245760
 2017-02-05 04:08:19.449999+01 | 1486264099.45 | pgbench_accounts_pkey |       2246197248

 2017-02-05 04:08:20.529966+01 | 1486264100.52997 | pgbench_branches_pkey |            40960
 2017-02-05 04:08:20.529966+01 | 1486264100.52997 | pgbench_tellers_pkey  |           245760
 2017-02-05 04:08:20.529966+01 | 1486264100.52997 | pgbench_accounts_pkey |       2246197248

 2017-02-05 04:08:21.615111+01 | 1486264101.61511 | pgbench_branches_pkey |            40960
 2017-02-05 04:08:21.615111+01 | 1486264101.61511 | pgbench_tellers_pkey  |           245760
 2017-02-05 04:08:21.615111+01 | 1486264101.61511 | pgbench_accounts_pkey |       2246197248

 2017-02-05 04:08:22.698322+01 | 1486264102.69832 | pgbench_branches_pkey |            40960
 2017-02-05 04:08:22.698322+01 | 1486264102.69832 | pgbench_tellers_pkey  |           245760
 2017-02-05 04:08:22.698322+01 | 1486264102.69832 | pgbench_accounts_pkey |       2246197248

 2017-02-05 04:08:23.775907+01 | 1486264103.77591 | pgbench_branches_pkey |            40960
 2017-02-05 04:08:23.775907+01 | 1486264103.77591 | pgbench_tellers_pkey  |           245760
 2017-02-05 04:08:23.775907+01 | 1486264103.77591 | pgbench_accounts_pkey |       2246197248

 2017-02-05 04:08:24.8536+01 | 1486264104.8536 | pgbench_branches_pkey |            40960
 2017-02-05 04:08:24.8536+01 | 1486264104.8536 | pgbench_tellers_pkey  |           245760
 2017-02-05 04:08:24.8536+01 | 1486264104.8536 | pgbench_accounts_pkey |       2246197248

 2017-02-05 04:08:25.941905+01 | 1486264105.94191 | pgbench_branches_pkey |            40960
 2017-02-05 04:08:25.941905+01 | 1486264105.94191 | pgbench_tellers_pkey  |           245760
 2017-02-05 04:08:25.941905+01 | 1486264105.94191 | pgbench_accounts_pkey |       2246197248

 2017-02-05 04:08:27.018857+01 | 1486264107.01886 | pgbench_branches_pkey |            40960
 2017-02-05 04:08:27.018857+01 | 1486264107.01886 | pgbench_tellers_pkey  |           245760
 2017-02-05 04:08:27.018857+01 | 1486264107.01886 | pgbench_accounts_pkey |       2246197248

 2017-02-05 04:08:28.094498+01 | 1486264108.0945 | pgbench_branches_pkey |            40960
 2017-02-05 04:08:28.094498+01 | 1486264108.0945 | pgbench_tellers_pkey  |           245760
 2017-02-05 04:08:28.094498+01 | 1486264108.0945 | pgbench_accounts_pkey |       2246197248

 2017-02-05 04:08:29.178759+01 | 1486264109.17876 | pgbench_branches_pkey |            40960
 2017-02-05 04:08:29.178759+01 | 1486264109.17876 | pgbench_tellers_pkey  |           245760
 2017-02-05 04:08:29.178759+01 | 1486264109.17876 | pgbench_accounts_pkey |       2246197248

 2017-02-05 04:08:30.258786+01 | 1486264110.25879 | pgbench_branches_pkey |            40960
 2017-02-05 04:08:30.258786+01 | 1486264110.25879 | pgbench_tellers_pkey  |           245760
 2017-02-05 04:08:30.258786+01 | 1486264110.25879 | pgbench_accounts_pkey |       2246197248

 2017-02-05 04:08:31.351539+01 | 1486264111.35154 | pgbench_branches_pkey |            40960
 2017-02-05 04:08:31.351539+01 | 1486264111.35154 | pgbench_tellers_pkey  |           245760
 2017-02-05 04:08:31.351539+01 | 1486264111.35154 | pgbench_accounts_pkey |       2246197248

 2017-02-05 04:08:32.439135+01 | 1486264112.43914 | pgbench_branches_pkey |            40960
 2017-02-05 04:08:32.439135+01 | 1486264112.43914 | pgbench_tellers_pkey  |           245760
 2017-02-05 04:08:32.439135+01 | 1486264112.43914 | pgbench_accounts_pkey |       2246197248

 2017-02-05 04:08:33.520714+01 | 1486264113.52071 | pgbench_branches_pkey |            40960
 2017-02-05 04:08:33.520714+01 | 1486264113.52071 | pgbench_tellers_pkey  |           245760
 2017-02-05 04:08:33.520714+01 | 1486264113.52071 | pgbench_accounts_pkey |       2246197248

 2017-02-05 04:08:34.595289+01 | 1486264114.59529 | pgbench_branches_pkey |            40960
 2017-02-05 04:08:34.595289+01 | 1486264114.59529 | pgbench_tellers_pkey  |           245760
 2017-02-05 04:08:34.595289+01 | 1486264114.59529 | pgbench_accounts_pkey |       2246197248

 2017-02-05 04:08:35.674141+01 | 1486264115.67414 | pgbench_branches_pkey |            40960
 2017-02-05 04:08:35.674141+01 | 1486264115.67414 | pgbench_tellers_pkey  |           245760
 2017-02-05 04:08:35.674141+01 | 1486264115.67414 | pgbench_accounts_pkey |       2246197248

 2017-02-05 04:08:36.759749+01 | 1486264116.75975 | pgbench_branches_pkey |            40960
 2017-02-05 04:08:36.759749+01 | 1486264116.75975 | pgbench_tellers_pkey  |           245760
 2017-02-05 04:08:36.759749+01 | 1486264116.75975 | pgbench_accounts_pkey |       2246197248

 2017-02-05 04:08:37.842312+01 | 1486264117.84231 | pgbench_branches_pkey |            40960
 2017-02-05 04:08:37.842312+01 | 1486264117.84231 | pgbench_tellers_pkey  |           245760
 2017-02-05 04:08:37.842312+01 | 1486264117.84231 | pgbench_accounts_pkey |       2246197248

 2017-02-05 04:08:38.919212+01 | 1486264118.91921 | pgbench_branches_pkey |            40960
 2017-02-05 04:08:38.919212+01 | 1486264118.91921 | pgbench_tellers_pkey  |           245760
 2017-02-05 04:08:38.919212+01 | 1486264118.91921 | pgbench_accounts_pkey |       2246197248

 2017-02-05 04:08:39.999946+01 | 1486264119.99995 | pgbench_branches_pkey |            40960
 2017-02-05 04:08:39.999946+01 | 1486264119.99995 | pgbench_tellers_pkey  |           245760
 2017-02-05 04:08:39.999946+01 | 1486264119.99995 | pgbench_accounts_pkey |       2246197248

 2017-02-05 04:08:41.081385+01 | 1486264121.08138 | pgbench_branches_pkey |            40960
 2017-02-05 04:08:41.081385+01 | 1486264121.08138 | pgbench_tellers_pkey  |           245760
 2017-02-05 04:08:41.081385+01 | 1486264121.08138 | pgbench_accounts_pkey |       2246197248

 2017-02-05 04:08:42.163232+01 | 1486264122.16323 | pgbench_branches_pkey |            40960
 2017-02-05 04:08:42.163232+01 | 1486264122.16323 | pgbench_tellers_pkey  |           245760
 2017-02-05 04:08:42.163232+01 | 1486264122.16323 | pgbench_accounts_pkey |       2246197248

 2017-02-05 04:08:43.242861+01 | 1486264123.24286 | pgbench_branches_pkey |            40960
 2017-02-05 04:08:43.242861+01 | 1486264123.24286 | pgbench_tellers_pkey  |           245760
 2017-02-05 04:08:43.242861+01 | 1486264123.24286 | pgbench_accounts_pkey |       2246197248

 2017-02-05 04:08:44.315087+01 | 1486264124.31509 | pgbench_branches_pkey |            40960
 2017-02-05 04:08:44.315087+01 | 1486264124.31509 | pgbench_tellers_pkey  |           245760
 2017-02-05 04:08:44.315087+01 | 1486264124.31509 | pgbench_accounts_pkey |       2246197248

 2017-02-05 04:08:45.388885+01 | 1486264125.38889 | pgbench_branches_pkey |            40960
 2017-02-05 04:08:45.388885+01 | 1486264125.38889 | pgbench_tellers_pkey  |           245760
 2017-02-05 04:08:45.388885+01 | 1486264125.38889 | pgbench_accounts_pkey |       2246197248

 2017-02-05 04:08:46.473444+01 | 1486264126.47344 | pgbench_branches_pkey |            40960
 2017-02-05 04:08:46.473444+01 | 1486264126.47344 | pgbench_tellers_pkey  |           245760
 2017-02-05 04:08:46.473444+01 | 1486264126.47344 | pgbench_accounts_pkey |       2246197248

 2017-02-05 04:08:47.540339+01 | 1486264127.54034 | pgbench_branches_pkey |            40960
 2017-02-05 04:08:47.540339+01 | 1486264127.54034 | pgbench_tellers_pkey  |           245760
 2017-02-05 04:08:47.540339+01 | 1486264127.54034 | pgbench_accounts_pkey |       2246197248

 2017-02-05 04:08:48.603253+01 | 1486264128.60325 | pgbench_branches_pkey |            40960
 2017-02-05 04:08:48.603253+01 | 1486264128.60325 | pgbench_tellers_pkey  |           245760
 2017-02-05 04:08:48.603253+01 | 1486264128.60325 | pgbench_accounts_pkey |       2246197248

 2017-02-05 04:08:49.686806+01 | 1486264129.68681 | pgbench_branches_pkey |            40960
 2017-02-05 04:08:49.686806+01 | 1486264129.68681 | pgbench_tellers_pkey  |           245760
 2017-02-05 04:08:49.686806+01 | 1486264129.68681 | pgbench_accounts_pkey |       2246197248

 2017-02-05 04:08:50.764563+01 | 1486264130.76456 | pgbench_branches_pkey |            40960
 2017-02-05 04:08:50.764563+01 | 1486264130.76456 | pgbench_tellers_pkey  |           245760
 2017-02-05 04:08:50.764563+01 | 1486264130.76456 | pgbench_accounts_pkey |       2246197248

 2017-02-05 04:08:51.842691+01 | 1486264131.84269 | pgbench_branches_pkey |            40960
 2017-02-05 04:08:51.842691+01 | 1486264131.84269 | pgbench_tellers_pkey  |           245760
 2017-02-05 04:08:51.842691+01 | 1486264131.84269 | pgbench_accounts_pkey |       2246197248

 2017-02-05 04:08:52.914104+01 | 1486264132.9141 | pgbench_branches_pkey |            40960
 2017-02-05 04:08:52.914104+01 | 1486264132.9141 | pgbench_tellers_pkey  |           245760
 2017-02-05 04:08:52.914104+01 | 1486264132.9141 | pgbench_accounts_pkey |       2246197248

 2017-02-05 04:08:53.991596+01 | 1486264133.9916 | pgbench_branches_pkey |            40960
 2017-02-05 04:08:53.991596+01 | 1486264133.9916 | pgbench_tellers_pkey  |           245760
 2017-02-05 04:08:53.991596+01 | 1486264133.9916 | pgbench_accounts_pkey |       2246197248

 2017-02-05 04:08:55.075143+01 | 1486264135.07514 | pgbench_branches_pkey |            40960
 2017-02-05 04:08:55.075143+01 | 1486264135.07514 | pgbench_tellers_pkey  |           245760
 2017-02-05 04:08:55.075143+01 | 1486264135.07514 | pgbench_accounts_pkey |       2246197248

 2017-02-05 04:08:56.156077+01 | 1486264136.15608 | pgbench_branches_pkey |            40960
 2017-02-05 04:08:56.156077+01 | 1486264136.15608 | pgbench_tellers_pkey  |           245760
 2017-02-05 04:08:56.156077+01 | 1486264136.15608 | pgbench_accounts_pkey |       2246197248

 2017-02-05 04:08:57.238772+01 | 1486264137.23877 | pgbench_branches_pkey |            40960
 2017-02-05 04:08:57.238772+01 | 1486264137.23877 | pgbench_tellers_pkey  |           245760
 2017-02-05 04:08:57.238772+01 | 1486264137.23877 | pgbench_accounts_pkey |       2246197248

 2017-02-05 04:08:58.320711+01 | 1486264138.32071 | pgbench_branches_pkey |            40960
 2017-02-05 04:08:58.320711+01 | 1486264138.32071 | pgbench_tellers_pkey  |           245760
 2017-02-05 04:08:58.320711+01 | 1486264138.32071 | pgbench_accounts_pkey |       2246197248

 2017-02-05 04:08:59.401209+01 | 1486264139.40121 | pgbench_branches_pkey |            40960
 2017-02-05 04:08:59.401209+01 | 1486264139.40121 | pgbench_tellers_pkey  |           245760
 2017-02-05 04:08:59.401209+01 | 1486264139.40121 | pgbench_accounts_pkey |       2246197248

 2017-02-05 04:09:00.472879+01 | 1486264140.47288 | pgbench_branches_pkey |            40960
 2017-02-05 04:09:00.472879+01 | 1486264140.47288 | pgbench_tellers_pkey  |           245760
 2017-02-05 04:09:00.472879+01 | 1486264140.47288 | pgbench_accounts_pkey |       2246197248

 2017-02-05 04:09:01.544144+01 | 1486264141.54414 | pgbench_branches_pkey |            40960
 2017-02-05 04:09:01.544144+01 | 1486264141.54414 | pgbench_tellers_pkey  |           245760
 2017-02-05 04:09:01.544144+01 | 1486264141.54414 | pgbench_accounts_pkey |       2246197248

 2017-02-05 04:09:02.63273+01 | 1486264142.63273 | pgbench_branches_pkey |            40960
 2017-02-05 04:09:02.63273+01 | 1486264142.63273 | pgbench_tellers_pkey  |           245760
 2017-02-05 04:09:02.63273+01 | 1486264142.63273 | pgbench_accounts_pkey |       2246197248

 2017-02-05 04:09:03.712671+01 | 1486264143.71267 | pgbench_branches_pkey |            40960
 2017-02-05 04:09:03.712671+01 | 1486264143.71267 | pgbench_tellers_pkey  |           245760
 2017-02-05 04:09:03.712671+01 | 1486264143.71267 | pgbench_accounts_pkey |       2246197248

 2017-02-05 04:09:04.788094+01 | 1486264144.78809 | pgbench_branches_pkey |            40960
 2017-02-05 04:09:04.788094+01 | 1486264144.78809 | pgbench_tellers_pkey  |           245760
 2017-02-05 04:09:04.788094+01 | 1486264144.78809 | pgbench_accounts_pkey |       2246197248

 2017-02-05 04:09:05.861901+01 | 1486264145.8619 | pgbench_branches_pkey |            40960
 2017-02-05 04:09:05.861901+01 | 1486264145.8619 | pgbench_tellers_pkey  |           245760
 2017-02-05 04:09:05.861901+01 | 1486264145.8619 | pgbench_accounts_pkey |       2246197248

 2017-02-05 04:09:06.949202+01 | 1486264146.9492 | pgbench_branches_pkey |            40960
 2017-02-05 04:09:06.949202+01 | 1486264146.9492 | pgbench_tellers_pkey  |           245760
 2017-02-05 04:09:06.949202+01 | 1486264146.9492 | pgbench_accounts_pkey |       2246197248

