 2017-02-06 08:56:44.608368+01 | 1486367804.60837 | pgbench_accounts |      13429514240
 2017-02-06 08:56:44.608368+01 | 1486367804.60837 | pgbench_tellers  |           450560
 2017-02-06 08:56:44.608368+01 | 1486367804.60837 | pgbench_history  |                0
 2017-02-06 08:56:44.608368+01 | 1486367804.60837 | pgbench_branches |            40960

 2017-02-06 08:56:45.722884+01 | 1486367805.72288 | pgbench_accounts |      13429514240
 2017-02-06 08:56:45.722884+01 | 1486367805.72288 | pgbench_tellers  |           450560
 2017-02-06 08:56:45.722884+01 | 1486367805.72288 | pgbench_history  |                0
 2017-02-06 08:56:45.722884+01 | 1486367805.72288 | pgbench_branches |            40960

 2017-02-06 08:56:46.836302+01 | 1486367806.8363 | pgbench_accounts |      13429514240
 2017-02-06 08:56:46.836302+01 | 1486367806.8363 | pgbench_tellers  |           450560
 2017-02-06 08:56:46.836302+01 | 1486367806.8363 | pgbench_history  |                0
 2017-02-06 08:56:46.836302+01 | 1486367806.8363 | pgbench_branches |            40960

 2017-02-06 08:56:47.941774+01 | 1486367807.94177 | pgbench_accounts |      13429514240
 2017-02-06 08:56:47.941774+01 | 1486367807.94177 | pgbench_tellers  |           450560
 2017-02-06 08:56:47.941774+01 | 1486367807.94177 | pgbench_history  |                0
 2017-02-06 08:56:47.941774+01 | 1486367807.94177 | pgbench_branches |            40960

 2017-02-06 08:56:49.044599+01 | 1486367809.0446 | pgbench_accounts |      13429514240
 2017-02-06 08:56:49.044599+01 | 1486367809.0446 | pgbench_tellers  |           450560
 2017-02-06 08:56:49.044599+01 | 1486367809.0446 | pgbench_history  |                0
 2017-02-06 08:56:49.044599+01 | 1486367809.0446 | pgbench_branches |            40960

 2017-02-06 08:56:50.147925+01 | 1486367810.14792 | pgbench_accounts |      13429514240
 2017-02-06 08:56:50.147925+01 | 1486367810.14792 | pgbench_tellers  |           450560
 2017-02-06 08:56:50.147925+01 | 1486367810.14792 | pgbench_history  |                0
 2017-02-06 08:56:50.147925+01 | 1486367810.14792 | pgbench_branches |            40960

 2017-02-06 08:56:51.253673+01 | 1486367811.25367 | pgbench_accounts |      13429514240
 2017-02-06 08:56:51.253673+01 | 1486367811.25367 | pgbench_tellers  |           450560
 2017-02-06 08:56:51.253673+01 | 1486367811.25367 | pgbench_history  |                0
 2017-02-06 08:56:51.253673+01 | 1486367811.25367 | pgbench_branches |            40960

 2017-02-06 08:56:52.35755+01 | 1486367812.35755 | pgbench_accounts |      13429514240
 2017-02-06 08:56:52.35755+01 | 1486367812.35755 | pgbench_tellers  |           450560
 2017-02-06 08:56:52.35755+01 | 1486367812.35755 | pgbench_history  |                0
 2017-02-06 08:56:52.35755+01 | 1486367812.35755 | pgbench_branches |            40960

 2017-02-06 08:56:53.456043+01 | 1486367813.45604 | pgbench_accounts |      13429514240
 2017-02-06 08:56:53.456043+01 | 1486367813.45604 | pgbench_tellers  |           450560
 2017-02-06 08:56:53.456043+01 | 1486367813.45604 | pgbench_history  |                0
 2017-02-06 08:56:53.456043+01 | 1486367813.45604 | pgbench_branches |            40960

 2017-02-06 08:56:54.560397+01 | 1486367814.5604 | pgbench_accounts |      13429514240
 2017-02-06 08:56:54.560397+01 | 1486367814.5604 | pgbench_tellers  |           450560
 2017-02-06 08:56:54.560397+01 | 1486367814.5604 | pgbench_history  |                0
 2017-02-06 08:56:54.560397+01 | 1486367814.5604 | pgbench_branches |            40960

 2017-02-06 08:56:55.664206+01 | 1486367815.66421 | pgbench_accounts |      13429514240
 2017-02-06 08:56:55.664206+01 | 1486367815.66421 | pgbench_tellers  |           450560
 2017-02-06 08:56:55.664206+01 | 1486367815.66421 | pgbench_history  |                0
 2017-02-06 08:56:55.664206+01 | 1486367815.66421 | pgbench_branches |            40960

 2017-02-06 08:56:56.775499+01 | 1486367816.7755 | pgbench_accounts |      13429514240
 2017-02-06 08:56:56.775499+01 | 1486367816.7755 | pgbench_tellers  |           450560
 2017-02-06 08:56:56.775499+01 | 1486367816.7755 | pgbench_history  |                0
 2017-02-06 08:56:56.775499+01 | 1486367816.7755 | pgbench_branches |            40960

 2017-02-06 08:56:57.863364+01 | 1486367817.86336 | pgbench_accounts |      13429514240
 2017-02-06 08:56:57.863364+01 | 1486367817.86336 | pgbench_tellers  |           450560
 2017-02-06 08:56:57.863364+01 | 1486367817.86336 | pgbench_history  |                0
 2017-02-06 08:56:57.863364+01 | 1486367817.86336 | pgbench_branches |            40960

 2017-02-06 08:56:58.97542+01 | 1486367818.97542 | pgbench_accounts |      13429514240
 2017-02-06 08:56:58.97542+01 | 1486367818.97542 | pgbench_tellers  |           450560
 2017-02-06 08:56:58.97542+01 | 1486367818.97542 | pgbench_history  |                0
 2017-02-06 08:56:58.97542+01 | 1486367818.97542 | pgbench_branches |            40960

 2017-02-06 08:57:00.087815+01 | 1486367820.08782 | pgbench_accounts |      13429514240
 2017-02-06 08:57:00.087815+01 | 1486367820.08782 | pgbench_tellers  |           450560
 2017-02-06 08:57:00.087815+01 | 1486367820.08782 | pgbench_history  |                0
 2017-02-06 08:57:00.087815+01 | 1486367820.08782 | pgbench_branches |            40960

 2017-02-06 08:57:01.202934+01 | 1486367821.20293 | pgbench_accounts |      13429514240
 2017-02-06 08:57:01.202934+01 | 1486367821.20293 | pgbench_tellers  |           450560
 2017-02-06 08:57:01.202934+01 | 1486367821.20293 | pgbench_history  |                0
 2017-02-06 08:57:01.202934+01 | 1486367821.20293 | pgbench_branches |            40960

 2017-02-06 08:57:02.314582+01 | 1486367822.31458 | pgbench_accounts |      13429514240
 2017-02-06 08:57:02.314582+01 | 1486367822.31458 | pgbench_tellers  |           450560
 2017-02-06 08:57:02.314582+01 | 1486367822.31458 | pgbench_history  |                0
 2017-02-06 08:57:02.314582+01 | 1486367822.31458 | pgbench_branches |            40960

 2017-02-06 08:57:03.420065+01 | 1486367823.42006 | pgbench_accounts |      13429514240
 2017-02-06 08:57:03.420065+01 | 1486367823.42006 | pgbench_tellers  |           450560
 2017-02-06 08:57:03.420065+01 | 1486367823.42006 | pgbench_history  |                0
 2017-02-06 08:57:03.420065+01 | 1486367823.42006 | pgbench_branches |            40960

 2017-02-06 08:57:04.515352+01 | 1486367824.51535 | pgbench_accounts |      13429514240
 2017-02-06 08:57:04.515352+01 | 1486367824.51535 | pgbench_tellers  |           450560
 2017-02-06 08:57:04.515352+01 | 1486367824.51535 | pgbench_history  |                0
 2017-02-06 08:57:04.515352+01 | 1486367824.51535 | pgbench_branches |            40960

 2017-02-06 08:57:05.611261+01 | 1486367825.61126 | pgbench_accounts |      13429514240
 2017-02-06 08:57:05.611261+01 | 1486367825.61126 | pgbench_tellers  |           450560
 2017-02-06 08:57:05.611261+01 | 1486367825.61126 | pgbench_history  |                0
 2017-02-06 08:57:05.611261+01 | 1486367825.61126 | pgbench_branches |            40960

 2017-02-06 08:57:06.71956+01 | 1486367826.71956 | pgbench_accounts |      13429514240
 2017-02-06 08:57:06.71956+01 | 1486367826.71956 | pgbench_tellers  |           450560
 2017-02-06 08:57:06.71956+01 | 1486367826.71956 | pgbench_history  |                0
 2017-02-06 08:57:06.71956+01 | 1486367826.71956 | pgbench_branches |            40960

 2017-02-06 08:57:07.830272+01 | 1486367827.83027 | pgbench_accounts |      13429514240
 2017-02-06 08:57:07.830272+01 | 1486367827.83027 | pgbench_tellers  |           450560
 2017-02-06 08:57:07.830272+01 | 1486367827.83027 | pgbench_history  |                0
 2017-02-06 08:57:07.830272+01 | 1486367827.83027 | pgbench_branches |            40960

 2017-02-06 08:57:08.928318+01 | 1486367828.92832 | pgbench_accounts |      13429514240
 2017-02-06 08:57:08.928318+01 | 1486367828.92832 | pgbench_tellers  |           450560
 2017-02-06 08:57:08.928318+01 | 1486367828.92832 | pgbench_history  |                0
 2017-02-06 08:57:08.928318+01 | 1486367828.92832 | pgbench_branches |            40960

 2017-02-06 08:57:10.026827+01 | 1486367830.02683 | pgbench_accounts |      13429514240
 2017-02-06 08:57:10.026827+01 | 1486367830.02683 | pgbench_tellers  |           450560
 2017-02-06 08:57:10.026827+01 | 1486367830.02683 | pgbench_history  |                0
 2017-02-06 08:57:10.026827+01 | 1486367830.02683 | pgbench_branches |            40960

 2017-02-06 08:57:11.127471+01 | 1486367831.12747 | pgbench_accounts |      13429514240
 2017-02-06 08:57:11.127471+01 | 1486367831.12747 | pgbench_tellers  |           450560
 2017-02-06 08:57:11.127471+01 | 1486367831.12747 | pgbench_history  |                0
 2017-02-06 08:57:11.127471+01 | 1486367831.12747 | pgbench_branches |            40960

 2017-02-06 08:57:12.232479+01 | 1486367832.23248 | pgbench_accounts |      13429514240
 2017-02-06 08:57:12.232479+01 | 1486367832.23248 | pgbench_tellers  |           450560
 2017-02-06 08:57:12.232479+01 | 1486367832.23248 | pgbench_history  |                0
 2017-02-06 08:57:12.232479+01 | 1486367832.23248 | pgbench_branches |            40960

 2017-02-06 08:57:13.327279+01 | 1486367833.32728 | pgbench_accounts |      13429514240
 2017-02-06 08:57:13.327279+01 | 1486367833.32728 | pgbench_tellers  |           450560
 2017-02-06 08:57:13.327279+01 | 1486367833.32728 | pgbench_history  |                0
 2017-02-06 08:57:13.327279+01 | 1486367833.32728 | pgbench_branches |            40960

 2017-02-06 08:57:14.429153+01 | 1486367834.42915 | pgbench_accounts |      13429514240
 2017-02-06 08:57:14.429153+01 | 1486367834.42915 | pgbench_tellers  |           450560
 2017-02-06 08:57:14.429153+01 | 1486367834.42915 | pgbench_history  |                0
 2017-02-06 08:57:14.429153+01 | 1486367834.42915 | pgbench_branches |            40960

 2017-02-06 08:57:15.536594+01 | 1486367835.53659 | pgbench_accounts |      13429514240
 2017-02-06 08:57:15.536594+01 | 1486367835.53659 | pgbench_tellers  |           450560
 2017-02-06 08:57:15.536594+01 | 1486367835.53659 | pgbench_history  |                0
 2017-02-06 08:57:15.536594+01 | 1486367835.53659 | pgbench_branches |            40960

 2017-02-06 08:57:16.631369+01 | 1486367836.63137 | pgbench_accounts |      13429514240
 2017-02-06 08:57:16.631369+01 | 1486367836.63137 | pgbench_tellers  |           450560
 2017-02-06 08:57:16.631369+01 | 1486367836.63137 | pgbench_history  |                0
 2017-02-06 08:57:16.631369+01 | 1486367836.63137 | pgbench_branches |            40960

 2017-02-06 08:57:17.737252+01 | 1486367837.73725 | pgbench_accounts |      13429514240
 2017-02-06 08:57:17.737252+01 | 1486367837.73725 | pgbench_tellers  |           450560
 2017-02-06 08:57:17.737252+01 | 1486367837.73725 | pgbench_history  |                0
 2017-02-06 08:57:17.737252+01 | 1486367837.73725 | pgbench_branches |            40960

 2017-02-06 08:57:18.860343+01 | 1486367838.86034 | pgbench_accounts |      13429514240
 2017-02-06 08:57:18.860343+01 | 1486367838.86034 | pgbench_tellers  |           450560
 2017-02-06 08:57:18.860343+01 | 1486367838.86034 | pgbench_history  |                0
 2017-02-06 08:57:18.860343+01 | 1486367838.86034 | pgbench_branches |            40960

 2017-02-06 08:57:19.959643+01 | 1486367839.95964 | pgbench_accounts |      13429514240
 2017-02-06 08:57:19.959643+01 | 1486367839.95964 | pgbench_tellers  |           450560
 2017-02-06 08:57:19.959643+01 | 1486367839.95964 | pgbench_history  |                0
 2017-02-06 08:57:19.959643+01 | 1486367839.95964 | pgbench_branches |            40960

 2017-02-06 08:57:21.054819+01 | 1486367841.05482 | pgbench_accounts |      13429514240
 2017-02-06 08:57:21.054819+01 | 1486367841.05482 | pgbench_tellers  |           450560
 2017-02-06 08:57:21.054819+01 | 1486367841.05482 | pgbench_history  |                0
 2017-02-06 08:57:21.054819+01 | 1486367841.05482 | pgbench_branches |            40960

 2017-02-06 08:57:22.165223+01 | 1486367842.16522 | pgbench_accounts |      13429514240
 2017-02-06 08:57:22.165223+01 | 1486367842.16522 | pgbench_tellers  |           450560
 2017-02-06 08:57:22.165223+01 | 1486367842.16522 | pgbench_history  |                0
 2017-02-06 08:57:22.165223+01 | 1486367842.16522 | pgbench_branches |            40960

 2017-02-06 08:57:23.26773+01 | 1486367843.26773 | pgbench_accounts |      13429514240
 2017-02-06 08:57:23.26773+01 | 1486367843.26773 | pgbench_tellers  |           450560
 2017-02-06 08:57:23.26773+01 | 1486367843.26773 | pgbench_history  |                0
 2017-02-06 08:57:23.26773+01 | 1486367843.26773 | pgbench_branches |            40960

 2017-02-06 08:57:24.373658+01 | 1486367844.37366 | pgbench_accounts |      13429514240
 2017-02-06 08:57:24.373658+01 | 1486367844.37366 | pgbench_tellers  |           450560
 2017-02-06 08:57:24.373658+01 | 1486367844.37366 | pgbench_history  |                0
 2017-02-06 08:57:24.373658+01 | 1486367844.37366 | pgbench_branches |            40960

 2017-02-06 08:57:25.475376+01 | 1486367845.47538 | pgbench_accounts |      13429514240
 2017-02-06 08:57:25.475376+01 | 1486367845.47538 | pgbench_tellers  |           450560
 2017-02-06 08:57:25.475376+01 | 1486367845.47538 | pgbench_history  |                0
 2017-02-06 08:57:25.475376+01 | 1486367845.47538 | pgbench_branches |            40960

 2017-02-06 08:57:26.577307+01 | 1486367846.57731 | pgbench_accounts |      13429514240
 2017-02-06 08:57:26.577307+01 | 1486367846.57731 | pgbench_tellers  |           450560
 2017-02-06 08:57:26.577307+01 | 1486367846.57731 | pgbench_history  |                0
 2017-02-06 08:57:26.577307+01 | 1486367846.57731 | pgbench_branches |            40960

 2017-02-06 08:57:27.675134+01 | 1486367847.67513 | pgbench_accounts |      13429514240
 2017-02-06 08:57:27.675134+01 | 1486367847.67513 | pgbench_tellers  |           450560
 2017-02-06 08:57:27.675134+01 | 1486367847.67513 | pgbench_history  |                0
 2017-02-06 08:57:27.675134+01 | 1486367847.67513 | pgbench_branches |            40960

 2017-02-06 08:57:28.778793+01 | 1486367848.77879 | pgbench_accounts |      13429514240
 2017-02-06 08:57:28.778793+01 | 1486367848.77879 | pgbench_tellers  |           450560
 2017-02-06 08:57:28.778793+01 | 1486367848.77879 | pgbench_history  |                0
 2017-02-06 08:57:28.778793+01 | 1486367848.77879 | pgbench_branches |            40960

 2017-02-06 08:57:29.885974+01 | 1486367849.88597 | pgbench_accounts |      13429514240
 2017-02-06 08:57:29.885974+01 | 1486367849.88597 | pgbench_tellers  |           450560
 2017-02-06 08:57:29.885974+01 | 1486367849.88597 | pgbench_history  |                0
 2017-02-06 08:57:29.885974+01 | 1486367849.88597 | pgbench_branches |            40960

 2017-02-06 08:57:30.987446+01 | 1486367850.98745 | pgbench_accounts |      13429514240
 2017-02-06 08:57:30.987446+01 | 1486367850.98745 | pgbench_tellers  |           450560
 2017-02-06 08:57:30.987446+01 | 1486367850.98745 | pgbench_history  |                0
 2017-02-06 08:57:30.987446+01 | 1486367850.98745 | pgbench_branches |            40960

 2017-02-06 08:57:32.08283+01 | 1486367852.08283 | pgbench_accounts |      13429514240
 2017-02-06 08:57:32.08283+01 | 1486367852.08283 | pgbench_tellers  |           450560
 2017-02-06 08:57:32.08283+01 | 1486367852.08283 | pgbench_history  |                0
 2017-02-06 08:57:32.08283+01 | 1486367852.08283 | pgbench_branches |            40960

 2017-02-06 08:57:33.192207+01 | 1486367853.19221 | pgbench_accounts |      13429514240
 2017-02-06 08:57:33.192207+01 | 1486367853.19221 | pgbench_tellers  |           450560
 2017-02-06 08:57:33.192207+01 | 1486367853.19221 | pgbench_history  |                0
 2017-02-06 08:57:33.192207+01 | 1486367853.19221 | pgbench_branches |            40960

 2017-02-06 08:57:34.288923+01 | 1486367854.28892 | pgbench_accounts |      13429514240
 2017-02-06 08:57:34.288923+01 | 1486367854.28892 | pgbench_tellers  |           450560
 2017-02-06 08:57:34.288923+01 | 1486367854.28892 | pgbench_history  |                0
 2017-02-06 08:57:34.288923+01 | 1486367854.28892 | pgbench_branches |            40960

 2017-02-06 08:57:35.400982+01 | 1486367855.40098 | pgbench_accounts |      13429514240
 2017-02-06 08:57:35.400982+01 | 1486367855.40098 | pgbench_tellers  |           450560
 2017-02-06 08:57:35.400982+01 | 1486367855.40098 | pgbench_history  |                0
 2017-02-06 08:57:35.400982+01 | 1486367855.40098 | pgbench_branches |            40960

 2017-02-06 08:57:36.501133+01 | 1486367856.50113 | pgbench_accounts |      13429514240
 2017-02-06 08:57:36.501133+01 | 1486367856.50113 | pgbench_tellers  |           450560
 2017-02-06 08:57:36.501133+01 | 1486367856.50113 | pgbench_history  |                0
 2017-02-06 08:57:36.501133+01 | 1486367856.50113 | pgbench_branches |            40960

 2017-02-06 08:57:37.605633+01 | 1486367857.60563 | pgbench_accounts |      13429514240
 2017-02-06 08:57:37.605633+01 | 1486367857.60563 | pgbench_tellers  |           450560
 2017-02-06 08:57:37.605633+01 | 1486367857.60563 | pgbench_history  |                0
 2017-02-06 08:57:37.605633+01 | 1486367857.60563 | pgbench_branches |            40960

 2017-02-06 08:57:38.707329+01 | 1486367858.70733 | pgbench_accounts |      13429514240
 2017-02-06 08:57:38.707329+01 | 1486367858.70733 | pgbench_tellers  |           450560
 2017-02-06 08:57:38.707329+01 | 1486367858.70733 | pgbench_history  |                0
 2017-02-06 08:57:38.707329+01 | 1486367858.70733 | pgbench_branches |            40960

 2017-02-06 08:57:39.811177+01 | 1486367859.81118 | pgbench_accounts |      13429514240
 2017-02-06 08:57:39.811177+01 | 1486367859.81118 | pgbench_tellers  |           450560
 2017-02-06 08:57:39.811177+01 | 1486367859.81118 | pgbench_history  |                0
 2017-02-06 08:57:39.811177+01 | 1486367859.81118 | pgbench_branches |            40960

 2017-02-06 08:57:40.916048+01 | 1486367860.91605 | pgbench_accounts |      13429514240
 2017-02-06 08:57:40.916048+01 | 1486367860.91605 | pgbench_tellers  |           450560
 2017-02-06 08:57:40.916048+01 | 1486367860.91605 | pgbench_history  |                0
 2017-02-06 08:57:40.916048+01 | 1486367860.91605 | pgbench_branches |            40960

 2017-02-06 08:57:42.016231+01 | 1486367862.01623 | pgbench_accounts |      13429514240
 2017-02-06 08:57:42.016231+01 | 1486367862.01623 | pgbench_tellers  |           450560
 2017-02-06 08:57:42.016231+01 | 1486367862.01623 | pgbench_history  |                0
 2017-02-06 08:57:42.016231+01 | 1486367862.01623 | pgbench_branches |            40960

 2017-02-06 08:57:43.123918+01 | 1486367863.12392 | pgbench_accounts |      13429514240
 2017-02-06 08:57:43.123918+01 | 1486367863.12392 | pgbench_tellers  |           450560
 2017-02-06 08:57:43.123918+01 | 1486367863.12392 | pgbench_history  |                0
 2017-02-06 08:57:43.123918+01 | 1486367863.12392 | pgbench_branches |            40960

 2017-02-06 08:57:44.251944+01 | 1486367864.25194 | pgbench_accounts |      13429514240
 2017-02-06 08:57:44.251944+01 | 1486367864.25194 | pgbench_tellers  |           450560
 2017-02-06 08:57:44.251944+01 | 1486367864.25194 | pgbench_history  |                0
 2017-02-06 08:57:44.251944+01 | 1486367864.25194 | pgbench_branches |            40960

 2017-02-06 08:57:45.353773+01 | 1486367865.35377 | pgbench_accounts |      13429514240
 2017-02-06 08:57:45.353773+01 | 1486367865.35377 | pgbench_tellers  |           450560
 2017-02-06 08:57:45.353773+01 | 1486367865.35377 | pgbench_history  |                0
 2017-02-06 08:57:45.353773+01 | 1486367865.35377 | pgbench_branches |            40960

 2017-02-06 08:57:46.4521+01 | 1486367866.4521 | pgbench_accounts |      13429514240
 2017-02-06 08:57:46.4521+01 | 1486367866.4521 | pgbench_tellers  |           450560
 2017-02-06 08:57:46.4521+01 | 1486367866.4521 | pgbench_history  |                0
 2017-02-06 08:57:46.4521+01 | 1486367866.4521 | pgbench_branches |            40960

 2017-02-06 08:57:47.553728+01 | 1486367867.55373 | pgbench_accounts |      13429514240
 2017-02-06 08:57:47.553728+01 | 1486367867.55373 | pgbench_tellers  |           450560
 2017-02-06 08:57:47.553728+01 | 1486367867.55373 | pgbench_history  |                0
 2017-02-06 08:57:47.553728+01 | 1486367867.55373 | pgbench_branches |            40960

 2017-02-06 08:57:48.655676+01 | 1486367868.65568 | pgbench_accounts |      13429514240
 2017-02-06 08:57:48.655676+01 | 1486367868.65568 | pgbench_tellers  |           450560
 2017-02-06 08:57:48.655676+01 | 1486367868.65568 | pgbench_history  |                0
 2017-02-06 08:57:48.655676+01 | 1486367868.65568 | pgbench_branches |            40960

 2017-02-06 08:57:49.763738+01 | 1486367869.76374 | pgbench_accounts |      13429514240
 2017-02-06 08:57:49.763738+01 | 1486367869.76374 | pgbench_tellers  |           450560
 2017-02-06 08:57:49.763738+01 | 1486367869.76374 | pgbench_history  |                0
 2017-02-06 08:57:49.763738+01 | 1486367869.76374 | pgbench_branches |            40960

 2017-02-06 08:57:50.874571+01 | 1486367870.87457 | pgbench_accounts |      13429514240
 2017-02-06 08:57:50.874571+01 | 1486367870.87457 | pgbench_tellers  |           450560
 2017-02-06 08:57:50.874571+01 | 1486367870.87457 | pgbench_history  |                0
 2017-02-06 08:57:50.874571+01 | 1486367870.87457 | pgbench_branches |            40960

 2017-02-06 08:57:51.977508+01 | 1486367871.97751 | pgbench_accounts |      13429514240
 2017-02-06 08:57:51.977508+01 | 1486367871.97751 | pgbench_tellers  |           450560
 2017-02-06 08:57:51.977508+01 | 1486367871.97751 | pgbench_history  |                0
 2017-02-06 08:57:51.977508+01 | 1486367871.97751 | pgbench_branches |            40960

 2017-02-06 08:57:53.076125+01 | 1486367873.07612 | pgbench_accounts |      13429514240
 2017-02-06 08:57:53.076125+01 | 1486367873.07612 | pgbench_tellers  |           450560
 2017-02-06 08:57:53.076125+01 | 1486367873.07612 | pgbench_history  |                0
 2017-02-06 08:57:53.076125+01 | 1486367873.07612 | pgbench_branches |            40960

 2017-02-06 08:57:54.177174+01 | 1486367874.17717 | pgbench_accounts |      13429514240
 2017-02-06 08:57:54.177174+01 | 1486367874.17717 | pgbench_tellers  |           450560
 2017-02-06 08:57:54.177174+01 | 1486367874.17717 | pgbench_history  |                0
 2017-02-06 08:57:54.177174+01 | 1486367874.17717 | pgbench_branches |            40960

 2017-02-06 08:57:55.265405+01 | 1486367875.2654 | pgbench_accounts |      13429514240
 2017-02-06 08:57:55.265405+01 | 1486367875.2654 | pgbench_tellers  |           450560
 2017-02-06 08:57:55.265405+01 | 1486367875.2654 | pgbench_history  |                0
 2017-02-06 08:57:55.265405+01 | 1486367875.2654 | pgbench_branches |            40960

 2017-02-06 08:57:56.368822+01 | 1486367876.36882 | pgbench_accounts |      13429514240
 2017-02-06 08:57:56.368822+01 | 1486367876.36882 | pgbench_tellers  |           450560
 2017-02-06 08:57:56.368822+01 | 1486367876.36882 | pgbench_history  |                0
 2017-02-06 08:57:56.368822+01 | 1486367876.36882 | pgbench_branches |            40960

 2017-02-06 08:57:57.464152+01 | 1486367877.46415 | pgbench_accounts |      13429514240
 2017-02-06 08:57:57.464152+01 | 1486367877.46415 | pgbench_tellers  |           450560
 2017-02-06 08:57:57.464152+01 | 1486367877.46415 | pgbench_history  |                0
 2017-02-06 08:57:57.464152+01 | 1486367877.46415 | pgbench_branches |            40960

 2017-02-06 08:57:58.562105+01 | 1486367878.5621 | pgbench_accounts |      13429514240
 2017-02-06 08:57:58.562105+01 | 1486367878.5621 | pgbench_tellers  |           450560
 2017-02-06 08:57:58.562105+01 | 1486367878.5621 | pgbench_history  |                0
 2017-02-06 08:57:58.562105+01 | 1486367878.5621 | pgbench_branches |            40960

 2017-02-06 08:57:59.659395+01 | 1486367879.65939 | pgbench_accounts |      13429514240
 2017-02-06 08:57:59.659395+01 | 1486367879.65939 | pgbench_tellers  |           450560
 2017-02-06 08:57:59.659395+01 | 1486367879.65939 | pgbench_history  |                0
 2017-02-06 08:57:59.659395+01 | 1486367879.65939 | pgbench_branches |            40960

 2017-02-06 08:58:00.765336+01 | 1486367880.76534 | pgbench_accounts |      13429514240
 2017-02-06 08:58:00.765336+01 | 1486367880.76534 | pgbench_tellers  |           450560
 2017-02-06 08:58:00.765336+01 | 1486367880.76534 | pgbench_history  |                0
 2017-02-06 08:58:00.765336+01 | 1486367880.76534 | pgbench_branches |            40960

 2017-02-06 08:58:01.872873+01 | 1486367881.87287 | pgbench_accounts |      13429514240
 2017-02-06 08:58:01.872873+01 | 1486367881.87287 | pgbench_tellers  |           450560
 2017-02-06 08:58:01.872873+01 | 1486367881.87287 | pgbench_history  |                0
 2017-02-06 08:58:01.872873+01 | 1486367881.87287 | pgbench_branches |            40960

 2017-02-06 08:58:02.973816+01 | 1486367882.97382 | pgbench_accounts |      13429514240
 2017-02-06 08:58:02.973816+01 | 1486367882.97382 | pgbench_tellers  |           450560
 2017-02-06 08:58:02.973816+01 | 1486367882.97382 | pgbench_history  |                0
 2017-02-06 08:58:02.973816+01 | 1486367882.97382 | pgbench_branches |            40960

 2017-02-06 08:58:04.072885+01 | 1486367884.07289 | pgbench_accounts |      13429514240
 2017-02-06 08:58:04.072885+01 | 1486367884.07289 | pgbench_tellers  |           450560
 2017-02-06 08:58:04.072885+01 | 1486367884.07289 | pgbench_history  |                0
 2017-02-06 08:58:04.072885+01 | 1486367884.07289 | pgbench_branches |            40960

 2017-02-06 08:58:05.174919+01 | 1486367885.17492 | pgbench_accounts |      13429514240
 2017-02-06 08:58:05.174919+01 | 1486367885.17492 | pgbench_tellers  |           450560
 2017-02-06 08:58:05.174919+01 | 1486367885.17492 | pgbench_history  |                0
 2017-02-06 08:58:05.174919+01 | 1486367885.17492 | pgbench_branches |            40960

 2017-02-06 08:58:06.279019+01 | 1486367886.27902 | pgbench_accounts |      13429514240
 2017-02-06 08:58:06.279019+01 | 1486367886.27902 | pgbench_tellers  |           450560
 2017-02-06 08:58:06.279019+01 | 1486367886.27902 | pgbench_history  |                0
 2017-02-06 08:58:06.279019+01 | 1486367886.27902 | pgbench_branches |            40960

 2017-02-06 08:58:07.389669+01 | 1486367887.38967 | pgbench_accounts |      13429514240
 2017-02-06 08:58:07.389669+01 | 1486367887.38967 | pgbench_tellers  |           450560
 2017-02-06 08:58:07.389669+01 | 1486367887.38967 | pgbench_history  |                0
 2017-02-06 08:58:07.389669+01 | 1486367887.38967 | pgbench_branches |            40960

 2017-02-06 08:58:08.503804+01 | 1486367888.5038 | pgbench_accounts |      13429514240
 2017-02-06 08:58:08.503804+01 | 1486367888.5038 | pgbench_tellers  |           450560
 2017-02-06 08:58:08.503804+01 | 1486367888.5038 | pgbench_history  |                0
 2017-02-06 08:58:08.503804+01 | 1486367888.5038 | pgbench_branches |            40960

 2017-02-06 08:58:09.604583+01 | 1486367889.60458 | pgbench_accounts |      13429514240
 2017-02-06 08:58:09.604583+01 | 1486367889.60458 | pgbench_tellers  |           450560
 2017-02-06 08:58:09.604583+01 | 1486367889.60458 | pgbench_history  |                0
 2017-02-06 08:58:09.604583+01 | 1486367889.60458 | pgbench_branches |            40960

 2017-02-06 08:58:10.698738+01 | 1486367890.69874 | pgbench_accounts |      13429514240
 2017-02-06 08:58:10.698738+01 | 1486367890.69874 | pgbench_tellers  |           450560
 2017-02-06 08:58:10.698738+01 | 1486367890.69874 | pgbench_history  |                0
 2017-02-06 08:58:10.698738+01 | 1486367890.69874 | pgbench_branches |            40960

 2017-02-06 08:58:11.808987+01 | 1486367891.80899 | pgbench_accounts |      13429514240
 2017-02-06 08:58:11.808987+01 | 1486367891.80899 | pgbench_tellers  |           450560
 2017-02-06 08:58:11.808987+01 | 1486367891.80899 | pgbench_history  |                0
 2017-02-06 08:58:11.808987+01 | 1486367891.80899 | pgbench_branches |            40960

 2017-02-06 08:58:12.90733+01 | 1486367892.90733 | pgbench_accounts |      13429514240
 2017-02-06 08:58:12.90733+01 | 1486367892.90733 | pgbench_tellers  |           450560
 2017-02-06 08:58:12.90733+01 | 1486367892.90733 | pgbench_history  |                0
 2017-02-06 08:58:12.90733+01 | 1486367892.90733 | pgbench_branches |            40960

 2017-02-06 08:58:14.019059+01 | 1486367894.01906 | pgbench_accounts |      13429514240
 2017-02-06 08:58:14.019059+01 | 1486367894.01906 | pgbench_tellers  |           450560
 2017-02-06 08:58:14.019059+01 | 1486367894.01906 | pgbench_history  |                0
 2017-02-06 08:58:14.019059+01 | 1486367894.01906 | pgbench_branches |            40960

 2017-02-06 08:58:15.128394+01 | 1486367895.12839 | pgbench_accounts |      13429514240
 2017-02-06 08:58:15.128394+01 | 1486367895.12839 | pgbench_tellers  |           450560
 2017-02-06 08:58:15.128394+01 | 1486367895.12839 | pgbench_history  |                0
 2017-02-06 08:58:15.128394+01 | 1486367895.12839 | pgbench_branches |            40960

 2017-02-06 08:58:16.235106+01 | 1486367896.23511 | pgbench_accounts |      13429514240
 2017-02-06 08:58:16.235106+01 | 1486367896.23511 | pgbench_tellers  |           450560
 2017-02-06 08:58:16.235106+01 | 1486367896.23511 | pgbench_history  |                0
 2017-02-06 08:58:16.235106+01 | 1486367896.23511 | pgbench_branches |            40960

 2017-02-06 08:58:17.330652+01 | 1486367897.33065 | pgbench_accounts |      13429514240
 2017-02-06 08:58:17.330652+01 | 1486367897.33065 | pgbench_tellers  |           450560
 2017-02-06 08:58:17.330652+01 | 1486367897.33065 | pgbench_history  |                0
 2017-02-06 08:58:17.330652+01 | 1486367897.33065 | pgbench_branches |            40960

 2017-02-06 08:58:18.422756+01 | 1486367898.42276 | pgbench_accounts |      13429514240
 2017-02-06 08:58:18.422756+01 | 1486367898.42276 | pgbench_tellers  |           450560
 2017-02-06 08:58:18.422756+01 | 1486367898.42276 | pgbench_history  |                0
 2017-02-06 08:58:18.422756+01 | 1486367898.42276 | pgbench_branches |            40960

 2017-02-06 08:58:19.543552+01 | 1486367899.54355 | pgbench_accounts |      13429514240
 2017-02-06 08:58:19.543552+01 | 1486367899.54355 | pgbench_tellers  |           450560
 2017-02-06 08:58:19.543552+01 | 1486367899.54355 | pgbench_history  |                0
 2017-02-06 08:58:19.543552+01 | 1486367899.54355 | pgbench_branches |            40960

 2017-02-06 08:58:20.643748+01 | 1486367900.64375 | pgbench_accounts |      13429514240
 2017-02-06 08:58:20.643748+01 | 1486367900.64375 | pgbench_tellers  |           450560
 2017-02-06 08:58:20.643748+01 | 1486367900.64375 | pgbench_history  |                0
 2017-02-06 08:58:20.643748+01 | 1486367900.64375 | pgbench_branches |            40960

 2017-02-06 08:58:21.736907+01 | 1486367901.73691 | pgbench_accounts |      13429514240
 2017-02-06 08:58:21.736907+01 | 1486367901.73691 | pgbench_tellers  |           450560
 2017-02-06 08:58:21.736907+01 | 1486367901.73691 | pgbench_history  |                0
 2017-02-06 08:58:21.736907+01 | 1486367901.73691 | pgbench_branches |            40960

 2017-02-06 08:58:22.843543+01 | 1486367902.84354 | pgbench_accounts |      13429514240
 2017-02-06 08:58:22.843543+01 | 1486367902.84354 | pgbench_tellers  |           450560
 2017-02-06 08:58:22.843543+01 | 1486367902.84354 | pgbench_history  |                0
 2017-02-06 08:58:22.843543+01 | 1486367902.84354 | pgbench_branches |            40960

 2017-02-06 08:58:23.93169+01 | 1486367903.93169 | pgbench_accounts |      13429514240
 2017-02-06 08:58:23.93169+01 | 1486367903.93169 | pgbench_tellers  |           450560
 2017-02-06 08:58:23.93169+01 | 1486367903.93169 | pgbench_history  |                0
 2017-02-06 08:58:23.93169+01 | 1486367903.93169 | pgbench_branches |            40960

 2017-02-06 08:58:25.029193+01 | 1486367905.02919 | pgbench_accounts |      13429514240
 2017-02-06 08:58:25.029193+01 | 1486367905.02919 | pgbench_tellers  |           450560
 2017-02-06 08:58:25.029193+01 | 1486367905.02919 | pgbench_history  |                0
 2017-02-06 08:58:25.029193+01 | 1486367905.02919 | pgbench_branches |            40960

 2017-02-06 08:58:26.137358+01 | 1486367906.13736 | pgbench_accounts |      13429514240
 2017-02-06 08:58:26.137358+01 | 1486367906.13736 | pgbench_tellers  |           450560
 2017-02-06 08:58:26.137358+01 | 1486367906.13736 | pgbench_history  |                0
 2017-02-06 08:58:26.137358+01 | 1486367906.13736 | pgbench_branches |            40960

 2017-02-06 08:58:27.23985+01 | 1486367907.23985 | pgbench_accounts |      13429514240
 2017-02-06 08:58:27.23985+01 | 1486367907.23985 | pgbench_tellers  |           450560
 2017-02-06 08:58:27.23985+01 | 1486367907.23985 | pgbench_history  |                0
 2017-02-06 08:58:27.23985+01 | 1486367907.23985 | pgbench_branches |            40960

 2017-02-06 08:58:28.340736+01 | 1486367908.34074 | pgbench_accounts |      13429514240
 2017-02-06 08:58:28.340736+01 | 1486367908.34074 | pgbench_tellers  |           450560
 2017-02-06 08:58:28.340736+01 | 1486367908.34074 | pgbench_history  |                0
 2017-02-06 08:58:28.340736+01 | 1486367908.34074 | pgbench_branches |            40960

 2017-02-06 08:58:29.450414+01 | 1486367909.45041 | pgbench_accounts |      13429514240
 2017-02-06 08:58:29.450414+01 | 1486367909.45041 | pgbench_tellers  |           450560
 2017-02-06 08:58:29.450414+01 | 1486367909.45041 | pgbench_history  |                0
 2017-02-06 08:58:29.450414+01 | 1486367909.45041 | pgbench_branches |            40960

 2017-02-06 08:58:30.5449+01 | 1486367910.5449 | pgbench_accounts |      13429514240
 2017-02-06 08:58:30.5449+01 | 1486367910.5449 | pgbench_tellers  |           450560
 2017-02-06 08:58:30.5449+01 | 1486367910.5449 | pgbench_history  |                0
 2017-02-06 08:58:30.5449+01 | 1486367910.5449 | pgbench_branches |            40960

 2017-02-06 08:58:31.6604+01 | 1486367911.6604 | pgbench_accounts |      13429514240
 2017-02-06 08:58:31.6604+01 | 1486367911.6604 | pgbench_tellers  |           450560
 2017-02-06 08:58:31.6604+01 | 1486367911.6604 | pgbench_history  |                0
 2017-02-06 08:58:31.6604+01 | 1486367911.6604 | pgbench_branches |            40960

 2017-02-06 08:58:32.765319+01 | 1486367912.76532 | pgbench_accounts |      13429514240
 2017-02-06 08:58:32.765319+01 | 1486367912.76532 | pgbench_tellers  |           450560
 2017-02-06 08:58:32.765319+01 | 1486367912.76532 | pgbench_history  |                0
 2017-02-06 08:58:32.765319+01 | 1486367912.76532 | pgbench_branches |            40960

 2017-02-06 08:58:33.867725+01 | 1486367913.86772 | pgbench_accounts |      13429514240
 2017-02-06 08:58:33.867725+01 | 1486367913.86772 | pgbench_tellers  |           450560
 2017-02-06 08:58:33.867725+01 | 1486367913.86772 | pgbench_history  |                0
 2017-02-06 08:58:33.867725+01 | 1486367913.86772 | pgbench_branches |            40960

 2017-02-06 08:58:34.968311+01 | 1486367914.96831 | pgbench_accounts |      13429514240
 2017-02-06 08:58:34.968311+01 | 1486367914.96831 | pgbench_tellers  |           450560
 2017-02-06 08:58:34.968311+01 | 1486367914.96831 | pgbench_history  |                0
 2017-02-06 08:58:34.968311+01 | 1486367914.96831 | pgbench_branches |            40960

 2017-02-06 08:58:36.069264+01 | 1486367916.06926 | pgbench_accounts |      13429514240
 2017-02-06 08:58:36.069264+01 | 1486367916.06926 | pgbench_tellers  |           450560
 2017-02-06 08:58:36.069264+01 | 1486367916.06926 | pgbench_history  |                0
 2017-02-06 08:58:36.069264+01 | 1486367916.06926 | pgbench_branches |            40960

 2017-02-06 08:58:37.180184+01 | 1486367917.18018 | pgbench_accounts |      13429514240
 2017-02-06 08:58:37.180184+01 | 1486367917.18018 | pgbench_tellers  |           450560
 2017-02-06 08:58:37.180184+01 | 1486367917.18018 | pgbench_history  |                0
 2017-02-06 08:58:37.180184+01 | 1486367917.18018 | pgbench_branches |            40960

 2017-02-06 08:58:38.27728+01 | 1486367918.27728 | pgbench_accounts |      13429514240
 2017-02-06 08:58:38.27728+01 | 1486367918.27728 | pgbench_tellers  |           450560
 2017-02-06 08:58:38.27728+01 | 1486367918.27728 | pgbench_history  |                0
 2017-02-06 08:58:38.27728+01 | 1486367918.27728 | pgbench_branches |            40960

 2017-02-06 08:58:39.383258+01 | 1486367919.38326 | pgbench_accounts |      13429514240
 2017-02-06 08:58:39.383258+01 | 1486367919.38326 | pgbench_tellers  |           450560
 2017-02-06 08:58:39.383258+01 | 1486367919.38326 | pgbench_history  |                0
 2017-02-06 08:58:39.383258+01 | 1486367919.38326 | pgbench_branches |            40960

 2017-02-06 08:58:40.484269+01 | 1486367920.48427 | pgbench_accounts |      13429514240
 2017-02-06 08:58:40.484269+01 | 1486367920.48427 | pgbench_tellers  |           450560
 2017-02-06 08:58:40.484269+01 | 1486367920.48427 | pgbench_history  |                0
 2017-02-06 08:58:40.484269+01 | 1486367920.48427 | pgbench_branches |            40960

 2017-02-06 08:58:41.588212+01 | 1486367921.58821 | pgbench_accounts |      13429514240
 2017-02-06 08:58:41.588212+01 | 1486367921.58821 | pgbench_tellers  |           450560
 2017-02-06 08:58:41.588212+01 | 1486367921.58821 | pgbench_history  |                0
 2017-02-06 08:58:41.588212+01 | 1486367921.58821 | pgbench_branches |            40960

 2017-02-06 08:58:42.7021+01 | 1486367922.7021 | pgbench_accounts |      13429514240
 2017-02-06 08:58:42.7021+01 | 1486367922.7021 | pgbench_tellers  |           450560
 2017-02-06 08:58:42.7021+01 | 1486367922.7021 | pgbench_history  |                0
 2017-02-06 08:58:42.7021+01 | 1486367922.7021 | pgbench_branches |            40960

 2017-02-06 08:58:43.797791+01 | 1486367923.79779 | pgbench_accounts |      13429514240
 2017-02-06 08:58:43.797791+01 | 1486367923.79779 | pgbench_tellers  |           450560
 2017-02-06 08:58:43.797791+01 | 1486367923.79779 | pgbench_history  |                0
 2017-02-06 08:58:43.797791+01 | 1486367923.79779 | pgbench_branches |            40960

 2017-02-06 08:58:44.89711+01 | 1486367924.89711 | pgbench_accounts |      13429514240
 2017-02-06 08:58:44.89711+01 | 1486367924.89711 | pgbench_tellers  |           450560
 2017-02-06 08:58:44.89711+01 | 1486367924.89711 | pgbench_history  |                0
 2017-02-06 08:58:44.89711+01 | 1486367924.89711 | pgbench_branches |            40960

 2017-02-06 08:58:46.002662+01 | 1486367926.00266 | pgbench_accounts |      13429514240
 2017-02-06 08:58:46.002662+01 | 1486367926.00266 | pgbench_tellers  |           450560
 2017-02-06 08:58:46.002662+01 | 1486367926.00266 | pgbench_history  |                0
 2017-02-06 08:58:46.002662+01 | 1486367926.00266 | pgbench_branches |            40960

 2017-02-06 08:58:47.106723+01 | 1486367927.10672 | pgbench_accounts |      13429514240
 2017-02-06 08:58:47.106723+01 | 1486367927.10672 | pgbench_tellers  |           450560
 2017-02-06 08:58:47.106723+01 | 1486367927.10672 | pgbench_history  |                0
 2017-02-06 08:58:47.106723+01 | 1486367927.10672 | pgbench_branches |            40960

 2017-02-06 08:58:48.208605+01 | 1486367928.20861 | pgbench_accounts |      13429514240
 2017-02-06 08:58:48.208605+01 | 1486367928.20861 | pgbench_tellers  |           450560
 2017-02-06 08:58:48.208605+01 | 1486367928.20861 | pgbench_history  |                0
 2017-02-06 08:58:48.208605+01 | 1486367928.20861 | pgbench_branches |            40960

 2017-02-06 08:58:49.31188+01 | 1486367929.31188 | pgbench_accounts |      13429514240
 2017-02-06 08:58:49.31188+01 | 1486367929.31188 | pgbench_tellers  |           450560
 2017-02-06 08:58:49.31188+01 | 1486367929.31188 | pgbench_history  |                0
 2017-02-06 08:58:49.31188+01 | 1486367929.31188 | pgbench_branches |            40960

 2017-02-06 08:58:50.417803+01 | 1486367930.4178 | pgbench_accounts |      13429514240
 2017-02-06 08:58:50.417803+01 | 1486367930.4178 | pgbench_tellers  |           450560
 2017-02-06 08:58:50.417803+01 | 1486367930.4178 | pgbench_history  |                0
 2017-02-06 08:58:50.417803+01 | 1486367930.4178 | pgbench_branches |            40960

 2017-02-06 08:58:51.514648+01 | 1486367931.51465 | pgbench_accounts |      13429514240
 2017-02-06 08:58:51.514648+01 | 1486367931.51465 | pgbench_tellers  |           450560
 2017-02-06 08:58:51.514648+01 | 1486367931.51465 | pgbench_history  |                0
 2017-02-06 08:58:51.514648+01 | 1486367931.51465 | pgbench_branches |            40960

 2017-02-06 08:58:52.606295+01 | 1486367932.6063 | pgbench_accounts |      13429514240
 2017-02-06 08:58:52.606295+01 | 1486367932.6063 | pgbench_tellers  |           450560
 2017-02-06 08:58:52.606295+01 | 1486367932.6063 | pgbench_history  |                0
 2017-02-06 08:58:52.606295+01 | 1486367932.6063 | pgbench_branches |            40960

 2017-02-06 08:58:53.715877+01 | 1486367933.71588 | pgbench_accounts |      13429514240
 2017-02-06 08:58:53.715877+01 | 1486367933.71588 | pgbench_tellers  |           450560
 2017-02-06 08:58:53.715877+01 | 1486367933.71588 | pgbench_history  |                0
 2017-02-06 08:58:53.715877+01 | 1486367933.71588 | pgbench_branches |            40960

 2017-02-06 08:58:54.81866+01 | 1486367934.81866 | pgbench_accounts |      13429514240
 2017-02-06 08:58:54.81866+01 | 1486367934.81866 | pgbench_tellers  |           450560
 2017-02-06 08:58:54.81866+01 | 1486367934.81866 | pgbench_history  |                0
 2017-02-06 08:58:54.81866+01 | 1486367934.81866 | pgbench_branches |            40960

 2017-02-06 08:58:55.927618+01 | 1486367935.92762 | pgbench_accounts |      13429514240
 2017-02-06 08:58:55.927618+01 | 1486367935.92762 | pgbench_tellers  |           450560
 2017-02-06 08:58:55.927618+01 | 1486367935.92762 | pgbench_history  |                0
 2017-02-06 08:58:55.927618+01 | 1486367935.92762 | pgbench_branches |            40960

 2017-02-06 08:58:57.042643+01 | 1486367937.04264 | pgbench_accounts |      13429514240
 2017-02-06 08:58:57.042643+01 | 1486367937.04264 | pgbench_tellers  |           450560
 2017-02-06 08:58:57.042643+01 | 1486367937.04264 | pgbench_history  |                0
 2017-02-06 08:58:57.042643+01 | 1486367937.04264 | pgbench_branches |            40960

 2017-02-06 08:58:58.14354+01 | 1486367938.14354 | pgbench_accounts |      13429514240
 2017-02-06 08:58:58.14354+01 | 1486367938.14354 | pgbench_tellers  |           450560
 2017-02-06 08:58:58.14354+01 | 1486367938.14354 | pgbench_history  |                0
 2017-02-06 08:58:58.14354+01 | 1486367938.14354 | pgbench_branches |            40960

 2017-02-06 08:58:59.247827+01 | 1486367939.24783 | pgbench_accounts |      13429514240
 2017-02-06 08:58:59.247827+01 | 1486367939.24783 | pgbench_tellers  |           450560
 2017-02-06 08:58:59.247827+01 | 1486367939.24783 | pgbench_history  |                0
 2017-02-06 08:58:59.247827+01 | 1486367939.24783 | pgbench_branches |            40960

 2017-02-06 08:59:00.355739+01 | 1486367940.35574 | pgbench_accounts |      13429514240
 2017-02-06 08:59:00.355739+01 | 1486367940.35574 | pgbench_tellers  |           450560
 2017-02-06 08:59:00.355739+01 | 1486367940.35574 | pgbench_history  |                0
 2017-02-06 08:59:00.355739+01 | 1486367940.35574 | pgbench_branches |            40960

 2017-02-06 08:59:01.463617+01 | 1486367941.46362 | pgbench_accounts |      13429514240
 2017-02-06 08:59:01.463617+01 | 1486367941.46362 | pgbench_tellers  |           450560
 2017-02-06 08:59:01.463617+01 | 1486367941.46362 | pgbench_history  |                0
 2017-02-06 08:59:01.463617+01 | 1486367941.46362 | pgbench_branches |            40960

 2017-02-06 08:59:02.568929+01 | 1486367942.56893 | pgbench_accounts |      13429514240
 2017-02-06 08:59:02.568929+01 | 1486367942.56893 | pgbench_tellers  |           450560
 2017-02-06 08:59:02.568929+01 | 1486367942.56893 | pgbench_history  |                0
 2017-02-06 08:59:02.568929+01 | 1486367942.56893 | pgbench_branches |            40960

 2017-02-06 08:59:03.683043+01 | 1486367943.68304 | pgbench_accounts |      13429514240
 2017-02-06 08:59:03.683043+01 | 1486367943.68304 | pgbench_tellers  |           450560
 2017-02-06 08:59:03.683043+01 | 1486367943.68304 | pgbench_history  |                0
 2017-02-06 08:59:03.683043+01 | 1486367943.68304 | pgbench_branches |            40960

 2017-02-06 08:59:04.785187+01 | 1486367944.78519 | pgbench_accounts |      13429514240
 2017-02-06 08:59:04.785187+01 | 1486367944.78519 | pgbench_tellers  |           450560
 2017-02-06 08:59:04.785187+01 | 1486367944.78519 | pgbench_history  |                0
 2017-02-06 08:59:04.785187+01 | 1486367944.78519 | pgbench_branches |            40960

 2017-02-06 08:59:05.881557+01 | 1486367945.88156 | pgbench_accounts |      13429514240
 2017-02-06 08:59:05.881557+01 | 1486367945.88156 | pgbench_tellers  |           450560
 2017-02-06 08:59:05.881557+01 | 1486367945.88156 | pgbench_history  |                0
 2017-02-06 08:59:05.881557+01 | 1486367945.88156 | pgbench_branches |            40960

 2017-02-06 08:59:06.981985+01 | 1486367946.98199 | pgbench_accounts |      13429514240
 2017-02-06 08:59:06.981985+01 | 1486367946.98199 | pgbench_tellers  |           450560
 2017-02-06 08:59:06.981985+01 | 1486367946.98199 | pgbench_history  |                0
 2017-02-06 08:59:06.981985+01 | 1486367946.98199 | pgbench_branches |            40960

 2017-02-06 08:59:08.087364+01 | 1486367948.08736 | pgbench_accounts |      13429514240
 2017-02-06 08:59:08.087364+01 | 1486367948.08736 | pgbench_tellers  |           450560
 2017-02-06 08:59:08.087364+01 | 1486367948.08736 | pgbench_history  |                0
 2017-02-06 08:59:08.087364+01 | 1486367948.08736 | pgbench_branches |            40960

 2017-02-06 08:59:09.191229+01 | 1486367949.19123 | pgbench_accounts |      13429514240
 2017-02-06 08:59:09.191229+01 | 1486367949.19123 | pgbench_tellers  |           450560
 2017-02-06 08:59:09.191229+01 | 1486367949.19123 | pgbench_history  |                0
 2017-02-06 08:59:09.191229+01 | 1486367949.19123 | pgbench_branches |            40960

 2017-02-06 08:59:10.29259+01 | 1486367950.29259 | pgbench_accounts |      13429514240
 2017-02-06 08:59:10.29259+01 | 1486367950.29259 | pgbench_tellers  |           450560
 2017-02-06 08:59:10.29259+01 | 1486367950.29259 | pgbench_history  |                0
 2017-02-06 08:59:10.29259+01 | 1486367950.29259 | pgbench_branches |            40960

 2017-02-06 08:59:11.391511+01 | 1486367951.39151 | pgbench_accounts |      13429514240
 2017-02-06 08:59:11.391511+01 | 1486367951.39151 | pgbench_tellers  |           450560
 2017-02-06 08:59:11.391511+01 | 1486367951.39151 | pgbench_history  |                0
 2017-02-06 08:59:11.391511+01 | 1486367951.39151 | pgbench_branches |            40960

 2017-02-06 08:59:12.50225+01 | 1486367952.50225 | pgbench_accounts |      13429514240
 2017-02-06 08:59:12.50225+01 | 1486367952.50225 | pgbench_tellers  |           450560
 2017-02-06 08:59:12.50225+01 | 1486367952.50225 | pgbench_history  |                0
 2017-02-06 08:59:12.50225+01 | 1486367952.50225 | pgbench_branches |            40960

 2017-02-06 08:59:13.601952+01 | 1486367953.60195 | pgbench_accounts |      13429514240
 2017-02-06 08:59:13.601952+01 | 1486367953.60195 | pgbench_tellers  |           450560
 2017-02-06 08:59:13.601952+01 | 1486367953.60195 | pgbench_history  |                0
 2017-02-06 08:59:13.601952+01 | 1486367953.60195 | pgbench_branches |            40960

 2017-02-06 08:59:14.715717+01 | 1486367954.71572 | pgbench_accounts |      13429514240
 2017-02-06 08:59:14.715717+01 | 1486367954.71572 | pgbench_tellers  |           450560
 2017-02-06 08:59:14.715717+01 | 1486367954.71572 | pgbench_history  |                0
 2017-02-06 08:59:14.715717+01 | 1486367954.71572 | pgbench_branches |            40960

 2017-02-06 08:59:15.820735+01 | 1486367955.82073 | pgbench_accounts |      13429514240
 2017-02-06 08:59:15.820735+01 | 1486367955.82073 | pgbench_tellers  |           450560
 2017-02-06 08:59:15.820735+01 | 1486367955.82073 | pgbench_history  |                0
 2017-02-06 08:59:15.820735+01 | 1486367955.82073 | pgbench_branches |            40960

 2017-02-06 08:59:16.931232+01 | 1486367956.93123 | pgbench_accounts |      13429514240
 2017-02-06 08:59:16.931232+01 | 1486367956.93123 | pgbench_tellers  |           450560
 2017-02-06 08:59:16.931232+01 | 1486367956.93123 | pgbench_history  |                0
 2017-02-06 08:59:16.931232+01 | 1486367956.93123 | pgbench_branches |            40960

 2017-02-06 08:59:18.02431+01 | 1486367958.02431 | pgbench_accounts |      13429514240
 2017-02-06 08:59:18.02431+01 | 1486367958.02431 | pgbench_tellers  |           450560
 2017-02-06 08:59:18.02431+01 | 1486367958.02431 | pgbench_history  |                0
 2017-02-06 08:59:18.02431+01 | 1486367958.02431 | pgbench_branches |            40960

 2017-02-06 08:59:19.128417+01 | 1486367959.12842 | pgbench_accounts |      13429514240
 2017-02-06 08:59:19.128417+01 | 1486367959.12842 | pgbench_tellers  |           450560
 2017-02-06 08:59:19.128417+01 | 1486367959.12842 | pgbench_history  |                0
 2017-02-06 08:59:19.128417+01 | 1486367959.12842 | pgbench_branches |            40960

 2017-02-06 08:59:20.225565+01 | 1486367960.22556 | pgbench_accounts |      13429514240
 2017-02-06 08:59:20.225565+01 | 1486367960.22556 | pgbench_tellers  |           450560
 2017-02-06 08:59:20.225565+01 | 1486367960.22556 | pgbench_history  |                0
 2017-02-06 08:59:20.225565+01 | 1486367960.22556 | pgbench_branches |            40960

 2017-02-06 08:59:21.332034+01 | 1486367961.33203 | pgbench_accounts |      13429514240
 2017-02-06 08:59:21.332034+01 | 1486367961.33203 | pgbench_tellers  |           450560
 2017-02-06 08:59:21.332034+01 | 1486367961.33203 | pgbench_history  |                0
 2017-02-06 08:59:21.332034+01 | 1486367961.33203 | pgbench_branches |            40960

 2017-02-06 08:59:22.432403+01 | 1486367962.4324 | pgbench_accounts |      13429514240
 2017-02-06 08:59:22.432403+01 | 1486367962.4324 | pgbench_tellers  |           450560
 2017-02-06 08:59:22.432403+01 | 1486367962.4324 | pgbench_history  |                0
 2017-02-06 08:59:22.432403+01 | 1486367962.4324 | pgbench_branches |            40960

 2017-02-06 08:59:23.537315+01 | 1486367963.53731 | pgbench_accounts |      13429514240
 2017-02-06 08:59:23.537315+01 | 1486367963.53731 | pgbench_tellers  |           450560
 2017-02-06 08:59:23.537315+01 | 1486367963.53731 | pgbench_history  |                0
 2017-02-06 08:59:23.537315+01 | 1486367963.53731 | pgbench_branches |            40960

 2017-02-06 08:59:24.642679+01 | 1486367964.64268 | pgbench_accounts |      13429514240
 2017-02-06 08:59:24.642679+01 | 1486367964.64268 | pgbench_tellers  |           450560
 2017-02-06 08:59:24.642679+01 | 1486367964.64268 | pgbench_history  |                0
 2017-02-06 08:59:24.642679+01 | 1486367964.64268 | pgbench_branches |            40960

 2017-02-06 08:59:25.744144+01 | 1486367965.74414 | pgbench_accounts |      13429514240
 2017-02-06 08:59:25.744144+01 | 1486367965.74414 | pgbench_tellers  |           450560
 2017-02-06 08:59:25.744144+01 | 1486367965.74414 | pgbench_history  |                0
 2017-02-06 08:59:25.744144+01 | 1486367965.74414 | pgbench_branches |            40960

 2017-02-06 08:59:26.843459+01 | 1486367966.84346 | pgbench_accounts |      13429514240
 2017-02-06 08:59:26.843459+01 | 1486367966.84346 | pgbench_tellers  |           450560
 2017-02-06 08:59:26.843459+01 | 1486367966.84346 | pgbench_history  |                0
 2017-02-06 08:59:26.843459+01 | 1486367966.84346 | pgbench_branches |            40960

 2017-02-06 08:59:27.937017+01 | 1486367967.93702 | pgbench_accounts |      13429514240
 2017-02-06 08:59:27.937017+01 | 1486367967.93702 | pgbench_tellers  |           450560
 2017-02-06 08:59:27.937017+01 | 1486367967.93702 | pgbench_history  |                0
 2017-02-06 08:59:27.937017+01 | 1486367967.93702 | pgbench_branches |            40960

 2017-02-06 08:59:29.043586+01 | 1486367969.04359 | pgbench_accounts |      13429514240
 2017-02-06 08:59:29.043586+01 | 1486367969.04359 | pgbench_tellers  |           450560
 2017-02-06 08:59:29.043586+01 | 1486367969.04359 | pgbench_history  |                0
 2017-02-06 08:59:29.043586+01 | 1486367969.04359 | pgbench_branches |            40960

 2017-02-06 08:59:30.15182+01 | 1486367970.15182 | pgbench_accounts |      13429514240
 2017-02-06 08:59:30.15182+01 | 1486367970.15182 | pgbench_tellers  |           450560
 2017-02-06 08:59:30.15182+01 | 1486367970.15182 | pgbench_history  |                0
 2017-02-06 08:59:30.15182+01 | 1486367970.15182 | pgbench_branches |            40960

 2017-02-06 08:59:31.249326+01 | 1486367971.24933 | pgbench_accounts |      13429514240
 2017-02-06 08:59:31.249326+01 | 1486367971.24933 | pgbench_tellers  |           450560
 2017-02-06 08:59:31.249326+01 | 1486367971.24933 | pgbench_history  |                0
 2017-02-06 08:59:31.249326+01 | 1486367971.24933 | pgbench_branches |            40960

 2017-02-06 08:59:32.349248+01 | 1486367972.34925 | pgbench_accounts |      13429514240
 2017-02-06 08:59:32.349248+01 | 1486367972.34925 | pgbench_tellers  |           450560
 2017-02-06 08:59:32.349248+01 | 1486367972.34925 | pgbench_history  |                0
 2017-02-06 08:59:32.349248+01 | 1486367972.34925 | pgbench_branches |            40960

 2017-02-06 08:59:33.448451+01 | 1486367973.44845 | pgbench_accounts |      13429514240
 2017-02-06 08:59:33.448451+01 | 1486367973.44845 | pgbench_tellers  |           450560
 2017-02-06 08:59:33.448451+01 | 1486367973.44845 | pgbench_history  |                0
 2017-02-06 08:59:33.448451+01 | 1486367973.44845 | pgbench_branches |            40960

 2017-02-06 08:59:34.56219+01 | 1486367974.56219 | pgbench_accounts |      13429514240
 2017-02-06 08:59:34.56219+01 | 1486367974.56219 | pgbench_tellers  |           450560
 2017-02-06 08:59:34.56219+01 | 1486367974.56219 | pgbench_history  |                0
 2017-02-06 08:59:34.56219+01 | 1486367974.56219 | pgbench_branches |            40960

 2017-02-06 08:59:35.689978+01 | 1486367975.68998 | pgbench_accounts |      13429514240
 2017-02-06 08:59:35.689978+01 | 1486367975.68998 | pgbench_tellers  |           450560
 2017-02-06 08:59:35.689978+01 | 1486367975.68998 | pgbench_history  |                0
 2017-02-06 08:59:35.689978+01 | 1486367975.68998 | pgbench_branches |            40960

 2017-02-06 08:59:36.7871+01 | 1486367976.7871 | pgbench_accounts |      13429514240
 2017-02-06 08:59:36.7871+01 | 1486367976.7871 | pgbench_tellers  |           450560
 2017-02-06 08:59:36.7871+01 | 1486367976.7871 | pgbench_history  |                0
 2017-02-06 08:59:36.7871+01 | 1486367976.7871 | pgbench_branches |            40960

 2017-02-06 08:59:37.889204+01 | 1486367977.8892 | pgbench_accounts |      13429514240
 2017-02-06 08:59:37.889204+01 | 1486367977.8892 | pgbench_tellers  |           450560
 2017-02-06 08:59:37.889204+01 | 1486367977.8892 | pgbench_history  |                0
 2017-02-06 08:59:37.889204+01 | 1486367977.8892 | pgbench_branches |            40960

 2017-02-06 08:59:38.991152+01 | 1486367978.99115 | pgbench_accounts |      13429514240
 2017-02-06 08:59:38.991152+01 | 1486367978.99115 | pgbench_tellers  |           450560
 2017-02-06 08:59:38.991152+01 | 1486367978.99115 | pgbench_history  |                0
 2017-02-06 08:59:38.991152+01 | 1486367978.99115 | pgbench_branches |            40960

 2017-02-06 08:59:40.089339+01 | 1486367980.08934 | pgbench_accounts |      13429514240
 2017-02-06 08:59:40.089339+01 | 1486367980.08934 | pgbench_tellers  |           450560
 2017-02-06 08:59:40.089339+01 | 1486367980.08934 | pgbench_history  |                0
 2017-02-06 08:59:40.089339+01 | 1486367980.08934 | pgbench_branches |            40960

 2017-02-06 08:59:41.189775+01 | 1486367981.18977 | pgbench_accounts |      13429514240
 2017-02-06 08:59:41.189775+01 | 1486367981.18977 | pgbench_tellers  |           450560
 2017-02-06 08:59:41.189775+01 | 1486367981.18977 | pgbench_history  |                0
 2017-02-06 08:59:41.189775+01 | 1486367981.18977 | pgbench_branches |            40960

 2017-02-06 08:59:42.291777+01 | 1486367982.29178 | pgbench_accounts |      13429514240
 2017-02-06 08:59:42.291777+01 | 1486367982.29178 | pgbench_tellers  |           450560
 2017-02-06 08:59:42.291777+01 | 1486367982.29178 | pgbench_history  |                0
 2017-02-06 08:59:42.291777+01 | 1486367982.29178 | pgbench_branches |            40960

 2017-02-06 08:59:43.398707+01 | 1486367983.39871 | pgbench_accounts |      13429514240
 2017-02-06 08:59:43.398707+01 | 1486367983.39871 | pgbench_tellers  |           450560
 2017-02-06 08:59:43.398707+01 | 1486367983.39871 | pgbench_history  |                0
 2017-02-06 08:59:43.398707+01 | 1486367983.39871 | pgbench_branches |            40960

 2017-02-06 08:59:44.500179+01 | 1486367984.50018 | pgbench_accounts |      13429514240
 2017-02-06 08:59:44.500179+01 | 1486367984.50018 | pgbench_tellers  |           450560
 2017-02-06 08:59:44.500179+01 | 1486367984.50018 | pgbench_history  |                0
 2017-02-06 08:59:44.500179+01 | 1486367984.50018 | pgbench_branches |            40960

 2017-02-06 08:59:45.607811+01 | 1486367985.60781 | pgbench_accounts |      13429514240
 2017-02-06 08:59:45.607811+01 | 1486367985.60781 | pgbench_tellers  |           450560
 2017-02-06 08:59:45.607811+01 | 1486367985.60781 | pgbench_history  |                0
 2017-02-06 08:59:45.607811+01 | 1486367985.60781 | pgbench_branches |            40960

 2017-02-06 08:59:46.71475+01 | 1486367986.71475 | pgbench_accounts |      13429514240
 2017-02-06 08:59:46.71475+01 | 1486367986.71475 | pgbench_tellers  |           450560
 2017-02-06 08:59:46.71475+01 | 1486367986.71475 | pgbench_history  |                0
 2017-02-06 08:59:46.71475+01 | 1486367986.71475 | pgbench_branches |            40960

 2017-02-06 08:59:47.817592+01 | 1486367987.81759 | pgbench_accounts |      13429514240
 2017-02-06 08:59:47.817592+01 | 1486367987.81759 | pgbench_tellers  |           450560
 2017-02-06 08:59:47.817592+01 | 1486367987.81759 | pgbench_history  |                0
 2017-02-06 08:59:47.817592+01 | 1486367987.81759 | pgbench_branches |            40960

 2017-02-06 08:59:48.917133+01 | 1486367988.91713 | pgbench_accounts |      13429514240
 2017-02-06 08:59:48.917133+01 | 1486367988.91713 | pgbench_tellers  |           450560
 2017-02-06 08:59:48.917133+01 | 1486367988.91713 | pgbench_history  |                0
 2017-02-06 08:59:48.917133+01 | 1486367988.91713 | pgbench_branches |            40960

 2017-02-06 08:59:50.026225+01 | 1486367990.02623 | pgbench_accounts |      13429514240
 2017-02-06 08:59:50.026225+01 | 1486367990.02623 | pgbench_tellers  |           450560
 2017-02-06 08:59:50.026225+01 | 1486367990.02623 | pgbench_history  |                0
 2017-02-06 08:59:50.026225+01 | 1486367990.02623 | pgbench_branches |            40960

 2017-02-06 08:59:51.11802+01 | 1486367991.11802 | pgbench_accounts |      13429514240
 2017-02-06 08:59:51.11802+01 | 1486367991.11802 | pgbench_tellers  |           450560
 2017-02-06 08:59:51.11802+01 | 1486367991.11802 | pgbench_history  |                0
 2017-02-06 08:59:51.11802+01 | 1486367991.11802 | pgbench_branches |            40960

 2017-02-06 08:59:52.228892+01 | 1486367992.22889 | pgbench_accounts |      13429514240
 2017-02-06 08:59:52.228892+01 | 1486367992.22889 | pgbench_tellers  |           450560
 2017-02-06 08:59:52.228892+01 | 1486367992.22889 | pgbench_history  |                0
 2017-02-06 08:59:52.228892+01 | 1486367992.22889 | pgbench_branches |            40960

 2017-02-06 08:59:53.339008+01 | 1486367993.33901 | pgbench_accounts |      13429514240
 2017-02-06 08:59:53.339008+01 | 1486367993.33901 | pgbench_tellers  |           450560
 2017-02-06 08:59:53.339008+01 | 1486367993.33901 | pgbench_history  |                0
 2017-02-06 08:59:53.339008+01 | 1486367993.33901 | pgbench_branches |            40960

 2017-02-06 08:59:54.448801+01 | 1486367994.4488 | pgbench_accounts |      13429514240
 2017-02-06 08:59:54.448801+01 | 1486367994.4488 | pgbench_tellers  |           450560
 2017-02-06 08:59:54.448801+01 | 1486367994.4488 | pgbench_history  |                0
 2017-02-06 08:59:54.448801+01 | 1486367994.4488 | pgbench_branches |            40960

 2017-02-06 08:59:55.554229+01 | 1486367995.55423 | pgbench_accounts |      13429514240
 2017-02-06 08:59:55.554229+01 | 1486367995.55423 | pgbench_tellers  |           450560
 2017-02-06 08:59:55.554229+01 | 1486367995.55423 | pgbench_history  |                0
 2017-02-06 08:59:55.554229+01 | 1486367995.55423 | pgbench_branches |            40960

 2017-02-06 08:59:56.657393+01 | 1486367996.65739 | pgbench_accounts |      13429514240
 2017-02-06 08:59:56.657393+01 | 1486367996.65739 | pgbench_tellers  |           450560
 2017-02-06 08:59:56.657393+01 | 1486367996.65739 | pgbench_history  |                0
 2017-02-06 08:59:56.657393+01 | 1486367996.65739 | pgbench_branches |            40960

 2017-02-06 08:59:57.767744+01 | 1486367997.76774 | pgbench_accounts |      13429514240
 2017-02-06 08:59:57.767744+01 | 1486367997.76774 | pgbench_tellers  |           450560
 2017-02-06 08:59:57.767744+01 | 1486367997.76774 | pgbench_history  |                0
 2017-02-06 08:59:57.767744+01 | 1486367997.76774 | pgbench_branches |            40960

 2017-02-06 08:59:58.875964+01 | 1486367998.87596 | pgbench_accounts |      13429514240
 2017-02-06 08:59:58.875964+01 | 1486367998.87596 | pgbench_tellers  |           450560
 2017-02-06 08:59:58.875964+01 | 1486367998.87596 | pgbench_history  |                0
 2017-02-06 08:59:58.875964+01 | 1486367998.87596 | pgbench_branches |            40960

 2017-02-06 08:59:59.97456+01 | 1486367999.97456 | pgbench_accounts |      13429514240
 2017-02-06 08:59:59.97456+01 | 1486367999.97456 | pgbench_tellers  |           450560
 2017-02-06 08:59:59.97456+01 | 1486367999.97456 | pgbench_history  |                0
 2017-02-06 08:59:59.97456+01 | 1486367999.97456 | pgbench_branches |            40960

 2017-02-06 09:00:01.069778+01 | 1486368001.06978 | pgbench_accounts |      13429514240
 2017-02-06 09:00:01.069778+01 | 1486368001.06978 | pgbench_tellers  |           450560
 2017-02-06 09:00:01.069778+01 | 1486368001.06978 | pgbench_history  |                0
 2017-02-06 09:00:01.069778+01 | 1486368001.06978 | pgbench_branches |            40960

 2017-02-06 09:00:02.180178+01 | 1486368002.18018 | pgbench_accounts |      13429514240
 2017-02-06 09:00:02.180178+01 | 1486368002.18018 | pgbench_tellers  |           450560
 2017-02-06 09:00:02.180178+01 | 1486368002.18018 | pgbench_history  |                0
 2017-02-06 09:00:02.180178+01 | 1486368002.18018 | pgbench_branches |            40960

 2017-02-06 09:00:03.282604+01 | 1486368003.2826 | pgbench_accounts |      13429514240
 2017-02-06 09:00:03.282604+01 | 1486368003.2826 | pgbench_tellers  |           450560
 2017-02-06 09:00:03.282604+01 | 1486368003.2826 | pgbench_history  |                0
 2017-02-06 09:00:03.282604+01 | 1486368003.2826 | pgbench_branches |            40960

 2017-02-06 09:00:04.387709+01 | 1486368004.38771 | pgbench_accounts |      13429514240
 2017-02-06 09:00:04.387709+01 | 1486368004.38771 | pgbench_tellers  |           450560
 2017-02-06 09:00:04.387709+01 | 1486368004.38771 | pgbench_history  |                0
 2017-02-06 09:00:04.387709+01 | 1486368004.38771 | pgbench_branches |            40960

 2017-02-06 09:00:05.478755+01 | 1486368005.47875 | pgbench_accounts |      13429514240
 2017-02-06 09:00:05.478755+01 | 1486368005.47875 | pgbench_tellers  |           450560
 2017-02-06 09:00:05.478755+01 | 1486368005.47875 | pgbench_history  |                0
 2017-02-06 09:00:05.478755+01 | 1486368005.47875 | pgbench_branches |            40960

 2017-02-06 09:00:06.588506+01 | 1486368006.58851 | pgbench_accounts |      13429514240
 2017-02-06 09:00:06.588506+01 | 1486368006.58851 | pgbench_tellers  |           450560
 2017-02-06 09:00:06.588506+01 | 1486368006.58851 | pgbench_history  |                0
 2017-02-06 09:00:06.588506+01 | 1486368006.58851 | pgbench_branches |            40960

 2017-02-06 09:00:07.688051+01 | 1486368007.68805 | pgbench_accounts |      13429514240
 2017-02-06 09:00:07.688051+01 | 1486368007.68805 | pgbench_tellers  |           450560
 2017-02-06 09:00:07.688051+01 | 1486368007.68805 | pgbench_history  |                0
 2017-02-06 09:00:07.688051+01 | 1486368007.68805 | pgbench_branches |            40960

 2017-02-06 09:00:08.794515+01 | 1486368008.79451 | pgbench_accounts |      13429514240
 2017-02-06 09:00:08.794515+01 | 1486368008.79451 | pgbench_tellers  |           450560
 2017-02-06 09:00:08.794515+01 | 1486368008.79451 | pgbench_history  |                0
 2017-02-06 09:00:08.794515+01 | 1486368008.79451 | pgbench_branches |            40960

 2017-02-06 09:00:09.890132+01 | 1486368009.89013 | pgbench_accounts |      13429514240
 2017-02-06 09:00:09.890132+01 | 1486368009.89013 | pgbench_tellers  |           450560
 2017-02-06 09:00:09.890132+01 | 1486368009.89013 | pgbench_history  |                0
 2017-02-06 09:00:09.890132+01 | 1486368009.89013 | pgbench_branches |            40960

 2017-02-06 09:00:10.99446+01 | 1486368010.99446 | pgbench_accounts |      13429514240
 2017-02-06 09:00:10.99446+01 | 1486368010.99446 | pgbench_tellers  |           450560
 2017-02-06 09:00:10.99446+01 | 1486368010.99446 | pgbench_history  |                0
 2017-02-06 09:00:10.99446+01 | 1486368010.99446 | pgbench_branches |            40960

 2017-02-06 09:00:12.141764+01 | 1486368012.14176 | pgbench_accounts |      13429514240
 2017-02-06 09:00:12.141764+01 | 1486368012.14176 | pgbench_tellers  |           450560
 2017-02-06 09:00:12.141764+01 | 1486368012.14176 | pgbench_history  |                0
 2017-02-06 09:00:12.141764+01 | 1486368012.14176 | pgbench_branches |            40960

 2017-02-06 09:00:13.245834+01 | 1486368013.24583 | pgbench_accounts |      13429514240
 2017-02-06 09:00:13.245834+01 | 1486368013.24583 | pgbench_tellers  |           450560
 2017-02-06 09:00:13.245834+01 | 1486368013.24583 | pgbench_history  |                0
 2017-02-06 09:00:13.245834+01 | 1486368013.24583 | pgbench_branches |            40960

 2017-02-06 09:00:14.347548+01 | 1486368014.34755 | pgbench_accounts |      13429514240
 2017-02-06 09:00:14.347548+01 | 1486368014.34755 | pgbench_tellers  |           450560
 2017-02-06 09:00:14.347548+01 | 1486368014.34755 | pgbench_history  |                0
 2017-02-06 09:00:14.347548+01 | 1486368014.34755 | pgbench_branches |            40960

 2017-02-06 09:00:15.46024+01 | 1486368015.46024 | pgbench_accounts |      13429514240
 2017-02-06 09:00:15.46024+01 | 1486368015.46024 | pgbench_tellers  |           450560
 2017-02-06 09:00:15.46024+01 | 1486368015.46024 | pgbench_history  |                0
 2017-02-06 09:00:15.46024+01 | 1486368015.46024 | pgbench_branches |            40960

 2017-02-06 09:00:16.567656+01 | 1486368016.56766 | pgbench_accounts |      13429514240
 2017-02-06 09:00:16.567656+01 | 1486368016.56766 | pgbench_tellers  |           450560
 2017-02-06 09:00:16.567656+01 | 1486368016.56766 | pgbench_history  |                0
 2017-02-06 09:00:16.567656+01 | 1486368016.56766 | pgbench_branches |            40960

 2017-02-06 09:00:17.682049+01 | 1486368017.68205 | pgbench_accounts |      13429514240
 2017-02-06 09:00:17.682049+01 | 1486368017.68205 | pgbench_tellers  |           450560
 2017-02-06 09:00:17.682049+01 | 1486368017.68205 | pgbench_history  |                0
 2017-02-06 09:00:17.682049+01 | 1486368017.68205 | pgbench_branches |            40960

 2017-02-06 09:00:18.776364+01 | 1486368018.77636 | pgbench_accounts |      13429514240
 2017-02-06 09:00:18.776364+01 | 1486368018.77636 | pgbench_tellers  |           450560
 2017-02-06 09:00:18.776364+01 | 1486368018.77636 | pgbench_history  |                0
 2017-02-06 09:00:18.776364+01 | 1486368018.77636 | pgbench_branches |            40960

 2017-02-06 09:00:19.889089+01 | 1486368019.88909 | pgbench_accounts |      13429514240
 2017-02-06 09:00:19.889089+01 | 1486368019.88909 | pgbench_tellers  |           450560
 2017-02-06 09:00:19.889089+01 | 1486368019.88909 | pgbench_history  |                0
 2017-02-06 09:00:19.889089+01 | 1486368019.88909 | pgbench_branches |            40960

 2017-02-06 09:00:20.993806+01 | 1486368020.99381 | pgbench_accounts |      13429514240
 2017-02-06 09:00:20.993806+01 | 1486368020.99381 | pgbench_tellers  |           450560
 2017-02-06 09:00:20.993806+01 | 1486368020.99381 | pgbench_history  |                0
 2017-02-06 09:00:20.993806+01 | 1486368020.99381 | pgbench_branches |            40960

 2017-02-06 09:00:22.098495+01 | 1486368022.0985 | pgbench_accounts |      13429514240
 2017-02-06 09:00:22.098495+01 | 1486368022.0985 | pgbench_tellers  |           450560
 2017-02-06 09:00:22.098495+01 | 1486368022.0985 | pgbench_history  |                0
 2017-02-06 09:00:22.098495+01 | 1486368022.0985 | pgbench_branches |            40960

 2017-02-06 09:00:23.197836+01 | 1486368023.19784 | pgbench_accounts |      13429514240
 2017-02-06 09:00:23.197836+01 | 1486368023.19784 | pgbench_tellers  |           450560
 2017-02-06 09:00:23.197836+01 | 1486368023.19784 | pgbench_history  |                0
 2017-02-06 09:00:23.197836+01 | 1486368023.19784 | pgbench_branches |            40960

 2017-02-06 09:00:24.29672+01 | 1486368024.29672 | pgbench_accounts |      13429514240
 2017-02-06 09:00:24.29672+01 | 1486368024.29672 | pgbench_tellers  |           450560
 2017-02-06 09:00:24.29672+01 | 1486368024.29672 | pgbench_history  |                0
 2017-02-06 09:00:24.29672+01 | 1486368024.29672 | pgbench_branches |            40960

 2017-02-06 09:00:25.389387+01 | 1486368025.38939 | pgbench_accounts |      13429514240
 2017-02-06 09:00:25.389387+01 | 1486368025.38939 | pgbench_tellers  |           450560
 2017-02-06 09:00:25.389387+01 | 1486368025.38939 | pgbench_history  |                0
 2017-02-06 09:00:25.389387+01 | 1486368025.38939 | pgbench_branches |            40960

 2017-02-06 09:00:26.48475+01 | 1486368026.48475 | pgbench_accounts |      13429514240
 2017-02-06 09:00:26.48475+01 | 1486368026.48475 | pgbench_tellers  |           450560
 2017-02-06 09:00:26.48475+01 | 1486368026.48475 | pgbench_history  |                0
 2017-02-06 09:00:26.48475+01 | 1486368026.48475 | pgbench_branches |            40960

 2017-02-06 09:00:27.586243+01 | 1486368027.58624 | pgbench_accounts |      13429514240
 2017-02-06 09:00:27.586243+01 | 1486368027.58624 | pgbench_tellers  |           450560
 2017-02-06 09:00:27.586243+01 | 1486368027.58624 | pgbench_history  |                0
 2017-02-06 09:00:27.586243+01 | 1486368027.58624 | pgbench_branches |            40960

 2017-02-06 09:00:28.689379+01 | 1486368028.68938 | pgbench_accounts |      13429514240
 2017-02-06 09:00:28.689379+01 | 1486368028.68938 | pgbench_tellers  |           450560
 2017-02-06 09:00:28.689379+01 | 1486368028.68938 | pgbench_history  |                0
 2017-02-06 09:00:28.689379+01 | 1486368028.68938 | pgbench_branches |            40960

 2017-02-06 09:00:29.779313+01 | 1486368029.77931 | pgbench_accounts |      13429514240
 2017-02-06 09:00:29.779313+01 | 1486368029.77931 | pgbench_tellers  |           450560
 2017-02-06 09:00:29.779313+01 | 1486368029.77931 | pgbench_history  |                0
 2017-02-06 09:00:29.779313+01 | 1486368029.77931 | pgbench_branches |            40960

 2017-02-06 09:00:30.883364+01 | 1486368030.88336 | pgbench_accounts |      13429514240
 2017-02-06 09:00:30.883364+01 | 1486368030.88336 | pgbench_tellers  |           450560
 2017-02-06 09:00:30.883364+01 | 1486368030.88336 | pgbench_history  |                0
 2017-02-06 09:00:30.883364+01 | 1486368030.88336 | pgbench_branches |            40960

 2017-02-06 09:00:31.996819+01 | 1486368031.99682 | pgbench_accounts |      13429514240
 2017-02-06 09:00:31.996819+01 | 1486368031.99682 | pgbench_tellers  |           450560
 2017-02-06 09:00:31.996819+01 | 1486368031.99682 | pgbench_history  |                0
 2017-02-06 09:00:31.996819+01 | 1486368031.99682 | pgbench_branches |            40960

 2017-02-06 09:00:33.095515+01 | 1486368033.09552 | pgbench_accounts |      13429514240
 2017-02-06 09:00:33.095515+01 | 1486368033.09552 | pgbench_tellers  |           450560
 2017-02-06 09:00:33.095515+01 | 1486368033.09552 | pgbench_history  |                0
 2017-02-06 09:00:33.095515+01 | 1486368033.09552 | pgbench_branches |            40960

 2017-02-06 09:00:34.197041+01 | 1486368034.19704 | pgbench_accounts |      13429514240
 2017-02-06 09:00:34.197041+01 | 1486368034.19704 | pgbench_tellers  |           450560
 2017-02-06 09:00:34.197041+01 | 1486368034.19704 | pgbench_history  |                0
 2017-02-06 09:00:34.197041+01 | 1486368034.19704 | pgbench_branches |            40960

 2017-02-06 09:00:35.290149+01 | 1486368035.29015 | pgbench_accounts |      13429514240
 2017-02-06 09:00:35.290149+01 | 1486368035.29015 | pgbench_tellers  |           450560
 2017-02-06 09:00:35.290149+01 | 1486368035.29015 | pgbench_history  |                0
 2017-02-06 09:00:35.290149+01 | 1486368035.29015 | pgbench_branches |            40960

 2017-02-06 09:00:36.391942+01 | 1486368036.39194 | pgbench_accounts |      13429514240
 2017-02-06 09:00:36.391942+01 | 1486368036.39194 | pgbench_tellers  |           450560
 2017-02-06 09:00:36.391942+01 | 1486368036.39194 | pgbench_history  |                0
 2017-02-06 09:00:36.391942+01 | 1486368036.39194 | pgbench_branches |            40960

 2017-02-06 09:00:37.49686+01 | 1486368037.49686 | pgbench_accounts |      13429514240
 2017-02-06 09:00:37.49686+01 | 1486368037.49686 | pgbench_tellers  |           450560
 2017-02-06 09:00:37.49686+01 | 1486368037.49686 | pgbench_history  |                0
 2017-02-06 09:00:37.49686+01 | 1486368037.49686 | pgbench_branches |            40960

 2017-02-06 09:00:38.60148+01 | 1486368038.60148 | pgbench_accounts |      13429514240
 2017-02-06 09:00:38.60148+01 | 1486368038.60148 | pgbench_tellers  |           450560
 2017-02-06 09:00:38.60148+01 | 1486368038.60148 | pgbench_history  |                0
 2017-02-06 09:00:38.60148+01 | 1486368038.60148 | pgbench_branches |            40960

 2017-02-06 09:00:39.705829+01 | 1486368039.70583 | pgbench_accounts |      13429514240
 2017-02-06 09:00:39.705829+01 | 1486368039.70583 | pgbench_tellers  |           450560
 2017-02-06 09:00:39.705829+01 | 1486368039.70583 | pgbench_history  |                0
 2017-02-06 09:00:39.705829+01 | 1486368039.70583 | pgbench_branches |            40960

 2017-02-06 09:00:40.812208+01 | 1486368040.81221 | pgbench_accounts |      13429514240
 2017-02-06 09:00:40.812208+01 | 1486368040.81221 | pgbench_tellers  |           450560
 2017-02-06 09:00:40.812208+01 | 1486368040.81221 | pgbench_history  |                0
 2017-02-06 09:00:40.812208+01 | 1486368040.81221 | pgbench_branches |            40960

 2017-02-06 09:00:41.921337+01 | 1486368041.92134 | pgbench_accounts |      13429514240
 2017-02-06 09:00:41.921337+01 | 1486368041.92134 | pgbench_tellers  |           450560
 2017-02-06 09:00:41.921337+01 | 1486368041.92134 | pgbench_history  |                0
 2017-02-06 09:00:41.921337+01 | 1486368041.92134 | pgbench_branches |            40960

 2017-02-06 09:00:43.018281+01 | 1486368043.01828 | pgbench_accounts |      13429514240
 2017-02-06 09:00:43.018281+01 | 1486368043.01828 | pgbench_tellers  |           450560
 2017-02-06 09:00:43.018281+01 | 1486368043.01828 | pgbench_history  |                0
 2017-02-06 09:00:43.018281+01 | 1486368043.01828 | pgbench_branches |            40960

 2017-02-06 09:00:44.11586+01 | 1486368044.11586 | pgbench_accounts |      13429514240
 2017-02-06 09:00:44.11586+01 | 1486368044.11586 | pgbench_tellers  |           450560
 2017-02-06 09:00:44.11586+01 | 1486368044.11586 | pgbench_history  |                0
 2017-02-06 09:00:44.11586+01 | 1486368044.11586 | pgbench_branches |            40960

 2017-02-06 09:00:45.210629+01 | 1486368045.21063 | pgbench_accounts |      13429514240
 2017-02-06 09:00:45.210629+01 | 1486368045.21063 | pgbench_tellers  |           450560
 2017-02-06 09:00:45.210629+01 | 1486368045.21063 | pgbench_history  |                0
 2017-02-06 09:00:45.210629+01 | 1486368045.21063 | pgbench_branches |            40960

 2017-02-06 09:00:46.307628+01 | 1486368046.30763 | pgbench_accounts |      13429514240
 2017-02-06 09:00:46.307628+01 | 1486368046.30763 | pgbench_tellers  |           450560
 2017-02-06 09:00:46.307628+01 | 1486368046.30763 | pgbench_history  |                0
 2017-02-06 09:00:46.307628+01 | 1486368046.30763 | pgbench_branches |            40960

 2017-02-06 09:00:47.411028+01 | 1486368047.41103 | pgbench_accounts |      13429514240
 2017-02-06 09:00:47.411028+01 | 1486368047.41103 | pgbench_tellers  |           450560
 2017-02-06 09:00:47.411028+01 | 1486368047.41103 | pgbench_history  |                0
 2017-02-06 09:00:47.411028+01 | 1486368047.41103 | pgbench_branches |            40960

 2017-02-06 09:00:48.519702+01 | 1486368048.5197 | pgbench_accounts |      13429514240
 2017-02-06 09:00:48.519702+01 | 1486368048.5197 | pgbench_tellers  |           450560
 2017-02-06 09:00:48.519702+01 | 1486368048.5197 | pgbench_history  |                0
 2017-02-06 09:00:48.519702+01 | 1486368048.5197 | pgbench_branches |            40960

 2017-02-06 09:00:49.642367+01 | 1486368049.64237 | pgbench_accounts |      13429514240
 2017-02-06 09:00:49.642367+01 | 1486368049.64237 | pgbench_tellers  |           450560
 2017-02-06 09:00:49.642367+01 | 1486368049.64237 | pgbench_history  |                0
 2017-02-06 09:00:49.642367+01 | 1486368049.64237 | pgbench_branches |            40960

 2017-02-06 09:00:50.73205+01 | 1486368050.73205 | pgbench_accounts |      13429514240
 2017-02-06 09:00:50.73205+01 | 1486368050.73205 | pgbench_tellers  |           450560
 2017-02-06 09:00:50.73205+01 | 1486368050.73205 | pgbench_history  |                0
 2017-02-06 09:00:50.73205+01 | 1486368050.73205 | pgbench_branches |            40960

 2017-02-06 09:00:51.830518+01 | 1486368051.83052 | pgbench_accounts |      13429514240
 2017-02-06 09:00:51.830518+01 | 1486368051.83052 | pgbench_tellers  |           450560
 2017-02-06 09:00:51.830518+01 | 1486368051.83052 | pgbench_history  |                0
 2017-02-06 09:00:51.830518+01 | 1486368051.83052 | pgbench_branches |            40960

 2017-02-06 09:00:52.936891+01 | 1486368052.93689 | pgbench_accounts |      13429514240
 2017-02-06 09:00:52.936891+01 | 1486368052.93689 | pgbench_tellers  |           450560
 2017-02-06 09:00:52.936891+01 | 1486368052.93689 | pgbench_history  |                0
 2017-02-06 09:00:52.936891+01 | 1486368052.93689 | pgbench_branches |            40960

 2017-02-06 09:00:54.031501+01 | 1486368054.0315 | pgbench_accounts |      13429514240
 2017-02-06 09:00:54.031501+01 | 1486368054.0315 | pgbench_tellers  |           450560
 2017-02-06 09:00:54.031501+01 | 1486368054.0315 | pgbench_history  |                0
 2017-02-06 09:00:54.031501+01 | 1486368054.0315 | pgbench_branches |            40960

 2017-02-06 09:00:55.146934+01 | 1486368055.14693 | pgbench_accounts |      13429514240
 2017-02-06 09:00:55.146934+01 | 1486368055.14693 | pgbench_tellers  |           450560
 2017-02-06 09:00:55.146934+01 | 1486368055.14693 | pgbench_history  |                0
 2017-02-06 09:00:55.146934+01 | 1486368055.14693 | pgbench_branches |            40960

 2017-02-06 09:00:56.25781+01 | 1486368056.25781 | pgbench_accounts |      13429514240
 2017-02-06 09:00:56.25781+01 | 1486368056.25781 | pgbench_tellers  |           450560
 2017-02-06 09:00:56.25781+01 | 1486368056.25781 | pgbench_history  |                0
 2017-02-06 09:00:56.25781+01 | 1486368056.25781 | pgbench_branches |            40960

 2017-02-06 09:00:57.363066+01 | 1486368057.36307 | pgbench_accounts |      13429514240
 2017-02-06 09:00:57.363066+01 | 1486368057.36307 | pgbench_tellers  |           450560
 2017-02-06 09:00:57.363066+01 | 1486368057.36307 | pgbench_history  |                0
 2017-02-06 09:00:57.363066+01 | 1486368057.36307 | pgbench_branches |            40960

 2017-02-06 09:00:58.460788+01 | 1486368058.46079 | pgbench_accounts |      13429514240
 2017-02-06 09:00:58.460788+01 | 1486368058.46079 | pgbench_tellers  |           450560
 2017-02-06 09:00:58.460788+01 | 1486368058.46079 | pgbench_history  |                0
 2017-02-06 09:00:58.460788+01 | 1486368058.46079 | pgbench_branches |            40960

 2017-02-06 09:00:59.563257+01 | 1486368059.56326 | pgbench_accounts |      13429514240
 2017-02-06 09:00:59.563257+01 | 1486368059.56326 | pgbench_tellers  |           450560
 2017-02-06 09:00:59.563257+01 | 1486368059.56326 | pgbench_history  |                0
 2017-02-06 09:00:59.563257+01 | 1486368059.56326 | pgbench_branches |            40960

 2017-02-06 09:01:00.681815+01 | 1486368060.68181 | pgbench_accounts |      13429514240
 2017-02-06 09:01:00.681815+01 | 1486368060.68181 | pgbench_tellers  |           450560
 2017-02-06 09:01:00.681815+01 | 1486368060.68181 | pgbench_history  |                0
 2017-02-06 09:01:00.681815+01 | 1486368060.68181 | pgbench_branches |            40960

 2017-02-06 09:01:01.783291+01 | 1486368061.78329 | pgbench_accounts |      13429514240
 2017-02-06 09:01:01.783291+01 | 1486368061.78329 | pgbench_tellers  |           450560
 2017-02-06 09:01:01.783291+01 | 1486368061.78329 | pgbench_history  |                0
 2017-02-06 09:01:01.783291+01 | 1486368061.78329 | pgbench_branches |            40960

 2017-02-06 09:01:02.886122+01 | 1486368062.88612 | pgbench_accounts |      13429514240
 2017-02-06 09:01:02.886122+01 | 1486368062.88612 | pgbench_tellers  |           450560
 2017-02-06 09:01:02.886122+01 | 1486368062.88612 | pgbench_history  |                0
 2017-02-06 09:01:02.886122+01 | 1486368062.88612 | pgbench_branches |            40960

 2017-02-06 09:01:03.985365+01 | 1486368063.98536 | pgbench_accounts |      13429514240
 2017-02-06 09:01:03.985365+01 | 1486368063.98536 | pgbench_tellers  |           450560
 2017-02-06 09:01:03.985365+01 | 1486368063.98536 | pgbench_history  |                0
 2017-02-06 09:01:03.985365+01 | 1486368063.98536 | pgbench_branches |            40960

 2017-02-06 09:01:05.088084+01 | 1486368065.08808 | pgbench_accounts |      13429514240
 2017-02-06 09:01:05.088084+01 | 1486368065.08808 | pgbench_tellers  |           450560
 2017-02-06 09:01:05.088084+01 | 1486368065.08808 | pgbench_history  |                0
 2017-02-06 09:01:05.088084+01 | 1486368065.08808 | pgbench_branches |            40960

 2017-02-06 09:01:06.184485+01 | 1486368066.18448 | pgbench_accounts |      13429514240
 2017-02-06 09:01:06.184485+01 | 1486368066.18448 | pgbench_tellers  |           450560
 2017-02-06 09:01:06.184485+01 | 1486368066.18448 | pgbench_history  |                0
 2017-02-06 09:01:06.184485+01 | 1486368066.18448 | pgbench_branches |            40960

 2017-02-06 09:01:07.271015+01 | 1486368067.27101 | pgbench_accounts |      13429514240
 2017-02-06 09:01:07.271015+01 | 1486368067.27101 | pgbench_tellers  |           450560
 2017-02-06 09:01:07.271015+01 | 1486368067.27101 | pgbench_history  |                0
 2017-02-06 09:01:07.271015+01 | 1486368067.27101 | pgbench_branches |            40960

 2017-02-06 09:01:08.367834+01 | 1486368068.36783 | pgbench_accounts |      13429514240
 2017-02-06 09:01:08.367834+01 | 1486368068.36783 | pgbench_tellers  |           450560
 2017-02-06 09:01:08.367834+01 | 1486368068.36783 | pgbench_history  |                0
 2017-02-06 09:01:08.367834+01 | 1486368068.36783 | pgbench_branches |            40960

 2017-02-06 09:01:09.467866+01 | 1486368069.46787 | pgbench_accounts |      13429514240
 2017-02-06 09:01:09.467866+01 | 1486368069.46787 | pgbench_tellers  |           450560
 2017-02-06 09:01:09.467866+01 | 1486368069.46787 | pgbench_history  |                0
 2017-02-06 09:01:09.467866+01 | 1486368069.46787 | pgbench_branches |            40960

 2017-02-06 09:01:10.570507+01 | 1486368070.57051 | pgbench_accounts |      13429514240
 2017-02-06 09:01:10.570507+01 | 1486368070.57051 | pgbench_tellers  |           450560
 2017-02-06 09:01:10.570507+01 | 1486368070.57051 | pgbench_history  |                0
 2017-02-06 09:01:10.570507+01 | 1486368070.57051 | pgbench_branches |            40960

 2017-02-06 09:01:11.666986+01 | 1486368071.66699 | pgbench_accounts |      13429514240
 2017-02-06 09:01:11.666986+01 | 1486368071.66699 | pgbench_tellers  |           450560
 2017-02-06 09:01:11.666986+01 | 1486368071.66699 | pgbench_history  |                0
 2017-02-06 09:01:11.666986+01 | 1486368071.66699 | pgbench_branches |            40960

 2017-02-06 09:01:12.777729+01 | 1486368072.77773 | pgbench_accounts |      13429514240
 2017-02-06 09:01:12.777729+01 | 1486368072.77773 | pgbench_tellers  |           450560
 2017-02-06 09:01:12.777729+01 | 1486368072.77773 | pgbench_history  |                0
 2017-02-06 09:01:12.777729+01 | 1486368072.77773 | pgbench_branches |            40960

 2017-02-06 09:01:13.888613+01 | 1486368073.88861 | pgbench_accounts |      13429514240
 2017-02-06 09:01:13.888613+01 | 1486368073.88861 | pgbench_tellers  |           450560
 2017-02-06 09:01:13.888613+01 | 1486368073.88861 | pgbench_history  |                0
 2017-02-06 09:01:13.888613+01 | 1486368073.88861 | pgbench_branches |            40960

 2017-02-06 09:01:15.003656+01 | 1486368075.00366 | pgbench_accounts |      13429514240
 2017-02-06 09:01:15.003656+01 | 1486368075.00366 | pgbench_tellers  |           450560
 2017-02-06 09:01:15.003656+01 | 1486368075.00366 | pgbench_history  |                0
 2017-02-06 09:01:15.003656+01 | 1486368075.00366 | pgbench_branches |            40960

 2017-02-06 09:01:16.108642+01 | 1486368076.10864 | pgbench_accounts |      13429514240
 2017-02-06 09:01:16.108642+01 | 1486368076.10864 | pgbench_tellers  |           450560
 2017-02-06 09:01:16.108642+01 | 1486368076.10864 | pgbench_history  |                0
 2017-02-06 09:01:16.108642+01 | 1486368076.10864 | pgbench_branches |            40960

 2017-02-06 09:01:17.215026+01 | 1486368077.21503 | pgbench_accounts |      13429514240
 2017-02-06 09:01:17.215026+01 | 1486368077.21503 | pgbench_tellers  |           450560
 2017-02-06 09:01:17.215026+01 | 1486368077.21503 | pgbench_history  |                0
 2017-02-06 09:01:17.215026+01 | 1486368077.21503 | pgbench_branches |            40960

 2017-02-06 09:01:18.31658+01 | 1486368078.31658 | pgbench_accounts |      13429514240
 2017-02-06 09:01:18.31658+01 | 1486368078.31658 | pgbench_tellers  |           450560
 2017-02-06 09:01:18.31658+01 | 1486368078.31658 | pgbench_history  |                0
 2017-02-06 09:01:18.31658+01 | 1486368078.31658 | pgbench_branches |            40960

 2017-02-06 09:01:19.425148+01 | 1486368079.42515 | pgbench_accounts |      13429514240
 2017-02-06 09:01:19.425148+01 | 1486368079.42515 | pgbench_tellers  |           450560
 2017-02-06 09:01:19.425148+01 | 1486368079.42515 | pgbench_history  |                0
 2017-02-06 09:01:19.425148+01 | 1486368079.42515 | pgbench_branches |            40960

 2017-02-06 09:01:20.524031+01 | 1486368080.52403 | pgbench_accounts |      13429514240
 2017-02-06 09:01:20.524031+01 | 1486368080.52403 | pgbench_tellers  |           450560
 2017-02-06 09:01:20.524031+01 | 1486368080.52403 | pgbench_history  |                0
 2017-02-06 09:01:20.524031+01 | 1486368080.52403 | pgbench_branches |            40960

 2017-02-06 09:01:21.62457+01 | 1486368081.62457 | pgbench_accounts |      13429514240
 2017-02-06 09:01:21.62457+01 | 1486368081.62457 | pgbench_tellers  |           450560
 2017-02-06 09:01:21.62457+01 | 1486368081.62457 | pgbench_history  |                0
 2017-02-06 09:01:21.62457+01 | 1486368081.62457 | pgbench_branches |            40960

 2017-02-06 09:01:22.720533+01 | 1486368082.72053 | pgbench_accounts |      13429514240
 2017-02-06 09:01:22.720533+01 | 1486368082.72053 | pgbench_tellers  |           450560
 2017-02-06 09:01:22.720533+01 | 1486368082.72053 | pgbench_history  |                0
 2017-02-06 09:01:22.720533+01 | 1486368082.72053 | pgbench_branches |            40960

 2017-02-06 09:01:23.814548+01 | 1486368083.81455 | pgbench_accounts |      13429514240
 2017-02-06 09:01:23.814548+01 | 1486368083.81455 | pgbench_tellers  |           450560
 2017-02-06 09:01:23.814548+01 | 1486368083.81455 | pgbench_history  |                0
 2017-02-06 09:01:23.814548+01 | 1486368083.81455 | pgbench_branches |            40960

 2017-02-06 09:01:24.921245+01 | 1486368084.92125 | pgbench_accounts |      13429514240
 2017-02-06 09:01:24.921245+01 | 1486368084.92125 | pgbench_tellers  |           450560
 2017-02-06 09:01:24.921245+01 | 1486368084.92125 | pgbench_history  |                0
 2017-02-06 09:01:24.921245+01 | 1486368084.92125 | pgbench_branches |            40960

 2017-02-06 09:01:26.015309+01 | 1486368086.01531 | pgbench_accounts |      13429514240
 2017-02-06 09:01:26.015309+01 | 1486368086.01531 | pgbench_tellers  |           450560
 2017-02-06 09:01:26.015309+01 | 1486368086.01531 | pgbench_history  |                0
 2017-02-06 09:01:26.015309+01 | 1486368086.01531 | pgbench_branches |            40960

 2017-02-06 09:01:27.12441+01 | 1486368087.12441 | pgbench_accounts |      13429514240
 2017-02-06 09:01:27.12441+01 | 1486368087.12441 | pgbench_tellers  |           450560
 2017-02-06 09:01:27.12441+01 | 1486368087.12441 | pgbench_history  |                0
 2017-02-06 09:01:27.12441+01 | 1486368087.12441 | pgbench_branches |            40960

 2017-02-06 09:01:28.233154+01 | 1486368088.23315 | pgbench_accounts |      13429514240
 2017-02-06 09:01:28.233154+01 | 1486368088.23315 | pgbench_tellers  |           450560
 2017-02-06 09:01:28.233154+01 | 1486368088.23315 | pgbench_history  |                0
 2017-02-06 09:01:28.233154+01 | 1486368088.23315 | pgbench_branches |            40960

 2017-02-06 09:01:29.336405+01 | 1486368089.33641 | pgbench_accounts |      13429514240
 2017-02-06 09:01:29.336405+01 | 1486368089.33641 | pgbench_tellers  |           450560
 2017-02-06 09:01:29.336405+01 | 1486368089.33641 | pgbench_history  |                0
 2017-02-06 09:01:29.336405+01 | 1486368089.33641 | pgbench_branches |            40960

 2017-02-06 09:01:30.44522+01 | 1486368090.44522 | pgbench_accounts |      13429514240
 2017-02-06 09:01:30.44522+01 | 1486368090.44522 | pgbench_tellers  |           450560
 2017-02-06 09:01:30.44522+01 | 1486368090.44522 | pgbench_history  |                0
 2017-02-06 09:01:30.44522+01 | 1486368090.44522 | pgbench_branches |            40960

 2017-02-06 09:01:31.542327+01 | 1486368091.54233 | pgbench_accounts |      13429514240
 2017-02-06 09:01:31.542327+01 | 1486368091.54233 | pgbench_tellers  |           450560
 2017-02-06 09:01:31.542327+01 | 1486368091.54233 | pgbench_history  |                0
 2017-02-06 09:01:31.542327+01 | 1486368091.54233 | pgbench_branches |            40960

 2017-02-06 09:01:32.643735+01 | 1486368092.64373 | pgbench_accounts |      13429514240
 2017-02-06 09:01:32.643735+01 | 1486368092.64373 | pgbench_tellers  |           450560
 2017-02-06 09:01:32.643735+01 | 1486368092.64373 | pgbench_history  |                0
 2017-02-06 09:01:32.643735+01 | 1486368092.64373 | pgbench_branches |            40960

 2017-02-06 09:01:33.749963+01 | 1486368093.74996 | pgbench_accounts |      13429514240
 2017-02-06 09:01:33.749963+01 | 1486368093.74996 | pgbench_tellers  |           450560
 2017-02-06 09:01:33.749963+01 | 1486368093.74996 | pgbench_history  |                0
 2017-02-06 09:01:33.749963+01 | 1486368093.74996 | pgbench_branches |            40960

 2017-02-06 09:01:34.857635+01 | 1486368094.85764 | pgbench_accounts |      13429514240
 2017-02-06 09:01:34.857635+01 | 1486368094.85764 | pgbench_tellers  |           450560
 2017-02-06 09:01:34.857635+01 | 1486368094.85764 | pgbench_history  |                0
 2017-02-06 09:01:34.857635+01 | 1486368094.85764 | pgbench_branches |            40960

 2017-02-06 09:01:35.964303+01 | 1486368095.9643 | pgbench_accounts |      13429514240
 2017-02-06 09:01:35.964303+01 | 1486368095.9643 | pgbench_tellers  |           450560
 2017-02-06 09:01:35.964303+01 | 1486368095.9643 | pgbench_history  |                0
 2017-02-06 09:01:35.964303+01 | 1486368095.9643 | pgbench_branches |            40960

 2017-02-06 09:01:37.068775+01 | 1486368097.06877 | pgbench_accounts |      13429514240
 2017-02-06 09:01:37.068775+01 | 1486368097.06877 | pgbench_tellers  |           450560
 2017-02-06 09:01:37.068775+01 | 1486368097.06877 | pgbench_history  |                0
 2017-02-06 09:01:37.068775+01 | 1486368097.06877 | pgbench_branches |            40960

 2017-02-06 09:01:38.173098+01 | 1486368098.1731 | pgbench_accounts |      13429514240
 2017-02-06 09:01:38.173098+01 | 1486368098.1731 | pgbench_tellers  |           450560
 2017-02-06 09:01:38.173098+01 | 1486368098.1731 | pgbench_history  |                0
 2017-02-06 09:01:38.173098+01 | 1486368098.1731 | pgbench_branches |            40960

 2017-02-06 09:01:39.280483+01 | 1486368099.28048 | pgbench_accounts |      13429514240
 2017-02-06 09:01:39.280483+01 | 1486368099.28048 | pgbench_tellers  |           450560
 2017-02-06 09:01:39.280483+01 | 1486368099.28048 | pgbench_history  |                0
 2017-02-06 09:01:39.280483+01 | 1486368099.28048 | pgbench_branches |            40960

 2017-02-06 09:01:40.381526+01 | 1486368100.38153 | pgbench_accounts |      13429514240
 2017-02-06 09:01:40.381526+01 | 1486368100.38153 | pgbench_tellers  |           450560
 2017-02-06 09:01:40.381526+01 | 1486368100.38153 | pgbench_history  |                0
 2017-02-06 09:01:40.381526+01 | 1486368100.38153 | pgbench_branches |            40960

 2017-02-06 09:01:41.484541+01 | 1486368101.48454 | pgbench_accounts |      13429514240
 2017-02-06 09:01:41.484541+01 | 1486368101.48454 | pgbench_tellers  |           450560
 2017-02-06 09:01:41.484541+01 | 1486368101.48454 | pgbench_history  |                0
 2017-02-06 09:01:41.484541+01 | 1486368101.48454 | pgbench_branches |            40960

 2017-02-06 09:01:42.592396+01 | 1486368102.5924 | pgbench_accounts |      13429514240
 2017-02-06 09:01:42.592396+01 | 1486368102.5924 | pgbench_tellers  |           450560
 2017-02-06 09:01:42.592396+01 | 1486368102.5924 | pgbench_history  |                0
 2017-02-06 09:01:42.592396+01 | 1486368102.5924 | pgbench_branches |            40960

 2017-02-06 09:01:43.694744+01 | 1486368103.69474 | pgbench_accounts |      13429514240
 2017-02-06 09:01:43.694744+01 | 1486368103.69474 | pgbench_tellers  |           450560
 2017-02-06 09:01:43.694744+01 | 1486368103.69474 | pgbench_history  |                0
 2017-02-06 09:01:43.694744+01 | 1486368103.69474 | pgbench_branches |            40960

