 2017-02-05 02:06:29.380254+01 | 1486256789.38025 | pgbench_accounts |      13654122496
 2017-02-05 02:06:29.380254+01 | 1486256789.38025 | pgbench_tellers  |           450560
 2017-02-05 02:06:29.380254+01 | 1486256789.38025 | pgbench_history  |                0
 2017-02-05 02:06:29.380254+01 | 1486256789.38025 | pgbench_branches |            40960

 2017-02-05 02:06:30.486972+01 | 1486256790.48697 | pgbench_accounts |      13654122496
 2017-02-05 02:06:30.486972+01 | 1486256790.48697 | pgbench_tellers  |           450560
 2017-02-05 02:06:30.486972+01 | 1486256790.48697 | pgbench_history  |                0
 2017-02-05 02:06:30.486972+01 | 1486256790.48697 | pgbench_branches |            40960

 2017-02-05 02:06:31.57717+01 | 1486256791.57717 | pgbench_accounts |      13654122496
 2017-02-05 02:06:31.57717+01 | 1486256791.57717 | pgbench_tellers  |           450560
 2017-02-05 02:06:31.57717+01 | 1486256791.57717 | pgbench_history  |                0
 2017-02-05 02:06:31.57717+01 | 1486256791.57717 | pgbench_branches |            40960

 2017-02-05 02:06:32.667439+01 | 1486256792.66744 | pgbench_accounts |      13654122496
 2017-02-05 02:06:32.667439+01 | 1486256792.66744 | pgbench_tellers  |           450560
 2017-02-05 02:06:32.667439+01 | 1486256792.66744 | pgbench_history  |                0
 2017-02-05 02:06:32.667439+01 | 1486256792.66744 | pgbench_branches |            40960

 2017-02-05 02:06:33.757367+01 | 1486256793.75737 | pgbench_accounts |      13654122496
 2017-02-05 02:06:33.757367+01 | 1486256793.75737 | pgbench_tellers  |           450560
 2017-02-05 02:06:33.757367+01 | 1486256793.75737 | pgbench_history  |                0
 2017-02-05 02:06:33.757367+01 | 1486256793.75737 | pgbench_branches |            40960

 2017-02-05 02:06:34.856429+01 | 1486256794.85643 | pgbench_accounts |      13654122496
 2017-02-05 02:06:34.856429+01 | 1486256794.85643 | pgbench_tellers  |           450560
 2017-02-05 02:06:34.856429+01 | 1486256794.85643 | pgbench_history  |                0
 2017-02-05 02:06:34.856429+01 | 1486256794.85643 | pgbench_branches |            40960

 2017-02-05 02:06:35.94906+01 | 1486256795.94906 | pgbench_accounts |      13654122496
 2017-02-05 02:06:35.94906+01 | 1486256795.94906 | pgbench_tellers  |           450560
 2017-02-05 02:06:35.94906+01 | 1486256795.94906 | pgbench_history  |                0
 2017-02-05 02:06:35.94906+01 | 1486256795.94906 | pgbench_branches |            40960

 2017-02-05 02:06:37.02888+01 | 1486256797.02888 | pgbench_accounts |      13654122496
 2017-02-05 02:06:37.02888+01 | 1486256797.02888 | pgbench_tellers  |           450560
 2017-02-05 02:06:37.02888+01 | 1486256797.02888 | pgbench_history  |                0
 2017-02-05 02:06:37.02888+01 | 1486256797.02888 | pgbench_branches |            40960

 2017-02-05 02:06:38.119832+01 | 1486256798.11983 | pgbench_accounts |      13654122496
 2017-02-05 02:06:38.119832+01 | 1486256798.11983 | pgbench_tellers  |           450560
 2017-02-05 02:06:38.119832+01 | 1486256798.11983 | pgbench_history  |                0
 2017-02-05 02:06:38.119832+01 | 1486256798.11983 | pgbench_branches |            40960

 2017-02-05 02:06:39.214597+01 | 1486256799.2146 | pgbench_accounts |      13654122496
 2017-02-05 02:06:39.214597+01 | 1486256799.2146 | pgbench_tellers  |           450560
 2017-02-05 02:06:39.214597+01 | 1486256799.2146 | pgbench_history  |                0
 2017-02-05 02:06:39.214597+01 | 1486256799.2146 | pgbench_branches |            40960

 2017-02-05 02:06:40.291051+01 | 1486256800.29105 | pgbench_accounts |      13654122496
 2017-02-05 02:06:40.291051+01 | 1486256800.29105 | pgbench_tellers  |           450560
 2017-02-05 02:06:40.291051+01 | 1486256800.29105 | pgbench_history  |                0
 2017-02-05 02:06:40.291051+01 | 1486256800.29105 | pgbench_branches |            40960

 2017-02-05 02:06:41.370224+01 | 1486256801.37022 | pgbench_accounts |      13654122496
 2017-02-05 02:06:41.370224+01 | 1486256801.37022 | pgbench_tellers  |           450560
 2017-02-05 02:06:41.370224+01 | 1486256801.37022 | pgbench_history  |                0
 2017-02-05 02:06:41.370224+01 | 1486256801.37022 | pgbench_branches |            40960

 2017-02-05 02:06:42.462316+01 | 1486256802.46232 | pgbench_accounts |      13654122496
 2017-02-05 02:06:42.462316+01 | 1486256802.46232 | pgbench_tellers  |           450560
 2017-02-05 02:06:42.462316+01 | 1486256802.46232 | pgbench_history  |                0
 2017-02-05 02:06:42.462316+01 | 1486256802.46232 | pgbench_branches |            40960

 2017-02-05 02:06:43.556414+01 | 1486256803.55641 | pgbench_accounts |      13654122496
 2017-02-05 02:06:43.556414+01 | 1486256803.55641 | pgbench_tellers  |           450560
 2017-02-05 02:06:43.556414+01 | 1486256803.55641 | pgbench_history  |                0
 2017-02-05 02:06:43.556414+01 | 1486256803.55641 | pgbench_branches |            40960

 2017-02-05 02:06:44.645624+01 | 1486256804.64562 | pgbench_accounts |      13654122496
 2017-02-05 02:06:44.645624+01 | 1486256804.64562 | pgbench_tellers  |           450560
 2017-02-05 02:06:44.645624+01 | 1486256804.64562 | pgbench_history  |                0
 2017-02-05 02:06:44.645624+01 | 1486256804.64562 | pgbench_branches |            40960

 2017-02-05 02:06:45.723544+01 | 1486256805.72354 | pgbench_accounts |      13654122496
 2017-02-05 02:06:45.723544+01 | 1486256805.72354 | pgbench_tellers  |           450560
 2017-02-05 02:06:45.723544+01 | 1486256805.72354 | pgbench_history  |                0
 2017-02-05 02:06:45.723544+01 | 1486256805.72354 | pgbench_branches |            40960

 2017-02-05 02:06:46.809072+01 | 1486256806.80907 | pgbench_accounts |      13654122496
 2017-02-05 02:06:46.809072+01 | 1486256806.80907 | pgbench_tellers  |           450560
 2017-02-05 02:06:46.809072+01 | 1486256806.80907 | pgbench_history  |                0
 2017-02-05 02:06:46.809072+01 | 1486256806.80907 | pgbench_branches |            40960

 2017-02-05 02:06:47.892267+01 | 1486256807.89227 | pgbench_accounts |      13654122496
 2017-02-05 02:06:47.892267+01 | 1486256807.89227 | pgbench_tellers  |           450560
 2017-02-05 02:06:47.892267+01 | 1486256807.89227 | pgbench_history  |                0
 2017-02-05 02:06:47.892267+01 | 1486256807.89227 | pgbench_branches |            40960

 2017-02-05 02:06:48.97147+01 | 1486256808.97147 | pgbench_accounts |      13654122496
 2017-02-05 02:06:48.97147+01 | 1486256808.97147 | pgbench_tellers  |           450560
 2017-02-05 02:06:48.97147+01 | 1486256808.97147 | pgbench_history  |                0
 2017-02-05 02:06:48.97147+01 | 1486256808.97147 | pgbench_branches |            40960

 2017-02-05 02:06:50.058377+01 | 1486256810.05838 | pgbench_accounts |      13654122496
 2017-02-05 02:06:50.058377+01 | 1486256810.05838 | pgbench_tellers  |           450560
 2017-02-05 02:06:50.058377+01 | 1486256810.05838 | pgbench_history  |                0
 2017-02-05 02:06:50.058377+01 | 1486256810.05838 | pgbench_branches |            40960

 2017-02-05 02:06:51.148657+01 | 1486256811.14866 | pgbench_accounts |      13654122496
 2017-02-05 02:06:51.148657+01 | 1486256811.14866 | pgbench_tellers  |           450560
 2017-02-05 02:06:51.148657+01 | 1486256811.14866 | pgbench_history  |                0
 2017-02-05 02:06:51.148657+01 | 1486256811.14866 | pgbench_branches |            40960

 2017-02-05 02:06:52.249636+01 | 1486256812.24964 | pgbench_accounts |      13654122496
 2017-02-05 02:06:52.249636+01 | 1486256812.24964 | pgbench_tellers  |           450560
 2017-02-05 02:06:52.249636+01 | 1486256812.24964 | pgbench_history  |                0
 2017-02-05 02:06:52.249636+01 | 1486256812.24964 | pgbench_branches |            40960

 2017-02-05 02:06:53.339401+01 | 1486256813.3394 | pgbench_accounts |      13654122496
 2017-02-05 02:06:53.339401+01 | 1486256813.3394 | pgbench_tellers  |           450560
 2017-02-05 02:06:53.339401+01 | 1486256813.3394 | pgbench_history  |                0
 2017-02-05 02:06:53.339401+01 | 1486256813.3394 | pgbench_branches |            40960

 2017-02-05 02:06:54.42564+01 | 1486256814.42564 | pgbench_accounts |      13654122496
 2017-02-05 02:06:54.42564+01 | 1486256814.42564 | pgbench_tellers  |           450560
 2017-02-05 02:06:54.42564+01 | 1486256814.42564 | pgbench_history  |                0
 2017-02-05 02:06:54.42564+01 | 1486256814.42564 | pgbench_branches |            40960

 2017-02-05 02:06:55.503951+01 | 1486256815.50395 | pgbench_accounts |      13654122496
 2017-02-05 02:06:55.503951+01 | 1486256815.50395 | pgbench_tellers  |           450560
 2017-02-05 02:06:55.503951+01 | 1486256815.50395 | pgbench_history  |                0
 2017-02-05 02:06:55.503951+01 | 1486256815.50395 | pgbench_branches |            40960

 2017-02-05 02:06:56.588063+01 | 1486256816.58806 | pgbench_accounts |      13654122496
 2017-02-05 02:06:56.588063+01 | 1486256816.58806 | pgbench_tellers  |           450560
 2017-02-05 02:06:56.588063+01 | 1486256816.58806 | pgbench_history  |                0
 2017-02-05 02:06:56.588063+01 | 1486256816.58806 | pgbench_branches |            40960

 2017-02-05 02:06:57.671164+01 | 1486256817.67116 | pgbench_accounts |      13654122496
 2017-02-05 02:06:57.671164+01 | 1486256817.67116 | pgbench_tellers  |           450560
 2017-02-05 02:06:57.671164+01 | 1486256817.67116 | pgbench_history  |                0
 2017-02-05 02:06:57.671164+01 | 1486256817.67116 | pgbench_branches |            40960

 2017-02-05 02:06:58.763822+01 | 1486256818.76382 | pgbench_accounts |      13654122496
 2017-02-05 02:06:58.763822+01 | 1486256818.76382 | pgbench_tellers  |           450560
 2017-02-05 02:06:58.763822+01 | 1486256818.76382 | pgbench_history  |                0
 2017-02-05 02:06:58.763822+01 | 1486256818.76382 | pgbench_branches |            40960

 2017-02-05 02:06:59.856628+01 | 1486256819.85663 | pgbench_accounts |      13654122496
 2017-02-05 02:06:59.856628+01 | 1486256819.85663 | pgbench_tellers  |           450560
 2017-02-05 02:06:59.856628+01 | 1486256819.85663 | pgbench_history  |                0
 2017-02-05 02:06:59.856628+01 | 1486256819.85663 | pgbench_branches |            40960

 2017-02-05 02:07:00.944177+01 | 1486256820.94418 | pgbench_accounts |      13654122496
 2017-02-05 02:07:00.944177+01 | 1486256820.94418 | pgbench_tellers  |           450560
 2017-02-05 02:07:00.944177+01 | 1486256820.94418 | pgbench_history  |                0
 2017-02-05 02:07:00.944177+01 | 1486256820.94418 | pgbench_branches |            40960

 2017-02-05 02:07:02.03894+01 | 1486256822.03894 | pgbench_accounts |      13654122496
 2017-02-05 02:07:02.03894+01 | 1486256822.03894 | pgbench_tellers  |           450560
 2017-02-05 02:07:02.03894+01 | 1486256822.03894 | pgbench_history  |                0
 2017-02-05 02:07:02.03894+01 | 1486256822.03894 | pgbench_branches |            40960

 2017-02-05 02:07:03.11507+01 | 1486256823.11507 | pgbench_accounts |      13654122496
 2017-02-05 02:07:03.11507+01 | 1486256823.11507 | pgbench_tellers  |           450560
 2017-02-05 02:07:03.11507+01 | 1486256823.11507 | pgbench_history  |                0
 2017-02-05 02:07:03.11507+01 | 1486256823.11507 | pgbench_branches |            40960

 2017-02-05 02:07:04.197975+01 | 1486256824.19797 | pgbench_accounts |      13654122496
 2017-02-05 02:07:04.197975+01 | 1486256824.19797 | pgbench_tellers  |           450560
 2017-02-05 02:07:04.197975+01 | 1486256824.19797 | pgbench_history  |                0
 2017-02-05 02:07:04.197975+01 | 1486256824.19797 | pgbench_branches |            40960

 2017-02-05 02:07:05.28369+01 | 1486256825.28369 | pgbench_accounts |      13654122496
 2017-02-05 02:07:05.28369+01 | 1486256825.28369 | pgbench_tellers  |           450560
 2017-02-05 02:07:05.28369+01 | 1486256825.28369 | pgbench_history  |                0
 2017-02-05 02:07:05.28369+01 | 1486256825.28369 | pgbench_branches |            40960

 2017-02-05 02:07:06.36544+01 | 1486256826.36544 | pgbench_accounts |      13654122496
 2017-02-05 02:07:06.36544+01 | 1486256826.36544 | pgbench_tellers  |           450560
 2017-02-05 02:07:06.36544+01 | 1486256826.36544 | pgbench_history  |                0
 2017-02-05 02:07:06.36544+01 | 1486256826.36544 | pgbench_branches |            40960

 2017-02-05 02:07:07.458636+01 | 1486256827.45864 | pgbench_accounts |      13654122496
 2017-02-05 02:07:07.458636+01 | 1486256827.45864 | pgbench_tellers  |           450560
 2017-02-05 02:07:07.458636+01 | 1486256827.45864 | pgbench_history  |                0
 2017-02-05 02:07:07.458636+01 | 1486256827.45864 | pgbench_branches |            40960

 2017-02-05 02:07:08.551645+01 | 1486256828.55165 | pgbench_accounts |      13654122496
 2017-02-05 02:07:08.551645+01 | 1486256828.55165 | pgbench_tellers  |           450560
 2017-02-05 02:07:08.551645+01 | 1486256828.55165 | pgbench_history  |                0
 2017-02-05 02:07:08.551645+01 | 1486256828.55165 | pgbench_branches |            40960

 2017-02-05 02:07:09.639512+01 | 1486256829.63951 | pgbench_accounts |      13654122496
 2017-02-05 02:07:09.639512+01 | 1486256829.63951 | pgbench_tellers  |           450560
 2017-02-05 02:07:09.639512+01 | 1486256829.63951 | pgbench_history  |                0
 2017-02-05 02:07:09.639512+01 | 1486256829.63951 | pgbench_branches |            40960

 2017-02-05 02:07:10.724802+01 | 1486256830.7248 | pgbench_accounts |      13654122496
 2017-02-05 02:07:10.724802+01 | 1486256830.7248 | pgbench_tellers  |           450560
 2017-02-05 02:07:10.724802+01 | 1486256830.7248 | pgbench_history  |                0
 2017-02-05 02:07:10.724802+01 | 1486256830.7248 | pgbench_branches |            40960

 2017-02-05 02:07:11.821878+01 | 1486256831.82188 | pgbench_accounts |      13654122496
 2017-02-05 02:07:11.821878+01 | 1486256831.82188 | pgbench_tellers  |           450560
 2017-02-05 02:07:11.821878+01 | 1486256831.82188 | pgbench_history  |                0
 2017-02-05 02:07:11.821878+01 | 1486256831.82188 | pgbench_branches |            40960

 2017-02-05 02:07:12.91139+01 | 1486256832.91139 | pgbench_accounts |      13654122496
 2017-02-05 02:07:12.91139+01 | 1486256832.91139 | pgbench_tellers  |           450560
 2017-02-05 02:07:12.91139+01 | 1486256832.91139 | pgbench_history  |                0
 2017-02-05 02:07:12.91139+01 | 1486256832.91139 | pgbench_branches |            40960

 2017-02-05 02:07:13.997447+01 | 1486256833.99745 | pgbench_accounts |      13654122496
 2017-02-05 02:07:13.997447+01 | 1486256833.99745 | pgbench_tellers  |           450560
 2017-02-05 02:07:13.997447+01 | 1486256833.99745 | pgbench_history  |                0
 2017-02-05 02:07:13.997447+01 | 1486256833.99745 | pgbench_branches |            40960

 2017-02-05 02:07:15.075769+01 | 1486256835.07577 | pgbench_accounts |      13654122496
 2017-02-05 02:07:15.075769+01 | 1486256835.07577 | pgbench_tellers  |           450560
 2017-02-05 02:07:15.075769+01 | 1486256835.07577 | pgbench_history  |                0
 2017-02-05 02:07:15.075769+01 | 1486256835.07577 | pgbench_branches |            40960

 2017-02-05 02:07:16.161809+01 | 1486256836.16181 | pgbench_accounts |      13654122496
 2017-02-05 02:07:16.161809+01 | 1486256836.16181 | pgbench_tellers  |           450560
 2017-02-05 02:07:16.161809+01 | 1486256836.16181 | pgbench_history  |                0
 2017-02-05 02:07:16.161809+01 | 1486256836.16181 | pgbench_branches |            40960

 2017-02-05 02:07:17.232324+01 | 1486256837.23232 | pgbench_accounts |      13654122496
 2017-02-05 02:07:17.232324+01 | 1486256837.23232 | pgbench_tellers  |           450560
 2017-02-05 02:07:17.232324+01 | 1486256837.23232 | pgbench_history  |                0
 2017-02-05 02:07:17.232324+01 | 1486256837.23232 | pgbench_branches |            40960

 2017-02-05 02:07:18.319122+01 | 1486256838.31912 | pgbench_accounts |      13654122496
 2017-02-05 02:07:18.319122+01 | 1486256838.31912 | pgbench_tellers  |           450560
 2017-02-05 02:07:18.319122+01 | 1486256838.31912 | pgbench_history  |                0
 2017-02-05 02:07:18.319122+01 | 1486256838.31912 | pgbench_branches |            40960

 2017-02-05 02:07:19.403014+01 | 1486256839.40301 | pgbench_accounts |      13654122496
 2017-02-05 02:07:19.403014+01 | 1486256839.40301 | pgbench_tellers  |           450560
 2017-02-05 02:07:19.403014+01 | 1486256839.40301 | pgbench_history  |                0
 2017-02-05 02:07:19.403014+01 | 1486256839.40301 | pgbench_branches |            40960

 2017-02-05 02:07:20.480564+01 | 1486256840.48056 | pgbench_accounts |      13654122496
 2017-02-05 02:07:20.480564+01 | 1486256840.48056 | pgbench_tellers  |           450560
 2017-02-05 02:07:20.480564+01 | 1486256840.48056 | pgbench_history  |                0
 2017-02-05 02:07:20.480564+01 | 1486256840.48056 | pgbench_branches |            40960

 2017-02-05 02:07:21.568346+01 | 1486256841.56835 | pgbench_accounts |      13654122496
 2017-02-05 02:07:21.568346+01 | 1486256841.56835 | pgbench_tellers  |           450560
 2017-02-05 02:07:21.568346+01 | 1486256841.56835 | pgbench_history  |                0
 2017-02-05 02:07:21.568346+01 | 1486256841.56835 | pgbench_branches |            40960

 2017-02-05 02:07:22.64816+01 | 1486256842.64816 | pgbench_accounts |      13654122496
 2017-02-05 02:07:22.64816+01 | 1486256842.64816 | pgbench_tellers  |           450560
 2017-02-05 02:07:22.64816+01 | 1486256842.64816 | pgbench_history  |                0
 2017-02-05 02:07:22.64816+01 | 1486256842.64816 | pgbench_branches |            40960

 2017-02-05 02:07:23.737015+01 | 1486256843.73702 | pgbench_accounts |      13654122496
 2017-02-05 02:07:23.737015+01 | 1486256843.73702 | pgbench_tellers  |           450560
 2017-02-05 02:07:23.737015+01 | 1486256843.73702 | pgbench_history  |                0
 2017-02-05 02:07:23.737015+01 | 1486256843.73702 | pgbench_branches |            40960

 2017-02-05 02:07:24.834102+01 | 1486256844.8341 | pgbench_accounts |      13654122496
 2017-02-05 02:07:24.834102+01 | 1486256844.8341 | pgbench_tellers  |           450560
 2017-02-05 02:07:24.834102+01 | 1486256844.8341 | pgbench_history  |                0
 2017-02-05 02:07:24.834102+01 | 1486256844.8341 | pgbench_branches |            40960

 2017-02-05 02:07:25.931515+01 | 1486256845.93151 | pgbench_accounts |      13654122496
 2017-02-05 02:07:25.931515+01 | 1486256845.93151 | pgbench_tellers  |           450560
 2017-02-05 02:07:25.931515+01 | 1486256845.93151 | pgbench_history  |                0
 2017-02-05 02:07:25.931515+01 | 1486256845.93151 | pgbench_branches |            40960

 2017-02-05 02:07:26.99432+01 | 1486256846.99432 | pgbench_accounts |      13654122496
 2017-02-05 02:07:26.99432+01 | 1486256846.99432 | pgbench_tellers  |           450560
 2017-02-05 02:07:26.99432+01 | 1486256846.99432 | pgbench_history  |                0
 2017-02-05 02:07:26.99432+01 | 1486256846.99432 | pgbench_branches |            40960

 2017-02-05 02:07:28.076985+01 | 1486256848.07698 | pgbench_accounts |      13654122496
 2017-02-05 02:07:28.076985+01 | 1486256848.07698 | pgbench_tellers  |           450560
 2017-02-05 02:07:28.076985+01 | 1486256848.07698 | pgbench_history  |                0
 2017-02-05 02:07:28.076985+01 | 1486256848.07698 | pgbench_branches |            40960

 2017-02-05 02:07:29.162283+01 | 1486256849.16228 | pgbench_accounts |      13654122496
 2017-02-05 02:07:29.162283+01 | 1486256849.16228 | pgbench_tellers  |           450560
 2017-02-05 02:07:29.162283+01 | 1486256849.16228 | pgbench_history  |                0
 2017-02-05 02:07:29.162283+01 | 1486256849.16228 | pgbench_branches |            40960

 2017-02-05 02:07:30.245698+01 | 1486256850.2457 | pgbench_accounts |      13654122496
 2017-02-05 02:07:30.245698+01 | 1486256850.2457 | pgbench_tellers  |           450560
 2017-02-05 02:07:30.245698+01 | 1486256850.2457 | pgbench_history  |                0
 2017-02-05 02:07:30.245698+01 | 1486256850.2457 | pgbench_branches |            40960

 2017-02-05 02:07:31.337584+01 | 1486256851.33758 | pgbench_accounts |      13654122496
 2017-02-05 02:07:31.337584+01 | 1486256851.33758 | pgbench_tellers  |           450560
 2017-02-05 02:07:31.337584+01 | 1486256851.33758 | pgbench_history  |                0
 2017-02-05 02:07:31.337584+01 | 1486256851.33758 | pgbench_branches |            40960

 2017-02-05 02:07:32.414432+01 | 1486256852.41443 | pgbench_accounts |      13654122496
 2017-02-05 02:07:32.414432+01 | 1486256852.41443 | pgbench_tellers  |           450560
 2017-02-05 02:07:32.414432+01 | 1486256852.41443 | pgbench_history  |                0
 2017-02-05 02:07:32.414432+01 | 1486256852.41443 | pgbench_branches |            40960

 2017-02-05 02:07:33.498271+01 | 1486256853.49827 | pgbench_accounts |      13654122496
 2017-02-05 02:07:33.498271+01 | 1486256853.49827 | pgbench_tellers  |           450560
 2017-02-05 02:07:33.498271+01 | 1486256853.49827 | pgbench_history  |                0
 2017-02-05 02:07:33.498271+01 | 1486256853.49827 | pgbench_branches |            40960

 2017-02-05 02:07:34.575513+01 | 1486256854.57551 | pgbench_accounts |      13654122496
 2017-02-05 02:07:34.575513+01 | 1486256854.57551 | pgbench_tellers  |           450560
 2017-02-05 02:07:34.575513+01 | 1486256854.57551 | pgbench_history  |                0
 2017-02-05 02:07:34.575513+01 | 1486256854.57551 | pgbench_branches |            40960

 2017-02-05 02:07:35.643776+01 | 1486256855.64378 | pgbench_accounts |      13654122496
 2017-02-05 02:07:35.643776+01 | 1486256855.64378 | pgbench_tellers  |           450560
 2017-02-05 02:07:35.643776+01 | 1486256855.64378 | pgbench_history  |                0
 2017-02-05 02:07:35.643776+01 | 1486256855.64378 | pgbench_branches |            40960

 2017-02-05 02:07:36.713519+01 | 1486256856.71352 | pgbench_accounts |      13654122496
 2017-02-05 02:07:36.713519+01 | 1486256856.71352 | pgbench_tellers  |           450560
 2017-02-05 02:07:36.713519+01 | 1486256856.71352 | pgbench_history  |                0
 2017-02-05 02:07:36.713519+01 | 1486256856.71352 | pgbench_branches |            40960

 2017-02-05 02:07:37.814984+01 | 1486256857.81498 | pgbench_accounts |      13654122496
 2017-02-05 02:07:37.814984+01 | 1486256857.81498 | pgbench_tellers  |           450560
 2017-02-05 02:07:37.814984+01 | 1486256857.81498 | pgbench_history  |                0
 2017-02-05 02:07:37.814984+01 | 1486256857.81498 | pgbench_branches |            40960

 2017-02-05 02:07:38.9019+01 | 1486256858.9019 | pgbench_accounts |      13654122496
 2017-02-05 02:07:38.9019+01 | 1486256858.9019 | pgbench_tellers  |           450560
 2017-02-05 02:07:38.9019+01 | 1486256858.9019 | pgbench_history  |                0
 2017-02-05 02:07:38.9019+01 | 1486256858.9019 | pgbench_branches |            40960

 2017-02-05 02:07:39.985554+01 | 1486256859.98555 | pgbench_accounts |      13654122496
 2017-02-05 02:07:39.985554+01 | 1486256859.98555 | pgbench_tellers  |           450560
 2017-02-05 02:07:39.985554+01 | 1486256859.98555 | pgbench_history  |                0
 2017-02-05 02:07:39.985554+01 | 1486256859.98555 | pgbench_branches |            40960

 2017-02-05 02:07:41.073462+01 | 1486256861.07346 | pgbench_accounts |      13654122496
 2017-02-05 02:07:41.073462+01 | 1486256861.07346 | pgbench_tellers  |           450560
 2017-02-05 02:07:41.073462+01 | 1486256861.07346 | pgbench_history  |                0
 2017-02-05 02:07:41.073462+01 | 1486256861.07346 | pgbench_branches |            40960

 2017-02-05 02:07:42.1461+01 | 1486256862.1461 | pgbench_accounts |      13654122496
 2017-02-05 02:07:42.1461+01 | 1486256862.1461 | pgbench_tellers  |           450560
 2017-02-05 02:07:42.1461+01 | 1486256862.1461 | pgbench_history  |                0
 2017-02-05 02:07:42.1461+01 | 1486256862.1461 | pgbench_branches |            40960

 2017-02-05 02:07:43.225746+01 | 1486256863.22575 | pgbench_accounts |      13654122496
 2017-02-05 02:07:43.225746+01 | 1486256863.22575 | pgbench_tellers  |           450560
 2017-02-05 02:07:43.225746+01 | 1486256863.22575 | pgbench_history  |                0
 2017-02-05 02:07:43.225746+01 | 1486256863.22575 | pgbench_branches |            40960

 2017-02-05 02:07:44.305254+01 | 1486256864.30525 | pgbench_accounts |      13654122496
 2017-02-05 02:07:44.305254+01 | 1486256864.30525 | pgbench_tellers  |           450560
 2017-02-05 02:07:44.305254+01 | 1486256864.30525 | pgbench_history  |                0
 2017-02-05 02:07:44.305254+01 | 1486256864.30525 | pgbench_branches |            40960

 2017-02-05 02:07:45.383335+01 | 1486256865.38334 | pgbench_accounts |      13654122496
 2017-02-05 02:07:45.383335+01 | 1486256865.38334 | pgbench_tellers  |           450560
 2017-02-05 02:07:45.383335+01 | 1486256865.38334 | pgbench_history  |                0
 2017-02-05 02:07:45.383335+01 | 1486256865.38334 | pgbench_branches |            40960

 2017-02-05 02:07:46.459106+01 | 1486256866.45911 | pgbench_accounts |      13654122496
 2017-02-05 02:07:46.459106+01 | 1486256866.45911 | pgbench_tellers  |           450560
 2017-02-05 02:07:46.459106+01 | 1486256866.45911 | pgbench_history  |                0
 2017-02-05 02:07:46.459106+01 | 1486256866.45911 | pgbench_branches |            40960

 2017-02-05 02:07:47.538932+01 | 1486256867.53893 | pgbench_accounts |      13654122496
 2017-02-05 02:07:47.538932+01 | 1486256867.53893 | pgbench_tellers  |           450560
 2017-02-05 02:07:47.538932+01 | 1486256867.53893 | pgbench_history  |                0
 2017-02-05 02:07:47.538932+01 | 1486256867.53893 | pgbench_branches |            40960

 2017-02-05 02:07:48.618658+01 | 1486256868.61866 | pgbench_accounts |      13654122496
 2017-02-05 02:07:48.618658+01 | 1486256868.61866 | pgbench_tellers  |           450560
 2017-02-05 02:07:48.618658+01 | 1486256868.61866 | pgbench_history  |                0
 2017-02-05 02:07:48.618658+01 | 1486256868.61866 | pgbench_branches |            40960

 2017-02-05 02:07:49.711861+01 | 1486256869.71186 | pgbench_accounts |      13654122496
 2017-02-05 02:07:49.711861+01 | 1486256869.71186 | pgbench_tellers  |           450560
 2017-02-05 02:07:49.711861+01 | 1486256869.71186 | pgbench_history  |                0
 2017-02-05 02:07:49.711861+01 | 1486256869.71186 | pgbench_branches |            40960

 2017-02-05 02:07:50.784066+01 | 1486256870.78407 | pgbench_accounts |      13654122496
 2017-02-05 02:07:50.784066+01 | 1486256870.78407 | pgbench_tellers  |           450560
 2017-02-05 02:07:50.784066+01 | 1486256870.78407 | pgbench_history  |                0
 2017-02-05 02:07:50.784066+01 | 1486256870.78407 | pgbench_branches |            40960

 2017-02-05 02:07:51.872046+01 | 1486256871.87205 | pgbench_accounts |      13654122496
 2017-02-05 02:07:51.872046+01 | 1486256871.87205 | pgbench_tellers  |           450560
 2017-02-05 02:07:51.872046+01 | 1486256871.87205 | pgbench_history  |                0
 2017-02-05 02:07:51.872046+01 | 1486256871.87205 | pgbench_branches |            40960

 2017-02-05 02:07:52.957693+01 | 1486256872.95769 | pgbench_accounts |      13654122496
 2017-02-05 02:07:52.957693+01 | 1486256872.95769 | pgbench_tellers  |           450560
 2017-02-05 02:07:52.957693+01 | 1486256872.95769 | pgbench_history  |                0
 2017-02-05 02:07:52.957693+01 | 1486256872.95769 | pgbench_branches |            40960

 2017-02-05 02:07:54.049065+01 | 1486256874.04907 | pgbench_accounts |      13654122496
 2017-02-05 02:07:54.049065+01 | 1486256874.04907 | pgbench_tellers  |           450560
 2017-02-05 02:07:54.049065+01 | 1486256874.04907 | pgbench_history  |                0
 2017-02-05 02:07:54.049065+01 | 1486256874.04907 | pgbench_branches |            40960

 2017-02-05 02:07:55.128051+01 | 1486256875.12805 | pgbench_accounts |      13654122496
 2017-02-05 02:07:55.128051+01 | 1486256875.12805 | pgbench_tellers  |           450560
 2017-02-05 02:07:55.128051+01 | 1486256875.12805 | pgbench_history  |                0
 2017-02-05 02:07:55.128051+01 | 1486256875.12805 | pgbench_branches |            40960

 2017-02-05 02:07:56.223178+01 | 1486256876.22318 | pgbench_accounts |      13654122496
 2017-02-05 02:07:56.223178+01 | 1486256876.22318 | pgbench_tellers  |           450560
 2017-02-05 02:07:56.223178+01 | 1486256876.22318 | pgbench_history  |                0
 2017-02-05 02:07:56.223178+01 | 1486256876.22318 | pgbench_branches |            40960

 2017-02-05 02:07:57.328244+01 | 1486256877.32824 | pgbench_accounts |      13654122496
 2017-02-05 02:07:57.328244+01 | 1486256877.32824 | pgbench_tellers  |           450560
 2017-02-05 02:07:57.328244+01 | 1486256877.32824 | pgbench_history  |                0
 2017-02-05 02:07:57.328244+01 | 1486256877.32824 | pgbench_branches |            40960

 2017-02-05 02:07:58.421852+01 | 1486256878.42185 | pgbench_accounts |      13654122496
 2017-02-05 02:07:58.421852+01 | 1486256878.42185 | pgbench_tellers  |           450560
 2017-02-05 02:07:58.421852+01 | 1486256878.42185 | pgbench_history  |                0
 2017-02-05 02:07:58.421852+01 | 1486256878.42185 | pgbench_branches |            40960

 2017-02-05 02:07:59.498149+01 | 1486256879.49815 | pgbench_accounts |      13654122496
 2017-02-05 02:07:59.498149+01 | 1486256879.49815 | pgbench_tellers  |           450560
 2017-02-05 02:07:59.498149+01 | 1486256879.49815 | pgbench_history  |                0
 2017-02-05 02:07:59.498149+01 | 1486256879.49815 | pgbench_branches |            40960

 2017-02-05 02:08:00.576953+01 | 1486256880.57695 | pgbench_accounts |      13654122496
 2017-02-05 02:08:00.576953+01 | 1486256880.57695 | pgbench_tellers  |           450560
 2017-02-05 02:08:00.576953+01 | 1486256880.57695 | pgbench_history  |                0
 2017-02-05 02:08:00.576953+01 | 1486256880.57695 | pgbench_branches |            40960

 2017-02-05 02:08:01.663552+01 | 1486256881.66355 | pgbench_accounts |      13654122496
 2017-02-05 02:08:01.663552+01 | 1486256881.66355 | pgbench_tellers  |           450560
 2017-02-05 02:08:01.663552+01 | 1486256881.66355 | pgbench_history  |                0
 2017-02-05 02:08:01.663552+01 | 1486256881.66355 | pgbench_branches |            40960

 2017-02-05 02:08:02.746894+01 | 1486256882.74689 | pgbench_accounts |      13654122496
 2017-02-05 02:08:02.746894+01 | 1486256882.74689 | pgbench_tellers  |           450560
 2017-02-05 02:08:02.746894+01 | 1486256882.74689 | pgbench_history  |                0
 2017-02-05 02:08:02.746894+01 | 1486256882.74689 | pgbench_branches |            40960

 2017-02-05 02:08:03.820639+01 | 1486256883.82064 | pgbench_accounts |      13654122496
 2017-02-05 02:08:03.820639+01 | 1486256883.82064 | pgbench_tellers  |           450560
 2017-02-05 02:08:03.820639+01 | 1486256883.82064 | pgbench_history  |                0
 2017-02-05 02:08:03.820639+01 | 1486256883.82064 | pgbench_branches |            40960

 2017-02-05 02:08:04.902289+01 | 1486256884.90229 | pgbench_accounts |      13654122496
 2017-02-05 02:08:04.902289+01 | 1486256884.90229 | pgbench_tellers  |           450560
 2017-02-05 02:08:04.902289+01 | 1486256884.90229 | pgbench_history  |                0
 2017-02-05 02:08:04.902289+01 | 1486256884.90229 | pgbench_branches |            40960

 2017-02-05 02:08:05.99545+01 | 1486256885.99545 | pgbench_accounts |      13654122496
 2017-02-05 02:08:05.99545+01 | 1486256885.99545 | pgbench_tellers  |           450560
 2017-02-05 02:08:05.99545+01 | 1486256885.99545 | pgbench_history  |                0
 2017-02-05 02:08:05.99545+01 | 1486256885.99545 | pgbench_branches |            40960

 2017-02-05 02:08:07.088131+01 | 1486256887.08813 | pgbench_accounts |      13654122496
 2017-02-05 02:08:07.088131+01 | 1486256887.08813 | pgbench_tellers  |           450560
 2017-02-05 02:08:07.088131+01 | 1486256887.08813 | pgbench_history  |                0
 2017-02-05 02:08:07.088131+01 | 1486256887.08813 | pgbench_branches |            40960

 2017-02-05 02:08:08.173624+01 | 1486256888.17362 | pgbench_accounts |      13654122496
 2017-02-05 02:08:08.173624+01 | 1486256888.17362 | pgbench_tellers  |           450560
 2017-02-05 02:08:08.173624+01 | 1486256888.17362 | pgbench_history  |                0
 2017-02-05 02:08:08.173624+01 | 1486256888.17362 | pgbench_branches |            40960

 2017-02-05 02:08:09.260698+01 | 1486256889.2607 | pgbench_accounts |      13654122496
 2017-02-05 02:08:09.260698+01 | 1486256889.2607 | pgbench_tellers  |           450560
 2017-02-05 02:08:09.260698+01 | 1486256889.2607 | pgbench_history  |                0
 2017-02-05 02:08:09.260698+01 | 1486256889.2607 | pgbench_branches |            40960

 2017-02-05 02:08:10.347668+01 | 1486256890.34767 | pgbench_accounts |      13654122496
 2017-02-05 02:08:10.347668+01 | 1486256890.34767 | pgbench_tellers  |           450560
 2017-02-05 02:08:10.347668+01 | 1486256890.34767 | pgbench_history  |                0
 2017-02-05 02:08:10.347668+01 | 1486256890.34767 | pgbench_branches |            40960

 2017-02-05 02:08:11.451835+01 | 1486256891.45183 | pgbench_accounts |      13654122496
 2017-02-05 02:08:11.451835+01 | 1486256891.45183 | pgbench_tellers  |           450560
 2017-02-05 02:08:11.451835+01 | 1486256891.45183 | pgbench_history  |                0
 2017-02-05 02:08:11.451835+01 | 1486256891.45183 | pgbench_branches |            40960

 2017-02-05 02:08:12.528689+01 | 1486256892.52869 | pgbench_accounts |      13654122496
 2017-02-05 02:08:12.528689+01 | 1486256892.52869 | pgbench_tellers  |           450560
 2017-02-05 02:08:12.528689+01 | 1486256892.52869 | pgbench_history  |                0
 2017-02-05 02:08:12.528689+01 | 1486256892.52869 | pgbench_branches |            40960

 2017-02-05 02:08:13.609114+01 | 1486256893.60911 | pgbench_accounts |      13654122496
 2017-02-05 02:08:13.609114+01 | 1486256893.60911 | pgbench_tellers  |           450560
 2017-02-05 02:08:13.609114+01 | 1486256893.60911 | pgbench_history  |                0
 2017-02-05 02:08:13.609114+01 | 1486256893.60911 | pgbench_branches |            40960

 2017-02-05 02:08:14.690907+01 | 1486256894.69091 | pgbench_accounts |      13654122496
 2017-02-05 02:08:14.690907+01 | 1486256894.69091 | pgbench_tellers  |           450560
 2017-02-05 02:08:14.690907+01 | 1486256894.69091 | pgbench_history  |                0
 2017-02-05 02:08:14.690907+01 | 1486256894.69091 | pgbench_branches |            40960

 2017-02-05 02:08:15.778441+01 | 1486256895.77844 | pgbench_accounts |      13654122496
 2017-02-05 02:08:15.778441+01 | 1486256895.77844 | pgbench_tellers  |           450560
 2017-02-05 02:08:15.778441+01 | 1486256895.77844 | pgbench_history  |                0
 2017-02-05 02:08:15.778441+01 | 1486256895.77844 | pgbench_branches |            40960

 2017-02-05 02:08:16.875779+01 | 1486256896.87578 | pgbench_accounts |      13654122496
 2017-02-05 02:08:16.875779+01 | 1486256896.87578 | pgbench_tellers  |           450560
 2017-02-05 02:08:16.875779+01 | 1486256896.87578 | pgbench_history  |                0
 2017-02-05 02:08:16.875779+01 | 1486256896.87578 | pgbench_branches |            40960

 2017-02-05 02:08:17.959192+01 | 1486256897.95919 | pgbench_accounts |      13654122496
 2017-02-05 02:08:17.959192+01 | 1486256897.95919 | pgbench_tellers  |           450560
 2017-02-05 02:08:17.959192+01 | 1486256897.95919 | pgbench_history  |                0
 2017-02-05 02:08:17.959192+01 | 1486256897.95919 | pgbench_branches |            40960

 2017-02-05 02:08:19.035461+01 | 1486256899.03546 | pgbench_accounts |      13654122496
 2017-02-05 02:08:19.035461+01 | 1486256899.03546 | pgbench_tellers  |           450560
 2017-02-05 02:08:19.035461+01 | 1486256899.03546 | pgbench_history  |                0
 2017-02-05 02:08:19.035461+01 | 1486256899.03546 | pgbench_branches |            40960

 2017-02-05 02:08:20.10474+01 | 1486256900.10474 | pgbench_accounts |      13654122496
 2017-02-05 02:08:20.10474+01 | 1486256900.10474 | pgbench_tellers  |           450560
 2017-02-05 02:08:20.10474+01 | 1486256900.10474 | pgbench_history  |                0
 2017-02-05 02:08:20.10474+01 | 1486256900.10474 | pgbench_branches |            40960

 2017-02-05 02:08:21.195695+01 | 1486256901.19569 | pgbench_accounts |      13654122496
 2017-02-05 02:08:21.195695+01 | 1486256901.19569 | pgbench_tellers  |           450560
 2017-02-05 02:08:21.195695+01 | 1486256901.19569 | pgbench_history  |                0
 2017-02-05 02:08:21.195695+01 | 1486256901.19569 | pgbench_branches |            40960

 2017-02-05 02:08:22.298853+01 | 1486256902.29885 | pgbench_accounts |      13654122496
 2017-02-05 02:08:22.298853+01 | 1486256902.29885 | pgbench_tellers  |           450560
 2017-02-05 02:08:22.298853+01 | 1486256902.29885 | pgbench_history  |                0
 2017-02-05 02:08:22.298853+01 | 1486256902.29885 | pgbench_branches |            40960

 2017-02-05 02:08:23.389696+01 | 1486256903.3897 | pgbench_accounts |      13654122496
 2017-02-05 02:08:23.389696+01 | 1486256903.3897 | pgbench_tellers  |           450560
 2017-02-05 02:08:23.389696+01 | 1486256903.3897 | pgbench_history  |                0
 2017-02-05 02:08:23.389696+01 | 1486256903.3897 | pgbench_branches |            40960

 2017-02-05 02:08:24.478321+01 | 1486256904.47832 | pgbench_accounts |      13654122496
 2017-02-05 02:08:24.478321+01 | 1486256904.47832 | pgbench_tellers  |           450560
 2017-02-05 02:08:24.478321+01 | 1486256904.47832 | pgbench_history  |                0
 2017-02-05 02:08:24.478321+01 | 1486256904.47832 | pgbench_branches |            40960

 2017-02-05 02:08:25.556779+01 | 1486256905.55678 | pgbench_accounts |      13654122496
 2017-02-05 02:08:25.556779+01 | 1486256905.55678 | pgbench_tellers  |           450560
 2017-02-05 02:08:25.556779+01 | 1486256905.55678 | pgbench_history  |                0
 2017-02-05 02:08:25.556779+01 | 1486256905.55678 | pgbench_branches |            40960

 2017-02-05 02:08:26.640586+01 | 1486256906.64059 | pgbench_accounts |      13654122496
 2017-02-05 02:08:26.640586+01 | 1486256906.64059 | pgbench_tellers  |           450560
 2017-02-05 02:08:26.640586+01 | 1486256906.64059 | pgbench_history  |                0
 2017-02-05 02:08:26.640586+01 | 1486256906.64059 | pgbench_branches |            40960

 2017-02-05 02:08:27.721889+01 | 1486256907.72189 | pgbench_accounts |      13654122496
 2017-02-05 02:08:27.721889+01 | 1486256907.72189 | pgbench_tellers  |           450560
 2017-02-05 02:08:27.721889+01 | 1486256907.72189 | pgbench_history  |                0
 2017-02-05 02:08:27.721889+01 | 1486256907.72189 | pgbench_branches |            40960

 2017-02-05 02:08:28.806096+01 | 1486256908.8061 | pgbench_accounts |      13654122496
 2017-02-05 02:08:28.806096+01 | 1486256908.8061 | pgbench_tellers  |           450560
 2017-02-05 02:08:28.806096+01 | 1486256908.8061 | pgbench_history  |                0
 2017-02-05 02:08:28.806096+01 | 1486256908.8061 | pgbench_branches |            40960

 2017-02-05 02:08:29.907981+01 | 1486256909.90798 | pgbench_accounts |      13654122496
 2017-02-05 02:08:29.907981+01 | 1486256909.90798 | pgbench_tellers  |           450560
 2017-02-05 02:08:29.907981+01 | 1486256909.90798 | pgbench_history  |                0
 2017-02-05 02:08:29.907981+01 | 1486256909.90798 | pgbench_branches |            40960

 2017-02-05 02:08:31.010726+01 | 1486256911.01073 | pgbench_accounts |      13654122496
 2017-02-05 02:08:31.010726+01 | 1486256911.01073 | pgbench_tellers  |           450560
 2017-02-05 02:08:31.010726+01 | 1486256911.01073 | pgbench_history  |                0
 2017-02-05 02:08:31.010726+01 | 1486256911.01073 | pgbench_branches |            40960

 2017-02-05 02:08:32.099112+01 | 1486256912.09911 | pgbench_accounts |      13654122496
 2017-02-05 02:08:32.099112+01 | 1486256912.09911 | pgbench_tellers  |           450560
 2017-02-05 02:08:32.099112+01 | 1486256912.09911 | pgbench_history  |                0
 2017-02-05 02:08:32.099112+01 | 1486256912.09911 | pgbench_branches |            40960

 2017-02-05 02:08:33.161726+01 | 1486256913.16173 | pgbench_accounts |      13654122496
 2017-02-05 02:08:33.161726+01 | 1486256913.16173 | pgbench_tellers  |           450560
 2017-02-05 02:08:33.161726+01 | 1486256913.16173 | pgbench_history  |                0
 2017-02-05 02:08:33.161726+01 | 1486256913.16173 | pgbench_branches |            40960

 2017-02-05 02:08:34.247951+01 | 1486256914.24795 | pgbench_accounts |      13654122496
 2017-02-05 02:08:34.247951+01 | 1486256914.24795 | pgbench_tellers  |           450560
 2017-02-05 02:08:34.247951+01 | 1486256914.24795 | pgbench_history  |                0
 2017-02-05 02:08:34.247951+01 | 1486256914.24795 | pgbench_branches |            40960

 2017-02-05 02:08:35.33915+01 | 1486256915.33915 | pgbench_accounts |      13654122496
 2017-02-05 02:08:35.33915+01 | 1486256915.33915 | pgbench_tellers  |           450560
 2017-02-05 02:08:35.33915+01 | 1486256915.33915 | pgbench_history  |                0
 2017-02-05 02:08:35.33915+01 | 1486256915.33915 | pgbench_branches |            40960

 2017-02-05 02:08:36.42012+01 | 1486256916.42012 | pgbench_accounts |      13654122496
 2017-02-05 02:08:36.42012+01 | 1486256916.42012 | pgbench_tellers  |           450560
 2017-02-05 02:08:36.42012+01 | 1486256916.42012 | pgbench_history  |                0
 2017-02-05 02:08:36.42012+01 | 1486256916.42012 | pgbench_branches |            40960

 2017-02-05 02:08:37.504701+01 | 1486256917.5047 | pgbench_accounts |      13654122496
 2017-02-05 02:08:37.504701+01 | 1486256917.5047 | pgbench_tellers  |           450560
 2017-02-05 02:08:37.504701+01 | 1486256917.5047 | pgbench_history  |                0
 2017-02-05 02:08:37.504701+01 | 1486256917.5047 | pgbench_branches |            40960

 2017-02-05 02:08:38.595341+01 | 1486256918.59534 | pgbench_accounts |      13654122496
 2017-02-05 02:08:38.595341+01 | 1486256918.59534 | pgbench_tellers  |           450560
 2017-02-05 02:08:38.595341+01 | 1486256918.59534 | pgbench_history  |                0
 2017-02-05 02:08:38.595341+01 | 1486256918.59534 | pgbench_branches |            40960

 2017-02-05 02:08:39.674293+01 | 1486256919.67429 | pgbench_accounts |      13654122496
 2017-02-05 02:08:39.674293+01 | 1486256919.67429 | pgbench_tellers  |           450560
 2017-02-05 02:08:39.674293+01 | 1486256919.67429 | pgbench_history  |                0
 2017-02-05 02:08:39.674293+01 | 1486256919.67429 | pgbench_branches |            40960

 2017-02-05 02:08:40.754363+01 | 1486256920.75436 | pgbench_accounts |      13654122496
 2017-02-05 02:08:40.754363+01 | 1486256920.75436 | pgbench_tellers  |           450560
 2017-02-05 02:08:40.754363+01 | 1486256920.75436 | pgbench_history  |                0
 2017-02-05 02:08:40.754363+01 | 1486256920.75436 | pgbench_branches |            40960

 2017-02-05 02:08:41.837838+01 | 1486256921.83784 | pgbench_accounts |      13654122496
 2017-02-05 02:08:41.837838+01 | 1486256921.83784 | pgbench_tellers  |           450560
 2017-02-05 02:08:41.837838+01 | 1486256921.83784 | pgbench_history  |                0
 2017-02-05 02:08:41.837838+01 | 1486256921.83784 | pgbench_branches |            40960

 2017-02-05 02:08:42.928177+01 | 1486256922.92818 | pgbench_accounts |      13654122496
 2017-02-05 02:08:42.928177+01 | 1486256922.92818 | pgbench_tellers  |           450560
 2017-02-05 02:08:42.928177+01 | 1486256922.92818 | pgbench_history  |                0
 2017-02-05 02:08:42.928177+01 | 1486256922.92818 | pgbench_branches |            40960

 2017-02-05 02:08:44.010898+01 | 1486256924.0109 | pgbench_accounts |      13654122496
 2017-02-05 02:08:44.010898+01 | 1486256924.0109 | pgbench_tellers  |           450560
 2017-02-05 02:08:44.010898+01 | 1486256924.0109 | pgbench_history  |                0
 2017-02-05 02:08:44.010898+01 | 1486256924.0109 | pgbench_branches |            40960

 2017-02-05 02:08:45.098994+01 | 1486256925.09899 | pgbench_accounts |      13654122496
 2017-02-05 02:08:45.098994+01 | 1486256925.09899 | pgbench_tellers  |           450560
 2017-02-05 02:08:45.098994+01 | 1486256925.09899 | pgbench_history  |                0
 2017-02-05 02:08:45.098994+01 | 1486256925.09899 | pgbench_branches |            40960

 2017-02-05 02:08:46.19381+01 | 1486256926.19381 | pgbench_accounts |      13654122496
 2017-02-05 02:08:46.19381+01 | 1486256926.19381 | pgbench_tellers  |           450560
 2017-02-05 02:08:46.19381+01 | 1486256926.19381 | pgbench_history  |                0
 2017-02-05 02:08:46.19381+01 | 1486256926.19381 | pgbench_branches |            40960

 2017-02-05 02:08:47.293274+01 | 1486256927.29327 | pgbench_accounts |      13654122496
 2017-02-05 02:08:47.293274+01 | 1486256927.29327 | pgbench_tellers  |           450560
 2017-02-05 02:08:47.293274+01 | 1486256927.29327 | pgbench_history  |                0
 2017-02-05 02:08:47.293274+01 | 1486256927.29327 | pgbench_branches |            40960

 2017-02-05 02:08:48.397822+01 | 1486256928.39782 | pgbench_accounts |      13654122496
 2017-02-05 02:08:48.397822+01 | 1486256928.39782 | pgbench_tellers  |           450560
 2017-02-05 02:08:48.397822+01 | 1486256928.39782 | pgbench_history  |                0
 2017-02-05 02:08:48.397822+01 | 1486256928.39782 | pgbench_branches |            40960

 2017-02-05 02:08:49.491408+01 | 1486256929.49141 | pgbench_accounts |      13654122496
 2017-02-05 02:08:49.491408+01 | 1486256929.49141 | pgbench_tellers  |           450560
 2017-02-05 02:08:49.491408+01 | 1486256929.49141 | pgbench_history  |                0
 2017-02-05 02:08:49.491408+01 | 1486256929.49141 | pgbench_branches |            40960

 2017-02-05 02:08:50.582744+01 | 1486256930.58274 | pgbench_accounts |      13654122496
 2017-02-05 02:08:50.582744+01 | 1486256930.58274 | pgbench_tellers  |           450560
 2017-02-05 02:08:50.582744+01 | 1486256930.58274 | pgbench_history  |                0
 2017-02-05 02:08:50.582744+01 | 1486256930.58274 | pgbench_branches |            40960

 2017-02-05 02:08:51.657303+01 | 1486256931.6573 | pgbench_accounts |      13654122496
 2017-02-05 02:08:51.657303+01 | 1486256931.6573 | pgbench_tellers  |           450560
 2017-02-05 02:08:51.657303+01 | 1486256931.6573 | pgbench_history  |                0
 2017-02-05 02:08:51.657303+01 | 1486256931.6573 | pgbench_branches |            40960

 2017-02-05 02:08:52.739547+01 | 1486256932.73955 | pgbench_accounts |      13654122496
 2017-02-05 02:08:52.739547+01 | 1486256932.73955 | pgbench_tellers  |           450560
 2017-02-05 02:08:52.739547+01 | 1486256932.73955 | pgbench_history  |                0
 2017-02-05 02:08:52.739547+01 | 1486256932.73955 | pgbench_branches |            40960

 2017-02-05 02:08:53.833387+01 | 1486256933.83339 | pgbench_accounts |      13654122496
 2017-02-05 02:08:53.833387+01 | 1486256933.83339 | pgbench_tellers  |           450560
 2017-02-05 02:08:53.833387+01 | 1486256933.83339 | pgbench_history  |                0
 2017-02-05 02:08:53.833387+01 | 1486256933.83339 | pgbench_branches |            40960

 2017-02-05 02:08:54.924185+01 | 1486256934.92419 | pgbench_accounts |      13654122496
 2017-02-05 02:08:54.924185+01 | 1486256934.92419 | pgbench_tellers  |           450560
 2017-02-05 02:08:54.924185+01 | 1486256934.92419 | pgbench_history  |                0
 2017-02-05 02:08:54.924185+01 | 1486256934.92419 | pgbench_branches |            40960

 2017-02-05 02:08:56.012782+01 | 1486256936.01278 | pgbench_accounts |      13654122496
 2017-02-05 02:08:56.012782+01 | 1486256936.01278 | pgbench_tellers  |           450560
 2017-02-05 02:08:56.012782+01 | 1486256936.01278 | pgbench_history  |                0
 2017-02-05 02:08:56.012782+01 | 1486256936.01278 | pgbench_branches |            40960

 2017-02-05 02:08:57.098388+01 | 1486256937.09839 | pgbench_accounts |      13654122496
 2017-02-05 02:08:57.098388+01 | 1486256937.09839 | pgbench_tellers  |           450560
 2017-02-05 02:08:57.098388+01 | 1486256937.09839 | pgbench_history  |                0
 2017-02-05 02:08:57.098388+01 | 1486256937.09839 | pgbench_branches |            40960

 2017-02-05 02:08:58.181726+01 | 1486256938.18173 | pgbench_accounts |      13654122496
 2017-02-05 02:08:58.181726+01 | 1486256938.18173 | pgbench_tellers  |           450560
 2017-02-05 02:08:58.181726+01 | 1486256938.18173 | pgbench_history  |                0
 2017-02-05 02:08:58.181726+01 | 1486256938.18173 | pgbench_branches |            40960

 2017-02-05 02:08:59.265091+01 | 1486256939.26509 | pgbench_accounts |      13654122496
 2017-02-05 02:08:59.265091+01 | 1486256939.26509 | pgbench_tellers  |           450560
 2017-02-05 02:08:59.265091+01 | 1486256939.26509 | pgbench_history  |                0
 2017-02-05 02:08:59.265091+01 | 1486256939.26509 | pgbench_branches |            40960

 2017-02-05 02:09:00.357851+01 | 1486256940.35785 | pgbench_accounts |      13654122496
 2017-02-05 02:09:00.357851+01 | 1486256940.35785 | pgbench_tellers  |           450560
 2017-02-05 02:09:00.357851+01 | 1486256940.35785 | pgbench_history  |                0
 2017-02-05 02:09:00.357851+01 | 1486256940.35785 | pgbench_branches |            40960

 2017-02-05 02:09:01.465998+01 | 1486256941.466 | pgbench_accounts |      13654122496
 2017-02-05 02:09:01.465998+01 | 1486256941.466 | pgbench_tellers  |           450560
 2017-02-05 02:09:01.465998+01 | 1486256941.466 | pgbench_history  |                0
 2017-02-05 02:09:01.465998+01 | 1486256941.466 | pgbench_branches |            40960

 2017-02-05 02:09:02.549846+01 | 1486256942.54985 | pgbench_accounts |      13654122496
 2017-02-05 02:09:02.549846+01 | 1486256942.54985 | pgbench_tellers  |           450560
 2017-02-05 02:09:02.549846+01 | 1486256942.54985 | pgbench_history  |                0
 2017-02-05 02:09:02.549846+01 | 1486256942.54985 | pgbench_branches |            40960

 2017-02-05 02:09:03.630125+01 | 1486256943.63013 | pgbench_accounts |      13654122496
 2017-02-05 02:09:03.630125+01 | 1486256943.63013 | pgbench_tellers  |           450560
 2017-02-05 02:09:03.630125+01 | 1486256943.63013 | pgbench_history  |                0
 2017-02-05 02:09:03.630125+01 | 1486256943.63013 | pgbench_branches |            40960

 2017-02-05 02:09:04.713996+01 | 1486256944.714 | pgbench_accounts |      13654122496
 2017-02-05 02:09:04.713996+01 | 1486256944.714 | pgbench_tellers  |           450560
 2017-02-05 02:09:04.713996+01 | 1486256944.714 | pgbench_history  |                0
 2017-02-05 02:09:04.713996+01 | 1486256944.714 | pgbench_branches |            40960

 2017-02-05 02:09:05.795366+01 | 1486256945.79537 | pgbench_accounts |      13654122496
 2017-02-05 02:09:05.795366+01 | 1486256945.79537 | pgbench_tellers  |           450560
 2017-02-05 02:09:05.795366+01 | 1486256945.79537 | pgbench_history  |                0
 2017-02-05 02:09:05.795366+01 | 1486256945.79537 | pgbench_branches |            40960

 2017-02-05 02:09:06.873934+01 | 1486256946.87393 | pgbench_accounts |      13654122496
 2017-02-05 02:09:06.873934+01 | 1486256946.87393 | pgbench_tellers  |           450560
 2017-02-05 02:09:06.873934+01 | 1486256946.87393 | pgbench_history  |                0
 2017-02-05 02:09:06.873934+01 | 1486256946.87393 | pgbench_branches |            40960

 2017-02-05 02:09:07.961594+01 | 1486256947.96159 | pgbench_accounts |      13654122496
 2017-02-05 02:09:07.961594+01 | 1486256947.96159 | pgbench_tellers  |           450560
 2017-02-05 02:09:07.961594+01 | 1486256947.96159 | pgbench_history  |                0
 2017-02-05 02:09:07.961594+01 | 1486256947.96159 | pgbench_branches |            40960

 2017-02-05 02:09:09.050173+01 | 1486256949.05017 | pgbench_accounts |      13654122496
 2017-02-05 02:09:09.050173+01 | 1486256949.05017 | pgbench_tellers  |           450560
 2017-02-05 02:09:09.050173+01 | 1486256949.05017 | pgbench_history  |                0
 2017-02-05 02:09:09.050173+01 | 1486256949.05017 | pgbench_branches |            40960

 2017-02-05 02:09:10.144555+01 | 1486256950.14456 | pgbench_accounts |      13654122496
 2017-02-05 02:09:10.144555+01 | 1486256950.14456 | pgbench_tellers  |           450560
 2017-02-05 02:09:10.144555+01 | 1486256950.14456 | pgbench_history  |                0
 2017-02-05 02:09:10.144555+01 | 1486256950.14456 | pgbench_branches |            40960

 2017-02-05 02:09:11.226114+01 | 1486256951.22611 | pgbench_accounts |      13654122496
 2017-02-05 02:09:11.226114+01 | 1486256951.22611 | pgbench_tellers  |           450560
 2017-02-05 02:09:11.226114+01 | 1486256951.22611 | pgbench_history  |                0
 2017-02-05 02:09:11.226114+01 | 1486256951.22611 | pgbench_branches |            40960

 2017-02-05 02:09:12.322576+01 | 1486256952.32258 | pgbench_accounts |      13654122496
 2017-02-05 02:09:12.322576+01 | 1486256952.32258 | pgbench_tellers  |           450560
 2017-02-05 02:09:12.322576+01 | 1486256952.32258 | pgbench_history  |                0
 2017-02-05 02:09:12.322576+01 | 1486256952.32258 | pgbench_branches |            40960

 2017-02-05 02:09:13.41531+01 | 1486256953.41531 | pgbench_accounts |      13654122496
 2017-02-05 02:09:13.41531+01 | 1486256953.41531 | pgbench_tellers  |           450560
 2017-02-05 02:09:13.41531+01 | 1486256953.41531 | pgbench_history  |                0
 2017-02-05 02:09:13.41531+01 | 1486256953.41531 | pgbench_branches |            40960

 2017-02-05 02:09:14.51292+01 | 1486256954.51292 | pgbench_accounts |      13654122496
 2017-02-05 02:09:14.51292+01 | 1486256954.51292 | pgbench_tellers  |           450560
 2017-02-05 02:09:14.51292+01 | 1486256954.51292 | pgbench_history  |                0
 2017-02-05 02:09:14.51292+01 | 1486256954.51292 | pgbench_branches |            40960

 2017-02-05 02:09:15.613835+01 | 1486256955.61384 | pgbench_accounts |      13654122496
 2017-02-05 02:09:15.613835+01 | 1486256955.61384 | pgbench_tellers  |           450560
 2017-02-05 02:09:15.613835+01 | 1486256955.61384 | pgbench_history  |                0
 2017-02-05 02:09:15.613835+01 | 1486256955.61384 | pgbench_branches |            40960

 2017-02-05 02:09:16.709052+01 | 1486256956.70905 | pgbench_accounts |      13654122496
 2017-02-05 02:09:16.709052+01 | 1486256956.70905 | pgbench_tellers  |           450560
 2017-02-05 02:09:16.709052+01 | 1486256956.70905 | pgbench_history  |                0
 2017-02-05 02:09:16.709052+01 | 1486256956.70905 | pgbench_branches |            40960

 2017-02-05 02:09:17.785353+01 | 1486256957.78535 | pgbench_accounts |      13654122496
 2017-02-05 02:09:17.785353+01 | 1486256957.78535 | pgbench_tellers  |           450560
 2017-02-05 02:09:17.785353+01 | 1486256957.78535 | pgbench_history  |                0
 2017-02-05 02:09:17.785353+01 | 1486256957.78535 | pgbench_branches |            40960

 2017-02-05 02:09:18.861173+01 | 1486256958.86117 | pgbench_accounts |      13654122496
 2017-02-05 02:09:18.861173+01 | 1486256958.86117 | pgbench_tellers  |           450560
 2017-02-05 02:09:18.861173+01 | 1486256958.86117 | pgbench_history  |                0
 2017-02-05 02:09:18.861173+01 | 1486256958.86117 | pgbench_branches |            40960

 2017-02-05 02:09:19.941986+01 | 1486256959.94199 | pgbench_accounts |      13654122496
 2017-02-05 02:09:19.941986+01 | 1486256959.94199 | pgbench_tellers  |           450560
 2017-02-05 02:09:19.941986+01 | 1486256959.94199 | pgbench_history  |                0
 2017-02-05 02:09:19.941986+01 | 1486256959.94199 | pgbench_branches |            40960

 2017-02-05 02:09:21.029773+01 | 1486256961.02977 | pgbench_accounts |      13654122496
 2017-02-05 02:09:21.029773+01 | 1486256961.02977 | pgbench_tellers  |           450560
 2017-02-05 02:09:21.029773+01 | 1486256961.02977 | pgbench_history  |                0
 2017-02-05 02:09:21.029773+01 | 1486256961.02977 | pgbench_branches |            40960

 2017-02-05 02:09:22.111943+01 | 1486256962.11194 | pgbench_accounts |      13654122496
 2017-02-05 02:09:22.111943+01 | 1486256962.11194 | pgbench_tellers  |           450560
 2017-02-05 02:09:22.111943+01 | 1486256962.11194 | pgbench_history  |                0
 2017-02-05 02:09:22.111943+01 | 1486256962.11194 | pgbench_branches |            40960

 2017-02-05 02:09:23.202668+01 | 1486256963.20267 | pgbench_accounts |      13654122496
 2017-02-05 02:09:23.202668+01 | 1486256963.20267 | pgbench_tellers  |           450560
 2017-02-05 02:09:23.202668+01 | 1486256963.20267 | pgbench_history  |                0
 2017-02-05 02:09:23.202668+01 | 1486256963.20267 | pgbench_branches |            40960

 2017-02-05 02:09:24.294688+01 | 1486256964.29469 | pgbench_accounts |      13654122496
 2017-02-05 02:09:24.294688+01 | 1486256964.29469 | pgbench_tellers  |           450560
 2017-02-05 02:09:24.294688+01 | 1486256964.29469 | pgbench_history  |                0
 2017-02-05 02:09:24.294688+01 | 1486256964.29469 | pgbench_branches |            40960

 2017-02-05 02:09:25.368732+01 | 1486256965.36873 | pgbench_accounts |      13654122496
 2017-02-05 02:09:25.368732+01 | 1486256965.36873 | pgbench_tellers  |           450560
 2017-02-05 02:09:25.368732+01 | 1486256965.36873 | pgbench_history  |                0
 2017-02-05 02:09:25.368732+01 | 1486256965.36873 | pgbench_branches |            40960

 2017-02-05 02:09:26.45974+01 | 1486256966.45974 | pgbench_accounts |      13654122496
 2017-02-05 02:09:26.45974+01 | 1486256966.45974 | pgbench_tellers  |           450560
 2017-02-05 02:09:26.45974+01 | 1486256966.45974 | pgbench_history  |                0
 2017-02-05 02:09:26.45974+01 | 1486256966.45974 | pgbench_branches |            40960

 2017-02-05 02:09:27.553022+01 | 1486256967.55302 | pgbench_accounts |      13654122496
 2017-02-05 02:09:27.553022+01 | 1486256967.55302 | pgbench_tellers  |           450560
 2017-02-05 02:09:27.553022+01 | 1486256967.55302 | pgbench_history  |                0
 2017-02-05 02:09:27.553022+01 | 1486256967.55302 | pgbench_branches |            40960

 2017-02-05 02:09:28.638372+01 | 1486256968.63837 | pgbench_accounts |      13654122496
 2017-02-05 02:09:28.638372+01 | 1486256968.63837 | pgbench_tellers  |           450560
 2017-02-05 02:09:28.638372+01 | 1486256968.63837 | pgbench_history  |                0
 2017-02-05 02:09:28.638372+01 | 1486256968.63837 | pgbench_branches |            40960

 2017-02-05 02:09:29.720613+01 | 1486256969.72061 | pgbench_accounts |      13654122496
 2017-02-05 02:09:29.720613+01 | 1486256969.72061 | pgbench_tellers  |           450560
 2017-02-05 02:09:29.720613+01 | 1486256969.72061 | pgbench_history  |                0
 2017-02-05 02:09:29.720613+01 | 1486256969.72061 | pgbench_branches |            40960

 2017-02-05 02:09:30.799488+01 | 1486256970.79949 | pgbench_accounts |      13654122496
 2017-02-05 02:09:30.799488+01 | 1486256970.79949 | pgbench_tellers  |           450560
 2017-02-05 02:09:30.799488+01 | 1486256970.79949 | pgbench_history  |                0
 2017-02-05 02:09:30.799488+01 | 1486256970.79949 | pgbench_branches |            40960

 2017-02-05 02:09:31.889634+01 | 1486256971.88963 | pgbench_accounts |      13654122496
 2017-02-05 02:09:31.889634+01 | 1486256971.88963 | pgbench_tellers  |           450560
 2017-02-05 02:09:31.889634+01 | 1486256971.88963 | pgbench_history  |                0
 2017-02-05 02:09:31.889634+01 | 1486256971.88963 | pgbench_branches |            40960

 2017-02-05 02:09:32.966336+01 | 1486256972.96634 | pgbench_accounts |      13654122496
 2017-02-05 02:09:32.966336+01 | 1486256972.96634 | pgbench_tellers  |           450560
 2017-02-05 02:09:32.966336+01 | 1486256972.96634 | pgbench_history  |                0
 2017-02-05 02:09:32.966336+01 | 1486256972.96634 | pgbench_branches |            40960

 2017-02-05 02:09:34.051821+01 | 1486256974.05182 | pgbench_accounts |      13654122496
 2017-02-05 02:09:34.051821+01 | 1486256974.05182 | pgbench_tellers  |           450560
 2017-02-05 02:09:34.051821+01 | 1486256974.05182 | pgbench_history  |                0
 2017-02-05 02:09:34.051821+01 | 1486256974.05182 | pgbench_branches |            40960

 2017-02-05 02:09:35.138063+01 | 1486256975.13806 | pgbench_accounts |      13654122496
 2017-02-05 02:09:35.138063+01 | 1486256975.13806 | pgbench_tellers  |           450560
 2017-02-05 02:09:35.138063+01 | 1486256975.13806 | pgbench_history  |                0
 2017-02-05 02:09:35.138063+01 | 1486256975.13806 | pgbench_branches |            40960

 2017-02-05 02:09:36.239725+01 | 1486256976.23973 | pgbench_accounts |      13654122496
 2017-02-05 02:09:36.239725+01 | 1486256976.23973 | pgbench_tellers  |           450560
 2017-02-05 02:09:36.239725+01 | 1486256976.23973 | pgbench_history  |                0
 2017-02-05 02:09:36.239725+01 | 1486256976.23973 | pgbench_branches |            40960

 2017-02-05 02:09:37.335101+01 | 1486256977.3351 | pgbench_accounts |      13654122496
 2017-02-05 02:09:37.335101+01 | 1486256977.3351 | pgbench_tellers  |           450560
 2017-02-05 02:09:37.335101+01 | 1486256977.3351 | pgbench_history  |                0
 2017-02-05 02:09:37.335101+01 | 1486256977.3351 | pgbench_branches |            40960

 2017-02-05 02:09:38.417569+01 | 1486256978.41757 | pgbench_accounts |      13654122496
 2017-02-05 02:09:38.417569+01 | 1486256978.41757 | pgbench_tellers  |           450560
 2017-02-05 02:09:38.417569+01 | 1486256978.41757 | pgbench_history  |                0
 2017-02-05 02:09:38.417569+01 | 1486256978.41757 | pgbench_branches |            40960

 2017-02-05 02:09:39.508175+01 | 1486256979.50817 | pgbench_accounts |      13654122496
 2017-02-05 02:09:39.508175+01 | 1486256979.50817 | pgbench_tellers  |           450560
 2017-02-05 02:09:39.508175+01 | 1486256979.50817 | pgbench_history  |                0
 2017-02-05 02:09:39.508175+01 | 1486256979.50817 | pgbench_branches |            40960

 2017-02-05 02:09:40.597506+01 | 1486256980.59751 | pgbench_accounts |      13654122496
 2017-02-05 02:09:40.597506+01 | 1486256980.59751 | pgbench_tellers  |           450560
 2017-02-05 02:09:40.597506+01 | 1486256980.59751 | pgbench_history  |                0
 2017-02-05 02:09:40.597506+01 | 1486256980.59751 | pgbench_branches |            40960

 2017-02-05 02:09:41.681322+01 | 1486256981.68132 | pgbench_accounts |      13654122496
 2017-02-05 02:09:41.681322+01 | 1486256981.68132 | pgbench_tellers  |           450560
 2017-02-05 02:09:41.681322+01 | 1486256981.68132 | pgbench_history  |                0
 2017-02-05 02:09:41.681322+01 | 1486256981.68132 | pgbench_branches |            40960

 2017-02-05 02:09:42.768354+01 | 1486256982.76835 | pgbench_accounts |      13654122496
 2017-02-05 02:09:42.768354+01 | 1486256982.76835 | pgbench_tellers  |           450560
 2017-02-05 02:09:42.768354+01 | 1486256982.76835 | pgbench_history  |                0
 2017-02-05 02:09:42.768354+01 | 1486256982.76835 | pgbench_branches |            40960

 2017-02-05 02:09:43.838829+01 | 1486256983.83883 | pgbench_accounts |      13654122496
 2017-02-05 02:09:43.838829+01 | 1486256983.83883 | pgbench_tellers  |           450560
 2017-02-05 02:09:43.838829+01 | 1486256983.83883 | pgbench_history  |                0
 2017-02-05 02:09:43.838829+01 | 1486256983.83883 | pgbench_branches |            40960

 2017-02-05 02:09:44.917968+01 | 1486256984.91797 | pgbench_accounts |      13654122496
 2017-02-05 02:09:44.917968+01 | 1486256984.91797 | pgbench_tellers  |           450560
 2017-02-05 02:09:44.917968+01 | 1486256984.91797 | pgbench_history  |                0
 2017-02-05 02:09:44.917968+01 | 1486256984.91797 | pgbench_branches |            40960

 2017-02-05 02:09:46.002282+01 | 1486256986.00228 | pgbench_accounts |      13654122496
 2017-02-05 02:09:46.002282+01 | 1486256986.00228 | pgbench_tellers  |           450560
 2017-02-05 02:09:46.002282+01 | 1486256986.00228 | pgbench_history  |                0
 2017-02-05 02:09:46.002282+01 | 1486256986.00228 | pgbench_branches |            40960

 2017-02-05 02:09:47.085996+01 | 1486256987.086 | pgbench_accounts |      13654122496
 2017-02-05 02:09:47.085996+01 | 1486256987.086 | pgbench_tellers  |           450560
 2017-02-05 02:09:47.085996+01 | 1486256987.086 | pgbench_history  |                0
 2017-02-05 02:09:47.085996+01 | 1486256987.086 | pgbench_branches |            40960

 2017-02-05 02:09:48.173725+01 | 1486256988.17372 | pgbench_accounts |      13654122496
 2017-02-05 02:09:48.173725+01 | 1486256988.17372 | pgbench_tellers  |           450560
 2017-02-05 02:09:48.173725+01 | 1486256988.17372 | pgbench_history  |                0
 2017-02-05 02:09:48.173725+01 | 1486256988.17372 | pgbench_branches |            40960

 2017-02-05 02:09:49.264413+01 | 1486256989.26441 | pgbench_accounts |      13654122496
 2017-02-05 02:09:49.264413+01 | 1486256989.26441 | pgbench_tellers  |           450560
 2017-02-05 02:09:49.264413+01 | 1486256989.26441 | pgbench_history  |                0
 2017-02-05 02:09:49.264413+01 | 1486256989.26441 | pgbench_branches |            40960

 2017-02-05 02:09:50.352607+01 | 1486256990.35261 | pgbench_accounts |      13654122496
 2017-02-05 02:09:50.352607+01 | 1486256990.35261 | pgbench_tellers  |           450560
 2017-02-05 02:09:50.352607+01 | 1486256990.35261 | pgbench_history  |                0
 2017-02-05 02:09:50.352607+01 | 1486256990.35261 | pgbench_branches |            40960

 2017-02-05 02:09:51.44189+01 | 1486256991.44189 | pgbench_accounts |      13654122496
 2017-02-05 02:09:51.44189+01 | 1486256991.44189 | pgbench_tellers  |           450560
 2017-02-05 02:09:51.44189+01 | 1486256991.44189 | pgbench_history  |                0
 2017-02-05 02:09:51.44189+01 | 1486256991.44189 | pgbench_branches |            40960

 2017-02-05 02:09:52.523266+01 | 1486256992.52327 | pgbench_accounts |      13654122496
 2017-02-05 02:09:52.523266+01 | 1486256992.52327 | pgbench_tellers  |           450560
 2017-02-05 02:09:52.523266+01 | 1486256992.52327 | pgbench_history  |                0
 2017-02-05 02:09:52.523266+01 | 1486256992.52327 | pgbench_branches |            40960

 2017-02-05 02:09:53.603979+01 | 1486256993.60398 | pgbench_accounts |      13654122496
 2017-02-05 02:09:53.603979+01 | 1486256993.60398 | pgbench_tellers  |           450560
 2017-02-05 02:09:53.603979+01 | 1486256993.60398 | pgbench_history  |                0
 2017-02-05 02:09:53.603979+01 | 1486256993.60398 | pgbench_branches |            40960

 2017-02-05 02:09:54.692347+01 | 1486256994.69235 | pgbench_accounts |      13654122496
 2017-02-05 02:09:54.692347+01 | 1486256994.69235 | pgbench_tellers  |           450560
 2017-02-05 02:09:54.692347+01 | 1486256994.69235 | pgbench_history  |                0
 2017-02-05 02:09:54.692347+01 | 1486256994.69235 | pgbench_branches |            40960

 2017-02-05 02:09:55.786315+01 | 1486256995.78631 | pgbench_accounts |      13654122496
 2017-02-05 02:09:55.786315+01 | 1486256995.78631 | pgbench_tellers  |           450560
 2017-02-05 02:09:55.786315+01 | 1486256995.78631 | pgbench_history  |                0
 2017-02-05 02:09:55.786315+01 | 1486256995.78631 | pgbench_branches |            40960

 2017-02-05 02:09:56.871624+01 | 1486256996.87162 | pgbench_accounts |      13654122496
 2017-02-05 02:09:56.871624+01 | 1486256996.87162 | pgbench_tellers  |           450560
 2017-02-05 02:09:56.871624+01 | 1486256996.87162 | pgbench_history  |                0
 2017-02-05 02:09:56.871624+01 | 1486256996.87162 | pgbench_branches |            40960

 2017-02-05 02:09:57.956035+01 | 1486256997.95603 | pgbench_accounts |      13654122496
 2017-02-05 02:09:57.956035+01 | 1486256997.95603 | pgbench_tellers  |           450560
 2017-02-05 02:09:57.956035+01 | 1486256997.95603 | pgbench_history  |                0
 2017-02-05 02:09:57.956035+01 | 1486256997.95603 | pgbench_branches |            40960

 2017-02-05 02:09:59.041582+01 | 1486256999.04158 | pgbench_accounts |      13654122496
 2017-02-05 02:09:59.041582+01 | 1486256999.04158 | pgbench_tellers  |           450560
 2017-02-05 02:09:59.041582+01 | 1486256999.04158 | pgbench_history  |                0
 2017-02-05 02:09:59.041582+01 | 1486256999.04158 | pgbench_branches |            40960

 2017-02-05 02:10:00.126299+01 | 1486257000.1263 | pgbench_accounts |      13654122496
 2017-02-05 02:10:00.126299+01 | 1486257000.1263 | pgbench_tellers  |           450560
 2017-02-05 02:10:00.126299+01 | 1486257000.1263 | pgbench_history  |                0
 2017-02-05 02:10:00.126299+01 | 1486257000.1263 | pgbench_branches |            40960

 2017-02-05 02:10:01.210966+01 | 1486257001.21097 | pgbench_accounts |      13654122496
 2017-02-05 02:10:01.210966+01 | 1486257001.21097 | pgbench_tellers  |           450560
 2017-02-05 02:10:01.210966+01 | 1486257001.21097 | pgbench_history  |                0
 2017-02-05 02:10:01.210966+01 | 1486257001.21097 | pgbench_branches |            40960

 2017-02-05 02:10:02.299211+01 | 1486257002.29921 | pgbench_accounts |      13654122496
 2017-02-05 02:10:02.299211+01 | 1486257002.29921 | pgbench_tellers  |           450560
 2017-02-05 02:10:02.299211+01 | 1486257002.29921 | pgbench_history  |                0
 2017-02-05 02:10:02.299211+01 | 1486257002.29921 | pgbench_branches |            40960

 2017-02-05 02:10:03.384424+01 | 1486257003.38442 | pgbench_accounts |      13654122496
 2017-02-05 02:10:03.384424+01 | 1486257003.38442 | pgbench_tellers  |           450560
 2017-02-05 02:10:03.384424+01 | 1486257003.38442 | pgbench_history  |                0
 2017-02-05 02:10:03.384424+01 | 1486257003.38442 | pgbench_branches |            40960

 2017-02-05 02:10:04.465074+01 | 1486257004.46507 | pgbench_accounts |      13654122496
 2017-02-05 02:10:04.465074+01 | 1486257004.46507 | pgbench_tellers  |           450560
 2017-02-05 02:10:04.465074+01 | 1486257004.46507 | pgbench_history  |                0
 2017-02-05 02:10:04.465074+01 | 1486257004.46507 | pgbench_branches |            40960

 2017-02-05 02:10:05.552523+01 | 1486257005.55252 | pgbench_accounts |      13654122496
 2017-02-05 02:10:05.552523+01 | 1486257005.55252 | pgbench_tellers  |           450560
 2017-02-05 02:10:05.552523+01 | 1486257005.55252 | pgbench_history  |                0
 2017-02-05 02:10:05.552523+01 | 1486257005.55252 | pgbench_branches |            40960

 2017-02-05 02:10:06.636489+01 | 1486257006.63649 | pgbench_accounts |      13654122496
 2017-02-05 02:10:06.636489+01 | 1486257006.63649 | pgbench_tellers  |           450560
 2017-02-05 02:10:06.636489+01 | 1486257006.63649 | pgbench_history  |                0
 2017-02-05 02:10:06.636489+01 | 1486257006.63649 | pgbench_branches |            40960

 2017-02-05 02:10:07.731105+01 | 1486257007.73111 | pgbench_accounts |      13654122496
 2017-02-05 02:10:07.731105+01 | 1486257007.73111 | pgbench_tellers  |           450560
 2017-02-05 02:10:07.731105+01 | 1486257007.73111 | pgbench_history  |                0
 2017-02-05 02:10:07.731105+01 | 1486257007.73111 | pgbench_branches |            40960

 2017-02-05 02:10:08.806848+01 | 1486257008.80685 | pgbench_accounts |      13654122496
 2017-02-05 02:10:08.806848+01 | 1486257008.80685 | pgbench_tellers  |           450560
 2017-02-05 02:10:08.806848+01 | 1486257008.80685 | pgbench_history  |                0
 2017-02-05 02:10:08.806848+01 | 1486257008.80685 | pgbench_branches |            40960

 2017-02-05 02:10:09.886972+01 | 1486257009.88697 | pgbench_accounts |      13654122496
 2017-02-05 02:10:09.886972+01 | 1486257009.88697 | pgbench_tellers  |           450560
 2017-02-05 02:10:09.886972+01 | 1486257009.88697 | pgbench_history  |                0
 2017-02-05 02:10:09.886972+01 | 1486257009.88697 | pgbench_branches |            40960

 2017-02-05 02:10:10.983335+01 | 1486257010.98334 | pgbench_accounts |      13654122496
 2017-02-05 02:10:10.983335+01 | 1486257010.98334 | pgbench_tellers  |           450560
 2017-02-05 02:10:10.983335+01 | 1486257010.98334 | pgbench_history  |                0
 2017-02-05 02:10:10.983335+01 | 1486257010.98334 | pgbench_branches |            40960

 2017-02-05 02:10:12.072319+01 | 1486257012.07232 | pgbench_accounts |      13654122496
 2017-02-05 02:10:12.072319+01 | 1486257012.07232 | pgbench_tellers  |           450560
 2017-02-05 02:10:12.072319+01 | 1486257012.07232 | pgbench_history  |                0
 2017-02-05 02:10:12.072319+01 | 1486257012.07232 | pgbench_branches |            40960

 2017-02-05 02:10:13.158551+01 | 1486257013.15855 | pgbench_accounts |      13654122496
 2017-02-05 02:10:13.158551+01 | 1486257013.15855 | pgbench_tellers  |           450560
 2017-02-05 02:10:13.158551+01 | 1486257013.15855 | pgbench_history  |                0
 2017-02-05 02:10:13.158551+01 | 1486257013.15855 | pgbench_branches |            40960

 2017-02-05 02:10:14.243114+01 | 1486257014.24311 | pgbench_accounts |      13654122496
 2017-02-05 02:10:14.243114+01 | 1486257014.24311 | pgbench_tellers  |           450560
 2017-02-05 02:10:14.243114+01 | 1486257014.24311 | pgbench_history  |                0
 2017-02-05 02:10:14.243114+01 | 1486257014.24311 | pgbench_branches |            40960

 2017-02-05 02:10:15.33339+01 | 1486257015.33339 | pgbench_accounts |      13654122496
 2017-02-05 02:10:15.33339+01 | 1486257015.33339 | pgbench_tellers  |           450560
 2017-02-05 02:10:15.33339+01 | 1486257015.33339 | pgbench_history  |                0
 2017-02-05 02:10:15.33339+01 | 1486257015.33339 | pgbench_branches |            40960

 2017-02-05 02:10:16.423423+01 | 1486257016.42342 | pgbench_accounts |      13654122496
 2017-02-05 02:10:16.423423+01 | 1486257016.42342 | pgbench_tellers  |           450560
 2017-02-05 02:10:16.423423+01 | 1486257016.42342 | pgbench_history  |                0
 2017-02-05 02:10:16.423423+01 | 1486257016.42342 | pgbench_branches |            40960

 2017-02-05 02:10:17.510084+01 | 1486257017.51008 | pgbench_accounts |      13654122496
 2017-02-05 02:10:17.510084+01 | 1486257017.51008 | pgbench_tellers  |           450560
 2017-02-05 02:10:17.510084+01 | 1486257017.51008 | pgbench_history  |                0
 2017-02-05 02:10:17.510084+01 | 1486257017.51008 | pgbench_branches |            40960

 2017-02-05 02:10:18.606274+01 | 1486257018.60627 | pgbench_accounts |      13654122496
 2017-02-05 02:10:18.606274+01 | 1486257018.60627 | pgbench_tellers  |           450560
 2017-02-05 02:10:18.606274+01 | 1486257018.60627 | pgbench_history  |                0
 2017-02-05 02:10:18.606274+01 | 1486257018.60627 | pgbench_branches |            40960

 2017-02-05 02:10:19.696459+01 | 1486257019.69646 | pgbench_accounts |      13654122496
 2017-02-05 02:10:19.696459+01 | 1486257019.69646 | pgbench_tellers  |           450560
 2017-02-05 02:10:19.696459+01 | 1486257019.69646 | pgbench_history  |                0
 2017-02-05 02:10:19.696459+01 | 1486257019.69646 | pgbench_branches |            40960

 2017-02-05 02:10:20.766566+01 | 1486257020.76657 | pgbench_accounts |      13654122496
 2017-02-05 02:10:20.766566+01 | 1486257020.76657 | pgbench_tellers  |           450560
 2017-02-05 02:10:20.766566+01 | 1486257020.76657 | pgbench_history  |                0
 2017-02-05 02:10:20.766566+01 | 1486257020.76657 | pgbench_branches |            40960

 2017-02-05 02:10:21.854938+01 | 1486257021.85494 | pgbench_accounts |      13654122496
 2017-02-05 02:10:21.854938+01 | 1486257021.85494 | pgbench_tellers  |           450560
 2017-02-05 02:10:21.854938+01 | 1486257021.85494 | pgbench_history  |                0
 2017-02-05 02:10:21.854938+01 | 1486257021.85494 | pgbench_branches |            40960

 2017-02-05 02:10:22.938953+01 | 1486257022.93895 | pgbench_accounts |      13654122496
 2017-02-05 02:10:22.938953+01 | 1486257022.93895 | pgbench_tellers  |           450560
 2017-02-05 02:10:22.938953+01 | 1486257022.93895 | pgbench_history  |                0
 2017-02-05 02:10:22.938953+01 | 1486257022.93895 | pgbench_branches |            40960

 2017-02-05 02:10:24.014535+01 | 1486257024.01453 | pgbench_accounts |      13654122496
 2017-02-05 02:10:24.014535+01 | 1486257024.01453 | pgbench_tellers  |           450560
 2017-02-05 02:10:24.014535+01 | 1486257024.01453 | pgbench_history  |                0
 2017-02-05 02:10:24.014535+01 | 1486257024.01453 | pgbench_branches |            40960

 2017-02-05 02:10:25.10401+01 | 1486257025.10401 | pgbench_accounts |      13654122496
 2017-02-05 02:10:25.10401+01 | 1486257025.10401 | pgbench_tellers  |           450560
 2017-02-05 02:10:25.10401+01 | 1486257025.10401 | pgbench_history  |                0
 2017-02-05 02:10:25.10401+01 | 1486257025.10401 | pgbench_branches |            40960

 2017-02-05 02:10:26.183233+01 | 1486257026.18323 | pgbench_accounts |      13654122496
 2017-02-05 02:10:26.183233+01 | 1486257026.18323 | pgbench_tellers  |           450560
 2017-02-05 02:10:26.183233+01 | 1486257026.18323 | pgbench_history  |                0
 2017-02-05 02:10:26.183233+01 | 1486257026.18323 | pgbench_branches |            40960

 2017-02-05 02:10:27.267917+01 | 1486257027.26792 | pgbench_accounts |      13654122496
 2017-02-05 02:10:27.267917+01 | 1486257027.26792 | pgbench_tellers  |           450560
 2017-02-05 02:10:27.267917+01 | 1486257027.26792 | pgbench_history  |                0
 2017-02-05 02:10:27.267917+01 | 1486257027.26792 | pgbench_branches |            40960

 2017-02-05 02:10:28.355596+01 | 1486257028.3556 | pgbench_accounts |      13654122496
 2017-02-05 02:10:28.355596+01 | 1486257028.3556 | pgbench_tellers  |           450560
 2017-02-05 02:10:28.355596+01 | 1486257028.3556 | pgbench_history  |                0
 2017-02-05 02:10:28.355596+01 | 1486257028.3556 | pgbench_branches |            40960

 2017-02-05 02:10:29.464399+01 | 1486257029.4644 | pgbench_accounts |      13654122496
 2017-02-05 02:10:29.464399+01 | 1486257029.4644 | pgbench_tellers  |           450560
 2017-02-05 02:10:29.464399+01 | 1486257029.4644 | pgbench_history  |                0
 2017-02-05 02:10:29.464399+01 | 1486257029.4644 | pgbench_branches |            40960

 2017-02-05 02:10:30.56439+01 | 1486257030.56439 | pgbench_accounts |      13654122496
 2017-02-05 02:10:30.56439+01 | 1486257030.56439 | pgbench_tellers  |           450560
 2017-02-05 02:10:30.56439+01 | 1486257030.56439 | pgbench_history  |                0
 2017-02-05 02:10:30.56439+01 | 1486257030.56439 | pgbench_branches |            40960

 2017-02-05 02:10:31.656376+01 | 1486257031.65638 | pgbench_accounts |      13654122496
 2017-02-05 02:10:31.656376+01 | 1486257031.65638 | pgbench_tellers  |           450560
 2017-02-05 02:10:31.656376+01 | 1486257031.65638 | pgbench_history  |                0
 2017-02-05 02:10:31.656376+01 | 1486257031.65638 | pgbench_branches |            40960

 2017-02-05 02:10:32.744778+01 | 1486257032.74478 | pgbench_accounts |      13654122496
 2017-02-05 02:10:32.744778+01 | 1486257032.74478 | pgbench_tellers  |           450560
 2017-02-05 02:10:32.744778+01 | 1486257032.74478 | pgbench_history  |                0
 2017-02-05 02:10:32.744778+01 | 1486257032.74478 | pgbench_branches |            40960

 2017-02-05 02:10:33.830182+01 | 1486257033.83018 | pgbench_accounts |      13654122496
 2017-02-05 02:10:33.830182+01 | 1486257033.83018 | pgbench_tellers  |           450560
 2017-02-05 02:10:33.830182+01 | 1486257033.83018 | pgbench_history  |                0
 2017-02-05 02:10:33.830182+01 | 1486257033.83018 | pgbench_branches |            40960

 2017-02-05 02:10:34.920952+01 | 1486257034.92095 | pgbench_accounts |      13654122496
 2017-02-05 02:10:34.920952+01 | 1486257034.92095 | pgbench_tellers  |           450560
 2017-02-05 02:10:34.920952+01 | 1486257034.92095 | pgbench_history  |                0
 2017-02-05 02:10:34.920952+01 | 1486257034.92095 | pgbench_branches |            40960

 2017-02-05 02:10:36.003779+01 | 1486257036.00378 | pgbench_accounts |      13654122496
 2017-02-05 02:10:36.003779+01 | 1486257036.00378 | pgbench_tellers  |           450560
 2017-02-05 02:10:36.003779+01 | 1486257036.00378 | pgbench_history  |                0
 2017-02-05 02:10:36.003779+01 | 1486257036.00378 | pgbench_branches |            40960

 2017-02-05 02:10:37.08589+01 | 1486257037.08589 | pgbench_accounts |      13654122496
 2017-02-05 02:10:37.08589+01 | 1486257037.08589 | pgbench_tellers  |           450560
 2017-02-05 02:10:37.08589+01 | 1486257037.08589 | pgbench_history  |                0
 2017-02-05 02:10:37.08589+01 | 1486257037.08589 | pgbench_branches |            40960

 2017-02-05 02:10:38.186185+01 | 1486257038.18618 | pgbench_accounts |      13654122496
 2017-02-05 02:10:38.186185+01 | 1486257038.18618 | pgbench_tellers  |           450560
 2017-02-05 02:10:38.186185+01 | 1486257038.18618 | pgbench_history  |                0
 2017-02-05 02:10:38.186185+01 | 1486257038.18618 | pgbench_branches |            40960

 2017-02-05 02:10:39.268177+01 | 1486257039.26818 | pgbench_accounts |      13654122496
 2017-02-05 02:10:39.268177+01 | 1486257039.26818 | pgbench_tellers  |           450560
 2017-02-05 02:10:39.268177+01 | 1486257039.26818 | pgbench_history  |                0
 2017-02-05 02:10:39.268177+01 | 1486257039.26818 | pgbench_branches |            40960

 2017-02-05 02:10:40.351736+01 | 1486257040.35174 | pgbench_accounts |      13654122496
 2017-02-05 02:10:40.351736+01 | 1486257040.35174 | pgbench_tellers  |           450560
 2017-02-05 02:10:40.351736+01 | 1486257040.35174 | pgbench_history  |                0
 2017-02-05 02:10:40.351736+01 | 1486257040.35174 | pgbench_branches |            40960

 2017-02-05 02:10:41.433794+01 | 1486257041.43379 | pgbench_accounts |      13654122496
 2017-02-05 02:10:41.433794+01 | 1486257041.43379 | pgbench_tellers  |           450560
 2017-02-05 02:10:41.433794+01 | 1486257041.43379 | pgbench_history  |                0
 2017-02-05 02:10:41.433794+01 | 1486257041.43379 | pgbench_branches |            40960

 2017-02-05 02:10:42.513976+01 | 1486257042.51398 | pgbench_accounts |      13654122496
 2017-02-05 02:10:42.513976+01 | 1486257042.51398 | pgbench_tellers  |           450560
 2017-02-05 02:10:42.513976+01 | 1486257042.51398 | pgbench_history  |                0
 2017-02-05 02:10:42.513976+01 | 1486257042.51398 | pgbench_branches |            40960

 2017-02-05 02:10:43.596214+01 | 1486257043.59621 | pgbench_accounts |      13654122496
 2017-02-05 02:10:43.596214+01 | 1486257043.59621 | pgbench_tellers  |           450560
 2017-02-05 02:10:43.596214+01 | 1486257043.59621 | pgbench_history  |                0
 2017-02-05 02:10:43.596214+01 | 1486257043.59621 | pgbench_branches |            40960

 2017-02-05 02:10:44.678047+01 | 1486257044.67805 | pgbench_accounts |      13654122496
 2017-02-05 02:10:44.678047+01 | 1486257044.67805 | pgbench_tellers  |           450560
 2017-02-05 02:10:44.678047+01 | 1486257044.67805 | pgbench_history  |                0
 2017-02-05 02:10:44.678047+01 | 1486257044.67805 | pgbench_branches |            40960

 2017-02-05 02:10:45.756386+01 | 1486257045.75639 | pgbench_accounts |      13654122496
 2017-02-05 02:10:45.756386+01 | 1486257045.75639 | pgbench_tellers  |           450560
 2017-02-05 02:10:45.756386+01 | 1486257045.75639 | pgbench_history  |                0
 2017-02-05 02:10:45.756386+01 | 1486257045.75639 | pgbench_branches |            40960

 2017-02-05 02:10:46.841942+01 | 1486257046.84194 | pgbench_accounts |      13654122496
 2017-02-05 02:10:46.841942+01 | 1486257046.84194 | pgbench_tellers  |           450560
 2017-02-05 02:10:46.841942+01 | 1486257046.84194 | pgbench_history  |                0
 2017-02-05 02:10:46.841942+01 | 1486257046.84194 | pgbench_branches |            40960

 2017-02-05 02:10:47.944627+01 | 1486257047.94463 | pgbench_accounts |      13654122496
 2017-02-05 02:10:47.944627+01 | 1486257047.94463 | pgbench_tellers  |           450560
 2017-02-05 02:10:47.944627+01 | 1486257047.94463 | pgbench_history  |                0
 2017-02-05 02:10:47.944627+01 | 1486257047.94463 | pgbench_branches |            40960

 2017-02-05 02:10:49.031897+01 | 1486257049.0319 | pgbench_accounts |      13654122496
 2017-02-05 02:10:49.031897+01 | 1486257049.0319 | pgbench_tellers  |           450560
 2017-02-05 02:10:49.031897+01 | 1486257049.0319 | pgbench_history  |                0
 2017-02-05 02:10:49.031897+01 | 1486257049.0319 | pgbench_branches |            40960

 2017-02-05 02:10:50.10382+01 | 1486257050.10382 | pgbench_accounts |      13654122496
 2017-02-05 02:10:50.10382+01 | 1486257050.10382 | pgbench_tellers  |           450560
 2017-02-05 02:10:50.10382+01 | 1486257050.10382 | pgbench_history  |                0
 2017-02-05 02:10:50.10382+01 | 1486257050.10382 | pgbench_branches |            40960

 2017-02-05 02:10:51.194949+01 | 1486257051.19495 | pgbench_accounts |      13654122496
 2017-02-05 02:10:51.194949+01 | 1486257051.19495 | pgbench_tellers  |           450560
 2017-02-05 02:10:51.194949+01 | 1486257051.19495 | pgbench_history  |                0
 2017-02-05 02:10:51.194949+01 | 1486257051.19495 | pgbench_branches |            40960

 2017-02-05 02:10:52.296161+01 | 1486257052.29616 | pgbench_accounts |      13654122496
 2017-02-05 02:10:52.296161+01 | 1486257052.29616 | pgbench_tellers  |           450560
 2017-02-05 02:10:52.296161+01 | 1486257052.29616 | pgbench_history  |                0
 2017-02-05 02:10:52.296161+01 | 1486257052.29616 | pgbench_branches |            40960

 2017-02-05 02:10:53.394778+01 | 1486257053.39478 | pgbench_accounts |      13654122496
 2017-02-05 02:10:53.394778+01 | 1486257053.39478 | pgbench_tellers  |           450560
 2017-02-05 02:10:53.394778+01 | 1486257053.39478 | pgbench_history  |                0
 2017-02-05 02:10:53.394778+01 | 1486257053.39478 | pgbench_branches |            40960

 2017-02-05 02:10:54.480742+01 | 1486257054.48074 | pgbench_accounts |      13654122496
 2017-02-05 02:10:54.480742+01 | 1486257054.48074 | pgbench_tellers  |           450560
 2017-02-05 02:10:54.480742+01 | 1486257054.48074 | pgbench_history  |                0
 2017-02-05 02:10:54.480742+01 | 1486257054.48074 | pgbench_branches |            40960

 2017-02-05 02:10:55.555077+01 | 1486257055.55508 | pgbench_accounts |      13654122496
 2017-02-05 02:10:55.555077+01 | 1486257055.55508 | pgbench_tellers  |           450560
 2017-02-05 02:10:55.555077+01 | 1486257055.55508 | pgbench_history  |                0
 2017-02-05 02:10:55.555077+01 | 1486257055.55508 | pgbench_branches |            40960

 2017-02-05 02:10:56.633032+01 | 1486257056.63303 | pgbench_accounts |      13654122496
 2017-02-05 02:10:56.633032+01 | 1486257056.63303 | pgbench_tellers  |           450560
 2017-02-05 02:10:56.633032+01 | 1486257056.63303 | pgbench_history  |                0
 2017-02-05 02:10:56.633032+01 | 1486257056.63303 | pgbench_branches |            40960

 2017-02-05 02:10:57.727599+01 | 1486257057.7276 | pgbench_accounts |      13654122496
 2017-02-05 02:10:57.727599+01 | 1486257057.7276 | pgbench_tellers  |           450560
 2017-02-05 02:10:57.727599+01 | 1486257057.7276 | pgbench_history  |                0
 2017-02-05 02:10:57.727599+01 | 1486257057.7276 | pgbench_branches |            40960

 2017-02-05 02:10:58.814224+01 | 1486257058.81422 | pgbench_accounts |      13654122496
 2017-02-05 02:10:58.814224+01 | 1486257058.81422 | pgbench_tellers  |           450560
 2017-02-05 02:10:58.814224+01 | 1486257058.81422 | pgbench_history  |                0
 2017-02-05 02:10:58.814224+01 | 1486257058.81422 | pgbench_branches |            40960

 2017-02-05 02:10:59.902737+01 | 1486257059.90274 | pgbench_accounts |      13654122496
 2017-02-05 02:10:59.902737+01 | 1486257059.90274 | pgbench_tellers  |           450560
 2017-02-05 02:10:59.902737+01 | 1486257059.90274 | pgbench_history  |                0
 2017-02-05 02:10:59.902737+01 | 1486257059.90274 | pgbench_branches |            40960

 2017-02-05 02:11:00.979484+01 | 1486257060.97948 | pgbench_accounts |      13654122496
 2017-02-05 02:11:00.979484+01 | 1486257060.97948 | pgbench_tellers  |           450560
 2017-02-05 02:11:00.979484+01 | 1486257060.97948 | pgbench_history  |                0
 2017-02-05 02:11:00.979484+01 | 1486257060.97948 | pgbench_branches |            40960

 2017-02-05 02:11:02.070632+01 | 1486257062.07063 | pgbench_accounts |      13654122496
 2017-02-05 02:11:02.070632+01 | 1486257062.07063 | pgbench_tellers  |           450560
 2017-02-05 02:11:02.070632+01 | 1486257062.07063 | pgbench_history  |                0
 2017-02-05 02:11:02.070632+01 | 1486257062.07063 | pgbench_branches |            40960

 2017-02-05 02:11:03.15432+01 | 1486257063.15432 | pgbench_accounts |      13654122496
 2017-02-05 02:11:03.15432+01 | 1486257063.15432 | pgbench_tellers  |           450560
 2017-02-05 02:11:03.15432+01 | 1486257063.15432 | pgbench_history  |                0
 2017-02-05 02:11:03.15432+01 | 1486257063.15432 | pgbench_branches |            40960

 2017-02-05 02:11:04.238333+01 | 1486257064.23833 | pgbench_accounts |      13654122496
 2017-02-05 02:11:04.238333+01 | 1486257064.23833 | pgbench_tellers  |           450560
 2017-02-05 02:11:04.238333+01 | 1486257064.23833 | pgbench_history  |                0
 2017-02-05 02:11:04.238333+01 | 1486257064.23833 | pgbench_branches |            40960

 2017-02-05 02:11:05.315363+01 | 1486257065.31536 | pgbench_accounts |      13654122496
 2017-02-05 02:11:05.315363+01 | 1486257065.31536 | pgbench_tellers  |           450560
 2017-02-05 02:11:05.315363+01 | 1486257065.31536 | pgbench_history  |                0
 2017-02-05 02:11:05.315363+01 | 1486257065.31536 | pgbench_branches |            40960

 2017-02-05 02:11:06.398356+01 | 1486257066.39836 | pgbench_accounts |      13654122496
 2017-02-05 02:11:06.398356+01 | 1486257066.39836 | pgbench_tellers  |           450560
 2017-02-05 02:11:06.398356+01 | 1486257066.39836 | pgbench_history  |                0
 2017-02-05 02:11:06.398356+01 | 1486257066.39836 | pgbench_branches |            40960

 2017-02-05 02:11:07.481934+01 | 1486257067.48193 | pgbench_accounts |      13654122496
 2017-02-05 02:11:07.481934+01 | 1486257067.48193 | pgbench_tellers  |           450560
 2017-02-05 02:11:07.481934+01 | 1486257067.48193 | pgbench_history  |                0
 2017-02-05 02:11:07.481934+01 | 1486257067.48193 | pgbench_branches |            40960

 2017-02-05 02:11:08.56454+01 | 1486257068.56454 | pgbench_accounts |      13654122496
 2017-02-05 02:11:08.56454+01 | 1486257068.56454 | pgbench_tellers  |           450560
 2017-02-05 02:11:08.56454+01 | 1486257068.56454 | pgbench_history  |                0
 2017-02-05 02:11:08.56454+01 | 1486257068.56454 | pgbench_branches |            40960

 2017-02-05 02:11:09.644491+01 | 1486257069.64449 | pgbench_accounts |      13654122496
 2017-02-05 02:11:09.644491+01 | 1486257069.64449 | pgbench_tellers  |           450560
 2017-02-05 02:11:09.644491+01 | 1486257069.64449 | pgbench_history  |                0
 2017-02-05 02:11:09.644491+01 | 1486257069.64449 | pgbench_branches |            40960

 2017-02-05 02:11:10.746241+01 | 1486257070.74624 | pgbench_accounts |      13654122496
 2017-02-05 02:11:10.746241+01 | 1486257070.74624 | pgbench_tellers  |           450560
 2017-02-05 02:11:10.746241+01 | 1486257070.74624 | pgbench_history  |                0
 2017-02-05 02:11:10.746241+01 | 1486257070.74624 | pgbench_branches |            40960

 2017-02-05 02:11:11.836561+01 | 1486257071.83656 | pgbench_accounts |      13654122496
 2017-02-05 02:11:11.836561+01 | 1486257071.83656 | pgbench_tellers  |           450560
 2017-02-05 02:11:11.836561+01 | 1486257071.83656 | pgbench_history  |                0
 2017-02-05 02:11:11.836561+01 | 1486257071.83656 | pgbench_branches |            40960

 2017-02-05 02:11:12.927724+01 | 1486257072.92772 | pgbench_accounts |      13654122496
 2017-02-05 02:11:12.927724+01 | 1486257072.92772 | pgbench_tellers  |           450560
 2017-02-05 02:11:12.927724+01 | 1486257072.92772 | pgbench_history  |                0
 2017-02-05 02:11:12.927724+01 | 1486257072.92772 | pgbench_branches |            40960

 2017-02-05 02:11:14.017635+01 | 1486257074.01764 | pgbench_accounts |      13654122496
 2017-02-05 02:11:14.017635+01 | 1486257074.01764 | pgbench_tellers  |           450560
 2017-02-05 02:11:14.017635+01 | 1486257074.01764 | pgbench_history  |                0
 2017-02-05 02:11:14.017635+01 | 1486257074.01764 | pgbench_branches |            40960

 2017-02-05 02:11:15.102166+01 | 1486257075.10217 | pgbench_accounts |      13654122496
 2017-02-05 02:11:15.102166+01 | 1486257075.10217 | pgbench_tellers  |           450560
 2017-02-05 02:11:15.102166+01 | 1486257075.10217 | pgbench_history  |                0
 2017-02-05 02:11:15.102166+01 | 1486257075.10217 | pgbench_branches |            40960

 2017-02-05 02:11:16.183815+01 | 1486257076.18382 | pgbench_accounts |      13654122496
 2017-02-05 02:11:16.183815+01 | 1486257076.18382 | pgbench_tellers  |           450560
 2017-02-05 02:11:16.183815+01 | 1486257076.18382 | pgbench_history  |                0
 2017-02-05 02:11:16.183815+01 | 1486257076.18382 | pgbench_branches |            40960

 2017-02-05 02:11:17.277429+01 | 1486257077.27743 | pgbench_accounts |      13654122496
 2017-02-05 02:11:17.277429+01 | 1486257077.27743 | pgbench_tellers  |           450560
 2017-02-05 02:11:17.277429+01 | 1486257077.27743 | pgbench_history  |                0
 2017-02-05 02:11:17.277429+01 | 1486257077.27743 | pgbench_branches |            40960

 2017-02-05 02:11:18.367594+01 | 1486257078.36759 | pgbench_accounts |      13654122496
 2017-02-05 02:11:18.367594+01 | 1486257078.36759 | pgbench_tellers  |           450560
 2017-02-05 02:11:18.367594+01 | 1486257078.36759 | pgbench_history  |                0
 2017-02-05 02:11:18.367594+01 | 1486257078.36759 | pgbench_branches |            40960

 2017-02-05 02:11:19.44501+01 | 1486257079.44501 | pgbench_accounts |      13654122496
 2017-02-05 02:11:19.44501+01 | 1486257079.44501 | pgbench_tellers  |           450560
 2017-02-05 02:11:19.44501+01 | 1486257079.44501 | pgbench_history  |                0
 2017-02-05 02:11:19.44501+01 | 1486257079.44501 | pgbench_branches |            40960

 2017-02-05 02:11:20.511046+01 | 1486257080.51105 | pgbench_accounts |      13654122496
 2017-02-05 02:11:20.511046+01 | 1486257080.51105 | pgbench_tellers  |           450560
 2017-02-05 02:11:20.511046+01 | 1486257080.51105 | pgbench_history  |                0
 2017-02-05 02:11:20.511046+01 | 1486257080.51105 | pgbench_branches |            40960

 2017-02-05 02:11:21.583296+01 | 1486257081.5833 | pgbench_accounts |      13654122496
 2017-02-05 02:11:21.583296+01 | 1486257081.5833 | pgbench_tellers  |           450560
 2017-02-05 02:11:21.583296+01 | 1486257081.5833 | pgbench_history  |                0
 2017-02-05 02:11:21.583296+01 | 1486257081.5833 | pgbench_branches |            40960

 2017-02-05 02:11:22.657571+01 | 1486257082.65757 | pgbench_accounts |      13654122496
 2017-02-05 02:11:22.657571+01 | 1486257082.65757 | pgbench_tellers  |           450560
 2017-02-05 02:11:22.657571+01 | 1486257082.65757 | pgbench_history  |                0
 2017-02-05 02:11:22.657571+01 | 1486257082.65757 | pgbench_branches |            40960

 2017-02-05 02:11:23.73555+01 | 1486257083.73555 | pgbench_accounts |      13654122496
 2017-02-05 02:11:23.73555+01 | 1486257083.73555 | pgbench_tellers  |           450560
 2017-02-05 02:11:23.73555+01 | 1486257083.73555 | pgbench_history  |                0
 2017-02-05 02:11:23.73555+01 | 1486257083.73555 | pgbench_branches |            40960

 2017-02-05 02:11:24.823584+01 | 1486257084.82358 | pgbench_accounts |      13654122496
 2017-02-05 02:11:24.823584+01 | 1486257084.82358 | pgbench_tellers  |           450560
 2017-02-05 02:11:24.823584+01 | 1486257084.82358 | pgbench_history  |                0
 2017-02-05 02:11:24.823584+01 | 1486257084.82358 | pgbench_branches |            40960

 2017-02-05 02:11:25.916465+01 | 1486257085.91647 | pgbench_accounts |      13654122496
 2017-02-05 02:11:25.916465+01 | 1486257085.91647 | pgbench_tellers  |           450560
 2017-02-05 02:11:25.916465+01 | 1486257085.91647 | pgbench_history  |                0
 2017-02-05 02:11:25.916465+01 | 1486257085.91647 | pgbench_branches |            40960

 2017-02-05 02:11:27.013322+01 | 1486257087.01332 | pgbench_accounts |      13654122496
 2017-02-05 02:11:27.013322+01 | 1486257087.01332 | pgbench_tellers  |           450560
 2017-02-05 02:11:27.013322+01 | 1486257087.01332 | pgbench_history  |                0
 2017-02-05 02:11:27.013322+01 | 1486257087.01332 | pgbench_branches |            40960

 2017-02-05 02:11:28.110619+01 | 1486257088.11062 | pgbench_accounts |      13654122496
 2017-02-05 02:11:28.110619+01 | 1486257088.11062 | pgbench_tellers  |           450560
 2017-02-05 02:11:28.110619+01 | 1486257088.11062 | pgbench_history  |                0
 2017-02-05 02:11:28.110619+01 | 1486257088.11062 | pgbench_branches |            40960

 2017-02-05 02:11:29.189091+01 | 1486257089.18909 | pgbench_accounts |      13654122496
 2017-02-05 02:11:29.189091+01 | 1486257089.18909 | pgbench_tellers  |           450560
 2017-02-05 02:11:29.189091+01 | 1486257089.18909 | pgbench_history  |                0
 2017-02-05 02:11:29.189091+01 | 1486257089.18909 | pgbench_branches |            40960

