 2017-02-03 23:34:12.598367+01 | 1486161252.59837 | 1C/4FECF3E0              |          121600013280

 2017-02-03 23:34:13.682442+01 | 1486161253.68244 | 1C/5BE0E9B8              |          121800550840

 2017-02-03 23:34:14.767361+01 | 1486161254.76736 | 1C/68F0CDA8              |          122019696040

 2017-02-03 23:34:15.844816+01 | 1486161255.84482 | 1C/73E8F4B8              |          122203731128

 2017-02-03 23:34:16.921661+01 | 1486161256.92166 | 1C/7D73C228              |          122363822632

 2017-02-03 23:34:18.0031+01 | 1486161258.0031 | 1C/85D4E000              |          122504404992

 2017-02-03 23:34:19.081538+01 | 1486161259.08154 | 1C/8D3633D0              |          122628223952

 2017-02-03 23:34:20.159585+01 | 1486161260.15958 | 1C/93401A80              |          122729536128

 2017-02-03 23:34:21.234311+01 | 1486161261.23431 | 1C/98759D68              |          122816929128

 2017-02-03 23:34:22.31669+01 | 1486161262.31669 | 1C/9CD92298              |          122890560152

 2017-02-03 23:34:23.401664+01 | 1486161263.40166 | 1C/A0C16360              |          122956112736

 2017-02-03 23:34:24.485302+01 | 1486161264.4853 | 1C/A4392620              |          123014293024

 2017-02-03 23:34:25.559196+01 | 1486161265.5592 | 1C/A74D4DD0              |          123065945552

 2017-02-03 23:34:26.633394+01 | 1486161266.63339 | 1C/A9B3E6D0              |          123106223824

 2017-02-03 23:34:27.707996+01 | 1486161267.708 | 1C/ABDEF458              |          123142599768

 2017-02-03 23:34:28.789311+01 | 1486161268.78931 | 1C/ADF09560              |          123177309536

 2017-02-03 23:34:29.863352+01 | 1486161269.86335 | 1C/AFCB9908              |          123208440072

 2017-02-03 23:34:30.944132+01 | 1486161270.94413 | 1C/B1863D78              |          123237449080

 2017-02-03 23:34:32.023786+01 | 1486161272.02379 | 1C/B31C8850              |          123264075856

 2017-02-03 23:34:33.104621+01 | 1486161273.10462 | 1C/B4969720              |          123288852256

 2017-02-03 23:34:34.190036+01 | 1486161274.19004 | 1C/B61E8AB8              |          123314539192

 2017-02-03 23:34:35.269894+01 | 1486161275.26989 | 1C/B78952D0              |          123338314448

 2017-02-03 23:34:36.351583+01 | 1486161276.35158 | 1C/B8CF0E18              |          123359661592

 2017-02-03 23:34:37.431945+01 | 1486161277.43195 | 1C/BA1C5A70              |          123381504624

 2017-02-03 23:34:38.507279+01 | 1486161278.50728 | 1C/BB5B5748              |          123402409800

 2017-02-03 23:34:39.588952+01 | 1486161279.58895 | 1C/BC8B2C68              |          123422321768

 2017-02-03 23:34:40.667018+01 | 1486161280.66702 | 1C/BDC04A78              |          123442580088

 2017-02-03 23:34:41.742483+01 | 1486161281.74248 | 1C/BED9E138              |          123461034296

 2017-02-03 23:34:42.81521+01 | 1486161282.81521 | 1C/BFF49AB8              |          123479562936

 2017-02-03 23:34:43.896357+01 | 1486161283.89636 | 1C/C1060E50              |          123497483856

 2017-02-03 23:34:44.980937+01 | 1486161284.98094 | 1C/C2077890              |          123514353808

 2017-02-03 23:34:46.059474+01 | 1486161286.05947 | 1C/C3276728              |          123533223720

 2017-02-03 23:34:47.137968+01 | 1486161287.13797 | 1C/C431CD30              |          123550682416

 2017-02-03 23:34:48.218824+01 | 1486161288.21882 | 1C/C54D0B98              |          123569245080

 2017-02-03 23:34:49.294358+01 | 1486161289.29436 | 1C/C66AF408              |          123587982344

 2017-02-03 23:34:50.373382+01 | 1486161290.37338 | 1C/C783FA00              |          123606399488

 2017-02-03 23:34:51.458692+01 | 1486161291.45869 | 1C/C8B769D0              |          123626547664

 2017-02-03 23:34:52.53853+01 | 1486161292.53853 | 1C/C9DBC6A8              |          123645707944

 2017-02-03 23:34:53.61907+01 | 1486161293.61907 | 1C/CAF12B38              |          123663887160

 2017-02-03 23:34:54.698101+01 | 1486161294.6981 | 1C/CC1EB750              |          123683649360

 2017-02-03 23:34:55.774863+01 | 1486161295.77486 | 1C/CD3AE258              |          123702272600

 2017-02-03 23:34:56.850784+01 | 1486161296.85078 | 1C/CE5318B0              |          123720636592

 2017-02-03 23:34:57.929564+01 | 1486161297.92956 | 1C/CF6A4788              |          123738933128

 2017-02-03 23:34:59.004008+01 | 1486161299.00401 | 1C/D07C96C8              |          123756910280

 2017-02-03 23:35:00.08319+01 | 1486161300.08319 | 1C/D27344D8              |          123789853912

 2017-02-03 23:35:01.162082+01 | 1486161301.16208 | 1C/D46A4A58              |          123822819928

 2017-02-03 23:35:02.244591+01 | 1486161302.24459 | 1C/D665EDA0              |          123856088480

 2017-02-03 23:35:03.319454+01 | 1486161303.31945 | 1C/D811A870              |          123884120176

 2017-02-03 23:35:04.395457+01 | 1486161304.39546 | 1C/D99BD498              |          123909952664

 2017-02-03 23:35:05.466653+01 | 1486161305.46665 | 1C/DAB4FBA8              |          123928378280

 2017-02-03 23:35:06.549189+01 | 1486161306.54919 | 1C/DBCBE198              |          123946656152

 2017-02-03 23:35:07.626041+01 | 1486161307.62604 | 1C/DCDEDEC0              |          123964677824

 2017-02-03 23:35:08.708659+01 | 1486161308.70866 | 1C/DDD517A8              |          123980814248

 2017-02-03 23:35:09.788909+01 | 1486161309.78891 | 1C/DECCF9D0              |          123997059536

 2017-02-03 23:35:10.867865+01 | 1486161310.86787 | 1C/DFC91F70              |          124013584240

 2017-02-03 23:35:11.946448+01 | 1486161311.94645 | 1C/E0BD2A78              |          124029577848

 2017-02-03 23:35:13.034902+01 | 1486161313.0349 | 1C/E1BBCD68              |          124046265704

 2017-02-03 23:35:14.117746+01 | 1486161314.11775 | 1C/E2B56CA0              |          124062625584

 2017-02-03 23:35:15.195305+01 | 1486161315.19531 | 1C/E3A12730              |          124078073648

 2017-02-03 23:35:16.271865+01 | 1486161316.27186 | 1C/E49E4970              |          124094663024

 2017-02-03 23:35:17.350063+01 | 1486161317.35006 | 1C/E5961848              |          124110903368

 2017-02-03 23:35:18.431918+01 | 1486161318.43192 | 1C/E68AAF68              |          124126932840

 2017-02-03 23:35:19.50855+01 | 1486161319.50855 | 1C/E7886B18              |          124143561496

 2017-02-03 23:35:20.591553+01 | 1486161320.59155 | 1C/E881D830              |          124159907888

 2017-02-03 23:35:21.667891+01 | 1486161321.66789 | 1C/E97E1230              |          124176437808

 2017-02-03 23:35:22.744854+01 | 1486161322.74485 | 1C/EA727F48              |          124192456520

 2017-02-03 23:35:23.823275+01 | 1486161323.82328 | 1C/EB78D7F0              |          124209649648

 2017-02-03 23:35:24.89524+01 | 1486161324.89524 | 1C/EC6E14B0              |          124225721520

 2017-02-03 23:35:25.973605+01 | 1486161325.9736 | 1C/ED69B460              |          124242211936

 2017-02-03 23:35:27.052458+01 | 1486161327.05246 | 1C/EE5E7BC0              |          124258253760

 2017-02-03 23:35:28.13307+01 | 1486161328.13307 | 1C/EF516868              |          124274174056

 2017-02-03 23:35:29.213169+01 | 1486161329.21317 | 1C/F04A1EA0              |          124290473632

 2017-02-03 23:35:30.295817+01 | 1486161330.29582 | 1C/F1473260              |          124307059296

 2017-02-03 23:35:31.384316+01 | 1486161331.38432 | 1C/F241F6C8              |          124323493576

 2017-02-03 23:35:32.462148+01 | 1486161332.46215 | 1C/F33D4078              |          124339961976

 2017-02-03 23:35:33.53646+01 | 1486161333.53646 | 1C/F425CA90              |          124355201680

 2017-02-03 23:35:34.614711+01 | 1486161334.61471 | 1C/F5214228              |          124371681832

 2017-02-03 23:35:35.689967+01 | 1486161335.68997 | 1C/F6193488              |          124387931272

 2017-02-03 23:35:36.766399+01 | 1486161336.7664 | 1C/F71E83E8              |          124405056488

 2017-02-03 23:35:37.844128+01 | 1486161337.84413 | 1C/F81A8B88              |          124421573512

 2017-02-03 23:35:38.925921+01 | 1486161338.92592 | 1C/F918DF80              |          124438241152

 2017-02-03 23:35:40.009383+01 | 1486161340.00938 | 1C/FA0C97B8              |          124454213560

 2017-02-03 23:35:41.084589+01 | 1486161341.08459 | 1C/FB0903D0              |          124470756304

 2017-02-03 23:35:42.166286+01 | 1486161342.16629 | 1C/FC0053E8              |          124486964200

 2017-02-03 23:35:43.243124+01 | 1486161343.24312 | 1C/FCF75FE8              |          124503154664

 2017-02-03 23:35:44.318805+01 | 1486161344.3188 | 1C/FDE3ED70              |          124518657392

 2017-02-03 23:35:45.404663+01 | 1486161345.40466 | 1C/FED8B310              |          124534698768

 2017-02-03 23:35:46.493816+01 | 1486161346.49382 | 1C/FFBE3970              |          124549740912

 2017-02-03 23:35:47.573557+01 | 1486161347.57356 | 1D/B1AE58                |          124565696088

 2017-02-03 23:35:48.650097+01 | 1486161348.6501 | 1D/198C4D0               |          124580840656

 2017-02-03 23:35:49.727152+01 | 1486161349.72715 | 1D/2843D38               |          124596272440

 2017-02-03 23:35:50.803736+01 | 1486161350.80374 | 1D/380B350               |          124612817744

 2017-02-03 23:35:51.884958+01 | 1486161351.88496 | 1D/47438C8               |          124628777160

 2017-02-03 23:35:52.960743+01 | 1486161352.96074 | 1D/5785E98               |          124645826200

 2017-02-03 23:35:54.035572+01 | 1486161354.03557 | 1D/66EADF8               |          124661968376

 2017-02-03 23:35:55.114766+01 | 1486161355.11477 | 1D/7623520               |          124677928224

 2017-02-03 23:35:56.18151+01 | 1486161356.18151 | 1D/85B42D0               |          124694250192

 2017-02-03 23:35:57.25087+01 | 1486161357.25087 | 1D/964A038               |          124711641144

 2017-02-03 23:35:58.329233+01 | 1486161358.32923 | 1D/A6E9388               |          124729070472

 2017-02-03 23:35:59.407767+01 | 1486161359.40777 | 1D/B7C5420               |          124746748960

 2017-02-03 23:36:00.484184+01 | 1486161360.48418 | 1D/C83C160               |          124764012896

 2017-02-03 23:36:01.562578+01 | 1486161361.56258 | 1D/D8F0F18               |          124781530904

 2017-02-03 23:36:02.637762+01 | 1486161362.63776 | 1D/E946F68               |          124798660456

 2017-02-03 23:36:03.715803+01 | 1486161363.7158 | 1D/F9EFF10               |          124816129808

 2017-02-03 23:36:04.793465+01 | 1486161364.79346 | 1D/10A295C8              |          124833142216

 2017-02-03 23:36:05.874395+01 | 1486161365.87439 | 1D/11A3CBE0              |          124849998816

 2017-02-03 23:36:06.952906+01 | 1486161366.95291 | 1D/12A1DB00              |          124866648832

 2017-02-03 23:36:08.046642+01 | 1486161368.04664 | 1D/13B47CA8              |          124884647080

 2017-02-03 23:36:09.12381+01 | 1486161369.12381 | 1D/14C3ADA0              |          124902419872

 2017-02-03 23:36:10.198956+01 | 1486161370.19896 | 1D/15C8CF48              |          124919533384

 2017-02-03 23:36:11.277089+01 | 1486161371.27709 | 1D/16AE1B20              |          124934560544

 2017-02-03 23:36:12.366978+01 | 1486161372.36698 | 1D/17A12568              |          124950488424

 2017-02-03 23:36:13.44745+01 | 1486161373.44745 | 1D/1894D670              |          124966458992

 2017-02-03 23:36:14.52468+01 | 1486161374.52468 | 1D/198FED70              |          124982914416

 2017-02-03 23:36:15.598178+01 | 1486161375.59818 | 1D/1A829F20              |          124998819616

 2017-02-03 23:36:16.674461+01 | 1486161376.67446 | 1D/1B699E98              |          125013958296

 2017-02-03 23:36:17.754738+01 | 1486161377.75474 | 1D/1C6308E8              |          125030303976

 2017-02-03 23:36:18.833014+01 | 1486161378.83301 | 1D/1D53D3E0              |          125046084576

 2017-02-03 23:36:19.909559+01 | 1486161379.90956 | 1D/1E4EEB38              |          125062540088

 2017-02-03 23:36:20.988545+01 | 1486161380.98854 | 1D/1F4DA820              |          125079234592

 2017-02-03 23:36:22.068407+01 | 1486161382.06841 | 1D/204380F8              |          125095346424

 2017-02-03 23:36:23.143641+01 | 1486161383.14364 | 1D/213D9598              |          125111735704

 2017-02-03 23:36:24.221743+01 | 1486161384.22174 | 1D/22332340              |          125127828288

 2017-02-03 23:36:25.304568+01 | 1486161385.30457 | 1D/23376808              |          125144885256

 2017-02-03 23:36:26.383716+01 | 1486161386.38372 | 1D/2425A370              |          125160498032

 2017-02-03 23:36:27.458819+01 | 1486161387.45882 | 1D/252923A8              |          125177504680

 2017-02-03 23:36:28.535814+01 | 1486161388.53581 | 1D/2629C9D8              |          125194324440

 2017-02-03 23:36:29.613592+01 | 1486161389.61359 | 1D/27282FF0              |          125210996720

 2017-02-03 23:36:30.686595+01 | 1486161390.68659 | 1D/2826D420              |          125227684896

 2017-02-03 23:36:31.765+01 | 1486161391.765 | 1D/291D6DB0              |          125243846064

 2017-02-03 23:36:32.843168+01 | 1486161392.84317 | 1D/2A18BF48              |          125260316488

 2017-02-03 23:36:33.925361+01 | 1486161393.92536 | 1D/2B12B848              |          125276698696

 2017-02-03 23:36:35.010518+01 | 1486161395.01052 | 1D/2C0CFDA0              |          125293100448

 2017-02-03 23:36:36.088133+01 | 1486161396.08813 | 1D/2D12D018              |          125310259224

 2017-02-03 23:36:37.16659+01 | 1486161397.16659 | 1D/2E0CB7A8              |          125326636968

 2017-02-03 23:36:38.243385+01 | 1486161398.24339 | 1D/2F03CBA0              |          125342829472

 2017-02-03 23:36:39.324421+01 | 1486161399.32442 | 1D/2FFC36C8              |          125359109832

 2017-02-03 23:36:40.405608+01 | 1486161400.40561 | 1D/30F18CF0              |          125375188208

 2017-02-03 23:36:41.479629+01 | 1486161401.47963 | 1D/31ECF110              |          125391663376

 2017-02-03 23:36:42.561375+01 | 1486161402.56137 | 1D/32DF0BD0              |          125407529936

 2017-02-03 23:36:43.63639+01 | 1486161403.63639 | 1D/33CE26F0              |          125423199984

 2017-02-03 23:36:44.709971+01 | 1486161404.70997 | 1D/34C157D8              |          125439137752

 2017-02-03 23:36:45.784786+01 | 1486161405.78479 | 1D/35B3C838              |          125455026232

 2017-02-03 23:36:46.870238+01 | 1486161406.87024 | 1D/369F4640              |          125470459456

 2017-02-03 23:36:47.949449+01 | 1486161407.94945 | 1D/37774D60              |          125484617056

 2017-02-03 23:36:49.036626+01 | 1486161409.03663 | 1D/386B95C0              |          125500626368

 2017-02-03 23:36:50.11571+01 | 1486161410.11571 | 1D/395407C0              |          125515859904

 2017-02-03 23:36:51.191589+01 | 1486161411.19159 | 1D/3A475B90              |          125531806608

 2017-02-03 23:36:52.264324+01 | 1486161412.26432 | 1D/3B43D770              |          125548353392

 2017-02-03 23:36:53.340241+01 | 1486161413.34024 | 1D/3C2B93E8              |          125563540456

 2017-02-03 23:36:54.424674+01 | 1486161414.42467 | 1D/3D18CCF8              |          125579087096

 2017-02-03 23:36:55.50304+01 | 1486161415.50304 | 1D/3E09B310              |          125594874640

 2017-02-03 23:36:56.580962+01 | 1486161416.58096 | 1D/3EF6E978              |          125610420600

 2017-02-03 23:36:57.650819+01 | 1486161417.65082 | 1D/3FF7AF18              |          125627248408

 2017-02-03 23:36:58.726158+01 | 1486161418.72616 | 1D/40EF0968              |          125643458920

 2017-02-03 23:36:59.801554+01 | 1486161419.80155 | 1D/41D785A0              |          125658695072

 2017-02-03 23:37:00.879428+01 | 1486161420.87943 | 1D/42D216F0              |          125675116272

 2017-02-03 23:37:01.959386+01 | 1486161421.95939 | 1D/43DE60B8              |          125692698808

 2017-02-03 23:37:03.041193+01 | 1486161423.04119 | 1D/44ECD100              |          125710422272

 2017-02-03 23:37:04.12101+01 | 1486161424.12101 | 1D/45F30090              |          125727604880

 2017-02-03 23:37:05.200928+01 | 1486161425.20093 | 1D/46F975F0              |          125744805360

 2017-02-03 23:37:06.279872+01 | 1486161426.27987 | 1D/47FBF468              |          125761746024

 2017-02-03 23:37:07.356633+01 | 1486161427.35663 | 1D/49011218              |          125778858520

 2017-02-03 23:37:08.434052+01 | 1486161428.43405 | 1D/49FA20E0              |          125795180768

 2017-02-03 23:37:09.510488+01 | 1486161429.51049 | 1D/4AED6EB8              |          125811125944

 2017-02-03 23:37:10.588998+01 | 1486161430.589 | 1D/4BE57EB0              |          125827382960

 2017-02-03 23:37:11.662209+01 | 1486161431.66221 | 1D/4CE19CC8              |          125843905736

 2017-02-03 23:37:12.738375+01 | 1486161432.73837 | 1D/4DDCE980              |          125860374912

 2017-02-03 23:37:13.814971+01 | 1486161433.81497 | 1D/4EE8A338              |          125877920568

 2017-02-03 23:37:14.890295+01 | 1486161434.8903 | 1D/4FE9CA50              |          125894773328

 2017-02-03 23:37:15.973069+01 | 1486161435.97307 | 1D/50D9ED08              |          125910510856

 2017-02-03 23:37:17.052085+01 | 1486161437.05208 | 1D/51D07710              |          125926668048

 2017-02-03 23:37:18.131009+01 | 1486161438.13101 | 1D/52A6A7E8              |          125940705256

 2017-02-03 23:37:19.213829+01 | 1486161439.21383 | 1D/53947F58              |          125956292440

 2017-02-03 23:37:20.293518+01 | 1486161440.29352 | 1D/547EE9B0              |          125971655088

 2017-02-03 23:37:21.370839+01 | 1486161441.37084 | 1D/557435D0              |          125987730896

 2017-02-03 23:37:22.44961+01 | 1486161442.44961 | 1D/564CD388              |          126001927048

 2017-02-03 23:37:23.534927+01 | 1486161443.53493 | 1D/573295E0              |          126016984544

 2017-02-03 23:37:24.612855+01 | 1486161444.61285 | 1D/5810B520              |          126031541536

 2017-02-03 23:37:25.697443+01 | 1486161445.69744 | 1D/58F28140              |          126046339392

 2017-02-03 23:37:26.777688+01 | 1486161446.77769 | 1D/59D4E980              |          126061177216

 2017-02-03 23:37:27.857569+01 | 1486161447.85757 | 1D/5AB234D0              |          126075679952

 2017-02-03 23:37:28.934377+01 | 1486161448.93438 | 1D/5B833428              |          126089376808

 2017-02-03 23:37:30.019916+01 | 1486161450.01992 | 1D/5C5F4DB8              |          126103801272

 2017-02-03 23:37:31.100642+01 | 1486161451.10064 | 1D/5D480E88              |          126119054984

 2017-02-03 23:37:32.179517+01 | 1486161452.17952 | 1D/5E2984C0              |          126133830848

 2017-02-03 23:37:33.269138+01 | 1486161453.26914 | 1D/5F0CE590              |          126148732304

 2017-02-03 23:37:34.346613+01 | 1486161454.34661 | 1D/5FE6B0A0              |          126163005600

 2017-02-03 23:37:35.42947+01 | 1486161455.42947 | 1D/60DBDFF0              |          126179074032

 2017-02-03 23:37:36.509269+01 | 1486161456.50927 | 1D/61D9DBD0              |          126195719120

 2017-02-03 23:37:37.587024+01 | 1486161457.58702 | 1D/62D9ED40              |          126212500800

 2017-02-03 23:37:38.661725+01 | 1486161458.66173 | 1D/63D85A50              |          126229174864

 2017-02-03 23:37:39.735184+01 | 1486161459.73518 | 1D/64CE87C0              |          126245308352

 2017-02-03 23:37:40.813581+01 | 1486161460.81358 | 1D/65C63588              |          126261540232

 2017-02-03 23:37:41.888969+01 | 1486161461.88897 | 1D/66C64E88              |          126278323848

 2017-02-03 23:37:42.973909+01 | 1486161462.97391 | 1D/67C80980              |          126295214464

 2017-02-03 23:37:44.052267+01 | 1486161464.05227 | 1D/68C43E08              |          126311742984

 2017-02-03 23:37:45.132594+01 | 1486161465.13259 | 1D/69C79C58              |          126328740952

 2017-02-03 23:37:46.214977+01 | 1486161466.21498 | 1D/6AC1DB00              |          126345140992

 2017-02-03 23:37:47.288985+01 | 1486161467.28899 | 1D/6BA89178              |          126360260984

 2017-02-03 23:37:48.373685+01 | 1486161468.37368 | 1D/6C9BD838              |          126376204344

 2017-02-03 23:37:49.456505+01 | 1486161469.45651 | 1D/6D882E68              |          126391692904

 2017-02-03 23:37:50.539325+01 | 1486161470.53932 | 1D/6E7EE138              |          126407860536

 2017-02-03 23:37:51.622306+01 | 1486161471.62231 | 1D/6F7C0190              |          126424449424

 2017-02-03 23:37:52.698622+01 | 1486161472.69862 | 1D/707233B0              |          126440584112

 2017-02-03 23:37:53.773134+01 | 1486161473.77313 | 1D/716586A0              |          126456530592

 2017-02-03 23:37:54.853839+01 | 1486161474.85384 | 1D/72682D68              |          126473481576

 2017-02-03 23:37:55.9351+01 | 1486161475.9351 | 1D/7353F650              |          126488933968

 2017-02-03 23:37:57.021667+01 | 1486161477.02167 | 1D/7457FDB8              |          126505975224

 2017-02-03 23:37:58.100332+01 | 1486161478.10033 | 1D/75500908              |          126522231048

 2017-02-03 23:37:59.181598+01 | 1486161479.1816 | 1D/7650FBF0              |          126539070448

 2017-02-03 23:38:00.263131+01 | 1486161480.26313 | 1D/773EF0C8              |          126554665160

 2017-02-03 23:38:01.34352+01 | 1486161481.34352 | 1D/78409CF8              |          126571551992

 2017-02-03 23:38:02.415766+01 | 1486161482.41577 | 1D/795CB910              |          126590171408

 2017-02-03 23:38:03.488285+01 | 1486161483.48829 | 1D/7A61A930              |          126607272240

 2017-02-03 23:38:04.564548+01 | 1486161484.56455 | 1D/7B672FC8              |          126624411592

 2017-02-03 23:38:05.643452+01 | 1486161485.64345 | 1D/7C6E01D8              |          126641635800

 2017-02-03 23:38:06.719976+01 | 1486161486.71998 | 1D/7D7A91D8              |          126659236312

 2017-02-03 23:38:07.79309+01 | 1486161487.79309 | 1D/7E7C9358              |          126676144984

 2017-02-03 23:38:08.879729+01 | 1486161488.87973 | 1D/7F7DC110              |          126692999440

 2017-02-03 23:38:09.959547+01 | 1486161489.95955 | 1D/80817C58              |          126710021208

 2017-02-03 23:38:11.032547+01 | 1486161491.03255 | 1D/8179AB20              |          126726286112

 2017-02-03 23:38:12.105694+01 | 1486161492.10569 | 1D/826EAE80              |          126742343296

 2017-02-03 23:38:13.18132+01 | 1486161493.18132 | 1D/837F0EC0              |          126760193728

 2017-02-03 23:38:14.26137+01 | 1486161494.26137 | 1D/848C6110              |          126777843984

 2017-02-03 23:38:15.341447+01 | 1486161495.34145 | 1D/85876788              |          126794295176

 2017-02-03 23:38:16.416882+01 | 1486161496.41688 | 1D/868ADB38              |          126811298616

 2017-02-03 23:38:17.492119+01 | 1486161497.49212 | 1D/878DB4F8              |          126828262648

 2017-02-03 23:38:18.570755+01 | 1486161498.57076 | 1D/88876EB8              |          126844628664

 2017-02-03 23:38:19.651813+01 | 1486161499.65181 | 1D/8979B560              |          126860506464

 2017-02-03 23:38:20.735372+01 | 1486161500.73537 | 1D/8A7B9338              |          126877406008

 2017-02-03 23:38:21.807467+01 | 1486161501.80747 | 1D/8B757E90              |          126893784720

 2017-02-03 23:38:22.890631+01 | 1486161502.89063 | 1D/8C757460              |          126910559328

 2017-02-03 23:38:23.964932+01 | 1486161503.96493 | 1D/8D76CD78              |          126927424888

 2017-02-03 23:38:25.041342+01 | 1486161505.04134 | 1D/8E6DB118              |          126943605016

 2017-02-03 23:38:26.120559+01 | 1486161506.12056 | 1D/8F6F3008              |          126960480264

 2017-02-03 23:38:27.198345+01 | 1486161507.19834 | 1D/90776D48              |          126977797448

 2017-02-03 23:38:28.270755+01 | 1486161508.27076 | 1D/91791BB8              |          126994684856

 2017-02-03 23:38:29.347804+01 | 1486161509.3478 | 1D/92770398              |          127011324824

 2017-02-03 23:38:30.427229+01 | 1486161510.42723 | 1D/937D2A48              |          127028505160

 2017-02-03 23:38:31.509245+01 | 1486161511.50924 | 1D/947CFF80              |          127045271424

 2017-02-03 23:38:32.587496+01 | 1486161512.5875 | 1D/957E0290              |          127062114960

 2017-02-03 23:38:33.665892+01 | 1486161513.66589 | 1D/968345E8              |          127079237096

 2017-02-03 23:38:34.742684+01 | 1486161514.74268 | 1D/97859FE8              |          127096168424

 2017-02-03 23:38:35.815245+01 | 1486161515.81524 | 1D/9883E678              |          127112832632

 2017-02-03 23:38:36.88714+01 | 1486161516.88714 | 1D/99858BA8              |          127129717672

 2017-02-03 23:38:37.965774+01 | 1486161517.96577 | 1D/9A8E7F98              |          127147081624

 2017-02-03 23:38:39.045395+01 | 1486161519.04539 | 1D/9B8688C8              |          127163336904

 2017-02-03 23:38:40.130566+01 | 1486161520.13057 | 1D/9C86FEA0              |          127180144288

 2017-02-03 23:38:41.211459+01 | 1486161521.21146 | 1D/9D89B180              |          127197098368

 2017-02-03 23:38:42.293109+01 | 1486161522.29311 | 1D/9E8AFDD8              |          127213960664

 2017-02-03 23:38:43.373578+01 | 1486161523.37358 | 1D/9F7808E8              |          127229495528

 2017-02-03 23:38:44.459192+01 | 1486161524.45919 | 1D/A06D3478              |          127245563000

 2017-02-03 23:38:45.537051+01 | 1486161525.53705 | 1D/A16FCE20              |          127262510624

 2017-02-03 23:38:46.617442+01 | 1486161526.61744 | 1D/A27749F0              |          127279778288

 2017-02-03 23:38:47.695236+01 | 1486161527.69524 | 1D/A382F8A8              |          127297321128

 2017-02-03 23:38:48.771848+01 | 1486161528.77185 | 1D/A47DCAE0              |          127313758944

 2017-02-03 23:38:49.845919+01 | 1486161529.84592 | 1D/A58047A0              |          127330699168

 2017-02-03 23:38:50.92534+01 | 1486161530.92534 | 1D/A66631D0              |          127345766864

 2017-02-03 23:38:52.003264+01 | 1486161532.00326 | 1D/A7649770              |          127362439024

 2017-02-03 23:38:53.079544+01 | 1486161533.07954 | 1D/A85C4E70              |          127378673264

 2017-02-03 23:38:54.152885+01 | 1486161534.15288 | 1D/A94DB100              |          127394492672

 2017-02-03 23:38:55.233204+01 | 1486161535.2332 | 1D/AA35BA70              |          127409699440

 2017-02-03 23:38:56.303304+01 | 1486161536.3033 | 1D/AB2AEC18              |          127425768472

 2017-02-03 23:38:57.36406+01 | 1486161537.36406 | 1D/AC1C03C0              |          127441568704

 2017-02-03 23:38:58.444322+01 | 1486161538.44432 | 1D/AD11C800              |          127457675264

 2017-02-03 23:38:59.525899+01 | 1486161539.5259 | 1D/AE0BD548              |          127474062664

 2017-02-03 23:39:00.604949+01 | 1486161540.60495 | 1D/AF01AC20              |          127490173984

 2017-02-03 23:39:01.679993+01 | 1486161541.67999 | 1D/B01163E0              |          127507981280

 2017-02-03 23:39:02.753539+01 | 1486161542.75354 | 1D/B12BED50              |          127526497616

 2017-02-03 23:39:03.827263+01 | 1486161543.82726 | 1D/B2385970              |          127544088944

 2017-02-03 23:39:04.906405+01 | 1486161544.9064 | 1D/B33BFA30              |          127561103920

 2017-02-03 23:39:05.985671+01 | 1486161545.98567 | 1D/B44CC6D8              |          127578982104

 2017-02-03 23:39:07.061118+01 | 1486161547.06112 | 1D/B5500678              |          127595972216

 2017-02-03 23:39:08.138044+01 | 1486161548.13804 | 1D/B64CC9B8              |          127612537272

 2017-02-03 23:39:09.214294+01 | 1486161549.21429 | 1D/B747D0A0              |          127628988576

 2017-02-03 23:39:10.289719+01 | 1486161550.28972 | 1D/B847A278              |          127645753976

 2017-02-03 23:39:11.371955+01 | 1486161551.37195 | 1D/B946A660              |          127662466656

 2017-02-03 23:39:12.455388+01 | 1486161552.45539 | 1D/BA4376E0              |          127679035104

