 2017-02-04 08:29:43.152255+01 | 1486193383.15226 | 6D/222271E8              |          468724117992

 2017-02-04 08:29:44.254945+01 | 1486193384.25495 | 6D/2DE460A8              |          468921376936

 2017-02-04 08:29:45.34109+01 | 1486193385.34109 | 6D/3B118348              |          469142438728

 2017-02-04 08:29:46.42403+01 | 1486193386.42403 | 6D/4906CAD0              |          469376617168

 2017-02-04 08:29:47.503632+01 | 1486193387.50363 | 6D/5767E570              |          469617862000

 2017-02-04 08:29:48.57869+01 | 1486193388.57869 | 6D/65C4BED8              |          469858827992

 2017-02-04 08:29:49.664325+01 | 1486193389.66432 | 6D/739CAD88              |          470091083144

 2017-02-04 08:29:50.744098+01 | 1486193390.7441 | 6D/81830B58              |          470324284248

 2017-02-04 08:29:51.815658+01 | 1486193391.81566 | 6D/8EF50CD8              |          470549859544

 2017-02-04 08:29:52.891237+01 | 1486193392.89124 | 6D/9C0D0FD8              |          470769536984

 2017-02-04 08:29:53.962535+01 | 1486193393.96253 | 6D/AA2EEDF8              |          471006637560

 2017-02-04 08:29:55.025208+01 | 1486193395.02521 | 6D/B7E6B410              |          471236785168

 2017-02-04 08:29:56.103708+01 | 1486193396.10371 | 6D/C507BA60              |          471457053280

 2017-02-04 08:29:57.175407+01 | 1486193397.17541 | 6D/D0E01A68              |          471655783016

 2017-02-04 08:29:58.257201+01 | 1486193398.2572 | 6D/DDB62370              |          471871136624

 2017-02-04 08:29:59.334467+01 | 1486193399.33447 | 6D/EA364D30              |          472080862512

 2017-02-04 08:30:00.406748+01 | 1486193400.40675 | 6D/F6858120              |          472287379744

 2017-02-04 08:30:01.4819+01 | 1486193401.4819 | 6E/3EC9D90               |          472512241040

 2017-02-04 08:30:02.555338+01 | 1486193402.55534 | 6E/103C4000              |          472718786560

 2017-02-04 08:30:03.633127+01 | 1486193403.63313 | 6E/1C3D6EF8              |          472920190712

 2017-02-04 08:30:04.708097+01 | 1486193404.7081 | 6E/2822B7F0              |          473119766512

 2017-02-04 08:30:05.781154+01 | 1486193405.78115 | 6E/341EDB40              |          473320840000

 2017-02-04 08:30:06.859832+01 | 1486193406.85983 | 6E/3E244778              |          473488967544

 2017-02-04 08:30:07.94027+01 | 1486193407.94027 | 6E/4A657AC0              |          473694567104

 2017-02-04 08:30:09.018182+01 | 1486193409.01818 | 6E/55FAD6E8              |          473888904936

 2017-02-04 08:30:10.093017+01 | 1486193410.09302 | 6E/61D6C470              |          474087867504

 2017-02-04 08:30:11.170749+01 | 1486193411.17075 | 6E/6D7D4020              |          474283327520

 2017-02-04 08:30:12.247581+01 | 1486193412.24758 | 6E/774772A0              |          474447573664

 2017-02-04 08:30:13.328796+01 | 1486193413.3288 | 6E/82A805E0              |          474638452192

 2017-02-04 08:30:14.402651+01 | 1486193414.40265 | 6E/8DA535B8              |          474822817208

 2017-02-04 08:30:15.480355+01 | 1486193415.48036 | 6E/9831BCB8              |          474999798968

 2017-02-04 08:30:16.552042+01 | 1486193416.55204 | 6E/A0CE0398              |          475144258456

 2017-02-04 08:30:17.629056+01 | 1486193417.62906 | 6E/A9A02340              |          475292246848

 2017-02-04 08:30:18.70767+01 | 1486193418.70767 | 6E/B2C375D0              |          475445556688

 2017-02-04 08:30:19.786768+01 | 1486193419.78677 | 6E/BB92B278              |          475593355896

 2017-02-04 08:30:20.867507+01 | 1486193420.86751 | 6E/C4B29380              |          475746440064

 2017-02-04 08:30:21.939196+01 | 1486193421.9392 | 6E/CCAD2BF0              |          475880303600

 2017-02-04 08:30:23.015004+01 | 1486193423.015 | 6E/D509D1E0              |          476020593120

 2017-02-04 08:30:24.089991+01 | 1486193424.08999 | 6E/DDEAEF30              |          476169563952

 2017-02-04 08:30:25.166405+01 | 1486193425.1664 | 6E/E683FB30              |          476313811760

 2017-02-04 08:30:26.24154+01 | 1486193426.24154 | 6E/EDD2FBA8              |          476436429736

 2017-02-04 08:30:27.319807+01 | 1486193427.31981 | 6E/F6609900              |          476579928320

 2017-02-04 08:30:28.394966+01 | 1486193428.39497 | 6E/FE50BD70              |          476713106800

 2017-02-04 08:30:29.471606+01 | 1486193429.47161 | 6F/5779960               |          476833093984

 2017-02-04 08:30:30.553905+01 | 1486193430.55391 | 6F/CCE8878               |          476956231800

 2017-02-04 08:30:31.64017+01 | 1486193431.64017 | 6F/136CBAE0              |          477067262688

 2017-02-04 08:30:32.712218+01 | 1486193432.71222 | 6F/1928ACC8              |          477163465928

 2017-02-04 08:30:33.789032+01 | 1486193433.78903 | 6F/1F2A69A8              |          477264243112

 2017-02-04 08:30:34.865674+01 | 1486193434.86567 | 6F/250E3DA8              |          477363060136

 2017-02-04 08:30:35.947889+01 | 1486193435.94789 | 6F/2BD84E28              |          477476965928

 2017-02-04 08:30:37.021287+01 | 1486193437.02129 | 6F/325DD388              |          477586379656

 2017-02-04 08:30:38.097257+01 | 1486193438.09726 | 6F/389F56E0              |          477691336416

 2017-02-04 08:30:39.177492+01 | 1486193439.17749 | 6F/3FA6F438              |          477809275960

 2017-02-04 08:30:40.256591+01 | 1486193440.25659 | 6F/45E51800              |          477914011648

 2017-02-04 08:30:41.330986+01 | 1486193441.33099 | 6F/4C842CB0              |          478025100464

 2017-02-04 08:30:42.410404+01 | 1486193442.4104 | 6F/527242E0              |          478124589792

 2017-02-04 08:30:43.485104+01 | 1486193443.4851 | 6F/59143540              |          478235866432

 2017-02-04 08:30:44.555056+01 | 1486193444.55506 | 6F/5EC17778              |          478331107192

 2017-02-04 08:30:45.631666+01 | 1486193445.63167 | 6F/648C1C98              |          478428273816

 2017-02-04 08:30:46.705031+01 | 1486193446.70503 | 6F/69CD9D80              |          478516452736

 2017-02-04 08:30:47.785083+01 | 1486193447.78508 | 6F/6FECC860              |          478619158624

 2017-02-04 08:30:48.859204+01 | 1486193448.8592 | 6F/74CBF3D8              |          478700893144

 2017-02-04 08:30:49.937077+01 | 1486193449.93708 | 6F/7A881AD0              |          478797109968

 2017-02-04 08:30:51.021138+01 | 1486193451.02114 | 6F/7F6FD8C8              |          478879406280

 2017-02-04 08:30:52.109701+01 | 1486193452.1097 | 6F/85254178              |          478975181176

 2017-02-04 08:30:53.188486+01 | 1486193453.18849 | 6F/8A3842C8              |          479060312776

 2017-02-04 08:30:54.257718+01 | 1486193454.25772 | 6F/8E675130              |          479130505520

 2017-02-04 08:30:55.333899+01 | 1486193455.3339 | 6F/933C73B8              |          479211582392

 2017-02-04 08:30:56.399268+01 | 1486193456.39927 | 6F/984BBC10              |          479296470032

 2017-02-04 08:30:57.471876+01 | 1486193457.47188 | 6F/9CA3A770              |          479369340784

 2017-02-04 08:30:58.549586+01 | 1486193458.54959 | 6F/A1D1B958              |          479456246104

 2017-02-04 08:30:59.626694+01 | 1486193459.62669 | 6F/A5FD1598              |          479526196632

 2017-02-04 08:31:00.706189+01 | 1486193460.70619 | 6F/AAEFCDF8              |          479609212408

 2017-02-04 08:31:01.78654+01 | 1486193461.78654 | 6F/AF14BD98              |          479678741912

 2017-02-04 08:31:02.858287+01 | 1486193462.85829 | 6F/B3352FE8              |          479747977192

 2017-02-04 08:31:03.938923+01 | 1486193463.93892 | 6F/B7623D80              |          479818038656

 2017-02-04 08:31:05.014047+01 | 1486193465.01405 | 6F/BB6904D0              |          479885591760

 2017-02-04 08:31:06.094624+01 | 1486193466.09462 | 6F/C03D9918              |          479966632216

 2017-02-04 08:31:07.174835+01 | 1486193467.17483 | 6F/C4720BE8              |          480037178344

 2017-02-04 08:31:08.24734+01 | 1486193468.24734 | 6F/C90B6138              |          480114336056

 2017-02-04 08:31:09.315325+01 | 1486193469.31533 | 6F/CCACA6C8              |          480175236808

 2017-02-04 08:31:10.391009+01 | 1486193470.39101 | 6F/D050F758              |          480236336984

 2017-02-04 08:31:11.464649+01 | 1486193471.46465 | 6F/D35A99D0              |          480287300048

 2017-02-04 08:31:12.538269+01 | 1486193472.53827 | 6F/D616BDC8              |          480333184456

 2017-02-04 08:31:13.613533+01 | 1486193473.61353 | 6F/D978C258              |          480389939800

 2017-02-04 08:31:14.687284+01 | 1486193474.68728 | 6F/DC58B1B8              |          480438170040

 2017-02-04 08:31:15.761274+01 | 1486193475.76127 | 6F/E02690E8              |          480501993704

 2017-02-04 08:31:16.835329+01 | 1486193476.83533 | 6F/E3F4E5D0              |          480565847504

 2017-02-04 08:31:17.921535+01 | 1486193477.92154 | 6F/E6AF57E0              |          480611620832

 2017-02-04 08:31:19.00411+01 | 1486193479.00411 | 6F/EA36EEB0              |          480670838448

 2017-02-04 08:31:20.078071+01 | 1486193480.07807 | 6F/EE049B08              |          480734649096

 2017-02-04 08:31:21.153903+01 | 1486193481.1539 | 6F/F129CCF8              |          480787418360

 2017-02-04 08:31:22.230953+01 | 1486193482.23095 | 6F/F4B04638              |          480846562872

 2017-02-04 08:31:23.309453+01 | 1486193483.30945 | 6F/F83A4C70              |          480905940080

 2017-02-04 08:31:24.383187+01 | 1486193484.38319 | 6F/FB54CAF8              |          480958008056

 2017-02-04 08:31:25.45788+01 | 1486193485.45788 | 6F/FECC6830              |          481016178736

 2017-02-04 08:31:26.532949+01 | 1486193486.53295 | 70/2072230               |          481070359088

 2017-02-04 08:31:27.599428+01 | 1486193487.59943 | 70/5274618               |          481122797080

 2017-02-04 08:31:28.67228+01 | 1486193488.67228 | 70/834DC90               |          481174019216

 2017-02-04 08:31:29.750555+01 | 1486193489.75056 | 70/B9C2180               |          481231118720

 2017-02-04 08:31:30.828525+01 | 1486193490.82853 | 70/E6AB498               |          481278211224

 2017-02-04 08:31:31.902319+01 | 1486193491.90232 | 70/112AE768              |          481324361576

 2017-02-04 08:31:32.978977+01 | 1486193492.97898 | 70/144BA168              |          481376837992

 2017-02-04 08:31:34.060165+01 | 1486193494.06016 | 70/173543C0              |          481425703872

 2017-02-04 08:31:35.15308+01 | 1486193495.15308 | 70/1A703568              |          481479898472

 2017-02-04 08:31:36.228798+01 | 1486193496.2288 | 70/1D4DB640              |          481527969344

 2017-02-04 08:31:37.306282+01 | 1486193497.30628 | 70/1FC406B0              |          481569277616

 2017-02-04 08:31:38.38225+01 | 1486193498.38225 | 70/22C95080              |          481619955840

 2017-02-04 08:31:39.451687+01 | 1486193499.45169 | 70/255D3088              |          481663201416

 2017-02-04 08:31:40.53212+01 | 1486193500.53212 | 70/28471D68              |          481712086376

 2017-02-04 08:31:41.613738+01 | 1486193501.61374 | 70/2AC2E2C8              |          481753752264

 2017-02-04 08:31:42.697699+01 | 1486193502.6977 | 70/2D188F40              |          481792921408

 2017-02-04 08:31:43.763642+01 | 1486193503.76364 | 70/2EFF0A48              |          481824803400

 2017-02-04 08:31:44.840069+01 | 1486193504.84007 | 70/30FD3B28              |          481858239272

 2017-02-04 08:31:45.924283+01 | 1486193505.92428 | 70/332EF320              |          481895052064

 2017-02-04 08:31:47.005045+01 | 1486193507.00504 | 70/355056A8              |          481930794664

 2017-02-04 08:31:48.084665+01 | 1486193508.08467 | 70/37669D98              |          481965809048

 2017-02-04 08:31:49.160052+01 | 1486193509.16005 | 70/38EDD518              |          481991447832

 2017-02-04 08:31:50.239976+01 | 1486193510.23998 | 70/3B583170              |          482031972720

 2017-02-04 08:31:51.315894+01 | 1486193511.31589 | 70/3DE48660              |          482074723936

 2017-02-04 08:31:52.388133+01 | 1486193512.38813 | 70/40212D80              |          482112253312

 2017-02-04 08:31:53.463198+01 | 1486193513.4632 | 70/429B6E58              |          482153819736

 2017-02-04 08:31:54.536639+01 | 1486193514.53664 | 70/45495E78              |          482198773368

 2017-02-04 08:31:55.598718+01 | 1486193515.59872 | 70/4756A840              |          482233198656

 2017-02-04 08:31:56.672701+01 | 1486193516.6727 | 70/49CE5BA0              |          482274597792

 2017-02-04 08:31:57.747918+01 | 1486193517.74792 | 70/4C86F4E0              |          482320250080

 2017-02-04 08:31:58.814092+01 | 1486193518.81409 | 70/4F2AC050              |          482364538960

 2017-02-04 08:31:59.888107+01 | 1486193519.88811 | 70/51D0ECD8              |          482408983768

 2017-02-04 08:32:00.956646+01 | 1486193520.95665 | 70/5407D260              |          482446135904

 2017-02-04 08:32:02.030308+01 | 1486193522.03031 | 70/56615698              |          482485556888

 2017-02-04 08:32:03.10241+01 | 1486193523.10241 | 70/588ED980              |          482522093952

 2017-02-04 08:32:04.175854+01 | 1486193524.17585 | 70/5AE57268              |          482561323624

 2017-02-04 08:32:05.246056+01 | 1486193525.24606 | 70/5CF3B160              |          482595811680

 2017-02-04 08:32:06.322287+01 | 1486193526.32229 | 70/5F3D79B0              |          482634201520

 2017-02-04 08:32:07.394072+01 | 1486193527.39407 | 70/613126E0              |          482666948320

 2017-02-04 08:32:08.468778+01 | 1486193528.46878 | 70/63701130              |          482704625968

 2017-02-04 08:32:09.540575+01 | 1486193529.54058 | 70/655C4D50              |          482736885072

 2017-02-04 08:32:10.617067+01 | 1486193530.61707 | 70/678F4288              |          482773779080

 2017-02-04 08:32:11.696641+01 | 1486193531.69664 | 70/69728748              |          482805450568

 2017-02-04 08:32:12.779346+01 | 1486193532.77935 | 70/6B865FF8              |          482840305656

 2017-02-04 08:32:13.85544+01 | 1486193533.85544 | 70/6D850E60              |          482873773664

 2017-02-04 08:32:14.922216+01 | 1486193534.92222 | 70/6F8CA368              |          482907825000

 2017-02-04 08:32:15.998312+01 | 1486193535.99831 | 70/716D9B28              |          482939345704

 2017-02-04 08:32:17.085339+01 | 1486193537.08534 | 70/736892E0              |          482972570336

 2017-02-04 08:32:18.158563+01 | 1486193538.15856 | 70/753FA418              |          483003442200

 2017-02-04 08:32:19.242021+01 | 1486193539.24202 | 70/771A4BC0              |          483034549184

 2017-02-04 08:32:20.319822+01 | 1486193540.31982 | 70/78FEB220              |          483066294816

 2017-02-04 08:32:21.389365+01 | 1486193541.38936 | 70/7AA40EB0              |          483093909168

 2017-02-04 08:32:22.463088+01 | 1486193542.46309 | 70/7CAF6CC8              |          483128208584

 2017-02-04 08:32:23.547281+01 | 1486193543.54728 | 70/7E69C0C0              |          483157196992

 2017-02-04 08:32:24.624879+01 | 1486193544.62488 | 70/8056B090              |          483189502096

 2017-02-04 08:32:25.697756+01 | 1486193545.69776 | 70/820BAD08              |          483218140424

 2017-02-04 08:32:26.772288+01 | 1486193546.77229 | 70/83EEA568              |          483249792360

 2017-02-04 08:32:27.845455+01 | 1486193547.84545 | 70/858FB838              |          483277125688

 2017-02-04 08:32:28.920276+01 | 1486193548.92028 | 70/87555548              |          483306853704

 2017-02-04 08:32:29.996047+01 | 1486193549.99605 | 70/891044A8              |          483335881896

 2017-02-04 08:32:31.067148+01 | 1486193551.06715 | 70/8AE52F70              |          483366612848

 2017-02-04 08:32:32.138401+01 | 1486193552.1384 | 70/8C6A8108              |          483392127240

 2017-02-04 08:32:33.213485+01 | 1486193553.21349 | 70/8E32DCE0              |          483422035168

 2017-02-04 08:32:34.289184+01 | 1486193554.28918 | 70/8FBFC940              |          483448047936

 2017-02-04 08:32:35.370194+01 | 1486193555.37019 | 70/917F8258              |          483477389912

 2017-02-04 08:32:36.443554+01 | 1486193556.44355 | 70/931A2208              |          483504300552

 2017-02-04 08:32:37.518326+01 | 1486193557.51833 | 70/94B8ADE8              |          483531468264

 2017-02-04 08:32:38.594652+01 | 1486193558.59465 | 70/96359418              |          483556430872

 2017-02-04 08:32:39.668445+01 | 1486193559.66845 | 70/97DA61B8              |          483584008632

 2017-02-04 08:32:40.738677+01 | 1486193560.73868 | 70/9945AAF8              |          483607816952

 2017-02-04 08:32:41.811619+01 | 1486193561.81162 | 70/9AE0D258              |          483634762328

 2017-02-04 08:32:42.882433+01 | 1486193562.88243 | 70/9C4A3380              |          483658445696

 2017-02-04 08:32:43.954802+01 | 1486193563.9548 | 70/9DD8B908              |          483684563208

 2017-02-04 08:32:45.036618+01 | 1486193565.03662 | 70/9F4A9050              |          483708801104

 2017-02-04 08:32:46.112529+01 | 1486193566.11253 | 70/A0BDA378              |          483733119864

 2017-02-04 08:32:47.190897+01 | 1486193567.1909 | 70/A22BF620              |          483757127200

 2017-02-04 08:32:48.267625+01 | 1486193568.26763 | 70/A3CB1200              |          483784331776

 2017-02-04 08:32:49.347929+01 | 1486193569.34793 | 70/A5370230              |          483808182832

 2017-02-04 08:32:50.429734+01 | 1486193570.42973 | 70/A6AF6020              |          483832848416

 2017-02-04 08:32:51.508176+01 | 1486193571.50818 | 70/A7F89470              |          483854423152

 2017-02-04 08:32:52.587074+01 | 1486193572.58707 | 70/A979DA00              |          483879672320

 2017-02-04 08:32:53.650876+01 | 1486193573.65088 | 70/AADFA888              |          483903121544

 2017-02-04 08:32:54.729903+01 | 1486193574.7299 | 70/AC6B7288              |          483929059976

 2017-02-04 08:32:55.805816+01 | 1486193575.80582 | 70/ADBF83A8              |          483951346600

 2017-02-04 08:32:56.878898+01 | 1486193576.8789 | 70/AF6B6058              |          483979386968

 2017-02-04 08:32:57.958155+01 | 1486193577.95815 | 70/B10EECB0              |          484006882480

 2017-02-04 08:32:59.039881+01 | 1486193579.03988 | 70/B2E49E68              |          484037664360

 2017-02-04 08:33:00.113684+01 | 1486193580.11368 | 70/B4DB50D0              |          484070609104

 2017-02-04 08:33:01.190811+01 | 1486193581.19081 | 70/B7264A00              |          484109076992

 2017-02-04 08:33:02.270611+01 | 1486193582.27061 | 70/B937BEF8              |          484143775480

 2017-02-04 08:33:03.355953+01 | 1486193583.35595 | 70/BB78CC78              |          484181593208

 2017-02-04 08:33:04.43333+01 | 1486193584.43333 | 70/BCDF6B30              |          484205095728

 2017-02-04 08:33:05.504436+01 | 1486193585.50444 | 70/BDE27FB8              |          484222074808

 2017-02-04 08:33:06.581971+01 | 1486193586.58197 | 70/BEE4E138              |          484239008056

 2017-02-04 08:33:07.661668+01 | 1486193587.66167 | 70/C00CD4D0              |          484258403536

 2017-02-04 08:33:08.731262+01 | 1486193588.73126 | 70/C118FD38              |          484275977528

 2017-02-04 08:33:09.812431+01 | 1486193589.81243 | 70/C2245790              |          484293498768

 2017-02-04 08:33:10.886718+01 | 1486193590.88672 | 70/C322C240              |          484310172224

 2017-02-04 08:33:11.975798+01 | 1486193591.9758 | 70/C4500B60              |          484329917280

 2017-02-04 08:33:13.063694+01 | 1486193593.06369 | 70/C569E230              |          484348387888

 2017-02-04 08:33:14.137015+01 | 1486193594.13702 | 70/C66E3FE0              |          484365451232

 2017-02-04 08:33:15.210632+01 | 1486193595.21063 | 70/C776A290              |          484382778000

 2017-02-04 08:33:16.286566+01 | 1486193596.28657 | 70/C87B5158              |          484399862104

 2017-02-04 08:33:17.363179+01 | 1486193597.36318 | 70/C9C1A118              |          484421247256

 2017-02-04 08:33:18.448649+01 | 1486193598.44865 | 70/CAF106C0              |          484441130688

 2017-02-04 08:33:19.528164+01 | 1486193599.52816 | 70/CC2AF230              |          484461703728

 2017-02-04 08:33:20.609998+01 | 1486193600.61 | 70/CD49CC00              |          484480502784

 2017-02-04 08:33:21.686548+01 | 1486193601.68655 | 70/CE93E718              |          484502136600

 2017-02-04 08:33:22.757528+01 | 1486193602.75753 | 70/CFB9A138              |          484521386296

 2017-02-04 08:33:23.838428+01 | 1486193603.83843 | 70/D0F92350              |          484542325584

 2017-02-04 08:33:24.910142+01 | 1486193604.91014 | 70/D21E92C8              |          484561556168

 2017-02-04 08:33:25.982524+01 | 1486193605.98252 | 70/D35C0A98              |          484582361752

 2017-02-04 08:33:27.05418+01 | 1486193607.05418 | 70/D482A798              |          484601669528

 2017-02-04 08:33:28.125895+01 | 1486193608.1259 | 70/D5ACD4A8              |          484621210792

 2017-02-04 08:33:29.203561+01 | 1486193609.20356 | 70/D6D436F8              |          484640569080

 2017-02-04 08:33:30.281955+01 | 1486193610.28196 | 70/D8151C20              |          484661599264

 2017-02-04 08:33:31.357255+01 | 1486193611.35725 | 70/D92C8EE0              |          484679913184

 2017-02-04 08:33:32.440088+01 | 1486193612.44009 | 70/DA5701C8              |          484699472328

 2017-02-04 08:33:33.513063+01 | 1486193613.51306 | 70/DB679EA0              |          484717338272

 2017-02-04 08:33:34.589497+01 | 1486193614.5895 | 70/DC994290              |          484737368720

 2017-02-04 08:33:35.664156+01 | 1486193615.66416 | 70/DDA379B8              |          484754815416

 2017-02-04 08:33:36.745507+01 | 1486193616.74551 | 70/DEB5F8C8              |          484772804808

 2017-02-04 08:33:37.82005+01 | 1486193617.82005 | 70/DFC964E0              |          484790854880

 2017-02-04 08:33:38.891821+01 | 1486193618.89182 | 70/E0F6BFD8              |          484810604504

 2017-02-04 08:33:39.960784+01 | 1486193619.96078 | 70/E1F8D7B0              |          484827518896

 2017-02-04 08:33:41.033929+01 | 1486193621.03393 | 70/E31AF480              |          484846531712

 2017-02-04 08:33:42.106764+01 | 1486193622.10676 | 70/E41E4450              |          484863525968

 2017-02-04 08:33:43.1827+01 | 1486193623.1827 | 70/E5390FD0              |          484882059216

 2017-02-04 08:33:44.257171+01 | 1486193624.25717 | 70/E6467C78              |          484899716216

 2017-02-04 08:33:45.331742+01 | 1486193625.33174 | 70/E74839F0              |          484916607472

 2017-02-04 08:33:46.409753+01 | 1486193626.40975 | 70/E843B5D8              |          484933088728

 2017-02-04 08:33:47.493564+01 | 1486193627.49356 | 70/E95C2170              |          484951466352

 2017-02-04 08:33:48.569319+01 | 1486193628.56932 | 70/EA549740              |          484967749440

 2017-02-04 08:33:49.644385+01 | 1486193629.64439 | 70/EB61A240              |          484985381440

 2017-02-04 08:33:50.723179+01 | 1486193630.72318 | 70/EC5462D8              |          485001290456

 2017-02-04 08:33:51.798597+01 | 1486193631.7986 | 70/ED58E590              |          485018363280

 2017-02-04 08:33:52.868001+01 | 1486193632.868 | 70/EE55D4C0              |          485034939584

 2017-02-04 08:33:53.930704+01 | 1486193633.9307 | 70/EF781210              |          485053960720

 2017-02-04 08:33:55.005404+01 | 1486193635.0054 | 70/F07DF4D0              |          485071123664

 2017-02-04 08:33:56.068733+01 | 1486193636.06873 | 70/F1A84140              |          485090672960

 2017-02-04 08:33:57.155323+01 | 1486193637.15532 | 70/F2E7D588              |          485111616904

 2017-02-04 08:33:58.231408+01 | 1486193638.23141 | 70/F45FD450              |          485136258128

 2017-02-04 08:33:59.306393+01 | 1486193639.30639 | 70/F5D517D0              |          485160720336

 2017-02-04 08:34:00.383961+01 | 1486193640.38396 | 70/F79C1440              |          485190538304

 2017-02-04 08:34:01.460548+01 | 1486193641.46055 | 70/F95F3EC0              |          485220105920

 2017-02-04 08:34:02.538109+01 | 1486193642.53811 | 70/FB47B7B8              |          485252118456

 2017-02-04 08:34:03.601894+01 | 1486193643.60189 | 70/FD1CDEE0              |          485282864864

 2017-02-04 08:34:04.680229+01 | 1486193644.68023 | 70/FEF47570              |          485313770864

 2017-02-04 08:34:05.752153+01 | 1486193645.75215 | 71/7B138                 |          485331808568

 2017-02-04 08:34:06.81372+01 | 1486193646.81372 | 71/1060160               |          485348475232

 2017-02-04 08:34:07.883558+01 | 1486193647.88356 | 71/200D690               |          485364913808

 2017-02-04 08:34:08.953622+01 | 1486193648.95362 | 71/2EF1B98               |          485380529048

 2017-02-04 08:34:10.027128+01 | 1486193650.02713 | 71/3F9A7D0               |          485397997520

 2017-02-04 08:34:11.109047+01 | 1486193651.10905 | 71/4E7F818               |          485413615640

 2017-02-04 08:34:12.185676+01 | 1486193652.18568 | 71/5E6C588               |          485430314376

 2017-02-04 08:34:13.259262+01 | 1486193653.25926 | 71/6CFA1A0               |          485445575072

 2017-02-04 08:34:14.335383+01 | 1486193654.33538 | 71/7D2CB20               |          485462559520

 2017-02-04 08:34:15.412556+01 | 1486193655.41256 | 71/8B5BDD8               |          485477432792

 2017-02-04 08:34:16.488899+01 | 1486193656.4889 | 71/9AA68D0               |          485493467344

 2017-02-04 08:34:17.563037+01 | 1486193657.56304 | 71/A824160               |          485507613024

 2017-02-04 08:34:18.645427+01 | 1486193658.64543 | 71/B727C68               |          485523356776

 2017-02-04 08:34:19.721268+01 | 1486193659.72127 | 71/C60C670               |          485538973296

 2017-02-04 08:34:20.802267+01 | 1486193660.80227 | 71/D4D1060               |          485554458720

 2017-02-04 08:34:21.87971+01 | 1486193661.87971 | 71/E345A58               |          485569616472

 2017-02-04 08:34:22.955594+01 | 1486193662.95559 | 71/F2E9FE0               |          485586018272

 2017-02-04 08:34:24.030919+01 | 1486193664.03092 | 71/1023FD70              |          485602098544

 2017-02-04 08:34:25.104564+01 | 1486193665.10456 | 71/110A5E40              |          485617196608

 2017-02-04 08:34:26.181045+01 | 1486193666.18105 | 71/11FD0B68              |          485633100648

 2017-02-04 08:34:27.266025+01 | 1486193667.26603 | 71/12C82288              |          485646410376

 2017-02-04 08:34:28.343295+01 | 1486193668.3433 | 71/13AE4DF8              |          485661494776

 2017-02-04 08:34:29.432317+01 | 1486193669.43232 | 71/148CE3B0              |          485676082096

 2017-02-04 08:34:30.508612+01 | 1486193670.50861 | 71/15797668              |          485691586152

 2017-02-04 08:34:31.582518+01 | 1486193671.58252 | 71/166522C0              |          485707031232

 2017-02-04 08:34:32.649538+01 | 1486193672.64954 | 71/173FA2C0              |          485721350848

 2017-02-04 08:34:33.725012+01 | 1486193673.72501 | 71/18291C10              |          485736651792

 2017-02-04 08:34:34.811275+01 | 1486193674.81128 | 71/18FEBF28              |          485750652712

 2017-02-04 08:34:35.885294+01 | 1486193675.88529 | 71/19E78858              |          485765908568

 2017-02-04 08:34:36.958702+01 | 1486193676.9587 | 71/1AC5F0B0              |          485780484272

 2017-02-04 08:34:38.031107+01 | 1486193678.03111 | 71/1BA56038              |          485795127352

 2017-02-04 08:34:39.098014+01 | 1486193679.09801 | 71/1C797608              |          485809026568

 2017-02-04 08:34:40.177523+01 | 1486193680.17752 | 71/1D618108              |          485824233736

 2017-02-04 08:34:41.251887+01 | 1486193681.25189 | 71/1E381910              |          485838297360

 2017-02-04 08:34:42.32702+01 | 1486193682.32702 | 71/1F0E53B8              |          485852337080

