 2017-02-05 17:04:44.987084+01 | 1486310684.98708 | 13/AEE6FC90              |           84538752144

 2017-02-05 17:04:46.064963+01 | 1486310686.06496 | 13/BCC0C000              |           84771127296

 2017-02-05 17:04:47.153121+01 | 1486310687.15312 | 13/C863DB18              |           84966365976

 2017-02-05 17:04:48.234879+01 | 1486310688.23488 | 13/CFFD8C40              |           85093878848

 2017-02-05 17:04:49.324661+01 | 1486310689.32466 | 13/D5DF45A0              |           85192557984

 2017-02-05 17:04:50.402095+01 | 1486310690.4021 | 13/DB0F5C30              |           85279595568

 2017-02-05 17:04:51.49401+01 | 1486310691.49401 | 13/DF601B08              |           85351996168

 2017-02-05 17:04:52.579999+01 | 1486310692.58 | 13/E3751528              |           85420479784

 2017-02-05 17:04:53.665045+01 | 1486310693.66505 | 13/E6A27400              |           85473784832

 2017-02-05 17:04:54.744908+01 | 1486310694.74491 | 13/E9647498              |           85520053400

 2017-02-05 17:04:55.826231+01 | 1486310695.82623 | 13/EC1CEA98              |           85565696664

 2017-02-05 17:04:56.905096+01 | 1486310696.9051 | 13/EEAD0A60              |           85608696416

 2017-02-05 17:04:57.987542+01 | 1486310697.98754 | 13/F11F7FD8              |           85649752024

 2017-02-05 17:04:59.08075+01 | 1486310699.08075 | 13/F37196A8              |           85688686248

 2017-02-05 17:05:00.170351+01 | 1486310700.17035 | 13/F5839AC0              |           85723421376

 2017-02-05 17:05:01.258016+01 | 1486310701.25802 | 13/F79CC780              |           85758625664

 2017-02-05 17:05:02.340211+01 | 1486310702.34021 | 13/F9BE5370              |           85794378608

 2017-02-05 17:05:03.423869+01 | 1486310703.42387 | 13/FBD705C8              |           85829551560

 2017-02-05 17:05:04.518354+01 | 1486310704.51835 | 13/FD88E340              |           85857985344

 2017-02-05 17:05:05.598863+01 | 1486310705.59886 | 13/FF1EE1C8              |           85884592584

 2017-02-05 17:05:06.686592+01 | 1486310706.68659 | 14/10F8280               |           85917139584

 2017-02-05 17:05:07.771028+01 | 1486310707.77103 | 14/263A828               |           85939431464

 2017-02-05 17:05:08.853355+01 | 1486310708.85335 | 14/3A353A0               |           85960381344

 2017-02-05 17:05:09.933592+01 | 1486310709.93359 | 14/4CB2798               |           85979768728

 2017-02-05 17:05:11.011113+01 | 1486310711.01111 | 14/5E412A8               |           85998178984

 2017-02-05 17:05:12.09359+01 | 1486310712.09359 | 14/6FF4908               |           86016739592

 2017-02-05 17:05:13.174394+01 | 1486310713.17439 | 14/8215660               |           86035748448

 2017-02-05 17:05:14.258958+01 | 1486310714.25896 | 14/944D8C0               |           86054852800

 2017-02-05 17:05:15.34153+01 | 1486310715.34153 | 14/A609E38               |           86073450040

 2017-02-05 17:05:16.424609+01 | 1486310716.42461 | 14/B7E5698               |           86092175000

 2017-02-05 17:05:17.508505+01 | 1486310717.50851 | 14/C99AAF8               |           86110743288

 2017-02-05 17:05:18.591575+01 | 1486310718.59157 | 14/DB05B70               |           86129007472

 2017-02-05 17:05:19.673909+01 | 1486310719.67391 | 14/EE25070               |           86149058672

 2017-02-05 17:05:20.76662+01 | 1486310720.76662 | 14/FE4A578               |           86165988728

 2017-02-05 17:05:21.848901+01 | 1486310721.8489 | 14/1115D858              |           86185990232

 2017-02-05 17:05:22.933566+01 | 1486310722.93357 | 14/124D5558              |           86206403928

 2017-02-05 17:05:24.008545+01 | 1486310724.00854 | 14/138A73E8              |           86227186664

 2017-02-05 17:05:25.087682+01 | 1486310725.08768 | 14/14C06408              |           86247498760

 2017-02-05 17:05:26.172982+01 | 1486310726.17298 | 14/15FCBE88              |           86268231304

 2017-02-05 17:05:27.254838+01 | 1486310727.25484 | 14/17392188              |           86288966024

 2017-02-05 17:05:28.341402+01 | 1486310728.3414 | 14/186DA6F0              |           86309185264

 2017-02-05 17:05:29.427367+01 | 1486310729.42737 | 14/19AE7A50              |           86330210896

 2017-02-05 17:05:30.512475+01 | 1486310730.51248 | 14/1AE59C98              |           86350601368

 2017-02-05 17:05:31.597612+01 | 1486310731.59761 | 14/1C116EB0              |           86370250416

 2017-02-05 17:05:32.686756+01 | 1486310732.68676 | 14/1D46F208              |           86390534664

 2017-02-05 17:05:33.778041+01 | 1486310733.77804 | 14/1E707DE8              |           86410034664

 2017-02-05 17:05:34.859251+01 | 1486310734.85925 | 14/1F9EBBD8              |           86429842392

 2017-02-05 17:05:35.940168+01 | 1486310735.94017 | 14/20C3E878              |           86449055864

 2017-02-05 17:05:37.016799+01 | 1486310737.0168 | 14/21F892B8              |           86469284536

 2017-02-05 17:05:38.096625+01 | 1486310738.09663 | 14/232DEF98              |           86489558936

 2017-02-05 17:05:39.18564+01 | 1486310739.18564 | 14/245A4C28              |           86509243432

 2017-02-05 17:05:40.272701+01 | 1486310740.2727 | 14/259FEB70              |           86530583408

 2017-02-05 17:05:41.352252+01 | 1486310741.35225 | 14/26E859E0              |           86552107488

 2017-02-05 17:05:42.437447+01 | 1486310742.43745 | 14/28472EE8              |           86575099624

 2017-02-05 17:05:43.527007+01 | 1486310743.52701 | 14/29E09CF8              |           86601932024

 2017-02-05 17:05:44.622096+01 | 1486310744.6221 | 14/2B7E9BE8              |           86629063656

 2017-02-05 17:05:45.70929+01 | 1486310745.70929 | 14/2CD3DF68              |           86651428712

 2017-02-05 17:05:46.791648+01 | 1486310746.79165 | 14/2DFA9E00              |           86670745088

 2017-02-05 17:05:47.878799+01 | 1486310747.8788 | 14/2F256870              |           86690326640

 2017-02-05 17:05:48.960002+01 | 1486310748.96 | 14/306446B0              |           86711223984

 2017-02-05 17:05:50.037552+01 | 1486310750.03755 | 14/31A0B430              |           86731961392

 2017-02-05 17:05:51.116661+01 | 1486310751.11666 | 14/32B1BFA8              |           86749855656

 2017-02-05 17:05:52.209638+01 | 1486310752.20964 | 14/33DEDCA0              |           86769589408

 2017-02-05 17:05:53.294997+01 | 1486310753.295 | 14/354BF0E8              |           86793515240

 2017-02-05 17:05:54.377197+01 | 1486310754.3772 | 14/39C57D70              |           86868589936

 2017-02-05 17:05:55.477319+01 | 1486310755.47732 | 14/3C80EB98              |           86914427800

 2017-02-05 17:05:56.573873+01 | 1486310756.57387 | 14/3F2BA438              |           86959170616

 2017-02-05 17:05:57.659813+01 | 1486310757.65981 | 14/41A55CF0              |           87000702192

 2017-02-05 17:05:58.752191+01 | 1486310758.75219 | 14/43E26C60              |           87038258272

 2017-02-05 17:05:59.841117+01 | 1486310759.84112 | 14/462B8200              |           87076602368

 2017-02-05 17:06:00.932551+01 | 1486310760.93255 | 14/487A0D68              |           87115304296

 2017-02-05 17:06:02.01699+01 | 1486310762.01699 | 14/4AAED1A0              |           87152316832

 2017-02-05 17:06:03.105581+01 | 1486310763.10558 | 14/4CCC6908              |           87187821696

 2017-02-05 17:06:04.188327+01 | 1486310764.18833 | 14/4EC0C610              |           87220602384

 2017-02-05 17:06:05.273828+01 | 1486310765.27383 | 14/4FC7B798              |           87237834648

 2017-02-05 17:06:06.352798+01 | 1486310766.3528 | 14/50D905F0              |           87255746032

 2017-02-05 17:06:07.435354+01 | 1486310767.43535 | 14/51EC5FC0              |           87273791424

 2017-02-05 17:06:08.519677+01 | 1486310768.51968 | 14/52FA2918              |           87291472152

 2017-02-05 17:06:09.605247+01 | 1486310769.60525 | 14/540C65D8              |           87309444568

 2017-02-05 17:06:10.690451+01 | 1486310770.69045 | 14/55129F38              |           87326629688

 2017-02-05 17:06:11.778248+01 | 1486310771.77825 | 14/5620B018              |           87344328728

 2017-02-05 17:06:12.858987+01 | 1486310772.85899 | 14/573024E0              |           87362118880

 2017-02-05 17:06:13.944942+01 | 1486310773.94494 | 14/5844C7E8              |           87380248552

 2017-02-05 17:06:15.026312+01 | 1486310775.02631 | 14/5949D388              |           87397357816

 2017-02-05 17:06:16.11048+01 | 1486310776.11048 | 14/5A516D18              |           87414631704

 2017-02-05 17:06:17.193794+01 | 1486310777.19379 | 14/5B548538              |           87431611704

 2017-02-05 17:06:18.283934+01 | 1486310778.28393 | 14/5C4E7018              |           87447990296

 2017-02-05 17:06:19.365991+01 | 1486310779.36599 | 14/5D54CFC8              |           87465185224

 2017-02-05 17:06:20.451363+01 | 1486310780.45136 | 14/5E7C59D8              |           87484553688

 2017-02-05 17:06:21.535971+01 | 1486310781.53597 | 14/5F9BA340              |           87503381312

 2017-02-05 17:06:22.620661+01 | 1486310782.62066 | 14/60A29D28              |           87520615720

 2017-02-05 17:06:23.704141+01 | 1486310783.70414 | 14/61CFD280              |           87540355712

 2017-02-05 17:06:24.785417+01 | 1486310784.78542 | 14/62F56D30              |           87559597360

 2017-02-05 17:06:25.864956+01 | 1486310785.86496 | 14/64201618              |           87579170328

 2017-02-05 17:06:26.951817+01 | 1486310786.95182 | 14/65448E70              |           87598337648

 2017-02-05 17:06:28.037152+01 | 1486310788.03715 | 14/6667D828              |           87617427496

 2017-02-05 17:06:29.118645+01 | 1486310789.11864 | 14/6791C180              |           87636951424

 2017-02-05 17:06:30.191519+01 | 1486310790.19152 | 14/68B6D8B8              |           87656159416

 2017-02-05 17:06:31.275555+01 | 1486310791.27555 | 14/69D5FEC8              |           87674977992

 2017-02-05 17:06:32.360422+01 | 1486310792.36042 | 14/6AE7F590              |           87692932496

 2017-02-05 17:06:33.451322+01 | 1486310793.45132 | 14/6C1240A8              |           87712481448

 2017-02-05 17:06:34.532687+01 | 1486310794.53269 | 14/6D391918              |           87731804440

 2017-02-05 17:06:35.621117+01 | 1486310795.62112 | 14/6E605E28              |           87751155240

 2017-02-05 17:06:36.706773+01 | 1486310796.70677 | 14/6F838170              |           87770235248

 2017-02-05 17:06:37.793316+01 | 1486310797.79332 | 14/70B3E6B8              |           87790184120

 2017-02-05 17:06:38.870058+01 | 1486310798.87006 | 14/71D41678              |           87809070712

 2017-02-05 17:06:39.951968+01 | 1486310799.95197 | 14/7309D950              |           87829371216

 2017-02-05 17:06:41.031691+01 | 1486310801.03169 | 14/7442F678              |           87849891448

 2017-02-05 17:06:42.108253+01 | 1486310802.10825 | 14/756DB448              |           87869469768

 2017-02-05 17:06:43.182594+01 | 1486310803.18259 | 14/767D5580              |           87887271296

 2017-02-05 17:06:44.272432+01 | 1486310804.27243 | 14/778EF678              |           87905203832

 2017-02-05 17:06:45.365221+01 | 1486310805.36522 | 14/789FB438              |           87923078200

 2017-02-05 17:06:46.449253+01 | 1486310806.44925 | 14/79B2EE88              |           87941115528

 2017-02-05 17:06:47.5354+01 | 1486310807.5354 | 14/7AC25AA8              |           87958903464

 2017-02-05 17:06:48.619643+01 | 1486310808.61964 | 14/7BD5AC50              |           87976946768

 2017-02-05 17:06:49.703034+01 | 1486310809.70303 | 14/7CF1D670              |           87995569776

 2017-02-05 17:06:50.78471+01 | 1486310810.78471 | 14/7E17ABB0              |           88014826416

 2017-02-05 17:06:51.880409+01 | 1486310811.88041 | 14/7F4D9628              |           88035137064

 2017-02-05 17:06:52.969149+01 | 1486310812.96915 | 14/8037F958              |           88050497880

 2017-02-05 17:06:54.049958+01 | 1486310814.04996 | 14/813E8C00              |           88067705856

 2017-02-05 17:06:55.131249+01 | 1486310815.13125 | 14/82461678              |           88084977272

 2017-02-05 17:06:56.213216+01 | 1486310816.21322 | 14/8361A918              |           88103561496

 2017-02-05 17:06:57.295712+01 | 1486310817.29571 | 14/8475B620              |           88121652768

 2017-02-05 17:06:58.378832+01 | 1486310818.37883 | 14/8593E5E8              |           88140408296

 2017-02-05 17:06:59.466289+01 | 1486310819.46629 | 14/86B89CC0              |           88159591616

 2017-02-05 17:07:00.551874+01 | 1486310820.55187 | 14/87DAB1F0              |           88178602480

 2017-02-05 17:07:01.642256+01 | 1486310821.64226 | 14/88FCAE60              |           88197607008

 2017-02-05 17:07:02.730853+01 | 1486310822.73085 | 14/8A1B9EB0              |           88216411824

 2017-02-05 17:07:03.821092+01 | 1486310823.82109 | 14/8B48BD50              |           88236146000

 2017-02-05 17:07:04.908251+01 | 1486310824.90825 | 14/8C6C19E0              |           88255240672

 2017-02-05 17:07:05.997733+01 | 1486310825.99773 | 14/8D8D0F20              |           88274177824

 2017-02-05 17:07:07.082104+01 | 1486310827.0821 | 14/8EB12090              |           88293318800

 2017-02-05 17:07:08.161767+01 | 1486310828.16177 | 14/8FD0E8B0              |           88312178864

 2017-02-05 17:07:09.23738+01 | 1486310829.23738 | 14/90F5E730              |           88331380528

 2017-02-05 17:07:10.324835+01 | 1486310830.32484 | 14/921724F8              |           88350336248

 2017-02-05 17:07:11.40783+01 | 1486310831.40783 | 14/93312B40              |           88368819008

 2017-02-05 17:07:12.500444+01 | 1486310832.50044 | 14/9458EC20              |           88388201504

 2017-02-05 17:07:13.58566+01 | 1486310833.58566 | 14/9573F8B8              |           88406751416

 2017-02-05 17:07:14.667231+01 | 1486310834.66723 | 14/969410D8              |           88425631960

 2017-02-05 17:07:15.758904+01 | 1486310835.7589 | 14/97C08210              |           88445321744

 2017-02-05 17:07:16.845471+01 | 1486310836.84547 | 14/98E491D8              |           88464462296

 2017-02-05 17:07:17.939087+01 | 1486310837.93909 | 14/99FE7020              |           88482934816

 2017-02-05 17:07:19.019715+01 | 1486310839.01972 | 14/9B1DA9D0              |           88501758416

 2017-02-05 17:07:20.097608+01 | 1486310840.09761 | 14/9C44B3B0              |           88521094064

 2017-02-05 17:07:21.181024+01 | 1486310841.18102 | 14/9D659AD8              |           88540027608

 2017-02-05 17:07:22.262861+01 | 1486310842.26286 | 14/9E7A1F30              |           88558149424

 2017-02-05 17:07:23.349536+01 | 1486310843.34954 | 14/9F74BBD8              |           88574573528

 2017-02-05 17:07:24.43269+01 | 1486310844.43269 | 14/A09537F0              |           88593479664

 2017-02-05 17:07:25.523212+01 | 1486310845.52321 | 14/A1B91B38              |           88612608824

 2017-02-05 17:07:26.611384+01 | 1486310846.61138 | 14/A2D28458              |           88631051352

 2017-02-05 17:07:27.695387+01 | 1486310847.69539 | 14/A3F27A30              |           88649923120

 2017-02-05 17:07:28.783439+01 | 1486310848.78344 | 14/A50C94E8              |           88668411112

 2017-02-05 17:07:29.869792+01 | 1486310849.86979 | 14/A62C7CC8              |           88687279304

 2017-02-05 17:07:30.948358+01 | 1486310850.94836 | 14/A74298A0              |           88705505440

 2017-02-05 17:07:32.037266+01 | 1486310852.03727 | 14/A8645D80              |           88724495744

 2017-02-05 17:07:33.11863+01 | 1486310853.11863 | 14/A9879610              |           88743581200

 2017-02-05 17:07:34.200736+01 | 1486310854.20074 | 14/AAA92620              |           88762557984

 2017-02-05 17:07:35.282513+01 | 1486310855.28251 | 14/ABCAB1D8              |           88781533656

 2017-02-05 17:07:36.365237+01 | 1486310856.36524 | 14/ACECED18              |           88800554264

 2017-02-05 17:07:37.448232+01 | 1486310857.44823 | 14/AE0C42C0              |           88819385024

 2017-02-05 17:07:38.525983+01 | 1486310858.52598 | 14/AF30B538              |           88838550840

 2017-02-05 17:07:39.616636+01 | 1486310859.61664 | 14/B047C600              |           88856839680

 2017-02-05 17:07:40.708747+01 | 1486310860.70875 | 14/B187DB20              |           88877817976

 2017-02-05 17:07:41.799905+01 | 1486310861.79991 | 14/B2CE46B8              |           88899208888

 2017-02-05 17:07:42.886364+01 | 1486310862.88636 | 14/B40E5028              |           88920182824

 2017-02-05 17:07:43.97232+01 | 1486310863.97232 | 14/B53E6AD0              |           88940112592

 2017-02-05 17:07:45.063574+01 | 1486310865.06357 | 14/B6605808              |           88959113224

 2017-02-05 17:07:46.140678+01 | 1486310866.14068 | 14/B7793C00              |           88977521664

 2017-02-05 17:07:47.217301+01 | 1486310867.2173 | 14/B891CB50              |           88995908432

 2017-02-05 17:07:48.297473+01 | 1486310868.29747 | 14/B9A852A8              |           89014162088

 2017-02-05 17:07:49.386112+01 | 1486310869.38611 | 14/BAE15488              |           89034675336

 2017-02-05 17:07:50.470096+01 | 1486310870.4701 | 14/BC02DB30              |           89053649712

 2017-02-05 17:07:51.552444+01 | 1486310871.55244 | 14/BD11FFE0              |           89071419360

 2017-02-05 17:07:52.647575+01 | 1486310872.64757 | 14/BE4B7E70              |           89091964528

 2017-02-05 17:07:53.741158+01 | 1486310873.74116 | 14/BF7757D8              |           89111615448

 2017-02-05 17:07:54.82758+01 | 1486310874.82758 | 14/C0792F38              |           89128513336

 2017-02-05 17:07:55.912781+01 | 1486310875.91278 | 14/C1965088              |           89147199624

 2017-02-05 17:07:56.990303+01 | 1486310876.9903 | 14/C2BD3268              |           89166525032

 2017-02-05 17:07:58.074956+01 | 1486310878.07496 | 14/C3DCE240              |           89185378880

 2017-02-05 17:07:59.155731+01 | 1486310879.15573 | 14/C4FEAAC0              |           89204370112

 2017-02-05 17:08:00.237483+01 | 1486310880.23748 | 14/C6133DE8              |           89222495720

 2017-02-05 17:08:01.315748+01 | 1486310881.31575 | 14/C735F518              |           89241548056

 2017-02-05 17:08:02.397423+01 | 1486310882.39742 | 14/C8543FB8              |           89260310456

 2017-02-05 17:08:03.481863+01 | 1486310883.48186 | 14/C964FDD8              |           89278184920

 2017-02-05 17:08:04.572073+01 | 1486310884.57207 | 14/CA830AA0              |           89296931488

 2017-02-05 17:08:05.657549+01 | 1486310885.65755 | 14/CB9F61F0              |           89315566064

 2017-02-05 17:08:06.746511+01 | 1486310886.74651 | 14/CCB70550              |           89333892432

 2017-02-05 17:08:07.833512+01 | 1486310887.83351 | 14/CDBBFD58              |           89350995288

 2017-02-05 17:08:08.911123+01 | 1486310888.91112 | 14/CEC48988              |           89368332680

 2017-02-05 17:08:09.99446+01 | 1486310889.99446 | 14/CFCC8750              |           89385633616

 2017-02-05 17:08:11.076131+01 | 1486310891.07613 | 14/D0D5F2F8              |           89403028216

 2017-02-05 17:08:12.155629+01 | 1486310892.15563 | 14/D1D24820              |           89419565088

 2017-02-05 17:08:13.233247+01 | 1486310893.23325 | 14/D2D65168              |           89436606824

 2017-02-05 17:08:14.309724+01 | 1486310894.30972 | 14/D3D1C288              |           89453085320

 2017-02-05 17:08:15.387752+01 | 1486310895.38775 | 14/D4C89AD8              |           89469262552

 2017-02-05 17:08:16.469077+01 | 1486310896.46908 | 14/D5DE5018              |           89487462424

 2017-02-05 17:08:17.566551+01 | 1486310897.56655 | 14/D6F0D1B0              |           89505452464

 2017-02-05 17:08:18.652481+01 | 1486310898.65248 | 14/D8042030              |           89523494960

 2017-02-05 17:08:19.735709+01 | 1486310899.73571 | 14/D92CE990              |           89542945168

 2017-02-05 17:08:20.819954+01 | 1486310900.81995 | 14/DA4555E8              |           89561322984

 2017-02-05 17:08:21.902915+01 | 1486310901.90292 | 14/DB622A58              |           89579989592

 2017-02-05 17:08:22.997881+01 | 1486310902.99788 | 14/DC8363B0              |           89598944176

 2017-02-05 17:08:24.08711+01 | 1486310904.08711 | 14/DD987EB8              |           89617104568

 2017-02-05 17:08:25.168313+01 | 1486310905.16831 | 14/DE9B2280              |           89634054784

 2017-02-05 17:08:26.248649+01 | 1486310906.24865 | 14/DFB59DC8              |           89652567496

 2017-02-05 17:08:27.329554+01 | 1486310907.32955 | 14/E0CCFD38              |           89670876472

 2017-02-05 17:08:28.411376+01 | 1486310908.41138 | 14/E1E163A0              |           89688990624

 2017-02-05 17:08:29.498957+01 | 1486310909.49896 | 14/E2FE0478              |           89707644024

 2017-02-05 17:08:30.595716+01 | 1486310910.59572 | 14/E4164080              |           89726009472

 2017-02-05 17:08:31.685474+01 | 1486310911.68547 | 14/E53A1F90              |           89745137552

 2017-02-05 17:08:32.771625+01 | 1486310912.77163 | 14/E64B5250              |           89763041872

 2017-02-05 17:08:33.857218+01 | 1486310913.85722 | 14/E768BE78              |           89781747320

 2017-02-05 17:08:34.948698+01 | 1486310914.9487 | 14/E86A2E58              |           89798618712

 2017-02-05 17:08:36.028813+01 | 1486310916.02881 | 14/E983FB08              |           89817086728

 2017-02-05 17:08:37.115427+01 | 1486310917.11543 | 14/EAA3A4C8              |           89835939016

 2017-02-05 17:08:38.190811+01 | 1486310918.19081 | 14/EBBD19E8              |           89854384616

 2017-02-05 17:08:39.264961+01 | 1486310919.26496 | 14/ECDA0050              |           89873055824

 2017-02-05 17:08:40.344208+01 | 1486310920.34421 | 14/EE0BAB30              |           89893088048

 2017-02-05 17:08:41.427272+01 | 1486310921.42727 | 14/EF3D0198              |           89913098648

 2017-02-05 17:08:42.51308+01 | 1486310922.51308 | 14/F073E5B8              |           89933473208

 2017-02-05 17:08:43.600939+01 | 1486310923.60094 | 14/F1A38568              |           89953371496

 2017-02-05 17:08:44.689796+01 | 1486310924.6898 | 14/F2CEB050              |           89972977744

 2017-02-05 17:08:45.773459+01 | 1486310925.77346 | 14/F3E771A0              |           89991377312

 2017-02-05 17:08:46.854181+01 | 1486310926.85418 | 14/F4F1F218              |           90008842776

 2017-02-05 17:08:47.935301+01 | 1486310927.9353 | 14/F5FF2BE8              |           90026486760

 2017-02-05 17:08:49.017136+01 | 1486310929.01714 | 14/F71A1270              |           90045026928

 2017-02-05 17:08:50.107255+01 | 1486310930.10725 | 14/F841AEE0              |           90064400096

 2017-02-05 17:08:51.184859+01 | 1486310931.18486 | 14/F9449AD8              |           90081368792

 2017-02-05 17:08:52.248107+01 | 1486310932.24811 | 14/FA5C3B20              |           90099694368

 2017-02-05 17:08:53.324204+01 | 1486310933.3242 | 14/FB7D0F88              |           90118623112

 2017-02-05 17:08:54.397789+01 | 1486310934.39779 | 14/FC8D0D90              |           90136448400

 2017-02-05 17:08:55.474288+01 | 1486310935.47429 | 14/FD8F0D70              |           90153356656

 2017-02-05 17:08:56.551405+01 | 1486310936.5514 | 14/FEA43058              |           90171519064

 2017-02-05 17:08:57.636434+01 | 1486310937.63643 | 14/FFAEB480              |           90188985472

 2017-02-05 17:08:58.723868+01 | 1486310938.72387 | 15/B85EF0                |           90206396144

 2017-02-05 17:08:59.816626+01 | 1486310939.81663 | 15/1AA4AD8               |           90222250712

 2017-02-05 17:09:00.902484+01 | 1486310940.90248 | 15/2AE8BF8               |           90239306744

 2017-02-05 17:09:01.989949+01 | 1486310941.98995 | 15/3B127E0               |           90256254944

 2017-02-05 17:09:03.070015+01 | 1486310943.07001 | 15/4AE7460               |           90272855136

 2017-02-05 17:09:04.155477+01 | 1486310944.15548 | 15/5A9DE20               |           90289331744

 2017-02-05 17:09:05.231088+01 | 1486310945.23109 | 15/6AB2810               |           90306193424

 2017-02-05 17:09:06.309503+01 | 1486310946.3095 | 15/7A33E90               |           90322452112

 2017-02-05 17:09:07.384195+01 | 1486310947.3842 | 15/8A0BE80               |           90339065472

 2017-02-05 17:09:08.466487+01 | 1486310948.46649 | 15/99BC020               |           90355515424

 2017-02-05 17:09:09.54462+01 | 1486310949.54462 | 15/A9B1838               |           90372249656

 2017-02-05 17:09:10.634431+01 | 1486310950.63443 | 15/B88D518               |           90387830040

 2017-02-05 17:09:11.713787+01 | 1486310951.71379 | 15/C6FE838               |           90402973752

 2017-02-05 17:09:12.791501+01 | 1486310952.7915 | 15/D54E640               |           90417980992

 2017-02-05 17:09:13.877474+01 | 1486310953.87747 | 15/E474550               |           90433865040

 2017-02-05 17:09:14.96719+01 | 1486310954.96719 | 15/F4032B8               |           90450178744

 2017-02-05 17:09:16.052037+01 | 1486310956.05204 | 15/10411DE0              |           90467016160

 2017-02-05 17:09:17.138289+01 | 1486310957.13829 | 15/1142EA48              |           90483911240

 2017-02-05 17:09:18.216085+01 | 1486310958.21608 | 15/1247D310              |           90501010192

 2017-02-05 17:09:19.29261+01 | 1486310959.29261 | 15/134B2DE0              |           90518007264

 2017-02-05 17:09:20.368714+01 | 1486310960.36871 | 15/144AFAF8              |           90534771448

 2017-02-05 17:09:21.457236+01 | 1486310961.45724 | 15/15550250              |           90552205904

 2017-02-05 17:09:22.534912+01 | 1486310962.53491 | 15/1659AEE8              |           90569289448

 2017-02-05 17:09:23.610779+01 | 1486310963.61078 | 15/1754D888              |           90585749640

 2017-02-05 17:09:24.700897+01 | 1486310964.7009 | 15/185AE0B0              |           90602922160

 2017-02-05 17:09:25.794777+01 | 1486310965.79478 | 15/195770B0              |           90619474096

 2017-02-05 17:09:26.877567+01 | 1486310966.87757 | 15/1A1E7AA0              |           90632518304

 2017-02-05 17:09:27.96934+01 | 1486310967.96934 | 15/1B07EFA0              |           90647818144

 2017-02-05 17:09:29.054494+01 | 1486310969.05449 | 15/1C011B38              |           90664147768

 2017-02-05 17:09:30.14138+01 | 1486310970.14138 | 15/1D171260              |           90682364512

 2017-02-05 17:09:31.218965+01 | 1486310971.21897 | 15/1E3496E8              |           90701076200

 2017-02-05 17:09:32.297659+01 | 1486310972.29766 | 15/1F39D5B0              |           90718197168

 2017-02-05 17:09:33.382777+01 | 1486310973.38278 | 15/2048C6E0              |           90735953632

 2017-02-05 17:09:34.463424+01 | 1486310974.46342 | 15/21588700              |           90753763072

 2017-02-05 17:09:35.550517+01 | 1486310975.55052 | 15/2272B840              |           90772256832

 2017-02-05 17:09:36.637985+01 | 1486310976.63798 | 15/238E8EF0              |           90790858480

 2017-02-05 17:09:37.722291+01 | 1486310977.72229 | 15/24A669B0              |           90809199024

 2017-02-05 17:09:38.798746+01 | 1486310978.79875 | 15/25B81788              |           90827134856

 2017-02-05 17:09:39.891751+01 | 1486310979.89175 | 15/26E472E8              |           90846819048

 2017-02-05 17:09:40.97393+01 | 1486310980.97393 | 15/2818C8C8              |           90867026120

 2017-02-05 17:09:42.057364+01 | 1486310982.05736 | 15/29595710              |           90888034064

 2017-02-05 17:09:43.142303+01 | 1486310983.1423 | 15/2A8763A8              |           90907829160

 2017-02-05 17:09:44.219134+01 | 1486310984.21913 | 15/2BB673A0              |           90927690656

