 2017-02-06 19:01:52.495926+01 | 1486404112.49593 |                 0 |              12 |                152570 |                 3463 |            8823884 |       1567097 |            15366 |        33376967 |                     0 |      31568144 | 2017-02-06 18:00:10.837486+01

 2017-02-06 19:01:53.598865+01 | 1486404113.59887 |                 0 |              12 |                152570 |                 3463 |            8823884 |       1567097 |            15366 |        33376967 |                     0 |      31575870 | 2017-02-06 18:00:10.837486+01

 2017-02-06 19:01:54.686126+01 | 1486404114.68613 |                 0 |              12 |                152570 |                 3463 |            8823884 |       1567097 |            15366 |        33376967 |                     0 |      31585238 | 2017-02-06 18:00:10.837486+01

 2017-02-06 19:01:55.776691+01 | 1486404115.77669 |                 0 |              12 |                152570 |                 3463 |            8823884 |       1567097 |            15366 |        33376967 |                     0 |      31595239 | 2017-02-06 18:00:10.837486+01

 2017-02-06 19:01:56.857087+01 | 1486404116.85709 |                 0 |              12 |                152570 |                 3463 |            8823884 |       1567097 |            15366 |        33376967 |                     0 |      31607892 | 2017-02-06 18:00:10.837486+01

 2017-02-06 19:01:57.933707+01 | 1486404117.93371 |                 0 |              12 |                152570 |                 3463 |            8823884 |       1567097 |            15366 |        33376967 |                     0 |      31619877 | 2017-02-06 18:00:10.837486+01

 2017-02-06 19:01:59.013861+01 | 1486404119.01386 |                 0 |              12 |                152570 |                 3463 |            8823884 |       1567097 |            15366 |        33376967 |                     0 |      31634915 | 2017-02-06 18:00:10.837486+01

 2017-02-06 19:02:00.090736+01 | 1486404120.09074 |                 0 |              12 |                152570 |                 3463 |            8823884 |       1567097 |            15366 |        33376967 |                     0 |      31647365 | 2017-02-06 18:00:10.837486+01

 2017-02-06 19:02:01.169719+01 | 1486404121.16972 |                 0 |              12 |                152570 |                 3463 |            8823884 |       1567097 |            15366 |        33376967 |                     0 |      31659409 | 2017-02-06 18:00:10.837486+01

 2017-02-06 19:02:02.253024+01 | 1486404122.25302 |                 0 |              12 |                152570 |                 3463 |            8823884 |       1567097 |            15366 |        33376967 |                     0 |      31673191 | 2017-02-06 18:00:10.837486+01

 2017-02-06 19:02:03.338699+01 | 1486404123.3387 |                 0 |              12 |                152570 |                 3463 |            8823884 |       1567097 |            15366 |        33376967 |                     0 |      31684903 | 2017-02-06 18:00:10.837486+01

 2017-02-06 19:02:04.431204+01 | 1486404124.4312 |                 0 |              12 |                152570 |                 3463 |            8823884 |       1567097 |            15366 |        33376967 |                     0 |      31697115 | 2017-02-06 18:00:10.837486+01

 2017-02-06 19:02:05.495865+01 | 1486404125.49587 |                 0 |              12 |                152570 |                 3463 |            8823884 |       1567141 |            15366 |        33376967 |                     0 |      31711434 | 2017-02-06 18:00:10.837486+01

 2017-02-06 19:02:06.578869+01 | 1486404126.57887 |                 0 |              12 |                152570 |                 3463 |            8823884 |       1567215 |            15366 |        33376967 |                     0 |      31721410 | 2017-02-06 18:00:10.837486+01

 2017-02-06 19:02:07.658763+01 | 1486404127.65876 |                 0 |              12 |                152570 |                 3463 |            8823884 |       1567316 |            15366 |        33376967 |                     0 |      31735466 | 2017-02-06 18:00:10.837486+01

 2017-02-06 19:02:08.736101+01 | 1486404128.7361 |                 0 |              12 |                152570 |                 3463 |            8823884 |       1567395 |            15366 |        33376967 |                     0 |      31747905 | 2017-02-06 18:00:10.837486+01

 2017-02-06 19:02:09.813575+01 | 1486404129.81358 |                 0 |              12 |                152570 |                 3463 |            8823884 |       1567487 |            15366 |        33376967 |                     0 |      31759804 | 2017-02-06 18:00:10.837486+01

 2017-02-06 19:02:10.890867+01 | 1486404130.89087 |                 0 |              12 |                152570 |                 3463 |            8823884 |       1567609 |            15366 |        33376967 |                     0 |      31774618 | 2017-02-06 18:00:10.837486+01

 2017-02-06 19:02:11.975609+01 | 1486404131.97561 |                 0 |              12 |                152570 |                 3463 |            8823884 |       1567719 |            15366 |        33376967 |                     0 |      31786152 | 2017-02-06 18:00:10.837486+01

 2017-02-06 19:02:13.054096+01 | 1486404133.0541 |                 0 |              12 |                152570 |                 3463 |            8823884 |       1567818 |            15366 |        33376967 |                     0 |      31797249 | 2017-02-06 18:00:10.837486+01

 2017-02-06 19:02:14.130837+01 | 1486404134.13084 |                 0 |              12 |                152570 |                 3463 |            8823884 |       1567975 |            15366 |        33376967 |                     0 |      31811936 | 2017-02-06 18:00:10.837486+01

 2017-02-06 19:02:15.211375+01 | 1486404135.21137 |                 0 |              12 |                152570 |                 3463 |            8823884 |       1568153 |            15366 |        33376967 |                     0 |      31823644 | 2017-02-06 18:00:10.837486+01

 2017-02-06 19:02:16.285506+01 | 1486404136.28551 |                 0 |              12 |                152570 |                 3463 |            8823884 |       1568333 |            15366 |        33376967 |                     0 |      31835850 | 2017-02-06 18:00:10.837486+01

 2017-02-06 19:02:17.372702+01 | 1486404137.3727 |                 0 |              12 |                152570 |                 3463 |            8823884 |       1568573 |            15366 |        33376967 |                     0 |      31850359 | 2017-02-06 18:00:10.837486+01

 2017-02-06 19:02:18.460745+01 | 1486404138.46075 |                 0 |              12 |                152570 |                 3463 |            8823884 |       1568780 |            15366 |        33376967 |                     0 |      31861247 | 2017-02-06 18:00:10.837486+01

 2017-02-06 19:02:19.546912+01 | 1486404139.54691 |                 0 |              12 |                152570 |                 3463 |            8823884 |       1569081 |            15366 |        33376967 |                     0 |      31875889 | 2017-02-06 18:00:10.837486+01

 2017-02-06 19:02:20.628266+01 | 1486404140.62827 |                 0 |              12 |                152570 |                 3463 |            8823884 |       1569442 |            15366 |        33376967 |                     0 |      31889062 | 2017-02-06 18:00:10.837486+01

 2017-02-06 19:02:21.70371+01 | 1486404141.70371 |                 0 |              12 |                152570 |                 3463 |            8823884 |       1569933 |            15370 |        33376967 |                     0 |      31901253 | 2017-02-06 18:00:10.837486+01

 2017-02-06 19:02:22.780765+01 | 1486404142.78077 |                 0 |              12 |                152570 |                 3463 |            8823884 |       1570533 |            15376 |        33376967 |                     0 |      31916770 | 2017-02-06 18:00:10.837486+01

 2017-02-06 19:02:23.862424+01 | 1486404143.86242 |                 0 |              12 |                152570 |                 3463 |            8823884 |       1571033 |            15381 |        33376967 |                     0 |      31928412 | 2017-02-06 18:00:10.837486+01

 2017-02-06 19:02:24.943432+01 | 1486404144.94343 |                 0 |              12 |                152570 |                 3463 |            8823884 |       1571533 |            15386 |        33376967 |                     0 |      31941277 | 2017-02-06 18:00:10.837486+01

 2017-02-06 19:02:26.023937+01 | 1486404146.02394 |                 0 |              12 |                152570 |                 3463 |            8823884 |       1572133 |            15392 |        33376967 |                     0 |      31956505 | 2017-02-06 18:00:10.837486+01

 2017-02-06 19:02:27.10521+01 | 1486404147.10521 |                 0 |              12 |                152570 |                 3463 |            8823884 |       1572633 |            15397 |        33376967 |                     0 |      31969071 | 2017-02-06 18:00:10.837486+01

 2017-02-06 19:02:28.186716+01 | 1486404148.18672 |                 0 |              12 |                152570 |                 3463 |            8823884 |       1573133 |            15402 |        33376967 |                     0 |      31981200 | 2017-02-06 18:00:10.837486+01

 2017-02-06 19:02:29.269721+01 | 1486404149.26972 |                 0 |              12 |                152570 |                 3463 |            8823884 |       1573733 |            15408 |        33376967 |                     0 |      31996835 | 2017-02-06 18:00:10.837486+01

 2017-02-06 19:02:30.350149+01 | 1486404150.35015 |                 0 |              12 |                152570 |                 3463 |            8823884 |       1574233 |            15413 |        33376967 |                     0 |      32008065 | 2017-02-06 18:00:10.837486+01

 2017-02-06 19:02:31.434725+01 | 1486404151.43473 |                 0 |              12 |                152570 |                 3463 |            8823884 |       1574733 |            15418 |        33376967 |                     0 |      32021139 | 2017-02-06 18:00:10.837486+01

 2017-02-06 19:02:32.51189+01 | 1486404152.51189 |                 0 |              12 |                152570 |                 3463 |            8823884 |       1575333 |            15424 |        33376967 |                     0 |      32036558 | 2017-02-06 18:00:10.837486+01

 2017-02-06 19:02:33.601184+01 | 1486404153.60118 |                 0 |              12 |                152570 |                 3463 |            8823884 |       1575833 |            15429 |        33376967 |                     0 |      32049250 | 2017-02-06 18:00:10.837486+01

 2017-02-06 19:02:34.669583+01 | 1486404154.66958 |                 0 |              12 |                152570 |                 3463 |            8823884 |       1576333 |            15434 |        33376967 |                     0 |      32063188 | 2017-02-06 18:00:10.837486+01

 2017-02-06 19:02:35.748481+01 | 1486404155.74848 |                 0 |              12 |                152570 |                 3463 |            8823884 |       1576933 |            15440 |        33376967 |                     0 |      32075838 | 2017-02-06 18:00:10.837486+01

 2017-02-06 19:02:36.832636+01 | 1486404156.83264 |                 0 |              12 |                152570 |                 3463 |            8823884 |       1577433 |            15445 |        33376967 |                     0 |      32087756 | 2017-02-06 18:00:10.837486+01

 2017-02-06 19:02:37.909192+01 | 1486404157.90919 |                 0 |              12 |                152570 |                 3463 |            8823884 |       1577933 |            15450 |        33376967 |                     0 |      32099029 | 2017-02-06 18:00:10.837486+01

 2017-02-06 19:02:38.990772+01 | 1486404158.99077 |                 0 |              12 |                152570 |                 3463 |            8823884 |       1578533 |            15456 |        33376967 |                     0 |      32112273 | 2017-02-06 18:00:10.837486+01

 2017-02-06 19:02:40.072563+01 | 1486404160.07256 |                 0 |              12 |                152570 |                 3463 |            8823884 |       1579033 |            15461 |        33376967 |                     0 |      32125097 | 2017-02-06 18:00:10.837486+01

 2017-02-06 19:02:41.148022+01 | 1486404161.14802 |                 0 |              12 |                152570 |                 3463 |            8823884 |       1579533 |            15466 |        33376967 |                     0 |      32135927 | 2017-02-06 18:00:10.837486+01

 2017-02-06 19:02:42.228474+01 | 1486404162.22847 |                 0 |              12 |                152570 |                 3463 |            8823884 |       1580133 |            15472 |        33376967 |                     0 |      32150778 | 2017-02-06 18:00:10.837486+01

 2017-02-06 19:02:43.310515+01 | 1486404163.31051 |                 0 |              12 |                152570 |                 3463 |            8823884 |       1580633 |            15477 |        33376967 |                     0 |      32162593 | 2017-02-06 18:00:10.837486+01

 2017-02-06 19:02:44.386137+01 | 1486404164.38614 |                 0 |              12 |                152570 |                 3463 |            8823884 |       1581233 |            15483 |        33376967 |                     0 |      32177669 | 2017-02-06 18:00:10.837486+01

 2017-02-06 19:02:45.470197+01 | 1486404165.4702 |                 0 |              12 |                152570 |                 3463 |            8823884 |       1581733 |            15488 |        33376967 |                     0 |      32188436 | 2017-02-06 18:00:10.837486+01

 2017-02-06 19:02:46.557768+01 | 1486404166.55777 |                 0 |              12 |                152570 |                 3463 |            8823884 |       1582233 |            15493 |        33376967 |                     0 |      32200195 | 2017-02-06 18:00:10.837486+01

 2017-02-06 19:02:47.64611+01 | 1486404167.64611 |                 0 |              12 |                152570 |                 3463 |            8823884 |       1582833 |            15499 |        33376967 |                     0 |      32212939 | 2017-02-06 18:00:10.837486+01

 2017-02-06 19:02:48.728264+01 | 1486404168.72826 |                 0 |              12 |                152570 |                 3463 |            8823884 |       1583333 |            15504 |        33376967 |                     0 |      32224494 | 2017-02-06 18:00:10.837486+01

 2017-02-06 19:02:49.807507+01 | 1486404169.80751 |                 0 |              12 |                152570 |                 3463 |            8823884 |       1583833 |            15509 |        33376967 |                     0 |      32237160 | 2017-02-06 18:00:10.837486+01

 2017-02-06 19:02:50.880672+01 | 1486404170.88067 |                 0 |              12 |                152570 |                 3463 |            8823884 |       1584433 |            15515 |        33376967 |                     0 |      32250865 | 2017-02-06 18:00:10.837486+01

 2017-02-06 19:02:51.959477+01 | 1486404171.95948 |                 0 |              12 |                152570 |                 3463 |            8823884 |       1584933 |            15520 |        33376967 |                     0 |      32260993 | 2017-02-06 18:00:10.837486+01

 2017-02-06 19:02:53.04174+01 | 1486404173.04174 |                 0 |              12 |                152570 |                 3463 |            8823884 |       1585433 |            15525 |        33376967 |                     0 |      32273671 | 2017-02-06 18:00:10.837486+01

 2017-02-06 19:02:54.120513+01 | 1486404174.12051 |                 0 |              12 |                152570 |                 3463 |            8823884 |       1586033 |            15531 |        33376967 |                     0 |      32286170 | 2017-02-06 18:00:10.837486+01

 2017-02-06 19:02:55.193954+01 | 1486404175.19395 |                 0 |              12 |                152570 |                 3463 |            8823884 |       1586533 |            15536 |        33376967 |                     0 |      32296409 | 2017-02-06 18:00:10.837486+01

 2017-02-06 19:02:56.271964+01 | 1486404176.27196 |                 0 |              12 |                152570 |                 3463 |            8823884 |       1587033 |            15541 |        33376967 |                     0 |      32307601 | 2017-02-06 18:00:10.837486+01

 2017-02-06 19:02:57.358673+01 | 1486404177.35867 |                 0 |              12 |                152570 |                 3463 |            8823884 |       1587633 |            15547 |        33376967 |                     0 |      32322650 | 2017-02-06 18:00:10.837486+01

 2017-02-06 19:02:58.437967+01 | 1486404178.43797 |                 0 |              12 |                152570 |                 3463 |            8823884 |       1588133 |            15552 |        33376967 |                     0 |      32333693 | 2017-02-06 18:00:10.837486+01

 2017-02-06 19:02:59.524773+01 | 1486404179.52477 |                 0 |              12 |                152570 |                 3463 |            8823884 |       1588633 |            15557 |        33376967 |                     0 |      32344761 | 2017-02-06 18:00:10.837486+01

 2017-02-06 19:03:00.607014+01 | 1486404180.60701 |                 0 |              12 |                152570 |                 3463 |            8823884 |       1589233 |            15563 |        33376967 |                     0 |      32358637 | 2017-02-06 18:00:10.837486+01

 2017-02-06 19:03:01.690684+01 | 1486404181.69068 |                 0 |              12 |                152570 |                 3463 |            8823884 |       1589733 |            15568 |        33376967 |                     0 |      32370294 | 2017-02-06 18:00:10.837486+01

 2017-02-06 19:03:02.779355+01 | 1486404182.77936 |                 0 |              12 |                152570 |                 3463 |            8823884 |       1590333 |            15574 |        33376967 |                     0 |      32383779 | 2017-02-06 18:00:10.837486+01

 2017-02-06 19:03:03.863546+01 | 1486404183.86355 |                 0 |              12 |                152570 |                 3463 |            8823884 |       1590833 |            15579 |        33376967 |                     0 |      32395294 | 2017-02-06 18:00:10.837486+01

 2017-02-06 19:03:04.942677+01 | 1486404184.94268 |                 0 |              12 |                152570 |                 3463 |            8823884 |       1591333 |            15584 |        33376967 |                     0 |      32406815 | 2017-02-06 18:00:10.837486+01

 2017-02-06 19:03:06.020892+01 | 1486404186.02089 |                 0 |              12 |                152570 |                 3463 |            8823884 |       1591933 |            15590 |        33376967 |                     0 |      32420281 | 2017-02-06 18:00:10.837486+01

 2017-02-06 19:03:07.102973+01 | 1486404187.10297 |                 0 |              12 |                152570 |                 3463 |            8823884 |       1592433 |            15595 |        33376967 |                     0 |      32432265 | 2017-02-06 18:00:10.837486+01

 2017-02-06 19:03:08.180909+01 | 1486404188.18091 |                 0 |              12 |                152570 |                 3463 |            8823884 |       1592933 |            15600 |        33376967 |                     0 |      32443615 | 2017-02-06 18:00:10.837486+01

 2017-02-06 19:03:09.254791+01 | 1486404189.25479 |                 0 |              12 |                152570 |                 3463 |            8823884 |       1593533 |            15606 |        33376967 |                     0 |      32456382 | 2017-02-06 18:00:10.837486+01

 2017-02-06 19:03:10.328636+01 | 1486404190.32864 |                 0 |              12 |                152570 |                 3463 |            8823884 |       1594033 |            15611 |        33376967 |                     0 |      32466785 | 2017-02-06 18:00:10.837486+01

 2017-02-06 19:03:11.408245+01 | 1486404191.40825 |                 0 |              12 |                152570 |                 3463 |            8823884 |       1594533 |            15616 |        33376967 |                     0 |      32477925 | 2017-02-06 18:00:10.837486+01

 2017-02-06 19:03:12.484101+01 | 1486404192.4841 |                 0 |              12 |                152570 |                 3463 |            8823884 |       1595133 |            15622 |        33376967 |                     0 |      32490976 | 2017-02-06 18:00:10.837486+01

 2017-02-06 19:03:13.568135+01 | 1486404193.56814 |                 0 |              12 |                152570 |                 3463 |            8823884 |       1595633 |            15627 |        33376967 |                     0 |      32500025 | 2017-02-06 18:00:10.837486+01

 2017-02-06 19:03:14.657528+01 | 1486404194.65753 |                 0 |              12 |                152570 |                 3463 |            8823884 |       1596133 |            15632 |        33872223 |                     0 |      32510663 | 2017-02-06 18:00:10.837486+01

 2017-02-06 19:03:15.748679+01 | 1486404195.74868 |                 0 |              12 |                152570 |                 3463 |            8823884 |       1596733 |            15638 |        33872223 |                     0 |      32523914 | 2017-02-06 18:00:10.837486+01

 2017-02-06 19:03:16.84041+01 | 1486404196.84041 |                 0 |              12 |                152570 |                 3463 |            8823884 |       1597233 |            15643 |        33872223 |                     0 |      32534464 | 2017-02-06 18:00:10.837486+01

 2017-02-06 19:03:17.924558+01 | 1486404197.92456 |                 0 |              12 |                152570 |                 3463 |            8823884 |       1597833 |            15649 |        33872223 |                     0 |      32546942 | 2017-02-06 18:00:10.837486+01

 2017-02-06 19:03:19.005466+01 | 1486404199.00547 |                 0 |              12 |                152570 |                 3463 |            8823884 |       1598333 |            15654 |        33872223 |                     0 |      32558479 | 2017-02-06 18:00:10.837486+01

 2017-02-06 19:03:20.089207+01 | 1486404200.08921 |                 0 |              12 |                152570 |                 3463 |            8823884 |       1598833 |            15659 |        33872223 |                     0 |      32569306 | 2017-02-06 18:00:10.837486+01

 2017-02-06 19:03:21.166937+01 | 1486404201.16694 |                 0 |              12 |                152570 |                 3463 |            8823884 |       1599433 |            15665 |        33872223 |                     0 |      32583228 | 2017-02-06 18:00:10.837486+01

 2017-02-06 19:03:22.249688+01 | 1486404202.24969 |                 0 |              12 |                152570 |                 3463 |            8823884 |       1599933 |            15670 |        33872223 |                     0 |      32594628 | 2017-02-06 18:00:10.837486+01

 2017-02-06 19:03:23.328048+01 | 1486404203.32805 |                 0 |              12 |                152570 |                 3463 |            8823884 |       1600433 |            15675 |        33872223 |                     0 |      32605477 | 2017-02-06 18:00:10.837486+01

 2017-02-06 19:03:24.409597+01 | 1486404204.4096 |                 0 |              12 |                152570 |                 3463 |            8823884 |       1601033 |            15681 |        33872223 |                     0 |      32619048 | 2017-02-06 18:00:10.837486+01

 2017-02-06 19:03:25.500368+01 | 1486404205.50037 |                 0 |              12 |                152570 |                 3463 |            8823884 |       1601533 |            15686 |        33872223 |                     0 |      32630528 | 2017-02-06 18:00:10.837486+01

 2017-02-06 19:03:26.587624+01 | 1486404206.58762 |                 0 |              12 |                152570 |                 3463 |            8823884 |       1602033 |            15691 |        33872223 |                     0 |      32640856 | 2017-02-06 18:00:10.837486+01

 2017-02-06 19:03:27.673628+01 | 1486404207.67363 |                 0 |              12 |                152570 |                 3463 |            8823884 |       1602633 |            15697 |        33872223 |                     0 |      32654578 | 2017-02-06 18:00:10.837486+01

 2017-02-06 19:03:28.752052+01 | 1486404208.75205 |                 0 |              12 |                152570 |                 3463 |            8823884 |       1603133 |            15702 |        33872223 |                     0 |      32666893 | 2017-02-06 18:00:10.837486+01

 2017-02-06 19:03:29.829019+01 | 1486404209.82902 |                 0 |              12 |                152570 |                 3463 |            8823884 |       1603733 |            15708 |        33872223 |                     0 |      32679246 | 2017-02-06 18:00:10.837486+01

 2017-02-06 19:03:30.91267+01 | 1486404210.91267 |                 0 |              12 |                152570 |                 3463 |            8823884 |       1604233 |            15713 |        33872223 |                     0 |      32690163 | 2017-02-06 18:00:10.837486+01

 2017-02-06 19:03:31.980949+01 | 1486404211.98095 |                 0 |              12 |                152570 |                 3463 |            8823884 |       1604733 |            15718 |        33872223 |                     0 |      32701053 | 2017-02-06 18:00:10.837486+01

 2017-02-06 19:03:33.060148+01 | 1486404213.06015 |                 0 |              12 |                152570 |                 3463 |            8823884 |       1605233 |            15723 |        33872223 |                     0 |      32710440 | 2017-02-06 18:00:10.837486+01

 2017-02-06 19:03:34.134338+01 | 1486404214.13434 |                 0 |              12 |                152570 |                 3463 |            8823884 |       1605833 |            15729 |        33872223 |                     0 |      32720852 | 2017-02-06 18:00:10.837486+01

 2017-02-06 19:03:35.212212+01 | 1486404215.21221 |                 0 |              12 |                152570 |                 3463 |            8823884 |       1606333 |            15734 |        33872223 |                     0 |      32729591 | 2017-02-06 18:00:10.837486+01

 2017-02-06 19:03:36.286001+01 | 1486404216.286 |                 0 |              12 |                152570 |                 3463 |            8823884 |       1606833 |            15739 |        33872223 |                     0 |      32740116 | 2017-02-06 18:00:10.837486+01

 2017-02-06 19:03:37.361277+01 | 1486404217.36128 |                 0 |              12 |                152570 |                 3463 |            8823884 |       1607433 |            15745 |        33872223 |                     0 |      32749878 | 2017-02-06 18:00:10.837486+01

 2017-02-06 19:03:38.43592+01 | 1486404218.43592 |                 0 |              12 |                152570 |                 3463 |            8823884 |       1607933 |            15750 |        33872223 |                     0 |      32759140 | 2017-02-06 18:00:10.837486+01

 2017-02-06 19:03:39.510374+01 | 1486404219.51037 |                 0 |              12 |                152570 |                 3463 |            8823884 |       1608433 |            15755 |        33872223 |                     0 |      32769215 | 2017-02-06 18:00:10.837486+01

 2017-02-06 19:03:40.608081+01 | 1486404220.60808 |                 0 |              12 |                152570 |                 3463 |            8823884 |       1609033 |            15761 |        33872223 |                     0 |      32780592 | 2017-02-06 18:00:10.837486+01

 2017-02-06 19:03:41.694143+01 | 1486404221.69414 |                 0 |              12 |                152570 |                 3463 |            8823884 |       1609533 |            15766 |        33872223 |                     0 |      32790270 | 2017-02-06 18:00:10.837486+01

 2017-02-06 19:03:42.758674+01 | 1486404222.75867 |                 0 |              12 |                152570 |                 3463 |            8823884 |       1610133 |            15772 |        33872223 |                     0 |      32803641 | 2017-02-06 18:00:10.837486+01

 2017-02-06 19:03:43.83564+01 | 1486404223.83564 |                 0 |              12 |                152570 |                 3463 |            8823884 |       1610433 |            15775 |        33872223 |                     0 |      32809973 | 2017-02-06 18:00:10.837486+01

 2017-02-06 19:03:44.916824+01 | 1486404224.91682 |                 0 |              12 |                152570 |                 3463 |            8823884 |       1611133 |            15782 |        33872223 |                     0 |      32825721 | 2017-02-06 18:00:10.837486+01

 2017-02-06 19:03:45.990855+01 | 1486404225.99085 |                 0 |              12 |                152570 |                 3463 |            8823884 |       1611733 |            15788 |        33872223 |                     0 |      32838973 | 2017-02-06 18:00:10.837486+01

 2017-02-06 19:03:47.069651+01 | 1486404227.06965 |                 0 |              12 |                152570 |                 3463 |            8823884 |       1612233 |            15793 |        33872223 |                     0 |      32850861 | 2017-02-06 18:00:10.837486+01

 2017-02-06 19:03:48.148808+01 | 1486404228.14881 |                 0 |              12 |                152570 |                 3463 |            8823884 |       1612733 |            15798 |        33872223 |                     0 |      32863503 | 2017-02-06 18:00:10.837486+01

 2017-02-06 19:03:49.222184+01 | 1486404229.22218 |                 0 |              12 |                152570 |                 3463 |            8823884 |       1613333 |            15804 |        33872223 |                     0 |      32877793 | 2017-02-06 18:00:10.837486+01

 2017-02-06 19:03:50.30451+01 | 1486404230.30451 |                 0 |              12 |                152570 |                 3463 |            8823884 |       1613833 |            15809 |        33872223 |                     0 |      32888626 | 2017-02-06 18:00:10.837486+01

 2017-02-06 19:03:51.397589+01 | 1486404231.39759 |                 0 |              12 |                152570 |                 3463 |            8823884 |       1614333 |            15814 |        33872223 |                     0 |      32898529 | 2017-02-06 18:00:10.837486+01

 2017-02-06 19:03:52.490026+01 | 1486404232.49003 |                 0 |              12 |                152570 |                 3463 |            8823884 |       1614933 |            15820 |        33872223 |                     0 |      32909186 | 2017-02-06 18:00:10.837486+01

 2017-02-06 19:03:53.574479+01 | 1486404233.57448 |                 0 |              12 |                152570 |                 3463 |            8823884 |       1615433 |            15825 |        33872223 |                     0 |      32917874 | 2017-02-06 18:00:10.837486+01

 2017-02-06 19:03:54.673492+01 | 1486404234.67349 |                 0 |              12 |                152570 |                 3463 |            8823884 |       1615933 |            15830 |        33872223 |                     0 |      32927292 | 2017-02-06 18:00:10.837486+01

 2017-02-06 19:03:55.763965+01 | 1486404235.76396 |                 0 |              12 |                152570 |                 3463 |            8823884 |       1616533 |            15836 |        33872223 |                     0 |      32938819 | 2017-02-06 18:00:10.837486+01

 2017-02-06 19:03:56.849172+01 | 1486404236.84917 |                 0 |              12 |                152570 |                 3463 |            8823884 |       1617033 |            15841 |        33872223 |                     0 |      32946652 | 2017-02-06 18:00:10.837486+01

 2017-02-06 19:03:57.929498+01 | 1486404237.9295 |                 0 |              12 |                152570 |                 3463 |            8823884 |       1617633 |            15847 |        33872223 |                     0 |      32959710 | 2017-02-06 18:00:10.837486+01

 2017-02-06 19:03:59.009864+01 | 1486404239.00986 |                 0 |              12 |                152570 |                 3463 |            8823884 |       1618133 |            15852 |        33872223 |                     0 |      32970428 | 2017-02-06 18:00:10.837486+01

 2017-02-06 19:04:00.086211+01 | 1486404240.08621 |                 0 |              12 |                152570 |                 3463 |            8823884 |       1618633 |            15857 |        34374513 |                     0 |      32982191 | 2017-02-06 18:00:10.837486+01

 2017-02-06 19:04:01.145838+01 | 1486404241.14584 |                 0 |              12 |                152570 |                 3463 |            8823884 |       1619233 |            15863 |        34374513 |                     0 |      32996832 | 2017-02-06 18:00:10.837486+01

 2017-02-06 19:04:02.228321+01 | 1486404242.22832 |                 0 |              12 |                152570 |                 3463 |            8823884 |       1619733 |            15868 |        34374513 |                     0 |      33007373 | 2017-02-06 18:00:10.837486+01

 2017-02-06 19:04:03.30464+01 | 1486404243.30464 |                 0 |              12 |                152570 |                 3463 |            8823884 |       1620233 |            15873 |        34374513 |                     0 |      33018268 | 2017-02-06 18:00:10.837486+01

 2017-02-06 19:04:04.383159+01 | 1486404244.38316 |                 0 |              12 |                152570 |                 3463 |            8823884 |       1620833 |            15879 |        34374513 |                     0 |      33032889 | 2017-02-06 18:00:10.837486+01

 2017-02-06 19:04:05.460292+01 | 1486404245.46029 |                 0 |              12 |                152570 |                 3463 |            8823884 |       1621333 |            15884 |        34374513 |                     0 |      33044804 | 2017-02-06 18:00:10.837486+01

 2017-02-06 19:04:06.540199+01 | 1486404246.5402 |                 0 |              12 |                152570 |                 3463 |            8823884 |       1621833 |            15889 |        34374513 |                     0 |      33056288 | 2017-02-06 18:00:10.837486+01

 2017-02-06 19:04:07.622406+01 | 1486404247.62241 |                 0 |              12 |                152570 |                 3463 |            8823884 |       1622433 |            15895 |        34374513 |                     0 |      33069162 | 2017-02-06 18:00:10.837486+01

 2017-02-06 19:04:08.704966+01 | 1486404248.70497 |                 0 |              12 |                152570 |                 3463 |            8823884 |       1622933 |            15900 |        34374513 |                     0 |      33080341 | 2017-02-06 18:00:10.837486+01

 2017-02-06 19:04:09.789389+01 | 1486404249.78939 |                 0 |              12 |                152570 |                 3463 |            8823884 |       1623433 |            15905 |        34374513 |                     0 |      33092207 | 2017-02-06 18:00:10.837486+01

 2017-02-06 19:04:10.875367+01 | 1486404250.87537 |                 0 |              12 |                152570 |                 3463 |            8823884 |       1624033 |            15911 |        34374513 |                     0 |      33105853 | 2017-02-06 18:00:10.837486+01

 2017-02-06 19:04:11.958911+01 | 1486404251.95891 |                 0 |              12 |                152570 |                 3463 |            8823884 |       1624533 |            15916 |        34374513 |                     0 |      33117809 | 2017-02-06 18:00:10.837486+01

 2017-02-06 19:04:13.026502+01 | 1486404253.0265 |                 0 |              12 |                152570 |                 3463 |            8823884 |       1625033 |            15921 |        34374513 |                     0 |      33128833 | 2017-02-06 18:00:10.837486+01

 2017-02-06 19:04:14.103583+01 | 1486404254.10358 |                 0 |              12 |                152570 |                 3463 |            8823884 |       1625633 |            15927 |        34374513 |                     0 |      33142589 | 2017-02-06 18:00:10.837486+01

 2017-02-06 19:04:15.181674+01 | 1486404255.18167 |                 0 |              12 |                152570 |                 3463 |            8823884 |       1626133 |            15932 |        34374513 |                     0 |      33153584 | 2017-02-06 18:00:10.837486+01

 2017-02-06 19:04:16.260151+01 | 1486404256.26015 |                 0 |              12 |                152570 |                 3463 |            8823884 |       1626633 |            15937 |        34374513 |                     0 |      33163225 | 2017-02-06 18:00:10.837486+01

 2017-02-06 19:04:17.334852+01 | 1486404257.33485 |                 0 |              12 |                152570 |                 3463 |            8823884 |       1627233 |            15943 |        34374513 |                     0 |      33175053 | 2017-02-06 18:00:10.837486+01

 2017-02-06 19:04:18.410772+01 | 1486404258.41077 |                 0 |              12 |                152570 |                 3463 |            8823884 |       1627733 |            15948 |        34374513 |                     0 |      33183719 | 2017-02-06 18:00:10.837486+01

 2017-02-06 19:04:19.490434+01 | 1486404259.49043 |                 0 |              12 |                152570 |                 3463 |            8823884 |       1628233 |            15953 |        34374513 |                     0 |      33192048 | 2017-02-06 18:00:10.837486+01

 2017-02-06 19:04:20.564494+01 | 1486404260.56449 |                 0 |              12 |                152570 |                 3463 |            8823884 |       1628833 |            15959 |        34374513 |                     0 |      33205669 | 2017-02-06 18:00:10.837486+01

 2017-02-06 19:04:21.651459+01 | 1486404261.65146 |                 0 |              12 |                152570 |                 3463 |            8823884 |       1629333 |            15964 |        34374513 |                     0 |      33216802 | 2017-02-06 18:00:10.837486+01

 2017-02-06 19:04:22.737099+01 | 1486404262.7371 |                 0 |              12 |                152570 |                 3463 |            8823884 |       1629833 |            15969 |        34374513 |                     0 |      33228321 | 2017-02-06 18:00:10.837486+01

 2017-02-06 19:04:23.814143+01 | 1486404263.81414 |                 0 |              12 |                152570 |                 3463 |            8823884 |       1630433 |            15975 |        34374513 |                     0 |      33240796 | 2017-02-06 18:00:10.837486+01

 2017-02-06 19:04:24.893972+01 | 1486404264.89397 |                 0 |              12 |                152570 |                 3463 |            8823884 |       1630933 |            15980 |        34374513 |                     0 |      33252271 | 2017-02-06 18:00:10.837486+01

 2017-02-06 19:04:25.975296+01 | 1486404265.9753 |                 0 |              12 |                152570 |                 3463 |            8823884 |       1631433 |            15985 |        34374513 |                     0 |      33264022 | 2017-02-06 18:00:10.837486+01

 2017-02-06 19:04:27.048283+01 | 1486404267.04828 |                 0 |              12 |                152570 |                 3463 |            8823884 |       1632033 |            15991 |        34374513 |                     0 |      33278213 | 2017-02-06 18:00:10.837486+01

 2017-02-06 19:04:28.116863+01 | 1486404268.11686 |                 0 |              12 |                152570 |                 3463 |            8823884 |       1632533 |            15996 |        34374513 |                     0 |      33289402 | 2017-02-06 18:00:10.837486+01

 2017-02-06 19:04:29.204738+01 | 1486404269.20474 |                 0 |              12 |                152570 |                 3463 |            8823884 |       1633033 |            16001 |        34374513 |                     0 |      33301060 | 2017-02-06 18:00:10.837486+01

 2017-02-06 19:04:30.280468+01 | 1486404270.28047 |                 0 |              12 |                152570 |                 3463 |            8823884 |       1633633 |            16007 |        34374513 |                     0 |      33314274 | 2017-02-06 18:00:10.837486+01

 2017-02-06 19:04:31.357128+01 | 1486404271.35713 |                 0 |              12 |                152570 |                 3463 |            8823884 |       1634133 |            16012 |        34374513 |                     0 |      33326060 | 2017-02-06 18:00:10.837486+01

 2017-02-06 19:04:32.436656+01 | 1486404272.43666 |                 0 |              12 |                152570 |                 3463 |            8823884 |       1634633 |            16017 |        34374513 |                     0 |      33338198 | 2017-02-06 18:00:10.837486+01

 2017-02-06 19:04:33.512447+01 | 1486404273.51245 |                 0 |              12 |                152570 |                 3463 |            8823884 |       1635233 |            16023 |        34374513 |                     0 |      33352304 | 2017-02-06 18:00:10.837486+01

 2017-02-06 19:04:34.596104+01 | 1486404274.5961 |                 0 |              12 |                152570 |                 3463 |            8823884 |       1635733 |            16028 |        34374513 |                     0 |      33364283 | 2017-02-06 18:00:10.837486+01

 2017-02-06 19:04:35.671238+01 | 1486404275.67124 |                 0 |              12 |                152570 |                 3463 |            8823884 |       1636333 |            16034 |        34374513 |                     0 |      33377765 | 2017-02-06 18:00:10.837486+01

 2017-02-06 19:04:36.754483+01 | 1486404276.75448 |                 0 |              12 |                152570 |                 3463 |            8823884 |       1636833 |            16039 |        34374513 |                     0 |      33389888 | 2017-02-06 18:00:10.837486+01

 2017-02-06 19:04:37.827312+01 | 1486404277.82731 |                 0 |              12 |                152570 |                 3463 |            8823884 |       1637333 |            16044 |        34374513 |                     0 |      33401487 | 2017-02-06 18:00:10.837486+01

 2017-02-06 19:04:38.914171+01 | 1486404278.91417 |                 0 |              12 |                152570 |                 3463 |            8823884 |       1637933 |            16050 |        34374513 |                     0 |      33413677 | 2017-02-06 18:00:10.837486+01

 2017-02-06 19:04:39.998838+01 | 1486404279.99884 |                 0 |              12 |                152570 |                 3463 |            8823884 |       1638433 |            16055 |        34374513 |                     0 |      33425378 | 2017-02-06 18:00:10.837486+01

 2017-02-06 19:04:41.077258+01 | 1486404281.07726 |                 0 |              12 |                152570 |                 3463 |            8823884 |       1638933 |            16060 |        34878202 |                     0 |      33436896 | 2017-02-06 18:00:10.837486+01

 2017-02-06 19:04:42.151688+01 | 1486404282.15169 |                 0 |              12 |                152570 |                 3463 |            8823884 |       1639533 |            16066 |        34878202 |                     0 |      33451388 | 2017-02-06 18:00:10.837486+01

 2017-02-06 19:04:43.223414+01 | 1486404283.22341 |                 0 |              12 |                152570 |                 3463 |            8823884 |       1639833 |            16069 |        34878202 |                     0 |      33457527 | 2017-02-06 18:00:10.837486+01

 2017-02-06 19:04:44.29653+01 | 1486404284.29653 |                 0 |              12 |                152570 |                 3463 |            8823884 |       1640433 |            16075 |        34878202 |                     0 |      33472868 | 2017-02-06 18:00:10.837486+01

 2017-02-06 19:04:45.363965+01 | 1486404285.36397 |                 0 |              12 |                152570 |                 3463 |            8823884 |       1641133 |            16082 |        34878202 |                     0 |      33489398 | 2017-02-06 18:00:10.837486+01

 2017-02-06 19:04:46.4342+01 | 1486404286.4342 |                 0 |              12 |                152570 |                 3463 |            8823884 |       1641633 |            16087 |        34878202 |                     0 |      33499971 | 2017-02-06 18:00:10.837486+01

 2017-02-06 19:04:47.511234+01 | 1486404287.51123 |                 0 |              12 |                152570 |                 3463 |            8823884 |       1642133 |            16092 |        34878202 |                     0 |      33511751 | 2017-02-06 18:00:10.837486+01

 2017-02-06 19:04:48.609161+01 | 1486404288.60916 |                 0 |              12 |                152570 |                 3463 |            8823884 |       1642733 |            16098 |        34878202 |                     0 |      33524871 | 2017-02-06 18:00:10.837486+01

 2017-02-06 19:04:49.688403+01 | 1486404289.6884 |                 0 |              12 |                152570 |                 3463 |            8823884 |       1643233 |            16103 |        34878202 |                     0 |      33535243 | 2017-02-06 18:00:10.837486+01

 2017-02-06 19:04:50.770056+01 | 1486404290.77006 |                 0 |              12 |                152570 |                 3463 |            8823884 |       1643733 |            16108 |        34878202 |                     0 |      33546509 | 2017-02-06 18:00:10.837486+01

 2017-02-06 19:04:51.847787+01 | 1486404291.84779 |                 0 |              12 |                152570 |                 3463 |            8823884 |       1644333 |            16114 |        34878202 |                     0 |      33559139 | 2017-02-06 18:00:10.837486+01

 2017-02-06 19:04:52.928655+01 | 1486404292.92865 |                 0 |              12 |                152570 |                 3463 |            8823884 |       1644833 |            16119 |        34878202 |                     0 |      33571850 | 2017-02-06 18:00:10.837486+01

 2017-02-06 19:04:54.014909+01 | 1486404294.01491 |                 0 |              12 |                152570 |                 3463 |            8823884 |       1645333 |            16124 |        34878202 |                     0 |      33583215 | 2017-02-06 18:00:10.837486+01

 2017-02-06 19:04:55.091664+01 | 1486404295.09166 |                 0 |              12 |                152570 |                 3463 |            8823884 |       1645933 |            16130 |        34878202 |                     0 |      33597145 | 2017-02-06 18:00:10.837486+01

 2017-02-06 19:04:56.170627+01 | 1486404296.17063 |                 0 |              12 |                152570 |                 3463 |            8823884 |       1646433 |            16135 |        34878202 |                     0 |      33609343 | 2017-02-06 18:00:10.837486+01

 2017-02-06 19:04:57.25017+01 | 1486404297.25017 |                 0 |              12 |                152570 |                 3463 |            8823884 |       1646933 |            16140 |        34878202 |                     0 |      33620552 | 2017-02-06 18:00:10.837486+01

 2017-02-06 19:04:58.323496+01 | 1486404298.3235 |                 0 |              12 |                152570 |                 3463 |            8823884 |       1647533 |            16146 |        34878202 |                     0 |      33635751 | 2017-02-06 18:00:10.837486+01

 2017-02-06 19:04:59.404618+01 | 1486404299.40462 |                 0 |              12 |                152570 |                 3463 |            8823884 |       1648033 |            16151 |        34878202 |                     0 |      33647230 | 2017-02-06 18:00:10.837486+01

 2017-02-06 19:05:00.485295+01 | 1486404300.4853 |                 0 |              12 |                152570 |                 3463 |            8823884 |       1648533 |            16156 |        34878202 |                     0 |      33657697 | 2017-02-06 18:00:10.837486+01

 2017-02-06 19:05:01.567629+01 | 1486404301.56763 |                 0 |              12 |                152570 |                 3463 |            8823884 |       1649133 |            16162 |        34878202 |                     0 |      33670955 | 2017-02-06 18:00:10.837486+01

 2017-02-06 19:05:02.64438+01 | 1486404302.64438 |                 0 |              12 |                152570 |                 3463 |            8823884 |       1649633 |            16167 |        34878202 |                     0 |      33681768 | 2017-02-06 18:00:10.837486+01

 2017-02-06 19:05:03.719436+01 | 1486404303.71944 |                 0 |              12 |                152570 |                 3463 |            8823884 |       1650133 |            16172 |        34878202 |                     0 |      33691753 | 2017-02-06 18:00:10.837486+01

 2017-02-06 19:05:04.802639+01 | 1486404304.80264 |                 0 |              12 |                152570 |                 3463 |            8823884 |       1650733 |            16178 |        34878202 |                     0 |      33705106 | 2017-02-06 18:00:10.837486+01

 2017-02-06 19:05:05.887274+01 | 1486404305.88727 |                 0 |              12 |                152570 |                 3463 |            8823884 |       1651233 |            16183 |        34878202 |                     0 |      33717216 | 2017-02-06 18:00:10.837486+01

 2017-02-06 19:05:06.968061+01 | 1486404306.96806 |                 0 |              12 |                152570 |                 3463 |            8823884 |       1651733 |            16188 |        34878202 |                     0 |      33728330 | 2017-02-06 18:00:10.837486+01

 2017-02-06 19:05:08.055213+01 | 1486404308.05521 |                 0 |              12 |                152570 |                 3463 |            8823884 |       1652333 |            16194 |        34878202 |                     0 |      33740732 | 2017-02-06 18:00:10.837486+01

 2017-02-06 19:05:09.130337+01 | 1486404309.13034 |                 0 |              12 |                152570 |                 3463 |            8823884 |       1652833 |            16199 |        34878202 |                     0 |      33752005 | 2017-02-06 18:00:10.837486+01

 2017-02-06 19:05:10.212068+01 | 1486404310.21207 |                 0 |              12 |                152570 |                 3463 |            8823884 |       1653433 |            16205 |        34878202 |                     0 |      33766462 | 2017-02-06 18:00:10.837486+01

 2017-02-06 19:05:11.284439+01 | 1486404311.28444 |                 0 |              12 |                152570 |                 3463 |            8823884 |       1653933 |            16210 |        34878202 |                     0 |      33777610 | 2017-02-06 18:00:10.837486+01

 2017-02-06 19:05:12.364404+01 | 1486404312.3644 |                 0 |              12 |                152570 |                 3463 |            8823884 |       1654433 |            16215 |        34878202 |                     0 |      33788393 | 2017-02-06 18:00:10.837486+01

 2017-02-06 19:05:13.425894+01 | 1486404313.42589 |                 0 |              12 |                152570 |                 3463 |            8823884 |       1655033 |            16221 |        34878202 |                     0 |      33801807 | 2017-02-06 18:00:10.837486+01

 2017-02-06 19:05:14.495117+01 | 1486404314.49512 |                 0 |              12 |                152570 |                 3463 |            8823884 |       1655533 |            16226 |        34878202 |                     0 |      33813667 | 2017-02-06 18:00:10.837486+01

 2017-02-06 19:05:15.577097+01 | 1486404315.5771 |                 0 |              12 |                152570 |                 3463 |            8823884 |       1656033 |            16231 |        34878202 |                     0 |      33823289 | 2017-02-06 18:00:10.837486+01

 2017-02-06 19:05:16.652538+01 | 1486404316.65254 |                 0 |              12 |                152570 |                 3463 |            8823884 |       1656533 |            16236 |        34878202 |                     0 |      33834935 | 2017-02-06 18:00:10.837486+01

 2017-02-06 19:05:17.727391+01 | 1486404317.72739 |                 0 |              12 |                152570 |                 3463 |            8823884 |       1657133 |            16242 |        34878202 |                     0 |      33847956 | 2017-02-06 18:00:10.837486+01

 2017-02-06 19:05:18.822924+01 | 1486404318.82292 |                 0 |              12 |                152570 |                 3463 |            8823884 |       1657633 |            16247 |        34878202 |                     0 |      33860559 | 2017-02-06 18:00:10.837486+01

 2017-02-06 19:05:19.909343+01 | 1486404319.90934 |                 0 |              12 |                152570 |                 3463 |            8823884 |       1658233 |            16253 |        34878202 |                     0 |      33873142 | 2017-02-06 18:00:10.837486+01

 2017-02-06 19:05:20.999985+01 | 1486404320.99998 |                 0 |              12 |                152570 |                 3463 |            8823884 |       1658733 |            16258 |        34878202 |                     0 |      33884007 | 2017-02-06 18:00:10.837486+01

 2017-02-06 19:05:22.076597+01 | 1486404322.0766 |                 0 |              12 |                152570 |                 3463 |            8823884 |       1659233 |            16263 |        34878202 |                     0 |      33895757 | 2017-02-06 18:00:10.837486+01

 2017-02-06 19:05:23.153691+01 | 1486404323.15369 |                 0 |              12 |                152570 |                 3463 |            8823884 |       1659833 |            16269 |        35381993 |                     0 |      33909841 | 2017-02-06 18:00:10.837486+01

 2017-02-06 19:05:24.230932+01 | 1486404324.23093 |                 0 |              12 |                152570 |                 3463 |            8823884 |       1660333 |            16274 |        35381993 |                     0 |      33920790 | 2017-02-06 18:00:10.837486+01

 2017-02-06 19:05:25.316203+01 | 1486404325.3162 |                 0 |              12 |                152570 |                 3463 |            8823884 |       1660833 |            16279 |        35381993 |                     0 |      33933090 | 2017-02-06 18:00:10.837486+01

 2017-02-06 19:05:26.389086+01 | 1486404326.38909 |                 0 |              12 |                152570 |                 3463 |            8823884 |       1661433 |            16285 |        35381993 |                     0 |      33946391 | 2017-02-06 18:00:10.837486+01

 2017-02-06 19:05:27.458054+01 | 1486404327.45805 |                 0 |              12 |                152570 |                 3463 |            8823884 |       1661933 |            16290 |        35381993 |                     0 |      33958604 | 2017-02-06 18:00:10.837486+01

 2017-02-06 19:05:28.524708+01 | 1486404328.52471 |                 0 |              12 |                152570 |                 3463 |            8823884 |       1662433 |            16295 |        35381993 |                     0 |      33969732 | 2017-02-06 18:00:10.837486+01

 2017-02-06 19:05:29.600002+01 | 1486404329.6 |                 0 |              12 |                152570 |                 3463 |            8823884 |       1663033 |            16301 |        35381993 |                     0 |      33983101 | 2017-02-06 18:00:10.837486+01

 2017-02-06 19:05:30.676475+01 | 1486404330.67648 |                 0 |              12 |                152570 |                 3463 |            8823884 |       1663533 |            16306 |        35381993 |                     0 |      33995294 | 2017-02-06 18:00:10.837486+01

 2017-02-06 19:05:31.751111+01 | 1486404331.75111 |                 0 |              12 |                152570 |                 3463 |            8823884 |       1664033 |            16311 |        35381993 |                     0 |      34006577 | 2017-02-06 18:00:10.837486+01

 2017-02-06 19:05:32.836421+01 | 1486404332.83642 |                 0 |              12 |                152570 |                 3463 |            8823884 |       1664633 |            16317 |        35381993 |                     0 |      34020089 | 2017-02-06 18:00:10.837486+01

 2017-02-06 19:05:33.913043+01 | 1486404333.91304 |                 0 |              12 |                152570 |                 3463 |            8823884 |       1665133 |            16322 |        35381993 |                     0 |      34031612 | 2017-02-06 18:00:10.837486+01

 2017-02-06 19:05:34.995813+01 | 1486404334.99581 |                 0 |              12 |                152570 |                 3463 |            8823884 |       1665633 |            16327 |        35381993 |                     0 |      34041666 | 2017-02-06 18:00:10.837486+01

 2017-02-06 19:05:36.076998+01 | 1486404336.077 |                 0 |              12 |                152570 |                 3463 |            8823884 |       1666233 |            16333 |        35381993 |                     0 |      34055903 | 2017-02-06 18:00:10.837486+01

 2017-02-06 19:05:37.156717+01 | 1486404337.15672 |                 0 |              12 |                152570 |                 3463 |            8823884 |       1666733 |            16338 |        35381993 |                     0 |      34067731 | 2017-02-06 18:00:10.837486+01

 2017-02-06 19:05:38.230728+01 | 1486404338.23073 |                 0 |              12 |                152570 |                 3463 |            8823884 |       1667233 |            16343 |        35381993 |                     0 |      34079313 | 2017-02-06 18:00:10.837486+01

 2017-02-06 19:05:39.308961+01 | 1486404339.30896 |                 0 |              12 |                152570 |                 3463 |            8823884 |       1667833 |            16349 |        35381993 |                     0 |      34093028 | 2017-02-06 18:00:10.837486+01

 2017-02-06 19:05:40.388774+01 | 1486404340.38877 |                 0 |              12 |                152570 |                 3463 |            8823884 |       1668333 |            16354 |        35381993 |                     0 |      34102998 | 2017-02-06 18:00:10.837486+01

 2017-02-06 19:05:41.469693+01 | 1486404341.46969 |                 0 |              12 |                152570 |                 3463 |            8823884 |       1668833 |            16359 |        35381993 |                     0 |      34115022 | 2017-02-06 18:00:10.837486+01

 2017-02-06 19:05:42.543292+01 | 1486404342.54329 |                 0 |              12 |                152570 |                 3463 |            8823884 |       1669433 |            16365 |        35381993 |                     0 |      34128762 | 2017-02-06 18:00:10.837486+01

 2017-02-06 19:05:43.621038+01 | 1486404343.62104 |                 0 |              12 |                152570 |                 3463 |            8823884 |       1669833 |            16369 |        35381993 |                     0 |      34139109 | 2017-02-06 18:00:10.837486+01

 2017-02-06 19:05:44.699471+01 | 1486404344.69947 |                 0 |              12 |                152570 |                 3463 |            8823884 |       1670433 |            16375 |        35381993 |                     0 |      34153448 | 2017-02-06 18:00:10.837486+01

 2017-02-06 19:05:45.779424+01 | 1486404345.77942 |                 0 |              12 |                152570 |                 3463 |            8823884 |       1671033 |            16381 |        35381993 |                     0 |      34166773 | 2017-02-06 18:00:10.837486+01

 2017-02-06 19:05:46.859531+01 | 1486404346.85953 |                 0 |              12 |                152570 |                 3463 |            8823884 |       1671533 |            16386 |        35381993 |                     0 |      34178757 | 2017-02-06 18:00:10.837486+01

 2017-02-06 19:05:47.946614+01 | 1486404347.94661 |                 0 |              12 |                152570 |                 3463 |            8823884 |       1672033 |            16391 |        35381993 |                     0 |      34189527 | 2017-02-06 18:00:10.837486+01

 2017-02-06 19:05:49.028302+01 | 1486404349.0283 |                 0 |              12 |                152570 |                 3463 |            8823884 |       1672633 |            16397 |        35381993 |                     0 |      34203067 | 2017-02-06 18:00:10.837486+01

 2017-02-06 19:05:50.114401+01 | 1486404350.1144 |                 0 |              12 |                152570 |                 3463 |            8823884 |       1673133 |            16402 |        35381993 |                     0 |      34214473 | 2017-02-06 18:00:10.837486+01

 2017-02-06 19:05:51.199969+01 | 1486404351.19997 |                 0 |              12 |                152570 |                 3463 |            8823884 |       1673633 |            16407 |        35381993 |                     0 |      34225390 | 2017-02-06 18:00:10.837486+01

 2017-02-06 19:05:52.272982+01 | 1486404352.27298 |                 0 |              12 |                152570 |                 3463 |            8823884 |       1674233 |            16413 |        35381993 |                     0 |      34238372 | 2017-02-06 18:00:10.837486+01

 2017-02-06 19:05:53.347381+01 | 1486404353.34738 |                 0 |              12 |                152570 |                 3463 |            8823884 |       1674733 |            16418 |        35381993 |                     0 |      34249289 | 2017-02-06 18:00:10.837486+01

 2017-02-06 19:05:54.416369+01 | 1486404354.41637 |                 0 |              12 |                152570 |                 3463 |            8823884 |       1675233 |            16423 |        35381993 |                     0 |      34261737 | 2017-02-06 18:00:10.837486+01

 2017-02-06 19:05:55.497919+01 | 1486404355.49792 |                 0 |              12 |                152570 |                 3463 |            8823884 |       1675833 |            16429 |        35381993 |                     0 |      34275207 | 2017-02-06 18:00:10.837486+01

 2017-02-06 19:05:56.573896+01 | 1486404356.5739 |                 0 |              12 |                152570 |                 3463 |            8823884 |       1676333 |            16434 |        35381993 |                     0 |      34287125 | 2017-02-06 18:00:10.837486+01

 2017-02-06 19:05:57.646826+01 | 1486404357.64683 |                 0 |              12 |                152570 |                 3463 |            8823884 |       1676833 |            16439 |        35381993 |                     0 |      34296691 | 2017-02-06 18:00:10.837486+01

 2017-02-06 19:05:58.726167+01 | 1486404358.72617 |                 0 |              12 |                152570 |                 3463 |            8823884 |       1677433 |            16445 |        35381993 |                     0 |      34308521 | 2017-02-06 18:00:10.837486+01

 2017-02-06 19:05:59.800702+01 | 1486404359.8007 |                 0 |              12 |                152570 |                 3463 |            8823884 |       1677933 |            16450 |        35381993 |                     0 |      34317846 | 2017-02-06 18:00:10.837486+01

 2017-02-06 19:06:00.884499+01 | 1486404360.8845 |                 0 |              12 |                152570 |                 3463 |            8823884 |       1678433 |            16455 |        35381993 |                     0 |      34327452 | 2017-02-06 18:00:10.837486+01

 2017-02-06 19:06:01.959957+01 | 1486404361.95996 |                 0 |              12 |                152570 |                 3463 |            8823884 |       1679033 |            16461 |        35381993 |                     0 |      34339788 | 2017-02-06 18:00:10.837486+01

 2017-02-06 19:06:03.037667+01 | 1486404363.03767 |                 0 |              12 |                152570 |                 3463 |            8823884 |       1679533 |            16466 |        35381993 |                     0 |      34349110 | 2017-02-06 18:00:10.837486+01

 2017-02-06 19:06:04.121426+01 | 1486404364.12143 |                 0 |              12 |                152570 |                 3463 |            8823884 |       1680033 |            16471 |        35381993 |                     0 |      34359328 | 2017-02-06 18:00:10.837486+01

 2017-02-06 19:06:05.195959+01 | 1486404365.19596 |                 0 |              12 |                152570 |                 3463 |            8823884 |       1680633 |            16477 |        35885382 |                     0 |      34373487 | 2017-02-06 18:00:10.837486+01

 2017-02-06 19:06:06.278519+01 | 1486404366.27852 |                 0 |              12 |                152570 |                 3463 |            8823884 |       1681133 |            16482 |        35885382 |                     0 |      34384920 | 2017-02-06 18:00:10.837486+01

 2017-02-06 19:06:07.360511+01 | 1486404367.36051 |                 0 |              12 |                152570 |                 3463 |            8823884 |       1681733 |            16488 |        35885382 |                     0 |      34397173 | 2017-02-06 18:00:10.837486+01

 2017-02-06 19:06:08.437243+01 | 1486404368.43724 |                 0 |              12 |                152570 |                 3463 |            8823884 |       1682233 |            16493 |        35885382 |                     0 |      34409797 | 2017-02-06 18:00:10.837486+01

 2017-02-06 19:06:09.517849+01 | 1486404369.51785 |                 0 |              12 |                152570 |                 3463 |            8823884 |       1682733 |            16498 |        35885382 |                     0 |      34421681 | 2017-02-06 18:00:10.837486+01

 2017-02-06 19:06:10.599218+01 | 1486404370.59922 |                 0 |              12 |                152570 |                 3463 |            8823884 |       1683333 |            16504 |        35885382 |                     0 |      34434931 | 2017-02-06 18:00:10.837486+01

 2017-02-06 19:06:11.6826+01 | 1486404371.6826 |                 0 |              12 |                152570 |                 3463 |            8823884 |       1683833 |            16509 |        35885382 |                     0 |      34447260 | 2017-02-06 18:00:10.837486+01

 2017-02-06 19:06:12.762465+01 | 1486404372.76247 |                 0 |              12 |                152570 |                 3463 |            8823884 |       1684333 |            16514 |        35885382 |                     0 |      34458966 | 2017-02-06 18:00:10.837486+01

 2017-02-06 19:06:13.836911+01 | 1486404373.83691 |                 0 |              12 |                152570 |                 3463 |            8823884 |       1684933 |            16520 |        35885382 |                     0 |      34473239 | 2017-02-06 18:00:10.837486+01

 2017-02-06 19:06:14.914701+01 | 1486404374.9147 |                 0 |              12 |                152570 |                 3463 |            8823884 |       1685433 |            16525 |        35885382 |                     0 |      34485205 | 2017-02-06 18:00:10.837486+01

 2017-02-06 19:06:15.997224+01 | 1486404375.99722 |                 0 |              12 |                152570 |                 3463 |            8823884 |       1685933 |            16530 |        35885382 |                     0 |      34495444 | 2017-02-06 18:00:10.837486+01

 2017-02-06 19:06:17.079744+01 | 1486404377.07974 |                 0 |              12 |                152570 |                 3463 |            8823884 |       1686533 |            16536 |        35885382 |                     0 |      34507864 | 2017-02-06 18:00:10.837486+01

 2017-02-06 19:06:18.169025+01 | 1486404378.16902 |                 0 |              12 |                152570 |                 3463 |            8823884 |       1687033 |            16541 |        35885382 |                     0 |      34518650 | 2017-02-06 18:00:10.837486+01

 2017-02-06 19:06:19.247267+01 | 1486404379.24727 |                 0 |              12 |                152570 |                 3463 |            8823884 |       1687533 |            16546 |        35885382 |                     0 |      34528009 | 2017-02-06 18:00:10.837486+01

 2017-02-06 19:06:20.320342+01 | 1486404380.32034 |                 0 |              12 |                152570 |                 3463 |            8823884 |       1688133 |            16552 |        35885382 |                     0 |      34540818 | 2017-02-06 18:00:10.837486+01

 2017-02-06 19:06:21.400732+01 | 1486404381.40073 |                 0 |              12 |                152570 |                 3463 |            8823884 |       1688633 |            16557 |        35885382 |                     0 |      34549736 | 2017-02-06 18:00:10.837486+01

 2017-02-06 19:06:22.485688+01 | 1486404382.48569 |                 0 |              12 |                152570 |                 3463 |            8823884 |       1689133 |            16562 |        35885382 |                     0 |      34560277 | 2017-02-06 18:00:10.837486+01

 2017-02-06 19:06:23.572996+01 | 1486404383.573 |                 0 |              12 |                152570 |                 3463 |            8823884 |       1689733 |            16568 |        35885382 |                     0 |      34572111 | 2017-02-06 18:00:10.837486+01

 2017-02-06 19:06:24.65073+01 | 1486404384.65073 |                 0 |              12 |                152570 |                 3463 |            8823884 |       1690233 |            16573 |        35885382 |                     0 |      34581912 | 2017-02-06 18:00:10.837486+01

 2017-02-06 19:06:25.731819+01 | 1486404385.73182 |                 0 |              12 |                152570 |                 3463 |            8823884 |       1690833 |            16579 |        35885382 |                     0 |      34594471 | 2017-02-06 18:00:10.837486+01

 2017-02-06 19:06:26.810283+01 | 1486404386.81028 |                 0 |              12 |                152570 |                 3463 |            8823884 |       1691333 |            16584 |        35885382 |                     0 |      34603674 | 2017-02-06 18:00:10.837486+01

 2017-02-06 19:06:27.886834+01 | 1486404387.88683 |                 0 |              12 |                152570 |                 3463 |            8823884 |       1691833 |            16589 |        35885382 |                     0 |      34614094 | 2017-02-06 18:00:10.837486+01

 2017-02-06 19:06:28.982229+01 | 1486404388.98223 |                 0 |              12 |                152570 |                 3463 |            8823884 |       1692433 |            16595 |        35885382 |                     0 |      34625215 | 2017-02-06 18:00:10.837486+01

 2017-02-06 19:06:30.062378+01 | 1486404390.06238 |                 0 |              12 |                152570 |                 3463 |            8823884 |       1692933 |            16600 |        35885382 |                     0 |      34635183 | 2017-02-06 18:00:10.837486+01

 2017-02-06 19:06:31.143637+01 | 1486404391.14364 |                 0 |              12 |                152570 |                 3463 |            8823884 |       1693433 |            16605 |        35885382 |                     0 |      34646528 | 2017-02-06 18:00:10.837486+01

 2017-02-06 19:06:32.223641+01 | 1486404392.22364 |                 0 |              12 |                152570 |                 3463 |            8823884 |       1694033 |            16611 |        35885382 |                     0 |      34660897 | 2017-02-06 18:00:10.837486+01

 2017-02-06 19:06:33.302671+01 | 1486404393.30267 |                 0 |              12 |                152570 |                 3463 |            8823884 |       1694533 |            16616 |        35885382 |                     0 |      34672199 | 2017-02-06 18:00:10.837486+01

 2017-02-06 19:06:34.385707+01 | 1486404394.38571 |                 0 |              12 |                152570 |                 3463 |            8823884 |       1695033 |            16621 |        35885382 |                     0 |      34684354 | 2017-02-06 18:00:10.837486+01

 2017-02-06 19:06:35.468161+01 | 1486404395.46816 |                 0 |              12 |                152570 |                 3463 |            8823884 |       1695633 |            16627 |        35885382 |                     0 |      34697285 | 2017-02-06 18:00:10.837486+01

 2017-02-06 19:06:36.549641+01 | 1486404396.54964 |                 0 |              12 |                152570 |                 3463 |            8823884 |       1696133 |            16632 |        35885382 |                     0 |      34708304 | 2017-02-06 18:00:10.837486+01

 2017-02-06 19:06:37.626543+01 | 1486404397.62654 |                 0 |              12 |                152570 |                 3463 |            8823884 |       1696633 |            16637 |        35885382 |                     0 |      34719954 | 2017-02-06 18:00:10.837486+01

 2017-02-06 19:06:38.711515+01 | 1486404398.71151 |                 0 |              12 |                152570 |                 3463 |            8823884 |       1697233 |            16643 |        35885382 |                     0 |      34732803 | 2017-02-06 18:00:10.837486+01

 2017-02-06 19:06:39.799526+01 | 1486404399.79953 |                 0 |              12 |                152570 |                 3463 |            8823884 |       1697733 |            16648 |        35885382 |                     0 |      34743472 | 2017-02-06 18:00:10.837486+01

 2017-02-06 19:06:40.879583+01 | 1486404400.87958 |                 0 |              12 |                152570 |                 3463 |            8823884 |       1698233 |            16653 |        35885382 |                     0 |      34754130 | 2017-02-06 18:00:10.837486+01

 2017-02-06 19:06:41.959885+01 | 1486404401.95988 |                 0 |              12 |                152570 |                 3463 |            8823884 |       1698833 |            16659 |        35885382 |                     0 |      34766430 | 2017-02-06 18:00:10.837486+01

 2017-02-06 19:06:43.026116+01 | 1486404403.02612 |                 0 |              12 |                152570 |                 3463 |            8823884 |       1699233 |            16663 |        35885382 |                     0 |      34777331 | 2017-02-06 18:00:10.837486+01

 2017-02-06 19:06:44.095685+01 | 1486404404.09569 |                 0 |              12 |                152570 |                 3463 |            8823884 |       1699733 |            16668 |        35885382 |                     0 |      34787529 | 2017-02-06 18:00:10.837486+01

 2017-02-06 19:06:45.181472+01 | 1486404405.18147 |                 0 |              12 |                152570 |                 3463 |            8823884 |       1700433 |            16675 |        35885382 |                     0 |      34805235 | 2017-02-06 18:00:10.837486+01

 2017-02-06 19:06:46.261162+01 | 1486404406.26116 |                 0 |              12 |                152570 |                 3463 |            8823884 |       1700933 |            16680 |        35885382 |                     0 |      34816233 | 2017-02-06 18:00:10.837486+01

 2017-02-06 19:06:47.349198+01 | 1486404407.3492 |                 0 |              12 |                152570 |                 3463 |            8823884 |       1701433 |            16685 |        36388571 |                     0 |      34827875 | 2017-02-06 18:00:10.837486+01

 2017-02-06 19:06:48.432275+01 | 1486404408.43228 |                 0 |              12 |                152570 |                 3463 |            8823884 |       1702033 |            16691 |        36388571 |                     0 |      34840797 | 2017-02-06 18:00:10.837486+01

 2017-02-06 19:06:49.51031+01 | 1486404409.51031 |                 0 |              12 |                152570 |                 3463 |            8823884 |       1702533 |            16696 |        36388571 |                     0 |      34851425 | 2017-02-06 18:00:10.837486+01

 2017-02-06 19:06:50.593804+01 | 1486404410.5938 |                 0 |              12 |                152570 |                 3463 |            8823884 |       1703133 |            16702 |        36388571 |                     0 |      34863989 | 2017-02-06 18:00:10.837486+01

 2017-02-06 19:06:51.680453+01 | 1486404411.68045 |                 0 |              12 |                152570 |                 3463 |            8823884 |       1703633 |            16707 |        36388571 |                     0 |      34875359 | 2017-02-06 18:00:10.837486+01

