 2017-02-06 00:36:44.40985+01 | 1486337804.40985 | pgbench_accounts |       1342955520
 2017-02-06 00:36:44.40985+01 | 1486337804.40985 | pgbench_tellers  |            49152
 2017-02-06 00:36:44.40985+01 | 1486337804.40985 | pgbench_history  |                0
 2017-02-06 00:36:44.40985+01 | 1486337804.40985 | pgbench_branches |             8192

 2017-02-06 00:36:45.477144+01 | 1486337805.47714 | pgbench_accounts |       1342955520
 2017-02-06 00:36:45.477144+01 | 1486337805.47714 | pgbench_tellers  |            49152
 2017-02-06 00:36:45.477144+01 | 1486337805.47714 | pgbench_history  |                0
 2017-02-06 00:36:45.477144+01 | 1486337805.47714 | pgbench_branches |             8192

 2017-02-06 00:36:46.547692+01 | 1486337806.54769 | pgbench_accounts |       1342955520
 2017-02-06 00:36:46.547692+01 | 1486337806.54769 | pgbench_tellers  |            49152
 2017-02-06 00:36:46.547692+01 | 1486337806.54769 | pgbench_history  |                0
 2017-02-06 00:36:46.547692+01 | 1486337806.54769 | pgbench_branches |             8192

 2017-02-06 00:36:47.608985+01 | 1486337807.60898 | pgbench_accounts |       1342955520
 2017-02-06 00:36:47.608985+01 | 1486337807.60898 | pgbench_tellers  |            49152
 2017-02-06 00:36:47.608985+01 | 1486337807.60898 | pgbench_history  |                0
 2017-02-06 00:36:47.608985+01 | 1486337807.60898 | pgbench_branches |             8192

 2017-02-06 00:36:48.691127+01 | 1486337808.69113 | pgbench_accounts |       1342955520
 2017-02-06 00:36:48.691127+01 | 1486337808.69113 | pgbench_tellers  |            49152
 2017-02-06 00:36:48.691127+01 | 1486337808.69113 | pgbench_history  |                0
 2017-02-06 00:36:48.691127+01 | 1486337808.69113 | pgbench_branches |             8192

 2017-02-06 00:36:49.75801+01 | 1486337809.75801 | pgbench_accounts |       1342955520
 2017-02-06 00:36:49.75801+01 | 1486337809.75801 | pgbench_tellers  |            49152
 2017-02-06 00:36:49.75801+01 | 1486337809.75801 | pgbench_history  |                0
 2017-02-06 00:36:49.75801+01 | 1486337809.75801 | pgbench_branches |             8192

 2017-02-06 00:36:50.841473+01 | 1486337810.84147 | pgbench_accounts |       1342955520
 2017-02-06 00:36:50.841473+01 | 1486337810.84147 | pgbench_tellers  |            49152
 2017-02-06 00:36:50.841473+01 | 1486337810.84147 | pgbench_history  |                0
 2017-02-06 00:36:50.841473+01 | 1486337810.84147 | pgbench_branches |             8192

 2017-02-06 00:36:51.922611+01 | 1486337811.92261 | pgbench_accounts |       1342955520
 2017-02-06 00:36:51.922611+01 | 1486337811.92261 | pgbench_tellers  |            49152
 2017-02-06 00:36:51.922611+01 | 1486337811.92261 | pgbench_history  |                0
 2017-02-06 00:36:51.922611+01 | 1486337811.92261 | pgbench_branches |             8192

 2017-02-06 00:36:52.994279+01 | 1486337812.99428 | pgbench_accounts |       1342955520
 2017-02-06 00:36:52.994279+01 | 1486337812.99428 | pgbench_tellers  |            49152
 2017-02-06 00:36:52.994279+01 | 1486337812.99428 | pgbench_history  |                0
 2017-02-06 00:36:52.994279+01 | 1486337812.99428 | pgbench_branches |             8192

 2017-02-06 00:36:54.06955+01 | 1486337814.06955 | pgbench_accounts |       1342955520
 2017-02-06 00:36:54.06955+01 | 1486337814.06955 | pgbench_tellers  |            49152
 2017-02-06 00:36:54.06955+01 | 1486337814.06955 | pgbench_history  |                0
 2017-02-06 00:36:54.06955+01 | 1486337814.06955 | pgbench_branches |             8192

 2017-02-06 00:36:55.153911+01 | 1486337815.15391 | pgbench_accounts |       1342955520
 2017-02-06 00:36:55.153911+01 | 1486337815.15391 | pgbench_tellers  |            49152
 2017-02-06 00:36:55.153911+01 | 1486337815.15391 | pgbench_history  |                0
 2017-02-06 00:36:55.153911+01 | 1486337815.15391 | pgbench_branches |             8192

 2017-02-06 00:36:56.225613+01 | 1486337816.22561 | pgbench_accounts |       1342955520
 2017-02-06 00:36:56.225613+01 | 1486337816.22561 | pgbench_tellers  |            49152
 2017-02-06 00:36:56.225613+01 | 1486337816.22561 | pgbench_history  |                0
 2017-02-06 00:36:56.225613+01 | 1486337816.22561 | pgbench_branches |             8192

 2017-02-06 00:36:57.297662+01 | 1486337817.29766 | pgbench_accounts |       1342955520
 2017-02-06 00:36:57.297662+01 | 1486337817.29766 | pgbench_tellers  |            49152
 2017-02-06 00:36:57.297662+01 | 1486337817.29766 | pgbench_history  |                0
 2017-02-06 00:36:57.297662+01 | 1486337817.29766 | pgbench_branches |             8192

 2017-02-06 00:36:58.372382+01 | 1486337818.37238 | pgbench_accounts |       1342955520
 2017-02-06 00:36:58.372382+01 | 1486337818.37238 | pgbench_tellers  |            49152
 2017-02-06 00:36:58.372382+01 | 1486337818.37238 | pgbench_history  |                0
 2017-02-06 00:36:58.372382+01 | 1486337818.37238 | pgbench_branches |             8192

 2017-02-06 00:36:59.442678+01 | 1486337819.44268 | pgbench_accounts |       1342955520
 2017-02-06 00:36:59.442678+01 | 1486337819.44268 | pgbench_tellers  |            49152
 2017-02-06 00:36:59.442678+01 | 1486337819.44268 | pgbench_history  |                0
 2017-02-06 00:36:59.442678+01 | 1486337819.44268 | pgbench_branches |             8192

 2017-02-06 00:37:00.515865+01 | 1486337820.51587 | pgbench_accounts |       1342955520
 2017-02-06 00:37:00.515865+01 | 1486337820.51587 | pgbench_tellers  |            49152
 2017-02-06 00:37:00.515865+01 | 1486337820.51587 | pgbench_history  |                0
 2017-02-06 00:37:00.515865+01 | 1486337820.51587 | pgbench_branches |             8192

 2017-02-06 00:37:01.582213+01 | 1486337821.58221 | pgbench_accounts |       1342955520
 2017-02-06 00:37:01.582213+01 | 1486337821.58221 | pgbench_tellers  |            49152
 2017-02-06 00:37:01.582213+01 | 1486337821.58221 | pgbench_history  |                0
 2017-02-06 00:37:01.582213+01 | 1486337821.58221 | pgbench_branches |             8192

 2017-02-06 00:37:02.657802+01 | 1486337822.6578 | pgbench_accounts |       1342955520
 2017-02-06 00:37:02.657802+01 | 1486337822.6578 | pgbench_tellers  |            49152
 2017-02-06 00:37:02.657802+01 | 1486337822.6578 | pgbench_history  |                0
 2017-02-06 00:37:02.657802+01 | 1486337822.6578 | pgbench_branches |             8192

 2017-02-06 00:37:03.725294+01 | 1486337823.72529 | pgbench_accounts |       1342955520
 2017-02-06 00:37:03.725294+01 | 1486337823.72529 | pgbench_tellers  |            49152
 2017-02-06 00:37:03.725294+01 | 1486337823.72529 | pgbench_history  |                0
 2017-02-06 00:37:03.725294+01 | 1486337823.72529 | pgbench_branches |             8192

 2017-02-06 00:37:04.804653+01 | 1486337824.80465 | pgbench_accounts |       1342955520
 2017-02-06 00:37:04.804653+01 | 1486337824.80465 | pgbench_tellers  |            49152
 2017-02-06 00:37:04.804653+01 | 1486337824.80465 | pgbench_history  |                0
 2017-02-06 00:37:04.804653+01 | 1486337824.80465 | pgbench_branches |             8192

 2017-02-06 00:37:05.884619+01 | 1486337825.88462 | pgbench_accounts |       1342955520
 2017-02-06 00:37:05.884619+01 | 1486337825.88462 | pgbench_tellers  |            49152
 2017-02-06 00:37:05.884619+01 | 1486337825.88462 | pgbench_history  |                0
 2017-02-06 00:37:05.884619+01 | 1486337825.88462 | pgbench_branches |             8192

 2017-02-06 00:37:06.95827+01 | 1486337826.95827 | pgbench_accounts |       1342955520
 2017-02-06 00:37:06.95827+01 | 1486337826.95827 | pgbench_tellers  |            49152
 2017-02-06 00:37:06.95827+01 | 1486337826.95827 | pgbench_history  |                0
 2017-02-06 00:37:06.95827+01 | 1486337826.95827 | pgbench_branches |             8192

 2017-02-06 00:37:08.030527+01 | 1486337828.03053 | pgbench_accounts |       1342955520
 2017-02-06 00:37:08.030527+01 | 1486337828.03053 | pgbench_tellers  |            49152
 2017-02-06 00:37:08.030527+01 | 1486337828.03053 | pgbench_history  |                0
 2017-02-06 00:37:08.030527+01 | 1486337828.03053 | pgbench_branches |             8192

 2017-02-06 00:37:09.101428+01 | 1486337829.10143 | pgbench_accounts |       1342955520
 2017-02-06 00:37:09.101428+01 | 1486337829.10143 | pgbench_tellers  |            49152
 2017-02-06 00:37:09.101428+01 | 1486337829.10143 | pgbench_history  |                0
 2017-02-06 00:37:09.101428+01 | 1486337829.10143 | pgbench_branches |             8192

 2017-02-06 00:37:10.172058+01 | 1486337830.17206 | pgbench_accounts |       1342955520
 2017-02-06 00:37:10.172058+01 | 1486337830.17206 | pgbench_tellers  |            49152
 2017-02-06 00:37:10.172058+01 | 1486337830.17206 | pgbench_history  |                0
 2017-02-06 00:37:10.172058+01 | 1486337830.17206 | pgbench_branches |             8192

 2017-02-06 00:37:11.247826+01 | 1486337831.24783 | pgbench_accounts |       1342955520
 2017-02-06 00:37:11.247826+01 | 1486337831.24783 | pgbench_tellers  |            49152
 2017-02-06 00:37:11.247826+01 | 1486337831.24783 | pgbench_history  |                0
 2017-02-06 00:37:11.247826+01 | 1486337831.24783 | pgbench_branches |             8192

 2017-02-06 00:37:12.321886+01 | 1486337832.32189 | pgbench_accounts |       1342955520
 2017-02-06 00:37:12.321886+01 | 1486337832.32189 | pgbench_tellers  |            49152
 2017-02-06 00:37:12.321886+01 | 1486337832.32189 | pgbench_history  |                0
 2017-02-06 00:37:12.321886+01 | 1486337832.32189 | pgbench_branches |             8192

 2017-02-06 00:37:13.39056+01 | 1486337833.39056 | pgbench_accounts |       1342955520
 2017-02-06 00:37:13.39056+01 | 1486337833.39056 | pgbench_tellers  |            49152
 2017-02-06 00:37:13.39056+01 | 1486337833.39056 | pgbench_history  |                0
 2017-02-06 00:37:13.39056+01 | 1486337833.39056 | pgbench_branches |             8192

 2017-02-06 00:37:14.468497+01 | 1486337834.4685 | pgbench_accounts |       1342955520
 2017-02-06 00:37:14.468497+01 | 1486337834.4685 | pgbench_tellers  |            49152
 2017-02-06 00:37:14.468497+01 | 1486337834.4685 | pgbench_history  |                0
 2017-02-06 00:37:14.468497+01 | 1486337834.4685 | pgbench_branches |             8192

 2017-02-06 00:37:15.546775+01 | 1486337835.54678 | pgbench_accounts |       1342955520
 2017-02-06 00:37:15.546775+01 | 1486337835.54678 | pgbench_tellers  |            49152
 2017-02-06 00:37:15.546775+01 | 1486337835.54678 | pgbench_history  |                0
 2017-02-06 00:37:15.546775+01 | 1486337835.54678 | pgbench_branches |             8192

 2017-02-06 00:37:16.62513+01 | 1486337836.62513 | pgbench_accounts |       1342955520
 2017-02-06 00:37:16.62513+01 | 1486337836.62513 | pgbench_tellers  |            49152
 2017-02-06 00:37:16.62513+01 | 1486337836.62513 | pgbench_history  |                0
 2017-02-06 00:37:16.62513+01 | 1486337836.62513 | pgbench_branches |             8192

 2017-02-06 00:37:17.696077+01 | 1486337837.69608 | pgbench_accounts |       1342955520
 2017-02-06 00:37:17.696077+01 | 1486337837.69608 | pgbench_tellers  |            49152
 2017-02-06 00:37:17.696077+01 | 1486337837.69608 | pgbench_history  |                0
 2017-02-06 00:37:17.696077+01 | 1486337837.69608 | pgbench_branches |             8192

 2017-02-06 00:37:18.769174+01 | 1486337838.76917 | pgbench_accounts |       1342955520
 2017-02-06 00:37:18.769174+01 | 1486337838.76917 | pgbench_tellers  |            49152
 2017-02-06 00:37:18.769174+01 | 1486337838.76917 | pgbench_history  |                0
 2017-02-06 00:37:18.769174+01 | 1486337838.76917 | pgbench_branches |             8192

 2017-02-06 00:37:19.845667+01 | 1486337839.84567 | pgbench_accounts |       1342955520
 2017-02-06 00:37:19.845667+01 | 1486337839.84567 | pgbench_tellers  |            49152
 2017-02-06 00:37:19.845667+01 | 1486337839.84567 | pgbench_history  |                0
 2017-02-06 00:37:19.845667+01 | 1486337839.84567 | pgbench_branches |             8192

 2017-02-06 00:37:20.920341+01 | 1486337840.92034 | pgbench_accounts |       1342955520
 2017-02-06 00:37:20.920341+01 | 1486337840.92034 | pgbench_tellers  |            49152
 2017-02-06 00:37:20.920341+01 | 1486337840.92034 | pgbench_history  |                0
 2017-02-06 00:37:20.920341+01 | 1486337840.92034 | pgbench_branches |             8192

 2017-02-06 00:37:21.999532+01 | 1486337841.99953 | pgbench_accounts |       1342955520
 2017-02-06 00:37:21.999532+01 | 1486337841.99953 | pgbench_tellers  |            49152
 2017-02-06 00:37:21.999532+01 | 1486337841.99953 | pgbench_history  |                0
 2017-02-06 00:37:21.999532+01 | 1486337841.99953 | pgbench_branches |             8192

 2017-02-06 00:37:23.073507+01 | 1486337843.07351 | pgbench_accounts |       1342955520
 2017-02-06 00:37:23.073507+01 | 1486337843.07351 | pgbench_tellers  |            49152
 2017-02-06 00:37:23.073507+01 | 1486337843.07351 | pgbench_history  |                0
 2017-02-06 00:37:23.073507+01 | 1486337843.07351 | pgbench_branches |             8192

 2017-02-06 00:37:24.152705+01 | 1486337844.1527 | pgbench_accounts |       1342955520
 2017-02-06 00:37:24.152705+01 | 1486337844.1527 | pgbench_tellers  |            49152
 2017-02-06 00:37:24.152705+01 | 1486337844.1527 | pgbench_history  |                0
 2017-02-06 00:37:24.152705+01 | 1486337844.1527 | pgbench_branches |             8192

 2017-02-06 00:37:25.230137+01 | 1486337845.23014 | pgbench_accounts |       1342955520
 2017-02-06 00:37:25.230137+01 | 1486337845.23014 | pgbench_tellers  |            49152
 2017-02-06 00:37:25.230137+01 | 1486337845.23014 | pgbench_history  |                0
 2017-02-06 00:37:25.230137+01 | 1486337845.23014 | pgbench_branches |             8192

 2017-02-06 00:37:26.321196+01 | 1486337846.3212 | pgbench_accounts |       1342955520
 2017-02-06 00:37:26.321196+01 | 1486337846.3212 | pgbench_tellers  |            49152
 2017-02-06 00:37:26.321196+01 | 1486337846.3212 | pgbench_history  |                0
 2017-02-06 00:37:26.321196+01 | 1486337846.3212 | pgbench_branches |             8192

 2017-02-06 00:37:27.394093+01 | 1486337847.39409 | pgbench_accounts |       1342955520
 2017-02-06 00:37:27.394093+01 | 1486337847.39409 | pgbench_tellers  |            49152
 2017-02-06 00:37:27.394093+01 | 1486337847.39409 | pgbench_history  |                0
 2017-02-06 00:37:27.394093+01 | 1486337847.39409 | pgbench_branches |             8192

 2017-02-06 00:37:28.466579+01 | 1486337848.46658 | pgbench_accounts |       1342955520
 2017-02-06 00:37:28.466579+01 | 1486337848.46658 | pgbench_tellers  |            49152
 2017-02-06 00:37:28.466579+01 | 1486337848.46658 | pgbench_history  |                0
 2017-02-06 00:37:28.466579+01 | 1486337848.46658 | pgbench_branches |             8192

 2017-02-06 00:37:29.543202+01 | 1486337849.5432 | pgbench_accounts |       1342955520
 2017-02-06 00:37:29.543202+01 | 1486337849.5432 | pgbench_tellers  |            49152
 2017-02-06 00:37:29.543202+01 | 1486337849.5432 | pgbench_history  |                0
 2017-02-06 00:37:29.543202+01 | 1486337849.5432 | pgbench_branches |             8192

 2017-02-06 00:37:30.627988+01 | 1486337850.62799 | pgbench_accounts |       1342955520
 2017-02-06 00:37:30.627988+01 | 1486337850.62799 | pgbench_tellers  |            49152
 2017-02-06 00:37:30.627988+01 | 1486337850.62799 | pgbench_history  |                0
 2017-02-06 00:37:30.627988+01 | 1486337850.62799 | pgbench_branches |             8192

 2017-02-06 00:37:31.703598+01 | 1486337851.7036 | pgbench_accounts |       1342955520
 2017-02-06 00:37:31.703598+01 | 1486337851.7036 | pgbench_tellers  |            49152
 2017-02-06 00:37:31.703598+01 | 1486337851.7036 | pgbench_history  |                0
 2017-02-06 00:37:31.703598+01 | 1486337851.7036 | pgbench_branches |             8192

 2017-02-06 00:37:32.775008+01 | 1486337852.77501 | pgbench_accounts |       1342955520
 2017-02-06 00:37:32.775008+01 | 1486337852.77501 | pgbench_tellers  |            49152
 2017-02-06 00:37:32.775008+01 | 1486337852.77501 | pgbench_history  |                0
 2017-02-06 00:37:32.775008+01 | 1486337852.77501 | pgbench_branches |             8192

 2017-02-06 00:37:33.848096+01 | 1486337853.8481 | pgbench_accounts |       1342955520
 2017-02-06 00:37:33.848096+01 | 1486337853.8481 | pgbench_tellers  |            49152
 2017-02-06 00:37:33.848096+01 | 1486337853.8481 | pgbench_history  |                0
 2017-02-06 00:37:33.848096+01 | 1486337853.8481 | pgbench_branches |             8192

 2017-02-06 00:37:34.926237+01 | 1486337854.92624 | pgbench_accounts |       1342955520
 2017-02-06 00:37:34.926237+01 | 1486337854.92624 | pgbench_tellers  |            49152
 2017-02-06 00:37:34.926237+01 | 1486337854.92624 | pgbench_history  |                0
 2017-02-06 00:37:34.926237+01 | 1486337854.92624 | pgbench_branches |             8192

 2017-02-06 00:37:36.006364+01 | 1486337856.00636 | pgbench_accounts |       1342955520
 2017-02-06 00:37:36.006364+01 | 1486337856.00636 | pgbench_tellers  |            49152
 2017-02-06 00:37:36.006364+01 | 1486337856.00636 | pgbench_history  |                0
 2017-02-06 00:37:36.006364+01 | 1486337856.00636 | pgbench_branches |             8192

 2017-02-06 00:37:37.079709+01 | 1486337857.07971 | pgbench_accounts |       1342955520
 2017-02-06 00:37:37.079709+01 | 1486337857.07971 | pgbench_tellers  |            49152
 2017-02-06 00:37:37.079709+01 | 1486337857.07971 | pgbench_history  |                0
 2017-02-06 00:37:37.079709+01 | 1486337857.07971 | pgbench_branches |             8192

 2017-02-06 00:37:38.148593+01 | 1486337858.14859 | pgbench_accounts |       1342955520
 2017-02-06 00:37:38.148593+01 | 1486337858.14859 | pgbench_tellers  |            49152
 2017-02-06 00:37:38.148593+01 | 1486337858.14859 | pgbench_history  |                0
 2017-02-06 00:37:38.148593+01 | 1486337858.14859 | pgbench_branches |             8192

 2017-02-06 00:37:39.22374+01 | 1486337859.22374 | pgbench_accounts |       1342955520
 2017-02-06 00:37:39.22374+01 | 1486337859.22374 | pgbench_tellers  |            49152
 2017-02-06 00:37:39.22374+01 | 1486337859.22374 | pgbench_history  |                0
 2017-02-06 00:37:39.22374+01 | 1486337859.22374 | pgbench_branches |             8192

 2017-02-06 00:37:40.294383+01 | 1486337860.29438 | pgbench_accounts |       1342955520
 2017-02-06 00:37:40.294383+01 | 1486337860.29438 | pgbench_tellers  |            49152
 2017-02-06 00:37:40.294383+01 | 1486337860.29438 | pgbench_history  |                0
 2017-02-06 00:37:40.294383+01 | 1486337860.29438 | pgbench_branches |             8192

 2017-02-06 00:37:41.369664+01 | 1486337861.36966 | pgbench_accounts |       1342955520
 2017-02-06 00:37:41.369664+01 | 1486337861.36966 | pgbench_tellers  |            49152
 2017-02-06 00:37:41.369664+01 | 1486337861.36966 | pgbench_history  |                0
 2017-02-06 00:37:41.369664+01 | 1486337861.36966 | pgbench_branches |             8192

 2017-02-06 00:37:42.445865+01 | 1486337862.44586 | pgbench_accounts |       1342955520
 2017-02-06 00:37:42.445865+01 | 1486337862.44586 | pgbench_tellers  |            49152
 2017-02-06 00:37:42.445865+01 | 1486337862.44586 | pgbench_history  |                0
 2017-02-06 00:37:42.445865+01 | 1486337862.44586 | pgbench_branches |             8192

 2017-02-06 00:37:43.516669+01 | 1486337863.51667 | pgbench_accounts |       1342955520
 2017-02-06 00:37:43.516669+01 | 1486337863.51667 | pgbench_tellers  |            49152
 2017-02-06 00:37:43.516669+01 | 1486337863.51667 | pgbench_history  |                0
 2017-02-06 00:37:43.516669+01 | 1486337863.51667 | pgbench_branches |             8192

 2017-02-06 00:37:44.588148+01 | 1486337864.58815 | pgbench_accounts |       1342955520
 2017-02-06 00:37:44.588148+01 | 1486337864.58815 | pgbench_tellers  |            49152
 2017-02-06 00:37:44.588148+01 | 1486337864.58815 | pgbench_history  |                0
 2017-02-06 00:37:44.588148+01 | 1486337864.58815 | pgbench_branches |             8192

 2017-02-06 00:37:45.667578+01 | 1486337865.66758 | pgbench_accounts |       1342955520
 2017-02-06 00:37:45.667578+01 | 1486337865.66758 | pgbench_tellers  |            49152
 2017-02-06 00:37:45.667578+01 | 1486337865.66758 | pgbench_history  |                0
 2017-02-06 00:37:45.667578+01 | 1486337865.66758 | pgbench_branches |             8192

 2017-02-06 00:37:46.741322+01 | 1486337866.74132 | pgbench_accounts |       1342955520
 2017-02-06 00:37:46.741322+01 | 1486337866.74132 | pgbench_tellers  |            49152
 2017-02-06 00:37:46.741322+01 | 1486337866.74132 | pgbench_history  |                0
 2017-02-06 00:37:46.741322+01 | 1486337866.74132 | pgbench_branches |             8192

 2017-02-06 00:37:47.809251+01 | 1486337867.80925 | pgbench_accounts |       1342955520
 2017-02-06 00:37:47.809251+01 | 1486337867.80925 | pgbench_tellers  |            49152
 2017-02-06 00:37:47.809251+01 | 1486337867.80925 | pgbench_history  |                0
 2017-02-06 00:37:47.809251+01 | 1486337867.80925 | pgbench_branches |             8192

 2017-02-06 00:37:48.878313+01 | 1486337868.87831 | pgbench_accounts |       1342955520
 2017-02-06 00:37:48.878313+01 | 1486337868.87831 | pgbench_tellers  |            49152
 2017-02-06 00:37:48.878313+01 | 1486337868.87831 | pgbench_history  |                0
 2017-02-06 00:37:48.878313+01 | 1486337868.87831 | pgbench_branches |             8192

 2017-02-06 00:37:49.949404+01 | 1486337869.9494 | pgbench_accounts |       1342955520
 2017-02-06 00:37:49.949404+01 | 1486337869.9494 | pgbench_tellers  |            49152
 2017-02-06 00:37:49.949404+01 | 1486337869.9494 | pgbench_history  |                0
 2017-02-06 00:37:49.949404+01 | 1486337869.9494 | pgbench_branches |             8192

 2017-02-06 00:37:51.017019+01 | 1486337871.01702 | pgbench_accounts |       1342955520
 2017-02-06 00:37:51.017019+01 | 1486337871.01702 | pgbench_tellers  |            49152
 2017-02-06 00:37:51.017019+01 | 1486337871.01702 | pgbench_history  |                0
 2017-02-06 00:37:51.017019+01 | 1486337871.01702 | pgbench_branches |             8192

 2017-02-06 00:37:52.090338+01 | 1486337872.09034 | pgbench_accounts |       1342955520
 2017-02-06 00:37:52.090338+01 | 1486337872.09034 | pgbench_tellers  |            49152
 2017-02-06 00:37:52.090338+01 | 1486337872.09034 | pgbench_history  |                0
 2017-02-06 00:37:52.090338+01 | 1486337872.09034 | pgbench_branches |             8192

 2017-02-06 00:37:53.169323+01 | 1486337873.16932 | pgbench_accounts |       1342955520
 2017-02-06 00:37:53.169323+01 | 1486337873.16932 | pgbench_tellers  |            49152
 2017-02-06 00:37:53.169323+01 | 1486337873.16932 | pgbench_history  |                0
 2017-02-06 00:37:53.169323+01 | 1486337873.16932 | pgbench_branches |             8192

 2017-02-06 00:37:54.245338+01 | 1486337874.24534 | pgbench_accounts |       1342955520
 2017-02-06 00:37:54.245338+01 | 1486337874.24534 | pgbench_tellers  |            49152
 2017-02-06 00:37:54.245338+01 | 1486337874.24534 | pgbench_history  |                0
 2017-02-06 00:37:54.245338+01 | 1486337874.24534 | pgbench_branches |             8192

 2017-02-06 00:37:55.323432+01 | 1486337875.32343 | pgbench_accounts |       1342955520
 2017-02-06 00:37:55.323432+01 | 1486337875.32343 | pgbench_tellers  |            49152
 2017-02-06 00:37:55.323432+01 | 1486337875.32343 | pgbench_history  |                0
 2017-02-06 00:37:55.323432+01 | 1486337875.32343 | pgbench_branches |             8192

 2017-02-06 00:37:56.400115+01 | 1486337876.40012 | pgbench_accounts |       1342955520
 2017-02-06 00:37:56.400115+01 | 1486337876.40012 | pgbench_tellers  |            49152
 2017-02-06 00:37:56.400115+01 | 1486337876.40012 | pgbench_history  |                0
 2017-02-06 00:37:56.400115+01 | 1486337876.40012 | pgbench_branches |             8192

 2017-02-06 00:37:57.472876+01 | 1486337877.47288 | pgbench_accounts |       1342955520
 2017-02-06 00:37:57.472876+01 | 1486337877.47288 | pgbench_tellers  |            49152
 2017-02-06 00:37:57.472876+01 | 1486337877.47288 | pgbench_history  |                0
 2017-02-06 00:37:57.472876+01 | 1486337877.47288 | pgbench_branches |             8192

 2017-02-06 00:37:58.545259+01 | 1486337878.54526 | pgbench_accounts |       1342955520
 2017-02-06 00:37:58.545259+01 | 1486337878.54526 | pgbench_tellers  |            49152
 2017-02-06 00:37:58.545259+01 | 1486337878.54526 | pgbench_history  |                0
 2017-02-06 00:37:58.545259+01 | 1486337878.54526 | pgbench_branches |             8192

 2017-02-06 00:37:59.619965+01 | 1486337879.61997 | pgbench_accounts |       1342955520
 2017-02-06 00:37:59.619965+01 | 1486337879.61997 | pgbench_tellers  |            49152
 2017-02-06 00:37:59.619965+01 | 1486337879.61997 | pgbench_history  |                0
 2017-02-06 00:37:59.619965+01 | 1486337879.61997 | pgbench_branches |             8192

 2017-02-06 00:38:00.700157+01 | 1486337880.70016 | pgbench_accounts |       1342955520
 2017-02-06 00:38:00.700157+01 | 1486337880.70016 | pgbench_tellers  |            49152
 2017-02-06 00:38:00.700157+01 | 1486337880.70016 | pgbench_history  |                0
 2017-02-06 00:38:00.700157+01 | 1486337880.70016 | pgbench_branches |             8192

 2017-02-06 00:38:01.772735+01 | 1486337881.77274 | pgbench_accounts |       1342955520
 2017-02-06 00:38:01.772735+01 | 1486337881.77274 | pgbench_tellers  |            49152
 2017-02-06 00:38:01.772735+01 | 1486337881.77274 | pgbench_history  |                0
 2017-02-06 00:38:01.772735+01 | 1486337881.77274 | pgbench_branches |             8192

 2017-02-06 00:38:02.853246+01 | 1486337882.85325 | pgbench_accounts |       1342955520
 2017-02-06 00:38:02.853246+01 | 1486337882.85325 | pgbench_tellers  |            49152
 2017-02-06 00:38:02.853246+01 | 1486337882.85325 | pgbench_history  |                0
 2017-02-06 00:38:02.853246+01 | 1486337882.85325 | pgbench_branches |             8192

 2017-02-06 00:38:03.92819+01 | 1486337883.92819 | pgbench_accounts |       1342955520
 2017-02-06 00:38:03.92819+01 | 1486337883.92819 | pgbench_tellers  |            49152
 2017-02-06 00:38:03.92819+01 | 1486337883.92819 | pgbench_history  |                0
 2017-02-06 00:38:03.92819+01 | 1486337883.92819 | pgbench_branches |             8192

 2017-02-06 00:38:05.000993+01 | 1486337885.00099 | pgbench_accounts |       1342955520
 2017-02-06 00:38:05.000993+01 | 1486337885.00099 | pgbench_tellers  |            49152
 2017-02-06 00:38:05.000993+01 | 1486337885.00099 | pgbench_history  |                0
 2017-02-06 00:38:05.000993+01 | 1486337885.00099 | pgbench_branches |             8192

 2017-02-06 00:38:06.073593+01 | 1486337886.07359 | pgbench_accounts |       1342955520
 2017-02-06 00:38:06.073593+01 | 1486337886.07359 | pgbench_tellers  |            49152
 2017-02-06 00:38:06.073593+01 | 1486337886.07359 | pgbench_history  |                0
 2017-02-06 00:38:06.073593+01 | 1486337886.07359 | pgbench_branches |             8192

 2017-02-06 00:38:07.140626+01 | 1486337887.14063 | pgbench_accounts |       1342955520
 2017-02-06 00:38:07.140626+01 | 1486337887.14063 | pgbench_tellers  |            49152
 2017-02-06 00:38:07.140626+01 | 1486337887.14063 | pgbench_history  |                0
 2017-02-06 00:38:07.140626+01 | 1486337887.14063 | pgbench_branches |             8192

 2017-02-06 00:38:08.215414+01 | 1486337888.21541 | pgbench_accounts |       1342955520
 2017-02-06 00:38:08.215414+01 | 1486337888.21541 | pgbench_tellers  |            49152
 2017-02-06 00:38:08.215414+01 | 1486337888.21541 | pgbench_history  |                0
 2017-02-06 00:38:08.215414+01 | 1486337888.21541 | pgbench_branches |             8192

 2017-02-06 00:38:09.282942+01 | 1486337889.28294 | pgbench_accounts |       1342955520
 2017-02-06 00:38:09.282942+01 | 1486337889.28294 | pgbench_tellers  |            49152
 2017-02-06 00:38:09.282942+01 | 1486337889.28294 | pgbench_history  |                0
 2017-02-06 00:38:09.282942+01 | 1486337889.28294 | pgbench_branches |             8192

 2017-02-06 00:38:10.353205+01 | 1486337890.3532 | pgbench_accounts |       1342955520
 2017-02-06 00:38:10.353205+01 | 1486337890.3532 | pgbench_tellers  |            49152
 2017-02-06 00:38:10.353205+01 | 1486337890.3532 | pgbench_history  |                0
 2017-02-06 00:38:10.353205+01 | 1486337890.3532 | pgbench_branches |             8192

 2017-02-06 00:38:11.425135+01 | 1486337891.42513 | pgbench_accounts |       1342955520
 2017-02-06 00:38:11.425135+01 | 1486337891.42513 | pgbench_tellers  |            49152
 2017-02-06 00:38:11.425135+01 | 1486337891.42513 | pgbench_history  |                0
 2017-02-06 00:38:11.425135+01 | 1486337891.42513 | pgbench_branches |             8192

 2017-02-06 00:38:12.505313+01 | 1486337892.50531 | pgbench_accounts |       1342955520
 2017-02-06 00:38:12.505313+01 | 1486337892.50531 | pgbench_tellers  |            49152
 2017-02-06 00:38:12.505313+01 | 1486337892.50531 | pgbench_history  |                0
 2017-02-06 00:38:12.505313+01 | 1486337892.50531 | pgbench_branches |             8192

 2017-02-06 00:38:13.576702+01 | 1486337893.5767 | pgbench_accounts |       1342955520
 2017-02-06 00:38:13.576702+01 | 1486337893.5767 | pgbench_tellers  |            49152
 2017-02-06 00:38:13.576702+01 | 1486337893.5767 | pgbench_history  |                0
 2017-02-06 00:38:13.576702+01 | 1486337893.5767 | pgbench_branches |             8192

 2017-02-06 00:38:14.656739+01 | 1486337894.65674 | pgbench_accounts |       1342955520
 2017-02-06 00:38:14.656739+01 | 1486337894.65674 | pgbench_tellers  |            49152
 2017-02-06 00:38:14.656739+01 | 1486337894.65674 | pgbench_history  |                0
 2017-02-06 00:38:14.656739+01 | 1486337894.65674 | pgbench_branches |             8192

 2017-02-06 00:38:15.74115+01 | 1486337895.74115 | pgbench_accounts |       1342955520
 2017-02-06 00:38:15.74115+01 | 1486337895.74115 | pgbench_tellers  |            49152
 2017-02-06 00:38:15.74115+01 | 1486337895.74115 | pgbench_history  |                0
 2017-02-06 00:38:15.74115+01 | 1486337895.74115 | pgbench_branches |             8192

 2017-02-06 00:38:16.8256+01 | 1486337896.8256 | pgbench_accounts |       1342955520
 2017-02-06 00:38:16.8256+01 | 1486337896.8256 | pgbench_tellers  |            49152
 2017-02-06 00:38:16.8256+01 | 1486337896.8256 | pgbench_history  |                0
 2017-02-06 00:38:16.8256+01 | 1486337896.8256 | pgbench_branches |             8192

 2017-02-06 00:38:17.900382+01 | 1486337897.90038 | pgbench_accounts |       1342955520
 2017-02-06 00:38:17.900382+01 | 1486337897.90038 | pgbench_tellers  |            49152
 2017-02-06 00:38:17.900382+01 | 1486337897.90038 | pgbench_history  |                0
 2017-02-06 00:38:17.900382+01 | 1486337897.90038 | pgbench_branches |             8192

 2017-02-06 00:38:18.974536+01 | 1486337898.97454 | pgbench_accounts |       1342955520
 2017-02-06 00:38:18.974536+01 | 1486337898.97454 | pgbench_tellers  |            49152
 2017-02-06 00:38:18.974536+01 | 1486337898.97454 | pgbench_history  |                0
 2017-02-06 00:38:18.974536+01 | 1486337898.97454 | pgbench_branches |             8192

 2017-02-06 00:38:20.048282+01 | 1486337900.04828 | pgbench_accounts |       1342955520
 2017-02-06 00:38:20.048282+01 | 1486337900.04828 | pgbench_tellers  |            49152
 2017-02-06 00:38:20.048282+01 | 1486337900.04828 | pgbench_history  |                0
 2017-02-06 00:38:20.048282+01 | 1486337900.04828 | pgbench_branches |             8192

 2017-02-06 00:38:21.112282+01 | 1486337901.11228 | pgbench_accounts |       1342955520
 2017-02-06 00:38:21.112282+01 | 1486337901.11228 | pgbench_tellers  |            49152
 2017-02-06 00:38:21.112282+01 | 1486337901.11228 | pgbench_history  |                0
 2017-02-06 00:38:21.112282+01 | 1486337901.11228 | pgbench_branches |             8192

 2017-02-06 00:38:22.186491+01 | 1486337902.18649 | pgbench_accounts |       1342955520
 2017-02-06 00:38:22.186491+01 | 1486337902.18649 | pgbench_tellers  |            49152
 2017-02-06 00:38:22.186491+01 | 1486337902.18649 | pgbench_history  |                0
 2017-02-06 00:38:22.186491+01 | 1486337902.18649 | pgbench_branches |             8192

 2017-02-06 00:38:23.265137+01 | 1486337903.26514 | pgbench_accounts |       1342955520
 2017-02-06 00:38:23.265137+01 | 1486337903.26514 | pgbench_tellers  |            49152
 2017-02-06 00:38:23.265137+01 | 1486337903.26514 | pgbench_history  |                0
 2017-02-06 00:38:23.265137+01 | 1486337903.26514 | pgbench_branches |             8192

 2017-02-06 00:38:24.337037+01 | 1486337904.33704 | pgbench_accounts |       1342955520
 2017-02-06 00:38:24.337037+01 | 1486337904.33704 | pgbench_tellers  |            49152
 2017-02-06 00:38:24.337037+01 | 1486337904.33704 | pgbench_history  |                0
 2017-02-06 00:38:24.337037+01 | 1486337904.33704 | pgbench_branches |             8192

 2017-02-06 00:38:25.416307+01 | 1486337905.41631 | pgbench_accounts |       1342955520
 2017-02-06 00:38:25.416307+01 | 1486337905.41631 | pgbench_tellers  |            49152
 2017-02-06 00:38:25.416307+01 | 1486337905.41631 | pgbench_history  |                0
 2017-02-06 00:38:25.416307+01 | 1486337905.41631 | pgbench_branches |             8192

 2017-02-06 00:38:26.488756+01 | 1486337906.48876 | pgbench_accounts |       1342955520
 2017-02-06 00:38:26.488756+01 | 1486337906.48876 | pgbench_tellers  |            49152
 2017-02-06 00:38:26.488756+01 | 1486337906.48876 | pgbench_history  |                0
 2017-02-06 00:38:26.488756+01 | 1486337906.48876 | pgbench_branches |             8192

 2017-02-06 00:38:27.57121+01 | 1486337907.57121 | pgbench_accounts |       1342955520
 2017-02-06 00:38:27.57121+01 | 1486337907.57121 | pgbench_tellers  |            49152
 2017-02-06 00:38:27.57121+01 | 1486337907.57121 | pgbench_history  |                0
 2017-02-06 00:38:27.57121+01 | 1486337907.57121 | pgbench_branches |             8192

 2017-02-06 00:38:28.644428+01 | 1486337908.64443 | pgbench_accounts |       1342955520
 2017-02-06 00:38:28.644428+01 | 1486337908.64443 | pgbench_tellers  |            49152
 2017-02-06 00:38:28.644428+01 | 1486337908.64443 | pgbench_history  |                0
 2017-02-06 00:38:28.644428+01 | 1486337908.64443 | pgbench_branches |             8192

 2017-02-06 00:38:29.717809+01 | 1486337909.71781 | pgbench_accounts |       1342955520
 2017-02-06 00:38:29.717809+01 | 1486337909.71781 | pgbench_tellers  |            49152
 2017-02-06 00:38:29.717809+01 | 1486337909.71781 | pgbench_history  |                0
 2017-02-06 00:38:29.717809+01 | 1486337909.71781 | pgbench_branches |             8192

 2017-02-06 00:38:30.791598+01 | 1486337910.7916 | pgbench_accounts |       1342955520
 2017-02-06 00:38:30.791598+01 | 1486337910.7916 | pgbench_tellers  |            49152
 2017-02-06 00:38:30.791598+01 | 1486337910.7916 | pgbench_history  |                0
 2017-02-06 00:38:30.791598+01 | 1486337910.7916 | pgbench_branches |             8192

 2017-02-06 00:38:31.874204+01 | 1486337911.8742 | pgbench_accounts |       1342955520
 2017-02-06 00:38:31.874204+01 | 1486337911.8742 | pgbench_tellers  |            49152
 2017-02-06 00:38:31.874204+01 | 1486337911.8742 | pgbench_history  |                0
 2017-02-06 00:38:31.874204+01 | 1486337911.8742 | pgbench_branches |             8192

 2017-02-06 00:38:32.953598+01 | 1486337912.9536 | pgbench_accounts |       1342955520
 2017-02-06 00:38:32.953598+01 | 1486337912.9536 | pgbench_tellers  |            49152
 2017-02-06 00:38:32.953598+01 | 1486337912.9536 | pgbench_history  |                0
 2017-02-06 00:38:32.953598+01 | 1486337912.9536 | pgbench_branches |             8192

 2017-02-06 00:38:34.031117+01 | 1486337914.03112 | pgbench_accounts |       1342955520
 2017-02-06 00:38:34.031117+01 | 1486337914.03112 | pgbench_tellers  |            49152
 2017-02-06 00:38:34.031117+01 | 1486337914.03112 | pgbench_history  |                0
 2017-02-06 00:38:34.031117+01 | 1486337914.03112 | pgbench_branches |             8192

 2017-02-06 00:38:35.113956+01 | 1486337915.11396 | pgbench_accounts |       1342955520
 2017-02-06 00:38:35.113956+01 | 1486337915.11396 | pgbench_tellers  |            49152
 2017-02-06 00:38:35.113956+01 | 1486337915.11396 | pgbench_history  |                0
 2017-02-06 00:38:35.113956+01 | 1486337915.11396 | pgbench_branches |             8192

 2017-02-06 00:38:36.194818+01 | 1486337916.19482 | pgbench_accounts |       1342955520
 2017-02-06 00:38:36.194818+01 | 1486337916.19482 | pgbench_tellers  |            49152
 2017-02-06 00:38:36.194818+01 | 1486337916.19482 | pgbench_history  |                0
 2017-02-06 00:38:36.194818+01 | 1486337916.19482 | pgbench_branches |             8192

 2017-02-06 00:38:37.264378+01 | 1486337917.26438 | pgbench_accounts |       1342955520
 2017-02-06 00:38:37.264378+01 | 1486337917.26438 | pgbench_tellers  |            49152
 2017-02-06 00:38:37.264378+01 | 1486337917.26438 | pgbench_history  |                0
 2017-02-06 00:38:37.264378+01 | 1486337917.26438 | pgbench_branches |             8192

 2017-02-06 00:38:38.340935+01 | 1486337918.34093 | pgbench_accounts |       1342955520
 2017-02-06 00:38:38.340935+01 | 1486337918.34093 | pgbench_tellers  |            49152
 2017-02-06 00:38:38.340935+01 | 1486337918.34093 | pgbench_history  |                0
 2017-02-06 00:38:38.340935+01 | 1486337918.34093 | pgbench_branches |             8192

 2017-02-06 00:38:39.419598+01 | 1486337919.4196 | pgbench_accounts |       1342955520
 2017-02-06 00:38:39.419598+01 | 1486337919.4196 | pgbench_tellers  |            49152
 2017-02-06 00:38:39.419598+01 | 1486337919.4196 | pgbench_history  |                0
 2017-02-06 00:38:39.419598+01 | 1486337919.4196 | pgbench_branches |             8192

 2017-02-06 00:38:40.487854+01 | 1486337920.48785 | pgbench_accounts |       1342955520
 2017-02-06 00:38:40.487854+01 | 1486337920.48785 | pgbench_tellers  |            49152
 2017-02-06 00:38:40.487854+01 | 1486337920.48785 | pgbench_history  |                0
 2017-02-06 00:38:40.487854+01 | 1486337920.48785 | pgbench_branches |             8192

 2017-02-06 00:38:41.565702+01 | 1486337921.5657 | pgbench_accounts |       1342955520
 2017-02-06 00:38:41.565702+01 | 1486337921.5657 | pgbench_tellers  |            49152
 2017-02-06 00:38:41.565702+01 | 1486337921.5657 | pgbench_history  |                0
 2017-02-06 00:38:41.565702+01 | 1486337921.5657 | pgbench_branches |             8192

 2017-02-06 00:38:42.642019+01 | 1486337922.64202 | pgbench_accounts |       1342955520
 2017-02-06 00:38:42.642019+01 | 1486337922.64202 | pgbench_tellers  |            49152
 2017-02-06 00:38:42.642019+01 | 1486337922.64202 | pgbench_history  |                0
 2017-02-06 00:38:42.642019+01 | 1486337922.64202 | pgbench_branches |             8192

 2017-02-06 00:38:43.708897+01 | 1486337923.7089 | pgbench_accounts |       1342955520
 2017-02-06 00:38:43.708897+01 | 1486337923.7089 | pgbench_tellers  |            49152
 2017-02-06 00:38:43.708897+01 | 1486337923.7089 | pgbench_history  |                0
 2017-02-06 00:38:43.708897+01 | 1486337923.7089 | pgbench_branches |             8192

 2017-02-06 00:38:44.784608+01 | 1486337924.78461 | pgbench_accounts |       1342955520
 2017-02-06 00:38:44.784608+01 | 1486337924.78461 | pgbench_tellers  |            49152
 2017-02-06 00:38:44.784608+01 | 1486337924.78461 | pgbench_history  |                0
 2017-02-06 00:38:44.784608+01 | 1486337924.78461 | pgbench_branches |             8192

 2017-02-06 00:38:45.86125+01 | 1486337925.86125 | pgbench_accounts |       1342955520
 2017-02-06 00:38:45.86125+01 | 1486337925.86125 | pgbench_tellers  |            49152
 2017-02-06 00:38:45.86125+01 | 1486337925.86125 | pgbench_history  |                0
 2017-02-06 00:38:45.86125+01 | 1486337925.86125 | pgbench_branches |             8192

 2017-02-06 00:38:46.93203+01 | 1486337926.93203 | pgbench_accounts |       1342955520
 2017-02-06 00:38:46.93203+01 | 1486337926.93203 | pgbench_tellers  |            49152
 2017-02-06 00:38:46.93203+01 | 1486337926.93203 | pgbench_history  |                0
 2017-02-06 00:38:46.93203+01 | 1486337926.93203 | pgbench_branches |             8192

 2017-02-06 00:38:48.001221+01 | 1486337928.00122 | pgbench_accounts |       1342955520
 2017-02-06 00:38:48.001221+01 | 1486337928.00122 | pgbench_tellers  |            49152
 2017-02-06 00:38:48.001221+01 | 1486337928.00122 | pgbench_history  |                0
 2017-02-06 00:38:48.001221+01 | 1486337928.00122 | pgbench_branches |             8192

 2017-02-06 00:38:49.077054+01 | 1486337929.07705 | pgbench_accounts |       1342955520
 2017-02-06 00:38:49.077054+01 | 1486337929.07705 | pgbench_tellers  |            49152
 2017-02-06 00:38:49.077054+01 | 1486337929.07705 | pgbench_history  |                0
 2017-02-06 00:38:49.077054+01 | 1486337929.07705 | pgbench_branches |             8192

 2017-02-06 00:38:50.151923+01 | 1486337930.15192 | pgbench_accounts |       1342955520
 2017-02-06 00:38:50.151923+01 | 1486337930.15192 | pgbench_tellers  |            49152
 2017-02-06 00:38:50.151923+01 | 1486337930.15192 | pgbench_history  |                0
 2017-02-06 00:38:50.151923+01 | 1486337930.15192 | pgbench_branches |             8192

 2017-02-06 00:38:51.218783+01 | 1486337931.21878 | pgbench_accounts |       1342955520
 2017-02-06 00:38:51.218783+01 | 1486337931.21878 | pgbench_tellers  |            49152
 2017-02-06 00:38:51.218783+01 | 1486337931.21878 | pgbench_history  |                0
 2017-02-06 00:38:51.218783+01 | 1486337931.21878 | pgbench_branches |             8192

 2017-02-06 00:38:52.290437+01 | 1486337932.29044 | pgbench_accounts |       1342955520
 2017-02-06 00:38:52.290437+01 | 1486337932.29044 | pgbench_tellers  |            49152
 2017-02-06 00:38:52.290437+01 | 1486337932.29044 | pgbench_history  |                0
 2017-02-06 00:38:52.290437+01 | 1486337932.29044 | pgbench_branches |             8192

 2017-02-06 00:38:53.365648+01 | 1486337933.36565 | pgbench_accounts |       1342955520
 2017-02-06 00:38:53.365648+01 | 1486337933.36565 | pgbench_tellers  |            49152
 2017-02-06 00:38:53.365648+01 | 1486337933.36565 | pgbench_history  |                0
 2017-02-06 00:38:53.365648+01 | 1486337933.36565 | pgbench_branches |             8192

 2017-02-06 00:38:54.444851+01 | 1486337934.44485 | pgbench_accounts |       1342955520
 2017-02-06 00:38:54.444851+01 | 1486337934.44485 | pgbench_tellers  |            49152
 2017-02-06 00:38:54.444851+01 | 1486337934.44485 | pgbench_history  |                0
 2017-02-06 00:38:54.444851+01 | 1486337934.44485 | pgbench_branches |             8192

 2017-02-06 00:38:55.517615+01 | 1486337935.51762 | pgbench_accounts |       1342955520
 2017-02-06 00:38:55.517615+01 | 1486337935.51762 | pgbench_tellers  |            49152
 2017-02-06 00:38:55.517615+01 | 1486337935.51762 | pgbench_history  |                0
 2017-02-06 00:38:55.517615+01 | 1486337935.51762 | pgbench_branches |             8192

 2017-02-06 00:38:56.595066+01 | 1486337936.59507 | pgbench_accounts |       1342955520
 2017-02-06 00:38:56.595066+01 | 1486337936.59507 | pgbench_tellers  |            49152
 2017-02-06 00:38:56.595066+01 | 1486337936.59507 | pgbench_history  |                0
 2017-02-06 00:38:56.595066+01 | 1486337936.59507 | pgbench_branches |             8192

 2017-02-06 00:38:57.670583+01 | 1486337937.67058 | pgbench_accounts |       1342955520
 2017-02-06 00:38:57.670583+01 | 1486337937.67058 | pgbench_tellers  |            49152
 2017-02-06 00:38:57.670583+01 | 1486337937.67058 | pgbench_history  |                0
 2017-02-06 00:38:57.670583+01 | 1486337937.67058 | pgbench_branches |             8192

 2017-02-06 00:38:58.740155+01 | 1486337938.74015 | pgbench_accounts |       1342955520
 2017-02-06 00:38:58.740155+01 | 1486337938.74015 | pgbench_tellers  |            49152
 2017-02-06 00:38:58.740155+01 | 1486337938.74015 | pgbench_history  |                0
 2017-02-06 00:38:58.740155+01 | 1486337938.74015 | pgbench_branches |             8192

 2017-02-06 00:38:59.812729+01 | 1486337939.81273 | pgbench_accounts |       1342955520
 2017-02-06 00:38:59.812729+01 | 1486337939.81273 | pgbench_tellers  |            49152
 2017-02-06 00:38:59.812729+01 | 1486337939.81273 | pgbench_history  |                0
 2017-02-06 00:38:59.812729+01 | 1486337939.81273 | pgbench_branches |             8192

 2017-02-06 00:39:00.891994+01 | 1486337940.89199 | pgbench_accounts |       1342955520
 2017-02-06 00:39:00.891994+01 | 1486337940.89199 | pgbench_tellers  |            49152
 2017-02-06 00:39:00.891994+01 | 1486337940.89199 | pgbench_history  |                0
 2017-02-06 00:39:00.891994+01 | 1486337940.89199 | pgbench_branches |             8192

 2017-02-06 00:39:01.973187+01 | 1486337941.97319 | pgbench_accounts |       1342955520
 2017-02-06 00:39:01.973187+01 | 1486337941.97319 | pgbench_tellers  |            49152
 2017-02-06 00:39:01.973187+01 | 1486337941.97319 | pgbench_history  |                0
 2017-02-06 00:39:01.973187+01 | 1486337941.97319 | pgbench_branches |             8192

 2017-02-06 00:39:03.052793+01 | 1486337943.05279 | pgbench_accounts |       1342955520
 2017-02-06 00:39:03.052793+01 | 1486337943.05279 | pgbench_tellers  |            49152
 2017-02-06 00:39:03.052793+01 | 1486337943.05279 | pgbench_history  |                0
 2017-02-06 00:39:03.052793+01 | 1486337943.05279 | pgbench_branches |             8192

 2017-02-06 00:39:04.123467+01 | 1486337944.12347 | pgbench_accounts |       1342955520
 2017-02-06 00:39:04.123467+01 | 1486337944.12347 | pgbench_tellers  |            49152
 2017-02-06 00:39:04.123467+01 | 1486337944.12347 | pgbench_history  |                0
 2017-02-06 00:39:04.123467+01 | 1486337944.12347 | pgbench_branches |             8192

 2017-02-06 00:39:05.19889+01 | 1486337945.19889 | pgbench_accounts |       1342955520
 2017-02-06 00:39:05.19889+01 | 1486337945.19889 | pgbench_tellers  |            49152
 2017-02-06 00:39:05.19889+01 | 1486337945.19889 | pgbench_history  |                0
 2017-02-06 00:39:05.19889+01 | 1486337945.19889 | pgbench_branches |             8192

 2017-02-06 00:39:06.275384+01 | 1486337946.27538 | pgbench_accounts |       1342955520
 2017-02-06 00:39:06.275384+01 | 1486337946.27538 | pgbench_tellers  |            49152
 2017-02-06 00:39:06.275384+01 | 1486337946.27538 | pgbench_history  |                0
 2017-02-06 00:39:06.275384+01 | 1486337946.27538 | pgbench_branches |             8192

 2017-02-06 00:39:07.352178+01 | 1486337947.35218 | pgbench_accounts |       1342955520
 2017-02-06 00:39:07.352178+01 | 1486337947.35218 | pgbench_tellers  |            49152
 2017-02-06 00:39:07.352178+01 | 1486337947.35218 | pgbench_history  |                0
 2017-02-06 00:39:07.352178+01 | 1486337947.35218 | pgbench_branches |             8192

 2017-02-06 00:39:08.428409+01 | 1486337948.42841 | pgbench_accounts |       1342955520
 2017-02-06 00:39:08.428409+01 | 1486337948.42841 | pgbench_tellers  |            49152
 2017-02-06 00:39:08.428409+01 | 1486337948.42841 | pgbench_history  |                0
 2017-02-06 00:39:08.428409+01 | 1486337948.42841 | pgbench_branches |             8192

 2017-02-06 00:39:09.501745+01 | 1486337949.50174 | pgbench_accounts |       1342955520
 2017-02-06 00:39:09.501745+01 | 1486337949.50174 | pgbench_tellers  |            49152
 2017-02-06 00:39:09.501745+01 | 1486337949.50174 | pgbench_history  |                0
 2017-02-06 00:39:09.501745+01 | 1486337949.50174 | pgbench_branches |             8192

 2017-02-06 00:39:10.574399+01 | 1486337950.5744 | pgbench_accounts |       1342955520
 2017-02-06 00:39:10.574399+01 | 1486337950.5744 | pgbench_tellers  |            49152
 2017-02-06 00:39:10.574399+01 | 1486337950.5744 | pgbench_history  |                0
 2017-02-06 00:39:10.574399+01 | 1486337950.5744 | pgbench_branches |             8192

 2017-02-06 00:39:11.651269+01 | 1486337951.65127 | pgbench_accounts |       1342955520
 2017-02-06 00:39:11.651269+01 | 1486337951.65127 | pgbench_tellers  |            49152
 2017-02-06 00:39:11.651269+01 | 1486337951.65127 | pgbench_history  |                0
 2017-02-06 00:39:11.651269+01 | 1486337951.65127 | pgbench_branches |             8192

 2017-02-06 00:39:12.724309+01 | 1486337952.72431 | pgbench_accounts |       1342955520
 2017-02-06 00:39:12.724309+01 | 1486337952.72431 | pgbench_tellers  |            49152
 2017-02-06 00:39:12.724309+01 | 1486337952.72431 | pgbench_history  |                0
 2017-02-06 00:39:12.724309+01 | 1486337952.72431 | pgbench_branches |             8192

 2017-02-06 00:39:13.805669+01 | 1486337953.80567 | pgbench_accounts |       1342955520
 2017-02-06 00:39:13.805669+01 | 1486337953.80567 | pgbench_tellers  |            49152
 2017-02-06 00:39:13.805669+01 | 1486337953.80567 | pgbench_history  |                0
 2017-02-06 00:39:13.805669+01 | 1486337953.80567 | pgbench_branches |             8192

 2017-02-06 00:39:14.880588+01 | 1486337954.88059 | pgbench_accounts |       1342955520
 2017-02-06 00:39:14.880588+01 | 1486337954.88059 | pgbench_tellers  |            49152
 2017-02-06 00:39:14.880588+01 | 1486337954.88059 | pgbench_history  |                0
 2017-02-06 00:39:14.880588+01 | 1486337954.88059 | pgbench_branches |             8192

 2017-02-06 00:39:15.957768+01 | 1486337955.95777 | pgbench_accounts |       1342955520
 2017-02-06 00:39:15.957768+01 | 1486337955.95777 | pgbench_tellers  |            49152
 2017-02-06 00:39:15.957768+01 | 1486337955.95777 | pgbench_history  |                0
 2017-02-06 00:39:15.957768+01 | 1486337955.95777 | pgbench_branches |             8192

 2017-02-06 00:39:17.04032+01 | 1486337957.04032 | pgbench_accounts |       1342955520
 2017-02-06 00:39:17.04032+01 | 1486337957.04032 | pgbench_tellers  |            49152
 2017-02-06 00:39:17.04032+01 | 1486337957.04032 | pgbench_history  |                0
 2017-02-06 00:39:17.04032+01 | 1486337957.04032 | pgbench_branches |             8192

 2017-02-06 00:39:18.11767+01 | 1486337958.11767 | pgbench_accounts |       1342955520
 2017-02-06 00:39:18.11767+01 | 1486337958.11767 | pgbench_tellers  |            49152
 2017-02-06 00:39:18.11767+01 | 1486337958.11767 | pgbench_history  |                0
 2017-02-06 00:39:18.11767+01 | 1486337958.11767 | pgbench_branches |             8192

 2017-02-06 00:39:19.192417+01 | 1486337959.19242 | pgbench_accounts |       1342955520
 2017-02-06 00:39:19.192417+01 | 1486337959.19242 | pgbench_tellers  |            49152
 2017-02-06 00:39:19.192417+01 | 1486337959.19242 | pgbench_history  |                0
 2017-02-06 00:39:19.192417+01 | 1486337959.19242 | pgbench_branches |             8192

 2017-02-06 00:39:20.269965+01 | 1486337960.26996 | pgbench_accounts |       1342955520
 2017-02-06 00:39:20.269965+01 | 1486337960.26996 | pgbench_tellers  |            49152
 2017-02-06 00:39:20.269965+01 | 1486337960.26996 | pgbench_history  |                0
 2017-02-06 00:39:20.269965+01 | 1486337960.26996 | pgbench_branches |             8192

 2017-02-06 00:39:21.343561+01 | 1486337961.34356 | pgbench_accounts |       1342955520
 2017-02-06 00:39:21.343561+01 | 1486337961.34356 | pgbench_tellers  |            49152
 2017-02-06 00:39:21.343561+01 | 1486337961.34356 | pgbench_history  |                0
 2017-02-06 00:39:21.343561+01 | 1486337961.34356 | pgbench_branches |             8192

 2017-02-06 00:39:22.422223+01 | 1486337962.42222 | pgbench_accounts |       1342955520
 2017-02-06 00:39:22.422223+01 | 1486337962.42222 | pgbench_tellers  |            49152
 2017-02-06 00:39:22.422223+01 | 1486337962.42222 | pgbench_history  |                0
 2017-02-06 00:39:22.422223+01 | 1486337962.42222 | pgbench_branches |             8192

 2017-02-06 00:39:23.497435+01 | 1486337963.49744 | pgbench_accounts |       1342955520
 2017-02-06 00:39:23.497435+01 | 1486337963.49744 | pgbench_tellers  |            49152
 2017-02-06 00:39:23.497435+01 | 1486337963.49744 | pgbench_history  |                0
 2017-02-06 00:39:23.497435+01 | 1486337963.49744 | pgbench_branches |             8192

 2017-02-06 00:39:24.568949+01 | 1486337964.56895 | pgbench_accounts |       1342955520
 2017-02-06 00:39:24.568949+01 | 1486337964.56895 | pgbench_tellers  |            49152
 2017-02-06 00:39:24.568949+01 | 1486337964.56895 | pgbench_history  |                0
 2017-02-06 00:39:24.568949+01 | 1486337964.56895 | pgbench_branches |             8192

 2017-02-06 00:39:25.638888+01 | 1486337965.63889 | pgbench_accounts |       1342955520
 2017-02-06 00:39:25.638888+01 | 1486337965.63889 | pgbench_tellers  |            49152
 2017-02-06 00:39:25.638888+01 | 1486337965.63889 | pgbench_history  |                0
 2017-02-06 00:39:25.638888+01 | 1486337965.63889 | pgbench_branches |             8192

 2017-02-06 00:39:26.717392+01 | 1486337966.71739 | pgbench_accounts |       1342955520
 2017-02-06 00:39:26.717392+01 | 1486337966.71739 | pgbench_tellers  |            49152
 2017-02-06 00:39:26.717392+01 | 1486337966.71739 | pgbench_history  |                0
 2017-02-06 00:39:26.717392+01 | 1486337966.71739 | pgbench_branches |             8192

 2017-02-06 00:39:27.794487+01 | 1486337967.79449 | pgbench_accounts |       1342955520
 2017-02-06 00:39:27.794487+01 | 1486337967.79449 | pgbench_tellers  |            49152
 2017-02-06 00:39:27.794487+01 | 1486337967.79449 | pgbench_history  |                0
 2017-02-06 00:39:27.794487+01 | 1486337967.79449 | pgbench_branches |             8192

 2017-02-06 00:39:28.862948+01 | 1486337968.86295 | pgbench_accounts |       1342955520
 2017-02-06 00:39:28.862948+01 | 1486337968.86295 | pgbench_tellers  |            49152
 2017-02-06 00:39:28.862948+01 | 1486337968.86295 | pgbench_history  |                0
 2017-02-06 00:39:28.862948+01 | 1486337968.86295 | pgbench_branches |             8192

 2017-02-06 00:39:29.93702+01 | 1486337969.93702 | pgbench_accounts |       1342955520
 2017-02-06 00:39:29.93702+01 | 1486337969.93702 | pgbench_tellers  |            49152
 2017-02-06 00:39:29.93702+01 | 1486337969.93702 | pgbench_history  |                0
 2017-02-06 00:39:29.93702+01 | 1486337969.93702 | pgbench_branches |             8192

 2017-02-06 00:39:31.015069+01 | 1486337971.01507 | pgbench_accounts |       1342955520
 2017-02-06 00:39:31.015069+01 | 1486337971.01507 | pgbench_tellers  |            49152
 2017-02-06 00:39:31.015069+01 | 1486337971.01507 | pgbench_history  |                0
 2017-02-06 00:39:31.015069+01 | 1486337971.01507 | pgbench_branches |             8192

 2017-02-06 00:39:32.09469+01 | 1486337972.09469 | pgbench_accounts |       1342955520
 2017-02-06 00:39:32.09469+01 | 1486337972.09469 | pgbench_tellers  |            49152
 2017-02-06 00:39:32.09469+01 | 1486337972.09469 | pgbench_history  |                0
 2017-02-06 00:39:32.09469+01 | 1486337972.09469 | pgbench_branches |             8192

 2017-02-06 00:39:33.168775+01 | 1486337973.16878 | pgbench_accounts |       1342955520
 2017-02-06 00:39:33.168775+01 | 1486337973.16878 | pgbench_tellers  |            49152
 2017-02-06 00:39:33.168775+01 | 1486337973.16878 | pgbench_history  |                0
 2017-02-06 00:39:33.168775+01 | 1486337973.16878 | pgbench_branches |             8192

 2017-02-06 00:39:34.246443+01 | 1486337974.24644 | pgbench_accounts |       1342955520
 2017-02-06 00:39:34.246443+01 | 1486337974.24644 | pgbench_tellers  |            49152
 2017-02-06 00:39:34.246443+01 | 1486337974.24644 | pgbench_history  |                0
 2017-02-06 00:39:34.246443+01 | 1486337974.24644 | pgbench_branches |             8192

 2017-02-06 00:39:35.318059+01 | 1486337975.31806 | pgbench_accounts |       1342955520
 2017-02-06 00:39:35.318059+01 | 1486337975.31806 | pgbench_tellers  |            49152
 2017-02-06 00:39:35.318059+01 | 1486337975.31806 | pgbench_history  |                0
 2017-02-06 00:39:35.318059+01 | 1486337975.31806 | pgbench_branches |             8192

 2017-02-06 00:39:36.393642+01 | 1486337976.39364 | pgbench_accounts |       1342955520
 2017-02-06 00:39:36.393642+01 | 1486337976.39364 | pgbench_tellers  |            49152
 2017-02-06 00:39:36.393642+01 | 1486337976.39364 | pgbench_history  |                0
 2017-02-06 00:39:36.393642+01 | 1486337976.39364 | pgbench_branches |             8192

 2017-02-06 00:39:37.469337+01 | 1486337977.46934 | pgbench_accounts |       1342955520
 2017-02-06 00:39:37.469337+01 | 1486337977.46934 | pgbench_tellers  |            49152
 2017-02-06 00:39:37.469337+01 | 1486337977.46934 | pgbench_history  |                0
 2017-02-06 00:39:37.469337+01 | 1486337977.46934 | pgbench_branches |             8192

 2017-02-06 00:39:38.543745+01 | 1486337978.54375 | pgbench_accounts |       1342955520
 2017-02-06 00:39:38.543745+01 | 1486337978.54375 | pgbench_tellers  |            49152
 2017-02-06 00:39:38.543745+01 | 1486337978.54375 | pgbench_history  |                0
 2017-02-06 00:39:38.543745+01 | 1486337978.54375 | pgbench_branches |             8192

 2017-02-06 00:39:39.620057+01 | 1486337979.62006 | pgbench_accounts |       1342955520
 2017-02-06 00:39:39.620057+01 | 1486337979.62006 | pgbench_tellers  |            49152
 2017-02-06 00:39:39.620057+01 | 1486337979.62006 | pgbench_history  |                0
 2017-02-06 00:39:39.620057+01 | 1486337979.62006 | pgbench_branches |             8192

 2017-02-06 00:39:40.692978+01 | 1486337980.69298 | pgbench_accounts |       1342955520
 2017-02-06 00:39:40.692978+01 | 1486337980.69298 | pgbench_tellers  |            49152
 2017-02-06 00:39:40.692978+01 | 1486337980.69298 | pgbench_history  |                0
 2017-02-06 00:39:40.692978+01 | 1486337980.69298 | pgbench_branches |             8192

 2017-02-06 00:39:41.763447+01 | 1486337981.76345 | pgbench_accounts |       1342955520
 2017-02-06 00:39:41.763447+01 | 1486337981.76345 | pgbench_tellers  |            49152
 2017-02-06 00:39:41.763447+01 | 1486337981.76345 | pgbench_history  |                0
 2017-02-06 00:39:41.763447+01 | 1486337981.76345 | pgbench_branches |             8192

 2017-02-06 00:39:42.836558+01 | 1486337982.83656 | pgbench_accounts |       1342955520
 2017-02-06 00:39:42.836558+01 | 1486337982.83656 | pgbench_tellers  |            49152
 2017-02-06 00:39:42.836558+01 | 1486337982.83656 | pgbench_history  |                0
 2017-02-06 00:39:42.836558+01 | 1486337982.83656 | pgbench_branches |             8192

 2017-02-06 00:39:43.914207+01 | 1486337983.91421 | pgbench_accounts |       1342955520
 2017-02-06 00:39:43.914207+01 | 1486337983.91421 | pgbench_tellers  |            49152
 2017-02-06 00:39:43.914207+01 | 1486337983.91421 | pgbench_history  |                0
 2017-02-06 00:39:43.914207+01 | 1486337983.91421 | pgbench_branches |             8192

 2017-02-06 00:39:44.991895+01 | 1486337984.99189 | pgbench_accounts |       1342955520
 2017-02-06 00:39:44.991895+01 | 1486337984.99189 | pgbench_tellers  |            49152
 2017-02-06 00:39:44.991895+01 | 1486337984.99189 | pgbench_history  |                0
 2017-02-06 00:39:44.991895+01 | 1486337984.99189 | pgbench_branches |             8192

 2017-02-06 00:39:46.070503+01 | 1486337986.0705 | pgbench_accounts |       1342955520
 2017-02-06 00:39:46.070503+01 | 1486337986.0705 | pgbench_tellers  |            49152
 2017-02-06 00:39:46.070503+01 | 1486337986.0705 | pgbench_history  |                0
 2017-02-06 00:39:46.070503+01 | 1486337986.0705 | pgbench_branches |             8192

 2017-02-06 00:39:47.149223+01 | 1486337987.14922 | pgbench_accounts |       1342955520
 2017-02-06 00:39:47.149223+01 | 1486337987.14922 | pgbench_tellers  |            49152
 2017-02-06 00:39:47.149223+01 | 1486337987.14922 | pgbench_history  |                0
 2017-02-06 00:39:47.149223+01 | 1486337987.14922 | pgbench_branches |             8192

 2017-02-06 00:39:48.227426+01 | 1486337988.22743 | pgbench_accounts |       1342955520
 2017-02-06 00:39:48.227426+01 | 1486337988.22743 | pgbench_tellers  |            49152
 2017-02-06 00:39:48.227426+01 | 1486337988.22743 | pgbench_history  |                0
 2017-02-06 00:39:48.227426+01 | 1486337988.22743 | pgbench_branches |             8192

 2017-02-06 00:39:49.297737+01 | 1486337989.29774 | pgbench_accounts |       1342955520
 2017-02-06 00:39:49.297737+01 | 1486337989.29774 | pgbench_tellers  |            49152
 2017-02-06 00:39:49.297737+01 | 1486337989.29774 | pgbench_history  |                0
 2017-02-06 00:39:49.297737+01 | 1486337989.29774 | pgbench_branches |             8192

 2017-02-06 00:39:50.369966+01 | 1486337990.36997 | pgbench_accounts |       1342955520
 2017-02-06 00:39:50.369966+01 | 1486337990.36997 | pgbench_tellers  |            49152
 2017-02-06 00:39:50.369966+01 | 1486337990.36997 | pgbench_history  |                0
 2017-02-06 00:39:50.369966+01 | 1486337990.36997 | pgbench_branches |             8192

 2017-02-06 00:39:51.453666+01 | 1486337991.45367 | pgbench_accounts |       1342955520
 2017-02-06 00:39:51.453666+01 | 1486337991.45367 | pgbench_tellers  |            49152
 2017-02-06 00:39:51.453666+01 | 1486337991.45367 | pgbench_history  |                0
 2017-02-06 00:39:51.453666+01 | 1486337991.45367 | pgbench_branches |             8192

 2017-02-06 00:39:52.523728+01 | 1486337992.52373 | pgbench_accounts |       1342955520
 2017-02-06 00:39:52.523728+01 | 1486337992.52373 | pgbench_tellers  |            49152
 2017-02-06 00:39:52.523728+01 | 1486337992.52373 | pgbench_history  |                0
 2017-02-06 00:39:52.523728+01 | 1486337992.52373 | pgbench_branches |             8192

 2017-02-06 00:39:53.593151+01 | 1486337993.59315 | pgbench_accounts |       1342955520
 2017-02-06 00:39:53.593151+01 | 1486337993.59315 | pgbench_tellers  |            49152
 2017-02-06 00:39:53.593151+01 | 1486337993.59315 | pgbench_history  |                0
 2017-02-06 00:39:53.593151+01 | 1486337993.59315 | pgbench_branches |             8192

 2017-02-06 00:39:54.664601+01 | 1486337994.6646 | pgbench_accounts |       1342955520
 2017-02-06 00:39:54.664601+01 | 1486337994.6646 | pgbench_tellers  |            49152
 2017-02-06 00:39:54.664601+01 | 1486337994.6646 | pgbench_history  |                0
 2017-02-06 00:39:54.664601+01 | 1486337994.6646 | pgbench_branches |             8192

 2017-02-06 00:39:55.741822+01 | 1486337995.74182 | pgbench_accounts |       1342955520
 2017-02-06 00:39:55.741822+01 | 1486337995.74182 | pgbench_tellers  |            49152
 2017-02-06 00:39:55.741822+01 | 1486337995.74182 | pgbench_history  |                0
 2017-02-06 00:39:55.741822+01 | 1486337995.74182 | pgbench_branches |             8192

 2017-02-06 00:39:56.813748+01 | 1486337996.81375 | pgbench_accounts |       1342955520
 2017-02-06 00:39:56.813748+01 | 1486337996.81375 | pgbench_tellers  |            49152
 2017-02-06 00:39:56.813748+01 | 1486337996.81375 | pgbench_history  |                0
 2017-02-06 00:39:56.813748+01 | 1486337996.81375 | pgbench_branches |             8192

 2017-02-06 00:39:57.888572+01 | 1486337997.88857 | pgbench_accounts |       1342955520
 2017-02-06 00:39:57.888572+01 | 1486337997.88857 | pgbench_tellers  |            49152
 2017-02-06 00:39:57.888572+01 | 1486337997.88857 | pgbench_history  |                0
 2017-02-06 00:39:57.888572+01 | 1486337997.88857 | pgbench_branches |             8192

 2017-02-06 00:39:58.966981+01 | 1486337998.96698 | pgbench_accounts |       1342955520
 2017-02-06 00:39:58.966981+01 | 1486337998.96698 | pgbench_tellers  |            49152
 2017-02-06 00:39:58.966981+01 | 1486337998.96698 | pgbench_history  |                0
 2017-02-06 00:39:58.966981+01 | 1486337998.96698 | pgbench_branches |             8192

 2017-02-06 00:40:00.040859+01 | 1486338000.04086 | pgbench_accounts |       1342955520
 2017-02-06 00:40:00.040859+01 | 1486338000.04086 | pgbench_tellers  |            49152
 2017-02-06 00:40:00.040859+01 | 1486338000.04086 | pgbench_history  |                0
 2017-02-06 00:40:00.040859+01 | 1486338000.04086 | pgbench_branches |             8192

 2017-02-06 00:40:01.111833+01 | 1486338001.11183 | pgbench_accounts |       1342955520
 2017-02-06 00:40:01.111833+01 | 1486338001.11183 | pgbench_tellers  |            49152
 2017-02-06 00:40:01.111833+01 | 1486338001.11183 | pgbench_history  |                0
 2017-02-06 00:40:01.111833+01 | 1486338001.11183 | pgbench_branches |             8192

 2017-02-06 00:40:02.182879+01 | 1486338002.18288 | pgbench_accounts |       1342955520
 2017-02-06 00:40:02.182879+01 | 1486338002.18288 | pgbench_tellers  |            49152
 2017-02-06 00:40:02.182879+01 | 1486338002.18288 | pgbench_history  |                0
 2017-02-06 00:40:02.182879+01 | 1486338002.18288 | pgbench_branches |             8192

 2017-02-06 00:40:03.260942+01 | 1486338003.26094 | pgbench_accounts |       1342955520
 2017-02-06 00:40:03.260942+01 | 1486338003.26094 | pgbench_tellers  |            49152
 2017-02-06 00:40:03.260942+01 | 1486338003.26094 | pgbench_history  |                0
 2017-02-06 00:40:03.260942+01 | 1486338003.26094 | pgbench_branches |             8192

 2017-02-06 00:40:04.334303+01 | 1486338004.3343 | pgbench_accounts |       1342955520
 2017-02-06 00:40:04.334303+01 | 1486338004.3343 | pgbench_tellers  |            49152
 2017-02-06 00:40:04.334303+01 | 1486338004.3343 | pgbench_history  |                0
 2017-02-06 00:40:04.334303+01 | 1486338004.3343 | pgbench_branches |             8192

 2017-02-06 00:40:05.412926+01 | 1486338005.41293 | pgbench_accounts |       1342955520
 2017-02-06 00:40:05.412926+01 | 1486338005.41293 | pgbench_tellers  |            49152
 2017-02-06 00:40:05.412926+01 | 1486338005.41293 | pgbench_history  |                0
 2017-02-06 00:40:05.412926+01 | 1486338005.41293 | pgbench_branches |             8192

 2017-02-06 00:40:06.491407+01 | 1486338006.49141 | pgbench_accounts |       1342955520
 2017-02-06 00:40:06.491407+01 | 1486338006.49141 | pgbench_tellers  |            49152
 2017-02-06 00:40:06.491407+01 | 1486338006.49141 | pgbench_history  |                0
 2017-02-06 00:40:06.491407+01 | 1486338006.49141 | pgbench_branches |             8192

 2017-02-06 00:40:07.56678+01 | 1486338007.56678 | pgbench_accounts |       1342955520
 2017-02-06 00:40:07.56678+01 | 1486338007.56678 | pgbench_tellers  |            49152
 2017-02-06 00:40:07.56678+01 | 1486338007.56678 | pgbench_history  |                0
 2017-02-06 00:40:07.56678+01 | 1486338007.56678 | pgbench_branches |             8192

 2017-02-06 00:40:08.644255+01 | 1486338008.64425 | pgbench_accounts |       1342955520
 2017-02-06 00:40:08.644255+01 | 1486338008.64425 | pgbench_tellers  |            49152
 2017-02-06 00:40:08.644255+01 | 1486338008.64425 | pgbench_history  |                0
 2017-02-06 00:40:08.644255+01 | 1486338008.64425 | pgbench_branches |             8192

 2017-02-06 00:40:09.715062+01 | 1486338009.71506 | pgbench_accounts |       1342955520
 2017-02-06 00:40:09.715062+01 | 1486338009.71506 | pgbench_tellers  |            49152
 2017-02-06 00:40:09.715062+01 | 1486338009.71506 | pgbench_history  |                0
 2017-02-06 00:40:09.715062+01 | 1486338009.71506 | pgbench_branches |             8192

 2017-02-06 00:40:10.796612+01 | 1486338010.79661 | pgbench_accounts |       1342955520
 2017-02-06 00:40:10.796612+01 | 1486338010.79661 | pgbench_tellers  |            49152
 2017-02-06 00:40:10.796612+01 | 1486338010.79661 | pgbench_history  |                0
 2017-02-06 00:40:10.796612+01 | 1486338010.79661 | pgbench_branches |             8192

 2017-02-06 00:40:11.866065+01 | 1486338011.86607 | pgbench_accounts |       1342955520
 2017-02-06 00:40:11.866065+01 | 1486338011.86607 | pgbench_tellers  |            49152
 2017-02-06 00:40:11.866065+01 | 1486338011.86607 | pgbench_history  |                0
 2017-02-06 00:40:11.866065+01 | 1486338011.86607 | pgbench_branches |             8192

 2017-02-06 00:40:12.937648+01 | 1486338012.93765 | pgbench_accounts |       1342955520
 2017-02-06 00:40:12.937648+01 | 1486338012.93765 | pgbench_tellers  |            49152
 2017-02-06 00:40:12.937648+01 | 1486338012.93765 | pgbench_history  |                0
 2017-02-06 00:40:12.937648+01 | 1486338012.93765 | pgbench_branches |             8192

 2017-02-06 00:40:14.009339+01 | 1486338014.00934 | pgbench_accounts |       1342955520
 2017-02-06 00:40:14.009339+01 | 1486338014.00934 | pgbench_tellers  |            49152
 2017-02-06 00:40:14.009339+01 | 1486338014.00934 | pgbench_history  |                0
 2017-02-06 00:40:14.009339+01 | 1486338014.00934 | pgbench_branches |             8192

 2017-02-06 00:40:15.087663+01 | 1486338015.08766 | pgbench_accounts |       1342955520
 2017-02-06 00:40:15.087663+01 | 1486338015.08766 | pgbench_tellers  |            49152
 2017-02-06 00:40:15.087663+01 | 1486338015.08766 | pgbench_history  |                0
 2017-02-06 00:40:15.087663+01 | 1486338015.08766 | pgbench_branches |             8192

 2017-02-06 00:40:16.159975+01 | 1486338016.15998 | pgbench_accounts |       1342955520
 2017-02-06 00:40:16.159975+01 | 1486338016.15998 | pgbench_tellers  |            49152
 2017-02-06 00:40:16.159975+01 | 1486338016.15998 | pgbench_history  |                0
 2017-02-06 00:40:16.159975+01 | 1486338016.15998 | pgbench_branches |             8192

 2017-02-06 00:40:17.234478+01 | 1486338017.23448 | pgbench_accounts |       1342955520
 2017-02-06 00:40:17.234478+01 | 1486338017.23448 | pgbench_tellers  |            49152
 2017-02-06 00:40:17.234478+01 | 1486338017.23448 | pgbench_history  |                0
 2017-02-06 00:40:17.234478+01 | 1486338017.23448 | pgbench_branches |             8192

 2017-02-06 00:40:18.319257+01 | 1486338018.31926 | pgbench_accounts |       1342955520
 2017-02-06 00:40:18.319257+01 | 1486338018.31926 | pgbench_tellers  |            49152
 2017-02-06 00:40:18.319257+01 | 1486338018.31926 | pgbench_history  |                0
 2017-02-06 00:40:18.319257+01 | 1486338018.31926 | pgbench_branches |             8192

 2017-02-06 00:40:19.391537+01 | 1486338019.39154 | pgbench_accounts |       1342955520
 2017-02-06 00:40:19.391537+01 | 1486338019.39154 | pgbench_tellers  |            49152
 2017-02-06 00:40:19.391537+01 | 1486338019.39154 | pgbench_history  |                0
 2017-02-06 00:40:19.391537+01 | 1486338019.39154 | pgbench_branches |             8192

 2017-02-06 00:40:20.465419+01 | 1486338020.46542 | pgbench_accounts |       1342955520
 2017-02-06 00:40:20.465419+01 | 1486338020.46542 | pgbench_tellers  |            49152
 2017-02-06 00:40:20.465419+01 | 1486338020.46542 | pgbench_history  |                0
 2017-02-06 00:40:20.465419+01 | 1486338020.46542 | pgbench_branches |             8192

 2017-02-06 00:40:21.542156+01 | 1486338021.54216 | pgbench_accounts |       1342955520
 2017-02-06 00:40:21.542156+01 | 1486338021.54216 | pgbench_tellers  |            49152
 2017-02-06 00:40:21.542156+01 | 1486338021.54216 | pgbench_history  |                0
 2017-02-06 00:40:21.542156+01 | 1486338021.54216 | pgbench_branches |             8192

 2017-02-06 00:40:22.617154+01 | 1486338022.61715 | pgbench_accounts |       1342955520
 2017-02-06 00:40:22.617154+01 | 1486338022.61715 | pgbench_tellers  |            49152
 2017-02-06 00:40:22.617154+01 | 1486338022.61715 | pgbench_history  |                0
 2017-02-06 00:40:22.617154+01 | 1486338022.61715 | pgbench_branches |             8192

 2017-02-06 00:40:23.694726+01 | 1486338023.69473 | pgbench_accounts |       1342955520
 2017-02-06 00:40:23.694726+01 | 1486338023.69473 | pgbench_tellers  |            49152
 2017-02-06 00:40:23.694726+01 | 1486338023.69473 | pgbench_history  |                0
 2017-02-06 00:40:23.694726+01 | 1486338023.69473 | pgbench_branches |             8192

 2017-02-06 00:40:24.769093+01 | 1486338024.76909 | pgbench_accounts |       1342955520
 2017-02-06 00:40:24.769093+01 | 1486338024.76909 | pgbench_tellers  |            49152
 2017-02-06 00:40:24.769093+01 | 1486338024.76909 | pgbench_history  |                0
 2017-02-06 00:40:24.769093+01 | 1486338024.76909 | pgbench_branches |             8192

 2017-02-06 00:40:25.837088+01 | 1486338025.83709 | pgbench_accounts |       1342955520
 2017-02-06 00:40:25.837088+01 | 1486338025.83709 | pgbench_tellers  |            49152
 2017-02-06 00:40:25.837088+01 | 1486338025.83709 | pgbench_history  |                0
 2017-02-06 00:40:25.837088+01 | 1486338025.83709 | pgbench_branches |             8192

 2017-02-06 00:40:26.909492+01 | 1486338026.90949 | pgbench_accounts |       1342955520
 2017-02-06 00:40:26.909492+01 | 1486338026.90949 | pgbench_tellers  |            49152
 2017-02-06 00:40:26.909492+01 | 1486338026.90949 | pgbench_history  |                0
 2017-02-06 00:40:26.909492+01 | 1486338026.90949 | pgbench_branches |             8192

 2017-02-06 00:40:27.987721+01 | 1486338027.98772 | pgbench_accounts |       1342955520
 2017-02-06 00:40:27.987721+01 | 1486338027.98772 | pgbench_tellers  |            49152
 2017-02-06 00:40:27.987721+01 | 1486338027.98772 | pgbench_history  |                0
 2017-02-06 00:40:27.987721+01 | 1486338027.98772 | pgbench_branches |             8192

 2017-02-06 00:40:29.068963+01 | 1486338029.06896 | pgbench_accounts |       1342955520
 2017-02-06 00:40:29.068963+01 | 1486338029.06896 | pgbench_tellers  |            49152
 2017-02-06 00:40:29.068963+01 | 1486338029.06896 | pgbench_history  |                0
 2017-02-06 00:40:29.068963+01 | 1486338029.06896 | pgbench_branches |             8192

 2017-02-06 00:40:30.142791+01 | 1486338030.14279 | pgbench_accounts |       1342955520
 2017-02-06 00:40:30.142791+01 | 1486338030.14279 | pgbench_tellers  |            49152
 2017-02-06 00:40:30.142791+01 | 1486338030.14279 | pgbench_history  |                0
 2017-02-06 00:40:30.142791+01 | 1486338030.14279 | pgbench_branches |             8192

 2017-02-06 00:40:31.213163+01 | 1486338031.21316 | pgbench_accounts |       1342955520
 2017-02-06 00:40:31.213163+01 | 1486338031.21316 | pgbench_tellers  |            49152
 2017-02-06 00:40:31.213163+01 | 1486338031.21316 | pgbench_history  |                0
 2017-02-06 00:40:31.213163+01 | 1486338031.21316 | pgbench_branches |             8192

 2017-02-06 00:40:32.286738+01 | 1486338032.28674 | pgbench_accounts |       1342955520
 2017-02-06 00:40:32.286738+01 | 1486338032.28674 | pgbench_tellers  |            49152
 2017-02-06 00:40:32.286738+01 | 1486338032.28674 | pgbench_history  |                0
 2017-02-06 00:40:32.286738+01 | 1486338032.28674 | pgbench_branches |             8192

 2017-02-06 00:40:33.371429+01 | 1486338033.37143 | pgbench_accounts |       1342955520
 2017-02-06 00:40:33.371429+01 | 1486338033.37143 | pgbench_tellers  |            49152
 2017-02-06 00:40:33.371429+01 | 1486338033.37143 | pgbench_history  |                0
 2017-02-06 00:40:33.371429+01 | 1486338033.37143 | pgbench_branches |             8192

 2017-02-06 00:40:34.446013+01 | 1486338034.44601 | pgbench_accounts |       1342955520
 2017-02-06 00:40:34.446013+01 | 1486338034.44601 | pgbench_tellers  |            49152
 2017-02-06 00:40:34.446013+01 | 1486338034.44601 | pgbench_history  |                0
 2017-02-06 00:40:34.446013+01 | 1486338034.44601 | pgbench_branches |             8192

 2017-02-06 00:40:35.523521+01 | 1486338035.52352 | pgbench_accounts |       1342955520
 2017-02-06 00:40:35.523521+01 | 1486338035.52352 | pgbench_tellers  |            49152
 2017-02-06 00:40:35.523521+01 | 1486338035.52352 | pgbench_history  |                0
 2017-02-06 00:40:35.523521+01 | 1486338035.52352 | pgbench_branches |             8192

 2017-02-06 00:40:36.59944+01 | 1486338036.59944 | pgbench_accounts |       1342955520
 2017-02-06 00:40:36.59944+01 | 1486338036.59944 | pgbench_tellers  |            49152
 2017-02-06 00:40:36.59944+01 | 1486338036.59944 | pgbench_history  |                0
 2017-02-06 00:40:36.59944+01 | 1486338036.59944 | pgbench_branches |             8192

 2017-02-06 00:40:37.675159+01 | 1486338037.67516 | pgbench_accounts |       1342955520
 2017-02-06 00:40:37.675159+01 | 1486338037.67516 | pgbench_tellers  |            49152
 2017-02-06 00:40:37.675159+01 | 1486338037.67516 | pgbench_history  |                0
 2017-02-06 00:40:37.675159+01 | 1486338037.67516 | pgbench_branches |             8192

 2017-02-06 00:40:38.751399+01 | 1486338038.7514 | pgbench_accounts |       1342955520
 2017-02-06 00:40:38.751399+01 | 1486338038.7514 | pgbench_tellers  |            49152
 2017-02-06 00:40:38.751399+01 | 1486338038.7514 | pgbench_history  |                0
 2017-02-06 00:40:38.751399+01 | 1486338038.7514 | pgbench_branches |             8192

 2017-02-06 00:40:39.814144+01 | 1486338039.81414 | pgbench_accounts |       1342955520
 2017-02-06 00:40:39.814144+01 | 1486338039.81414 | pgbench_tellers  |            49152
 2017-02-06 00:40:39.814144+01 | 1486338039.81414 | pgbench_history  |                0
 2017-02-06 00:40:39.814144+01 | 1486338039.81414 | pgbench_branches |             8192

 2017-02-06 00:40:40.881105+01 | 1486338040.8811 | pgbench_accounts |       1342955520
 2017-02-06 00:40:40.881105+01 | 1486338040.8811 | pgbench_tellers  |            49152
 2017-02-06 00:40:40.881105+01 | 1486338040.8811 | pgbench_history  |                0
 2017-02-06 00:40:40.881105+01 | 1486338040.8811 | pgbench_branches |             8192

 2017-02-06 00:40:41.959237+01 | 1486338041.95924 | pgbench_accounts |       1342955520
 2017-02-06 00:40:41.959237+01 | 1486338041.95924 | pgbench_tellers  |            49152
 2017-02-06 00:40:41.959237+01 | 1486338041.95924 | pgbench_history  |                0
 2017-02-06 00:40:41.959237+01 | 1486338041.95924 | pgbench_branches |             8192

 2017-02-06 00:40:43.043282+01 | 1486338043.04328 | pgbench_accounts |       1342955520
 2017-02-06 00:40:43.043282+01 | 1486338043.04328 | pgbench_tellers  |            49152
 2017-02-06 00:40:43.043282+01 | 1486338043.04328 | pgbench_history  |                0
 2017-02-06 00:40:43.043282+01 | 1486338043.04328 | pgbench_branches |             8192

 2017-02-06 00:40:44.114587+01 | 1486338044.11459 | pgbench_accounts |       1342955520
 2017-02-06 00:40:44.114587+01 | 1486338044.11459 | pgbench_tellers  |            49152
 2017-02-06 00:40:44.114587+01 | 1486338044.11459 | pgbench_history  |                0
 2017-02-06 00:40:44.114587+01 | 1486338044.11459 | pgbench_branches |             8192

 2017-02-06 00:40:45.188219+01 | 1486338045.18822 | pgbench_accounts |       1342955520
 2017-02-06 00:40:45.188219+01 | 1486338045.18822 | pgbench_tellers  |            49152
 2017-02-06 00:40:45.188219+01 | 1486338045.18822 | pgbench_history  |                0
 2017-02-06 00:40:45.188219+01 | 1486338045.18822 | pgbench_branches |             8192

 2017-02-06 00:40:46.2557+01 | 1486338046.2557 | pgbench_accounts |       1342955520
 2017-02-06 00:40:46.2557+01 | 1486338046.2557 | pgbench_tellers  |            49152
 2017-02-06 00:40:46.2557+01 | 1486338046.2557 | pgbench_history  |                0
 2017-02-06 00:40:46.2557+01 | 1486338046.2557 | pgbench_branches |             8192

 2017-02-06 00:40:47.323654+01 | 1486338047.32365 | pgbench_accounts |       1342955520
 2017-02-06 00:40:47.323654+01 | 1486338047.32365 | pgbench_tellers  |            49152
 2017-02-06 00:40:47.323654+01 | 1486338047.32365 | pgbench_history  |                0
 2017-02-06 00:40:47.323654+01 | 1486338047.32365 | pgbench_branches |             8192

 2017-02-06 00:40:48.404779+01 | 1486338048.40478 | pgbench_accounts |       1342955520
 2017-02-06 00:40:48.404779+01 | 1486338048.40478 | pgbench_tellers  |            49152
 2017-02-06 00:40:48.404779+01 | 1486338048.40478 | pgbench_history  |                0
 2017-02-06 00:40:48.404779+01 | 1486338048.40478 | pgbench_branches |             8192

 2017-02-06 00:40:49.461896+01 | 1486338049.4619 | pgbench_accounts |       1342955520
 2017-02-06 00:40:49.461896+01 | 1486338049.4619 | pgbench_tellers  |            49152
 2017-02-06 00:40:49.461896+01 | 1486338049.4619 | pgbench_history  |                0
 2017-02-06 00:40:49.461896+01 | 1486338049.4619 | pgbench_branches |             8192

 2017-02-06 00:40:50.538513+01 | 1486338050.53851 | pgbench_accounts |       1342955520
 2017-02-06 00:40:50.538513+01 | 1486338050.53851 | pgbench_tellers  |            49152
 2017-02-06 00:40:50.538513+01 | 1486338050.53851 | pgbench_history  |                0
 2017-02-06 00:40:50.538513+01 | 1486338050.53851 | pgbench_branches |             8192

 2017-02-06 00:40:51.614699+01 | 1486338051.6147 | pgbench_accounts |       1342955520
 2017-02-06 00:40:51.614699+01 | 1486338051.6147 | pgbench_tellers  |            49152
 2017-02-06 00:40:51.614699+01 | 1486338051.6147 | pgbench_history  |                0
 2017-02-06 00:40:51.614699+01 | 1486338051.6147 | pgbench_branches |             8192

 2017-02-06 00:40:52.687598+01 | 1486338052.6876 | pgbench_accounts |       1342955520
 2017-02-06 00:40:52.687598+01 | 1486338052.6876 | pgbench_tellers  |            49152
 2017-02-06 00:40:52.687598+01 | 1486338052.6876 | pgbench_history  |                0
 2017-02-06 00:40:52.687598+01 | 1486338052.6876 | pgbench_branches |             8192

 2017-02-06 00:40:53.768917+01 | 1486338053.76892 | pgbench_accounts |       1342955520
 2017-02-06 00:40:53.768917+01 | 1486338053.76892 | pgbench_tellers  |            49152
 2017-02-06 00:40:53.768917+01 | 1486338053.76892 | pgbench_history  |                0
 2017-02-06 00:40:53.768917+01 | 1486338053.76892 | pgbench_branches |             8192

 2017-02-06 00:40:54.844639+01 | 1486338054.84464 | pgbench_accounts |       1342955520
 2017-02-06 00:40:54.844639+01 | 1486338054.84464 | pgbench_tellers  |            49152
 2017-02-06 00:40:54.844639+01 | 1486338054.84464 | pgbench_history  |                0
 2017-02-06 00:40:54.844639+01 | 1486338054.84464 | pgbench_branches |             8192

 2017-02-06 00:40:55.921101+01 | 1486338055.9211 | pgbench_accounts |       1342955520
 2017-02-06 00:40:55.921101+01 | 1486338055.9211 | pgbench_tellers  |            49152
 2017-02-06 00:40:55.921101+01 | 1486338055.9211 | pgbench_history  |                0
 2017-02-06 00:40:55.921101+01 | 1486338055.9211 | pgbench_branches |             8192

 2017-02-06 00:40:56.995109+01 | 1486338056.99511 | pgbench_accounts |       1342955520
 2017-02-06 00:40:56.995109+01 | 1486338056.99511 | pgbench_tellers  |            49152
 2017-02-06 00:40:56.995109+01 | 1486338056.99511 | pgbench_history  |                0
 2017-02-06 00:40:56.995109+01 | 1486338056.99511 | pgbench_branches |             8192

 2017-02-06 00:40:58.067122+01 | 1486338058.06712 | pgbench_accounts |       1342955520
 2017-02-06 00:40:58.067122+01 | 1486338058.06712 | pgbench_tellers  |            49152
 2017-02-06 00:40:58.067122+01 | 1486338058.06712 | pgbench_history  |                0
 2017-02-06 00:40:58.067122+01 | 1486338058.06712 | pgbench_branches |             8192

 2017-02-06 00:40:59.137946+01 | 1486338059.13795 | pgbench_accounts |       1342955520
 2017-02-06 00:40:59.137946+01 | 1486338059.13795 | pgbench_tellers  |            49152
 2017-02-06 00:40:59.137946+01 | 1486338059.13795 | pgbench_history  |                0
 2017-02-06 00:40:59.137946+01 | 1486338059.13795 | pgbench_branches |             8192

 2017-02-06 00:41:00.210104+01 | 1486338060.2101 | pgbench_accounts |       1342955520
 2017-02-06 00:41:00.210104+01 | 1486338060.2101 | pgbench_tellers  |            49152
 2017-02-06 00:41:00.210104+01 | 1486338060.2101 | pgbench_history  |                0
 2017-02-06 00:41:00.210104+01 | 1486338060.2101 | pgbench_branches |             8192

 2017-02-06 00:41:01.283331+01 | 1486338061.28333 | pgbench_accounts |       1342955520
 2017-02-06 00:41:01.283331+01 | 1486338061.28333 | pgbench_tellers  |            49152
 2017-02-06 00:41:01.283331+01 | 1486338061.28333 | pgbench_history  |                0
 2017-02-06 00:41:01.283331+01 | 1486338061.28333 | pgbench_branches |             8192

 2017-02-06 00:41:02.360203+01 | 1486338062.3602 | pgbench_accounts |       1342955520
 2017-02-06 00:41:02.360203+01 | 1486338062.3602 | pgbench_tellers  |            49152
 2017-02-06 00:41:02.360203+01 | 1486338062.3602 | pgbench_history  |                0
 2017-02-06 00:41:02.360203+01 | 1486338062.3602 | pgbench_branches |             8192

 2017-02-06 00:41:03.428658+01 | 1486338063.42866 | pgbench_accounts |       1342955520
 2017-02-06 00:41:03.428658+01 | 1486338063.42866 | pgbench_tellers  |            49152
 2017-02-06 00:41:03.428658+01 | 1486338063.42866 | pgbench_history  |                0
 2017-02-06 00:41:03.428658+01 | 1486338063.42866 | pgbench_branches |             8192

 2017-02-06 00:41:04.496204+01 | 1486338064.4962 | pgbench_accounts |       1342955520
 2017-02-06 00:41:04.496204+01 | 1486338064.4962 | pgbench_tellers  |            49152
 2017-02-06 00:41:04.496204+01 | 1486338064.4962 | pgbench_history  |                0
 2017-02-06 00:41:04.496204+01 | 1486338064.4962 | pgbench_branches |             8192

 2017-02-06 00:41:05.568892+01 | 1486338065.56889 | pgbench_accounts |       1342955520
 2017-02-06 00:41:05.568892+01 | 1486338065.56889 | pgbench_tellers  |            49152
 2017-02-06 00:41:05.568892+01 | 1486338065.56889 | pgbench_history  |                0
 2017-02-06 00:41:05.568892+01 | 1486338065.56889 | pgbench_branches |             8192

 2017-02-06 00:41:06.642526+01 | 1486338066.64253 | pgbench_accounts |       1342955520
 2017-02-06 00:41:06.642526+01 | 1486338066.64253 | pgbench_tellers  |            49152
 2017-02-06 00:41:06.642526+01 | 1486338066.64253 | pgbench_history  |                0
 2017-02-06 00:41:06.642526+01 | 1486338066.64253 | pgbench_branches |             8192

 2017-02-06 00:41:07.714642+01 | 1486338067.71464 | pgbench_accounts |       1342955520
 2017-02-06 00:41:07.714642+01 | 1486338067.71464 | pgbench_tellers  |            49152
 2017-02-06 00:41:07.714642+01 | 1486338067.71464 | pgbench_history  |                0
 2017-02-06 00:41:07.714642+01 | 1486338067.71464 | pgbench_branches |             8192

 2017-02-06 00:41:08.782141+01 | 1486338068.78214 | pgbench_accounts |       1342955520
 2017-02-06 00:41:08.782141+01 | 1486338068.78214 | pgbench_tellers  |            49152
 2017-02-06 00:41:08.782141+01 | 1486338068.78214 | pgbench_history  |                0
 2017-02-06 00:41:08.782141+01 | 1486338068.78214 | pgbench_branches |             8192

 2017-02-06 00:41:09.854049+01 | 1486338069.85405 | pgbench_accounts |       1342955520
 2017-02-06 00:41:09.854049+01 | 1486338069.85405 | pgbench_tellers  |            49152
 2017-02-06 00:41:09.854049+01 | 1486338069.85405 | pgbench_history  |                0
 2017-02-06 00:41:09.854049+01 | 1486338069.85405 | pgbench_branches |             8192

 2017-02-06 00:41:10.924516+01 | 1486338070.92452 | pgbench_accounts |       1342955520
 2017-02-06 00:41:10.924516+01 | 1486338070.92452 | pgbench_tellers  |            49152
 2017-02-06 00:41:10.924516+01 | 1486338070.92452 | pgbench_history  |                0
 2017-02-06 00:41:10.924516+01 | 1486338070.92452 | pgbench_branches |             8192

 2017-02-06 00:41:11.996981+01 | 1486338071.99698 | pgbench_accounts |       1342955520
 2017-02-06 00:41:11.996981+01 | 1486338071.99698 | pgbench_tellers  |            49152
 2017-02-06 00:41:11.996981+01 | 1486338071.99698 | pgbench_history  |                0
 2017-02-06 00:41:11.996981+01 | 1486338071.99698 | pgbench_branches |             8192

 2017-02-06 00:41:13.066199+01 | 1486338073.0662 | pgbench_accounts |       1342955520
 2017-02-06 00:41:13.066199+01 | 1486338073.0662 | pgbench_tellers  |            49152
 2017-02-06 00:41:13.066199+01 | 1486338073.0662 | pgbench_history  |                0
 2017-02-06 00:41:13.066199+01 | 1486338073.0662 | pgbench_branches |             8192

 2017-02-06 00:41:14.147176+01 | 1486338074.14718 | pgbench_accounts |       1342955520
 2017-02-06 00:41:14.147176+01 | 1486338074.14718 | pgbench_tellers  |            49152
 2017-02-06 00:41:14.147176+01 | 1486338074.14718 | pgbench_history  |                0
 2017-02-06 00:41:14.147176+01 | 1486338074.14718 | pgbench_branches |             8192

 2017-02-06 00:41:15.223661+01 | 1486338075.22366 | pgbench_accounts |       1342955520
 2017-02-06 00:41:15.223661+01 | 1486338075.22366 | pgbench_tellers  |            49152
 2017-02-06 00:41:15.223661+01 | 1486338075.22366 | pgbench_history  |                0
 2017-02-06 00:41:15.223661+01 | 1486338075.22366 | pgbench_branches |             8192

 2017-02-06 00:41:16.299416+01 | 1486338076.29942 | pgbench_accounts |       1342955520
 2017-02-06 00:41:16.299416+01 | 1486338076.29942 | pgbench_tellers  |            49152
 2017-02-06 00:41:16.299416+01 | 1486338076.29942 | pgbench_history  |                0
 2017-02-06 00:41:16.299416+01 | 1486338076.29942 | pgbench_branches |             8192

 2017-02-06 00:41:17.372294+01 | 1486338077.37229 | pgbench_accounts |       1342955520
 2017-02-06 00:41:17.372294+01 | 1486338077.37229 | pgbench_tellers  |            49152
 2017-02-06 00:41:17.372294+01 | 1486338077.37229 | pgbench_history  |                0
 2017-02-06 00:41:17.372294+01 | 1486338077.37229 | pgbench_branches |             8192

 2017-02-06 00:41:18.452794+01 | 1486338078.45279 | pgbench_accounts |       1342955520
 2017-02-06 00:41:18.452794+01 | 1486338078.45279 | pgbench_tellers  |            49152
 2017-02-06 00:41:18.452794+01 | 1486338078.45279 | pgbench_history  |                0
 2017-02-06 00:41:18.452794+01 | 1486338078.45279 | pgbench_branches |             8192

 2017-02-06 00:41:19.526202+01 | 1486338079.5262 | pgbench_accounts |       1342955520
 2017-02-06 00:41:19.526202+01 | 1486338079.5262 | pgbench_tellers  |            49152
 2017-02-06 00:41:19.526202+01 | 1486338079.5262 | pgbench_history  |                0
 2017-02-06 00:41:19.526202+01 | 1486338079.5262 | pgbench_branches |             8192

 2017-02-06 00:41:20.592677+01 | 1486338080.59268 | pgbench_accounts |       1342955520
 2017-02-06 00:41:20.592677+01 | 1486338080.59268 | pgbench_tellers  |            49152
 2017-02-06 00:41:20.592677+01 | 1486338080.59268 | pgbench_history  |                0
 2017-02-06 00:41:20.592677+01 | 1486338080.59268 | pgbench_branches |             8192

 2017-02-06 00:41:21.661556+01 | 1486338081.66156 | pgbench_accounts |       1342955520
 2017-02-06 00:41:21.661556+01 | 1486338081.66156 | pgbench_tellers  |            49152
 2017-02-06 00:41:21.661556+01 | 1486338081.66156 | pgbench_history  |                0
 2017-02-06 00:41:21.661556+01 | 1486338081.66156 | pgbench_branches |             8192

 2017-02-06 00:41:22.731298+01 | 1486338082.7313 | pgbench_accounts |       1342955520
 2017-02-06 00:41:22.731298+01 | 1486338082.7313 | pgbench_tellers  |            49152
 2017-02-06 00:41:22.731298+01 | 1486338082.7313 | pgbench_history  |                0
 2017-02-06 00:41:22.731298+01 | 1486338082.7313 | pgbench_branches |             8192

 2017-02-06 00:41:23.803535+01 | 1486338083.80353 | pgbench_accounts |       1342955520
 2017-02-06 00:41:23.803535+01 | 1486338083.80353 | pgbench_tellers  |            49152
 2017-02-06 00:41:23.803535+01 | 1486338083.80353 | pgbench_history  |                0
 2017-02-06 00:41:23.803535+01 | 1486338083.80353 | pgbench_branches |             8192

 2017-02-06 00:41:24.87511+01 | 1486338084.87511 | pgbench_accounts |       1342955520
 2017-02-06 00:41:24.87511+01 | 1486338084.87511 | pgbench_tellers  |            49152
 2017-02-06 00:41:24.87511+01 | 1486338084.87511 | pgbench_history  |                0
 2017-02-06 00:41:24.87511+01 | 1486338084.87511 | pgbench_branches |             8192

 2017-02-06 00:41:25.944404+01 | 1486338085.9444 | pgbench_accounts |       1342955520
 2017-02-06 00:41:25.944404+01 | 1486338085.9444 | pgbench_tellers  |            49152
 2017-02-06 00:41:25.944404+01 | 1486338085.9444 | pgbench_history  |                0
 2017-02-06 00:41:25.944404+01 | 1486338085.9444 | pgbench_branches |             8192

 2017-02-06 00:41:27.019246+01 | 1486338087.01925 | pgbench_accounts |       1342955520
 2017-02-06 00:41:27.019246+01 | 1486338087.01925 | pgbench_tellers  |            49152
 2017-02-06 00:41:27.019246+01 | 1486338087.01925 | pgbench_history  |                0
 2017-02-06 00:41:27.019246+01 | 1486338087.01925 | pgbench_branches |             8192

 2017-02-06 00:41:28.092105+01 | 1486338088.0921 | pgbench_accounts |       1342955520
 2017-02-06 00:41:28.092105+01 | 1486338088.0921 | pgbench_tellers  |            49152
 2017-02-06 00:41:28.092105+01 | 1486338088.0921 | pgbench_history  |                0
 2017-02-06 00:41:28.092105+01 | 1486338088.0921 | pgbench_branches |             8192

 2017-02-06 00:41:29.165203+01 | 1486338089.1652 | pgbench_accounts |       1342955520
 2017-02-06 00:41:29.165203+01 | 1486338089.1652 | pgbench_tellers  |            49152
 2017-02-06 00:41:29.165203+01 | 1486338089.1652 | pgbench_history  |                0
 2017-02-06 00:41:29.165203+01 | 1486338089.1652 | pgbench_branches |             8192

 2017-02-06 00:41:30.238111+01 | 1486338090.23811 | pgbench_accounts |       1342955520
 2017-02-06 00:41:30.238111+01 | 1486338090.23811 | pgbench_tellers  |            49152
 2017-02-06 00:41:30.238111+01 | 1486338090.23811 | pgbench_history  |                0
 2017-02-06 00:41:30.238111+01 | 1486338090.23811 | pgbench_branches |             8192

 2017-02-06 00:41:31.317062+01 | 1486338091.31706 | pgbench_accounts |       1342955520
 2017-02-06 00:41:31.317062+01 | 1486338091.31706 | pgbench_tellers  |            49152
 2017-02-06 00:41:31.317062+01 | 1486338091.31706 | pgbench_history  |                0
 2017-02-06 00:41:31.317062+01 | 1486338091.31706 | pgbench_branches |             8192

 2017-02-06 00:41:32.395518+01 | 1486338092.39552 | pgbench_accounts |       1342955520
 2017-02-06 00:41:32.395518+01 | 1486338092.39552 | pgbench_tellers  |            49152
 2017-02-06 00:41:32.395518+01 | 1486338092.39552 | pgbench_history  |                0
 2017-02-06 00:41:32.395518+01 | 1486338092.39552 | pgbench_branches |             8192

 2017-02-06 00:41:33.473132+01 | 1486338093.47313 | pgbench_accounts |       1342955520
 2017-02-06 00:41:33.473132+01 | 1486338093.47313 | pgbench_tellers  |            49152
 2017-02-06 00:41:33.473132+01 | 1486338093.47313 | pgbench_history  |                0
 2017-02-06 00:41:33.473132+01 | 1486338093.47313 | pgbench_branches |             8192

 2017-02-06 00:41:34.554042+01 | 1486338094.55404 | pgbench_accounts |       1342955520
 2017-02-06 00:41:34.554042+01 | 1486338094.55404 | pgbench_tellers  |            49152
 2017-02-06 00:41:34.554042+01 | 1486338094.55404 | pgbench_history  |                0
 2017-02-06 00:41:34.554042+01 | 1486338094.55404 | pgbench_branches |             8192

 2017-02-06 00:41:35.629653+01 | 1486338095.62965 | pgbench_accounts |       1342955520
 2017-02-06 00:41:35.629653+01 | 1486338095.62965 | pgbench_tellers  |            49152
 2017-02-06 00:41:35.629653+01 | 1486338095.62965 | pgbench_history  |                0
 2017-02-06 00:41:35.629653+01 | 1486338095.62965 | pgbench_branches |             8192

 2017-02-06 00:41:36.703649+01 | 1486338096.70365 | pgbench_accounts |       1342955520
 2017-02-06 00:41:36.703649+01 | 1486338096.70365 | pgbench_tellers  |            49152
 2017-02-06 00:41:36.703649+01 | 1486338096.70365 | pgbench_history  |                0
 2017-02-06 00:41:36.703649+01 | 1486338096.70365 | pgbench_branches |             8192

 2017-02-06 00:41:37.777212+01 | 1486338097.77721 | pgbench_accounts |       1342955520
 2017-02-06 00:41:37.777212+01 | 1486338097.77721 | pgbench_tellers  |            49152
 2017-02-06 00:41:37.777212+01 | 1486338097.77721 | pgbench_history  |                0
 2017-02-06 00:41:37.777212+01 | 1486338097.77721 | pgbench_branches |             8192

 2017-02-06 00:41:38.850413+01 | 1486338098.85041 | pgbench_accounts |       1342955520
 2017-02-06 00:41:38.850413+01 | 1486338098.85041 | pgbench_tellers  |            49152
 2017-02-06 00:41:38.850413+01 | 1486338098.85041 | pgbench_history  |                0
 2017-02-06 00:41:38.850413+01 | 1486338098.85041 | pgbench_branches |             8192

 2017-02-06 00:41:39.926901+01 | 1486338099.9269 | pgbench_accounts |       1342955520
 2017-02-06 00:41:39.926901+01 | 1486338099.9269 | pgbench_tellers  |            49152
 2017-02-06 00:41:39.926901+01 | 1486338099.9269 | pgbench_history  |                0
 2017-02-06 00:41:39.926901+01 | 1486338099.9269 | pgbench_branches |             8192

 2017-02-06 00:41:40.994571+01 | 1486338100.99457 | pgbench_accounts |       1342955520
 2017-02-06 00:41:40.994571+01 | 1486338100.99457 | pgbench_tellers  |            49152
 2017-02-06 00:41:40.994571+01 | 1486338100.99457 | pgbench_history  |                0
 2017-02-06 00:41:40.994571+01 | 1486338100.99457 | pgbench_branches |             8192

 2017-02-06 00:41:42.068565+01 | 1486338102.06856 | pgbench_accounts |       1342955520
 2017-02-06 00:41:42.068565+01 | 1486338102.06856 | pgbench_tellers  |            49152
 2017-02-06 00:41:42.068565+01 | 1486338102.06856 | pgbench_history  |                0
 2017-02-06 00:41:42.068565+01 | 1486338102.06856 | pgbench_branches |             8192

 2017-02-06 00:41:43.14813+01 | 1486338103.14813 | pgbench_accounts |       1342955520
 2017-02-06 00:41:43.14813+01 | 1486338103.14813 | pgbench_tellers  |            49152
 2017-02-06 00:41:43.14813+01 | 1486338103.14813 | pgbench_history  |                0
 2017-02-06 00:41:43.14813+01 | 1486338103.14813 | pgbench_branches |             8192

 2017-02-06 00:41:44.221809+01 | 1486338104.22181 | pgbench_accounts |       1342955520
 2017-02-06 00:41:44.221809+01 | 1486338104.22181 | pgbench_tellers  |            49152
 2017-02-06 00:41:44.221809+01 | 1486338104.22181 | pgbench_history  |                0
 2017-02-06 00:41:44.221809+01 | 1486338104.22181 | pgbench_branches |             8192

