 2017-02-06 00:01:43.207196+01 | 1486335703.2072 |                 0 |              15 |                   496 |                   19 |               2231 |             0 |                0 |          487843 |                     0 |        191841 | 2017-02-05 22:51:16.555195+01

 2017-02-06 00:01:44.290958+01 | 1486335704.29096 |                 0 |              15 |                   496 |                   19 |               2231 |             0 |                0 |          487843 |                     0 |        191841 | 2017-02-05 22:51:16.555195+01

 2017-02-06 00:01:45.37793+01 | 1486335705.37793 |                 0 |              15 |                   496 |                   19 |               2231 |             0 |                0 |          487843 |                     0 |        191841 | 2017-02-05 22:51:16.555195+01

 2017-02-06 00:01:46.458834+01 | 1486335706.45883 |                 0 |              15 |                   496 |                   19 |               2231 |             0 |                0 |          487843 |                     0 |        191841 | 2017-02-05 22:51:16.555195+01

 2017-02-06 00:01:47.540193+01 | 1486335707.54019 |                 0 |              15 |                   496 |                   19 |               2231 |             0 |                0 |          487843 |                     0 |        191841 | 2017-02-05 22:51:16.555195+01

 2017-02-06 00:01:48.609324+01 | 1486335708.60932 |                 0 |              15 |                   496 |                   19 |               2231 |             0 |                0 |          487843 |                     0 |        191841 | 2017-02-05 22:51:16.555195+01

 2017-02-06 00:01:49.691144+01 | 1486335709.69114 |                 0 |              15 |                   496 |                   19 |               2231 |             0 |                0 |          487843 |                     0 |        191841 | 2017-02-05 22:51:16.555195+01

 2017-02-06 00:01:50.776243+01 | 1486335710.77624 |                 0 |              15 |                   496 |                   19 |               2231 |             0 |                0 |          487843 |                     0 |        191841 | 2017-02-05 22:51:16.555195+01

 2017-02-06 00:01:51.859495+01 | 1486335711.85949 |                 0 |              15 |                   496 |                   19 |               2231 |             0 |                0 |          487843 |                     0 |        191841 | 2017-02-05 22:51:16.555195+01

 2017-02-06 00:01:52.941823+01 | 1486335712.94182 |                 0 |              15 |                   496 |                   19 |               2231 |             0 |                0 |          487843 |                     0 |        191841 | 2017-02-05 22:51:16.555195+01

 2017-02-06 00:01:54.024947+01 | 1486335714.02495 |                 0 |              15 |                   496 |                   19 |               2231 |             0 |                0 |          487843 |                     0 |        191841 | 2017-02-05 22:51:16.555195+01

 2017-02-06 00:01:55.102557+01 | 1486335715.10256 |                 0 |              15 |                   496 |                   19 |               2231 |             0 |                0 |          487843 |                     0 |        191841 | 2017-02-05 22:51:16.555195+01

 2017-02-06 00:01:56.177399+01 | 1486335716.1774 |                 0 |              15 |                   496 |                   19 |               2231 |             0 |                0 |          487843 |                     0 |        191841 | 2017-02-05 22:51:16.555195+01

 2017-02-06 00:01:57.260421+01 | 1486335717.26042 |                 0 |              15 |                   496 |                   19 |               2231 |             0 |                0 |          487843 |                     0 |        191841 | 2017-02-05 22:51:16.555195+01

 2017-02-06 00:01:58.33883+01 | 1486335718.33883 |                 0 |              15 |                   496 |                   19 |               2231 |             0 |                0 |          487843 |                     0 |        191841 | 2017-02-05 22:51:16.555195+01

 2017-02-06 00:01:59.420852+01 | 1486335719.42085 |                 0 |              15 |                   496 |                   19 |               2231 |             0 |                0 |          487843 |                     0 |        191841 | 2017-02-05 22:51:16.555195+01

 2017-02-06 00:02:00.499065+01 | 1486335720.49906 |                 0 |              15 |                   496 |                   19 |               2231 |             0 |                0 |          487843 |                     0 |        191841 | 2017-02-05 22:51:16.555195+01

 2017-02-06 00:02:01.579243+01 | 1486335721.57924 |                 0 |              15 |                   496 |                   19 |               2231 |             0 |                0 |          487843 |                     0 |        191841 | 2017-02-05 22:51:16.555195+01

 2017-02-06 00:02:02.661387+01 | 1486335722.66139 |                 0 |              15 |                   496 |                   19 |               2231 |             0 |                0 |          487843 |                     0 |        191841 | 2017-02-05 22:51:16.555195+01

 2017-02-06 00:02:03.744523+01 | 1486335723.74452 |                 0 |              15 |                   496 |                   19 |               2231 |             0 |                0 |          487843 |                     0 |        191841 | 2017-02-05 22:51:16.555195+01

 2017-02-06 00:02:04.824774+01 | 1486335724.82477 |                 0 |              15 |                   496 |                   19 |               2231 |             0 |                0 |          487843 |                     0 |        191841 | 2017-02-05 22:51:16.555195+01

 2017-02-06 00:02:05.912332+01 | 1486335725.91233 |                 0 |              15 |                   496 |                   19 |               2231 |             0 |                0 |          487843 |                     0 |        191841 | 2017-02-05 22:51:16.555195+01

 2017-02-06 00:02:07.002565+01 | 1486335727.00256 |                 0 |              15 |                   496 |                   19 |               2231 |             0 |                0 |          487843 |                     0 |        191841 | 2017-02-05 22:51:16.555195+01

 2017-02-06 00:02:08.095279+01 | 1486335728.09528 |                 0 |              15 |                   496 |                   19 |               2231 |             0 |                0 |          487843 |                     0 |        191841 | 2017-02-05 22:51:16.555195+01

 2017-02-06 00:02:09.182221+01 | 1486335729.18222 |                 0 |              15 |                   496 |                   19 |               2231 |             0 |                0 |          487843 |                     0 |        191841 | 2017-02-05 22:51:16.555195+01

 2017-02-06 00:02:10.255399+01 | 1486335730.2554 |                 0 |              15 |                   496 |                   19 |               2231 |             0 |                0 |          487843 |                     0 |        191841 | 2017-02-05 22:51:16.555195+01

 2017-02-06 00:02:11.337474+01 | 1486335731.33747 |                 0 |              15 |                   496 |                   19 |               2231 |             0 |                0 |          487843 |                     0 |        191841 | 2017-02-05 22:51:16.555195+01

 2017-02-06 00:02:12.418471+01 | 1486335732.41847 |                 0 |              15 |                   496 |                   19 |               2231 |             0 |                0 |          487843 |                     0 |        191841 | 2017-02-05 22:51:16.555195+01

 2017-02-06 00:02:13.498239+01 | 1486335733.49824 |                 0 |              15 |                   496 |                   19 |               2231 |             0 |                0 |          487843 |                     0 |        191841 | 2017-02-05 22:51:16.555195+01

 2017-02-06 00:02:14.580484+01 | 1486335734.58048 |                 0 |              15 |                   496 |                   19 |               2231 |             0 |                0 |          487843 |                     0 |        191841 | 2017-02-05 22:51:16.555195+01

 2017-02-06 00:02:15.669536+01 | 1486335735.66954 |                 0 |              15 |                   496 |                   19 |               2231 |             0 |                0 |          487843 |                     0 |        191841 | 2017-02-05 22:51:16.555195+01

 2017-02-06 00:02:16.760154+01 | 1486335736.76015 |                 0 |              15 |                   496 |                   19 |               2231 |             0 |                0 |          487843 |                     0 |        191841 | 2017-02-05 22:51:16.555195+01

 2017-02-06 00:02:17.843442+01 | 1486335737.84344 |                 0 |              15 |                   496 |                   19 |               2231 |             0 |                0 |          487843 |                     0 |        191841 | 2017-02-05 22:51:16.555195+01

 2017-02-06 00:02:18.919521+01 | 1486335738.91952 |                 0 |              15 |                   496 |                   19 |               2231 |             0 |                0 |          487843 |                     0 |        191841 | 2017-02-05 22:51:16.555195+01

 2017-02-06 00:02:19.991009+01 | 1486335739.99101 |                 0 |              15 |                   496 |                   19 |               2231 |             0 |                0 |          487843 |                     0 |        191841 | 2017-02-05 22:51:16.555195+01

 2017-02-06 00:02:21.068981+01 | 1486335741.06898 |                 0 |              15 |                   496 |                   19 |               2231 |             0 |                0 |          487843 |                     0 |        191841 | 2017-02-05 22:51:16.555195+01

 2017-02-06 00:02:22.1506+01 | 1486335742.1506 |                 0 |              15 |                   496 |                   19 |               2231 |             0 |                0 |          487843 |                     0 |        191841 | 2017-02-05 22:51:16.555195+01

 2017-02-06 00:02:23.228776+01 | 1486335743.22878 |                 0 |              15 |                   496 |                   19 |               2231 |             0 |                0 |          487843 |                     0 |        191841 | 2017-02-05 22:51:16.555195+01

 2017-02-06 00:02:24.299982+01 | 1486335744.29998 |                 0 |              15 |                   496 |                   19 |               2231 |             0 |                0 |          487843 |                     0 |        191841 | 2017-02-05 22:51:16.555195+01

 2017-02-06 00:02:25.371056+01 | 1486335745.37106 |                 0 |              15 |                   496 |                   19 |               2231 |             0 |                0 |          487843 |                     0 |        191841 | 2017-02-05 22:51:16.555195+01

 2017-02-06 00:02:26.458712+01 | 1486335746.45871 |                 0 |              15 |                   496 |                   19 |               2231 |             0 |                0 |          487843 |                     0 |        191841 | 2017-02-05 22:51:16.555195+01

 2017-02-06 00:02:27.539176+01 | 1486335747.53918 |                 0 |              15 |                   496 |                   19 |               2231 |             0 |                0 |          487843 |                     0 |        191841 | 2017-02-05 22:51:16.555195+01

 2017-02-06 00:02:28.623757+01 | 1486335748.62376 |                 0 |              15 |                   496 |                   19 |               2231 |             0 |                0 |          487843 |                     0 |        191841 | 2017-02-05 22:51:16.555195+01

 2017-02-06 00:02:29.695529+01 | 1486335749.69553 |                 0 |              15 |                   496 |                   19 |               2231 |             0 |                0 |          487843 |                     0 |        191841 | 2017-02-05 22:51:16.555195+01

 2017-02-06 00:02:30.774849+01 | 1486335750.77485 |                 0 |              15 |                   496 |                   19 |               2231 |             0 |                0 |          487843 |                     0 |        191841 | 2017-02-05 22:51:16.555195+01

 2017-02-06 00:02:31.847954+01 | 1486335751.84795 |                 0 |              15 |                   496 |                   19 |               2231 |             0 |                0 |          487843 |                     0 |        191841 | 2017-02-05 22:51:16.555195+01

 2017-02-06 00:02:32.928654+01 | 1486335752.92865 |                 0 |              15 |                   496 |                   19 |               2231 |             0 |                0 |          487843 |                     0 |        191841 | 2017-02-05 22:51:16.555195+01

 2017-02-06 00:02:33.994114+01 | 1486335753.99411 |                 0 |              15 |                   496 |                   19 |               2231 |             0 |                0 |          487843 |                     0 |        191841 | 2017-02-05 22:51:16.555195+01

 2017-02-06 00:02:35.069086+01 | 1486335755.06909 |                 0 |              15 |                   496 |                   19 |               2231 |             0 |                0 |          487843 |                     0 |        191841 | 2017-02-05 22:51:16.555195+01

 2017-02-06 00:02:36.15281+01 | 1486335756.15281 |                 0 |              15 |                   496 |                   19 |               2231 |             0 |                0 |          487843 |                     0 |        191841 | 2017-02-05 22:51:16.555195+01

 2017-02-06 00:02:37.238412+01 | 1486335757.23841 |                 0 |              15 |                   496 |                   19 |               2231 |             0 |                0 |          487843 |                     0 |        191841 | 2017-02-05 22:51:16.555195+01

 2017-02-06 00:02:38.327658+01 | 1486335758.32766 |                 0 |              15 |                   496 |                   19 |               2231 |             0 |                0 |          487843 |                     0 |        191841 | 2017-02-05 22:51:16.555195+01

 2017-02-06 00:02:39.41851+01 | 1486335759.41851 |                 0 |              15 |                   496 |                   19 |               2231 |             0 |                0 |          487843 |                     0 |        191841 | 2017-02-05 22:51:16.555195+01

 2017-02-06 00:02:40.510621+01 | 1486335760.51062 |                 0 |              15 |                   496 |                   19 |               2231 |             0 |                0 |          487843 |                     0 |        191841 | 2017-02-05 22:51:16.555195+01

 2017-02-06 00:02:41.593293+01 | 1486335761.59329 |                 0 |              15 |                   496 |                   19 |               2231 |             0 |                0 |          487843 |                     0 |        191841 | 2017-02-05 22:51:16.555195+01

 2017-02-06 00:02:42.67843+01 | 1486335762.67843 |                 0 |              15 |                   496 |                   19 |               2231 |             0 |                0 |          487843 |                     0 |        191841 | 2017-02-05 22:51:16.555195+01

 2017-02-06 00:02:43.75747+01 | 1486335763.75747 |                 0 |              15 |                   496 |                   19 |               2231 |             0 |                0 |          487843 |                     0 |        191841 | 2017-02-05 22:51:16.555195+01

 2017-02-06 00:02:44.837915+01 | 1486335764.83791 |                 0 |              15 |                   496 |                   19 |               2231 |             0 |                0 |          487843 |                     0 |        191841 | 2017-02-05 22:51:16.555195+01

 2017-02-06 00:02:45.926014+01 | 1486335765.92601 |                 0 |              15 |                   496 |                   19 |               2231 |             0 |                0 |          487843 |                     0 |        191841 | 2017-02-05 22:51:16.555195+01

 2017-02-06 00:02:47.005573+01 | 1486335767.00557 |                 0 |              15 |                   496 |                   19 |               2231 |             0 |                0 |          487843 |                     0 |        191841 | 2017-02-05 22:51:16.555195+01

 2017-02-06 00:02:48.083933+01 | 1486335768.08393 |                 0 |              15 |                   496 |                   19 |               2231 |             0 |                0 |          487843 |                     0 |        191841 | 2017-02-05 22:51:16.555195+01

 2017-02-06 00:02:49.169885+01 | 1486335769.16988 |                 0 |              15 |                   496 |                   19 |               2231 |             0 |                0 |          487843 |                     0 |        191841 | 2017-02-05 22:51:16.555195+01

 2017-02-06 00:02:50.248716+01 | 1486335770.24872 |                 0 |              15 |                   496 |                   19 |               2231 |             0 |                0 |          487843 |                     0 |        191841 | 2017-02-05 22:51:16.555195+01

 2017-02-06 00:02:51.323736+01 | 1486335771.32374 |                 0 |              15 |                   496 |                   19 |               2231 |             0 |                0 |          487843 |                     0 |        191841 | 2017-02-05 22:51:16.555195+01

 2017-02-06 00:02:52.405735+01 | 1486335772.40574 |                 0 |              15 |                   496 |                   19 |               2231 |             0 |                0 |          487843 |                     0 |        191841 | 2017-02-05 22:51:16.555195+01

 2017-02-06 00:02:53.499487+01 | 1486335773.49949 |                 0 |              15 |                   496 |                   19 |               2231 |             0 |                0 |          487843 |                     0 |        191841 | 2017-02-05 22:51:16.555195+01

 2017-02-06 00:02:54.566419+01 | 1486335774.56642 |                 0 |              15 |                   496 |                   19 |               2231 |             0 |                0 |          487843 |                     0 |        191841 | 2017-02-05 22:51:16.555195+01

 2017-02-06 00:02:55.63207+01 | 1486335775.63207 |                 0 |              15 |                   496 |                   19 |               2231 |             0 |                0 |          487843 |                     0 |        191841 | 2017-02-05 22:51:16.555195+01

 2017-02-06 00:02:56.712167+01 | 1486335776.71217 |                 0 |              15 |                   496 |                   19 |               2231 |             0 |                0 |          487843 |                     0 |        191841 | 2017-02-05 22:51:16.555195+01

 2017-02-06 00:02:57.791104+01 | 1486335777.7911 |                 0 |              15 |                   496 |                   19 |               2231 |             0 |                0 |          487843 |                     0 |        191841 | 2017-02-05 22:51:16.555195+01

 2017-02-06 00:02:58.876172+01 | 1486335778.87617 |                 0 |              15 |                   496 |                   19 |               2231 |             0 |                0 |          487843 |                     0 |        191841 | 2017-02-05 22:51:16.555195+01

 2017-02-06 00:02:59.968364+01 | 1486335779.96836 |                 0 |              15 |                   496 |                   19 |               2231 |             0 |                0 |          487843 |                     0 |        191841 | 2017-02-05 22:51:16.555195+01

 2017-02-06 00:03:01.050291+01 | 1486335781.05029 |                 0 |              15 |                   496 |                   19 |               2231 |             0 |                0 |          487843 |                     0 |        191841 | 2017-02-05 22:51:16.555195+01

 2017-02-06 00:03:02.120287+01 | 1486335782.12029 |                 0 |              15 |                   496 |                   19 |               2231 |             0 |                0 |          487843 |                     0 |        191841 | 2017-02-05 22:51:16.555195+01

 2017-02-06 00:03:03.203876+01 | 1486335783.20388 |                 0 |              15 |                   496 |                   19 |               2231 |             0 |                0 |          487843 |                     0 |        191841 | 2017-02-05 22:51:16.555195+01

 2017-02-06 00:03:04.286699+01 | 1486335784.2867 |                 0 |              15 |                   496 |                   19 |               2231 |             0 |                0 |          487843 |                     0 |        191841 | 2017-02-05 22:51:16.555195+01

 2017-02-06 00:03:05.372105+01 | 1486335785.3721 |                 0 |              15 |                   496 |                   19 |               2231 |             0 |                0 |          487843 |                     0 |        191841 | 2017-02-05 22:51:16.555195+01

 2017-02-06 00:03:06.448015+01 | 1486335786.44801 |                 0 |              15 |                   496 |                   19 |               2231 |             0 |                0 |          487843 |                     0 |        191841 | 2017-02-05 22:51:16.555195+01

 2017-02-06 00:03:07.529605+01 | 1486335787.5296 |                 0 |              15 |                   496 |                   19 |               2231 |             0 |                0 |          487843 |                     0 |        191841 | 2017-02-05 22:51:16.555195+01

 2017-02-06 00:03:08.615855+01 | 1486335788.61585 |                 0 |              15 |                   496 |                   19 |               2231 |             0 |                0 |          487843 |                     0 |        191841 | 2017-02-05 22:51:16.555195+01

 2017-02-06 00:03:09.695262+01 | 1486335789.69526 |                 0 |              15 |                   496 |                   19 |               2231 |             0 |                0 |          487843 |                     0 |        191841 | 2017-02-05 22:51:16.555195+01

 2017-02-06 00:03:10.777476+01 | 1486335790.77748 |                 0 |              15 |                   496 |                   19 |               2231 |             0 |                0 |          487843 |                     0 |        191841 | 2017-02-05 22:51:16.555195+01

 2017-02-06 00:03:11.852805+01 | 1486335791.8528 |                 0 |              15 |                   496 |                   19 |               2231 |             0 |                0 |          487843 |                     0 |        191841 | 2017-02-05 22:51:16.555195+01

 2017-02-06 00:03:12.938638+01 | 1486335792.93864 |                 0 |              15 |                   496 |                   19 |               2231 |             0 |                0 |          487843 |                     0 |        191841 | 2017-02-05 22:51:16.555195+01

 2017-02-06 00:03:14.013074+01 | 1486335794.01307 |                 0 |              15 |                   496 |                   19 |               2231 |             0 |                0 |          487843 |                     0 |        191841 | 2017-02-05 22:51:16.555195+01

 2017-02-06 00:03:15.09374+01 | 1486335795.09374 |                 0 |              15 |                   496 |                   19 |               2231 |             0 |                0 |          487843 |                     0 |        191841 | 2017-02-05 22:51:16.555195+01

 2017-02-06 00:03:16.183216+01 | 1486335796.18322 |                 0 |              15 |                   496 |                   19 |               2231 |             0 |                0 |          487843 |                     0 |        191841 | 2017-02-05 22:51:16.555195+01

 2017-02-06 00:03:17.265004+01 | 1486335797.265 |                 0 |              15 |                   496 |                   19 |               2231 |             0 |                0 |          487843 |                     0 |        191841 | 2017-02-05 22:51:16.555195+01

 2017-02-06 00:03:18.346677+01 | 1486335798.34668 |                 0 |              15 |                   496 |                   19 |               2231 |             0 |                0 |          487843 |                     0 |        191841 | 2017-02-05 22:51:16.555195+01

 2017-02-06 00:03:19.417673+01 | 1486335799.41767 |                 0 |              15 |                   496 |                   19 |               2231 |             0 |                0 |          487843 |                     0 |        191841 | 2017-02-05 22:51:16.555195+01

 2017-02-06 00:03:20.493341+01 | 1486335800.49334 |                 0 |              15 |                   496 |                   19 |               2231 |             0 |                0 |          487843 |                     0 |        191841 | 2017-02-05 22:51:16.555195+01

 2017-02-06 00:03:21.581772+01 | 1486335801.58177 |                 0 |              15 |                   496 |                   19 |               2231 |             0 |                0 |          487843 |                     0 |        191841 | 2017-02-05 22:51:16.555195+01

 2017-02-06 00:03:22.660469+01 | 1486335802.66047 |                 0 |              15 |                   496 |                   19 |               2231 |             0 |                0 |          487843 |                     0 |        191841 | 2017-02-05 22:51:16.555195+01

 2017-02-06 00:03:23.74369+01 | 1486335803.74369 |                 0 |              15 |                   496 |                   19 |               2231 |             0 |                0 |          487843 |                     0 |        191841 | 2017-02-05 22:51:16.555195+01

 2017-02-06 00:03:24.830103+01 | 1486335804.8301 |                 0 |              15 |                   496 |                   19 |               2231 |             0 |                0 |          487843 |                     0 |        191841 | 2017-02-05 22:51:16.555195+01

 2017-02-06 00:03:25.911181+01 | 1486335805.91118 |                 0 |              15 |                   496 |                   19 |               2231 |             0 |                0 |          487843 |                     0 |        191841 | 2017-02-05 22:51:16.555195+01

 2017-02-06 00:03:26.989956+01 | 1486335806.98996 |                 0 |              15 |                   496 |                   19 |               2231 |             0 |                0 |          487843 |                     0 |        191841 | 2017-02-05 22:51:16.555195+01

 2017-02-06 00:03:28.071498+01 | 1486335808.0715 |                 0 |              15 |                   496 |                   19 |               2231 |             0 |                0 |          487843 |                     0 |        191841 | 2017-02-05 22:51:16.555195+01

 2017-02-06 00:03:29.140481+01 | 1486335809.14048 |                 0 |              15 |                   496 |                   19 |               2231 |             0 |                0 |          487843 |                     0 |        191841 | 2017-02-05 22:51:16.555195+01

 2017-02-06 00:03:30.217833+01 | 1486335810.21783 |                 0 |              15 |                   496 |                   19 |               2231 |             0 |                0 |          487843 |                     0 |        191841 | 2017-02-05 22:51:16.555195+01

 2017-02-06 00:03:31.29457+01 | 1486335811.29457 |                 0 |              15 |                   496 |                   19 |               2231 |             0 |                0 |          487843 |                     0 |        191841 | 2017-02-05 22:51:16.555195+01

 2017-02-06 00:03:32.368974+01 | 1486335812.36897 |                 0 |              15 |                   496 |                   19 |               2231 |             0 |                0 |          487843 |                     0 |        191841 | 2017-02-05 22:51:16.555195+01

 2017-02-06 00:03:33.445436+01 | 1486335813.44544 |                 0 |              15 |                   496 |                   19 |               2231 |             0 |                0 |          487843 |                     0 |        191841 | 2017-02-05 22:51:16.555195+01

 2017-02-06 00:03:34.530083+01 | 1486335814.53008 |                 0 |              15 |                   496 |                   19 |               2231 |             0 |                0 |          487843 |                     0 |        191841 | 2017-02-05 22:51:16.555195+01

 2017-02-06 00:03:35.612578+01 | 1486335815.61258 |                 0 |              15 |                   496 |                   19 |               2231 |             0 |                0 |          487843 |                     0 |        191841 | 2017-02-05 22:51:16.555195+01

 2017-02-06 00:03:36.69975+01 | 1486335816.69975 |                 0 |              15 |                   496 |                   19 |               2231 |             0 |                0 |          487843 |                     0 |        191841 | 2017-02-05 22:51:16.555195+01

 2017-02-06 00:03:37.785539+01 | 1486335817.78554 |                 0 |              15 |                   496 |                   19 |               2231 |             0 |                0 |          487843 |                     0 |        191841 | 2017-02-05 22:51:16.555195+01

 2017-02-06 00:03:38.854906+01 | 1486335818.85491 |                 0 |              15 |                   496 |                   19 |               2231 |             0 |                0 |          487843 |                     0 |        191841 | 2017-02-05 22:51:16.555195+01

 2017-02-06 00:03:39.937986+01 | 1486335819.93799 |                 0 |              15 |                   496 |                   19 |               2231 |             0 |                0 |          487843 |                     0 |        191841 | 2017-02-05 22:51:16.555195+01

 2017-02-06 00:03:41.032833+01 | 1486335821.03283 |                 0 |              15 |                   496 |                   19 |               2231 |             0 |                0 |          487843 |                     0 |        191841 | 2017-02-05 22:51:16.555195+01

 2017-02-06 00:03:42.11567+01 | 1486335822.11567 |                 0 |              15 |                   496 |                   19 |               2231 |             0 |                0 |          487843 |                     0 |        191841 | 2017-02-05 22:51:16.555195+01

 2017-02-06 00:03:43.198465+01 | 1486335823.19847 |                 0 |              15 |                   496 |                   19 |               2231 |             0 |                0 |          487843 |                     0 |        191841 | 2017-02-05 22:51:16.555195+01

 2017-02-06 00:03:44.287364+01 | 1486335824.28736 |                 0 |              15 |                   496 |                   19 |               2231 |             0 |                0 |          487843 |                     0 |        191841 | 2017-02-05 22:51:16.555195+01

 2017-02-06 00:03:45.363804+01 | 1486335825.3638 |                 0 |              15 |                   496 |                   19 |               2231 |             0 |                0 |          487843 |                     0 |        191841 | 2017-02-05 22:51:16.555195+01

 2017-02-06 00:03:46.443708+01 | 1486335826.44371 |                 0 |              15 |                   496 |                   19 |               2231 |             0 |                0 |          487843 |                     0 |        191841 | 2017-02-05 22:51:16.555195+01

 2017-02-06 00:03:47.515085+01 | 1486335827.51508 |                 0 |              15 |                   496 |                   19 |               2231 |             0 |                0 |          487843 |                     0 |        191841 | 2017-02-05 22:51:16.555195+01

 2017-02-06 00:03:48.587276+01 | 1486335828.58728 |                 0 |              15 |                   496 |                   19 |               2231 |             0 |                0 |          487843 |                     0 |        191841 | 2017-02-05 22:51:16.555195+01

 2017-02-06 00:03:49.674967+01 | 1486335829.67497 |                 0 |              15 |                   496 |                   19 |               2231 |             0 |                0 |          487843 |                     0 |        191841 | 2017-02-05 22:51:16.555195+01

 2017-02-06 00:03:50.758714+01 | 1486335830.75871 |                 0 |              15 |                   496 |                   19 |               2231 |             0 |                0 |          487843 |                     0 |        191841 | 2017-02-05 22:51:16.555195+01

 2017-02-06 00:03:51.838112+01 | 1486335831.83811 |                 0 |              15 |                   496 |                   19 |               2231 |             0 |                0 |          487843 |                     0 |        191841 | 2017-02-05 22:51:16.555195+01

 2017-02-06 00:03:52.921743+01 | 1486335832.92174 |                 0 |              15 |                   496 |                   19 |               2231 |             0 |                0 |          487843 |                     0 |        191841 | 2017-02-05 22:51:16.555195+01

 2017-02-06 00:03:54.003827+01 | 1486335834.00383 |                 0 |              15 |                   496 |                   19 |               2231 |             0 |                0 |          487843 |                     0 |        191841 | 2017-02-05 22:51:16.555195+01

 2017-02-06 00:03:55.082494+01 | 1486335835.08249 |                 0 |              15 |                   496 |                   19 |               2231 |             0 |                0 |          487843 |                     0 |        191841 | 2017-02-05 22:51:16.555195+01

 2017-02-06 00:03:56.1579+01 | 1486335836.1579 |                 0 |              15 |                   496 |                   19 |               2231 |             0 |                0 |          487843 |                     0 |        191841 | 2017-02-05 22:51:16.555195+01

 2017-02-06 00:03:57.237517+01 | 1486335837.23752 |                 0 |              15 |                   496 |                   19 |               2231 |             0 |                0 |          487843 |                     0 |        191841 | 2017-02-05 22:51:16.555195+01

 2017-02-06 00:03:58.329608+01 | 1486335838.32961 |                 0 |              15 |                   496 |                   19 |               2231 |             0 |                0 |          487843 |                     0 |        191841 | 2017-02-05 22:51:16.555195+01

 2017-02-06 00:03:59.413497+01 | 1486335839.4135 |                 0 |              15 |                   496 |                   19 |               2231 |             0 |                0 |          487843 |                     0 |        191841 | 2017-02-05 22:51:16.555195+01

 2017-02-06 00:04:00.495532+01 | 1486335840.49553 |                 0 |              15 |                   496 |                   19 |               2231 |             0 |                0 |          487843 |                     0 |        191841 | 2017-02-05 22:51:16.555195+01

 2017-02-06 00:04:01.585412+01 | 1486335841.58541 |                 0 |              15 |                   496 |                   19 |               2231 |             0 |                0 |          487843 |                     0 |        191841 | 2017-02-05 22:51:16.555195+01

 2017-02-06 00:04:02.673953+01 | 1486335842.67395 |                 0 |              15 |                   496 |                   19 |               2231 |             0 |                0 |          487843 |                     0 |        191841 | 2017-02-05 22:51:16.555195+01

 2017-02-06 00:04:03.758622+01 | 1486335843.75862 |                 0 |              15 |                   496 |                   19 |               2231 |             0 |                0 |          487843 |                     0 |        191841 | 2017-02-05 22:51:16.555195+01

 2017-02-06 00:04:04.843799+01 | 1486335844.8438 |                 0 |              15 |                   496 |                   19 |               2231 |             0 |                0 |          487843 |                     0 |        191841 | 2017-02-05 22:51:16.555195+01

 2017-02-06 00:04:05.919239+01 | 1486335845.91924 |                 0 |              15 |                   496 |                   19 |               2231 |             0 |                0 |          487843 |                     0 |        191841 | 2017-02-05 22:51:16.555195+01

 2017-02-06 00:04:07.004536+01 | 1486335847.00454 |                 0 |              15 |                   496 |                   19 |               2231 |             0 |                0 |          487843 |                     0 |        191841 | 2017-02-05 22:51:16.555195+01

 2017-02-06 00:04:08.07861+01 | 1486335848.07861 |                 0 |              15 |                   496 |                   19 |               2231 |             0 |                0 |          487843 |                     0 |        191841 | 2017-02-05 22:51:16.555195+01

 2017-02-06 00:04:09.162552+01 | 1486335849.16255 |                 0 |              15 |                   496 |                   19 |               2231 |             0 |                0 |          487843 |                     0 |        191841 | 2017-02-05 22:51:16.555195+01

 2017-02-06 00:04:10.241269+01 | 1486335850.24127 |                 0 |              15 |                   496 |                   19 |               2231 |             0 |                0 |          487843 |                     0 |        191841 | 2017-02-05 22:51:16.555195+01

 2017-02-06 00:04:11.317341+01 | 1486335851.31734 |                 0 |              15 |                   496 |                   19 |               2231 |             0 |                0 |          487843 |                     0 |        191841 | 2017-02-05 22:51:16.555195+01

 2017-02-06 00:04:12.40217+01 | 1486335852.40217 |                 0 |              15 |                   496 |                   19 |               2231 |             0 |                0 |          487843 |                     0 |        191841 | 2017-02-05 22:51:16.555195+01

 2017-02-06 00:04:13.490781+01 | 1486335853.49078 |                 0 |              15 |                   496 |                   19 |               2231 |             0 |                0 |          487843 |                     0 |        191841 | 2017-02-05 22:51:16.555195+01

 2017-02-06 00:04:14.57126+01 | 1486335854.57126 |                 0 |              15 |                   496 |                   19 |               2231 |             0 |                0 |          487843 |                     0 |        191841 | 2017-02-05 22:51:16.555195+01

 2017-02-06 00:04:15.645781+01 | 1486335855.64578 |                 0 |              15 |                   496 |                   19 |               2231 |             0 |                0 |          487843 |                     0 |        191841 | 2017-02-05 22:51:16.555195+01

 2017-02-06 00:04:16.720197+01 | 1486335856.7202 |                 0 |              15 |                   496 |                   19 |               2231 |             0 |                0 |          487843 |                     0 |        191841 | 2017-02-05 22:51:16.555195+01

 2017-02-06 00:04:17.801798+01 | 1486335857.8018 |                 0 |              15 |                   496 |                   19 |               2231 |             0 |                0 |          487843 |                     0 |        191841 | 2017-02-05 22:51:16.555195+01

 2017-02-06 00:04:18.879205+01 | 1486335858.8792 |                 0 |              15 |                   496 |                   19 |               2231 |             0 |                0 |          487843 |                     0 |        191841 | 2017-02-05 22:51:16.555195+01

 2017-02-06 00:04:19.957926+01 | 1486335859.95793 |                 0 |              15 |                   496 |                   19 |               2231 |             0 |                0 |          487843 |                     0 |        191841 | 2017-02-05 22:51:16.555195+01

 2017-02-06 00:04:21.033227+01 | 1486335861.03323 |                 0 |              15 |                   496 |                   19 |               2231 |             0 |                0 |          487843 |                     0 |        191841 | 2017-02-05 22:51:16.555195+01

 2017-02-06 00:04:22.117275+01 | 1486335862.11727 |                 0 |              15 |                   496 |                   19 |               2231 |             0 |                0 |          487843 |                     0 |        191841 | 2017-02-05 22:51:16.555195+01

 2017-02-06 00:04:23.188975+01 | 1486335863.18898 |                 0 |              15 |                   496 |                   19 |               2231 |             0 |                0 |          487843 |                     0 |        191841 | 2017-02-05 22:51:16.555195+01

 2017-02-06 00:04:24.267668+01 | 1486335864.26767 |                 0 |              15 |                   496 |                   19 |               2231 |             0 |                0 |          487843 |                     0 |        191841 | 2017-02-05 22:51:16.555195+01

 2017-02-06 00:04:25.348531+01 | 1486335865.34853 |                 0 |              15 |                   496 |                   19 |               2231 |             0 |                0 |          487843 |                     0 |        191841 | 2017-02-05 22:51:16.555195+01

 2017-02-06 00:04:26.432233+01 | 1486335866.43223 |                 0 |              15 |                   496 |                   19 |               2231 |             0 |                0 |          487843 |                     0 |        191841 | 2017-02-05 22:51:16.555195+01

 2017-02-06 00:04:27.514673+01 | 1486335867.51467 |                 0 |              15 |                   496 |                   19 |               2231 |             0 |                0 |          487843 |                     0 |        191841 | 2017-02-05 22:51:16.555195+01

 2017-02-06 00:04:28.592432+01 | 1486335868.59243 |                 0 |              15 |                   496 |                   19 |               2231 |             0 |                0 |          487843 |                     0 |        191841 | 2017-02-05 22:51:16.555195+01

 2017-02-06 00:04:29.680693+01 | 1486335869.68069 |                 0 |              15 |                   496 |                   19 |               2231 |             0 |                0 |          487843 |                     0 |        191841 | 2017-02-05 22:51:16.555195+01

 2017-02-06 00:04:30.76117+01 | 1486335870.76117 |                 0 |              15 |                   496 |                   19 |               2231 |             0 |                0 |          487843 |                     0 |        191841 | 2017-02-05 22:51:16.555195+01

 2017-02-06 00:04:31.841001+01 | 1486335871.841 |                 0 |              15 |                   496 |                   19 |               2231 |             0 |                0 |          487843 |                     0 |        191841 | 2017-02-05 22:51:16.555195+01

 2017-02-06 00:04:32.928649+01 | 1486335872.92865 |                 0 |              15 |                   496 |                   19 |               2231 |             0 |                0 |          487843 |                     0 |        191841 | 2017-02-05 22:51:16.555195+01

 2017-02-06 00:04:34.012887+01 | 1486335874.01289 |                 0 |              15 |                   496 |                   19 |               2231 |             0 |                0 |          487843 |                     0 |        191841 | 2017-02-05 22:51:16.555195+01

 2017-02-06 00:04:35.085501+01 | 1486335875.0855 |                 0 |              15 |                   496 |                   19 |               2231 |             0 |                0 |          487843 |                     0 |        191841 | 2017-02-05 22:51:16.555195+01

 2017-02-06 00:04:36.170884+01 | 1486335876.17088 |                 0 |              15 |                   496 |                   19 |               2231 |             0 |                0 |          487843 |                     0 |        191841 | 2017-02-05 22:51:16.555195+01

 2017-02-06 00:04:37.249693+01 | 1486335877.24969 |                 0 |              15 |                   496 |                   19 |               2231 |             0 |                0 |          487843 |                     0 |        191841 | 2017-02-05 22:51:16.555195+01

 2017-02-06 00:04:38.328776+01 | 1486335878.32878 |                 0 |              15 |                   496 |                   19 |               2231 |             0 |                0 |          487843 |                     0 |        191841 | 2017-02-05 22:51:16.555195+01

 2017-02-06 00:04:39.39845+01 | 1486335879.39845 |                 0 |              15 |                   496 |                   19 |               2231 |             0 |                0 |          487843 |                     0 |        191841 | 2017-02-05 22:51:16.555195+01

 2017-02-06 00:04:40.470572+01 | 1486335880.47057 |                 0 |              15 |                   496 |                   19 |               2231 |             0 |                0 |          487843 |                     0 |        191841 | 2017-02-05 22:51:16.555195+01

 2017-02-06 00:04:41.544853+01 | 1486335881.54485 |                 0 |              15 |                   496 |                   19 |               2231 |             0 |                0 |          487843 |                     0 |        191841 | 2017-02-05 22:51:16.555195+01

 2017-02-06 00:04:42.619517+01 | 1486335882.61952 |                 0 |              15 |                   496 |                   19 |               2231 |             0 |                0 |          487843 |                     0 |        191841 | 2017-02-05 22:51:16.555195+01

 2017-02-06 00:04:43.70192+01 | 1486335883.70192 |                 0 |              15 |                   496 |                   19 |               2231 |             0 |                0 |          487843 |                     0 |        191841 | 2017-02-05 22:51:16.555195+01

 2017-02-06 00:04:44.780794+01 | 1486335884.78079 |                 0 |              15 |                   496 |                   19 |               2231 |             0 |                0 |          487843 |                     0 |        191841 | 2017-02-05 22:51:16.555195+01

 2017-02-06 00:04:45.858235+01 | 1486335885.85823 |                 0 |              15 |                   496 |                   19 |               2231 |             0 |                0 |          487843 |                     0 |        191841 | 2017-02-05 22:51:16.555195+01

 2017-02-06 00:04:46.945372+01 | 1486335886.94537 |                 0 |              15 |                   496 |                   19 |               2231 |             0 |                0 |          487843 |                     0 |        191841 | 2017-02-05 22:51:16.555195+01

 2017-02-06 00:04:48.02404+01 | 1486335888.02404 |                 0 |              15 |                   496 |                   19 |               2231 |             0 |                0 |          487843 |                     0 |        191841 | 2017-02-05 22:51:16.555195+01

 2017-02-06 00:04:49.107364+01 | 1486335889.10736 |                 0 |              15 |                   496 |                   19 |               2231 |             0 |                0 |          487843 |                     0 |        191841 | 2017-02-05 22:51:16.555195+01

 2017-02-06 00:04:50.194108+01 | 1486335890.19411 |                 0 |              15 |                   496 |                   19 |               2231 |             0 |                0 |          487843 |                     0 |        191841 | 2017-02-05 22:51:16.555195+01

 2017-02-06 00:04:51.276306+01 | 1486335891.27631 |                 0 |              15 |                   496 |                   19 |               2231 |             0 |                0 |          487843 |                     0 |        191841 | 2017-02-05 22:51:16.555195+01

 2017-02-06 00:04:52.363006+01 | 1486335892.36301 |                 0 |              15 |                   496 |                   19 |               2231 |             0 |                0 |          487843 |                     0 |        191841 | 2017-02-05 22:51:16.555195+01

 2017-02-06 00:04:53.448813+01 | 1486335893.44881 |                 0 |              15 |                   496 |                   19 |               2231 |             0 |                0 |          487843 |                     0 |        191841 | 2017-02-05 22:51:16.555195+01

 2017-02-06 00:04:54.534331+01 | 1486335894.53433 |                 0 |              15 |                   496 |                   19 |               2231 |             0 |                0 |          487843 |                     0 |        191841 | 2017-02-05 22:51:16.555195+01

 2017-02-06 00:04:55.613762+01 | 1486335895.61376 |                 0 |              15 |                   496 |                   19 |               2231 |             0 |                0 |          487843 |                     0 |        191841 | 2017-02-05 22:51:16.555195+01

 2017-02-06 00:04:56.697299+01 | 1486335896.6973 |                 0 |              15 |                   496 |                   19 |               2231 |             0 |                0 |          487843 |                     0 |        191841 | 2017-02-05 22:51:16.555195+01

 2017-02-06 00:04:57.779542+01 | 1486335897.77954 |                 0 |              15 |                   496 |                   19 |               2231 |             0 |                0 |          487843 |                     0 |        191841 | 2017-02-05 22:51:16.555195+01

 2017-02-06 00:04:58.861922+01 | 1486335898.86192 |                 0 |              15 |                   496 |                   19 |               2231 |             0 |                0 |          487843 |                     0 |        191841 | 2017-02-05 22:51:16.555195+01

 2017-02-06 00:04:59.937377+01 | 1486335899.93738 |                 0 |              15 |                   496 |                   19 |               2231 |             0 |                0 |          487843 |                     0 |        191841 | 2017-02-05 22:51:16.555195+01

 2017-02-06 00:05:01.007601+01 | 1486335901.0076 |                 0 |              15 |                   496 |                   19 |               2231 |             0 |                0 |          487843 |                     0 |        191841 | 2017-02-05 22:51:16.555195+01

 2017-02-06 00:05:02.080419+01 | 1486335902.08042 |                 0 |              15 |                   496 |                   19 |               2231 |             0 |                0 |          487843 |                     0 |        191841 | 2017-02-05 22:51:16.555195+01

 2017-02-06 00:05:03.168965+01 | 1486335903.16897 |                 0 |              15 |                   496 |                   19 |               2231 |             0 |                0 |          487843 |                     0 |        191841 | 2017-02-05 22:51:16.555195+01

 2017-02-06 00:05:04.254016+01 | 1486335904.25402 |                 0 |              15 |                   496 |                   19 |               2231 |             0 |                0 |          487843 |                     0 |        191841 | 2017-02-05 22:51:16.555195+01

 2017-02-06 00:05:05.33668+01 | 1486335905.33668 |                 0 |              15 |                   496 |                   19 |               2231 |             0 |                0 |          487843 |                     0 |        191841 | 2017-02-05 22:51:16.555195+01

 2017-02-06 00:05:06.423006+01 | 1486335906.42301 |                 0 |              15 |                   496 |                   19 |               2231 |             0 |                0 |          487843 |                     0 |        191841 | 2017-02-05 22:51:16.555195+01

 2017-02-06 00:05:07.501958+01 | 1486335907.50196 |                 0 |              15 |                   496 |                   19 |               2231 |             0 |                0 |          487843 |                     0 |        191841 | 2017-02-05 22:51:16.555195+01

 2017-02-06 00:05:08.580928+01 | 1486335908.58093 |                 0 |              15 |                   496 |                   19 |               2231 |             0 |                0 |          487843 |                     0 |        191841 | 2017-02-05 22:51:16.555195+01

 2017-02-06 00:05:09.661015+01 | 1486335909.66102 |                 0 |              15 |                   496 |                   19 |               2231 |             0 |                0 |          487843 |                     0 |        191841 | 2017-02-05 22:51:16.555195+01

 2017-02-06 00:05:10.742239+01 | 1486335910.74224 |                 0 |              15 |                   496 |                   19 |               2231 |             0 |                0 |          487843 |                     0 |        191841 | 2017-02-05 22:51:16.555195+01

 2017-02-06 00:05:11.830673+01 | 1486335911.83067 |                 0 |              15 |                   496 |                   19 |               2231 |             0 |                0 |          487843 |                     0 |        191841 | 2017-02-05 22:51:16.555195+01

 2017-02-06 00:05:12.922493+01 | 1486335912.92249 |                 0 |              15 |                   496 |                   19 |               2231 |             0 |                0 |          487843 |                     0 |        191841 | 2017-02-05 22:51:16.555195+01

 2017-02-06 00:05:14.005067+01 | 1486335914.00507 |                 0 |              15 |                   496 |                   19 |               2231 |             0 |                0 |          487843 |                     0 |        191841 | 2017-02-05 22:51:16.555195+01

 2017-02-06 00:05:15.086714+01 | 1486335915.08671 |                 0 |              15 |                   496 |                   19 |               2231 |             0 |                0 |          487843 |                     0 |        191841 | 2017-02-05 22:51:16.555195+01

 2017-02-06 00:05:16.174729+01 | 1486335916.17473 |                 0 |              15 |                   496 |                   19 |               2231 |             0 |                0 |          487843 |                     0 |        191841 | 2017-02-05 22:51:16.555195+01

 2017-02-06 00:05:17.251503+01 | 1486335917.2515 |                 0 |              15 |                   496 |                   19 |               2231 |             0 |                0 |          487843 |                     0 |        191841 | 2017-02-05 22:51:16.555195+01

 2017-02-06 00:05:18.328569+01 | 1486335918.32857 |                 0 |              15 |                   496 |                   19 |               2231 |             0 |                0 |          487843 |                     0 |        191841 | 2017-02-05 22:51:16.555195+01

 2017-02-06 00:05:19.418875+01 | 1486335919.41887 |                 0 |              15 |                   496 |                   19 |               2231 |             0 |                0 |          487843 |                     0 |        191841 | 2017-02-05 22:51:16.555195+01

 2017-02-06 00:05:20.494175+01 | 1486335920.49417 |                 0 |              15 |                   496 |                   19 |               2231 |             0 |                0 |          487843 |                     0 |        191841 | 2017-02-05 22:51:16.555195+01

 2017-02-06 00:05:21.577007+01 | 1486335921.57701 |                 0 |              15 |                   496 |                   19 |               2231 |             0 |                0 |          487843 |                     0 |        191841 | 2017-02-05 22:51:16.555195+01

 2017-02-06 00:05:22.655195+01 | 1486335922.65519 |                 0 |              15 |                   496 |                   19 |               2231 |             0 |                0 |          487843 |                     0 |        191841 | 2017-02-05 22:51:16.555195+01

 2017-02-06 00:05:23.740427+01 | 1486335923.74043 |                 0 |              15 |                   496 |                   19 |               2231 |             0 |                0 |          487843 |                     0 |        191841 | 2017-02-05 22:51:16.555195+01

 2017-02-06 00:05:24.826016+01 | 1486335924.82602 |                 0 |              15 |                   496 |                   19 |               2231 |             0 |                0 |          487843 |                     0 |        191841 | 2017-02-05 22:51:16.555195+01

 2017-02-06 00:05:25.906239+01 | 1486335925.90624 |                 0 |              15 |                   496 |                   19 |               2231 |             0 |                0 |          487843 |                     0 |        191841 | 2017-02-05 22:51:16.555195+01

 2017-02-06 00:05:26.991233+01 | 1486335926.99123 |                 0 |              15 |                   496 |                   19 |               2231 |             0 |                0 |          487843 |                     0 |        191841 | 2017-02-05 22:51:16.555195+01

 2017-02-06 00:05:28.068148+01 | 1486335928.06815 |                 0 |              15 |                   496 |                   19 |               2231 |             0 |                0 |          487843 |                     0 |        191841 | 2017-02-05 22:51:16.555195+01

 2017-02-06 00:05:29.147512+01 | 1486335929.14751 |                 0 |              15 |                   496 |                   19 |               2231 |             0 |                0 |          487843 |                     0 |        191841 | 2017-02-05 22:51:16.555195+01

 2017-02-06 00:05:30.22081+01 | 1486335930.22081 |                 0 |              15 |                   496 |                   19 |               2231 |             0 |                0 |          487843 |                     0 |        191841 | 2017-02-05 22:51:16.555195+01

 2017-02-06 00:05:31.301783+01 | 1486335931.30178 |                 0 |              15 |                   496 |                   19 |               2231 |             0 |                0 |          487843 |                     0 |        191841 | 2017-02-05 22:51:16.555195+01

 2017-02-06 00:05:32.382405+01 | 1486335932.38241 |                 0 |              15 |                   496 |                   19 |               2231 |             0 |                0 |          487843 |                     0 |        191841 | 2017-02-05 22:51:16.555195+01

 2017-02-06 00:05:33.457539+01 | 1486335933.45754 |                 0 |              15 |                   496 |                   19 |               2231 |             0 |                0 |          487843 |                     0 |        191841 | 2017-02-05 22:51:16.555195+01

 2017-02-06 00:05:34.534848+01 | 1486335934.53485 |                 0 |              15 |                   496 |                   19 |               2231 |             0 |                0 |          487843 |                     0 |        191841 | 2017-02-05 22:51:16.555195+01

 2017-02-06 00:05:35.61008+01 | 1486335935.61008 |                 0 |              15 |                   496 |                   19 |               2231 |             0 |                0 |          487843 |                     0 |        191841 | 2017-02-05 22:51:16.555195+01

 2017-02-06 00:05:36.686787+01 | 1486335936.68679 |                 0 |              15 |                   496 |                   19 |               2231 |             0 |                0 |          487843 |                     0 |        191841 | 2017-02-05 22:51:16.555195+01

 2017-02-06 00:05:37.774505+01 | 1486335937.7745 |                 0 |              15 |                   496 |                   19 |               2231 |             0 |                0 |          487843 |                     0 |        191841 | 2017-02-05 22:51:16.555195+01

 2017-02-06 00:05:38.864515+01 | 1486335938.86452 |                 0 |              15 |                   496 |                   19 |               2231 |             0 |                0 |          487843 |                     0 |        191841 | 2017-02-05 22:51:16.555195+01

 2017-02-06 00:05:39.948663+01 | 1486335939.94866 |                 0 |              15 |                   496 |                   19 |               2231 |             0 |                0 |          487843 |                     0 |        191841 | 2017-02-05 22:51:16.555195+01

 2017-02-06 00:05:41.024141+01 | 1486335941.02414 |                 0 |              15 |                   496 |                   19 |               2231 |             0 |                0 |          487843 |                     0 |        191841 | 2017-02-05 22:51:16.555195+01

 2017-02-06 00:05:42.102206+01 | 1486335942.10221 |                 0 |              15 |                   496 |                   19 |               2231 |             0 |                0 |          487843 |                     0 |        191841 | 2017-02-05 22:51:16.555195+01

 2017-02-06 00:05:43.172589+01 | 1486335943.17259 |                 0 |              15 |                   496 |                   19 |               2231 |             0 |                0 |          487843 |                     0 |        191841 | 2017-02-05 22:51:16.555195+01

 2017-02-06 00:05:44.252956+01 | 1486335944.25296 |                 0 |              15 |                   496 |                   19 |               2231 |             0 |                0 |          487843 |                     0 |        191841 | 2017-02-05 22:51:16.555195+01

 2017-02-06 00:05:45.336105+01 | 1486335945.33611 |                 0 |              15 |                   496 |                   19 |               2231 |             0 |                0 |          487843 |                     0 |        191841 | 2017-02-05 22:51:16.555195+01

 2017-02-06 00:05:46.411301+01 | 1486335946.4113 |                 0 |              15 |                   496 |                   19 |               2231 |             0 |                0 |          487843 |                     0 |        191841 | 2017-02-05 22:51:16.555195+01

 2017-02-06 00:05:47.495188+01 | 1486335947.49519 |                 0 |              15 |                   496 |                   19 |               2231 |             0 |                0 |          487843 |                     0 |        191841 | 2017-02-05 22:51:16.555195+01

 2017-02-06 00:05:48.571237+01 | 1486335948.57124 |                 0 |              15 |                   496 |                   19 |               2231 |             0 |                0 |          487843 |                     0 |        191841 | 2017-02-05 22:51:16.555195+01

 2017-02-06 00:05:49.646813+01 | 1486335949.64681 |                 0 |              15 |                   496 |                   19 |               2231 |             0 |                0 |          487843 |                     0 |        191841 | 2017-02-05 22:51:16.555195+01

 2017-02-06 00:05:50.727004+01 | 1486335950.727 |                 0 |              15 |                   496 |                   19 |               2231 |             0 |                0 |          487843 |                     0 |        191841 | 2017-02-05 22:51:16.555195+01

 2017-02-06 00:05:51.807534+01 | 1486335951.80753 |                 0 |              15 |                   496 |                   19 |               2231 |             0 |                0 |          487843 |                     0 |        191841 | 2017-02-05 22:51:16.555195+01

 2017-02-06 00:05:52.885078+01 | 1486335952.88508 |                 0 |              15 |                   496 |                   19 |               2231 |             0 |                0 |          487843 |                     0 |        191841 | 2017-02-05 22:51:16.555195+01

 2017-02-06 00:05:53.967793+01 | 1486335953.96779 |                 0 |              15 |                   496 |                   19 |               2231 |             0 |                0 |          487843 |                     0 |        191841 | 2017-02-05 22:51:16.555195+01

 2017-02-06 00:05:55.046116+01 | 1486335955.04612 |                 0 |              15 |                   496 |                   19 |               2231 |             0 |                0 |          487843 |                     0 |        191841 | 2017-02-05 22:51:16.555195+01

 2017-02-06 00:05:56.123061+01 | 1486335956.12306 |                 0 |              15 |                   496 |                   19 |               2231 |             0 |                0 |          487843 |                     0 |        191841 | 2017-02-05 22:51:16.555195+01

 2017-02-06 00:05:57.213343+01 | 1486335957.21334 |                 0 |              15 |                   496 |                   19 |               2231 |             0 |                0 |          487843 |                     0 |        191841 | 2017-02-05 22:51:16.555195+01

 2017-02-06 00:05:58.289461+01 | 1486335958.28946 |                 0 |              15 |                   496 |                   19 |               2231 |             0 |                0 |          487843 |                     0 |        191841 | 2017-02-05 22:51:16.555195+01

 2017-02-06 00:05:59.367797+01 | 1486335959.3678 |                 0 |              15 |                   496 |                   19 |               2231 |             0 |                0 |          487843 |                     0 |        191841 | 2017-02-05 22:51:16.555195+01

 2017-02-06 00:06:00.452943+01 | 1486335960.45294 |                 0 |              15 |                   496 |                   19 |               2231 |             0 |                0 |          487843 |                     0 |        191841 | 2017-02-05 22:51:16.555195+01

 2017-02-06 00:06:01.537654+01 | 1486335961.53765 |                 0 |              15 |                   496 |                   19 |               2231 |             0 |                0 |          487843 |                     0 |        191841 | 2017-02-05 22:51:16.555195+01

 2017-02-06 00:06:02.619056+01 | 1486335962.61906 |                 0 |              15 |                   496 |                   19 |               2231 |             0 |                0 |          487843 |                     0 |        191841 | 2017-02-05 22:51:16.555195+01

 2017-02-06 00:06:03.704942+01 | 1486335963.70494 |                 0 |              15 |                   496 |                   19 |               2231 |             0 |                0 |          487843 |                     0 |        191841 | 2017-02-05 22:51:16.555195+01

 2017-02-06 00:06:04.795198+01 | 1486335964.7952 |                 0 |              15 |                   496 |                   19 |               2231 |             0 |                0 |          487843 |                     0 |        191841 | 2017-02-05 22:51:16.555195+01

 2017-02-06 00:06:05.885254+01 | 1486335965.88525 |                 0 |              15 |                   496 |                   19 |               2231 |             0 |                0 |          487843 |                     0 |        191841 | 2017-02-05 22:51:16.555195+01

 2017-02-06 00:06:06.973378+01 | 1486335966.97338 |                 0 |              15 |                   496 |                   19 |               2231 |             0 |                0 |          487843 |                     0 |        191841 | 2017-02-05 22:51:16.555195+01

 2017-02-06 00:06:08.056758+01 | 1486335968.05676 |                 0 |              15 |                   496 |                   19 |               2231 |             0 |                0 |          487843 |                     0 |        191841 | 2017-02-05 22:51:16.555195+01

 2017-02-06 00:06:09.13427+01 | 1486335969.13427 |                 0 |              15 |                   496 |                   19 |               2231 |             0 |                0 |          487843 |                     0 |        191841 | 2017-02-05 22:51:16.555195+01

 2017-02-06 00:06:10.222506+01 | 1486335970.22251 |                 0 |              15 |                   496 |                   19 |               2231 |             0 |                0 |          487843 |                     0 |        191841 | 2017-02-05 22:51:16.555195+01

 2017-02-06 00:06:11.304069+01 | 1486335971.30407 |                 0 |              15 |                   496 |                   19 |               2231 |             0 |                0 |          487843 |                     0 |        191841 | 2017-02-05 22:51:16.555195+01

 2017-02-06 00:06:12.384261+01 | 1486335972.38426 |                 0 |              15 |                   496 |                   19 |               2231 |             0 |                0 |          487843 |                     0 |        191841 | 2017-02-05 22:51:16.555195+01

 2017-02-06 00:06:13.479051+01 | 1486335973.47905 |                 0 |              15 |                   496 |                   19 |               2231 |             0 |                0 |          487843 |                     0 |        191841 | 2017-02-05 22:51:16.555195+01

 2017-02-06 00:06:14.566159+01 | 1486335974.56616 |                 0 |              15 |                   496 |                   19 |               2231 |             0 |                0 |          487843 |                     0 |        191841 | 2017-02-05 22:51:16.555195+01

 2017-02-06 00:06:15.638507+01 | 1486335975.63851 |                 0 |              15 |                   496 |                   19 |               2231 |             0 |                0 |          487843 |                     0 |        191841 | 2017-02-05 22:51:16.555195+01

 2017-02-06 00:06:16.709741+01 | 1486335976.70974 |                 0 |              15 |                   496 |                   19 |               2231 |             0 |                0 |          487843 |                     0 |        191841 | 2017-02-05 22:51:16.555195+01

 2017-02-06 00:06:17.795438+01 | 1486335977.79544 |                 0 |              15 |                   496 |                   19 |               2231 |             0 |                0 |          487843 |                     0 |        191841 | 2017-02-05 22:51:16.555195+01

 2017-02-06 00:06:18.873211+01 | 1486335978.87321 |                 0 |              15 |                   496 |                   19 |               2231 |             0 |                0 |          487843 |                     0 |        191841 | 2017-02-05 22:51:16.555195+01

 2017-02-06 00:06:19.948554+01 | 1486335979.94855 |                 0 |              15 |                   496 |                   19 |               2231 |             0 |                0 |          487843 |                     0 |        191841 | 2017-02-05 22:51:16.555195+01

 2017-02-06 00:06:21.036829+01 | 1486335981.03683 |                 0 |              15 |                   496 |                   19 |               2231 |             0 |                0 |          487843 |                     0 |        191841 | 2017-02-05 22:51:16.555195+01

 2017-02-06 00:06:22.118739+01 | 1486335982.11874 |                 0 |              15 |                   496 |                   19 |               2231 |             0 |                0 |          487843 |                     0 |        191841 | 2017-02-05 22:51:16.555195+01

 2017-02-06 00:06:23.201574+01 | 1486335983.20157 |                 0 |              15 |                   496 |                   19 |               2231 |             0 |                0 |          487843 |                     0 |        191841 | 2017-02-05 22:51:16.555195+01

 2017-02-06 00:06:24.280441+01 | 1486335984.28044 |                 0 |              15 |                   496 |                   19 |               2231 |             0 |                0 |          487843 |                     0 |        191841 | 2017-02-05 22:51:16.555195+01

 2017-02-06 00:06:25.361042+01 | 1486335985.36104 |                 0 |              15 |                   496 |                   19 |               2231 |             0 |                0 |          487843 |                     0 |        191841 | 2017-02-05 22:51:16.555195+01

 2017-02-06 00:06:26.429753+01 | 1486335986.42975 |                 0 |              15 |                   496 |                   19 |               2231 |             0 |                0 |          487843 |                     0 |        191841 | 2017-02-05 22:51:16.555195+01

 2017-02-06 00:06:27.49827+01 | 1486335987.49827 |                 0 |              15 |                   496 |                   19 |               2231 |             0 |                0 |          487843 |                     0 |        191841 | 2017-02-05 22:51:16.555195+01

 2017-02-06 00:06:28.578589+01 | 1486335988.57859 |                 0 |              15 |                   496 |                   19 |               2231 |             0 |                0 |          487843 |                     0 |        191841 | 2017-02-05 22:51:16.555195+01

 2017-02-06 00:06:29.654645+01 | 1486335989.65464 |                 0 |              15 |                   496 |                   19 |               2231 |             0 |                0 |          487843 |                     0 |        191841 | 2017-02-05 22:51:16.555195+01

 2017-02-06 00:06:30.734486+01 | 1486335990.73449 |                 0 |              15 |                   496 |                   19 |               2231 |             0 |                0 |          487843 |                     0 |        191841 | 2017-02-05 22:51:16.555195+01

 2017-02-06 00:06:31.813035+01 | 1486335991.81304 |                 0 |              15 |                   496 |                   19 |               2231 |             0 |                0 |          487843 |                     0 |        191841 | 2017-02-05 22:51:16.555195+01

 2017-02-06 00:06:32.887788+01 | 1486335992.88779 |                 0 |              15 |                   496 |                   19 |               2231 |             0 |                0 |          487843 |                     0 |        191841 | 2017-02-05 22:51:16.555195+01

 2017-02-06 00:06:33.969994+01 | 1486335993.96999 |                 0 |              15 |                   496 |                   19 |               2231 |             0 |                0 |          487843 |                     0 |        191841 | 2017-02-05 22:51:16.555195+01

 2017-02-06 00:06:35.050061+01 | 1486335995.05006 |                 0 |              15 |                   496 |                   19 |               2231 |             0 |                0 |          487843 |                     0 |        191841 | 2017-02-05 22:51:16.555195+01

 2017-02-06 00:06:36.128963+01 | 1486335996.12896 |                 0 |              15 |                   496 |                   19 |               2231 |             0 |                0 |          487843 |                     0 |        191841 | 2017-02-05 22:51:16.555195+01

 2017-02-06 00:06:37.209902+01 | 1486335997.2099 |                 0 |              15 |                   496 |                   19 |               2231 |             0 |                0 |          487843 |                     0 |        191841 | 2017-02-05 22:51:16.555195+01

 2017-02-06 00:06:38.302551+01 | 1486335998.30255 |                 0 |              15 |                   496 |                   19 |               2231 |             0 |                0 |          487843 |                     0 |        191841 | 2017-02-05 22:51:16.555195+01

 2017-02-06 00:06:39.398181+01 | 1486335999.39818 |                 0 |              15 |                   496 |                   19 |               2231 |             0 |                0 |          487843 |                     0 |        191841 | 2017-02-05 22:51:16.555195+01

 2017-02-06 00:06:40.477032+01 | 1486336000.47703 |                 0 |              15 |                   496 |                   19 |               2231 |             0 |                0 |          487843 |                     0 |        191841 | 2017-02-05 22:51:16.555195+01

 2017-02-06 00:06:41.56063+01 | 1486336001.56063 |                 0 |              15 |                   496 |                   19 |               2231 |             0 |                0 |          487843 |                     0 |        191841 | 2017-02-05 22:51:16.555195+01

 2017-02-06 00:06:42.646693+01 | 1486336002.64669 |                 0 |              15 |                   496 |                   19 |               2231 |             0 |                0 |          487843 |                     0 |        191841 | 2017-02-05 22:51:16.555195+01

