 2017-02-06 18:30:10.61209+01 | 1486402210.61209 | pgbench_accounts |      13661978624
 2017-02-06 18:30:10.61209+01 | 1486402210.61209 | pgbench_tellers  |         10174464
 2017-02-06 18:30:10.61209+01 | 1486402210.61209 | pgbench_history  |                0
 2017-02-06 18:30:10.61209+01 | 1486402210.61209 | pgbench_branches |          7421952

 2017-02-06 18:30:11.69779+01 | 1486402211.69779 | pgbench_accounts |      13661978624
 2017-02-06 18:30:11.69779+01 | 1486402211.69779 | pgbench_tellers  |         10174464
 2017-02-06 18:30:11.69779+01 | 1486402211.69779 | pgbench_history  |          1662976
 2017-02-06 18:30:11.69779+01 | 1486402211.69779 | pgbench_branches |          7421952

 2017-02-06 18:30:12.779831+01 | 1486402212.77983 | pgbench_accounts |      13661978624
 2017-02-06 18:30:12.779831+01 | 1486402212.77983 | pgbench_tellers  |         10174464
 2017-02-06 18:30:12.779831+01 | 1486402212.77983 | pgbench_history  |          2048000
 2017-02-06 18:30:12.779831+01 | 1486402212.77983 | pgbench_branches |          7421952

 2017-02-06 18:30:13.866864+01 | 1486402213.86686 | pgbench_accounts |      13661978624
 2017-02-06 18:30:13.866864+01 | 1486402213.86686 | pgbench_tellers  |         10174464
 2017-02-06 18:30:13.866864+01 | 1486402213.86686 | pgbench_history  |          2981888
 2017-02-06 18:30:13.866864+01 | 1486402213.86686 | pgbench_branches |          7421952

 2017-02-06 18:30:14.948208+01 | 1486402214.94821 | pgbench_accounts |      13661978624
 2017-02-06 18:30:14.948208+01 | 1486402214.94821 | pgbench_tellers  |         10174464
 2017-02-06 18:30:14.948208+01 | 1486402214.94821 | pgbench_history  |          4038656
 2017-02-06 18:30:14.948208+01 | 1486402214.94821 | pgbench_branches |          7421952

 2017-02-06 18:30:16.029489+01 | 1486402216.02949 | pgbench_accounts |      13661978624
 2017-02-06 18:30:16.029489+01 | 1486402216.02949 | pgbench_tellers  |         10174464
 2017-02-06 18:30:16.029489+01 | 1486402216.02949 | pgbench_history  |          5275648
 2017-02-06 18:30:16.029489+01 | 1486402216.02949 | pgbench_branches |          7421952

 2017-02-06 18:30:17.109218+01 | 1486402217.10922 | pgbench_accounts |      13661978624
 2017-02-06 18:30:17.109218+01 | 1486402217.10922 | pgbench_tellers  |         10174464
 2017-02-06 18:30:17.109218+01 | 1486402217.10922 | pgbench_history  |          6660096
 2017-02-06 18:30:17.109218+01 | 1486402217.10922 | pgbench_branches |          7421952

 2017-02-06 18:30:18.19262+01 | 1486402218.19262 | pgbench_accounts |      13661978624
 2017-02-06 18:30:18.19262+01 | 1486402218.19262 | pgbench_tellers  |         10174464
 2017-02-06 18:30:18.19262+01 | 1486402218.19262 | pgbench_history  |          7700480
 2017-02-06 18:30:18.19262+01 | 1486402218.19262 | pgbench_branches |          7421952

 2017-02-06 18:30:19.276321+01 | 1486402219.27632 | pgbench_accounts |      13661978624
 2017-02-06 18:30:19.276321+01 | 1486402219.27632 | pgbench_tellers  |         10174464
 2017-02-06 18:30:19.276321+01 | 1486402219.27632 | pgbench_history  |          9363456
 2017-02-06 18:30:19.276321+01 | 1486402219.27632 | pgbench_branches |          7421952

 2017-02-06 18:30:20.358312+01 | 1486402220.35831 | pgbench_accounts |      13661978624
 2017-02-06 18:30:20.358312+01 | 1486402220.35831 | pgbench_tellers  |         10174464
 2017-02-06 18:30:20.358312+01 | 1486402220.35831 | pgbench_history  |         10698752
 2017-02-06 18:30:20.358312+01 | 1486402220.35831 | pgbench_branches |          7421952

 2017-02-06 18:30:21.439036+01 | 1486402221.43904 | pgbench_accounts |      13661978624
 2017-02-06 18:30:21.439036+01 | 1486402221.43904 | pgbench_tellers  |         10174464
 2017-02-06 18:30:21.439036+01 | 1486402221.43904 | pgbench_history  |         11812864
 2017-02-06 18:30:21.439036+01 | 1486402221.43904 | pgbench_branches |          7421952

 2017-02-06 18:30:22.514918+01 | 1486402222.51492 | pgbench_accounts |      13661978624
 2017-02-06 18:30:22.514918+01 | 1486402222.51492 | pgbench_tellers  |         10174464
 2017-02-06 18:30:22.514918+01 | 1486402222.51492 | pgbench_history  |         13082624
 2017-02-06 18:30:22.514918+01 | 1486402222.51492 | pgbench_branches |          7421952

 2017-02-06 18:30:23.594346+01 | 1486402223.59435 | pgbench_accounts |      13661978624
 2017-02-06 18:30:23.594346+01 | 1486402223.59435 | pgbench_tellers  |         10174464
 2017-02-06 18:30:23.594346+01 | 1486402223.59435 | pgbench_history  |         14524416
 2017-02-06 18:30:23.594346+01 | 1486402223.59435 | pgbench_branches |          7421952

 2017-02-06 18:30:24.677583+01 | 1486402224.67758 | pgbench_accounts |      13661978624
 2017-02-06 18:30:24.677583+01 | 1486402224.67758 | pgbench_tellers  |         10174464
 2017-02-06 18:30:24.677583+01 | 1486402224.67758 | pgbench_history  |         15564800
 2017-02-06 18:30:24.677583+01 | 1486402224.67758 | pgbench_branches |          7421952

 2017-02-06 18:30:25.755707+01 | 1486402225.75571 | pgbench_accounts |      13661978624
 2017-02-06 18:30:25.755707+01 | 1486402225.75571 | pgbench_tellers  |         10174464
 2017-02-06 18:30:25.755707+01 | 1486402225.75571 | pgbench_history  |         17743872
 2017-02-06 18:30:25.755707+01 | 1486402225.75571 | pgbench_branches |          7421952

 2017-02-06 18:30:26.837857+01 | 1486402226.83786 | pgbench_accounts |      13661978624
 2017-02-06 18:30:26.837857+01 | 1486402226.83786 | pgbench_tellers  |         10174464
 2017-02-06 18:30:26.837857+01 | 1486402226.83786 | pgbench_history  |         18432000
 2017-02-06 18:30:26.837857+01 | 1486402226.83786 | pgbench_branches |          7421952

 2017-02-06 18:30:27.918191+01 | 1486402227.91819 | pgbench_accounts |      13661978624
 2017-02-06 18:30:27.918191+01 | 1486402227.91819 | pgbench_tellers  |         10174464
 2017-02-06 18:30:27.918191+01 | 1486402227.91819 | pgbench_history  |         19472384
 2017-02-06 18:30:27.918191+01 | 1486402227.91819 | pgbench_branches |          7421952

 2017-02-06 18:30:28.993694+01 | 1486402228.99369 | pgbench_accounts |      13661978624
 2017-02-06 18:30:28.993694+01 | 1486402228.99369 | pgbench_tellers  |         10174464
 2017-02-06 18:30:28.993694+01 | 1486402228.99369 | pgbench_history  |         20529152
 2017-02-06 18:30:28.993694+01 | 1486402228.99369 | pgbench_branches |          7421952

 2017-02-06 18:30:30.0694+01 | 1486402230.0694 | pgbench_accounts |      13661978624
 2017-02-06 18:30:30.0694+01 | 1486402230.0694 | pgbench_tellers  |         10174464
 2017-02-06 18:30:30.0694+01 | 1486402230.0694 | pgbench_history  |         21741568
 2017-02-06 18:30:30.0694+01 | 1486402230.0694 | pgbench_branches |          7421952

 2017-02-06 18:30:31.141765+01 | 1486402231.14177 | pgbench_accounts |      13661978624
 2017-02-06 18:30:31.141765+01 | 1486402231.14177 | pgbench_tellers  |         10174464
 2017-02-06 18:30:31.141765+01 | 1486402231.14177 | pgbench_history  |         22986752
 2017-02-06 18:30:31.141765+01 | 1486402231.14177 | pgbench_branches |          7421952

 2017-02-06 18:30:32.221193+01 | 1486402232.22119 | pgbench_accounts |      13661978624
 2017-02-06 18:30:32.221193+01 | 1486402232.22119 | pgbench_tellers  |         10174464
 2017-02-06 18:30:32.221193+01 | 1486402232.22119 | pgbench_history  |         24346624
 2017-02-06 18:30:32.221193+01 | 1486402232.22119 | pgbench_branches |          7421952

 2017-02-06 18:30:33.305415+01 | 1486402233.30541 | pgbench_accounts |      13661978624
 2017-02-06 18:30:33.305415+01 | 1486402233.30541 | pgbench_tellers  |         10174464
 2017-02-06 18:30:33.305415+01 | 1486402233.30541 | pgbench_history  |         25919488
 2017-02-06 18:30:33.305415+01 | 1486402233.30541 | pgbench_branches |          7421952

 2017-02-06 18:30:34.383425+01 | 1486402234.38342 | pgbench_accounts |      13661978624
 2017-02-06 18:30:34.383425+01 | 1486402234.38342 | pgbench_tellers  |         10174464
 2017-02-06 18:30:34.383425+01 | 1486402234.38342 | pgbench_history  |         27123712
 2017-02-06 18:30:34.383425+01 | 1486402234.38342 | pgbench_branches |          7421952

 2017-02-06 18:30:35.463105+01 | 1486402235.4631 | pgbench_accounts |      13661978624
 2017-02-06 18:30:35.463105+01 | 1486402235.4631 | pgbench_tellers  |         10174464
 2017-02-06 18:30:35.463105+01 | 1486402235.4631 | pgbench_history  |         28540928
 2017-02-06 18:30:35.463105+01 | 1486402235.4631 | pgbench_branches |          7421952

 2017-02-06 18:30:36.53862+01 | 1486402236.53862 | pgbench_accounts |      13661978624
 2017-02-06 18:30:36.53862+01 | 1486402236.53862 | pgbench_tellers  |         10174464
 2017-02-06 18:30:36.53862+01 | 1486402236.53862 | pgbench_history  |         30113792
 2017-02-06 18:30:36.53862+01 | 1486402236.53862 | pgbench_branches |          7421952

 2017-02-06 18:30:37.620303+01 | 1486402237.6203 | pgbench_accounts |      13661978624
 2017-02-06 18:30:37.620303+01 | 1486402237.6203 | pgbench_tellers  |         10174464
 2017-02-06 18:30:37.620303+01 | 1486402237.6203 | pgbench_history  |         31531008
 2017-02-06 18:30:37.620303+01 | 1486402237.6203 | pgbench_branches |          7421952

 2017-02-06 18:30:38.695084+01 | 1486402238.69508 | pgbench_accounts |      13661978624
 2017-02-06 18:30:38.695084+01 | 1486402238.69508 | pgbench_tellers  |         10174464
 2017-02-06 18:30:38.695084+01 | 1486402238.69508 | pgbench_history  |         32628736
 2017-02-06 18:30:38.695084+01 | 1486402238.69508 | pgbench_branches |          7421952

 2017-02-06 18:30:39.779746+01 | 1486402239.77975 | pgbench_accounts |      13661978624
 2017-02-06 18:30:39.779746+01 | 1486402239.77975 | pgbench_tellers  |         10174464
 2017-02-06 18:30:39.779746+01 | 1486402239.77975 | pgbench_history  |         34054144
 2017-02-06 18:30:39.779746+01 | 1486402239.77975 | pgbench_branches |          7421952

 2017-02-06 18:30:40.863415+01 | 1486402240.86342 | pgbench_accounts |      13661978624
 2017-02-06 18:30:40.863415+01 | 1486402240.86342 | pgbench_tellers  |         10174464
 2017-02-06 18:30:40.863415+01 | 1486402240.86342 | pgbench_history  |         35414016
 2017-02-06 18:30:40.863415+01 | 1486402240.86342 | pgbench_branches |          7421952

 2017-02-06 18:30:41.930512+01 | 1486402241.93051 | pgbench_accounts |      13661978624
 2017-02-06 18:30:41.930512+01 | 1486402241.93051 | pgbench_tellers  |         10174464
 2017-02-06 18:30:41.930512+01 | 1486402241.93051 | pgbench_history  |         36634624
 2017-02-06 18:30:41.930512+01 | 1486402241.93051 | pgbench_branches |          7421952

 2017-02-06 18:30:43.009732+01 | 1486402243.00973 | pgbench_accounts |      13661978624
 2017-02-06 18:30:43.009732+01 | 1486402243.00973 | pgbench_tellers  |         10174464
 2017-02-06 18:30:43.009732+01 | 1486402243.00973 | pgbench_history  |         38019072
 2017-02-06 18:30:43.009732+01 | 1486402243.00973 | pgbench_branches |          7421952

 2017-02-06 18:30:44.092161+01 | 1486402244.09216 | pgbench_accounts |      13661978624
 2017-02-06 18:30:44.092161+01 | 1486402244.09216 | pgbench_tellers  |         10174464
 2017-02-06 18:30:44.092161+01 | 1486402244.09216 | pgbench_history  |         39403520
 2017-02-06 18:30:44.092161+01 | 1486402244.09216 | pgbench_branches |          7421952

 2017-02-06 18:30:45.17293+01 | 1486402245.17293 | pgbench_accounts |      13661978624
 2017-02-06 18:30:45.17293+01 | 1486402245.17293 | pgbench_tellers  |         10174464
 2017-02-06 18:30:45.17293+01 | 1486402245.17293 | pgbench_history  |         40787968
 2017-02-06 18:30:45.17293+01 | 1486402245.17293 | pgbench_branches |          7421952

 2017-02-06 18:30:46.251903+01 | 1486402246.2519 | pgbench_accounts |      13661978624
 2017-02-06 18:30:46.251903+01 | 1486402246.2519 | pgbench_tellers  |         10174464
 2017-02-06 18:30:46.251903+01 | 1486402246.2519 | pgbench_history  |         42205184
 2017-02-06 18:30:46.251903+01 | 1486402246.2519 | pgbench_branches |          7421952

 2017-02-06 18:30:47.329757+01 | 1486402247.32976 | pgbench_accounts |      13661978624
 2017-02-06 18:30:47.329757+01 | 1486402247.32976 | pgbench_tellers  |         10174464
 2017-02-06 18:30:47.329757+01 | 1486402247.32976 | pgbench_history  |         43278336
 2017-02-06 18:30:47.329757+01 | 1486402247.32976 | pgbench_branches |          7421952

 2017-02-06 18:30:48.403062+01 | 1486402248.40306 | pgbench_accounts |      13661978624
 2017-02-06 18:30:48.403062+01 | 1486402248.40306 | pgbench_tellers  |         10174464
 2017-02-06 18:30:48.403062+01 | 1486402248.40306 | pgbench_history  |         44711936
 2017-02-06 18:30:48.403062+01 | 1486402248.40306 | pgbench_branches |          7421952

 2017-02-06 18:30:49.479315+01 | 1486402249.47932 | pgbench_accounts |      13661978624
 2017-02-06 18:30:49.479315+01 | 1486402249.47932 | pgbench_tellers  |         10174464
 2017-02-06 18:30:49.479315+01 | 1486402249.47932 | pgbench_history  |         46964736
 2017-02-06 18:30:49.479315+01 | 1486402249.47932 | pgbench_branches |          7421952

 2017-02-06 18:30:50.559776+01 | 1486402250.55978 | pgbench_accounts |      13661978624
 2017-02-06 18:30:50.559776+01 | 1486402250.55978 | pgbench_tellers  |         10174464
 2017-02-06 18:30:50.559776+01 | 1486402250.55978 | pgbench_history  |         47316992
 2017-02-06 18:30:50.559776+01 | 1486402250.55978 | pgbench_branches |          7421952

 2017-02-06 18:30:51.638395+01 | 1486402251.6384 | pgbench_accounts |      13661978624
 2017-02-06 18:30:51.638395+01 | 1486402251.6384 | pgbench_tellers  |         10174464
 2017-02-06 18:30:51.638395+01 | 1486402251.6384 | pgbench_history  |         48840704
 2017-02-06 18:30:51.638395+01 | 1486402251.6384 | pgbench_branches |          7421952

 2017-02-06 18:30:52.713599+01 | 1486402252.7136 | pgbench_accounts |      13661978624
 2017-02-06 18:30:52.713599+01 | 1486402252.7136 | pgbench_tellers  |         10174464
 2017-02-06 18:30:52.713599+01 | 1486402252.7136 | pgbench_history  |         50413568
 2017-02-06 18:30:52.713599+01 | 1486402252.7136 | pgbench_branches |          7421952

 2017-02-06 18:30:53.790791+01 | 1486402253.79079 | pgbench_accounts |      13661978624
 2017-02-06 18:30:53.790791+01 | 1486402253.79079 | pgbench_tellers  |         10174464
 2017-02-06 18:30:53.790791+01 | 1486402253.79079 | pgbench_history  |         51306496
 2017-02-06 18:30:53.790791+01 | 1486402253.79079 | pgbench_branches |          7421952

 2017-02-06 18:30:54.871274+01 | 1486402254.87127 | pgbench_accounts |      13661978624
 2017-02-06 18:30:54.871274+01 | 1486402254.87127 | pgbench_tellers  |         10174464
 2017-02-06 18:30:54.871274+01 | 1486402254.87127 | pgbench_history  |         52363264
 2017-02-06 18:30:54.871274+01 | 1486402254.87127 | pgbench_branches |          7421952

 2017-02-06 18:30:55.944764+01 | 1486402255.94476 | pgbench_accounts |      13661978624
 2017-02-06 18:30:55.944764+01 | 1486402255.94476 | pgbench_tellers  |         10174464
 2017-02-06 18:30:55.944764+01 | 1486402255.94476 | pgbench_history  |         54386688
 2017-02-06 18:30:55.944764+01 | 1486402255.94476 | pgbench_branches |          7421952

 2017-02-06 18:30:57.019728+01 | 1486402257.01973 | pgbench_accounts |      13661978624
 2017-02-06 18:30:57.019728+01 | 1486402257.01973 | pgbench_tellers  |         10174464
 2017-02-06 18:30:57.019728+01 | 1486402257.01973 | pgbench_history  |         55271424
 2017-02-06 18:30:57.019728+01 | 1486402257.01973 | pgbench_branches |          7421952

 2017-02-06 18:30:58.09731+01 | 1486402258.09731 | pgbench_accounts |      13661978624
 2017-02-06 18:30:58.09731+01 | 1486402258.09731 | pgbench_tellers  |         10174464
 2017-02-06 18:30:58.09731+01 | 1486402258.09731 | pgbench_history  |         56328192
 2017-02-06 18:30:58.09731+01 | 1486402258.09731 | pgbench_branches |          7421952

 2017-02-06 18:30:59.181508+01 | 1486402259.18151 | pgbench_accounts |      13661978624
 2017-02-06 18:30:59.181508+01 | 1486402259.18151 | pgbench_tellers  |         10174464
 2017-02-06 18:30:59.181508+01 | 1486402259.18151 | pgbench_history  |         57524224
 2017-02-06 18:30:59.181508+01 | 1486402259.18151 | pgbench_branches |          7421952

 2017-02-06 18:31:00.265418+01 | 1486402260.26542 | pgbench_accounts |      13661978624
 2017-02-06 18:31:00.265418+01 | 1486402260.26542 | pgbench_tellers  |         10174464
 2017-02-06 18:31:00.265418+01 | 1486402260.26542 | pgbench_history  |         59736064
 2017-02-06 18:31:00.265418+01 | 1486402260.26542 | pgbench_branches |          7421952

 2017-02-06 18:31:01.353629+01 | 1486402261.35363 | pgbench_accounts |      13661978624
 2017-02-06 18:31:01.353629+01 | 1486402261.35363 | pgbench_tellers  |         10174464
 2017-02-06 18:31:01.353629+01 | 1486402261.35363 | pgbench_history  |         60252160
 2017-02-06 18:31:01.353629+01 | 1486402261.35363 | pgbench_branches |          7421952

 2017-02-06 18:31:02.442321+01 | 1486402262.44232 | pgbench_accounts |      13661978624
 2017-02-06 18:31:02.442321+01 | 1486402262.44232 | pgbench_tellers  |         10174464
 2017-02-06 18:31:02.442321+01 | 1486402262.44232 | pgbench_history  |         61612032
 2017-02-06 18:31:02.442321+01 | 1486402262.44232 | pgbench_branches |          7421952

 2017-02-06 18:31:03.524595+01 | 1486402263.5246 | pgbench_accounts |      13661978624
 2017-02-06 18:31:03.524595+01 | 1486402263.5246 | pgbench_tellers  |         10174464
 2017-02-06 18:31:03.524595+01 | 1486402263.5246 | pgbench_history  |         62808064
 2017-02-06 18:31:03.524595+01 | 1486402263.5246 | pgbench_branches |          7421952

 2017-02-06 18:31:04.599958+01 | 1486402264.59996 | pgbench_accounts |      13661978624
 2017-02-06 18:31:04.599958+01 | 1486402264.59996 | pgbench_tellers  |         10174464
 2017-02-06 18:31:04.599958+01 | 1486402264.59996 | pgbench_history  |         64053248
 2017-02-06 18:31:04.599958+01 | 1486402264.59996 | pgbench_branches |          7421952

 2017-02-06 18:31:05.67652+01 | 1486402265.67652 | pgbench_accounts |      13661978624
 2017-02-06 18:31:05.67652+01 | 1486402265.67652 | pgbench_tellers  |         10174464
 2017-02-06 18:31:05.67652+01 | 1486402265.67652 | pgbench_history  |         65380352
 2017-02-06 18:31:05.67652+01 | 1486402265.67652 | pgbench_branches |          7421952

 2017-02-06 18:31:06.76377+01 | 1486402266.76377 | pgbench_accounts |      13661978624
 2017-02-06 18:31:06.76377+01 | 1486402266.76377 | pgbench_tellers  |         10174464
 2017-02-06 18:31:06.76377+01 | 1486402266.76377 | pgbench_history  |         66412544
 2017-02-06 18:31:06.76377+01 | 1486402266.76377 | pgbench_branches |          7421952

 2017-02-06 18:31:07.842971+01 | 1486402267.84297 | pgbench_accounts |      13661978624
 2017-02-06 18:31:07.842971+01 | 1486402267.84297 | pgbench_tellers  |         10174464
 2017-02-06 18:31:07.842971+01 | 1486402267.84297 | pgbench_history  |         67960832
 2017-02-06 18:31:07.842971+01 | 1486402267.84297 | pgbench_branches |          7421952

 2017-02-06 18:31:08.926547+01 | 1486402268.92655 | pgbench_accounts |      13661978624
 2017-02-06 18:31:08.926547+01 | 1486402268.92655 | pgbench_tellers  |         10174464
 2017-02-06 18:31:08.926547+01 | 1486402268.92655 | pgbench_history  |         69214208
 2017-02-06 18:31:08.926547+01 | 1486402268.92655 | pgbench_branches |          7421952

 2017-02-06 18:31:10.00905+01 | 1486402270.00905 | pgbench_accounts |      13661978624
 2017-02-06 18:31:10.00905+01 | 1486402270.00905 | pgbench_tellers  |         10174464
 2017-02-06 18:31:10.00905+01 | 1486402270.00905 | pgbench_history  |         70656000
 2017-02-06 18:31:10.00905+01 | 1486402270.00905 | pgbench_branches |          7421952

 2017-02-06 18:31:11.087204+01 | 1486402271.0872 | pgbench_accounts |      13661978624
 2017-02-06 18:31:11.087204+01 | 1486402271.0872 | pgbench_tellers  |         10174464
 2017-02-06 18:31:11.087204+01 | 1486402271.0872 | pgbench_history  |         72187904
 2017-02-06 18:31:11.087204+01 | 1486402271.0872 | pgbench_branches |          7421952

 2017-02-06 18:31:12.176083+01 | 1486402272.17608 | pgbench_accounts |      13661978624
 2017-02-06 18:31:12.176083+01 | 1486402272.17608 | pgbench_tellers  |         10174464
 2017-02-06 18:31:12.176083+01 | 1486402272.17608 | pgbench_history  |         72736768
 2017-02-06 18:31:12.176083+01 | 1486402272.17608 | pgbench_branches |          7421952

 2017-02-06 18:31:13.259875+01 | 1486402273.25988 | pgbench_accounts |      13661978624
 2017-02-06 18:31:13.259875+01 | 1486402273.25988 | pgbench_tellers  |         10174464
 2017-02-06 18:31:13.259875+01 | 1486402273.25988 | pgbench_history  |         74522624
 2017-02-06 18:31:13.259875+01 | 1486402273.25988 | pgbench_branches |          7421952

 2017-02-06 18:31:14.344525+01 | 1486402274.34453 | pgbench_accounts |      13661978624
 2017-02-06 18:31:14.344525+01 | 1486402274.34453 | pgbench_tellers  |         10174464
 2017-02-06 18:31:14.344525+01 | 1486402274.34453 | pgbench_history  |         75399168
 2017-02-06 18:31:14.344525+01 | 1486402274.34453 | pgbench_branches |          7421952

 2017-02-06 18:31:15.420361+01 | 1486402275.42036 | pgbench_accounts |      13661978624
 2017-02-06 18:31:15.420361+01 | 1486402275.42036 | pgbench_tellers  |         10174464
 2017-02-06 18:31:15.420361+01 | 1486402275.42036 | pgbench_history  |         77291520
 2017-02-06 18:31:15.420361+01 | 1486402275.42036 | pgbench_branches |          7421952

 2017-02-06 18:31:16.495985+01 | 1486402276.49599 | pgbench_accounts |      13661978624
 2017-02-06 18:31:16.495985+01 | 1486402276.49599 | pgbench_tellers  |         10174464
 2017-02-06 18:31:16.495985+01 | 1486402276.49599 | pgbench_history  |         77971456
 2017-02-06 18:31:16.495985+01 | 1486402276.49599 | pgbench_branches |          7421952

 2017-02-06 18:31:17.57686+01 | 1486402277.57686 | pgbench_accounts |      13661978624
 2017-02-06 18:31:17.57686+01 | 1486402277.57686 | pgbench_tellers  |         10174464
 2017-02-06 18:31:17.57686+01 | 1486402277.57686 | pgbench_history  |         79470592
 2017-02-06 18:31:17.57686+01 | 1486402277.57686 | pgbench_branches |          7421952

 2017-02-06 18:31:18.653496+01 | 1486402278.6535 | pgbench_accounts |      13661978624
 2017-02-06 18:31:18.653496+01 | 1486402278.6535 | pgbench_tellers  |         10174464
 2017-02-06 18:31:18.653496+01 | 1486402278.6535 | pgbench_history  |         80371712
 2017-02-06 18:31:18.653496+01 | 1486402278.6535 | pgbench_branches |          7421952

 2017-02-06 18:31:19.732447+01 | 1486402279.73245 | pgbench_accounts |      13661978624
 2017-02-06 18:31:19.732447+01 | 1486402279.73245 | pgbench_tellers  |         10174464
 2017-02-06 18:31:19.732447+01 | 1486402279.73245 | pgbench_history  |         82059264
 2017-02-06 18:31:19.732447+01 | 1486402279.73245 | pgbench_branches |          7421952

 2017-02-06 18:31:20.800287+01 | 1486402280.80029 | pgbench_accounts |      13661978624
 2017-02-06 18:31:20.800287+01 | 1486402280.80029 | pgbench_tellers  |         10174464
 2017-02-06 18:31:20.800287+01 | 1486402280.80029 | pgbench_history  |         82763776
 2017-02-06 18:31:20.800287+01 | 1486402280.80029 | pgbench_branches |          7421952

 2017-02-06 18:31:21.87286+01 | 1486402281.87286 | pgbench_accounts |      13661978624
 2017-02-06 18:31:21.87286+01 | 1486402281.87286 | pgbench_tellers  |         10174464
 2017-02-06 18:31:21.87286+01 | 1486402281.87286 | pgbench_history  |         83976192
 2017-02-06 18:31:21.87286+01 | 1486402281.87286 | pgbench_branches |          7421952

 2017-02-06 18:31:22.956617+01 | 1486402282.95662 | pgbench_accounts |      13661978624
 2017-02-06 18:31:22.956617+01 | 1486402282.95662 | pgbench_tellers  |         10174464
 2017-02-06 18:31:22.956617+01 | 1486402282.95662 | pgbench_history  |         85499904
 2017-02-06 18:31:22.956617+01 | 1486402282.95662 | pgbench_branches |          7421952

 2017-02-06 18:31:24.041749+01 | 1486402284.04175 | pgbench_accounts |      13661978624
 2017-02-06 18:31:24.041749+01 | 1486402284.04175 | pgbench_tellers  |         10174464
 2017-02-06 18:31:24.041749+01 | 1486402284.04175 | pgbench_history  |         86589440
 2017-02-06 18:31:24.041749+01 | 1486402284.04175 | pgbench_branches |          7421952

 2017-02-06 18:31:25.117056+01 | 1486402285.11706 | pgbench_accounts |      13661978624
 2017-02-06 18:31:25.117056+01 | 1486402285.11706 | pgbench_tellers  |         10174464
 2017-02-06 18:31:25.117056+01 | 1486402285.11706 | pgbench_history  |         87834624
 2017-02-06 18:31:25.117056+01 | 1486402285.11706 | pgbench_branches |          7421952

 2017-02-06 18:31:26.185859+01 | 1486402286.18586 | pgbench_accounts |      13661978624
 2017-02-06 18:31:26.185859+01 | 1486402286.18586 | pgbench_tellers  |         10174464
 2017-02-06 18:31:26.185859+01 | 1486402286.18586 | pgbench_history  |         89088000
 2017-02-06 18:31:26.185859+01 | 1486402286.18586 | pgbench_branches |          7421952

 2017-02-06 18:31:27.262535+01 | 1486402287.26254 | pgbench_accounts |      13661978624
 2017-02-06 18:31:27.262535+01 | 1486402287.26254 | pgbench_tellers  |         10174464
 2017-02-06 18:31:27.262535+01 | 1486402287.26254 | pgbench_history  |         89628672
 2017-02-06 18:31:27.262535+01 | 1486402287.26254 | pgbench_branches |          7421952

 2017-02-06 18:31:28.342257+01 | 1486402288.34226 | pgbench_accounts |      13661978624
 2017-02-06 18:31:28.342257+01 | 1486402288.34226 | pgbench_tellers  |         10174464
 2017-02-06 18:31:28.342257+01 | 1486402288.34226 | pgbench_history  |         90890240
 2017-02-06 18:31:28.342257+01 | 1486402288.34226 | pgbench_branches |          7421952

 2017-02-06 18:31:29.426353+01 | 1486402289.42635 | pgbench_accounts |      13661978624
 2017-02-06 18:31:29.426353+01 | 1486402289.42635 | pgbench_tellers  |         10174464
 2017-02-06 18:31:29.426353+01 | 1486402289.42635 | pgbench_history  |         91799552
 2017-02-06 18:31:29.426353+01 | 1486402289.42635 | pgbench_branches |          7421952

 2017-02-06 18:31:30.508209+01 | 1486402290.50821 | pgbench_accounts |      13661978624
 2017-02-06 18:31:30.508209+01 | 1486402290.50821 | pgbench_tellers  |         10174464
 2017-02-06 18:31:30.508209+01 | 1486402290.50821 | pgbench_history  |         92995584
 2017-02-06 18:31:30.508209+01 | 1486402290.50821 | pgbench_branches |          7421952

 2017-02-06 18:31:31.5922+01 | 1486402291.5922 | pgbench_accounts |      13661978624
 2017-02-06 18:31:31.5922+01 | 1486402291.5922 | pgbench_tellers  |         10174464
 2017-02-06 18:31:31.5922+01 | 1486402291.5922 | pgbench_history  |         94715904
 2017-02-06 18:31:31.5922+01 | 1486402291.5922 | pgbench_branches |          7421952

 2017-02-06 18:31:32.675951+01 | 1486402292.67595 | pgbench_accounts |      13661978624
 2017-02-06 18:31:32.675951+01 | 1486402292.67595 | pgbench_tellers  |         10174464
 2017-02-06 18:31:32.675951+01 | 1486402292.67595 | pgbench_history  |         95068160
 2017-02-06 18:31:32.675951+01 | 1486402292.67595 | pgbench_branches |          7421952

 2017-02-06 18:31:33.749431+01 | 1486402293.74943 | pgbench_accounts |      13661978624
 2017-02-06 18:31:33.749431+01 | 1486402293.74943 | pgbench_tellers  |         10174464
 2017-02-06 18:31:33.749431+01 | 1486402293.74943 | pgbench_history  |         96133120
 2017-02-06 18:31:33.749431+01 | 1486402293.74943 | pgbench_branches |          7421952

 2017-02-06 18:31:34.830408+01 | 1486402294.83041 | pgbench_accounts |      13661978624
 2017-02-06 18:31:34.830408+01 | 1486402294.83041 | pgbench_tellers  |         10174464
 2017-02-06 18:31:34.830408+01 | 1486402294.83041 | pgbench_history  |         98320384
 2017-02-06 18:31:34.830408+01 | 1486402294.83041 | pgbench_branches |          7421952

 2017-02-06 18:31:35.909444+01 | 1486402295.90944 | pgbench_accounts |      13661978624
 2017-02-06 18:31:35.909444+01 | 1486402295.90944 | pgbench_tellers  |         10174464
 2017-02-06 18:31:35.909444+01 | 1486402295.90944 | pgbench_history  |         98320384
 2017-02-06 18:31:35.909444+01 | 1486402295.90944 | pgbench_branches |          7421952

 2017-02-06 18:31:36.995545+01 | 1486402296.99554 | pgbench_accounts |      13661978624
 2017-02-06 18:31:36.995545+01 | 1486402296.99554 | pgbench_tellers  |         10174464
 2017-02-06 18:31:36.995545+01 | 1486402296.99554 | pgbench_history  |         99524608
 2017-02-06 18:31:36.995545+01 | 1486402296.99554 | pgbench_branches |          7421952

 2017-02-06 18:31:38.08362+01 | 1486402298.08362 | pgbench_accounts |      13661978624
 2017-02-06 18:31:38.08362+01 | 1486402298.08362 | pgbench_tellers  |         10174464
 2017-02-06 18:31:38.08362+01 | 1486402298.08362 | pgbench_history  |        100769792
 2017-02-06 18:31:38.08362+01 | 1486402298.08362 | pgbench_branches |          7421952

 2017-02-06 18:31:39.169015+01 | 1486402299.16901 | pgbench_accounts |      13661978624
 2017-02-06 18:31:39.169015+01 | 1486402299.16901 | pgbench_tellers  |         10174464
 2017-02-06 18:31:39.169015+01 | 1486402299.16901 | pgbench_history  |        102137856
 2017-02-06 18:31:39.169015+01 | 1486402299.16901 | pgbench_branches |          7421952

 2017-02-06 18:31:40.254215+01 | 1486402300.25422 | pgbench_accounts |      13661978624
 2017-02-06 18:31:40.254215+01 | 1486402300.25422 | pgbench_tellers  |         10174464
 2017-02-06 18:31:40.254215+01 | 1486402300.25422 | pgbench_history  |        103022592
 2017-02-06 18:31:40.254215+01 | 1486402300.25422 | pgbench_branches |          7421952

 2017-02-06 18:31:41.337817+01 | 1486402301.33782 | pgbench_accounts |      13661978624
 2017-02-06 18:31:41.337817+01 | 1486402301.33782 | pgbench_tellers  |         10174464
 2017-02-06 18:31:41.337817+01 | 1486402301.33782 | pgbench_history  |        103727104
 2017-02-06 18:31:41.337817+01 | 1486402301.33782 | pgbench_branches |          7421952

 2017-02-06 18:31:42.40565+01 | 1486402302.40565 | pgbench_accounts |      13661978624
 2017-02-06 18:31:42.40565+01 | 1486402302.40565 | pgbench_tellers  |         10174464
 2017-02-06 18:31:42.40565+01 | 1486402302.40565 | pgbench_history  |        104488960
 2017-02-06 18:31:42.40565+01 | 1486402302.40565 | pgbench_branches |          7421952

 2017-02-06 18:31:43.487049+01 | 1486402303.48705 | pgbench_accounts |      13661978624
 2017-02-06 18:31:43.487049+01 | 1486402303.48705 | pgbench_tellers  |         10174464
 2017-02-06 18:31:43.487049+01 | 1486402303.48705 | pgbench_history  |        106569728
 2017-02-06 18:31:43.487049+01 | 1486402303.48705 | pgbench_branches |          7421952

 2017-02-06 18:31:44.573974+01 | 1486402304.57397 | pgbench_accounts |      13661978624
 2017-02-06 18:31:44.573974+01 | 1486402304.57397 | pgbench_tellers  |         10174464
 2017-02-06 18:31:44.573974+01 | 1486402304.57397 | pgbench_history  |        106569728
 2017-02-06 18:31:44.573974+01 | 1486402304.57397 | pgbench_branches |          7421952

 2017-02-06 18:31:45.642545+01 | 1486402305.64254 | pgbench_accounts |      13661978624
 2017-02-06 18:31:45.642545+01 | 1486402305.64254 | pgbench_tellers  |         10174464
 2017-02-06 18:31:45.642545+01 | 1486402305.64254 | pgbench_history  |        107741184
 2017-02-06 18:31:45.642545+01 | 1486402305.64254 | pgbench_branches |          7421952

 2017-02-06 18:31:46.715887+01 | 1486402306.71589 | pgbench_accounts |      13661978624
 2017-02-06 18:31:46.715887+01 | 1486402306.71589 | pgbench_tellers  |         10174464
 2017-02-06 18:31:46.715887+01 | 1486402306.71589 | pgbench_history  |        108421120
 2017-02-06 18:31:46.715887+01 | 1486402306.71589 | pgbench_branches |          7421952

 2017-02-06 18:31:47.795368+01 | 1486402307.79537 | pgbench_accounts |      13661978624
 2017-02-06 18:31:47.795368+01 | 1486402307.79537 | pgbench_tellers  |         10174464
 2017-02-06 18:31:47.795368+01 | 1486402307.79537 | pgbench_history  |        109641728
 2017-02-06 18:31:47.795368+01 | 1486402307.79537 | pgbench_branches |          7421952

 2017-02-06 18:31:48.87528+01 | 1486402308.87528 | pgbench_accounts |      13661978624
 2017-02-06 18:31:48.87528+01 | 1486402308.87528 | pgbench_tellers  |         10174464
 2017-02-06 18:31:48.87528+01 | 1486402308.87528 | pgbench_history  |        111009792
 2017-02-06 18:31:48.87528+01 | 1486402308.87528 | pgbench_branches |          7421952

 2017-02-06 18:31:49.951828+01 | 1486402309.95183 | pgbench_accounts |      13661978624
 2017-02-06 18:31:49.951828+01 | 1486402309.95183 | pgbench_tellers  |         10174464
 2017-02-06 18:31:49.951828+01 | 1486402309.95183 | pgbench_history  |        112508928
 2017-02-06 18:31:49.951828+01 | 1486402309.95183 | pgbench_branches |          7421952

 2017-02-06 18:31:51.034957+01 | 1486402311.03496 | pgbench_accounts |      13661978624
 2017-02-06 18:31:51.034957+01 | 1486402311.03496 | pgbench_tellers  |         10174464
 2017-02-06 18:31:51.034957+01 | 1486402311.03496 | pgbench_history  |        112508928
 2017-02-06 18:31:51.034957+01 | 1486402311.03496 | pgbench_branches |          7421952

 2017-02-06 18:31:52.116329+01 | 1486402312.11633 | pgbench_accounts |      13661978624
 2017-02-06 18:31:52.116329+01 | 1486402312.11633 | pgbench_tellers  |         10174464
 2017-02-06 18:31:52.116329+01 | 1486402312.11633 | pgbench_history  |        113393664
 2017-02-06 18:31:52.116329+01 | 1486402312.11633 | pgbench_branches |          7421952

 2017-02-06 18:31:53.206771+01 | 1486402313.20677 | pgbench_accounts |      13661978624
 2017-02-06 18:31:53.206771+01 | 1486402313.20677 | pgbench_tellers  |         10174464
 2017-02-06 18:31:53.206771+01 | 1486402313.20677 | pgbench_history  |        114278400
 2017-02-06 18:31:53.206771+01 | 1486402313.20677 | pgbench_branches |          7421952

 2017-02-06 18:31:54.291303+01 | 1486402314.2913 | pgbench_accounts |      13661978624
 2017-02-06 18:31:54.291303+01 | 1486402314.2913 | pgbench_tellers  |         10174464
 2017-02-06 18:31:54.291303+01 | 1486402314.2913 | pgbench_history  |        115359744
 2017-02-06 18:31:54.291303+01 | 1486402314.2913 | pgbench_branches |          7421952

 2017-02-06 18:31:55.365811+01 | 1486402315.36581 | pgbench_accounts |      13661978624
 2017-02-06 18:31:55.365811+01 | 1486402315.36581 | pgbench_tellers  |         10174464
 2017-02-06 18:31:55.365811+01 | 1486402315.36581 | pgbench_history  |        116408320
 2017-02-06 18:31:55.365811+01 | 1486402315.36581 | pgbench_branches |          7421952

 2017-02-06 18:31:56.442451+01 | 1486402316.44245 | pgbench_accounts |      13661978624
 2017-02-06 18:31:56.442451+01 | 1486402316.44245 | pgbench_tellers  |         10174464
 2017-02-06 18:31:56.442451+01 | 1486402316.44245 | pgbench_history  |        117342208
 2017-02-06 18:31:56.442451+01 | 1486402316.44245 | pgbench_branches |          7421952

 2017-02-06 18:31:57.524098+01 | 1486402317.5241 | pgbench_accounts |      13661978624
 2017-02-06 18:31:57.524098+01 | 1486402317.5241 | pgbench_tellers  |         10174464
 2017-02-06 18:31:57.524098+01 | 1486402317.5241 | pgbench_history  |        118784000
 2017-02-06 18:31:57.524098+01 | 1486402317.5241 | pgbench_branches |          7421952

 2017-02-06 18:31:58.618301+01 | 1486402318.6183 | pgbench_accounts |      13661978624
 2017-02-06 18:31:58.618301+01 | 1486402318.6183 | pgbench_tellers  |         10174464
 2017-02-06 18:31:58.618301+01 | 1486402318.6183 | pgbench_history  |        119988224
 2017-02-06 18:31:58.618301+01 | 1486402318.6183 | pgbench_branches |          7421952

 2017-02-06 18:31:59.69435+01 | 1486402319.69435 | pgbench_accounts |      13661978624
 2017-02-06 18:31:59.69435+01 | 1486402319.69435 | pgbench_tellers  |         10174464
 2017-02-06 18:31:59.69435+01 | 1486402319.69435 | pgbench_history  |        121028608
 2017-02-06 18:31:59.69435+01 | 1486402319.69435 | pgbench_branches |          7421952

 2017-02-06 18:32:00.769388+01 | 1486402320.76939 | pgbench_accounts |      13661978624
 2017-02-06 18:32:00.769388+01 | 1486402320.76939 | pgbench_tellers  |         10174464
 2017-02-06 18:32:00.769388+01 | 1486402320.76939 | pgbench_history  |        123240448
 2017-02-06 18:32:00.769388+01 | 1486402320.76939 | pgbench_branches |          7421952

 2017-02-06 18:32:01.840017+01 | 1486402321.84002 | pgbench_accounts |      13661978624
 2017-02-06 18:32:01.840017+01 | 1486402321.84002 | pgbench_tellers  |         10174464
 2017-02-06 18:32:01.840017+01 | 1486402321.84002 | pgbench_history  |        123240448
 2017-02-06 18:32:01.840017+01 | 1486402321.84002 | pgbench_branches |          7421952

 2017-02-06 18:32:02.912235+01 | 1486402322.91224 | pgbench_accounts |      13661978624
 2017-02-06 18:32:02.912235+01 | 1486402322.91224 | pgbench_tellers  |         10174464
 2017-02-06 18:32:02.912235+01 | 1486402322.91224 | pgbench_history  |        124289024
 2017-02-06 18:32:02.912235+01 | 1486402322.91224 | pgbench_branches |          7421952

 2017-02-06 18:32:03.994933+01 | 1486402323.99493 | pgbench_accounts |      13661978624
 2017-02-06 18:32:03.994933+01 | 1486402323.99493 | pgbench_tellers  |         10174464
 2017-02-06 18:32:03.994933+01 | 1486402323.99493 | pgbench_history  |        125837312
 2017-02-06 18:32:03.994933+01 | 1486402323.99493 | pgbench_branches |          7421952

 2017-02-06 18:32:05.077809+01 | 1486402325.07781 | pgbench_accounts |      13661978624
 2017-02-06 18:32:05.077809+01 | 1486402325.07781 | pgbench_tellers  |         10174464
 2017-02-06 18:32:05.077809+01 | 1486402325.07781 | pgbench_history  |        126771200
 2017-02-06 18:32:05.077809+01 | 1486402325.07781 | pgbench_branches |          7421952

 2017-02-06 18:32:06.161054+01 | 1486402326.16105 | pgbench_accounts |      13661978624
 2017-02-06 18:32:06.161054+01 | 1486402326.16105 | pgbench_tellers  |         10174464
 2017-02-06 18:32:06.161054+01 | 1486402326.16105 | pgbench_history  |        127967232
 2017-02-06 18:32:06.161054+01 | 1486402326.16105 | pgbench_branches |          7421952

 2017-02-06 18:32:07.237614+01 | 1486402327.23761 | pgbench_accounts |      13661978624
 2017-02-06 18:32:07.237614+01 | 1486402327.23761 | pgbench_tellers  |         10174464
 2017-02-06 18:32:07.237614+01 | 1486402327.23761 | pgbench_history  |        129097728
 2017-02-06 18:32:07.237614+01 | 1486402327.23761 | pgbench_branches |          7421952

 2017-02-06 18:32:08.326541+01 | 1486402328.32654 | pgbench_accounts |      13661978624
 2017-02-06 18:32:08.326541+01 | 1486402328.32654 | pgbench_tellers  |         10174464
 2017-02-06 18:32:08.326541+01 | 1486402328.32654 | pgbench_history  |        130326528
 2017-02-06 18:32:08.326541+01 | 1486402328.32654 | pgbench_branches |          7421952

 2017-02-06 18:32:09.413822+01 | 1486402329.41382 | pgbench_accounts |      13661978624
 2017-02-06 18:32:09.413822+01 | 1486402329.41382 | pgbench_tellers  |         10174464
 2017-02-06 18:32:09.413822+01 | 1486402329.41382 | pgbench_history  |        131883008
 2017-02-06 18:32:09.413822+01 | 1486402329.41382 | pgbench_branches |          7421952

 2017-02-06 18:32:10.498322+01 | 1486402330.49832 | pgbench_accounts |      13661978624
 2017-02-06 18:32:10.498322+01 | 1486402330.49832 | pgbench_tellers  |         10174464
 2017-02-06 18:32:10.498322+01 | 1486402330.49832 | pgbench_history  |        133079040
 2017-02-06 18:32:10.498322+01 | 1486402330.49832 | pgbench_branches |          7421952

 2017-02-06 18:32:11.587041+01 | 1486402331.58704 | pgbench_accounts |      13661978624
 2017-02-06 18:32:11.587041+01 | 1486402331.58704 | pgbench_tellers  |         10174464
 2017-02-06 18:32:11.587041+01 | 1486402331.58704 | pgbench_history  |        133922816
 2017-02-06 18:32:11.587041+01 | 1486402331.58704 | pgbench_branches |          7421952

 2017-02-06 18:32:12.666765+01 | 1486402332.66676 | pgbench_accounts |      13661978624
 2017-02-06 18:32:12.666765+01 | 1486402332.66676 | pgbench_tellers  |         10174464
 2017-02-06 18:32:12.666765+01 | 1486402332.66676 | pgbench_history  |        135168000
 2017-02-06 18:32:12.666765+01 | 1486402332.66676 | pgbench_branches |          7421952

 2017-02-06 18:32:13.746553+01 | 1486402333.74655 | pgbench_accounts |      13661978624
 2017-02-06 18:32:13.746553+01 | 1486402333.74655 | pgbench_tellers  |         10174464
 2017-02-06 18:32:13.746553+01 | 1486402333.74655 | pgbench_history  |        136044544
 2017-02-06 18:32:13.746553+01 | 1486402333.74655 | pgbench_branches |          7421952

 2017-02-06 18:32:14.821136+01 | 1486402334.82114 | pgbench_accounts |      13661978624
 2017-02-06 18:32:14.821136+01 | 1486402334.82114 | pgbench_tellers  |         10174464
 2017-02-06 18:32:14.821136+01 | 1486402334.82114 | pgbench_history  |        136888320
 2017-02-06 18:32:14.821136+01 | 1486402334.82114 | pgbench_branches |          7421952

 2017-02-06 18:32:15.900201+01 | 1486402335.9002 | pgbench_accounts |      13661978624
 2017-02-06 18:32:15.900201+01 | 1486402335.9002 | pgbench_tellers  |         10174464
 2017-02-06 18:32:15.900201+01 | 1486402335.9002 | pgbench_history  |        137953280
 2017-02-06 18:32:15.900201+01 | 1486402335.9002 | pgbench_branches |          7421952

 2017-02-06 18:32:16.979752+01 | 1486402336.97975 | pgbench_accounts |      13661978624
 2017-02-06 18:32:16.979752+01 | 1486402336.97975 | pgbench_tellers  |         10174464
 2017-02-06 18:32:16.979752+01 | 1486402336.97975 | pgbench_history  |        138543104
 2017-02-06 18:32:16.979752+01 | 1486402336.97975 | pgbench_branches |          7421952

 2017-02-06 18:32:18.059907+01 | 1486402338.05991 | pgbench_accounts |      13661978624
 2017-02-06 18:32:18.059907+01 | 1486402338.05991 | pgbench_tellers  |         10174464
 2017-02-06 18:32:18.059907+01 | 1486402338.05991 | pgbench_history  |        139714560
 2017-02-06 18:32:18.059907+01 | 1486402338.05991 | pgbench_branches |          7421952

 2017-02-06 18:32:19.144308+01 | 1486402339.14431 | pgbench_accounts |      13661978624
 2017-02-06 18:32:19.144308+01 | 1486402339.14431 | pgbench_tellers  |         10174464
 2017-02-06 18:32:19.144308+01 | 1486402339.14431 | pgbench_history  |        140591104
 2017-02-06 18:32:19.144308+01 | 1486402339.14431 | pgbench_branches |          7421952

 2017-02-06 18:32:20.228753+01 | 1486402340.22875 | pgbench_accounts |      13661978624
 2017-02-06 18:32:20.228753+01 | 1486402340.22875 | pgbench_tellers  |         10174464
 2017-02-06 18:32:20.228753+01 | 1486402340.22875 | pgbench_history  |        141484032
 2017-02-06 18:32:20.228753+01 | 1486402340.22875 | pgbench_branches |          7421952

 2017-02-06 18:32:21.313494+01 | 1486402341.31349 | pgbench_accounts |      13661978624
 2017-02-06 18:32:21.313494+01 | 1486402341.31349 | pgbench_tellers  |         10174464
 2017-02-06 18:32:21.313494+01 | 1486402341.31349 | pgbench_history  |        142360576
 2017-02-06 18:32:21.313494+01 | 1486402341.31349 | pgbench_branches |          7421952

 2017-02-06 18:32:22.396839+01 | 1486402342.39684 | pgbench_accounts |      13661978624
 2017-02-06 18:32:22.396839+01 | 1486402342.39684 | pgbench_tellers  |         10174464
 2017-02-06 18:32:22.396839+01 | 1486402342.39684 | pgbench_history  |        143581184
 2017-02-06 18:32:22.396839+01 | 1486402342.39684 | pgbench_branches |          7421952

 2017-02-06 18:32:23.483368+01 | 1486402343.48337 | pgbench_accounts |      13661978624
 2017-02-06 18:32:23.483368+01 | 1486402343.48337 | pgbench_tellers  |         10174464
 2017-02-06 18:32:23.483368+01 | 1486402343.48337 | pgbench_history  |        144482304
 2017-02-06 18:32:23.483368+01 | 1486402343.48337 | pgbench_branches |          7421952

 2017-02-06 18:32:24.570253+01 | 1486402344.57025 | pgbench_accounts |      13661978624
 2017-02-06 18:32:24.570253+01 | 1486402344.57025 | pgbench_tellers  |         10174464
 2017-02-06 18:32:24.570253+01 | 1486402344.57025 | pgbench_history  |        145162240
 2017-02-06 18:32:24.570253+01 | 1486402344.57025 | pgbench_branches |          7421952

 2017-02-06 18:32:25.658616+01 | 1486402345.65862 | pgbench_accounts |      13661978624
 2017-02-06 18:32:25.658616+01 | 1486402345.65862 | pgbench_tellers  |         10174464
 2017-02-06 18:32:25.658616+01 | 1486402345.65862 | pgbench_history  |        146898944
 2017-02-06 18:32:25.658616+01 | 1486402345.65862 | pgbench_branches |          7421952

 2017-02-06 18:32:26.73715+01 | 1486402346.73715 | pgbench_accounts |      13661978624
 2017-02-06 18:32:26.73715+01 | 1486402346.73715 | pgbench_tellers  |         10174464
 2017-02-06 18:32:26.73715+01 | 1486402346.73715 | pgbench_history  |        148070400
 2017-02-06 18:32:26.73715+01 | 1486402346.73715 | pgbench_branches |          7421952

 2017-02-06 18:32:27.811412+01 | 1486402347.81141 | pgbench_accounts |      13661978624
 2017-02-06 18:32:27.811412+01 | 1486402347.81141 | pgbench_tellers  |         10174464
 2017-02-06 18:32:27.811412+01 | 1486402347.81141 | pgbench_history  |        148439040
 2017-02-06 18:32:27.811412+01 | 1486402347.81141 | pgbench_branches |          7421952

 2017-02-06 18:32:28.891124+01 | 1486402348.89112 | pgbench_accounts |      13661978624
 2017-02-06 18:32:28.891124+01 | 1486402348.89112 | pgbench_tellers  |         10174464
 2017-02-06 18:32:28.891124+01 | 1486402348.89112 | pgbench_history  |        149471232
 2017-02-06 18:32:28.891124+01 | 1486402348.89112 | pgbench_branches |          7421952

 2017-02-06 18:32:29.976627+01 | 1486402349.97663 | pgbench_accounts |      13661978624
 2017-02-06 18:32:29.976627+01 | 1486402349.97663 | pgbench_tellers  |         10174464
 2017-02-06 18:32:29.976627+01 | 1486402349.97663 | pgbench_history  |        151076864
 2017-02-06 18:32:29.976627+01 | 1486402349.97663 | pgbench_branches |          7421952

 2017-02-06 18:32:31.060121+01 | 1486402351.06012 | pgbench_accounts |      13661978624
 2017-02-06 18:32:31.060121+01 | 1486402351.06012 | pgbench_tellers  |         10174464
 2017-02-06 18:32:31.060121+01 | 1486402351.06012 | pgbench_history  |        151920640
 2017-02-06 18:32:31.060121+01 | 1486402351.06012 | pgbench_branches |          7421952

 2017-02-06 18:32:32.146905+01 | 1486402352.1469 | pgbench_accounts |      13661978624
 2017-02-06 18:32:32.146905+01 | 1486402352.1469 | pgbench_tellers  |         10174464
 2017-02-06 18:32:32.146905+01 | 1486402352.1469 | pgbench_history  |        153133056
 2017-02-06 18:32:32.146905+01 | 1486402352.1469 | pgbench_branches |          7421952

 2017-02-06 18:32:33.233914+01 | 1486402353.23391 | pgbench_accounts |      13661978624
 2017-02-06 18:32:33.233914+01 | 1486402353.23391 | pgbench_tellers  |         10174464
 2017-02-06 18:32:33.233914+01 | 1486402353.23391 | pgbench_history  |        154214400
 2017-02-06 18:32:33.233914+01 | 1486402353.23391 | pgbench_branches |          7421952

 2017-02-06 18:32:34.315075+01 | 1486402354.31507 | pgbench_accounts |      13661978624
 2017-02-06 18:32:34.315075+01 | 1486402354.31507 | pgbench_tellers  |         10174464
 2017-02-06 18:32:34.315075+01 | 1486402354.31507 | pgbench_history  |        155443200
 2017-02-06 18:32:34.315075+01 | 1486402354.31507 | pgbench_branches |          7421952

 2017-02-06 18:32:35.399521+01 | 1486402355.39952 | pgbench_accounts |      13661978624
 2017-02-06 18:32:35.399521+01 | 1486402355.39952 | pgbench_tellers  |         10174464
 2017-02-06 18:32:35.399521+01 | 1486402355.39952 | pgbench_history  |        156180480
 2017-02-06 18:32:35.399521+01 | 1486402355.39952 | pgbench_branches |          7421952

 2017-02-06 18:32:36.479122+01 | 1486402356.47912 | pgbench_accounts |      13661978624
 2017-02-06 18:32:36.479122+01 | 1486402356.47912 | pgbench_tellers  |         10174464
 2017-02-06 18:32:36.479122+01 | 1486402356.47912 | pgbench_history  |        157188096
 2017-02-06 18:32:36.479122+01 | 1486402356.47912 | pgbench_branches |          7421952

 2017-02-06 18:32:37.565601+01 | 1486402357.5656 | pgbench_accounts |      13661978624
 2017-02-06 18:32:37.565601+01 | 1486402357.5656 | pgbench_tellers  |         10174464
 2017-02-06 18:32:37.565601+01 | 1486402357.5656 | pgbench_history  |        158220288
 2017-02-06 18:32:37.565601+01 | 1486402357.5656 | pgbench_branches |          7421952

 2017-02-06 18:32:38.651078+01 | 1486402358.65108 | pgbench_accounts |      13661978624
 2017-02-06 18:32:38.651078+01 | 1486402358.65108 | pgbench_tellers  |         10174464
 2017-02-06 18:32:38.651078+01 | 1486402358.65108 | pgbench_history  |        159113216
 2017-02-06 18:32:38.651078+01 | 1486402358.65108 | pgbench_branches |          7421952

 2017-02-06 18:32:39.73707+01 | 1486402359.73707 | pgbench_accounts |      13661978624
 2017-02-06 18:32:39.73707+01 | 1486402359.73707 | pgbench_tellers  |         10174464
 2017-02-06 18:32:39.73707+01 | 1486402359.73707 | pgbench_history  |        160309248
 2017-02-06 18:32:39.73707+01 | 1486402359.73707 | pgbench_branches |          7421952

 2017-02-06 18:32:40.809179+01 | 1486402360.80918 | pgbench_accounts |      13661978624
 2017-02-06 18:32:40.809179+01 | 1486402360.80918 | pgbench_tellers  |         10174464
 2017-02-06 18:32:40.809179+01 | 1486402360.80918 | pgbench_history  |        161439744
 2017-02-06 18:32:40.809179+01 | 1486402360.80918 | pgbench_branches |          7421952

 2017-02-06 18:32:41.880178+01 | 1486402361.88018 | pgbench_accounts |      13661978624
 2017-02-06 18:32:41.880178+01 | 1486402361.88018 | pgbench_tellers  |         10174464
 2017-02-06 18:32:41.880178+01 | 1486402361.88018 | pgbench_history  |        162496512
 2017-02-06 18:32:41.880178+01 | 1486402361.88018 | pgbench_branches |          7421952

 2017-02-06 18:32:42.951701+01 | 1486402362.9517 | pgbench_accounts |      13661978624
 2017-02-06 18:32:42.951701+01 | 1486402362.9517 | pgbench_tellers  |         10174464
 2017-02-06 18:32:42.951701+01 | 1486402362.9517 | pgbench_history  |        163618816
 2017-02-06 18:32:42.951701+01 | 1486402362.9517 | pgbench_branches |          7421952

 2017-02-06 18:32:44.03012+01 | 1486402364.03012 | pgbench_accounts |      13661978624
 2017-02-06 18:32:44.03012+01 | 1486402364.03012 | pgbench_tellers  |         10174464
 2017-02-06 18:32:44.03012+01 | 1486402364.03012 | pgbench_history  |        165019648
 2017-02-06 18:32:44.03012+01 | 1486402364.03012 | pgbench_branches |          7421952

 2017-02-06 18:32:45.101848+01 | 1486402365.10185 | pgbench_accounts |      13661978624
 2017-02-06 18:32:45.101848+01 | 1486402365.10185 | pgbench_tellers  |         10174464
 2017-02-06 18:32:45.101848+01 | 1486402365.10185 | pgbench_history  |        166109184
 2017-02-06 18:32:45.101848+01 | 1486402365.10185 | pgbench_branches |          7421952

 2017-02-06 18:32:46.186189+01 | 1486402366.18619 | pgbench_accounts |      13661978624
 2017-02-06 18:32:46.186189+01 | 1486402366.18619 | pgbench_tellers  |         10174464
 2017-02-06 18:32:46.186189+01 | 1486402366.18619 | pgbench_history  |        167043072
 2017-02-06 18:32:46.186189+01 | 1486402366.18619 | pgbench_branches |          7421952

 2017-02-06 18:32:47.279141+01 | 1486402367.27914 | pgbench_accounts |      13661978624
 2017-02-06 18:32:47.279141+01 | 1486402367.27914 | pgbench_tellers  |         10174464
 2017-02-06 18:32:47.279141+01 | 1486402367.27914 | pgbench_history  |        168239104
 2017-02-06 18:32:47.279141+01 | 1486402367.27914 | pgbench_branches |          7421952

 2017-02-06 18:32:48.360746+01 | 1486402368.36075 | pgbench_accounts |      13661978624
 2017-02-06 18:32:48.360746+01 | 1486402368.36075 | pgbench_tellers  |         10174464
 2017-02-06 18:32:48.360746+01 | 1486402368.36075 | pgbench_history  |        169140224
 2017-02-06 18:32:48.360746+01 | 1486402368.36075 | pgbench_branches |          7421952

 2017-02-06 18:32:49.446671+01 | 1486402369.44667 | pgbench_accounts |      13661978624
 2017-02-06 18:32:49.446671+01 | 1486402369.44667 | pgbench_tellers  |         10174464
 2017-02-06 18:32:49.446671+01 | 1486402369.44667 | pgbench_history  |        170573824
 2017-02-06 18:32:49.446671+01 | 1486402369.44667 | pgbench_branches |          7421952

 2017-02-06 18:32:50.52589+01 | 1486402370.52589 | pgbench_accounts |      13661978624
 2017-02-06 18:32:50.52589+01 | 1486402370.52589 | pgbench_tellers  |         10174464
 2017-02-06 18:32:50.52589+01 | 1486402370.52589 | pgbench_history  |        173129728
 2017-02-06 18:32:50.52589+01 | 1486402370.52589 | pgbench_branches |          7421952

 2017-02-06 18:32:51.610756+01 | 1486402371.61076 | pgbench_accounts |      13661978624
 2017-02-06 18:32:51.610756+01 | 1486402371.61076 | pgbench_tellers  |         10174464
 2017-02-06 18:32:51.610756+01 | 1486402371.61076 | pgbench_history  |        173129728
 2017-02-06 18:32:51.610756+01 | 1486402371.61076 | pgbench_branches |          7421952

 2017-02-06 18:32:52.692238+01 | 1486402372.69224 | pgbench_accounts |      13661978624
 2017-02-06 18:32:52.692238+01 | 1486402372.69224 | pgbench_tellers  |         10174464
 2017-02-06 18:32:52.692238+01 | 1486402372.69224 | pgbench_history  |        174006272
 2017-02-06 18:32:52.692238+01 | 1486402372.69224 | pgbench_branches |          7421952

 2017-02-06 18:32:53.771164+01 | 1486402373.77116 | pgbench_accounts |      13661978624
 2017-02-06 18:32:53.771164+01 | 1486402373.77116 | pgbench_tellers  |         10174464
 2017-02-06 18:32:53.771164+01 | 1486402373.77116 | pgbench_history  |        175751168
 2017-02-06 18:32:53.771164+01 | 1486402373.77116 | pgbench_branches |          7421952

 2017-02-06 18:32:54.861074+01 | 1486402374.86107 | pgbench_accounts |      13661978624
 2017-02-06 18:32:54.861074+01 | 1486402374.86107 | pgbench_tellers  |         10174464
 2017-02-06 18:32:54.861074+01 | 1486402374.86107 | pgbench_history  |        176504832
 2017-02-06 18:32:54.861074+01 | 1486402374.86107 | pgbench_branches |          7421952

 2017-02-06 18:32:55.937803+01 | 1486402375.9378 | pgbench_accounts |      13661978624
 2017-02-06 18:32:55.937803+01 | 1486402375.9378 | pgbench_tellers  |         10174464
 2017-02-06 18:32:55.937803+01 | 1486402375.9378 | pgbench_history  |        178479104
 2017-02-06 18:32:55.937803+01 | 1486402375.9378 | pgbench_branches |          7421952

 2017-02-06 18:32:57.014788+01 | 1486402377.01479 | pgbench_accounts |      13661978624
 2017-02-06 18:32:57.014788+01 | 1486402377.01479 | pgbench_tellers  |         10174464
 2017-02-06 18:32:57.014788+01 | 1486402377.01479 | pgbench_history  |        178831360
 2017-02-06 18:32:57.014788+01 | 1486402377.01479 | pgbench_branches |          7421952

 2017-02-06 18:32:58.094745+01 | 1486402378.09474 | pgbench_accounts |      13661978624
 2017-02-06 18:32:58.094745+01 | 1486402378.09474 | pgbench_tellers  |         10174464
 2017-02-06 18:32:58.094745+01 | 1486402378.09474 | pgbench_history  |        180264960
 2017-02-06 18:32:58.094745+01 | 1486402378.09474 | pgbench_branches |          7421952

 2017-02-06 18:32:59.171644+01 | 1486402379.17164 | pgbench_accounts |      13661978624
 2017-02-06 18:32:59.171644+01 | 1486402379.17164 | pgbench_tellers  |         10174464
 2017-02-06 18:32:59.171644+01 | 1486402379.17164 | pgbench_history  |        181141504
 2017-02-06 18:32:59.171644+01 | 1486402379.17164 | pgbench_branches |          7421952

 2017-02-06 18:33:00.247949+01 | 1486402380.24795 | pgbench_accounts |      13661978624
 2017-02-06 18:33:00.247949+01 | 1486402380.24795 | pgbench_tellers  |         10174464
 2017-02-06 18:33:00.247949+01 | 1486402380.24795 | pgbench_history  |        182157312
 2017-02-06 18:33:00.247949+01 | 1486402380.24795 | pgbench_branches |          7421952

 2017-02-06 18:33:01.316338+01 | 1486402381.31634 | pgbench_accounts |      13661978624
 2017-02-06 18:33:01.316338+01 | 1486402381.31634 | pgbench_tellers  |         10174464
 2017-02-06 18:33:01.316338+01 | 1486402381.31634 | pgbench_history  |        183058432
 2017-02-06 18:33:01.316338+01 | 1486402381.31634 | pgbench_branches |          7421952

 2017-02-06 18:33:02.389568+01 | 1486402382.38957 | pgbench_accounts |      13661978624
 2017-02-06 18:33:02.389568+01 | 1486402382.38957 | pgbench_tellers  |         10174464
 2017-02-06 18:33:02.389568+01 | 1486402382.38957 | pgbench_history  |        184320000
 2017-02-06 18:33:02.389568+01 | 1486402382.38957 | pgbench_branches |          7421952

 2017-02-06 18:33:03.475045+01 | 1486402383.47504 | pgbench_accounts |      13661978624
 2017-02-06 18:33:03.475045+01 | 1486402383.47504 | pgbench_tellers  |         10174464
 2017-02-06 18:33:03.475045+01 | 1486402383.47504 | pgbench_history  |        185843712
 2017-02-06 18:33:03.475045+01 | 1486402383.47504 | pgbench_branches |          7421952

 2017-02-06 18:33:04.544587+01 | 1486402384.54459 | pgbench_accounts |      13661978624
 2017-02-06 18:33:04.544587+01 | 1486402384.54459 | pgbench_tellers  |         10174464
 2017-02-06 18:33:04.544587+01 | 1486402384.54459 | pgbench_history  |        186523648
 2017-02-06 18:33:04.544587+01 | 1486402384.54459 | pgbench_branches |          7421952

 2017-02-06 18:33:05.620132+01 | 1486402385.62013 | pgbench_accounts |      13661978624
 2017-02-06 18:33:05.620132+01 | 1486402385.62013 | pgbench_tellers  |         10174464
 2017-02-06 18:33:05.620132+01 | 1486402385.62013 | pgbench_history  |        187932672
 2017-02-06 18:33:05.620132+01 | 1486402385.62013 | pgbench_branches |          7421952

 2017-02-06 18:33:06.701761+01 | 1486402386.70176 | pgbench_accounts |      13661978624
 2017-02-06 18:33:06.701761+01 | 1486402386.70176 | pgbench_tellers  |         10174464
 2017-02-06 18:33:06.701761+01 | 1486402386.70176 | pgbench_history  |        188784640
 2017-02-06 18:33:06.701761+01 | 1486402386.70176 | pgbench_branches |          7421952

 2017-02-06 18:33:07.785595+01 | 1486402387.78559 | pgbench_accounts |      13661978624
 2017-02-06 18:33:07.785595+01 | 1486402387.78559 | pgbench_tellers  |         10174464
 2017-02-06 18:33:07.785595+01 | 1486402387.78559 | pgbench_history  |        190038016
 2017-02-06 18:33:07.785595+01 | 1486402387.78559 | pgbench_branches |          7421952

 2017-02-06 18:33:08.857773+01 | 1486402388.85777 | pgbench_accounts |      13661978624
 2017-02-06 18:33:08.857773+01 | 1486402388.85777 | pgbench_tellers  |         10174464
 2017-02-06 18:33:08.857773+01 | 1486402388.85777 | pgbench_history  |        191758336
 2017-02-06 18:33:08.857773+01 | 1486402388.85777 | pgbench_branches |          7421952

 2017-02-06 18:33:09.929537+01 | 1486402389.92954 | pgbench_accounts |      13661978624
 2017-02-06 18:33:09.929537+01 | 1486402389.92954 | pgbench_tellers  |         10174464
 2017-02-06 18:33:09.929537+01 | 1486402389.92954 | pgbench_history  |        192495616
 2017-02-06 18:33:09.929537+01 | 1486402389.92954 | pgbench_branches |          7421952

 2017-02-06 18:33:11.007364+01 | 1486402391.00736 | pgbench_accounts |      13661978624
 2017-02-06 18:33:11.007364+01 | 1486402391.00736 | pgbench_tellers  |         10174464
 2017-02-06 18:33:11.007364+01 | 1486402391.00736 | pgbench_history  |        193798144
 2017-02-06 18:33:11.007364+01 | 1486402391.00736 | pgbench_branches |          7421952

 2017-02-06 18:33:12.082503+01 | 1486402392.0825 | pgbench_accounts |      13661978624
 2017-02-06 18:33:12.082503+01 | 1486402392.0825 | pgbench_tellers  |         10174464
 2017-02-06 18:33:12.082503+01 | 1486402392.0825 | pgbench_history  |        196009984
 2017-02-06 18:33:12.082503+01 | 1486402392.0825 | pgbench_branches |          7421952

 2017-02-06 18:33:13.160668+01 | 1486402393.16067 | pgbench_accounts |      13661978624
 2017-02-06 18:33:13.160668+01 | 1486402393.16067 | pgbench_tellers  |         10174464
 2017-02-06 18:33:13.160668+01 | 1486402393.16067 | pgbench_history  |        196009984
 2017-02-06 18:33:13.160668+01 | 1486402393.16067 | pgbench_branches |          7421952

 2017-02-06 18:33:14.24022+01 | 1486402394.24022 | pgbench_accounts |      13661978624
 2017-02-06 18:33:14.24022+01 | 1486402394.24022 | pgbench_tellers  |         10174464
 2017-02-06 18:33:14.24022+01 | 1486402394.24022 | pgbench_history  |        197419008
 2017-02-06 18:33:14.24022+01 | 1486402394.24022 | pgbench_branches |          7421952

 2017-02-06 18:33:15.31601+01 | 1486402395.31601 | pgbench_accounts |      13661978624
 2017-02-06 18:33:15.31601+01 | 1486402395.31601 | pgbench_tellers  |         10174464
 2017-02-06 18:33:15.31601+01 | 1486402395.31601 | pgbench_history  |        198483968
 2017-02-06 18:33:15.31601+01 | 1486402395.31601 | pgbench_branches |          7421952

 2017-02-06 18:33:16.394103+01 | 1486402396.3941 | pgbench_accounts |      13661978624
 2017-02-06 18:33:16.394103+01 | 1486402396.3941 | pgbench_tellers  |         10174464
 2017-02-06 18:33:16.394103+01 | 1486402396.3941 | pgbench_history  |        199720960
 2017-02-06 18:33:16.394103+01 | 1486402396.3941 | pgbench_branches |          7421952

 2017-02-06 18:33:17.460306+01 | 1486402397.46031 | pgbench_accounts |      13661978624
 2017-02-06 18:33:17.460306+01 | 1486402397.46031 | pgbench_tellers  |         10174464
 2017-02-06 18:33:17.460306+01 | 1486402397.46031 | pgbench_history  |        201293824
 2017-02-06 18:33:17.460306+01 | 1486402397.46031 | pgbench_branches |          7421952

 2017-02-06 18:33:18.554764+01 | 1486402398.55476 | pgbench_accounts |      13661978624
 2017-02-06 18:33:18.554764+01 | 1486402398.55476 | pgbench_tellers  |         10174464
 2017-02-06 18:33:18.554764+01 | 1486402398.55476 | pgbench_history  |        202489856
 2017-02-06 18:33:18.554764+01 | 1486402398.55476 | pgbench_branches |          7421952

 2017-02-06 18:33:19.640074+01 | 1486402399.64007 | pgbench_accounts |      13661978624
 2017-02-06 18:33:19.640074+01 | 1486402399.64007 | pgbench_tellers  |         10174464
 2017-02-06 18:33:19.640074+01 | 1486402399.64007 | pgbench_history  |        203563008
 2017-02-06 18:33:19.640074+01 | 1486402399.64007 | pgbench_branches |          7421952

 2017-02-06 18:33:20.723071+01 | 1486402400.72307 | pgbench_accounts |      13661978624
 2017-02-06 18:33:20.723071+01 | 1486402400.72307 | pgbench_tellers  |         10174464
 2017-02-06 18:33:20.723071+01 | 1486402400.72307 | pgbench_history  |        204922880
 2017-02-06 18:33:20.723071+01 | 1486402400.72307 | pgbench_branches |          7421952

 2017-02-06 18:33:21.804669+01 | 1486402401.80467 | pgbench_accounts |      13661978624
 2017-02-06 18:33:21.804669+01 | 1486402401.80467 | pgbench_tellers  |         10174464
 2017-02-06 18:33:21.804669+01 | 1486402401.80467 | pgbench_history  |        205971456
 2017-02-06 18:33:21.804669+01 | 1486402401.80467 | pgbench_branches |          7421952

 2017-02-06 18:33:22.880434+01 | 1486402402.88043 | pgbench_accounts |      13661978624
 2017-02-06 18:33:22.880434+01 | 1486402402.88043 | pgbench_tellers  |         10174464
 2017-02-06 18:33:22.880434+01 | 1486402402.88043 | pgbench_history  |        207200256
 2017-02-06 18:33:22.880434+01 | 1486402402.88043 | pgbench_branches |          7421952

 2017-02-06 18:33:23.961053+01 | 1486402403.96105 | pgbench_accounts |      13661978624
 2017-02-06 18:33:23.961053+01 | 1486402403.96105 | pgbench_tellers  |         10174464
 2017-02-06 18:33:23.961053+01 | 1486402403.96105 | pgbench_history  |        208306176
 2017-02-06 18:33:23.961053+01 | 1486402403.96105 | pgbench_branches |          7421952

 2017-02-06 18:33:25.039351+01 | 1486402405.03935 | pgbench_accounts |      13661978624
 2017-02-06 18:33:25.039351+01 | 1486402405.03935 | pgbench_tellers  |         10174464
 2017-02-06 18:33:25.039351+01 | 1486402405.03935 | pgbench_history  |        209526784
 2017-02-06 18:33:25.039351+01 | 1486402405.03935 | pgbench_branches |          7421952

 2017-02-06 18:33:26.115084+01 | 1486402406.11508 | pgbench_accounts |      13661978624
 2017-02-06 18:33:26.115084+01 | 1486402406.11508 | pgbench_tellers  |         10174464
 2017-02-06 18:33:26.115084+01 | 1486402406.11508 | pgbench_history  |        210632704
 2017-02-06 18:33:26.115084+01 | 1486402406.11508 | pgbench_branches |          7421952

 2017-02-06 18:33:27.201778+01 | 1486402407.20178 | pgbench_accounts |      13661978624
 2017-02-06 18:33:27.201778+01 | 1486402407.20178 | pgbench_tellers  |         10174464
 2017-02-06 18:33:27.201778+01 | 1486402407.20178 | pgbench_history  |        212262912
 2017-02-06 18:33:27.201778+01 | 1486402407.20178 | pgbench_branches |          7421952

 2017-02-06 18:33:28.291871+01 | 1486402408.29187 | pgbench_accounts |      13661978624
 2017-02-06 18:33:28.291871+01 | 1486402408.29187 | pgbench_tellers  |         10174464
 2017-02-06 18:33:28.291871+01 | 1486402408.29187 | pgbench_history  |        213491712
 2017-02-06 18:33:28.291871+01 | 1486402408.29187 | pgbench_branches |          7421952

 2017-02-06 18:33:29.374678+01 | 1486402409.37468 | pgbench_accounts |      13661978624
 2017-02-06 18:33:29.374678+01 | 1486402409.37468 | pgbench_tellers  |         10174464
 2017-02-06 18:33:29.374678+01 | 1486402409.37468 | pgbench_history  |        214360064
 2017-02-06 18:33:29.374678+01 | 1486402409.37468 | pgbench_branches |          7421952

 2017-02-06 18:33:30.463047+01 | 1486402410.46305 | pgbench_accounts |      13661978624
 2017-02-06 18:33:30.463047+01 | 1486402410.46305 | pgbench_tellers  |         10174464
 2017-02-06 18:33:30.463047+01 | 1486402410.46305 | pgbench_history  |        215752704
 2017-02-06 18:33:30.463047+01 | 1486402410.46305 | pgbench_branches |          7421952

 2017-02-06 18:33:31.54551+01 | 1486402411.54551 | pgbench_accounts |      13661978624
 2017-02-06 18:33:31.54551+01 | 1486402411.54551 | pgbench_tellers  |         10174464
 2017-02-06 18:33:31.54551+01 | 1486402411.54551 | pgbench_history  |        216596480
 2017-02-06 18:33:31.54551+01 | 1486402411.54551 | pgbench_branches |          7421952

 2017-02-06 18:33:32.61409+01 | 1486402412.61409 | pgbench_accounts |      13661978624
 2017-02-06 18:33:32.61409+01 | 1486402412.61409 | pgbench_tellers  |         10174464
 2017-02-06 18:33:32.61409+01 | 1486402412.61409 | pgbench_history  |        217800704
 2017-02-06 18:33:32.61409+01 | 1486402412.61409 | pgbench_branches |          7421952

 2017-02-06 18:33:33.703471+01 | 1486402413.70347 | pgbench_accounts |      13661978624
 2017-02-06 18:33:33.703471+01 | 1486402413.70347 | pgbench_tellers  |         10174464
 2017-02-06 18:33:33.703471+01 | 1486402413.70347 | pgbench_history  |        219332608
 2017-02-06 18:33:33.703471+01 | 1486402413.70347 | pgbench_branches |          7421952

 2017-02-06 18:33:34.788218+01 | 1486402414.78822 | pgbench_accounts |      13661978624
 2017-02-06 18:33:34.788218+01 | 1486402414.78822 | pgbench_tellers  |         10174464
 2017-02-06 18:33:34.788218+01 | 1486402414.78822 | pgbench_history  |        221700096
 2017-02-06 18:33:34.788218+01 | 1486402414.78822 | pgbench_branches |          7421952

 2017-02-06 18:33:35.859887+01 | 1486402415.85989 | pgbench_accounts |      13661978624
 2017-02-06 18:33:35.859887+01 | 1486402415.85989 | pgbench_tellers  |         10174464
 2017-02-06 18:33:35.859887+01 | 1486402415.85989 | pgbench_history  |        221700096
 2017-02-06 18:33:35.859887+01 | 1486402415.85989 | pgbench_branches |          7421952

 2017-02-06 18:33:36.93294+01 | 1486402416.93294 | pgbench_accounts |      13661978624
 2017-02-06 18:33:36.93294+01 | 1486402416.93294 | pgbench_tellers  |         10174464
 2017-02-06 18:33:36.93294+01 | 1486402416.93294 | pgbench_history  |        223313920
 2017-02-06 18:33:36.93294+01 | 1486402416.93294 | pgbench_branches |          7421952

 2017-02-06 18:33:38.013152+01 | 1486402418.01315 | pgbench_accounts |      13661978624
 2017-02-06 18:33:38.013152+01 | 1486402418.01315 | pgbench_tellers  |         10174464
 2017-02-06 18:33:38.013152+01 | 1486402418.01315 | pgbench_history  |        224157696
 2017-02-06 18:33:38.013152+01 | 1486402418.01315 | pgbench_branches |          7421952

 2017-02-06 18:33:39.092595+01 | 1486402419.0926 | pgbench_accounts |      13661978624
 2017-02-06 18:33:39.092595+01 | 1486402419.0926 | pgbench_tellers  |         10174464
 2017-02-06 18:33:39.092595+01 | 1486402419.0926 | pgbench_history  |        225517568
 2017-02-06 18:33:39.092595+01 | 1486402419.0926 | pgbench_branches |          7421952

 2017-02-06 18:33:40.158653+01 | 1486402420.15865 | pgbench_accounts |      13661978624
 2017-02-06 18:33:40.158653+01 | 1486402420.15865 | pgbench_tellers  |         10174464
 2017-02-06 18:33:40.158653+01 | 1486402420.15865 | pgbench_history  |        226451456
 2017-02-06 18:33:40.158653+01 | 1486402420.15865 | pgbench_branches |          7421952

 2017-02-06 18:33:41.229607+01 | 1486402421.22961 | pgbench_accounts |      13661978624
 2017-02-06 18:33:41.229607+01 | 1486402421.22961 | pgbench_tellers  |         10174464
 2017-02-06 18:33:41.229607+01 | 1486402421.22961 | pgbench_history  |        227852288
 2017-02-06 18:33:41.229607+01 | 1486402421.22961 | pgbench_branches |          7421952

 2017-02-06 18:33:42.291044+01 | 1486402422.29104 | pgbench_accounts |      13661978624
 2017-02-06 18:33:42.291044+01 | 1486402422.29104 | pgbench_tellers  |         10174464
 2017-02-06 18:33:42.291044+01 | 1486402422.29104 | pgbench_history  |        228720640
 2017-02-06 18:33:42.291044+01 | 1486402422.29104 | pgbench_branches |          7421952

 2017-02-06 18:33:43.373802+01 | 1486402423.3738 | pgbench_accounts |      13661978624
 2017-02-06 18:33:43.373802+01 | 1486402423.3738 | pgbench_tellers  |         10174464
 2017-02-06 18:33:43.373802+01 | 1486402423.3738 | pgbench_history  |        230105088
 2017-02-06 18:33:43.373802+01 | 1486402423.3738 | pgbench_branches |          7421952

 2017-02-06 18:33:44.454617+01 | 1486402424.45462 | pgbench_accounts |      13661978624
 2017-02-06 18:33:44.454617+01 | 1486402424.45462 | pgbench_tellers  |         10174464
 2017-02-06 18:33:44.454617+01 | 1486402424.45462 | pgbench_history  |        231161856
 2017-02-06 18:33:44.454617+01 | 1486402424.45462 | pgbench_branches |          7421952

 2017-02-06 18:33:45.544157+01 | 1486402425.54416 | pgbench_accounts |      13661978624
 2017-02-06 18:33:45.544157+01 | 1486402425.54416 | pgbench_tellers  |         10174464
 2017-02-06 18:33:45.544157+01 | 1486402425.54416 | pgbench_history  |        232194048
 2017-02-06 18:33:45.544157+01 | 1486402425.54416 | pgbench_branches |          7421952

 2017-02-06 18:33:46.631474+01 | 1486402426.63147 | pgbench_accounts |      13661978624
 2017-02-06 18:33:46.631474+01 | 1486402426.63147 | pgbench_tellers  |         10174464
 2017-02-06 18:33:46.631474+01 | 1486402426.63147 | pgbench_history  |        233144320
 2017-02-06 18:33:46.631474+01 | 1486402426.63147 | pgbench_branches |          7421952

 2017-02-06 18:33:47.703721+01 | 1486402427.70372 | pgbench_accounts |      13661978624
 2017-02-06 18:33:47.703721+01 | 1486402427.70372 | pgbench_tellers  |         10174464
 2017-02-06 18:33:47.703721+01 | 1486402427.70372 | pgbench_history  |        234086400
 2017-02-06 18:33:47.703721+01 | 1486402427.70372 | pgbench_branches |          7421952

 2017-02-06 18:33:48.769369+01 | 1486402428.76937 | pgbench_accounts |      13661978624
 2017-02-06 18:33:48.769369+01 | 1486402428.76937 | pgbench_tellers  |         10174464
 2017-02-06 18:33:48.769369+01 | 1486402428.76937 | pgbench_history  |        234954752
 2017-02-06 18:33:48.769369+01 | 1486402428.76937 | pgbench_branches |          7421952

 2017-02-06 18:33:49.847566+01 | 1486402429.84757 | pgbench_accounts |      13661978624
 2017-02-06 18:33:49.847566+01 | 1486402429.84757 | pgbench_tellers  |         10174464
 2017-02-06 18:33:49.847566+01 | 1486402429.84757 | pgbench_history  |        236191744
 2017-02-06 18:33:49.847566+01 | 1486402429.84757 | pgbench_branches |          7421952

 2017-02-06 18:33:50.929166+01 | 1486402430.92917 | pgbench_accounts |      13661978624
 2017-02-06 18:33:50.929166+01 | 1486402430.92917 | pgbench_tellers  |         10174464
 2017-02-06 18:33:50.929166+01 | 1486402430.92917 | pgbench_history  |        237617152
 2017-02-06 18:33:50.929166+01 | 1486402430.92917 | pgbench_branches |          7421952

 2017-02-06 18:33:52.008827+01 | 1486402432.00883 | pgbench_accounts |      13661978624
 2017-02-06 18:33:52.008827+01 | 1486402432.00883 | pgbench_tellers  |         10174464
 2017-02-06 18:33:52.008827+01 | 1486402432.00883 | pgbench_history  |        238501888
 2017-02-06 18:33:52.008827+01 | 1486402432.00883 | pgbench_branches |          7421952

 2017-02-06 18:33:53.087278+01 | 1486402433.08728 | pgbench_accounts |      13661978624
 2017-02-06 18:33:53.087278+01 | 1486402433.08728 | pgbench_tellers  |         10174464
 2017-02-06 18:33:53.087278+01 | 1486402433.08728 | pgbench_history  |        239378432
 2017-02-06 18:33:53.087278+01 | 1486402433.08728 | pgbench_branches |          7421952

 2017-02-06 18:33:54.162145+01 | 1486402434.16214 | pgbench_accounts |      13661978624
 2017-02-06 18:33:54.162145+01 | 1486402434.16214 | pgbench_tellers  |         10174464
 2017-02-06 18:33:54.162145+01 | 1486402434.16214 | pgbench_history  |        240574464
 2017-02-06 18:33:54.162145+01 | 1486402434.16214 | pgbench_branches |          7421952

 2017-02-06 18:33:55.234202+01 | 1486402435.2342 | pgbench_accounts |      13661978624
 2017-02-06 18:33:55.234202+01 | 1486402435.2342 | pgbench_tellers  |         10174464
 2017-02-06 18:33:55.234202+01 | 1486402435.2342 | pgbench_history  |        241811456
 2017-02-06 18:33:55.234202+01 | 1486402435.2342 | pgbench_branches |          7421952

 2017-02-06 18:33:56.313681+01 | 1486402436.31368 | pgbench_accounts |      13661978624
 2017-02-06 18:33:56.313681+01 | 1486402436.31368 | pgbench_tellers  |         10174464
 2017-02-06 18:33:56.313681+01 | 1486402436.31368 | pgbench_history  |        242958336
 2017-02-06 18:33:56.313681+01 | 1486402436.31368 | pgbench_branches |          7421952

 2017-02-06 18:33:57.396178+01 | 1486402437.39618 | pgbench_accounts |      13661978624
 2017-02-06 18:33:57.396178+01 | 1486402437.39618 | pgbench_tellers  |         10174464
 2017-02-06 18:33:57.396178+01 | 1486402437.39618 | pgbench_history  |        244318208
 2017-02-06 18:33:57.396178+01 | 1486402437.39618 | pgbench_branches |          7421952

 2017-02-06 18:33:58.47745+01 | 1486402438.47745 | pgbench_accounts |      13661978624
 2017-02-06 18:33:58.47745+01 | 1486402438.47745 | pgbench_tellers  |         10174464
 2017-02-06 18:33:58.47745+01 | 1486402438.47745 | pgbench_history  |        245391360
 2017-02-06 18:33:58.47745+01 | 1486402438.47745 | pgbench_branches |          7421952

 2017-02-06 18:33:59.569097+01 | 1486402439.5691 | pgbench_accounts |      13661978624
 2017-02-06 18:33:59.569097+01 | 1486402439.5691 | pgbench_tellers  |         10174464
 2017-02-06 18:33:59.569097+01 | 1486402439.5691 | pgbench_history  |        247488512
 2017-02-06 18:33:59.569097+01 | 1486402439.5691 | pgbench_branches |          7421952

 2017-02-06 18:34:00.658254+01 | 1486402440.65825 | pgbench_accounts |      13661978624
 2017-02-06 18:34:00.658254+01 | 1486402440.65825 | pgbench_tellers  |         10174464
 2017-02-06 18:34:00.658254+01 | 1486402440.65825 | pgbench_history  |        248004608
 2017-02-06 18:34:00.658254+01 | 1486402440.65825 | pgbench_branches |          7421952

 2017-02-06 18:34:01.746759+01 | 1486402441.74676 | pgbench_accounts |      13661978624
 2017-02-06 18:34:01.746759+01 | 1486402441.74676 | pgbench_tellers  |         10174464
 2017-02-06 18:34:01.746759+01 | 1486402441.74676 | pgbench_history  |        249274368
 2017-02-06 18:34:01.746759+01 | 1486402441.74676 | pgbench_branches |          7421952

 2017-02-06 18:34:02.819481+01 | 1486402442.81948 | pgbench_accounts |      13661978624
 2017-02-06 18:34:02.819481+01 | 1486402442.81948 | pgbench_tellers  |         10174464
 2017-02-06 18:34:02.819481+01 | 1486402442.81948 | pgbench_history  |        250470400
 2017-02-06 18:34:02.819481+01 | 1486402442.81948 | pgbench_branches |          7421952

 2017-02-06 18:34:03.895173+01 | 1486402443.89517 | pgbench_accounts |      13661978624
 2017-02-06 18:34:03.895173+01 | 1486402443.89517 | pgbench_tellers  |         10174464
 2017-02-06 18:34:03.895173+01 | 1486402443.89517 | pgbench_history  |        251863040
 2017-02-06 18:34:03.895173+01 | 1486402443.89517 | pgbench_branches |          7421952

 2017-02-06 18:34:04.973619+01 | 1486402444.97362 | pgbench_accounts |      13661978624
 2017-02-06 18:34:04.973619+01 | 1486402444.97362 | pgbench_tellers  |         10174464
 2017-02-06 18:34:04.973619+01 | 1486402444.97362 | pgbench_history  |        252575744
 2017-02-06 18:34:04.973619+01 | 1486402444.97362 | pgbench_branches |          7421952

 2017-02-06 18:34:06.053178+01 | 1486402446.05318 | pgbench_accounts |      13661978624
 2017-02-06 18:34:06.053178+01 | 1486402446.05318 | pgbench_tellers  |         10174464
 2017-02-06 18:34:06.053178+01 | 1486402446.05318 | pgbench_history  |        254607360
 2017-02-06 18:34:06.053178+01 | 1486402446.05318 | pgbench_branches |          7421952

 2017-02-06 18:34:07.127784+01 | 1486402447.12778 | pgbench_accounts |      13661978624
 2017-02-06 18:34:07.127784+01 | 1486402447.12778 | pgbench_tellers  |         10174464
 2017-02-06 18:34:07.127784+01 | 1486402447.12778 | pgbench_history  |        255320064
 2017-02-06 18:34:07.127784+01 | 1486402447.12778 | pgbench_branches |          7421952

 2017-02-06 18:34:08.19891+01 | 1486402448.19891 | pgbench_accounts |      13661978624
 2017-02-06 18:34:08.19891+01 | 1486402448.19891 | pgbench_tellers  |         10174464
 2017-02-06 18:34:08.19891+01 | 1486402448.19891 | pgbench_history  |        256409600
 2017-02-06 18:34:08.19891+01 | 1486402448.19891 | pgbench_branches |          7421952

 2017-02-06 18:34:09.279721+01 | 1486402449.27972 | pgbench_accounts |      13661978624
 2017-02-06 18:34:09.279721+01 | 1486402449.27972 | pgbench_tellers  |         10174464
 2017-02-06 18:34:09.279721+01 | 1486402449.27972 | pgbench_history  |        257654784
 2017-02-06 18:34:09.279721+01 | 1486402449.27972 | pgbench_branches |          7421952

 2017-02-06 18:34:10.363014+01 | 1486402450.36301 | pgbench_accounts |      13661978624
 2017-02-06 18:34:10.363014+01 | 1486402450.36301 | pgbench_tellers  |         10174464
 2017-02-06 18:34:10.363014+01 | 1486402450.36301 | pgbench_history  |        259178496
 2017-02-06 18:34:10.363014+01 | 1486402450.36301 | pgbench_branches |          7421952

 2017-02-06 18:34:11.442873+01 | 1486402451.44287 | pgbench_accounts |      13661978624
 2017-02-06 18:34:11.442873+01 | 1486402451.44287 | pgbench_tellers  |         10174464
 2017-02-06 18:34:11.442873+01 | 1486402451.44287 | pgbench_history  |        259948544
 2017-02-06 18:34:11.442873+01 | 1486402451.44287 | pgbench_branches |          7421952

 2017-02-06 18:34:12.528341+01 | 1486402452.52834 | pgbench_accounts |      13661978624
 2017-02-06 18:34:12.528341+01 | 1486402452.52834 | pgbench_tellers  |         10174464
 2017-02-06 18:34:12.528341+01 | 1486402452.52834 | pgbench_history  |        261005312
 2017-02-06 18:34:12.528341+01 | 1486402452.52834 | pgbench_branches |          7421952

 2017-02-06 18:34:13.613724+01 | 1486402453.61372 | pgbench_accounts |      13661978624
 2017-02-06 18:34:13.613724+01 | 1486402453.61372 | pgbench_tellers  |         10174464
 2017-02-06 18:34:13.613724+01 | 1486402453.61372 | pgbench_history  |        262250496
 2017-02-06 18:34:13.613724+01 | 1486402453.61372 | pgbench_branches |          7421952

 2017-02-06 18:34:14.706825+01 | 1486402454.70683 | pgbench_accounts |      13661978624
 2017-02-06 18:34:14.706825+01 | 1486402454.70683 | pgbench_tellers  |         10174464
 2017-02-06 18:34:14.706825+01 | 1486402454.70683 | pgbench_history  |        263512064
 2017-02-06 18:34:14.706825+01 | 1486402454.70683 | pgbench_branches |          7421952

 2017-02-06 18:34:15.797084+01 | 1486402455.79708 | pgbench_accounts |      13661978624
 2017-02-06 18:34:15.797084+01 | 1486402455.79708 | pgbench_tellers  |         10174464
 2017-02-06 18:34:15.797084+01 | 1486402455.79708 | pgbench_history  |        264945664
 2017-02-06 18:34:15.797084+01 | 1486402455.79708 | pgbench_branches |          7421952

 2017-02-06 18:34:16.873045+01 | 1486402456.87304 | pgbench_accounts |      13661978624
 2017-02-06 18:34:16.873045+01 | 1486402456.87304 | pgbench_tellers  |         10174464
 2017-02-06 18:34:16.873045+01 | 1486402456.87304 | pgbench_history  |        266444800
 2017-02-06 18:34:16.873045+01 | 1486402456.87304 | pgbench_branches |          7421952

 2017-02-06 18:34:17.952541+01 | 1486402457.95254 | pgbench_accounts |      13661978624
 2017-02-06 18:34:17.952541+01 | 1486402457.95254 | pgbench_tellers  |         10174464
 2017-02-06 18:34:17.952541+01 | 1486402457.95254 | pgbench_history  |        267165696
 2017-02-06 18:34:17.952541+01 | 1486402457.95254 | pgbench_branches |          7421952

 2017-02-06 18:34:19.032377+01 | 1486402459.03238 | pgbench_accounts |      13661978624
 2017-02-06 18:34:19.032377+01 | 1486402459.03238 | pgbench_tellers  |         10174464
 2017-02-06 18:34:19.032377+01 | 1486402459.03238 | pgbench_history  |        269107200
 2017-02-06 18:34:19.032377+01 | 1486402459.03238 | pgbench_branches |          7421952

 2017-02-06 18:34:20.106+01 | 1486402460.106 | pgbench_accounts |      13661978624
 2017-02-06 18:34:20.106+01 | 1486402460.106 | pgbench_tellers  |         10174464
 2017-02-06 18:34:20.106+01 | 1486402460.106 | pgbench_history  |        269107200
 2017-02-06 18:34:20.106+01 | 1486402460.106 | pgbench_branches |          7421952

 2017-02-06 18:34:21.18866+01 | 1486402461.18866 | pgbench_accounts |      13661978624
 2017-02-06 18:34:21.18866+01 | 1486402461.18866 | pgbench_tellers  |         10174464
 2017-02-06 18:34:21.18866+01 | 1486402461.18866 | pgbench_history  |        270467072
 2017-02-06 18:34:21.18866+01 | 1486402461.18866 | pgbench_branches |          7421952

 2017-02-06 18:34:22.268519+01 | 1486402462.26852 | pgbench_accounts |      13661978624
 2017-02-06 18:34:22.268519+01 | 1486402462.26852 | pgbench_tellers  |         10174464
 2017-02-06 18:34:22.268519+01 | 1486402462.26852 | pgbench_history  |        271474688
 2017-02-06 18:34:22.268519+01 | 1486402462.26852 | pgbench_branches |          7421952

 2017-02-06 18:34:23.351811+01 | 1486402463.35181 | pgbench_accounts |      13661978624
 2017-02-06 18:34:23.351811+01 | 1486402463.35181 | pgbench_tellers  |         10174464
 2017-02-06 18:34:23.351811+01 | 1486402463.35181 | pgbench_history  |        272154624
 2017-02-06 18:34:23.351811+01 | 1486402463.35181 | pgbench_branches |          7421952

 2017-02-06 18:34:24.43269+01 | 1486402464.43269 | pgbench_accounts |      13661978624
 2017-02-06 18:34:24.43269+01 | 1486402464.43269 | pgbench_tellers  |         10174464
 2017-02-06 18:34:24.43269+01 | 1486402464.43269 | pgbench_history  |        273219584
 2017-02-06 18:34:24.43269+01 | 1486402464.43269 | pgbench_branches |          7421952

 2017-02-06 18:34:25.517466+01 | 1486402465.51747 | pgbench_accounts |      13661978624
 2017-02-06 18:34:25.517466+01 | 1486402465.51747 | pgbench_tellers  |         10174464
 2017-02-06 18:34:25.517466+01 | 1486402465.51747 | pgbench_history  |        274251776
 2017-02-06 18:34:25.517466+01 | 1486402465.51747 | pgbench_branches |          7421952

 2017-02-06 18:34:26.601292+01 | 1486402466.60129 | pgbench_accounts |      13661978624
 2017-02-06 18:34:26.601292+01 | 1486402466.60129 | pgbench_tellers  |         10174464
 2017-02-06 18:34:26.601292+01 | 1486402466.60129 | pgbench_history  |        275611648
 2017-02-06 18:34:26.601292+01 | 1486402466.60129 | pgbench_branches |          7421952

 2017-02-06 18:34:27.685693+01 | 1486402467.68569 | pgbench_accounts |      13661978624
 2017-02-06 18:34:27.685693+01 | 1486402467.68569 | pgbench_tellers  |         10174464
 2017-02-06 18:34:27.685693+01 | 1486402467.68569 | pgbench_history  |        276742144
 2017-02-06 18:34:27.685693+01 | 1486402467.68569 | pgbench_branches |          7421952

 2017-02-06 18:34:28.762725+01 | 1486402468.76273 | pgbench_accounts |      13661978624
 2017-02-06 18:34:28.762725+01 | 1486402468.76273 | pgbench_tellers  |         10174464
 2017-02-06 18:34:28.762725+01 | 1486402468.76273 | pgbench_history  |        277970944
 2017-02-06 18:34:28.762725+01 | 1486402468.76273 | pgbench_branches |          7421952

 2017-02-06 18:34:29.846411+01 | 1486402469.84641 | pgbench_accounts |      13661978624
 2017-02-06 18:34:29.846411+01 | 1486402469.84641 | pgbench_tellers  |         10174464
 2017-02-06 18:34:29.846411+01 | 1486402469.84641 | pgbench_history  |        279363584
 2017-02-06 18:34:29.846411+01 | 1486402469.84641 | pgbench_branches |          7421952

 2017-02-06 18:34:30.930637+01 | 1486402470.93064 | pgbench_accounts |      13661978624
 2017-02-06 18:34:30.930637+01 | 1486402470.93064 | pgbench_tellers  |         10174464
 2017-02-06 18:34:30.930637+01 | 1486402470.93064 | pgbench_history  |        280395776
 2017-02-06 18:34:30.930637+01 | 1486402470.93064 | pgbench_branches |          7421952

 2017-02-06 18:34:32.008504+01 | 1486402472.0085 | pgbench_accounts |      13661978624
 2017-02-06 18:34:32.008504+01 | 1486402472.0085 | pgbench_tellers  |         10174464
 2017-02-06 18:34:32.008504+01 | 1486402472.0085 | pgbench_history  |        281788416
 2017-02-06 18:34:32.008504+01 | 1486402472.0085 | pgbench_branches |          7421952

 2017-02-06 18:34:33.090448+01 | 1486402473.09045 | pgbench_accounts |      13661978624
 2017-02-06 18:34:33.090448+01 | 1486402473.09045 | pgbench_tellers  |         10174464
 2017-02-06 18:34:33.090448+01 | 1486402473.09045 | pgbench_history  |        282861568
 2017-02-06 18:34:33.090448+01 | 1486402473.09045 | pgbench_branches |          7421952

 2017-02-06 18:34:34.177355+01 | 1486402474.17736 | pgbench_accounts |      13661978624
 2017-02-06 18:34:34.177355+01 | 1486402474.17736 | pgbench_tellers  |         10174464
 2017-02-06 18:34:34.177355+01 | 1486402474.17736 | pgbench_history  |        284041216
 2017-02-06 18:34:34.177355+01 | 1486402474.17736 | pgbench_branches |          7421952

 2017-02-06 18:34:35.255333+01 | 1486402475.25533 | pgbench_accounts |      13661978624
 2017-02-06 18:34:35.255333+01 | 1486402475.25533 | pgbench_tellers  |         10174464
 2017-02-06 18:34:35.255333+01 | 1486402475.25533 | pgbench_history  |        285270016
 2017-02-06 18:34:35.255333+01 | 1486402475.25533 | pgbench_branches |          7421952

 2017-02-06 18:34:36.348135+01 | 1486402476.34813 | pgbench_accounts |      13661978624
 2017-02-06 18:34:36.348135+01 | 1486402476.34813 | pgbench_tellers  |         10174464
 2017-02-06 18:34:36.348135+01 | 1486402476.34813 | pgbench_history  |        286523392
 2017-02-06 18:34:36.348135+01 | 1486402476.34813 | pgbench_branches |          7421952

 2017-02-06 18:34:37.427559+01 | 1486402477.42756 | pgbench_accounts |      13661978624
 2017-02-06 18:34:37.427559+01 | 1486402477.42756 | pgbench_tellers  |         10174464
 2017-02-06 18:34:37.427559+01 | 1486402477.42756 | pgbench_history  |        287744000
 2017-02-06 18:34:37.427559+01 | 1486402477.42756 | pgbench_branches |          7421952

 2017-02-06 18:34:38.515194+01 | 1486402478.51519 | pgbench_accounts |      13661978624
 2017-02-06 18:34:38.515194+01 | 1486402478.51519 | pgbench_tellers  |         10174464
 2017-02-06 18:34:38.515194+01 | 1486402478.51519 | pgbench_history  |        289267712
 2017-02-06 18:34:38.515194+01 | 1486402478.51519 | pgbench_branches |          7421952

 2017-02-06 18:34:39.597365+01 | 1486402479.59736 | pgbench_accounts |      13661978624
 2017-02-06 18:34:39.597365+01 | 1486402479.59736 | pgbench_tellers  |         10174464
 2017-02-06 18:34:39.597365+01 | 1486402479.59736 | pgbench_history  |        290488320
 2017-02-06 18:34:39.597365+01 | 1486402479.59736 | pgbench_branches |          7421952

 2017-02-06 18:34:40.681246+01 | 1486402480.68125 | pgbench_accounts |      13661978624
 2017-02-06 18:34:40.681246+01 | 1486402480.68125 | pgbench_tellers  |         10174464
 2017-02-06 18:34:40.681246+01 | 1486402480.68125 | pgbench_history  |        291536896
 2017-02-06 18:34:40.681246+01 | 1486402480.68125 | pgbench_branches |          7421952

 2017-02-06 18:34:41.765798+01 | 1486402481.7658 | pgbench_accounts |      13661978624
 2017-02-06 18:34:41.765798+01 | 1486402481.7658 | pgbench_tellers  |         10174464
 2017-02-06 18:34:41.765798+01 | 1486402481.7658 | pgbench_history  |        292618240
 2017-02-06 18:34:41.765798+01 | 1486402481.7658 | pgbench_branches |          7421952

 2017-02-06 18:34:42.839157+01 | 1486402482.83916 | pgbench_accounts |      13661978624
 2017-02-06 18:34:42.839157+01 | 1486402482.83916 | pgbench_tellers  |         10174464
 2017-02-06 18:34:42.839157+01 | 1486402482.83916 | pgbench_history  |        293675008
 2017-02-06 18:34:42.839157+01 | 1486402482.83916 | pgbench_branches |          7421952

 2017-02-06 18:34:43.921712+01 | 1486402483.92171 | pgbench_accounts |      13661978624
 2017-02-06 18:34:43.921712+01 | 1486402483.92171 | pgbench_tellers  |         10174464
 2017-02-06 18:34:43.921712+01 | 1486402483.92171 | pgbench_history  |        294952960
 2017-02-06 18:34:43.921712+01 | 1486402483.92171 | pgbench_branches |          7421952

 2017-02-06 18:34:44.987028+01 | 1486402484.98703 | pgbench_accounts |      13661978624
 2017-02-06 18:34:44.987028+01 | 1486402484.98703 | pgbench_tellers  |         10174464
 2017-02-06 18:34:44.987028+01 | 1486402484.98703 | pgbench_history  |        296042496
 2017-02-06 18:34:44.987028+01 | 1486402484.98703 | pgbench_branches |          7421952

 2017-02-06 18:34:46.060302+01 | 1486402486.0603 | pgbench_accounts |      13661978624
 2017-02-06 18:34:46.060302+01 | 1486402486.0603 | pgbench_tellers  |         10174464
 2017-02-06 18:34:46.060302+01 | 1486402486.0603 | pgbench_history  |        297435136
 2017-02-06 18:34:46.060302+01 | 1486402486.0603 | pgbench_branches |          7421952

 2017-02-06 18:34:47.139043+01 | 1486402487.13904 | pgbench_accounts |      13661978624
 2017-02-06 18:34:47.139043+01 | 1486402487.13904 | pgbench_tellers  |         10174464
 2017-02-06 18:34:47.139043+01 | 1486402487.13904 | pgbench_history  |        298115072
 2017-02-06 18:34:47.139043+01 | 1486402487.13904 | pgbench_branches |          7421952

 2017-02-06 18:34:48.214235+01 | 1486402488.21424 | pgbench_accounts |      13661978624
 2017-02-06 18:34:48.214235+01 | 1486402488.21424 | pgbench_tellers  |         10174464
 2017-02-06 18:34:48.214235+01 | 1486402488.21424 | pgbench_history  |        299352064
 2017-02-06 18:34:48.214235+01 | 1486402488.21424 | pgbench_branches |          7421952

 2017-02-06 18:34:49.292535+01 | 1486402489.29254 | pgbench_accounts |      13661978624
 2017-02-06 18:34:49.292535+01 | 1486402489.29254 | pgbench_tellers  |         10174464
 2017-02-06 18:34:49.292535+01 | 1486402489.29254 | pgbench_history  |        300277760
 2017-02-06 18:34:49.292535+01 | 1486402489.29254 | pgbench_branches |          7421952

 2017-02-06 18:34:50.363924+01 | 1486402490.36392 | pgbench_accounts |      13661978624
 2017-02-06 18:34:50.363924+01 | 1486402490.36392 | pgbench_tellers  |         10174464
 2017-02-06 18:34:50.363924+01 | 1486402490.36392 | pgbench_history  |        301326336
 2017-02-06 18:34:50.363924+01 | 1486402490.36392 | pgbench_branches |          7421952

 2017-02-06 18:34:51.437144+01 | 1486402491.43714 | pgbench_accounts |      13661978624
 2017-02-06 18:34:51.437144+01 | 1486402491.43714 | pgbench_tellers  |         10174464
 2017-02-06 18:34:51.437144+01 | 1486402491.43714 | pgbench_history  |        303276032
 2017-02-06 18:34:51.437144+01 | 1486402491.43714 | pgbench_branches |          7421952

 2017-02-06 18:34:52.522796+01 | 1486402492.5228 | pgbench_accounts |      13661978624
 2017-02-06 18:34:52.522796+01 | 1486402492.5228 | pgbench_tellers  |         10174464
 2017-02-06 18:34:52.522796+01 | 1486402492.5228 | pgbench_history  |        303955968
 2017-02-06 18:34:52.522796+01 | 1486402492.5228 | pgbench_branches |          7421952

 2017-02-06 18:34:53.601435+01 | 1486402493.60143 | pgbench_accounts |      13661978624
 2017-02-06 18:34:53.601435+01 | 1486402493.60143 | pgbench_tellers  |         10174464
 2017-02-06 18:34:53.601435+01 | 1486402493.60143 | pgbench_history  |        305127424
 2017-02-06 18:34:53.601435+01 | 1486402493.60143 | pgbench_branches |          7421952

 2017-02-06 18:34:54.681403+01 | 1486402494.6814 | pgbench_accounts |      13661978624
 2017-02-06 18:34:54.681403+01 | 1486402494.6814 | pgbench_tellers  |         10174464
 2017-02-06 18:34:54.681403+01 | 1486402494.6814 | pgbench_history  |        306192384
 2017-02-06 18:34:54.681403+01 | 1486402494.6814 | pgbench_branches |          7421952

 2017-02-06 18:34:55.766964+01 | 1486402495.76696 | pgbench_accounts |      13661978624
 2017-02-06 18:34:55.766964+01 | 1486402495.76696 | pgbench_tellers  |         10174464
 2017-02-06 18:34:55.766964+01 | 1486402495.76696 | pgbench_history  |        307576832
 2017-02-06 18:34:55.766964+01 | 1486402495.76696 | pgbench_branches |          7421952

 2017-02-06 18:34:56.851068+01 | 1486402496.85107 | pgbench_accounts |      13661978624
 2017-02-06 18:34:56.851068+01 | 1486402496.85107 | pgbench_tellers  |         10174464
 2017-02-06 18:34:56.851068+01 | 1486402496.85107 | pgbench_history  |        308330496
 2017-02-06 18:34:56.851068+01 | 1486402496.85107 | pgbench_branches |          7421952

 2017-02-06 18:34:57.928835+01 | 1486402497.92883 | pgbench_accounts |      13661978624
 2017-02-06 18:34:57.928835+01 | 1486402497.92883 | pgbench_tellers  |         10174464
 2017-02-06 18:34:57.928835+01 | 1486402497.92883 | pgbench_history  |        309739520
 2017-02-06 18:34:57.928835+01 | 1486402497.92883 | pgbench_branches |          7421952

 2017-02-06 18:34:59.000135+01 | 1486402499.00013 | pgbench_accounts |      13661978624
 2017-02-06 18:34:59.000135+01 | 1486402499.00013 | pgbench_tellers  |         10174464
 2017-02-06 18:34:59.000135+01 | 1486402499.00013 | pgbench_history  |        310943744
 2017-02-06 18:34:59.000135+01 | 1486402499.00013 | pgbench_branches |          7421952

 2017-02-06 18:35:00.064697+01 | 1486402500.0647 | pgbench_accounts |      13661978624
 2017-02-06 18:35:00.064697+01 | 1486402500.0647 | pgbench_tellers  |         10174464
 2017-02-06 18:35:00.064697+01 | 1486402500.0647 | pgbench_history  |        312344576
 2017-02-06 18:35:00.064697+01 | 1486402500.0647 | pgbench_branches |          7421952

 2017-02-06 18:35:01.145447+01 | 1486402501.14545 | pgbench_accounts |      13661978624
 2017-02-06 18:35:01.145447+01 | 1486402501.14545 | pgbench_tellers  |         10174464
 2017-02-06 18:35:01.145447+01 | 1486402501.14545 | pgbench_history  |        313212928
 2017-02-06 18:35:01.145447+01 | 1486402501.14545 | pgbench_branches |          7421952

 2017-02-06 18:35:02.220928+01 | 1486402502.22093 | pgbench_accounts |      13661978624
 2017-02-06 18:35:02.220928+01 | 1486402502.22093 | pgbench_tellers  |         10174464
 2017-02-06 18:35:02.220928+01 | 1486402502.22093 | pgbench_history  |        314572800
 2017-02-06 18:35:02.220928+01 | 1486402502.22093 | pgbench_branches |          7421952

 2017-02-06 18:35:03.297661+01 | 1486402503.29766 | pgbench_accounts |      13661978624
 2017-02-06 18:35:03.297661+01 | 1486402503.29766 | pgbench_tellers  |         10174464
 2017-02-06 18:35:03.297661+01 | 1486402503.29766 | pgbench_history  |        315482112
 2017-02-06 18:35:03.297661+01 | 1486402503.29766 | pgbench_branches |          7421952

 2017-02-06 18:35:04.381743+01 | 1486402504.38174 | pgbench_accounts |      13661978624
 2017-02-06 18:35:04.381743+01 | 1486402504.38174 | pgbench_tellers  |         10174464
 2017-02-06 18:35:04.381743+01 | 1486402504.38174 | pgbench_history  |        316841984
 2017-02-06 18:35:04.381743+01 | 1486402504.38174 | pgbench_branches |          7421952

 2017-02-06 18:35:05.455786+01 | 1486402505.45579 | pgbench_accounts |      13661978624
 2017-02-06 18:35:05.455786+01 | 1486402505.45579 | pgbench_tellers  |         10174464
 2017-02-06 18:35:05.455786+01 | 1486402505.45579 | pgbench_history  |        318554112
 2017-02-06 18:35:05.455786+01 | 1486402505.45579 | pgbench_branches |          7421952

 2017-02-06 18:35:06.538504+01 | 1486402506.5385 | pgbench_accounts |      13661978624
 2017-02-06 18:35:06.538504+01 | 1486402506.5385 | pgbench_tellers  |         10174464
 2017-02-06 18:35:06.538504+01 | 1486402506.5385 | pgbench_history  |        319275008
 2017-02-06 18:35:06.538504+01 | 1486402506.5385 | pgbench_branches |          7421952

 2017-02-06 18:35:07.617921+01 | 1486402507.61792 | pgbench_accounts |      13661978624
 2017-02-06 18:35:07.617921+01 | 1486402507.61792 | pgbench_tellers  |         10174464
 2017-02-06 18:35:07.617921+01 | 1486402507.61792 | pgbench_history  |        320217088
 2017-02-06 18:35:07.617921+01 | 1486402507.61792 | pgbench_branches |          7421952

 2017-02-06 18:35:08.690279+01 | 1486402508.69028 | pgbench_accounts |      13661978624
 2017-02-06 18:35:08.690279+01 | 1486402508.69028 | pgbench_tellers  |         10174464
 2017-02-06 18:35:08.690279+01 | 1486402508.69028 | pgbench_history  |        321634304
 2017-02-06 18:35:08.690279+01 | 1486402508.69028 | pgbench_branches |          7421952

 2017-02-06 18:35:09.780458+01 | 1486402509.78046 | pgbench_accounts |      13661978624
 2017-02-06 18:35:09.780458+01 | 1486402509.78046 | pgbench_tellers  |         10174464
 2017-02-06 18:35:09.780458+01 | 1486402509.78046 | pgbench_history  |        323035136
 2017-02-06 18:35:09.780458+01 | 1486402509.78046 | pgbench_branches |          7421952

