 2017-02-04 03:55:38.574757+01 | 1486176938.57476 | pgbench_accounts |       1393565696
 2017-02-04 03:55:38.574757+01 | 1486176938.57476 | pgbench_tellers  |          3358720
 2017-02-04 03:55:38.574757+01 | 1486176938.57476 | pgbench_history  |                0
 2017-02-04 03:55:38.574757+01 | 1486176938.57476 | pgbench_branches |          2613248

 2017-02-04 03:55:39.651421+01 | 1486176939.65142 | pgbench_accounts |       1393565696
 2017-02-04 03:55:39.651421+01 | 1486176939.65142 | pgbench_tellers  |          3358720
 2017-02-04 03:55:39.651421+01 | 1486176939.65142 | pgbench_history  |          1032192
 2017-02-04 03:55:39.651421+01 | 1486176939.65142 | pgbench_branches |          2613248

 2017-02-04 03:55:40.730965+01 | 1486176940.73096 | pgbench_accounts |       1393565696
 2017-02-04 03:55:40.730965+01 | 1486176940.73096 | pgbench_tellers  |          3358720
 2017-02-04 03:55:40.730965+01 | 1486176940.73096 | pgbench_history  |          1941504
 2017-02-04 03:55:40.730965+01 | 1486176940.73096 | pgbench_branches |          2613248

 2017-02-04 03:55:41.809452+01 | 1486176941.80945 | pgbench_accounts |       1393565696
 2017-02-04 03:55:41.809452+01 | 1486176941.80945 | pgbench_tellers  |          3358720
 2017-02-04 03:55:41.809452+01 | 1486176941.80945 | pgbench_history  |          2711552
 2017-02-04 03:55:41.809452+01 | 1486176941.80945 | pgbench_branches |          2613248

 2017-02-04 03:55:42.885436+01 | 1486176942.88544 | pgbench_accounts |       1393565696
 2017-02-04 03:55:42.885436+01 | 1486176942.88544 | pgbench_tellers  |          3358720
 2017-02-04 03:55:42.885436+01 | 1486176942.88544 | pgbench_history  |          3866624
 2017-02-04 03:55:42.885436+01 | 1486176942.88544 | pgbench_branches |          2613248

 2017-02-04 03:55:43.968484+01 | 1486176943.96848 | pgbench_accounts |       1393565696
 2017-02-04 03:55:43.968484+01 | 1486176943.96848 | pgbench_tellers  |          3358720
 2017-02-04 03:55:43.968484+01 | 1486176943.96848 | pgbench_history  |          4603904
 2017-02-04 03:55:43.968484+01 | 1486176943.96848 | pgbench_branches |          2613248

 2017-02-04 03:55:45.048702+01 | 1486176945.0487 | pgbench_accounts |       1393565696
 2017-02-04 03:55:45.048702+01 | 1486176945.0487 | pgbench_tellers  |          3358720
 2017-02-04 03:55:45.048702+01 | 1486176945.0487 | pgbench_history  |          5529600
 2017-02-04 03:55:45.048702+01 | 1486176945.0487 | pgbench_branches |          2613248

 2017-02-04 03:55:46.13124+01 | 1486176946.13124 | pgbench_accounts |       1393565696
 2017-02-04 03:55:46.13124+01 | 1486176946.13124 | pgbench_tellers  |          3358720
 2017-02-04 03:55:46.13124+01 | 1486176946.13124 | pgbench_history  |          6529024
 2017-02-04 03:55:46.13124+01 | 1486176946.13124 | pgbench_branches |          2613248

 2017-02-04 03:55:47.207196+01 | 1486176947.2072 | pgbench_accounts |       1393565696
 2017-02-04 03:55:47.207196+01 | 1486176947.2072 | pgbench_tellers  |          3358720
 2017-02-04 03:55:47.207196+01 | 1486176947.2072 | pgbench_history  |          7462912
 2017-02-04 03:55:47.207196+01 | 1486176947.2072 | pgbench_branches |          2613248

 2017-02-04 03:55:48.288407+01 | 1486176948.28841 | pgbench_accounts |       1393565696
 2017-02-04 03:55:48.288407+01 | 1486176948.28841 | pgbench_tellers  |          3358720
 2017-02-04 03:55:48.288407+01 | 1486176948.28841 | pgbench_history  |          8388608
 2017-02-04 03:55:48.288407+01 | 1486176948.28841 | pgbench_branches |          2613248

 2017-02-04 03:55:49.376363+01 | 1486176949.37636 | pgbench_accounts |       1393565696
 2017-02-04 03:55:49.376363+01 | 1486176949.37636 | pgbench_tellers  |          3358720
 2017-02-04 03:55:49.376363+01 | 1486176949.37636 | pgbench_history  |          9306112
 2017-02-04 03:55:49.376363+01 | 1486176949.37636 | pgbench_branches |          2613248

 2017-02-04 03:55:50.459191+01 | 1486176950.45919 | pgbench_accounts |       1393565696
 2017-02-04 03:55:50.459191+01 | 1486176950.45919 | pgbench_tellers  |          3358720
 2017-02-04 03:55:50.459191+01 | 1486176950.45919 | pgbench_history  |         10215424
 2017-02-04 03:55:50.459191+01 | 1486176950.45919 | pgbench_branches |          2613248

 2017-02-04 03:55:51.539739+01 | 1486176951.53974 | pgbench_accounts |       1393565696
 2017-02-04 03:55:51.539739+01 | 1486176951.53974 | pgbench_tellers  |          3358720
 2017-02-04 03:55:51.539739+01 | 1486176951.53974 | pgbench_history  |         11100160
 2017-02-04 03:55:51.539739+01 | 1486176951.53974 | pgbench_branches |          2613248

 2017-02-04 03:55:52.625038+01 | 1486176952.62504 | pgbench_accounts |       1393565696
 2017-02-04 03:55:52.625038+01 | 1486176952.62504 | pgbench_tellers  |          3358720
 2017-02-04 03:55:52.625038+01 | 1486176952.62504 | pgbench_history  |         12582912
 2017-02-04 03:55:52.625038+01 | 1486176952.62504 | pgbench_branches |          2613248

 2017-02-04 03:55:53.703674+01 | 1486176953.70367 | pgbench_accounts |       1393565696
 2017-02-04 03:55:53.703674+01 | 1486176953.70367 | pgbench_tellers  |          3358720
 2017-02-04 03:55:53.703674+01 | 1486176953.70367 | pgbench_history  |         12967936
 2017-02-04 03:55:53.703674+01 | 1486176953.70367 | pgbench_branches |          2613248

 2017-02-04 03:55:54.791059+01 | 1486176954.79106 | pgbench_accounts |       1393565696
 2017-02-04 03:55:54.791059+01 | 1486176954.79106 | pgbench_tellers  |          3358720
 2017-02-04 03:55:54.791059+01 | 1486176954.79106 | pgbench_history  |         14270464
 2017-02-04 03:55:54.791059+01 | 1486176954.79106 | pgbench_branches |          2613248

 2017-02-04 03:55:55.865136+01 | 1486176955.86514 | pgbench_accounts |       1393565696
 2017-02-04 03:55:55.865136+01 | 1486176955.86514 | pgbench_tellers  |          3358720
 2017-02-04 03:55:55.865136+01 | 1486176955.86514 | pgbench_history  |         14786560
 2017-02-04 03:55:55.865136+01 | 1486176955.86514 | pgbench_branches |          2613248

 2017-02-04 03:55:56.94575+01 | 1486176956.94575 | pgbench_accounts |       1393565696
 2017-02-04 03:55:56.94575+01 | 1486176956.94575 | pgbench_tellers  |          3358720
 2017-02-04 03:55:56.94575+01 | 1486176956.94575 | pgbench_history  |         15679488
 2017-02-04 03:55:56.94575+01 | 1486176956.94575 | pgbench_branches |          2613248

 2017-02-04 03:55:58.029921+01 | 1486176958.02992 | pgbench_accounts |       1393565696
 2017-02-04 03:55:58.029921+01 | 1486176958.02992 | pgbench_tellers  |          3358720
 2017-02-04 03:55:58.029921+01 | 1486176958.02992 | pgbench_history  |         16416768
 2017-02-04 03:55:58.029921+01 | 1486176958.02992 | pgbench_branches |          2613248

 2017-02-04 03:55:59.110392+01 | 1486176959.11039 | pgbench_accounts |       1393565696
 2017-02-04 03:55:59.110392+01 | 1486176959.11039 | pgbench_tellers  |          3358720
 2017-02-04 03:55:59.110392+01 | 1486176959.11039 | pgbench_history  |         17489920
 2017-02-04 03:55:59.110392+01 | 1486176959.11039 | pgbench_branches |          2613248

 2017-02-04 03:56:00.203806+01 | 1486176960.20381 | pgbench_accounts |       1393565696
 2017-02-04 03:56:00.203806+01 | 1486176960.20381 | pgbench_tellers  |          3358720
 2017-02-04 03:56:00.203806+01 | 1486176960.20381 | pgbench_history  |         18063360
 2017-02-04 03:56:00.203806+01 | 1486176960.20381 | pgbench_branches |          2613248

 2017-02-04 03:56:01.293999+01 | 1486176961.294 | pgbench_accounts |       1393565696
 2017-02-04 03:56:01.293999+01 | 1486176961.294 | pgbench_tellers  |          3358720
 2017-02-04 03:56:01.293999+01 | 1486176961.294 | pgbench_history  |         18972672
 2017-02-04 03:56:01.293999+01 | 1486176961.294 | pgbench_branches |          2613248

 2017-02-04 03:56:02.388803+01 | 1486176962.3888 | pgbench_accounts |       1393565696
 2017-02-04 03:56:02.388803+01 | 1486176962.3888 | pgbench_tellers  |          3358720
 2017-02-04 03:56:02.388803+01 | 1486176962.3888 | pgbench_history  |         19947520
 2017-02-04 03:56:02.388803+01 | 1486176962.3888 | pgbench_branches |          2613248

 2017-02-04 03:56:03.484287+01 | 1486176963.48429 | pgbench_accounts |       1393565696
 2017-02-04 03:56:03.484287+01 | 1486176963.48429 | pgbench_tellers  |          3358720
 2017-02-04 03:56:03.484287+01 | 1486176963.48429 | pgbench_history  |         20709376
 2017-02-04 03:56:03.484287+01 | 1486176963.48429 | pgbench_branches |          2613248

 2017-02-04 03:56:04.568855+01 | 1486176964.56886 | pgbench_accounts |       1393565696
 2017-02-04 03:56:04.568855+01 | 1486176964.56886 | pgbench_tellers  |          3358720
 2017-02-04 03:56:04.568855+01 | 1486176964.56886 | pgbench_history  |         21700608
 2017-02-04 03:56:04.568855+01 | 1486176964.56886 | pgbench_branches |          2613248

 2017-02-04 03:56:05.655478+01 | 1486176965.65548 | pgbench_accounts |       1393565696
 2017-02-04 03:56:05.655478+01 | 1486176965.65548 | pgbench_tellers  |          3358720
 2017-02-04 03:56:05.655478+01 | 1486176965.65548 | pgbench_history  |         23076864
 2017-02-04 03:56:05.655478+01 | 1486176965.65548 | pgbench_branches |          2613248

 2017-02-04 03:56:06.72854+01 | 1486176966.72854 | pgbench_accounts |       1393565696
 2017-02-04 03:56:06.72854+01 | 1486176966.72854 | pgbench_tellers  |          3358720
 2017-02-04 03:56:06.72854+01 | 1486176966.72854 | pgbench_history  |         23076864
 2017-02-04 03:56:06.72854+01 | 1486176966.72854 | pgbench_branches |          2613248

 2017-02-04 03:56:07.804603+01 | 1486176967.8046 | pgbench_accounts |       1393565696
 2017-02-04 03:56:07.804603+01 | 1486176967.8046 | pgbench_tellers  |          3358720
 2017-02-04 03:56:07.804603+01 | 1486176967.8046 | pgbench_history  |         23781376
 2017-02-04 03:56:07.804603+01 | 1486176967.8046 | pgbench_branches |          2613248

 2017-02-04 03:56:08.881462+01 | 1486176968.88146 | pgbench_accounts |       1393565696
 2017-02-04 03:56:08.881462+01 | 1486176968.88146 | pgbench_tellers  |          3358720
 2017-02-04 03:56:08.881462+01 | 1486176968.88146 | pgbench_history  |         24395776
 2017-02-04 03:56:08.881462+01 | 1486176968.88146 | pgbench_branches |          2613248

 2017-02-04 03:56:09.965449+01 | 1486176969.96545 | pgbench_accounts |       1393565696
 2017-02-04 03:56:09.965449+01 | 1486176969.96545 | pgbench_tellers  |          3358720
 2017-02-04 03:56:09.965449+01 | 1486176969.96545 | pgbench_history  |         25100288
 2017-02-04 03:56:09.965449+01 | 1486176969.96545 | pgbench_branches |          2613248

 2017-02-04 03:56:11.054121+01 | 1486176971.05412 | pgbench_accounts |       1393565696
 2017-02-04 03:56:11.054121+01 | 1486176971.05412 | pgbench_tellers  |          3358720
 2017-02-04 03:56:11.054121+01 | 1486176971.05412 | pgbench_history  |         26304512
 2017-02-04 03:56:11.054121+01 | 1486176971.05412 | pgbench_branches |          2613248

 2017-02-04 03:56:12.137658+01 | 1486176972.13766 | pgbench_accounts |       1393565696
 2017-02-04 03:56:12.137658+01 | 1486176972.13766 | pgbench_tellers  |          3358720
 2017-02-04 03:56:12.137658+01 | 1486176972.13766 | pgbench_history  |         26492928
 2017-02-04 03:56:12.137658+01 | 1486176972.13766 | pgbench_branches |          2613248

 2017-02-04 03:56:13.220473+01 | 1486176973.22047 | pgbench_accounts |       1393565696
 2017-02-04 03:56:13.220473+01 | 1486176973.22047 | pgbench_tellers  |          3358720
 2017-02-04 03:56:13.220473+01 | 1486176973.22047 | pgbench_history  |         27369472
 2017-02-04 03:56:13.220473+01 | 1486176973.22047 | pgbench_branches |          2613248

 2017-02-04 03:56:14.299358+01 | 1486176974.29936 | pgbench_accounts |       1393565696
 2017-02-04 03:56:14.299358+01 | 1486176974.29936 | pgbench_tellers  |          3358720
 2017-02-04 03:56:14.299358+01 | 1486176974.29936 | pgbench_history  |         27951104
 2017-02-04 03:56:14.299358+01 | 1486176974.29936 | pgbench_branches |          2613248

 2017-02-04 03:56:15.385114+01 | 1486176975.38511 | pgbench_accounts |       1393565696
 2017-02-04 03:56:15.385114+01 | 1486176975.38511 | pgbench_tellers  |          3358720
 2017-02-04 03:56:15.385114+01 | 1486176975.38511 | pgbench_history  |         28696576
 2017-02-04 03:56:15.385114+01 | 1486176975.38511 | pgbench_branches |          2613248

 2017-02-04 03:56:16.46522+01 | 1486176976.46522 | pgbench_accounts |       1393565696
 2017-02-04 03:56:16.46522+01 | 1486176976.46522 | pgbench_tellers  |          3358720
 2017-02-04 03:56:16.46522+01 | 1486176976.46522 | pgbench_history  |         29106176
 2017-02-04 03:56:16.46522+01 | 1486176976.46522 | pgbench_branches |          2613248

 2017-02-04 03:56:17.549387+01 | 1486176977.54939 | pgbench_accounts |       1393565696
 2017-02-04 03:56:17.549387+01 | 1486176977.54939 | pgbench_tellers  |          3358720
 2017-02-04 03:56:17.549387+01 | 1486176977.54939 | pgbench_history  |         29810688
 2017-02-04 03:56:17.549387+01 | 1486176977.54939 | pgbench_branches |          2613248

 2017-02-04 03:56:18.638124+01 | 1486176978.63812 | pgbench_accounts |       1393565696
 2017-02-04 03:56:18.638124+01 | 1486176978.63812 | pgbench_tellers  |          3358720
 2017-02-04 03:56:18.638124+01 | 1486176978.63812 | pgbench_history  |         31236096
 2017-02-04 03:56:18.638124+01 | 1486176978.63812 | pgbench_branches |          2613248

 2017-02-04 03:56:19.723619+01 | 1486176979.72362 | pgbench_accounts |       1393565696
 2017-02-04 03:56:19.723619+01 | 1486176979.72362 | pgbench_tellers  |          3358720
 2017-02-04 03:56:19.723619+01 | 1486176979.72362 | pgbench_history  |         31752192
 2017-02-04 03:56:19.723619+01 | 1486176979.72362 | pgbench_branches |          2613248

 2017-02-04 03:56:20.798604+01 | 1486176980.7986 | pgbench_accounts |       1393565696
 2017-02-04 03:56:20.798604+01 | 1486176980.7986 | pgbench_tellers  |          3358720
 2017-02-04 03:56:20.798604+01 | 1486176980.7986 | pgbench_history  |         32432128
 2017-02-04 03:56:20.798604+01 | 1486176980.7986 | pgbench_branches |          2613248

 2017-02-04 03:56:21.869055+01 | 1486176981.86906 | pgbench_accounts |       1393565696
 2017-02-04 03:56:21.869055+01 | 1486176981.86906 | pgbench_tellers  |          3358720
 2017-02-04 03:56:21.869055+01 | 1486176981.86906 | pgbench_history  |         33693696
 2017-02-04 03:56:21.869055+01 | 1486176981.86906 | pgbench_branches |          2613248

 2017-02-04 03:56:22.944573+01 | 1486176982.94457 | pgbench_accounts |       1393565696
 2017-02-04 03:56:22.944573+01 | 1486176982.94457 | pgbench_tellers  |          3358720
 2017-02-04 03:56:22.944573+01 | 1486176982.94457 | pgbench_history  |         34242560
 2017-02-04 03:56:22.944573+01 | 1486176982.94457 | pgbench_branches |          2613248

 2017-02-04 03:56:24.022647+01 | 1486176984.02265 | pgbench_accounts |       1393565696
 2017-02-04 03:56:24.022647+01 | 1486176984.02265 | pgbench_tellers  |          3358720
 2017-02-04 03:56:24.022647+01 | 1486176984.02265 | pgbench_history  |         34996224
 2017-02-04 03:56:24.022647+01 | 1486176984.02265 | pgbench_branches |          2613248

 2017-02-04 03:56:25.103457+01 | 1486176985.10346 | pgbench_accounts |       1393565696
 2017-02-04 03:56:25.103457+01 | 1486176985.10346 | pgbench_tellers  |          3358720
 2017-02-04 03:56:25.103457+01 | 1486176985.10346 | pgbench_history  |         35766272
 2017-02-04 03:56:25.103457+01 | 1486176985.10346 | pgbench_branches |          2613248

 2017-02-04 03:56:26.188453+01 | 1486176986.18845 | pgbench_accounts |       1393565696
 2017-02-04 03:56:26.188453+01 | 1486176986.18845 | pgbench_tellers  |          3358720
 2017-02-04 03:56:26.188453+01 | 1486176986.18845 | pgbench_history  |         36675584
 2017-02-04 03:56:26.188453+01 | 1486176986.18845 | pgbench_branches |          2613248

 2017-02-04 03:56:27.269948+01 | 1486176987.26995 | pgbench_accounts |       1393565696
 2017-02-04 03:56:27.269948+01 | 1486176987.26995 | pgbench_tellers  |          3358720
 2017-02-04 03:56:27.269948+01 | 1486176987.26995 | pgbench_history  |         37543936
 2017-02-04 03:56:27.269948+01 | 1486176987.26995 | pgbench_branches |           614400

 2017-02-04 03:56:28.356977+01 | 1486176988.35698 | pgbench_accounts |       1393565696
 2017-02-04 03:56:28.356977+01 | 1486176988.35698 | pgbench_tellers  |          3358720
 2017-02-04 03:56:28.356977+01 | 1486176988.35698 | pgbench_history  |         38625280
 2017-02-04 03:56:28.356977+01 | 1486176988.35698 | pgbench_branches |           614400

 2017-02-04 03:56:29.443537+01 | 1486176989.44354 | pgbench_accounts |       1393565696
 2017-02-04 03:56:29.443537+01 | 1486176989.44354 | pgbench_tellers  |          3358720
 2017-02-04 03:56:29.443537+01 | 1486176989.44354 | pgbench_history  |         39575552
 2017-02-04 03:56:29.443537+01 | 1486176989.44354 | pgbench_branches |           614400

 2017-02-04 03:56:30.518909+01 | 1486176990.51891 | pgbench_accounts |       1393565696
 2017-02-04 03:56:30.518909+01 | 1486176990.51891 | pgbench_tellers  |          3358720
 2017-02-04 03:56:30.518909+01 | 1486176990.51891 | pgbench_history  |         40157184
 2017-02-04 03:56:30.518909+01 | 1486176990.51891 | pgbench_branches |           614400

 2017-02-04 03:56:31.605375+01 | 1486176991.60538 | pgbench_accounts |       1393565696
 2017-02-04 03:56:31.605375+01 | 1486176991.60538 | pgbench_tellers  |          3358720
 2017-02-04 03:56:31.605375+01 | 1486176991.60538 | pgbench_history  |         41123840
 2017-02-04 03:56:31.605375+01 | 1486176991.60538 | pgbench_branches |           614400

 2017-02-04 03:56:32.687496+01 | 1486176992.6875 | pgbench_accounts |       1393565696
 2017-02-04 03:56:32.687496+01 | 1486176992.6875 | pgbench_tellers  |          3358720
 2017-02-04 03:56:32.687496+01 | 1486176992.6875 | pgbench_history  |         42033152
 2017-02-04 03:56:32.687496+01 | 1486176992.6875 | pgbench_branches |           614400

 2017-02-04 03:56:33.762951+01 | 1486176993.76295 | pgbench_accounts |       1393565696
 2017-02-04 03:56:33.762951+01 | 1486176993.76295 | pgbench_tellers  |          3358720
 2017-02-04 03:56:33.762951+01 | 1486176993.76295 | pgbench_history  |         42958848
 2017-02-04 03:56:33.762951+01 | 1486176993.76295 | pgbench_branches |           614400

 2017-02-04 03:56:34.844306+01 | 1486176994.84431 | pgbench_accounts |       1393565696
 2017-02-04 03:56:34.844306+01 | 1486176994.84431 | pgbench_tellers  |          3358720
 2017-02-04 03:56:34.844306+01 | 1486176994.84431 | pgbench_history  |         43835392
 2017-02-04 03:56:34.844306+01 | 1486176994.84431 | pgbench_branches |           614400

 2017-02-04 03:56:35.921895+01 | 1486176995.9219 | pgbench_accounts |       1393565696
 2017-02-04 03:56:35.921895+01 | 1486176995.9219 | pgbench_tellers  |          3358720
 2017-02-04 03:56:35.921895+01 | 1486176995.9219 | pgbench_history  |         44761088
 2017-02-04 03:56:35.921895+01 | 1486176995.9219 | pgbench_branches |           614400

 2017-02-04 03:56:36.995893+01 | 1486176996.99589 | pgbench_accounts |       1393565696
 2017-02-04 03:56:36.995893+01 | 1486176996.99589 | pgbench_tellers  |          3358720
 2017-02-04 03:56:36.995893+01 | 1486176996.99589 | pgbench_history  |         45645824
 2017-02-04 03:56:36.995893+01 | 1486176996.99589 | pgbench_branches |           614400

 2017-02-04 03:56:38.075892+01 | 1486176998.07589 | pgbench_accounts |       1393565696
 2017-02-04 03:56:38.075892+01 | 1486176998.07589 | pgbench_tellers  |          3358720
 2017-02-04 03:56:38.075892+01 | 1486176998.07589 | pgbench_history  |         46653440
 2017-02-04 03:56:38.075892+01 | 1486176998.07589 | pgbench_branches |           614400

 2017-02-04 03:56:39.15928+01 | 1486176999.15928 | pgbench_accounts |       1393565696
 2017-02-04 03:56:39.15928+01 | 1486176999.15928 | pgbench_tellers  |          3358720
 2017-02-04 03:56:39.15928+01 | 1486176999.15928 | pgbench_history  |         47562752
 2017-02-04 03:56:39.15928+01 | 1486176999.15928 | pgbench_branches |           614400

 2017-02-04 03:56:40.242077+01 | 1486177000.24208 | pgbench_accounts |       1393565696
 2017-02-04 03:56:40.242077+01 | 1486177000.24208 | pgbench_tellers  |          3358720
 2017-02-04 03:56:40.242077+01 | 1486177000.24208 | pgbench_history  |         48300032
 2017-02-04 03:56:40.242077+01 | 1486177000.24208 | pgbench_branches |           614400

 2017-02-04 03:56:41.325758+01 | 1486177001.32576 | pgbench_accounts |       1393565696
 2017-02-04 03:56:41.325758+01 | 1486177001.32576 | pgbench_tellers  |          3358720
 2017-02-04 03:56:41.325758+01 | 1486177001.32576 | pgbench_history  |         49176576
 2017-02-04 03:56:41.325758+01 | 1486177001.32576 | pgbench_branches |           614400

 2017-02-04 03:56:42.411873+01 | 1486177002.41187 | pgbench_accounts |       1393565696
 2017-02-04 03:56:42.411873+01 | 1486177002.41187 | pgbench_tellers  |          3358720
 2017-02-04 03:56:42.411873+01 | 1486177002.41187 | pgbench_history  |         50397184
 2017-02-04 03:56:42.411873+01 | 1486177002.41187 | pgbench_branches |           614400

 2017-02-04 03:56:43.494836+01 | 1486177003.49484 | pgbench_accounts |       1393565696
 2017-02-04 03:56:43.494836+01 | 1486177003.49484 | pgbench_tellers  |          3358720
 2017-02-04 03:56:43.494836+01 | 1486177003.49484 | pgbench_history  |         50962432
 2017-02-04 03:56:43.494836+01 | 1486177003.49484 | pgbench_branches |           614400

 2017-02-04 03:56:44.574127+01 | 1486177004.57413 | pgbench_accounts |       1393565696
 2017-02-04 03:56:44.574127+01 | 1486177004.57413 | pgbench_tellers  |          3358720
 2017-02-04 03:56:44.574127+01 | 1486177004.57413 | pgbench_history  |         51806208
 2017-02-04 03:56:44.574127+01 | 1486177004.57413 | pgbench_branches |           614400

 2017-02-04 03:56:45.643625+01 | 1486177005.64363 | pgbench_accounts |       1393565696
 2017-02-04 03:56:45.643625+01 | 1486177005.64363 | pgbench_tellers  |          3358720
 2017-02-04 03:56:45.643625+01 | 1486177005.64363 | pgbench_history  |         52600832
 2017-02-04 03:56:45.643625+01 | 1486177005.64363 | pgbench_branches |           614400

 2017-02-04 03:56:46.7236+01 | 1486177006.7236 | pgbench_accounts |       1393565696
 2017-02-04 03:56:46.7236+01 | 1486177006.7236 | pgbench_tellers  |          3358720
 2017-02-04 03:56:46.7236+01 | 1486177006.7236 | pgbench_history  |         53485568
 2017-02-04 03:56:46.7236+01 | 1486177006.7236 | pgbench_branches |           614400

 2017-02-04 03:56:47.801655+01 | 1486177007.80166 | pgbench_accounts |       1393565696
 2017-02-04 03:56:47.801655+01 | 1486177007.80166 | pgbench_tellers  |          3358720
 2017-02-04 03:56:47.801655+01 | 1486177007.80166 | pgbench_history  |         54550528
 2017-02-04 03:56:47.801655+01 | 1486177007.80166 | pgbench_branches |           614400

 2017-02-04 03:56:48.887789+01 | 1486177008.88779 | pgbench_accounts |       1393565696
 2017-02-04 03:56:48.887789+01 | 1486177008.88779 | pgbench_tellers  |          3358720
 2017-02-04 03:56:48.887789+01 | 1486177008.88779 | pgbench_history  |         55779328
 2017-02-04 03:56:48.887789+01 | 1486177008.88779 | pgbench_branches |           614400

 2017-02-04 03:56:49.976405+01 | 1486177009.9764 | pgbench_accounts |       1393565696
 2017-02-04 03:56:49.976405+01 | 1486177009.9764 | pgbench_tellers  |          3358720
 2017-02-04 03:56:49.976405+01 | 1486177009.9764 | pgbench_history  |         56131584
 2017-02-04 03:56:49.976405+01 | 1486177009.9764 | pgbench_branches |           614400

 2017-02-04 03:56:51.053821+01 | 1486177011.05382 | pgbench_accounts |       1393565696
 2017-02-04 03:56:51.053821+01 | 1486177011.05382 | pgbench_tellers  |          3358720
 2017-02-04 03:56:51.053821+01 | 1486177011.05382 | pgbench_history  |         56999936
 2017-02-04 03:56:51.053821+01 | 1486177011.05382 | pgbench_branches |           614400

 2017-02-04 03:56:52.139644+01 | 1486177012.13964 | pgbench_accounts |       1393565696
 2017-02-04 03:56:52.139644+01 | 1486177012.13964 | pgbench_tellers  |          3358720
 2017-02-04 03:56:52.139644+01 | 1486177012.13964 | pgbench_history  |         58220544
 2017-02-04 03:56:52.139644+01 | 1486177012.13964 | pgbench_branches |           614400

 2017-02-04 03:56:53.225129+01 | 1486177013.22513 | pgbench_accounts |       1393565696
 2017-02-04 03:56:53.225129+01 | 1486177013.22513 | pgbench_tellers  |          3358720
 2017-02-04 03:56:53.225129+01 | 1486177013.22513 | pgbench_history  |         58736640
 2017-02-04 03:56:53.225129+01 | 1486177013.22513 | pgbench_branches |           614400

 2017-02-04 03:56:54.310881+01 | 1486177014.31088 | pgbench_accounts |       1393565696
 2017-02-04 03:56:54.310881+01 | 1486177014.31088 | pgbench_tellers  |          3358720
 2017-02-04 03:56:54.310881+01 | 1486177014.31088 | pgbench_history  |         59531264
 2017-02-04 03:56:54.310881+01 | 1486177014.31088 | pgbench_branches |           614400

 2017-02-04 03:56:55.396978+01 | 1486177015.39698 | pgbench_accounts |       1393565696
 2017-02-04 03:56:55.396978+01 | 1486177015.39698 | pgbench_tellers  |          3358720
 2017-02-04 03:56:55.396978+01 | 1486177015.39698 | pgbench_history  |         60424192
 2017-02-04 03:56:55.396978+01 | 1486177015.39698 | pgbench_branches |           614400

 2017-02-04 03:56:56.477708+01 | 1486177016.47771 | pgbench_accounts |       1393565696
 2017-02-04 03:56:56.477708+01 | 1486177016.47771 | pgbench_tellers  |          3358720
 2017-02-04 03:56:56.477708+01 | 1486177016.47771 | pgbench_history  |         61341696
 2017-02-04 03:56:56.477708+01 | 1486177016.47771 | pgbench_branches |           614400

 2017-02-04 03:56:57.55263+01 | 1486177017.55263 | pgbench_accounts |       1393565696
 2017-02-04 03:56:57.55263+01 | 1486177017.55263 | pgbench_tellers  |          3358720
 2017-02-04 03:56:57.55263+01 | 1486177017.55263 | pgbench_history  |         62054400
 2017-02-04 03:56:57.55263+01 | 1486177017.55263 | pgbench_branches |           614400

 2017-02-04 03:56:58.626789+01 | 1486177018.62679 | pgbench_accounts |       1393565696
 2017-02-04 03:56:58.626789+01 | 1486177018.62679 | pgbench_tellers  |          3358720
 2017-02-04 03:56:58.626789+01 | 1486177018.62679 | pgbench_history  |         62955520
 2017-02-04 03:56:58.626789+01 | 1486177018.62679 | pgbench_branches |           614400

 2017-02-04 03:56:59.71216+01 | 1486177019.71216 | pgbench_accounts |       1393565696
 2017-02-04 03:56:59.71216+01 | 1486177019.71216 | pgbench_tellers  |          3358720
 2017-02-04 03:56:59.71216+01 | 1486177019.71216 | pgbench_history  |         64045056
 2017-02-04 03:56:59.71216+01 | 1486177019.71216 | pgbench_branches |           614400

 2017-02-04 03:57:00.795732+01 | 1486177020.79573 | pgbench_accounts |       1393565696
 2017-02-04 03:57:00.795732+01 | 1486177020.79573 | pgbench_tellers  |          3358720
 2017-02-04 03:57:00.795732+01 | 1486177020.79573 | pgbench_history  |         65609728
 2017-02-04 03:57:00.795732+01 | 1486177020.79573 | pgbench_branches |           614400

 2017-02-04 03:57:01.875983+01 | 1486177021.87598 | pgbench_accounts |       1393565696
 2017-02-04 03:57:01.875983+01 | 1486177021.87598 | pgbench_tellers  |          3358720
 2017-02-04 03:57:01.875983+01 | 1486177021.87598 | pgbench_history  |         65609728
 2017-02-04 03:57:01.875983+01 | 1486177021.87598 | pgbench_branches |           614400

 2017-02-04 03:57:02.961214+01 | 1486177022.96121 | pgbench_accounts |       1393565696
 2017-02-04 03:57:02.961214+01 | 1486177022.96121 | pgbench_tellers  |          3358720
 2017-02-04 03:57:02.961214+01 | 1486177022.96121 | pgbench_history  |         66584576
 2017-02-04 03:57:02.961214+01 | 1486177022.96121 | pgbench_branches |           614400

 2017-02-04 03:57:04.05064+01 | 1486177024.05064 | pgbench_accounts |       1393565696
 2017-02-04 03:57:04.05064+01 | 1486177024.05064 | pgbench_tellers  |          3358720
 2017-02-04 03:57:04.05064+01 | 1486177024.05064 | pgbench_history  |         67559424
 2017-02-04 03:57:04.05064+01 | 1486177024.05064 | pgbench_branches |           614400

 2017-02-04 03:57:05.137958+01 | 1486177025.13796 | pgbench_accounts |       1393565696
 2017-02-04 03:57:05.137958+01 | 1486177025.13796 | pgbench_tellers  |          3358720
 2017-02-04 03:57:05.137958+01 | 1486177025.13796 | pgbench_history  |         68673536
 2017-02-04 03:57:05.137958+01 | 1486177025.13796 | pgbench_branches |           614400

 2017-02-04 03:57:06.217951+01 | 1486177026.21795 | pgbench_accounts |       1393565696
 2017-02-04 03:57:06.217951+01 | 1486177026.21795 | pgbench_tellers  |          3358720
 2017-02-04 03:57:06.217951+01 | 1486177026.21795 | pgbench_history  |         69394432
 2017-02-04 03:57:06.217951+01 | 1486177026.21795 | pgbench_branches |           614400

 2017-02-04 03:57:07.297649+01 | 1486177027.29765 | pgbench_accounts |       1393565696
 2017-02-04 03:57:07.297649+01 | 1486177027.29765 | pgbench_tellers  |          3358720
 2017-02-04 03:57:07.297649+01 | 1486177027.29765 | pgbench_history  |         70631424
 2017-02-04 03:57:07.297649+01 | 1486177027.29765 | pgbench_branches |           614400

 2017-02-04 03:57:08.386496+01 | 1486177028.3865 | pgbench_accounts |       1393565696
 2017-02-04 03:57:08.386496+01 | 1486177028.3865 | pgbench_tellers  |          3358720
 2017-02-04 03:57:08.386496+01 | 1486177028.3865 | pgbench_history  |         71016448
 2017-02-04 03:57:08.386496+01 | 1486177028.3865 | pgbench_branches |           614400

 2017-02-04 03:57:09.473437+01 | 1486177029.47344 | pgbench_accounts |       1393565696
 2017-02-04 03:57:09.473437+01 | 1486177029.47344 | pgbench_tellers  |          3358720
 2017-02-04 03:57:09.473437+01 | 1486177029.47344 | pgbench_history  |         71958528
 2017-02-04 03:57:09.473437+01 | 1486177029.47344 | pgbench_branches |           614400

 2017-02-04 03:57:10.552183+01 | 1486177030.55218 | pgbench_accounts |       1393565696
 2017-02-04 03:57:10.552183+01 | 1486177030.55218 | pgbench_tellers  |          3358720
 2017-02-04 03:57:10.552183+01 | 1486177030.55218 | pgbench_history  |         72728576
 2017-02-04 03:57:10.552183+01 | 1486177030.55218 | pgbench_branches |           614400

 2017-02-04 03:57:11.632722+01 | 1486177031.63272 | pgbench_accounts |       1393565696
 2017-02-04 03:57:11.632722+01 | 1486177031.63272 | pgbench_tellers  |          3358720
 2017-02-04 03:57:11.632722+01 | 1486177031.63272 | pgbench_history  |         73654272
 2017-02-04 03:57:11.632722+01 | 1486177031.63272 | pgbench_branches |           614400

 2017-02-04 03:57:12.707573+01 | 1486177032.70757 | pgbench_accounts |       1393565696
 2017-02-04 03:57:12.707573+01 | 1486177032.70757 | pgbench_tellers  |          3358720
 2017-02-04 03:57:12.707573+01 | 1486177032.70757 | pgbench_history  |         74768384
 2017-02-04 03:57:12.707573+01 | 1486177032.70757 | pgbench_branches |           614400

 2017-02-04 03:57:13.791297+01 | 1486177033.7913 | pgbench_accounts |       1393565696
 2017-02-04 03:57:13.791297+01 | 1486177033.7913 | pgbench_tellers  |          3358720
 2017-02-04 03:57:13.791297+01 | 1486177033.7913 | pgbench_history  |         75505664
 2017-02-04 03:57:13.791297+01 | 1486177033.7913 | pgbench_branches |           614400

 2017-02-04 03:57:14.879955+01 | 1486177034.87996 | pgbench_accounts |       1393565696
 2017-02-04 03:57:14.879955+01 | 1486177034.87996 | pgbench_tellers  |          3358720
 2017-02-04 03:57:14.879955+01 | 1486177034.87996 | pgbench_history  |         76382208
 2017-02-04 03:57:14.879955+01 | 1486177034.87996 | pgbench_branches |           614400

 2017-02-04 03:57:15.962141+01 | 1486177035.96214 | pgbench_accounts |       1393565696
 2017-02-04 03:57:15.962141+01 | 1486177035.96214 | pgbench_tellers  |          3358720
 2017-02-04 03:57:15.962141+01 | 1486177035.96214 | pgbench_history  |         77127680
 2017-02-04 03:57:15.962141+01 | 1486177035.96214 | pgbench_branches |           614400

 2017-02-04 03:57:17.044351+01 | 1486177037.04435 | pgbench_accounts |       1393565696
 2017-02-04 03:57:17.044351+01 | 1486177037.04435 | pgbench_tellers  |          3358720
 2017-02-04 03:57:17.044351+01 | 1486177037.04435 | pgbench_history  |         77996032
 2017-02-04 03:57:17.044351+01 | 1486177037.04435 | pgbench_branches |           614400

 2017-02-04 03:57:18.118988+01 | 1486177038.11899 | pgbench_accounts |       1393565696
 2017-02-04 03:57:18.118988+01 | 1486177038.11899 | pgbench_tellers  |          3358720
 2017-02-04 03:57:18.118988+01 | 1486177038.11899 | pgbench_history  |         79085568
 2017-02-04 03:57:18.118988+01 | 1486177038.11899 | pgbench_branches |           614400

 2017-02-04 03:57:19.210997+01 | 1486177039.211 | pgbench_accounts |       1393565696
 2017-02-04 03:57:19.210997+01 | 1486177039.211 | pgbench_tellers  |          3358720
 2017-02-04 03:57:19.210997+01 | 1486177039.211 | pgbench_history  |         80117760
 2017-02-04 03:57:19.210997+01 | 1486177039.211 | pgbench_branches |           614400

 2017-02-04 03:57:20.29271+01 | 1486177040.29271 | pgbench_accounts |       1393565696
 2017-02-04 03:57:20.29271+01 | 1486177040.29271 | pgbench_tellers  |          3358720
 2017-02-04 03:57:20.29271+01 | 1486177040.29271 | pgbench_history  |         81174528
 2017-02-04 03:57:20.29271+01 | 1486177040.29271 | pgbench_branches |           614400

 2017-02-04 03:57:21.375264+01 | 1486177041.37526 | pgbench_accounts |       1393565696
 2017-02-04 03:57:21.375264+01 | 1486177041.37526 | pgbench_tellers  |          3358720
 2017-02-04 03:57:21.375264+01 | 1486177041.37526 | pgbench_history  |         81534976
 2017-02-04 03:57:21.375264+01 | 1486177041.37526 | pgbench_branches |           614400

 2017-02-04 03:57:22.455768+01 | 1486177042.45577 | pgbench_accounts |       1393565696
 2017-02-04 03:57:22.455768+01 | 1486177042.45577 | pgbench_tellers  |          3358720
 2017-02-04 03:57:22.455768+01 | 1486177042.45577 | pgbench_history  |         82468864
 2017-02-04 03:57:22.455768+01 | 1486177042.45577 | pgbench_branches |           614400

 2017-02-04 03:57:23.533628+01 | 1486177043.53363 | pgbench_accounts |       1393565696
 2017-02-04 03:57:23.533628+01 | 1486177043.53363 | pgbench_tellers  |          3358720
 2017-02-04 03:57:23.533628+01 | 1486177043.53363 | pgbench_history  |         83533824
 2017-02-04 03:57:23.533628+01 | 1486177043.53363 | pgbench_branches |           614400

 2017-02-04 03:57:24.621974+01 | 1486177044.62197 | pgbench_accounts |       1393565696
 2017-02-04 03:57:24.621974+01 | 1486177044.62197 | pgbench_tellers  |          3358720
 2017-02-04 03:57:24.621974+01 | 1486177044.62197 | pgbench_history  |         84402176
 2017-02-04 03:57:24.621974+01 | 1486177044.62197 | pgbench_branches |           614400

 2017-02-04 03:57:25.708875+01 | 1486177045.70887 | pgbench_accounts |       1393565696
 2017-02-04 03:57:25.708875+01 | 1486177045.70887 | pgbench_tellers  |          3358720
 2017-02-04 03:57:25.708875+01 | 1486177045.70887 | pgbench_history  |         85925888
 2017-02-04 03:57:25.708875+01 | 1486177045.70887 | pgbench_branches |           614400

 2017-02-04 03:57:26.78966+01 | 1486177046.78966 | pgbench_accounts |       1393565696
 2017-02-04 03:57:26.78966+01 | 1486177046.78966 | pgbench_tellers  |          3358720
 2017-02-04 03:57:26.78966+01 | 1486177046.78966 | pgbench_history  |         86278144
 2017-02-04 03:57:26.78966+01 | 1486177046.78966 | pgbench_branches |           614400

 2017-02-04 03:57:27.87746+01 | 1486177047.87746 | pgbench_accounts |       1393565696
 2017-02-04 03:57:27.87746+01 | 1486177047.87746 | pgbench_tellers  |          3358720
 2017-02-04 03:57:27.87746+01 | 1486177047.87746 | pgbench_history  |         86958080
 2017-02-04 03:57:27.87746+01 | 1486177047.87746 | pgbench_branches |           614400

 2017-02-04 03:57:28.959594+01 | 1486177048.95959 | pgbench_accounts |       1393565696
 2017-02-04 03:57:28.959594+01 | 1486177048.95959 | pgbench_tellers  |          3358720
 2017-02-04 03:57:28.959594+01 | 1486177048.95959 | pgbench_history  |         88375296
 2017-02-04 03:57:28.959594+01 | 1486177048.95959 | pgbench_branches |           614400

 2017-02-04 03:57:30.044036+01 | 1486177050.04404 | pgbench_accounts |       1393565696
 2017-02-04 03:57:30.044036+01 | 1486177050.04404 | pgbench_tellers  |          3358720
 2017-02-04 03:57:30.044036+01 | 1486177050.04404 | pgbench_history  |         89079808
 2017-02-04 03:57:30.044036+01 | 1486177050.04404 | pgbench_branches |           614400

 2017-02-04 03:57:31.122668+01 | 1486177051.12267 | pgbench_accounts |       1393565696
 2017-02-04 03:57:31.122668+01 | 1486177051.12267 | pgbench_tellers  |          3358720
 2017-02-04 03:57:31.122668+01 | 1486177051.12267 | pgbench_history  |         89817088
 2017-02-04 03:57:31.122668+01 | 1486177051.12267 | pgbench_branches |           614400

 2017-02-04 03:57:32.206025+01 | 1486177052.20602 | pgbench_accounts |       1393565696
 2017-02-04 03:57:32.206025+01 | 1486177052.20602 | pgbench_tellers  |          3358720
 2017-02-04 03:57:32.206025+01 | 1486177052.20602 | pgbench_history  |         90390528
 2017-02-04 03:57:32.206025+01 | 1486177052.20602 | pgbench_branches |           614400

 2017-02-04 03:57:33.286797+01 | 1486177053.2868 | pgbench_accounts |       1393565696
 2017-02-04 03:57:33.286797+01 | 1486177053.2868 | pgbench_tellers  |          3358720
 2017-02-04 03:57:33.286797+01 | 1486177053.2868 | pgbench_history  |         91373568
 2017-02-04 03:57:33.286797+01 | 1486177053.2868 | pgbench_branches |           614400

 2017-02-04 03:57:34.369124+01 | 1486177054.36912 | pgbench_accounts |       1393565696
 2017-02-04 03:57:34.369124+01 | 1486177054.36912 | pgbench_tellers  |          3358720
 2017-02-04 03:57:34.369124+01 | 1486177054.36912 | pgbench_history  |         92250112
 2017-02-04 03:57:34.369124+01 | 1486177054.36912 | pgbench_branches |           614400

 2017-02-04 03:57:35.456362+01 | 1486177055.45636 | pgbench_accounts |       1393565696
 2017-02-04 03:57:35.456362+01 | 1486177055.45636 | pgbench_tellers  |          3358720
 2017-02-04 03:57:35.456362+01 | 1486177055.45636 | pgbench_history  |         93298688
 2017-02-04 03:57:35.456362+01 | 1486177055.45636 | pgbench_branches |           811008

 2017-02-04 03:57:36.541586+01 | 1486177056.54159 | pgbench_accounts |       1393565696
 2017-02-04 03:57:36.541586+01 | 1486177056.54159 | pgbench_tellers  |          3358720
 2017-02-04 03:57:36.541586+01 | 1486177056.54159 | pgbench_history  |         94683136
 2017-02-04 03:57:36.541586+01 | 1486177056.54159 | pgbench_branches |           811008

 2017-02-04 03:57:37.619409+01 | 1486177057.61941 | pgbench_accounts |       1393565696
 2017-02-04 03:57:37.619409+01 | 1486177057.61941 | pgbench_tellers  |          3358720
 2017-02-04 03:57:37.619409+01 | 1486177057.61941 | pgbench_history  |         94904320
 2017-02-04 03:57:37.619409+01 | 1486177057.61941 | pgbench_branches |           811008

 2017-02-04 03:57:38.68933+01 | 1486177058.68933 | pgbench_accounts |       1393565696
 2017-02-04 03:57:38.68933+01 | 1486177058.68933 | pgbench_tellers  |          3358720
 2017-02-04 03:57:38.68933+01 | 1486177058.68933 | pgbench_history  |         96133120
 2017-02-04 03:57:38.68933+01 | 1486177058.68933 | pgbench_branches |           811008

 2017-02-04 03:57:39.772684+01 | 1486177059.77268 | pgbench_accounts |       1393565696
 2017-02-04 03:57:39.772684+01 | 1486177059.77268 | pgbench_tellers  |          3358720
 2017-02-04 03:57:39.772684+01 | 1486177059.77268 | pgbench_history  |         96550912
 2017-02-04 03:57:39.772684+01 | 1486177059.77268 | pgbench_branches |           811008

 2017-02-04 03:57:40.85574+01 | 1486177060.85574 | pgbench_accounts |       1393565696
 2017-02-04 03:57:40.85574+01 | 1486177060.85574 | pgbench_tellers  |          3358720
 2017-02-04 03:57:40.85574+01 | 1486177060.85574 | pgbench_history  |         97730560
 2017-02-04 03:57:40.85574+01 | 1486177060.85574 | pgbench_branches |           811008

 2017-02-04 03:57:41.945304+01 | 1486177061.9453 | pgbench_accounts |       1393565696
 2017-02-04 03:57:41.945304+01 | 1486177061.9453 | pgbench_tellers  |          3358720
 2017-02-04 03:57:41.945304+01 | 1486177061.9453 | pgbench_history  |         98467840
 2017-02-04 03:57:41.945304+01 | 1486177061.9453 | pgbench_branches |           811008

 2017-02-04 03:57:43.032161+01 | 1486177063.03216 | pgbench_accounts |       1393565696
 2017-02-04 03:57:43.032161+01 | 1486177063.03216 | pgbench_tellers  |          3358720
 2017-02-04 03:57:43.032161+01 | 1486177063.03216 | pgbench_history  |         99213312
 2017-02-04 03:57:43.032161+01 | 1486177063.03216 | pgbench_branches |           811008

 2017-02-04 03:57:44.11676+01 | 1486177064.11676 | pgbench_accounts |       1393565696
 2017-02-04 03:57:44.11676+01 | 1486177064.11676 | pgbench_tellers  |          3358720
 2017-02-04 03:57:44.11676+01 | 1486177064.11676 | pgbench_history  |        100188160
 2017-02-04 03:57:44.11676+01 | 1486177064.11676 | pgbench_branches |           811008

 2017-02-04 03:57:45.194532+01 | 1486177065.19453 | pgbench_accounts |       1393565696
 2017-02-04 03:57:45.194532+01 | 1486177065.19453 | pgbench_tellers  |          3358720
 2017-02-04 03:57:45.194532+01 | 1486177065.19453 | pgbench_history  |        101056512
 2017-02-04 03:57:45.194532+01 | 1486177065.19453 | pgbench_branches |           811008

 2017-02-04 03:57:46.271649+01 | 1486177066.27165 | pgbench_accounts |       1393565696
 2017-02-04 03:57:46.271649+01 | 1486177066.27165 | pgbench_tellers  |          3358720
 2017-02-04 03:57:46.271649+01 | 1486177066.27165 | pgbench_history  |        101965824
 2017-02-04 03:57:46.271649+01 | 1486177066.27165 | pgbench_branches |           811008

 2017-02-04 03:57:47.356052+01 | 1486177067.35605 | pgbench_accounts |       1393565696
 2017-02-04 03:57:47.356052+01 | 1486177067.35605 | pgbench_tellers  |          3358720
 2017-02-04 03:57:47.356052+01 | 1486177067.35605 | pgbench_history  |        103022592
 2017-02-04 03:57:47.356052+01 | 1486177067.35605 | pgbench_branches |           811008

 2017-02-04 03:57:48.446691+01 | 1486177068.44669 | pgbench_accounts |       1393565696
 2017-02-04 03:57:48.446691+01 | 1486177068.44669 | pgbench_tellers  |          3358720
 2017-02-04 03:57:48.446691+01 | 1486177068.44669 | pgbench_history  |        103661568
 2017-02-04 03:57:48.446691+01 | 1486177068.44669 | pgbench_branches |           811008

 2017-02-04 03:57:49.537033+01 | 1486177069.53703 | pgbench_accounts |       1393565696
 2017-02-04 03:57:49.537033+01 | 1486177069.53703 | pgbench_tellers  |          3358720
 2017-02-04 03:57:49.537033+01 | 1486177069.53703 | pgbench_history  |        104603648
 2017-02-04 03:57:49.537033+01 | 1486177069.53703 | pgbench_branches |           811008

 2017-02-04 03:57:50.624712+01 | 1486177070.62471 | pgbench_accounts |       1393565696
 2017-02-04 03:57:50.624712+01 | 1486177070.62471 | pgbench_tellers  |          3358720
 2017-02-04 03:57:50.624712+01 | 1486177070.62471 | pgbench_history  |        105496576
 2017-02-04 03:57:50.624712+01 | 1486177070.62471 | pgbench_branches |           811008

 2017-02-04 03:57:51.702453+01 | 1486177071.70245 | pgbench_accounts |       1393565696
 2017-02-04 03:57:51.702453+01 | 1486177071.70245 | pgbench_tellers  |          3358720
 2017-02-04 03:57:51.702453+01 | 1486177071.70245 | pgbench_history  |        106553344
 2017-02-04 03:57:51.702453+01 | 1486177071.70245 | pgbench_branches |           811008

 2017-02-04 03:57:52.774204+01 | 1486177072.7742 | pgbench_accounts |       1393565696
 2017-02-04 03:57:52.774204+01 | 1486177072.7742 | pgbench_tellers  |          3358720
 2017-02-04 03:57:52.774204+01 | 1486177072.7742 | pgbench_history  |        107429888
 2017-02-04 03:57:52.774204+01 | 1486177072.7742 | pgbench_branches |           811008

 2017-02-04 03:57:53.846555+01 | 1486177073.84655 | pgbench_accounts |       1393565696
 2017-02-04 03:57:53.846555+01 | 1486177073.84655 | pgbench_tellers  |          3358720
 2017-02-04 03:57:53.846555+01 | 1486177073.84655 | pgbench_history  |        108109824
 2017-02-04 03:57:53.846555+01 | 1486177073.84655 | pgbench_branches |           843776

 2017-02-04 03:57:54.930954+01 | 1486177074.93095 | pgbench_accounts |       1393565696
 2017-02-04 03:57:54.930954+01 | 1486177074.93095 | pgbench_tellers  |          3358720
 2017-02-04 03:57:54.930954+01 | 1486177074.93095 | pgbench_history  |        108953600
 2017-02-04 03:57:54.930954+01 | 1486177074.93095 | pgbench_branches |           843776

 2017-02-04 03:57:56.009986+01 | 1486177076.00999 | pgbench_accounts |       1393565696
 2017-02-04 03:57:56.009986+01 | 1486177076.00999 | pgbench_tellers  |          3358720
 2017-02-04 03:57:56.009986+01 | 1486177076.00999 | pgbench_history  |        110043136
 2017-02-04 03:57:56.009986+01 | 1486177076.00999 | pgbench_branches |           843776

 2017-02-04 03:57:57.088623+01 | 1486177077.08862 | pgbench_accounts |       1393565696
 2017-02-04 03:57:57.088623+01 | 1486177077.08862 | pgbench_tellers  |          3358720
 2017-02-04 03:57:57.088623+01 | 1486177077.08862 | pgbench_history  |        110780416
 2017-02-04 03:57:57.088623+01 | 1486177077.08862 | pgbench_branches |           843776

 2017-02-04 03:57:58.165005+01 | 1486177078.165 | pgbench_accounts |       1393565696
 2017-02-04 03:57:58.165005+01 | 1486177078.165 | pgbench_tellers  |          3358720
 2017-02-04 03:57:58.165005+01 | 1486177078.165 | pgbench_history  |        111665152
 2017-02-04 03:57:58.165005+01 | 1486177078.165 | pgbench_branches |           843776

 2017-02-04 03:57:59.256754+01 | 1486177079.25675 | pgbench_accounts |       1393565696
 2017-02-04 03:57:59.256754+01 | 1486177079.25675 | pgbench_tellers  |          3358720
 2017-02-04 03:57:59.256754+01 | 1486177079.25675 | pgbench_history  |        112427008
 2017-02-04 03:57:59.256754+01 | 1486177079.25675 | pgbench_branches |           843776

 2017-02-04 03:58:00.344079+01 | 1486177080.34408 | pgbench_accounts |       1393565696
 2017-02-04 03:58:00.344079+01 | 1486177080.34408 | pgbench_tellers  |          3358720
 2017-02-04 03:58:00.344079+01 | 1486177080.34408 | pgbench_history  |        113516544
 2017-02-04 03:58:00.344079+01 | 1486177080.34408 | pgbench_branches |           851968

 2017-02-04 03:58:01.418901+01 | 1486177081.4189 | pgbench_accounts |       1393565696
 2017-02-04 03:58:01.418901+01 | 1486177081.4189 | pgbench_tellers  |          3358720
 2017-02-04 03:58:01.418901+01 | 1486177081.4189 | pgbench_history  |        114384896
 2017-02-04 03:58:01.418901+01 | 1486177081.4189 | pgbench_branches |           851968

 2017-02-04 03:58:02.501023+01 | 1486177082.50102 | pgbench_accounts |       1393565696
 2017-02-04 03:58:02.501023+01 | 1486177082.50102 | pgbench_tellers  |          3358720
 2017-02-04 03:58:02.501023+01 | 1486177082.50102 | pgbench_history  |        115130368
 2017-02-04 03:58:02.501023+01 | 1486177082.50102 | pgbench_branches |           851968

 2017-02-04 03:58:03.590217+01 | 1486177083.59022 | pgbench_accounts |       1393565696
 2017-02-04 03:58:03.590217+01 | 1486177083.59022 | pgbench_tellers  |          3358720
 2017-02-04 03:58:03.590217+01 | 1486177083.59022 | pgbench_history  |        115900416
 2017-02-04 03:58:03.590217+01 | 1486177083.59022 | pgbench_branches |           851968

 2017-02-04 03:58:04.669746+01 | 1486177084.66975 | pgbench_accounts |       1393565696
 2017-02-04 03:58:04.669746+01 | 1486177084.66975 | pgbench_tellers  |          3358720
 2017-02-04 03:58:04.669746+01 | 1486177084.66975 | pgbench_history  |        116793344
 2017-02-04 03:58:04.669746+01 | 1486177084.66975 | pgbench_branches |           851968

 2017-02-04 03:58:05.752057+01 | 1486177085.75206 | pgbench_accounts |       1393565696
 2017-02-04 03:58:05.752057+01 | 1486177085.75206 | pgbench_tellers  |          3358720
 2017-02-04 03:58:05.752057+01 | 1486177085.75206 | pgbench_history  |        117694464
 2017-02-04 03:58:05.752057+01 | 1486177085.75206 | pgbench_branches |           851968

 2017-02-04 03:58:06.832871+01 | 1486177086.83287 | pgbench_accounts |       1393565696
 2017-02-04 03:58:06.832871+01 | 1486177086.83287 | pgbench_tellers  |          3358720
 2017-02-04 03:58:06.832871+01 | 1486177086.83287 | pgbench_history  |        118620160
 2017-02-04 03:58:06.832871+01 | 1486177086.83287 | pgbench_branches |           851968

 2017-02-04 03:58:07.920123+01 | 1486177087.92012 | pgbench_accounts |       1393565696
 2017-02-04 03:58:07.920123+01 | 1486177087.92012 | pgbench_tellers  |          3358720
 2017-02-04 03:58:07.920123+01 | 1486177087.92012 | pgbench_history  |        119562240
 2017-02-04 03:58:07.920123+01 | 1486177087.92012 | pgbench_branches |           851968

 2017-02-04 03:58:09.002812+01 | 1486177089.00281 | pgbench_accounts |       1393565696
 2017-02-04 03:58:09.002812+01 | 1486177089.00281 | pgbench_tellers  |          3358720
 2017-02-04 03:58:09.002812+01 | 1486177089.00281 | pgbench_history  |        120782848
 2017-02-04 03:58:09.002812+01 | 1486177089.00281 | pgbench_branches |           851968

 2017-02-04 03:58:10.088347+01 | 1486177090.08835 | pgbench_accounts |       1393565696
 2017-02-04 03:58:10.088347+01 | 1486177090.08835 | pgbench_tellers  |          3358720
 2017-02-04 03:58:10.088347+01 | 1486177090.08835 | pgbench_history  |        121487360
 2017-02-04 03:58:10.088347+01 | 1486177090.08835 | pgbench_branches |           851968

 2017-02-04 03:58:11.168382+01 | 1486177091.16838 | pgbench_accounts |       1393565696
 2017-02-04 03:58:11.168382+01 | 1486177091.16838 | pgbench_tellers  |          3358720
 2017-02-04 03:58:11.168382+01 | 1486177091.16838 | pgbench_history  |        122519552
 2017-02-04 03:58:11.168382+01 | 1486177091.16838 | pgbench_branches |           851968

 2017-02-04 03:58:12.247658+01 | 1486177092.24766 | pgbench_accounts |       1393565696
 2017-02-04 03:58:12.247658+01 | 1486177092.24766 | pgbench_tellers  |          3358720
 2017-02-04 03:58:12.247658+01 | 1486177092.24766 | pgbench_history  |        123117568
 2017-02-04 03:58:12.247658+01 | 1486177092.24766 | pgbench_branches |           851968

 2017-02-04 03:58:13.332594+01 | 1486177093.33259 | pgbench_accounts |       1393565696
 2017-02-04 03:58:13.332594+01 | 1486177093.33259 | pgbench_tellers  |          3358720
 2017-02-04 03:58:13.332594+01 | 1486177093.33259 | pgbench_history  |        123985920
 2017-02-04 03:58:13.332594+01 | 1486177093.33259 | pgbench_branches |           851968

 2017-02-04 03:58:14.420886+01 | 1486177094.42089 | pgbench_accounts |       1393565696
 2017-02-04 03:58:14.420886+01 | 1486177094.42089 | pgbench_tellers  |          3358720
 2017-02-04 03:58:14.420886+01 | 1486177094.42089 | pgbench_history  |        125067264
 2017-02-04 03:58:14.420886+01 | 1486177094.42089 | pgbench_branches |           851968

 2017-02-04 03:58:15.510725+01 | 1486177095.51073 | pgbench_accounts |       1393565696
 2017-02-04 03:58:15.510725+01 | 1486177095.51073 | pgbench_tellers  |          3358720
 2017-02-04 03:58:15.510725+01 | 1486177095.51073 | pgbench_history  |        125796352
 2017-02-04 03:58:15.510725+01 | 1486177095.51073 | pgbench_branches |           851968

 2017-02-04 03:58:16.58826+01 | 1486177096.58826 | pgbench_accounts |       1393565696
 2017-02-04 03:58:16.58826+01 | 1486177096.58826 | pgbench_tellers  |          3358720
 2017-02-04 03:58:16.58826+01 | 1486177096.58826 | pgbench_history  |        127369216
 2017-02-04 03:58:16.58826+01 | 1486177096.58826 | pgbench_branches |           851968

 2017-02-04 03:58:17.66688+01 | 1486177097.66688 | pgbench_accounts |       1393565696
 2017-02-04 03:58:17.66688+01 | 1486177097.66688 | pgbench_tellers  |          3358720
 2017-02-04 03:58:17.66688+01 | 1486177097.66688 | pgbench_history  |        127754240
 2017-02-04 03:58:17.66688+01 | 1486177097.66688 | pgbench_branches |           851968

 2017-02-04 03:58:18.74885+01 | 1486177098.74885 | pgbench_accounts |       1393565696
 2017-02-04 03:58:18.74885+01 | 1486177098.74885 | pgbench_tellers  |          3358720
 2017-02-04 03:58:18.74885+01 | 1486177098.74885 | pgbench_history  |        128475136
 2017-02-04 03:58:18.74885+01 | 1486177098.74885 | pgbench_branches |           851968

 2017-02-04 03:58:19.828236+01 | 1486177099.82824 | pgbench_accounts |       1393565696
 2017-02-04 03:58:19.828236+01 | 1486177099.82824 | pgbench_tellers  |          3358720
 2017-02-04 03:58:19.828236+01 | 1486177099.82824 | pgbench_history  |        129245184
 2017-02-04 03:58:19.828236+01 | 1486177099.82824 | pgbench_branches |           851968

 2017-02-04 03:58:20.900248+01 | 1486177100.90025 | pgbench_accounts |       1393565696
 2017-02-04 03:58:20.900248+01 | 1486177100.90025 | pgbench_tellers  |          3358720
 2017-02-04 03:58:20.900248+01 | 1486177100.90025 | pgbench_history  |        129982464
 2017-02-04 03:58:20.900248+01 | 1486177100.90025 | pgbench_branches |           851968

 2017-02-04 03:58:21.97876+01 | 1486177101.97876 | pgbench_accounts |       1393565696
 2017-02-04 03:58:21.97876+01 | 1486177101.97876 | pgbench_tellers  |          3358720
 2017-02-04 03:58:21.97876+01 | 1486177101.97876 | pgbench_history  |        131194880
 2017-02-04 03:58:21.97876+01 | 1486177101.97876 | pgbench_branches |           851968

 2017-02-04 03:58:23.039488+01 | 1486177103.03949 | pgbench_accounts |       1393565696
 2017-02-04 03:58:23.039488+01 | 1486177103.03949 | pgbench_tellers  |          3358720
 2017-02-04 03:58:23.039488+01 | 1486177103.03949 | pgbench_history  |        131817472
 2017-02-04 03:58:23.039488+01 | 1486177103.03949 | pgbench_branches |           851968

 2017-02-04 03:58:24.126697+01 | 1486177104.1267 | pgbench_accounts |       1393565696
 2017-02-04 03:58:24.126697+01 | 1486177104.1267 | pgbench_tellers  |          3358720
 2017-02-04 03:58:24.126697+01 | 1486177104.1267 | pgbench_history  |        132857856
 2017-02-04 03:58:24.126697+01 | 1486177104.1267 | pgbench_branches |           851968

 2017-02-04 03:58:25.211237+01 | 1486177105.21124 | pgbench_accounts |       1393565696
 2017-02-04 03:58:25.211237+01 | 1486177105.21124 | pgbench_tellers  |          3358720
 2017-02-04 03:58:25.211237+01 | 1486177105.21124 | pgbench_history  |        133627904
 2017-02-04 03:58:25.211237+01 | 1486177105.21124 | pgbench_branches |           851968

 2017-02-04 03:58:26.289279+01 | 1486177106.28928 | pgbench_accounts |       1393565696
 2017-02-04 03:58:26.289279+01 | 1486177106.28928 | pgbench_tellers  |          3358720
 2017-02-04 03:58:26.289279+01 | 1486177106.28928 | pgbench_history  |        134889472
 2017-02-04 03:58:26.289279+01 | 1486177106.28928 | pgbench_branches |           851968

 2017-02-04 03:58:27.379599+01 | 1486177107.3796 | pgbench_accounts |       1393565696
 2017-02-04 03:58:27.379599+01 | 1486177107.3796 | pgbench_tellers  |          3358720
 2017-02-04 03:58:27.379599+01 | 1486177107.3796 | pgbench_history  |        135733248
 2017-02-04 03:58:27.379599+01 | 1486177107.3796 | pgbench_branches |           851968

 2017-02-04 03:58:28.457593+01 | 1486177108.45759 | pgbench_accounts |       1393565696
 2017-02-04 03:58:28.457593+01 | 1486177108.45759 | pgbench_tellers  |          3358720
 2017-02-04 03:58:28.457593+01 | 1486177108.45759 | pgbench_history  |        136609792
 2017-02-04 03:58:28.457593+01 | 1486177108.45759 | pgbench_branches |           851968

 2017-02-04 03:58:29.547145+01 | 1486177109.54714 | pgbench_accounts |       1393565696
 2017-02-04 03:58:29.547145+01 | 1486177109.54714 | pgbench_tellers  |          3358720
 2017-02-04 03:58:29.547145+01 | 1486177109.54714 | pgbench_history  |        137347072
 2017-02-04 03:58:29.547145+01 | 1486177109.54714 | pgbench_branches |           851968

 2017-02-04 03:58:30.629146+01 | 1486177110.62915 | pgbench_accounts |       1393565696
 2017-02-04 03:58:30.629146+01 | 1486177110.62915 | pgbench_tellers  |          3358720
 2017-02-04 03:58:30.629146+01 | 1486177110.62915 | pgbench_history  |        138067968
 2017-02-04 03:58:30.629146+01 | 1486177110.62915 | pgbench_branches |           851968

 2017-02-04 03:58:31.708596+01 | 1486177111.7086 | pgbench_accounts |       1393565696
 2017-02-04 03:58:31.708596+01 | 1486177111.7086 | pgbench_tellers  |          3358720
 2017-02-04 03:58:31.708596+01 | 1486177111.7086 | pgbench_history  |        138797056
 2017-02-04 03:58:31.708596+01 | 1486177111.7086 | pgbench_branches |           851968

 2017-02-04 03:58:32.800499+01 | 1486177112.8005 | pgbench_accounts |       1393565696
 2017-02-04 03:58:32.800499+01 | 1486177112.8005 | pgbench_tellers  |          3358720
 2017-02-04 03:58:32.800499+01 | 1486177112.8005 | pgbench_history  |        139870208
 2017-02-04 03:58:32.800499+01 | 1486177112.8005 | pgbench_branches |           851968

 2017-02-04 03:58:33.888096+01 | 1486177113.8881 | pgbench_accounts |       1393565696
 2017-02-04 03:58:33.888096+01 | 1486177113.8881 | pgbench_tellers  |          3358720
 2017-02-04 03:58:33.888096+01 | 1486177113.8881 | pgbench_history  |        140820480
 2017-02-04 03:58:33.888096+01 | 1486177113.8881 | pgbench_branches |           851968

 2017-02-04 03:58:34.969026+01 | 1486177114.96903 | pgbench_accounts |       1393565696
 2017-02-04 03:58:34.969026+01 | 1486177114.96903 | pgbench_tellers  |          3358720
 2017-02-04 03:58:34.969026+01 | 1486177114.96903 | pgbench_history  |        141385728
 2017-02-04 03:58:34.969026+01 | 1486177114.96903 | pgbench_branches |           851968

 2017-02-04 03:58:36.058155+01 | 1486177116.05816 | pgbench_accounts |       1393565696
 2017-02-04 03:58:36.058155+01 | 1486177116.05816 | pgbench_tellers  |          3358720
 2017-02-04 03:58:36.058155+01 | 1486177116.05816 | pgbench_history  |        142254080
 2017-02-04 03:58:36.058155+01 | 1486177116.05816 | pgbench_branches |           851968

 2017-02-04 03:58:37.143125+01 | 1486177117.14313 | pgbench_accounts |       1393565696
 2017-02-04 03:58:37.143125+01 | 1486177117.14313 | pgbench_tellers  |          3358720
 2017-02-04 03:58:37.143125+01 | 1486177117.14313 | pgbench_history  |        143106048
 2017-02-04 03:58:37.143125+01 | 1486177117.14313 | pgbench_branches |           851968

 2017-02-04 03:58:38.222416+01 | 1486177118.22242 | pgbench_accounts |       1393565696
 2017-02-04 03:58:38.222416+01 | 1486177118.22242 | pgbench_tellers  |          3358720
 2017-02-04 03:58:38.222416+01 | 1486177118.22242 | pgbench_history  |        144138240
 2017-02-04 03:58:38.222416+01 | 1486177118.22242 | pgbench_branches |           851968

 2017-02-04 03:58:39.296202+01 | 1486177119.2962 | pgbench_accounts |       1393565696
 2017-02-04 03:58:39.296202+01 | 1486177119.2962 | pgbench_tellers  |          3358720
 2017-02-04 03:58:39.296202+01 | 1486177119.2962 | pgbench_history  |        144736256
 2017-02-04 03:58:39.296202+01 | 1486177119.2962 | pgbench_branches |           851968

 2017-02-04 03:58:40.372463+01 | 1486177120.37246 | pgbench_accounts |       1393565696
 2017-02-04 03:58:40.372463+01 | 1486177120.37246 | pgbench_tellers  |          3358720
 2017-02-04 03:58:40.372463+01 | 1486177120.37246 | pgbench_history  |        145547264
 2017-02-04 03:58:40.372463+01 | 1486177120.37246 | pgbench_branches |           851968

 2017-02-04 03:58:41.448564+01 | 1486177121.44856 | pgbench_accounts |       1393565696
 2017-02-04 03:58:41.448564+01 | 1486177121.44856 | pgbench_tellers  |          3358720
 2017-02-04 03:58:41.448564+01 | 1486177121.44856 | pgbench_history  |        146415616
 2017-02-04 03:58:41.448564+01 | 1486177121.44856 | pgbench_branches |           851968

 2017-02-04 03:58:42.529493+01 | 1486177122.52949 | pgbench_accounts |       1393565696
 2017-02-04 03:58:42.529493+01 | 1486177122.52949 | pgbench_tellers  |          3358720
 2017-02-04 03:58:42.529493+01 | 1486177122.52949 | pgbench_history  |        147513344
 2017-02-04 03:58:42.529493+01 | 1486177122.52949 | pgbench_branches |           851968

 2017-02-04 03:58:43.613975+01 | 1486177123.61398 | pgbench_accounts |       1393565696
 2017-02-04 03:58:43.613975+01 | 1486177123.61398 | pgbench_tellers  |          3358720
 2017-02-04 03:58:43.613975+01 | 1486177123.61398 | pgbench_history  |        148226048
 2017-02-04 03:58:43.613975+01 | 1486177123.61398 | pgbench_branches |           851968

 2017-02-04 03:58:44.698689+01 | 1486177124.69869 | pgbench_accounts |       1393565696
 2017-02-04 03:58:44.698689+01 | 1486177124.69869 | pgbench_tellers  |          3358720
 2017-02-04 03:58:44.698689+01 | 1486177124.69869 | pgbench_history  |        149102592
 2017-02-04 03:58:44.698689+01 | 1486177124.69869 | pgbench_branches |           851968

 2017-02-04 03:58:45.78101+01 | 1486177125.78101 | pgbench_accounts |       1393565696
 2017-02-04 03:58:45.78101+01 | 1486177125.78101 | pgbench_tellers  |          3358720
 2017-02-04 03:58:45.78101+01 | 1486177125.78101 | pgbench_history  |        150142976
 2017-02-04 03:58:45.78101+01 | 1486177125.78101 | pgbench_branches |           851968

 2017-02-04 03:58:46.870263+01 | 1486177126.87026 | pgbench_accounts |       1393565696
 2017-02-04 03:58:46.870263+01 | 1486177126.87026 | pgbench_tellers  |          3358720
 2017-02-04 03:58:46.870263+01 | 1486177126.87026 | pgbench_history  |        150528000
 2017-02-04 03:58:46.870263+01 | 1486177126.87026 | pgbench_branches |           851968

 2017-02-04 03:58:47.950292+01 | 1486177127.95029 | pgbench_accounts |       1393565696
 2017-02-04 03:58:47.950292+01 | 1486177127.95029 | pgbench_tellers  |          3358720
 2017-02-04 03:58:47.950292+01 | 1486177127.95029 | pgbench_history  |        151920640
 2017-02-04 03:58:47.950292+01 | 1486177127.95029 | pgbench_branches |           851968

 2017-02-04 03:58:49.025191+01 | 1486177129.02519 | pgbench_accounts |       1393565696
 2017-02-04 03:58:49.025191+01 | 1486177129.02519 | pgbench_tellers  |          3358720
 2017-02-04 03:58:49.025191+01 | 1486177129.02519 | pgbench_history  |        152625152
 2017-02-04 03:58:49.025191+01 | 1486177129.02519 | pgbench_branches |           851968

 2017-02-04 03:58:50.102393+01 | 1486177130.10239 | pgbench_accounts |       1393565696
 2017-02-04 03:58:50.102393+01 | 1486177130.10239 | pgbench_tellers  |          3358720
 2017-02-04 03:58:50.102393+01 | 1486177130.10239 | pgbench_history  |        153370624
 2017-02-04 03:58:50.102393+01 | 1486177130.10239 | pgbench_branches |           851968

 2017-02-04 03:58:51.177645+01 | 1486177131.17764 | pgbench_accounts |       1393565696
 2017-02-04 03:58:51.177645+01 | 1486177131.17764 | pgbench_tellers  |          3358720
 2017-02-04 03:58:51.177645+01 | 1486177131.17764 | pgbench_history  |        154083328
 2017-02-04 03:58:51.177645+01 | 1486177131.17764 | pgbench_branches |           851968

 2017-02-04 03:58:52.258773+01 | 1486177132.25877 | pgbench_accounts |       1393565696
 2017-02-04 03:58:52.258773+01 | 1486177132.25877 | pgbench_tellers  |          3358720
 2017-02-04 03:58:52.258773+01 | 1486177132.25877 | pgbench_history  |        154796032
 2017-02-04 03:58:52.258773+01 | 1486177132.25877 | pgbench_branches |           851968

 2017-02-04 03:58:53.338329+01 | 1486177133.33833 | pgbench_accounts |       1393565696
 2017-02-04 03:58:53.338329+01 | 1486177133.33833 | pgbench_tellers  |          3358720
 2017-02-04 03:58:53.338329+01 | 1486177133.33833 | pgbench_history  |        155729920
 2017-02-04 03:58:53.338329+01 | 1486177133.33833 | pgbench_branches |           851968

 2017-02-04 03:58:54.424102+01 | 1486177134.4241 | pgbench_accounts |       1393565696
 2017-02-04 03:58:54.424102+01 | 1486177134.4241 | pgbench_tellers  |          3358720
 2017-02-04 03:58:54.424102+01 | 1486177134.4241 | pgbench_history  |        156434432
 2017-02-04 03:58:54.424102+01 | 1486177134.4241 | pgbench_branches |           851968

 2017-02-04 03:58:55.505021+01 | 1486177135.50502 | pgbench_accounts |       1393565696
 2017-02-04 03:58:55.505021+01 | 1486177135.50502 | pgbench_tellers  |          3358720
 2017-02-04 03:58:55.505021+01 | 1486177135.50502 | pgbench_history  |        157122560
 2017-02-04 03:58:55.505021+01 | 1486177135.50502 | pgbench_branches |           851968

 2017-02-04 03:58:56.585879+01 | 1486177136.58588 | pgbench_accounts |       1393565696
 2017-02-04 03:58:56.585879+01 | 1486177136.58588 | pgbench_tellers  |          3358720
 2017-02-04 03:58:56.585879+01 | 1486177136.58588 | pgbench_history  |        157966336
 2017-02-04 03:58:56.585879+01 | 1486177136.58588 | pgbench_branches |           851968

 2017-02-04 03:58:57.666943+01 | 1486177137.66694 | pgbench_accounts |       1393565696
 2017-02-04 03:58:57.666943+01 | 1486177137.66694 | pgbench_tellers  |          3358720
 2017-02-04 03:58:57.666943+01 | 1486177137.66694 | pgbench_history  |        159023104
 2017-02-04 03:58:57.666943+01 | 1486177137.66694 | pgbench_branches |           851968

 2017-02-04 03:58:58.736302+01 | 1486177138.7363 | pgbench_accounts |       1393565696
 2017-02-04 03:58:58.736302+01 | 1486177138.7363 | pgbench_tellers  |          3358720
 2017-02-04 03:58:58.736302+01 | 1486177138.7363 | pgbench_history  |        159383552
 2017-02-04 03:58:58.736302+01 | 1486177138.7363 | pgbench_branches |           851968

 2017-02-04 03:58:59.809045+01 | 1486177139.80905 | pgbench_accounts |       1393565696
 2017-02-04 03:58:59.809045+01 | 1486177139.80905 | pgbench_tellers  |          3358720
 2017-02-04 03:58:59.809045+01 | 1486177139.80905 | pgbench_history  |        160104448
 2017-02-04 03:58:59.809045+01 | 1486177139.80905 | pgbench_branches |           851968

 2017-02-04 03:59:00.888631+01 | 1486177140.88863 | pgbench_accounts |       1393565696
 2017-02-04 03:59:00.888631+01 | 1486177140.88863 | pgbench_tellers  |          3358720
 2017-02-04 03:59:00.888631+01 | 1486177140.88863 | pgbench_history  |        161144832
 2017-02-04 03:59:00.888631+01 | 1486177140.88863 | pgbench_branches |           851968

 2017-02-04 03:59:01.964105+01 | 1486177141.9641 | pgbench_accounts |       1393565696
 2017-02-04 03:59:01.964105+01 | 1486177141.9641 | pgbench_tellers  |          3358720
 2017-02-04 03:59:01.964105+01 | 1486177141.9641 | pgbench_history  |        161497088
 2017-02-04 03:59:01.964105+01 | 1486177141.9641 | pgbench_branches |           851968

 2017-02-04 03:59:03.03854+01 | 1486177143.03854 | pgbench_accounts |       1393565696
 2017-02-04 03:59:03.03854+01 | 1486177143.03854 | pgbench_tellers  |          3358720
 2017-02-04 03:59:03.03854+01 | 1486177143.03854 | pgbench_history  |        162201600
 2017-02-04 03:59:03.03854+01 | 1486177143.03854 | pgbench_branches |           851968

 2017-02-04 03:59:04.118332+01 | 1486177144.11833 | pgbench_accounts |       1393565696
 2017-02-04 03:59:04.118332+01 | 1486177144.11833 | pgbench_tellers  |          3358720
 2017-02-04 03:59:04.118332+01 | 1486177144.11833 | pgbench_history  |        162906112
 2017-02-04 03:59:04.118332+01 | 1486177144.11833 | pgbench_branches |           851968

 2017-02-04 03:59:05.210784+01 | 1486177145.21078 | pgbench_accounts |       1393565696
 2017-02-04 03:59:05.210784+01 | 1486177145.21078 | pgbench_tellers  |          3358720
 2017-02-04 03:59:05.210784+01 | 1486177145.21078 | pgbench_history  |        163651584
 2017-02-04 03:59:05.210784+01 | 1486177145.21078 | pgbench_branches |           851968

 2017-02-04 03:59:06.295502+01 | 1486177146.2955 | pgbench_accounts |       1393565696
 2017-02-04 03:59:06.295502+01 | 1486177146.2955 | pgbench_tellers  |          3358720
 2017-02-04 03:59:06.295502+01 | 1486177146.2955 | pgbench_history  |        164749312
 2017-02-04 03:59:06.295502+01 | 1486177146.2955 | pgbench_branches |           851968

 2017-02-04 03:59:07.372802+01 | 1486177147.3728 | pgbench_accounts |       1393565696
 2017-02-04 03:59:07.372802+01 | 1486177147.3728 | pgbench_tellers  |          3358720
 2017-02-04 03:59:07.372802+01 | 1486177147.3728 | pgbench_history  |        165298176
 2017-02-04 03:59:07.372802+01 | 1486177147.3728 | pgbench_branches |           851968

 2017-02-04 03:59:08.445002+01 | 1486177148.445 | pgbench_accounts |       1393565696
 2017-02-04 03:59:08.445002+01 | 1486177148.445 | pgbench_tellers  |          3358720
 2017-02-04 03:59:08.445002+01 | 1486177148.445 | pgbench_history  |        166346752
 2017-02-04 03:59:08.445002+01 | 1486177148.445 | pgbench_branches |           851968

 2017-02-04 03:59:09.5239+01 | 1486177149.5239 | pgbench_accounts |       1393565696
 2017-02-04 03:59:09.5239+01 | 1486177149.5239 | pgbench_tellers  |          3358720
 2017-02-04 03:59:09.5239+01 | 1486177149.5239 | pgbench_history  |        166699008
 2017-02-04 03:59:09.5239+01 | 1486177149.5239 | pgbench_branches |           851968

 2017-02-04 03:59:10.601811+01 | 1486177150.60181 | pgbench_accounts |       1393565696
 2017-02-04 03:59:10.601811+01 | 1486177150.60181 | pgbench_tellers  |          3358720
 2017-02-04 03:59:10.601811+01 | 1486177150.60181 | pgbench_history  |        167280640
 2017-02-04 03:59:10.601811+01 | 1486177150.60181 | pgbench_branches |           851968

 2017-02-04 03:59:11.673888+01 | 1486177151.67389 | pgbench_accounts |       1393565696
 2017-02-04 03:59:11.673888+01 | 1486177151.67389 | pgbench_tellers  |          3358720
 2017-02-04 03:59:11.673888+01 | 1486177151.67389 | pgbench_history  |        168198144
 2017-02-04 03:59:11.673888+01 | 1486177151.67389 | pgbench_branches |           851968

 2017-02-04 03:59:12.751112+01 | 1486177152.75111 | pgbench_accounts |       1393565696
 2017-02-04 03:59:12.751112+01 | 1486177152.75111 | pgbench_tellers  |          3358720
 2017-02-04 03:59:12.751112+01 | 1486177152.75111 | pgbench_history  |        168976384
 2017-02-04 03:59:12.751112+01 | 1486177152.75111 | pgbench_branches |           851968

 2017-02-04 03:59:13.824742+01 | 1486177153.82474 | pgbench_accounts |       1393565696
 2017-02-04 03:59:13.824742+01 | 1486177153.82474 | pgbench_tellers  |          3358720
 2017-02-04 03:59:13.824742+01 | 1486177153.82474 | pgbench_history  |        169762816
 2017-02-04 03:59:13.824742+01 | 1486177153.82474 | pgbench_branches |           851968

 2017-02-04 03:59:14.911322+01 | 1486177154.91132 | pgbench_accounts |       1393565696
 2017-02-04 03:59:14.911322+01 | 1486177154.91132 | pgbench_tellers  |          3358720
 2017-02-04 03:59:14.911322+01 | 1486177154.91132 | pgbench_history  |        170893312
 2017-02-04 03:59:14.911322+01 | 1486177154.91132 | pgbench_branches |           851968

 2017-02-04 03:59:15.993821+01 | 1486177155.99382 | pgbench_accounts |       1393565696
 2017-02-04 03:59:15.993821+01 | 1486177155.99382 | pgbench_tellers  |          3358720
 2017-02-04 03:59:15.993821+01 | 1486177155.99382 | pgbench_history  |        171442176
 2017-02-04 03:59:15.993821+01 | 1486177155.99382 | pgbench_branches |           851968

 2017-02-04 03:59:17.075496+01 | 1486177157.0755 | pgbench_accounts |       1393565696
 2017-02-04 03:59:17.075496+01 | 1486177157.0755 | pgbench_tellers  |          3358720
 2017-02-04 03:59:17.075496+01 | 1486177157.0755 | pgbench_history  |        172646400
 2017-02-04 03:59:17.075496+01 | 1486177157.0755 | pgbench_branches |           851968

 2017-02-04 03:59:18.155276+01 | 1486177158.15528 | pgbench_accounts |       1393565696
 2017-02-04 03:59:18.155276+01 | 1486177158.15528 | pgbench_tellers  |          3358720
 2017-02-04 03:59:18.155276+01 | 1486177158.15528 | pgbench_history  |        173031424
 2017-02-04 03:59:18.155276+01 | 1486177158.15528 | pgbench_branches |           851968

 2017-02-04 03:59:19.227496+01 | 1486177159.2275 | pgbench_accounts |       1393565696
 2017-02-04 03:59:19.227496+01 | 1486177159.2275 | pgbench_tellers  |          3358720
 2017-02-04 03:59:19.227496+01 | 1486177159.2275 | pgbench_history  |        174071808
 2017-02-04 03:59:19.227496+01 | 1486177159.2275 | pgbench_branches |           851968

 2017-02-04 03:59:20.310171+01 | 1486177160.31017 | pgbench_accounts |       1393565696
 2017-02-04 03:59:20.310171+01 | 1486177160.31017 | pgbench_tellers  |          3358720
 2017-02-04 03:59:20.310171+01 | 1486177160.31017 | pgbench_history  |        174751744
 2017-02-04 03:59:20.310171+01 | 1486177160.31017 | pgbench_branches |           851968

 2017-02-04 03:59:21.400311+01 | 1486177161.40031 | pgbench_accounts |       1393565696
 2017-02-04 03:59:21.400311+01 | 1486177161.40031 | pgbench_tellers  |          3358720
 2017-02-04 03:59:21.400311+01 | 1486177161.40031 | pgbench_history  |        175800320
 2017-02-04 03:59:21.400311+01 | 1486177161.40031 | pgbench_branches |           851968

 2017-02-04 03:59:22.477476+01 | 1486177162.47748 | pgbench_accounts |       1393565696
 2017-02-04 03:59:22.477476+01 | 1486177162.47748 | pgbench_tellers  |          3358720
 2017-02-04 03:59:22.477476+01 | 1486177162.47748 | pgbench_history  |        176529408
 2017-02-04 03:59:22.477476+01 | 1486177162.47748 | pgbench_branches |           851968

 2017-02-04 03:59:23.556752+01 | 1486177163.55675 | pgbench_accounts |       1393565696
 2017-02-04 03:59:23.556752+01 | 1486177163.55675 | pgbench_tellers  |          3358720
 2017-02-04 03:59:23.556752+01 | 1486177163.55675 | pgbench_history  |        177438720
 2017-02-04 03:59:23.556752+01 | 1486177163.55675 | pgbench_branches |           851968

 2017-02-04 03:59:24.642999+01 | 1486177164.643 | pgbench_accounts |       1393565696
 2017-02-04 03:59:24.642999+01 | 1486177164.643 | pgbench_tellers  |          3358720
 2017-02-04 03:59:24.642999+01 | 1486177164.643 | pgbench_history  |        178208768
 2017-02-04 03:59:24.642999+01 | 1486177164.643 | pgbench_branches |           851968

 2017-02-04 03:59:25.72966+01 | 1486177165.72966 | pgbench_accounts |       1393565696
 2017-02-04 03:59:25.72966+01 | 1486177165.72966 | pgbench_tellers  |          3358720
 2017-02-04 03:59:25.72966+01 | 1486177165.72966 | pgbench_history  |        179101696
 2017-02-04 03:59:25.72966+01 | 1486177165.72966 | pgbench_branches |           851968

 2017-02-04 03:59:26.820705+01 | 1486177166.8207 | pgbench_accounts |       1393565696
 2017-02-04 03:59:26.820705+01 | 1486177166.8207 | pgbench_tellers  |          3358720
 2017-02-04 03:59:26.820705+01 | 1486177166.8207 | pgbench_history  |        179789824
 2017-02-04 03:59:26.820705+01 | 1486177166.8207 | pgbench_branches |           851968

 2017-02-04 03:59:27.909297+01 | 1486177167.9093 | pgbench_accounts |       1393565696
 2017-02-04 03:59:27.909297+01 | 1486177167.9093 | pgbench_tellers  |          3358720
 2017-02-04 03:59:27.909297+01 | 1486177167.9093 | pgbench_history  |        180649984
 2017-02-04 03:59:27.909297+01 | 1486177167.9093 | pgbench_branches |           851968

 2017-02-04 03:59:28.985826+01 | 1486177168.98583 | pgbench_accounts |       1393565696
 2017-02-04 03:59:28.985826+01 | 1486177168.98583 | pgbench_tellers  |          3358720
 2017-02-04 03:59:28.985826+01 | 1486177168.98583 | pgbench_history  |        181174272
 2017-02-04 03:59:28.985826+01 | 1486177168.98583 | pgbench_branches |           851968

 2017-02-04 03:59:30.067868+01 | 1486177170.06787 | pgbench_accounts |       1393565696
 2017-02-04 03:59:30.067868+01 | 1486177170.06787 | pgbench_tellers  |          3358720
 2017-02-04 03:59:30.067868+01 | 1486177170.06787 | pgbench_history  |        182050816
 2017-02-04 03:59:30.067868+01 | 1486177170.06787 | pgbench_branches |           851968

 2017-02-04 03:59:31.152544+01 | 1486177171.15254 | pgbench_accounts |       1393565696
 2017-02-04 03:59:31.152544+01 | 1486177171.15254 | pgbench_tellers  |          3358720
 2017-02-04 03:59:31.152544+01 | 1486177171.15254 | pgbench_history  |        182796288
 2017-02-04 03:59:31.152544+01 | 1486177171.15254 | pgbench_branches |           851968

 2017-02-04 03:59:32.226296+01 | 1486177172.2263 | pgbench_accounts |       1393565696
 2017-02-04 03:59:32.226296+01 | 1486177172.2263 | pgbench_tellers  |          3358720
 2017-02-04 03:59:32.226296+01 | 1486177172.2263 | pgbench_history  |        184016896
 2017-02-04 03:59:32.226296+01 | 1486177172.2263 | pgbench_branches |           851968

 2017-02-04 03:59:33.304366+01 | 1486177173.30437 | pgbench_accounts |       1393565696
 2017-02-04 03:59:33.304366+01 | 1486177173.30437 | pgbench_tellers  |          3358720
 2017-02-04 03:59:33.304366+01 | 1486177173.30437 | pgbench_history  |        184229888
 2017-02-04 03:59:33.304366+01 | 1486177173.30437 | pgbench_branches |           851968

 2017-02-04 03:59:34.386444+01 | 1486177174.38644 | pgbench_accounts |       1393565696
 2017-02-04 03:59:34.386444+01 | 1486177174.38644 | pgbench_tellers  |          3358720
 2017-02-04 03:59:34.386444+01 | 1486177174.38644 | pgbench_history  |        185008128
 2017-02-04 03:59:34.386444+01 | 1486177174.38644 | pgbench_branches |           851968

 2017-02-04 03:59:35.46658+01 | 1486177175.46658 | pgbench_accounts |       1393565696
 2017-02-04 03:59:35.46658+01 | 1486177175.46658 | pgbench_tellers  |          3358720
 2017-02-04 03:59:35.46658+01 | 1486177175.46658 | pgbench_history  |        185769984
 2017-02-04 03:59:35.46658+01 | 1486177175.46658 | pgbench_branches |           851968

 2017-02-04 03:59:36.535445+01 | 1486177176.53544 | pgbench_accounts |       1393565696
 2017-02-04 03:59:36.535445+01 | 1486177176.53544 | pgbench_tellers  |          3358720
 2017-02-04 03:59:36.535445+01 | 1486177176.53544 | pgbench_history  |        186679296
 2017-02-04 03:59:36.535445+01 | 1486177176.53544 | pgbench_branches |           851968

 2017-02-04 03:59:37.614958+01 | 1486177177.61496 | pgbench_accounts |       1393565696
 2017-02-04 03:59:37.614958+01 | 1486177177.61496 | pgbench_tellers  |          3358720
 2017-02-04 03:59:37.614958+01 | 1486177177.61496 | pgbench_history  |        187400192
 2017-02-04 03:59:37.614958+01 | 1486177177.61496 | pgbench_branches |           851968

 2017-02-04 03:59:38.691477+01 | 1486177178.69148 | pgbench_accounts |       1393565696
 2017-02-04 03:59:38.691477+01 | 1486177178.69148 | pgbench_tellers  |          3358720
 2017-02-04 03:59:38.691477+01 | 1486177178.69148 | pgbench_history  |        188170240
 2017-02-04 03:59:38.691477+01 | 1486177178.69148 | pgbench_branches |           851968

 2017-02-04 03:59:39.776692+01 | 1486177179.77669 | pgbench_accounts |       1393565696
 2017-02-04 03:59:39.776692+01 | 1486177179.77669 | pgbench_tellers  |          3358720
 2017-02-04 03:59:39.776692+01 | 1486177179.77669 | pgbench_history  |        188735488
 2017-02-04 03:59:39.776692+01 | 1486177179.77669 | pgbench_branches |           851968

 2017-02-04 03:59:40.863834+01 | 1486177180.86383 | pgbench_accounts |       1393565696
 2017-02-04 03:59:40.863834+01 | 1486177180.86383 | pgbench_tellers  |          3358720
 2017-02-04 03:59:40.863834+01 | 1486177180.86383 | pgbench_history  |        189636608
 2017-02-04 03:59:40.863834+01 | 1486177180.86383 | pgbench_branches |           851968

 2017-02-04 03:59:41.936537+01 | 1486177181.93654 | pgbench_accounts |       1393565696
 2017-02-04 03:59:41.936537+01 | 1486177181.93654 | pgbench_tellers  |          3358720
 2017-02-04 03:59:41.936537+01 | 1486177181.93654 | pgbench_history  |        191045632
 2017-02-04 03:59:41.936537+01 | 1486177181.93654 | pgbench_branches |           851968

 2017-02-04 03:59:43.008455+01 | 1486177183.00846 | pgbench_accounts |       1393565696
 2017-02-04 03:59:43.008455+01 | 1486177183.00846 | pgbench_tellers  |          3358720
 2017-02-04 03:59:43.008455+01 | 1486177183.00846 | pgbench_history  |        191250432
 2017-02-04 03:59:43.008455+01 | 1486177183.00846 | pgbench_branches |           851968

 2017-02-04 03:59:44.098386+01 | 1486177184.09839 | pgbench_accounts |       1393565696
 2017-02-04 03:59:44.098386+01 | 1486177184.09839 | pgbench_tellers  |          3358720
 2017-02-04 03:59:44.098386+01 | 1486177184.09839 | pgbench_history  |        192126976
 2017-02-04 03:59:44.098386+01 | 1486177184.09839 | pgbench_branches |           851968

 2017-02-04 03:59:45.171352+01 | 1486177185.17135 | pgbench_accounts |       1393565696
 2017-02-04 03:59:45.171352+01 | 1486177185.17135 | pgbench_tellers  |          3358720
 2017-02-04 03:59:45.171352+01 | 1486177185.17135 | pgbench_history  |        192831488
 2017-02-04 03:59:45.171352+01 | 1486177185.17135 | pgbench_branches |           851968

 2017-02-04 03:59:46.247895+01 | 1486177186.2479 | pgbench_accounts |       1393565696
 2017-02-04 03:59:46.247895+01 | 1486177186.2479 | pgbench_tellers  |          3358720
 2017-02-04 03:59:46.247895+01 | 1486177186.2479 | pgbench_history  |        193945600
 2017-02-04 03:59:46.247895+01 | 1486177186.2479 | pgbench_branches |           851968

 2017-02-04 03:59:47.327725+01 | 1486177187.32772 | pgbench_accounts |       1393565696
 2017-02-04 03:59:47.327725+01 | 1486177187.32772 | pgbench_tellers  |          3358720
 2017-02-04 03:59:47.327725+01 | 1486177187.32772 | pgbench_history  |        194789376
 2017-02-04 03:59:47.327725+01 | 1486177187.32772 | pgbench_branches |           851968

 2017-02-04 03:59:48.408007+01 | 1486177188.40801 | pgbench_accounts |       1393565696
 2017-02-04 03:59:48.408007+01 | 1486177188.40801 | pgbench_tellers  |          3358720
 2017-02-04 03:59:48.408007+01 | 1486177188.40801 | pgbench_history  |        195559424
 2017-02-04 03:59:48.408007+01 | 1486177188.40801 | pgbench_branches |           851968

 2017-02-04 03:59:49.487164+01 | 1486177189.48716 | pgbench_accounts |       1393565696
 2017-02-04 03:59:49.487164+01 | 1486177189.48716 | pgbench_tellers  |          3358720
 2017-02-04 03:59:49.487164+01 | 1486177189.48716 | pgbench_history  |        196640768
 2017-02-04 03:59:49.487164+01 | 1486177189.48716 | pgbench_branches |           851968

 2017-02-04 03:59:50.567208+01 | 1486177190.56721 | pgbench_accounts |       1393565696
 2017-02-04 03:59:50.567208+01 | 1486177190.56721 | pgbench_tellers  |          3358720
 2017-02-04 03:59:50.567208+01 | 1486177190.56721 | pgbench_history  |        197181440
 2017-02-04 03:59:50.567208+01 | 1486177190.56721 | pgbench_branches |           851968

 2017-02-04 03:59:51.656509+01 | 1486177191.65651 | pgbench_accounts |       1393565696
 2017-02-04 03:59:51.656509+01 | 1486177191.65651 | pgbench_tellers  |          3358720
 2017-02-04 03:59:51.656509+01 | 1486177191.65651 | pgbench_history  |        198377472
 2017-02-04 03:59:51.656509+01 | 1486177191.65651 | pgbench_branches |           851968

 2017-02-04 03:59:52.742521+01 | 1486177192.74252 | pgbench_accounts |       1393565696
 2017-02-04 03:59:52.742521+01 | 1486177192.74252 | pgbench_tellers  |          3358720
 2017-02-04 03:59:52.742521+01 | 1486177192.74252 | pgbench_history  |        198959104
 2017-02-04 03:59:52.742521+01 | 1486177192.74252 | pgbench_branches |           851968

 2017-02-04 03:59:53.816666+01 | 1486177193.81667 | pgbench_accounts |       1393565696
 2017-02-04 03:59:53.816666+01 | 1486177193.81667 | pgbench_tellers  |          3358720
 2017-02-04 03:59:53.816666+01 | 1486177193.81667 | pgbench_history  |        199811072
 2017-02-04 03:59:53.816666+01 | 1486177193.81667 | pgbench_branches |           851968

 2017-02-04 03:59:54.901129+01 | 1486177194.90113 | pgbench_accounts |       1393565696
 2017-02-04 03:59:54.901129+01 | 1486177194.90113 | pgbench_tellers  |          3358720
 2017-02-04 03:59:54.901129+01 | 1486177194.90113 | pgbench_history  |        200663040
 2017-02-04 03:59:54.901129+01 | 1486177194.90113 | pgbench_branches |           851968

 2017-02-04 03:59:55.985912+01 | 1486177195.98591 | pgbench_accounts |       1393565696
 2017-02-04 03:59:55.985912+01 | 1486177195.98591 | pgbench_tellers  |          3358720
 2017-02-04 03:59:55.985912+01 | 1486177195.98591 | pgbench_history  |        201859072
 2017-02-04 03:59:55.985912+01 | 1486177195.98591 | pgbench_branches |           851968

 2017-02-04 03:59:57.063999+01 | 1486177197.064 | pgbench_accounts |       1393565696
 2017-02-04 03:59:57.063999+01 | 1486177197.064 | pgbench_tellers  |          3358720
 2017-02-04 03:59:57.063999+01 | 1486177197.064 | pgbench_history  |        202424320
 2017-02-04 03:59:57.063999+01 | 1486177197.064 | pgbench_branches |           851968

 2017-02-04 03:59:58.14627+01 | 1486177198.14627 | pgbench_accounts |       1393565696
 2017-02-04 03:59:58.14627+01 | 1486177198.14627 | pgbench_tellers  |          3358720
 2017-02-04 03:59:58.14627+01 | 1486177198.14627 | pgbench_history  |        203177984
 2017-02-04 03:59:58.14627+01 | 1486177198.14627 | pgbench_branches |           851968

 2017-02-04 03:59:59.231668+01 | 1486177199.23167 | pgbench_accounts |       1393565696
 2017-02-04 03:59:59.231668+01 | 1486177199.23167 | pgbench_tellers  |          3358720
 2017-02-04 03:59:59.231668+01 | 1486177199.23167 | pgbench_history  |        204062720
 2017-02-04 03:59:59.231668+01 | 1486177199.23167 | pgbench_branches |           851968

 2017-02-04 04:00:00.318224+01 | 1486177200.31822 | pgbench_accounts |       1393565696
 2017-02-04 04:00:00.318224+01 | 1486177200.31822 | pgbench_tellers  |          3358720
 2017-02-04 04:00:00.318224+01 | 1486177200.31822 | pgbench_history  |        205283328
 2017-02-04 04:00:00.318224+01 | 1486177200.31822 | pgbench_branches |           851968

 2017-02-04 04:00:01.405904+01 | 1486177201.4059 | pgbench_accounts |       1393565696
 2017-02-04 04:00:01.405904+01 | 1486177201.4059 | pgbench_tellers  |          3358720
 2017-02-04 04:00:01.405904+01 | 1486177201.4059 | pgbench_history  |        206028800
 2017-02-04 04:00:01.405904+01 | 1486177201.4059 | pgbench_branches |           851968

 2017-02-04 04:00:02.485062+01 | 1486177202.48506 | pgbench_accounts |       1393565696
 2017-02-04 04:00:02.485062+01 | 1486177202.48506 | pgbench_tellers  |          3358720
 2017-02-04 04:00:02.485062+01 | 1486177202.48506 | pgbench_history  |        206905344
 2017-02-04 04:00:02.485062+01 | 1486177202.48506 | pgbench_branches |           851968

 2017-02-04 04:00:03.570589+01 | 1486177203.57059 | pgbench_accounts |       1393565696
 2017-02-04 04:00:03.570589+01 | 1486177203.57059 | pgbench_tellers  |          3358720
 2017-02-04 04:00:03.570589+01 | 1486177203.57059 | pgbench_history  |        207962112
 2017-02-04 04:00:03.570589+01 | 1486177203.57059 | pgbench_branches |           851968

 2017-02-04 04:00:04.64405+01 | 1486177204.64405 | pgbench_accounts |       1393565696
 2017-02-04 04:00:04.64405+01 | 1486177204.64405 | pgbench_tellers  |          3358720
 2017-02-04 04:00:04.64405+01 | 1486177204.64405 | pgbench_history  |        208814080
 2017-02-04 04:00:04.64405+01 | 1486177204.64405 | pgbench_branches |           851968

 2017-02-04 04:00:05.715541+01 | 1486177205.71554 | pgbench_accounts |       1393565696
 2017-02-04 04:00:05.715541+01 | 1486177205.71554 | pgbench_tellers  |          3358720
 2017-02-04 04:00:05.715541+01 | 1486177205.71554 | pgbench_history  |        209354752
 2017-02-04 04:00:05.715541+01 | 1486177205.71554 | pgbench_branches |           851968

 2017-02-04 04:00:06.795106+01 | 1486177206.79511 | pgbench_accounts |       1393565696
 2017-02-04 04:00:06.795106+01 | 1486177206.79511 | pgbench_tellers  |          3358720
 2017-02-04 04:00:06.795106+01 | 1486177206.79511 | pgbench_history  |        210141184
 2017-02-04 04:00:06.795106+01 | 1486177206.79511 | pgbench_branches |           851968

 2017-02-04 04:00:07.865816+01 | 1486177207.86582 | pgbench_accounts |       1393565696
 2017-02-04 04:00:07.865816+01 | 1486177207.86582 | pgbench_tellers  |          3358720
 2017-02-04 04:00:07.865816+01 | 1486177207.86582 | pgbench_history  |        211378176
 2017-02-04 04:00:07.865816+01 | 1486177207.86582 | pgbench_branches |           851968

 2017-02-04 04:00:08.949017+01 | 1486177208.94902 | pgbench_accounts |       1393565696
 2017-02-04 04:00:08.949017+01 | 1486177208.94902 | pgbench_tellers  |          3358720
 2017-02-04 04:00:08.949017+01 | 1486177208.94902 | pgbench_history  |        212082688
 2017-02-04 04:00:08.949017+01 | 1486177208.94902 | pgbench_branches |           851968

 2017-02-04 04:00:10.030933+01 | 1486177210.03093 | pgbench_accounts |       1393565696
 2017-02-04 04:00:10.030933+01 | 1486177210.03093 | pgbench_tellers  |          3358720
 2017-02-04 04:00:10.030933+01 | 1486177210.03093 | pgbench_history  |        212647936
 2017-02-04 04:00:10.030933+01 | 1486177210.03093 | pgbench_branches |           851968

 2017-02-04 04:00:11.104363+01 | 1486177211.10436 | pgbench_accounts |       1393565696
 2017-02-04 04:00:11.104363+01 | 1486177211.10436 | pgbench_tellers  |          3358720
 2017-02-04 04:00:11.104363+01 | 1486177211.10436 | pgbench_history  |        213557248
 2017-02-04 04:00:11.104363+01 | 1486177211.10436 | pgbench_branches |           851968

 2017-02-04 04:00:12.189771+01 | 1486177212.18977 | pgbench_accounts |       1393565696
 2017-02-04 04:00:12.189771+01 | 1486177212.18977 | pgbench_tellers  |          3358720
 2017-02-04 04:00:12.189771+01 | 1486177212.18977 | pgbench_history  |        214614016
 2017-02-04 04:00:12.189771+01 | 1486177212.18977 | pgbench_branches |           851968

 2017-02-04 04:00:13.259331+01 | 1486177213.25933 | pgbench_accounts |       1393565696
 2017-02-04 04:00:13.259331+01 | 1486177213.25933 | pgbench_tellers  |          3358720
 2017-02-04 04:00:13.259331+01 | 1486177213.25933 | pgbench_history  |        215506944
 2017-02-04 04:00:13.259331+01 | 1486177213.25933 | pgbench_branches |           851968

 2017-02-04 04:00:14.343988+01 | 1486177214.34399 | pgbench_accounts |       1393565696
 2017-02-04 04:00:14.343988+01 | 1486177214.34399 | pgbench_tellers  |          3358720
 2017-02-04 04:00:14.343988+01 | 1486177214.34399 | pgbench_history  |        216571904
 2017-02-04 04:00:14.343988+01 | 1486177214.34399 | pgbench_branches |           851968

 2017-02-04 04:00:15.434761+01 | 1486177215.43476 | pgbench_accounts |       1393565696
 2017-02-04 04:00:15.434761+01 | 1486177215.43476 | pgbench_tellers  |          3358720
 2017-02-04 04:00:15.434761+01 | 1486177215.43476 | pgbench_history  |        217423872
 2017-02-04 04:00:15.434761+01 | 1486177215.43476 | pgbench_branches |           851968

 2017-02-04 04:00:16.524908+01 | 1486177216.52491 | pgbench_accounts |       1393565696
 2017-02-04 04:00:16.524908+01 | 1486177216.52491 | pgbench_tellers  |          3358720
 2017-02-04 04:00:16.524908+01 | 1486177216.52491 | pgbench_history  |        217972736
 2017-02-04 04:00:16.524908+01 | 1486177216.52491 | pgbench_branches |           851968

 2017-02-04 04:00:17.605699+01 | 1486177217.6057 | pgbench_accounts |       1393565696
 2017-02-04 04:00:17.605699+01 | 1486177217.6057 | pgbench_tellers  |          3358720
 2017-02-04 04:00:17.605699+01 | 1486177217.6057 | pgbench_history  |        218857472
 2017-02-04 04:00:17.605699+01 | 1486177217.6057 | pgbench_branches |           851968

 2017-02-04 04:00:18.680233+01 | 1486177218.68023 | pgbench_accounts |       1393565696
 2017-02-04 04:00:18.680233+01 | 1486177218.68023 | pgbench_tellers  |          3358720
 2017-02-04 04:00:18.680233+01 | 1486177218.68023 | pgbench_history  |        219561984
 2017-02-04 04:00:18.680233+01 | 1486177218.68023 | pgbench_branches |           851968

 2017-02-04 04:00:19.765647+01 | 1486177219.76565 | pgbench_accounts |       1393565696
 2017-02-04 04:00:19.765647+01 | 1486177219.76565 | pgbench_tellers  |          3358720
 2017-02-04 04:00:19.765647+01 | 1486177219.76565 | pgbench_history  |        220626944
 2017-02-04 04:00:19.765647+01 | 1486177219.76565 | pgbench_branches |           851968

 2017-02-04 04:00:20.848669+01 | 1486177220.84867 | pgbench_accounts |       1393565696
 2017-02-04 04:00:20.848669+01 | 1486177220.84867 | pgbench_tellers  |          3358720
 2017-02-04 04:00:20.848669+01 | 1486177220.84867 | pgbench_history  |        221315072
 2017-02-04 04:00:20.848669+01 | 1486177220.84867 | pgbench_branches |           851968

 2017-02-04 04:00:21.935815+01 | 1486177221.93582 | pgbench_accounts |       1393565696
 2017-02-04 04:00:21.935815+01 | 1486177221.93582 | pgbench_tellers  |          3358720
 2017-02-04 04:00:21.935815+01 | 1486177221.93582 | pgbench_history  |        222511104
 2017-02-04 04:00:21.935815+01 | 1486177221.93582 | pgbench_branches |           851968

 2017-02-04 04:00:23.013291+01 | 1486177223.01329 | pgbench_accounts |       1393565696
 2017-02-04 04:00:23.013291+01 | 1486177223.01329 | pgbench_tellers  |          3358720
 2017-02-04 04:00:23.013291+01 | 1486177223.01329 | pgbench_history  |        223191040
 2017-02-04 04:00:23.013291+01 | 1486177223.01329 | pgbench_branches |           851968

 2017-02-04 04:00:24.097258+01 | 1486177224.09726 | pgbench_accounts |       1393565696
 2017-02-04 04:00:24.097258+01 | 1486177224.09726 | pgbench_tellers  |          3358720
 2017-02-04 04:00:24.097258+01 | 1486177224.09726 | pgbench_history  |        224395264
 2017-02-04 04:00:24.097258+01 | 1486177224.09726 | pgbench_branches |           851968

 2017-02-04 04:00:25.179239+01 | 1486177225.17924 | pgbench_accounts |       1393565696
 2017-02-04 04:00:25.179239+01 | 1486177225.17924 | pgbench_tellers  |          3358720
 2017-02-04 04:00:25.179239+01 | 1486177225.17924 | pgbench_history  |        224780288
 2017-02-04 04:00:25.179239+01 | 1486177225.17924 | pgbench_branches |           851968

 2017-02-04 04:00:26.256675+01 | 1486177226.25668 | pgbench_accounts |       1393565696
 2017-02-04 04:00:26.256675+01 | 1486177226.25668 | pgbench_tellers  |          3358720
 2017-02-04 04:00:26.256675+01 | 1486177226.25668 | pgbench_history  |        226033664
 2017-02-04 04:00:26.256675+01 | 1486177226.25668 | pgbench_branches |           851968

 2017-02-04 04:00:27.332589+01 | 1486177227.33259 | pgbench_accounts |       1393565696
 2017-02-04 04:00:27.332589+01 | 1486177227.33259 | pgbench_tellers  |          3358720
 2017-02-04 04:00:27.332589+01 | 1486177227.33259 | pgbench_history  |        226590720
 2017-02-04 04:00:27.332589+01 | 1486177227.33259 | pgbench_branches |           851968

 2017-02-04 04:00:28.414449+01 | 1486177228.41445 | pgbench_accounts |       1393565696
 2017-02-04 04:00:28.414449+01 | 1486177228.41445 | pgbench_tellers  |          3358720
 2017-02-04 04:00:28.414449+01 | 1486177228.41445 | pgbench_history  |        227827712
 2017-02-04 04:00:28.414449+01 | 1486177228.41445 | pgbench_branches |           851968

 2017-02-04 04:00:29.500645+01 | 1486177229.50064 | pgbench_accounts |       1393565696
 2017-02-04 04:00:29.500645+01 | 1486177229.50064 | pgbench_tellers  |          3358720
 2017-02-04 04:00:29.500645+01 | 1486177229.50064 | pgbench_history  |        228343808
 2017-02-04 04:00:29.500645+01 | 1486177229.50064 | pgbench_branches |           851968

 2017-02-04 04:00:30.581887+01 | 1486177230.58189 | pgbench_accounts |       1393565696
 2017-02-04 04:00:30.581887+01 | 1486177230.58189 | pgbench_tellers  |          3358720
 2017-02-04 04:00:30.581887+01 | 1486177230.58189 | pgbench_history  |        229572608
 2017-02-04 04:00:30.581887+01 | 1486177230.58189 | pgbench_branches |           851968

 2017-02-04 04:00:31.662179+01 | 1486177231.66218 | pgbench_accounts |       1393565696
 2017-02-04 04:00:31.662179+01 | 1486177231.66218 | pgbench_tellers  |          3358720
 2017-02-04 04:00:31.662179+01 | 1486177231.66218 | pgbench_history  |        230301696
 2017-02-04 04:00:31.662179+01 | 1486177231.66218 | pgbench_branches |           851968

 2017-02-04 04:00:32.740553+01 | 1486177232.74055 | pgbench_accounts |       1393565696
 2017-02-04 04:00:32.740553+01 | 1486177232.74055 | pgbench_tellers  |          3358720
 2017-02-04 04:00:32.740553+01 | 1486177232.74055 | pgbench_history  |        231006208
 2017-02-04 04:00:32.740553+01 | 1486177232.74055 | pgbench_branches |           851968

 2017-02-04 04:00:33.822782+01 | 1486177233.82278 | pgbench_accounts |       1393565696
 2017-02-04 04:00:33.822782+01 | 1486177233.82278 | pgbench_tellers  |          3358720
 2017-02-04 04:00:33.822782+01 | 1486177233.82278 | pgbench_history  |        231964672
 2017-02-04 04:00:33.822782+01 | 1486177233.82278 | pgbench_branches |           851968

 2017-02-04 04:00:34.89678+01 | 1486177234.89678 | pgbench_accounts |       1393565696
 2017-02-04 04:00:34.89678+01 | 1486177234.89678 | pgbench_tellers  |          3358720
 2017-02-04 04:00:34.89678+01 | 1486177234.89678 | pgbench_history  |        232808448
 2017-02-04 04:00:34.89678+01 | 1486177234.89678 | pgbench_branches |           851968

 2017-02-04 04:00:35.974041+01 | 1486177235.97404 | pgbench_accounts |       1393565696
 2017-02-04 04:00:35.974041+01 | 1486177235.97404 | pgbench_tellers  |          3358720
 2017-02-04 04:00:35.974041+01 | 1486177235.97404 | pgbench_history  |        233914368
 2017-02-04 04:00:35.974041+01 | 1486177235.97404 | pgbench_branches |           851968

 2017-02-04 04:00:37.048981+01 | 1486177237.04898 | pgbench_accounts |       1393565696
 2017-02-04 04:00:37.048981+01 | 1486177237.04898 | pgbench_tellers  |          3358720
 2017-02-04 04:00:37.048981+01 | 1486177237.04898 | pgbench_history  |        234463232
 2017-02-04 04:00:37.048981+01 | 1486177237.04898 | pgbench_branches |           851968

 2017-02-04 04:00:38.132183+01 | 1486177238.13218 | pgbench_accounts |       1393565696
 2017-02-04 04:00:38.132183+01 | 1486177238.13218 | pgbench_tellers  |          3358720
 2017-02-04 04:00:38.132183+01 | 1486177238.13218 | pgbench_history  |        235405312
 2017-02-04 04:00:38.132183+01 | 1486177238.13218 | pgbench_branches |           851968

