 2017-02-05 11:57:02.097281+01 | 1486292222.09728 | pgbench_accounts |       1386774528
 2017-02-05 11:57:02.097281+01 | 1486292222.09728 | pgbench_tellers  |            49152
 2017-02-05 11:57:02.097281+01 | 1486292222.09728 | pgbench_history  |                0
 2017-02-05 11:57:02.097281+01 | 1486292222.09728 | pgbench_branches |             8192

 2017-02-05 11:57:03.186102+01 | 1486292223.1861 | pgbench_accounts |       1386774528
 2017-02-05 11:57:03.186102+01 | 1486292223.1861 | pgbench_tellers  |            49152
 2017-02-05 11:57:03.186102+01 | 1486292223.1861 | pgbench_history  |          3194880
 2017-02-05 11:57:03.186102+01 | 1486292223.1861 | pgbench_branches |             8192

 2017-02-05 11:57:04.273107+01 | 1486292224.27311 | pgbench_accounts |       1386774528
 2017-02-05 11:57:04.273107+01 | 1486292224.27311 | pgbench_tellers  |            49152
 2017-02-05 11:57:04.273107+01 | 1486292224.27311 | pgbench_history  |          5070848
 2017-02-05 11:57:04.273107+01 | 1486292224.27311 | pgbench_branches |             8192

 2017-02-05 11:57:05.354997+01 | 1486292225.355 | pgbench_accounts |       1386774528
 2017-02-05 11:57:05.354997+01 | 1486292225.355 | pgbench_tellers  |            49152
 2017-02-05 11:57:05.354997+01 | 1486292225.355 | pgbench_history  |          8421376
 2017-02-05 11:57:05.354997+01 | 1486292225.355 | pgbench_branches |             8192

 2017-02-05 11:57:06.443617+01 | 1486292226.44362 | pgbench_accounts |       1386774528
 2017-02-05 11:57:06.443617+01 | 1486292226.44362 | pgbench_tellers  |            49152
 2017-02-05 11:57:06.443617+01 | 1486292226.44362 | pgbench_history  |         10928128
 2017-02-05 11:57:06.443617+01 | 1486292226.44362 | pgbench_branches |             8192

 2017-02-05 11:57:07.53889+01 | 1486292227.53889 | pgbench_accounts |       1386774528
 2017-02-05 11:57:07.53889+01 | 1486292227.53889 | pgbench_tellers  |            49152
 2017-02-05 11:57:07.53889+01 | 1486292227.53889 | pgbench_history  |         14065664
 2017-02-05 11:57:07.53889+01 | 1486292227.53889 | pgbench_branches |             8192

 2017-02-05 11:57:08.604691+01 | 1486292228.60469 | pgbench_accounts |       1386774528
 2017-02-05 11:57:08.604691+01 | 1486292228.60469 | pgbench_tellers  |            49152
 2017-02-05 11:57:08.604691+01 | 1486292228.60469 | pgbench_history  |         17391616
 2017-02-05 11:57:08.604691+01 | 1486292228.60469 | pgbench_branches |             8192

 2017-02-05 11:57:09.683181+01 | 1486292229.68318 | pgbench_accounts |       1386774528
 2017-02-05 11:57:09.683181+01 | 1486292229.68318 | pgbench_tellers  |            49152
 2017-02-05 11:57:09.683181+01 | 1486292229.68318 | pgbench_history  |         21700608
 2017-02-05 11:57:09.683181+01 | 1486292229.68318 | pgbench_branches |             8192

 2017-02-05 11:57:10.764804+01 | 1486292230.7648 | pgbench_accounts |       1386774528
 2017-02-05 11:57:10.764804+01 | 1486292230.7648 | pgbench_tellers  |            49152
 2017-02-05 11:57:10.764804+01 | 1486292230.7648 | pgbench_history  |         25378816
 2017-02-05 11:57:10.764804+01 | 1486292230.7648 | pgbench_branches |             8192

 2017-02-05 11:57:11.842764+01 | 1486292231.84276 | pgbench_accounts |       1386774528
 2017-02-05 11:57:11.842764+01 | 1486292231.84276 | pgbench_tellers  |            49152
 2017-02-05 11:57:11.842764+01 | 1486292231.84276 | pgbench_history  |         27860992
 2017-02-05 11:57:11.842764+01 | 1486292231.84276 | pgbench_branches |             8192

 2017-02-05 11:57:12.922335+01 | 1486292232.92233 | pgbench_accounts |       1386774528
 2017-02-05 11:57:12.922335+01 | 1486292232.92233 | pgbench_tellers  |            49152
 2017-02-05 11:57:12.922335+01 | 1486292232.92233 | pgbench_history  |         31399936
 2017-02-05 11:57:12.922335+01 | 1486292232.92233 | pgbench_branches |             8192

 2017-02-05 11:57:13.998352+01 | 1486292233.99835 | pgbench_accounts |       1386774528
 2017-02-05 11:57:13.998352+01 | 1486292233.99835 | pgbench_tellers  |            49152
 2017-02-05 11:57:13.998352+01 | 1486292233.99835 | pgbench_history  |         35217408
 2017-02-05 11:57:13.998352+01 | 1486292233.99835 | pgbench_branches |             8192

 2017-02-05 11:57:15.07772+01 | 1486292235.07772 | pgbench_accounts |       1386774528
 2017-02-05 11:57:15.07772+01 | 1486292235.07772 | pgbench_tellers  |            49152
 2017-02-05 11:57:15.07772+01 | 1486292235.07772 | pgbench_history  |         38379520
 2017-02-05 11:57:15.07772+01 | 1486292235.07772 | pgbench_branches |             8192

 2017-02-05 11:57:16.153008+01 | 1486292236.15301 | pgbench_accounts |       1386774528
 2017-02-05 11:57:16.153008+01 | 1486292236.15301 | pgbench_tellers  |            49152
 2017-02-05 11:57:16.153008+01 | 1486292236.15301 | pgbench_history  |         42409984
 2017-02-05 11:57:16.153008+01 | 1486292236.15301 | pgbench_branches |             8192

 2017-02-05 11:57:17.231261+01 | 1486292237.23126 | pgbench_accounts |       1386774528
 2017-02-05 11:57:17.231261+01 | 1486292237.23126 | pgbench_tellers  |            49152
 2017-02-05 11:57:17.231261+01 | 1486292237.23126 | pgbench_history  |         47071232
 2017-02-05 11:57:17.231261+01 | 1486292237.23126 | pgbench_branches |             8192

 2017-02-05 11:57:18.313216+01 | 1486292238.31322 | pgbench_accounts |       1386774528
 2017-02-05 11:57:18.313216+01 | 1486292238.31322 | pgbench_tellers  |            49152
 2017-02-05 11:57:18.313216+01 | 1486292238.31322 | pgbench_history  |         49438720
 2017-02-05 11:57:18.313216+01 | 1486292238.31322 | pgbench_branches |             8192

 2017-02-05 11:57:19.393127+01 | 1486292239.39313 | pgbench_accounts |       1386774528
 2017-02-05 11:57:19.393127+01 | 1486292239.39313 | pgbench_tellers  |            49152
 2017-02-05 11:57:19.393127+01 | 1486292239.39313 | pgbench_history  |         52486144
 2017-02-05 11:57:19.393127+01 | 1486292239.39313 | pgbench_branches |             8192

 2017-02-05 11:57:20.475585+01 | 1486292240.47558 | pgbench_accounts |       1386774528
 2017-02-05 11:57:20.475585+01 | 1486292240.47558 | pgbench_tellers  |            49152
 2017-02-05 11:57:20.475585+01 | 1486292240.47558 | pgbench_history  |         55885824
 2017-02-05 11:57:20.475585+01 | 1486292240.47558 | pgbench_branches |             8192

 2017-02-05 11:57:21.553709+01 | 1486292241.55371 | pgbench_accounts |       1386774528
 2017-02-05 11:57:21.553709+01 | 1486292241.55371 | pgbench_tellers  |            49152
 2017-02-05 11:57:21.553709+01 | 1486292241.55371 | pgbench_history  |         59564032
 2017-02-05 11:57:21.553709+01 | 1486292241.55371 | pgbench_branches |             8192

 2017-02-05 11:57:22.635205+01 | 1486292242.63521 | pgbench_accounts |       1386774528
 2017-02-05 11:57:22.635205+01 | 1486292242.63521 | pgbench_tellers  |            49152
 2017-02-05 11:57:22.635205+01 | 1486292242.63521 | pgbench_history  |         62562304
 2017-02-05 11:57:22.635205+01 | 1486292242.63521 | pgbench_branches |             8192

 2017-02-05 11:57:23.720344+01 | 1486292243.72034 | pgbench_accounts |       1386774528
 2017-02-05 11:57:23.720344+01 | 1486292243.72034 | pgbench_tellers  |            49152
 2017-02-05 11:57:23.720344+01 | 1486292243.72034 | pgbench_history  |         66592768
 2017-02-05 11:57:23.720344+01 | 1486292243.72034 | pgbench_branches |             8192

 2017-02-05 11:57:24.797205+01 | 1486292244.7972 | pgbench_accounts |       1386774528
 2017-02-05 11:57:24.797205+01 | 1486292244.7972 | pgbench_tellers  |            49152
 2017-02-05 11:57:24.797205+01 | 1486292244.7972 | pgbench_history  |         71655424
 2017-02-05 11:57:24.797205+01 | 1486292244.7972 | pgbench_branches |             8192

 2017-02-05 11:57:25.879887+01 | 1486292245.87989 | pgbench_accounts |       1386774528
 2017-02-05 11:57:25.879887+01 | 1486292245.87989 | pgbench_tellers  |            49152
 2017-02-05 11:57:25.879887+01 | 1486292245.87989 | pgbench_history  |         74326016
 2017-02-05 11:57:25.879887+01 | 1486292245.87989 | pgbench_branches |             8192

 2017-02-05 11:57:26.956936+01 | 1486292246.95694 | pgbench_accounts |       1386774528
 2017-02-05 11:57:26.956936+01 | 1486292246.95694 | pgbench_tellers  |            49152
 2017-02-05 11:57:26.956936+01 | 1486292246.95694 | pgbench_history  |         77488128
 2017-02-05 11:57:26.956936+01 | 1486292246.95694 | pgbench_branches |             8192

 2017-02-05 11:57:28.0325+01 | 1486292248.0325 | pgbench_accounts |       1386774528
 2017-02-05 11:57:28.0325+01 | 1486292248.0325 | pgbench_tellers  |            49152
 2017-02-05 11:57:28.0325+01 | 1486292248.0325 | pgbench_history  |         80494592
 2017-02-05 11:57:28.0325+01 | 1486292248.0325 | pgbench_branches |             8192

 2017-02-05 11:57:29.106436+01 | 1486292249.10644 | pgbench_accounts |       1386774528
 2017-02-05 11:57:29.106436+01 | 1486292249.10644 | pgbench_tellers  |            49152
 2017-02-05 11:57:29.106436+01 | 1486292249.10644 | pgbench_history  |         84197376
 2017-02-05 11:57:29.106436+01 | 1486292249.10644 | pgbench_branches |             8192

 2017-02-05 11:57:30.189264+01 | 1486292250.18926 | pgbench_accounts |       1386774528
 2017-02-05 11:57:30.189264+01 | 1486292250.18926 | pgbench_tellers  |            49152
 2017-02-05 11:57:30.189264+01 | 1486292250.18926 | pgbench_history  |         88416256
 2017-02-05 11:57:30.189264+01 | 1486292250.18926 | pgbench_branches |             8192

 2017-02-05 11:57:31.278163+01 | 1486292251.27816 | pgbench_accounts |       1386774528
 2017-02-05 11:57:31.278163+01 | 1486292251.27816 | pgbench_tellers  |            49152
 2017-02-05 11:57:31.278163+01 | 1486292251.27816 | pgbench_history  |         90898432
 2017-02-05 11:57:31.278163+01 | 1486292251.27816 | pgbench_branches |             8192

 2017-02-05 11:57:32.357361+01 | 1486292252.35736 | pgbench_accounts |       1386774528
 2017-02-05 11:57:32.357361+01 | 1486292252.35736 | pgbench_tellers  |            49152
 2017-02-05 11:57:32.357361+01 | 1486292252.35736 | pgbench_history  |         96804864
 2017-02-05 11:57:32.357361+01 | 1486292252.35736 | pgbench_branches |             8192

 2017-02-05 11:57:33.437042+01 | 1486292253.43704 | pgbench_accounts |       1386774528
 2017-02-05 11:57:33.437042+01 | 1486292253.43704 | pgbench_tellers  |            49152
 2017-02-05 11:57:33.437042+01 | 1486292253.43704 | pgbench_history  |         98631680
 2017-02-05 11:57:33.437042+01 | 1486292253.43704 | pgbench_branches |             8192

 2017-02-05 11:57:34.517459+01 | 1486292254.51746 | pgbench_accounts |       1386774528
 2017-02-05 11:57:34.517459+01 | 1486292254.51746 | pgbench_tellers  |            49152
 2017-02-05 11:57:34.517459+01 | 1486292254.51746 | pgbench_history  |        100999168
 2017-02-05 11:57:34.517459+01 | 1486292254.51746 | pgbench_branches |             8192

 2017-02-05 11:57:35.610547+01 | 1486292255.61055 | pgbench_accounts |       1386774528
 2017-02-05 11:57:35.610547+01 | 1486292255.61055 | pgbench_tellers  |            49152
 2017-02-05 11:57:35.610547+01 | 1486292255.61055 | pgbench_history  |        104071168
 2017-02-05 11:57:35.610547+01 | 1486292255.61055 | pgbench_branches |             8192

 2017-02-05 11:57:36.694286+01 | 1486292256.69429 | pgbench_accounts |       1386774528
 2017-02-05 11:57:36.694286+01 | 1486292256.69429 | pgbench_tellers  |            49152
 2017-02-05 11:57:36.694286+01 | 1486292256.69429 | pgbench_history  |        107421696
 2017-02-05 11:57:36.694286+01 | 1486292256.69429 | pgbench_branches |             8192

 2017-02-05 11:57:37.771553+01 | 1486292257.77155 | pgbench_accounts |       1386774528
 2017-02-05 11:57:37.771553+01 | 1486292257.77155 | pgbench_tellers  |            49152
 2017-02-05 11:57:37.771553+01 | 1486292257.77155 | pgbench_history  |        112058368
 2017-02-05 11:57:37.771553+01 | 1486292257.77155 | pgbench_branches |             8192

 2017-02-05 11:57:38.854935+01 | 1486292258.85493 | pgbench_accounts |       1386774528
 2017-02-05 11:57:38.854935+01 | 1486292258.85493 | pgbench_tellers  |            49152
 2017-02-05 11:57:38.854935+01 | 1486292258.85493 | pgbench_history  |        113909760
 2017-02-05 11:57:38.854935+01 | 1486292258.85493 | pgbench_branches |             8192

 2017-02-05 11:57:39.932254+01 | 1486292259.93225 | pgbench_accounts |       1386774528
 2017-02-05 11:57:39.932254+01 | 1486292259.93225 | pgbench_tellers  |            49152
 2017-02-05 11:57:39.932254+01 | 1486292259.93225 | pgbench_history  |        116932608
 2017-02-05 11:57:39.932254+01 | 1486292259.93225 | pgbench_branches |             8192

 2017-02-05 11:57:41.018976+01 | 1486292261.01898 | pgbench_accounts |       1386774528
 2017-02-05 11:57:41.018976+01 | 1486292261.01898 | pgbench_tellers  |            49152
 2017-02-05 11:57:41.018976+01 | 1486292261.01898 | pgbench_history  |        120610816
 2017-02-05 11:57:41.018976+01 | 1486292261.01898 | pgbench_branches |             8192

 2017-02-05 11:57:42.098231+01 | 1486292262.09823 | pgbench_accounts |       1386774528
 2017-02-05 11:57:42.098231+01 | 1486292262.09823 | pgbench_tellers  |            49152
 2017-02-05 11:57:42.098231+01 | 1486292262.09823 | pgbench_history  |        124665856
 2017-02-05 11:57:42.098231+01 | 1486292262.09823 | pgbench_branches |             8192

 2017-02-05 11:57:43.170487+01 | 1486292263.17049 | pgbench_accounts |       1386774528
 2017-02-05 11:57:43.170487+01 | 1486292263.17049 | pgbench_tellers  |            49152
 2017-02-05 11:57:43.170487+01 | 1486292263.17049 | pgbench_history  |        128155648
 2017-02-05 11:57:43.170487+01 | 1486292263.17049 | pgbench_branches |             8192

 2017-02-05 11:57:44.256772+01 | 1486292264.25677 | pgbench_accounts |       1386774528
 2017-02-05 11:57:44.256772+01 | 1486292264.25677 | pgbench_tellers  |            49152
 2017-02-05 11:57:44.256772+01 | 1486292264.25677 | pgbench_history  |        131153920
 2017-02-05 11:57:44.256772+01 | 1486292264.25677 | pgbench_branches |             8192

 2017-02-05 11:57:45.337373+01 | 1486292265.33737 | pgbench_accounts |       1386774528
 2017-02-05 11:57:45.337373+01 | 1486292265.33737 | pgbench_tellers  |            49152
 2017-02-05 11:57:45.337373+01 | 1486292265.33737 | pgbench_history  |        135323648
 2017-02-05 11:57:45.337373+01 | 1486292265.33737 | pgbench_branches |             8192

 2017-02-05 11:57:46.418645+01 | 1486292266.41864 | pgbench_accounts |       1386774528
 2017-02-05 11:57:46.418645+01 | 1486292266.41864 | pgbench_tellers  |            49152
 2017-02-05 11:57:46.418645+01 | 1486292266.41864 | pgbench_history  |        138461184
 2017-02-05 11:57:46.418645+01 | 1486292266.41864 | pgbench_branches |             8192

 2017-02-05 11:57:47.502577+01 | 1486292267.50258 | pgbench_accounts |       1386774528
 2017-02-05 11:57:47.502577+01 | 1486292267.50258 | pgbench_tellers  |            49152
 2017-02-05 11:57:47.502577+01 | 1486292267.50258 | pgbench_history  |        142680064
 2017-02-05 11:57:47.502577+01 | 1486292267.50258 | pgbench_branches |             8192

 2017-02-05 11:57:48.581623+01 | 1486292268.58162 | pgbench_accounts |       1386774528
 2017-02-05 11:57:48.581623+01 | 1486292268.58162 | pgbench_tellers  |            49152
 2017-02-05 11:57:48.581623+01 | 1486292268.58162 | pgbench_history  |        147316736
 2017-02-05 11:57:48.581623+01 | 1486292268.58162 | pgbench_branches |             8192

 2017-02-05 11:57:49.661851+01 | 1486292269.66185 | pgbench_accounts |       1386774528
 2017-02-05 11:57:49.661851+01 | 1486292269.66185 | pgbench_tellers  |            49152
 2017-02-05 11:57:49.661851+01 | 1486292269.66185 | pgbench_history  |        149798912
 2017-02-05 11:57:49.661851+01 | 1486292269.66185 | pgbench_branches |             8192

 2017-02-05 11:57:50.736614+01 | 1486292270.73661 | pgbench_accounts |       1386774528
 2017-02-05 11:57:50.736614+01 | 1486292270.73661 | pgbench_tellers  |            49152
 2017-02-05 11:57:50.736614+01 | 1486292270.73661 | pgbench_history  |        152330240
 2017-02-05 11:57:50.736614+01 | 1486292270.73661 | pgbench_branches |             8192

 2017-02-05 11:57:51.812861+01 | 1486292271.81286 | pgbench_accounts |       1386774528
 2017-02-05 11:57:51.812861+01 | 1486292271.81286 | pgbench_tellers  |            49152
 2017-02-05 11:57:51.812861+01 | 1486292271.81286 | pgbench_history  |        156008448
 2017-02-05 11:57:51.812861+01 | 1486292271.81286 | pgbench_branches |             8192

 2017-02-05 11:57:52.896289+01 | 1486292272.89629 | pgbench_accounts |       1386774528
 2017-02-05 11:57:52.896289+01 | 1486292272.89629 | pgbench_tellers  |            49152
 2017-02-05 11:57:52.896289+01 | 1486292272.89629 | pgbench_history  |        159195136
 2017-02-05 11:57:52.896289+01 | 1486292272.89629 | pgbench_branches |             8192

 2017-02-05 11:57:53.976424+01 | 1486292273.97642 | pgbench_accounts |       1386774528
 2017-02-05 11:57:53.976424+01 | 1486292273.97642 | pgbench_tellers  |            49152
 2017-02-05 11:57:53.976424+01 | 1486292273.97642 | pgbench_history  |        162684928
 2017-02-05 11:57:53.976424+01 | 1486292273.97642 | pgbench_branches |             8192

 2017-02-05 11:57:55.053456+01 | 1486292275.05346 | pgbench_accounts |       1386774528
 2017-02-05 11:57:55.053456+01 | 1486292275.05346 | pgbench_tellers  |            49152
 2017-02-05 11:57:55.053456+01 | 1486292275.05346 | pgbench_history  |        166830080
 2017-02-05 11:57:55.053456+01 | 1486292275.05346 | pgbench_branches |             8192

 2017-02-05 11:57:56.128815+01 | 1486292276.12881 | pgbench_accounts |       1386774528
 2017-02-05 11:57:56.128815+01 | 1486292276.12881 | pgbench_tellers  |            49152
 2017-02-05 11:57:56.128815+01 | 1486292276.12881 | pgbench_history  |        169172992
 2017-02-05 11:57:56.128815+01 | 1486292276.12881 | pgbench_branches |             8192

 2017-02-05 11:57:57.203204+01 | 1486292277.2032 | pgbench_accounts |       1386774528
 2017-02-05 11:57:57.203204+01 | 1486292277.2032 | pgbench_tellers  |            49152
 2017-02-05 11:57:57.203204+01 | 1486292277.2032 | pgbench_history  |        172875776
 2017-02-05 11:57:57.203204+01 | 1486292277.2032 | pgbench_branches |             8192

 2017-02-05 11:57:58.282369+01 | 1486292278.28237 | pgbench_accounts |       1386774528
 2017-02-05 11:57:58.282369+01 | 1486292278.28237 | pgbench_tellers  |            49152
 2017-02-05 11:57:58.282369+01 | 1486292278.28237 | pgbench_history  |        176398336
 2017-02-05 11:57:58.282369+01 | 1486292278.28237 | pgbench_branches |             8192

 2017-02-05 11:57:59.37311+01 | 1486292279.37311 | pgbench_accounts |       1386774528
 2017-02-05 11:57:59.37311+01 | 1486292279.37311 | pgbench_tellers  |            49152
 2017-02-05 11:57:59.37311+01 | 1486292279.37311 | pgbench_history  |        179560448
 2017-02-05 11:57:59.37311+01 | 1486292279.37311 | pgbench_branches |             8192

 2017-02-05 11:58:00.453598+01 | 1486292280.4536 | pgbench_accounts |       1386774528
 2017-02-05 11:58:00.453598+01 | 1486292280.4536 | pgbench_tellers  |            49152
 2017-02-05 11:58:00.453598+01 | 1486292280.4536 | pgbench_history  |        184524800
 2017-02-05 11:58:00.453598+01 | 1486292280.4536 | pgbench_branches |             8192

 2017-02-05 11:58:01.53671+01 | 1486292281.53671 | pgbench_accounts |       1386774528
 2017-02-05 11:58:01.53671+01 | 1486292281.53671 | pgbench_tellers  |            49152
 2017-02-05 11:58:01.53671+01 | 1486292281.53671 | pgbench_history  |        186048512
 2017-02-05 11:58:01.53671+01 | 1486292281.53671 | pgbench_branches |             8192

 2017-02-05 11:58:02.616587+01 | 1486292282.61659 | pgbench_accounts |       1386774528
 2017-02-05 11:58:02.616587+01 | 1486292282.61659 | pgbench_tellers  |            49152
 2017-02-05 11:58:02.616587+01 | 1486292282.61659 | pgbench_history  |        189562880
 2017-02-05 11:58:02.616587+01 | 1486292282.61659 | pgbench_branches |             8192

 2017-02-05 11:58:03.704622+01 | 1486292283.70462 | pgbench_accounts |       1386774528
 2017-02-05 11:58:03.704622+01 | 1486292283.70462 | pgbench_tellers  |            49152
 2017-02-05 11:58:03.704622+01 | 1486292283.70462 | pgbench_history  |        193544192
 2017-02-05 11:58:03.704622+01 | 1486292283.70462 | pgbench_branches |             8192

 2017-02-05 11:58:04.783682+01 | 1486292284.78368 | pgbench_accounts |       1386774528
 2017-02-05 11:58:04.783682+01 | 1486292284.78368 | pgbench_tellers  |            49152
 2017-02-05 11:58:04.783682+01 | 1486292284.78368 | pgbench_history  |        196542464
 2017-02-05 11:58:04.783682+01 | 1486292284.78368 | pgbench_branches |             8192

 2017-02-05 11:58:05.866809+01 | 1486292285.86681 | pgbench_accounts |       1386774528
 2017-02-05 11:58:05.866809+01 | 1486292285.86681 | pgbench_tellers  |            49152
 2017-02-05 11:58:05.866809+01 | 1486292285.86681 | pgbench_history  |        201203712
 2017-02-05 11:58:05.866809+01 | 1486292285.86681 | pgbench_branches |             8192

 2017-02-05 11:58:06.945782+01 | 1486292286.94578 | pgbench_accounts |       1386774528
 2017-02-05 11:58:06.945782+01 | 1486292286.94578 | pgbench_tellers  |            49152
 2017-02-05 11:58:06.945782+01 | 1486292286.94578 | pgbench_history  |        204062720
 2017-02-05 11:58:06.945782+01 | 1486292286.94578 | pgbench_branches |             8192

 2017-02-05 11:58:08.021439+01 | 1486292288.02144 | pgbench_accounts |       1386774528
 2017-02-05 11:58:08.021439+01 | 1486292288.02144 | pgbench_tellers  |            49152
 2017-02-05 11:58:08.021439+01 | 1486292288.02144 | pgbench_history  |        206897152
 2017-02-05 11:58:08.021439+01 | 1486292288.02144 | pgbench_branches |             8192

 2017-02-05 11:58:09.098598+01 | 1486292289.0986 | pgbench_accounts |       1386774528
 2017-02-05 11:58:09.098598+01 | 1486292289.0986 | pgbench_tellers  |            49152
 2017-02-05 11:58:09.098598+01 | 1486292289.0986 | pgbench_history  |        209567744
 2017-02-05 11:58:09.098598+01 | 1486292289.0986 | pgbench_branches |             8192

 2017-02-05 11:58:10.177858+01 | 1486292290.17786 | pgbench_accounts |       1386774528
 2017-02-05 11:58:10.177858+01 | 1486292290.17786 | pgbench_tellers  |            49152
 2017-02-05 11:58:10.177858+01 | 1486292290.17786 | pgbench_history  |        212942848
 2017-02-05 11:58:10.177858+01 | 1486292290.17786 | pgbench_branches |             8192

 2017-02-05 11:58:11.251599+01 | 1486292291.2516 | pgbench_accounts |       1386774528
 2017-02-05 11:58:11.251599+01 | 1486292291.2516 | pgbench_tellers  |            49152
 2017-02-05 11:58:11.251599+01 | 1486292291.2516 | pgbench_history  |        216293376
 2017-02-05 11:58:11.251599+01 | 1486292291.2516 | pgbench_branches |             8192

 2017-02-05 11:58:12.327215+01 | 1486292292.32721 | pgbench_accounts |       1386774528
 2017-02-05 11:58:12.327215+01 | 1486292292.32721 | pgbench_tellers  |            49152
 2017-02-05 11:58:12.327215+01 | 1486292292.32721 | pgbench_history  |        219947008
 2017-02-05 11:58:12.327215+01 | 1486292292.32721 | pgbench_branches |             8192

 2017-02-05 11:58:13.410925+01 | 1486292293.41092 | pgbench_accounts |       1386774528
 2017-02-05 11:58:13.410925+01 | 1486292293.41092 | pgbench_tellers  |            49152
 2017-02-05 11:58:13.410925+01 | 1486292293.41092 | pgbench_history  |        223461376
 2017-02-05 11:58:13.410925+01 | 1486292293.41092 | pgbench_branches |             8192

 2017-02-05 11:58:14.492881+01 | 1486292294.49288 | pgbench_accounts |       1386774528
 2017-02-05 11:58:14.492881+01 | 1486292294.49288 | pgbench_tellers  |            49152
 2017-02-05 11:58:14.492881+01 | 1486292294.49288 | pgbench_history  |        227139584
 2017-02-05 11:58:14.492881+01 | 1486292294.49288 | pgbench_branches |             8192

 2017-02-05 11:58:15.570487+01 | 1486292295.57049 | pgbench_accounts |       1386774528
 2017-02-05 11:58:15.570487+01 | 1486292295.57049 | pgbench_tellers  |            49152
 2017-02-05 11:58:15.570487+01 | 1486292295.57049 | pgbench_history  |        233537536
 2017-02-05 11:58:15.570487+01 | 1486292295.57049 | pgbench_branches |             8192

 2017-02-05 11:58:16.644434+01 | 1486292296.64443 | pgbench_accounts |       1386774528
 2017-02-05 11:58:16.644434+01 | 1486292296.64443 | pgbench_tellers  |            49152
 2017-02-05 11:58:16.644434+01 | 1486292296.64443 | pgbench_history  |        233537536
 2017-02-05 11:58:16.644434+01 | 1486292296.64443 | pgbench_branches |             8192

 2017-02-05 11:58:17.735382+01 | 1486292297.73538 | pgbench_accounts |       1386774528
 2017-02-05 11:58:17.735382+01 | 1486292297.73538 | pgbench_tellers  |            49152
 2017-02-05 11:58:17.735382+01 | 1486292297.73538 | pgbench_history  |        237076480
 2017-02-05 11:58:17.735382+01 | 1486292297.73538 | pgbench_branches |             8192

 2017-02-05 11:58:18.814234+01 | 1486292298.81423 | pgbench_accounts |       1386774528
 2017-02-05 11:58:18.814234+01 | 1486292298.81423 | pgbench_tellers  |            49152
 2017-02-05 11:58:18.814234+01 | 1486292298.81423 | pgbench_history  |        241057792
 2017-02-05 11:58:18.814234+01 | 1486292298.81423 | pgbench_branches |             8192

 2017-02-05 11:58:19.905531+01 | 1486292299.90553 | pgbench_accounts |       1386774528
 2017-02-05 11:58:19.905531+01 | 1486292299.90553 | pgbench_tellers  |            49152
 2017-02-05 11:58:19.905531+01 | 1486292299.90553 | pgbench_history  |        244219904
 2017-02-05 11:58:19.905531+01 | 1486292299.90553 | pgbench_branches |             8192

 2017-02-05 11:58:20.983382+01 | 1486292300.98338 | pgbench_accounts |       1386774528
 2017-02-05 11:58:20.983382+01 | 1486292300.98338 | pgbench_tellers  |            49152
 2017-02-05 11:58:20.983382+01 | 1486292300.98338 | pgbench_history  |        247570432
 2017-02-05 11:58:20.983382+01 | 1486292300.98338 | pgbench_branches |             8192

 2017-02-05 11:58:22.059152+01 | 1486292302.05915 | pgbench_accounts |       1386774528
 2017-02-05 11:58:22.059152+01 | 1486292302.05915 | pgbench_tellers  |            49152
 2017-02-05 11:58:22.059152+01 | 1486292302.05915 | pgbench_history  |        250732544
 2017-02-05 11:58:22.059152+01 | 1486292302.05915 | pgbench_branches |             8192

 2017-02-05 11:58:23.12219+01 | 1486292303.12219 | pgbench_accounts |       1386774528
 2017-02-05 11:58:23.12219+01 | 1486292303.12219 | pgbench_tellers  |            49152
 2017-02-05 11:58:23.12219+01 | 1486292303.12219 | pgbench_history  |        253755392
 2017-02-05 11:58:23.12219+01 | 1486292303.12219 | pgbench_branches |             8192

 2017-02-05 11:58:24.220034+01 | 1486292304.22003 | pgbench_accounts |       1386774528
 2017-02-05 11:58:24.220034+01 | 1486292304.22003 | pgbench_tellers  |            49152
 2017-02-05 11:58:24.220034+01 | 1486292304.22003 | pgbench_history  |        257409024
 2017-02-05 11:58:24.220034+01 | 1486292304.22003 | pgbench_branches |             8192

 2017-02-05 11:58:25.301088+01 | 1486292305.30109 | pgbench_accounts |       1386774528
 2017-02-05 11:58:25.301088+01 | 1486292305.30109 | pgbench_tellers  |            49152
 2017-02-05 11:58:25.301088+01 | 1486292305.30109 | pgbench_history  |        261578752
 2017-02-05 11:58:25.301088+01 | 1486292305.30109 | pgbench_branches |             8192

 2017-02-05 11:58:26.384926+01 | 1486292306.38493 | pgbench_accounts |       1386774528
 2017-02-05 11:58:26.384926+01 | 1486292306.38493 | pgbench_tellers  |            49152
 2017-02-05 11:58:26.384926+01 | 1486292306.38493 | pgbench_history  |        264462336
 2017-02-05 11:58:26.384926+01 | 1486292306.38493 | pgbench_branches |             8192

 2017-02-05 11:58:27.463441+01 | 1486292307.46344 | pgbench_accounts |       1386774528
 2017-02-05 11:58:27.463441+01 | 1486292307.46344 | pgbench_tellers  |            49152
 2017-02-05 11:58:27.463441+01 | 1486292307.46344 | pgbench_history  |        267132928
 2017-02-05 11:58:27.463441+01 | 1486292307.46344 | pgbench_branches |             8192

 2017-02-05 11:58:28.541362+01 | 1486292308.54136 | pgbench_accounts |       1386774528
 2017-02-05 11:58:28.541362+01 | 1486292308.54136 | pgbench_tellers  |            49152
 2017-02-05 11:58:28.541362+01 | 1486292308.54136 | pgbench_history  |        270647296
 2017-02-05 11:58:28.541362+01 | 1486292308.54136 | pgbench_branches |             8192

 2017-02-05 11:58:29.62107+01 | 1486292309.62107 | pgbench_accounts |       1386774528
 2017-02-05 11:58:29.62107+01 | 1486292309.62107 | pgbench_tellers  |            49152
 2017-02-05 11:58:29.62107+01 | 1486292309.62107 | pgbench_history  |        274817024
 2017-02-05 11:58:29.62107+01 | 1486292309.62107 | pgbench_branches |             8192

 2017-02-05 11:58:30.70362+01 | 1486292310.70362 | pgbench_accounts |       1386774528
 2017-02-05 11:58:30.70362+01 | 1486292310.70362 | pgbench_tellers  |            49152
 2017-02-05 11:58:30.70362+01 | 1486292310.70362 | pgbench_history  |        277676032
 2017-02-05 11:58:30.70362+01 | 1486292310.70362 | pgbench_branches |             8192

 2017-02-05 11:58:31.783647+01 | 1486292311.78365 | pgbench_accounts |       1386774528
 2017-02-05 11:58:31.783647+01 | 1486292311.78365 | pgbench_tellers  |            49152
 2017-02-05 11:58:31.783647+01 | 1486292311.78365 | pgbench_history  |        284049408
 2017-02-05 11:58:31.783647+01 | 1486292311.78365 | pgbench_branches |             8192

 2017-02-05 11:58:32.863239+01 | 1486292312.86324 | pgbench_accounts |       1386774528
 2017-02-05 11:58:32.863239+01 | 1486292312.86324 | pgbench_tellers  |            49152
 2017-02-05 11:58:32.863239+01 | 1486292312.86324 | pgbench_history  |        286203904
 2017-02-05 11:58:32.863239+01 | 1486292312.86324 | pgbench_branches |             8192

 2017-02-05 11:58:33.948405+01 | 1486292313.94841 | pgbench_accounts |       1386774528
 2017-02-05 11:58:33.948405+01 | 1486292313.94841 | pgbench_tellers  |            49152
 2017-02-05 11:58:33.948405+01 | 1486292313.94841 | pgbench_history  |        288219136
 2017-02-05 11:58:33.948405+01 | 1486292313.94841 | pgbench_branches |             8192

 2017-02-05 11:58:35.027879+01 | 1486292315.02788 | pgbench_accounts |       1386774528
 2017-02-05 11:58:35.027879+01 | 1486292315.02788 | pgbench_tellers  |            49152
 2017-02-05 11:58:35.027879+01 | 1486292315.02788 | pgbench_history  |        291921920
 2017-02-05 11:58:35.027879+01 | 1486292315.02788 | pgbench_branches |             8192

 2017-02-05 11:58:36.102207+01 | 1486292316.10221 | pgbench_accounts |       1386774528
 2017-02-05 11:58:36.102207+01 | 1486292316.10221 | pgbench_tellers  |            49152
 2017-02-05 11:58:36.102207+01 | 1486292316.10221 | pgbench_history  |        295223296
 2017-02-05 11:58:36.102207+01 | 1486292316.10221 | pgbench_branches |             8192

 2017-02-05 11:58:37.175775+01 | 1486292317.17578 | pgbench_accounts |       1386774528
 2017-02-05 11:58:37.175775+01 | 1486292317.17578 | pgbench_tellers  |            49152
 2017-02-05 11:58:37.175775+01 | 1486292317.17578 | pgbench_history  |        300613632
 2017-02-05 11:58:37.175775+01 | 1486292317.17578 | pgbench_branches |             8192

 2017-02-05 11:58:38.250458+01 | 1486292318.25046 | pgbench_accounts |       1386774528
 2017-02-05 11:58:38.250458+01 | 1486292318.25046 | pgbench_tellers  |            49152
 2017-02-05 11:58:38.250458+01 | 1486292318.25046 | pgbench_history  |        301785088
 2017-02-05 11:58:38.250458+01 | 1486292318.25046 | pgbench_branches |             8192

 2017-02-05 11:58:39.326173+01 | 1486292319.32617 | pgbench_accounts |       1386774528
 2017-02-05 11:58:39.326173+01 | 1486292319.32617 | pgbench_tellers  |            49152
 2017-02-05 11:58:39.326173+01 | 1486292319.32617 | pgbench_history  |        304455680
 2017-02-05 11:58:39.326173+01 | 1486292319.32617 | pgbench_branches |             8192

 2017-02-05 11:58:40.426443+01 | 1486292320.42644 | pgbench_accounts |       1386774528
 2017-02-05 11:58:40.426443+01 | 1486292320.42644 | pgbench_tellers  |            49152
 2017-02-05 11:58:40.426443+01 | 1486292320.42644 | pgbench_history  |        309960704
 2017-02-05 11:58:40.426443+01 | 1486292320.42644 | pgbench_branches |             8192

 2017-02-05 11:58:41.513549+01 | 1486292321.51355 | pgbench_accounts |       1386774528
 2017-02-05 11:58:41.513549+01 | 1486292321.51355 | pgbench_tellers  |            49152
 2017-02-05 11:58:41.513549+01 | 1486292321.51355 | pgbench_history  |        311648256
 2017-02-05 11:58:41.513549+01 | 1486292321.51355 | pgbench_branches |             8192

 2017-02-05 11:58:42.600881+01 | 1486292322.60088 | pgbench_accounts |       1386774528
 2017-02-05 11:58:42.600881+01 | 1486292322.60088 | pgbench_tellers  |            49152
 2017-02-05 11:58:42.600881+01 | 1486292322.60088 | pgbench_history  |        314294272
 2017-02-05 11:58:42.600881+01 | 1486292322.60088 | pgbench_branches |             8192

 2017-02-05 11:58:43.680992+01 | 1486292323.68099 | pgbench_accounts |       1386774528
 2017-02-05 11:58:43.680992+01 | 1486292323.68099 | pgbench_tellers  |            49152
 2017-02-05 11:58:43.680992+01 | 1486292323.68099 | pgbench_history  |        317923328
 2017-02-05 11:58:43.680992+01 | 1486292323.68099 | pgbench_branches |             8192

 2017-02-05 11:58:44.770821+01 | 1486292324.77082 | pgbench_accounts |       1386774528
 2017-02-05 11:58:44.770821+01 | 1486292324.77082 | pgbench_tellers  |            49152
 2017-02-05 11:58:44.770821+01 | 1486292324.77082 | pgbench_history  |        321388544
 2017-02-05 11:58:44.770821+01 | 1486292324.77082 | pgbench_branches |             8192

 2017-02-05 11:58:45.858397+01 | 1486292325.8584 | pgbench_accounts |       1386774528
 2017-02-05 11:58:45.858397+01 | 1486292325.8584 | pgbench_tellers  |            49152
 2017-02-05 11:58:45.858397+01 | 1486292325.8584 | pgbench_history  |        324575232
 2017-02-05 11:58:45.858397+01 | 1486292325.8584 | pgbench_branches |             8192

 2017-02-05 11:58:46.939166+01 | 1486292326.93917 | pgbench_accounts |       1386774528
 2017-02-05 11:58:46.939166+01 | 1486292326.93917 | pgbench_tellers  |            49152
 2017-02-05 11:58:46.939166+01 | 1486292326.93917 | pgbench_history  |        329588736
 2017-02-05 11:58:46.939166+01 | 1486292326.93917 | pgbench_branches |             8192

 2017-02-05 11:58:48.019545+01 | 1486292328.01955 | pgbench_accounts |       1386774528
 2017-02-05 11:58:48.019545+01 | 1486292328.01955 | pgbench_tellers  |            49152
 2017-02-05 11:58:48.019545+01 | 1486292328.01955 | pgbench_history  |        331415552
 2017-02-05 11:58:48.019545+01 | 1486292328.01955 | pgbench_branches |             8192

 2017-02-05 11:58:49.096152+01 | 1486292329.09615 | pgbench_accounts |       1386774528
 2017-02-05 11:58:49.096152+01 | 1486292329.09615 | pgbench_tellers  |            49152
 2017-02-05 11:58:49.096152+01 | 1486292329.09615 | pgbench_history  |        334954496
 2017-02-05 11:58:49.096152+01 | 1486292329.09615 | pgbench_branches |             8192

 2017-02-05 11:58:50.172052+01 | 1486292330.17205 | pgbench_accounts |       1386774528
 2017-02-05 11:58:50.172052+01 | 1486292330.17205 | pgbench_tellers  |            49152
 2017-02-05 11:58:50.172052+01 | 1486292330.17205 | pgbench_history  |        338165760
 2017-02-05 11:58:50.172052+01 | 1486292330.17205 | pgbench_branches |             8192

 2017-02-05 11:58:51.247298+01 | 1486292331.2473 | pgbench_accounts |       1386774528
 2017-02-05 11:58:51.247298+01 | 1486292331.2473 | pgbench_tellers  |            49152
 2017-02-05 11:58:51.247298+01 | 1486292331.2473 | pgbench_history  |        342663168
 2017-02-05 11:58:51.247298+01 | 1486292331.2473 | pgbench_branches |             8192

 2017-02-05 11:58:52.331188+01 | 1486292332.33119 | pgbench_accounts |       1386774528
 2017-02-05 11:58:52.331188+01 | 1486292332.33119 | pgbench_tellers  |            49152
 2017-02-05 11:58:52.331188+01 | 1486292332.33119 | pgbench_history  |        344489984
 2017-02-05 11:58:52.331188+01 | 1486292332.33119 | pgbench_branches |             8192

 2017-02-05 11:58:53.414395+01 | 1486292333.4144 | pgbench_accounts |       1386774528
 2017-02-05 11:58:53.414395+01 | 1486292333.4144 | pgbench_tellers  |            49152
 2017-02-05 11:58:53.414395+01 | 1486292333.4144 | pgbench_history  |        349904896
 2017-02-05 11:58:53.414395+01 | 1486292333.4144 | pgbench_branches |             8192

 2017-02-05 11:58:54.494734+01 | 1486292334.49473 | pgbench_accounts |       1386774528
 2017-02-05 11:58:54.494734+01 | 1486292334.49473 | pgbench_tellers  |            49152
 2017-02-05 11:58:54.494734+01 | 1486292334.49473 | pgbench_history  |        350912512
 2017-02-05 11:58:54.494734+01 | 1486292334.49473 | pgbench_branches |             8192

 2017-02-05 11:58:55.572361+01 | 1486292335.57236 | pgbench_accounts |       1386774528
 2017-02-05 11:58:55.572361+01 | 1486292335.57236 | pgbench_tellers  |            49152
 2017-02-05 11:58:55.572361+01 | 1486292335.57236 | pgbench_history  |        353984512
 2017-02-05 11:58:55.572361+01 | 1486292335.57236 | pgbench_branches |             8192

 2017-02-05 11:58:56.648073+01 | 1486292336.64807 | pgbench_accounts |       1386774528
 2017-02-05 11:58:56.648073+01 | 1486292336.64807 | pgbench_tellers  |            49152
 2017-02-05 11:58:56.648073+01 | 1486292336.64807 | pgbench_history  |        357990400
 2017-02-05 11:58:56.648073+01 | 1486292336.64807 | pgbench_branches |             8192

 2017-02-05 11:58:57.72874+01 | 1486292337.72874 | pgbench_accounts |       1386774528
 2017-02-05 11:58:57.72874+01 | 1486292337.72874 | pgbench_tellers  |            49152
 2017-02-05 11:58:57.72874+01 | 1486292337.72874 | pgbench_history  |        359350272
 2017-02-05 11:58:57.72874+01 | 1486292337.72874 | pgbench_branches |             8192

 2017-02-05 11:58:58.813171+01 | 1486292338.81317 | pgbench_accounts |       1386774528
 2017-02-05 11:58:58.813171+01 | 1486292338.81317 | pgbench_tellers  |            49152
 2017-02-05 11:58:58.813171+01 | 1486292338.81317 | pgbench_history  |        361865216
 2017-02-05 11:58:58.813171+01 | 1486292338.81317 | pgbench_branches |             8192

 2017-02-05 11:58:59.894722+01 | 1486292339.89472 | pgbench_accounts |       1386774528
 2017-02-05 11:58:59.894722+01 | 1486292339.89472 | pgbench_tellers  |            49152
 2017-02-05 11:58:59.894722+01 | 1486292339.89472 | pgbench_history  |        365215744
 2017-02-05 11:58:59.894722+01 | 1486292339.89472 | pgbench_branches |             8192

 2017-02-05 11:59:00.975091+01 | 1486292340.97509 | pgbench_accounts |       1386774528
 2017-02-05 11:59:00.975091+01 | 1486292340.97509 | pgbench_tellers  |            49152
 2017-02-05 11:59:00.975091+01 | 1486292340.97509 | pgbench_history  |        368402432
 2017-02-05 11:59:00.975091+01 | 1486292340.97509 | pgbench_branches |             8192

 2017-02-05 11:59:02.053825+01 | 1486292342.05382 | pgbench_accounts |       1386774528
 2017-02-05 11:59:02.053825+01 | 1486292342.05382 | pgbench_tellers  |            49152
 2017-02-05 11:59:02.053825+01 | 1486292342.05382 | pgbench_history  |        371425280
 2017-02-05 11:59:02.053825+01 | 1486292342.05382 | pgbench_branches |             8192

 2017-02-05 11:59:03.129211+01 | 1486292343.12921 | pgbench_accounts |       1386774528
 2017-02-05 11:59:03.129211+01 | 1486292343.12921 | pgbench_tellers  |            49152
 2017-02-05 11:59:03.129211+01 | 1486292343.12921 | pgbench_history  |        375267328
 2017-02-05 11:59:03.129211+01 | 1486292343.12921 | pgbench_branches |             8192

 2017-02-05 11:59:04.205986+01 | 1486292344.20599 | pgbench_accounts |       1386774528
 2017-02-05 11:59:04.205986+01 | 1486292344.20599 | pgbench_tellers  |            49152
 2017-02-05 11:59:04.205986+01 | 1486292344.20599 | pgbench_history  |        377749504
 2017-02-05 11:59:04.205986+01 | 1486292344.20599 | pgbench_branches |             8192

 2017-02-05 11:59:05.292645+01 | 1486292345.29264 | pgbench_accounts |       1386774528
 2017-02-05 11:59:05.292645+01 | 1486292345.29264 | pgbench_tellers  |            49152
 2017-02-05 11:59:05.292645+01 | 1486292345.29264 | pgbench_history  |        381427712
 2017-02-05 11:59:05.292645+01 | 1486292345.29264 | pgbench_branches |             8192

 2017-02-05 11:59:06.370195+01 | 1486292346.37019 | pgbench_accounts |       1386774528
 2017-02-05 11:59:06.370195+01 | 1486292346.37019 | pgbench_tellers  |            49152
 2017-02-05 11:59:06.370195+01 | 1486292346.37019 | pgbench_history  |        384589824
 2017-02-05 11:59:06.370195+01 | 1486292346.37019 | pgbench_branches |             8192

 2017-02-05 11:59:07.452216+01 | 1486292347.45222 | pgbench_accounts |       1386774528
 2017-02-05 11:59:07.452216+01 | 1486292347.45222 | pgbench_tellers  |            49152
 2017-02-05 11:59:07.452216+01 | 1486292347.45222 | pgbench_history  |        387588096
 2017-02-05 11:59:07.452216+01 | 1486292347.45222 | pgbench_branches |             8192

 2017-02-05 11:59:08.537798+01 | 1486292348.5378 | pgbench_accounts |       1386774528
 2017-02-05 11:59:08.537798+01 | 1486292348.5378 | pgbench_tellers  |            49152
 2017-02-05 11:59:08.537798+01 | 1486292348.5378 | pgbench_history  |        389955584
 2017-02-05 11:59:08.537798+01 | 1486292348.5378 | pgbench_branches |             8192

 2017-02-05 11:59:09.616693+01 | 1486292349.61669 | pgbench_accounts |       1386774528
 2017-02-05 11:59:09.616693+01 | 1486292349.61669 | pgbench_tellers  |            49152
 2017-02-05 11:59:09.616693+01 | 1486292349.61669 | pgbench_history  |        393469952
 2017-02-05 11:59:09.616693+01 | 1486292349.61669 | pgbench_branches |             8192

 2017-02-05 11:59:10.699805+01 | 1486292350.69981 | pgbench_accounts |       1386774528
 2017-02-05 11:59:10.699805+01 | 1486292350.69981 | pgbench_tellers  |            49152
 2017-02-05 11:59:10.699805+01 | 1486292350.69981 | pgbench_history  |        395976704
 2017-02-05 11:59:10.699805+01 | 1486292350.69981 | pgbench_branches |             8192

 2017-02-05 11:59:11.78812+01 | 1486292351.78812 | pgbench_accounts |       1386774528
 2017-02-05 11:59:11.78812+01 | 1486292351.78812 | pgbench_tellers  |            49152
 2017-02-05 11:59:11.78812+01 | 1486292351.78812 | pgbench_history  |        398811136
 2017-02-05 11:59:11.78812+01 | 1486292351.78812 | pgbench_branches |             8192

 2017-02-05 11:59:12.865431+01 | 1486292352.86543 | pgbench_accounts |       1386774528
 2017-02-05 11:59:12.865431+01 | 1486292352.86543 | pgbench_tellers  |            49152
 2017-02-05 11:59:12.865431+01 | 1486292352.86543 | pgbench_history  |        403447808
 2017-02-05 11:59:12.865431+01 | 1486292352.86543 | pgbench_branches |             8192

 2017-02-05 11:59:13.943865+01 | 1486292353.94387 | pgbench_accounts |       1386774528
 2017-02-05 11:59:13.943865+01 | 1486292353.94387 | pgbench_tellers  |            49152
 2017-02-05 11:59:13.943865+01 | 1486292353.94387 | pgbench_history  |        407429120
 2017-02-05 11:59:13.943865+01 | 1486292353.94387 | pgbench_branches |             8192

 2017-02-05 11:59:15.02564+01 | 1486292355.02564 | pgbench_accounts |       1386774528
 2017-02-05 11:59:15.02564+01 | 1486292355.02564 | pgbench_tellers  |            49152
 2017-02-05 11:59:15.02564+01 | 1486292355.02564 | pgbench_history  |        408928256
 2017-02-05 11:59:15.02564+01 | 1486292355.02564 | pgbench_branches |             8192

 2017-02-05 11:59:16.106088+01 | 1486292356.10609 | pgbench_accounts |       1386774528
 2017-02-05 11:59:16.106088+01 | 1486292356.10609 | pgbench_tellers  |            49152
 2017-02-05 11:59:16.106088+01 | 1486292356.10609 | pgbench_history  |        411443200
 2017-02-05 11:59:16.106088+01 | 1486292356.10609 | pgbench_branches |             8192

 2017-02-05 11:59:17.18527+01 | 1486292357.18527 | pgbench_accounts |       1386774528
 2017-02-05 11:59:17.18527+01 | 1486292357.18527 | pgbench_tellers  |            49152
 2017-02-05 11:59:17.18527+01 | 1486292357.18527 | pgbench_history  |        414793728
 2017-02-05 11:59:17.18527+01 | 1486292357.18527 | pgbench_branches |             8192

 2017-02-05 11:59:18.26241+01 | 1486292358.26241 | pgbench_accounts |       1386774528
 2017-02-05 11:59:18.26241+01 | 1486292358.26241 | pgbench_tellers  |            49152
 2017-02-05 11:59:18.26241+01 | 1486292358.26241 | pgbench_history  |        418144256
 2017-02-05 11:59:18.26241+01 | 1486292358.26241 | pgbench_branches |             8192

 2017-02-05 11:59:19.341416+01 | 1486292359.34142 | pgbench_accounts |       1386774528
 2017-02-05 11:59:19.341416+01 | 1486292359.34142 | pgbench_tellers  |            49152
 2017-02-05 11:59:19.341416+01 | 1486292359.34142 | pgbench_history  |        421330944
 2017-02-05 11:59:19.341416+01 | 1486292359.34142 | pgbench_branches |             8192

 2017-02-05 11:59:20.417584+01 | 1486292360.41758 | pgbench_accounts |       1386774528
 2017-02-05 11:59:20.417584+01 | 1486292360.41758 | pgbench_tellers  |            49152
 2017-02-05 11:59:20.417584+01 | 1486292360.41758 | pgbench_history  |        425500672
 2017-02-05 11:59:20.417584+01 | 1486292360.41758 | pgbench_branches |             8192

 2017-02-05 11:59:21.496848+01 | 1486292361.49685 | pgbench_accounts |       1386774528
 2017-02-05 11:59:21.496848+01 | 1486292361.49685 | pgbench_tellers  |            49152
 2017-02-05 11:59:21.496848+01 | 1486292361.49685 | pgbench_history  |        426999808
 2017-02-05 11:59:21.496848+01 | 1486292361.49685 | pgbench_branches |             8192

 2017-02-05 11:59:22.583295+01 | 1486292362.5833 | pgbench_accounts |       1386774528
 2017-02-05 11:59:22.583295+01 | 1486292362.5833 | pgbench_tellers  |            49152
 2017-02-05 11:59:22.583295+01 | 1486292362.5833 | pgbench_history  |        430047232
 2017-02-05 11:59:22.583295+01 | 1486292362.5833 | pgbench_branches |             8192

 2017-02-05 11:59:23.662374+01 | 1486292363.66237 | pgbench_accounts |       1386774528
 2017-02-05 11:59:23.662374+01 | 1486292363.66237 | pgbench_tellers  |            49152
 2017-02-05 11:59:23.662374+01 | 1486292363.66237 | pgbench_history  |        434438144
 2017-02-05 11:59:23.662374+01 | 1486292363.66237 | pgbench_branches |             8192

 2017-02-05 11:59:24.744612+01 | 1486292364.74461 | pgbench_accounts |       1386774528
 2017-02-05 11:59:24.744612+01 | 1486292364.74461 | pgbench_tellers  |            49152
 2017-02-05 11:59:24.744612+01 | 1486292364.74461 | pgbench_history  |        436289536
 2017-02-05 11:59:24.744612+01 | 1486292364.74461 | pgbench_branches |             8192

 2017-02-05 11:59:25.822185+01 | 1486292365.82219 | pgbench_accounts |       1386774528
 2017-02-05 11:59:25.822185+01 | 1486292365.82219 | pgbench_tellers  |            49152
 2017-02-05 11:59:25.822185+01 | 1486292365.82219 | pgbench_history  |        439836672
 2017-02-05 11:59:25.822185+01 | 1486292365.82219 | pgbench_branches |             8192

 2017-02-05 11:59:26.902221+01 | 1486292366.90222 | pgbench_accounts |       1386774528
 2017-02-05 11:59:26.902221+01 | 1486292366.90222 | pgbench_tellers  |            49152
 2017-02-05 11:59:26.902221+01 | 1486292366.90222 | pgbench_history  |        442507264
 2017-02-05 11:59:26.902221+01 | 1486292366.90222 | pgbench_branches |             8192

 2017-02-05 11:59:27.982138+01 | 1486292367.98214 | pgbench_accounts |       1386774528
 2017-02-05 11:59:27.982138+01 | 1486292367.98214 | pgbench_tellers  |            49152
 2017-02-05 11:59:27.982138+01 | 1486292367.98214 | pgbench_history  |        446513152
 2017-02-05 11:59:27.982138+01 | 1486292367.98214 | pgbench_branches |             8192

 2017-02-05 11:59:29.062498+01 | 1486292369.0625 | pgbench_accounts |       1386774528
 2017-02-05 11:59:29.062498+01 | 1486292369.0625 | pgbench_tellers  |            49152
 2017-02-05 11:59:29.062498+01 | 1486292369.0625 | pgbench_history  |        449372160
 2017-02-05 11:59:29.062498+01 | 1486292369.0625 | pgbench_branches |             8192

 2017-02-05 11:59:30.141602+01 | 1486292370.1416 | pgbench_accounts |       1386774528
 2017-02-05 11:59:30.141602+01 | 1486292370.1416 | pgbench_tellers  |            49152
 2017-02-05 11:59:30.141602+01 | 1486292370.1416 | pgbench_history  |        453238784
 2017-02-05 11:59:30.141602+01 | 1486292370.1416 | pgbench_branches |             8192

 2017-02-05 11:59:31.224758+01 | 1486292371.22476 | pgbench_accounts |       1386774528
 2017-02-05 11:59:31.224758+01 | 1486292371.22476 | pgbench_tellers  |            49152
 2017-02-05 11:59:31.224758+01 | 1486292371.22476 | pgbench_history  |        455229440
 2017-02-05 11:59:31.224758+01 | 1486292371.22476 | pgbench_branches |             8192

 2017-02-05 11:59:32.30537+01 | 1486292372.30537 | pgbench_accounts |       1386774528
 2017-02-05 11:59:32.30537+01 | 1486292372.30537 | pgbench_tellers  |            49152
 2017-02-05 11:59:32.30537+01 | 1486292372.30537 | pgbench_history  |        459939840
 2017-02-05 11:59:32.30537+01 | 1486292372.30537 | pgbench_branches |             8192

 2017-02-05 11:59:33.385446+01 | 1486292373.38545 | pgbench_accounts |       1386774528
 2017-02-05 11:59:33.385446+01 | 1486292373.38545 | pgbench_tellers  |            49152
 2017-02-05 11:59:33.385446+01 | 1486292373.38545 | pgbench_history  |        462610432
 2017-02-05 11:59:33.385446+01 | 1486292373.38545 | pgbench_branches |             8192

 2017-02-05 11:59:34.470785+01 | 1486292374.47078 | pgbench_accounts |       1386774528
 2017-02-05 11:59:34.470785+01 | 1486292374.47078 | pgbench_tellers  |            49152
 2017-02-05 11:59:34.470785+01 | 1486292374.47078 | pgbench_history  |        466288640
 2017-02-05 11:59:34.470785+01 | 1486292374.47078 | pgbench_branches |             8192

 2017-02-05 11:59:35.554024+01 | 1486292375.55402 | pgbench_accounts |       1386774528
 2017-02-05 11:59:35.554024+01 | 1486292375.55402 | pgbench_tellers  |            49152
 2017-02-05 11:59:35.554024+01 | 1486292375.55402 | pgbench_history  |        470761472
 2017-02-05 11:59:35.554024+01 | 1486292375.55402 | pgbench_branches |             8192

 2017-02-05 11:59:36.635383+01 | 1486292376.63538 | pgbench_accounts |       1386774528
 2017-02-05 11:59:36.635383+01 | 1486292376.63538 | pgbench_tellers  |            49152
 2017-02-05 11:59:36.635383+01 | 1486292376.63538 | pgbench_history  |        474112000
 2017-02-05 11:59:36.635383+01 | 1486292376.63538 | pgbench_branches |             8192

 2017-02-05 11:59:37.719109+01 | 1486292377.71911 | pgbench_accounts |       1386774528
 2017-02-05 11:59:37.719109+01 | 1486292377.71911 | pgbench_tellers  |            49152
 2017-02-05 11:59:37.719109+01 | 1486292377.71911 | pgbench_history  |        476454912
 2017-02-05 11:59:37.719109+01 | 1486292377.71911 | pgbench_branches |             8192

 2017-02-05 11:59:38.798793+01 | 1486292378.79879 | pgbench_accounts |       1386774528
 2017-02-05 11:59:38.798793+01 | 1486292378.79879 | pgbench_tellers  |            49152
 2017-02-05 11:59:38.798793+01 | 1486292378.79879 | pgbench_history  |        480108544
 2017-02-05 11:59:38.798793+01 | 1486292378.79879 | pgbench_branches |             8192

 2017-02-05 11:59:39.884016+01 | 1486292379.88402 | pgbench_accounts |       1386774528
 2017-02-05 11:59:39.884016+01 | 1486292379.88402 | pgbench_tellers  |            49152
 2017-02-05 11:59:39.884016+01 | 1486292379.88402 | pgbench_history  |        482615296
 2017-02-05 11:59:39.884016+01 | 1486292379.88402 | pgbench_branches |             8192

 2017-02-05 11:59:40.959328+01 | 1486292380.95933 | pgbench_accounts |       1386774528
 2017-02-05 11:59:40.959328+01 | 1486292380.95933 | pgbench_tellers  |            49152
 2017-02-05 11:59:40.959328+01 | 1486292380.95933 | pgbench_history  |        486268928
 2017-02-05 11:59:40.959328+01 | 1486292380.95933 | pgbench_branches |             8192

 2017-02-05 11:59:42.044227+01 | 1486292382.04423 | pgbench_accounts |       1386774528
 2017-02-05 11:59:42.044227+01 | 1486292382.04423 | pgbench_tellers  |            49152
 2017-02-05 11:59:42.044227+01 | 1486292382.04423 | pgbench_history  |        489316352
 2017-02-05 11:59:42.044227+01 | 1486292382.04423 | pgbench_branches |             8192

 2017-02-05 11:59:43.126051+01 | 1486292383.12605 | pgbench_accounts |       1386774528
 2017-02-05 11:59:43.126051+01 | 1486292383.12605 | pgbench_tellers  |            49152
 2017-02-05 11:59:43.126051+01 | 1486292383.12605 | pgbench_history  |        493182976
 2017-02-05 11:59:43.126051+01 | 1486292383.12605 | pgbench_branches |             8192

 2017-02-05 11:59:44.207704+01 | 1486292384.2077 | pgbench_accounts |       1386774528
 2017-02-05 11:59:44.207704+01 | 1486292384.2077 | pgbench_tellers  |            49152
 2017-02-05 11:59:44.207704+01 | 1486292384.2077 | pgbench_history  |        495886336
 2017-02-05 11:59:44.207704+01 | 1486292384.2077 | pgbench_branches |             8192

 2017-02-05 11:59:45.285897+01 | 1486292385.2859 | pgbench_accounts |       1386774528
 2017-02-05 11:59:45.285897+01 | 1486292385.2859 | pgbench_tellers  |            49152
 2017-02-05 11:59:45.285897+01 | 1486292385.2859 | pgbench_history  |        499564544
 2017-02-05 11:59:45.285897+01 | 1486292385.2859 | pgbench_branches |             8192

 2017-02-05 11:59:46.363095+01 | 1486292386.3631 | pgbench_accounts |       1386774528
 2017-02-05 11:59:46.363095+01 | 1486292386.3631 | pgbench_tellers  |            49152
 2017-02-05 11:59:46.363095+01 | 1486292386.3631 | pgbench_history  |        502915072
 2017-02-05 11:59:46.363095+01 | 1486292386.3631 | pgbench_branches |             8192

 2017-02-05 11:59:47.439002+01 | 1486292387.439 | pgbench_accounts |       1386774528
 2017-02-05 11:59:47.439002+01 | 1486292387.439 | pgbench_tellers  |            49152
 2017-02-05 11:59:47.439002+01 | 1486292387.439 | pgbench_history  |        505774080
 2017-02-05 11:59:47.439002+01 | 1486292387.439 | pgbench_branches |             8192

 2017-02-05 11:59:48.51659+01 | 1486292388.51659 | pgbench_accounts |       1386774528
 2017-02-05 11:59:48.51659+01 | 1486292388.51659 | pgbench_tellers  |            49152
 2017-02-05 11:59:48.51659+01 | 1486292388.51659 | pgbench_history  |        509476864
 2017-02-05 11:59:48.51659+01 | 1486292388.51659 | pgbench_branches |             8192

 2017-02-05 11:59:49.599059+01 | 1486292389.59906 | pgbench_accounts |       1386774528
 2017-02-05 11:59:49.599059+01 | 1486292389.59906 | pgbench_tellers  |            49152
 2017-02-05 11:59:49.599059+01 | 1486292389.59906 | pgbench_history  |        513458176
 2017-02-05 11:59:49.599059+01 | 1486292389.59906 | pgbench_branches |             8192

 2017-02-05 11:59:50.680858+01 | 1486292390.68086 | pgbench_accounts |       1386774528
 2017-02-05 11:59:50.680858+01 | 1486292390.68086 | pgbench_tellers  |            49152
 2017-02-05 11:59:50.680858+01 | 1486292390.68086 | pgbench_history  |        516317184
 2017-02-05 11:59:50.680858+01 | 1486292390.68086 | pgbench_branches |             8192

 2017-02-05 11:59:51.763202+01 | 1486292391.7632 | pgbench_accounts |       1386774528
 2017-02-05 11:59:51.763202+01 | 1486292391.7632 | pgbench_tellers  |            49152
 2017-02-05 11:59:51.763202+01 | 1486292391.7632 | pgbench_history  |        520159232
 2017-02-05 11:59:51.763202+01 | 1486292391.7632 | pgbench_branches |             8192

 2017-02-05 11:59:52.84086+01 | 1486292392.84086 | pgbench_accounts |       1386774528
 2017-02-05 11:59:52.84086+01 | 1486292392.84086 | pgbench_tellers  |            49152
 2017-02-05 11:59:52.84086+01 | 1486292392.84086 | pgbench_history  |        522993664
 2017-02-05 11:59:52.84086+01 | 1486292392.84086 | pgbench_branches |             8192

 2017-02-05 11:59:53.925128+01 | 1486292393.92513 | pgbench_accounts |       1386774528
 2017-02-05 11:59:53.925128+01 | 1486292393.92513 | pgbench_tellers  |            49152
 2017-02-05 11:59:53.925128+01 | 1486292393.92513 | pgbench_history  |        526843904
 2017-02-05 11:59:53.925128+01 | 1486292393.92513 | pgbench_branches |             8192

 2017-02-05 11:59:55.007759+01 | 1486292395.00776 | pgbench_accounts |       1386774528
 2017-02-05 11:59:55.007759+01 | 1486292395.00776 | pgbench_tellers  |            49152
 2017-02-05 11:59:55.007759+01 | 1486292395.00776 | pgbench_history  |        531013632
 2017-02-05 11:59:55.007759+01 | 1486292395.00776 | pgbench_branches |             8192

 2017-02-05 11:59:56.088475+01 | 1486292396.08847 | pgbench_accounts |       1386774528
 2017-02-05 11:59:56.088475+01 | 1486292396.08847 | pgbench_tellers  |            49152
 2017-02-05 11:59:56.088475+01 | 1486292396.08847 | pgbench_history  |        534175744
 2017-02-05 11:59:56.088475+01 | 1486292396.08847 | pgbench_branches |             8192

 2017-02-05 11:59:57.167544+01 | 1486292397.16754 | pgbench_accounts |       1386774528
 2017-02-05 11:59:57.167544+01 | 1486292397.16754 | pgbench_tellers  |            49152
 2017-02-05 11:59:57.167544+01 | 1486292397.16754 | pgbench_history  |        536354816
 2017-02-05 11:59:57.167544+01 | 1486292397.16754 | pgbench_branches |             8192

 2017-02-05 11:59:58.242356+01 | 1486292398.24236 | pgbench_accounts |       1386774528
 2017-02-05 11:59:58.242356+01 | 1486292398.24236 | pgbench_tellers  |            49152
 2017-02-05 11:59:58.242356+01 | 1486292398.24236 | pgbench_history  |        539516928
 2017-02-05 11:59:58.242356+01 | 1486292398.24236 | pgbench_branches |             8192

 2017-02-05 11:59:59.3319+01 | 1486292399.3319 | pgbench_accounts |       1386774528
 2017-02-05 11:59:59.3319+01 | 1486292399.3319 | pgbench_tellers  |            49152
 2017-02-05 11:59:59.3319+01 | 1486292399.3319 | pgbench_history  |        542703616
 2017-02-05 11:59:59.3319+01 | 1486292399.3319 | pgbench_branches |             8192

 2017-02-05 12:00:00.422154+01 | 1486292400.42215 | pgbench_accounts |       1386774528
 2017-02-05 12:00:00.422154+01 | 1486292400.42215 | pgbench_tellers  |            49152
 2017-02-05 12:00:00.422154+01 | 1486292400.42215 | pgbench_history  |        546578432
 2017-02-05 12:00:00.422154+01 | 1486292400.42215 | pgbench_branches |             8192

 2017-02-05 12:00:01.508923+01 | 1486292401.50892 | pgbench_accounts |       1386774528
 2017-02-05 12:00:01.508923+01 | 1486292401.50892 | pgbench_tellers  |            49152
 2017-02-05 12:00:01.508923+01 | 1486292401.50892 | pgbench_history  |        549576704
 2017-02-05 12:00:01.508923+01 | 1486292401.50892 | pgbench_branches |             8192

 2017-02-05 12:00:02.593703+01 | 1486292402.5937 | pgbench_accounts |       1386774528
 2017-02-05 12:00:02.593703+01 | 1486292402.5937 | pgbench_tellers  |            49152
 2017-02-05 12:00:02.593703+01 | 1486292402.5937 | pgbench_history  |        552435712
 2017-02-05 12:00:02.593703+01 | 1486292402.5937 | pgbench_branches |             8192

 2017-02-05 12:00:03.679001+01 | 1486292403.679 | pgbench_accounts |       1386774528
 2017-02-05 12:00:03.679001+01 | 1486292403.679 | pgbench_tellers  |            49152
 2017-02-05 12:00:03.679001+01 | 1486292403.679 | pgbench_history  |        556138496
 2017-02-05 12:00:03.679001+01 | 1486292403.679 | pgbench_branches |             8192

 2017-02-05 12:00:04.762997+01 | 1486292404.763 | pgbench_accounts |       1386774528
 2017-02-05 12:00:04.762997+01 | 1486292404.763 | pgbench_tellers  |            49152
 2017-02-05 12:00:04.762997+01 | 1486292404.763 | pgbench_history  |        559792128
 2017-02-05 12:00:04.762997+01 | 1486292404.763 | pgbench_branches |             8192

 2017-02-05 12:00:05.847286+01 | 1486292405.84729 | pgbench_accounts |       1386774528
 2017-02-05 12:00:05.847286+01 | 1486292405.84729 | pgbench_tellers  |            49152
 2017-02-05 12:00:05.847286+01 | 1486292405.84729 | pgbench_history  |        564838400
 2017-02-05 12:00:05.847286+01 | 1486292405.84729 | pgbench_branches |             8192

 2017-02-05 12:00:06.926561+01 | 1486292406.92656 | pgbench_accounts |       1386774528
 2017-02-05 12:00:06.926561+01 | 1486292406.92656 | pgbench_tellers  |            49152
 2017-02-05 12:00:06.926561+01 | 1486292406.92656 | pgbench_history  |        566878208
 2017-02-05 12:00:06.926561+01 | 1486292406.92656 | pgbench_branches |             8192

 2017-02-05 12:00:08.01556+01 | 1486292408.01556 | pgbench_accounts |       1386774528
 2017-02-05 12:00:08.01556+01 | 1486292408.01556 | pgbench_tellers  |            49152
 2017-02-05 12:00:08.01556+01 | 1486292408.01556 | pgbench_history  |        569925632
 2017-02-05 12:00:08.01556+01 | 1486292408.01556 | pgbench_branches |             8192

 2017-02-05 12:00:09.097353+01 | 1486292409.09735 | pgbench_accounts |       1386774528
 2017-02-05 12:00:09.097353+01 | 1486292409.09735 | pgbench_tellers  |            49152
 2017-02-05 12:00:09.097353+01 | 1486292409.09735 | pgbench_history  |        574070784
 2017-02-05 12:00:09.097353+01 | 1486292409.09735 | pgbench_branches |             8192

 2017-02-05 12:00:10.180905+01 | 1486292410.18091 | pgbench_accounts |       1386774528
 2017-02-05 12:00:10.180905+01 | 1486292410.18091 | pgbench_tellers  |            49152
 2017-02-05 12:00:10.180905+01 | 1486292410.18091 | pgbench_history  |        576741376
 2017-02-05 12:00:10.180905+01 | 1486292410.18091 | pgbench_branches |             8192

 2017-02-05 12:00:11.2594+01 | 1486292411.2594 | pgbench_accounts |       1386774528
 2017-02-05 12:00:11.2594+01 | 1486292411.2594 | pgbench_tellers  |            49152
 2017-02-05 12:00:11.2594+01 | 1486292411.2594 | pgbench_history  |        581214208
 2017-02-05 12:00:11.2594+01 | 1486292411.2594 | pgbench_branches |             8192

 2017-02-05 12:00:12.333767+01 | 1486292412.33377 | pgbench_accounts |       1386774528
 2017-02-05 12:00:12.333767+01 | 1486292412.33377 | pgbench_tellers  |            49152
 2017-02-05 12:00:12.333767+01 | 1486292412.33377 | pgbench_history  |        583204864
 2017-02-05 12:00:12.333767+01 | 1486292412.33377 | pgbench_branches |             8192

 2017-02-05 12:00:13.411128+01 | 1486292413.41113 | pgbench_accounts |       1386774528
 2017-02-05 12:00:13.411128+01 | 1486292413.41113 | pgbench_tellers  |            49152
 2017-02-05 12:00:13.411128+01 | 1486292413.41113 | pgbench_history  |        587538432
 2017-02-05 12:00:13.411128+01 | 1486292413.41113 | pgbench_branches |             8192

 2017-02-05 12:00:14.494645+01 | 1486292414.49465 | pgbench_accounts |       1386774528
 2017-02-05 12:00:14.494645+01 | 1486292414.49465 | pgbench_tellers  |            49152
 2017-02-05 12:00:14.494645+01 | 1486292414.49465 | pgbench_history  |        589717504
 2017-02-05 12:00:14.494645+01 | 1486292414.49465 | pgbench_branches |             8192

 2017-02-05 12:00:15.578315+01 | 1486292415.57832 | pgbench_accounts |       1386774528
 2017-02-05 12:00:15.578315+01 | 1486292415.57832 | pgbench_tellers  |            49152
 2017-02-05 12:00:15.578315+01 | 1486292415.57832 | pgbench_history  |        594100224
 2017-02-05 12:00:15.578315+01 | 1486292415.57832 | pgbench_branches |             8192

 2017-02-05 12:00:16.6642+01 | 1486292416.6642 | pgbench_accounts |       1386774528
 2017-02-05 12:00:16.6642+01 | 1486292416.6642 | pgbench_tellers  |            49152
 2017-02-05 12:00:16.6642+01 | 1486292416.6642 | pgbench_history  |        597966848
 2017-02-05 12:00:16.6642+01 | 1486292416.6642 | pgbench_branches |             8192

 2017-02-05 12:00:17.7537+01 | 1486292417.7537 | pgbench_accounts |       1386774528
 2017-02-05 12:00:17.7537+01 | 1486292417.7537 | pgbench_tellers  |            49152
 2017-02-05 12:00:17.7537+01 | 1486292417.7537 | pgbench_history  |        599957504
 2017-02-05 12:00:17.7537+01 | 1486292417.7537 | pgbench_branches |             8192

 2017-02-05 12:00:18.841165+01 | 1486292418.84117 | pgbench_accounts |       1386774528
 2017-02-05 12:00:18.841165+01 | 1486292418.84117 | pgbench_tellers  |            49152
 2017-02-05 12:00:18.841165+01 | 1486292418.84117 | pgbench_history  |        604782592
 2017-02-05 12:00:18.841165+01 | 1486292418.84117 | pgbench_branches |             8192

 2017-02-05 12:00:19.920459+01 | 1486292419.92046 | pgbench_accounts |       1386774528
 2017-02-05 12:00:19.920459+01 | 1486292419.92046 | pgbench_tellers  |            49152
 2017-02-05 12:00:19.920459+01 | 1486292419.92046 | pgbench_history  |        607617024
 2017-02-05 12:00:19.920459+01 | 1486292419.92046 | pgbench_branches |             8192

 2017-02-05 12:00:21.002903+01 | 1486292421.0029 | pgbench_accounts |       1386774528
 2017-02-05 12:00:21.002903+01 | 1486292421.0029 | pgbench_tellers  |            49152
 2017-02-05 12:00:21.002903+01 | 1486292421.0029 | pgbench_history  |        610639872
 2017-02-05 12:00:21.002903+01 | 1486292421.0029 | pgbench_branches |             8192

 2017-02-05 12:00:22.079987+01 | 1486292422.07999 | pgbench_accounts |       1386774528
 2017-02-05 12:00:22.079987+01 | 1486292422.07999 | pgbench_tellers  |            49152
 2017-02-05 12:00:22.079987+01 | 1486292422.07999 | pgbench_history  |        614678528
 2017-02-05 12:00:22.079987+01 | 1486292422.07999 | pgbench_branches |             8192

 2017-02-05 12:00:23.15587+01 | 1486292423.15587 | pgbench_accounts |       1386774528
 2017-02-05 12:00:23.15587+01 | 1486292423.15587 | pgbench_tellers  |            49152
 2017-02-05 12:00:23.15587+01 | 1486292423.15587 | pgbench_history  |        617373696
 2017-02-05 12:00:23.15587+01 | 1486292423.15587 | pgbench_branches |             8192

 2017-02-05 12:00:24.230832+01 | 1486292424.23083 | pgbench_accounts |       1386774528
 2017-02-05 12:00:24.230832+01 | 1486292424.23083 | pgbench_tellers  |            49152
 2017-02-05 12:00:24.230832+01 | 1486292424.23083 | pgbench_history  |        620560384
 2017-02-05 12:00:24.230832+01 | 1486292424.23083 | pgbench_branches |             8192

 2017-02-05 12:00:25.318658+01 | 1486292425.31866 | pgbench_accounts |       1386774528
 2017-02-05 12:00:25.318658+01 | 1486292425.31866 | pgbench_tellers  |            49152
 2017-02-05 12:00:25.318658+01 | 1486292425.31866 | pgbench_history  |        624050176
 2017-02-05 12:00:25.318658+01 | 1486292425.31866 | pgbench_branches |             8192

 2017-02-05 12:00:26.404588+01 | 1486292426.40459 | pgbench_accounts |       1386774528
 2017-02-05 12:00:26.404588+01 | 1486292426.40459 | pgbench_tellers  |            49152
 2017-02-05 12:00:26.404588+01 | 1486292426.40459 | pgbench_history  |        627023872
 2017-02-05 12:00:26.404588+01 | 1486292426.40459 | pgbench_branches |             8192

 2017-02-05 12:00:27.48564+01 | 1486292427.48564 | pgbench_accounts |       1386774528
 2017-02-05 12:00:27.48564+01 | 1486292427.48564 | pgbench_tellers  |            49152
 2017-02-05 12:00:27.48564+01 | 1486292427.48564 | pgbench_history  |        630185984
 2017-02-05 12:00:27.48564+01 | 1486292427.48564 | pgbench_branches |             8192

 2017-02-05 12:00:28.572684+01 | 1486292428.57268 | pgbench_accounts |       1386774528
 2017-02-05 12:00:28.572684+01 | 1486292428.57268 | pgbench_tellers  |            49152
 2017-02-05 12:00:28.572684+01 | 1486292428.57268 | pgbench_history  |        634568704
 2017-02-05 12:00:28.572684+01 | 1486292428.57268 | pgbench_branches |             8192

 2017-02-05 12:00:29.65792+01 | 1486292429.65792 | pgbench_accounts |       1386774528
 2017-02-05 12:00:29.65792+01 | 1486292429.65792 | pgbench_tellers  |            49152
 2017-02-05 12:00:29.65792+01 | 1486292429.65792 | pgbench_history  |        637894656
 2017-02-05 12:00:29.65792+01 | 1486292429.65792 | pgbench_branches |             8192

 2017-02-05 12:00:30.739278+01 | 1486292430.73928 | pgbench_accounts |       1386774528
 2017-02-05 12:00:30.739278+01 | 1486292430.73928 | pgbench_tellers  |            49152
 2017-02-05 12:00:30.739278+01 | 1486292430.73928 | pgbench_history  |        640589824
 2017-02-05 12:00:30.739278+01 | 1486292430.73928 | pgbench_branches |             8192

 2017-02-05 12:00:31.823966+01 | 1486292431.82397 | pgbench_accounts |       1386774528
 2017-02-05 12:00:31.823966+01 | 1486292431.82397 | pgbench_tellers  |            49152
 2017-02-05 12:00:31.823966+01 | 1486292431.82397 | pgbench_history  |        644456448
 2017-02-05 12:00:31.823966+01 | 1486292431.82397 | pgbench_branches |             8192

 2017-02-05 12:00:32.9052+01 | 1486292432.9052 | pgbench_accounts |       1386774528
 2017-02-05 12:00:32.9052+01 | 1486292432.9052 | pgbench_tellers  |            49152
 2017-02-05 12:00:32.9052+01 | 1486292432.9052 | pgbench_history  |        647667712
 2017-02-05 12:00:32.9052+01 | 1486292432.9052 | pgbench_branches |             8192

 2017-02-05 12:00:33.988819+01 | 1486292433.98882 | pgbench_accounts |       1386774528
 2017-02-05 12:00:33.988819+01 | 1486292433.98882 | pgbench_tellers  |            49152
 2017-02-05 12:00:33.988819+01 | 1486292433.98882 | pgbench_history  |        650526720
 2017-02-05 12:00:33.988819+01 | 1486292433.98882 | pgbench_branches |             8192

 2017-02-05 12:00:35.06947+01 | 1486292435.06947 | pgbench_accounts |       1386774528
 2017-02-05 12:00:35.06947+01 | 1486292435.06947 | pgbench_tellers  |            49152
 2017-02-05 12:00:35.06947+01 | 1486292435.06947 | pgbench_history  |        654393344
 2017-02-05 12:00:35.06947+01 | 1486292435.06947 | pgbench_branches |             8192

 2017-02-05 12:00:36.15074+01 | 1486292436.15074 | pgbench_accounts |       1386774528
 2017-02-05 12:00:36.15074+01 | 1486292436.15074 | pgbench_tellers  |            49152
 2017-02-05 12:00:36.15074+01 | 1486292436.15074 | pgbench_history  |        657883136
 2017-02-05 12:00:36.15074+01 | 1486292436.15074 | pgbench_branches |             8192

 2017-02-05 12:00:37.228478+01 | 1486292437.22848 | pgbench_accounts |       1386774528
 2017-02-05 12:00:37.228478+01 | 1486292437.22848 | pgbench_tellers  |            49152
 2017-02-05 12:00:37.228478+01 | 1486292437.22848 | pgbench_history  |        662102016
 2017-02-05 12:00:37.228478+01 | 1486292437.22848 | pgbench_branches |             8192

 2017-02-05 12:00:38.308198+01 | 1486292438.3082 | pgbench_accounts |       1386774528
 2017-02-05 12:00:38.308198+01 | 1486292438.3082 | pgbench_tellers  |            49152
 2017-02-05 12:00:38.308198+01 | 1486292438.3082 | pgbench_history  |        663764992
 2017-02-05 12:00:38.308198+01 | 1486292438.3082 | pgbench_branches |             8192

 2017-02-05 12:00:39.403729+01 | 1486292439.40373 | pgbench_accounts |       1386774528
 2017-02-05 12:00:39.403729+01 | 1486292439.40373 | pgbench_tellers  |            49152
 2017-02-05 12:00:39.403729+01 | 1486292439.40373 | pgbench_history  |        667090944
 2017-02-05 12:00:39.403729+01 | 1486292439.40373 | pgbench_branches |             8192

 2017-02-05 12:00:40.48529+01 | 1486292440.48529 | pgbench_accounts |       1386774528
 2017-02-05 12:00:40.48529+01 | 1486292440.48529 | pgbench_tellers  |            49152
 2017-02-05 12:00:40.48529+01 | 1486292440.48529 | pgbench_history  |        671285248
 2017-02-05 12:00:40.48529+01 | 1486292440.48529 | pgbench_branches |             8192

 2017-02-05 12:00:41.567631+01 | 1486292441.56763 | pgbench_accounts |       1386774528
 2017-02-05 12:00:41.567631+01 | 1486292441.56763 | pgbench_tellers  |            49152
 2017-02-05 12:00:41.567631+01 | 1486292441.56763 | pgbench_history  |        674635776
 2017-02-05 12:00:41.567631+01 | 1486292441.56763 | pgbench_branches |             8192

 2017-02-05 12:00:42.645493+01 | 1486292442.64549 | pgbench_accounts |       1386774528
 2017-02-05 12:00:42.645493+01 | 1486292442.64549 | pgbench_tellers  |            49152
 2017-02-05 12:00:42.645493+01 | 1486292442.64549 | pgbench_history  |        678854656
 2017-02-05 12:00:42.645493+01 | 1486292442.64549 | pgbench_branches |             8192

 2017-02-05 12:00:43.729558+01 | 1486292443.72956 | pgbench_accounts |       1386774528
 2017-02-05 12:00:43.729558+01 | 1486292443.72956 | pgbench_tellers  |            49152
 2017-02-05 12:00:43.729558+01 | 1486292443.72956 | pgbench_history  |        681361408
 2017-02-05 12:00:43.729558+01 | 1486292443.72956 | pgbench_branches |             8192

 2017-02-05 12:00:44.812048+01 | 1486292444.81205 | pgbench_accounts |       1386774528
 2017-02-05 12:00:44.812048+01 | 1486292444.81205 | pgbench_tellers  |            49152
 2017-02-05 12:00:44.812048+01 | 1486292444.81205 | pgbench_history  |        684523520
 2017-02-05 12:00:44.812048+01 | 1486292444.81205 | pgbench_branches |             8192

 2017-02-05 12:00:45.900047+01 | 1486292445.90005 | pgbench_accounts |       1386774528
 2017-02-05 12:00:45.900047+01 | 1486292445.90005 | pgbench_tellers  |            49152
 2017-02-05 12:00:45.900047+01 | 1486292445.90005 | pgbench_history  |        687570944
 2017-02-05 12:00:45.900047+01 | 1486292445.90005 | pgbench_branches |             8192

 2017-02-05 12:00:46.980465+01 | 1486292446.98046 | pgbench_accounts |       1386774528
 2017-02-05 12:00:46.980465+01 | 1486292446.98046 | pgbench_tellers  |            49152
 2017-02-05 12:00:46.980465+01 | 1486292446.98046 | pgbench_history  |        691224576
 2017-02-05 12:00:46.980465+01 | 1486292446.98046 | pgbench_branches |             8192

 2017-02-05 12:00:48.072295+01 | 1486292448.07229 | pgbench_accounts |       1386774528
 2017-02-05 12:00:48.072295+01 | 1486292448.07229 | pgbench_tellers  |            49152
 2017-02-05 12:00:48.072295+01 | 1486292448.07229 | pgbench_history  |        694296576
 2017-02-05 12:00:48.072295+01 | 1486292448.07229 | pgbench_branches |             8192

 2017-02-05 12:00:49.156672+01 | 1486292449.15667 | pgbench_accounts |       1386774528
 2017-02-05 12:00:49.156672+01 | 1486292449.15667 | pgbench_tellers  |            49152
 2017-02-05 12:00:49.156672+01 | 1486292449.15667 | pgbench_history  |        697810944
 2017-02-05 12:00:49.156672+01 | 1486292449.15667 | pgbench_branches |             8192

 2017-02-05 12:00:50.230354+01 | 1486292450.23035 | pgbench_accounts |       1386774528
 2017-02-05 12:00:50.230354+01 | 1486292450.23035 | pgbench_tellers  |            49152
 2017-02-05 12:00:50.230354+01 | 1486292450.23035 | pgbench_history  |        701399040
 2017-02-05 12:00:50.230354+01 | 1486292450.23035 | pgbench_branches |             8192

 2017-02-05 12:00:51.311301+01 | 1486292451.3113 | pgbench_accounts |       1386774528
 2017-02-05 12:00:51.311301+01 | 1486292451.3113 | pgbench_tellers  |            49152
 2017-02-05 12:00:51.311301+01 | 1486292451.3113 | pgbench_history  |        704946176
 2017-02-05 12:00:51.311301+01 | 1486292451.3113 | pgbench_branches |             8192

 2017-02-05 12:00:52.386121+01 | 1486292452.38612 | pgbench_accounts |       1386774528
 2017-02-05 12:00:52.386121+01 | 1486292452.38612 | pgbench_tellers  |            49152
 2017-02-05 12:00:52.386121+01 | 1486292452.38612 | pgbench_history  |        707780608
 2017-02-05 12:00:52.386121+01 | 1486292452.38612 | pgbench_branches |             8192

 2017-02-05 12:00:53.468659+01 | 1486292453.46866 | pgbench_accounts |       1386774528
 2017-02-05 12:00:53.468659+01 | 1486292453.46866 | pgbench_tellers  |            49152
 2017-02-05 12:00:53.468659+01 | 1486292453.46866 | pgbench_history  |        711000064
 2017-02-05 12:00:53.468659+01 | 1486292453.46866 | pgbench_branches |             8192

 2017-02-05 12:00:54.54244+01 | 1486292454.54244 | pgbench_accounts |       1386774528
 2017-02-05 12:00:54.54244+01 | 1486292454.54244 | pgbench_tellers  |            49152
 2017-02-05 12:00:54.54244+01 | 1486292454.54244 | pgbench_history  |        714842112
 2017-02-05 12:00:54.54244+01 | 1486292454.54244 | pgbench_branches |             8192

 2017-02-05 12:00:55.627498+01 | 1486292455.6275 | pgbench_accounts |       1386774528
 2017-02-05 12:00:55.627498+01 | 1486292455.6275 | pgbench_tellers  |            49152
 2017-02-05 12:00:55.627498+01 | 1486292455.6275 | pgbench_history  |        718356480
 2017-02-05 12:00:55.627498+01 | 1486292455.6275 | pgbench_branches |             8192

 2017-02-05 12:00:56.705742+01 | 1486292456.70574 | pgbench_accounts |       1386774528
 2017-02-05 12:00:56.705742+01 | 1486292456.70574 | pgbench_tellers  |            49152
 2017-02-05 12:00:56.705742+01 | 1486292456.70574 | pgbench_history  |        722247680
 2017-02-05 12:00:56.705742+01 | 1486292456.70574 | pgbench_branches |             8192

 2017-02-05 12:00:57.782205+01 | 1486292457.78221 | pgbench_accounts |       1386774528
 2017-02-05 12:00:57.782205+01 | 1486292457.78221 | pgbench_tellers  |            49152
 2017-02-05 12:00:57.782205+01 | 1486292457.78221 | pgbench_history  |        725164032
 2017-02-05 12:00:57.782205+01 | 1486292457.78221 | pgbench_branches |             8192

 2017-02-05 12:00:58.865005+01 | 1486292458.86501 | pgbench_accounts |       1386774528
 2017-02-05 12:00:58.865005+01 | 1486292458.86501 | pgbench_tellers  |            49152
 2017-02-05 12:00:58.865005+01 | 1486292458.86501 | pgbench_history  |        730292224
 2017-02-05 12:00:58.865005+01 | 1486292458.86501 | pgbench_branches |             8192

 2017-02-05 12:00:59.950381+01 | 1486292459.95038 | pgbench_accounts |       1386774528
 2017-02-05 12:00:59.950381+01 | 1486292459.95038 | pgbench_tellers  |            49152
 2017-02-05 12:00:59.950381+01 | 1486292459.95038 | pgbench_history  |        731791360
 2017-02-05 12:00:59.950381+01 | 1486292459.95038 | pgbench_branches |             8192

 2017-02-05 12:01:01.028219+01 | 1486292461.02822 | pgbench_accounts |       1386774528
 2017-02-05 12:01:01.028219+01 | 1486292461.02822 | pgbench_tellers  |            49152
 2017-02-05 12:01:01.028219+01 | 1486292461.02822 | pgbench_history  |        735633408
 2017-02-05 12:01:01.028219+01 | 1486292461.02822 | pgbench_branches |             8192

 2017-02-05 12:01:02.10761+01 | 1486292462.10761 | pgbench_accounts |       1386774528
 2017-02-05 12:01:02.10761+01 | 1486292462.10761 | pgbench_tellers  |            49152
 2017-02-05 12:01:02.10761+01 | 1486292462.10761 | pgbench_history  |        739008512
 2017-02-05 12:01:02.10761+01 | 1486292462.10761 | pgbench_branches |             8192

 2017-02-05 12:01:03.187989+01 | 1486292463.18799 | pgbench_accounts |       1386774528
 2017-02-05 12:01:03.187989+01 | 1486292463.18799 | pgbench_tellers  |            49152
 2017-02-05 12:01:03.187989+01 | 1486292463.18799 | pgbench_history  |        741867520
 2017-02-05 12:01:03.187989+01 | 1486292463.18799 | pgbench_branches |             8192

 2017-02-05 12:01:04.276391+01 | 1486292464.27639 | pgbench_accounts |       1386774528
 2017-02-05 12:01:04.276391+01 | 1486292464.27639 | pgbench_tellers  |            49152
 2017-02-05 12:01:04.276391+01 | 1486292464.27639 | pgbench_history  |        745357312
 2017-02-05 12:01:04.276391+01 | 1486292464.27639 | pgbench_branches |             8192

 2017-02-05 12:01:05.35111+01 | 1486292465.35111 | pgbench_accounts |       1386774528
 2017-02-05 12:01:05.35111+01 | 1486292465.35111 | pgbench_tellers  |            49152
 2017-02-05 12:01:05.35111+01 | 1486292465.35111 | pgbench_history  |        749723648
 2017-02-05 12:01:05.35111+01 | 1486292465.35111 | pgbench_branches |             8192

 2017-02-05 12:01:06.4328+01 | 1486292466.4328 | pgbench_accounts |       1386774528
 2017-02-05 12:01:06.4328+01 | 1486292466.4328 | pgbench_tellers  |            49152
 2017-02-05 12:01:06.4328+01 | 1486292466.4328 | pgbench_history  |        753377280
 2017-02-05 12:01:06.4328+01 | 1486292466.4328 | pgbench_branches |             8192

 2017-02-05 12:01:07.511694+01 | 1486292467.51169 | pgbench_accounts |       1386774528
 2017-02-05 12:01:07.511694+01 | 1486292467.51169 | pgbench_tellers  |            49152
 2017-02-05 12:01:07.511694+01 | 1486292467.51169 | pgbench_history  |        756072448
 2017-02-05 12:01:07.511694+01 | 1486292467.51169 | pgbench_branches |             8192

 2017-02-05 12:01:08.592922+01 | 1486292468.59292 | pgbench_accounts |       1386774528
 2017-02-05 12:01:08.592922+01 | 1486292468.59292 | pgbench_tellers  |            49152
 2017-02-05 12:01:08.592922+01 | 1486292468.59292 | pgbench_history  |        759889920
 2017-02-05 12:01:08.592922+01 | 1486292468.59292 | pgbench_branches |             8192

 2017-02-05 12:01:09.676463+01 | 1486292469.67646 | pgbench_accounts |       1386774528
 2017-02-05 12:01:09.676463+01 | 1486292469.67646 | pgbench_tellers  |            49152
 2017-02-05 12:01:09.676463+01 | 1486292469.67646 | pgbench_history  |        762093568
 2017-02-05 12:01:09.676463+01 | 1486292469.67646 | pgbench_branches |             8192

 2017-02-05 12:01:10.753538+01 | 1486292470.75354 | pgbench_accounts |       1386774528
 2017-02-05 12:01:10.753538+01 | 1486292470.75354 | pgbench_tellers  |            49152
 2017-02-05 12:01:10.753538+01 | 1486292470.75354 | pgbench_history  |        766967808
 2017-02-05 12:01:10.753538+01 | 1486292470.75354 | pgbench_branches |             8192

 2017-02-05 12:01:11.831065+01 | 1486292471.83106 | pgbench_accounts |       1386774528
 2017-02-05 12:01:11.831065+01 | 1486292471.83106 | pgbench_tellers  |            49152
 2017-02-05 12:01:11.831065+01 | 1486292471.83106 | pgbench_history  |        768819200
 2017-02-05 12:01:11.831065+01 | 1486292471.83106 | pgbench_branches |             8192

 2017-02-05 12:01:12.912776+01 | 1486292472.91278 | pgbench_accounts |       1386774528
 2017-02-05 12:01:12.912776+01 | 1486292472.91278 | pgbench_tellers  |            49152
 2017-02-05 12:01:12.912776+01 | 1486292472.91278 | pgbench_history  |        775413760
 2017-02-05 12:01:12.912776+01 | 1486292472.91278 | pgbench_branches |             8192

 2017-02-05 12:01:13.998938+01 | 1486292473.99894 | pgbench_accounts |       1386774528
 2017-02-05 12:01:13.998938+01 | 1486292473.99894 | pgbench_tellers  |            49152
 2017-02-05 12:01:13.998938+01 | 1486292473.99894 | pgbench_history  |        775413760
 2017-02-05 12:01:13.998938+01 | 1486292473.99894 | pgbench_branches |             8192

 2017-02-05 12:01:15.085768+01 | 1486292475.08577 | pgbench_accounts |       1386774528
 2017-02-05 12:01:15.085768+01 | 1486292475.08577 | pgbench_tellers  |            49152
 2017-02-05 12:01:15.085768+01 | 1486292475.08577 | pgbench_history  |        779911168
 2017-02-05 12:01:15.085768+01 | 1486292475.08577 | pgbench_branches |             8192

 2017-02-05 12:01:16.166595+01 | 1486292476.16659 | pgbench_accounts |       1386774528
 2017-02-05 12:01:16.166595+01 | 1486292476.16659 | pgbench_tellers  |            49152
 2017-02-05 12:01:16.166595+01 | 1486292476.16659 | pgbench_history  |        782090240
 2017-02-05 12:01:16.166595+01 | 1486292476.16659 | pgbench_branches |             8192

 2017-02-05 12:01:17.244099+01 | 1486292477.2441 | pgbench_accounts |       1386774528
 2017-02-05 12:01:17.244099+01 | 1486292477.2441 | pgbench_tellers  |            49152
 2017-02-05 12:01:17.244099+01 | 1486292477.2441 | pgbench_history  |        786456576
 2017-02-05 12:01:17.244099+01 | 1486292477.2441 | pgbench_branches |             8192

 2017-02-05 12:01:18.315931+01 | 1486292478.31593 | pgbench_accounts |       1386774528
 2017-02-05 12:01:18.315931+01 | 1486292478.31593 | pgbench_tellers  |            49152
 2017-02-05 12:01:18.315931+01 | 1486292478.31593 | pgbench_history  |        789184512
 2017-02-05 12:01:18.315931+01 | 1486292478.31593 | pgbench_branches |             8192

 2017-02-05 12:01:19.389474+01 | 1486292479.38947 | pgbench_accounts |       1386774528
 2017-02-05 12:01:19.389474+01 | 1486292479.38947 | pgbench_tellers  |            49152
 2017-02-05 12:01:19.389474+01 | 1486292479.38947 | pgbench_history  |        793403392
 2017-02-05 12:01:19.389474+01 | 1486292479.38947 | pgbench_branches |             8192

 2017-02-05 12:01:20.467391+01 | 1486292480.46739 | pgbench_accounts |       1386774528
 2017-02-05 12:01:20.467391+01 | 1486292480.46739 | pgbench_tellers  |            49152
 2017-02-05 12:01:20.467391+01 | 1486292480.46739 | pgbench_history  |        796565504
 2017-02-05 12:01:20.467391+01 | 1486292480.46739 | pgbench_branches |             8192

 2017-02-05 12:01:21.542537+01 | 1486292481.54254 | pgbench_accounts |       1386774528
 2017-02-05 12:01:21.542537+01 | 1486292481.54254 | pgbench_tellers  |            49152
 2017-02-05 12:01:21.542537+01 | 1486292481.54254 | pgbench_history  |        800710656
 2017-02-05 12:01:21.542537+01 | 1486292481.54254 | pgbench_branches |             8192

 2017-02-05 12:01:22.624414+01 | 1486292482.62441 | pgbench_accounts |       1386774528
 2017-02-05 12:01:22.624414+01 | 1486292482.62441 | pgbench_tellers  |            49152
 2017-02-05 12:01:22.624414+01 | 1486292482.62441 | pgbench_history  |        802914304
 2017-02-05 12:01:22.624414+01 | 1486292482.62441 | pgbench_branches |             8192

 2017-02-05 12:01:23.704949+01 | 1486292483.70495 | pgbench_accounts |       1386774528
 2017-02-05 12:01:23.704949+01 | 1486292483.70495 | pgbench_tellers  |            49152
 2017-02-05 12:01:23.704949+01 | 1486292483.70495 | pgbench_history  |        807133184
 2017-02-05 12:01:23.704949+01 | 1486292483.70495 | pgbench_branches |             8192

 2017-02-05 12:01:24.791949+01 | 1486292484.79195 | pgbench_accounts |       1386774528
 2017-02-05 12:01:24.791949+01 | 1486292484.79195 | pgbench_tellers  |            49152
 2017-02-05 12:01:24.791949+01 | 1486292484.79195 | pgbench_history  |        809287680
 2017-02-05 12:01:24.791949+01 | 1486292484.79195 | pgbench_branches |             8192

 2017-02-05 12:01:25.868988+01 | 1486292485.86899 | pgbench_accounts |       1386774528
 2017-02-05 12:01:25.868988+01 | 1486292485.86899 | pgbench_tellers  |            49152
 2017-02-05 12:01:25.868988+01 | 1486292485.86899 | pgbench_history  |        813129728
 2017-02-05 12:01:25.868988+01 | 1486292485.86899 | pgbench_branches |             8192

 2017-02-05 12:01:26.953467+01 | 1486292486.95347 | pgbench_accounts |       1386774528
 2017-02-05 12:01:26.953467+01 | 1486292486.95347 | pgbench_tellers  |            49152
 2017-02-05 12:01:26.953467+01 | 1486292486.95347 | pgbench_history  |        817463296
 2017-02-05 12:01:26.953467+01 | 1486292486.95347 | pgbench_branches |             8192

 2017-02-05 12:01:28.03499+01 | 1486292488.03499 | pgbench_accounts |       1386774528
 2017-02-05 12:01:28.03499+01 | 1486292488.03499 | pgbench_tellers  |            49152
 2017-02-05 12:01:28.03499+01 | 1486292488.03499 | pgbench_history  |        820436992
 2017-02-05 12:01:28.03499+01 | 1486292488.03499 | pgbench_branches |             8192

 2017-02-05 12:01:29.114924+01 | 1486292489.11492 | pgbench_accounts |       1386774528
 2017-02-05 12:01:29.114924+01 | 1486292489.11492 | pgbench_tellers  |            49152
 2017-02-05 12:01:29.114924+01 | 1486292489.11492 | pgbench_history  |        823271424
 2017-02-05 12:01:29.114924+01 | 1486292489.11492 | pgbench_branches |             8192

 2017-02-05 12:01:30.200109+01 | 1486292490.20011 | pgbench_accounts |       1386774528
 2017-02-05 12:01:30.200109+01 | 1486292490.20011 | pgbench_tellers  |            49152
 2017-02-05 12:01:30.200109+01 | 1486292490.20011 | pgbench_history  |        826949632
 2017-02-05 12:01:30.200109+01 | 1486292490.20011 | pgbench_branches |             8192

 2017-02-05 12:01:31.277157+01 | 1486292491.27716 | pgbench_accounts |       1386774528
 2017-02-05 12:01:31.277157+01 | 1486292491.27716 | pgbench_tellers  |            49152
 2017-02-05 12:01:31.277157+01 | 1486292491.27716 | pgbench_history  |        830816256
 2017-02-05 12:01:31.277157+01 | 1486292491.27716 | pgbench_branches |             8192

 2017-02-05 12:01:32.352955+01 | 1486292492.35296 | pgbench_accounts |       1386774528
 2017-02-05 12:01:32.352955+01 | 1486292492.35296 | pgbench_tellers  |            49152
 2017-02-05 12:01:32.352955+01 | 1486292492.35296 | pgbench_history  |        833323008
 2017-02-05 12:01:32.352955+01 | 1486292492.35296 | pgbench_branches |             8192

 2017-02-05 12:01:33.432785+01 | 1486292493.43279 | pgbench_accounts |       1386774528
 2017-02-05 12:01:33.432785+01 | 1486292493.43279 | pgbench_tellers  |            49152
 2017-02-05 12:01:33.432785+01 | 1486292493.43279 | pgbench_history  |        837517312
 2017-02-05 12:01:33.432785+01 | 1486292493.43279 | pgbench_branches |             8192

 2017-02-05 12:01:34.514355+01 | 1486292494.51435 | pgbench_accounts |       1386774528
 2017-02-05 12:01:34.514355+01 | 1486292494.51435 | pgbench_tellers  |            49152
 2017-02-05 12:01:34.514355+01 | 1486292494.51435 | pgbench_history  |        840351744
 2017-02-05 12:01:34.514355+01 | 1486292494.51435 | pgbench_branches |             8192

 2017-02-05 12:01:35.587272+01 | 1486292495.58727 | pgbench_accounts |       1386774528
 2017-02-05 12:01:35.587272+01 | 1486292495.58727 | pgbench_tellers  |            49152
 2017-02-05 12:01:35.587272+01 | 1486292495.58727 | pgbench_history  |        843325440
 2017-02-05 12:01:35.587272+01 | 1486292495.58727 | pgbench_branches |             8192

 2017-02-05 12:01:36.671228+01 | 1486292496.67123 | pgbench_accounts |       1386774528
 2017-02-05 12:01:36.671228+01 | 1486292496.67123 | pgbench_tellers  |            49152
 2017-02-05 12:01:36.671228+01 | 1486292496.67123 | pgbench_history  |        847167488
 2017-02-05 12:01:36.671228+01 | 1486292496.67123 | pgbench_branches |             8192

 2017-02-05 12:01:37.747076+01 | 1486292497.74708 | pgbench_accounts |       1386774528
 2017-02-05 12:01:37.747076+01 | 1486292497.74708 | pgbench_tellers  |            49152
 2017-02-05 12:01:37.747076+01 | 1486292497.74708 | pgbench_history  |        850354176
 2017-02-05 12:01:37.747076+01 | 1486292497.74708 | pgbench_branches |             8192

 2017-02-05 12:01:38.829516+01 | 1486292498.82952 | pgbench_accounts |       1386774528
 2017-02-05 12:01:38.829516+01 | 1486292498.82952 | pgbench_tellers  |            49152
 2017-02-05 12:01:38.829516+01 | 1486292498.82952 | pgbench_history  |        854171648
 2017-02-05 12:01:38.829516+01 | 1486292498.82952 | pgbench_branches |             8192

 2017-02-05 12:01:39.911277+01 | 1486292499.91128 | pgbench_accounts |       1386774528
 2017-02-05 12:01:39.911277+01 | 1486292499.91128 | pgbench_tellers  |            49152
 2017-02-05 12:01:39.911277+01 | 1486292499.91128 | pgbench_history  |        857358336
 2017-02-05 12:01:39.911277+01 | 1486292499.91128 | pgbench_branches |             8192

 2017-02-05 12:01:41.001115+01 | 1486292501.00112 | pgbench_accounts |       1386774528
 2017-02-05 12:01:41.001115+01 | 1486292501.00112 | pgbench_tellers  |            49152
 2017-02-05 12:01:41.001115+01 | 1486292501.00112 | pgbench_history  |        862183424
 2017-02-05 12:01:41.001115+01 | 1486292501.00112 | pgbench_branches |             8192

 2017-02-05 12:01:42.080693+01 | 1486292502.08069 | pgbench_accounts |       1386774528
 2017-02-05 12:01:42.080693+01 | 1486292502.08069 | pgbench_tellers  |            49152
 2017-02-05 12:01:42.080693+01 | 1486292502.08069 | pgbench_history  |        864854016
 2017-02-05 12:01:42.080693+01 | 1486292502.08069 | pgbench_branches |             8192

 2017-02-05 12:01:43.166796+01 | 1486292503.1668 | pgbench_accounts |       1386774528
 2017-02-05 12:01:43.166796+01 | 1486292503.1668 | pgbench_tellers  |            49152
 2017-02-05 12:01:43.166796+01 | 1486292503.1668 | pgbench_history  |        867033088
 2017-02-05 12:01:43.166796+01 | 1486292503.1668 | pgbench_branches |             8192

 2017-02-05 12:01:44.249246+01 | 1486292504.24925 | pgbench_accounts |       1386774528
 2017-02-05 12:01:44.249246+01 | 1486292504.24925 | pgbench_tellers  |            49152
 2017-02-05 12:01:44.249246+01 | 1486292504.24925 | pgbench_history  |        870711296
 2017-02-05 12:01:44.249246+01 | 1486292504.24925 | pgbench_branches |             8192

 2017-02-05 12:01:45.323584+01 | 1486292505.32358 | pgbench_accounts |       1386774528
 2017-02-05 12:01:45.323584+01 | 1486292505.32358 | pgbench_tellers  |            49152
 2017-02-05 12:01:45.323584+01 | 1486292505.32358 | pgbench_history  |        873381888
 2017-02-05 12:01:45.323584+01 | 1486292505.32358 | pgbench_branches |             8192

 2017-02-05 12:01:46.398099+01 | 1486292506.3981 | pgbench_accounts |       1386774528
 2017-02-05 12:01:46.398099+01 | 1486292506.3981 | pgbench_tellers  |            49152
 2017-02-05 12:01:46.398099+01 | 1486292506.3981 | pgbench_history  |        877527040
 2017-02-05 12:01:46.398099+01 | 1486292506.3981 | pgbench_branches |             8192

 2017-02-05 12:01:47.475465+01 | 1486292507.47547 | pgbench_accounts |       1386774528
 2017-02-05 12:01:47.475465+01 | 1486292507.47547 | pgbench_tellers  |            49152
 2017-02-05 12:01:47.475465+01 | 1486292507.47547 | pgbench_history  |        880386048
 2017-02-05 12:01:47.475465+01 | 1486292507.47547 | pgbench_branches |             8192

 2017-02-05 12:01:48.553489+01 | 1486292508.55349 | pgbench_accounts |       1386774528
 2017-02-05 12:01:48.553489+01 | 1486292508.55349 | pgbench_tellers  |            49152
 2017-02-05 12:01:48.553489+01 | 1486292508.55349 | pgbench_history  |        883408896
 2017-02-05 12:01:48.553489+01 | 1486292508.55349 | pgbench_branches |             8192

 2017-02-05 12:01:49.630611+01 | 1486292509.63061 | pgbench_accounts |       1386774528
 2017-02-05 12:01:49.630611+01 | 1486292509.63061 | pgbench_tellers  |            49152
 2017-02-05 12:01:49.630611+01 | 1486292509.63061 | pgbench_history  |        886431744
 2017-02-05 12:01:49.630611+01 | 1486292509.63061 | pgbench_branches |             8192

 2017-02-05 12:01:50.711655+01 | 1486292510.71165 | pgbench_accounts |       1386774528
 2017-02-05 12:01:50.711655+01 | 1486292510.71165 | pgbench_tellers  |            49152
 2017-02-05 12:01:50.711655+01 | 1486292510.71165 | pgbench_history  |        890224640
 2017-02-05 12:01:50.711655+01 | 1486292510.71165 | pgbench_branches |             8192

 2017-02-05 12:01:51.794922+01 | 1486292511.79492 | pgbench_accounts |       1386774528
 2017-02-05 12:01:51.794922+01 | 1486292511.79492 | pgbench_tellers  |            49152
 2017-02-05 12:01:51.794922+01 | 1486292511.79492 | pgbench_history  |        895401984
 2017-02-05 12:01:51.794922+01 | 1486292511.79492 | pgbench_branches |             8192

 2017-02-05 12:01:52.882869+01 | 1486292512.88287 | pgbench_accounts |       1386774528
 2017-02-05 12:01:52.882869+01 | 1486292512.88287 | pgbench_tellers  |            49152
 2017-02-05 12:01:52.882869+01 | 1486292512.88287 | pgbench_history  |        896081920
 2017-02-05 12:01:52.882869+01 | 1486292512.88287 | pgbench_branches |             8192

 2017-02-05 12:01:53.96624+01 | 1486292513.96624 | pgbench_accounts |       1386774528
 2017-02-05 12:01:53.96624+01 | 1486292513.96624 | pgbench_tellers  |            49152
 2017-02-05 12:01:53.96624+01 | 1486292513.96624 | pgbench_history  |        901726208
 2017-02-05 12:01:53.96624+01 | 1486292513.96624 | pgbench_branches |             8192

 2017-02-05 12:01:55.050839+01 | 1486292515.05084 | pgbench_accounts |       1386774528
 2017-02-05 12:01:55.050839+01 | 1486292515.05084 | pgbench_tellers  |            49152
 2017-02-05 12:01:55.050839+01 | 1486292515.05084 | pgbench_history  |        902733824
 2017-02-05 12:01:55.050839+01 | 1486292515.05084 | pgbench_branches |             8192

 2017-02-05 12:01:56.130873+01 | 1486292516.13087 | pgbench_accounts |       1386774528
 2017-02-05 12:01:56.130873+01 | 1486292516.13087 | pgbench_tellers  |            49152
 2017-02-05 12:01:56.130873+01 | 1486292516.13087 | pgbench_history  |        906084352
 2017-02-05 12:01:56.130873+01 | 1486292516.13087 | pgbench_branches |             8192

 2017-02-05 12:01:57.219564+01 | 1486292517.21956 | pgbench_accounts |       1386774528
 2017-02-05 12:01:57.219564+01 | 1486292517.21956 | pgbench_tellers  |            49152
 2017-02-05 12:01:57.219564+01 | 1486292517.21956 | pgbench_history  |        911777792
 2017-02-05 12:01:57.219564+01 | 1486292517.21956 | pgbench_branches |             8192

 2017-02-05 12:01:58.301641+01 | 1486292518.30164 | pgbench_accounts |       1386774528
 2017-02-05 12:01:58.301641+01 | 1486292518.30164 | pgbench_tellers  |            49152
 2017-02-05 12:01:58.301641+01 | 1486292518.30164 | pgbench_history  |        912785408
 2017-02-05 12:01:58.301641+01 | 1486292518.30164 | pgbench_branches |             8192

 2017-02-05 12:01:59.384091+01 | 1486292519.38409 | pgbench_accounts |       1386774528
 2017-02-05 12:01:59.384091+01 | 1486292519.38409 | pgbench_tellers  |            49152
 2017-02-05 12:01:59.384091+01 | 1486292519.38409 | pgbench_history  |        919461888
 2017-02-05 12:01:59.384091+01 | 1486292519.38409 | pgbench_branches |             8192

 2017-02-05 12:02:00.4596+01 | 1486292520.4596 | pgbench_accounts |       1386774528
 2017-02-05 12:02:00.4596+01 | 1486292520.4596 | pgbench_tellers  |            49152
 2017-02-05 12:02:00.4596+01 | 1486292520.4596 | pgbench_history  |        919461888
 2017-02-05 12:02:00.4596+01 | 1486292520.4596 | pgbench_branches |             8192

 2017-02-05 12:02:01.536107+01 | 1486292521.53611 | pgbench_accounts |       1386774528
 2017-02-05 12:02:01.536107+01 | 1486292521.53611 | pgbench_tellers  |            49152
 2017-02-05 12:02:01.536107+01 | 1486292521.53611 | pgbench_history  |        922484736
 2017-02-05 12:02:01.536107+01 | 1486292521.53611 | pgbench_branches |             8192

