 2017-02-04 04:10:46.246415+01 | 1486177846.24641 | pgbench_branches_pkey |            57344
 2017-02-04 04:10:46.246415+01 | 1486177846.24641 | pgbench_tellers_pkey  |           253952
 2017-02-04 04:10:46.246415+01 | 1486177846.24641 | pgbench_accounts_pkey |        224641024

 2017-02-04 04:10:47.329956+01 | 1486177847.32996 | pgbench_branches_pkey |            57344
 2017-02-04 04:10:47.329956+01 | 1486177847.32996 | pgbench_tellers_pkey  |           253952
 2017-02-04 04:10:47.329956+01 | 1486177847.32996 | pgbench_accounts_pkey |        224641024

 2017-02-04 04:10:48.414361+01 | 1486177848.41436 | pgbench_branches_pkey |            57344
 2017-02-04 04:10:48.414361+01 | 1486177848.41436 | pgbench_tellers_pkey  |           253952
 2017-02-04 04:10:48.414361+01 | 1486177848.41436 | pgbench_accounts_pkey |        224641024

 2017-02-04 04:10:49.498773+01 | 1486177849.49877 | pgbench_branches_pkey |            57344
 2017-02-04 04:10:49.498773+01 | 1486177849.49877 | pgbench_tellers_pkey  |           253952
 2017-02-04 04:10:49.498773+01 | 1486177849.49877 | pgbench_accounts_pkey |        224641024

 2017-02-04 04:10:50.576338+01 | 1486177850.57634 | pgbench_branches_pkey |            57344
 2017-02-04 04:10:50.576338+01 | 1486177850.57634 | pgbench_tellers_pkey  |           253952
 2017-02-04 04:10:50.576338+01 | 1486177850.57634 | pgbench_accounts_pkey |        224641024

 2017-02-04 04:10:51.659829+01 | 1486177851.65983 | pgbench_branches_pkey |            57344
 2017-02-04 04:10:51.659829+01 | 1486177851.65983 | pgbench_tellers_pkey  |           253952
 2017-02-04 04:10:51.659829+01 | 1486177851.65983 | pgbench_accounts_pkey |        224641024

 2017-02-04 04:10:52.745397+01 | 1486177852.7454 | pgbench_branches_pkey |            57344
 2017-02-04 04:10:52.745397+01 | 1486177852.7454 | pgbench_tellers_pkey  |           253952
 2017-02-04 04:10:52.745397+01 | 1486177852.7454 | pgbench_accounts_pkey |        224641024

 2017-02-04 04:10:53.82297+01 | 1486177853.82297 | pgbench_branches_pkey |            57344
 2017-02-04 04:10:53.82297+01 | 1486177853.82297 | pgbench_tellers_pkey  |           253952
 2017-02-04 04:10:53.82297+01 | 1486177853.82297 | pgbench_accounts_pkey |        224641024

 2017-02-04 04:10:54.902545+01 | 1486177854.90254 | pgbench_branches_pkey |            57344
 2017-02-04 04:10:54.902545+01 | 1486177854.90254 | pgbench_tellers_pkey  |           253952
 2017-02-04 04:10:54.902545+01 | 1486177854.90254 | pgbench_accounts_pkey |        224641024

 2017-02-04 04:10:55.980903+01 | 1486177855.9809 | pgbench_branches_pkey |            57344
 2017-02-04 04:10:55.980903+01 | 1486177855.9809 | pgbench_tellers_pkey  |           253952
 2017-02-04 04:10:55.980903+01 | 1486177855.9809 | pgbench_accounts_pkey |        224641024

 2017-02-04 04:10:57.061293+01 | 1486177857.06129 | pgbench_branches_pkey |            57344
 2017-02-04 04:10:57.061293+01 | 1486177857.06129 | pgbench_tellers_pkey  |           253952
 2017-02-04 04:10:57.061293+01 | 1486177857.06129 | pgbench_accounts_pkey |        224641024

 2017-02-04 04:10:58.134158+01 | 1486177858.13416 | pgbench_branches_pkey |            57344
 2017-02-04 04:10:58.134158+01 | 1486177858.13416 | pgbench_tellers_pkey  |           253952
 2017-02-04 04:10:58.134158+01 | 1486177858.13416 | pgbench_accounts_pkey |        224641024

 2017-02-04 04:10:59.20915+01 | 1486177859.20915 | pgbench_branches_pkey |            57344
 2017-02-04 04:10:59.20915+01 | 1486177859.20915 | pgbench_tellers_pkey  |           253952
 2017-02-04 04:10:59.20915+01 | 1486177859.20915 | pgbench_accounts_pkey |        224641024

 2017-02-04 04:11:00.287727+01 | 1486177860.28773 | pgbench_branches_pkey |            57344
 2017-02-04 04:11:00.287727+01 | 1486177860.28773 | pgbench_tellers_pkey  |           253952
 2017-02-04 04:11:00.287727+01 | 1486177860.28773 | pgbench_accounts_pkey |        224641024

 2017-02-04 04:11:01.360336+01 | 1486177861.36034 | pgbench_branches_pkey |            57344
 2017-02-04 04:11:01.360336+01 | 1486177861.36034 | pgbench_tellers_pkey  |           253952
 2017-02-04 04:11:01.360336+01 | 1486177861.36034 | pgbench_accounts_pkey |        224641024

 2017-02-04 04:11:02.439002+01 | 1486177862.439 | pgbench_branches_pkey |            57344
 2017-02-04 04:11:02.439002+01 | 1486177862.439 | pgbench_tellers_pkey  |           253952
 2017-02-04 04:11:02.439002+01 | 1486177862.439 | pgbench_accounts_pkey |        224641024

 2017-02-04 04:11:03.520216+01 | 1486177863.52022 | pgbench_branches_pkey |            57344
 2017-02-04 04:11:03.520216+01 | 1486177863.52022 | pgbench_tellers_pkey  |           253952
 2017-02-04 04:11:03.520216+01 | 1486177863.52022 | pgbench_accounts_pkey |        224641024

 2017-02-04 04:11:04.600014+01 | 1486177864.60001 | pgbench_branches_pkey |            57344
 2017-02-04 04:11:04.600014+01 | 1486177864.60001 | pgbench_tellers_pkey  |           253952
 2017-02-04 04:11:04.600014+01 | 1486177864.60001 | pgbench_accounts_pkey |        224641024

 2017-02-04 04:11:05.678791+01 | 1486177865.67879 | pgbench_branches_pkey |            57344
 2017-02-04 04:11:05.678791+01 | 1486177865.67879 | pgbench_tellers_pkey  |           253952
 2017-02-04 04:11:05.678791+01 | 1486177865.67879 | pgbench_accounts_pkey |        224641024

 2017-02-04 04:11:06.754618+01 | 1486177866.75462 | pgbench_branches_pkey |            57344
 2017-02-04 04:11:06.754618+01 | 1486177866.75462 | pgbench_tellers_pkey  |           253952
 2017-02-04 04:11:06.754618+01 | 1486177866.75462 | pgbench_accounts_pkey |        224641024

 2017-02-04 04:11:07.835907+01 | 1486177867.83591 | pgbench_branches_pkey |            57344
 2017-02-04 04:11:07.835907+01 | 1486177867.83591 | pgbench_tellers_pkey  |           253952
 2017-02-04 04:11:07.835907+01 | 1486177867.83591 | pgbench_accounts_pkey |        224641024

 2017-02-04 04:11:08.916474+01 | 1486177868.91647 | pgbench_branches_pkey |            57344
 2017-02-04 04:11:08.916474+01 | 1486177868.91647 | pgbench_tellers_pkey  |           253952
 2017-02-04 04:11:08.916474+01 | 1486177868.91647 | pgbench_accounts_pkey |        224641024

 2017-02-04 04:11:09.990795+01 | 1486177869.99079 | pgbench_branches_pkey |            57344
 2017-02-04 04:11:09.990795+01 | 1486177869.99079 | pgbench_tellers_pkey  |           253952
 2017-02-04 04:11:09.990795+01 | 1486177869.99079 | pgbench_accounts_pkey |        224641024

 2017-02-04 04:11:11.065367+01 | 1486177871.06537 | pgbench_branches_pkey |            57344
 2017-02-04 04:11:11.065367+01 | 1486177871.06537 | pgbench_tellers_pkey  |           253952
 2017-02-04 04:11:11.065367+01 | 1486177871.06537 | pgbench_accounts_pkey |        224641024

 2017-02-04 04:11:12.13797+01 | 1486177872.13797 | pgbench_branches_pkey |            57344
 2017-02-04 04:11:12.13797+01 | 1486177872.13797 | pgbench_tellers_pkey  |           253952
 2017-02-04 04:11:12.13797+01 | 1486177872.13797 | pgbench_accounts_pkey |        224641024

 2017-02-04 04:11:13.214211+01 | 1486177873.21421 | pgbench_branches_pkey |            57344
 2017-02-04 04:11:13.214211+01 | 1486177873.21421 | pgbench_tellers_pkey  |           253952
 2017-02-04 04:11:13.214211+01 | 1486177873.21421 | pgbench_accounts_pkey |        224641024

 2017-02-04 04:11:14.285029+01 | 1486177874.28503 | pgbench_branches_pkey |            57344
 2017-02-04 04:11:14.285029+01 | 1486177874.28503 | pgbench_tellers_pkey  |           253952
 2017-02-04 04:11:14.285029+01 | 1486177874.28503 | pgbench_accounts_pkey |        224641024

 2017-02-04 04:11:15.366098+01 | 1486177875.3661 | pgbench_branches_pkey |            57344
 2017-02-04 04:11:15.366098+01 | 1486177875.3661 | pgbench_tellers_pkey  |           253952
 2017-02-04 04:11:15.366098+01 | 1486177875.3661 | pgbench_accounts_pkey |        224641024

 2017-02-04 04:11:16.446361+01 | 1486177876.44636 | pgbench_branches_pkey |            57344
 2017-02-04 04:11:16.446361+01 | 1486177876.44636 | pgbench_tellers_pkey  |           253952
 2017-02-04 04:11:16.446361+01 | 1486177876.44636 | pgbench_accounts_pkey |        224641024

 2017-02-04 04:11:17.53894+01 | 1486177877.53894 | pgbench_branches_pkey |            57344
 2017-02-04 04:11:17.53894+01 | 1486177877.53894 | pgbench_tellers_pkey  |           253952
 2017-02-04 04:11:17.53894+01 | 1486177877.53894 | pgbench_accounts_pkey |        224641024

 2017-02-04 04:11:18.617512+01 | 1486177878.61751 | pgbench_branches_pkey |            57344
 2017-02-04 04:11:18.617512+01 | 1486177878.61751 | pgbench_tellers_pkey  |           253952
 2017-02-04 04:11:18.617512+01 | 1486177878.61751 | pgbench_accounts_pkey |        224641024

 2017-02-04 04:11:19.693492+01 | 1486177879.69349 | pgbench_branches_pkey |            57344
 2017-02-04 04:11:19.693492+01 | 1486177879.69349 | pgbench_tellers_pkey  |           253952
 2017-02-04 04:11:19.693492+01 | 1486177879.69349 | pgbench_accounts_pkey |        224641024

 2017-02-04 04:11:20.770624+01 | 1486177880.77062 | pgbench_branches_pkey |            57344
 2017-02-04 04:11:20.770624+01 | 1486177880.77062 | pgbench_tellers_pkey  |           253952
 2017-02-04 04:11:20.770624+01 | 1486177880.77062 | pgbench_accounts_pkey |        224641024

 2017-02-04 04:11:21.84569+01 | 1486177881.84569 | pgbench_branches_pkey |            57344
 2017-02-04 04:11:21.84569+01 | 1486177881.84569 | pgbench_tellers_pkey  |           253952
 2017-02-04 04:11:21.84569+01 | 1486177881.84569 | pgbench_accounts_pkey |        224641024

 2017-02-04 04:11:22.927723+01 | 1486177882.92772 | pgbench_branches_pkey |            57344
 2017-02-04 04:11:22.927723+01 | 1486177882.92772 | pgbench_tellers_pkey  |           253952
 2017-02-04 04:11:22.927723+01 | 1486177882.92772 | pgbench_accounts_pkey |        224641024

 2017-02-04 04:11:24.00526+01 | 1486177884.00526 | pgbench_branches_pkey |            57344
 2017-02-04 04:11:24.00526+01 | 1486177884.00526 | pgbench_tellers_pkey  |           253952
 2017-02-04 04:11:24.00526+01 | 1486177884.00526 | pgbench_accounts_pkey |        224641024

 2017-02-04 04:11:25.081225+01 | 1486177885.08122 | pgbench_branches_pkey |            57344
 2017-02-04 04:11:25.081225+01 | 1486177885.08122 | pgbench_tellers_pkey  |           253952
 2017-02-04 04:11:25.081225+01 | 1486177885.08122 | pgbench_accounts_pkey |        224641024

 2017-02-04 04:11:26.159663+01 | 1486177886.15966 | pgbench_branches_pkey |            57344
 2017-02-04 04:11:26.159663+01 | 1486177886.15966 | pgbench_tellers_pkey  |           253952
 2017-02-04 04:11:26.159663+01 | 1486177886.15966 | pgbench_accounts_pkey |        224641024

 2017-02-04 04:11:27.240349+01 | 1486177887.24035 | pgbench_branches_pkey |            57344
 2017-02-04 04:11:27.240349+01 | 1486177887.24035 | pgbench_tellers_pkey  |           253952
 2017-02-04 04:11:27.240349+01 | 1486177887.24035 | pgbench_accounts_pkey |        224641024

 2017-02-04 04:11:28.314214+01 | 1486177888.31421 | pgbench_branches_pkey |            57344
 2017-02-04 04:11:28.314214+01 | 1486177888.31421 | pgbench_tellers_pkey  |           253952
 2017-02-04 04:11:28.314214+01 | 1486177888.31421 | pgbench_accounts_pkey |        224641024

 2017-02-04 04:11:29.387747+01 | 1486177889.38775 | pgbench_branches_pkey |            57344
 2017-02-04 04:11:29.387747+01 | 1486177889.38775 | pgbench_tellers_pkey  |           253952
 2017-02-04 04:11:29.387747+01 | 1486177889.38775 | pgbench_accounts_pkey |        224641024

 2017-02-04 04:11:30.470989+01 | 1486177890.47099 | pgbench_branches_pkey |            57344
 2017-02-04 04:11:30.470989+01 | 1486177890.47099 | pgbench_tellers_pkey  |           253952
 2017-02-04 04:11:30.470989+01 | 1486177890.47099 | pgbench_accounts_pkey |        224641024

 2017-02-04 04:11:31.54939+01 | 1486177891.54939 | pgbench_branches_pkey |            57344
 2017-02-04 04:11:31.54939+01 | 1486177891.54939 | pgbench_tellers_pkey  |           253952
 2017-02-04 04:11:31.54939+01 | 1486177891.54939 | pgbench_accounts_pkey |        224641024

 2017-02-04 04:11:32.628584+01 | 1486177892.62858 | pgbench_branches_pkey |            57344
 2017-02-04 04:11:32.628584+01 | 1486177892.62858 | pgbench_tellers_pkey  |           253952
 2017-02-04 04:11:32.628584+01 | 1486177892.62858 | pgbench_accounts_pkey |        224641024

 2017-02-04 04:11:33.709601+01 | 1486177893.7096 | pgbench_branches_pkey |            57344
 2017-02-04 04:11:33.709601+01 | 1486177893.7096 | pgbench_tellers_pkey  |           253952
 2017-02-04 04:11:33.709601+01 | 1486177893.7096 | pgbench_accounts_pkey |        224641024

 2017-02-04 04:11:34.793379+01 | 1486177894.79338 | pgbench_branches_pkey |            57344
 2017-02-04 04:11:34.793379+01 | 1486177894.79338 | pgbench_tellers_pkey  |           253952
 2017-02-04 04:11:34.793379+01 | 1486177894.79338 | pgbench_accounts_pkey |        224641024

 2017-02-04 04:11:35.873154+01 | 1486177895.87315 | pgbench_branches_pkey |            57344
 2017-02-04 04:11:35.873154+01 | 1486177895.87315 | pgbench_tellers_pkey  |           253952
 2017-02-04 04:11:35.873154+01 | 1486177895.87315 | pgbench_accounts_pkey |        224641024

 2017-02-04 04:11:36.959185+01 | 1486177896.95918 | pgbench_branches_pkey |            57344
 2017-02-04 04:11:36.959185+01 | 1486177896.95918 | pgbench_tellers_pkey  |           253952
 2017-02-04 04:11:36.959185+01 | 1486177896.95918 | pgbench_accounts_pkey |        224641024

 2017-02-04 04:11:38.0426+01 | 1486177898.0426 | pgbench_branches_pkey |            57344
 2017-02-04 04:11:38.0426+01 | 1486177898.0426 | pgbench_tellers_pkey  |           253952
 2017-02-04 04:11:38.0426+01 | 1486177898.0426 | pgbench_accounts_pkey |        224641024

 2017-02-04 04:11:39.118722+01 | 1486177899.11872 | pgbench_branches_pkey |            57344
 2017-02-04 04:11:39.118722+01 | 1486177899.11872 | pgbench_tellers_pkey  |           253952
 2017-02-04 04:11:39.118722+01 | 1486177899.11872 | pgbench_accounts_pkey |        224641024

 2017-02-04 04:11:40.198525+01 | 1486177900.19852 | pgbench_branches_pkey |            57344
 2017-02-04 04:11:40.198525+01 | 1486177900.19852 | pgbench_tellers_pkey  |           253952
 2017-02-04 04:11:40.198525+01 | 1486177900.19852 | pgbench_accounts_pkey |        224641024

 2017-02-04 04:11:41.284129+01 | 1486177901.28413 | pgbench_branches_pkey |            57344
 2017-02-04 04:11:41.284129+01 | 1486177901.28413 | pgbench_tellers_pkey  |           253952
 2017-02-04 04:11:41.284129+01 | 1486177901.28413 | pgbench_accounts_pkey |        224641024

 2017-02-04 04:11:42.361481+01 | 1486177902.36148 | pgbench_branches_pkey |            57344
 2017-02-04 04:11:42.361481+01 | 1486177902.36148 | pgbench_tellers_pkey  |           253952
 2017-02-04 04:11:42.361481+01 | 1486177902.36148 | pgbench_accounts_pkey |        224641024

 2017-02-04 04:11:43.442418+01 | 1486177903.44242 | pgbench_branches_pkey |            57344
 2017-02-04 04:11:43.442418+01 | 1486177903.44242 | pgbench_tellers_pkey  |           253952
 2017-02-04 04:11:43.442418+01 | 1486177903.44242 | pgbench_accounts_pkey |        224641024

 2017-02-04 04:11:44.529413+01 | 1486177904.52941 | pgbench_branches_pkey |            57344
 2017-02-04 04:11:44.529413+01 | 1486177904.52941 | pgbench_tellers_pkey  |           253952
 2017-02-04 04:11:44.529413+01 | 1486177904.52941 | pgbench_accounts_pkey |        224641024

 2017-02-04 04:11:45.60748+01 | 1486177905.60748 | pgbench_branches_pkey |            57344
 2017-02-04 04:11:45.60748+01 | 1486177905.60748 | pgbench_tellers_pkey  |           253952
 2017-02-04 04:11:45.60748+01 | 1486177905.60748 | pgbench_accounts_pkey |        224641024

 2017-02-04 04:11:46.6881+01 | 1486177906.6881 | pgbench_branches_pkey |            57344
 2017-02-04 04:11:46.6881+01 | 1486177906.6881 | pgbench_tellers_pkey  |           253952
 2017-02-04 04:11:46.6881+01 | 1486177906.6881 | pgbench_accounts_pkey |        224641024

 2017-02-04 04:11:47.77674+01 | 1486177907.77674 | pgbench_branches_pkey |            57344
 2017-02-04 04:11:47.77674+01 | 1486177907.77674 | pgbench_tellers_pkey  |           253952
 2017-02-04 04:11:47.77674+01 | 1486177907.77674 | pgbench_accounts_pkey |        224641024

 2017-02-04 04:11:48.850218+01 | 1486177908.85022 | pgbench_branches_pkey |            57344
 2017-02-04 04:11:48.850218+01 | 1486177908.85022 | pgbench_tellers_pkey  |           253952
 2017-02-04 04:11:48.850218+01 | 1486177908.85022 | pgbench_accounts_pkey |        224641024

 2017-02-04 04:11:49.929818+01 | 1486177909.92982 | pgbench_branches_pkey |            57344
 2017-02-04 04:11:49.929818+01 | 1486177909.92982 | pgbench_tellers_pkey  |           253952
 2017-02-04 04:11:49.929818+01 | 1486177909.92982 | pgbench_accounts_pkey |        224641024

 2017-02-04 04:11:51.004414+01 | 1486177911.00441 | pgbench_branches_pkey |            57344
 2017-02-04 04:11:51.004414+01 | 1486177911.00441 | pgbench_tellers_pkey  |           253952
 2017-02-04 04:11:51.004414+01 | 1486177911.00441 | pgbench_accounts_pkey |        224641024

 2017-02-04 04:11:52.08473+01 | 1486177912.08473 | pgbench_branches_pkey |            57344
 2017-02-04 04:11:52.08473+01 | 1486177912.08473 | pgbench_tellers_pkey  |           253952
 2017-02-04 04:11:52.08473+01 | 1486177912.08473 | pgbench_accounts_pkey |        224641024

 2017-02-04 04:11:53.177497+01 | 1486177913.1775 | pgbench_branches_pkey |            57344
 2017-02-04 04:11:53.177497+01 | 1486177913.1775 | pgbench_tellers_pkey  |           253952
 2017-02-04 04:11:53.177497+01 | 1486177913.1775 | pgbench_accounts_pkey |        224641024

 2017-02-04 04:11:54.252655+01 | 1486177914.25266 | pgbench_branches_pkey |            57344
 2017-02-04 04:11:54.252655+01 | 1486177914.25266 | pgbench_tellers_pkey  |           253952
 2017-02-04 04:11:54.252655+01 | 1486177914.25266 | pgbench_accounts_pkey |        224641024

 2017-02-04 04:11:55.327114+01 | 1486177915.32711 | pgbench_branches_pkey |            57344
 2017-02-04 04:11:55.327114+01 | 1486177915.32711 | pgbench_tellers_pkey  |           253952
 2017-02-04 04:11:55.327114+01 | 1486177915.32711 | pgbench_accounts_pkey |        224641024

 2017-02-04 04:11:56.405901+01 | 1486177916.4059 | pgbench_branches_pkey |            57344
 2017-02-04 04:11:56.405901+01 | 1486177916.4059 | pgbench_tellers_pkey  |           253952
 2017-02-04 04:11:56.405901+01 | 1486177916.4059 | pgbench_accounts_pkey |        224641024

 2017-02-04 04:11:57.483991+01 | 1486177917.48399 | pgbench_branches_pkey |            57344
 2017-02-04 04:11:57.483991+01 | 1486177917.48399 | pgbench_tellers_pkey  |           253952
 2017-02-04 04:11:57.483991+01 | 1486177917.48399 | pgbench_accounts_pkey |        224641024

 2017-02-04 04:11:58.564172+01 | 1486177918.56417 | pgbench_branches_pkey |            57344
 2017-02-04 04:11:58.564172+01 | 1486177918.56417 | pgbench_tellers_pkey  |           253952
 2017-02-04 04:11:58.564172+01 | 1486177918.56417 | pgbench_accounts_pkey |        224641024

 2017-02-04 04:11:59.652398+01 | 1486177919.6524 | pgbench_branches_pkey |            57344
 2017-02-04 04:11:59.652398+01 | 1486177919.6524 | pgbench_tellers_pkey  |           253952
 2017-02-04 04:11:59.652398+01 | 1486177919.6524 | pgbench_accounts_pkey |        224641024

 2017-02-04 04:12:00.729706+01 | 1486177920.72971 | pgbench_branches_pkey |            57344
 2017-02-04 04:12:00.729706+01 | 1486177920.72971 | pgbench_tellers_pkey  |           253952
 2017-02-04 04:12:00.729706+01 | 1486177920.72971 | pgbench_accounts_pkey |        224641024

 2017-02-04 04:12:01.806428+01 | 1486177921.80643 | pgbench_branches_pkey |            57344
 2017-02-04 04:12:01.806428+01 | 1486177921.80643 | pgbench_tellers_pkey  |           253952
 2017-02-04 04:12:01.806428+01 | 1486177921.80643 | pgbench_accounts_pkey |        224641024

 2017-02-04 04:12:02.878512+01 | 1486177922.87851 | pgbench_branches_pkey |            57344
 2017-02-04 04:12:02.878512+01 | 1486177922.87851 | pgbench_tellers_pkey  |           253952
 2017-02-04 04:12:02.878512+01 | 1486177922.87851 | pgbench_accounts_pkey |        224641024

 2017-02-04 04:12:03.95985+01 | 1486177923.95985 | pgbench_branches_pkey |            57344
 2017-02-04 04:12:03.95985+01 | 1486177923.95985 | pgbench_tellers_pkey  |           253952
 2017-02-04 04:12:03.95985+01 | 1486177923.95985 | pgbench_accounts_pkey |        224641024

 2017-02-04 04:12:05.03716+01 | 1486177925.03716 | pgbench_branches_pkey |            57344
 2017-02-04 04:12:05.03716+01 | 1486177925.03716 | pgbench_tellers_pkey  |           253952
 2017-02-04 04:12:05.03716+01 | 1486177925.03716 | pgbench_accounts_pkey |        224641024

 2017-02-04 04:12:06.114366+01 | 1486177926.11437 | pgbench_branches_pkey |            57344
 2017-02-04 04:12:06.114366+01 | 1486177926.11437 | pgbench_tellers_pkey  |           253952
 2017-02-04 04:12:06.114366+01 | 1486177926.11437 | pgbench_accounts_pkey |        224641024

 2017-02-04 04:12:07.196663+01 | 1486177927.19666 | pgbench_branches_pkey |            57344
 2017-02-04 04:12:07.196663+01 | 1486177927.19666 | pgbench_tellers_pkey  |           253952
 2017-02-04 04:12:07.196663+01 | 1486177927.19666 | pgbench_accounts_pkey |        224641024

 2017-02-04 04:12:08.273516+01 | 1486177928.27352 | pgbench_branches_pkey |            57344
 2017-02-04 04:12:08.273516+01 | 1486177928.27352 | pgbench_tellers_pkey  |           253952
 2017-02-04 04:12:08.273516+01 | 1486177928.27352 | pgbench_accounts_pkey |        224641024

 2017-02-04 04:12:09.351736+01 | 1486177929.35174 | pgbench_branches_pkey |            57344
 2017-02-04 04:12:09.351736+01 | 1486177929.35174 | pgbench_tellers_pkey  |           253952
 2017-02-04 04:12:09.351736+01 | 1486177929.35174 | pgbench_accounts_pkey |        224641024

 2017-02-04 04:12:10.430209+01 | 1486177930.43021 | pgbench_branches_pkey |            57344
 2017-02-04 04:12:10.430209+01 | 1486177930.43021 | pgbench_tellers_pkey  |           253952
 2017-02-04 04:12:10.430209+01 | 1486177930.43021 | pgbench_accounts_pkey |        224641024

 2017-02-04 04:12:11.504191+01 | 1486177931.50419 | pgbench_branches_pkey |            57344
 2017-02-04 04:12:11.504191+01 | 1486177931.50419 | pgbench_tellers_pkey  |           253952
 2017-02-04 04:12:11.504191+01 | 1486177931.50419 | pgbench_accounts_pkey |        224641024

 2017-02-04 04:12:12.580673+01 | 1486177932.58067 | pgbench_branches_pkey |            57344
 2017-02-04 04:12:12.580673+01 | 1486177932.58067 | pgbench_tellers_pkey  |           253952
 2017-02-04 04:12:12.580673+01 | 1486177932.58067 | pgbench_accounts_pkey |        224641024

 2017-02-04 04:12:13.660207+01 | 1486177933.66021 | pgbench_branches_pkey |            57344
 2017-02-04 04:12:13.660207+01 | 1486177933.66021 | pgbench_tellers_pkey  |           253952
 2017-02-04 04:12:13.660207+01 | 1486177933.66021 | pgbench_accounts_pkey |        224641024

 2017-02-04 04:12:14.73897+01 | 1486177934.73897 | pgbench_branches_pkey |            57344
 2017-02-04 04:12:14.73897+01 | 1486177934.73897 | pgbench_tellers_pkey  |           253952
 2017-02-04 04:12:14.73897+01 | 1486177934.73897 | pgbench_accounts_pkey |        224641024

 2017-02-04 04:12:15.826503+01 | 1486177935.8265 | pgbench_branches_pkey |            57344
 2017-02-04 04:12:15.826503+01 | 1486177935.8265 | pgbench_tellers_pkey  |           253952
 2017-02-04 04:12:15.826503+01 | 1486177935.8265 | pgbench_accounts_pkey |        224641024

 2017-02-04 04:12:16.902804+01 | 1486177936.9028 | pgbench_branches_pkey |            57344
 2017-02-04 04:12:16.902804+01 | 1486177936.9028 | pgbench_tellers_pkey  |           253952
 2017-02-04 04:12:16.902804+01 | 1486177936.9028 | pgbench_accounts_pkey |        224641024

 2017-02-04 04:12:17.986873+01 | 1486177937.98687 | pgbench_branches_pkey |            57344
 2017-02-04 04:12:17.986873+01 | 1486177937.98687 | pgbench_tellers_pkey  |           253952
 2017-02-04 04:12:17.986873+01 | 1486177937.98687 | pgbench_accounts_pkey |        224641024

 2017-02-04 04:12:19.057347+01 | 1486177939.05735 | pgbench_branches_pkey |            57344
 2017-02-04 04:12:19.057347+01 | 1486177939.05735 | pgbench_tellers_pkey  |           253952
 2017-02-04 04:12:19.057347+01 | 1486177939.05735 | pgbench_accounts_pkey |        224641024

 2017-02-04 04:12:20.130904+01 | 1486177940.1309 | pgbench_branches_pkey |            57344
 2017-02-04 04:12:20.130904+01 | 1486177940.1309 | pgbench_tellers_pkey  |           253952
 2017-02-04 04:12:20.130904+01 | 1486177940.1309 | pgbench_accounts_pkey |        224641024

 2017-02-04 04:12:21.212644+01 | 1486177941.21264 | pgbench_branches_pkey |            57344
 2017-02-04 04:12:21.212644+01 | 1486177941.21264 | pgbench_tellers_pkey  |           253952
 2017-02-04 04:12:21.212644+01 | 1486177941.21264 | pgbench_accounts_pkey |        224641024

 2017-02-04 04:12:22.286452+01 | 1486177942.28645 | pgbench_branches_pkey |            57344
 2017-02-04 04:12:22.286452+01 | 1486177942.28645 | pgbench_tellers_pkey  |           253952
 2017-02-04 04:12:22.286452+01 | 1486177942.28645 | pgbench_accounts_pkey |        224641024

 2017-02-04 04:12:23.351132+01 | 1486177943.35113 | pgbench_branches_pkey |            57344
 2017-02-04 04:12:23.351132+01 | 1486177943.35113 | pgbench_tellers_pkey  |           253952
 2017-02-04 04:12:23.351132+01 | 1486177943.35113 | pgbench_accounts_pkey |        224641024

 2017-02-04 04:12:24.425255+01 | 1486177944.42526 | pgbench_branches_pkey |            57344
 2017-02-04 04:12:24.425255+01 | 1486177944.42526 | pgbench_tellers_pkey  |           253952
 2017-02-04 04:12:24.425255+01 | 1486177944.42526 | pgbench_accounts_pkey |        224641024

 2017-02-04 04:12:25.500718+01 | 1486177945.50072 | pgbench_branches_pkey |            57344
 2017-02-04 04:12:25.500718+01 | 1486177945.50072 | pgbench_tellers_pkey  |           253952
 2017-02-04 04:12:25.500718+01 | 1486177945.50072 | pgbench_accounts_pkey |        224641024

 2017-02-04 04:12:26.579467+01 | 1486177946.57947 | pgbench_branches_pkey |            57344
 2017-02-04 04:12:26.579467+01 | 1486177946.57947 | pgbench_tellers_pkey  |           253952
 2017-02-04 04:12:26.579467+01 | 1486177946.57947 | pgbench_accounts_pkey |        224641024

 2017-02-04 04:12:27.654873+01 | 1486177947.65487 | pgbench_branches_pkey |            57344
 2017-02-04 04:12:27.654873+01 | 1486177947.65487 | pgbench_tellers_pkey  |           253952
 2017-02-04 04:12:27.654873+01 | 1486177947.65487 | pgbench_accounts_pkey |        224641024

 2017-02-04 04:12:28.723594+01 | 1486177948.72359 | pgbench_branches_pkey |            57344
 2017-02-04 04:12:28.723594+01 | 1486177948.72359 | pgbench_tellers_pkey  |           253952
 2017-02-04 04:12:28.723594+01 | 1486177948.72359 | pgbench_accounts_pkey |        224641024

 2017-02-04 04:12:29.804173+01 | 1486177949.80417 | pgbench_branches_pkey |            57344
 2017-02-04 04:12:29.804173+01 | 1486177949.80417 | pgbench_tellers_pkey  |           253952
 2017-02-04 04:12:29.804173+01 | 1486177949.80417 | pgbench_accounts_pkey |        224641024

 2017-02-04 04:12:30.877869+01 | 1486177950.87787 | pgbench_branches_pkey |            57344
 2017-02-04 04:12:30.877869+01 | 1486177950.87787 | pgbench_tellers_pkey  |           253952
 2017-02-04 04:12:30.877869+01 | 1486177950.87787 | pgbench_accounts_pkey |        224641024

 2017-02-04 04:12:31.957153+01 | 1486177951.95715 | pgbench_branches_pkey |            57344
 2017-02-04 04:12:31.957153+01 | 1486177951.95715 | pgbench_tellers_pkey  |           253952
 2017-02-04 04:12:31.957153+01 | 1486177951.95715 | pgbench_accounts_pkey |        224641024

 2017-02-04 04:12:33.034105+01 | 1486177953.03411 | pgbench_branches_pkey |            57344
 2017-02-04 04:12:33.034105+01 | 1486177953.03411 | pgbench_tellers_pkey  |           253952
 2017-02-04 04:12:33.034105+01 | 1486177953.03411 | pgbench_accounts_pkey |        224641024

 2017-02-04 04:12:34.11385+01 | 1486177954.11385 | pgbench_branches_pkey |            57344
 2017-02-04 04:12:34.11385+01 | 1486177954.11385 | pgbench_tellers_pkey  |           253952
 2017-02-04 04:12:34.11385+01 | 1486177954.11385 | pgbench_accounts_pkey |        224641024

 2017-02-04 04:12:35.192094+01 | 1486177955.19209 | pgbench_branches_pkey |            57344
 2017-02-04 04:12:35.192094+01 | 1486177955.19209 | pgbench_tellers_pkey  |           253952
 2017-02-04 04:12:35.192094+01 | 1486177955.19209 | pgbench_accounts_pkey |        224641024

 2017-02-04 04:12:36.271099+01 | 1486177956.2711 | pgbench_branches_pkey |            57344
 2017-02-04 04:12:36.271099+01 | 1486177956.2711 | pgbench_tellers_pkey  |           253952
 2017-02-04 04:12:36.271099+01 | 1486177956.2711 | pgbench_accounts_pkey |        224641024

 2017-02-04 04:12:37.345831+01 | 1486177957.34583 | pgbench_branches_pkey |            57344
 2017-02-04 04:12:37.345831+01 | 1486177957.34583 | pgbench_tellers_pkey  |           253952
 2017-02-04 04:12:37.345831+01 | 1486177957.34583 | pgbench_accounts_pkey |        224641024

 2017-02-04 04:12:38.437514+01 | 1486177958.43751 | pgbench_branches_pkey |            57344
 2017-02-04 04:12:38.437514+01 | 1486177958.43751 | pgbench_tellers_pkey  |           253952
 2017-02-04 04:12:38.437514+01 | 1486177958.43751 | pgbench_accounts_pkey |        224641024

 2017-02-04 04:12:39.513931+01 | 1486177959.51393 | pgbench_branches_pkey |            57344
 2017-02-04 04:12:39.513931+01 | 1486177959.51393 | pgbench_tellers_pkey  |           253952
 2017-02-04 04:12:39.513931+01 | 1486177959.51393 | pgbench_accounts_pkey |        224641024

 2017-02-04 04:12:40.587962+01 | 1486177960.58796 | pgbench_branches_pkey |            57344
 2017-02-04 04:12:40.587962+01 | 1486177960.58796 | pgbench_tellers_pkey  |           253952
 2017-02-04 04:12:40.587962+01 | 1486177960.58796 | pgbench_accounts_pkey |        224641024

 2017-02-04 04:12:41.653043+01 | 1486177961.65304 | pgbench_branches_pkey |            57344
 2017-02-04 04:12:41.653043+01 | 1486177961.65304 | pgbench_tellers_pkey  |           253952
 2017-02-04 04:12:41.653043+01 | 1486177961.65304 | pgbench_accounts_pkey |        224641024

 2017-02-04 04:12:42.735967+01 | 1486177962.73597 | pgbench_branches_pkey |            57344
 2017-02-04 04:12:42.735967+01 | 1486177962.73597 | pgbench_tellers_pkey  |           253952
 2017-02-04 04:12:42.735967+01 | 1486177962.73597 | pgbench_accounts_pkey |        224641024

 2017-02-04 04:12:43.812561+01 | 1486177963.81256 | pgbench_branches_pkey |            57344
 2017-02-04 04:12:43.812561+01 | 1486177963.81256 | pgbench_tellers_pkey  |           253952
 2017-02-04 04:12:43.812561+01 | 1486177963.81256 | pgbench_accounts_pkey |        224641024

 2017-02-04 04:12:44.896608+01 | 1486177964.89661 | pgbench_branches_pkey |            57344
 2017-02-04 04:12:44.896608+01 | 1486177964.89661 | pgbench_tellers_pkey  |           253952
 2017-02-04 04:12:44.896608+01 | 1486177964.89661 | pgbench_accounts_pkey |        224641024

 2017-02-04 04:12:45.973358+01 | 1486177965.97336 | pgbench_branches_pkey |            57344
 2017-02-04 04:12:45.973358+01 | 1486177965.97336 | pgbench_tellers_pkey  |           253952
 2017-02-04 04:12:45.973358+01 | 1486177965.97336 | pgbench_accounts_pkey |        224641024

 2017-02-04 04:12:47.050153+01 | 1486177967.05015 | pgbench_branches_pkey |            57344
 2017-02-04 04:12:47.050153+01 | 1486177967.05015 | pgbench_tellers_pkey  |           253952
 2017-02-04 04:12:47.050153+01 | 1486177967.05015 | pgbench_accounts_pkey |        224641024

 2017-02-04 04:12:48.131962+01 | 1486177968.13196 | pgbench_branches_pkey |            57344
 2017-02-04 04:12:48.131962+01 | 1486177968.13196 | pgbench_tellers_pkey  |           253952
 2017-02-04 04:12:48.131962+01 | 1486177968.13196 | pgbench_accounts_pkey |        224641024

 2017-02-04 04:12:49.213487+01 | 1486177969.21349 | pgbench_branches_pkey |            57344
 2017-02-04 04:12:49.213487+01 | 1486177969.21349 | pgbench_tellers_pkey  |           253952
 2017-02-04 04:12:49.213487+01 | 1486177969.21349 | pgbench_accounts_pkey |        224641024

 2017-02-04 04:12:50.293239+01 | 1486177970.29324 | pgbench_branches_pkey |            57344
 2017-02-04 04:12:50.293239+01 | 1486177970.29324 | pgbench_tellers_pkey  |           253952
 2017-02-04 04:12:50.293239+01 | 1486177970.29324 | pgbench_accounts_pkey |        224641024

 2017-02-04 04:12:51.369555+01 | 1486177971.36955 | pgbench_branches_pkey |            57344
 2017-02-04 04:12:51.369555+01 | 1486177971.36955 | pgbench_tellers_pkey  |           253952
 2017-02-04 04:12:51.369555+01 | 1486177971.36955 | pgbench_accounts_pkey |        224641024

 2017-02-04 04:12:52.444521+01 | 1486177972.44452 | pgbench_branches_pkey |            57344
 2017-02-04 04:12:52.444521+01 | 1486177972.44452 | pgbench_tellers_pkey  |           253952
 2017-02-04 04:12:52.444521+01 | 1486177972.44452 | pgbench_accounts_pkey |        224641024

 2017-02-04 04:12:53.518215+01 | 1486177973.51821 | pgbench_branches_pkey |            57344
 2017-02-04 04:12:53.518215+01 | 1486177973.51821 | pgbench_tellers_pkey  |           253952
 2017-02-04 04:12:53.518215+01 | 1486177973.51821 | pgbench_accounts_pkey |        224641024

 2017-02-04 04:12:54.601+01 | 1486177974.601 | pgbench_branches_pkey |            57344
 2017-02-04 04:12:54.601+01 | 1486177974.601 | pgbench_tellers_pkey  |           253952
 2017-02-04 04:12:54.601+01 | 1486177974.601 | pgbench_accounts_pkey |        224641024

 2017-02-04 04:12:55.678528+01 | 1486177975.67853 | pgbench_branches_pkey |            57344
 2017-02-04 04:12:55.678528+01 | 1486177975.67853 | pgbench_tellers_pkey  |           253952
 2017-02-04 04:12:55.678528+01 | 1486177975.67853 | pgbench_accounts_pkey |        224641024

 2017-02-04 04:12:56.756477+01 | 1486177976.75648 | pgbench_branches_pkey |            57344
 2017-02-04 04:12:56.756477+01 | 1486177976.75648 | pgbench_tellers_pkey  |           253952
 2017-02-04 04:12:56.756477+01 | 1486177976.75648 | pgbench_accounts_pkey |        224641024

 2017-02-04 04:12:57.828726+01 | 1486177977.82873 | pgbench_branches_pkey |            57344
 2017-02-04 04:12:57.828726+01 | 1486177977.82873 | pgbench_tellers_pkey  |           253952
 2017-02-04 04:12:57.828726+01 | 1486177977.82873 | pgbench_accounts_pkey |        224641024

 2017-02-04 04:12:58.909508+01 | 1486177978.90951 | pgbench_branches_pkey |            57344
 2017-02-04 04:12:58.909508+01 | 1486177978.90951 | pgbench_tellers_pkey  |           253952
 2017-02-04 04:12:58.909508+01 | 1486177978.90951 | pgbench_accounts_pkey |        224641024

 2017-02-04 04:12:59.984475+01 | 1486177979.98447 | pgbench_branches_pkey |            57344
 2017-02-04 04:12:59.984475+01 | 1486177979.98447 | pgbench_tellers_pkey  |           253952
 2017-02-04 04:12:59.984475+01 | 1486177979.98447 | pgbench_accounts_pkey |        224641024

 2017-02-04 04:13:01.068486+01 | 1486177981.06849 | pgbench_branches_pkey |            57344
 2017-02-04 04:13:01.068486+01 | 1486177981.06849 | pgbench_tellers_pkey  |           253952
 2017-02-04 04:13:01.068486+01 | 1486177981.06849 | pgbench_accounts_pkey |        224641024

 2017-02-04 04:13:02.148422+01 | 1486177982.14842 | pgbench_branches_pkey |            57344
 2017-02-04 04:13:02.148422+01 | 1486177982.14842 | pgbench_tellers_pkey  |           253952
 2017-02-04 04:13:02.148422+01 | 1486177982.14842 | pgbench_accounts_pkey |        224641024

 2017-02-04 04:13:03.226564+01 | 1486177983.22656 | pgbench_branches_pkey |            57344
 2017-02-04 04:13:03.226564+01 | 1486177983.22656 | pgbench_tellers_pkey  |           253952
 2017-02-04 04:13:03.226564+01 | 1486177983.22656 | pgbench_accounts_pkey |        224641024

 2017-02-04 04:13:04.30821+01 | 1486177984.30821 | pgbench_branches_pkey |            57344
 2017-02-04 04:13:04.30821+01 | 1486177984.30821 | pgbench_tellers_pkey  |           253952
 2017-02-04 04:13:04.30821+01 | 1486177984.30821 | pgbench_accounts_pkey |        224641024

 2017-02-04 04:13:05.375704+01 | 1486177985.3757 | pgbench_branches_pkey |            57344
 2017-02-04 04:13:05.375704+01 | 1486177985.3757 | pgbench_tellers_pkey  |           253952
 2017-02-04 04:13:05.375704+01 | 1486177985.3757 | pgbench_accounts_pkey |        224641024

 2017-02-04 04:13:06.453323+01 | 1486177986.45332 | pgbench_branches_pkey |            57344
 2017-02-04 04:13:06.453323+01 | 1486177986.45332 | pgbench_tellers_pkey  |           253952
 2017-02-04 04:13:06.453323+01 | 1486177986.45332 | pgbench_accounts_pkey |        224641024

 2017-02-04 04:13:07.529461+01 | 1486177987.52946 | pgbench_branches_pkey |            57344
 2017-02-04 04:13:07.529461+01 | 1486177987.52946 | pgbench_tellers_pkey  |           253952
 2017-02-04 04:13:07.529461+01 | 1486177987.52946 | pgbench_accounts_pkey |        224641024

 2017-02-04 04:13:08.606551+01 | 1486177988.60655 | pgbench_branches_pkey |            57344
 2017-02-04 04:13:08.606551+01 | 1486177988.60655 | pgbench_tellers_pkey  |           253952
 2017-02-04 04:13:08.606551+01 | 1486177988.60655 | pgbench_accounts_pkey |        224641024

 2017-02-04 04:13:09.681361+01 | 1486177989.68136 | pgbench_branches_pkey |            57344
 2017-02-04 04:13:09.681361+01 | 1486177989.68136 | pgbench_tellers_pkey  |           253952
 2017-02-04 04:13:09.681361+01 | 1486177989.68136 | pgbench_accounts_pkey |        224641024

 2017-02-04 04:13:10.761941+01 | 1486177990.76194 | pgbench_branches_pkey |            57344
 2017-02-04 04:13:10.761941+01 | 1486177990.76194 | pgbench_tellers_pkey  |           253952
 2017-02-04 04:13:10.761941+01 | 1486177990.76194 | pgbench_accounts_pkey |        224641024

 2017-02-04 04:13:11.842012+01 | 1486177991.84201 | pgbench_branches_pkey |            57344
 2017-02-04 04:13:11.842012+01 | 1486177991.84201 | pgbench_tellers_pkey  |           253952
 2017-02-04 04:13:11.842012+01 | 1486177991.84201 | pgbench_accounts_pkey |        224641024

 2017-02-04 04:13:12.91809+01 | 1486177992.91809 | pgbench_branches_pkey |            57344
 2017-02-04 04:13:12.91809+01 | 1486177992.91809 | pgbench_tellers_pkey  |           253952
 2017-02-04 04:13:12.91809+01 | 1486177992.91809 | pgbench_accounts_pkey |        224641024

 2017-02-04 04:13:13.99195+01 | 1486177993.99195 | pgbench_branches_pkey |            57344
 2017-02-04 04:13:13.99195+01 | 1486177993.99195 | pgbench_tellers_pkey  |           253952
 2017-02-04 04:13:13.99195+01 | 1486177993.99195 | pgbench_accounts_pkey |        224641024

 2017-02-04 04:13:15.06917+01 | 1486177995.06917 | pgbench_branches_pkey |            57344
 2017-02-04 04:13:15.06917+01 | 1486177995.06917 | pgbench_tellers_pkey  |           253952
 2017-02-04 04:13:15.06917+01 | 1486177995.06917 | pgbench_accounts_pkey |        224641024

 2017-02-04 04:13:16.143929+01 | 1486177996.14393 | pgbench_branches_pkey |            57344
 2017-02-04 04:13:16.143929+01 | 1486177996.14393 | pgbench_tellers_pkey  |           253952
 2017-02-04 04:13:16.143929+01 | 1486177996.14393 | pgbench_accounts_pkey |        224641024

 2017-02-04 04:13:17.220027+01 | 1486177997.22003 | pgbench_branches_pkey |            57344
 2017-02-04 04:13:17.220027+01 | 1486177997.22003 | pgbench_tellers_pkey  |           253952
 2017-02-04 04:13:17.220027+01 | 1486177997.22003 | pgbench_accounts_pkey |        224641024

 2017-02-04 04:13:18.296972+01 | 1486177998.29697 | pgbench_branches_pkey |            57344
 2017-02-04 04:13:18.296972+01 | 1486177998.29697 | pgbench_tellers_pkey  |           253952
 2017-02-04 04:13:18.296972+01 | 1486177998.29697 | pgbench_accounts_pkey |        224641024

 2017-02-04 04:13:19.380628+01 | 1486177999.38063 | pgbench_branches_pkey |            57344
 2017-02-04 04:13:19.380628+01 | 1486177999.38063 | pgbench_tellers_pkey  |           253952
 2017-02-04 04:13:19.380628+01 | 1486177999.38063 | pgbench_accounts_pkey |        224641024

 2017-02-04 04:13:20.458093+01 | 1486178000.45809 | pgbench_branches_pkey |            57344
 2017-02-04 04:13:20.458093+01 | 1486178000.45809 | pgbench_tellers_pkey  |           253952
 2017-02-04 04:13:20.458093+01 | 1486178000.45809 | pgbench_accounts_pkey |        224641024

 2017-02-04 04:13:21.536017+01 | 1486178001.53602 | pgbench_branches_pkey |            57344
 2017-02-04 04:13:21.536017+01 | 1486178001.53602 | pgbench_tellers_pkey  |           253952
 2017-02-04 04:13:21.536017+01 | 1486178001.53602 | pgbench_accounts_pkey |        224641024

 2017-02-04 04:13:22.621532+01 | 1486178002.62153 | pgbench_branches_pkey |            57344
 2017-02-04 04:13:22.621532+01 | 1486178002.62153 | pgbench_tellers_pkey  |           253952
 2017-02-04 04:13:22.621532+01 | 1486178002.62153 | pgbench_accounts_pkey |        224641024

 2017-02-04 04:13:23.690578+01 | 1486178003.69058 | pgbench_branches_pkey |            57344
 2017-02-04 04:13:23.690578+01 | 1486178003.69058 | pgbench_tellers_pkey  |           253952
 2017-02-04 04:13:23.690578+01 | 1486178003.69058 | pgbench_accounts_pkey |        224641024

 2017-02-04 04:13:24.767416+01 | 1486178004.76742 | pgbench_branches_pkey |            57344
 2017-02-04 04:13:24.767416+01 | 1486178004.76742 | pgbench_tellers_pkey  |           253952
 2017-02-04 04:13:24.767416+01 | 1486178004.76742 | pgbench_accounts_pkey |        224641024

 2017-02-04 04:13:25.845048+01 | 1486178005.84505 | pgbench_branches_pkey |            57344
 2017-02-04 04:13:25.845048+01 | 1486178005.84505 | pgbench_tellers_pkey  |           253952
 2017-02-04 04:13:25.845048+01 | 1486178005.84505 | pgbench_accounts_pkey |        224641024

 2017-02-04 04:13:26.915312+01 | 1486178006.91531 | pgbench_branches_pkey |            57344
 2017-02-04 04:13:26.915312+01 | 1486178006.91531 | pgbench_tellers_pkey  |           253952
 2017-02-04 04:13:26.915312+01 | 1486178006.91531 | pgbench_accounts_pkey |        224641024

 2017-02-04 04:13:27.999598+01 | 1486178007.9996 | pgbench_branches_pkey |            57344
 2017-02-04 04:13:27.999598+01 | 1486178007.9996 | pgbench_tellers_pkey  |           253952
 2017-02-04 04:13:27.999598+01 | 1486178007.9996 | pgbench_accounts_pkey |        224641024

 2017-02-04 04:13:29.077243+01 | 1486178009.07724 | pgbench_branches_pkey |            57344
 2017-02-04 04:13:29.077243+01 | 1486178009.07724 | pgbench_tellers_pkey  |           253952
 2017-02-04 04:13:29.077243+01 | 1486178009.07724 | pgbench_accounts_pkey |        224641024

 2017-02-04 04:13:30.154108+01 | 1486178010.15411 | pgbench_branches_pkey |            57344
 2017-02-04 04:13:30.154108+01 | 1486178010.15411 | pgbench_tellers_pkey  |           253952
 2017-02-04 04:13:30.154108+01 | 1486178010.15411 | pgbench_accounts_pkey |        224641024

 2017-02-04 04:13:31.228922+01 | 1486178011.22892 | pgbench_branches_pkey |            57344
 2017-02-04 04:13:31.228922+01 | 1486178011.22892 | pgbench_tellers_pkey  |           253952
 2017-02-04 04:13:31.228922+01 | 1486178011.22892 | pgbench_accounts_pkey |        224641024

 2017-02-04 04:13:32.305794+01 | 1486178012.30579 | pgbench_branches_pkey |            57344
 2017-02-04 04:13:32.305794+01 | 1486178012.30579 | pgbench_tellers_pkey  |           253952
 2017-02-04 04:13:32.305794+01 | 1486178012.30579 | pgbench_accounts_pkey |        224641024

 2017-02-04 04:13:33.384302+01 | 1486178013.3843 | pgbench_branches_pkey |            57344
 2017-02-04 04:13:33.384302+01 | 1486178013.3843 | pgbench_tellers_pkey  |           253952
 2017-02-04 04:13:33.384302+01 | 1486178013.3843 | pgbench_accounts_pkey |        224641024

 2017-02-04 04:13:34.465771+01 | 1486178014.46577 | pgbench_branches_pkey |            57344
 2017-02-04 04:13:34.465771+01 | 1486178014.46577 | pgbench_tellers_pkey  |           253952
 2017-02-04 04:13:34.465771+01 | 1486178014.46577 | pgbench_accounts_pkey |        224641024

 2017-02-04 04:13:35.547933+01 | 1486178015.54793 | pgbench_branches_pkey |            57344
 2017-02-04 04:13:35.547933+01 | 1486178015.54793 | pgbench_tellers_pkey  |           253952
 2017-02-04 04:13:35.547933+01 | 1486178015.54793 | pgbench_accounts_pkey |        224641024

 2017-02-04 04:13:36.618936+01 | 1486178016.61894 | pgbench_branches_pkey |            57344
 2017-02-04 04:13:36.618936+01 | 1486178016.61894 | pgbench_tellers_pkey  |           253952
 2017-02-04 04:13:36.618936+01 | 1486178016.61894 | pgbench_accounts_pkey |        224641024

 2017-02-04 04:13:37.701294+01 | 1486178017.70129 | pgbench_branches_pkey |            57344
 2017-02-04 04:13:37.701294+01 | 1486178017.70129 | pgbench_tellers_pkey  |           253952
 2017-02-04 04:13:37.701294+01 | 1486178017.70129 | pgbench_accounts_pkey |        224641024

 2017-02-04 04:13:38.78109+01 | 1486178018.78109 | pgbench_branches_pkey |            57344
 2017-02-04 04:13:38.78109+01 | 1486178018.78109 | pgbench_tellers_pkey  |           253952
 2017-02-04 04:13:38.78109+01 | 1486178018.78109 | pgbench_accounts_pkey |        224641024

 2017-02-04 04:13:39.859011+01 | 1486178019.85901 | pgbench_branches_pkey |            57344
 2017-02-04 04:13:39.859011+01 | 1486178019.85901 | pgbench_tellers_pkey  |           253952
 2017-02-04 04:13:39.859011+01 | 1486178019.85901 | pgbench_accounts_pkey |        224641024

 2017-02-04 04:13:40.935264+01 | 1486178020.93526 | pgbench_branches_pkey |            57344
 2017-02-04 04:13:40.935264+01 | 1486178020.93526 | pgbench_tellers_pkey  |           253952
 2017-02-04 04:13:40.935264+01 | 1486178020.93526 | pgbench_accounts_pkey |        224641024

 2017-02-04 04:13:42.020169+01 | 1486178022.02017 | pgbench_branches_pkey |            57344
 2017-02-04 04:13:42.020169+01 | 1486178022.02017 | pgbench_tellers_pkey  |           253952
 2017-02-04 04:13:42.020169+01 | 1486178022.02017 | pgbench_accounts_pkey |        224641024

 2017-02-04 04:13:43.102243+01 | 1486178023.10224 | pgbench_branches_pkey |            57344
 2017-02-04 04:13:43.102243+01 | 1486178023.10224 | pgbench_tellers_pkey  |           253952
 2017-02-04 04:13:43.102243+01 | 1486178023.10224 | pgbench_accounts_pkey |        224641024

 2017-02-04 04:13:44.175542+01 | 1486178024.17554 | pgbench_branches_pkey |            57344
 2017-02-04 04:13:44.175542+01 | 1486178024.17554 | pgbench_tellers_pkey  |           253952
 2017-02-04 04:13:44.175542+01 | 1486178024.17554 | pgbench_accounts_pkey |        224641024

 2017-02-04 04:13:45.262647+01 | 1486178025.26265 | pgbench_branches_pkey |            57344
 2017-02-04 04:13:45.262647+01 | 1486178025.26265 | pgbench_tellers_pkey  |           253952
 2017-02-04 04:13:45.262647+01 | 1486178025.26265 | pgbench_accounts_pkey |        224641024

 2017-02-04 04:13:46.339311+01 | 1486178026.33931 | pgbench_branches_pkey |            57344
 2017-02-04 04:13:46.339311+01 | 1486178026.33931 | pgbench_tellers_pkey  |           253952
 2017-02-04 04:13:46.339311+01 | 1486178026.33931 | pgbench_accounts_pkey |        224641024

 2017-02-04 04:13:47.417805+01 | 1486178027.4178 | pgbench_branches_pkey |            57344
 2017-02-04 04:13:47.417805+01 | 1486178027.4178 | pgbench_tellers_pkey  |           253952
 2017-02-04 04:13:47.417805+01 | 1486178027.4178 | pgbench_accounts_pkey |        224641024

 2017-02-04 04:13:48.490788+01 | 1486178028.49079 | pgbench_branches_pkey |            57344
 2017-02-04 04:13:48.490788+01 | 1486178028.49079 | pgbench_tellers_pkey  |           253952
 2017-02-04 04:13:48.490788+01 | 1486178028.49079 | pgbench_accounts_pkey |        224641024

 2017-02-04 04:13:49.566749+01 | 1486178029.56675 | pgbench_branches_pkey |            57344
 2017-02-04 04:13:49.566749+01 | 1486178029.56675 | pgbench_tellers_pkey  |           253952
 2017-02-04 04:13:49.566749+01 | 1486178029.56675 | pgbench_accounts_pkey |        224641024

 2017-02-04 04:13:50.643139+01 | 1486178030.64314 | pgbench_branches_pkey |            57344
 2017-02-04 04:13:50.643139+01 | 1486178030.64314 | pgbench_tellers_pkey  |           253952
 2017-02-04 04:13:50.643139+01 | 1486178030.64314 | pgbench_accounts_pkey |        224641024

 2017-02-04 04:13:51.721354+01 | 1486178031.72135 | pgbench_branches_pkey |            57344
 2017-02-04 04:13:51.721354+01 | 1486178031.72135 | pgbench_tellers_pkey  |           253952
 2017-02-04 04:13:51.721354+01 | 1486178031.72135 | pgbench_accounts_pkey |        224641024

 2017-02-04 04:13:52.804458+01 | 1486178032.80446 | pgbench_branches_pkey |            57344
 2017-02-04 04:13:52.804458+01 | 1486178032.80446 | pgbench_tellers_pkey  |           253952
 2017-02-04 04:13:52.804458+01 | 1486178032.80446 | pgbench_accounts_pkey |        224641024

 2017-02-04 04:13:53.878368+01 | 1486178033.87837 | pgbench_branches_pkey |            57344
 2017-02-04 04:13:53.878368+01 | 1486178033.87837 | pgbench_tellers_pkey  |           253952
 2017-02-04 04:13:53.878368+01 | 1486178033.87837 | pgbench_accounts_pkey |        224641024

 2017-02-04 04:13:54.956198+01 | 1486178034.9562 | pgbench_branches_pkey |            57344
 2017-02-04 04:13:54.956198+01 | 1486178034.9562 | pgbench_tellers_pkey  |           253952
 2017-02-04 04:13:54.956198+01 | 1486178034.9562 | pgbench_accounts_pkey |        224641024

 2017-02-04 04:13:56.032175+01 | 1486178036.03218 | pgbench_branches_pkey |            57344
 2017-02-04 04:13:56.032175+01 | 1486178036.03218 | pgbench_tellers_pkey  |           253952
 2017-02-04 04:13:56.032175+01 | 1486178036.03218 | pgbench_accounts_pkey |        224641024

 2017-02-04 04:13:57.109338+01 | 1486178037.10934 | pgbench_branches_pkey |            57344
 2017-02-04 04:13:57.109338+01 | 1486178037.10934 | pgbench_tellers_pkey  |           253952
 2017-02-04 04:13:57.109338+01 | 1486178037.10934 | pgbench_accounts_pkey |        224641024

 2017-02-04 04:13:58.189211+01 | 1486178038.18921 | pgbench_branches_pkey |            57344
 2017-02-04 04:13:58.189211+01 | 1486178038.18921 | pgbench_tellers_pkey  |           253952
 2017-02-04 04:13:58.189211+01 | 1486178038.18921 | pgbench_accounts_pkey |        224641024

 2017-02-04 04:13:59.25975+01 | 1486178039.25975 | pgbench_branches_pkey |            57344
 2017-02-04 04:13:59.25975+01 | 1486178039.25975 | pgbench_tellers_pkey  |           253952
 2017-02-04 04:13:59.25975+01 | 1486178039.25975 | pgbench_accounts_pkey |        224641024

 2017-02-04 04:14:00.339949+01 | 1486178040.33995 | pgbench_branches_pkey |            57344
 2017-02-04 04:14:00.339949+01 | 1486178040.33995 | pgbench_tellers_pkey  |           253952
 2017-02-04 04:14:00.339949+01 | 1486178040.33995 | pgbench_accounts_pkey |        224641024

 2017-02-04 04:14:01.421159+01 | 1486178041.42116 | pgbench_branches_pkey |            57344
 2017-02-04 04:14:01.421159+01 | 1486178041.42116 | pgbench_tellers_pkey  |           253952
 2017-02-04 04:14:01.421159+01 | 1486178041.42116 | pgbench_accounts_pkey |        224641024

 2017-02-04 04:14:02.492149+01 | 1486178042.49215 | pgbench_branches_pkey |            57344
 2017-02-04 04:14:02.492149+01 | 1486178042.49215 | pgbench_tellers_pkey  |           253952
 2017-02-04 04:14:02.492149+01 | 1486178042.49215 | pgbench_accounts_pkey |        224641024

 2017-02-04 04:14:03.570452+01 | 1486178043.57045 | pgbench_branches_pkey |            57344
 2017-02-04 04:14:03.570452+01 | 1486178043.57045 | pgbench_tellers_pkey  |           253952
 2017-02-04 04:14:03.570452+01 | 1486178043.57045 | pgbench_accounts_pkey |        224641024

 2017-02-04 04:14:04.652607+01 | 1486178044.65261 | pgbench_branches_pkey |            57344
 2017-02-04 04:14:04.652607+01 | 1486178044.65261 | pgbench_tellers_pkey  |           253952
 2017-02-04 04:14:04.652607+01 | 1486178044.65261 | pgbench_accounts_pkey |        224641024

 2017-02-04 04:14:05.735488+01 | 1486178045.73549 | pgbench_branches_pkey |            57344
 2017-02-04 04:14:05.735488+01 | 1486178045.73549 | pgbench_tellers_pkey  |           253952
 2017-02-04 04:14:05.735488+01 | 1486178045.73549 | pgbench_accounts_pkey |        224641024

 2017-02-04 04:14:06.814577+01 | 1486178046.81458 | pgbench_branches_pkey |            57344
 2017-02-04 04:14:06.814577+01 | 1486178046.81458 | pgbench_tellers_pkey  |           253952
 2017-02-04 04:14:06.814577+01 | 1486178046.81458 | pgbench_accounts_pkey |        224641024

 2017-02-04 04:14:07.892446+01 | 1486178047.89245 | pgbench_branches_pkey |            57344
 2017-02-04 04:14:07.892446+01 | 1486178047.89245 | pgbench_tellers_pkey  |           253952
 2017-02-04 04:14:07.892446+01 | 1486178047.89245 | pgbench_accounts_pkey |        224641024

 2017-02-04 04:14:08.968449+01 | 1486178048.96845 | pgbench_branches_pkey |            57344
 2017-02-04 04:14:08.968449+01 | 1486178048.96845 | pgbench_tellers_pkey  |           253952
 2017-02-04 04:14:08.968449+01 | 1486178048.96845 | pgbench_accounts_pkey |        224641024

 2017-02-04 04:14:10.05156+01 | 1486178050.05156 | pgbench_branches_pkey |            57344
 2017-02-04 04:14:10.05156+01 | 1486178050.05156 | pgbench_tellers_pkey  |           253952
 2017-02-04 04:14:10.05156+01 | 1486178050.05156 | pgbench_accounts_pkey |        224641024

 2017-02-04 04:14:11.126328+01 | 1486178051.12633 | pgbench_branches_pkey |            57344
 2017-02-04 04:14:11.126328+01 | 1486178051.12633 | pgbench_tellers_pkey  |           253952
 2017-02-04 04:14:11.126328+01 | 1486178051.12633 | pgbench_accounts_pkey |        224641024

 2017-02-04 04:14:12.202147+01 | 1486178052.20215 | pgbench_branches_pkey |            57344
 2017-02-04 04:14:12.202147+01 | 1486178052.20215 | pgbench_tellers_pkey  |           253952
 2017-02-04 04:14:12.202147+01 | 1486178052.20215 | pgbench_accounts_pkey |        224641024

 2017-02-04 04:14:13.283305+01 | 1486178053.2833 | pgbench_branches_pkey |            57344
 2017-02-04 04:14:13.283305+01 | 1486178053.2833 | pgbench_tellers_pkey  |           253952
 2017-02-04 04:14:13.283305+01 | 1486178053.2833 | pgbench_accounts_pkey |        224641024

 2017-02-04 04:14:14.359959+01 | 1486178054.35996 | pgbench_branches_pkey |            57344
 2017-02-04 04:14:14.359959+01 | 1486178054.35996 | pgbench_tellers_pkey  |           253952
 2017-02-04 04:14:14.359959+01 | 1486178054.35996 | pgbench_accounts_pkey |        224641024

 2017-02-04 04:14:15.437719+01 | 1486178055.43772 | pgbench_branches_pkey |            57344
 2017-02-04 04:14:15.437719+01 | 1486178055.43772 | pgbench_tellers_pkey  |           253952
 2017-02-04 04:14:15.437719+01 | 1486178055.43772 | pgbench_accounts_pkey |        224641024

 2017-02-04 04:14:16.510743+01 | 1486178056.51074 | pgbench_branches_pkey |            57344
 2017-02-04 04:14:16.510743+01 | 1486178056.51074 | pgbench_tellers_pkey  |           253952
 2017-02-04 04:14:16.510743+01 | 1486178056.51074 | pgbench_accounts_pkey |        224641024

 2017-02-04 04:14:17.591272+01 | 1486178057.59127 | pgbench_branches_pkey |            57344
 2017-02-04 04:14:17.591272+01 | 1486178057.59127 | pgbench_tellers_pkey  |           253952
 2017-02-04 04:14:17.591272+01 | 1486178057.59127 | pgbench_accounts_pkey |        224641024

 2017-02-04 04:14:18.676834+01 | 1486178058.67683 | pgbench_branches_pkey |            57344
 2017-02-04 04:14:18.676834+01 | 1486178058.67683 | pgbench_tellers_pkey  |           253952
 2017-02-04 04:14:18.676834+01 | 1486178058.67683 | pgbench_accounts_pkey |        224641024

 2017-02-04 04:14:19.747294+01 | 1486178059.74729 | pgbench_branches_pkey |            57344
 2017-02-04 04:14:19.747294+01 | 1486178059.74729 | pgbench_tellers_pkey  |           253952
 2017-02-04 04:14:19.747294+01 | 1486178059.74729 | pgbench_accounts_pkey |        224641024

 2017-02-04 04:14:20.82324+01 | 1486178060.82324 | pgbench_branches_pkey |            57344
 2017-02-04 04:14:20.82324+01 | 1486178060.82324 | pgbench_tellers_pkey  |           253952
 2017-02-04 04:14:20.82324+01 | 1486178060.82324 | pgbench_accounts_pkey |        224641024

 2017-02-04 04:14:21.901162+01 | 1486178061.90116 | pgbench_branches_pkey |            57344
 2017-02-04 04:14:21.901162+01 | 1486178061.90116 | pgbench_tellers_pkey  |           253952
 2017-02-04 04:14:21.901162+01 | 1486178061.90116 | pgbench_accounts_pkey |        224641024

 2017-02-04 04:14:22.976149+01 | 1486178062.97615 | pgbench_branches_pkey |            57344
 2017-02-04 04:14:22.976149+01 | 1486178062.97615 | pgbench_tellers_pkey  |           253952
 2017-02-04 04:14:22.976149+01 | 1486178062.97615 | pgbench_accounts_pkey |        224641024

 2017-02-04 04:14:24.058967+01 | 1486178064.05897 | pgbench_branches_pkey |            57344
 2017-02-04 04:14:24.058967+01 | 1486178064.05897 | pgbench_tellers_pkey  |           253952
 2017-02-04 04:14:24.058967+01 | 1486178064.05897 | pgbench_accounts_pkey |        224641024

 2017-02-04 04:14:25.132516+01 | 1486178065.13252 | pgbench_branches_pkey |            57344
 2017-02-04 04:14:25.132516+01 | 1486178065.13252 | pgbench_tellers_pkey  |           253952
 2017-02-04 04:14:25.132516+01 | 1486178065.13252 | pgbench_accounts_pkey |        224641024

 2017-02-04 04:14:26.213323+01 | 1486178066.21332 | pgbench_branches_pkey |            57344
 2017-02-04 04:14:26.213323+01 | 1486178066.21332 | pgbench_tellers_pkey  |           253952
 2017-02-04 04:14:26.213323+01 | 1486178066.21332 | pgbench_accounts_pkey |        224641024

 2017-02-04 04:14:27.288945+01 | 1486178067.28894 | pgbench_branches_pkey |            57344
 2017-02-04 04:14:27.288945+01 | 1486178067.28894 | pgbench_tellers_pkey  |           253952
 2017-02-04 04:14:27.288945+01 | 1486178067.28894 | pgbench_accounts_pkey |        224641024

 2017-02-04 04:14:28.355175+01 | 1486178068.35518 | pgbench_branches_pkey |            57344
 2017-02-04 04:14:28.355175+01 | 1486178068.35518 | pgbench_tellers_pkey  |           253952
 2017-02-04 04:14:28.355175+01 | 1486178068.35518 | pgbench_accounts_pkey |        224641024

 2017-02-04 04:14:29.435309+01 | 1486178069.43531 | pgbench_branches_pkey |            57344
 2017-02-04 04:14:29.435309+01 | 1486178069.43531 | pgbench_tellers_pkey  |           253952
 2017-02-04 04:14:29.435309+01 | 1486178069.43531 | pgbench_accounts_pkey |        224641024

 2017-02-04 04:14:30.512343+01 | 1486178070.51234 | pgbench_branches_pkey |            57344
 2017-02-04 04:14:30.512343+01 | 1486178070.51234 | pgbench_tellers_pkey  |           253952
 2017-02-04 04:14:30.512343+01 | 1486178070.51234 | pgbench_accounts_pkey |        224641024

 2017-02-04 04:14:31.596115+01 | 1486178071.59612 | pgbench_branches_pkey |            57344
 2017-02-04 04:14:31.596115+01 | 1486178071.59612 | pgbench_tellers_pkey  |           253952
 2017-02-04 04:14:31.596115+01 | 1486178071.59612 | pgbench_accounts_pkey |        224641024

 2017-02-04 04:14:32.676908+01 | 1486178072.67691 | pgbench_branches_pkey |            57344
 2017-02-04 04:14:32.676908+01 | 1486178072.67691 | pgbench_tellers_pkey  |           253952
 2017-02-04 04:14:32.676908+01 | 1486178072.67691 | pgbench_accounts_pkey |        224641024

 2017-02-04 04:14:33.75581+01 | 1486178073.75581 | pgbench_branches_pkey |            57344
 2017-02-04 04:14:33.75581+01 | 1486178073.75581 | pgbench_tellers_pkey  |           253952
 2017-02-04 04:14:33.75581+01 | 1486178073.75581 | pgbench_accounts_pkey |        224641024

 2017-02-04 04:14:34.835775+01 | 1486178074.83577 | pgbench_branches_pkey |            57344
 2017-02-04 04:14:34.835775+01 | 1486178074.83577 | pgbench_tellers_pkey  |           253952
 2017-02-04 04:14:34.835775+01 | 1486178074.83577 | pgbench_accounts_pkey |        224641024

 2017-02-04 04:14:35.921224+01 | 1486178075.92122 | pgbench_branches_pkey |            57344
 2017-02-04 04:14:35.921224+01 | 1486178075.92122 | pgbench_tellers_pkey  |           253952
 2017-02-04 04:14:35.921224+01 | 1486178075.92122 | pgbench_accounts_pkey |        224641024

 2017-02-04 04:14:36.999966+01 | 1486178076.99997 | pgbench_branches_pkey |            57344
 2017-02-04 04:14:36.999966+01 | 1486178076.99997 | pgbench_tellers_pkey  |           253952
 2017-02-04 04:14:36.999966+01 | 1486178076.99997 | pgbench_accounts_pkey |        224641024

 2017-02-04 04:14:38.08124+01 | 1486178078.08124 | pgbench_branches_pkey |            57344
 2017-02-04 04:14:38.08124+01 | 1486178078.08124 | pgbench_tellers_pkey  |           253952
 2017-02-04 04:14:38.08124+01 | 1486178078.08124 | pgbench_accounts_pkey |        224641024

 2017-02-04 04:14:39.163657+01 | 1486178079.16366 | pgbench_branches_pkey |            57344
 2017-02-04 04:14:39.163657+01 | 1486178079.16366 | pgbench_tellers_pkey  |           253952
 2017-02-04 04:14:39.163657+01 | 1486178079.16366 | pgbench_accounts_pkey |        224641024

 2017-02-04 04:14:40.240791+01 | 1486178080.24079 | pgbench_branches_pkey |            57344
 2017-02-04 04:14:40.240791+01 | 1486178080.24079 | pgbench_tellers_pkey  |           253952
 2017-02-04 04:14:40.240791+01 | 1486178080.24079 | pgbench_accounts_pkey |        224641024

 2017-02-04 04:14:41.320095+01 | 1486178081.3201 | pgbench_branches_pkey |            57344
 2017-02-04 04:14:41.320095+01 | 1486178081.3201 | pgbench_tellers_pkey  |           253952
 2017-02-04 04:14:41.320095+01 | 1486178081.3201 | pgbench_accounts_pkey |        224641024

 2017-02-04 04:14:42.397716+01 | 1486178082.39772 | pgbench_branches_pkey |            57344
 2017-02-04 04:14:42.397716+01 | 1486178082.39772 | pgbench_tellers_pkey  |           253952
 2017-02-04 04:14:42.397716+01 | 1486178082.39772 | pgbench_accounts_pkey |        224641024

 2017-02-04 04:14:43.475572+01 | 1486178083.47557 | pgbench_branches_pkey |            57344
 2017-02-04 04:14:43.475572+01 | 1486178083.47557 | pgbench_tellers_pkey  |           253952
 2017-02-04 04:14:43.475572+01 | 1486178083.47557 | pgbench_accounts_pkey |        224641024

 2017-02-04 04:14:44.553007+01 | 1486178084.55301 | pgbench_branches_pkey |            57344
 2017-02-04 04:14:44.553007+01 | 1486178084.55301 | pgbench_tellers_pkey  |           253952
 2017-02-04 04:14:44.553007+01 | 1486178084.55301 | pgbench_accounts_pkey |        224641024

 2017-02-04 04:14:45.627375+01 | 1486178085.62737 | pgbench_branches_pkey |            57344
 2017-02-04 04:14:45.627375+01 | 1486178085.62737 | pgbench_tellers_pkey  |           253952
 2017-02-04 04:14:45.627375+01 | 1486178085.62737 | pgbench_accounts_pkey |        224641024

 2017-02-04 04:14:46.707783+01 | 1486178086.70778 | pgbench_branches_pkey |            57344
 2017-02-04 04:14:46.707783+01 | 1486178086.70778 | pgbench_tellers_pkey  |           253952
 2017-02-04 04:14:46.707783+01 | 1486178086.70778 | pgbench_accounts_pkey |        224641024

 2017-02-04 04:14:47.786528+01 | 1486178087.78653 | pgbench_branches_pkey |            57344
 2017-02-04 04:14:47.786528+01 | 1486178087.78653 | pgbench_tellers_pkey  |           253952
 2017-02-04 04:14:47.786528+01 | 1486178087.78653 | pgbench_accounts_pkey |        224641024

 2017-02-04 04:14:48.864216+01 | 1486178088.86422 | pgbench_branches_pkey |            57344
 2017-02-04 04:14:48.864216+01 | 1486178088.86422 | pgbench_tellers_pkey  |           253952
 2017-02-04 04:14:48.864216+01 | 1486178088.86422 | pgbench_accounts_pkey |        224641024

 2017-02-04 04:14:49.945049+01 | 1486178089.94505 | pgbench_branches_pkey |            57344
 2017-02-04 04:14:49.945049+01 | 1486178089.94505 | pgbench_tellers_pkey  |           253952
 2017-02-04 04:14:49.945049+01 | 1486178089.94505 | pgbench_accounts_pkey |        224641024

 2017-02-04 04:14:51.026188+01 | 1486178091.02619 | pgbench_branches_pkey |            57344
 2017-02-04 04:14:51.026188+01 | 1486178091.02619 | pgbench_tellers_pkey  |           253952
 2017-02-04 04:14:51.026188+01 | 1486178091.02619 | pgbench_accounts_pkey |        224641024

 2017-02-04 04:14:52.109089+01 | 1486178092.10909 | pgbench_branches_pkey |            57344
 2017-02-04 04:14:52.109089+01 | 1486178092.10909 | pgbench_tellers_pkey  |           253952
 2017-02-04 04:14:52.109089+01 | 1486178092.10909 | pgbench_accounts_pkey |        224641024

 2017-02-04 04:14:53.185251+01 | 1486178093.18525 | pgbench_branches_pkey |            57344
 2017-02-04 04:14:53.185251+01 | 1486178093.18525 | pgbench_tellers_pkey  |           253952
 2017-02-04 04:14:53.185251+01 | 1486178093.18525 | pgbench_accounts_pkey |        224641024

 2017-02-04 04:14:54.26032+01 | 1486178094.26032 | pgbench_branches_pkey |            57344
 2017-02-04 04:14:54.26032+01 | 1486178094.26032 | pgbench_tellers_pkey  |           253952
 2017-02-04 04:14:54.26032+01 | 1486178094.26032 | pgbench_accounts_pkey |        224641024

 2017-02-04 04:14:55.33834+01 | 1486178095.33834 | pgbench_branches_pkey |            57344
 2017-02-04 04:14:55.33834+01 | 1486178095.33834 | pgbench_tellers_pkey  |           253952
 2017-02-04 04:14:55.33834+01 | 1486178095.33834 | pgbench_accounts_pkey |        224641024

 2017-02-04 04:14:56.41995+01 | 1486178096.41995 | pgbench_branches_pkey |            57344
 2017-02-04 04:14:56.41995+01 | 1486178096.41995 | pgbench_tellers_pkey  |           253952
 2017-02-04 04:14:56.41995+01 | 1486178096.41995 | pgbench_accounts_pkey |        224641024

 2017-02-04 04:14:57.500789+01 | 1486178097.50079 | pgbench_branches_pkey |            57344
 2017-02-04 04:14:57.500789+01 | 1486178097.50079 | pgbench_tellers_pkey  |           253952
 2017-02-04 04:14:57.500789+01 | 1486178097.50079 | pgbench_accounts_pkey |        224641024

 2017-02-04 04:14:58.576947+01 | 1486178098.57695 | pgbench_branches_pkey |            57344
 2017-02-04 04:14:58.576947+01 | 1486178098.57695 | pgbench_tellers_pkey  |           253952
 2017-02-04 04:14:58.576947+01 | 1486178098.57695 | pgbench_accounts_pkey |        224641024

 2017-02-04 04:14:59.654777+01 | 1486178099.65478 | pgbench_branches_pkey |            57344
 2017-02-04 04:14:59.654777+01 | 1486178099.65478 | pgbench_tellers_pkey  |           253952
 2017-02-04 04:14:59.654777+01 | 1486178099.65478 | pgbench_accounts_pkey |        224641024

 2017-02-04 04:15:00.733967+01 | 1486178100.73397 | pgbench_branches_pkey |            57344
 2017-02-04 04:15:00.733967+01 | 1486178100.73397 | pgbench_tellers_pkey  |           253952
 2017-02-04 04:15:00.733967+01 | 1486178100.73397 | pgbench_accounts_pkey |        224641024

 2017-02-04 04:15:01.808109+01 | 1486178101.80811 | pgbench_branches_pkey |            57344
 2017-02-04 04:15:01.808109+01 | 1486178101.80811 | pgbench_tellers_pkey  |           253952
 2017-02-04 04:15:01.808109+01 | 1486178101.80811 | pgbench_accounts_pkey |        224641024

 2017-02-04 04:15:02.885931+01 | 1486178102.88593 | pgbench_branches_pkey |            57344
 2017-02-04 04:15:02.885931+01 | 1486178102.88593 | pgbench_tellers_pkey  |           253952
 2017-02-04 04:15:02.885931+01 | 1486178102.88593 | pgbench_accounts_pkey |        224641024

 2017-02-04 04:15:03.971397+01 | 1486178103.9714 | pgbench_branches_pkey |            57344
 2017-02-04 04:15:03.971397+01 | 1486178103.9714 | pgbench_tellers_pkey  |           253952
 2017-02-04 04:15:03.971397+01 | 1486178103.9714 | pgbench_accounts_pkey |        224641024

 2017-02-04 04:15:05.050856+01 | 1486178105.05086 | pgbench_branches_pkey |            57344
 2017-02-04 04:15:05.050856+01 | 1486178105.05086 | pgbench_tellers_pkey  |           253952
 2017-02-04 04:15:05.050856+01 | 1486178105.05086 | pgbench_accounts_pkey |        224641024

 2017-02-04 04:15:06.134003+01 | 1486178106.134 | pgbench_branches_pkey |            57344
 2017-02-04 04:15:06.134003+01 | 1486178106.134 | pgbench_tellers_pkey  |           253952
 2017-02-04 04:15:06.134003+01 | 1486178106.134 | pgbench_accounts_pkey |        224641024

 2017-02-04 04:15:07.223063+01 | 1486178107.22306 | pgbench_branches_pkey |            57344
 2017-02-04 04:15:07.223063+01 | 1486178107.22306 | pgbench_tellers_pkey  |           253952
 2017-02-04 04:15:07.223063+01 | 1486178107.22306 | pgbench_accounts_pkey |        224641024

 2017-02-04 04:15:08.30102+01 | 1486178108.30102 | pgbench_branches_pkey |            57344
 2017-02-04 04:15:08.30102+01 | 1486178108.30102 | pgbench_tellers_pkey  |           253952
 2017-02-04 04:15:08.30102+01 | 1486178108.30102 | pgbench_accounts_pkey |        224641024

 2017-02-04 04:15:09.376753+01 | 1486178109.37675 | pgbench_branches_pkey |            57344
 2017-02-04 04:15:09.376753+01 | 1486178109.37675 | pgbench_tellers_pkey  |           253952
 2017-02-04 04:15:09.376753+01 | 1486178109.37675 | pgbench_accounts_pkey |        224641024

 2017-02-04 04:15:10.453743+01 | 1486178110.45374 | pgbench_branches_pkey |            57344
 2017-02-04 04:15:10.453743+01 | 1486178110.45374 | pgbench_tellers_pkey  |           253952
 2017-02-04 04:15:10.453743+01 | 1486178110.45374 | pgbench_accounts_pkey |        224641024

 2017-02-04 04:15:11.533453+01 | 1486178111.53345 | pgbench_branches_pkey |            57344
 2017-02-04 04:15:11.533453+01 | 1486178111.53345 | pgbench_tellers_pkey  |           253952
 2017-02-04 04:15:11.533453+01 | 1486178111.53345 | pgbench_accounts_pkey |        224641024

 2017-02-04 04:15:12.612211+01 | 1486178112.61221 | pgbench_branches_pkey |            57344
 2017-02-04 04:15:12.612211+01 | 1486178112.61221 | pgbench_tellers_pkey  |           253952
 2017-02-04 04:15:12.612211+01 | 1486178112.61221 | pgbench_accounts_pkey |        224641024

 2017-02-04 04:15:13.693623+01 | 1486178113.69362 | pgbench_branches_pkey |            57344
 2017-02-04 04:15:13.693623+01 | 1486178113.69362 | pgbench_tellers_pkey  |           253952
 2017-02-04 04:15:13.693623+01 | 1486178113.69362 | pgbench_accounts_pkey |        224641024

 2017-02-04 04:15:14.773759+01 | 1486178114.77376 | pgbench_branches_pkey |            57344
 2017-02-04 04:15:14.773759+01 | 1486178114.77376 | pgbench_tellers_pkey  |           253952
 2017-02-04 04:15:14.773759+01 | 1486178114.77376 | pgbench_accounts_pkey |        224641024

 2017-02-04 04:15:15.858543+01 | 1486178115.85854 | pgbench_branches_pkey |            57344
 2017-02-04 04:15:15.858543+01 | 1486178115.85854 | pgbench_tellers_pkey  |           253952
 2017-02-04 04:15:15.858543+01 | 1486178115.85854 | pgbench_accounts_pkey |        224641024

 2017-02-04 04:15:16.936431+01 | 1486178116.93643 | pgbench_branches_pkey |            57344
 2017-02-04 04:15:16.936431+01 | 1486178116.93643 | pgbench_tellers_pkey  |           253952
 2017-02-04 04:15:16.936431+01 | 1486178116.93643 | pgbench_accounts_pkey |        224641024

 2017-02-04 04:15:18.015963+01 | 1486178118.01596 | pgbench_branches_pkey |            57344
 2017-02-04 04:15:18.015963+01 | 1486178118.01596 | pgbench_tellers_pkey  |           253952
 2017-02-04 04:15:18.015963+01 | 1486178118.01596 | pgbench_accounts_pkey |        224641024

 2017-02-04 04:15:19.091021+01 | 1486178119.09102 | pgbench_branches_pkey |            57344
 2017-02-04 04:15:19.091021+01 | 1486178119.09102 | pgbench_tellers_pkey  |           253952
 2017-02-04 04:15:19.091021+01 | 1486178119.09102 | pgbench_accounts_pkey |        224641024

 2017-02-04 04:15:20.1755+01 | 1486178120.1755 | pgbench_branches_pkey |            57344
 2017-02-04 04:15:20.1755+01 | 1486178120.1755 | pgbench_tellers_pkey  |           253952
 2017-02-04 04:15:20.1755+01 | 1486178120.1755 | pgbench_accounts_pkey |        224641024

 2017-02-04 04:15:21.253693+01 | 1486178121.25369 | pgbench_branches_pkey |            57344
 2017-02-04 04:15:21.253693+01 | 1486178121.25369 | pgbench_tellers_pkey  |           253952
 2017-02-04 04:15:21.253693+01 | 1486178121.25369 | pgbench_accounts_pkey |        224641024

 2017-02-04 04:15:22.328288+01 | 1486178122.32829 | pgbench_branches_pkey |            57344
 2017-02-04 04:15:22.328288+01 | 1486178122.32829 | pgbench_tellers_pkey  |           253952
 2017-02-04 04:15:22.328288+01 | 1486178122.32829 | pgbench_accounts_pkey |        224641024

 2017-02-04 04:15:23.39655+01 | 1486178123.39655 | pgbench_branches_pkey |            57344
 2017-02-04 04:15:23.39655+01 | 1486178123.39655 | pgbench_tellers_pkey  |           253952
 2017-02-04 04:15:23.39655+01 | 1486178123.39655 | pgbench_accounts_pkey |        224641024

 2017-02-04 04:15:24.475084+01 | 1486178124.47508 | pgbench_branches_pkey |            57344
 2017-02-04 04:15:24.475084+01 | 1486178124.47508 | pgbench_tellers_pkey  |           253952
 2017-02-04 04:15:24.475084+01 | 1486178124.47508 | pgbench_accounts_pkey |        224641024

 2017-02-04 04:15:25.549588+01 | 1486178125.54959 | pgbench_branches_pkey |            57344
 2017-02-04 04:15:25.549588+01 | 1486178125.54959 | pgbench_tellers_pkey  |           253952
 2017-02-04 04:15:25.549588+01 | 1486178125.54959 | pgbench_accounts_pkey |        224641024

 2017-02-04 04:15:26.627758+01 | 1486178126.62776 | pgbench_branches_pkey |            57344
 2017-02-04 04:15:26.627758+01 | 1486178126.62776 | pgbench_tellers_pkey  |           253952
 2017-02-04 04:15:26.627758+01 | 1486178126.62776 | pgbench_accounts_pkey |        224641024

 2017-02-04 04:15:27.705471+01 | 1486178127.70547 | pgbench_branches_pkey |            57344
 2017-02-04 04:15:27.705471+01 | 1486178127.70547 | pgbench_tellers_pkey  |           253952
 2017-02-04 04:15:27.705471+01 | 1486178127.70547 | pgbench_accounts_pkey |        224641024

 2017-02-04 04:15:28.772915+01 | 1486178128.77291 | pgbench_branches_pkey |            57344
 2017-02-04 04:15:28.772915+01 | 1486178128.77291 | pgbench_tellers_pkey  |           253952
 2017-02-04 04:15:28.772915+01 | 1486178128.77291 | pgbench_accounts_pkey |        224641024

 2017-02-04 04:15:29.849936+01 | 1486178129.84994 | pgbench_branches_pkey |            57344
 2017-02-04 04:15:29.849936+01 | 1486178129.84994 | pgbench_tellers_pkey  |           253952
 2017-02-04 04:15:29.849936+01 | 1486178129.84994 | pgbench_accounts_pkey |        224641024

 2017-02-04 04:15:30.929071+01 | 1486178130.92907 | pgbench_branches_pkey |            57344
 2017-02-04 04:15:30.929071+01 | 1486178130.92907 | pgbench_tellers_pkey  |           253952
 2017-02-04 04:15:30.929071+01 | 1486178130.92907 | pgbench_accounts_pkey |        224641024

 2017-02-04 04:15:32.004651+01 | 1486178132.00465 | pgbench_branches_pkey |            57344
 2017-02-04 04:15:32.004651+01 | 1486178132.00465 | pgbench_tellers_pkey  |           253952
 2017-02-04 04:15:32.004651+01 | 1486178132.00465 | pgbench_accounts_pkey |        224641024

 2017-02-04 04:15:33.090518+01 | 1486178133.09052 | pgbench_branches_pkey |            57344
 2017-02-04 04:15:33.090518+01 | 1486178133.09052 | pgbench_tellers_pkey  |           253952
 2017-02-04 04:15:33.090518+01 | 1486178133.09052 | pgbench_accounts_pkey |        224641024

 2017-02-04 04:15:34.167433+01 | 1486178134.16743 | pgbench_branches_pkey |            57344
 2017-02-04 04:15:34.167433+01 | 1486178134.16743 | pgbench_tellers_pkey  |           253952
 2017-02-04 04:15:34.167433+01 | 1486178134.16743 | pgbench_accounts_pkey |        224641024

 2017-02-04 04:15:35.2452+01 | 1486178135.2452 | pgbench_branches_pkey |            57344
 2017-02-04 04:15:35.2452+01 | 1486178135.2452 | pgbench_tellers_pkey  |           253952
 2017-02-04 04:15:35.2452+01 | 1486178135.2452 | pgbench_accounts_pkey |        224641024

 2017-02-04 04:15:36.319879+01 | 1486178136.31988 | pgbench_branches_pkey |            57344
 2017-02-04 04:15:36.319879+01 | 1486178136.31988 | pgbench_tellers_pkey  |           253952
 2017-02-04 04:15:36.319879+01 | 1486178136.31988 | pgbench_accounts_pkey |        224641024

 2017-02-04 04:15:37.405365+01 | 1486178137.40536 | pgbench_branches_pkey |            57344
 2017-02-04 04:15:37.405365+01 | 1486178137.40536 | pgbench_tellers_pkey  |           253952
 2017-02-04 04:15:37.405365+01 | 1486178137.40536 | pgbench_accounts_pkey |        224641024

 2017-02-04 04:15:38.483556+01 | 1486178138.48356 | pgbench_branches_pkey |            57344
 2017-02-04 04:15:38.483556+01 | 1486178138.48356 | pgbench_tellers_pkey  |           253952
 2017-02-04 04:15:38.483556+01 | 1486178138.48356 | pgbench_accounts_pkey |        224641024

 2017-02-04 04:15:39.561415+01 | 1486178139.56141 | pgbench_branches_pkey |            57344
 2017-02-04 04:15:39.561415+01 | 1486178139.56141 | pgbench_tellers_pkey  |           253952
 2017-02-04 04:15:39.561415+01 | 1486178139.56141 | pgbench_accounts_pkey |        224641024

 2017-02-04 04:15:40.637815+01 | 1486178140.63781 | pgbench_branches_pkey |            57344
 2017-02-04 04:15:40.637815+01 | 1486178140.63781 | pgbench_tellers_pkey  |           253952
 2017-02-04 04:15:40.637815+01 | 1486178140.63781 | pgbench_accounts_pkey |        224641024

 2017-02-04 04:15:41.709852+01 | 1486178141.70985 | pgbench_branches_pkey |            57344
 2017-02-04 04:15:41.709852+01 | 1486178141.70985 | pgbench_tellers_pkey  |           253952
 2017-02-04 04:15:41.709852+01 | 1486178141.70985 | pgbench_accounts_pkey |        224641024

 2017-02-04 04:15:42.789653+01 | 1486178142.78965 | pgbench_branches_pkey |            57344
 2017-02-04 04:15:42.789653+01 | 1486178142.78965 | pgbench_tellers_pkey  |           253952
 2017-02-04 04:15:42.789653+01 | 1486178142.78965 | pgbench_accounts_pkey |        224641024

 2017-02-04 04:15:43.867368+01 | 1486178143.86737 | pgbench_branches_pkey |            57344
 2017-02-04 04:15:43.867368+01 | 1486178143.86737 | pgbench_tellers_pkey  |           253952
 2017-02-04 04:15:43.867368+01 | 1486178143.86737 | pgbench_accounts_pkey |        224641024

 2017-02-04 04:15:44.950208+01 | 1486178144.95021 | pgbench_branches_pkey |            57344
 2017-02-04 04:15:44.950208+01 | 1486178144.95021 | pgbench_tellers_pkey  |           253952
 2017-02-04 04:15:44.950208+01 | 1486178144.95021 | pgbench_accounts_pkey |        224641024

 2017-02-04 04:15:46.029348+01 | 1486178146.02935 | pgbench_branches_pkey |            57344
 2017-02-04 04:15:46.029348+01 | 1486178146.02935 | pgbench_tellers_pkey  |           253952
 2017-02-04 04:15:46.029348+01 | 1486178146.02935 | pgbench_accounts_pkey |        224641024

