 2017-02-04 08:40:19.324659+01 | 1486194019.32466 | pgbench_accounts |      13919944704
 2017-02-04 08:40:19.324659+01 | 1486194019.32466 | pgbench_tellers  |         34455552
 2017-02-04 08:40:19.324659+01 | 1486194019.32466 | pgbench_history  |                0
 2017-02-04 08:40:19.324659+01 | 1486194019.32466 | pgbench_branches |         10772480

 2017-02-04 08:40:20.418596+01 | 1486194020.4186 | pgbench_accounts |      13919944704
 2017-02-04 08:40:20.418596+01 | 1486194020.4186 | pgbench_tellers  |         34455552
 2017-02-04 08:40:20.418596+01 | 1486194020.4186 | pgbench_history  |          3465216
 2017-02-04 08:40:20.418596+01 | 1486194020.4186 | pgbench_branches |         10772480

 2017-02-04 08:40:21.500875+01 | 1486194021.50087 | pgbench_accounts |      13919944704
 2017-02-04 08:40:21.500875+01 | 1486194021.50087 | pgbench_tellers  |         34455552
 2017-02-04 08:40:21.500875+01 | 1486194021.50087 | pgbench_history  |          3465216
 2017-02-04 08:40:21.500875+01 | 1486194021.50087 | pgbench_branches |         10772480

 2017-02-04 08:40:22.581963+01 | 1486194022.58196 | pgbench_accounts |      13919944704
 2017-02-04 08:40:22.581963+01 | 1486194022.58196 | pgbench_tellers  |         34455552
 2017-02-04 08:40:22.581963+01 | 1486194022.58196 | pgbench_history  |          5488640
 2017-02-04 08:40:22.581963+01 | 1486194022.58196 | pgbench_branches |         10772480

 2017-02-04 08:40:23.666294+01 | 1486194023.66629 | pgbench_accounts |      13919944704
 2017-02-04 08:40:23.666294+01 | 1486194023.66629 | pgbench_tellers  |         34455552
 2017-02-04 08:40:23.666294+01 | 1486194023.66629 | pgbench_history  |          6209536
 2017-02-04 08:40:23.666294+01 | 1486194023.66629 | pgbench_branches |         10772480

 2017-02-04 08:40:24.750211+01 | 1486194024.75021 | pgbench_accounts |      13919944704
 2017-02-04 08:40:24.750211+01 | 1486194024.75021 | pgbench_tellers  |         34455552
 2017-02-04 08:40:24.750211+01 | 1486194024.75021 | pgbench_history  |          8110080
 2017-02-04 08:40:24.750211+01 | 1486194024.75021 | pgbench_branches |         10772480

 2017-02-04 08:40:25.829877+01 | 1486194025.82988 | pgbench_accounts |      13919944704
 2017-02-04 08:40:25.829877+01 | 1486194025.82988 | pgbench_tellers  |         34455552
 2017-02-04 08:40:25.829877+01 | 1486194025.82988 | pgbench_history  |         11108352
 2017-02-04 08:40:25.829877+01 | 1486194025.82988 | pgbench_branches |         10772480

 2017-02-04 08:40:26.909225+01 | 1486194026.90922 | pgbench_accounts |      13919944704
 2017-02-04 08:40:26.909225+01 | 1486194026.90922 | pgbench_tellers  |         34455552
 2017-02-04 08:40:26.909225+01 | 1486194026.90922 | pgbench_history  |         12632064
 2017-02-04 08:40:26.909225+01 | 1486194026.90922 | pgbench_branches |         10772480

 2017-02-04 08:40:27.993185+01 | 1486194027.99319 | pgbench_accounts |      13919944704
 2017-02-04 08:40:27.993185+01 | 1486194027.99319 | pgbench_tellers  |         34455552
 2017-02-04 08:40:27.993185+01 | 1486194027.99319 | pgbench_history  |         13475840
 2017-02-04 08:40:27.993185+01 | 1486194027.99319 | pgbench_branches |         10772480

 2017-02-04 08:40:29.078205+01 | 1486194029.07821 | pgbench_accounts |      13919944704
 2017-02-04 08:40:29.078205+01 | 1486194029.07821 | pgbench_tellers  |         34455552
 2017-02-04 08:40:29.078205+01 | 1486194029.07821 | pgbench_history  |         15351808
 2017-02-04 08:40:29.078205+01 | 1486194029.07821 | pgbench_branches |         10772480

 2017-02-04 08:40:30.157604+01 | 1486194030.1576 | pgbench_accounts |      13919944704
 2017-02-04 08:40:30.157604+01 | 1486194030.1576 | pgbench_tellers  |         34455552
 2017-02-04 08:40:30.157604+01 | 1486194030.1576 | pgbench_history  |         17039360
 2017-02-04 08:40:30.157604+01 | 1486194030.1576 | pgbench_branches |         10772480

 2017-02-04 08:40:31.236988+01 | 1486194031.23699 | pgbench_accounts |      13919944704
 2017-02-04 08:40:31.236988+01 | 1486194031.23699 | pgbench_tellers  |         34455552
 2017-02-04 08:40:31.236988+01 | 1486194031.23699 | pgbench_history  |         19734528
 2017-02-04 08:40:31.236988+01 | 1486194031.23699 | pgbench_branches |         10772480

 2017-02-04 08:40:32.319918+01 | 1486194032.31992 | pgbench_accounts |      13919944704
 2017-02-04 08:40:32.319918+01 | 1486194032.31992 | pgbench_tellers  |         34455552
 2017-02-04 08:40:32.319918+01 | 1486194032.31992 | pgbench_history  |         20414464
 2017-02-04 08:40:32.319918+01 | 1486194032.31992 | pgbench_branches |         10772480

 2017-02-04 08:40:33.400984+01 | 1486194033.40098 | pgbench_accounts |      13919944704
 2017-02-04 08:40:33.400984+01 | 1486194033.40098 | pgbench_tellers  |         34455552
 2017-02-04 08:40:33.400984+01 | 1486194033.40098 | pgbench_history  |         22077440
 2017-02-04 08:40:33.400984+01 | 1486194033.40098 | pgbench_branches |         10772480

 2017-02-04 08:40:34.484055+01 | 1486194034.48406 | pgbench_accounts |      13919944704
 2017-02-04 08:40:34.484055+01 | 1486194034.48406 | pgbench_tellers  |         34455552
 2017-02-04 08:40:34.484055+01 | 1486194034.48406 | pgbench_history  |         24485888
 2017-02-04 08:40:34.484055+01 | 1486194034.48406 | pgbench_branches |         10772480

 2017-02-04 08:40:35.562928+01 | 1486194035.56293 | pgbench_accounts |      13919944704
 2017-02-04 08:40:35.562928+01 | 1486194035.56293 | pgbench_tellers  |         34455552
 2017-02-04 08:40:35.562928+01 | 1486194035.56293 | pgbench_history  |         26337280
 2017-02-04 08:40:35.562928+01 | 1486194035.56293 | pgbench_branches |         10772480

 2017-02-04 08:40:36.644822+01 | 1486194036.64482 | pgbench_accounts |      13919944704
 2017-02-04 08:40:36.644822+01 | 1486194036.64482 | pgbench_tellers  |         34455552
 2017-02-04 08:40:36.644822+01 | 1486194036.64482 | pgbench_history  |         28385280
 2017-02-04 08:40:36.644822+01 | 1486194036.64482 | pgbench_branches |         10772480

 2017-02-04 08:40:37.730198+01 | 1486194037.7302 | pgbench_accounts |      13919944704
 2017-02-04 08:40:37.730198+01 | 1486194037.7302 | pgbench_tellers  |         34455552
 2017-02-04 08:40:37.730198+01 | 1486194037.7302 | pgbench_history  |         31105024
 2017-02-04 08:40:37.730198+01 | 1486194037.7302 | pgbench_branches |         10772480

 2017-02-04 08:40:38.812916+01 | 1486194038.81292 | pgbench_accounts |      13919944704
 2017-02-04 08:40:38.812916+01 | 1486194038.81292 | pgbench_tellers  |         34455552
 2017-02-04 08:40:38.812916+01 | 1486194038.81292 | pgbench_history  |         35414016
 2017-02-04 08:40:38.812916+01 | 1486194038.81292 | pgbench_branches |         10772480

 2017-02-04 08:40:39.893785+01 | 1486194039.89378 | pgbench_accounts |      13919944704
 2017-02-04 08:40:39.893785+01 | 1486194039.89378 | pgbench_tellers  |         34455552
 2017-02-04 08:40:39.893785+01 | 1486194039.89378 | pgbench_history  |         35414016
 2017-02-04 08:40:39.893785+01 | 1486194039.89378 | pgbench_branches |         10772480

 2017-02-04 08:40:40.973436+01 | 1486194040.97344 | pgbench_accounts |      13919944704
 2017-02-04 08:40:40.973436+01 | 1486194040.97344 | pgbench_tellers  |         34455552
 2017-02-04 08:40:40.973436+01 | 1486194040.97344 | pgbench_history  |         36790272
 2017-02-04 08:40:40.973436+01 | 1486194040.97344 | pgbench_branches |         10772480

 2017-02-04 08:40:42.057498+01 | 1486194042.0575 | pgbench_accounts |      13919944704
 2017-02-04 08:40:42.057498+01 | 1486194042.0575 | pgbench_tellers  |         34455552
 2017-02-04 08:40:42.057498+01 | 1486194042.0575 | pgbench_history  |         38076416
 2017-02-04 08:40:42.057498+01 | 1486194042.0575 | pgbench_branches |         10772480

 2017-02-04 08:40:43.139663+01 | 1486194043.13966 | pgbench_accounts |      13919944704
 2017-02-04 08:40:43.139663+01 | 1486194043.13966 | pgbench_tellers  |         34455552
 2017-02-04 08:40:43.139663+01 | 1486194043.13966 | pgbench_history  |         40583168
 2017-02-04 08:40:43.139663+01 | 1486194043.13966 | pgbench_branches |         10772480

 2017-02-04 08:40:44.231026+01 | 1486194044.23103 | pgbench_accounts |      13919944704
 2017-02-04 08:40:44.231026+01 | 1486194044.23103 | pgbench_tellers  |         34455552
 2017-02-04 08:40:44.231026+01 | 1486194044.23103 | pgbench_history  |         42270720
 2017-02-04 08:40:44.231026+01 | 1486194044.23103 | pgbench_branches |         10772480

 2017-02-04 08:40:45.311326+01 | 1486194045.31133 | pgbench_accounts |      13919944704
 2017-02-04 08:40:45.311326+01 | 1486194045.31133 | pgbench_tellers  |         34455552
 2017-02-04 08:40:45.311326+01 | 1486194045.31133 | pgbench_history  |         44834816
 2017-02-04 08:40:45.311326+01 | 1486194045.31133 | pgbench_branches |         10772480

 2017-02-04 08:40:46.394482+01 | 1486194046.39448 | pgbench_accounts |      13919944704
 2017-02-04 08:40:46.394482+01 | 1486194046.39448 | pgbench_tellers  |         34455552
 2017-02-04 08:40:46.394482+01 | 1486194046.39448 | pgbench_history  |         46383104
 2017-02-04 08:40:46.394482+01 | 1486194046.39448 | pgbench_branches |         10772480

 2017-02-04 08:40:47.478268+01 | 1486194047.47827 | pgbench_accounts |      13919944704
 2017-02-04 08:40:47.478268+01 | 1486194047.47827 | pgbench_tellers  |         34455552
 2017-02-04 08:40:47.478268+01 | 1486194047.47827 | pgbench_history  |         48431104
 2017-02-04 08:40:47.478268+01 | 1486194047.47827 | pgbench_branches |         10772480

 2017-02-04 08:40:48.54916+01 | 1486194048.54916 | pgbench_accounts |      13919944704
 2017-02-04 08:40:48.54916+01 | 1486194048.54916 | pgbench_tellers  |         34455552
 2017-02-04 08:40:48.54916+01 | 1486194048.54916 | pgbench_history  |         50962432
 2017-02-04 08:40:48.54916+01 | 1486194048.54916 | pgbench_branches |         10772480

 2017-02-04 08:40:49.619958+01 | 1486194049.61996 | pgbench_accounts |      13919944704
 2017-02-04 08:40:49.619958+01 | 1486194049.61996 | pgbench_tellers  |         34455552
 2017-02-04 08:40:49.619958+01 | 1486194049.61996 | pgbench_history  |         52322304
 2017-02-04 08:40:49.619958+01 | 1486194049.61996 | pgbench_branches |         10772480

 2017-02-04 08:40:50.712099+01 | 1486194050.7121 | pgbench_accounts |      13919944704
 2017-02-04 08:40:50.712099+01 | 1486194050.7121 | pgbench_tellers  |         34455552
 2017-02-04 08:40:50.712099+01 | 1486194050.7121 | pgbench_history  |         54689792
 2017-02-04 08:40:50.712099+01 | 1486194050.7121 | pgbench_branches |         10772480

 2017-02-04 08:40:51.801116+01 | 1486194051.80112 | pgbench_accounts |      13919944704
 2017-02-04 08:40:51.801116+01 | 1486194051.80112 | pgbench_tellers  |         34455552
 2017-02-04 08:40:51.801116+01 | 1486194051.80112 | pgbench_history  |         56025088
 2017-02-04 08:40:51.801116+01 | 1486194051.80112 | pgbench_branches |         10772480

 2017-02-04 08:40:52.872893+01 | 1486194052.87289 | pgbench_accounts |      13919944704
 2017-02-04 08:40:52.872893+01 | 1486194052.87289 | pgbench_tellers  |         34455552
 2017-02-04 08:40:52.872893+01 | 1486194052.87289 | pgbench_history  |         57524224
 2017-02-04 08:40:52.872893+01 | 1486194052.87289 | pgbench_branches |         10772480

 2017-02-04 08:40:53.949813+01 | 1486194053.94981 | pgbench_accounts |      13919944704
 2017-02-04 08:40:53.949813+01 | 1486194053.94981 | pgbench_tellers  |         34455552
 2017-02-04 08:40:53.949813+01 | 1486194053.94981 | pgbench_history  |         59564032
 2017-02-04 08:40:53.949813+01 | 1486194053.94981 | pgbench_branches |         10772480

 2017-02-04 08:40:55.016793+01 | 1486194055.01679 | pgbench_accounts |      13919944704
 2017-02-04 08:40:55.016793+01 | 1486194055.01679 | pgbench_tellers  |         34455552
 2017-02-04 08:40:55.016793+01 | 1486194055.01679 | pgbench_history  |         61308928
 2017-02-04 08:40:55.016793+01 | 1486194055.01679 | pgbench_branches |         10772480

 2017-02-04 08:40:56.09223+01 | 1486194056.09223 | pgbench_accounts |      13919944704
 2017-02-04 08:40:56.09223+01 | 1486194056.09223 | pgbench_tellers  |         34455552
 2017-02-04 08:40:56.09223+01 | 1486194056.09223 | pgbench_history  |         64004096
 2017-02-04 08:40:56.09223+01 | 1486194056.09223 | pgbench_branches |         10772480

 2017-02-04 08:40:57.177437+01 | 1486194057.17744 | pgbench_accounts |      13919944704
 2017-02-04 08:40:57.177437+01 | 1486194057.17744 | pgbench_tellers  |         34455552
 2017-02-04 08:40:57.177437+01 | 1486194057.17744 | pgbench_history  |         65011712
 2017-02-04 08:40:57.177437+01 | 1486194057.17744 | pgbench_branches |         10772480

 2017-02-04 08:40:58.256467+01 | 1486194058.25647 | pgbench_accounts |      13919944704
 2017-02-04 08:40:58.256467+01 | 1486194058.25647 | pgbench_tellers  |         34455552
 2017-02-04 08:40:58.256467+01 | 1486194058.25647 | pgbench_history  |         67706880
 2017-02-04 08:40:58.256467+01 | 1486194058.25647 | pgbench_branches |         10772480

 2017-02-04 08:40:59.322021+01 | 1486194059.32202 | pgbench_accounts |      13919944704
 2017-02-04 08:40:59.322021+01 | 1486194059.32202 | pgbench_tellers  |         34455552
 2017-02-04 08:40:59.322021+01 | 1486194059.32202 | pgbench_history  |         69558272
 2017-02-04 08:40:59.322021+01 | 1486194059.32202 | pgbench_branches |         10772480

 2017-02-04 08:41:00.400173+01 | 1486194060.40017 | pgbench_accounts |      13919944704
 2017-02-04 08:41:00.400173+01 | 1486194060.40017 | pgbench_tellers  |         34455552
 2017-02-04 08:41:00.400173+01 | 1486194060.40017 | pgbench_history  |         70107136
 2017-02-04 08:41:00.400173+01 | 1486194060.40017 | pgbench_branches |         10772480

 2017-02-04 08:41:01.480709+01 | 1486194061.48071 | pgbench_accounts |      13919944704
 2017-02-04 08:41:01.480709+01 | 1486194061.48071 | pgbench_tellers  |         34455552
 2017-02-04 08:41:01.480709+01 | 1486194061.48071 | pgbench_history  |         71442432
 2017-02-04 08:41:01.480709+01 | 1486194061.48071 | pgbench_branches |         10772480

 2017-02-04 08:41:02.567321+01 | 1486194062.56732 | pgbench_accounts |      13919944704
 2017-02-04 08:41:02.567321+01 | 1486194062.56732 | pgbench_tellers  |         34455552
 2017-02-04 08:41:02.567321+01 | 1486194062.56732 | pgbench_history  |         73154560
 2017-02-04 08:41:02.567321+01 | 1486194062.56732 | pgbench_branches |         10772480

 2017-02-04 08:41:03.650151+01 | 1486194063.65015 | pgbench_accounts |      13919944704
 2017-02-04 08:41:03.650151+01 | 1486194063.65015 | pgbench_tellers  |         34455552
 2017-02-04 08:41:03.650151+01 | 1486194063.65015 | pgbench_history  |         74539008
 2017-02-04 08:41:03.650151+01 | 1486194063.65015 | pgbench_branches |         10772480

 2017-02-04 08:41:04.737026+01 | 1486194064.73703 | pgbench_accounts |      13919944704
 2017-02-04 08:41:04.737026+01 | 1486194064.73703 | pgbench_tellers  |         34455552
 2017-02-04 08:41:04.737026+01 | 1486194064.73703 | pgbench_history  |         77627392
 2017-02-04 08:41:04.737026+01 | 1486194064.73703 | pgbench_branches |         10772480

 2017-02-04 08:41:05.819677+01 | 1486194065.81968 | pgbench_accounts |      13919944704
 2017-02-04 08:41:05.819677+01 | 1486194065.81968 | pgbench_tellers  |         34455552
 2017-02-04 08:41:05.819677+01 | 1486194065.81968 | pgbench_history  |         78798848
 2017-02-04 08:41:05.819677+01 | 1486194065.81968 | pgbench_branches |         10772480

 2017-02-04 08:41:06.910522+01 | 1486194066.91052 | pgbench_accounts |      13919944704
 2017-02-04 08:41:06.910522+01 | 1486194066.91052 | pgbench_tellers  |         34455552
 2017-02-04 08:41:06.910522+01 | 1486194066.91052 | pgbench_history  |         79806464
 2017-02-04 08:41:06.910522+01 | 1486194066.91052 | pgbench_branches |         10772480

 2017-02-04 08:41:07.996572+01 | 1486194067.99657 | pgbench_accounts |      13919944704
 2017-02-04 08:41:07.996572+01 | 1486194067.99657 | pgbench_tellers  |         34455552
 2017-02-04 08:41:07.996572+01 | 1486194067.99657 | pgbench_history  |         80683008
 2017-02-04 08:41:07.996572+01 | 1486194067.99657 | pgbench_branches |         10772480

 2017-02-04 08:41:09.070489+01 | 1486194069.07049 | pgbench_accounts |      13919944704
 2017-02-04 08:41:09.070489+01 | 1486194069.07049 | pgbench_tellers  |         34455552
 2017-02-04 08:41:09.070489+01 | 1486194069.07049 | pgbench_history  |         82509824
 2017-02-04 08:41:09.070489+01 | 1486194069.07049 | pgbench_branches |         10772480

 2017-02-04 08:41:10.158473+01 | 1486194070.15847 | pgbench_accounts |      13919944704
 2017-02-04 08:41:10.158473+01 | 1486194070.15847 | pgbench_tellers  |         34455552
 2017-02-04 08:41:10.158473+01 | 1486194070.15847 | pgbench_history  |         83705856
 2017-02-04 08:41:10.158473+01 | 1486194070.15847 | pgbench_branches |         10772480

 2017-02-04 08:41:11.244743+01 | 1486194071.24474 | pgbench_accounts |      13919944704
 2017-02-04 08:41:11.244743+01 | 1486194071.24474 | pgbench_tellers  |         34455552
 2017-02-04 08:41:11.244743+01 | 1486194071.24474 | pgbench_history  |         85884928
 2017-02-04 08:41:11.244743+01 | 1486194071.24474 | pgbench_branches |         10772480

 2017-02-04 08:41:12.327701+01 | 1486194072.3277 | pgbench_accounts |      13919944704
 2017-02-04 08:41:12.327701+01 | 1486194072.3277 | pgbench_tellers  |         34455552
 2017-02-04 08:41:12.327701+01 | 1486194072.3277 | pgbench_history  |         87220224
 2017-02-04 08:41:12.327701+01 | 1486194072.3277 | pgbench_branches |         10772480

 2017-02-04 08:41:13.409212+01 | 1486194073.40921 | pgbench_accounts |      13919944704
 2017-02-04 08:41:13.409212+01 | 1486194073.40921 | pgbench_tellers  |         34455552
 2017-02-04 08:41:13.409212+01 | 1486194073.40921 | pgbench_history  |         88907776
 2017-02-04 08:41:13.409212+01 | 1486194073.40921 | pgbench_branches |         10772480

 2017-02-04 08:41:14.475329+01 | 1486194074.47533 | pgbench_accounts |      13919944704
 2017-02-04 08:41:14.475329+01 | 1486194074.47533 | pgbench_tellers  |         34455552
 2017-02-04 08:41:14.475329+01 | 1486194074.47533 | pgbench_history  |         90759168
 2017-02-04 08:41:14.475329+01 | 1486194074.47533 | pgbench_branches |         10772480

 2017-02-04 08:41:15.55384+01 | 1486194075.55384 | pgbench_accounts |      13919944704
 2017-02-04 08:41:15.55384+01 | 1486194075.55384 | pgbench_tellers  |         34455552
 2017-02-04 08:41:15.55384+01 | 1486194075.55384 | pgbench_history  |         92119040
 2017-02-04 08:41:15.55384+01 | 1486194075.55384 | pgbench_branches |         10772480

 2017-02-04 08:41:16.628304+01 | 1486194076.6283 | pgbench_accounts |      13919944704
 2017-02-04 08:41:16.628304+01 | 1486194076.6283 | pgbench_tellers  |         34455552
 2017-02-04 08:41:16.628304+01 | 1486194076.6283 | pgbench_history  |         94298112
 2017-02-04 08:41:16.628304+01 | 1486194076.6283 | pgbench_branches |         10772480

 2017-02-04 08:41:17.705428+01 | 1486194077.70543 | pgbench_accounts |      13919944704
 2017-02-04 08:41:17.705428+01 | 1486194077.70543 | pgbench_tellers  |         34455552
 2017-02-04 08:41:17.705428+01 | 1486194077.70543 | pgbench_history  |         95395840
 2017-02-04 08:41:17.705428+01 | 1486194077.70543 | pgbench_branches |         10772480

 2017-02-04 08:41:18.784643+01 | 1486194078.78464 | pgbench_accounts |      13919944704
 2017-02-04 08:41:18.784643+01 | 1486194078.78464 | pgbench_tellers  |         34455552
 2017-02-04 08:41:18.784643+01 | 1486194078.78464 | pgbench_history  |         96665600
 2017-02-04 08:41:18.784643+01 | 1486194078.78464 | pgbench_branches |         10772480

 2017-02-04 08:41:19.863411+01 | 1486194079.86341 | pgbench_accounts |      13919944704
 2017-02-04 08:41:19.863411+01 | 1486194079.86341 | pgbench_tellers  |         34455552
 2017-02-04 08:41:19.863411+01 | 1486194079.86341 | pgbench_history  |         97910784
 2017-02-04 08:41:19.863411+01 | 1486194079.86341 | pgbench_branches |         10772480

 2017-02-04 08:41:20.95436+01 | 1486194080.95436 | pgbench_accounts |      13919944704
 2017-02-04 08:41:20.95436+01 | 1486194080.95436 | pgbench_tellers  |         34455552
 2017-02-04 08:41:20.95436+01 | 1486194080.95436 | pgbench_history  |         99475456
 2017-02-04 08:41:20.95436+01 | 1486194080.95436 | pgbench_branches |         10772480

 2017-02-04 08:41:22.035758+01 | 1486194082.03576 | pgbench_accounts |      13919944704
 2017-02-04 08:41:22.035758+01 | 1486194082.03576 | pgbench_tellers  |         34455552
 2017-02-04 08:41:22.035758+01 | 1486194082.03576 | pgbench_history  |        100352000
 2017-02-04 08:41:22.035758+01 | 1486194082.03576 | pgbench_branches |         10772480

 2017-02-04 08:41:23.129436+01 | 1486194083.12944 | pgbench_accounts |      13919944704
 2017-02-04 08:41:23.129436+01 | 1486194083.12944 | pgbench_tellers  |         34455552
 2017-02-04 08:41:23.129436+01 | 1486194083.12944 | pgbench_history  |        102604800
 2017-02-04 08:41:23.129436+01 | 1486194083.12944 | pgbench_branches |         10772480

 2017-02-04 08:41:24.218624+01 | 1486194084.21862 | pgbench_accounts |      13919944704
 2017-02-04 08:41:24.218624+01 | 1486194084.21862 | pgbench_tellers  |         34455552
 2017-02-04 08:41:24.218624+01 | 1486194084.21862 | pgbench_history  |        104595456
 2017-02-04 08:41:24.218624+01 | 1486194084.21862 | pgbench_branches |         10772480

 2017-02-04 08:41:25.30401+01 | 1486194085.30401 | pgbench_accounts |      13919944704
 2017-02-04 08:41:25.30401+01 | 1486194085.30401 | pgbench_tellers  |         34455552
 2017-02-04 08:41:25.30401+01 | 1486194085.30401 | pgbench_history  |        106610688
 2017-02-04 08:41:25.30401+01 | 1486194085.30401 | pgbench_branches |         10772480

 2017-02-04 08:41:26.385743+01 | 1486194086.38574 | pgbench_accounts |      13919944704
 2017-02-04 08:41:26.385743+01 | 1486194086.38574 | pgbench_tellers  |         34455552
 2017-02-04 08:41:26.385743+01 | 1486194086.38574 | pgbench_history  |        108306432
 2017-02-04 08:41:26.385743+01 | 1486194086.38574 | pgbench_branches |         10772480

 2017-02-04 08:41:27.465268+01 | 1486194087.46527 | pgbench_accounts |      13919944704
 2017-02-04 08:41:27.465268+01 | 1486194087.46527 | pgbench_tellers  |         34455552
 2017-02-04 08:41:27.465268+01 | 1486194087.46527 | pgbench_history  |        110133248
 2017-02-04 08:41:27.465268+01 | 1486194087.46527 | pgbench_branches |         10772480

 2017-02-04 08:41:28.533561+01 | 1486194088.53356 | pgbench_accounts |      13919944704
 2017-02-04 08:41:28.533561+01 | 1486194088.53356 | pgbench_tellers  |         34455552
 2017-02-04 08:41:28.533561+01 | 1486194088.53356 | pgbench_history  |        112803840
 2017-02-04 08:41:28.533561+01 | 1486194088.53356 | pgbench_branches |         10772480

 2017-02-04 08:41:29.603649+01 | 1486194089.60365 | pgbench_accounts |      13919944704
 2017-02-04 08:41:29.603649+01 | 1486194089.60365 | pgbench_tellers  |         34455552
 2017-02-04 08:41:29.603649+01 | 1486194089.60365 | pgbench_history  |        113319936
 2017-02-04 08:41:29.603649+01 | 1486194089.60365 | pgbench_branches |         10772480

 2017-02-04 08:41:30.694576+01 | 1486194090.69458 | pgbench_accounts |      13919944704
 2017-02-04 08:41:30.694576+01 | 1486194090.69458 | pgbench_tellers  |         34455552
 2017-02-04 08:41:30.694576+01 | 1486194090.69458 | pgbench_history  |        115572736
 2017-02-04 08:41:30.694576+01 | 1486194090.69458 | pgbench_branches |         10772480

 2017-02-04 08:41:31.784127+01 | 1486194091.78413 | pgbench_accounts |      13919944704
 2017-02-04 08:41:31.784127+01 | 1486194091.78413 | pgbench_tellers  |         34455552
 2017-02-04 08:41:31.784127+01 | 1486194091.78413 | pgbench_history  |        116785152
 2017-02-04 08:41:31.784127+01 | 1486194091.78413 | pgbench_branches |         10772480

 2017-02-04 08:41:32.878446+01 | 1486194092.87845 | pgbench_accounts |      13919944704
 2017-02-04 08:41:32.878446+01 | 1486194092.87845 | pgbench_tellers  |         34455552
 2017-02-04 08:41:32.878446+01 | 1486194092.87845 | pgbench_history  |        118538240
 2017-02-04 08:41:32.878446+01 | 1486194092.87845 | pgbench_branches |         10772480

 2017-02-04 08:41:33.965353+01 | 1486194093.96535 | pgbench_accounts |      13919944704
 2017-02-04 08:41:33.965353+01 | 1486194093.96535 | pgbench_tellers  |         34455552
 2017-02-04 08:41:33.965353+01 | 1486194093.96535 | pgbench_history  |        120692736
 2017-02-04 08:41:33.965353+01 | 1486194093.96535 | pgbench_branches |         10772480

 2017-02-04 08:41:35.042328+01 | 1486194095.04233 | pgbench_accounts |      13919944704
 2017-02-04 08:41:35.042328+01 | 1486194095.04233 | pgbench_tellers  |         34455552
 2017-02-04 08:41:35.042328+01 | 1486194095.04233 | pgbench_history  |        122380288
 2017-02-04 08:41:35.042328+01 | 1486194095.04233 | pgbench_branches |         10772480

 2017-02-04 08:41:36.127462+01 | 1486194096.12746 | pgbench_accounts |      13919944704
 2017-02-04 08:41:36.127462+01 | 1486194096.12746 | pgbench_tellers  |         34455552
 2017-02-04 08:41:36.127462+01 | 1486194096.12746 | pgbench_history  |        124239872
 2017-02-04 08:41:36.127462+01 | 1486194096.12746 | pgbench_branches |         10772480

 2017-02-04 08:41:37.21833+01 | 1486194097.21833 | pgbench_accounts |      13919944704
 2017-02-04 08:41:37.21833+01 | 1486194097.21833 | pgbench_tellers  |         34455552
 2017-02-04 08:41:37.21833+01 | 1486194097.21833 | pgbench_history  |        125902848
 2017-02-04 08:41:37.21833+01 | 1486194097.21833 | pgbench_branches |         10772480

 2017-02-04 08:41:38.311786+01 | 1486194098.31179 | pgbench_accounts |      13919944704
 2017-02-04 08:41:38.311786+01 | 1486194098.31179 | pgbench_tellers  |         34455552
 2017-02-04 08:41:38.311786+01 | 1486194098.31179 | pgbench_history  |        128106496
 2017-02-04 08:41:38.311786+01 | 1486194098.31179 | pgbench_branches |         10772480

 2017-02-04 08:41:39.392053+01 | 1486194099.39205 | pgbench_accounts |      13919944704
 2017-02-04 08:41:39.392053+01 | 1486194099.39205 | pgbench_tellers  |         34455552
 2017-02-04 08:41:39.392053+01 | 1486194099.39205 | pgbench_history  |        129835008
 2017-02-04 08:41:39.392053+01 | 1486194099.39205 | pgbench_branches |         10772480

 2017-02-04 08:41:40.472308+01 | 1486194100.47231 | pgbench_accounts |      13919944704
 2017-02-04 08:41:40.472308+01 | 1486194100.47231 | pgbench_tellers  |         34455552
 2017-02-04 08:41:40.472308+01 | 1486194100.47231 | pgbench_history  |        131579904
 2017-02-04 08:41:40.472308+01 | 1486194100.47231 | pgbench_branches |         10772480

 2017-02-04 08:41:41.558389+01 | 1486194101.55839 | pgbench_accounts |      13919944704
 2017-02-04 08:41:41.558389+01 | 1486194101.55839 | pgbench_tellers  |         34455552
 2017-02-04 08:41:41.558389+01 | 1486194101.55839 | pgbench_history  |        133652480
 2017-02-04 08:41:41.558389+01 | 1486194101.55839 | pgbench_branches |         10772480

 2017-02-04 08:41:42.651609+01 | 1486194102.65161 | pgbench_accounts |      13919944704
 2017-02-04 08:41:42.651609+01 | 1486194102.65161 | pgbench_tellers  |         34455552
 2017-02-04 08:41:42.651609+01 | 1486194102.65161 | pgbench_history  |        135364608
 2017-02-04 08:41:42.651609+01 | 1486194102.65161 | pgbench_branches |         10772480

 2017-02-04 08:41:43.733181+01 | 1486194103.73318 | pgbench_accounts |      13919944704
 2017-02-04 08:41:43.733181+01 | 1486194103.73318 | pgbench_tellers  |         34455552
 2017-02-04 08:41:43.733181+01 | 1486194103.73318 | pgbench_history  |        137240576
 2017-02-04 08:41:43.733181+01 | 1486194103.73318 | pgbench_branches |         10772480

 2017-02-04 08:41:44.809774+01 | 1486194104.80977 | pgbench_accounts |      13919944704
 2017-02-04 08:41:44.809774+01 | 1486194104.80977 | pgbench_tellers  |         34455552
 2017-02-04 08:41:44.809774+01 | 1486194104.80977 | pgbench_history  |        139255808
 2017-02-04 08:41:44.809774+01 | 1486194104.80977 | pgbench_branches |         10772480

 2017-02-04 08:41:45.895644+01 | 1486194105.89564 | pgbench_accounts |      13919944704
 2017-02-04 08:41:45.895644+01 | 1486194105.89564 | pgbench_tellers  |         34455552
 2017-02-04 08:41:45.895644+01 | 1486194105.89564 | pgbench_history  |        141115392
 2017-02-04 08:41:45.895644+01 | 1486194105.89564 | pgbench_branches |         10772480

 2017-02-04 08:41:46.98898+01 | 1486194106.98898 | pgbench_accounts |      13919944704
 2017-02-04 08:41:46.98898+01 | 1486194106.98898 | pgbench_tellers  |         34455552
 2017-02-04 08:41:46.98898+01 | 1486194106.98898 | pgbench_history  |        143597568
 2017-02-04 08:41:46.98898+01 | 1486194106.98898 | pgbench_branches |         10772480

 2017-02-04 08:41:48.071696+01 | 1486194108.0717 | pgbench_accounts |      13919944704
 2017-02-04 08:41:48.071696+01 | 1486194108.0717 | pgbench_tellers  |         34455552
 2017-02-04 08:41:48.071696+01 | 1486194108.0717 | pgbench_history  |        144113664
 2017-02-04 08:41:48.071696+01 | 1486194108.0717 | pgbench_branches |         10772480

 2017-02-04 08:41:49.17833+01 | 1486194109.17833 | pgbench_accounts |      13919944704
 2017-02-04 08:41:49.17833+01 | 1486194109.17833 | pgbench_tellers  |         34455552
 2017-02-04 08:41:49.17833+01 | 1486194109.17833 | pgbench_history  |        146595840
 2017-02-04 08:41:49.17833+01 | 1486194109.17833 | pgbench_branches |         10772480

 2017-02-04 08:41:50.259626+01 | 1486194110.25963 | pgbench_accounts |      13919944704
 2017-02-04 08:41:50.259626+01 | 1486194110.25963 | pgbench_tellers  |         34455552
 2017-02-04 08:41:50.259626+01 | 1486194110.25963 | pgbench_history  |        147767296
 2017-02-04 08:41:50.259626+01 | 1486194110.25963 | pgbench_branches |         10772480

 2017-02-04 08:41:51.333973+01 | 1486194111.33397 | pgbench_accounts |      13919944704
 2017-02-04 08:41:51.333973+01 | 1486194111.33397 | pgbench_tellers  |         34455552
 2017-02-04 08:41:51.333973+01 | 1486194111.33397 | pgbench_history  |        149798912
 2017-02-04 08:41:51.333973+01 | 1486194111.33397 | pgbench_branches |         10772480

 2017-02-04 08:41:52.414366+01 | 1486194112.41437 | pgbench_accounts |      13919944704
 2017-02-04 08:41:52.414366+01 | 1486194112.41437 | pgbench_tellers  |         34455552
 2017-02-04 08:41:52.414366+01 | 1486194112.41437 | pgbench_history  |        153477120
 2017-02-04 08:41:52.414366+01 | 1486194112.41437 | pgbench_branches |         10772480

 2017-02-04 08:41:53.49799+01 | 1486194113.49799 | pgbench_accounts |      13919944704
 2017-02-04 08:41:53.49799+01 | 1486194113.49799 | pgbench_tellers  |         34455552
 2017-02-04 08:41:53.49799+01 | 1486194113.49799 | pgbench_history  |        153477120
 2017-02-04 08:41:53.49799+01 | 1486194113.49799 | pgbench_branches |         10772480

 2017-02-04 08:41:54.580715+01 | 1486194114.58071 | pgbench_accounts |      13919944704
 2017-02-04 08:41:54.580715+01 | 1486194114.58071 | pgbench_tellers  |         34455552
 2017-02-04 08:41:54.580715+01 | 1486194114.58071 | pgbench_history  |        154861568
 2017-02-04 08:41:54.580715+01 | 1486194114.58071 | pgbench_branches |         10772480

 2017-02-04 08:41:55.664821+01 | 1486194115.66482 | pgbench_accounts |      13919944704
 2017-02-04 08:41:55.664821+01 | 1486194115.66482 | pgbench_tellers  |         34455552
 2017-02-04 08:41:55.664821+01 | 1486194115.66482 | pgbench_history  |        157564928
 2017-02-04 08:41:55.664821+01 | 1486194115.66482 | pgbench_branches |         10772480

 2017-02-04 08:41:56.720637+01 | 1486194116.72064 | pgbench_accounts |      13919944704
 2017-02-04 08:41:56.720637+01 | 1486194116.72064 | pgbench_tellers  |         34455552
 2017-02-04 08:41:56.720637+01 | 1486194116.72064 | pgbench_history  |        158629888
 2017-02-04 08:41:56.720637+01 | 1486194116.72064 | pgbench_branches |         10772480

 2017-02-04 08:41:57.808584+01 | 1486194117.80858 | pgbench_accounts |      13919944704
 2017-02-04 08:41:57.808584+01 | 1486194117.80858 | pgbench_tellers  |         34455552
 2017-02-04 08:41:57.808584+01 | 1486194117.80858 | pgbench_history  |        160292864
 2017-02-04 08:41:57.808584+01 | 1486194117.80858 | pgbench_branches |         10772480

 2017-02-04 08:41:58.891389+01 | 1486194118.89139 | pgbench_accounts |      13919944704
 2017-02-04 08:41:58.891389+01 | 1486194118.89139 | pgbench_tellers  |         34455552
 2017-02-04 08:41:58.891389+01 | 1486194118.89139 | pgbench_history  |        162471936
 2017-02-04 08:41:58.891389+01 | 1486194118.89139 | pgbench_branches |         10772480

 2017-02-04 08:41:59.972316+01 | 1486194119.97232 | pgbench_accounts |      13919944704
 2017-02-04 08:41:59.972316+01 | 1486194119.97232 | pgbench_tellers  |         34455552
 2017-02-04 08:41:59.972316+01 | 1486194119.97232 | pgbench_history  |        163315712
 2017-02-04 08:41:59.972316+01 | 1486194119.97232 | pgbench_branches |         10772480

 2017-02-04 08:42:01.064556+01 | 1486194121.06456 | pgbench_accounts |      13919944704
 2017-02-04 08:42:01.064556+01 | 1486194121.06456 | pgbench_tellers  |         34455552
 2017-02-04 08:42:01.064556+01 | 1486194121.06456 | pgbench_history  |        164896768
 2017-02-04 08:42:01.064556+01 | 1486194121.06456 | pgbench_branches |         10772480

 2017-02-04 08:42:02.1444+01 | 1486194122.1444 | pgbench_accounts |      13919944704
 2017-02-04 08:42:02.1444+01 | 1486194122.1444 | pgbench_tellers  |         34455552
 2017-02-04 08:42:02.1444+01 | 1486194122.1444 | pgbench_history  |        166821888
 2017-02-04 08:42:02.1444+01 | 1486194122.1444 | pgbench_branches |         10772480

 2017-02-04 08:42:03.222233+01 | 1486194123.22223 | pgbench_accounts |      13919944704
 2017-02-04 08:42:03.222233+01 | 1486194123.22223 | pgbench_tellers  |         34455552
 2017-02-04 08:42:03.222233+01 | 1486194123.22223 | pgbench_history  |        168181760
 2017-02-04 08:42:03.222233+01 | 1486194123.22223 | pgbench_branches |         10772480

 2017-02-04 08:42:04.298166+01 | 1486194124.29817 | pgbench_accounts |      13919944704
 2017-02-04 08:42:04.298166+01 | 1486194124.29817 | pgbench_tellers  |         34455552
 2017-02-04 08:42:04.298166+01 | 1486194124.29817 | pgbench_history  |        170196992
 2017-02-04 08:42:04.298166+01 | 1486194124.29817 | pgbench_branches |         10772480

 2017-02-04 08:42:05.384544+01 | 1486194125.38454 | pgbench_accounts |      13919944704
 2017-02-04 08:42:05.384544+01 | 1486194125.38454 | pgbench_tellers  |         34455552
 2017-02-04 08:42:05.384544+01 | 1486194125.38454 | pgbench_history  |        171720704
 2017-02-04 08:42:05.384544+01 | 1486194125.38454 | pgbench_branches |         10772480

 2017-02-04 08:42:06.456206+01 | 1486194126.45621 | pgbench_accounts |      13919944704
 2017-02-04 08:42:06.456206+01 | 1486194126.45621 | pgbench_tellers  |         34455552
 2017-02-04 08:42:06.456206+01 | 1486194126.45621 | pgbench_history  |        174227456
 2017-02-04 08:42:06.456206+01 | 1486194126.45621 | pgbench_branches |         10772480

 2017-02-04 08:42:07.53073+01 | 1486194127.53073 | pgbench_accounts |      13919944704
 2017-02-04 08:42:07.53073+01 | 1486194127.53073 | pgbench_tellers  |         34455552
 2017-02-04 08:42:07.53073+01 | 1486194127.53073 | pgbench_history  |        174317568
 2017-02-04 08:42:07.53073+01 | 1486194127.53073 | pgbench_branches |         10772480

 2017-02-04 08:42:08.613627+01 | 1486194128.61363 | pgbench_accounts |      13919944704
 2017-02-04 08:42:08.613627+01 | 1486194128.61363 | pgbench_tellers  |         34455552
 2017-02-04 08:42:08.613627+01 | 1486194128.61363 | pgbench_history  |        176431104
 2017-02-04 08:42:08.613627+01 | 1486194128.61363 | pgbench_branches |         10772480

 2017-02-04 08:42:09.694291+01 | 1486194129.69429 | pgbench_accounts |      13919944704
 2017-02-04 08:42:09.694291+01 | 1486194129.69429 | pgbench_tellers  |         34455552
 2017-02-04 08:42:09.694291+01 | 1486194129.69429 | pgbench_history  |        178257920
 2017-02-04 08:42:09.694291+01 | 1486194129.69429 | pgbench_branches |         10772480

 2017-02-04 08:42:10.783226+01 | 1486194130.78323 | pgbench_accounts |      13919944704
 2017-02-04 08:42:10.783226+01 | 1486194130.78323 | pgbench_tellers  |         34455552
 2017-02-04 08:42:10.783226+01 | 1486194130.78323 | pgbench_history  |        179429376
 2017-02-04 08:42:10.783226+01 | 1486194130.78323 | pgbench_branches |         10772480

 2017-02-04 08:42:11.881222+01 | 1486194131.88122 | pgbench_accounts |      13919944704
 2017-02-04 08:42:11.881222+01 | 1486194131.88122 | pgbench_tellers  |         34455552
 2017-02-04 08:42:11.881222+01 | 1486194131.88122 | pgbench_history  |        181985280
 2017-02-04 08:42:11.881222+01 | 1486194131.88122 | pgbench_branches |         10772480

 2017-02-04 08:42:12.964711+01 | 1486194132.96471 | pgbench_accounts |      13919944704
 2017-02-04 08:42:12.964711+01 | 1486194132.96471 | pgbench_tellers  |         34455552
 2017-02-04 08:42:12.964711+01 | 1486194132.96471 | pgbench_history  |        182534144
 2017-02-04 08:42:12.964711+01 | 1486194132.96471 | pgbench_branches |         10772480

 2017-02-04 08:42:14.047392+01 | 1486194134.04739 | pgbench_accounts |      13919944704
 2017-02-04 08:42:14.047392+01 | 1486194134.04739 | pgbench_tellers  |         34455552
 2017-02-04 08:42:14.047392+01 | 1486194134.04739 | pgbench_history  |        185368576
 2017-02-04 08:42:14.047392+01 | 1486194134.04739 | pgbench_branches |         10772480

 2017-02-04 08:42:15.133677+01 | 1486194135.13368 | pgbench_accounts |      13919944704
 2017-02-04 08:42:15.133677+01 | 1486194135.13368 | pgbench_tellers  |         34455552
 2017-02-04 08:42:15.133677+01 | 1486194135.13368 | pgbench_history  |        186441728
 2017-02-04 08:42:15.133677+01 | 1486194135.13368 | pgbench_branches |         10772480

 2017-02-04 08:42:16.219877+01 | 1486194136.21988 | pgbench_accounts |      13919944704
 2017-02-04 08:42:16.219877+01 | 1486194136.21988 | pgbench_tellers  |         34455552
 2017-02-04 08:42:16.219877+01 | 1486194136.21988 | pgbench_history  |        187940864
 2017-02-04 08:42:16.219877+01 | 1486194136.21988 | pgbench_branches |         10772480

 2017-02-04 08:42:17.306448+01 | 1486194137.30645 | pgbench_accounts |      13919944704
 2017-02-04 08:42:17.306448+01 | 1486194137.30645 | pgbench_tellers  |         34455552
 2017-02-04 08:42:17.306448+01 | 1486194137.30645 | pgbench_history  |        190144512
 2017-02-04 08:42:17.306448+01 | 1486194137.30645 | pgbench_branches |         10772480

 2017-02-04 08:42:18.38778+01 | 1486194138.38778 | pgbench_accounts |      13919944704
 2017-02-04 08:42:18.38778+01 | 1486194138.38778 | pgbench_tellers  |         34455552
 2017-02-04 08:42:18.38778+01 | 1486194138.38778 | pgbench_history  |        194125824
 2017-02-04 08:42:18.38778+01 | 1486194138.38778 | pgbench_branches |         10772480

 2017-02-04 08:42:19.46712+01 | 1486194139.46712 | pgbench_accounts |      13919944704
 2017-02-04 08:42:19.46712+01 | 1486194139.46712 | pgbench_tellers  |         34455552
 2017-02-04 08:42:19.46712+01 | 1486194139.46712 | pgbench_history  |        194125824
 2017-02-04 08:42:19.46712+01 | 1486194139.46712 | pgbench_branches |         10772480

 2017-02-04 08:42:20.548984+01 | 1486194140.54898 | pgbench_accounts |      13919944704
 2017-02-04 08:42:20.548984+01 | 1486194140.54898 | pgbench_tellers  |         34455552
 2017-02-04 08:42:20.548984+01 | 1486194140.54898 | pgbench_history  |        195788800
 2017-02-04 08:42:20.548984+01 | 1486194140.54898 | pgbench_branches |         10772480

 2017-02-04 08:42:21.623116+01 | 1486194141.62312 | pgbench_accounts |      13919944704
 2017-02-04 08:42:21.623116+01 | 1486194141.62312 | pgbench_tellers  |         34455552
 2017-02-04 08:42:21.623116+01 | 1486194141.62312 | pgbench_history  |        199278592
 2017-02-04 08:42:21.623116+01 | 1486194141.62312 | pgbench_branches |         10772480

 2017-02-04 08:42:22.700826+01 | 1486194142.70083 | pgbench_accounts |      13919944704
 2017-02-04 08:42:22.700826+01 | 1486194142.70083 | pgbench_tellers  |         34455552
 2017-02-04 08:42:22.700826+01 | 1486194142.70083 | pgbench_history  |        199278592
 2017-02-04 08:42:22.700826+01 | 1486194142.70083 | pgbench_branches |         10772480

 2017-02-04 08:42:23.7808+01 | 1486194143.7808 | pgbench_accounts |      13919944704
 2017-02-04 08:42:23.7808+01 | 1486194143.7808 | pgbench_tellers  |         34455552
 2017-02-04 08:42:23.7808+01 | 1486194143.7808 | pgbench_history  |        200974336
 2017-02-04 08:42:23.7808+01 | 1486194143.7808 | pgbench_branches |         10772480

 2017-02-04 08:42:24.874791+01 | 1486194144.87479 | pgbench_accounts |      13919944704
 2017-02-04 08:42:24.874791+01 | 1486194144.87479 | pgbench_tellers  |         34455552
 2017-02-04 08:42:24.874791+01 | 1486194144.87479 | pgbench_history  |        202309632
 2017-02-04 08:42:24.874791+01 | 1486194144.87479 | pgbench_branches |         10772480

 2017-02-04 08:42:25.958068+01 | 1486194145.95807 | pgbench_accounts |      13919944704
 2017-02-04 08:42:25.958068+01 | 1486194145.95807 | pgbench_tellers  |         34455552
 2017-02-04 08:42:25.958068+01 | 1486194145.95807 | pgbench_history  |        204349440
 2017-02-04 08:42:25.958068+01 | 1486194145.95807 | pgbench_branches |         10772480

 2017-02-04 08:42:27.036823+01 | 1486194147.03682 | pgbench_accounts |      13919944704
 2017-02-04 08:42:27.036823+01 | 1486194147.03682 | pgbench_tellers  |         34455552
 2017-02-04 08:42:27.036823+01 | 1486194147.03682 | pgbench_history  |        206610432
 2017-02-04 08:42:27.036823+01 | 1486194147.03682 | pgbench_branches |         10772480

 2017-02-04 08:42:28.115665+01 | 1486194148.11566 | pgbench_accounts |      13919944704
 2017-02-04 08:42:28.115665+01 | 1486194148.11566 | pgbench_tellers  |         34455552
 2017-02-04 08:42:28.115665+01 | 1486194148.11566 | pgbench_history  |        207659008
 2017-02-04 08:42:28.115665+01 | 1486194148.11566 | pgbench_branches |         10772480

 2017-02-04 08:42:29.191503+01 | 1486194149.1915 | pgbench_accounts |      13919944704
 2017-02-04 08:42:29.191503+01 | 1486194149.1915 | pgbench_tellers  |         34455552
 2017-02-04 08:42:29.191503+01 | 1486194149.1915 | pgbench_history  |        209674240
 2017-02-04 08:42:29.191503+01 | 1486194149.1915 | pgbench_branches |         10772480

 2017-02-04 08:42:30.275246+01 | 1486194150.27525 | pgbench_accounts |      13919944704
 2017-02-04 08:42:30.275246+01 | 1486194150.27525 | pgbench_tellers  |         34455552
 2017-02-04 08:42:30.275246+01 | 1486194150.27525 | pgbench_history  |        210870272
 2017-02-04 08:42:30.275246+01 | 1486194150.27525 | pgbench_branches |         10772480

 2017-02-04 08:42:31.351626+01 | 1486194151.35163 | pgbench_accounts |      13919944704
 2017-02-04 08:42:31.351626+01 | 1486194151.35163 | pgbench_tellers  |         34455552
 2017-02-04 08:42:31.351626+01 | 1486194151.35163 | pgbench_history  |        213065728
 2017-02-04 08:42:31.351626+01 | 1486194151.35163 | pgbench_branches |         10772480

 2017-02-04 08:42:32.433252+01 | 1486194152.43325 | pgbench_accounts |      13919944704
 2017-02-04 08:42:32.433252+01 | 1486194152.43325 | pgbench_tellers  |         34455552
 2017-02-04 08:42:32.433252+01 | 1486194152.43325 | pgbench_history  |        214671360
 2017-02-04 08:42:32.433252+01 | 1486194152.43325 | pgbench_branches |         10772480

 2017-02-04 08:42:33.516073+01 | 1486194153.51607 | pgbench_accounts |      13919944704
 2017-02-04 08:42:33.516073+01 | 1486194153.51607 | pgbench_tellers  |         34455552
 2017-02-04 08:42:33.516073+01 | 1486194153.51607 | pgbench_history  |        217202688
 2017-02-04 08:42:33.516073+01 | 1486194153.51607 | pgbench_branches |         10772480

 2017-02-04 08:42:34.599028+01 | 1486194154.59903 | pgbench_accounts |      13919944704
 2017-02-04 08:42:34.599028+01 | 1486194154.59903 | pgbench_tellers  |         34455552
 2017-02-04 08:42:34.599028+01 | 1486194154.59903 | pgbench_history  |        218562560
 2017-02-04 08:42:34.599028+01 | 1486194154.59903 | pgbench_branches |         10772480

 2017-02-04 08:42:35.680561+01 | 1486194155.68056 | pgbench_accounts |      13919944704
 2017-02-04 08:42:35.680561+01 | 1486194155.68056 | pgbench_tellers  |         34455552
 2017-02-04 08:42:35.680561+01 | 1486194155.68056 | pgbench_history  |        219758592
 2017-02-04 08:42:35.680561+01 | 1486194155.68056 | pgbench_branches |         10772480

 2017-02-04 08:42:36.766228+01 | 1486194156.76623 | pgbench_accounts |      13919944704
 2017-02-04 08:42:36.766228+01 | 1486194156.76623 | pgbench_tellers  |         34455552
 2017-02-04 08:42:36.766228+01 | 1486194156.76623 | pgbench_history  |        221962240
 2017-02-04 08:42:36.766228+01 | 1486194156.76623 | pgbench_branches |         10772480

 2017-02-04 08:42:37.855014+01 | 1486194157.85501 | pgbench_accounts |      13919944704
 2017-02-04 08:42:37.855014+01 | 1486194157.85501 | pgbench_tellers  |         34455552
 2017-02-04 08:42:37.855014+01 | 1486194157.85501 | pgbench_history  |        223494144
 2017-02-04 08:42:37.855014+01 | 1486194157.85501 | pgbench_branches |         10772480

 2017-02-04 08:42:38.937316+01 | 1486194158.93732 | pgbench_accounts |      13919944704
 2017-02-04 08:42:38.937316+01 | 1486194158.93732 | pgbench_tellers  |         34455552
 2017-02-04 08:42:38.937316+01 | 1486194158.93732 | pgbench_history  |        225091584
 2017-02-04 08:42:38.937316+01 | 1486194158.93732 | pgbench_branches |         10772480

 2017-02-04 08:42:40.017143+01 | 1486194160.01714 | pgbench_accounts |      13919944704
 2017-02-04 08:42:40.017143+01 | 1486194160.01714 | pgbench_tellers  |         34455552
 2017-02-04 08:42:40.017143+01 | 1486194160.01714 | pgbench_history  |        226836480
 2017-02-04 08:42:40.017143+01 | 1486194160.01714 | pgbench_branches |         10772480

 2017-02-04 08:42:41.10757+01 | 1486194161.10757 | pgbench_accounts |      13919944704
 2017-02-04 08:42:41.10757+01 | 1486194161.10757 | pgbench_tellers  |         34455552
 2017-02-04 08:42:41.10757+01 | 1486194161.10757 | pgbench_history  |        229015552
 2017-02-04 08:42:41.10757+01 | 1486194161.10757 | pgbench_branches |         10772480

 2017-02-04 08:42:42.188965+01 | 1486194162.18897 | pgbench_accounts |      13919944704
 2017-02-04 08:42:42.188965+01 | 1486194162.18897 | pgbench_tellers  |         34455552
 2017-02-04 08:42:42.188965+01 | 1486194162.18897 | pgbench_history  |        230547456
 2017-02-04 08:42:42.188965+01 | 1486194162.18897 | pgbench_branches |         10772480

 2017-02-04 08:42:43.279432+01 | 1486194163.27943 | pgbench_accounts |      13919944704
 2017-02-04 08:42:43.279432+01 | 1486194163.27943 | pgbench_tellers  |         34455552
 2017-02-04 08:42:43.279432+01 | 1486194163.27943 | pgbench_history  |        235118592
 2017-02-04 08:42:43.279432+01 | 1486194163.27943 | pgbench_branches |         10772480

 2017-02-04 08:42:44.367067+01 | 1486194164.36707 | pgbench_accounts |      13919944704
 2017-02-04 08:42:44.367067+01 | 1486194164.36707 | pgbench_tellers  |         34455552
 2017-02-04 08:42:44.367067+01 | 1486194164.36707 | pgbench_history  |        235118592
 2017-02-04 08:42:44.367067+01 | 1486194164.36707 | pgbench_branches |         10772480

 2017-02-04 08:42:45.45065+01 | 1486194165.45065 | pgbench_accounts |      13919944704
 2017-02-04 08:42:45.45065+01 | 1486194165.45065 | pgbench_tellers  |         34455552
 2017-02-04 08:42:45.45065+01 | 1486194165.45065 | pgbench_history  |        235503616
 2017-02-04 08:42:45.45065+01 | 1486194165.45065 | pgbench_branches |         10772480

 2017-02-04 08:42:46.534219+01 | 1486194166.53422 | pgbench_accounts |      13919944704
 2017-02-04 08:42:46.534219+01 | 1486194166.53422 | pgbench_tellers  |         34455552
 2017-02-04 08:42:46.534219+01 | 1486194166.53422 | pgbench_history  |        236519424
 2017-02-04 08:42:46.534219+01 | 1486194166.53422 | pgbench_branches |         10772480

 2017-02-04 08:42:47.600738+01 | 1486194167.60074 | pgbench_accounts |      13919944704
 2017-02-04 08:42:47.600738+01 | 1486194167.60074 | pgbench_tellers  |         34455552
 2017-02-04 08:42:47.600738+01 | 1486194167.60074 | pgbench_history  |        238280704
 2017-02-04 08:42:47.600738+01 | 1486194167.60074 | pgbench_branches |         10772480

 2017-02-04 08:42:48.67543+01 | 1486194168.67543 | pgbench_accounts |      13919944704
 2017-02-04 08:42:48.67543+01 | 1486194168.67543 | pgbench_tellers  |         34455552
 2017-02-04 08:42:48.67543+01 | 1486194168.67543 | pgbench_history  |        240132096
 2017-02-04 08:42:48.67543+01 | 1486194168.67543 | pgbench_branches |         10772480

 2017-02-04 08:42:49.752733+01 | 1486194169.75273 | pgbench_accounts |      13919944704
 2017-02-04 08:42:49.752733+01 | 1486194169.75273 | pgbench_tellers  |         34455552
 2017-02-04 08:42:49.752733+01 | 1486194169.75273 | pgbench_history  |        240648192
 2017-02-04 08:42:49.752733+01 | 1486194169.75273 | pgbench_branches |         10772480

 2017-02-04 08:42:50.829834+01 | 1486194170.82983 | pgbench_accounts |      13919944704
 2017-02-04 08:42:50.829834+01 | 1486194170.82983 | pgbench_tellers  |         34455552
 2017-02-04 08:42:50.829834+01 | 1486194170.82983 | pgbench_history  |        242171904
 2017-02-04 08:42:50.829834+01 | 1486194170.82983 | pgbench_branches |         10772480

 2017-02-04 08:42:51.915091+01 | 1486194171.91509 | pgbench_accounts |      13919944704
 2017-02-04 08:42:51.915091+01 | 1486194171.91509 | pgbench_tellers  |         34455552
 2017-02-04 08:42:51.915091+01 | 1486194171.91509 | pgbench_history  |        243531776
 2017-02-04 08:42:51.915091+01 | 1486194171.91509 | pgbench_branches |         10772480

 2017-02-04 08:42:52.999521+01 | 1486194172.99952 | pgbench_accounts |      13919944704
 2017-02-04 08:42:52.999521+01 | 1486194172.99952 | pgbench_tellers  |         34455552
 2017-02-04 08:42:52.999521+01 | 1486194172.99952 | pgbench_history  |        245612544
 2017-02-04 08:42:52.999521+01 | 1486194172.99952 | pgbench_branches |         10772480

 2017-02-04 08:42:54.077453+01 | 1486194174.07745 | pgbench_accounts |      13919944704
 2017-02-04 08:42:54.077453+01 | 1486194174.07745 | pgbench_tellers  |         34455552
 2017-02-04 08:42:54.077453+01 | 1486194174.07745 | pgbench_history  |        247136256
 2017-02-04 08:42:54.077453+01 | 1486194174.07745 | pgbench_branches |         10772480

 2017-02-04 08:42:55.158259+01 | 1486194175.15826 | pgbench_accounts |      13919944704
 2017-02-04 08:42:55.158259+01 | 1486194175.15826 | pgbench_tellers  |         34455552
 2017-02-04 08:42:55.158259+01 | 1486194175.15826 | pgbench_history  |        249831424
 2017-02-04 08:42:55.158259+01 | 1486194175.15826 | pgbench_branches |         10772480

 2017-02-04 08:42:56.249803+01 | 1486194176.2498 | pgbench_accounts |      13919944704
 2017-02-04 08:42:56.249803+01 | 1486194176.2498 | pgbench_tellers  |         34455552
 2017-02-04 08:42:56.249803+01 | 1486194176.2498 | pgbench_history  |        250347520
 2017-02-04 08:42:56.249803+01 | 1486194176.2498 | pgbench_branches |         10772480

 2017-02-04 08:42:57.322291+01 | 1486194177.32229 | pgbench_accounts |      13919944704
 2017-02-04 08:42:57.322291+01 | 1486194177.32229 | pgbench_tellers  |         34455552
 2017-02-04 08:42:57.322291+01 | 1486194177.32229 | pgbench_history  |        252223488
 2017-02-04 08:42:57.322291+01 | 1486194177.32229 | pgbench_branches |         10772480

 2017-02-04 08:42:58.393161+01 | 1486194178.39316 | pgbench_accounts |      13919944704
 2017-02-04 08:42:58.393161+01 | 1486194178.39316 | pgbench_tellers  |         34455552
 2017-02-04 08:42:58.393161+01 | 1486194178.39316 | pgbench_history  |        254107648
 2017-02-04 08:42:58.393161+01 | 1486194178.39316 | pgbench_branches |         10772480

 2017-02-04 08:42:59.471947+01 | 1486194179.47195 | pgbench_accounts |      13919944704
 2017-02-04 08:42:59.471947+01 | 1486194179.47195 | pgbench_tellers  |         34455552
 2017-02-04 08:42:59.471947+01 | 1486194179.47195 | pgbench_history  |        255500288
 2017-02-04 08:42:59.471947+01 | 1486194179.47195 | pgbench_branches |         10772480

 2017-02-04 08:43:00.552984+01 | 1486194180.55298 | pgbench_accounts |      13919944704
 2017-02-04 08:43:00.552984+01 | 1486194180.55298 | pgbench_tellers  |         34455552
 2017-02-04 08:43:00.552984+01 | 1486194180.55298 | pgbench_history  |        258220032
 2017-02-04 08:43:00.552984+01 | 1486194180.55298 | pgbench_branches |         10772480

 2017-02-04 08:43:01.636802+01 | 1486194181.6368 | pgbench_accounts |      13919944704
 2017-02-04 08:43:01.636802+01 | 1486194181.6368 | pgbench_tellers  |         34455552
 2017-02-04 08:43:01.636802+01 | 1486194181.6368 | pgbench_history  |        258220032
 2017-02-04 08:43:01.636802+01 | 1486194181.6368 | pgbench_branches |         10772480

 2017-02-04 08:43:02.715854+01 | 1486194182.71585 | pgbench_accounts |      13919944704
 2017-02-04 08:43:02.715854+01 | 1486194182.71585 | pgbench_tellers  |         34455552
 2017-02-04 08:43:02.715854+01 | 1486194182.71585 | pgbench_history  |        259932160
 2017-02-04 08:43:02.715854+01 | 1486194182.71585 | pgbench_branches |         10772480

 2017-02-04 08:43:03.790282+01 | 1486194183.79028 | pgbench_accounts |      13919944704
 2017-02-04 08:43:03.790282+01 | 1486194183.79028 | pgbench_tellers  |         34455552
 2017-02-04 08:43:03.790282+01 | 1486194183.79028 | pgbench_history  |        261128192
 2017-02-04 08:43:03.790282+01 | 1486194183.79028 | pgbench_branches |         10772480

 2017-02-04 08:43:04.869984+01 | 1486194184.86998 | pgbench_accounts |      13919944704
 2017-02-04 08:43:04.869984+01 | 1486194184.86998 | pgbench_tellers  |         34455552
 2017-02-04 08:43:04.869984+01 | 1486194184.86998 | pgbench_history  |        262168576
 2017-02-04 08:43:04.869984+01 | 1486194184.86998 | pgbench_branches |         10772480

 2017-02-04 08:43:05.942394+01 | 1486194185.94239 | pgbench_accounts |      13919944704
 2017-02-04 08:43:05.942394+01 | 1486194185.94239 | pgbench_tellers  |         34455552
 2017-02-04 08:43:05.942394+01 | 1486194185.94239 | pgbench_history  |        264052736
 2017-02-04 08:43:05.942394+01 | 1486194185.94239 | pgbench_branches |         10772480

 2017-02-04 08:43:07.016573+01 | 1486194187.01657 | pgbench_accounts |      13919944704
 2017-02-04 08:43:07.016573+01 | 1486194187.01657 | pgbench_tellers  |         34455552
 2017-02-04 08:43:07.016573+01 | 1486194187.01657 | pgbench_history  |        265625600
 2017-02-04 08:43:07.016573+01 | 1486194187.01657 | pgbench_branches |         10772480

 2017-02-04 08:43:08.092652+01 | 1486194188.09265 | pgbench_accounts |      13919944704
 2017-02-04 08:43:08.092652+01 | 1486194188.09265 | pgbench_tellers  |         34455552
 2017-02-04 08:43:08.092652+01 | 1486194188.09265 | pgbench_history  |        266821632
 2017-02-04 08:43:08.092652+01 | 1486194188.09265 | pgbench_branches |         10772480

 2017-02-04 08:43:09.178052+01 | 1486194189.17805 | pgbench_accounts |      13919944704
 2017-02-04 08:43:09.178052+01 | 1486194189.17805 | pgbench_tellers  |         34455552
 2017-02-04 08:43:09.178052+01 | 1486194189.17805 | pgbench_history  |        267829248
 2017-02-04 08:43:09.178052+01 | 1486194189.17805 | pgbench_branches |         10772480

 2017-02-04 08:43:10.261563+01 | 1486194190.26156 | pgbench_accounts |      13919944704
 2017-02-04 08:43:10.261563+01 | 1486194190.26156 | pgbench_tellers  |         34455552
 2017-02-04 08:43:10.261563+01 | 1486194190.26156 | pgbench_history  |        270671872
 2017-02-04 08:43:10.261563+01 | 1486194190.26156 | pgbench_branches |         10772480

 2017-02-04 08:43:11.341125+01 | 1486194191.34113 | pgbench_accounts |      13919944704
 2017-02-04 08:43:11.341125+01 | 1486194191.34113 | pgbench_tellers  |         34455552
 2017-02-04 08:43:11.341125+01 | 1486194191.34113 | pgbench_history  |        271843328
 2017-02-04 08:43:11.341125+01 | 1486194191.34113 | pgbench_branches |         10772480

 2017-02-04 08:43:12.430342+01 | 1486194192.43034 | pgbench_accounts |      13919944704
 2017-02-04 08:43:12.430342+01 | 1486194192.43034 | pgbench_tellers  |         34455552
 2017-02-04 08:43:12.430342+01 | 1486194192.43034 | pgbench_history  |        273694720
 2017-02-04 08:43:12.430342+01 | 1486194192.43034 | pgbench_branches |         10772480

 2017-02-04 08:43:13.504064+01 | 1486194193.50406 | pgbench_accounts |      13919944704
 2017-02-04 08:43:13.504064+01 | 1486194193.50406 | pgbench_tellers  |         34455552
 2017-02-04 08:43:13.504064+01 | 1486194193.50406 | pgbench_history  |        275054592
 2017-02-04 08:43:13.504064+01 | 1486194193.50406 | pgbench_branches |         10772480

 2017-02-04 08:43:14.592157+01 | 1486194194.59216 | pgbench_accounts |      13919944704
 2017-02-04 08:43:14.592157+01 | 1486194194.59216 | pgbench_tellers  |         34455552
 2017-02-04 08:43:14.592157+01 | 1486194194.59216 | pgbench_history  |        277118976
 2017-02-04 08:43:14.592157+01 | 1486194194.59216 | pgbench_branches |         10772480

 2017-02-04 08:43:15.684806+01 | 1486194195.68481 | pgbench_accounts |      13919944704
 2017-02-04 08:43:15.684806+01 | 1486194195.68481 | pgbench_tellers  |         34455552
 2017-02-04 08:43:15.684806+01 | 1486194195.68481 | pgbench_history  |        279134208
 2017-02-04 08:43:15.684806+01 | 1486194195.68481 | pgbench_branches |         10772480

 2017-02-04 08:43:16.769606+01 | 1486194196.76961 | pgbench_accounts |      13919944704
 2017-02-04 08:43:16.769606+01 | 1486194196.76961 | pgbench_tellers  |         34455552
 2017-02-04 08:43:16.769606+01 | 1486194196.76961 | pgbench_history  |        280797184
 2017-02-04 08:43:16.769606+01 | 1486194196.76961 | pgbench_branches |         10772480

 2017-02-04 08:43:17.841291+01 | 1486194197.84129 | pgbench_accounts |      13919944704
 2017-02-04 08:43:17.841291+01 | 1486194197.84129 | pgbench_tellers  |         34455552
 2017-02-04 08:43:17.841291+01 | 1486194197.84129 | pgbench_history  |        283492352
 2017-02-04 08:43:17.841291+01 | 1486194197.84129 | pgbench_branches |         10772480

 2017-02-04 08:43:18.914046+01 | 1486194198.91405 | pgbench_accounts |      13919944704
 2017-02-04 08:43:18.914046+01 | 1486194198.91405 | pgbench_tellers  |         34455552
 2017-02-04 08:43:18.914046+01 | 1486194198.91405 | pgbench_history  |        284172288
 2017-02-04 08:43:18.914046+01 | 1486194198.91405 | pgbench_branches |         10772480

 2017-02-04 08:43:19.992425+01 | 1486194199.99242 | pgbench_accounts |      13919944704
 2017-02-04 08:43:19.992425+01 | 1486194199.99242 | pgbench_tellers  |         34455552
 2017-02-04 08:43:19.992425+01 | 1486194199.99242 | pgbench_history  |        285859840
 2017-02-04 08:43:19.992425+01 | 1486194199.99242 | pgbench_branches |         10772480

 2017-02-04 08:43:21.074314+01 | 1486194201.07431 | pgbench_accounts |      13919944704
 2017-02-04 08:43:21.074314+01 | 1486194201.07431 | pgbench_tellers  |         34455552
 2017-02-04 08:43:21.074314+01 | 1486194201.07431 | pgbench_history  |        287956992
 2017-02-04 08:43:21.074314+01 | 1486194201.07431 | pgbench_branches |         10772480

 2017-02-04 08:43:22.154156+01 | 1486194202.15416 | pgbench_accounts |      13919944704
 2017-02-04 08:43:22.154156+01 | 1486194202.15416 | pgbench_tellers  |         34455552
 2017-02-04 08:43:22.154156+01 | 1486194202.15416 | pgbench_history  |        290062336
 2017-02-04 08:43:22.154156+01 | 1486194202.15416 | pgbench_branches |         10772480

 2017-02-04 08:43:23.226389+01 | 1486194203.22639 | pgbench_accounts |      13919944704
 2017-02-04 08:43:23.226389+01 | 1486194203.22639 | pgbench_tellers  |         34455552
 2017-02-04 08:43:23.226389+01 | 1486194203.22639 | pgbench_history  |        291446784
 2017-02-04 08:43:23.226389+01 | 1486194203.22639 | pgbench_branches |         10772480

 2017-02-04 08:43:24.312707+01 | 1486194204.31271 | pgbench_accounts |      13919944704
 2017-02-04 08:43:24.312707+01 | 1486194204.31271 | pgbench_tellers  |         34455552
 2017-02-04 08:43:24.312707+01 | 1486194204.31271 | pgbench_history  |        292831232
 2017-02-04 08:43:24.312707+01 | 1486194204.31271 | pgbench_branches |         10772480

 2017-02-04 08:43:25.392368+01 | 1486194205.39237 | pgbench_accounts |      13919944704
 2017-02-04 08:43:25.392368+01 | 1486194205.39237 | pgbench_tellers  |         34455552
 2017-02-04 08:43:25.392368+01 | 1486194205.39237 | pgbench_history  |        295198720
 2017-02-04 08:43:25.392368+01 | 1486194205.39237 | pgbench_branches |         10772480

 2017-02-04 08:43:26.469127+01 | 1486194206.46913 | pgbench_accounts |      13919944704
 2017-02-04 08:43:26.469127+01 | 1486194206.46913 | pgbench_tellers  |         34455552
 2017-02-04 08:43:26.469127+01 | 1486194206.46913 | pgbench_history  |        296722432
 2017-02-04 08:43:26.469127+01 | 1486194206.46913 | pgbench_branches |         10772480

 2017-02-04 08:43:27.5553+01 | 1486194207.5553 | pgbench_accounts |      13919944704
 2017-02-04 08:43:27.5553+01 | 1486194207.5553 | pgbench_tellers  |         34455552
 2017-02-04 08:43:27.5553+01 | 1486194207.5553 | pgbench_history  |        298811392
 2017-02-04 08:43:27.5553+01 | 1486194207.5553 | pgbench_branches |         10772480

 2017-02-04 08:43:28.636053+01 | 1486194208.63605 | pgbench_accounts |      13919944704
 2017-02-04 08:43:28.636053+01 | 1486194208.63605 | pgbench_tellers  |         34455552
 2017-02-04 08:43:28.636053+01 | 1486194208.63605 | pgbench_history  |        300662784
 2017-02-04 08:43:28.636053+01 | 1486194208.63605 | pgbench_branches |         10772480

 2017-02-04 08:43:29.72342+01 | 1486194209.72342 | pgbench_accounts |      13919944704
 2017-02-04 08:43:29.72342+01 | 1486194209.72342 | pgbench_tellers  |         34455552
 2017-02-04 08:43:29.72342+01 | 1486194209.72342 | pgbench_history  |        302546944
 2017-02-04 08:43:29.72342+01 | 1486194209.72342 | pgbench_branches |         10772480

 2017-02-04 08:43:30.799775+01 | 1486194210.79977 | pgbench_accounts |      13919944704
 2017-02-04 08:43:30.799775+01 | 1486194210.79977 | pgbench_tellers  |         34455552
 2017-02-04 08:43:30.799775+01 | 1486194210.79977 | pgbench_history  |        304422912
 2017-02-04 08:43:30.799775+01 | 1486194210.79977 | pgbench_branches |         10772480

 2017-02-04 08:43:31.869935+01 | 1486194211.86994 | pgbench_accounts |      13919944704
 2017-02-04 08:43:31.869935+01 | 1486194211.86994 | pgbench_tellers  |         34455552
 2017-02-04 08:43:31.869935+01 | 1486194211.86994 | pgbench_history  |        306470912
 2017-02-04 08:43:31.869935+01 | 1486194211.86994 | pgbench_branches |         10772480

 2017-02-04 08:43:32.947594+01 | 1486194212.94759 | pgbench_accounts |      13919944704
 2017-02-04 08:43:32.947594+01 | 1486194212.94759 | pgbench_tellers  |         34455552
 2017-02-04 08:43:32.947594+01 | 1486194212.94759 | pgbench_history  |        307519488
 2017-02-04 08:43:32.947594+01 | 1486194212.94759 | pgbench_branches |         10772480

 2017-02-04 08:43:34.02809+01 | 1486194214.02809 | pgbench_accounts |      13919944704
 2017-02-04 08:43:34.02809+01 | 1486194214.02809 | pgbench_tellers  |         34455552
 2017-02-04 08:43:34.02809+01 | 1486194214.02809 | pgbench_history  |        309067776
 2017-02-04 08:43:34.02809+01 | 1486194214.02809 | pgbench_branches |         10772480

 2017-02-04 08:43:35.11172+01 | 1486194215.11172 | pgbench_accounts |      13919944704
 2017-02-04 08:43:35.11172+01 | 1486194215.11172 | pgbench_tellers  |         34455552
 2017-02-04 08:43:35.11172+01 | 1486194215.11172 | pgbench_history  |        311107584
 2017-02-04 08:43:35.11172+01 | 1486194215.11172 | pgbench_branches |         10772480

 2017-02-04 08:43:36.18923+01 | 1486194216.18923 | pgbench_accounts |      13919944704
 2017-02-04 08:43:36.18923+01 | 1486194216.18923 | pgbench_tellers  |         34455552
 2017-02-04 08:43:36.18923+01 | 1486194216.18923 | pgbench_history  |        313163776
 2017-02-04 08:43:36.18923+01 | 1486194216.18923 | pgbench_branches |         10772480

 2017-02-04 08:43:37.263047+01 | 1486194217.26305 | pgbench_accounts |      13919944704
 2017-02-04 08:43:37.263047+01 | 1486194217.26305 | pgbench_tellers  |         34455552
 2017-02-04 08:43:37.263047+01 | 1486194217.26305 | pgbench_history  |        314744832
 2017-02-04 08:43:37.263047+01 | 1486194217.26305 | pgbench_branches |         10772480

 2017-02-04 08:43:38.34205+01 | 1486194218.34205 | pgbench_accounts |      13919944704
 2017-02-04 08:43:38.34205+01 | 1486194218.34205 | pgbench_tellers  |         34455552
 2017-02-04 08:43:38.34205+01 | 1486194218.34205 | pgbench_history  |        316481536
 2017-02-04 08:43:38.34205+01 | 1486194218.34205 | pgbench_branches |         10772480

 2017-02-04 08:43:39.430917+01 | 1486194219.43092 | pgbench_accounts |      13919944704
 2017-02-04 08:43:39.430917+01 | 1486194219.43092 | pgbench_tellers  |         34455552
 2017-02-04 08:43:39.430917+01 | 1486194219.43092 | pgbench_history  |        318881792
 2017-02-04 08:43:39.430917+01 | 1486194219.43092 | pgbench_branches |         10772480

 2017-02-04 08:43:40.52842+01 | 1486194220.52842 | pgbench_accounts |      13919944704
 2017-02-04 08:43:40.52842+01 | 1486194220.52842 | pgbench_tellers  |         34455552
 2017-02-04 08:43:40.52842+01 | 1486194220.52842 | pgbench_history  |        320544768
 2017-02-04 08:43:40.52842+01 | 1486194220.52842 | pgbench_branches |         10772480

 2017-02-04 08:43:41.607167+01 | 1486194221.60717 | pgbench_accounts |      13919944704
 2017-02-04 08:43:41.607167+01 | 1486194221.60717 | pgbench_tellers  |         34455552
 2017-02-04 08:43:41.607167+01 | 1486194221.60717 | pgbench_history  |        322109440
 2017-02-04 08:43:41.607167+01 | 1486194221.60717 | pgbench_branches |         10772480

 2017-02-04 08:43:42.683592+01 | 1486194222.68359 | pgbench_accounts |      13919944704
 2017-02-04 08:43:42.683592+01 | 1486194222.68359 | pgbench_tellers  |         34455552
 2017-02-04 08:43:42.683592+01 | 1486194222.68359 | pgbench_history  |        324452352
 2017-02-04 08:43:42.683592+01 | 1486194222.68359 | pgbench_branches |         10772480

 2017-02-04 08:43:43.771793+01 | 1486194223.77179 | pgbench_accounts |      13919944704
 2017-02-04 08:43:43.771793+01 | 1486194223.77179 | pgbench_tellers  |         34455552
 2017-02-04 08:43:43.771793+01 | 1486194223.77179 | pgbench_history  |        325296128
 2017-02-04 08:43:43.771793+01 | 1486194223.77179 | pgbench_branches |         10772480

 2017-02-04 08:43:44.853588+01 | 1486194224.85359 | pgbench_accounts |      13919944704
 2017-02-04 08:43:44.853588+01 | 1486194224.85359 | pgbench_tellers  |         34455552
 2017-02-04 08:43:44.853588+01 | 1486194224.85359 | pgbench_history  |        327360512
 2017-02-04 08:43:44.853588+01 | 1486194224.85359 | pgbench_branches |         10772480

 2017-02-04 08:43:45.939024+01 | 1486194225.93902 | pgbench_accounts |      13919944704
 2017-02-04 08:43:45.939024+01 | 1486194225.93902 | pgbench_tellers  |         34455552
 2017-02-04 08:43:45.939024+01 | 1486194225.93902 | pgbench_history  |        328761344
 2017-02-04 08:43:45.939024+01 | 1486194225.93902 | pgbench_branches |         10772480

 2017-02-04 08:43:47.024719+01 | 1486194227.02472 | pgbench_accounts |      13919944704
 2017-02-04 08:43:47.024719+01 | 1486194227.02472 | pgbench_tellers  |         34455552
 2017-02-04 08:43:47.024719+01 | 1486194227.02472 | pgbench_history  |        330473472
 2017-02-04 08:43:47.024719+01 | 1486194227.02472 | pgbench_branches |         10772480

 2017-02-04 08:43:48.106346+01 | 1486194228.10635 | pgbench_accounts |      13919944704
 2017-02-04 08:43:48.106346+01 | 1486194228.10635 | pgbench_tellers  |         34455552
 2017-02-04 08:43:48.106346+01 | 1486194228.10635 | pgbench_history  |        332816384
 2017-02-04 08:43:48.106346+01 | 1486194228.10635 | pgbench_branches |         10772480

 2017-02-04 08:43:49.176327+01 | 1486194229.17633 | pgbench_accounts |      13919944704
 2017-02-04 08:43:49.176327+01 | 1486194229.17633 | pgbench_tellers  |         34455552
 2017-02-04 08:43:49.176327+01 | 1486194229.17633 | pgbench_history  |        335020032
 2017-02-04 08:43:49.176327+01 | 1486194229.17633 | pgbench_branches |         10772480

 2017-02-04 08:43:50.258026+01 | 1486194230.25803 | pgbench_accounts |      13919944704
 2017-02-04 08:43:50.258026+01 | 1486194230.25803 | pgbench_tellers  |         34455552
 2017-02-04 08:43:50.258026+01 | 1486194230.25803 | pgbench_history  |        336543744
 2017-02-04 08:43:50.258026+01 | 1486194230.25803 | pgbench_branches |         10772480

 2017-02-04 08:43:51.350074+01 | 1486194231.35007 | pgbench_accounts |      13919944704
 2017-02-04 08:43:51.350074+01 | 1486194231.35007 | pgbench_tellers  |         34455552
 2017-02-04 08:43:51.350074+01 | 1486194231.35007 | pgbench_history  |        337952768
 2017-02-04 08:43:51.350074+01 | 1486194231.35007 | pgbench_branches |         10772480

 2017-02-04 08:43:52.430006+01 | 1486194232.43001 | pgbench_accounts |      13919944704
 2017-02-04 08:43:52.430006+01 | 1486194232.43001 | pgbench_tellers  |         34455552
 2017-02-04 08:43:52.430006+01 | 1486194232.43001 | pgbench_history  |        340000768
 2017-02-04 08:43:52.430006+01 | 1486194232.43001 | pgbench_branches |         10772480

 2017-02-04 08:43:53.521118+01 | 1486194233.52112 | pgbench_accounts |      13919944704
 2017-02-04 08:43:53.521118+01 | 1486194233.52112 | pgbench_tellers  |         34455552
 2017-02-04 08:43:53.521118+01 | 1486194233.52112 | pgbench_history  |        341336064
 2017-02-04 08:43:53.521118+01 | 1486194233.52112 | pgbench_branches |         10772480

 2017-02-04 08:43:54.598078+01 | 1486194234.59808 | pgbench_accounts |      13919944704
 2017-02-04 08:43:54.598078+01 | 1486194234.59808 | pgbench_tellers  |         34455552
 2017-02-04 08:43:54.598078+01 | 1486194234.59808 | pgbench_history  |        343048192
 2017-02-04 08:43:54.598078+01 | 1486194234.59808 | pgbench_branches |         10772480

 2017-02-04 08:43:55.692635+01 | 1486194235.69264 | pgbench_accounts |      13919944704
 2017-02-04 08:43:55.692635+01 | 1486194235.69264 | pgbench_tellers  |         34455552
 2017-02-04 08:43:55.692635+01 | 1486194235.69264 | pgbench_history  |        345096192
 2017-02-04 08:43:55.692635+01 | 1486194235.69264 | pgbench_branches |         10772480

 2017-02-04 08:43:56.769107+01 | 1486194236.76911 | pgbench_accounts |      13919944704
 2017-02-04 08:43:56.769107+01 | 1486194236.76911 | pgbench_tellers  |         34455552
 2017-02-04 08:43:56.769107+01 | 1486194236.76911 | pgbench_history  |        346480640
 2017-02-04 08:43:56.769107+01 | 1486194236.76911 | pgbench_branches |         10772480

 2017-02-04 08:43:57.848616+01 | 1486194237.84862 | pgbench_accounts |      13919944704
 2017-02-04 08:43:57.848616+01 | 1486194237.84862 | pgbench_tellers  |         34455552
 2017-02-04 08:43:57.848616+01 | 1486194237.84862 | pgbench_history  |        348495872
 2017-02-04 08:43:57.848616+01 | 1486194237.84862 | pgbench_branches |         10772480

 2017-02-04 08:43:58.915489+01 | 1486194238.91549 | pgbench_accounts |      13919944704
 2017-02-04 08:43:58.915489+01 | 1486194238.91549 | pgbench_tellers  |         34455552
 2017-02-04 08:43:58.915489+01 | 1486194238.91549 | pgbench_history  |        350519296
 2017-02-04 08:43:58.915489+01 | 1486194238.91549 | pgbench_branches |         10772480

 2017-02-04 08:43:59.992819+01 | 1486194239.99282 | pgbench_accounts |      13919944704
 2017-02-04 08:43:59.992819+01 | 1486194239.99282 | pgbench_tellers  |         34455552
 2017-02-04 08:43:59.992819+01 | 1486194239.99282 | pgbench_history  |        352206848
 2017-02-04 08:43:59.992819+01 | 1486194239.99282 | pgbench_branches |         10772480

 2017-02-04 08:44:01.071294+01 | 1486194241.07129 | pgbench_accounts |      13919944704
 2017-02-04 08:44:01.071294+01 | 1486194241.07129 | pgbench_tellers  |         34455552
 2017-02-04 08:44:01.071294+01 | 1486194241.07129 | pgbench_history  |        354000896
 2017-02-04 08:44:01.071294+01 | 1486194241.07129 | pgbench_branches |         10772480

 2017-02-04 08:44:02.163991+01 | 1486194242.16399 | pgbench_accounts |      13919944704
 2017-02-04 08:44:02.163991+01 | 1486194242.16399 | pgbench_tellers  |         34455552
 2017-02-04 08:44:02.163991+01 | 1486194242.16399 | pgbench_history  |        355360768
 2017-02-04 08:44:02.163991+01 | 1486194242.16399 | pgbench_branches |         10772480

 2017-02-04 08:44:03.248718+01 | 1486194243.24872 | pgbench_accounts |      13919944704
 2017-02-04 08:44:03.248718+01 | 1486194243.24872 | pgbench_tellers  |         34455552
 2017-02-04 08:44:03.248718+01 | 1486194243.24872 | pgbench_history  |        357138432
 2017-02-04 08:44:03.248718+01 | 1486194243.24872 | pgbench_branches |         10772480

 2017-02-04 08:44:04.332696+01 | 1486194244.3327 | pgbench_accounts |      13919944704
 2017-02-04 08:44:04.332696+01 | 1486194244.3327 | pgbench_tellers  |         34455552
 2017-02-04 08:44:04.332696+01 | 1486194244.3327 | pgbench_history  |        358367232
 2017-02-04 08:44:04.332696+01 | 1486194244.3327 | pgbench_branches |         10772480

 2017-02-04 08:44:05.433205+01 | 1486194245.4332 | pgbench_accounts |      13919944704
 2017-02-04 08:44:05.433205+01 | 1486194245.4332 | pgbench_tellers  |         34455552
 2017-02-04 08:44:05.433205+01 | 1486194245.4332 | pgbench_history  |        360079360
 2017-02-04 08:44:05.433205+01 | 1486194245.4332 | pgbench_branches |         10772480

 2017-02-04 08:44:06.523593+01 | 1486194246.52359 | pgbench_accounts |      13919944704
 2017-02-04 08:44:06.523593+01 | 1486194246.52359 | pgbench_tellers  |         34455552
 2017-02-04 08:44:06.523593+01 | 1486194246.52359 | pgbench_history  |        361996288
 2017-02-04 08:44:06.523593+01 | 1486194246.52359 | pgbench_branches |         10772480

 2017-02-04 08:44:07.611538+01 | 1486194247.61154 | pgbench_accounts |      13919944704
 2017-02-04 08:44:07.611538+01 | 1486194247.61154 | pgbench_tellers  |         34455552
 2017-02-04 08:44:07.611538+01 | 1486194247.61154 | pgbench_history  |        363208704
 2017-02-04 08:44:07.611538+01 | 1486194247.61154 | pgbench_branches |         10772480

 2017-02-04 08:44:08.694274+01 | 1486194248.69427 | pgbench_accounts |      13919944704
 2017-02-04 08:44:08.694274+01 | 1486194248.69427 | pgbench_tellers  |         34455552
 2017-02-04 08:44:08.694274+01 | 1486194248.69427 | pgbench_history  |        364388352
 2017-02-04 08:44:08.694274+01 | 1486194248.69427 | pgbench_branches |         13090816

 2017-02-04 08:44:09.767199+01 | 1486194249.7672 | pgbench_accounts |      13919944704
 2017-02-04 08:44:09.767199+01 | 1486194249.7672 | pgbench_tellers  |         34455552
 2017-02-04 08:44:09.767199+01 | 1486194249.7672 | pgbench_history  |        365854720
 2017-02-04 08:44:09.767199+01 | 1486194249.7672 | pgbench_branches |         13090816

 2017-02-04 08:44:10.855061+01 | 1486194250.85506 | pgbench_accounts |      13919944704
 2017-02-04 08:44:10.855061+01 | 1486194250.85506 | pgbench_tellers  |         34455552
 2017-02-04 08:44:10.855061+01 | 1486194250.85506 | pgbench_history  |        368525312
 2017-02-04 08:44:10.855061+01 | 1486194250.85506 | pgbench_branches |         13090816

 2017-02-04 08:44:11.936323+01 | 1486194251.93632 | pgbench_accounts |      13919944704
 2017-02-04 08:44:11.936323+01 | 1486194251.93632 | pgbench_tellers  |         34455552
 2017-02-04 08:44:11.936323+01 | 1486194251.93632 | pgbench_history  |        369885184
 2017-02-04 08:44:11.936323+01 | 1486194251.93632 | pgbench_branches |         13090816

 2017-02-04 08:44:13.022448+01 | 1486194253.02245 | pgbench_accounts |      13919944704
 2017-02-04 08:44:13.022448+01 | 1486194253.02245 | pgbench_tellers  |         34455552
 2017-02-04 08:44:13.022448+01 | 1486194253.02245 | pgbench_history  |        371081216
 2017-02-04 08:44:13.022448+01 | 1486194253.02245 | pgbench_branches |         13090816

 2017-02-04 08:44:14.098276+01 | 1486194254.09828 | pgbench_accounts |      13919944704
 2017-02-04 08:44:14.098276+01 | 1486194254.09828 | pgbench_tellers  |         34455552
 2017-02-04 08:44:14.098276+01 | 1486194254.09828 | pgbench_history  |        373145600
 2017-02-04 08:44:14.098276+01 | 1486194254.09828 | pgbench_branches |         13090816

 2017-02-04 08:44:15.176207+01 | 1486194255.17621 | pgbench_accounts |      13919944704
 2017-02-04 08:44:15.176207+01 | 1486194255.17621 | pgbench_tellers  |         34455552
 2017-02-04 08:44:15.176207+01 | 1486194255.17621 | pgbench_history  |        374833152
 2017-02-04 08:44:15.176207+01 | 1486194255.17621 | pgbench_branches |         13090816

 2017-02-04 08:44:16.260824+01 | 1486194256.26082 | pgbench_accounts |      13919944704
 2017-02-04 08:44:16.260824+01 | 1486194256.26082 | pgbench_tellers  |         34455552
 2017-02-04 08:44:16.260824+01 | 1486194256.26082 | pgbench_history  |        376791040
 2017-02-04 08:44:16.260824+01 | 1486194256.26082 | pgbench_branches |         13090816

 2017-02-04 08:44:17.34174+01 | 1486194257.34174 | pgbench_accounts |      13919944704
 2017-02-04 08:44:17.34174+01 | 1486194257.34174 | pgbench_tellers  |         34455552
 2017-02-04 08:44:17.34174+01 | 1486194257.34174 | pgbench_history  |        378503168
 2017-02-04 08:44:17.34174+01 | 1486194257.34174 | pgbench_branches |         13090816

 2017-02-04 08:44:18.417947+01 | 1486194258.41795 | pgbench_accounts |      13919944704
 2017-02-04 08:44:18.417947+01 | 1486194258.41795 | pgbench_tellers  |         34455552
 2017-02-04 08:44:18.417947+01 | 1486194258.41795 | pgbench_history  |        380329984
 2017-02-04 08:44:18.417947+01 | 1486194258.41795 | pgbench_branches |         13090816

 2017-02-04 08:44:19.495399+01 | 1486194259.4954 | pgbench_accounts |      13919944704
 2017-02-04 08:44:19.495399+01 | 1486194259.4954 | pgbench_tellers  |         34455552
 2017-02-04 08:44:19.495399+01 | 1486194259.4954 | pgbench_history  |        382566400
 2017-02-04 08:44:19.495399+01 | 1486194259.4954 | pgbench_branches |         13090816

 2017-02-04 08:44:20.57909+01 | 1486194260.57909 | pgbench_accounts |      13919944704
 2017-02-04 08:44:20.57909+01 | 1486194260.57909 | pgbench_tellers  |         34455552
 2017-02-04 08:44:20.57909+01 | 1486194260.57909 | pgbench_history  |        383950848
 2017-02-04 08:44:20.57909+01 | 1486194260.57909 | pgbench_branches |         13090816

 2017-02-04 08:44:21.657247+01 | 1486194261.65725 | pgbench_accounts |      13919944704
 2017-02-04 08:44:21.657247+01 | 1486194261.65725 | pgbench_tellers  |         34455552
 2017-02-04 08:44:21.657247+01 | 1486194261.65725 | pgbench_history  |        385802240
 2017-02-04 08:44:21.657247+01 | 1486194261.65725 | pgbench_branches |         13090816

 2017-02-04 08:44:22.739923+01 | 1486194262.73992 | pgbench_accounts |      13919944704
 2017-02-04 08:44:22.739923+01 | 1486194262.73992 | pgbench_tellers  |         34455552
 2017-02-04 08:44:22.739923+01 | 1486194262.73992 | pgbench_history  |        388030464
 2017-02-04 08:44:22.739923+01 | 1486194262.73992 | pgbench_branches |         13090816

 2017-02-04 08:44:23.827576+01 | 1486194263.82758 | pgbench_accounts |      13919944704
 2017-02-04 08:44:23.827576+01 | 1486194263.82758 | pgbench_tellers  |         34455552
 2017-02-04 08:44:23.827576+01 | 1486194263.82758 | pgbench_history  |        389365760
 2017-02-04 08:44:23.827576+01 | 1486194263.82758 | pgbench_branches |         13090816

 2017-02-04 08:44:24.908869+01 | 1486194264.90887 | pgbench_accounts |      13919944704
 2017-02-04 08:44:24.908869+01 | 1486194264.90887 | pgbench_tellers  |         34455552
 2017-02-04 08:44:24.908869+01 | 1486194264.90887 | pgbench_history  |        390922240
 2017-02-04 08:44:24.908869+01 | 1486194264.90887 | pgbench_branches |         13090816

 2017-02-04 08:44:25.98712+01 | 1486194265.98712 | pgbench_accounts |      13919944704
 2017-02-04 08:44:25.98712+01 | 1486194265.98712 | pgbench_tellers  |         34455552
 2017-02-04 08:44:25.98712+01 | 1486194265.98712 | pgbench_history  |        392798208
 2017-02-04 08:44:25.98712+01 | 1486194265.98712 | pgbench_branches |         13090816

 2017-02-04 08:44:27.064416+01 | 1486194267.06442 | pgbench_accounts |      13919944704
 2017-02-04 08:44:27.064416+01 | 1486194267.06442 | pgbench_tellers  |         34455552
 2017-02-04 08:44:27.064416+01 | 1486194267.06442 | pgbench_history  |        395001856
 2017-02-04 08:44:27.064416+01 | 1486194267.06442 | pgbench_branches |         13090816

 2017-02-04 08:44:28.142552+01 | 1486194268.14255 | pgbench_accounts |      13919944704
 2017-02-04 08:44:28.142552+01 | 1486194268.14255 | pgbench_tellers  |         34455552
 2017-02-04 08:44:28.142552+01 | 1486194268.14255 | pgbench_history  |        396034048
 2017-02-04 08:44:28.142552+01 | 1486194268.14255 | pgbench_branches |         13090816

 2017-02-04 08:44:29.219243+01 | 1486194269.21924 | pgbench_accounts |      13919944704
 2017-02-04 08:44:29.219243+01 | 1486194269.21924 | pgbench_tellers  |         34455552
 2017-02-04 08:44:29.219243+01 | 1486194269.21924 | pgbench_history  |        398049280
 2017-02-04 08:44:29.219243+01 | 1486194269.21924 | pgbench_branches |         13090816

 2017-02-04 08:44:30.31079+01 | 1486194270.31079 | pgbench_accounts |      13919944704
 2017-02-04 08:44:30.31079+01 | 1486194270.31079 | pgbench_tellers  |         34455552
 2017-02-04 08:44:30.31079+01 | 1486194270.31079 | pgbench_history  |        399466496
 2017-02-04 08:44:30.31079+01 | 1486194270.31079 | pgbench_branches |         13090816

 2017-02-04 08:44:31.391799+01 | 1486194271.3918 | pgbench_accounts |      13919944704
 2017-02-04 08:44:31.391799+01 | 1486194271.3918 | pgbench_tellers  |         34455552
 2017-02-04 08:44:31.391799+01 | 1486194271.3918 | pgbench_history  |        401235968
 2017-02-04 08:44:31.391799+01 | 1486194271.3918 | pgbench_branches |         13090816

 2017-02-04 08:44:32.47163+01 | 1486194272.47163 | pgbench_accounts |      13919944704
 2017-02-04 08:44:32.47163+01 | 1486194272.47163 | pgbench_tellers  |         34455552
 2017-02-04 08:44:32.47163+01 | 1486194272.47163 | pgbench_history  |        402956288
 2017-02-04 08:44:32.47163+01 | 1486194272.47163 | pgbench_branches |         13090816

 2017-02-04 08:44:33.559801+01 | 1486194273.5598 | pgbench_accounts |      13919944704
 2017-02-04 08:44:33.559801+01 | 1486194273.5598 | pgbench_tellers  |         34455552
 2017-02-04 08:44:33.559801+01 | 1486194273.5598 | pgbench_history  |        404807680
 2017-02-04 08:44:33.559801+01 | 1486194273.5598 | pgbench_branches |         13090816

 2017-02-04 08:44:34.641826+01 | 1486194274.64183 | pgbench_accounts |      13919944704
 2017-02-04 08:44:34.641826+01 | 1486194274.64183 | pgbench_tellers  |         34455552
 2017-02-04 08:44:34.641826+01 | 1486194274.64183 | pgbench_history  |        408109056
 2017-02-04 08:44:34.641826+01 | 1486194274.64183 | pgbench_branches |         13090816

 2017-02-04 08:44:35.723414+01 | 1486194275.72341 | pgbench_accounts |      13919944704
 2017-02-04 08:44:35.723414+01 | 1486194275.72341 | pgbench_tellers  |         34455552
 2017-02-04 08:44:35.723414+01 | 1486194275.72341 | pgbench_history  |        408461312
 2017-02-04 08:44:35.723414+01 | 1486194275.72341 | pgbench_branches |         13090816

 2017-02-04 08:44:36.799295+01 | 1486194276.79929 | pgbench_accounts |      13919944704
 2017-02-04 08:44:36.799295+01 | 1486194276.79929 | pgbench_tellers  |         34455552
 2017-02-04 08:44:36.799295+01 | 1486194276.79929 | pgbench_history  |        410804224
 2017-02-04 08:44:36.799295+01 | 1486194276.79929 | pgbench_branches |         13090816

 2017-02-04 08:44:37.883295+01 | 1486194277.8833 | pgbench_accounts |      13919944704
 2017-02-04 08:44:37.883295+01 | 1486194277.8833 | pgbench_tellers  |         34455552
 2017-02-04 08:44:37.883295+01 | 1486194277.8833 | pgbench_history  |        412164096
 2017-02-04 08:44:37.883295+01 | 1486194277.8833 | pgbench_branches |         13090816

 2017-02-04 08:44:38.965697+01 | 1486194278.9657 | pgbench_accounts |      13919944704
 2017-02-04 08:44:38.965697+01 | 1486194278.9657 | pgbench_tellers  |         34455552
 2017-02-04 08:44:38.965697+01 | 1486194278.9657 | pgbench_history  |        414228480
 2017-02-04 08:44:38.965697+01 | 1486194278.9657 | pgbench_branches |         13090816

 2017-02-04 08:44:40.041377+01 | 1486194280.04138 | pgbench_accounts |      13919944704
 2017-02-04 08:44:40.041377+01 | 1486194280.04138 | pgbench_tellers  |         34455552
 2017-02-04 08:44:40.041377+01 | 1486194280.04138 | pgbench_history  |        415588352
 2017-02-04 08:44:40.041377+01 | 1486194280.04138 | pgbench_branches |         13090816

 2017-02-04 08:44:41.116501+01 | 1486194281.1165 | pgbench_accounts |      13919944704
 2017-02-04 08:44:41.116501+01 | 1486194281.1165 | pgbench_tellers  |         34455552
 2017-02-04 08:44:41.116501+01 | 1486194281.1165 | pgbench_history  |        418258944
 2017-02-04 08:44:41.116501+01 | 1486194281.1165 | pgbench_branches |         13090816

 2017-02-04 08:44:42.191428+01 | 1486194282.19143 | pgbench_accounts |      13919944704
 2017-02-04 08:44:42.191428+01 | 1486194282.19143 | pgbench_tellers  |         34455552
 2017-02-04 08:44:42.191428+01 | 1486194282.19143 | pgbench_history  |        420085760
 2017-02-04 08:44:42.191428+01 | 1486194282.19143 | pgbench_branches |         13090816

 2017-02-04 08:44:43.263474+01 | 1486194283.26347 | pgbench_accounts |      13919944704
 2017-02-04 08:44:43.263474+01 | 1486194283.26347 | pgbench_tellers  |         34455552
 2017-02-04 08:44:43.263474+01 | 1486194283.26347 | pgbench_history  |        421257216
 2017-02-04 08:44:43.263474+01 | 1486194283.26347 | pgbench_branches |         13090816

 2017-02-04 08:44:44.339945+01 | 1486194284.33995 | pgbench_accounts |      13919944704
 2017-02-04 08:44:44.339945+01 | 1486194284.33995 | pgbench_tellers  |         34455552
 2017-02-04 08:44:44.339945+01 | 1486194284.33995 | pgbench_history  |        422805504
 2017-02-04 08:44:44.339945+01 | 1486194284.33995 | pgbench_branches |         13090816

 2017-02-04 08:44:45.423086+01 | 1486194285.42309 | pgbench_accounts |      13919944704
 2017-02-04 08:44:45.423086+01 | 1486194285.42309 | pgbench_tellers  |         34455552
 2017-02-04 08:44:45.423086+01 | 1486194285.42309 | pgbench_history  |        424501248
 2017-02-04 08:44:45.423086+01 | 1486194285.42309 | pgbench_branches |         13090816

 2017-02-04 08:44:46.512889+01 | 1486194286.51289 | pgbench_accounts |      13919944704
 2017-02-04 08:44:46.512889+01 | 1486194286.51289 | pgbench_tellers  |         34455552
 2017-02-04 08:44:46.512889+01 | 1486194286.51289 | pgbench_history  |        425885696
 2017-02-04 08:44:46.512889+01 | 1486194286.51289 | pgbench_branches |         13090816

 2017-02-04 08:44:47.603888+01 | 1486194287.60389 | pgbench_accounts |      13919944704
 2017-02-04 08:44:47.603888+01 | 1486194287.60389 | pgbench_tellers  |         34455552
 2017-02-04 08:44:47.603888+01 | 1486194287.60389 | pgbench_history  |        427761664
 2017-02-04 08:44:47.603888+01 | 1486194287.60389 | pgbench_branches |         13090816

 2017-02-04 08:44:48.693158+01 | 1486194288.69316 | pgbench_accounts |      13919944704
 2017-02-04 08:44:48.693158+01 | 1486194288.69316 | pgbench_tellers  |         34455552
 2017-02-04 08:44:48.693158+01 | 1486194288.69316 | pgbench_history  |        429309952
 2017-02-04 08:44:48.693158+01 | 1486194288.69316 | pgbench_branches |         13090816

 2017-02-04 08:44:49.782387+01 | 1486194289.78239 | pgbench_accounts |      13919944704
 2017-02-04 08:44:49.782387+01 | 1486194289.78239 | pgbench_tellers  |         34455552
 2017-02-04 08:44:49.782387+01 | 1486194289.78239 | pgbench_history  |        430997504
 2017-02-04 08:44:49.782387+01 | 1486194289.78239 | pgbench_branches |         13090816

 2017-02-04 08:44:50.873354+01 | 1486194290.87335 | pgbench_accounts |      13919944704
 2017-02-04 08:44:50.873354+01 | 1486194290.87335 | pgbench_tellers  |         34455552
 2017-02-04 08:44:50.873354+01 | 1486194290.87335 | pgbench_history  |        432521216
 2017-02-04 08:44:50.873354+01 | 1486194290.87335 | pgbench_branches |         13090816

 2017-02-04 08:44:51.954827+01 | 1486194291.95483 | pgbench_accounts |      13919944704
 2017-02-04 08:44:51.954827+01 | 1486194291.95483 | pgbench_tellers  |         34455552
 2017-02-04 08:44:51.954827+01 | 1486194291.95483 | pgbench_history  |        434397184
 2017-02-04 08:44:51.954827+01 | 1486194291.95483 | pgbench_branches |         13090816

 2017-02-04 08:44:53.036656+01 | 1486194293.03666 | pgbench_accounts |      13919944704
 2017-02-04 08:44:53.036656+01 | 1486194293.03666 | pgbench_tellers  |         34455552
 2017-02-04 08:44:53.036656+01 | 1486194293.03666 | pgbench_history  |        436305920
 2017-02-04 08:44:53.036656+01 | 1486194293.03666 | pgbench_branches |         13090816

 2017-02-04 08:44:54.117737+01 | 1486194294.11774 | pgbench_accounts |      13919944704
 2017-02-04 08:44:54.117737+01 | 1486194294.11774 | pgbench_tellers  |         34455552
 2017-02-04 08:44:54.117737+01 | 1486194294.11774 | pgbench_history  |        438091776
 2017-02-04 08:44:54.117737+01 | 1486194294.11774 | pgbench_branches |         13090816

 2017-02-04 08:44:55.211399+01 | 1486194295.2114 | pgbench_accounts |      13919944704
 2017-02-04 08:44:55.211399+01 | 1486194295.2114 | pgbench_tellers  |         34455552
 2017-02-04 08:44:55.211399+01 | 1486194295.2114 | pgbench_history  |        439967744
 2017-02-04 08:44:55.211399+01 | 1486194295.2114 | pgbench_branches |         13090816

 2017-02-04 08:44:56.289478+01 | 1486194296.28948 | pgbench_accounts |      13919944704
 2017-02-04 08:44:56.289478+01 | 1486194296.28948 | pgbench_tellers  |         34455552
 2017-02-04 08:44:56.289478+01 | 1486194296.28948 | pgbench_history  |        441507840
 2017-02-04 08:44:56.289478+01 | 1486194296.28948 | pgbench_branches |         13090816

 2017-02-04 08:44:57.354324+01 | 1486194297.35432 | pgbench_accounts |      13919944704
 2017-02-04 08:44:57.354324+01 | 1486194297.35432 | pgbench_tellers  |         34455552
 2017-02-04 08:44:57.354324+01 | 1486194297.35432 | pgbench_history  |        442875904
 2017-02-04 08:44:57.354324+01 | 1486194297.35432 | pgbench_branches |         13090816

 2017-02-04 08:44:58.433887+01 | 1486194298.43389 | pgbench_accounts |      13919944704
 2017-02-04 08:44:58.433887+01 | 1486194298.43389 | pgbench_tellers  |         34455552
 2017-02-04 08:44:58.433887+01 | 1486194298.43389 | pgbench_history  |        444137472
 2017-02-04 08:44:58.433887+01 | 1486194298.43389 | pgbench_branches |         13090816

 2017-02-04 08:44:59.520455+01 | 1486194299.52045 | pgbench_accounts |      13919944704
 2017-02-04 08:44:59.520455+01 | 1486194299.52045 | pgbench_tellers  |         34455552
 2017-02-04 08:44:59.520455+01 | 1486194299.52045 | pgbench_history  |        445857792
 2017-02-04 08:44:59.520455+01 | 1486194299.52045 | pgbench_branches |         13090816

 2017-02-04 08:45:00.595358+01 | 1486194300.59536 | pgbench_accounts |      13919944704
 2017-02-04 08:45:00.595358+01 | 1486194300.59536 | pgbench_tellers  |         34455552
 2017-02-04 08:45:00.595358+01 | 1486194300.59536 | pgbench_history  |        448012288
 2017-02-04 08:45:00.595358+01 | 1486194300.59536 | pgbench_branches |         13090816

 2017-02-04 08:45:01.670763+01 | 1486194301.67076 | pgbench_accounts |      13919944704
 2017-02-04 08:45:01.670763+01 | 1486194301.67076 | pgbench_tellers  |         34455552
 2017-02-04 08:45:01.670763+01 | 1486194301.67076 | pgbench_history  |        448012288
 2017-02-04 08:45:01.670763+01 | 1486194301.67076 | pgbench_branches |         13090816

 2017-02-04 08:45:02.761517+01 | 1486194302.76152 | pgbench_accounts |      13919944704
 2017-02-04 08:45:02.761517+01 | 1486194302.76152 | pgbench_tellers  |         34455552
 2017-02-04 08:45:02.761517+01 | 1486194302.76152 | pgbench_history  |        450707456
 2017-02-04 08:45:02.761517+01 | 1486194302.76152 | pgbench_branches |         13090816

 2017-02-04 08:45:03.848012+01 | 1486194303.84801 | pgbench_accounts |      13919944704
 2017-02-04 08:45:03.848012+01 | 1486194303.84801 | pgbench_tellers  |         34455552
 2017-02-04 08:45:03.848012+01 | 1486194303.84801 | pgbench_history  |        450707456
 2017-02-04 08:45:03.848012+01 | 1486194303.84801 | pgbench_branches |         13090816

 2017-02-04 08:45:04.932534+01 | 1486194304.93253 | pgbench_accounts |      13919944704
 2017-02-04 08:45:04.932534+01 | 1486194304.93253 | pgbench_tellers  |         34455552
 2017-02-04 08:45:04.932534+01 | 1486194304.93253 | pgbench_history  |        451903488
 2017-02-04 08:45:04.932534+01 | 1486194304.93253 | pgbench_branches |         13090816

 2017-02-04 08:45:06.020806+01 | 1486194306.02081 | pgbench_accounts |      13919944704
 2017-02-04 08:45:06.020806+01 | 1486194306.02081 | pgbench_tellers  |         34455552
 2017-02-04 08:45:06.020806+01 | 1486194306.02081 | pgbench_history  |        453509120
 2017-02-04 08:45:06.020806+01 | 1486194306.02081 | pgbench_branches |         13090816

 2017-02-04 08:45:07.10114+01 | 1486194307.10114 | pgbench_accounts |      13919944704
 2017-02-04 08:45:07.10114+01 | 1486194307.10114 | pgbench_tellers  |         34455552
 2017-02-04 08:45:07.10114+01 | 1486194307.10114 | pgbench_history  |        454565888
 2017-02-04 08:45:07.10114+01 | 1486194307.10114 | pgbench_branches |         13090816

 2017-02-04 08:45:08.187586+01 | 1486194308.18759 | pgbench_accounts |      13919944704
 2017-02-04 08:45:08.187586+01 | 1486194308.18759 | pgbench_tellers  |         34455552
 2017-02-04 08:45:08.187586+01 | 1486194308.18759 | pgbench_history  |        456310784
 2017-02-04 08:45:08.187586+01 | 1486194308.18759 | pgbench_branches |         13090816

 2017-02-04 08:45:09.262427+01 | 1486194309.26243 | pgbench_accounts |      13919944704
 2017-02-04 08:45:09.262427+01 | 1486194309.26243 | pgbench_tellers  |         34455552
 2017-02-04 08:45:09.262427+01 | 1486194309.26243 | pgbench_history  |        457523200
 2017-02-04 08:45:09.262427+01 | 1486194309.26243 | pgbench_branches |         13090816

 2017-02-04 08:45:10.340494+01 | 1486194310.34049 | pgbench_accounts |      13919944704
 2017-02-04 08:45:10.340494+01 | 1486194310.34049 | pgbench_tellers  |         34455552
 2017-02-04 08:45:10.340494+01 | 1486194310.34049 | pgbench_history  |        459939840
 2017-02-04 08:45:10.340494+01 | 1486194310.34049 | pgbench_branches |         13090816

 2017-02-04 08:45:11.424704+01 | 1486194311.4247 | pgbench_accounts |      13919944704
 2017-02-04 08:45:11.424704+01 | 1486194311.4247 | pgbench_tellers  |         34455552
 2017-02-04 08:45:11.424704+01 | 1486194311.4247 | pgbench_history  |        460808192
 2017-02-04 08:45:11.424704+01 | 1486194311.4247 | pgbench_branches |         13090816

 2017-02-04 08:45:12.513932+01 | 1486194312.51393 | pgbench_accounts |      13919944704
 2017-02-04 08:45:12.513932+01 | 1486194312.51393 | pgbench_tellers  |         34455552
 2017-02-04 08:45:12.513932+01 | 1486194312.51393 | pgbench_history  |        463134720
 2017-02-04 08:45:12.513932+01 | 1486194312.51393 | pgbench_branches |         13090816

 2017-02-04 08:45:13.591742+01 | 1486194313.59174 | pgbench_accounts |      13919944704
 2017-02-04 08:45:13.591742+01 | 1486194313.59174 | pgbench_tellers  |         34455552
 2017-02-04 08:45:13.591742+01 | 1486194313.59174 | pgbench_history  |        465018880
 2017-02-04 08:45:13.591742+01 | 1486194313.59174 | pgbench_branches |         13090816

 2017-02-04 08:45:14.670953+01 | 1486194314.67095 | pgbench_accounts |      13919944704
 2017-02-04 08:45:14.670953+01 | 1486194314.67095 | pgbench_tellers  |         34455552
 2017-02-04 08:45:14.670953+01 | 1486194314.67095 | pgbench_history  |        467361792
 2017-02-04 08:45:14.670953+01 | 1486194314.67095 | pgbench_branches |         13090816

 2017-02-04 08:45:15.749501+01 | 1486194315.7495 | pgbench_accounts |      13919944704
 2017-02-04 08:45:15.749501+01 | 1486194315.7495 | pgbench_tellers  |         34455552
 2017-02-04 08:45:15.749501+01 | 1486194315.7495 | pgbench_history  |        468885504
 2017-02-04 08:45:15.749501+01 | 1486194315.7495 | pgbench_branches |         13090816

 2017-02-04 08:45:16.830553+01 | 1486194316.83055 | pgbench_accounts |      13919944704
 2017-02-04 08:45:16.830553+01 | 1486194316.83055 | pgbench_tellers  |         34455552
 2017-02-04 08:45:16.830553+01 | 1486194316.83055 | pgbench_history  |        469917696
 2017-02-04 08:45:16.830553+01 | 1486194316.83055 | pgbench_branches |         13090816

 2017-02-04 08:45:17.92209+01 | 1486194317.92209 | pgbench_accounts |      13919944704
 2017-02-04 08:45:17.92209+01 | 1486194317.92209 | pgbench_tellers  |         34455552
 2017-02-04 08:45:17.92209+01 | 1486194317.92209 | pgbench_history  |        471490560
 2017-02-04 08:45:17.92209+01 | 1486194317.92209 | pgbench_branches |         13090816

 2017-02-04 08:45:19.004353+01 | 1486194319.00435 | pgbench_accounts |      13919944704
 2017-02-04 08:45:19.004353+01 | 1486194319.00435 | pgbench_tellers  |         34455552
 2017-02-04 08:45:19.004353+01 | 1486194319.00435 | pgbench_history  |        473563136
 2017-02-04 08:45:19.004353+01 | 1486194319.00435 | pgbench_branches |         13090816

