 2017-02-03 11:07:05.619325+01 | 1486116425.61932 | 0/4E38A5C0               |            1312335296

 2017-02-03 11:07:06.699136+01 | 1486116426.69914 | 0/4E38A5C0               |            1312335296

 2017-02-03 11:07:07.792109+01 | 1486116427.79211 | 0/4E38A5C0               |            1312335296

 2017-02-03 11:07:08.886506+01 | 1486116428.88651 | 0/4E38A5C0               |            1312335296

 2017-02-03 11:07:09.973358+01 | 1486116429.97336 | 0/4E38A5C0               |            1312335296

 2017-02-03 11:07:11.063389+01 | 1486116431.06339 | 0/4E38A5C0               |            1312335296

 2017-02-03 11:07:12.153161+01 | 1486116432.15316 | 0/4E38A5C0               |            1312335296

 2017-02-03 11:07:13.241114+01 | 1486116433.24111 | 0/4E38A5C0               |            1312335296

 2017-02-03 11:07:14.32971+01 | 1486116434.32971 | 0/4E38A5F8               |            1312335352

 2017-02-03 11:07:15.423236+01 | 1486116435.42324 | 0/4E38A5F8               |            1312335352

 2017-02-03 11:07:16.511174+01 | 1486116436.51117 | 0/4E38A5F8               |            1312335352

 2017-02-03 11:07:17.601223+01 | 1486116437.60122 | 0/4E38A5F8               |            1312335352

 2017-02-03 11:07:18.69014+01 | 1486116438.69014 | 0/4E38A5F8               |            1312335352

 2017-02-03 11:07:19.767421+01 | 1486116439.76742 | 0/4E38A5F8               |            1312335352

 2017-02-03 11:07:20.85313+01 | 1486116440.85313 | 0/4E38A5F8               |            1312335352

 2017-02-03 11:07:21.945135+01 | 1486116441.94514 | 0/4E38A5F8               |            1312335352

 2017-02-03 11:07:23.037452+01 | 1486116443.03745 | 0/4E38A5F8               |            1312335352

 2017-02-03 11:07:24.124999+01 | 1486116444.125 | 0/4E38A5F8               |            1312335352

 2017-02-03 11:07:25.212026+01 | 1486116445.21203 | 0/4E38A5F8               |            1312335352

 2017-02-03 11:07:26.298157+01 | 1486116446.29816 | 0/4E38A5F8               |            1312335352

 2017-02-03 11:07:27.389032+01 | 1486116447.38903 | 0/4E38A5F8               |            1312335352

 2017-02-03 11:07:28.477472+01 | 1486116448.47747 | 0/4E38A5F8               |            1312335352

 2017-02-03 11:07:29.565403+01 | 1486116449.5654 | 0/4E38A5F8               |            1312335352

 2017-02-03 11:07:30.651131+01 | 1486116450.65113 | 0/4E38A5F8               |            1312335352

 2017-02-03 11:07:31.742777+01 | 1486116451.74278 | 0/4E38A5F8               |            1312335352

 2017-02-03 11:07:32.831668+01 | 1486116452.83167 | 0/4E38A5F8               |            1312335352

 2017-02-03 11:07:33.920461+01 | 1486116453.92046 | 0/4E38A5F8               |            1312335352

 2017-02-03 11:07:35.010326+01 | 1486116455.01033 | 0/4E38A5F8               |            1312335352

 2017-02-03 11:07:36.103296+01 | 1486116456.1033 | 0/4E38A5F8               |            1312335352

 2017-02-03 11:07:37.18781+01 | 1486116457.18781 | 0/4E38A5F8               |            1312335352

 2017-02-03 11:07:38.273445+01 | 1486116458.27344 | 0/4E38A5F8               |            1312335352

 2017-02-03 11:07:39.362656+01 | 1486116459.36266 | 0/4E38A5F8               |            1312335352

 2017-02-03 11:07:40.445168+01 | 1486116460.44517 | 0/4E38A5F8               |            1312335352

 2017-02-03 11:07:41.534787+01 | 1486116461.53479 | 0/4E38A5F8               |            1312335352

 2017-02-03 11:07:42.620557+01 | 1486116462.62056 | 0/4E38A5F8               |            1312335352

 2017-02-03 11:07:43.706495+01 | 1486116463.7065 | 0/4E38A5F8               |            1312335352

 2017-02-03 11:07:44.794714+01 | 1486116464.79471 | 0/4E38A5F8               |            1312335352

 2017-02-03 11:07:45.890516+01 | 1486116465.89052 | 0/4E38A5F8               |            1312335352

 2017-02-03 11:07:46.979605+01 | 1486116466.9796 | 0/4E38A5F8               |            1312335352

 2017-02-03 11:07:48.068387+01 | 1486116468.06839 | 0/4E38A5F8               |            1312335352

 2017-02-03 11:07:49.15601+01 | 1486116469.15601 | 0/4E38A5F8               |            1312335352

 2017-02-03 11:07:50.23999+01 | 1486116470.23999 | 0/4E38A5F8               |            1312335352

 2017-02-03 11:07:51.329554+01 | 1486116471.32955 | 0/4E38A5F8               |            1312335352

 2017-02-03 11:07:52.425891+01 | 1486116472.42589 | 0/4E38A5F8               |            1312335352

 2017-02-03 11:07:53.512995+01 | 1486116473.513 | 0/4E38A5F8               |            1312335352

 2017-02-03 11:07:54.600725+01 | 1486116474.60072 | 0/4E38A5F8               |            1312335352

 2017-02-03 11:07:55.693722+01 | 1486116475.69372 | 0/4E38A5F8               |            1312335352

 2017-02-03 11:07:56.784043+01 | 1486116476.78404 | 0/4E38A5F8               |            1312335352

 2017-02-03 11:07:57.871466+01 | 1486116477.87147 | 0/4E38A5F8               |            1312335352

 2017-02-03 11:07:58.963796+01 | 1486116478.9638 | 0/4E38A5F8               |            1312335352

 2017-02-03 11:08:00.048651+01 | 1486116480.04865 | 0/4E38A5F8               |            1312335352

 2017-02-03 11:08:01.135435+01 | 1486116481.13544 | 0/4E38A5F8               |            1312335352

 2017-02-03 11:08:02.219409+01 | 1486116482.21941 | 0/4E38A5F8               |            1312335352

 2017-02-03 11:08:03.306572+01 | 1486116483.30657 | 0/4E38A5F8               |            1312335352

 2017-02-03 11:08:04.396573+01 | 1486116484.39657 | 0/4E38A5F8               |            1312335352

 2017-02-03 11:08:05.487827+01 | 1486116485.48783 | 0/4E38A5F8               |            1312335352

 2017-02-03 11:08:06.575891+01 | 1486116486.57589 | 0/4E38A5F8               |            1312335352

 2017-02-03 11:08:07.666271+01 | 1486116487.66627 | 0/4E38A5F8               |            1312335352

 2017-02-03 11:08:08.755207+01 | 1486116488.75521 | 0/4E38A5F8               |            1312335352

 2017-02-03 11:08:09.844848+01 | 1486116489.84485 | 0/4E38A5F8               |            1312335352

 2017-02-03 11:08:10.934074+01 | 1486116490.93407 | 0/4E38A5F8               |            1312335352

 2017-02-03 11:08:12.004921+01 | 1486116492.00492 | 0/4E38A5F8               |            1312335352

 2017-02-03 11:08:13.095763+01 | 1486116493.09576 | 0/4E38A5F8               |            1312335352

 2017-02-03 11:08:14.184647+01 | 1486116494.18465 | 0/4E38A5F8               |            1312335352

 2017-02-03 11:08:15.272384+01 | 1486116495.27238 | 0/4E38A5F8               |            1312335352

 2017-02-03 11:08:16.357176+01 | 1486116496.35718 | 0/4E38A5F8               |            1312335352

 2017-02-03 11:08:17.448414+01 | 1486116497.44841 | 0/4E38A5F8               |            1312335352

 2017-02-03 11:08:18.535027+01 | 1486116498.53503 | 0/4E38A5F8               |            1312335352

 2017-02-03 11:08:19.619041+01 | 1486116499.61904 | 0/4E38A5F8               |            1312335352

 2017-02-03 11:08:20.711537+01 | 1486116500.71154 | 0/4E38A5F8               |            1312335352

 2017-02-03 11:08:21.799595+01 | 1486116501.7996 | 0/4E38A5F8               |            1312335352

 2017-02-03 11:08:22.889519+01 | 1486116502.88952 | 0/4E38A5F8               |            1312335352

 2017-02-03 11:08:23.98033+01 | 1486116503.98033 | 0/4E38A5F8               |            1312335352

 2017-02-03 11:08:25.06909+01 | 1486116505.06909 | 0/4E38A5F8               |            1312335352

 2017-02-03 11:08:26.157747+01 | 1486116506.15775 | 0/4E38A5F8               |            1312335352

 2017-02-03 11:08:27.243611+01 | 1486116507.24361 | 0/4E38A5F8               |            1312335352

 2017-02-03 11:08:28.328888+01 | 1486116508.32889 | 0/4E38A5F8               |            1312335352

 2017-02-03 11:08:29.420688+01 | 1486116509.42069 | 0/4E38A5F8               |            1312335352

 2017-02-03 11:08:30.510826+01 | 1486116510.51083 | 0/4E38A5F8               |            1312335352

 2017-02-03 11:08:31.611084+01 | 1486116511.61108 | 0/4E38A5F8               |            1312335352

 2017-02-03 11:08:32.704604+01 | 1486116512.7046 | 0/4E38A5F8               |            1312335352

 2017-02-03 11:08:33.795977+01 | 1486116513.79598 | 0/4E38A5F8               |            1312335352

 2017-02-03 11:08:34.882947+01 | 1486116514.88295 | 0/4E38A5F8               |            1312335352

 2017-02-03 11:08:35.983339+01 | 1486116515.98334 | 0/4E38A5F8               |            1312335352

 2017-02-03 11:08:37.067268+01 | 1486116517.06727 | 0/4E38A5F8               |            1312335352

 2017-02-03 11:08:38.155048+01 | 1486116518.15505 | 0/4E38A5F8               |            1312335352

 2017-02-03 11:08:39.241483+01 | 1486116519.24148 | 0/4E38A5F8               |            1312335352

 2017-02-03 11:08:40.326876+01 | 1486116520.32688 | 0/4E38A5F8               |            1312335352

 2017-02-03 11:08:41.414265+01 | 1486116521.41426 | 0/4E38A5F8               |            1312335352

 2017-02-03 11:08:42.499196+01 | 1486116522.4992 | 0/4E38A5F8               |            1312335352

 2017-02-03 11:08:43.581797+01 | 1486116523.5818 | 0/4E38A5F8               |            1312335352

 2017-02-03 11:08:44.673587+01 | 1486116524.67359 | 0/4E38A5F8               |            1312335352

 2017-02-03 11:08:45.764752+01 | 1486116525.76475 | 0/4E38A5F8               |            1312335352

 2017-02-03 11:08:46.856017+01 | 1486116526.85602 | 0/4E38A5F8               |            1312335352

 2017-02-03 11:08:47.947869+01 | 1486116527.94787 | 0/4E38A5F8               |            1312335352

 2017-02-03 11:08:49.038308+01 | 1486116529.03831 | 0/4E38A5F8               |            1312335352

 2017-02-03 11:08:50.126239+01 | 1486116530.12624 | 0/4E38A5F8               |            1312335352

 2017-02-03 11:08:51.21079+01 | 1486116531.21079 | 0/4E38A5F8               |            1312335352

 2017-02-03 11:08:52.301975+01 | 1486116532.30198 | 0/4E38A5F8               |            1312335352

 2017-02-03 11:08:53.395594+01 | 1486116533.39559 | 0/4E38A5F8               |            1312335352

 2017-02-03 11:08:54.484691+01 | 1486116534.48469 | 0/4E38A5F8               |            1312335352

 2017-02-03 11:08:55.569012+01 | 1486116535.56901 | 0/4E38A5F8               |            1312335352

 2017-02-03 11:08:56.662966+01 | 1486116536.66297 | 0/4E38A5F8               |            1312335352

 2017-02-03 11:08:57.754762+01 | 1486116537.75476 | 0/4E38A5F8               |            1312335352

 2017-02-03 11:08:58.846492+01 | 1486116538.84649 | 0/4E38A5F8               |            1312335352

 2017-02-03 11:08:59.928342+01 | 1486116539.92834 | 0/4E38A5F8               |            1312335352

 2017-02-03 11:09:01.021257+01 | 1486116541.02126 | 0/4E38A5F8               |            1312335352

 2017-02-03 11:09:02.108229+01 | 1486116542.10823 | 0/4E38A5F8               |            1312335352

 2017-02-03 11:09:03.201815+01 | 1486116543.20181 | 0/4E38A5F8               |            1312335352

 2017-02-03 11:09:04.285489+01 | 1486116544.28549 | 0/4E38A5F8               |            1312335352

 2017-02-03 11:09:05.367272+01 | 1486116545.36727 | 0/4E38A5F8               |            1312335352

 2017-02-03 11:09:06.456849+01 | 1486116546.45685 | 0/4E38A5F8               |            1312335352

 2017-02-03 11:09:07.545386+01 | 1486116547.54539 | 0/4E38A5F8               |            1312335352

 2017-02-03 11:09:08.638615+01 | 1486116548.63861 | 0/4E38A5F8               |            1312335352

 2017-02-03 11:09:09.727059+01 | 1486116549.72706 | 0/4E38A5F8               |            1312335352

 2017-02-03 11:09:10.821182+01 | 1486116550.82118 | 0/4E38A5F8               |            1312335352

 2017-02-03 11:09:11.901092+01 | 1486116551.90109 | 0/4E38A5F8               |            1312335352

 2017-02-03 11:09:12.991759+01 | 1486116552.99176 | 0/4E38A5F8               |            1312335352

 2017-02-03 11:09:14.082803+01 | 1486116554.0828 | 0/4E38A5F8               |            1312335352

 2017-02-03 11:09:15.171253+01 | 1486116555.17125 | 0/4E38A5F8               |            1312335352

 2017-02-03 11:09:16.256041+01 | 1486116556.25604 | 0/4E38A5F8               |            1312335352

 2017-02-03 11:09:17.345617+01 | 1486116557.34562 | 0/4E38A5F8               |            1312335352

 2017-02-03 11:09:18.441402+01 | 1486116558.4414 | 0/4E38A5F8               |            1312335352

 2017-02-03 11:09:19.528159+01 | 1486116559.52816 | 0/4E38A5F8               |            1312335352

 2017-02-03 11:09:20.616708+01 | 1486116560.61671 | 0/4E38A5F8               |            1312335352

 2017-02-03 11:09:21.711427+01 | 1486116561.71143 | 0/4E38A5F8               |            1312335352

 2017-02-03 11:09:22.80477+01 | 1486116562.80477 | 0/4E38A5F8               |            1312335352

 2017-02-03 11:09:23.891572+01 | 1486116563.89157 | 0/4E38A5F8               |            1312335352

 2017-02-03 11:09:24.982079+01 | 1486116564.98208 | 0/4E38A5F8               |            1312335352

 2017-02-03 11:09:26.074479+01 | 1486116566.07448 | 0/4E38A5F8               |            1312335352

 2017-02-03 11:09:27.161397+01 | 1486116567.1614 | 0/4E38A5F8               |            1312335352

 2017-02-03 11:09:28.25652+01 | 1486116568.25652 | 0/4E38A5F8               |            1312335352

 2017-02-03 11:09:29.350495+01 | 1486116569.3505 | 0/4E38A5F8               |            1312335352

 2017-02-03 11:09:30.439575+01 | 1486116570.43957 | 0/4E38A5F8               |            1312335352

 2017-02-03 11:09:31.524488+01 | 1486116571.52449 | 0/4E38A5F8               |            1312335352

 2017-02-03 11:09:32.615203+01 | 1486116572.6152 | 0/4E38A5F8               |            1312335352

 2017-02-03 11:09:33.709584+01 | 1486116573.70958 | 0/4E38A5F8               |            1312335352

 2017-02-03 11:09:34.800379+01 | 1486116574.80038 | 0/4E38A5F8               |            1312335352

 2017-02-03 11:09:35.888546+01 | 1486116575.88855 | 0/4E38A5F8               |            1312335352

 2017-02-03 11:09:36.980989+01 | 1486116576.98099 | 0/4E38A5F8               |            1312335352

 2017-02-03 11:09:38.067038+01 | 1486116578.06704 | 0/4E38A5F8               |            1312335352

 2017-02-03 11:09:39.156487+01 | 1486116579.15649 | 0/4E38A5F8               |            1312335352

 2017-02-03 11:09:40.244221+01 | 1486116580.24422 | 0/4E38A5F8               |            1312335352

 2017-02-03 11:09:41.330636+01 | 1486116581.33064 | 0/4E38A5F8               |            1312335352

 2017-02-03 11:09:42.422392+01 | 1486116582.42239 | 0/4E38A5F8               |            1312335352

 2017-02-03 11:09:43.510164+01 | 1486116583.51016 | 0/4E38A5F8               |            1312335352

 2017-02-03 11:09:44.603161+01 | 1486116584.60316 | 0/4E38A5F8               |            1312335352

 2017-02-03 11:09:45.690164+01 | 1486116585.69016 | 0/4E38A5F8               |            1312335352

 2017-02-03 11:09:46.777606+01 | 1486116586.77761 | 0/4E38A5F8               |            1312335352

 2017-02-03 11:09:47.863801+01 | 1486116587.8638 | 0/4E38A5F8               |            1312335352

 2017-02-03 11:09:48.956618+01 | 1486116588.95662 | 0/4E38A5F8               |            1312335352

 2017-02-03 11:09:50.049966+01 | 1486116590.04997 | 0/4E38A5F8               |            1312335352

 2017-02-03 11:09:51.138916+01 | 1486116591.13892 | 0/4E38A5F8               |            1312335352

 2017-02-03 11:09:52.225492+01 | 1486116592.22549 | 0/4E38A5F8               |            1312335352

 2017-02-03 11:09:53.314943+01 | 1486116593.31494 | 0/4E38A5F8               |            1312335352

 2017-02-03 11:09:54.401021+01 | 1486116594.40102 | 0/4E38A5F8               |            1312335352

 2017-02-03 11:09:55.491074+01 | 1486116595.49107 | 0/4E38A5F8               |            1312335352

 2017-02-03 11:09:56.583837+01 | 1486116596.58384 | 0/4E38A5F8               |            1312335352

 2017-02-03 11:09:57.671618+01 | 1486116597.67162 | 0/4E38A5F8               |            1312335352

 2017-02-03 11:09:58.765012+01 | 1486116598.76501 | 0/4E38A5F8               |            1312335352

 2017-02-03 11:09:59.853662+01 | 1486116599.85366 | 0/4E38A5F8               |            1312335352

 2017-02-03 11:10:00.946353+01 | 1486116600.94635 | 0/4E38A5F8               |            1312335352

 2017-02-03 11:10:02.034831+01 | 1486116602.03483 | 0/4E38A5F8               |            1312335352

 2017-02-03 11:10:03.127018+01 | 1486116603.12702 | 0/4E38A5F8               |            1312335352

 2017-02-03 11:10:04.217419+01 | 1486116604.21742 | 0/4E38A5F8               |            1312335352

 2017-02-03 11:10:05.31145+01 | 1486116605.31145 | 0/4E38A5F8               |            1312335352

 2017-02-03 11:10:06.40105+01 | 1486116606.40105 | 0/4E38A5F8               |            1312335352

 2017-02-03 11:10:07.492191+01 | 1486116607.49219 | 0/4E38A5F8               |            1312335352

 2017-02-03 11:10:08.584751+01 | 1486116608.58475 | 0/4E38A5F8               |            1312335352

 2017-02-03 11:10:09.683118+01 | 1486116609.68312 | 0/4E38A5F8               |            1312335352

 2017-02-03 11:10:10.776879+01 | 1486116610.77688 | 0/4E38A5F8               |            1312335352

 2017-02-03 11:10:11.856097+01 | 1486116611.8561 | 0/4E38A5F8               |            1312335352

 2017-02-03 11:10:12.946595+01 | 1486116612.94659 | 0/4E38A5F8               |            1312335352

 2017-02-03 11:10:14.036934+01 | 1486116614.03693 | 0/4E38A5F8               |            1312335352

 2017-02-03 11:10:15.125223+01 | 1486116615.12522 | 0/4E38A5F8               |            1312335352

 2017-02-03 11:10:16.212236+01 | 1486116616.21224 | 0/4E38A5F8               |            1312335352

 2017-02-03 11:10:17.300847+01 | 1486116617.30085 | 0/4E38A5F8               |            1312335352

 2017-02-03 11:10:18.389862+01 | 1486116618.38986 | 0/4E38A5F8               |            1312335352

 2017-02-03 11:10:19.484195+01 | 1486116619.48419 | 0/4E38A5F8               |            1312335352

 2017-02-03 11:10:20.57174+01 | 1486116620.57174 | 0/4E38A5F8               |            1312335352

 2017-02-03 11:10:21.65835+01 | 1486116621.65835 | 0/4E38A5F8               |            1312335352

 2017-02-03 11:10:22.751328+01 | 1486116622.75133 | 0/4E38A5F8               |            1312335352

 2017-02-03 11:10:23.842975+01 | 1486116623.84297 | 0/4E38A5F8               |            1312335352

 2017-02-03 11:10:24.934018+01 | 1486116624.93402 | 0/4E38A5F8               |            1312335352

 2017-02-03 11:10:26.021487+01 | 1486116626.02149 | 0/4E38A5F8               |            1312335352

 2017-02-03 11:10:27.109919+01 | 1486116627.10992 | 0/4E38A5F8               |            1312335352

 2017-02-03 11:10:28.197876+01 | 1486116628.19788 | 0/4E38A5F8               |            1312335352

 2017-02-03 11:10:29.285639+01 | 1486116629.28564 | 0/4E38A5F8               |            1312335352

 2017-02-03 11:10:30.365356+01 | 1486116630.36536 | 0/4E38A5F8               |            1312335352

 2017-02-03 11:10:31.45804+01 | 1486116631.45804 | 0/4E38A5F8               |            1312335352

 2017-02-03 11:10:32.549078+01 | 1486116632.54908 | 0/4E38A5F8               |            1312335352

 2017-02-03 11:10:33.63764+01 | 1486116633.63764 | 0/4E38A5F8               |            1312335352

 2017-02-03 11:10:34.729532+01 | 1486116634.72953 | 0/4E38A5F8               |            1312335352

 2017-02-03 11:10:35.817517+01 | 1486116635.81752 | 0/4E38A5F8               |            1312335352

 2017-02-03 11:10:36.908414+01 | 1486116636.90841 | 0/4E38A5F8               |            1312335352

 2017-02-03 11:10:37.994882+01 | 1486116637.99488 | 0/4E38A5F8               |            1312335352

 2017-02-03 11:10:39.082819+01 | 1486116639.08282 | 0/4E38A5F8               |            1312335352

 2017-02-03 11:10:40.170685+01 | 1486116640.17069 | 0/4E38A5F8               |            1312335352

 2017-02-03 11:10:41.26064+01 | 1486116641.26064 | 0/4E38A5F8               |            1312335352

 2017-02-03 11:10:42.347471+01 | 1486116642.34747 | 0/4E38A5F8               |            1312335352

 2017-02-03 11:10:43.433528+01 | 1486116643.43353 | 0/4E38A5F8               |            1312335352

 2017-02-03 11:10:44.524888+01 | 1486116644.52489 | 0/4E38A5F8               |            1312335352

 2017-02-03 11:10:45.619436+01 | 1486116645.61944 | 0/4E38A5F8               |            1312335352

 2017-02-03 11:10:46.704618+01 | 1486116646.70462 | 0/4E38A5F8               |            1312335352

 2017-02-03 11:10:47.801263+01 | 1486116647.80126 | 0/4E38A5F8               |            1312335352

 2017-02-03 11:10:48.897331+01 | 1486116648.89733 | 0/4E38A5F8               |            1312335352

 2017-02-03 11:10:49.99006+01 | 1486116649.99006 | 0/4E38A5F8               |            1312335352

 2017-02-03 11:10:51.079706+01 | 1486116651.07971 | 0/4E38A5F8               |            1312335352

 2017-02-03 11:10:52.167484+01 | 1486116652.16748 | 0/4E38A5F8               |            1312335352

 2017-02-03 11:10:53.251856+01 | 1486116653.25186 | 0/4E38A5F8               |            1312335352

 2017-02-03 11:10:54.343202+01 | 1486116654.3432 | 0/4E38A5F8               |            1312335352

 2017-02-03 11:10:55.429175+01 | 1486116655.42917 | 0/4E38A5F8               |            1312335352

 2017-02-03 11:10:56.519431+01 | 1486116656.51943 | 0/4E38A5F8               |            1312335352

 2017-02-03 11:10:57.606662+01 | 1486116657.60666 | 0/4E38A5F8               |            1312335352

 2017-02-03 11:10:58.699649+01 | 1486116658.69965 | 0/4E38A5F8               |            1312335352

 2017-02-03 11:10:59.786875+01 | 1486116659.78688 | 0/4E38A5F8               |            1312335352

 2017-02-03 11:11:00.877147+01 | 1486116660.87715 | 0/4E38A5F8               |            1312335352

 2017-02-03 11:11:01.964358+01 | 1486116661.96436 | 0/4E38A5F8               |            1312335352

 2017-02-03 11:11:03.056423+01 | 1486116663.05642 | 0/4E38A5F8               |            1312335352

 2017-02-03 11:11:04.147976+01 | 1486116664.14798 | 0/4E38A5F8               |            1312335352

 2017-02-03 11:11:05.235375+01 | 1486116665.23537 | 0/4E38A5F8               |            1312335352

 2017-02-03 11:11:06.323619+01 | 1486116666.32362 | 0/4E38A5F8               |            1312335352

 2017-02-03 11:11:07.407239+01 | 1486116667.40724 | 0/4E38A5F8               |            1312335352

 2017-02-03 11:11:08.496771+01 | 1486116668.49677 | 0/4E38A5F8               |            1312335352

 2017-02-03 11:11:09.584398+01 | 1486116669.5844 | 0/4E38A5F8               |            1312335352

 2017-02-03 11:11:10.673856+01 | 1486116670.67386 | 0/4E38A5F8               |            1312335352

 2017-02-03 11:11:11.745667+01 | 1486116671.74567 | 0/4E38A5F8               |            1312335352

 2017-02-03 11:11:12.831505+01 | 1486116672.83151 | 0/4E38A5F8               |            1312335352

 2017-02-03 11:11:13.920736+01 | 1486116673.92074 | 0/4E38A5F8               |            1312335352

 2017-02-03 11:11:15.01043+01 | 1486116675.01043 | 0/4E38A5F8               |            1312335352

 2017-02-03 11:11:16.101484+01 | 1486116676.10148 | 0/4E38A5F8               |            1312335352

 2017-02-03 11:11:17.186947+01 | 1486116677.18695 | 0/4E38A5F8               |            1312335352

 2017-02-03 11:11:18.276917+01 | 1486116678.27692 | 0/4E38A5F8               |            1312335352

 2017-02-03 11:11:19.365598+01 | 1486116679.3656 | 0/4E38A5F8               |            1312335352

 2017-02-03 11:11:20.450319+01 | 1486116680.45032 | 0/4E38A5F8               |            1312335352

 2017-02-03 11:11:21.547414+01 | 1486116681.54741 | 0/4E38A5F8               |            1312335352

 2017-02-03 11:11:22.642961+01 | 1486116682.64296 | 0/4E38A5F8               |            1312335352

 2017-02-03 11:11:23.741387+01 | 1486116683.74139 | 0/4E38A5F8               |            1312335352

 2017-02-03 11:11:24.835827+01 | 1486116684.83583 | 0/4E38A5F8               |            1312335352

 2017-02-03 11:11:25.934923+01 | 1486116685.93492 | 0/4E38A5F8               |            1312335352

 2017-02-03 11:11:27.023044+01 | 1486116687.02304 | 0/4E38A5F8               |            1312335352

 2017-02-03 11:11:28.113183+01 | 1486116688.11318 | 0/4E38A5F8               |            1312335352

 2017-02-03 11:11:29.204336+01 | 1486116689.20434 | 0/4E38A5F8               |            1312335352

 2017-02-03 11:11:30.295902+01 | 1486116690.2959 | 0/4E38A5F8               |            1312335352

 2017-02-03 11:11:31.382467+01 | 1486116691.38247 | 0/4E38A5F8               |            1312335352

 2017-02-03 11:11:32.467705+01 | 1486116692.46771 | 0/4E38A5F8               |            1312335352

 2017-02-03 11:11:33.555735+01 | 1486116693.55574 | 0/4E38A5F8               |            1312335352

 2017-02-03 11:11:34.645062+01 | 1486116694.64506 | 0/4E38A5F8               |            1312335352

 2017-02-03 11:11:35.734022+01 | 1486116695.73402 | 0/4E38A5F8               |            1312335352

 2017-02-03 11:11:36.820798+01 | 1486116696.8208 | 0/4E38A5F8               |            1312335352

 2017-02-03 11:11:37.91179+01 | 1486116697.91179 | 0/4E38A5F8               |            1312335352

 2017-02-03 11:11:38.999377+01 | 1486116698.99938 | 0/4E38A5F8               |            1312335352

 2017-02-03 11:11:40.089803+01 | 1486116700.0898 | 0/4E38A5F8               |            1312335352

 2017-02-03 11:11:41.18802+01 | 1486116701.18802 | 0/4E38A5F8               |            1312335352

 2017-02-03 11:11:42.273173+01 | 1486116702.27317 | 0/4E38A5F8               |            1312335352

 2017-02-03 11:11:43.360992+01 | 1486116703.36099 | 0/4E38A5F8               |            1312335352

 2017-02-03 11:11:44.449596+01 | 1486116704.4496 | 0/4E38A5F8               |            1312335352

 2017-02-03 11:11:45.540046+01 | 1486116705.54005 | 0/4E38A5F8               |            1312335352

 2017-02-03 11:11:46.625983+01 | 1486116706.62598 | 0/4E38A5F8               |            1312335352

 2017-02-03 11:11:47.710035+01 | 1486116707.71004 | 0/4E38A5F8               |            1312335352

 2017-02-03 11:11:48.797007+01 | 1486116708.79701 | 0/4E38A5F8               |            1312335352

 2017-02-03 11:11:49.882536+01 | 1486116709.88254 | 0/4E38A5F8               |            1312335352

 2017-02-03 11:11:50.970974+01 | 1486116710.97097 | 0/4E38A5F8               |            1312335352

 2017-02-03 11:11:52.064709+01 | 1486116712.06471 | 0/4E38A5F8               |            1312335352

 2017-02-03 11:11:53.153229+01 | 1486116713.15323 | 0/4E38A5F8               |            1312335352

 2017-02-03 11:11:54.248175+01 | 1486116714.24817 | 0/4E38A5F8               |            1312335352

 2017-02-03 11:11:55.336259+01 | 1486116715.33626 | 0/4E38A5F8               |            1312335352

 2017-02-03 11:11:56.429118+01 | 1486116716.42912 | 0/4E38A5F8               |            1312335352

 2017-02-03 11:11:57.518578+01 | 1486116717.51858 | 0/4E38A5F8               |            1312335352

 2017-02-03 11:11:58.608475+01 | 1486116718.60847 | 0/4E38A5F8               |            1312335352

 2017-02-03 11:11:59.697768+01 | 1486116719.69777 | 0/4E38A5F8               |            1312335352

 2017-02-03 11:12:00.789392+01 | 1486116720.78939 | 0/4E38A5F8               |            1312335352

 2017-02-03 11:12:01.883813+01 | 1486116721.88381 | 0/4E38A5F8               |            1312335352

 2017-02-03 11:12:02.973063+01 | 1486116722.97306 | 0/4E38A5F8               |            1312335352

 2017-02-03 11:12:04.063549+01 | 1486116724.06355 | 0/4E38A5F8               |            1312335352

 2017-02-03 11:12:05.155636+01 | 1486116725.15564 | 0/4E38A5F8               |            1312335352

