 2017-02-05 00:31:18.837089+01 | 1486251078.83709 |                 0 |              20 |                 29896 |                 1225 |            3542947 |             0 |                0 |          493917 |                     0 |        197895 | 2017-02-04 22:55:19.380096+01

 2017-02-05 00:31:19.940625+01 | 1486251079.94062 |                 0 |              20 |                 29896 |                 1225 |            3542947 |             0 |                0 |          493917 |                     0 |        197895 | 2017-02-04 22:55:19.380096+01

 2017-02-05 00:31:21.041121+01 | 1486251081.04112 |                 0 |              20 |                 29896 |                 1225 |            3542947 |             0 |                0 |          493917 |                     0 |        197895 | 2017-02-04 22:55:19.380096+01

 2017-02-05 00:31:22.149881+01 | 1486251082.14988 |                 0 |              20 |                 29896 |                 1225 |            3542947 |             0 |                0 |          493917 |                     0 |        197895 | 2017-02-04 22:55:19.380096+01

 2017-02-05 00:31:23.274111+01 | 1486251083.27411 |                 0 |              20 |                 29896 |                 1225 |            3542947 |             0 |                0 |          493917 |                     0 |        197895 | 2017-02-04 22:55:19.380096+01

 2017-02-05 00:31:24.38257+01 | 1486251084.38257 |                 0 |              20 |                 29896 |                 1225 |            3542947 |             0 |                0 |          493917 |                     0 |        197895 | 2017-02-04 22:55:19.380096+01

 2017-02-05 00:31:25.496889+01 | 1486251085.49689 |                 0 |              20 |                 29896 |                 1225 |            3542947 |             0 |                0 |          493917 |                     0 |        197895 | 2017-02-04 22:55:19.380096+01

 2017-02-05 00:31:26.603974+01 | 1486251086.60397 |                 0 |              20 |                 29896 |                 1225 |            3542947 |             0 |                0 |          493917 |                     0 |        197895 | 2017-02-04 22:55:19.380096+01

 2017-02-05 00:31:27.698115+01 | 1486251087.69812 |                 0 |              20 |                 29896 |                 1225 |            3542947 |             0 |                0 |          493917 |                     0 |        197895 | 2017-02-04 22:55:19.380096+01

 2017-02-05 00:31:28.802648+01 | 1486251088.80265 |                 0 |              20 |                 29896 |                 1225 |            3542947 |             0 |                0 |          493917 |                     0 |        197895 | 2017-02-04 22:55:19.380096+01

 2017-02-05 00:31:29.909476+01 | 1486251089.90948 |                 0 |              20 |                 29896 |                 1225 |            3542947 |             0 |                0 |          493917 |                     0 |        197895 | 2017-02-04 22:55:19.380096+01

 2017-02-05 00:31:31.02611+01 | 1486251091.02611 |                 0 |              20 |                 29896 |                 1225 |            3542947 |             0 |                0 |          493917 |                     0 |        197895 | 2017-02-04 22:55:19.380096+01

 2017-02-05 00:31:32.129712+01 | 1486251092.12971 |                 0 |              20 |                 29896 |                 1225 |            3542947 |             0 |                0 |          493917 |                     0 |        197895 | 2017-02-04 22:55:19.380096+01

 2017-02-05 00:31:33.234506+01 | 1486251093.23451 |                 0 |              20 |                 29896 |                 1225 |            3542947 |             0 |                0 |          493917 |                     0 |        197895 | 2017-02-04 22:55:19.380096+01

 2017-02-05 00:31:34.337177+01 | 1486251094.33718 |                 0 |              20 |                 29896 |                 1225 |            3542947 |             0 |                0 |          493917 |                     0 |        197895 | 2017-02-04 22:55:19.380096+01

 2017-02-05 00:31:35.450182+01 | 1486251095.45018 |                 0 |              20 |                 29896 |                 1225 |            3542947 |             0 |                0 |          493917 |                     0 |        197895 | 2017-02-04 22:55:19.380096+01

 2017-02-05 00:31:36.557011+01 | 1486251096.55701 |                 0 |              20 |                 29896 |                 1225 |            3542947 |             0 |                0 |          493917 |                     0 |        197895 | 2017-02-04 22:55:19.380096+01

 2017-02-05 00:31:37.653881+01 | 1486251097.65388 |                 0 |              20 |                 29896 |                 1225 |            3542947 |             0 |                0 |          493917 |                     0 |        197895 | 2017-02-04 22:55:19.380096+01

 2017-02-05 00:31:38.747823+01 | 1486251098.74782 |                 0 |              20 |                 29896 |                 1225 |            3542947 |             0 |                0 |          493917 |                     0 |        197895 | 2017-02-04 22:55:19.380096+01

 2017-02-05 00:31:39.851941+01 | 1486251099.85194 |                 0 |              20 |                 29896 |                 1225 |            3542947 |             0 |                0 |          493917 |                     0 |        197895 | 2017-02-04 22:55:19.380096+01

 2017-02-05 00:31:40.967794+01 | 1486251100.96779 |                 0 |              20 |                 29896 |                 1225 |            3542947 |             0 |                0 |          493917 |                     0 |        197895 | 2017-02-04 22:55:19.380096+01

 2017-02-05 00:31:42.066105+01 | 1486251102.0661 |                 0 |              20 |                 29896 |                 1225 |            3542947 |             0 |                0 |          493917 |                     0 |        197895 | 2017-02-04 22:55:19.380096+01

 2017-02-05 00:31:43.168657+01 | 1486251103.16866 |                 0 |              20 |                 29896 |                 1225 |            3542947 |             0 |                0 |          493917 |                     0 |        197895 | 2017-02-04 22:55:19.380096+01

 2017-02-05 00:31:44.27179+01 | 1486251104.27179 |                 0 |              20 |                 29896 |                 1225 |            3542947 |             0 |                0 |          493917 |                     0 |        197895 | 2017-02-04 22:55:19.380096+01

 2017-02-05 00:31:45.386073+01 | 1486251105.38607 |                 0 |              20 |                 29896 |                 1225 |            3542947 |             0 |                0 |          493917 |                     0 |        197895 | 2017-02-04 22:55:19.380096+01

 2017-02-05 00:31:46.490949+01 | 1486251106.49095 |                 0 |              20 |                 29896 |                 1225 |            3542947 |             0 |                0 |          493917 |                     0 |        197895 | 2017-02-04 22:55:19.380096+01

 2017-02-05 00:31:47.594066+01 | 1486251107.59407 |                 0 |              20 |                 29896 |                 1225 |            3542947 |             0 |                0 |          493917 |                     0 |        197895 | 2017-02-04 22:55:19.380096+01

 2017-02-05 00:31:48.692584+01 | 1486251108.69258 |                 0 |              20 |                 29896 |                 1225 |            3542947 |             0 |                0 |          493917 |                     0 |        197895 | 2017-02-04 22:55:19.380096+01

 2017-02-05 00:31:49.801751+01 | 1486251109.80175 |                 0 |              20 |                 29896 |                 1225 |            3542947 |             0 |                0 |          493917 |                     0 |        197895 | 2017-02-04 22:55:19.380096+01

 2017-02-05 00:31:50.915694+01 | 1486251110.91569 |                 0 |              20 |                 29896 |                 1225 |            3542947 |             0 |                0 |          493917 |                     0 |        197895 | 2017-02-04 22:55:19.380096+01

 2017-02-05 00:31:52.015131+01 | 1486251112.01513 |                 0 |              20 |                 29896 |                 1225 |            3542947 |             0 |                0 |          493917 |                     0 |        197895 | 2017-02-04 22:55:19.380096+01

 2017-02-05 00:31:53.120726+01 | 1486251113.12073 |                 0 |              20 |                 29896 |                 1225 |            3542947 |             0 |                0 |          493917 |                     0 |        197895 | 2017-02-04 22:55:19.380096+01

 2017-02-05 00:31:54.227673+01 | 1486251114.22767 |                 0 |              20 |                 29896 |                 1225 |            3542947 |             0 |                0 |          493917 |                     0 |        197895 | 2017-02-04 22:55:19.380096+01

 2017-02-05 00:31:55.341536+01 | 1486251115.34154 |                 0 |              20 |                 29896 |                 1225 |            3542947 |             0 |                0 |          493917 |                     0 |        197895 | 2017-02-04 22:55:19.380096+01

 2017-02-05 00:31:56.449324+01 | 1486251116.44932 |                 0 |              20 |                 29896 |                 1225 |            3542947 |             0 |                0 |          493917 |                     0 |        197895 | 2017-02-04 22:55:19.380096+01

 2017-02-05 00:31:57.552664+01 | 1486251117.55266 |                 0 |              20 |                 29896 |                 1225 |            3542947 |             0 |                0 |          493917 |                     0 |        197895 | 2017-02-04 22:55:19.380096+01

 2017-02-05 00:31:58.657696+01 | 1486251118.6577 |                 0 |              20 |                 29896 |                 1225 |            3542947 |             0 |                0 |          493917 |                     0 |        197895 | 2017-02-04 22:55:19.380096+01

 2017-02-05 00:31:59.744596+01 | 1486251119.7446 |                 0 |              20 |                 29896 |                 1225 |            3542947 |             0 |                0 |          493917 |                     0 |        197895 | 2017-02-04 22:55:19.380096+01

 2017-02-05 00:32:00.859882+01 | 1486251120.85988 |                 0 |              20 |                 29896 |                 1225 |            3542947 |             0 |                0 |          493917 |                     0 |        197895 | 2017-02-04 22:55:19.380096+01

 2017-02-05 00:32:01.960959+01 | 1486251121.96096 |                 0 |              20 |                 29896 |                 1225 |            3542947 |             0 |                0 |          493917 |                     0 |        197895 | 2017-02-04 22:55:19.380096+01

 2017-02-05 00:32:03.058807+01 | 1486251123.05881 |                 0 |              20 |                 29896 |                 1225 |            3542947 |             0 |                0 |          493917 |                     0 |        197895 | 2017-02-04 22:55:19.380096+01

 2017-02-05 00:32:04.161363+01 | 1486251124.16136 |                 0 |              20 |                 29896 |                 1225 |            3542947 |             0 |                0 |          493917 |                     0 |        197895 | 2017-02-04 22:55:19.380096+01

 2017-02-05 00:32:05.25191+01 | 1486251125.25191 |                 0 |              20 |                 29896 |                 1225 |            3542947 |             0 |                0 |          493917 |                     0 |        197895 | 2017-02-04 22:55:19.380096+01

 2017-02-05 00:32:06.351524+01 | 1486251126.35152 |                 0 |              20 |                 29896 |                 1225 |            3542947 |             0 |                0 |          493917 |                     0 |        197895 | 2017-02-04 22:55:19.380096+01

 2017-02-05 00:32:07.457341+01 | 1486251127.45734 |                 0 |              20 |                 29896 |                 1225 |            3542947 |             0 |                0 |          493917 |                     0 |        197895 | 2017-02-04 22:55:19.380096+01

 2017-02-05 00:32:08.559758+01 | 1486251128.55976 |                 0 |              20 |                 29896 |                 1225 |            3542947 |             0 |                0 |          493917 |                     0 |        197895 | 2017-02-04 22:55:19.380096+01

 2017-02-05 00:32:09.670485+01 | 1486251129.67049 |                 0 |              20 |                 29896 |                 1225 |            3542947 |             0 |                0 |          493917 |                     0 |        197895 | 2017-02-04 22:55:19.380096+01

 2017-02-05 00:32:10.771588+01 | 1486251130.77159 |                 0 |              20 |                 29896 |                 1225 |            3542947 |             0 |                0 |          493917 |                     0 |        197895 | 2017-02-04 22:55:19.380096+01

 2017-02-05 00:32:11.872043+01 | 1486251131.87204 |                 0 |              20 |                 29896 |                 1225 |            3542947 |             0 |                0 |          493917 |                     0 |        197895 | 2017-02-04 22:55:19.380096+01

 2017-02-05 00:32:12.966505+01 | 1486251132.96651 |                 0 |              20 |                 29896 |                 1225 |            3542947 |             0 |                0 |          493917 |                     0 |        197895 | 2017-02-04 22:55:19.380096+01

 2017-02-05 00:32:14.061788+01 | 1486251134.06179 |                 0 |              20 |                 29896 |                 1225 |            3542947 |             0 |                0 |          493917 |                     0 |        197895 | 2017-02-04 22:55:19.380096+01

 2017-02-05 00:32:15.164184+01 | 1486251135.16418 |                 0 |              20 |                 29896 |                 1225 |            3542947 |             0 |                0 |          493917 |                     0 |        197895 | 2017-02-04 22:55:19.380096+01

 2017-02-05 00:32:16.264026+01 | 1486251136.26403 |                 0 |              20 |                 29896 |                 1225 |            3542947 |             0 |                0 |          493917 |                     0 |        197895 | 2017-02-04 22:55:19.380096+01

 2017-02-05 00:32:17.368677+01 | 1486251137.36868 |                 0 |              20 |                 29896 |                 1225 |            3542947 |             0 |                0 |          493917 |                     0 |        197895 | 2017-02-04 22:55:19.380096+01

 2017-02-05 00:32:18.464739+01 | 1486251138.46474 |                 0 |              20 |                 29896 |                 1225 |            3542947 |             0 |                0 |          493917 |                     0 |        197895 | 2017-02-04 22:55:19.380096+01

 2017-02-05 00:32:19.571896+01 | 1486251139.5719 |                 0 |              20 |                 29896 |                 1225 |            3542947 |             0 |                0 |          493917 |                     0 |        197895 | 2017-02-04 22:55:19.380096+01

 2017-02-05 00:32:20.680014+01 | 1486251140.68001 |                 0 |              20 |                 29896 |                 1225 |            3542947 |             0 |                0 |          493917 |                     0 |        197895 | 2017-02-04 22:55:19.380096+01

 2017-02-05 00:32:21.777552+01 | 1486251141.77755 |                 0 |              20 |                 29896 |                 1225 |            3542947 |             0 |                0 |          493917 |                     0 |        197895 | 2017-02-04 22:55:19.380096+01

 2017-02-05 00:32:22.881258+01 | 1486251142.88126 |                 0 |              20 |                 29896 |                 1225 |            3542947 |             0 |                0 |          493917 |                     0 |        197895 | 2017-02-04 22:55:19.380096+01

 2017-02-05 00:32:23.979496+01 | 1486251143.9795 |                 0 |              20 |                 29896 |                 1225 |            3542947 |             0 |                0 |          493917 |                     0 |        197895 | 2017-02-04 22:55:19.380096+01

 2017-02-05 00:32:25.09293+01 | 1486251145.09293 |                 0 |              20 |                 29896 |                 1225 |            3542947 |             0 |                0 |          493917 |                     0 |        197895 | 2017-02-04 22:55:19.380096+01

 2017-02-05 00:32:26.198752+01 | 1486251146.19875 |                 0 |              20 |                 29896 |                 1225 |            3542947 |             0 |                0 |          493917 |                     0 |        197895 | 2017-02-04 22:55:19.380096+01

 2017-02-05 00:32:27.293663+01 | 1486251147.29366 |                 0 |              20 |                 29896 |                 1225 |            3542947 |             0 |                0 |          493917 |                     0 |        197895 | 2017-02-04 22:55:19.380096+01

 2017-02-05 00:32:28.403268+01 | 1486251148.40327 |                 0 |              20 |                 29896 |                 1225 |            3542947 |             0 |                0 |          493917 |                     0 |        197895 | 2017-02-04 22:55:19.380096+01

 2017-02-05 00:32:29.503397+01 | 1486251149.5034 |                 0 |              20 |                 29896 |                 1225 |            3542947 |             0 |                0 |          493917 |                     0 |        197895 | 2017-02-04 22:55:19.380096+01

 2017-02-05 00:32:30.604157+01 | 1486251150.60416 |                 0 |              20 |                 29896 |                 1225 |            3542947 |             0 |                0 |          493917 |                     0 |        197895 | 2017-02-04 22:55:19.380096+01

 2017-02-05 00:32:31.716988+01 | 1486251151.71699 |                 0 |              20 |                 29896 |                 1225 |            3542947 |             0 |                0 |          493917 |                     0 |        197895 | 2017-02-04 22:55:19.380096+01

 2017-02-05 00:32:32.808237+01 | 1486251152.80824 |                 0 |              20 |                 29896 |                 1225 |            3542947 |             0 |                0 |          493917 |                     0 |        197895 | 2017-02-04 22:55:19.380096+01

 2017-02-05 00:32:33.909901+01 | 1486251153.9099 |                 0 |              20 |                 29896 |                 1225 |            3542947 |             0 |                0 |          493917 |                     0 |        197895 | 2017-02-04 22:55:19.380096+01

 2017-02-05 00:32:35.012116+01 | 1486251155.01212 |                 0 |              20 |                 29896 |                 1225 |            3542947 |             0 |                0 |          493917 |                     0 |        197895 | 2017-02-04 22:55:19.380096+01

 2017-02-05 00:32:36.130165+01 | 1486251156.13017 |                 0 |              20 |                 29896 |                 1225 |            3542947 |             0 |                0 |          493917 |                     0 |        197895 | 2017-02-04 22:55:19.380096+01

 2017-02-05 00:32:37.233748+01 | 1486251157.23375 |                 0 |              20 |                 29896 |                 1225 |            3542947 |             0 |                0 |          493917 |                     0 |        197895 | 2017-02-04 22:55:19.380096+01

 2017-02-05 00:32:38.346613+01 | 1486251158.34661 |                 0 |              20 |                 29896 |                 1225 |            3542947 |             0 |                0 |          493917 |                     0 |        197895 | 2017-02-04 22:55:19.380096+01

 2017-02-05 00:32:39.456333+01 | 1486251159.45633 |                 0 |              20 |                 29896 |                 1225 |            3542947 |             0 |                0 |          493917 |                     0 |        197895 | 2017-02-04 22:55:19.380096+01

 2017-02-05 00:32:40.556041+01 | 1486251160.55604 |                 0 |              20 |                 29896 |                 1225 |            3542947 |             0 |                0 |          493917 |                     0 |        197895 | 2017-02-04 22:55:19.380096+01

 2017-02-05 00:32:41.657403+01 | 1486251161.6574 |                 0 |              20 |                 29896 |                 1225 |            3542947 |             0 |                0 |          493917 |                     0 |        197895 | 2017-02-04 22:55:19.380096+01

 2017-02-05 00:32:42.769779+01 | 1486251162.76978 |                 0 |              20 |                 29896 |                 1225 |            3542947 |             0 |                0 |          493917 |                     0 |        197895 | 2017-02-04 22:55:19.380096+01

 2017-02-05 00:32:43.863649+01 | 1486251163.86365 |                 0 |              20 |                 29896 |                 1225 |            3542947 |             0 |                0 |          493917 |                     0 |        197895 | 2017-02-04 22:55:19.380096+01

 2017-02-05 00:32:44.964184+01 | 1486251164.96418 |                 0 |              20 |                 29896 |                 1225 |            3542947 |             0 |                0 |          493917 |                     0 |        197895 | 2017-02-04 22:55:19.380096+01

 2017-02-05 00:32:46.0681+01 | 1486251166.0681 |                 0 |              20 |                 29896 |                 1225 |            3542947 |             0 |                0 |          493917 |                     0 |        197895 | 2017-02-04 22:55:19.380096+01

 2017-02-05 00:32:47.179229+01 | 1486251167.17923 |                 0 |              20 |                 29896 |                 1225 |            3542947 |             0 |                0 |          493917 |                     0 |        197895 | 2017-02-04 22:55:19.380096+01

 2017-02-05 00:32:48.278487+01 | 1486251168.27849 |                 0 |              20 |                 29896 |                 1225 |            3542947 |             0 |                0 |          493917 |                     0 |        197895 | 2017-02-04 22:55:19.380096+01

 2017-02-05 00:32:49.388367+01 | 1486251169.38837 |                 0 |              20 |                 29896 |                 1225 |            3542947 |             0 |                0 |          493917 |                     0 |        197895 | 2017-02-04 22:55:19.380096+01

 2017-02-05 00:32:50.495096+01 | 1486251170.4951 |                 0 |              20 |                 29896 |                 1225 |            3542947 |             0 |                0 |          493917 |                     0 |        197895 | 2017-02-04 22:55:19.380096+01

 2017-02-05 00:32:51.595812+01 | 1486251171.59581 |                 0 |              20 |                 29896 |                 1225 |            3542947 |             0 |                0 |          493917 |                     0 |        197895 | 2017-02-04 22:55:19.380096+01

 2017-02-05 00:32:52.688464+01 | 1486251172.68846 |                 0 |              20 |                 29896 |                 1225 |            3542947 |             0 |                0 |          493917 |                     0 |        197895 | 2017-02-04 22:55:19.380096+01

 2017-02-05 00:32:53.782929+01 | 1486251173.78293 |                 0 |              20 |                 29896 |                 1225 |            3542947 |             0 |                0 |          493917 |                     0 |        197895 | 2017-02-04 22:55:19.380096+01

 2017-02-05 00:32:54.880685+01 | 1486251174.88069 |                 0 |              20 |                 29896 |                 1225 |            3542947 |             0 |                0 |          493917 |                     0 |        197895 | 2017-02-04 22:55:19.380096+01

 2017-02-05 00:32:55.995751+01 | 1486251175.99575 |                 0 |              20 |                 29896 |                 1225 |            3542947 |             0 |                0 |          493917 |                     0 |        197895 | 2017-02-04 22:55:19.380096+01

 2017-02-05 00:32:57.094293+01 | 1486251177.09429 |                 0 |              20 |                 29896 |                 1225 |            3542947 |             0 |                0 |          493917 |                     0 |        197895 | 2017-02-04 22:55:19.380096+01

 2017-02-05 00:32:58.191901+01 | 1486251178.1919 |                 0 |              20 |                 29896 |                 1225 |            3542947 |             0 |                0 |          493917 |                     0 |        197895 | 2017-02-04 22:55:19.380096+01

 2017-02-05 00:32:59.297353+01 | 1486251179.29735 |                 0 |              20 |                 29896 |                 1225 |            3542947 |             0 |                0 |          493917 |                     0 |        197895 | 2017-02-04 22:55:19.380096+01

 2017-02-05 00:33:00.402271+01 | 1486251180.40227 |                 0 |              20 |                 29896 |                 1225 |            3542947 |             0 |                0 |          493917 |                     0 |        197895 | 2017-02-04 22:55:19.380096+01

 2017-02-05 00:33:01.520094+01 | 1486251181.52009 |                 0 |              20 |                 29896 |                 1225 |            3542947 |             0 |                0 |          493917 |                     0 |        197895 | 2017-02-04 22:55:19.380096+01

 2017-02-05 00:33:02.638492+01 | 1486251182.63849 |                 0 |              20 |                 29896 |                 1225 |            3542947 |             0 |                0 |          493917 |                     0 |        197895 | 2017-02-04 22:55:19.380096+01

 2017-02-05 00:33:03.738015+01 | 1486251183.73801 |                 0 |              20 |                 29896 |                 1225 |            3542947 |             0 |                0 |          493917 |                     0 |        197895 | 2017-02-04 22:55:19.380096+01

 2017-02-05 00:33:04.840798+01 | 1486251184.8408 |                 0 |              20 |                 29896 |                 1225 |            3542947 |             0 |                0 |          493917 |                     0 |        197895 | 2017-02-04 22:55:19.380096+01

 2017-02-05 00:33:05.93667+01 | 1486251185.93667 |                 0 |              20 |                 29896 |                 1225 |            3542947 |             0 |                0 |          493917 |                     0 |        197895 | 2017-02-04 22:55:19.380096+01

 2017-02-05 00:33:07.050016+01 | 1486251187.05002 |                 0 |              20 |                 29896 |                 1225 |            3542947 |             0 |                0 |          493917 |                     0 |        197895 | 2017-02-04 22:55:19.380096+01

 2017-02-05 00:33:08.151821+01 | 1486251188.15182 |                 0 |              20 |                 29896 |                 1225 |            3542947 |             0 |                0 |          493917 |                     0 |        197895 | 2017-02-04 22:55:19.380096+01

 2017-02-05 00:33:09.252356+01 | 1486251189.25236 |                 0 |              20 |                 29896 |                 1225 |            3542947 |             0 |                0 |          493917 |                     0 |        197895 | 2017-02-04 22:55:19.380096+01

 2017-02-05 00:33:10.363307+01 | 1486251190.36331 |                 0 |              20 |                 29896 |                 1225 |            3542947 |             0 |                0 |          493917 |                     0 |        197895 | 2017-02-04 22:55:19.380096+01

 2017-02-05 00:33:11.465438+01 | 1486251191.46544 |                 0 |              20 |                 29896 |                 1225 |            3542947 |             0 |                0 |          493917 |                     0 |        197895 | 2017-02-04 22:55:19.380096+01

 2017-02-05 00:33:12.562621+01 | 1486251192.56262 |                 0 |              20 |                 29896 |                 1225 |            3542947 |             0 |                0 |          493917 |                     0 |        197895 | 2017-02-04 22:55:19.380096+01

 2017-02-05 00:33:13.669732+01 | 1486251193.66973 |                 0 |              20 |                 29896 |                 1225 |            3542947 |             0 |                0 |          493917 |                     0 |        197895 | 2017-02-04 22:55:19.380096+01

 2017-02-05 00:33:14.768461+01 | 1486251194.76846 |                 0 |              20 |                 29896 |                 1225 |            3542947 |             0 |                0 |          493917 |                     0 |        197895 | 2017-02-04 22:55:19.380096+01

 2017-02-05 00:33:15.86964+01 | 1486251195.86964 |                 0 |              20 |                 29896 |                 1225 |            3542947 |             0 |                0 |          493917 |                     0 |        197895 | 2017-02-04 22:55:19.380096+01

 2017-02-05 00:33:16.973639+01 | 1486251196.97364 |                 0 |              20 |                 29896 |                 1225 |            3542947 |             0 |                0 |          493917 |                     0 |        197895 | 2017-02-04 22:55:19.380096+01

 2017-02-05 00:33:18.072025+01 | 1486251198.07203 |                 0 |              20 |                 29896 |                 1225 |            3542947 |             0 |                0 |          493917 |                     0 |        197895 | 2017-02-04 22:55:19.380096+01

 2017-02-05 00:33:19.169749+01 | 1486251199.16975 |                 0 |              20 |                 29896 |                 1225 |            3542947 |             0 |                0 |          493917 |                     0 |        197895 | 2017-02-04 22:55:19.380096+01

 2017-02-05 00:33:20.264171+01 | 1486251200.26417 |                 0 |              20 |                 29896 |                 1225 |            3542947 |             0 |                0 |          493917 |                     0 |        197895 | 2017-02-04 22:55:19.380096+01

 2017-02-05 00:33:21.356317+01 | 1486251201.35632 |                 0 |              20 |                 29896 |                 1225 |            3542947 |             0 |                0 |          493917 |                     0 |        197895 | 2017-02-04 22:55:19.380096+01

 2017-02-05 00:33:22.455514+01 | 1486251202.45551 |                 0 |              20 |                 29896 |                 1225 |            3542947 |             0 |                0 |          493917 |                     0 |        197895 | 2017-02-04 22:55:19.380096+01

 2017-02-05 00:33:23.566132+01 | 1486251203.56613 |                 0 |              20 |                 29896 |                 1225 |            3542947 |             0 |                0 |          493917 |                     0 |        197895 | 2017-02-04 22:55:19.380096+01

 2017-02-05 00:33:24.665464+01 | 1486251204.66546 |                 0 |              20 |                 29896 |                 1225 |            3542947 |             0 |                0 |          493917 |                     0 |        197895 | 2017-02-04 22:55:19.380096+01

 2017-02-05 00:33:25.764086+01 | 1486251205.76409 |                 0 |              20 |                 29896 |                 1225 |            3542947 |             0 |                0 |          493917 |                     0 |        197895 | 2017-02-04 22:55:19.380096+01

 2017-02-05 00:33:26.860066+01 | 1486251206.86007 |                 0 |              20 |                 29896 |                 1225 |            3542947 |             0 |                0 |          493917 |                     0 |        197895 | 2017-02-04 22:55:19.380096+01

 2017-02-05 00:33:27.972017+01 | 1486251207.97202 |                 0 |              20 |                 29896 |                 1225 |            3542947 |             0 |                0 |          493917 |                     0 |        197895 | 2017-02-04 22:55:19.380096+01

 2017-02-05 00:33:29.062333+01 | 1486251209.06233 |                 0 |              20 |                 29896 |                 1225 |            3542947 |             0 |                0 |          493917 |                     0 |        197895 | 2017-02-04 22:55:19.380096+01

 2017-02-05 00:33:30.162045+01 | 1486251210.16205 |                 0 |              20 |                 29896 |                 1225 |            3542947 |             0 |                0 |          493917 |                     0 |        197895 | 2017-02-04 22:55:19.380096+01

 2017-02-05 00:33:31.279385+01 | 1486251211.27939 |                 0 |              20 |                 29896 |                 1225 |            3542947 |             0 |                0 |          493917 |                     0 |        197895 | 2017-02-04 22:55:19.380096+01

 2017-02-05 00:33:32.374262+01 | 1486251212.37426 |                 0 |              20 |                 29896 |                 1225 |            3542947 |             0 |                0 |          493917 |                     0 |        197895 | 2017-02-04 22:55:19.380096+01

 2017-02-05 00:33:33.480173+01 | 1486251213.48017 |                 0 |              20 |                 29896 |                 1225 |            3542947 |             0 |                0 |          493917 |                     0 |        197895 | 2017-02-04 22:55:19.380096+01

 2017-02-05 00:33:34.578017+01 | 1486251214.57802 |                 0 |              20 |                 29896 |                 1225 |            3542947 |             0 |                0 |          493917 |                     0 |        197895 | 2017-02-04 22:55:19.380096+01

 2017-02-05 00:33:35.687223+01 | 1486251215.68722 |                 0 |              20 |                 29896 |                 1225 |            3542947 |             0 |                0 |          493917 |                     0 |        197895 | 2017-02-04 22:55:19.380096+01

 2017-02-05 00:33:36.781214+01 | 1486251216.78121 |                 0 |              20 |                 29896 |                 1225 |            3542947 |             0 |                0 |          493917 |                     0 |        197895 | 2017-02-04 22:55:19.380096+01

 2017-02-05 00:33:37.886371+01 | 1486251217.88637 |                 0 |              20 |                 29896 |                 1225 |            3542947 |             0 |                0 |          493917 |                     0 |        197895 | 2017-02-04 22:55:19.380096+01

 2017-02-05 00:33:38.990884+01 | 1486251218.99088 |                 0 |              20 |                 29896 |                 1225 |            3542947 |             0 |                0 |          493917 |                     0 |        197895 | 2017-02-04 22:55:19.380096+01

 2017-02-05 00:33:40.094495+01 | 1486251220.0945 |                 0 |              20 |                 29896 |                 1225 |            3542947 |             0 |                0 |          493917 |                     0 |        197895 | 2017-02-04 22:55:19.380096+01

 2017-02-05 00:33:41.206076+01 | 1486251221.20608 |                 0 |              20 |                 29896 |                 1225 |            3542947 |             0 |                0 |          493917 |                     0 |        197895 | 2017-02-04 22:55:19.380096+01

 2017-02-05 00:33:42.322458+01 | 1486251222.32246 |                 0 |              20 |                 29896 |                 1225 |            3542947 |             0 |                0 |          493917 |                     0 |        197895 | 2017-02-04 22:55:19.380096+01

 2017-02-05 00:33:43.433664+01 | 1486251223.43366 |                 0 |              20 |                 29896 |                 1225 |            3542947 |             0 |                0 |          493917 |                     0 |        197895 | 2017-02-04 22:55:19.380096+01

 2017-02-05 00:33:44.533786+01 | 1486251224.53379 |                 0 |              20 |                 29896 |                 1225 |            3542947 |             0 |                0 |          493917 |                     0 |        197895 | 2017-02-04 22:55:19.380096+01

 2017-02-05 00:33:45.652872+01 | 1486251225.65287 |                 0 |              20 |                 29896 |                 1225 |            3542947 |             0 |                0 |          493917 |                     0 |        197895 | 2017-02-04 22:55:19.380096+01

 2017-02-05 00:33:46.758333+01 | 1486251226.75833 |                 0 |              20 |                 29896 |                 1225 |            3542947 |             0 |                0 |          493917 |                     0 |        197895 | 2017-02-04 22:55:19.380096+01

 2017-02-05 00:33:47.852984+01 | 1486251227.85298 |                 0 |              20 |                 29896 |                 1225 |            3542947 |             0 |                0 |          493917 |                     0 |        197895 | 2017-02-04 22:55:19.380096+01

 2017-02-05 00:33:48.959832+01 | 1486251228.95983 |                 0 |              20 |                 29896 |                 1225 |            3542947 |             0 |                0 |          493917 |                     0 |        197895 | 2017-02-04 22:55:19.380096+01

 2017-02-05 00:33:50.066646+01 | 1486251230.06665 |                 0 |              20 |                 29896 |                 1225 |            3542947 |             0 |                0 |          493917 |                     0 |        197895 | 2017-02-04 22:55:19.380096+01

 2017-02-05 00:33:51.178223+01 | 1486251231.17822 |                 0 |              20 |                 29896 |                 1225 |            3542947 |             0 |                0 |          493917 |                     0 |        197895 | 2017-02-04 22:55:19.380096+01

 2017-02-05 00:33:52.268398+01 | 1486251232.2684 |                 0 |              20 |                 29896 |                 1225 |            3542947 |             0 |                0 |          493917 |                     0 |        197895 | 2017-02-04 22:55:19.380096+01

 2017-02-05 00:33:53.360613+01 | 1486251233.36061 |                 0 |              20 |                 29896 |                 1225 |            3542947 |             0 |                0 |          493917 |                     0 |        197895 | 2017-02-04 22:55:19.380096+01

 2017-02-05 00:33:54.471839+01 | 1486251234.47184 |                 0 |              20 |                 29896 |                 1225 |            3542947 |             0 |                0 |          493917 |                     0 |        197895 | 2017-02-04 22:55:19.380096+01

 2017-02-05 00:33:55.585701+01 | 1486251235.5857 |                 0 |              20 |                 29896 |                 1225 |            3542947 |             0 |                0 |          493917 |                     0 |        197895 | 2017-02-04 22:55:19.380096+01

 2017-02-05 00:33:56.709363+01 | 1486251236.70936 |                 0 |              20 |                 29896 |                 1225 |            3542947 |             0 |                0 |          493917 |                     0 |        197895 | 2017-02-04 22:55:19.380096+01

 2017-02-05 00:33:57.80702+01 | 1486251237.80702 |                 0 |              20 |                 29896 |                 1225 |            3542947 |             0 |                0 |          493917 |                     0 |        197895 | 2017-02-04 22:55:19.380096+01

 2017-02-05 00:33:58.910521+01 | 1486251238.91052 |                 0 |              20 |                 29896 |                 1225 |            3542947 |             0 |                0 |          493917 |                     0 |        197895 | 2017-02-04 22:55:19.380096+01

 2017-02-05 00:34:00.005654+01 | 1486251240.00565 |                 0 |              20 |                 29896 |                 1225 |            3542947 |             0 |                0 |          493917 |                     0 |        197895 | 2017-02-04 22:55:19.380096+01

 2017-02-05 00:34:01.099019+01 | 1486251241.09902 |                 0 |              20 |                 29896 |                 1225 |            3542947 |             0 |                0 |          493917 |                     0 |        197895 | 2017-02-04 22:55:19.380096+01

 2017-02-05 00:34:02.195971+01 | 1486251242.19597 |                 0 |              20 |                 29896 |                 1225 |            3542947 |             0 |                0 |          493917 |                     0 |        197895 | 2017-02-04 22:55:19.380096+01

 2017-02-05 00:34:03.301087+01 | 1486251243.30109 |                 0 |              20 |                 29896 |                 1225 |            3542947 |             0 |                0 |          493917 |                     0 |        197895 | 2017-02-04 22:55:19.380096+01

 2017-02-05 00:34:04.394801+01 | 1486251244.3948 |                 0 |              20 |                 29896 |                 1225 |            3542947 |             0 |                0 |          493917 |                     0 |        197895 | 2017-02-04 22:55:19.380096+01

 2017-02-05 00:34:05.503286+01 | 1486251245.50329 |                 0 |              20 |                 29896 |                 1225 |            3542947 |             0 |                0 |          493917 |                     0 |        197895 | 2017-02-04 22:55:19.380096+01

 2017-02-05 00:34:06.613406+01 | 1486251246.61341 |                 0 |              20 |                 29896 |                 1225 |            3542947 |             0 |                0 |          493917 |                     0 |        197895 | 2017-02-04 22:55:19.380096+01

 2017-02-05 00:34:07.711989+01 | 1486251247.71199 |                 0 |              20 |                 29896 |                 1225 |            3542947 |             0 |                0 |          493917 |                     0 |        197895 | 2017-02-04 22:55:19.380096+01

 2017-02-05 00:34:08.81787+01 | 1486251248.81787 |                 0 |              20 |                 29896 |                 1225 |            3542947 |             0 |                0 |          493917 |                     0 |        197895 | 2017-02-04 22:55:19.380096+01

 2017-02-05 00:34:09.911384+01 | 1486251249.91138 |                 0 |              20 |                 29896 |                 1225 |            3542947 |             0 |                0 |          493917 |                     0 |        197895 | 2017-02-04 22:55:19.380096+01

 2017-02-05 00:34:11.013137+01 | 1486251251.01314 |                 0 |              20 |                 29896 |                 1225 |            3542947 |             0 |                0 |          493917 |                     0 |        197895 | 2017-02-04 22:55:19.380096+01

 2017-02-05 00:34:12.117111+01 | 1486251252.11711 |                 0 |              20 |                 29896 |                 1225 |            3542947 |             0 |                0 |          493917 |                     0 |        197895 | 2017-02-04 22:55:19.380096+01

 2017-02-05 00:34:13.216887+01 | 1486251253.21689 |                 0 |              20 |                 29896 |                 1225 |            3542947 |             0 |                0 |          493917 |                     0 |        197895 | 2017-02-04 22:55:19.380096+01

 2017-02-05 00:34:14.321309+01 | 1486251254.32131 |                 0 |              20 |                 29896 |                 1225 |            3542947 |             0 |                0 |          493917 |                     0 |        197895 | 2017-02-04 22:55:19.380096+01

 2017-02-05 00:34:15.436648+01 | 1486251255.43665 |                 0 |              20 |                 29896 |                 1225 |            3542947 |             0 |                0 |          493917 |                     0 |        197895 | 2017-02-04 22:55:19.380096+01

 2017-02-05 00:34:16.544375+01 | 1486251256.54437 |                 0 |              20 |                 29896 |                 1225 |            3542947 |             0 |                0 |          493917 |                     0 |        197895 | 2017-02-04 22:55:19.380096+01

 2017-02-05 00:34:17.653939+01 | 1486251257.65394 |                 0 |              20 |                 29896 |                 1225 |            3542947 |             0 |                0 |          493917 |                     0 |        197895 | 2017-02-04 22:55:19.380096+01

 2017-02-05 00:34:18.762454+01 | 1486251258.76245 |                 0 |              20 |                 29896 |                 1225 |            3542947 |             0 |                0 |          493917 |                     0 |        197895 | 2017-02-04 22:55:19.380096+01

 2017-02-05 00:34:19.860896+01 | 1486251259.8609 |                 0 |              20 |                 29896 |                 1225 |            3542947 |             0 |                0 |          493917 |                     0 |        197895 | 2017-02-04 22:55:19.380096+01

 2017-02-05 00:34:20.950612+01 | 1486251260.95061 |                 0 |              20 |                 29896 |                 1225 |            3542947 |             0 |                0 |          493917 |                     0 |        197895 | 2017-02-04 22:55:19.380096+01

 2017-02-05 00:34:22.052143+01 | 1486251262.05214 |                 0 |              20 |                 29896 |                 1225 |            3542947 |             0 |                0 |          493917 |                     0 |        197895 | 2017-02-04 22:55:19.380096+01

 2017-02-05 00:34:23.160794+01 | 1486251263.16079 |                 0 |              20 |                 29896 |                 1225 |            3542947 |             0 |                0 |          493917 |                     0 |        197895 | 2017-02-04 22:55:19.380096+01

 2017-02-05 00:34:24.261509+01 | 1486251264.26151 |                 0 |              20 |                 29896 |                 1225 |            3542947 |             0 |                0 |          493917 |                     0 |        197895 | 2017-02-04 22:55:19.380096+01

 2017-02-05 00:34:25.380808+01 | 1486251265.38081 |                 0 |              20 |                 29896 |                 1225 |            3542947 |             0 |                0 |          493917 |                     0 |        197895 | 2017-02-04 22:55:19.380096+01

 2017-02-05 00:34:26.486922+01 | 1486251266.48692 |                 0 |              20 |                 29896 |                 1225 |            3542947 |             0 |                0 |          493917 |                     0 |        197895 | 2017-02-04 22:55:19.380096+01

 2017-02-05 00:34:27.592404+01 | 1486251267.5924 |                 0 |              20 |                 29896 |                 1225 |            3542947 |             0 |                0 |          493917 |                     0 |        197895 | 2017-02-04 22:55:19.380096+01

 2017-02-05 00:34:28.703724+01 | 1486251268.70372 |                 0 |              20 |                 29896 |                 1225 |            3542947 |             0 |                0 |          493917 |                     0 |        197895 | 2017-02-04 22:55:19.380096+01

 2017-02-05 00:34:29.80324+01 | 1486251269.80324 |                 0 |              20 |                 29896 |                 1225 |            3542947 |             0 |                0 |          493917 |                     0 |        197895 | 2017-02-04 22:55:19.380096+01

 2017-02-05 00:34:30.897378+01 | 1486251270.89738 |                 0 |              20 |                 29896 |                 1225 |            3542947 |             0 |                0 |          493917 |                     0 |        197895 | 2017-02-04 22:55:19.380096+01

 2017-02-05 00:34:31.994326+01 | 1486251271.99433 |                 0 |              20 |                 29896 |                 1225 |            3542947 |             0 |                0 |          493917 |                     0 |        197895 | 2017-02-04 22:55:19.380096+01

 2017-02-05 00:34:33.083397+01 | 1486251273.0834 |                 0 |              20 |                 29896 |                 1225 |            3542947 |             0 |                0 |          493917 |                     0 |        197895 | 2017-02-04 22:55:19.380096+01

 2017-02-05 00:34:34.180556+01 | 1486251274.18056 |                 0 |              20 |                 29896 |                 1225 |            3542947 |             0 |                0 |          493917 |                     0 |        197895 | 2017-02-04 22:55:19.380096+01

 2017-02-05 00:34:35.283248+01 | 1486251275.28325 |                 0 |              20 |                 29896 |                 1225 |            3542947 |             0 |                0 |          493917 |                     0 |        197895 | 2017-02-04 22:55:19.380096+01

 2017-02-05 00:34:36.395691+01 | 1486251276.39569 |                 0 |              20 |                 29896 |                 1225 |            3542947 |             0 |                0 |          493917 |                     0 |        197895 | 2017-02-04 22:55:19.380096+01

 2017-02-05 00:34:37.493065+01 | 1486251277.49307 |                 0 |              20 |                 29896 |                 1225 |            3542947 |             0 |                0 |          493917 |                     0 |        197895 | 2017-02-04 22:55:19.380096+01

 2017-02-05 00:34:38.594268+01 | 1486251278.59427 |                 0 |              20 |                 29896 |                 1225 |            3542947 |             0 |                0 |          493917 |                     0 |        197895 | 2017-02-04 22:55:19.380096+01

 2017-02-05 00:34:39.701943+01 | 1486251279.70194 |                 0 |              20 |                 29896 |                 1225 |            3542947 |             0 |                0 |          493917 |                     0 |        197895 | 2017-02-04 22:55:19.380096+01

 2017-02-05 00:34:40.799073+01 | 1486251280.79907 |                 0 |              20 |                 29896 |                 1225 |            3542947 |             0 |                0 |          493917 |                     0 |        197895 | 2017-02-04 22:55:19.380096+01

 2017-02-05 00:34:41.903548+01 | 1486251281.90355 |                 0 |              20 |                 29896 |                 1225 |            3542947 |             0 |                0 |          493917 |                     0 |        197895 | 2017-02-04 22:55:19.380096+01

 2017-02-05 00:34:43.004333+01 | 1486251283.00433 |                 0 |              20 |                 29896 |                 1225 |            3542947 |             0 |                0 |          493917 |                     0 |        197895 | 2017-02-04 22:55:19.380096+01

 2017-02-05 00:34:44.101786+01 | 1486251284.10179 |                 0 |              20 |                 29896 |                 1225 |            3542947 |             0 |                0 |          493917 |                     0 |        197895 | 2017-02-04 22:55:19.380096+01

 2017-02-05 00:34:45.193724+01 | 1486251285.19372 |                 0 |              20 |                 29896 |                 1225 |            3542947 |             0 |                0 |          493917 |                     0 |        197895 | 2017-02-04 22:55:19.380096+01

 2017-02-05 00:34:46.287896+01 | 1486251286.2879 |                 0 |              20 |                 29896 |                 1225 |            3542947 |             0 |                0 |          493917 |                     0 |        197895 | 2017-02-04 22:55:19.380096+01

 2017-02-05 00:34:47.392598+01 | 1486251287.3926 |                 0 |              20 |                 29896 |                 1225 |            3542947 |             0 |                0 |          493917 |                     0 |        197895 | 2017-02-04 22:55:19.380096+01

 2017-02-05 00:34:48.489182+01 | 1486251288.48918 |                 0 |              20 |                 29896 |                 1225 |            3542947 |             0 |                0 |          493917 |                     0 |        197895 | 2017-02-04 22:55:19.380096+01

 2017-02-05 00:34:49.598169+01 | 1486251289.59817 |                 0 |              20 |                 29896 |                 1225 |            3542947 |             0 |                0 |          493917 |                     0 |        197895 | 2017-02-04 22:55:19.380096+01

 2017-02-05 00:34:50.701924+01 | 1486251290.70192 |                 0 |              20 |                 29896 |                 1225 |            3542947 |             0 |                0 |          493917 |                     0 |        197895 | 2017-02-04 22:55:19.380096+01

 2017-02-05 00:34:51.811948+01 | 1486251291.81195 |                 0 |              20 |                 29896 |                 1225 |            3542947 |             0 |                0 |          493917 |                     0 |        197895 | 2017-02-04 22:55:19.380096+01

 2017-02-05 00:34:52.912949+01 | 1486251292.91295 |                 0 |              20 |                 29896 |                 1225 |            3542947 |             0 |                0 |          493917 |                     0 |        197895 | 2017-02-04 22:55:19.380096+01

 2017-02-05 00:34:54.001389+01 | 1486251294.00139 |                 0 |              20 |                 29896 |                 1225 |            3542947 |             0 |                0 |          493917 |                     0 |        197895 | 2017-02-04 22:55:19.380096+01

 2017-02-05 00:34:55.09914+01 | 1486251295.09914 |                 0 |              20 |                 29896 |                 1225 |            3542947 |             0 |                0 |          493917 |                     0 |        197895 | 2017-02-04 22:55:19.380096+01

 2017-02-05 00:34:56.202974+01 | 1486251296.20297 |                 0 |              20 |                 29896 |                 1225 |            3542947 |             0 |                0 |          493917 |                     0 |        197895 | 2017-02-04 22:55:19.380096+01

 2017-02-05 00:34:57.306289+01 | 1486251297.30629 |                 0 |              20 |                 29896 |                 1225 |            3542947 |             0 |                0 |          493917 |                     0 |        197895 | 2017-02-04 22:55:19.380096+01

 2017-02-05 00:34:58.406139+01 | 1486251298.40614 |                 0 |              20 |                 29896 |                 1225 |            3542947 |             0 |                0 |          493917 |                     0 |        197895 | 2017-02-04 22:55:19.380096+01

 2017-02-05 00:34:59.510272+01 | 1486251299.51027 |                 0 |              20 |                 29896 |                 1225 |            3542947 |             0 |                0 |          493917 |                     0 |        197895 | 2017-02-04 22:55:19.380096+01

 2017-02-05 00:35:00.60351+01 | 1486251300.60351 |                 0 |              20 |                 29896 |                 1225 |            3542947 |             0 |                0 |          493917 |                     0 |        197895 | 2017-02-04 22:55:19.380096+01

 2017-02-05 00:35:01.707132+01 | 1486251301.70713 |                 0 |              20 |                 29896 |                 1225 |            3542947 |             0 |                0 |          493917 |                     0 |        197895 | 2017-02-04 22:55:19.380096+01

 2017-02-05 00:35:02.810947+01 | 1486251302.81095 |                 0 |              20 |                 29896 |                 1225 |            3542947 |             0 |                0 |          493917 |                     0 |        197895 | 2017-02-04 22:55:19.380096+01

 2017-02-05 00:35:03.90951+01 | 1486251303.90951 |                 0 |              20 |                 29896 |                 1225 |            3542947 |             0 |                0 |          493917 |                     0 |        197895 | 2017-02-04 22:55:19.380096+01

 2017-02-05 00:35:05.002497+01 | 1486251305.0025 |                 0 |              20 |                 29896 |                 1225 |            3542947 |             0 |                0 |          493917 |                     0 |        197895 | 2017-02-04 22:55:19.380096+01

 2017-02-05 00:35:06.087353+01 | 1486251306.08735 |                 0 |              20 |                 29896 |                 1225 |            3542947 |             0 |                0 |          493917 |                     0 |        197895 | 2017-02-04 22:55:19.380096+01

 2017-02-05 00:35:07.200079+01 | 1486251307.20008 |                 0 |              20 |                 29896 |                 1225 |            3542947 |             0 |                0 |          493917 |                     0 |        197895 | 2017-02-04 22:55:19.380096+01

 2017-02-05 00:35:08.302447+01 | 1486251308.30245 |                 0 |              20 |                 29896 |                 1225 |            3542947 |             0 |                0 |          493917 |                     0 |        197895 | 2017-02-04 22:55:19.380096+01

 2017-02-05 00:35:09.407327+01 | 1486251309.40733 |                 0 |              20 |                 29896 |                 1225 |            3542947 |             0 |                0 |          493917 |                     0 |        197895 | 2017-02-04 22:55:19.380096+01

 2017-02-05 00:35:10.512248+01 | 1486251310.51225 |                 0 |              20 |                 29896 |                 1225 |            3542947 |             0 |                0 |          493917 |                     0 |        197895 | 2017-02-04 22:55:19.380096+01

 2017-02-05 00:35:11.602592+01 | 1486251311.60259 |                 0 |              20 |                 29896 |                 1225 |            3542947 |             0 |                0 |          493917 |                     0 |        197895 | 2017-02-04 22:55:19.380096+01

 2017-02-05 00:35:12.698935+01 | 1486251312.69894 |                 0 |              20 |                 29896 |                 1225 |            3542947 |             0 |                0 |          493917 |                     0 |        197895 | 2017-02-04 22:55:19.380096+01

 2017-02-05 00:35:13.798858+01 | 1486251313.79886 |                 0 |              20 |                 29896 |                 1225 |            3542947 |             0 |                0 |          493917 |                     0 |        197895 | 2017-02-04 22:55:19.380096+01

 2017-02-05 00:35:14.908424+01 | 1486251314.90842 |                 0 |              20 |                 29896 |                 1225 |            3542947 |             0 |                0 |          493917 |                     0 |        197895 | 2017-02-04 22:55:19.380096+01

 2017-02-05 00:35:16.007456+01 | 1486251316.00746 |                 0 |              20 |                 29896 |                 1225 |            3542947 |             0 |                0 |          493917 |                     0 |        197895 | 2017-02-04 22:55:19.380096+01

 2017-02-05 00:35:17.108577+01 | 1486251317.10858 |                 0 |              20 |                 29896 |                 1225 |            3542947 |             0 |                0 |          493917 |                     0 |        197895 | 2017-02-04 22:55:19.380096+01

 2017-02-05 00:35:18.21215+01 | 1486251318.21215 |                 0 |              20 |                 29896 |                 1225 |            3542947 |             0 |                0 |          493917 |                     0 |        197895 | 2017-02-04 22:55:19.380096+01

 2017-02-05 00:35:19.305246+01 | 1486251319.30525 |                 0 |              20 |                 29896 |                 1225 |            3542947 |             0 |                0 |          493917 |                     0 |        197895 | 2017-02-04 22:55:19.380096+01

 2017-02-05 00:35:20.408494+01 | 1486251320.40849 |                 0 |              20 |                 29896 |                 1225 |            3542947 |             0 |                0 |          493917 |                     0 |        197895 | 2017-02-04 22:55:19.380096+01

 2017-02-05 00:35:21.511682+01 | 1486251321.51168 |                 0 |              20 |                 29896 |                 1225 |            3542947 |             0 |                0 |          493917 |                     0 |        197895 | 2017-02-04 22:55:19.380096+01

 2017-02-05 00:35:22.615287+01 | 1486251322.61529 |                 0 |              20 |                 29896 |                 1225 |            3542947 |             0 |                0 |          493917 |                     0 |        197895 | 2017-02-04 22:55:19.380096+01

 2017-02-05 00:35:23.709261+01 | 1486251323.70926 |                 0 |              20 |                 29896 |                 1225 |            3542947 |             0 |                0 |          493917 |                     0 |        197895 | 2017-02-04 22:55:19.380096+01

 2017-02-05 00:35:24.808135+01 | 1486251324.80814 |                 0 |              20 |                 29896 |                 1225 |            3542947 |             0 |                0 |          493917 |                     0 |        197895 | 2017-02-04 22:55:19.380096+01

 2017-02-05 00:35:25.920078+01 | 1486251325.92008 |                 0 |              20 |                 29896 |                 1225 |            3542947 |             0 |                0 |          493917 |                     0 |        197895 | 2017-02-04 22:55:19.380096+01

 2017-02-05 00:35:27.022281+01 | 1486251327.02228 |                 0 |              20 |                 29896 |                 1225 |            3542947 |             0 |                0 |          493917 |                     0 |        197895 | 2017-02-04 22:55:19.380096+01

 2017-02-05 00:35:28.127945+01 | 1486251328.12794 |                 0 |              20 |                 29896 |                 1225 |            3542947 |             0 |                0 |          493917 |                     0 |        197895 | 2017-02-04 22:55:19.380096+01

 2017-02-05 00:35:29.230492+01 | 1486251329.23049 |                 0 |              20 |                 29896 |                 1225 |            3542947 |             0 |                0 |          493917 |                     0 |        197895 | 2017-02-04 22:55:19.380096+01

 2017-02-05 00:35:30.332302+01 | 1486251330.3323 |                 0 |              20 |                 29896 |                 1225 |            3542947 |             0 |                0 |          493917 |                     0 |        197895 | 2017-02-04 22:55:19.380096+01

 2017-02-05 00:35:31.442885+01 | 1486251331.44288 |                 0 |              20 |                 29896 |                 1225 |            3542947 |             0 |                0 |          493917 |                     0 |        197895 | 2017-02-04 22:55:19.380096+01

 2017-02-05 00:35:32.557446+01 | 1486251332.55745 |                 0 |              20 |                 29896 |                 1225 |            3542947 |             0 |                0 |          493917 |                     0 |        197895 | 2017-02-04 22:55:19.380096+01

 2017-02-05 00:35:33.671374+01 | 1486251333.67137 |                 0 |              20 |                 29896 |                 1225 |            3542947 |             0 |                0 |          493917 |                     0 |        197895 | 2017-02-04 22:55:19.380096+01

 2017-02-05 00:35:34.769121+01 | 1486251334.76912 |                 0 |              20 |                 29896 |                 1225 |            3542947 |             0 |                0 |          493917 |                     0 |        197895 | 2017-02-04 22:55:19.380096+01

 2017-02-05 00:35:35.872327+01 | 1486251335.87233 |                 0 |              20 |                 29896 |                 1225 |            3542947 |             0 |                0 |          493917 |                     0 |        197895 | 2017-02-04 22:55:19.380096+01

 2017-02-05 00:35:36.974389+01 | 1486251336.97439 |                 0 |              20 |                 29896 |                 1225 |            3542947 |             0 |                0 |          493917 |                     0 |        197895 | 2017-02-04 22:55:19.380096+01

 2017-02-05 00:35:38.081074+01 | 1486251338.08107 |                 0 |              20 |                 29896 |                 1225 |            3542947 |             0 |                0 |          493917 |                     0 |        197895 | 2017-02-04 22:55:19.380096+01

 2017-02-05 00:35:39.181714+01 | 1486251339.18171 |                 0 |              20 |                 29896 |                 1225 |            3542947 |             0 |                0 |          493917 |                     0 |        197895 | 2017-02-04 22:55:19.380096+01

 2017-02-05 00:35:40.271885+01 | 1486251340.27188 |                 0 |              20 |                 29896 |                 1225 |            3542947 |             0 |                0 |          493917 |                     0 |        197895 | 2017-02-04 22:55:19.380096+01

 2017-02-05 00:35:41.384575+01 | 1486251341.38457 |                 0 |              20 |                 29896 |                 1225 |            3542947 |             0 |                0 |          493917 |                     0 |        197895 | 2017-02-04 22:55:19.380096+01

 2017-02-05 00:35:42.496623+01 | 1486251342.49662 |                 0 |              20 |                 29896 |                 1225 |            3542947 |             0 |                0 |          493917 |                     0 |        197895 | 2017-02-04 22:55:19.380096+01

 2017-02-05 00:35:43.608516+01 | 1486251343.60852 |                 0 |              20 |                 29896 |                 1225 |            3542947 |             0 |                0 |          493917 |                     0 |        197895 | 2017-02-04 22:55:19.380096+01

 2017-02-05 00:35:44.701063+01 | 1486251344.70106 |                 0 |              20 |                 29896 |                 1225 |            3542947 |             0 |                0 |          493917 |                     0 |        197895 | 2017-02-04 22:55:19.380096+01

 2017-02-05 00:35:45.815335+01 | 1486251345.81534 |                 0 |              20 |                 29896 |                 1225 |            3542947 |             0 |                0 |          493917 |                     0 |        197895 | 2017-02-04 22:55:19.380096+01

 2017-02-05 00:35:46.915942+01 | 1486251346.91594 |                 0 |              20 |                 29896 |                 1225 |            3542947 |             0 |                0 |          493917 |                     0 |        197895 | 2017-02-04 22:55:19.380096+01

 2017-02-05 00:35:48.016518+01 | 1486251348.01652 |                 0 |              20 |                 29896 |                 1225 |            3542947 |             0 |                0 |          493917 |                     0 |        197895 | 2017-02-04 22:55:19.380096+01

 2017-02-05 00:35:49.124128+01 | 1486251349.12413 |                 0 |              20 |                 29896 |                 1225 |            3542947 |             0 |                0 |          493917 |                     0 |        197895 | 2017-02-04 22:55:19.380096+01

 2017-02-05 00:35:50.219399+01 | 1486251350.2194 |                 0 |              20 |                 29896 |                 1225 |            3542947 |             0 |                0 |          493917 |                     0 |        197895 | 2017-02-04 22:55:19.380096+01

 2017-02-05 00:35:51.321453+01 | 1486251351.32145 |                 0 |              20 |                 29896 |                 1225 |            3542947 |             0 |                0 |          493917 |                     0 |        197895 | 2017-02-04 22:55:19.380096+01

 2017-02-05 00:35:52.411692+01 | 1486251352.41169 |                 0 |              20 |                 29896 |                 1225 |            3542947 |             0 |                0 |          493917 |                     0 |        197895 | 2017-02-04 22:55:19.380096+01

 2017-02-05 00:35:53.518208+01 | 1486251353.51821 |                 0 |              20 |                 29896 |                 1225 |            3542947 |             0 |                0 |          493917 |                     0 |        197895 | 2017-02-04 22:55:19.380096+01

 2017-02-05 00:35:54.632964+01 | 1486251354.63296 |                 0 |              20 |                 29896 |                 1225 |            3542947 |             0 |                0 |          493917 |                     0 |        197895 | 2017-02-04 22:55:19.380096+01

 2017-02-05 00:35:55.733374+01 | 1486251355.73337 |                 0 |              20 |                 29896 |                 1225 |            3542947 |             0 |                0 |          493917 |                     0 |        197895 | 2017-02-04 22:55:19.380096+01

 2017-02-05 00:35:56.844457+01 | 1486251356.84446 |                 0 |              20 |                 29896 |                 1225 |            3542947 |             0 |                0 |          493917 |                     0 |        197895 | 2017-02-04 22:55:19.380096+01

 2017-02-05 00:35:57.955278+01 | 1486251357.95528 |                 0 |              20 |                 29896 |                 1225 |            3542947 |             0 |                0 |          493917 |                     0 |        197895 | 2017-02-04 22:55:19.380096+01

 2017-02-05 00:35:59.067694+01 | 1486251359.06769 |                 0 |              20 |                 29896 |                 1225 |            3542947 |             0 |                0 |          493917 |                     0 |        197895 | 2017-02-04 22:55:19.380096+01

 2017-02-05 00:36:00.14994+01 | 1486251360.14994 |                 0 |              20 |                 29896 |                 1225 |            3542947 |             0 |                0 |          493917 |                     0 |        197895 | 2017-02-04 22:55:19.380096+01

 2017-02-05 00:36:01.251902+01 | 1486251361.2519 |                 0 |              20 |                 29896 |                 1225 |            3542947 |             0 |                0 |          493917 |                     0 |        197895 | 2017-02-04 22:55:19.380096+01

 2017-02-05 00:36:02.370523+01 | 1486251362.37052 |                 0 |              20 |                 29896 |                 1225 |            3542947 |             0 |                0 |          493917 |                     0 |        197895 | 2017-02-04 22:55:19.380096+01

 2017-02-05 00:36:03.47404+01 | 1486251363.47404 |                 0 |              20 |                 29896 |                 1225 |            3542947 |             0 |                0 |          493917 |                     0 |        197895 | 2017-02-04 22:55:19.380096+01

 2017-02-05 00:36:04.586402+01 | 1486251364.5864 |                 0 |              20 |                 29896 |                 1225 |            3542947 |             0 |                0 |          493917 |                     0 |        197895 | 2017-02-04 22:55:19.380096+01

 2017-02-05 00:36:05.682051+01 | 1486251365.68205 |                 0 |              20 |                 29896 |                 1225 |            3542947 |             0 |                0 |          493917 |                     0 |        197895 | 2017-02-04 22:55:19.380096+01

 2017-02-05 00:36:06.776815+01 | 1486251366.77681 |                 0 |              20 |                 29896 |                 1225 |            3542947 |             0 |                0 |          493917 |                     0 |        197895 | 2017-02-04 22:55:19.380096+01

 2017-02-05 00:36:07.886749+01 | 1486251367.88675 |                 0 |              20 |                 29896 |                 1225 |            3542947 |             0 |                0 |          493917 |                     0 |        197895 | 2017-02-04 22:55:19.380096+01

 2017-02-05 00:36:08.984662+01 | 1486251368.98466 |                 0 |              20 |                 29896 |                 1225 |            3542947 |             0 |                0 |          493917 |                     0 |        197895 | 2017-02-04 22:55:19.380096+01

 2017-02-05 00:36:10.076544+01 | 1486251370.07654 |                 0 |              20 |                 29896 |                 1225 |            3542947 |             0 |                0 |          493917 |                     0 |        197895 | 2017-02-04 22:55:19.380096+01

 2017-02-05 00:36:11.179282+01 | 1486251371.17928 |                 0 |              20 |                 29896 |                 1225 |            3542947 |             0 |                0 |          493917 |                     0 |        197895 | 2017-02-04 22:55:19.380096+01

 2017-02-05 00:36:12.280418+01 | 1486251372.28042 |                 0 |              20 |                 29896 |                 1225 |            3542947 |             0 |                0 |          493917 |                     0 |        197895 | 2017-02-04 22:55:19.380096+01

 2017-02-05 00:36:13.374553+01 | 1486251373.37455 |                 0 |              20 |                 29896 |                 1225 |            3542947 |             0 |                0 |          493917 |                     0 |        197895 | 2017-02-04 22:55:19.380096+01

 2017-02-05 00:36:14.471685+01 | 1486251374.47168 |                 0 |              20 |                 29896 |                 1225 |            3542947 |             0 |                0 |          493917 |                     0 |        197895 | 2017-02-04 22:55:19.380096+01

 2017-02-05 00:36:15.575225+01 | 1486251375.57523 |                 0 |              20 |                 29896 |                 1225 |            3542947 |             0 |                0 |          493917 |                     0 |        197895 | 2017-02-04 22:55:19.380096+01

 2017-02-05 00:36:16.693064+01 | 1486251376.69306 |                 0 |              20 |                 29896 |                 1225 |            3542947 |             0 |                0 |          493917 |                     0 |        197895 | 2017-02-04 22:55:19.380096+01

 2017-02-05 00:36:17.794146+01 | 1486251377.79415 |                 0 |              20 |                 29896 |                 1225 |            3542947 |             0 |                0 |          493917 |                     0 |        197895 | 2017-02-04 22:55:19.380096+01

