 2017-02-05 00:31:18.810642+01 | 1486251078.81064 | pgbench_accounts |       1392427008
 2017-02-05 00:31:18.810642+01 | 1486251078.81064 | pgbench_tellers  |            49152
 2017-02-05 00:31:18.810642+01 | 1486251078.81064 | pgbench_history  |                0
 2017-02-05 00:31:18.810642+01 | 1486251078.81064 | pgbench_branches |             8192

 2017-02-05 00:31:19.922201+01 | 1486251079.9222 | pgbench_accounts |       1392427008
 2017-02-05 00:31:19.922201+01 | 1486251079.9222 | pgbench_tellers  |            49152
 2017-02-05 00:31:19.922201+01 | 1486251079.9222 | pgbench_history  |                0
 2017-02-05 00:31:19.922201+01 | 1486251079.9222 | pgbench_branches |             8192

 2017-02-05 00:31:21.022413+01 | 1486251081.02241 | pgbench_accounts |       1392427008
 2017-02-05 00:31:21.022413+01 | 1486251081.02241 | pgbench_tellers  |            49152
 2017-02-05 00:31:21.022413+01 | 1486251081.02241 | pgbench_history  |                0
 2017-02-05 00:31:21.022413+01 | 1486251081.02241 | pgbench_branches |             8192

 2017-02-05 00:31:22.128231+01 | 1486251082.12823 | pgbench_accounts |       1392427008
 2017-02-05 00:31:22.128231+01 | 1486251082.12823 | pgbench_tellers  |            49152
 2017-02-05 00:31:22.128231+01 | 1486251082.12823 | pgbench_history  |                0
 2017-02-05 00:31:22.128231+01 | 1486251082.12823 | pgbench_branches |             8192

 2017-02-05 00:31:23.241807+01 | 1486251083.24181 | pgbench_accounts |       1392427008
 2017-02-05 00:31:23.241807+01 | 1486251083.24181 | pgbench_tellers  |            49152
 2017-02-05 00:31:23.241807+01 | 1486251083.24181 | pgbench_history  |                0
 2017-02-05 00:31:23.241807+01 | 1486251083.24181 | pgbench_branches |             8192

 2017-02-05 00:31:24.362491+01 | 1486251084.36249 | pgbench_accounts |       1392427008
 2017-02-05 00:31:24.362491+01 | 1486251084.36249 | pgbench_tellers  |            49152
 2017-02-05 00:31:24.362491+01 | 1486251084.36249 | pgbench_history  |                0
 2017-02-05 00:31:24.362491+01 | 1486251084.36249 | pgbench_branches |             8192

 2017-02-05 00:31:25.471594+01 | 1486251085.47159 | pgbench_accounts |       1392427008
 2017-02-05 00:31:25.471594+01 | 1486251085.47159 | pgbench_tellers  |            49152
 2017-02-05 00:31:25.471594+01 | 1486251085.47159 | pgbench_history  |                0
 2017-02-05 00:31:25.471594+01 | 1486251085.47159 | pgbench_branches |             8192

 2017-02-05 00:31:26.584882+01 | 1486251086.58488 | pgbench_accounts |       1392427008
 2017-02-05 00:31:26.584882+01 | 1486251086.58488 | pgbench_tellers  |            49152
 2017-02-05 00:31:26.584882+01 | 1486251086.58488 | pgbench_history  |                0
 2017-02-05 00:31:26.584882+01 | 1486251086.58488 | pgbench_branches |             8192

 2017-02-05 00:31:27.680829+01 | 1486251087.68083 | pgbench_accounts |       1392427008
 2017-02-05 00:31:27.680829+01 | 1486251087.68083 | pgbench_tellers  |            49152
 2017-02-05 00:31:27.680829+01 | 1486251087.68083 | pgbench_history  |                0
 2017-02-05 00:31:27.680829+01 | 1486251087.68083 | pgbench_branches |             8192

 2017-02-05 00:31:28.781554+01 | 1486251088.78155 | pgbench_accounts |       1392427008
 2017-02-05 00:31:28.781554+01 | 1486251088.78155 | pgbench_tellers  |            49152
 2017-02-05 00:31:28.781554+01 | 1486251088.78155 | pgbench_history  |                0
 2017-02-05 00:31:28.781554+01 | 1486251088.78155 | pgbench_branches |             8192

 2017-02-05 00:31:29.885372+01 | 1486251089.88537 | pgbench_accounts |       1392427008
 2017-02-05 00:31:29.885372+01 | 1486251089.88537 | pgbench_tellers  |            49152
 2017-02-05 00:31:29.885372+01 | 1486251089.88537 | pgbench_history  |                0
 2017-02-05 00:31:29.885372+01 | 1486251089.88537 | pgbench_branches |             8192

 2017-02-05 00:31:31.005048+01 | 1486251091.00505 | pgbench_accounts |       1392427008
 2017-02-05 00:31:31.005048+01 | 1486251091.00505 | pgbench_tellers  |            49152
 2017-02-05 00:31:31.005048+01 | 1486251091.00505 | pgbench_history  |                0
 2017-02-05 00:31:31.005048+01 | 1486251091.00505 | pgbench_branches |             8192

 2017-02-05 00:31:32.109829+01 | 1486251092.10983 | pgbench_accounts |       1392427008
 2017-02-05 00:31:32.109829+01 | 1486251092.10983 | pgbench_tellers  |            49152
 2017-02-05 00:31:32.109829+01 | 1486251092.10983 | pgbench_history  |                0
 2017-02-05 00:31:32.109829+01 | 1486251092.10983 | pgbench_branches |             8192

 2017-02-05 00:31:33.214662+01 | 1486251093.21466 | pgbench_accounts |       1392427008
 2017-02-05 00:31:33.214662+01 | 1486251093.21466 | pgbench_tellers  |            49152
 2017-02-05 00:31:33.214662+01 | 1486251093.21466 | pgbench_history  |                0
 2017-02-05 00:31:33.214662+01 | 1486251093.21466 | pgbench_branches |             8192

 2017-02-05 00:31:34.313349+01 | 1486251094.31335 | pgbench_accounts |       1392427008
 2017-02-05 00:31:34.313349+01 | 1486251094.31335 | pgbench_tellers  |            49152
 2017-02-05 00:31:34.313349+01 | 1486251094.31335 | pgbench_history  |                0
 2017-02-05 00:31:34.313349+01 | 1486251094.31335 | pgbench_branches |             8192

 2017-02-05 00:31:35.431481+01 | 1486251095.43148 | pgbench_accounts |       1392427008
 2017-02-05 00:31:35.431481+01 | 1486251095.43148 | pgbench_tellers  |            49152
 2017-02-05 00:31:35.431481+01 | 1486251095.43148 | pgbench_history  |                0
 2017-02-05 00:31:35.431481+01 | 1486251095.43148 | pgbench_branches |             8192

 2017-02-05 00:31:36.535108+01 | 1486251096.53511 | pgbench_accounts |       1392427008
 2017-02-05 00:31:36.535108+01 | 1486251096.53511 | pgbench_tellers  |            49152
 2017-02-05 00:31:36.535108+01 | 1486251096.53511 | pgbench_history  |                0
 2017-02-05 00:31:36.535108+01 | 1486251096.53511 | pgbench_branches |             8192

 2017-02-05 00:31:37.636594+01 | 1486251097.63659 | pgbench_accounts |       1392427008
 2017-02-05 00:31:37.636594+01 | 1486251097.63659 | pgbench_tellers  |            49152
 2017-02-05 00:31:37.636594+01 | 1486251097.63659 | pgbench_history  |                0
 2017-02-05 00:31:37.636594+01 | 1486251097.63659 | pgbench_branches |             8192

 2017-02-05 00:31:38.731327+01 | 1486251098.73133 | pgbench_accounts |       1392427008
 2017-02-05 00:31:38.731327+01 | 1486251098.73133 | pgbench_tellers  |            49152
 2017-02-05 00:31:38.731327+01 | 1486251098.73133 | pgbench_history  |                0
 2017-02-05 00:31:38.731327+01 | 1486251098.73133 | pgbench_branches |             8192

 2017-02-05 00:31:39.821928+01 | 1486251099.82193 | pgbench_accounts |       1392427008
 2017-02-05 00:31:39.821928+01 | 1486251099.82193 | pgbench_tellers  |            49152
 2017-02-05 00:31:39.821928+01 | 1486251099.82193 | pgbench_history  |                0
 2017-02-05 00:31:39.821928+01 | 1486251099.82193 | pgbench_branches |             8192

 2017-02-05 00:31:40.948553+01 | 1486251100.94855 | pgbench_accounts |       1392427008
 2017-02-05 00:31:40.948553+01 | 1486251100.94855 | pgbench_tellers  |            49152
 2017-02-05 00:31:40.948553+01 | 1486251100.94855 | pgbench_history  |                0
 2017-02-05 00:31:40.948553+01 | 1486251100.94855 | pgbench_branches |             8192

 2017-02-05 00:31:42.041338+01 | 1486251102.04134 | pgbench_accounts |       1392427008
 2017-02-05 00:31:42.041338+01 | 1486251102.04134 | pgbench_tellers  |            49152
 2017-02-05 00:31:42.041338+01 | 1486251102.04134 | pgbench_history  |                0
 2017-02-05 00:31:42.041338+01 | 1486251102.04134 | pgbench_branches |             8192

 2017-02-05 00:31:43.150515+01 | 1486251103.15052 | pgbench_accounts |       1392427008
 2017-02-05 00:31:43.150515+01 | 1486251103.15052 | pgbench_tellers  |            49152
 2017-02-05 00:31:43.150515+01 | 1486251103.15052 | pgbench_history  |                0
 2017-02-05 00:31:43.150515+01 | 1486251103.15052 | pgbench_branches |             8192

 2017-02-05 00:31:44.255172+01 | 1486251104.25517 | pgbench_accounts |       1392427008
 2017-02-05 00:31:44.255172+01 | 1486251104.25517 | pgbench_tellers  |            49152
 2017-02-05 00:31:44.255172+01 | 1486251104.25517 | pgbench_history  |                0
 2017-02-05 00:31:44.255172+01 | 1486251104.25517 | pgbench_branches |             8192

 2017-02-05 00:31:45.364349+01 | 1486251105.36435 | pgbench_accounts |       1392427008
 2017-02-05 00:31:45.364349+01 | 1486251105.36435 | pgbench_tellers  |            49152
 2017-02-05 00:31:45.364349+01 | 1486251105.36435 | pgbench_history  |                0
 2017-02-05 00:31:45.364349+01 | 1486251105.36435 | pgbench_branches |             8192

 2017-02-05 00:31:46.468826+01 | 1486251106.46883 | pgbench_accounts |       1392427008
 2017-02-05 00:31:46.468826+01 | 1486251106.46883 | pgbench_tellers  |            49152
 2017-02-05 00:31:46.468826+01 | 1486251106.46883 | pgbench_history  |                0
 2017-02-05 00:31:46.468826+01 | 1486251106.46883 | pgbench_branches |             8192

 2017-02-05 00:31:47.576622+01 | 1486251107.57662 | pgbench_accounts |       1392427008
 2017-02-05 00:31:47.576622+01 | 1486251107.57662 | pgbench_tellers  |            49152
 2017-02-05 00:31:47.576622+01 | 1486251107.57662 | pgbench_history  |                0
 2017-02-05 00:31:47.576622+01 | 1486251107.57662 | pgbench_branches |             8192

 2017-02-05 00:31:48.674159+01 | 1486251108.67416 | pgbench_accounts |       1392427008
 2017-02-05 00:31:48.674159+01 | 1486251108.67416 | pgbench_tellers  |            49152
 2017-02-05 00:31:48.674159+01 | 1486251108.67416 | pgbench_history  |                0
 2017-02-05 00:31:48.674159+01 | 1486251108.67416 | pgbench_branches |             8192

 2017-02-05 00:31:49.779376+01 | 1486251109.77938 | pgbench_accounts |       1392427008
 2017-02-05 00:31:49.779376+01 | 1486251109.77938 | pgbench_tellers  |            49152
 2017-02-05 00:31:49.779376+01 | 1486251109.77938 | pgbench_history  |                0
 2017-02-05 00:31:49.779376+01 | 1486251109.77938 | pgbench_branches |             8192

 2017-02-05 00:31:50.893399+01 | 1486251110.8934 | pgbench_accounts |       1392427008
 2017-02-05 00:31:50.893399+01 | 1486251110.8934 | pgbench_tellers  |            49152
 2017-02-05 00:31:50.893399+01 | 1486251110.8934 | pgbench_history  |                0
 2017-02-05 00:31:50.893399+01 | 1486251110.8934 | pgbench_branches |             8192

 2017-02-05 00:31:51.997973+01 | 1486251111.99797 | pgbench_accounts |       1392427008
 2017-02-05 00:31:51.997973+01 | 1486251111.99797 | pgbench_tellers  |            49152
 2017-02-05 00:31:51.997973+01 | 1486251111.99797 | pgbench_history  |                0
 2017-02-05 00:31:51.997973+01 | 1486251111.99797 | pgbench_branches |             8192

 2017-02-05 00:31:53.103446+01 | 1486251113.10345 | pgbench_accounts |       1392427008
 2017-02-05 00:31:53.103446+01 | 1486251113.10345 | pgbench_tellers  |            49152
 2017-02-05 00:31:53.103446+01 | 1486251113.10345 | pgbench_history  |                0
 2017-02-05 00:31:53.103446+01 | 1486251113.10345 | pgbench_branches |             8192

 2017-02-05 00:31:54.209757+01 | 1486251114.20976 | pgbench_accounts |       1392427008
 2017-02-05 00:31:54.209757+01 | 1486251114.20976 | pgbench_tellers  |            49152
 2017-02-05 00:31:54.209757+01 | 1486251114.20976 | pgbench_history  |                0
 2017-02-05 00:31:54.209757+01 | 1486251114.20976 | pgbench_branches |             8192

 2017-02-05 00:31:55.313596+01 | 1486251115.3136 | pgbench_accounts |       1392427008
 2017-02-05 00:31:55.313596+01 | 1486251115.3136 | pgbench_tellers  |            49152
 2017-02-05 00:31:55.313596+01 | 1486251115.3136 | pgbench_history  |                0
 2017-02-05 00:31:55.313596+01 | 1486251115.3136 | pgbench_branches |             8192

 2017-02-05 00:31:56.433669+01 | 1486251116.43367 | pgbench_accounts |       1392427008
 2017-02-05 00:31:56.433669+01 | 1486251116.43367 | pgbench_tellers  |            49152
 2017-02-05 00:31:56.433669+01 | 1486251116.43367 | pgbench_history  |                0
 2017-02-05 00:31:56.433669+01 | 1486251116.43367 | pgbench_branches |             8192

 2017-02-05 00:31:57.531827+01 | 1486251117.53183 | pgbench_accounts |       1392427008
 2017-02-05 00:31:57.531827+01 | 1486251117.53183 | pgbench_tellers  |            49152
 2017-02-05 00:31:57.531827+01 | 1486251117.53183 | pgbench_history  |                0
 2017-02-05 00:31:57.531827+01 | 1486251117.53183 | pgbench_branches |             8192

 2017-02-05 00:31:58.638351+01 | 1486251118.63835 | pgbench_accounts |       1392427008
 2017-02-05 00:31:58.638351+01 | 1486251118.63835 | pgbench_tellers  |            49152
 2017-02-05 00:31:58.638351+01 | 1486251118.63835 | pgbench_history  |                0
 2017-02-05 00:31:58.638351+01 | 1486251118.63835 | pgbench_branches |             8192

 2017-02-05 00:31:59.725306+01 | 1486251119.72531 | pgbench_accounts |       1392427008
 2017-02-05 00:31:59.725306+01 | 1486251119.72531 | pgbench_tellers  |            49152
 2017-02-05 00:31:59.725306+01 | 1486251119.72531 | pgbench_history  |                0
 2017-02-05 00:31:59.725306+01 | 1486251119.72531 | pgbench_branches |             8192

 2017-02-05 00:32:00.843375+01 | 1486251120.84337 | pgbench_accounts |       1392427008
 2017-02-05 00:32:00.843375+01 | 1486251120.84337 | pgbench_tellers  |            49152
 2017-02-05 00:32:00.843375+01 | 1486251120.84337 | pgbench_history  |                0
 2017-02-05 00:32:00.843375+01 | 1486251120.84337 | pgbench_branches |             8192

 2017-02-05 00:32:01.940876+01 | 1486251121.94088 | pgbench_accounts |       1392427008
 2017-02-05 00:32:01.940876+01 | 1486251121.94088 | pgbench_tellers  |            49152
 2017-02-05 00:32:01.940876+01 | 1486251121.94088 | pgbench_history  |                0
 2017-02-05 00:32:01.940876+01 | 1486251121.94088 | pgbench_branches |             8192

 2017-02-05 00:32:03.038989+01 | 1486251123.03899 | pgbench_accounts |       1392427008
 2017-02-05 00:32:03.038989+01 | 1486251123.03899 | pgbench_tellers  |            49152
 2017-02-05 00:32:03.038989+01 | 1486251123.03899 | pgbench_history  |                0
 2017-02-05 00:32:03.038989+01 | 1486251123.03899 | pgbench_branches |             8192

 2017-02-05 00:32:04.13825+01 | 1486251124.13825 | pgbench_accounts |       1392427008
 2017-02-05 00:32:04.13825+01 | 1486251124.13825 | pgbench_tellers  |            49152
 2017-02-05 00:32:04.13825+01 | 1486251124.13825 | pgbench_history  |                0
 2017-02-05 00:32:04.13825+01 | 1486251124.13825 | pgbench_branches |             8192

 2017-02-05 00:32:05.234041+01 | 1486251125.23404 | pgbench_accounts |       1392427008
 2017-02-05 00:32:05.234041+01 | 1486251125.23404 | pgbench_tellers  |            49152
 2017-02-05 00:32:05.234041+01 | 1486251125.23404 | pgbench_history  |                0
 2017-02-05 00:32:05.234041+01 | 1486251125.23404 | pgbench_branches |             8192

 2017-02-05 00:32:06.327822+01 | 1486251126.32782 | pgbench_accounts |       1392427008
 2017-02-05 00:32:06.327822+01 | 1486251126.32782 | pgbench_tellers  |            49152
 2017-02-05 00:32:06.327822+01 | 1486251126.32782 | pgbench_history  |                0
 2017-02-05 00:32:06.327822+01 | 1486251126.32782 | pgbench_branches |             8192

 2017-02-05 00:32:07.437408+01 | 1486251127.43741 | pgbench_accounts |       1392427008
 2017-02-05 00:32:07.437408+01 | 1486251127.43741 | pgbench_tellers  |            49152
 2017-02-05 00:32:07.437408+01 | 1486251127.43741 | pgbench_history  |                0
 2017-02-05 00:32:07.437408+01 | 1486251127.43741 | pgbench_branches |             8192

 2017-02-05 00:32:08.539859+01 | 1486251128.53986 | pgbench_accounts |       1392427008
 2017-02-05 00:32:08.539859+01 | 1486251128.53986 | pgbench_tellers  |            49152
 2017-02-05 00:32:08.539859+01 | 1486251128.53986 | pgbench_history  |                0
 2017-02-05 00:32:08.539859+01 | 1486251128.53986 | pgbench_branches |             8192

 2017-02-05 00:32:09.648296+01 | 1486251129.6483 | pgbench_accounts |       1392427008
 2017-02-05 00:32:09.648296+01 | 1486251129.6483 | pgbench_tellers  |            49152
 2017-02-05 00:32:09.648296+01 | 1486251129.6483 | pgbench_history  |                0
 2017-02-05 00:32:09.648296+01 | 1486251129.6483 | pgbench_branches |             8192

 2017-02-05 00:32:10.754718+01 | 1486251130.75472 | pgbench_accounts |       1392427008
 2017-02-05 00:32:10.754718+01 | 1486251130.75472 | pgbench_tellers  |            49152
 2017-02-05 00:32:10.754718+01 | 1486251130.75472 | pgbench_history  |                0
 2017-02-05 00:32:10.754718+01 | 1486251130.75472 | pgbench_branches |             8192

 2017-02-05 00:32:11.846452+01 | 1486251131.84645 | pgbench_accounts |       1392427008
 2017-02-05 00:32:11.846452+01 | 1486251131.84645 | pgbench_tellers  |            49152
 2017-02-05 00:32:11.846452+01 | 1486251131.84645 | pgbench_history  |                0
 2017-02-05 00:32:11.846452+01 | 1486251131.84645 | pgbench_branches |             8192

 2017-02-05 00:32:12.949466+01 | 1486251132.94947 | pgbench_accounts |       1392427008
 2017-02-05 00:32:12.949466+01 | 1486251132.94947 | pgbench_tellers  |            49152
 2017-02-05 00:32:12.949466+01 | 1486251132.94947 | pgbench_history  |                0
 2017-02-05 00:32:12.949466+01 | 1486251132.94947 | pgbench_branches |             8192

 2017-02-05 00:32:14.043854+01 | 1486251134.04385 | pgbench_accounts |       1392427008
 2017-02-05 00:32:14.043854+01 | 1486251134.04385 | pgbench_tellers  |            49152
 2017-02-05 00:32:14.043854+01 | 1486251134.04385 | pgbench_history  |                0
 2017-02-05 00:32:14.043854+01 | 1486251134.04385 | pgbench_branches |             8192

 2017-02-05 00:32:15.140702+01 | 1486251135.1407 | pgbench_accounts |       1392427008
 2017-02-05 00:32:15.140702+01 | 1486251135.1407 | pgbench_tellers  |            49152
 2017-02-05 00:32:15.140702+01 | 1486251135.1407 | pgbench_history  |                0
 2017-02-05 00:32:15.140702+01 | 1486251135.1407 | pgbench_branches |             8192

 2017-02-05 00:32:16.244012+01 | 1486251136.24401 | pgbench_accounts |       1392427008
 2017-02-05 00:32:16.244012+01 | 1486251136.24401 | pgbench_tellers  |            49152
 2017-02-05 00:32:16.244012+01 | 1486251136.24401 | pgbench_history  |                0
 2017-02-05 00:32:16.244012+01 | 1486251136.24401 | pgbench_branches |             8192

 2017-02-05 00:32:17.343564+01 | 1486251137.34356 | pgbench_accounts |       1392427008
 2017-02-05 00:32:17.343564+01 | 1486251137.34356 | pgbench_tellers  |            49152
 2017-02-05 00:32:17.343564+01 | 1486251137.34356 | pgbench_history  |                0
 2017-02-05 00:32:17.343564+01 | 1486251137.34356 | pgbench_branches |             8192

 2017-02-05 00:32:18.440231+01 | 1486251138.44023 | pgbench_accounts |       1392427008
 2017-02-05 00:32:18.440231+01 | 1486251138.44023 | pgbench_tellers  |            49152
 2017-02-05 00:32:18.440231+01 | 1486251138.44023 | pgbench_history  |                0
 2017-02-05 00:32:18.440231+01 | 1486251138.44023 | pgbench_branches |             8192

 2017-02-05 00:32:19.550942+01 | 1486251139.55094 | pgbench_accounts |       1392427008
 2017-02-05 00:32:19.550942+01 | 1486251139.55094 | pgbench_tellers  |            49152
 2017-02-05 00:32:19.550942+01 | 1486251139.55094 | pgbench_history  |                0
 2017-02-05 00:32:19.550942+01 | 1486251139.55094 | pgbench_branches |             8192

 2017-02-05 00:32:20.658072+01 | 1486251140.65807 | pgbench_accounts |       1392427008
 2017-02-05 00:32:20.658072+01 | 1486251140.65807 | pgbench_tellers  |            49152
 2017-02-05 00:32:20.658072+01 | 1486251140.65807 | pgbench_history  |                0
 2017-02-05 00:32:20.658072+01 | 1486251140.65807 | pgbench_branches |             8192

 2017-02-05 00:32:21.762328+01 | 1486251141.76233 | pgbench_accounts |       1392427008
 2017-02-05 00:32:21.762328+01 | 1486251141.76233 | pgbench_tellers  |            49152
 2017-02-05 00:32:21.762328+01 | 1486251141.76233 | pgbench_history  |                0
 2017-02-05 00:32:21.762328+01 | 1486251141.76233 | pgbench_branches |             8192

 2017-02-05 00:32:22.862952+01 | 1486251142.86295 | pgbench_accounts |       1392427008
 2017-02-05 00:32:22.862952+01 | 1486251142.86295 | pgbench_tellers  |            49152
 2017-02-05 00:32:22.862952+01 | 1486251142.86295 | pgbench_history  |                0
 2017-02-05 00:32:22.862952+01 | 1486251142.86295 | pgbench_branches |             8192

 2017-02-05 00:32:23.959322+01 | 1486251143.95932 | pgbench_accounts |       1392427008
 2017-02-05 00:32:23.959322+01 | 1486251143.95932 | pgbench_tellers  |            49152
 2017-02-05 00:32:23.959322+01 | 1486251143.95932 | pgbench_history  |                0
 2017-02-05 00:32:23.959322+01 | 1486251143.95932 | pgbench_branches |             8192

 2017-02-05 00:32:25.070967+01 | 1486251145.07097 | pgbench_accounts |       1392427008
 2017-02-05 00:32:25.070967+01 | 1486251145.07097 | pgbench_tellers  |            49152
 2017-02-05 00:32:25.070967+01 | 1486251145.07097 | pgbench_history  |                0
 2017-02-05 00:32:25.070967+01 | 1486251145.07097 | pgbench_branches |             8192

 2017-02-05 00:32:26.180403+01 | 1486251146.1804 | pgbench_accounts |       1392427008
 2017-02-05 00:32:26.180403+01 | 1486251146.1804 | pgbench_tellers  |            49152
 2017-02-05 00:32:26.180403+01 | 1486251146.1804 | pgbench_history  |                0
 2017-02-05 00:32:26.180403+01 | 1486251146.1804 | pgbench_branches |             8192

 2017-02-05 00:32:27.274699+01 | 1486251147.2747 | pgbench_accounts |       1392427008
 2017-02-05 00:32:27.274699+01 | 1486251147.2747 | pgbench_tellers  |            49152
 2017-02-05 00:32:27.274699+01 | 1486251147.2747 | pgbench_history  |                0
 2017-02-05 00:32:27.274699+01 | 1486251147.2747 | pgbench_branches |             8192

 2017-02-05 00:32:28.378836+01 | 1486251148.37884 | pgbench_accounts |       1392427008
 2017-02-05 00:32:28.378836+01 | 1486251148.37884 | pgbench_tellers  |            49152
 2017-02-05 00:32:28.378836+01 | 1486251148.37884 | pgbench_history  |                0
 2017-02-05 00:32:28.378836+01 | 1486251148.37884 | pgbench_branches |             8192

 2017-02-05 00:32:29.480311+01 | 1486251149.48031 | pgbench_accounts |       1392427008
 2017-02-05 00:32:29.480311+01 | 1486251149.48031 | pgbench_tellers  |            49152
 2017-02-05 00:32:29.480311+01 | 1486251149.48031 | pgbench_history  |                0
 2017-02-05 00:32:29.480311+01 | 1486251149.48031 | pgbench_branches |             8192

 2017-02-05 00:32:30.587953+01 | 1486251150.58795 | pgbench_accounts |       1392427008
 2017-02-05 00:32:30.587953+01 | 1486251150.58795 | pgbench_tellers  |            49152
 2017-02-05 00:32:30.587953+01 | 1486251150.58795 | pgbench_history  |                0
 2017-02-05 00:32:30.587953+01 | 1486251150.58795 | pgbench_branches |             8192

 2017-02-05 00:32:31.697137+01 | 1486251151.69714 | pgbench_accounts |       1392427008
 2017-02-05 00:32:31.697137+01 | 1486251151.69714 | pgbench_tellers  |            49152
 2017-02-05 00:32:31.697137+01 | 1486251151.69714 | pgbench_history  |                0
 2017-02-05 00:32:31.697137+01 | 1486251151.69714 | pgbench_branches |             8192

 2017-02-05 00:32:32.789874+01 | 1486251152.78987 | pgbench_accounts |       1392427008
 2017-02-05 00:32:32.789874+01 | 1486251152.78987 | pgbench_tellers  |            49152
 2017-02-05 00:32:32.789874+01 | 1486251152.78987 | pgbench_history  |                0
 2017-02-05 00:32:32.789874+01 | 1486251152.78987 | pgbench_branches |             8192

 2017-02-05 00:32:33.891948+01 | 1486251153.89195 | pgbench_accounts |       1392427008
 2017-02-05 00:32:33.891948+01 | 1486251153.89195 | pgbench_tellers  |            49152
 2017-02-05 00:32:33.891948+01 | 1486251153.89195 | pgbench_history  |                0
 2017-02-05 00:32:33.891948+01 | 1486251153.89195 | pgbench_branches |             8192

 2017-02-05 00:32:34.994563+01 | 1486251154.99456 | pgbench_accounts |       1392427008
 2017-02-05 00:32:34.994563+01 | 1486251154.99456 | pgbench_tellers  |            49152
 2017-02-05 00:32:34.994563+01 | 1486251154.99456 | pgbench_history  |                0
 2017-02-05 00:32:34.994563+01 | 1486251154.99456 | pgbench_branches |             8192

 2017-02-05 00:32:36.107469+01 | 1486251156.10747 | pgbench_accounts |       1392427008
 2017-02-05 00:32:36.107469+01 | 1486251156.10747 | pgbench_tellers  |            49152
 2017-02-05 00:32:36.107469+01 | 1486251156.10747 | pgbench_history  |                0
 2017-02-05 00:32:36.107469+01 | 1486251156.10747 | pgbench_branches |             8192

 2017-02-05 00:32:37.213731+01 | 1486251157.21373 | pgbench_accounts |       1392427008
 2017-02-05 00:32:37.213731+01 | 1486251157.21373 | pgbench_tellers  |            49152
 2017-02-05 00:32:37.213731+01 | 1486251157.21373 | pgbench_history  |                0
 2017-02-05 00:32:37.213731+01 | 1486251157.21373 | pgbench_branches |             8192

 2017-02-05 00:32:38.329147+01 | 1486251158.32915 | pgbench_accounts |       1392427008
 2017-02-05 00:32:38.329147+01 | 1486251158.32915 | pgbench_tellers  |            49152
 2017-02-05 00:32:38.329147+01 | 1486251158.32915 | pgbench_history  |                0
 2017-02-05 00:32:38.329147+01 | 1486251158.32915 | pgbench_branches |             8192

 2017-02-05 00:32:39.433164+01 | 1486251159.43316 | pgbench_accounts |       1392427008
 2017-02-05 00:32:39.433164+01 | 1486251159.43316 | pgbench_tellers  |            49152
 2017-02-05 00:32:39.433164+01 | 1486251159.43316 | pgbench_history  |                0
 2017-02-05 00:32:39.433164+01 | 1486251159.43316 | pgbench_branches |             8192

 2017-02-05 00:32:40.534887+01 | 1486251160.53489 | pgbench_accounts |       1392427008
 2017-02-05 00:32:40.534887+01 | 1486251160.53489 | pgbench_tellers  |            49152
 2017-02-05 00:32:40.534887+01 | 1486251160.53489 | pgbench_history  |                0
 2017-02-05 00:32:40.534887+01 | 1486251160.53489 | pgbench_branches |             8192

 2017-02-05 00:32:41.638706+01 | 1486251161.63871 | pgbench_accounts |       1392427008
 2017-02-05 00:32:41.638706+01 | 1486251161.63871 | pgbench_tellers  |            49152
 2017-02-05 00:32:41.638706+01 | 1486251161.63871 | pgbench_history  |                0
 2017-02-05 00:32:41.638706+01 | 1486251161.63871 | pgbench_branches |             8192

 2017-02-05 00:32:42.751956+01 | 1486251162.75196 | pgbench_accounts |       1392427008
 2017-02-05 00:32:42.751956+01 | 1486251162.75196 | pgbench_tellers  |            49152
 2017-02-05 00:32:42.751956+01 | 1486251162.75196 | pgbench_history  |                0
 2017-02-05 00:32:42.751956+01 | 1486251162.75196 | pgbench_branches |             8192

 2017-02-05 00:32:43.841621+01 | 1486251163.84162 | pgbench_accounts |       1392427008
 2017-02-05 00:32:43.841621+01 | 1486251163.84162 | pgbench_tellers  |            49152
 2017-02-05 00:32:43.841621+01 | 1486251163.84162 | pgbench_history  |                0
 2017-02-05 00:32:43.841621+01 | 1486251163.84162 | pgbench_branches |             8192

 2017-02-05 00:32:44.940793+01 | 1486251164.94079 | pgbench_accounts |       1392427008
 2017-02-05 00:32:44.940793+01 | 1486251164.94079 | pgbench_tellers  |            49152
 2017-02-05 00:32:44.940793+01 | 1486251164.94079 | pgbench_history  |                0
 2017-02-05 00:32:44.940793+01 | 1486251164.94079 | pgbench_branches |             8192

 2017-02-05 00:32:46.046193+01 | 1486251166.04619 | pgbench_accounts |       1392427008
 2017-02-05 00:32:46.046193+01 | 1486251166.04619 | pgbench_tellers  |            49152
 2017-02-05 00:32:46.046193+01 | 1486251166.04619 | pgbench_history  |                0
 2017-02-05 00:32:46.046193+01 | 1486251166.04619 | pgbench_branches |             8192

 2017-02-05 00:32:47.153838+01 | 1486251167.15384 | pgbench_accounts |       1392427008
 2017-02-05 00:32:47.153838+01 | 1486251167.15384 | pgbench_tellers  |            49152
 2017-02-05 00:32:47.153838+01 | 1486251167.15384 | pgbench_history  |                0
 2017-02-05 00:32:47.153838+01 | 1486251167.15384 | pgbench_branches |             8192

 2017-02-05 00:32:48.263544+01 | 1486251168.26354 | pgbench_accounts |       1392427008
 2017-02-05 00:32:48.263544+01 | 1486251168.26354 | pgbench_tellers  |            49152
 2017-02-05 00:32:48.263544+01 | 1486251168.26354 | pgbench_history  |                0
 2017-02-05 00:32:48.263544+01 | 1486251168.26354 | pgbench_branches |             8192

 2017-02-05 00:32:49.372444+01 | 1486251169.37244 | pgbench_accounts |       1392427008
 2017-02-05 00:32:49.372444+01 | 1486251169.37244 | pgbench_tellers  |            49152
 2017-02-05 00:32:49.372444+01 | 1486251169.37244 | pgbench_history  |                0
 2017-02-05 00:32:49.372444+01 | 1486251169.37244 | pgbench_branches |             8192

 2017-02-05 00:32:50.472639+01 | 1486251170.47264 | pgbench_accounts |       1392427008
 2017-02-05 00:32:50.472639+01 | 1486251170.47264 | pgbench_tellers  |            49152
 2017-02-05 00:32:50.472639+01 | 1486251170.47264 | pgbench_history  |                0
 2017-02-05 00:32:50.472639+01 | 1486251170.47264 | pgbench_branches |             8192

 2017-02-05 00:32:51.572073+01 | 1486251171.57207 | pgbench_accounts |       1392427008
 2017-02-05 00:32:51.572073+01 | 1486251171.57207 | pgbench_tellers  |            49152
 2017-02-05 00:32:51.572073+01 | 1486251171.57207 | pgbench_history  |                0
 2017-02-05 00:32:51.572073+01 | 1486251171.57207 | pgbench_branches |             8192

 2017-02-05 00:32:52.667993+01 | 1486251172.66799 | pgbench_accounts |       1392427008
 2017-02-05 00:32:52.667993+01 | 1486251172.66799 | pgbench_tellers  |            49152
 2017-02-05 00:32:52.667993+01 | 1486251172.66799 | pgbench_history  |                0
 2017-02-05 00:32:52.667993+01 | 1486251172.66799 | pgbench_branches |             8192

 2017-02-05 00:32:53.765834+01 | 1486251173.76583 | pgbench_accounts |       1392427008
 2017-02-05 00:32:53.765834+01 | 1486251173.76583 | pgbench_tellers  |            49152
 2017-02-05 00:32:53.765834+01 | 1486251173.76583 | pgbench_history  |                0
 2017-02-05 00:32:53.765834+01 | 1486251173.76583 | pgbench_branches |             8192

 2017-02-05 00:32:54.863058+01 | 1486251174.86306 | pgbench_accounts |       1392427008
 2017-02-05 00:32:54.863058+01 | 1486251174.86306 | pgbench_tellers  |            49152
 2017-02-05 00:32:54.863058+01 | 1486251174.86306 | pgbench_history  |                0
 2017-02-05 00:32:54.863058+01 | 1486251174.86306 | pgbench_branches |             8192

 2017-02-05 00:32:55.974342+01 | 1486251175.97434 | pgbench_accounts |       1392427008
 2017-02-05 00:32:55.974342+01 | 1486251175.97434 | pgbench_tellers  |            49152
 2017-02-05 00:32:55.974342+01 | 1486251175.97434 | pgbench_history  |                0
 2017-02-05 00:32:55.974342+01 | 1486251175.97434 | pgbench_branches |             8192

 2017-02-05 00:32:57.075394+01 | 1486251177.07539 | pgbench_accounts |       1392427008
 2017-02-05 00:32:57.075394+01 | 1486251177.07539 | pgbench_tellers  |            49152
 2017-02-05 00:32:57.075394+01 | 1486251177.07539 | pgbench_history  |                0
 2017-02-05 00:32:57.075394+01 | 1486251177.07539 | pgbench_branches |             8192

 2017-02-05 00:32:58.17537+01 | 1486251178.17537 | pgbench_accounts |       1392427008
 2017-02-05 00:32:58.17537+01 | 1486251178.17537 | pgbench_tellers  |            49152
 2017-02-05 00:32:58.17537+01 | 1486251178.17537 | pgbench_history  |                0
 2017-02-05 00:32:58.17537+01 | 1486251178.17537 | pgbench_branches |             8192

 2017-02-05 00:32:59.276087+01 | 1486251179.27609 | pgbench_accounts |       1392427008
 2017-02-05 00:32:59.276087+01 | 1486251179.27609 | pgbench_tellers  |            49152
 2017-02-05 00:32:59.276087+01 | 1486251179.27609 | pgbench_history  |                0
 2017-02-05 00:32:59.276087+01 | 1486251179.27609 | pgbench_branches |             8192

 2017-02-05 00:33:00.379587+01 | 1486251180.37959 | pgbench_accounts |       1392427008
 2017-02-05 00:33:00.379587+01 | 1486251180.37959 | pgbench_tellers  |            49152
 2017-02-05 00:33:00.379587+01 | 1486251180.37959 | pgbench_history  |                0
 2017-02-05 00:33:00.379587+01 | 1486251180.37959 | pgbench_branches |             8192

 2017-02-05 00:33:01.488341+01 | 1486251181.48834 | pgbench_accounts |       1392427008
 2017-02-05 00:33:01.488341+01 | 1486251181.48834 | pgbench_tellers  |            49152
 2017-02-05 00:33:01.488341+01 | 1486251181.48834 | pgbench_history  |                0
 2017-02-05 00:33:01.488341+01 | 1486251181.48834 | pgbench_branches |             8192

 2017-02-05 00:33:02.608105+01 | 1486251182.6081 | pgbench_accounts |       1392427008
 2017-02-05 00:33:02.608105+01 | 1486251182.6081 | pgbench_tellers  |            49152
 2017-02-05 00:33:02.608105+01 | 1486251182.6081 | pgbench_history  |                0
 2017-02-05 00:33:02.608105+01 | 1486251182.6081 | pgbench_branches |             8192

 2017-02-05 00:33:03.715239+01 | 1486251183.71524 | pgbench_accounts |       1392427008
 2017-02-05 00:33:03.715239+01 | 1486251183.71524 | pgbench_tellers  |            49152
 2017-02-05 00:33:03.715239+01 | 1486251183.71524 | pgbench_history  |                0
 2017-02-05 00:33:03.715239+01 | 1486251183.71524 | pgbench_branches |             8192

 2017-02-05 00:33:04.82005+01 | 1486251184.82005 | pgbench_accounts |       1392427008
 2017-02-05 00:33:04.82005+01 | 1486251184.82005 | pgbench_tellers  |            49152
 2017-02-05 00:33:04.82005+01 | 1486251184.82005 | pgbench_history  |                0
 2017-02-05 00:33:04.82005+01 | 1486251184.82005 | pgbench_branches |             8192

 2017-02-05 00:33:05.918303+01 | 1486251185.9183 | pgbench_accounts |       1392427008
 2017-02-05 00:33:05.918303+01 | 1486251185.9183 | pgbench_tellers  |            49152
 2017-02-05 00:33:05.918303+01 | 1486251185.9183 | pgbench_history  |                0
 2017-02-05 00:33:05.918303+01 | 1486251185.9183 | pgbench_branches |             8192

 2017-02-05 00:33:07.027041+01 | 1486251187.02704 | pgbench_accounts |       1392427008
 2017-02-05 00:33:07.027041+01 | 1486251187.02704 | pgbench_tellers  |            49152
 2017-02-05 00:33:07.027041+01 | 1486251187.02704 | pgbench_history  |                0
 2017-02-05 00:33:07.027041+01 | 1486251187.02704 | pgbench_branches |             8192

 2017-02-05 00:33:08.128954+01 | 1486251188.12895 | pgbench_accounts |       1392427008
 2017-02-05 00:33:08.128954+01 | 1486251188.12895 | pgbench_tellers  |            49152
 2017-02-05 00:33:08.128954+01 | 1486251188.12895 | pgbench_history  |                0
 2017-02-05 00:33:08.128954+01 | 1486251188.12895 | pgbench_branches |             8192

 2017-02-05 00:33:09.233442+01 | 1486251189.23344 | pgbench_accounts |       1392427008
 2017-02-05 00:33:09.233442+01 | 1486251189.23344 | pgbench_tellers  |            49152
 2017-02-05 00:33:09.233442+01 | 1486251189.23344 | pgbench_history  |                0
 2017-02-05 00:33:09.233442+01 | 1486251189.23344 | pgbench_branches |             8192

 2017-02-05 00:33:10.340302+01 | 1486251190.3403 | pgbench_accounts |       1392427008
 2017-02-05 00:33:10.340302+01 | 1486251190.3403 | pgbench_tellers  |            49152
 2017-02-05 00:33:10.340302+01 | 1486251190.3403 | pgbench_history  |                0
 2017-02-05 00:33:10.340302+01 | 1486251190.3403 | pgbench_branches |             8192

 2017-02-05 00:33:11.443421+01 | 1486251191.44342 | pgbench_accounts |       1392427008
 2017-02-05 00:33:11.443421+01 | 1486251191.44342 | pgbench_tellers  |            49152
 2017-02-05 00:33:11.443421+01 | 1486251191.44342 | pgbench_history  |                0
 2017-02-05 00:33:11.443421+01 | 1486251191.44342 | pgbench_branches |             8192

 2017-02-05 00:33:12.542985+01 | 1486251192.54298 | pgbench_accounts |       1392427008
 2017-02-05 00:33:12.542985+01 | 1486251192.54298 | pgbench_tellers  |            49152
 2017-02-05 00:33:12.542985+01 | 1486251192.54298 | pgbench_history  |                0
 2017-02-05 00:33:12.542985+01 | 1486251192.54298 | pgbench_branches |             8192

 2017-02-05 00:33:13.647187+01 | 1486251193.64719 | pgbench_accounts |       1392427008
 2017-02-05 00:33:13.647187+01 | 1486251193.64719 | pgbench_tellers  |            49152
 2017-02-05 00:33:13.647187+01 | 1486251193.64719 | pgbench_history  |                0
 2017-02-05 00:33:13.647187+01 | 1486251193.64719 | pgbench_branches |             8192

 2017-02-05 00:33:14.747181+01 | 1486251194.74718 | pgbench_accounts |       1392427008
 2017-02-05 00:33:14.747181+01 | 1486251194.74718 | pgbench_tellers  |            49152
 2017-02-05 00:33:14.747181+01 | 1486251194.74718 | pgbench_history  |                0
 2017-02-05 00:33:14.747181+01 | 1486251194.74718 | pgbench_branches |             8192

 2017-02-05 00:33:15.848625+01 | 1486251195.84862 | pgbench_accounts |       1392427008
 2017-02-05 00:33:15.848625+01 | 1486251195.84862 | pgbench_tellers  |            49152
 2017-02-05 00:33:15.848625+01 | 1486251195.84862 | pgbench_history  |                0
 2017-02-05 00:33:15.848625+01 | 1486251195.84862 | pgbench_branches |             8192

 2017-02-05 00:33:16.952818+01 | 1486251196.95282 | pgbench_accounts |       1392427008
 2017-02-05 00:33:16.952818+01 | 1486251196.95282 | pgbench_tellers  |            49152
 2017-02-05 00:33:16.952818+01 | 1486251196.95282 | pgbench_history  |                0
 2017-02-05 00:33:16.952818+01 | 1486251196.95282 | pgbench_branches |             8192

 2017-02-05 00:33:18.054238+01 | 1486251198.05424 | pgbench_accounts |       1392427008
 2017-02-05 00:33:18.054238+01 | 1486251198.05424 | pgbench_tellers  |            49152
 2017-02-05 00:33:18.054238+01 | 1486251198.05424 | pgbench_history  |                0
 2017-02-05 00:33:18.054238+01 | 1486251198.05424 | pgbench_branches |             8192

 2017-02-05 00:33:19.154424+01 | 1486251199.15442 | pgbench_accounts |       1392427008
 2017-02-05 00:33:19.154424+01 | 1486251199.15442 | pgbench_tellers  |            49152
 2017-02-05 00:33:19.154424+01 | 1486251199.15442 | pgbench_history  |                0
 2017-02-05 00:33:19.154424+01 | 1486251199.15442 | pgbench_branches |             8192

 2017-02-05 00:33:20.2457+01 | 1486251200.2457 | pgbench_accounts |       1392427008
 2017-02-05 00:33:20.2457+01 | 1486251200.2457 | pgbench_tellers  |            49152
 2017-02-05 00:33:20.2457+01 | 1486251200.2457 | pgbench_history  |                0
 2017-02-05 00:33:20.2457+01 | 1486251200.2457 | pgbench_branches |             8192

 2017-02-05 00:33:21.336343+01 | 1486251201.33634 | pgbench_accounts |       1392427008
 2017-02-05 00:33:21.336343+01 | 1486251201.33634 | pgbench_tellers  |            49152
 2017-02-05 00:33:21.336343+01 | 1486251201.33634 | pgbench_history  |                0
 2017-02-05 00:33:21.336343+01 | 1486251201.33634 | pgbench_branches |             8192

 2017-02-05 00:33:22.44037+01 | 1486251202.44037 | pgbench_accounts |       1392427008
 2017-02-05 00:33:22.44037+01 | 1486251202.44037 | pgbench_tellers  |            49152
 2017-02-05 00:33:22.44037+01 | 1486251202.44037 | pgbench_history  |                0
 2017-02-05 00:33:22.44037+01 | 1486251202.44037 | pgbench_branches |             8192

 2017-02-05 00:33:23.546341+01 | 1486251203.54634 | pgbench_accounts |       1392427008
 2017-02-05 00:33:23.546341+01 | 1486251203.54634 | pgbench_tellers  |            49152
 2017-02-05 00:33:23.546341+01 | 1486251203.54634 | pgbench_history  |                0
 2017-02-05 00:33:23.546341+01 | 1486251203.54634 | pgbench_branches |             8192

 2017-02-05 00:33:24.647415+01 | 1486251204.64741 | pgbench_accounts |       1392427008
 2017-02-05 00:33:24.647415+01 | 1486251204.64741 | pgbench_tellers  |            49152
 2017-02-05 00:33:24.647415+01 | 1486251204.64741 | pgbench_history  |                0
 2017-02-05 00:33:24.647415+01 | 1486251204.64741 | pgbench_branches |             8192

 2017-02-05 00:33:25.747005+01 | 1486251205.747 | pgbench_accounts |       1392427008
 2017-02-05 00:33:25.747005+01 | 1486251205.747 | pgbench_tellers  |            49152
 2017-02-05 00:33:25.747005+01 | 1486251205.747 | pgbench_history  |                0
 2017-02-05 00:33:25.747005+01 | 1486251205.747 | pgbench_branches |             8192

 2017-02-05 00:33:26.837822+01 | 1486251206.83782 | pgbench_accounts |       1392427008
 2017-02-05 00:33:26.837822+01 | 1486251206.83782 | pgbench_tellers  |            49152
 2017-02-05 00:33:26.837822+01 | 1486251206.83782 | pgbench_history  |                0
 2017-02-05 00:33:26.837822+01 | 1486251206.83782 | pgbench_branches |             8192

 2017-02-05 00:33:27.947348+01 | 1486251207.94735 | pgbench_accounts |       1392427008
 2017-02-05 00:33:27.947348+01 | 1486251207.94735 | pgbench_tellers  |            49152
 2017-02-05 00:33:27.947348+01 | 1486251207.94735 | pgbench_history  |                0
 2017-02-05 00:33:27.947348+01 | 1486251207.94735 | pgbench_branches |             8192

 2017-02-05 00:33:29.041733+01 | 1486251209.04173 | pgbench_accounts |       1392427008
 2017-02-05 00:33:29.041733+01 | 1486251209.04173 | pgbench_tellers  |            49152
 2017-02-05 00:33:29.041733+01 | 1486251209.04173 | pgbench_history  |                0
 2017-02-05 00:33:29.041733+01 | 1486251209.04173 | pgbench_branches |             8192

 2017-02-05 00:33:30.142684+01 | 1486251210.14268 | pgbench_accounts |       1392427008
 2017-02-05 00:33:30.142684+01 | 1486251210.14268 | pgbench_tellers  |            49152
 2017-02-05 00:33:30.142684+01 | 1486251210.14268 | pgbench_history  |                0
 2017-02-05 00:33:30.142684+01 | 1486251210.14268 | pgbench_branches |             8192

 2017-02-05 00:33:31.2516+01 | 1486251211.2516 | pgbench_accounts |       1392427008
 2017-02-05 00:33:31.2516+01 | 1486251211.2516 | pgbench_tellers  |            49152
 2017-02-05 00:33:31.2516+01 | 1486251211.2516 | pgbench_history  |                0
 2017-02-05 00:33:31.2516+01 | 1486251211.2516 | pgbench_branches |             8192

 2017-02-05 00:33:32.355168+01 | 1486251212.35517 | pgbench_accounts |       1392427008
 2017-02-05 00:33:32.355168+01 | 1486251212.35517 | pgbench_tellers  |            49152
 2017-02-05 00:33:32.355168+01 | 1486251212.35517 | pgbench_history  |                0
 2017-02-05 00:33:32.355168+01 | 1486251212.35517 | pgbench_branches |             8192

 2017-02-05 00:33:33.459307+01 | 1486251213.45931 | pgbench_accounts |       1392427008
 2017-02-05 00:33:33.459307+01 | 1486251213.45931 | pgbench_tellers  |            49152
 2017-02-05 00:33:33.459307+01 | 1486251213.45931 | pgbench_history  |                0
 2017-02-05 00:33:33.459307+01 | 1486251213.45931 | pgbench_branches |             8192

 2017-02-05 00:33:34.5614+01 | 1486251214.5614 | pgbench_accounts |       1392427008
 2017-02-05 00:33:34.5614+01 | 1486251214.5614 | pgbench_tellers  |            49152
 2017-02-05 00:33:34.5614+01 | 1486251214.5614 | pgbench_history  |                0
 2017-02-05 00:33:34.5614+01 | 1486251214.5614 | pgbench_branches |             8192

 2017-02-05 00:33:35.661199+01 | 1486251215.6612 | pgbench_accounts |       1392427008
 2017-02-05 00:33:35.661199+01 | 1486251215.6612 | pgbench_tellers  |            49152
 2017-02-05 00:33:35.661199+01 | 1486251215.6612 | pgbench_history  |                0
 2017-02-05 00:33:35.661199+01 | 1486251215.6612 | pgbench_branches |             8192

 2017-02-05 00:33:36.765135+01 | 1486251216.76514 | pgbench_accounts |       1392427008
 2017-02-05 00:33:36.765135+01 | 1486251216.76514 | pgbench_tellers  |            49152
 2017-02-05 00:33:36.765135+01 | 1486251216.76514 | pgbench_history  |                0
 2017-02-05 00:33:36.765135+01 | 1486251216.76514 | pgbench_branches |             8192

 2017-02-05 00:33:37.866214+01 | 1486251217.86621 | pgbench_accounts |       1392427008
 2017-02-05 00:33:37.866214+01 | 1486251217.86621 | pgbench_tellers  |            49152
 2017-02-05 00:33:37.866214+01 | 1486251217.86621 | pgbench_history  |                0
 2017-02-05 00:33:37.866214+01 | 1486251217.86621 | pgbench_branches |             8192

 2017-02-05 00:33:38.974367+01 | 1486251218.97437 | pgbench_accounts |       1392427008
 2017-02-05 00:33:38.974367+01 | 1486251218.97437 | pgbench_tellers  |            49152
 2017-02-05 00:33:38.974367+01 | 1486251218.97437 | pgbench_history  |                0
 2017-02-05 00:33:38.974367+01 | 1486251218.97437 | pgbench_branches |             8192

 2017-02-05 00:33:40.075061+01 | 1486251220.07506 | pgbench_accounts |       1392427008
 2017-02-05 00:33:40.075061+01 | 1486251220.07506 | pgbench_tellers  |            49152
 2017-02-05 00:33:40.075061+01 | 1486251220.07506 | pgbench_history  |                0
 2017-02-05 00:33:40.075061+01 | 1486251220.07506 | pgbench_branches |             8192

 2017-02-05 00:33:41.184723+01 | 1486251221.18472 | pgbench_accounts |       1392427008
 2017-02-05 00:33:41.184723+01 | 1486251221.18472 | pgbench_tellers  |            49152
 2017-02-05 00:33:41.184723+01 | 1486251221.18472 | pgbench_history  |                0
 2017-02-05 00:33:41.184723+01 | 1486251221.18472 | pgbench_branches |             8192

 2017-02-05 00:33:42.292627+01 | 1486251222.29263 | pgbench_accounts |       1392427008
 2017-02-05 00:33:42.292627+01 | 1486251222.29263 | pgbench_tellers  |            49152
 2017-02-05 00:33:42.292627+01 | 1486251222.29263 | pgbench_history  |                0
 2017-02-05 00:33:42.292627+01 | 1486251222.29263 | pgbench_branches |             8192

 2017-02-05 00:33:43.410891+01 | 1486251223.41089 | pgbench_accounts |       1392427008
 2017-02-05 00:33:43.410891+01 | 1486251223.41089 | pgbench_tellers  |            49152
 2017-02-05 00:33:43.410891+01 | 1486251223.41089 | pgbench_history  |                0
 2017-02-05 00:33:43.410891+01 | 1486251223.41089 | pgbench_branches |             8192

 2017-02-05 00:33:44.511794+01 | 1486251224.51179 | pgbench_accounts |       1392427008
 2017-02-05 00:33:44.511794+01 | 1486251224.51179 | pgbench_tellers  |            49152
 2017-02-05 00:33:44.511794+01 | 1486251224.51179 | pgbench_history  |                0
 2017-02-05 00:33:44.511794+01 | 1486251224.51179 | pgbench_branches |             8192

 2017-02-05 00:33:45.628742+01 | 1486251225.62874 | pgbench_accounts |       1392427008
 2017-02-05 00:33:45.628742+01 | 1486251225.62874 | pgbench_tellers  |            49152
 2017-02-05 00:33:45.628742+01 | 1486251225.62874 | pgbench_history  |                0
 2017-02-05 00:33:45.628742+01 | 1486251225.62874 | pgbench_branches |             8192

 2017-02-05 00:33:46.736078+01 | 1486251226.73608 | pgbench_accounts |       1392427008
 2017-02-05 00:33:46.736078+01 | 1486251226.73608 | pgbench_tellers  |            49152
 2017-02-05 00:33:46.736078+01 | 1486251226.73608 | pgbench_history  |                0
 2017-02-05 00:33:46.736078+01 | 1486251226.73608 | pgbench_branches |             8192

 2017-02-05 00:33:47.833456+01 | 1486251227.83346 | pgbench_accounts |       1392427008
 2017-02-05 00:33:47.833456+01 | 1486251227.83346 | pgbench_tellers  |            49152
 2017-02-05 00:33:47.833456+01 | 1486251227.83346 | pgbench_history  |                0
 2017-02-05 00:33:47.833456+01 | 1486251227.83346 | pgbench_branches |             8192

 2017-02-05 00:33:48.936472+01 | 1486251228.93647 | pgbench_accounts |       1392427008
 2017-02-05 00:33:48.936472+01 | 1486251228.93647 | pgbench_tellers  |            49152
 2017-02-05 00:33:48.936472+01 | 1486251228.93647 | pgbench_history  |                0
 2017-02-05 00:33:48.936472+01 | 1486251228.93647 | pgbench_branches |             8192

 2017-02-05 00:33:50.043263+01 | 1486251230.04326 | pgbench_accounts |       1392427008
 2017-02-05 00:33:50.043263+01 | 1486251230.04326 | pgbench_tellers  |            49152
 2017-02-05 00:33:50.043263+01 | 1486251230.04326 | pgbench_history  |                0
 2017-02-05 00:33:50.043263+01 | 1486251230.04326 | pgbench_branches |             8192

 2017-02-05 00:33:51.159217+01 | 1486251231.15922 | pgbench_accounts |       1392427008
 2017-02-05 00:33:51.159217+01 | 1486251231.15922 | pgbench_tellers  |            49152
 2017-02-05 00:33:51.159217+01 | 1486251231.15922 | pgbench_history  |                0
 2017-02-05 00:33:51.159217+01 | 1486251231.15922 | pgbench_branches |             8192

 2017-02-05 00:33:52.24648+01 | 1486251232.24648 | pgbench_accounts |       1392427008
 2017-02-05 00:33:52.24648+01 | 1486251232.24648 | pgbench_tellers  |            49152
 2017-02-05 00:33:52.24648+01 | 1486251232.24648 | pgbench_history  |                0
 2017-02-05 00:33:52.24648+01 | 1486251232.24648 | pgbench_branches |             8192

 2017-02-05 00:33:53.341742+01 | 1486251233.34174 | pgbench_accounts |       1392427008
 2017-02-05 00:33:53.341742+01 | 1486251233.34174 | pgbench_tellers  |            49152
 2017-02-05 00:33:53.341742+01 | 1486251233.34174 | pgbench_history  |                0
 2017-02-05 00:33:53.341742+01 | 1486251233.34174 | pgbench_branches |             8192

 2017-02-05 00:33:54.447142+01 | 1486251234.44714 | pgbench_accounts |       1392427008
 2017-02-05 00:33:54.447142+01 | 1486251234.44714 | pgbench_tellers  |            49152
 2017-02-05 00:33:54.447142+01 | 1486251234.44714 | pgbench_history  |                0
 2017-02-05 00:33:54.447142+01 | 1486251234.44714 | pgbench_branches |             8192

 2017-02-05 00:33:55.559733+01 | 1486251235.55973 | pgbench_accounts |       1392427008
 2017-02-05 00:33:55.559733+01 | 1486251235.55973 | pgbench_tellers  |            49152
 2017-02-05 00:33:55.559733+01 | 1486251235.55973 | pgbench_history  |                0
 2017-02-05 00:33:55.559733+01 | 1486251235.55973 | pgbench_branches |             8192

 2017-02-05 00:33:56.68695+01 | 1486251236.68695 | pgbench_accounts |       1392427008
 2017-02-05 00:33:56.68695+01 | 1486251236.68695 | pgbench_tellers  |            49152
 2017-02-05 00:33:56.68695+01 | 1486251236.68695 | pgbench_history  |                0
 2017-02-05 00:33:56.68695+01 | 1486251236.68695 | pgbench_branches |             8192

 2017-02-05 00:33:57.789662+01 | 1486251237.78966 | pgbench_accounts |       1392427008
 2017-02-05 00:33:57.789662+01 | 1486251237.78966 | pgbench_tellers  |            49152
 2017-02-05 00:33:57.789662+01 | 1486251237.78966 | pgbench_history  |                0
 2017-02-05 00:33:57.789662+01 | 1486251237.78966 | pgbench_branches |             8192

 2017-02-05 00:33:58.885954+01 | 1486251238.88595 | pgbench_accounts |       1392427008
 2017-02-05 00:33:58.885954+01 | 1486251238.88595 | pgbench_tellers  |            49152
 2017-02-05 00:33:58.885954+01 | 1486251238.88595 | pgbench_history  |                0
 2017-02-05 00:33:58.885954+01 | 1486251238.88595 | pgbench_branches |             8192

 2017-02-05 00:33:59.985495+01 | 1486251239.9855 | pgbench_accounts |       1392427008
 2017-02-05 00:33:59.985495+01 | 1486251239.9855 | pgbench_tellers  |            49152
 2017-02-05 00:33:59.985495+01 | 1486251239.9855 | pgbench_history  |                0
 2017-02-05 00:33:59.985495+01 | 1486251239.9855 | pgbench_branches |             8192

 2017-02-05 00:34:01.079062+01 | 1486251241.07906 | pgbench_accounts |       1392427008
 2017-02-05 00:34:01.079062+01 | 1486251241.07906 | pgbench_tellers  |            49152
 2017-02-05 00:34:01.079062+01 | 1486251241.07906 | pgbench_history  |                0
 2017-02-05 00:34:01.079062+01 | 1486251241.07906 | pgbench_branches |             8192

 2017-02-05 00:34:02.179916+01 | 1486251242.17992 | pgbench_accounts |       1392427008
 2017-02-05 00:34:02.179916+01 | 1486251242.17992 | pgbench_tellers  |            49152
 2017-02-05 00:34:02.179916+01 | 1486251242.17992 | pgbench_history  |                0
 2017-02-05 00:34:02.179916+01 | 1486251242.17992 | pgbench_branches |             8192

 2017-02-05 00:34:03.278113+01 | 1486251243.27811 | pgbench_accounts |       1392427008
 2017-02-05 00:34:03.278113+01 | 1486251243.27811 | pgbench_tellers  |            49152
 2017-02-05 00:34:03.278113+01 | 1486251243.27811 | pgbench_history  |                0
 2017-02-05 00:34:03.278113+01 | 1486251243.27811 | pgbench_branches |             8192

 2017-02-05 00:34:04.378169+01 | 1486251244.37817 | pgbench_accounts |       1392427008
 2017-02-05 00:34:04.378169+01 | 1486251244.37817 | pgbench_tellers  |            49152
 2017-02-05 00:34:04.378169+01 | 1486251244.37817 | pgbench_history  |                0
 2017-02-05 00:34:04.378169+01 | 1486251244.37817 | pgbench_branches |             8192

 2017-02-05 00:34:05.482104+01 | 1486251245.4821 | pgbench_accounts |       1392427008
 2017-02-05 00:34:05.482104+01 | 1486251245.4821 | pgbench_tellers  |            49152
 2017-02-05 00:34:05.482104+01 | 1486251245.4821 | pgbench_history  |                0
 2017-02-05 00:34:05.482104+01 | 1486251245.4821 | pgbench_branches |             8192

 2017-02-05 00:34:06.589455+01 | 1486251246.58945 | pgbench_accounts |       1392427008
 2017-02-05 00:34:06.589455+01 | 1486251246.58945 | pgbench_tellers  |            49152
 2017-02-05 00:34:06.589455+01 | 1486251246.58945 | pgbench_history  |                0
 2017-02-05 00:34:06.589455+01 | 1486251246.58945 | pgbench_branches |             8192

 2017-02-05 00:34:07.693363+01 | 1486251247.69336 | pgbench_accounts |       1392427008
 2017-02-05 00:34:07.693363+01 | 1486251247.69336 | pgbench_tellers  |            49152
 2017-02-05 00:34:07.693363+01 | 1486251247.69336 | pgbench_history  |                0
 2017-02-05 00:34:07.693363+01 | 1486251247.69336 | pgbench_branches |             8192

 2017-02-05 00:34:08.794089+01 | 1486251248.79409 | pgbench_accounts |       1392427008
 2017-02-05 00:34:08.794089+01 | 1486251248.79409 | pgbench_tellers  |            49152
 2017-02-05 00:34:08.794089+01 | 1486251248.79409 | pgbench_history  |                0
 2017-02-05 00:34:08.794089+01 | 1486251248.79409 | pgbench_branches |             8192

 2017-02-05 00:34:09.890997+01 | 1486251249.891 | pgbench_accounts |       1392427008
 2017-02-05 00:34:09.890997+01 | 1486251249.891 | pgbench_tellers  |            49152
 2017-02-05 00:34:09.890997+01 | 1486251249.891 | pgbench_history  |                0
 2017-02-05 00:34:09.890997+01 | 1486251249.891 | pgbench_branches |             8192

 2017-02-05 00:34:10.994193+01 | 1486251250.99419 | pgbench_accounts |       1392427008
 2017-02-05 00:34:10.994193+01 | 1486251250.99419 | pgbench_tellers  |            49152
 2017-02-05 00:34:10.994193+01 | 1486251250.99419 | pgbench_history  |                0
 2017-02-05 00:34:10.994193+01 | 1486251250.99419 | pgbench_branches |             8192

 2017-02-05 00:34:12.094553+01 | 1486251252.09455 | pgbench_accounts |       1392427008
 2017-02-05 00:34:12.094553+01 | 1486251252.09455 | pgbench_tellers  |            49152
 2017-02-05 00:34:12.094553+01 | 1486251252.09455 | pgbench_history  |                0
 2017-02-05 00:34:12.094553+01 | 1486251252.09455 | pgbench_branches |             8192

 2017-02-05 00:34:13.195359+01 | 1486251253.19536 | pgbench_accounts |       1392427008
 2017-02-05 00:34:13.195359+01 | 1486251253.19536 | pgbench_tellers  |            49152
 2017-02-05 00:34:13.195359+01 | 1486251253.19536 | pgbench_history  |                0
 2017-02-05 00:34:13.195359+01 | 1486251253.19536 | pgbench_branches |             8192

 2017-02-05 00:34:14.295595+01 | 1486251254.29559 | pgbench_accounts |       1392427008
 2017-02-05 00:34:14.295595+01 | 1486251254.29559 | pgbench_tellers  |            49152
 2017-02-05 00:34:14.295595+01 | 1486251254.29559 | pgbench_history  |                0
 2017-02-05 00:34:14.295595+01 | 1486251254.29559 | pgbench_branches |             8192

 2017-02-05 00:34:15.41325+01 | 1486251255.41325 | pgbench_accounts |       1392427008
 2017-02-05 00:34:15.41325+01 | 1486251255.41325 | pgbench_tellers  |            49152
 2017-02-05 00:34:15.41325+01 | 1486251255.41325 | pgbench_history  |                0
 2017-02-05 00:34:15.41325+01 | 1486251255.41325 | pgbench_branches |             8192

 2017-02-05 00:34:16.521138+01 | 1486251256.52114 | pgbench_accounts |       1392427008
 2017-02-05 00:34:16.521138+01 | 1486251256.52114 | pgbench_tellers  |            49152
 2017-02-05 00:34:16.521138+01 | 1486251256.52114 | pgbench_history  |                0
 2017-02-05 00:34:16.521138+01 | 1486251256.52114 | pgbench_branches |             8192

 2017-02-05 00:34:17.63269+01 | 1486251257.63269 | pgbench_accounts |       1392427008
 2017-02-05 00:34:17.63269+01 | 1486251257.63269 | pgbench_tellers  |            49152
 2017-02-05 00:34:17.63269+01 | 1486251257.63269 | pgbench_history  |                0
 2017-02-05 00:34:17.63269+01 | 1486251257.63269 | pgbench_branches |             8192

 2017-02-05 00:34:18.74247+01 | 1486251258.74247 | pgbench_accounts |       1392427008
 2017-02-05 00:34:18.74247+01 | 1486251258.74247 | pgbench_tellers  |            49152
 2017-02-05 00:34:18.74247+01 | 1486251258.74247 | pgbench_history  |                0
 2017-02-05 00:34:18.74247+01 | 1486251258.74247 | pgbench_branches |             8192

 2017-02-05 00:34:19.836458+01 | 1486251259.83646 | pgbench_accounts |       1392427008
 2017-02-05 00:34:19.836458+01 | 1486251259.83646 | pgbench_tellers  |            49152
 2017-02-05 00:34:19.836458+01 | 1486251259.83646 | pgbench_history  |                0
 2017-02-05 00:34:19.836458+01 | 1486251259.83646 | pgbench_branches |             8192

 2017-02-05 00:34:20.934622+01 | 1486251260.93462 | pgbench_accounts |       1392427008
 2017-02-05 00:34:20.934622+01 | 1486251260.93462 | pgbench_tellers  |            49152
 2017-02-05 00:34:20.934622+01 | 1486251260.93462 | pgbench_history  |                0
 2017-02-05 00:34:20.934622+01 | 1486251260.93462 | pgbench_branches |             8192

 2017-02-05 00:34:22.031262+01 | 1486251262.03126 | pgbench_accounts |       1392427008
 2017-02-05 00:34:22.031262+01 | 1486251262.03126 | pgbench_tellers  |            49152
 2017-02-05 00:34:22.031262+01 | 1486251262.03126 | pgbench_history  |                0
 2017-02-05 00:34:22.031262+01 | 1486251262.03126 | pgbench_branches |             8192

 2017-02-05 00:34:23.140223+01 | 1486251263.14022 | pgbench_accounts |       1392427008
 2017-02-05 00:34:23.140223+01 | 1486251263.14022 | pgbench_tellers  |            49152
 2017-02-05 00:34:23.140223+01 | 1486251263.14022 | pgbench_history  |                0
 2017-02-05 00:34:23.140223+01 | 1486251263.14022 | pgbench_branches |             8192

 2017-02-05 00:34:24.242068+01 | 1486251264.24207 | pgbench_accounts |       1392427008
 2017-02-05 00:34:24.242068+01 | 1486251264.24207 | pgbench_tellers  |            49152
 2017-02-05 00:34:24.242068+01 | 1486251264.24207 | pgbench_history  |                0
 2017-02-05 00:34:24.242068+01 | 1486251264.24207 | pgbench_branches |             8192

 2017-02-05 00:34:25.35915+01 | 1486251265.35915 | pgbench_accounts |       1392427008
 2017-02-05 00:34:25.35915+01 | 1486251265.35915 | pgbench_tellers  |            49152
 2017-02-05 00:34:25.35915+01 | 1486251265.35915 | pgbench_history  |                0
 2017-02-05 00:34:25.35915+01 | 1486251265.35915 | pgbench_branches |             8192

 2017-02-05 00:34:26.467566+01 | 1486251266.46757 | pgbench_accounts |       1392427008
 2017-02-05 00:34:26.467566+01 | 1486251266.46757 | pgbench_tellers  |            49152
 2017-02-05 00:34:26.467566+01 | 1486251266.46757 | pgbench_history  |                0
 2017-02-05 00:34:26.467566+01 | 1486251266.46757 | pgbench_branches |             8192

 2017-02-05 00:34:27.569459+01 | 1486251267.56946 | pgbench_accounts |       1392427008
 2017-02-05 00:34:27.569459+01 | 1486251267.56946 | pgbench_tellers  |            49152
 2017-02-05 00:34:27.569459+01 | 1486251267.56946 | pgbench_history  |                0
 2017-02-05 00:34:27.569459+01 | 1486251267.56946 | pgbench_branches |             8192

 2017-02-05 00:34:28.67993+01 | 1486251268.67993 | pgbench_accounts |       1392427008
 2017-02-05 00:34:28.67993+01 | 1486251268.67993 | pgbench_tellers  |            49152
 2017-02-05 00:34:28.67993+01 | 1486251268.67993 | pgbench_history  |                0
 2017-02-05 00:34:28.67993+01 | 1486251268.67993 | pgbench_branches |             8192

 2017-02-05 00:34:29.780185+01 | 1486251269.78018 | pgbench_accounts |       1392427008
 2017-02-05 00:34:29.780185+01 | 1486251269.78018 | pgbench_tellers  |            49152
 2017-02-05 00:34:29.780185+01 | 1486251269.78018 | pgbench_history  |                0
 2017-02-05 00:34:29.780185+01 | 1486251269.78018 | pgbench_branches |             8192

 2017-02-05 00:34:30.876217+01 | 1486251270.87622 | pgbench_accounts |       1392427008
 2017-02-05 00:34:30.876217+01 | 1486251270.87622 | pgbench_tellers  |            49152
 2017-02-05 00:34:30.876217+01 | 1486251270.87622 | pgbench_history  |                0
 2017-02-05 00:34:30.876217+01 | 1486251270.87622 | pgbench_branches |             8192

 2017-02-05 00:34:31.974766+01 | 1486251271.97477 | pgbench_accounts |       1392427008
 2017-02-05 00:34:31.974766+01 | 1486251271.97477 | pgbench_tellers  |            49152
 2017-02-05 00:34:31.974766+01 | 1486251271.97477 | pgbench_history  |                0
 2017-02-05 00:34:31.974766+01 | 1486251271.97477 | pgbench_branches |             8192

 2017-02-05 00:34:33.069071+01 | 1486251273.06907 | pgbench_accounts |       1392427008
 2017-02-05 00:34:33.069071+01 | 1486251273.06907 | pgbench_tellers  |            49152
 2017-02-05 00:34:33.069071+01 | 1486251273.06907 | pgbench_history  |                0
 2017-02-05 00:34:33.069071+01 | 1486251273.06907 | pgbench_branches |             8192

 2017-02-05 00:34:34.160132+01 | 1486251274.16013 | pgbench_accounts |       1392427008
 2017-02-05 00:34:34.160132+01 | 1486251274.16013 | pgbench_tellers  |            49152
 2017-02-05 00:34:34.160132+01 | 1486251274.16013 | pgbench_history  |                0
 2017-02-05 00:34:34.160132+01 | 1486251274.16013 | pgbench_branches |             8192

 2017-02-05 00:34:35.262832+01 | 1486251275.26283 | pgbench_accounts |       1392427008
 2017-02-05 00:34:35.262832+01 | 1486251275.26283 | pgbench_tellers  |            49152
 2017-02-05 00:34:35.262832+01 | 1486251275.26283 | pgbench_history  |                0
 2017-02-05 00:34:35.262832+01 | 1486251275.26283 | pgbench_branches |             8192

 2017-02-05 00:34:36.373636+01 | 1486251276.37364 | pgbench_accounts |       1392427008
 2017-02-05 00:34:36.373636+01 | 1486251276.37364 | pgbench_tellers  |            49152
 2017-02-05 00:34:36.373636+01 | 1486251276.37364 | pgbench_history  |                0
 2017-02-05 00:34:36.373636+01 | 1486251276.37364 | pgbench_branches |             8192

 2017-02-05 00:34:37.469175+01 | 1486251277.46918 | pgbench_accounts |       1392427008
 2017-02-05 00:34:37.469175+01 | 1486251277.46918 | pgbench_tellers  |            49152
 2017-02-05 00:34:37.469175+01 | 1486251277.46918 | pgbench_history  |                0
 2017-02-05 00:34:37.469175+01 | 1486251277.46918 | pgbench_branches |             8192

 2017-02-05 00:34:38.572483+01 | 1486251278.57248 | pgbench_accounts |       1392427008
 2017-02-05 00:34:38.572483+01 | 1486251278.57248 | pgbench_tellers  |            49152
 2017-02-05 00:34:38.572483+01 | 1486251278.57248 | pgbench_history  |                0
 2017-02-05 00:34:38.572483+01 | 1486251278.57248 | pgbench_branches |             8192

 2017-02-05 00:34:39.676739+01 | 1486251279.67674 | pgbench_accounts |       1392427008
 2017-02-05 00:34:39.676739+01 | 1486251279.67674 | pgbench_tellers  |            49152
 2017-02-05 00:34:39.676739+01 | 1486251279.67674 | pgbench_history  |                0
 2017-02-05 00:34:39.676739+01 | 1486251279.67674 | pgbench_branches |             8192

 2017-02-05 00:34:40.78028+01 | 1486251280.78028 | pgbench_accounts |       1392427008
 2017-02-05 00:34:40.78028+01 | 1486251280.78028 | pgbench_tellers  |            49152
 2017-02-05 00:34:40.78028+01 | 1486251280.78028 | pgbench_history  |                0
 2017-02-05 00:34:40.78028+01 | 1486251280.78028 | pgbench_branches |             8192

 2017-02-05 00:34:41.88573+01 | 1486251281.88573 | pgbench_accounts |       1392427008
 2017-02-05 00:34:41.88573+01 | 1486251281.88573 | pgbench_tellers  |            49152
 2017-02-05 00:34:41.88573+01 | 1486251281.88573 | pgbench_history  |                0
 2017-02-05 00:34:41.88573+01 | 1486251281.88573 | pgbench_branches |             8192

 2017-02-05 00:34:42.985465+01 | 1486251282.98547 | pgbench_accounts |       1392427008
 2017-02-05 00:34:42.985465+01 | 1486251282.98547 | pgbench_tellers  |            49152
 2017-02-05 00:34:42.985465+01 | 1486251282.98547 | pgbench_history  |                0
 2017-02-05 00:34:42.985465+01 | 1486251282.98547 | pgbench_branches |             8192

 2017-02-05 00:34:44.082986+01 | 1486251284.08299 | pgbench_accounts |       1392427008
 2017-02-05 00:34:44.082986+01 | 1486251284.08299 | pgbench_tellers  |            49152
 2017-02-05 00:34:44.082986+01 | 1486251284.08299 | pgbench_history  |                0
 2017-02-05 00:34:44.082986+01 | 1486251284.08299 | pgbench_branches |             8192

 2017-02-05 00:34:45.176004+01 | 1486251285.176 | pgbench_accounts |       1392427008
 2017-02-05 00:34:45.176004+01 | 1486251285.176 | pgbench_tellers  |            49152
 2017-02-05 00:34:45.176004+01 | 1486251285.176 | pgbench_history  |                0
 2017-02-05 00:34:45.176004+01 | 1486251285.176 | pgbench_branches |             8192

 2017-02-05 00:34:46.264731+01 | 1486251286.26473 | pgbench_accounts |       1392427008
 2017-02-05 00:34:46.264731+01 | 1486251286.26473 | pgbench_tellers  |            49152
 2017-02-05 00:34:46.264731+01 | 1486251286.26473 | pgbench_history  |                0
 2017-02-05 00:34:46.264731+01 | 1486251286.26473 | pgbench_branches |             8192

 2017-02-05 00:34:47.370384+01 | 1486251287.37038 | pgbench_accounts |       1392427008
 2017-02-05 00:34:47.370384+01 | 1486251287.37038 | pgbench_tellers  |            49152
 2017-02-05 00:34:47.370384+01 | 1486251287.37038 | pgbench_history  |                0
 2017-02-05 00:34:47.370384+01 | 1486251287.37038 | pgbench_branches |             8192

 2017-02-05 00:34:48.472631+01 | 1486251288.47263 | pgbench_accounts |       1392427008
 2017-02-05 00:34:48.472631+01 | 1486251288.47263 | pgbench_tellers  |            49152
 2017-02-05 00:34:48.472631+01 | 1486251288.47263 | pgbench_history  |                0
 2017-02-05 00:34:48.472631+01 | 1486251288.47263 | pgbench_branches |             8192

 2017-02-05 00:34:49.576687+01 | 1486251289.57669 | pgbench_accounts |       1392427008
 2017-02-05 00:34:49.576687+01 | 1486251289.57669 | pgbench_tellers  |            49152
 2017-02-05 00:34:49.576687+01 | 1486251289.57669 | pgbench_history  |                0
 2017-02-05 00:34:49.576687+01 | 1486251289.57669 | pgbench_branches |             8192

 2017-02-05 00:34:50.68376+01 | 1486251290.68376 | pgbench_accounts |       1392427008
 2017-02-05 00:34:50.68376+01 | 1486251290.68376 | pgbench_tellers  |            49152
 2017-02-05 00:34:50.68376+01 | 1486251290.68376 | pgbench_history  |                0
 2017-02-05 00:34:50.68376+01 | 1486251290.68376 | pgbench_branches |             8192

 2017-02-05 00:34:51.792611+01 | 1486251291.79261 | pgbench_accounts |       1392427008
 2017-02-05 00:34:51.792611+01 | 1486251291.79261 | pgbench_tellers  |            49152
 2017-02-05 00:34:51.792611+01 | 1486251291.79261 | pgbench_history  |                0
 2017-02-05 00:34:51.792611+01 | 1486251291.79261 | pgbench_branches |             8192

 2017-02-05 00:34:52.890143+01 | 1486251292.89014 | pgbench_accounts |       1392427008
 2017-02-05 00:34:52.890143+01 | 1486251292.89014 | pgbench_tellers  |            49152
 2017-02-05 00:34:52.890143+01 | 1486251292.89014 | pgbench_history  |                0
 2017-02-05 00:34:52.890143+01 | 1486251292.89014 | pgbench_branches |             8192

 2017-02-05 00:34:53.985304+01 | 1486251293.9853 | pgbench_accounts |       1392427008
 2017-02-05 00:34:53.985304+01 | 1486251293.9853 | pgbench_tellers  |            49152
 2017-02-05 00:34:53.985304+01 | 1486251293.9853 | pgbench_history  |                0
 2017-02-05 00:34:53.985304+01 | 1486251293.9853 | pgbench_branches |             8192

 2017-02-05 00:34:55.081163+01 | 1486251295.08116 | pgbench_accounts |       1392427008
 2017-02-05 00:34:55.081163+01 | 1486251295.08116 | pgbench_tellers  |            49152
 2017-02-05 00:34:55.081163+01 | 1486251295.08116 | pgbench_history  |                0
 2017-02-05 00:34:55.081163+01 | 1486251295.08116 | pgbench_branches |             8192

 2017-02-05 00:34:56.177426+01 | 1486251296.17743 | pgbench_accounts |       1392427008
 2017-02-05 00:34:56.177426+01 | 1486251296.17743 | pgbench_tellers  |            49152
 2017-02-05 00:34:56.177426+01 | 1486251296.17743 | pgbench_history  |                0
 2017-02-05 00:34:56.177426+01 | 1486251296.17743 | pgbench_branches |             8192

 2017-02-05 00:34:57.287324+01 | 1486251297.28732 | pgbench_accounts |       1392427008
 2017-02-05 00:34:57.287324+01 | 1486251297.28732 | pgbench_tellers  |            49152
 2017-02-05 00:34:57.287324+01 | 1486251297.28732 | pgbench_history  |                0
 2017-02-05 00:34:57.287324+01 | 1486251297.28732 | pgbench_branches |             8192

 2017-02-05 00:34:58.383377+01 | 1486251298.38338 | pgbench_accounts |       1392427008
 2017-02-05 00:34:58.383377+01 | 1486251298.38338 | pgbench_tellers  |            49152
 2017-02-05 00:34:58.383377+01 | 1486251298.38338 | pgbench_history  |                0
 2017-02-05 00:34:58.383377+01 | 1486251298.38338 | pgbench_branches |             8192

 2017-02-05 00:34:59.489157+01 | 1486251299.48916 | pgbench_accounts |       1392427008
 2017-02-05 00:34:59.489157+01 | 1486251299.48916 | pgbench_tellers  |            49152
 2017-02-05 00:34:59.489157+01 | 1486251299.48916 | pgbench_history  |                0
 2017-02-05 00:34:59.489157+01 | 1486251299.48916 | pgbench_branches |             8192

 2017-02-05 00:35:00.586784+01 | 1486251300.58678 | pgbench_accounts |       1392427008
 2017-02-05 00:35:00.586784+01 | 1486251300.58678 | pgbench_tellers  |            49152
 2017-02-05 00:35:00.586784+01 | 1486251300.58678 | pgbench_history  |                0
 2017-02-05 00:35:00.586784+01 | 1486251300.58678 | pgbench_branches |             8192

 2017-02-05 00:35:01.685489+01 | 1486251301.68549 | pgbench_accounts |       1392427008
 2017-02-05 00:35:01.685489+01 | 1486251301.68549 | pgbench_tellers  |            49152
 2017-02-05 00:35:01.685489+01 | 1486251301.68549 | pgbench_history  |                0
 2017-02-05 00:35:01.685489+01 | 1486251301.68549 | pgbench_branches |             8192

 2017-02-05 00:35:02.788737+01 | 1486251302.78874 | pgbench_accounts |       1392427008
 2017-02-05 00:35:02.788737+01 | 1486251302.78874 | pgbench_tellers  |            49152
 2017-02-05 00:35:02.788737+01 | 1486251302.78874 | pgbench_history  |                0
 2017-02-05 00:35:02.788737+01 | 1486251302.78874 | pgbench_branches |             8192

 2017-02-05 00:35:03.887679+01 | 1486251303.88768 | pgbench_accounts |       1392427008
 2017-02-05 00:35:03.887679+01 | 1486251303.88768 | pgbench_tellers  |            49152
 2017-02-05 00:35:03.887679+01 | 1486251303.88768 | pgbench_history  |                0
 2017-02-05 00:35:03.887679+01 | 1486251303.88768 | pgbench_branches |             8192

 2017-02-05 00:35:04.983177+01 | 1486251304.98318 | pgbench_accounts |       1392427008
 2017-02-05 00:35:04.983177+01 | 1486251304.98318 | pgbench_tellers  |            49152
 2017-02-05 00:35:04.983177+01 | 1486251304.98318 | pgbench_history  |                0
 2017-02-05 00:35:04.983177+01 | 1486251304.98318 | pgbench_branches |             8192

 2017-02-05 00:35:06.071333+01 | 1486251306.07133 | pgbench_accounts |       1392427008
 2017-02-05 00:35:06.071333+01 | 1486251306.07133 | pgbench_tellers  |            49152
 2017-02-05 00:35:06.071333+01 | 1486251306.07133 | pgbench_history  |                0
 2017-02-05 00:35:06.071333+01 | 1486251306.07133 | pgbench_branches |             8192

 2017-02-05 00:35:07.177508+01 | 1486251307.17751 | pgbench_accounts |       1392427008
 2017-02-05 00:35:07.177508+01 | 1486251307.17751 | pgbench_tellers  |            49152
 2017-02-05 00:35:07.177508+01 | 1486251307.17751 | pgbench_history  |                0
 2017-02-05 00:35:07.177508+01 | 1486251307.17751 | pgbench_branches |             8192

 2017-02-05 00:35:08.283169+01 | 1486251308.28317 | pgbench_accounts |       1392427008
 2017-02-05 00:35:08.283169+01 | 1486251308.28317 | pgbench_tellers  |            49152
 2017-02-05 00:35:08.283169+01 | 1486251308.28317 | pgbench_history  |                0
 2017-02-05 00:35:08.283169+01 | 1486251308.28317 | pgbench_branches |             8192

 2017-02-05 00:35:09.385965+01 | 1486251309.38597 | pgbench_accounts |       1392427008
 2017-02-05 00:35:09.385965+01 | 1486251309.38597 | pgbench_tellers  |            49152
 2017-02-05 00:35:09.385965+01 | 1486251309.38597 | pgbench_history  |                0
 2017-02-05 00:35:09.385965+01 | 1486251309.38597 | pgbench_branches |             8192

 2017-02-05 00:35:10.491822+01 | 1486251310.49182 | pgbench_accounts |       1392427008
 2017-02-05 00:35:10.491822+01 | 1486251310.49182 | pgbench_tellers  |            49152
 2017-02-05 00:35:10.491822+01 | 1486251310.49182 | pgbench_history  |                0
 2017-02-05 00:35:10.491822+01 | 1486251310.49182 | pgbench_branches |             8192

 2017-02-05 00:35:11.58567+01 | 1486251311.58567 | pgbench_accounts |       1392427008
 2017-02-05 00:35:11.58567+01 | 1486251311.58567 | pgbench_tellers  |            49152
 2017-02-05 00:35:11.58567+01 | 1486251311.58567 | pgbench_history  |                0
 2017-02-05 00:35:11.58567+01 | 1486251311.58567 | pgbench_branches |             8192

 2017-02-05 00:35:12.679249+01 | 1486251312.67925 | pgbench_accounts |       1392427008
 2017-02-05 00:35:12.679249+01 | 1486251312.67925 | pgbench_tellers  |            49152
 2017-02-05 00:35:12.679249+01 | 1486251312.67925 | pgbench_history  |                0
 2017-02-05 00:35:12.679249+01 | 1486251312.67925 | pgbench_branches |             8192

 2017-02-05 00:35:13.780789+01 | 1486251313.78079 | pgbench_accounts |       1392427008
 2017-02-05 00:35:13.780789+01 | 1486251313.78079 | pgbench_tellers  |            49152
 2017-02-05 00:35:13.780789+01 | 1486251313.78079 | pgbench_history  |                0
 2017-02-05 00:35:13.780789+01 | 1486251313.78079 | pgbench_branches |             8192

 2017-02-05 00:35:14.88595+01 | 1486251314.88595 | pgbench_accounts |       1392427008
 2017-02-05 00:35:14.88595+01 | 1486251314.88595 | pgbench_tellers  |            49152
 2017-02-05 00:35:14.88595+01 | 1486251314.88595 | pgbench_history  |                0
 2017-02-05 00:35:14.88595+01 | 1486251314.88595 | pgbench_branches |             8192

 2017-02-05 00:35:15.989746+01 | 1486251315.98975 | pgbench_accounts |       1392427008
 2017-02-05 00:35:15.989746+01 | 1486251315.98975 | pgbench_tellers  |            49152
 2017-02-05 00:35:15.989746+01 | 1486251315.98975 | pgbench_history  |                0
 2017-02-05 00:35:15.989746+01 | 1486251315.98975 | pgbench_branches |             8192

 2017-02-05 00:35:17.087205+01 | 1486251317.0872 | pgbench_accounts |       1392427008
 2017-02-05 00:35:17.087205+01 | 1486251317.0872 | pgbench_tellers  |            49152
 2017-02-05 00:35:17.087205+01 | 1486251317.0872 | pgbench_history  |                0
 2017-02-05 00:35:17.087205+01 | 1486251317.0872 | pgbench_branches |             8192

 2017-02-05 00:35:18.190156+01 | 1486251318.19016 | pgbench_accounts |       1392427008
 2017-02-05 00:35:18.190156+01 | 1486251318.19016 | pgbench_tellers  |            49152
 2017-02-05 00:35:18.190156+01 | 1486251318.19016 | pgbench_history  |                0
 2017-02-05 00:35:18.190156+01 | 1486251318.19016 | pgbench_branches |             8192

 2017-02-05 00:35:19.288537+01 | 1486251319.28854 | pgbench_accounts |       1392427008
 2017-02-05 00:35:19.288537+01 | 1486251319.28854 | pgbench_tellers  |            49152
 2017-02-05 00:35:19.288537+01 | 1486251319.28854 | pgbench_history  |                0
 2017-02-05 00:35:19.288537+01 | 1486251319.28854 | pgbench_branches |             8192

 2017-02-05 00:35:20.38592+01 | 1486251320.38592 | pgbench_accounts |       1392427008
 2017-02-05 00:35:20.38592+01 | 1486251320.38592 | pgbench_tellers  |            49152
 2017-02-05 00:35:20.38592+01 | 1486251320.38592 | pgbench_history  |                0
 2017-02-05 00:35:20.38592+01 | 1486251320.38592 | pgbench_branches |             8192

 2017-02-05 00:35:21.488184+01 | 1486251321.48818 | pgbench_accounts |       1392427008
 2017-02-05 00:35:21.488184+01 | 1486251321.48818 | pgbench_tellers  |            49152
 2017-02-05 00:35:21.488184+01 | 1486251321.48818 | pgbench_history  |                0
 2017-02-05 00:35:21.488184+01 | 1486251321.48818 | pgbench_branches |             8192

 2017-02-05 00:35:22.594404+01 | 1486251322.5944 | pgbench_accounts |       1392427008
 2017-02-05 00:35:22.594404+01 | 1486251322.5944 | pgbench_tellers  |            49152
 2017-02-05 00:35:22.594404+01 | 1486251322.5944 | pgbench_history  |                0
 2017-02-05 00:35:22.594404+01 | 1486251322.5944 | pgbench_branches |             8192

 2017-02-05 00:35:23.688054+01 | 1486251323.68805 | pgbench_accounts |       1392427008
 2017-02-05 00:35:23.688054+01 | 1486251323.68805 | pgbench_tellers  |            49152
 2017-02-05 00:35:23.688054+01 | 1486251323.68805 | pgbench_history  |                0
 2017-02-05 00:35:23.688054+01 | 1486251323.68805 | pgbench_branches |             8192

 2017-02-05 00:35:24.787091+01 | 1486251324.78709 | pgbench_accounts |       1392427008
 2017-02-05 00:35:24.787091+01 | 1486251324.78709 | pgbench_tellers  |            49152
 2017-02-05 00:35:24.787091+01 | 1486251324.78709 | pgbench_history  |                0
 2017-02-05 00:35:24.787091+01 | 1486251324.78709 | pgbench_branches |             8192

 2017-02-05 00:35:25.897522+01 | 1486251325.89752 | pgbench_accounts |       1392427008
 2017-02-05 00:35:25.897522+01 | 1486251325.89752 | pgbench_tellers  |            49152
 2017-02-05 00:35:25.897522+01 | 1486251325.89752 | pgbench_history  |                0
 2017-02-05 00:35:25.897522+01 | 1486251325.89752 | pgbench_branches |             8192

 2017-02-05 00:35:27.001691+01 | 1486251327.00169 | pgbench_accounts |       1392427008
 2017-02-05 00:35:27.001691+01 | 1486251327.00169 | pgbench_tellers  |            49152
 2017-02-05 00:35:27.001691+01 | 1486251327.00169 | pgbench_history  |                0
 2017-02-05 00:35:27.001691+01 | 1486251327.00169 | pgbench_branches |             8192

 2017-02-05 00:35:28.10196+01 | 1486251328.10196 | pgbench_accounts |       1392427008
 2017-02-05 00:35:28.10196+01 | 1486251328.10196 | pgbench_tellers  |            49152
 2017-02-05 00:35:28.10196+01 | 1486251328.10196 | pgbench_history  |                0
 2017-02-05 00:35:28.10196+01 | 1486251328.10196 | pgbench_branches |             8192

 2017-02-05 00:35:29.207114+01 | 1486251329.20711 | pgbench_accounts |       1392427008
 2017-02-05 00:35:29.207114+01 | 1486251329.20711 | pgbench_tellers  |            49152
 2017-02-05 00:35:29.207114+01 | 1486251329.20711 | pgbench_history  |                0
 2017-02-05 00:35:29.207114+01 | 1486251329.20711 | pgbench_branches |             8192

 2017-02-05 00:35:30.309643+01 | 1486251330.30964 | pgbench_accounts |       1392427008
 2017-02-05 00:35:30.309643+01 | 1486251330.30964 | pgbench_tellers  |            49152
 2017-02-05 00:35:30.309643+01 | 1486251330.30964 | pgbench_history  |                0
 2017-02-05 00:35:30.309643+01 | 1486251330.30964 | pgbench_branches |             8192

 2017-02-05 00:35:31.423411+01 | 1486251331.42341 | pgbench_accounts |       1392427008
 2017-02-05 00:35:31.423411+01 | 1486251331.42341 | pgbench_tellers  |            49152
 2017-02-05 00:35:31.423411+01 | 1486251331.42341 | pgbench_history  |                0
 2017-02-05 00:35:31.423411+01 | 1486251331.42341 | pgbench_branches |             8192

 2017-02-05 00:35:32.535527+01 | 1486251332.53553 | pgbench_accounts |       1392427008
 2017-02-05 00:35:32.535527+01 | 1486251332.53553 | pgbench_tellers  |            49152
 2017-02-05 00:35:32.535527+01 | 1486251332.53553 | pgbench_history  |                0
 2017-02-05 00:35:32.535527+01 | 1486251332.53553 | pgbench_branches |             8192

 2017-02-05 00:35:33.644312+01 | 1486251333.64431 | pgbench_accounts |       1392427008
 2017-02-05 00:35:33.644312+01 | 1486251333.64431 | pgbench_tellers  |            49152
 2017-02-05 00:35:33.644312+01 | 1486251333.64431 | pgbench_history  |                0
 2017-02-05 00:35:33.644312+01 | 1486251333.64431 | pgbench_branches |             8192

 2017-02-05 00:35:34.750425+01 | 1486251334.75043 | pgbench_accounts |       1392427008
 2017-02-05 00:35:34.750425+01 | 1486251334.75043 | pgbench_tellers  |            49152
 2017-02-05 00:35:34.750425+01 | 1486251334.75043 | pgbench_history  |                0
 2017-02-05 00:35:34.750425+01 | 1486251334.75043 | pgbench_branches |             8192

 2017-02-05 00:35:35.852024+01 | 1486251335.85202 | pgbench_accounts |       1392427008
 2017-02-05 00:35:35.852024+01 | 1486251335.85202 | pgbench_tellers  |            49152
 2017-02-05 00:35:35.852024+01 | 1486251335.85202 | pgbench_history  |                0
 2017-02-05 00:35:35.852024+01 | 1486251335.85202 | pgbench_branches |             8192

 2017-02-05 00:35:36.952128+01 | 1486251336.95213 | pgbench_accounts |       1392427008
 2017-02-05 00:35:36.952128+01 | 1486251336.95213 | pgbench_tellers  |            49152
 2017-02-05 00:35:36.952128+01 | 1486251336.95213 | pgbench_history  |                0
 2017-02-05 00:35:36.952128+01 | 1486251336.95213 | pgbench_branches |             8192

 2017-02-05 00:35:38.062351+01 | 1486251338.06235 | pgbench_accounts |       1392427008
 2017-02-05 00:35:38.062351+01 | 1486251338.06235 | pgbench_tellers  |            49152
 2017-02-05 00:35:38.062351+01 | 1486251338.06235 | pgbench_history  |                0
 2017-02-05 00:35:38.062351+01 | 1486251338.06235 | pgbench_branches |             8192

 2017-02-05 00:35:39.158584+01 | 1486251339.15858 | pgbench_accounts |       1392427008
 2017-02-05 00:35:39.158584+01 | 1486251339.15858 | pgbench_tellers  |            49152
 2017-02-05 00:35:39.158584+01 | 1486251339.15858 | pgbench_history  |                0
 2017-02-05 00:35:39.158584+01 | 1486251339.15858 | pgbench_branches |             8192

 2017-02-05 00:35:40.253449+01 | 1486251340.25345 | pgbench_accounts |       1392427008
 2017-02-05 00:35:40.253449+01 | 1486251340.25345 | pgbench_tellers  |            49152
 2017-02-05 00:35:40.253449+01 | 1486251340.25345 | pgbench_history  |                0
 2017-02-05 00:35:40.253449+01 | 1486251340.25345 | pgbench_branches |             8192

 2017-02-05 00:35:41.354178+01 | 1486251341.35418 | pgbench_accounts |       1392427008
 2017-02-05 00:35:41.354178+01 | 1486251341.35418 | pgbench_tellers  |            49152
 2017-02-05 00:35:41.354178+01 | 1486251341.35418 | pgbench_history  |                0
 2017-02-05 00:35:41.354178+01 | 1486251341.35418 | pgbench_branches |             8192

 2017-02-05 00:35:42.473476+01 | 1486251342.47348 | pgbench_accounts |       1392427008
 2017-02-05 00:35:42.473476+01 | 1486251342.47348 | pgbench_tellers  |            49152
 2017-02-05 00:35:42.473476+01 | 1486251342.47348 | pgbench_history  |                0
 2017-02-05 00:35:42.473476+01 | 1486251342.47348 | pgbench_branches |             8192

 2017-02-05 00:35:43.579486+01 | 1486251343.57949 | pgbench_accounts |       1392427008
 2017-02-05 00:35:43.579486+01 | 1486251343.57949 | pgbench_tellers  |            49152
 2017-02-05 00:35:43.579486+01 | 1486251343.57949 | pgbench_history  |                0
 2017-02-05 00:35:43.579486+01 | 1486251343.57949 | pgbench_branches |             8192

 2017-02-05 00:35:44.685963+01 | 1486251344.68596 | pgbench_accounts |       1392427008
 2017-02-05 00:35:44.685963+01 | 1486251344.68596 | pgbench_tellers  |            49152
 2017-02-05 00:35:44.685963+01 | 1486251344.68596 | pgbench_history  |                0
 2017-02-05 00:35:44.685963+01 | 1486251344.68596 | pgbench_branches |             8192

 2017-02-05 00:35:45.79659+01 | 1486251345.79659 | pgbench_accounts |       1392427008
 2017-02-05 00:35:45.79659+01 | 1486251345.79659 | pgbench_tellers  |            49152
 2017-02-05 00:35:45.79659+01 | 1486251345.79659 | pgbench_history  |                0
 2017-02-05 00:35:45.79659+01 | 1486251345.79659 | pgbench_branches |             8192

 2017-02-05 00:35:46.897551+01 | 1486251346.89755 | pgbench_accounts |       1392427008
 2017-02-05 00:35:46.897551+01 | 1486251346.89755 | pgbench_tellers  |            49152
 2017-02-05 00:35:46.897551+01 | 1486251346.89755 | pgbench_history  |                0
 2017-02-05 00:35:46.897551+01 | 1486251346.89755 | pgbench_branches |             8192

 2017-02-05 00:35:47.996631+01 | 1486251347.99663 | pgbench_accounts |       1392427008
 2017-02-05 00:35:47.996631+01 | 1486251347.99663 | pgbench_tellers  |            49152
 2017-02-05 00:35:47.996631+01 | 1486251347.99663 | pgbench_history  |                0
 2017-02-05 00:35:47.996631+01 | 1486251347.99663 | pgbench_branches |             8192

 2017-02-05 00:35:49.09815+01 | 1486251349.09815 | pgbench_accounts |       1392427008
 2017-02-05 00:35:49.09815+01 | 1486251349.09815 | pgbench_tellers  |            49152
 2017-02-05 00:35:49.09815+01 | 1486251349.09815 | pgbench_history  |                0
 2017-02-05 00:35:49.09815+01 | 1486251349.09815 | pgbench_branches |             8192

 2017-02-05 00:35:50.197457+01 | 1486251350.19746 | pgbench_accounts |       1392427008
 2017-02-05 00:35:50.197457+01 | 1486251350.19746 | pgbench_tellers  |            49152
 2017-02-05 00:35:50.197457+01 | 1486251350.19746 | pgbench_history  |                0
 2017-02-05 00:35:50.197457+01 | 1486251350.19746 | pgbench_branches |             8192

 2017-02-05 00:35:51.301696+01 | 1486251351.3017 | pgbench_accounts |       1392427008
 2017-02-05 00:35:51.301696+01 | 1486251351.3017 | pgbench_tellers  |            49152
 2017-02-05 00:35:51.301696+01 | 1486251351.3017 | pgbench_history  |                0
 2017-02-05 00:35:51.301696+01 | 1486251351.3017 | pgbench_branches |             8192

 2017-02-05 00:35:52.393269+01 | 1486251352.39327 | pgbench_accounts |       1392427008
 2017-02-05 00:35:52.393269+01 | 1486251352.39327 | pgbench_tellers  |            49152
 2017-02-05 00:35:52.393269+01 | 1486251352.39327 | pgbench_history  |                0
 2017-02-05 00:35:52.393269+01 | 1486251352.39327 | pgbench_branches |             8192

 2017-02-05 00:35:53.496768+01 | 1486251353.49677 | pgbench_accounts |       1392427008
 2017-02-05 00:35:53.496768+01 | 1486251353.49677 | pgbench_tellers  |            49152
 2017-02-05 00:35:53.496768+01 | 1486251353.49677 | pgbench_history  |                0
 2017-02-05 00:35:53.496768+01 | 1486251353.49677 | pgbench_branches |             8192

 2017-02-05 00:35:54.608941+01 | 1486251354.60894 | pgbench_accounts |       1392427008
 2017-02-05 00:35:54.608941+01 | 1486251354.60894 | pgbench_tellers  |            49152
 2017-02-05 00:35:54.608941+01 | 1486251354.60894 | pgbench_history  |                0
 2017-02-05 00:35:54.608941+01 | 1486251354.60894 | pgbench_branches |             8192

 2017-02-05 00:35:55.716407+01 | 1486251355.71641 | pgbench_accounts |       1392427008
 2017-02-05 00:35:55.716407+01 | 1486251355.71641 | pgbench_tellers  |            49152
 2017-02-05 00:35:55.716407+01 | 1486251355.71641 | pgbench_history  |                0
 2017-02-05 00:35:55.716407+01 | 1486251355.71641 | pgbench_branches |             8192

 2017-02-05 00:35:56.826734+01 | 1486251356.82673 | pgbench_accounts |       1392427008
 2017-02-05 00:35:56.826734+01 | 1486251356.82673 | pgbench_tellers  |            49152
 2017-02-05 00:35:56.826734+01 | 1486251356.82673 | pgbench_history  |                0
 2017-02-05 00:35:56.826734+01 | 1486251356.82673 | pgbench_branches |             8192

 2017-02-05 00:35:57.93646+01 | 1486251357.93646 | pgbench_accounts |       1392427008
 2017-02-05 00:35:57.93646+01 | 1486251357.93646 | pgbench_tellers  |            49152
 2017-02-05 00:35:57.93646+01 | 1486251357.93646 | pgbench_history  |                0
 2017-02-05 00:35:57.93646+01 | 1486251357.93646 | pgbench_branches |             8192

 2017-02-05 00:35:59.047036+01 | 1486251359.04704 | pgbench_accounts |       1392427008
 2017-02-05 00:35:59.047036+01 | 1486251359.04704 | pgbench_tellers  |            49152
 2017-02-05 00:35:59.047036+01 | 1486251359.04704 | pgbench_history  |                0
 2017-02-05 00:35:59.047036+01 | 1486251359.04704 | pgbench_branches |             8192

 2017-02-05 00:36:00.134447+01 | 1486251360.13445 | pgbench_accounts |       1392427008
 2017-02-05 00:36:00.134447+01 | 1486251360.13445 | pgbench_tellers  |            49152
 2017-02-05 00:36:00.134447+01 | 1486251360.13445 | pgbench_history  |                0
 2017-02-05 00:36:00.134447+01 | 1486251360.13445 | pgbench_branches |             8192

 2017-02-05 00:36:01.229153+01 | 1486251361.22915 | pgbench_accounts |       1392427008
 2017-02-05 00:36:01.229153+01 | 1486251361.22915 | pgbench_tellers  |            49152
 2017-02-05 00:36:01.229153+01 | 1486251361.22915 | pgbench_history  |                0
 2017-02-05 00:36:01.229153+01 | 1486251361.22915 | pgbench_branches |             8192

 2017-02-05 00:36:02.354861+01 | 1486251362.35486 | pgbench_accounts |       1392427008
 2017-02-05 00:36:02.354861+01 | 1486251362.35486 | pgbench_tellers  |            49152
 2017-02-05 00:36:02.354861+01 | 1486251362.35486 | pgbench_history  |                0
 2017-02-05 00:36:02.354861+01 | 1486251362.35486 | pgbench_branches |             8192

 2017-02-05 00:36:03.451676+01 | 1486251363.45168 | pgbench_accounts |       1392427008
 2017-02-05 00:36:03.451676+01 | 1486251363.45168 | pgbench_tellers  |            49152
 2017-02-05 00:36:03.451676+01 | 1486251363.45168 | pgbench_history  |                0
 2017-02-05 00:36:03.451676+01 | 1486251363.45168 | pgbench_branches |             8192

 2017-02-05 00:36:04.565596+01 | 1486251364.5656 | pgbench_accounts |       1392427008
 2017-02-05 00:36:04.565596+01 | 1486251364.5656 | pgbench_tellers  |            49152
 2017-02-05 00:36:04.565596+01 | 1486251364.5656 | pgbench_history  |                0
 2017-02-05 00:36:04.565596+01 | 1486251364.5656 | pgbench_branches |             8192

 2017-02-05 00:36:05.663115+01 | 1486251365.66312 | pgbench_accounts |       1392427008
 2017-02-05 00:36:05.663115+01 | 1486251365.66312 | pgbench_tellers  |            49152
 2017-02-05 00:36:05.663115+01 | 1486251365.66312 | pgbench_history  |                0
 2017-02-05 00:36:05.663115+01 | 1486251365.66312 | pgbench_branches |             8192

 2017-02-05 00:36:06.75499+01 | 1486251366.75499 | pgbench_accounts |       1392427008
 2017-02-05 00:36:06.75499+01 | 1486251366.75499 | pgbench_tellers  |            49152
 2017-02-05 00:36:06.75499+01 | 1486251366.75499 | pgbench_history  |                0
 2017-02-05 00:36:06.75499+01 | 1486251366.75499 | pgbench_branches |             8192

 2017-02-05 00:36:07.86665+01 | 1486251367.86665 | pgbench_accounts |       1392427008
 2017-02-05 00:36:07.86665+01 | 1486251367.86665 | pgbench_tellers  |            49152
 2017-02-05 00:36:07.86665+01 | 1486251367.86665 | pgbench_history  |                0
 2017-02-05 00:36:07.86665+01 | 1486251367.86665 | pgbench_branches |             8192

 2017-02-05 00:36:08.968162+01 | 1486251368.96816 | pgbench_accounts |       1392427008
 2017-02-05 00:36:08.968162+01 | 1486251368.96816 | pgbench_tellers  |            49152
 2017-02-05 00:36:08.968162+01 | 1486251368.96816 | pgbench_history  |                0
 2017-02-05 00:36:08.968162+01 | 1486251368.96816 | pgbench_branches |             8192

 2017-02-05 00:36:10.06179+01 | 1486251370.06179 | pgbench_accounts |       1392427008
 2017-02-05 00:36:10.06179+01 | 1486251370.06179 | pgbench_tellers  |            49152
 2017-02-05 00:36:10.06179+01 | 1486251370.06179 | pgbench_history  |                0
 2017-02-05 00:36:10.06179+01 | 1486251370.06179 | pgbench_branches |             8192

 2017-02-05 00:36:11.158236+01 | 1486251371.15824 | pgbench_accounts |       1392427008
 2017-02-05 00:36:11.158236+01 | 1486251371.15824 | pgbench_tellers  |            49152
 2017-02-05 00:36:11.158236+01 | 1486251371.15824 | pgbench_history  |                0
 2017-02-05 00:36:11.158236+01 | 1486251371.15824 | pgbench_branches |             8192

 2017-02-05 00:36:12.264709+01 | 1486251372.26471 | pgbench_accounts |       1392427008
 2017-02-05 00:36:12.264709+01 | 1486251372.26471 | pgbench_tellers  |            49152
 2017-02-05 00:36:12.264709+01 | 1486251372.26471 | pgbench_history  |                0
 2017-02-05 00:36:12.264709+01 | 1486251372.26471 | pgbench_branches |             8192

 2017-02-05 00:36:13.357826+01 | 1486251373.35783 | pgbench_accounts |       1392427008
 2017-02-05 00:36:13.357826+01 | 1486251373.35783 | pgbench_tellers  |            49152
 2017-02-05 00:36:13.357826+01 | 1486251373.35783 | pgbench_history  |                0
 2017-02-05 00:36:13.357826+01 | 1486251373.35783 | pgbench_branches |             8192

 2017-02-05 00:36:14.450535+01 | 1486251374.45054 | pgbench_accounts |       1392427008
 2017-02-05 00:36:14.450535+01 | 1486251374.45054 | pgbench_tellers  |            49152
 2017-02-05 00:36:14.450535+01 | 1486251374.45054 | pgbench_history  |                0
 2017-02-05 00:36:14.450535+01 | 1486251374.45054 | pgbench_branches |             8192

 2017-02-05 00:36:15.553836+01 | 1486251375.55384 | pgbench_accounts |       1392427008
 2017-02-05 00:36:15.553836+01 | 1486251375.55384 | pgbench_tellers  |            49152
 2017-02-05 00:36:15.553836+01 | 1486251375.55384 | pgbench_history  |                0
 2017-02-05 00:36:15.553836+01 | 1486251375.55384 | pgbench_branches |             8192

 2017-02-05 00:36:16.66976+01 | 1486251376.66976 | pgbench_accounts |       1392427008
 2017-02-05 00:36:16.66976+01 | 1486251376.66976 | pgbench_tellers  |            49152
 2017-02-05 00:36:16.66976+01 | 1486251376.66976 | pgbench_history  |                0
 2017-02-05 00:36:16.66976+01 | 1486251376.66976 | pgbench_branches |             8192

 2017-02-05 00:36:17.772777+01 | 1486251377.77278 | pgbench_accounts |       1392427008
 2017-02-05 00:36:17.772777+01 | 1486251377.77278 | pgbench_tellers  |            49152
 2017-02-05 00:36:17.772777+01 | 1486251377.77278 | pgbench_history  |                0
 2017-02-05 00:36:17.772777+01 | 1486251377.77278 | pgbench_branches |             8192

