 2017-02-05 11:46:56.534429+01 | 1486291616.53443 | 16/B317E5A0              |           97493968288

 2017-02-05 11:46:57.621191+01 | 1486291617.62119 | 16/C0852FE0              |           97719234528

 2017-02-05 11:46:58.706476+01 | 1486291618.70648 | 16/C9955250              |           97871286864

 2017-02-05 11:46:59.792734+01 | 1486291619.79273 | 16/CF37D718              |           97965823768

 2017-02-05 11:47:00.869695+01 | 1486291620.86969 | 16/D372E1F8              |           98036802040

 2017-02-05 11:47:01.943487+01 | 1486291621.94349 | 16/D6A5AB40              |           98090462016

 2017-02-05 11:47:03.021091+01 | 1486291623.02109 | 16/D9A0CAB8              |           98140474040

 2017-02-05 11:47:04.107253+01 | 1486291624.10725 | 16/DBFE5B80              |           98180160384

 2017-02-05 11:47:05.184966+01 | 1486291625.18497 | 16/DE27E2E8              |           98216436456

 2017-02-05 11:47:06.263063+01 | 1486291626.26306 | 16/E01B2B70              |           98249157488

 2017-02-05 11:47:07.337069+01 | 1486291627.33707 | 16/E1EA47A8              |           98279507880

 2017-02-05 11:47:08.414826+01 | 1486291628.41483 | 16/E39856D0              |           98307692240

 2017-02-05 11:47:09.501917+01 | 1486291629.50192 | 16/E54CC300              |           98336293632

 2017-02-05 11:47:10.586221+01 | 1486291630.58622 | 16/E6FB4740              |           98364507968

 2017-02-05 11:47:11.666408+01 | 1486291631.66641 | 16/E90258C0              |           98398525632

 2017-02-05 11:47:12.742575+01 | 1486291632.74257 | 16/EB441AB8              |           98436389560

 2017-02-05 11:47:13.819728+01 | 1486291633.81973 | 16/ED7614E8              |           98473219304

 2017-02-05 11:47:14.89409+01 | 1486291634.89409 | 16/EF997F58              |           98509094744

 2017-02-05 11:47:15.972213+01 | 1486291635.97221 | 16/F1ABDBB8              |           98543852472

 2017-02-05 11:47:17.04978+01 | 1486291637.04978 | 16/F3A76778              |           98577115000

 2017-02-05 11:47:18.12989+01 | 1486291638.12989 | 16/F5A0A2E8              |           98610225896

 2017-02-05 11:47:19.202756+01 | 1486291639.20276 | 16/F78B7518              |           98642392344

 2017-02-05 11:47:20.279856+01 | 1486291640.27986 | 16/F96DAB18              |           98673994520

 2017-02-05 11:47:21.357175+01 | 1486291641.35718 | 16/FB3D6878              |           98704386168

 2017-02-05 11:47:22.442442+01 | 1486291642.44244 | 16/FCFED1E8              |           98733838824

 2017-02-05 11:47:23.527548+01 | 1486291643.52755 | 16/FEA52068              |           98761515112

 2017-02-05 11:47:24.604953+01 | 1486291644.60495 | 17/254B10                |           98786691856

 2017-02-05 11:47:25.678274+01 | 1486291645.67827 | 17/177BF30               |           98808872752

 2017-02-05 11:47:26.75377+01 | 1486291646.75377 | 17/26187F0               |           98824194032

 2017-02-05 11:47:27.8258+01 | 1486291647.8258 | 17/392E270               |           98844205680

 2017-02-05 11:47:28.91133+01 | 1486291648.91133 | 17/4805B20               |           98859768608

 2017-02-05 11:47:29.987312+01 | 1486291649.98731 | 17/560E4F0               |           98874483952

 2017-02-05 11:47:31.059778+01 | 1486291651.05978 | 17/63D3DA0               |           98888924576

 2017-02-05 11:47:32.131258+01 | 1486291652.13126 | 17/70EECC0               |           98902666432

 2017-02-05 11:47:33.206716+01 | 1486291653.20672 | 17/7E44D30               |           98916650288

 2017-02-05 11:47:34.284617+01 | 1486291654.28462 | 17/8AB8D80               |           98929708416

 2017-02-05 11:47:35.361819+01 | 1486291655.36182 | 17/97AB830               |           98943285296

 2017-02-05 11:47:36.458894+01 | 1486291656.45889 | 17/A410620               |           98956281376

 2017-02-05 11:47:37.538957+01 | 1486291657.53896 | 17/B08CAB0               |           98969373360

 2017-02-05 11:47:38.614221+01 | 1486291658.61422 | 17/BD13AD8               |           98982509272

 2017-02-05 11:47:39.688577+01 | 1486291659.68858 | 17/C9C8900               |           98995833088

 2017-02-05 11:47:40.762118+01 | 1486291660.76212 | 17/D6C69D8               |           99009456600

 2017-02-05 11:47:41.8452+01 | 1486291661.8452 | 17/E362530               |           99022677296

 2017-02-05 11:47:42.92728+01 | 1486291662.92728 | 17/F075020               |           99036385312

 2017-02-05 11:47:44.003779+01 | 1486291664.00378 | 17/FDABBC0               |           99050240960

 2017-02-05 11:47:45.082969+01 | 1486291665.08297 | 17/10A133F8              |           99063247864

 2017-02-05 11:47:46.170828+01 | 1486291666.17083 | 17/116BC388              |           99076522888

 2017-02-05 11:47:47.243809+01 | 1486291667.24381 | 17/12301758              |           99089389400

 2017-02-05 11:47:48.322183+01 | 1486291668.32218 | 17/12FBD830              |           99102742576

 2017-02-05 11:47:49.397483+01 | 1486291669.39748 | 17/13C7F350              |           99116118864

 2017-02-05 11:47:50.471129+01 | 1486291670.47113 | 17/14912948              |           99129305416

 2017-02-05 11:47:51.552365+01 | 1486291671.55237 | 17/15538C90              |           99142044816

 2017-02-05 11:47:52.632295+01 | 1486291672.63229 | 17/161B5FF0              |           99155140592

 2017-02-05 11:47:53.703156+01 | 1486291673.70316 | 17/16E3D790              |           99168278416

 2017-02-05 11:47:54.777657+01 | 1486291674.77766 | 17/17A7F8D8              |           99181131992

 2017-02-05 11:47:55.862192+01 | 1486291675.86219 | 17/186E26A0              |           99194119840

 2017-02-05 11:47:56.943536+01 | 1486291676.94354 | 17/192C8AA0              |           99206597280

 2017-02-05 11:47:58.022794+01 | 1486291678.02279 | 17/19EB8840              |           99219114048

 2017-02-05 11:47:59.101094+01 | 1486291679.10109 | 17/1AA33268              |           99231150696

 2017-02-05 11:48:00.181448+01 | 1486291680.18145 | 17/1B5F5F78              |           99243483000

 2017-02-05 11:48:01.25445+01 | 1486291681.25445 | 17/1C222460              |           99256247392

 2017-02-05 11:48:02.33326+01 | 1486291682.33326 | 17/1CDA8790              |           99268331408

 2017-02-05 11:48:03.415096+01 | 1486291683.4151 | 17/1D9ECC30              |           99281194032

 2017-02-05 11:48:04.497333+01 | 1486291684.49733 | 17/1E600F88              |           99293859720

 2017-02-05 11:48:05.570539+01 | 1486291685.57054 | 17/1F20B678              |           99306485368

 2017-02-05 11:48:06.645719+01 | 1486291686.64572 | 17/1FE22D00              |           99319164160

 2017-02-05 11:48:07.728204+01 | 1486291687.7282 | 17/20A2FAA8              |           99331799720

 2017-02-05 11:48:08.800528+01 | 1486291688.80053 | 17/21674B00              |           99344665344

 2017-02-05 11:48:09.873257+01 | 1486291689.87326 | 17/222F5D40              |           99357777216

 2017-02-05 11:48:10.954119+01 | 1486291690.95412 | 17/23014E28              |           99371535912

 2017-02-05 11:48:12.035744+01 | 1486291692.03574 | 17/23E7E6C0              |           99386648256

 2017-02-05 11:48:13.116707+01 | 1486291693.11671 | 17/24D58978              |           99402221944

 2017-02-05 11:48:14.20179+01 | 1486291694.20179 | 17/25F1BCF8              |           99420847352

 2017-02-05 11:48:15.280378+01 | 1486291695.28038 | 17/270D2DF8              |           99439422968

 2017-02-05 11:48:16.360145+01 | 1486291696.36015 | 17/28277348              |           99457921864

 2017-02-05 11:48:17.433441+01 | 1486291697.43344 | 17/290965A8              |           99472729512

 2017-02-05 11:48:18.502621+01 | 1486291698.50262 | 17/29C25350              |           99484848976

 2017-02-05 11:48:19.582374+01 | 1486291699.58237 | 17/2A83CD98              |           99497528728

 2017-02-05 11:48:20.654052+01 | 1486291700.65405 | 17/2B50CDE0              |           99510963680

 2017-02-05 11:48:21.73015+01 | 1486291701.73015 | 17/2C1BC0A0              |           99524264096

 2017-02-05 11:48:22.807781+01 | 1486291702.80778 | 17/2CE430A8              |           99537399976

 2017-02-05 11:48:23.890091+01 | 1486291703.89009 | 17/2DA244E8              |           99549857000

 2017-02-05 11:48:24.966106+01 | 1486291704.96611 | 17/2E5D80E0              |           99562127584

 2017-02-05 11:48:26.048663+01 | 1486291706.04866 | 17/2F1980B8              |           99574448312

 2017-02-05 11:48:27.126202+01 | 1486291707.1262 | 17/2FD89318              |           99586970392

 2017-02-05 11:48:28.206296+01 | 1486291708.2063 | 17/30993B60              |           99599596384

 2017-02-05 11:48:29.287624+01 | 1486291709.28762 | 17/31463E20              |           99610934816

 2017-02-05 11:48:30.366257+01 | 1486291710.36626 | 17/31FD8050              |           99622944848

 2017-02-05 11:48:31.445463+01 | 1486291711.44546 | 17/32B59648              |           99635009096

 2017-02-05 11:48:32.523341+01 | 1486291712.52334 | 17/3372E060              |           99647414368

 2017-02-05 11:48:33.602941+01 | 1486291713.60294 | 17/343642A8              |           99660219048

 2017-02-05 11:48:34.67957+01 | 1486291714.67957 | 17/34EF5D40              |           99672350016

 2017-02-05 11:48:35.759191+01 | 1486291715.75919 | 17/35A98250              |           99684549200

 2017-02-05 11:48:36.845917+01 | 1486291716.84592 | 17/365F3930              |           99696458032

 2017-02-05 11:48:37.926697+01 | 1486291717.9267 | 17/37193F90              |           99708649360

 2017-02-05 11:48:39.003145+01 | 1486291719.00314 | 17/37D2D6F8              |           99720812280

 2017-02-05 11:48:40.09252+01 | 1486291720.09252 | 17/388E8528              |           99733112104

 2017-02-05 11:48:41.174553+01 | 1486291721.17455 | 17/394B4AE8              |           99745483496

 2017-02-05 11:48:42.242909+01 | 1486291722.24291 | 17/3A003F10              |           99757342480

 2017-02-05 11:48:43.326247+01 | 1486291723.32625 | 17/3AB70870              |           99769321584

 2017-02-05 11:48:44.403568+01 | 1486291724.40357 | 17/3B6F7D98              |           99781410200

 2017-02-05 11:48:45.488456+01 | 1486291725.48846 | 17/3C2C8B08              |           99793799944

 2017-02-05 11:48:46.561586+01 | 1486291726.56159 | 17/3CDC00E0              |           99805298912

 2017-02-05 11:48:47.632131+01 | 1486291727.63213 | 17/3D94F3F8              |           99817419768

 2017-02-05 11:48:48.707495+01 | 1486291728.70749 | 17/3E4A75E8              |           99829315048

 2017-02-05 11:48:49.791028+01 | 1486291729.79103 | 17/3EFF4A08              |           99841165832

 2017-02-05 11:48:50.864581+01 | 1486291730.86458 | 17/3FB5F2E8              |           99853136616

 2017-02-05 11:48:51.942938+01 | 1486291731.94294 | 17/4073E090              |           99865583760

 2017-02-05 11:48:53.022167+01 | 1486291733.02217 | 17/4131DD50              |           99878034768

 2017-02-05 11:48:54.093832+01 | 1486291734.09383 | 17/41E4DDB0              |           99889765808

 2017-02-05 11:48:55.175335+01 | 1486291735.17533 | 17/4299D180              |           99901624704

 2017-02-05 11:48:56.255265+01 | 1486291736.25526 | 17/43539D10              |           99913800976

 2017-02-05 11:48:57.338545+01 | 1486291737.33855 | 17/440AF6A0              |           99925816992

 2017-02-05 11:48:58.415799+01 | 1486291738.4158 | 17/44C6AD30              |           99938118960

 2017-02-05 11:48:59.495807+01 | 1486291739.49581 | 17/457F63E8              |           99950224360

 2017-02-05 11:49:00.574491+01 | 1486291740.57449 | 17/462C01D8              |           99961536984

 2017-02-05 11:49:01.662268+01 | 1486291741.66227 | 17/46E74518              |           99973809432

 2017-02-05 11:49:02.736926+01 | 1486291742.73693 | 17/479E7EB0              |           99985817264

 2017-02-05 11:49:03.810773+01 | 1486291743.81077 | 17/48557A80              |           99997809280

 2017-02-05 11:49:04.888792+01 | 1486291744.88879 | 17/4909FAF8              |          100009638648

 2017-02-05 11:49:05.969922+01 | 1486291745.96992 | 17/49BD8210              |          100021404176

 2017-02-05 11:49:07.047748+01 | 1486291747.04775 | 17/4A738FF8              |          100033335288

 2017-02-05 11:49:08.130788+01 | 1486291748.13079 | 17/4B21FD08              |          100044766472

 2017-02-05 11:49:09.2181+01 | 1486291749.2181 | 17/4BDEF2B8              |          100057150136

 2017-02-05 11:49:10.295935+01 | 1486291750.29593 | 17/4C9C5198              |          100069560728

 2017-02-05 11:49:11.373738+01 | 1486291751.37374 | 17/4D6C2868              |          100083181672

 2017-02-05 11:49:12.455556+01 | 1486291752.45556 | 17/4E3DB188              |          100096913800

 2017-02-05 11:49:13.543311+01 | 1486291753.54331 | 17/4F279EC0              |          100112244416

 2017-02-05 11:49:14.615383+01 | 1486291754.61538 | 17/5011F070              |          100127600752

 2017-02-05 11:49:15.690979+01 | 1486291755.69098 | 17/5102D878              |          100143388792

 2017-02-05 11:49:16.762972+01 | 1486291756.76297 | 17/521F7C50              |          100162042960

 2017-02-05 11:49:17.840395+01 | 1486291757.84039 | 17/52D677E8              |          100174034920

 2017-02-05 11:49:18.914024+01 | 1486291758.91402 | 17/53840280              |          100185408128

 2017-02-05 11:49:19.992541+01 | 1486291759.99254 | 17/5445D448              |          100198110280

 2017-02-05 11:49:21.074471+01 | 1486291761.07447 | 17/550381C8              |          100210541000

 2017-02-05 11:49:22.156251+01 | 1486291762.15625 | 17/55C45E20              |          100223180320

 2017-02-05 11:49:23.241452+01 | 1486291763.24145 | 17/5693E9D0              |          100236782032

 2017-02-05 11:49:24.3167+01 | 1486291764.3167 | 17/5747FF18              |          100248583960

 2017-02-05 11:49:25.396221+01 | 1486291765.39622 | 17/57FB0FE0              |          100260319200

 2017-02-05 11:49:26.472104+01 | 1486291766.4721 | 17/58B7A4B8              |          100272678072

 2017-02-05 11:49:27.546956+01 | 1486291767.54696 | 17/596AD6A8              |          100284421800

 2017-02-05 11:49:28.622212+01 | 1486291768.62221 | 17/5A21FFB0              |          100296425392

 2017-02-05 11:49:29.711782+01 | 1486291769.71178 | 17/5AC5ABE8              |          100307151848

 2017-02-05 11:49:30.793142+01 | 1486291770.79314 | 17/5B5CC948              |          100317055304

 2017-02-05 11:49:31.870617+01 | 1486291771.87062 | 17/5C03C500              |          100327998720

 2017-02-05 11:49:32.946227+01 | 1486291772.94623 | 17/5CA87178              |          100338790776

 2017-02-05 11:49:34.021+01 | 1486291774.021 | 17/5D54F1B8              |          100350095800

 2017-02-05 11:49:35.100453+01 | 1486291775.10045 | 17/5DFE9888              |          100361214088

 2017-02-05 11:49:36.178083+01 | 1486291776.17808 | 17/5EA510F8              |          100372123896

 2017-02-05 11:49:37.253525+01 | 1486291777.25353 | 17/5F5132F8              |          100383404792

 2017-02-05 11:49:38.332998+01 | 1486291778.333 | 17/5FF53E48              |          100394155592

 2017-02-05 11:49:39.41729+01 | 1486291779.41729 | 17/60A1FF38              |          100405477176

 2017-02-05 11:49:40.4954+01 | 1486291780.4954 | 17/614B9910              |          100416592144

 2017-02-05 11:49:41.571408+01 | 1486291781.57141 | 17/61F0D320              |          100427420448

 2017-02-05 11:49:42.646658+01 | 1486291782.64666 | 17/62957090              |          100438208656

 2017-02-05 11:49:43.722769+01 | 1486291783.72277 | 17/633A20F8              |          100449002528

 2017-02-05 11:49:44.796708+01 | 1486291784.79671 | 17/63DC8B68              |          100459645800

 2017-02-05 11:49:45.877154+01 | 1486291785.87715 | 17/64823AB8              |          100470504120

 2017-02-05 11:49:46.959095+01 | 1486291786.9591 | 17/653A3888              |          100482562184

 2017-02-05 11:49:48.03876+01 | 1486291788.03876 | 17/65ECBEE8              |          100494261992

 2017-02-05 11:49:49.123344+01 | 1486291789.12334 | 17/66A04BE8              |          100506029032

 2017-02-05 11:49:50.201151+01 | 1486291790.20115 | 17/67500558              |          100517545304

 2017-02-05 11:49:51.276068+01 | 1486291791.27607 | 17/680360D8              |          100529299672

 2017-02-05 11:49:52.350556+01 | 1486291792.35056 | 17/68BB1DE8              |          100541341160

 2017-02-05 11:49:53.428539+01 | 1486291793.42854 | 17/696CA500              |          100552975616

 2017-02-05 11:49:54.50234+01 | 1486291794.50234 | 17/6A2BC300              |          100565500672

 2017-02-05 11:49:55.584346+01 | 1486291795.58435 | 17/6ADFC340              |          100577297216

 2017-02-05 11:49:56.661876+01 | 1486291796.66188 | 17/6B99FD10              |          100589501712

 2017-02-05 11:49:57.740523+01 | 1486291797.74052 | 17/6C4A8C20              |          100601072672

 2017-02-05 11:49:58.815098+01 | 1486291798.8151 | 17/6D0035F0              |          100612978160

 2017-02-05 11:49:59.890272+01 | 1486291799.89027 | 17/6DB2D6E0              |          100624684768

 2017-02-05 11:50:00.972717+01 | 1486291800.97272 | 17/6E616310              |          100636123920

 2017-02-05 11:50:02.062349+01 | 1486291802.06235 | 17/6F06AAD8              |          100646955736

 2017-02-05 11:50:03.142135+01 | 1486291803.14213 | 17/6FB4CD90              |          100658367888

 2017-02-05 11:50:04.221823+01 | 1486291804.22182 | 17/70627E70              |          100669750896

 2017-02-05 11:50:05.297791+01 | 1486291805.29779 | 17/711A6810              |          100681803792

 2017-02-05 11:50:06.369295+01 | 1486291806.36929 | 17/71D83620              |          100694242848

 2017-02-05 11:50:07.445989+01 | 1486291807.44599 | 17/7292AED8              |          100706463448

 2017-02-05 11:50:08.525645+01 | 1486291808.52565 | 17/73540330              |          100719133488

 2017-02-05 11:50:09.594027+01 | 1486291809.59403 | 17/74171188              |          100731916680

 2017-02-05 11:50:10.682187+01 | 1486291810.68219 | 17/74D80B50              |          100744563536

 2017-02-05 11:50:11.75948+01 | 1486291811.75948 | 17/75AFD7A8              |          100758706088

 2017-02-05 11:50:12.835243+01 | 1486291812.83524 | 17/768386E0              |          100772579040

 2017-02-05 11:50:13.917393+01 | 1486291813.91739 | 17/775FFD58              |          100787027288

 2017-02-05 11:50:14.990949+01 | 1486291814.99095 | 17/784AA450              |          100802405456

 2017-02-05 11:50:16.064768+01 | 1486291816.06477 | 17/792D82C0              |          100817273536

 2017-02-05 11:50:17.141277+01 | 1486291817.14128 | 17/79F2DEE8              |          100830207720

 2017-02-05 11:50:18.22257+01 | 1486291818.22257 | 17/7AA2E868              |          100841744488

 2017-02-05 11:50:19.306786+01 | 1486291819.30679 | 17/7B6016F0              |          100854142704

 2017-02-05 11:50:20.385652+01 | 1486291820.38565 | 17/7C2AEA60              |          100867435104

 2017-02-05 11:50:21.461697+01 | 1486291821.4617 | 17/7CE852E8              |          100879848168

 2017-02-05 11:50:22.530464+01 | 1486291822.53046 | 17/7DA41C48              |          100892154952

 2017-02-05 11:50:23.606303+01 | 1486291823.6063 | 17/7E5D24D8              |          100904281304

 2017-02-05 11:50:24.682476+01 | 1486291824.68248 | 17/7F0A3820              |          100915623968

 2017-02-05 11:50:25.757037+01 | 1486291825.75704 | 17/7FBA3728              |          100927158056

 2017-02-05 11:50:26.834558+01 | 1486291826.83456 | 17/8070AD90              |          100939115920

 2017-02-05 11:50:27.909633+01 | 1486291827.90963 | 17/8128FB30              |          100951194416

 2017-02-05 11:50:28.983909+01 | 1486291828.98391 | 17/81DE47D8              |          100963076056

 2017-02-05 11:50:30.062519+01 | 1486291830.06252 | 17/82922600              |          100974863872

 2017-02-05 11:50:31.147867+01 | 1486291831.14787 | 17/834F3090              |          100987252880

 2017-02-05 11:50:32.223959+01 | 1486291832.22396 | 17/83F3AF78              |          100998033272

 2017-02-05 11:50:33.29889+01 | 1486291833.29889 | 17/84A899E0              |          101009889760

 2017-02-05 11:50:34.371567+01 | 1486291834.37157 | 17/855CFE10              |          101021711888

 2017-02-05 11:50:35.461776+01 | 1486291835.46178 | 17/860B17D8              |          101033121752

 2017-02-05 11:50:36.536759+01 | 1486291836.53676 | 17/86BD06A8              |          101044782760

 2017-02-05 11:50:37.618796+01 | 1486291837.6188 | 17/876C30A0              |          101056262304

 2017-02-05 11:50:38.701234+01 | 1486291838.70123 | 17/8825A6B0              |          101068416688

 2017-02-05 11:50:39.783172+01 | 1486291839.78317 | 17/88D77FA0              |          101080072096

 2017-02-05 11:50:40.850837+01 | 1486291840.85084 | 17/89855468              |          101091464296

 2017-02-05 11:50:41.934577+01 | 1486291841.93458 | 17/8A36D170              |          101103096176

 2017-02-05 11:50:43.013679+01 | 1486291843.01368 | 17/8AE812B0              |          101114712752

 2017-02-05 11:50:44.091148+01 | 1486291844.09115 | 17/8BA363B8              |          101126988728

 2017-02-05 11:50:45.163631+01 | 1486291845.16363 | 17/8C5A1858              |          101138962520

 2017-02-05 11:50:46.242154+01 | 1486291846.24215 | 17/8D14D3C0              |          101151200192

 2017-02-05 11:50:47.323222+01 | 1486291847.32322 | 17/8DCD34C0              |          101163283648

 2017-02-05 11:50:48.400272+01 | 1486291848.40027 | 17/8E840558              |          101175264600

 2017-02-05 11:50:49.477318+01 | 1486291849.47732 | 17/8F3A74C0              |          101187220672

 2017-02-05 11:50:50.547873+01 | 1486291850.54787 | 17/8FF0E600              |          101199177216

 2017-02-05 11:50:51.624304+01 | 1486291851.6243 | 17/90A50938              |          101210982712

 2017-02-05 11:50:52.709386+01 | 1486291852.70939 | 17/915EB988              |          101223152008

 2017-02-05 11:50:53.780384+01 | 1486291853.78038 | 17/92124BC0              |          101234920384

 2017-02-05 11:50:54.855723+01 | 1486291854.85572 | 17/92C57848              |          101246662728

 2017-02-05 11:50:55.923252+01 | 1486291855.92325 | 17/937A5678              |          101258516088

 2017-02-05 11:50:57.005897+01 | 1486291857.0059 | 17/942EDB40              |          101270346560

 2017-02-05 11:50:58.089455+01 | 1486291858.08945 | 17/94E38A48              |          101282187848

 2017-02-05 11:50:59.163478+01 | 1486291859.16348 | 17/9592F370              |          101293683568

 2017-02-05 11:51:00.262354+01 | 1486291860.26235 | 17/963FE6D0              |          101305018064

 2017-02-05 11:51:01.337056+01 | 1486291861.33706 | 17/96F68230              |          101316985392

 2017-02-05 11:51:02.41023+01 | 1486291862.41023 | 17/97AFBA68              |          101329123944

 2017-02-05 11:51:03.486293+01 | 1486291863.48629 | 17/98653A48              |          101341018696

 2017-02-05 11:51:04.570866+01 | 1486291864.57087 | 17/9918DFF0              |          101352792048

 2017-02-05 11:51:05.654921+01 | 1486291865.65492 | 17/99CC2848              |          101364541512

 2017-02-05 11:51:06.742557+01 | 1486291866.74256 | 17/9A80BE38              |          101376376376

 2017-02-05 11:51:07.825029+01 | 1486291867.82503 | 17/9B3891C8              |          101388423624

 2017-02-05 11:51:08.896625+01 | 1486291868.89663 | 17/9BE51980              |          101399730560

 2017-02-05 11:51:09.972388+01 | 1486291869.97239 | 17/9C9C08E0              |          101411719392

 2017-02-05 11:51:11.057192+01 | 1486291871.05719 | 17/9D692E40              |          101425163840

 2017-02-05 11:51:12.138177+01 | 1486291872.13818 | 17/9E422428              |          101439382568

 2017-02-05 11:51:13.216545+01 | 1486291873.21655 | 17/9F15F870              |          101453265008

 2017-02-05 11:51:14.290803+01 | 1486291874.2908 | 17/9FEC2B68              |          101467302760

 2017-02-05 11:51:15.365485+01 | 1486291875.36548 | 17/A0D12A80              |          101482310272

 2017-02-05 11:51:16.442915+01 | 1486291876.44291 | 17/A1A2AF20              |          101496041248

 2017-02-05 11:51:17.52669+01 | 1486291877.52669 | 17/A25FF9C8              |          101508446664

 2017-02-05 11:51:18.603505+01 | 1486291878.6035 | 17/A311C548              |          101520098632

 2017-02-05 11:51:19.675851+01 | 1486291879.67585 | 17/A3CFAF00              |          101532544768

 2017-02-05 11:51:20.755567+01 | 1486291880.75557 | 17/A49A6658              |          101545829976

 2017-02-05 11:51:21.831939+01 | 1486291881.83194 | 17/A55298A8              |          101557901480

 2017-02-05 11:51:22.89627+01 | 1486291882.89627 | 17/A6133138              |          101570523448

 2017-02-05 11:51:23.964575+01 | 1486291883.96458 | 17/A6D0F6A8              |          101582960296

 2017-02-05 11:51:25.038315+01 | 1486291885.03832 | 17/A78172D8              |          101594526424

 2017-02-05 11:51:26.115267+01 | 1486291886.11527 | 17/A832EDF8              |          101606157816

 2017-02-05 11:51:27.194809+01 | 1486291887.19481 | 17/A8E3D860              |          101617752160

 2017-02-05 11:51:28.276752+01 | 1486291888.27675 | 17/A998DA60              |          101629614688

 2017-02-05 11:51:29.362168+01 | 1486291889.36217 | 17/AA4CF2D0              |          101641417424

 2017-02-05 11:51:30.447884+01 | 1486291890.44788 | 17/AB061068              |          101653549160

 2017-02-05 11:51:31.519983+01 | 1486291891.51998 | 17/ABBAA948              |          101665384776

 2017-02-05 11:51:32.597556+01 | 1486291892.59756 | 17/AC715DF8              |          101677358584

 2017-02-05 11:51:33.677146+01 | 1486291893.67715 | 17/AD24B630              |          101689112112

 2017-02-05 11:51:34.754317+01 | 1486291894.75432 | 17/ADDB7398              |          101701088152

 2017-02-05 11:51:35.829526+01 | 1486291895.82953 | 17/AE9307D0              |          101713119184

 2017-02-05 11:51:36.906463+01 | 1486291896.90646 | 17/AF44C6E0              |          101724767968

 2017-02-05 11:51:37.985636+01 | 1486291897.98564 | 17/AFFE0040              |          101736906816

 2017-02-05 11:51:39.064783+01 | 1486291899.06478 | 17/B0AB2480              |          101748253824

 2017-02-05 11:51:40.141095+01 | 1486291900.14109 | 17/B15BE7D8              |          101759838168

 2017-02-05 11:51:41.222171+01 | 1486291901.22217 | 17/B2094AD0              |          101771203304

 2017-02-05 11:51:42.29958+01 | 1486291902.29958 | 17/B2B434B8              |          101782402232

 2017-02-05 11:51:43.380971+01 | 1486291903.38097 | 17/B3715E18              |          101794799128

 2017-02-05 11:51:44.46552+01 | 1486291904.46552 | 17/B428D240              |          101806821952

 2017-02-05 11:51:45.548199+01 | 1486291905.5482 | 17/B4E1EF60              |          101818953568

 2017-02-05 11:51:46.626314+01 | 1486291906.62631 | 17/B59B3608              |          101831095816

 2017-02-05 11:51:47.710112+01 | 1486291907.71011 | 17/B649F4D0              |          101842547920

 2017-02-05 11:51:48.7855+01 | 1486291908.7855 | 17/B6FE90E8              |          101854384360

 2017-02-05 11:51:49.868291+01 | 1486291909.86829 | 17/B7B2D088              |          101866197128

 2017-02-05 11:51:50.946635+01 | 1486291910.94664 | 17/B8649490              |          101877847184

 2017-02-05 11:51:52.029341+01 | 1486291912.02934 | 17/B91E9D38              |          101890039096

 2017-02-05 11:51:53.10785+01 | 1486291913.10785 | 17/B9D3F868              |          101901924456

 2017-02-05 11:51:54.184282+01 | 1486291914.18428 | 17/BA87D6B8              |          101913712312

 2017-02-05 11:51:55.258424+01 | 1486291915.25842 | 17/BB389420              |          101925295136

 2017-02-05 11:51:56.336226+01 | 1486291916.33623 | 17/BBF09F38              |          101937356600

