 2017-02-04 16:35:12.191604+01 | 1486222512.1916 |                 0 |              24 |                223618 |                 4378 |           20720553 |       2038720 |            18461 |        11719989 |                     0 |       7559249 | 2017-02-04 14:32:06.406449+01

 2017-02-04 16:35:13.272132+01 | 1486222513.27213 |                 0 |              24 |                223618 |                 4378 |           20720553 |       2038720 |            18461 |        11719989 |                     0 |       7560028 | 2017-02-04 14:32:06.406449+01

 2017-02-04 16:35:14.355321+01 | 1486222514.35532 |                 0 |              24 |                223618 |                 4378 |           20720553 |       2038720 |            18461 |        11719989 |                     0 |       7560838 | 2017-02-04 14:32:06.406449+01

 2017-02-04 16:35:15.433442+01 | 1486222515.43344 |                 0 |              24 |                223618 |                 4378 |           20720553 |       2038720 |            18461 |        11719989 |                     0 |       7561912 | 2017-02-04 14:32:06.406449+01

 2017-02-04 16:35:16.509601+01 | 1486222516.5096 |                 0 |              24 |                223618 |                 4378 |           20720553 |       2038720 |            18461 |        11719989 |                     0 |       7563096 | 2017-02-04 14:32:06.406449+01

 2017-02-04 16:35:17.586226+01 | 1486222517.58623 |                 0 |              24 |                223618 |                 4378 |           20720553 |       2038720 |            18461 |        11719989 |                     0 |       7563975 | 2017-02-04 14:32:06.406449+01

 2017-02-04 16:35:18.66479+01 | 1486222518.66479 |                 0 |              24 |                223618 |                 4378 |           20720553 |       2038720 |            18461 |        11719989 |                     0 |       7565313 | 2017-02-04 14:32:06.406449+01

 2017-02-04 16:35:19.740814+01 | 1486222519.74081 |                 0 |              24 |                223618 |                 4378 |           20720553 |       2038720 |            18461 |        11719989 |                     0 |       7566298 | 2017-02-04 14:32:06.406449+01

 2017-02-04 16:35:20.814696+01 | 1486222520.8147 |                 0 |              24 |                223618 |                 4378 |           20720553 |       2038720 |            18461 |        11719989 |                     0 |       7567491 | 2017-02-04 14:32:06.406449+01

 2017-02-04 16:35:21.887604+01 | 1486222521.8876 |                 0 |              24 |                223618 |                 4378 |           20720553 |       2038720 |            18461 |        11719989 |                     0 |       7568510 | 2017-02-04 14:32:06.406449+01

 2017-02-04 16:35:22.96642+01 | 1486222522.96642 |                 0 |              24 |                223618 |                 4378 |           20720553 |       2038720 |            18461 |        11719989 |                     0 |       7569555 | 2017-02-04 14:32:06.406449+01

 2017-02-04 16:35:24.046407+01 | 1486222524.04641 |                 0 |              24 |                223618 |                 4378 |           20720553 |       2038720 |            18461 |        11719989 |                     0 |       7571090 | 2017-02-04 14:32:06.406449+01

 2017-02-04 16:35:25.12255+01 | 1486222525.12255 |                 0 |              24 |                223618 |                 4378 |           20720553 |       2038720 |            18461 |        11719989 |                     0 |       7572119 | 2017-02-04 14:32:06.406449+01

 2017-02-04 16:35:26.197051+01 | 1486222526.19705 |                 0 |              24 |                223618 |                 4378 |           20720553 |       2038720 |            18461 |        11719989 |                     0 |       7573318 | 2017-02-04 14:32:06.406449+01

 2017-02-04 16:35:27.269716+01 | 1486222527.26972 |                 0 |              24 |                223618 |                 4378 |           20720553 |       2038720 |            18461 |        11719989 |                     0 |       7574599 | 2017-02-04 14:32:06.406449+01

 2017-02-04 16:35:28.344397+01 | 1486222528.3444 |                 0 |              24 |                223618 |                 4378 |           20720553 |       2038720 |            18461 |        11719989 |                     0 |       7575779 | 2017-02-04 14:32:06.406449+01

 2017-02-04 16:35:29.423987+01 | 1486222529.42399 |                 0 |              24 |                223618 |                 4378 |           20720553 |       2038720 |            18461 |        11719989 |                     0 |       7577260 | 2017-02-04 14:32:06.406449+01

 2017-02-04 16:35:30.504265+01 | 1486222530.50427 |                 0 |              24 |                223618 |                 4378 |           20720553 |       2038720 |            18461 |        11719989 |                     0 |       7578463 | 2017-02-04 14:32:06.406449+01

 2017-02-04 16:35:31.578398+01 | 1486222531.5784 |                 0 |              24 |                223618 |                 4378 |           20720553 |       2038720 |            18461 |        11719989 |                     0 |       7579514 | 2017-02-04 14:32:06.406449+01

 2017-02-04 16:35:32.649609+01 | 1486222532.64961 |                 0 |              24 |                223618 |                 4378 |           20720553 |       2038720 |            18461 |        11719989 |                     0 |       7580831 | 2017-02-04 14:32:06.406449+01

 2017-02-04 16:35:33.724935+01 | 1486222533.72494 |                 0 |              24 |                223618 |                 4378 |           20720553 |       2038720 |            18461 |        11719989 |                     0 |       7581846 | 2017-02-04 14:32:06.406449+01

 2017-02-04 16:35:34.801655+01 | 1486222534.80166 |                 0 |              24 |                223618 |                 4378 |           20720553 |       2038720 |            18461 |        11719989 |                     0 |       7583235 | 2017-02-04 14:32:06.406449+01

 2017-02-04 16:35:35.879051+01 | 1486222535.87905 |                 0 |              24 |                223618 |                 4378 |           20720553 |       2038720 |            18461 |        11719989 |                     0 |       7584540 | 2017-02-04 14:32:06.406449+01

 2017-02-04 16:35:36.960735+01 | 1486222536.96074 |                 0 |              24 |                223618 |                 4378 |           20720553 |       2038720 |            18461 |        11719989 |                     0 |       7585682 | 2017-02-04 14:32:06.406449+01

 2017-02-04 16:35:38.034289+01 | 1486222538.03429 |                 0 |              24 |                223618 |                 4378 |           20720553 |       2038720 |            18461 |        11719989 |                     0 |       7587196 | 2017-02-04 14:32:06.406449+01

 2017-02-04 16:35:39.112749+01 | 1486222539.11275 |                 0 |              24 |                223618 |                 4378 |           20720553 |       2038720 |            18461 |        11719989 |                     0 |       7588245 | 2017-02-04 14:32:06.406449+01

 2017-02-04 16:35:40.18775+01 | 1486222540.18775 |                 0 |              24 |                223618 |                 4378 |           20720553 |       2038720 |            18461 |        11719989 |                     0 |       7589416 | 2017-02-04 14:32:06.406449+01

 2017-02-04 16:35:41.263428+01 | 1486222541.26343 |                 0 |              24 |                223618 |                 4378 |           20720553 |       2038720 |            18461 |        11719989 |                     0 |       7590844 | 2017-02-04 14:32:06.406449+01

 2017-02-04 16:35:42.345487+01 | 1486222542.34549 |                 0 |              24 |                223618 |                 4378 |           20720553 |       2038720 |            18461 |        11719989 |                     0 |       7591997 | 2017-02-04 14:32:06.406449+01

 2017-02-04 16:35:43.435325+01 | 1486222543.43532 |                 0 |              24 |                223618 |                 4378 |           20720553 |       2038720 |            18461 |        11719989 |                     0 |       7593109 | 2017-02-04 14:32:06.406449+01

 2017-02-04 16:35:44.507022+01 | 1486222544.50702 |                 0 |              24 |                223618 |                 4378 |           20720553 |       2038720 |            18461 |        11719989 |                     0 |       7594062 | 2017-02-04 14:32:06.406449+01

 2017-02-04 16:35:45.595532+01 | 1486222545.59553 |                 0 |              24 |                223618 |                 4378 |           20720553 |       2038720 |            18461 |        11719989 |                     0 |       7595651 | 2017-02-04 14:32:06.406449+01

 2017-02-04 16:35:46.680025+01 | 1486222546.68003 |                 0 |              24 |                223618 |                 4378 |           20720553 |       2038720 |            18461 |        11719989 |                     0 |       7596783 | 2017-02-04 14:32:06.406449+01

 2017-02-04 16:35:47.759246+01 | 1486222547.75925 |                 0 |              24 |                223618 |                 4378 |           20720553 |       2038720 |            18461 |        11719989 |                     0 |       7597883 | 2017-02-04 14:32:06.406449+01

 2017-02-04 16:35:48.830498+01 | 1486222548.8305 |                 0 |              24 |                223618 |                 4378 |           20720553 |       2038720 |            18461 |        11719989 |                     0 |       7599022 | 2017-02-04 14:32:06.406449+01

 2017-02-04 16:35:49.921044+01 | 1486222549.92104 |                 0 |              24 |                223618 |                 4378 |           20720553 |       2038720 |            18461 |        11719989 |                     0 |       7600265 | 2017-02-04 14:32:06.406449+01

 2017-02-04 16:35:50.999181+01 | 1486222550.99918 |                 0 |              24 |                223618 |                 4378 |           20720553 |       2038720 |            18461 |        11719989 |                     0 |       7601134 | 2017-02-04 14:32:06.406449+01

 2017-02-04 16:35:52.074321+01 | 1486222552.07432 |                 0 |              24 |                223618 |                 4378 |           20720553 |       2038720 |            18461 |        11719989 |                     0 |       7602380 | 2017-02-04 14:32:06.406449+01

 2017-02-04 16:35:53.152596+01 | 1486222553.1526 |                 0 |              24 |                223618 |                 4378 |           20720553 |       2038720 |            18461 |        11719989 |                     0 |       7603325 | 2017-02-04 14:32:06.406449+01

 2017-02-04 16:35:54.223946+01 | 1486222554.22395 |                 0 |              24 |                223618 |                 4378 |           20720553 |       2038720 |            18461 |        11719989 |                     0 |       7604358 | 2017-02-04 14:32:06.406449+01

 2017-02-04 16:35:55.301021+01 | 1486222555.30102 |                 0 |              24 |                223618 |                 4378 |           20720553 |       2038720 |            18461 |        11719989 |                     0 |       7605598 | 2017-02-04 14:32:06.406449+01

 2017-02-04 16:35:56.377061+01 | 1486222556.37706 |                 0 |              24 |                223618 |                 4378 |           20720553 |       2038720 |            18461 |        11719989 |                     0 |       7606597 | 2017-02-04 14:32:06.406449+01

 2017-02-04 16:35:57.460269+01 | 1486222557.46027 |                 0 |              24 |                223618 |                 4378 |           20720553 |       2038720 |            18461 |        11719989 |                     0 |       7607805 | 2017-02-04 14:32:06.406449+01

 2017-02-04 16:35:58.538131+01 | 1486222558.53813 |                 0 |              24 |                223618 |                 4378 |           20720553 |       2038720 |            18461 |        11719989 |                     0 |       7608770 | 2017-02-04 14:32:06.406449+01

 2017-02-04 16:35:59.617783+01 | 1486222559.61778 |                 0 |              24 |                223618 |                 4378 |           20720553 |       2038720 |            18461 |        11719989 |                     0 |       7609956 | 2017-02-04 14:32:06.406449+01

 2017-02-04 16:36:00.698294+01 | 1486222560.69829 |                 0 |              24 |                223618 |                 4378 |           20720553 |       2038720 |            18461 |        11719989 |                     0 |       7611229 | 2017-02-04 14:32:06.406449+01

 2017-02-04 16:36:01.782209+01 | 1486222561.78221 |                 0 |              24 |                223618 |                 4378 |           20720553 |       2038720 |            18461 |        11719989 |                     0 |       7612293 | 2017-02-04 14:32:06.406449+01

 2017-02-04 16:36:02.865371+01 | 1486222562.86537 |                 0 |              24 |                223618 |                 4378 |           20720553 |       2038720 |            18461 |        11719989 |                     0 |       7613599 | 2017-02-04 14:32:06.406449+01

 2017-02-04 16:36:03.950348+01 | 1486222563.95035 |                 0 |              24 |                223618 |                 4378 |           20720553 |       2038720 |            18461 |        11719989 |                     0 |       7614663 | 2017-02-04 14:32:06.406449+01

 2017-02-04 16:36:05.031324+01 | 1486222565.03132 |                 0 |              24 |                223618 |                 4378 |           20720553 |       2038720 |            18461 |        11719989 |                     0 |       7615727 | 2017-02-04 14:32:06.406449+01

 2017-02-04 16:36:06.111558+01 | 1486222566.11156 |                 0 |              24 |                223618 |                 4378 |           20720553 |       2038720 |            18461 |        11719989 |                     0 |       7617021 | 2017-02-04 14:32:06.406449+01

 2017-02-04 16:36:07.186754+01 | 1486222567.18675 |                 0 |              24 |                223618 |                 4378 |           20720553 |       2038720 |            18461 |        11719989 |                     0 |       7618064 | 2017-02-04 14:32:06.406449+01

 2017-02-04 16:36:08.260908+01 | 1486222568.26091 |                 0 |              24 |                223618 |                 4378 |           20720553 |       2038720 |            18461 |        11719989 |                     0 |       7619342 | 2017-02-04 14:32:06.406449+01

 2017-02-04 16:36:09.335835+01 | 1486222569.33583 |                 0 |              24 |                223618 |                 4378 |           20720553 |       2038720 |            18461 |        11719989 |                     0 |       7620366 | 2017-02-04 14:32:06.406449+01

 2017-02-04 16:36:10.417394+01 | 1486222570.41739 |                 0 |              24 |                223618 |                 4378 |           20720553 |       2038720 |            18461 |        11719989 |                     0 |       7621408 | 2017-02-04 14:32:06.406449+01

 2017-02-04 16:36:11.503882+01 | 1486222571.50388 |                 0 |              24 |                223618 |                 4378 |           20720553 |       2038930 |            18461 |        11719989 |                     0 |       7622395 | 2017-02-04 14:32:06.406449+01

 2017-02-04 16:36:12.590567+01 | 1486222572.59057 |                 0 |              24 |                223618 |                 4378 |           20720553 |       2039146 |            18461 |        11719989 |                     0 |       7623265 | 2017-02-04 14:32:06.406449+01

 2017-02-04 16:36:13.671968+01 | 1486222573.67197 |                 0 |              24 |                223618 |                 4378 |           20720553 |       2039355 |            18461 |        11719989 |                     0 |       7624207 | 2017-02-04 14:32:06.406449+01

 2017-02-04 16:36:14.751806+01 | 1486222574.75181 |                 0 |              24 |                223618 |                 4378 |           20720553 |       2039515 |            18461 |        11719989 |                     0 |       7625241 | 2017-02-04 14:32:06.406449+01

 2017-02-04 16:36:15.840758+01 | 1486222575.84076 |                 0 |              24 |                223618 |                 4378 |           20720553 |       2039673 |            18461 |        11719989 |                     0 |       7626366 | 2017-02-04 14:32:06.406449+01

 2017-02-04 16:36:16.925974+01 | 1486222576.92597 |                 0 |              24 |                223618 |                 4378 |           20720553 |       2039861 |            18461 |        11719989 |                     0 |       7627584 | 2017-02-04 14:32:06.406449+01

 2017-02-04 16:36:18.009572+01 | 1486222578.00957 |                 0 |              24 |                223618 |                 4378 |           20720553 |       2040033 |            18461 |        11719989 |                     0 |       7628637 | 2017-02-04 14:32:06.406449+01

 2017-02-04 16:36:19.089751+01 | 1486222579.08975 |                 0 |              24 |                223618 |                 4378 |           20720553 |       2040220 |            18461 |        11719989 |                     0 |       7629765 | 2017-02-04 14:32:06.406449+01

 2017-02-04 16:36:20.166692+01 | 1486222580.16669 |                 0 |              24 |                223618 |                 4378 |           20720553 |       2040439 |            18461 |        11719989 |                     0 |       7630972 | 2017-02-04 14:32:06.406449+01

 2017-02-04 16:36:21.245657+01 | 1486222581.24566 |                 0 |              24 |                223618 |                 4378 |           20720553 |       2040586 |            18461 |        11719989 |                     0 |       7631997 | 2017-02-04 14:32:06.406449+01

 2017-02-04 16:36:22.324297+01 | 1486222582.3243 |                 0 |              24 |                223618 |                 4378 |           20720553 |       2040762 |            18461 |        11719989 |                     0 |       7633068 | 2017-02-04 14:32:06.406449+01

 2017-02-04 16:36:23.399956+01 | 1486222583.39996 |                 0 |              24 |                223618 |                 4378 |           20720553 |       2040984 |            18461 |        11719989 |                     0 |       7634410 | 2017-02-04 14:32:06.406449+01

 2017-02-04 16:36:24.483792+01 | 1486222584.48379 |                 0 |              24 |                223618 |                 4378 |           20720553 |       2041163 |            18461 |        11719989 |                     0 |       7635514 | 2017-02-04 14:32:06.406449+01

 2017-02-04 16:36:25.560228+01 | 1486222585.56023 |                 0 |              24 |                223618 |                 4378 |           20720553 |       2041363 |            18461 |        11719989 |                     0 |       7636749 | 2017-02-04 14:32:06.406449+01

 2017-02-04 16:36:26.642595+01 | 1486222586.6426 |                 0 |              24 |                223618 |                 4378 |           20720553 |       2041522 |            18461 |        11719989 |                     0 |       7637819 | 2017-02-04 14:32:06.406449+01

 2017-02-04 16:36:27.728945+01 | 1486222587.72895 |                 0 |              24 |                223618 |                 4378 |           20720553 |       2041702 |            18461 |        11719989 |                     0 |       7638930 | 2017-02-04 14:32:06.406449+01

 2017-02-04 16:36:28.80793+01 | 1486222588.80793 |                 0 |              24 |                223618 |                 4378 |           20720553 |       2041916 |            18461 |        11719989 |                     0 |       7640130 | 2017-02-04 14:32:06.406449+01

 2017-02-04 16:36:29.894035+01 | 1486222589.89404 |                 0 |              24 |                223618 |                 4378 |           20720553 |       2042073 |            18461 |        11719989 |                     0 |       7641261 | 2017-02-04 14:32:06.406449+01

 2017-02-04 16:36:30.970732+01 | 1486222590.97073 |                 0 |              24 |                223618 |                 4378 |           20720553 |       2042209 |            18461 |        11719989 |                     0 |       7642243 | 2017-02-04 14:32:06.406449+01

 2017-02-04 16:36:32.052848+01 | 1486222592.05285 |                 0 |              24 |                223618 |                 4378 |           20720553 |       2042388 |            18461 |        11719989 |                     0 |       7643658 | 2017-02-04 14:32:06.406449+01

 2017-02-04 16:36:33.126989+01 | 1486222593.12699 |                 0 |              24 |                223618 |                 4378 |           20720553 |       2042518 |            18461 |        11719989 |                     0 |       7644622 | 2017-02-04 14:32:06.406449+01

 2017-02-04 16:36:34.199118+01 | 1486222594.19912 |                 0 |              24 |                223618 |                 4378 |           20720553 |       2042715 |            18461 |        11719989 |                     0 |       7646031 | 2017-02-04 14:32:06.406449+01

 2017-02-04 16:36:35.274316+01 | 1486222595.27432 |                 0 |              24 |                223618 |                 4378 |           20720553 |       2042861 |            18461 |        11719989 |                     0 |       7647078 | 2017-02-04 14:32:06.406449+01

 2017-02-04 16:36:36.347423+01 | 1486222596.34742 |                 0 |              24 |                223618 |                 4378 |           20720553 |       2043011 |            18461 |        11719989 |                     0 |       7648125 | 2017-02-04 14:32:06.406449+01

 2017-02-04 16:36:37.424648+01 | 1486222597.42465 |                 0 |              24 |                223618 |                 4378 |           20720553 |       2043171 |            18461 |        11719989 |                     0 |       7649464 | 2017-02-04 14:32:06.406449+01

 2017-02-04 16:36:38.505666+01 | 1486222598.50567 |                 0 |              24 |                223618 |                 4378 |           20720553 |       2043316 |            18461 |        11719989 |                     0 |       7650637 | 2017-02-04 14:32:06.406449+01

 2017-02-04 16:36:39.595428+01 | 1486222599.59543 |                 0 |              24 |                223618 |                 4378 |           20720553 |       2043454 |            18461 |        11719989 |                     0 |       7651910 | 2017-02-04 14:32:06.406449+01

 2017-02-04 16:36:40.68368+01 | 1486222600.68368 |                 0 |              24 |                223618 |                 4378 |           20720553 |       2043605 |            18461 |        11719989 |                     0 |       7653100 | 2017-02-04 14:32:06.406449+01

 2017-02-04 16:36:41.78635+01 | 1486222601.78635 |                 0 |              24 |                223618 |                 4378 |           20720553 |       2043745 |            18461 |        11719989 |                     0 |       7654234 | 2017-02-04 14:32:06.406449+01

 2017-02-04 16:36:42.865611+01 | 1486222602.86561 |                 0 |              24 |                223618 |                 4378 |           20720553 |       2043970 |            18461 |        11719989 |                     0 |       7655860 | 2017-02-04 14:32:06.406449+01

 2017-02-04 16:36:43.947487+01 | 1486222603.94749 |                 0 |              24 |                223618 |                 4378 |           20720553 |       2044089 |            18461 |        11719989 |                     0 |       7656685 | 2017-02-04 14:32:06.406449+01

 2017-02-04 16:36:45.013077+01 | 1486222605.01308 |                 0 |              24 |                223618 |                 4378 |           20720553 |       2044152 |            18461 |        11719989 |                     0 |       7657215 | 2017-02-04 14:32:06.406449+01

 2017-02-04 16:36:46.100193+01 | 1486222606.10019 |                 0 |              24 |                223618 |                 4378 |           20720553 |       2044359 |            18461 |        11719989 |                     0 |       7659015 | 2017-02-04 14:32:06.406449+01

 2017-02-04 16:36:47.177142+01 | 1486222607.17714 |                 0 |              24 |                223618 |                 4378 |           20720553 |       2044466 |            18461 |        11719989 |                     0 |       7659974 | 2017-02-04 14:32:06.406449+01

 2017-02-04 16:36:48.254897+01 | 1486222608.2549 |                 0 |              24 |                223618 |                 4378 |           20720553 |       2044598 |            18461 |        11719989 |                     0 |       7661135 | 2017-02-04 14:32:06.406449+01

 2017-02-04 16:36:49.336786+01 | 1486222609.33679 |                 0 |              24 |                223618 |                 4378 |           20720553 |       2044761 |            18461 |        11719989 |                     0 |       7662173 | 2017-02-04 14:32:06.406449+01

 2017-02-04 16:36:50.401042+01 | 1486222610.40104 |                 0 |              24 |                223618 |                 4378 |           20720553 |       2044861 |            18461 |        11719989 |                     0 |       7662963 | 2017-02-04 14:32:06.406449+01

 2017-02-04 16:36:51.502927+01 | 1486222611.50293 |                 0 |              24 |                223618 |                 4378 |           20720553 |       2045030 |            18461 |        11719989 |                     0 |       7664364 | 2017-02-04 14:32:06.406449+01

 2017-02-04 16:36:52.586105+01 | 1486222612.58611 |                 0 |              24 |                223618 |                 4378 |           20720553 |       2045257 |            18461 |        11719989 |                     0 |       7665446 | 2017-02-04 14:32:06.406449+01

 2017-02-04 16:36:53.678448+01 | 1486222613.67845 |                 0 |              24 |                223618 |                 4378 |           20720553 |       2045757 |            18466 |        11719989 |                     0 |       7666636 | 2017-02-04 14:32:06.406449+01

 2017-02-04 16:36:54.757973+01 | 1486222614.75797 |                 0 |              24 |                223618 |                 4378 |           20720553 |       2046357 |            18472 |        11719989 |                     0 |       7667927 | 2017-02-04 14:32:06.406449+01

 2017-02-04 16:36:55.837553+01 | 1486222615.83755 |                 0 |              24 |                223618 |                 4378 |           20720553 |       2046857 |            18477 |        11719989 |                     0 |       7669179 | 2017-02-04 14:32:06.406449+01

 2017-02-04 16:36:56.9154+01 | 1486222616.9154 |                 0 |              24 |                223618 |                 4378 |           20720553 |       2047457 |            18483 |        11719989 |                     0 |       7670362 | 2017-02-04 14:32:06.406449+01

 2017-02-04 16:36:57.995782+01 | 1486222617.99578 |                 0 |              24 |                223618 |                 4378 |           20720553 |       2047957 |            18488 |        11719989 |                     0 |       7671564 | 2017-02-04 14:32:06.406449+01

 2017-02-04 16:36:59.077165+01 | 1486222619.07716 |                 0 |              24 |                223618 |                 4378 |           20720553 |       2048457 |            18493 |        11719989 |                     0 |       7672566 | 2017-02-04 14:32:06.406449+01

 2017-02-04 16:37:00.160975+01 | 1486222620.16097 |                 0 |              24 |                223618 |                 4378 |           20720553 |       2049057 |            18499 |        11719989 |                     0 |       7674076 | 2017-02-04 14:32:06.406449+01

 2017-02-04 16:37:01.238197+01 | 1486222621.2382 |                 0 |              24 |                223618 |                 4378 |           20720553 |       2049557 |            18504 |        11719989 |                     0 |       7675717 | 2017-02-04 14:32:06.406449+01

 2017-02-04 16:37:02.313568+01 | 1486222622.31357 |                 0 |              24 |                223618 |                 4378 |           20720553 |       2050057 |            18509 |        11719989 |                     0 |       7678257 | 2017-02-04 14:32:06.406449+01

 2017-02-04 16:37:03.397642+01 | 1486222623.39764 |                 0 |              24 |                223618 |                 4378 |           20720553 |       2050657 |            18515 |        11719989 |                     0 |       7682005 | 2017-02-04 14:32:06.406449+01

 2017-02-04 16:37:04.478776+01 | 1486222624.47878 |                 0 |              24 |                223618 |                 4378 |           20720553 |       2051157 |            18520 |        11719989 |                     0 |       7685705 | 2017-02-04 14:32:06.406449+01

 2017-02-04 16:37:05.55769+01 | 1486222625.55769 |                 0 |              24 |                223618 |                 4378 |           20720553 |       2051657 |            18525 |        11719989 |                     0 |       7689258 | 2017-02-04 14:32:06.406449+01

 2017-02-04 16:37:06.635794+01 | 1486222626.63579 |                 0 |              24 |                223618 |                 4378 |           20720553 |       2052257 |            18531 |        11719989 |                     0 |       7693505 | 2017-02-04 14:32:06.406449+01

 2017-02-04 16:37:07.720072+01 | 1486222627.72007 |                 0 |              24 |                223618 |                 4378 |           20720553 |       2052757 |            18536 |        11719989 |                     0 |       7696904 | 2017-02-04 14:32:06.406449+01

 2017-02-04 16:37:08.806996+01 | 1486222628.807 |                 0 |              24 |                223618 |                 4378 |           20720553 |       2053257 |            18541 |        11719989 |                     0 |       7700024 | 2017-02-04 14:32:06.406449+01

 2017-02-04 16:37:09.887921+01 | 1486222629.88792 |                 0 |              24 |                223618 |                 4378 |           20720553 |       2053857 |            18547 |        11719989 |                     0 |       7703561 | 2017-02-04 14:32:06.406449+01

 2017-02-04 16:37:10.975274+01 | 1486222630.97527 |                 0 |              24 |                223618 |                 4378 |           20720553 |       2054357 |            18552 |        11719989 |                     0 |       7706401 | 2017-02-04 14:32:06.406449+01

 2017-02-04 16:37:12.054252+01 | 1486222632.05425 |                 0 |              24 |                223618 |                 4378 |           20720553 |       2054857 |            18557 |        11719989 |                     0 |       7709321 | 2017-02-04 14:32:06.406449+01

 2017-02-04 16:37:13.138606+01 | 1486222633.13861 |                 0 |              24 |                223618 |                 4378 |           20720553 |       2055457 |            18563 |        11719989 |                     0 |       7713000 | 2017-02-04 14:32:06.406449+01

 2017-02-04 16:37:14.214151+01 | 1486222634.21415 |                 0 |              24 |                223618 |                 4378 |           20720553 |       2055957 |            18568 |        11719989 |                     0 |       7715821 | 2017-02-04 14:32:06.406449+01

 2017-02-04 16:37:15.28774+01 | 1486222635.28774 |                 0 |              24 |                223618 |                 4378 |           20720553 |       2056457 |            18573 |        11719989 |                     0 |       7718320 | 2017-02-04 14:32:06.406449+01

 2017-02-04 16:37:16.367709+01 | 1486222636.36771 |                 0 |              24 |                223618 |                 4378 |           20720553 |       2057057 |            18579 |        11719989 |                     0 |       7721112 | 2017-02-04 14:32:06.406449+01

 2017-02-04 16:37:17.447362+01 | 1486222637.44736 |                 0 |              24 |                223618 |                 4378 |           20720553 |       2057557 |            18584 |        11719989 |                     0 |       7723552 | 2017-02-04 14:32:06.406449+01

 2017-02-04 16:37:18.537995+01 | 1486222638.538 |                 0 |              24 |                223618 |                 4378 |           20720553 |       2058157 |            18590 |        11719989 |                     0 |       7726469 | 2017-02-04 14:32:06.406449+01

 2017-02-04 16:37:19.626653+01 | 1486222639.62665 |                 0 |              24 |                223618 |                 4378 |           20720553 |       2058657 |            18595 |        11719989 |                     0 |       7728848 | 2017-02-04 14:32:06.406449+01

 2017-02-04 16:37:20.706808+01 | 1486222640.70681 |                 0 |              24 |                223618 |                 4378 |           20720553 |       2059157 |            18600 |        11719989 |                     0 |       7731344 | 2017-02-04 14:32:06.406449+01

 2017-02-04 16:37:21.787116+01 | 1486222641.78712 |                 0 |              24 |                223618 |                 4378 |           20720553 |       2059757 |            18606 |        11719989 |                     0 |       7734160 | 2017-02-04 14:32:06.406449+01

 2017-02-04 16:37:22.867679+01 | 1486222642.86768 |                 0 |              24 |                223618 |                 4378 |           20720553 |       2060257 |            18611 |        11719989 |                     0 |       7736445 | 2017-02-04 14:32:06.406449+01

 2017-02-04 16:37:23.950721+01 | 1486222643.95072 |                 0 |              24 |                223618 |                 4378 |           20720553 |       2060757 |            18616 |        11719989 |                     0 |       7738799 | 2017-02-04 14:32:06.406449+01

 2017-02-04 16:37:25.030076+01 | 1486222645.03008 |                 0 |              24 |                223618 |                 4378 |           20720553 |       2061357 |            18622 |        11719989 |                     0 |       7741563 | 2017-02-04 14:32:06.406449+01

 2017-02-04 16:37:26.111215+01 | 1486222646.11122 |                 0 |              24 |                223618 |                 4378 |           20720553 |       2061857 |            18627 |        11719989 |                     0 |       7744054 | 2017-02-04 14:32:06.406449+01

 2017-02-04 16:37:27.190331+01 | 1486222647.19033 |                 0 |              24 |                223618 |                 4378 |           20720553 |       2062357 |            18632 |        11719989 |                     0 |       7745890 | 2017-02-04 14:32:06.406449+01

 2017-02-04 16:37:28.266941+01 | 1486222648.26694 |                 0 |              24 |                223618 |                 4378 |           20720553 |       2062957 |            18638 |        11719989 |                     0 |       7748593 | 2017-02-04 14:32:06.406449+01

 2017-02-04 16:37:29.342006+01 | 1486222649.34201 |                 0 |              24 |                223618 |                 4378 |           20720553 |       2063457 |            18643 |        11719989 |                     0 |       7750816 | 2017-02-04 14:32:06.406449+01

 2017-02-04 16:37:30.417326+01 | 1486222650.41733 |                 0 |              24 |                223618 |                 4378 |           20720553 |       2063957 |            18648 |        11719989 |                     0 |       7753188 | 2017-02-04 14:32:06.406449+01

 2017-02-04 16:37:31.49293+01 | 1486222651.49293 |                 0 |              24 |                223618 |                 4378 |           20720553 |       2064557 |            18654 |        11719989 |                     0 |       7755722 | 2017-02-04 14:32:06.406449+01

 2017-02-04 16:37:32.575638+01 | 1486222652.57564 |                 0 |              24 |                223618 |                 4378 |           20720553 |       2065057 |            18659 |        11719989 |                     0 |       7757823 | 2017-02-04 14:32:06.406449+01

 2017-02-04 16:37:33.661065+01 | 1486222653.66107 |                 0 |              24 |                223618 |                 4378 |           20720553 |       2065557 |            18664 |        11719989 |                     0 |       7760007 | 2017-02-04 14:32:06.406449+01

 2017-02-04 16:37:34.741595+01 | 1486222654.7416 |                 0 |              24 |                223618 |                 4378 |           20720553 |       2066157 |            18670 |        11719989 |                     0 |       7762478 | 2017-02-04 14:32:06.406449+01

 2017-02-04 16:37:35.825508+01 | 1486222655.82551 |                 0 |              24 |                223618 |                 4378 |           20720553 |       2066657 |            18675 |        11719989 |                     0 |       7764601 | 2017-02-04 14:32:06.406449+01

 2017-02-04 16:37:36.90413+01 | 1486222656.90413 |                 0 |              24 |                223618 |                 4378 |           20720553 |       2067157 |            18680 |        11719989 |                     0 |       7766768 | 2017-02-04 14:32:06.406449+01

 2017-02-04 16:37:37.978734+01 | 1486222657.97873 |                 0 |              24 |                223618 |                 4378 |           20720553 |       2067757 |            18686 |        11719989 |                     0 |       7769079 | 2017-02-04 14:32:06.406449+01

 2017-02-04 16:37:39.055375+01 | 1486222659.05538 |                 0 |              24 |                223618 |                 4378 |           20720553 |       2068257 |            18691 |        11719989 |                     0 |       7771143 | 2017-02-04 14:32:06.406449+01

 2017-02-04 16:37:40.135796+01 | 1486222660.1358 |                 0 |              24 |                223618 |                 4378 |           20720553 |       2068757 |            18696 |        11719989 |                     0 |       7773090 | 2017-02-04 14:32:06.406449+01

 2017-02-04 16:37:41.213046+01 | 1486222661.21305 |                 0 |              24 |                223618 |                 4378 |           20720553 |       2069357 |            18702 |        11719989 |                     0 |       7775536 | 2017-02-04 14:32:06.406449+01

 2017-02-04 16:37:42.291312+01 | 1486222662.29131 |                 0 |              24 |                223618 |                 4378 |           20720553 |       2069857 |            18707 |        11719989 |                     0 |       7777743 | 2017-02-04 14:32:06.406449+01

 2017-02-04 16:37:43.365428+01 | 1486222663.36543 |                 0 |              24 |                223618 |                 4378 |           20720553 |       2070357 |            18712 |        11719989 |                     0 |       7779832 | 2017-02-04 14:32:06.406449+01

 2017-02-04 16:37:44.43164+01 | 1486222664.43164 |                 0 |              24 |                223618 |                 4378 |           20720553 |       2070957 |            18718 |        11719989 |                     0 |       7782393 | 2017-02-04 14:32:06.406449+01

 2017-02-04 16:37:45.517974+01 | 1486222665.51797 |                 0 |              24 |                223618 |                 4378 |           20720553 |       2071457 |            18723 |        11719989 |                     0 |       7784184 | 2017-02-04 14:32:06.406449+01

 2017-02-04 16:37:46.61459+01 | 1486222666.61459 |                 0 |              24 |                223618 |                 4378 |           20720553 |       2071957 |            18728 |        11719989 |                     0 |       7786138 | 2017-02-04 14:32:06.406449+01

 2017-02-04 16:37:47.701491+01 | 1486222667.70149 |                 0 |              24 |                223618 |                 4378 |           20720553 |       2072557 |            18734 |        11719989 |                     0 |       7788276 | 2017-02-04 14:32:06.406449+01

 2017-02-04 16:37:48.791582+01 | 1486222668.79158 |                 0 |              24 |                223618 |                 4378 |           20720553 |       2073057 |            18739 |        11719989 |                     0 |       7790334 | 2017-02-04 14:32:06.406449+01

 2017-02-04 16:37:49.880097+01 | 1486222669.8801 |                 0 |              24 |                223618 |                 4378 |           20720553 |       2073657 |            18745 |        11719989 |                     0 |       7792683 | 2017-02-04 14:32:06.406449+01

 2017-02-04 16:37:50.954407+01 | 1486222670.95441 |                 0 |              24 |                223618 |                 4378 |           20720553 |       2074157 |            18750 |        11719989 |                     0 |       7794781 | 2017-02-04 14:32:06.406449+01

 2017-02-04 16:37:52.038329+01 | 1486222672.03833 |                 0 |              24 |                223618 |                 4378 |           20720553 |       2074657 |            18755 |        11719989 |                     0 |       7796803 | 2017-02-04 14:32:06.406449+01

 2017-02-04 16:37:53.116415+01 | 1486222673.11642 |                 0 |              24 |                223618 |                 4378 |           20720553 |       2075257 |            18761 |        11719989 |                     0 |       7799180 | 2017-02-04 14:32:06.406449+01

 2017-02-04 16:37:54.193429+01 | 1486222674.19343 |                 0 |              24 |                223618 |                 4378 |           20720553 |       2075757 |            18766 |        11719989 |                     0 |       7801106 | 2017-02-04 14:32:06.406449+01

 2017-02-04 16:37:55.269558+01 | 1486222675.26956 |                 0 |              24 |                223618 |                 4378 |           20720553 |       2076257 |            18771 |        11719989 |                     0 |       7803200 | 2017-02-04 14:32:06.406449+01

 2017-02-04 16:37:56.346949+01 | 1486222676.34695 |                 0 |              24 |                223618 |                 4378 |           20720553 |       2076857 |            18777 |        11719989 |                     0 |       7805537 | 2017-02-04 14:32:06.406449+01

 2017-02-04 16:37:57.417727+01 | 1486222677.41773 |                 0 |              24 |                223618 |                 4378 |           20720553 |       2077357 |            18782 |        11719989 |                     0 |       7807432 | 2017-02-04 14:32:06.406449+01

 2017-02-04 16:37:58.490032+01 | 1486222678.49003 |                 0 |              24 |                223618 |                 4378 |           20720553 |       2077857 |            18787 |        11719989 |                     0 |       7809332 | 2017-02-04 14:32:06.406449+01

 2017-02-04 16:37:59.57194+01 | 1486222679.57194 |                 0 |              24 |                223618 |                 4378 |           20720553 |       2078457 |            18793 |        11719989 |                     0 |       7811682 | 2017-02-04 14:32:06.406449+01

 2017-02-04 16:38:00.656759+01 | 1486222680.65676 |                 0 |              24 |                223618 |                 4378 |           20720553 |       2078957 |            18798 |        11719989 |                     0 |       7813643 | 2017-02-04 14:32:06.406449+01

 2017-02-04 16:38:01.740163+01 | 1486222681.74016 |                 0 |              24 |                223618 |                 4378 |           20720553 |       2079457 |            18803 |        11719989 |                     0 |       7815616 | 2017-02-04 14:32:06.406449+01

 2017-02-04 16:38:02.831119+01 | 1486222682.83112 |                 0 |              24 |                223618 |                 4378 |           20720553 |       2080057 |            18809 |        11719989 |                     0 |       7817893 | 2017-02-04 14:32:06.406449+01

 2017-02-04 16:38:03.918316+01 | 1486222683.91832 |                 0 |              24 |                223618 |                 4378 |           20720553 |       2080557 |            18814 |        11719989 |                     0 |       7819849 | 2017-02-04 14:32:06.406449+01

 2017-02-04 16:38:05.003735+01 | 1486222685.00374 |                 0 |              24 |                223618 |                 4378 |           20720553 |       2081157 |            18820 |        11719989 |                     0 |       7822046 | 2017-02-04 14:32:06.406449+01

 2017-02-04 16:38:06.089575+01 | 1486222686.08958 |                 0 |              24 |                223618 |                 4378 |           20720553 |       2081657 |            18825 |        11719989 |                     0 |       7824055 | 2017-02-04 14:32:06.406449+01

 2017-02-04 16:38:07.170895+01 | 1486222687.1709 |                 0 |              24 |                223618 |                 4378 |           20720553 |       2082157 |            18830 |        11719989 |                     0 |       7825968 | 2017-02-04 14:32:06.406449+01

 2017-02-04 16:38:08.248682+01 | 1486222688.24868 |                 0 |              24 |                223618 |                 4378 |           20720553 |       2082757 |            18836 |        11719989 |                     0 |       7828369 | 2017-02-04 14:32:06.406449+01

 2017-02-04 16:38:09.334793+01 | 1486222689.33479 |                 0 |              24 |                223618 |                 4378 |           20720553 |       2083257 |            18841 |        11719989 |                     0 |       7830201 | 2017-02-04 14:32:06.406449+01

 2017-02-04 16:38:10.417135+01 | 1486222690.41714 |                 0 |              24 |                223618 |                 4378 |           20720553 |       2083757 |            18846 |        11719989 |                     0 |       7832411 | 2017-02-04 14:32:06.406449+01

 2017-02-04 16:38:11.490436+01 | 1486222691.49044 |                 0 |              24 |                223618 |                 4378 |           20720553 |       2084357 |            18852 |        11719989 |                     0 |       7834660 | 2017-02-04 14:32:06.406449+01

 2017-02-04 16:38:12.569302+01 | 1486222692.5693 |                 0 |              24 |                223618 |                 4378 |           20720553 |       2084857 |            18857 |        11719989 |                     0 |       7836288 | 2017-02-04 14:32:06.406449+01

 2017-02-04 16:38:13.652993+01 | 1486222693.65299 |                 0 |              24 |                223618 |                 4378 |           20720553 |       2085357 |            18862 |        11719989 |                     0 |       7837985 | 2017-02-04 14:32:06.406449+01

 2017-02-04 16:38:14.738046+01 | 1486222694.73805 |                 0 |              24 |                223618 |                 4378 |           20720553 |       2085957 |            18868 |        11719989 |                     0 |       7840331 | 2017-02-04 14:32:06.406449+01

 2017-02-04 16:38:15.820576+01 | 1486222695.82058 |                 0 |              24 |                223618 |                 4378 |           20720553 |       2086457 |            18873 |        11719989 |                     0 |       7842447 | 2017-02-04 14:32:06.406449+01

 2017-02-04 16:38:16.902824+01 | 1486222696.90282 |                 0 |              24 |                223618 |                 4378 |           20720553 |       2087057 |            18879 |        11719989 |                     0 |       7844697 | 2017-02-04 14:32:06.406449+01

 2017-02-04 16:38:17.979824+01 | 1486222697.97982 |                 0 |              24 |                223618 |                 4378 |           20720553 |       2087557 |            18884 |        11719989 |                     0 |       7846585 | 2017-02-04 14:32:06.406449+01

 2017-02-04 16:38:19.062475+01 | 1486222699.06247 |                 0 |              24 |                223618 |                 4378 |           20720553 |       2088057 |            18889 |        11719989 |                     0 |       7848522 | 2017-02-04 14:32:06.406449+01

 2017-02-04 16:38:20.149486+01 | 1486222700.14949 |                 0 |              24 |                223618 |                 4378 |           20720553 |       2088657 |            18895 |        11719989 |                     0 |       7850783 | 2017-02-04 14:32:06.406449+01

 2017-02-04 16:38:21.226027+01 | 1486222701.22603 |                 0 |              24 |                223618 |                 4378 |           20720553 |       2089157 |            18900 |        11719989 |                     0 |       7852662 | 2017-02-04 14:32:06.406449+01

 2017-02-04 16:38:22.304387+01 | 1486222702.30439 |                 0 |              24 |                223618 |                 4378 |           20720553 |       2089657 |            18905 |        11719989 |                     0 |       7854483 | 2017-02-04 14:32:06.406449+01

 2017-02-04 16:38:23.378997+01 | 1486222703.379 |                 0 |              24 |                223618 |                 4378 |           20720553 |       2090257 |            18911 |        11719989 |                     0 |       7856832 | 2017-02-04 14:32:06.406449+01

 2017-02-04 16:38:24.453327+01 | 1486222704.45333 |                 0 |              24 |                223618 |                 4378 |           20720553 |       2090757 |            18916 |        11719989 |                     0 |       7858701 | 2017-02-04 14:32:06.406449+01

 2017-02-04 16:38:25.532711+01 | 1486222705.53271 |                 0 |              24 |                223618 |                 4378 |           20720553 |       2091257 |            18921 |        11719989 |                     0 |       7860358 | 2017-02-04 14:32:06.406449+01

 2017-02-04 16:38:26.612952+01 | 1486222706.61295 |                 0 |              24 |                223618 |                 4378 |           20720553 |       2091857 |            18927 |        11719989 |                     0 |       7862639 | 2017-02-04 14:32:06.406449+01

 2017-02-04 16:38:27.695799+01 | 1486222707.6958 |                 0 |              24 |                223618 |                 4378 |           20720553 |       2092357 |            18932 |        11719989 |                     0 |       7864506 | 2017-02-04 14:32:06.406449+01

 2017-02-04 16:38:28.772725+01 | 1486222708.77273 |                 0 |              24 |                223618 |                 4378 |           20720553 |       2092857 |            18937 |        11719989 |                     0 |       7866529 | 2017-02-04 14:32:06.406449+01

 2017-02-04 16:38:29.851353+01 | 1486222709.85135 |                 0 |              24 |                223618 |                 4378 |           20720553 |       2093457 |            18943 |        11719989 |                     0 |       7868777 | 2017-02-04 14:32:06.406449+01

 2017-02-04 16:38:30.934721+01 | 1486222710.93472 |                 0 |              24 |                223618 |                 4378 |           20720553 |       2093957 |            18948 |        11719989 |                     0 |       7870737 | 2017-02-04 14:32:06.406449+01

 2017-02-04 16:38:32.019542+01 | 1486222712.01954 |                 0 |              24 |                223618 |                 4378 |           20720553 |       2094457 |            18953 |        11719989 |                     0 |       7872759 | 2017-02-04 14:32:06.406449+01

 2017-02-04 16:38:33.101017+01 | 1486222713.10102 |                 0 |              24 |                223618 |                 4378 |           20720553 |       2095057 |            18959 |        11719989 |                     0 |       7874918 | 2017-02-04 14:32:06.406449+01

 2017-02-04 16:38:34.183275+01 | 1486222714.18327 |                 0 |              24 |                223618 |                 4378 |           20720553 |       2095557 |            18964 |        11719989 |                     0 |       7876961 | 2017-02-04 14:32:06.406449+01

 2017-02-04 16:38:35.259337+01 | 1486222715.25934 |                 0 |              24 |                223618 |                 4378 |           20720553 |       2096057 |            18969 |        11719989 |                     0 |       7878676 | 2017-02-04 14:32:06.406449+01

 2017-02-04 16:38:36.336244+01 | 1486222716.33624 |                 0 |              24 |                223618 |                 4378 |           20720553 |       2096657 |            18975 |        11719989 |                     0 |       7880986 | 2017-02-04 14:32:06.406449+01

 2017-02-04 16:38:37.411371+01 | 1486222717.41137 |                 0 |              24 |                223618 |                 4378 |           20720553 |       2097157 |            18980 |        11719989 |                     0 |       7882768 | 2017-02-04 14:32:06.406449+01

 2017-02-04 16:38:38.484811+01 | 1486222718.48481 |                 0 |              24 |                223618 |                 4378 |           20720553 |       2097657 |            18985 |        11719989 |                     0 |       7884565 | 2017-02-04 14:32:06.406449+01

 2017-02-04 16:38:39.558538+01 | 1486222719.55854 |                 0 |              24 |                223618 |                 4378 |           20720553 |       2098257 |            18991 |        11719989 |                     0 |       7886438 | 2017-02-04 14:32:06.406449+01

 2017-02-04 16:38:40.636967+01 | 1486222720.63697 |                 0 |              24 |                223618 |                 4378 |           20720553 |       2098757 |            18996 |        11719989 |                     0 |       7888042 | 2017-02-04 14:32:06.406449+01

 2017-02-04 16:38:41.7215+01 | 1486222721.7215 |                 0 |              24 |                223618 |                 4378 |           20720553 |       2099257 |            19001 |        11719989 |                     0 |       7889532 | 2017-02-04 14:32:06.406449+01

 2017-02-04 16:38:42.800484+01 | 1486222722.80048 |                 0 |              24 |                223618 |                 4378 |           20720553 |       2099857 |            19007 |        11719989 |                     0 |       7891367 | 2017-02-04 14:32:06.406449+01

 2017-02-04 16:38:43.873448+01 | 1486222723.87345 |                 0 |              24 |                223618 |                 4378 |           20720553 |       2100357 |            19012 |        11719989 |                     0 |       7892850 | 2017-02-04 14:32:06.406449+01

 2017-02-04 16:38:44.94942+01 | 1486222724.94942 |                 0 |              24 |                223618 |                 4378 |           20720553 |       2100757 |            19016 |        11719989 |                     0 |       7894186 | 2017-02-04 14:32:06.406449+01

 2017-02-04 16:38:46.030331+01 | 1486222726.03033 |                 0 |              24 |                223618 |                 4378 |           20720553 |       2101457 |            19023 |        11719989 |                     0 |       7898009 | 2017-02-04 14:32:06.406449+01

 2017-02-04 16:38:47.117394+01 | 1486222727.11739 |                 0 |              24 |                223618 |                 4378 |           20720553 |       2101957 |            19028 |        11719989 |                     0 |       7904905 | 2017-02-04 14:32:06.406449+01

 2017-02-04 16:38:48.194969+01 | 1486222728.19497 |                 0 |              24 |                223618 |                 4378 |           20720553 |       2102457 |            19033 |        11719989 |                     0 |       7906830 | 2017-02-04 14:32:06.406449+01

 2017-02-04 16:38:49.270625+01 | 1486222729.27063 |                 0 |              24 |                223618 |                 4378 |           20720553 |       2103057 |            19039 |        11719989 |                     0 |       7909106 | 2017-02-04 14:32:06.406449+01

 2017-02-04 16:38:50.35328+01 | 1486222730.35328 |                 0 |              24 |                223618 |                 4378 |           20720553 |       2103557 |            19044 |        11719989 |                     0 |       7910898 | 2017-02-04 14:32:06.406449+01

 2017-02-04 16:38:51.427016+01 | 1486222731.42702 |                 0 |              24 |                223618 |                 4378 |           20720553 |       2104057 |            19049 |        11719989 |                     0 |       7912702 | 2017-02-04 14:32:06.406449+01

 2017-02-04 16:38:52.502978+01 | 1486222732.50298 |                 0 |              24 |                223618 |                 4378 |           20720553 |       2104657 |            19055 |        11719989 |                     0 |       7915148 | 2017-02-04 14:32:06.406449+01

 2017-02-04 16:38:53.574375+01 | 1486222733.57437 |                 0 |              24 |                223618 |                 4378 |           20720553 |       2105157 |            19060 |        11719989 |                     0 |       7917031 | 2017-02-04 14:32:06.406449+01

 2017-02-04 16:38:54.6581+01 | 1486222734.6581 |                 0 |              24 |                223618 |                 4378 |           20720553 |       2105657 |            19065 |        11719989 |                     0 |       7918976 | 2017-02-04 14:32:06.406449+01

 2017-02-04 16:38:55.740536+01 | 1486222735.74054 |                 0 |              24 |                223618 |                 4378 |           20720553 |       2106257 |            19071 |        11719989 |                     0 |       7921051 | 2017-02-04 14:32:06.406449+01

 2017-02-04 16:38:56.827536+01 | 1486222736.82754 |                 0 |              24 |                223618 |                 4378 |           20720553 |       2106757 |            19076 |        11719989 |                     0 |       7923206 | 2017-02-04 14:32:06.406449+01

 2017-02-04 16:38:57.903874+01 | 1486222737.90387 |                 0 |              24 |                223618 |                 4378 |           20720553 |       2107257 |            19081 |        11719989 |                     0 |       7924662 | 2017-02-04 14:32:06.406449+01

 2017-02-04 16:38:58.978822+01 | 1486222738.97882 |                 0 |              24 |                223618 |                 4378 |           20720553 |       2107857 |            19087 |        11719989 |                     0 |       7927083 | 2017-02-04 14:32:06.406449+01

 2017-02-04 16:39:00.060497+01 | 1486222740.0605 |                 0 |              24 |                223618 |                 4378 |           20720553 |       2108357 |            19092 |        11719989 |                     0 |       7928951 | 2017-02-04 14:32:06.406449+01

 2017-02-04 16:39:01.143217+01 | 1486222741.14322 |                 0 |              24 |                223618 |                 4378 |           20720553 |       2108857 |            19097 |        11719989 |                     0 |       7930901 | 2017-02-04 14:32:06.406449+01

 2017-02-04 16:39:02.222918+01 | 1486222742.22292 |                 0 |              24 |                223618 |                 4378 |           20720553 |       2109457 |            19103 |        11719989 |                     0 |       7933259 | 2017-02-04 14:32:06.406449+01

 2017-02-04 16:39:03.314335+01 | 1486222743.31434 |                 0 |              24 |                223618 |                 4378 |           20720553 |       2109957 |            19108 |        11719989 |                     0 |       7935237 | 2017-02-04 14:32:06.406449+01

 2017-02-04 16:39:04.386768+01 | 1486222744.38677 |                 0 |              24 |                223618 |                 4378 |           20720553 |       2110557 |            19114 |        11719989 |                     0 |       7937476 | 2017-02-04 14:32:06.406449+01

 2017-02-04 16:39:05.466068+01 | 1486222745.46607 |                 0 |              24 |                223618 |                 4378 |           20720553 |       2111057 |            19119 |        11719989 |                     0 |       7939333 | 2017-02-04 14:32:06.406449+01

 2017-02-04 16:39:06.544079+01 | 1486222746.54408 |                 0 |              24 |                223618 |                 4378 |           20720553 |       2111557 |            19124 |        11719989 |                     0 |       7941123 | 2017-02-04 14:32:06.406449+01

 2017-02-04 16:39:07.62042+01 | 1486222747.62042 |                 0 |              24 |                223618 |                 4378 |           20720553 |       2112157 |            19130 |        11719989 |                     0 |       7943421 | 2017-02-04 14:32:06.406449+01

 2017-02-04 16:39:08.701648+01 | 1486222748.70165 |                 0 |              24 |                223618 |                 4378 |           20720553 |       2112657 |            19135 |        11719989 |                     0 |       7945315 | 2017-02-04 14:32:06.406449+01

 2017-02-04 16:39:09.782881+01 | 1486222749.78288 |                 0 |              24 |                223618 |                 4378 |           20720553 |       2113157 |            19140 |        11719989 |                     0 |       7947292 | 2017-02-04 14:32:06.406449+01

 2017-02-04 16:39:10.865898+01 | 1486222750.8659 |                 0 |              24 |                223618 |                 4378 |           20720553 |       2113757 |            19146 |        11719989 |                     0 |       7949464 | 2017-02-04 14:32:06.406449+01

 2017-02-04 16:39:11.951534+01 | 1486222751.95153 |                 0 |              24 |                223618 |                 4378 |           20720553 |       2114257 |            19151 |        11719989 |                     0 |       7951064 | 2017-02-04 14:32:06.406449+01

 2017-02-04 16:39:13.032494+01 | 1486222753.03249 |                 0 |              24 |                223618 |                 4378 |           20720553 |       2114757 |            19156 |        11719989 |                     0 |       7952724 | 2017-02-04 14:32:06.406449+01

 2017-02-04 16:39:14.12103+01 | 1486222754.12103 |                 0 |              24 |                223618 |                 4378 |           20720553 |       2115357 |            19162 |        11719989 |                     0 |       7955077 | 2017-02-04 14:32:06.406449+01

 2017-02-04 16:39:15.198777+01 | 1486222755.19878 |                 0 |              24 |                223618 |                 4378 |           20720553 |       2115857 |            19167 |        11719989 |                     0 |       7956790 | 2017-02-04 14:32:06.406449+01

 2017-02-04 16:39:16.282286+01 | 1486222756.28229 |                 0 |              24 |                223618 |                 4378 |           20720553 |       2116357 |            19172 |        11719989 |                     0 |       7958781 | 2017-02-04 14:32:06.406449+01

 2017-02-04 16:39:17.368005+01 | 1486222757.36801 |                 0 |              24 |                223618 |                 4378 |           20720553 |       2116957 |            19178 |        11719989 |                     0 |       7961070 | 2017-02-04 14:32:06.406449+01

 2017-02-04 16:39:18.442385+01 | 1486222758.44238 |                 0 |              24 |                223618 |                 4378 |           20720553 |       2117457 |            19183 |        11719989 |                     0 |       7962762 | 2017-02-04 14:32:06.406449+01

 2017-02-04 16:39:19.515141+01 | 1486222759.51514 |                 0 |              24 |                223618 |                 4378 |           20720553 |       2117957 |            19188 |        11719989 |                     0 |       7964434 | 2017-02-04 14:32:06.406449+01

 2017-02-04 16:39:20.593235+01 | 1486222760.59324 |                 0 |              24 |                223618 |                 4378 |           20720553 |       2118557 |            19194 |        11719989 |                     0 |       7966089 | 2017-02-04 14:32:06.406449+01

 2017-02-04 16:39:21.675392+01 | 1486222761.67539 |                 0 |              24 |                223618 |                 4378 |           20720553 |       2119057 |            19199 |        11719989 |                     0 |       7967804 | 2017-02-04 14:32:06.406449+01

 2017-02-04 16:39:22.750664+01 | 1486222762.75066 |                 0 |              24 |                223618 |                 4378 |           20720553 |       2119657 |            19205 |        11719989 |                     0 |       7969819 | 2017-02-04 14:32:06.406449+01

 2017-02-04 16:39:23.837921+01 | 1486222763.83792 |                 0 |              24 |                223618 |                 4378 |           20720553 |       2120157 |            19210 |        11719989 |                     0 |       7971549 | 2017-02-04 14:32:06.406449+01

 2017-02-04 16:39:24.922335+01 | 1486222764.92233 |                 0 |              24 |                223618 |                 4378 |           20720553 |       2120657 |            19215 |        11719989 |                     0 |       7973410 | 2017-02-04 14:32:06.406449+01

 2017-02-04 16:39:26.008391+01 | 1486222766.00839 |                 0 |              24 |                223618 |                 4378 |           20720553 |       2121257 |            19221 |        11719989 |                     0 |       7975595 | 2017-02-04 14:32:06.406449+01

 2017-02-04 16:39:27.088958+01 | 1486222767.08896 |                 0 |              24 |                223618 |                 4378 |           20720553 |       2121757 |            19226 |        11719989 |                     0 |       7977461 | 2017-02-04 14:32:06.406449+01

 2017-02-04 16:39:28.170457+01 | 1486222768.17046 |                 0 |              24 |                223618 |                 4378 |           20720553 |       2122257 |            19231 |        11719989 |                     0 |       7979501 | 2017-02-04 14:32:06.406449+01

 2017-02-04 16:39:29.254826+01 | 1486222769.25483 |                 0 |              24 |                223618 |                 4378 |           20720553 |       2122857 |            19237 |        11719989 |                     0 |       7981515 | 2017-02-04 14:32:06.406449+01

 2017-02-04 16:39:30.327655+01 | 1486222770.32766 |                 0 |              24 |                223618 |                 4378 |           20720553 |       2123357 |            19242 |        11719989 |                     0 |       7983747 | 2017-02-04 14:32:06.406449+01

 2017-02-04 16:39:31.408729+01 | 1486222771.40873 |                 0 |              24 |                223618 |                 4378 |           20720553 |       2123857 |            19247 |        11719989 |                     0 |       7985455 | 2017-02-04 14:32:06.406449+01

 2017-02-04 16:39:32.488268+01 | 1486222772.48827 |                 0 |              24 |                223618 |                 4378 |           20720553 |       2124457 |            19253 |        11719989 |                     0 |       7987746 | 2017-02-04 14:32:06.406449+01

 2017-02-04 16:39:33.560249+01 | 1486222773.56025 |                 0 |              24 |                223618 |                 4378 |           20720553 |       2124957 |            19258 |        11719989 |                     0 |       7989677 | 2017-02-04 14:32:06.406449+01

 2017-02-04 16:39:34.642667+01 | 1486222774.64267 |                 0 |              24 |                223618 |                 4378 |           20720553 |       2125457 |            19263 |        11719989 |                     0 |       7991532 | 2017-02-04 14:32:06.406449+01

 2017-02-04 16:39:35.723739+01 | 1486222775.72374 |                 0 |              24 |                223618 |                 4378 |           20720553 |       2126057 |            19269 |        11719989 |                     0 |       7993909 | 2017-02-04 14:32:06.406449+01

 2017-02-04 16:39:36.804728+01 | 1486222776.80473 |                 0 |              24 |                223618 |                 4378 |           20720553 |       2126557 |            19274 |        11719989 |                     0 |       7995621 | 2017-02-04 14:32:06.406449+01

 2017-02-04 16:39:37.886376+01 | 1486222777.88638 |                 0 |              24 |                223618 |                 4378 |           20720553 |       2127057 |            19279 |        11719989 |                     0 |       7997732 | 2017-02-04 14:32:06.406449+01

 2017-02-04 16:39:38.968137+01 | 1486222778.96814 |                 0 |              24 |                223618 |                 4378 |           20720553 |       2127657 |            19285 |        11719989 |                     0 |       7999993 | 2017-02-04 14:32:06.406449+01

 2017-02-04 16:39:40.046362+01 | 1486222780.04636 |                 0 |              24 |                223618 |                 4378 |           20720553 |       2128157 |            19290 |        11719989 |                     0 |       8001727 | 2017-02-04 14:32:06.406449+01

 2017-02-04 16:39:41.128734+01 | 1486222781.12873 |                 0 |              24 |                223618 |                 4378 |           20720553 |       2128757 |            19296 |        11719989 |                     0 |       8004128 | 2017-02-04 14:32:06.406449+01

 2017-02-04 16:39:42.207683+01 | 1486222782.20768 |                 0 |              24 |                223618 |                 4378 |           20720553 |       2129257 |            19301 |        11719989 |                     0 |       8005904 | 2017-02-04 14:32:06.406449+01

 2017-02-04 16:39:43.284011+01 | 1486222783.28401 |                 0 |              24 |                223618 |                 4378 |           20720553 |       2129757 |            19306 |        11719989 |                     0 |       8007880 | 2017-02-04 14:32:06.406449+01

 2017-02-04 16:39:44.365635+01 | 1486222784.36563 |                 0 |              24 |                223618 |                 4378 |           20720553 |       2130357 |            19312 |        11719989 |                     0 |       8010331 | 2017-02-04 14:32:06.406449+01

 2017-02-04 16:39:45.438815+01 | 1486222785.43882 |                 0 |              24 |                223618 |                 4378 |           20720553 |       2130857 |            19317 |        11719989 |                     0 |       8012680 | 2017-02-04 14:32:06.406449+01

 2017-02-04 16:39:46.528873+01 | 1486222786.52887 |                 0 |              24 |                223618 |                 4378 |           20720553 |       2131357 |            19322 |        11719989 |                     0 |       8017812 | 2017-02-04 14:32:06.406449+01

 2017-02-04 16:39:47.609652+01 | 1486222787.60965 |                 0 |              24 |                223618 |                 4378 |           20720553 |       2131957 |            19328 |        11719989 |                     0 |       8026387 | 2017-02-04 14:32:06.406449+01

 2017-02-04 16:39:48.687421+01 | 1486222788.68742 |                 0 |              24 |                223618 |                 4378 |           20720553 |       2132457 |            19333 |        11719989 |                     0 |       8031553 | 2017-02-04 14:32:06.406449+01

 2017-02-04 16:39:49.768044+01 | 1486222789.76804 |                 0 |              24 |                223618 |                 4378 |           20720553 |       2132957 |            19338 |        11719989 |                     0 |       8033610 | 2017-02-04 14:32:06.406449+01

 2017-02-04 16:39:50.845631+01 | 1486222790.84563 |                 0 |              24 |                223618 |                 4378 |           20720553 |       2133557 |            19344 |        11719989 |                     0 |       8035987 | 2017-02-04 14:32:06.406449+01

 2017-02-04 16:39:51.919658+01 | 1486222791.91966 |                 0 |              24 |                223618 |                 4378 |           20720553 |       2134057 |            19349 |        11719989 |                     0 |       8037699 | 2017-02-04 14:32:06.406449+01

 2017-02-04 16:39:52.99355+01 | 1486222792.99355 |                 0 |              24 |                223618 |                 4378 |           20720553 |       2134557 |            19354 |        11719989 |                     0 |       8039785 | 2017-02-04 14:32:06.406449+01

 2017-02-04 16:39:54.074214+01 | 1486222794.07421 |                 0 |              24 |                223618 |                 4378 |           20720553 |       2135157 |            19360 |        11719989 |                     0 |       8042212 | 2017-02-04 14:32:06.406449+01

 2017-02-04 16:39:55.155013+01 | 1486222795.15501 |                 0 |              24 |                223618 |                 4378 |           20720553 |       2135657 |            19365 |        11719989 |                     0 |       8044273 | 2017-02-04 14:32:06.406449+01

 2017-02-04 16:39:56.238223+01 | 1486222796.23822 |                 0 |              24 |                223618 |                 4378 |           20720553 |       2136157 |            19370 |        11719989 |                     0 |       8046138 | 2017-02-04 14:32:06.406449+01

 2017-02-04 16:39:57.323854+01 | 1486222797.32385 |                 0 |              24 |                223618 |                 4378 |           20720553 |       2136757 |            19376 |        11719989 |                     0 |       8048617 | 2017-02-04 14:32:06.406449+01

 2017-02-04 16:39:58.398885+01 | 1486222798.39889 |                 0 |              24 |                223618 |                 4378 |           20720553 |       2137257 |            19381 |        11719989 |                     0 |       8050190 | 2017-02-04 14:32:06.406449+01

 2017-02-04 16:39:59.477974+01 | 1486222799.47797 |                 0 |              24 |                223618 |                 4378 |           20720553 |       2137757 |            19386 |        11719989 |                     0 |       8052130 | 2017-02-04 14:32:06.406449+01

 2017-02-04 16:40:00.555228+01 | 1486222800.55523 |                 0 |              24 |                223618 |                 4378 |           20720553 |       2138357 |            19392 |        11719989 |                     0 |       8054520 | 2017-02-04 14:32:06.406449+01

 2017-02-04 16:40:01.626418+01 | 1486222801.62642 |                 0 |              24 |                223618 |                 4378 |           20720553 |       2138857 |            19397 |        11719989 |                     0 |       8056597 | 2017-02-04 14:32:06.406449+01

 2017-02-04 16:40:02.706212+01 | 1486222802.70621 |                 0 |              24 |                223618 |                 4378 |           20720553 |       2139357 |            19402 |        11719989 |                     0 |       8058622 | 2017-02-04 14:32:06.406449+01

 2017-02-04 16:40:03.788617+01 | 1486222803.78862 |                 0 |              24 |                223618 |                 4378 |           20720553 |       2139957 |            19408 |        11719989 |                     0 |       8061120 | 2017-02-04 14:32:06.406449+01

 2017-02-04 16:40:04.871997+01 | 1486222804.872 |                 0 |              24 |                223618 |                 4378 |           20720553 |       2140457 |            19413 |        11719989 |                     0 |       8062863 | 2017-02-04 14:32:06.406449+01

 2017-02-04 16:40:05.953275+01 | 1486222805.95327 |                 0 |              24 |                223618 |                 4378 |           20720553 |       2140957 |            19418 |        11719989 |                     0 |       8064749 | 2017-02-04 14:32:06.406449+01

 2017-02-04 16:40:07.031084+01 | 1486222807.03108 |                 0 |              24 |                223618 |                 4378 |           20720553 |       2141557 |            19424 |        11719989 |                     0 |       8067236 | 2017-02-04 14:32:06.406449+01

 2017-02-04 16:40:08.112465+01 | 1486222808.11246 |                 0 |              24 |                223618 |                 4378 |           20720553 |       2142057 |            19429 |        11719989 |                     0 |       8068869 | 2017-02-04 14:32:06.406449+01

 2017-02-04 16:40:09.194264+01 | 1486222809.19426 |                 0 |              24 |                223618 |                 4378 |           20720553 |       2142657 |            19435 |        11719989 |                     0 |       8071208 | 2017-02-04 14:32:06.406449+01

 2017-02-04 16:40:10.277637+01 | 1486222810.27764 |                 0 |              24 |                223618 |                 4378 |           20720553 |       2143157 |            19440 |        11719989 |                     0 |       8073072 | 2017-02-04 14:32:06.406449+01

 2017-02-04 16:40:11.35341+01 | 1486222811.35341 |                 0 |              24 |                223618 |                 4378 |           20720553 |       2143657 |            19445 |        11719989 |                     0 |       8075255 | 2017-02-04 14:32:06.406449+01

