 2017-02-03 15:16:30.752203+01 | 1486131390.7522 | pgbench_accounts |      13429514240
 2017-02-03 15:16:30.752203+01 | 1486131390.7522 | pgbench_tellers  |           450560
 2017-02-03 15:16:30.752203+01 | 1486131390.7522 | pgbench_history  |                0
 2017-02-03 15:16:30.752203+01 | 1486131390.7522 | pgbench_branches |            40960

 2017-02-03 15:16:31.834756+01 | 1486131391.83476 | pgbench_accounts |      13429514240
 2017-02-03 15:16:31.834756+01 | 1486131391.83476 | pgbench_tellers  |           450560
 2017-02-03 15:16:31.834756+01 | 1486131391.83476 | pgbench_history  |                0
 2017-02-03 15:16:31.834756+01 | 1486131391.83476 | pgbench_branches |            40960

 2017-02-03 15:16:32.921077+01 | 1486131392.92108 | pgbench_accounts |      13429514240
 2017-02-03 15:16:32.921077+01 | 1486131392.92108 | pgbench_tellers  |           450560
 2017-02-03 15:16:32.921077+01 | 1486131392.92108 | pgbench_history  |                0
 2017-02-03 15:16:32.921077+01 | 1486131392.92108 | pgbench_branches |            40960

 2017-02-03 15:16:33.997188+01 | 1486131393.99719 | pgbench_accounts |      13429514240
 2017-02-03 15:16:33.997188+01 | 1486131393.99719 | pgbench_tellers  |           450560
 2017-02-03 15:16:33.997188+01 | 1486131393.99719 | pgbench_history  |                0
 2017-02-03 15:16:33.997188+01 | 1486131393.99719 | pgbench_branches |            40960

 2017-02-03 15:16:35.06973+01 | 1486131395.06973 | pgbench_accounts |      13429514240
 2017-02-03 15:16:35.06973+01 | 1486131395.06973 | pgbench_tellers  |           450560
 2017-02-03 15:16:35.06973+01 | 1486131395.06973 | pgbench_history  |                0
 2017-02-03 15:16:35.06973+01 | 1486131395.06973 | pgbench_branches |            40960

 2017-02-03 15:16:36.15053+01 | 1486131396.15053 | pgbench_accounts |      13429514240
 2017-02-03 15:16:36.15053+01 | 1486131396.15053 | pgbench_tellers  |           450560
 2017-02-03 15:16:36.15053+01 | 1486131396.15053 | pgbench_history  |                0
 2017-02-03 15:16:36.15053+01 | 1486131396.15053 | pgbench_branches |            40960

 2017-02-03 15:16:37.227308+01 | 1486131397.22731 | pgbench_accounts |      13429514240
 2017-02-03 15:16:37.227308+01 | 1486131397.22731 | pgbench_tellers  |           450560
 2017-02-03 15:16:37.227308+01 | 1486131397.22731 | pgbench_history  |                0
 2017-02-03 15:16:37.227308+01 | 1486131397.22731 | pgbench_branches |            40960

 2017-02-03 15:16:38.300654+01 | 1486131398.30065 | pgbench_accounts |      13429514240
 2017-02-03 15:16:38.300654+01 | 1486131398.30065 | pgbench_tellers  |           450560
 2017-02-03 15:16:38.300654+01 | 1486131398.30065 | pgbench_history  |                0
 2017-02-03 15:16:38.300654+01 | 1486131398.30065 | pgbench_branches |            40960

 2017-02-03 15:16:39.385525+01 | 1486131399.38552 | pgbench_accounts |      13429514240
 2017-02-03 15:16:39.385525+01 | 1486131399.38552 | pgbench_tellers  |           450560
 2017-02-03 15:16:39.385525+01 | 1486131399.38552 | pgbench_history  |                0
 2017-02-03 15:16:39.385525+01 | 1486131399.38552 | pgbench_branches |            40960

 2017-02-03 15:16:40.465683+01 | 1486131400.46568 | pgbench_accounts |      13429514240
 2017-02-03 15:16:40.465683+01 | 1486131400.46568 | pgbench_tellers  |           450560
 2017-02-03 15:16:40.465683+01 | 1486131400.46568 | pgbench_history  |                0
 2017-02-03 15:16:40.465683+01 | 1486131400.46568 | pgbench_branches |            40960

 2017-02-03 15:16:41.545064+01 | 1486131401.54506 | pgbench_accounts |      13429514240
 2017-02-03 15:16:41.545064+01 | 1486131401.54506 | pgbench_tellers  |           450560
 2017-02-03 15:16:41.545064+01 | 1486131401.54506 | pgbench_history  |                0
 2017-02-03 15:16:41.545064+01 | 1486131401.54506 | pgbench_branches |            40960

 2017-02-03 15:16:42.61751+01 | 1486131402.61751 | pgbench_accounts |      13429514240
 2017-02-03 15:16:42.61751+01 | 1486131402.61751 | pgbench_tellers  |           450560
 2017-02-03 15:16:42.61751+01 | 1486131402.61751 | pgbench_history  |                0
 2017-02-03 15:16:42.61751+01 | 1486131402.61751 | pgbench_branches |            40960

 2017-02-03 15:16:43.693436+01 | 1486131403.69344 | pgbench_accounts |      13429514240
 2017-02-03 15:16:43.693436+01 | 1486131403.69344 | pgbench_tellers  |           450560
 2017-02-03 15:16:43.693436+01 | 1486131403.69344 | pgbench_history  |                0
 2017-02-03 15:16:43.693436+01 | 1486131403.69344 | pgbench_branches |            40960

 2017-02-03 15:16:44.77777+01 | 1486131404.77777 | pgbench_accounts |      13429514240
 2017-02-03 15:16:44.77777+01 | 1486131404.77777 | pgbench_tellers  |           450560
 2017-02-03 15:16:44.77777+01 | 1486131404.77777 | pgbench_history  |                0
 2017-02-03 15:16:44.77777+01 | 1486131404.77777 | pgbench_branches |            40960

 2017-02-03 15:16:45.859495+01 | 1486131405.85949 | pgbench_accounts |      13429514240
 2017-02-03 15:16:45.859495+01 | 1486131405.85949 | pgbench_tellers  |           450560
 2017-02-03 15:16:45.859495+01 | 1486131405.85949 | pgbench_history  |                0
 2017-02-03 15:16:45.859495+01 | 1486131405.85949 | pgbench_branches |            40960

 2017-02-03 15:16:46.941017+01 | 1486131406.94102 | pgbench_accounts |      13429514240
 2017-02-03 15:16:46.941017+01 | 1486131406.94102 | pgbench_tellers  |           450560
 2017-02-03 15:16:46.941017+01 | 1486131406.94102 | pgbench_history  |                0
 2017-02-03 15:16:46.941017+01 | 1486131406.94102 | pgbench_branches |            40960

 2017-02-03 15:16:48.01923+01 | 1486131408.01923 | pgbench_accounts |      13429514240
 2017-02-03 15:16:48.01923+01 | 1486131408.01923 | pgbench_tellers  |           450560
 2017-02-03 15:16:48.01923+01 | 1486131408.01923 | pgbench_history  |                0
 2017-02-03 15:16:48.01923+01 | 1486131408.01923 | pgbench_branches |            40960

 2017-02-03 15:16:49.100436+01 | 1486131409.10044 | pgbench_accounts |      13429514240
 2017-02-03 15:16:49.100436+01 | 1486131409.10044 | pgbench_tellers  |           450560
 2017-02-03 15:16:49.100436+01 | 1486131409.10044 | pgbench_history  |                0
 2017-02-03 15:16:49.100436+01 | 1486131409.10044 | pgbench_branches |            40960

 2017-02-03 15:16:50.176924+01 | 1486131410.17692 | pgbench_accounts |      13429514240
 2017-02-03 15:16:50.176924+01 | 1486131410.17692 | pgbench_tellers  |           450560
 2017-02-03 15:16:50.176924+01 | 1486131410.17692 | pgbench_history  |                0
 2017-02-03 15:16:50.176924+01 | 1486131410.17692 | pgbench_branches |            40960

 2017-02-03 15:16:51.253621+01 | 1486131411.25362 | pgbench_accounts |      13429514240
 2017-02-03 15:16:51.253621+01 | 1486131411.25362 | pgbench_tellers  |           450560
 2017-02-03 15:16:51.253621+01 | 1486131411.25362 | pgbench_history  |                0
 2017-02-03 15:16:51.253621+01 | 1486131411.25362 | pgbench_branches |            40960

 2017-02-03 15:16:52.329923+01 | 1486131412.32992 | pgbench_accounts |      13429514240
 2017-02-03 15:16:52.329923+01 | 1486131412.32992 | pgbench_tellers  |           450560
 2017-02-03 15:16:52.329923+01 | 1486131412.32992 | pgbench_history  |                0
 2017-02-03 15:16:52.329923+01 | 1486131412.32992 | pgbench_branches |            40960

 2017-02-03 15:16:53.412171+01 | 1486131413.41217 | pgbench_accounts |      13429514240
 2017-02-03 15:16:53.412171+01 | 1486131413.41217 | pgbench_tellers  |           450560
 2017-02-03 15:16:53.412171+01 | 1486131413.41217 | pgbench_history  |                0
 2017-02-03 15:16:53.412171+01 | 1486131413.41217 | pgbench_branches |            40960

 2017-02-03 15:16:54.489203+01 | 1486131414.4892 | pgbench_accounts |      13429514240
 2017-02-03 15:16:54.489203+01 | 1486131414.4892 | pgbench_tellers  |           450560
 2017-02-03 15:16:54.489203+01 | 1486131414.4892 | pgbench_history  |                0
 2017-02-03 15:16:54.489203+01 | 1486131414.4892 | pgbench_branches |            40960

 2017-02-03 15:16:55.564272+01 | 1486131415.56427 | pgbench_accounts |      13429514240
 2017-02-03 15:16:55.564272+01 | 1486131415.56427 | pgbench_tellers  |           450560
 2017-02-03 15:16:55.564272+01 | 1486131415.56427 | pgbench_history  |                0
 2017-02-03 15:16:55.564272+01 | 1486131415.56427 | pgbench_branches |            40960

 2017-02-03 15:16:56.638531+01 | 1486131416.63853 | pgbench_accounts |      13429514240
 2017-02-03 15:16:56.638531+01 | 1486131416.63853 | pgbench_tellers  |           450560
 2017-02-03 15:16:56.638531+01 | 1486131416.63853 | pgbench_history  |                0
 2017-02-03 15:16:56.638531+01 | 1486131416.63853 | pgbench_branches |            40960

 2017-02-03 15:16:57.717749+01 | 1486131417.71775 | pgbench_accounts |      13429514240
 2017-02-03 15:16:57.717749+01 | 1486131417.71775 | pgbench_tellers  |           450560
 2017-02-03 15:16:57.717749+01 | 1486131417.71775 | pgbench_history  |                0
 2017-02-03 15:16:57.717749+01 | 1486131417.71775 | pgbench_branches |            40960

 2017-02-03 15:16:58.79588+01 | 1486131418.79588 | pgbench_accounts |      13429514240
 2017-02-03 15:16:58.79588+01 | 1486131418.79588 | pgbench_tellers  |           450560
 2017-02-03 15:16:58.79588+01 | 1486131418.79588 | pgbench_history  |                0
 2017-02-03 15:16:58.79588+01 | 1486131418.79588 | pgbench_branches |            40960

 2017-02-03 15:16:59.865186+01 | 1486131419.86519 | pgbench_accounts |      13429514240
 2017-02-03 15:16:59.865186+01 | 1486131419.86519 | pgbench_tellers  |           450560
 2017-02-03 15:16:59.865186+01 | 1486131419.86519 | pgbench_history  |                0
 2017-02-03 15:16:59.865186+01 | 1486131419.86519 | pgbench_branches |            40960

 2017-02-03 15:17:00.94811+01 | 1486131420.94811 | pgbench_accounts |      13429514240
 2017-02-03 15:17:00.94811+01 | 1486131420.94811 | pgbench_tellers  |           450560
 2017-02-03 15:17:00.94811+01 | 1486131420.94811 | pgbench_history  |                0
 2017-02-03 15:17:00.94811+01 | 1486131420.94811 | pgbench_branches |            40960

 2017-02-03 15:17:02.031051+01 | 1486131422.03105 | pgbench_accounts |      13429514240
 2017-02-03 15:17:02.031051+01 | 1486131422.03105 | pgbench_tellers  |           450560
 2017-02-03 15:17:02.031051+01 | 1486131422.03105 | pgbench_history  |                0
 2017-02-03 15:17:02.031051+01 | 1486131422.03105 | pgbench_branches |            40960

 2017-02-03 15:17:03.111334+01 | 1486131423.11133 | pgbench_accounts |      13429514240
 2017-02-03 15:17:03.111334+01 | 1486131423.11133 | pgbench_tellers  |           450560
 2017-02-03 15:17:03.111334+01 | 1486131423.11133 | pgbench_history  |                0
 2017-02-03 15:17:03.111334+01 | 1486131423.11133 | pgbench_branches |            40960

 2017-02-03 15:17:04.191982+01 | 1486131424.19198 | pgbench_accounts |      13429514240
 2017-02-03 15:17:04.191982+01 | 1486131424.19198 | pgbench_tellers  |           450560
 2017-02-03 15:17:04.191982+01 | 1486131424.19198 | pgbench_history  |                0
 2017-02-03 15:17:04.191982+01 | 1486131424.19198 | pgbench_branches |            40960

 2017-02-03 15:17:05.275244+01 | 1486131425.27524 | pgbench_accounts |      13429514240
 2017-02-03 15:17:05.275244+01 | 1486131425.27524 | pgbench_tellers  |           450560
 2017-02-03 15:17:05.275244+01 | 1486131425.27524 | pgbench_history  |                0
 2017-02-03 15:17:05.275244+01 | 1486131425.27524 | pgbench_branches |            40960

 2017-02-03 15:17:06.356439+01 | 1486131426.35644 | pgbench_accounts |      13429514240
 2017-02-03 15:17:06.356439+01 | 1486131426.35644 | pgbench_tellers  |           450560
 2017-02-03 15:17:06.356439+01 | 1486131426.35644 | pgbench_history  |                0
 2017-02-03 15:17:06.356439+01 | 1486131426.35644 | pgbench_branches |            40960

 2017-02-03 15:17:07.437686+01 | 1486131427.43769 | pgbench_accounts |      13429514240
 2017-02-03 15:17:07.437686+01 | 1486131427.43769 | pgbench_tellers  |           450560
 2017-02-03 15:17:07.437686+01 | 1486131427.43769 | pgbench_history  |                0
 2017-02-03 15:17:07.437686+01 | 1486131427.43769 | pgbench_branches |            40960

 2017-02-03 15:17:08.523248+01 | 1486131428.52325 | pgbench_accounts |      13429514240
 2017-02-03 15:17:08.523248+01 | 1486131428.52325 | pgbench_tellers  |           450560
 2017-02-03 15:17:08.523248+01 | 1486131428.52325 | pgbench_history  |                0
 2017-02-03 15:17:08.523248+01 | 1486131428.52325 | pgbench_branches |            40960

 2017-02-03 15:17:09.602403+01 | 1486131429.6024 | pgbench_accounts |      13429514240
 2017-02-03 15:17:09.602403+01 | 1486131429.6024 | pgbench_tellers  |           450560
 2017-02-03 15:17:09.602403+01 | 1486131429.6024 | pgbench_history  |                0
 2017-02-03 15:17:09.602403+01 | 1486131429.6024 | pgbench_branches |            40960

 2017-02-03 15:17:10.685008+01 | 1486131430.68501 | pgbench_accounts |      13429514240
 2017-02-03 15:17:10.685008+01 | 1486131430.68501 | pgbench_tellers  |           450560
 2017-02-03 15:17:10.685008+01 | 1486131430.68501 | pgbench_history  |                0
 2017-02-03 15:17:10.685008+01 | 1486131430.68501 | pgbench_branches |            40960

 2017-02-03 15:17:11.762818+01 | 1486131431.76282 | pgbench_accounts |      13429514240
 2017-02-03 15:17:11.762818+01 | 1486131431.76282 | pgbench_tellers  |           450560
 2017-02-03 15:17:11.762818+01 | 1486131431.76282 | pgbench_history  |                0
 2017-02-03 15:17:11.762818+01 | 1486131431.76282 | pgbench_branches |            40960

 2017-02-03 15:17:12.838418+01 | 1486131432.83842 | pgbench_accounts |      13429514240
 2017-02-03 15:17:12.838418+01 | 1486131432.83842 | pgbench_tellers  |           450560
 2017-02-03 15:17:12.838418+01 | 1486131432.83842 | pgbench_history  |                0
 2017-02-03 15:17:12.838418+01 | 1486131432.83842 | pgbench_branches |            40960

 2017-02-03 15:17:13.919928+01 | 1486131433.91993 | pgbench_accounts |      13429514240
 2017-02-03 15:17:13.919928+01 | 1486131433.91993 | pgbench_tellers  |           450560
 2017-02-03 15:17:13.919928+01 | 1486131433.91993 | pgbench_history  |                0
 2017-02-03 15:17:13.919928+01 | 1486131433.91993 | pgbench_branches |            40960

 2017-02-03 15:17:15.007985+01 | 1486131435.00799 | pgbench_accounts |      13429514240
 2017-02-03 15:17:15.007985+01 | 1486131435.00799 | pgbench_tellers  |           450560
 2017-02-03 15:17:15.007985+01 | 1486131435.00799 | pgbench_history  |                0
 2017-02-03 15:17:15.007985+01 | 1486131435.00799 | pgbench_branches |            40960

 2017-02-03 15:17:16.08195+01 | 1486131436.08195 | pgbench_accounts |      13429514240
 2017-02-03 15:17:16.08195+01 | 1486131436.08195 | pgbench_tellers  |           450560
 2017-02-03 15:17:16.08195+01 | 1486131436.08195 | pgbench_history  |                0
 2017-02-03 15:17:16.08195+01 | 1486131436.08195 | pgbench_branches |            40960

 2017-02-03 15:17:17.16076+01 | 1486131437.16076 | pgbench_accounts |      13429514240
 2017-02-03 15:17:17.16076+01 | 1486131437.16076 | pgbench_tellers  |           450560
 2017-02-03 15:17:17.16076+01 | 1486131437.16076 | pgbench_history  |                0
 2017-02-03 15:17:17.16076+01 | 1486131437.16076 | pgbench_branches |            40960

 2017-02-03 15:17:18.233244+01 | 1486131438.23324 | pgbench_accounts |      13429514240
 2017-02-03 15:17:18.233244+01 | 1486131438.23324 | pgbench_tellers  |           450560
 2017-02-03 15:17:18.233244+01 | 1486131438.23324 | pgbench_history  |                0
 2017-02-03 15:17:18.233244+01 | 1486131438.23324 | pgbench_branches |            40960

 2017-02-03 15:17:19.31689+01 | 1486131439.31689 | pgbench_accounts |      13429514240
 2017-02-03 15:17:19.31689+01 | 1486131439.31689 | pgbench_tellers  |           450560
 2017-02-03 15:17:19.31689+01 | 1486131439.31689 | pgbench_history  |                0
 2017-02-03 15:17:19.31689+01 | 1486131439.31689 | pgbench_branches |            40960

 2017-02-03 15:17:20.392867+01 | 1486131440.39287 | pgbench_accounts |      13429514240
 2017-02-03 15:17:20.392867+01 | 1486131440.39287 | pgbench_tellers  |           450560
 2017-02-03 15:17:20.392867+01 | 1486131440.39287 | pgbench_history  |                0
 2017-02-03 15:17:20.392867+01 | 1486131440.39287 | pgbench_branches |            40960

 2017-02-03 15:17:21.47141+01 | 1486131441.47141 | pgbench_accounts |      13429514240
 2017-02-03 15:17:21.47141+01 | 1486131441.47141 | pgbench_tellers  |           450560
 2017-02-03 15:17:21.47141+01 | 1486131441.47141 | pgbench_history  |                0
 2017-02-03 15:17:21.47141+01 | 1486131441.47141 | pgbench_branches |            40960

 2017-02-03 15:17:22.554433+01 | 1486131442.55443 | pgbench_accounts |      13429514240
 2017-02-03 15:17:22.554433+01 | 1486131442.55443 | pgbench_tellers  |           450560
 2017-02-03 15:17:22.554433+01 | 1486131442.55443 | pgbench_history  |                0
 2017-02-03 15:17:22.554433+01 | 1486131442.55443 | pgbench_branches |            40960

 2017-02-03 15:17:23.630785+01 | 1486131443.63078 | pgbench_accounts |      13429514240
 2017-02-03 15:17:23.630785+01 | 1486131443.63078 | pgbench_tellers  |           450560
 2017-02-03 15:17:23.630785+01 | 1486131443.63078 | pgbench_history  |                0
 2017-02-03 15:17:23.630785+01 | 1486131443.63078 | pgbench_branches |            40960

 2017-02-03 15:17:24.712021+01 | 1486131444.71202 | pgbench_accounts |      13429514240
 2017-02-03 15:17:24.712021+01 | 1486131444.71202 | pgbench_tellers  |           450560
 2017-02-03 15:17:24.712021+01 | 1486131444.71202 | pgbench_history  |                0
 2017-02-03 15:17:24.712021+01 | 1486131444.71202 | pgbench_branches |            40960

 2017-02-03 15:17:25.791759+01 | 1486131445.79176 | pgbench_accounts |      13429514240
 2017-02-03 15:17:25.791759+01 | 1486131445.79176 | pgbench_tellers  |           450560
 2017-02-03 15:17:25.791759+01 | 1486131445.79176 | pgbench_history  |                0
 2017-02-03 15:17:25.791759+01 | 1486131445.79176 | pgbench_branches |            40960

 2017-02-03 15:17:26.878822+01 | 1486131446.87882 | pgbench_accounts |      13429514240
 2017-02-03 15:17:26.878822+01 | 1486131446.87882 | pgbench_tellers  |           450560
 2017-02-03 15:17:26.878822+01 | 1486131446.87882 | pgbench_history  |                0
 2017-02-03 15:17:26.878822+01 | 1486131446.87882 | pgbench_branches |            40960

 2017-02-03 15:17:27.962492+01 | 1486131447.96249 | pgbench_accounts |      13429514240
 2017-02-03 15:17:27.962492+01 | 1486131447.96249 | pgbench_tellers  |           450560
 2017-02-03 15:17:27.962492+01 | 1486131447.96249 | pgbench_history  |                0
 2017-02-03 15:17:27.962492+01 | 1486131447.96249 | pgbench_branches |            40960

 2017-02-03 15:17:29.041431+01 | 1486131449.04143 | pgbench_accounts |      13429514240
 2017-02-03 15:17:29.041431+01 | 1486131449.04143 | pgbench_tellers  |           450560
 2017-02-03 15:17:29.041431+01 | 1486131449.04143 | pgbench_history  |                0
 2017-02-03 15:17:29.041431+01 | 1486131449.04143 | pgbench_branches |            40960

 2017-02-03 15:17:30.120769+01 | 1486131450.12077 | pgbench_accounts |      13429514240
 2017-02-03 15:17:30.120769+01 | 1486131450.12077 | pgbench_tellers  |           450560
 2017-02-03 15:17:30.120769+01 | 1486131450.12077 | pgbench_history  |                0
 2017-02-03 15:17:30.120769+01 | 1486131450.12077 | pgbench_branches |            40960

 2017-02-03 15:17:31.207111+01 | 1486131451.20711 | pgbench_accounts |      13429514240
 2017-02-03 15:17:31.207111+01 | 1486131451.20711 | pgbench_tellers  |           450560
 2017-02-03 15:17:31.207111+01 | 1486131451.20711 | pgbench_history  |                0
 2017-02-03 15:17:31.207111+01 | 1486131451.20711 | pgbench_branches |            40960

 2017-02-03 15:17:32.290328+01 | 1486131452.29033 | pgbench_accounts |      13429514240
 2017-02-03 15:17:32.290328+01 | 1486131452.29033 | pgbench_tellers  |           450560
 2017-02-03 15:17:32.290328+01 | 1486131452.29033 | pgbench_history  |                0
 2017-02-03 15:17:32.290328+01 | 1486131452.29033 | pgbench_branches |            40960

 2017-02-03 15:17:33.366343+01 | 1486131453.36634 | pgbench_accounts |      13429514240
 2017-02-03 15:17:33.366343+01 | 1486131453.36634 | pgbench_tellers  |           450560
 2017-02-03 15:17:33.366343+01 | 1486131453.36634 | pgbench_history  |                0
 2017-02-03 15:17:33.366343+01 | 1486131453.36634 | pgbench_branches |            40960

 2017-02-03 15:17:34.442998+01 | 1486131454.443 | pgbench_accounts |      13429514240
 2017-02-03 15:17:34.442998+01 | 1486131454.443 | pgbench_tellers  |           450560
 2017-02-03 15:17:34.442998+01 | 1486131454.443 | pgbench_history  |                0
 2017-02-03 15:17:34.442998+01 | 1486131454.443 | pgbench_branches |            40960

 2017-02-03 15:17:35.524179+01 | 1486131455.52418 | pgbench_accounts |      13429514240
 2017-02-03 15:17:35.524179+01 | 1486131455.52418 | pgbench_tellers  |           450560
 2017-02-03 15:17:35.524179+01 | 1486131455.52418 | pgbench_history  |                0
 2017-02-03 15:17:35.524179+01 | 1486131455.52418 | pgbench_branches |            40960

 2017-02-03 15:17:36.607927+01 | 1486131456.60793 | pgbench_accounts |      13429514240
 2017-02-03 15:17:36.607927+01 | 1486131456.60793 | pgbench_tellers  |           450560
 2017-02-03 15:17:36.607927+01 | 1486131456.60793 | pgbench_history  |                0
 2017-02-03 15:17:36.607927+01 | 1486131456.60793 | pgbench_branches |            40960

 2017-02-03 15:17:37.683107+01 | 1486131457.68311 | pgbench_accounts |      13429514240
 2017-02-03 15:17:37.683107+01 | 1486131457.68311 | pgbench_tellers  |           450560
 2017-02-03 15:17:37.683107+01 | 1486131457.68311 | pgbench_history  |                0
 2017-02-03 15:17:37.683107+01 | 1486131457.68311 | pgbench_branches |            40960

 2017-02-03 15:17:38.762169+01 | 1486131458.76217 | pgbench_accounts |      13429514240
 2017-02-03 15:17:38.762169+01 | 1486131458.76217 | pgbench_tellers  |           450560
 2017-02-03 15:17:38.762169+01 | 1486131458.76217 | pgbench_history  |                0
 2017-02-03 15:17:38.762169+01 | 1486131458.76217 | pgbench_branches |            40960

 2017-02-03 15:17:39.834598+01 | 1486131459.8346 | pgbench_accounts |      13429514240
 2017-02-03 15:17:39.834598+01 | 1486131459.8346 | pgbench_tellers  |           450560
 2017-02-03 15:17:39.834598+01 | 1486131459.8346 | pgbench_history  |                0
 2017-02-03 15:17:39.834598+01 | 1486131459.8346 | pgbench_branches |            40960

 2017-02-03 15:17:40.909133+01 | 1486131460.90913 | pgbench_accounts |      13429514240
 2017-02-03 15:17:40.909133+01 | 1486131460.90913 | pgbench_tellers  |           450560
 2017-02-03 15:17:40.909133+01 | 1486131460.90913 | pgbench_history  |                0
 2017-02-03 15:17:40.909133+01 | 1486131460.90913 | pgbench_branches |            40960

 2017-02-03 15:17:41.991451+01 | 1486131461.99145 | pgbench_accounts |      13429514240
 2017-02-03 15:17:41.991451+01 | 1486131461.99145 | pgbench_tellers  |           450560
 2017-02-03 15:17:41.991451+01 | 1486131461.99145 | pgbench_history  |                0
 2017-02-03 15:17:41.991451+01 | 1486131461.99145 | pgbench_branches |            40960

 2017-02-03 15:17:43.079512+01 | 1486131463.07951 | pgbench_accounts |      13429514240
 2017-02-03 15:17:43.079512+01 | 1486131463.07951 | pgbench_tellers  |           450560
 2017-02-03 15:17:43.079512+01 | 1486131463.07951 | pgbench_history  |                0
 2017-02-03 15:17:43.079512+01 | 1486131463.07951 | pgbench_branches |            40960

 2017-02-03 15:17:44.155827+01 | 1486131464.15583 | pgbench_accounts |      13429514240
 2017-02-03 15:17:44.155827+01 | 1486131464.15583 | pgbench_tellers  |           450560
 2017-02-03 15:17:44.155827+01 | 1486131464.15583 | pgbench_history  |                0
 2017-02-03 15:17:44.155827+01 | 1486131464.15583 | pgbench_branches |            40960

 2017-02-03 15:17:45.23175+01 | 1486131465.23175 | pgbench_accounts |      13429514240
 2017-02-03 15:17:45.23175+01 | 1486131465.23175 | pgbench_tellers  |           450560
 2017-02-03 15:17:45.23175+01 | 1486131465.23175 | pgbench_history  |                0
 2017-02-03 15:17:45.23175+01 | 1486131465.23175 | pgbench_branches |            40960

 2017-02-03 15:17:46.310903+01 | 1486131466.3109 | pgbench_accounts |      13429514240
 2017-02-03 15:17:46.310903+01 | 1486131466.3109 | pgbench_tellers  |           450560
 2017-02-03 15:17:46.310903+01 | 1486131466.3109 | pgbench_history  |                0
 2017-02-03 15:17:46.310903+01 | 1486131466.3109 | pgbench_branches |            40960

 2017-02-03 15:17:47.396831+01 | 1486131467.39683 | pgbench_accounts |      13429514240
 2017-02-03 15:17:47.396831+01 | 1486131467.39683 | pgbench_tellers  |           450560
 2017-02-03 15:17:47.396831+01 | 1486131467.39683 | pgbench_history  |                0
 2017-02-03 15:17:47.396831+01 | 1486131467.39683 | pgbench_branches |            40960

 2017-02-03 15:17:48.476954+01 | 1486131468.47695 | pgbench_accounts |      13429514240
 2017-02-03 15:17:48.476954+01 | 1486131468.47695 | pgbench_tellers  |           450560
 2017-02-03 15:17:48.476954+01 | 1486131468.47695 | pgbench_history  |                0
 2017-02-03 15:17:48.476954+01 | 1486131468.47695 | pgbench_branches |            40960

 2017-02-03 15:17:49.548675+01 | 1486131469.54868 | pgbench_accounts |      13429514240
 2017-02-03 15:17:49.548675+01 | 1486131469.54868 | pgbench_tellers  |           450560
 2017-02-03 15:17:49.548675+01 | 1486131469.54868 | pgbench_history  |                0
 2017-02-03 15:17:49.548675+01 | 1486131469.54868 | pgbench_branches |            40960

 2017-02-03 15:17:50.629827+01 | 1486131470.62983 | pgbench_accounts |      13429514240
 2017-02-03 15:17:50.629827+01 | 1486131470.62983 | pgbench_tellers  |           450560
 2017-02-03 15:17:50.629827+01 | 1486131470.62983 | pgbench_history  |                0
 2017-02-03 15:17:50.629827+01 | 1486131470.62983 | pgbench_branches |            40960

 2017-02-03 15:17:51.713485+01 | 1486131471.71349 | pgbench_accounts |      13429514240
 2017-02-03 15:17:51.713485+01 | 1486131471.71349 | pgbench_tellers  |           450560
 2017-02-03 15:17:51.713485+01 | 1486131471.71349 | pgbench_history  |                0
 2017-02-03 15:17:51.713485+01 | 1486131471.71349 | pgbench_branches |            40960

 2017-02-03 15:17:52.797691+01 | 1486131472.79769 | pgbench_accounts |      13429514240
 2017-02-03 15:17:52.797691+01 | 1486131472.79769 | pgbench_tellers  |           450560
 2017-02-03 15:17:52.797691+01 | 1486131472.79769 | pgbench_history  |                0
 2017-02-03 15:17:52.797691+01 | 1486131472.79769 | pgbench_branches |            40960

 2017-02-03 15:17:53.872881+01 | 1486131473.87288 | pgbench_accounts |      13429514240
 2017-02-03 15:17:53.872881+01 | 1486131473.87288 | pgbench_tellers  |           450560
 2017-02-03 15:17:53.872881+01 | 1486131473.87288 | pgbench_history  |                0
 2017-02-03 15:17:53.872881+01 | 1486131473.87288 | pgbench_branches |            40960

 2017-02-03 15:17:54.957253+01 | 1486131474.95725 | pgbench_accounts |      13429514240
 2017-02-03 15:17:54.957253+01 | 1486131474.95725 | pgbench_tellers  |           450560
 2017-02-03 15:17:54.957253+01 | 1486131474.95725 | pgbench_history  |                0
 2017-02-03 15:17:54.957253+01 | 1486131474.95725 | pgbench_branches |            40960

 2017-02-03 15:17:56.043172+01 | 1486131476.04317 | pgbench_accounts |      13429514240
 2017-02-03 15:17:56.043172+01 | 1486131476.04317 | pgbench_tellers  |           450560
 2017-02-03 15:17:56.043172+01 | 1486131476.04317 | pgbench_history  |                0
 2017-02-03 15:17:56.043172+01 | 1486131476.04317 | pgbench_branches |            40960

 2017-02-03 15:17:57.122104+01 | 1486131477.1221 | pgbench_accounts |      13429514240
 2017-02-03 15:17:57.122104+01 | 1486131477.1221 | pgbench_tellers  |           450560
 2017-02-03 15:17:57.122104+01 | 1486131477.1221 | pgbench_history  |                0
 2017-02-03 15:17:57.122104+01 | 1486131477.1221 | pgbench_branches |            40960

 2017-02-03 15:17:58.197673+01 | 1486131478.19767 | pgbench_accounts |      13429514240
 2017-02-03 15:17:58.197673+01 | 1486131478.19767 | pgbench_tellers  |           450560
 2017-02-03 15:17:58.197673+01 | 1486131478.19767 | pgbench_history  |                0
 2017-02-03 15:17:58.197673+01 | 1486131478.19767 | pgbench_branches |            40960

 2017-02-03 15:17:59.275095+01 | 1486131479.27509 | pgbench_accounts |      13429514240
 2017-02-03 15:17:59.275095+01 | 1486131479.27509 | pgbench_tellers  |           450560
 2017-02-03 15:17:59.275095+01 | 1486131479.27509 | pgbench_history  |                0
 2017-02-03 15:17:59.275095+01 | 1486131479.27509 | pgbench_branches |            40960

 2017-02-03 15:18:00.352604+01 | 1486131480.3526 | pgbench_accounts |      13429514240
 2017-02-03 15:18:00.352604+01 | 1486131480.3526 | pgbench_tellers  |           450560
 2017-02-03 15:18:00.352604+01 | 1486131480.3526 | pgbench_history  |                0
 2017-02-03 15:18:00.352604+01 | 1486131480.3526 | pgbench_branches |            40960

 2017-02-03 15:18:01.435001+01 | 1486131481.435 | pgbench_accounts |      13429514240
 2017-02-03 15:18:01.435001+01 | 1486131481.435 | pgbench_tellers  |           450560
 2017-02-03 15:18:01.435001+01 | 1486131481.435 | pgbench_history  |                0
 2017-02-03 15:18:01.435001+01 | 1486131481.435 | pgbench_branches |            40960

 2017-02-03 15:18:02.521774+01 | 1486131482.52177 | pgbench_accounts |      13429514240
 2017-02-03 15:18:02.521774+01 | 1486131482.52177 | pgbench_tellers  |           450560
 2017-02-03 15:18:02.521774+01 | 1486131482.52177 | pgbench_history  |                0
 2017-02-03 15:18:02.521774+01 | 1486131482.52177 | pgbench_branches |            40960

 2017-02-03 15:18:03.611142+01 | 1486131483.61114 | pgbench_accounts |      13429514240
 2017-02-03 15:18:03.611142+01 | 1486131483.61114 | pgbench_tellers  |           450560
 2017-02-03 15:18:03.611142+01 | 1486131483.61114 | pgbench_history  |                0
 2017-02-03 15:18:03.611142+01 | 1486131483.61114 | pgbench_branches |            40960

 2017-02-03 15:18:04.70052+01 | 1486131484.70052 | pgbench_accounts |      13429514240
 2017-02-03 15:18:04.70052+01 | 1486131484.70052 | pgbench_tellers  |           450560
 2017-02-03 15:18:04.70052+01 | 1486131484.70052 | pgbench_history  |                0
 2017-02-03 15:18:04.70052+01 | 1486131484.70052 | pgbench_branches |            40960

 2017-02-03 15:18:05.774259+01 | 1486131485.77426 | pgbench_accounts |      13429514240
 2017-02-03 15:18:05.774259+01 | 1486131485.77426 | pgbench_tellers  |           450560
 2017-02-03 15:18:05.774259+01 | 1486131485.77426 | pgbench_history  |                0
 2017-02-03 15:18:05.774259+01 | 1486131485.77426 | pgbench_branches |            40960

 2017-02-03 15:18:06.857036+01 | 1486131486.85704 | pgbench_accounts |      13429514240
 2017-02-03 15:18:06.857036+01 | 1486131486.85704 | pgbench_tellers  |           450560
 2017-02-03 15:18:06.857036+01 | 1486131486.85704 | pgbench_history  |                0
 2017-02-03 15:18:06.857036+01 | 1486131486.85704 | pgbench_branches |            40960

 2017-02-03 15:18:07.929369+01 | 1486131487.92937 | pgbench_accounts |      13429514240
 2017-02-03 15:18:07.929369+01 | 1486131487.92937 | pgbench_tellers  |           450560
 2017-02-03 15:18:07.929369+01 | 1486131487.92937 | pgbench_history  |                0
 2017-02-03 15:18:07.929369+01 | 1486131487.92937 | pgbench_branches |            40960

 2017-02-03 15:18:09.004993+01 | 1486131489.00499 | pgbench_accounts |      13429514240
 2017-02-03 15:18:09.004993+01 | 1486131489.00499 | pgbench_tellers  |           450560
 2017-02-03 15:18:09.004993+01 | 1486131489.00499 | pgbench_history  |                0
 2017-02-03 15:18:09.004993+01 | 1486131489.00499 | pgbench_branches |            40960

 2017-02-03 15:18:10.083655+01 | 1486131490.08366 | pgbench_accounts |      13429514240
 2017-02-03 15:18:10.083655+01 | 1486131490.08366 | pgbench_tellers  |           450560
 2017-02-03 15:18:10.083655+01 | 1486131490.08366 | pgbench_history  |                0
 2017-02-03 15:18:10.083655+01 | 1486131490.08366 | pgbench_branches |            40960

 2017-02-03 15:18:11.162556+01 | 1486131491.16256 | pgbench_accounts |      13429514240
 2017-02-03 15:18:11.162556+01 | 1486131491.16256 | pgbench_tellers  |           450560
 2017-02-03 15:18:11.162556+01 | 1486131491.16256 | pgbench_history  |                0
 2017-02-03 15:18:11.162556+01 | 1486131491.16256 | pgbench_branches |            40960

 2017-02-03 15:18:12.25163+01 | 1486131492.25163 | pgbench_accounts |      13429514240
 2017-02-03 15:18:12.25163+01 | 1486131492.25163 | pgbench_tellers  |           450560
 2017-02-03 15:18:12.25163+01 | 1486131492.25163 | pgbench_history  |                0
 2017-02-03 15:18:12.25163+01 | 1486131492.25163 | pgbench_branches |            40960

 2017-02-03 15:18:13.339715+01 | 1486131493.33972 | pgbench_accounts |      13429514240
 2017-02-03 15:18:13.339715+01 | 1486131493.33972 | pgbench_tellers  |           450560
 2017-02-03 15:18:13.339715+01 | 1486131493.33972 | pgbench_history  |                0
 2017-02-03 15:18:13.339715+01 | 1486131493.33972 | pgbench_branches |            40960

 2017-02-03 15:18:14.417999+01 | 1486131494.418 | pgbench_accounts |      13429514240
 2017-02-03 15:18:14.417999+01 | 1486131494.418 | pgbench_tellers  |           450560
 2017-02-03 15:18:14.417999+01 | 1486131494.418 | pgbench_history  |                0
 2017-02-03 15:18:14.417999+01 | 1486131494.418 | pgbench_branches |            40960

 2017-02-03 15:18:15.488037+01 | 1486131495.48804 | pgbench_accounts |      13429514240
 2017-02-03 15:18:15.488037+01 | 1486131495.48804 | pgbench_tellers  |           450560
 2017-02-03 15:18:15.488037+01 | 1486131495.48804 | pgbench_history  |                0
 2017-02-03 15:18:15.488037+01 | 1486131495.48804 | pgbench_branches |            40960

 2017-02-03 15:18:16.570478+01 | 1486131496.57048 | pgbench_accounts |      13429514240
 2017-02-03 15:18:16.570478+01 | 1486131496.57048 | pgbench_tellers  |           450560
 2017-02-03 15:18:16.570478+01 | 1486131496.57048 | pgbench_history  |                0
 2017-02-03 15:18:16.570478+01 | 1486131496.57048 | pgbench_branches |            40960

 2017-02-03 15:18:17.652534+01 | 1486131497.65253 | pgbench_accounts |      13429514240
 2017-02-03 15:18:17.652534+01 | 1486131497.65253 | pgbench_tellers  |           450560
 2017-02-03 15:18:17.652534+01 | 1486131497.65253 | pgbench_history  |                0
 2017-02-03 15:18:17.652534+01 | 1486131497.65253 | pgbench_branches |            40960

 2017-02-03 15:18:18.74391+01 | 1486131498.74391 | pgbench_accounts |      13429514240
 2017-02-03 15:18:18.74391+01 | 1486131498.74391 | pgbench_tellers  |           450560
 2017-02-03 15:18:18.74391+01 | 1486131498.74391 | pgbench_history  |                0
 2017-02-03 15:18:18.74391+01 | 1486131498.74391 | pgbench_branches |            40960

 2017-02-03 15:18:19.825967+01 | 1486131499.82597 | pgbench_accounts |      13429514240
 2017-02-03 15:18:19.825967+01 | 1486131499.82597 | pgbench_tellers  |           450560
 2017-02-03 15:18:19.825967+01 | 1486131499.82597 | pgbench_history  |                0
 2017-02-03 15:18:19.825967+01 | 1486131499.82597 | pgbench_branches |            40960

 2017-02-03 15:18:20.903441+01 | 1486131500.90344 | pgbench_accounts |      13429514240
 2017-02-03 15:18:20.903441+01 | 1486131500.90344 | pgbench_tellers  |           450560
 2017-02-03 15:18:20.903441+01 | 1486131500.90344 | pgbench_history  |                0
 2017-02-03 15:18:20.903441+01 | 1486131500.90344 | pgbench_branches |            40960

 2017-02-03 15:18:21.985027+01 | 1486131501.98503 | pgbench_accounts |      13429514240
 2017-02-03 15:18:21.985027+01 | 1486131501.98503 | pgbench_tellers  |           450560
 2017-02-03 15:18:21.985027+01 | 1486131501.98503 | pgbench_history  |                0
 2017-02-03 15:18:21.985027+01 | 1486131501.98503 | pgbench_branches |            40960

 2017-02-03 15:18:23.06871+01 | 1486131503.06871 | pgbench_accounts |      13429514240
 2017-02-03 15:18:23.06871+01 | 1486131503.06871 | pgbench_tellers  |           450560
 2017-02-03 15:18:23.06871+01 | 1486131503.06871 | pgbench_history  |                0
 2017-02-03 15:18:23.06871+01 | 1486131503.06871 | pgbench_branches |            40960

 2017-02-03 15:18:24.151155+01 | 1486131504.15115 | pgbench_accounts |      13429514240
 2017-02-03 15:18:24.151155+01 | 1486131504.15115 | pgbench_tellers  |           450560
 2017-02-03 15:18:24.151155+01 | 1486131504.15115 | pgbench_history  |                0
 2017-02-03 15:18:24.151155+01 | 1486131504.15115 | pgbench_branches |            40960

 2017-02-03 15:18:25.225182+01 | 1486131505.22518 | pgbench_accounts |      13429514240
 2017-02-03 15:18:25.225182+01 | 1486131505.22518 | pgbench_tellers  |           450560
 2017-02-03 15:18:25.225182+01 | 1486131505.22518 | pgbench_history  |                0
 2017-02-03 15:18:25.225182+01 | 1486131505.22518 | pgbench_branches |            40960

 2017-02-03 15:18:26.302507+01 | 1486131506.30251 | pgbench_accounts |      13429514240
 2017-02-03 15:18:26.302507+01 | 1486131506.30251 | pgbench_tellers  |           450560
 2017-02-03 15:18:26.302507+01 | 1486131506.30251 | pgbench_history  |                0
 2017-02-03 15:18:26.302507+01 | 1486131506.30251 | pgbench_branches |            40960

 2017-02-03 15:18:27.37334+01 | 1486131507.37334 | pgbench_accounts |      13429514240
 2017-02-03 15:18:27.37334+01 | 1486131507.37334 | pgbench_tellers  |           450560
 2017-02-03 15:18:27.37334+01 | 1486131507.37334 | pgbench_history  |                0
 2017-02-03 15:18:27.37334+01 | 1486131507.37334 | pgbench_branches |            40960

 2017-02-03 15:18:28.450246+01 | 1486131508.45025 | pgbench_accounts |      13429514240
 2017-02-03 15:18:28.450246+01 | 1486131508.45025 | pgbench_tellers  |           450560
 2017-02-03 15:18:28.450246+01 | 1486131508.45025 | pgbench_history  |                0
 2017-02-03 15:18:28.450246+01 | 1486131508.45025 | pgbench_branches |            40960

 2017-02-03 15:18:29.530147+01 | 1486131509.53015 | pgbench_accounts |      13429514240
 2017-02-03 15:18:29.530147+01 | 1486131509.53015 | pgbench_tellers  |           450560
 2017-02-03 15:18:29.530147+01 | 1486131509.53015 | pgbench_history  |                0
 2017-02-03 15:18:29.530147+01 | 1486131509.53015 | pgbench_branches |            40960

 2017-02-03 15:18:30.609899+01 | 1486131510.6099 | pgbench_accounts |      13429514240
 2017-02-03 15:18:30.609899+01 | 1486131510.6099 | pgbench_tellers  |           450560
 2017-02-03 15:18:30.609899+01 | 1486131510.6099 | pgbench_history  |                0
 2017-02-03 15:18:30.609899+01 | 1486131510.6099 | pgbench_branches |            40960

 2017-02-03 15:18:31.687564+01 | 1486131511.68756 | pgbench_accounts |      13429514240
 2017-02-03 15:18:31.687564+01 | 1486131511.68756 | pgbench_tellers  |           450560
 2017-02-03 15:18:31.687564+01 | 1486131511.68756 | pgbench_history  |                0
 2017-02-03 15:18:31.687564+01 | 1486131511.68756 | pgbench_branches |            40960

 2017-02-03 15:18:32.770708+01 | 1486131512.77071 | pgbench_accounts |      13429514240
 2017-02-03 15:18:32.770708+01 | 1486131512.77071 | pgbench_tellers  |           450560
 2017-02-03 15:18:32.770708+01 | 1486131512.77071 | pgbench_history  |                0
 2017-02-03 15:18:32.770708+01 | 1486131512.77071 | pgbench_branches |            40960

 2017-02-03 15:18:33.856497+01 | 1486131513.8565 | pgbench_accounts |      13429514240
 2017-02-03 15:18:33.856497+01 | 1486131513.8565 | pgbench_tellers  |           450560
 2017-02-03 15:18:33.856497+01 | 1486131513.8565 | pgbench_history  |                0
 2017-02-03 15:18:33.856497+01 | 1486131513.8565 | pgbench_branches |            40960

 2017-02-03 15:18:34.938273+01 | 1486131514.93827 | pgbench_accounts |      13429514240
 2017-02-03 15:18:34.938273+01 | 1486131514.93827 | pgbench_tellers  |           450560
 2017-02-03 15:18:34.938273+01 | 1486131514.93827 | pgbench_history  |                0
 2017-02-03 15:18:34.938273+01 | 1486131514.93827 | pgbench_branches |            40960

 2017-02-03 15:18:36.017439+01 | 1486131516.01744 | pgbench_accounts |      13429514240
 2017-02-03 15:18:36.017439+01 | 1486131516.01744 | pgbench_tellers  |           450560
 2017-02-03 15:18:36.017439+01 | 1486131516.01744 | pgbench_history  |                0
 2017-02-03 15:18:36.017439+01 | 1486131516.01744 | pgbench_branches |            40960

 2017-02-03 15:18:37.099495+01 | 1486131517.09949 | pgbench_accounts |      13429514240
 2017-02-03 15:18:37.099495+01 | 1486131517.09949 | pgbench_tellers  |           450560
 2017-02-03 15:18:37.099495+01 | 1486131517.09949 | pgbench_history  |                0
 2017-02-03 15:18:37.099495+01 | 1486131517.09949 | pgbench_branches |            40960

 2017-02-03 15:18:38.176501+01 | 1486131518.1765 | pgbench_accounts |      13429514240
 2017-02-03 15:18:38.176501+01 | 1486131518.1765 | pgbench_tellers  |           450560
 2017-02-03 15:18:38.176501+01 | 1486131518.1765 | pgbench_history  |                0
 2017-02-03 15:18:38.176501+01 | 1486131518.1765 | pgbench_branches |            40960

 2017-02-03 15:18:39.245809+01 | 1486131519.24581 | pgbench_accounts |      13429514240
 2017-02-03 15:18:39.245809+01 | 1486131519.24581 | pgbench_tellers  |           450560
 2017-02-03 15:18:39.245809+01 | 1486131519.24581 | pgbench_history  |                0
 2017-02-03 15:18:39.245809+01 | 1486131519.24581 | pgbench_branches |            40960

 2017-02-03 15:18:40.321161+01 | 1486131520.32116 | pgbench_accounts |      13429514240
 2017-02-03 15:18:40.321161+01 | 1486131520.32116 | pgbench_tellers  |           450560
 2017-02-03 15:18:40.321161+01 | 1486131520.32116 | pgbench_history  |                0
 2017-02-03 15:18:40.321161+01 | 1486131520.32116 | pgbench_branches |            40960

 2017-02-03 15:18:41.394819+01 | 1486131521.39482 | pgbench_accounts |      13429514240
 2017-02-03 15:18:41.394819+01 | 1486131521.39482 | pgbench_tellers  |           450560
 2017-02-03 15:18:41.394819+01 | 1486131521.39482 | pgbench_history  |                0
 2017-02-03 15:18:41.394819+01 | 1486131521.39482 | pgbench_branches |            40960

 2017-02-03 15:18:42.467948+01 | 1486131522.46795 | pgbench_accounts |      13429514240
 2017-02-03 15:18:42.467948+01 | 1486131522.46795 | pgbench_tellers  |           450560
 2017-02-03 15:18:42.467948+01 | 1486131522.46795 | pgbench_history  |                0
 2017-02-03 15:18:42.467948+01 | 1486131522.46795 | pgbench_branches |            40960

 2017-02-03 15:18:43.540267+01 | 1486131523.54027 | pgbench_accounts |      13429514240
 2017-02-03 15:18:43.540267+01 | 1486131523.54027 | pgbench_tellers  |           450560
 2017-02-03 15:18:43.540267+01 | 1486131523.54027 | pgbench_history  |                0
 2017-02-03 15:18:43.540267+01 | 1486131523.54027 | pgbench_branches |            40960

 2017-02-03 15:18:44.616224+01 | 1486131524.61622 | pgbench_accounts |      13429514240
 2017-02-03 15:18:44.616224+01 | 1486131524.61622 | pgbench_tellers  |           450560
 2017-02-03 15:18:44.616224+01 | 1486131524.61622 | pgbench_history  |                0
 2017-02-03 15:18:44.616224+01 | 1486131524.61622 | pgbench_branches |            40960

 2017-02-03 15:18:45.695417+01 | 1486131525.69542 | pgbench_accounts |      13429514240
 2017-02-03 15:18:45.695417+01 | 1486131525.69542 | pgbench_tellers  |           450560
 2017-02-03 15:18:45.695417+01 | 1486131525.69542 | pgbench_history  |                0
 2017-02-03 15:18:45.695417+01 | 1486131525.69542 | pgbench_branches |            40960

 2017-02-03 15:18:46.773297+01 | 1486131526.7733 | pgbench_accounts |      13429514240
 2017-02-03 15:18:46.773297+01 | 1486131526.7733 | pgbench_tellers  |           450560
 2017-02-03 15:18:46.773297+01 | 1486131526.7733 | pgbench_history  |                0
 2017-02-03 15:18:46.773297+01 | 1486131526.7733 | pgbench_branches |            40960

 2017-02-03 15:18:47.85389+01 | 1486131527.85389 | pgbench_accounts |      13429514240
 2017-02-03 15:18:47.85389+01 | 1486131527.85389 | pgbench_tellers  |           450560
 2017-02-03 15:18:47.85389+01 | 1486131527.85389 | pgbench_history  |                0
 2017-02-03 15:18:47.85389+01 | 1486131527.85389 | pgbench_branches |            40960

 2017-02-03 15:18:48.933568+01 | 1486131528.93357 | pgbench_accounts |      13429514240
 2017-02-03 15:18:48.933568+01 | 1486131528.93357 | pgbench_tellers  |           450560
 2017-02-03 15:18:48.933568+01 | 1486131528.93357 | pgbench_history  |                0
 2017-02-03 15:18:48.933568+01 | 1486131528.93357 | pgbench_branches |            40960

 2017-02-03 15:18:50.018762+01 | 1486131530.01876 | pgbench_accounts |      13429514240
 2017-02-03 15:18:50.018762+01 | 1486131530.01876 | pgbench_tellers  |           450560
 2017-02-03 15:18:50.018762+01 | 1486131530.01876 | pgbench_history  |                0
 2017-02-03 15:18:50.018762+01 | 1486131530.01876 | pgbench_branches |            40960

 2017-02-03 15:18:51.107464+01 | 1486131531.10746 | pgbench_accounts |      13429514240
 2017-02-03 15:18:51.107464+01 | 1486131531.10746 | pgbench_tellers  |           450560
 2017-02-03 15:18:51.107464+01 | 1486131531.10746 | pgbench_history  |                0
 2017-02-03 15:18:51.107464+01 | 1486131531.10746 | pgbench_branches |            40960

 2017-02-03 15:18:52.189948+01 | 1486131532.18995 | pgbench_accounts |      13429514240
 2017-02-03 15:18:52.189948+01 | 1486131532.18995 | pgbench_tellers  |           450560
 2017-02-03 15:18:52.189948+01 | 1486131532.18995 | pgbench_history  |                0
 2017-02-03 15:18:52.189948+01 | 1486131532.18995 | pgbench_branches |            40960

 2017-02-03 15:18:53.284489+01 | 1486131533.28449 | pgbench_accounts |      13429514240
 2017-02-03 15:18:53.284489+01 | 1486131533.28449 | pgbench_tellers  |           450560
 2017-02-03 15:18:53.284489+01 | 1486131533.28449 | pgbench_history  |                0
 2017-02-03 15:18:53.284489+01 | 1486131533.28449 | pgbench_branches |            40960

 2017-02-03 15:18:54.363872+01 | 1486131534.36387 | pgbench_accounts |      13429514240
 2017-02-03 15:18:54.363872+01 | 1486131534.36387 | pgbench_tellers  |           450560
 2017-02-03 15:18:54.363872+01 | 1486131534.36387 | pgbench_history  |                0
 2017-02-03 15:18:54.363872+01 | 1486131534.36387 | pgbench_branches |            40960

 2017-02-03 15:18:55.451077+01 | 1486131535.45108 | pgbench_accounts |      13429514240
 2017-02-03 15:18:55.451077+01 | 1486131535.45108 | pgbench_tellers  |           450560
 2017-02-03 15:18:55.451077+01 | 1486131535.45108 | pgbench_history  |                0
 2017-02-03 15:18:55.451077+01 | 1486131535.45108 | pgbench_branches |            40960

 2017-02-03 15:18:56.531689+01 | 1486131536.53169 | pgbench_accounts |      13429514240
 2017-02-03 15:18:56.531689+01 | 1486131536.53169 | pgbench_tellers  |           450560
 2017-02-03 15:18:56.531689+01 | 1486131536.53169 | pgbench_history  |                0
 2017-02-03 15:18:56.531689+01 | 1486131536.53169 | pgbench_branches |            40960

 2017-02-03 15:18:57.61085+01 | 1486131537.61085 | pgbench_accounts |      13429514240
 2017-02-03 15:18:57.61085+01 | 1486131537.61085 | pgbench_tellers  |           450560
 2017-02-03 15:18:57.61085+01 | 1486131537.61085 | pgbench_history  |                0
 2017-02-03 15:18:57.61085+01 | 1486131537.61085 | pgbench_branches |            40960

 2017-02-03 15:18:58.688382+01 | 1486131538.68838 | pgbench_accounts |      13429514240
 2017-02-03 15:18:58.688382+01 | 1486131538.68838 | pgbench_tellers  |           450560
 2017-02-03 15:18:58.688382+01 | 1486131538.68838 | pgbench_history  |                0
 2017-02-03 15:18:58.688382+01 | 1486131538.68838 | pgbench_branches |            40960

 2017-02-03 15:18:59.775832+01 | 1486131539.77583 | pgbench_accounts |      13429514240
 2017-02-03 15:18:59.775832+01 | 1486131539.77583 | pgbench_tellers  |           450560
 2017-02-03 15:18:59.775832+01 | 1486131539.77583 | pgbench_history  |                0
 2017-02-03 15:18:59.775832+01 | 1486131539.77583 | pgbench_branches |            40960

 2017-02-03 15:19:00.852164+01 | 1486131540.85216 | pgbench_accounts |      13429514240
 2017-02-03 15:19:00.852164+01 | 1486131540.85216 | pgbench_tellers  |           450560
 2017-02-03 15:19:00.852164+01 | 1486131540.85216 | pgbench_history  |                0
 2017-02-03 15:19:00.852164+01 | 1486131540.85216 | pgbench_branches |            40960

 2017-02-03 15:19:01.92701+01 | 1486131541.92701 | pgbench_accounts |      13429514240
 2017-02-03 15:19:01.92701+01 | 1486131541.92701 | pgbench_tellers  |           450560
 2017-02-03 15:19:01.92701+01 | 1486131541.92701 | pgbench_history  |                0
 2017-02-03 15:19:01.92701+01 | 1486131541.92701 | pgbench_branches |            40960

 2017-02-03 15:19:03.00766+01 | 1486131543.00766 | pgbench_accounts |      13429514240
 2017-02-03 15:19:03.00766+01 | 1486131543.00766 | pgbench_tellers  |           450560
 2017-02-03 15:19:03.00766+01 | 1486131543.00766 | pgbench_history  |                0
 2017-02-03 15:19:03.00766+01 | 1486131543.00766 | pgbench_branches |            40960

 2017-02-03 15:19:04.087499+01 | 1486131544.0875 | pgbench_accounts |      13429514240
 2017-02-03 15:19:04.087499+01 | 1486131544.0875 | pgbench_tellers  |           450560
 2017-02-03 15:19:04.087499+01 | 1486131544.0875 | pgbench_history  |                0
 2017-02-03 15:19:04.087499+01 | 1486131544.0875 | pgbench_branches |            40960

 2017-02-03 15:19:05.166282+01 | 1486131545.16628 | pgbench_accounts |      13429514240
 2017-02-03 15:19:05.166282+01 | 1486131545.16628 | pgbench_tellers  |           450560
 2017-02-03 15:19:05.166282+01 | 1486131545.16628 | pgbench_history  |                0
 2017-02-03 15:19:05.166282+01 | 1486131545.16628 | pgbench_branches |            40960

 2017-02-03 15:19:06.248523+01 | 1486131546.24852 | pgbench_accounts |      13429514240
 2017-02-03 15:19:06.248523+01 | 1486131546.24852 | pgbench_tellers  |           450560
 2017-02-03 15:19:06.248523+01 | 1486131546.24852 | pgbench_history  |                0
 2017-02-03 15:19:06.248523+01 | 1486131546.24852 | pgbench_branches |            40960

 2017-02-03 15:19:07.331926+01 | 1486131547.33193 | pgbench_accounts |      13429514240
 2017-02-03 15:19:07.331926+01 | 1486131547.33193 | pgbench_tellers  |           450560
 2017-02-03 15:19:07.331926+01 | 1486131547.33193 | pgbench_history  |                0
 2017-02-03 15:19:07.331926+01 | 1486131547.33193 | pgbench_branches |            40960

 2017-02-03 15:19:08.425394+01 | 1486131548.42539 | pgbench_accounts |      13429514240
 2017-02-03 15:19:08.425394+01 | 1486131548.42539 | pgbench_tellers  |           450560
 2017-02-03 15:19:08.425394+01 | 1486131548.42539 | pgbench_history  |                0
 2017-02-03 15:19:08.425394+01 | 1486131548.42539 | pgbench_branches |            40960

 2017-02-03 15:19:09.504169+01 | 1486131549.50417 | pgbench_accounts |      13429514240
 2017-02-03 15:19:09.504169+01 | 1486131549.50417 | pgbench_tellers  |           450560
 2017-02-03 15:19:09.504169+01 | 1486131549.50417 | pgbench_history  |                0
 2017-02-03 15:19:09.504169+01 | 1486131549.50417 | pgbench_branches |            40960

 2017-02-03 15:19:10.586921+01 | 1486131550.58692 | pgbench_accounts |      13429514240
 2017-02-03 15:19:10.586921+01 | 1486131550.58692 | pgbench_tellers  |           450560
 2017-02-03 15:19:10.586921+01 | 1486131550.58692 | pgbench_history  |                0
 2017-02-03 15:19:10.586921+01 | 1486131550.58692 | pgbench_branches |            40960

 2017-02-03 15:19:11.661014+01 | 1486131551.66101 | pgbench_accounts |      13429514240
 2017-02-03 15:19:11.661014+01 | 1486131551.66101 | pgbench_tellers  |           450560
 2017-02-03 15:19:11.661014+01 | 1486131551.66101 | pgbench_history  |                0
 2017-02-03 15:19:11.661014+01 | 1486131551.66101 | pgbench_branches |            40960

 2017-02-03 15:19:12.735307+01 | 1486131552.73531 | pgbench_accounts |      13429514240
 2017-02-03 15:19:12.735307+01 | 1486131552.73531 | pgbench_tellers  |           450560
 2017-02-03 15:19:12.735307+01 | 1486131552.73531 | pgbench_history  |                0
 2017-02-03 15:19:12.735307+01 | 1486131552.73531 | pgbench_branches |            40960

 2017-02-03 15:19:13.814622+01 | 1486131553.81462 | pgbench_accounts |      13429514240
 2017-02-03 15:19:13.814622+01 | 1486131553.81462 | pgbench_tellers  |           450560
 2017-02-03 15:19:13.814622+01 | 1486131553.81462 | pgbench_history  |                0
 2017-02-03 15:19:13.814622+01 | 1486131553.81462 | pgbench_branches |            40960

 2017-02-03 15:19:14.888205+01 | 1486131554.88821 | pgbench_accounts |      13429514240
 2017-02-03 15:19:14.888205+01 | 1486131554.88821 | pgbench_tellers  |           450560
 2017-02-03 15:19:14.888205+01 | 1486131554.88821 | pgbench_history  |                0
 2017-02-03 15:19:14.888205+01 | 1486131554.88821 | pgbench_branches |            40960

 2017-02-03 15:19:15.970951+01 | 1486131555.97095 | pgbench_accounts |      13429514240
 2017-02-03 15:19:15.970951+01 | 1486131555.97095 | pgbench_tellers  |           450560
 2017-02-03 15:19:15.970951+01 | 1486131555.97095 | pgbench_history  |                0
 2017-02-03 15:19:15.970951+01 | 1486131555.97095 | pgbench_branches |            40960

 2017-02-03 15:19:17.046944+01 | 1486131557.04694 | pgbench_accounts |      13429514240
 2017-02-03 15:19:17.046944+01 | 1486131557.04694 | pgbench_tellers  |           450560
 2017-02-03 15:19:17.046944+01 | 1486131557.04694 | pgbench_history  |                0
 2017-02-03 15:19:17.046944+01 | 1486131557.04694 | pgbench_branches |            40960

 2017-02-03 15:19:18.131423+01 | 1486131558.13142 | pgbench_accounts |      13429514240
 2017-02-03 15:19:18.131423+01 | 1486131558.13142 | pgbench_tellers  |           450560
 2017-02-03 15:19:18.131423+01 | 1486131558.13142 | pgbench_history  |                0
 2017-02-03 15:19:18.131423+01 | 1486131558.13142 | pgbench_branches |            40960

 2017-02-03 15:19:19.209969+01 | 1486131559.20997 | pgbench_accounts |      13429514240
 2017-02-03 15:19:19.209969+01 | 1486131559.20997 | pgbench_tellers  |           450560
 2017-02-03 15:19:19.209969+01 | 1486131559.20997 | pgbench_history  |                0
 2017-02-03 15:19:19.209969+01 | 1486131559.20997 | pgbench_branches |            40960

 2017-02-03 15:19:20.286772+01 | 1486131560.28677 | pgbench_accounts |      13429514240
 2017-02-03 15:19:20.286772+01 | 1486131560.28677 | pgbench_tellers  |           450560
 2017-02-03 15:19:20.286772+01 | 1486131560.28677 | pgbench_history  |                0
 2017-02-03 15:19:20.286772+01 | 1486131560.28677 | pgbench_branches |            40960

 2017-02-03 15:19:21.370781+01 | 1486131561.37078 | pgbench_accounts |      13429514240
 2017-02-03 15:19:21.370781+01 | 1486131561.37078 | pgbench_tellers  |           450560
 2017-02-03 15:19:21.370781+01 | 1486131561.37078 | pgbench_history  |                0
 2017-02-03 15:19:21.370781+01 | 1486131561.37078 | pgbench_branches |            40960

 2017-02-03 15:19:22.449769+01 | 1486131562.44977 | pgbench_accounts |      13429514240
 2017-02-03 15:19:22.449769+01 | 1486131562.44977 | pgbench_tellers  |           450560
 2017-02-03 15:19:22.449769+01 | 1486131562.44977 | pgbench_history  |                0
 2017-02-03 15:19:22.449769+01 | 1486131562.44977 | pgbench_branches |            40960

 2017-02-03 15:19:23.526818+01 | 1486131563.52682 | pgbench_accounts |      13429514240
 2017-02-03 15:19:23.526818+01 | 1486131563.52682 | pgbench_tellers  |           450560
 2017-02-03 15:19:23.526818+01 | 1486131563.52682 | pgbench_history  |                0
 2017-02-03 15:19:23.526818+01 | 1486131563.52682 | pgbench_branches |            40960

 2017-02-03 15:19:24.600704+01 | 1486131564.6007 | pgbench_accounts |      13429514240
 2017-02-03 15:19:24.600704+01 | 1486131564.6007 | pgbench_tellers  |           450560
 2017-02-03 15:19:24.600704+01 | 1486131564.6007 | pgbench_history  |                0
 2017-02-03 15:19:24.600704+01 | 1486131564.6007 | pgbench_branches |            40960

 2017-02-03 15:19:25.67375+01 | 1486131565.67375 | pgbench_accounts |      13429514240
 2017-02-03 15:19:25.67375+01 | 1486131565.67375 | pgbench_tellers  |           450560
 2017-02-03 15:19:25.67375+01 | 1486131565.67375 | pgbench_history  |                0
 2017-02-03 15:19:25.67375+01 | 1486131565.67375 | pgbench_branches |            40960

 2017-02-03 15:19:26.756932+01 | 1486131566.75693 | pgbench_accounts |      13429514240
 2017-02-03 15:19:26.756932+01 | 1486131566.75693 | pgbench_tellers  |           450560
 2017-02-03 15:19:26.756932+01 | 1486131566.75693 | pgbench_history  |                0
 2017-02-03 15:19:26.756932+01 | 1486131566.75693 | pgbench_branches |            40960

 2017-02-03 15:19:27.836304+01 | 1486131567.8363 | pgbench_accounts |      13429514240
 2017-02-03 15:19:27.836304+01 | 1486131567.8363 | pgbench_tellers  |           450560
 2017-02-03 15:19:27.836304+01 | 1486131567.8363 | pgbench_history  |                0
 2017-02-03 15:19:27.836304+01 | 1486131567.8363 | pgbench_branches |            40960

 2017-02-03 15:19:28.911266+01 | 1486131568.91127 | pgbench_accounts |      13429514240
 2017-02-03 15:19:28.911266+01 | 1486131568.91127 | pgbench_tellers  |           450560
 2017-02-03 15:19:28.911266+01 | 1486131568.91127 | pgbench_history  |                0
 2017-02-03 15:19:28.911266+01 | 1486131568.91127 | pgbench_branches |            40960

 2017-02-03 15:19:29.990553+01 | 1486131569.99055 | pgbench_accounts |      13429514240
 2017-02-03 15:19:29.990553+01 | 1486131569.99055 | pgbench_tellers  |           450560
 2017-02-03 15:19:29.990553+01 | 1486131569.99055 | pgbench_history  |                0
 2017-02-03 15:19:29.990553+01 | 1486131569.99055 | pgbench_branches |            40960

 2017-02-03 15:19:31.077905+01 | 1486131571.0779 | pgbench_accounts |      13429514240
 2017-02-03 15:19:31.077905+01 | 1486131571.0779 | pgbench_tellers  |           450560
 2017-02-03 15:19:31.077905+01 | 1486131571.0779 | pgbench_history  |                0
 2017-02-03 15:19:31.077905+01 | 1486131571.0779 | pgbench_branches |            40960

 2017-02-03 15:19:32.164902+01 | 1486131572.1649 | pgbench_accounts |      13429514240
 2017-02-03 15:19:32.164902+01 | 1486131572.1649 | pgbench_tellers  |           450560
 2017-02-03 15:19:32.164902+01 | 1486131572.1649 | pgbench_history  |                0
 2017-02-03 15:19:32.164902+01 | 1486131572.1649 | pgbench_branches |            40960

 2017-02-03 15:19:33.24227+01 | 1486131573.24227 | pgbench_accounts |      13429514240
 2017-02-03 15:19:33.24227+01 | 1486131573.24227 | pgbench_tellers  |           450560
 2017-02-03 15:19:33.24227+01 | 1486131573.24227 | pgbench_history  |                0
 2017-02-03 15:19:33.24227+01 | 1486131573.24227 | pgbench_branches |            40960

 2017-02-03 15:19:34.31609+01 | 1486131574.31609 | pgbench_accounts |      13429514240
 2017-02-03 15:19:34.31609+01 | 1486131574.31609 | pgbench_tellers  |           450560
 2017-02-03 15:19:34.31609+01 | 1486131574.31609 | pgbench_history  |                0
 2017-02-03 15:19:34.31609+01 | 1486131574.31609 | pgbench_branches |            40960

 2017-02-03 15:19:35.39935+01 | 1486131575.39935 | pgbench_accounts |      13429514240
 2017-02-03 15:19:35.39935+01 | 1486131575.39935 | pgbench_tellers  |           450560
 2017-02-03 15:19:35.39935+01 | 1486131575.39935 | pgbench_history  |                0
 2017-02-03 15:19:35.39935+01 | 1486131575.39935 | pgbench_branches |            40960

 2017-02-03 15:19:36.477207+01 | 1486131576.47721 | pgbench_accounts |      13429514240
 2017-02-03 15:19:36.477207+01 | 1486131576.47721 | pgbench_tellers  |           450560
 2017-02-03 15:19:36.477207+01 | 1486131576.47721 | pgbench_history  |                0
 2017-02-03 15:19:36.477207+01 | 1486131576.47721 | pgbench_branches |            40960

 2017-02-03 15:19:37.553437+01 | 1486131577.55344 | pgbench_accounts |      13429514240
 2017-02-03 15:19:37.553437+01 | 1486131577.55344 | pgbench_tellers  |           450560
 2017-02-03 15:19:37.553437+01 | 1486131577.55344 | pgbench_history  |                0
 2017-02-03 15:19:37.553437+01 | 1486131577.55344 | pgbench_branches |            40960

 2017-02-03 15:19:38.629827+01 | 1486131578.62983 | pgbench_accounts |      13429514240
 2017-02-03 15:19:38.629827+01 | 1486131578.62983 | pgbench_tellers  |           450560
 2017-02-03 15:19:38.629827+01 | 1486131578.62983 | pgbench_history  |                0
 2017-02-03 15:19:38.629827+01 | 1486131578.62983 | pgbench_branches |            40960

 2017-02-03 15:19:39.717444+01 | 1486131579.71744 | pgbench_accounts |      13429514240
 2017-02-03 15:19:39.717444+01 | 1486131579.71744 | pgbench_tellers  |           450560
 2017-02-03 15:19:39.717444+01 | 1486131579.71744 | pgbench_history  |                0
 2017-02-03 15:19:39.717444+01 | 1486131579.71744 | pgbench_branches |            40960

 2017-02-03 15:19:40.793926+01 | 1486131580.79393 | pgbench_accounts |      13429514240
 2017-02-03 15:19:40.793926+01 | 1486131580.79393 | pgbench_tellers  |           450560
 2017-02-03 15:19:40.793926+01 | 1486131580.79393 | pgbench_history  |                0
 2017-02-03 15:19:40.793926+01 | 1486131580.79393 | pgbench_branches |            40960

 2017-02-03 15:19:41.870971+01 | 1486131581.87097 | pgbench_accounts |      13429514240
 2017-02-03 15:19:41.870971+01 | 1486131581.87097 | pgbench_tellers  |           450560
 2017-02-03 15:19:41.870971+01 | 1486131581.87097 | pgbench_history  |                0
 2017-02-03 15:19:41.870971+01 | 1486131581.87097 | pgbench_branches |            40960

 2017-02-03 15:19:42.94883+01 | 1486131582.94883 | pgbench_accounts |      13429514240
 2017-02-03 15:19:42.94883+01 | 1486131582.94883 | pgbench_tellers  |           450560
 2017-02-03 15:19:42.94883+01 | 1486131582.94883 | pgbench_history  |                0
 2017-02-03 15:19:42.94883+01 | 1486131582.94883 | pgbench_branches |            40960

 2017-02-03 15:19:44.034642+01 | 1486131584.03464 | pgbench_accounts |      13429514240
 2017-02-03 15:19:44.034642+01 | 1486131584.03464 | pgbench_tellers  |           450560
 2017-02-03 15:19:44.034642+01 | 1486131584.03464 | pgbench_history  |                0
 2017-02-03 15:19:44.034642+01 | 1486131584.03464 | pgbench_branches |            40960

 2017-02-03 15:19:45.117377+01 | 1486131585.11738 | pgbench_accounts |      13429514240
 2017-02-03 15:19:45.117377+01 | 1486131585.11738 | pgbench_tellers  |           450560
 2017-02-03 15:19:45.117377+01 | 1486131585.11738 | pgbench_history  |                0
 2017-02-03 15:19:45.117377+01 | 1486131585.11738 | pgbench_branches |            40960

 2017-02-03 15:19:46.198345+01 | 1486131586.19834 | pgbench_accounts |      13429514240
 2017-02-03 15:19:46.198345+01 | 1486131586.19834 | pgbench_tellers  |           450560
 2017-02-03 15:19:46.198345+01 | 1486131586.19834 | pgbench_history  |                0
 2017-02-03 15:19:46.198345+01 | 1486131586.19834 | pgbench_branches |            40960

 2017-02-03 15:19:47.278713+01 | 1486131587.27871 | pgbench_accounts |      13429514240
 2017-02-03 15:19:47.278713+01 | 1486131587.27871 | pgbench_tellers  |           450560
 2017-02-03 15:19:47.278713+01 | 1486131587.27871 | pgbench_history  |                0
 2017-02-03 15:19:47.278713+01 | 1486131587.27871 | pgbench_branches |            40960

 2017-02-03 15:19:48.354328+01 | 1486131588.35433 | pgbench_accounts |      13429514240
 2017-02-03 15:19:48.354328+01 | 1486131588.35433 | pgbench_tellers  |           450560
 2017-02-03 15:19:48.354328+01 | 1486131588.35433 | pgbench_history  |                0
 2017-02-03 15:19:48.354328+01 | 1486131588.35433 | pgbench_branches |            40960

 2017-02-03 15:19:49.438727+01 | 1486131589.43873 | pgbench_accounts |      13429514240
 2017-02-03 15:19:49.438727+01 | 1486131589.43873 | pgbench_tellers  |           450560
 2017-02-03 15:19:49.438727+01 | 1486131589.43873 | pgbench_history  |                0
 2017-02-03 15:19:49.438727+01 | 1486131589.43873 | pgbench_branches |            40960

 2017-02-03 15:19:50.516122+01 | 1486131590.51612 | pgbench_accounts |      13429514240
 2017-02-03 15:19:50.516122+01 | 1486131590.51612 | pgbench_tellers  |           450560
 2017-02-03 15:19:50.516122+01 | 1486131590.51612 | pgbench_history  |                0
 2017-02-03 15:19:50.516122+01 | 1486131590.51612 | pgbench_branches |            40960

 2017-02-03 15:19:51.592476+01 | 1486131591.59248 | pgbench_accounts |      13429514240
 2017-02-03 15:19:51.592476+01 | 1486131591.59248 | pgbench_tellers  |           450560
 2017-02-03 15:19:51.592476+01 | 1486131591.59248 | pgbench_history  |                0
 2017-02-03 15:19:51.592476+01 | 1486131591.59248 | pgbench_branches |            40960

 2017-02-03 15:19:52.667049+01 | 1486131592.66705 | pgbench_accounts |      13429514240
 2017-02-03 15:19:52.667049+01 | 1486131592.66705 | pgbench_tellers  |           450560
 2017-02-03 15:19:52.667049+01 | 1486131592.66705 | pgbench_history  |                0
 2017-02-03 15:19:52.667049+01 | 1486131592.66705 | pgbench_branches |            40960

 2017-02-03 15:19:53.74423+01 | 1486131593.74423 | pgbench_accounts |      13429514240
 2017-02-03 15:19:53.74423+01 | 1486131593.74423 | pgbench_tellers  |           450560
 2017-02-03 15:19:53.74423+01 | 1486131593.74423 | pgbench_history  |                0
 2017-02-03 15:19:53.74423+01 | 1486131593.74423 | pgbench_branches |            40960

 2017-02-03 15:19:54.817949+01 | 1486131594.81795 | pgbench_accounts |      13429514240
 2017-02-03 15:19:54.817949+01 | 1486131594.81795 | pgbench_tellers  |           450560
 2017-02-03 15:19:54.817949+01 | 1486131594.81795 | pgbench_history  |                0
 2017-02-03 15:19:54.817949+01 | 1486131594.81795 | pgbench_branches |            40960

 2017-02-03 15:19:55.900007+01 | 1486131595.90001 | pgbench_accounts |      13429514240
 2017-02-03 15:19:55.900007+01 | 1486131595.90001 | pgbench_tellers  |           450560
 2017-02-03 15:19:55.900007+01 | 1486131595.90001 | pgbench_history  |                0
 2017-02-03 15:19:55.900007+01 | 1486131595.90001 | pgbench_branches |            40960

 2017-02-03 15:19:56.978056+01 | 1486131596.97806 | pgbench_accounts |      13429514240
 2017-02-03 15:19:56.978056+01 | 1486131596.97806 | pgbench_tellers  |           450560
 2017-02-03 15:19:56.978056+01 | 1486131596.97806 | pgbench_history  |                0
 2017-02-03 15:19:56.978056+01 | 1486131596.97806 | pgbench_branches |            40960

 2017-02-03 15:19:58.061186+01 | 1486131598.06119 | pgbench_accounts |      13429514240
 2017-02-03 15:19:58.061186+01 | 1486131598.06119 | pgbench_tellers  |           450560
 2017-02-03 15:19:58.061186+01 | 1486131598.06119 | pgbench_history  |                0
 2017-02-03 15:19:58.061186+01 | 1486131598.06119 | pgbench_branches |            40960

 2017-02-03 15:19:59.14549+01 | 1486131599.14549 | pgbench_accounts |      13429514240
 2017-02-03 15:19:59.14549+01 | 1486131599.14549 | pgbench_tellers  |           450560
 2017-02-03 15:19:59.14549+01 | 1486131599.14549 | pgbench_history  |                0
 2017-02-03 15:19:59.14549+01 | 1486131599.14549 | pgbench_branches |            40960

 2017-02-03 15:20:00.228156+01 | 1486131600.22816 | pgbench_accounts |      13429514240
 2017-02-03 15:20:00.228156+01 | 1486131600.22816 | pgbench_tellers  |           450560
 2017-02-03 15:20:00.228156+01 | 1486131600.22816 | pgbench_history  |                0
 2017-02-03 15:20:00.228156+01 | 1486131600.22816 | pgbench_branches |            40960

 2017-02-03 15:20:01.310075+01 | 1486131601.31008 | pgbench_accounts |      13429514240
 2017-02-03 15:20:01.310075+01 | 1486131601.31008 | pgbench_tellers  |           450560
 2017-02-03 15:20:01.310075+01 | 1486131601.31008 | pgbench_history  |                0
 2017-02-03 15:20:01.310075+01 | 1486131601.31008 | pgbench_branches |            40960

 2017-02-03 15:20:02.388665+01 | 1486131602.38866 | pgbench_accounts |      13429514240
 2017-02-03 15:20:02.388665+01 | 1486131602.38866 | pgbench_tellers  |           450560
 2017-02-03 15:20:02.388665+01 | 1486131602.38866 | pgbench_history  |                0
 2017-02-03 15:20:02.388665+01 | 1486131602.38866 | pgbench_branches |            40960

 2017-02-03 15:20:03.468408+01 | 1486131603.46841 | pgbench_accounts |      13429514240
 2017-02-03 15:20:03.468408+01 | 1486131603.46841 | pgbench_tellers  |           450560
 2017-02-03 15:20:03.468408+01 | 1486131603.46841 | pgbench_history  |                0
 2017-02-03 15:20:03.468408+01 | 1486131603.46841 | pgbench_branches |            40960

 2017-02-03 15:20:04.549301+01 | 1486131604.5493 | pgbench_accounts |      13429514240
 2017-02-03 15:20:04.549301+01 | 1486131604.5493 | pgbench_tellers  |           450560
 2017-02-03 15:20:04.549301+01 | 1486131604.5493 | pgbench_history  |                0
 2017-02-03 15:20:04.549301+01 | 1486131604.5493 | pgbench_branches |            40960

 2017-02-03 15:20:05.619936+01 | 1486131605.61994 | pgbench_accounts |      13429514240
 2017-02-03 15:20:05.619936+01 | 1486131605.61994 | pgbench_tellers  |           450560
 2017-02-03 15:20:05.619936+01 | 1486131605.61994 | pgbench_history  |                0
 2017-02-03 15:20:05.619936+01 | 1486131605.61994 | pgbench_branches |            40960

 2017-02-03 15:20:06.69956+01 | 1486131606.69956 | pgbench_accounts |      13429514240
 2017-02-03 15:20:06.69956+01 | 1486131606.69956 | pgbench_tellers  |           450560
 2017-02-03 15:20:06.69956+01 | 1486131606.69956 | pgbench_history  |                0
 2017-02-03 15:20:06.69956+01 | 1486131606.69956 | pgbench_branches |            40960

 2017-02-03 15:20:07.785947+01 | 1486131607.78595 | pgbench_accounts |      13429514240
 2017-02-03 15:20:07.785947+01 | 1486131607.78595 | pgbench_tellers  |           450560
 2017-02-03 15:20:07.785947+01 | 1486131607.78595 | pgbench_history  |                0
 2017-02-03 15:20:07.785947+01 | 1486131607.78595 | pgbench_branches |            40960

 2017-02-03 15:20:08.863677+01 | 1486131608.86368 | pgbench_accounts |      13429514240
 2017-02-03 15:20:08.863677+01 | 1486131608.86368 | pgbench_tellers  |           450560
 2017-02-03 15:20:08.863677+01 | 1486131608.86368 | pgbench_history  |                0
 2017-02-03 15:20:08.863677+01 | 1486131608.86368 | pgbench_branches |            40960

 2017-02-03 15:20:09.945621+01 | 1486131609.94562 | pgbench_accounts |      13429514240
 2017-02-03 15:20:09.945621+01 | 1486131609.94562 | pgbench_tellers  |           450560
 2017-02-03 15:20:09.945621+01 | 1486131609.94562 | pgbench_history  |                0
 2017-02-03 15:20:09.945621+01 | 1486131609.94562 | pgbench_branches |            40960

 2017-02-03 15:20:11.021319+01 | 1486131611.02132 | pgbench_accounts |      13429514240
 2017-02-03 15:20:11.021319+01 | 1486131611.02132 | pgbench_tellers  |           450560
 2017-02-03 15:20:11.021319+01 | 1486131611.02132 | pgbench_history  |                0
 2017-02-03 15:20:11.021319+01 | 1486131611.02132 | pgbench_branches |            40960

 2017-02-03 15:20:12.092385+01 | 1486131612.09239 | pgbench_accounts |      13429514240
 2017-02-03 15:20:12.092385+01 | 1486131612.09239 | pgbench_tellers  |           450560
 2017-02-03 15:20:12.092385+01 | 1486131612.09239 | pgbench_history  |                0
 2017-02-03 15:20:12.092385+01 | 1486131612.09239 | pgbench_branches |            40960

 2017-02-03 15:20:13.165963+01 | 1486131613.16596 | pgbench_accounts |      13429514240
 2017-02-03 15:20:13.165963+01 | 1486131613.16596 | pgbench_tellers  |           450560
 2017-02-03 15:20:13.165963+01 | 1486131613.16596 | pgbench_history  |                0
 2017-02-03 15:20:13.165963+01 | 1486131613.16596 | pgbench_branches |            40960

 2017-02-03 15:20:14.246827+01 | 1486131614.24683 | pgbench_accounts |      13429514240
 2017-02-03 15:20:14.246827+01 | 1486131614.24683 | pgbench_tellers  |           450560
 2017-02-03 15:20:14.246827+01 | 1486131614.24683 | pgbench_history  |                0
 2017-02-03 15:20:14.246827+01 | 1486131614.24683 | pgbench_branches |            40960

 2017-02-03 15:20:15.327599+01 | 1486131615.3276 | pgbench_accounts |      13429514240
 2017-02-03 15:20:15.327599+01 | 1486131615.3276 | pgbench_tellers  |           450560
 2017-02-03 15:20:15.327599+01 | 1486131615.3276 | pgbench_history  |                0
 2017-02-03 15:20:15.327599+01 | 1486131615.3276 | pgbench_branches |            40960

 2017-02-03 15:20:16.406678+01 | 1486131616.40668 | pgbench_accounts |      13429514240
 2017-02-03 15:20:16.406678+01 | 1486131616.40668 | pgbench_tellers  |           450560
 2017-02-03 15:20:16.406678+01 | 1486131616.40668 | pgbench_history  |                0
 2017-02-03 15:20:16.406678+01 | 1486131616.40668 | pgbench_branches |            40960

 2017-02-03 15:20:17.488517+01 | 1486131617.48852 | pgbench_accounts |      13429514240
 2017-02-03 15:20:17.488517+01 | 1486131617.48852 | pgbench_tellers  |           450560
 2017-02-03 15:20:17.488517+01 | 1486131617.48852 | pgbench_history  |                0
 2017-02-03 15:20:17.488517+01 | 1486131617.48852 | pgbench_branches |            40960

 2017-02-03 15:20:18.567415+01 | 1486131618.56741 | pgbench_accounts |      13429514240
 2017-02-03 15:20:18.567415+01 | 1486131618.56741 | pgbench_tellers  |           450560
 2017-02-03 15:20:18.567415+01 | 1486131618.56741 | pgbench_history  |                0
 2017-02-03 15:20:18.567415+01 | 1486131618.56741 | pgbench_branches |            40960

 2017-02-03 15:20:19.652787+01 | 1486131619.65279 | pgbench_accounts |      13429514240
 2017-02-03 15:20:19.652787+01 | 1486131619.65279 | pgbench_tellers  |           450560
 2017-02-03 15:20:19.652787+01 | 1486131619.65279 | pgbench_history  |                0
 2017-02-03 15:20:19.652787+01 | 1486131619.65279 | pgbench_branches |            40960

 2017-02-03 15:20:20.733878+01 | 1486131620.73388 | pgbench_accounts |      13429514240
 2017-02-03 15:20:20.733878+01 | 1486131620.73388 | pgbench_tellers  |           450560
 2017-02-03 15:20:20.733878+01 | 1486131620.73388 | pgbench_history  |                0
 2017-02-03 15:20:20.733878+01 | 1486131620.73388 | pgbench_branches |            40960

 2017-02-03 15:20:21.821303+01 | 1486131621.8213 | pgbench_accounts |      13429514240
 2017-02-03 15:20:21.821303+01 | 1486131621.8213 | pgbench_tellers  |           450560
 2017-02-03 15:20:21.821303+01 | 1486131621.8213 | pgbench_history  |                0
 2017-02-03 15:20:21.821303+01 | 1486131621.8213 | pgbench_branches |            40960

 2017-02-03 15:20:22.901288+01 | 1486131622.90129 | pgbench_accounts |      13429514240
 2017-02-03 15:20:22.901288+01 | 1486131622.90129 | pgbench_tellers  |           450560
 2017-02-03 15:20:22.901288+01 | 1486131622.90129 | pgbench_history  |                0
 2017-02-03 15:20:22.901288+01 | 1486131622.90129 | pgbench_branches |            40960

 2017-02-03 15:20:23.979767+01 | 1486131623.97977 | pgbench_accounts |      13429514240
 2017-02-03 15:20:23.979767+01 | 1486131623.97977 | pgbench_tellers  |           450560
 2017-02-03 15:20:23.979767+01 | 1486131623.97977 | pgbench_history  |                0
 2017-02-03 15:20:23.979767+01 | 1486131623.97977 | pgbench_branches |            40960

 2017-02-03 15:20:25.062871+01 | 1486131625.06287 | pgbench_accounts |      13429514240
 2017-02-03 15:20:25.062871+01 | 1486131625.06287 | pgbench_tellers  |           450560
 2017-02-03 15:20:25.062871+01 | 1486131625.06287 | pgbench_history  |                0
 2017-02-03 15:20:25.062871+01 | 1486131625.06287 | pgbench_branches |            40960

 2017-02-03 15:20:26.136491+01 | 1486131626.13649 | pgbench_accounts |      13429514240
 2017-02-03 15:20:26.136491+01 | 1486131626.13649 | pgbench_tellers  |           450560
 2017-02-03 15:20:26.136491+01 | 1486131626.13649 | pgbench_history  |                0
 2017-02-03 15:20:26.136491+01 | 1486131626.13649 | pgbench_branches |            40960

 2017-02-03 15:20:27.219068+01 | 1486131627.21907 | pgbench_accounts |      13429514240
 2017-02-03 15:20:27.219068+01 | 1486131627.21907 | pgbench_tellers  |           450560
 2017-02-03 15:20:27.219068+01 | 1486131627.21907 | pgbench_history  |                0
 2017-02-03 15:20:27.219068+01 | 1486131627.21907 | pgbench_branches |            40960

 2017-02-03 15:20:28.29502+01 | 1486131628.29502 | pgbench_accounts |      13429514240
 2017-02-03 15:20:28.29502+01 | 1486131628.29502 | pgbench_tellers  |           450560
 2017-02-03 15:20:28.29502+01 | 1486131628.29502 | pgbench_history  |                0
 2017-02-03 15:20:28.29502+01 | 1486131628.29502 | pgbench_branches |            40960

 2017-02-03 15:20:29.375923+01 | 1486131629.37592 | pgbench_accounts |      13429514240
 2017-02-03 15:20:29.375923+01 | 1486131629.37592 | pgbench_tellers  |           450560
 2017-02-03 15:20:29.375923+01 | 1486131629.37592 | pgbench_history  |                0
 2017-02-03 15:20:29.375923+01 | 1486131629.37592 | pgbench_branches |            40960

 2017-02-03 15:20:30.457339+01 | 1486131630.45734 | pgbench_accounts |      13429514240
 2017-02-03 15:20:30.457339+01 | 1486131630.45734 | pgbench_tellers  |           450560
 2017-02-03 15:20:30.457339+01 | 1486131630.45734 | pgbench_history  |                0
 2017-02-03 15:20:30.457339+01 | 1486131630.45734 | pgbench_branches |            40960

 2017-02-03 15:20:31.532504+01 | 1486131631.5325 | pgbench_accounts |      13429514240
 2017-02-03 15:20:31.532504+01 | 1486131631.5325 | pgbench_tellers  |           450560
 2017-02-03 15:20:31.532504+01 | 1486131631.5325 | pgbench_history  |                0
 2017-02-03 15:20:31.532504+01 | 1486131631.5325 | pgbench_branches |            40960

 2017-02-03 15:20:32.6034+01 | 1486131632.6034 | pgbench_accounts |      13429514240
 2017-02-03 15:20:32.6034+01 | 1486131632.6034 | pgbench_tellers  |           450560
 2017-02-03 15:20:32.6034+01 | 1486131632.6034 | pgbench_history  |                0
 2017-02-03 15:20:32.6034+01 | 1486131632.6034 | pgbench_branches |            40960

 2017-02-03 15:20:33.681397+01 | 1486131633.6814 | pgbench_accounts |      13429514240
 2017-02-03 15:20:33.681397+01 | 1486131633.6814 | pgbench_tellers  |           450560
 2017-02-03 15:20:33.681397+01 | 1486131633.6814 | pgbench_history  |                0
 2017-02-03 15:20:33.681397+01 | 1486131633.6814 | pgbench_branches |            40960

 2017-02-03 15:20:34.753331+01 | 1486131634.75333 | pgbench_accounts |      13429514240
 2017-02-03 15:20:34.753331+01 | 1486131634.75333 | pgbench_tellers  |           450560
 2017-02-03 15:20:34.753331+01 | 1486131634.75333 | pgbench_history  |                0
 2017-02-03 15:20:34.753331+01 | 1486131634.75333 | pgbench_branches |            40960

 2017-02-03 15:20:35.835428+01 | 1486131635.83543 | pgbench_accounts |      13429514240
 2017-02-03 15:20:35.835428+01 | 1486131635.83543 | pgbench_tellers  |           450560
 2017-02-03 15:20:35.835428+01 | 1486131635.83543 | pgbench_history  |                0
 2017-02-03 15:20:35.835428+01 | 1486131635.83543 | pgbench_branches |            40960

 2017-02-03 15:20:36.912352+01 | 1486131636.91235 | pgbench_accounts |      13429514240
 2017-02-03 15:20:36.912352+01 | 1486131636.91235 | pgbench_tellers  |           450560
 2017-02-03 15:20:36.912352+01 | 1486131636.91235 | pgbench_history  |                0
 2017-02-03 15:20:36.912352+01 | 1486131636.91235 | pgbench_branches |            40960

 2017-02-03 15:20:37.987159+01 | 1486131637.98716 | pgbench_accounts |      13429514240
 2017-02-03 15:20:37.987159+01 | 1486131637.98716 | pgbench_tellers  |           450560
 2017-02-03 15:20:37.987159+01 | 1486131637.98716 | pgbench_history  |                0
 2017-02-03 15:20:37.987159+01 | 1486131637.98716 | pgbench_branches |            40960

 2017-02-03 15:20:39.064792+01 | 1486131639.06479 | pgbench_accounts |      13429514240
 2017-02-03 15:20:39.064792+01 | 1486131639.06479 | pgbench_tellers  |           450560
 2017-02-03 15:20:39.064792+01 | 1486131639.06479 | pgbench_history  |                0
 2017-02-03 15:20:39.064792+01 | 1486131639.06479 | pgbench_branches |            40960

 2017-02-03 15:20:40.144075+01 | 1486131640.14407 | pgbench_accounts |      13429514240
 2017-02-03 15:20:40.144075+01 | 1486131640.14407 | pgbench_tellers  |           450560
 2017-02-03 15:20:40.144075+01 | 1486131640.14407 | pgbench_history  |                0
 2017-02-03 15:20:40.144075+01 | 1486131640.14407 | pgbench_branches |            40960

 2017-02-03 15:20:41.220688+01 | 1486131641.22069 | pgbench_accounts |      13429514240
 2017-02-03 15:20:41.220688+01 | 1486131641.22069 | pgbench_tellers  |           450560
 2017-02-03 15:20:41.220688+01 | 1486131641.22069 | pgbench_history  |                0
 2017-02-03 15:20:41.220688+01 | 1486131641.22069 | pgbench_branches |            40960

 2017-02-03 15:20:42.299048+01 | 1486131642.29905 | pgbench_accounts |      13429514240
 2017-02-03 15:20:42.299048+01 | 1486131642.29905 | pgbench_tellers  |           450560
 2017-02-03 15:20:42.299048+01 | 1486131642.29905 | pgbench_history  |                0
 2017-02-03 15:20:42.299048+01 | 1486131642.29905 | pgbench_branches |            40960

 2017-02-03 15:20:43.385759+01 | 1486131643.38576 | pgbench_accounts |      13429514240
 2017-02-03 15:20:43.385759+01 | 1486131643.38576 | pgbench_tellers  |           450560
 2017-02-03 15:20:43.385759+01 | 1486131643.38576 | pgbench_history  |                0
 2017-02-03 15:20:43.385759+01 | 1486131643.38576 | pgbench_branches |            40960

 2017-02-03 15:20:44.466036+01 | 1486131644.46604 | pgbench_accounts |      13429514240
 2017-02-03 15:20:44.466036+01 | 1486131644.46604 | pgbench_tellers  |           450560
 2017-02-03 15:20:44.466036+01 | 1486131644.46604 | pgbench_history  |                0
 2017-02-03 15:20:44.466036+01 | 1486131644.46604 | pgbench_branches |            40960

 2017-02-03 15:20:45.546276+01 | 1486131645.54628 | pgbench_accounts |      13429514240
 2017-02-03 15:20:45.546276+01 | 1486131645.54628 | pgbench_tellers  |           450560
 2017-02-03 15:20:45.546276+01 | 1486131645.54628 | pgbench_history  |                0
 2017-02-03 15:20:45.546276+01 | 1486131645.54628 | pgbench_branches |            40960

 2017-02-03 15:20:46.631285+01 | 1486131646.63128 | pgbench_accounts |      13429514240
 2017-02-03 15:20:46.631285+01 | 1486131646.63128 | pgbench_tellers  |           450560
 2017-02-03 15:20:46.631285+01 | 1486131646.63128 | pgbench_history  |                0
 2017-02-03 15:20:46.631285+01 | 1486131646.63128 | pgbench_branches |            40960

 2017-02-03 15:20:47.705887+01 | 1486131647.70589 | pgbench_accounts |      13429514240
 2017-02-03 15:20:47.705887+01 | 1486131647.70589 | pgbench_tellers  |           450560
 2017-02-03 15:20:47.705887+01 | 1486131647.70589 | pgbench_history  |                0
 2017-02-03 15:20:47.705887+01 | 1486131647.70589 | pgbench_branches |            40960

 2017-02-03 15:20:48.788705+01 | 1486131648.78871 | pgbench_accounts |      13429514240
 2017-02-03 15:20:48.788705+01 | 1486131648.78871 | pgbench_tellers  |           450560
 2017-02-03 15:20:48.788705+01 | 1486131648.78871 | pgbench_history  |                0
 2017-02-03 15:20:48.788705+01 | 1486131648.78871 | pgbench_branches |            40960

 2017-02-03 15:20:49.865469+01 | 1486131649.86547 | pgbench_accounts |      13429514240
 2017-02-03 15:20:49.865469+01 | 1486131649.86547 | pgbench_tellers  |           450560
 2017-02-03 15:20:49.865469+01 | 1486131649.86547 | pgbench_history  |                0
 2017-02-03 15:20:49.865469+01 | 1486131649.86547 | pgbench_branches |            40960

 2017-02-03 15:20:50.956446+01 | 1486131650.95645 | pgbench_accounts |      13429514240
 2017-02-03 15:20:50.956446+01 | 1486131650.95645 | pgbench_tellers  |           450560
 2017-02-03 15:20:50.956446+01 | 1486131650.95645 | pgbench_history  |                0
 2017-02-03 15:20:50.956446+01 | 1486131650.95645 | pgbench_branches |            40960

 2017-02-03 15:20:52.040533+01 | 1486131652.04053 | pgbench_accounts |      13429514240
 2017-02-03 15:20:52.040533+01 | 1486131652.04053 | pgbench_tellers  |           450560
 2017-02-03 15:20:52.040533+01 | 1486131652.04053 | pgbench_history  |                0
 2017-02-03 15:20:52.040533+01 | 1486131652.04053 | pgbench_branches |            40960

 2017-02-03 15:20:53.108748+01 | 1486131653.10875 | pgbench_accounts |      13429514240
 2017-02-03 15:20:53.108748+01 | 1486131653.10875 | pgbench_tellers  |           450560
 2017-02-03 15:20:53.108748+01 | 1486131653.10875 | pgbench_history  |                0
 2017-02-03 15:20:53.108748+01 | 1486131653.10875 | pgbench_branches |            40960

 2017-02-03 15:20:54.195222+01 | 1486131654.19522 | pgbench_accounts |      13429514240
 2017-02-03 15:20:54.195222+01 | 1486131654.19522 | pgbench_tellers  |           450560
 2017-02-03 15:20:54.195222+01 | 1486131654.19522 | pgbench_history  |                0
 2017-02-03 15:20:54.195222+01 | 1486131654.19522 | pgbench_branches |            40960

 2017-02-03 15:20:55.270127+01 | 1486131655.27013 | pgbench_accounts |      13429514240
 2017-02-03 15:20:55.270127+01 | 1486131655.27013 | pgbench_tellers  |           450560
 2017-02-03 15:20:55.270127+01 | 1486131655.27013 | pgbench_history  |                0
 2017-02-03 15:20:55.270127+01 | 1486131655.27013 | pgbench_branches |            40960

 2017-02-03 15:20:56.351145+01 | 1486131656.35115 | pgbench_accounts |      13429514240
 2017-02-03 15:20:56.351145+01 | 1486131656.35115 | pgbench_tellers  |           450560
 2017-02-03 15:20:56.351145+01 | 1486131656.35115 | pgbench_history  |                0
 2017-02-03 15:20:56.351145+01 | 1486131656.35115 | pgbench_branches |            40960

 2017-02-03 15:20:57.427878+01 | 1486131657.42788 | pgbench_accounts |      13429514240
 2017-02-03 15:20:57.427878+01 | 1486131657.42788 | pgbench_tellers  |           450560
 2017-02-03 15:20:57.427878+01 | 1486131657.42788 | pgbench_history  |                0
 2017-02-03 15:20:57.427878+01 | 1486131657.42788 | pgbench_branches |            40960

 2017-02-03 15:20:58.517434+01 | 1486131658.51743 | pgbench_accounts |      13429514240
 2017-02-03 15:20:58.517434+01 | 1486131658.51743 | pgbench_tellers  |           450560
 2017-02-03 15:20:58.517434+01 | 1486131658.51743 | pgbench_history  |                0
 2017-02-03 15:20:58.517434+01 | 1486131658.51743 | pgbench_branches |            40960

 2017-02-03 15:20:59.610447+01 | 1486131659.61045 | pgbench_accounts |      13429514240
 2017-02-03 15:20:59.610447+01 | 1486131659.61045 | pgbench_tellers  |           450560
 2017-02-03 15:20:59.610447+01 | 1486131659.61045 | pgbench_history  |                0
 2017-02-03 15:20:59.610447+01 | 1486131659.61045 | pgbench_branches |            40960

 2017-02-03 15:21:00.687832+01 | 1486131660.68783 | pgbench_accounts |      13429514240
 2017-02-03 15:21:00.687832+01 | 1486131660.68783 | pgbench_tellers  |           450560
 2017-02-03 15:21:00.687832+01 | 1486131660.68783 | pgbench_history  |                0
 2017-02-03 15:21:00.687832+01 | 1486131660.68783 | pgbench_branches |            40960

 2017-02-03 15:21:01.764774+01 | 1486131661.76477 | pgbench_accounts |      13429514240
 2017-02-03 15:21:01.764774+01 | 1486131661.76477 | pgbench_tellers  |           450560
 2017-02-03 15:21:01.764774+01 | 1486131661.76477 | pgbench_history  |                0
 2017-02-03 15:21:01.764774+01 | 1486131661.76477 | pgbench_branches |            40960

 2017-02-03 15:21:02.840313+01 | 1486131662.84031 | pgbench_accounts |      13429514240
 2017-02-03 15:21:02.840313+01 | 1486131662.84031 | pgbench_tellers  |           450560
 2017-02-03 15:21:02.840313+01 | 1486131662.84031 | pgbench_history  |                0
 2017-02-03 15:21:02.840313+01 | 1486131662.84031 | pgbench_branches |            40960

 2017-02-03 15:21:03.92419+01 | 1486131663.92419 | pgbench_accounts |      13429514240
 2017-02-03 15:21:03.92419+01 | 1486131663.92419 | pgbench_tellers  |           450560
 2017-02-03 15:21:03.92419+01 | 1486131663.92419 | pgbench_history  |                0
 2017-02-03 15:21:03.92419+01 | 1486131663.92419 | pgbench_branches |            40960

 2017-02-03 15:21:05.003665+01 | 1486131665.00366 | pgbench_accounts |      13429514240
 2017-02-03 15:21:05.003665+01 | 1486131665.00366 | pgbench_tellers  |           450560
 2017-02-03 15:21:05.003665+01 | 1486131665.00366 | pgbench_history  |                0
 2017-02-03 15:21:05.003665+01 | 1486131665.00366 | pgbench_branches |            40960

 2017-02-03 15:21:06.077441+01 | 1486131666.07744 | pgbench_accounts |      13429514240
 2017-02-03 15:21:06.077441+01 | 1486131666.07744 | pgbench_tellers  |           450560
 2017-02-03 15:21:06.077441+01 | 1486131666.07744 | pgbench_history  |                0
 2017-02-03 15:21:06.077441+01 | 1486131666.07744 | pgbench_branches |            40960

 2017-02-03 15:21:07.154672+01 | 1486131667.15467 | pgbench_accounts |      13429514240
 2017-02-03 15:21:07.154672+01 | 1486131667.15467 | pgbench_tellers  |           450560
 2017-02-03 15:21:07.154672+01 | 1486131667.15467 | pgbench_history  |                0
 2017-02-03 15:21:07.154672+01 | 1486131667.15467 | pgbench_branches |            40960

 2017-02-03 15:21:08.222315+01 | 1486131668.22232 | pgbench_accounts |      13429514240
 2017-02-03 15:21:08.222315+01 | 1486131668.22232 | pgbench_tellers  |           450560
 2017-02-03 15:21:08.222315+01 | 1486131668.22232 | pgbench_history  |                0
 2017-02-03 15:21:08.222315+01 | 1486131668.22232 | pgbench_branches |            40960

 2017-02-03 15:21:09.30697+01 | 1486131669.30697 | pgbench_accounts |      13429514240
 2017-02-03 15:21:09.30697+01 | 1486131669.30697 | pgbench_tellers  |           450560
 2017-02-03 15:21:09.30697+01 | 1486131669.30697 | pgbench_history  |                0
 2017-02-03 15:21:09.30697+01 | 1486131669.30697 | pgbench_branches |            40960

 2017-02-03 15:21:10.382942+01 | 1486131670.38294 | pgbench_accounts |      13429514240
 2017-02-03 15:21:10.382942+01 | 1486131670.38294 | pgbench_tellers  |           450560
 2017-02-03 15:21:10.382942+01 | 1486131670.38294 | pgbench_history  |                0
 2017-02-03 15:21:10.382942+01 | 1486131670.38294 | pgbench_branches |            40960

 2017-02-03 15:21:11.465244+01 | 1486131671.46524 | pgbench_accounts |      13429514240
 2017-02-03 15:21:11.465244+01 | 1486131671.46524 | pgbench_tellers  |           450560
 2017-02-03 15:21:11.465244+01 | 1486131671.46524 | pgbench_history  |                0
 2017-02-03 15:21:11.465244+01 | 1486131671.46524 | pgbench_branches |            40960

 2017-02-03 15:21:12.544382+01 | 1486131672.54438 | pgbench_accounts |      13429514240
 2017-02-03 15:21:12.544382+01 | 1486131672.54438 | pgbench_tellers  |           450560
 2017-02-03 15:21:12.544382+01 | 1486131672.54438 | pgbench_history  |                0
 2017-02-03 15:21:12.544382+01 | 1486131672.54438 | pgbench_branches |            40960

 2017-02-03 15:21:13.619194+01 | 1486131673.61919 | pgbench_accounts |      13429514240
 2017-02-03 15:21:13.619194+01 | 1486131673.61919 | pgbench_tellers  |           450560
 2017-02-03 15:21:13.619194+01 | 1486131673.61919 | pgbench_history  |                0
 2017-02-03 15:21:13.619194+01 | 1486131673.61919 | pgbench_branches |            40960

 2017-02-03 15:21:14.707931+01 | 1486131674.70793 | pgbench_accounts |      13429514240
 2017-02-03 15:21:14.707931+01 | 1486131674.70793 | pgbench_tellers  |           450560
 2017-02-03 15:21:14.707931+01 | 1486131674.70793 | pgbench_history  |                0
 2017-02-03 15:21:14.707931+01 | 1486131674.70793 | pgbench_branches |            40960

 2017-02-03 15:21:15.768366+01 | 1486131675.76837 | pgbench_accounts |      13429514240
 2017-02-03 15:21:15.768366+01 | 1486131675.76837 | pgbench_tellers  |           450560
 2017-02-03 15:21:15.768366+01 | 1486131675.76837 | pgbench_history  |                0
 2017-02-03 15:21:15.768366+01 | 1486131675.76837 | pgbench_branches |            40960

 2017-02-03 15:21:16.848493+01 | 1486131676.84849 | pgbench_accounts |      13429514240
 2017-02-03 15:21:16.848493+01 | 1486131676.84849 | pgbench_tellers  |           450560
 2017-02-03 15:21:16.848493+01 | 1486131676.84849 | pgbench_history  |                0
 2017-02-03 15:21:16.848493+01 | 1486131676.84849 | pgbench_branches |            40960

 2017-02-03 15:21:17.929089+01 | 1486131677.92909 | pgbench_accounts |      13429514240
 2017-02-03 15:21:17.929089+01 | 1486131677.92909 | pgbench_tellers  |           450560
 2017-02-03 15:21:17.929089+01 | 1486131677.92909 | pgbench_history  |                0
 2017-02-03 15:21:17.929089+01 | 1486131677.92909 | pgbench_branches |            40960

 2017-02-03 15:21:19.009465+01 | 1486131679.00946 | pgbench_accounts |      13429514240
 2017-02-03 15:21:19.009465+01 | 1486131679.00946 | pgbench_tellers  |           450560
 2017-02-03 15:21:19.009465+01 | 1486131679.00946 | pgbench_history  |                0
 2017-02-03 15:21:19.009465+01 | 1486131679.00946 | pgbench_branches |            40960

 2017-02-03 15:21:20.090217+01 | 1486131680.09022 | pgbench_accounts |      13429514240
 2017-02-03 15:21:20.090217+01 | 1486131680.09022 | pgbench_tellers  |           450560
 2017-02-03 15:21:20.090217+01 | 1486131680.09022 | pgbench_history  |                0
 2017-02-03 15:21:20.090217+01 | 1486131680.09022 | pgbench_branches |            40960

 2017-02-03 15:21:21.170724+01 | 1486131681.17072 | pgbench_accounts |      13429514240
 2017-02-03 15:21:21.170724+01 | 1486131681.17072 | pgbench_tellers  |           450560
 2017-02-03 15:21:21.170724+01 | 1486131681.17072 | pgbench_history  |                0
 2017-02-03 15:21:21.170724+01 | 1486131681.17072 | pgbench_branches |            40960

 2017-02-03 15:21:22.250708+01 | 1486131682.25071 | pgbench_accounts |      13429514240
 2017-02-03 15:21:22.250708+01 | 1486131682.25071 | pgbench_tellers  |           450560
 2017-02-03 15:21:22.250708+01 | 1486131682.25071 | pgbench_history  |                0
 2017-02-03 15:21:22.250708+01 | 1486131682.25071 | pgbench_branches |            40960

 2017-02-03 15:21:23.336315+01 | 1486131683.33631 | pgbench_accounts |      13429514240
 2017-02-03 15:21:23.336315+01 | 1486131683.33631 | pgbench_tellers  |           450560
 2017-02-03 15:21:23.336315+01 | 1486131683.33631 | pgbench_history  |                0
 2017-02-03 15:21:23.336315+01 | 1486131683.33631 | pgbench_branches |            40960

 2017-02-03 15:21:24.407813+01 | 1486131684.40781 | pgbench_accounts |      13429514240
 2017-02-03 15:21:24.407813+01 | 1486131684.40781 | pgbench_tellers  |           450560
 2017-02-03 15:21:24.407813+01 | 1486131684.40781 | pgbench_history  |                0
 2017-02-03 15:21:24.407813+01 | 1486131684.40781 | pgbench_branches |            40960

 2017-02-03 15:21:25.489221+01 | 1486131685.48922 | pgbench_accounts |      13429514240
 2017-02-03 15:21:25.489221+01 | 1486131685.48922 | pgbench_tellers  |           450560
 2017-02-03 15:21:25.489221+01 | 1486131685.48922 | pgbench_history  |                0
 2017-02-03 15:21:25.489221+01 | 1486131685.48922 | pgbench_branches |            40960

 2017-02-03 15:21:26.572661+01 | 1486131686.57266 | pgbench_accounts |      13429514240
 2017-02-03 15:21:26.572661+01 | 1486131686.57266 | pgbench_tellers  |           450560
 2017-02-03 15:21:26.572661+01 | 1486131686.57266 | pgbench_history  |                0
 2017-02-03 15:21:26.572661+01 | 1486131686.57266 | pgbench_branches |            40960

 2017-02-03 15:21:27.657895+01 | 1486131687.6579 | pgbench_accounts |      13429514240
 2017-02-03 15:21:27.657895+01 | 1486131687.6579 | pgbench_tellers  |           450560
 2017-02-03 15:21:27.657895+01 | 1486131687.6579 | pgbench_history  |                0
 2017-02-03 15:21:27.657895+01 | 1486131687.6579 | pgbench_branches |            40960

 2017-02-03 15:21:28.739492+01 | 1486131688.73949 | pgbench_accounts |      13429514240
 2017-02-03 15:21:28.739492+01 | 1486131688.73949 | pgbench_tellers  |           450560
 2017-02-03 15:21:28.739492+01 | 1486131688.73949 | pgbench_history  |                0
 2017-02-03 15:21:28.739492+01 | 1486131688.73949 | pgbench_branches |            40960

 2017-02-03 15:21:29.814902+01 | 1486131689.8149 | pgbench_accounts |      13429514240
 2017-02-03 15:21:29.814902+01 | 1486131689.8149 | pgbench_tellers  |           450560
 2017-02-03 15:21:29.814902+01 | 1486131689.8149 | pgbench_history  |                0
 2017-02-03 15:21:29.814902+01 | 1486131689.8149 | pgbench_branches |            40960

