 2017-02-06 20:10:35.936176+01 | 1486408235.93618 |                 0 |              25 |                356966 |                 6500 |           20574386 |       3433476 |            33643 |        70563769 |                     0 |      72574939 | 2017-02-06 18:00:10.837486+01

 2017-02-06 20:10:37.024341+01 | 1486408237.02434 |                 0 |              25 |                356966 |                 6500 |           20574386 |       3433476 |            33643 |        70563769 |                     0 |      72582317 | 2017-02-06 18:00:10.837486+01

 2017-02-06 20:10:38.112626+01 | 1486408238.11263 |                 0 |              25 |                356966 |                 6500 |           20574386 |       3433476 |            33643 |        70563769 |                     0 |      72594082 | 2017-02-06 18:00:10.837486+01

 2017-02-06 20:10:39.197404+01 | 1486408239.1974 |                 0 |              25 |                356966 |                 6500 |           20574386 |       3433476 |            33643 |        70563769 |                     0 |      72604045 | 2017-02-06 18:00:10.837486+01

 2017-02-06 20:10:40.290587+01 | 1486408240.29059 |                 0 |              25 |                356966 |                 6500 |           20574386 |       3433476 |            33643 |        70563769 |                     0 |      72616540 | 2017-02-06 18:00:10.837486+01

 2017-02-06 20:10:41.376702+01 | 1486408241.3767 |                 0 |              25 |                356966 |                 6500 |           20574386 |       3433476 |            33643 |        70563769 |                     0 |      72628618 | 2017-02-06 18:00:10.837486+01

 2017-02-06 20:10:42.461768+01 | 1486408242.46177 |                 0 |              25 |                356966 |                 6500 |           20574386 |       3433476 |            33643 |        70563769 |                     0 |      72644124 | 2017-02-06 18:00:10.837486+01

 2017-02-06 20:10:43.547338+01 | 1486408243.54734 |                 0 |              25 |                356966 |                 6500 |           20574386 |       3433476 |            33643 |        70563769 |                     0 |      72656536 | 2017-02-06 18:00:10.837486+01

 2017-02-06 20:10:44.627684+01 | 1486408244.62768 |                 0 |              25 |                356966 |                 6500 |           20574386 |       3433476 |            33643 |        70563769 |                     0 |      72668934 | 2017-02-06 18:00:10.837486+01

 2017-02-06 20:10:45.707849+01 | 1486408245.70785 |                 0 |              25 |                356966 |                 6500 |           20574386 |       3433476 |            33643 |        70563769 |                     0 |      72679757 | 2017-02-06 18:00:10.837486+01

 2017-02-06 20:10:46.786481+01 | 1486408246.78648 |                 0 |              25 |                356966 |                 6500 |           20574386 |       3433476 |            33643 |        70563769 |                     0 |      72699113 | 2017-02-06 18:00:10.837486+01

 2017-02-06 20:10:47.886648+01 | 1486408247.88665 |                 0 |              25 |                356966 |                 6500 |           20574386 |       3433476 |            33643 |        70563769 |                     0 |      72716288 | 2017-02-06 18:00:10.837486+01

 2017-02-06 20:10:48.972943+01 | 1486408248.97294 |                 0 |              25 |                356966 |                 6500 |           20574386 |       3433476 |            33643 |        70563769 |                     0 |      72728763 | 2017-02-06 18:00:10.837486+01

 2017-02-06 20:10:50.055912+01 | 1486408250.05591 |                 0 |              25 |                356966 |                 6500 |           20574386 |       3433494 |            33643 |        70563769 |                     0 |      72741530 | 2017-02-06 18:00:10.837486+01

 2017-02-06 20:10:51.140007+01 | 1486408251.14001 |                 0 |              25 |                356966 |                 6500 |           20574386 |       3433641 |            33643 |        70563769 |                     0 |      72758146 | 2017-02-06 18:00:10.837486+01

 2017-02-06 20:10:52.225583+01 | 1486408252.22558 |                 0 |              25 |                356966 |                 6500 |           20574386 |       3433777 |            33643 |        70563769 |                     0 |      72771588 | 2017-02-06 18:00:10.837486+01

 2017-02-06 20:10:53.310715+01 | 1486408253.31071 |                 0 |              25 |                356966 |                 6500 |           20574386 |       3434016 |            33643 |        70563769 |                     0 |      72788834 | 2017-02-06 18:00:10.837486+01

 2017-02-06 20:10:54.396886+01 | 1486408254.39689 |                 0 |              25 |                356966 |                 6500 |           20574386 |       3434225 |            33643 |        70563769 |                     0 |      72803704 | 2017-02-06 18:00:10.837486+01

 2017-02-06 20:10:55.481081+01 | 1486408255.48108 |                 0 |              25 |                356966 |                 6500 |           20574386 |       3434449 |            33643 |        70563769 |                     0 |      72817468 | 2017-02-06 18:00:10.837486+01

 2017-02-06 20:10:56.56183+01 | 1486408256.56183 |                 0 |              25 |                356966 |                 6500 |           20574386 |       3434721 |            33643 |        70563769 |                     0 |      72835091 | 2017-02-06 18:00:10.837486+01

 2017-02-06 20:10:57.645391+01 | 1486408257.64539 |                 0 |              25 |                356966 |                 6500 |           20574386 |       3434920 |            33643 |        70563769 |                     0 |      72849477 | 2017-02-06 18:00:10.837486+01

 2017-02-06 20:10:58.73318+01 | 1486408258.73318 |                 0 |              25 |                356966 |                 6500 |           20574386 |       3435154 |            33643 |        70563769 |                     0 |      72863945 | 2017-02-06 18:00:10.837486+01

 2017-02-06 20:10:59.81892+01 | 1486408259.81892 |                 0 |              25 |                356966 |                 6500 |           20574386 |       3435437 |            33643 |        70563769 |                     0 |      72881028 | 2017-02-06 18:00:10.837486+01

 2017-02-06 20:11:00.917291+01 | 1486408260.91729 |                 0 |              25 |                356966 |                 6500 |           20574386 |       3435719 |            33643 |        70563769 |                     0 |      72896097 | 2017-02-06 18:00:10.837486+01

 2017-02-06 20:11:02.006114+01 | 1486408262.00611 |                 0 |              25 |                356966 |                 6500 |           20574386 |       3436226 |            33647 |        70563769 |                     0 |      72914367 | 2017-02-06 18:00:10.837486+01

 2017-02-06 20:11:03.096013+01 | 1486408263.09601 |                 0 |              25 |                356966 |                 6500 |           20574386 |       3436726 |            33652 |        70563769 |                     0 |      72929338 | 2017-02-06 18:00:10.837486+01

 2017-02-06 20:11:04.175617+01 | 1486408264.17562 |                 0 |              25 |                356966 |                 6500 |           20574386 |       3437226 |            33657 |        70563769 |                     0 |      72944579 | 2017-02-06 18:00:10.837486+01

 2017-02-06 20:11:05.270694+01 | 1486408265.27069 |                 0 |              25 |                356966 |                 6500 |           20574386 |       3437826 |            33663 |        70563769 |                     0 |      72961489 | 2017-02-06 18:00:10.837486+01

 2017-02-06 20:11:06.350263+01 | 1486408266.35026 |                 0 |              25 |                356966 |                 6500 |           20574386 |       3438326 |            33668 |        70563769 |                     0 |      72977063 | 2017-02-06 18:00:10.837486+01

 2017-02-06 20:11:07.444693+01 | 1486408267.44469 |                 0 |              25 |                356966 |                 6500 |           20574386 |       3438826 |            33673 |        70563769 |                     0 |      72991918 | 2017-02-06 18:00:10.837486+01

 2017-02-06 20:11:08.53371+01 | 1486408268.53371 |                 0 |              25 |                356966 |                 6500 |           20574386 |       3439426 |            33679 |        70563769 |                     0 |      73010440 | 2017-02-06 18:00:10.837486+01

 2017-02-06 20:11:09.602781+01 | 1486408269.60278 |                 0 |              25 |                356966 |                 6500 |           20574386 |       3439926 |            33684 |        70563769 |                     0 |      73026013 | 2017-02-06 18:00:10.837486+01

 2017-02-06 20:11:10.681303+01 | 1486408270.6813 |                 0 |              25 |                356966 |                 6500 |           20574386 |       3440526 |            33690 |        70563769 |                     0 |      73041052 | 2017-02-06 18:00:10.837486+01

 2017-02-06 20:11:11.764737+01 | 1486408271.76474 |                 0 |              25 |                356966 |                 6500 |           20574386 |       3441026 |            33695 |        70563769 |                     0 |      73055964 | 2017-02-06 18:00:10.837486+01

 2017-02-06 20:11:12.846818+01 | 1486408272.84682 |                 0 |              25 |                356966 |                 6500 |           20574386 |       3441526 |            33700 |        70563769 |                     0 |      73071486 | 2017-02-06 18:00:10.837486+01

 2017-02-06 20:11:13.94879+01 | 1486408273.94879 |                 0 |              25 |                356966 |                 6500 |           20574386 |       3442126 |            33706 |        70563769 |                     0 |      73087366 | 2017-02-06 18:00:10.837486+01

 2017-02-06 20:11:15.037597+01 | 1486408275.0376 |                 0 |              25 |                356966 |                 6500 |           20574386 |       3442626 |            33711 |        70563769 |                     0 |      73101627 | 2017-02-06 18:00:10.837486+01

 2017-02-06 20:11:16.127636+01 | 1486408276.12764 |                 0 |              25 |                356966 |                 6500 |           20574386 |       3443126 |            33716 |        70563769 |                     0 |      73116542 | 2017-02-06 18:00:10.837486+01

 2017-02-06 20:11:17.224513+01 | 1486408277.22451 |                 0 |              25 |                356966 |                 6500 |           20574386 |       3443726 |            33722 |        70563769 |                     0 |      73133039 | 2017-02-06 18:00:10.837486+01

 2017-02-06 20:11:18.306949+01 | 1486408278.30695 |                 0 |              25 |                356966 |                 6500 |           20574386 |       3444226 |            33727 |        70563769 |                     0 |      73147507 | 2017-02-06 18:00:10.837486+01

 2017-02-06 20:11:19.393491+01 | 1486408279.39349 |                 0 |              25 |                356966 |                 6500 |           20574386 |       3444826 |            33733 |        70563769 |                     0 |      73161456 | 2017-02-06 18:00:10.837486+01

 2017-02-06 20:11:20.481823+01 | 1486408280.48182 |                 0 |              25 |                356966 |                 6500 |           20574386 |       3445326 |            33738 |        70563769 |                     0 |      73175565 | 2017-02-06 18:00:10.837486+01

 2017-02-06 20:11:21.576996+01 | 1486408281.577 |                 0 |              25 |                356966 |                 6500 |           20574386 |       3445826 |            33743 |        70563769 |                     0 |      73188748 | 2017-02-06 18:00:10.837486+01

 2017-02-06 20:11:22.67206+01 | 1486408282.67206 |                 0 |              25 |                356966 |                 6500 |           20574386 |       3446426 |            33749 |        70563769 |                     0 |      73206288 | 2017-02-06 18:00:10.837486+01

 2017-02-06 20:11:23.739125+01 | 1486408283.73913 |                 0 |              25 |                356966 |                 6500 |           20574386 |       3446926 |            33754 |        70563769 |                     0 |      73220460 | 2017-02-06 18:00:10.837486+01

 2017-02-06 20:11:24.826273+01 | 1486408284.82627 |                 0 |              25 |                356966 |                 6500 |           20574386 |       3447426 |            33759 |        70563769 |                     0 |      73233404 | 2017-02-06 18:00:10.837486+01

 2017-02-06 20:11:25.913518+01 | 1486408285.91352 |                 0 |              25 |                356966 |                 6500 |           20574386 |       3448026 |            33765 |        70563769 |                     0 |      73251284 | 2017-02-06 18:00:10.837486+01

 2017-02-06 20:11:27.000507+01 | 1486408287.00051 |                 0 |              25 |                356966 |                 6500 |           20574386 |       3448526 |            33770 |        70563769 |                     0 |      73265445 | 2017-02-06 18:00:10.837486+01

 2017-02-06 20:11:28.075418+01 | 1486408288.07542 |                 0 |              25 |                356966 |                 6500 |           20574386 |       3449126 |            33776 |        70563769 |                     0 |      73281535 | 2017-02-06 18:00:10.837486+01

 2017-02-06 20:11:29.166446+01 | 1486408289.16645 |                 0 |              25 |                356966 |                 6500 |           20574386 |       3449626 |            33781 |        70563769 |                     0 |      73295023 | 2017-02-06 18:00:10.837486+01

 2017-02-06 20:11:30.257487+01 | 1486408290.25749 |                 0 |              25 |                356966 |                 6500 |           20574386 |       3450126 |            33786 |        70563769 |                     0 |      73309145 | 2017-02-06 18:00:10.837486+01

 2017-02-06 20:11:31.350488+01 | 1486408291.35049 |                 0 |              25 |                356966 |                 6500 |           20574386 |       3450726 |            33792 |        70563769 |                     0 |      73326371 | 2017-02-06 18:00:10.837486+01

 2017-02-06 20:11:32.431119+01 | 1486408292.43112 |                 0 |              25 |                356966 |                 6500 |           20574386 |       3451226 |            33797 |        70563769 |                     0 |      73340113 | 2017-02-06 18:00:10.837486+01

 2017-02-06 20:11:33.524752+01 | 1486408293.52475 |                 0 |              25 |                356966 |                 6500 |           20574386 |       3451826 |            33803 |        70563769 |                     0 |      73356926 | 2017-02-06 18:00:10.837486+01

 2017-02-06 20:11:34.609225+01 | 1486408294.60923 |                 0 |              25 |                356966 |                 6500 |           20574386 |       3452326 |            33808 |        70563769 |                     0 |      73371889 | 2017-02-06 18:00:10.837486+01

 2017-02-06 20:11:35.70692+01 | 1486408295.70692 |                 0 |              25 |                356966 |                 6500 |           20574386 |       3452826 |            33813 |        70563769 |                     0 |      73384634 | 2017-02-06 18:00:10.837486+01

 2017-02-06 20:11:36.800356+01 | 1486408296.80036 |                 0 |              25 |                356966 |                 6500 |           20574386 |       3453426 |            33819 |        70563769 |                     0 |      73401779 | 2017-02-06 18:00:10.837486+01

 2017-02-06 20:11:37.887424+01 | 1486408297.88742 |                 0 |              25 |                356966 |                 6500 |           20574386 |       3453926 |            33824 |        70563769 |                     0 |      73416291 | 2017-02-06 18:00:10.837486+01

 2017-02-06 20:11:38.969027+01 | 1486408298.96903 |                 0 |              25 |                356966 |                 6500 |           20574386 |       3454526 |            33830 |        70563769 |                     0 |      73433097 | 2017-02-06 18:00:10.837486+01

 2017-02-06 20:11:40.061241+01 | 1486408300.06124 |                 0 |              25 |                356966 |                 6500 |           20574386 |       3455026 |            33835 |        70563769 |                     0 |      73447121 | 2017-02-06 18:00:10.837486+01

 2017-02-06 20:11:41.147643+01 | 1486408301.14764 |                 0 |              25 |                356966 |                 6500 |           20574386 |       3455526 |            33840 |        70563769 |                     0 |      73460240 | 2017-02-06 18:00:10.837486+01

 2017-02-06 20:11:42.224023+01 | 1486408302.22402 |                 0 |              25 |                356966 |                 6500 |           20574386 |       3456126 |            33846 |        70563769 |                     0 |      73478107 | 2017-02-06 18:00:10.837486+01

 2017-02-06 20:11:43.297661+01 | 1486408303.29766 |                 0 |              25 |                356966 |                 6500 |           20574386 |       3456626 |            33851 |        70563769 |                     0 |      73491980 | 2017-02-06 18:00:10.837486+01

 2017-02-06 20:11:44.3944+01 | 1486408304.3944 |                 0 |              25 |                356966 |                 6500 |           20574386 |       3457126 |            33856 |        70563769 |                     0 |      73504674 | 2017-02-06 18:00:10.837486+01

 2017-02-06 20:11:45.4818+01 | 1486408305.4818 |                 0 |              25 |                356966 |                 6500 |           20574386 |       3457726 |            33862 |        70563769 |                     0 |      73521854 | 2017-02-06 18:00:10.837486+01

 2017-02-06 20:11:46.554955+01 | 1486408306.55496 |                 0 |              25 |                356966 |                 6500 |           20574386 |       3458226 |            33867 |        70563769 |                     0 |      73536198 | 2017-02-06 18:00:10.837486+01

 2017-02-06 20:11:47.641673+01 | 1486408307.64167 |                 0 |              25 |                356966 |                 6500 |           20574386 |       3458726 |            33872 |        71063007 |                     0 |      73549199 | 2017-02-06 18:00:10.837486+01

 2017-02-06 20:11:48.731005+01 | 1486408308.731 |                 0 |              25 |                356966 |                 6500 |           20574386 |       3459326 |            33878 |        71063007 |                     0 |      73567241 | 2017-02-06 18:00:10.837486+01

 2017-02-06 20:11:49.819299+01 | 1486408309.8193 |                 0 |              25 |                356966 |                 6500 |           20574386 |       3459826 |            33883 |        71063007 |                     0 |      73578711 | 2017-02-06 18:00:10.837486+01

 2017-02-06 20:11:50.884074+01 | 1486408310.88407 |                 0 |              25 |                356966 |                 6500 |           20574386 |       3460326 |            33888 |        71063007 |                     0 |      73590546 | 2017-02-06 18:00:10.837486+01

 2017-02-06 20:11:51.962556+01 | 1486408311.96256 |                 0 |              25 |                356966 |                 6500 |           20574386 |       3460926 |            33894 |        71063007 |                     0 |      73602309 | 2017-02-06 18:00:10.837486+01

 2017-02-06 20:11:53.038402+01 | 1486408313.0384 |                 0 |              25 |                356966 |                 6500 |           20574386 |       3461426 |            33899 |        71063007 |                     0 |      73613840 | 2017-02-06 18:00:10.837486+01

 2017-02-06 20:11:54.122333+01 | 1486408314.12233 |                 0 |              25 |                356966 |                 6500 |           20574386 |       3461926 |            33904 |        71063007 |                     0 |      73624559 | 2017-02-06 18:00:10.837486+01

 2017-02-06 20:11:55.196666+01 | 1486408315.19667 |                 0 |              25 |                356966 |                 6500 |           20574386 |       3462526 |            33910 |        71063007 |                     0 |      73638810 | 2017-02-06 18:00:10.837486+01

 2017-02-06 20:11:56.283347+01 | 1486408316.28335 |                 0 |              25 |                356966 |                 6500 |           20574386 |       3463026 |            33915 |        71063007 |                     0 |      73650786 | 2017-02-06 18:00:10.837486+01

 2017-02-06 20:11:57.373391+01 | 1486408317.37339 |                 0 |              25 |                356966 |                 6500 |           20574386 |       3463626 |            33921 |        71063007 |                     0 |      73667620 | 2017-02-06 18:00:10.837486+01

 2017-02-06 20:11:58.451853+01 | 1486408318.45185 |                 0 |              25 |                356966 |                 6500 |           20574386 |       3464126 |            33926 |        71063007 |                     0 |      73682079 | 2017-02-06 18:00:10.837486+01

 2017-02-06 20:11:59.540342+01 | 1486408319.54034 |                 0 |              25 |                356966 |                 6500 |           20574386 |       3464626 |            33931 |        71063007 |                     0 |      73695295 | 2017-02-06 18:00:10.837486+01

 2017-02-06 20:12:00.638698+01 | 1486408320.6387 |                 0 |              25 |                356966 |                 6500 |           20574386 |       3465226 |            33937 |        71063007 |                     0 |      73713207 | 2017-02-06 18:00:10.837486+01

 2017-02-06 20:12:01.741198+01 | 1486408321.7412 |                 0 |              25 |                356966 |                 6500 |           20574386 |       3465726 |            33942 |        71063007 |                     0 |      73726500 | 2017-02-06 18:00:10.837486+01

 2017-02-06 20:12:02.831609+01 | 1486408322.83161 |                 0 |              25 |                356966 |                 6500 |           20574386 |       3466326 |            33948 |        71063007 |                     0 |      73743692 | 2017-02-06 18:00:10.837486+01

 2017-02-06 20:12:03.917598+01 | 1486408323.9176 |                 0 |              25 |                356966 |                 6500 |           20574386 |       3466826 |            33953 |        71063007 |                     0 |      73757815 | 2017-02-06 18:00:10.837486+01

 2017-02-06 20:12:04.994013+01 | 1486408324.99401 |                 0 |              25 |                356966 |                 6500 |           20574386 |       3467326 |            33958 |        71063007 |                     0 |      73771017 | 2017-02-06 18:00:10.837486+01

 2017-02-06 20:12:06.084099+01 | 1486408326.0841 |                 0 |              25 |                356966 |                 6500 |           20574386 |       3467926 |            33964 |        71063007 |                     0 |      73787839 | 2017-02-06 18:00:10.837486+01

 2017-02-06 20:12:07.187231+01 | 1486408327.18723 |                 0 |              25 |                356966 |                 6500 |           20574386 |       3468426 |            33969 |        71063007 |                     0 |      73801597 | 2017-02-06 18:00:10.837486+01

 2017-02-06 20:12:08.277452+01 | 1486408328.27745 |                 0 |              25 |                356966 |                 6500 |           20574386 |       3469026 |            33975 |        71063007 |                     0 |      73819034 | 2017-02-06 18:00:10.837486+01

 2017-02-06 20:12:09.365489+01 | 1486408329.36549 |                 0 |              25 |                356966 |                 6500 |           20574386 |       3469526 |            33980 |        71063007 |                     0 |      73831806 | 2017-02-06 18:00:10.837486+01

 2017-02-06 20:12:10.456929+01 | 1486408330.45693 |                 0 |              25 |                356966 |                 6500 |           20574386 |       3470026 |            33985 |        71063007 |                     0 |      73846129 | 2017-02-06 18:00:10.837486+01

 2017-02-06 20:12:11.545209+01 | 1486408331.54521 |                 0 |              25 |                356966 |                 6500 |           20574386 |       3470626 |            33991 |        71063007 |                     0 |      73861691 | 2017-02-06 18:00:10.837486+01

 2017-02-06 20:12:12.635718+01 | 1486408332.63572 |                 0 |              25 |                356966 |                 6500 |           20574386 |       3471126 |            33996 |        71063007 |                     0 |      73875962 | 2017-02-06 18:00:10.837486+01

 2017-02-06 20:12:13.699976+01 | 1486408333.69998 |                 0 |              25 |                356966 |                 6500 |           20574386 |       3471626 |            34001 |        71063007 |                     0 |      73890844 | 2017-02-06 18:00:10.837486+01

 2017-02-06 20:12:14.775901+01 | 1486408334.7759 |                 0 |              25 |                356966 |                 6500 |           20574386 |       3472226 |            34007 |        71063007 |                     0 |      73902550 | 2017-02-06 18:00:10.837486+01

 2017-02-06 20:12:15.865884+01 | 1486408335.86588 |                 0 |              25 |                356966 |                 6500 |           20574386 |       3472726 |            34012 |        71063007 |                     0 |      73914066 | 2017-02-06 18:00:10.837486+01

 2017-02-06 20:12:16.947978+01 | 1486408336.94798 |                 0 |              25 |                356966 |                 6500 |           20574386 |       3473226 |            34017 |        71063007 |                     0 |      73928551 | 2017-02-06 18:00:10.837486+01

 2017-02-06 20:12:18.040301+01 | 1486408338.0403 |                 0 |              25 |                356966 |                 6500 |           20574386 |       3473826 |            34023 |        71063007 |                     0 |      73945605 | 2017-02-06 18:00:10.837486+01

 2017-02-06 20:12:19.121561+01 | 1486408339.12156 |                 0 |              25 |                356966 |                 6500 |           20574386 |       3474326 |            34028 |        71063007 |                     0 |      73959486 | 2017-02-06 18:00:10.837486+01

 2017-02-06 20:12:20.218329+01 | 1486408340.21833 |                 0 |              25 |                356966 |                 6500 |           20574386 |       3474926 |            34034 |        71063007 |                     0 |      73976105 | 2017-02-06 18:00:10.837486+01

 2017-02-06 20:12:21.307323+01 | 1486408341.30732 |                 0 |              25 |                356966 |                 6500 |           20574386 |       3475426 |            34039 |        71063007 |                     0 |      73988900 | 2017-02-06 18:00:10.837486+01

 2017-02-06 20:12:22.392626+01 | 1486408342.39263 |                 0 |              25 |                356966 |                 6500 |           20574386 |       3475926 |            34044 |        71063007 |                     0 |      74000700 | 2017-02-06 18:00:10.837486+01

 2017-02-06 20:12:23.475565+01 | 1486408343.47556 |                 0 |              25 |                356966 |                 6500 |           20574386 |       3476526 |            34050 |        71063007 |                     0 |      74013085 | 2017-02-06 18:00:10.837486+01

 2017-02-06 20:12:24.569147+01 | 1486408344.56915 |                 0 |              25 |                356966 |                 6500 |           20574386 |       3477026 |            34055 |        71569196 |                     0 |      74024214 | 2017-02-06 18:00:10.837486+01

 2017-02-06 20:12:25.672338+01 | 1486408345.67234 |                 0 |              25 |                356966 |                 6500 |           20574386 |       3477626 |            34061 |        71569196 |                     0 |      74040585 | 2017-02-06 18:00:10.837486+01

 2017-02-06 20:12:26.761828+01 | 1486408346.76183 |                 0 |              25 |                356966 |                 6500 |           20574386 |       3478126 |            34066 |        71569196 |                     0 |      74052828 | 2017-02-06 18:00:10.837486+01

 2017-02-06 20:12:27.85959+01 | 1486408347.85959 |                 0 |              25 |                356966 |                 6500 |           20574386 |       3478626 |            34071 |        71569196 |                     0 |      74066420 | 2017-02-06 18:00:10.837486+01

 2017-02-06 20:12:28.957036+01 | 1486408348.95704 |                 0 |              25 |                356966 |                 6500 |           20574386 |       3479226 |            34077 |        71569196 |                     0 |      74084503 | 2017-02-06 18:00:10.837486+01

 2017-02-06 20:12:30.046929+01 | 1486408350.04693 |                 0 |              25 |                356966 |                 6500 |           20574386 |       3479726 |            34082 |        71569196 |                     0 |      74097957 | 2017-02-06 18:00:10.837486+01

 2017-02-06 20:12:31.12518+01 | 1486408351.12518 |                 0 |              25 |                356966 |                 6500 |           20574386 |       3480326 |            34088 |        71569196 |                     0 |      74115150 | 2017-02-06 18:00:10.837486+01

 2017-02-06 20:12:32.206532+01 | 1486408352.20653 |                 0 |              25 |                356966 |                 6500 |           20574386 |       3480826 |            34093 |        71569196 |                     0 |      74127800 | 2017-02-06 18:00:10.837486+01

 2017-02-06 20:12:33.295587+01 | 1486408353.29559 |                 0 |              25 |                356966 |                 6500 |           20574386 |       3481326 |            34098 |        71569196 |                     0 |      74141508 | 2017-02-06 18:00:10.837486+01

 2017-02-06 20:12:34.394353+01 | 1486408354.39435 |                 0 |              25 |                356966 |                 6500 |           20574386 |       3481926 |            34104 |        71569196 |                     0 |      74157976 | 2017-02-06 18:00:10.837486+01

 2017-02-06 20:12:35.485323+01 | 1486408355.48532 |                 0 |              25 |                356966 |                 6500 |           20574386 |       3482426 |            34109 |        71569196 |                     0 |      74170740 | 2017-02-06 18:00:10.837486+01

 2017-02-06 20:12:36.553183+01 | 1486408356.55318 |                 0 |              25 |                356966 |                 6500 |           20574386 |       3483026 |            34115 |        71569196 |                     0 |      74188251 | 2017-02-06 18:00:10.837486+01

 2017-02-06 20:12:37.645878+01 | 1486408357.64588 |                 0 |              25 |                356966 |                 6500 |           20574386 |       3483526 |            34120 |        71569196 |                     0 |      74200942 | 2017-02-06 18:00:10.837486+01

 2017-02-06 20:12:38.738513+01 | 1486408358.73851 |                 0 |              25 |                356966 |                 6500 |           20574386 |       3484026 |            34125 |        71569196 |                     0 |      74214682 | 2017-02-06 18:00:10.837486+01

 2017-02-06 20:12:39.831259+01 | 1486408359.83126 |                 0 |              25 |                356966 |                 6500 |           20574386 |       3484626 |            34131 |        71569196 |                     0 |      74231116 | 2017-02-06 18:00:10.837486+01

 2017-02-06 20:12:40.923077+01 | 1486408360.92308 |                 0 |              25 |                356966 |                 6500 |           20574386 |       3485126 |            34136 |        71569196 |                     0 |      74245367 | 2017-02-06 18:00:10.837486+01

 2017-02-06 20:12:42.004535+01 | 1486408362.00453 |                 0 |              25 |                356966 |                 6500 |           20574386 |       3485626 |            34141 |        71569196 |                     0 |      74258971 | 2017-02-06 18:00:10.837486+01

 2017-02-06 20:12:43.093504+01 | 1486408363.0935 |                 0 |              25 |                356966 |                 6500 |           20574386 |       3486226 |            34147 |        71569196 |                     0 |      74271817 | 2017-02-06 18:00:10.837486+01

 2017-02-06 20:12:44.17629+01 | 1486408364.17629 |                 0 |              25 |                356966 |                 6500 |           20574386 |       3486726 |            34152 |        71569196 |                     0 |      74282588 | 2017-02-06 18:00:10.837486+01

 2017-02-06 20:12:45.244971+01 | 1486408365.24497 |                 0 |              25 |                356966 |                 6500 |           20574386 |       3487226 |            34157 |        71569196 |                     0 |      74293663 | 2017-02-06 18:00:10.837486+01

 2017-02-06 20:12:46.321423+01 | 1486408366.32142 |                 0 |              25 |                356966 |                 6500 |           20574386 |       3487726 |            34162 |        71569196 |                     0 |      74303456 | 2017-02-06 18:00:10.837486+01

 2017-02-06 20:12:47.41719+01 | 1486408367.41719 |                 0 |              25 |                356966 |                 6500 |           20574386 |       3488326 |            34168 |        71569196 |                     0 |      74316916 | 2017-02-06 18:00:10.837486+01

 2017-02-06 20:12:48.511442+01 | 1486408368.51144 |                 0 |              25 |                356966 |                 6500 |           20574386 |       3488926 |            34174 |        71569196 |                     0 |      74329437 | 2017-02-06 18:00:10.837486+01

 2017-02-06 20:12:49.602878+01 | 1486408369.60288 |                 0 |              25 |                356966 |                 6500 |           20574386 |       3489426 |            34179 |        71569196 |                     0 |      74341415 | 2017-02-06 18:00:10.837486+01

 2017-02-06 20:12:50.693165+01 | 1486408370.69317 |                 0 |              25 |                356966 |                 6500 |           20574386 |       3489926 |            34184 |        71569196 |                     0 |      74352196 | 2017-02-06 18:00:10.837486+01

 2017-02-06 20:12:51.781253+01 | 1486408371.78125 |                 0 |              25 |                356966 |                 6500 |           20574386 |       3490526 |            34190 |        71569196 |                     0 |      74368285 | 2017-02-06 18:00:10.837486+01

 2017-02-06 20:12:52.875342+01 | 1486408372.87534 |                 0 |              25 |                356966 |                 6500 |           20574386 |       3491026 |            34195 |        71569196 |                     0 |      74381012 | 2017-02-06 18:00:10.837486+01

 2017-02-06 20:12:53.954994+01 | 1486408373.95499 |                 0 |              25 |                356966 |                 6500 |           20574386 |       3491626 |            34201 |        71569196 |                     0 |      74398255 | 2017-02-06 18:00:10.837486+01

 2017-02-06 20:12:55.037965+01 | 1486408375.03797 |                 0 |              25 |                356966 |                 6500 |           20574386 |       3492126 |            34206 |        71569196 |                     0 |      74410398 | 2017-02-06 18:00:10.837486+01

 2017-02-06 20:12:56.117338+01 | 1486408376.11734 |                 0 |              25 |                356966 |                 6500 |           20574386 |       3492626 |            34211 |        71569196 |                     0 |      74424277 | 2017-02-06 18:00:10.837486+01

 2017-02-06 20:12:57.197729+01 | 1486408377.19773 |                 0 |              25 |                356966 |                 6500 |           20574386 |       3493226 |            34217 |        71569196 |                     0 |      74440254 | 2017-02-06 18:00:10.837486+01

 2017-02-06 20:12:58.290922+01 | 1486408378.29092 |                 0 |              25 |                356966 |                 6500 |           20574386 |       3493726 |            34222 |        71569196 |                     0 |      74451048 | 2017-02-06 18:00:10.837486+01

 2017-02-06 20:12:59.372323+01 | 1486408379.37232 |                 0 |              25 |                356966 |                 6500 |           20574386 |       3494226 |            34227 |        71569196 |                     0 |      74461520 | 2017-02-06 18:00:10.837486+01

 2017-02-06 20:13:00.44419+01 | 1486408380.44419 |                 0 |              25 |                356966 |                 6500 |           20574386 |       3494826 |            34233 |        71569196 |                     0 |      74474824 | 2017-02-06 18:00:10.837486+01

 2017-02-06 20:13:01.529312+01 | 1486408381.52931 |                 0 |              25 |                356966 |                 6500 |           20574386 |       3495326 |            34238 |        71569196 |                     0 |      74485984 | 2017-02-06 18:00:10.837486+01

 2017-02-06 20:13:02.612139+01 | 1486408382.61214 |                 0 |              25 |                356966 |                 6500 |           20574386 |       3495826 |            34243 |        72074584 |                     0 |      74496751 | 2017-02-06 18:00:10.837486+01

 2017-02-06 20:13:03.700515+01 | 1486408383.70052 |                 0 |              25 |                356966 |                 6500 |           20574386 |       3496426 |            34249 |        72074584 |                     0 |      74511356 | 2017-02-06 18:00:10.837486+01

 2017-02-06 20:13:04.797253+01 | 1486408384.79725 |                 0 |              25 |                356966 |                 6500 |           20574386 |       3496926 |            34254 |        72074584 |                     0 |      74524561 | 2017-02-06 18:00:10.837486+01

 2017-02-06 20:13:05.881267+01 | 1486408385.88127 |                 0 |              25 |                356966 |                 6500 |           20574386 |       3497526 |            34260 |        72074584 |                     0 |      74541656 | 2017-02-06 18:00:10.837486+01

 2017-02-06 20:13:06.973355+01 | 1486408386.97336 |                 0 |              25 |                356966 |                 6500 |           20574386 |       3498026 |            34265 |        72074584 |                     0 |      74554500 | 2017-02-06 18:00:10.837486+01

 2017-02-06 20:13:08.060099+01 | 1486408388.0601 |                 0 |              25 |                356966 |                 6500 |           20574386 |       3498526 |            34270 |        72074584 |                     0 |      74568211 | 2017-02-06 18:00:10.837486+01

 2017-02-06 20:13:09.144449+01 | 1486408389.14445 |                 0 |              25 |                356966 |                 6500 |           20574386 |       3499126 |            34276 |        72074584 |                     0 |      74585363 | 2017-02-06 18:00:10.837486+01

 2017-02-06 20:13:10.230931+01 | 1486408390.23093 |                 0 |              25 |                356966 |                 6500 |           20574386 |       3499626 |            34281 |        72074584 |                     0 |      74598133 | 2017-02-06 18:00:10.837486+01

 2017-02-06 20:13:11.314058+01 | 1486408391.31406 |                 0 |              25 |                356966 |                 6500 |           20574386 |       3500126 |            34286 |        72074584 |                     0 |      74608501 | 2017-02-06 18:00:10.837486+01

 2017-02-06 20:13:12.395758+01 | 1486408392.39576 |                 0 |              25 |                356966 |                 6500 |           20574386 |       3500726 |            34292 |        72074584 |                     0 |      74622373 | 2017-02-06 18:00:10.837486+01

 2017-02-06 20:13:13.474503+01 | 1486408393.4745 |                 0 |              25 |                356966 |                 6500 |           20574386 |       3501226 |            34297 |        72074584 |                     0 |      74632944 | 2017-02-06 18:00:10.837486+01

 2017-02-06 20:13:14.565706+01 | 1486408394.56571 |                 0 |              25 |                356966 |                 6500 |           20574386 |       3501726 |            34302 |        72074584 |                     0 |      74642811 | 2017-02-06 18:00:10.837486+01

 2017-02-06 20:13:15.654924+01 | 1486408395.65492 |                 0 |              25 |                356966 |                 6500 |           20574386 |       3502326 |            34308 |        72074584 |                     0 |      74658274 | 2017-02-06 18:00:10.837486+01

 2017-02-06 20:13:16.739515+01 | 1486408396.73952 |                 0 |              25 |                356966 |                 6500 |           20574386 |       3502826 |            34313 |        72074584 |                     0 |      74668956 | 2017-02-06 18:00:10.837486+01

 2017-02-06 20:13:17.832691+01 | 1486408397.83269 |                 0 |              25 |                356966 |                 6500 |           20574386 |       3503426 |            34319 |        72074584 |                     0 |      74681505 | 2017-02-06 18:00:10.837486+01

 2017-02-06 20:13:18.928386+01 | 1486408398.92839 |                 0 |              25 |                356966 |                 6500 |           20574386 |       3503926 |            34324 |        72074584 |                     0 |      74693659 | 2017-02-06 18:00:10.837486+01

 2017-02-06 20:13:20.02506+01 | 1486408400.02506 |                 0 |              25 |                356966 |                 6500 |           20574386 |       3504526 |            34330 |        72074584 |                     0 |      74705968 | 2017-02-06 18:00:10.837486+01

 2017-02-06 20:13:21.111123+01 | 1486408401.11112 |                 0 |              25 |                356966 |                 6500 |           20574386 |       3505026 |            34335 |        72074584 |                     0 |      74716479 | 2017-02-06 18:00:10.837486+01

 2017-02-06 20:13:22.192101+01 | 1486408402.1921 |                 0 |              25 |                356966 |                 6500 |           20574386 |       3505526 |            34340 |        72074584 |                     0 |      74728554 | 2017-02-06 18:00:10.837486+01

 2017-02-06 20:13:23.268442+01 | 1486408403.26844 |                 0 |              25 |                356966 |                 6500 |           20574386 |       3506126 |            34346 |        72074584 |                     0 |      74741829 | 2017-02-06 18:00:10.837486+01

 2017-02-06 20:13:24.352888+01 | 1486408404.35289 |                 0 |              25 |                356966 |                 6500 |           20574386 |       3506626 |            34351 |        72074584 |                     0 |      74753377 | 2017-02-06 18:00:10.837486+01

 2017-02-06 20:13:25.431857+01 | 1486408405.43186 |                 0 |              25 |                356966 |                 6500 |           20574386 |       3507126 |            34356 |        72074584 |                     0 |      74764706 | 2017-02-06 18:00:10.837486+01

 2017-02-06 20:13:26.508937+01 | 1486408406.50894 |                 0 |              25 |                356966 |                 6500 |           20574386 |       3507726 |            34362 |        72074584 |                     0 |      74779900 | 2017-02-06 18:00:10.837486+01

 2017-02-06 20:13:27.5959+01 | 1486408407.5959 |                 0 |              25 |                356966 |                 6500 |           20574386 |       3508226 |            34367 |        72074584 |                     0 |      74792421 | 2017-02-06 18:00:10.837486+01

 2017-02-06 20:13:28.695021+01 | 1486408408.69502 |                 0 |              25 |                356966 |                 6500 |           20574386 |       3508726 |            34372 |        72074584 |                     0 |      74806952 | 2017-02-06 18:00:10.837486+01

 2017-02-06 20:13:29.787792+01 | 1486408409.78779 |                 0 |              25 |                356966 |                 6500 |           20574386 |       3509326 |            34378 |        72074584 |                     0 |      74822116 | 2017-02-06 18:00:10.837486+01

 2017-02-06 20:13:30.889253+01 | 1486408410.88925 |                 0 |              25 |                356966 |                 6500 |           20574386 |       3509826 |            34383 |        72074584 |                     0 |      74835852 | 2017-02-06 18:00:10.837486+01

 2017-02-06 20:13:31.972708+01 | 1486408411.97271 |                 0 |              25 |                356966 |                 6500 |           20574386 |       3510426 |            34389 |        72074584 |                     0 |      74851073 | 2017-02-06 18:00:10.837486+01

 2017-02-06 20:13:33.065725+01 | 1486408413.06573 |                 0 |              25 |                356966 |                 6500 |           20574386 |       3510926 |            34394 |        72074584 |                     0 |      74865206 | 2017-02-06 18:00:10.837486+01

 2017-02-06 20:13:34.146541+01 | 1486408414.14654 |                 0 |              25 |                356966 |                 6500 |           20574386 |       3511426 |            34399 |        72074584 |                     0 |      74879088 | 2017-02-06 18:00:10.837486+01

 2017-02-06 20:13:35.235126+01 | 1486408415.23513 |                 0 |              25 |                356966 |                 6500 |           20574386 |       3512026 |            34405 |        72074584 |                     0 |      74895096 | 2017-02-06 18:00:10.837486+01

 2017-02-06 20:13:36.313144+01 | 1486408416.31314 |                 0 |              25 |                356966 |                 6500 |           20574386 |       3512526 |            34410 |        72074584 |                     0 |      74908881 | 2017-02-06 18:00:10.837486+01

 2017-02-06 20:13:37.393737+01 | 1486408417.39374 |                 0 |              25 |                356966 |                 6500 |           20574386 |       3513126 |            34416 |        72074584 |                     0 |      74924573 | 2017-02-06 18:00:10.837486+01

 2017-02-06 20:13:38.479804+01 | 1486408418.4798 |                 0 |              25 |                356966 |                 6500 |           20574386 |       3513626 |            34421 |        72074584 |                     0 |      74938613 | 2017-02-06 18:00:10.837486+01

 2017-02-06 20:13:39.559631+01 | 1486408419.55963 |                 0 |              25 |                356966 |                 6500 |           20574386 |       3514126 |            34426 |        72074584 |                     0 |      74952469 | 2017-02-06 18:00:10.837486+01

 2017-02-06 20:13:40.639698+01 | 1486408420.6397 |                 0 |              25 |                356966 |                 6500 |           20574386 |       3514726 |            34432 |        72580032 |                     0 |      74968483 | 2017-02-06 18:00:10.837486+01

 2017-02-06 20:13:41.742258+01 | 1486408421.74226 |                 0 |              25 |                356966 |                 6500 |           20574386 |       3515226 |            34437 |        72580032 |                     0 |      74981385 | 2017-02-06 18:00:10.837486+01

 2017-02-06 20:13:42.828223+01 | 1486408422.82822 |                 0 |              25 |                356966 |                 6500 |           20574386 |       3515726 |            34442 |        72580032 |                     0 |      74994777 | 2017-02-06 18:00:10.837486+01

 2017-02-06 20:13:43.920383+01 | 1486408423.92038 |                 0 |              25 |                356966 |                 6500 |           20574386 |       3516326 |            34448 |        72580032 |                     0 |      75011022 | 2017-02-06 18:00:10.837486+01

 2017-02-06 20:13:44.995311+01 | 1486408424.99531 |                 0 |              25 |                356966 |                 6500 |           20574386 |       3516726 |            34452 |        72580032 |                     0 |      75021385 | 2017-02-06 18:00:10.837486+01

 2017-02-06 20:13:46.067013+01 | 1486408426.06701 |                 0 |              25 |                356966 |                 6500 |           20574386 |       3517326 |            34458 |        72580032 |                     0 |      75037491 | 2017-02-06 18:00:10.837486+01

 2017-02-06 20:13:47.150319+01 | 1486408427.15032 |                 0 |              25 |                356966 |                 6500 |           20574386 |       3517926 |            34464 |        72580032 |                     0 |      75055578 | 2017-02-06 18:00:10.837486+01

 2017-02-06 20:13:48.233729+01 | 1486408428.23373 |                 0 |              25 |                356966 |                 6500 |           20574386 |       3518426 |            34469 |        72580032 |                     0 |      75069514 | 2017-02-06 18:00:10.837486+01

 2017-02-06 20:13:49.317495+01 | 1486408429.3175 |                 0 |              25 |                356966 |                 6500 |           20574386 |       3519026 |            34475 |        72580032 |                     0 |      75085085 | 2017-02-06 18:00:10.837486+01

 2017-02-06 20:13:50.399419+01 | 1486408430.39942 |                 0 |              25 |                356966 |                 6500 |           20574386 |       3519526 |            34480 |        72580032 |                     0 |      75099882 | 2017-02-06 18:00:10.837486+01

 2017-02-06 20:13:51.472706+01 | 1486408431.47271 |                 0 |              25 |                356966 |                 6500 |           20574386 |       3520026 |            34485 |        72580032 |                     0 |      75113294 | 2017-02-06 18:00:10.837486+01

 2017-02-06 20:13:52.550425+01 | 1486408432.55043 |                 0 |              25 |                356966 |                 6500 |           20574386 |       3520626 |            34491 |        72580032 |                     0 |      75128654 | 2017-02-06 18:00:10.837486+01

 2017-02-06 20:13:53.633792+01 | 1486408433.63379 |                 0 |              25 |                356966 |                 6500 |           20574386 |       3521126 |            34496 |        72580032 |                     0 |      75141718 | 2017-02-06 18:00:10.837486+01

 2017-02-06 20:13:54.713936+01 | 1486408434.71394 |                 0 |              25 |                356966 |                 6500 |           20574386 |       3521626 |            34501 |        72580032 |                     0 |      75155351 | 2017-02-06 18:00:10.837486+01

 2017-02-06 20:13:55.798678+01 | 1486408435.79868 |                 0 |              25 |                356966 |                 6500 |           20574386 |       3522226 |            34507 |        72580032 |                     0 |      75171209 | 2017-02-06 18:00:10.837486+01

 2017-02-06 20:13:56.907581+01 | 1486408436.90758 |                 0 |              25 |                356966 |                 6500 |           20574386 |       3522726 |            34512 |        72580032 |                     0 |      75185322 | 2017-02-06 18:00:10.837486+01

 2017-02-06 20:13:57.997709+01 | 1486408437.99771 |                 0 |              25 |                356966 |                 6500 |           20574386 |       3523226 |            34517 |        72580032 |                     0 |      75198167 | 2017-02-06 18:00:10.837486+01

 2017-02-06 20:13:59.089029+01 | 1486408439.08903 |                 0 |              25 |                356966 |                 6500 |           20574386 |       3523826 |            34523 |        72580032 |                     0 |      75215679 | 2017-02-06 18:00:10.837486+01

 2017-02-06 20:14:00.18365+01 | 1486408440.18365 |                 0 |              25 |                356966 |                 6500 |           20574386 |       3524326 |            34528 |        72580032 |                     0 |      75228612 | 2017-02-06 18:00:10.837486+01

 2017-02-06 20:14:01.253989+01 | 1486408441.25399 |                 0 |              25 |                356966 |                 6500 |           20574386 |       3524926 |            34534 |        72580032 |                     0 |      75246496 | 2017-02-06 18:00:10.837486+01

 2017-02-06 20:14:02.331293+01 | 1486408442.33129 |                 0 |              25 |                356966 |                 6500 |           20574386 |       3525426 |            34539 |        72580032 |                     0 |      75259457 | 2017-02-06 18:00:10.837486+01

 2017-02-06 20:14:03.411913+01 | 1486408443.41191 |                 0 |              25 |                356966 |                 6500 |           20574386 |       3525926 |            34544 |        72580032 |                     0 |      75273278 | 2017-02-06 18:00:10.837486+01

 2017-02-06 20:14:04.49505+01 | 1486408444.49505 |                 0 |              25 |                356966 |                 6500 |           20574386 |       3526526 |            34550 |        72580032 |                     0 |      75288572 | 2017-02-06 18:00:10.837486+01

 2017-02-06 20:14:05.579075+01 | 1486408445.57908 |                 0 |              25 |                356966 |                 6500 |           20574386 |       3527026 |            34555 |        72580032 |                     0 |      75303439 | 2017-02-06 18:00:10.837486+01

 2017-02-06 20:14:06.662127+01 | 1486408446.66213 |                 0 |              25 |                356966 |                 6500 |           20574386 |       3527526 |            34560 |        72580032 |                     0 |      75316805 | 2017-02-06 18:00:10.837486+01

 2017-02-06 20:14:07.74253+01 | 1486408447.74253 |                 0 |              25 |                356966 |                 6500 |           20574386 |       3528126 |            34566 |        72580032 |                     0 |      75332233 | 2017-02-06 18:00:10.837486+01

 2017-02-06 20:14:08.829714+01 | 1486408448.82971 |                 0 |              25 |                356966 |                 6500 |           20574386 |       3528626 |            34571 |        72580032 |                     0 |      75345908 | 2017-02-06 18:00:10.837486+01

 2017-02-06 20:14:09.917037+01 | 1486408449.91704 |                 0 |              25 |                356966 |                 6500 |           20574386 |       3529126 |            34576 |        72580032 |                     0 |      75360023 | 2017-02-06 18:00:10.837486+01

 2017-02-06 20:14:11.006425+01 | 1486408451.00642 |                 0 |              25 |                356966 |                 6500 |           20574386 |       3529726 |            34582 |        72580032 |                     0 |      75376188 | 2017-02-06 18:00:10.837486+01

 2017-02-06 20:14:12.096654+01 | 1486408452.09665 |                 0 |              25 |                356966 |                 6500 |           20574386 |       3530226 |            34587 |        72580032 |                     0 |      75390004 | 2017-02-06 18:00:10.837486+01

 2017-02-06 20:14:13.189321+01 | 1486408453.18932 |                 0 |              25 |                356966 |                 6500 |           20574386 |       3530826 |            34593 |        72580032 |                     0 |      75407078 | 2017-02-06 18:00:10.837486+01

 2017-02-06 20:14:14.267685+01 | 1486408454.26768 |                 0 |              25 |                356966 |                 6500 |           20574386 |       3531326 |            34598 |        72580032 |                     0 |      75421118 | 2017-02-06 18:00:10.837486+01

 2017-02-06 20:14:15.349085+01 | 1486408455.34909 |                 0 |              25 |                356966 |                 6500 |           20574386 |       3531826 |            34603 |        72580032 |                     0 |      75434405 | 2017-02-06 18:00:10.837486+01

 2017-02-06 20:14:16.431827+01 | 1486408456.43183 |                 0 |              25 |                356966 |                 6500 |           20574386 |       3532426 |            34609 |        73086862 |                     0 |      75451836 | 2017-02-06 18:00:10.837486+01

 2017-02-06 20:14:17.511572+01 | 1486408457.51157 |                 0 |              25 |                356966 |                 6500 |           20574386 |       3532926 |            34614 |        73086862 |                     0 |      75465476 | 2017-02-06 18:00:10.837486+01

 2017-02-06 20:14:18.590943+01 | 1486408458.59094 |                 0 |              25 |                356966 |                 6500 |           20574386 |       3533426 |            34619 |        73086862 |                     0 |      75478249 | 2017-02-06 18:00:10.837486+01

 2017-02-06 20:14:19.680314+01 | 1486408459.68031 |                 0 |              25 |                356966 |                 6500 |           20574386 |       3534026 |            34625 |        73086862 |                     0 |      75494574 | 2017-02-06 18:00:10.837486+01

 2017-02-06 20:14:20.77593+01 | 1486408460.77593 |                 0 |              25 |                356966 |                 6500 |           20574386 |       3534526 |            34630 |        73086862 |                     0 |      75508890 | 2017-02-06 18:00:10.837486+01

 2017-02-06 20:14:21.868287+01 | 1486408461.86829 |                 0 |              25 |                356966 |                 6500 |           20574386 |       3535126 |            34636 |        73086862 |                     0 |      75525016 | 2017-02-06 18:00:10.837486+01

 2017-02-06 20:14:22.961101+01 | 1486408462.9611 |                 0 |              25 |                356966 |                 6500 |           20574386 |       3535626 |            34641 |        73086862 |                     0 |      75537976 | 2017-02-06 18:00:10.837486+01

 2017-02-06 20:14:24.046551+01 | 1486408464.04655 |                 0 |              25 |                356966 |                 6500 |           20574386 |       3536126 |            34646 |        73086862 |                     0 |      75552380 | 2017-02-06 18:00:10.837486+01

 2017-02-06 20:14:25.129887+01 | 1486408465.12989 |                 0 |              25 |                356966 |                 6500 |           20574386 |       3536726 |            34652 |        73086862 |                     0 |      75569209 | 2017-02-06 18:00:10.837486+01

 2017-02-06 20:14:26.21808+01 | 1486408466.21808 |                 0 |              25 |                356966 |                 6500 |           20574386 |       3537226 |            34657 |        73086862 |                     0 |      75582760 | 2017-02-06 18:00:10.837486+01

 2017-02-06 20:14:27.297529+01 | 1486408467.29753 |                 0 |              25 |                356966 |                 6500 |           20574386 |       3537826 |            34663 |        73086862 |                     0 |      75599378 | 2017-02-06 18:00:10.837486+01

 2017-02-06 20:14:28.375808+01 | 1486408468.37581 |                 0 |              25 |                356966 |                 6500 |           20574386 |       3538326 |            34668 |        73086862 |                     0 |      75614482 | 2017-02-06 18:00:10.837486+01

 2017-02-06 20:14:29.45338+01 | 1486408469.45338 |                 0 |              25 |                356966 |                 6500 |           20574386 |       3538826 |            34673 |        73086862 |                     0 |      75628248 | 2017-02-06 18:00:10.837486+01

 2017-02-06 20:14:30.534355+01 | 1486408470.53435 |                 0 |              25 |                356966 |                 6500 |           20574386 |       3539426 |            34679 |        73086862 |                     0 |      75644585 | 2017-02-06 18:00:10.837486+01

 2017-02-06 20:14:31.607346+01 | 1486408471.60735 |                 0 |              25 |                356966 |                 6500 |           20574386 |       3539926 |            34684 |        73086862 |                     0 |      75659169 | 2017-02-06 18:00:10.837486+01

 2017-02-06 20:14:32.690109+01 | 1486408472.69011 |                 0 |              25 |                356966 |                 6500 |           20574386 |       3540426 |            34689 |        73086862 |                     0 |      75672752 | 2017-02-06 18:00:10.837486+01

 2017-02-06 20:14:33.777098+01 | 1486408473.7771 |                 0 |              25 |                356966 |                 6500 |           20574386 |       3541026 |            34695 |        73086862 |                     0 |      75689618 | 2017-02-06 18:00:10.837486+01

 2017-02-06 20:14:34.862874+01 | 1486408474.86287 |                 0 |              25 |                356966 |                 6500 |           20574386 |       3541526 |            34700 |        73086862 |                     0 |      75702998 | 2017-02-06 18:00:10.837486+01

 2017-02-06 20:14:35.930532+01 | 1486408475.93053 |                 0 |              25 |                356966 |                 6500 |           20574386 |       3542026 |            34705 |        73086862 |                     0 |      75717546 | 2017-02-06 18:00:10.837486+01

 2017-02-06 20:14:37.009297+01 | 1486408477.0093 |                 0 |              25 |                356966 |                 6500 |           20574386 |       3542626 |            34711 |        73086862 |                     0 |      75733589 | 2017-02-06 18:00:10.837486+01

 2017-02-06 20:14:38.105519+01 | 1486408478.10552 |                 0 |              25 |                356966 |                 6500 |           20574386 |       3543126 |            34716 |        73086862 |                     0 |      75747659 | 2017-02-06 18:00:10.837486+01

 2017-02-06 20:14:39.204059+01 | 1486408479.20406 |                 0 |              25 |                356966 |                 6500 |           20574386 |       3543626 |            34721 |        73086862 |                     0 |      75761859 | 2017-02-06 18:00:10.837486+01

 2017-02-06 20:14:40.282407+01 | 1486408480.28241 |                 0 |              25 |                356966 |                 6500 |           20574386 |       3544226 |            34727 |        73086862 |                     0 |      75779284 | 2017-02-06 18:00:10.837486+01

 2017-02-06 20:14:41.358164+01 | 1486408481.35816 |                 0 |              25 |                356966 |                 6500 |           20574386 |       3544726 |            34732 |        73086862 |                     0 |      75792839 | 2017-02-06 18:00:10.837486+01

 2017-02-06 20:14:42.438408+01 | 1486408482.43841 |                 0 |              25 |                356966 |                 6500 |           20574386 |       3545226 |            34737 |        73086862 |                     0 |      75805465 | 2017-02-06 18:00:10.837486+01

 2017-02-06 20:14:43.513862+01 | 1486408483.51386 |                 0 |              25 |                356966 |                 6500 |           20574386 |       3545826 |            34743 |        73086862 |                     0 |      75823149 | 2017-02-06 18:00:10.837486+01

 2017-02-06 20:14:44.593485+01 | 1486408484.59349 |                 0 |              25 |                356966 |                 6500 |           20574386 |       3546326 |            34748 |        73086862 |                     0 |      75836933 | 2017-02-06 18:00:10.837486+01

 2017-02-06 20:14:45.665818+01 | 1486408485.66582 |                 0 |              25 |                356966 |                 6500 |           20574386 |       3546726 |            34752 |        73086862 |                     0 |      75846903 | 2017-02-06 18:00:10.837486+01

 2017-02-06 20:14:46.741513+01 | 1486408486.74151 |                 0 |              25 |                356966 |                 6500 |           20574386 |       3547426 |            34759 |        73086862 |                     0 |      75867330 | 2017-02-06 18:00:10.837486+01

 2017-02-06 20:14:47.820565+01 | 1486408487.82056 |                 0 |              25 |                356966 |                 6500 |           20574386 |       3547926 |            34764 |        73086862 |                     0 |      75877955 | 2017-02-06 18:00:10.837486+01

 2017-02-06 20:14:48.918823+01 | 1486408488.91882 |                 0 |              25 |                356966 |                 6500 |           20574386 |       3548426 |            34769 |        73086862 |                     0 |      75891257 | 2017-02-06 18:00:10.837486+01

 2017-02-06 20:14:50.007965+01 | 1486408490.00797 |                 0 |              25 |                356966 |                 6500 |           20574386 |       3549026 |            34775 |        73086862 |                     0 |      75904854 | 2017-02-06 18:00:10.837486+01

 2017-02-06 20:14:51.107084+01 | 1486408491.10708 |                 0 |              25 |                356966 |                 6500 |           20574386 |       3549526 |            34780 |        73593658 |                     0 |      75915778 | 2017-02-06 18:00:10.837486+01

 2017-02-06 20:14:52.203088+01 | 1486408492.20309 |                 0 |              25 |                356966 |                 6500 |           20574386 |       3550126 |            34786 |        73593658 |                     0 |      75930994 | 2017-02-06 18:00:10.837486+01

 2017-02-06 20:14:53.293563+01 | 1486408493.29356 |                 0 |              25 |                356966 |                 6500 |           20574386 |       3550626 |            34791 |        73593658 |                     0 |      75943124 | 2017-02-06 18:00:10.837486+01

 2017-02-06 20:14:54.374905+01 | 1486408494.37491 |                 0 |              25 |                356966 |                 6500 |           20574386 |       3551226 |            34797 |        73593658 |                     0 |      75960292 | 2017-02-06 18:00:10.837486+01

 2017-02-06 20:14:55.454203+01 | 1486408495.4542 |                 0 |              25 |                356966 |                 6500 |           20574386 |       3551726 |            34802 |        73593658 |                     0 |      75973361 | 2017-02-06 18:00:10.837486+01

 2017-02-06 20:14:56.53882+01 | 1486408496.53882 |                 0 |              25 |                356966 |                 6500 |           20574386 |       3552226 |            34807 |        73593658 |                     0 |      75985826 | 2017-02-06 18:00:10.837486+01

 2017-02-06 20:14:57.621964+01 | 1486408497.62196 |                 0 |              25 |                356966 |                 6500 |           20574386 |       3552826 |            34813 |        73593658 |                     0 |      76003527 | 2017-02-06 18:00:10.837486+01

 2017-02-06 20:14:58.713873+01 | 1486408498.71387 |                 0 |              25 |                356966 |                 6500 |           20574386 |       3553326 |            34818 |        73593658 |                     0 |      76018032 | 2017-02-06 18:00:10.837486+01

 2017-02-06 20:14:59.800816+01 | 1486408499.80082 |                 0 |              25 |                356966 |                 6500 |           20574386 |       3553826 |            34823 |        73593658 |                     0 |      76030714 | 2017-02-06 18:00:10.837486+01

 2017-02-06 20:15:00.884522+01 | 1486408500.88452 |                 0 |              25 |                356966 |                 6500 |           20574386 |       3554426 |            34829 |        73593658 |                     0 |      76046316 | 2017-02-06 18:00:10.837486+01

 2017-02-06 20:15:01.971287+01 | 1486408501.97129 |                 0 |              25 |                356966 |                 6500 |           20574386 |       3554926 |            34834 |        73593658 |                     0 |      76058666 | 2017-02-06 18:00:10.837486+01

 2017-02-06 20:15:03.062481+01 | 1486408503.06248 |                 0 |              25 |                356966 |                 6500 |           20574386 |       3555426 |            34839 |        73593658 |                     0 |      76069622 | 2017-02-06 18:00:10.837486+01

 2017-02-06 20:15:04.142044+01 | 1486408504.14204 |                 0 |              25 |                356966 |                 6500 |           20574386 |       3556026 |            34845 |        73593658 |                     0 |      76084532 | 2017-02-06 18:00:10.837486+01

 2017-02-06 20:15:05.237805+01 | 1486408505.2378 |                 0 |              25 |                356966 |                 6500 |           20574386 |       3556526 |            34850 |        73593658 |                     0 |      76095484 | 2017-02-06 18:00:10.837486+01

 2017-02-06 20:15:06.3237+01 | 1486408506.3237 |                 0 |              25 |                356966 |                 6500 |           20574386 |       3557126 |            34856 |        73593658 |                     0 |      76108691 | 2017-02-06 18:00:10.837486+01

 2017-02-06 20:15:07.408021+01 | 1486408507.40802 |                 0 |              25 |                356966 |                 6500 |           20574386 |       3557626 |            34861 |        73593658 |                     0 |      76123025 | 2017-02-06 18:00:10.837486+01

 2017-02-06 20:15:08.485266+01 | 1486408508.48527 |                 0 |              25 |                356966 |                 6500 |           20574386 |       3558126 |            34866 |        73593658 |                     0 |      76137364 | 2017-02-06 18:00:10.837486+01

 2017-02-06 20:15:09.564887+01 | 1486408509.56489 |                 0 |              25 |                356966 |                 6500 |           20574386 |       3558726 |            34872 |        73593658 |                     0 |      76153803 | 2017-02-06 18:00:10.837486+01

 2017-02-06 20:15:10.632876+01 | 1486408510.63288 |                 0 |              25 |                356966 |                 6500 |           20574386 |       3559226 |            34877 |        73593658 |                     0 |      76167334 | 2017-02-06 18:00:10.837486+01

 2017-02-06 20:15:11.714974+01 | 1486408511.71497 |                 0 |              25 |                356966 |                 6500 |           20574386 |       3559726 |            34882 |        73593658 |                     0 |      76177976 | 2017-02-06 18:00:10.837486+01

 2017-02-06 20:15:12.800253+01 | 1486408512.80025 |                 0 |              25 |                356966 |                 6500 |           20574386 |       3560326 |            34888 |        73593658 |                     0 |      76192116 | 2017-02-06 18:00:10.837486+01

 2017-02-06 20:15:13.890518+01 | 1486408513.89052 |                 0 |              25 |                356966 |                 6500 |           20574386 |       3560826 |            34893 |        73593658 |                     0 |      76205113 | 2017-02-06 18:00:10.837486+01

 2017-02-06 20:15:14.969221+01 | 1486408514.96922 |                 0 |              25 |                356966 |                 6500 |           20574386 |       3561326 |            34898 |        73593658 |                     0 |      76216203 | 2017-02-06 18:00:10.837486+01

 2017-02-06 20:15:16.044714+01 | 1486408516.04471 |                 0 |              25 |                356966 |                 6500 |           20574386 |       3561926 |            34904 |        73593658 |                     0 |      76231114 | 2017-02-06 18:00:10.837486+01

 2017-02-06 20:15:17.141106+01 | 1486408517.14111 |                 0 |              25 |                356966 |                 6500 |           20574386 |       3562426 |            34909 |        73593658 |                     0 |      76241251 | 2017-02-06 18:00:10.837486+01

 2017-02-06 20:15:18.232666+01 | 1486408518.23267 |                 0 |              25 |                356966 |                 6500 |           20574386 |       3563026 |            34915 |        73593658 |                     0 |      76258855 | 2017-02-06 18:00:10.837486+01

 2017-02-06 20:15:19.330292+01 | 1486408519.33029 |                 0 |              25 |                356966 |                 6500 |           20574386 |       3563526 |            34920 |        73593658 |                     0 |      76273043 | 2017-02-06 18:00:10.837486+01

 2017-02-06 20:15:20.419008+01 | 1486408520.41901 |                 0 |              25 |                356966 |                 6500 |           20574386 |       3564026 |            34925 |        73593658 |                     0 |      76285777 | 2017-02-06 18:00:10.837486+01

 2017-02-06 20:15:21.496443+01 | 1486408521.49644 |                 0 |              25 |                356966 |                 6500 |           20574386 |       3564626 |            34931 |        73593658 |                     0 |      76303521 | 2017-02-06 18:00:10.837486+01

 2017-02-06 20:15:22.58188+01 | 1486408522.58188 |                 0 |              25 |                356966 |                 6500 |           20574386 |       3565126 |            34936 |        73593658 |                     0 |      76317190 | 2017-02-06 18:00:10.837486+01

 2017-02-06 20:15:23.663103+01 | 1486408523.6631 |                 0 |              25 |                356966 |                 6500 |           20574386 |       3565626 |            34941 |        73593658 |                     0 |      76331748 | 2017-02-06 18:00:10.837486+01

 2017-02-06 20:15:24.749888+01 | 1486408524.74989 |                 0 |              25 |                356966 |                 6500 |           20574386 |       3566226 |            34947 |        73593658 |                     0 |      76348204 | 2017-02-06 18:00:10.837486+01

 2017-02-06 20:15:25.837404+01 | 1486408525.8374 |                 0 |              25 |                356966 |                 6500 |           20574386 |       3566726 |            34952 |        73593658 |                     0 |      76361506 | 2017-02-06 18:00:10.837486+01

 2017-02-06 20:15:26.924334+01 | 1486408526.92433 |                 0 |              25 |                356966 |                 6500 |           20574386 |       3567326 |            34958 |        73593658 |                     0 |      76378080 | 2017-02-06 18:00:10.837486+01

 2017-02-06 20:15:28.009621+01 | 1486408528.00962 |                 0 |              25 |                356966 |                 6500 |           20574386 |       3567826 |            34963 |        74099747 |                     0 |      76392231 | 2017-02-06 18:00:10.837486+01

 2017-02-06 20:15:29.104051+01 | 1486408529.10405 |                 0 |              25 |                356966 |                 6500 |           20574386 |       3568326 |            34968 |        74099747 |                     0 |      76406556 | 2017-02-06 18:00:10.837486+01

 2017-02-06 20:15:30.197209+01 | 1486408530.19721 |                 0 |              25 |                356966 |                 6500 |           20574386 |       3568926 |            34974 |        74099747 |                     0 |      76423399 | 2017-02-06 18:00:10.837486+01

 2017-02-06 20:15:31.288027+01 | 1486408531.28803 |                 0 |              25 |                356966 |                 6500 |           20574386 |       3569426 |            34979 |        74099747 |                     0 |      76437307 | 2017-02-06 18:00:10.837486+01

 2017-02-06 20:15:32.385152+01 | 1486408532.38515 |                 0 |              25 |                356966 |                 6500 |           20574386 |       3570026 |            34985 |        74099747 |                     0 |      76454197 | 2017-02-06 18:00:10.837486+01

 2017-02-06 20:15:33.475094+01 | 1486408533.47509 |                 0 |              25 |                356966 |                 6500 |           20574386 |       3570526 |            34990 |        74099747 |                     0 |      76469069 | 2017-02-06 18:00:10.837486+01

 2017-02-06 20:15:34.566298+01 | 1486408534.5663 |                 0 |              25 |                356966 |                 6500 |           20574386 |       3571026 |            34995 |        74099747 |                     0 |      76482105 | 2017-02-06 18:00:10.837486+01

 2017-02-06 20:15:35.639414+01 | 1486408535.63941 |                 0 |              25 |                356966 |                 6500 |           20574386 |       3571626 |            35001 |        74099747 |                     0 |      76500415 | 2017-02-06 18:00:10.837486+01

