 2017-02-03 21:27:09.160752+01 | 1486153629.16075 | 3/1B53B98                |           12913556376

 2017-02-03 21:27:10.279552+01 | 1486153630.27955 | 3/1B53B98                |           12913556376

 2017-02-03 21:27:11.413251+01 | 1486153631.41325 | 3/1B53B98                |           12913556376

 2017-02-03 21:27:12.56244+01 | 1486153632.56244 | 3/1B53B98                |           12913556376

 2017-02-03 21:27:13.704931+01 | 1486153633.70493 | 3/1B53B98                |           12913556376

 2017-02-03 21:27:14.833048+01 | 1486153634.83305 | 3/1B53B98                |           12913556376

 2017-02-03 21:27:15.976934+01 | 1486153635.97693 | 3/1B53B98                |           12913556376

 2017-02-03 21:27:17.090376+01 | 1486153637.09038 | 3/1B53B98                |           12913556376

 2017-02-03 21:27:18.207172+01 | 1486153638.20717 | 3/1B53B98                |           12913556376

 2017-02-03 21:27:19.335802+01 | 1486153639.3358 | 3/1B53B98                |           12913556376

 2017-02-03 21:27:20.486665+01 | 1486153640.48667 | 3/1B53B98                |           12913556376

 2017-02-03 21:27:21.620109+01 | 1486153641.62011 | 3/1B53B98                |           12913556376

 2017-02-03 21:27:22.765262+01 | 1486153642.76526 | 3/1B53B98                |           12913556376

 2017-02-03 21:27:23.901135+01 | 1486153643.90113 | 3/1B53B98                |           12913556376

 2017-02-03 21:27:25.02283+01 | 1486153645.02283 | 3/1B53B98                |           12913556376

 2017-02-03 21:27:26.151304+01 | 1486153646.1513 | 3/1B53B98                |           12913556376

 2017-02-03 21:27:27.282621+01 | 1486153647.28262 | 3/1B53B98                |           12913556376

 2017-02-03 21:27:28.398815+01 | 1486153648.39881 | 3/1B53B98                |           12913556376

 2017-02-03 21:27:29.531595+01 | 1486153649.53159 | 3/1B53B98                |           12913556376

 2017-02-03 21:27:30.670897+01 | 1486153650.6709 | 3/1B53B98                |           12913556376

 2017-02-03 21:27:31.802339+01 | 1486153651.80234 | 3/1B53B98                |           12913556376

 2017-02-03 21:27:32.927378+01 | 1486153652.92738 | 3/1B53B98                |           12913556376

 2017-02-03 21:27:34.053687+01 | 1486153654.05369 | 3/1B53B98                |           12913556376

 2017-02-03 21:27:35.191147+01 | 1486153655.19115 | 3/1B53B98                |           12913556376

 2017-02-03 21:27:36.352453+01 | 1486153656.35245 | 3/1B53B98                |           12913556376

 2017-02-03 21:27:37.48438+01 | 1486153657.48438 | 3/1B53B98                |           12913556376

 2017-02-03 21:27:38.615688+01 | 1486153658.61569 | 3/1B53B98                |           12913556376

 2017-02-03 21:27:39.746537+01 | 1486153659.74654 | 3/1B53B98                |           12913556376

 2017-02-03 21:27:40.877853+01 | 1486153660.87785 | 3/1B53B98                |           12913556376

 2017-02-03 21:27:42.013936+01 | 1486153662.01394 | 3/1B53B98                |           12913556376

 2017-02-03 21:27:43.133344+01 | 1486153663.13334 | 3/1B53B98                |           12913556376

 2017-02-03 21:27:44.274462+01 | 1486153664.27446 | 3/1B53B98                |           12913556376

 2017-02-03 21:27:45.414031+01 | 1486153665.41403 | 3/1B53B98                |           12913556376

 2017-02-03 21:27:46.550856+01 | 1486153666.55086 | 3/1B53B98                |           12913556376

 2017-02-03 21:27:47.682521+01 | 1486153667.68252 | 3/1B53B98                |           12913556376

 2017-02-03 21:27:48.83009+01 | 1486153668.83009 | 3/1B53B98                |           12913556376

 2017-02-03 21:27:49.948096+01 | 1486153669.9481 | 3/1B53B98                |           12913556376

 2017-02-03 21:27:51.069088+01 | 1486153671.06909 | 3/1B53B98                |           12913556376

 2017-02-03 21:27:52.214041+01 | 1486153672.21404 | 3/1B53B98                |           12913556376

 2017-02-03 21:27:53.35415+01 | 1486153673.35415 | 3/1B53B98                |           12913556376

 2017-02-03 21:27:54.471547+01 | 1486153674.47155 | 3/1B53B98                |           12913556376

 2017-02-03 21:27:55.645171+01 | 1486153675.64517 | 3/1B53B98                |           12913556376

 2017-02-03 21:27:56.792115+01 | 1486153676.79211 | 3/1B53B98                |           12913556376

 2017-02-03 21:27:57.914858+01 | 1486153677.91486 | 3/1B53B98                |           12913556376

 2017-02-03 21:27:59.046753+01 | 1486153679.04675 | 3/1B53B98                |           12913556376

 2017-02-03 21:28:00.169593+01 | 1486153680.16959 | 3/1B53B98                |           12913556376

 2017-02-03 21:28:01.281148+01 | 1486153681.28115 | 3/1B53B98                |           12913556376

 2017-02-03 21:28:02.401045+01 | 1486153682.40105 | 3/1B53B98                |           12913556376

 2017-02-03 21:28:03.540803+01 | 1486153683.5408 | 3/1B53B98                |           12913556376

 2017-02-03 21:28:04.682059+01 | 1486153684.68206 | 3/1B53B98                |           12913556376

 2017-02-03 21:28:05.80862+01 | 1486153685.80862 | 3/1B53B98                |           12913556376

 2017-02-03 21:28:06.935015+01 | 1486153686.93501 | 3/1B53B98                |           12913556376

 2017-02-03 21:28:08.065995+01 | 1486153688.06599 | 3/1B53B98                |           12913556376

 2017-02-03 21:28:09.199044+01 | 1486153689.19904 | 3/1B53B98                |           12913556376

 2017-02-03 21:28:10.337817+01 | 1486153690.33782 | 3/1B53B98                |           12913556376

 2017-02-03 21:28:11.457142+01 | 1486153691.45714 | 3/1B53B98                |           12913556376

 2017-02-03 21:28:12.594276+01 | 1486153692.59428 | 3/1B53B98                |           12913556376

 2017-02-03 21:28:13.726351+01 | 1486153693.72635 | 3/1B53B98                |           12913556376

 2017-02-03 21:28:14.874776+01 | 1486153694.87478 | 3/1B53B98                |           12913556376

 2017-02-03 21:28:16.010451+01 | 1486153696.01045 | 3/1B53B98                |           12913556376

 2017-02-03 21:28:17.145293+01 | 1486153697.14529 | 3/1B53B98                |           12913556376

 2017-02-03 21:28:18.271921+01 | 1486153698.27192 | 3/1B53B98                |           12913556376

 2017-02-03 21:28:19.416424+01 | 1486153699.41642 | 3/1B53B98                |           12913556376

 2017-02-03 21:28:20.549356+01 | 1486153700.54936 | 3/1B53B98                |           12913556376

 2017-02-03 21:28:21.68715+01 | 1486153701.68715 | 3/1B53B98                |           12913556376

 2017-02-03 21:28:22.830016+01 | 1486153702.83002 | 3/1B53B98                |           12913556376

 2017-02-03 21:28:23.94553+01 | 1486153703.94553 | 3/1B53B98                |           12913556376

 2017-02-03 21:28:25.068268+01 | 1486153705.06827 | 3/1B53B98                |           12913556376

 2017-02-03 21:28:26.196588+01 | 1486153706.19659 | 3/1B53B98                |           12913556376

 2017-02-03 21:28:27.342707+01 | 1486153707.34271 | 3/1B53B98                |           12913556376

 2017-02-03 21:28:28.46843+01 | 1486153708.46843 | 3/1B53B98                |           12913556376

 2017-02-03 21:28:29.600985+01 | 1486153709.60099 | 3/1B53B98                |           12913556376

 2017-02-03 21:28:30.725696+01 | 1486153710.7257 | 3/1B53B98                |           12913556376

 2017-02-03 21:28:31.843976+01 | 1486153711.84398 | 3/1B53B98                |           12913556376

 2017-02-03 21:28:32.972935+01 | 1486153712.97293 | 3/1B53B98                |           12913556376

 2017-02-03 21:28:34.105198+01 | 1486153714.1052 | 3/1B53B98                |           12913556376

 2017-02-03 21:28:35.251278+01 | 1486153715.25128 | 3/1B53B98                |           12913556376

 2017-02-03 21:28:36.383772+01 | 1486153716.38377 | 3/1B53B98                |           12913556376

 2017-02-03 21:28:37.525719+01 | 1486153717.52572 | 3/1B53B98                |           12913556376

 2017-02-03 21:28:38.662194+01 | 1486153718.66219 | 3/1B53B98                |           12913556376

 2017-02-03 21:28:39.798257+01 | 1486153719.79826 | 3/1B53B98                |           12913556376

 2017-02-03 21:28:40.944851+01 | 1486153720.94485 | 3/1B53B98                |           12913556376

 2017-02-03 21:28:42.07713+01 | 1486153722.07713 | 3/1B53B98                |           12913556376

 2017-02-03 21:28:43.210535+01 | 1486153723.21054 | 3/1B53B98                |           12913556376

 2017-02-03 21:28:44.360439+01 | 1486153724.36044 | 3/1B53B98                |           12913556376

 2017-02-03 21:28:45.501237+01 | 1486153725.50124 | 3/1B53B98                |           12913556376

 2017-02-03 21:28:46.620562+01 | 1486153726.62056 | 3/1B53B98                |           12913556376

 2017-02-03 21:28:47.748062+01 | 1486153727.74806 | 3/1B53B98                |           12913556376

 2017-02-03 21:28:48.907651+01 | 1486153728.90765 | 3/1B53B98                |           12913556376

 2017-02-03 21:28:50.041716+01 | 1486153730.04172 | 3/1B53B98                |           12913556376

 2017-02-03 21:28:51.160718+01 | 1486153731.16072 | 3/1B53B98                |           12913556376

 2017-02-03 21:28:52.298359+01 | 1486153732.29836 | 3/1B53B98                |           12913556376

 2017-02-03 21:28:53.449015+01 | 1486153733.44901 | 3/1B53B98                |           12913556376

 2017-02-03 21:28:54.585354+01 | 1486153734.58535 | 3/1B53B98                |           12913556376

 2017-02-03 21:28:55.723576+01 | 1486153735.72358 | 3/1B53B98                |           12913556376

 2017-02-03 21:28:56.845177+01 | 1486153736.84518 | 3/1B53B98                |           12913556376

 2017-02-03 21:28:57.976939+01 | 1486153737.97694 | 3/1B53B98                |           12913556376

 2017-02-03 21:28:59.094251+01 | 1486153739.09425 | 3/1B53B98                |           12913556376

 2017-02-03 21:29:00.242721+01 | 1486153740.24272 | 3/1B53B98                |           12913556376

 2017-02-03 21:29:01.373732+01 | 1486153741.37373 | 3/1B53B98                |           12913556376

 2017-02-03 21:29:02.537191+01 | 1486153742.53719 | 3/1B53B98                |           12913556376

 2017-02-03 21:29:03.662555+01 | 1486153743.66255 | 3/1B53B98                |           12913556376

 2017-02-03 21:29:04.803005+01 | 1486153744.803 | 3/1B53B98                |           12913556376

 2017-02-03 21:29:05.918385+01 | 1486153745.91839 | 3/1B53B98                |           12913556376

 2017-02-03 21:29:07.057234+01 | 1486153747.05723 | 3/1B53B98                |           12913556376

 2017-02-03 21:29:08.191396+01 | 1486153748.1914 | 3/1B53B98                |           12913556376

 2017-02-03 21:29:09.308323+01 | 1486153749.30832 | 3/1B53B98                |           12913556376

 2017-02-03 21:29:10.432042+01 | 1486153750.43204 | 3/1B53B98                |           12913556376

 2017-02-03 21:29:11.567522+01 | 1486153751.56752 | 3/1B53B98                |           12913556376

 2017-02-03 21:29:12.684409+01 | 1486153752.68441 | 3/1B53B98                |           12913556376

 2017-02-03 21:29:13.830881+01 | 1486153753.83088 | 3/1B53B98                |           12913556376

 2017-02-03 21:29:14.966032+01 | 1486153754.96603 | 3/1B53B98                |           12913556376

 2017-02-03 21:29:16.139111+01 | 1486153756.13911 | 3/1B53B98                |           12913556376

 2017-02-03 21:29:17.253526+01 | 1486153757.25353 | 3/1B53B98                |           12913556376

 2017-02-03 21:29:18.387925+01 | 1486153758.38792 | 3/1B53B98                |           12913556376

 2017-02-03 21:29:19.534535+01 | 1486153759.53453 | 3/1B53B98                |           12913556376

 2017-02-03 21:29:20.664273+01 | 1486153760.66427 | 3/1B53B98                |           12913556376

 2017-02-03 21:29:21.805688+01 | 1486153761.80569 | 3/1B53B98                |           12913556376

 2017-02-03 21:29:22.955644+01 | 1486153762.95564 | 3/1B53B98                |           12913556376

 2017-02-03 21:29:24.097671+01 | 1486153764.09767 | 3/1B53B98                |           12913556376

 2017-02-03 21:29:25.204357+01 | 1486153765.20436 | 3/1B53B98                |           12913556376

 2017-02-03 21:29:26.327711+01 | 1486153766.32771 | 3/1B53B98                |           12913556376

 2017-02-03 21:29:27.437982+01 | 1486153767.43798 | 3/1B53B98                |           12913556376

 2017-02-03 21:29:28.557797+01 | 1486153768.5578 | 3/1B53B98                |           12913556376

 2017-02-03 21:29:29.69844+01 | 1486153769.69844 | 3/1B53B98                |           12913556376

 2017-02-03 21:29:30.829978+01 | 1486153770.82998 | 3/1B53B98                |           12913556376

 2017-02-03 21:29:31.96014+01 | 1486153771.96014 | 3/1B53B98                |           12913556376

 2017-02-03 21:29:33.070908+01 | 1486153773.07091 | 3/1B53B98                |           12913556376

 2017-02-03 21:29:34.203855+01 | 1486153774.20386 | 3/1B53B98                |           12913556376

 2017-02-03 21:29:35.321992+01 | 1486153775.32199 | 3/1B53B98                |           12913556376

 2017-02-03 21:29:36.458797+01 | 1486153776.4588 | 3/1B53B98                |           12913556376

 2017-02-03 21:29:37.590877+01 | 1486153777.59088 | 3/1B53B98                |           12913556376

 2017-02-03 21:29:38.717815+01 | 1486153778.71781 | 3/1B53B98                |           12913556376

 2017-02-03 21:29:39.82905+01 | 1486153779.82905 | 3/1B53B98                |           12913556376

 2017-02-03 21:29:40.972515+01 | 1486153780.97252 | 3/1B53B98                |           12913556376

 2017-02-03 21:29:42.122104+01 | 1486153782.1221 | 3/1B53B98                |           12913556376

 2017-02-03 21:29:43.231702+01 | 1486153783.2317 | 3/1B53B98                |           12913556376

 2017-02-03 21:29:44.354125+01 | 1486153784.35413 | 3/1B53B98                |           12913556376

 2017-02-03 21:29:45.468276+01 | 1486153785.46828 | 3/1B53B98                |           12913556376

 2017-02-03 21:29:46.613694+01 | 1486153786.61369 | 3/1B53B98                |           12913556376

 2017-02-03 21:29:47.76038+01 | 1486153787.76038 | 3/1B53B98                |           12913556376

 2017-02-03 21:29:48.905302+01 | 1486153788.9053 | 3/1B53B98                |           12913556376

 2017-02-03 21:29:50.046091+01 | 1486153790.04609 | 3/1B53B98                |           12913556376

 2017-02-03 21:29:51.194327+01 | 1486153791.19433 | 3/1B53B98                |           12913556376

 2017-02-03 21:29:52.32636+01 | 1486153792.32636 | 3/1B53B98                |           12913556376

 2017-02-03 21:29:53.442829+01 | 1486153793.44283 | 3/1B53B98                |           12913556376

 2017-02-03 21:29:54.534178+01 | 1486153794.53418 | 3/1B53B98                |           12913556376

 2017-02-03 21:29:55.651881+01 | 1486153795.65188 | 3/1B53B98                |           12913556376

 2017-02-03 21:29:56.773571+01 | 1486153796.77357 | 3/1B53B98                |           12913556376

 2017-02-03 21:29:57.953049+01 | 1486153797.95305 | 3/1B53B98                |           12913556376

 2017-02-03 21:29:59.06869+01 | 1486153799.06869 | 3/1B53B98                |           12913556376

 2017-02-03 21:30:00.191453+01 | 1486153800.19145 | 3/1B53B98                |           12913556376

 2017-02-03 21:30:01.339316+01 | 1486153801.33932 | 3/1B53B98                |           12913556376

 2017-02-03 21:30:02.469863+01 | 1486153802.46986 | 3/1B53B98                |           12913556376

 2017-02-03 21:30:03.605923+01 | 1486153803.60592 | 3/1B53B98                |           12913556376

 2017-02-03 21:30:04.742827+01 | 1486153804.74283 | 3/1B53B98                |           12913556376

 2017-02-03 21:30:05.878269+01 | 1486153805.87827 | 3/1B53B98                |           12913556376

 2017-02-03 21:30:07.000148+01 | 1486153807.00015 | 3/1B53B98                |           12913556376

 2017-02-03 21:30:08.121127+01 | 1486153808.12113 | 3/1B53B98                |           12913556376

 2017-02-03 21:30:09.269981+01 | 1486153809.26998 | 3/1B53B98                |           12913556376

 2017-02-03 21:30:10.387689+01 | 1486153810.38769 | 3/1B53B98                |           12913556376

 2017-02-03 21:30:11.533263+01 | 1486153811.53326 | 3/1B53B98                |           12913556376

 2017-02-03 21:30:12.66663+01 | 1486153812.66663 | 3/1B53B98                |           12913556376

 2017-02-03 21:30:13.797343+01 | 1486153813.79734 | 3/1B53B98                |           12913556376

 2017-02-03 21:30:14.929697+01 | 1486153814.9297 | 3/1B53B98                |           12913556376

 2017-02-03 21:30:16.070223+01 | 1486153816.07022 | 3/1B53B98                |           12913556376

 2017-02-03 21:30:17.194714+01 | 1486153817.19471 | 3/1B53B98                |           12913556376

 2017-02-03 21:30:18.337053+01 | 1486153818.33705 | 3/1B53B98                |           12913556376

 2017-02-03 21:30:19.47352+01 | 1486153819.47352 | 3/1B53B98                |           12913556376

 2017-02-03 21:30:20.608126+01 | 1486153820.60813 | 3/1B53B98                |           12913556376

 2017-02-03 21:30:21.758909+01 | 1486153821.75891 | 3/1B53B98                |           12913556376

 2017-02-03 21:30:22.870861+01 | 1486153822.87086 | 3/1B53B98                |           12913556376

 2017-02-03 21:30:24.00874+01 | 1486153824.00874 | 3/1B53B98                |           12913556376

 2017-02-03 21:30:25.142334+01 | 1486153825.14233 | 3/1B53B98                |           12913556376

 2017-02-03 21:30:26.280578+01 | 1486153826.28058 | 3/1B53B98                |           12913556376

 2017-02-03 21:30:27.4222+01 | 1486153827.4222 | 3/1B53B98                |           12913556376

 2017-02-03 21:30:28.574477+01 | 1486153828.57448 | 3/1B53B98                |           12913556376

 2017-02-03 21:30:29.702367+01 | 1486153829.70237 | 3/1B53B98                |           12913556376

 2017-02-03 21:30:30.835787+01 | 1486153830.83579 | 3/1B53B98                |           12913556376

 2017-02-03 21:30:31.966946+01 | 1486153831.96695 | 3/1B53B98                |           12913556376

 2017-02-03 21:30:33.102816+01 | 1486153833.10282 | 3/1B53B98                |           12913556376

 2017-02-03 21:30:34.292022+01 | 1486153834.29202 | 3/1B53B98                |           12913556376

 2017-02-03 21:30:35.435552+01 | 1486153835.43555 | 3/1B53B98                |           12913556376

 2017-02-03 21:30:36.577193+01 | 1486153836.57719 | 3/1B53B98                |           12913556376

 2017-02-03 21:30:37.70819+01 | 1486153837.70819 | 3/1B53B98                |           12913556376

 2017-02-03 21:30:38.834831+01 | 1486153838.83483 | 3/1B53B98                |           12913556376

 2017-02-03 21:30:39.971417+01 | 1486153839.97142 | 3/1B53B98                |           12913556376

 2017-02-03 21:30:41.120927+01 | 1486153841.12093 | 3/1B53B98                |           12913556376

 2017-02-03 21:30:42.26297+01 | 1486153842.26297 | 3/1B53B98                |           12913556376

 2017-02-03 21:30:43.370442+01 | 1486153843.37044 | 3/1B53B98                |           12913556376

 2017-02-03 21:30:44.513707+01 | 1486153844.51371 | 3/1B53B98                |           12913556376

 2017-02-03 21:30:45.627383+01 | 1486153845.62738 | 3/1B53B98                |           12913556376

 2017-02-03 21:30:46.76745+01 | 1486153846.76745 | 3/1B53B98                |           12913556376

 2017-02-03 21:30:47.896234+01 | 1486153847.89623 | 3/1B53B98                |           12913556376

 2017-02-03 21:30:49.054871+01 | 1486153849.05487 | 3/1B53B98                |           12913556376

 2017-02-03 21:30:50.191962+01 | 1486153850.19196 | 3/1B53B98                |           12913556376

 2017-02-03 21:30:51.339823+01 | 1486153851.33982 | 3/1B53B98                |           12913556376

 2017-02-03 21:30:52.472632+01 | 1486153852.47263 | 3/1B53B98                |           12913556376

 2017-02-03 21:30:53.601674+01 | 1486153853.60167 | 3/1B53B98                |           12913556376

 2017-02-03 21:30:54.740058+01 | 1486153854.74006 | 3/1B53B98                |           12913556376

 2017-02-03 21:30:55.878344+01 | 1486153855.87834 | 3/1B53B98                |           12913556376

 2017-02-03 21:30:57.03098+01 | 1486153857.03098 | 3/1B53B98                |           12913556376

 2017-02-03 21:30:58.165938+01 | 1486153858.16594 | 3/1B53B98                |           12913556376

 2017-02-03 21:30:59.278464+01 | 1486153859.27846 | 3/1B53B98                |           12913556376

 2017-02-03 21:31:00.417679+01 | 1486153860.41768 | 3/1B53B98                |           12913556376

 2017-02-03 21:31:01.565979+01 | 1486153861.56598 | 3/1B53B98                |           12913556376

 2017-02-03 21:31:02.686283+01 | 1486153862.68628 | 3/1B53B98                |           12913556376

 2017-02-03 21:31:03.793854+01 | 1486153863.79385 | 3/1B53B98                |           12913556376

 2017-02-03 21:31:04.935365+01 | 1486153864.93536 | 3/1B53B98                |           12913556376

 2017-02-03 21:31:06.057585+01 | 1486153866.05759 | 3/1B53B98                |           12913556376

 2017-02-03 21:31:07.197382+01 | 1486153867.19738 | 3/1B53B98                |           12913556376

 2017-02-03 21:31:08.339122+01 | 1486153868.33912 | 3/1B53B98                |           12913556376

 2017-02-03 21:31:09.476668+01 | 1486153869.47667 | 3/1B53B98                |           12913556376

 2017-02-03 21:31:10.617217+01 | 1486153870.61722 | 3/1B53B98                |           12913556376

 2017-02-03 21:31:11.758597+01 | 1486153871.7586 | 3/1B53B98                |           12913556376

 2017-02-03 21:31:12.884243+01 | 1486153872.88424 | 3/1B53B98                |           12913556376

 2017-02-03 21:31:14.021153+01 | 1486153874.02115 | 3/1B53B98                |           12913556376

 2017-02-03 21:31:15.155884+01 | 1486153875.15588 | 3/1B53B98                |           12913556376

 2017-02-03 21:31:16.292282+01 | 1486153876.29228 | 3/1B53B98                |           12913556376

 2017-02-03 21:31:17.431748+01 | 1486153877.43175 | 3/1B53B98                |           12913556376

 2017-02-03 21:31:18.58506+01 | 1486153878.58506 | 3/1B53B98                |           12913556376

 2017-02-03 21:31:19.723117+01 | 1486153879.72312 | 3/1B53B98                |           12913556376

 2017-02-03 21:31:20.883928+01 | 1486153880.88393 | 3/1B53B98                |           12913556376

 2017-02-03 21:31:22.000566+01 | 1486153882.00057 | 3/1B53B98                |           12913556376

 2017-02-03 21:31:23.149086+01 | 1486153883.14909 | 3/1B53B98                |           12913556376

 2017-02-03 21:31:24.279877+01 | 1486153884.27988 | 3/1B53B98                |           12913556376

 2017-02-03 21:31:25.411142+01 | 1486153885.41114 | 3/1B53B98                |           12913556376

 2017-02-03 21:31:26.536096+01 | 1486153886.5361 | 3/1B53B98                |           12913556376

 2017-02-03 21:31:27.686567+01 | 1486153887.68657 | 3/1B53B98                |           12913556376

 2017-02-03 21:31:28.818343+01 | 1486153888.81834 | 3/1B53B98                |           12913556376

 2017-02-03 21:31:29.939883+01 | 1486153889.93988 | 3/1B53B98                |           12913556376

 2017-02-03 21:31:31.089593+01 | 1486153891.08959 | 3/1B53B98                |           12913556376

 2017-02-03 21:31:32.213538+01 | 1486153892.21354 | 3/1B53B98                |           12913556376

 2017-02-03 21:31:33.338459+01 | 1486153893.33846 | 3/1B53B98                |           12913556376

 2017-02-03 21:31:34.482084+01 | 1486153894.48208 | 3/1B53B98                |           12913556376

 2017-02-03 21:31:35.630512+01 | 1486153895.63051 | 3/1B53B98                |           12913556376

 2017-02-03 21:31:36.765749+01 | 1486153896.76575 | 3/1B53B98                |           12913556376

 2017-02-03 21:31:37.925586+01 | 1486153897.92559 | 3/1B53B98                |           12913556376

 2017-02-03 21:31:39.065575+01 | 1486153899.06557 | 3/1B53B98                |           12913556376

 2017-02-03 21:31:40.207231+01 | 1486153900.20723 | 3/1B53B98                |           12913556376

 2017-02-03 21:31:41.348096+01 | 1486153901.3481 | 3/1B53B98                |           12913556376

 2017-02-03 21:31:42.464256+01 | 1486153902.46426 | 3/1B53B98                |           12913556376

 2017-02-03 21:31:43.612279+01 | 1486153903.61228 | 3/1B53B98                |           12913556376

 2017-02-03 21:31:44.78352+01 | 1486153904.78352 | 3/1B53B98                |           12913556376

 2017-02-03 21:31:45.950024+01 | 1486153905.95002 | 3/1B53B98                |           12913556376

 2017-02-03 21:31:47.115025+01 | 1486153907.11503 | 3/1B53B98                |           12913556376

 2017-02-03 21:31:48.269288+01 | 1486153908.26929 | 3/1B53B98                |           12913556376

 2017-02-03 21:31:49.430703+01 | 1486153909.4307 | 3/1B53B98                |           12913556376

 2017-02-03 21:31:50.555801+01 | 1486153910.5558 | 3/1B53B98                |           12913556376

 2017-02-03 21:31:51.696618+01 | 1486153911.69662 | 3/1B53B98                |           12913556376

 2017-02-03 21:31:52.861789+01 | 1486153912.86179 | 3/1B53B98                |           12913556376

 2017-02-03 21:31:53.998079+01 | 1486153913.99808 | 3/1B53B98                |           12913556376

 2017-02-03 21:31:55.133597+01 | 1486153915.1336 | 3/1B53B98                |           12913556376

 2017-02-03 21:31:56.261685+01 | 1486153916.26168 | 3/1B53B98                |           12913556376

 2017-02-03 21:31:57.387525+01 | 1486153917.38753 | 3/1B53B98                |           12913556376

 2017-02-03 21:31:58.544213+01 | 1486153918.54421 | 3/1B53B98                |           12913556376

 2017-02-03 21:31:59.672412+01 | 1486153919.67241 | 3/1B53B98                |           12913556376

 2017-02-03 21:32:00.828194+01 | 1486153920.82819 | 3/1B53B98                |           12913556376

 2017-02-03 21:32:01.93839+01 | 1486153921.93839 | 3/1B53B98                |           12913556376

 2017-02-03 21:32:03.051783+01 | 1486153923.05178 | 3/1B53B98                |           12913556376

 2017-02-03 21:32:04.200144+01 | 1486153924.20014 | 3/1B53B98                |           12913556376

 2017-02-03 21:32:05.311416+01 | 1486153925.31142 | 3/1B53B98                |           12913556376

 2017-02-03 21:32:06.442665+01 | 1486153926.44267 | 3/1B53B98                |           12913556376

 2017-02-03 21:32:07.573768+01 | 1486153927.57377 | 3/1B53B98                |           12913556376

 2017-02-03 21:32:08.695926+01 | 1486153928.69593 | 3/1B53B98                |           12913556376

