 2017-02-05 01:56:20.53904+01 | 1486256180.53904 | pgbench_branches_pkey |            40960
 2017-02-05 01:56:20.53904+01 | 1486256180.53904 | pgbench_tellers_pkey  |           245760
 2017-02-05 01:56:20.53904+01 | 1486256180.53904 | pgbench_accounts_pkey |       2246197248

 2017-02-05 01:56:21.622804+01 | 1486256181.6228 | pgbench_branches_pkey |            40960
 2017-02-05 01:56:21.622804+01 | 1486256181.6228 | pgbench_tellers_pkey  |           245760
 2017-02-05 01:56:21.622804+01 | 1486256181.6228 | pgbench_accounts_pkey |       2246197248

 2017-02-05 01:56:22.715684+01 | 1486256182.71568 | pgbench_branches_pkey |            40960
 2017-02-05 01:56:22.715684+01 | 1486256182.71568 | pgbench_tellers_pkey  |           245760
 2017-02-05 01:56:22.715684+01 | 1486256182.71568 | pgbench_accounts_pkey |       2246197248

 2017-02-05 01:56:23.803461+01 | 1486256183.80346 | pgbench_branches_pkey |            40960
 2017-02-05 01:56:23.803461+01 | 1486256183.80346 | pgbench_tellers_pkey  |           245760
 2017-02-05 01:56:23.803461+01 | 1486256183.80346 | pgbench_accounts_pkey |       2246197248

 2017-02-05 01:56:24.881702+01 | 1486256184.8817 | pgbench_branches_pkey |            40960
 2017-02-05 01:56:24.881702+01 | 1486256184.8817 | pgbench_tellers_pkey  |           245760
 2017-02-05 01:56:24.881702+01 | 1486256184.8817 | pgbench_accounts_pkey |       2246197248

 2017-02-05 01:56:25.959815+01 | 1486256185.95982 | pgbench_branches_pkey |            40960
 2017-02-05 01:56:25.959815+01 | 1486256185.95982 | pgbench_tellers_pkey  |           245760
 2017-02-05 01:56:25.959815+01 | 1486256185.95982 | pgbench_accounts_pkey |       2246197248

 2017-02-05 01:56:27.035407+01 | 1486256187.03541 | pgbench_branches_pkey |            40960
 2017-02-05 01:56:27.035407+01 | 1486256187.03541 | pgbench_tellers_pkey  |           245760
 2017-02-05 01:56:27.035407+01 | 1486256187.03541 | pgbench_accounts_pkey |       2246197248

 2017-02-05 01:56:28.115954+01 | 1486256188.11595 | pgbench_branches_pkey |            40960
 2017-02-05 01:56:28.115954+01 | 1486256188.11595 | pgbench_tellers_pkey  |           245760
 2017-02-05 01:56:28.115954+01 | 1486256188.11595 | pgbench_accounts_pkey |       2246197248

 2017-02-05 01:56:29.192849+01 | 1486256189.19285 | pgbench_branches_pkey |            40960
 2017-02-05 01:56:29.192849+01 | 1486256189.19285 | pgbench_tellers_pkey  |           245760
 2017-02-05 01:56:29.192849+01 | 1486256189.19285 | pgbench_accounts_pkey |       2246197248

 2017-02-05 01:56:30.267032+01 | 1486256190.26703 | pgbench_branches_pkey |            40960
 2017-02-05 01:56:30.267032+01 | 1486256190.26703 | pgbench_tellers_pkey  |           245760
 2017-02-05 01:56:30.267032+01 | 1486256190.26703 | pgbench_accounts_pkey |       2246197248

 2017-02-05 01:56:31.346796+01 | 1486256191.3468 | pgbench_branches_pkey |            40960
 2017-02-05 01:56:31.346796+01 | 1486256191.3468 | pgbench_tellers_pkey  |           245760
 2017-02-05 01:56:31.346796+01 | 1486256191.3468 | pgbench_accounts_pkey |       2246197248

 2017-02-05 01:56:32.43668+01 | 1486256192.43668 | pgbench_branches_pkey |            40960
 2017-02-05 01:56:32.43668+01 | 1486256192.43668 | pgbench_tellers_pkey  |           245760
 2017-02-05 01:56:32.43668+01 | 1486256192.43668 | pgbench_accounts_pkey |       2246197248

 2017-02-05 01:56:33.519705+01 | 1486256193.51971 | pgbench_branches_pkey |            40960
 2017-02-05 01:56:33.519705+01 | 1486256193.51971 | pgbench_tellers_pkey  |           245760
 2017-02-05 01:56:33.519705+01 | 1486256193.51971 | pgbench_accounts_pkey |       2246197248

 2017-02-05 01:56:34.599241+01 | 1486256194.59924 | pgbench_branches_pkey |            40960
 2017-02-05 01:56:34.599241+01 | 1486256194.59924 | pgbench_tellers_pkey  |           245760
 2017-02-05 01:56:34.599241+01 | 1486256194.59924 | pgbench_accounts_pkey |       2246197248

 2017-02-05 01:56:35.677363+01 | 1486256195.67736 | pgbench_branches_pkey |            40960
 2017-02-05 01:56:35.677363+01 | 1486256195.67736 | pgbench_tellers_pkey  |           245760
 2017-02-05 01:56:35.677363+01 | 1486256195.67736 | pgbench_accounts_pkey |       2246197248

 2017-02-05 01:56:36.760488+01 | 1486256196.76049 | pgbench_branches_pkey |            40960
 2017-02-05 01:56:36.760488+01 | 1486256196.76049 | pgbench_tellers_pkey  |           245760
 2017-02-05 01:56:36.760488+01 | 1486256196.76049 | pgbench_accounts_pkey |       2246197248

 2017-02-05 01:56:37.849047+01 | 1486256197.84905 | pgbench_branches_pkey |            40960
 2017-02-05 01:56:37.849047+01 | 1486256197.84905 | pgbench_tellers_pkey  |           245760
 2017-02-05 01:56:37.849047+01 | 1486256197.84905 | pgbench_accounts_pkey |       2246197248

 2017-02-05 01:56:38.933931+01 | 1486256198.93393 | pgbench_branches_pkey |            40960
 2017-02-05 01:56:38.933931+01 | 1486256198.93393 | pgbench_tellers_pkey  |           245760
 2017-02-05 01:56:38.933931+01 | 1486256198.93393 | pgbench_accounts_pkey |       2246197248

 2017-02-05 01:56:40.020059+01 | 1486256200.02006 | pgbench_branches_pkey |            40960
 2017-02-05 01:56:40.020059+01 | 1486256200.02006 | pgbench_tellers_pkey  |           245760
 2017-02-05 01:56:40.020059+01 | 1486256200.02006 | pgbench_accounts_pkey |       2246197248

 2017-02-05 01:56:41.104485+01 | 1486256201.10449 | pgbench_branches_pkey |            40960
 2017-02-05 01:56:41.104485+01 | 1486256201.10449 | pgbench_tellers_pkey  |           245760
 2017-02-05 01:56:41.104485+01 | 1486256201.10449 | pgbench_accounts_pkey |       2246197248

 2017-02-05 01:56:42.189221+01 | 1486256202.18922 | pgbench_branches_pkey |            40960
 2017-02-05 01:56:42.189221+01 | 1486256202.18922 | pgbench_tellers_pkey  |           245760
 2017-02-05 01:56:42.189221+01 | 1486256202.18922 | pgbench_accounts_pkey |       2246197248

 2017-02-05 01:56:43.262242+01 | 1486256203.26224 | pgbench_branches_pkey |            40960
 2017-02-05 01:56:43.262242+01 | 1486256203.26224 | pgbench_tellers_pkey  |           245760
 2017-02-05 01:56:43.262242+01 | 1486256203.26224 | pgbench_accounts_pkey |       2246197248

 2017-02-05 01:56:44.343885+01 | 1486256204.34388 | pgbench_branches_pkey |            40960
 2017-02-05 01:56:44.343885+01 | 1486256204.34388 | pgbench_tellers_pkey  |           245760
 2017-02-05 01:56:44.343885+01 | 1486256204.34388 | pgbench_accounts_pkey |       2246197248

 2017-02-05 01:56:45.431513+01 | 1486256205.43151 | pgbench_branches_pkey |            40960
 2017-02-05 01:56:45.431513+01 | 1486256205.43151 | pgbench_tellers_pkey  |           245760
 2017-02-05 01:56:45.431513+01 | 1486256205.43151 | pgbench_accounts_pkey |       2246197248

 2017-02-05 01:56:46.510379+01 | 1486256206.51038 | pgbench_branches_pkey |            40960
 2017-02-05 01:56:46.510379+01 | 1486256206.51038 | pgbench_tellers_pkey  |           245760
 2017-02-05 01:56:46.510379+01 | 1486256206.51038 | pgbench_accounts_pkey |       2246197248

 2017-02-05 01:56:47.59721+01 | 1486256207.59721 | pgbench_branches_pkey |            40960
 2017-02-05 01:56:47.59721+01 | 1486256207.59721 | pgbench_tellers_pkey  |           245760
 2017-02-05 01:56:47.59721+01 | 1486256207.59721 | pgbench_accounts_pkey |       2246197248

 2017-02-05 01:56:48.679114+01 | 1486256208.67911 | pgbench_branches_pkey |            40960
 2017-02-05 01:56:48.679114+01 | 1486256208.67911 | pgbench_tellers_pkey  |           245760
 2017-02-05 01:56:48.679114+01 | 1486256208.67911 | pgbench_accounts_pkey |       2246197248

 2017-02-05 01:56:49.75767+01 | 1486256209.75767 | pgbench_branches_pkey |            40960
 2017-02-05 01:56:49.75767+01 | 1486256209.75767 | pgbench_tellers_pkey  |           245760
 2017-02-05 01:56:49.75767+01 | 1486256209.75767 | pgbench_accounts_pkey |       2246197248

 2017-02-05 01:56:50.830445+01 | 1486256210.83045 | pgbench_branches_pkey |            40960
 2017-02-05 01:56:50.830445+01 | 1486256210.83045 | pgbench_tellers_pkey  |           245760
 2017-02-05 01:56:50.830445+01 | 1486256210.83045 | pgbench_accounts_pkey |       2246197248

 2017-02-05 01:56:51.916834+01 | 1486256211.91683 | pgbench_branches_pkey |            40960
 2017-02-05 01:56:51.916834+01 | 1486256211.91683 | pgbench_tellers_pkey  |           245760
 2017-02-05 01:56:51.916834+01 | 1486256211.91683 | pgbench_accounts_pkey |       2246197248

 2017-02-05 01:56:52.991534+01 | 1486256212.99153 | pgbench_branches_pkey |            40960
 2017-02-05 01:56:52.991534+01 | 1486256212.99153 | pgbench_tellers_pkey  |           245760
 2017-02-05 01:56:52.991534+01 | 1486256212.99153 | pgbench_accounts_pkey |       2246197248

 2017-02-05 01:56:54.06112+01 | 1486256214.06112 | pgbench_branches_pkey |            40960
 2017-02-05 01:56:54.06112+01 | 1486256214.06112 | pgbench_tellers_pkey  |           245760
 2017-02-05 01:56:54.06112+01 | 1486256214.06112 | pgbench_accounts_pkey |       2246197248

 2017-02-05 01:56:55.139507+01 | 1486256215.13951 | pgbench_branches_pkey |            40960
 2017-02-05 01:56:55.139507+01 | 1486256215.13951 | pgbench_tellers_pkey  |           245760
 2017-02-05 01:56:55.139507+01 | 1486256215.13951 | pgbench_accounts_pkey |       2246197248

 2017-02-05 01:56:56.222198+01 | 1486256216.2222 | pgbench_branches_pkey |            40960
 2017-02-05 01:56:56.222198+01 | 1486256216.2222 | pgbench_tellers_pkey  |           245760
 2017-02-05 01:56:56.222198+01 | 1486256216.2222 | pgbench_accounts_pkey |       2246197248

 2017-02-05 01:56:57.293045+01 | 1486256217.29305 | pgbench_branches_pkey |            40960
 2017-02-05 01:56:57.293045+01 | 1486256217.29305 | pgbench_tellers_pkey  |           245760
 2017-02-05 01:56:57.293045+01 | 1486256217.29305 | pgbench_accounts_pkey |       2246197248

 2017-02-05 01:56:58.376648+01 | 1486256218.37665 | pgbench_branches_pkey |            40960
 2017-02-05 01:56:58.376648+01 | 1486256218.37665 | pgbench_tellers_pkey  |           245760
 2017-02-05 01:56:58.376648+01 | 1486256218.37665 | pgbench_accounts_pkey |       2246197248

 2017-02-05 01:56:59.460337+01 | 1486256219.46034 | pgbench_branches_pkey |            40960
 2017-02-05 01:56:59.460337+01 | 1486256219.46034 | pgbench_tellers_pkey  |           245760
 2017-02-05 01:56:59.460337+01 | 1486256219.46034 | pgbench_accounts_pkey |       2246197248

 2017-02-05 01:57:00.530324+01 | 1486256220.53032 | pgbench_branches_pkey |            40960
 2017-02-05 01:57:00.530324+01 | 1486256220.53032 | pgbench_tellers_pkey  |           245760
 2017-02-05 01:57:00.530324+01 | 1486256220.53032 | pgbench_accounts_pkey |       2246197248

 2017-02-05 01:57:01.617656+01 | 1486256221.61766 | pgbench_branches_pkey |            40960
 2017-02-05 01:57:01.617656+01 | 1486256221.61766 | pgbench_tellers_pkey  |           245760
 2017-02-05 01:57:01.617656+01 | 1486256221.61766 | pgbench_accounts_pkey |       2246197248

 2017-02-05 01:57:02.701424+01 | 1486256222.70142 | pgbench_branches_pkey |            40960
 2017-02-05 01:57:02.701424+01 | 1486256222.70142 | pgbench_tellers_pkey  |           245760
 2017-02-05 01:57:02.701424+01 | 1486256222.70142 | pgbench_accounts_pkey |       2246197248

 2017-02-05 01:57:03.785995+01 | 1486256223.786 | pgbench_branches_pkey |            40960
 2017-02-05 01:57:03.785995+01 | 1486256223.786 | pgbench_tellers_pkey  |           245760
 2017-02-05 01:57:03.785995+01 | 1486256223.786 | pgbench_accounts_pkey |       2246197248

 2017-02-05 01:57:04.869183+01 | 1486256224.86918 | pgbench_branches_pkey |            40960
 2017-02-05 01:57:04.869183+01 | 1486256224.86918 | pgbench_tellers_pkey  |           245760
 2017-02-05 01:57:04.869183+01 | 1486256224.86918 | pgbench_accounts_pkey |       2246197248

 2017-02-05 01:57:05.948828+01 | 1486256225.94883 | pgbench_branches_pkey |            40960
 2017-02-05 01:57:05.948828+01 | 1486256225.94883 | pgbench_tellers_pkey  |           245760
 2017-02-05 01:57:05.948828+01 | 1486256225.94883 | pgbench_accounts_pkey |       2246197248

 2017-02-05 01:57:07.030979+01 | 1486256227.03098 | pgbench_branches_pkey |            40960
 2017-02-05 01:57:07.030979+01 | 1486256227.03098 | pgbench_tellers_pkey  |           245760
 2017-02-05 01:57:07.030979+01 | 1486256227.03098 | pgbench_accounts_pkey |       2246197248

 2017-02-05 01:57:08.109473+01 | 1486256228.10947 | pgbench_branches_pkey |            40960
 2017-02-05 01:57:08.109473+01 | 1486256228.10947 | pgbench_tellers_pkey  |           245760
 2017-02-05 01:57:08.109473+01 | 1486256228.10947 | pgbench_accounts_pkey |       2246197248

 2017-02-05 01:57:09.193908+01 | 1486256229.19391 | pgbench_branches_pkey |            40960
 2017-02-05 01:57:09.193908+01 | 1486256229.19391 | pgbench_tellers_pkey  |           245760
 2017-02-05 01:57:09.193908+01 | 1486256229.19391 | pgbench_accounts_pkey |       2246197248

 2017-02-05 01:57:10.274595+01 | 1486256230.2746 | pgbench_branches_pkey |            40960
 2017-02-05 01:57:10.274595+01 | 1486256230.2746 | pgbench_tellers_pkey  |           245760
 2017-02-05 01:57:10.274595+01 | 1486256230.2746 | pgbench_accounts_pkey |       2246197248

 2017-02-05 01:57:11.351195+01 | 1486256231.3512 | pgbench_branches_pkey |            40960
 2017-02-05 01:57:11.351195+01 | 1486256231.3512 | pgbench_tellers_pkey  |           245760
 2017-02-05 01:57:11.351195+01 | 1486256231.3512 | pgbench_accounts_pkey |       2246197248

 2017-02-05 01:57:12.43177+01 | 1486256232.43177 | pgbench_branches_pkey |            40960
 2017-02-05 01:57:12.43177+01 | 1486256232.43177 | pgbench_tellers_pkey  |           245760
 2017-02-05 01:57:12.43177+01 | 1486256232.43177 | pgbench_accounts_pkey |       2246197248

 2017-02-05 01:57:13.50657+01 | 1486256233.50657 | pgbench_branches_pkey |            40960
 2017-02-05 01:57:13.50657+01 | 1486256233.50657 | pgbench_tellers_pkey  |           245760
 2017-02-05 01:57:13.50657+01 | 1486256233.50657 | pgbench_accounts_pkey |       2246197248

 2017-02-05 01:57:14.581034+01 | 1486256234.58103 | pgbench_branches_pkey |            40960
 2017-02-05 01:57:14.581034+01 | 1486256234.58103 | pgbench_tellers_pkey  |           245760
 2017-02-05 01:57:14.581034+01 | 1486256234.58103 | pgbench_accounts_pkey |       2246197248

 2017-02-05 01:57:15.660358+01 | 1486256235.66036 | pgbench_branches_pkey |            40960
 2017-02-05 01:57:15.660358+01 | 1486256235.66036 | pgbench_tellers_pkey  |           245760
 2017-02-05 01:57:15.660358+01 | 1486256235.66036 | pgbench_accounts_pkey |       2246197248

 2017-02-05 01:57:16.734243+01 | 1486256236.73424 | pgbench_branches_pkey |            40960
 2017-02-05 01:57:16.734243+01 | 1486256236.73424 | pgbench_tellers_pkey  |           245760
 2017-02-05 01:57:16.734243+01 | 1486256236.73424 | pgbench_accounts_pkey |       2246197248

 2017-02-05 01:57:17.808603+01 | 1486256237.8086 | pgbench_branches_pkey |            40960
 2017-02-05 01:57:17.808603+01 | 1486256237.8086 | pgbench_tellers_pkey  |           245760
 2017-02-05 01:57:17.808603+01 | 1486256237.8086 | pgbench_accounts_pkey |       2246197248

 2017-02-05 01:57:18.878957+01 | 1486256238.87896 | pgbench_branches_pkey |            40960
 2017-02-05 01:57:18.878957+01 | 1486256238.87896 | pgbench_tellers_pkey  |           245760
 2017-02-05 01:57:18.878957+01 | 1486256238.87896 | pgbench_accounts_pkey |       2246197248

 2017-02-05 01:57:19.963432+01 | 1486256239.96343 | pgbench_branches_pkey |            40960
 2017-02-05 01:57:19.963432+01 | 1486256239.96343 | pgbench_tellers_pkey  |           245760
 2017-02-05 01:57:19.963432+01 | 1486256239.96343 | pgbench_accounts_pkey |       2246197248

 2017-02-05 01:57:21.046532+01 | 1486256241.04653 | pgbench_branches_pkey |            40960
 2017-02-05 01:57:21.046532+01 | 1486256241.04653 | pgbench_tellers_pkey  |           245760
 2017-02-05 01:57:21.046532+01 | 1486256241.04653 | pgbench_accounts_pkey |       2246197248

 2017-02-05 01:57:22.120803+01 | 1486256242.1208 | pgbench_branches_pkey |            40960
 2017-02-05 01:57:22.120803+01 | 1486256242.1208 | pgbench_tellers_pkey  |           245760
 2017-02-05 01:57:22.120803+01 | 1486256242.1208 | pgbench_accounts_pkey |       2246197248

 2017-02-05 01:57:23.207075+01 | 1486256243.20708 | pgbench_branches_pkey |            40960
 2017-02-05 01:57:23.207075+01 | 1486256243.20708 | pgbench_tellers_pkey  |           245760
 2017-02-05 01:57:23.207075+01 | 1486256243.20708 | pgbench_accounts_pkey |       2246197248

 2017-02-05 01:57:24.297809+01 | 1486256244.29781 | pgbench_branches_pkey |            40960
 2017-02-05 01:57:24.297809+01 | 1486256244.29781 | pgbench_tellers_pkey  |           245760
 2017-02-05 01:57:24.297809+01 | 1486256244.29781 | pgbench_accounts_pkey |       2246197248

 2017-02-05 01:57:25.388662+01 | 1486256245.38866 | pgbench_branches_pkey |            40960
 2017-02-05 01:57:25.388662+01 | 1486256245.38866 | pgbench_tellers_pkey  |           245760
 2017-02-05 01:57:25.388662+01 | 1486256245.38866 | pgbench_accounts_pkey |       2246197248

 2017-02-05 01:57:26.4714+01 | 1486256246.4714 | pgbench_branches_pkey |            40960
 2017-02-05 01:57:26.4714+01 | 1486256246.4714 | pgbench_tellers_pkey  |           245760
 2017-02-05 01:57:26.4714+01 | 1486256246.4714 | pgbench_accounts_pkey |       2246197248

 2017-02-05 01:57:27.553692+01 | 1486256247.55369 | pgbench_branches_pkey |            40960
 2017-02-05 01:57:27.553692+01 | 1486256247.55369 | pgbench_tellers_pkey  |           245760
 2017-02-05 01:57:27.553692+01 | 1486256247.55369 | pgbench_accounts_pkey |       2246197248

 2017-02-05 01:57:28.64603+01 | 1486256248.64603 | pgbench_branches_pkey |            40960
 2017-02-05 01:57:28.64603+01 | 1486256248.64603 | pgbench_tellers_pkey  |           245760
 2017-02-05 01:57:28.64603+01 | 1486256248.64603 | pgbench_accounts_pkey |       2246197248

 2017-02-05 01:57:29.72604+01 | 1486256249.72604 | pgbench_branches_pkey |            40960
 2017-02-05 01:57:29.72604+01 | 1486256249.72604 | pgbench_tellers_pkey  |           245760
 2017-02-05 01:57:29.72604+01 | 1486256249.72604 | pgbench_accounts_pkey |       2246197248

 2017-02-05 01:57:30.802371+01 | 1486256250.80237 | pgbench_branches_pkey |            40960
 2017-02-05 01:57:30.802371+01 | 1486256250.80237 | pgbench_tellers_pkey  |           245760
 2017-02-05 01:57:30.802371+01 | 1486256250.80237 | pgbench_accounts_pkey |       2246197248

 2017-02-05 01:57:31.882378+01 | 1486256251.88238 | pgbench_branches_pkey |            40960
 2017-02-05 01:57:31.882378+01 | 1486256251.88238 | pgbench_tellers_pkey  |           245760
 2017-02-05 01:57:31.882378+01 | 1486256251.88238 | pgbench_accounts_pkey |       2246197248

 2017-02-05 01:57:32.959991+01 | 1486256252.95999 | pgbench_branches_pkey |            40960
 2017-02-05 01:57:32.959991+01 | 1486256252.95999 | pgbench_tellers_pkey  |           245760
 2017-02-05 01:57:32.959991+01 | 1486256252.95999 | pgbench_accounts_pkey |       2246197248

 2017-02-05 01:57:34.042898+01 | 1486256254.0429 | pgbench_branches_pkey |            40960
 2017-02-05 01:57:34.042898+01 | 1486256254.0429 | pgbench_tellers_pkey  |           245760
 2017-02-05 01:57:34.042898+01 | 1486256254.0429 | pgbench_accounts_pkey |       2246197248

 2017-02-05 01:57:35.128833+01 | 1486256255.12883 | pgbench_branches_pkey |            40960
 2017-02-05 01:57:35.128833+01 | 1486256255.12883 | pgbench_tellers_pkey  |           245760
 2017-02-05 01:57:35.128833+01 | 1486256255.12883 | pgbench_accounts_pkey |       2246197248

 2017-02-05 01:57:36.209276+01 | 1486256256.20928 | pgbench_branches_pkey |            40960
 2017-02-05 01:57:36.209276+01 | 1486256256.20928 | pgbench_tellers_pkey  |           245760
 2017-02-05 01:57:36.209276+01 | 1486256256.20928 | pgbench_accounts_pkey |       2246197248

 2017-02-05 01:57:37.28746+01 | 1486256257.28746 | pgbench_branches_pkey |            40960
 2017-02-05 01:57:37.28746+01 | 1486256257.28746 | pgbench_tellers_pkey  |           245760
 2017-02-05 01:57:37.28746+01 | 1486256257.28746 | pgbench_accounts_pkey |       2246197248

 2017-02-05 01:57:38.376763+01 | 1486256258.37676 | pgbench_branches_pkey |            40960
 2017-02-05 01:57:38.376763+01 | 1486256258.37676 | pgbench_tellers_pkey  |           245760
 2017-02-05 01:57:38.376763+01 | 1486256258.37676 | pgbench_accounts_pkey |       2246197248

 2017-02-05 01:57:39.458913+01 | 1486256259.45891 | pgbench_branches_pkey |            40960
 2017-02-05 01:57:39.458913+01 | 1486256259.45891 | pgbench_tellers_pkey  |           245760
 2017-02-05 01:57:39.458913+01 | 1486256259.45891 | pgbench_accounts_pkey |       2246197248

 2017-02-05 01:57:40.535663+01 | 1486256260.53566 | pgbench_branches_pkey |            40960
 2017-02-05 01:57:40.535663+01 | 1486256260.53566 | pgbench_tellers_pkey  |           245760
 2017-02-05 01:57:40.535663+01 | 1486256260.53566 | pgbench_accounts_pkey |       2246197248

 2017-02-05 01:57:41.626553+01 | 1486256261.62655 | pgbench_branches_pkey |            40960
 2017-02-05 01:57:41.626553+01 | 1486256261.62655 | pgbench_tellers_pkey  |           245760
 2017-02-05 01:57:41.626553+01 | 1486256261.62655 | pgbench_accounts_pkey |       2246197248

 2017-02-05 01:57:42.705614+01 | 1486256262.70561 | pgbench_branches_pkey |            40960
 2017-02-05 01:57:42.705614+01 | 1486256262.70561 | pgbench_tellers_pkey  |           245760
 2017-02-05 01:57:42.705614+01 | 1486256262.70561 | pgbench_accounts_pkey |       2246197248

 2017-02-05 01:57:43.780395+01 | 1486256263.7804 | pgbench_branches_pkey |            40960
 2017-02-05 01:57:43.780395+01 | 1486256263.7804 | pgbench_tellers_pkey  |           245760
 2017-02-05 01:57:43.780395+01 | 1486256263.7804 | pgbench_accounts_pkey |       2246197248

 2017-02-05 01:57:44.867715+01 | 1486256264.86771 | pgbench_branches_pkey |            40960
 2017-02-05 01:57:44.867715+01 | 1486256264.86771 | pgbench_tellers_pkey  |           245760
 2017-02-05 01:57:44.867715+01 | 1486256264.86771 | pgbench_accounts_pkey |       2246197248

 2017-02-05 01:57:45.941572+01 | 1486256265.94157 | pgbench_branches_pkey |            40960
 2017-02-05 01:57:45.941572+01 | 1486256265.94157 | pgbench_tellers_pkey  |           245760
 2017-02-05 01:57:45.941572+01 | 1486256265.94157 | pgbench_accounts_pkey |       2246197248

 2017-02-05 01:57:47.023646+01 | 1486256267.02365 | pgbench_branches_pkey |            40960
 2017-02-05 01:57:47.023646+01 | 1486256267.02365 | pgbench_tellers_pkey  |           245760
 2017-02-05 01:57:47.023646+01 | 1486256267.02365 | pgbench_accounts_pkey |       2246197248

 2017-02-05 01:57:48.111047+01 | 1486256268.11105 | pgbench_branches_pkey |            40960
 2017-02-05 01:57:48.111047+01 | 1486256268.11105 | pgbench_tellers_pkey  |           245760
 2017-02-05 01:57:48.111047+01 | 1486256268.11105 | pgbench_accounts_pkey |       2246197248

 2017-02-05 01:57:49.190064+01 | 1486256269.19006 | pgbench_branches_pkey |            40960
 2017-02-05 01:57:49.190064+01 | 1486256269.19006 | pgbench_tellers_pkey  |           245760
 2017-02-05 01:57:49.190064+01 | 1486256269.19006 | pgbench_accounts_pkey |       2246197248

 2017-02-05 01:57:50.262373+01 | 1486256270.26237 | pgbench_branches_pkey |            40960
 2017-02-05 01:57:50.262373+01 | 1486256270.26237 | pgbench_tellers_pkey  |           245760
 2017-02-05 01:57:50.262373+01 | 1486256270.26237 | pgbench_accounts_pkey |       2246197248

 2017-02-05 01:57:51.339935+01 | 1486256271.33994 | pgbench_branches_pkey |            40960
 2017-02-05 01:57:51.339935+01 | 1486256271.33994 | pgbench_tellers_pkey  |           245760
 2017-02-05 01:57:51.339935+01 | 1486256271.33994 | pgbench_accounts_pkey |       2246197248

 2017-02-05 01:57:52.422005+01 | 1486256272.422 | pgbench_branches_pkey |            40960
 2017-02-05 01:57:52.422005+01 | 1486256272.422 | pgbench_tellers_pkey  |           245760
 2017-02-05 01:57:52.422005+01 | 1486256272.422 | pgbench_accounts_pkey |       2246197248

 2017-02-05 01:57:53.504868+01 | 1486256273.50487 | pgbench_branches_pkey |            40960
 2017-02-05 01:57:53.504868+01 | 1486256273.50487 | pgbench_tellers_pkey  |           245760
 2017-02-05 01:57:53.504868+01 | 1486256273.50487 | pgbench_accounts_pkey |       2246197248

 2017-02-05 01:57:54.582496+01 | 1486256274.5825 | pgbench_branches_pkey |            40960
 2017-02-05 01:57:54.582496+01 | 1486256274.5825 | pgbench_tellers_pkey  |           245760
 2017-02-05 01:57:54.582496+01 | 1486256274.5825 | pgbench_accounts_pkey |       2246197248

 2017-02-05 01:57:55.663254+01 | 1486256275.66325 | pgbench_branches_pkey |            40960
 2017-02-05 01:57:55.663254+01 | 1486256275.66325 | pgbench_tellers_pkey  |           245760
 2017-02-05 01:57:55.663254+01 | 1486256275.66325 | pgbench_accounts_pkey |       2246197248

 2017-02-05 01:57:56.741056+01 | 1486256276.74106 | pgbench_branches_pkey |            40960
 2017-02-05 01:57:56.741056+01 | 1486256276.74106 | pgbench_tellers_pkey  |           245760
 2017-02-05 01:57:56.741056+01 | 1486256276.74106 | pgbench_accounts_pkey |       2246197248

 2017-02-05 01:57:57.82348+01 | 1486256277.82348 | pgbench_branches_pkey |            40960
 2017-02-05 01:57:57.82348+01 | 1486256277.82348 | pgbench_tellers_pkey  |           245760
 2017-02-05 01:57:57.82348+01 | 1486256277.82348 | pgbench_accounts_pkey |       2246197248

 2017-02-05 01:57:58.908819+01 | 1486256278.90882 | pgbench_branches_pkey |            40960
 2017-02-05 01:57:58.908819+01 | 1486256278.90882 | pgbench_tellers_pkey  |           245760
 2017-02-05 01:57:58.908819+01 | 1486256278.90882 | pgbench_accounts_pkey |       2246197248

 2017-02-05 01:57:59.985721+01 | 1486256279.98572 | pgbench_branches_pkey |            40960
 2017-02-05 01:57:59.985721+01 | 1486256279.98572 | pgbench_tellers_pkey  |           245760
 2017-02-05 01:57:59.985721+01 | 1486256279.98572 | pgbench_accounts_pkey |       2246197248

 2017-02-05 01:58:01.074055+01 | 1486256281.07405 | pgbench_branches_pkey |            40960
 2017-02-05 01:58:01.074055+01 | 1486256281.07405 | pgbench_tellers_pkey  |           245760
 2017-02-05 01:58:01.074055+01 | 1486256281.07405 | pgbench_accounts_pkey |       2246197248

 2017-02-05 01:58:02.148125+01 | 1486256282.14812 | pgbench_branches_pkey |            40960
 2017-02-05 01:58:02.148125+01 | 1486256282.14812 | pgbench_tellers_pkey  |           245760
 2017-02-05 01:58:02.148125+01 | 1486256282.14812 | pgbench_accounts_pkey |       2246197248

 2017-02-05 01:58:03.235364+01 | 1486256283.23536 | pgbench_branches_pkey |            40960
 2017-02-05 01:58:03.235364+01 | 1486256283.23536 | pgbench_tellers_pkey  |           245760
 2017-02-05 01:58:03.235364+01 | 1486256283.23536 | pgbench_accounts_pkey |       2246197248

 2017-02-05 01:58:04.308669+01 | 1486256284.30867 | pgbench_branches_pkey |            40960
 2017-02-05 01:58:04.308669+01 | 1486256284.30867 | pgbench_tellers_pkey  |           245760
 2017-02-05 01:58:04.308669+01 | 1486256284.30867 | pgbench_accounts_pkey |       2246197248

 2017-02-05 01:58:05.389154+01 | 1486256285.38915 | pgbench_branches_pkey |            40960
 2017-02-05 01:58:05.389154+01 | 1486256285.38915 | pgbench_tellers_pkey  |           245760
 2017-02-05 01:58:05.389154+01 | 1486256285.38915 | pgbench_accounts_pkey |       2246197248

 2017-02-05 01:58:06.472247+01 | 1486256286.47225 | pgbench_branches_pkey |            40960
 2017-02-05 01:58:06.472247+01 | 1486256286.47225 | pgbench_tellers_pkey  |           245760
 2017-02-05 01:58:06.472247+01 | 1486256286.47225 | pgbench_accounts_pkey |       2246197248

 2017-02-05 01:58:07.551888+01 | 1486256287.55189 | pgbench_branches_pkey |            40960
 2017-02-05 01:58:07.551888+01 | 1486256287.55189 | pgbench_tellers_pkey  |           245760
 2017-02-05 01:58:07.551888+01 | 1486256287.55189 | pgbench_accounts_pkey |       2246197248

 2017-02-05 01:58:08.635311+01 | 1486256288.63531 | pgbench_branches_pkey |            40960
 2017-02-05 01:58:08.635311+01 | 1486256288.63531 | pgbench_tellers_pkey  |           245760
 2017-02-05 01:58:08.635311+01 | 1486256288.63531 | pgbench_accounts_pkey |       2246197248

 2017-02-05 01:58:09.715852+01 | 1486256289.71585 | pgbench_branches_pkey |            40960
 2017-02-05 01:58:09.715852+01 | 1486256289.71585 | pgbench_tellers_pkey  |           245760
 2017-02-05 01:58:09.715852+01 | 1486256289.71585 | pgbench_accounts_pkey |       2246197248

 2017-02-05 01:58:10.796679+01 | 1486256290.79668 | pgbench_branches_pkey |            40960
 2017-02-05 01:58:10.796679+01 | 1486256290.79668 | pgbench_tellers_pkey  |           245760
 2017-02-05 01:58:10.796679+01 | 1486256290.79668 | pgbench_accounts_pkey |       2246197248

 2017-02-05 01:58:11.879589+01 | 1486256291.87959 | pgbench_branches_pkey |            40960
 2017-02-05 01:58:11.879589+01 | 1486256291.87959 | pgbench_tellers_pkey  |           245760
 2017-02-05 01:58:11.879589+01 | 1486256291.87959 | pgbench_accounts_pkey |       2246197248

 2017-02-05 01:58:12.958186+01 | 1486256292.95819 | pgbench_branches_pkey |            40960
 2017-02-05 01:58:12.958186+01 | 1486256292.95819 | pgbench_tellers_pkey  |           245760
 2017-02-05 01:58:12.958186+01 | 1486256292.95819 | pgbench_accounts_pkey |       2246197248

 2017-02-05 01:58:14.042212+01 | 1486256294.04221 | pgbench_branches_pkey |            40960
 2017-02-05 01:58:14.042212+01 | 1486256294.04221 | pgbench_tellers_pkey  |           245760
 2017-02-05 01:58:14.042212+01 | 1486256294.04221 | pgbench_accounts_pkey |       2246197248

 2017-02-05 01:58:15.120399+01 | 1486256295.1204 | pgbench_branches_pkey |            40960
 2017-02-05 01:58:15.120399+01 | 1486256295.1204 | pgbench_tellers_pkey  |           245760
 2017-02-05 01:58:15.120399+01 | 1486256295.1204 | pgbench_accounts_pkey |       2246197248

 2017-02-05 01:58:16.207212+01 | 1486256296.20721 | pgbench_branches_pkey |            40960
 2017-02-05 01:58:16.207212+01 | 1486256296.20721 | pgbench_tellers_pkey  |           245760
 2017-02-05 01:58:16.207212+01 | 1486256296.20721 | pgbench_accounts_pkey |       2246197248

 2017-02-05 01:58:17.284134+01 | 1486256297.28413 | pgbench_branches_pkey |            40960
 2017-02-05 01:58:17.284134+01 | 1486256297.28413 | pgbench_tellers_pkey  |           245760
 2017-02-05 01:58:17.284134+01 | 1486256297.28413 | pgbench_accounts_pkey |       2246197248

 2017-02-05 01:58:18.366098+01 | 1486256298.3661 | pgbench_branches_pkey |            40960
 2017-02-05 01:58:18.366098+01 | 1486256298.3661 | pgbench_tellers_pkey  |           245760
 2017-02-05 01:58:18.366098+01 | 1486256298.3661 | pgbench_accounts_pkey |       2246197248

 2017-02-05 01:58:19.445302+01 | 1486256299.4453 | pgbench_branches_pkey |            40960
 2017-02-05 01:58:19.445302+01 | 1486256299.4453 | pgbench_tellers_pkey  |           245760
 2017-02-05 01:58:19.445302+01 | 1486256299.4453 | pgbench_accounts_pkey |       2246197248

 2017-02-05 01:58:20.529329+01 | 1486256300.52933 | pgbench_branches_pkey |            40960
 2017-02-05 01:58:20.529329+01 | 1486256300.52933 | pgbench_tellers_pkey  |           245760
 2017-02-05 01:58:20.529329+01 | 1486256300.52933 | pgbench_accounts_pkey |       2246197248

 2017-02-05 01:58:21.607013+01 | 1486256301.60701 | pgbench_branches_pkey |            40960
 2017-02-05 01:58:21.607013+01 | 1486256301.60701 | pgbench_tellers_pkey  |           245760
 2017-02-05 01:58:21.607013+01 | 1486256301.60701 | pgbench_accounts_pkey |       2246197248

 2017-02-05 01:58:22.687537+01 | 1486256302.68754 | pgbench_branches_pkey |            40960
 2017-02-05 01:58:22.687537+01 | 1486256302.68754 | pgbench_tellers_pkey  |           245760
 2017-02-05 01:58:22.687537+01 | 1486256302.68754 | pgbench_accounts_pkey |       2246197248

 2017-02-05 01:58:23.775146+01 | 1486256303.77515 | pgbench_branches_pkey |            40960
 2017-02-05 01:58:23.775146+01 | 1486256303.77515 | pgbench_tellers_pkey  |           245760
 2017-02-05 01:58:23.775146+01 | 1486256303.77515 | pgbench_accounts_pkey |       2246197248

 2017-02-05 01:58:24.85504+01 | 1486256304.85504 | pgbench_branches_pkey |            40960
 2017-02-05 01:58:24.85504+01 | 1486256304.85504 | pgbench_tellers_pkey  |           245760
 2017-02-05 01:58:24.85504+01 | 1486256304.85504 | pgbench_accounts_pkey |       2246197248

 2017-02-05 01:58:25.929548+01 | 1486256305.92955 | pgbench_branches_pkey |            40960
 2017-02-05 01:58:25.929548+01 | 1486256305.92955 | pgbench_tellers_pkey  |           245760
 2017-02-05 01:58:25.929548+01 | 1486256305.92955 | pgbench_accounts_pkey |       2246197248

 2017-02-05 01:58:27.013892+01 | 1486256307.01389 | pgbench_branches_pkey |            40960
 2017-02-05 01:58:27.013892+01 | 1486256307.01389 | pgbench_tellers_pkey  |           245760
 2017-02-05 01:58:27.013892+01 | 1486256307.01389 | pgbench_accounts_pkey |       2246197248

 2017-02-05 01:58:28.092749+01 | 1486256308.09275 | pgbench_branches_pkey |            40960
 2017-02-05 01:58:28.092749+01 | 1486256308.09275 | pgbench_tellers_pkey  |           245760
 2017-02-05 01:58:28.092749+01 | 1486256308.09275 | pgbench_accounts_pkey |       2246197248

 2017-02-05 01:58:29.175519+01 | 1486256309.17552 | pgbench_branches_pkey |            40960
 2017-02-05 01:58:29.175519+01 | 1486256309.17552 | pgbench_tellers_pkey  |           245760
 2017-02-05 01:58:29.175519+01 | 1486256309.17552 | pgbench_accounts_pkey |       2246197248

 2017-02-05 01:58:30.260887+01 | 1486256310.26089 | pgbench_branches_pkey |            40960
 2017-02-05 01:58:30.260887+01 | 1486256310.26089 | pgbench_tellers_pkey  |           245760
 2017-02-05 01:58:30.260887+01 | 1486256310.26089 | pgbench_accounts_pkey |       2246197248

 2017-02-05 01:58:31.341645+01 | 1486256311.34165 | pgbench_branches_pkey |            40960
 2017-02-05 01:58:31.341645+01 | 1486256311.34165 | pgbench_tellers_pkey  |           245760
 2017-02-05 01:58:31.341645+01 | 1486256311.34165 | pgbench_accounts_pkey |       2246197248

 2017-02-05 01:58:32.43299+01 | 1486256312.43299 | pgbench_branches_pkey |            40960
 2017-02-05 01:58:32.43299+01 | 1486256312.43299 | pgbench_tellers_pkey  |           245760
 2017-02-05 01:58:32.43299+01 | 1486256312.43299 | pgbench_accounts_pkey |       2246197248

 2017-02-05 01:58:33.510578+01 | 1486256313.51058 | pgbench_branches_pkey |            40960
 2017-02-05 01:58:33.510578+01 | 1486256313.51058 | pgbench_tellers_pkey  |           245760
 2017-02-05 01:58:33.510578+01 | 1486256313.51058 | pgbench_accounts_pkey |       2246197248

 2017-02-05 01:58:34.593254+01 | 1486256314.59325 | pgbench_branches_pkey |            40960
 2017-02-05 01:58:34.593254+01 | 1486256314.59325 | pgbench_tellers_pkey  |           245760
 2017-02-05 01:58:34.593254+01 | 1486256314.59325 | pgbench_accounts_pkey |       2246197248

 2017-02-05 01:58:35.669785+01 | 1486256315.66979 | pgbench_branches_pkey |            40960
 2017-02-05 01:58:35.669785+01 | 1486256315.66979 | pgbench_tellers_pkey  |           245760
 2017-02-05 01:58:35.669785+01 | 1486256315.66979 | pgbench_accounts_pkey |       2246197248

 2017-02-05 01:58:36.755025+01 | 1486256316.75502 | pgbench_branches_pkey |            40960
 2017-02-05 01:58:36.755025+01 | 1486256316.75502 | pgbench_tellers_pkey  |           245760
 2017-02-05 01:58:36.755025+01 | 1486256316.75502 | pgbench_accounts_pkey |       2246197248

 2017-02-05 01:58:37.833807+01 | 1486256317.83381 | pgbench_branches_pkey |            40960
 2017-02-05 01:58:37.833807+01 | 1486256317.83381 | pgbench_tellers_pkey  |           245760
 2017-02-05 01:58:37.833807+01 | 1486256317.83381 | pgbench_accounts_pkey |       2246197248

 2017-02-05 01:58:38.913524+01 | 1486256318.91352 | pgbench_branches_pkey |            40960
 2017-02-05 01:58:38.913524+01 | 1486256318.91352 | pgbench_tellers_pkey  |           245760
 2017-02-05 01:58:38.913524+01 | 1486256318.91352 | pgbench_accounts_pkey |       2246197248

 2017-02-05 01:58:39.992905+01 | 1486256319.9929 | pgbench_branches_pkey |            40960
 2017-02-05 01:58:39.992905+01 | 1486256319.9929 | pgbench_tellers_pkey  |           245760
 2017-02-05 01:58:39.992905+01 | 1486256319.9929 | pgbench_accounts_pkey |       2246197248

 2017-02-05 01:58:41.067832+01 | 1486256321.06783 | pgbench_branches_pkey |            40960
 2017-02-05 01:58:41.067832+01 | 1486256321.06783 | pgbench_tellers_pkey  |           245760
 2017-02-05 01:58:41.067832+01 | 1486256321.06783 | pgbench_accounts_pkey |       2246197248

 2017-02-05 01:58:42.147465+01 | 1486256322.14746 | pgbench_branches_pkey |            40960
 2017-02-05 01:58:42.147465+01 | 1486256322.14746 | pgbench_tellers_pkey  |           245760
 2017-02-05 01:58:42.147465+01 | 1486256322.14746 | pgbench_accounts_pkey |       2246197248

 2017-02-05 01:58:43.22719+01 | 1486256323.22719 | pgbench_branches_pkey |            40960
 2017-02-05 01:58:43.22719+01 | 1486256323.22719 | pgbench_tellers_pkey  |           245760
 2017-02-05 01:58:43.22719+01 | 1486256323.22719 | pgbench_accounts_pkey |       2246197248

 2017-02-05 01:58:44.315354+01 | 1486256324.31535 | pgbench_branches_pkey |            40960
 2017-02-05 01:58:44.315354+01 | 1486256324.31535 | pgbench_tellers_pkey  |           245760
 2017-02-05 01:58:44.315354+01 | 1486256324.31535 | pgbench_accounts_pkey |       2246197248

 2017-02-05 01:58:45.39208+01 | 1486256325.39208 | pgbench_branches_pkey |            40960
 2017-02-05 01:58:45.39208+01 | 1486256325.39208 | pgbench_tellers_pkey  |           245760
 2017-02-05 01:58:45.39208+01 | 1486256325.39208 | pgbench_accounts_pkey |       2246197248

 2017-02-05 01:58:46.477549+01 | 1486256326.47755 | pgbench_branches_pkey |            40960
 2017-02-05 01:58:46.477549+01 | 1486256326.47755 | pgbench_tellers_pkey  |           245760
 2017-02-05 01:58:46.477549+01 | 1486256326.47755 | pgbench_accounts_pkey |       2246197248

 2017-02-05 01:58:47.566642+01 | 1486256327.56664 | pgbench_branches_pkey |            40960
 2017-02-05 01:58:47.566642+01 | 1486256327.56664 | pgbench_tellers_pkey  |           245760
 2017-02-05 01:58:47.566642+01 | 1486256327.56664 | pgbench_accounts_pkey |       2246197248

 2017-02-05 01:58:48.65087+01 | 1486256328.65087 | pgbench_branches_pkey |            40960
 2017-02-05 01:58:48.65087+01 | 1486256328.65087 | pgbench_tellers_pkey  |           245760
 2017-02-05 01:58:48.65087+01 | 1486256328.65087 | pgbench_accounts_pkey |       2246197248

 2017-02-05 01:58:49.729211+01 | 1486256329.72921 | pgbench_branches_pkey |            40960
 2017-02-05 01:58:49.729211+01 | 1486256329.72921 | pgbench_tellers_pkey  |           245760
 2017-02-05 01:58:49.729211+01 | 1486256329.72921 | pgbench_accounts_pkey |       2246197248

 2017-02-05 01:58:50.814888+01 | 1486256330.81489 | pgbench_branches_pkey |            40960
 2017-02-05 01:58:50.814888+01 | 1486256330.81489 | pgbench_tellers_pkey  |           245760
 2017-02-05 01:58:50.814888+01 | 1486256330.81489 | pgbench_accounts_pkey |       2246197248

 2017-02-05 01:58:51.888079+01 | 1486256331.88808 | pgbench_branches_pkey |            40960
 2017-02-05 01:58:51.888079+01 | 1486256331.88808 | pgbench_tellers_pkey  |           245760
 2017-02-05 01:58:51.888079+01 | 1486256331.88808 | pgbench_accounts_pkey |       2246197248

 2017-02-05 01:58:52.965184+01 | 1486256332.96518 | pgbench_branches_pkey |            40960
 2017-02-05 01:58:52.965184+01 | 1486256332.96518 | pgbench_tellers_pkey  |           245760
 2017-02-05 01:58:52.965184+01 | 1486256332.96518 | pgbench_accounts_pkey |       2246197248

 2017-02-05 01:58:54.048221+01 | 1486256334.04822 | pgbench_branches_pkey |            40960
 2017-02-05 01:58:54.048221+01 | 1486256334.04822 | pgbench_tellers_pkey  |           245760
 2017-02-05 01:58:54.048221+01 | 1486256334.04822 | pgbench_accounts_pkey |       2246197248

 2017-02-05 01:58:55.133922+01 | 1486256335.13392 | pgbench_branches_pkey |            40960
 2017-02-05 01:58:55.133922+01 | 1486256335.13392 | pgbench_tellers_pkey  |           245760
 2017-02-05 01:58:55.133922+01 | 1486256335.13392 | pgbench_accounts_pkey |       2246197248

 2017-02-05 01:58:56.214558+01 | 1486256336.21456 | pgbench_branches_pkey |            40960
 2017-02-05 01:58:56.214558+01 | 1486256336.21456 | pgbench_tellers_pkey  |           245760
 2017-02-05 01:58:56.214558+01 | 1486256336.21456 | pgbench_accounts_pkey |       2246197248

 2017-02-05 01:58:57.289337+01 | 1486256337.28934 | pgbench_branches_pkey |            40960
 2017-02-05 01:58:57.289337+01 | 1486256337.28934 | pgbench_tellers_pkey  |           245760
 2017-02-05 01:58:57.289337+01 | 1486256337.28934 | pgbench_accounts_pkey |       2246197248

 2017-02-05 01:58:58.369243+01 | 1486256338.36924 | pgbench_branches_pkey |            40960
 2017-02-05 01:58:58.369243+01 | 1486256338.36924 | pgbench_tellers_pkey  |           245760
 2017-02-05 01:58:58.369243+01 | 1486256338.36924 | pgbench_accounts_pkey |       2246197248

 2017-02-05 01:58:59.449769+01 | 1486256339.44977 | pgbench_branches_pkey |            40960
 2017-02-05 01:58:59.449769+01 | 1486256339.44977 | pgbench_tellers_pkey  |           245760
 2017-02-05 01:58:59.449769+01 | 1486256339.44977 | pgbench_accounts_pkey |       2246197248

 2017-02-05 01:59:00.544032+01 | 1486256340.54403 | pgbench_branches_pkey |            40960
 2017-02-05 01:59:00.544032+01 | 1486256340.54403 | pgbench_tellers_pkey  |           245760
 2017-02-05 01:59:00.544032+01 | 1486256340.54403 | pgbench_accounts_pkey |       2246197248

 2017-02-05 01:59:01.632887+01 | 1486256341.63289 | pgbench_branches_pkey |            40960
 2017-02-05 01:59:01.632887+01 | 1486256341.63289 | pgbench_tellers_pkey  |           245760
 2017-02-05 01:59:01.632887+01 | 1486256341.63289 | pgbench_accounts_pkey |       2246197248

 2017-02-05 01:59:02.723021+01 | 1486256342.72302 | pgbench_branches_pkey |            40960
 2017-02-05 01:59:02.723021+01 | 1486256342.72302 | pgbench_tellers_pkey  |           245760
 2017-02-05 01:59:02.723021+01 | 1486256342.72302 | pgbench_accounts_pkey |       2246197248

 2017-02-05 01:59:03.797532+01 | 1486256343.79753 | pgbench_branches_pkey |            40960
 2017-02-05 01:59:03.797532+01 | 1486256343.79753 | pgbench_tellers_pkey  |           245760
 2017-02-05 01:59:03.797532+01 | 1486256343.79753 | pgbench_accounts_pkey |       2246197248

 2017-02-05 01:59:04.882075+01 | 1486256344.88208 | pgbench_branches_pkey |            40960
 2017-02-05 01:59:04.882075+01 | 1486256344.88208 | pgbench_tellers_pkey  |           245760
 2017-02-05 01:59:04.882075+01 | 1486256344.88208 | pgbench_accounts_pkey |       2246197248

 2017-02-05 01:59:05.961727+01 | 1486256345.96173 | pgbench_branches_pkey |            40960
 2017-02-05 01:59:05.961727+01 | 1486256345.96173 | pgbench_tellers_pkey  |           245760
 2017-02-05 01:59:05.961727+01 | 1486256345.96173 | pgbench_accounts_pkey |       2246197248

 2017-02-05 01:59:07.041989+01 | 1486256347.04199 | pgbench_branches_pkey |            40960
 2017-02-05 01:59:07.041989+01 | 1486256347.04199 | pgbench_tellers_pkey  |           245760
 2017-02-05 01:59:07.041989+01 | 1486256347.04199 | pgbench_accounts_pkey |       2246197248

 2017-02-05 01:59:08.124593+01 | 1486256348.12459 | pgbench_branches_pkey |            40960
 2017-02-05 01:59:08.124593+01 | 1486256348.12459 | pgbench_tellers_pkey  |           245760
 2017-02-05 01:59:08.124593+01 | 1486256348.12459 | pgbench_accounts_pkey |       2246197248

 2017-02-05 01:59:09.201094+01 | 1486256349.20109 | pgbench_branches_pkey |            40960
 2017-02-05 01:59:09.201094+01 | 1486256349.20109 | pgbench_tellers_pkey  |           245760
 2017-02-05 01:59:09.201094+01 | 1486256349.20109 | pgbench_accounts_pkey |       2246197248

 2017-02-05 01:59:10.280339+01 | 1486256350.28034 | pgbench_branches_pkey |            40960
 2017-02-05 01:59:10.280339+01 | 1486256350.28034 | pgbench_tellers_pkey  |           245760
 2017-02-05 01:59:10.280339+01 | 1486256350.28034 | pgbench_accounts_pkey |       2246197248

 2017-02-05 01:59:11.357472+01 | 1486256351.35747 | pgbench_branches_pkey |            40960
 2017-02-05 01:59:11.357472+01 | 1486256351.35747 | pgbench_tellers_pkey  |           245760
 2017-02-05 01:59:11.357472+01 | 1486256351.35747 | pgbench_accounts_pkey |       2246197248

 2017-02-05 01:59:12.434901+01 | 1486256352.4349 | pgbench_branches_pkey |            40960
 2017-02-05 01:59:12.434901+01 | 1486256352.4349 | pgbench_tellers_pkey  |           245760
 2017-02-05 01:59:12.434901+01 | 1486256352.4349 | pgbench_accounts_pkey |       2246197248

 2017-02-05 01:59:13.521462+01 | 1486256353.52146 | pgbench_branches_pkey |            40960
 2017-02-05 01:59:13.521462+01 | 1486256353.52146 | pgbench_tellers_pkey  |           245760
 2017-02-05 01:59:13.521462+01 | 1486256353.52146 | pgbench_accounts_pkey |       2246197248

 2017-02-05 01:59:14.601849+01 | 1486256354.60185 | pgbench_branches_pkey |            40960
 2017-02-05 01:59:14.601849+01 | 1486256354.60185 | pgbench_tellers_pkey  |           245760
 2017-02-05 01:59:14.601849+01 | 1486256354.60185 | pgbench_accounts_pkey |       2246197248

 2017-02-05 01:59:15.675832+01 | 1486256355.67583 | pgbench_branches_pkey |            40960
 2017-02-05 01:59:15.675832+01 | 1486256355.67583 | pgbench_tellers_pkey  |           245760
 2017-02-05 01:59:15.675832+01 | 1486256355.67583 | pgbench_accounts_pkey |       2246197248

 2017-02-05 01:59:16.753581+01 | 1486256356.75358 | pgbench_branches_pkey |            40960
 2017-02-05 01:59:16.753581+01 | 1486256356.75358 | pgbench_tellers_pkey  |           245760
 2017-02-05 01:59:16.753581+01 | 1486256356.75358 | pgbench_accounts_pkey |       2246197248

 2017-02-05 01:59:17.837482+01 | 1486256357.83748 | pgbench_branches_pkey |            40960
 2017-02-05 01:59:17.837482+01 | 1486256357.83748 | pgbench_tellers_pkey  |           245760
 2017-02-05 01:59:17.837482+01 | 1486256357.83748 | pgbench_accounts_pkey |       2246197248

 2017-02-05 01:59:18.916521+01 | 1486256358.91652 | pgbench_branches_pkey |            40960
 2017-02-05 01:59:18.916521+01 | 1486256358.91652 | pgbench_tellers_pkey  |           245760
 2017-02-05 01:59:18.916521+01 | 1486256358.91652 | pgbench_accounts_pkey |       2246197248

 2017-02-05 01:59:20.006382+01 | 1486256360.00638 | pgbench_branches_pkey |            40960
 2017-02-05 01:59:20.006382+01 | 1486256360.00638 | pgbench_tellers_pkey  |           245760
 2017-02-05 01:59:20.006382+01 | 1486256360.00638 | pgbench_accounts_pkey |       2246197248

 2017-02-05 01:59:21.080982+01 | 1486256361.08098 | pgbench_branches_pkey |            40960
 2017-02-05 01:59:21.080982+01 | 1486256361.08098 | pgbench_tellers_pkey  |           245760
 2017-02-05 01:59:21.080982+01 | 1486256361.08098 | pgbench_accounts_pkey |       2246197248

 2017-02-05 01:59:22.147118+01 | 1486256362.14712 | pgbench_branches_pkey |            40960
 2017-02-05 01:59:22.147118+01 | 1486256362.14712 | pgbench_tellers_pkey  |           245760
 2017-02-05 01:59:22.147118+01 | 1486256362.14712 | pgbench_accounts_pkey |       2246197248

 2017-02-05 01:59:23.220346+01 | 1486256363.22035 | pgbench_branches_pkey |            40960
 2017-02-05 01:59:23.220346+01 | 1486256363.22035 | pgbench_tellers_pkey  |           245760
 2017-02-05 01:59:23.220346+01 | 1486256363.22035 | pgbench_accounts_pkey |       2246197248

 2017-02-05 01:59:24.303859+01 | 1486256364.30386 | pgbench_branches_pkey |            40960
 2017-02-05 01:59:24.303859+01 | 1486256364.30386 | pgbench_tellers_pkey  |           245760
 2017-02-05 01:59:24.303859+01 | 1486256364.30386 | pgbench_accounts_pkey |       2246197248

 2017-02-05 01:59:25.38125+01 | 1486256365.38125 | pgbench_branches_pkey |            40960
 2017-02-05 01:59:25.38125+01 | 1486256365.38125 | pgbench_tellers_pkey  |           245760
 2017-02-05 01:59:25.38125+01 | 1486256365.38125 | pgbench_accounts_pkey |       2246197248

 2017-02-05 01:59:26.459262+01 | 1486256366.45926 | pgbench_branches_pkey |            40960
 2017-02-05 01:59:26.459262+01 | 1486256366.45926 | pgbench_tellers_pkey  |           245760
 2017-02-05 01:59:26.459262+01 | 1486256366.45926 | pgbench_accounts_pkey |       2246197248

 2017-02-05 01:59:27.533952+01 | 1486256367.53395 | pgbench_branches_pkey |            40960
 2017-02-05 01:59:27.533952+01 | 1486256367.53395 | pgbench_tellers_pkey  |           245760
 2017-02-05 01:59:27.533952+01 | 1486256367.53395 | pgbench_accounts_pkey |       2246197248

 2017-02-05 01:59:28.615199+01 | 1486256368.6152 | pgbench_branches_pkey |            40960
 2017-02-05 01:59:28.615199+01 | 1486256368.6152 | pgbench_tellers_pkey  |           245760
 2017-02-05 01:59:28.615199+01 | 1486256368.6152 | pgbench_accounts_pkey |       2246197248

 2017-02-05 01:59:29.703804+01 | 1486256369.7038 | pgbench_branches_pkey |            40960
 2017-02-05 01:59:29.703804+01 | 1486256369.7038 | pgbench_tellers_pkey  |           245760
 2017-02-05 01:59:29.703804+01 | 1486256369.7038 | pgbench_accounts_pkey |       2246197248

 2017-02-05 01:59:30.77958+01 | 1486256370.77958 | pgbench_branches_pkey |            40960
 2017-02-05 01:59:30.77958+01 | 1486256370.77958 | pgbench_tellers_pkey  |           245760
 2017-02-05 01:59:30.77958+01 | 1486256370.77958 | pgbench_accounts_pkey |       2246197248

 2017-02-05 01:59:31.859163+01 | 1486256371.85916 | pgbench_branches_pkey |            40960
 2017-02-05 01:59:31.859163+01 | 1486256371.85916 | pgbench_tellers_pkey  |           245760
 2017-02-05 01:59:31.859163+01 | 1486256371.85916 | pgbench_accounts_pkey |       2246197248

 2017-02-05 01:59:32.951491+01 | 1486256372.95149 | pgbench_branches_pkey |            40960
 2017-02-05 01:59:32.951491+01 | 1486256372.95149 | pgbench_tellers_pkey  |           245760
 2017-02-05 01:59:32.951491+01 | 1486256372.95149 | pgbench_accounts_pkey |       2246197248

 2017-02-05 01:59:34.021522+01 | 1486256374.02152 | pgbench_branches_pkey |            40960
 2017-02-05 01:59:34.021522+01 | 1486256374.02152 | pgbench_tellers_pkey  |           245760
 2017-02-05 01:59:34.021522+01 | 1486256374.02152 | pgbench_accounts_pkey |       2246197248

 2017-02-05 01:59:35.093223+01 | 1486256375.09322 | pgbench_branches_pkey |            40960
 2017-02-05 01:59:35.093223+01 | 1486256375.09322 | pgbench_tellers_pkey  |           245760
 2017-02-05 01:59:35.093223+01 | 1486256375.09322 | pgbench_accounts_pkey |       2246197248

 2017-02-05 01:59:36.171694+01 | 1486256376.17169 | pgbench_branches_pkey |            40960
 2017-02-05 01:59:36.171694+01 | 1486256376.17169 | pgbench_tellers_pkey  |           245760
 2017-02-05 01:59:36.171694+01 | 1486256376.17169 | pgbench_accounts_pkey |       2246197248

 2017-02-05 01:59:37.256545+01 | 1486256377.25655 | pgbench_branches_pkey |            40960
 2017-02-05 01:59:37.256545+01 | 1486256377.25655 | pgbench_tellers_pkey  |           245760
 2017-02-05 01:59:37.256545+01 | 1486256377.25655 | pgbench_accounts_pkey |       2246197248

 2017-02-05 01:59:38.332787+01 | 1486256378.33279 | pgbench_branches_pkey |            40960
 2017-02-05 01:59:38.332787+01 | 1486256378.33279 | pgbench_tellers_pkey  |           245760
 2017-02-05 01:59:38.332787+01 | 1486256378.33279 | pgbench_accounts_pkey |       2246197248

 2017-02-05 01:59:39.413928+01 | 1486256379.41393 | pgbench_branches_pkey |            40960
 2017-02-05 01:59:39.413928+01 | 1486256379.41393 | pgbench_tellers_pkey  |           245760
 2017-02-05 01:59:39.413928+01 | 1486256379.41393 | pgbench_accounts_pkey |       2246197248

 2017-02-05 01:59:40.49337+01 | 1486256380.49337 | pgbench_branches_pkey |            40960
 2017-02-05 01:59:40.49337+01 | 1486256380.49337 | pgbench_tellers_pkey  |           245760
 2017-02-05 01:59:40.49337+01 | 1486256380.49337 | pgbench_accounts_pkey |       2246197248

 2017-02-05 01:59:41.579481+01 | 1486256381.57948 | pgbench_branches_pkey |            40960
 2017-02-05 01:59:41.579481+01 | 1486256381.57948 | pgbench_tellers_pkey  |           245760
 2017-02-05 01:59:41.579481+01 | 1486256381.57948 | pgbench_accounts_pkey |       2246197248

 2017-02-05 01:59:42.673412+01 | 1486256382.67341 | pgbench_branches_pkey |            40960
 2017-02-05 01:59:42.673412+01 | 1486256382.67341 | pgbench_tellers_pkey  |           245760
 2017-02-05 01:59:42.673412+01 | 1486256382.67341 | pgbench_accounts_pkey |       2246197248

 2017-02-05 01:59:43.756662+01 | 1486256383.75666 | pgbench_branches_pkey |            40960
 2017-02-05 01:59:43.756662+01 | 1486256383.75666 | pgbench_tellers_pkey  |           245760
 2017-02-05 01:59:43.756662+01 | 1486256383.75666 | pgbench_accounts_pkey |       2246197248

 2017-02-05 01:59:44.832898+01 | 1486256384.8329 | pgbench_branches_pkey |            40960
 2017-02-05 01:59:44.832898+01 | 1486256384.8329 | pgbench_tellers_pkey  |           245760
 2017-02-05 01:59:44.832898+01 | 1486256384.8329 | pgbench_accounts_pkey |       2246197248

 2017-02-05 01:59:45.915839+01 | 1486256385.91584 | pgbench_branches_pkey |            40960
 2017-02-05 01:59:45.915839+01 | 1486256385.91584 | pgbench_tellers_pkey  |           245760
 2017-02-05 01:59:45.915839+01 | 1486256385.91584 | pgbench_accounts_pkey |       2246197248

 2017-02-05 01:59:46.997037+01 | 1486256386.99704 | pgbench_branches_pkey |            40960
 2017-02-05 01:59:46.997037+01 | 1486256386.99704 | pgbench_tellers_pkey  |           245760
 2017-02-05 01:59:46.997037+01 | 1486256386.99704 | pgbench_accounts_pkey |       2246197248

 2017-02-05 01:59:48.082554+01 | 1486256388.08255 | pgbench_branches_pkey |            40960
 2017-02-05 01:59:48.082554+01 | 1486256388.08255 | pgbench_tellers_pkey  |           245760
 2017-02-05 01:59:48.082554+01 | 1486256388.08255 | pgbench_accounts_pkey |       2246197248

 2017-02-05 01:59:49.167422+01 | 1486256389.16742 | pgbench_branches_pkey |            40960
 2017-02-05 01:59:49.167422+01 | 1486256389.16742 | pgbench_tellers_pkey  |           245760
 2017-02-05 01:59:49.167422+01 | 1486256389.16742 | pgbench_accounts_pkey |       2246197248

 2017-02-05 01:59:50.258899+01 | 1486256390.2589 | pgbench_branches_pkey |            40960
 2017-02-05 01:59:50.258899+01 | 1486256390.2589 | pgbench_tellers_pkey  |           245760
 2017-02-05 01:59:50.258899+01 | 1486256390.2589 | pgbench_accounts_pkey |       2246197248

 2017-02-05 01:59:51.334774+01 | 1486256391.33477 | pgbench_branches_pkey |            40960
 2017-02-05 01:59:51.334774+01 | 1486256391.33477 | pgbench_tellers_pkey  |           245760
 2017-02-05 01:59:51.334774+01 | 1486256391.33477 | pgbench_accounts_pkey |       2246197248

 2017-02-05 01:59:52.414496+01 | 1486256392.4145 | pgbench_branches_pkey |            40960
 2017-02-05 01:59:52.414496+01 | 1486256392.4145 | pgbench_tellers_pkey  |           245760
 2017-02-05 01:59:52.414496+01 | 1486256392.4145 | pgbench_accounts_pkey |       2246197248

 2017-02-05 01:59:53.498671+01 | 1486256393.49867 | pgbench_branches_pkey |            40960
 2017-02-05 01:59:53.498671+01 | 1486256393.49867 | pgbench_tellers_pkey  |           245760
 2017-02-05 01:59:53.498671+01 | 1486256393.49867 | pgbench_accounts_pkey |       2246197248

 2017-02-05 01:59:54.577995+01 | 1486256394.578 | pgbench_branches_pkey |            40960
 2017-02-05 01:59:54.577995+01 | 1486256394.578 | pgbench_tellers_pkey  |           245760
 2017-02-05 01:59:54.577995+01 | 1486256394.578 | pgbench_accounts_pkey |       2246197248

 2017-02-05 01:59:55.657006+01 | 1486256395.65701 | pgbench_branches_pkey |            40960
 2017-02-05 01:59:55.657006+01 | 1486256395.65701 | pgbench_tellers_pkey  |           245760
 2017-02-05 01:59:55.657006+01 | 1486256395.65701 | pgbench_accounts_pkey |       2246197248

 2017-02-05 01:59:56.739767+01 | 1486256396.73977 | pgbench_branches_pkey |            40960
 2017-02-05 01:59:56.739767+01 | 1486256396.73977 | pgbench_tellers_pkey  |           245760
 2017-02-05 01:59:56.739767+01 | 1486256396.73977 | pgbench_accounts_pkey |       2246197248

 2017-02-05 01:59:57.822404+01 | 1486256397.8224 | pgbench_branches_pkey |            40960
 2017-02-05 01:59:57.822404+01 | 1486256397.8224 | pgbench_tellers_pkey  |           245760
 2017-02-05 01:59:57.822404+01 | 1486256397.8224 | pgbench_accounts_pkey |       2246197248

 2017-02-05 01:59:58.906422+01 | 1486256398.90642 | pgbench_branches_pkey |            40960
 2017-02-05 01:59:58.906422+01 | 1486256398.90642 | pgbench_tellers_pkey  |           245760
 2017-02-05 01:59:58.906422+01 | 1486256398.90642 | pgbench_accounts_pkey |       2246197248

 2017-02-05 01:59:59.980376+01 | 1486256399.98038 | pgbench_branches_pkey |            40960
 2017-02-05 01:59:59.980376+01 | 1486256399.98038 | pgbench_tellers_pkey  |           245760
 2017-02-05 01:59:59.980376+01 | 1486256399.98038 | pgbench_accounts_pkey |       2246197248

 2017-02-05 02:00:01.055689+01 | 1486256401.05569 | pgbench_branches_pkey |            40960
 2017-02-05 02:00:01.055689+01 | 1486256401.05569 | pgbench_tellers_pkey  |           245760
 2017-02-05 02:00:01.055689+01 | 1486256401.05569 | pgbench_accounts_pkey |       2246197248

 2017-02-05 02:00:02.133033+01 | 1486256402.13303 | pgbench_branches_pkey |            40960
 2017-02-05 02:00:02.133033+01 | 1486256402.13303 | pgbench_tellers_pkey  |           245760
 2017-02-05 02:00:02.133033+01 | 1486256402.13303 | pgbench_accounts_pkey |       2246197248

 2017-02-05 02:00:03.21531+01 | 1486256403.21531 | pgbench_branches_pkey |            40960
 2017-02-05 02:00:03.21531+01 | 1486256403.21531 | pgbench_tellers_pkey  |           245760
 2017-02-05 02:00:03.21531+01 | 1486256403.21531 | pgbench_accounts_pkey |       2246197248

 2017-02-05 02:00:04.293278+01 | 1486256404.29328 | pgbench_branches_pkey |            40960
 2017-02-05 02:00:04.293278+01 | 1486256404.29328 | pgbench_tellers_pkey  |           245760
 2017-02-05 02:00:04.293278+01 | 1486256404.29328 | pgbench_accounts_pkey |       2246197248

 2017-02-05 02:00:05.381709+01 | 1486256405.38171 | pgbench_branches_pkey |            40960
 2017-02-05 02:00:05.381709+01 | 1486256405.38171 | pgbench_tellers_pkey  |           245760
 2017-02-05 02:00:05.381709+01 | 1486256405.38171 | pgbench_accounts_pkey |       2246197248

 2017-02-05 02:00:06.465576+01 | 1486256406.46558 | pgbench_branches_pkey |            40960
 2017-02-05 02:00:06.465576+01 | 1486256406.46558 | pgbench_tellers_pkey  |           245760
 2017-02-05 02:00:06.465576+01 | 1486256406.46558 | pgbench_accounts_pkey |       2246197248

 2017-02-05 02:00:07.554242+01 | 1486256407.55424 | pgbench_branches_pkey |            40960
 2017-02-05 02:00:07.554242+01 | 1486256407.55424 | pgbench_tellers_pkey  |           245760
 2017-02-05 02:00:07.554242+01 | 1486256407.55424 | pgbench_accounts_pkey |       2246197248

 2017-02-05 02:00:08.643569+01 | 1486256408.64357 | pgbench_branches_pkey |            40960
 2017-02-05 02:00:08.643569+01 | 1486256408.64357 | pgbench_tellers_pkey  |           245760
 2017-02-05 02:00:08.643569+01 | 1486256408.64357 | pgbench_accounts_pkey |       2246197248

 2017-02-05 02:00:09.721392+01 | 1486256409.72139 | pgbench_branches_pkey |            40960
 2017-02-05 02:00:09.721392+01 | 1486256409.72139 | pgbench_tellers_pkey  |           245760
 2017-02-05 02:00:09.721392+01 | 1486256409.72139 | pgbench_accounts_pkey |       2246197248

 2017-02-05 02:00:10.797048+01 | 1486256410.79705 | pgbench_branches_pkey |            40960
 2017-02-05 02:00:10.797048+01 | 1486256410.79705 | pgbench_tellers_pkey  |           245760
 2017-02-05 02:00:10.797048+01 | 1486256410.79705 | pgbench_accounts_pkey |       2246197248

 2017-02-05 02:00:11.879585+01 | 1486256411.87959 | pgbench_branches_pkey |            40960
 2017-02-05 02:00:11.879585+01 | 1486256411.87959 | pgbench_tellers_pkey  |           245760
 2017-02-05 02:00:11.879585+01 | 1486256411.87959 | pgbench_accounts_pkey |       2246197248

 2017-02-05 02:00:12.97391+01 | 1486256412.97391 | pgbench_branches_pkey |            40960
 2017-02-05 02:00:12.97391+01 | 1486256412.97391 | pgbench_tellers_pkey  |           245760
 2017-02-05 02:00:12.97391+01 | 1486256412.97391 | pgbench_accounts_pkey |       2246197248

 2017-02-05 02:00:14.054247+01 | 1486256414.05425 | pgbench_branches_pkey |            40960
 2017-02-05 02:00:14.054247+01 | 1486256414.05425 | pgbench_tellers_pkey  |           245760
 2017-02-05 02:00:14.054247+01 | 1486256414.05425 | pgbench_accounts_pkey |       2246197248

 2017-02-05 02:00:15.130592+01 | 1486256415.13059 | pgbench_branches_pkey |            40960
 2017-02-05 02:00:15.130592+01 | 1486256415.13059 | pgbench_tellers_pkey  |           245760
 2017-02-05 02:00:15.130592+01 | 1486256415.13059 | pgbench_accounts_pkey |       2246197248

 2017-02-05 02:00:16.211193+01 | 1486256416.21119 | pgbench_branches_pkey |            40960
 2017-02-05 02:00:16.211193+01 | 1486256416.21119 | pgbench_tellers_pkey  |           245760
 2017-02-05 02:00:16.211193+01 | 1486256416.21119 | pgbench_accounts_pkey |       2246197248

 2017-02-05 02:00:17.281903+01 | 1486256417.2819 | pgbench_branches_pkey |            40960
 2017-02-05 02:00:17.281903+01 | 1486256417.2819 | pgbench_tellers_pkey  |           245760
 2017-02-05 02:00:17.281903+01 | 1486256417.2819 | pgbench_accounts_pkey |       2246197248

 2017-02-05 02:00:18.359175+01 | 1486256418.35917 | pgbench_branches_pkey |            40960
 2017-02-05 02:00:18.359175+01 | 1486256418.35917 | pgbench_tellers_pkey  |           245760
 2017-02-05 02:00:18.359175+01 | 1486256418.35917 | pgbench_accounts_pkey |       2246197248

 2017-02-05 02:00:19.450125+01 | 1486256419.45012 | pgbench_branches_pkey |            40960
 2017-02-05 02:00:19.450125+01 | 1486256419.45012 | pgbench_tellers_pkey  |           245760
 2017-02-05 02:00:19.450125+01 | 1486256419.45012 | pgbench_accounts_pkey |       2246197248

 2017-02-05 02:00:20.546637+01 | 1486256420.54664 | pgbench_branches_pkey |            40960
 2017-02-05 02:00:20.546637+01 | 1486256420.54664 | pgbench_tellers_pkey  |           245760
 2017-02-05 02:00:20.546637+01 | 1486256420.54664 | pgbench_accounts_pkey |       2246197248

 2017-02-05 02:00:21.629706+01 | 1486256421.62971 | pgbench_branches_pkey |            40960
 2017-02-05 02:00:21.629706+01 | 1486256421.62971 | pgbench_tellers_pkey  |           245760
 2017-02-05 02:00:21.629706+01 | 1486256421.62971 | pgbench_accounts_pkey |       2246197248

 2017-02-05 02:00:22.716642+01 | 1486256422.71664 | pgbench_branches_pkey |            40960
 2017-02-05 02:00:22.716642+01 | 1486256422.71664 | pgbench_tellers_pkey  |           245760
 2017-02-05 02:00:22.716642+01 | 1486256422.71664 | pgbench_accounts_pkey |       2246197248

 2017-02-05 02:00:23.799958+01 | 1486256423.79996 | pgbench_branches_pkey |            40960
 2017-02-05 02:00:23.799958+01 | 1486256423.79996 | pgbench_tellers_pkey  |           245760
 2017-02-05 02:00:23.799958+01 | 1486256423.79996 | pgbench_accounts_pkey |       2246197248

 2017-02-05 02:00:24.890385+01 | 1486256424.89038 | pgbench_branches_pkey |            40960
 2017-02-05 02:00:24.890385+01 | 1486256424.89038 | pgbench_tellers_pkey  |           245760
 2017-02-05 02:00:24.890385+01 | 1486256424.89038 | pgbench_accounts_pkey |       2246197248

 2017-02-05 02:00:25.973681+01 | 1486256425.97368 | pgbench_branches_pkey |            40960
 2017-02-05 02:00:25.973681+01 | 1486256425.97368 | pgbench_tellers_pkey  |           245760
 2017-02-05 02:00:25.973681+01 | 1486256425.97368 | pgbench_accounts_pkey |       2246197248

 2017-02-05 02:00:27.053446+01 | 1486256427.05345 | pgbench_branches_pkey |            40960
 2017-02-05 02:00:27.053446+01 | 1486256427.05345 | pgbench_tellers_pkey  |           245760
 2017-02-05 02:00:27.053446+01 | 1486256427.05345 | pgbench_accounts_pkey |       2246197248

 2017-02-05 02:00:28.130774+01 | 1486256428.13077 | pgbench_branches_pkey |            40960
 2017-02-05 02:00:28.130774+01 | 1486256428.13077 | pgbench_tellers_pkey  |           245760
 2017-02-05 02:00:28.130774+01 | 1486256428.13077 | pgbench_accounts_pkey |       2246197248

 2017-02-05 02:00:29.206444+01 | 1486256429.20644 | pgbench_branches_pkey |            40960
 2017-02-05 02:00:29.206444+01 | 1486256429.20644 | pgbench_tellers_pkey  |           245760
 2017-02-05 02:00:29.206444+01 | 1486256429.20644 | pgbench_accounts_pkey |       2246197248

 2017-02-05 02:00:30.28141+01 | 1486256430.28141 | pgbench_branches_pkey |            40960
 2017-02-05 02:00:30.28141+01 | 1486256430.28141 | pgbench_tellers_pkey  |           245760
 2017-02-05 02:00:30.28141+01 | 1486256430.28141 | pgbench_accounts_pkey |       2246197248

 2017-02-05 02:00:31.369012+01 | 1486256431.36901 | pgbench_branches_pkey |            40960
 2017-02-05 02:00:31.369012+01 | 1486256431.36901 | pgbench_tellers_pkey  |           245760
 2017-02-05 02:00:31.369012+01 | 1486256431.36901 | pgbench_accounts_pkey |       2246197248

 2017-02-05 02:00:32.451365+01 | 1486256432.45136 | pgbench_branches_pkey |            40960
 2017-02-05 02:00:32.451365+01 | 1486256432.45136 | pgbench_tellers_pkey  |           245760
 2017-02-05 02:00:32.451365+01 | 1486256432.45136 | pgbench_accounts_pkey |       2246197248

 2017-02-05 02:00:33.538808+01 | 1486256433.53881 | pgbench_branches_pkey |            40960
 2017-02-05 02:00:33.538808+01 | 1486256433.53881 | pgbench_tellers_pkey  |           245760
 2017-02-05 02:00:33.538808+01 | 1486256433.53881 | pgbench_accounts_pkey |       2246197248

 2017-02-05 02:00:34.622945+01 | 1486256434.62295 | pgbench_branches_pkey |            40960
 2017-02-05 02:00:34.622945+01 | 1486256434.62295 | pgbench_tellers_pkey  |           245760
 2017-02-05 02:00:34.622945+01 | 1486256434.62295 | pgbench_accounts_pkey |       2246197248

 2017-02-05 02:00:35.705818+01 | 1486256435.70582 | pgbench_branches_pkey |            40960
 2017-02-05 02:00:35.705818+01 | 1486256435.70582 | pgbench_tellers_pkey  |           245760
 2017-02-05 02:00:35.705818+01 | 1486256435.70582 | pgbench_accounts_pkey |       2246197248

 2017-02-05 02:00:36.779003+01 | 1486256436.779 | pgbench_branches_pkey |            40960
 2017-02-05 02:00:36.779003+01 | 1486256436.779 | pgbench_tellers_pkey  |           245760
 2017-02-05 02:00:36.779003+01 | 1486256436.779 | pgbench_accounts_pkey |       2246197248

 2017-02-05 02:00:37.85668+01 | 1486256437.85668 | pgbench_branches_pkey |            40960
 2017-02-05 02:00:37.85668+01 | 1486256437.85668 | pgbench_tellers_pkey  |           245760
 2017-02-05 02:00:37.85668+01 | 1486256437.85668 | pgbench_accounts_pkey |       2246197248

 2017-02-05 02:00:38.940154+01 | 1486256438.94015 | pgbench_branches_pkey |            40960
 2017-02-05 02:00:38.940154+01 | 1486256438.94015 | pgbench_tellers_pkey  |           245760
 2017-02-05 02:00:38.940154+01 | 1486256438.94015 | pgbench_accounts_pkey |       2246197248

 2017-02-05 02:00:40.017386+01 | 1486256440.01739 | pgbench_branches_pkey |            40960
 2017-02-05 02:00:40.017386+01 | 1486256440.01739 | pgbench_tellers_pkey  |           245760
 2017-02-05 02:00:40.017386+01 | 1486256440.01739 | pgbench_accounts_pkey |       2246197248

 2017-02-05 02:00:41.092576+01 | 1486256441.09258 | pgbench_branches_pkey |            40960
 2017-02-05 02:00:41.092576+01 | 1486256441.09258 | pgbench_tellers_pkey  |           245760
 2017-02-05 02:00:41.092576+01 | 1486256441.09258 | pgbench_accounts_pkey |       2246197248

 2017-02-05 02:00:42.17524+01 | 1486256442.17524 | pgbench_branches_pkey |            40960
 2017-02-05 02:00:42.17524+01 | 1486256442.17524 | pgbench_tellers_pkey  |           245760
 2017-02-05 02:00:42.17524+01 | 1486256442.17524 | pgbench_accounts_pkey |       2246197248

 2017-02-05 02:00:43.256+01 | 1486256443.256 | pgbench_branches_pkey |            40960
 2017-02-05 02:00:43.256+01 | 1486256443.256 | pgbench_tellers_pkey  |           245760
 2017-02-05 02:00:43.256+01 | 1486256443.256 | pgbench_accounts_pkey |       2246197248

 2017-02-05 02:00:44.337092+01 | 1486256444.33709 | pgbench_branches_pkey |            40960
 2017-02-05 02:00:44.337092+01 | 1486256444.33709 | pgbench_tellers_pkey  |           245760
 2017-02-05 02:00:44.337092+01 | 1486256444.33709 | pgbench_accounts_pkey |       2246197248

 2017-02-05 02:00:45.418883+01 | 1486256445.41888 | pgbench_branches_pkey |            40960
 2017-02-05 02:00:45.418883+01 | 1486256445.41888 | pgbench_tellers_pkey  |           245760
 2017-02-05 02:00:45.418883+01 | 1486256445.41888 | pgbench_accounts_pkey |       2246197248

 2017-02-05 02:00:46.502218+01 | 1486256446.50222 | pgbench_branches_pkey |            40960
 2017-02-05 02:00:46.502218+01 | 1486256446.50222 | pgbench_tellers_pkey  |           245760
 2017-02-05 02:00:46.502218+01 | 1486256446.50222 | pgbench_accounts_pkey |       2246197248

 2017-02-05 02:00:47.578098+01 | 1486256447.5781 | pgbench_branches_pkey |            40960
 2017-02-05 02:00:47.578098+01 | 1486256447.5781 | pgbench_tellers_pkey  |           245760
 2017-02-05 02:00:47.578098+01 | 1486256447.5781 | pgbench_accounts_pkey |       2246197248

 2017-02-05 02:00:48.66924+01 | 1486256448.66924 | pgbench_branches_pkey |            40960
 2017-02-05 02:00:48.66924+01 | 1486256448.66924 | pgbench_tellers_pkey  |           245760
 2017-02-05 02:00:48.66924+01 | 1486256448.66924 | pgbench_accounts_pkey |       2246197248

 2017-02-05 02:00:49.764222+01 | 1486256449.76422 | pgbench_branches_pkey |            40960
 2017-02-05 02:00:49.764222+01 | 1486256449.76422 | pgbench_tellers_pkey  |           245760
 2017-02-05 02:00:49.764222+01 | 1486256449.76422 | pgbench_accounts_pkey |       2246197248

 2017-02-05 02:00:50.839897+01 | 1486256450.8399 | pgbench_branches_pkey |            40960
 2017-02-05 02:00:50.839897+01 | 1486256450.8399 | pgbench_tellers_pkey  |           245760
 2017-02-05 02:00:50.839897+01 | 1486256450.8399 | pgbench_accounts_pkey |       2246197248

 2017-02-05 02:00:51.916988+01 | 1486256451.91699 | pgbench_branches_pkey |            40960
 2017-02-05 02:00:51.916988+01 | 1486256451.91699 | pgbench_tellers_pkey  |           245760
 2017-02-05 02:00:51.916988+01 | 1486256451.91699 | pgbench_accounts_pkey |       2246197248

 2017-02-05 02:00:52.997192+01 | 1486256452.99719 | pgbench_branches_pkey |            40960
 2017-02-05 02:00:52.997192+01 | 1486256452.99719 | pgbench_tellers_pkey  |           245760
 2017-02-05 02:00:52.997192+01 | 1486256452.99719 | pgbench_accounts_pkey |       2246197248

 2017-02-05 02:00:54.081927+01 | 1486256454.08193 | pgbench_branches_pkey |            40960
 2017-02-05 02:00:54.081927+01 | 1486256454.08193 | pgbench_tellers_pkey  |           245760
 2017-02-05 02:00:54.081927+01 | 1486256454.08193 | pgbench_accounts_pkey |       2246197248

 2017-02-05 02:00:55.160914+01 | 1486256455.16091 | pgbench_branches_pkey |            40960
 2017-02-05 02:00:55.160914+01 | 1486256455.16091 | pgbench_tellers_pkey  |           245760
 2017-02-05 02:00:55.160914+01 | 1486256455.16091 | pgbench_accounts_pkey |       2246197248

 2017-02-05 02:00:56.237777+01 | 1486256456.23778 | pgbench_branches_pkey |            40960
 2017-02-05 02:00:56.237777+01 | 1486256456.23778 | pgbench_tellers_pkey  |           245760
 2017-02-05 02:00:56.237777+01 | 1486256456.23778 | pgbench_accounts_pkey |       2246197248

 2017-02-05 02:00:57.325235+01 | 1486256457.32523 | pgbench_branches_pkey |            40960
 2017-02-05 02:00:57.325235+01 | 1486256457.32523 | pgbench_tellers_pkey  |           245760
 2017-02-05 02:00:57.325235+01 | 1486256457.32523 | pgbench_accounts_pkey |       2246197248

 2017-02-05 02:00:58.412266+01 | 1486256458.41227 | pgbench_branches_pkey |            40960
 2017-02-05 02:00:58.412266+01 | 1486256458.41227 | pgbench_tellers_pkey  |           245760
 2017-02-05 02:00:58.412266+01 | 1486256458.41227 | pgbench_accounts_pkey |       2246197248

 2017-02-05 02:00:59.494623+01 | 1486256459.49462 | pgbench_branches_pkey |            40960
 2017-02-05 02:00:59.494623+01 | 1486256459.49462 | pgbench_tellers_pkey  |           245760
 2017-02-05 02:00:59.494623+01 | 1486256459.49462 | pgbench_accounts_pkey |       2246197248

 2017-02-05 02:01:00.578772+01 | 1486256460.57877 | pgbench_branches_pkey |            40960
 2017-02-05 02:01:00.578772+01 | 1486256460.57877 | pgbench_tellers_pkey  |           245760
 2017-02-05 02:01:00.578772+01 | 1486256460.57877 | pgbench_accounts_pkey |       2246197248

 2017-02-05 02:01:01.661561+01 | 1486256461.66156 | pgbench_branches_pkey |            40960
 2017-02-05 02:01:01.661561+01 | 1486256461.66156 | pgbench_tellers_pkey  |           245760
 2017-02-05 02:01:01.661561+01 | 1486256461.66156 | pgbench_accounts_pkey |       2246197248

 2017-02-05 02:01:02.738955+01 | 1486256462.73896 | pgbench_branches_pkey |            40960
 2017-02-05 02:01:02.738955+01 | 1486256462.73896 | pgbench_tellers_pkey  |           245760
 2017-02-05 02:01:02.738955+01 | 1486256462.73896 | pgbench_accounts_pkey |       2246197248

 2017-02-05 02:01:03.813551+01 | 1486256463.81355 | pgbench_branches_pkey |            40960
 2017-02-05 02:01:03.813551+01 | 1486256463.81355 | pgbench_tellers_pkey  |           245760
 2017-02-05 02:01:03.813551+01 | 1486256463.81355 | pgbench_accounts_pkey |       2246197248

 2017-02-05 02:01:04.897782+01 | 1486256464.89778 | pgbench_branches_pkey |            40960
 2017-02-05 02:01:04.897782+01 | 1486256464.89778 | pgbench_tellers_pkey  |           245760
 2017-02-05 02:01:04.897782+01 | 1486256464.89778 | pgbench_accounts_pkey |       2246197248

 2017-02-05 02:01:05.981173+01 | 1486256465.98117 | pgbench_branches_pkey |            40960
 2017-02-05 02:01:05.981173+01 | 1486256465.98117 | pgbench_tellers_pkey  |           245760
 2017-02-05 02:01:05.981173+01 | 1486256465.98117 | pgbench_accounts_pkey |       2246197248

 2017-02-05 02:01:07.065208+01 | 1486256467.06521 | pgbench_branches_pkey |            40960
 2017-02-05 02:01:07.065208+01 | 1486256467.06521 | pgbench_tellers_pkey  |           245760
 2017-02-05 02:01:07.065208+01 | 1486256467.06521 | pgbench_accounts_pkey |       2246197248

 2017-02-05 02:01:08.143263+01 | 1486256468.14326 | pgbench_branches_pkey |            40960
 2017-02-05 02:01:08.143263+01 | 1486256468.14326 | pgbench_tellers_pkey  |           245760
 2017-02-05 02:01:08.143263+01 | 1486256468.14326 | pgbench_accounts_pkey |       2246197248

 2017-02-05 02:01:09.223602+01 | 1486256469.2236 | pgbench_branches_pkey |            40960
 2017-02-05 02:01:09.223602+01 | 1486256469.2236 | pgbench_tellers_pkey  |           245760
 2017-02-05 02:01:09.223602+01 | 1486256469.2236 | pgbench_accounts_pkey |       2246197248

 2017-02-05 02:01:10.315402+01 | 1486256470.3154 | pgbench_branches_pkey |            40960
 2017-02-05 02:01:10.315402+01 | 1486256470.3154 | pgbench_tellers_pkey  |           245760
 2017-02-05 02:01:10.315402+01 | 1486256470.3154 | pgbench_accounts_pkey |       2246197248

 2017-02-05 02:01:11.402354+01 | 1486256471.40235 | pgbench_branches_pkey |            40960
 2017-02-05 02:01:11.402354+01 | 1486256471.40235 | pgbench_tellers_pkey  |           245760
 2017-02-05 02:01:11.402354+01 | 1486256471.40235 | pgbench_accounts_pkey |       2246197248

 2017-02-05 02:01:12.478+01 | 1486256472.478 | pgbench_branches_pkey |            40960
 2017-02-05 02:01:12.478+01 | 1486256472.478 | pgbench_tellers_pkey  |           245760
 2017-02-05 02:01:12.478+01 | 1486256472.478 | pgbench_accounts_pkey |       2246197248

 2017-02-05 02:01:13.559236+01 | 1486256473.55924 | pgbench_branches_pkey |            40960
 2017-02-05 02:01:13.559236+01 | 1486256473.55924 | pgbench_tellers_pkey  |           245760
 2017-02-05 02:01:13.559236+01 | 1486256473.55924 | pgbench_accounts_pkey |       2246197248

 2017-02-05 02:01:14.634357+01 | 1486256474.63436 | pgbench_branches_pkey |            40960
 2017-02-05 02:01:14.634357+01 | 1486256474.63436 | pgbench_tellers_pkey  |           245760
 2017-02-05 02:01:14.634357+01 | 1486256474.63436 | pgbench_accounts_pkey |       2246197248

 2017-02-05 02:01:15.71816+01 | 1486256475.71816 | pgbench_branches_pkey |            40960
 2017-02-05 02:01:15.71816+01 | 1486256475.71816 | pgbench_tellers_pkey  |           245760
 2017-02-05 02:01:15.71816+01 | 1486256475.71816 | pgbench_accounts_pkey |       2246197248

 2017-02-05 02:01:16.800163+01 | 1486256476.80016 | pgbench_branches_pkey |            40960
 2017-02-05 02:01:16.800163+01 | 1486256476.80016 | pgbench_tellers_pkey  |           245760
 2017-02-05 02:01:16.800163+01 | 1486256476.80016 | pgbench_accounts_pkey |       2246197248

 2017-02-05 02:01:17.882968+01 | 1486256477.88297 | pgbench_branches_pkey |            40960
 2017-02-05 02:01:17.882968+01 | 1486256477.88297 | pgbench_tellers_pkey  |           245760
 2017-02-05 02:01:17.882968+01 | 1486256477.88297 | pgbench_accounts_pkey |       2246197248

 2017-02-05 02:01:18.963308+01 | 1486256478.96331 | pgbench_branches_pkey |            40960
 2017-02-05 02:01:18.963308+01 | 1486256478.96331 | pgbench_tellers_pkey  |           245760
 2017-02-05 02:01:18.963308+01 | 1486256478.96331 | pgbench_accounts_pkey |       2246197248

 2017-02-05 02:01:20.044685+01 | 1486256480.04468 | pgbench_branches_pkey |            40960
 2017-02-05 02:01:20.044685+01 | 1486256480.04468 | pgbench_tellers_pkey  |           245760
 2017-02-05 02:01:20.044685+01 | 1486256480.04468 | pgbench_accounts_pkey |       2246197248

