 2017-02-05 06:01:11.953858+01 | 1486270871.95386 | pgbench_branches_pkey |            16384
 2017-02-05 06:01:11.953858+01 | 1486270871.95386 | pgbench_tellers_pkey  |            40960
 2017-02-05 06:01:11.953858+01 | 1486270871.95386 | pgbench_accounts_pkey |        224641024

 2017-02-05 06:01:13.058762+01 | 1486270873.05876 | pgbench_branches_pkey |            16384
 2017-02-05 06:01:13.058762+01 | 1486270873.05876 | pgbench_tellers_pkey  |            40960
 2017-02-05 06:01:13.058762+01 | 1486270873.05876 | pgbench_accounts_pkey |        224641024

 2017-02-05 06:01:14.171526+01 | 1486270874.17153 | pgbench_branches_pkey |            16384
 2017-02-05 06:01:14.171526+01 | 1486270874.17153 | pgbench_tellers_pkey  |            40960
 2017-02-05 06:01:14.171526+01 | 1486270874.17153 | pgbench_accounts_pkey |        224641024

 2017-02-05 06:01:15.272447+01 | 1486270875.27245 | pgbench_branches_pkey |            16384
 2017-02-05 06:01:15.272447+01 | 1486270875.27245 | pgbench_tellers_pkey  |            40960
 2017-02-05 06:01:15.272447+01 | 1486270875.27245 | pgbench_accounts_pkey |        224641024

 2017-02-05 06:01:16.37242+01 | 1486270876.37242 | pgbench_branches_pkey |            16384
 2017-02-05 06:01:16.37242+01 | 1486270876.37242 | pgbench_tellers_pkey  |            40960
 2017-02-05 06:01:16.37242+01 | 1486270876.37242 | pgbench_accounts_pkey |        224641024

 2017-02-05 06:01:17.477737+01 | 1486270877.47774 | pgbench_branches_pkey |            16384
 2017-02-05 06:01:17.477737+01 | 1486270877.47774 | pgbench_tellers_pkey  |            40960
 2017-02-05 06:01:17.477737+01 | 1486270877.47774 | pgbench_accounts_pkey |        224641024

 2017-02-05 06:01:18.586059+01 | 1486270878.58606 | pgbench_branches_pkey |            16384
 2017-02-05 06:01:18.586059+01 | 1486270878.58606 | pgbench_tellers_pkey  |            40960
 2017-02-05 06:01:18.586059+01 | 1486270878.58606 | pgbench_accounts_pkey |        224641024

 2017-02-05 06:01:19.688368+01 | 1486270879.68837 | pgbench_branches_pkey |            16384
 2017-02-05 06:01:19.688368+01 | 1486270879.68837 | pgbench_tellers_pkey  |            40960
 2017-02-05 06:01:19.688368+01 | 1486270879.68837 | pgbench_accounts_pkey |        224641024

 2017-02-05 06:01:20.800757+01 | 1486270880.80076 | pgbench_branches_pkey |            16384
 2017-02-05 06:01:20.800757+01 | 1486270880.80076 | pgbench_tellers_pkey  |            40960
 2017-02-05 06:01:20.800757+01 | 1486270880.80076 | pgbench_accounts_pkey |        224641024

 2017-02-05 06:01:21.908605+01 | 1486270881.90861 | pgbench_branches_pkey |            16384
 2017-02-05 06:01:21.908605+01 | 1486270881.90861 | pgbench_tellers_pkey  |            40960
 2017-02-05 06:01:21.908605+01 | 1486270881.90861 | pgbench_accounts_pkey |        224641024

 2017-02-05 06:01:23.018795+01 | 1486270883.0188 | pgbench_branches_pkey |            16384
 2017-02-05 06:01:23.018795+01 | 1486270883.0188 | pgbench_tellers_pkey  |            40960
 2017-02-05 06:01:23.018795+01 | 1486270883.0188 | pgbench_accounts_pkey |        224641024

 2017-02-05 06:01:24.116877+01 | 1486270884.11688 | pgbench_branches_pkey |            16384
 2017-02-05 06:01:24.116877+01 | 1486270884.11688 | pgbench_tellers_pkey  |            40960
 2017-02-05 06:01:24.116877+01 | 1486270884.11688 | pgbench_accounts_pkey |        224641024

 2017-02-05 06:01:25.225+01 | 1486270885.225 | pgbench_branches_pkey |            16384
 2017-02-05 06:01:25.225+01 | 1486270885.225 | pgbench_tellers_pkey  |            40960
 2017-02-05 06:01:25.225+01 | 1486270885.225 | pgbench_accounts_pkey |        224641024

 2017-02-05 06:01:26.342434+01 | 1486270886.34243 | pgbench_branches_pkey |            16384
 2017-02-05 06:01:26.342434+01 | 1486270886.34243 | pgbench_tellers_pkey  |            40960
 2017-02-05 06:01:26.342434+01 | 1486270886.34243 | pgbench_accounts_pkey |        224641024

 2017-02-05 06:01:27.440431+01 | 1486270887.44043 | pgbench_branches_pkey |            16384
 2017-02-05 06:01:27.440431+01 | 1486270887.44043 | pgbench_tellers_pkey  |            40960
 2017-02-05 06:01:27.440431+01 | 1486270887.44043 | pgbench_accounts_pkey |        224641024

 2017-02-05 06:01:28.541164+01 | 1486270888.54116 | pgbench_branches_pkey |            16384
 2017-02-05 06:01:28.541164+01 | 1486270888.54116 | pgbench_tellers_pkey  |            40960
 2017-02-05 06:01:28.541164+01 | 1486270888.54116 | pgbench_accounts_pkey |        224641024

 2017-02-05 06:01:29.654469+01 | 1486270889.65447 | pgbench_branches_pkey |            16384
 2017-02-05 06:01:29.654469+01 | 1486270889.65447 | pgbench_tellers_pkey  |            40960
 2017-02-05 06:01:29.654469+01 | 1486270889.65447 | pgbench_accounts_pkey |        224641024

 2017-02-05 06:01:30.750613+01 | 1486270890.75061 | pgbench_branches_pkey |            16384
 2017-02-05 06:01:30.750613+01 | 1486270890.75061 | pgbench_tellers_pkey  |            40960
 2017-02-05 06:01:30.750613+01 | 1486270890.75061 | pgbench_accounts_pkey |        224641024

 2017-02-05 06:01:31.849162+01 | 1486270891.84916 | pgbench_branches_pkey |            16384
 2017-02-05 06:01:31.849162+01 | 1486270891.84916 | pgbench_tellers_pkey  |            40960
 2017-02-05 06:01:31.849162+01 | 1486270891.84916 | pgbench_accounts_pkey |        224641024

 2017-02-05 06:01:32.951919+01 | 1486270892.95192 | pgbench_branches_pkey |            16384
 2017-02-05 06:01:32.951919+01 | 1486270892.95192 | pgbench_tellers_pkey  |            40960
 2017-02-05 06:01:32.951919+01 | 1486270892.95192 | pgbench_accounts_pkey |        224641024

 2017-02-05 06:01:34.051321+01 | 1486270894.05132 | pgbench_branches_pkey |            16384
 2017-02-05 06:01:34.051321+01 | 1486270894.05132 | pgbench_tellers_pkey  |            40960
 2017-02-05 06:01:34.051321+01 | 1486270894.05132 | pgbench_accounts_pkey |        224641024

 2017-02-05 06:01:35.150434+01 | 1486270895.15043 | pgbench_branches_pkey |            16384
 2017-02-05 06:01:35.150434+01 | 1486270895.15043 | pgbench_tellers_pkey  |            40960
 2017-02-05 06:01:35.150434+01 | 1486270895.15043 | pgbench_accounts_pkey |        224641024

 2017-02-05 06:01:36.248569+01 | 1486270896.24857 | pgbench_branches_pkey |            16384
 2017-02-05 06:01:36.248569+01 | 1486270896.24857 | pgbench_tellers_pkey  |            40960
 2017-02-05 06:01:36.248569+01 | 1486270896.24857 | pgbench_accounts_pkey |        224641024

 2017-02-05 06:01:37.35646+01 | 1486270897.35646 | pgbench_branches_pkey |            16384
 2017-02-05 06:01:37.35646+01 | 1486270897.35646 | pgbench_tellers_pkey  |            40960
 2017-02-05 06:01:37.35646+01 | 1486270897.35646 | pgbench_accounts_pkey |        224641024

 2017-02-05 06:01:38.462639+01 | 1486270898.46264 | pgbench_branches_pkey |            16384
 2017-02-05 06:01:38.462639+01 | 1486270898.46264 | pgbench_tellers_pkey  |            40960
 2017-02-05 06:01:38.462639+01 | 1486270898.46264 | pgbench_accounts_pkey |        224641024

 2017-02-05 06:01:39.564098+01 | 1486270899.5641 | pgbench_branches_pkey |            16384
 2017-02-05 06:01:39.564098+01 | 1486270899.5641 | pgbench_tellers_pkey  |            40960
 2017-02-05 06:01:39.564098+01 | 1486270899.5641 | pgbench_accounts_pkey |        224641024

 2017-02-05 06:01:40.665133+01 | 1486270900.66513 | pgbench_branches_pkey |            16384
 2017-02-05 06:01:40.665133+01 | 1486270900.66513 | pgbench_tellers_pkey  |            40960
 2017-02-05 06:01:40.665133+01 | 1486270900.66513 | pgbench_accounts_pkey |        224641024

 2017-02-05 06:01:41.754046+01 | 1486270901.75405 | pgbench_branches_pkey |            16384
 2017-02-05 06:01:41.754046+01 | 1486270901.75405 | pgbench_tellers_pkey  |            40960
 2017-02-05 06:01:41.754046+01 | 1486270901.75405 | pgbench_accounts_pkey |        224641024

 2017-02-05 06:01:42.849675+01 | 1486270902.84967 | pgbench_branches_pkey |            16384
 2017-02-05 06:01:42.849675+01 | 1486270902.84967 | pgbench_tellers_pkey  |            40960
 2017-02-05 06:01:42.849675+01 | 1486270902.84967 | pgbench_accounts_pkey |        224641024

 2017-02-05 06:01:43.943866+01 | 1486270903.94387 | pgbench_branches_pkey |            16384
 2017-02-05 06:01:43.943866+01 | 1486270903.94387 | pgbench_tellers_pkey  |            40960
 2017-02-05 06:01:43.943866+01 | 1486270903.94387 | pgbench_accounts_pkey |        224641024

 2017-02-05 06:01:45.046769+01 | 1486270905.04677 | pgbench_branches_pkey |            16384
 2017-02-05 06:01:45.046769+01 | 1486270905.04677 | pgbench_tellers_pkey  |            40960
 2017-02-05 06:01:45.046769+01 | 1486270905.04677 | pgbench_accounts_pkey |        224641024

 2017-02-05 06:01:46.147339+01 | 1486270906.14734 | pgbench_branches_pkey |            16384
 2017-02-05 06:01:46.147339+01 | 1486270906.14734 | pgbench_tellers_pkey  |            40960
 2017-02-05 06:01:46.147339+01 | 1486270906.14734 | pgbench_accounts_pkey |        224641024

 2017-02-05 06:01:47.252644+01 | 1486270907.25264 | pgbench_branches_pkey |            16384
 2017-02-05 06:01:47.252644+01 | 1486270907.25264 | pgbench_tellers_pkey  |            40960
 2017-02-05 06:01:47.252644+01 | 1486270907.25264 | pgbench_accounts_pkey |        224641024

 2017-02-05 06:01:48.359242+01 | 1486270908.35924 | pgbench_branches_pkey |            16384
 2017-02-05 06:01:48.359242+01 | 1486270908.35924 | pgbench_tellers_pkey  |            40960
 2017-02-05 06:01:48.359242+01 | 1486270908.35924 | pgbench_accounts_pkey |        224641024

 2017-02-05 06:01:49.467743+01 | 1486270909.46774 | pgbench_branches_pkey |            16384
 2017-02-05 06:01:49.467743+01 | 1486270909.46774 | pgbench_tellers_pkey  |            40960
 2017-02-05 06:01:49.467743+01 | 1486270909.46774 | pgbench_accounts_pkey |        224641024

 2017-02-05 06:01:50.575985+01 | 1486270910.57598 | pgbench_branches_pkey |            16384
 2017-02-05 06:01:50.575985+01 | 1486270910.57598 | pgbench_tellers_pkey  |            40960
 2017-02-05 06:01:50.575985+01 | 1486270910.57598 | pgbench_accounts_pkey |        224641024

 2017-02-05 06:01:51.68391+01 | 1486270911.68391 | pgbench_branches_pkey |            16384
 2017-02-05 06:01:51.68391+01 | 1486270911.68391 | pgbench_tellers_pkey  |            40960
 2017-02-05 06:01:51.68391+01 | 1486270911.68391 | pgbench_accounts_pkey |        224641024

 2017-02-05 06:01:52.797595+01 | 1486270912.7976 | pgbench_branches_pkey |            16384
 2017-02-05 06:01:52.797595+01 | 1486270912.7976 | pgbench_tellers_pkey  |            40960
 2017-02-05 06:01:52.797595+01 | 1486270912.7976 | pgbench_accounts_pkey |        224641024

 2017-02-05 06:01:53.881948+01 | 1486270913.88195 | pgbench_branches_pkey |            16384
 2017-02-05 06:01:53.881948+01 | 1486270913.88195 | pgbench_tellers_pkey  |            40960
 2017-02-05 06:01:53.881948+01 | 1486270913.88195 | pgbench_accounts_pkey |        224641024

 2017-02-05 06:01:54.978436+01 | 1486270914.97844 | pgbench_branches_pkey |            16384
 2017-02-05 06:01:54.978436+01 | 1486270914.97844 | pgbench_tellers_pkey  |            40960
 2017-02-05 06:01:54.978436+01 | 1486270914.97844 | pgbench_accounts_pkey |        224641024

 2017-02-05 06:01:56.08006+01 | 1486270916.08006 | pgbench_branches_pkey |            16384
 2017-02-05 06:01:56.08006+01 | 1486270916.08006 | pgbench_tellers_pkey  |            40960
 2017-02-05 06:01:56.08006+01 | 1486270916.08006 | pgbench_accounts_pkey |        224641024

 2017-02-05 06:01:57.180944+01 | 1486270917.18094 | pgbench_branches_pkey |            16384
 2017-02-05 06:01:57.180944+01 | 1486270917.18094 | pgbench_tellers_pkey  |            40960
 2017-02-05 06:01:57.180944+01 | 1486270917.18094 | pgbench_accounts_pkey |        224641024

 2017-02-05 06:01:58.284865+01 | 1486270918.28486 | pgbench_branches_pkey |            16384
 2017-02-05 06:01:58.284865+01 | 1486270918.28486 | pgbench_tellers_pkey  |            40960
 2017-02-05 06:01:58.284865+01 | 1486270918.28486 | pgbench_accounts_pkey |        224641024

 2017-02-05 06:01:59.398026+01 | 1486270919.39803 | pgbench_branches_pkey |            16384
 2017-02-05 06:01:59.398026+01 | 1486270919.39803 | pgbench_tellers_pkey  |            40960
 2017-02-05 06:01:59.398026+01 | 1486270919.39803 | pgbench_accounts_pkey |        224641024

 2017-02-05 06:02:00.506362+01 | 1486270920.50636 | pgbench_branches_pkey |            16384
 2017-02-05 06:02:00.506362+01 | 1486270920.50636 | pgbench_tellers_pkey  |            40960
 2017-02-05 06:02:00.506362+01 | 1486270920.50636 | pgbench_accounts_pkey |        224641024

 2017-02-05 06:02:01.612033+01 | 1486270921.61203 | pgbench_branches_pkey |            16384
 2017-02-05 06:02:01.612033+01 | 1486270921.61203 | pgbench_tellers_pkey  |            40960
 2017-02-05 06:02:01.612033+01 | 1486270921.61203 | pgbench_accounts_pkey |        224641024

 2017-02-05 06:02:02.716224+01 | 1486270922.71622 | pgbench_branches_pkey |            16384
 2017-02-05 06:02:02.716224+01 | 1486270922.71622 | pgbench_tellers_pkey  |            40960
 2017-02-05 06:02:02.716224+01 | 1486270922.71622 | pgbench_accounts_pkey |        224641024

 2017-02-05 06:02:03.819192+01 | 1486270923.81919 | pgbench_branches_pkey |            16384
 2017-02-05 06:02:03.819192+01 | 1486270923.81919 | pgbench_tellers_pkey  |            40960
 2017-02-05 06:02:03.819192+01 | 1486270923.81919 | pgbench_accounts_pkey |        224641024

 2017-02-05 06:02:04.91026+01 | 1486270924.91026 | pgbench_branches_pkey |            16384
 2017-02-05 06:02:04.91026+01 | 1486270924.91026 | pgbench_tellers_pkey  |            40960
 2017-02-05 06:02:04.91026+01 | 1486270924.91026 | pgbench_accounts_pkey |        224641024

 2017-02-05 06:02:06.011543+01 | 1486270926.01154 | pgbench_branches_pkey |            16384
 2017-02-05 06:02:06.011543+01 | 1486270926.01154 | pgbench_tellers_pkey  |            40960
 2017-02-05 06:02:06.011543+01 | 1486270926.01154 | pgbench_accounts_pkey |        224641024

 2017-02-05 06:02:07.116688+01 | 1486270927.11669 | pgbench_branches_pkey |            16384
 2017-02-05 06:02:07.116688+01 | 1486270927.11669 | pgbench_tellers_pkey  |            40960
 2017-02-05 06:02:07.116688+01 | 1486270927.11669 | pgbench_accounts_pkey |        224641024

 2017-02-05 06:02:08.223412+01 | 1486270928.22341 | pgbench_branches_pkey |            16384
 2017-02-05 06:02:08.223412+01 | 1486270928.22341 | pgbench_tellers_pkey  |            40960
 2017-02-05 06:02:08.223412+01 | 1486270928.22341 | pgbench_accounts_pkey |        224641024

 2017-02-05 06:02:09.322411+01 | 1486270929.32241 | pgbench_branches_pkey |            16384
 2017-02-05 06:02:09.322411+01 | 1486270929.32241 | pgbench_tellers_pkey  |            40960
 2017-02-05 06:02:09.322411+01 | 1486270929.32241 | pgbench_accounts_pkey |        224641024

 2017-02-05 06:02:10.423547+01 | 1486270930.42355 | pgbench_branches_pkey |            16384
 2017-02-05 06:02:10.423547+01 | 1486270930.42355 | pgbench_tellers_pkey  |            40960
 2017-02-05 06:02:10.423547+01 | 1486270930.42355 | pgbench_accounts_pkey |        224641024

 2017-02-05 06:02:11.535693+01 | 1486270931.53569 | pgbench_branches_pkey |            16384
 2017-02-05 06:02:11.535693+01 | 1486270931.53569 | pgbench_tellers_pkey  |            40960
 2017-02-05 06:02:11.535693+01 | 1486270931.53569 | pgbench_accounts_pkey |        224641024

 2017-02-05 06:02:12.650923+01 | 1486270932.65092 | pgbench_branches_pkey |            16384
 2017-02-05 06:02:12.650923+01 | 1486270932.65092 | pgbench_tellers_pkey  |            40960
 2017-02-05 06:02:12.650923+01 | 1486270932.65092 | pgbench_accounts_pkey |        224641024

 2017-02-05 06:02:13.763231+01 | 1486270933.76323 | pgbench_branches_pkey |            16384
 2017-02-05 06:02:13.763231+01 | 1486270933.76323 | pgbench_tellers_pkey  |            40960
 2017-02-05 06:02:13.763231+01 | 1486270933.76323 | pgbench_accounts_pkey |        224641024

 2017-02-05 06:02:14.857078+01 | 1486270934.85708 | pgbench_branches_pkey |            16384
 2017-02-05 06:02:14.857078+01 | 1486270934.85708 | pgbench_tellers_pkey  |            40960
 2017-02-05 06:02:14.857078+01 | 1486270934.85708 | pgbench_accounts_pkey |        224641024

 2017-02-05 06:02:15.949484+01 | 1486270935.94948 | pgbench_branches_pkey |            16384
 2017-02-05 06:02:15.949484+01 | 1486270935.94948 | pgbench_tellers_pkey  |            40960
 2017-02-05 06:02:15.949484+01 | 1486270935.94948 | pgbench_accounts_pkey |        224641024

 2017-02-05 06:02:17.061903+01 | 1486270937.0619 | pgbench_branches_pkey |            16384
 2017-02-05 06:02:17.061903+01 | 1486270937.0619 | pgbench_tellers_pkey  |            40960
 2017-02-05 06:02:17.061903+01 | 1486270937.0619 | pgbench_accounts_pkey |        224641024

 2017-02-05 06:02:18.166966+01 | 1486270938.16697 | pgbench_branches_pkey |            16384
 2017-02-05 06:02:18.166966+01 | 1486270938.16697 | pgbench_tellers_pkey  |            40960
 2017-02-05 06:02:18.166966+01 | 1486270938.16697 | pgbench_accounts_pkey |        224641024

 2017-02-05 06:02:19.271804+01 | 1486270939.2718 | pgbench_branches_pkey |            16384
 2017-02-05 06:02:19.271804+01 | 1486270939.2718 | pgbench_tellers_pkey  |            40960
 2017-02-05 06:02:19.271804+01 | 1486270939.2718 | pgbench_accounts_pkey |        224641024

 2017-02-05 06:02:20.391549+01 | 1486270940.39155 | pgbench_branches_pkey |            16384
 2017-02-05 06:02:20.391549+01 | 1486270940.39155 | pgbench_tellers_pkey  |            40960
 2017-02-05 06:02:20.391549+01 | 1486270940.39155 | pgbench_accounts_pkey |        224641024

 2017-02-05 06:02:21.507069+01 | 1486270941.50707 | pgbench_branches_pkey |            16384
 2017-02-05 06:02:21.507069+01 | 1486270941.50707 | pgbench_tellers_pkey  |            40960
 2017-02-05 06:02:21.507069+01 | 1486270941.50707 | pgbench_accounts_pkey |        224641024

 2017-02-05 06:02:22.623682+01 | 1486270942.62368 | pgbench_branches_pkey |            16384
 2017-02-05 06:02:22.623682+01 | 1486270942.62368 | pgbench_tellers_pkey  |            40960
 2017-02-05 06:02:22.623682+01 | 1486270942.62368 | pgbench_accounts_pkey |        224641024

 2017-02-05 06:02:23.726603+01 | 1486270943.7266 | pgbench_branches_pkey |            16384
 2017-02-05 06:02:23.726603+01 | 1486270943.7266 | pgbench_tellers_pkey  |            40960
 2017-02-05 06:02:23.726603+01 | 1486270943.7266 | pgbench_accounts_pkey |        224641024

 2017-02-05 06:02:24.830776+01 | 1486270944.83078 | pgbench_branches_pkey |            16384
 2017-02-05 06:02:24.830776+01 | 1486270944.83078 | pgbench_tellers_pkey  |            40960
 2017-02-05 06:02:24.830776+01 | 1486270944.83078 | pgbench_accounts_pkey |        224641024

 2017-02-05 06:02:25.916497+01 | 1486270945.9165 | pgbench_branches_pkey |            16384
 2017-02-05 06:02:25.916497+01 | 1486270945.9165 | pgbench_tellers_pkey  |            40960
 2017-02-05 06:02:25.916497+01 | 1486270945.9165 | pgbench_accounts_pkey |        224641024

 2017-02-05 06:02:27.011097+01 | 1486270947.0111 | pgbench_branches_pkey |            16384
 2017-02-05 06:02:27.011097+01 | 1486270947.0111 | pgbench_tellers_pkey  |            40960
 2017-02-05 06:02:27.011097+01 | 1486270947.0111 | pgbench_accounts_pkey |        224641024

 2017-02-05 06:02:28.123139+01 | 1486270948.12314 | pgbench_branches_pkey |            16384
 2017-02-05 06:02:28.123139+01 | 1486270948.12314 | pgbench_tellers_pkey  |            40960
 2017-02-05 06:02:28.123139+01 | 1486270948.12314 | pgbench_accounts_pkey |        224641024

 2017-02-05 06:02:29.228478+01 | 1486270949.22848 | pgbench_branches_pkey |            16384
 2017-02-05 06:02:29.228478+01 | 1486270949.22848 | pgbench_tellers_pkey  |            40960
 2017-02-05 06:02:29.228478+01 | 1486270949.22848 | pgbench_accounts_pkey |        224641024

 2017-02-05 06:02:30.328055+01 | 1486270950.32805 | pgbench_branches_pkey |            16384
 2017-02-05 06:02:30.328055+01 | 1486270950.32805 | pgbench_tellers_pkey  |            40960
 2017-02-05 06:02:30.328055+01 | 1486270950.32805 | pgbench_accounts_pkey |        224641024

 2017-02-05 06:02:31.430497+01 | 1486270951.4305 | pgbench_branches_pkey |            16384
 2017-02-05 06:02:31.430497+01 | 1486270951.4305 | pgbench_tellers_pkey  |            40960
 2017-02-05 06:02:31.430497+01 | 1486270951.4305 | pgbench_accounts_pkey |        224641024

 2017-02-05 06:02:32.539148+01 | 1486270952.53915 | pgbench_branches_pkey |            16384
 2017-02-05 06:02:32.539148+01 | 1486270952.53915 | pgbench_tellers_pkey  |            40960
 2017-02-05 06:02:32.539148+01 | 1486270952.53915 | pgbench_accounts_pkey |        224641024

 2017-02-05 06:02:33.636532+01 | 1486270953.63653 | pgbench_branches_pkey |            16384
 2017-02-05 06:02:33.636532+01 | 1486270953.63653 | pgbench_tellers_pkey  |            40960
 2017-02-05 06:02:33.636532+01 | 1486270953.63653 | pgbench_accounts_pkey |        224641024

 2017-02-05 06:02:34.743725+01 | 1486270954.74373 | pgbench_branches_pkey |            16384
 2017-02-05 06:02:34.743725+01 | 1486270954.74373 | pgbench_tellers_pkey  |            40960
 2017-02-05 06:02:34.743725+01 | 1486270954.74373 | pgbench_accounts_pkey |        224641024

 2017-02-05 06:02:35.850652+01 | 1486270955.85065 | pgbench_branches_pkey |            16384
 2017-02-05 06:02:35.850652+01 | 1486270955.85065 | pgbench_tellers_pkey  |            40960
 2017-02-05 06:02:35.850652+01 | 1486270955.85065 | pgbench_accounts_pkey |        224641024

 2017-02-05 06:02:36.938464+01 | 1486270956.93846 | pgbench_branches_pkey |            16384
 2017-02-05 06:02:36.938464+01 | 1486270956.93846 | pgbench_tellers_pkey  |            40960
 2017-02-05 06:02:36.938464+01 | 1486270956.93846 | pgbench_accounts_pkey |        224641024

 2017-02-05 06:02:38.034196+01 | 1486270958.0342 | pgbench_branches_pkey |            16384
 2017-02-05 06:02:38.034196+01 | 1486270958.0342 | pgbench_tellers_pkey  |            40960
 2017-02-05 06:02:38.034196+01 | 1486270958.0342 | pgbench_accounts_pkey |        224641024

 2017-02-05 06:02:39.128908+01 | 1486270959.12891 | pgbench_branches_pkey |            16384
 2017-02-05 06:02:39.128908+01 | 1486270959.12891 | pgbench_tellers_pkey  |            40960
 2017-02-05 06:02:39.128908+01 | 1486270959.12891 | pgbench_accounts_pkey |        224641024

 2017-02-05 06:02:40.223344+01 | 1486270960.22334 | pgbench_branches_pkey |            16384
 2017-02-05 06:02:40.223344+01 | 1486270960.22334 | pgbench_tellers_pkey  |            40960
 2017-02-05 06:02:40.223344+01 | 1486270960.22334 | pgbench_accounts_pkey |        224641024

 2017-02-05 06:02:41.335483+01 | 1486270961.33548 | pgbench_branches_pkey |            16384
 2017-02-05 06:02:41.335483+01 | 1486270961.33548 | pgbench_tellers_pkey  |            40960
 2017-02-05 06:02:41.335483+01 | 1486270961.33548 | pgbench_accounts_pkey |        224641024

 2017-02-05 06:02:42.436647+01 | 1486270962.43665 | pgbench_branches_pkey |            16384
 2017-02-05 06:02:42.436647+01 | 1486270962.43665 | pgbench_tellers_pkey  |            40960
 2017-02-05 06:02:42.436647+01 | 1486270962.43665 | pgbench_accounts_pkey |        224641024

 2017-02-05 06:02:43.536374+01 | 1486270963.53637 | pgbench_branches_pkey |            16384
 2017-02-05 06:02:43.536374+01 | 1486270963.53637 | pgbench_tellers_pkey  |            40960
 2017-02-05 06:02:43.536374+01 | 1486270963.53637 | pgbench_accounts_pkey |        224641024

 2017-02-05 06:02:44.646135+01 | 1486270964.64614 | pgbench_branches_pkey |            16384
 2017-02-05 06:02:44.646135+01 | 1486270964.64614 | pgbench_tellers_pkey  |            40960
 2017-02-05 06:02:44.646135+01 | 1486270964.64614 | pgbench_accounts_pkey |        224641024

 2017-02-05 06:02:45.754201+01 | 1486270965.7542 | pgbench_branches_pkey |            16384
 2017-02-05 06:02:45.754201+01 | 1486270965.7542 | pgbench_tellers_pkey  |            40960
 2017-02-05 06:02:45.754201+01 | 1486270965.7542 | pgbench_accounts_pkey |        224641024

 2017-02-05 06:02:46.850384+01 | 1486270966.85038 | pgbench_branches_pkey |            16384
 2017-02-05 06:02:46.850384+01 | 1486270966.85038 | pgbench_tellers_pkey  |            40960
 2017-02-05 06:02:46.850384+01 | 1486270966.85038 | pgbench_accounts_pkey |        224641024

 2017-02-05 06:02:47.944766+01 | 1486270967.94477 | pgbench_branches_pkey |            16384
 2017-02-05 06:02:47.944766+01 | 1486270967.94477 | pgbench_tellers_pkey  |            40960
 2017-02-05 06:02:47.944766+01 | 1486270967.94477 | pgbench_accounts_pkey |        224641024

 2017-02-05 06:02:49.035156+01 | 1486270969.03516 | pgbench_branches_pkey |            16384
 2017-02-05 06:02:49.035156+01 | 1486270969.03516 | pgbench_tellers_pkey  |            40960
 2017-02-05 06:02:49.035156+01 | 1486270969.03516 | pgbench_accounts_pkey |        224641024

 2017-02-05 06:02:50.14864+01 | 1486270970.14864 | pgbench_branches_pkey |            16384
 2017-02-05 06:02:50.14864+01 | 1486270970.14864 | pgbench_tellers_pkey  |            40960
 2017-02-05 06:02:50.14864+01 | 1486270970.14864 | pgbench_accounts_pkey |        224641024

 2017-02-05 06:02:51.2452+01 | 1486270971.2452 | pgbench_branches_pkey |            16384
 2017-02-05 06:02:51.2452+01 | 1486270971.2452 | pgbench_tellers_pkey  |            40960
 2017-02-05 06:02:51.2452+01 | 1486270971.2452 | pgbench_accounts_pkey |        224641024

 2017-02-05 06:02:52.358151+01 | 1486270972.35815 | pgbench_branches_pkey |            16384
 2017-02-05 06:02:52.358151+01 | 1486270972.35815 | pgbench_tellers_pkey  |            40960
 2017-02-05 06:02:52.358151+01 | 1486270972.35815 | pgbench_accounts_pkey |        224641024

 2017-02-05 06:02:53.473982+01 | 1486270973.47398 | pgbench_branches_pkey |            16384
 2017-02-05 06:02:53.473982+01 | 1486270973.47398 | pgbench_tellers_pkey  |            40960
 2017-02-05 06:02:53.473982+01 | 1486270973.47398 | pgbench_accounts_pkey |        224641024

 2017-02-05 06:02:54.580905+01 | 1486270974.5809 | pgbench_branches_pkey |            16384
 2017-02-05 06:02:54.580905+01 | 1486270974.5809 | pgbench_tellers_pkey  |            40960
 2017-02-05 06:02:54.580905+01 | 1486270974.5809 | pgbench_accounts_pkey |        224641024

 2017-02-05 06:02:55.674731+01 | 1486270975.67473 | pgbench_branches_pkey |            16384
 2017-02-05 06:02:55.674731+01 | 1486270975.67473 | pgbench_tellers_pkey  |            40960
 2017-02-05 06:02:55.674731+01 | 1486270975.67473 | pgbench_accounts_pkey |        224641024

 2017-02-05 06:02:56.786912+01 | 1486270976.78691 | pgbench_branches_pkey |            16384
 2017-02-05 06:02:56.786912+01 | 1486270976.78691 | pgbench_tellers_pkey  |            40960
 2017-02-05 06:02:56.786912+01 | 1486270976.78691 | pgbench_accounts_pkey |        224641024

 2017-02-05 06:02:57.891818+01 | 1486270977.89182 | pgbench_branches_pkey |            16384
 2017-02-05 06:02:57.891818+01 | 1486270977.89182 | pgbench_tellers_pkey  |            40960
 2017-02-05 06:02:57.891818+01 | 1486270977.89182 | pgbench_accounts_pkey |        224641024

 2017-02-05 06:02:58.986183+01 | 1486270978.98618 | pgbench_branches_pkey |            16384
 2017-02-05 06:02:58.986183+01 | 1486270978.98618 | pgbench_tellers_pkey  |            40960
 2017-02-05 06:02:58.986183+01 | 1486270978.98618 | pgbench_accounts_pkey |        224641024

 2017-02-05 06:03:00.098659+01 | 1486270980.09866 | pgbench_branches_pkey |            16384
 2017-02-05 06:03:00.098659+01 | 1486270980.09866 | pgbench_tellers_pkey  |            40960
 2017-02-05 06:03:00.098659+01 | 1486270980.09866 | pgbench_accounts_pkey |        224641024

 2017-02-05 06:03:01.198257+01 | 1486270981.19826 | pgbench_branches_pkey |            16384
 2017-02-05 06:03:01.198257+01 | 1486270981.19826 | pgbench_tellers_pkey  |            40960
 2017-02-05 06:03:01.198257+01 | 1486270981.19826 | pgbench_accounts_pkey |        224641024

 2017-02-05 06:03:02.302381+01 | 1486270982.30238 | pgbench_branches_pkey |            16384
 2017-02-05 06:03:02.302381+01 | 1486270982.30238 | pgbench_tellers_pkey  |            40960
 2017-02-05 06:03:02.302381+01 | 1486270982.30238 | pgbench_accounts_pkey |        224641024

 2017-02-05 06:03:03.412121+01 | 1486270983.41212 | pgbench_branches_pkey |            16384
 2017-02-05 06:03:03.412121+01 | 1486270983.41212 | pgbench_tellers_pkey  |            40960
 2017-02-05 06:03:03.412121+01 | 1486270983.41212 | pgbench_accounts_pkey |        224641024

 2017-02-05 06:03:04.512386+01 | 1486270984.51239 | pgbench_branches_pkey |            16384
 2017-02-05 06:03:04.512386+01 | 1486270984.51239 | pgbench_tellers_pkey  |            40960
 2017-02-05 06:03:04.512386+01 | 1486270984.51239 | pgbench_accounts_pkey |        224641024

 2017-02-05 06:03:05.614592+01 | 1486270985.61459 | pgbench_branches_pkey |            16384
 2017-02-05 06:03:05.614592+01 | 1486270985.61459 | pgbench_tellers_pkey  |            40960
 2017-02-05 06:03:05.614592+01 | 1486270985.61459 | pgbench_accounts_pkey |        224641024

 2017-02-05 06:03:06.721349+01 | 1486270986.72135 | pgbench_branches_pkey |            16384
 2017-02-05 06:03:06.721349+01 | 1486270986.72135 | pgbench_tellers_pkey  |            40960
 2017-02-05 06:03:06.721349+01 | 1486270986.72135 | pgbench_accounts_pkey |        224641024

 2017-02-05 06:03:07.829175+01 | 1486270987.82917 | pgbench_branches_pkey |            16384
 2017-02-05 06:03:07.829175+01 | 1486270987.82917 | pgbench_tellers_pkey  |            40960
 2017-02-05 06:03:07.829175+01 | 1486270987.82917 | pgbench_accounts_pkey |        224641024

 2017-02-05 06:03:08.92735+01 | 1486270988.92735 | pgbench_branches_pkey |            16384
 2017-02-05 06:03:08.92735+01 | 1486270988.92735 | pgbench_tellers_pkey  |            40960
 2017-02-05 06:03:08.92735+01 | 1486270988.92735 | pgbench_accounts_pkey |        224641024

 2017-02-05 06:03:10.02296+01 | 1486270990.02296 | pgbench_branches_pkey |            16384
 2017-02-05 06:03:10.02296+01 | 1486270990.02296 | pgbench_tellers_pkey  |            40960
 2017-02-05 06:03:10.02296+01 | 1486270990.02296 | pgbench_accounts_pkey |        224641024

 2017-02-05 06:03:11.120155+01 | 1486270991.12016 | pgbench_branches_pkey |            16384
 2017-02-05 06:03:11.120155+01 | 1486270991.12016 | pgbench_tellers_pkey  |            40960
 2017-02-05 06:03:11.120155+01 | 1486270991.12016 | pgbench_accounts_pkey |        224641024

 2017-02-05 06:03:12.223095+01 | 1486270992.22309 | pgbench_branches_pkey |            16384
 2017-02-05 06:03:12.223095+01 | 1486270992.22309 | pgbench_tellers_pkey  |            40960
 2017-02-05 06:03:12.223095+01 | 1486270992.22309 | pgbench_accounts_pkey |        224641024

 2017-02-05 06:03:13.322694+01 | 1486270993.32269 | pgbench_branches_pkey |            16384
 2017-02-05 06:03:13.322694+01 | 1486270993.32269 | pgbench_tellers_pkey  |            40960
 2017-02-05 06:03:13.322694+01 | 1486270993.32269 | pgbench_accounts_pkey |        224641024

 2017-02-05 06:03:14.433397+01 | 1486270994.4334 | pgbench_branches_pkey |            16384
 2017-02-05 06:03:14.433397+01 | 1486270994.4334 | pgbench_tellers_pkey  |            40960
 2017-02-05 06:03:14.433397+01 | 1486270994.4334 | pgbench_accounts_pkey |        224641024

 2017-02-05 06:03:15.540115+01 | 1486270995.54012 | pgbench_branches_pkey |            16384
 2017-02-05 06:03:15.540115+01 | 1486270995.54012 | pgbench_tellers_pkey  |            40960
 2017-02-05 06:03:15.540115+01 | 1486270995.54012 | pgbench_accounts_pkey |        224641024

 2017-02-05 06:03:16.646783+01 | 1486270996.64678 | pgbench_branches_pkey |            16384
 2017-02-05 06:03:16.646783+01 | 1486270996.64678 | pgbench_tellers_pkey  |            40960
 2017-02-05 06:03:16.646783+01 | 1486270996.64678 | pgbench_accounts_pkey |        224641024

 2017-02-05 06:03:17.764051+01 | 1486270997.76405 | pgbench_branches_pkey |            16384
 2017-02-05 06:03:17.764051+01 | 1486270997.76405 | pgbench_tellers_pkey  |            40960
 2017-02-05 06:03:17.764051+01 | 1486270997.76405 | pgbench_accounts_pkey |        224641024

 2017-02-05 06:03:18.871203+01 | 1486270998.8712 | pgbench_branches_pkey |            16384
 2017-02-05 06:03:18.871203+01 | 1486270998.8712 | pgbench_tellers_pkey  |            40960
 2017-02-05 06:03:18.871203+01 | 1486270998.8712 | pgbench_accounts_pkey |        224641024

 2017-02-05 06:03:19.964288+01 | 1486270999.96429 | pgbench_branches_pkey |            16384
 2017-02-05 06:03:19.964288+01 | 1486270999.96429 | pgbench_tellers_pkey  |            40960
 2017-02-05 06:03:19.964288+01 | 1486270999.96429 | pgbench_accounts_pkey |        224641024

 2017-02-05 06:03:21.050281+01 | 1486271001.05028 | pgbench_branches_pkey |            16384
 2017-02-05 06:03:21.050281+01 | 1486271001.05028 | pgbench_tellers_pkey  |            40960
 2017-02-05 06:03:21.050281+01 | 1486271001.05028 | pgbench_accounts_pkey |        224641024

 2017-02-05 06:03:22.147905+01 | 1486271002.14791 | pgbench_branches_pkey |            16384
 2017-02-05 06:03:22.147905+01 | 1486271002.14791 | pgbench_tellers_pkey  |            40960
 2017-02-05 06:03:22.147905+01 | 1486271002.14791 | pgbench_accounts_pkey |        224641024

 2017-02-05 06:03:23.247241+01 | 1486271003.24724 | pgbench_branches_pkey |            16384
 2017-02-05 06:03:23.247241+01 | 1486271003.24724 | pgbench_tellers_pkey  |            40960
 2017-02-05 06:03:23.247241+01 | 1486271003.24724 | pgbench_accounts_pkey |        224641024

 2017-02-05 06:03:24.347357+01 | 1486271004.34736 | pgbench_branches_pkey |            16384
 2017-02-05 06:03:24.347357+01 | 1486271004.34736 | pgbench_tellers_pkey  |            40960
 2017-02-05 06:03:24.347357+01 | 1486271004.34736 | pgbench_accounts_pkey |        224641024

 2017-02-05 06:03:25.443277+01 | 1486271005.44328 | pgbench_branches_pkey |            16384
 2017-02-05 06:03:25.443277+01 | 1486271005.44328 | pgbench_tellers_pkey  |            40960
 2017-02-05 06:03:25.443277+01 | 1486271005.44328 | pgbench_accounts_pkey |        224641024

 2017-02-05 06:03:26.544949+01 | 1486271006.54495 | pgbench_branches_pkey |            16384
 2017-02-05 06:03:26.544949+01 | 1486271006.54495 | pgbench_tellers_pkey  |            40960
 2017-02-05 06:03:26.544949+01 | 1486271006.54495 | pgbench_accounts_pkey |        224641024

 2017-02-05 06:03:27.638663+01 | 1486271007.63866 | pgbench_branches_pkey |            16384
 2017-02-05 06:03:27.638663+01 | 1486271007.63866 | pgbench_tellers_pkey  |            40960
 2017-02-05 06:03:27.638663+01 | 1486271007.63866 | pgbench_accounts_pkey |        224641024

 2017-02-05 06:03:28.743496+01 | 1486271008.7435 | pgbench_branches_pkey |            16384
 2017-02-05 06:03:28.743496+01 | 1486271008.7435 | pgbench_tellers_pkey  |            40960
 2017-02-05 06:03:28.743496+01 | 1486271008.7435 | pgbench_accounts_pkey |        224641024

 2017-02-05 06:03:29.840176+01 | 1486271009.84018 | pgbench_branches_pkey |            16384
 2017-02-05 06:03:29.840176+01 | 1486271009.84018 | pgbench_tellers_pkey  |            40960
 2017-02-05 06:03:29.840176+01 | 1486271009.84018 | pgbench_accounts_pkey |        224641024

 2017-02-05 06:03:30.935183+01 | 1486271010.93518 | pgbench_branches_pkey |            16384
 2017-02-05 06:03:30.935183+01 | 1486271010.93518 | pgbench_tellers_pkey  |            40960
 2017-02-05 06:03:30.935183+01 | 1486271010.93518 | pgbench_accounts_pkey |        224641024

 2017-02-05 06:03:32.033678+01 | 1486271012.03368 | pgbench_branches_pkey |            16384
 2017-02-05 06:03:32.033678+01 | 1486271012.03368 | pgbench_tellers_pkey  |            40960
 2017-02-05 06:03:32.033678+01 | 1486271012.03368 | pgbench_accounts_pkey |        224641024

 2017-02-05 06:03:33.132749+01 | 1486271013.13275 | pgbench_branches_pkey |            16384
 2017-02-05 06:03:33.132749+01 | 1486271013.13275 | pgbench_tellers_pkey  |            40960
 2017-02-05 06:03:33.132749+01 | 1486271013.13275 | pgbench_accounts_pkey |        224641024

 2017-02-05 06:03:34.232084+01 | 1486271014.23208 | pgbench_branches_pkey |            16384
 2017-02-05 06:03:34.232084+01 | 1486271014.23208 | pgbench_tellers_pkey  |            40960
 2017-02-05 06:03:34.232084+01 | 1486271014.23208 | pgbench_accounts_pkey |        224641024

 2017-02-05 06:03:35.334801+01 | 1486271015.3348 | pgbench_branches_pkey |            16384
 2017-02-05 06:03:35.334801+01 | 1486271015.3348 | pgbench_tellers_pkey  |            40960
 2017-02-05 06:03:35.334801+01 | 1486271015.3348 | pgbench_accounts_pkey |        224641024

 2017-02-05 06:03:36.44253+01 | 1486271016.44253 | pgbench_branches_pkey |            16384
 2017-02-05 06:03:36.44253+01 | 1486271016.44253 | pgbench_tellers_pkey  |            40960
 2017-02-05 06:03:36.44253+01 | 1486271016.44253 | pgbench_accounts_pkey |        224641024

 2017-02-05 06:03:37.542987+01 | 1486271017.54299 | pgbench_branches_pkey |            16384
 2017-02-05 06:03:37.542987+01 | 1486271017.54299 | pgbench_tellers_pkey  |            40960
 2017-02-05 06:03:37.542987+01 | 1486271017.54299 | pgbench_accounts_pkey |        224641024

 2017-02-05 06:03:38.651442+01 | 1486271018.65144 | pgbench_branches_pkey |            16384
 2017-02-05 06:03:38.651442+01 | 1486271018.65144 | pgbench_tellers_pkey  |            40960
 2017-02-05 06:03:38.651442+01 | 1486271018.65144 | pgbench_accounts_pkey |        224641024

 2017-02-05 06:03:39.746594+01 | 1486271019.74659 | pgbench_branches_pkey |            16384
 2017-02-05 06:03:39.746594+01 | 1486271019.74659 | pgbench_tellers_pkey  |            40960
 2017-02-05 06:03:39.746594+01 | 1486271019.74659 | pgbench_accounts_pkey |        224641024

 2017-02-05 06:03:40.845617+01 | 1486271020.84562 | pgbench_branches_pkey |            16384
 2017-02-05 06:03:40.845617+01 | 1486271020.84562 | pgbench_tellers_pkey  |            40960
 2017-02-05 06:03:40.845617+01 | 1486271020.84562 | pgbench_accounts_pkey |        224641024

 2017-02-05 06:03:41.949522+01 | 1486271021.94952 | pgbench_branches_pkey |            16384
 2017-02-05 06:03:41.949522+01 | 1486271021.94952 | pgbench_tellers_pkey  |            40960
 2017-02-05 06:03:41.949522+01 | 1486271021.94952 | pgbench_accounts_pkey |        224641024

 2017-02-05 06:03:43.056401+01 | 1486271023.0564 | pgbench_branches_pkey |            16384
 2017-02-05 06:03:43.056401+01 | 1486271023.0564 | pgbench_tellers_pkey  |            40960
 2017-02-05 06:03:43.056401+01 | 1486271023.0564 | pgbench_accounts_pkey |        224641024

 2017-02-05 06:03:44.153622+01 | 1486271024.15362 | pgbench_branches_pkey |            16384
 2017-02-05 06:03:44.153622+01 | 1486271024.15362 | pgbench_tellers_pkey  |            40960
 2017-02-05 06:03:44.153622+01 | 1486271024.15362 | pgbench_accounts_pkey |        224641024

 2017-02-05 06:03:45.252309+01 | 1486271025.25231 | pgbench_branches_pkey |            16384
 2017-02-05 06:03:45.252309+01 | 1486271025.25231 | pgbench_tellers_pkey  |            40960
 2017-02-05 06:03:45.252309+01 | 1486271025.25231 | pgbench_accounts_pkey |        224641024

 2017-02-05 06:03:46.352587+01 | 1486271026.35259 | pgbench_branches_pkey |            16384
 2017-02-05 06:03:46.352587+01 | 1486271026.35259 | pgbench_tellers_pkey  |            40960
 2017-02-05 06:03:46.352587+01 | 1486271026.35259 | pgbench_accounts_pkey |        224641024

 2017-02-05 06:03:47.454992+01 | 1486271027.45499 | pgbench_branches_pkey |            16384
 2017-02-05 06:03:47.454992+01 | 1486271027.45499 | pgbench_tellers_pkey  |            40960
 2017-02-05 06:03:47.454992+01 | 1486271027.45499 | pgbench_accounts_pkey |        224641024

 2017-02-05 06:03:48.5673+01 | 1486271028.5673 | pgbench_branches_pkey |            16384
 2017-02-05 06:03:48.5673+01 | 1486271028.5673 | pgbench_tellers_pkey  |            40960
 2017-02-05 06:03:48.5673+01 | 1486271028.5673 | pgbench_accounts_pkey |        224641024

 2017-02-05 06:03:49.675204+01 | 1486271029.6752 | pgbench_branches_pkey |            16384
 2017-02-05 06:03:49.675204+01 | 1486271029.6752 | pgbench_tellers_pkey  |            40960
 2017-02-05 06:03:49.675204+01 | 1486271029.6752 | pgbench_accounts_pkey |        224641024

 2017-02-05 06:03:50.792697+01 | 1486271030.7927 | pgbench_branches_pkey |            16384
 2017-02-05 06:03:50.792697+01 | 1486271030.7927 | pgbench_tellers_pkey  |            40960
 2017-02-05 06:03:50.792697+01 | 1486271030.7927 | pgbench_accounts_pkey |        224641024

 2017-02-05 06:03:51.908905+01 | 1486271031.90891 | pgbench_branches_pkey |            16384
 2017-02-05 06:03:51.908905+01 | 1486271031.90891 | pgbench_tellers_pkey  |            40960
 2017-02-05 06:03:51.908905+01 | 1486271031.90891 | pgbench_accounts_pkey |        224641024

 2017-02-05 06:03:53.005142+01 | 1486271033.00514 | pgbench_branches_pkey |            16384
 2017-02-05 06:03:53.005142+01 | 1486271033.00514 | pgbench_tellers_pkey  |            40960
 2017-02-05 06:03:53.005142+01 | 1486271033.00514 | pgbench_accounts_pkey |        224641024

 2017-02-05 06:03:54.103279+01 | 1486271034.10328 | pgbench_branches_pkey |            16384
 2017-02-05 06:03:54.103279+01 | 1486271034.10328 | pgbench_tellers_pkey  |            40960
 2017-02-05 06:03:54.103279+01 | 1486271034.10328 | pgbench_accounts_pkey |        224641024

 2017-02-05 06:03:55.197279+01 | 1486271035.19728 | pgbench_branches_pkey |            16384
 2017-02-05 06:03:55.197279+01 | 1486271035.19728 | pgbench_tellers_pkey  |            40960
 2017-02-05 06:03:55.197279+01 | 1486271035.19728 | pgbench_accounts_pkey |        224641024

 2017-02-05 06:03:56.299003+01 | 1486271036.299 | pgbench_branches_pkey |            16384
 2017-02-05 06:03:56.299003+01 | 1486271036.299 | pgbench_tellers_pkey  |            40960
 2017-02-05 06:03:56.299003+01 | 1486271036.299 | pgbench_accounts_pkey |        224641024

 2017-02-05 06:03:57.405108+01 | 1486271037.40511 | pgbench_branches_pkey |            16384
 2017-02-05 06:03:57.405108+01 | 1486271037.40511 | pgbench_tellers_pkey  |            40960
 2017-02-05 06:03:57.405108+01 | 1486271037.40511 | pgbench_accounts_pkey |        224641024

 2017-02-05 06:03:58.506986+01 | 1486271038.50699 | pgbench_branches_pkey |            16384
 2017-02-05 06:03:58.506986+01 | 1486271038.50699 | pgbench_tellers_pkey  |            40960
 2017-02-05 06:03:58.506986+01 | 1486271038.50699 | pgbench_accounts_pkey |        224641024

 2017-02-05 06:03:59.602742+01 | 1486271039.60274 | pgbench_branches_pkey |            16384
 2017-02-05 06:03:59.602742+01 | 1486271039.60274 | pgbench_tellers_pkey  |            40960
 2017-02-05 06:03:59.602742+01 | 1486271039.60274 | pgbench_accounts_pkey |        224641024

 2017-02-05 06:04:00.708686+01 | 1486271040.70869 | pgbench_branches_pkey |            16384
 2017-02-05 06:04:00.708686+01 | 1486271040.70869 | pgbench_tellers_pkey  |            40960
 2017-02-05 06:04:00.708686+01 | 1486271040.70869 | pgbench_accounts_pkey |        224641024

 2017-02-05 06:04:01.819074+01 | 1486271041.81907 | pgbench_branches_pkey |            16384
 2017-02-05 06:04:01.819074+01 | 1486271041.81907 | pgbench_tellers_pkey  |            40960
 2017-02-05 06:04:01.819074+01 | 1486271041.81907 | pgbench_accounts_pkey |        224641024

 2017-02-05 06:04:02.918302+01 | 1486271042.9183 | pgbench_branches_pkey |            16384
 2017-02-05 06:04:02.918302+01 | 1486271042.9183 | pgbench_tellers_pkey  |            40960
 2017-02-05 06:04:02.918302+01 | 1486271042.9183 | pgbench_accounts_pkey |        224641024

 2017-02-05 06:04:04.020193+01 | 1486271044.02019 | pgbench_branches_pkey |            16384
 2017-02-05 06:04:04.020193+01 | 1486271044.02019 | pgbench_tellers_pkey  |            40960
 2017-02-05 06:04:04.020193+01 | 1486271044.02019 | pgbench_accounts_pkey |        224641024

 2017-02-05 06:04:05.117407+01 | 1486271045.11741 | pgbench_branches_pkey |            16384
 2017-02-05 06:04:05.117407+01 | 1486271045.11741 | pgbench_tellers_pkey  |            40960
 2017-02-05 06:04:05.117407+01 | 1486271045.11741 | pgbench_accounts_pkey |        224641024

 2017-02-05 06:04:06.22514+01 | 1486271046.22514 | pgbench_branches_pkey |            16384
 2017-02-05 06:04:06.22514+01 | 1486271046.22514 | pgbench_tellers_pkey  |            40960
 2017-02-05 06:04:06.22514+01 | 1486271046.22514 | pgbench_accounts_pkey |        224641024

 2017-02-05 06:04:07.324295+01 | 1486271047.3243 | pgbench_branches_pkey |            16384
 2017-02-05 06:04:07.324295+01 | 1486271047.3243 | pgbench_tellers_pkey  |            40960
 2017-02-05 06:04:07.324295+01 | 1486271047.3243 | pgbench_accounts_pkey |        224641024

 2017-02-05 06:04:08.416214+01 | 1486271048.41621 | pgbench_branches_pkey |            16384
 2017-02-05 06:04:08.416214+01 | 1486271048.41621 | pgbench_tellers_pkey  |            40960
 2017-02-05 06:04:08.416214+01 | 1486271048.41621 | pgbench_accounts_pkey |        224641024

 2017-02-05 06:04:09.532363+01 | 1486271049.53236 | pgbench_branches_pkey |            16384
 2017-02-05 06:04:09.532363+01 | 1486271049.53236 | pgbench_tellers_pkey  |            40960
 2017-02-05 06:04:09.532363+01 | 1486271049.53236 | pgbench_accounts_pkey |        224641024

 2017-02-05 06:04:10.640481+01 | 1486271050.64048 | pgbench_branches_pkey |            16384
 2017-02-05 06:04:10.640481+01 | 1486271050.64048 | pgbench_tellers_pkey  |            40960
 2017-02-05 06:04:10.640481+01 | 1486271050.64048 | pgbench_accounts_pkey |        224641024

 2017-02-05 06:04:11.739058+01 | 1486271051.73906 | pgbench_branches_pkey |            16384
 2017-02-05 06:04:11.739058+01 | 1486271051.73906 | pgbench_tellers_pkey  |            40960
 2017-02-05 06:04:11.739058+01 | 1486271051.73906 | pgbench_accounts_pkey |        224641024

 2017-02-05 06:04:12.838319+01 | 1486271052.83832 | pgbench_branches_pkey |            16384
 2017-02-05 06:04:12.838319+01 | 1486271052.83832 | pgbench_tellers_pkey  |            40960
 2017-02-05 06:04:12.838319+01 | 1486271052.83832 | pgbench_accounts_pkey |        224641024

 2017-02-05 06:04:13.943666+01 | 1486271053.94367 | pgbench_branches_pkey |            16384
 2017-02-05 06:04:13.943666+01 | 1486271053.94367 | pgbench_tellers_pkey  |            40960
 2017-02-05 06:04:13.943666+01 | 1486271053.94367 | pgbench_accounts_pkey |        224641024

 2017-02-05 06:04:15.034045+01 | 1486271055.03404 | pgbench_branches_pkey |            16384
 2017-02-05 06:04:15.034045+01 | 1486271055.03404 | pgbench_tellers_pkey  |            40960
 2017-02-05 06:04:15.034045+01 | 1486271055.03404 | pgbench_accounts_pkey |        224641024

 2017-02-05 06:04:16.128831+01 | 1486271056.12883 | pgbench_branches_pkey |            16384
 2017-02-05 06:04:16.128831+01 | 1486271056.12883 | pgbench_tellers_pkey  |            40960
 2017-02-05 06:04:16.128831+01 | 1486271056.12883 | pgbench_accounts_pkey |        224641024

 2017-02-05 06:04:17.217553+01 | 1486271057.21755 | pgbench_branches_pkey |            16384
 2017-02-05 06:04:17.217553+01 | 1486271057.21755 | pgbench_tellers_pkey  |            40960
 2017-02-05 06:04:17.217553+01 | 1486271057.21755 | pgbench_accounts_pkey |        224641024

 2017-02-05 06:04:18.322225+01 | 1486271058.32223 | pgbench_branches_pkey |            16384
 2017-02-05 06:04:18.322225+01 | 1486271058.32223 | pgbench_tellers_pkey  |            40960
 2017-02-05 06:04:18.322225+01 | 1486271058.32223 | pgbench_accounts_pkey |        224641024

 2017-02-05 06:04:19.427691+01 | 1486271059.42769 | pgbench_branches_pkey |            16384
 2017-02-05 06:04:19.427691+01 | 1486271059.42769 | pgbench_tellers_pkey  |            40960
 2017-02-05 06:04:19.427691+01 | 1486271059.42769 | pgbench_accounts_pkey |        224641024

 2017-02-05 06:04:20.530832+01 | 1486271060.53083 | pgbench_branches_pkey |            16384
 2017-02-05 06:04:20.530832+01 | 1486271060.53083 | pgbench_tellers_pkey  |            40960
 2017-02-05 06:04:20.530832+01 | 1486271060.53083 | pgbench_accounts_pkey |        224641024

 2017-02-05 06:04:21.637273+01 | 1486271061.63727 | pgbench_branches_pkey |            16384
 2017-02-05 06:04:21.637273+01 | 1486271061.63727 | pgbench_tellers_pkey  |            40960
 2017-02-05 06:04:21.637273+01 | 1486271061.63727 | pgbench_accounts_pkey |        224641024

 2017-02-05 06:04:22.752884+01 | 1486271062.75288 | pgbench_branches_pkey |            16384
 2017-02-05 06:04:22.752884+01 | 1486271062.75288 | pgbench_tellers_pkey  |            40960
 2017-02-05 06:04:22.752884+01 | 1486271062.75288 | pgbench_accounts_pkey |        224641024

 2017-02-05 06:04:23.856807+01 | 1486271063.85681 | pgbench_branches_pkey |            16384
 2017-02-05 06:04:23.856807+01 | 1486271063.85681 | pgbench_tellers_pkey  |            40960
 2017-02-05 06:04:23.856807+01 | 1486271063.85681 | pgbench_accounts_pkey |        224641024

 2017-02-05 06:04:24.970002+01 | 1486271064.97 | pgbench_branches_pkey |            16384
 2017-02-05 06:04:24.970002+01 | 1486271064.97 | pgbench_tellers_pkey  |            40960
 2017-02-05 06:04:24.970002+01 | 1486271064.97 | pgbench_accounts_pkey |        224641024

 2017-02-05 06:04:26.058435+01 | 1486271066.05843 | pgbench_branches_pkey |            16384
 2017-02-05 06:04:26.058435+01 | 1486271066.05843 | pgbench_tellers_pkey  |            40960
 2017-02-05 06:04:26.058435+01 | 1486271066.05843 | pgbench_accounts_pkey |        224641024

 2017-02-05 06:04:27.151904+01 | 1486271067.1519 | pgbench_branches_pkey |            16384
 2017-02-05 06:04:27.151904+01 | 1486271067.1519 | pgbench_tellers_pkey  |            40960
 2017-02-05 06:04:27.151904+01 | 1486271067.1519 | pgbench_accounts_pkey |        224641024

 2017-02-05 06:04:28.240103+01 | 1486271068.2401 | pgbench_branches_pkey |            16384
 2017-02-05 06:04:28.240103+01 | 1486271068.2401 | pgbench_tellers_pkey  |            40960
 2017-02-05 06:04:28.240103+01 | 1486271068.2401 | pgbench_accounts_pkey |        224641024

 2017-02-05 06:04:29.335057+01 | 1486271069.33506 | pgbench_branches_pkey |            16384
 2017-02-05 06:04:29.335057+01 | 1486271069.33506 | pgbench_tellers_pkey  |            40960
 2017-02-05 06:04:29.335057+01 | 1486271069.33506 | pgbench_accounts_pkey |        224641024

 2017-02-05 06:04:30.44325+01 | 1486271070.44325 | pgbench_branches_pkey |            16384
 2017-02-05 06:04:30.44325+01 | 1486271070.44325 | pgbench_tellers_pkey  |            40960
 2017-02-05 06:04:30.44325+01 | 1486271070.44325 | pgbench_accounts_pkey |        224641024

 2017-02-05 06:04:31.541195+01 | 1486271071.54119 | pgbench_branches_pkey |            16384
 2017-02-05 06:04:31.541195+01 | 1486271071.54119 | pgbench_tellers_pkey  |            40960
 2017-02-05 06:04:31.541195+01 | 1486271071.54119 | pgbench_accounts_pkey |        224641024

 2017-02-05 06:04:32.632467+01 | 1486271072.63247 | pgbench_branches_pkey |            16384
 2017-02-05 06:04:32.632467+01 | 1486271072.63247 | pgbench_tellers_pkey  |            40960
 2017-02-05 06:04:32.632467+01 | 1486271072.63247 | pgbench_accounts_pkey |        224641024

 2017-02-05 06:04:33.734939+01 | 1486271073.73494 | pgbench_branches_pkey |            16384
 2017-02-05 06:04:33.734939+01 | 1486271073.73494 | pgbench_tellers_pkey  |            40960
 2017-02-05 06:04:33.734939+01 | 1486271073.73494 | pgbench_accounts_pkey |        224641024

 2017-02-05 06:04:34.840887+01 | 1486271074.84089 | pgbench_branches_pkey |            16384
 2017-02-05 06:04:34.840887+01 | 1486271074.84089 | pgbench_tellers_pkey  |            40960
 2017-02-05 06:04:34.840887+01 | 1486271074.84089 | pgbench_accounts_pkey |        224641024

 2017-02-05 06:04:35.954361+01 | 1486271075.95436 | pgbench_branches_pkey |            16384
 2017-02-05 06:04:35.954361+01 | 1486271075.95436 | pgbench_tellers_pkey  |            40960
 2017-02-05 06:04:35.954361+01 | 1486271075.95436 | pgbench_accounts_pkey |        224641024

 2017-02-05 06:04:37.050037+01 | 1486271077.05004 | pgbench_branches_pkey |            16384
 2017-02-05 06:04:37.050037+01 | 1486271077.05004 | pgbench_tellers_pkey  |            40960
 2017-02-05 06:04:37.050037+01 | 1486271077.05004 | pgbench_accounts_pkey |        224641024

 2017-02-05 06:04:38.152352+01 | 1486271078.15235 | pgbench_branches_pkey |            16384
 2017-02-05 06:04:38.152352+01 | 1486271078.15235 | pgbench_tellers_pkey  |            40960
 2017-02-05 06:04:38.152352+01 | 1486271078.15235 | pgbench_accounts_pkey |        224641024

 2017-02-05 06:04:39.249093+01 | 1486271079.24909 | pgbench_branches_pkey |            16384
 2017-02-05 06:04:39.249093+01 | 1486271079.24909 | pgbench_tellers_pkey  |            40960
 2017-02-05 06:04:39.249093+01 | 1486271079.24909 | pgbench_accounts_pkey |        224641024

 2017-02-05 06:04:40.353145+01 | 1486271080.35314 | pgbench_branches_pkey |            16384
 2017-02-05 06:04:40.353145+01 | 1486271080.35314 | pgbench_tellers_pkey  |            40960
 2017-02-05 06:04:40.353145+01 | 1486271080.35314 | pgbench_accounts_pkey |        224641024

 2017-02-05 06:04:41.46071+01 | 1486271081.46071 | pgbench_branches_pkey |            16384
 2017-02-05 06:04:41.46071+01 | 1486271081.46071 | pgbench_tellers_pkey  |            40960
 2017-02-05 06:04:41.46071+01 | 1486271081.46071 | pgbench_accounts_pkey |        224641024

 2017-02-05 06:04:42.569648+01 | 1486271082.56965 | pgbench_branches_pkey |            16384
 2017-02-05 06:04:42.569648+01 | 1486271082.56965 | pgbench_tellers_pkey  |            40960
 2017-02-05 06:04:42.569648+01 | 1486271082.56965 | pgbench_accounts_pkey |        224641024

 2017-02-05 06:04:43.673569+01 | 1486271083.67357 | pgbench_branches_pkey |            16384
 2017-02-05 06:04:43.673569+01 | 1486271083.67357 | pgbench_tellers_pkey  |            40960
 2017-02-05 06:04:43.673569+01 | 1486271083.67357 | pgbench_accounts_pkey |        224641024

 2017-02-05 06:04:44.777446+01 | 1486271084.77745 | pgbench_branches_pkey |            16384
 2017-02-05 06:04:44.777446+01 | 1486271084.77745 | pgbench_tellers_pkey  |            40960
 2017-02-05 06:04:44.777446+01 | 1486271084.77745 | pgbench_accounts_pkey |        224641024

 2017-02-05 06:04:45.885304+01 | 1486271085.8853 | pgbench_branches_pkey |            16384
 2017-02-05 06:04:45.885304+01 | 1486271085.8853 | pgbench_tellers_pkey  |            40960
 2017-02-05 06:04:45.885304+01 | 1486271085.8853 | pgbench_accounts_pkey |        224641024

 2017-02-05 06:04:46.989178+01 | 1486271086.98918 | pgbench_branches_pkey |            16384
 2017-02-05 06:04:46.989178+01 | 1486271086.98918 | pgbench_tellers_pkey  |            40960
 2017-02-05 06:04:46.989178+01 | 1486271086.98918 | pgbench_accounts_pkey |        224641024

 2017-02-05 06:04:48.079465+01 | 1486271088.07946 | pgbench_branches_pkey |            16384
 2017-02-05 06:04:48.079465+01 | 1486271088.07946 | pgbench_tellers_pkey  |            40960
 2017-02-05 06:04:48.079465+01 | 1486271088.07946 | pgbench_accounts_pkey |        224641024

 2017-02-05 06:04:49.175142+01 | 1486271089.17514 | pgbench_branches_pkey |            16384
 2017-02-05 06:04:49.175142+01 | 1486271089.17514 | pgbench_tellers_pkey  |            40960
 2017-02-05 06:04:49.175142+01 | 1486271089.17514 | pgbench_accounts_pkey |        224641024

 2017-02-05 06:04:50.271254+01 | 1486271090.27125 | pgbench_branches_pkey |            16384
 2017-02-05 06:04:50.271254+01 | 1486271090.27125 | pgbench_tellers_pkey  |            40960
 2017-02-05 06:04:50.271254+01 | 1486271090.27125 | pgbench_accounts_pkey |        224641024

 2017-02-05 06:04:51.376482+01 | 1486271091.37648 | pgbench_branches_pkey |            16384
 2017-02-05 06:04:51.376482+01 | 1486271091.37648 | pgbench_tellers_pkey  |            40960
 2017-02-05 06:04:51.376482+01 | 1486271091.37648 | pgbench_accounts_pkey |        224641024

 2017-02-05 06:04:52.494481+01 | 1486271092.49448 | pgbench_branches_pkey |            16384
 2017-02-05 06:04:52.494481+01 | 1486271092.49448 | pgbench_tellers_pkey  |            40960
 2017-02-05 06:04:52.494481+01 | 1486271092.49448 | pgbench_accounts_pkey |        224641024

 2017-02-05 06:04:53.597624+01 | 1486271093.59762 | pgbench_branches_pkey |            16384
 2017-02-05 06:04:53.597624+01 | 1486271093.59762 | pgbench_tellers_pkey  |            40960
 2017-02-05 06:04:53.597624+01 | 1486271093.59762 | pgbench_accounts_pkey |        224641024

 2017-02-05 06:04:54.69588+01 | 1486271094.69588 | pgbench_branches_pkey |            16384
 2017-02-05 06:04:54.69588+01 | 1486271094.69588 | pgbench_tellers_pkey  |            40960
 2017-02-05 06:04:54.69588+01 | 1486271094.69588 | pgbench_accounts_pkey |        224641024

 2017-02-05 06:04:55.799592+01 | 1486271095.79959 | pgbench_branches_pkey |            16384
 2017-02-05 06:04:55.799592+01 | 1486271095.79959 | pgbench_tellers_pkey  |            40960
 2017-02-05 06:04:55.799592+01 | 1486271095.79959 | pgbench_accounts_pkey |        224641024

 2017-02-05 06:04:56.920445+01 | 1486271096.92044 | pgbench_branches_pkey |            16384
 2017-02-05 06:04:56.920445+01 | 1486271096.92044 | pgbench_tellers_pkey  |            40960
 2017-02-05 06:04:56.920445+01 | 1486271096.92044 | pgbench_accounts_pkey |        224641024

 2017-02-05 06:04:58.029126+01 | 1486271098.02913 | pgbench_branches_pkey |            16384
 2017-02-05 06:04:58.029126+01 | 1486271098.02913 | pgbench_tellers_pkey  |            40960
 2017-02-05 06:04:58.029126+01 | 1486271098.02913 | pgbench_accounts_pkey |        224641024

 2017-02-05 06:04:59.13337+01 | 1486271099.13337 | pgbench_branches_pkey |            16384
 2017-02-05 06:04:59.13337+01 | 1486271099.13337 | pgbench_tellers_pkey  |            40960
 2017-02-05 06:04:59.13337+01 | 1486271099.13337 | pgbench_accounts_pkey |        224641024

 2017-02-05 06:05:00.230085+01 | 1486271100.23008 | pgbench_branches_pkey |            16384
 2017-02-05 06:05:00.230085+01 | 1486271100.23008 | pgbench_tellers_pkey  |            40960
 2017-02-05 06:05:00.230085+01 | 1486271100.23008 | pgbench_accounts_pkey |        224641024

 2017-02-05 06:05:01.339163+01 | 1486271101.33916 | pgbench_branches_pkey |            16384
 2017-02-05 06:05:01.339163+01 | 1486271101.33916 | pgbench_tellers_pkey  |            40960
 2017-02-05 06:05:01.339163+01 | 1486271101.33916 | pgbench_accounts_pkey |        224641024

 2017-02-05 06:05:02.441663+01 | 1486271102.44166 | pgbench_branches_pkey |            16384
 2017-02-05 06:05:02.441663+01 | 1486271102.44166 | pgbench_tellers_pkey  |            40960
 2017-02-05 06:05:02.441663+01 | 1486271102.44166 | pgbench_accounts_pkey |        224641024

 2017-02-05 06:05:03.539724+01 | 1486271103.53972 | pgbench_branches_pkey |            16384
 2017-02-05 06:05:03.539724+01 | 1486271103.53972 | pgbench_tellers_pkey  |            40960
 2017-02-05 06:05:03.539724+01 | 1486271103.53972 | pgbench_accounts_pkey |        224641024

 2017-02-05 06:05:04.634582+01 | 1486271104.63458 | pgbench_branches_pkey |            16384
 2017-02-05 06:05:04.634582+01 | 1486271104.63458 | pgbench_tellers_pkey  |            40960
 2017-02-05 06:05:04.634582+01 | 1486271104.63458 | pgbench_accounts_pkey |        224641024

 2017-02-05 06:05:05.742188+01 | 1486271105.74219 | pgbench_branches_pkey |            16384
 2017-02-05 06:05:05.742188+01 | 1486271105.74219 | pgbench_tellers_pkey  |            40960
 2017-02-05 06:05:05.742188+01 | 1486271105.74219 | pgbench_accounts_pkey |        224641024

 2017-02-05 06:05:06.852349+01 | 1486271106.85235 | pgbench_branches_pkey |            16384
 2017-02-05 06:05:06.852349+01 | 1486271106.85235 | pgbench_tellers_pkey  |            40960
 2017-02-05 06:05:06.852349+01 | 1486271106.85235 | pgbench_accounts_pkey |        224641024

 2017-02-05 06:05:07.95567+01 | 1486271107.95567 | pgbench_branches_pkey |            16384
 2017-02-05 06:05:07.95567+01 | 1486271107.95567 | pgbench_tellers_pkey  |            40960
 2017-02-05 06:05:07.95567+01 | 1486271107.95567 | pgbench_accounts_pkey |        224641024

 2017-02-05 06:05:09.060239+01 | 1486271109.06024 | pgbench_branches_pkey |            16384
 2017-02-05 06:05:09.060239+01 | 1486271109.06024 | pgbench_tellers_pkey  |            40960
 2017-02-05 06:05:09.060239+01 | 1486271109.06024 | pgbench_accounts_pkey |        224641024

 2017-02-05 06:05:10.146688+01 | 1486271110.14669 | pgbench_branches_pkey |            16384
 2017-02-05 06:05:10.146688+01 | 1486271110.14669 | pgbench_tellers_pkey  |            40960
 2017-02-05 06:05:10.146688+01 | 1486271110.14669 | pgbench_accounts_pkey |        224641024

 2017-02-05 06:05:11.255993+01 | 1486271111.25599 | pgbench_branches_pkey |            16384
 2017-02-05 06:05:11.255993+01 | 1486271111.25599 | pgbench_tellers_pkey  |            40960
 2017-02-05 06:05:11.255993+01 | 1486271111.25599 | pgbench_accounts_pkey |        224641024

 2017-02-05 06:05:12.365747+01 | 1486271112.36575 | pgbench_branches_pkey |            16384
 2017-02-05 06:05:12.365747+01 | 1486271112.36575 | pgbench_tellers_pkey  |            40960
 2017-02-05 06:05:12.365747+01 | 1486271112.36575 | pgbench_accounts_pkey |        224641024

 2017-02-05 06:05:13.4498+01 | 1486271113.4498 | pgbench_branches_pkey |            16384
 2017-02-05 06:05:13.4498+01 | 1486271113.4498 | pgbench_tellers_pkey  |            40960
 2017-02-05 06:05:13.4498+01 | 1486271113.4498 | pgbench_accounts_pkey |        224641024

 2017-02-05 06:05:14.550611+01 | 1486271114.55061 | pgbench_branches_pkey |            16384
 2017-02-05 06:05:14.550611+01 | 1486271114.55061 | pgbench_tellers_pkey  |            40960
 2017-02-05 06:05:14.550611+01 | 1486271114.55061 | pgbench_accounts_pkey |        224641024

 2017-02-05 06:05:15.657438+01 | 1486271115.65744 | pgbench_branches_pkey |            16384
 2017-02-05 06:05:15.657438+01 | 1486271115.65744 | pgbench_tellers_pkey  |            40960
 2017-02-05 06:05:15.657438+01 | 1486271115.65744 | pgbench_accounts_pkey |        224641024

 2017-02-05 06:05:16.758507+01 | 1486271116.75851 | pgbench_branches_pkey |            16384
 2017-02-05 06:05:16.758507+01 | 1486271116.75851 | pgbench_tellers_pkey  |            40960
 2017-02-05 06:05:16.758507+01 | 1486271116.75851 | pgbench_accounts_pkey |        224641024

 2017-02-05 06:05:17.865252+01 | 1486271117.86525 | pgbench_branches_pkey |            16384
 2017-02-05 06:05:17.865252+01 | 1486271117.86525 | pgbench_tellers_pkey  |            40960
 2017-02-05 06:05:17.865252+01 | 1486271117.86525 | pgbench_accounts_pkey |        224641024

 2017-02-05 06:05:18.962876+01 | 1486271118.96288 | pgbench_branches_pkey |            16384
 2017-02-05 06:05:18.962876+01 | 1486271118.96288 | pgbench_tellers_pkey  |            40960
 2017-02-05 06:05:18.962876+01 | 1486271118.96288 | pgbench_accounts_pkey |        224641024

 2017-02-05 06:05:20.0706+01 | 1486271120.0706 | pgbench_branches_pkey |            16384
 2017-02-05 06:05:20.0706+01 | 1486271120.0706 | pgbench_tellers_pkey  |            40960
 2017-02-05 06:05:20.0706+01 | 1486271120.0706 | pgbench_accounts_pkey |        224641024

 2017-02-05 06:05:21.169272+01 | 1486271121.16927 | pgbench_branches_pkey |            16384
 2017-02-05 06:05:21.169272+01 | 1486271121.16927 | pgbench_tellers_pkey  |            40960
 2017-02-05 06:05:21.169272+01 | 1486271121.16927 | pgbench_accounts_pkey |        224641024

 2017-02-05 06:05:22.262604+01 | 1486271122.2626 | pgbench_branches_pkey |            16384
 2017-02-05 06:05:22.262604+01 | 1486271122.2626 | pgbench_tellers_pkey  |            40960
 2017-02-05 06:05:22.262604+01 | 1486271122.2626 | pgbench_accounts_pkey |        224641024

 2017-02-05 06:05:23.368882+01 | 1486271123.36888 | pgbench_branches_pkey |            16384
 2017-02-05 06:05:23.368882+01 | 1486271123.36888 | pgbench_tellers_pkey  |            40960
 2017-02-05 06:05:23.368882+01 | 1486271123.36888 | pgbench_accounts_pkey |        224641024

 2017-02-05 06:05:24.467416+01 | 1486271124.46742 | pgbench_branches_pkey |            16384
 2017-02-05 06:05:24.467416+01 | 1486271124.46742 | pgbench_tellers_pkey  |            40960
 2017-02-05 06:05:24.467416+01 | 1486271124.46742 | pgbench_accounts_pkey |        224641024

 2017-02-05 06:05:25.573159+01 | 1486271125.57316 | pgbench_branches_pkey |            16384
 2017-02-05 06:05:25.573159+01 | 1486271125.57316 | pgbench_tellers_pkey  |            40960
 2017-02-05 06:05:25.573159+01 | 1486271125.57316 | pgbench_accounts_pkey |        224641024

 2017-02-05 06:05:26.671556+01 | 1486271126.67156 | pgbench_branches_pkey |            16384
 2017-02-05 06:05:26.671556+01 | 1486271126.67156 | pgbench_tellers_pkey  |            40960
 2017-02-05 06:05:26.671556+01 | 1486271126.67156 | pgbench_accounts_pkey |        224641024

 2017-02-05 06:05:27.775584+01 | 1486271127.77558 | pgbench_branches_pkey |            16384
 2017-02-05 06:05:27.775584+01 | 1486271127.77558 | pgbench_tellers_pkey  |            40960
 2017-02-05 06:05:27.775584+01 | 1486271127.77558 | pgbench_accounts_pkey |        224641024

 2017-02-05 06:05:28.880663+01 | 1486271128.88066 | pgbench_branches_pkey |            16384
 2017-02-05 06:05:28.880663+01 | 1486271128.88066 | pgbench_tellers_pkey  |            40960
 2017-02-05 06:05:28.880663+01 | 1486271128.88066 | pgbench_accounts_pkey |        224641024

 2017-02-05 06:05:29.976096+01 | 1486271129.9761 | pgbench_branches_pkey |            16384
 2017-02-05 06:05:29.976096+01 | 1486271129.9761 | pgbench_tellers_pkey  |            40960
 2017-02-05 06:05:29.976096+01 | 1486271129.9761 | pgbench_accounts_pkey |        224641024

 2017-02-05 06:05:31.072837+01 | 1486271131.07284 | pgbench_branches_pkey |            16384
 2017-02-05 06:05:31.072837+01 | 1486271131.07284 | pgbench_tellers_pkey  |            40960
 2017-02-05 06:05:31.072837+01 | 1486271131.07284 | pgbench_accounts_pkey |        224641024

 2017-02-05 06:05:32.164699+01 | 1486271132.1647 | pgbench_branches_pkey |            16384
 2017-02-05 06:05:32.164699+01 | 1486271132.1647 | pgbench_tellers_pkey  |            40960
 2017-02-05 06:05:32.164699+01 | 1486271132.1647 | pgbench_accounts_pkey |        224641024

 2017-02-05 06:05:33.261053+01 | 1486271133.26105 | pgbench_branches_pkey |            16384
 2017-02-05 06:05:33.261053+01 | 1486271133.26105 | pgbench_tellers_pkey  |            40960
 2017-02-05 06:05:33.261053+01 | 1486271133.26105 | pgbench_accounts_pkey |        224641024

 2017-02-05 06:05:34.363469+01 | 1486271134.36347 | pgbench_branches_pkey |            16384
 2017-02-05 06:05:34.363469+01 | 1486271134.36347 | pgbench_tellers_pkey  |            40960
 2017-02-05 06:05:34.363469+01 | 1486271134.36347 | pgbench_accounts_pkey |        224641024

 2017-02-05 06:05:35.46667+01 | 1486271135.46667 | pgbench_branches_pkey |            16384
 2017-02-05 06:05:35.46667+01 | 1486271135.46667 | pgbench_tellers_pkey  |            40960
 2017-02-05 06:05:35.46667+01 | 1486271135.46667 | pgbench_accounts_pkey |        224641024

 2017-02-05 06:05:36.569932+01 | 1486271136.56993 | pgbench_branches_pkey |            16384
 2017-02-05 06:05:36.569932+01 | 1486271136.56993 | pgbench_tellers_pkey  |            40960
 2017-02-05 06:05:36.569932+01 | 1486271136.56993 | pgbench_accounts_pkey |        224641024

 2017-02-05 06:05:37.664914+01 | 1486271137.66491 | pgbench_branches_pkey |            16384
 2017-02-05 06:05:37.664914+01 | 1486271137.66491 | pgbench_tellers_pkey  |            40960
 2017-02-05 06:05:37.664914+01 | 1486271137.66491 | pgbench_accounts_pkey |        224641024

 2017-02-05 06:05:38.7572+01 | 1486271138.7572 | pgbench_branches_pkey |            16384
 2017-02-05 06:05:38.7572+01 | 1486271138.7572 | pgbench_tellers_pkey  |            40960
 2017-02-05 06:05:38.7572+01 | 1486271138.7572 | pgbench_accounts_pkey |        224641024

 2017-02-05 06:05:39.857395+01 | 1486271139.85739 | pgbench_branches_pkey |            16384
 2017-02-05 06:05:39.857395+01 | 1486271139.85739 | pgbench_tellers_pkey  |            40960
 2017-02-05 06:05:39.857395+01 | 1486271139.85739 | pgbench_accounts_pkey |        224641024

 2017-02-05 06:05:40.963261+01 | 1486271140.96326 | pgbench_branches_pkey |            16384
 2017-02-05 06:05:40.963261+01 | 1486271140.96326 | pgbench_tellers_pkey  |            40960
 2017-02-05 06:05:40.963261+01 | 1486271140.96326 | pgbench_accounts_pkey |        224641024

 2017-02-05 06:05:42.076223+01 | 1486271142.07622 | pgbench_branches_pkey |            16384
 2017-02-05 06:05:42.076223+01 | 1486271142.07622 | pgbench_tellers_pkey  |            40960
 2017-02-05 06:05:42.076223+01 | 1486271142.07622 | pgbench_accounts_pkey |        224641024

 2017-02-05 06:05:43.166004+01 | 1486271143.166 | pgbench_branches_pkey |            16384
 2017-02-05 06:05:43.166004+01 | 1486271143.166 | pgbench_tellers_pkey  |            40960
 2017-02-05 06:05:43.166004+01 | 1486271143.166 | pgbench_accounts_pkey |        224641024

 2017-02-05 06:05:44.255756+01 | 1486271144.25576 | pgbench_branches_pkey |            16384
 2017-02-05 06:05:44.255756+01 | 1486271144.25576 | pgbench_tellers_pkey  |            40960
 2017-02-05 06:05:44.255756+01 | 1486271144.25576 | pgbench_accounts_pkey |        224641024

 2017-02-05 06:05:45.357598+01 | 1486271145.3576 | pgbench_branches_pkey |            16384
 2017-02-05 06:05:45.357598+01 | 1486271145.3576 | pgbench_tellers_pkey  |            40960
 2017-02-05 06:05:45.357598+01 | 1486271145.3576 | pgbench_accounts_pkey |        224641024

 2017-02-05 06:05:46.458284+01 | 1486271146.45828 | pgbench_branches_pkey |            16384
 2017-02-05 06:05:46.458284+01 | 1486271146.45828 | pgbench_tellers_pkey  |            40960
 2017-02-05 06:05:46.458284+01 | 1486271146.45828 | pgbench_accounts_pkey |        224641024

 2017-02-05 06:05:47.563663+01 | 1486271147.56366 | pgbench_branches_pkey |            16384
 2017-02-05 06:05:47.563663+01 | 1486271147.56366 | pgbench_tellers_pkey  |            40960
 2017-02-05 06:05:47.563663+01 | 1486271147.56366 | pgbench_accounts_pkey |        224641024

 2017-02-05 06:05:48.670288+01 | 1486271148.67029 | pgbench_branches_pkey |            16384
 2017-02-05 06:05:48.670288+01 | 1486271148.67029 | pgbench_tellers_pkey  |            40960
 2017-02-05 06:05:48.670288+01 | 1486271148.67029 | pgbench_accounts_pkey |        224641024

 2017-02-05 06:05:49.770307+01 | 1486271149.77031 | pgbench_branches_pkey |            16384
 2017-02-05 06:05:49.770307+01 | 1486271149.77031 | pgbench_tellers_pkey  |            40960
 2017-02-05 06:05:49.770307+01 | 1486271149.77031 | pgbench_accounts_pkey |        224641024

 2017-02-05 06:05:50.869351+01 | 1486271150.86935 | pgbench_branches_pkey |            16384
 2017-02-05 06:05:50.869351+01 | 1486271150.86935 | pgbench_tellers_pkey  |            40960
 2017-02-05 06:05:50.869351+01 | 1486271150.86935 | pgbench_accounts_pkey |        224641024

 2017-02-05 06:05:51.961787+01 | 1486271151.96179 | pgbench_branches_pkey |            16384
 2017-02-05 06:05:51.961787+01 | 1486271151.96179 | pgbench_tellers_pkey  |            40960
 2017-02-05 06:05:51.961787+01 | 1486271151.96179 | pgbench_accounts_pkey |        224641024

 2017-02-05 06:05:53.056546+01 | 1486271153.05655 | pgbench_branches_pkey |            16384
 2017-02-05 06:05:53.056546+01 | 1486271153.05655 | pgbench_tellers_pkey  |            40960
 2017-02-05 06:05:53.056546+01 | 1486271153.05655 | pgbench_accounts_pkey |        224641024

 2017-02-05 06:05:54.160438+01 | 1486271154.16044 | pgbench_branches_pkey |            16384
 2017-02-05 06:05:54.160438+01 | 1486271154.16044 | pgbench_tellers_pkey  |            40960
 2017-02-05 06:05:54.160438+01 | 1486271154.16044 | pgbench_accounts_pkey |        224641024

 2017-02-05 06:05:55.254913+01 | 1486271155.25491 | pgbench_branches_pkey |            16384
 2017-02-05 06:05:55.254913+01 | 1486271155.25491 | pgbench_tellers_pkey  |            40960
 2017-02-05 06:05:55.254913+01 | 1486271155.25491 | pgbench_accounts_pkey |        224641024

 2017-02-05 06:05:56.351071+01 | 1486271156.35107 | pgbench_branches_pkey |            16384
 2017-02-05 06:05:56.351071+01 | 1486271156.35107 | pgbench_tellers_pkey  |            40960
 2017-02-05 06:05:56.351071+01 | 1486271156.35107 | pgbench_accounts_pkey |        224641024

 2017-02-05 06:05:57.453255+01 | 1486271157.45325 | pgbench_branches_pkey |            16384
 2017-02-05 06:05:57.453255+01 | 1486271157.45325 | pgbench_tellers_pkey  |            40960
 2017-02-05 06:05:57.453255+01 | 1486271157.45325 | pgbench_accounts_pkey |        224641024

 2017-02-05 06:05:58.549716+01 | 1486271158.54972 | pgbench_branches_pkey |            16384
 2017-02-05 06:05:58.549716+01 | 1486271158.54972 | pgbench_tellers_pkey  |            40960
 2017-02-05 06:05:58.549716+01 | 1486271158.54972 | pgbench_accounts_pkey |        224641024

 2017-02-05 06:05:59.660469+01 | 1486271159.66047 | pgbench_branches_pkey |            16384
 2017-02-05 06:05:59.660469+01 | 1486271159.66047 | pgbench_tellers_pkey  |            40960
 2017-02-05 06:05:59.660469+01 | 1486271159.66047 | pgbench_accounts_pkey |        224641024

 2017-02-05 06:06:00.757357+01 | 1486271160.75736 | pgbench_branches_pkey |            16384
 2017-02-05 06:06:00.757357+01 | 1486271160.75736 | pgbench_tellers_pkey  |            40960
 2017-02-05 06:06:00.757357+01 | 1486271160.75736 | pgbench_accounts_pkey |        224641024

 2017-02-05 06:06:01.850724+01 | 1486271161.85072 | pgbench_branches_pkey |            16384
 2017-02-05 06:06:01.850724+01 | 1486271161.85072 | pgbench_tellers_pkey  |            40960
 2017-02-05 06:06:01.850724+01 | 1486271161.85072 | pgbench_accounts_pkey |        224641024

 2017-02-05 06:06:02.961266+01 | 1486271162.96127 | pgbench_branches_pkey |            16384
 2017-02-05 06:06:02.961266+01 | 1486271162.96127 | pgbench_tellers_pkey  |            40960
 2017-02-05 06:06:02.961266+01 | 1486271162.96127 | pgbench_accounts_pkey |        224641024

 2017-02-05 06:06:04.059154+01 | 1486271164.05915 | pgbench_branches_pkey |            16384
 2017-02-05 06:06:04.059154+01 | 1486271164.05915 | pgbench_tellers_pkey  |            40960
 2017-02-05 06:06:04.059154+01 | 1486271164.05915 | pgbench_accounts_pkey |        224641024

 2017-02-05 06:06:05.155936+01 | 1486271165.15594 | pgbench_branches_pkey |            16384
 2017-02-05 06:06:05.155936+01 | 1486271165.15594 | pgbench_tellers_pkey  |            40960
 2017-02-05 06:06:05.155936+01 | 1486271165.15594 | pgbench_accounts_pkey |        224641024

 2017-02-05 06:06:06.253655+01 | 1486271166.25365 | pgbench_branches_pkey |            16384
 2017-02-05 06:06:06.253655+01 | 1486271166.25365 | pgbench_tellers_pkey  |            40960
 2017-02-05 06:06:06.253655+01 | 1486271166.25365 | pgbench_accounts_pkey |        224641024

 2017-02-05 06:06:07.354763+01 | 1486271167.35476 | pgbench_branches_pkey |            16384
 2017-02-05 06:06:07.354763+01 | 1486271167.35476 | pgbench_tellers_pkey  |            40960
 2017-02-05 06:06:07.354763+01 | 1486271167.35476 | pgbench_accounts_pkey |        224641024

 2017-02-05 06:06:08.449977+01 | 1486271168.44998 | pgbench_branches_pkey |            16384
 2017-02-05 06:06:08.449977+01 | 1486271168.44998 | pgbench_tellers_pkey  |            40960
 2017-02-05 06:06:08.449977+01 | 1486271168.44998 | pgbench_accounts_pkey |        224641024

 2017-02-05 06:06:09.550347+01 | 1486271169.55035 | pgbench_branches_pkey |            16384
 2017-02-05 06:06:09.550347+01 | 1486271169.55035 | pgbench_tellers_pkey  |            40960
 2017-02-05 06:06:09.550347+01 | 1486271169.55035 | pgbench_accounts_pkey |        224641024

 2017-02-05 06:06:10.652309+01 | 1486271170.65231 | pgbench_branches_pkey |            16384
 2017-02-05 06:06:10.652309+01 | 1486271170.65231 | pgbench_tellers_pkey  |            40960
 2017-02-05 06:06:10.652309+01 | 1486271170.65231 | pgbench_accounts_pkey |        224641024

 2017-02-05 06:06:11.74797+01 | 1486271171.74797 | pgbench_branches_pkey |            16384
 2017-02-05 06:06:11.74797+01 | 1486271171.74797 | pgbench_tellers_pkey  |            40960
 2017-02-05 06:06:11.74797+01 | 1486271171.74797 | pgbench_accounts_pkey |        224641024

