 2017-02-04 07:41:57.411559+01 | 1486190517.41156 | pgbench_accounts |      13916651520
 2017-02-04 07:41:57.411559+01 | 1486190517.41156 | pgbench_tellers  |         34455552
 2017-02-04 07:41:57.411559+01 | 1486190517.41156 | pgbench_history  |                0
 2017-02-04 07:41:57.411559+01 | 1486190517.41156 | pgbench_branches |         19177472

 2017-02-04 07:41:58.505371+01 | 1486190518.50537 | pgbench_accounts |      13916651520
 2017-02-04 07:41:58.505371+01 | 1486190518.50537 | pgbench_tellers  |         34455552
 2017-02-04 07:41:58.505371+01 | 1486190518.50537 | pgbench_history  |          1335296
 2017-02-04 07:41:58.505371+01 | 1486190518.50537 | pgbench_branches |         19177472

 2017-02-04 07:41:59.590074+01 | 1486190519.59007 | pgbench_accounts |      13916651520
 2017-02-04 07:41:59.590074+01 | 1486190519.59007 | pgbench_tellers  |         34455552
 2017-02-04 07:41:59.590074+01 | 1486190519.59007 | pgbench_history  |          2711552
 2017-02-04 07:41:59.590074+01 | 1486190519.59007 | pgbench_branches |         19177472

 2017-02-04 07:42:00.679432+01 | 1486190520.67943 | pgbench_accounts |      13916651520
 2017-02-04 07:42:00.679432+01 | 1486190520.67943 | pgbench_tellers  |         34455552
 2017-02-04 07:42:00.679432+01 | 1486190520.67943 | pgbench_history  |          4923392
 2017-02-04 07:42:00.679432+01 | 1486190520.67943 | pgbench_branches |         19177472

 2017-02-04 07:42:01.772547+01 | 1486190521.77255 | pgbench_accounts |      13916651520
 2017-02-04 07:42:01.772547+01 | 1486190521.77255 | pgbench_tellers  |         34455552
 2017-02-04 07:42:01.772547+01 | 1486190521.77255 | pgbench_history  |          6283264
 2017-02-04 07:42:01.772547+01 | 1486190521.77255 | pgbench_branches |         19177472

 2017-02-04 07:42:02.863752+01 | 1486190522.86375 | pgbench_accounts |      13916651520
 2017-02-04 07:42:02.863752+01 | 1486190522.86375 | pgbench_tellers  |         34455552
 2017-02-04 07:42:02.863752+01 | 1486190522.86375 | pgbench_history  |          8011776
 2017-02-04 07:42:02.863752+01 | 1486190522.86375 | pgbench_branches |         19177472

 2017-02-04 07:42:03.957186+01 | 1486190523.95719 | pgbench_accounts |      13916651520
 2017-02-04 07:42:03.957186+01 | 1486190523.95719 | pgbench_tellers  |         34455552
 2017-02-04 07:42:03.957186+01 | 1486190523.95719 | pgbench_history  |         11231232
 2017-02-04 07:42:03.957186+01 | 1486190523.95719 | pgbench_branches |         19177472

 2017-02-04 07:42:05.055555+01 | 1486190525.05556 | pgbench_accounts |      13916651520
 2017-02-04 07:42:05.055555+01 | 1486190525.05556 | pgbench_tellers  |         34455552
 2017-02-04 07:42:05.055555+01 | 1486190525.05556 | pgbench_history  |         13410304
 2017-02-04 07:42:05.055555+01 | 1486190525.05556 | pgbench_branches |         19177472

 2017-02-04 07:42:06.156359+01 | 1486190526.15636 | pgbench_accounts |      13916651520
 2017-02-04 07:42:06.156359+01 | 1486190526.15636 | pgbench_tellers  |         34455552
 2017-02-04 07:42:06.156359+01 | 1486190526.15636 | pgbench_history  |         14090240
 2017-02-04 07:42:06.156359+01 | 1486190526.15636 | pgbench_branches |         19177472

 2017-02-04 07:42:07.255885+01 | 1486190527.25588 | pgbench_accounts |      13916651520
 2017-02-04 07:42:07.255885+01 | 1486190527.25588 | pgbench_tellers  |         34455552
 2017-02-04 07:42:07.255885+01 | 1486190527.25588 | pgbench_history  |         16621568
 2017-02-04 07:42:07.255885+01 | 1486190527.25588 | pgbench_branches |         19177472

 2017-02-04 07:42:08.339058+01 | 1486190528.33906 | pgbench_accounts |      13916651520
 2017-02-04 07:42:08.339058+01 | 1486190528.33906 | pgbench_tellers  |         34455552
 2017-02-04 07:42:08.339058+01 | 1486190528.33906 | pgbench_history  |         17629184
 2017-02-04 07:42:08.339058+01 | 1486190528.33906 | pgbench_branches |         19177472

 2017-02-04 07:42:09.42101+01 | 1486190529.42101 | pgbench_accounts |      13916651520
 2017-02-04 07:42:09.42101+01 | 1486190529.42101 | pgbench_tellers  |         34455552
 2017-02-04 07:42:09.42101+01 | 1486190529.42101 | pgbench_history  |         21143552
 2017-02-04 07:42:09.42101+01 | 1486190529.42101 | pgbench_branches |         19177472

 2017-02-04 07:42:10.50131+01 | 1486190530.50131 | pgbench_accounts |      13916651520
 2017-02-04 07:42:10.50131+01 | 1486190530.50131 | pgbench_tellers  |         34455552
 2017-02-04 07:42:10.50131+01 | 1486190530.50131 | pgbench_history  |         22315008
 2017-02-04 07:42:10.50131+01 | 1486190530.50131 | pgbench_branches |         19177472

 2017-02-04 07:42:11.580713+01 | 1486190531.58071 | pgbench_accounts |      13916651520
 2017-02-04 07:42:11.580713+01 | 1486190531.58071 | pgbench_tellers  |         34455552
 2017-02-04 07:42:11.580713+01 | 1486190531.58071 | pgbench_history  |         26533888
 2017-02-04 07:42:11.580713+01 | 1486190531.58071 | pgbench_branches |         19177472

 2017-02-04 07:42:12.676894+01 | 1486190532.67689 | pgbench_accounts |      13916651520
 2017-02-04 07:42:12.676894+01 | 1486190532.67689 | pgbench_tellers  |         34455552
 2017-02-04 07:42:12.676894+01 | 1486190532.67689 | pgbench_history  |         26533888
 2017-02-04 07:42:12.676894+01 | 1486190532.67689 | pgbench_branches |         19177472

 2017-02-04 07:42:13.766348+01 | 1486190533.76635 | pgbench_accounts |      13916651520
 2017-02-04 07:42:13.766348+01 | 1486190533.76635 | pgbench_tellers  |         34455552
 2017-02-04 07:42:13.766348+01 | 1486190533.76635 | pgbench_history  |         27729920
 2017-02-04 07:42:13.766348+01 | 1486190533.76635 | pgbench_branches |         19177472

 2017-02-04 07:42:14.860517+01 | 1486190534.86052 | pgbench_accounts |      13916651520
 2017-02-04 07:42:14.860517+01 | 1486190534.86052 | pgbench_tellers  |         34455552
 2017-02-04 07:42:14.860517+01 | 1486190534.86052 | pgbench_history  |         30892032
 2017-02-04 07:42:14.860517+01 | 1486190534.86052 | pgbench_branches |         19177472

 2017-02-04 07:42:15.938125+01 | 1486190535.93812 | pgbench_accounts |      13916651520
 2017-02-04 07:42:15.938125+01 | 1486190535.93812 | pgbench_tellers  |         34455552
 2017-02-04 07:42:15.938125+01 | 1486190535.93812 | pgbench_history  |         32415744
 2017-02-04 07:42:15.938125+01 | 1486190535.93812 | pgbench_branches |         19177472

 2017-02-04 07:42:17.022353+01 | 1486190537.02235 | pgbench_accounts |      13916651520
 2017-02-04 07:42:17.022353+01 | 1486190537.02235 | pgbench_tellers  |         34455552
 2017-02-04 07:42:17.022353+01 | 1486190537.02235 | pgbench_history  |         34406400
 2017-02-04 07:42:17.022353+01 | 1486190537.02235 | pgbench_branches |         19177472

 2017-02-04 07:42:18.107166+01 | 1486190538.10717 | pgbench_accounts |      13916651520
 2017-02-04 07:42:18.107166+01 | 1486190538.10717 | pgbench_tellers  |         34455552
 2017-02-04 07:42:18.107166+01 | 1486190538.10717 | pgbench_history  |         36274176
 2017-02-04 07:42:18.107166+01 | 1486190538.10717 | pgbench_branches |         19177472

 2017-02-04 07:42:19.196987+01 | 1486190539.19699 | pgbench_accounts |      13916651520
 2017-02-04 07:42:19.196987+01 | 1486190539.19699 | pgbench_tellers  |         34455552
 2017-02-04 07:42:19.196987+01 | 1486190539.19699 | pgbench_history  |         39215104
 2017-02-04 07:42:19.196987+01 | 1486190539.19699 | pgbench_branches |         19177472

 2017-02-04 07:42:20.284746+01 | 1486190540.28475 | pgbench_accounts |      13916651520
 2017-02-04 07:42:20.284746+01 | 1486190540.28475 | pgbench_tellers  |         34455552
 2017-02-04 07:42:20.284746+01 | 1486190540.28475 | pgbench_history  |         43433984
 2017-02-04 07:42:20.284746+01 | 1486190540.28475 | pgbench_branches |         19177472

 2017-02-04 07:42:21.359163+01 | 1486190541.35916 | pgbench_accounts |      13916651520
 2017-02-04 07:42:21.359163+01 | 1486190541.35916 | pgbench_tellers  |         34455552
 2017-02-04 07:42:21.359163+01 | 1486190541.35916 | pgbench_history  |         43433984
 2017-02-04 07:42:21.359163+01 | 1486190541.35916 | pgbench_branches |         19177472

 2017-02-04 07:42:22.445508+01 | 1486190542.44551 | pgbench_accounts |      13916651520
 2017-02-04 07:42:22.445508+01 | 1486190542.44551 | pgbench_tellers  |         34455552
 2017-02-04 07:42:22.445508+01 | 1486190542.44551 | pgbench_history  |         45293568
 2017-02-04 07:42:22.445508+01 | 1486190542.44551 | pgbench_branches |         19177472

 2017-02-04 07:42:23.526835+01 | 1486190543.52683 | pgbench_accounts |      13916651520
 2017-02-04 07:42:23.526835+01 | 1486190543.52683 | pgbench_tellers  |         34455552
 2017-02-04 07:42:23.526835+01 | 1486190543.52683 | pgbench_history  |         47661056
 2017-02-04 07:42:23.526835+01 | 1486190543.52683 | pgbench_branches |         19177472

 2017-02-04 07:42:24.60276+01 | 1486190544.60276 | pgbench_accounts |      13916651520
 2017-02-04 07:42:24.60276+01 | 1486190544.60276 | pgbench_tellers  |         34455552
 2017-02-04 07:42:24.60276+01 | 1486190544.60276 | pgbench_history  |         48668672
 2017-02-04 07:42:24.60276+01 | 1486190544.60276 | pgbench_branches |         19177472

 2017-02-04 07:42:25.698889+01 | 1486190545.69889 | pgbench_accounts |      13916651520
 2017-02-04 07:42:25.698889+01 | 1486190545.69889 | pgbench_tellers  |         34455552
 2017-02-04 07:42:25.698889+01 | 1486190545.69889 | pgbench_history  |         51568640
 2017-02-04 07:42:25.698889+01 | 1486190545.69889 | pgbench_branches |         19177472

 2017-02-04 07:42:26.795016+01 | 1486190546.79502 | pgbench_accounts |      13916651520
 2017-02-04 07:42:26.795016+01 | 1486190546.79502 | pgbench_tellers  |         34455552
 2017-02-04 07:42:26.795016+01 | 1486190546.79502 | pgbench_history  |         52412416
 2017-02-04 07:42:26.795016+01 | 1486190546.79502 | pgbench_branches |         19177472

 2017-02-04 07:42:27.881791+01 | 1486190547.88179 | pgbench_accounts |      13916651520
 2017-02-04 07:42:27.881791+01 | 1486190547.88179 | pgbench_tellers  |         34455552
 2017-02-04 07:42:27.881791+01 | 1486190547.88179 | pgbench_history  |         54755328
 2017-02-04 07:42:27.881791+01 | 1486190547.88179 | pgbench_branches |         19177472

 2017-02-04 07:42:28.958899+01 | 1486190548.9589 | pgbench_accounts |      13916651520
 2017-02-04 07:42:28.958899+01 | 1486190548.9589 | pgbench_tellers  |         34455552
 2017-02-04 07:42:28.958899+01 | 1486190548.9589 | pgbench_history  |         55967744
 2017-02-04 07:42:28.958899+01 | 1486190548.9589 | pgbench_branches |         19177472

 2017-02-04 07:42:30.050424+01 | 1486190550.05042 | pgbench_accounts |      13916651520
 2017-02-04 07:42:30.050424+01 | 1486190550.05042 | pgbench_tellers  |         34455552
 2017-02-04 07:42:30.050424+01 | 1486190550.05042 | pgbench_history  |         58310656
 2017-02-04 07:42:30.050424+01 | 1486190550.05042 | pgbench_branches |         19177472

 2017-02-04 07:42:31.138408+01 | 1486190551.13841 | pgbench_accounts |      13916651520
 2017-02-04 07:42:31.138408+01 | 1486190551.13841 | pgbench_tellers  |         34455552
 2017-02-04 07:42:31.138408+01 | 1486190551.13841 | pgbench_history  |         63209472
 2017-02-04 07:42:31.138408+01 | 1486190551.13841 | pgbench_branches |         19177472

 2017-02-04 07:42:32.223919+01 | 1486190552.22392 | pgbench_accounts |      13916651520
 2017-02-04 07:42:32.223919+01 | 1486190552.22392 | pgbench_tellers  |         34455552
 2017-02-04 07:42:32.223919+01 | 1486190552.22392 | pgbench_history  |         63209472
 2017-02-04 07:42:32.223919+01 | 1486190552.22392 | pgbench_branches |         19177472

 2017-02-04 07:42:33.312526+01 | 1486190553.31253 | pgbench_accounts |      13916651520
 2017-02-04 07:42:33.312526+01 | 1486190553.31253 | pgbench_tellers  |         34455552
 2017-02-04 07:42:33.312526+01 | 1486190553.31253 | pgbench_history  |         63414272
 2017-02-04 07:42:33.312526+01 | 1486190553.31253 | pgbench_branches |         19177472

 2017-02-04 07:42:34.401954+01 | 1486190554.40195 | pgbench_accounts |      13916651520
 2017-02-04 07:42:34.401954+01 | 1486190554.40195 | pgbench_tellers  |         34455552
 2017-02-04 07:42:34.401954+01 | 1486190554.40195 | pgbench_history  |         68755456
 2017-02-04 07:42:34.401954+01 | 1486190554.40195 | pgbench_branches |         19177472

 2017-02-04 07:42:35.486795+01 | 1486190555.48679 | pgbench_accounts |      13916651520
 2017-02-04 07:42:35.486795+01 | 1486190555.48679 | pgbench_tellers  |         34455552
 2017-02-04 07:42:35.486795+01 | 1486190555.48679 | pgbench_history  |         68755456
 2017-02-04 07:42:35.486795+01 | 1486190555.48679 | pgbench_branches |         19177472

 2017-02-04 07:42:36.564258+01 | 1486190556.56426 | pgbench_accounts |      13916651520
 2017-02-04 07:42:36.564258+01 | 1486190556.56426 | pgbench_tellers  |         34455552
 2017-02-04 07:42:36.564258+01 | 1486190556.56426 | pgbench_history  |         69599232
 2017-02-04 07:42:36.564258+01 | 1486190556.56426 | pgbench_branches |         19177472

 2017-02-04 07:42:37.644303+01 | 1486190557.6443 | pgbench_accounts |      13916651520
 2017-02-04 07:42:37.644303+01 | 1486190557.6443 | pgbench_tellers  |         34455552
 2017-02-04 07:42:37.644303+01 | 1486190557.6443 | pgbench_history  |         71098368
 2017-02-04 07:42:37.644303+01 | 1486190557.6443 | pgbench_branches |         19177472

 2017-02-04 07:42:38.75131+01 | 1486190558.75131 | pgbench_accounts |      13916651520
 2017-02-04 07:42:38.75131+01 | 1486190558.75131 | pgbench_tellers  |         34455552
 2017-02-04 07:42:38.75131+01 | 1486190558.75131 | pgbench_history  |         72925184
 2017-02-04 07:42:38.75131+01 | 1486190558.75131 | pgbench_branches |         19177472

 2017-02-04 07:42:39.832593+01 | 1486190559.83259 | pgbench_accounts |      13916651520
 2017-02-04 07:42:39.832593+01 | 1486190559.83259 | pgbench_tellers  |         34455552
 2017-02-04 07:42:39.832593+01 | 1486190559.83259 | pgbench_history  |         75464704
 2017-02-04 07:42:39.832593+01 | 1486190559.83259 | pgbench_branches |         19177472

 2017-02-04 07:42:40.905965+01 | 1486190560.90597 | pgbench_accounts |      13916651520
 2017-02-04 07:42:40.905965+01 | 1486190560.90597 | pgbench_tellers  |         34455552
 2017-02-04 07:42:40.905965+01 | 1486190560.90597 | pgbench_history  |         77291520
 2017-02-04 07:42:40.905965+01 | 1486190560.90597 | pgbench_branches |         19177472

 2017-02-04 07:42:42.001753+01 | 1486190562.00175 | pgbench_accounts |      13916651520
 2017-02-04 07:42:42.001753+01 | 1486190562.00175 | pgbench_tellers  |         34455552
 2017-02-04 07:42:42.001753+01 | 1486190562.00175 | pgbench_history  |         79142912
 2017-02-04 07:42:42.001753+01 | 1486190562.00175 | pgbench_branches |         19177472

 2017-02-04 07:42:43.091642+01 | 1486190563.09164 | pgbench_accounts |      13916651520
 2017-02-04 07:42:43.091642+01 | 1486190563.09164 | pgbench_tellers  |         34455552
 2017-02-04 07:42:43.091642+01 | 1486190563.09164 | pgbench_history  |         80691200
 2017-02-04 07:42:43.091642+01 | 1486190563.09164 | pgbench_branches |         19177472

 2017-02-04 07:42:44.192322+01 | 1486190564.19232 | pgbench_accounts |      13916651520
 2017-02-04 07:42:44.192322+01 | 1486190564.19232 | pgbench_tellers  |         34455552
 2017-02-04 07:42:44.192322+01 | 1486190564.19232 | pgbench_history  |         82223104
 2017-02-04 07:42:44.192322+01 | 1486190564.19232 | pgbench_branches |         19177472

 2017-02-04 07:42:45.28257+01 | 1486190565.28257 | pgbench_accounts |      13916651520
 2017-02-04 07:42:45.28257+01 | 1486190565.28257 | pgbench_tellers  |         34455552
 2017-02-04 07:42:45.28257+01 | 1486190565.28257 | pgbench_history  |         83640320
 2017-02-04 07:42:45.28257+01 | 1486190565.28257 | pgbench_branches |         19177472

 2017-02-04 07:42:46.370802+01 | 1486190566.3708 | pgbench_accounts |      13916651520
 2017-02-04 07:42:46.370802+01 | 1486190566.3708 | pgbench_tellers  |         34455552
 2017-02-04 07:42:46.370802+01 | 1486190566.3708 | pgbench_history  |         85688320
 2017-02-04 07:42:46.370802+01 | 1486190566.3708 | pgbench_branches |         19177472

 2017-02-04 07:42:47.452967+01 | 1486190567.45297 | pgbench_accounts |      13916651520
 2017-02-04 07:42:47.452967+01 | 1486190567.45297 | pgbench_tellers  |         34455552
 2017-02-04 07:42:47.452967+01 | 1486190567.45297 | pgbench_history  |         87048192
 2017-02-04 07:42:47.452967+01 | 1486190567.45297 | pgbench_branches |         19177472

 2017-02-04 07:42:48.532007+01 | 1486190568.53201 | pgbench_accounts |      13916651520
 2017-02-04 07:42:48.532007+01 | 1486190568.53201 | pgbench_tellers  |         34455552
 2017-02-04 07:42:48.532007+01 | 1486190568.53201 | pgbench_history  |         89038848
 2017-02-04 07:42:48.532007+01 | 1486190568.53201 | pgbench_branches |         19177472

 2017-02-04 07:42:49.612222+01 | 1486190569.61222 | pgbench_accounts |      13916651520
 2017-02-04 07:42:49.612222+01 | 1486190569.61222 | pgbench_tellers  |         34455552
 2017-02-04 07:42:49.612222+01 | 1486190569.61222 | pgbench_history  |         90406912
 2017-02-04 07:42:49.612222+01 | 1486190569.61222 | pgbench_branches |         19177472

 2017-02-04 07:42:50.697724+01 | 1486190570.69772 | pgbench_accounts |      13916651520
 2017-02-04 07:42:50.697724+01 | 1486190570.69772 | pgbench_tellers  |         34455552
 2017-02-04 07:42:50.697724+01 | 1486190570.69772 | pgbench_history  |         92160000
 2017-02-04 07:42:50.697724+01 | 1486190570.69772 | pgbench_branches |         19177472

 2017-02-04 07:42:51.786029+01 | 1486190571.78603 | pgbench_accounts |      13916651520
 2017-02-04 07:42:51.786029+01 | 1486190571.78603 | pgbench_tellers  |         34455552
 2017-02-04 07:42:51.786029+01 | 1486190571.78603 | pgbench_history  |         94855168
 2017-02-04 07:42:51.786029+01 | 1486190571.78603 | pgbench_branches |         19177472

 2017-02-04 07:42:52.889927+01 | 1486190572.88993 | pgbench_accounts |      13916651520
 2017-02-04 07:42:52.889927+01 | 1486190572.88993 | pgbench_tellers  |         34455552
 2017-02-04 07:42:52.889927+01 | 1486190572.88993 | pgbench_history  |         96706560
 2017-02-04 07:42:52.889927+01 | 1486190572.88993 | pgbench_branches |         19177472

 2017-02-04 07:42:53.982235+01 | 1486190573.98223 | pgbench_accounts |      13916651520
 2017-02-04 07:42:53.982235+01 | 1486190573.98223 | pgbench_tellers  |         34455552
 2017-02-04 07:42:53.982235+01 | 1486190573.98223 | pgbench_history  |         98230272
 2017-02-04 07:42:53.982235+01 | 1486190573.98223 | pgbench_branches |         19177472

 2017-02-04 07:42:55.076063+01 | 1486190575.07606 | pgbench_accounts |      13916651520
 2017-02-04 07:42:55.076063+01 | 1486190575.07606 | pgbench_tellers  |         34455552
 2017-02-04 07:42:55.076063+01 | 1486190575.07606 | pgbench_history  |        102449152
 2017-02-04 07:42:55.076063+01 | 1486190575.07606 | pgbench_branches |         19177472

 2017-02-04 07:42:56.163374+01 | 1486190576.16337 | pgbench_accounts |      13916651520
 2017-02-04 07:42:56.163374+01 | 1486190576.16337 | pgbench_tellers  |         34455552
 2017-02-04 07:42:56.163374+01 | 1486190576.16337 | pgbench_history  |        102449152
 2017-02-04 07:42:56.163374+01 | 1486190576.16337 | pgbench_branches |         19177472

 2017-02-04 07:42:57.262366+01 | 1486190577.26237 | pgbench_accounts |      13916651520
 2017-02-04 07:42:57.262366+01 | 1486190577.26237 | pgbench_tellers  |         34455552
 2017-02-04 07:42:57.262366+01 | 1486190577.26237 | pgbench_history  |        105152512
 2017-02-04 07:42:57.262366+01 | 1486190577.26237 | pgbench_branches |         19177472

 2017-02-04 07:42:58.353011+01 | 1486190578.35301 | pgbench_accounts |      13916651520
 2017-02-04 07:42:58.353011+01 | 1486190578.35301 | pgbench_tellers  |         34455552
 2017-02-04 07:42:58.353011+01 | 1486190578.35301 | pgbench_history  |        105996288
 2017-02-04 07:42:58.353011+01 | 1486190578.35301 | pgbench_branches |         19177472

 2017-02-04 07:42:59.423066+01 | 1486190579.42307 | pgbench_accounts |      13916651520
 2017-02-04 07:42:59.423066+01 | 1486190579.42307 | pgbench_tellers  |         34455552
 2017-02-04 07:42:59.423066+01 | 1486190579.42307 | pgbench_history  |        108855296
 2017-02-04 07:42:59.423066+01 | 1486190579.42307 | pgbench_branches |         19177472

 2017-02-04 07:43:00.525163+01 | 1486190580.52516 | pgbench_accounts |      13916651520
 2017-02-04 07:43:00.525163+01 | 1486190580.52516 | pgbench_tellers  |         34455552
 2017-02-04 07:43:00.525163+01 | 1486190580.52516 | pgbench_history  |        109862912
 2017-02-04 07:43:00.525163+01 | 1486190580.52516 | pgbench_branches |         19177472

 2017-02-04 07:43:01.60566+01 | 1486190581.60566 | pgbench_accounts |      13916651520
 2017-02-04 07:43:01.60566+01 | 1486190581.60566 | pgbench_tellers  |         34455552
 2017-02-04 07:43:01.60566+01 | 1486190581.60566 | pgbench_history  |        111763456
 2017-02-04 07:43:01.60566+01 | 1486190581.60566 | pgbench_branches |         19177472

 2017-02-04 07:43:02.685062+01 | 1486190582.68506 | pgbench_accounts |      13916651520
 2017-02-04 07:43:02.685062+01 | 1486190582.68506 | pgbench_tellers  |         34455552
 2017-02-04 07:43:02.685062+01 | 1486190582.68506 | pgbench_history  |        113451008
 2017-02-04 07:43:02.685062+01 | 1486190582.68506 | pgbench_branches |         19177472

 2017-02-04 07:43:03.776616+01 | 1486190583.77662 | pgbench_accounts |      13916651520
 2017-02-04 07:43:03.776616+01 | 1486190583.77662 | pgbench_tellers  |         34455552
 2017-02-04 07:43:03.776616+01 | 1486190583.77662 | pgbench_history  |        115466240
 2017-02-04 07:43:03.776616+01 | 1486190583.77662 | pgbench_branches |         19177472

 2017-02-04 07:43:04.87052+01 | 1486190584.87052 | pgbench_accounts |      13916651520
 2017-02-04 07:43:04.87052+01 | 1486190584.87052 | pgbench_tellers  |         34455552
 2017-02-04 07:43:04.87052+01 | 1486190584.87052 | pgbench_history  |        116826112
 2017-02-04 07:43:04.87052+01 | 1486190584.87052 | pgbench_branches |         19177472

 2017-02-04 07:43:05.957227+01 | 1486190585.95723 | pgbench_accounts |      13916651520
 2017-02-04 07:43:05.957227+01 | 1486190585.95723 | pgbench_tellers  |         34455552
 2017-02-04 07:43:05.957227+01 | 1486190585.95723 | pgbench_history  |        118513664
 2017-02-04 07:43:05.957227+01 | 1486190585.95723 | pgbench_branches |         19177472

 2017-02-04 07:43:07.041505+01 | 1486190587.04151 | pgbench_accounts |      13916651520
 2017-02-04 07:43:07.041505+01 | 1486190587.04151 | pgbench_tellers  |         34455552
 2017-02-04 07:43:07.041505+01 | 1486190587.04151 | pgbench_history  |        119357440
 2017-02-04 07:43:07.041505+01 | 1486190587.04151 | pgbench_branches |         19177472

 2017-02-04 07:43:08.108371+01 | 1486190588.10837 | pgbench_accounts |      13916651520
 2017-02-04 07:43:08.108371+01 | 1486190588.10837 | pgbench_tellers  |         34455552
 2017-02-04 07:43:08.108371+01 | 1486190588.10837 | pgbench_history  |        121233408
 2017-02-04 07:43:08.108371+01 | 1486190588.10837 | pgbench_branches |         19177472

 2017-02-04 07:43:09.182509+01 | 1486190589.18251 | pgbench_accounts |      13916651520
 2017-02-04 07:43:09.182509+01 | 1486190589.18251 | pgbench_tellers  |         34455552
 2017-02-04 07:43:09.182509+01 | 1486190589.18251 | pgbench_history  |        124887040
 2017-02-04 07:43:09.182509+01 | 1486190589.18251 | pgbench_branches |         19177472

 2017-02-04 07:43:10.252237+01 | 1486190590.25224 | pgbench_accounts |      13916651520
 2017-02-04 07:43:10.252237+01 | 1486190590.25224 | pgbench_tellers  |         34455552
 2017-02-04 07:43:10.252237+01 | 1486190590.25224 | pgbench_history  |        124887040
 2017-02-04 07:43:10.252237+01 | 1486190590.25224 | pgbench_branches |         19177472

 2017-02-04 07:43:11.331503+01 | 1486190591.3315 | pgbench_accounts |      13916651520
 2017-02-04 07:43:11.331503+01 | 1486190591.3315 | pgbench_tellers  |         34455552
 2017-02-04 07:43:11.331503+01 | 1486190591.3315 | pgbench_history  |        129957888
 2017-02-04 07:43:11.331503+01 | 1486190591.3315 | pgbench_branches |         19177472

 2017-02-04 07:43:12.407695+01 | 1486190592.4077 | pgbench_accounts |      13916651520
 2017-02-04 07:43:12.407695+01 | 1486190592.4077 | pgbench_tellers  |         34455552
 2017-02-04 07:43:12.407695+01 | 1486190592.4077 | pgbench_history  |        129957888
 2017-02-04 07:43:12.407695+01 | 1486190592.4077 | pgbench_branches |         19177472

 2017-02-04 07:43:13.493185+01 | 1486190593.49319 | pgbench_accounts |      13916651520
 2017-02-04 07:43:13.493185+01 | 1486190593.49319 | pgbench_tellers  |         34455552
 2017-02-04 07:43:13.493185+01 | 1486190593.49319 | pgbench_history  |        130637824
 2017-02-04 07:43:13.493185+01 | 1486190593.49319 | pgbench_branches |         19177472

 2017-02-04 07:43:14.576165+01 | 1486190594.57616 | pgbench_accounts |      13916651520
 2017-02-04 07:43:14.576165+01 | 1486190594.57616 | pgbench_tellers  |         34455552
 2017-02-04 07:43:14.576165+01 | 1486190594.57616 | pgbench_history  |        132325376
 2017-02-04 07:43:14.576165+01 | 1486190594.57616 | pgbench_branches |         19177472

 2017-02-04 07:43:15.659561+01 | 1486190595.65956 | pgbench_accounts |      13916651520
 2017-02-04 07:43:15.659561+01 | 1486190595.65956 | pgbench_tellers  |         34455552
 2017-02-04 07:43:15.659561+01 | 1486190595.65956 | pgbench_history  |        134692864
 2017-02-04 07:43:15.659561+01 | 1486190595.65956 | pgbench_branches |         19177472

 2017-02-04 07:43:16.741675+01 | 1486190596.74167 | pgbench_accounts |      13916651520
 2017-02-04 07:43:16.741675+01 | 1486190596.74167 | pgbench_tellers  |         34455552
 2017-02-04 07:43:16.741675+01 | 1486190596.74167 | pgbench_history  |        136593408
 2017-02-04 07:43:16.741675+01 | 1486190596.74167 | pgbench_branches |         19177472

 2017-02-04 07:43:17.82936+01 | 1486190597.82936 | pgbench_accounts |      13916651520
 2017-02-04 07:43:17.82936+01 | 1486190597.82936 | pgbench_tellers  |         34455552
 2017-02-04 07:43:17.82936+01 | 1486190597.82936 | pgbench_history  |        138657792
 2017-02-04 07:43:17.82936+01 | 1486190597.82936 | pgbench_branches |         19177472

 2017-02-04 07:43:18.93028+01 | 1486190598.93028 | pgbench_accounts |      13916651520
 2017-02-04 07:43:18.93028+01 | 1486190598.93028 | pgbench_tellers  |         34455552
 2017-02-04 07:43:18.93028+01 | 1486190598.93028 | pgbench_history  |        140509184
 2017-02-04 07:43:18.93028+01 | 1486190598.93028 | pgbench_branches |         19177472

 2017-02-04 07:43:20.020265+01 | 1486190600.02027 | pgbench_accounts |      13916651520
 2017-02-04 07:43:20.020265+01 | 1486190600.02027 | pgbench_tellers  |         34455552
 2017-02-04 07:43:20.020265+01 | 1486190600.02027 | pgbench_history  |        142663680
 2017-02-04 07:43:20.020265+01 | 1486190600.02027 | pgbench_branches |         19177472

 2017-02-04 07:43:21.116931+01 | 1486190601.11693 | pgbench_accounts |      13916651520
 2017-02-04 07:43:21.116931+01 | 1486190601.11693 | pgbench_tellers  |         34455552
 2017-02-04 07:43:21.116931+01 | 1486190601.11693 | pgbench_history  |        144162816
 2017-02-04 07:43:21.116931+01 | 1486190601.11693 | pgbench_branches |         19177472

 2017-02-04 07:43:22.2008+01 | 1486190602.2008 | pgbench_accounts |      13916651520
 2017-02-04 07:43:22.2008+01 | 1486190602.2008 | pgbench_tellers  |         34455552
 2017-02-04 07:43:22.2008+01 | 1486190602.2008 | pgbench_history  |        146505728
 2017-02-04 07:43:22.2008+01 | 1486190602.2008 | pgbench_branches |         19177472

 2017-02-04 07:43:23.295393+01 | 1486190603.29539 | pgbench_accounts |      13916651520
 2017-02-04 07:43:23.295393+01 | 1486190603.29539 | pgbench_tellers  |         34455552
 2017-02-04 07:43:23.295393+01 | 1486190603.29539 | pgbench_history  |        147890176
 2017-02-04 07:43:23.295393+01 | 1486190603.29539 | pgbench_branches |         19177472

 2017-02-04 07:43:24.391812+01 | 1486190604.39181 | pgbench_accounts |      13916651520
 2017-02-04 07:43:24.391812+01 | 1486190604.39181 | pgbench_tellers  |         34455552
 2017-02-04 07:43:24.391812+01 | 1486190604.39181 | pgbench_history  |        149929984
 2017-02-04 07:43:24.391812+01 | 1486190604.39181 | pgbench_branches |         19177472

 2017-02-04 07:43:25.488683+01 | 1486190605.48868 | pgbench_accounts |      13916651520
 2017-02-04 07:43:25.488683+01 | 1486190605.48868 | pgbench_tellers  |         34455552
 2017-02-04 07:43:25.488683+01 | 1486190605.48868 | pgbench_history  |        151781376
 2017-02-04 07:43:25.488683+01 | 1486190605.48868 | pgbench_branches |         19177472

 2017-02-04 07:43:26.575244+01 | 1486190606.57524 | pgbench_accounts |      13916651520
 2017-02-04 07:43:26.575244+01 | 1486190606.57524 | pgbench_tellers  |         34455552
 2017-02-04 07:43:26.575244+01 | 1486190606.57524 | pgbench_history  |        154460160
 2017-02-04 07:43:26.575244+01 | 1486190606.57524 | pgbench_branches |         19177472

 2017-02-04 07:43:27.654412+01 | 1486190607.65441 | pgbench_accounts |      13916651520
 2017-02-04 07:43:27.654412+01 | 1486190607.65441 | pgbench_tellers  |         34455552
 2017-02-04 07:43:27.654412+01 | 1486190607.65441 | pgbench_history  |        155303936
 2017-02-04 07:43:27.654412+01 | 1486190607.65441 | pgbench_branches |         19177472

 2017-02-04 07:43:28.745471+01 | 1486190608.74547 | pgbench_accounts |      13916651520
 2017-02-04 07:43:28.745471+01 | 1486190608.74547 | pgbench_tellers  |         34455552
 2017-02-04 07:43:28.745471+01 | 1486190608.74547 | pgbench_history  |        157220864
 2017-02-04 07:43:28.745471+01 | 1486190608.74547 | pgbench_branches |         19177472

 2017-02-04 07:43:29.833441+01 | 1486190609.83344 | pgbench_accounts |      13916651520
 2017-02-04 07:43:29.833441+01 | 1486190609.83344 | pgbench_tellers  |         34455552
 2017-02-04 07:43:29.833441+01 | 1486190609.83344 | pgbench_history  |        160407552
 2017-02-04 07:43:29.833441+01 | 1486190609.83344 | pgbench_branches |         19177472

 2017-02-04 07:43:30.917619+01 | 1486190610.91762 | pgbench_accounts |      13916651520
 2017-02-04 07:43:30.917619+01 | 1486190610.91762 | pgbench_tellers  |         34455552
 2017-02-04 07:43:30.917619+01 | 1486190610.91762 | pgbench_history  |        160923648
 2017-02-04 07:43:30.917619+01 | 1486190610.91762 | pgbench_branches |         19177472

 2017-02-04 07:43:32.004786+01 | 1486190612.00479 | pgbench_accounts |      13916651520
 2017-02-04 07:43:32.004786+01 | 1486190612.00479 | pgbench_tellers  |         34455552
 2017-02-04 07:43:32.004786+01 | 1486190612.00479 | pgbench_history  |        162963456
 2017-02-04 07:43:32.004786+01 | 1486190612.00479 | pgbench_branches |         19177472

 2017-02-04 07:43:33.099324+01 | 1486190613.09932 | pgbench_accounts |      13916651520
 2017-02-04 07:43:33.099324+01 | 1486190613.09932 | pgbench_tellers  |         34455552
 2017-02-04 07:43:33.099324+01 | 1486190613.09932 | pgbench_history  |        166289408
 2017-02-04 07:43:33.099324+01 | 1486190613.09932 | pgbench_branches |         19177472

 2017-02-04 07:43:34.180561+01 | 1486190614.18056 | pgbench_accounts |      13916651520
 2017-02-04 07:43:34.180561+01 | 1486190614.18056 | pgbench_tellers  |         34455552
 2017-02-04 07:43:34.180561+01 | 1486190614.18056 | pgbench_history  |        166289408
 2017-02-04 07:43:34.180561+01 | 1486190614.18056 | pgbench_branches |         19177472

 2017-02-04 07:43:35.244303+01 | 1486190615.2443 | pgbench_accounts |      13916651520
 2017-02-04 07:43:35.244303+01 | 1486190615.2443 | pgbench_tellers  |         34455552
 2017-02-04 07:43:35.244303+01 | 1486190615.2443 | pgbench_history  |        167624704
 2017-02-04 07:43:35.244303+01 | 1486190615.2443 | pgbench_branches |         19177472

 2017-02-04 07:43:36.322587+01 | 1486190616.32259 | pgbench_accounts |      13916651520
 2017-02-04 07:43:36.322587+01 | 1486190616.32259 | pgbench_tellers  |         34455552
 2017-02-04 07:43:36.322587+01 | 1486190616.32259 | pgbench_history  |        169877504
 2017-02-04 07:43:36.322587+01 | 1486190616.32259 | pgbench_branches |         19177472

 2017-02-04 07:43:37.401731+01 | 1486190617.40173 | pgbench_accounts |      13916651520
 2017-02-04 07:43:37.401731+01 | 1486190617.40173 | pgbench_tellers  |         34455552
 2017-02-04 07:43:37.401731+01 | 1486190617.40173 | pgbench_history  |        171270144
 2017-02-04 07:43:37.401731+01 | 1486190617.40173 | pgbench_branches |         19177472

 2017-02-04 07:43:38.477236+01 | 1486190618.47724 | pgbench_accounts |      13916651520
 2017-02-04 07:43:38.477236+01 | 1486190618.47724 | pgbench_tellers  |         34455552
 2017-02-04 07:43:38.477236+01 | 1486190618.47724 | pgbench_history  |        172957696
 2017-02-04 07:43:38.477236+01 | 1486190618.47724 | pgbench_branches |         19177472

 2017-02-04 07:43:39.556176+01 | 1486190619.55618 | pgbench_accounts |      13916651520
 2017-02-04 07:43:39.556176+01 | 1486190619.55618 | pgbench_tellers  |         34455552
 2017-02-04 07:43:39.556176+01 | 1486190619.55618 | pgbench_history  |        175767552
 2017-02-04 07:43:39.556176+01 | 1486190619.55618 | pgbench_branches |         19177472

 2017-02-04 07:43:40.624057+01 | 1486190620.62406 | pgbench_accounts |      13916651520
 2017-02-04 07:43:40.624057+01 | 1486190620.62406 | pgbench_tellers  |         34455552
 2017-02-04 07:43:40.624057+01 | 1486190620.62406 | pgbench_history  |        177758208
 2017-02-04 07:43:40.624057+01 | 1486190620.62406 | pgbench_branches |         19177472

 2017-02-04 07:43:41.706183+01 | 1486190621.70618 | pgbench_accounts |      13916651520
 2017-02-04 07:43:41.706183+01 | 1486190621.70618 | pgbench_tellers  |         34455552
 2017-02-04 07:43:41.706183+01 | 1486190621.70618 | pgbench_history  |        177758208
 2017-02-04 07:43:41.706183+01 | 1486190621.70618 | pgbench_branches |         19177472

 2017-02-04 07:43:42.792004+01 | 1486190622.792 | pgbench_accounts |      13916651520
 2017-02-04 07:43:42.792004+01 | 1486190622.792 | pgbench_tellers  |         34455552
 2017-02-04 07:43:42.792004+01 | 1486190622.792 | pgbench_history  |        179150848
 2017-02-04 07:43:42.792004+01 | 1486190622.792 | pgbench_branches |         19177472

 2017-02-04 07:43:43.87382+01 | 1486190623.87382 | pgbench_accounts |      13916651520
 2017-02-04 07:43:43.87382+01 | 1486190623.87382 | pgbench_tellers  |         34455552
 2017-02-04 07:43:43.87382+01 | 1486190623.87382 | pgbench_history  |        181026816
 2017-02-04 07:43:43.87382+01 | 1486190623.87382 | pgbench_branches |         19177472

 2017-02-04 07:43:44.954445+01 | 1486190624.95444 | pgbench_accounts |      13916651520
 2017-02-04 07:43:44.954445+01 | 1486190624.95444 | pgbench_tellers  |         34455552
 2017-02-04 07:43:44.954445+01 | 1486190624.95444 | pgbench_history  |        183230464
 2017-02-04 07:43:44.954445+01 | 1486190624.95444 | pgbench_branches |         19177472

 2017-02-04 07:43:46.040231+01 | 1486190626.04023 | pgbench_accounts |      13916651520
 2017-02-04 07:43:46.040231+01 | 1486190626.04023 | pgbench_tellers  |         34455552
 2017-02-04 07:43:46.040231+01 | 1486190626.04023 | pgbench_history  |        184590336
 2017-02-04 07:43:46.040231+01 | 1486190626.04023 | pgbench_branches |         19177472

 2017-02-04 07:43:47.116853+01 | 1486190627.11685 | pgbench_accounts |      13916651520
 2017-02-04 07:43:47.116853+01 | 1486190627.11685 | pgbench_tellers  |         34455552
 2017-02-04 07:43:47.116853+01 | 1486190627.11685 | pgbench_history  |        186302464
 2017-02-04 07:43:47.116853+01 | 1486190627.11685 | pgbench_branches |         19177472

 2017-02-04 07:43:48.20197+01 | 1486190628.20197 | pgbench_accounts |      13916651520
 2017-02-04 07:43:48.20197+01 | 1486190628.20197 | pgbench_tellers  |         34455552
 2017-02-04 07:43:48.20197+01 | 1486190628.20197 | pgbench_history  |        187850752
 2017-02-04 07:43:48.20197+01 | 1486190628.20197 | pgbench_branches |         19177472

 2017-02-04 07:43:49.292182+01 | 1486190629.29218 | pgbench_accounts |      13916651520
 2017-02-04 07:43:49.292182+01 | 1486190629.29218 | pgbench_tellers  |         34455552
 2017-02-04 07:43:49.292182+01 | 1486190629.29218 | pgbench_history  |        193241088
 2017-02-04 07:43:49.292182+01 | 1486190629.29218 | pgbench_branches |         19177472

 2017-02-04 07:43:50.393254+01 | 1486190630.39325 | pgbench_accounts |      13916651520
 2017-02-04 07:43:50.393254+01 | 1486190630.39325 | pgbench_tellers  |         34455552
 2017-02-04 07:43:50.393254+01 | 1486190630.39325 | pgbench_history  |        193241088
 2017-02-04 07:43:50.393254+01 | 1486190630.39325 | pgbench_branches |         19177472

 2017-02-04 07:43:51.475719+01 | 1486190631.47572 | pgbench_accounts |      13916651520
 2017-02-04 07:43:51.475719+01 | 1486190631.47572 | pgbench_tellers  |         34455552
 2017-02-04 07:43:51.475719+01 | 1486190631.47572 | pgbench_history  |        193241088
 2017-02-04 07:43:51.475719+01 | 1486190631.47572 | pgbench_branches |         19177472

 2017-02-04 07:43:52.55756+01 | 1486190632.55756 | pgbench_accounts |      13916651520
 2017-02-04 07:43:52.55756+01 | 1486190632.55756 | pgbench_tellers  |         34455552
 2017-02-04 07:43:52.55756+01 | 1486190632.55756 | pgbench_history  |        194576384
 2017-02-04 07:43:52.55756+01 | 1486190632.55756 | pgbench_branches |         19177472

 2017-02-04 07:43:53.64497+01 | 1486190633.64497 | pgbench_accounts |      13916651520
 2017-02-04 07:43:53.64497+01 | 1486190633.64497 | pgbench_tellers  |         34455552
 2017-02-04 07:43:53.64497+01 | 1486190633.64497 | pgbench_history  |        196427776
 2017-02-04 07:43:53.64497+01 | 1486190633.64497 | pgbench_branches |         19177472

 2017-02-04 07:43:54.728692+01 | 1486190634.72869 | pgbench_accounts |      13916651520
 2017-02-04 07:43:54.728692+01 | 1486190634.72869 | pgbench_tellers  |         34455552
 2017-02-04 07:43:54.728692+01 | 1486190634.72869 | pgbench_history  |        198361088
 2017-02-04 07:43:54.728692+01 | 1486190634.72869 | pgbench_branches |         19177472

 2017-02-04 07:43:55.810095+01 | 1486190635.8101 | pgbench_accounts |      13916651520
 2017-02-04 07:43:55.810095+01 | 1486190635.8101 | pgbench_tellers  |         34455552
 2017-02-04 07:43:55.810095+01 | 1486190635.8101 | pgbench_history  |        200048640
 2017-02-04 07:43:55.810095+01 | 1486190635.8101 | pgbench_branches |         19177472

 2017-02-04 07:43:56.89673+01 | 1486190636.89673 | pgbench_accounts |      13916651520
 2017-02-04 07:43:56.89673+01 | 1486190636.89673 | pgbench_tellers  |         34455552
 2017-02-04 07:43:56.89673+01 | 1486190636.89673 | pgbench_history  |        201957376
 2017-02-04 07:43:56.89673+01 | 1486190636.89673 | pgbench_branches |         19177472

 2017-02-04 07:43:57.989686+01 | 1486190637.98969 | pgbench_accounts |      13916651520
 2017-02-04 07:43:57.989686+01 | 1486190637.98969 | pgbench_tellers  |         34455552
 2017-02-04 07:43:57.989686+01 | 1486190637.98969 | pgbench_history  |        204341248
 2017-02-04 07:43:57.989686+01 | 1486190637.98969 | pgbench_branches |         19177472

 2017-02-04 07:43:59.061183+01 | 1486190639.06118 | pgbench_accounts |      13916651520
 2017-02-04 07:43:59.061183+01 | 1486190639.06118 | pgbench_tellers  |         34455552
 2017-02-04 07:43:59.061183+01 | 1486190639.06118 | pgbench_history  |        205225984
 2017-02-04 07:43:59.061183+01 | 1486190639.06118 | pgbench_branches |         19177472

 2017-02-04 07:44:00.136973+01 | 1486190640.13697 | pgbench_accounts |      13916651520
 2017-02-04 07:44:00.136973+01 | 1486190640.13697 | pgbench_tellers  |         34455552
 2017-02-04 07:44:00.136973+01 | 1486190640.13697 | pgbench_history  |        207618048
 2017-02-04 07:44:00.136973+01 | 1486190640.13697 | pgbench_branches |         19177472

 2017-02-04 07:44:01.216146+01 | 1486190641.21615 | pgbench_accounts |      13916651520
 2017-02-04 07:44:01.216146+01 | 1486190641.21615 | pgbench_tellers  |         34455552
 2017-02-04 07:44:01.216146+01 | 1486190641.21615 | pgbench_history  |        210288640
 2017-02-04 07:44:01.216146+01 | 1486190641.21615 | pgbench_branches |         19177472

 2017-02-04 07:44:02.315096+01 | 1486190642.3151 | pgbench_accounts |      13916651520
 2017-02-04 07:44:02.315096+01 | 1486190642.3151 | pgbench_tellers  |         34455552
 2017-02-04 07:44:02.315096+01 | 1486190642.3151 | pgbench_history  |        212467712
 2017-02-04 07:44:02.315096+01 | 1486190642.3151 | pgbench_branches |         19177472

 2017-02-04 07:44:03.407438+01 | 1486190643.40744 | pgbench_accounts |      13916651520
 2017-02-04 07:44:03.407438+01 | 1486190643.40744 | pgbench_tellers  |         34455552
 2017-02-04 07:44:03.407438+01 | 1486190643.40744 | pgbench_history  |        212467712
 2017-02-04 07:44:03.407438+01 | 1486190643.40744 | pgbench_branches |         19177472

 2017-02-04 07:44:04.48895+01 | 1486190644.48895 | pgbench_accounts |      13916651520
 2017-02-04 07:44:04.48895+01 | 1486190644.48895 | pgbench_tellers  |         34455552
 2017-02-04 07:44:04.48895+01 | 1486190644.48895 | pgbench_history  |        215957504
 2017-02-04 07:44:04.48895+01 | 1486190644.48895 | pgbench_branches |         19177472

 2017-02-04 07:44:05.556432+01 | 1486190645.55643 | pgbench_accounts |      13916651520
 2017-02-04 07:44:05.556432+01 | 1486190645.55643 | pgbench_tellers  |         34455552
 2017-02-04 07:44:05.556432+01 | 1486190645.55643 | pgbench_history  |        215957504
 2017-02-04 07:44:05.556432+01 | 1486190645.55643 | pgbench_branches |         19177472

 2017-02-04 07:44:06.623377+01 | 1486190646.62338 | pgbench_accounts |      13916651520
 2017-02-04 07:44:06.623377+01 | 1486190646.62338 | pgbench_tellers  |         34455552
 2017-02-04 07:44:06.623377+01 | 1486190646.62338 | pgbench_history  |        218136576
 2017-02-04 07:44:06.623377+01 | 1486190646.62338 | pgbench_branches |         19177472

 2017-02-04 07:44:07.691681+01 | 1486190647.69168 | pgbench_accounts |      13916651520
 2017-02-04 07:44:07.691681+01 | 1486190647.69168 | pgbench_tellers  |         34455552
 2017-02-04 07:44:07.691681+01 | 1486190647.69168 | pgbench_history  |        218136576
 2017-02-04 07:44:07.691681+01 | 1486190647.69168 | pgbench_branches |         19177472

 2017-02-04 07:44:08.769246+01 | 1486190648.76925 | pgbench_accounts |      13916651520
 2017-02-04 07:44:08.769246+01 | 1486190648.76925 | pgbench_tellers  |         34455552
 2017-02-04 07:44:08.769246+01 | 1486190648.76925 | pgbench_history  |        219471872
 2017-02-04 07:44:08.769246+01 | 1486190648.76925 | pgbench_branches |         19177472

 2017-02-04 07:44:09.841811+01 | 1486190649.84181 | pgbench_accounts |      13916651520
 2017-02-04 07:44:09.841811+01 | 1486190649.84181 | pgbench_tellers  |         34455552
 2017-02-04 07:44:09.841811+01 | 1486190649.84181 | pgbench_history  |        221184000
 2017-02-04 07:44:09.841811+01 | 1486190649.84181 | pgbench_branches |         19177472

 2017-02-04 07:44:10.915161+01 | 1486190650.91516 | pgbench_accounts |      13916651520
 2017-02-04 07:44:10.915161+01 | 1486190650.91516 | pgbench_tellers  |         34455552
 2017-02-04 07:44:10.915161+01 | 1486190650.91516 | pgbench_history  |        222027776
 2017-02-04 07:44:10.915161+01 | 1486190650.91516 | pgbench_branches |         19177472

 2017-02-04 07:44:11.987109+01 | 1486190651.98711 | pgbench_accounts |      13916651520
 2017-02-04 07:44:11.987109+01 | 1486190651.98711 | pgbench_tellers  |         34455552
 2017-02-04 07:44:11.987109+01 | 1486190651.98711 | pgbench_history  |        223551488
 2017-02-04 07:44:11.987109+01 | 1486190651.98711 | pgbench_branches |         19177472

 2017-02-04 07:44:13.064328+01 | 1486190653.06433 | pgbench_accounts |      13916651520
 2017-02-04 07:44:13.064328+01 | 1486190653.06433 | pgbench_tellers  |         34455552
 2017-02-04 07:44:13.064328+01 | 1486190653.06433 | pgbench_history  |        225107968
 2017-02-04 07:44:13.064328+01 | 1486190653.06433 | pgbench_branches |         19177472

 2017-02-04 07:44:14.137487+01 | 1486190654.13749 | pgbench_accounts |      13916651520
 2017-02-04 07:44:14.137487+01 | 1486190654.13749 | pgbench_tellers  |         34455552
 2017-02-04 07:44:14.137487+01 | 1486190654.13749 | pgbench_history  |        226631680
 2017-02-04 07:44:14.137487+01 | 1486190654.13749 | pgbench_branches |         19177472

 2017-02-04 07:44:15.244978+01 | 1486190655.24498 | pgbench_accounts |      13916651520
 2017-02-04 07:44:15.244978+01 | 1486190655.24498 | pgbench_tellers  |         34455552
 2017-02-04 07:44:15.244978+01 | 1486190655.24498 | pgbench_history  |        229793792
 2017-02-04 07:44:15.244978+01 | 1486190655.24498 | pgbench_branches |         19177472

 2017-02-04 07:44:16.339247+01 | 1486190656.33925 | pgbench_accounts |      13916651520
 2017-02-04 07:44:16.339247+01 | 1486190656.33925 | pgbench_tellers  |         34455552
 2017-02-04 07:44:16.339247+01 | 1486190656.33925 | pgbench_history  |        230670336
 2017-02-04 07:44:16.339247+01 | 1486190656.33925 | pgbench_branches |         19177472

 2017-02-04 07:44:17.429859+01 | 1486190657.42986 | pgbench_accounts |      13916651520
 2017-02-04 07:44:17.429859+01 | 1486190657.42986 | pgbench_tellers  |         34455552
 2017-02-04 07:44:17.429859+01 | 1486190657.42986 | pgbench_history  |        233693184
 2017-02-04 07:44:17.429859+01 | 1486190657.42986 | pgbench_branches |         19177472

 2017-02-04 07:44:18.511327+01 | 1486190658.51133 | pgbench_accounts |      13916651520
 2017-02-04 07:44:18.511327+01 | 1486190658.51133 | pgbench_tellers  |         34455552
 2017-02-04 07:44:18.511327+01 | 1486190658.51133 | pgbench_history  |        234373120
 2017-02-04 07:44:18.511327+01 | 1486190658.51133 | pgbench_branches |         19177472

 2017-02-04 07:44:19.588926+01 | 1486190659.58893 | pgbench_accounts |      13916651520
 2017-02-04 07:44:19.588926+01 | 1486190659.58893 | pgbench_tellers  |         34455552
 2017-02-04 07:44:19.588926+01 | 1486190659.58893 | pgbench_history  |        235782144
 2017-02-04 07:44:19.588926+01 | 1486190659.58893 | pgbench_branches |         19177472

 2017-02-04 07:44:20.665975+01 | 1486190660.66598 | pgbench_accounts |      13916651520
 2017-02-04 07:44:20.665975+01 | 1486190660.66598 | pgbench_tellers  |         34455552
 2017-02-04 07:44:20.665975+01 | 1486190660.66598 | pgbench_history  |        237838336
 2017-02-04 07:44:20.665975+01 | 1486190660.66598 | pgbench_branches |         19177472

 2017-02-04 07:44:21.753074+01 | 1486190661.75307 | pgbench_accounts |      13916651520
 2017-02-04 07:44:21.753074+01 | 1486190661.75307 | pgbench_tellers  |         34455552
 2017-02-04 07:44:21.753074+01 | 1486190661.75307 | pgbench_history  |        241655808
 2017-02-04 07:44:21.753074+01 | 1486190661.75307 | pgbench_branches |         19177472

 2017-02-04 07:44:22.841657+01 | 1486190662.84166 | pgbench_accounts |      13916651520
 2017-02-04 07:44:22.841657+01 | 1486190662.84166 | pgbench_tellers  |         34455552
 2017-02-04 07:44:22.841657+01 | 1486190662.84166 | pgbench_history  |        241655808
 2017-02-04 07:44:22.841657+01 | 1486190662.84166 | pgbench_branches |         19177472

 2017-02-04 07:44:23.932849+01 | 1486190663.93285 | pgbench_accounts |      13916651520
 2017-02-04 07:44:23.932849+01 | 1486190663.93285 | pgbench_tellers  |         34455552
 2017-02-04 07:44:23.932849+01 | 1486190663.93285 | pgbench_history  |        243556352
 2017-02-04 07:44:23.932849+01 | 1486190663.93285 | pgbench_branches |         19177472

 2017-02-04 07:44:25.019171+01 | 1486190665.01917 | pgbench_accounts |      13916651520
 2017-02-04 07:44:25.019171+01 | 1486190665.01917 | pgbench_tellers  |         34455552
 2017-02-04 07:44:25.019171+01 | 1486190665.01917 | pgbench_history  |        244924416
 2017-02-04 07:44:25.019171+01 | 1486190665.01917 | pgbench_branches |         19177472

 2017-02-04 07:44:26.111352+01 | 1486190666.11135 | pgbench_accounts |      13916651520
 2017-02-04 07:44:26.111352+01 | 1486190666.11135 | pgbench_tellers  |         34455552
 2017-02-04 07:44:26.111352+01 | 1486190666.11135 | pgbench_history  |        246833152
 2017-02-04 07:44:26.111352+01 | 1486190666.11135 | pgbench_branches |         19177472

 2017-02-04 07:44:27.207542+01 | 1486190667.20754 | pgbench_accounts |      13916651520
 2017-02-04 07:44:27.207542+01 | 1486190667.20754 | pgbench_tellers  |         34455552
 2017-02-04 07:44:27.207542+01 | 1486190667.20754 | pgbench_history  |        248987648
 2017-02-04 07:44:27.207542+01 | 1486190667.20754 | pgbench_branches |         19177472

 2017-02-04 07:44:28.309537+01 | 1486190668.30954 | pgbench_accounts |      13916651520
 2017-02-04 07:44:28.309537+01 | 1486190668.30954 | pgbench_tellers  |         34455552
 2017-02-04 07:44:28.309537+01 | 1486190668.30954 | pgbench_history  |        249667584
 2017-02-04 07:44:28.309537+01 | 1486190668.30954 | pgbench_branches |         19177472

 2017-02-04 07:44:29.399119+01 | 1486190669.39912 | pgbench_accounts |      13916651520
 2017-02-04 07:44:29.399119+01 | 1486190669.39912 | pgbench_tellers  |         34455552
 2017-02-04 07:44:29.399119+01 | 1486190669.39912 | pgbench_history  |        250863616
 2017-02-04 07:44:29.399119+01 | 1486190669.39912 | pgbench_branches |         19177472

 2017-02-04 07:44:30.50608+01 | 1486190670.50608 | pgbench_accounts |      13916651520
 2017-02-04 07:44:30.50608+01 | 1486190670.50608 | pgbench_tellers  |         34455552
 2017-02-04 07:44:30.50608+01 | 1486190670.50608 | pgbench_history  |        252575744
 2017-02-04 07:44:30.50608+01 | 1486190670.50608 | pgbench_branches |         19177472

 2017-02-04 07:44:31.603637+01 | 1486190671.60364 | pgbench_accounts |      13916651520
 2017-02-04 07:44:31.603637+01 | 1486190671.60364 | pgbench_tellers  |         34455552
 2017-02-04 07:44:31.603637+01 | 1486190671.60364 | pgbench_history  |        254468096
 2017-02-04 07:44:31.603637+01 | 1486190671.60364 | pgbench_branches |         19177472

 2017-02-04 07:44:32.680287+01 | 1486190672.68029 | pgbench_accounts |      13916651520
 2017-02-04 07:44:32.680287+01 | 1486190672.68029 | pgbench_tellers  |         34455552
 2017-02-04 07:44:32.680287+01 | 1486190672.68029 | pgbench_history  |        257163264
 2017-02-04 07:44:32.680287+01 | 1486190672.68029 | pgbench_branches |         19177472

 2017-02-04 07:44:33.747268+01 | 1486190673.74727 | pgbench_accounts |      13916651520
 2017-02-04 07:44:33.747268+01 | 1486190673.74727 | pgbench_tellers  |         34455552
 2017-02-04 07:44:33.747268+01 | 1486190673.74727 | pgbench_history  |        257163264
 2017-02-04 07:44:33.747268+01 | 1486190673.74727 | pgbench_branches |         19177472

 2017-02-04 07:44:34.830466+01 | 1486190674.83047 | pgbench_accounts |      13916651520
 2017-02-04 07:44:34.830466+01 | 1486190674.83047 | pgbench_tellers  |         34455552
 2017-02-04 07:44:34.830466+01 | 1486190674.83047 | pgbench_history  |        258859008
 2017-02-04 07:44:34.830466+01 | 1486190674.83047 | pgbench_branches |         19177472

 2017-02-04 07:44:35.922757+01 | 1486190675.92276 | pgbench_accounts |      13916651520
 2017-02-04 07:44:35.922757+01 | 1486190675.92276 | pgbench_tellers  |         34455552
 2017-02-04 07:44:35.922757+01 | 1486190675.92276 | pgbench_history  |        260030464
 2017-02-04 07:44:35.922757+01 | 1486190675.92276 | pgbench_branches |         19177472

 2017-02-04 07:44:37.008758+01 | 1486190677.00876 | pgbench_accounts |      13916651520
 2017-02-04 07:44:37.008758+01 | 1486190677.00876 | pgbench_tellers  |         34455552
 2017-02-04 07:44:37.008758+01 | 1486190677.00876 | pgbench_history  |        261365760
 2017-02-04 07:44:37.008758+01 | 1486190677.00876 | pgbench_branches |         19177472

 2017-02-04 07:44:38.098514+01 | 1486190678.09851 | pgbench_accounts |      13916651520
 2017-02-04 07:44:38.098514+01 | 1486190678.09851 | pgbench_tellers  |         34455552
 2017-02-04 07:44:38.098514+01 | 1486190678.09851 | pgbench_history  |        264224768
 2017-02-04 07:44:38.098514+01 | 1486190678.09851 | pgbench_branches |         19177472

 2017-02-04 07:44:39.19629+01 | 1486190679.19629 | pgbench_accounts |      13916651520
 2017-02-04 07:44:39.19629+01 | 1486190679.19629 | pgbench_tellers  |         34455552
 2017-02-04 07:44:39.19629+01 | 1486190679.19629 | pgbench_history  |        265723904
 2017-02-04 07:44:39.19629+01 | 1486190679.19629 | pgbench_branches |         19177472

 2017-02-04 07:44:40.292987+01 | 1486190680.29299 | pgbench_accounts |      13916651520
 2017-02-04 07:44:40.292987+01 | 1486190680.29299 | pgbench_tellers  |         34455552
 2017-02-04 07:44:40.292987+01 | 1486190680.29299 | pgbench_history  |        266248192
 2017-02-04 07:44:40.292987+01 | 1486190680.29299 | pgbench_branches |         19177472

 2017-02-04 07:44:41.381599+01 | 1486190681.3816 | pgbench_accounts |      13916651520
 2017-02-04 07:44:41.381599+01 | 1486190681.3816 | pgbench_tellers  |         34455552
 2017-02-04 07:44:41.381599+01 | 1486190681.3816 | pgbench_history  |        267608064
 2017-02-04 07:44:41.381599+01 | 1486190681.3816 | pgbench_branches |         19177472

 2017-02-04 07:44:42.477511+01 | 1486190682.47751 | pgbench_accounts |      13916651520
 2017-02-04 07:44:42.477511+01 | 1486190682.47751 | pgbench_tellers  |         34455552
 2017-02-04 07:44:42.477511+01 | 1486190682.47751 | pgbench_history  |        269131776
 2017-02-04 07:44:42.477511+01 | 1486190682.47751 | pgbench_branches |         19177472

 2017-02-04 07:44:43.55002+01 | 1486190683.55002 | pgbench_accounts |      13916651520
 2017-02-04 07:44:43.55002+01 | 1486190683.55002 | pgbench_tellers  |         34455552
 2017-02-04 07:44:43.55002+01 | 1486190683.55002 | pgbench_history  |        270327808
 2017-02-04 07:44:43.55002+01 | 1486190683.55002 | pgbench_branches |         19177472

 2017-02-04 07:44:44.640811+01 | 1486190684.64081 | pgbench_accounts |      13916651520
 2017-02-04 07:44:44.640811+01 | 1486190684.64081 | pgbench_tellers  |         34455552
 2017-02-04 07:44:44.640811+01 | 1486190684.64081 | pgbench_history  |        272359424
 2017-02-04 07:44:44.640811+01 | 1486190684.64081 | pgbench_branches |         19177472

 2017-02-04 07:44:45.721944+01 | 1486190685.72194 | pgbench_accounts |      13916651520
 2017-02-04 07:44:45.721944+01 | 1486190685.72194 | pgbench_tellers  |         34455552
 2017-02-04 07:44:45.721944+01 | 1486190685.72194 | pgbench_history  |        273391616
 2017-02-04 07:44:45.721944+01 | 1486190685.72194 | pgbench_branches |         19177472

 2017-02-04 07:44:46.805057+01 | 1486190686.80506 | pgbench_accounts |      13916651520
 2017-02-04 07:44:46.805057+01 | 1486190686.80506 | pgbench_tellers  |         34455552
 2017-02-04 07:44:46.805057+01 | 1486190686.80506 | pgbench_history  |        275300352
 2017-02-04 07:44:46.805057+01 | 1486190686.80506 | pgbench_branches |         19177472

 2017-02-04 07:44:47.883918+01 | 1486190687.88392 | pgbench_accounts |      13916651520
 2017-02-04 07:44:47.883918+01 | 1486190687.88392 | pgbench_tellers  |         34455552
 2017-02-04 07:44:47.883918+01 | 1486190687.88392 | pgbench_history  |        276996096
 2017-02-04 07:44:47.883918+01 | 1486190687.88392 | pgbench_branches |         19177472

 2017-02-04 07:44:48.955475+01 | 1486190688.95548 | pgbench_accounts |      13916651520
 2017-02-04 07:44:48.955475+01 | 1486190688.95548 | pgbench_tellers  |         34455552
 2017-02-04 07:44:48.955475+01 | 1486190688.95548 | pgbench_history  |        279035904
 2017-02-04 07:44:48.955475+01 | 1486190688.95548 | pgbench_branches |         19177472

 2017-02-04 07:44:50.035188+01 | 1486190690.03519 | pgbench_accounts |      13916651520
 2017-02-04 07:44:50.035188+01 | 1486190690.03519 | pgbench_tellers  |         34455552
 2017-02-04 07:44:50.035188+01 | 1486190690.03519 | pgbench_history  |        280887296
 2017-02-04 07:44:50.035188+01 | 1486190690.03519 | pgbench_branches |         19177472

 2017-02-04 07:44:51.113642+01 | 1486190691.11364 | pgbench_accounts |      13916651520
 2017-02-04 07:44:51.113642+01 | 1486190691.11364 | pgbench_tellers  |         34455552
 2017-02-04 07:44:51.113642+01 | 1486190691.11364 | pgbench_history  |        282935296
 2017-02-04 07:44:51.113642+01 | 1486190691.11364 | pgbench_branches |         19177472

 2017-02-04 07:44:52.203015+01 | 1486190692.20302 | pgbench_accounts |      13916651520
 2017-02-04 07:44:52.203015+01 | 1486190692.20302 | pgbench_tellers  |         34455552
 2017-02-04 07:44:52.203015+01 | 1486190692.20302 | pgbench_history  |        284876800
 2017-02-04 07:44:52.203015+01 | 1486190692.20302 | pgbench_branches |         19177472

 2017-02-04 07:44:53.280439+01 | 1486190693.28044 | pgbench_accounts |      13916651520
 2017-02-04 07:44:53.280439+01 | 1486190693.28044 | pgbench_tellers  |         34455552
 2017-02-04 07:44:53.280439+01 | 1486190693.28044 | pgbench_history  |        286793728
 2017-02-04 07:44:53.280439+01 | 1486190693.28044 | pgbench_branches |         19177472

 2017-02-04 07:44:54.364454+01 | 1486190694.36445 | pgbench_accounts |      13916651520
 2017-02-04 07:44:54.364454+01 | 1486190694.36445 | pgbench_tellers  |         34455552
 2017-02-04 07:44:54.364454+01 | 1486190694.36445 | pgbench_history  |        289988608
 2017-02-04 07:44:54.364454+01 | 1486190694.36445 | pgbench_branches |         19177472

 2017-02-04 07:44:55.454683+01 | 1486190695.45468 | pgbench_accounts |      13916651520
 2017-02-04 07:44:55.454683+01 | 1486190695.45468 | pgbench_tellers  |         34455552
 2017-02-04 07:44:55.454683+01 | 1486190695.45468 | pgbench_history  |        291651584
 2017-02-04 07:44:55.454683+01 | 1486190695.45468 | pgbench_branches |         19177472

 2017-02-04 07:44:56.528967+01 | 1486190696.52897 | pgbench_accounts |      13916651520
 2017-02-04 07:44:56.528967+01 | 1486190696.52897 | pgbench_tellers  |         34455552
 2017-02-04 07:44:56.528967+01 | 1486190696.52897 | pgbench_history  |        292495360
 2017-02-04 07:44:56.528967+01 | 1486190696.52897 | pgbench_branches |         19177472

 2017-02-04 07:44:57.609355+01 | 1486190697.60935 | pgbench_accounts |      13916651520
 2017-02-04 07:44:57.609355+01 | 1486190697.60935 | pgbench_tellers  |         34455552
 2017-02-04 07:44:57.609355+01 | 1486190697.60935 | pgbench_history  |        293920768
 2017-02-04 07:44:57.609355+01 | 1486190697.60935 | pgbench_branches |         19177472

 2017-02-04 07:44:58.667695+01 | 1486190698.6677 | pgbench_accounts |      13916651520
 2017-02-04 07:44:58.667695+01 | 1486190698.6677 | pgbench_tellers  |         34455552
 2017-02-04 07:44:58.667695+01 | 1486190698.6677 | pgbench_history  |        295485440
 2017-02-04 07:44:58.667695+01 | 1486190698.6677 | pgbench_branches |         19177472

 2017-02-04 07:44:59.741806+01 | 1486190699.74181 | pgbench_accounts |      13916651520
 2017-02-04 07:44:59.741806+01 | 1486190699.74181 | pgbench_tellers  |         34455552
 2017-02-04 07:44:59.741806+01 | 1486190699.74181 | pgbench_history  |        297041920
 2017-02-04 07:44:59.741806+01 | 1486190699.74181 | pgbench_branches |         19177472

 2017-02-04 07:45:00.818474+01 | 1486190700.81847 | pgbench_accounts |      13916651520
 2017-02-04 07:45:00.818474+01 | 1486190700.81847 | pgbench_tellers  |         34455552
 2017-02-04 07:45:00.818474+01 | 1486190700.81847 | pgbench_history  |        298237952
 2017-02-04 07:45:00.818474+01 | 1486190700.81847 | pgbench_branches |         19177472

 2017-02-04 07:45:01.906798+01 | 1486190701.9068 | pgbench_accounts |      13916651520
 2017-02-04 07:45:01.906798+01 | 1486190701.9068 | pgbench_tellers  |         34455552
 2017-02-04 07:45:01.906798+01 | 1486190701.9068 | pgbench_history  |        301449216
 2017-02-04 07:45:01.906798+01 | 1486190701.9068 | pgbench_branches |         19177472

 2017-02-04 07:45:03.001457+01 | 1486190703.00146 | pgbench_accounts |      13916651520
 2017-02-04 07:45:03.001457+01 | 1486190703.00146 | pgbench_tellers  |         34455552
 2017-02-04 07:45:03.001457+01 | 1486190703.00146 | pgbench_history  |        302153728
 2017-02-04 07:45:03.001457+01 | 1486190703.00146 | pgbench_branches |         19177472

 2017-02-04 07:45:04.089089+01 | 1486190704.08909 | pgbench_accounts |      13916651520
 2017-02-04 07:45:04.089089+01 | 1486190704.08909 | pgbench_tellers  |         34455552
 2017-02-04 07:45:04.089089+01 | 1486190704.08909 | pgbench_history  |        304005120
 2017-02-04 07:45:04.089089+01 | 1486190704.08909 | pgbench_branches |         19177472

 2017-02-04 07:45:05.187183+01 | 1486190705.18718 | pgbench_accounts |      13916651520
 2017-02-04 07:45:05.187183+01 | 1486190705.18718 | pgbench_tellers  |         34455552
 2017-02-04 07:45:05.187183+01 | 1486190705.18718 | pgbench_history  |        305717248
 2017-02-04 07:45:05.187183+01 | 1486190705.18718 | pgbench_branches |         19177472

 2017-02-04 07:45:06.280757+01 | 1486190706.28076 | pgbench_accounts |      13916651520
 2017-02-04 07:45:06.280757+01 | 1486190706.28076 | pgbench_tellers  |         34455552
 2017-02-04 07:45:06.280757+01 | 1486190706.28076 | pgbench_history  |        307404800
 2017-02-04 07:45:06.280757+01 | 1486190706.28076 | pgbench_branches |         19177472

 2017-02-04 07:45:07.367258+01 | 1486190707.36726 | pgbench_accounts |      13916651520
 2017-02-04 07:45:07.367258+01 | 1486190707.36726 | pgbench_tellers  |         34455552
 2017-02-04 07:45:07.367258+01 | 1486190707.36726 | pgbench_history  |        309297152
 2017-02-04 07:45:07.367258+01 | 1486190707.36726 | pgbench_branches |         19177472

 2017-02-04 07:45:08.45166+01 | 1486190708.45166 | pgbench_accounts |      13916651520
 2017-02-04 07:45:08.45166+01 | 1486190708.45166 | pgbench_tellers  |         34455552
 2017-02-04 07:45:08.45166+01 | 1486190708.45166 | pgbench_history  |        311435264
 2017-02-04 07:45:08.45166+01 | 1486190708.45166 | pgbench_branches |         19177472

 2017-02-04 07:45:09.546499+01 | 1486190709.5465 | pgbench_accounts |      13916651520
 2017-02-04 07:45:09.546499+01 | 1486190709.5465 | pgbench_tellers  |         34455552
 2017-02-04 07:45:09.546499+01 | 1486190709.5465 | pgbench_history  |        312991744
 2017-02-04 07:45:09.546499+01 | 1486190709.5465 | pgbench_branches |         19177472

 2017-02-04 07:45:10.643122+01 | 1486190710.64312 | pgbench_accounts |      13916651520
 2017-02-04 07:45:10.643122+01 | 1486190710.64312 | pgbench_tellers  |         34455552
 2017-02-04 07:45:10.643122+01 | 1486190710.64312 | pgbench_history  |        314548224
 2017-02-04 07:45:10.643122+01 | 1486190710.64312 | pgbench_branches |         19177472

 2017-02-04 07:45:11.736829+01 | 1486190711.73683 | pgbench_accounts |      13916651520
 2017-02-04 07:45:11.736829+01 | 1486190711.73683 | pgbench_tellers  |         34455552
 2017-02-04 07:45:11.736829+01 | 1486190711.73683 | pgbench_history  |        316989440
 2017-02-04 07:45:11.736829+01 | 1486190711.73683 | pgbench_branches |         19177472

 2017-02-04 07:45:12.819747+01 | 1486190712.81975 | pgbench_accounts |      13916651520
 2017-02-04 07:45:12.819747+01 | 1486190712.81975 | pgbench_tellers  |         34455552
 2017-02-04 07:45:12.819747+01 | 1486190712.81975 | pgbench_history  |        319193088
 2017-02-04 07:45:12.819747+01 | 1486190712.81975 | pgbench_branches |         19177472

 2017-02-04 07:45:13.907289+01 | 1486190713.90729 | pgbench_accounts |      13916651520
 2017-02-04 07:45:13.907289+01 | 1486190713.90729 | pgbench_tellers  |         34455552
 2017-02-04 07:45:13.907289+01 | 1486190713.90729 | pgbench_history  |        324485120
 2017-02-04 07:45:13.907289+01 | 1486190713.90729 | pgbench_branches |         19177472

 2017-02-04 07:45:14.996306+01 | 1486190714.99631 | pgbench_accounts |      13916651520
 2017-02-04 07:45:14.996306+01 | 1486190714.99631 | pgbench_tellers  |         34455552
 2017-02-04 07:45:14.996306+01 | 1486190714.99631 | pgbench_history  |        324485120
 2017-02-04 07:45:14.996306+01 | 1486190714.99631 | pgbench_branches |         19177472

 2017-02-04 07:45:16.082551+01 | 1486190716.08255 | pgbench_accounts |      13916651520
 2017-02-04 07:45:16.082551+01 | 1486190716.08255 | pgbench_tellers  |         34455552
 2017-02-04 07:45:16.082551+01 | 1486190716.08255 | pgbench_history  |        324485120
 2017-02-04 07:45:16.082551+01 | 1486190716.08255 | pgbench_branches |         19177472

 2017-02-04 07:45:17.164926+01 | 1486190717.16493 | pgbench_accounts |      13916651520
 2017-02-04 07:45:17.164926+01 | 1486190717.16493 | pgbench_tellers  |         34455552
 2017-02-04 07:45:17.164926+01 | 1486190717.16493 | pgbench_history  |        327376896
 2017-02-04 07:45:17.164926+01 | 1486190717.16493 | pgbench_branches |         19177472

 2017-02-04 07:45:18.267485+01 | 1486190718.26748 | pgbench_accounts |      13916651520
 2017-02-04 07:45:18.267485+01 | 1486190718.26748 | pgbench_tellers  |         34455552
 2017-02-04 07:45:18.267485+01 | 1486190718.26748 | pgbench_history  |        328581120
 2017-02-04 07:45:18.267485+01 | 1486190718.26748 | pgbench_branches |         19177472

 2017-02-04 07:45:19.356623+01 | 1486190719.35662 | pgbench_accounts |      13916651520
 2017-02-04 07:45:19.356623+01 | 1486190719.35662 | pgbench_tellers  |         34455552
 2017-02-04 07:45:19.356623+01 | 1486190719.35662 | pgbench_history  |        330620928
 2017-02-04 07:45:19.356623+01 | 1486190719.35662 | pgbench_branches |         19177472

 2017-02-04 07:45:20.444229+01 | 1486190720.44423 | pgbench_accounts |      13916651520
 2017-02-04 07:45:20.444229+01 | 1486190720.44423 | pgbench_tellers  |         34455552
 2017-02-04 07:45:20.444229+01 | 1486190720.44423 | pgbench_history  |        332529664
 2017-02-04 07:45:20.444229+01 | 1486190720.44423 | pgbench_branches |         19177472

 2017-02-04 07:45:21.540202+01 | 1486190721.5402 | pgbench_accounts |      13916651520
 2017-02-04 07:45:21.540202+01 | 1486190721.5402 | pgbench_tellers  |         34455552
 2017-02-04 07:45:21.540202+01 | 1486190721.5402 | pgbench_history  |        335855616
 2017-02-04 07:45:21.540202+01 | 1486190721.5402 | pgbench_branches |         19177472

 2017-02-04 07:45:22.635021+01 | 1486190722.63502 | pgbench_accounts |      13916651520
 2017-02-04 07:45:22.635021+01 | 1486190722.63502 | pgbench_tellers  |         34455552
 2017-02-04 07:45:22.635021+01 | 1486190722.63502 | pgbench_history  |        336232448
 2017-02-04 07:45:22.635021+01 | 1486190722.63502 | pgbench_branches |         19177472

 2017-02-04 07:45:23.72717+01 | 1486190723.72717 | pgbench_accounts |      13916651520
 2017-02-04 07:45:23.72717+01 | 1486190723.72717 | pgbench_tellers  |         34455552
 2017-02-04 07:45:23.72717+01 | 1486190723.72717 | pgbench_history  |        339763200
 2017-02-04 07:45:23.72717+01 | 1486190723.72717 | pgbench_branches |         19177472

 2017-02-04 07:45:24.81711+01 | 1486190724.81711 | pgbench_accounts |      13916651520
 2017-02-04 07:45:24.81711+01 | 1486190724.81711 | pgbench_tellers  |         34455552
 2017-02-04 07:45:24.81711+01 | 1486190724.81711 | pgbench_history  |        340606976
 2017-02-04 07:45:24.81711+01 | 1486190724.81711 | pgbench_branches |         19177472

 2017-02-04 07:45:25.907702+01 | 1486190725.9077 | pgbench_accounts |      13916651520
 2017-02-04 07:45:25.907702+01 | 1486190725.9077 | pgbench_tellers  |         34455552
 2017-02-04 07:45:25.907702+01 | 1486190725.9077 | pgbench_history  |        343007232
 2017-02-04 07:45:25.907702+01 | 1486190725.9077 | pgbench_branches |         19177472

 2017-02-04 07:45:26.991018+01 | 1486190726.99102 | pgbench_accounts |      13916651520
 2017-02-04 07:45:26.991018+01 | 1486190726.99102 | pgbench_tellers  |         34455552
 2017-02-04 07:45:26.991018+01 | 1486190726.99102 | pgbench_history  |        344014848
 2017-02-04 07:45:26.991018+01 | 1486190726.99102 | pgbench_branches |         19177472

 2017-02-04 07:45:28.077676+01 | 1486190728.07768 | pgbench_accounts |      13916651520
 2017-02-04 07:45:28.077676+01 | 1486190728.07768 | pgbench_tellers  |         34455552
 2017-02-04 07:45:28.077676+01 | 1486190728.07768 | pgbench_history  |        346710016
 2017-02-04 07:45:28.077676+01 | 1486190728.07768 | pgbench_branches |         19177472

 2017-02-04 07:45:29.166375+01 | 1486190729.16637 | pgbench_accounts |      13916651520
 2017-02-04 07:45:29.166375+01 | 1486190729.16637 | pgbench_tellers  |         34455552
 2017-02-04 07:45:29.166375+01 | 1486190729.16637 | pgbench_history  |        347938816
 2017-02-04 07:45:29.166375+01 | 1486190729.16637 | pgbench_branches |         19177472

 2017-02-04 07:45:30.2526+01 | 1486190730.2526 | pgbench_accounts |      13916651520
 2017-02-04 07:45:30.2526+01 | 1486190730.2526 | pgbench_tellers  |         34455552
 2017-02-04 07:45:30.2526+01 | 1486190730.2526 | pgbench_history  |        349954048
 2017-02-04 07:45:30.2526+01 | 1486190730.2526 | pgbench_branches |         19177472

 2017-02-04 07:45:31.340318+01 | 1486190731.34032 | pgbench_accounts |      13916651520
 2017-02-04 07:45:31.340318+01 | 1486190731.34032 | pgbench_tellers  |         34455552
 2017-02-04 07:45:31.340318+01 | 1486190731.34032 | pgbench_history  |        352133120
 2017-02-04 07:45:31.340318+01 | 1486190731.34032 | pgbench_branches |         19177472

 2017-02-04 07:45:32.435312+01 | 1486190732.43531 | pgbench_accounts |      13916651520
 2017-02-04 07:45:32.435312+01 | 1486190732.43531 | pgbench_tellers  |         34455552
 2017-02-04 07:45:32.435312+01 | 1486190732.43531 | pgbench_history  |        353845248
 2017-02-04 07:45:32.435312+01 | 1486190732.43531 | pgbench_branches |         19177472

 2017-02-04 07:45:33.531746+01 | 1486190733.53175 | pgbench_accounts |      13916651520
 2017-02-04 07:45:33.531746+01 | 1486190733.53175 | pgbench_tellers  |         34455552
 2017-02-04 07:45:33.531746+01 | 1486190733.53175 | pgbench_history  |        356982784
 2017-02-04 07:45:33.531746+01 | 1486190733.53175 | pgbench_branches |         19177472

 2017-02-04 07:45:34.632969+01 | 1486190734.63297 | pgbench_accounts |      13916651520
 2017-02-04 07:45:34.632969+01 | 1486190734.63297 | pgbench_tellers  |         34455552
 2017-02-04 07:45:34.632969+01 | 1486190734.63297 | pgbench_history  |        357498880
 2017-02-04 07:45:34.632969+01 | 1486190734.63297 | pgbench_branches |         19177472

 2017-02-04 07:45:35.71827+01 | 1486190735.71827 | pgbench_accounts |      13916651520
 2017-02-04 07:45:35.71827+01 | 1486190735.71827 | pgbench_tellers  |         34455552
 2017-02-04 07:45:35.71827+01 | 1486190735.71827 | pgbench_history  |        359251968
 2017-02-04 07:45:35.71827+01 | 1486190735.71827 | pgbench_branches |         19177472

 2017-02-04 07:45:36.798713+01 | 1486190736.79871 | pgbench_accounts |      13916651520
 2017-02-04 07:45:36.798713+01 | 1486190736.79871 | pgbench_tellers  |         34455552
 2017-02-04 07:45:36.798713+01 | 1486190736.79871 | pgbench_history  |        361275392
 2017-02-04 07:45:36.798713+01 | 1486190736.79871 | pgbench_branches |         19177472

 2017-02-04 07:45:37.883183+01 | 1486190737.88318 | pgbench_accounts |      13916651520
 2017-02-04 07:45:37.883183+01 | 1486190737.88318 | pgbench_tellers  |         34455552
 2017-02-04 07:45:37.883183+01 | 1486190737.88318 | pgbench_history  |        363479040
 2017-02-04 07:45:37.883183+01 | 1486190737.88318 | pgbench_branches |         19177472

 2017-02-04 07:45:38.960596+01 | 1486190738.9606 | pgbench_accounts |      13916651520
 2017-02-04 07:45:38.960596+01 | 1486190738.9606 | pgbench_tellers  |         34455552
 2017-02-04 07:45:38.960596+01 | 1486190738.9606 | pgbench_history  |        365330432
 2017-02-04 07:45:38.960596+01 | 1486190738.9606 | pgbench_branches |         19177472

 2017-02-04 07:45:40.038801+01 | 1486190740.0388 | pgbench_accounts |      13916651520
 2017-02-04 07:45:40.038801+01 | 1486190740.0388 | pgbench_tellers  |         34455552
 2017-02-04 07:45:40.038801+01 | 1486190740.0388 | pgbench_history  |        367902720
 2017-02-04 07:45:40.038801+01 | 1486190740.0388 | pgbench_branches |         19177472

 2017-02-04 07:45:41.123595+01 | 1486190741.12359 | pgbench_accounts |      13916651520
 2017-02-04 07:45:41.123595+01 | 1486190741.12359 | pgbench_tellers  |         34455552
 2017-02-04 07:45:41.123595+01 | 1486190741.12359 | pgbench_history  |        369442816
 2017-02-04 07:45:41.123595+01 | 1486190741.12359 | pgbench_branches |         19177472

 2017-02-04 07:45:42.208839+01 | 1486190742.20884 | pgbench_accounts |      13916651520
 2017-02-04 07:45:42.208839+01 | 1486190742.20884 | pgbench_tellers  |         34455552
 2017-02-04 07:45:42.208839+01 | 1486190742.20884 | pgbench_history  |        372113408
 2017-02-04 07:45:42.208839+01 | 1486190742.20884 | pgbench_branches |         19177472

 2017-02-04 07:45:43.282952+01 | 1486190743.28295 | pgbench_accounts |      13916651520
 2017-02-04 07:45:43.282952+01 | 1486190743.28295 | pgbench_tellers  |         34455552
 2017-02-04 07:45:43.282952+01 | 1486190743.28295 | pgbench_history  |        373121024
 2017-02-04 07:45:43.282952+01 | 1486190743.28295 | pgbench_branches |         19177472

 2017-02-04 07:45:44.355511+01 | 1486190744.35551 | pgbench_accounts |      13916651520
 2017-02-04 07:45:44.355511+01 | 1486190744.35551 | pgbench_tellers  |         34455552
 2017-02-04 07:45:44.355511+01 | 1486190744.35551 | pgbench_history  |        375463936
 2017-02-04 07:45:44.355511+01 | 1486190744.35551 | pgbench_branches |         19177472

 2017-02-04 07:45:45.424427+01 | 1486190745.42443 | pgbench_accounts |      13916651520
 2017-02-04 07:45:45.424427+01 | 1486190745.42443 | pgbench_tellers  |         34455552
 2017-02-04 07:45:45.424427+01 | 1486190745.42443 | pgbench_history  |        376963072
 2017-02-04 07:45:45.424427+01 | 1486190745.42443 | pgbench_branches |         19177472

 2017-02-04 07:45:46.489558+01 | 1486190746.48956 | pgbench_accounts |      13916651520
 2017-02-04 07:45:46.489558+01 | 1486190746.48956 | pgbench_tellers  |         34455552
 2017-02-04 07:45:46.489558+01 | 1486190746.48956 | pgbench_history  |        378839040
 2017-02-04 07:45:46.489558+01 | 1486190746.48956 | pgbench_branches |         19177472

 2017-02-04 07:45:47.554427+01 | 1486190747.55443 | pgbench_accounts |      13916651520
 2017-02-04 07:45:47.554427+01 | 1486190747.55443 | pgbench_tellers  |         34455552
 2017-02-04 07:45:47.554427+01 | 1486190747.55443 | pgbench_history  |        380854272
 2017-02-04 07:45:47.554427+01 | 1486190747.55443 | pgbench_branches |         19177472

 2017-02-04 07:45:48.637206+01 | 1486190748.63721 | pgbench_accounts |      13916651520
 2017-02-04 07:45:48.637206+01 | 1486190748.63721 | pgbench_tellers  |         34455552
 2017-02-04 07:45:48.637206+01 | 1486190748.63721 | pgbench_history  |        382754816
 2017-02-04 07:45:48.637206+01 | 1486190748.63721 | pgbench_branches |         19177472

 2017-02-04 07:45:49.713227+01 | 1486190749.71323 | pgbench_accounts |      13916651520
 2017-02-04 07:45:49.713227+01 | 1486190749.71323 | pgbench_tellers  |         34455552
 2017-02-04 07:45:49.713227+01 | 1486190749.71323 | pgbench_history  |        384860160
 2017-02-04 07:45:49.713227+01 | 1486190749.71323 | pgbench_branches |         19177472

 2017-02-04 07:45:50.791698+01 | 1486190750.7917 | pgbench_accounts |      13916651520
 2017-02-04 07:45:50.791698+01 | 1486190750.7917 | pgbench_tellers  |         34455552
 2017-02-04 07:45:50.791698+01 | 1486190750.7917 | pgbench_history  |        387440640
 2017-02-04 07:45:50.791698+01 | 1486190750.7917 | pgbench_branches |         19177472

 2017-02-04 07:45:51.867948+01 | 1486190751.86795 | pgbench_accounts |      13916651520
 2017-02-04 07:45:51.867948+01 | 1486190751.86795 | pgbench_tellers  |         34455552
 2017-02-04 07:45:51.867948+01 | 1486190751.86795 | pgbench_history  |        388448256
 2017-02-04 07:45:51.867948+01 | 1486190751.86795 | pgbench_branches |         19177472

 2017-02-04 07:45:52.95094+01 | 1486190752.95094 | pgbench_accounts |      13916651520
 2017-02-04 07:45:52.95094+01 | 1486190752.95094 | pgbench_tellers  |         34455552
 2017-02-04 07:45:52.95094+01 | 1486190752.95094 | pgbench_history  |        390791168
 2017-02-04 07:45:52.95094+01 | 1486190752.95094 | pgbench_branches |         19177472

 2017-02-04 07:45:54.041324+01 | 1486190754.04132 | pgbench_accounts |      13916651520
 2017-02-04 07:45:54.041324+01 | 1486190754.04132 | pgbench_tellers  |         34455552
 2017-02-04 07:45:54.041324+01 | 1486190754.04132 | pgbench_history  |        392478720
 2017-02-04 07:45:54.041324+01 | 1486190754.04132 | pgbench_branches |         19177472

 2017-02-04 07:45:55.136395+01 | 1486190755.13639 | pgbench_accounts |      13916651520
 2017-02-04 07:45:55.136395+01 | 1486190755.13639 | pgbench_tellers  |         34455552
 2017-02-04 07:45:55.136395+01 | 1486190755.13639 | pgbench_history  |        395665408
 2017-02-04 07:45:55.136395+01 | 1486190755.13639 | pgbench_branches |         19177472

 2017-02-04 07:45:56.223127+01 | 1486190756.22313 | pgbench_accounts |      13916651520
 2017-02-04 07:45:56.223127+01 | 1486190756.22313 | pgbench_tellers  |         34455552
 2017-02-04 07:45:56.223127+01 | 1486190756.22313 | pgbench_history  |        396845056
 2017-02-04 07:45:56.223127+01 | 1486190756.22313 | pgbench_branches |         19177472

 2017-02-04 07:45:57.312147+01 | 1486190757.31215 | pgbench_accounts |      13916651520
 2017-02-04 07:45:57.312147+01 | 1486190757.31215 | pgbench_tellers  |         34455552
 2017-02-04 07:45:57.312147+01 | 1486190757.31215 | pgbench_history  |        398532608
 2017-02-04 07:45:57.312147+01 | 1486190757.31215 | pgbench_branches |         19177472

 2017-02-04 07:45:58.404564+01 | 1486190758.40456 | pgbench_accounts |      13916651520
 2017-02-04 07:45:58.404564+01 | 1486190758.40456 | pgbench_tellers  |         34455552
 2017-02-04 07:45:58.404564+01 | 1486190758.40456 | pgbench_history  |        401227776
 2017-02-04 07:45:58.404564+01 | 1486190758.40456 | pgbench_branches |         19177472

 2017-02-04 07:45:59.500626+01 | 1486190759.50063 | pgbench_accounts |      13916651520
 2017-02-04 07:45:59.500626+01 | 1486190759.50063 | pgbench_tellers  |         34455552
 2017-02-04 07:45:59.500626+01 | 1486190759.50063 | pgbench_history  |        402235392
 2017-02-04 07:45:59.500626+01 | 1486190759.50063 | pgbench_branches |         19177472

 2017-02-04 07:46:00.592482+01 | 1486190760.59248 | pgbench_accounts |      13916651520
 2017-02-04 07:46:00.592482+01 | 1486190760.59248 | pgbench_tellers  |         34455552
 2017-02-04 07:46:00.592482+01 | 1486190760.59248 | pgbench_history  |        404668416
 2017-02-04 07:46:00.592482+01 | 1486190760.59248 | pgbench_branches |         19177472

 2017-02-04 07:46:01.683622+01 | 1486190761.68362 | pgbench_accounts |      13916651520
 2017-02-04 07:46:01.683622+01 | 1486190761.68362 | pgbench_tellers  |         34455552
 2017-02-04 07:46:01.683622+01 | 1486190761.68362 | pgbench_history  |        406822912
 2017-02-04 07:46:01.683622+01 | 1486190761.68362 | pgbench_branches |         19177472

 2017-02-04 07:46:02.784007+01 | 1486190762.78401 | pgbench_accounts |      13916651520
 2017-02-04 07:46:02.784007+01 | 1486190762.78401 | pgbench_tellers  |         34455552
 2017-02-04 07:46:02.784007+01 | 1486190762.78401 | pgbench_history  |        407879680
 2017-02-04 07:46:02.784007+01 | 1486190762.78401 | pgbench_branches |         19177472

 2017-02-04 07:46:03.876227+01 | 1486190763.87623 | pgbench_accounts |      13916651520
 2017-02-04 07:46:03.876227+01 | 1486190763.87623 | pgbench_tellers  |         34455552
 2017-02-04 07:46:03.876227+01 | 1486190763.87623 | pgbench_history  |        409788416
 2017-02-04 07:46:03.876227+01 | 1486190763.87623 | pgbench_branches |         19177472

 2017-02-04 07:46:04.948691+01 | 1486190764.94869 | pgbench_accounts |      13916651520
 2017-02-04 07:46:04.948691+01 | 1486190764.94869 | pgbench_tellers  |         34455552
 2017-02-04 07:46:04.948691+01 | 1486190764.94869 | pgbench_history  |        411688960
 2017-02-04 07:46:04.948691+01 | 1486190764.94869 | pgbench_branches |         19177472

 2017-02-04 07:46:06.029332+01 | 1486190766.02933 | pgbench_accounts |      13916651520
 2017-02-04 07:46:06.029332+01 | 1486190766.02933 | pgbench_tellers  |         34455552
 2017-02-04 07:46:06.029332+01 | 1486190766.02933 | pgbench_history  |        413540352
 2017-02-04 07:46:06.029332+01 | 1486190766.02933 | pgbench_branches |         19177472

 2017-02-04 07:46:07.11434+01 | 1486190767.11434 | pgbench_accounts |      13916651520
 2017-02-04 07:46:07.11434+01 | 1486190767.11434 | pgbench_tellers  |         34455552
 2017-02-04 07:46:07.11434+01 | 1486190767.11434 | pgbench_history  |        415121408
 2017-02-04 07:46:07.11434+01 | 1486190767.11434 | pgbench_branches |         19177472

 2017-02-04 07:46:08.205476+01 | 1486190768.20548 | pgbench_accounts |      13916651520
 2017-02-04 07:46:08.205476+01 | 1486190768.20548 | pgbench_tellers  |         34455552
 2017-02-04 07:46:08.205476+01 | 1486190768.20548 | pgbench_history  |        417013760
 2017-02-04 07:46:08.205476+01 | 1486190768.20548 | pgbench_branches |         19177472

 2017-02-04 07:46:09.31935+01 | 1486190769.31935 | pgbench_accounts |      13916651520
 2017-02-04 07:46:09.31935+01 | 1486190769.31935 | pgbench_tellers  |         34455552
 2017-02-04 07:46:09.31935+01 | 1486190769.31935 | pgbench_history  |        418447360
 2017-02-04 07:46:09.31935+01 | 1486190769.31935 | pgbench_branches |         19177472

 2017-02-04 07:46:10.416706+01 | 1486190770.41671 | pgbench_accounts |      13916651520
 2017-02-04 07:46:10.416706+01 | 1486190770.41671 | pgbench_tellers  |         34455552
 2017-02-04 07:46:10.416706+01 | 1486190770.41671 | pgbench_history  |        420372480
 2017-02-04 07:46:10.416706+01 | 1486190770.41671 | pgbench_branches |         19177472

 2017-02-04 07:46:11.516196+01 | 1486190771.5162 | pgbench_accounts |      13916651520
 2017-02-04 07:46:11.516196+01 | 1486190771.5162 | pgbench_tellers  |         34455552
 2017-02-04 07:46:11.516196+01 | 1486190771.5162 | pgbench_history  |        421904384
 2017-02-04 07:46:11.516196+01 | 1486190771.5162 | pgbench_branches |         19177472

 2017-02-04 07:46:12.600967+01 | 1486190772.60097 | pgbench_accounts |      13916651520
 2017-02-04 07:46:12.600967+01 | 1486190772.60097 | pgbench_tellers  |         34455552
 2017-02-04 07:46:12.600967+01 | 1486190772.60097 | pgbench_history  |        423452672
 2017-02-04 07:46:12.600967+01 | 1486190772.60097 | pgbench_branches |         19177472

 2017-02-04 07:46:13.676779+01 | 1486190773.67678 | pgbench_accounts |      13916651520
 2017-02-04 07:46:13.676779+01 | 1486190773.67678 | pgbench_tellers  |         34455552
 2017-02-04 07:46:13.676779+01 | 1486190773.67678 | pgbench_history  |        425197568
 2017-02-04 07:46:13.676779+01 | 1486190773.67678 | pgbench_branches |         19177472

 2017-02-04 07:46:14.758741+01 | 1486190774.75874 | pgbench_accounts |      13916651520
 2017-02-04 07:46:14.758741+01 | 1486190774.75874 | pgbench_tellers  |         34455552
 2017-02-04 07:46:14.758741+01 | 1486190774.75874 | pgbench_history  |        427188224
 2017-02-04 07:46:14.758741+01 | 1486190774.75874 | pgbench_branches |         19177472

 2017-02-04 07:46:15.855235+01 | 1486190775.85524 | pgbench_accounts |      13916651520
 2017-02-04 07:46:15.855235+01 | 1486190775.85524 | pgbench_tellers  |         34455552
 2017-02-04 07:46:15.855235+01 | 1486190775.85524 | pgbench_history  |        429580288
 2017-02-04 07:46:15.855235+01 | 1486190775.85524 | pgbench_branches |         19177472

 2017-02-04 07:46:16.942827+01 | 1486190776.94283 | pgbench_accounts |      13916651520
 2017-02-04 07:46:16.942827+01 | 1486190776.94283 | pgbench_tellers  |         34455552
 2017-02-04 07:46:16.942827+01 | 1486190776.94283 | pgbench_history  |        431300608
 2017-02-04 07:46:16.942827+01 | 1486190776.94283 | pgbench_branches |         19177472

 2017-02-04 07:46:18.033475+01 | 1486190778.03347 | pgbench_accounts |      13916651520
 2017-02-04 07:46:18.033475+01 | 1486190778.03347 | pgbench_tellers  |         34455552
 2017-02-04 07:46:18.033475+01 | 1486190778.03347 | pgbench_history  |        433176576
 2017-02-04 07:46:18.033475+01 | 1486190778.03347 | pgbench_branches |         19177472

 2017-02-04 07:46:19.120494+01 | 1486190779.12049 | pgbench_accounts |      13916651520
 2017-02-04 07:46:19.120494+01 | 1486190779.12049 | pgbench_tellers  |         34455552
 2017-02-04 07:46:19.120494+01 | 1486190779.12049 | pgbench_history  |        435658752
 2017-02-04 07:46:19.120494+01 | 1486190779.12049 | pgbench_branches |         19177472

 2017-02-04 07:46:20.216193+01 | 1486190780.21619 | pgbench_accounts |      13916651520
 2017-02-04 07:46:20.216193+01 | 1486190780.21619 | pgbench_tellers  |         34455552
 2017-02-04 07:46:20.216193+01 | 1486190780.21619 | pgbench_history  |        437420032
 2017-02-04 07:46:20.216193+01 | 1486190780.21619 | pgbench_branches |         19177472

 2017-02-04 07:46:21.311378+01 | 1486190781.31138 | pgbench_accounts |      13916651520
 2017-02-04 07:46:21.311378+01 | 1486190781.31138 | pgbench_tellers  |         34455552
 2017-02-04 07:46:21.311378+01 | 1486190781.31138 | pgbench_history  |        439795712
 2017-02-04 07:46:21.311378+01 | 1486190781.31138 | pgbench_branches |         19177472

 2017-02-04 07:46:22.405461+01 | 1486190782.40546 | pgbench_accounts |      13916651520
 2017-02-04 07:46:22.405461+01 | 1486190782.40546 | pgbench_tellers  |         34455552
 2017-02-04 07:46:22.405461+01 | 1486190782.40546 | pgbench_history  |        441008128
 2017-02-04 07:46:22.405461+01 | 1486190782.40546 | pgbench_branches |         19177472

 2017-02-04 07:46:23.504311+01 | 1486190783.50431 | pgbench_accounts |      13916651520
 2017-02-04 07:46:23.504311+01 | 1486190783.50431 | pgbench_tellers  |         34455552
 2017-02-04 07:46:23.504311+01 | 1486190783.50431 | pgbench_history  |        443891712
 2017-02-04 07:46:23.504311+01 | 1486190783.50431 | pgbench_branches |         19177472

 2017-02-04 07:46:24.584823+01 | 1486190784.58482 | pgbench_accounts |      13916651520
 2017-02-04 07:46:24.584823+01 | 1486190784.58482 | pgbench_tellers  |         34455552
 2017-02-04 07:46:24.584823+01 | 1486190784.58482 | pgbench_history  |        445792256
 2017-02-04 07:46:24.584823+01 | 1486190784.58482 | pgbench_branches |         19177472

 2017-02-04 07:46:25.670917+01 | 1486190785.67092 | pgbench_accounts |      13916651520
 2017-02-04 07:46:25.670917+01 | 1486190785.67092 | pgbench_tellers  |         34455552
 2017-02-04 07:46:25.670917+01 | 1486190785.67092 | pgbench_history  |        447946752
 2017-02-04 07:46:25.670917+01 | 1486190785.67092 | pgbench_branches |         19177472

 2017-02-04 07:46:26.75109+01 | 1486190786.75109 | pgbench_accounts |      13916651520
 2017-02-04 07:46:26.75109+01 | 1486190786.75109 | pgbench_tellers  |         34455552
 2017-02-04 07:46:26.75109+01 | 1486190786.75109 | pgbench_history  |        449495040
 2017-02-04 07:46:26.75109+01 | 1486190786.75109 | pgbench_branches |         19177472

 2017-02-04 07:46:27.81834+01 | 1486190787.81834 | pgbench_accounts |      13916651520
 2017-02-04 07:46:27.81834+01 | 1486190787.81834 | pgbench_tellers  |         34455552
 2017-02-04 07:46:27.81834+01 | 1486190787.81834 | pgbench_history  |        450830336
 2017-02-04 07:46:27.81834+01 | 1486190787.81834 | pgbench_branches |         19177472

 2017-02-04 07:46:28.905642+01 | 1486190788.90564 | pgbench_accounts |      13916651520
 2017-02-04 07:46:28.905642+01 | 1486190788.90564 | pgbench_tellers  |         34455552
 2017-02-04 07:46:28.905642+01 | 1486190788.90564 | pgbench_history  |        452493312
 2017-02-04 07:46:28.905642+01 | 1486190788.90564 | pgbench_branches |         19177472

 2017-02-04 07:46:29.992015+01 | 1486190789.99201 | pgbench_accounts |      13916651520
 2017-02-04 07:46:29.992015+01 | 1486190789.99201 | pgbench_tellers  |         34455552
 2017-02-04 07:46:29.992015+01 | 1486190789.99201 | pgbench_history  |        453689344
 2017-02-04 07:46:29.992015+01 | 1486190789.99201 | pgbench_branches |         19177472

 2017-02-04 07:46:31.068619+01 | 1486190791.06862 | pgbench_accounts |      13916651520
 2017-02-04 07:46:31.068619+01 | 1486190791.06862 | pgbench_tellers  |         34455552
 2017-02-04 07:46:31.068619+01 | 1486190791.06862 | pgbench_history  |        454721536
 2017-02-04 07:46:31.068619+01 | 1486190791.06862 | pgbench_branches |         19177472

 2017-02-04 07:46:32.160258+01 | 1486190792.16026 | pgbench_accounts |      13916651520
 2017-02-04 07:46:32.160258+01 | 1486190792.16026 | pgbench_tellers  |         34455552
 2017-02-04 07:46:32.160258+01 | 1486190792.16026 | pgbench_history  |        456630272
 2017-02-04 07:46:32.160258+01 | 1486190792.16026 | pgbench_branches |         19177472

 2017-02-04 07:46:33.231138+01 | 1486190793.23114 | pgbench_accounts |      13916651520
 2017-02-04 07:46:33.231138+01 | 1486190793.23114 | pgbench_tellers  |         34455552
 2017-02-04 07:46:33.231138+01 | 1486190793.23114 | pgbench_history  |        457334784
 2017-02-04 07:46:33.231138+01 | 1486190793.23114 | pgbench_branches |         19177472

 2017-02-04 07:46:34.320639+01 | 1486190794.32064 | pgbench_accounts |      13916651520
 2017-02-04 07:46:34.320639+01 | 1486190794.32064 | pgbench_tellers  |         34455552
 2017-02-04 07:46:34.320639+01 | 1486190794.32064 | pgbench_history  |        459350016
 2017-02-04 07:46:34.320639+01 | 1486190794.32064 | pgbench_branches |         19177472

 2017-02-04 07:46:35.397673+01 | 1486190795.39767 | pgbench_accounts |      13916651520
 2017-02-04 07:46:35.397673+01 | 1486190795.39767 | pgbench_tellers  |         34455552
 2017-02-04 07:46:35.397673+01 | 1486190795.39767 | pgbench_history  |        460087296
 2017-02-04 07:46:35.397673+01 | 1486190795.39767 | pgbench_branches |         19177472

 2017-02-04 07:46:36.486811+01 | 1486190796.48681 | pgbench_accounts |      13916651520
 2017-02-04 07:46:36.486811+01 | 1486190796.48681 | pgbench_tellers  |         34455552
 2017-02-04 07:46:36.486811+01 | 1486190796.48681 | pgbench_history  |        461447168
 2017-02-04 07:46:36.486811+01 | 1486190796.48681 | pgbench_branches |         19177472

 2017-02-04 07:46:37.567445+01 | 1486190797.56745 | pgbench_accounts |      13916651520
 2017-02-04 07:46:37.567445+01 | 1486190797.56745 | pgbench_tellers  |         34455552
 2017-02-04 07:46:37.567445+01 | 1486190797.56745 | pgbench_history  |        462946304
 2017-02-04 07:46:37.567445+01 | 1486190797.56745 | pgbench_branches |         19177472

 2017-02-04 07:46:38.657172+01 | 1486190798.65717 | pgbench_accounts |      13916651520
 2017-02-04 07:46:38.657172+01 | 1486190798.65717 | pgbench_tellers  |         34455552
 2017-02-04 07:46:38.657172+01 | 1486190798.65717 | pgbench_history  |        464961536
 2017-02-04 07:46:38.657172+01 | 1486190798.65717 | pgbench_branches |         19177472

 2017-02-04 07:46:39.754806+01 | 1486190799.75481 | pgbench_accounts |      13916651520
 2017-02-04 07:46:39.754806+01 | 1486190799.75481 | pgbench_tellers  |         34455552
 2017-02-04 07:46:39.754806+01 | 1486190799.75481 | pgbench_history  |        466034688
 2017-02-04 07:46:39.754806+01 | 1486190799.75481 | pgbench_branches |         19177472

 2017-02-04 07:46:40.861443+01 | 1486190800.86144 | pgbench_accounts |      13916651520
 2017-02-04 07:46:40.861443+01 | 1486190800.86144 | pgbench_tellers  |         34455552
 2017-02-04 07:46:40.861443+01 | 1486190800.86144 | pgbench_history  |        467558400
 2017-02-04 07:46:40.861443+01 | 1486190800.86144 | pgbench_branches |         19177472

 2017-02-04 07:46:41.954013+01 | 1486190801.95401 | pgbench_accounts |      13916651520
 2017-02-04 07:46:41.954013+01 | 1486190801.95401 | pgbench_tellers  |         34455552
 2017-02-04 07:46:41.954013+01 | 1486190801.95401 | pgbench_history  |        469082112
 2017-02-04 07:46:41.954013+01 | 1486190801.95401 | pgbench_branches |         19177472

 2017-02-04 07:46:43.041101+01 | 1486190803.0411 | pgbench_accounts |      13916651520
 2017-02-04 07:46:43.041101+01 | 1486190803.0411 | pgbench_tellers  |         34455552
 2017-02-04 07:46:43.041101+01 | 1486190803.0411 | pgbench_history  |        470466560
 2017-02-04 07:46:43.041101+01 | 1486190803.0411 | pgbench_branches |         19177472

 2017-02-04 07:46:44.117822+01 | 1486190804.11782 | pgbench_accounts |      13916651520
 2017-02-04 07:46:44.117822+01 | 1486190804.11782 | pgbench_tellers  |         34455552
 2017-02-04 07:46:44.117822+01 | 1486190804.11782 | pgbench_history  |        472506368
 2017-02-04 07:46:44.117822+01 | 1486190804.11782 | pgbench_branches |         19177472

 2017-02-04 07:46:45.189183+01 | 1486190805.18918 | pgbench_accounts |      13916651520
 2017-02-04 07:46:45.189183+01 | 1486190805.18918 | pgbench_tellers  |         34455552
 2017-02-04 07:46:45.189183+01 | 1486190805.18918 | pgbench_history  |        473374720
 2017-02-04 07:46:45.189183+01 | 1486190805.18918 | pgbench_branches |         19177472

 2017-02-04 07:46:46.2624+01 | 1486190806.2624 | pgbench_accounts |      13916651520
 2017-02-04 07:46:46.2624+01 | 1486190806.2624 | pgbench_tellers  |         34455552
 2017-02-04 07:46:46.2624+01 | 1486190806.2624 | pgbench_history  |        475529216
 2017-02-04 07:46:46.2624+01 | 1486190806.2624 | pgbench_branches |         19177472

 2017-02-04 07:46:47.345516+01 | 1486190807.34552 | pgbench_accounts |      13916651520
 2017-02-04 07:46:47.345516+01 | 1486190807.34552 | pgbench_tellers  |         34455552
 2017-02-04 07:46:47.345516+01 | 1486190807.34552 | pgbench_history  |        477872128
 2017-02-04 07:46:47.345516+01 | 1486190807.34552 | pgbench_branches |         19177472

 2017-02-04 07:46:48.437256+01 | 1486190808.43726 | pgbench_accounts |      13916651520
 2017-02-04 07:46:48.437256+01 | 1486190808.43726 | pgbench_tellers  |         34455552
 2017-02-04 07:46:48.437256+01 | 1486190808.43726 | pgbench_history  |        479559680
 2017-02-04 07:46:48.437256+01 | 1486190808.43726 | pgbench_branches |         19177472

 2017-02-04 07:46:49.531314+01 | 1486190809.53131 | pgbench_accounts |      13916651520
 2017-02-04 07:46:49.531314+01 | 1486190809.53131 | pgbench_tellers  |         34455552
 2017-02-04 07:46:49.531314+01 | 1486190809.53131 | pgbench_history  |        481574912
 2017-02-04 07:46:49.531314+01 | 1486190809.53131 | pgbench_branches |         19177472

 2017-02-04 07:46:50.624791+01 | 1486190810.62479 | pgbench_accounts |      13916651520
 2017-02-04 07:46:50.624791+01 | 1486190810.62479 | pgbench_tellers  |         34455552
 2017-02-04 07:46:50.624791+01 | 1486190810.62479 | pgbench_history  |        482623488
 2017-02-04 07:46:50.624791+01 | 1486190810.62479 | pgbench_branches |         19177472

 2017-02-04 07:46:51.710407+01 | 1486190811.71041 | pgbench_accounts |      13916651520
 2017-02-04 07:46:51.710407+01 | 1486190811.71041 | pgbench_tellers  |         34455552
 2017-02-04 07:46:51.710407+01 | 1486190811.71041 | pgbench_history  |        484147200
 2017-02-04 07:46:51.710407+01 | 1486190811.71041 | pgbench_branches |         19177472

 2017-02-04 07:46:52.799096+01 | 1486190812.7991 | pgbench_accounts |      13916651520
 2017-02-04 07:46:52.799096+01 | 1486190812.7991 | pgbench_tellers  |         34455552
 2017-02-04 07:46:52.799096+01 | 1486190812.7991 | pgbench_history  |        485654528
 2017-02-04 07:46:52.799096+01 | 1486190812.7991 | pgbench_branches |         19177472

 2017-02-04 07:46:53.874676+01 | 1486190813.87468 | pgbench_accounts |      13916651520
 2017-02-04 07:46:53.874676+01 | 1486190813.87468 | pgbench_tellers  |         34455552
 2017-02-04 07:46:53.874676+01 | 1486190813.87468 | pgbench_history  |        487997440
 2017-02-04 07:46:53.874676+01 | 1486190813.87468 | pgbench_branches |         19177472

 2017-02-04 07:46:54.951585+01 | 1486190814.95159 | pgbench_accounts |      13916651520
 2017-02-04 07:46:54.951585+01 | 1486190814.95159 | pgbench_tellers  |         34455552
 2017-02-04 07:46:54.951585+01 | 1486190814.95159 | pgbench_history  |        487997440
 2017-02-04 07:46:54.951585+01 | 1486190814.95159 | pgbench_branches |         19177472

 2017-02-04 07:46:56.044582+01 | 1486190816.04458 | pgbench_accounts |      13916651520
 2017-02-04 07:46:56.044582+01 | 1486190816.04458 | pgbench_tellers  |         34455552
 2017-02-04 07:46:56.044582+01 | 1486190816.04458 | pgbench_history  |        489717760
 2017-02-04 07:46:56.044582+01 | 1486190816.04458 | pgbench_branches |         19177472

 2017-02-04 07:46:57.114994+01 | 1486190817.11499 | pgbench_accounts |      13916651520
 2017-02-04 07:46:57.114994+01 | 1486190817.11499 | pgbench_tellers  |         34455552
 2017-02-04 07:46:57.114994+01 | 1486190817.11499 | pgbench_history  |        491446272
 2017-02-04 07:46:57.114994+01 | 1486190817.11499 | pgbench_branches |         19177472

