 2017-02-03 19:47:05.292138+01 | 1486147625.29214 | pgbench_branches_pkey |            40960
 2017-02-03 19:47:05.292138+01 | 1486147625.29214 | pgbench_tellers_pkey  |           245760
 2017-02-03 19:47:05.292138+01 | 1486147625.29214 | pgbench_accounts_pkey |       2246197248

 2017-02-03 19:47:06.361274+01 | 1486147626.36127 | pgbench_branches_pkey |            40960
 2017-02-03 19:47:06.361274+01 | 1486147626.36127 | pgbench_tellers_pkey  |           245760
 2017-02-03 19:47:06.361274+01 | 1486147626.36127 | pgbench_accounts_pkey |       2246197248

 2017-02-03 19:47:07.452979+01 | 1486147627.45298 | pgbench_branches_pkey |            40960
 2017-02-03 19:47:07.452979+01 | 1486147627.45298 | pgbench_tellers_pkey  |           245760
 2017-02-03 19:47:07.452979+01 | 1486147627.45298 | pgbench_accounts_pkey |       2246197248

 2017-02-03 19:47:08.548156+01 | 1486147628.54816 | pgbench_branches_pkey |            40960
 2017-02-03 19:47:08.548156+01 | 1486147628.54816 | pgbench_tellers_pkey  |           245760
 2017-02-03 19:47:08.548156+01 | 1486147628.54816 | pgbench_accounts_pkey |       2246197248

 2017-02-03 19:47:09.645902+01 | 1486147629.6459 | pgbench_branches_pkey |            40960
 2017-02-03 19:47:09.645902+01 | 1486147629.6459 | pgbench_tellers_pkey  |           245760
 2017-02-03 19:47:09.645902+01 | 1486147629.6459 | pgbench_accounts_pkey |       2246197248

 2017-02-03 19:47:10.734516+01 | 1486147630.73452 | pgbench_branches_pkey |            40960
 2017-02-03 19:47:10.734516+01 | 1486147630.73452 | pgbench_tellers_pkey  |           245760
 2017-02-03 19:47:10.734516+01 | 1486147630.73452 | pgbench_accounts_pkey |       2246197248

 2017-02-03 19:47:11.818417+01 | 1486147631.81842 | pgbench_branches_pkey |            40960
 2017-02-03 19:47:11.818417+01 | 1486147631.81842 | pgbench_tellers_pkey  |           245760
 2017-02-03 19:47:11.818417+01 | 1486147631.81842 | pgbench_accounts_pkey |       2246197248

 2017-02-03 19:47:12.918397+01 | 1486147632.9184 | pgbench_branches_pkey |            40960
 2017-02-03 19:47:12.918397+01 | 1486147632.9184 | pgbench_tellers_pkey  |           245760
 2017-02-03 19:47:12.918397+01 | 1486147632.9184 | pgbench_accounts_pkey |       2246197248

 2017-02-03 19:47:14.010116+01 | 1486147634.01012 | pgbench_branches_pkey |            40960
 2017-02-03 19:47:14.010116+01 | 1486147634.01012 | pgbench_tellers_pkey  |           245760
 2017-02-03 19:47:14.010116+01 | 1486147634.01012 | pgbench_accounts_pkey |       2246197248

 2017-02-03 19:47:15.118442+01 | 1486147635.11844 | pgbench_branches_pkey |            40960
 2017-02-03 19:47:15.118442+01 | 1486147635.11844 | pgbench_tellers_pkey  |           245760
 2017-02-03 19:47:15.118442+01 | 1486147635.11844 | pgbench_accounts_pkey |       2246197248

 2017-02-03 19:47:16.217899+01 | 1486147636.2179 | pgbench_branches_pkey |            40960
 2017-02-03 19:47:16.217899+01 | 1486147636.2179 | pgbench_tellers_pkey  |           245760
 2017-02-03 19:47:16.217899+01 | 1486147636.2179 | pgbench_accounts_pkey |       2246197248

 2017-02-03 19:47:17.305099+01 | 1486147637.3051 | pgbench_branches_pkey |            40960
 2017-02-03 19:47:17.305099+01 | 1486147637.3051 | pgbench_tellers_pkey  |           245760
 2017-02-03 19:47:17.305099+01 | 1486147637.3051 | pgbench_accounts_pkey |       2246197248

 2017-02-03 19:47:18.396105+01 | 1486147638.39611 | pgbench_branches_pkey |            40960
 2017-02-03 19:47:18.396105+01 | 1486147638.39611 | pgbench_tellers_pkey  |           245760
 2017-02-03 19:47:18.396105+01 | 1486147638.39611 | pgbench_accounts_pkey |       2246197248

 2017-02-03 19:47:19.486369+01 | 1486147639.48637 | pgbench_branches_pkey |            40960
 2017-02-03 19:47:19.486369+01 | 1486147639.48637 | pgbench_tellers_pkey  |           245760
 2017-02-03 19:47:19.486369+01 | 1486147639.48637 | pgbench_accounts_pkey |       2246197248

 2017-02-03 19:47:20.571291+01 | 1486147640.57129 | pgbench_branches_pkey |            40960
 2017-02-03 19:47:20.571291+01 | 1486147640.57129 | pgbench_tellers_pkey  |           245760
 2017-02-03 19:47:20.571291+01 | 1486147640.57129 | pgbench_accounts_pkey |       2246197248

 2017-02-03 19:47:21.65938+01 | 1486147641.65938 | pgbench_branches_pkey |            40960
 2017-02-03 19:47:21.65938+01 | 1486147641.65938 | pgbench_tellers_pkey  |           245760
 2017-02-03 19:47:21.65938+01 | 1486147641.65938 | pgbench_accounts_pkey |       2246197248

 2017-02-03 19:47:22.742342+01 | 1486147642.74234 | pgbench_branches_pkey |            40960
 2017-02-03 19:47:22.742342+01 | 1486147642.74234 | pgbench_tellers_pkey  |           245760
 2017-02-03 19:47:22.742342+01 | 1486147642.74234 | pgbench_accounts_pkey |       2246197248

 2017-02-03 19:47:23.838817+01 | 1486147643.83882 | pgbench_branches_pkey |            40960
 2017-02-03 19:47:23.838817+01 | 1486147643.83882 | pgbench_tellers_pkey  |           245760
 2017-02-03 19:47:23.838817+01 | 1486147643.83882 | pgbench_accounts_pkey |       2246197248

 2017-02-03 19:47:24.93242+01 | 1486147644.93242 | pgbench_branches_pkey |            40960
 2017-02-03 19:47:24.93242+01 | 1486147644.93242 | pgbench_tellers_pkey  |           245760
 2017-02-03 19:47:24.93242+01 | 1486147644.93242 | pgbench_accounts_pkey |       2246197248

 2017-02-03 19:47:26.030847+01 | 1486147646.03085 | pgbench_branches_pkey |            40960
 2017-02-03 19:47:26.030847+01 | 1486147646.03085 | pgbench_tellers_pkey  |           245760
 2017-02-03 19:47:26.030847+01 | 1486147646.03085 | pgbench_accounts_pkey |       2246197248

 2017-02-03 19:47:27.115314+01 | 1486147647.11531 | pgbench_branches_pkey |            40960
 2017-02-03 19:47:27.115314+01 | 1486147647.11531 | pgbench_tellers_pkey  |           245760
 2017-02-03 19:47:27.115314+01 | 1486147647.11531 | pgbench_accounts_pkey |       2246197248

 2017-02-03 19:47:28.202901+01 | 1486147648.2029 | pgbench_branches_pkey |            40960
 2017-02-03 19:47:28.202901+01 | 1486147648.2029 | pgbench_tellers_pkey  |           245760
 2017-02-03 19:47:28.202901+01 | 1486147648.2029 | pgbench_accounts_pkey |       2246197248

 2017-02-03 19:47:29.295241+01 | 1486147649.29524 | pgbench_branches_pkey |            40960
 2017-02-03 19:47:29.295241+01 | 1486147649.29524 | pgbench_tellers_pkey  |           245760
 2017-02-03 19:47:29.295241+01 | 1486147649.29524 | pgbench_accounts_pkey |       2246197248

 2017-02-03 19:47:30.387737+01 | 1486147650.38774 | pgbench_branches_pkey |            40960
 2017-02-03 19:47:30.387737+01 | 1486147650.38774 | pgbench_tellers_pkey  |           245760
 2017-02-03 19:47:30.387737+01 | 1486147650.38774 | pgbench_accounts_pkey |       2246197248

 2017-02-03 19:47:31.483559+01 | 1486147651.48356 | pgbench_branches_pkey |            40960
 2017-02-03 19:47:31.483559+01 | 1486147651.48356 | pgbench_tellers_pkey  |           245760
 2017-02-03 19:47:31.483559+01 | 1486147651.48356 | pgbench_accounts_pkey |       2246197248

 2017-02-03 19:47:32.571066+01 | 1486147652.57107 | pgbench_branches_pkey |            40960
 2017-02-03 19:47:32.571066+01 | 1486147652.57107 | pgbench_tellers_pkey  |           245760
 2017-02-03 19:47:32.571066+01 | 1486147652.57107 | pgbench_accounts_pkey |       2246197248

 2017-02-03 19:47:33.657382+01 | 1486147653.65738 | pgbench_branches_pkey |            40960
 2017-02-03 19:47:33.657382+01 | 1486147653.65738 | pgbench_tellers_pkey  |           245760
 2017-02-03 19:47:33.657382+01 | 1486147653.65738 | pgbench_accounts_pkey |       2246197248

 2017-02-03 19:47:34.748761+01 | 1486147654.74876 | pgbench_branches_pkey |            40960
 2017-02-03 19:47:34.748761+01 | 1486147654.74876 | pgbench_tellers_pkey  |           245760
 2017-02-03 19:47:34.748761+01 | 1486147654.74876 | pgbench_accounts_pkey |       2246197248

 2017-02-03 19:47:35.853166+01 | 1486147655.85317 | pgbench_branches_pkey |            40960
 2017-02-03 19:47:35.853166+01 | 1486147655.85317 | pgbench_tellers_pkey  |           245760
 2017-02-03 19:47:35.853166+01 | 1486147655.85317 | pgbench_accounts_pkey |       2246197248

 2017-02-03 19:47:36.956958+01 | 1486147656.95696 | pgbench_branches_pkey |            40960
 2017-02-03 19:47:36.956958+01 | 1486147656.95696 | pgbench_tellers_pkey  |           245760
 2017-02-03 19:47:36.956958+01 | 1486147656.95696 | pgbench_accounts_pkey |       2246197248

 2017-02-03 19:47:38.046787+01 | 1486147658.04679 | pgbench_branches_pkey |            40960
 2017-02-03 19:47:38.046787+01 | 1486147658.04679 | pgbench_tellers_pkey  |           245760
 2017-02-03 19:47:38.046787+01 | 1486147658.04679 | pgbench_accounts_pkey |       2246197248

 2017-02-03 19:47:39.136413+01 | 1486147659.13641 | pgbench_branches_pkey |            40960
 2017-02-03 19:47:39.136413+01 | 1486147659.13641 | pgbench_tellers_pkey  |           245760
 2017-02-03 19:47:39.136413+01 | 1486147659.13641 | pgbench_accounts_pkey |       2246197248

 2017-02-03 19:47:40.2202+01 | 1486147660.2202 | pgbench_branches_pkey |            40960
 2017-02-03 19:47:40.2202+01 | 1486147660.2202 | pgbench_tellers_pkey  |           245760
 2017-02-03 19:47:40.2202+01 | 1486147660.2202 | pgbench_accounts_pkey |       2246197248

 2017-02-03 19:47:41.313878+01 | 1486147661.31388 | pgbench_branches_pkey |            40960
 2017-02-03 19:47:41.313878+01 | 1486147661.31388 | pgbench_tellers_pkey  |           245760
 2017-02-03 19:47:41.313878+01 | 1486147661.31388 | pgbench_accounts_pkey |       2246197248

 2017-02-03 19:47:42.409233+01 | 1486147662.40923 | pgbench_branches_pkey |            40960
 2017-02-03 19:47:42.409233+01 | 1486147662.40923 | pgbench_tellers_pkey  |           245760
 2017-02-03 19:47:42.409233+01 | 1486147662.40923 | pgbench_accounts_pkey |       2246197248

 2017-02-03 19:47:43.496543+01 | 1486147663.49654 | pgbench_branches_pkey |            40960
 2017-02-03 19:47:43.496543+01 | 1486147663.49654 | pgbench_tellers_pkey  |           245760
 2017-02-03 19:47:43.496543+01 | 1486147663.49654 | pgbench_accounts_pkey |       2246197248

 2017-02-03 19:47:44.581433+01 | 1486147664.58143 | pgbench_branches_pkey |            40960
 2017-02-03 19:47:44.581433+01 | 1486147664.58143 | pgbench_tellers_pkey  |           245760
 2017-02-03 19:47:44.581433+01 | 1486147664.58143 | pgbench_accounts_pkey |       2246197248

 2017-02-03 19:47:45.673404+01 | 1486147665.6734 | pgbench_branches_pkey |            40960
 2017-02-03 19:47:45.673404+01 | 1486147665.6734 | pgbench_tellers_pkey  |           245760
 2017-02-03 19:47:45.673404+01 | 1486147665.6734 | pgbench_accounts_pkey |       2246197248

 2017-02-03 19:47:46.765546+01 | 1486147666.76555 | pgbench_branches_pkey |            40960
 2017-02-03 19:47:46.765546+01 | 1486147666.76555 | pgbench_tellers_pkey  |           245760
 2017-02-03 19:47:46.765546+01 | 1486147666.76555 | pgbench_accounts_pkey |       2246197248

 2017-02-03 19:47:47.864641+01 | 1486147667.86464 | pgbench_branches_pkey |            40960
 2017-02-03 19:47:47.864641+01 | 1486147667.86464 | pgbench_tellers_pkey  |           245760
 2017-02-03 19:47:47.864641+01 | 1486147667.86464 | pgbench_accounts_pkey |       2246197248

 2017-02-03 19:47:48.959475+01 | 1486147668.95948 | pgbench_branches_pkey |            40960
 2017-02-03 19:47:48.959475+01 | 1486147668.95948 | pgbench_tellers_pkey  |           245760
 2017-02-03 19:47:48.959475+01 | 1486147668.95948 | pgbench_accounts_pkey |       2246197248

 2017-02-03 19:47:50.054384+01 | 1486147670.05438 | pgbench_branches_pkey |            40960
 2017-02-03 19:47:50.054384+01 | 1486147670.05438 | pgbench_tellers_pkey  |           245760
 2017-02-03 19:47:50.054384+01 | 1486147670.05438 | pgbench_accounts_pkey |       2246197248

 2017-02-03 19:47:51.154258+01 | 1486147671.15426 | pgbench_branches_pkey |            40960
 2017-02-03 19:47:51.154258+01 | 1486147671.15426 | pgbench_tellers_pkey  |           245760
 2017-02-03 19:47:51.154258+01 | 1486147671.15426 | pgbench_accounts_pkey |       2246197248

 2017-02-03 19:47:52.248623+01 | 1486147672.24862 | pgbench_branches_pkey |            40960
 2017-02-03 19:47:52.248623+01 | 1486147672.24862 | pgbench_tellers_pkey  |           245760
 2017-02-03 19:47:52.248623+01 | 1486147672.24862 | pgbench_accounts_pkey |       2246197248

 2017-02-03 19:47:53.344169+01 | 1486147673.34417 | pgbench_branches_pkey |            40960
 2017-02-03 19:47:53.344169+01 | 1486147673.34417 | pgbench_tellers_pkey  |           245760
 2017-02-03 19:47:53.344169+01 | 1486147673.34417 | pgbench_accounts_pkey |       2246197248

 2017-02-03 19:47:54.432028+01 | 1486147674.43203 | pgbench_branches_pkey |            40960
 2017-02-03 19:47:54.432028+01 | 1486147674.43203 | pgbench_tellers_pkey  |           245760
 2017-02-03 19:47:54.432028+01 | 1486147674.43203 | pgbench_accounts_pkey |       2246197248

 2017-02-03 19:47:55.52421+01 | 1486147675.52421 | pgbench_branches_pkey |            40960
 2017-02-03 19:47:55.52421+01 | 1486147675.52421 | pgbench_tellers_pkey  |           245760
 2017-02-03 19:47:55.52421+01 | 1486147675.52421 | pgbench_accounts_pkey |       2246197248

 2017-02-03 19:47:56.614305+01 | 1486147676.61431 | pgbench_branches_pkey |            40960
 2017-02-03 19:47:56.614305+01 | 1486147676.61431 | pgbench_tellers_pkey  |           245760
 2017-02-03 19:47:56.614305+01 | 1486147676.61431 | pgbench_accounts_pkey |       2246197248

 2017-02-03 19:47:57.700787+01 | 1486147677.70079 | pgbench_branches_pkey |            40960
 2017-02-03 19:47:57.700787+01 | 1486147677.70079 | pgbench_tellers_pkey  |           245760
 2017-02-03 19:47:57.700787+01 | 1486147677.70079 | pgbench_accounts_pkey |       2246197248

 2017-02-03 19:47:58.795044+01 | 1486147678.79504 | pgbench_branches_pkey |            40960
 2017-02-03 19:47:58.795044+01 | 1486147678.79504 | pgbench_tellers_pkey  |           245760
 2017-02-03 19:47:58.795044+01 | 1486147678.79504 | pgbench_accounts_pkey |       2246197248

 2017-02-03 19:47:59.882501+01 | 1486147679.8825 | pgbench_branches_pkey |            40960
 2017-02-03 19:47:59.882501+01 | 1486147679.8825 | pgbench_tellers_pkey  |           245760
 2017-02-03 19:47:59.882501+01 | 1486147679.8825 | pgbench_accounts_pkey |       2246197248

 2017-02-03 19:48:00.980835+01 | 1486147680.98083 | pgbench_branches_pkey |            40960
 2017-02-03 19:48:00.980835+01 | 1486147680.98083 | pgbench_tellers_pkey  |           245760
 2017-02-03 19:48:00.980835+01 | 1486147680.98083 | pgbench_accounts_pkey |       2246197248

 2017-02-03 19:48:02.069989+01 | 1486147682.06999 | pgbench_branches_pkey |            40960
 2017-02-03 19:48:02.069989+01 | 1486147682.06999 | pgbench_tellers_pkey  |           245760
 2017-02-03 19:48:02.069989+01 | 1486147682.06999 | pgbench_accounts_pkey |       2246197248

 2017-02-03 19:48:03.156091+01 | 1486147683.15609 | pgbench_branches_pkey |            40960
 2017-02-03 19:48:03.156091+01 | 1486147683.15609 | pgbench_tellers_pkey  |           245760
 2017-02-03 19:48:03.156091+01 | 1486147683.15609 | pgbench_accounts_pkey |       2246197248

 2017-02-03 19:48:04.25137+01 | 1486147684.25137 | pgbench_branches_pkey |            40960
 2017-02-03 19:48:04.25137+01 | 1486147684.25137 | pgbench_tellers_pkey  |           245760
 2017-02-03 19:48:04.25137+01 | 1486147684.25137 | pgbench_accounts_pkey |       2246197248

 2017-02-03 19:48:05.347066+01 | 1486147685.34707 | pgbench_branches_pkey |            40960
 2017-02-03 19:48:05.347066+01 | 1486147685.34707 | pgbench_tellers_pkey  |           245760
 2017-02-03 19:48:05.347066+01 | 1486147685.34707 | pgbench_accounts_pkey |       2246197248

 2017-02-03 19:48:06.431533+01 | 1486147686.43153 | pgbench_branches_pkey |            40960
 2017-02-03 19:48:06.431533+01 | 1486147686.43153 | pgbench_tellers_pkey  |           245760
 2017-02-03 19:48:06.431533+01 | 1486147686.43153 | pgbench_accounts_pkey |       2246197248

 2017-02-03 19:48:07.518299+01 | 1486147687.5183 | pgbench_branches_pkey |            40960
 2017-02-03 19:48:07.518299+01 | 1486147687.5183 | pgbench_tellers_pkey  |           245760
 2017-02-03 19:48:07.518299+01 | 1486147687.5183 | pgbench_accounts_pkey |       2246197248

 2017-02-03 19:48:08.610466+01 | 1486147688.61047 | pgbench_branches_pkey |            40960
 2017-02-03 19:48:08.610466+01 | 1486147688.61047 | pgbench_tellers_pkey  |           245760
 2017-02-03 19:48:08.610466+01 | 1486147688.61047 | pgbench_accounts_pkey |       2246197248

 2017-02-03 19:48:09.714402+01 | 1486147689.7144 | pgbench_branches_pkey |            40960
 2017-02-03 19:48:09.714402+01 | 1486147689.7144 | pgbench_tellers_pkey  |           245760
 2017-02-03 19:48:09.714402+01 | 1486147689.7144 | pgbench_accounts_pkey |       2246197248

 2017-02-03 19:48:10.80642+01 | 1486147690.80642 | pgbench_branches_pkey |            40960
 2017-02-03 19:48:10.80642+01 | 1486147690.80642 | pgbench_tellers_pkey  |           245760
 2017-02-03 19:48:10.80642+01 | 1486147690.80642 | pgbench_accounts_pkey |       2246197248

 2017-02-03 19:48:11.910135+01 | 1486147691.91014 | pgbench_branches_pkey |            40960
 2017-02-03 19:48:11.910135+01 | 1486147691.91014 | pgbench_tellers_pkey  |           245760
 2017-02-03 19:48:11.910135+01 | 1486147691.91014 | pgbench_accounts_pkey |       2246197248

 2017-02-03 19:48:13.00189+01 | 1486147693.00189 | pgbench_branches_pkey |            40960
 2017-02-03 19:48:13.00189+01 | 1486147693.00189 | pgbench_tellers_pkey  |           245760
 2017-02-03 19:48:13.00189+01 | 1486147693.00189 | pgbench_accounts_pkey |       2246197248

 2017-02-03 19:48:14.102292+01 | 1486147694.10229 | pgbench_branches_pkey |            40960
 2017-02-03 19:48:14.102292+01 | 1486147694.10229 | pgbench_tellers_pkey  |           245760
 2017-02-03 19:48:14.102292+01 | 1486147694.10229 | pgbench_accounts_pkey |       2246197248

 2017-02-03 19:48:15.19034+01 | 1486147695.19034 | pgbench_branches_pkey |            40960
 2017-02-03 19:48:15.19034+01 | 1486147695.19034 | pgbench_tellers_pkey  |           245760
 2017-02-03 19:48:15.19034+01 | 1486147695.19034 | pgbench_accounts_pkey |       2246197248

 2017-02-03 19:48:16.292453+01 | 1486147696.29245 | pgbench_branches_pkey |            40960
 2017-02-03 19:48:16.292453+01 | 1486147696.29245 | pgbench_tellers_pkey  |           245760
 2017-02-03 19:48:16.292453+01 | 1486147696.29245 | pgbench_accounts_pkey |       2246197248

 2017-02-03 19:48:17.385697+01 | 1486147697.3857 | pgbench_branches_pkey |            40960
 2017-02-03 19:48:17.385697+01 | 1486147697.3857 | pgbench_tellers_pkey  |           245760
 2017-02-03 19:48:17.385697+01 | 1486147697.3857 | pgbench_accounts_pkey |       2246197248

 2017-02-03 19:48:18.47813+01 | 1486147698.47813 | pgbench_branches_pkey |            40960
 2017-02-03 19:48:18.47813+01 | 1486147698.47813 | pgbench_tellers_pkey  |           245760
 2017-02-03 19:48:18.47813+01 | 1486147698.47813 | pgbench_accounts_pkey |       2246197248

 2017-02-03 19:48:19.566628+01 | 1486147699.56663 | pgbench_branches_pkey |            40960
 2017-02-03 19:48:19.566628+01 | 1486147699.56663 | pgbench_tellers_pkey  |           245760
 2017-02-03 19:48:19.566628+01 | 1486147699.56663 | pgbench_accounts_pkey |       2246197248

 2017-02-03 19:48:20.65883+01 | 1486147700.65883 | pgbench_branches_pkey |            40960
 2017-02-03 19:48:20.65883+01 | 1486147700.65883 | pgbench_tellers_pkey  |           245760
 2017-02-03 19:48:20.65883+01 | 1486147700.65883 | pgbench_accounts_pkey |       2246197248

 2017-02-03 19:48:21.763217+01 | 1486147701.76322 | pgbench_branches_pkey |            40960
 2017-02-03 19:48:21.763217+01 | 1486147701.76322 | pgbench_tellers_pkey  |           245760
 2017-02-03 19:48:21.763217+01 | 1486147701.76322 | pgbench_accounts_pkey |       2246197248

 2017-02-03 19:48:22.865091+01 | 1486147702.86509 | pgbench_branches_pkey |            40960
 2017-02-03 19:48:22.865091+01 | 1486147702.86509 | pgbench_tellers_pkey  |           245760
 2017-02-03 19:48:22.865091+01 | 1486147702.86509 | pgbench_accounts_pkey |       2246197248

 2017-02-03 19:48:23.957741+01 | 1486147703.95774 | pgbench_branches_pkey |            40960
 2017-02-03 19:48:23.957741+01 | 1486147703.95774 | pgbench_tellers_pkey  |           245760
 2017-02-03 19:48:23.957741+01 | 1486147703.95774 | pgbench_accounts_pkey |       2246197248

 2017-02-03 19:48:25.053224+01 | 1486147705.05322 | pgbench_branches_pkey |            40960
 2017-02-03 19:48:25.053224+01 | 1486147705.05322 | pgbench_tellers_pkey  |           245760
 2017-02-03 19:48:25.053224+01 | 1486147705.05322 | pgbench_accounts_pkey |       2246197248

 2017-02-03 19:48:26.143061+01 | 1486147706.14306 | pgbench_branches_pkey |            40960
 2017-02-03 19:48:26.143061+01 | 1486147706.14306 | pgbench_tellers_pkey  |           245760
 2017-02-03 19:48:26.143061+01 | 1486147706.14306 | pgbench_accounts_pkey |       2246197248

 2017-02-03 19:48:27.233158+01 | 1486147707.23316 | pgbench_branches_pkey |            40960
 2017-02-03 19:48:27.233158+01 | 1486147707.23316 | pgbench_tellers_pkey  |           245760
 2017-02-03 19:48:27.233158+01 | 1486147707.23316 | pgbench_accounts_pkey |       2246197248

 2017-02-03 19:48:28.328444+01 | 1486147708.32844 | pgbench_branches_pkey |            40960
 2017-02-03 19:48:28.328444+01 | 1486147708.32844 | pgbench_tellers_pkey  |           245760
 2017-02-03 19:48:28.328444+01 | 1486147708.32844 | pgbench_accounts_pkey |       2246197248

 2017-02-03 19:48:29.421234+01 | 1486147709.42123 | pgbench_branches_pkey |            40960
 2017-02-03 19:48:29.421234+01 | 1486147709.42123 | pgbench_tellers_pkey  |           245760
 2017-02-03 19:48:29.421234+01 | 1486147709.42123 | pgbench_accounts_pkey |       2246197248

 2017-02-03 19:48:30.516643+01 | 1486147710.51664 | pgbench_branches_pkey |            40960
 2017-02-03 19:48:30.516643+01 | 1486147710.51664 | pgbench_tellers_pkey  |           245760
 2017-02-03 19:48:30.516643+01 | 1486147710.51664 | pgbench_accounts_pkey |       2246197248

 2017-02-03 19:48:31.624589+01 | 1486147711.62459 | pgbench_branches_pkey |            40960
 2017-02-03 19:48:31.624589+01 | 1486147711.62459 | pgbench_tellers_pkey  |           245760
 2017-02-03 19:48:31.624589+01 | 1486147711.62459 | pgbench_accounts_pkey |       2246197248

 2017-02-03 19:48:32.714363+01 | 1486147712.71436 | pgbench_branches_pkey |            40960
 2017-02-03 19:48:32.714363+01 | 1486147712.71436 | pgbench_tellers_pkey  |           245760
 2017-02-03 19:48:32.714363+01 | 1486147712.71436 | pgbench_accounts_pkey |       2246197248

 2017-02-03 19:48:33.800216+01 | 1486147713.80022 | pgbench_branches_pkey |            40960
 2017-02-03 19:48:33.800216+01 | 1486147713.80022 | pgbench_tellers_pkey  |           245760
 2017-02-03 19:48:33.800216+01 | 1486147713.80022 | pgbench_accounts_pkey |       2246197248

 2017-02-03 19:48:34.894167+01 | 1486147714.89417 | pgbench_branches_pkey |            40960
 2017-02-03 19:48:34.894167+01 | 1486147714.89417 | pgbench_tellers_pkey  |           245760
 2017-02-03 19:48:34.894167+01 | 1486147714.89417 | pgbench_accounts_pkey |       2246197248

 2017-02-03 19:48:35.992632+01 | 1486147715.99263 | pgbench_branches_pkey |            40960
 2017-02-03 19:48:35.992632+01 | 1486147715.99263 | pgbench_tellers_pkey  |           245760
 2017-02-03 19:48:35.992632+01 | 1486147715.99263 | pgbench_accounts_pkey |       2246197248

 2017-02-03 19:48:37.079531+01 | 1486147717.07953 | pgbench_branches_pkey |            40960
 2017-02-03 19:48:37.079531+01 | 1486147717.07953 | pgbench_tellers_pkey  |           245760
 2017-02-03 19:48:37.079531+01 | 1486147717.07953 | pgbench_accounts_pkey |       2246197248

 2017-02-03 19:48:38.181691+01 | 1486147718.18169 | pgbench_branches_pkey |            40960
 2017-02-03 19:48:38.181691+01 | 1486147718.18169 | pgbench_tellers_pkey  |           245760
 2017-02-03 19:48:38.181691+01 | 1486147718.18169 | pgbench_accounts_pkey |       2246197248

 2017-02-03 19:48:39.276086+01 | 1486147719.27609 | pgbench_branches_pkey |            40960
 2017-02-03 19:48:39.276086+01 | 1486147719.27609 | pgbench_tellers_pkey  |           245760
 2017-02-03 19:48:39.276086+01 | 1486147719.27609 | pgbench_accounts_pkey |       2246197248

 2017-02-03 19:48:40.361044+01 | 1486147720.36104 | pgbench_branches_pkey |            40960
 2017-02-03 19:48:40.361044+01 | 1486147720.36104 | pgbench_tellers_pkey  |           245760
 2017-02-03 19:48:40.361044+01 | 1486147720.36104 | pgbench_accounts_pkey |       2246197248

 2017-02-03 19:48:41.451216+01 | 1486147721.45122 | pgbench_branches_pkey |            40960
 2017-02-03 19:48:41.451216+01 | 1486147721.45122 | pgbench_tellers_pkey  |           245760
 2017-02-03 19:48:41.451216+01 | 1486147721.45122 | pgbench_accounts_pkey |       2246197248

 2017-02-03 19:48:42.548063+01 | 1486147722.54806 | pgbench_branches_pkey |            40960
 2017-02-03 19:48:42.548063+01 | 1486147722.54806 | pgbench_tellers_pkey  |           245760
 2017-02-03 19:48:42.548063+01 | 1486147722.54806 | pgbench_accounts_pkey |       2246197248

 2017-02-03 19:48:43.643814+01 | 1486147723.64381 | pgbench_branches_pkey |            40960
 2017-02-03 19:48:43.643814+01 | 1486147723.64381 | pgbench_tellers_pkey  |           245760
 2017-02-03 19:48:43.643814+01 | 1486147723.64381 | pgbench_accounts_pkey |       2246197248

 2017-02-03 19:48:44.726788+01 | 1486147724.72679 | pgbench_branches_pkey |            40960
 2017-02-03 19:48:44.726788+01 | 1486147724.72679 | pgbench_tellers_pkey  |           245760
 2017-02-03 19:48:44.726788+01 | 1486147724.72679 | pgbench_accounts_pkey |       2246197248

 2017-02-03 19:48:45.818982+01 | 1486147725.81898 | pgbench_branches_pkey |            40960
 2017-02-03 19:48:45.818982+01 | 1486147725.81898 | pgbench_tellers_pkey  |           245760
 2017-02-03 19:48:45.818982+01 | 1486147725.81898 | pgbench_accounts_pkey |       2246197248

 2017-02-03 19:48:46.9103+01 | 1486147726.9103 | pgbench_branches_pkey |            40960
 2017-02-03 19:48:46.9103+01 | 1486147726.9103 | pgbench_tellers_pkey  |           245760
 2017-02-03 19:48:46.9103+01 | 1486147726.9103 | pgbench_accounts_pkey |       2246197248

 2017-02-03 19:48:48.004256+01 | 1486147728.00426 | pgbench_branches_pkey |            40960
 2017-02-03 19:48:48.004256+01 | 1486147728.00426 | pgbench_tellers_pkey  |           245760
 2017-02-03 19:48:48.004256+01 | 1486147728.00426 | pgbench_accounts_pkey |       2246197248

 2017-02-03 19:48:49.102364+01 | 1486147729.10236 | pgbench_branches_pkey |            40960
 2017-02-03 19:48:49.102364+01 | 1486147729.10236 | pgbench_tellers_pkey  |           245760
 2017-02-03 19:48:49.102364+01 | 1486147729.10236 | pgbench_accounts_pkey |       2246197248

 2017-02-03 19:48:50.196132+01 | 1486147730.19613 | pgbench_branches_pkey |            40960
 2017-02-03 19:48:50.196132+01 | 1486147730.19613 | pgbench_tellers_pkey  |           245760
 2017-02-03 19:48:50.196132+01 | 1486147730.19613 | pgbench_accounts_pkey |       2246197248

 2017-02-03 19:48:51.28791+01 | 1486147731.28791 | pgbench_branches_pkey |            40960
 2017-02-03 19:48:51.28791+01 | 1486147731.28791 | pgbench_tellers_pkey  |           245760
 2017-02-03 19:48:51.28791+01 | 1486147731.28791 | pgbench_accounts_pkey |       2246197248

 2017-02-03 19:48:52.375911+01 | 1486147732.37591 | pgbench_branches_pkey |            40960
 2017-02-03 19:48:52.375911+01 | 1486147732.37591 | pgbench_tellers_pkey  |           245760
 2017-02-03 19:48:52.375911+01 | 1486147732.37591 | pgbench_accounts_pkey |       2246197248

 2017-02-03 19:48:53.474765+01 | 1486147733.47477 | pgbench_branches_pkey |            40960
 2017-02-03 19:48:53.474765+01 | 1486147733.47477 | pgbench_tellers_pkey  |           245760
 2017-02-03 19:48:53.474765+01 | 1486147733.47477 | pgbench_accounts_pkey |       2246197248

 2017-02-03 19:48:54.574558+01 | 1486147734.57456 | pgbench_branches_pkey |            40960
 2017-02-03 19:48:54.574558+01 | 1486147734.57456 | pgbench_tellers_pkey  |           245760
 2017-02-03 19:48:54.574558+01 | 1486147734.57456 | pgbench_accounts_pkey |       2246197248

 2017-02-03 19:48:55.676687+01 | 1486147735.67669 | pgbench_branches_pkey |            40960
 2017-02-03 19:48:55.676687+01 | 1486147735.67669 | pgbench_tellers_pkey  |           245760
 2017-02-03 19:48:55.676687+01 | 1486147735.67669 | pgbench_accounts_pkey |       2246197248

 2017-02-03 19:48:56.761783+01 | 1486147736.76178 | pgbench_branches_pkey |            40960
 2017-02-03 19:48:56.761783+01 | 1486147736.76178 | pgbench_tellers_pkey  |           245760
 2017-02-03 19:48:56.761783+01 | 1486147736.76178 | pgbench_accounts_pkey |       2246197248

 2017-02-03 19:48:57.865217+01 | 1486147737.86522 | pgbench_branches_pkey |            40960
 2017-02-03 19:48:57.865217+01 | 1486147737.86522 | pgbench_tellers_pkey  |           245760
 2017-02-03 19:48:57.865217+01 | 1486147737.86522 | pgbench_accounts_pkey |       2246197248

 2017-02-03 19:48:58.95937+01 | 1486147738.95937 | pgbench_branches_pkey |            40960
 2017-02-03 19:48:58.95937+01 | 1486147738.95937 | pgbench_tellers_pkey  |           245760
 2017-02-03 19:48:58.95937+01 | 1486147738.95937 | pgbench_accounts_pkey |       2246197248

 2017-02-03 19:49:00.058218+01 | 1486147740.05822 | pgbench_branches_pkey |            40960
 2017-02-03 19:49:00.058218+01 | 1486147740.05822 | pgbench_tellers_pkey  |           245760
 2017-02-03 19:49:00.058218+01 | 1486147740.05822 | pgbench_accounts_pkey |       2246197248

 2017-02-03 19:49:01.155448+01 | 1486147741.15545 | pgbench_branches_pkey |            40960
 2017-02-03 19:49:01.155448+01 | 1486147741.15545 | pgbench_tellers_pkey  |           245760
 2017-02-03 19:49:01.155448+01 | 1486147741.15545 | pgbench_accounts_pkey |       2246197248

 2017-02-03 19:49:02.247568+01 | 1486147742.24757 | pgbench_branches_pkey |            40960
 2017-02-03 19:49:02.247568+01 | 1486147742.24757 | pgbench_tellers_pkey  |           245760
 2017-02-03 19:49:02.247568+01 | 1486147742.24757 | pgbench_accounts_pkey |       2246197248

 2017-02-03 19:49:03.328239+01 | 1486147743.32824 | pgbench_branches_pkey |            40960
 2017-02-03 19:49:03.328239+01 | 1486147743.32824 | pgbench_tellers_pkey  |           245760
 2017-02-03 19:49:03.328239+01 | 1486147743.32824 | pgbench_accounts_pkey |       2246197248

 2017-02-03 19:49:04.421986+01 | 1486147744.42199 | pgbench_branches_pkey |            40960
 2017-02-03 19:49:04.421986+01 | 1486147744.42199 | pgbench_tellers_pkey  |           245760
 2017-02-03 19:49:04.421986+01 | 1486147744.42199 | pgbench_accounts_pkey |       2246197248

 2017-02-03 19:49:05.512565+01 | 1486147745.51256 | pgbench_branches_pkey |            40960
 2017-02-03 19:49:05.512565+01 | 1486147745.51256 | pgbench_tellers_pkey  |           245760
 2017-02-03 19:49:05.512565+01 | 1486147745.51256 | pgbench_accounts_pkey |       2246197248

 2017-02-03 19:49:06.597968+01 | 1486147746.59797 | pgbench_branches_pkey |            40960
 2017-02-03 19:49:06.597968+01 | 1486147746.59797 | pgbench_tellers_pkey  |           245760
 2017-02-03 19:49:06.597968+01 | 1486147746.59797 | pgbench_accounts_pkey |       2246197248

 2017-02-03 19:49:07.683219+01 | 1486147747.68322 | pgbench_branches_pkey |            40960
 2017-02-03 19:49:07.683219+01 | 1486147747.68322 | pgbench_tellers_pkey  |           245760
 2017-02-03 19:49:07.683219+01 | 1486147747.68322 | pgbench_accounts_pkey |       2246197248

 2017-02-03 19:49:08.765923+01 | 1486147748.76592 | pgbench_branches_pkey |            40960
 2017-02-03 19:49:08.765923+01 | 1486147748.76592 | pgbench_tellers_pkey  |           245760
 2017-02-03 19:49:08.765923+01 | 1486147748.76592 | pgbench_accounts_pkey |       2246197248

 2017-02-03 19:49:09.853528+01 | 1486147749.85353 | pgbench_branches_pkey |            40960
 2017-02-03 19:49:09.853528+01 | 1486147749.85353 | pgbench_tellers_pkey  |           245760
 2017-02-03 19:49:09.853528+01 | 1486147749.85353 | pgbench_accounts_pkey |       2246197248

 2017-02-03 19:49:10.944+01 | 1486147750.944 | pgbench_branches_pkey |            40960
 2017-02-03 19:49:10.944+01 | 1486147750.944 | pgbench_tellers_pkey  |           245760
 2017-02-03 19:49:10.944+01 | 1486147750.944 | pgbench_accounts_pkey |       2246197248

 2017-02-03 19:49:12.040294+01 | 1486147752.04029 | pgbench_branches_pkey |            40960
 2017-02-03 19:49:12.040294+01 | 1486147752.04029 | pgbench_tellers_pkey  |           245760
 2017-02-03 19:49:12.040294+01 | 1486147752.04029 | pgbench_accounts_pkey |       2246197248

 2017-02-03 19:49:13.128446+01 | 1486147753.12845 | pgbench_branches_pkey |            40960
 2017-02-03 19:49:13.128446+01 | 1486147753.12845 | pgbench_tellers_pkey  |           245760
 2017-02-03 19:49:13.128446+01 | 1486147753.12845 | pgbench_accounts_pkey |       2246197248

 2017-02-03 19:49:14.229115+01 | 1486147754.22912 | pgbench_branches_pkey |            40960
 2017-02-03 19:49:14.229115+01 | 1486147754.22912 | pgbench_tellers_pkey  |           245760
 2017-02-03 19:49:14.229115+01 | 1486147754.22912 | pgbench_accounts_pkey |       2246197248

 2017-02-03 19:49:15.314581+01 | 1486147755.31458 | pgbench_branches_pkey |            40960
 2017-02-03 19:49:15.314581+01 | 1486147755.31458 | pgbench_tellers_pkey  |           245760
 2017-02-03 19:49:15.314581+01 | 1486147755.31458 | pgbench_accounts_pkey |       2246197248

 2017-02-03 19:49:16.413955+01 | 1486147756.41395 | pgbench_branches_pkey |            40960
 2017-02-03 19:49:16.413955+01 | 1486147756.41395 | pgbench_tellers_pkey  |           245760
 2017-02-03 19:49:16.413955+01 | 1486147756.41395 | pgbench_accounts_pkey |       2246197248

 2017-02-03 19:49:17.505336+01 | 1486147757.50534 | pgbench_branches_pkey |            40960
 2017-02-03 19:49:17.505336+01 | 1486147757.50534 | pgbench_tellers_pkey  |           245760
 2017-02-03 19:49:17.505336+01 | 1486147757.50534 | pgbench_accounts_pkey |       2246197248

 2017-02-03 19:49:18.587806+01 | 1486147758.58781 | pgbench_branches_pkey |            40960
 2017-02-03 19:49:18.587806+01 | 1486147758.58781 | pgbench_tellers_pkey  |           245760
 2017-02-03 19:49:18.587806+01 | 1486147758.58781 | pgbench_accounts_pkey |       2246197248

 2017-02-03 19:49:19.684258+01 | 1486147759.68426 | pgbench_branches_pkey |            40960
 2017-02-03 19:49:19.684258+01 | 1486147759.68426 | pgbench_tellers_pkey  |           245760
 2017-02-03 19:49:19.684258+01 | 1486147759.68426 | pgbench_accounts_pkey |       2246197248

 2017-02-03 19:49:20.784604+01 | 1486147760.7846 | pgbench_branches_pkey |            40960
 2017-02-03 19:49:20.784604+01 | 1486147760.7846 | pgbench_tellers_pkey  |           245760
 2017-02-03 19:49:20.784604+01 | 1486147760.7846 | pgbench_accounts_pkey |       2246197248

 2017-02-03 19:49:21.879574+01 | 1486147761.87957 | pgbench_branches_pkey |            40960
 2017-02-03 19:49:21.879574+01 | 1486147761.87957 | pgbench_tellers_pkey  |           245760
 2017-02-03 19:49:21.879574+01 | 1486147761.87957 | pgbench_accounts_pkey |       2246197248

 2017-02-03 19:49:22.98112+01 | 1486147762.98112 | pgbench_branches_pkey |            40960
 2017-02-03 19:49:22.98112+01 | 1486147762.98112 | pgbench_tellers_pkey  |           245760
 2017-02-03 19:49:22.98112+01 | 1486147762.98112 | pgbench_accounts_pkey |       2246197248

 2017-02-03 19:49:24.066584+01 | 1486147764.06658 | pgbench_branches_pkey |            40960
 2017-02-03 19:49:24.066584+01 | 1486147764.06658 | pgbench_tellers_pkey  |           245760
 2017-02-03 19:49:24.066584+01 | 1486147764.06658 | pgbench_accounts_pkey |       2246197248

 2017-02-03 19:49:25.157179+01 | 1486147765.15718 | pgbench_branches_pkey |            40960
 2017-02-03 19:49:25.157179+01 | 1486147765.15718 | pgbench_tellers_pkey  |           245760
 2017-02-03 19:49:25.157179+01 | 1486147765.15718 | pgbench_accounts_pkey |       2246197248

 2017-02-03 19:49:26.242447+01 | 1486147766.24245 | pgbench_branches_pkey |            40960
 2017-02-03 19:49:26.242447+01 | 1486147766.24245 | pgbench_tellers_pkey  |           245760
 2017-02-03 19:49:26.242447+01 | 1486147766.24245 | pgbench_accounts_pkey |       2246197248

 2017-02-03 19:49:27.343365+01 | 1486147767.34336 | pgbench_branches_pkey |            40960
 2017-02-03 19:49:27.343365+01 | 1486147767.34336 | pgbench_tellers_pkey  |           245760
 2017-02-03 19:49:27.343365+01 | 1486147767.34336 | pgbench_accounts_pkey |       2246197248

 2017-02-03 19:49:28.431746+01 | 1486147768.43175 | pgbench_branches_pkey |            40960
 2017-02-03 19:49:28.431746+01 | 1486147768.43175 | pgbench_tellers_pkey  |           245760
 2017-02-03 19:49:28.431746+01 | 1486147768.43175 | pgbench_accounts_pkey |       2246197248

 2017-02-03 19:49:29.531038+01 | 1486147769.53104 | pgbench_branches_pkey |            40960
 2017-02-03 19:49:29.531038+01 | 1486147769.53104 | pgbench_tellers_pkey  |           245760
 2017-02-03 19:49:29.531038+01 | 1486147769.53104 | pgbench_accounts_pkey |       2246197248

 2017-02-03 19:49:30.613433+01 | 1486147770.61343 | pgbench_branches_pkey |            40960
 2017-02-03 19:49:30.613433+01 | 1486147770.61343 | pgbench_tellers_pkey  |           245760
 2017-02-03 19:49:30.613433+01 | 1486147770.61343 | pgbench_accounts_pkey |       2246197248

 2017-02-03 19:49:31.702223+01 | 1486147771.70222 | pgbench_branches_pkey |            40960
 2017-02-03 19:49:31.702223+01 | 1486147771.70222 | pgbench_tellers_pkey  |           245760
 2017-02-03 19:49:31.702223+01 | 1486147771.70222 | pgbench_accounts_pkey |       2246197248

 2017-02-03 19:49:32.785014+01 | 1486147772.78501 | pgbench_branches_pkey |            40960
 2017-02-03 19:49:32.785014+01 | 1486147772.78501 | pgbench_tellers_pkey  |           245760
 2017-02-03 19:49:32.785014+01 | 1486147772.78501 | pgbench_accounts_pkey |       2246197248

 2017-02-03 19:49:33.8787+01 | 1486147773.8787 | pgbench_branches_pkey |            40960
 2017-02-03 19:49:33.8787+01 | 1486147773.8787 | pgbench_tellers_pkey  |           245760
 2017-02-03 19:49:33.8787+01 | 1486147773.8787 | pgbench_accounts_pkey |       2246197248

 2017-02-03 19:49:34.973073+01 | 1486147774.97307 | pgbench_branches_pkey |            40960
 2017-02-03 19:49:34.973073+01 | 1486147774.97307 | pgbench_tellers_pkey  |           245760
 2017-02-03 19:49:34.973073+01 | 1486147774.97307 | pgbench_accounts_pkey |       2246197248

 2017-02-03 19:49:36.057162+01 | 1486147776.05716 | pgbench_branches_pkey |            40960
 2017-02-03 19:49:36.057162+01 | 1486147776.05716 | pgbench_tellers_pkey  |           245760
 2017-02-03 19:49:36.057162+01 | 1486147776.05716 | pgbench_accounts_pkey |       2246197248

 2017-02-03 19:49:37.15168+01 | 1486147777.15168 | pgbench_branches_pkey |            40960
 2017-02-03 19:49:37.15168+01 | 1486147777.15168 | pgbench_tellers_pkey  |           245760
 2017-02-03 19:49:37.15168+01 | 1486147777.15168 | pgbench_accounts_pkey |       2246197248

 2017-02-03 19:49:38.246164+01 | 1486147778.24616 | pgbench_branches_pkey |            40960
 2017-02-03 19:49:38.246164+01 | 1486147778.24616 | pgbench_tellers_pkey  |           245760
 2017-02-03 19:49:38.246164+01 | 1486147778.24616 | pgbench_accounts_pkey |       2246197248

 2017-02-03 19:49:39.335806+01 | 1486147779.33581 | pgbench_branches_pkey |            40960
 2017-02-03 19:49:39.335806+01 | 1486147779.33581 | pgbench_tellers_pkey  |           245760
 2017-02-03 19:49:39.335806+01 | 1486147779.33581 | pgbench_accounts_pkey |       2246197248

 2017-02-03 19:49:40.418625+01 | 1486147780.41863 | pgbench_branches_pkey |            40960
 2017-02-03 19:49:40.418625+01 | 1486147780.41863 | pgbench_tellers_pkey  |           245760
 2017-02-03 19:49:40.418625+01 | 1486147780.41863 | pgbench_accounts_pkey |       2246197248

 2017-02-03 19:49:41.517936+01 | 1486147781.51794 | pgbench_branches_pkey |            40960
 2017-02-03 19:49:41.517936+01 | 1486147781.51794 | pgbench_tellers_pkey  |           245760
 2017-02-03 19:49:41.517936+01 | 1486147781.51794 | pgbench_accounts_pkey |       2246197248

 2017-02-03 19:49:42.618082+01 | 1486147782.61808 | pgbench_branches_pkey |            40960
 2017-02-03 19:49:42.618082+01 | 1486147782.61808 | pgbench_tellers_pkey  |           245760
 2017-02-03 19:49:42.618082+01 | 1486147782.61808 | pgbench_accounts_pkey |       2246197248

 2017-02-03 19:49:43.700308+01 | 1486147783.70031 | pgbench_branches_pkey |            40960
 2017-02-03 19:49:43.700308+01 | 1486147783.70031 | pgbench_tellers_pkey  |           245760
 2017-02-03 19:49:43.700308+01 | 1486147783.70031 | pgbench_accounts_pkey |       2246197248

 2017-02-03 19:49:44.796153+01 | 1486147784.79615 | pgbench_branches_pkey |            40960
 2017-02-03 19:49:44.796153+01 | 1486147784.79615 | pgbench_tellers_pkey  |           245760
 2017-02-03 19:49:44.796153+01 | 1486147784.79615 | pgbench_accounts_pkey |       2246197248

 2017-02-03 19:49:45.895537+01 | 1486147785.89554 | pgbench_branches_pkey |            40960
 2017-02-03 19:49:45.895537+01 | 1486147785.89554 | pgbench_tellers_pkey  |           245760
 2017-02-03 19:49:45.895537+01 | 1486147785.89554 | pgbench_accounts_pkey |       2246197248

 2017-02-03 19:49:46.980557+01 | 1486147786.98056 | pgbench_branches_pkey |            40960
 2017-02-03 19:49:46.980557+01 | 1486147786.98056 | pgbench_tellers_pkey  |           245760
 2017-02-03 19:49:46.980557+01 | 1486147786.98056 | pgbench_accounts_pkey |       2246197248

 2017-02-03 19:49:48.083366+01 | 1486147788.08337 | pgbench_branches_pkey |            40960
 2017-02-03 19:49:48.083366+01 | 1486147788.08337 | pgbench_tellers_pkey  |           245760
 2017-02-03 19:49:48.083366+01 | 1486147788.08337 | pgbench_accounts_pkey |       2246197248

 2017-02-03 19:49:49.168476+01 | 1486147789.16848 | pgbench_branches_pkey |            40960
 2017-02-03 19:49:49.168476+01 | 1486147789.16848 | pgbench_tellers_pkey  |           245760
 2017-02-03 19:49:49.168476+01 | 1486147789.16848 | pgbench_accounts_pkey |       2246197248

 2017-02-03 19:49:50.262833+01 | 1486147790.26283 | pgbench_branches_pkey |            40960
 2017-02-03 19:49:50.262833+01 | 1486147790.26283 | pgbench_tellers_pkey  |           245760
 2017-02-03 19:49:50.262833+01 | 1486147790.26283 | pgbench_accounts_pkey |       2246197248

 2017-02-03 19:49:51.347864+01 | 1486147791.34786 | pgbench_branches_pkey |            40960
 2017-02-03 19:49:51.347864+01 | 1486147791.34786 | pgbench_tellers_pkey  |           245760
 2017-02-03 19:49:51.347864+01 | 1486147791.34786 | pgbench_accounts_pkey |       2246197248

 2017-02-03 19:49:52.439768+01 | 1486147792.43977 | pgbench_branches_pkey |            40960
 2017-02-03 19:49:52.439768+01 | 1486147792.43977 | pgbench_tellers_pkey  |           245760
 2017-02-03 19:49:52.439768+01 | 1486147792.43977 | pgbench_accounts_pkey |       2246197248

 2017-02-03 19:49:53.526073+01 | 1486147793.52607 | pgbench_branches_pkey |            40960
 2017-02-03 19:49:53.526073+01 | 1486147793.52607 | pgbench_tellers_pkey  |           245760
 2017-02-03 19:49:53.526073+01 | 1486147793.52607 | pgbench_accounts_pkey |       2246197248

 2017-02-03 19:49:54.612016+01 | 1486147794.61202 | pgbench_branches_pkey |            40960
 2017-02-03 19:49:54.612016+01 | 1486147794.61202 | pgbench_tellers_pkey  |           245760
 2017-02-03 19:49:54.612016+01 | 1486147794.61202 | pgbench_accounts_pkey |       2246197248

 2017-02-03 19:49:55.702794+01 | 1486147795.70279 | pgbench_branches_pkey |            40960
 2017-02-03 19:49:55.702794+01 | 1486147795.70279 | pgbench_tellers_pkey  |           245760
 2017-02-03 19:49:55.702794+01 | 1486147795.70279 | pgbench_accounts_pkey |       2246197248

 2017-02-03 19:49:56.79354+01 | 1486147796.79354 | pgbench_branches_pkey |            40960
 2017-02-03 19:49:56.79354+01 | 1486147796.79354 | pgbench_tellers_pkey  |           245760
 2017-02-03 19:49:56.79354+01 | 1486147796.79354 | pgbench_accounts_pkey |       2246197248

 2017-02-03 19:49:57.884705+01 | 1486147797.88471 | pgbench_branches_pkey |            40960
 2017-02-03 19:49:57.884705+01 | 1486147797.88471 | pgbench_tellers_pkey  |           245760
 2017-02-03 19:49:57.884705+01 | 1486147797.88471 | pgbench_accounts_pkey |       2246197248

 2017-02-03 19:49:58.969148+01 | 1486147798.96915 | pgbench_branches_pkey |            40960
 2017-02-03 19:49:58.969148+01 | 1486147798.96915 | pgbench_tellers_pkey  |           245760
 2017-02-03 19:49:58.969148+01 | 1486147798.96915 | pgbench_accounts_pkey |       2246197248

 2017-02-03 19:50:00.054787+01 | 1486147800.05479 | pgbench_branches_pkey |            40960
 2017-02-03 19:50:00.054787+01 | 1486147800.05479 | pgbench_tellers_pkey  |           245760
 2017-02-03 19:50:00.054787+01 | 1486147800.05479 | pgbench_accounts_pkey |       2246197248

 2017-02-03 19:50:01.144148+01 | 1486147801.14415 | pgbench_branches_pkey |            40960
 2017-02-03 19:50:01.144148+01 | 1486147801.14415 | pgbench_tellers_pkey  |           245760
 2017-02-03 19:50:01.144148+01 | 1486147801.14415 | pgbench_accounts_pkey |       2246197248

 2017-02-03 19:50:02.224272+01 | 1486147802.22427 | pgbench_branches_pkey |            40960
 2017-02-03 19:50:02.224272+01 | 1486147802.22427 | pgbench_tellers_pkey  |           245760
 2017-02-03 19:50:02.224272+01 | 1486147802.22427 | pgbench_accounts_pkey |       2246197248

 2017-02-03 19:50:03.31041+01 | 1486147803.31041 | pgbench_branches_pkey |            40960
 2017-02-03 19:50:03.31041+01 | 1486147803.31041 | pgbench_tellers_pkey  |           245760
 2017-02-03 19:50:03.31041+01 | 1486147803.31041 | pgbench_accounts_pkey |       2246197248

 2017-02-03 19:50:04.412532+01 | 1486147804.41253 | pgbench_branches_pkey |            40960
 2017-02-03 19:50:04.412532+01 | 1486147804.41253 | pgbench_tellers_pkey  |           245760
 2017-02-03 19:50:04.412532+01 | 1486147804.41253 | pgbench_accounts_pkey |       2246197248

 2017-02-03 19:50:05.501611+01 | 1486147805.50161 | pgbench_branches_pkey |            40960
 2017-02-03 19:50:05.501611+01 | 1486147805.50161 | pgbench_tellers_pkey  |           245760
 2017-02-03 19:50:05.501611+01 | 1486147805.50161 | pgbench_accounts_pkey |       2246197248

 2017-02-03 19:50:06.610236+01 | 1486147806.61024 | pgbench_branches_pkey |            40960
 2017-02-03 19:50:06.610236+01 | 1486147806.61024 | pgbench_tellers_pkey  |           245760
 2017-02-03 19:50:06.610236+01 | 1486147806.61024 | pgbench_accounts_pkey |       2246197248

 2017-02-03 19:50:07.691935+01 | 1486147807.69194 | pgbench_branches_pkey |            40960
 2017-02-03 19:50:07.691935+01 | 1486147807.69194 | pgbench_tellers_pkey  |           245760
 2017-02-03 19:50:07.691935+01 | 1486147807.69194 | pgbench_accounts_pkey |       2246197248

 2017-02-03 19:50:08.784281+01 | 1486147808.78428 | pgbench_branches_pkey |            40960
 2017-02-03 19:50:08.784281+01 | 1486147808.78428 | pgbench_tellers_pkey  |           245760
 2017-02-03 19:50:08.784281+01 | 1486147808.78428 | pgbench_accounts_pkey |       2246197248

 2017-02-03 19:50:09.87245+01 | 1486147809.87245 | pgbench_branches_pkey |            40960
 2017-02-03 19:50:09.87245+01 | 1486147809.87245 | pgbench_tellers_pkey  |           245760
 2017-02-03 19:50:09.87245+01 | 1486147809.87245 | pgbench_accounts_pkey |       2246197248

 2017-02-03 19:50:10.96191+01 | 1486147810.96191 | pgbench_branches_pkey |            40960
 2017-02-03 19:50:10.96191+01 | 1486147810.96191 | pgbench_tellers_pkey  |           245760
 2017-02-03 19:50:10.96191+01 | 1486147810.96191 | pgbench_accounts_pkey |       2246197248

 2017-02-03 19:50:12.054677+01 | 1486147812.05468 | pgbench_branches_pkey |            40960
 2017-02-03 19:50:12.054677+01 | 1486147812.05468 | pgbench_tellers_pkey  |           245760
 2017-02-03 19:50:12.054677+01 | 1486147812.05468 | pgbench_accounts_pkey |       2246197248

 2017-02-03 19:50:13.154097+01 | 1486147813.1541 | pgbench_branches_pkey |            40960
 2017-02-03 19:50:13.154097+01 | 1486147813.1541 | pgbench_tellers_pkey  |           245760
 2017-02-03 19:50:13.154097+01 | 1486147813.1541 | pgbench_accounts_pkey |       2246197248

 2017-02-03 19:50:14.25172+01 | 1486147814.25172 | pgbench_branches_pkey |            40960
 2017-02-03 19:50:14.25172+01 | 1486147814.25172 | pgbench_tellers_pkey  |           245760
 2017-02-03 19:50:14.25172+01 | 1486147814.25172 | pgbench_accounts_pkey |       2246197248

 2017-02-03 19:50:15.334221+01 | 1486147815.33422 | pgbench_branches_pkey |            40960
 2017-02-03 19:50:15.334221+01 | 1486147815.33422 | pgbench_tellers_pkey  |           245760
 2017-02-03 19:50:15.334221+01 | 1486147815.33422 | pgbench_accounts_pkey |       2246197248

 2017-02-03 19:50:16.450013+01 | 1486147816.45001 | pgbench_branches_pkey |            40960
 2017-02-03 19:50:16.450013+01 | 1486147816.45001 | pgbench_tellers_pkey  |           245760
 2017-02-03 19:50:16.450013+01 | 1486147816.45001 | pgbench_accounts_pkey |       2246197248

 2017-02-03 19:50:17.536381+01 | 1486147817.53638 | pgbench_branches_pkey |            40960
 2017-02-03 19:50:17.536381+01 | 1486147817.53638 | pgbench_tellers_pkey  |           245760
 2017-02-03 19:50:17.536381+01 | 1486147817.53638 | pgbench_accounts_pkey |       2246197248

 2017-02-03 19:50:18.629866+01 | 1486147818.62987 | pgbench_branches_pkey |            40960
 2017-02-03 19:50:18.629866+01 | 1486147818.62987 | pgbench_tellers_pkey  |           245760
 2017-02-03 19:50:18.629866+01 | 1486147818.62987 | pgbench_accounts_pkey |       2246197248

 2017-02-03 19:50:19.735433+01 | 1486147819.73543 | pgbench_branches_pkey |            40960
 2017-02-03 19:50:19.735433+01 | 1486147819.73543 | pgbench_tellers_pkey  |           245760
 2017-02-03 19:50:19.735433+01 | 1486147819.73543 | pgbench_accounts_pkey |       2246197248

 2017-02-03 19:50:20.826381+01 | 1486147820.82638 | pgbench_branches_pkey |            40960
 2017-02-03 19:50:20.826381+01 | 1486147820.82638 | pgbench_tellers_pkey  |           245760
 2017-02-03 19:50:20.826381+01 | 1486147820.82638 | pgbench_accounts_pkey |       2246197248

 2017-02-03 19:50:21.912648+01 | 1486147821.91265 | pgbench_branches_pkey |            40960
 2017-02-03 19:50:21.912648+01 | 1486147821.91265 | pgbench_tellers_pkey  |           245760
 2017-02-03 19:50:21.912648+01 | 1486147821.91265 | pgbench_accounts_pkey |       2246197248

 2017-02-03 19:50:23.008294+01 | 1486147823.00829 | pgbench_branches_pkey |            40960
 2017-02-03 19:50:23.008294+01 | 1486147823.00829 | pgbench_tellers_pkey  |           245760
 2017-02-03 19:50:23.008294+01 | 1486147823.00829 | pgbench_accounts_pkey |       2246197248

 2017-02-03 19:50:24.090311+01 | 1486147824.09031 | pgbench_branches_pkey |            40960
 2017-02-03 19:50:24.090311+01 | 1486147824.09031 | pgbench_tellers_pkey  |           245760
 2017-02-03 19:50:24.090311+01 | 1486147824.09031 | pgbench_accounts_pkey |       2246197248

 2017-02-03 19:50:25.189658+01 | 1486147825.18966 | pgbench_branches_pkey |            40960
 2017-02-03 19:50:25.189658+01 | 1486147825.18966 | pgbench_tellers_pkey  |           245760
 2017-02-03 19:50:25.189658+01 | 1486147825.18966 | pgbench_accounts_pkey |       2246197248

 2017-02-03 19:50:26.290838+01 | 1486147826.29084 | pgbench_branches_pkey |            40960
 2017-02-03 19:50:26.290838+01 | 1486147826.29084 | pgbench_tellers_pkey  |           245760
 2017-02-03 19:50:26.290838+01 | 1486147826.29084 | pgbench_accounts_pkey |       2246197248

 2017-02-03 19:50:27.376519+01 | 1486147827.37652 | pgbench_branches_pkey |            40960
 2017-02-03 19:50:27.376519+01 | 1486147827.37652 | pgbench_tellers_pkey  |           245760
 2017-02-03 19:50:27.376519+01 | 1486147827.37652 | pgbench_accounts_pkey |       2246197248

 2017-02-03 19:50:28.46569+01 | 1486147828.46569 | pgbench_branches_pkey |            40960
 2017-02-03 19:50:28.46569+01 | 1486147828.46569 | pgbench_tellers_pkey  |           245760
 2017-02-03 19:50:28.46569+01 | 1486147828.46569 | pgbench_accounts_pkey |       2246197248

 2017-02-03 19:50:29.558332+01 | 1486147829.55833 | pgbench_branches_pkey |            40960
 2017-02-03 19:50:29.558332+01 | 1486147829.55833 | pgbench_tellers_pkey  |           245760
 2017-02-03 19:50:29.558332+01 | 1486147829.55833 | pgbench_accounts_pkey |       2246197248

 2017-02-03 19:50:30.643408+01 | 1486147830.64341 | pgbench_branches_pkey |            40960
 2017-02-03 19:50:30.643408+01 | 1486147830.64341 | pgbench_tellers_pkey  |           245760
 2017-02-03 19:50:30.643408+01 | 1486147830.64341 | pgbench_accounts_pkey |       2246197248

 2017-02-03 19:50:31.742503+01 | 1486147831.7425 | pgbench_branches_pkey |            40960
 2017-02-03 19:50:31.742503+01 | 1486147831.7425 | pgbench_tellers_pkey  |           245760
 2017-02-03 19:50:31.742503+01 | 1486147831.7425 | pgbench_accounts_pkey |       2246197248

 2017-02-03 19:50:32.847528+01 | 1486147832.84753 | pgbench_branches_pkey |            40960
 2017-02-03 19:50:32.847528+01 | 1486147832.84753 | pgbench_tellers_pkey  |           245760
 2017-02-03 19:50:32.847528+01 | 1486147832.84753 | pgbench_accounts_pkey |       2246197248

 2017-02-03 19:50:33.928722+01 | 1486147833.92872 | pgbench_branches_pkey |            40960
 2017-02-03 19:50:33.928722+01 | 1486147833.92872 | pgbench_tellers_pkey  |           245760
 2017-02-03 19:50:33.928722+01 | 1486147833.92872 | pgbench_accounts_pkey |       2246197248

 2017-02-03 19:50:35.011144+01 | 1486147835.01114 | pgbench_branches_pkey |            40960
 2017-02-03 19:50:35.011144+01 | 1486147835.01114 | pgbench_tellers_pkey  |           245760
 2017-02-03 19:50:35.011144+01 | 1486147835.01114 | pgbench_accounts_pkey |       2246197248

 2017-02-03 19:50:36.104923+01 | 1486147836.10492 | pgbench_branches_pkey |            40960
 2017-02-03 19:50:36.104923+01 | 1486147836.10492 | pgbench_tellers_pkey  |           245760
 2017-02-03 19:50:36.104923+01 | 1486147836.10492 | pgbench_accounts_pkey |       2246197248

 2017-02-03 19:50:37.191019+01 | 1486147837.19102 | pgbench_branches_pkey |            40960
 2017-02-03 19:50:37.191019+01 | 1486147837.19102 | pgbench_tellers_pkey  |           245760
 2017-02-03 19:50:37.191019+01 | 1486147837.19102 | pgbench_accounts_pkey |       2246197248

 2017-02-03 19:50:38.28797+01 | 1486147838.28797 | pgbench_branches_pkey |            40960
 2017-02-03 19:50:38.28797+01 | 1486147838.28797 | pgbench_tellers_pkey  |           245760
 2017-02-03 19:50:38.28797+01 | 1486147838.28797 | pgbench_accounts_pkey |       2246197248

 2017-02-03 19:50:39.384045+01 | 1486147839.38404 | pgbench_branches_pkey |            40960
 2017-02-03 19:50:39.384045+01 | 1486147839.38404 | pgbench_tellers_pkey  |           245760
 2017-02-03 19:50:39.384045+01 | 1486147839.38404 | pgbench_accounts_pkey |       2246197248

 2017-02-03 19:50:40.471847+01 | 1486147840.47185 | pgbench_branches_pkey |            40960
 2017-02-03 19:50:40.471847+01 | 1486147840.47185 | pgbench_tellers_pkey  |           245760
 2017-02-03 19:50:40.471847+01 | 1486147840.47185 | pgbench_accounts_pkey |       2246197248

 2017-02-03 19:50:41.581124+01 | 1486147841.58112 | pgbench_branches_pkey |            40960
 2017-02-03 19:50:41.581124+01 | 1486147841.58112 | pgbench_tellers_pkey  |           245760
 2017-02-03 19:50:41.581124+01 | 1486147841.58112 | pgbench_accounts_pkey |       2246197248

 2017-02-03 19:50:42.666409+01 | 1486147842.66641 | pgbench_branches_pkey |            40960
 2017-02-03 19:50:42.666409+01 | 1486147842.66641 | pgbench_tellers_pkey  |           245760
 2017-02-03 19:50:42.666409+01 | 1486147842.66641 | pgbench_accounts_pkey |       2246197248

 2017-02-03 19:50:43.759297+01 | 1486147843.7593 | pgbench_branches_pkey |            40960
 2017-02-03 19:50:43.759297+01 | 1486147843.7593 | pgbench_tellers_pkey  |           245760
 2017-02-03 19:50:43.759297+01 | 1486147843.7593 | pgbench_accounts_pkey |       2246197248

 2017-02-03 19:50:44.850368+01 | 1486147844.85037 | pgbench_branches_pkey |            40960
 2017-02-03 19:50:44.850368+01 | 1486147844.85037 | pgbench_tellers_pkey  |           245760
 2017-02-03 19:50:44.850368+01 | 1486147844.85037 | pgbench_accounts_pkey |       2246197248

 2017-02-03 19:50:45.941004+01 | 1486147845.941 | pgbench_branches_pkey |            40960
 2017-02-03 19:50:45.941004+01 | 1486147845.941 | pgbench_tellers_pkey  |           245760
 2017-02-03 19:50:45.941004+01 | 1486147845.941 | pgbench_accounts_pkey |       2246197248

 2017-02-03 19:50:47.035065+01 | 1486147847.03506 | pgbench_branches_pkey |            40960
 2017-02-03 19:50:47.035065+01 | 1486147847.03506 | pgbench_tellers_pkey  |           245760
 2017-02-03 19:50:47.035065+01 | 1486147847.03506 | pgbench_accounts_pkey |       2246197248

 2017-02-03 19:50:48.12582+01 | 1486147848.12582 | pgbench_branches_pkey |            40960
 2017-02-03 19:50:48.12582+01 | 1486147848.12582 | pgbench_tellers_pkey  |           245760
 2017-02-03 19:50:48.12582+01 | 1486147848.12582 | pgbench_accounts_pkey |       2246197248

 2017-02-03 19:50:49.211589+01 | 1486147849.21159 | pgbench_branches_pkey |            40960
 2017-02-03 19:50:49.211589+01 | 1486147849.21159 | pgbench_tellers_pkey  |           245760
 2017-02-03 19:50:49.211589+01 | 1486147849.21159 | pgbench_accounts_pkey |       2246197248

 2017-02-03 19:50:50.297629+01 | 1486147850.29763 | pgbench_branches_pkey |            40960
 2017-02-03 19:50:50.297629+01 | 1486147850.29763 | pgbench_tellers_pkey  |           245760
 2017-02-03 19:50:50.297629+01 | 1486147850.29763 | pgbench_accounts_pkey |       2246197248

 2017-02-03 19:50:51.384964+01 | 1486147851.38496 | pgbench_branches_pkey |            40960
 2017-02-03 19:50:51.384964+01 | 1486147851.38496 | pgbench_tellers_pkey  |           245760
 2017-02-03 19:50:51.384964+01 | 1486147851.38496 | pgbench_accounts_pkey |       2246197248

 2017-02-03 19:50:52.481886+01 | 1486147852.48189 | pgbench_branches_pkey |            40960
 2017-02-03 19:50:52.481886+01 | 1486147852.48189 | pgbench_tellers_pkey  |           245760
 2017-02-03 19:50:52.481886+01 | 1486147852.48189 | pgbench_accounts_pkey |       2246197248

 2017-02-03 19:50:53.580484+01 | 1486147853.58048 | pgbench_branches_pkey |            40960
 2017-02-03 19:50:53.580484+01 | 1486147853.58048 | pgbench_tellers_pkey  |           245760
 2017-02-03 19:50:53.580484+01 | 1486147853.58048 | pgbench_accounts_pkey |       2246197248

 2017-02-03 19:50:54.664737+01 | 1486147854.66474 | pgbench_branches_pkey |            40960
 2017-02-03 19:50:54.664737+01 | 1486147854.66474 | pgbench_tellers_pkey  |           245760
 2017-02-03 19:50:54.664737+01 | 1486147854.66474 | pgbench_accounts_pkey |       2246197248

 2017-02-03 19:50:55.751578+01 | 1486147855.75158 | pgbench_branches_pkey |            40960
 2017-02-03 19:50:55.751578+01 | 1486147855.75158 | pgbench_tellers_pkey  |           245760
 2017-02-03 19:50:55.751578+01 | 1486147855.75158 | pgbench_accounts_pkey |       2246197248

 2017-02-03 19:50:56.841927+01 | 1486147856.84193 | pgbench_branches_pkey |            40960
 2017-02-03 19:50:56.841927+01 | 1486147856.84193 | pgbench_tellers_pkey  |           245760
 2017-02-03 19:50:56.841927+01 | 1486147856.84193 | pgbench_accounts_pkey |       2246197248

 2017-02-03 19:50:57.92995+01 | 1486147857.92995 | pgbench_branches_pkey |            40960
 2017-02-03 19:50:57.92995+01 | 1486147857.92995 | pgbench_tellers_pkey  |           245760
 2017-02-03 19:50:57.92995+01 | 1486147857.92995 | pgbench_accounts_pkey |       2246197248

 2017-02-03 19:50:59.02771+01 | 1486147859.02771 | pgbench_branches_pkey |            40960
 2017-02-03 19:50:59.02771+01 | 1486147859.02771 | pgbench_tellers_pkey  |           245760
 2017-02-03 19:50:59.02771+01 | 1486147859.02771 | pgbench_accounts_pkey |       2246197248

 2017-02-03 19:51:00.113665+01 | 1486147860.11367 | pgbench_branches_pkey |            40960
 2017-02-03 19:51:00.113665+01 | 1486147860.11367 | pgbench_tellers_pkey  |           245760
 2017-02-03 19:51:00.113665+01 | 1486147860.11367 | pgbench_accounts_pkey |       2246197248

 2017-02-03 19:51:01.199559+01 | 1486147861.19956 | pgbench_branches_pkey |            40960
 2017-02-03 19:51:01.199559+01 | 1486147861.19956 | pgbench_tellers_pkey  |           245760
 2017-02-03 19:51:01.199559+01 | 1486147861.19956 | pgbench_accounts_pkey |       2246197248

 2017-02-03 19:51:02.286473+01 | 1486147862.28647 | pgbench_branches_pkey |            40960
 2017-02-03 19:51:02.286473+01 | 1486147862.28647 | pgbench_tellers_pkey  |           245760
 2017-02-03 19:51:02.286473+01 | 1486147862.28647 | pgbench_accounts_pkey |       2246197248

 2017-02-03 19:51:03.371432+01 | 1486147863.37143 | pgbench_branches_pkey |            40960
 2017-02-03 19:51:03.371432+01 | 1486147863.37143 | pgbench_tellers_pkey  |           245760
 2017-02-03 19:51:03.371432+01 | 1486147863.37143 | pgbench_accounts_pkey |       2246197248

 2017-02-03 19:51:04.466622+01 | 1486147864.46662 | pgbench_branches_pkey |            40960
 2017-02-03 19:51:04.466622+01 | 1486147864.46662 | pgbench_tellers_pkey  |           245760
 2017-02-03 19:51:04.466622+01 | 1486147864.46662 | pgbench_accounts_pkey |       2246197248

 2017-02-03 19:51:05.554321+01 | 1486147865.55432 | pgbench_branches_pkey |            40960
 2017-02-03 19:51:05.554321+01 | 1486147865.55432 | pgbench_tellers_pkey  |           245760
 2017-02-03 19:51:05.554321+01 | 1486147865.55432 | pgbench_accounts_pkey |       2246197248

 2017-02-03 19:51:06.644+01 | 1486147866.644 | pgbench_branches_pkey |            40960
 2017-02-03 19:51:06.644+01 | 1486147866.644 | pgbench_tellers_pkey  |           245760
 2017-02-03 19:51:06.644+01 | 1486147866.644 | pgbench_accounts_pkey |       2246197248

 2017-02-03 19:51:07.730599+01 | 1486147867.7306 | pgbench_branches_pkey |            40960
 2017-02-03 19:51:07.730599+01 | 1486147867.7306 | pgbench_tellers_pkey  |           245760
 2017-02-03 19:51:07.730599+01 | 1486147867.7306 | pgbench_accounts_pkey |       2246197248

 2017-02-03 19:51:08.830799+01 | 1486147868.8308 | pgbench_branches_pkey |            40960
 2017-02-03 19:51:08.830799+01 | 1486147868.8308 | pgbench_tellers_pkey  |           245760
 2017-02-03 19:51:08.830799+01 | 1486147868.8308 | pgbench_accounts_pkey |       2246197248

 2017-02-03 19:51:09.928136+01 | 1486147869.92814 | pgbench_branches_pkey |            40960
 2017-02-03 19:51:09.928136+01 | 1486147869.92814 | pgbench_tellers_pkey  |           245760
 2017-02-03 19:51:09.928136+01 | 1486147869.92814 | pgbench_accounts_pkey |       2246197248

 2017-02-03 19:51:11.019631+01 | 1486147871.01963 | pgbench_branches_pkey |            40960
 2017-02-03 19:51:11.019631+01 | 1486147871.01963 | pgbench_tellers_pkey  |           245760
 2017-02-03 19:51:11.019631+01 | 1486147871.01963 | pgbench_accounts_pkey |       2246197248

 2017-02-03 19:51:12.122676+01 | 1486147872.12268 | pgbench_branches_pkey |            40960
 2017-02-03 19:51:12.122676+01 | 1486147872.12268 | pgbench_tellers_pkey  |           245760
 2017-02-03 19:51:12.122676+01 | 1486147872.12268 | pgbench_accounts_pkey |       2246197248

 2017-02-03 19:51:13.207242+01 | 1486147873.20724 | pgbench_branches_pkey |            40960
 2017-02-03 19:51:13.207242+01 | 1486147873.20724 | pgbench_tellers_pkey  |           245760
 2017-02-03 19:51:13.207242+01 | 1486147873.20724 | pgbench_accounts_pkey |       2246197248

 2017-02-03 19:51:14.305162+01 | 1486147874.30516 | pgbench_branches_pkey |            40960
 2017-02-03 19:51:14.305162+01 | 1486147874.30516 | pgbench_tellers_pkey  |           245760
 2017-02-03 19:51:14.305162+01 | 1486147874.30516 | pgbench_accounts_pkey |       2246197248

 2017-02-03 19:51:15.405557+01 | 1486147875.40556 | pgbench_branches_pkey |            40960
 2017-02-03 19:51:15.405557+01 | 1486147875.40556 | pgbench_tellers_pkey  |           245760
 2017-02-03 19:51:15.405557+01 | 1486147875.40556 | pgbench_accounts_pkey |       2246197248

 2017-02-03 19:51:16.495794+01 | 1486147876.49579 | pgbench_branches_pkey |            40960
 2017-02-03 19:51:16.495794+01 | 1486147876.49579 | pgbench_tellers_pkey  |           245760
 2017-02-03 19:51:16.495794+01 | 1486147876.49579 | pgbench_accounts_pkey |       2246197248

 2017-02-03 19:51:17.581204+01 | 1486147877.5812 | pgbench_branches_pkey |            40960
 2017-02-03 19:51:17.581204+01 | 1486147877.5812 | pgbench_tellers_pkey  |           245760
 2017-02-03 19:51:17.581204+01 | 1486147877.5812 | pgbench_accounts_pkey |       2246197248

 2017-02-03 19:51:18.669363+01 | 1486147878.66936 | pgbench_branches_pkey |            40960
 2017-02-03 19:51:18.669363+01 | 1486147878.66936 | pgbench_tellers_pkey  |           245760
 2017-02-03 19:51:18.669363+01 | 1486147878.66936 | pgbench_accounts_pkey |       2246197248

 2017-02-03 19:51:19.767399+01 | 1486147879.7674 | pgbench_branches_pkey |            40960
 2017-02-03 19:51:19.767399+01 | 1486147879.7674 | pgbench_tellers_pkey  |           245760
 2017-02-03 19:51:19.767399+01 | 1486147879.7674 | pgbench_accounts_pkey |       2246197248

 2017-02-03 19:51:20.856125+01 | 1486147880.85613 | pgbench_branches_pkey |            40960
 2017-02-03 19:51:20.856125+01 | 1486147880.85613 | pgbench_tellers_pkey  |           245760
 2017-02-03 19:51:20.856125+01 | 1486147880.85613 | pgbench_accounts_pkey |       2246197248

 2017-02-03 19:51:21.946464+01 | 1486147881.94646 | pgbench_branches_pkey |            40960
 2017-02-03 19:51:21.946464+01 | 1486147881.94646 | pgbench_tellers_pkey  |           245760
 2017-02-03 19:51:21.946464+01 | 1486147881.94646 | pgbench_accounts_pkey |       2246197248

 2017-02-03 19:51:23.030327+01 | 1486147883.03033 | pgbench_branches_pkey |            40960
 2017-02-03 19:51:23.030327+01 | 1486147883.03033 | pgbench_tellers_pkey  |           245760
 2017-02-03 19:51:23.030327+01 | 1486147883.03033 | pgbench_accounts_pkey |       2246197248

 2017-02-03 19:51:24.12904+01 | 1486147884.12904 | pgbench_branches_pkey |            40960
 2017-02-03 19:51:24.12904+01 | 1486147884.12904 | pgbench_tellers_pkey  |           245760
 2017-02-03 19:51:24.12904+01 | 1486147884.12904 | pgbench_accounts_pkey |       2246197248

 2017-02-03 19:51:25.222038+01 | 1486147885.22204 | pgbench_branches_pkey |            40960
 2017-02-03 19:51:25.222038+01 | 1486147885.22204 | pgbench_tellers_pkey  |           245760
 2017-02-03 19:51:25.222038+01 | 1486147885.22204 | pgbench_accounts_pkey |       2246197248

 2017-02-03 19:51:26.317768+01 | 1486147886.31777 | pgbench_branches_pkey |            40960
 2017-02-03 19:51:26.317768+01 | 1486147886.31777 | pgbench_tellers_pkey  |           245760
 2017-02-03 19:51:26.317768+01 | 1486147886.31777 | pgbench_accounts_pkey |       2246197248

 2017-02-03 19:51:27.407605+01 | 1486147887.4076 | pgbench_branches_pkey |            40960
 2017-02-03 19:51:27.407605+01 | 1486147887.4076 | pgbench_tellers_pkey  |           245760
 2017-02-03 19:51:27.407605+01 | 1486147887.4076 | pgbench_accounts_pkey |       2246197248

 2017-02-03 19:51:28.504289+01 | 1486147888.50429 | pgbench_branches_pkey |            40960
 2017-02-03 19:51:28.504289+01 | 1486147888.50429 | pgbench_tellers_pkey  |           245760
 2017-02-03 19:51:28.504289+01 | 1486147888.50429 | pgbench_accounts_pkey |       2246197248

 2017-02-03 19:51:29.588246+01 | 1486147889.58825 | pgbench_branches_pkey |            40960
 2017-02-03 19:51:29.588246+01 | 1486147889.58825 | pgbench_tellers_pkey  |           245760
 2017-02-03 19:51:29.588246+01 | 1486147889.58825 | pgbench_accounts_pkey |       2246197248

 2017-02-03 19:51:30.686266+01 | 1486147890.68627 | pgbench_branches_pkey |            40960
 2017-02-03 19:51:30.686266+01 | 1486147890.68627 | pgbench_tellers_pkey  |           245760
 2017-02-03 19:51:30.686266+01 | 1486147890.68627 | pgbench_accounts_pkey |       2246197248

 2017-02-03 19:51:31.773773+01 | 1486147891.77377 | pgbench_branches_pkey |            40960
 2017-02-03 19:51:31.773773+01 | 1486147891.77377 | pgbench_tellers_pkey  |           245760
 2017-02-03 19:51:31.773773+01 | 1486147891.77377 | pgbench_accounts_pkey |       2246197248

 2017-02-03 19:51:32.869895+01 | 1486147892.86989 | pgbench_branches_pkey |            40960
 2017-02-03 19:51:32.869895+01 | 1486147892.86989 | pgbench_tellers_pkey  |           245760
 2017-02-03 19:51:32.869895+01 | 1486147892.86989 | pgbench_accounts_pkey |       2246197248

 2017-02-03 19:51:33.957762+01 | 1486147893.95776 | pgbench_branches_pkey |            40960
 2017-02-03 19:51:33.957762+01 | 1486147893.95776 | pgbench_tellers_pkey  |           245760
 2017-02-03 19:51:33.957762+01 | 1486147893.95776 | pgbench_accounts_pkey |       2246197248

 2017-02-03 19:51:35.059207+01 | 1486147895.05921 | pgbench_branches_pkey |            40960
 2017-02-03 19:51:35.059207+01 | 1486147895.05921 | pgbench_tellers_pkey  |           245760
 2017-02-03 19:51:35.059207+01 | 1486147895.05921 | pgbench_accounts_pkey |       2246197248

 2017-02-03 19:51:36.152782+01 | 1486147896.15278 | pgbench_branches_pkey |            40960
 2017-02-03 19:51:36.152782+01 | 1486147896.15278 | pgbench_tellers_pkey  |           245760
 2017-02-03 19:51:36.152782+01 | 1486147896.15278 | pgbench_accounts_pkey |       2246197248

 2017-02-03 19:51:37.245272+01 | 1486147897.24527 | pgbench_branches_pkey |            40960
 2017-02-03 19:51:37.245272+01 | 1486147897.24527 | pgbench_tellers_pkey  |           245760
 2017-02-03 19:51:37.245272+01 | 1486147897.24527 | pgbench_accounts_pkey |       2246197248

 2017-02-03 19:51:38.339388+01 | 1486147898.33939 | pgbench_branches_pkey |            40960
 2017-02-03 19:51:38.339388+01 | 1486147898.33939 | pgbench_tellers_pkey  |           245760
 2017-02-03 19:51:38.339388+01 | 1486147898.33939 | pgbench_accounts_pkey |       2246197248

 2017-02-03 19:51:39.428292+01 | 1486147899.42829 | pgbench_branches_pkey |            40960
 2017-02-03 19:51:39.428292+01 | 1486147899.42829 | pgbench_tellers_pkey  |           245760
 2017-02-03 19:51:39.428292+01 | 1486147899.42829 | pgbench_accounts_pkey |       2246197248

 2017-02-03 19:51:40.519488+01 | 1486147900.51949 | pgbench_branches_pkey |            40960
 2017-02-03 19:51:40.519488+01 | 1486147900.51949 | pgbench_tellers_pkey  |           245760
 2017-02-03 19:51:40.519488+01 | 1486147900.51949 | pgbench_accounts_pkey |       2246197248

 2017-02-03 19:51:41.605618+01 | 1486147901.60562 | pgbench_branches_pkey |            40960
 2017-02-03 19:51:41.605618+01 | 1486147901.60562 | pgbench_tellers_pkey  |           245760
 2017-02-03 19:51:41.605618+01 | 1486147901.60562 | pgbench_accounts_pkey |       2246197248

 2017-02-03 19:51:42.701949+01 | 1486147902.70195 | pgbench_branches_pkey |            40960
 2017-02-03 19:51:42.701949+01 | 1486147902.70195 | pgbench_tellers_pkey  |           245760
 2017-02-03 19:51:42.701949+01 | 1486147902.70195 | pgbench_accounts_pkey |       2246197248

 2017-02-03 19:51:43.78998+01 | 1486147903.78998 | pgbench_branches_pkey |            40960
 2017-02-03 19:51:43.78998+01 | 1486147903.78998 | pgbench_tellers_pkey  |           245760
 2017-02-03 19:51:43.78998+01 | 1486147903.78998 | pgbench_accounts_pkey |       2246197248

 2017-02-03 19:51:44.882629+01 | 1486147904.88263 | pgbench_branches_pkey |            40960
 2017-02-03 19:51:44.882629+01 | 1486147904.88263 | pgbench_tellers_pkey  |           245760
 2017-02-03 19:51:44.882629+01 | 1486147904.88263 | pgbench_accounts_pkey |       2246197248

 2017-02-03 19:51:45.968547+01 | 1486147905.96855 | pgbench_branches_pkey |            40960
 2017-02-03 19:51:45.968547+01 | 1486147905.96855 | pgbench_tellers_pkey  |           245760
 2017-02-03 19:51:45.968547+01 | 1486147905.96855 | pgbench_accounts_pkey |       2246197248

 2017-02-03 19:51:47.061335+01 | 1486147907.06134 | pgbench_branches_pkey |            40960
 2017-02-03 19:51:47.061335+01 | 1486147907.06134 | pgbench_tellers_pkey  |           245760
 2017-02-03 19:51:47.061335+01 | 1486147907.06134 | pgbench_accounts_pkey |       2246197248

 2017-02-03 19:51:48.151786+01 | 1486147908.15179 | pgbench_branches_pkey |            40960
 2017-02-03 19:51:48.151786+01 | 1486147908.15179 | pgbench_tellers_pkey  |           245760
 2017-02-03 19:51:48.151786+01 | 1486147908.15179 | pgbench_accounts_pkey |       2246197248

 2017-02-03 19:51:49.242036+01 | 1486147909.24204 | pgbench_branches_pkey |            40960
 2017-02-03 19:51:49.242036+01 | 1486147909.24204 | pgbench_tellers_pkey  |           245760
 2017-02-03 19:51:49.242036+01 | 1486147909.24204 | pgbench_accounts_pkey |       2246197248

 2017-02-03 19:51:50.331698+01 | 1486147910.3317 | pgbench_branches_pkey |            40960
 2017-02-03 19:51:50.331698+01 | 1486147910.3317 | pgbench_tellers_pkey  |           245760
 2017-02-03 19:51:50.331698+01 | 1486147910.3317 | pgbench_accounts_pkey |       2246197248

 2017-02-03 19:51:51.429584+01 | 1486147911.42958 | pgbench_branches_pkey |            40960
 2017-02-03 19:51:51.429584+01 | 1486147911.42958 | pgbench_tellers_pkey  |           245760
 2017-02-03 19:51:51.429584+01 | 1486147911.42958 | pgbench_accounts_pkey |       2246197248

 2017-02-03 19:51:52.516475+01 | 1486147912.51647 | pgbench_branches_pkey |            40960
 2017-02-03 19:51:52.516475+01 | 1486147912.51647 | pgbench_tellers_pkey  |           245760
 2017-02-03 19:51:52.516475+01 | 1486147912.51647 | pgbench_accounts_pkey |       2246197248

 2017-02-03 19:51:53.617509+01 | 1486147913.61751 | pgbench_branches_pkey |            40960
 2017-02-03 19:51:53.617509+01 | 1486147913.61751 | pgbench_tellers_pkey  |           245760
 2017-02-03 19:51:53.617509+01 | 1486147913.61751 | pgbench_accounts_pkey |       2246197248

 2017-02-03 19:51:54.706165+01 | 1486147914.70617 | pgbench_branches_pkey |            40960
 2017-02-03 19:51:54.706165+01 | 1486147914.70617 | pgbench_tellers_pkey  |           245760
 2017-02-03 19:51:54.706165+01 | 1486147914.70617 | pgbench_accounts_pkey |       2246197248

 2017-02-03 19:51:55.806753+01 | 1486147915.80675 | pgbench_branches_pkey |            40960
 2017-02-03 19:51:55.806753+01 | 1486147915.80675 | pgbench_tellers_pkey  |           245760
 2017-02-03 19:51:55.806753+01 | 1486147915.80675 | pgbench_accounts_pkey |       2246197248

 2017-02-03 19:51:56.906345+01 | 1486147916.90634 | pgbench_branches_pkey |            40960
 2017-02-03 19:51:56.906345+01 | 1486147916.90634 | pgbench_tellers_pkey  |           245760
 2017-02-03 19:51:56.906345+01 | 1486147916.90634 | pgbench_accounts_pkey |       2246197248

 2017-02-03 19:51:57.99608+01 | 1486147917.99608 | pgbench_branches_pkey |            40960
 2017-02-03 19:51:57.99608+01 | 1486147917.99608 | pgbench_tellers_pkey  |           245760
 2017-02-03 19:51:57.99608+01 | 1486147917.99608 | pgbench_accounts_pkey |       2246197248

 2017-02-03 19:51:59.088474+01 | 1486147919.08847 | pgbench_branches_pkey |            40960
 2017-02-03 19:51:59.088474+01 | 1486147919.08847 | pgbench_tellers_pkey  |           245760
 2017-02-03 19:51:59.088474+01 | 1486147919.08847 | pgbench_accounts_pkey |       2246197248

 2017-02-03 19:52:00.170225+01 | 1486147920.17022 | pgbench_branches_pkey |            40960
 2017-02-03 19:52:00.170225+01 | 1486147920.17022 | pgbench_tellers_pkey  |           245760
 2017-02-03 19:52:00.170225+01 | 1486147920.17022 | pgbench_accounts_pkey |       2246197248

 2017-02-03 19:52:01.265158+01 | 1486147921.26516 | pgbench_branches_pkey |            40960
 2017-02-03 19:52:01.265158+01 | 1486147921.26516 | pgbench_tellers_pkey  |           245760
 2017-02-03 19:52:01.265158+01 | 1486147921.26516 | pgbench_accounts_pkey |       2246197248

 2017-02-03 19:52:02.376291+01 | 1486147922.37629 | pgbench_branches_pkey |            40960
 2017-02-03 19:52:02.376291+01 | 1486147922.37629 | pgbench_tellers_pkey  |           245760
 2017-02-03 19:52:02.376291+01 | 1486147922.37629 | pgbench_accounts_pkey |       2246197248

 2017-02-03 19:52:03.469975+01 | 1486147923.46997 | pgbench_branches_pkey |            40960
 2017-02-03 19:52:03.469975+01 | 1486147923.46997 | pgbench_tellers_pkey  |           245760
 2017-02-03 19:52:03.469975+01 | 1486147923.46997 | pgbench_accounts_pkey |       2246197248

 2017-02-03 19:52:04.557692+01 | 1486147924.55769 | pgbench_branches_pkey |            40960
 2017-02-03 19:52:04.557692+01 | 1486147924.55769 | pgbench_tellers_pkey  |           245760
 2017-02-03 19:52:04.557692+01 | 1486147924.55769 | pgbench_accounts_pkey |       2246197248

