 2017-02-05 08:27:44.32906+01 | 1486279664.32906 | pgbench_accounts |      13724057600
 2017-02-05 08:27:44.32906+01 | 1486279664.32906 | pgbench_tellers  |           450560
 2017-02-05 08:27:44.32906+01 | 1486279664.32906 | pgbench_history  |                0
 2017-02-05 08:27:44.32906+01 | 1486279664.32906 | pgbench_branches |            40960

 2017-02-05 08:27:45.410867+01 | 1486279665.41087 | pgbench_accounts |      13724106752
 2017-02-05 08:27:45.410867+01 | 1486279665.41087 | pgbench_tellers  |           450560
 2017-02-05 08:27:45.410867+01 | 1486279665.41087 | pgbench_history  |                0
 2017-02-05 08:27:45.410867+01 | 1486279665.41087 | pgbench_branches |            40960

 2017-02-05 08:27:46.491771+01 | 1486279666.49177 | pgbench_accounts |      13724205056
 2017-02-05 08:27:46.491771+01 | 1486279666.49177 | pgbench_tellers  |           450560
 2017-02-05 08:27:46.491771+01 | 1486279666.49177 | pgbench_history  |                0
 2017-02-05 08:27:46.491771+01 | 1486279666.49177 | pgbench_branches |            40960

 2017-02-05 08:27:47.583008+01 | 1486279667.58301 | pgbench_accounts |      13724319744
 2017-02-05 08:27:47.583008+01 | 1486279667.58301 | pgbench_tellers  |           450560
 2017-02-05 08:27:47.583008+01 | 1486279667.58301 | pgbench_history  |                0
 2017-02-05 08:27:47.583008+01 | 1486279667.58301 | pgbench_branches |            40960

 2017-02-05 08:27:48.672504+01 | 1486279668.6725 | pgbench_accounts |      13724409856
 2017-02-05 08:27:48.672504+01 | 1486279668.6725 | pgbench_tellers  |           450560
 2017-02-05 08:27:48.672504+01 | 1486279668.6725 | pgbench_history  |                0
 2017-02-05 08:27:48.672504+01 | 1486279668.6725 | pgbench_branches |            40960

 2017-02-05 08:27:49.751592+01 | 1486279669.75159 | pgbench_accounts |      13724524544
 2017-02-05 08:27:49.751592+01 | 1486279669.75159 | pgbench_tellers  |           450560
 2017-02-05 08:27:49.751592+01 | 1486279669.75159 | pgbench_history  |                0
 2017-02-05 08:27:49.751592+01 | 1486279669.75159 | pgbench_branches |            40960

 2017-02-05 08:27:50.83369+01 | 1486279670.83369 | pgbench_accounts |      13724614656
 2017-02-05 08:27:50.83369+01 | 1486279670.83369 | pgbench_tellers  |           450560
 2017-02-05 08:27:50.83369+01 | 1486279670.83369 | pgbench_history  |                0
 2017-02-05 08:27:50.83369+01 | 1486279670.83369 | pgbench_branches |            40960

 2017-02-05 08:27:51.911197+01 | 1486279671.9112 | pgbench_accounts |      13724721152
 2017-02-05 08:27:51.911197+01 | 1486279671.9112 | pgbench_tellers  |           450560
 2017-02-05 08:27:51.911197+01 | 1486279671.9112 | pgbench_history  |                0
 2017-02-05 08:27:51.911197+01 | 1486279671.9112 | pgbench_branches |            40960

 2017-02-05 08:27:52.988053+01 | 1486279672.98805 | pgbench_accounts |      13724819456
 2017-02-05 08:27:52.988053+01 | 1486279672.98805 | pgbench_tellers  |           450560
 2017-02-05 08:27:52.988053+01 | 1486279672.98805 | pgbench_history  |                0
 2017-02-05 08:27:52.988053+01 | 1486279672.98805 | pgbench_branches |            40960

 2017-02-05 08:27:54.07087+01 | 1486279674.07087 | pgbench_accounts |      13724909568
 2017-02-05 08:27:54.07087+01 | 1486279674.07087 | pgbench_tellers  |           450560
 2017-02-05 08:27:54.07087+01 | 1486279674.07087 | pgbench_history  |                0
 2017-02-05 08:27:54.07087+01 | 1486279674.07087 | pgbench_branches |            40960

 2017-02-05 08:27:55.148544+01 | 1486279675.14854 | pgbench_accounts |      13724975104
 2017-02-05 08:27:55.148544+01 | 1486279675.14854 | pgbench_tellers  |           450560
 2017-02-05 08:27:55.148544+01 | 1486279675.14854 | pgbench_history  |                0
 2017-02-05 08:27:55.148544+01 | 1486279675.14854 | pgbench_branches |            40960

 2017-02-05 08:27:56.229013+01 | 1486279676.22901 | pgbench_accounts |      13725048832
 2017-02-05 08:27:56.229013+01 | 1486279676.22901 | pgbench_tellers  |           450560
 2017-02-05 08:27:56.229013+01 | 1486279676.22901 | pgbench_history  |                0
 2017-02-05 08:27:56.229013+01 | 1486279676.22901 | pgbench_branches |            40960

 2017-02-05 08:27:57.30851+01 | 1486279677.30851 | pgbench_accounts |      13725138944
 2017-02-05 08:27:57.30851+01 | 1486279677.30851 | pgbench_tellers  |           450560
 2017-02-05 08:27:57.30851+01 | 1486279677.30851 | pgbench_history  |                0
 2017-02-05 08:27:57.30851+01 | 1486279677.30851 | pgbench_branches |            40960

 2017-02-05 08:27:58.389047+01 | 1486279678.38905 | pgbench_accounts |      13725229056
 2017-02-05 08:27:58.389047+01 | 1486279678.38905 | pgbench_tellers  |           450560
 2017-02-05 08:27:58.389047+01 | 1486279678.38905 | pgbench_history  |                0
 2017-02-05 08:27:58.389047+01 | 1486279678.38905 | pgbench_branches |            40960

 2017-02-05 08:27:59.46758+01 | 1486279679.46758 | pgbench_accounts |      13725310976
 2017-02-05 08:27:59.46758+01 | 1486279679.46758 | pgbench_tellers  |           450560
 2017-02-05 08:27:59.46758+01 | 1486279679.46758 | pgbench_history  |                0
 2017-02-05 08:27:59.46758+01 | 1486279679.46758 | pgbench_branches |            40960

 2017-02-05 08:28:00.548972+01 | 1486279680.54897 | pgbench_accounts |      13725384704
 2017-02-05 08:28:00.548972+01 | 1486279680.54897 | pgbench_tellers  |           450560
 2017-02-05 08:28:00.548972+01 | 1486279680.54897 | pgbench_history  |                0
 2017-02-05 08:28:00.548972+01 | 1486279680.54897 | pgbench_branches |            40960

 2017-02-05 08:28:01.633441+01 | 1486279681.63344 | pgbench_accounts |      13725458432
 2017-02-05 08:28:01.633441+01 | 1486279681.63344 | pgbench_tellers  |           450560
 2017-02-05 08:28:01.633441+01 | 1486279681.63344 | pgbench_history  |                0
 2017-02-05 08:28:01.633441+01 | 1486279681.63344 | pgbench_branches |            40960

 2017-02-05 08:28:02.717138+01 | 1486279682.71714 | pgbench_accounts |      13725507584
 2017-02-05 08:28:02.717138+01 | 1486279682.71714 | pgbench_tellers  |           450560
 2017-02-05 08:28:02.717138+01 | 1486279682.71714 | pgbench_history  |                0
 2017-02-05 08:28:02.717138+01 | 1486279682.71714 | pgbench_branches |            40960

 2017-02-05 08:28:03.804796+01 | 1486279683.8048 | pgbench_accounts |      13725581312
 2017-02-05 08:28:03.804796+01 | 1486279683.8048 | pgbench_tellers  |           450560
 2017-02-05 08:28:03.804796+01 | 1486279683.8048 | pgbench_history  |                0
 2017-02-05 08:28:03.804796+01 | 1486279683.8048 | pgbench_branches |            40960

 2017-02-05 08:28:04.890607+01 | 1486279684.89061 | pgbench_accounts |      13725663232
 2017-02-05 08:28:04.890607+01 | 1486279684.89061 | pgbench_tellers  |           450560
 2017-02-05 08:28:04.890607+01 | 1486279684.89061 | pgbench_history  |                0
 2017-02-05 08:28:04.890607+01 | 1486279684.89061 | pgbench_branches |            40960

 2017-02-05 08:28:05.96756+01 | 1486279685.96756 | pgbench_accounts |      13725712384
 2017-02-05 08:28:05.96756+01 | 1486279685.96756 | pgbench_tellers  |           450560
 2017-02-05 08:28:05.96756+01 | 1486279685.96756 | pgbench_history  |                0
 2017-02-05 08:28:05.96756+01 | 1486279685.96756 | pgbench_branches |            40960

 2017-02-05 08:28:07.057431+01 | 1486279687.05743 | pgbench_accounts |      13725769728
 2017-02-05 08:28:07.057431+01 | 1486279687.05743 | pgbench_tellers  |           450560
 2017-02-05 08:28:07.057431+01 | 1486279687.05743 | pgbench_history  |                0
 2017-02-05 08:28:07.057431+01 | 1486279687.05743 | pgbench_branches |            40960

 2017-02-05 08:28:08.143042+01 | 1486279688.14304 | pgbench_accounts |      13725958144
 2017-02-05 08:28:08.143042+01 | 1486279688.14304 | pgbench_tellers  |           450560
 2017-02-05 08:28:08.143042+01 | 1486279688.14304 | pgbench_history  |                0
 2017-02-05 08:28:08.143042+01 | 1486279688.14304 | pgbench_branches |            40960

 2017-02-05 08:28:09.227031+01 | 1486279689.22703 | pgbench_accounts |      13725974528
 2017-02-05 08:28:09.227031+01 | 1486279689.22703 | pgbench_tellers  |           450560
 2017-02-05 08:28:09.227031+01 | 1486279689.22703 | pgbench_history  |                0
 2017-02-05 08:28:09.227031+01 | 1486279689.22703 | pgbench_branches |            40960

 2017-02-05 08:28:10.301703+01 | 1486279690.3017 | pgbench_accounts |      13726089216
 2017-02-05 08:28:10.301703+01 | 1486279690.3017 | pgbench_tellers  |           450560
 2017-02-05 08:28:10.301703+01 | 1486279690.3017 | pgbench_history  |                0
 2017-02-05 08:28:10.301703+01 | 1486279690.3017 | pgbench_branches |            40960

 2017-02-05 08:28:11.381052+01 | 1486279691.38105 | pgbench_accounts |      13726203904
 2017-02-05 08:28:11.381052+01 | 1486279691.38105 | pgbench_tellers  |           450560
 2017-02-05 08:28:11.381052+01 | 1486279691.38105 | pgbench_history  |                0
 2017-02-05 08:28:11.381052+01 | 1486279691.38105 | pgbench_branches |            40960

 2017-02-05 08:28:12.456343+01 | 1486279692.45634 | pgbench_accounts |      13726228480
 2017-02-05 08:28:12.456343+01 | 1486279692.45634 | pgbench_tellers  |           450560
 2017-02-05 08:28:12.456343+01 | 1486279692.45634 | pgbench_history  |                0
 2017-02-05 08:28:12.456343+01 | 1486279692.45634 | pgbench_branches |            40960

 2017-02-05 08:28:13.532989+01 | 1486279693.53299 | pgbench_accounts |      13726351360
 2017-02-05 08:28:13.532989+01 | 1486279693.53299 | pgbench_tellers  |           450560
 2017-02-05 08:28:13.532989+01 | 1486279693.53299 | pgbench_history  |                0
 2017-02-05 08:28:13.532989+01 | 1486279693.53299 | pgbench_branches |            40960

 2017-02-05 08:28:14.615543+01 | 1486279694.61554 | pgbench_accounts |      13726400512
 2017-02-05 08:28:14.615543+01 | 1486279694.61554 | pgbench_tellers  |           450560
 2017-02-05 08:28:14.615543+01 | 1486279694.61554 | pgbench_history  |                0
 2017-02-05 08:28:14.615543+01 | 1486279694.61554 | pgbench_branches |            40960

 2017-02-05 08:28:15.704289+01 | 1486279695.70429 | pgbench_accounts |      13726482432
 2017-02-05 08:28:15.704289+01 | 1486279695.70429 | pgbench_tellers  |           450560
 2017-02-05 08:28:15.704289+01 | 1486279695.70429 | pgbench_history  |                0
 2017-02-05 08:28:15.704289+01 | 1486279695.70429 | pgbench_branches |            40960

 2017-02-05 08:28:16.784084+01 | 1486279696.78408 | pgbench_accounts |      13726572544
 2017-02-05 08:28:16.784084+01 | 1486279696.78408 | pgbench_tellers  |           450560
 2017-02-05 08:28:16.784084+01 | 1486279696.78408 | pgbench_history  |                0
 2017-02-05 08:28:16.784084+01 | 1486279696.78408 | pgbench_branches |            40960

 2017-02-05 08:28:17.862222+01 | 1486279697.86222 | pgbench_accounts |      13726638080
 2017-02-05 08:28:17.862222+01 | 1486279697.86222 | pgbench_tellers  |           450560
 2017-02-05 08:28:17.862222+01 | 1486279697.86222 | pgbench_history  |                0
 2017-02-05 08:28:17.862222+01 | 1486279697.86222 | pgbench_branches |            40960

 2017-02-05 08:28:18.936975+01 | 1486279698.93698 | pgbench_accounts |      13726752768
 2017-02-05 08:28:18.936975+01 | 1486279698.93698 | pgbench_tellers  |           450560
 2017-02-05 08:28:18.936975+01 | 1486279698.93698 | pgbench_history  |                0
 2017-02-05 08:28:18.936975+01 | 1486279698.93698 | pgbench_branches |            40960

 2017-02-05 08:28:20.017412+01 | 1486279700.01741 | pgbench_accounts |      13726810112
 2017-02-05 08:28:20.017412+01 | 1486279700.01741 | pgbench_tellers  |           450560
 2017-02-05 08:28:20.017412+01 | 1486279700.01741 | pgbench_history  |                0
 2017-02-05 08:28:20.017412+01 | 1486279700.01741 | pgbench_branches |            40960

 2017-02-05 08:28:21.103077+01 | 1486279701.10308 | pgbench_accounts |      13726875648
 2017-02-05 08:28:21.103077+01 | 1486279701.10308 | pgbench_tellers  |           450560
 2017-02-05 08:28:21.103077+01 | 1486279701.10308 | pgbench_history  |                0
 2017-02-05 08:28:21.103077+01 | 1486279701.10308 | pgbench_branches |            40960

 2017-02-05 08:28:22.188121+01 | 1486279702.18812 | pgbench_accounts |      13726949376
 2017-02-05 08:28:22.188121+01 | 1486279702.18812 | pgbench_tellers  |           450560
 2017-02-05 08:28:22.188121+01 | 1486279702.18812 | pgbench_history  |                0
 2017-02-05 08:28:22.188121+01 | 1486279702.18812 | pgbench_branches |            40960

 2017-02-05 08:28:23.271121+01 | 1486279703.27112 | pgbench_accounts |      13727006720
 2017-02-05 08:28:23.271121+01 | 1486279703.27112 | pgbench_tellers  |           450560
 2017-02-05 08:28:23.271121+01 | 1486279703.27112 | pgbench_history  |                0
 2017-02-05 08:28:23.271121+01 | 1486279703.27112 | pgbench_branches |            40960

 2017-02-05 08:28:24.356855+01 | 1486279704.35685 | pgbench_accounts |      13727096832
 2017-02-05 08:28:24.356855+01 | 1486279704.35685 | pgbench_tellers  |           450560
 2017-02-05 08:28:24.356855+01 | 1486279704.35685 | pgbench_history  |                0
 2017-02-05 08:28:24.356855+01 | 1486279704.35685 | pgbench_branches |            40960

 2017-02-05 08:28:25.440476+01 | 1486279705.44048 | pgbench_accounts |      13727162368
 2017-02-05 08:28:25.440476+01 | 1486279705.44048 | pgbench_tellers  |           450560
 2017-02-05 08:28:25.440476+01 | 1486279705.44048 | pgbench_history  |                0
 2017-02-05 08:28:25.440476+01 | 1486279705.44048 | pgbench_branches |            40960

 2017-02-05 08:28:26.51758+01 | 1486279706.51758 | pgbench_accounts |      13727236096
 2017-02-05 08:28:26.51758+01 | 1486279706.51758 | pgbench_tellers  |           450560
 2017-02-05 08:28:26.51758+01 | 1486279706.51758 | pgbench_history  |                0
 2017-02-05 08:28:26.51758+01 | 1486279706.51758 | pgbench_branches |            40960

 2017-02-05 08:28:27.592909+01 | 1486279707.59291 | pgbench_accounts |      13727309824
 2017-02-05 08:28:27.592909+01 | 1486279707.59291 | pgbench_tellers  |           450560
 2017-02-05 08:28:27.592909+01 | 1486279707.59291 | pgbench_history  |                0
 2017-02-05 08:28:27.592909+01 | 1486279707.59291 | pgbench_branches |            40960

 2017-02-05 08:28:28.673259+01 | 1486279708.67326 | pgbench_accounts |      13727399936
 2017-02-05 08:28:28.673259+01 | 1486279708.67326 | pgbench_tellers  |           450560
 2017-02-05 08:28:28.673259+01 | 1486279708.67326 | pgbench_history  |                0
 2017-02-05 08:28:28.673259+01 | 1486279708.67326 | pgbench_branches |            40960

 2017-02-05 08:28:29.754953+01 | 1486279709.75495 | pgbench_accounts |      13727481856
 2017-02-05 08:28:29.754953+01 | 1486279709.75495 | pgbench_tellers  |           450560
 2017-02-05 08:28:29.754953+01 | 1486279709.75495 | pgbench_history  |                0
 2017-02-05 08:28:29.754953+01 | 1486279709.75495 | pgbench_branches |            40960

 2017-02-05 08:28:30.833703+01 | 1486279710.8337 | pgbench_accounts |      13727580160
 2017-02-05 08:28:30.833703+01 | 1486279710.8337 | pgbench_tellers  |           450560
 2017-02-05 08:28:30.833703+01 | 1486279710.8337 | pgbench_history  |                0
 2017-02-05 08:28:30.833703+01 | 1486279710.8337 | pgbench_branches |            40960

 2017-02-05 08:28:31.9115+01 | 1486279711.9115 | pgbench_accounts |      13727662080
 2017-02-05 08:28:31.9115+01 | 1486279711.9115 | pgbench_tellers  |           450560
 2017-02-05 08:28:31.9115+01 | 1486279711.9115 | pgbench_history  |                0
 2017-02-05 08:28:31.9115+01 | 1486279711.9115 | pgbench_branches |            40960

 2017-02-05 08:28:32.988321+01 | 1486279712.98832 | pgbench_accounts |      13727727616
 2017-02-05 08:28:32.988321+01 | 1486279712.98832 | pgbench_tellers  |           450560
 2017-02-05 08:28:32.988321+01 | 1486279712.98832 | pgbench_history  |                0
 2017-02-05 08:28:32.988321+01 | 1486279712.98832 | pgbench_branches |            40960

 2017-02-05 08:28:34.065803+01 | 1486279714.0658 | pgbench_accounts |      13727801344
 2017-02-05 08:28:34.065803+01 | 1486279714.0658 | pgbench_tellers  |           450560
 2017-02-05 08:28:34.065803+01 | 1486279714.0658 | pgbench_history  |                0
 2017-02-05 08:28:34.065803+01 | 1486279714.0658 | pgbench_branches |            40960

 2017-02-05 08:28:35.153496+01 | 1486279715.1535 | pgbench_accounts |      13727899648
 2017-02-05 08:28:35.153496+01 | 1486279715.1535 | pgbench_tellers  |           450560
 2017-02-05 08:28:35.153496+01 | 1486279715.1535 | pgbench_history  |                0
 2017-02-05 08:28:35.153496+01 | 1486279715.1535 | pgbench_branches |            40960

 2017-02-05 08:28:36.235601+01 | 1486279716.2356 | pgbench_accounts |      13727973376
 2017-02-05 08:28:36.235601+01 | 1486279716.2356 | pgbench_tellers  |           450560
 2017-02-05 08:28:36.235601+01 | 1486279716.2356 | pgbench_history  |                0
 2017-02-05 08:28:36.235601+01 | 1486279716.2356 | pgbench_branches |            40960

 2017-02-05 08:28:37.30613+01 | 1486279717.30613 | pgbench_accounts |      13728038912
 2017-02-05 08:28:37.30613+01 | 1486279717.30613 | pgbench_tellers  |           450560
 2017-02-05 08:28:37.30613+01 | 1486279717.30613 | pgbench_history  |                0
 2017-02-05 08:28:37.30613+01 | 1486279717.30613 | pgbench_branches |            40960

 2017-02-05 08:28:38.394223+01 | 1486279718.39422 | pgbench_accounts |      13728104448
 2017-02-05 08:28:38.394223+01 | 1486279718.39422 | pgbench_tellers  |           450560
 2017-02-05 08:28:38.394223+01 | 1486279718.39422 | pgbench_history  |                0
 2017-02-05 08:28:38.394223+01 | 1486279718.39422 | pgbench_branches |            40960

 2017-02-05 08:28:39.483346+01 | 1486279719.48335 | pgbench_accounts |      13728169984
 2017-02-05 08:28:39.483346+01 | 1486279719.48335 | pgbench_tellers  |           450560
 2017-02-05 08:28:39.483346+01 | 1486279719.48335 | pgbench_history  |                0
 2017-02-05 08:28:39.483346+01 | 1486279719.48335 | pgbench_branches |            40960

 2017-02-05 08:28:40.555052+01 | 1486279720.55505 | pgbench_accounts |      13728251904
 2017-02-05 08:28:40.555052+01 | 1486279720.55505 | pgbench_tellers  |           450560
 2017-02-05 08:28:40.555052+01 | 1486279720.55505 | pgbench_history  |                0
 2017-02-05 08:28:40.555052+01 | 1486279720.55505 | pgbench_branches |            40960

 2017-02-05 08:28:41.634481+01 | 1486279721.63448 | pgbench_accounts |      13728317440
 2017-02-05 08:28:41.634481+01 | 1486279721.63448 | pgbench_tellers  |           450560
 2017-02-05 08:28:41.634481+01 | 1486279721.63448 | pgbench_history  |                0
 2017-02-05 08:28:41.634481+01 | 1486279721.63448 | pgbench_branches |            40960

 2017-02-05 08:28:42.708496+01 | 1486279722.7085 | pgbench_accounts |      13728407552
 2017-02-05 08:28:42.708496+01 | 1486279722.7085 | pgbench_tellers  |           450560
 2017-02-05 08:28:42.708496+01 | 1486279722.7085 | pgbench_history  |                0
 2017-02-05 08:28:42.708496+01 | 1486279722.7085 | pgbench_branches |            40960

 2017-02-05 08:28:43.801275+01 | 1486279723.80128 | pgbench_accounts |      13728440320
 2017-02-05 08:28:43.801275+01 | 1486279723.80128 | pgbench_tellers  |           450560
 2017-02-05 08:28:43.801275+01 | 1486279723.80128 | pgbench_history  |                0
 2017-02-05 08:28:43.801275+01 | 1486279723.80128 | pgbench_branches |            40960

 2017-02-05 08:28:44.887468+01 | 1486279724.88747 | pgbench_accounts |      13728497664
 2017-02-05 08:28:44.887468+01 | 1486279724.88747 | pgbench_tellers  |           450560
 2017-02-05 08:28:44.887468+01 | 1486279724.88747 | pgbench_history  |                0
 2017-02-05 08:28:44.887468+01 | 1486279724.88747 | pgbench_branches |            40960

 2017-02-05 08:28:45.970608+01 | 1486279725.97061 | pgbench_accounts |      13728587776
 2017-02-05 08:28:45.970608+01 | 1486279725.97061 | pgbench_tellers  |           450560
 2017-02-05 08:28:45.970608+01 | 1486279725.97061 | pgbench_history  |                0
 2017-02-05 08:28:45.970608+01 | 1486279725.97061 | pgbench_branches |            40960

 2017-02-05 08:28:47.058793+01 | 1486279727.05879 | pgbench_accounts |      13728628736
 2017-02-05 08:28:47.058793+01 | 1486279727.05879 | pgbench_tellers  |           450560
 2017-02-05 08:28:47.058793+01 | 1486279727.05879 | pgbench_history  |                0
 2017-02-05 08:28:47.058793+01 | 1486279727.05879 | pgbench_branches |            40960

 2017-02-05 08:28:48.141587+01 | 1486279728.14159 | pgbench_accounts |      13728735232
 2017-02-05 08:28:48.141587+01 | 1486279728.14159 | pgbench_tellers  |           450560
 2017-02-05 08:28:48.141587+01 | 1486279728.14159 | pgbench_history  |                0
 2017-02-05 08:28:48.141587+01 | 1486279728.14159 | pgbench_branches |            40960

 2017-02-05 08:28:49.221988+01 | 1486279729.22199 | pgbench_accounts |      13728792576
 2017-02-05 08:28:49.221988+01 | 1486279729.22199 | pgbench_tellers  |           450560
 2017-02-05 08:28:49.221988+01 | 1486279729.22199 | pgbench_history  |                0
 2017-02-05 08:28:49.221988+01 | 1486279729.22199 | pgbench_branches |            40960

 2017-02-05 08:28:50.3017+01 | 1486279730.3017 | pgbench_accounts |      13728858112
 2017-02-05 08:28:50.3017+01 | 1486279730.3017 | pgbench_tellers  |           450560
 2017-02-05 08:28:50.3017+01 | 1486279730.3017 | pgbench_history  |                0
 2017-02-05 08:28:50.3017+01 | 1486279730.3017 | pgbench_branches |            40960

 2017-02-05 08:28:51.389223+01 | 1486279731.38922 | pgbench_accounts |      13728899072
 2017-02-05 08:28:51.389223+01 | 1486279731.38922 | pgbench_tellers  |           450560
 2017-02-05 08:28:51.389223+01 | 1486279731.38922 | pgbench_history  |                0
 2017-02-05 08:28:51.389223+01 | 1486279731.38922 | pgbench_branches |            40960

 2017-02-05 08:28:52.476208+01 | 1486279732.47621 | pgbench_accounts |      13728989184
 2017-02-05 08:28:52.476208+01 | 1486279732.47621 | pgbench_tellers  |           450560
 2017-02-05 08:28:52.476208+01 | 1486279732.47621 | pgbench_history  |                0
 2017-02-05 08:28:52.476208+01 | 1486279732.47621 | pgbench_branches |            40960

 2017-02-05 08:28:53.571661+01 | 1486279733.57166 | pgbench_accounts |      13729038336
 2017-02-05 08:28:53.571661+01 | 1486279733.57166 | pgbench_tellers  |           450560
 2017-02-05 08:28:53.571661+01 | 1486279733.57166 | pgbench_history  |                0
 2017-02-05 08:28:53.571661+01 | 1486279733.57166 | pgbench_branches |            40960

 2017-02-05 08:28:54.654653+01 | 1486279734.65465 | pgbench_accounts |      13729120256
 2017-02-05 08:28:54.654653+01 | 1486279734.65465 | pgbench_tellers  |           450560
 2017-02-05 08:28:54.654653+01 | 1486279734.65465 | pgbench_history  |                0
 2017-02-05 08:28:54.654653+01 | 1486279734.65465 | pgbench_branches |            40960

 2017-02-05 08:28:55.735851+01 | 1486279735.73585 | pgbench_accounts |      13729185792
 2017-02-05 08:28:55.735851+01 | 1486279735.73585 | pgbench_tellers  |           450560
 2017-02-05 08:28:55.735851+01 | 1486279735.73585 | pgbench_history  |                0
 2017-02-05 08:28:55.735851+01 | 1486279735.73585 | pgbench_branches |            40960

 2017-02-05 08:28:56.815823+01 | 1486279736.81582 | pgbench_accounts |      13729275904
 2017-02-05 08:28:56.815823+01 | 1486279736.81582 | pgbench_tellers  |           450560
 2017-02-05 08:28:56.815823+01 | 1486279736.81582 | pgbench_history  |                0
 2017-02-05 08:28:56.815823+01 | 1486279736.81582 | pgbench_branches |            40960

 2017-02-05 08:28:57.893426+01 | 1486279737.89343 | pgbench_accounts |      13729357824
 2017-02-05 08:28:57.893426+01 | 1486279737.89343 | pgbench_tellers  |           450560
 2017-02-05 08:28:57.893426+01 | 1486279737.89343 | pgbench_history  |                0
 2017-02-05 08:28:57.893426+01 | 1486279737.89343 | pgbench_branches |            40960

 2017-02-05 08:28:58.971223+01 | 1486279738.97122 | pgbench_accounts |      13729398784
 2017-02-05 08:28:58.971223+01 | 1486279738.97122 | pgbench_tellers  |           450560
 2017-02-05 08:28:58.971223+01 | 1486279738.97122 | pgbench_history  |                0
 2017-02-05 08:28:58.971223+01 | 1486279738.97122 | pgbench_branches |            40960

 2017-02-05 08:29:00.048173+01 | 1486279740.04817 | pgbench_accounts |      13729488896
 2017-02-05 08:29:00.048173+01 | 1486279740.04817 | pgbench_tellers  |           450560
 2017-02-05 08:29:00.048173+01 | 1486279740.04817 | pgbench_history  |                0
 2017-02-05 08:29:00.048173+01 | 1486279740.04817 | pgbench_branches |            40960

 2017-02-05 08:29:01.130676+01 | 1486279741.13068 | pgbench_accounts |      13729521664
 2017-02-05 08:29:01.130676+01 | 1486279741.13068 | pgbench_tellers  |           450560
 2017-02-05 08:29:01.130676+01 | 1486279741.13068 | pgbench_history  |                0
 2017-02-05 08:29:01.130676+01 | 1486279741.13068 | pgbench_branches |            40960

 2017-02-05 08:29:02.214549+01 | 1486279742.21455 | pgbench_accounts |      13729611776
 2017-02-05 08:29:02.214549+01 | 1486279742.21455 | pgbench_tellers  |           450560
 2017-02-05 08:29:02.214549+01 | 1486279742.21455 | pgbench_history  |                0
 2017-02-05 08:29:02.214549+01 | 1486279742.21455 | pgbench_branches |            40960

 2017-02-05 08:29:03.293652+01 | 1486279743.29365 | pgbench_accounts |      13729652736
 2017-02-05 08:29:03.293652+01 | 1486279743.29365 | pgbench_tellers  |           450560
 2017-02-05 08:29:03.293652+01 | 1486279743.29365 | pgbench_history  |                0
 2017-02-05 08:29:03.293652+01 | 1486279743.29365 | pgbench_branches |            40960

 2017-02-05 08:29:04.377964+01 | 1486279744.37796 | pgbench_accounts |      13729742848
 2017-02-05 08:29:04.377964+01 | 1486279744.37796 | pgbench_tellers  |           450560
 2017-02-05 08:29:04.377964+01 | 1486279744.37796 | pgbench_history  |                0
 2017-02-05 08:29:04.377964+01 | 1486279744.37796 | pgbench_branches |            40960

 2017-02-05 08:29:05.458734+01 | 1486279745.45873 | pgbench_accounts |      13729783808
 2017-02-05 08:29:05.458734+01 | 1486279745.45873 | pgbench_tellers  |           450560
 2017-02-05 08:29:05.458734+01 | 1486279745.45873 | pgbench_history  |                0
 2017-02-05 08:29:05.458734+01 | 1486279745.45873 | pgbench_branches |            40960

 2017-02-05 08:29:06.544731+01 | 1486279746.54473 | pgbench_accounts |      13729849344
 2017-02-05 08:29:06.544731+01 | 1486279746.54473 | pgbench_tellers  |           450560
 2017-02-05 08:29:06.544731+01 | 1486279746.54473 | pgbench_history  |                0
 2017-02-05 08:29:06.544731+01 | 1486279746.54473 | pgbench_branches |            40960

 2017-02-05 08:29:07.630268+01 | 1486279747.63027 | pgbench_accounts |      13729923072
 2017-02-05 08:29:07.630268+01 | 1486279747.63027 | pgbench_tellers  |           450560
 2017-02-05 08:29:07.630268+01 | 1486279747.63027 | pgbench_history  |                0
 2017-02-05 08:29:07.630268+01 | 1486279747.63027 | pgbench_branches |            40960

 2017-02-05 08:29:08.704649+01 | 1486279748.70465 | pgbench_accounts |      13730021376
 2017-02-05 08:29:08.704649+01 | 1486279748.70465 | pgbench_tellers  |           450560
 2017-02-05 08:29:08.704649+01 | 1486279748.70465 | pgbench_history  |                0
 2017-02-05 08:29:08.704649+01 | 1486279748.70465 | pgbench_branches |            40960

 2017-02-05 08:29:09.783719+01 | 1486279749.78372 | pgbench_accounts |      13730078720
 2017-02-05 08:29:09.783719+01 | 1486279749.78372 | pgbench_tellers  |           450560
 2017-02-05 08:29:09.783719+01 | 1486279749.78372 | pgbench_history  |                0
 2017-02-05 08:29:09.783719+01 | 1486279749.78372 | pgbench_branches |            40960

 2017-02-05 08:29:10.861945+01 | 1486279750.86194 | pgbench_accounts |      13730177024
 2017-02-05 08:29:10.861945+01 | 1486279750.86194 | pgbench_tellers  |           450560
 2017-02-05 08:29:10.861945+01 | 1486279750.86194 | pgbench_history  |                0
 2017-02-05 08:29:10.861945+01 | 1486279750.86194 | pgbench_branches |            40960

 2017-02-05 08:29:11.939557+01 | 1486279751.93956 | pgbench_accounts |      13730267136
 2017-02-05 08:29:11.939557+01 | 1486279751.93956 | pgbench_tellers  |           450560
 2017-02-05 08:29:11.939557+01 | 1486279751.93956 | pgbench_history  |                0
 2017-02-05 08:29:11.939557+01 | 1486279751.93956 | pgbench_branches |            40960

 2017-02-05 08:29:13.019681+01 | 1486279753.01968 | pgbench_accounts |      13730349056
 2017-02-05 08:29:13.019681+01 | 1486279753.01968 | pgbench_tellers  |           450560
 2017-02-05 08:29:13.019681+01 | 1486279753.01968 | pgbench_history  |                0
 2017-02-05 08:29:13.019681+01 | 1486279753.01968 | pgbench_branches |            40960

 2017-02-05 08:29:14.102965+01 | 1486279754.10297 | pgbench_accounts |      13730430976
 2017-02-05 08:29:14.102965+01 | 1486279754.10297 | pgbench_tellers  |           450560
 2017-02-05 08:29:14.102965+01 | 1486279754.10297 | pgbench_history  |                0
 2017-02-05 08:29:14.102965+01 | 1486279754.10297 | pgbench_branches |            40960

 2017-02-05 08:29:15.183227+01 | 1486279755.18323 | pgbench_accounts |      13730496512
 2017-02-05 08:29:15.183227+01 | 1486279755.18323 | pgbench_tellers  |           450560
 2017-02-05 08:29:15.183227+01 | 1486279755.18323 | pgbench_history  |                0
 2017-02-05 08:29:15.183227+01 | 1486279755.18323 | pgbench_branches |            40960

 2017-02-05 08:29:16.263979+01 | 1486279756.26398 | pgbench_accounts |      13730578432
 2017-02-05 08:29:16.263979+01 | 1486279756.26398 | pgbench_tellers  |           450560
 2017-02-05 08:29:16.263979+01 | 1486279756.26398 | pgbench_history  |                0
 2017-02-05 08:29:16.263979+01 | 1486279756.26398 | pgbench_branches |            40960

 2017-02-05 08:29:17.352425+01 | 1486279757.35243 | pgbench_accounts |      13730635776
 2017-02-05 08:29:17.352425+01 | 1486279757.35243 | pgbench_tellers  |           450560
 2017-02-05 08:29:17.352425+01 | 1486279757.35243 | pgbench_history  |                0
 2017-02-05 08:29:17.352425+01 | 1486279757.35243 | pgbench_branches |            40960

 2017-02-05 08:29:18.43697+01 | 1486279758.43697 | pgbench_accounts |      13730709504
 2017-02-05 08:29:18.43697+01 | 1486279758.43697 | pgbench_tellers  |           450560
 2017-02-05 08:29:18.43697+01 | 1486279758.43697 | pgbench_history  |                0
 2017-02-05 08:29:18.43697+01 | 1486279758.43697 | pgbench_branches |            40960

 2017-02-05 08:29:19.516712+01 | 1486279759.51671 | pgbench_accounts |      13730799616
 2017-02-05 08:29:19.516712+01 | 1486279759.51671 | pgbench_tellers  |           450560
 2017-02-05 08:29:19.516712+01 | 1486279759.51671 | pgbench_history  |                0
 2017-02-05 08:29:19.516712+01 | 1486279759.51671 | pgbench_branches |            40960

 2017-02-05 08:29:20.595766+01 | 1486279760.59577 | pgbench_accounts |      13730873344
 2017-02-05 08:29:20.595766+01 | 1486279760.59577 | pgbench_tellers  |           450560
 2017-02-05 08:29:20.595766+01 | 1486279760.59577 | pgbench_history  |                0
 2017-02-05 08:29:20.595766+01 | 1486279760.59577 | pgbench_branches |            40960

 2017-02-05 08:29:21.677785+01 | 1486279761.67778 | pgbench_accounts |      13730930688
 2017-02-05 08:29:21.677785+01 | 1486279761.67778 | pgbench_tellers  |           450560
 2017-02-05 08:29:21.677785+01 | 1486279761.67778 | pgbench_history  |                0
 2017-02-05 08:29:21.677785+01 | 1486279761.67778 | pgbench_branches |            40960

 2017-02-05 08:29:22.761266+01 | 1486279762.76127 | pgbench_accounts |      13731020800
 2017-02-05 08:29:22.761266+01 | 1486279762.76127 | pgbench_tellers  |           450560
 2017-02-05 08:29:22.761266+01 | 1486279762.76127 | pgbench_history  |                0
 2017-02-05 08:29:22.761266+01 | 1486279762.76127 | pgbench_branches |            40960

 2017-02-05 08:29:23.836028+01 | 1486279763.83603 | pgbench_accounts |      13731061760
 2017-02-05 08:29:23.836028+01 | 1486279763.83603 | pgbench_tellers  |           450560
 2017-02-05 08:29:23.836028+01 | 1486279763.83603 | pgbench_history  |                0
 2017-02-05 08:29:23.836028+01 | 1486279763.83603 | pgbench_branches |            40960

 2017-02-05 08:29:24.915717+01 | 1486279764.91572 | pgbench_accounts |      13731143680
 2017-02-05 08:29:24.915717+01 | 1486279764.91572 | pgbench_tellers  |           450560
 2017-02-05 08:29:24.915717+01 | 1486279764.91572 | pgbench_history  |                0
 2017-02-05 08:29:24.915717+01 | 1486279764.91572 | pgbench_branches |            40960

 2017-02-05 08:29:25.995714+01 | 1486279765.99571 | pgbench_accounts |      13731209216
 2017-02-05 08:29:25.995714+01 | 1486279765.99571 | pgbench_tellers  |           450560
 2017-02-05 08:29:25.995714+01 | 1486279765.99571 | pgbench_history  |                0
 2017-02-05 08:29:25.995714+01 | 1486279765.99571 | pgbench_branches |            40960

 2017-02-05 08:29:27.078138+01 | 1486279767.07814 | pgbench_accounts |      13731291136
 2017-02-05 08:29:27.078138+01 | 1486279767.07814 | pgbench_tellers  |           450560
 2017-02-05 08:29:27.078138+01 | 1486279767.07814 | pgbench_history  |                0
 2017-02-05 08:29:27.078138+01 | 1486279767.07814 | pgbench_branches |            40960

 2017-02-05 08:29:28.167183+01 | 1486279768.16718 | pgbench_accounts |      13731389440
 2017-02-05 08:29:28.167183+01 | 1486279768.16718 | pgbench_tellers  |           450560
 2017-02-05 08:29:28.167183+01 | 1486279768.16718 | pgbench_history  |                0
 2017-02-05 08:29:28.167183+01 | 1486279768.16718 | pgbench_branches |            40960

 2017-02-05 08:29:29.24904+01 | 1486279769.24904 | pgbench_accounts |      13731479552
 2017-02-05 08:29:29.24904+01 | 1486279769.24904 | pgbench_tellers  |           450560
 2017-02-05 08:29:29.24904+01 | 1486279769.24904 | pgbench_history  |                0
 2017-02-05 08:29:29.24904+01 | 1486279769.24904 | pgbench_branches |            40960

 2017-02-05 08:29:30.332213+01 | 1486279770.33221 | pgbench_accounts |      13731561472
 2017-02-05 08:29:30.332213+01 | 1486279770.33221 | pgbench_tellers  |           450560
 2017-02-05 08:29:30.332213+01 | 1486279770.33221 | pgbench_history  |                0
 2017-02-05 08:29:30.332213+01 | 1486279770.33221 | pgbench_branches |            40960

 2017-02-05 08:29:31.411266+01 | 1486279771.41127 | pgbench_accounts |      13731627008
 2017-02-05 08:29:31.411266+01 | 1486279771.41127 | pgbench_tellers  |           450560
 2017-02-05 08:29:31.411266+01 | 1486279771.41127 | pgbench_history  |                0
 2017-02-05 08:29:31.411266+01 | 1486279771.41127 | pgbench_branches |            40960

 2017-02-05 08:29:32.490479+01 | 1486279772.49048 | pgbench_accounts |      13731733504
 2017-02-05 08:29:32.490479+01 | 1486279772.49048 | pgbench_tellers  |           450560
 2017-02-05 08:29:32.490479+01 | 1486279772.49048 | pgbench_history  |                0
 2017-02-05 08:29:32.490479+01 | 1486279772.49048 | pgbench_branches |            40960

 2017-02-05 08:29:33.56846+01 | 1486279773.56846 | pgbench_accounts |      13731831808
 2017-02-05 08:29:33.56846+01 | 1486279773.56846 | pgbench_tellers  |           450560
 2017-02-05 08:29:33.56846+01 | 1486279773.56846 | pgbench_history  |                0
 2017-02-05 08:29:33.56846+01 | 1486279773.56846 | pgbench_branches |            40960

 2017-02-05 08:29:34.654784+01 | 1486279774.65478 | pgbench_accounts |      13731938304
 2017-02-05 08:29:34.654784+01 | 1486279774.65478 | pgbench_tellers  |           450560
 2017-02-05 08:29:34.654784+01 | 1486279774.65478 | pgbench_history  |                0
 2017-02-05 08:29:34.654784+01 | 1486279774.65478 | pgbench_branches |            40960

 2017-02-05 08:29:35.729332+01 | 1486279775.72933 | pgbench_accounts |      13732003840
 2017-02-05 08:29:35.729332+01 | 1486279775.72933 | pgbench_tellers  |           450560
 2017-02-05 08:29:35.729332+01 | 1486279775.72933 | pgbench_history  |                0
 2017-02-05 08:29:35.729332+01 | 1486279775.72933 | pgbench_branches |            40960

 2017-02-05 08:29:36.80705+01 | 1486279776.80705 | pgbench_accounts |      13732110336
 2017-02-05 08:29:36.80705+01 | 1486279776.80705 | pgbench_tellers  |           450560
 2017-02-05 08:29:36.80705+01 | 1486279776.80705 | pgbench_history  |                0
 2017-02-05 08:29:36.80705+01 | 1486279776.80705 | pgbench_branches |            40960

 2017-02-05 08:29:37.892804+01 | 1486279777.8928 | pgbench_accounts |      13732184064
 2017-02-05 08:29:37.892804+01 | 1486279777.8928 | pgbench_tellers  |           450560
 2017-02-05 08:29:37.892804+01 | 1486279777.8928 | pgbench_history  |                0
 2017-02-05 08:29:37.892804+01 | 1486279777.8928 | pgbench_branches |            40960

 2017-02-05 08:29:38.967317+01 | 1486279778.96732 | pgbench_accounts |      13732257792
 2017-02-05 08:29:38.967317+01 | 1486279778.96732 | pgbench_tellers  |           450560
 2017-02-05 08:29:38.967317+01 | 1486279778.96732 | pgbench_history  |                0
 2017-02-05 08:29:38.967317+01 | 1486279778.96732 | pgbench_branches |            40960

 2017-02-05 08:29:40.056055+01 | 1486279780.05606 | pgbench_accounts |      13732331520
 2017-02-05 08:29:40.056055+01 | 1486279780.05606 | pgbench_tellers  |           450560
 2017-02-05 08:29:40.056055+01 | 1486279780.05606 | pgbench_history  |                0
 2017-02-05 08:29:40.056055+01 | 1486279780.05606 | pgbench_branches |            40960

 2017-02-05 08:29:41.145046+01 | 1486279781.14505 | pgbench_accounts |      13732397056
 2017-02-05 08:29:41.145046+01 | 1486279781.14505 | pgbench_tellers  |           450560
 2017-02-05 08:29:41.145046+01 | 1486279781.14505 | pgbench_history  |                0
 2017-02-05 08:29:41.145046+01 | 1486279781.14505 | pgbench_branches |            40960

 2017-02-05 08:29:42.223359+01 | 1486279782.22336 | pgbench_accounts |      13732454400
 2017-02-05 08:29:42.223359+01 | 1486279782.22336 | pgbench_tellers  |           450560
 2017-02-05 08:29:42.223359+01 | 1486279782.22336 | pgbench_history  |                0
 2017-02-05 08:29:42.223359+01 | 1486279782.22336 | pgbench_branches |            40960

 2017-02-05 08:29:43.301487+01 | 1486279783.30149 | pgbench_accounts |      13732528128
 2017-02-05 08:29:43.301487+01 | 1486279783.30149 | pgbench_tellers  |           450560
 2017-02-05 08:29:43.301487+01 | 1486279783.30149 | pgbench_history  |                0
 2017-02-05 08:29:43.301487+01 | 1486279783.30149 | pgbench_branches |            40960

 2017-02-05 08:29:44.375556+01 | 1486279784.37556 | pgbench_accounts |      13732618240
 2017-02-05 08:29:44.375556+01 | 1486279784.37556 | pgbench_tellers  |           450560
 2017-02-05 08:29:44.375556+01 | 1486279784.37556 | pgbench_history  |                0
 2017-02-05 08:29:44.375556+01 | 1486279784.37556 | pgbench_branches |            40960

 2017-02-05 08:29:45.4615+01 | 1486279785.4615 | pgbench_accounts |      13732675584
 2017-02-05 08:29:45.4615+01 | 1486279785.4615 | pgbench_tellers  |           450560
 2017-02-05 08:29:45.4615+01 | 1486279785.4615 | pgbench_history  |                0
 2017-02-05 08:29:45.4615+01 | 1486279785.4615 | pgbench_branches |            40960

 2017-02-05 08:29:46.542492+01 | 1486279786.54249 | pgbench_accounts |      13732765696
 2017-02-05 08:29:46.542492+01 | 1486279786.54249 | pgbench_tellers  |           450560
 2017-02-05 08:29:46.542492+01 | 1486279786.54249 | pgbench_history  |                0
 2017-02-05 08:29:46.542492+01 | 1486279786.54249 | pgbench_branches |            40960

 2017-02-05 08:29:47.610009+01 | 1486279787.61001 | pgbench_accounts |      13732839424
 2017-02-05 08:29:47.610009+01 | 1486279787.61001 | pgbench_tellers  |           450560
 2017-02-05 08:29:47.610009+01 | 1486279787.61001 | pgbench_history  |                0
 2017-02-05 08:29:47.610009+01 | 1486279787.61001 | pgbench_branches |            40960

 2017-02-05 08:29:48.691888+01 | 1486279788.69189 | pgbench_accounts |      13732921344
 2017-02-05 08:29:48.691888+01 | 1486279788.69189 | pgbench_tellers  |           450560
 2017-02-05 08:29:48.691888+01 | 1486279788.69189 | pgbench_history  |                0
 2017-02-05 08:29:48.691888+01 | 1486279788.69189 | pgbench_branches |            40960

 2017-02-05 08:29:49.770288+01 | 1486279789.77029 | pgbench_accounts |      13733027840
 2017-02-05 08:29:49.770288+01 | 1486279789.77029 | pgbench_tellers  |           450560
 2017-02-05 08:29:49.770288+01 | 1486279789.77029 | pgbench_history  |                0
 2017-02-05 08:29:49.770288+01 | 1486279789.77029 | pgbench_branches |            40960

 2017-02-05 08:29:50.853405+01 | 1486279790.8534 | pgbench_accounts |      13733109760
 2017-02-05 08:29:50.853405+01 | 1486279790.8534 | pgbench_tellers  |           450560
 2017-02-05 08:29:50.853405+01 | 1486279790.8534 | pgbench_history  |                0
 2017-02-05 08:29:50.853405+01 | 1486279790.8534 | pgbench_branches |            40960

 2017-02-05 08:29:51.938613+01 | 1486279791.93861 | pgbench_accounts |      13733191680
 2017-02-05 08:29:51.938613+01 | 1486279791.93861 | pgbench_tellers  |           450560
 2017-02-05 08:29:51.938613+01 | 1486279791.93861 | pgbench_history  |                0
 2017-02-05 08:29:51.938613+01 | 1486279791.93861 | pgbench_branches |            40960

 2017-02-05 08:29:53.027023+01 | 1486279793.02702 | pgbench_accounts |      13733289984
 2017-02-05 08:29:53.027023+01 | 1486279793.02702 | pgbench_tellers  |           450560
 2017-02-05 08:29:53.027023+01 | 1486279793.02702 | pgbench_history  |                0
 2017-02-05 08:29:53.027023+01 | 1486279793.02702 | pgbench_branches |            40960

 2017-02-05 08:29:54.11098+01 | 1486279794.11098 | pgbench_accounts |      13733371904
 2017-02-05 08:29:54.11098+01 | 1486279794.11098 | pgbench_tellers  |           450560
 2017-02-05 08:29:54.11098+01 | 1486279794.11098 | pgbench_history  |                0
 2017-02-05 08:29:54.11098+01 | 1486279794.11098 | pgbench_branches |            40960

 2017-02-05 08:29:55.196756+01 | 1486279795.19676 | pgbench_accounts |      13733478400
 2017-02-05 08:29:55.196756+01 | 1486279795.19676 | pgbench_tellers  |           450560
 2017-02-05 08:29:55.196756+01 | 1486279795.19676 | pgbench_history  |                0
 2017-02-05 08:29:55.196756+01 | 1486279795.19676 | pgbench_branches |            40960

 2017-02-05 08:29:56.282276+01 | 1486279796.28228 | pgbench_accounts |      13733584896
 2017-02-05 08:29:56.282276+01 | 1486279796.28228 | pgbench_tellers  |           450560
 2017-02-05 08:29:56.282276+01 | 1486279796.28228 | pgbench_history  |                0
 2017-02-05 08:29:56.282276+01 | 1486279796.28228 | pgbench_branches |            40960

 2017-02-05 08:29:57.355931+01 | 1486279797.35593 | pgbench_accounts |      13733658624
 2017-02-05 08:29:57.355931+01 | 1486279797.35593 | pgbench_tellers  |           450560
 2017-02-05 08:29:57.355931+01 | 1486279797.35593 | pgbench_history  |                0
 2017-02-05 08:29:57.355931+01 | 1486279797.35593 | pgbench_branches |            40960

 2017-02-05 08:29:58.433731+01 | 1486279798.43373 | pgbench_accounts |      13733732352
 2017-02-05 08:29:58.433731+01 | 1486279798.43373 | pgbench_tellers  |           450560
 2017-02-05 08:29:58.433731+01 | 1486279798.43373 | pgbench_history  |                0
 2017-02-05 08:29:58.433731+01 | 1486279798.43373 | pgbench_branches |            40960

 2017-02-05 08:29:59.50769+01 | 1486279799.50769 | pgbench_accounts |      13733847040
 2017-02-05 08:29:59.50769+01 | 1486279799.50769 | pgbench_tellers  |           450560
 2017-02-05 08:29:59.50769+01 | 1486279799.50769 | pgbench_history  |                0
 2017-02-05 08:29:59.50769+01 | 1486279799.50769 | pgbench_branches |            40960

 2017-02-05 08:30:00.591777+01 | 1486279800.59178 | pgbench_accounts |      13733912576
 2017-02-05 08:30:00.591777+01 | 1486279800.59178 | pgbench_tellers  |           450560
 2017-02-05 08:30:00.591777+01 | 1486279800.59178 | pgbench_history  |                0
 2017-02-05 08:30:00.591777+01 | 1486279800.59178 | pgbench_branches |            40960

 2017-02-05 08:30:01.679362+01 | 1486279801.67936 | pgbench_accounts |      13734002688
 2017-02-05 08:30:01.679362+01 | 1486279801.67936 | pgbench_tellers  |           450560
 2017-02-05 08:30:01.679362+01 | 1486279801.67936 | pgbench_history  |                0
 2017-02-05 08:30:01.679362+01 | 1486279801.67936 | pgbench_branches |            40960

 2017-02-05 08:30:02.766515+01 | 1486279802.76652 | pgbench_accounts |      13734117376
 2017-02-05 08:30:02.766515+01 | 1486279802.76652 | pgbench_tellers  |           450560
 2017-02-05 08:30:02.766515+01 | 1486279802.76652 | pgbench_history  |                0
 2017-02-05 08:30:02.766515+01 | 1486279802.76652 | pgbench_branches |            40960

 2017-02-05 08:30:03.846176+01 | 1486279803.84618 | pgbench_accounts |      13734215680
 2017-02-05 08:30:03.846176+01 | 1486279803.84618 | pgbench_tellers  |           450560
 2017-02-05 08:30:03.846176+01 | 1486279803.84618 | pgbench_history  |                0
 2017-02-05 08:30:03.846176+01 | 1486279803.84618 | pgbench_branches |            40960

 2017-02-05 08:30:04.931443+01 | 1486279804.93144 | pgbench_accounts |      13734273024
 2017-02-05 08:30:04.931443+01 | 1486279804.93144 | pgbench_tellers  |           450560
 2017-02-05 08:30:04.931443+01 | 1486279804.93144 | pgbench_history  |                0
 2017-02-05 08:30:04.931443+01 | 1486279804.93144 | pgbench_branches |            40960

 2017-02-05 08:30:06.012405+01 | 1486279806.0124 | pgbench_accounts |      13734371328
 2017-02-05 08:30:06.012405+01 | 1486279806.0124 | pgbench_tellers  |           450560
 2017-02-05 08:30:06.012405+01 | 1486279806.0124 | pgbench_history  |                0
 2017-02-05 08:30:06.012405+01 | 1486279806.0124 | pgbench_branches |            40960

 2017-02-05 08:30:07.10053+01 | 1486279807.10053 | pgbench_accounts |      13734486016
 2017-02-05 08:30:07.10053+01 | 1486279807.10053 | pgbench_tellers  |           450560
 2017-02-05 08:30:07.10053+01 | 1486279807.10053 | pgbench_history  |                0
 2017-02-05 08:30:07.10053+01 | 1486279807.10053 | pgbench_branches |            40960

 2017-02-05 08:30:08.185632+01 | 1486279808.18563 | pgbench_accounts |      13734584320
 2017-02-05 08:30:08.185632+01 | 1486279808.18563 | pgbench_tellers  |           450560
 2017-02-05 08:30:08.185632+01 | 1486279808.18563 | pgbench_history  |                0
 2017-02-05 08:30:08.185632+01 | 1486279808.18563 | pgbench_branches |            40960

 2017-02-05 08:30:09.265786+01 | 1486279809.26579 | pgbench_accounts |      13734658048
 2017-02-05 08:30:09.265786+01 | 1486279809.26579 | pgbench_tellers  |           450560
 2017-02-05 08:30:09.265786+01 | 1486279809.26579 | pgbench_history  |                0
 2017-02-05 08:30:09.265786+01 | 1486279809.26579 | pgbench_branches |            40960

 2017-02-05 08:30:10.339318+01 | 1486279810.33932 | pgbench_accounts |      13734756352
 2017-02-05 08:30:10.339318+01 | 1486279810.33932 | pgbench_tellers  |           450560
 2017-02-05 08:30:10.339318+01 | 1486279810.33932 | pgbench_history  |                0
 2017-02-05 08:30:10.339318+01 | 1486279810.33932 | pgbench_branches |            40960

 2017-02-05 08:30:11.421247+01 | 1486279811.42125 | pgbench_accounts |      13734838272
 2017-02-05 08:30:11.421247+01 | 1486279811.42125 | pgbench_tellers  |           450560
 2017-02-05 08:30:11.421247+01 | 1486279811.42125 | pgbench_history  |                0
 2017-02-05 08:30:11.421247+01 | 1486279811.42125 | pgbench_branches |            40960

 2017-02-05 08:30:12.502736+01 | 1486279812.50274 | pgbench_accounts |      13734903808
 2017-02-05 08:30:12.502736+01 | 1486279812.50274 | pgbench_tellers  |           450560
 2017-02-05 08:30:12.502736+01 | 1486279812.50274 | pgbench_history  |                0
 2017-02-05 08:30:12.502736+01 | 1486279812.50274 | pgbench_branches |            40960

 2017-02-05 08:30:13.578658+01 | 1486279813.57866 | pgbench_accounts |      13735018496
 2017-02-05 08:30:13.578658+01 | 1486279813.57866 | pgbench_tellers  |           450560
 2017-02-05 08:30:13.578658+01 | 1486279813.57866 | pgbench_history  |                0
 2017-02-05 08:30:13.578658+01 | 1486279813.57866 | pgbench_branches |            40960

 2017-02-05 08:30:14.659109+01 | 1486279814.65911 | pgbench_accounts |      13735116800
 2017-02-05 08:30:14.659109+01 | 1486279814.65911 | pgbench_tellers  |           450560
 2017-02-05 08:30:14.659109+01 | 1486279814.65911 | pgbench_history  |                0
 2017-02-05 08:30:14.659109+01 | 1486279814.65911 | pgbench_branches |            40960

 2017-02-05 08:30:15.734319+01 | 1486279815.73432 | pgbench_accounts |      13735190528
 2017-02-05 08:30:15.734319+01 | 1486279815.73432 | pgbench_tellers  |           450560
 2017-02-05 08:30:15.734319+01 | 1486279815.73432 | pgbench_history  |                0
 2017-02-05 08:30:15.734319+01 | 1486279815.73432 | pgbench_branches |            40960

 2017-02-05 08:30:16.813134+01 | 1486279816.81313 | pgbench_accounts |      13735288832
 2017-02-05 08:30:16.813134+01 | 1486279816.81313 | pgbench_tellers  |           450560
 2017-02-05 08:30:16.813134+01 | 1486279816.81313 | pgbench_history  |                0
 2017-02-05 08:30:16.813134+01 | 1486279816.81313 | pgbench_branches |            40960

 2017-02-05 08:30:17.896281+01 | 1486279817.89628 | pgbench_accounts |      13735370752
 2017-02-05 08:30:17.896281+01 | 1486279817.89628 | pgbench_tellers  |           450560
 2017-02-05 08:30:17.896281+01 | 1486279817.89628 | pgbench_history  |                0
 2017-02-05 08:30:17.896281+01 | 1486279817.89628 | pgbench_branches |            40960

 2017-02-05 08:30:18.979918+01 | 1486279818.97992 | pgbench_accounts |      13735477248
 2017-02-05 08:30:18.979918+01 | 1486279818.97992 | pgbench_tellers  |           450560
 2017-02-05 08:30:18.979918+01 | 1486279818.97992 | pgbench_history  |                0
 2017-02-05 08:30:18.979918+01 | 1486279818.97992 | pgbench_branches |            40960

 2017-02-05 08:30:20.059586+01 | 1486279820.05959 | pgbench_accounts |      13735534592
 2017-02-05 08:30:20.059586+01 | 1486279820.05959 | pgbench_tellers  |           450560
 2017-02-05 08:30:20.059586+01 | 1486279820.05959 | pgbench_history  |                0
 2017-02-05 08:30:20.059586+01 | 1486279820.05959 | pgbench_branches |            40960

 2017-02-05 08:30:21.143863+01 | 1486279821.14386 | pgbench_accounts |      13735649280
 2017-02-05 08:30:21.143863+01 | 1486279821.14386 | pgbench_tellers  |           450560
 2017-02-05 08:30:21.143863+01 | 1486279821.14386 | pgbench_history  |                0
 2017-02-05 08:30:21.143863+01 | 1486279821.14386 | pgbench_branches |            40960

 2017-02-05 08:30:22.229108+01 | 1486279822.22911 | pgbench_accounts |      13735755776
 2017-02-05 08:30:22.229108+01 | 1486279822.22911 | pgbench_tellers  |           450560
 2017-02-05 08:30:22.229108+01 | 1486279822.22911 | pgbench_history  |                0
 2017-02-05 08:30:22.229108+01 | 1486279822.22911 | pgbench_branches |            40960

 2017-02-05 08:30:23.304094+01 | 1486279823.30409 | pgbench_accounts |      13735845888
 2017-02-05 08:30:23.304094+01 | 1486279823.30409 | pgbench_tellers  |           450560
 2017-02-05 08:30:23.304094+01 | 1486279823.30409 | pgbench_history  |                0
 2017-02-05 08:30:23.304094+01 | 1486279823.30409 | pgbench_branches |            40960

 2017-02-05 08:30:24.386071+01 | 1486279824.38607 | pgbench_accounts |      13735919616
 2017-02-05 08:30:24.386071+01 | 1486279824.38607 | pgbench_tellers  |           450560
 2017-02-05 08:30:24.386071+01 | 1486279824.38607 | pgbench_history  |                0
 2017-02-05 08:30:24.386071+01 | 1486279824.38607 | pgbench_branches |            40960

 2017-02-05 08:30:25.469587+01 | 1486279825.46959 | pgbench_accounts |      13736026112
 2017-02-05 08:30:25.469587+01 | 1486279825.46959 | pgbench_tellers  |           450560
 2017-02-05 08:30:25.469587+01 | 1486279825.46959 | pgbench_history  |                0
 2017-02-05 08:30:25.469587+01 | 1486279825.46959 | pgbench_branches |            40960

 2017-02-05 08:30:26.547057+01 | 1486279826.54706 | pgbench_accounts |      13736116224
 2017-02-05 08:30:26.547057+01 | 1486279826.54706 | pgbench_tellers  |           450560
 2017-02-05 08:30:26.547057+01 | 1486279826.54706 | pgbench_history  |                0
 2017-02-05 08:30:26.547057+01 | 1486279826.54706 | pgbench_branches |            40960

 2017-02-05 08:30:27.624443+01 | 1486279827.62444 | pgbench_accounts |      13736214528
 2017-02-05 08:30:27.624443+01 | 1486279827.62444 | pgbench_tellers  |           450560
 2017-02-05 08:30:27.624443+01 | 1486279827.62444 | pgbench_history  |                0
 2017-02-05 08:30:27.624443+01 | 1486279827.62444 | pgbench_branches |            40960

 2017-02-05 08:30:28.707664+01 | 1486279828.70766 | pgbench_accounts |      13736296448
 2017-02-05 08:30:28.707664+01 | 1486279828.70766 | pgbench_tellers  |           450560
 2017-02-05 08:30:28.707664+01 | 1486279828.70766 | pgbench_history  |                0
 2017-02-05 08:30:28.707664+01 | 1486279828.70766 | pgbench_branches |            40960

 2017-02-05 08:30:29.786068+01 | 1486279829.78607 | pgbench_accounts |      13736394752
 2017-02-05 08:30:29.786068+01 | 1486279829.78607 | pgbench_tellers  |           450560
 2017-02-05 08:30:29.786068+01 | 1486279829.78607 | pgbench_history  |                0
 2017-02-05 08:30:29.786068+01 | 1486279829.78607 | pgbench_branches |            40960

 2017-02-05 08:30:30.864509+01 | 1486279830.86451 | pgbench_accounts |      13736493056
 2017-02-05 08:30:30.864509+01 | 1486279830.86451 | pgbench_tellers  |           450560
 2017-02-05 08:30:30.864509+01 | 1486279830.86451 | pgbench_history  |                0
 2017-02-05 08:30:30.864509+01 | 1486279830.86451 | pgbench_branches |            40960

 2017-02-05 08:30:31.939571+01 | 1486279831.93957 | pgbench_accounts |      13736591360
 2017-02-05 08:30:31.939571+01 | 1486279831.93957 | pgbench_tellers  |           450560
 2017-02-05 08:30:31.939571+01 | 1486279831.93957 | pgbench_history  |                0
 2017-02-05 08:30:31.939571+01 | 1486279831.93957 | pgbench_branches |            40960

 2017-02-05 08:30:33.026071+01 | 1486279833.02607 | pgbench_accounts |      13736673280
 2017-02-05 08:30:33.026071+01 | 1486279833.02607 | pgbench_tellers  |           450560
 2017-02-05 08:30:33.026071+01 | 1486279833.02607 | pgbench_history  |                0
 2017-02-05 08:30:33.026071+01 | 1486279833.02607 | pgbench_branches |            40960

 2017-02-05 08:30:34.112756+01 | 1486279834.11276 | pgbench_accounts |      13736779776
 2017-02-05 08:30:34.112756+01 | 1486279834.11276 | pgbench_tellers  |           450560
 2017-02-05 08:30:34.112756+01 | 1486279834.11276 | pgbench_history  |                0
 2017-02-05 08:30:34.112756+01 | 1486279834.11276 | pgbench_branches |            40960

 2017-02-05 08:30:35.191243+01 | 1486279835.19124 | pgbench_accounts |      13736878080
 2017-02-05 08:30:35.191243+01 | 1486279835.19124 | pgbench_tellers  |           450560
 2017-02-05 08:30:35.191243+01 | 1486279835.19124 | pgbench_history  |                0
 2017-02-05 08:30:35.191243+01 | 1486279835.19124 | pgbench_branches |            40960

 2017-02-05 08:30:36.267758+01 | 1486279836.26776 | pgbench_accounts |      13736951808
 2017-02-05 08:30:36.267758+01 | 1486279836.26776 | pgbench_tellers  |           450560
 2017-02-05 08:30:36.267758+01 | 1486279836.26776 | pgbench_history  |                0
 2017-02-05 08:30:36.267758+01 | 1486279836.26776 | pgbench_branches |            40960

 2017-02-05 08:30:37.348979+01 | 1486279837.34898 | pgbench_accounts |      13737033728
 2017-02-05 08:30:37.348979+01 | 1486279837.34898 | pgbench_tellers  |           450560
 2017-02-05 08:30:37.348979+01 | 1486279837.34898 | pgbench_history  |                0
 2017-02-05 08:30:37.348979+01 | 1486279837.34898 | pgbench_branches |            40960

 2017-02-05 08:30:38.420667+01 | 1486279838.42067 | pgbench_accounts |      13737140224
 2017-02-05 08:30:38.420667+01 | 1486279838.42067 | pgbench_tellers  |           450560
 2017-02-05 08:30:38.420667+01 | 1486279838.42067 | pgbench_history  |                0
 2017-02-05 08:30:38.420667+01 | 1486279838.42067 | pgbench_branches |            40960

 2017-02-05 08:30:39.495131+01 | 1486279839.49513 | pgbench_accounts |      13737238528
 2017-02-05 08:30:39.495131+01 | 1486279839.49513 | pgbench_tellers  |           450560
 2017-02-05 08:30:39.495131+01 | 1486279839.49513 | pgbench_history  |                0
 2017-02-05 08:30:39.495131+01 | 1486279839.49513 | pgbench_branches |            40960

 2017-02-05 08:30:40.573298+01 | 1486279840.5733 | pgbench_accounts |      13737320448
 2017-02-05 08:30:40.573298+01 | 1486279840.5733 | pgbench_tellers  |           450560
 2017-02-05 08:30:40.573298+01 | 1486279840.5733 | pgbench_history  |                0
 2017-02-05 08:30:40.573298+01 | 1486279840.5733 | pgbench_branches |            40960

 2017-02-05 08:30:41.653456+01 | 1486279841.65346 | pgbench_accounts |      13737402368
 2017-02-05 08:30:41.653456+01 | 1486279841.65346 | pgbench_tellers  |           450560
 2017-02-05 08:30:41.653456+01 | 1486279841.65346 | pgbench_history  |                0
 2017-02-05 08:30:41.653456+01 | 1486279841.65346 | pgbench_branches |            40960

 2017-02-05 08:30:42.73911+01 | 1486279842.73911 | pgbench_accounts |      13737517056
 2017-02-05 08:30:42.73911+01 | 1486279842.73911 | pgbench_tellers  |           450560
 2017-02-05 08:30:42.73911+01 | 1486279842.73911 | pgbench_history  |                0
 2017-02-05 08:30:42.73911+01 | 1486279842.73911 | pgbench_branches |            40960

 2017-02-05 08:30:43.818848+01 | 1486279843.81885 | pgbench_accounts |      13737541632
 2017-02-05 08:30:43.818848+01 | 1486279843.81885 | pgbench_tellers  |           450560
 2017-02-05 08:30:43.818848+01 | 1486279843.81885 | pgbench_history  |                0
 2017-02-05 08:30:43.818848+01 | 1486279843.81885 | pgbench_branches |            40960

 2017-02-05 08:30:44.900772+01 | 1486279844.90077 | pgbench_accounts |      13737648128
 2017-02-05 08:30:44.900772+01 | 1486279844.90077 | pgbench_tellers  |           450560
 2017-02-05 08:30:44.900772+01 | 1486279844.90077 | pgbench_history  |                0
 2017-02-05 08:30:44.900772+01 | 1486279844.90077 | pgbench_branches |            40960

 2017-02-05 08:30:45.986492+01 | 1486279845.98649 | pgbench_accounts |      13737680896
 2017-02-05 08:30:45.986492+01 | 1486279845.98649 | pgbench_tellers  |           450560
 2017-02-05 08:30:45.986492+01 | 1486279845.98649 | pgbench_history  |                0
 2017-02-05 08:30:45.986492+01 | 1486279845.98649 | pgbench_branches |            40960

 2017-02-05 08:30:47.065313+01 | 1486279847.06531 | pgbench_accounts |      13737779200
 2017-02-05 08:30:47.065313+01 | 1486279847.06531 | pgbench_tellers  |           450560
 2017-02-05 08:30:47.065313+01 | 1486279847.06531 | pgbench_history  |                0
 2017-02-05 08:30:47.065313+01 | 1486279847.06531 | pgbench_branches |            40960

 2017-02-05 08:30:48.148953+01 | 1486279848.14895 | pgbench_accounts |      13737836544
 2017-02-05 08:30:48.148953+01 | 1486279848.14895 | pgbench_tellers  |           450560
 2017-02-05 08:30:48.148953+01 | 1486279848.14895 | pgbench_history  |                0
 2017-02-05 08:30:48.148953+01 | 1486279848.14895 | pgbench_branches |            40960

 2017-02-05 08:30:49.227608+01 | 1486279849.22761 | pgbench_accounts |      13737926656
 2017-02-05 08:30:49.227608+01 | 1486279849.22761 | pgbench_tellers  |           450560
 2017-02-05 08:30:49.227608+01 | 1486279849.22761 | pgbench_history  |                0
 2017-02-05 08:30:49.227608+01 | 1486279849.22761 | pgbench_branches |            40960

 2017-02-05 08:30:50.311768+01 | 1486279850.31177 | pgbench_accounts |      13738024960
 2017-02-05 08:30:50.311768+01 | 1486279850.31177 | pgbench_tellers  |           450560
 2017-02-05 08:30:50.311768+01 | 1486279850.31177 | pgbench_history  |                0
 2017-02-05 08:30:50.311768+01 | 1486279850.31177 | pgbench_branches |            40960

 2017-02-05 08:30:51.391719+01 | 1486279851.39172 | pgbench_accounts |      13738074112
 2017-02-05 08:30:51.391719+01 | 1486279851.39172 | pgbench_tellers  |           450560
 2017-02-05 08:30:51.391719+01 | 1486279851.39172 | pgbench_history  |                0
 2017-02-05 08:30:51.391719+01 | 1486279851.39172 | pgbench_branches |            40960

 2017-02-05 08:30:52.472548+01 | 1486279852.47255 | pgbench_accounts |      13738188800
 2017-02-05 08:30:52.472548+01 | 1486279852.47255 | pgbench_tellers  |           450560
 2017-02-05 08:30:52.472548+01 | 1486279852.47255 | pgbench_history  |                0
 2017-02-05 08:30:52.472548+01 | 1486279852.47255 | pgbench_branches |            40960

 2017-02-05 08:30:53.557259+01 | 1486279853.55726 | pgbench_accounts |      13738287104
 2017-02-05 08:30:53.557259+01 | 1486279853.55726 | pgbench_tellers  |           450560
 2017-02-05 08:30:53.557259+01 | 1486279853.55726 | pgbench_history  |                0
 2017-02-05 08:30:53.557259+01 | 1486279853.55726 | pgbench_branches |            40960

 2017-02-05 08:30:54.627641+01 | 1486279854.62764 | pgbench_accounts |      13738369024
 2017-02-05 08:30:54.627641+01 | 1486279854.62764 | pgbench_tellers  |           450560
 2017-02-05 08:30:54.627641+01 | 1486279854.62764 | pgbench_history  |                0
 2017-02-05 08:30:54.627641+01 | 1486279854.62764 | pgbench_branches |            40960

 2017-02-05 08:30:55.699435+01 | 1486279855.69943 | pgbench_accounts |      13738467328
 2017-02-05 08:30:55.699435+01 | 1486279855.69943 | pgbench_tellers  |           450560
 2017-02-05 08:30:55.699435+01 | 1486279855.69943 | pgbench_history  |                0
 2017-02-05 08:30:55.699435+01 | 1486279855.69943 | pgbench_branches |            40960

 2017-02-05 08:30:56.778672+01 | 1486279856.77867 | pgbench_accounts |      13738565632
 2017-02-05 08:30:56.778672+01 | 1486279856.77867 | pgbench_tellers  |           450560
 2017-02-05 08:30:56.778672+01 | 1486279856.77867 | pgbench_history  |                0
 2017-02-05 08:30:56.778672+01 | 1486279856.77867 | pgbench_branches |            40960

 2017-02-05 08:30:57.861321+01 | 1486279857.86132 | pgbench_accounts |      13738647552
 2017-02-05 08:30:57.861321+01 | 1486279857.86132 | pgbench_tellers  |           450560
 2017-02-05 08:30:57.861321+01 | 1486279857.86132 | pgbench_history  |                0
 2017-02-05 08:30:57.861321+01 | 1486279857.86132 | pgbench_branches |            40960

 2017-02-05 08:30:58.950801+01 | 1486279858.9508 | pgbench_accounts |      13738745856
 2017-02-05 08:30:58.950801+01 | 1486279858.9508 | pgbench_tellers  |           450560
 2017-02-05 08:30:58.950801+01 | 1486279858.9508 | pgbench_history  |                0
 2017-02-05 08:30:58.950801+01 | 1486279858.9508 | pgbench_branches |            40960

 2017-02-05 08:31:00.030493+01 | 1486279860.03049 | pgbench_accounts |      13738835968
 2017-02-05 08:31:00.030493+01 | 1486279860.03049 | pgbench_tellers  |           450560
 2017-02-05 08:31:00.030493+01 | 1486279860.03049 | pgbench_history  |                0
 2017-02-05 08:31:00.030493+01 | 1486279860.03049 | pgbench_branches |            40960

 2017-02-05 08:31:01.098122+01 | 1486279861.09812 | pgbench_accounts |      13738901504
 2017-02-05 08:31:01.098122+01 | 1486279861.09812 | pgbench_tellers  |           450560
 2017-02-05 08:31:01.098122+01 | 1486279861.09812 | pgbench_history  |                0
 2017-02-05 08:31:01.098122+01 | 1486279861.09812 | pgbench_branches |            40960

 2017-02-05 08:31:02.175501+01 | 1486279862.1755 | pgbench_accounts |      13738999808
 2017-02-05 08:31:02.175501+01 | 1486279862.1755 | pgbench_tellers  |           450560
 2017-02-05 08:31:02.175501+01 | 1486279862.1755 | pgbench_history  |                0
 2017-02-05 08:31:02.175501+01 | 1486279862.1755 | pgbench_branches |            40960

 2017-02-05 08:31:03.262514+01 | 1486279863.26251 | pgbench_accounts |      13739098112
 2017-02-05 08:31:03.262514+01 | 1486279863.26251 | pgbench_tellers  |           450560
 2017-02-05 08:31:03.262514+01 | 1486279863.26251 | pgbench_history  |                0
 2017-02-05 08:31:03.262514+01 | 1486279863.26251 | pgbench_branches |            40960

 2017-02-05 08:31:04.346598+01 | 1486279864.3466 | pgbench_accounts |      13739163648
 2017-02-05 08:31:04.346598+01 | 1486279864.3466 | pgbench_tellers  |           450560
 2017-02-05 08:31:04.346598+01 | 1486279864.3466 | pgbench_history  |                0
 2017-02-05 08:31:04.346598+01 | 1486279864.3466 | pgbench_branches |            40960

 2017-02-05 08:31:05.433506+01 | 1486279865.43351 | pgbench_accounts |      13739261952
 2017-02-05 08:31:05.433506+01 | 1486279865.43351 | pgbench_tellers  |           450560
 2017-02-05 08:31:05.433506+01 | 1486279865.43351 | pgbench_history  |                0
 2017-02-05 08:31:05.433506+01 | 1486279865.43351 | pgbench_branches |            40960

 2017-02-05 08:31:06.521809+01 | 1486279866.52181 | pgbench_accounts |      13739360256
 2017-02-05 08:31:06.521809+01 | 1486279866.52181 | pgbench_tellers  |           450560
 2017-02-05 08:31:06.521809+01 | 1486279866.52181 | pgbench_history  |                0
 2017-02-05 08:31:06.521809+01 | 1486279866.52181 | pgbench_branches |            40960

 2017-02-05 08:31:07.606054+01 | 1486279867.60605 | pgbench_accounts |      13739450368
 2017-02-05 08:31:07.606054+01 | 1486279867.60605 | pgbench_tellers  |           450560
 2017-02-05 08:31:07.606054+01 | 1486279867.60605 | pgbench_history  |                0
 2017-02-05 08:31:07.606054+01 | 1486279867.60605 | pgbench_branches |            40960

 2017-02-05 08:31:08.690882+01 | 1486279868.69088 | pgbench_accounts |      13739532288
 2017-02-05 08:31:08.690882+01 | 1486279868.69088 | pgbench_tellers  |           450560
 2017-02-05 08:31:08.690882+01 | 1486279868.69088 | pgbench_history  |                0
 2017-02-05 08:31:08.690882+01 | 1486279868.69088 | pgbench_branches |            40960

 2017-02-05 08:31:09.776392+01 | 1486279869.77639 | pgbench_accounts |      13739606016
 2017-02-05 08:31:09.776392+01 | 1486279869.77639 | pgbench_tellers  |           450560
 2017-02-05 08:31:09.776392+01 | 1486279869.77639 | pgbench_history  |                0
 2017-02-05 08:31:09.776392+01 | 1486279869.77639 | pgbench_branches |            40960

 2017-02-05 08:31:10.855919+01 | 1486279870.85592 | pgbench_accounts |      13739687936
 2017-02-05 08:31:10.855919+01 | 1486279870.85592 | pgbench_tellers  |           450560
 2017-02-05 08:31:10.855919+01 | 1486279870.85592 | pgbench_history  |                0
 2017-02-05 08:31:10.855919+01 | 1486279870.85592 | pgbench_branches |            40960

 2017-02-05 08:31:11.93198+01 | 1486279871.93198 | pgbench_accounts |      13739761664
 2017-02-05 08:31:11.93198+01 | 1486279871.93198 | pgbench_tellers  |           450560
 2017-02-05 08:31:11.93198+01 | 1486279871.93198 | pgbench_history  |                0
 2017-02-05 08:31:11.93198+01 | 1486279871.93198 | pgbench_branches |            40960

 2017-02-05 08:31:13.011505+01 | 1486279873.0115 | pgbench_accounts |      13739819008
 2017-02-05 08:31:13.011505+01 | 1486279873.0115 | pgbench_tellers  |           450560
 2017-02-05 08:31:13.011505+01 | 1486279873.0115 | pgbench_history  |                0
 2017-02-05 08:31:13.011505+01 | 1486279873.0115 | pgbench_branches |            40960

 2017-02-05 08:31:14.088373+01 | 1486279874.08837 | pgbench_accounts |      13739909120
 2017-02-05 08:31:14.088373+01 | 1486279874.08837 | pgbench_tellers  |           450560
 2017-02-05 08:31:14.088373+01 | 1486279874.08837 | pgbench_history  |                0
 2017-02-05 08:31:14.088373+01 | 1486279874.08837 | pgbench_branches |            40960

 2017-02-05 08:31:15.167027+01 | 1486279875.16703 | pgbench_accounts |      13739958272
 2017-02-05 08:31:15.167027+01 | 1486279875.16703 | pgbench_tellers  |           450560
 2017-02-05 08:31:15.167027+01 | 1486279875.16703 | pgbench_history  |                0
 2017-02-05 08:31:15.167027+01 | 1486279875.16703 | pgbench_branches |            40960

 2017-02-05 08:31:16.249643+01 | 1486279876.24964 | pgbench_accounts |      13740056576
 2017-02-05 08:31:16.249643+01 | 1486279876.24964 | pgbench_tellers  |           450560
 2017-02-05 08:31:16.249643+01 | 1486279876.24964 | pgbench_history  |                0
 2017-02-05 08:31:16.249643+01 | 1486279876.24964 | pgbench_branches |            40960

 2017-02-05 08:31:17.326818+01 | 1486279877.32682 | pgbench_accounts |      13740113920
 2017-02-05 08:31:17.326818+01 | 1486279877.32682 | pgbench_tellers  |           450560
 2017-02-05 08:31:17.326818+01 | 1486279877.32682 | pgbench_history  |                0
 2017-02-05 08:31:17.326818+01 | 1486279877.32682 | pgbench_branches |            40960

 2017-02-05 08:31:18.408539+01 | 1486279878.40854 | pgbench_accounts |      13740204032
 2017-02-05 08:31:18.408539+01 | 1486279878.40854 | pgbench_tellers  |           450560
 2017-02-05 08:31:18.408539+01 | 1486279878.40854 | pgbench_history  |                0
 2017-02-05 08:31:18.408539+01 | 1486279878.40854 | pgbench_branches |            40960

 2017-02-05 08:31:19.492516+01 | 1486279879.49252 | pgbench_accounts |      13740318720
 2017-02-05 08:31:19.492516+01 | 1486279879.49252 | pgbench_tellers  |           450560
 2017-02-05 08:31:19.492516+01 | 1486279879.49252 | pgbench_history  |                0
 2017-02-05 08:31:19.492516+01 | 1486279879.49252 | pgbench_branches |            40960

 2017-02-05 08:31:20.579016+01 | 1486279880.57902 | pgbench_accounts |      13740400640
 2017-02-05 08:31:20.579016+01 | 1486279880.57902 | pgbench_tellers  |           450560
 2017-02-05 08:31:20.579016+01 | 1486279880.57902 | pgbench_history  |                0
 2017-02-05 08:31:20.579016+01 | 1486279880.57902 | pgbench_branches |            40960

 2017-02-05 08:31:21.657735+01 | 1486279881.65774 | pgbench_accounts |      13740482560
 2017-02-05 08:31:21.657735+01 | 1486279881.65774 | pgbench_tellers  |           450560
 2017-02-05 08:31:21.657735+01 | 1486279881.65774 | pgbench_history  |                0
 2017-02-05 08:31:21.657735+01 | 1486279881.65774 | pgbench_branches |            40960

 2017-02-05 08:31:22.735934+01 | 1486279882.73593 | pgbench_accounts |      13740580864
 2017-02-05 08:31:22.735934+01 | 1486279882.73593 | pgbench_tellers  |           450560
 2017-02-05 08:31:22.735934+01 | 1486279882.73593 | pgbench_history  |                0
 2017-02-05 08:31:22.735934+01 | 1486279882.73593 | pgbench_branches |            40960

 2017-02-05 08:31:23.812918+01 | 1486279883.81292 | pgbench_accounts |      13740646400
 2017-02-05 08:31:23.812918+01 | 1486279883.81292 | pgbench_tellers  |           450560
 2017-02-05 08:31:23.812918+01 | 1486279883.81292 | pgbench_history  |                0
 2017-02-05 08:31:23.812918+01 | 1486279883.81292 | pgbench_branches |            40960

 2017-02-05 08:31:24.898048+01 | 1486279884.89805 | pgbench_accounts |      13740744704
 2017-02-05 08:31:24.898048+01 | 1486279884.89805 | pgbench_tellers  |           450560
 2017-02-05 08:31:24.898048+01 | 1486279884.89805 | pgbench_history  |                0
 2017-02-05 08:31:24.898048+01 | 1486279884.89805 | pgbench_branches |            40960

 2017-02-05 08:31:25.977251+01 | 1486279885.97725 | pgbench_accounts |      13740826624
 2017-02-05 08:31:25.977251+01 | 1486279885.97725 | pgbench_tellers  |           450560
 2017-02-05 08:31:25.977251+01 | 1486279885.97725 | pgbench_history  |                0
 2017-02-05 08:31:25.977251+01 | 1486279885.97725 | pgbench_branches |            40960

 2017-02-05 08:31:27.058895+01 | 1486279887.0589 | pgbench_accounts |      13740908544
 2017-02-05 08:31:27.058895+01 | 1486279887.0589 | pgbench_tellers  |           450560
 2017-02-05 08:31:27.058895+01 | 1486279887.0589 | pgbench_history  |                0
 2017-02-05 08:31:27.058895+01 | 1486279887.0589 | pgbench_branches |            40960

 2017-02-05 08:31:28.137341+01 | 1486279888.13734 | pgbench_accounts |      13741006848
 2017-02-05 08:31:28.137341+01 | 1486279888.13734 | pgbench_tellers  |           450560
 2017-02-05 08:31:28.137341+01 | 1486279888.13734 | pgbench_history  |                0
 2017-02-05 08:31:28.137341+01 | 1486279888.13734 | pgbench_branches |            40960

 2017-02-05 08:31:29.219187+01 | 1486279889.21919 | pgbench_accounts |      13741113344
 2017-02-05 08:31:29.219187+01 | 1486279889.21919 | pgbench_tellers  |           450560
 2017-02-05 08:31:29.219187+01 | 1486279889.21919 | pgbench_history  |                0
 2017-02-05 08:31:29.219187+01 | 1486279889.21919 | pgbench_branches |            40960

 2017-02-05 08:31:30.304751+01 | 1486279890.30475 | pgbench_accounts |      13741203456
 2017-02-05 08:31:30.304751+01 | 1486279890.30475 | pgbench_tellers  |           450560
 2017-02-05 08:31:30.304751+01 | 1486279890.30475 | pgbench_history  |                0
 2017-02-05 08:31:30.304751+01 | 1486279890.30475 | pgbench_branches |            40960

 2017-02-05 08:31:31.378035+01 | 1486279891.37804 | pgbench_accounts |      13741285376
 2017-02-05 08:31:31.378035+01 | 1486279891.37804 | pgbench_tellers  |           450560
 2017-02-05 08:31:31.378035+01 | 1486279891.37804 | pgbench_history  |                0
 2017-02-05 08:31:31.378035+01 | 1486279891.37804 | pgbench_branches |            40960

 2017-02-05 08:31:32.454952+01 | 1486279892.45495 | pgbench_accounts |      13741383680
 2017-02-05 08:31:32.454952+01 | 1486279892.45495 | pgbench_tellers  |           450560
 2017-02-05 08:31:32.454952+01 | 1486279892.45495 | pgbench_history  |                0
 2017-02-05 08:31:32.454952+01 | 1486279892.45495 | pgbench_branches |            40960

 2017-02-05 08:31:33.539529+01 | 1486279893.53953 | pgbench_accounts |      13741490176
 2017-02-05 08:31:33.539529+01 | 1486279893.53953 | pgbench_tellers  |           450560
 2017-02-05 08:31:33.539529+01 | 1486279893.53953 | pgbench_history  |                0
 2017-02-05 08:31:33.539529+01 | 1486279893.53953 | pgbench_branches |            40960

 2017-02-05 08:31:34.613323+01 | 1486279894.61332 | pgbench_accounts |      13741580288
 2017-02-05 08:31:34.613323+01 | 1486279894.61332 | pgbench_tellers  |           450560
 2017-02-05 08:31:34.613323+01 | 1486279894.61332 | pgbench_history  |                0
 2017-02-05 08:31:34.613323+01 | 1486279894.61332 | pgbench_branches |            40960

 2017-02-05 08:31:35.688474+01 | 1486279895.68847 | pgbench_accounts |      13741670400
 2017-02-05 08:31:35.688474+01 | 1486279895.68847 | pgbench_tellers  |           450560
 2017-02-05 08:31:35.688474+01 | 1486279895.68847 | pgbench_history  |                0
 2017-02-05 08:31:35.688474+01 | 1486279895.68847 | pgbench_branches |            40960

 2017-02-05 08:31:36.763536+01 | 1486279896.76354 | pgbench_accounts |      13741760512
 2017-02-05 08:31:36.763536+01 | 1486279896.76354 | pgbench_tellers  |           450560
 2017-02-05 08:31:36.763536+01 | 1486279896.76354 | pgbench_history  |                0
 2017-02-05 08:31:36.763536+01 | 1486279896.76354 | pgbench_branches |            40960

 2017-02-05 08:31:37.837013+01 | 1486279897.83701 | pgbench_accounts |      13741850624
 2017-02-05 08:31:37.837013+01 | 1486279897.83701 | pgbench_tellers  |           450560
 2017-02-05 08:31:37.837013+01 | 1486279897.83701 | pgbench_history  |                0
 2017-02-05 08:31:37.837013+01 | 1486279897.83701 | pgbench_branches |            40960

 2017-02-05 08:31:38.90472+01 | 1486279898.90472 | pgbench_accounts |      13741924352
 2017-02-05 08:31:38.90472+01 | 1486279898.90472 | pgbench_tellers  |           450560
 2017-02-05 08:31:38.90472+01 | 1486279898.90472 | pgbench_history  |                0
 2017-02-05 08:31:38.90472+01 | 1486279898.90472 | pgbench_branches |            40960

 2017-02-05 08:31:40.007612+01 | 1486279900.00761 | pgbench_accounts |      13742039040
 2017-02-05 08:31:40.007612+01 | 1486279900.00761 | pgbench_tellers  |           450560
 2017-02-05 08:31:40.007612+01 | 1486279900.00761 | pgbench_history  |                0
 2017-02-05 08:31:40.007612+01 | 1486279900.00761 | pgbench_branches |            40960

 2017-02-05 08:31:41.08831+01 | 1486279901.08831 | pgbench_accounts |      13742104576
 2017-02-05 08:31:41.08831+01 | 1486279901.08831 | pgbench_tellers  |           450560
 2017-02-05 08:31:41.08831+01 | 1486279901.08831 | pgbench_history  |                0
 2017-02-05 08:31:41.08831+01 | 1486279901.08831 | pgbench_branches |            40960

 2017-02-05 08:31:42.173443+01 | 1486279902.17344 | pgbench_accounts |      13742202880
 2017-02-05 08:31:42.173443+01 | 1486279902.17344 | pgbench_tellers  |           450560
 2017-02-05 08:31:42.173443+01 | 1486279902.17344 | pgbench_history  |                0
 2017-02-05 08:31:42.173443+01 | 1486279902.17344 | pgbench_branches |            40960

 2017-02-05 08:31:43.250365+01 | 1486279903.25037 | pgbench_accounts |      13742309376
 2017-02-05 08:31:43.250365+01 | 1486279903.25037 | pgbench_tellers  |           450560
 2017-02-05 08:31:43.250365+01 | 1486279903.25037 | pgbench_history  |                0
 2017-02-05 08:31:43.250365+01 | 1486279903.25037 | pgbench_branches |            40960

 2017-02-05 08:31:44.329166+01 | 1486279904.32917 | pgbench_accounts |      13742350336
 2017-02-05 08:31:44.329166+01 | 1486279904.32917 | pgbench_tellers  |           450560
 2017-02-05 08:31:44.329166+01 | 1486279904.32917 | pgbench_history  |                0
 2017-02-05 08:31:44.329166+01 | 1486279904.32917 | pgbench_branches |            40960

 2017-02-05 08:31:45.413134+01 | 1486279905.41313 | pgbench_accounts |      13742473216
 2017-02-05 08:31:45.413134+01 | 1486279905.41313 | pgbench_tellers  |           450560
 2017-02-05 08:31:45.413134+01 | 1486279905.41313 | pgbench_history  |                0
 2017-02-05 08:31:45.413134+01 | 1486279905.41313 | pgbench_branches |            40960

 2017-02-05 08:31:46.503847+01 | 1486279906.50385 | pgbench_accounts |      13742587904
 2017-02-05 08:31:46.503847+01 | 1486279906.50385 | pgbench_tellers  |           450560
 2017-02-05 08:31:46.503847+01 | 1486279906.50385 | pgbench_history  |                0
 2017-02-05 08:31:46.503847+01 | 1486279906.50385 | pgbench_branches |            40960

 2017-02-05 08:31:47.592062+01 | 1486279907.59206 | pgbench_accounts |      13742637056
 2017-02-05 08:31:47.592062+01 | 1486279907.59206 | pgbench_tellers  |           450560
 2017-02-05 08:31:47.592062+01 | 1486279907.59206 | pgbench_history  |                0
 2017-02-05 08:31:47.592062+01 | 1486279907.59206 | pgbench_branches |            40960

 2017-02-05 08:31:48.674971+01 | 1486279908.67497 | pgbench_accounts |      13742735360
 2017-02-05 08:31:48.674971+01 | 1486279908.67497 | pgbench_tellers  |           450560
 2017-02-05 08:31:48.674971+01 | 1486279908.67497 | pgbench_history  |                0
 2017-02-05 08:31:48.674971+01 | 1486279908.67497 | pgbench_branches |            40960

 2017-02-05 08:31:49.752033+01 | 1486279909.75203 | pgbench_accounts |      13742850048
 2017-02-05 08:31:49.752033+01 | 1486279909.75203 | pgbench_tellers  |           450560
 2017-02-05 08:31:49.752033+01 | 1486279909.75203 | pgbench_history  |                0
 2017-02-05 08:31:49.752033+01 | 1486279909.75203 | pgbench_branches |            40960

 2017-02-05 08:31:50.831131+01 | 1486279910.83113 | pgbench_accounts |      13742923776
 2017-02-05 08:31:50.831131+01 | 1486279910.83113 | pgbench_tellers  |           450560
 2017-02-05 08:31:50.831131+01 | 1486279910.83113 | pgbench_history  |                0
 2017-02-05 08:31:50.831131+01 | 1486279910.83113 | pgbench_branches |            40960

 2017-02-05 08:31:51.91001+01 | 1486279911.91001 | pgbench_accounts |      13743005696
 2017-02-05 08:31:51.91001+01 | 1486279911.91001 | pgbench_tellers  |           450560
 2017-02-05 08:31:51.91001+01 | 1486279911.91001 | pgbench_history  |                0
 2017-02-05 08:31:51.91001+01 | 1486279911.91001 | pgbench_branches |            40960

 2017-02-05 08:31:52.992828+01 | 1486279912.99283 | pgbench_accounts |      13743087616
 2017-02-05 08:31:52.992828+01 | 1486279912.99283 | pgbench_tellers  |           450560
 2017-02-05 08:31:52.992828+01 | 1486279912.99283 | pgbench_history  |                0
 2017-02-05 08:31:52.992828+01 | 1486279912.99283 | pgbench_branches |            40960

 2017-02-05 08:31:54.074538+01 | 1486279914.07454 | pgbench_accounts |      13743177728
 2017-02-05 08:31:54.074538+01 | 1486279914.07454 | pgbench_tellers  |           450560
 2017-02-05 08:31:54.074538+01 | 1486279914.07454 | pgbench_history  |                0
 2017-02-05 08:31:54.074538+01 | 1486279914.07454 | pgbench_branches |            40960

 2017-02-05 08:31:55.159709+01 | 1486279915.15971 | pgbench_accounts |      13743259648
 2017-02-05 08:31:55.159709+01 | 1486279915.15971 | pgbench_tellers  |           450560
 2017-02-05 08:31:55.159709+01 | 1486279915.15971 | pgbench_history  |                0
 2017-02-05 08:31:55.159709+01 | 1486279915.15971 | pgbench_branches |            40960

 2017-02-05 08:31:56.243536+01 | 1486279916.24354 | pgbench_accounts |      13743357952
 2017-02-05 08:31:56.243536+01 | 1486279916.24354 | pgbench_tellers  |           450560
 2017-02-05 08:31:56.243536+01 | 1486279916.24354 | pgbench_history  |                0
 2017-02-05 08:31:56.243536+01 | 1486279916.24354 | pgbench_branches |            40960

 2017-02-05 08:31:57.334992+01 | 1486279917.33499 | pgbench_accounts |      13743456256
 2017-02-05 08:31:57.334992+01 | 1486279917.33499 | pgbench_tellers  |           450560
 2017-02-05 08:31:57.334992+01 | 1486279917.33499 | pgbench_history  |                0
 2017-02-05 08:31:57.334992+01 | 1486279917.33499 | pgbench_branches |            40960

 2017-02-05 08:31:58.423605+01 | 1486279918.4236 | pgbench_accounts |      13743521792
 2017-02-05 08:31:58.423605+01 | 1486279918.4236 | pgbench_tellers  |           450560
 2017-02-05 08:31:58.423605+01 | 1486279918.4236 | pgbench_history  |                0
 2017-02-05 08:31:58.423605+01 | 1486279918.4236 | pgbench_branches |            40960

 2017-02-05 08:31:59.498532+01 | 1486279919.49853 | pgbench_accounts |      13743611904
 2017-02-05 08:31:59.498532+01 | 1486279919.49853 | pgbench_tellers  |           450560
 2017-02-05 08:31:59.498532+01 | 1486279919.49853 | pgbench_history  |                0
 2017-02-05 08:31:59.498532+01 | 1486279919.49853 | pgbench_branches |            40960

 2017-02-05 08:32:00.577307+01 | 1486279920.57731 | pgbench_accounts |      13743734784
 2017-02-05 08:32:00.577307+01 | 1486279920.57731 | pgbench_tellers  |           450560
 2017-02-05 08:32:00.577307+01 | 1486279920.57731 | pgbench_history  |                0
 2017-02-05 08:32:00.577307+01 | 1486279920.57731 | pgbench_branches |            40960

 2017-02-05 08:32:01.662568+01 | 1486279921.66257 | pgbench_accounts |      13743800320
 2017-02-05 08:32:01.662568+01 | 1486279921.66257 | pgbench_tellers  |           450560
 2017-02-05 08:32:01.662568+01 | 1486279921.66257 | pgbench_history  |                0
 2017-02-05 08:32:01.662568+01 | 1486279921.66257 | pgbench_branches |            40960

 2017-02-05 08:32:02.737849+01 | 1486279922.73785 | pgbench_accounts |      13743890432
 2017-02-05 08:32:02.737849+01 | 1486279922.73785 | pgbench_tellers  |           450560
 2017-02-05 08:32:02.737849+01 | 1486279922.73785 | pgbench_history  |                0
 2017-02-05 08:32:02.737849+01 | 1486279922.73785 | pgbench_branches |            40960

 2017-02-05 08:32:03.81489+01 | 1486279923.81489 | pgbench_accounts |      13743988736
 2017-02-05 08:32:03.81489+01 | 1486279923.81489 | pgbench_tellers  |           450560
 2017-02-05 08:32:03.81489+01 | 1486279923.81489 | pgbench_history  |                0
 2017-02-05 08:32:03.81489+01 | 1486279923.81489 | pgbench_branches |            40960

 2017-02-05 08:32:04.897652+01 | 1486279924.89765 | pgbench_accounts |      13744062464
 2017-02-05 08:32:04.897652+01 | 1486279924.89765 | pgbench_tellers  |           450560
 2017-02-05 08:32:04.897652+01 | 1486279924.89765 | pgbench_history  |                0
 2017-02-05 08:32:04.897652+01 | 1486279924.89765 | pgbench_branches |            40960

 2017-02-05 08:32:05.975714+01 | 1486279925.97571 | pgbench_accounts |      13744152576
 2017-02-05 08:32:05.975714+01 | 1486279925.97571 | pgbench_tellers  |           450560
 2017-02-05 08:32:05.975714+01 | 1486279925.97571 | pgbench_history  |                0
 2017-02-05 08:32:05.975714+01 | 1486279925.97571 | pgbench_branches |            40960

 2017-02-05 08:32:07.051334+01 | 1486279927.05133 | pgbench_accounts |      13744242688
 2017-02-05 08:32:07.051334+01 | 1486279927.05133 | pgbench_tellers  |           450560
 2017-02-05 08:32:07.051334+01 | 1486279927.05133 | pgbench_history  |                0
 2017-02-05 08:32:07.051334+01 | 1486279927.05133 | pgbench_branches |            40960

 2017-02-05 08:32:08.131634+01 | 1486279928.13163 | pgbench_accounts |      13744332800
 2017-02-05 08:32:08.131634+01 | 1486279928.13163 | pgbench_tellers  |           450560
 2017-02-05 08:32:08.131634+01 | 1486279928.13163 | pgbench_history  |                0
 2017-02-05 08:32:08.131634+01 | 1486279928.13163 | pgbench_branches |            40960

 2017-02-05 08:32:09.211104+01 | 1486279929.2111 | pgbench_accounts |      13744406528
 2017-02-05 08:32:09.211104+01 | 1486279929.2111 | pgbench_tellers  |           450560
 2017-02-05 08:32:09.211104+01 | 1486279929.2111 | pgbench_history  |                0
 2017-02-05 08:32:09.211104+01 | 1486279929.2111 | pgbench_branches |            40960

 2017-02-05 08:32:10.293134+01 | 1486279930.29313 | pgbench_accounts |      13744504832
 2017-02-05 08:32:10.293134+01 | 1486279930.29313 | pgbench_tellers  |           450560
 2017-02-05 08:32:10.293134+01 | 1486279930.29313 | pgbench_history  |                0
 2017-02-05 08:32:10.293134+01 | 1486279930.29313 | pgbench_branches |            40960

 2017-02-05 08:32:11.369056+01 | 1486279931.36906 | pgbench_accounts |      13744603136
 2017-02-05 08:32:11.369056+01 | 1486279931.36906 | pgbench_tellers  |           450560
 2017-02-05 08:32:11.369056+01 | 1486279931.36906 | pgbench_history  |                0
 2017-02-05 08:32:11.369056+01 | 1486279931.36906 | pgbench_branches |            40960

 2017-02-05 08:32:12.445064+01 | 1486279932.44506 | pgbench_accounts |      13744676864
 2017-02-05 08:32:12.445064+01 | 1486279932.44506 | pgbench_tellers  |           450560
 2017-02-05 08:32:12.445064+01 | 1486279932.44506 | pgbench_history  |                0
 2017-02-05 08:32:12.445064+01 | 1486279932.44506 | pgbench_branches |            40960

 2017-02-05 08:32:13.534376+01 | 1486279933.53438 | pgbench_accounts |      13744758784
 2017-02-05 08:32:13.534376+01 | 1486279933.53438 | pgbench_tellers  |           450560
 2017-02-05 08:32:13.534376+01 | 1486279933.53438 | pgbench_history  |                0
 2017-02-05 08:32:13.534376+01 | 1486279933.53438 | pgbench_branches |            40960

 2017-02-05 08:32:14.620627+01 | 1486279934.62063 | pgbench_accounts |      13744865280
 2017-02-05 08:32:14.620627+01 | 1486279934.62063 | pgbench_tellers  |           450560
 2017-02-05 08:32:14.620627+01 | 1486279934.62063 | pgbench_history  |                0
 2017-02-05 08:32:14.620627+01 | 1486279934.62063 | pgbench_branches |            40960

 2017-02-05 08:32:15.710385+01 | 1486279935.71039 | pgbench_accounts |      13744939008
 2017-02-05 08:32:15.710385+01 | 1486279935.71039 | pgbench_tellers  |           450560
 2017-02-05 08:32:15.710385+01 | 1486279935.71039 | pgbench_history  |                0
 2017-02-05 08:32:15.710385+01 | 1486279935.71039 | pgbench_branches |            40960

 2017-02-05 08:32:16.797261+01 | 1486279936.79726 | pgbench_accounts |      13745012736
 2017-02-05 08:32:16.797261+01 | 1486279936.79726 | pgbench_tellers  |           450560
 2017-02-05 08:32:16.797261+01 | 1486279936.79726 | pgbench_history  |                0
 2017-02-05 08:32:16.797261+01 | 1486279936.79726 | pgbench_branches |            40960

 2017-02-05 08:32:17.883838+01 | 1486279937.88384 | pgbench_accounts |      13745111040
 2017-02-05 08:32:17.883838+01 | 1486279937.88384 | pgbench_tellers  |           450560
 2017-02-05 08:32:17.883838+01 | 1486279937.88384 | pgbench_history  |                0
 2017-02-05 08:32:17.883838+01 | 1486279937.88384 | pgbench_branches |            40960

 2017-02-05 08:32:18.968217+01 | 1486279938.96822 | pgbench_accounts |      13745201152
 2017-02-05 08:32:18.968217+01 | 1486279938.96822 | pgbench_tellers  |           450560
 2017-02-05 08:32:18.968217+01 | 1486279938.96822 | pgbench_history  |                0
 2017-02-05 08:32:18.968217+01 | 1486279938.96822 | pgbench_branches |            40960

 2017-02-05 08:32:20.054614+01 | 1486279940.05461 | pgbench_accounts |      13745291264
 2017-02-05 08:32:20.054614+01 | 1486279940.05461 | pgbench_tellers  |           450560
 2017-02-05 08:32:20.054614+01 | 1486279940.05461 | pgbench_history  |                0
 2017-02-05 08:32:20.054614+01 | 1486279940.05461 | pgbench_branches |            40960

 2017-02-05 08:32:21.136449+01 | 1486279941.13645 | pgbench_accounts |      13745373184
 2017-02-05 08:32:21.136449+01 | 1486279941.13645 | pgbench_tellers  |           450560
 2017-02-05 08:32:21.136449+01 | 1486279941.13645 | pgbench_history  |                0
 2017-02-05 08:32:21.136449+01 | 1486279941.13645 | pgbench_branches |            40960

 2017-02-05 08:32:22.218349+01 | 1486279942.21835 | pgbench_accounts |      13745471488
 2017-02-05 08:32:22.218349+01 | 1486279942.21835 | pgbench_tellers  |           450560
 2017-02-05 08:32:22.218349+01 | 1486279942.21835 | pgbench_history  |                0
 2017-02-05 08:32:22.218349+01 | 1486279942.21835 | pgbench_branches |            40960

 2017-02-05 08:32:23.294064+01 | 1486279943.29406 | pgbench_accounts |      13745561600
 2017-02-05 08:32:23.294064+01 | 1486279943.29406 | pgbench_tellers  |           450560
 2017-02-05 08:32:23.294064+01 | 1486279943.29406 | pgbench_history  |                0
 2017-02-05 08:32:23.294064+01 | 1486279943.29406 | pgbench_branches |            40960

 2017-02-05 08:32:24.373883+01 | 1486279944.37388 | pgbench_accounts |      13745643520
 2017-02-05 08:32:24.373883+01 | 1486279944.37388 | pgbench_tellers  |           450560
 2017-02-05 08:32:24.373883+01 | 1486279944.37388 | pgbench_history  |                0
 2017-02-05 08:32:24.373883+01 | 1486279944.37388 | pgbench_branches |            40960

 2017-02-05 08:32:25.453904+01 | 1486279945.4539 | pgbench_accounts |      13745725440
 2017-02-05 08:32:25.453904+01 | 1486279945.4539 | pgbench_tellers  |           450560
 2017-02-05 08:32:25.453904+01 | 1486279945.4539 | pgbench_history  |                0
 2017-02-05 08:32:25.453904+01 | 1486279945.4539 | pgbench_branches |            40960

 2017-02-05 08:32:26.533688+01 | 1486279946.53369 | pgbench_accounts |      13745823744
 2017-02-05 08:32:26.533688+01 | 1486279946.53369 | pgbench_tellers  |           450560
 2017-02-05 08:32:26.533688+01 | 1486279946.53369 | pgbench_history  |                0
 2017-02-05 08:32:26.533688+01 | 1486279946.53369 | pgbench_branches |            40960

 2017-02-05 08:32:27.619601+01 | 1486279947.6196 | pgbench_accounts |      13745905664
 2017-02-05 08:32:27.619601+01 | 1486279947.6196 | pgbench_tellers  |           450560
 2017-02-05 08:32:27.619601+01 | 1486279947.6196 | pgbench_history  |                0
 2017-02-05 08:32:27.619601+01 | 1486279947.6196 | pgbench_branches |            40960

 2017-02-05 08:32:28.702507+01 | 1486279948.70251 | pgbench_accounts |      13745979392
 2017-02-05 08:32:28.702507+01 | 1486279948.70251 | pgbench_tellers  |           450560
 2017-02-05 08:32:28.702507+01 | 1486279948.70251 | pgbench_history  |                0
 2017-02-05 08:32:28.702507+01 | 1486279948.70251 | pgbench_branches |            40960

 2017-02-05 08:32:29.785689+01 | 1486279949.78569 | pgbench_accounts |      13746085888
 2017-02-05 08:32:29.785689+01 | 1486279949.78569 | pgbench_tellers  |           450560
 2017-02-05 08:32:29.785689+01 | 1486279949.78569 | pgbench_history  |                0
 2017-02-05 08:32:29.785689+01 | 1486279949.78569 | pgbench_branches |            40960

 2017-02-05 08:32:30.864882+01 | 1486279950.86488 | pgbench_accounts |      13746159616
 2017-02-05 08:32:30.864882+01 | 1486279950.86488 | pgbench_tellers  |           450560
 2017-02-05 08:32:30.864882+01 | 1486279950.86488 | pgbench_history  |                0
 2017-02-05 08:32:30.864882+01 | 1486279950.86488 | pgbench_branches |            40960

 2017-02-05 08:32:31.944813+01 | 1486279951.94481 | pgbench_accounts |      13746266112
 2017-02-05 08:32:31.944813+01 | 1486279951.94481 | pgbench_tellers  |           450560
 2017-02-05 08:32:31.944813+01 | 1486279951.94481 | pgbench_history  |                0
 2017-02-05 08:32:31.944813+01 | 1486279951.94481 | pgbench_branches |            40960

 2017-02-05 08:32:33.035249+01 | 1486279953.03525 | pgbench_accounts |      13746348032
 2017-02-05 08:32:33.035249+01 | 1486279953.03525 | pgbench_tellers  |           450560
 2017-02-05 08:32:33.035249+01 | 1486279953.03525 | pgbench_history  |                0
 2017-02-05 08:32:33.035249+01 | 1486279953.03525 | pgbench_branches |            40960

 2017-02-05 08:32:34.11246+01 | 1486279954.11246 | pgbench_accounts |      13746429952
 2017-02-05 08:32:34.11246+01 | 1486279954.11246 | pgbench_tellers  |           450560
 2017-02-05 08:32:34.11246+01 | 1486279954.11246 | pgbench_history  |                0
 2017-02-05 08:32:34.11246+01 | 1486279954.11246 | pgbench_branches |            40960

 2017-02-05 08:32:35.192134+01 | 1486279955.19213 | pgbench_accounts |      13746520064
 2017-02-05 08:32:35.192134+01 | 1486279955.19213 | pgbench_tellers  |           450560
 2017-02-05 08:32:35.192134+01 | 1486279955.19213 | pgbench_history  |                0
 2017-02-05 08:32:35.192134+01 | 1486279955.19213 | pgbench_branches |            40960

 2017-02-05 08:32:36.28082+01 | 1486279956.28082 | pgbench_accounts |      13746585600
 2017-02-05 08:32:36.28082+01 | 1486279956.28082 | pgbench_tellers  |           450560
 2017-02-05 08:32:36.28082+01 | 1486279956.28082 | pgbench_history  |                0
 2017-02-05 08:32:36.28082+01 | 1486279956.28082 | pgbench_branches |            40960

 2017-02-05 08:32:37.367568+01 | 1486279957.36757 | pgbench_accounts |      13746675712
 2017-02-05 08:32:37.367568+01 | 1486279957.36757 | pgbench_tellers  |           450560
 2017-02-05 08:32:37.367568+01 | 1486279957.36757 | pgbench_history  |                0
 2017-02-05 08:32:37.367568+01 | 1486279957.36757 | pgbench_branches |            40960

 2017-02-05 08:32:38.437421+01 | 1486279958.43742 | pgbench_accounts |      13746741248
 2017-02-05 08:32:38.437421+01 | 1486279958.43742 | pgbench_tellers  |           450560
 2017-02-05 08:32:38.437421+01 | 1486279958.43742 | pgbench_history  |                0
 2017-02-05 08:32:38.437421+01 | 1486279958.43742 | pgbench_branches |            40960

 2017-02-05 08:32:39.523914+01 | 1486279959.52391 | pgbench_accounts |      13746823168
 2017-02-05 08:32:39.523914+01 | 1486279959.52391 | pgbench_tellers  |           450560
 2017-02-05 08:32:39.523914+01 | 1486279959.52391 | pgbench_history  |                0
 2017-02-05 08:32:39.523914+01 | 1486279959.52391 | pgbench_branches |            40960

 2017-02-05 08:32:40.602867+01 | 1486279960.60287 | pgbench_accounts |      13746864128
 2017-02-05 08:32:40.602867+01 | 1486279960.60287 | pgbench_tellers  |           450560
 2017-02-05 08:32:40.602867+01 | 1486279960.60287 | pgbench_history  |                0
 2017-02-05 08:32:40.602867+01 | 1486279960.60287 | pgbench_branches |            40960

 2017-02-05 08:32:41.688192+01 | 1486279961.68819 | pgbench_accounts |      13746946048
 2017-02-05 08:32:41.688192+01 | 1486279961.68819 | pgbench_tellers  |           450560
 2017-02-05 08:32:41.688192+01 | 1486279961.68819 | pgbench_history  |                0
 2017-02-05 08:32:41.688192+01 | 1486279961.68819 | pgbench_branches |            40960

 2017-02-05 08:32:42.768178+01 | 1486279962.76818 | pgbench_accounts |      13747027968
 2017-02-05 08:32:42.768178+01 | 1486279962.76818 | pgbench_tellers  |           450560
 2017-02-05 08:32:42.768178+01 | 1486279962.76818 | pgbench_history  |                0
 2017-02-05 08:32:42.768178+01 | 1486279962.76818 | pgbench_branches |            40960

 2017-02-05 08:32:43.843948+01 | 1486279963.84395 | pgbench_accounts |      13747093504
 2017-02-05 08:32:43.843948+01 | 1486279963.84395 | pgbench_tellers  |           450560
 2017-02-05 08:32:43.843948+01 | 1486279963.84395 | pgbench_history  |                0
 2017-02-05 08:32:43.843948+01 | 1486279963.84395 | pgbench_branches |            40960

