 2017-02-05 23:46:42.593122+01 | 1486334802.59312 | 0/4E3B0DD0               |            1312493008

 2017-02-05 23:46:43.675381+01 | 1486334803.67538 | 0/4E3B0E08               |            1312493064

 2017-02-05 23:46:44.756009+01 | 1486334804.75601 | 0/4E3B0E08               |            1312493064

 2017-02-05 23:46:45.846857+01 | 1486334805.84686 | 0/4E3B0E08               |            1312493064

 2017-02-05 23:46:46.942932+01 | 1486334806.94293 | 0/4E3B0E08               |            1312493064

 2017-02-05 23:46:48.036147+01 | 1486334808.03615 | 0/4E3B0E08               |            1312493064

 2017-02-05 23:46:49.126074+01 | 1486334809.12607 | 0/4E3B0E08               |            1312493064

 2017-02-05 23:46:50.213376+01 | 1486334810.21338 | 0/4E3B0E08               |            1312493064

 2017-02-05 23:46:51.318073+01 | 1486334811.31807 | 0/4E3B0E08               |            1312493064

 2017-02-05 23:46:52.416523+01 | 1486334812.41652 | 0/4E3B0E08               |            1312493064

 2017-02-05 23:46:53.502946+01 | 1486334813.50295 | 0/4E3B0E08               |            1312493064

 2017-02-05 23:46:54.59717+01 | 1486334814.59717 | 0/4E3B0E08               |            1312493064

 2017-02-05 23:46:55.691219+01 | 1486334815.69122 | 0/4E3B0E08               |            1312493064

 2017-02-05 23:46:56.783737+01 | 1486334816.78374 | 0/4E3B0E08               |            1312493064

 2017-02-05 23:46:57.871162+01 | 1486334817.87116 | 0/4E3B0E08               |            1312493064

 2017-02-05 23:46:58.97651+01 | 1486334818.97651 | 0/4E3B0E08               |            1312493064

 2017-02-05 23:47:00.0601+01 | 1486334820.0601 | 0/4E3B0E08               |            1312493064

 2017-02-05 23:47:01.143558+01 | 1486334821.14356 | 0/4E3B0E08               |            1312493064

 2017-02-05 23:47:02.252183+01 | 1486334822.25218 | 0/4E3B0E08               |            1312493064

 2017-02-05 23:47:03.344378+01 | 1486334823.34438 | 0/4E3B0E08               |            1312493064

 2017-02-05 23:47:04.437085+01 | 1486334824.43708 | 0/4E3B0E08               |            1312493064

 2017-02-05 23:47:05.526911+01 | 1486334825.52691 | 0/4E3B0E08               |            1312493064

 2017-02-05 23:47:06.624201+01 | 1486334826.6242 | 0/4E3B0E08               |            1312493064

 2017-02-05 23:47:07.724952+01 | 1486334827.72495 | 0/4E3B0E08               |            1312493064

 2017-02-05 23:47:08.813318+01 | 1486334828.81332 | 0/4E3B0E08               |            1312493064

 2017-02-05 23:47:09.902096+01 | 1486334829.9021 | 0/4E3B0E08               |            1312493064

 2017-02-05 23:47:10.9947+01 | 1486334830.9947 | 0/4E3B0E08               |            1312493064

 2017-02-05 23:47:12.082868+01 | 1486334832.08287 | 0/4E3B0E08               |            1312493064

 2017-02-05 23:47:13.181014+01 | 1486334833.18101 | 0/4E3B0E08               |            1312493064

 2017-02-05 23:47:14.277257+01 | 1486334834.27726 | 0/4E3B0E08               |            1312493064

 2017-02-05 23:47:15.367235+01 | 1486334835.36723 | 0/4E3B0E08               |            1312493064

 2017-02-05 23:47:16.45767+01 | 1486334836.45767 | 0/4E3B0E08               |            1312493064

 2017-02-05 23:47:17.552305+01 | 1486334837.5523 | 0/4E3B0E08               |            1312493064

 2017-02-05 23:47:18.651685+01 | 1486334838.65168 | 0/4E3B0E08               |            1312493064

 2017-02-05 23:47:19.745735+01 | 1486334839.74573 | 0/4E3B0E08               |            1312493064

 2017-02-05 23:47:20.841622+01 | 1486334840.84162 | 0/4E3B0E08               |            1312493064

 2017-02-05 23:47:21.931419+01 | 1486334841.93142 | 0/4E3B0E08               |            1312493064

 2017-02-05 23:47:23.020663+01 | 1486334843.02066 | 0/4E3B0E08               |            1312493064

 2017-02-05 23:47:24.106885+01 | 1486334844.10688 | 0/4E3B0E08               |            1312493064

 2017-02-05 23:47:25.200108+01 | 1486334845.20011 | 0/4E3B0E08               |            1312493064

 2017-02-05 23:47:26.293388+01 | 1486334846.29339 | 0/4E3B0E08               |            1312493064

 2017-02-05 23:47:27.38993+01 | 1486334847.38993 | 0/4E3B0E08               |            1312493064

 2017-02-05 23:47:28.475426+01 | 1486334848.47543 | 0/4E3B0E08               |            1312493064

 2017-02-05 23:47:29.560828+01 | 1486334849.56083 | 0/4E3B0E08               |            1312493064

 2017-02-05 23:47:30.652945+01 | 1486334850.65295 | 0/4E3B0E08               |            1312493064

 2017-02-05 23:47:31.742169+01 | 1486334851.74217 | 0/4E3B0E08               |            1312493064

 2017-02-05 23:47:32.836894+01 | 1486334852.83689 | 0/4E3B0E08               |            1312493064

 2017-02-05 23:47:33.933243+01 | 1486334853.93324 | 0/4E3B0E08               |            1312493064

 2017-02-05 23:47:35.01599+01 | 1486334855.01599 | 0/4E3B0E08               |            1312493064

 2017-02-05 23:47:36.108416+01 | 1486334856.10842 | 0/4E3B0E08               |            1312493064

 2017-02-05 23:47:37.204421+01 | 1486334857.20442 | 0/4E3B0E08               |            1312493064

 2017-02-05 23:47:38.292628+01 | 1486334858.29263 | 0/4E3B0E08               |            1312493064

 2017-02-05 23:47:39.384644+01 | 1486334859.38464 | 0/4E3B0E08               |            1312493064

 2017-02-05 23:47:40.466482+01 | 1486334860.46648 | 0/4E3B0E08               |            1312493064

 2017-02-05 23:47:41.559794+01 | 1486334861.55979 | 0/4E3B0E08               |            1312493064

 2017-02-05 23:47:42.650389+01 | 1486334862.65039 | 0/4E3B0E08               |            1312493064

 2017-02-05 23:47:43.747327+01 | 1486334863.74733 | 0/4E3B0E08               |            1312493064

 2017-02-05 23:47:44.84609+01 | 1486334864.84609 | 0/4E3B0E08               |            1312493064

 2017-02-05 23:47:45.945085+01 | 1486334865.94509 | 0/4E3B0E08               |            1312493064

 2017-02-05 23:47:47.033666+01 | 1486334867.03367 | 0/4E3B0E08               |            1312493064

 2017-02-05 23:47:48.127991+01 | 1486334868.12799 | 0/4E3B0E08               |            1312493064

 2017-02-05 23:47:49.206739+01 | 1486334869.20674 | 0/4E3B0E08               |            1312493064

 2017-02-05 23:47:50.297396+01 | 1486334870.2974 | 0/4E3B0E08               |            1312493064

 2017-02-05 23:47:51.398327+01 | 1486334871.39833 | 0/4E3B0E08               |            1312493064

 2017-02-05 23:47:52.489693+01 | 1486334872.48969 | 0/4E3B0E08               |            1312493064

 2017-02-05 23:47:53.574282+01 | 1486334873.57428 | 0/4E3B0E08               |            1312493064

 2017-02-05 23:47:54.667444+01 | 1486334874.66744 | 0/4E3B0E08               |            1312493064

 2017-02-05 23:47:55.766745+01 | 1486334875.76675 | 0/4E3B0E08               |            1312493064

 2017-02-05 23:47:56.866386+01 | 1486334876.86639 | 0/4E3B0E08               |            1312493064

 2017-02-05 23:47:57.967554+01 | 1486334877.96755 | 0/4E3B0E08               |            1312493064

 2017-02-05 23:47:59.067434+01 | 1486334879.06743 | 0/4E3B0E08               |            1312493064

 2017-02-05 23:48:00.168275+01 | 1486334880.16828 | 0/4E3B0E08               |            1312493064

 2017-02-05 23:48:01.266706+01 | 1486334881.26671 | 0/4E3B0E08               |            1312493064

 2017-02-05 23:48:02.355325+01 | 1486334882.35532 | 0/4E3B0E08               |            1312493064

 2017-02-05 23:48:03.448394+01 | 1486334883.44839 | 0/4E3B0E08               |            1312493064

 2017-02-05 23:48:04.532391+01 | 1486334884.53239 | 0/4E3B0E08               |            1312493064

 2017-02-05 23:48:05.623945+01 | 1486334885.62394 | 0/4E3B0E08               |            1312493064

 2017-02-05 23:48:06.713996+01 | 1486334886.714 | 0/4E3B0E08               |            1312493064

 2017-02-05 23:48:07.809777+01 | 1486334887.80978 | 0/4E3B0E08               |            1312493064

 2017-02-05 23:48:08.894203+01 | 1486334888.8942 | 0/4E3B0E08               |            1312493064

 2017-02-05 23:48:09.982813+01 | 1486334889.98281 | 0/4E3B0E08               |            1312493064

 2017-02-05 23:48:11.081526+01 | 1486334891.08153 | 0/4E3B0E08               |            1312493064

 2017-02-05 23:48:12.170803+01 | 1486334892.1708 | 0/4E3B0E08               |            1312493064

 2017-02-05 23:48:13.271246+01 | 1486334893.27125 | 0/4E3B0E08               |            1312493064

 2017-02-05 23:48:14.373142+01 | 1486334894.37314 | 0/4E3B0E08               |            1312493064

 2017-02-05 23:48:15.469151+01 | 1486334895.46915 | 0/4E3B0E08               |            1312493064

 2017-02-05 23:48:16.561196+01 | 1486334896.5612 | 0/4E3B0E08               |            1312493064

 2017-02-05 23:48:17.645385+01 | 1486334897.64539 | 0/4E3B0E08               |            1312493064

 2017-02-05 23:48:18.734684+01 | 1486334898.73468 | 0/4E3B0E08               |            1312493064

 2017-02-05 23:48:19.831526+01 | 1486334899.83153 | 0/4E3B0E08               |            1312493064

 2017-02-05 23:48:20.92154+01 | 1486334900.92154 | 0/4E3B0E08               |            1312493064

 2017-02-05 23:48:22.022211+01 | 1486334902.02221 | 0/4E3B0E08               |            1312493064

 2017-02-05 23:48:23.109587+01 | 1486334903.10959 | 0/4E3B0E08               |            1312493064

 2017-02-05 23:48:24.208197+01 | 1486334904.2082 | 0/4E3B0E08               |            1312493064

 2017-02-05 23:48:25.297872+01 | 1486334905.29787 | 0/4E3B0E08               |            1312493064

 2017-02-05 23:48:26.390589+01 | 1486334906.39059 | 0/4E3B0E08               |            1312493064

 2017-02-05 23:48:27.496117+01 | 1486334907.49612 | 0/4E3B0E08               |            1312493064

 2017-02-05 23:48:28.586727+01 | 1486334908.58673 | 0/4E3B0E08               |            1312493064

 2017-02-05 23:48:29.674264+01 | 1486334909.67426 | 0/4E3B0E08               |            1312493064

 2017-02-05 23:48:30.778488+01 | 1486334910.77849 | 0/4E3B0E08               |            1312493064

 2017-02-05 23:48:31.883524+01 | 1486334911.88352 | 0/4E3B0E08               |            1312493064

 2017-02-05 23:48:32.972581+01 | 1486334912.97258 | 0/4E3B0E08               |            1312493064

 2017-02-05 23:48:34.07354+01 | 1486334914.07354 | 0/4E3B0E08               |            1312493064

 2017-02-05 23:48:35.168261+01 | 1486334915.16826 | 0/4E3B0E08               |            1312493064

 2017-02-05 23:48:36.255882+01 | 1486334916.25588 | 0/4E3B0E08               |            1312493064

 2017-02-05 23:48:37.344331+01 | 1486334917.34433 | 0/4E3B0E08               |            1312493064

 2017-02-05 23:48:38.435718+01 | 1486334918.43572 | 0/4E3B0E08               |            1312493064

 2017-02-05 23:48:39.519649+01 | 1486334919.51965 | 0/4E3B0E08               |            1312493064

 2017-02-05 23:48:40.617901+01 | 1486334920.6179 | 0/4E3B0E08               |            1312493064

 2017-02-05 23:48:41.709808+01 | 1486334921.70981 | 0/4E3B0E08               |            1312493064

 2017-02-05 23:48:42.801173+01 | 1486334922.80117 | 0/4E3B0E08               |            1312493064

 2017-02-05 23:48:43.899996+01 | 1486334923.9 | 0/4E3B0E08               |            1312493064

 2017-02-05 23:48:44.998341+01 | 1486334924.99834 | 0/4E3B0E08               |            1312493064

 2017-02-05 23:48:46.095404+01 | 1486334926.0954 | 0/4E3B0E08               |            1312493064

 2017-02-05 23:48:47.18891+01 | 1486334927.18891 | 0/4E3B0E08               |            1312493064

 2017-02-05 23:48:48.282931+01 | 1486334928.28293 | 0/4E3B0E08               |            1312493064

 2017-02-05 23:48:49.370749+01 | 1486334929.37075 | 0/4E3B0E08               |            1312493064

 2017-02-05 23:48:50.464633+01 | 1486334930.46463 | 0/4E3B0E08               |            1312493064

 2017-02-05 23:48:51.563044+01 | 1486334931.56304 | 0/4E3B0E08               |            1312493064

 2017-02-05 23:48:52.653745+01 | 1486334932.65374 | 0/4E3B0E08               |            1312493064

 2017-02-05 23:48:53.739959+01 | 1486334933.73996 | 0/4E3B0E08               |            1312493064

 2017-02-05 23:48:54.826836+01 | 1486334934.82684 | 0/4E3B0E08               |            1312493064

 2017-02-05 23:48:55.92106+01 | 1486334935.92106 | 0/4E3B0E08               |            1312493064

 2017-02-05 23:48:57.015874+01 | 1486334937.01587 | 0/4E3B0E08               |            1312493064

 2017-02-05 23:48:58.108828+01 | 1486334938.10883 | 0/4E3B0E08               |            1312493064

 2017-02-05 23:48:59.199069+01 | 1486334939.19907 | 0/4E3B0E08               |            1312493064

 2017-02-05 23:49:00.304901+01 | 1486334940.3049 | 0/4E3B0E08               |            1312493064

 2017-02-05 23:49:01.402111+01 | 1486334941.40211 | 0/4E3B0E08               |            1312493064

 2017-02-05 23:49:02.492795+01 | 1486334942.49279 | 0/4E3B0E08               |            1312493064

 2017-02-05 23:49:03.584339+01 | 1486334943.58434 | 0/4E3B0E08               |            1312493064

 2017-02-05 23:49:04.672975+01 | 1486334944.67298 | 0/4E3B0E08               |            1312493064

 2017-02-05 23:49:05.759152+01 | 1486334945.75915 | 0/4E3B0E08               |            1312493064

 2017-02-05 23:49:06.853622+01 | 1486334946.85362 | 0/4E3B0E08               |            1312493064

 2017-02-05 23:49:07.945761+01 | 1486334947.94576 | 0/4E3B0E08               |            1312493064

 2017-02-05 23:49:09.042813+01 | 1486334949.04281 | 0/4E3B0E08               |            1312493064

 2017-02-05 23:49:10.13703+01 | 1486334950.13703 | 0/4E3B0E08               |            1312493064

 2017-02-05 23:49:11.230312+01 | 1486334951.23031 | 0/4E3B0E08               |            1312493064

 2017-02-05 23:49:12.316234+01 | 1486334952.31623 | 0/4E3B0E08               |            1312493064

 2017-02-05 23:49:13.405828+01 | 1486334953.40583 | 0/4E3B0E08               |            1312493064

 2017-02-05 23:49:14.507055+01 | 1486334954.50706 | 0/4E3B0E08               |            1312493064

 2017-02-05 23:49:15.60357+01 | 1486334955.60357 | 0/4E3B0E08               |            1312493064

 2017-02-05 23:49:16.689154+01 | 1486334956.68915 | 0/4E3B0E08               |            1312493064

 2017-02-05 23:49:17.781025+01 | 1486334957.78102 | 0/4E3B0E08               |            1312493064

 2017-02-05 23:49:18.870215+01 | 1486334958.87021 | 0/4E3B0E08               |            1312493064

 2017-02-05 23:49:19.965328+01 | 1486334959.96533 | 0/4E3B0E08               |            1312493064

 2017-02-05 23:49:21.059782+01 | 1486334961.05978 | 0/4E3B0E08               |            1312493064

 2017-02-05 23:49:22.144304+01 | 1486334962.1443 | 0/4E3B0E08               |            1312493064

 2017-02-05 23:49:23.236903+01 | 1486334963.2369 | 0/4E3B0E08               |            1312493064

 2017-02-05 23:49:24.336644+01 | 1486334964.33664 | 0/4E3B0E08               |            1312493064

 2017-02-05 23:49:25.421622+01 | 1486334965.42162 | 0/4E3B0E08               |            1312493064

 2017-02-05 23:49:26.517513+01 | 1486334966.51751 | 0/4E3B0E08               |            1312493064

 2017-02-05 23:49:27.60702+01 | 1486334967.60702 | 0/4E3B0E08               |            1312493064

 2017-02-05 23:49:28.693753+01 | 1486334968.69375 | 0/4E3B0E08               |            1312493064

 2017-02-05 23:49:29.781826+01 | 1486334969.78183 | 0/4E3B0E08               |            1312493064

 2017-02-05 23:49:30.87704+01 | 1486334970.87704 | 0/4E3B0E08               |            1312493064

 2017-02-05 23:49:31.968707+01 | 1486334971.96871 | 0/4E3B0E08               |            1312493064

 2017-02-05 23:49:33.060829+01 | 1486334973.06083 | 0/4E3B0E08               |            1312493064

 2017-02-05 23:49:34.150029+01 | 1486334974.15003 | 0/4E3B0E08               |            1312493064

 2017-02-05 23:49:35.241305+01 | 1486334975.24131 | 0/4E3B0E08               |            1312493064

 2017-02-05 23:49:36.341818+01 | 1486334976.34182 | 0/4E3B0E08               |            1312493064

 2017-02-05 23:49:37.442162+01 | 1486334977.44216 | 0/4E3B0E08               |            1312493064

 2017-02-05 23:49:38.539119+01 | 1486334978.53912 | 0/4E3B0E08               |            1312493064

 2017-02-05 23:49:39.618685+01 | 1486334979.61869 | 0/4E3B0E08               |            1312493064

 2017-02-05 23:49:40.704756+01 | 1486334980.70476 | 0/4E3B0E08               |            1312493064

 2017-02-05 23:49:41.79185+01 | 1486334981.79185 | 0/4E3B0E08               |            1312493064

 2017-02-05 23:49:42.879+01 | 1486334982.879 | 0/4E3B0E08               |            1312493064

 2017-02-05 23:49:43.977195+01 | 1486334983.9772 | 0/4E3B0E08               |            1312493064

 2017-02-05 23:49:45.078136+01 | 1486334985.07814 | 0/4E3B0E08               |            1312493064

 2017-02-05 23:49:46.178445+01 | 1486334986.17845 | 0/4E3B0E08               |            1312493064

 2017-02-05 23:49:47.273633+01 | 1486334987.27363 | 0/4E3B0E08               |            1312493064

 2017-02-05 23:49:48.37539+01 | 1486334988.37539 | 0/4E3B0E08               |            1312493064

 2017-02-05 23:49:49.457477+01 | 1486334989.45748 | 0/4E3B0E08               |            1312493064

 2017-02-05 23:49:50.557932+01 | 1486334990.55793 | 0/4E3B0E08               |            1312493064

 2017-02-05 23:49:51.65335+01 | 1486334991.65335 | 0/4E3B0E08               |            1312493064

 2017-02-05 23:49:52.73899+01 | 1486334992.73899 | 0/4E3B0E08               |            1312493064

 2017-02-05 23:49:53.821778+01 | 1486334993.82178 | 0/4E3B0E08               |            1312493064

 2017-02-05 23:49:54.907979+01 | 1486334994.90798 | 0/4E3B0E08               |            1312493064

 2017-02-05 23:49:56.008543+01 | 1486334996.00854 | 0/4E3B0E08               |            1312493064

 2017-02-05 23:49:57.104664+01 | 1486334997.10466 | 0/4E3B0E08               |            1312493064

 2017-02-05 23:49:58.194994+01 | 1486334998.19499 | 0/4E3B0E08               |            1312493064

 2017-02-05 23:49:59.284392+01 | 1486334999.28439 | 0/4E3B0E08               |            1312493064

 2017-02-05 23:50:00.382673+01 | 1486335000.38267 | 0/4E3B0E08               |            1312493064

 2017-02-05 23:50:01.481821+01 | 1486335001.48182 | 0/4E3B0E08               |            1312493064

 2017-02-05 23:50:02.58385+01 | 1486335002.58385 | 0/4E3B0E08               |            1312493064

 2017-02-05 23:50:03.674113+01 | 1486335003.67411 | 0/4E3B0E08               |            1312493064

 2017-02-05 23:50:04.766502+01 | 1486335004.7665 | 0/4E3B0E08               |            1312493064

 2017-02-05 23:50:05.851178+01 | 1486335005.85118 | 0/4E3B0E08               |            1312493064

 2017-02-05 23:50:06.93398+01 | 1486335006.93398 | 0/4E3B0E08               |            1312493064

 2017-02-05 23:50:08.024722+01 | 1486335008.02472 | 0/4E3B0E08               |            1312493064

 2017-02-05 23:50:09.118676+01 | 1486335009.11868 | 0/4E3B0E08               |            1312493064

 2017-02-05 23:50:10.19864+01 | 1486335010.19864 | 0/4E3B0E08               |            1312493064

 2017-02-05 23:50:11.29003+01 | 1486335011.29003 | 0/4E3B0E08               |            1312493064

 2017-02-05 23:50:12.380895+01 | 1486335012.38089 | 0/4E3B0E08               |            1312493064

 2017-02-05 23:50:13.477237+01 | 1486335013.47724 | 0/4E3B0E08               |            1312493064

 2017-02-05 23:50:14.582377+01 | 1486335014.58238 | 0/4E3B0E08               |            1312493064

 2017-02-05 23:50:15.669311+01 | 1486335015.66931 | 0/4E3B0E08               |            1312493064

 2017-02-05 23:50:16.751269+01 | 1486335016.75127 | 0/4E3B0E08               |            1312493064

 2017-02-05 23:50:17.843612+01 | 1486335017.84361 | 0/4E3B0E08               |            1312493064

 2017-02-05 23:50:18.93053+01 | 1486335018.93053 | 0/4E3B0E08               |            1312493064

 2017-02-05 23:50:20.013886+01 | 1486335020.01389 | 0/4E3B0E08               |            1312493064

 2017-02-05 23:50:21.104956+01 | 1486335021.10496 | 0/4E3B0E08               |            1312493064

 2017-02-05 23:50:22.197391+01 | 1486335022.19739 | 0/4E3B0E08               |            1312493064

 2017-02-05 23:50:23.287638+01 | 1486335023.28764 | 0/4E3B0E08               |            1312493064

 2017-02-05 23:50:24.375954+01 | 1486335024.37595 | 0/4E3B0E08               |            1312493064

 2017-02-05 23:50:25.461107+01 | 1486335025.46111 | 0/4E3B0E08               |            1312493064

 2017-02-05 23:50:26.560355+01 | 1486335026.56035 | 0/4E3B0E08               |            1312493064

 2017-02-05 23:50:27.647481+01 | 1486335027.64748 | 0/4E3B0E08               |            1312493064

 2017-02-05 23:50:28.740312+01 | 1486335028.74031 | 0/4E3B0E08               |            1312493064

 2017-02-05 23:50:29.826906+01 | 1486335029.82691 | 0/4E3B0E08               |            1312493064

 2017-02-05 23:50:30.912726+01 | 1486335030.91273 | 0/4E3B0E08               |            1312493064

 2017-02-05 23:50:32.006371+01 | 1486335032.00637 | 0/4E3B0E08               |            1312493064

 2017-02-05 23:50:33.100952+01 | 1486335033.10095 | 0/4E3B0E08               |            1312493064

 2017-02-05 23:50:34.196776+01 | 1486335034.19678 | 0/4E3B0E08               |            1312493064

 2017-02-05 23:50:35.291827+01 | 1486335035.29183 | 0/4E3B0E08               |            1312493064

 2017-02-05 23:50:36.390954+01 | 1486335036.39095 | 0/4E3B0E08               |            1312493064

 2017-02-05 23:50:37.482879+01 | 1486335037.48288 | 0/4E3B0E08               |            1312493064

 2017-02-05 23:50:38.579476+01 | 1486335038.57948 | 0/4E3B0E08               |            1312493064

 2017-02-05 23:50:39.679125+01 | 1486335039.67913 | 0/4E3B0E08               |            1312493064

 2017-02-05 23:50:40.763179+01 | 1486335040.76318 | 0/4E3B0E08               |            1312493064

 2017-02-05 23:50:41.849711+01 | 1486335041.84971 | 0/4E3B0E08               |            1312493064

 2017-02-05 23:50:42.938582+01 | 1486335042.93858 | 0/4E3B0E08               |            1312493064

 2017-02-05 23:50:44.025206+01 | 1486335044.02521 | 0/4E3B0E08               |            1312493064

 2017-02-05 23:50:45.113363+01 | 1486335045.11336 | 0/4E3B0E08               |            1312493064

 2017-02-05 23:50:46.197025+01 | 1486335046.19703 | 0/4E3B0E08               |            1312493064

 2017-02-05 23:50:47.288391+01 | 1486335047.28839 | 0/4E3B0E08               |            1312493064

 2017-02-05 23:50:48.380444+01 | 1486335048.38044 | 0/4E3B0E08               |            1312493064

 2017-02-05 23:50:49.459322+01 | 1486335049.45932 | 0/4E3B0E08               |            1312493064

 2017-02-05 23:50:50.567066+01 | 1486335050.56707 | 0/4E3B0E08               |            1312493064

 2017-02-05 23:50:51.669349+01 | 1486335051.66935 | 0/4E3B0E08               |            1312493064

 2017-02-05 23:50:52.758791+01 | 1486335052.75879 | 0/4E3B0E08               |            1312493064

 2017-02-05 23:50:53.841782+01 | 1486335053.84178 | 0/4E3B0E08               |            1312493064

 2017-02-05 23:50:54.929469+01 | 1486335054.92947 | 0/4E3B0E08               |            1312493064

 2017-02-05 23:50:56.018405+01 | 1486335056.0184 | 0/4E3B0E08               |            1312493064

 2017-02-05 23:50:57.111447+01 | 1486335057.11145 | 0/4E3B0E08               |            1312493064

 2017-02-05 23:50:58.199975+01 | 1486335058.19998 | 0/4E3B0E08               |            1312493064

 2017-02-05 23:50:59.291579+01 | 1486335059.29158 | 0/4E3B0E08               |            1312493064

 2017-02-05 23:51:00.386037+01 | 1486335060.38604 | 0/4E3B0E08               |            1312493064

 2017-02-05 23:51:01.481628+01 | 1486335061.48163 | 0/4E3B0E08               |            1312493064

 2017-02-05 23:51:02.583589+01 | 1486335062.58359 | 0/4E3B0E08               |            1312493064

 2017-02-05 23:51:03.681813+01 | 1486335063.68181 | 0/4E3B0E08               |            1312493064

 2017-02-05 23:51:04.765452+01 | 1486335064.76545 | 0/4E3B0E08               |            1312493064

 2017-02-05 23:51:05.856045+01 | 1486335065.85605 | 0/4E3B0E08               |            1312493064

 2017-02-05 23:51:06.94324+01 | 1486335066.94324 | 0/4E3B0E08               |            1312493064

 2017-02-05 23:51:08.029076+01 | 1486335068.02908 | 0/4E3B0E08               |            1312493064

 2017-02-05 23:51:09.124079+01 | 1486335069.12408 | 0/4E3B0E08               |            1312493064

 2017-02-05 23:51:10.219428+01 | 1486335070.21943 | 0/4E3B0E08               |            1312493064

 2017-02-05 23:51:11.306316+01 | 1486335071.30632 | 0/4E3B0E08               |            1312493064

 2017-02-05 23:51:12.40402+01 | 1486335072.40402 | 0/4E3B0E08               |            1312493064

 2017-02-05 23:51:13.490991+01 | 1486335073.49099 | 0/4E3B0E08               |            1312493064

 2017-02-05 23:51:14.592947+01 | 1486335074.59295 | 0/4E3B0E08               |            1312493064

 2017-02-05 23:51:15.68855+01 | 1486335075.68855 | 0/4E3B0E08               |            1312493064

 2017-02-05 23:51:16.783124+01 | 1486335076.78312 | 0/4E3B0E08               |            1312493064

 2017-02-05 23:51:17.865502+01 | 1486335077.8655 | 0/4E3B0E08               |            1312493064

 2017-02-05 23:51:18.942449+01 | 1486335078.94245 | 0/4E3B0E08               |            1312493064

 2017-02-05 23:51:20.031221+01 | 1486335080.03122 | 0/4E3B0E08               |            1312493064

 2017-02-05 23:51:21.119076+01 | 1486335081.11908 | 0/4E3B0E08               |            1312493064

 2017-02-05 23:51:22.205418+01 | 1486335082.20542 | 0/4E3B0E08               |            1312493064

 2017-02-05 23:51:23.302054+01 | 1486335083.30205 | 0/4E3B0E08               |            1312493064

 2017-02-05 23:51:24.38966+01 | 1486335084.38966 | 0/4E3B0E08               |            1312493064

 2017-02-05 23:51:25.471451+01 | 1486335085.47145 | 0/4E3B0E08               |            1312493064

 2017-02-05 23:51:26.566988+01 | 1486335086.56699 | 0/4E3B0E08               |            1312493064

 2017-02-05 23:51:27.660131+01 | 1486335087.66013 | 0/4E3B0E08               |            1312493064

 2017-02-05 23:51:28.743668+01 | 1486335088.74367 | 0/4E3B0E08               |            1312493064

 2017-02-05 23:51:29.819429+01 | 1486335089.81943 | 0/4E3B0E08               |            1312493064

 2017-02-05 23:51:30.907309+01 | 1486335090.90731 | 0/4E3B0E08               |            1312493064

 2017-02-05 23:51:32.000653+01 | 1486335092.00065 | 0/4E3B0E08               |            1312493064

 2017-02-05 23:51:33.095879+01 | 1486335093.09588 | 0/4E3B0E08               |            1312493064

 2017-02-05 23:51:34.179625+01 | 1486335094.17963 | 0/4E3B0E08               |            1312493064

 2017-02-05 23:51:35.277173+01 | 1486335095.27717 | 0/4E3B0E08               |            1312493064

 2017-02-05 23:51:36.371597+01 | 1486335096.3716 | 0/4E3B0E08               |            1312493064

 2017-02-05 23:51:37.46762+01 | 1486335097.46762 | 0/4E3B0E08               |            1312493064

 2017-02-05 23:51:38.554516+01 | 1486335098.55452 | 0/4E3B0E08               |            1312493064

 2017-02-05 23:51:39.655994+01 | 1486335099.65599 | 0/4E3B0E08               |            1312493064

 2017-02-05 23:51:40.76869+01 | 1486335100.76869 | 0/4E3B0E08               |            1312493064

 2017-02-05 23:51:41.860477+01 | 1486335101.86048 | 0/4E3B0E08               |            1312493064

