 2017-02-06 05:57:20.07935+01 | 1486357040.07935 | pgbench_branches_pkey |            16384
 2017-02-06 05:57:20.07935+01 | 1486357040.07935 | pgbench_tellers_pkey  |            40960
 2017-02-06 05:57:20.07935+01 | 1486357040.07935 | pgbench_accounts_pkey |        224641024

 2017-02-06 05:57:21.154078+01 | 1486357041.15408 | pgbench_branches_pkey |            16384
 2017-02-06 05:57:21.154078+01 | 1486357041.15408 | pgbench_tellers_pkey  |            40960
 2017-02-06 05:57:21.154078+01 | 1486357041.15408 | pgbench_accounts_pkey |        224641024

 2017-02-06 05:57:22.228458+01 | 1486357042.22846 | pgbench_branches_pkey |            16384
 2017-02-06 05:57:22.228458+01 | 1486357042.22846 | pgbench_tellers_pkey  |            40960
 2017-02-06 05:57:22.228458+01 | 1486357042.22846 | pgbench_accounts_pkey |        224641024

 2017-02-06 05:57:23.308261+01 | 1486357043.30826 | pgbench_branches_pkey |            16384
 2017-02-06 05:57:23.308261+01 | 1486357043.30826 | pgbench_tellers_pkey  |            40960
 2017-02-06 05:57:23.308261+01 | 1486357043.30826 | pgbench_accounts_pkey |        224641024

 2017-02-06 05:57:24.382106+01 | 1486357044.38211 | pgbench_branches_pkey |            16384
 2017-02-06 05:57:24.382106+01 | 1486357044.38211 | pgbench_tellers_pkey  |            40960
 2017-02-06 05:57:24.382106+01 | 1486357044.38211 | pgbench_accounts_pkey |        224641024

 2017-02-06 05:57:25.435595+01 | 1486357045.4356 | pgbench_branches_pkey |            16384
 2017-02-06 05:57:25.435595+01 | 1486357045.4356 | pgbench_tellers_pkey  |            40960
 2017-02-06 05:57:25.435595+01 | 1486357045.4356 | pgbench_accounts_pkey |        224641024

 2017-02-06 05:57:26.516937+01 | 1486357046.51694 | pgbench_branches_pkey |            16384
 2017-02-06 05:57:26.516937+01 | 1486357046.51694 | pgbench_tellers_pkey  |            40960
 2017-02-06 05:57:26.516937+01 | 1486357046.51694 | pgbench_accounts_pkey |        224641024

 2017-02-06 05:57:27.597069+01 | 1486357047.59707 | pgbench_branches_pkey |            16384
 2017-02-06 05:57:27.597069+01 | 1486357047.59707 | pgbench_tellers_pkey  |            40960
 2017-02-06 05:57:27.597069+01 | 1486357047.59707 | pgbench_accounts_pkey |        224641024

 2017-02-06 05:57:28.685071+01 | 1486357048.68507 | pgbench_branches_pkey |            16384
 2017-02-06 05:57:28.685071+01 | 1486357048.68507 | pgbench_tellers_pkey  |            40960
 2017-02-06 05:57:28.685071+01 | 1486357048.68507 | pgbench_accounts_pkey |        224641024

 2017-02-06 05:57:29.765308+01 | 1486357049.76531 | pgbench_branches_pkey |            16384
 2017-02-06 05:57:29.765308+01 | 1486357049.76531 | pgbench_tellers_pkey  |            40960
 2017-02-06 05:57:29.765308+01 | 1486357049.76531 | pgbench_accounts_pkey |        224641024

 2017-02-06 05:57:30.848125+01 | 1486357050.84812 | pgbench_branches_pkey |            16384
 2017-02-06 05:57:30.848125+01 | 1486357050.84812 | pgbench_tellers_pkey  |            40960
 2017-02-06 05:57:30.848125+01 | 1486357050.84812 | pgbench_accounts_pkey |        224641024

 2017-02-06 05:57:31.928564+01 | 1486357051.92856 | pgbench_branches_pkey |            16384
 2017-02-06 05:57:31.928564+01 | 1486357051.92856 | pgbench_tellers_pkey  |            40960
 2017-02-06 05:57:31.928564+01 | 1486357051.92856 | pgbench_accounts_pkey |        224641024

 2017-02-06 05:57:33.008739+01 | 1486357053.00874 | pgbench_branches_pkey |            16384
 2017-02-06 05:57:33.008739+01 | 1486357053.00874 | pgbench_tellers_pkey  |            40960
 2017-02-06 05:57:33.008739+01 | 1486357053.00874 | pgbench_accounts_pkey |        224641024

 2017-02-06 05:57:34.095299+01 | 1486357054.0953 | pgbench_branches_pkey |            16384
 2017-02-06 05:57:34.095299+01 | 1486357054.0953 | pgbench_tellers_pkey  |            40960
 2017-02-06 05:57:34.095299+01 | 1486357054.0953 | pgbench_accounts_pkey |        224641024

 2017-02-06 05:57:35.177776+01 | 1486357055.17778 | pgbench_branches_pkey |            16384
 2017-02-06 05:57:35.177776+01 | 1486357055.17778 | pgbench_tellers_pkey  |            40960
 2017-02-06 05:57:35.177776+01 | 1486357055.17778 | pgbench_accounts_pkey |        224641024

 2017-02-06 05:57:36.267282+01 | 1486357056.26728 | pgbench_branches_pkey |            16384
 2017-02-06 05:57:36.267282+01 | 1486357056.26728 | pgbench_tellers_pkey  |            40960
 2017-02-06 05:57:36.267282+01 | 1486357056.26728 | pgbench_accounts_pkey |        224641024

 2017-02-06 05:57:37.353388+01 | 1486357057.35339 | pgbench_branches_pkey |            16384
 2017-02-06 05:57:37.353388+01 | 1486357057.35339 | pgbench_tellers_pkey  |            40960
 2017-02-06 05:57:37.353388+01 | 1486357057.35339 | pgbench_accounts_pkey |        224641024

 2017-02-06 05:57:38.429218+01 | 1486357058.42922 | pgbench_branches_pkey |            16384
 2017-02-06 05:57:38.429218+01 | 1486357058.42922 | pgbench_tellers_pkey  |            40960
 2017-02-06 05:57:38.429218+01 | 1486357058.42922 | pgbench_accounts_pkey |        224641024

 2017-02-06 05:57:39.502394+01 | 1486357059.50239 | pgbench_branches_pkey |            16384
 2017-02-06 05:57:39.502394+01 | 1486357059.50239 | pgbench_tellers_pkey  |            40960
 2017-02-06 05:57:39.502394+01 | 1486357059.50239 | pgbench_accounts_pkey |        224641024

 2017-02-06 05:57:40.579401+01 | 1486357060.5794 | pgbench_branches_pkey |            16384
 2017-02-06 05:57:40.579401+01 | 1486357060.5794 | pgbench_tellers_pkey  |            40960
 2017-02-06 05:57:40.579401+01 | 1486357060.5794 | pgbench_accounts_pkey |        224641024

 2017-02-06 05:57:41.664079+01 | 1486357061.66408 | pgbench_branches_pkey |            16384
 2017-02-06 05:57:41.664079+01 | 1486357061.66408 | pgbench_tellers_pkey  |            40960
 2017-02-06 05:57:41.664079+01 | 1486357061.66408 | pgbench_accounts_pkey |        224641024

 2017-02-06 05:57:42.735511+01 | 1486357062.73551 | pgbench_branches_pkey |            16384
 2017-02-06 05:57:42.735511+01 | 1486357062.73551 | pgbench_tellers_pkey  |            40960
 2017-02-06 05:57:42.735511+01 | 1486357062.73551 | pgbench_accounts_pkey |        224641024

 2017-02-06 05:57:43.807514+01 | 1486357063.80751 | pgbench_branches_pkey |            16384
 2017-02-06 05:57:43.807514+01 | 1486357063.80751 | pgbench_tellers_pkey  |            40960
 2017-02-06 05:57:43.807514+01 | 1486357063.80751 | pgbench_accounts_pkey |        224641024

 2017-02-06 05:57:44.888987+01 | 1486357064.88899 | pgbench_branches_pkey |            16384
 2017-02-06 05:57:44.888987+01 | 1486357064.88899 | pgbench_tellers_pkey  |            40960
 2017-02-06 05:57:44.888987+01 | 1486357064.88899 | pgbench_accounts_pkey |        224641024

 2017-02-06 05:57:45.97117+01 | 1486357065.97117 | pgbench_branches_pkey |            16384
 2017-02-06 05:57:45.97117+01 | 1486357065.97117 | pgbench_tellers_pkey  |            40960
 2017-02-06 05:57:45.97117+01 | 1486357065.97117 | pgbench_accounts_pkey |        224641024

 2017-02-06 05:57:47.046257+01 | 1486357067.04626 | pgbench_branches_pkey |            16384
 2017-02-06 05:57:47.046257+01 | 1486357067.04626 | pgbench_tellers_pkey  |            40960
 2017-02-06 05:57:47.046257+01 | 1486357067.04626 | pgbench_accounts_pkey |        224641024

 2017-02-06 05:57:48.119317+01 | 1486357068.11932 | pgbench_branches_pkey |            16384
 2017-02-06 05:57:48.119317+01 | 1486357068.11932 | pgbench_tellers_pkey  |            40960
 2017-02-06 05:57:48.119317+01 | 1486357068.11932 | pgbench_accounts_pkey |        224641024

 2017-02-06 05:57:49.202137+01 | 1486357069.20214 | pgbench_branches_pkey |            16384
 2017-02-06 05:57:49.202137+01 | 1486357069.20214 | pgbench_tellers_pkey  |            40960
 2017-02-06 05:57:49.202137+01 | 1486357069.20214 | pgbench_accounts_pkey |        224641024

 2017-02-06 05:57:50.280886+01 | 1486357070.28089 | pgbench_branches_pkey |            16384
 2017-02-06 05:57:50.280886+01 | 1486357070.28089 | pgbench_tellers_pkey  |            40960
 2017-02-06 05:57:50.280886+01 | 1486357070.28089 | pgbench_accounts_pkey |        224641024

 2017-02-06 05:57:51.363657+01 | 1486357071.36366 | pgbench_branches_pkey |            16384
 2017-02-06 05:57:51.363657+01 | 1486357071.36366 | pgbench_tellers_pkey  |            40960
 2017-02-06 05:57:51.363657+01 | 1486357071.36366 | pgbench_accounts_pkey |        224641024

 2017-02-06 05:57:52.449639+01 | 1486357072.44964 | pgbench_branches_pkey |            16384
 2017-02-06 05:57:52.449639+01 | 1486357072.44964 | pgbench_tellers_pkey  |            40960
 2017-02-06 05:57:52.449639+01 | 1486357072.44964 | pgbench_accounts_pkey |        224641024

 2017-02-06 05:57:53.530318+01 | 1486357073.53032 | pgbench_branches_pkey |            16384
 2017-02-06 05:57:53.530318+01 | 1486357073.53032 | pgbench_tellers_pkey  |            40960
 2017-02-06 05:57:53.530318+01 | 1486357073.53032 | pgbench_accounts_pkey |        224641024

 2017-02-06 05:57:54.612693+01 | 1486357074.61269 | pgbench_branches_pkey |            16384
 2017-02-06 05:57:54.612693+01 | 1486357074.61269 | pgbench_tellers_pkey  |            40960
 2017-02-06 05:57:54.612693+01 | 1486357074.61269 | pgbench_accounts_pkey |        224641024

 2017-02-06 05:57:55.697769+01 | 1486357075.69777 | pgbench_branches_pkey |            16384
 2017-02-06 05:57:55.697769+01 | 1486357075.69777 | pgbench_tellers_pkey  |            40960
 2017-02-06 05:57:55.697769+01 | 1486357075.69777 | pgbench_accounts_pkey |        224641024

 2017-02-06 05:57:56.78335+01 | 1486357076.78335 | pgbench_branches_pkey |            16384
 2017-02-06 05:57:56.78335+01 | 1486357076.78335 | pgbench_tellers_pkey  |            40960
 2017-02-06 05:57:56.78335+01 | 1486357076.78335 | pgbench_accounts_pkey |        224641024

 2017-02-06 05:57:57.858146+01 | 1486357077.85815 | pgbench_branches_pkey |            16384
 2017-02-06 05:57:57.858146+01 | 1486357077.85815 | pgbench_tellers_pkey  |            40960
 2017-02-06 05:57:57.858146+01 | 1486357077.85815 | pgbench_accounts_pkey |        224641024

 2017-02-06 05:57:58.936073+01 | 1486357078.93607 | pgbench_branches_pkey |            16384
 2017-02-06 05:57:58.936073+01 | 1486357078.93607 | pgbench_tellers_pkey  |            40960
 2017-02-06 05:57:58.936073+01 | 1486357078.93607 | pgbench_accounts_pkey |        224641024

 2017-02-06 05:58:00.017341+01 | 1486357080.01734 | pgbench_branches_pkey |            16384
 2017-02-06 05:58:00.017341+01 | 1486357080.01734 | pgbench_tellers_pkey  |            40960
 2017-02-06 05:58:00.017341+01 | 1486357080.01734 | pgbench_accounts_pkey |        224641024

 2017-02-06 05:58:01.098827+01 | 1486357081.09883 | pgbench_branches_pkey |            16384
 2017-02-06 05:58:01.098827+01 | 1486357081.09883 | pgbench_tellers_pkey  |            40960
 2017-02-06 05:58:01.098827+01 | 1486357081.09883 | pgbench_accounts_pkey |        224641024

 2017-02-06 05:58:02.178181+01 | 1486357082.17818 | pgbench_branches_pkey |            16384
 2017-02-06 05:58:02.178181+01 | 1486357082.17818 | pgbench_tellers_pkey  |            40960
 2017-02-06 05:58:02.178181+01 | 1486357082.17818 | pgbench_accounts_pkey |        224641024

 2017-02-06 05:58:03.261444+01 | 1486357083.26144 | pgbench_branches_pkey |            16384
 2017-02-06 05:58:03.261444+01 | 1486357083.26144 | pgbench_tellers_pkey  |            40960
 2017-02-06 05:58:03.261444+01 | 1486357083.26144 | pgbench_accounts_pkey |        224641024

 2017-02-06 05:58:04.338849+01 | 1486357084.33885 | pgbench_branches_pkey |            16384
 2017-02-06 05:58:04.338849+01 | 1486357084.33885 | pgbench_tellers_pkey  |            40960
 2017-02-06 05:58:04.338849+01 | 1486357084.33885 | pgbench_accounts_pkey |        224641024

 2017-02-06 05:58:05.418194+01 | 1486357085.41819 | pgbench_branches_pkey |            16384
 2017-02-06 05:58:05.418194+01 | 1486357085.41819 | pgbench_tellers_pkey  |            40960
 2017-02-06 05:58:05.418194+01 | 1486357085.41819 | pgbench_accounts_pkey |        224641024

 2017-02-06 05:58:06.48983+01 | 1486357086.48983 | pgbench_branches_pkey |            16384
 2017-02-06 05:58:06.48983+01 | 1486357086.48983 | pgbench_tellers_pkey  |            40960
 2017-02-06 05:58:06.48983+01 | 1486357086.48983 | pgbench_accounts_pkey |        224641024

 2017-02-06 05:58:07.565351+01 | 1486357087.56535 | pgbench_branches_pkey |            16384
 2017-02-06 05:58:07.565351+01 | 1486357087.56535 | pgbench_tellers_pkey  |            40960
 2017-02-06 05:58:07.565351+01 | 1486357087.56535 | pgbench_accounts_pkey |        224641024

 2017-02-06 05:58:08.642344+01 | 1486357088.64234 | pgbench_branches_pkey |            16384
 2017-02-06 05:58:08.642344+01 | 1486357088.64234 | pgbench_tellers_pkey  |            40960
 2017-02-06 05:58:08.642344+01 | 1486357088.64234 | pgbench_accounts_pkey |        224641024

 2017-02-06 05:58:09.718334+01 | 1486357089.71833 | pgbench_branches_pkey |            16384
 2017-02-06 05:58:09.718334+01 | 1486357089.71833 | pgbench_tellers_pkey  |            40960
 2017-02-06 05:58:09.718334+01 | 1486357089.71833 | pgbench_accounts_pkey |        224641024

 2017-02-06 05:58:10.790111+01 | 1486357090.79011 | pgbench_branches_pkey |            16384
 2017-02-06 05:58:10.790111+01 | 1486357090.79011 | pgbench_tellers_pkey  |            40960
 2017-02-06 05:58:10.790111+01 | 1486357090.79011 | pgbench_accounts_pkey |        224641024

 2017-02-06 05:58:11.865941+01 | 1486357091.86594 | pgbench_branches_pkey |            16384
 2017-02-06 05:58:11.865941+01 | 1486357091.86594 | pgbench_tellers_pkey  |            40960
 2017-02-06 05:58:11.865941+01 | 1486357091.86594 | pgbench_accounts_pkey |        224641024

 2017-02-06 05:58:12.947248+01 | 1486357092.94725 | pgbench_branches_pkey |            16384
 2017-02-06 05:58:12.947248+01 | 1486357092.94725 | pgbench_tellers_pkey  |            40960
 2017-02-06 05:58:12.947248+01 | 1486357092.94725 | pgbench_accounts_pkey |        224641024

 2017-02-06 05:58:14.030134+01 | 1486357094.03013 | pgbench_branches_pkey |            16384
 2017-02-06 05:58:14.030134+01 | 1486357094.03013 | pgbench_tellers_pkey  |            40960
 2017-02-06 05:58:14.030134+01 | 1486357094.03013 | pgbench_accounts_pkey |        224641024

 2017-02-06 05:58:15.106964+01 | 1486357095.10696 | pgbench_branches_pkey |            16384
 2017-02-06 05:58:15.106964+01 | 1486357095.10696 | pgbench_tellers_pkey  |            40960
 2017-02-06 05:58:15.106964+01 | 1486357095.10696 | pgbench_accounts_pkey |        224641024

 2017-02-06 05:58:16.181104+01 | 1486357096.1811 | pgbench_branches_pkey |            16384
 2017-02-06 05:58:16.181104+01 | 1486357096.1811 | pgbench_tellers_pkey  |            40960
 2017-02-06 05:58:16.181104+01 | 1486357096.1811 | pgbench_accounts_pkey |        224641024

 2017-02-06 05:58:17.263801+01 | 1486357097.2638 | pgbench_branches_pkey |            16384
 2017-02-06 05:58:17.263801+01 | 1486357097.2638 | pgbench_tellers_pkey  |            40960
 2017-02-06 05:58:17.263801+01 | 1486357097.2638 | pgbench_accounts_pkey |        224641024

 2017-02-06 05:58:18.348961+01 | 1486357098.34896 | pgbench_branches_pkey |            16384
 2017-02-06 05:58:18.348961+01 | 1486357098.34896 | pgbench_tellers_pkey  |            40960
 2017-02-06 05:58:18.348961+01 | 1486357098.34896 | pgbench_accounts_pkey |        224641024

 2017-02-06 05:58:19.431638+01 | 1486357099.43164 | pgbench_branches_pkey |            16384
 2017-02-06 05:58:19.431638+01 | 1486357099.43164 | pgbench_tellers_pkey  |            40960
 2017-02-06 05:58:19.431638+01 | 1486357099.43164 | pgbench_accounts_pkey |        224641024

 2017-02-06 05:58:20.501316+01 | 1486357100.50132 | pgbench_branches_pkey |            16384
 2017-02-06 05:58:20.501316+01 | 1486357100.50132 | pgbench_tellers_pkey  |            40960
 2017-02-06 05:58:20.501316+01 | 1486357100.50132 | pgbench_accounts_pkey |        224641024

 2017-02-06 05:58:21.580391+01 | 1486357101.58039 | pgbench_branches_pkey |            16384
 2017-02-06 05:58:21.580391+01 | 1486357101.58039 | pgbench_tellers_pkey  |            40960
 2017-02-06 05:58:21.580391+01 | 1486357101.58039 | pgbench_accounts_pkey |        224641024

 2017-02-06 05:58:22.659882+01 | 1486357102.65988 | pgbench_branches_pkey |            16384
 2017-02-06 05:58:22.659882+01 | 1486357102.65988 | pgbench_tellers_pkey  |            40960
 2017-02-06 05:58:22.659882+01 | 1486357102.65988 | pgbench_accounts_pkey |        224641024

 2017-02-06 05:58:23.741179+01 | 1486357103.74118 | pgbench_branches_pkey |            16384
 2017-02-06 05:58:23.741179+01 | 1486357103.74118 | pgbench_tellers_pkey  |            40960
 2017-02-06 05:58:23.741179+01 | 1486357103.74118 | pgbench_accounts_pkey |        224641024

 2017-02-06 05:58:24.82747+01 | 1486357104.82747 | pgbench_branches_pkey |            16384
 2017-02-06 05:58:24.82747+01 | 1486357104.82747 | pgbench_tellers_pkey  |            40960
 2017-02-06 05:58:24.82747+01 | 1486357104.82747 | pgbench_accounts_pkey |        224641024

 2017-02-06 05:58:25.900612+01 | 1486357105.90061 | pgbench_branches_pkey |            16384
 2017-02-06 05:58:25.900612+01 | 1486357105.90061 | pgbench_tellers_pkey  |            40960
 2017-02-06 05:58:25.900612+01 | 1486357105.90061 | pgbench_accounts_pkey |        224641024

 2017-02-06 05:58:26.97563+01 | 1486357106.97563 | pgbench_branches_pkey |            16384
 2017-02-06 05:58:26.97563+01 | 1486357106.97563 | pgbench_tellers_pkey  |            40960
 2017-02-06 05:58:26.97563+01 | 1486357106.97563 | pgbench_accounts_pkey |        224641024

 2017-02-06 05:58:28.050062+01 | 1486357108.05006 | pgbench_branches_pkey |            16384
 2017-02-06 05:58:28.050062+01 | 1486357108.05006 | pgbench_tellers_pkey  |            40960
 2017-02-06 05:58:28.050062+01 | 1486357108.05006 | pgbench_accounts_pkey |        224641024

 2017-02-06 05:58:29.137618+01 | 1486357109.13762 | pgbench_branches_pkey |            16384
 2017-02-06 05:58:29.137618+01 | 1486357109.13762 | pgbench_tellers_pkey  |            40960
 2017-02-06 05:58:29.137618+01 | 1486357109.13762 | pgbench_accounts_pkey |        224641024

 2017-02-06 05:58:30.221084+01 | 1486357110.22108 | pgbench_branches_pkey |            16384
 2017-02-06 05:58:30.221084+01 | 1486357110.22108 | pgbench_tellers_pkey  |            40960
 2017-02-06 05:58:30.221084+01 | 1486357110.22108 | pgbench_accounts_pkey |        224641024

 2017-02-06 05:58:31.288992+01 | 1486357111.28899 | pgbench_branches_pkey |            16384
 2017-02-06 05:58:31.288992+01 | 1486357111.28899 | pgbench_tellers_pkey  |            40960
 2017-02-06 05:58:31.288992+01 | 1486357111.28899 | pgbench_accounts_pkey |        224641024

 2017-02-06 05:58:32.36143+01 | 1486357112.36143 | pgbench_branches_pkey |            16384
 2017-02-06 05:58:32.36143+01 | 1486357112.36143 | pgbench_tellers_pkey  |            40960
 2017-02-06 05:58:32.36143+01 | 1486357112.36143 | pgbench_accounts_pkey |        224641024

 2017-02-06 05:58:33.444673+01 | 1486357113.44467 | pgbench_branches_pkey |            16384
 2017-02-06 05:58:33.444673+01 | 1486357113.44467 | pgbench_tellers_pkey  |            40960
 2017-02-06 05:58:33.444673+01 | 1486357113.44467 | pgbench_accounts_pkey |        224641024

 2017-02-06 05:58:34.521773+01 | 1486357114.52177 | pgbench_branches_pkey |            16384
 2017-02-06 05:58:34.521773+01 | 1486357114.52177 | pgbench_tellers_pkey  |            40960
 2017-02-06 05:58:34.521773+01 | 1486357114.52177 | pgbench_accounts_pkey |        224641024

 2017-02-06 05:58:35.607382+01 | 1486357115.60738 | pgbench_branches_pkey |            16384
 2017-02-06 05:58:35.607382+01 | 1486357115.60738 | pgbench_tellers_pkey  |            40960
 2017-02-06 05:58:35.607382+01 | 1486357115.60738 | pgbench_accounts_pkey |        224641024

 2017-02-06 05:58:36.679314+01 | 1486357116.67931 | pgbench_branches_pkey |            16384
 2017-02-06 05:58:36.679314+01 | 1486357116.67931 | pgbench_tellers_pkey  |            40960
 2017-02-06 05:58:36.679314+01 | 1486357116.67931 | pgbench_accounts_pkey |        224641024

 2017-02-06 05:58:37.758917+01 | 1486357117.75892 | pgbench_branches_pkey |            16384
 2017-02-06 05:58:37.758917+01 | 1486357117.75892 | pgbench_tellers_pkey  |            40960
 2017-02-06 05:58:37.758917+01 | 1486357117.75892 | pgbench_accounts_pkey |        224641024

 2017-02-06 05:58:38.841609+01 | 1486357118.84161 | pgbench_branches_pkey |            16384
 2017-02-06 05:58:38.841609+01 | 1486357118.84161 | pgbench_tellers_pkey  |            40960
 2017-02-06 05:58:38.841609+01 | 1486357118.84161 | pgbench_accounts_pkey |        224641024

 2017-02-06 05:58:39.928176+01 | 1486357119.92818 | pgbench_branches_pkey |            16384
 2017-02-06 05:58:39.928176+01 | 1486357119.92818 | pgbench_tellers_pkey  |            40960
 2017-02-06 05:58:39.928176+01 | 1486357119.92818 | pgbench_accounts_pkey |        224641024

 2017-02-06 05:58:40.998908+01 | 1486357120.99891 | pgbench_branches_pkey |            16384
 2017-02-06 05:58:40.998908+01 | 1486357120.99891 | pgbench_tellers_pkey  |            40960
 2017-02-06 05:58:40.998908+01 | 1486357120.99891 | pgbench_accounts_pkey |        224641024

 2017-02-06 05:58:42.080035+01 | 1486357122.08003 | pgbench_branches_pkey |            16384
 2017-02-06 05:58:42.080035+01 | 1486357122.08003 | pgbench_tellers_pkey  |            40960
 2017-02-06 05:58:42.080035+01 | 1486357122.08003 | pgbench_accounts_pkey |        224641024

 2017-02-06 05:58:43.166686+01 | 1486357123.16669 | pgbench_branches_pkey |            16384
 2017-02-06 05:58:43.166686+01 | 1486357123.16669 | pgbench_tellers_pkey  |            40960
 2017-02-06 05:58:43.166686+01 | 1486357123.16669 | pgbench_accounts_pkey |        224641024

 2017-02-06 05:58:44.242466+01 | 1486357124.24247 | pgbench_branches_pkey |            16384
 2017-02-06 05:58:44.242466+01 | 1486357124.24247 | pgbench_tellers_pkey  |            40960
 2017-02-06 05:58:44.242466+01 | 1486357124.24247 | pgbench_accounts_pkey |        224641024

 2017-02-06 05:58:45.32269+01 | 1486357125.32269 | pgbench_branches_pkey |            16384
 2017-02-06 05:58:45.32269+01 | 1486357125.32269 | pgbench_tellers_pkey  |            40960
 2017-02-06 05:58:45.32269+01 | 1486357125.32269 | pgbench_accounts_pkey |        224641024

 2017-02-06 05:58:46.408377+01 | 1486357126.40838 | pgbench_branches_pkey |            16384
 2017-02-06 05:58:46.408377+01 | 1486357126.40838 | pgbench_tellers_pkey  |            40960
 2017-02-06 05:58:46.408377+01 | 1486357126.40838 | pgbench_accounts_pkey |        224641024

 2017-02-06 05:58:47.487305+01 | 1486357127.4873 | pgbench_branches_pkey |            16384
 2017-02-06 05:58:47.487305+01 | 1486357127.4873 | pgbench_tellers_pkey  |            40960
 2017-02-06 05:58:47.487305+01 | 1486357127.4873 | pgbench_accounts_pkey |        224641024

 2017-02-06 05:58:48.55432+01 | 1486357128.55432 | pgbench_branches_pkey |            16384
 2017-02-06 05:58:48.55432+01 | 1486357128.55432 | pgbench_tellers_pkey  |            40960
 2017-02-06 05:58:48.55432+01 | 1486357128.55432 | pgbench_accounts_pkey |        224641024

 2017-02-06 05:58:49.631445+01 | 1486357129.63144 | pgbench_branches_pkey |            16384
 2017-02-06 05:58:49.631445+01 | 1486357129.63144 | pgbench_tellers_pkey  |            40960
 2017-02-06 05:58:49.631445+01 | 1486357129.63144 | pgbench_accounts_pkey |        224641024

 2017-02-06 05:58:50.713906+01 | 1486357130.71391 | pgbench_branches_pkey |            16384
 2017-02-06 05:58:50.713906+01 | 1486357130.71391 | pgbench_tellers_pkey  |            40960
 2017-02-06 05:58:50.713906+01 | 1486357130.71391 | pgbench_accounts_pkey |        224641024

 2017-02-06 05:58:51.78833+01 | 1486357131.78833 | pgbench_branches_pkey |            16384
 2017-02-06 05:58:51.78833+01 | 1486357131.78833 | pgbench_tellers_pkey  |            40960
 2017-02-06 05:58:51.78833+01 | 1486357131.78833 | pgbench_accounts_pkey |        224641024

 2017-02-06 05:58:52.870774+01 | 1486357132.87077 | pgbench_branches_pkey |            16384
 2017-02-06 05:58:52.870774+01 | 1486357132.87077 | pgbench_tellers_pkey  |            40960
 2017-02-06 05:58:52.870774+01 | 1486357132.87077 | pgbench_accounts_pkey |        224641024

 2017-02-06 05:58:53.955256+01 | 1486357133.95526 | pgbench_branches_pkey |            16384
 2017-02-06 05:58:53.955256+01 | 1486357133.95526 | pgbench_tellers_pkey  |            40960
 2017-02-06 05:58:53.955256+01 | 1486357133.95526 | pgbench_accounts_pkey |        224641024

 2017-02-06 05:58:55.031508+01 | 1486357135.03151 | pgbench_branches_pkey |            16384
 2017-02-06 05:58:55.031508+01 | 1486357135.03151 | pgbench_tellers_pkey  |            40960
 2017-02-06 05:58:55.031508+01 | 1486357135.03151 | pgbench_accounts_pkey |        224641024

 2017-02-06 05:58:56.113709+01 | 1486357136.11371 | pgbench_branches_pkey |            16384
 2017-02-06 05:58:56.113709+01 | 1486357136.11371 | pgbench_tellers_pkey  |            40960
 2017-02-06 05:58:56.113709+01 | 1486357136.11371 | pgbench_accounts_pkey |        224641024

 2017-02-06 05:58:57.194079+01 | 1486357137.19408 | pgbench_branches_pkey |            16384
 2017-02-06 05:58:57.194079+01 | 1486357137.19408 | pgbench_tellers_pkey  |            40960
 2017-02-06 05:58:57.194079+01 | 1486357137.19408 | pgbench_accounts_pkey |        224641024

 2017-02-06 05:58:58.269738+01 | 1486357138.26974 | pgbench_branches_pkey |            16384
 2017-02-06 05:58:58.269738+01 | 1486357138.26974 | pgbench_tellers_pkey  |            40960
 2017-02-06 05:58:58.269738+01 | 1486357138.26974 | pgbench_accounts_pkey |        224641024

 2017-02-06 05:58:59.345286+01 | 1486357139.34529 | pgbench_branches_pkey |            16384
 2017-02-06 05:58:59.345286+01 | 1486357139.34529 | pgbench_tellers_pkey  |            40960
 2017-02-06 05:58:59.345286+01 | 1486357139.34529 | pgbench_accounts_pkey |        224641024

 2017-02-06 05:59:00.419802+01 | 1486357140.4198 | pgbench_branches_pkey |            16384
 2017-02-06 05:59:00.419802+01 | 1486357140.4198 | pgbench_tellers_pkey  |            40960
 2017-02-06 05:59:00.419802+01 | 1486357140.4198 | pgbench_accounts_pkey |        224641024

 2017-02-06 05:59:01.490582+01 | 1486357141.49058 | pgbench_branches_pkey |            16384
 2017-02-06 05:59:01.490582+01 | 1486357141.49058 | pgbench_tellers_pkey  |            40960
 2017-02-06 05:59:01.490582+01 | 1486357141.49058 | pgbench_accounts_pkey |        224641024

 2017-02-06 05:59:02.578531+01 | 1486357142.57853 | pgbench_branches_pkey |            16384
 2017-02-06 05:59:02.578531+01 | 1486357142.57853 | pgbench_tellers_pkey  |            40960
 2017-02-06 05:59:02.578531+01 | 1486357142.57853 | pgbench_accounts_pkey |        224641024

 2017-02-06 05:59:03.653742+01 | 1486357143.65374 | pgbench_branches_pkey |            16384
 2017-02-06 05:59:03.653742+01 | 1486357143.65374 | pgbench_tellers_pkey  |            40960
 2017-02-06 05:59:03.653742+01 | 1486357143.65374 | pgbench_accounts_pkey |        224641024

 2017-02-06 05:59:04.728993+01 | 1486357144.72899 | pgbench_branches_pkey |            16384
 2017-02-06 05:59:04.728993+01 | 1486357144.72899 | pgbench_tellers_pkey  |            40960
 2017-02-06 05:59:04.728993+01 | 1486357144.72899 | pgbench_accounts_pkey |        224641024

 2017-02-06 05:59:05.810476+01 | 1486357145.81048 | pgbench_branches_pkey |            16384
 2017-02-06 05:59:05.810476+01 | 1486357145.81048 | pgbench_tellers_pkey  |            40960
 2017-02-06 05:59:05.810476+01 | 1486357145.81048 | pgbench_accounts_pkey |        224641024

 2017-02-06 05:59:06.895527+01 | 1486357146.89553 | pgbench_branches_pkey |            16384
 2017-02-06 05:59:06.895527+01 | 1486357146.89553 | pgbench_tellers_pkey  |            40960
 2017-02-06 05:59:06.895527+01 | 1486357146.89553 | pgbench_accounts_pkey |        224641024

 2017-02-06 05:59:07.979449+01 | 1486357147.97945 | pgbench_branches_pkey |            16384
 2017-02-06 05:59:07.979449+01 | 1486357147.97945 | pgbench_tellers_pkey  |            40960
 2017-02-06 05:59:07.979449+01 | 1486357147.97945 | pgbench_accounts_pkey |        224641024

 2017-02-06 05:59:09.061838+01 | 1486357149.06184 | pgbench_branches_pkey |            16384
 2017-02-06 05:59:09.061838+01 | 1486357149.06184 | pgbench_tellers_pkey  |            40960
 2017-02-06 05:59:09.061838+01 | 1486357149.06184 | pgbench_accounts_pkey |        224641024

 2017-02-06 05:59:10.140816+01 | 1486357150.14082 | pgbench_branches_pkey |            16384
 2017-02-06 05:59:10.140816+01 | 1486357150.14082 | pgbench_tellers_pkey  |            40960
 2017-02-06 05:59:10.140816+01 | 1486357150.14082 | pgbench_accounts_pkey |        224641024

 2017-02-06 05:59:11.217547+01 | 1486357151.21755 | pgbench_branches_pkey |            16384
 2017-02-06 05:59:11.217547+01 | 1486357151.21755 | pgbench_tellers_pkey  |            40960
 2017-02-06 05:59:11.217547+01 | 1486357151.21755 | pgbench_accounts_pkey |        224641024

 2017-02-06 05:59:12.285572+01 | 1486357152.28557 | pgbench_branches_pkey |            16384
 2017-02-06 05:59:12.285572+01 | 1486357152.28557 | pgbench_tellers_pkey  |            40960
 2017-02-06 05:59:12.285572+01 | 1486357152.28557 | pgbench_accounts_pkey |        224641024

 2017-02-06 05:59:13.354751+01 | 1486357153.35475 | pgbench_branches_pkey |            16384
 2017-02-06 05:59:13.354751+01 | 1486357153.35475 | pgbench_tellers_pkey  |            40960
 2017-02-06 05:59:13.354751+01 | 1486357153.35475 | pgbench_accounts_pkey |        224641024

 2017-02-06 05:59:14.430068+01 | 1486357154.43007 | pgbench_branches_pkey |            16384
 2017-02-06 05:59:14.430068+01 | 1486357154.43007 | pgbench_tellers_pkey  |            40960
 2017-02-06 05:59:14.430068+01 | 1486357154.43007 | pgbench_accounts_pkey |        224641024

 2017-02-06 05:59:15.502481+01 | 1486357155.50248 | pgbench_branches_pkey |            16384
 2017-02-06 05:59:15.502481+01 | 1486357155.50248 | pgbench_tellers_pkey  |            40960
 2017-02-06 05:59:15.502481+01 | 1486357155.50248 | pgbench_accounts_pkey |        224641024

 2017-02-06 05:59:16.588905+01 | 1486357156.58891 | pgbench_branches_pkey |            16384
 2017-02-06 05:59:16.588905+01 | 1486357156.58891 | pgbench_tellers_pkey  |            40960
 2017-02-06 05:59:16.588905+01 | 1486357156.58891 | pgbench_accounts_pkey |        224641024

 2017-02-06 05:59:17.676245+01 | 1486357157.67624 | pgbench_branches_pkey |            16384
 2017-02-06 05:59:17.676245+01 | 1486357157.67624 | pgbench_tellers_pkey  |            40960
 2017-02-06 05:59:17.676245+01 | 1486357157.67624 | pgbench_accounts_pkey |        224641024

 2017-02-06 05:59:18.762864+01 | 1486357158.76286 | pgbench_branches_pkey |            16384
 2017-02-06 05:59:18.762864+01 | 1486357158.76286 | pgbench_tellers_pkey  |            40960
 2017-02-06 05:59:18.762864+01 | 1486357158.76286 | pgbench_accounts_pkey |        224641024

 2017-02-06 05:59:19.842008+01 | 1486357159.84201 | pgbench_branches_pkey |            16384
 2017-02-06 05:59:19.842008+01 | 1486357159.84201 | pgbench_tellers_pkey  |            40960
 2017-02-06 05:59:19.842008+01 | 1486357159.84201 | pgbench_accounts_pkey |        224641024

 2017-02-06 05:59:20.913615+01 | 1486357160.91361 | pgbench_branches_pkey |            16384
 2017-02-06 05:59:20.913615+01 | 1486357160.91361 | pgbench_tellers_pkey  |            40960
 2017-02-06 05:59:20.913615+01 | 1486357160.91361 | pgbench_accounts_pkey |        224641024

 2017-02-06 05:59:21.985622+01 | 1486357161.98562 | pgbench_branches_pkey |            16384
 2017-02-06 05:59:21.985622+01 | 1486357161.98562 | pgbench_tellers_pkey  |            40960
 2017-02-06 05:59:21.985622+01 | 1486357161.98562 | pgbench_accounts_pkey |        224641024

 2017-02-06 05:59:23.057606+01 | 1486357163.05761 | pgbench_branches_pkey |            16384
 2017-02-06 05:59:23.057606+01 | 1486357163.05761 | pgbench_tellers_pkey  |            40960
 2017-02-06 05:59:23.057606+01 | 1486357163.05761 | pgbench_accounts_pkey |        224641024

 2017-02-06 05:59:24.135437+01 | 1486357164.13544 | pgbench_branches_pkey |            16384
 2017-02-06 05:59:24.135437+01 | 1486357164.13544 | pgbench_tellers_pkey  |            40960
 2017-02-06 05:59:24.135437+01 | 1486357164.13544 | pgbench_accounts_pkey |        224641024

 2017-02-06 05:59:25.193367+01 | 1486357165.19337 | pgbench_branches_pkey |            16384
 2017-02-06 05:59:25.193367+01 | 1486357165.19337 | pgbench_tellers_pkey  |            40960
 2017-02-06 05:59:25.193367+01 | 1486357165.19337 | pgbench_accounts_pkey |        224641024

 2017-02-06 05:59:26.267489+01 | 1486357166.26749 | pgbench_branches_pkey |            16384
 2017-02-06 05:59:26.267489+01 | 1486357166.26749 | pgbench_tellers_pkey  |            40960
 2017-02-06 05:59:26.267489+01 | 1486357166.26749 | pgbench_accounts_pkey |        224641024

 2017-02-06 05:59:27.34091+01 | 1486357167.34091 | pgbench_branches_pkey |            16384
 2017-02-06 05:59:27.34091+01 | 1486357167.34091 | pgbench_tellers_pkey  |            40960
 2017-02-06 05:59:27.34091+01 | 1486357167.34091 | pgbench_accounts_pkey |        224641024

 2017-02-06 05:59:28.423931+01 | 1486357168.42393 | pgbench_branches_pkey |            16384
 2017-02-06 05:59:28.423931+01 | 1486357168.42393 | pgbench_tellers_pkey  |            40960
 2017-02-06 05:59:28.423931+01 | 1486357168.42393 | pgbench_accounts_pkey |        224641024

 2017-02-06 05:59:29.505104+01 | 1486357169.5051 | pgbench_branches_pkey |            16384
 2017-02-06 05:59:29.505104+01 | 1486357169.5051 | pgbench_tellers_pkey  |            40960
 2017-02-06 05:59:29.505104+01 | 1486357169.5051 | pgbench_accounts_pkey |        224641024

 2017-02-06 05:59:30.595481+01 | 1486357170.59548 | pgbench_branches_pkey |            16384
 2017-02-06 05:59:30.595481+01 | 1486357170.59548 | pgbench_tellers_pkey  |            40960
 2017-02-06 05:59:30.595481+01 | 1486357170.59548 | pgbench_accounts_pkey |        224641024

 2017-02-06 05:59:31.675531+01 | 1486357171.67553 | pgbench_branches_pkey |            16384
 2017-02-06 05:59:31.675531+01 | 1486357171.67553 | pgbench_tellers_pkey  |            40960
 2017-02-06 05:59:31.675531+01 | 1486357171.67553 | pgbench_accounts_pkey |        224641024

 2017-02-06 05:59:32.742487+01 | 1486357172.74249 | pgbench_branches_pkey |            16384
 2017-02-06 05:59:32.742487+01 | 1486357172.74249 | pgbench_tellers_pkey  |            40960
 2017-02-06 05:59:32.742487+01 | 1486357172.74249 | pgbench_accounts_pkey |        224641024

 2017-02-06 05:59:33.823246+01 | 1486357173.82325 | pgbench_branches_pkey |            16384
 2017-02-06 05:59:33.823246+01 | 1486357173.82325 | pgbench_tellers_pkey  |            40960
 2017-02-06 05:59:33.823246+01 | 1486357173.82325 | pgbench_accounts_pkey |        224641024

 2017-02-06 05:59:34.88954+01 | 1486357174.88954 | pgbench_branches_pkey |            16384
 2017-02-06 05:59:34.88954+01 | 1486357174.88954 | pgbench_tellers_pkey  |            40960
 2017-02-06 05:59:34.88954+01 | 1486357174.88954 | pgbench_accounts_pkey |        224641024

 2017-02-06 05:59:35.970431+01 | 1486357175.97043 | pgbench_branches_pkey |            16384
 2017-02-06 05:59:35.970431+01 | 1486357175.97043 | pgbench_tellers_pkey  |            40960
 2017-02-06 05:59:35.970431+01 | 1486357175.97043 | pgbench_accounts_pkey |        224641024

 2017-02-06 05:59:37.049745+01 | 1486357177.04975 | pgbench_branches_pkey |            16384
 2017-02-06 05:59:37.049745+01 | 1486357177.04975 | pgbench_tellers_pkey  |            40960
 2017-02-06 05:59:37.049745+01 | 1486357177.04975 | pgbench_accounts_pkey |        224641024

 2017-02-06 05:59:38.132002+01 | 1486357178.132 | pgbench_branches_pkey |            16384
 2017-02-06 05:59:38.132002+01 | 1486357178.132 | pgbench_tellers_pkey  |            40960
 2017-02-06 05:59:38.132002+01 | 1486357178.132 | pgbench_accounts_pkey |        224641024

 2017-02-06 05:59:39.203695+01 | 1486357179.2037 | pgbench_branches_pkey |            16384
 2017-02-06 05:59:39.203695+01 | 1486357179.2037 | pgbench_tellers_pkey  |            40960
 2017-02-06 05:59:39.203695+01 | 1486357179.2037 | pgbench_accounts_pkey |        224641024

 2017-02-06 05:59:40.289091+01 | 1486357180.28909 | pgbench_branches_pkey |            16384
 2017-02-06 05:59:40.289091+01 | 1486357180.28909 | pgbench_tellers_pkey  |            40960
 2017-02-06 05:59:40.289091+01 | 1486357180.28909 | pgbench_accounts_pkey |        224641024

 2017-02-06 05:59:41.373438+01 | 1486357181.37344 | pgbench_branches_pkey |            16384
 2017-02-06 05:59:41.373438+01 | 1486357181.37344 | pgbench_tellers_pkey  |            40960
 2017-02-06 05:59:41.373438+01 | 1486357181.37344 | pgbench_accounts_pkey |        224641024

 2017-02-06 05:59:42.446502+01 | 1486357182.4465 | pgbench_branches_pkey |            16384
 2017-02-06 05:59:42.446502+01 | 1486357182.4465 | pgbench_tellers_pkey  |            40960
 2017-02-06 05:59:42.446502+01 | 1486357182.4465 | pgbench_accounts_pkey |        224641024

 2017-02-06 05:59:43.53171+01 | 1486357183.53171 | pgbench_branches_pkey |            16384
 2017-02-06 05:59:43.53171+01 | 1486357183.53171 | pgbench_tellers_pkey  |            40960
 2017-02-06 05:59:43.53171+01 | 1486357183.53171 | pgbench_accounts_pkey |        224641024

 2017-02-06 05:59:44.613355+01 | 1486357184.61335 | pgbench_branches_pkey |            16384
 2017-02-06 05:59:44.613355+01 | 1486357184.61335 | pgbench_tellers_pkey  |            40960
 2017-02-06 05:59:44.613355+01 | 1486357184.61335 | pgbench_accounts_pkey |        224641024

 2017-02-06 05:59:45.695429+01 | 1486357185.69543 | pgbench_branches_pkey |            16384
 2017-02-06 05:59:45.695429+01 | 1486357185.69543 | pgbench_tellers_pkey  |            40960
 2017-02-06 05:59:45.695429+01 | 1486357185.69543 | pgbench_accounts_pkey |        224641024

 2017-02-06 05:59:46.770953+01 | 1486357186.77095 | pgbench_branches_pkey |            16384
 2017-02-06 05:59:46.770953+01 | 1486357186.77095 | pgbench_tellers_pkey  |            40960
 2017-02-06 05:59:46.770953+01 | 1486357186.77095 | pgbench_accounts_pkey |        224641024

 2017-02-06 05:59:47.852789+01 | 1486357187.85279 | pgbench_branches_pkey |            16384
 2017-02-06 05:59:47.852789+01 | 1486357187.85279 | pgbench_tellers_pkey  |            40960
 2017-02-06 05:59:47.852789+01 | 1486357187.85279 | pgbench_accounts_pkey |        224641024

 2017-02-06 05:59:48.934404+01 | 1486357188.9344 | pgbench_branches_pkey |            16384
 2017-02-06 05:59:48.934404+01 | 1486357188.9344 | pgbench_tellers_pkey  |            40960
 2017-02-06 05:59:48.934404+01 | 1486357188.9344 | pgbench_accounts_pkey |        224641024

 2017-02-06 05:59:50.020094+01 | 1486357190.02009 | pgbench_branches_pkey |            16384
 2017-02-06 05:59:50.020094+01 | 1486357190.02009 | pgbench_tellers_pkey  |            40960
 2017-02-06 05:59:50.020094+01 | 1486357190.02009 | pgbench_accounts_pkey |        224641024

 2017-02-06 05:59:51.099236+01 | 1486357191.09924 | pgbench_branches_pkey |            16384
 2017-02-06 05:59:51.099236+01 | 1486357191.09924 | pgbench_tellers_pkey  |            40960
 2017-02-06 05:59:51.099236+01 | 1486357191.09924 | pgbench_accounts_pkey |        224641024

 2017-02-06 05:59:52.1813+01 | 1486357192.1813 | pgbench_branches_pkey |            16384
 2017-02-06 05:59:52.1813+01 | 1486357192.1813 | pgbench_tellers_pkey  |            40960
 2017-02-06 05:59:52.1813+01 | 1486357192.1813 | pgbench_accounts_pkey |        224641024

 2017-02-06 05:59:53.263532+01 | 1486357193.26353 | pgbench_branches_pkey |            16384
 2017-02-06 05:59:53.263532+01 | 1486357193.26353 | pgbench_tellers_pkey  |            40960
 2017-02-06 05:59:53.263532+01 | 1486357193.26353 | pgbench_accounts_pkey |        224641024

 2017-02-06 05:59:54.342304+01 | 1486357194.3423 | pgbench_branches_pkey |            16384
 2017-02-06 05:59:54.342304+01 | 1486357194.3423 | pgbench_tellers_pkey  |            40960
 2017-02-06 05:59:54.342304+01 | 1486357194.3423 | pgbench_accounts_pkey |        224641024

 2017-02-06 05:59:55.419757+01 | 1486357195.41976 | pgbench_branches_pkey |            16384
 2017-02-06 05:59:55.419757+01 | 1486357195.41976 | pgbench_tellers_pkey  |            40960
 2017-02-06 05:59:55.419757+01 | 1486357195.41976 | pgbench_accounts_pkey |        224641024

 2017-02-06 05:59:56.496016+01 | 1486357196.49602 | pgbench_branches_pkey |            16384
 2017-02-06 05:59:56.496016+01 | 1486357196.49602 | pgbench_tellers_pkey  |            40960
 2017-02-06 05:59:56.496016+01 | 1486357196.49602 | pgbench_accounts_pkey |        224641024

 2017-02-06 05:59:57.576813+01 | 1486357197.57681 | pgbench_branches_pkey |            16384
 2017-02-06 05:59:57.576813+01 | 1486357197.57681 | pgbench_tellers_pkey  |            40960
 2017-02-06 05:59:57.576813+01 | 1486357197.57681 | pgbench_accounts_pkey |        224641024

 2017-02-06 05:59:58.654557+01 | 1486357198.65456 | pgbench_branches_pkey |            16384
 2017-02-06 05:59:58.654557+01 | 1486357198.65456 | pgbench_tellers_pkey  |            40960
 2017-02-06 05:59:58.654557+01 | 1486357198.65456 | pgbench_accounts_pkey |        224641024

 2017-02-06 05:59:59.730875+01 | 1486357199.73088 | pgbench_branches_pkey |            16384
 2017-02-06 05:59:59.730875+01 | 1486357199.73088 | pgbench_tellers_pkey  |            40960
 2017-02-06 05:59:59.730875+01 | 1486357199.73088 | pgbench_accounts_pkey |        224641024

 2017-02-06 06:00:00.810104+01 | 1486357200.8101 | pgbench_branches_pkey |            16384
 2017-02-06 06:00:00.810104+01 | 1486357200.8101 | pgbench_tellers_pkey  |            40960
 2017-02-06 06:00:00.810104+01 | 1486357200.8101 | pgbench_accounts_pkey |        224641024

 2017-02-06 06:00:01.889106+01 | 1486357201.88911 | pgbench_branches_pkey |            16384
 2017-02-06 06:00:01.889106+01 | 1486357201.88911 | pgbench_tellers_pkey  |            40960
 2017-02-06 06:00:01.889106+01 | 1486357201.88911 | pgbench_accounts_pkey |        224641024

 2017-02-06 06:00:02.974244+01 | 1486357202.97424 | pgbench_branches_pkey |            16384
 2017-02-06 06:00:02.974244+01 | 1486357202.97424 | pgbench_tellers_pkey  |            40960
 2017-02-06 06:00:02.974244+01 | 1486357202.97424 | pgbench_accounts_pkey |        224641024

 2017-02-06 06:00:04.051801+01 | 1486357204.0518 | pgbench_branches_pkey |            16384
 2017-02-06 06:00:04.051801+01 | 1486357204.0518 | pgbench_tellers_pkey  |            40960
 2017-02-06 06:00:04.051801+01 | 1486357204.0518 | pgbench_accounts_pkey |        224641024

 2017-02-06 06:00:05.131478+01 | 1486357205.13148 | pgbench_branches_pkey |            16384
 2017-02-06 06:00:05.131478+01 | 1486357205.13148 | pgbench_tellers_pkey  |            40960
 2017-02-06 06:00:05.131478+01 | 1486357205.13148 | pgbench_accounts_pkey |        224641024

 2017-02-06 06:00:06.208811+01 | 1486357206.20881 | pgbench_branches_pkey |            16384
 2017-02-06 06:00:06.208811+01 | 1486357206.20881 | pgbench_tellers_pkey  |            40960
 2017-02-06 06:00:06.208811+01 | 1486357206.20881 | pgbench_accounts_pkey |        224641024

 2017-02-06 06:00:07.285941+01 | 1486357207.28594 | pgbench_branches_pkey |            16384
 2017-02-06 06:00:07.285941+01 | 1486357207.28594 | pgbench_tellers_pkey  |            40960
 2017-02-06 06:00:07.285941+01 | 1486357207.28594 | pgbench_accounts_pkey |        224641024

 2017-02-06 06:00:08.357315+01 | 1486357208.35732 | pgbench_branches_pkey |            16384
 2017-02-06 06:00:08.357315+01 | 1486357208.35732 | pgbench_tellers_pkey  |            40960
 2017-02-06 06:00:08.357315+01 | 1486357208.35732 | pgbench_accounts_pkey |        224641024

 2017-02-06 06:00:09.437942+01 | 1486357209.43794 | pgbench_branches_pkey |            16384
 2017-02-06 06:00:09.437942+01 | 1486357209.43794 | pgbench_tellers_pkey  |            40960
 2017-02-06 06:00:09.437942+01 | 1486357209.43794 | pgbench_accounts_pkey |        224641024

 2017-02-06 06:00:10.513893+01 | 1486357210.51389 | pgbench_branches_pkey |            16384
 2017-02-06 06:00:10.513893+01 | 1486357210.51389 | pgbench_tellers_pkey  |            40960
 2017-02-06 06:00:10.513893+01 | 1486357210.51389 | pgbench_accounts_pkey |        224641024

 2017-02-06 06:00:11.595656+01 | 1486357211.59566 | pgbench_branches_pkey |            16384
 2017-02-06 06:00:11.595656+01 | 1486357211.59566 | pgbench_tellers_pkey  |            40960
 2017-02-06 06:00:11.595656+01 | 1486357211.59566 | pgbench_accounts_pkey |        224641024

 2017-02-06 06:00:12.667994+01 | 1486357212.66799 | pgbench_branches_pkey |            16384
 2017-02-06 06:00:12.667994+01 | 1486357212.66799 | pgbench_tellers_pkey  |            40960
 2017-02-06 06:00:12.667994+01 | 1486357212.66799 | pgbench_accounts_pkey |        224641024

 2017-02-06 06:00:13.737382+01 | 1486357213.73738 | pgbench_branches_pkey |            16384
 2017-02-06 06:00:13.737382+01 | 1486357213.73738 | pgbench_tellers_pkey  |            40960
 2017-02-06 06:00:13.737382+01 | 1486357213.73738 | pgbench_accounts_pkey |        224641024

 2017-02-06 06:00:14.817675+01 | 1486357214.81768 | pgbench_branches_pkey |            16384
 2017-02-06 06:00:14.817675+01 | 1486357214.81768 | pgbench_tellers_pkey  |            40960
 2017-02-06 06:00:14.817675+01 | 1486357214.81768 | pgbench_accounts_pkey |        224641024

 2017-02-06 06:00:15.897967+01 | 1486357215.89797 | pgbench_branches_pkey |            16384
 2017-02-06 06:00:15.897967+01 | 1486357215.89797 | pgbench_tellers_pkey  |            40960
 2017-02-06 06:00:15.897967+01 | 1486357215.89797 | pgbench_accounts_pkey |        224641024

 2017-02-06 06:00:16.979922+01 | 1486357216.97992 | pgbench_branches_pkey |            16384
 2017-02-06 06:00:16.979922+01 | 1486357216.97992 | pgbench_tellers_pkey  |            40960
 2017-02-06 06:00:16.979922+01 | 1486357216.97992 | pgbench_accounts_pkey |        224641024

 2017-02-06 06:00:18.052522+01 | 1486357218.05252 | pgbench_branches_pkey |            16384
 2017-02-06 06:00:18.052522+01 | 1486357218.05252 | pgbench_tellers_pkey  |            40960
 2017-02-06 06:00:18.052522+01 | 1486357218.05252 | pgbench_accounts_pkey |        224641024

 2017-02-06 06:00:19.123208+01 | 1486357219.12321 | pgbench_branches_pkey |            16384
 2017-02-06 06:00:19.123208+01 | 1486357219.12321 | pgbench_tellers_pkey  |            40960
 2017-02-06 06:00:19.123208+01 | 1486357219.12321 | pgbench_accounts_pkey |        224641024

 2017-02-06 06:00:20.201121+01 | 1486357220.20112 | pgbench_branches_pkey |            16384
 2017-02-06 06:00:20.201121+01 | 1486357220.20112 | pgbench_tellers_pkey  |            40960
 2017-02-06 06:00:20.201121+01 | 1486357220.20112 | pgbench_accounts_pkey |        224641024

 2017-02-06 06:00:21.291415+01 | 1486357221.29141 | pgbench_branches_pkey |            16384
 2017-02-06 06:00:21.291415+01 | 1486357221.29141 | pgbench_tellers_pkey  |            40960
 2017-02-06 06:00:21.291415+01 | 1486357221.29141 | pgbench_accounts_pkey |        224641024

 2017-02-06 06:00:22.381617+01 | 1486357222.38162 | pgbench_branches_pkey |            16384
 2017-02-06 06:00:22.381617+01 | 1486357222.38162 | pgbench_tellers_pkey  |            40960
 2017-02-06 06:00:22.381617+01 | 1486357222.38162 | pgbench_accounts_pkey |        224641024

 2017-02-06 06:00:23.462205+01 | 1486357223.4622 | pgbench_branches_pkey |            16384
 2017-02-06 06:00:23.462205+01 | 1486357223.4622 | pgbench_tellers_pkey  |            40960
 2017-02-06 06:00:23.462205+01 | 1486357223.4622 | pgbench_accounts_pkey |        224641024

 2017-02-06 06:00:24.533219+01 | 1486357224.53322 | pgbench_branches_pkey |            16384
 2017-02-06 06:00:24.533219+01 | 1486357224.53322 | pgbench_tellers_pkey  |            40960
 2017-02-06 06:00:24.533219+01 | 1486357224.53322 | pgbench_accounts_pkey |        224641024

 2017-02-06 06:00:25.593433+01 | 1486357225.59343 | pgbench_branches_pkey |            16384
 2017-02-06 06:00:25.593433+01 | 1486357225.59343 | pgbench_tellers_pkey  |            40960
 2017-02-06 06:00:25.593433+01 | 1486357225.59343 | pgbench_accounts_pkey |        224641024

 2017-02-06 06:00:26.680334+01 | 1486357226.68033 | pgbench_branches_pkey |            16384
 2017-02-06 06:00:26.680334+01 | 1486357226.68033 | pgbench_tellers_pkey  |            40960
 2017-02-06 06:00:26.680334+01 | 1486357226.68033 | pgbench_accounts_pkey |        224641024

 2017-02-06 06:00:27.764114+01 | 1486357227.76411 | pgbench_branches_pkey |            16384
 2017-02-06 06:00:27.764114+01 | 1486357227.76411 | pgbench_tellers_pkey  |            40960
 2017-02-06 06:00:27.764114+01 | 1486357227.76411 | pgbench_accounts_pkey |        224641024

 2017-02-06 06:00:28.849348+01 | 1486357228.84935 | pgbench_branches_pkey |            16384
 2017-02-06 06:00:28.849348+01 | 1486357228.84935 | pgbench_tellers_pkey  |            40960
 2017-02-06 06:00:28.849348+01 | 1486357228.84935 | pgbench_accounts_pkey |        224641024

 2017-02-06 06:00:29.931908+01 | 1486357229.93191 | pgbench_branches_pkey |            16384
 2017-02-06 06:00:29.931908+01 | 1486357229.93191 | pgbench_tellers_pkey  |            40960
 2017-02-06 06:00:29.931908+01 | 1486357229.93191 | pgbench_accounts_pkey |        224641024

 2017-02-06 06:00:31.008783+01 | 1486357231.00878 | pgbench_branches_pkey |            16384
 2017-02-06 06:00:31.008783+01 | 1486357231.00878 | pgbench_tellers_pkey  |            40960
 2017-02-06 06:00:31.008783+01 | 1486357231.00878 | pgbench_accounts_pkey |        224641024

 2017-02-06 06:00:32.084469+01 | 1486357232.08447 | pgbench_branches_pkey |            16384
 2017-02-06 06:00:32.084469+01 | 1486357232.08447 | pgbench_tellers_pkey  |            40960
 2017-02-06 06:00:32.084469+01 | 1486357232.08447 | pgbench_accounts_pkey |        224641024

 2017-02-06 06:00:33.16959+01 | 1486357233.16959 | pgbench_branches_pkey |            16384
 2017-02-06 06:00:33.16959+01 | 1486357233.16959 | pgbench_tellers_pkey  |            40960
 2017-02-06 06:00:33.16959+01 | 1486357233.16959 | pgbench_accounts_pkey |        224641024

 2017-02-06 06:00:34.252757+01 | 1486357234.25276 | pgbench_branches_pkey |            16384
 2017-02-06 06:00:34.252757+01 | 1486357234.25276 | pgbench_tellers_pkey  |            40960
 2017-02-06 06:00:34.252757+01 | 1486357234.25276 | pgbench_accounts_pkey |        224641024

 2017-02-06 06:00:35.342045+01 | 1486357235.34205 | pgbench_branches_pkey |            16384
 2017-02-06 06:00:35.342045+01 | 1486357235.34205 | pgbench_tellers_pkey  |            40960
 2017-02-06 06:00:35.342045+01 | 1486357235.34205 | pgbench_accounts_pkey |        224641024

 2017-02-06 06:00:36.423174+01 | 1486357236.42317 | pgbench_branches_pkey |            16384
 2017-02-06 06:00:36.423174+01 | 1486357236.42317 | pgbench_tellers_pkey  |            40960
 2017-02-06 06:00:36.423174+01 | 1486357236.42317 | pgbench_accounts_pkey |        224641024

 2017-02-06 06:00:37.508431+01 | 1486357237.50843 | pgbench_branches_pkey |            16384
 2017-02-06 06:00:37.508431+01 | 1486357237.50843 | pgbench_tellers_pkey  |            40960
 2017-02-06 06:00:37.508431+01 | 1486357237.50843 | pgbench_accounts_pkey |        224641024

 2017-02-06 06:00:38.58962+01 | 1486357238.58962 | pgbench_branches_pkey |            16384
 2017-02-06 06:00:38.58962+01 | 1486357238.58962 | pgbench_tellers_pkey  |            40960
 2017-02-06 06:00:38.58962+01 | 1486357238.58962 | pgbench_accounts_pkey |        224641024

 2017-02-06 06:00:39.65624+01 | 1486357239.65624 | pgbench_branches_pkey |            16384
 2017-02-06 06:00:39.65624+01 | 1486357239.65624 | pgbench_tellers_pkey  |            40960
 2017-02-06 06:00:39.65624+01 | 1486357239.65624 | pgbench_accounts_pkey |        224641024

 2017-02-06 06:00:40.73268+01 | 1486357240.73268 | pgbench_branches_pkey |            16384
 2017-02-06 06:00:40.73268+01 | 1486357240.73268 | pgbench_tellers_pkey  |            40960
 2017-02-06 06:00:40.73268+01 | 1486357240.73268 | pgbench_accounts_pkey |        224641024

 2017-02-06 06:00:41.808622+01 | 1486357241.80862 | pgbench_branches_pkey |            16384
 2017-02-06 06:00:41.808622+01 | 1486357241.80862 | pgbench_tellers_pkey  |            40960
 2017-02-06 06:00:41.808622+01 | 1486357241.80862 | pgbench_accounts_pkey |        224641024

 2017-02-06 06:00:42.886927+01 | 1486357242.88693 | pgbench_branches_pkey |            16384
 2017-02-06 06:00:42.886927+01 | 1486357242.88693 | pgbench_tellers_pkey  |            40960
 2017-02-06 06:00:42.886927+01 | 1486357242.88693 | pgbench_accounts_pkey |        224641024

 2017-02-06 06:00:43.956792+01 | 1486357243.95679 | pgbench_branches_pkey |            16384
 2017-02-06 06:00:43.956792+01 | 1486357243.95679 | pgbench_tellers_pkey  |            40960
 2017-02-06 06:00:43.956792+01 | 1486357243.95679 | pgbench_accounts_pkey |        224641024

 2017-02-06 06:00:45.032826+01 | 1486357245.03283 | pgbench_branches_pkey |            16384
 2017-02-06 06:00:45.032826+01 | 1486357245.03283 | pgbench_tellers_pkey  |            40960
 2017-02-06 06:00:45.032826+01 | 1486357245.03283 | pgbench_accounts_pkey |        224641024

 2017-02-06 06:00:46.103422+01 | 1486357246.10342 | pgbench_branches_pkey |            16384
 2017-02-06 06:00:46.103422+01 | 1486357246.10342 | pgbench_tellers_pkey  |            40960
 2017-02-06 06:00:46.103422+01 | 1486357246.10342 | pgbench_accounts_pkey |        224641024

 2017-02-06 06:00:47.174141+01 | 1486357247.17414 | pgbench_branches_pkey |            16384
 2017-02-06 06:00:47.174141+01 | 1486357247.17414 | pgbench_tellers_pkey  |            40960
 2017-02-06 06:00:47.174141+01 | 1486357247.17414 | pgbench_accounts_pkey |        224641024

 2017-02-06 06:00:48.254412+01 | 1486357248.25441 | pgbench_branches_pkey |            16384
 2017-02-06 06:00:48.254412+01 | 1486357248.25441 | pgbench_tellers_pkey  |            40960
 2017-02-06 06:00:48.254412+01 | 1486357248.25441 | pgbench_accounts_pkey |        224641024

 2017-02-06 06:00:49.334261+01 | 1486357249.33426 | pgbench_branches_pkey |            16384
 2017-02-06 06:00:49.334261+01 | 1486357249.33426 | pgbench_tellers_pkey  |            40960
 2017-02-06 06:00:49.334261+01 | 1486357249.33426 | pgbench_accounts_pkey |        224641024

 2017-02-06 06:00:50.409372+01 | 1486357250.40937 | pgbench_branches_pkey |            16384
 2017-02-06 06:00:50.409372+01 | 1486357250.40937 | pgbench_tellers_pkey  |            40960
 2017-02-06 06:00:50.409372+01 | 1486357250.40937 | pgbench_accounts_pkey |        224641024

 2017-02-06 06:00:51.491775+01 | 1486357251.49178 | pgbench_branches_pkey |            16384
 2017-02-06 06:00:51.491775+01 | 1486357251.49178 | pgbench_tellers_pkey  |            40960
 2017-02-06 06:00:51.491775+01 | 1486357251.49178 | pgbench_accounts_pkey |        224641024

 2017-02-06 06:00:52.570586+01 | 1486357252.57059 | pgbench_branches_pkey |            16384
 2017-02-06 06:00:52.570586+01 | 1486357252.57059 | pgbench_tellers_pkey  |            40960
 2017-02-06 06:00:52.570586+01 | 1486357252.57059 | pgbench_accounts_pkey |        224641024

 2017-02-06 06:00:53.642793+01 | 1486357253.64279 | pgbench_branches_pkey |            16384
 2017-02-06 06:00:53.642793+01 | 1486357253.64279 | pgbench_tellers_pkey  |            40960
 2017-02-06 06:00:53.642793+01 | 1486357253.64279 | pgbench_accounts_pkey |        224641024

 2017-02-06 06:00:54.716673+01 | 1486357254.71667 | pgbench_branches_pkey |            16384
 2017-02-06 06:00:54.716673+01 | 1486357254.71667 | pgbench_tellers_pkey  |            40960
 2017-02-06 06:00:54.716673+01 | 1486357254.71667 | pgbench_accounts_pkey |        224641024

 2017-02-06 06:00:55.797835+01 | 1486357255.79784 | pgbench_branches_pkey |            16384
 2017-02-06 06:00:55.797835+01 | 1486357255.79784 | pgbench_tellers_pkey  |            40960
 2017-02-06 06:00:55.797835+01 | 1486357255.79784 | pgbench_accounts_pkey |        224641024

 2017-02-06 06:00:56.869454+01 | 1486357256.86945 | pgbench_branches_pkey |            16384
 2017-02-06 06:00:56.869454+01 | 1486357256.86945 | pgbench_tellers_pkey  |            40960
 2017-02-06 06:00:56.869454+01 | 1486357256.86945 | pgbench_accounts_pkey |        224641024

 2017-02-06 06:00:57.943763+01 | 1486357257.94376 | pgbench_branches_pkey |            16384
 2017-02-06 06:00:57.943763+01 | 1486357257.94376 | pgbench_tellers_pkey  |            40960
 2017-02-06 06:00:57.943763+01 | 1486357257.94376 | pgbench_accounts_pkey |        224641024

 2017-02-06 06:00:59.015906+01 | 1486357259.01591 | pgbench_branches_pkey |            16384
 2017-02-06 06:00:59.015906+01 | 1486357259.01591 | pgbench_tellers_pkey  |            40960
 2017-02-06 06:00:59.015906+01 | 1486357259.01591 | pgbench_accounts_pkey |        224641024

 2017-02-06 06:01:00.097937+01 | 1486357260.09794 | pgbench_branches_pkey |            16384
 2017-02-06 06:01:00.097937+01 | 1486357260.09794 | pgbench_tellers_pkey  |            40960
 2017-02-06 06:01:00.097937+01 | 1486357260.09794 | pgbench_accounts_pkey |        224641024

 2017-02-06 06:01:01.180388+01 | 1486357261.18039 | pgbench_branches_pkey |            16384
 2017-02-06 06:01:01.180388+01 | 1486357261.18039 | pgbench_tellers_pkey  |            40960
 2017-02-06 06:01:01.180388+01 | 1486357261.18039 | pgbench_accounts_pkey |        224641024

 2017-02-06 06:01:02.2667+01 | 1486357262.2667 | pgbench_branches_pkey |            16384
 2017-02-06 06:01:02.2667+01 | 1486357262.2667 | pgbench_tellers_pkey  |            40960
 2017-02-06 06:01:02.2667+01 | 1486357262.2667 | pgbench_accounts_pkey |        224641024

 2017-02-06 06:01:03.349209+01 | 1486357263.34921 | pgbench_branches_pkey |            16384
 2017-02-06 06:01:03.349209+01 | 1486357263.34921 | pgbench_tellers_pkey  |            40960
 2017-02-06 06:01:03.349209+01 | 1486357263.34921 | pgbench_accounts_pkey |        224641024

 2017-02-06 06:01:04.440758+01 | 1486357264.44076 | pgbench_branches_pkey |            16384
 2017-02-06 06:01:04.440758+01 | 1486357264.44076 | pgbench_tellers_pkey  |            40960
 2017-02-06 06:01:04.440758+01 | 1486357264.44076 | pgbench_accounts_pkey |        224641024

 2017-02-06 06:01:05.525552+01 | 1486357265.52555 | pgbench_branches_pkey |            16384
 2017-02-06 06:01:05.525552+01 | 1486357265.52555 | pgbench_tellers_pkey  |            40960
 2017-02-06 06:01:05.525552+01 | 1486357265.52555 | pgbench_accounts_pkey |        224641024

 2017-02-06 06:01:06.613612+01 | 1486357266.61361 | pgbench_branches_pkey |            16384
 2017-02-06 06:01:06.613612+01 | 1486357266.61361 | pgbench_tellers_pkey  |            40960
 2017-02-06 06:01:06.613612+01 | 1486357266.61361 | pgbench_accounts_pkey |        224641024

 2017-02-06 06:01:07.697197+01 | 1486357267.6972 | pgbench_branches_pkey |            16384
 2017-02-06 06:01:07.697197+01 | 1486357267.6972 | pgbench_tellers_pkey  |            40960
 2017-02-06 06:01:07.697197+01 | 1486357267.6972 | pgbench_accounts_pkey |        224641024

 2017-02-06 06:01:08.775444+01 | 1486357268.77544 | pgbench_branches_pkey |            16384
 2017-02-06 06:01:08.775444+01 | 1486357268.77544 | pgbench_tellers_pkey  |            40960
 2017-02-06 06:01:08.775444+01 | 1486357268.77544 | pgbench_accounts_pkey |        224641024

 2017-02-06 06:01:09.859205+01 | 1486357269.85921 | pgbench_branches_pkey |            16384
 2017-02-06 06:01:09.859205+01 | 1486357269.85921 | pgbench_tellers_pkey  |            40960
 2017-02-06 06:01:09.859205+01 | 1486357269.85921 | pgbench_accounts_pkey |        224641024

 2017-02-06 06:01:10.946408+01 | 1486357270.94641 | pgbench_branches_pkey |            16384
 2017-02-06 06:01:10.946408+01 | 1486357270.94641 | pgbench_tellers_pkey  |            40960
 2017-02-06 06:01:10.946408+01 | 1486357270.94641 | pgbench_accounts_pkey |        224641024

 2017-02-06 06:01:12.041342+01 | 1486357272.04134 | pgbench_branches_pkey |            16384
 2017-02-06 06:01:12.041342+01 | 1486357272.04134 | pgbench_tellers_pkey  |            40960
 2017-02-06 06:01:12.041342+01 | 1486357272.04134 | pgbench_accounts_pkey |        224641024

 2017-02-06 06:01:13.118804+01 | 1486357273.1188 | pgbench_branches_pkey |            16384
 2017-02-06 06:01:13.118804+01 | 1486357273.1188 | pgbench_tellers_pkey  |            40960
 2017-02-06 06:01:13.118804+01 | 1486357273.1188 | pgbench_accounts_pkey |        224641024

 2017-02-06 06:01:14.193218+01 | 1486357274.19322 | pgbench_branches_pkey |            16384
 2017-02-06 06:01:14.193218+01 | 1486357274.19322 | pgbench_tellers_pkey  |            40960
 2017-02-06 06:01:14.193218+01 | 1486357274.19322 | pgbench_accounts_pkey |        224641024

 2017-02-06 06:01:15.270808+01 | 1486357275.27081 | pgbench_branches_pkey |            16384
 2017-02-06 06:01:15.270808+01 | 1486357275.27081 | pgbench_tellers_pkey  |            40960
 2017-02-06 06:01:15.270808+01 | 1486357275.27081 | pgbench_accounts_pkey |        224641024

 2017-02-06 06:01:16.361733+01 | 1486357276.36173 | pgbench_branches_pkey |            16384
 2017-02-06 06:01:16.361733+01 | 1486357276.36173 | pgbench_tellers_pkey  |            40960
 2017-02-06 06:01:16.361733+01 | 1486357276.36173 | pgbench_accounts_pkey |        224641024

 2017-02-06 06:01:17.44144+01 | 1486357277.44144 | pgbench_branches_pkey |            16384
 2017-02-06 06:01:17.44144+01 | 1486357277.44144 | pgbench_tellers_pkey  |            40960
 2017-02-06 06:01:17.44144+01 | 1486357277.44144 | pgbench_accounts_pkey |        224641024

 2017-02-06 06:01:18.523083+01 | 1486357278.52308 | pgbench_branches_pkey |            16384
 2017-02-06 06:01:18.523083+01 | 1486357278.52308 | pgbench_tellers_pkey  |            40960
 2017-02-06 06:01:18.523083+01 | 1486357278.52308 | pgbench_accounts_pkey |        224641024

 2017-02-06 06:01:19.602717+01 | 1486357279.60272 | pgbench_branches_pkey |            16384
 2017-02-06 06:01:19.602717+01 | 1486357279.60272 | pgbench_tellers_pkey  |            40960
 2017-02-06 06:01:19.602717+01 | 1486357279.60272 | pgbench_accounts_pkey |        224641024

 2017-02-06 06:01:20.678071+01 | 1486357280.67807 | pgbench_branches_pkey |            16384
 2017-02-06 06:01:20.678071+01 | 1486357280.67807 | pgbench_tellers_pkey  |            40960
 2017-02-06 06:01:20.678071+01 | 1486357280.67807 | pgbench_accounts_pkey |        224641024

 2017-02-06 06:01:21.760912+01 | 1486357281.76091 | pgbench_branches_pkey |            16384
 2017-02-06 06:01:21.760912+01 | 1486357281.76091 | pgbench_tellers_pkey  |            40960
 2017-02-06 06:01:21.760912+01 | 1486357281.76091 | pgbench_accounts_pkey |        224641024

 2017-02-06 06:01:22.839015+01 | 1486357282.83902 | pgbench_branches_pkey |            16384
 2017-02-06 06:01:22.839015+01 | 1486357282.83902 | pgbench_tellers_pkey  |            40960
 2017-02-06 06:01:22.839015+01 | 1486357282.83902 | pgbench_accounts_pkey |        224641024

 2017-02-06 06:01:23.926164+01 | 1486357283.92616 | pgbench_branches_pkey |            16384
 2017-02-06 06:01:23.926164+01 | 1486357283.92616 | pgbench_tellers_pkey  |            40960
 2017-02-06 06:01:23.926164+01 | 1486357283.92616 | pgbench_accounts_pkey |        224641024

 2017-02-06 06:01:24.999826+01 | 1486357284.99983 | pgbench_branches_pkey |            16384
 2017-02-06 06:01:24.999826+01 | 1486357284.99983 | pgbench_tellers_pkey  |            40960
 2017-02-06 06:01:24.999826+01 | 1486357284.99983 | pgbench_accounts_pkey |        224641024

 2017-02-06 06:01:26.084354+01 | 1486357286.08435 | pgbench_branches_pkey |            16384
 2017-02-06 06:01:26.084354+01 | 1486357286.08435 | pgbench_tellers_pkey  |            40960
 2017-02-06 06:01:26.084354+01 | 1486357286.08435 | pgbench_accounts_pkey |        224641024

 2017-02-06 06:01:27.163537+01 | 1486357287.16354 | pgbench_branches_pkey |            16384
 2017-02-06 06:01:27.163537+01 | 1486357287.16354 | pgbench_tellers_pkey  |            40960
 2017-02-06 06:01:27.163537+01 | 1486357287.16354 | pgbench_accounts_pkey |        224641024

 2017-02-06 06:01:28.251715+01 | 1486357288.25171 | pgbench_branches_pkey |            16384
 2017-02-06 06:01:28.251715+01 | 1486357288.25171 | pgbench_tellers_pkey  |            40960
 2017-02-06 06:01:28.251715+01 | 1486357288.25171 | pgbench_accounts_pkey |        224641024

 2017-02-06 06:01:29.336949+01 | 1486357289.33695 | pgbench_branches_pkey |            16384
 2017-02-06 06:01:29.336949+01 | 1486357289.33695 | pgbench_tellers_pkey  |            40960
 2017-02-06 06:01:29.336949+01 | 1486357289.33695 | pgbench_accounts_pkey |        224641024

 2017-02-06 06:01:30.410326+01 | 1486357290.41033 | pgbench_branches_pkey |            16384
 2017-02-06 06:01:30.410326+01 | 1486357290.41033 | pgbench_tellers_pkey  |            40960
 2017-02-06 06:01:30.410326+01 | 1486357290.41033 | pgbench_accounts_pkey |        224641024

 2017-02-06 06:01:31.492047+01 | 1486357291.49205 | pgbench_branches_pkey |            16384
 2017-02-06 06:01:31.492047+01 | 1486357291.49205 | pgbench_tellers_pkey  |            40960
 2017-02-06 06:01:31.492047+01 | 1486357291.49205 | pgbench_accounts_pkey |        224641024

 2017-02-06 06:01:32.576992+01 | 1486357292.57699 | pgbench_branches_pkey |            16384
 2017-02-06 06:01:32.576992+01 | 1486357292.57699 | pgbench_tellers_pkey  |            40960
 2017-02-06 06:01:32.576992+01 | 1486357292.57699 | pgbench_accounts_pkey |        224641024

 2017-02-06 06:01:33.669642+01 | 1486357293.66964 | pgbench_branches_pkey |            16384
 2017-02-06 06:01:33.669642+01 | 1486357293.66964 | pgbench_tellers_pkey  |            40960
 2017-02-06 06:01:33.669642+01 | 1486357293.66964 | pgbench_accounts_pkey |        224641024

 2017-02-06 06:01:34.750881+01 | 1486357294.75088 | pgbench_branches_pkey |            16384
 2017-02-06 06:01:34.750881+01 | 1486357294.75088 | pgbench_tellers_pkey  |            40960
 2017-02-06 06:01:34.750881+01 | 1486357294.75088 | pgbench_accounts_pkey |        224641024

 2017-02-06 06:01:35.824479+01 | 1486357295.82448 | pgbench_branches_pkey |            16384
 2017-02-06 06:01:35.824479+01 | 1486357295.82448 | pgbench_tellers_pkey  |            40960
 2017-02-06 06:01:35.824479+01 | 1486357295.82448 | pgbench_accounts_pkey |        224641024

 2017-02-06 06:01:36.90172+01 | 1486357296.90172 | pgbench_branches_pkey |            16384
 2017-02-06 06:01:36.90172+01 | 1486357296.90172 | pgbench_tellers_pkey  |            40960
 2017-02-06 06:01:36.90172+01 | 1486357296.90172 | pgbench_accounts_pkey |        224641024

 2017-02-06 06:01:37.991608+01 | 1486357297.99161 | pgbench_branches_pkey |            16384
 2017-02-06 06:01:37.991608+01 | 1486357297.99161 | pgbench_tellers_pkey  |            40960
 2017-02-06 06:01:37.991608+01 | 1486357297.99161 | pgbench_accounts_pkey |        224641024

 2017-02-06 06:01:39.063835+01 | 1486357299.06383 | pgbench_branches_pkey |            16384
 2017-02-06 06:01:39.063835+01 | 1486357299.06383 | pgbench_tellers_pkey  |            40960
 2017-02-06 06:01:39.063835+01 | 1486357299.06383 | pgbench_accounts_pkey |        224641024

 2017-02-06 06:01:40.138366+01 | 1486357300.13837 | pgbench_branches_pkey |            16384
 2017-02-06 06:01:40.138366+01 | 1486357300.13837 | pgbench_tellers_pkey  |            40960
 2017-02-06 06:01:40.138366+01 | 1486357300.13837 | pgbench_accounts_pkey |        224641024

 2017-02-06 06:01:41.217449+01 | 1486357301.21745 | pgbench_branches_pkey |            16384
 2017-02-06 06:01:41.217449+01 | 1486357301.21745 | pgbench_tellers_pkey  |            40960
 2017-02-06 06:01:41.217449+01 | 1486357301.21745 | pgbench_accounts_pkey |        224641024

 2017-02-06 06:01:42.290239+01 | 1486357302.29024 | pgbench_branches_pkey |            16384
 2017-02-06 06:01:42.290239+01 | 1486357302.29024 | pgbench_tellers_pkey  |            40960
 2017-02-06 06:01:42.290239+01 | 1486357302.29024 | pgbench_accounts_pkey |        224641024

 2017-02-06 06:01:43.367731+01 | 1486357303.36773 | pgbench_branches_pkey |            16384
 2017-02-06 06:01:43.367731+01 | 1486357303.36773 | pgbench_tellers_pkey  |            40960
 2017-02-06 06:01:43.367731+01 | 1486357303.36773 | pgbench_accounts_pkey |        224641024

 2017-02-06 06:01:44.451042+01 | 1486357304.45104 | pgbench_branches_pkey |            16384
 2017-02-06 06:01:44.451042+01 | 1486357304.45104 | pgbench_tellers_pkey  |            40960
 2017-02-06 06:01:44.451042+01 | 1486357304.45104 | pgbench_accounts_pkey |        224641024

 2017-02-06 06:01:45.53456+01 | 1486357305.53456 | pgbench_branches_pkey |            16384
 2017-02-06 06:01:45.53456+01 | 1486357305.53456 | pgbench_tellers_pkey  |            40960
 2017-02-06 06:01:45.53456+01 | 1486357305.53456 | pgbench_accounts_pkey |        224641024

 2017-02-06 06:01:46.610664+01 | 1486357306.61066 | pgbench_branches_pkey |            16384
 2017-02-06 06:01:46.610664+01 | 1486357306.61066 | pgbench_tellers_pkey  |            40960
 2017-02-06 06:01:46.610664+01 | 1486357306.61066 | pgbench_accounts_pkey |        224641024

 2017-02-06 06:01:47.69216+01 | 1486357307.69216 | pgbench_branches_pkey |            16384
 2017-02-06 06:01:47.69216+01 | 1486357307.69216 | pgbench_tellers_pkey  |            40960
 2017-02-06 06:01:47.69216+01 | 1486357307.69216 | pgbench_accounts_pkey |        224641024

 2017-02-06 06:01:48.775786+01 | 1486357308.77579 | pgbench_branches_pkey |            16384
 2017-02-06 06:01:48.775786+01 | 1486357308.77579 | pgbench_tellers_pkey  |            40960
 2017-02-06 06:01:48.775786+01 | 1486357308.77579 | pgbench_accounts_pkey |        224641024

 2017-02-06 06:01:49.853329+01 | 1486357309.85333 | pgbench_branches_pkey |            16384
 2017-02-06 06:01:49.853329+01 | 1486357309.85333 | pgbench_tellers_pkey  |            40960
 2017-02-06 06:01:49.853329+01 | 1486357309.85333 | pgbench_accounts_pkey |        224641024

 2017-02-06 06:01:50.936239+01 | 1486357310.93624 | pgbench_branches_pkey |            16384
 2017-02-06 06:01:50.936239+01 | 1486357310.93624 | pgbench_tellers_pkey  |            40960
 2017-02-06 06:01:50.936239+01 | 1486357310.93624 | pgbench_accounts_pkey |        224641024

 2017-02-06 06:01:52.01895+01 | 1486357312.01895 | pgbench_branches_pkey |            16384
 2017-02-06 06:01:52.01895+01 | 1486357312.01895 | pgbench_tellers_pkey  |            40960
 2017-02-06 06:01:52.01895+01 | 1486357312.01895 | pgbench_accounts_pkey |        224641024

 2017-02-06 06:01:53.107043+01 | 1486357313.10704 | pgbench_branches_pkey |            16384
 2017-02-06 06:01:53.107043+01 | 1486357313.10704 | pgbench_tellers_pkey  |            40960
 2017-02-06 06:01:53.107043+01 | 1486357313.10704 | pgbench_accounts_pkey |        224641024

 2017-02-06 06:01:54.200835+01 | 1486357314.20083 | pgbench_branches_pkey |            16384
 2017-02-06 06:01:54.200835+01 | 1486357314.20083 | pgbench_tellers_pkey  |            40960
 2017-02-06 06:01:54.200835+01 | 1486357314.20083 | pgbench_accounts_pkey |        224641024

 2017-02-06 06:01:55.284207+01 | 1486357315.28421 | pgbench_branches_pkey |            16384
 2017-02-06 06:01:55.284207+01 | 1486357315.28421 | pgbench_tellers_pkey  |            40960
 2017-02-06 06:01:55.284207+01 | 1486357315.28421 | pgbench_accounts_pkey |        224641024

 2017-02-06 06:01:56.358606+01 | 1486357316.35861 | pgbench_branches_pkey |            16384
 2017-02-06 06:01:56.358606+01 | 1486357316.35861 | pgbench_tellers_pkey  |            40960
 2017-02-06 06:01:56.358606+01 | 1486357316.35861 | pgbench_accounts_pkey |        224641024

 2017-02-06 06:01:57.437492+01 | 1486357317.43749 | pgbench_branches_pkey |            16384
 2017-02-06 06:01:57.437492+01 | 1486357317.43749 | pgbench_tellers_pkey  |            40960
 2017-02-06 06:01:57.437492+01 | 1486357317.43749 | pgbench_accounts_pkey |        224641024

 2017-02-06 06:01:58.520529+01 | 1486357318.52053 | pgbench_branches_pkey |            16384
 2017-02-06 06:01:58.520529+01 | 1486357318.52053 | pgbench_tellers_pkey  |            40960
 2017-02-06 06:01:58.520529+01 | 1486357318.52053 | pgbench_accounts_pkey |        224641024

 2017-02-06 06:01:59.599989+01 | 1486357319.59999 | pgbench_branches_pkey |            16384
 2017-02-06 06:01:59.599989+01 | 1486357319.59999 | pgbench_tellers_pkey  |            40960
 2017-02-06 06:01:59.599989+01 | 1486357319.59999 | pgbench_accounts_pkey |        224641024

 2017-02-06 06:02:00.681906+01 | 1486357320.68191 | pgbench_branches_pkey |            16384
 2017-02-06 06:02:00.681906+01 | 1486357320.68191 | pgbench_tellers_pkey  |            40960
 2017-02-06 06:02:00.681906+01 | 1486357320.68191 | pgbench_accounts_pkey |        224641024

 2017-02-06 06:02:01.760421+01 | 1486357321.76042 | pgbench_branches_pkey |            16384
 2017-02-06 06:02:01.760421+01 | 1486357321.76042 | pgbench_tellers_pkey  |            40960
 2017-02-06 06:02:01.760421+01 | 1486357321.76042 | pgbench_accounts_pkey |        224641024

 2017-02-06 06:02:02.842986+01 | 1486357322.84299 | pgbench_branches_pkey |            16384
 2017-02-06 06:02:02.842986+01 | 1486357322.84299 | pgbench_tellers_pkey  |            40960
 2017-02-06 06:02:02.842986+01 | 1486357322.84299 | pgbench_accounts_pkey |        224641024

 2017-02-06 06:02:03.929682+01 | 1486357323.92968 | pgbench_branches_pkey |            16384
 2017-02-06 06:02:03.929682+01 | 1486357323.92968 | pgbench_tellers_pkey  |            40960
 2017-02-06 06:02:03.929682+01 | 1486357323.92968 | pgbench_accounts_pkey |        224641024

 2017-02-06 06:02:05.015275+01 | 1486357325.01528 | pgbench_branches_pkey |            16384
 2017-02-06 06:02:05.015275+01 | 1486357325.01528 | pgbench_tellers_pkey  |            40960
 2017-02-06 06:02:05.015275+01 | 1486357325.01528 | pgbench_accounts_pkey |        224641024

 2017-02-06 06:02:06.098712+01 | 1486357326.09871 | pgbench_branches_pkey |            16384
 2017-02-06 06:02:06.098712+01 | 1486357326.09871 | pgbench_tellers_pkey  |            40960
 2017-02-06 06:02:06.098712+01 | 1486357326.09871 | pgbench_accounts_pkey |        224641024

 2017-02-06 06:02:07.179126+01 | 1486357327.17913 | pgbench_branches_pkey |            16384
 2017-02-06 06:02:07.179126+01 | 1486357327.17913 | pgbench_tellers_pkey  |            40960
 2017-02-06 06:02:07.179126+01 | 1486357327.17913 | pgbench_accounts_pkey |        224641024

 2017-02-06 06:02:08.24992+01 | 1486357328.24992 | pgbench_branches_pkey |            16384
 2017-02-06 06:02:08.24992+01 | 1486357328.24992 | pgbench_tellers_pkey  |            40960
 2017-02-06 06:02:08.24992+01 | 1486357328.24992 | pgbench_accounts_pkey |        224641024

 2017-02-06 06:02:09.319357+01 | 1486357329.31936 | pgbench_branches_pkey |            16384
 2017-02-06 06:02:09.319357+01 | 1486357329.31936 | pgbench_tellers_pkey  |            40960
 2017-02-06 06:02:09.319357+01 | 1486357329.31936 | pgbench_accounts_pkey |        224641024

 2017-02-06 06:02:10.389632+01 | 1486357330.38963 | pgbench_branches_pkey |            16384
 2017-02-06 06:02:10.389632+01 | 1486357330.38963 | pgbench_tellers_pkey  |            40960
 2017-02-06 06:02:10.389632+01 | 1486357330.38963 | pgbench_accounts_pkey |        224641024

 2017-02-06 06:02:11.469737+01 | 1486357331.46974 | pgbench_branches_pkey |            16384
 2017-02-06 06:02:11.469737+01 | 1486357331.46974 | pgbench_tellers_pkey  |            40960
 2017-02-06 06:02:11.469737+01 | 1486357331.46974 | pgbench_accounts_pkey |        224641024

 2017-02-06 06:02:12.549805+01 | 1486357332.5498 | pgbench_branches_pkey |            16384
 2017-02-06 06:02:12.549805+01 | 1486357332.5498 | pgbench_tellers_pkey  |            40960
 2017-02-06 06:02:12.549805+01 | 1486357332.5498 | pgbench_accounts_pkey |        224641024

 2017-02-06 06:02:13.624473+01 | 1486357333.62447 | pgbench_branches_pkey |            16384
 2017-02-06 06:02:13.624473+01 | 1486357333.62447 | pgbench_tellers_pkey  |            40960
 2017-02-06 06:02:13.624473+01 | 1486357333.62447 | pgbench_accounts_pkey |        224641024

 2017-02-06 06:02:14.708638+01 | 1486357334.70864 | pgbench_branches_pkey |            16384
 2017-02-06 06:02:14.708638+01 | 1486357334.70864 | pgbench_tellers_pkey  |            40960
 2017-02-06 06:02:14.708638+01 | 1486357334.70864 | pgbench_accounts_pkey |        224641024

 2017-02-06 06:02:15.793673+01 | 1486357335.79367 | pgbench_branches_pkey |            16384
 2017-02-06 06:02:15.793673+01 | 1486357335.79367 | pgbench_tellers_pkey  |            40960
 2017-02-06 06:02:15.793673+01 | 1486357335.79367 | pgbench_accounts_pkey |        224641024

 2017-02-06 06:02:16.88243+01 | 1486357336.88243 | pgbench_branches_pkey |            16384
 2017-02-06 06:02:16.88243+01 | 1486357336.88243 | pgbench_tellers_pkey  |            40960
 2017-02-06 06:02:16.88243+01 | 1486357336.88243 | pgbench_accounts_pkey |        224641024

 2017-02-06 06:02:17.958504+01 | 1486357337.9585 | pgbench_branches_pkey |            16384
 2017-02-06 06:02:17.958504+01 | 1486357337.9585 | pgbench_tellers_pkey  |            40960
 2017-02-06 06:02:17.958504+01 | 1486357337.9585 | pgbench_accounts_pkey |        224641024

 2017-02-06 06:02:19.027218+01 | 1486357339.02722 | pgbench_branches_pkey |            16384
 2017-02-06 06:02:19.027218+01 | 1486357339.02722 | pgbench_tellers_pkey  |            40960
 2017-02-06 06:02:19.027218+01 | 1486357339.02722 | pgbench_accounts_pkey |        224641024

