 2017-02-06 12:28:23.954357+01 | 1486380503.95436 | 3/1B4E110                |           12913533200

 2017-02-06 12:28:25.025097+01 | 1486380505.0251 | 3/23F91A8                |           12922622376

 2017-02-06 12:28:26.101573+01 | 1486380506.10157 | 3/2D72960                |           12932557152

 2017-02-06 12:28:27.195871+01 | 1486380507.19587 | 3/36C3210                |           12942324240

 2017-02-06 12:28:28.271956+01 | 1486380508.27196 | 3/4093DE0                |           12952616416

 2017-02-06 12:28:29.352925+01 | 1486380509.35293 | 3/4B707C0                |           12964005824

 2017-02-06 12:28:30.426954+01 | 1486380510.42695 | 3/55FC618                |           12975064600

 2017-02-06 12:28:31.499266+01 | 1486380511.49927 | 3/6057800                |           12985923584

 2017-02-06 12:28:32.579159+01 | 1486380512.57916 | 3/6B667B8                |           12997519288

 2017-02-06 12:28:33.662014+01 | 1486380513.66201 | 3/760F560                |           13008696672

 2017-02-06 12:28:34.735197+01 | 1486380514.7352 | 3/80D9EE0                |           13020012256

 2017-02-06 12:28:35.811836+01 | 1486380515.81184 | 3/8BFE0B0                |           13031694512

 2017-02-06 12:28:36.886474+01 | 1486380516.88647 | 3/978AA40                |           13043804736

 2017-02-06 12:28:37.958822+01 | 1486380517.95882 | 3/A2FE890                |           13055813776

 2017-02-06 12:28:39.033032+01 | 1486380519.03303 | 3/AE9EFE0                |           13068005344

 2017-02-06 12:28:40.105983+01 | 1486380520.10598 | 3/BA445B8                |           13080217016

 2017-02-06 12:28:41.179501+01 | 1486380521.1795 | 3/C58D788                |           13092050824

 2017-02-06 12:28:42.25272+01 | 1486380522.25272 | 3/D004940                |           13103024448

 2017-02-06 12:28:43.337163+01 | 1486380523.33716 | 3/DADAF50                |           13114388304

 2017-02-06 12:28:44.411707+01 | 1486380524.41171 | 3/E5C5008                |           13125832712

 2017-02-06 12:28:45.481999+01 | 1486380525.482 | 3/F161810                |           13138008080

 2017-02-06 12:28:46.554339+01 | 1486380526.55434 | 3/FD7A8C0                |           13150693568

 2017-02-06 12:28:47.626968+01 | 1486380527.62697 | 3/10933748               |           13162985288

 2017-02-06 12:28:48.701977+01 | 1486380528.70198 | 3/1149DC88               |           13174955144

 2017-02-06 12:28:49.774716+01 | 1486380529.77472 | 3/11FFFB08               |           13186890504

 2017-02-06 12:28:50.859865+01 | 1486380530.85986 | 3/12B3E858               |           13198682200

 2017-02-06 12:28:51.935039+01 | 1486380531.93504 | 3/13744C70               |           13211290736

 2017-02-06 12:28:53.014068+01 | 1486380533.01407 | 3/1424DC00               |           13222861824

 2017-02-06 12:28:54.092297+01 | 1486380534.0923 | 3/14E492F0               |           13235426032

 2017-02-06 12:28:55.166491+01 | 1486380535.16649 | 3/15A37368               |           13247935336

 2017-02-06 12:28:56.237297+01 | 1486380536.2373 | 3/165A7F28               |           13259931432

 2017-02-06 12:28:57.309177+01 | 1486380537.30918 | 3/170B9150               |           13271535952

 2017-02-06 12:28:58.381337+01 | 1486380538.38134 | 3/17BF8D48               |           13283331400

 2017-02-06 12:28:59.450958+01 | 1486380539.45096 | 3/1859AEB0               |           13293432496

 2017-02-06 12:29:00.525105+01 | 1486380540.5251 | 3/19125A08               |           13305534984

 2017-02-06 12:29:01.600077+01 | 1486380541.60008 | 3/19CE68B0               |           13317859504

 2017-02-06 12:29:02.679054+01 | 1486380542.67905 | 3/1A7964A0               |           13329065120

 2017-02-06 12:29:03.75271+01 | 1486380543.75271 | 3/1B17BF18               |           13339442968

 2017-02-06 12:29:04.813246+01 | 1486380544.81325 | 3/1BB7F9A0               |           13349943712

 2017-02-06 12:29:05.88817+01 | 1486380545.88817 | 3/1C5B78F0               |           13360658672

 2017-02-06 12:29:06.959229+01 | 1486380546.95923 | 3/1D053F68               |           13371785064

 2017-02-06 12:29:08.032091+01 | 1486380548.03209 | 3/1DBE94D8               |           13383931096

 2017-02-06 12:29:09.110516+01 | 1486380549.11052 | 3/1E699688               |           13395138184

 2017-02-06 12:29:10.182678+01 | 1486380550.18268 | 3/1F09EEF8               |           13405646584

 2017-02-06 12:29:11.2523+01 | 1486380551.2523 | 3/1FB234E8               |           13416674536

 2017-02-06 12:29:12.3221+01 | 1486380552.3221 | 3/20507640               |           13427045952

 2017-02-06 12:29:13.393323+01 | 1486380553.39332 | 3/2100C8B8               |           13438601400

 2017-02-06 12:29:14.467408+01 | 1486380554.46741 | 3/21B33BD8               |           13450296280

 2017-02-06 12:29:15.539378+01 | 1486380555.53938 | 3/224B1C28               |           13460249640

 2017-02-06 12:29:16.610368+01 | 1486380556.61037 | 3/22E46540               |           13470295360

 2017-02-06 12:29:17.681769+01 | 1486380557.68177 | 3/23809FA0               |           13480533920

 2017-02-06 12:29:18.755495+01 | 1486380558.7555 | 3/2422F9D0               |           13491173840

 2017-02-06 12:29:19.825529+01 | 1486380559.82553 | 3/24BFE520               |           13501457696

 2017-02-06 12:29:20.901197+01 | 1486380560.9012 | 3/255A4708               |           13511575304

 2017-02-06 12:29:21.970518+01 | 1486380561.97052 | 3/25FBE0B0               |           13522165936

 2017-02-06 12:29:23.037608+01 | 1486380563.03761 | 3/2693A8E8               |           13532113128

 2017-02-06 12:29:24.10725+01 | 1486380564.10725 | 3/2729A3E8               |           13541942248

 2017-02-06 12:29:25.180202+01 | 1486380565.1802 | 3/27B5FE48               |           13551140424

 2017-02-06 12:29:26.254492+01 | 1486380566.25449 | 3/2830AA70               |           13559179888

 2017-02-06 12:29:27.327735+01 | 1486380567.32773 | 3/28B15150               |           13567611216

 2017-02-06 12:29:28.399397+01 | 1486380568.3994 | 3/29259468               |           13575230568

 2017-02-06 12:29:29.476014+01 | 1486380569.47601 | 3/29A205F8               |           13583386104

 2017-02-06 12:29:30.545802+01 | 1486380570.5458 | 3/2A1FCB48               |           13591628616

 2017-02-06 12:29:31.616425+01 | 1486380571.61643 | 3/2A9F7848               |           13599995976

 2017-02-06 12:29:32.693262+01 | 1486380572.69326 | 3/2B15C1F8               |           13607748088

 2017-02-06 12:29:33.769589+01 | 1486380573.76959 | 3/2B8CC6A8               |           13615548072

 2017-02-06 12:29:34.841858+01 | 1486380574.84186 | 3/2C06E470               |           13623551088

 2017-02-06 12:29:35.927378+01 | 1486380575.92738 | 3/2C82B000               |           13631664128

 2017-02-06 12:29:37.00008+01 | 1486380577.00008 | 3/2CFFFB78               |           13639875448

 2017-02-06 12:29:38.074085+01 | 1486380578.07408 | 3/2D66B438               |           13646607416

 2017-02-06 12:29:39.146315+01 | 1486380579.14632 | 3/2DD05370               |           13653529456

 2017-02-06 12:29:40.223247+01 | 1486380580.22325 | 3/2E3AAF30               |           13660499760

 2017-02-06 12:29:41.297079+01 | 1486380581.29708 | 3/2E9E20E0               |           13667016928

 2017-02-06 12:29:42.373019+01 | 1486380582.37302 | 3/2F261680               |           13675927168

 2017-02-06 12:29:43.442708+01 | 1486380583.44271 | 3/2FA17800               |           13684013056

 2017-02-06 12:29:44.517068+01 | 1486380584.51707 | 3/302BEA68               |           13693086312

 2017-02-06 12:29:45.588517+01 | 1486380585.58852 | 3/30ACFBE0               |           13701544928

 2017-02-06 12:29:46.657419+01 | 1486380586.65742 | 3/311874A0               |           13708588192

 2017-02-06 12:29:47.728436+01 | 1486380587.72844 | 3/31A64800               |           13717882880

 2017-02-06 12:29:48.806227+01 | 1486380588.80623 | 3/3232FD20               |           13727104288

 2017-02-06 12:29:49.870733+01 | 1486380589.87073 | 3/32B761C0               |           13735780800

 2017-02-06 12:29:50.947695+01 | 1486380590.9477 | 3/33434E38               |           13744950840

 2017-02-06 12:29:52.027722+01 | 1486380592.02772 | 3/33D9AA10               |           13754804752

 2017-02-06 12:29:53.107742+01 | 1486380593.10774 | 3/346537C8               |           13763950536

 2017-02-06 12:29:54.181409+01 | 1486380594.18141 | 3/34F88B88               |           13773605768

 2017-02-06 12:29:55.253236+01 | 1486380595.25324 | 3/357BCBF0               |           13782207472

 2017-02-06 12:29:56.323414+01 | 1486380596.32341 | 3/35FCD878               |           13790664824

 2017-02-06 12:29:57.387565+01 | 1486380597.38756 | 3/366AD538               |           13797872952

 2017-02-06 12:29:58.466759+01 | 1486380598.46676 | 3/36CF8D78               |           13804473720

 2017-02-06 12:29:59.542108+01 | 1486380599.54211 | 3/3744BE48               |           13812153928

 2017-02-06 12:30:00.622018+01 | 1486380600.62202 | 3/37CAF0B8               |           13820948664

 2017-02-06 12:30:01.696837+01 | 1486380601.69684 | 3/38515CE8               |           13829758184

 2017-02-06 12:30:02.781789+01 | 1486380602.78179 | 3/38D43760               |           13838333792

 2017-02-06 12:30:03.859329+01 | 1486380603.85933 | 3/39633898               |           13847705752

 2017-02-06 12:30:04.929977+01 | 1486380604.92998 | 3/39D1D7F0               |           13854955504

 2017-02-06 12:30:05.998388+01 | 1486380605.99839 | 3/3A39A2C0               |           13861757632

 2017-02-06 12:30:07.076768+01 | 1486380607.07677 | 3/3ABA4440               |           13870187584

 2017-02-06 12:30:08.147911+01 | 1486380608.14791 | 3/3B35E710               |           13878290192

 2017-02-06 12:30:09.219301+01 | 1486380609.2193 | 3/3BC415F8               |           13887608312

 2017-02-06 12:30:10.289759+01 | 1486380610.28976 | 3/3C4CA8D0               |           13896558800

 2017-02-06 12:30:11.371219+01 | 1486380611.37122 | 3/3CD8BE30               |           13905739312

 2017-02-06 12:30:12.454715+01 | 1486380612.45472 | 3/3D4FAE98               |           13913534104

 2017-02-06 12:30:13.532004+01 | 1486380613.532 | 3/3DCB60A8               |           13921640616

 2017-02-06 12:30:14.606423+01 | 1486380614.60642 | 3/3E36B550               |           13928674640

 2017-02-06 12:30:15.678558+01 | 1486380615.67856 | 3/3EB64EE0               |           13937037024

 2017-02-06 12:30:16.74853+01 | 1486380616.74853 | 3/3F1B5FD0               |           13943660496

 2017-02-06 12:30:17.826754+01 | 1486380617.82675 | 3/3F8E57E8               |           13951195112

 2017-02-06 12:30:18.909207+01 | 1486380618.90921 | 3/4017E408               |           13960209416

 2017-02-06 12:30:19.98332+01 | 1486380619.98332 | 3/40A054F0               |           13969151216

 2017-02-06 12:30:21.055265+01 | 1486380621.05526 | 3/4120A7C8               |           13977561032

 2017-02-06 12:30:22.131697+01 | 1486380622.1317 | 3/41A6EA58               |           13986359896

 2017-02-06 12:30:23.205191+01 | 1486380623.20519 | 3/4216D3B8               |           13993694136

 2017-02-06 12:30:24.281085+01 | 1486380624.28109 | 3/428A9798               |           14001280920

 2017-02-06 12:30:25.358931+01 | 1486380625.35893 | 3/42FF8498               |           14008943768

 2017-02-06 12:30:26.437726+01 | 1486380626.43773 | 3/43699390               |           14015894416

 2017-02-06 12:30:27.518294+01 | 1486380627.51829 | 3/43CAEFD0               |           14022275024

 2017-02-06 12:30:28.602412+01 | 1486380628.60241 | 3/4432AC38               |           14029073464

 2017-02-06 12:30:29.679256+01 | 1486380629.67926 | 3/44A132F0               |           14036316912

 2017-02-06 12:30:30.760386+01 | 1486380630.76039 | 3/45080378               |           14043054968

 2017-02-06 12:30:31.83813+01 | 1486380631.83813 | 3/4570F440               |           14049932352

 2017-02-06 12:30:32.906968+01 | 1486380632.90697 | 3/45D6A378               |           14056596344

 2017-02-06 12:30:33.975525+01 | 1486380633.97552 | 3/463B8700               |           14063208192

 2017-02-06 12:30:35.045548+01 | 1486380635.04555 | 3/469DF880               |           14069659776

 2017-02-06 12:30:36.114299+01 | 1486380636.1143 | 3/46FFF8C0               |           14076082368

 2017-02-06 12:30:37.194013+01 | 1486380637.19401 | 3/4771FA88               |           14083553928

 2017-02-06 12:30:38.268907+01 | 1486380638.26891 | 3/47E95C48               |           14091377736

 2017-02-06 12:30:39.339554+01 | 1486380639.33955 | 3/484C9AE8               |           14097881832

 2017-02-06 12:30:40.418888+01 | 1486380640.41889 | 3/48BD6D40               |           14105275712

 2017-02-06 12:30:41.494869+01 | 1486380641.49487 | 3/49185988               |           14111234440

 2017-02-06 12:30:42.569181+01 | 1486380642.56918 | 3/49852C00               |           14118366208

 2017-02-06 12:30:43.64853+01 | 1486380643.64853 | 3/49FFFE88               |           14126415496

 2017-02-06 12:30:44.737518+01 | 1486380644.73752 | 3/4A784020               |           14134296608

 2017-02-06 12:30:45.811393+01 | 1486380645.81139 | 3/4B020C08               |           14143327240

 2017-02-06 12:30:46.88396+01 | 1486380646.88396 | 3/4B91AC58               |           14152739928

 2017-02-06 12:30:47.955707+01 | 1486380647.95571 | 3/4C1A3EB8               |           14161690296

 2017-02-06 12:30:49.026692+01 | 1486380649.02669 | 3/4CA17B68               |           14170553192

 2017-02-06 12:30:50.105448+01 | 1486380650.10545 | 3/4D214C08               |           14178929672

 2017-02-06 12:30:51.181867+01 | 1486380651.18187 | 3/4D967480               |           14186607744

 2017-02-06 12:30:52.260486+01 | 1486380652.26049 | 3/4DF9BA08               |           14193113608

 2017-02-06 12:30:53.331373+01 | 1486380653.33137 | 3/4E68F270               |           14200402544

 2017-02-06 12:30:54.412294+01 | 1486380654.41229 | 3/4ECD9C40               |           14206999616

 2017-02-06 12:30:55.49021+01 | 1486380655.49021 | 3/4F28C5C0               |           14212974016

 2017-02-06 12:30:56.5744+01 | 1486380656.5744 | 3/4F93AB90               |           14219979664

 2017-02-06 12:30:57.652782+01 | 1486380657.65278 | 3/4FEBCB08               |           14225754888

 2017-02-06 12:30:58.731253+01 | 1486380658.73125 | 3/5068EFD8               |           14233956312

 2017-02-06 12:30:59.800315+01 | 1486380659.80031 | 3/50C868E0               |           14240213216

 2017-02-06 12:31:00.874624+01 | 1486380660.87462 | 3/512F4060               |           14246953056

 2017-02-06 12:31:01.948417+01 | 1486380661.94842 | 3/518661A8               |           14252663208

 2017-02-06 12:31:03.032906+01 | 1486380663.03291 | 3/51E577B0               |           14258894768

 2017-02-06 12:31:04.119722+01 | 1486380664.11972 | 3/527DE138               |           14268883256

 2017-02-06 12:31:05.196339+01 | 1486380665.19634 | 3/5320FB30               |           14279572272

 2017-02-06 12:31:06.270309+01 | 1486380666.27031 | 3/53B934D8               |           14289548504

 2017-02-06 12:31:07.340001+01 | 1486380667.34 | 3/54326C98               |           14297492632

 2017-02-06 12:31:08.415827+01 | 1486380668.41583 | 3/54B8C100               |           14306296064

 2017-02-06 12:31:09.501466+01 | 1486380669.50147 | 3/552E7D10               |           14314011920

 2017-02-06 12:31:10.575448+01 | 1486380670.57545 | 3/559E7DA0               |           14321352096

 2017-02-06 12:31:11.649179+01 | 1486380671.64918 | 3/560B1298               |           14328468120

 2017-02-06 12:31:12.724902+01 | 1486380672.7249 | 3/56898D50               |           14336757072

 2017-02-06 12:31:13.799155+01 | 1486380673.79915 | 3/57010818               |           14344587288

 2017-02-06 12:31:14.876936+01 | 1486380674.87694 | 3/577CB5F8               |           14352692728

 2017-02-06 12:31:15.949667+01 | 1486380675.94967 | 3/57F80A08               |           14360775176

 2017-02-06 12:31:17.023044+01 | 1486380677.02304 | 3/5858CBD8               |           14367116248

 2017-02-06 12:31:18.099156+01 | 1486380678.09916 | 3/58B86BB0               |           14373383088

 2017-02-06 12:31:19.176138+01 | 1486380679.17614 | 3/5913DCA0               |           14379375776

 2017-02-06 12:31:20.255123+01 | 1486380680.25512 | 3/59939BB0               |           14387747760

 2017-02-06 12:31:21.327248+01 | 1486380681.32725 | 3/5A0F25D0               |           14395844048

 2017-02-06 12:31:22.399735+01 | 1486380682.39973 | 3/5A8FDC28               |           14404279336

 2017-02-06 12:31:23.474771+01 | 1486380683.47477 | 3/5AF90640               |           14411171392

 2017-02-06 12:31:24.548667+01 | 1486380684.54867 | 3/5B615268               |           14418006632

 2017-02-06 12:31:25.62593+01 | 1486380685.62593 | 3/5BC62DF8               |           14424616440

 2017-02-06 12:31:26.698202+01 | 1486380686.6982 | 3/5C37D520               |           14432064800

 2017-02-06 12:31:27.769472+01 | 1486380687.76947 | 3/5CA7AC98               |           14439394456

 2017-02-06 12:31:28.844472+01 | 1486380688.84447 | 3/5D1B5D70               |           14446976368

 2017-02-06 12:31:29.91999+01 | 1486380689.91999 | 3/5D977E48               |           14455111240

 2017-02-06 12:31:30.991591+01 | 1486380690.99159 | 3/5E1A2460               |           14463673440

 2017-02-06 12:31:32.070155+01 | 1486380692.07015 | 3/5E8EB5D8               |           14471314136

 2017-02-06 12:31:33.148497+01 | 1486380693.1485 | 3/5F01D3F8               |           14478857208

 2017-02-06 12:31:34.230673+01 | 1486380694.23067 | 3/5F75CDB0               |           14486457776

 2017-02-06 12:31:35.307401+01 | 1486380695.3074 | 3/5FE79540               |           14493914432

 2017-02-06 12:31:36.382719+01 | 1486380696.38272 | 3/6045E208               |           14500094472

 2017-02-06 12:31:37.470728+01 | 1486380697.47073 | 3/60C32F18               |           14508306200

 2017-02-06 12:31:38.539797+01 | 1486380698.5398 | 3/6143AF50               |           14516727632

 2017-02-06 12:31:39.608057+01 | 1486380699.60806 | 3/61C03438               |           14524888120

 2017-02-06 12:31:40.681626+01 | 1486380700.68163 | 3/623730D0               |           14532686032

 2017-02-06 12:31:41.750526+01 | 1486380701.75053 | 3/627DBA80               |           14537308800

 2017-02-06 12:31:42.824481+01 | 1486380702.82448 | 3/63050078               |           14546174072

 2017-02-06 12:31:43.902272+01 | 1486380703.90227 | 3/637F6858               |           14554196056

 2017-02-06 12:31:44.972384+01 | 1486380704.97238 | 3/63DBF758               |           14560261976

 2017-02-06 12:31:46.048698+01 | 1486380706.0487 | 3/64406CA8               |           14566845608

 2017-02-06 12:31:47.133909+01 | 1486380707.13391 | 3/64C49A80               |           14575508096

 2017-02-06 12:31:48.215097+01 | 1486380708.2151 | 3/65449FD8               |           14583898072

 2017-02-06 12:31:49.288872+01 | 1486380709.28887 | 3/65C09718               |           14592022296

 2017-02-06 12:31:50.362073+01 | 1486380710.36207 | 3/662325A0               |           14598481312

 2017-02-06 12:31:51.435164+01 | 1486380711.43516 | 3/668043D0               |           14604583888

 2017-02-06 12:31:52.512185+01 | 1486380712.51219 | 3/66F1FFC8               |           14612037576

 2017-02-06 12:31:53.58421+01 | 1486380713.58421 | 3/67449570               |           14617449840

 2017-02-06 12:31:54.660261+01 | 1486380714.66026 | 3/67AE7920               |           14624389408

 2017-02-06 12:31:55.746832+01 | 1486380715.74683 | 3/68248F40               |           14632128320

 2017-02-06 12:31:56.823017+01 | 1486380716.82302 | 3/68934160               |           14639382880

 2017-02-06 12:31:57.89961+01 | 1486380717.89961 | 3/68E8C5E0               |           14644987360

 2017-02-06 12:31:58.980683+01 | 1486380718.98068 | 3/69486068               |           14651252840

 2017-02-06 12:32:00.059115+01 | 1486380720.05911 | 3/69C51CF8               |           14659427576

 2017-02-06 12:32:01.147126+01 | 1486380721.14713 | 3/6A402320               |           14667490080

 2017-02-06 12:32:02.223635+01 | 1486380722.22363 | 3/6ABF5BC8               |           14675827656

 2017-02-06 12:32:03.29504+01 | 1486380723.29504 | 3/6B3858C8               |           14683756744

 2017-02-06 12:32:04.368707+01 | 1486380724.36871 | 3/6BC63848               |           14693054536

 2017-02-06 12:32:05.439754+01 | 1486380725.43975 | 3/6C3C39D0               |           14700788176

 2017-02-06 12:32:06.514163+01 | 1486380726.51416 | 3/6CC48268               |           14709719656

 2017-02-06 12:32:07.594672+01 | 1486380727.59467 | 3/6D5D1008               |           14719717384

 2017-02-06 12:32:08.666406+01 | 1486380728.66641 | 3/6DFAADC8               |           14730046920

 2017-02-06 12:32:09.734217+01 | 1486380729.73422 | 3/6E887BF0               |           14739340272

 2017-02-06 12:32:10.805209+01 | 1486380730.80521 | 3/6F0771A0               |           14747660704

 2017-02-06 12:32:11.886193+01 | 1486380731.88619 | 3/6F8DB818               |           14756460568

 2017-02-06 12:32:12.952674+01 | 1486380732.95267 | 3/6FFFF770               |           14763947888

 2017-02-06 12:32:14.017387+01 | 1486380734.01739 | 3/70622490               |           14770381968

 2017-02-06 12:32:15.100644+01 | 1486380735.10064 | 3/70BC8F60               |           14776307552

 2017-02-06 12:32:16.177785+01 | 1486380736.17778 | 3/712B1410               |           14783550480

 2017-02-06 12:32:17.255367+01 | 1486380737.25537 | 3/719CA610               |           14790993424

 2017-02-06 12:32:18.334184+01 | 1486380738.33418 | 3/721C8B88               |           14799375240

 2017-02-06 12:32:19.42716+01 | 1486380739.42716 | 3/72A17558               |           14808085848

 2017-02-06 12:32:20.501391+01 | 1486380740.50139 | 3/73215B30               |           14816467760

 2017-02-06 12:32:21.578202+01 | 1486380741.5782 | 3/73939BE8               |           14823955432

 2017-02-06 12:32:22.659418+01 | 1486380742.65942 | 3/73F6DD20               |           14830460192

 2017-02-06 12:32:23.733204+01 | 1486380743.7332 | 3/7458BB58               |           14836874072

 2017-02-06 12:32:24.800027+01 | 1486380744.80003 | 3/74B530C8               |           14842933448

 2017-02-06 12:32:25.879974+01 | 1486380745.87997 | 3/7537F4E0               |           14851503328

 2017-02-06 12:32:26.951605+01 | 1486380746.95161 | 3/75BBD5C0               |           14860146112

 2017-02-06 12:32:28.024895+01 | 1486380748.02489 | 3/763BFE98               |           14868545176

 2017-02-06 12:32:29.099656+01 | 1486380749.09966 | 3/76C594D8               |           14877562072

 2017-02-06 12:32:30.173877+01 | 1486380750.17388 | 3/77354610               |           14884881936

 2017-02-06 12:32:31.248047+01 | 1486380751.24805 | 3/77919D80               |           14890933632

 2017-02-06 12:32:32.321742+01 | 1486380752.32174 | 3/780028A0               |           14898178208

 2017-02-06 12:32:33.412271+01 | 1486380753.41227 | 3/7864D5E8               |           14904776168

 2017-02-06 12:32:34.492164+01 | 1486380754.49216 | 3/78E1F5A0               |           14912976288

 2017-02-06 12:32:35.568648+01 | 1486380755.56865 | 3/795D3B80               |           14921055104

 2017-02-06 12:32:36.643704+01 | 1486380756.6437 | 3/79C2FB38               |           14927723320

 2017-02-06 12:32:37.721326+01 | 1486380757.72133 | 3/7A22A780               |           14933993344

 2017-02-06 12:32:38.792916+01 | 1486380758.79292 | 3/7A8539C0               |           14940453312

 2017-02-06 12:32:39.869187+01 | 1486380759.86919 | 3/7AF25998               |           14947604888

 2017-02-06 12:32:40.936014+01 | 1486380760.93601 | 3/7B3DCDB0               |           14952549808

 2017-02-06 12:32:42.013142+01 | 1486380762.01314 | 3/7B9E5ED0               |           14958878416

 2017-02-06 12:32:43.096152+01 | 1486380763.09615 | 3/7C0050D8               |           14965297368

 2017-02-06 12:32:44.179083+01 | 1486380764.17908 | 3/7C64CE38               |           14971883064

 2017-02-06 12:32:45.255728+01 | 1486380765.25573 | 3/7CE53368               |           14980297576

 2017-02-06 12:32:46.328079+01 | 1486380766.32808 | 3/7D645928               |           14988630312

 2017-02-06 12:32:47.398694+01 | 1486380767.39869 | 3/7DDE0E48               |           14996606536

 2017-02-06 12:32:48.471603+01 | 1486380768.4716 | 3/7E3D9760               |           15002867552

 2017-02-06 12:32:49.556239+01 | 1486380769.55624 | 3/7EA55C90               |           15009668240

 2017-02-06 12:32:50.627141+01 | 1486380770.62714 | 3/7F1A7610               |           15017342480

 2017-02-06 12:32:51.704552+01 | 1486380771.70455 | 3/7F9B9278               |           15025803896

 2017-02-06 12:32:52.778935+01 | 1486380772.77893 | 3/8013AFA0               |           15033675680

 2017-02-06 12:32:53.852454+01 | 1486380773.85245 | 3/809F4330               |           15042822960

 2017-02-06 12:32:54.925542+01 | 1486380774.92554 | 3/811E66B8               |           15051155128

 2017-02-06 12:32:56.000607+01 | 1486380776.00061 | 3/818D4AD0               |           15058422480

 2017-02-06 12:32:57.089929+01 | 1486380777.08993 | 3/81F82680               |           15065425536

 2017-02-06 12:32:58.166474+01 | 1486380778.16647 | 3/825EECD0               |           15072160976

 2017-02-06 12:32:59.236291+01 | 1486380779.23629 | 3/82D3F918               |           15079831832

 2017-02-06 12:33:00.314743+01 | 1486380780.31474 | 3/834D6718               |           15087789848

 2017-02-06 12:33:01.385403+01 | 1486380781.3854 | 3/83C02F80               |           15095312256

 2017-02-06 12:33:02.456659+01 | 1486380782.45666 | 3/842CBD18               |           15102426392

 2017-02-06 12:33:03.523243+01 | 1486380783.52324 | 3/8498BDF0               |           15109504496

 2017-02-06 12:33:04.58138+01 | 1486380784.58138 | 3/85002A90               |           15116282512

 2017-02-06 12:33:05.669286+01 | 1486380785.66929 | 3/85909AB8               |           15125748408

 2017-02-06 12:33:06.754073+01 | 1486380786.75407 | 3/86115AE8               |           15134186216

 2017-02-06 12:33:07.825304+01 | 1486380787.8253 | 3/869808F0               |           15143012592

 2017-02-06 12:33:08.894875+01 | 1486380788.89488 | 3/87149F90               |           15151177616

 2017-02-06 12:33:09.966457+01 | 1486380789.96646 | 3/878F2C08               |           15159208968

 2017-02-06 12:33:11.040096+01 | 1486380791.0401 | 3/88246138               |           15168987448

 2017-02-06 12:33:12.122519+01 | 1486380792.12252 | 3/888BD460               |           15175767136

 2017-02-06 12:33:13.208877+01 | 1486380793.20888 | 3/88FD7F40               |           15183216448

 2017-02-06 12:33:14.274165+01 | 1486380794.27416 | 3/895C8860               |           15189444704

 2017-02-06 12:33:15.347138+01 | 1486380795.34714 | 3/89C78DB8               |           15196458424

 2017-02-06 12:33:16.420592+01 | 1486380796.42059 | 3/8A3C6198               |           15204114840

 2017-02-06 12:33:17.48987+01 | 1486380797.48987 | 3/8AAAF3F8               |           15211361272

 2017-02-06 12:33:18.56291+01 | 1486380798.56291 | 3/8B08BBB8               |           15217507256

 2017-02-06 12:33:19.639829+01 | 1486380799.63983 | 3/8B88FE20               |           15225912864

 2017-02-06 12:33:20.71272+01 | 1486380800.71272 | 3/8C00B478               |           15233758328

 2017-02-06 12:33:21.780019+01 | 1486380801.78002 | 3/8C773568               |           15241524584

 2017-02-06 12:33:22.847261+01 | 1486380802.84726 | 3/8CE621F0               |           15248794096

 2017-02-06 12:33:23.921153+01 | 1486380803.92115 | 3/8D4C8400               |           15255503872

 2017-02-06 12:33:24.993632+01 | 1486380804.99363 | 3/8DA518E8               |           15261309160

 2017-02-06 12:33:26.073754+01 | 1486380806.07375 | 3/8E0B1040               |           15267991616

 2017-02-06 12:33:27.146704+01 | 1486380807.1467 | 3/8E873F78               |           15276130168

 2017-02-06 12:33:28.223835+01 | 1486380808.22383 | 3/8EF71C70               |           15283461232

 2017-02-06 12:33:29.29428+01 | 1486380809.29428 | 3/8F5A7558               |           15289972056

 2017-02-06 12:33:30.369805+01 | 1486380810.36981 | 3/8FCE1000               |           15297548288

 2017-02-06 12:33:31.441247+01 | 1486380811.44125 | 3/9025E8D8               |           15303305432

 2017-02-06 12:33:32.516367+01 | 1486380812.51637 | 3/908BA490               |           15309972624

 2017-02-06 12:33:33.589625+01 | 1486380813.58962 | 3/90F78610               |           15317042704

 2017-02-06 12:33:34.659987+01 | 1486380814.65999 | 3/91492368               |           15322391400

 2017-02-06 12:33:35.752885+01 | 1486380815.75289 | 3/91B759F8               |           15329614328

 2017-02-06 12:33:36.833772+01 | 1486380816.83377 | 3/92250DF0               |           15336803824

 2017-02-06 12:33:37.9088+01 | 1486380817.9088 | 3/928D26D0               |           15343625936

 2017-02-06 12:33:38.987374+01 | 1486380818.98737 | 3/92FFFFF0               |           15351152624

 2017-02-06 12:33:40.070599+01 | 1486380820.0706 | 3/935E2F68               |           15357325160

 2017-02-06 12:33:41.143805+01 | 1486380821.14381 | 3/93D09D68               |           15364824424

 2017-02-06 12:33:42.215502+01 | 1486380822.2155 | 3/94394500               |           15371683072

 2017-02-06 12:33:43.283675+01 | 1486380823.28367 | 3/949D17F8               |           15378225144

 2017-02-06 12:33:44.354974+01 | 1486380824.35497 | 3/9500AA50               |           15384750672

 2017-02-06 12:33:45.4445+01 | 1486380825.4445 | 3/95707190               |           15392076176

 2017-02-06 12:33:46.517238+01 | 1486380826.51724 | 3/95F8A920               |           15401003296

 2017-02-06 12:33:47.58697+01 | 1486380827.58697 | 3/96715798               |           15408912280

 2017-02-06 12:33:48.664543+01 | 1486380828.66454 | 3/96F567B0               |           15417567152

 2017-02-06 12:33:49.738588+01 | 1486380829.73859 | 3/974FB980               |           15423486336

 2017-02-06 12:33:50.819615+01 | 1486380830.81961 | 3/97B0C308               |           15429845768

 2017-02-06 12:33:51.892143+01 | 1486380831.89214 | 3/981B6588               |           15436834184

 2017-02-06 12:33:52.965435+01 | 1486380832.96544 | 3/9875FDB0               |           15442771376

 2017-02-06 12:33:54.043925+01 | 1486380834.04393 | 3/98FC8938               |           15451588920

 2017-02-06 12:33:55.11217+01 | 1486380835.11217 | 3/997DD978               |           15460063608

 2017-02-06 12:33:56.184147+01 | 1486380836.18415 | 3/99FFF970               |           15468591472

 2017-02-06 12:33:57.256702+01 | 1486380837.2567 | 3/9A835268               |           15477199464

 2017-02-06 12:33:58.331649+01 | 1486380838.33165 | 3/9AFFFCC8               |           15485369544

 2017-02-06 12:33:59.397403+01 | 1486380839.3974 | 3/9B767A28               |           15493134888

 2017-02-06 12:34:00.47116+01 | 1486380840.47116 | 3/9BD72A10               |           15499471376

 2017-02-06 12:34:01.543742+01 | 1486380841.54374 | 3/9C4D2E10               |           15507205648

 2017-02-06 12:34:02.614567+01 | 1486380842.61457 | 3/9CCC1670               |           15515522672

 2017-02-06 12:34:03.687336+01 | 1486380843.68734 | 3/9D4FE1B8               |           15524159928

 2017-02-06 12:34:04.750694+01 | 1486380844.75069 | 3/9DE35578               |           15533823352

 2017-02-06 12:34:05.8223+01 | 1486380845.8223 | 3/9E7B5FC0               |           15543787456

 2017-02-06 12:34:06.896353+01 | 1486380846.89635 | 3/9F0D38A8               |           15553345704

 2017-02-06 12:34:07.972752+01 | 1486380847.97275 | 3/9F84B7A8               |           15561177000

 2017-02-06 12:34:09.043359+01 | 1486380849.04336 | 3/A004C858               |           15569569880

 2017-02-06 12:34:10.119016+01 | 1486380850.11902 | 3/A090E9E8               |           15578753512

 2017-02-06 12:34:11.183563+01 | 1486380851.18356 | 3/A125EA90               |           15588518544

 2017-02-06 12:34:12.256979+01 | 1486380852.25698 | 3/A1CCF758               |           15599466328

 2017-02-06 12:34:13.335112+01 | 1486380853.33511 | 3/A2655DA0               |           15609453984

 2017-02-06 12:34:14.404274+01 | 1486380854.40427 | 3/A2E9AF80               |           15618125696

 2017-02-06 12:34:15.471421+01 | 1486380855.47142 | 3/A354B2F8               |           15625138936

 2017-02-06 12:34:16.548561+01 | 1486380856.54856 | 3/A3B5BB88               |           15631498120

 2017-02-06 12:34:17.621901+01 | 1486380857.6219 | 3/A42E0BB0               |           15639382960

 2017-02-06 12:34:18.695067+01 | 1486380858.69507 | 3/A4A34920               |           15647066400

 2017-02-06 12:34:19.763542+01 | 1486380859.76354 | 3/A50B2860               |           15653873760

 2017-02-06 12:34:20.837209+01 | 1486380860.83721 | 3/A58B4B28               |           15662271272

 2017-02-06 12:34:21.912477+01 | 1486380861.91248 | 3/A60B4628               |           15670658600

 2017-02-06 12:34:22.98684+01 | 1486380862.98684 | 3/A68424E8               |           15678579944

 2017-02-06 12:34:24.059614+01 | 1486380864.05961 | 3/A6F6BF40               |           15686090560

 2017-02-06 12:34:25.134168+01 | 1486380865.13417 | 3/A7351A98               |           15690177176

 2017-02-06 12:34:26.202735+01 | 1486380866.20273 | 3/A7BDB630               |           15699129904

 2017-02-06 12:34:27.279094+01 | 1486380867.27909 | 3/A83A8E40               |           15707311680

 2017-02-06 12:34:28.34887+01 | 1486380868.34887 | 3/A8AE4910               |           15714896144

 2017-02-06 12:34:29.436741+01 | 1486380869.43674 | 3/A93576D0               |           15723755216

 2017-02-06 12:34:30.5007+01 | 1486380870.5007 | 3/A997C810               |           15730198544

 2017-02-06 12:34:31.577821+01 | 1486380871.57782 | 3/AA0475C0               |           15737320896

 2017-02-06 12:34:32.664503+01 | 1486380872.6645 | 3/AA72DB48               |           15744555848

 2017-02-06 12:34:33.726454+01 | 1486380873.72645 | 3/AAE75FA8               |           15752191912

 2017-02-06 12:34:34.794946+01 | 1486380874.79495 | 3/AB5DF130               |           15759962416

 2017-02-06 12:34:35.875015+01 | 1486380875.87502 | 3/ABDB4F40               |           15768178496

 2017-02-06 12:34:36.956335+01 | 1486380876.95634 | 3/AC5582D8               |           15776187096

 2017-02-06 12:34:38.035006+01 | 1486380878.03501 | 3/ACE1FEA0               |           15785393824

 2017-02-06 12:34:39.109119+01 | 1486380879.10912 | 3/AD61CFF8               |           15793770488

 2017-02-06 12:34:40.180024+01 | 1486380880.18002 | 3/ADEA95B8               |           15802734008

 2017-02-06 12:34:41.254729+01 | 1486380881.25473 | 3/AE6C19E8               |           15811221992

 2017-02-06 12:34:42.329983+01 | 1486380882.32998 | 3/AEEE2A80               |           15819745920

 2017-02-06 12:34:43.409045+01 | 1486380883.40904 | 3/AF719960               |           15828359520

 2017-02-06 12:34:44.477654+01 | 1486380884.47765 | 3/AFEA6AC0               |           15836277440

 2017-02-06 12:34:45.547251+01 | 1486380885.54725 | 3/B06190F8               |           15844086008

 2017-02-06 12:34:46.623575+01 | 1486380886.62357 | 3/B0DA1D60               |           15851986272

 2017-02-06 12:34:47.698085+01 | 1486380887.69809 | 3/B141D1D0               |           15858782672

 2017-02-06 12:34:48.772109+01 | 1486380888.77211 | 3/B1BB15D8               |           15866729944

 2017-02-06 12:34:49.848015+01 | 1486380889.84802 | 3/B23179E8               |           15874488808

 2017-02-06 12:34:50.920828+01 | 1486380890.92083 | 3/B29EA590               |           15881643408

 2017-02-06 12:34:51.998116+01 | 1486380891.99812 | 3/B312B910               |           15889250576

 2017-02-06 12:34:53.075383+01 | 1486380893.07538 | 3/B3966E48               |           15897882184

 2017-02-06 12:34:54.143596+01 | 1486380894.1436 | 3/B41B83D8               |           15906603992

 2017-02-06 12:34:55.216384+01 | 1486380895.21638 | 3/B496B208               |           15914676744

 2017-02-06 12:34:56.288568+01 | 1486380896.28857 | 3/B51E9480               |           15923582080

 2017-02-06 12:34:57.363131+01 | 1486380897.36313 | 3/B5A9A2C8               |           15932695240

 2017-02-06 12:34:58.442051+01 | 1486380898.44205 | 3/B6292368               |           15941051240

 2017-02-06 12:34:59.524486+01 | 1486380899.52449 | 3/B6AB63C0               |           15949587392

 2017-02-06 12:35:00.604413+01 | 1486380900.60441 | 3/B721EAC8               |           15957355208

 2017-02-06 12:35:01.679774+01 | 1486380901.67977 | 3/B7A950F8               |           15966228728

 2017-02-06 12:35:02.750493+01 | 1486380902.75049 | 3/B82C4360               |           15974810464

 2017-02-06 12:35:03.827816+01 | 1486380903.82782 | 3/B8B9A3D8               |           15984075736

 2017-02-06 12:35:04.89136+01 | 1486380904.89136 | 3/B9344438               |           15992112184

 2017-02-06 12:35:05.959654+01 | 1486380905.95965 | 3/B9B1DF50               |           16000343888

 2017-02-06 12:35:07.028289+01 | 1486380907.02829 | 3/BA411E38               |           16009731640

 2017-02-06 12:35:08.103157+01 | 1486380908.10316 | 3/BACCBFA0               |           16018882464

 2017-02-06 12:35:09.180774+01 | 1486380909.18077 | 3/BB53DBB8               |           16027737016

 2017-02-06 12:35:10.257596+01 | 1486380910.2576 | 3/BBDEE360               |           16036848480

 2017-02-06 12:35:11.331973+01 | 1486380911.33197 | 3/BC5D1470               |           16045118576

 2017-02-06 12:35:12.40857+01 | 1486380912.40857 | 3/BCF6F780               |           16055203712

 2017-02-06 12:35:13.481376+01 | 1486380913.48138 | 3/BD872130               |           16064651568

 2017-02-06 12:35:14.564127+01 | 1486380914.56413 | 3/BE00C6D0               |           16072623824

 2017-02-06 12:35:15.651924+01 | 1486380915.65192 | 3/BE7A7E78               |           16080600696

 2017-02-06 12:35:16.726688+01 | 1486380916.72669 | 3/BEE78498               |           16087745688

 2017-02-06 12:35:17.795155+01 | 1486380917.79516 | 3/BF4FFE68               |           16094592616

 2017-02-06 12:35:18.870268+01 | 1486380918.87027 | 3/BFC273E0               |           16102093792

 2017-02-06 12:35:19.9414+01 | 1486380919.9414 | 3/C0344968               |           16109554024

 2017-02-06 12:35:21.007717+01 | 1486380921.00772 | 3/C0A1D2D8               |           16116732632

 2017-02-06 12:35:22.079024+01 | 1486380922.07902 | 3/C111F138               |           16124080440

 2017-02-06 12:35:23.15139+01 | 1486380923.15139 | 3/C1820110               |           16131424528

 2017-02-06 12:35:24.221401+01 | 1486380924.2214 | 3/C1E6DE80               |           16138034816

 2017-02-06 12:35:25.293113+01 | 1486380925.29311 | 3/C255C188               |           16145301896

 2017-02-06 12:35:26.365817+01 | 1486380926.36582 | 3/C2D3E4D8               |           16153568472

 2017-02-06 12:35:27.44324+01 | 1486380927.44324 | 3/C353CA68               |           16161950312

 2017-02-06 12:35:28.513708+01 | 1486380928.51371 | 3/C3D58A30               |           16170453552

 2017-02-06 12:35:29.593134+01 | 1486380929.59313 | 3/C44F1E88               |           16178421384

 2017-02-06 12:35:30.6726+01 | 1486380930.6726 | 3/C4BB97C8               |           16185530312

 2017-02-06 12:35:31.741618+01 | 1486380931.74162 | 3/C527C438               |           16192619576

 2017-02-06 12:35:32.816783+01 | 1486380932.81678 | 3/C5A401E0               |           16200761824

 2017-02-06 12:35:33.888815+01 | 1486380933.88881 | 3/C6064620               |           16207201824

 2017-02-06 12:35:34.965047+01 | 1486380934.96505 | 3/C67ED3E8               |           16215102440

 2017-02-06 12:35:36.04099+01 | 1486380936.04099 | 3/C6F8E4D0               |           16223102160

 2017-02-06 12:35:37.114905+01 | 1486380937.11491 | 3/C7692A08               |           16230459912

 2017-02-06 12:35:38.180393+01 | 1486380938.18039 | 3/C7CD0BE8               |           16237005800

 2017-02-06 12:35:39.25515+01 | 1486380939.25515 | 3/C844B908               |           16244848904

 2017-02-06 12:35:40.330024+01 | 1486380940.33002 | 3/C8B67C60               |           16252304480

 2017-02-06 12:35:41.405448+01 | 1486380941.40545 | 3/C935F6F8               |           16260658936

 2017-02-06 12:35:42.477493+01 | 1486380942.47749 | 3/C9A48668               |           16267904616

 2017-02-06 12:35:43.551152+01 | 1486380943.55115 | 3/CA1356E8               |           16275166952

 2017-02-06 12:35:44.625064+01 | 1486380944.62506 | 3/CA82D790               |           16282474384

 2017-02-06 12:35:45.698622+01 | 1486380945.69862 | 3/CAFBDFC8               |           16290406344

 2017-02-06 12:35:46.768715+01 | 1486380946.76871 | 3/CB60BE38               |           16297016888

 2017-02-06 12:35:47.841284+01 | 1486380947.84128 | 3/CBE89E68               |           16305921640

 2017-02-06 12:35:48.913106+01 | 1486380948.91311 | 3/CC60A160               |           16313786720

 2017-02-06 12:35:49.984756+01 | 1486380949.98476 | 3/CCE672C0               |           16322556608

 2017-02-06 12:35:51.061047+01 | 1486380951.06105 | 3/CD6590A8               |           16330887336

 2017-02-06 12:35:52.129007+01 | 1486380952.12901 | 3/CDE422F8               |           16339182328

 2017-02-06 12:35:53.199107+01 | 1486380953.19911 | 3/CE5F9310               |           16347271952

 2017-02-06 12:35:54.271366+01 | 1486380954.27137 | 3/CED5C188               |           16355017096

 2017-02-06 12:35:55.345801+01 | 1486380955.3458 | 3/CF5953C8               |           16363639752

 2017-02-06 12:35:56.417019+01 | 1486380956.41702 | 3/CFDF6730               |           16372426544

 2017-02-06 12:35:57.488871+01 | 1486380957.48887 | 3/D0608600               |           16380888576

 2017-02-06 12:35:58.561903+01 | 1486380958.5619 | 3/D0D51CD0               |           16388529360

 2017-02-06 12:35:59.637197+01 | 1486380959.6372 | 3/D14BDAF8               |           16396311288

 2017-02-06 12:36:00.717018+01 | 1486380960.71702 | 3/D1BE4270               |           16403808880

 2017-02-06 12:36:01.792652+01 | 1486380961.79265 | 3/D22A6E90               |           16410898064

 2017-02-06 12:36:02.87289+01 | 1486380962.87289 | 3/D29B0E20               |           16418278944

 2017-02-06 12:36:03.946333+01 | 1486380963.94633 | 3/D31623C0               |           16426345408

 2017-02-06 12:36:05.00476+01 | 1486380965.00476 | 3/D38A1BF8               |           16433945592

 2017-02-06 12:36:06.084829+01 | 1486380966.08483 | 3/D4070180               |           16442130816

 2017-02-06 12:36:07.163364+01 | 1486380967.16336 | 3/D494C7B0               |           16451422128

 2017-02-06 12:36:08.245441+01 | 1486380968.24544 | 3/D5237388               |           16460772232

 2017-02-06 12:36:09.323038+01 | 1486380969.32304 | 3/D5C9E948               |           16471681352

 2017-02-06 12:36:10.398496+01 | 1486380970.3985 | 3/D667F3E0               |           16482038752

 2017-02-06 12:36:11.469278+01 | 1486380971.46928 | 3/D70A3730               |           16492672816

 2017-02-06 12:36:12.549334+01 | 1486380972.54933 | 3/D7B05E58               |           16503561816

 2017-02-06 12:36:13.631827+01 | 1486380973.63183 | 3/D8501108               |           16514027784

 2017-02-06 12:36:14.70671+01 | 1486380974.70671 | 3/D8F698B8               |           16524941496

 2017-02-06 12:36:15.778072+01 | 1486380975.77807 | 3/D96F4278               |           16532849272

 2017-02-06 12:36:16.854965+01 | 1486380976.85496 | 3/D9F4E3C8               |           16541606856

 2017-02-06 12:36:17.929319+01 | 1486380977.92932 | 3/DA795068               |           16550285416

 2017-02-06 12:36:19.004708+01 | 1486380979.00471 | 3/DAFFFA80               |           16559110784

 2017-02-06 12:36:20.089683+01 | 1486380980.08968 | 3/DB865B40               |           16567917376

 2017-02-06 12:36:21.162873+01 | 1486380981.16287 | 3/DBFCD0C8               |           16575680712

 2017-02-06 12:36:22.229885+01 | 1486380982.22989 | 3/DC6E2C40               |           16583109696

 2017-02-06 12:36:23.293716+01 | 1486380983.29372 | 3/DCCC2908               |           16589269256

 2017-02-06 12:36:24.367005+01 | 1486380984.36701 | 3/DD39EFD0               |           16596463568

 2017-02-06 12:36:25.43308+01 | 1486380985.43308 | 3/DDB12110               |           16604274960

 2017-02-06 12:36:26.497218+01 | 1486380986.49722 | 3/DE11FCF8               |           16610622712

 2017-02-06 12:36:27.572215+01 | 1486380987.57222 | 3/DE96A548               |           16619316552

 2017-02-06 12:36:28.647926+01 | 1486380988.64793 | 3/DF09D280               |           16626864768

 2017-02-06 12:36:29.721233+01 | 1486380989.72123 | 3/DF985E50               |           16636206672

 2017-02-06 12:36:30.790431+01 | 1486380990.79043 | 3/E00EA278               |           16643957368

 2017-02-06 12:36:31.867892+01 | 1486380991.86789 | 3/E08D2590               |           16652248464

 2017-02-06 12:36:32.939477+01 | 1486380992.93948 | 3/E1147C30               |           16661118000

 2017-02-06 12:36:34.011052+01 | 1486380994.01105 | 3/E19BE690               |           16669992592

 2017-02-06 12:36:35.086132+01 | 1486380995.08613 | 3/E21E3B50               |           16678533968

 2017-02-06 12:36:36.158104+01 | 1486380996.1581 | 3/E2A0DEA0               |           16687095456

 2017-02-06 12:36:37.23395+01 | 1486380997.23395 | 3/E3161828               |           16694777896

 2017-02-06 12:36:38.312216+01 | 1486380998.31222 | 3/E3A0A3C8               |           16703857608

 2017-02-06 12:36:39.386683+01 | 1486380999.38668 | 3/E41C1298               |           16711946904

 2017-02-06 12:36:40.459867+01 | 1486381000.45987 | 3/E4A34220               |           16720806432

 2017-02-06 12:36:41.532612+01 | 1486381001.53261 | 3/E51FBC98               |           16728964248

 2017-02-06 12:36:42.609354+01 | 1486381002.60935 | 3/E5A6F4F0               |           16737826032

 2017-02-06 12:36:43.678948+01 | 1486381003.67895 | 3/E62776B8               |           16746247864

 2017-02-06 12:36:44.752662+01 | 1486381004.75266 | 3/E6A25990               |           16754301328

 2017-02-06 12:36:45.823502+01 | 1486381005.8235 | 3/E7295880               |           16763148416

 2017-02-06 12:36:46.894734+01 | 1486381006.89473 | 3/E7AAA780               |           16771622784

 2017-02-06 12:36:47.968139+01 | 1486381007.96814 | 3/E82F8BD8               |           16780331992

 2017-02-06 12:36:49.035779+01 | 1486381009.03578 | 3/E8AF3F00               |           16788700928

 2017-02-06 12:36:50.107337+01 | 1486381010.10734 | 3/E92AFC20               |           16796810272

 2017-02-06 12:36:51.177781+01 | 1486381011.17778 | 3/E9BF3B68               |           16806525800

 2017-02-06 12:36:52.249374+01 | 1486381012.24937 | 3/EA43C858               |           16815212632

 2017-02-06 12:36:53.321382+01 | 1486381013.32138 | 3/EAC1DF78               |           16823476088

 2017-02-06 12:36:54.399158+01 | 1486381014.39916 | 3/EB5258E8               |           16832944360

 2017-02-06 12:36:55.482246+01 | 1486381015.48225 | 3/EBCEE480               |           16841106560

 2017-02-06 12:36:56.553824+01 | 1486381016.55382 | 3/EC58EEF0               |           16850153200

 2017-02-06 12:36:57.624719+01 | 1486381017.62472 | 3/ECDC3378               |           16858755960

 2017-02-06 12:36:58.698488+01 | 1486381018.69849 | 3/ED5AEDE8               |           16867061224

 2017-02-06 12:36:59.773649+01 | 1486381019.77365 | 3/EDE2BDD0               |           16875961808

 2017-02-06 12:37:00.846981+01 | 1486381020.84698 | 3/EE627D40               |           16884333888

 2017-02-06 12:37:01.919691+01 | 1486381021.91969 | 3/EEEFECB0               |           16893602992

 2017-02-06 12:37:02.993604+01 | 1486381022.9936 | 3/EF743378               |           16902271864

 2017-02-06 12:37:04.063796+01 | 1486381024.0638 | 3/EFFC6668               |           16911197800

 2017-02-06 12:37:05.120722+01 | 1486381025.12072 | 3/F097BC48               |           16921377864

 2017-02-06 12:37:06.187866+01 | 1486381026.18787 | 3/F1268550               |           16930735440

 2017-02-06 12:37:07.265043+01 | 1486381027.26504 | 3/F1CADA50               |           16941505104

 2017-02-06 12:37:08.344121+01 | 1486381028.34412 | 3/F26F0168               |           16952263016

 2017-02-06 12:37:09.41799+01 | 1486381029.41799 | 3/F3188588               |           16963372424

 2017-02-06 12:37:10.488864+01 | 1486381030.48886 | 3/F3C10898               |           16974416024

 2017-02-06 12:37:11.564069+01 | 1486381031.56407 | 3/F464A7F8               |           16985139192

 2017-02-06 12:37:12.638133+01 | 1486381032.63813 | 3/F508DD78               |           16995900792

 2017-02-06 12:37:13.715004+01 | 1486381033.715 | 3/F5B13128               |           17006932264

 2017-02-06 12:37:14.793871+01 | 1486381034.79387 | 3/F6527F60               |           17017503584

 2017-02-06 12:37:15.871126+01 | 1486381035.87113 | 3/F6FB4B48               |           17028565832

 2017-02-06 12:37:16.937021+01 | 1486381036.93702 | 3/F7769E78               |           17036648056

 2017-02-06 12:37:18.023463+01 | 1486381038.02346 | 3/F7F76FF0               |           17045090288

 2017-02-06 12:37:19.097663+01 | 1486381039.09766 | 3/F87DEB78               |           17053903736

 2017-02-06 12:37:20.166654+01 | 1486381040.16665 | 3/F8FE69C0               |           17062324672

 2017-02-06 12:37:21.239353+01 | 1486381041.23935 | 3/F979D580               |           17070413184

 2017-02-06 12:37:22.311146+01 | 1486381042.31115 | 3/F9EE2428               |           17078035496

 2017-02-06 12:37:23.385453+01 | 1486381043.38545 | 3/FA583508               |           17084986632

 2017-02-06 12:37:24.454729+01 | 1486381044.45473 | 3/FACC6B28               |           17092602664

 2017-02-06 12:37:25.529643+01 | 1486381045.52964 | 3/FB30D890               |           17099184272

 2017-02-06 12:37:26.613396+01 | 1486381046.6134 | 3/FBA5FEA8               |           17106861736

 2017-02-06 12:37:27.688265+01 | 1486381047.68827 | 3/FC135600               |           17114027520

 2017-02-06 12:37:28.763909+01 | 1486381048.76391 | 3/FC80F3B8               |           17121211320

 2017-02-06 12:37:29.844124+01 | 1486381049.84412 | 3/FCF840D8               |           17129029848

 2017-02-06 12:37:30.916362+01 | 1486381050.91636 | 3/FD687428               |           17136383016

 2017-02-06 12:37:31.984141+01 | 1486381051.98414 | 3/FDF0AB20               |           17145309984

 2017-02-06 12:37:33.051978+01 | 1486381053.05198 | 3/FE7034C0               |           17153668288

 2017-02-06 12:37:34.123363+01 | 1486381054.12336 | 3/FEFFFF18               |           17163091736

 2017-02-06 12:37:35.192153+01 | 1486381055.19215 | 3/FF7CFA00               |           17171282432

 2017-02-06 12:37:36.280398+01 | 1486381056.2804 | 3/FFF76480               |           17179305088

 2017-02-06 12:37:37.356961+01 | 1486381057.35696 | 4/82F6E0                 |           17188452064

 2017-02-06 12:37:38.431764+01 | 1486381058.43176 | 4/1066CF0                |           17197067504

 2017-02-06 12:37:39.511299+01 | 1486381059.5113 | 4/193A648                |           17206322760

 2017-02-06 12:37:40.583116+01 | 1486381060.58312 | 4/2130508                |           17214670088

 2017-02-06 12:37:41.659311+01 | 1486381061.65931 | 4/28FA688                |           17222837896

 2017-02-06 12:37:42.735153+01 | 1486381062.73515 | 4/318CF98                |           17231826840

 2017-02-06 12:37:43.80905+01 | 1486381063.80905 | 4/39FC9A0                |           17240672672

 2017-02-06 12:37:44.883241+01 | 1486381064.88324 | 4/40E4330                |           17247912752

 2017-02-06 12:37:45.958253+01 | 1486381065.95825 | 4/47F88E8                |           17255336168

 2017-02-06 12:37:47.029485+01 | 1486381067.02948 | 4/4F73800                |           17263179776

 2017-02-06 12:37:48.103825+01 | 1486381068.10383 | 4/5564510                |           17269409040

 2017-02-06 12:37:49.176664+01 | 1486381069.17666 | 4/5C8B190                |           17276907920

 2017-02-06 12:37:50.250348+01 | 1486381070.25035 | 4/6359520                |           17284044064

 2017-02-06 12:37:51.317874+01 | 1486381071.31787 | 4/6993160                |           17290572128

 2017-02-06 12:37:52.407424+01 | 1486381072.40742 | 4/7000290                |           17297310352

 2017-02-06 12:37:53.498138+01 | 1486381073.49814 | 4/76D3530                |           17304466736

 2017-02-06 12:37:54.56826+01 | 1486381074.56826 | 4/7DA74A0                |           17311626400

 2017-02-06 12:37:55.638269+01 | 1486381075.63827 | 4/8408298                |           17318314648

 2017-02-06 12:37:56.708783+01 | 1486381076.70878 | 4/8BD9DF8                |           17326513656

 2017-02-06 12:37:57.782121+01 | 1486381077.78212 | 4/927EDD0                |           17333480912

 2017-02-06 12:37:58.856492+01 | 1486381078.85649 | 4/98F93D8                |           17340273624

 2017-02-06 12:37:59.943325+01 | 1486381079.94333 | 4/A1731A0                |           17349161376

 2017-02-06 12:38:01.016831+01 | 1486381081.01683 | 4/A9C59D8                |           17357887960

 2017-02-06 12:38:02.082851+01 | 1486381082.08285 | 4/B08E5D0                |           17365001680

 2017-02-06 12:38:03.163021+01 | 1486381083.16302 | 4/B829E10                |           17372978704

 2017-02-06 12:38:04.234555+01 | 1486381084.23456 | 4/BF92BF0                |           17380748272

 2017-02-06 12:38:05.29806+01 | 1486381085.29806 | 4/C5789E0                |           17386932704

 2017-02-06 12:38:06.373958+01 | 1486381086.37396 | 4/CBBE8B8                |           17393510584

 2017-02-06 12:38:07.449366+01 | 1486381087.44937 | 4/D3AE650                |           17401833040

 2017-02-06 12:38:08.521448+01 | 1486381088.52145 | 4/DBCB4A0                |           17410340000

 2017-02-06 12:38:09.593536+01 | 1486381089.59354 | 4/E3BF588                |           17418679688

 2017-02-06 12:38:10.667653+01 | 1486381090.66765 | 4/EB79ED0                |           17426783952

 2017-02-06 12:38:11.73888+01 | 1486381091.73888 | 4/F120390                |           17432707984

 2017-02-06 12:38:12.813544+01 | 1486381092.81354 | 4/F81C340                |           17440031552

 2017-02-06 12:38:13.882166+01 | 1486381093.88217 | 4/FE5D1E0                |           17446588896

 2017-02-06 12:38:14.953436+01 | 1486381094.95344 | 4/103F8FF0               |           17452470256

 2017-02-06 12:38:16.031914+01 | 1486381096.03191 | 4/10BF57A8               |           17460844456

 2017-02-06 12:38:17.103342+01 | 1486381097.10334 | 4/113ABC30               |           17468931120

 2017-02-06 12:38:18.178497+01 | 1486381098.1785 | 4/11BDC670               |           17477518960

 2017-02-06 12:38:19.250228+01 | 1486381099.25023 | 4/12412BF0               |           17486130160

 2017-02-06 12:38:20.321288+01 | 1486381100.32129 | 4/12C42900               |           17494714624

 2017-02-06 12:38:21.396545+01 | 1486381101.39654 | 4/1346A4A0               |           17503265952

 2017-02-06 12:38:22.471493+01 | 1486381102.47149 | 4/13CCE728               |           17512064808

 2017-02-06 12:38:23.539658+01 | 1486381103.53966 | 4/144091B8               |           17519645112

