 2017-02-04 20:44:50.129922+01 | 1486237490.12992 | pgbench_accounts |      13631578112
 2017-02-04 20:44:50.129922+01 | 1486237490.12992 | pgbench_tellers  |         11296768
 2017-02-04 20:44:50.129922+01 | 1486237490.12992 | pgbench_history  |                0
 2017-02-04 20:44:50.129922+01 | 1486237490.12992 | pgbench_branches |          9183232

 2017-02-04 20:44:51.224412+01 | 1486237491.22441 | pgbench_accounts |      13631578112
 2017-02-04 20:44:51.224412+01 | 1486237491.22441 | pgbench_tellers  |         11296768
 2017-02-04 20:44:51.224412+01 | 1486237491.22441 | pgbench_history  |          1417216
 2017-02-04 20:44:51.224412+01 | 1486237491.22441 | pgbench_branches |          9183232

 2017-02-04 20:44:52.322332+01 | 1486237492.32233 | pgbench_accounts |      13631578112
 2017-02-04 20:44:52.322332+01 | 1486237492.32233 | pgbench_tellers  |         11296768
 2017-02-04 20:44:52.322332+01 | 1486237492.32233 | pgbench_history  |          3637248
 2017-02-04 20:44:52.322332+01 | 1486237492.32233 | pgbench_branches |          9183232

 2017-02-04 20:44:53.409722+01 | 1486237493.40972 | pgbench_accounts |      13631578112
 2017-02-04 20:44:53.409722+01 | 1486237493.40972 | pgbench_tellers  |         11296768
 2017-02-04 20:44:53.409722+01 | 1486237493.40972 | pgbench_history  |          4669440
 2017-02-04 20:44:53.409722+01 | 1486237493.40972 | pgbench_branches |          9183232

 2017-02-04 20:44:54.500925+01 | 1486237494.50093 | pgbench_accounts |      13631578112
 2017-02-04 20:44:54.500925+01 | 1486237494.50093 | pgbench_tellers  |         11296768
 2017-02-04 20:44:54.500925+01 | 1486237494.50093 | pgbench_history  |          6709248
 2017-02-04 20:44:54.500925+01 | 1486237494.50093 | pgbench_branches |          9183232

 2017-02-04 20:44:55.587838+01 | 1486237495.58784 | pgbench_accounts |      13631578112
 2017-02-04 20:44:55.587838+01 | 1486237495.58784 | pgbench_tellers  |         11296768
 2017-02-04 20:44:55.587838+01 | 1486237495.58784 | pgbench_history  |          9404416
 2017-02-04 20:44:55.587838+01 | 1486237495.58784 | pgbench_branches |          9183232

 2017-02-04 20:44:56.677677+01 | 1486237496.67768 | pgbench_accounts |      13631578112
 2017-02-04 20:44:56.677677+01 | 1486237496.67768 | pgbench_tellers  |         11296768
 2017-02-04 20:44:56.677677+01 | 1486237496.67768 | pgbench_history  |         11558912
 2017-02-04 20:44:56.677677+01 | 1486237496.67768 | pgbench_branches |          9183232

 2017-02-04 20:44:57.764726+01 | 1486237497.76473 | pgbench_accounts |      13631578112
 2017-02-04 20:44:57.764726+01 | 1486237497.76473 | pgbench_tellers  |         11296768
 2017-02-04 20:44:57.764726+01 | 1486237497.76473 | pgbench_history  |         13082624
 2017-02-04 20:44:57.764726+01 | 1486237497.76473 | pgbench_branches |          9183232

 2017-02-04 20:44:58.866351+01 | 1486237498.86635 | pgbench_accounts |      13631578112
 2017-02-04 20:44:58.866351+01 | 1486237498.86635 | pgbench_tellers  |         11296768
 2017-02-04 20:44:58.866351+01 | 1486237498.86635 | pgbench_history  |         15450112
 2017-02-04 20:44:58.866351+01 | 1486237498.86635 | pgbench_branches |          9183232

 2017-02-04 20:44:59.959965+01 | 1486237499.95996 | pgbench_accounts |      13631578112
 2017-02-04 20:44:59.959965+01 | 1486237499.95996 | pgbench_tellers  |         11296768
 2017-02-04 20:44:59.959965+01 | 1486237499.95996 | pgbench_history  |         19783680
 2017-02-04 20:44:59.959965+01 | 1486237499.95996 | pgbench_branches |          9183232

 2017-02-04 20:45:01.040339+01 | 1486237501.04034 | pgbench_accounts |      13631578112
 2017-02-04 20:45:01.040339+01 | 1486237501.04034 | pgbench_tellers  |         11296768
 2017-02-04 20:45:01.040339+01 | 1486237501.04034 | pgbench_history  |         22757376
 2017-02-04 20:45:01.040339+01 | 1486237501.04034 | pgbench_branches |          9183232

 2017-02-04 20:45:02.128304+01 | 1486237502.1283 | pgbench_accounts |      13631578112
 2017-02-04 20:45:02.128304+01 | 1486237502.1283 | pgbench_tellers  |         11296768
 2017-02-04 20:45:02.128304+01 | 1486237502.1283 | pgbench_history  |         22757376
 2017-02-04 20:45:02.128304+01 | 1486237502.1283 | pgbench_branches |          9183232

 2017-02-04 20:45:03.206528+01 | 1486237503.20653 | pgbench_accounts |      13631578112
 2017-02-04 20:45:03.206528+01 | 1486237503.20653 | pgbench_tellers  |         11296768
 2017-02-04 20:45:03.206528+01 | 1486237503.20653 | pgbench_history  |         24961024
 2017-02-04 20:45:03.206528+01 | 1486237503.20653 | pgbench_branches |          9183232

 2017-02-04 20:45:04.290175+01 | 1486237504.29017 | pgbench_accounts |      13631578112
 2017-02-04 20:45:04.290175+01 | 1486237504.29017 | pgbench_tellers  |         11296768
 2017-02-04 20:45:04.290175+01 | 1486237504.29017 | pgbench_history  |         27492352
 2017-02-04 20:45:04.290175+01 | 1486237504.29017 | pgbench_branches |          9183232

 2017-02-04 20:45:05.37413+01 | 1486237505.37413 | pgbench_accounts |      13631578112
 2017-02-04 20:45:05.37413+01 | 1486237505.37413 | pgbench_tellers  |         11296768
 2017-02-04 20:45:05.37413+01 | 1486237505.37413 | pgbench_history  |         30326784
 2017-02-04 20:45:05.37413+01 | 1486237505.37413 | pgbench_branches |          9183232

 2017-02-04 20:45:06.465011+01 | 1486237506.46501 | pgbench_accounts |      13631578112
 2017-02-04 20:45:06.465011+01 | 1486237506.46501 | pgbench_tellers  |         11296768
 2017-02-04 20:45:06.465011+01 | 1486237506.46501 | pgbench_history  |         32399360
 2017-02-04 20:45:06.465011+01 | 1486237506.46501 | pgbench_branches |          9183232

 2017-02-04 20:45:07.555609+01 | 1486237507.55561 | pgbench_accounts |      13631578112
 2017-02-04 20:45:07.555609+01 | 1486237507.55561 | pgbench_tellers  |         11296768
 2017-02-04 20:45:07.555609+01 | 1486237507.55561 | pgbench_history  |         35913728
 2017-02-04 20:45:07.555609+01 | 1486237507.55561 | pgbench_branches |          9183232

 2017-02-04 20:45:08.652977+01 | 1486237508.65298 | pgbench_accounts |      13631578112
 2017-02-04 20:45:08.652977+01 | 1486237508.65298 | pgbench_tellers  |         11296768
 2017-02-04 20:45:08.652977+01 | 1486237508.65298 | pgbench_history  |         40902656
 2017-02-04 20:45:08.652977+01 | 1486237508.65298 | pgbench_branches |          9183232

 2017-02-04 20:45:09.741373+01 | 1486237509.74137 | pgbench_accounts |      13631578112
 2017-02-04 20:45:09.741373+01 | 1486237509.74137 | pgbench_tellers  |         11296768
 2017-02-04 20:45:09.741373+01 | 1486237509.74137 | pgbench_history  |         40902656
 2017-02-04 20:45:09.741373+01 | 1486237509.74137 | pgbench_branches |          9183232

 2017-02-04 20:45:10.836462+01 | 1486237510.83646 | pgbench_accounts |      13631578112
 2017-02-04 20:45:10.836462+01 | 1486237510.83646 | pgbench_tellers  |         11296768
 2017-02-04 20:45:10.836462+01 | 1486237510.83646 | pgbench_history  |         43016192
 2017-02-04 20:45:10.836462+01 | 1486237510.83646 | pgbench_branches |          9183232

 2017-02-04 20:45:11.927963+01 | 1486237511.92796 | pgbench_accounts |      13631578112
 2017-02-04 20:45:11.927963+01 | 1486237511.92796 | pgbench_tellers  |         11296768
 2017-02-04 20:45:11.927963+01 | 1486237511.92796 | pgbench_history  |         45572096
 2017-02-04 20:45:11.927963+01 | 1486237511.92796 | pgbench_branches |          9183232

 2017-02-04 20:45:13.010902+01 | 1486237513.0109 | pgbench_accounts |      13631578112
 2017-02-04 20:45:13.010902+01 | 1486237513.0109 | pgbench_tellers  |         11296768
 2017-02-04 20:45:13.010902+01 | 1486237513.0109 | pgbench_history  |         49635328
 2017-02-04 20:45:13.010902+01 | 1486237513.0109 | pgbench_branches |          9183232

 2017-02-04 20:45:14.097803+01 | 1486237514.0978 | pgbench_accounts |      13631578112
 2017-02-04 20:45:14.097803+01 | 1486237514.0978 | pgbench_tellers  |         11296768
 2017-02-04 20:45:14.097803+01 | 1486237514.0978 | pgbench_history  |         50995200
 2017-02-04 20:45:14.097803+01 | 1486237514.0978 | pgbench_branches |          9183232

 2017-02-04 20:45:15.179063+01 | 1486237515.17906 | pgbench_accounts |      13631578112
 2017-02-04 20:45:15.179063+01 | 1486237515.17906 | pgbench_tellers  |         11296768
 2017-02-04 20:45:15.179063+01 | 1486237515.17906 | pgbench_history  |         53198848
 2017-02-04 20:45:15.179063+01 | 1486237515.17906 | pgbench_branches |          9183232

 2017-02-04 20:45:16.269651+01 | 1486237516.26965 | pgbench_accounts |      13631578112
 2017-02-04 20:45:16.269651+01 | 1486237516.26965 | pgbench_tellers  |         11296768
 2017-02-04 20:45:16.269651+01 | 1486237516.26965 | pgbench_history  |         55869440
 2017-02-04 20:45:16.269651+01 | 1486237516.26965 | pgbench_branches |          9183232

 2017-02-04 20:45:17.351068+01 | 1486237517.35107 | pgbench_accounts |      13631578112
 2017-02-04 20:45:17.351068+01 | 1486237517.35107 | pgbench_tellers  |         11296768
 2017-02-04 20:45:17.351068+01 | 1486237517.35107 | pgbench_history  |         58892288
 2017-02-04 20:45:17.351068+01 | 1486237517.35107 | pgbench_branches |          9183232

 2017-02-04 20:45:18.43423+01 | 1486237518.43423 | pgbench_accounts |      13631578112
 2017-02-04 20:45:18.43423+01 | 1486237518.43423 | pgbench_tellers  |         11296768
 2017-02-04 20:45:18.43423+01 | 1486237518.43423 | pgbench_history  |         61210624
 2017-02-04 20:45:18.43423+01 | 1486237518.43423 | pgbench_branches |          9183232

 2017-02-04 20:45:19.513565+01 | 1486237519.51357 | pgbench_accounts |      13631578112
 2017-02-04 20:45:19.513565+01 | 1486237519.51357 | pgbench_tellers  |         11296768
 2017-02-04 20:45:19.513565+01 | 1486237519.51357 | pgbench_history  |         62898176
 2017-02-04 20:45:19.513565+01 | 1486237519.51357 | pgbench_branches |          9183232

 2017-02-04 20:45:20.607071+01 | 1486237520.60707 | pgbench_accounts |      13631578112
 2017-02-04 20:45:20.607071+01 | 1486237520.60707 | pgbench_tellers  |         11296768
 2017-02-04 20:45:20.607071+01 | 1486237520.60707 | pgbench_history  |         66412544
 2017-02-04 20:45:20.607071+01 | 1486237520.60707 | pgbench_branches |          9183232

 2017-02-04 20:45:21.697551+01 | 1486237521.69755 | pgbench_accounts |      13631578112
 2017-02-04 20:45:21.697551+01 | 1486237521.69755 | pgbench_tellers  |         11296768
 2017-02-04 20:45:21.697551+01 | 1486237521.69755 | pgbench_history  |         70418432
 2017-02-04 20:45:21.697551+01 | 1486237521.69755 | pgbench_branches |          9183232

 2017-02-04 20:45:22.78534+01 | 1486237522.78534 | pgbench_accounts |      13631578112
 2017-02-04 20:45:22.78534+01 | 1486237522.78534 | pgbench_tellers  |         11296768
 2017-02-04 20:45:22.78534+01 | 1486237522.78534 | pgbench_history  |         70934528
 2017-02-04 20:45:22.78534+01 | 1486237522.78534 | pgbench_branches |          9183232

 2017-02-04 20:45:23.884742+01 | 1486237523.88474 | pgbench_accounts |      13631578112
 2017-02-04 20:45:23.884742+01 | 1486237523.88474 | pgbench_tellers  |         11296768
 2017-02-04 20:45:23.884742+01 | 1486237523.88474 | pgbench_history  |         73138176
 2017-02-04 20:45:23.884742+01 | 1486237523.88474 | pgbench_branches |          9183232

 2017-02-04 20:45:24.973481+01 | 1486237524.97348 | pgbench_accounts |      13631578112
 2017-02-04 20:45:24.973481+01 | 1486237524.97348 | pgbench_tellers  |         11296768
 2017-02-04 20:45:24.973481+01 | 1486237524.97348 | pgbench_history  |         75882496
 2017-02-04 20:45:24.973481+01 | 1486237524.97348 | pgbench_branches |          9183232

 2017-02-04 20:45:26.072107+01 | 1486237526.07211 | pgbench_accounts |      13631578112
 2017-02-04 20:45:26.072107+01 | 1486237526.07211 | pgbench_tellers  |         11296768
 2017-02-04 20:45:26.072107+01 | 1486237526.07211 | pgbench_history  |         78086144
 2017-02-04 20:45:26.072107+01 | 1486237526.07211 | pgbench_branches |          9183232

 2017-02-04 20:45:27.15444+01 | 1486237527.15444 | pgbench_accounts |      13631578112
 2017-02-04 20:45:27.15444+01 | 1486237527.15444 | pgbench_tellers  |         11296768
 2017-02-04 20:45:27.15444+01 | 1486237527.15444 | pgbench_history  |         81387520
 2017-02-04 20:45:27.15444+01 | 1486237527.15444 | pgbench_branches |          9183232

 2017-02-04 20:45:28.243973+01 | 1486237528.24397 | pgbench_accounts |      13631578112
 2017-02-04 20:45:28.243973+01 | 1486237528.24397 | pgbench_tellers  |         11296768
 2017-02-04 20:45:28.243973+01 | 1486237528.24397 | pgbench_history  |         82911232
 2017-02-04 20:45:28.243973+01 | 1486237528.24397 | pgbench_branches |          9183232

 2017-02-04 20:45:29.323452+01 | 1486237529.32345 | pgbench_accounts |      13631578112
 2017-02-04 20:45:29.323452+01 | 1486237529.32345 | pgbench_tellers  |         11296768
 2017-02-04 20:45:29.323452+01 | 1486237529.32345 | pgbench_history  |         85606400
 2017-02-04 20:45:29.323452+01 | 1486237529.32345 | pgbench_branches |          9183232

 2017-02-04 20:45:30.407488+01 | 1486237530.40749 | pgbench_accounts |      13631578112
 2017-02-04 20:45:30.407488+01 | 1486237530.40749 | pgbench_tellers  |         11296768
 2017-02-04 20:45:30.407488+01 | 1486237530.40749 | pgbench_history  |         89825280
 2017-02-04 20:45:30.407488+01 | 1486237530.40749 | pgbench_branches |          9183232

 2017-02-04 20:45:31.495598+01 | 1486237531.4956 | pgbench_accounts |      13631578112
 2017-02-04 20:45:31.495598+01 | 1486237531.4956 | pgbench_tellers  |         11296768
 2017-02-04 20:45:31.495598+01 | 1486237531.4956 | pgbench_history  |         90996736
 2017-02-04 20:45:31.495598+01 | 1486237531.4956 | pgbench_branches |          9183232

 2017-02-04 20:45:32.590956+01 | 1486237532.59096 | pgbench_accounts |      13631578112
 2017-02-04 20:45:32.590956+01 | 1486237532.59096 | pgbench_tellers  |         11296768
 2017-02-04 20:45:32.590956+01 | 1486237532.59096 | pgbench_history  |         93831168
 2017-02-04 20:45:32.590956+01 | 1486237532.59096 | pgbench_branches |          9183232

 2017-02-04 20:45:33.684788+01 | 1486237533.68479 | pgbench_accounts |      13631578112
 2017-02-04 20:45:33.684788+01 | 1486237533.68479 | pgbench_tellers  |         11296768
 2017-02-04 20:45:33.684788+01 | 1486237533.68479 | pgbench_history  |         95846400
 2017-02-04 20:45:33.684788+01 | 1486237533.68479 | pgbench_branches |          9183232

 2017-02-04 20:45:34.778424+01 | 1486237534.77842 | pgbench_accounts |      13631578112
 2017-02-04 20:45:34.778424+01 | 1486237534.77842 | pgbench_tellers  |         11296768
 2017-02-04 20:45:34.778424+01 | 1486237534.77842 | pgbench_history  |         97886208
 2017-02-04 20:45:34.778424+01 | 1486237534.77842 | pgbench_branches |          9183232

 2017-02-04 20:45:35.861239+01 | 1486237535.86124 | pgbench_accounts |      13631578112
 2017-02-04 20:45:35.861239+01 | 1486237535.86124 | pgbench_tellers  |         11296768
 2017-02-04 20:45:35.861239+01 | 1486237535.86124 | pgbench_history  |        100909056
 2017-02-04 20:45:35.861239+01 | 1486237535.86124 | pgbench_branches |          9183232

 2017-02-04 20:45:36.959383+01 | 1486237536.95938 | pgbench_accounts |      13631578112
 2017-02-04 20:45:36.959383+01 | 1486237536.95938 | pgbench_tellers  |         11296768
 2017-02-04 20:45:36.959383+01 | 1486237536.95938 | pgbench_history  |        103907328
 2017-02-04 20:45:36.959383+01 | 1486237536.95938 | pgbench_branches |          9183232

 2017-02-04 20:45:38.049587+01 | 1486237538.04959 | pgbench_accounts |      13631578112
 2017-02-04 20:45:38.049587+01 | 1486237538.04959 | pgbench_tellers  |         11296768
 2017-02-04 20:45:38.049587+01 | 1486237538.04959 | pgbench_history  |        105078784
 2017-02-04 20:45:38.049587+01 | 1486237538.04959 | pgbench_branches |          9183232

 2017-02-04 20:45:39.12919+01 | 1486237539.12919 | pgbench_accounts |      13631578112
 2017-02-04 20:45:39.12919+01 | 1486237539.12919 | pgbench_tellers  |         11296768
 2017-02-04 20:45:39.12919+01 | 1486237539.12919 | pgbench_history  |        107397120
 2017-02-04 20:45:39.12919+01 | 1486237539.12919 | pgbench_branches |          9183232

 2017-02-04 20:45:40.220549+01 | 1486237540.22055 | pgbench_accounts |      13631578112
 2017-02-04 20:45:40.220549+01 | 1486237540.22055 | pgbench_tellers  |         11296768
 2017-02-04 20:45:40.220549+01 | 1486237540.22055 | pgbench_history  |        113631232
 2017-02-04 20:45:40.220549+01 | 1486237540.22055 | pgbench_branches |          9183232

 2017-02-04 20:45:41.304464+01 | 1486237541.30446 | pgbench_accounts |      13631578112
 2017-02-04 20:45:41.304464+01 | 1486237541.30446 | pgbench_tellers  |         11296768
 2017-02-04 20:45:41.304464+01 | 1486237541.30446 | pgbench_history  |        113631232
 2017-02-04 20:45:41.304464+01 | 1486237541.30446 | pgbench_branches |          9183232

 2017-02-04 20:45:42.399083+01 | 1486237542.39908 | pgbench_accounts |      13631578112
 2017-02-04 20:45:42.399083+01 | 1486237542.39908 | pgbench_tellers  |         11296768
 2017-02-04 20:45:42.399083+01 | 1486237542.39908 | pgbench_history  |        115458048
 2017-02-04 20:45:42.399083+01 | 1486237542.39908 | pgbench_branches |          9183232

 2017-02-04 20:45:43.498497+01 | 1486237543.4985 | pgbench_accounts |      13631578112
 2017-02-04 20:45:43.498497+01 | 1486237543.4985 | pgbench_tellers  |         11296768
 2017-02-04 20:45:43.498497+01 | 1486237543.4985 | pgbench_history  |        117637120
 2017-02-04 20:45:43.498497+01 | 1486237543.4985 | pgbench_branches |          9183232

 2017-02-04 20:45:44.583657+01 | 1486237544.58366 | pgbench_accounts |      13631578112
 2017-02-04 20:45:44.583657+01 | 1486237544.58366 | pgbench_tellers  |         11296768
 2017-02-04 20:45:44.583657+01 | 1486237544.58366 | pgbench_history  |        120389632
 2017-02-04 20:45:44.583657+01 | 1486237544.58366 | pgbench_branches |          9183232

 2017-02-04 20:45:45.679362+01 | 1486237545.67936 | pgbench_accounts |      13631578112
 2017-02-04 20:45:45.679362+01 | 1486237545.67936 | pgbench_tellers  |         11296768
 2017-02-04 20:45:45.679362+01 | 1486237545.67936 | pgbench_history  |        122920960
 2017-02-04 20:45:45.679362+01 | 1486237545.67936 | pgbench_branches |          9183232

 2017-02-04 20:45:46.770967+01 | 1486237546.77097 | pgbench_accounts |      13631578112
 2017-02-04 20:45:46.770967+01 | 1486237546.77097 | pgbench_tellers  |         11296768
 2017-02-04 20:45:46.770967+01 | 1486237546.77097 | pgbench_history  |        126017536
 2017-02-04 20:45:46.770967+01 | 1486237546.77097 | pgbench_branches |          9183232

 2017-02-04 20:45:47.870431+01 | 1486237547.87043 | pgbench_accounts |      13631578112
 2017-02-04 20:45:47.870431+01 | 1486237547.87043 | pgbench_tellers  |         11296768
 2017-02-04 20:45:47.870431+01 | 1486237547.87043 | pgbench_history  |        128876544
 2017-02-04 20:45:47.870431+01 | 1486237547.87043 | pgbench_branches |          9183232

 2017-02-04 20:45:48.97678+01 | 1486237548.97678 | pgbench_accounts |      13631578112
 2017-02-04 20:45:48.97678+01 | 1486237548.97678 | pgbench_tellers  |         11296768
 2017-02-04 20:45:48.97678+01 | 1486237548.97678 | pgbench_history  |        130424832
 2017-02-04 20:45:48.97678+01 | 1486237548.97678 | pgbench_branches |          9183232

 2017-02-04 20:45:50.068065+01 | 1486237550.06806 | pgbench_accounts |      13631578112
 2017-02-04 20:45:50.068065+01 | 1486237550.06806 | pgbench_tellers  |         11296768
 2017-02-04 20:45:50.068065+01 | 1486237550.06806 | pgbench_history  |        135176192
 2017-02-04 20:45:50.068065+01 | 1486237550.06806 | pgbench_branches |          9183232

 2017-02-04 20:45:51.152642+01 | 1486237551.15264 | pgbench_accounts |      13631578112
 2017-02-04 20:45:51.152642+01 | 1486237551.15264 | pgbench_tellers  |         11296768
 2017-02-04 20:45:51.152642+01 | 1486237551.15264 | pgbench_history  |        135856128
 2017-02-04 20:45:51.152642+01 | 1486237551.15264 | pgbench_branches |          9183232

 2017-02-04 20:45:52.233456+01 | 1486237552.23346 | pgbench_accounts |      13631578112
 2017-02-04 20:45:52.233456+01 | 1486237552.23346 | pgbench_tellers  |         11296768
 2017-02-04 20:45:52.233456+01 | 1486237552.23346 | pgbench_history  |        138297344
 2017-02-04 20:45:52.233456+01 | 1486237552.23346 | pgbench_branches |          9183232

 2017-02-04 20:45:53.314642+01 | 1486237553.31464 | pgbench_accounts |      13631578112
 2017-02-04 20:45:53.314642+01 | 1486237553.31464 | pgbench_tellers  |         11296768
 2017-02-04 20:45:53.314642+01 | 1486237553.31464 | pgbench_history  |        140238848
 2017-02-04 20:45:53.314642+01 | 1486237553.31464 | pgbench_branches |          9183232

 2017-02-04 20:45:54.410027+01 | 1486237554.41003 | pgbench_accounts |      13631578112
 2017-02-04 20:45:54.410027+01 | 1486237554.41003 | pgbench_tellers  |         11296768
 2017-02-04 20:45:54.410027+01 | 1486237554.41003 | pgbench_history  |        144433152
 2017-02-04 20:45:54.410027+01 | 1486237554.41003 | pgbench_branches |          9183232

 2017-02-04 20:45:55.500702+01 | 1486237555.5007 | pgbench_accounts |      13631578112
 2017-02-04 20:45:55.500702+01 | 1486237555.5007 | pgbench_tellers  |         11296768
 2017-02-04 20:45:55.500702+01 | 1486237555.5007 | pgbench_history  |        145465344
 2017-02-04 20:45:55.500702+01 | 1486237555.5007 | pgbench_branches |          9183232

 2017-02-04 20:45:56.604632+01 | 1486237556.60463 | pgbench_accounts |      13631578112
 2017-02-04 20:45:56.604632+01 | 1486237556.60463 | pgbench_tellers  |         11296768
 2017-02-04 20:45:56.604632+01 | 1486237556.60463 | pgbench_history  |        148373504
 2017-02-04 20:45:56.604632+01 | 1486237556.60463 | pgbench_branches |          9183232

 2017-02-04 20:45:57.70502+01 | 1486237557.70502 | pgbench_accounts |      13631578112
 2017-02-04 20:45:57.70502+01 | 1486237557.70502 | pgbench_tellers  |         11296768
 2017-02-04 20:45:57.70502+01 | 1486237557.70502 | pgbench_history  |        150855680
 2017-02-04 20:45:57.70502+01 | 1486237557.70502 | pgbench_branches |          9183232

 2017-02-04 20:45:58.796227+01 | 1486237558.79623 | pgbench_accounts |      13631578112
 2017-02-04 20:45:58.796227+01 | 1486237558.79623 | pgbench_tellers  |         11296768
 2017-02-04 20:45:58.796227+01 | 1486237558.79623 | pgbench_history  |        156008448
 2017-02-04 20:45:58.796227+01 | 1486237558.79623 | pgbench_branches |          9183232

 2017-02-04 20:45:59.88509+01 | 1486237559.88509 | pgbench_accounts |      13631578112
 2017-02-04 20:45:59.88509+01 | 1486237559.88509 | pgbench_tellers  |         11296768
 2017-02-04 20:45:59.88509+01 | 1486237559.88509 | pgbench_history  |        156008448
 2017-02-04 20:45:59.88509+01 | 1486237559.88509 | pgbench_branches |          9183232

 2017-02-04 20:46:00.985095+01 | 1486237560.9851 | pgbench_accounts |      13631578112
 2017-02-04 20:46:00.985095+01 | 1486237560.9851 | pgbench_tellers  |         11296768
 2017-02-04 20:46:00.985095+01 | 1486237560.9851 | pgbench_history  |        161775616
 2017-02-04 20:46:00.985095+01 | 1486237560.9851 | pgbench_branches |          9183232

 2017-02-04 20:46:02.078183+01 | 1486237562.07818 | pgbench_accounts |      13631578112
 2017-02-04 20:46:02.078183+01 | 1486237562.07818 | pgbench_tellers  |         11296768
 2017-02-04 20:46:02.078183+01 | 1486237562.07818 | pgbench_history  |        161775616
 2017-02-04 20:46:02.078183+01 | 1486237562.07818 | pgbench_branches |          9183232

 2017-02-04 20:46:03.157918+01 | 1486237563.15792 | pgbench_accounts |      13631578112
 2017-02-04 20:46:03.157918+01 | 1486237563.15792 | pgbench_tellers  |         11296768
 2017-02-04 20:46:03.157918+01 | 1486237563.15792 | pgbench_history  |        164421632
 2017-02-04 20:46:03.157918+01 | 1486237563.15792 | pgbench_branches |          9183232

 2017-02-04 20:46:04.239357+01 | 1486237564.23936 | pgbench_accounts |      13631578112
 2017-02-04 20:46:04.239357+01 | 1486237564.23936 | pgbench_tellers  |         11296768
 2017-02-04 20:46:04.239357+01 | 1486237564.23936 | pgbench_history  |        166928384
 2017-02-04 20:46:04.239357+01 | 1486237564.23936 | pgbench_branches |          9183232

 2017-02-04 20:46:05.322049+01 | 1486237565.32205 | pgbench_accounts |      13631578112
 2017-02-04 20:46:05.322049+01 | 1486237565.32205 | pgbench_tellers  |         11296768
 2017-02-04 20:46:05.322049+01 | 1486237565.32205 | pgbench_history  |        170139648
 2017-02-04 20:46:05.322049+01 | 1486237565.32205 | pgbench_branches |          9183232

 2017-02-04 20:46:06.407944+01 | 1486237566.40794 | pgbench_accounts |      13631578112
 2017-02-04 20:46:06.407944+01 | 1486237566.40794 | pgbench_tellers  |         11296768
 2017-02-04 20:46:06.407944+01 | 1486237566.40794 | pgbench_history  |        172023808
 2017-02-04 20:46:06.407944+01 | 1486237566.40794 | pgbench_branches |          9183232

 2017-02-04 20:46:07.497633+01 | 1486237567.49763 | pgbench_accounts |      13631578112
 2017-02-04 20:46:07.497633+01 | 1486237567.49763 | pgbench_tellers  |         11296768
 2017-02-04 20:46:07.497633+01 | 1486237567.49763 | pgbench_history  |        174759936
 2017-02-04 20:46:07.497633+01 | 1486237567.49763 | pgbench_branches |          9183232

 2017-02-04 20:46:08.589606+01 | 1486237568.58961 | pgbench_accounts |      13631578112
 2017-02-04 20:46:08.589606+01 | 1486237568.58961 | pgbench_tellers  |         11296768
 2017-02-04 20:46:08.589606+01 | 1486237568.58961 | pgbench_history  |        178634752
 2017-02-04 20:46:08.589606+01 | 1486237568.58961 | pgbench_branches |          9183232

 2017-02-04 20:46:09.684963+01 | 1486237569.68496 | pgbench_accounts |      13631578112
 2017-02-04 20:46:09.684963+01 | 1486237569.68496 | pgbench_tellers  |         11296768
 2017-02-04 20:46:09.684963+01 | 1486237569.68496 | pgbench_history  |        179806208
 2017-02-04 20:46:09.684963+01 | 1486237569.68496 | pgbench_branches |          9183232

 2017-02-04 20:46:10.781961+01 | 1486237570.78196 | pgbench_accounts |      13631578112
 2017-02-04 20:46:10.781961+01 | 1486237570.78196 | pgbench_tellers  |         11296768
 2017-02-04 20:46:10.781961+01 | 1486237570.78196 | pgbench_history  |        183320576
 2017-02-04 20:46:10.781961+01 | 1486237570.78196 | pgbench_branches |          9183232

 2017-02-04 20:46:11.876165+01 | 1486237571.87616 | pgbench_accounts |      13631578112
 2017-02-04 20:46:11.876165+01 | 1486237571.87616 | pgbench_tellers  |         11296768
 2017-02-04 20:46:11.876165+01 | 1486237571.87616 | pgbench_history  |        188145664
 2017-02-04 20:46:11.876165+01 | 1486237571.87616 | pgbench_branches |          9183232

 2017-02-04 20:46:12.96633+01 | 1486237572.96633 | pgbench_accounts |      13631578112
 2017-02-04 20:46:12.96633+01 | 1486237572.96633 | pgbench_tellers  |         11296768
 2017-02-04 20:46:12.96633+01 | 1486237572.96633 | pgbench_history  |        188145664
 2017-02-04 20:46:12.96633+01 | 1486237572.96633 | pgbench_branches |          9183232

 2017-02-04 20:46:14.071303+01 | 1486237574.0713 | pgbench_accounts |      13631578112
 2017-02-04 20:46:14.071303+01 | 1486237574.0713 | pgbench_tellers  |         11296768
 2017-02-04 20:46:14.071303+01 | 1486237574.0713 | pgbench_history  |        190816256
 2017-02-04 20:46:14.071303+01 | 1486237574.0713 | pgbench_branches |          9183232

 2017-02-04 20:46:15.156559+01 | 1486237575.15656 | pgbench_accounts |      13631578112
 2017-02-04 20:46:15.156559+01 | 1486237575.15656 | pgbench_tellers  |         11296768
 2017-02-04 20:46:15.156559+01 | 1486237575.15656 | pgbench_history  |        193847296
 2017-02-04 20:46:15.156559+01 | 1486237575.15656 | pgbench_branches |          9183232

 2017-02-04 20:46:16.240252+01 | 1486237576.24025 | pgbench_accounts |      13631578112
 2017-02-04 20:46:16.240252+01 | 1486237576.24025 | pgbench_tellers  |         11296768
 2017-02-04 20:46:16.240252+01 | 1486237576.24025 | pgbench_history  |        197992448
 2017-02-04 20:46:16.240252+01 | 1486237576.24025 | pgbench_branches |          9183232

 2017-02-04 20:46:17.323944+01 | 1486237577.32394 | pgbench_accounts |      13631578112
 2017-02-04 20:46:17.323944+01 | 1486237577.32394 | pgbench_tellers  |         11296768
 2017-02-04 20:46:17.323944+01 | 1486237577.32394 | pgbench_history  |        199163904
 2017-02-04 20:46:17.323944+01 | 1486237577.32394 | pgbench_branches |          9183232

 2017-02-04 20:46:18.414945+01 | 1486237578.41494 | pgbench_accounts |      13631578112
 2017-02-04 20:46:18.414945+01 | 1486237578.41494 | pgbench_tellers  |         11296768
 2017-02-04 20:46:18.414945+01 | 1486237578.41494 | pgbench_history  |        202399744
 2017-02-04 20:46:18.414945+01 | 1486237578.41494 | pgbench_branches |          9183232

 2017-02-04 20:46:19.494128+01 | 1486237579.49413 | pgbench_accounts |      13631578112
 2017-02-04 20:46:19.494128+01 | 1486237579.49413 | pgbench_tellers  |         11296768
 2017-02-04 20:46:19.494128+01 | 1486237579.49413 | pgbench_history  |        204800000
 2017-02-04 20:46:19.494128+01 | 1486237579.49413 | pgbench_branches |          9183232

 2017-02-04 20:46:20.588372+01 | 1486237580.58837 | pgbench_accounts |      13631578112
 2017-02-04 20:46:20.588372+01 | 1486237580.58837 | pgbench_tellers  |         11296768
 2017-02-04 20:46:20.588372+01 | 1486237580.58837 | pgbench_history  |        206299136
 2017-02-04 20:46:20.588372+01 | 1486237580.58837 | pgbench_branches |          9183232

 2017-02-04 20:46:21.680237+01 | 1486237581.68024 | pgbench_accounts |      13631578112
 2017-02-04 20:46:21.680237+01 | 1486237581.68024 | pgbench_tellers  |         11296768
 2017-02-04 20:46:21.680237+01 | 1486237581.68024 | pgbench_history  |        208994304
 2017-02-04 20:46:21.680237+01 | 1486237581.68024 | pgbench_branches |          9183232

 2017-02-04 20:46:22.779717+01 | 1486237582.77972 | pgbench_accounts |      13631578112
 2017-02-04 20:46:22.779717+01 | 1486237582.77972 | pgbench_tellers  |         11296768
 2017-02-04 20:46:22.779717+01 | 1486237582.77972 | pgbench_history  |        211222528
 2017-02-04 20:46:22.779717+01 | 1486237582.77972 | pgbench_branches |          9183232

 2017-02-04 20:46:23.871719+01 | 1486237583.87172 | pgbench_accounts |      13631578112
 2017-02-04 20:46:23.871719+01 | 1486237583.87172 | pgbench_tellers  |         11296768
 2017-02-04 20:46:23.871719+01 | 1486237583.87172 | pgbench_history  |        214597632
 2017-02-04 20:46:23.871719+01 | 1486237583.87172 | pgbench_branches |          9183232

 2017-02-04 20:46:24.971147+01 | 1486237584.97115 | pgbench_accounts |      13631578112
 2017-02-04 20:46:24.971147+01 | 1486237584.97115 | pgbench_tellers  |         11296768
 2017-02-04 20:46:24.971147+01 | 1486237584.97115 | pgbench_history  |        216834048
 2017-02-04 20:46:24.971147+01 | 1486237584.97115 | pgbench_branches |          9183232

 2017-02-04 20:46:26.066933+01 | 1486237586.06693 | pgbench_accounts |      13631578112
 2017-02-04 20:46:26.066933+01 | 1486237586.06693 | pgbench_tellers  |         11296768
 2017-02-04 20:46:26.066933+01 | 1486237586.06693 | pgbench_history  |        221167616
 2017-02-04 20:46:26.066933+01 | 1486237586.06693 | pgbench_branches |          9183232

 2017-02-04 20:46:27.155045+01 | 1486237587.15505 | pgbench_accounts |      13631578112
 2017-02-04 20:46:27.155045+01 | 1486237587.15505 | pgbench_tellers  |         11296768
 2017-02-04 20:46:27.155045+01 | 1486237587.15505 | pgbench_history  |        222527488
 2017-02-04 20:46:27.155045+01 | 1486237587.15505 | pgbench_branches |          9183232

 2017-02-04 20:46:28.233331+01 | 1486237588.23333 | pgbench_accounts |      13631578112
 2017-02-04 20:46:28.233331+01 | 1486237588.23333 | pgbench_tellers  |         11296768
 2017-02-04 20:46:28.233331+01 | 1486237588.23333 | pgbench_history  |        225525760
 2017-02-04 20:46:28.233331+01 | 1486237588.23333 | pgbench_branches |          9183232

 2017-02-04 20:46:29.32569+01 | 1486237589.32569 | pgbench_accounts |      13631578112
 2017-02-04 20:46:29.32569+01 | 1486237589.32569 | pgbench_tellers  |         11296768
 2017-02-04 20:46:29.32569+01 | 1486237589.32569 | pgbench_history  |        228687872
 2017-02-04 20:46:29.32569+01 | 1486237589.32569 | pgbench_branches |          9183232

 2017-02-04 20:46:30.409544+01 | 1486237590.40954 | pgbench_accounts |      13631578112
 2017-02-04 20:46:30.409544+01 | 1486237590.40954 | pgbench_tellers  |         11296768
 2017-02-04 20:46:30.409544+01 | 1486237590.40954 | pgbench_history  |        229883904
 2017-02-04 20:46:30.409544+01 | 1486237590.40954 | pgbench_branches |          9183232

 2017-02-04 20:46:31.494329+01 | 1486237591.49433 | pgbench_accounts |      13631578112
 2017-02-04 20:46:31.494329+01 | 1486237591.49433 | pgbench_tellers  |         11296768
 2017-02-04 20:46:31.494329+01 | 1486237591.49433 | pgbench_history  |        233701376
 2017-02-04 20:46:31.494329+01 | 1486237591.49433 | pgbench_branches |          9183232

 2017-02-04 20:46:32.587621+01 | 1486237592.58762 | pgbench_accounts |      13631578112
 2017-02-04 20:46:32.587621+01 | 1486237592.58762 | pgbench_tellers  |         11296768
 2017-02-04 20:46:32.587621+01 | 1486237592.58762 | pgbench_history  |        235388928
 2017-02-04 20:46:32.587621+01 | 1486237592.58762 | pgbench_branches |          9183232

 2017-02-04 20:46:33.68006+01 | 1486237593.68006 | pgbench_accounts |      13631578112
 2017-02-04 20:46:33.68006+01 | 1486237593.68006 | pgbench_tellers  |         11296768
 2017-02-04 20:46:33.68006+01 | 1486237593.68006 | pgbench_history  |        238198784
 2017-02-04 20:46:33.68006+01 | 1486237593.68006 | pgbench_branches |          9183232

 2017-02-04 20:46:34.768886+01 | 1486237594.76889 | pgbench_accounts |      13631578112
 2017-02-04 20:46:34.768886+01 | 1486237594.76889 | pgbench_tellers  |         11296768
 2017-02-04 20:46:34.768886+01 | 1486237594.76889 | pgbench_history  |        241246208
 2017-02-04 20:46:34.768886+01 | 1486237594.76889 | pgbench_branches |          9183232

 2017-02-04 20:46:35.87295+01 | 1486237595.87295 | pgbench_accounts |      13631578112
 2017-02-04 20:46:35.87295+01 | 1486237595.87295 | pgbench_tellers  |         11296768
 2017-02-04 20:46:35.87295+01 | 1486237595.87295 | pgbench_history  |        243646464
 2017-02-04 20:46:35.87295+01 | 1486237595.87295 | pgbench_branches |          9183232

 2017-02-04 20:46:36.974293+01 | 1486237596.97429 | pgbench_accounts |      13631578112
 2017-02-04 20:46:36.974293+01 | 1486237596.97429 | pgbench_tellers  |         11296768
 2017-02-04 20:46:36.974293+01 | 1486237596.97429 | pgbench_history  |        246833152
 2017-02-04 20:46:36.974293+01 | 1486237596.97429 | pgbench_branches |          9183232

 2017-02-04 20:46:38.074158+01 | 1486237598.07416 | pgbench_accounts |      13631578112
 2017-02-04 20:46:38.074158+01 | 1486237598.07416 | pgbench_tellers  |         11296768
 2017-02-04 20:46:38.074158+01 | 1486237598.07416 | pgbench_history  |        249176064
 2017-02-04 20:46:38.074158+01 | 1486237598.07416 | pgbench_branches |          9183232

 2017-02-04 20:46:39.162005+01 | 1486237599.162 | pgbench_accounts |      13631578112
 2017-02-04 20:46:39.162005+01 | 1486237599.162 | pgbench_tellers  |         11296768
 2017-02-04 20:46:39.162005+01 | 1486237599.162 | pgbench_history  |        253231104
 2017-02-04 20:46:39.162005+01 | 1486237599.162 | pgbench_branches |          9183232

 2017-02-04 20:46:40.238983+01 | 1486237600.23898 | pgbench_accounts |      13631578112
 2017-02-04 20:46:40.238983+01 | 1486237600.23898 | pgbench_tellers  |         11296768
 2017-02-04 20:46:40.238983+01 | 1486237600.23898 | pgbench_history  |        254730240
 2017-02-04 20:46:40.238983+01 | 1486237600.23898 | pgbench_branches |          9183232

 2017-02-04 20:46:41.324548+01 | 1486237601.32455 | pgbench_accounts |      13631578112
 2017-02-04 20:46:41.324548+01 | 1486237601.32455 | pgbench_tellers  |         11296768
 2017-02-04 20:46:41.324548+01 | 1486237601.32455 | pgbench_history  |        257236992
 2017-02-04 20:46:41.324548+01 | 1486237601.32455 | pgbench_branches |          9183232

 2017-02-04 20:46:42.406169+01 | 1486237602.40617 | pgbench_accounts |      13631578112
 2017-02-04 20:46:42.406169+01 | 1486237602.40617 | pgbench_tellers  |         11296768
 2017-02-04 20:46:42.406169+01 | 1486237602.40617 | pgbench_history  |        259932160
 2017-02-04 20:46:42.406169+01 | 1486237602.40617 | pgbench_branches |          9183232

 2017-02-04 20:46:43.490144+01 | 1486237603.49014 | pgbench_accounts |      13631578112
 2017-02-04 20:46:43.490144+01 | 1486237603.49014 | pgbench_tellers  |         11296768
 2017-02-04 20:46:43.490144+01 | 1486237603.49014 | pgbench_history  |        262815744
 2017-02-04 20:46:43.490144+01 | 1486237603.49014 | pgbench_branches |          9183232

 2017-02-04 20:46:44.586555+01 | 1486237604.58656 | pgbench_accounts |      13631578112
 2017-02-04 20:46:44.586555+01 | 1486237604.58656 | pgbench_tellers  |         11296768
 2017-02-04 20:46:44.586555+01 | 1486237604.58656 | pgbench_history  |        265347072
 2017-02-04 20:46:44.586555+01 | 1486237604.58656 | pgbench_branches |          9183232

 2017-02-04 20:46:45.685356+01 | 1486237605.68536 | pgbench_accounts |      13631578112
 2017-02-04 20:46:45.685356+01 | 1486237605.68536 | pgbench_tellers  |         11296768
 2017-02-04 20:46:45.685356+01 | 1486237605.68536 | pgbench_history  |        268050432
 2017-02-04 20:46:45.685356+01 | 1486237605.68536 | pgbench_branches |          9183232

 2017-02-04 20:46:46.776861+01 | 1486237606.77686 | pgbench_accounts |      13631578112
 2017-02-04 20:46:46.776861+01 | 1486237606.77686 | pgbench_tellers  |         11296768
 2017-02-04 20:46:46.776861+01 | 1486237606.77686 | pgbench_history  |        270909440
 2017-02-04 20:46:46.776861+01 | 1486237606.77686 | pgbench_branches |          9183232

 2017-02-04 20:46:47.87121+01 | 1486237607.87121 | pgbench_accounts |      13631578112
 2017-02-04 20:46:47.87121+01 | 1486237607.87121 | pgbench_tellers  |         11296768
 2017-02-04 20:46:47.87121+01 | 1486237607.87121 | pgbench_history  |        273440768
 2017-02-04 20:46:47.87121+01 | 1486237607.87121 | pgbench_branches |          9183232

 2017-02-04 20:46:48.9613+01 | 1486237608.9613 | pgbench_accounts |      13631578112
 2017-02-04 20:46:48.9613+01 | 1486237608.9613 | pgbench_tellers  |         11296768
 2017-02-04 20:46:48.9613+01 | 1486237608.9613 | pgbench_history  |        276414464
 2017-02-04 20:46:48.9613+01 | 1486237608.9613 | pgbench_branches |          9183232

 2017-02-04 20:46:50.058778+01 | 1486237610.05878 | pgbench_accounts |      13631578112
 2017-02-04 20:46:50.058778+01 | 1486237610.05878 | pgbench_tellers  |         11296768
 2017-02-04 20:46:50.058778+01 | 1486237610.05878 | pgbench_history  |        278765568
 2017-02-04 20:46:50.058778+01 | 1486237610.05878 | pgbench_branches |          9183232

 2017-02-04 20:46:51.152456+01 | 1486237611.15246 | pgbench_accounts |      13631578112
 2017-02-04 20:46:51.152456+01 | 1486237611.15246 | pgbench_tellers  |         11296768
 2017-02-04 20:46:51.152456+01 | 1486237611.15246 | pgbench_history  |        280969216
 2017-02-04 20:46:51.152456+01 | 1486237611.15246 | pgbench_branches |          9183232

 2017-02-04 20:46:52.237689+01 | 1486237612.23769 | pgbench_accounts |      13631578112
 2017-02-04 20:46:52.237689+01 | 1486237612.23769 | pgbench_tellers  |         11296768
 2017-02-04 20:46:52.237689+01 | 1486237612.23769 | pgbench_history  |        283410432
 2017-02-04 20:46:52.237689+01 | 1486237612.23769 | pgbench_branches |          9183232

 2017-02-04 20:46:53.317807+01 | 1486237613.31781 | pgbench_accounts |      13631578112
 2017-02-04 20:46:53.317807+01 | 1486237613.31781 | pgbench_tellers  |         11296768
 2017-02-04 20:46:53.317807+01 | 1486237613.31781 | pgbench_history  |        287465472
 2017-02-04 20:46:53.317807+01 | 1486237613.31781 | pgbench_branches |          9183232

 2017-02-04 20:46:54.39639+01 | 1486237614.39639 | pgbench_accounts |      13631578112
 2017-02-04 20:46:54.39639+01 | 1486237614.39639 | pgbench_tellers  |         11296768
 2017-02-04 20:46:54.39639+01 | 1486237614.39639 | pgbench_history  |        289488896
 2017-02-04 20:46:54.39639+01 | 1486237614.39639 | pgbench_branches |          9183232

 2017-02-04 20:46:55.485668+01 | 1486237615.48567 | pgbench_accounts |      13631578112
 2017-02-04 20:46:55.485668+01 | 1486237615.48567 | pgbench_tellers  |         11296768
 2017-02-04 20:46:55.485668+01 | 1486237615.48567 | pgbench_history  |        293961728
 2017-02-04 20:46:55.485668+01 | 1486237615.48567 | pgbench_branches |          9183232

 2017-02-04 20:46:56.583572+01 | 1486237616.58357 | pgbench_accounts |      13631578112
 2017-02-04 20:46:56.583572+01 | 1486237616.58357 | pgbench_tellers  |         11296768
 2017-02-04 20:46:56.583572+01 | 1486237616.58357 | pgbench_history  |        294805504
 2017-02-04 20:46:56.583572+01 | 1486237616.58357 | pgbench_branches |          9183232

 2017-02-04 20:46:57.683+01 | 1486237617.683 | pgbench_accounts |      13631578112
 2017-02-04 20:46:57.683+01 | 1486237617.683 | pgbench_tellers  |         11296768
 2017-02-04 20:46:57.683+01 | 1486237617.683 | pgbench_history  |        297435136
 2017-02-04 20:46:57.683+01 | 1486237617.683 | pgbench_branches |          9183232

 2017-02-04 20:46:58.784678+01 | 1486237618.78468 | pgbench_accounts |      13631578112
 2017-02-04 20:46:58.784678+01 | 1486237618.78468 | pgbench_tellers  |         11296768
 2017-02-04 20:46:58.784678+01 | 1486237618.78468 | pgbench_history  |        299982848
 2017-02-04 20:46:58.784678+01 | 1486237618.78468 | pgbench_branches |          9183232

 2017-02-04 20:46:59.881761+01 | 1486237619.88176 | pgbench_accounts |      13631578112
 2017-02-04 20:46:59.881761+01 | 1486237619.88176 | pgbench_tellers  |         11296768
 2017-02-04 20:46:59.881761+01 | 1486237619.88176 | pgbench_history  |        302358528
 2017-02-04 20:46:59.881761+01 | 1486237619.88176 | pgbench_branches |          9183232

 2017-02-04 20:47:00.97811+01 | 1486237620.97811 | pgbench_accounts |      13631578112
 2017-02-04 20:47:00.97811+01 | 1486237620.97811 | pgbench_tellers  |         11296768
 2017-02-04 20:47:00.97811+01 | 1486237620.97811 | pgbench_history  |        305405952
 2017-02-04 20:47:00.97811+01 | 1486237620.97811 | pgbench_branches |          9183232

 2017-02-04 20:47:02.066756+01 | 1486237622.06676 | pgbench_accounts |      13631578112
 2017-02-04 20:47:02.066756+01 | 1486237622.06676 | pgbench_tellers  |         11296768
 2017-02-04 20:47:02.066756+01 | 1486237622.06676 | pgbench_history  |        307937280
 2017-02-04 20:47:02.066756+01 | 1486237622.06676 | pgbench_branches |          9183232

 2017-02-04 20:47:03.139862+01 | 1486237623.13986 | pgbench_accounts |      13631578112
 2017-02-04 20:47:03.139862+01 | 1486237623.13986 | pgbench_tellers  |         11296768
 2017-02-04 20:47:03.139862+01 | 1486237623.13986 | pgbench_history  |        310116352
 2017-02-04 20:47:03.139862+01 | 1486237623.13986 | pgbench_branches |          9183232

 2017-02-04 20:47:04.213875+01 | 1486237624.21388 | pgbench_accounts |      13631578112
 2017-02-04 20:47:04.213875+01 | 1486237624.21388 | pgbench_tellers  |         11296768
 2017-02-04 20:47:04.213875+01 | 1486237624.21388 | pgbench_history  |        313991168
 2017-02-04 20:47:04.213875+01 | 1486237624.21388 | pgbench_branches |          9183232

 2017-02-04 20:47:05.299692+01 | 1486237625.29969 | pgbench_accounts |      13631578112
 2017-02-04 20:47:05.299692+01 | 1486237625.29969 | pgbench_tellers  |         11296768
 2017-02-04 20:47:05.299692+01 | 1486237625.29969 | pgbench_history  |        315539456
 2017-02-04 20:47:05.299692+01 | 1486237625.29969 | pgbench_branches |          9183232

 2017-02-04 20:47:06.389455+01 | 1486237626.38946 | pgbench_accounts |      13631578112
 2017-02-04 20:47:06.389455+01 | 1486237626.38946 | pgbench_tellers  |         11296768
 2017-02-04 20:47:06.389455+01 | 1486237626.38946 | pgbench_history  |        318423040
 2017-02-04 20:47:06.389455+01 | 1486237626.38946 | pgbench_branches |          9183232

 2017-02-04 20:47:07.469587+01 | 1486237627.46959 | pgbench_accounts |      13631578112
 2017-02-04 20:47:07.469587+01 | 1486237627.46959 | pgbench_tellers  |         11296768
 2017-02-04 20:47:07.469587+01 | 1486237627.46959 | pgbench_history  |        320954368
 2017-02-04 20:47:07.469587+01 | 1486237627.46959 | pgbench_branches |          9183232

 2017-02-04 20:47:08.560748+01 | 1486237628.56075 | pgbench_accounts |      13631578112
 2017-02-04 20:47:08.560748+01 | 1486237628.56075 | pgbench_tellers  |         11296768
 2017-02-04 20:47:08.560748+01 | 1486237628.56075 | pgbench_history  |        323813376
 2017-02-04 20:47:08.560748+01 | 1486237628.56075 | pgbench_branches |          9183232

 2017-02-04 20:47:09.658502+01 | 1486237629.6585 | pgbench_accounts |      13631578112
 2017-02-04 20:47:09.658502+01 | 1486237629.6585 | pgbench_tellers  |         11296768
 2017-02-04 20:47:09.658502+01 | 1486237629.6585 | pgbench_history  |        327213056
 2017-02-04 20:47:09.658502+01 | 1486237629.6585 | pgbench_branches |          9183232

 2017-02-04 20:47:10.747788+01 | 1486237630.74779 | pgbench_accounts |      13631578112
 2017-02-04 20:47:10.747788+01 | 1486237630.74779 | pgbench_tellers  |         11296768
 2017-02-04 20:47:10.747788+01 | 1486237630.74779 | pgbench_history  |        329089024
 2017-02-04 20:47:10.747788+01 | 1486237630.74779 | pgbench_branches |          9183232

 2017-02-04 20:47:11.842215+01 | 1486237631.84222 | pgbench_accounts |      13631578112
 2017-02-04 20:47:11.842215+01 | 1486237631.84222 | pgbench_tellers  |         11296768
 2017-02-04 20:47:11.842215+01 | 1486237631.84222 | pgbench_history  |        331620352
 2017-02-04 20:47:11.842215+01 | 1486237631.84222 | pgbench_branches |          9183232

 2017-02-04 20:47:12.943729+01 | 1486237632.94373 | pgbench_accounts |      13631578112
 2017-02-04 20:47:12.943729+01 | 1486237632.94373 | pgbench_tellers  |         11296768
 2017-02-04 20:47:12.943729+01 | 1486237632.94373 | pgbench_history  |        334807040
 2017-02-04 20:47:12.943729+01 | 1486237632.94373 | pgbench_branches |          9183232

 2017-02-04 20:47:14.048398+01 | 1486237634.0484 | pgbench_accounts |      13631578112
 2017-02-04 20:47:14.048398+01 | 1486237634.0484 | pgbench_tellers  |         11296768
 2017-02-04 20:47:14.048398+01 | 1486237634.0484 | pgbench_history  |        337174528
 2017-02-04 20:47:14.048398+01 | 1486237634.0484 | pgbench_branches |          9183232

 2017-02-04 20:47:15.139938+01 | 1486237635.13994 | pgbench_accounts |      13631578112
 2017-02-04 20:47:15.139938+01 | 1486237635.13994 | pgbench_tellers  |         11296768
 2017-02-04 20:47:15.139938+01 | 1486237635.13994 | pgbench_history  |        340549632
 2017-02-04 20:47:15.139938+01 | 1486237635.13994 | pgbench_branches |          9183232

 2017-02-04 20:47:16.235885+01 | 1486237636.23588 | pgbench_accounts |      13631578112
 2017-02-04 20:47:16.235885+01 | 1486237636.23588 | pgbench_tellers  |         11296768
 2017-02-04 20:47:16.235885+01 | 1486237636.23588 | pgbench_history  |        342949888
 2017-02-04 20:47:16.235885+01 | 1486237636.23588 | pgbench_branches |          9183232

 2017-02-04 20:47:17.319591+01 | 1486237637.31959 | pgbench_accounts |      13631578112
 2017-02-04 20:47:17.319591+01 | 1486237637.31959 | pgbench_tellers  |         11296768
 2017-02-04 20:47:17.319591+01 | 1486237637.31959 | pgbench_history  |        345808896
 2017-02-04 20:47:17.319591+01 | 1486237637.31959 | pgbench_branches |          9183232

 2017-02-04 20:47:18.40328+01 | 1486237638.40328 | pgbench_accounts |      13631578112
 2017-02-04 20:47:18.40328+01 | 1486237638.40328 | pgbench_tellers  |         11296768
 2017-02-04 20:47:18.40328+01 | 1486237638.40328 | pgbench_history  |        347471872
 2017-02-04 20:47:18.40328+01 | 1486237638.40328 | pgbench_branches |          9183232

 2017-02-04 20:47:19.476803+01 | 1486237639.4768 | pgbench_accounts |      13631578112
 2017-02-04 20:47:19.476803+01 | 1486237639.4768 | pgbench_tellers  |         11296768
 2017-02-04 20:47:19.476803+01 | 1486237639.4768 | pgbench_history  |        350494720
 2017-02-04 20:47:19.476803+01 | 1486237639.4768 | pgbench_branches |          9183232

 2017-02-04 20:47:20.559501+01 | 1486237640.5595 | pgbench_accounts |      13631578112
 2017-02-04 20:47:20.559501+01 | 1486237640.5595 | pgbench_tellers  |         11296768
 2017-02-04 20:47:20.559501+01 | 1486237640.5595 | pgbench_history  |        353198080
 2017-02-04 20:47:20.559501+01 | 1486237640.5595 | pgbench_branches |          9183232

 2017-02-04 20:47:21.648187+01 | 1486237641.64819 | pgbench_accounts |      13631578112
 2017-02-04 20:47:21.648187+01 | 1486237641.64819 | pgbench_tellers  |         11296768
 2017-02-04 20:47:21.648187+01 | 1486237641.64819 | pgbench_history  |        355418112
 2017-02-04 20:47:21.648187+01 | 1486237641.64819 | pgbench_branches |          9183232

 2017-02-04 20:47:22.727468+01 | 1486237642.72747 | pgbench_accounts |      13631578112
 2017-02-04 20:47:22.727468+01 | 1486237642.72747 | pgbench_tellers  |         11296768
 2017-02-04 20:47:22.727468+01 | 1486237642.72747 | pgbench_history  |        358162432
 2017-02-04 20:47:22.727468+01 | 1486237642.72747 | pgbench_branches |          9183232

 2017-02-04 20:47:23.812378+01 | 1486237643.81238 | pgbench_accounts |      13631578112
 2017-02-04 20:47:23.812378+01 | 1486237643.81238 | pgbench_tellers  |         11296768
 2017-02-04 20:47:23.812378+01 | 1486237643.81238 | pgbench_history  |        361013248
 2017-02-04 20:47:23.812378+01 | 1486237643.81238 | pgbench_branches |          9183232

 2017-02-04 20:47:24.901967+01 | 1486237644.90197 | pgbench_accounts |      13631578112
 2017-02-04 20:47:24.901967+01 | 1486237644.90197 | pgbench_tellers  |         11296768
 2017-02-04 20:47:24.901967+01 | 1486237644.90197 | pgbench_history  |        363061248
 2017-02-04 20:47:24.901967+01 | 1486237644.90197 | pgbench_branches |          9183232

 2017-02-04 20:47:25.998567+01 | 1486237645.99857 | pgbench_accounts |      13631578112
 2017-02-04 20:47:25.998567+01 | 1486237645.99857 | pgbench_tellers  |         11296768
 2017-02-04 20:47:25.998567+01 | 1486237645.99857 | pgbench_history  |        366247936
 2017-02-04 20:47:25.998567+01 | 1486237645.99857 | pgbench_branches |          9183232

 2017-02-04 20:47:27.100689+01 | 1486237647.10069 | pgbench_accounts |      13631578112
 2017-02-04 20:47:27.100689+01 | 1486237647.10069 | pgbench_tellers  |         11296768
 2017-02-04 20:47:27.100689+01 | 1486237647.10069 | pgbench_history  |        370253824
 2017-02-04 20:47:27.100689+01 | 1486237647.10069 | pgbench_branches |          9183232

 2017-02-04 20:47:28.195821+01 | 1486237648.19582 | pgbench_accounts |      13631578112
 2017-02-04 20:47:28.195821+01 | 1486237648.19582 | pgbench_tellers  |         11296768
 2017-02-04 20:47:28.195821+01 | 1486237648.19582 | pgbench_history  |        372957184
 2017-02-04 20:47:28.195821+01 | 1486237648.19582 | pgbench_branches |          9183232

 2017-02-04 20:47:29.279506+01 | 1486237649.27951 | pgbench_accounts |      13631578112
 2017-02-04 20:47:29.279506+01 | 1486237649.27951 | pgbench_tellers  |         11296768
 2017-02-04 20:47:29.279506+01 | 1486237649.27951 | pgbench_history  |        374153216
 2017-02-04 20:47:29.279506+01 | 1486237649.27951 | pgbench_branches |          9183232

 2017-02-04 20:47:30.359267+01 | 1486237650.35927 | pgbench_accounts |      13631578112
 2017-02-04 20:47:30.359267+01 | 1486237650.35927 | pgbench_tellers  |         11296768
 2017-02-04 20:47:30.359267+01 | 1486237650.35927 | pgbench_history  |        377339904
 2017-02-04 20:47:30.359267+01 | 1486237650.35927 | pgbench_branches |          9183232

 2017-02-04 20:47:31.43697+01 | 1486237651.43697 | pgbench_accounts |      13631578112
 2017-02-04 20:47:31.43697+01 | 1486237651.43697 | pgbench_tellers  |         11296768
 2017-02-04 20:47:31.43697+01 | 1486237651.43697 | pgbench_history  |        378208256
 2017-02-04 20:47:31.43697+01 | 1486237651.43697 | pgbench_branches |          9183232

 2017-02-04 20:47:32.519004+01 | 1486237652.519 | pgbench_accounts |      13631578112
 2017-02-04 20:47:32.519004+01 | 1486237652.519 | pgbench_tellers  |         11296768
 2017-02-04 20:47:32.519004+01 | 1486237652.519 | pgbench_history  |        380551168
 2017-02-04 20:47:32.519004+01 | 1486237652.519 | pgbench_branches |          9183232

 2017-02-04 20:47:33.601659+01 | 1486237653.60166 | pgbench_accounts |      13631578112
 2017-02-04 20:47:33.601659+01 | 1486237653.60166 | pgbench_tellers  |         11296768
 2017-02-04 20:47:33.601659+01 | 1486237653.60166 | pgbench_history  |        383574016
 2017-02-04 20:47:33.601659+01 | 1486237653.60166 | pgbench_branches |          9183232

 2017-02-04 20:47:34.691203+01 | 1486237654.6912 | pgbench_accounts |      13631578112
 2017-02-04 20:47:34.691203+01 | 1486237654.6912 | pgbench_tellers  |         11296768
 2017-02-04 20:47:34.691203+01 | 1486237654.6912 | pgbench_history  |        387604480
 2017-02-04 20:47:34.691203+01 | 1486237654.6912 | pgbench_branches |          9183232

 2017-02-04 20:47:35.780408+01 | 1486237655.78041 | pgbench_accounts |      13631578112
 2017-02-04 20:47:35.780408+01 | 1486237655.78041 | pgbench_tellers  |         11296768
 2017-02-04 20:47:35.780408+01 | 1486237655.78041 | pgbench_history  |        388448256
 2017-02-04 20:47:35.780408+01 | 1486237655.78041 | pgbench_branches |          9183232

 2017-02-04 20:47:36.873544+01 | 1486237656.87354 | pgbench_accounts |      13631578112
 2017-02-04 20:47:36.873544+01 | 1486237656.87354 | pgbench_tellers  |         11296768
 2017-02-04 20:47:36.873544+01 | 1486237656.87354 | pgbench_history  |        390987776
 2017-02-04 20:47:36.873544+01 | 1486237656.87354 | pgbench_branches |          9183232

 2017-02-04 20:47:37.967695+01 | 1486237657.96769 | pgbench_accounts |      13631578112
 2017-02-04 20:47:37.967695+01 | 1486237657.96769 | pgbench_tellers  |         11296768
 2017-02-04 20:47:37.967695+01 | 1486237657.96769 | pgbench_history  |        394059776
 2017-02-04 20:47:37.967695+01 | 1486237657.96769 | pgbench_branches |          9183232

 2017-02-04 20:47:39.058478+01 | 1486237659.05848 | pgbench_accounts |      13631578112
 2017-02-04 20:47:39.058478+01 | 1486237659.05848 | pgbench_tellers  |         11296768
 2017-02-04 20:47:39.058478+01 | 1486237659.05848 | pgbench_history  |        398090240
 2017-02-04 20:47:39.058478+01 | 1486237659.05848 | pgbench_branches |          9183232

 2017-02-04 20:47:40.156046+01 | 1486237660.15605 | pgbench_accounts |      13631578112
 2017-02-04 20:47:40.156046+01 | 1486237660.15605 | pgbench_tellers  |         11296768
 2017-02-04 20:47:40.156046+01 | 1486237660.15605 | pgbench_history  |        399114240
 2017-02-04 20:47:40.156046+01 | 1486237660.15605 | pgbench_branches |          9183232

 2017-02-04 20:47:41.241747+01 | 1486237661.24175 | pgbench_accounts |      13631578112
 2017-02-04 20:47:41.241747+01 | 1486237661.24175 | pgbench_tellers  |         11296768
 2017-02-04 20:47:41.241747+01 | 1486237661.24175 | pgbench_history  |        402276352
 2017-02-04 20:47:41.241747+01 | 1486237661.24175 | pgbench_branches |          9183232

 2017-02-04 20:47:42.334657+01 | 1486237662.33466 | pgbench_accounts |      13631578112
 2017-02-04 20:47:42.334657+01 | 1486237662.33466 | pgbench_tellers  |         11296768
 2017-02-04 20:47:42.334657+01 | 1486237662.33466 | pgbench_history  |        404676608
 2017-02-04 20:47:42.334657+01 | 1486237662.33466 | pgbench_branches |          9183232

 2017-02-04 20:47:43.417141+01 | 1486237663.41714 | pgbench_accounts |      13631578112
 2017-02-04 20:47:43.417141+01 | 1486237663.41714 | pgbench_tellers  |         11296768
 2017-02-04 20:47:43.417141+01 | 1486237663.41714 | pgbench_history  |        409337856
 2017-02-04 20:47:43.417141+01 | 1486237663.41714 | pgbench_branches |          9183232

 2017-02-04 20:47:44.500631+01 | 1486237664.50063 | pgbench_accounts |      13631578112
 2017-02-04 20:47:44.500631+01 | 1486237664.50063 | pgbench_tellers  |         11296768
 2017-02-04 20:47:44.500631+01 | 1486237664.50063 | pgbench_history  |        410017792
 2017-02-04 20:47:44.500631+01 | 1486237664.50063 | pgbench_branches |          9183232

 2017-02-04 20:47:45.593979+01 | 1486237665.59398 | pgbench_accounts |      13631578112
 2017-02-04 20:47:45.593979+01 | 1486237665.59398 | pgbench_tellers  |         11296768
 2017-02-04 20:47:45.593979+01 | 1486237665.59398 | pgbench_history  |        414752768
 2017-02-04 20:47:45.593979+01 | 1486237665.59398 | pgbench_branches |          9183232

 2017-02-04 20:47:46.678725+01 | 1486237666.67873 | pgbench_accounts |      13631578112
 2017-02-04 20:47:46.678725+01 | 1486237666.67873 | pgbench_tellers  |         11296768
 2017-02-04 20:47:46.678725+01 | 1486237666.67873 | pgbench_history  |        417071104
 2017-02-04 20:47:46.678725+01 | 1486237666.67873 | pgbench_branches |          9183232

 2017-02-04 20:47:47.77538+01 | 1486237667.77538 | pgbench_accounts |      13631578112
 2017-02-04 20:47:47.77538+01 | 1486237667.77538 | pgbench_tellers  |         11296768
 2017-02-04 20:47:47.77538+01 | 1486237667.77538 | pgbench_history  |        419102720
 2017-02-04 20:47:47.77538+01 | 1486237667.77538 | pgbench_branches |          9183232

 2017-02-04 20:47:48.868604+01 | 1486237668.8686 | pgbench_accounts |      13631578112
 2017-02-04 20:47:48.868604+01 | 1486237668.8686 | pgbench_tellers  |         11296768
 2017-02-04 20:47:48.868604+01 | 1486237668.8686 | pgbench_history  |        420814848
 2017-02-04 20:47:48.868604+01 | 1486237668.8686 | pgbench_branches |          9183232

 2017-02-04 20:47:49.955522+01 | 1486237669.95552 | pgbench_accounts |      13631578112
 2017-02-04 20:47:49.955522+01 | 1486237669.95552 | pgbench_tellers  |         11296768
 2017-02-04 20:47:49.955522+01 | 1486237669.95552 | pgbench_history  |        423231488
 2017-02-04 20:47:49.955522+01 | 1486237669.95552 | pgbench_branches |          9183232

 2017-02-04 20:47:51.039431+01 | 1486237671.03943 | pgbench_accounts |      13631578112
 2017-02-04 20:47:51.039431+01 | 1486237671.03943 | pgbench_tellers  |         11296768
 2017-02-04 20:47:51.039431+01 | 1486237671.03943 | pgbench_history  |        428244992
 2017-02-04 20:47:51.039431+01 | 1486237671.03943 | pgbench_branches |          9183232

 2017-02-04 20:47:52.128967+01 | 1486237672.12897 | pgbench_accounts |      13631578112
 2017-02-04 20:47:52.128967+01 | 1486237672.12897 | pgbench_tellers  |         11296768
 2017-02-04 20:47:52.128967+01 | 1486237672.12897 | pgbench_history  |        428244992
 2017-02-04 20:47:52.128967+01 | 1486237672.12897 | pgbench_branches |          9183232

 2017-02-04 20:47:53.221581+01 | 1486237673.22158 | pgbench_accounts |      13631578112
 2017-02-04 20:47:53.221581+01 | 1486237673.22158 | pgbench_tellers  |         11296768
 2017-02-04 20:47:53.221581+01 | 1486237673.22158 | pgbench_history  |        431104000
 2017-02-04 20:47:53.221581+01 | 1486237673.22158 | pgbench_branches |          9183232

 2017-02-04 20:47:54.299372+01 | 1486237674.29937 | pgbench_accounts |      13631578112
 2017-02-04 20:47:54.299372+01 | 1486237674.29937 | pgbench_tellers  |         11296768
 2017-02-04 20:47:54.299372+01 | 1486237674.29937 | pgbench_history  |        436584448
 2017-02-04 20:47:54.299372+01 | 1486237674.29937 | pgbench_branches |          9183232

 2017-02-04 20:47:55.376431+01 | 1486237675.37643 | pgbench_accounts |      13631578112
 2017-02-04 20:47:55.376431+01 | 1486237675.37643 | pgbench_tellers  |         11296768
 2017-02-04 20:47:55.376431+01 | 1486237675.37643 | pgbench_history  |        436584448
 2017-02-04 20:47:55.376431+01 | 1486237675.37643 | pgbench_branches |          9183232

 2017-02-04 20:47:56.462655+01 | 1486237676.46266 | pgbench_accounts |      13631578112
 2017-02-04 20:47:56.462655+01 | 1486237676.46266 | pgbench_tellers  |         11296768
 2017-02-04 20:47:56.462655+01 | 1486237676.46266 | pgbench_history  |        438788096
 2017-02-04 20:47:56.462655+01 | 1486237676.46266 | pgbench_branches |          9183232

 2017-02-04 20:47:57.548193+01 | 1486237677.54819 | pgbench_accounts |      13631578112
 2017-02-04 20:47:57.548193+01 | 1486237677.54819 | pgbench_tellers  |         11296768
 2017-02-04 20:47:57.548193+01 | 1486237677.54819 | pgbench_history  |        441319424
 2017-02-04 20:47:57.548193+01 | 1486237677.54819 | pgbench_branches |          9183232

 2017-02-04 20:47:58.634872+01 | 1486237678.63487 | pgbench_accounts |      13631578112
 2017-02-04 20:47:58.634872+01 | 1486237678.63487 | pgbench_tellers  |         11296768
 2017-02-04 20:47:58.634872+01 | 1486237678.63487 | pgbench_history  |        443170816
 2017-02-04 20:47:58.634872+01 | 1486237678.63487 | pgbench_branches |          9183232

 2017-02-04 20:47:59.726422+01 | 1486237679.72642 | pgbench_accounts |      13631578112
 2017-02-04 20:47:59.726422+01 | 1486237679.72642 | pgbench_tellers  |         11296768
 2017-02-04 20:47:59.726422+01 | 1486237679.72642 | pgbench_history  |        448069632
 2017-02-04 20:47:59.726422+01 | 1486237679.72642 | pgbench_branches |          9183232

 2017-02-04 20:48:00.835578+01 | 1486237680.83558 | pgbench_accounts |      13631578112
 2017-02-04 20:48:00.835578+01 | 1486237680.83558 | pgbench_tellers  |         11296768
 2017-02-04 20:48:00.835578+01 | 1486237680.83558 | pgbench_history  |        449101824
 2017-02-04 20:48:00.835578+01 | 1486237680.83558 | pgbench_branches |          9183232

 2017-02-04 20:48:01.925223+01 | 1486237681.92522 | pgbench_accounts |      13631578112
 2017-02-04 20:48:01.925223+01 | 1486237681.92522 | pgbench_tellers  |         11296768
 2017-02-04 20:48:01.925223+01 | 1486237681.92522 | pgbench_history  |        451444736
 2017-02-04 20:48:01.925223+01 | 1486237681.92522 | pgbench_branches |          9183232

 2017-02-04 20:48:03.018854+01 | 1486237683.01885 | pgbench_accounts |      13631578112
 2017-02-04 20:48:03.018854+01 | 1486237683.01885 | pgbench_tellers  |         11296768
 2017-02-04 20:48:03.018854+01 | 1486237683.01885 | pgbench_history  |        454352896
 2017-02-04 20:48:03.018854+01 | 1486237683.01885 | pgbench_branches |          9183232

 2017-02-04 20:48:04.108671+01 | 1486237684.10867 | pgbench_accounts |      13631578112
 2017-02-04 20:48:04.108671+01 | 1486237684.10867 | pgbench_tellers  |         11296768
 2017-02-04 20:48:04.108671+01 | 1486237684.10867 | pgbench_history  |        457048064
 2017-02-04 20:48:04.108671+01 | 1486237684.10867 | pgbench_branches |          9183232

 2017-02-04 20:48:05.208398+01 | 1486237685.2084 | pgbench_accounts |      13631578112
 2017-02-04 20:48:05.208398+01 | 1486237685.2084 | pgbench_tellers  |         11296768
 2017-02-04 20:48:05.208398+01 | 1486237685.2084 | pgbench_history  |        459481088
 2017-02-04 20:48:05.208398+01 | 1486237685.2084 | pgbench_branches |          9183232

 2017-02-04 20:48:06.298516+01 | 1486237686.29852 | pgbench_accounts |      13631578112
 2017-02-04 20:48:06.298516+01 | 1486237686.29852 | pgbench_tellers  |         11296768
 2017-02-04 20:48:06.298516+01 | 1486237686.29852 | pgbench_history  |        463347712
 2017-02-04 20:48:06.298516+01 | 1486237686.29852 | pgbench_branches |          9183232

 2017-02-04 20:48:07.37719+01 | 1486237687.37719 | pgbench_accounts |      13631578112
 2017-02-04 20:48:07.37719+01 | 1486237687.37719 | pgbench_tellers  |         11296768
 2017-02-04 20:48:07.37719+01 | 1486237687.37719 | pgbench_history  |        464683008
 2017-02-04 20:48:07.37719+01 | 1486237687.37719 | pgbench_branches |          9183232

 2017-02-04 20:48:08.455917+01 | 1486237688.45592 | pgbench_accounts |      13631578112
 2017-02-04 20:48:08.455917+01 | 1486237688.45592 | pgbench_tellers  |         11296768
 2017-02-04 20:48:08.455917+01 | 1486237688.45592 | pgbench_history  |        467542016
 2017-02-04 20:48:08.455917+01 | 1486237688.45592 | pgbench_branches |          9183232

 2017-02-04 20:48:09.537634+01 | 1486237689.53763 | pgbench_accounts |      13631578112
 2017-02-04 20:48:09.537634+01 | 1486237689.53763 | pgbench_tellers  |         11296768
 2017-02-04 20:48:09.537634+01 | 1486237689.53763 | pgbench_history  |        470441984
 2017-02-04 20:48:09.537634+01 | 1486237689.53763 | pgbench_branches |          9183232

 2017-02-04 20:48:10.625139+01 | 1486237690.62514 | pgbench_accounts |      13631578112
 2017-02-04 20:48:10.625139+01 | 1486237690.62514 | pgbench_tellers  |         11296768
 2017-02-04 20:48:10.625139+01 | 1486237690.62514 | pgbench_history  |        472784896
 2017-02-04 20:48:10.625139+01 | 1486237690.62514 | pgbench_branches |          9183232

 2017-02-04 20:48:11.718038+01 | 1486237691.71804 | pgbench_accounts |      13631578112
 2017-02-04 20:48:11.718038+01 | 1486237691.71804 | pgbench_tellers  |         11296768
 2017-02-04 20:48:11.718038+01 | 1486237691.71804 | pgbench_history  |        475668480
 2017-02-04 20:48:11.718038+01 | 1486237691.71804 | pgbench_branches |          9183232

 2017-02-04 20:48:12.823697+01 | 1486237692.8237 | pgbench_accounts |      13631578112
 2017-02-04 20:48:12.823697+01 | 1486237692.8237 | pgbench_tellers  |         11296768
 2017-02-04 20:48:12.823697+01 | 1486237692.8237 | pgbench_history  |        478085120
 2017-02-04 20:48:12.823697+01 | 1486237692.8237 | pgbench_branches |          9183232

 2017-02-04 20:48:13.924568+01 | 1486237693.92457 | pgbench_accounts |      13631578112
 2017-02-04 20:48:13.924568+01 | 1486237693.92457 | pgbench_tellers  |         11296768
 2017-02-04 20:48:13.924568+01 | 1486237693.92457 | pgbench_history  |        480919552
 2017-02-04 20:48:13.924568+01 | 1486237693.92457 | pgbench_branches |          9183232

 2017-02-04 20:48:15.026723+01 | 1486237695.02672 | pgbench_accounts |      13631578112
 2017-02-04 20:48:15.026723+01 | 1486237695.02672 | pgbench_tellers  |         11296768
 2017-02-04 20:48:15.026723+01 | 1486237695.02672 | pgbench_history  |        484737024
 2017-02-04 20:48:15.026723+01 | 1486237695.02672 | pgbench_branches |          9183232

 2017-02-04 20:48:16.123746+01 | 1486237696.12375 | pgbench_accounts |      13631578112
 2017-02-04 20:48:16.123746+01 | 1486237696.12375 | pgbench_tellers  |         11296768
 2017-02-04 20:48:16.123746+01 | 1486237696.12375 | pgbench_history  |        487571456
 2017-02-04 20:48:16.123746+01 | 1486237696.12375 | pgbench_branches |          9183232

 2017-02-04 20:48:17.220518+01 | 1486237697.22052 | pgbench_accounts |      13631578112
 2017-02-04 20:48:17.220518+01 | 1486237697.22052 | pgbench_tellers  |         11296768
 2017-02-04 20:48:17.220518+01 | 1486237697.22052 | pgbench_history  |        490274816
 2017-02-04 20:48:17.220518+01 | 1486237697.22052 | pgbench_branches |          9183232

 2017-02-04 20:48:18.301461+01 | 1486237698.30146 | pgbench_accounts |      13631578112
 2017-02-04 20:48:18.301461+01 | 1486237698.30146 | pgbench_tellers  |         11296768
 2017-02-04 20:48:18.301461+01 | 1486237698.30146 | pgbench_history  |        491634688
 2017-02-04 20:48:18.301461+01 | 1486237698.30146 | pgbench_branches |          9183232

 2017-02-04 20:48:19.371302+01 | 1486237699.3713 | pgbench_accounts |      13631578112
 2017-02-04 20:48:19.371302+01 | 1486237699.3713 | pgbench_tellers  |         11296768
 2017-02-04 20:48:19.371302+01 | 1486237699.3713 | pgbench_history  |        495665152
 2017-02-04 20:48:19.371302+01 | 1486237699.3713 | pgbench_branches |          9183232

 2017-02-04 20:48:20.451868+01 | 1486237700.45187 | pgbench_accounts |      13631578112
 2017-02-04 20:48:20.451868+01 | 1486237700.45187 | pgbench_tellers  |         11296768
 2017-02-04 20:48:20.451868+01 | 1486237700.45187 | pgbench_history  |        500424704
 2017-02-04 20:48:20.451868+01 | 1486237700.45187 | pgbench_branches |          9183232

 2017-02-04 20:48:21.538442+01 | 1486237701.53844 | pgbench_accounts |      13631578112
 2017-02-04 20:48:21.538442+01 | 1486237701.53844 | pgbench_tellers  |         11296768
 2017-02-04 20:48:21.538442+01 | 1486237701.53844 | pgbench_history  |        500424704
 2017-02-04 20:48:21.538442+01 | 1486237701.53844 | pgbench_branches |          9183232

 2017-02-04 20:48:22.62033+01 | 1486237702.62033 | pgbench_accounts |      13631578112
 2017-02-04 20:48:22.62033+01 | 1486237702.62033 | pgbench_tellers  |         11296768
 2017-02-04 20:48:22.62033+01 | 1486237702.62033 | pgbench_history  |        502112256
 2017-02-04 20:48:22.62033+01 | 1486237702.62033 | pgbench_branches |          9183232

 2017-02-04 20:48:23.702095+01 | 1486237703.7021 | pgbench_accounts |      13631578112
 2017-02-04 20:48:23.702095+01 | 1486237703.7021 | pgbench_tellers  |         11296768
 2017-02-04 20:48:23.702095+01 | 1486237703.7021 | pgbench_history  |        504266752
 2017-02-04 20:48:23.702095+01 | 1486237703.7021 | pgbench_branches |          9183232

 2017-02-04 20:48:24.795812+01 | 1486237704.79581 | pgbench_accounts |      13631578112
 2017-02-04 20:48:24.795812+01 | 1486237704.79581 | pgbench_tellers  |         11296768
 2017-02-04 20:48:24.795812+01 | 1486237704.79581 | pgbench_history  |        506470400
 2017-02-04 20:48:24.795812+01 | 1486237704.79581 | pgbench_branches |          9183232

 2017-02-04 20:48:25.882728+01 | 1486237705.88273 | pgbench_accounts |      13631578112
 2017-02-04 20:48:25.882728+01 | 1486237705.88273 | pgbench_tellers  |         11296768
 2017-02-04 20:48:25.882728+01 | 1486237705.88273 | pgbench_history  |        513220608
 2017-02-04 20:48:25.882728+01 | 1486237705.88273 | pgbench_branches |          9183232

 2017-02-04 20:48:26.972167+01 | 1486237706.97217 | pgbench_accounts |      13631578112
 2017-02-04 20:48:26.972167+01 | 1486237706.97217 | pgbench_tellers  |         11296768
 2017-02-04 20:48:26.972167+01 | 1486237706.97217 | pgbench_history  |        513220608
 2017-02-04 20:48:26.972167+01 | 1486237706.97217 | pgbench_branches |          9183232

 2017-02-04 20:48:28.070149+01 | 1486237708.07015 | pgbench_accounts |      13631578112
 2017-02-04 20:48:28.070149+01 | 1486237708.07015 | pgbench_tellers  |         11296768
 2017-02-04 20:48:28.070149+01 | 1486237708.07015 | pgbench_history  |        514605056
 2017-02-04 20:48:28.070149+01 | 1486237708.07015 | pgbench_branches |          9183232

 2017-02-04 20:48:29.166871+01 | 1486237709.16687 | pgbench_accounts |      13631578112
 2017-02-04 20:48:29.166871+01 | 1486237709.16687 | pgbench_tellers  |         11296768
 2017-02-04 20:48:29.166871+01 | 1486237709.16687 | pgbench_history  |        517652480
 2017-02-04 20:48:29.166871+01 | 1486237709.16687 | pgbench_branches |          9183232

 2017-02-04 20:48:30.254638+01 | 1486237710.25464 | pgbench_accounts |      13631578112
 2017-02-04 20:48:30.254638+01 | 1486237710.25464 | pgbench_tellers  |         11296768
 2017-02-04 20:48:30.254638+01 | 1486237710.25464 | pgbench_history  |        519667712
 2017-02-04 20:48:30.254638+01 | 1486237710.25464 | pgbench_branches |          9183232

 2017-02-04 20:48:31.339009+01 | 1486237711.33901 | pgbench_accounts |      13631578112
 2017-02-04 20:48:31.339009+01 | 1486237711.33901 | pgbench_tellers  |         11296768
 2017-02-04 20:48:31.339009+01 | 1486237711.33901 | pgbench_history  |        522690560
 2017-02-04 20:48:31.339009+01 | 1486237711.33901 | pgbench_branches |          9183232

 2017-02-04 20:48:32.430558+01 | 1486237712.43056 | pgbench_accounts |      13631578112
 2017-02-04 20:48:32.430558+01 | 1486237712.43056 | pgbench_tellers  |         11296768
 2017-02-04 20:48:32.430558+01 | 1486237712.43056 | pgbench_history  |        524566528
 2017-02-04 20:48:32.430558+01 | 1486237712.43056 | pgbench_branches |          9183232

 2017-02-04 20:48:33.513756+01 | 1486237713.51376 | pgbench_accounts |      13631578112
 2017-02-04 20:48:33.513756+01 | 1486237713.51376 | pgbench_tellers  |         11296768
 2017-02-04 20:48:33.513756+01 | 1486237713.51376 | pgbench_history  |        529883136
 2017-02-04 20:48:33.513756+01 | 1486237713.51376 | pgbench_branches |          9183232

 2017-02-04 20:48:34.606019+01 | 1486237714.60602 | pgbench_accounts |      13631578112
 2017-02-04 20:48:34.606019+01 | 1486237714.60602 | pgbench_tellers  |         11296768
 2017-02-04 20:48:34.606019+01 | 1486237714.60602 | pgbench_history  |        529883136
 2017-02-04 20:48:34.606019+01 | 1486237714.60602 | pgbench_branches |          9183232

 2017-02-04 20:48:35.690753+01 | 1486237715.69075 | pgbench_accounts |      13631578112
 2017-02-04 20:48:35.690753+01 | 1486237715.69075 | pgbench_tellers  |         11296768
 2017-02-04 20:48:35.690753+01 | 1486237715.69075 | pgbench_history  |        532250624
 2017-02-04 20:48:35.690753+01 | 1486237715.69075 | pgbench_branches |          9183232

 2017-02-04 20:48:36.782542+01 | 1486237716.78254 | pgbench_accounts |      13631578112
 2017-02-04 20:48:36.782542+01 | 1486237716.78254 | pgbench_tellers  |         11296768
 2017-02-04 20:48:36.782542+01 | 1486237716.78254 | pgbench_history  |        534618112
 2017-02-04 20:48:36.782542+01 | 1486237716.78254 | pgbench_branches |          9183232

 2017-02-04 20:48:37.870626+01 | 1486237717.87063 | pgbench_accounts |      13631578112
 2017-02-04 20:48:37.870626+01 | 1486237717.87063 | pgbench_tellers  |         11296768
 2017-02-04 20:48:37.870626+01 | 1486237717.87063 | pgbench_history  |        537477120
 2017-02-04 20:48:37.870626+01 | 1486237717.87063 | pgbench_branches |          9183232

 2017-02-04 20:48:38.956455+01 | 1486237718.95645 | pgbench_accounts |      13631774720
 2017-02-04 20:48:38.956455+01 | 1486237718.95645 | pgbench_tellers  |         11296768
 2017-02-04 20:48:38.956455+01 | 1486237718.95645 | pgbench_history  |        538976256
 2017-02-04 20:48:38.956455+01 | 1486237718.95645 | pgbench_branches |          9183232

 2017-02-04 20:48:40.062438+01 | 1486237720.06244 | pgbench_accounts |      13631774720
 2017-02-04 20:48:40.062438+01 | 1486237720.06244 | pgbench_tellers  |         11296768
 2017-02-04 20:48:40.062438+01 | 1486237720.06244 | pgbench_history  |        541892608
 2017-02-04 20:48:40.062438+01 | 1486237720.06244 | pgbench_branches |          9183232

 2017-02-04 20:48:41.156603+01 | 1486237721.1566 | pgbench_accounts |      13631971328
 2017-02-04 20:48:41.156603+01 | 1486237721.1566 | pgbench_tellers  |         11296768
 2017-02-04 20:48:41.156603+01 | 1486237721.1566 | pgbench_history  |        545267712
 2017-02-04 20:48:41.156603+01 | 1486237721.1566 | pgbench_branches |          9183232

 2017-02-04 20:48:42.255719+01 | 1486237722.25572 | pgbench_accounts |      13632233472
 2017-02-04 20:48:42.255719+01 | 1486237722.25572 | pgbench_tellers  |         11296768
 2017-02-04 20:48:42.255719+01 | 1486237722.25572 | pgbench_history  |        547610624
 2017-02-04 20:48:42.255719+01 | 1486237722.25572 | pgbench_branches |          9183232

 2017-02-04 20:48:43.338758+01 | 1486237723.33876 | pgbench_accounts |      13632233472
 2017-02-04 20:48:43.338758+01 | 1486237723.33876 | pgbench_tellers  |         11296768
 2017-02-04 20:48:43.338758+01 | 1486237723.33876 | pgbench_history  |        551829504
 2017-02-04 20:48:43.338758+01 | 1486237723.33876 | pgbench_branches |          9183232

 2017-02-04 20:48:44.4187+01 | 1486237724.4187 | pgbench_accounts |      13632700416
 2017-02-04 20:48:44.4187+01 | 1486237724.4187 | pgbench_tellers  |         11296768
 2017-02-04 20:48:44.4187+01 | 1486237724.4187 | pgbench_history  |        551829504
 2017-02-04 20:48:44.4187+01 | 1486237724.4187 | pgbench_branches |          9183232

 2017-02-04 20:48:45.500956+01 | 1486237725.50096 | pgbench_accounts |      13632700416
 2017-02-04 20:48:45.500956+01 | 1486237725.50096 | pgbench_tellers  |         11296768
 2017-02-04 20:48:45.500956+01 | 1486237725.50096 | pgbench_history  |        554991616
 2017-02-04 20:48:45.500956+01 | 1486237725.50096 | pgbench_branches |          9183232

 2017-02-04 20:48:46.587581+01 | 1486237726.58758 | pgbench_accounts |      13632700416
 2017-02-04 20:48:46.587581+01 | 1486237726.58758 | pgbench_tellers  |         11296768
 2017-02-04 20:48:46.587581+01 | 1486237726.58758 | pgbench_history  |        555999232
 2017-02-04 20:48:46.587581+01 | 1486237726.58758 | pgbench_branches |          9183232

 2017-02-04 20:48:47.668559+01 | 1486237727.66856 | pgbench_accounts |      13632700416
 2017-02-04 20:48:47.668559+01 | 1486237727.66856 | pgbench_tellers  |         11296768
 2017-02-04 20:48:47.668559+01 | 1486237727.66856 | pgbench_history  |        558710784
 2017-02-04 20:48:47.668559+01 | 1486237727.66856 | pgbench_branches |          9183232

 2017-02-04 20:48:48.755447+01 | 1486237728.75545 | pgbench_accounts |      13632700416
 2017-02-04 20:48:48.755447+01 | 1486237728.75545 | pgbench_tellers  |         11296768
 2017-02-04 20:48:48.755447+01 | 1486237728.75545 | pgbench_history  |        560939008
 2017-02-04 20:48:48.755447+01 | 1486237728.75545 | pgbench_branches |          9183232

 2017-02-04 20:48:49.847395+01 | 1486237729.84739 | pgbench_accounts |      13633077248
 2017-02-04 20:48:49.847395+01 | 1486237729.84739 | pgbench_tellers  |         11296768
 2017-02-04 20:48:49.847395+01 | 1486237729.84739 | pgbench_history  |        565108736
 2017-02-04 20:48:49.847395+01 | 1486237729.84739 | pgbench_branches |          9183232

 2017-02-04 20:48:50.932797+01 | 1486237730.9328 | pgbench_accounts |      13633077248
 2017-02-04 20:48:50.932797+01 | 1486237730.9328 | pgbench_tellers  |         11296768
 2017-02-04 20:48:50.932797+01 | 1486237730.9328 | pgbench_history  |        566935552
 2017-02-04 20:48:50.932797+01 | 1486237730.9328 | pgbench_branches |          9183232

 2017-02-04 20:48:52.026733+01 | 1486237732.02673 | pgbench_accounts |      13633077248
 2017-02-04 20:48:52.026733+01 | 1486237732.02673 | pgbench_tellers  |         11296768
 2017-02-04 20:48:52.026733+01 | 1486237732.02673 | pgbench_history  |        568950784
 2017-02-04 20:48:52.026733+01 | 1486237732.02673 | pgbench_branches |          9183232

 2017-02-04 20:48:53.114077+01 | 1486237733.11408 | pgbench_accounts |      13633077248
 2017-02-04 20:48:53.114077+01 | 1486237733.11408 | pgbench_tellers  |         11296768
 2017-02-04 20:48:53.114077+01 | 1486237733.11408 | pgbench_history  |        570310656
 2017-02-04 20:48:53.114077+01 | 1486237733.11408 | pgbench_branches |          9183232

 2017-02-04 20:48:54.197273+01 | 1486237734.19727 | pgbench_accounts |      13633273856
 2017-02-04 20:48:54.197273+01 | 1486237734.19727 | pgbench_tellers  |         11296768
 2017-02-04 20:48:54.197273+01 | 1486237734.19727 | pgbench_history  |        572489728
 2017-02-04 20:48:54.197273+01 | 1486237734.19727 | pgbench_branches |          9183232

 2017-02-04 20:48:55.291993+01 | 1486237735.29199 | pgbench_accounts |      13633273856
 2017-02-04 20:48:55.291993+01 | 1486237735.29199 | pgbench_tellers  |         11296768
 2017-02-04 20:48:55.291993+01 | 1486237735.29199 | pgbench_history  |        575209472
 2017-02-04 20:48:55.291993+01 | 1486237735.29199 | pgbench_branches |          9183232

 2017-02-04 20:48:56.37578+01 | 1486237736.37578 | pgbench_accounts |      13633503232
 2017-02-04 20:48:56.37578+01 | 1486237736.37578 | pgbench_tellers  |         11296768
 2017-02-04 20:48:56.37578+01 | 1486237736.37578 | pgbench_history  |        579895296
 2017-02-04 20:48:56.37578+01 | 1486237736.37578 | pgbench_branches |          9183232

 2017-02-04 20:48:57.45837+01 | 1486237737.45837 | pgbench_accounts |      13633503232
 2017-02-04 20:48:57.45837+01 | 1486237737.45837 | pgbench_tellers  |         11296768
 2017-02-04 20:48:57.45837+01 | 1486237737.45837 | pgbench_history  |        580575232
 2017-02-04 20:48:57.45837+01 | 1486237737.45837 | pgbench_branches |          9183232

 2017-02-04 20:48:58.543424+01 | 1486237738.54342 | pgbench_accounts |      13633781760
 2017-02-04 20:48:58.543424+01 | 1486237738.54342 | pgbench_tellers  |         11296768
 2017-02-04 20:48:58.543424+01 | 1486237738.54342 | pgbench_history  |        583081984
 2017-02-04 20:48:58.543424+01 | 1486237738.54342 | pgbench_branches |          9183232

 2017-02-04 20:48:59.627098+01 | 1486237739.6271 | pgbench_accounts |      13633781760
 2017-02-04 20:48:59.627098+01 | 1486237739.6271 | pgbench_tellers  |         11296768
 2017-02-04 20:48:59.627098+01 | 1486237739.6271 | pgbench_history  |        585777152
 2017-02-04 20:48:59.627098+01 | 1486237739.6271 | pgbench_branches |          9183232

 2017-02-04 20:49:00.71021+01 | 1486237740.71021 | pgbench_accounts |      13634265088
 2017-02-04 20:49:00.71021+01 | 1486237740.71021 | pgbench_tellers  |         11296768
 2017-02-04 20:49:00.71021+01 | 1486237740.71021 | pgbench_history  |        588963840
 2017-02-04 20:49:00.71021+01 | 1486237740.71021 | pgbench_branches |          9183232

 2017-02-04 20:49:01.802767+01 | 1486237741.80277 | pgbench_accounts |      13634289664
 2017-02-04 20:49:01.802767+01 | 1486237741.80277 | pgbench_tellers  |         11296768
 2017-02-04 20:49:01.802767+01 | 1486237741.80277 | pgbench_history  |        591355904
 2017-02-04 20:49:01.802767+01 | 1486237741.80277 | pgbench_branches |          9183232

 2017-02-04 20:49:02.891821+01 | 1486237742.89182 | pgbench_accounts |      13634306048
 2017-02-04 20:49:02.891821+01 | 1486237742.89182 | pgbench_tellers  |         11296768
 2017-02-04 20:49:02.891821+01 | 1486237742.89182 | pgbench_history  |        594051072
 2017-02-04 20:49:02.891821+01 | 1486237742.89182 | pgbench_branches |          9183232

 2017-02-04 20:49:03.983162+01 | 1486237743.98316 | pgbench_accounts |      13634355200
 2017-02-04 20:49:03.983162+01 | 1486237743.98316 | pgbench_tellers  |         11296768
 2017-02-04 20:49:03.983162+01 | 1486237743.98316 | pgbench_history  |        596148224
 2017-02-04 20:49:03.983162+01 | 1486237743.98316 | pgbench_branches |          9183232

 2017-02-04 20:49:05.065668+01 | 1486237745.06567 | pgbench_accounts |      13634428928
 2017-02-04 20:49:05.065668+01 | 1486237745.06567 | pgbench_tellers  |         11296768
 2017-02-04 20:49:05.065668+01 | 1486237745.06567 | pgbench_history  |        600367104
 2017-02-04 20:49:05.065668+01 | 1486237745.06567 | pgbench_branches |          9183232

 2017-02-04 20:49:06.145819+01 | 1486237746.14582 | pgbench_accounts |      13634494464
 2017-02-04 20:49:06.145819+01 | 1486237746.14582 | pgbench_tellers  |         11296768
 2017-02-04 20:49:06.145819+01 | 1486237746.14582 | pgbench_history  |        601432064
 2017-02-04 20:49:06.145819+01 | 1486237746.14582 | pgbench_branches |          9183232

 2017-02-04 20:49:07.237557+01 | 1486237747.23756 | pgbench_accounts |      13634764800
 2017-02-04 20:49:07.237557+01 | 1486237747.23756 | pgbench_tellers  |         11296768
 2017-02-04 20:49:07.237557+01 | 1486237747.23756 | pgbench_history  |        604921856
 2017-02-04 20:49:07.237557+01 | 1486237747.23756 | pgbench_branches |          9183232

 2017-02-04 20:49:08.333353+01 | 1486237748.33335 | pgbench_accounts |      13634904064
 2017-02-04 20:49:08.333353+01 | 1486237748.33335 | pgbench_tellers  |         11296768
 2017-02-04 20:49:08.333353+01 | 1486237748.33335 | pgbench_history  |        606445568
 2017-02-04 20:49:08.333353+01 | 1486237748.33335 | pgbench_branches |          9183232

 2017-02-04 20:49:09.416759+01 | 1486237749.41676 | pgbench_accounts |      13634953216
 2017-02-04 20:49:09.416759+01 | 1486237749.41676 | pgbench_tellers  |         11296768
 2017-02-04 20:49:09.416759+01 | 1486237749.41676 | pgbench_history  |        612188160
 2017-02-04 20:49:09.416759+01 | 1486237749.41676 | pgbench_branches |          9183232

 2017-02-04 20:49:10.505977+01 | 1486237750.50598 | pgbench_accounts |      13635002368
 2017-02-04 20:49:10.505977+01 | 1486237750.50598 | pgbench_tellers  |         11296768
 2017-02-04 20:49:10.505977+01 | 1486237750.50598 | pgbench_history  |        612188160
 2017-02-04 20:49:10.505977+01 | 1486237750.50598 | pgbench_branches |          9183232

 2017-02-04 20:49:11.590775+01 | 1486237751.59078 | pgbench_accounts |      13635043328
 2017-02-04 20:49:11.590775+01 | 1486237751.59078 | pgbench_tellers  |         11296768
 2017-02-04 20:49:11.590775+01 | 1486237751.59078 | pgbench_history  |        614555648
 2017-02-04 20:49:11.590775+01 | 1486237751.59078 | pgbench_branches |          9183232

 2017-02-04 20:49:12.676725+01 | 1486237752.67672 | pgbench_accounts |      13635182592
 2017-02-04 20:49:12.676725+01 | 1486237752.67672 | pgbench_tellers  |         11296768
 2017-02-04 20:49:12.676725+01 | 1486237752.67672 | pgbench_history  |        616996864
 2017-02-04 20:49:12.676725+01 | 1486237752.67672 | pgbench_branches |          9183232

 2017-02-04 20:49:13.759049+01 | 1486237753.75905 | pgbench_accounts |      13635264512
 2017-02-04 20:49:13.759049+01 | 1486237753.75905 | pgbench_tellers  |         11296768
 2017-02-04 20:49:13.759049+01 | 1486237753.75905 | pgbench_history  |        619225088
 2017-02-04 20:49:13.759049+01 | 1486237753.75905 | pgbench_branches |          9183232

 2017-02-04 20:49:14.847998+01 | 1486237754.848 | pgbench_accounts |      13635411968
 2017-02-04 20:49:14.847998+01 | 1486237754.848 | pgbench_tellers  |         11296768
 2017-02-04 20:49:14.847998+01 | 1486237754.848 | pgbench_history  |        621731840
 2017-02-04 20:49:14.847998+01 | 1486237754.848 | pgbench_branches |          9183232

 2017-02-04 20:49:15.938817+01 | 1486237755.93882 | pgbench_accounts |      13635526656
 2017-02-04 20:49:15.938817+01 | 1486237755.93882 | pgbench_tellers  |         11296768
 2017-02-04 20:49:15.938817+01 | 1486237755.93882 | pgbench_history  |        623583232
 2017-02-04 20:49:15.938817+01 | 1486237755.93882 | pgbench_branches |          9183232

 2017-02-04 20:49:17.02943+01 | 1486237757.02943 | pgbench_accounts |      13635575808
 2017-02-04 20:49:17.02943+01 | 1486237757.02943 | pgbench_tellers  |         11296768
 2017-02-04 20:49:17.02943+01 | 1486237757.02943 | pgbench_history  |        625491968
 2017-02-04 20:49:17.02943+01 | 1486237757.02943 | pgbench_branches |          9183232

 2017-02-04 20:49:18.117767+01 | 1486237758.11777 | pgbench_accounts |      13635608576
 2017-02-04 20:49:18.117767+01 | 1486237758.11777 | pgbench_tellers  |         11296768
 2017-02-04 20:49:18.117767+01 | 1486237758.11777 | pgbench_history  |        627884032
 2017-02-04 20:49:18.117767+01 | 1486237758.11777 | pgbench_branches |          9183232

 2017-02-04 20:49:19.213338+01 | 1486237759.21334 | pgbench_accounts |      13635641344
 2017-02-04 20:49:19.213338+01 | 1486237759.21334 | pgbench_tellers  |         11296768
 2017-02-04 20:49:19.213338+01 | 1486237759.21334 | pgbench_history  |        629768192
 2017-02-04 20:49:19.213338+01 | 1486237759.21334 | pgbench_branches |          9183232

 2017-02-04 20:49:20.295344+01 | 1486237760.29534 | pgbench_accounts |      13635780608
 2017-02-04 20:49:20.295344+01 | 1486237760.29534 | pgbench_tellers  |         11296768
 2017-02-04 20:49:20.295344+01 | 1486237760.29534 | pgbench_history  |        632791040
 2017-02-04 20:49:20.295344+01 | 1486237760.29534 | pgbench_branches |          9183232

 2017-02-04 20:49:21.385122+01 | 1486237761.38512 | pgbench_accounts |      13636280320
 2017-02-04 20:49:21.385122+01 | 1486237761.38512 | pgbench_tellers  |         11296768
 2017-02-04 20:49:21.385122+01 | 1486237761.38512 | pgbench_history  |        634642432
 2017-02-04 20:49:21.385122+01 | 1486237761.38512 | pgbench_branches |          9183232

 2017-02-04 20:49:22.475251+01 | 1486237762.47525 | pgbench_accounts |      13636952064
 2017-02-04 20:49:22.475251+01 | 1486237762.47525 | pgbench_tellers  |         11296768
 2017-02-04 20:49:22.475251+01 | 1486237762.47525 | pgbench_history  |        637059072
 2017-02-04 20:49:22.475251+01 | 1486237762.47525 | pgbench_branches |          9183232

 2017-02-04 20:49:23.562316+01 | 1486237763.56232 | pgbench_accounts |      13637001216
 2017-02-04 20:49:23.562316+01 | 1486237763.56232 | pgbench_tellers  |         11296768
 2017-02-04 20:49:23.562316+01 | 1486237763.56232 | pgbench_history  |        639401984
 2017-02-04 20:49:23.562316+01 | 1486237763.56232 | pgbench_branches |          9183232

 2017-02-04 20:49:24.646379+01 | 1486237764.64638 | pgbench_accounts |      13637099520
 2017-02-04 20:49:24.646379+01 | 1486237764.64638 | pgbench_tellers  |         11296768
 2017-02-04 20:49:24.646379+01 | 1486237764.64638 | pgbench_history  |        642121728
 2017-02-04 20:49:24.646379+01 | 1486237764.64638 | pgbench_branches |          9183232

 2017-02-04 20:49:25.729409+01 | 1486237765.72941 | pgbench_accounts |      13637206016
 2017-02-04 20:49:25.729409+01 | 1486237765.72941 | pgbench_tellers  |         11296768
 2017-02-04 20:49:25.729409+01 | 1486237765.72941 | pgbench_history  |        643817472
 2017-02-04 20:49:25.729409+01 | 1486237765.72941 | pgbench_branches |          9183232

 2017-02-04 20:49:26.819185+01 | 1486237766.81919 | pgbench_accounts |      13637312512
 2017-02-04 20:49:26.819185+01 | 1486237766.81919 | pgbench_tellers  |         11296768
 2017-02-04 20:49:26.819185+01 | 1486237766.81919 | pgbench_history  |        646373376
 2017-02-04 20:49:26.819185+01 | 1486237766.81919 | pgbench_branches |          9183232

 2017-02-04 20:49:27.90467+01 | 1486237767.90467 | pgbench_accounts |      13637410816
 2017-02-04 20:49:27.90467+01 | 1486237767.90467 | pgbench_tellers  |         11296768
 2017-02-04 20:49:27.90467+01 | 1486237767.90467 | pgbench_history  |        648765440
 2017-02-04 20:49:27.90467+01 | 1486237767.90467 | pgbench_branches |          9183232

 2017-02-04 20:49:28.998204+01 | 1486237768.9982 | pgbench_accounts |      13637451776
 2017-02-04 20:49:28.998204+01 | 1486237768.9982 | pgbench_tellers  |         11296768
 2017-02-04 20:49:28.998204+01 | 1486237768.9982 | pgbench_history  |        651141120
 2017-02-04 20:49:28.998204+01 | 1486237768.9982 | pgbench_branches |          9183232

 2017-02-04 20:49:30.096835+01 | 1486237770.09683 | pgbench_accounts |      13637599232
 2017-02-04 20:49:30.096835+01 | 1486237770.09683 | pgbench_tellers  |         11296768
 2017-02-04 20:49:30.096835+01 | 1486237770.09683 | pgbench_history  |        653688832
 2017-02-04 20:49:30.096835+01 | 1486237770.09683 | pgbench_branches |          9183232

 2017-02-04 20:49:31.193013+01 | 1486237771.19301 | pgbench_accounts |      13637648384
 2017-02-04 20:49:31.193013+01 | 1486237771.19301 | pgbench_tellers  |         11296768
 2017-02-04 20:49:31.193013+01 | 1486237771.19301 | pgbench_history  |        655900672
 2017-02-04 20:49:31.193013+01 | 1486237771.19301 | pgbench_branches |          9183232

 2017-02-04 20:49:32.284374+01 | 1486237772.28437 | pgbench_accounts |      13637713920
 2017-02-04 20:49:32.284374+01 | 1486237772.28437 | pgbench_tellers  |         11296768
 2017-02-04 20:49:32.284374+01 | 1486237772.28437 | pgbench_history  |        658735104
 2017-02-04 20:49:32.284374+01 | 1486237772.28437 | pgbench_branches |          9183232

 2017-02-04 20:49:33.3715+01 | 1486237773.3715 | pgbench_accounts |      13637804032
 2017-02-04 20:49:33.3715+01 | 1486237773.3715 | pgbench_tellers  |         11296768
 2017-02-04 20:49:33.3715+01 | 1486237773.3715 | pgbench_history  |        662880256
 2017-02-04 20:49:33.3715+01 | 1486237773.3715 | pgbench_branches |          9183232

 2017-02-04 20:49:34.456208+01 | 1486237774.45621 | pgbench_accounts |      13637902336
 2017-02-04 20:49:34.456208+01 | 1486237774.45621 | pgbench_tellers  |         11296768
 2017-02-04 20:49:34.456208+01 | 1486237774.45621 | pgbench_history  |        663396352
 2017-02-04 20:49:34.456208+01 | 1486237774.45621 | pgbench_branches |          9183232

 2017-02-04 20:49:35.537312+01 | 1486237775.53731 | pgbench_accounts |      13638041600
 2017-02-04 20:49:35.537312+01 | 1486237775.53731 | pgbench_tellers  |         11296768
 2017-02-04 20:49:35.537312+01 | 1486237775.53731 | pgbench_history  |        668737536
 2017-02-04 20:49:35.537312+01 | 1486237775.53731 | pgbench_branches |          9183232

 2017-02-04 20:49:36.625576+01 | 1486237776.62558 | pgbench_accounts |      13638115328
 2017-02-04 20:49:36.625576+01 | 1486237776.62558 | pgbench_tellers  |         11296768
 2017-02-04 20:49:36.625576+01 | 1486237776.62558 | pgbench_history  |        668737536
 2017-02-04 20:49:36.625576+01 | 1486237776.62558 | pgbench_branches |          9183232

 2017-02-04 20:49:37.711006+01 | 1486237777.71101 | pgbench_accounts |      13638189056
 2017-02-04 20:49:37.711006+01 | 1486237777.71101 | pgbench_tellers  |         11296768
 2017-02-04 20:49:37.711006+01 | 1486237777.71101 | pgbench_history  |        671113216
 2017-02-04 20:49:37.711006+01 | 1486237777.71101 | pgbench_branches |          9183232

 2017-02-04 20:49:38.7945+01 | 1486237778.7945 | pgbench_accounts |      13638230016
 2017-02-04 20:49:38.7945+01 | 1486237778.7945 | pgbench_tellers  |         11296768
 2017-02-04 20:49:38.7945+01 | 1486237778.7945 | pgbench_history  |        673128448
 2017-02-04 20:49:38.7945+01 | 1486237778.7945 | pgbench_branches |          9183232

 2017-02-04 20:49:39.883283+01 | 1486237779.88328 | pgbench_accounts |      13638311936
 2017-02-04 20:49:39.883283+01 | 1486237779.88328 | pgbench_tellers  |         11296768
 2017-02-04 20:49:39.883283+01 | 1486237779.88328 | pgbench_history  |        675332096
 2017-02-04 20:49:39.883283+01 | 1486237779.88328 | pgbench_branches |          9183232

 2017-02-04 20:49:40.97309+01 | 1486237780.97309 | pgbench_accounts |      13638393856
 2017-02-04 20:49:40.97309+01 | 1486237780.97309 | pgbench_tellers  |         11296768
 2017-02-04 20:49:40.97309+01 | 1486237780.97309 | pgbench_history  |        677732352
 2017-02-04 20:49:40.97309+01 | 1486237780.97309 | pgbench_branches |          9183232

 2017-02-04 20:49:42.057176+01 | 1486237782.05718 | pgbench_accounts |      13638475776
 2017-02-04 20:49:42.057176+01 | 1486237782.05718 | pgbench_tellers  |         11296768
 2017-02-04 20:49:42.057176+01 | 1486237782.05718 | pgbench_history  |        680263680
 2017-02-04 20:49:42.057176+01 | 1486237782.05718 | pgbench_branches |          9183232

 2017-02-04 20:49:43.14275+01 | 1486237783.14275 | pgbench_accounts |      13638606848
 2017-02-04 20:49:43.14275+01 | 1486237783.14275 | pgbench_tellers  |         11296768
 2017-02-04 20:49:43.14275+01 | 1486237783.14275 | pgbench_history  |        682491904
 2017-02-04 20:49:43.14275+01 | 1486237783.14275 | pgbench_branches |          9183232

 2017-02-04 20:49:44.242758+01 | 1486237784.24276 | pgbench_accounts |      13638696960
 2017-02-04 20:49:44.242758+01 | 1486237784.24276 | pgbench_tellers  |         11296768
 2017-02-04 20:49:44.242758+01 | 1486237784.24276 | pgbench_history  |        684941312
 2017-02-04 20:49:44.242758+01 | 1486237784.24276 | pgbench_branches |          9183232

 2017-02-04 20:49:45.347083+01 | 1486237785.34708 | pgbench_accounts |      13638795264
 2017-02-04 20:49:45.347083+01 | 1486237785.34708 | pgbench_tellers  |         11296768
 2017-02-04 20:49:45.347083+01 | 1486237785.34708 | pgbench_history  |        688005120
 2017-02-04 20:49:45.347083+01 | 1486237785.34708 | pgbench_branches |          9183232

 2017-02-04 20:49:46.438696+01 | 1486237786.4387 | pgbench_accounts |      13638885376
 2017-02-04 20:49:46.438696+01 | 1486237786.4387 | pgbench_tellers  |         11296768
 2017-02-04 20:49:46.438696+01 | 1486237786.4387 | pgbench_history  |        690372608
 2017-02-04 20:49:46.438696+01 | 1486237786.4387 | pgbench_branches |          9183232

 2017-02-04 20:49:47.526866+01 | 1486237787.52687 | pgbench_accounts |      13638950912
 2017-02-04 20:49:47.526866+01 | 1486237787.52687 | pgbench_tellers  |         11296768
 2017-02-04 20:49:47.526866+01 | 1486237787.52687 | pgbench_history  |        692576256
 2017-02-04 20:49:47.526866+01 | 1486237787.52687 | pgbench_branches |          9183232

 2017-02-04 20:49:48.613+01 | 1486237788.613 | pgbench_accounts |      13638975488
 2017-02-04 20:49:48.613+01 | 1486237788.613 | pgbench_tellers  |         11296768
 2017-02-04 20:49:48.613+01 | 1486237788.613 | pgbench_history  |        694452224
 2017-02-04 20:49:48.613+01 | 1486237788.613 | pgbench_branches |          9183232

 2017-02-04 20:49:49.689456+01 | 1486237789.68946 | pgbench_accounts |      13639049216
 2017-02-04 20:49:49.689456+01 | 1486237789.68946 | pgbench_tellers  |         11296768
 2017-02-04 20:49:49.689456+01 | 1486237789.68946 | pgbench_history  |        697679872
 2017-02-04 20:49:49.689456+01 | 1486237789.68946 | pgbench_branches |          9183232

