 2017-02-04 20:44:50.084163+01 | 1486237490.08416 | 13/31D977F0              |           82440714224

 2017-02-04 20:44:51.171326+01 | 1486237491.17133 | 13/3CE7C6B0              |           82626201264

 2017-02-04 20:44:52.263418+01 | 1486237492.26342 | 13/4B048000              |           82862964736

 2017-02-04 20:44:53.357614+01 | 1486237493.35761 | 13/5B394BD0              |           83134860240

 2017-02-04 20:44:54.449383+01 | 1486237494.44938 | 13/6BB2B780              |           83411253120

 2017-02-04 20:44:55.535975+01 | 1486237495.53597 | 13/7BC95EE0              |           83681173216

 2017-02-04 20:44:56.623274+01 | 1486237496.62327 | 13/8AD02518              |           83933275416

 2017-02-04 20:44:57.71189+01 | 1486237497.71189 | 13/99C549D8              |           84184222168

 2017-02-04 20:44:58.799752+01 | 1486237498.79975 | 13/A76753F8              |           84412945400

 2017-02-04 20:44:59.901747+01 | 1486237499.90175 | 13/B4A04760              |           84634781536

 2017-02-04 20:45:00.992372+01 | 1486237500.99237 | 13/C099CBD8              |           84835683288

 2017-02-04 20:45:02.075923+01 | 1486237502.07592 | 13/CC376180              |           85030560128

 2017-02-04 20:45:03.158878+01 | 1486237503.15888 | 13/D5C142F8              |           85190591224

 2017-02-04 20:45:04.23738+01 | 1486237504.23738 | 13/DFE7C9C8              |           85360888264

 2017-02-04 20:45:05.322132+01 | 1486237505.32213 | 13/EA142608              |           85531567624

 2017-02-04 20:45:06.40821+01 | 1486237506.40821 | 13/F3877870              |           85690120304

 2017-02-04 20:45:07.501006+01 | 1486237507.50101 | 13/FCA48000              |           85843017728

 2017-02-04 20:45:08.597197+01 | 1486237508.5972 | 14/5777AC8               |           85991062216

 2017-02-04 20:45:09.687523+01 | 1486237509.68752 | 14/DD4CD58               |           86131395928

 2017-02-04 20:45:10.781918+01 | 1486237510.78192 | 14/15E5CF08              |           86266728200

 2017-02-04 20:45:11.873799+01 | 1486237511.8738 | 14/1DC65C40              |           86398884928

 2017-02-04 20:45:12.964444+01 | 1486237512.96444 | 14/256CC728              |           86527231784

 2017-02-04 20:45:14.042286+01 | 1486237514.04229 | 14/2B9CB420              |           86631035936

 2017-02-04 20:45:15.131237+01 | 1486237515.13124 | 14/32ABFA60              |           86749477472

 2017-02-04 20:45:16.211826+01 | 1486237516.21183 | 14/39474D88              |           86860320136

 2017-02-04 20:45:17.300667+01 | 1486237517.30067 | 14/3FB8F908              |           86968432904

 2017-02-04 20:45:18.380317+01 | 1486237518.38032 | 14/45D778F8              |           87071095032

 2017-02-04 20:45:19.471228+01 | 1486237519.47123 | 14/4BB177E8              |           87169267688

 2017-02-04 20:45:20.559462+01 | 1486237520.55946 | 14/521676B8              |           87276549816

 2017-02-04 20:45:21.646093+01 | 1486237521.64609 | 14/57DDC000              |           87373496320

 2017-02-04 20:45:22.733496+01 | 1486237522.7335 | 14/5DB593C0              |           87471526848

 2017-02-04 20:45:23.825324+01 | 1486237523.82532 | 14/6395AAC0              |           87570098880

 2017-02-04 20:45:24.919663+01 | 1486237524.91966 | 14/6941BCA0              |           87665261728

 2017-02-04 20:45:26.013679+01 | 1486237526.01368 | 14/6DEE1560              |           87743665504

 2017-02-04 20:45:27.10343+01 | 1486237527.10343 | 14/7305C280              |           87829103232

 2017-02-04 20:45:28.192379+01 | 1486237528.19238 | 14/78124C40              |           87913811008

 2017-02-04 20:45:29.276449+01 | 1486237529.27645 | 14/7D066E60              |           87996919392

 2017-02-04 20:45:30.358793+01 | 1486237530.35879 | 14/81D683F8              |           88077665272

 2017-02-04 20:45:31.444056+01 | 1486237531.44406 | 14/86A8C520              |           88158553376

 2017-02-04 20:45:32.533385+01 | 1486237532.53339 | 14/8B619468              |           88237773928

 2017-02-04 20:45:33.623187+01 | 1486237533.62319 | 14/90603678              |           88321570424

 2017-02-04 20:45:34.722516+01 | 1486237534.72252 | 14/9510C8A0              |           88400251040

 2017-02-04 20:45:35.809976+01 | 1486237535.80998 | 14/99617E90              |           88472649360

 2017-02-04 20:45:36.897036+01 | 1486237536.89704 | 14/9CC7CDC0              |           88529685952

 2017-02-04 20:45:37.997437+01 | 1486237537.99744 | 14/A16845D0              |           88607311312

 2017-02-04 20:45:39.079787+01 | 1486237539.07979 | 14/A61B3088              |           88686145672

 2017-02-04 20:45:40.163972+01 | 1486237540.16397 | 14/AAC94510              |           88764663056

 2017-02-04 20:45:41.255365+01 | 1486237541.25536 | 14/AF7E3BE0              |           88843631584

 2017-02-04 20:45:42.339015+01 | 1486237542.33902 | 14/B3EF9E38              |           88918171192

 2017-02-04 20:45:43.441734+01 | 1486237543.44173 | 14/B880C3F8              |           88994792440

 2017-02-04 20:45:44.53206+01 | 1486237544.53206 | 14/BCF78148              |           89069683016

 2017-02-04 20:45:45.618222+01 | 1486237545.61822 | 14/C10C1510              |           89138140432

 2017-02-04 20:45:46.71646+01 | 1486237546.71646 | 14/C582E9C0              |           89213036992

 2017-02-04 20:45:47.817127+01 | 1486237547.81713 | 14/C9F83DA0              |           89287835040

 2017-02-04 20:45:48.918011+01 | 1486237548.91801 | 14/CD8BD640              |           89347839552

 2017-02-04 20:45:50.016278+01 | 1486237550.01628 | 14/D18ABC30              |           89414876208

 2017-02-04 20:45:51.103314+01 | 1486237551.10331 | 14/D5924A18              |           89482480152

 2017-02-04 20:45:52.182664+01 | 1486237552.18266 | 14/D977E470              |           89547859056

 2017-02-04 20:45:53.265799+01 | 1486237553.2658 | 14/DD643B00              |           89613679360

 2017-02-04 20:45:54.360293+01 | 1486237554.36029 | 14/E16B1E80              |           89681239680

 2017-02-04 20:45:55.443767+01 | 1486237555.44377 | 14/E5891290              |           89750311568

 2017-02-04 20:45:56.541093+01 | 1486237556.54109 | 14/E9B67338              |           89820394296

 2017-02-04 20:45:57.643314+01 | 1486237557.64331 | 14/EDDB9258              |           89889935960

 2017-02-04 20:45:58.739755+01 | 1486237558.73975 | 14/F1E34800              |           89957550080

 2017-02-04 20:45:59.835616+01 | 1486237559.83562 | 14/F55A12F0              |           90015666928

 2017-02-04 20:46:00.922452+01 | 1486237560.92245 | 14/F952CD20              |           90082299168

 2017-02-04 20:46:02.024937+01 | 1486237562.02494 | 14/FD48F698              |           90148763288

 2017-02-04 20:46:03.111828+01 | 1486237563.11183 | 15/1494668               |           90215892584

 2017-02-04 20:46:04.188667+01 | 1486237564.18867 | 15/523AEF8               |           90280537848

 2017-02-04 20:46:05.272105+01 | 1486237565.2721 | 15/903ADC8               |           90345549256

 2017-02-04 20:46:06.355313+01 | 1486237566.35531 | 15/CBCFAA0               |           90408024736

 2017-02-04 20:46:07.446395+01 | 1486237567.44639 | 15/109E0E30              |           90473106992

 2017-02-04 20:46:08.533309+01 | 1486237568.53331 | 15/146DDF58              |           90537058136

 2017-02-04 20:46:09.62996+01 | 1486237569.62996 | 15/17C0DD50              |           90592828752

 2017-02-04 20:46:10.722503+01 | 1486237570.7225 | 15/1B92DED8              |           90656923352

 2017-02-04 20:46:11.818981+01 | 1486237571.81898 | 15/1F46C100              |           90719043840

 2017-02-04 20:46:12.911213+01 | 1486237572.91121 | 15/230596E8              |           90781882088

 2017-02-04 20:46:14.006619+01 | 1486237574.00662 | 15/26CA3C18              |           90845101080

 2017-02-04 20:46:15.103745+01 | 1486237575.10374 | 15/2A8D3908              |           90908211464

 2017-02-04 20:46:16.192184+01 | 1486237576.19218 | 15/2E389318              |           90969772824

 2017-02-04 20:46:17.27539+01 | 1486237577.27539 | 15/31D77A58              |           91030518360

 2017-02-04 20:46:18.360408+01 | 1486237578.36041 | 15/35800748              |           91091896136

 2017-02-04 20:46:19.450064+01 | 1486237579.45006 | 15/390AE9C8              |           91151329736

 2017-02-04 20:46:20.532716+01 | 1486237580.53272 | 15/3C9CAFD0              |           91211214800

 2017-02-04 20:46:21.626633+01 | 1486237581.62663 | 15/4294A210              |           91311350288

 2017-02-04 20:46:22.722178+01 | 1486237582.72218 | 15/46259858              |           91371182168

 2017-02-04 20:46:23.813236+01 | 1486237583.81324 | 15/4999B7D8              |           91429124056

 2017-02-04 20:46:24.918214+01 | 1486237584.91821 | 15/4D32B228              |           91489481256

 2017-02-04 20:46:26.010587+01 | 1486237586.01059 | 15/50C0D040              |           91549126720

 2017-02-04 20:46:27.104634+01 | 1486237587.10463 | 15/5443FE88              |           91608055432

 2017-02-04 20:46:28.185243+01 | 1486237588.18524 | 15/57BF6C98              |           91666476184

 2017-02-04 20:46:29.271327+01 | 1486237589.27133 | 15/5B3B74A0              |           91724936352

 2017-02-04 20:46:30.357512+01 | 1486237590.35751 | 15/5E6CFB48              |           91778513736

 2017-02-04 20:46:31.443183+01 | 1486237591.44318 | 15/61D20300              |           91835466496

 2017-02-04 20:46:32.535373+01 | 1486237592.53537 | 15/6546D4D8              |           91893454040

 2017-02-04 20:46:33.624831+01 | 1486237593.62483 | 15/68B45E20              |           91950964256

 2017-02-04 20:46:34.716338+01 | 1486237594.71634 | 15/6C4E2ED8              |           92011376344

 2017-02-04 20:46:35.807263+01 | 1486237595.80726 | 15/6FAC03B0              |           92067857328

 2017-02-04 20:46:36.917696+01 | 1486237596.9177 | 15/731AEC80              |           92125457536

 2017-02-04 20:46:38.016992+01 | 1486237598.01699 | 15/7681F008              |           92182540296

 2017-02-04 20:46:39.110163+01 | 1486237599.11016 | 15/79E5C1C8              |           92239413704

 2017-02-04 20:46:40.188468+01 | 1486237600.18847 | 15/7CC37F98              |           92287500184

 2017-02-04 20:46:41.272498+01 | 1486237601.2725 | 15/802FA3D8              |           92344919000

 2017-02-04 20:46:42.356062+01 | 1486237602.35606 | 15/836642C0              |           92398830272

 2017-02-04 20:46:43.436504+01 | 1486237603.4365 | 15/86340EC0              |           92445871808

 2017-02-04 20:46:44.526045+01 | 1486237604.52605 | 15/89182770              |           92494374768

 2017-02-04 20:46:45.625975+01 | 1486237605.62597 | 15/8BE719F8              |           92541491704

 2017-02-04 20:46:46.720815+01 | 1486237606.72081 | 15/8EC147B0              |           92589344688

 2017-02-04 20:46:47.815834+01 | 1486237607.81583 | 15/919383E8              |           92636677096

 2017-02-04 20:46:48.907141+01 | 1486237608.90714 | 15/941331C8              |           92678599112

 2017-02-04 20:46:50.001699+01 | 1486237610.0017 | 15/96DB4978              |           92725266808

 2017-02-04 20:46:51.099219+01 | 1486237611.09922 | 15/999AADF0              |           92771364336

 2017-02-04 20:46:52.185895+01 | 1486237612.18589 | 15/9C5160A8              |           92816892072

 2017-02-04 20:46:53.267756+01 | 1486237613.26776 | 15/9F19CF60              |           92863582048

 2017-02-04 20:46:54.347193+01 | 1486237614.34719 | 15/A1C997A8              |           92908656552

 2017-02-04 20:46:55.430566+01 | 1486237615.43057 | 15/A44E58E8              |           92950911208

 2017-02-04 20:46:56.521931+01 | 1486237616.52193 | 15/A70E8748              |           92997060424

 2017-02-04 20:46:57.621307+01 | 1486237617.62131 | 15/A9C73B70              |           93042719600

 2017-02-04 20:46:58.724259+01 | 1486237618.72426 | 15/AC847AE0              |           93088676576

 2017-02-04 20:46:59.826922+01 | 1486237619.82692 | 15/AF3848D0              |           93134014672

 2017-02-04 20:47:00.919085+01 | 1486237620.91909 | 15/B1CF01C0              |           93177446848

 2017-02-04 20:47:02.015815+01 | 1486237622.01582 | 15/B4858730              |           93222962992

 2017-02-04 20:47:03.102197+01 | 1486237623.1022 | 15/B7208FA8              |           93266677672

 2017-02-04 20:47:04.163465+01 | 1486237624.16347 | 15/B98C1548              |           93307278664

 2017-02-04 20:47:05.244343+01 | 1486237625.24434 | 15/BC2DE0D0              |           93351436496

 2017-02-04 20:47:06.334256+01 | 1486237626.33426 | 15/BED4B9D0              |           93395925456

 2017-02-04 20:47:07.42112+01 | 1486237627.42112 | 15/C176C170              |           93440098672

 2017-02-04 20:47:08.504928+01 | 1486237628.50493 | 15/C4165BC0              |           93484112832

 2017-02-04 20:47:09.598869+01 | 1486237629.59887 | 15/C6AAA3E8              |           93527385064

 2017-02-04 20:47:10.692703+01 | 1486237630.6927 | 15/C9583008              |           93572313096

 2017-02-04 20:47:11.786162+01 | 1486237631.78616 | 15/CBB9F990              |           93612276112

 2017-02-04 20:47:12.88454+01 | 1486237632.88454 | 15/CE556A30              |           93656017456

 2017-02-04 20:47:13.987029+01 | 1486237633.98703 | 15/D1035DF0              |           93700972016

 2017-02-04 20:47:15.08498+01 | 1486237635.08498 | 15/D3976218              |           93744226840

 2017-02-04 20:47:16.177387+01 | 1486237636.17739 | 15/D6315350              |           93787870032

 2017-02-04 20:47:17.271018+01 | 1486237637.27102 | 15/D8909C50              |           93827669072

 2017-02-04 20:47:18.35154+01 | 1486237638.35154 | 15/DB294AE0              |           93871229664

 2017-02-04 20:47:19.435563+01 | 1486237639.43556 | 15/DDA27800              |           93912725504

 2017-02-04 20:47:20.507623+01 | 1486237640.50762 | 15/E00A8D00              |           93953101056

 2017-02-04 20:47:21.59884+01 | 1486237641.59884 | 15/E2F653E0              |           94002107360

 2017-02-04 20:47:22.686729+01 | 1486237642.68673 | 15/E58D93A8              |           94045574056

 2017-02-04 20:47:23.755918+01 | 1486237643.75592 | 15/E7EA7930              |           94085216560

 2017-02-04 20:47:24.844792+01 | 1486237644.84479 | 15/EA7C1F10              |           94128316176

 2017-02-04 20:47:25.938398+01 | 1486237645.9384 | 15/ED12AD78              |           94171737464

 2017-02-04 20:47:27.040159+01 | 1486237647.04016 | 15/EFA8B0D0              |           94215123152

 2017-02-04 20:47:28.142367+01 | 1486237648.14237 | 15/F2127D40              |           94255611200

 2017-02-04 20:47:29.230994+01 | 1486237649.23099 | 15/F492DE50              |           94297579088

 2017-02-04 20:47:30.310926+01 | 1486237650.31093 | 15/F67F9878              |           94329870456

 2017-02-04 20:47:31.389573+01 | 1486237651.38957 | 15/F8D62A18              |           94369098264

 2017-02-04 20:47:32.469374+01 | 1486237652.46937 | 15/FB2A9968              |           94408186216

 2017-02-04 20:47:33.554357+01 | 1486237653.55436 | 15/FD81C648              |           94447453768

 2017-02-04 20:47:34.635595+01 | 1486237654.6356 | 15/FFE33300              |           94487393024

 2017-02-04 20:47:35.726735+01 | 1486237655.72674 | 16/2557DB8               |           94528437688

 2017-02-04 20:47:36.816968+01 | 1486237656.81697 | 16/4CDC6E0               |           94569875168

 2017-02-04 20:47:37.912586+01 | 1486237657.91259 | 16/7112A88               |           94607846024

 2017-02-04 20:47:39.004517+01 | 1486237659.00452 | 16/9A5CEC8               |           94651141832

 2017-02-04 20:47:40.100437+01 | 1486237660.10044 | 16/C345D78               |           94694038904

 2017-02-04 20:47:41.189939+01 | 1486237661.18994 | 16/EB42170               |           94735966576

 2017-02-04 20:47:42.284667+01 | 1486237662.28467 | 16/11452358              |           94779024216

 2017-02-04 20:47:43.36724+01 | 1486237663.36724 | 16/13BDF308              |           94820496136

 2017-02-04 20:47:44.450069+01 | 1486237664.45007 | 16/15FB14A8              |           94858056872

 2017-02-04 20:47:45.536333+01 | 1486237665.53633 | 16/186FC460              |           94899258464

 2017-02-04 20:47:46.628322+01 | 1486237666.62832 | 16/1ADD3788              |           94939985800

 2017-02-04 20:47:47.716106+01 | 1486237667.71611 | 16/1D6127C0              |           94982186944

 2017-02-04 20:47:48.813449+01 | 1486237668.81345 | 16/1FEA9AB0              |           95024749232

 2017-02-04 20:47:49.906536+01 | 1486237669.90654 | 16/2251AD00              |           95065058560

 2017-02-04 20:47:50.989016+01 | 1486237670.98902 | 16/24CFD5C0              |           95106880960

 2017-02-04 20:47:52.068704+01 | 1486237672.0687 | 16/26DA2888              |           95141111944

 2017-02-04 20:47:53.163156+01 | 1486237673.16316 | 16/296171F8              |           95183532536

 2017-02-04 20:47:54.250592+01 | 1486237674.25059 | 16/2BD1BB08              |           95224445704

 2017-02-04 20:47:55.329638+01 | 1486237675.32964 | 16/2E1B6F88              |           95262830472

 2017-02-04 20:47:56.408418+01 | 1486237676.40842 | 16/30516ED0              |           95299923664

 2017-02-04 20:47:57.494998+01 | 1486237677.495 | 16/32918540              |           95337678144

 2017-02-04 20:47:58.583221+01 | 1486237678.58322 | 16/34BB4AD0              |           95373970128

 2017-02-04 20:47:59.669688+01 | 1486237679.66969 | 16/37153D48              |           95413419336

 2017-02-04 20:48:00.765064+01 | 1486237680.76506 | 16/398C85C0              |           95454791104

 2017-02-04 20:48:01.873877+01 | 1486237681.87388 | 16/3C133208              |           95497171464

 2017-02-04 20:48:02.960215+01 | 1486237682.96022 | 16/3E8AB858              |           95538559064

 2017-02-04 20:48:04.055721+01 | 1486237684.05572 | 16/40FFE8D8              |           95579793624

 2017-02-04 20:48:05.152629+01 | 1486237685.15263 | 16/43382990              |           95617034640

 2017-02-04 20:48:06.244669+01 | 1486237686.24467 | 16/45999AA0              |           95656975008

 2017-02-04 20:48:07.330087+01 | 1486237687.33009 | 16/47F99940              |           95696820544

 2017-02-04 20:48:08.408593+01 | 1486237688.40859 | 16/4A5C94C0              |           95736861888

 2017-02-04 20:48:09.485397+01 | 1486237689.4854 | 16/4C9128D0              |           95773862096

 2017-02-04 20:48:10.570031+01 | 1486237690.57003 | 16/4F043850              |           95814957136

 2017-02-04 20:48:11.658861+01 | 1486237691.65886 | 16/51488000              |           95852986368

 2017-02-04 20:48:12.759746+01 | 1486237692.75975 | 16/53AC1588              |           95893067144

 2017-02-04 20:48:13.86488+01 | 1486237693.86488 | 16/563B7F08              |           95936020232

 2017-02-04 20:48:14.965849+01 | 1486237694.96585 | 16/59174C10              |           95983979536

 2017-02-04 20:48:16.066145+01 | 1486237696.06614 | 16/5BF47580              |           96032028032

 2017-02-04 20:48:17.164573+01 | 1486237697.16457 | 16/5EC92A60              |           96079522400

 2017-02-04 20:48:18.248302+01 | 1486237698.2483 | 16/616A7C48              |           96123649096

 2017-02-04 20:48:19.332084+01 | 1486237699.33208 | 16/6428CF50              |           96169676624

 2017-02-04 20:48:20.401711+01 | 1486237700.40171 | 16/66D148B0              |           96214272176

 2017-02-04 20:48:21.486042+01 | 1486237701.48604 | 16/6A7BD938              |           96275781944

 2017-02-04 20:48:22.570349+01 | 1486237702.57035 | 16/6D6C8BB0              |           96325110704

 2017-02-04 20:48:23.652494+01 | 1486237703.65249 | 16/6FEB0BB0              |           96366955440

 2017-02-04 20:48:24.734594+01 | 1486237704.73459 | 16/728EE130              |           96411246896

 2017-02-04 20:48:25.830167+01 | 1486237705.83017 | 16/75697E68              |           96459128424

 2017-02-04 20:48:26.919777+01 | 1486237706.91978 | 16/782FB2B8              |           96505672376

 2017-02-04 20:48:28.011707+01 | 1486237708.01171 | 16/7AE0C1E0              |           96550830560

 2017-02-04 20:48:29.105464+01 | 1486237709.10546 | 16/7D86DFE8              |           96595271656

 2017-02-04 20:48:30.199484+01 | 1486237710.19948 | 16/7FC84A78              |           96633113208

 2017-02-04 20:48:31.289799+01 | 1486237711.2898 | 16/82800000              |           96678707200

 2017-02-04 20:48:32.377231+01 | 1486237712.37723 | 16/850FFFE8              |           96721698792

 2017-02-04 20:48:33.463215+01 | 1486237713.46322 | 16/8741C8C0              |           96758515904

 2017-02-04 20:48:34.547219+01 | 1486237714.54722 | 16/898FFE68              |           96797195880

 2017-02-04 20:48:35.638857+01 | 1486237715.63886 | 16/8BD0BF18              |           96834993944

 2017-02-04 20:48:36.726808+01 | 1486237716.72681 | 16/8E076308              |           96872129288

 2017-02-04 20:48:37.817936+01 | 1486237717.81794 | 16/8FDF0178              |           96903037304

 2017-02-04 20:48:38.904382+01 | 1486237718.90438 | 16/921EEC70              |           96940780656

 2017-02-04 20:48:40.001563+01 | 1486237720.00156 | 16/946787E0              |           96979093472

 2017-02-04 20:48:41.100567+01 | 1486237721.10057 | 16/96C22DF0              |           97018588656

 2017-02-04 20:48:42.203555+01 | 1486237722.20356 | 16/98E5F6F8              |           97054488312

 2017-02-04 20:48:43.289745+01 | 1486237723.28975 | 16/9B158E40              |           97091161664

 2017-02-04 20:48:44.371391+01 | 1486237724.37139 | 16/9D365A08              |           97126865416

 2017-02-04 20:48:45.449751+01 | 1486237725.44975 | 16/9EE1A9B8              |           97154869688

 2017-02-04 20:48:46.535933+01 | 1486237726.53593 | 16/A109F9B8              |           97191066040

 2017-02-04 20:48:47.621307+01 | 1486237727.62131 | 16/A33AF828              |           97227831336

 2017-02-04 20:48:48.702206+01 | 1486237728.70221 | 16/A5828310              |           97266074384

 2017-02-04 20:48:49.792698+01 | 1486237729.7927 | 16/A7C61B60              |           97304058720

 2017-02-04 20:48:50.883987+01 | 1486237730.88399 | 16/A9F475E8              |           97340650984

 2017-02-04 20:48:51.96775+01 | 1486237731.96775 | 16/AC344478              |           97378387064

 2017-02-04 20:48:53.061736+01 | 1486237733.06174 | 16/AE075C80              |           97408998528

 2017-02-04 20:48:54.146348+01 | 1486237734.14635 | 16/B0274738              |           97444644664

 2017-02-04 20:48:55.234259+01 | 1486237735.23426 | 16/B2712B40              |           97483041600

 2017-02-04 20:48:56.322003+01 | 1486237736.322 | 16/B4BB72A8              |           97521463976

 2017-02-04 20:48:57.406437+01 | 1486237737.40644 | 16/B70F9930              |           97560533296

 2017-02-04 20:48:58.494059+01 | 1486237738.49406 | 16/B93F7790              |           97597224848

 2017-02-04 20:48:59.575571+01 | 1486237739.57557 | 16/BB8EC160              |           97635975520

 2017-02-04 20:49:00.661189+01 | 1486237740.66119 | 16/BDAB1B88              |           97671388040

 2017-02-04 20:49:01.746548+01 | 1486237741.74655 | 16/BFF91D18              |           97710054680

 2017-02-04 20:49:02.837048+01 | 1486237742.83705 | 16/C2440F70              |           97748520816

 2017-02-04 20:49:03.926475+01 | 1486237743.92648 | 16/C49521C8              |           97787388360

 2017-02-04 20:49:05.0193+01 | 1486237745.0193 | 16/C6DBD360              |           97825575776

 2017-02-04 20:49:06.090242+01 | 1486237746.09024 | 16/C912E2B0              |           97862738608

 2017-02-04 20:49:07.181212+01 | 1486237747.18121 | 16/CB5B5D80              |           97901043072

 2017-02-04 20:49:08.277217+01 | 1486237748.27722 | 16/CD620BA8              |           97935035304

 2017-02-04 20:49:09.364405+01 | 1486237749.3644 | 16/CFA49828              |           97972951080

 2017-02-04 20:49:10.452776+01 | 1486237750.45278 | 16/D1E16EF0              |           98010492656

 2017-02-04 20:49:11.540447+01 | 1486237751.54045 | 16/D42A80B0              |           98048835760

 2017-02-04 20:49:12.622112+01 | 1486237752.62211 | 16/D66985A8              |           98086520232

 2017-02-04 20:49:13.705817+01 | 1486237753.70582 | 16/D847F298              |           98117874328

 2017-02-04 20:49:14.792672+01 | 1486237754.79267 | 16/DA4037F0              |           98150922224

 2017-02-04 20:49:15.88075+01 | 1486237755.88075 | 16/DC2FE210              |           98183406096

 2017-02-04 20:49:16.975204+01 | 1486237756.9752 | 16/DE26D558              |           98216367448

 2017-02-04 20:49:18.062254+01 | 1486237758.06225 | 16/E0054CE8              |           98247724264

 2017-02-04 20:49:19.157519+01 | 1486237759.15752 | 16/E2152028              |           98282315816

 2017-02-04 20:49:20.253167+01 | 1486237760.25317 | 16/E3F68620              |           98313864736

 2017-02-04 20:49:21.327224+01 | 1486237761.32722 | 16/E60B1758              |           98348767064

 2017-02-04 20:49:22.419741+01 | 1486237762.41974 | 16/E848D550              |           98386367824

 2017-02-04 20:49:23.509674+01 | 1486237763.50967 | 16/EA37CCC0              |           98418805952

 2017-02-04 20:49:24.597294+01 | 1486237764.59729 | 16/EC5EFDE0              |           98454928864

 2017-02-04 20:49:25.677863+01 | 1486237765.67786 | 16/EE4F3B40              |           98487450432

 2017-02-04 20:49:26.762054+01 | 1486237766.76205 | 16/F0702188              |           98523160968

 2017-02-04 20:49:27.852886+01 | 1486237767.85289 | 16/F280BB10              |           98557803280

 2017-02-04 20:49:28.940217+01 | 1486237768.94022 | 16/F4844180              |           98591588736

 2017-02-04 20:49:30.038118+01 | 1486237770.03812 | 16/F6ABA880              |           98627725440

 2017-02-04 20:49:31.135655+01 | 1486237771.13565 | 16/F8BD2AD0              |           98662427344

 2017-02-04 20:49:32.229094+01 | 1486237772.22909 | 16/FAD6B0B0              |           98697654448

 2017-02-04 20:49:33.318689+01 | 1486237773.31869 | 16/FCC8D730              |           98730301232

 2017-02-04 20:49:34.404906+01 | 1486237774.40491 | 16/FEF08338              |           98766455608

 2017-02-04 20:49:35.486426+01 | 1486237775.48643 | 17/1071C58               |           98801491032

 2017-02-04 20:49:36.574438+01 | 1486237776.57444 | 17/31EB910               |           98836592912

 2017-02-04 20:49:37.6586+01 | 1486237777.6586 | 17/5295B38               |           98870844216

 2017-02-04 20:49:38.743997+01 | 1486237778.744 | 17/73A5BB8               |           98905512888

 2017-02-04 20:49:39.832035+01 | 1486237779.83204 | 17/9278028               |           98937831464

 2017-02-04 20:49:40.917709+01 | 1486237780.91771 | 17/B3E95E8               |           98972898792

 2017-02-04 20:49:42.006128+01 | 1486237782.00613 | 17/D5FA4F8               |           99008619768

 2017-02-04 20:49:43.09078+01 | 1486237783.09078 | 17/F7F84D0               |           99044263120

 2017-02-04 20:49:44.179388+01 | 1486237784.17939 | 17/1198FCB8              |           99079486648

 2017-02-04 20:49:45.285902+01 | 1486237785.2859 | 17/13B745C0              |           99115025856

 2017-02-04 20:49:46.385581+01 | 1486237786.38558 | 17/15DBB030              |           99150966832

 2017-02-04 20:49:47.47177+01 | 1486237787.47177 | 17/17D0E1F8              |           99183813112

 2017-02-04 20:49:48.564042+01 | 1486237788.56404 | 17/19E42808              |           99218630664

 2017-02-04 20:49:49.641922+01 | 1486237789.64192 | 17/1BF80A40              |           99253488192

