 2017-02-03 12:37:08.710942+01 | 1486121828.71094 | 0/4E3F34A0               |            1312765088

 2017-02-03 12:37:09.793134+01 | 1486121829.79313 | 0/4E3F34A0               |            1312765088

 2017-02-03 12:37:10.875087+01 | 1486121830.87509 | 0/4E3F34A0               |            1312765088

 2017-02-03 12:37:11.970664+01 | 1486121831.97066 | 0/4E3F34A0               |            1312765088

 2017-02-03 12:37:13.058578+01 | 1486121833.05858 | 0/4E3F34A0               |            1312765088

 2017-02-03 12:37:14.134554+01 | 1486121834.13455 | 0/4E3F34A0               |            1312765088

 2017-02-03 12:37:15.220716+01 | 1486121835.22072 | 0/4E3F34D8               |            1312765144

 2017-02-03 12:37:16.313324+01 | 1486121836.31332 | 0/4E3F34D8               |            1312765144

 2017-02-03 12:37:17.403716+01 | 1486121837.40372 | 0/4E3F34D8               |            1312765144

 2017-02-03 12:37:18.490961+01 | 1486121838.49096 | 0/4E3F34D8               |            1312765144

 2017-02-03 12:37:19.57627+01 | 1486121839.57627 | 0/4E3F34D8               |            1312765144

 2017-02-03 12:37:20.670643+01 | 1486121840.67064 | 0/4E3F34D8               |            1312765144

 2017-02-03 12:37:21.760623+01 | 1486121841.76062 | 0/4E3F34D8               |            1312765144

 2017-02-03 12:37:22.852962+01 | 1486121842.85296 | 0/4E3F34D8               |            1312765144

 2017-02-03 12:37:23.943936+01 | 1486121843.94394 | 0/4E3F34D8               |            1312765144

 2017-02-03 12:37:25.034061+01 | 1486121845.03406 | 0/4E3F34D8               |            1312765144

 2017-02-03 12:37:26.126424+01 | 1486121846.12642 | 0/4E3F34D8               |            1312765144

 2017-02-03 12:37:27.212597+01 | 1486121847.2126 | 0/4E3F34D8               |            1312765144

 2017-02-03 12:37:28.300809+01 | 1486121848.30081 | 0/4E3F34D8               |            1312765144

 2017-02-03 12:37:29.391467+01 | 1486121849.39147 | 0/4E3F34D8               |            1312765144

 2017-02-03 12:37:30.478701+01 | 1486121850.4787 | 0/4E3F34D8               |            1312765144

 2017-02-03 12:37:31.562323+01 | 1486121851.56232 | 0/4E3F34D8               |            1312765144

 2017-02-03 12:37:32.650123+01 | 1486121852.65012 | 0/4E3F34D8               |            1312765144

 2017-02-03 12:37:33.74022+01 | 1486121853.74022 | 0/4E3F34D8               |            1312765144

 2017-02-03 12:37:34.831003+01 | 1486121854.831 | 0/4E3F34D8               |            1312765144

 2017-02-03 12:37:35.922478+01 | 1486121855.92248 | 0/4E3F34D8               |            1312765144

 2017-02-03 12:37:37.014714+01 | 1486121857.01471 | 0/4E3F34D8               |            1312765144

 2017-02-03 12:37:38.097063+01 | 1486121858.09706 | 0/4E3F34D8               |            1312765144

 2017-02-03 12:37:39.183079+01 | 1486121859.18308 | 0/4E3F34D8               |            1312765144

 2017-02-03 12:37:40.270945+01 | 1486121860.27095 | 0/4E3F34D8               |            1312765144

 2017-02-03 12:37:41.363478+01 | 1486121861.36348 | 0/4E3F34D8               |            1312765144

 2017-02-03 12:37:42.451975+01 | 1486121862.45198 | 0/4E3F34D8               |            1312765144

 2017-02-03 12:37:43.542334+01 | 1486121863.54233 | 0/4E3F34D8               |            1312765144

 2017-02-03 12:37:44.625964+01 | 1486121864.62596 | 0/4E3F34D8               |            1312765144

 2017-02-03 12:37:45.719042+01 | 1486121865.71904 | 0/4E3F34D8               |            1312765144

 2017-02-03 12:37:46.810943+01 | 1486121866.81094 | 0/4E3F34D8               |            1312765144

 2017-02-03 12:37:47.903787+01 | 1486121867.90379 | 0/4E3F34D8               |            1312765144

 2017-02-03 12:37:48.989465+01 | 1486121868.98946 | 0/4E3F34D8               |            1312765144

 2017-02-03 12:37:50.07585+01 | 1486121870.07585 | 0/4E3F34D8               |            1312765144

 2017-02-03 12:37:51.165936+01 | 1486121871.16594 | 0/4E3F34D8               |            1312765144

 2017-02-03 12:37:52.253347+01 | 1486121872.25335 | 0/4E3F34D8               |            1312765144

 2017-02-03 12:37:53.348368+01 | 1486121873.34837 | 0/4E3F34D8               |            1312765144

 2017-02-03 12:37:54.439606+01 | 1486121874.43961 | 0/4E3F34D8               |            1312765144

 2017-02-03 12:37:55.530395+01 | 1486121875.5304 | 0/4E3F34D8               |            1312765144

 2017-02-03 12:37:56.611019+01 | 1486121876.61102 | 0/4E3F34D8               |            1312765144

 2017-02-03 12:37:57.697917+01 | 1486121877.69792 | 0/4E3F34D8               |            1312765144

 2017-02-03 12:37:58.782999+01 | 1486121878.783 | 0/4E3F34D8               |            1312765144

 2017-02-03 12:37:59.874345+01 | 1486121879.87435 | 0/4E3F34D8               |            1312765144

 2017-02-03 12:38:00.957244+01 | 1486121880.95724 | 0/4E3F34D8               |            1312765144

 2017-02-03 12:38:02.048038+01 | 1486121882.04804 | 0/4E3F34D8               |            1312765144

 2017-02-03 12:38:03.143334+01 | 1486121883.14333 | 0/4E3F34D8               |            1312765144

 2017-02-03 12:38:04.233215+01 | 1486121884.23322 | 0/4E3F34D8               |            1312765144

 2017-02-03 12:38:05.326002+01 | 1486121885.326 | 0/4E3F34D8               |            1312765144

 2017-02-03 12:38:06.413364+01 | 1486121886.41336 | 0/4E3F34D8               |            1312765144

 2017-02-03 12:38:07.499964+01 | 1486121887.49996 | 0/4E3F34D8               |            1312765144

 2017-02-03 12:38:08.586896+01 | 1486121888.5869 | 0/4E3F34D8               |            1312765144

 2017-02-03 12:38:09.675337+01 | 1486121889.67534 | 0/4E3F34D8               |            1312765144

 2017-02-03 12:38:10.764894+01 | 1486121890.76489 | 0/4E3F34D8               |            1312765144

 2017-02-03 12:38:11.85652+01 | 1486121891.85652 | 0/4E3F34D8               |            1312765144

 2017-02-03 12:38:12.951794+01 | 1486121892.95179 | 0/4E3F34D8               |            1312765144

 2017-02-03 12:38:14.045691+01 | 1486121894.04569 | 0/4E3F34D8               |            1312765144

 2017-02-03 12:38:15.140908+01 | 1486121895.14091 | 0/4E3F34D8               |            1312765144

 2017-02-03 12:38:16.226986+01 | 1486121896.22699 | 0/4E3F34D8               |            1312765144

 2017-02-03 12:38:17.317213+01 | 1486121897.31721 | 0/4E3F34D8               |            1312765144

 2017-02-03 12:38:18.40723+01 | 1486121898.40723 | 0/4E3F34D8               |            1312765144

 2017-02-03 12:38:19.493196+01 | 1486121899.4932 | 0/4E3F34D8               |            1312765144

 2017-02-03 12:38:20.58172+01 | 1486121900.58172 | 0/4E3F34D8               |            1312765144

 2017-02-03 12:38:21.667109+01 | 1486121901.66711 | 0/4E3F34D8               |            1312765144

 2017-02-03 12:38:22.759686+01 | 1486121902.75969 | 0/4E3F34D8               |            1312765144

 2017-02-03 12:38:23.840137+01 | 1486121903.84014 | 0/4E3F34D8               |            1312765144

 2017-02-03 12:38:24.928646+01 | 1486121904.92865 | 0/4E3F34D8               |            1312765144

 2017-02-03 12:38:26.014066+01 | 1486121906.01407 | 0/4E3F34D8               |            1312765144

 2017-02-03 12:38:27.101749+01 | 1486121907.10175 | 0/4E3F34D8               |            1312765144

 2017-02-03 12:38:28.194015+01 | 1486121908.19402 | 0/4E3F34D8               |            1312765144

 2017-02-03 12:38:29.284579+01 | 1486121909.28458 | 0/4E3F34D8               |            1312765144

 2017-02-03 12:38:30.372621+01 | 1486121910.37262 | 0/4E3F34D8               |            1312765144

 2017-02-03 12:38:31.459695+01 | 1486121911.4597 | 0/4E3F34D8               |            1312765144

 2017-02-03 12:38:32.551099+01 | 1486121912.5511 | 0/4E3F34D8               |            1312765144

 2017-02-03 12:38:33.63887+01 | 1486121913.63887 | 0/4E3F34D8               |            1312765144

 2017-02-03 12:38:34.72326+01 | 1486121914.72326 | 0/4E3F34D8               |            1312765144

 2017-02-03 12:38:35.812529+01 | 1486121915.81253 | 0/4E3F34D8               |            1312765144

 2017-02-03 12:38:36.902554+01 | 1486121916.90255 | 0/4E3F34D8               |            1312765144

 2017-02-03 12:38:37.990189+01 | 1486121917.99019 | 0/4E3F34D8               |            1312765144

 2017-02-03 12:38:39.081546+01 | 1486121919.08155 | 0/4E3F34D8               |            1312765144

 2017-02-03 12:38:40.169528+01 | 1486121920.16953 | 0/4E3F34D8               |            1312765144

 2017-02-03 12:38:41.264179+01 | 1486121921.26418 | 0/4E3F34D8               |            1312765144

 2017-02-03 12:38:42.355723+01 | 1486121922.35572 | 0/4E3F34D8               |            1312765144

 2017-02-03 12:38:43.446446+01 | 1486121923.44645 | 0/4E3F34D8               |            1312765144

 2017-02-03 12:38:44.535159+01 | 1486121924.53516 | 0/4E3F34D8               |            1312765144

 2017-02-03 12:38:45.624684+01 | 1486121925.62468 | 0/4E3F34D8               |            1312765144

 2017-02-03 12:38:46.707921+01 | 1486121926.70792 | 0/4E3F34D8               |            1312765144

 2017-02-03 12:38:47.798488+01 | 1486121927.79849 | 0/4E3F34D8               |            1312765144

 2017-02-03 12:38:48.889524+01 | 1486121928.88952 | 0/4E3F34D8               |            1312765144

 2017-02-03 12:38:49.984016+01 | 1486121929.98402 | 0/4E3F34D8               |            1312765144

 2017-02-03 12:38:51.077595+01 | 1486121931.07759 | 0/4E3F34D8               |            1312765144

 2017-02-03 12:38:52.167121+01 | 1486121932.16712 | 0/4E3F34D8               |            1312765144

 2017-02-03 12:38:53.26117+01 | 1486121933.26117 | 0/4E3F34D8               |            1312765144

 2017-02-03 12:38:54.34993+01 | 1486121934.34993 | 0/4E3F34D8               |            1312765144

 2017-02-03 12:38:55.445478+01 | 1486121935.44548 | 0/4E3F34D8               |            1312765144

 2017-02-03 12:38:56.532927+01 | 1486121936.53293 | 0/4E3F34D8               |            1312765144

 2017-02-03 12:38:57.620191+01 | 1486121937.62019 | 0/4E3F34D8               |            1312765144

 2017-02-03 12:38:58.709494+01 | 1486121938.70949 | 0/4E3F34D8               |            1312765144

 2017-02-03 12:38:59.795336+01 | 1486121939.79534 | 0/4E3F34D8               |            1312765144

 2017-02-03 12:39:00.882096+01 | 1486121940.8821 | 0/4E3F34D8               |            1312765144

 2017-02-03 12:39:01.973589+01 | 1486121941.97359 | 0/4E3F34D8               |            1312765144

 2017-02-03 12:39:03.063831+01 | 1486121943.06383 | 0/4E3F34D8               |            1312765144

 2017-02-03 12:39:04.148988+01 | 1486121944.14899 | 0/4E3F34D8               |            1312765144

 2017-02-03 12:39:05.237964+01 | 1486121945.23796 | 0/4E3F34D8               |            1312765144

 2017-02-03 12:39:06.32609+01 | 1486121946.32609 | 0/4E3F34D8               |            1312765144

 2017-02-03 12:39:07.412802+01 | 1486121947.4128 | 0/4E3F34D8               |            1312765144

 2017-02-03 12:39:08.507594+01 | 1486121948.50759 | 0/4E3F34D8               |            1312765144

 2017-02-03 12:39:09.598732+01 | 1486121949.59873 | 0/4E3F34D8               |            1312765144

 2017-02-03 12:39:10.687983+01 | 1486121950.68798 | 0/4E3F34D8               |            1312765144

 2017-02-03 12:39:11.774513+01 | 1486121951.77451 | 0/4E3F34D8               |            1312765144

 2017-02-03 12:39:12.863839+01 | 1486121952.86384 | 0/4E3F34D8               |            1312765144

 2017-02-03 12:39:13.948896+01 | 1486121953.9489 | 0/4E3F34D8               |            1312765144

 2017-02-03 12:39:15.034396+01 | 1486121955.0344 | 0/4E3F34D8               |            1312765144

 2017-02-03 12:39:16.135632+01 | 1486121956.13563 | 0/4E3F34D8               |            1312765144

 2017-02-03 12:39:17.221209+01 | 1486121957.22121 | 0/4E3F34D8               |            1312765144

 2017-02-03 12:39:18.312154+01 | 1486121958.31215 | 0/4E3F34D8               |            1312765144

 2017-02-03 12:39:19.399609+01 | 1486121959.39961 | 0/4E3F34D8               |            1312765144

 2017-02-03 12:39:20.486717+01 | 1486121960.48672 | 0/4E3F34D8               |            1312765144

 2017-02-03 12:39:21.577363+01 | 1486121961.57736 | 0/4E3F34D8               |            1312765144

 2017-02-03 12:39:22.664826+01 | 1486121962.66483 | 0/4E3F34D8               |            1312765144

 2017-02-03 12:39:23.747667+01 | 1486121963.74767 | 0/4E3F34D8               |            1312765144

 2017-02-03 12:39:24.830958+01 | 1486121964.83096 | 0/4E3F34D8               |            1312765144

 2017-02-03 12:39:25.918863+01 | 1486121965.91886 | 0/4E3F34D8               |            1312765144

 2017-02-03 12:39:27.012365+01 | 1486121967.01237 | 0/4E3F34D8               |            1312765144

 2017-02-03 12:39:28.106395+01 | 1486121968.1064 | 0/4E3F34D8               |            1312765144

 2017-02-03 12:39:29.193624+01 | 1486121969.19362 | 0/4E3F34D8               |            1312765144

 2017-02-03 12:39:30.283242+01 | 1486121970.28324 | 0/4E3F34D8               |            1312765144

 2017-02-03 12:39:31.36767+01 | 1486121971.36767 | 0/4E3F34D8               |            1312765144

 2017-02-03 12:39:32.457701+01 | 1486121972.4577 | 0/4E3F34D8               |            1312765144

 2017-02-03 12:39:33.550527+01 | 1486121973.55053 | 0/4E3F34D8               |            1312765144

 2017-02-03 12:39:34.637209+01 | 1486121974.63721 | 0/4E3F34D8               |            1312765144

 2017-02-03 12:39:35.729128+01 | 1486121975.72913 | 0/4E3F34D8               |            1312765144

 2017-02-03 12:39:36.819888+01 | 1486121976.81989 | 0/4E3F34D8               |            1312765144

 2017-02-03 12:39:37.907215+01 | 1486121977.90722 | 0/4E3F34D8               |            1312765144

 2017-02-03 12:39:38.99543+01 | 1486121978.99543 | 0/4E3F34D8               |            1312765144

 2017-02-03 12:39:40.076676+01 | 1486121980.07668 | 0/4E3F34D8               |            1312765144

 2017-02-03 12:39:41.16681+01 | 1486121981.16681 | 0/4E3F34D8               |            1312765144

 2017-02-03 12:39:42.257616+01 | 1486121982.25762 | 0/4E3F34D8               |            1312765144

 2017-02-03 12:39:43.348118+01 | 1486121983.34812 | 0/4E3F34D8               |            1312765144

 2017-02-03 12:39:44.438156+01 | 1486121984.43816 | 0/4E3F34D8               |            1312765144

 2017-02-03 12:39:45.523062+01 | 1486121985.52306 | 0/4E3F34D8               |            1312765144

 2017-02-03 12:39:46.605603+01 | 1486121986.6056 | 0/4E3F34D8               |            1312765144

 2017-02-03 12:39:47.689722+01 | 1486121987.68972 | 0/4E3F34D8               |            1312765144

 2017-02-03 12:39:48.77062+01 | 1486121988.77062 | 0/4E3F34D8               |            1312765144

 2017-02-03 12:39:49.863071+01 | 1486121989.86307 | 0/4E3F34D8               |            1312765144

 2017-02-03 12:39:50.953129+01 | 1486121990.95313 | 0/4E3F34D8               |            1312765144

 2017-02-03 12:39:52.04293+01 | 1486121992.04293 | 0/4E3F34D8               |            1312765144

 2017-02-03 12:39:53.131674+01 | 1486121993.13167 | 0/4E3F34D8               |            1312765144

 2017-02-03 12:39:54.217906+01 | 1486121994.21791 | 0/4E3F34D8               |            1312765144

 2017-02-03 12:39:55.302279+01 | 1486121995.30228 | 0/4E3F34D8               |            1312765144

 2017-02-03 12:39:56.389529+01 | 1486121996.38953 | 0/4E3F34D8               |            1312765144

 2017-02-03 12:39:57.476065+01 | 1486121997.47606 | 0/4E3F34D8               |            1312765144

 2017-02-03 12:39:58.559628+01 | 1486121998.55963 | 0/4E3F34D8               |            1312765144

 2017-02-03 12:39:59.648159+01 | 1486121999.64816 | 0/4E3F34D8               |            1312765144

 2017-02-03 12:40:00.737502+01 | 1486122000.7375 | 0/4E3F34D8               |            1312765144

 2017-02-03 12:40:01.820705+01 | 1486122001.8207 | 0/4E3F34D8               |            1312765144

 2017-02-03 12:40:02.908566+01 | 1486122002.90857 | 0/4E3F34D8               |            1312765144

 2017-02-03 12:40:03.993063+01 | 1486122003.99306 | 0/4E3F34D8               |            1312765144

 2017-02-03 12:40:05.076431+01 | 1486122005.07643 | 0/4E3F34D8               |            1312765144

 2017-02-03 12:40:06.166155+01 | 1486122006.16616 | 0/4E3F34D8               |            1312765144

 2017-02-03 12:40:07.249951+01 | 1486122007.24995 | 0/4E3F34D8               |            1312765144

 2017-02-03 12:40:08.337641+01 | 1486122008.33764 | 0/4E3F34D8               |            1312765144

 2017-02-03 12:40:09.427904+01 | 1486122009.4279 | 0/4E3F34D8               |            1312765144

 2017-02-03 12:40:10.515198+01 | 1486122010.5152 | 0/4E3F34D8               |            1312765144

 2017-02-03 12:40:11.601143+01 | 1486122011.60114 | 0/4E3F34D8               |            1312765144

 2017-02-03 12:40:12.687572+01 | 1486122012.68757 | 0/4E3F34D8               |            1312765144

 2017-02-03 12:40:13.775682+01 | 1486122013.77568 | 0/4E3F34D8               |            1312765144

 2017-02-03 12:40:14.867224+01 | 1486122014.86722 | 0/4E3F34D8               |            1312765144

 2017-02-03 12:40:15.961715+01 | 1486122015.96171 | 0/4E3F34D8               |            1312765144

 2017-02-03 12:40:17.052507+01 | 1486122017.05251 | 0/4E3F34D8               |            1312765144

 2017-02-03 12:40:18.14774+01 | 1486122018.14774 | 0/4E3F34D8               |            1312765144

 2017-02-03 12:40:19.239548+01 | 1486122019.23955 | 0/4E3F34D8               |            1312765144

 2017-02-03 12:40:20.32817+01 | 1486122020.32817 | 0/4E3F34D8               |            1312765144

 2017-02-03 12:40:21.416485+01 | 1486122021.41649 | 0/4E3F34D8               |            1312765144

 2017-02-03 12:40:22.508601+01 | 1486122022.5086 | 0/4E3F34D8               |            1312765144

 2017-02-03 12:40:23.59501+01 | 1486122023.59501 | 0/4E3F34D8               |            1312765144

 2017-02-03 12:40:24.691135+01 | 1486122024.69113 | 0/4E3F34D8               |            1312765144

 2017-02-03 12:40:25.779782+01 | 1486122025.77978 | 0/4E3F34D8               |            1312765144

 2017-02-03 12:40:26.866523+01 | 1486122026.86652 | 0/4E3F34D8               |            1312765144

 2017-02-03 12:40:27.956688+01 | 1486122027.95669 | 0/4E3F34D8               |            1312765144

 2017-02-03 12:40:29.04307+01 | 1486122029.04307 | 0/4E3F34D8               |            1312765144

 2017-02-03 12:40:30.136253+01 | 1486122030.13625 | 0/4E3F34D8               |            1312765144

 2017-02-03 12:40:31.221054+01 | 1486122031.22105 | 0/4E3F34D8               |            1312765144

 2017-02-03 12:40:32.322929+01 | 1486122032.32293 | 0/4E3F34D8               |            1312765144

 2017-02-03 12:40:33.416323+01 | 1486122033.41632 | 0/4E3F34D8               |            1312765144

 2017-02-03 12:40:34.507017+01 | 1486122034.50702 | 0/4E3F34D8               |            1312765144

 2017-02-03 12:40:35.600419+01 | 1486122035.60042 | 0/4E3F34D8               |            1312765144

 2017-02-03 12:40:36.684981+01 | 1486122036.68498 | 0/4E3F34D8               |            1312765144

 2017-02-03 12:40:37.768536+01 | 1486122037.76854 | 0/4E3F34D8               |            1312765144

 2017-02-03 12:40:38.853829+01 | 1486122038.85383 | 0/4E3F34D8               |            1312765144

 2017-02-03 12:40:39.945966+01 | 1486122039.94597 | 0/4E3F34D8               |            1312765144

 2017-02-03 12:40:41.031596+01 | 1486122041.0316 | 0/4E3F34D8               |            1312765144

 2017-02-03 12:40:42.117513+01 | 1486122042.11751 | 0/4E3F34D8               |            1312765144

 2017-02-03 12:40:43.207968+01 | 1486122043.20797 | 0/4E3F34D8               |            1312765144

 2017-02-03 12:40:44.3043+01 | 1486122044.3043 | 0/4E3F34D8               |            1312765144

 2017-02-03 12:40:45.394171+01 | 1486122045.39417 | 0/4E3F34D8               |            1312765144

 2017-02-03 12:40:46.478761+01 | 1486122046.47876 | 0/4E3F34D8               |            1312765144

 2017-02-03 12:40:47.563994+01 | 1486122047.56399 | 0/4E3F34D8               |            1312765144

 2017-02-03 12:40:48.655146+01 | 1486122048.65515 | 0/4E3F34D8               |            1312765144

 2017-02-03 12:40:49.741799+01 | 1486122049.7418 | 0/4E3F34D8               |            1312765144

 2017-02-03 12:40:50.824597+01 | 1486122050.8246 | 0/4E3F34D8               |            1312765144

 2017-02-03 12:40:51.90975+01 | 1486122051.90975 | 0/4E3F34D8               |            1312765144

 2017-02-03 12:40:52.996199+01 | 1486122052.9962 | 0/4E3F34D8               |            1312765144

 2017-02-03 12:40:54.094654+01 | 1486122054.09465 | 0/4E3F34D8               |            1312765144

 2017-02-03 12:40:55.180061+01 | 1486122055.18006 | 0/4E3F34D8               |            1312765144

 2017-02-03 12:40:56.273013+01 | 1486122056.27301 | 0/4E3F34D8               |            1312765144

 2017-02-03 12:40:57.369692+01 | 1486122057.36969 | 0/4E3F34D8               |            1312765144

 2017-02-03 12:40:58.454874+01 | 1486122058.45487 | 0/4E3F34D8               |            1312765144

 2017-02-03 12:40:59.547227+01 | 1486122059.54723 | 0/4E3F34D8               |            1312765144

 2017-02-03 12:41:00.636344+01 | 1486122060.63634 | 0/4E3F34D8               |            1312765144

 2017-02-03 12:41:01.7293+01 | 1486122061.7293 | 0/4E3F34D8               |            1312765144

 2017-02-03 12:41:02.813962+01 | 1486122062.81396 | 0/4E3F34D8               |            1312765144

 2017-02-03 12:41:03.904575+01 | 1486122063.90458 | 0/4E3F34D8               |            1312765144

 2017-02-03 12:41:04.988594+01 | 1486122064.98859 | 0/4E3F34D8               |            1312765144

 2017-02-03 12:41:06.079487+01 | 1486122066.07949 | 0/4E3F34D8               |            1312765144

 2017-02-03 12:41:07.173649+01 | 1486122067.17365 | 0/4E3F34D8               |            1312765144

 2017-02-03 12:41:08.267298+01 | 1486122068.2673 | 0/4E3F34D8               |            1312765144

 2017-02-03 12:41:09.356049+01 | 1486122069.35605 | 0/4E3F34D8               |            1312765144

 2017-02-03 12:41:10.443778+01 | 1486122070.44378 | 0/4E3F34D8               |            1312765144

 2017-02-03 12:41:11.53469+01 | 1486122071.53469 | 0/4E3F34D8               |            1312765144

 2017-02-03 12:41:12.624039+01 | 1486122072.62404 | 0/4E3F34D8               |            1312765144

 2017-02-03 12:41:13.711497+01 | 1486122073.7115 | 0/4E3F34D8               |            1312765144

 2017-02-03 12:41:14.794441+01 | 1486122074.79444 | 0/4E3F34D8               |            1312765144

 2017-02-03 12:41:15.882422+01 | 1486122075.88242 | 0/4E3F34D8               |            1312765144

 2017-02-03 12:41:16.969802+01 | 1486122076.9698 | 0/4E3F34D8               |            1312765144

 2017-02-03 12:41:18.054126+01 | 1486122078.05413 | 0/4E3F34D8               |            1312765144

 2017-02-03 12:41:19.142047+01 | 1486122079.14205 | 0/4E3F34D8               |            1312765144

 2017-02-03 12:41:20.231617+01 | 1486122080.23162 | 0/4E3F34D8               |            1312765144

 2017-02-03 12:41:21.322831+01 | 1486122081.32283 | 0/4E3F34D8               |            1312765144

 2017-02-03 12:41:22.417294+01 | 1486122082.41729 | 0/4E3F34D8               |            1312765144

 2017-02-03 12:41:23.509753+01 | 1486122083.50975 | 0/4E3F34D8               |            1312765144

 2017-02-03 12:41:24.599702+01 | 1486122084.5997 | 0/4E3F34D8               |            1312765144

 2017-02-03 12:41:25.68979+01 | 1486122085.68979 | 0/4E3F34D8               |            1312765144

 2017-02-03 12:41:26.779898+01 | 1486122086.7799 | 0/4E3F34D8               |            1312765144

 2017-02-03 12:41:27.866895+01 | 1486122087.86689 | 0/4E3F34D8               |            1312765144

 2017-02-03 12:41:28.956771+01 | 1486122088.95677 | 0/4E3F34D8               |            1312765144

 2017-02-03 12:41:30.042728+01 | 1486122090.04273 | 0/4E3F34D8               |            1312765144

 2017-02-03 12:41:31.129445+01 | 1486122091.12945 | 0/4E3F34D8               |            1312765144

 2017-02-03 12:41:32.217742+01 | 1486122092.21774 | 0/4E3F34D8               |            1312765144

 2017-02-03 12:41:33.304188+01 | 1486122093.30419 | 0/4E3F34D8               |            1312765144

 2017-02-03 12:41:34.39394+01 | 1486122094.39394 | 0/4E3F34D8               |            1312765144

 2017-02-03 12:41:35.488799+01 | 1486122095.4888 | 0/4E3F34D8               |            1312765144

 2017-02-03 12:41:36.574771+01 | 1486122096.57477 | 0/4E3F34D8               |            1312765144

 2017-02-03 12:41:37.666705+01 | 1486122097.6667 | 0/4E3F34D8               |            1312765144

 2017-02-03 12:41:38.764074+01 | 1486122098.76407 | 0/4E3F34D8               |            1312765144

 2017-02-03 12:41:39.850308+01 | 1486122099.85031 | 0/4E3F34D8               |            1312765144

 2017-02-03 12:41:40.939783+01 | 1486122100.93978 | 0/4E3F34D8               |            1312765144

 2017-02-03 12:41:42.025273+01 | 1486122102.02527 | 0/4E3F34D8               |            1312765144

 2017-02-03 12:41:43.10607+01 | 1486122103.10607 | 0/4E3F34D8               |            1312765144

 2017-02-03 12:41:44.196728+01 | 1486122104.19673 | 0/4E3F34D8               |            1312765144

 2017-02-03 12:41:45.283999+01 | 1486122105.284 | 0/4E3F34D8               |            1312765144

 2017-02-03 12:41:46.379538+01 | 1486122106.37954 | 0/4E3F34D8               |            1312765144

 2017-02-03 12:41:47.468329+01 | 1486122107.46833 | 0/4E3F34D8               |            1312765144

 2017-02-03 12:41:48.560091+01 | 1486122108.56009 | 0/4E3F34D8               |            1312765144

 2017-02-03 12:41:49.653183+01 | 1486122109.65318 | 0/4E3F34D8               |            1312765144

 2017-02-03 12:41:50.745262+01 | 1486122110.74526 | 0/4E3F34D8               |            1312765144

 2017-02-03 12:41:51.831231+01 | 1486122111.83123 | 0/4E3F34D8               |            1312765144

 2017-02-03 12:41:52.912702+01 | 1486122112.9127 | 0/4E3F34D8               |            1312765144

 2017-02-03 12:41:53.997927+01 | 1486122113.99793 | 0/4E3F34D8               |            1312765144

 2017-02-03 12:41:55.086279+01 | 1486122115.08628 | 0/4E3F34D8               |            1312765144

 2017-02-03 12:41:56.181521+01 | 1486122116.18152 | 0/4E3F34D8               |            1312765144

 2017-02-03 12:41:57.272458+01 | 1486122117.27246 | 0/4E3F34D8               |            1312765144

 2017-02-03 12:41:58.364599+01 | 1486122118.3646 | 0/4E3F34D8               |            1312765144

 2017-02-03 12:41:59.457786+01 | 1486122119.45779 | 0/4E3F34D8               |            1312765144

 2017-02-03 12:42:00.548676+01 | 1486122120.54868 | 0/4E3F34D8               |            1312765144

 2017-02-03 12:42:01.638916+01 | 1486122121.63892 | 0/4E3F34D8               |            1312765144

 2017-02-03 12:42:02.730784+01 | 1486122122.73078 | 0/4E3F34D8               |            1312765144

 2017-02-03 12:42:03.825824+01 | 1486122123.82582 | 0/4E3F34D8               |            1312765144

 2017-02-03 12:42:04.9084+01 | 1486122124.9084 | 0/4E3F34D8               |            1312765144

 2017-02-03 12:42:05.989747+01 | 1486122125.98975 | 0/4E3F34D8               |            1312765144

 2017-02-03 12:42:07.084389+01 | 1486122127.08439 | 0/4E3F34D8               |            1312765144

 2017-02-03 12:42:08.168265+01 | 1486122128.16827 | 0/4E3F34D8               |            1312765144

