 2017-02-03 19:37:05.245484+01 | 1486147025.24548 |                 0 |               9 |                   395 |                    0 |                 29 |          1178 |                9 |         4915951 |                     0 |     438911371 | 2017-02-03 18:53:18.816171+01

 2017-02-03 19:37:06.331395+01 | 1486147026.33139 |                 0 |               9 |                   395 |                    0 |                 29 |          1178 |                9 |         4915951 |                     0 |     438991694 | 2017-02-03 18:53:18.816171+01

 2017-02-03 19:37:07.407696+01 | 1486147027.4077 |                 0 |               9 |                   395 |                    0 |                 29 |          1178 |                9 |         4915951 |                     0 |     439072270 | 2017-02-03 18:53:18.816171+01

 2017-02-03 19:37:08.492646+01 | 1486147028.49265 |                 0 |               9 |                   395 |                    0 |                 29 |          1178 |                9 |         4915951 |                     0 |     439153338 | 2017-02-03 18:53:18.816171+01

 2017-02-03 19:37:09.570559+01 | 1486147029.57056 |                 0 |               9 |                   395 |                    0 |                 29 |          1178 |                9 |         4915951 |                     0 |     439254410 | 2017-02-03 18:53:18.816171+01

 2017-02-03 19:37:10.642076+01 | 1486147030.64208 |                 0 |               9 |                   395 |                    0 |                 29 |          1178 |                9 |         4915951 |                     0 |     439339173 | 2017-02-03 18:53:18.816171+01

 2017-02-03 19:37:11.723435+01 | 1486147031.72343 |                 0 |               9 |                   395 |                    0 |                 29 |          1179 |                9 |         4915951 |                     0 |     439422344 | 2017-02-03 18:53:18.816171+01

 2017-02-03 19:37:12.817572+01 | 1486147032.81757 |                 0 |               9 |                   395 |                    0 |                 29 |          1179 |                9 |         4915951 |                     0 |     439521996 | 2017-02-03 18:53:18.816171+01

 2017-02-03 19:37:13.900336+01 | 1486147033.90034 |                 0 |               9 |                   395 |                    0 |                 29 |          1179 |                9 |         4915951 |                     0 |     439605777 | 2017-02-03 18:53:18.816171+01

 2017-02-03 19:37:14.987444+01 | 1486147034.98744 |                 0 |               9 |                   395 |                    0 |                 29 |          1181 |                9 |         4915951 |                     0 |     439711544 | 2017-02-03 18:53:18.816171+01

 2017-02-03 19:37:16.066577+01 | 1486147036.06658 |                 0 |               9 |                   395 |                    0 |                 29 |          1181 |                9 |         4915951 |                     0 |     439800635 | 2017-02-03 18:53:18.816171+01

 2017-02-03 19:37:17.154122+01 | 1486147037.15412 |                 0 |               9 |                   395 |                    0 |                 29 |          1181 |                9 |         4915951 |                     0 |     439888833 | 2017-02-03 18:53:18.816171+01

 2017-02-03 19:37:18.24377+01 | 1486147038.24377 |                 0 |               9 |                   395 |                    0 |                 29 |          1181 |                9 |         4915951 |                     0 |     439994087 | 2017-02-03 18:53:18.816171+01

 2017-02-03 19:37:19.318169+01 | 1486147039.31817 |                 0 |               9 |                   395 |                    0 |                 29 |          1181 |                9 |         4915951 |                     0 |     440081100 | 2017-02-03 18:53:18.816171+01

 2017-02-03 19:37:20.391534+01 | 1486147040.39153 |                 0 |               9 |                   395 |                    0 |                 29 |          1181 |                9 |         4915951 |                     0 |     440169067 | 2017-02-03 18:53:18.816171+01

 2017-02-03 19:37:21.471878+01 | 1486147041.47188 |                 0 |               9 |                   395 |                    0 |                 29 |          1181 |                9 |         4915951 |                     0 |     440274496 | 2017-02-03 18:53:18.816171+01

 2017-02-03 19:37:22.5476+01 | 1486147042.5476 |                 0 |               9 |                   395 |                    0 |                 29 |          1181 |                9 |         4915951 |                     0 |     440366059 | 2017-02-03 18:53:18.816171+01

 2017-02-03 19:37:23.637796+01 | 1486147043.6378 |                 0 |               9 |                   395 |                    0 |                 29 |          1181 |                9 |         4915951 |                     0 |     440454898 | 2017-02-03 18:53:18.816171+01

 2017-02-03 19:37:24.719634+01 | 1486147044.71963 |                 0 |               9 |                   395 |                    0 |                 29 |          1182 |                9 |         4915951 |                     0 |     440563160 | 2017-02-03 18:53:18.816171+01

 2017-02-03 19:37:25.802614+01 | 1486147045.80261 |                 0 |               9 |                   395 |                    0 |                 29 |          1182 |                9 |         4915951 |                     0 |     440653859 | 2017-02-03 18:53:18.816171+01

 2017-02-03 19:37:26.876217+01 | 1486147046.87622 |                 0 |               9 |                   395 |                    0 |                 29 |          1182 |                9 |         4915951 |                     0 |     440744143 | 2017-02-03 18:53:18.816171+01

 2017-02-03 19:37:27.952164+01 | 1486147047.95216 |                 0 |               9 |                   395 |                    0 |                 29 |          1182 |                9 |         4915951 |                     0 |     440849359 | 2017-02-03 18:53:18.816171+01

 2017-02-03 19:37:29.03451+01 | 1486147049.03451 |                 0 |               9 |                   395 |                    0 |                 29 |          1182 |                9 |         4915951 |                     0 |     440937575 | 2017-02-03 18:53:18.816171+01

 2017-02-03 19:37:30.102414+01 | 1486147050.10241 |                 0 |               9 |                   395 |                    0 |                 29 |          1182 |                9 |         4915951 |                     0 |     441027082 | 2017-02-03 18:53:18.816171+01

 2017-02-03 19:37:31.193476+01 | 1486147051.19348 |                 0 |               9 |                   395 |                    0 |                 29 |          1182 |                9 |         4915951 |                     0 |     441135055 | 2017-02-03 18:53:18.816171+01

 2017-02-03 19:37:32.275053+01 | 1486147052.27505 |                 0 |               9 |                   395 |                    0 |                 29 |          1182 |                9 |         4915951 |                     0 |     441228362 | 2017-02-03 18:53:18.816171+01

 2017-02-03 19:37:33.352596+01 | 1486147053.3526 |                 0 |               9 |                   395 |                    0 |                 29 |          1182 |                9 |         4915951 |                     0 |     441319572 | 2017-02-03 18:53:18.816171+01

 2017-02-03 19:37:34.432238+01 | 1486147054.43224 |                 0 |               9 |                   395 |                    0 |                 29 |          1182 |                9 |         4915951 |                     0 |     441428097 | 2017-02-03 18:53:18.816171+01

 2017-02-03 19:37:35.513792+01 | 1486147055.51379 |                 0 |               9 |                   395 |                    0 |                 29 |          1182 |                9 |         4915951 |                     0 |     441518882 | 2017-02-03 18:53:18.816171+01

 2017-02-03 19:37:36.584646+01 | 1486147056.58465 |                 0 |               9 |                   395 |                    0 |                 29 |          1182 |                9 |         4915951 |                     0 |     441607345 | 2017-02-03 18:53:18.816171+01

 2017-02-03 19:37:37.667028+01 | 1486147057.66703 |                 0 |               9 |                   395 |                    0 |                 29 |          1182 |                9 |         4915951 |                     0 |     441717836 | 2017-02-03 18:53:18.816171+01

 2017-02-03 19:37:38.745922+01 | 1486147058.74592 |                 0 |               9 |                   395 |                    0 |                 29 |          1182 |                9 |         4915951 |                     0 |     441805812 | 2017-02-03 18:53:18.816171+01

 2017-02-03 19:37:39.818503+01 | 1486147059.8185 |                 0 |               9 |                   395 |                    0 |                 29 |          1182 |                9 |         4915951 |                     0 |     441897331 | 2017-02-03 18:53:18.816171+01

 2017-02-03 19:37:40.896906+01 | 1486147060.89691 |                 0 |               9 |                   395 |                    0 |                 29 |          1182 |                9 |         4915951 |                     0 |     441987671 | 2017-02-03 18:53:18.816171+01

 2017-02-03 19:37:41.985398+01 | 1486147061.9854 |                 0 |               9 |                   395 |                    0 |                 29 |          1182 |                9 |         4915951 |                     0 |     442092970 | 2017-02-03 18:53:18.816171+01

 2017-02-03 19:37:43.053669+01 | 1486147063.05367 |                 0 |               9 |                   395 |                    0 |                 29 |          1182 |                9 |         4915951 |                     0 |     442183363 | 2017-02-03 18:53:18.816171+01

 2017-02-03 19:37:44.124411+01 | 1486147064.12441 |                 0 |               9 |                   395 |                    0 |                 29 |          1182 |                9 |         4915951 |                     0 |     442273704 | 2017-02-03 18:53:18.816171+01

 2017-02-03 19:37:45.197819+01 | 1486147065.19782 |                 0 |               9 |                   395 |                    0 |                 29 |          1182 |                9 |         4915951 |                     0 |     442380727 | 2017-02-03 18:53:18.816171+01

 2017-02-03 19:37:46.26847+01 | 1486147066.26847 |                 0 |               9 |                   395 |                    0 |                 29 |          1182 |                9 |         4915951 |                     0 |     442471729 | 2017-02-03 18:53:18.816171+01

 2017-02-03 19:37:47.353409+01 | 1486147067.35341 |                 0 |               9 |                   395 |                    0 |                 29 |          1182 |                9 |         4915951 |                     0 |     442565493 | 2017-02-03 18:53:18.816171+01

 2017-02-03 19:37:48.430376+01 | 1486147068.43038 |                 0 |               9 |                   395 |                    0 |                 29 |          1182 |                9 |         4915951 |                     0 |     442671215 | 2017-02-03 18:53:18.816171+01

 2017-02-03 19:37:49.510502+01 | 1486147069.5105 |                 0 |               9 |                   395 |                    0 |                 29 |          1182 |                9 |         4915951 |                     0 |     442762771 | 2017-02-03 18:53:18.816171+01

 2017-02-03 19:37:50.580666+01 | 1486147070.58067 |                 0 |               9 |                   395 |                    0 |                 29 |          1182 |                9 |         4915951 |                     0 |     442814966 | 2017-02-03 18:53:18.816171+01

 2017-02-03 19:37:51.663672+01 | 1486147071.66367 |                 0 |               9 |                   395 |                    0 |                 29 |          1182 |                9 |         4915951 |                     0 |     442956777 | 2017-02-03 18:53:18.816171+01

 2017-02-03 19:37:52.748643+01 | 1486147072.74864 |                 0 |               9 |                   395 |                    0 |                 29 |          1182 |                9 |         4915951 |                     0 |     443046077 | 2017-02-03 18:53:18.816171+01

 2017-02-03 19:37:53.826786+01 | 1486147073.82679 |                 0 |               9 |                   395 |                    0 |                 29 |          1182 |                9 |         4915951 |                     0 |     443134615 | 2017-02-03 18:53:18.816171+01

 2017-02-03 19:37:54.912164+01 | 1486147074.91216 |                 0 |               9 |                   395 |                    0 |                 29 |          1182 |                9 |         4915951 |                     0 |     443241162 | 2017-02-03 18:53:18.816171+01

 2017-02-03 19:37:55.988049+01 | 1486147075.98805 |                 0 |               9 |                   395 |                    0 |                 29 |          1182 |                9 |         4915951 |                     0 |     443332412 | 2017-02-03 18:53:18.816171+01

 2017-02-03 19:37:57.071972+01 | 1486147077.07197 |                 0 |               9 |                   395 |                    0 |                 29 |          1182 |                9 |         4915951 |                     0 |     443421861 | 2017-02-03 18:53:18.816171+01

 2017-02-03 19:37:58.15425+01 | 1486147078.15425 |                 0 |               9 |                   395 |                    0 |                 29 |          1182 |                9 |         4915951 |                     0 |     443528089 | 2017-02-03 18:53:18.816171+01

 2017-02-03 19:37:59.228066+01 | 1486147079.22807 |                 0 |               9 |                   395 |                    0 |                 29 |          1182 |                9 |         4915951 |                     0 |     443618003 | 2017-02-03 18:53:18.816171+01

 2017-02-03 19:38:00.302814+01 | 1486147080.30281 |                 0 |               9 |                   395 |                    0 |                 29 |          1182 |                9 |         4915951 |                     0 |     443708791 | 2017-02-03 18:53:18.816171+01

 2017-02-03 19:38:01.381088+01 | 1486147081.38109 |                 0 |               9 |                   395 |                    0 |                 29 |          1182 |                9 |         4915951 |                     0 |     443820906 | 2017-02-03 18:53:18.816171+01

 2017-02-03 19:38:02.463257+01 | 1486147082.46326 |                 0 |               9 |                   395 |                    0 |                 29 |          1182 |                9 |         4915951 |                     0 |     443909946 | 2017-02-03 18:53:18.816171+01

 2017-02-03 19:38:03.553797+01 | 1486147083.5538 |                 0 |               9 |                   395 |                    0 |                 29 |          1182 |                9 |         4915951 |                     0 |     444000586 | 2017-02-03 18:53:18.816171+01

 2017-02-03 19:38:04.643336+01 | 1486147084.64334 |                 0 |               9 |                   395 |                    0 |                 29 |          1182 |                9 |         4915951 |                     0 |     444108836 | 2017-02-03 18:53:18.816171+01

 2017-02-03 19:38:05.72334+01 | 1486147085.72334 |                 0 |               9 |                   395 |                    0 |                 29 |          1182 |                9 |         4915951 |                     0 |     444199093 | 2017-02-03 18:53:18.816171+01

 2017-02-03 19:38:06.81205+01 | 1486147086.81205 |                 0 |               9 |                   395 |                    0 |                 29 |          1182 |                9 |         4915951 |                     0 |     444290222 | 2017-02-03 18:53:18.816171+01

 2017-02-03 19:38:07.891717+01 | 1486147087.89172 |                 0 |               9 |                   395 |                    0 |                 29 |          1182 |                9 |         4915951 |                     0 |     444399313 | 2017-02-03 18:53:18.816171+01

 2017-02-03 19:38:08.971338+01 | 1486147088.97134 |                 0 |               9 |                   395 |                    0 |                 29 |          1182 |                9 |         4915951 |                     0 |     444490378 | 2017-02-03 18:53:18.816171+01

 2017-02-03 19:38:10.047291+01 | 1486147090.04729 |                 0 |               9 |                   395 |                    0 |                 29 |          1182 |                9 |         4915951 |                     0 |     444581984 | 2017-02-03 18:53:18.816171+01

 2017-02-03 19:38:11.125684+01 | 1486147091.12568 |                 0 |               9 |                   395 |                    0 |                 29 |          1182 |                9 |         4915951 |                     0 |     444692232 | 2017-02-03 18:53:18.816171+01

 2017-02-03 19:38:12.198642+01 | 1486147092.19864 |                 0 |               9 |                   395 |                    0 |                 29 |          1182 |                9 |         4915951 |                     0 |     444785205 | 2017-02-03 18:53:18.816171+01

 2017-02-03 19:38:13.269504+01 | 1486147093.2695 |                 0 |               9 |                   395 |                    0 |                 29 |          1182 |                9 |         4915951 |                     0 |     444876062 | 2017-02-03 18:53:18.816171+01

 2017-02-03 19:38:14.358831+01 | 1486147094.35883 |                 0 |               9 |                   395 |                    0 |                 29 |          1182 |                9 |         4915951 |                     0 |     444986119 | 2017-02-03 18:53:18.816171+01

 2017-02-03 19:38:15.452322+01 | 1486147095.45232 |                 0 |               9 |                   395 |                    0 |                 29 |          1182 |                9 |         4915951 |                     0 |     445078505 | 2017-02-03 18:53:18.816171+01

 2017-02-03 19:38:16.533782+01 | 1486147096.53378 |                 0 |               9 |                   395 |                    0 |                 29 |          1182 |                9 |         4915951 |                     0 |     445170343 | 2017-02-03 18:53:18.816171+01

 2017-02-03 19:38:17.609139+01 | 1486147097.60914 |                 0 |               9 |                   395 |                    0 |                 29 |          1182 |                9 |         4915951 |                     0 |     445277809 | 2017-02-03 18:53:18.816171+01

 2017-02-03 19:38:18.693714+01 | 1486147098.69371 |                 0 |               9 |                   395 |                    0 |                 29 |          1182 |                9 |         4915951 |                     0 |     445367581 | 2017-02-03 18:53:18.816171+01

 2017-02-03 19:38:19.766666+01 | 1486147099.76667 |                 0 |               9 |                   395 |                    0 |                 29 |          1182 |                9 |         4915951 |                     0 |     445457903 | 2017-02-03 18:53:18.816171+01

 2017-02-03 19:38:20.858685+01 | 1486147100.85869 |                 0 |               9 |                   395 |                    0 |                 29 |          1182 |                9 |         4915951 |                     0 |     445563684 | 2017-02-03 18:53:18.816171+01

 2017-02-03 19:38:21.932276+01 | 1486147101.93228 |                 0 |               9 |                   395 |                    0 |                 29 |          1182 |                9 |         4915951 |                     0 |     445651280 | 2017-02-03 18:53:18.816171+01

 2017-02-03 19:38:23.021594+01 | 1486147103.02159 |                 0 |               9 |                   395 |                    0 |                 29 |          1182 |                9 |         4915951 |                     0 |     445739471 | 2017-02-03 18:53:18.816171+01

 2017-02-03 19:38:24.107351+01 | 1486147104.10735 |                 0 |               9 |                   395 |                    0 |                 29 |          1182 |                9 |         4915951 |                     0 |     445850492 | 2017-02-03 18:53:18.816171+01

 2017-02-03 19:38:25.185487+01 | 1486147105.18549 |                 0 |               9 |                   395 |                    0 |                 29 |          1182 |                9 |         4915951 |                     0 |     445941291 | 2017-02-03 18:53:18.816171+01

 2017-02-03 19:38:26.259679+01 | 1486147106.25968 |                 0 |               9 |                   395 |                    0 |                 29 |          1182 |                9 |         4915951 |                     0 |     446029079 | 2017-02-03 18:53:18.816171+01

 2017-02-03 19:38:27.337494+01 | 1486147107.33749 |                 0 |               9 |                   395 |                    0 |                 29 |          1182 |                9 |         4915951 |                     0 |     446139546 | 2017-02-03 18:53:18.816171+01

 2017-02-03 19:38:28.421247+01 | 1486147108.42125 |                 0 |               9 |                   395 |                    0 |                 29 |          1182 |                9 |         4915951 |                     0 |     446232487 | 2017-02-03 18:53:18.816171+01

 2017-02-03 19:38:29.505923+01 | 1486147109.50592 |                 0 |               9 |                   395 |                    0 |                 29 |          1182 |                9 |         4915951 |                     0 |     446319465 | 2017-02-03 18:53:18.816171+01

 2017-02-03 19:38:30.586975+01 | 1486147110.58698 |                 0 |               9 |                   395 |                    0 |                 29 |          1182 |                9 |         4915951 |                     0 |     446425269 | 2017-02-03 18:53:18.816171+01

 2017-02-03 19:38:31.664809+01 | 1486147111.66481 |                 0 |               9 |                   395 |                    0 |                 29 |          1182 |                9 |         4915951 |                     0 |     446514661 | 2017-02-03 18:53:18.816171+01

 2017-02-03 19:38:32.7463+01 | 1486147112.7463 |                 0 |               9 |                   395 |                    0 |                 29 |          1182 |                9 |         4915951 |                     0 |     446602219 | 2017-02-03 18:53:18.816171+01

 2017-02-03 19:38:33.826486+01 | 1486147113.82649 |                 0 |               9 |                   395 |                    0 |                 29 |          1182 |                9 |         4915951 |                     0 |     446711358 | 2017-02-03 18:53:18.816171+01

 2017-02-03 19:38:34.899421+01 | 1486147114.89942 |                 0 |               9 |                   395 |                    0 |                 29 |          1182 |                9 |         4915951 |                     0 |     446799993 | 2017-02-03 18:53:18.816171+01

 2017-02-03 19:38:35.982011+01 | 1486147115.98201 |                 0 |               9 |                   395 |                    0 |                 29 |          1182 |                9 |         4915951 |                     0 |     446892083 | 2017-02-03 18:53:18.816171+01

 2017-02-03 19:38:37.057285+01 | 1486147117.05729 |                 0 |               9 |                   395 |                    0 |                 29 |          1182 |                9 |         4915951 |                     0 |     447001742 | 2017-02-03 18:53:18.816171+01

 2017-02-03 19:38:38.141031+01 | 1486147118.14103 |                 0 |               9 |                   395 |                    0 |                 29 |          1182 |                9 |         4915951 |                     0 |     447093774 | 2017-02-03 18:53:18.816171+01

 2017-02-03 19:38:39.222265+01 | 1486147119.22227 |                 0 |               9 |                   395 |                    0 |                 29 |          1182 |                9 |         4915951 |                     0 |     447182422 | 2017-02-03 18:53:18.816171+01

 2017-02-03 19:38:40.297127+01 | 1486147120.29713 |                 0 |               9 |                   395 |                    0 |                 29 |          1182 |                9 |         4915951 |                     0 |     447291389 | 2017-02-03 18:53:18.816171+01

 2017-02-03 19:38:41.376117+01 | 1486147121.37612 |                 0 |               9 |                   395 |                    0 |                 29 |          1182 |                9 |         4915951 |                     0 |     447383098 | 2017-02-03 18:53:18.816171+01

 2017-02-03 19:38:42.459862+01 | 1486147122.45986 |                 0 |               9 |                   395 |                    0 |                 29 |          1182 |                9 |         4915951 |                     0 |     447472993 | 2017-02-03 18:53:18.816171+01

 2017-02-03 19:38:43.531184+01 | 1486147123.53118 |                 0 |               9 |                   395 |                    0 |                 29 |          1182 |                9 |         4915951 |                     0 |     447582034 | 2017-02-03 18:53:18.816171+01

 2017-02-03 19:38:44.606645+01 | 1486147124.60665 |                 0 |               9 |                   395 |                    0 |                 29 |          1182 |                9 |         4915951 |                     0 |     447675982 | 2017-02-03 18:53:18.816171+01

 2017-02-03 19:38:45.677823+01 | 1486147125.67782 |                 0 |               9 |                   395 |                    0 |                 29 |          1182 |                9 |         4915951 |                     0 |     447770561 | 2017-02-03 18:53:18.816171+01

 2017-02-03 19:38:46.76021+01 | 1486147126.76021 |                 0 |               9 |                   395 |                    0 |                 29 |          1182 |                9 |         4915951 |                     0 |     447861680 | 2017-02-03 18:53:18.816171+01

 2017-02-03 19:38:47.839451+01 | 1486147127.83945 |                 0 |               9 |                   395 |                    0 |                 29 |          1182 |                9 |         4915951 |                     0 |     447969114 | 2017-02-03 18:53:18.816171+01

 2017-02-03 19:38:48.922157+01 | 1486147128.92216 |                 0 |               9 |                   395 |                    0 |                 29 |          1182 |                9 |         4915951 |                     0 |     448059496 | 2017-02-03 18:53:18.816171+01

 2017-02-03 19:38:49.997083+01 | 1486147129.99708 |                 0 |               9 |                   395 |                    0 |                 29 |          1182 |                9 |         4915951 |                     0 |     448167276 | 2017-02-03 18:53:18.816171+01

 2017-02-03 19:38:51.081069+01 | 1486147131.08107 |                 0 |               9 |                   395 |                    0 |                 29 |          1182 |                9 |         4915951 |                     0 |     448257600 | 2017-02-03 18:53:18.816171+01

 2017-02-03 19:38:52.162927+01 | 1486147132.16293 |                 0 |               9 |                   395 |                    0 |                 29 |          1182 |                9 |         4915951 |                     0 |     448347635 | 2017-02-03 18:53:18.816171+01

 2017-02-03 19:38:53.256129+01 | 1486147133.25613 |                 0 |               9 |                   395 |                    0 |                 29 |          1182 |                9 |         4915951 |                     0 |     448455611 | 2017-02-03 18:53:18.816171+01

 2017-02-03 19:38:54.33712+01 | 1486147134.33712 |                 0 |               9 |                   395 |                    0 |                 29 |          1182 |                9 |         4915951 |                     0 |     448545116 | 2017-02-03 18:53:18.816171+01

 2017-02-03 19:38:55.415504+01 | 1486147135.4155 |                 0 |               9 |                   395 |                    0 |                 29 |          1182 |                9 |         4915951 |                     0 |     448634949 | 2017-02-03 18:53:18.816171+01

 2017-02-03 19:38:56.49712+01 | 1486147136.49712 |                 0 |               9 |                   395 |                    0 |                 29 |          1182 |                9 |         4915951 |                     0 |     448741922 | 2017-02-03 18:53:18.816171+01

 2017-02-03 19:38:57.572738+01 | 1486147137.57274 |                 0 |               9 |                   395 |                    0 |                 29 |          1182 |                9 |         4915951 |                     0 |     448832443 | 2017-02-03 18:53:18.816171+01

 2017-02-03 19:38:58.648461+01 | 1486147138.64846 |                 0 |               9 |                   395 |                    0 |                 29 |          1182 |                9 |         4915951 |                     0 |     448922544 | 2017-02-03 18:53:18.816171+01

 2017-02-03 19:38:59.727383+01 | 1486147139.72738 |                 0 |               9 |                   395 |                    0 |                 29 |          1182 |                9 |         4915951 |                     0 |     449029095 | 2017-02-03 18:53:18.816171+01

 2017-02-03 19:39:00.808164+01 | 1486147140.80816 |                 0 |               9 |                   395 |                    0 |                 29 |          1182 |                9 |         4915951 |                     0 |     449120787 | 2017-02-03 18:53:18.816171+01

 2017-02-03 19:39:01.877325+01 | 1486147141.87733 |                 0 |               9 |                   395 |                    0 |                 29 |          1182 |                9 |         4915951 |                     0 |     449210827 | 2017-02-03 18:53:18.816171+01

 2017-02-03 19:39:02.958563+01 | 1486147142.95856 |                 0 |               9 |                   395 |                    0 |                 29 |          1182 |                9 |         4915951 |                     0 |     449302960 | 2017-02-03 18:53:18.816171+01

 2017-02-03 19:39:04.033315+01 | 1486147144.03331 |                 0 |               9 |                   395 |                    0 |                 29 |          1182 |                9 |         4915951 |                     0 |     449407662 | 2017-02-03 18:53:18.816171+01

 2017-02-03 19:39:05.117067+01 | 1486147145.11707 |                 0 |               9 |                   395 |                    0 |                 29 |          1182 |                9 |         4915951 |                     0 |     449497514 | 2017-02-03 18:53:18.816171+01

 2017-02-03 19:39:06.195526+01 | 1486147146.19553 |                 0 |               9 |                   395 |                    0 |                 29 |          1182 |                9 |         4915951 |                     0 |     449588530 | 2017-02-03 18:53:18.816171+01

 2017-02-03 19:39:07.270109+01 | 1486147147.27011 |                 0 |               9 |                   395 |                    0 |                 29 |          1182 |                9 |         4915951 |                     0 |     449692459 | 2017-02-03 18:53:18.816171+01

 2017-02-03 19:39:08.352075+01 | 1486147148.35208 |                 0 |               9 |                   395 |                    0 |                 29 |          1182 |                9 |         4915951 |                     0 |     449782483 | 2017-02-03 18:53:18.816171+01

 2017-02-03 19:39:09.427765+01 | 1486147149.42776 |                 0 |               9 |                   395 |                    0 |                 29 |          1182 |                9 |         4915951 |                     0 |     449875171 | 2017-02-03 18:53:18.816171+01

 2017-02-03 19:39:10.496815+01 | 1486147150.49681 |                 0 |               9 |                   395 |                    0 |                 29 |          1182 |                9 |         4915951 |                     0 |     449985231 | 2017-02-03 18:53:18.816171+01

 2017-02-03 19:39:11.582052+01 | 1486147151.58205 |                 0 |               9 |                   395 |                    0 |                 29 |          1182 |                9 |         4915951 |                     0 |     450073633 | 2017-02-03 18:53:18.816171+01

 2017-02-03 19:39:12.673612+01 | 1486147152.67361 |                 0 |               9 |                   395 |                    0 |                 29 |          1182 |                9 |         4915951 |                     0 |     450164141 | 2017-02-03 18:53:18.816171+01

 2017-02-03 19:39:13.745224+01 | 1486147153.74522 |                 0 |               9 |                   395 |                    0 |                 29 |          1182 |                9 |         4915951 |                     0 |     450271065 | 2017-02-03 18:53:18.816171+01

 2017-02-03 19:39:14.823679+01 | 1486147154.82368 |                 0 |               9 |                   395 |                    0 |                 29 |          1182 |                9 |         4915951 |                     0 |     450361636 | 2017-02-03 18:53:18.816171+01

 2017-02-03 19:39:15.900195+01 | 1486147155.90019 |                 0 |               9 |                   395 |                    0 |                 29 |          1182 |                9 |         4915951 |                     0 |     450451163 | 2017-02-03 18:53:18.816171+01

 2017-02-03 19:39:16.97612+01 | 1486147156.97612 |                 0 |               9 |                   395 |                    0 |                 29 |          1182 |                9 |         4915951 |                     0 |     450560155 | 2017-02-03 18:53:18.816171+01

 2017-02-03 19:39:18.054334+01 | 1486147158.05433 |                 0 |               9 |                   395 |                    0 |                 29 |          1182 |                9 |         4915951 |                     0 |     450649842 | 2017-02-03 18:53:18.816171+01

 2017-02-03 19:39:19.127062+01 | 1486147159.12706 |                 0 |               9 |                   395 |                    0 |                 29 |          1182 |                9 |         4915951 |                     0 |     450739086 | 2017-02-03 18:53:18.816171+01

 2017-02-03 19:39:20.204534+01 | 1486147160.20453 |                 0 |               9 |                   395 |                    0 |                 29 |          1182 |                9 |         4915951 |                     0 |     450847038 | 2017-02-03 18:53:18.816171+01

 2017-02-03 19:39:21.283875+01 | 1486147161.28387 |                 0 |               9 |                   395 |                    0 |                 29 |          1182 |                9 |         4915951 |                     0 |     450939553 | 2017-02-03 18:53:18.816171+01

 2017-02-03 19:39:22.366051+01 | 1486147162.36605 |                 0 |               9 |                   395 |                    0 |                 29 |          1182 |                9 |         4915951 |                     0 |     451030541 | 2017-02-03 18:53:18.816171+01

 2017-02-03 19:39:23.449125+01 | 1486147163.44913 |                 0 |               9 |                   395 |                    0 |                 29 |          1182 |                9 |         4915951 |                     0 |     451137578 | 2017-02-03 18:53:18.816171+01

 2017-02-03 19:39:24.530993+01 | 1486147164.53099 |                 0 |               9 |                   395 |                    0 |                 29 |          1182 |                9 |         4915951 |                     0 |     451225128 | 2017-02-03 18:53:18.816171+01

 2017-02-03 19:39:25.612142+01 | 1486147165.61214 |                 0 |               9 |                   395 |                    0 |                 29 |          1182 |                9 |         4915951 |                     0 |     451317127 | 2017-02-03 18:53:18.816171+01

 2017-02-03 19:39:26.69419+01 | 1486147166.69419 |                 0 |               9 |                   395 |                    0 |                 29 |          1182 |                9 |         4915951 |                     0 |     451423399 | 2017-02-03 18:53:18.816171+01

 2017-02-03 19:39:27.778057+01 | 1486147167.77806 |                 0 |               9 |                   395 |                    0 |                 29 |          1182 |                9 |         4915951 |                     0 |     451512023 | 2017-02-03 18:53:18.816171+01

 2017-02-03 19:39:28.856375+01 | 1486147168.85637 |                 0 |               9 |                   395 |                    0 |                 29 |          1182 |                9 |         4915951 |                     0 |     451601256 | 2017-02-03 18:53:18.816171+01

 2017-02-03 19:39:29.934346+01 | 1486147169.93435 |                 0 |               9 |                   395 |                    0 |                 29 |          1182 |                9 |         4915951 |                     0 |     451709696 | 2017-02-03 18:53:18.816171+01

 2017-02-03 19:39:31.005446+01 | 1486147171.00545 |                 0 |               9 |                   395 |                    0 |                 29 |          1182 |                9 |         4915951 |                     0 |     451801294 | 2017-02-03 18:53:18.816171+01

 2017-02-03 19:39:32.082236+01 | 1486147172.08224 |                 0 |               9 |                   395 |                    0 |                 29 |          1182 |                9 |         4915951 |                     0 |     451893985 | 2017-02-03 18:53:18.816171+01

 2017-02-03 19:39:33.158487+01 | 1486147173.15849 |                 0 |               9 |                   395 |                    0 |                 29 |          1182 |                9 |         4915951 |                     0 |     451983913 | 2017-02-03 18:53:18.816171+01

 2017-02-03 19:39:34.240219+01 | 1486147174.24022 |                 0 |               9 |                   395 |                    0 |                 29 |          1182 |                9 |         4915951 |                     0 |     452092613 | 2017-02-03 18:53:18.816171+01

 2017-02-03 19:39:35.315845+01 | 1486147175.31585 |                 0 |               9 |                   395 |                    0 |                 29 |          1182 |                9 |         4915951 |                     0 |     452182279 | 2017-02-03 18:53:18.816171+01

 2017-02-03 19:39:36.394144+01 | 1486147176.39414 |                 0 |               9 |                   395 |                    0 |                 29 |          1182 |                9 |         4915951 |                     0 |     452271928 | 2017-02-03 18:53:18.816171+01

 2017-02-03 19:39:37.478366+01 | 1486147177.47837 |                 0 |               9 |                   395 |                    0 |                 29 |          1182 |                9 |         4915951 |                     0 |     452380783 | 2017-02-03 18:53:18.816171+01

 2017-02-03 19:39:38.570356+01 | 1486147178.57036 |                 0 |               9 |                   395 |                    0 |                 29 |          1182 |                9 |         4915951 |                     0 |     452468545 | 2017-02-03 18:53:18.816171+01

 2017-02-03 19:39:39.650461+01 | 1486147179.65046 |                 0 |               9 |                   395 |                    0 |                 29 |          1182 |                9 |         4915951 |                     0 |     452573920 | 2017-02-03 18:53:18.816171+01

 2017-02-03 19:39:40.734148+01 | 1486147180.73415 |                 0 |               9 |                   395 |                    0 |                 29 |          1182 |                9 |         4915951 |                     0 |     452663191 | 2017-02-03 18:53:18.816171+01

 2017-02-03 19:39:41.813156+01 | 1486147181.81316 |                 0 |               9 |                   395 |                    0 |                 29 |          1182 |                9 |         4915951 |                     0 |     452751827 | 2017-02-03 18:53:18.816171+01

 2017-02-03 19:39:42.896225+01 | 1486147182.89622 |                 0 |               9 |                   395 |                    0 |                 29 |          1182 |                9 |         4915951 |                     0 |     452858380 | 2017-02-03 18:53:18.816171+01

 2017-02-03 19:39:43.976628+01 | 1486147183.97663 |                 0 |               9 |                   395 |                    0 |                 29 |          1182 |                9 |         4915951 |                     0 |     452950636 | 2017-02-03 18:53:18.816171+01

 2017-02-03 19:39:45.064225+01 | 1486147185.06422 |                 0 |               9 |                   395 |                    0 |                 29 |          1182 |                9 |         4915951 |                     0 |     453044398 | 2017-02-03 18:53:18.816171+01

 2017-02-03 19:39:46.140234+01 | 1486147186.14023 |                 0 |               9 |                   395 |                    0 |                 29 |          1182 |                9 |         4915951 |                     0 |     453154404 | 2017-02-03 18:53:18.816171+01

 2017-02-03 19:39:47.219826+01 | 1486147187.21983 |                 0 |               9 |                   395 |                    0 |                 29 |          1182 |                9 |         4915951 |                     0 |     453246660 | 2017-02-03 18:53:18.816171+01

 2017-02-03 19:39:48.300318+01 | 1486147188.30032 |                 0 |               9 |                   395 |                    0 |                 29 |          1182 |                9 |         4915951 |                     0 |     453339493 | 2017-02-03 18:53:18.816171+01

 2017-02-03 19:39:49.375162+01 | 1486147189.37516 |                 0 |               9 |                   395 |                    0 |                 29 |          1182 |                9 |         4915951 |                     0 |     453448878 | 2017-02-03 18:53:18.816171+01

 2017-02-03 19:39:50.443813+01 | 1486147190.44381 |                 0 |               9 |                   395 |                    0 |                 29 |          1182 |                9 |         4915951 |                     0 |     453520765 | 2017-02-03 18:53:18.816171+01

 2017-02-03 19:39:51.517707+01 | 1486147191.51771 |                 0 |               9 |                   395 |                    0 |                 29 |          1182 |                9 |         4915951 |                     0 |     453628897 | 2017-02-03 18:53:18.816171+01

 2017-02-03 19:39:52.603061+01 | 1486147192.60306 |                 0 |               9 |                   395 |                    0 |                 29 |          1182 |                9 |         4915951 |                     0 |     453718721 | 2017-02-03 18:53:18.816171+01

 2017-02-03 19:39:53.677712+01 | 1486147193.67771 |                 0 |               9 |                   395 |                    0 |                 29 |          1182 |                9 |         4915951 |                     0 |     453829896 | 2017-02-03 18:53:18.816171+01

 2017-02-03 19:39:54.762648+01 | 1486147194.76265 |                 0 |               9 |                   395 |                    0 |                 29 |          1182 |                9 |         4915951 |                     0 |     453920677 | 2017-02-03 18:53:18.816171+01

 2017-02-03 19:39:55.851303+01 | 1486147195.8513 |                 0 |               9 |                   395 |                    0 |                 29 |          1182 |                9 |         4915951 |                     0 |     454013215 | 2017-02-03 18:53:18.816171+01

 2017-02-03 19:39:56.931822+01 | 1486147196.93182 |                 0 |               9 |                   395 |                    0 |                 29 |          1182 |                9 |         4915951 |                     0 |     454124448 | 2017-02-03 18:53:18.816171+01

 2017-02-03 19:39:58.00683+01 | 1486147198.00683 |                 0 |               9 |                   395 |                    0 |                 29 |          1182 |                9 |         4915951 |                     0 |     454215431 | 2017-02-03 18:53:18.816171+01

 2017-02-03 19:39:59.092419+01 | 1486147199.09242 |                 0 |               9 |                   395 |                    0 |                 29 |          1182 |                9 |         4915951 |                     0 |     454305669 | 2017-02-03 18:53:18.816171+01

 2017-02-03 19:40:00.170585+01 | 1486147200.17058 |                 0 |               9 |                   395 |                    0 |                 29 |          1182 |                9 |         4915951 |                     0 |     454413816 | 2017-02-03 18:53:18.816171+01

 2017-02-03 19:40:01.252161+01 | 1486147201.25216 |                 0 |               9 |                   395 |                    0 |                 29 |          1182 |                9 |         4915951 |                     0 |     454503958 | 2017-02-03 18:53:18.816171+01

 2017-02-03 19:40:02.332871+01 | 1486147202.33287 |                 0 |               9 |                   395 |                    0 |                 29 |          1182 |                9 |         4915951 |                     0 |     454594134 | 2017-02-03 18:53:18.816171+01

 2017-02-03 19:40:03.404868+01 | 1486147203.40487 |                 0 |               9 |                   395 |                    0 |                 29 |          1182 |                9 |         4915951 |                     0 |     454702216 | 2017-02-03 18:53:18.816171+01

 2017-02-03 19:40:04.486343+01 | 1486147204.48634 |                 0 |               9 |                   395 |                    0 |                 29 |          1182 |                9 |         4915951 |                     0 |     454790494 | 2017-02-03 18:53:18.816171+01

 2017-02-03 19:40:05.566331+01 | 1486147205.56633 |                 0 |               9 |                   395 |                    0 |                 29 |          1182 |                9 |         4915951 |                     0 |     454882261 | 2017-02-03 18:53:18.816171+01

 2017-02-03 19:40:06.658077+01 | 1486147206.65808 |                 0 |               9 |                   395 |                    0 |                 29 |          1182 |                9 |         4915951 |                     0 |     454991803 | 2017-02-03 18:53:18.816171+01

 2017-02-03 19:40:07.729396+01 | 1486147207.7294 |                 0 |               9 |                   395 |                    0 |                 29 |          1182 |                9 |         4915951 |                     0 |     455081695 | 2017-02-03 18:53:18.816171+01

 2017-02-03 19:40:08.810837+01 | 1486147208.81084 |                 0 |               9 |                   395 |                    0 |                 29 |          1182 |                9 |         4915951 |                     0 |     455173324 | 2017-02-03 18:53:18.816171+01

 2017-02-03 19:40:09.888407+01 | 1486147209.88841 |                 0 |               9 |                   395 |                    0 |                 29 |          1182 |                9 |         4915951 |                     0 |     455283268 | 2017-02-03 18:53:18.816171+01

 2017-02-03 19:40:10.969194+01 | 1486147210.96919 |                 0 |               9 |                   395 |                    0 |                 29 |          1182 |                9 |         4915951 |                     0 |     455372295 | 2017-02-03 18:53:18.816171+01

 2017-02-03 19:40:12.052759+01 | 1486147212.05276 |                 0 |               9 |                   395 |                    0 |                 29 |          1182 |                9 |         4915951 |                     0 |     455462748 | 2017-02-03 18:53:18.816171+01

 2017-02-03 19:40:13.130981+01 | 1486147213.13098 |                 0 |               9 |                   395 |                    0 |                 29 |          1182 |                9 |         4915951 |                     0 |     455573250 | 2017-02-03 18:53:18.816171+01

 2017-02-03 19:40:14.206117+01 | 1486147214.20612 |                 0 |               9 |                   395 |                    0 |                 29 |          1182 |                9 |         4915951 |                     0 |     455663125 | 2017-02-03 18:53:18.816171+01

 2017-02-03 19:40:15.287852+01 | 1486147215.28785 |                 0 |               9 |                   395 |                    0 |                 29 |          1182 |                9 |         4915951 |                     0 |     455755949 | 2017-02-03 18:53:18.816171+01

 2017-02-03 19:40:16.370831+01 | 1486147216.37083 |                 0 |               9 |                   395 |                    0 |                 29 |          1182 |                9 |         4915951 |                     0 |     455863068 | 2017-02-03 18:53:18.816171+01

 2017-02-03 19:40:17.459949+01 | 1486147217.45995 |                 0 |               9 |                   395 |                    0 |                 29 |          1182 |                9 |         4915951 |                     0 |     455954554 | 2017-02-03 18:53:18.816171+01

 2017-02-03 19:40:18.531257+01 | 1486147218.53126 |                 0 |               9 |                   395 |                    0 |                 29 |          1182 |                9 |         4915951 |                     0 |     456044919 | 2017-02-03 18:53:18.816171+01

 2017-02-03 19:40:19.606993+01 | 1486147219.60699 |                 0 |               9 |                   395 |                    0 |                 29 |          1182 |                9 |         4915951 |                     0 |     456153103 | 2017-02-03 18:53:18.816171+01

 2017-02-03 19:40:20.686471+01 | 1486147220.68647 |                 0 |               9 |                   395 |                    0 |                 29 |          1182 |                9 |         4915951 |                     0 |     456244266 | 2017-02-03 18:53:18.816171+01

 2017-02-03 19:40:21.76447+01 | 1486147221.76447 |                 0 |               9 |                   395 |                    0 |                 29 |          1182 |                9 |         4915951 |                     0 |     456334967 | 2017-02-03 18:53:18.816171+01

 2017-02-03 19:40:22.841741+01 | 1486147222.84174 |                 0 |               9 |                   395 |                    0 |                 29 |          1182 |                9 |         4915951 |                     0 |     456446195 | 2017-02-03 18:53:18.816171+01

 2017-02-03 19:40:23.920832+01 | 1486147223.92083 |                 0 |               9 |                   395 |                    0 |                 29 |          1182 |                9 |         4915951 |                     0 |     456536318 | 2017-02-03 18:53:18.816171+01

 2017-02-03 19:40:25.010468+01 | 1486147225.01047 |                 0 |               9 |                   395 |                    0 |                 29 |          1182 |                9 |         4915951 |                     0 |     456627150 | 2017-02-03 18:53:18.816171+01

 2017-02-03 19:40:26.096058+01 | 1486147226.09606 |                 0 |               9 |                   395 |                    0 |                 29 |          1182 |                9 |         4915951 |                     0 |     456733951 | 2017-02-03 18:53:18.816171+01

 2017-02-03 19:40:27.172811+01 | 1486147227.17281 |                 0 |               9 |                   395 |                    0 |                 29 |          1182 |                9 |         4915951 |                     0 |     456822145 | 2017-02-03 18:53:18.816171+01

 2017-02-03 19:40:28.260552+01 | 1486147228.26055 |                 0 |               9 |                   395 |                    0 |                 29 |          1182 |                9 |         4915951 |                     0 |     456911505 | 2017-02-03 18:53:18.816171+01

 2017-02-03 19:40:29.345431+01 | 1486147229.34543 |                 0 |               9 |                   395 |                    0 |                 29 |          1182 |                9 |         4915951 |                     0 |     457020396 | 2017-02-03 18:53:18.816171+01

 2017-02-03 19:40:30.42472+01 | 1486147230.42472 |                 0 |               9 |                   395 |                    0 |                 29 |          1182 |                9 |         4915951 |                     0 |     457111160 | 2017-02-03 18:53:18.816171+01

 2017-02-03 19:40:31.50479+01 | 1486147231.50479 |                 0 |               9 |                   395 |                    0 |                 29 |          1182 |                9 |         4915951 |                     0 |     457219077 | 2017-02-03 18:53:18.816171+01

 2017-02-03 19:40:32.588717+01 | 1486147232.58872 |                 0 |               9 |                   395 |                    0 |                 29 |          1182 |                9 |         4915951 |                     0 |     457310623 | 2017-02-03 18:53:18.816171+01

 2017-02-03 19:40:33.674511+01 | 1486147233.67451 |                 0 |               9 |                   395 |                    0 |                 29 |          1182 |                9 |         4915951 |                     0 |     457402630 | 2017-02-03 18:53:18.816171+01

 2017-02-03 19:40:34.750713+01 | 1486147234.75071 |                 0 |               9 |                   395 |                    0 |                 29 |          1182 |                9 |         4915951 |                     0 |     457513746 | 2017-02-03 18:53:18.816171+01

 2017-02-03 19:40:35.840498+01 | 1486147235.8405 |                 0 |               9 |                   395 |                    0 |                 29 |          1182 |                9 |         4915951 |                     0 |     457601809 | 2017-02-03 18:53:18.816171+01

 2017-02-03 19:40:36.909089+01 | 1486147236.90909 |                 0 |               9 |                   395 |                    0 |                 29 |          1182 |                9 |         4915951 |                     0 |     457694260 | 2017-02-03 18:53:18.816171+01

 2017-02-03 19:40:37.989125+01 | 1486147237.98913 |                 0 |               9 |                   395 |                    0 |                 29 |          1182 |                9 |         4915951 |                     0 |     457783697 | 2017-02-03 18:53:18.816171+01

 2017-02-03 19:40:39.062016+01 | 1486147239.06202 |                 0 |               9 |                   395 |                    0 |                 29 |          1182 |                9 |         4915951 |                     0 |     457894745 | 2017-02-03 18:53:18.816171+01

 2017-02-03 19:40:40.132905+01 | 1486147240.13291 |                 0 |               9 |                   395 |                    0 |                 29 |          1182 |                9 |         4915951 |                     0 |     457987091 | 2017-02-03 18:53:18.816171+01

 2017-02-03 19:40:41.214048+01 | 1486147241.21405 |                 0 |               9 |                   395 |                    0 |                 29 |          1182 |                9 |         4915951 |                     0 |     458077732 | 2017-02-03 18:53:18.816171+01

 2017-02-03 19:40:42.29964+01 | 1486147242.29964 |                 0 |               9 |                   395 |                    0 |                 29 |          1182 |                9 |         4915951 |                     0 |     458187242 | 2017-02-03 18:53:18.816171+01

 2017-02-03 19:40:43.366975+01 | 1486147243.36698 |                 0 |               9 |                   395 |                    0 |                 29 |          1182 |                9 |         4915951 |                     0 |     458278248 | 2017-02-03 18:53:18.816171+01

 2017-02-03 19:40:44.452969+01 | 1486147244.45297 |                 0 |               9 |                   395 |                    0 |                 29 |          1182 |                9 |         4915951 |                     0 |     458369094 | 2017-02-03 18:53:18.816171+01

 2017-02-03 19:40:45.532297+01 | 1486147245.5323 |                 0 |               9 |                   395 |                    0 |                 29 |          1182 |                9 |         4915951 |                     0 |     458479811 | 2017-02-03 18:53:18.816171+01

 2017-02-03 19:40:46.609292+01 | 1486147246.60929 |                 0 |               9 |                   395 |                    0 |                 29 |          1182 |                9 |         4915951 |                     0 |     458570315 | 2017-02-03 18:53:18.816171+01

 2017-02-03 19:40:47.688061+01 | 1486147247.68806 |                 0 |               9 |                   395 |                    0 |                 29 |          1182 |                9 |         4915951 |                     0 |     458660454 | 2017-02-03 18:53:18.816171+01

 2017-02-03 19:40:48.776046+01 | 1486147248.77605 |                 0 |               9 |                   395 |                    0 |                 29 |          1182 |                9 |         4915951 |                     0 |     458767956 | 2017-02-03 18:53:18.816171+01

 2017-02-03 19:40:49.852706+01 | 1486147249.85271 |                 0 |               9 |                   395 |                    0 |                 29 |          1182 |                9 |         4915951 |                     0 |     458856698 | 2017-02-03 18:53:18.816171+01

 2017-02-03 19:40:50.93266+01 | 1486147250.93266 |                 0 |               9 |                   395 |                    0 |                 29 |          1182 |                9 |         4915951 |                     0 |     458945359 | 2017-02-03 18:53:18.816171+01

 2017-02-03 19:40:52.009578+01 | 1486147252.00958 |                 0 |               9 |                   395 |                    0 |                 29 |          1182 |                9 |         4915951 |                     0 |     459051453 | 2017-02-03 18:53:18.816171+01

 2017-02-03 19:40:53.088928+01 | 1486147253.08893 |                 0 |               9 |                   395 |                    0 |                 29 |          1182 |                9 |         4915951 |                     0 |     459141296 | 2017-02-03 18:53:18.816171+01

 2017-02-03 19:40:54.164421+01 | 1486147254.16442 |                 0 |               9 |                   395 |                    0 |                 29 |          1182 |                9 |         4915951 |                     0 |     459232642 | 2017-02-03 18:53:18.816171+01

 2017-02-03 19:40:55.240201+01 | 1486147255.2402 |                 0 |               9 |                   395 |                    0 |                 29 |          1182 |                9 |         4915951 |                     0 |     459344309 | 2017-02-03 18:53:18.816171+01

 2017-02-03 19:40:56.326224+01 | 1486147256.32622 |                 0 |               9 |                   395 |                    0 |                 29 |          1182 |                9 |         4915951 |                     0 |     459431435 | 2017-02-03 18:53:18.816171+01

 2017-02-03 19:40:57.409109+01 | 1486147257.40911 |                 0 |               9 |                   395 |                    0 |                 29 |          1182 |                9 |         4915951 |                     0 |     459520806 | 2017-02-03 18:53:18.816171+01

 2017-02-03 19:40:58.489474+01 | 1486147258.48947 |                 0 |               9 |                   395 |                    0 |                 29 |          1182 |                9 |         4915951 |                     0 |     459632499 | 2017-02-03 18:53:18.816171+01

 2017-02-03 19:40:59.561798+01 | 1486147259.5618 |                 0 |               9 |                   395 |                    0 |                 29 |          1182 |                9 |         4915951 |                     0 |     459724765 | 2017-02-03 18:53:18.816171+01

 2017-02-03 19:41:00.638025+01 | 1486147260.63803 |                 0 |               9 |                   395 |                    0 |                 29 |          1182 |                9 |         4915951 |                     0 |     459816684 | 2017-02-03 18:53:18.816171+01

 2017-02-03 19:41:01.713006+01 | 1486147261.71301 |                 0 |               9 |                   395 |                    0 |                 29 |          1182 |                9 |         4915951 |                     0 |     459926866 | 2017-02-03 18:53:18.816171+01

 2017-02-03 19:41:02.795538+01 | 1486147262.79554 |                 0 |               9 |                   395 |                    0 |                 29 |          1182 |                9 |         4915951 |                     0 |     460017102 | 2017-02-03 18:53:18.816171+01

 2017-02-03 19:41:03.883198+01 | 1486147263.8832 |                 0 |               9 |                   395 |                    0 |                 29 |          1182 |                9 |         4915951 |                     0 |     460108662 | 2017-02-03 18:53:18.816171+01

 2017-02-03 19:41:04.967231+01 | 1486147264.96723 |                 0 |               9 |                   395 |                    0 |                 29 |          1182 |                9 |         4915951 |                     0 |     460217206 | 2017-02-03 18:53:18.816171+01

 2017-02-03 19:41:06.045477+01 | 1486147266.04548 |                 0 |               9 |                   395 |                    0 |                 29 |          1182 |                9 |         4915951 |                     0 |     460307892 | 2017-02-03 18:53:18.816171+01

 2017-02-03 19:41:07.129456+01 | 1486147267.12946 |                 0 |               9 |                   395 |                    0 |                 29 |          1182 |                9 |         4915951 |                     0 |     460396452 | 2017-02-03 18:53:18.816171+01

 2017-02-03 19:41:08.21124+01 | 1486147268.21124 |                 0 |               9 |                   395 |                    0 |                 29 |          1182 |                9 |         4915951 |                     0 |     460506153 | 2017-02-03 18:53:18.816171+01

 2017-02-03 19:41:09.292839+01 | 1486147269.29284 |                 0 |               9 |                   395 |                    0 |                 29 |          1182 |                9 |         4915951 |                     0 |     460597388 | 2017-02-03 18:53:18.816171+01

 2017-02-03 19:41:10.38096+01 | 1486147270.38096 |                 0 |               9 |                   395 |                    0 |                 29 |          1182 |                9 |         4915951 |                     0 |     460688704 | 2017-02-03 18:53:18.816171+01

 2017-02-03 19:41:11.459912+01 | 1486147271.45991 |                 0 |               9 |                   395 |                    0 |                 29 |          1182 |                9 |         4915951 |                     0 |     460796751 | 2017-02-03 18:53:18.816171+01

 2017-02-03 19:41:12.548703+01 | 1486147272.5487 |                 0 |               9 |                   395 |                    0 |                 29 |          1182 |                9 |         4915951 |                     0 |     460889291 | 2017-02-03 18:53:18.816171+01

 2017-02-03 19:41:13.626931+01 | 1486147273.62693 |                 0 |               9 |                   395 |                    0 |                 29 |          1182 |                9 |         4915951 |                     0 |     460981355 | 2017-02-03 18:53:18.816171+01

 2017-02-03 19:41:14.719069+01 | 1486147274.71907 |                 0 |               9 |                   395 |                    0 |                 29 |          1182 |                9 |         4915951 |                     0 |     461091390 | 2017-02-03 18:53:18.816171+01

 2017-02-03 19:41:15.805032+01 | 1486147275.80503 |                 0 |               9 |                   395 |                    0 |                 29 |          1182 |                9 |         4915951 |                     0 |     461183280 | 2017-02-03 18:53:18.816171+01

 2017-02-03 19:41:16.882776+01 | 1486147276.88278 |                 0 |               9 |                   395 |                    0 |                 29 |          1182 |                9 |         4915951 |                     0 |     461274848 | 2017-02-03 18:53:18.816171+01

 2017-02-03 19:41:17.961407+01 | 1486147277.96141 |                 0 |               9 |                   395 |                    0 |                 29 |          1182 |                9 |         4915951 |                     0 |     461382744 | 2017-02-03 18:53:18.816171+01

 2017-02-03 19:41:19.03909+01 | 1486147279.03909 |                 0 |               9 |                   395 |                    0 |                 29 |          1182 |                9 |         4915951 |                     0 |     461474857 | 2017-02-03 18:53:18.816171+01

 2017-02-03 19:41:20.12458+01 | 1486147280.12458 |                 0 |               9 |                   395 |                    0 |                 29 |          1182 |                9 |         4915951 |                     0 |     461567827 | 2017-02-03 18:53:18.816171+01

 2017-02-03 19:41:21.199573+01 | 1486147281.19957 |                 0 |               9 |                   395 |                    0 |                 29 |          1182 |                9 |         4915951 |                     0 |     461677391 | 2017-02-03 18:53:18.816171+01

 2017-02-03 19:41:22.272606+01 | 1486147282.27261 |                 0 |               9 |                   395 |                    0 |                 29 |          1182 |                9 |         4915951 |                     0 |     461766292 | 2017-02-03 18:53:18.816171+01

 2017-02-03 19:41:23.344295+01 | 1486147283.3443 |                 0 |               9 |                   395 |                    0 |                 29 |          1182 |                9 |         4915951 |                     0 |     461854896 | 2017-02-03 18:53:18.816171+01

 2017-02-03 19:41:24.423033+01 | 1486147284.42303 |                 0 |               9 |                   395 |                    0 |                 29 |          1182 |                9 |         4915951 |                     0 |     461964732 | 2017-02-03 18:53:18.816171+01

 2017-02-03 19:41:25.500612+01 | 1486147285.50061 |                 0 |               9 |                   395 |                    0 |                 29 |          1182 |                9 |         4915951 |                     0 |     462055471 | 2017-02-03 18:53:18.816171+01

 2017-02-03 19:41:26.575037+01 | 1486147286.57504 |                 0 |               9 |                   395 |                    0 |                 29 |          1182 |                9 |         4915951 |                     0 |     462147122 | 2017-02-03 18:53:18.816171+01

 2017-02-03 19:41:27.659742+01 | 1486147287.65974 |                 0 |               9 |                   395 |                    0 |                 29 |          1182 |                9 |         4915951 |                     0 |     462254735 | 2017-02-03 18:53:18.816171+01

 2017-02-03 19:41:28.72803+01 | 1486147288.72803 |                 0 |               9 |                   395 |                    0 |                 29 |          1182 |                9 |         4915951 |                     0 |     462345692 | 2017-02-03 18:53:18.816171+01

 2017-02-03 19:41:29.804782+01 | 1486147289.80478 |                 0 |               9 |                   395 |                    0 |                 29 |          1182 |                9 |         4915951 |                     0 |     462437288 | 2017-02-03 18:53:18.816171+01

 2017-02-03 19:41:30.886717+01 | 1486147290.88672 |                 0 |               9 |                   395 |                    0 |                 29 |          1182 |                9 |         4915951 |                     0 |     462524171 | 2017-02-03 18:53:18.816171+01

 2017-02-03 19:41:31.961459+01 | 1486147291.96146 |                 0 |               9 |                   395 |                    0 |                 29 |          1182 |                9 |         4915951 |                     0 |     462633182 | 2017-02-03 18:53:18.816171+01

 2017-02-03 19:41:33.037816+01 | 1486147293.03782 |                 0 |               9 |                   395 |                    0 |                 29 |          1182 |                9 |         4915951 |                     0 |     462724163 | 2017-02-03 18:53:18.816171+01

 2017-02-03 19:41:34.11729+01 | 1486147294.11729 |                 0 |               9 |                   395 |                    0 |                 29 |          1182 |                9 |         4915951 |                     0 |     462815645 | 2017-02-03 18:53:18.816171+01

 2017-02-03 19:41:35.189652+01 | 1486147295.18965 |                 0 |               9 |                   395 |                    0 |                 29 |          1182 |                9 |         4915951 |                     0 |     462924193 | 2017-02-03 18:53:18.816171+01

 2017-02-03 19:41:36.266745+01 | 1486147296.26675 |                 0 |               9 |                   395 |                    0 |                 29 |          1182 |                9 |         4915951 |                     0 |     463015434 | 2017-02-03 18:53:18.816171+01

 2017-02-03 19:41:37.338491+01 | 1486147297.33849 |                 0 |               9 |                   395 |                    0 |                 29 |          1182 |                9 |         4915951 |                     0 |     463107928 | 2017-02-03 18:53:18.816171+01

 2017-02-03 19:41:38.408521+01 | 1486147298.40852 |                 0 |               9 |                   395 |                    0 |                 29 |          1182 |                9 |         4915951 |                     0 |     463220555 | 2017-02-03 18:53:18.816171+01

 2017-02-03 19:41:39.481565+01 | 1486147299.48156 |                 0 |               9 |                   395 |                    0 |                 29 |          1182 |                9 |         4915951 |                     0 |     463314144 | 2017-02-03 18:53:18.816171+01

 2017-02-03 19:41:40.564846+01 | 1486147300.56485 |                 0 |               9 |                   395 |                    0 |                 29 |          1182 |                9 |         4915951 |                     0 |     463404230 | 2017-02-03 18:53:18.816171+01

 2017-02-03 19:41:41.638481+01 | 1486147301.63848 |                 0 |               9 |                   395 |                    0 |                 29 |          1182 |                9 |         4915951 |                     0 |     463515523 | 2017-02-03 18:53:18.816171+01

 2017-02-03 19:41:42.724472+01 | 1486147302.72447 |                 0 |               9 |                   395 |                    0 |                 29 |          1182 |                9 |         4915951 |                     0 |     463603678 | 2017-02-03 18:53:18.816171+01

 2017-02-03 19:41:43.796119+01 | 1486147303.79612 |                 0 |               9 |                   395 |                    0 |                 29 |          1182 |                9 |         4915951 |                     0 |     463695142 | 2017-02-03 18:53:18.816171+01

 2017-02-03 19:41:44.88229+01 | 1486147304.88229 |                 0 |               9 |                   395 |                    0 |                 29 |          1182 |                9 |         4915951 |                     0 |     463801526 | 2017-02-03 18:53:18.816171+01

 2017-02-03 19:41:45.956598+01 | 1486147305.9566 |                 0 |               9 |                   395 |                    0 |                 29 |          1182 |                9 |         4915951 |                     0 |     463893830 | 2017-02-03 18:53:18.816171+01

 2017-02-03 19:41:47.039082+01 | 1486147307.03908 |                 0 |               9 |                   395 |                    0 |                 29 |          1182 |                9 |         4915951 |                     0 |     463984762 | 2017-02-03 18:53:18.816171+01

 2017-02-03 19:41:48.127818+01 | 1486147308.12782 |                 0 |               9 |                   395 |                    0 |                 29 |          1182 |                9 |         4915951 |                     0 |     464091204 | 2017-02-03 18:53:18.816171+01

 2017-02-03 19:41:49.203862+01 | 1486147309.20386 |                 0 |               9 |                   395 |                    0 |                 29 |          1182 |                9 |         4915951 |                     0 |     464183629 | 2017-02-03 18:53:18.816171+01

 2017-02-03 19:41:50.287104+01 | 1486147310.2871 |                 0 |               9 |                   395 |                    0 |                 29 |          1182 |                9 |         4915951 |                     0 |     464273987 | 2017-02-03 18:53:18.816171+01

 2017-02-03 19:41:51.363801+01 | 1486147311.3638 |                 0 |               9 |                   395 |                    0 |                 29 |          1182 |                9 |         4915951 |                     0 |     464384729 | 2017-02-03 18:53:18.816171+01

 2017-02-03 19:41:52.440928+01 | 1486147312.44093 |                 0 |               9 |                   395 |                    0 |                 29 |          1182 |                9 |         4915951 |                     0 |     464475065 | 2017-02-03 18:53:18.816171+01

 2017-02-03 19:41:53.521732+01 | 1486147313.52173 |                 0 |               9 |                   395 |                    0 |                 29 |          1182 |                9 |         4915951 |                     0 |     464567879 | 2017-02-03 18:53:18.816171+01

 2017-02-03 19:41:54.603787+01 | 1486147314.60379 |                 0 |               9 |                   395 |                    0 |                 29 |          1182 |                9 |         4915951 |                     0 |     464676511 | 2017-02-03 18:53:18.816171+01

 2017-02-03 19:41:55.676315+01 | 1486147315.67632 |                 0 |               9 |                   395 |                    0 |                 29 |          1182 |                9 |         4915951 |                     0 |     464764904 | 2017-02-03 18:53:18.816171+01

 2017-02-03 19:41:56.761148+01 | 1486147316.76115 |                 0 |               9 |                   395 |                    0 |                 29 |          1182 |                9 |         4915951 |                     0 |     464854989 | 2017-02-03 18:53:18.816171+01

 2017-02-03 19:41:57.843581+01 | 1486147317.84358 |                 0 |               9 |                   395 |                    0 |                 29 |          1182 |                9 |         4915951 |                     0 |     464963459 | 2017-02-03 18:53:18.816171+01

 2017-02-03 19:41:58.923366+01 | 1486147318.92337 |                 0 |               9 |                   395 |                    0 |                 29 |          1182 |                9 |         4915951 |                     0 |     465055295 | 2017-02-03 18:53:18.816171+01

 2017-02-03 19:41:59.995587+01 | 1486147319.99559 |                 0 |               9 |                   395 |                    0 |                 29 |          1182 |                9 |         4915951 |                     0 |     465144081 | 2017-02-03 18:53:18.816171+01

 2017-02-03 19:42:01.07386+01 | 1486147321.07386 |                 0 |               9 |                   395 |                    0 |                 29 |          1182 |                9 |         4915951 |                     0 |     465255807 | 2017-02-03 18:53:18.816171+01

 2017-02-03 19:42:02.148402+01 | 1486147322.1484 |                 0 |               9 |                   395 |                    0 |                 29 |          1182 |                9 |         4915951 |                     0 |     465345774 | 2017-02-03 18:53:18.816171+01

 2017-02-03 19:42:03.223368+01 | 1486147323.22337 |                 0 |               9 |                   395 |                    0 |                 29 |          1182 |                9 |         4915951 |                     0 |     465436458 | 2017-02-03 18:53:18.816171+01

 2017-02-03 19:42:04.301927+01 | 1486147324.30193 |                 0 |               9 |                   395 |                    0 |                 29 |          1182 |                9 |         4915951 |                     0 |     465526996 | 2017-02-03 18:53:18.816171+01

