 2017-02-03 19:37:05.195794+01 | 1486147025.19579 | 3/1AC94B8                |           12912989368

 2017-02-03 19:37:06.261867+01 | 1486147026.26187 | 3/1AC94B8                |           12912989368

 2017-02-03 19:37:07.346584+01 | 1486147027.34658 | 3/1AC94B8                |           12912989368

 2017-02-03 19:37:08.423333+01 | 1486147028.42333 | 3/1AC94B8                |           12912989368

 2017-02-03 19:37:09.508866+01 | 1486147029.50887 | 3/1AC94B8                |           12912989368

 2017-02-03 19:37:10.584826+01 | 1486147030.58483 | 3/1AC94B8                |           12912989368

 2017-02-03 19:37:11.656811+01 | 1486147031.65681 | 3/1AC94B8                |           12912989368

 2017-02-03 19:37:12.738855+01 | 1486147032.73885 | 3/1AC94B8                |           12912989368

 2017-02-03 19:37:13.834056+01 | 1486147033.83406 | 3/1AC94B8                |           12912989368

 2017-02-03 19:37:14.920401+01 | 1486147034.9204 | 3/1AC94B8                |           12912989368

 2017-02-03 19:37:16.003113+01 | 1486147036.00311 | 3/1AC94B8                |           12912989368

 2017-02-03 19:37:17.081852+01 | 1486147037.08185 | 3/1AC94B8                |           12912989368

 2017-02-03 19:37:18.169687+01 | 1486147038.16969 | 3/1AC94B8                |           12912989368

 2017-02-03 19:37:19.258045+01 | 1486147039.25804 | 3/1AC94B8                |           12912989368

 2017-02-03 19:37:20.332434+01 | 1486147040.33243 | 3/1AC94B8                |           12912989368

 2017-02-03 19:37:21.406625+01 | 1486147041.40663 | 3/1AC94B8                |           12912989368

 2017-02-03 19:37:22.485048+01 | 1486147042.48505 | 3/1AC94B8                |           12912989368

 2017-02-03 19:37:23.563327+01 | 1486147043.56333 | 3/1AC94B8                |           12912989368

 2017-02-03 19:37:24.657781+01 | 1486147044.65778 | 3/1AC94B8                |           12912989368

 2017-02-03 19:37:25.734695+01 | 1486147045.73469 | 3/1AC94B8                |           12912989368

 2017-02-03 19:37:26.818085+01 | 1486147046.81808 | 3/1AC94B8                |           12912989368

 2017-02-03 19:37:27.891257+01 | 1486147047.89126 | 3/1AC94B8                |           12912989368

 2017-02-03 19:37:28.967537+01 | 1486147048.96754 | 3/1AC94B8                |           12912989368

 2017-02-03 19:37:30.047286+01 | 1486147050.04729 | 3/1AC94B8                |           12912989368

 2017-02-03 19:37:31.119657+01 | 1486147051.11966 | 3/1AC94B8                |           12912989368

 2017-02-03 19:37:32.208867+01 | 1486147052.20887 | 3/1AC94B8                |           12912989368

 2017-02-03 19:37:33.290646+01 | 1486147053.29065 | 3/1AC94B8                |           12912989368

 2017-02-03 19:37:34.371528+01 | 1486147054.37153 | 3/1AC94B8                |           12912989368

 2017-02-03 19:37:35.444823+01 | 1486147055.44482 | 3/1AC94B8                |           12912989368

 2017-02-03 19:37:36.529089+01 | 1486147056.52909 | 3/1AC94B8                |           12912989368

 2017-02-03 19:37:37.59872+01 | 1486147057.59872 | 3/1AC94B8                |           12912989368

 2017-02-03 19:37:38.680059+01 | 1486147058.68006 | 3/1AC94B8                |           12912989368

 2017-02-03 19:37:39.75959+01 | 1486147059.75959 | 3/1AC94B8                |           12912989368

 2017-02-03 19:37:40.832562+01 | 1486147060.83256 | 3/1AC94B8                |           12912989368

 2017-02-03 19:37:41.911638+01 | 1486147061.91164 | 3/1AC94B8                |           12912989368

 2017-02-03 19:37:42.999373+01 | 1486147062.99937 | 3/1AC94B8                |           12912989368

 2017-02-03 19:37:44.069439+01 | 1486147064.06944 | 3/1AC94B8                |           12912989368

 2017-02-03 19:37:45.138909+01 | 1486147065.13891 | 3/1AC94B8                |           12912989368

 2017-02-03 19:37:46.210857+01 | 1486147066.21086 | 3/1AC94B8                |           12912989368

 2017-02-03 19:37:47.281975+01 | 1486147067.28198 | 3/1AC94B8                |           12912989368

 2017-02-03 19:37:48.367282+01 | 1486147068.36728 | 3/1AC94B8                |           12912989368

 2017-02-03 19:37:49.444169+01 | 1486147069.44417 | 3/1AC94B8                |           12912989368

 2017-02-03 19:37:50.524625+01 | 1486147070.52463 | 3/1AC94B8                |           12912989368

 2017-02-03 19:37:51.595987+01 | 1486147071.59599 | 3/1AC94B8                |           12912989368

 2017-02-03 19:37:52.680696+01 | 1486147072.6807 | 3/1AC94B8                |           12912989368

 2017-02-03 19:37:53.764024+01 | 1486147073.76402 | 3/1AC94B8                |           12912989368

 2017-02-03 19:37:54.84348+01 | 1486147074.84348 | 3/1AC94B8                |           12912989368

 2017-02-03 19:37:55.931705+01 | 1486147075.9317 | 3/1AC94B8                |           12912989368

 2017-02-03 19:37:57.003218+01 | 1486147077.00322 | 3/1AC94B8                |           12912989368

 2017-02-03 19:37:58.089083+01 | 1486147078.08908 | 3/1AC94B8                |           12912989368

 2017-02-03 19:37:59.168082+01 | 1486147079.16808 | 3/1AC94B8                |           12912989368

 2017-02-03 19:38:00.24209+01 | 1486147080.24209 | 3/1AC94B8                |           12912989368

 2017-02-03 19:38:01.317203+01 | 1486147081.3172 | 3/1AC94B8                |           12912989368

 2017-02-03 19:38:02.396805+01 | 1486147082.39681 | 3/1AC94B8                |           12912989368

 2017-02-03 19:38:03.479192+01 | 1486147083.47919 | 3/1AC94B8                |           12912989368

 2017-02-03 19:38:04.5699+01 | 1486147084.5699 | 3/1AC94B8                |           12912989368

 2017-02-03 19:38:05.660342+01 | 1486147085.66034 | 3/1AC94B8                |           12912989368

 2017-02-03 19:38:06.738606+01 | 1486147086.73861 | 3/1AC94B8                |           12912989368

 2017-02-03 19:38:07.829383+01 | 1486147087.82938 | 3/1AC94B8                |           12912989368

 2017-02-03 19:38:08.905617+01 | 1486147088.90562 | 3/1AC94B8                |           12912989368

 2017-02-03 19:38:09.985584+01 | 1486147089.98558 | 3/1AC94B8                |           12912989368

 2017-02-03 19:38:11.062141+01 | 1486147091.06214 | 3/1AC94B8                |           12912989368

 2017-02-03 19:38:12.139686+01 | 1486147092.13969 | 3/1AC94B8                |           12912989368

 2017-02-03 19:38:13.212198+01 | 1486147093.2122 | 3/1AC94B8                |           12912989368

 2017-02-03 19:38:14.282799+01 | 1486147094.2828 | 3/1AC94B8                |           12912989368

 2017-02-03 19:38:15.376828+01 | 1486147095.37683 | 3/1AC94B8                |           12912989368

 2017-02-03 19:38:16.469923+01 | 1486147096.46992 | 3/1AC94B8                |           12912989368

 2017-02-03 19:38:17.549104+01 | 1486147097.5491 | 3/1AC94B8                |           12912989368

 2017-02-03 19:38:18.626023+01 | 1486147098.62602 | 3/1AC94B8                |           12912989368

 2017-02-03 19:38:19.707225+01 | 1486147099.70723 | 3/1AC94B8                |           12912989368

 2017-02-03 19:38:20.781185+01 | 1486147100.78118 | 3/1AC94B8                |           12912989368

 2017-02-03 19:38:21.873718+01 | 1486147101.87372 | 3/1AC94B8                |           12912989368

 2017-02-03 19:38:22.948544+01 | 1486147102.94854 | 3/1AC94B8                |           12912989368

 2017-02-03 19:38:24.039774+01 | 1486147104.03977 | 3/1AC94B8                |           12912989368

 2017-02-03 19:38:25.124781+01 | 1486147105.12478 | 3/1AC94B8                |           12912989368

 2017-02-03 19:38:26.201459+01 | 1486147106.20146 | 3/1AC94B8                |           12912989368

 2017-02-03 19:38:27.274349+01 | 1486147107.27435 | 3/1AC94B8                |           12912989368

 2017-02-03 19:38:28.351327+01 | 1486147108.35133 | 3/1AC94B8                |           12912989368

 2017-02-03 19:38:29.437684+01 | 1486147109.43768 | 3/1AC94B8                |           12912989368

 2017-02-03 19:38:30.522787+01 | 1486147110.52279 | 3/1AC94B8                |           12912989368

 2017-02-03 19:38:31.603714+01 | 1486147111.60371 | 3/1AC94B8                |           12912989368

 2017-02-03 19:38:32.678473+01 | 1486147112.67847 | 3/1AC94B8                |           12912989368

 2017-02-03 19:38:33.761113+01 | 1486147113.76111 | 3/1AC94B8                |           12912989368

 2017-02-03 19:38:34.839299+01 | 1486147114.8393 | 3/1AC94B8                |           12912989368

 2017-02-03 19:38:35.916137+01 | 1486147115.91614 | 3/1AC94B8                |           12912989368

 2017-02-03 19:38:36.997011+01 | 1486147116.99701 | 3/1AC94B8                |           12912989368

 2017-02-03 19:38:38.07127+01 | 1486147118.07127 | 3/1AC94B8                |           12912989368

 2017-02-03 19:38:39.156382+01 | 1486147119.15638 | 3/1AC94B8                |           12912989368

 2017-02-03 19:38:40.235893+01 | 1486147120.23589 | 3/1AC94B8                |           12912989368

 2017-02-03 19:38:41.311729+01 | 1486147121.31173 | 3/1AC94B8                |           12912989368

 2017-02-03 19:38:42.390633+01 | 1486147122.39063 | 3/1AC94B8                |           12912989368

 2017-02-03 19:38:43.47414+01 | 1486147123.47414 | 3/1AC94B8                |           12912989368

 2017-02-03 19:38:44.544445+01 | 1486147124.54445 | 3/1AC94B8                |           12912989368

 2017-02-03 19:38:45.620442+01 | 1486147125.62044 | 3/1AC94B8                |           12912989368

 2017-02-03 19:38:46.692944+01 | 1486147126.69294 | 3/1AC94B8                |           12912989368

 2017-02-03 19:38:47.774735+01 | 1486147127.77473 | 3/1AC94B8                |           12912989368

 2017-02-03 19:38:48.854404+01 | 1486147128.8544 | 3/1AC94B8                |           12912989368

 2017-02-03 19:38:49.936734+01 | 1486147129.93673 | 3/1AC94B8                |           12912989368

 2017-02-03 19:38:51.013795+01 | 1486147131.01379 | 3/1AC94B8                |           12912989368

 2017-02-03 19:38:52.095638+01 | 1486147132.09564 | 3/1AC94B8                |           12912989368

 2017-02-03 19:38:53.178518+01 | 1486147133.17852 | 3/1AC94B8                |           12912989368

 2017-02-03 19:38:54.270937+01 | 1486147134.27094 | 3/1AC94B8                |           12912989368

 2017-02-03 19:38:55.352801+01 | 1486147135.3528 | 3/1AC94B8                |           12912989368

 2017-02-03 19:38:56.429752+01 | 1486147136.42975 | 3/1AC94B8                |           12912989368

 2017-02-03 19:38:57.510208+01 | 1486147137.51021 | 3/1AC94B8                |           12912989368

 2017-02-03 19:38:58.58731+01 | 1486147138.58731 | 3/1AC94B8                |           12912989368

 2017-02-03 19:38:59.662922+01 | 1486147139.66292 | 3/1AC94B8                |           12912989368

 2017-02-03 19:39:00.741937+01 | 1486147140.74194 | 3/1AC94B8                |           12912989368

 2017-02-03 19:39:01.822902+01 | 1486147141.8229 | 3/1AC94B8                |           12912989368

 2017-02-03 19:39:02.892924+01 | 1486147142.89292 | 3/1AC94B8                |           12912989368

 2017-02-03 19:39:03.974435+01 | 1486147143.97444 | 3/1AC94B8                |           12912989368

 2017-02-03 19:39:05.048553+01 | 1486147145.04855 | 3/1AC94B8                |           12912989368

 2017-02-03 19:39:06.133227+01 | 1486147146.13323 | 3/1AC94B8                |           12912989368

 2017-02-03 19:39:07.210254+01 | 1486147147.21025 | 3/1AC94B8                |           12912989368

 2017-02-03 19:39:08.286347+01 | 1486147148.28635 | 3/1AC94B8                |           12912989368

 2017-02-03 19:39:09.366363+01 | 1486147149.36636 | 3/1AC94B8                |           12912989368

 2017-02-03 19:39:10.441688+01 | 1486147150.44169 | 3/1AC94B8                |           12912989368

 2017-02-03 19:39:11.510791+01 | 1486147151.51079 | 3/1AC94B8                |           12912989368

 2017-02-03 19:39:12.603337+01 | 1486147152.60334 | 3/1AC94B8                |           12912989368

 2017-02-03 19:39:13.689305+01 | 1486147153.68931 | 3/1AC94B8                |           12912989368

 2017-02-03 19:39:14.75823+01 | 1486147154.75823 | 3/1AC94B8                |           12912989368

 2017-02-03 19:39:15.83917+01 | 1486147155.83917 | 3/1AC94B8                |           12912989368

 2017-02-03 19:39:16.913872+01 | 1486147156.91387 | 3/1AC94B8                |           12912989368

 2017-02-03 19:39:17.992911+01 | 1486147157.99291 | 3/1AC94B8                |           12912989368

 2017-02-03 19:39:19.067519+01 | 1486147159.06752 | 3/1AC94B8                |           12912989368

 2017-02-03 19:39:20.141641+01 | 1486147160.14164 | 3/1AC94B8                |           12912989368

 2017-02-03 19:39:21.219815+01 | 1486147161.21982 | 3/1AC94B8                |           12912989368

 2017-02-03 19:39:22.300168+01 | 1486147162.30017 | 3/1AC94B8                |           12912989368

 2017-02-03 19:39:23.379656+01 | 1486147163.37966 | 3/1AC94B8                |           12912989368

 2017-02-03 19:39:24.465758+01 | 1486147164.46576 | 3/1AC94B8                |           12912989368

 2017-02-03 19:39:25.544874+01 | 1486147165.54487 | 3/1AC94B8                |           12912989368

 2017-02-03 19:39:26.63048+01 | 1486147166.63048 | 3/1AC94B8                |           12912989368

 2017-02-03 19:39:27.709482+01 | 1486147167.70948 | 3/1AC94B8                |           12912989368

 2017-02-03 19:39:28.792311+01 | 1486147168.79231 | 3/1AC94B8                |           12912989368

 2017-02-03 19:39:29.871227+01 | 1486147169.87123 | 3/1AC94B8                |           12912989368

 2017-02-03 19:39:30.949119+01 | 1486147170.94912 | 3/1AC94B8                |           12912989368

 2017-02-03 19:39:32.019002+01 | 1486147172.019 | 3/1AC94B8                |           12912989368

 2017-02-03 19:39:33.098112+01 | 1486147173.09811 | 3/1AC94B8                |           12912989368

 2017-02-03 19:39:34.17346+01 | 1486147174.17346 | 3/1AC94B8                |           12912989368

 2017-02-03 19:39:35.25541+01 | 1486147175.25541 | 3/1AC94B8                |           12912989368

 2017-02-03 19:39:36.330693+01 | 1486147176.33069 | 3/1AC94B8                |           12912989368

 2017-02-03 19:39:37.409681+01 | 1486147177.40968 | 3/1AC94B8                |           12912989368

 2017-02-03 19:39:38.496083+01 | 1486147178.49608 | 3/1AC94B8                |           12912989368

 2017-02-03 19:39:39.588067+01 | 1486147179.58807 | 3/1AC94B8                |           12912989368

 2017-02-03 19:39:40.665425+01 | 1486147180.66543 | 3/1AC94B8                |           12912989368

 2017-02-03 19:39:41.749504+01 | 1486147181.7495 | 3/1AC94B8                |           12912989368

 2017-02-03 19:39:42.829191+01 | 1486147182.82919 | 3/1AC94B8                |           12912989368

 2017-02-03 19:39:43.912487+01 | 1486147183.91249 | 3/1AC94B8                |           12912989368

 2017-02-03 19:39:44.989983+01 | 1486147184.98998 | 3/1AC94B8                |           12912989368

 2017-02-03 19:39:46.079558+01 | 1486147186.07956 | 3/1AC94B8                |           12912989368

 2017-02-03 19:39:47.153281+01 | 1486147187.15328 | 3/1AC94B8                |           12912989368

 2017-02-03 19:39:48.234383+01 | 1486147188.23438 | 3/1AC94B8                |           12912989368

 2017-02-03 19:39:49.318506+01 | 1486147189.31851 | 3/1AC94B8                |           12912989368

 2017-02-03 19:39:50.390989+01 | 1486147190.39099 | 3/1AC94B8                |           12912989368

 2017-02-03 19:39:51.458893+01 | 1486147191.45889 | 3/1AC94B8                |           12912989368

 2017-02-03 19:39:52.533605+01 | 1486147192.53361 | 3/1AC94B8                |           12912989368

 2017-02-03 19:39:53.618237+01 | 1486147193.61824 | 3/1AC94B8                |           12912989368

 2017-02-03 19:39:54.691663+01 | 1486147194.69166 | 3/1AC94B8                |           12912989368

 2017-02-03 19:39:55.779041+01 | 1486147195.77904 | 3/1AC94B8                |           12912989368

 2017-02-03 19:39:56.86709+01 | 1486147196.86709 | 3/1AC94B8                |           12912989368

 2017-02-03 19:39:57.945153+01 | 1486147197.94515 | 3/1AC94B8                |           12912989368

 2017-02-03 19:39:59.021791+01 | 1486147199.02179 | 3/1AC94B8                |           12912989368

 2017-02-03 19:40:00.107096+01 | 1486147200.1071 | 3/1AC94B8                |           12912989368

 2017-02-03 19:40:01.188373+01 | 1486147201.18837 | 3/1AC94B8                |           12912989368

 2017-02-03 19:40:02.268402+01 | 1486147202.2684 | 3/1AC94B8                |           12912989368

 2017-02-03 19:40:03.348207+01 | 1486147203.34821 | 3/1AC94B8                |           12912989368

 2017-02-03 19:40:04.418109+01 | 1486147204.41811 | 3/1AC94B8                |           12912989368

 2017-02-03 19:40:05.50463+01 | 1486147205.50463 | 3/1AC94B8                |           12912989368

 2017-02-03 19:40:06.583201+01 | 1486147206.5832 | 3/1AC94B8                |           12912989368

 2017-02-03 19:40:07.672347+01 | 1486147207.67235 | 3/1AC94B8                |           12912989368

 2017-02-03 19:40:08.745859+01 | 1486147208.74586 | 3/1AC94B8                |           12912989368

 2017-02-03 19:40:09.824546+01 | 1486147209.82455 | 3/1AC94B8                |           12912989368

 2017-02-03 19:40:10.904468+01 | 1486147210.90447 | 3/1AC94B8                |           12912989368

 2017-02-03 19:40:11.983013+01 | 1486147211.98301 | 3/1AC94B8                |           12912989368

 2017-02-03 19:40:13.067375+01 | 1486147213.06737 | 3/1AC94B8                |           12912989368

 2017-02-03 19:40:14.144897+01 | 1486147214.1449 | 3/1AC94B8                |           12912989368

 2017-02-03 19:40:15.220038+01 | 1486147215.22004 | 3/1AC94B8                |           12912989368

 2017-02-03 19:40:16.304141+01 | 1486147216.30414 | 3/1AC94B8                |           12912989368

 2017-02-03 19:40:17.388922+01 | 1486147217.38892 | 3/1AC94B8                |           12912989368

 2017-02-03 19:40:18.475464+01 | 1486147218.47546 | 3/1AC94B8                |           12912989368

 2017-02-03 19:40:19.544308+01 | 1486147219.54431 | 3/1AC94B8                |           12912989368

 2017-02-03 19:40:20.620385+01 | 1486147220.62038 | 3/1AC94B8                |           12912989368

 2017-02-03 19:40:21.700275+01 | 1486147221.70027 | 3/1AC94B8                |           12912989368

 2017-02-03 19:40:22.778672+01 | 1486147222.77867 | 3/1AC94B8                |           12912989368

 2017-02-03 19:40:23.856811+01 | 1486147223.85681 | 3/1AC94B8                |           12912989368

 2017-02-03 19:40:24.934486+01 | 1486147224.93449 | 3/1AC94B8                |           12912989368

 2017-02-03 19:40:26.028287+01 | 1486147226.02829 | 3/1AC94B8                |           12912989368

 2017-02-03 19:40:27.109554+01 | 1486147227.10955 | 3/1AC94B8                |           12912989368

 2017-02-03 19:40:28.189499+01 | 1486147228.1895 | 3/1AC94B8                |           12912989368

 2017-02-03 19:40:29.276882+01 | 1486147229.27688 | 3/1AC94B8                |           12912989368

 2017-02-03 19:40:30.361533+01 | 1486147230.36153 | 3/1AC94B8                |           12912989368

 2017-02-03 19:40:31.439002+01 | 1486147231.439 | 3/1AC94B8                |           12912989368

 2017-02-03 19:40:32.520995+01 | 1486147232.52099 | 3/1AC94B8                |           12912989368

 2017-02-03 19:40:33.604794+01 | 1486147233.60479 | 3/1AC94B8                |           12912989368

 2017-02-03 19:40:34.687519+01 | 1486147234.68752 | 3/1AC94B8                |           12912989368

 2017-02-03 19:40:35.768728+01 | 1486147235.76873 | 3/1AC94B8                |           12912989368

 2017-02-03 19:40:36.857121+01 | 1486147236.85712 | 3/1AC94B8                |           12912989368

 2017-02-03 19:40:37.924439+01 | 1486147237.92444 | 3/1AC94B8                |           12912989368

 2017-02-03 19:40:39.004085+01 | 1486147239.00409 | 3/1AC94B8                |           12912989368

 2017-02-03 19:40:40.076076+01 | 1486147240.07608 | 3/1AC94B8                |           12912989368

 2017-02-03 19:40:41.148173+01 | 1486147241.14817 | 3/1AC94B8                |           12912989368

 2017-02-03 19:40:42.22692+01 | 1486147242.22692 | 3/1AC94B8                |           12912989368

 2017-02-03 19:40:43.314778+01 | 1486147243.31478 | 3/1AC94B8                |           12912989368

 2017-02-03 19:40:44.381508+01 | 1486147244.38151 | 3/1AC94B8                |           12912989368

 2017-02-03 19:40:45.471092+01 | 1486147245.47109 | 3/1AC94B8                |           12912989368

 2017-02-03 19:40:46.545969+01 | 1486147246.54597 | 3/1AC94B8                |           12912989368

 2017-02-03 19:40:47.624091+01 | 1486147247.62409 | 3/1AC94B8                |           12912989368

 2017-02-03 19:40:48.704065+01 | 1486147248.70407 | 3/1AC94B8                |           12912989368

 2017-02-03 19:40:49.78984+01 | 1486147249.78984 | 3/1AC94B8                |           12912989368

 2017-02-03 19:40:50.868097+01 | 1486147250.8681 | 3/1AC94B8                |           12912989368

 2017-02-03 19:40:51.946073+01 | 1486147251.94607 | 3/1AC94B8                |           12912989368

 2017-02-03 19:40:53.025893+01 | 1486147253.02589 | 3/1AC94B8                |           12912989368

 2017-02-03 19:40:54.105049+01 | 1486147254.10505 | 3/1AC94B8                |           12912989368

 2017-02-03 19:40:55.179108+01 | 1486147255.17911 | 3/1AC94B8                |           12912989368

 2017-02-03 19:40:56.254293+01 | 1486147256.25429 | 3/1AC94B8                |           12912989368

 2017-02-03 19:40:57.341277+01 | 1486147257.34128 | 3/1AC94B8                |           12912989368

 2017-02-03 19:40:58.423632+01 | 1486147258.42363 | 3/1AC94B8                |           12912989368

 2017-02-03 19:40:59.50547+01 | 1486147259.50547 | 3/1AC94B8                |           12912989368

 2017-02-03 19:41:00.577873+01 | 1486147260.57787 | 3/1AC94B8                |           12912989368

 2017-02-03 19:41:01.65245+01 | 1486147261.65245 | 3/1AC94B8                |           12912989368

 2017-02-03 19:41:02.728164+01 | 1486147262.72816 | 3/1AC94B8                |           12912989368

 2017-02-03 19:41:03.811478+01 | 1486147263.81148 | 3/1AC94B8                |           12912989368

 2017-02-03 19:41:04.898253+01 | 1486147264.89825 | 3/1AC94B8                |           12912989368

 2017-02-03 19:41:05.986053+01 | 1486147265.98605 | 3/1AC94B8                |           12912989368

 2017-02-03 19:41:07.064074+01 | 1486147267.06407 | 3/1AC94B8                |           12912989368

 2017-02-03 19:41:08.14641+01 | 1486147268.14641 | 3/1AC94B8                |           12912989368

 2017-02-03 19:41:09.225444+01 | 1486147269.22544 | 3/1AC94B8                |           12912989368

 2017-02-03 19:41:10.307761+01 | 1486147270.30776 | 3/1AC94B8                |           12912989368

 2017-02-03 19:41:11.396219+01 | 1486147271.39622 | 3/1AC94B8                |           12912989368

 2017-02-03 19:41:12.47594+01 | 1486147272.47594 | 3/1AC94B8                |           12912989368

 2017-02-03 19:41:13.565095+01 | 1486147273.56509 | 3/1AC94B8                |           12912989368

 2017-02-03 19:41:14.644565+01 | 1486147274.64457 | 3/1AC94B8                |           12912989368

 2017-02-03 19:41:15.739029+01 | 1486147275.73903 | 3/1AC94B8                |           12912989368

 2017-02-03 19:41:16.821015+01 | 1486147276.82101 | 3/1AC94B8                |           12912989368

 2017-02-03 19:41:17.898721+01 | 1486147277.89872 | 3/1AC94B8                |           12912989368

 2017-02-03 19:41:18.974546+01 | 1486147278.97455 | 3/1AC94B8                |           12912989368

 2017-02-03 19:41:20.056186+01 | 1486147280.05619 | 3/1AC94B8                |           12912989368

 2017-02-03 19:41:21.137331+01 | 1486147281.13733 | 3/1AC94B8                |           12912989368

 2017-02-03 19:41:22.214471+01 | 1486147282.21447 | 3/1AC94B8                |           12912989368

 2017-02-03 19:41:23.287039+01 | 1486147283.28704 | 3/1AC94B8                |           12912989368

 2017-02-03 19:41:24.359065+01 | 1486147284.35907 | 3/1AC94B8                |           12912989368

 2017-02-03 19:41:25.438816+01 | 1486147285.43882 | 3/1AC94B8                |           12912989368

 2017-02-03 19:41:26.514623+01 | 1486147286.51462 | 3/1AC94B8                |           12912989368

 2017-02-03 19:41:27.590463+01 | 1486147287.59046 | 3/1AC94B8                |           12912989368

 2017-02-03 19:41:28.673828+01 | 1486147288.67383 | 3/1AC94B8                |           12912989368

 2017-02-03 19:41:29.743799+01 | 1486147289.7438 | 3/1AC94B8                |           12912989368

 2017-02-03 19:41:30.818607+01 | 1486147290.81861 | 3/1AC94B8                |           12912989368

 2017-02-03 19:41:31.899811+01 | 1486147291.89981 | 3/1AC94B8                |           12912989368

 2017-02-03 19:41:32.976157+01 | 1486147292.97616 | 3/1AC94B8                |           12912989368

 2017-02-03 19:41:34.050902+01 | 1486147294.0509 | 3/1AC94B8                |           12912989368

 2017-02-03 19:41:35.131847+01 | 1486147295.13185 | 3/1AC94B8                |           12912989368

 2017-02-03 19:41:36.203425+01 | 1486147296.20342 | 3/1AC94B8                |           12912989368

 2017-02-03 19:41:37.282029+01 | 1486147297.28203 | 3/1AC94B8                |           12912989368

 2017-02-03 19:41:38.351903+01 | 1486147298.3519 | 3/1AC94B8                |           12912989368

 2017-02-03 19:41:39.422963+01 | 1486147299.42296 | 3/1AC94B8                |           12912989368

 2017-02-03 19:41:40.495893+01 | 1486147300.49589 | 3/1AC94B8                |           12912989368

 2017-02-03 19:41:41.580361+01 | 1486147301.58036 | 3/1AC94B8                |           12912989368

 2017-02-03 19:41:42.655316+01 | 1486147302.65532 | 3/1AC94B8                |           12912989368

 2017-02-03 19:41:43.739871+01 | 1486147303.73987 | 3/1AC94B8                |           12912989368

 2017-02-03 19:41:44.812207+01 | 1486147304.81221 | 3/1AC94B8                |           12912989368

 2017-02-03 19:41:45.896887+01 | 1486147305.89689 | 3/1AC94B8                |           12912989368

 2017-02-03 19:41:46.973999+01 | 1486147306.974 | 3/1AC94B8                |           12912989368

 2017-02-03 19:41:48.055315+01 | 1486147308.05532 | 3/1AC94B8                |           12912989368

 2017-02-03 19:41:49.146622+01 | 1486147309.14662 | 3/1AC94B8                |           12912989368

 2017-02-03 19:41:50.217564+01 | 1486147310.21756 | 3/1AC94B8                |           12912989368

 2017-02-03 19:41:51.30237+01 | 1486147311.30237 | 3/1AC94B8                |           12912989368

 2017-02-03 19:41:52.380624+01 | 1486147312.38062 | 3/1AC94B8                |           12912989368

 2017-02-03 19:41:53.456729+01 | 1486147313.45673 | 3/1AC94B8                |           12912989368

 2017-02-03 19:41:54.537451+01 | 1486147314.53745 | 3/1AC94B8                |           12912989368

 2017-02-03 19:41:55.619374+01 | 1486147315.61937 | 3/1AC94B8                |           12912989368

 2017-02-03 19:41:56.691558+01 | 1486147316.69156 | 3/1AC94B8                |           12912989368

 2017-02-03 19:41:57.77708+01 | 1486147317.77708 | 3/1AC94B8                |           12912989368

 2017-02-03 19:41:58.858581+01 | 1486147318.85858 | 3/1AC94B8                |           12912989368

 2017-02-03 19:41:59.93624+01 | 1486147319.93624 | 3/1AC94B8                |           12912989368

 2017-02-03 19:42:01.011269+01 | 1486147321.01127 | 3/1AC94B8                |           12912989368

 2017-02-03 19:42:02.086904+01 | 1486147322.0869 | 3/1AC94B8                |           12912989368

 2017-02-03 19:42:03.164186+01 | 1486147323.16419 | 3/1AC94B8                |           12912989368

 2017-02-03 19:42:04.23614+01 | 1486147324.23614 | 3/1AC94B8                |           12912989368

