 2017-02-05 20:55:53.554071+01 | 1486324553.55407 |                 0 |              32 |                328342 |                 6351 |           28694348 |       3196307 |            30305 |        17676955 |                     0 |      13431635 | 2017-02-05 18:10:53.010055+01

 2017-02-05 20:55:54.63846+01 | 1486324554.63846 |                 0 |              32 |                328342 |                 6351 |           28694348 |       3196307 |            30305 |        17676955 |                     0 |      13432744 | 2017-02-05 18:10:53.010055+01

 2017-02-05 20:55:55.729767+01 | 1486324555.72977 |                 0 |              32 |                328342 |                 6351 |           28694348 |       3196307 |            30305 |        17676955 |                     0 |      13433928 | 2017-02-05 18:10:53.010055+01

 2017-02-05 20:55:56.826413+01 | 1486324556.82641 |                 0 |              32 |                328342 |                 6351 |           28694348 |       3196307 |            30305 |        17676955 |                     0 |      13435484 | 2017-02-05 18:10:53.010055+01

 2017-02-05 20:55:57.913291+01 | 1486324557.91329 |                 0 |              32 |                328342 |                 6351 |           28694348 |       3196307 |            30305 |        17676955 |                     0 |      13436941 | 2017-02-05 18:10:53.010055+01

 2017-02-05 20:55:58.997603+01 | 1486324558.9976 |                 0 |              32 |                328342 |                 6351 |           28694348 |       3196307 |            30305 |        17676955 |                     0 |      13438422 | 2017-02-05 18:10:53.010055+01

 2017-02-05 20:56:00.080741+01 | 1486324560.08074 |                 0 |              32 |                328342 |                 6351 |           28694348 |       3196307 |            30305 |        17676955 |                     0 |      13440410 | 2017-02-05 18:10:53.010055+01

 2017-02-05 20:56:01.161912+01 | 1486324561.16191 |                 0 |              32 |                328342 |                 6351 |           28694348 |       3196307 |            30305 |        17676955 |                     0 |      13442053 | 2017-02-05 18:10:53.010055+01

 2017-02-05 20:56:02.244471+01 | 1486324562.24447 |                 0 |              32 |                328342 |                 6351 |           28694348 |       3196307 |            30305 |        17676955 |                     0 |      13444176 | 2017-02-05 18:10:53.010055+01

 2017-02-05 20:56:03.334309+01 | 1486324563.33431 |                 0 |              32 |                328342 |                 6351 |           28694348 |       3196307 |            30305 |        17676955 |                     0 |      13446203 | 2017-02-05 18:10:53.010055+01

 2017-02-05 20:56:04.417873+01 | 1486324564.41787 |                 0 |              32 |                328342 |                 6351 |           28694348 |       3196307 |            30305 |        17676955 |                     0 |      13448249 | 2017-02-05 18:10:53.010055+01

 2017-02-05 20:56:05.502577+01 | 1486324565.50258 |                 0 |              32 |                328342 |                 6351 |           28694348 |       3196307 |            30305 |        17676955 |                     0 |      13450160 | 2017-02-05 18:10:53.010055+01

 2017-02-05 20:56:06.582416+01 | 1486324566.58242 |                 0 |              32 |                328342 |                 6351 |           28694348 |       3196307 |            30305 |        17676955 |                     0 |      13452152 | 2017-02-05 18:10:53.010055+01

 2017-02-05 20:56:07.663076+01 | 1486324567.66308 |                 0 |              32 |                328342 |                 6351 |           28694348 |       3196307 |            30305 |        17676955 |                     0 |      13454430 | 2017-02-05 18:10:53.010055+01

 2017-02-05 20:56:08.751975+01 | 1486324568.75198 |                 0 |              32 |                328342 |                 6351 |           28694348 |       3196307 |            30305 |        17676955 |                     0 |      13456370 | 2017-02-05 18:10:53.010055+01

 2017-02-05 20:56:09.840987+01 | 1486324569.84099 |                 0 |              32 |                328342 |                 6351 |           28694348 |       3196307 |            30305 |        17676955 |                     0 |      13458625 | 2017-02-05 18:10:53.010055+01

 2017-02-05 20:56:10.93076+01 | 1486324570.93076 |                 0 |              32 |                328342 |                 6351 |           28694348 |       3196307 |            30305 |        17676955 |                     0 |      13460625 | 2017-02-05 18:10:53.010055+01

 2017-02-05 20:56:12.017392+01 | 1486324572.01739 |                 0 |              32 |                328342 |                 6351 |           28694348 |       3196307 |            30305 |        17676955 |                     0 |      13462699 | 2017-02-05 18:10:53.010055+01

 2017-02-05 20:56:13.110499+01 | 1486324573.1105 |                 0 |              32 |                328342 |                 6351 |           28694348 |       3196307 |            30305 |        17676955 |                     0 |      13465008 | 2017-02-05 18:10:53.010055+01

 2017-02-05 20:56:14.194994+01 | 1486324574.19499 |                 0 |              32 |                328342 |                 6351 |           28694348 |       3196307 |            30305 |        17676955 |                     0 |      13466684 | 2017-02-05 18:10:53.010055+01

 2017-02-05 20:56:15.281547+01 | 1486324575.28155 |                 0 |              32 |                328342 |                 6351 |           28694348 |       3196307 |            30305 |        17676955 |                     0 |      13469235 | 2017-02-05 18:10:53.010055+01

 2017-02-05 20:56:16.369518+01 | 1486324576.36952 |                 0 |              32 |                328342 |                 6351 |           28694348 |       3196307 |            30305 |        17676955 |                     0 |      13471128 | 2017-02-05 18:10:53.010055+01

 2017-02-05 20:56:17.450616+01 | 1486324577.45062 |                 0 |              32 |                328342 |                 6351 |           28694348 |       3196307 |            30305 |        17676955 |                     0 |      13473544 | 2017-02-05 18:10:53.010055+01

 2017-02-05 20:56:18.535394+01 | 1486324578.53539 |                 0 |              32 |                328342 |                 6351 |           28694348 |       3196307 |            30305 |        17676955 |                     0 |      13475546 | 2017-02-05 18:10:53.010055+01

 2017-02-05 20:56:19.615779+01 | 1486324579.61578 |                 0 |              32 |                328342 |                 6351 |           28694348 |       3196307 |            30305 |        17676955 |                     0 |      13477614 | 2017-02-05 18:10:53.010055+01

 2017-02-05 20:56:20.698821+01 | 1486324580.69882 |                 0 |              32 |                328342 |                 6351 |           28694348 |       3196307 |            30305 |        17676955 |                     0 |      13479606 | 2017-02-05 18:10:53.010055+01

 2017-02-05 20:56:21.787944+01 | 1486324581.78794 |                 0 |              32 |                328342 |                 6351 |           28694348 |       3196307 |            30305 |        17676955 |                     0 |      13481508 | 2017-02-05 18:10:53.010055+01

 2017-02-05 20:56:22.869195+01 | 1486324582.86919 |                 0 |              32 |                328342 |                 6351 |           28694348 |       3196307 |            30305 |        17676955 |                     0 |      13483775 | 2017-02-05 18:10:53.010055+01

 2017-02-05 20:56:23.959127+01 | 1486324583.95913 |                 0 |              32 |                328342 |                 6351 |           28694348 |       3196307 |            30305 |        17676955 |                     0 |      13485976 | 2017-02-05 18:10:53.010055+01

 2017-02-05 20:56:25.049347+01 | 1486324585.04935 |                 0 |              32 |                328342 |                 6351 |           28694348 |       3196307 |            30305 |        17676955 |                     0 |      13487982 | 2017-02-05 18:10:53.010055+01

 2017-02-05 20:56:26.138575+01 | 1486324586.13858 |                 0 |              32 |                328342 |                 6351 |           28694348 |       3196307 |            30305 |        17676955 |                     0 |      13489972 | 2017-02-05 18:10:53.010055+01

 2017-02-05 20:56:27.22991+01 | 1486324587.22991 |                 0 |              32 |                328342 |                 6351 |           28694348 |       3196307 |            30305 |        17676955 |                     0 |      13491897 | 2017-02-05 18:10:53.010055+01

 2017-02-05 20:56:28.320199+01 | 1486324588.3202 |                 0 |              32 |                328342 |                 6351 |           28694348 |       3196307 |            30305 |        17676955 |                     0 |      13494225 | 2017-02-05 18:10:53.010055+01

 2017-02-05 20:56:29.407875+01 | 1486324589.40788 |                 0 |              32 |                328342 |                 6351 |           28694348 |       3196307 |            30305 |        17676955 |                     0 |      13496156 | 2017-02-05 18:10:53.010055+01

 2017-02-05 20:56:30.488+01 | 1486324590.488 |                 0 |              32 |                328342 |                 6351 |           28694348 |       3196307 |            30305 |        17676955 |                     0 |      13498437 | 2017-02-05 18:10:53.010055+01

 2017-02-05 20:56:31.557897+01 | 1486324591.5579 |                 0 |              32 |                328342 |                 6351 |           28694348 |       3196307 |            30305 |        17676955 |                     0 |      13499967 | 2017-02-05 18:10:53.010055+01

 2017-02-05 20:56:32.645854+01 | 1486324592.64585 |                 0 |              32 |                328342 |                 6351 |           28694348 |       3196307 |            30305 |        17676955 |                     0 |      13501644 | 2017-02-05 18:10:53.010055+01

 2017-02-05 20:56:33.727201+01 | 1486324593.7272 |                 0 |              32 |                328342 |                 6351 |           28694348 |       3196307 |            30305 |        17676955 |                     0 |      13504050 | 2017-02-05 18:10:53.010055+01

 2017-02-05 20:56:34.818559+01 | 1486324594.81856 |                 0 |              32 |                328342 |                 6351 |           28694348 |       3196307 |            30305 |        17676955 |                     0 |      13505500 | 2017-02-05 18:10:53.010055+01

 2017-02-05 20:56:35.914355+01 | 1486324595.91436 |                 0 |              32 |                328342 |                 6351 |           28694348 |       3196307 |            30305 |        17676955 |                     0 |      13507783 | 2017-02-05 18:10:53.010055+01

 2017-02-05 20:56:37.000166+01 | 1486324597.00017 |                 0 |              32 |                328342 |                 6351 |           28694348 |       3196307 |            30305 |        17676955 |                     0 |      13509287 | 2017-02-05 18:10:53.010055+01

 2017-02-05 20:56:38.087482+01 | 1486324598.08748 |                 0 |              32 |                328342 |                 6351 |           28694348 |       3196307 |            30305 |        17676955 |                     0 |      13511192 | 2017-02-05 18:10:53.010055+01

 2017-02-05 20:56:39.179805+01 | 1486324599.17981 |                 0 |              32 |                328342 |                 6351 |           28694348 |       3196307 |            30305 |        17676955 |                     0 |      13513095 | 2017-02-05 18:10:53.010055+01

 2017-02-05 20:56:40.264511+01 | 1486324600.26451 |                 0 |              32 |                328342 |                 6351 |           28694348 |       3196307 |            30305 |        17676955 |                     0 |      13514969 | 2017-02-05 18:10:53.010055+01

 2017-02-05 20:56:41.355856+01 | 1486324601.35586 |                 0 |              32 |                328342 |                 6351 |           28694348 |       3196307 |            30305 |        17676955 |                     0 |      13516786 | 2017-02-05 18:10:53.010055+01

 2017-02-05 20:56:42.436643+01 | 1486324602.43664 |                 0 |              32 |                328342 |                 6351 |           28694348 |       3196307 |            30305 |        17676955 |                     0 |      13518541 | 2017-02-05 18:10:53.010055+01

 2017-02-05 20:56:43.521232+01 | 1486324603.52123 |                 0 |              32 |                328342 |                 6351 |           28694348 |       3196307 |            30305 |        17676955 |                     0 |      13520620 | 2017-02-05 18:10:53.010055+01

 2017-02-05 20:56:44.601456+01 | 1486324604.60146 |                 0 |              32 |                328342 |                 6351 |           28694348 |       3196307 |            30305 |        17676955 |                     0 |      13522353 | 2017-02-05 18:10:53.010055+01

 2017-02-05 20:56:45.681944+01 | 1486324605.68194 |                 0 |              32 |                328342 |                 6351 |           28694348 |       3196307 |            30305 |        17676955 |                     0 |      13524172 | 2017-02-05 18:10:53.010055+01

 2017-02-05 20:56:46.76192+01 | 1486324606.76192 |                 0 |              32 |                328342 |                 6351 |           28694348 |       3196328 |            30305 |        17676955 |                     0 |      13526237 | 2017-02-05 18:10:53.010055+01

 2017-02-05 20:56:47.850465+01 | 1486324607.85047 |                 0 |              32 |                328342 |                 6351 |           28694348 |       3196349 |            30305 |        17676955 |                     0 |      13527875 | 2017-02-05 18:10:53.010055+01

 2017-02-05 20:56:48.937611+01 | 1486324608.93761 |                 0 |              32 |                328342 |                 6351 |           28694348 |       3196374 |            30305 |        17676955 |                     0 |      13530049 | 2017-02-05 18:10:53.010055+01

 2017-02-05 20:56:50.023752+01 | 1486324610.02375 |                 0 |              32 |                328342 |                 6351 |           28694348 |       3196385 |            30305 |        17676955 |                     0 |      13531318 | 2017-02-05 18:10:53.010055+01

 2017-02-05 20:56:51.113802+01 | 1486324611.1138 |                 0 |              32 |                328342 |                 6351 |           28694348 |       3196408 |            30305 |        17676955 |                     0 |      13533294 | 2017-02-05 18:10:53.010055+01

 2017-02-05 20:56:52.195087+01 | 1486324612.19509 |                 0 |              32 |                328342 |                 6351 |           28694348 |       3196423 |            30305 |        17676955 |                     0 |      13534874 | 2017-02-05 18:10:53.010055+01

 2017-02-05 20:56:53.282605+01 | 1486324613.2826 |                 0 |              32 |                328342 |                 6351 |           28694348 |       3196445 |            30305 |        17676955 |                     0 |      13536472 | 2017-02-05 18:10:53.010055+01

 2017-02-05 20:56:54.368301+01 | 1486324614.3683 |                 0 |              32 |                328342 |                 6351 |           28694348 |       3196462 |            30305 |        17676955 |                     0 |      13538237 | 2017-02-05 18:10:53.010055+01

 2017-02-05 20:56:55.450002+01 | 1486324615.45 |                 0 |              32 |                328342 |                 6351 |           28694348 |       3196475 |            30305 |        17676955 |                     0 |      13539651 | 2017-02-05 18:10:53.010055+01

 2017-02-05 20:56:56.529011+01 | 1486324616.52901 |                 0 |              32 |                328342 |                 6351 |           28694348 |       3196494 |            30305 |        17676955 |                     0 |      13541407 | 2017-02-05 18:10:53.010055+01

 2017-02-05 20:56:57.602193+01 | 1486324617.60219 |                 0 |              32 |                328342 |                 6351 |           28694348 |       3196509 |            30305 |        17676955 |                     0 |      13542660 | 2017-02-05 18:10:53.010055+01

 2017-02-05 20:56:58.680219+01 | 1486324618.68022 |                 0 |              32 |                328342 |                 6351 |           28694348 |       3196526 |            30305 |        17676955 |                     0 |      13544279 | 2017-02-05 18:10:53.010055+01

 2017-02-05 20:56:59.765421+01 | 1486324619.76542 |                 0 |              32 |                328342 |                 6351 |           28694348 |       3196541 |            30305 |        17676955 |                     0 |      13545907 | 2017-02-05 18:10:53.010055+01

 2017-02-05 20:57:00.854276+01 | 1486324620.85428 |                 0 |              32 |                328342 |                 6351 |           28694348 |       3196562 |            30305 |        17676955 |                     0 |      13547756 | 2017-02-05 18:10:53.010055+01

 2017-02-05 20:57:01.946835+01 | 1486324621.94684 |                 0 |              32 |                328342 |                 6351 |           28694348 |       3196593 |            30305 |        17676955 |                     0 |      13549684 | 2017-02-05 18:10:53.010055+01

 2017-02-05 20:57:03.02952+01 | 1486324623.02952 |                 0 |              32 |                328342 |                 6351 |           28694348 |       3196619 |            30305 |        17676955 |                     0 |      13551820 | 2017-02-05 18:10:53.010055+01

 2017-02-05 20:57:04.118256+01 | 1486324624.11826 |                 0 |              32 |                328342 |                 6351 |           28694348 |       3196645 |            30305 |        17676955 |                     0 |      13553224 | 2017-02-05 18:10:53.010055+01

 2017-02-05 20:57:05.204912+01 | 1486324625.20491 |                 0 |              32 |                328342 |                 6351 |           28694348 |       3196683 |            30305 |        17676955 |                     0 |      13555355 | 2017-02-05 18:10:53.010055+01

 2017-02-05 20:57:06.290861+01 | 1486324626.29086 |                 0 |              32 |                328342 |                 6351 |           28694348 |       3196717 |            30305 |        17676955 |                     0 |      13557221 | 2017-02-05 18:10:53.010055+01

 2017-02-05 20:57:07.375025+01 | 1486324627.37503 |                 0 |              32 |                328342 |                 6351 |           28694348 |       3196765 |            30305 |        17676955 |                     0 |      13559444 | 2017-02-05 18:10:53.010055+01

 2017-02-05 20:57:08.464445+01 | 1486324628.46445 |                 0 |              32 |                328342 |                 6351 |           28694348 |       3196806 |            30305 |        17676955 |                     0 |      13561357 | 2017-02-05 18:10:53.010055+01

 2017-02-05 20:57:09.548113+01 | 1486324629.54811 |                 0 |              32 |                328342 |                 6351 |           28694348 |       3196856 |            30305 |        17676955 |                     0 |      13563088 | 2017-02-05 18:10:53.010055+01

 2017-02-05 20:57:10.626919+01 | 1486324630.62692 |                 0 |              32 |                328342 |                 6351 |           28694348 |       3197207 |            30308 |        17676955 |                     0 |      13565306 | 2017-02-05 18:10:53.010055+01

 2017-02-05 20:57:11.706131+01 | 1486324631.70613 |                 0 |              32 |                328342 |                 6351 |           28694348 |       3197707 |            30313 |        17676955 |                     0 |      13567109 | 2017-02-05 18:10:53.010055+01

 2017-02-05 20:57:12.791047+01 | 1486324632.79105 |                 0 |              32 |                328342 |                 6351 |           28694348 |       3198207 |            30318 |        17676955 |                     0 |      13568968 | 2017-02-05 18:10:53.010055+01

 2017-02-05 20:57:13.879914+01 | 1486324633.87991 |                 0 |              32 |                328342 |                 6351 |           28694348 |       3198807 |            30324 |        17676955 |                     0 |      13571416 | 2017-02-05 18:10:53.010055+01

 2017-02-05 20:57:14.971023+01 | 1486324634.97102 |                 0 |              32 |                328342 |                 6351 |           28694348 |       3199307 |            30329 |        17676955 |                     0 |      13573021 | 2017-02-05 18:10:53.010055+01

 2017-02-05 20:57:16.067194+01 | 1486324636.06719 |                 0 |              32 |                328342 |                 6351 |           28694348 |       3199907 |            30335 |        17676955 |                     0 |      13574980 | 2017-02-05 18:10:53.010055+01

 2017-02-05 20:57:17.156899+01 | 1486324637.1569 |                 0 |              32 |                328342 |                 6351 |           28694348 |       3200407 |            30340 |        17676955 |                     0 |      13576931 | 2017-02-05 18:10:53.010055+01

 2017-02-05 20:57:18.248768+01 | 1486324638.24877 |                 0 |              32 |                328342 |                 6351 |           28694348 |       3200907 |            30345 |        17676955 |                     0 |      13578585 | 2017-02-05 18:10:53.010055+01

 2017-02-05 20:57:19.336942+01 | 1486324639.33694 |                 0 |              32 |                328342 |                 6351 |           28694348 |       3201507 |            30351 |        17676955 |                     0 |      13580899 | 2017-02-05 18:10:53.010055+01

 2017-02-05 20:57:20.428599+01 | 1486324640.4286 |                 0 |              32 |                328342 |                 6351 |           28694348 |       3202007 |            30356 |        17676955 |                     0 |      13582491 | 2017-02-05 18:10:53.010055+01

 2017-02-05 20:57:21.51263+01 | 1486324641.51263 |                 0 |              32 |                328342 |                 6351 |           28694348 |       3202607 |            30362 |        17676955 |                     0 |      13584698 | 2017-02-05 18:10:53.010055+01

 2017-02-05 20:57:22.591044+01 | 1486324642.59104 |                 0 |              32 |                328342 |                 6351 |           28694348 |       3203107 |            30367 |        17676955 |                     0 |      13586633 | 2017-02-05 18:10:53.010055+01

 2017-02-05 20:57:23.672029+01 | 1486324643.67203 |                 0 |              32 |                328342 |                 6351 |           28694348 |       3203607 |            30372 |        17676955 |                     0 |      13588528 | 2017-02-05 18:10:53.010055+01

 2017-02-05 20:57:24.752354+01 | 1486324644.75235 |                 0 |              32 |                328342 |                 6351 |           28694348 |       3204207 |            30378 |        17676955 |                     0 |      13590638 | 2017-02-05 18:10:53.010055+01

 2017-02-05 20:57:25.831876+01 | 1486324645.83188 |                 0 |              32 |                328342 |                 6351 |           28694348 |       3204707 |            30383 |        17676955 |                     0 |      13592488 | 2017-02-05 18:10:53.010055+01

 2017-02-05 20:57:26.916183+01 | 1486324646.91618 |                 0 |              32 |                328342 |                 6351 |           28694348 |       3205207 |            30388 |        17676955 |                     0 |      13594593 | 2017-02-05 18:10:53.010055+01

 2017-02-05 20:57:28.005146+01 | 1486324648.00515 |                 0 |              32 |                328342 |                 6351 |           28694348 |       3205807 |            30394 |        17676955 |                     0 |      13596541 | 2017-02-05 18:10:53.010055+01

 2017-02-05 20:57:29.08739+01 | 1486324649.08739 |                 0 |              32 |                328342 |                 6351 |           28694348 |       3206307 |            30399 |        17676955 |                     0 |      13598677 | 2017-02-05 18:10:53.010055+01

 2017-02-05 20:57:30.16489+01 | 1486324650.16489 |                 0 |              32 |                328342 |                 6351 |           28694348 |       3206807 |            30404 |        17676955 |                     0 |      13600081 | 2017-02-05 18:10:53.010055+01

 2017-02-05 20:57:31.253575+01 | 1486324651.25358 |                 0 |              32 |                328342 |                 6351 |           28694348 |       3207407 |            30410 |        17676955 |                     0 |      13602182 | 2017-02-05 18:10:53.010055+01

 2017-02-05 20:57:32.335446+01 | 1486324652.33545 |                 0 |              32 |                328342 |                 6351 |           28694348 |       3207907 |            30415 |        17676955 |                     0 |      13603638 | 2017-02-05 18:10:53.010055+01

 2017-02-05 20:57:33.419385+01 | 1486324653.41938 |                 0 |              32 |                328342 |                 6351 |           28694348 |       3208507 |            30421 |        17676955 |                     0 |      13605392 | 2017-02-05 18:10:53.010055+01

 2017-02-05 20:57:34.503113+01 | 1486324654.50311 |                 0 |              32 |                328342 |                 6351 |           28694348 |       3209007 |            30426 |        17676955 |                     0 |      13606835 | 2017-02-05 18:10:53.010055+01

 2017-02-05 20:57:35.585176+01 | 1486324655.58518 |                 0 |              32 |                328342 |                 6351 |           28694348 |       3209507 |            30431 |        17676955 |                     0 |      13608912 | 2017-02-05 18:10:53.010055+01

 2017-02-05 20:57:36.670637+01 | 1486324656.67064 |                 0 |              32 |                328342 |                 6351 |           28694348 |       3210107 |            30437 |        17676955 |                     0 |      13611174 | 2017-02-05 18:10:53.010055+01

 2017-02-05 20:57:37.753813+01 | 1486324657.75381 |                 0 |              32 |                328342 |                 6351 |           28694348 |       3210607 |            30442 |        17676955 |                     0 |      13612725 | 2017-02-05 18:10:53.010055+01

 2017-02-05 20:57:38.825662+01 | 1486324658.82566 |                 0 |              32 |                328342 |                 6351 |           28694348 |       3211107 |            30447 |        17676955 |                     0 |      13614597 | 2017-02-05 18:10:53.010055+01

 2017-02-05 20:57:39.910898+01 | 1486324659.9109 |                 0 |              32 |                328342 |                 6351 |           28694348 |       3211707 |            30453 |        17676955 |                     0 |      13616562 | 2017-02-05 18:10:53.010055+01

 2017-02-05 20:57:40.993093+01 | 1486324660.99309 |                 0 |              32 |                328342 |                 6351 |           28694348 |       3212207 |            30458 |        17676955 |                     0 |      13618432 | 2017-02-05 18:10:53.010055+01

 2017-02-05 20:57:42.076696+01 | 1486324662.0767 |                 0 |              32 |                328342 |                 6351 |           28694348 |       3212707 |            30463 |        17676955 |                     0 |      13620376 | 2017-02-05 18:10:53.010055+01

 2017-02-05 20:57:43.16219+01 | 1486324663.16219 |                 0 |              32 |                328342 |                 6351 |           28694348 |       3213307 |            30469 |        17676955 |                     0 |      13622418 | 2017-02-05 18:10:53.010055+01

 2017-02-05 20:57:44.250591+01 | 1486324664.25059 |                 0 |              32 |                328342 |                 6351 |           28694348 |       3213807 |            30474 |        17676955 |                     0 |      13624365 | 2017-02-05 18:10:53.010055+01

 2017-02-05 20:57:45.338989+01 | 1486324665.33899 |                 0 |              32 |                328342 |                 6351 |           28694348 |       3214407 |            30480 |        17676955 |                     0 |      13626718 | 2017-02-05 18:10:53.010055+01

 2017-02-05 20:57:46.422914+01 | 1486324666.42291 |                 0 |              32 |                328342 |                 6351 |           28694348 |       3214907 |            30485 |        17676955 |                     0 |      13628486 | 2017-02-05 18:10:53.010055+01

 2017-02-05 20:57:47.510391+01 | 1486324667.51039 |                 0 |              32 |                328342 |                 6351 |           28694348 |       3215407 |            30490 |        17676955 |                     0 |      13630421 | 2017-02-05 18:10:53.010055+01

 2017-02-05 20:57:48.591124+01 | 1486324668.59112 |                 0 |              32 |                328342 |                 6351 |           28694348 |       3216007 |            30496 |        17676955 |                     0 |      13632594 | 2017-02-05 18:10:53.010055+01

 2017-02-05 20:57:49.669572+01 | 1486324669.66957 |                 0 |              32 |                328342 |                 6351 |           28694348 |       3216507 |            30501 |        17676955 |                     0 |      13634469 | 2017-02-05 18:10:53.010055+01

 2017-02-05 20:57:50.749407+01 | 1486324670.74941 |                 0 |              32 |                328342 |                 6351 |           28694348 |       3217007 |            30506 |        17676955 |                     0 |      13636072 | 2017-02-05 18:10:53.010055+01

 2017-02-05 20:57:51.833087+01 | 1486324671.83309 |                 0 |              32 |                328342 |                 6351 |           28694348 |       3217607 |            30512 |        17676955 |                     0 |      13638447 | 2017-02-05 18:10:53.010055+01

 2017-02-05 20:57:52.91223+01 | 1486324672.91223 |                 0 |              32 |                328342 |                 6351 |           28694348 |       3218107 |            30517 |        17676955 |                     0 |      13640095 | 2017-02-05 18:10:53.010055+01

 2017-02-05 20:57:53.997765+01 | 1486324673.99777 |                 0 |              32 |                328342 |                 6351 |           28694348 |       3218607 |            30522 |        17676955 |                     0 |      13642086 | 2017-02-05 18:10:53.010055+01

 2017-02-05 20:57:55.08421+01 | 1486324675.08421 |                 0 |              32 |                328342 |                 6351 |           28694348 |       3219207 |            30528 |        17676955 |                     0 |      13644253 | 2017-02-05 18:10:53.010055+01

 2017-02-05 20:57:56.170277+01 | 1486324676.17028 |                 0 |              32 |                328342 |                 6351 |           28694348 |       3219707 |            30533 |        17676955 |                     0 |      13646046 | 2017-02-05 18:10:53.010055+01

 2017-02-05 20:57:57.25366+01 | 1486324677.25366 |                 0 |              32 |                328342 |                 6351 |           28694348 |       3220307 |            30539 |        17676955 |                     0 |      13648376 | 2017-02-05 18:10:53.010055+01

 2017-02-05 20:57:58.337335+01 | 1486324678.33734 |                 0 |              32 |                328342 |                 6351 |           28694348 |       3220807 |            30544 |        17676955 |                     0 |      13650147 | 2017-02-05 18:10:53.010055+01

 2017-02-05 20:57:59.427655+01 | 1486324679.42765 |                 0 |              32 |                328342 |                 6351 |           28694348 |       3221307 |            30549 |        17676955 |                     0 |      13651776 | 2017-02-05 18:10:53.010055+01

 2017-02-05 20:58:00.513415+01 | 1486324680.51342 |                 0 |              32 |                328342 |                 6351 |           28694348 |       3221907 |            30555 |        17676955 |                     0 |      13654136 | 2017-02-05 18:10:53.010055+01

 2017-02-05 20:58:01.597318+01 | 1486324681.59732 |                 0 |              32 |                328342 |                 6351 |           28694348 |       3222407 |            30560 |        17676955 |                     0 |      13656025 | 2017-02-05 18:10:53.010055+01

 2017-02-05 20:58:02.679115+01 | 1486324682.67912 |                 0 |              32 |                328342 |                 6351 |           28694348 |       3222907 |            30565 |        17676955 |                     0 |      13657775 | 2017-02-05 18:10:53.010055+01

 2017-02-05 20:58:03.7621+01 | 1486324683.7621 |                 0 |              32 |                328342 |                 6351 |           28694348 |       3223507 |            30571 |        17676955 |                     0 |      13660136 | 2017-02-05 18:10:53.010055+01

 2017-02-05 20:58:04.838012+01 | 1486324684.83801 |                 0 |              32 |                328342 |                 6351 |           28694348 |       3224007 |            30576 |        17676955 |                     0 |      13661887 | 2017-02-05 18:10:53.010055+01

 2017-02-05 20:58:05.917181+01 | 1486324685.91718 |                 0 |              32 |                328342 |                 6351 |           28694348 |       3224507 |            30581 |        17676955 |                     0 |      13663776 | 2017-02-05 18:10:53.010055+01

 2017-02-05 20:58:07.006037+01 | 1486324687.00604 |                 0 |              32 |                328342 |                 6351 |           28694348 |       3225107 |            30587 |        17676955 |                     0 |      13665693 | 2017-02-05 18:10:53.010055+01

 2017-02-05 20:58:08.086469+01 | 1486324688.08647 |                 0 |              32 |                328342 |                 6351 |           28694348 |       3225607 |            30592 |        17676955 |                     0 |      13667612 | 2017-02-05 18:10:53.010055+01

 2017-02-05 20:58:09.174862+01 | 1486324689.17486 |                 0 |              32 |                328342 |                 6351 |           28694348 |       3226207 |            30598 |        17676955 |                     0 |      13669801 | 2017-02-05 18:10:53.010055+01

 2017-02-05 20:58:10.260946+01 | 1486324690.26095 |                 0 |              32 |                328342 |                 6351 |           28694348 |       3226707 |            30603 |        17676955 |                     0 |      13671598 | 2017-02-05 18:10:53.010055+01

 2017-02-05 20:58:11.339611+01 | 1486324691.33961 |                 0 |              32 |                328342 |                 6351 |           28694348 |       3227207 |            30608 |        17676955 |                     0 |      13673622 | 2017-02-05 18:10:53.010055+01

 2017-02-05 20:58:12.426643+01 | 1486324692.42664 |                 0 |              32 |                328342 |                 6351 |           28694348 |       3227807 |            30614 |        17676955 |                     0 |      13675678 | 2017-02-05 18:10:53.010055+01

 2017-02-05 20:58:13.516959+01 | 1486324693.51696 |                 0 |              32 |                328342 |                 6351 |           28694348 |       3228307 |            30619 |        17676955 |                     0 |      13677445 | 2017-02-05 18:10:53.010055+01

 2017-02-05 20:58:14.596268+01 | 1486324694.59627 |                 0 |              32 |                328342 |                 6351 |           28694348 |       3228807 |            30624 |        17676955 |                     0 |      13679138 | 2017-02-05 18:10:53.010055+01

 2017-02-05 20:58:15.673328+01 | 1486324695.67333 |                 0 |              32 |                328342 |                 6351 |           28694348 |       3229407 |            30630 |        17676955 |                     0 |      13681516 | 2017-02-05 18:10:53.010055+01

 2017-02-05 20:58:16.752075+01 | 1486324696.75207 |                 0 |              32 |                328342 |                 6351 |           28694348 |       3229907 |            30635 |        17676955 |                     0 |      13683413 | 2017-02-05 18:10:53.010055+01

 2017-02-05 20:58:17.832026+01 | 1486324697.83203 |                 0 |              32 |                328342 |                 6351 |           28694348 |       3230407 |            30640 |        17676955 |                     0 |      13685302 | 2017-02-05 18:10:53.010055+01

 2017-02-05 20:58:18.911027+01 | 1486324698.91103 |                 0 |              32 |                328342 |                 6351 |           28694348 |       3231007 |            30646 |        17676955 |                     0 |      13687565 | 2017-02-05 18:10:53.010055+01

 2017-02-05 20:58:19.989907+01 | 1486324699.98991 |                 0 |              32 |                328342 |                 6351 |           28694348 |       3231507 |            30651 |        17676955 |                     0 |      13689139 | 2017-02-05 18:10:53.010055+01

 2017-02-05 20:58:21.072892+01 | 1486324701.07289 |                 0 |              32 |                328342 |                 6351 |           28694348 |       3232007 |            30656 |        17676955 |                     0 |      13690631 | 2017-02-05 18:10:53.010055+01

 2017-02-05 20:58:22.161876+01 | 1486324702.16188 |                 0 |              32 |                328342 |                 6351 |           28694348 |       3232607 |            30662 |        17676955 |                     0 |      13693008 | 2017-02-05 18:10:53.010055+01

 2017-02-05 20:58:23.252075+01 | 1486324703.25207 |                 0 |              32 |                328342 |                 6351 |           28694348 |       3233107 |            30667 |        17676955 |                     0 |      13694739 | 2017-02-05 18:10:53.010055+01

 2017-02-05 20:58:24.339562+01 | 1486324704.33956 |                 0 |              32 |                328342 |                 6351 |           28694348 |       3233707 |            30673 |        17676955 |                     0 |      13697093 | 2017-02-05 18:10:53.010055+01

 2017-02-05 20:58:25.425815+01 | 1486324705.42582 |                 0 |              32 |                328342 |                 6351 |           28694348 |       3234207 |            30678 |        17676955 |                     0 |      13699183 | 2017-02-05 18:10:53.010055+01

 2017-02-05 20:58:26.5062+01 | 1486324706.5062 |                 0 |              32 |                328342 |                 6351 |           28694348 |       3234707 |            30683 |        17676955 |                     0 |      13700833 | 2017-02-05 18:10:53.010055+01

 2017-02-05 20:58:27.584247+01 | 1486324707.58425 |                 0 |              32 |                328342 |                 6351 |           28694348 |       3235307 |            30689 |        17676955 |                     0 |      13702963 | 2017-02-05 18:10:53.010055+01

 2017-02-05 20:58:28.664957+01 | 1486324708.66496 |                 0 |              32 |                328342 |                 6351 |           28694348 |       3235807 |            30694 |        17676955 |                     0 |      13704772 | 2017-02-05 18:10:53.010055+01

 2017-02-05 20:58:29.744288+01 | 1486324709.74429 |                 0 |              32 |                328342 |                 6351 |           28694348 |       3236307 |            30699 |        17676955 |                     0 |      13707169 | 2017-02-05 18:10:53.010055+01

 2017-02-05 20:58:30.82081+01 | 1486324710.82081 |                 0 |              32 |                328342 |                 6351 |           28694348 |       3236907 |            30705 |        17676955 |                     0 |      13709110 | 2017-02-05 18:10:53.010055+01

 2017-02-05 20:58:31.886591+01 | 1486324711.88659 |                 0 |              32 |                328342 |                 6351 |           28694348 |       3237207 |            30708 |        17676955 |                     0 |      13710110 | 2017-02-05 18:10:53.010055+01

 2017-02-05 20:58:32.968206+01 | 1486324712.96821 |                 0 |              32 |                328342 |                 6351 |           28694348 |       3237907 |            30715 |        17676955 |                     0 |      13712869 | 2017-02-05 18:10:53.010055+01

 2017-02-05 20:58:34.06817+01 | 1486324714.06817 |                 0 |              32 |                328342 |                 6351 |           28694348 |       3238507 |            30721 |        17676955 |                     0 |      13714752 | 2017-02-05 18:10:53.010055+01

 2017-02-05 20:58:35.159165+01 | 1486324715.15916 |                 0 |              32 |                328342 |                 6351 |           28694348 |       3239007 |            30726 |        17676955 |                     0 |      13716707 | 2017-02-05 18:10:53.010055+01

 2017-02-05 20:58:36.246424+01 | 1486324716.24642 |                 0 |              32 |                328342 |                 6351 |           28694348 |       3239607 |            30732 |        17676955 |                     0 |      13718947 | 2017-02-05 18:10:53.010055+01

 2017-02-05 20:58:37.335536+01 | 1486324717.33554 |                 0 |              32 |                328342 |                 6351 |           28694348 |       3240107 |            30737 |        17676955 |                     0 |      13720979 | 2017-02-05 18:10:53.010055+01

 2017-02-05 20:58:38.420461+01 | 1486324718.42046 |                 0 |              32 |                328342 |                 6351 |           28694348 |       3240607 |            30742 |        17676955 |                     0 |      13722883 | 2017-02-05 18:10:53.010055+01

 2017-02-05 20:58:39.503228+01 | 1486324719.50323 |                 0 |              32 |                328342 |                 6351 |           28694348 |       3241207 |            30748 |        17676955 |                     0 |      13725203 | 2017-02-05 18:10:53.010055+01

 2017-02-05 20:58:40.589119+01 | 1486324720.58912 |                 0 |              32 |                328342 |                 6351 |           28694348 |       3241707 |            30753 |        17676955 |                     0 |      13726902 | 2017-02-05 18:10:53.010055+01

 2017-02-05 20:58:41.667908+01 | 1486324721.66791 |                 0 |              32 |                328342 |                 6351 |           28694348 |       3242207 |            30758 |        17676955 |                     0 |      13728846 | 2017-02-05 18:10:53.010055+01

 2017-02-05 20:58:42.746038+01 | 1486324722.74604 |                 0 |              32 |                328342 |                 6351 |           28694348 |       3242807 |            30764 |        17676955 |                     0 |      13731043 | 2017-02-05 18:10:53.010055+01

 2017-02-05 20:58:43.82653+01 | 1486324723.82653 |                 0 |              32 |                328342 |                 6351 |           28694348 |       3243307 |            30769 |        17676955 |                     0 |      13733048 | 2017-02-05 18:10:53.010055+01

 2017-02-05 20:58:44.910765+01 | 1486324724.91076 |                 0 |              32 |                328342 |                 6351 |           28694348 |       3243807 |            30774 |        17676955 |                     0 |      13735112 | 2017-02-05 18:10:53.010055+01

 2017-02-05 20:58:45.994766+01 | 1486324725.99477 |                 0 |              32 |                328342 |                 6351 |           28694348 |       3244407 |            30780 |        17676955 |                     0 |      13737296 | 2017-02-05 18:10:53.010055+01

 2017-02-05 20:58:47.075418+01 | 1486324727.07542 |                 0 |              32 |                328342 |                 6351 |           28694348 |       3244907 |            30785 |        17676955 |                     0 |      13739250 | 2017-02-05 18:10:53.010055+01

 2017-02-05 20:58:48.156778+01 | 1486324728.15678 |                 0 |              32 |                328342 |                 6351 |           28694348 |       3245407 |            30790 |        17676955 |                     0 |      13740830 | 2017-02-05 18:10:53.010055+01

 2017-02-05 20:58:49.244713+01 | 1486324729.24471 |                 0 |              32 |                328342 |                 6351 |           28694348 |       3246007 |            30796 |        17676955 |                     0 |      13743195 | 2017-02-05 18:10:53.010055+01

 2017-02-05 20:58:50.335418+01 | 1486324730.33542 |                 0 |              32 |                328342 |                 6351 |           28694348 |       3246507 |            30801 |        17676955 |                     0 |      13745251 | 2017-02-05 18:10:53.010055+01

 2017-02-05 20:58:51.425142+01 | 1486324731.42514 |                 0 |              32 |                328342 |                 6351 |           28694348 |       3247107 |            30807 |        17676955 |                     0 |      13747611 | 2017-02-05 18:10:53.010055+01

 2017-02-05 20:58:52.517139+01 | 1486324732.51714 |                 0 |              32 |                328342 |                 6351 |           28694348 |       3247607 |            30812 |        17676955 |                     0 |      13749722 | 2017-02-05 18:10:53.010055+01

 2017-02-05 20:58:53.598112+01 | 1486324733.59811 |                 0 |              32 |                328342 |                 6351 |           28694348 |       3248107 |            30817 |        17676955 |                     0 |      13751156 | 2017-02-05 18:10:53.010055+01

 2017-02-05 20:58:54.677036+01 | 1486324734.67704 |                 0 |              32 |                328342 |                 6351 |           28694348 |       3248707 |            30823 |        17676955 |                     0 |      13753574 | 2017-02-05 18:10:53.010055+01

 2017-02-05 20:58:55.754582+01 | 1486324735.75458 |                 0 |              32 |                328342 |                 6351 |           28694348 |       3249207 |            30828 |        17676955 |                     0 |      13755725 | 2017-02-05 18:10:53.010055+01

 2017-02-05 20:58:56.834052+01 | 1486324736.83405 |                 0 |              32 |                328342 |                 6351 |           28694348 |       3249707 |            30833 |        17676955 |                     0 |      13757538 | 2017-02-05 18:10:53.010055+01

 2017-02-05 20:58:57.913237+01 | 1486324737.91324 |                 0 |              32 |                328342 |                 6351 |           28694348 |       3250307 |            30839 |        17676955 |                     0 |      13759802 | 2017-02-05 18:10:53.010055+01

 2017-02-05 20:58:58.996128+01 | 1486324738.99613 |                 0 |              32 |                328342 |                 6351 |           28694348 |       3250807 |            30844 |        17676955 |                     0 |      13761506 | 2017-02-05 18:10:53.010055+01

 2017-02-05 20:59:00.076377+01 | 1486324740.07638 |                 0 |              32 |                328342 |                 6351 |           28694348 |       3251307 |            30849 |        17676955 |                     0 |      13763644 | 2017-02-05 18:10:53.010055+01

 2017-02-05 20:59:01.159118+01 | 1486324741.15912 |                 0 |              32 |                328342 |                 6351 |           28694348 |       3251907 |            30855 |        17676955 |                     0 |      13766051 | 2017-02-05 18:10:53.010055+01

 2017-02-05 20:59:02.243969+01 | 1486324742.24397 |                 0 |              32 |                328342 |                 6351 |           28694348 |       3252407 |            30860 |        17676955 |                     0 |      13768291 | 2017-02-05 18:10:53.010055+01

 2017-02-05 20:59:03.336262+01 | 1486324743.33626 |                 0 |              32 |                328342 |                 6351 |           28694348 |       3253007 |            30866 |        17676955 |                     0 |      13770648 | 2017-02-05 18:10:53.010055+01

 2017-02-05 20:59:04.424728+01 | 1486324744.42473 |                 0 |              32 |                328342 |                 6351 |           28694348 |       3253507 |            30871 |        17676955 |                     0 |      13772466 | 2017-02-05 18:10:53.010055+01

 2017-02-05 20:59:05.510551+01 | 1486324745.51055 |                 0 |              32 |                328342 |                 6351 |           28694348 |       3254007 |            30876 |        17676955 |                     0 |      13774590 | 2017-02-05 18:10:53.010055+01

 2017-02-05 20:59:06.590895+01 | 1486324746.59089 |                 0 |              32 |                328342 |                 6351 |           28694348 |       3254607 |            30882 |        17676955 |                     0 |      13776996 | 2017-02-05 18:10:53.010055+01

 2017-02-05 20:59:07.670596+01 | 1486324747.6706 |                 0 |              32 |                328342 |                 6351 |           28694348 |       3255107 |            30887 |        17676955 |                     0 |      13779308 | 2017-02-05 18:10:53.010055+01

 2017-02-05 20:59:08.747265+01 | 1486324748.74727 |                 0 |              32 |                328342 |                 6351 |           28694348 |       3255607 |            30892 |        17676955 |                     0 |      13781130 | 2017-02-05 18:10:53.010055+01

 2017-02-05 20:59:09.829099+01 | 1486324749.8291 |                 0 |              32 |                328342 |                 6351 |           28694348 |       3256207 |            30898 |        17676955 |                     0 |      13783485 | 2017-02-05 18:10:53.010055+01

 2017-02-05 20:59:10.907579+01 | 1486324750.90758 |                 0 |              32 |                328342 |                 6351 |           28694348 |       3256707 |            30903 |        17676955 |                     0 |      13785435 | 2017-02-05 18:10:53.010055+01

 2017-02-05 20:59:11.988129+01 | 1486324751.98813 |                 0 |              32 |                328342 |                 6351 |           28694348 |       3257207 |            30908 |        17676955 |                     0 |      13787208 | 2017-02-05 18:10:53.010055+01

 2017-02-05 20:59:13.066424+01 | 1486324753.06642 |                 0 |              32 |                328342 |                 6351 |           28694348 |       3257807 |            30914 |        17676955 |                     0 |      13789617 | 2017-02-05 18:10:53.010055+01

 2017-02-05 20:59:14.149636+01 | 1486324754.14964 |                 0 |              32 |                328342 |                 6351 |           28694348 |       3258307 |            30919 |        17676955 |                     0 |      13791591 | 2017-02-05 18:10:53.010055+01

 2017-02-05 20:59:15.243496+01 | 1486324755.2435 |                 0 |              32 |                328342 |                 6351 |           28694348 |       3258807 |            30924 |        17676955 |                     0 |      13793604 | 2017-02-05 18:10:53.010055+01

 2017-02-05 20:59:16.334423+01 | 1486324756.33442 |                 0 |              32 |                328342 |                 6351 |           28694348 |       3259407 |            30930 |        17676955 |                     0 |      13795618 | 2017-02-05 18:10:53.010055+01

 2017-02-05 20:59:17.419775+01 | 1486324757.41978 |                 0 |              32 |                328342 |                 6351 |           28694348 |       3259907 |            30935 |        17676955 |                     0 |      13798094 | 2017-02-05 18:10:53.010055+01

 2017-02-05 20:59:18.502868+01 | 1486324758.50287 |                 0 |              32 |                328342 |                 6351 |           28694348 |       3260507 |            30941 |        17676955 |                     0 |      13800210 | 2017-02-05 18:10:53.010055+01

 2017-02-05 20:59:19.598308+01 | 1486324759.59831 |                 0 |              32 |                328342 |                 6351 |           28694348 |       3261007 |            30946 |        17676955 |                     0 |      13801979 | 2017-02-05 18:10:53.010055+01

 2017-02-05 20:59:20.679595+01 | 1486324760.67959 |                 0 |              32 |                328342 |                 6351 |           28694348 |       3261507 |            30951 |        17676955 |                     0 |      13804066 | 2017-02-05 18:10:53.010055+01

 2017-02-05 20:59:21.755377+01 | 1486324761.75538 |                 0 |              32 |                328342 |                 6351 |           28694348 |       3262107 |            30957 |        17676955 |                     0 |      13806594 | 2017-02-05 18:10:53.010055+01

 2017-02-05 20:59:22.834949+01 | 1486324762.83495 |                 0 |              32 |                328342 |                 6351 |           28694348 |       3262607 |            30962 |        17676955 |                     0 |      13808661 | 2017-02-05 18:10:53.010055+01

 2017-02-05 20:59:23.910522+01 | 1486324763.91052 |                 0 |              32 |                328342 |                 6351 |           28694348 |       3263107 |            30967 |        17676955 |                     0 |      13810301 | 2017-02-05 18:10:53.010055+01

 2017-02-05 20:59:24.994674+01 | 1486324764.99467 |                 0 |              32 |                328342 |                 6351 |           28694348 |       3263707 |            30973 |        17676955 |                     0 |      13813076 | 2017-02-05 18:10:53.010055+01

 2017-02-05 20:59:26.079306+01 | 1486324766.07931 |                 0 |              32 |                328342 |                 6351 |           28694348 |       3264207 |            30978 |        17676955 |                     0 |      13815004 | 2017-02-05 18:10:53.010055+01

 2017-02-05 20:59:27.172541+01 | 1486324767.17254 |                 0 |              32 |                328342 |                 6351 |           28694348 |       3264807 |            30984 |        17676955 |                     0 |      13817584 | 2017-02-05 18:10:53.010055+01

 2017-02-05 20:59:28.262327+01 | 1486324768.26233 |                 0 |              32 |                328342 |                 6351 |           28694348 |       3265307 |            30989 |        17676955 |                     0 |      13819551 | 2017-02-05 18:10:53.010055+01

 2017-02-05 20:59:29.350629+01 | 1486324769.35063 |                 0 |              32 |                328342 |                 6351 |           28694348 |       3265807 |            30994 |        17676955 |                     0 |      13821682 | 2017-02-05 18:10:53.010055+01

 2017-02-05 20:59:30.43376+01 | 1486324770.43376 |                 0 |              32 |                328342 |                 6351 |           28694348 |       3266407 |            31000 |        17676955 |                     0 |      13823754 | 2017-02-05 18:10:53.010055+01

 2017-02-05 20:59:31.518164+01 | 1486324771.51816 |                 0 |              32 |                328342 |                 6351 |           28694348 |       3266907 |            31005 |        17676955 |                     0 |      13825941 | 2017-02-05 18:10:53.010055+01

 2017-02-05 20:59:32.606063+01 | 1486324772.60606 |                 0 |              32 |                328342 |                 6351 |           28694348 |       3267407 |            31010 |        17676955 |                     0 |      13828404 | 2017-02-05 18:10:53.010055+01

 2017-02-05 20:59:33.684677+01 | 1486324773.68468 |                 0 |              32 |                328342 |                 6351 |           28694348 |       3268007 |            31016 |        17676955 |                     0 |      13830640 | 2017-02-05 18:10:53.010055+01

 2017-02-05 20:59:34.763301+01 | 1486324774.7633 |                 0 |              32 |                328342 |                 6351 |           28694348 |       3268507 |            31021 |        17676955 |                     0 |      13832787 | 2017-02-05 18:10:53.010055+01

 2017-02-05 20:59:35.843319+01 | 1486324775.84332 |                 0 |              32 |                328342 |                 6351 |           28694348 |       3269107 |            31027 |        17676955 |                     0 |      13834955 | 2017-02-05 18:10:53.010055+01

 2017-02-05 20:59:36.922206+01 | 1486324776.92221 |                 0 |              32 |                328342 |                 6351 |           28694348 |       3269607 |            31032 |        17676955 |                     0 |      13836554 | 2017-02-05 18:10:53.010055+01

 2017-02-05 20:59:37.998372+01 | 1486324777.99837 |                 0 |              32 |                328342 |                 6351 |           28694348 |       3270107 |            31037 |        17676955 |                     0 |      13838096 | 2017-02-05 18:10:53.010055+01

 2017-02-05 20:59:39.075052+01 | 1486324779.07505 |                 0 |              32 |                328342 |                 6351 |           28694348 |       3270707 |            31043 |        17676955 |                     0 |      13840383 | 2017-02-05 18:10:53.010055+01

 2017-02-05 20:59:40.158133+01 | 1486324780.15813 |                 0 |              32 |                328342 |                 6351 |           28694348 |       3271207 |            31048 |        17676955 |                     0 |      13842659 | 2017-02-05 18:10:53.010055+01

 2017-02-05 20:59:41.248592+01 | 1486324781.24859 |                 0 |              32 |                328342 |                 6351 |           28694348 |       3271707 |            31053 |        17676955 |                     0 |      13844017 | 2017-02-05 18:10:53.010055+01

 2017-02-05 20:59:42.334814+01 | 1486324782.33481 |                 0 |              32 |                328342 |                 6351 |           28694348 |       3272307 |            31059 |        17676955 |                     0 |      13846028 | 2017-02-05 18:10:53.010055+01

 2017-02-05 20:59:43.418243+01 | 1486324783.41824 |                 0 |              32 |                328342 |                 6351 |           28694348 |       3272807 |            31064 |        17676955 |                     0 |      13847864 | 2017-02-05 18:10:53.010055+01

 2017-02-05 20:59:44.514274+01 | 1486324784.51427 |                 0 |              32 |                328342 |                 6351 |           28694348 |       3273307 |            31069 |        17676955 |                     0 |      13849679 | 2017-02-05 18:10:53.010055+01

 2017-02-05 20:59:45.617504+01 | 1486324785.6175 |                 0 |              32 |                328342 |                 6351 |           28694348 |       3273907 |            31075 |        17676955 |                     0 |      13851465 | 2017-02-05 18:10:53.010055+01

 2017-02-05 20:59:46.698463+01 | 1486324786.69846 |                 0 |              32 |                328342 |                 6351 |           28694348 |       3274407 |            31080 |        17676955 |                     0 |      13853503 | 2017-02-05 18:10:53.010055+01

 2017-02-05 20:59:47.778932+01 | 1486324787.77893 |                 0 |              32 |                328342 |                 6351 |           28694348 |       3275007 |            31086 |        17676955 |                     0 |      13856158 | 2017-02-05 18:10:53.010055+01

 2017-02-05 20:59:48.856698+01 | 1486324788.8567 |                 0 |              32 |                328342 |                 6351 |           28694348 |       3275507 |            31091 |        17676955 |                     0 |      13858037 | 2017-02-05 18:10:53.010055+01

 2017-02-05 20:59:49.937019+01 | 1486324789.93702 |                 0 |              32 |                328342 |                 6351 |           28694348 |       3276007 |            31096 |        17676955 |                     0 |      13860191 | 2017-02-05 18:10:53.010055+01

 2017-02-05 20:59:51.018605+01 | 1486324791.0186 |                 0 |              32 |                328342 |                 6351 |           28694348 |       3276607 |            31102 |        17676955 |                     0 |      13862858 | 2017-02-05 18:10:53.010055+01

 2017-02-05 20:59:52.100176+01 | 1486324792.10018 |                 0 |              32 |                328342 |                 6351 |           28694348 |       3277107 |            31107 |        17676955 |                     0 |      13864609 | 2017-02-05 18:10:53.010055+01

 2017-02-05 20:59:53.183472+01 | 1486324793.18347 |                 0 |              32 |                328342 |                 6351 |           28694348 |       3277607 |            31112 |        17676955 |                     0 |      13866092 | 2017-02-05 18:10:53.010055+01

 2017-02-05 20:59:54.267431+01 | 1486324794.26743 |                 0 |              32 |                328342 |                 6351 |           28694348 |       3278207 |            31118 |        17676955 |                     0 |      13868490 | 2017-02-05 18:10:53.010055+01

 2017-02-05 20:59:55.357477+01 | 1486324795.35748 |                 0 |              32 |                328342 |                 6351 |           28694348 |       3278707 |            31123 |        17676955 |                     0 |      13870678 | 2017-02-05 18:10:53.010055+01

 2017-02-05 20:59:56.43902+01 | 1486324796.43902 |                 0 |              32 |                328342 |                 6351 |           28694348 |       3279207 |            31128 |        17676955 |                     0 |      13872746 | 2017-02-05 18:10:53.010055+01

 2017-02-05 20:59:57.525138+01 | 1486324797.52514 |                 0 |              32 |                328342 |                 6351 |           28694348 |       3279807 |            31134 |        17676955 |                     0 |      13875036 | 2017-02-05 18:10:53.010055+01

 2017-02-05 20:59:58.610924+01 | 1486324798.61092 |                 0 |              32 |                328342 |                 6351 |           28694348 |       3280307 |            31139 |        17676955 |                     0 |      13877069 | 2017-02-05 18:10:53.010055+01

 2017-02-05 20:59:59.693801+01 | 1486324799.6938 |                 0 |              32 |                328342 |                 6351 |           28694348 |       3280907 |            31145 |        17676955 |                     0 |      13879507 | 2017-02-05 18:10:53.010055+01

 2017-02-05 21:00:00.771429+01 | 1486324800.77143 |                 0 |              32 |                328342 |                 6351 |           28694348 |       3281407 |            31150 |        17676955 |                     0 |      13881734 | 2017-02-05 18:10:53.010055+01

 2017-02-05 21:00:01.851784+01 | 1486324801.85178 |                 0 |              32 |                328342 |                 6351 |           28694348 |       3281907 |            31155 |        17676955 |                     0 |      13883700 | 2017-02-05 18:10:53.010055+01

 2017-02-05 21:00:02.931784+01 | 1486324802.93178 |                 0 |              32 |                328342 |                 6351 |           28694348 |       3282507 |            31161 |        18115547 |                     0 |      13886220 | 2017-02-05 18:10:53.010055+01

 2017-02-05 21:00:04.009159+01 | 1486324804.00916 |                 0 |              32 |                328342 |                 6351 |           28694348 |       3283007 |            31166 |        18115547 |                     0 |      13888729 | 2017-02-05 18:10:53.010055+01

 2017-02-05 21:00:05.089556+01 | 1486324805.08956 |                 0 |              32 |                328342 |                 6351 |           28694348 |       3283507 |            31171 |        18115547 |                     0 |      13890473 | 2017-02-05 18:10:53.010055+01

 2017-02-05 21:00:06.174292+01 | 1486324806.17429 |                 0 |              32 |                328342 |                 6351 |           28694348 |       3284107 |            31177 |        18115547 |                     0 |      13893058 | 2017-02-05 18:10:53.010055+01

 2017-02-05 21:00:07.263947+01 | 1486324807.26395 |                 0 |              32 |                328342 |                 6351 |           28694348 |       3284607 |            31182 |        18115547 |                     0 |      13895184 | 2017-02-05 18:10:53.010055+01

 2017-02-05 21:00:08.356194+01 | 1486324808.35619 |                 0 |              32 |                328342 |                 6351 |           28694348 |       3285207 |            31188 |        18115547 |                     0 |      13897731 | 2017-02-05 18:10:53.010055+01

 2017-02-05 21:00:09.437478+01 | 1486324809.43748 |                 0 |              32 |                328342 |                 6351 |           28694348 |       3285707 |            31193 |        18115547 |                     0 |      13899848 | 2017-02-05 18:10:53.010055+01

 2017-02-05 21:00:10.52568+01 | 1486324810.52568 |                 0 |              32 |                328342 |                 6351 |           28694348 |       3286207 |            31198 |        18115547 |                     0 |      13901953 | 2017-02-05 18:10:53.010055+01

 2017-02-05 21:00:11.60992+01 | 1486324811.60992 |                 0 |              32 |                328342 |                 6351 |           28694348 |       3286807 |            31204 |        18115547 |                     0 |      13904413 | 2017-02-05 18:10:53.010055+01

 2017-02-05 21:00:12.692143+01 | 1486324812.69214 |                 0 |              32 |                328342 |                 6351 |           28694348 |       3287307 |            31209 |        18115547 |                     0 |      13905804 | 2017-02-05 18:10:53.010055+01

 2017-02-05 21:00:13.773366+01 | 1486324813.77337 |                 0 |              32 |                328342 |                 6351 |           28694348 |       3287807 |            31214 |        18115547 |                     0 |      13907760 | 2017-02-05 18:10:53.010055+01

 2017-02-05 21:00:14.859733+01 | 1486324814.85973 |                 0 |              32 |                328342 |                 6351 |           28694348 |       3288407 |            31220 |        18115547 |                     0 |      13910062 | 2017-02-05 18:10:53.010055+01

 2017-02-05 21:00:15.940603+01 | 1486324815.9406 |                 0 |              32 |                328342 |                 6351 |           28694348 |       3288907 |            31225 |        18115547 |                     0 |      13911873 | 2017-02-05 18:10:53.010055+01

 2017-02-05 21:00:17.006114+01 | 1486324817.00611 |                 0 |              32 |                328342 |                 6351 |           28694348 |       3289207 |            31228 |        18115547 |                     0 |      13912982 | 2017-02-05 18:10:53.010055+01

 2017-02-05 21:00:18.085593+01 | 1486324818.08559 |                 0 |              32 |                328342 |                 6351 |           28694348 |       3290007 |            31236 |        18115547 |                     0 |      13915715 | 2017-02-05 18:10:53.010055+01

 2017-02-05 21:00:19.16604+01 | 1486324819.16604 |                 0 |              32 |                328342 |                 6351 |           28694348 |       3290507 |            31241 |        18115547 |                     0 |      13917717 | 2017-02-05 18:10:53.010055+01

 2017-02-05 21:00:20.249014+01 | 1486324820.24901 |                 0 |              32 |                328342 |                 6351 |           28694348 |       3291007 |            31246 |        18115547 |                     0 |      13919771 | 2017-02-05 18:10:53.010055+01

 2017-02-05 21:00:21.33414+01 | 1486324821.33414 |                 0 |              32 |                328342 |                 6351 |           28694348 |       3291607 |            31252 |        18115547 |                     0 |      13921894 | 2017-02-05 18:10:53.010055+01

 2017-02-05 21:00:22.426456+01 | 1486324822.42646 |                 0 |              32 |                328342 |                 6351 |           28694348 |       3292107 |            31257 |        18115547 |                     0 |      13924000 | 2017-02-05 18:10:53.010055+01

 2017-02-05 21:00:23.516156+01 | 1486324823.51616 |                 0 |              32 |                328342 |                 6351 |           28694348 |       3292707 |            31263 |        18115547 |                     0 |      13926484 | 2017-02-05 18:10:53.010055+01

 2017-02-05 21:00:24.612775+01 | 1486324824.61278 |                 0 |              32 |                328342 |                 6351 |           28694348 |       3293207 |            31268 |        18115547 |                     0 |      13928697 | 2017-02-05 18:10:53.010055+01

 2017-02-05 21:00:25.689525+01 | 1486324825.68952 |                 0 |              32 |                328342 |                 6351 |           28694348 |       3293707 |            31273 |        18115547 |                     0 |      13930713 | 2017-02-05 18:10:53.010055+01

 2017-02-05 21:00:26.76638+01 | 1486324826.76638 |                 0 |              32 |                328342 |                 6351 |           28694348 |       3294307 |            31279 |        18115547 |                     0 |      13933267 | 2017-02-05 18:10:53.010055+01

 2017-02-05 21:00:27.844156+01 | 1486324827.84416 |                 0 |              32 |                328342 |                 6351 |           28694348 |       3294807 |            31284 |        18115547 |                     0 |      13935386 | 2017-02-05 18:10:53.010055+01

 2017-02-05 21:00:28.930095+01 | 1486324828.93009 |                 0 |              32 |                328342 |                 6351 |           28694348 |       3295307 |            31289 |        18115547 |                     0 |      13937463 | 2017-02-05 18:10:53.010055+01

 2017-02-05 21:00:30.010256+01 | 1486324830.01026 |                 0 |              32 |                328342 |                 6351 |           28694348 |       3295907 |            31295 |        18115547 |                     0 |      13940287 | 2017-02-05 18:10:53.010055+01

 2017-02-05 21:00:31.0871+01 | 1486324831.0871 |                 0 |              32 |                328342 |                 6351 |           28694348 |       3296407 |            31300 |        18115547 |                     0 |      13942286 | 2017-02-05 18:10:53.010055+01

 2017-02-05 21:00:32.16825+01 | 1486324832.16825 |                 0 |              32 |                328342 |                 6351 |           28694348 |       3296907 |            31305 |        18115547 |                     0 |      13944434 | 2017-02-05 18:10:53.010055+01

 2017-02-05 21:00:33.259851+01 | 1486324833.25985 |                 0 |              32 |                328342 |                 6351 |           28694348 |       3297507 |            31311 |        18115547 |                     0 |      13946846 | 2017-02-05 18:10:53.010055+01

 2017-02-05 21:00:34.346007+01 | 1486324834.34601 |                 0 |              32 |                328342 |                 6351 |           28694348 |       3298007 |            31316 |        18115547 |                     0 |      13948816 | 2017-02-05 18:10:53.010055+01

 2017-02-05 21:00:35.427564+01 | 1486324835.42756 |                 0 |              32 |                328342 |                 6351 |           28694348 |       3298607 |            31322 |        18115547 |                     0 |      13951094 | 2017-02-05 18:10:53.010055+01

 2017-02-05 21:00:36.517691+01 | 1486324836.51769 |                 0 |              32 |                328342 |                 6351 |           28694348 |       3299107 |            31327 |        18115547 |                     0 |      13953251 | 2017-02-05 18:10:53.010055+01

 2017-02-05 21:00:37.605763+01 | 1486324837.60576 |                 0 |              32 |                328342 |                 6351 |           28694348 |       3299607 |            31332 |        18115547 |                     0 |      13955276 | 2017-02-05 18:10:53.010055+01

 2017-02-05 21:00:38.695818+01 | 1486324838.69582 |                 0 |              32 |                328342 |                 6351 |           28694348 |       3300207 |            31338 |        18115547 |                     0 |      13958055 | 2017-02-05 18:10:53.010055+01

 2017-02-05 21:00:39.782035+01 | 1486324839.78204 |                 0 |              32 |                328342 |                 6351 |           28694348 |       3300707 |            31343 |        18115547 |                     0 |      13959945 | 2017-02-05 18:10:53.010055+01

 2017-02-05 21:00:40.860965+01 | 1486324840.86097 |                 0 |              32 |                328342 |                 6351 |           28694348 |       3301307 |            31349 |        18115547 |                     0 |      13962614 | 2017-02-05 18:10:53.010055+01

 2017-02-05 21:00:41.947678+01 | 1486324841.94768 |                 0 |              32 |                328342 |                 6351 |           28694348 |       3301807 |            31354 |        18115547 |                     0 |      13964772 | 2017-02-05 18:10:53.010055+01

 2017-02-05 21:00:43.028067+01 | 1486324843.02807 |                 0 |              32 |                328342 |                 6351 |           28694348 |       3302307 |            31359 |        18115547 |                     0 |      13966840 | 2017-02-05 18:10:53.010055+01

 2017-02-05 21:00:44.10524+01 | 1486324844.10524 |                 0 |              32 |                328342 |                 6351 |           28694348 |       3302907 |            31365 |        18115547 |                     0 |      13969500 | 2017-02-05 18:10:53.010055+01

 2017-02-05 21:00:45.190465+01 | 1486324845.19046 |                 0 |              32 |                328342 |                 6351 |           28694348 |       3303407 |            31370 |        18115547 |                     0 |      13971608 | 2017-02-05 18:10:53.010055+01

 2017-02-05 21:00:46.282631+01 | 1486324846.28263 |                 0 |              32 |                328342 |                 6351 |           28694348 |       3303907 |            31375 |        18115547 |                     0 |      13973832 | 2017-02-05 18:10:53.010055+01

 2017-02-05 21:00:47.367749+01 | 1486324847.36775 |                 0 |              32 |                328342 |                 6351 |           28694348 |       3304507 |            31381 |        18115547 |                     0 |      13976500 | 2017-02-05 18:10:53.010055+01

 2017-02-05 21:00:48.459461+01 | 1486324848.45946 |                 0 |              32 |                328342 |                 6351 |           28694348 |       3305007 |            31386 |        18115547 |                     0 |      13978576 | 2017-02-05 18:10:53.010055+01

 2017-02-05 21:00:49.547551+01 | 1486324849.54755 |                 0 |              32 |                328342 |                 6351 |           28694348 |       3305607 |            31392 |        18115547 |                     0 |      13981022 | 2017-02-05 18:10:53.010055+01

 2017-02-05 21:00:50.645392+01 | 1486324850.64539 |                 0 |              32 |                328342 |                 6351 |           28694348 |       3306107 |            31397 |        18115547 |                     0 |      13983319 | 2017-02-05 18:10:53.010055+01

 2017-02-05 21:00:51.73124+01 | 1486324851.73124 |                 0 |              32 |                328342 |                 6351 |           28694348 |       3306607 |            31402 |        18115547 |                     0 |      13985672 | 2017-02-05 18:10:53.010055+01

 2017-02-05 21:00:52.807443+01 | 1486324852.80744 |                 0 |              32 |                328342 |                 6351 |           28694348 |       3307207 |            31408 |        18115547 |                     0 |      13988195 | 2017-02-05 18:10:53.010055+01

