 2017-02-04 00:39:36.328959+01 | 1486165176.32896 | 8/3C69CA0                |           34423086240

 2017-02-04 00:39:37.410572+01 | 1486165177.41057 | 8/EF189F0                |           34610448880

 2017-02-04 00:39:38.484348+01 | 1486165178.48435 | 8/1AB7E2D0               |           34807997136

 2017-02-04 00:39:39.558566+01 | 1486165179.55857 | 8/26CF31E8               |           35010851304

 2017-02-04 00:39:40.637604+01 | 1486165180.6376 | 8/32EB0DB8               |           35214003640

 2017-02-04 00:39:41.705597+01 | 1486165181.7056 | 8/3E7A1458               |           35407926360

 2017-02-04 00:39:42.7735+01 | 1486165182.7735 | 8/4A3A7598               |           35605083544

 2017-02-04 00:39:43.850705+01 | 1486165183.8507 | 8/561B0CC0               |           35804351680

 2017-02-04 00:39:44.93196+01 | 1486165184.93196 | 8/61C36F30               |           35999936304

 2017-02-04 00:39:46.007653+01 | 1486165186.00765 | 8/6CB5D8B8               |           36183595192

 2017-02-04 00:39:47.082728+01 | 1486165187.08273 | 8/77594DA8               |           36362079656

 2017-02-04 00:39:48.157366+01 | 1486165188.15737 | 8/821ADA40               |           36542536256

 2017-02-04 00:39:49.236942+01 | 1486165189.23694 | 8/8CE766C8               |           36723713736

 2017-02-04 00:39:50.314794+01 | 1486165190.31479 | 8/94DA8260               |           36857086560

 2017-02-04 00:39:51.396036+01 | 1486165191.39604 | 8/9DD1E4B8               |           37007516856

 2017-02-04 00:39:52.478212+01 | 1486165192.47821 | 8/A69FECA0               |           37155237024

 2017-02-04 00:39:53.560173+01 | 1486165193.56017 | 8/AFBDC738               |           37308188472

 2017-02-04 00:39:54.63546+01 | 1486165194.63546 | 8/B95DC638               |           37469668920

 2017-02-04 00:39:55.72318+01 | 1486165195.72318 | 8/C2757008               |           37622214664

 2017-02-04 00:39:56.802284+01 | 1486165196.80228 | 8/CC0FAB70               |           37783317360

 2017-02-04 00:39:57.874412+01 | 1486165197.87441 | 8/D5FE76F0               |           37949961968

 2017-02-04 00:39:58.945663+01 | 1486165198.94566 | 8/DFD519E8               |           38115023336

 2017-02-04 00:40:00.023716+01 | 1486165200.02372 | 8/E9147A58               |           38270171736

 2017-02-04 00:40:01.109931+01 | 1486165201.10993 | 8/F24A87E8               |           38424709096

 2017-02-04 00:40:02.183798+01 | 1486165202.1838 | 8/FB4C4098               |           38575816856

 2017-02-04 00:40:03.259921+01 | 1486165203.25992 | 9/430A2C8                |           38725001928

 2017-02-04 00:40:04.338972+01 | 1486165204.33897 | 9/CF32530                |           38871967024

 2017-02-04 00:40:05.414871+01 | 1486165205.41487 | 9/15F71DE8               |           39023222248

 2017-02-04 00:40:06.48772+01 | 1486165206.48772 | 9/1ED77B10               |           39172143888

 2017-02-04 00:40:07.557134+01 | 1486165207.55713 | 9/269BD070               |           39302451312

 2017-02-04 00:40:08.63388+01 | 1486165208.63388 | 9/2F913C00               |           39452752896

 2017-02-04 00:40:09.71737+01 | 1486165209.71737 | 9/38476A98               |           39598910104

 2017-02-04 00:40:10.80156+01 | 1486165210.80156 | 9/405E9498               |           39734645912

 2017-02-04 00:40:11.877957+01 | 1486165211.87796 | 9/48E27298               |           39877505688

 2017-02-04 00:40:12.952095+01 | 1486165212.9521 | 9/51064000               |           40014069760

 2017-02-04 00:40:14.029406+01 | 1486165214.02941 | 9/58A4AE40               |           40141893184

 2017-02-04 00:40:15.102468+01 | 1486165215.10247 | 9/608BD9E0               |           40274483680

 2017-02-04 00:40:16.179953+01 | 1486165216.17995 | 9/68679930               |           40406325552

 2017-02-04 00:40:17.264984+01 | 1486165217.26498 | 9/6E09B718               |           40500836120

 2017-02-04 00:40:18.344788+01 | 1486165218.34479 | 9/73DEA460               |           40598676576

 2017-02-04 00:40:19.421031+01 | 1486165219.42103 | 9/7B912BD0               |           40727817168

 2017-02-04 00:40:20.498217+01 | 1486165220.49822 | 9/82FE75F8               |           40852420088

 2017-02-04 00:40:21.568412+01 | 1486165221.56841 | 9/8972D880               |           40960710784

 2017-02-04 00:40:22.645043+01 | 1486165222.64504 | 9/8FF29270               |           41069744752

 2017-02-04 00:40:23.720546+01 | 1486165223.72055 | 9/96223008               |           41173528584

 2017-02-04 00:40:24.792744+01 | 1486165224.79274 | 9/9CD6E378               |           41286034296

 2017-02-04 00:40:25.869129+01 | 1486165225.86913 | 9/A2C595A8               |           41385563560

 2017-02-04 00:40:26.95168+01 | 1486165226.95168 | 9/A9B3E690               |           41501845136

 2017-02-04 00:40:28.031804+01 | 1486165228.0318 | 9/AFE59ED0               |           41605766864

 2017-02-04 00:40:29.107891+01 | 1486165229.10789 | 9/B5EA8230               |           41706750512

 2017-02-04 00:40:30.182635+01 | 1486165230.18264 | 9/BC119990               |           41809975696

 2017-02-04 00:40:31.256679+01 | 1486165231.25668 | 9/C18299A0               |           41901267360

 2017-02-04 00:40:32.338793+01 | 1486165232.33879 | 9/C6546438               |           41982125112

 2017-02-04 00:40:33.42091+01 | 1486165233.42091 | 9/CAEC4550               |           42059187536

 2017-02-04 00:40:34.508347+01 | 1486165234.50835 | 9/CF7A8718               |           42135619352

 2017-02-04 00:40:35.596371+01 | 1486165235.59637 | 9/D40752C0               |           42211955392

 2017-02-04 00:40:36.670036+01 | 1486165236.67004 | 9/D843DDC0               |           42283032000

 2017-02-04 00:40:37.751953+01 | 1486165237.75195 | 9/DC7A7738               |           42353719096

 2017-02-04 00:40:38.830695+01 | 1486165238.83069 | 9/E10E8900               |           42430531840

 2017-02-04 00:40:39.910277+01 | 1486165239.91028 | 9/E56056B8               |           42503001784

 2017-02-04 00:40:40.99401+01 | 1486165240.99401 | 9/E9ADB238               |           42575180344

 2017-02-04 00:40:42.05569+01 | 1486165242.05569 | 9/EE8AAB80               |           42656770944

 2017-02-04 00:40:43.124499+01 | 1486165243.1245 | 9/F2777B60               |           42722622304

 2017-02-04 00:40:44.199458+01 | 1486165244.19946 | 9/F5B68078               |           42777084024

 2017-02-04 00:40:45.272247+01 | 1486165245.27225 | 9/FA596230               |           42854867504

 2017-02-04 00:40:46.346127+01 | 1486165246.34613 | 9/FF4A33B0               |           42937758640

 2017-02-04 00:40:47.423602+01 | 1486165247.4236 | A/3FEB600                |           43016697344

 2017-02-04 00:40:48.497894+01 | 1486165248.49789 | A/8E06F40                |           43098599232

 2017-02-04 00:40:49.579399+01 | 1486165249.5794 | A/DA9D5D8                |           43178907096

 2017-02-04 00:40:50.65494+01 | 1486165250.65494 | A/12666060               |           43258372192

 2017-02-04 00:40:51.736146+01 | 1486165251.73615 | A/16B64050               |           43330715728

 2017-02-04 00:40:52.819623+01 | 1486165252.81962 | A/1A8C9BE0               |           43395095520

 2017-02-04 00:40:53.897577+01 | 1486165253.89758 | A/1E677410               |           43459769360

 2017-02-04 00:40:54.965712+01 | 1486165254.96571 | A/22121EE8               |           43521285864

 2017-02-04 00:40:56.042602+01 | 1486165256.0426 | A/2645E8E0               |           43591788768

 2017-02-04 00:40:57.122978+01 | 1486165257.12298 | A/2A9535E8               |           43664094696

 2017-02-04 00:40:58.195876+01 | 1486165258.19588 | A/2DCB8458               |           43717985368

 2017-02-04 00:40:59.279501+01 | 1486165259.2795 | A/31344510               |           43775182096

 2017-02-04 00:41:00.367274+01 | 1486165260.36727 | A/34FFA138               |           43838841144

 2017-02-04 00:41:01.437021+01 | 1486165261.43702 | A/38B28270               |           43900895856

 2017-02-04 00:41:02.513186+01 | 1486165262.51319 | A/3C225418               |           43958555672

 2017-02-04 00:41:03.591076+01 | 1486165263.59108 | A/3F64B520               |           44013237536

 2017-02-04 00:41:04.67317+01 | 1486165264.67317 | A/423C73D8               |           44060931032

 2017-02-04 00:41:05.751198+01 | 1486165265.7512 | A/45A53440               |           44118127680

 2017-02-04 00:41:06.825222+01 | 1486165266.82522 | A/497F7FC0               |           44182765504

 2017-02-04 00:41:07.899227+01 | 1486165267.89923 | A/4D3D0758               |           44245518168

 2017-02-04 00:41:08.973899+01 | 1486165268.9739 | A/503DBE70               |           44295896688

 2017-02-04 00:41:10.049454+01 | 1486165270.04945 | A/53756640               |           44349875776

 2017-02-04 00:41:11.140032+01 | 1486165271.14003 | A/5650A710               |           44397799184

 2017-02-04 00:41:12.223469+01 | 1486165272.22347 | A/5957FDC8               |           44448611784

 2017-02-04 00:41:13.299395+01 | 1486165273.2994 | A/5C40DFC0               |           44497428416

 2017-02-04 00:41:14.390039+01 | 1486165274.39004 | A/5EC47AC8               |           44539607752

 2017-02-04 00:41:15.475761+01 | 1486165275.47576 | A/61CE5AD8               |           44590586584

 2017-02-04 00:41:16.553923+01 | 1486165276.55392 | A/64FCA798               |           44643952536

 2017-02-04 00:41:17.627017+01 | 1486165277.62702 | A/687D04D8               |           44702696664

 2017-02-04 00:41:18.706047+01 | 1486165278.70605 | A/6BA93F80               |           44755926912

 2017-02-04 00:41:19.790472+01 | 1486165279.79047 | A/6F5D4ED0               |           44818058960

 2017-02-04 00:41:20.874796+01 | 1486165280.8748 | A/72920970               |           44871846256

 2017-02-04 00:41:21.950557+01 | 1486165281.95056 | A/75CB61F0               |           44925936112

 2017-02-04 00:41:23.042598+01 | 1486165283.0426 | A/78A21388               |           44973560712

 2017-02-04 00:41:24.115423+01 | 1486165284.11542 | A/7B932CC8               |           45022915784

 2017-02-04 00:41:25.191264+01 | 1486165285.19126 | A/7EB85510               |           45075682576

 2017-02-04 00:41:26.269257+01 | 1486165286.26926 | A/81AC26A8               |           45125215912

 2017-02-04 00:41:27.345631+01 | 1486165287.34563 | A/84C6EDB0               |           45177302448

 2017-02-04 00:41:28.428253+01 | 1486165288.42825 | A/87BE6BB8               |           45227076536

 2017-02-04 00:41:29.510486+01 | 1486165289.51049 | A/8AF2A9E8               |           45280831976

 2017-02-04 00:41:30.587905+01 | 1486165290.5879 | A/8DF82778               |           45331523448

 2017-02-04 00:41:31.662482+01 | 1486165291.66248 | A/91016408               |           45382460424

 2017-02-04 00:41:32.738779+01 | 1486165292.73878 | A/93F57550               |           45432010064

 2017-02-04 00:41:33.818766+01 | 1486165293.81877 | A/96D29430               |           45480055856

 2017-02-04 00:41:34.897431+01 | 1486165294.89743 | A/99EB9098               |           45532024984

 2017-02-04 00:41:35.977701+01 | 1486165295.9777 | A/9C9E2920               |           45577283872

 2017-02-04 00:41:37.063551+01 | 1486165297.06355 | A/9F76ADA0               |           45625028000

 2017-02-04 00:41:38.152225+01 | 1486165298.15223 | A/A253B580               |           45673067904

 2017-02-04 00:41:39.228229+01 | 1486165299.22823 | A/A5337E28               |           45721288232

 2017-02-04 00:41:40.307468+01 | 1486165300.30747 | A/A8128A28               |           45769460264

 2017-02-04 00:41:41.380549+01 | 1486165301.38055 | A/AA60A230               |           45808132656

 2017-02-04 00:41:42.447561+01 | 1486165302.44756 | A/ACBA84D8               |           45847577816

 2017-02-04 00:41:43.518801+01 | 1486165303.5188 | A/AEE7A280               |           45884088960

 2017-02-04 00:41:44.599424+01 | 1486165304.59942 | A/B12ADD30               |           45922049328

 2017-02-04 00:41:45.674571+01 | 1486165305.67457 | A/B34AC0F0               |           45957693680

 2017-02-04 00:41:46.75251+01 | 1486165306.75251 | A/B58E65B0               |           45995681200

 2017-02-04 00:41:47.827909+01 | 1486165307.82791 | A/B843F7C0               |           46041135040

 2017-02-04 00:41:48.901989+01 | 1486165308.90199 | A/BAC61340               |           46083216192

 2017-02-04 00:41:49.976783+01 | 1486165309.97678 | A/BD357798               |           46124070808

 2017-02-04 00:41:51.050614+01 | 1486165311.05061 | A/BF512988               |           46159440264

 2017-02-04 00:41:52.128392+01 | 1486165312.12839 | A/C1858298               |           46196425368

 2017-02-04 00:41:53.200401+01 | 1486165313.2004 | A/C3912308               |           46230741768

 2017-02-04 00:41:54.272837+01 | 1486165314.27284 | A/C5BCE530               |           46267163952

 2017-02-04 00:41:55.346906+01 | 1486165315.34691 | A/C797D7E8               |           46298290152

 2017-02-04 00:41:56.423251+01 | 1486165316.42325 | A/C9B13B20               |           46333508384

 2017-02-04 00:41:57.499708+01 | 1486165317.49971 | A/CB914F78               |           46364970872

 2017-02-04 00:41:58.574442+01 | 1486165318.57444 | A/CD8E7D48               |           46398340424

 2017-02-04 00:41:59.655664+01 | 1486165319.65566 | A/CF87DC20               |           46431460384

 2017-02-04 00:42:00.736952+01 | 1486165320.73695 | A/D1D88D70               |           46470303088

 2017-02-04 00:42:01.822644+01 | 1486165321.82264 | A/D43196F0               |           46509692656

 2017-02-04 00:42:02.901079+01 | 1486165322.90108 | A/D676CB88               |           46547782536

 2017-02-04 00:42:03.990184+01 | 1486165323.99018 | A/D8CAEE28               |           46586850856

 2017-02-04 00:42:05.066012+01 | 1486165325.06601 | A/DB1E69E0               |           46625876448

 2017-02-04 00:42:06.142951+01 | 1486165326.14295 | A/DD57CA30               |           46663191088

 2017-02-04 00:42:07.227176+01 | 1486165327.22718 | A/DF8001E0               |           46699381216

 2017-02-04 00:42:08.304788+01 | 1486165328.30479 | A/E1C75990               |           46737611152

 2017-02-04 00:42:09.383203+01 | 1486165329.3832 | A/E3AF3190               |           46769582480

 2017-02-04 00:42:10.452865+01 | 1486165330.45286 | A/E5D1F928               |           46805416232

 2017-02-04 00:42:11.530801+01 | 1486165331.5308 | A/E7FFFDF0               |           46841986544

 2017-02-04 00:42:12.604625+01 | 1486165332.60462 | A/EA1B4198               |           46877327768

 2017-02-04 00:42:13.680425+01 | 1486165333.68042 | A/EC516218               |           46914429464

 2017-02-04 00:42:14.755247+01 | 1486165334.75525 | A/EE4C7780               |           46947661696

 2017-02-04 00:42:15.834057+01 | 1486165335.83406 | A/F068F6A8               |           46983083688

 2017-02-04 00:42:16.912086+01 | 1486165336.91209 | A/F26934B0               |           47016654000

 2017-02-04 00:42:17.989598+01 | 1486165337.9896 | A/F49F3038               |           47053746232

 2017-02-04 00:42:19.065552+01 | 1486165339.06555 | A/F6AF33E8               |           47088350184

 2017-02-04 00:42:20.141102+01 | 1486165340.1411 | A/F88C2408               |           47119606792

 2017-02-04 00:42:21.23018+01 | 1486165341.23018 | A/FAB94530               |           47156118832

 2017-02-04 00:42:22.303495+01 | 1486165342.30349 | A/FC9FC7C0               |           47188002752

 2017-02-04 00:42:23.378152+01 | 1486165343.37815 | A/FE985408               |           47221068808

 2017-02-04 00:42:24.452324+01 | 1486165344.45232 | B/8FCD10                 |           47254064400

 2017-02-04 00:42:25.527809+01 | 1486165345.52781 | B/285EB50                |           47286971216

 2017-02-04 00:42:26.603734+01 | 1486165346.60373 | B/46790F0                |           47318536432

 2017-02-04 00:42:27.679731+01 | 1486165347.67973 | B/646A368                |           47349932904

 2017-02-04 00:42:28.74619+01 | 1486165348.74619 | B/810C6B0                |           47379957424

 2017-02-04 00:42:29.825851+01 | 1486165349.82585 | B/9AAB8C8                |           47406823624

 2017-02-04 00:42:30.902019+01 | 1486165350.90202 | B/B321618                |           47432472088

 2017-02-04 00:42:31.975232+01 | 1486165351.97523 | B/C9B8620                |           47456159264

 2017-02-04 00:42:33.048823+01 | 1486165353.04882 | B/E10CE90                |           47480622736

 2017-02-04 00:42:34.119962+01 | 1486165354.11996 | B/F8D6950                |           47505566032

 2017-02-04 00:42:35.205732+01 | 1486165355.20573 | B/11263A78               |           47532358264

 2017-02-04 00:42:36.285863+01 | 1486165356.28586 | B/12DDDBB0               |           47561169840

 2017-02-04 00:42:37.362981+01 | 1486165357.36298 | B/147E4848               |           47588460616

 2017-02-04 00:42:38.441118+01 | 1486165358.44112 | B/15E26C20               |           47611800608

 2017-02-04 00:42:39.516867+01 | 1486165359.51687 | B/1745DBD0               |           47635094480

 2017-02-04 00:42:40.596475+01 | 1486165360.59647 | B/18A5FB98               |           47658171288

 2017-02-04 00:42:41.668989+01 | 1486165361.66899 | B/1A078C20               |           47681342496

 2017-02-04 00:42:42.743609+01 | 1486165362.74361 | B/1B6947F8               |           47704524792

 2017-02-04 00:42:43.811023+01 | 1486165363.81102 | B/1CB80940               |           47726463296

 2017-02-04 00:42:44.889015+01 | 1486165364.88901 | B/1E352320               |           47751439136

 2017-02-04 00:42:45.979998+01 | 1486165365.98 | B/1FF45E18               |           47780748824

 2017-02-04 00:42:47.060373+01 | 1486165367.06037 | B/21A5E270               |           47809159792

 2017-02-04 00:42:48.143044+01 | 1486165368.14304 | B/23566B70               |           47837506416

 2017-02-04 00:42:49.213339+01 | 1486165369.21334 | B/24C20758               |           47861335896

 2017-02-04 00:42:50.289414+01 | 1486165370.28941 | B/265B2300               |           47888147200

 2017-02-04 00:42:51.366577+01 | 1486165371.36658 | B/27E09AF8               |           47913671416

 2017-02-04 00:42:52.446929+01 | 1486165372.44693 | B/2962D848               |           47938984008

 2017-02-04 00:42:53.523129+01 | 1486165373.52313 | B/2AE59608               |           47964329480

 2017-02-04 00:42:54.59745+01 | 1486165374.59745 | B/2C6B1A78               |           47989856888

 2017-02-04 00:42:55.677615+01 | 1486165375.67761 | B/2DE3C160               |           48014541152

 2017-02-04 00:42:56.751661+01 | 1486165376.75166 | B/2F3F6438               |           48037323832

 2017-02-04 00:42:57.824726+01 | 1486165377.82473 | B/30BF1028               |           48062468136

 2017-02-04 00:42:58.904565+01 | 1486165378.90457 | B/3233CA38               |           48086895160

 2017-02-04 00:42:59.983409+01 | 1486165379.98341 | B/33ADE650               |           48111674960

 2017-02-04 00:43:01.058612+01 | 1486165381.05861 | B/3531B218               |           48137089560

 2017-02-04 00:43:02.131785+01 | 1486165382.13178 | B/36A42638               |           48161367608

 2017-02-04 00:43:03.205214+01 | 1486165383.20521 | B/380BB840               |           48184932416

 2017-02-04 00:43:04.283769+01 | 1486165384.28377 | B/395ED2B0               |           48207155888

 2017-02-04 00:43:05.357173+01 | 1486165385.35717 | B/3AB638E0               |           48229660896

 2017-02-04 00:43:06.430957+01 | 1486165386.43096 | B/3C079050               |           48251768912

 2017-02-04 00:43:07.51212+01 | 1486165387.51212 | B/3D6E4BC8               |           48275278792

 2017-02-04 00:43:08.593983+01 | 1486165388.59398 | B/3EBDA1C0               |           48297255360

 2017-02-04 00:43:09.665805+01 | 1486165389.66581 | B/400B6E28               |           48319131176

 2017-02-04 00:43:10.742036+01 | 1486165390.74204 | B/41536C30               |           48340626480

 2017-02-04 00:43:11.822555+01 | 1486165391.82256 | B/42B170C0               |           48363565248

 2017-02-04 00:43:12.898804+01 | 1486165392.8988 | B/43E5A220               |           48383762976

 2017-02-04 00:43:13.972114+01 | 1486165393.97211 | B/45314820               |           48405497888

 2017-02-04 00:43:15.060656+01 | 1486165395.06066 | B/46763180               |           48426791296

 2017-02-04 00:43:16.135971+01 | 1486165396.13597 | B/47A3D1E8               |           48446558696

 2017-02-04 00:43:17.220169+01 | 1486165397.22017 | B/48E73708               |           48467752712

 2017-02-04 00:43:18.299524+01 | 1486165398.29952 | B/4A1ED648               |           48488175176

 2017-02-04 00:43:19.373689+01 | 1486165399.37369 | B/4B56B510               |           48508613904

 2017-02-04 00:43:20.469214+01 | 1486165400.46921 | B/4C888C90               |           48528657552

 2017-02-04 00:43:21.543239+01 | 1486165401.54324 | B/4DBE7568               |           48548967784

 2017-02-04 00:43:22.620696+01 | 1486165402.6207 | B/4EFBF460               |           48569775200

 2017-02-04 00:43:23.69353+01 | 1486165403.69353 | B/5033F4D0               |           48590222544

 2017-02-04 00:43:24.765825+01 | 1486165404.76583 | B/51665CE0               |           48610303200

 2017-02-04 00:43:25.839921+01 | 1486165405.83992 | B/529BFBB8               |           48630594488

 2017-02-04 00:43:26.913588+01 | 1486165406.91359 | B/53C04E88               |           48649752200

 2017-02-04 00:43:27.991277+01 | 1486165407.99128 | B/54DD8330               |           48668443440

 2017-02-04 00:43:29.073774+01 | 1486165409.07377 | B/5601A870               |           48687589488

 2017-02-04 00:43:30.150872+01 | 1486165410.15087 | B/571EF1A8               |           48706285992

 2017-02-04 00:43:31.227999+01 | 1486165411.228 | B/583DB540               |           48725079360

 2017-02-04 00:43:32.307757+01 | 1486165412.30776 | B/5959F9E0               |           48743709152

 2017-02-04 00:43:33.397444+01 | 1486165413.39744 | B/5A77E070               |           48762445936

 2017-02-04 00:43:34.481528+01 | 1486165414.48153 | B/5B8CDD48               |           48780598600

 2017-02-04 00:43:35.55362+01 | 1486165415.55362 | B/5CA62968               |           48799033704

 2017-02-04 00:43:36.629821+01 | 1486165416.62982 | B/5DB0C238               |           48816505400

 2017-02-04 00:43:37.707615+01 | 1486165417.70761 | B/5EB10CD0               |           48833301712

 2017-02-04 00:43:38.784773+01 | 1486165418.78477 | B/5FC2A3B0               |           48851231664

 2017-02-04 00:43:39.868183+01 | 1486165419.86818 | B/60C84270               |           48868377200

 2017-02-04 00:43:40.94362+01 | 1486165420.94362 | B/61DD5FE8               |           48886538216

 2017-02-04 00:43:42.021027+01 | 1486165422.02103 | B/62E0B370               |           48903533424

 2017-02-04 00:43:43.083122+01 | 1486165423.08312 | B/63F62C20               |           48921717792

 2017-02-04 00:43:44.161982+01 | 1486165424.16198 | B/6533EE38               |           48942542392

 2017-02-04 00:43:45.239623+01 | 1486165425.23962 | B/669589C0               |           48965716416

 2017-02-04 00:43:46.311483+01 | 1486165426.31148 | B/6806F6D8               |           48989927128

 2017-02-04 00:43:47.384382+01 | 1486165427.38438 | B/697E53A8               |           49014526888

 2017-02-04 00:43:48.459539+01 | 1486165428.45954 | B/6B31AC38               |           49043057720

 2017-02-04 00:43:49.533328+01 | 1486165429.53333 | B/6CA984D8               |           49067689176

 2017-02-04 00:43:50.609411+01 | 1486165430.60941 | B/6DB15738               |           49084979000

 2017-02-04 00:43:51.683936+01 | 1486165431.68394 | B/6EB74700               |           49102145280

 2017-02-04 00:43:52.754888+01 | 1486165432.75489 | B/6FB9FC50               |           49119099984

 2017-02-04 00:43:53.832494+01 | 1486165433.83249 | B/70AE45A8               |           49135109544

 2017-02-04 00:43:54.908176+01 | 1486165434.90818 | B/71A428D0               |           49151224016

 2017-02-04 00:43:55.981902+01 | 1486165435.9819 | B/7292D5A8               |           49166865832

 2017-02-04 00:43:57.05807+01 | 1486165437.05807 | B/73792288               |           49181958792

 2017-02-04 00:43:58.135929+01 | 1486165438.13593 | B/74464928               |           49195403560

 2017-02-04 00:43:59.210925+01 | 1486165439.21093 | B/75184748               |           49209165640

 2017-02-04 00:44:00.283026+01 | 1486165440.28303 | B/75C30438               |           49220355128

 2017-02-04 00:44:01.357555+01 | 1486165441.35755 | B/7695FE38               |           49234181688

 2017-02-04 00:44:02.438047+01 | 1486165442.43805 | B/777DE8F8               |           49249380600

 2017-02-04 00:44:03.517113+01 | 1486165443.51711 | B/78618998               |           49264298392

 2017-02-04 00:44:04.592179+01 | 1486165444.59218 | B/793A95A0               |           49278522784

 2017-02-04 00:44:05.667894+01 | 1486165445.66789 | B/7A2609D8               |           49293953496

 2017-02-04 00:44:06.74573+01 | 1486165446.74573 | B/7AFDCFA0               |           49308094368

 2017-02-04 00:44:07.824919+01 | 1486165447.82492 | B/7BE63D78               |           49323326840

 2017-02-04 00:44:08.895595+01 | 1486165448.8956 | B/7CC24E58               |           49337749080

 2017-02-04 00:44:09.967283+01 | 1486165449.96728 | B/7DA40998               |           49352542616

 2017-02-04 00:44:11.048412+01 | 1486165451.04841 | B/7E800AB8               |           49366960824

 2017-02-04 00:44:12.127826+01 | 1486165452.12783 | B/7F6280C0               |           49381802176

 2017-02-04 00:44:13.211408+01 | 1486165453.21141 | B/803CB180               |           49396101504

 2017-02-04 00:44:14.28762+01 | 1486165454.28762 | B/810C4E48               |           49409707592

 2017-02-04 00:44:15.365291+01 | 1486165455.36529 | B/81E66EE8               |           49424002792

 2017-02-04 00:44:16.439417+01 | 1486165456.43942 | B/82C36050               |           49438482512

 2017-02-04 00:44:17.511872+01 | 1486165457.51187 | B/8395E710               |           49452279568

 2017-02-04 00:44:18.588631+01 | 1486165458.58863 | B/84624AC0               |           49465674432

 2017-02-04 00:44:19.671265+01 | 1486165459.67126 | B/853A9210               |           49479848464

 2017-02-04 00:44:20.748561+01 | 1486165460.74856 | B/86072570               |           49493255536

 2017-02-04 00:44:21.824364+01 | 1486165461.82436 | B/86DE5540               |           49507358016

 2017-02-04 00:44:22.90503+01 | 1486165462.90503 | B/87B56E80               |           49521454720

 2017-02-04 00:44:23.973316+01 | 1486165463.97332 | B/887C3320               |           49534481184

 2017-02-04 00:44:25.045029+01 | 1486165465.04503 | B/894C34F8               |           49548113144

 2017-02-04 00:44:26.114424+01 | 1486165466.11442 | B/8A0A0E68               |           49560555112

 2017-02-04 00:44:27.188318+01 | 1486165467.18832 | B/8ADF7240               |           49574539840

 2017-02-04 00:44:28.266691+01 | 1486165468.26669 | B/8BA0C128               |           49587208488

 2017-02-04 00:44:29.34841+01 | 1486165469.34841 | B/8C664CA0               |           49600154784

 2017-02-04 00:44:30.424598+01 | 1486165470.4246 | B/8D2ECA10               |           49613294096

 2017-02-04 00:44:31.503319+01 | 1486165471.50332 | B/8DFD8F60               |           49626845024

 2017-02-04 00:44:32.582754+01 | 1486165472.58275 | B/8EC57E08               |           49639947784

 2017-02-04 00:44:33.651441+01 | 1486165473.65144 | B/8F8C6398               |           49652982680

 2017-02-04 00:44:34.719516+01 | 1486165474.71952 | B/9030A020               |           49663746080

 2017-02-04 00:44:35.800921+01 | 1486165475.80092 | B/90C56868               |           49673496680

