 2017-02-03 21:12:08.570674+01 | 1486152728.57067 | pgbench_branches_pkey |            40960
 2017-02-03 21:12:08.570674+01 | 1486152728.57067 | pgbench_tellers_pkey  |           245760
 2017-02-03 21:12:08.570674+01 | 1486152728.57067 | pgbench_accounts_pkey |       2246197248

 2017-02-03 21:12:09.652212+01 | 1486152729.65221 | pgbench_branches_pkey |            40960
 2017-02-03 21:12:09.652212+01 | 1486152729.65221 | pgbench_tellers_pkey  |           245760
 2017-02-03 21:12:09.652212+01 | 1486152729.65221 | pgbench_accounts_pkey |       2246197248

 2017-02-03 21:12:10.727385+01 | 1486152730.72739 | pgbench_branches_pkey |            40960
 2017-02-03 21:12:10.727385+01 | 1486152730.72739 | pgbench_tellers_pkey  |           245760
 2017-02-03 21:12:10.727385+01 | 1486152730.72739 | pgbench_accounts_pkey |       2246197248

 2017-02-03 21:12:11.797242+01 | 1486152731.79724 | pgbench_branches_pkey |            40960
 2017-02-03 21:12:11.797242+01 | 1486152731.79724 | pgbench_tellers_pkey  |           245760
 2017-02-03 21:12:11.797242+01 | 1486152731.79724 | pgbench_accounts_pkey |       2246197248

 2017-02-03 21:12:12.874269+01 | 1486152732.87427 | pgbench_branches_pkey |            40960
 2017-02-03 21:12:12.874269+01 | 1486152732.87427 | pgbench_tellers_pkey  |           245760
 2017-02-03 21:12:12.874269+01 | 1486152732.87427 | pgbench_accounts_pkey |       2246197248

 2017-02-03 21:12:13.964153+01 | 1486152733.96415 | pgbench_branches_pkey |            40960
 2017-02-03 21:12:13.964153+01 | 1486152733.96415 | pgbench_tellers_pkey  |           245760
 2017-02-03 21:12:13.964153+01 | 1486152733.96415 | pgbench_accounts_pkey |       2246197248

 2017-02-03 21:12:15.045044+01 | 1486152735.04504 | pgbench_branches_pkey |            40960
 2017-02-03 21:12:15.045044+01 | 1486152735.04504 | pgbench_tellers_pkey  |           245760
 2017-02-03 21:12:15.045044+01 | 1486152735.04504 | pgbench_accounts_pkey |       2246197248

 2017-02-03 21:12:16.124149+01 | 1486152736.12415 | pgbench_branches_pkey |            40960
 2017-02-03 21:12:16.124149+01 | 1486152736.12415 | pgbench_tellers_pkey  |           245760
 2017-02-03 21:12:16.124149+01 | 1486152736.12415 | pgbench_accounts_pkey |       2246197248

 2017-02-03 21:12:17.203617+01 | 1486152737.20362 | pgbench_branches_pkey |            40960
 2017-02-03 21:12:17.203617+01 | 1486152737.20362 | pgbench_tellers_pkey  |           245760
 2017-02-03 21:12:17.203617+01 | 1486152737.20362 | pgbench_accounts_pkey |       2246197248

 2017-02-03 21:12:18.278679+01 | 1486152738.27868 | pgbench_branches_pkey |            40960
 2017-02-03 21:12:18.278679+01 | 1486152738.27868 | pgbench_tellers_pkey  |           245760
 2017-02-03 21:12:18.278679+01 | 1486152738.27868 | pgbench_accounts_pkey |       2246197248

 2017-02-03 21:12:19.358439+01 | 1486152739.35844 | pgbench_branches_pkey |            40960
 2017-02-03 21:12:19.358439+01 | 1486152739.35844 | pgbench_tellers_pkey  |           245760
 2017-02-03 21:12:19.358439+01 | 1486152739.35844 | pgbench_accounts_pkey |       2246197248

 2017-02-03 21:12:20.435232+01 | 1486152740.43523 | pgbench_branches_pkey |            40960
 2017-02-03 21:12:20.435232+01 | 1486152740.43523 | pgbench_tellers_pkey  |           245760
 2017-02-03 21:12:20.435232+01 | 1486152740.43523 | pgbench_accounts_pkey |       2246197248

 2017-02-03 21:12:21.511771+01 | 1486152741.51177 | pgbench_branches_pkey |            40960
 2017-02-03 21:12:21.511771+01 | 1486152741.51177 | pgbench_tellers_pkey  |           245760
 2017-02-03 21:12:21.511771+01 | 1486152741.51177 | pgbench_accounts_pkey |       2246197248

 2017-02-03 21:12:22.592598+01 | 1486152742.5926 | pgbench_branches_pkey |            40960
 2017-02-03 21:12:22.592598+01 | 1486152742.5926 | pgbench_tellers_pkey  |           245760
 2017-02-03 21:12:22.592598+01 | 1486152742.5926 | pgbench_accounts_pkey |       2246197248

 2017-02-03 21:12:23.677128+01 | 1486152743.67713 | pgbench_branches_pkey |            40960
 2017-02-03 21:12:23.677128+01 | 1486152743.67713 | pgbench_tellers_pkey  |           245760
 2017-02-03 21:12:23.677128+01 | 1486152743.67713 | pgbench_accounts_pkey |       2246197248

 2017-02-03 21:12:24.761173+01 | 1486152744.76117 | pgbench_branches_pkey |            40960
 2017-02-03 21:12:24.761173+01 | 1486152744.76117 | pgbench_tellers_pkey  |           245760
 2017-02-03 21:12:24.761173+01 | 1486152744.76117 | pgbench_accounts_pkey |       2246197248

 2017-02-03 21:12:25.834681+01 | 1486152745.83468 | pgbench_branches_pkey |            40960
 2017-02-03 21:12:25.834681+01 | 1486152745.83468 | pgbench_tellers_pkey  |           245760
 2017-02-03 21:12:25.834681+01 | 1486152745.83468 | pgbench_accounts_pkey |       2246197248

 2017-02-03 21:12:26.917973+01 | 1486152746.91797 | pgbench_branches_pkey |            40960
 2017-02-03 21:12:26.917973+01 | 1486152746.91797 | pgbench_tellers_pkey  |           245760
 2017-02-03 21:12:26.917973+01 | 1486152746.91797 | pgbench_accounts_pkey |       2246197248

 2017-02-03 21:12:28.003782+01 | 1486152748.00378 | pgbench_branches_pkey |            40960
 2017-02-03 21:12:28.003782+01 | 1486152748.00378 | pgbench_tellers_pkey  |           245760
 2017-02-03 21:12:28.003782+01 | 1486152748.00378 | pgbench_accounts_pkey |       2246197248

 2017-02-03 21:12:29.078702+01 | 1486152749.0787 | pgbench_branches_pkey |            40960
 2017-02-03 21:12:29.078702+01 | 1486152749.0787 | pgbench_tellers_pkey  |           245760
 2017-02-03 21:12:29.078702+01 | 1486152749.0787 | pgbench_accounts_pkey |       2246197248

 2017-02-03 21:12:30.15339+01 | 1486152750.15339 | pgbench_branches_pkey |            40960
 2017-02-03 21:12:30.15339+01 | 1486152750.15339 | pgbench_tellers_pkey  |           245760
 2017-02-03 21:12:30.15339+01 | 1486152750.15339 | pgbench_accounts_pkey |       2246197248

 2017-02-03 21:12:31.239942+01 | 1486152751.23994 | pgbench_branches_pkey |            40960
 2017-02-03 21:12:31.239942+01 | 1486152751.23994 | pgbench_tellers_pkey  |           245760
 2017-02-03 21:12:31.239942+01 | 1486152751.23994 | pgbench_accounts_pkey |       2246197248

 2017-02-03 21:12:32.316486+01 | 1486152752.31649 | pgbench_branches_pkey |            40960
 2017-02-03 21:12:32.316486+01 | 1486152752.31649 | pgbench_tellers_pkey  |           245760
 2017-02-03 21:12:32.316486+01 | 1486152752.31649 | pgbench_accounts_pkey |       2246197248

 2017-02-03 21:12:33.402435+01 | 1486152753.40244 | pgbench_branches_pkey |            40960
 2017-02-03 21:12:33.402435+01 | 1486152753.40244 | pgbench_tellers_pkey  |           245760
 2017-02-03 21:12:33.402435+01 | 1486152753.40244 | pgbench_accounts_pkey |       2246197248

 2017-02-03 21:12:34.480386+01 | 1486152754.48039 | pgbench_branches_pkey |            40960
 2017-02-03 21:12:34.480386+01 | 1486152754.48039 | pgbench_tellers_pkey  |           245760
 2017-02-03 21:12:34.480386+01 | 1486152754.48039 | pgbench_accounts_pkey |       2246197248

 2017-02-03 21:12:35.557492+01 | 1486152755.55749 | pgbench_branches_pkey |            40960
 2017-02-03 21:12:35.557492+01 | 1486152755.55749 | pgbench_tellers_pkey  |           245760
 2017-02-03 21:12:35.557492+01 | 1486152755.55749 | pgbench_accounts_pkey |       2246197248

 2017-02-03 21:12:36.64008+01 | 1486152756.64008 | pgbench_branches_pkey |            40960
 2017-02-03 21:12:36.64008+01 | 1486152756.64008 | pgbench_tellers_pkey  |           245760
 2017-02-03 21:12:36.64008+01 | 1486152756.64008 | pgbench_accounts_pkey |       2246197248

 2017-02-03 21:12:37.71885+01 | 1486152757.71885 | pgbench_branches_pkey |            40960
 2017-02-03 21:12:37.71885+01 | 1486152757.71885 | pgbench_tellers_pkey  |           245760
 2017-02-03 21:12:37.71885+01 | 1486152757.71885 | pgbench_accounts_pkey |       2246197248

 2017-02-03 21:12:38.793452+01 | 1486152758.79345 | pgbench_branches_pkey |            40960
 2017-02-03 21:12:38.793452+01 | 1486152758.79345 | pgbench_tellers_pkey  |           245760
 2017-02-03 21:12:38.793452+01 | 1486152758.79345 | pgbench_accounts_pkey |       2246197248

 2017-02-03 21:12:39.880557+01 | 1486152759.88056 | pgbench_branches_pkey |            40960
 2017-02-03 21:12:39.880557+01 | 1486152759.88056 | pgbench_tellers_pkey  |           245760
 2017-02-03 21:12:39.880557+01 | 1486152759.88056 | pgbench_accounts_pkey |       2246197248

 2017-02-03 21:12:40.960161+01 | 1486152760.96016 | pgbench_branches_pkey |            40960
 2017-02-03 21:12:40.960161+01 | 1486152760.96016 | pgbench_tellers_pkey  |           245760
 2017-02-03 21:12:40.960161+01 | 1486152760.96016 | pgbench_accounts_pkey |       2246197248

 2017-02-03 21:12:42.04357+01 | 1486152762.04357 | pgbench_branches_pkey |            40960
 2017-02-03 21:12:42.04357+01 | 1486152762.04357 | pgbench_tellers_pkey  |           245760
 2017-02-03 21:12:42.04357+01 | 1486152762.04357 | pgbench_accounts_pkey |       2246197248

 2017-02-03 21:12:43.132926+01 | 1486152763.13293 | pgbench_branches_pkey |            40960
 2017-02-03 21:12:43.132926+01 | 1486152763.13293 | pgbench_tellers_pkey  |           245760
 2017-02-03 21:12:43.132926+01 | 1486152763.13293 | pgbench_accounts_pkey |       2246197248

 2017-02-03 21:12:44.215032+01 | 1486152764.21503 | pgbench_branches_pkey |            40960
 2017-02-03 21:12:44.215032+01 | 1486152764.21503 | pgbench_tellers_pkey  |           245760
 2017-02-03 21:12:44.215032+01 | 1486152764.21503 | pgbench_accounts_pkey |       2246197248

 2017-02-03 21:12:45.297071+01 | 1486152765.29707 | pgbench_branches_pkey |            40960
 2017-02-03 21:12:45.297071+01 | 1486152765.29707 | pgbench_tellers_pkey  |           245760
 2017-02-03 21:12:45.297071+01 | 1486152765.29707 | pgbench_accounts_pkey |       2246197248

 2017-02-03 21:12:46.375459+01 | 1486152766.37546 | pgbench_branches_pkey |            40960
 2017-02-03 21:12:46.375459+01 | 1486152766.37546 | pgbench_tellers_pkey  |           245760
 2017-02-03 21:12:46.375459+01 | 1486152766.37546 | pgbench_accounts_pkey |       2246197248

 2017-02-03 21:12:47.450723+01 | 1486152767.45072 | pgbench_branches_pkey |            40960
 2017-02-03 21:12:47.450723+01 | 1486152767.45072 | pgbench_tellers_pkey  |           245760
 2017-02-03 21:12:47.450723+01 | 1486152767.45072 | pgbench_accounts_pkey |       2246197248

 2017-02-03 21:12:48.524774+01 | 1486152768.52477 | pgbench_branches_pkey |            40960
 2017-02-03 21:12:48.524774+01 | 1486152768.52477 | pgbench_tellers_pkey  |           245760
 2017-02-03 21:12:48.524774+01 | 1486152768.52477 | pgbench_accounts_pkey |       2246197248

 2017-02-03 21:12:49.610917+01 | 1486152769.61092 | pgbench_branches_pkey |            40960
 2017-02-03 21:12:49.610917+01 | 1486152769.61092 | pgbench_tellers_pkey  |           245760
 2017-02-03 21:12:49.610917+01 | 1486152769.61092 | pgbench_accounts_pkey |       2246197248

 2017-02-03 21:12:50.690519+01 | 1486152770.69052 | pgbench_branches_pkey |            40960
 2017-02-03 21:12:50.690519+01 | 1486152770.69052 | pgbench_tellers_pkey  |           245760
 2017-02-03 21:12:50.690519+01 | 1486152770.69052 | pgbench_accounts_pkey |       2246197248

 2017-02-03 21:12:51.774871+01 | 1486152771.77487 | pgbench_branches_pkey |            40960
 2017-02-03 21:12:51.774871+01 | 1486152771.77487 | pgbench_tellers_pkey  |           245760
 2017-02-03 21:12:51.774871+01 | 1486152771.77487 | pgbench_accounts_pkey |       2246197248

 2017-02-03 21:12:52.839509+01 | 1486152772.83951 | pgbench_branches_pkey |            40960
 2017-02-03 21:12:52.839509+01 | 1486152772.83951 | pgbench_tellers_pkey  |           245760
 2017-02-03 21:12:52.839509+01 | 1486152772.83951 | pgbench_accounts_pkey |       2246197248

 2017-02-03 21:12:53.916462+01 | 1486152773.91646 | pgbench_branches_pkey |            40960
 2017-02-03 21:12:53.916462+01 | 1486152773.91646 | pgbench_tellers_pkey  |           245760
 2017-02-03 21:12:53.916462+01 | 1486152773.91646 | pgbench_accounts_pkey |       2246197248

 2017-02-03 21:12:55.004806+01 | 1486152775.00481 | pgbench_branches_pkey |            40960
 2017-02-03 21:12:55.004806+01 | 1486152775.00481 | pgbench_tellers_pkey  |           245760
 2017-02-03 21:12:55.004806+01 | 1486152775.00481 | pgbench_accounts_pkey |       2246197248

 2017-02-03 21:12:56.077566+01 | 1486152776.07757 | pgbench_branches_pkey |            40960
 2017-02-03 21:12:56.077566+01 | 1486152776.07757 | pgbench_tellers_pkey  |           245760
 2017-02-03 21:12:56.077566+01 | 1486152776.07757 | pgbench_accounts_pkey |       2246197248

 2017-02-03 21:12:57.150125+01 | 1486152777.15013 | pgbench_branches_pkey |            40960
 2017-02-03 21:12:57.150125+01 | 1486152777.15013 | pgbench_tellers_pkey  |           245760
 2017-02-03 21:12:57.150125+01 | 1486152777.15013 | pgbench_accounts_pkey |       2246197248

 2017-02-03 21:12:58.222887+01 | 1486152778.22289 | pgbench_branches_pkey |            40960
 2017-02-03 21:12:58.222887+01 | 1486152778.22289 | pgbench_tellers_pkey  |           245760
 2017-02-03 21:12:58.222887+01 | 1486152778.22289 | pgbench_accounts_pkey |       2246197248

 2017-02-03 21:12:59.313924+01 | 1486152779.31392 | pgbench_branches_pkey |            40960
 2017-02-03 21:12:59.313924+01 | 1486152779.31392 | pgbench_tellers_pkey  |           245760
 2017-02-03 21:12:59.313924+01 | 1486152779.31392 | pgbench_accounts_pkey |       2246197248

 2017-02-03 21:13:00.39501+01 | 1486152780.39501 | pgbench_branches_pkey |            40960
 2017-02-03 21:13:00.39501+01 | 1486152780.39501 | pgbench_tellers_pkey  |           245760
 2017-02-03 21:13:00.39501+01 | 1486152780.39501 | pgbench_accounts_pkey |       2246197248

 2017-02-03 21:13:01.471163+01 | 1486152781.47116 | pgbench_branches_pkey |            40960
 2017-02-03 21:13:01.471163+01 | 1486152781.47116 | pgbench_tellers_pkey  |           245760
 2017-02-03 21:13:01.471163+01 | 1486152781.47116 | pgbench_accounts_pkey |       2246197248

 2017-02-03 21:13:02.5585+01 | 1486152782.5585 | pgbench_branches_pkey |            40960
 2017-02-03 21:13:02.5585+01 | 1486152782.5585 | pgbench_tellers_pkey  |           245760
 2017-02-03 21:13:02.5585+01 | 1486152782.5585 | pgbench_accounts_pkey |       2246197248

 2017-02-03 21:13:03.638812+01 | 1486152783.63881 | pgbench_branches_pkey |            40960
 2017-02-03 21:13:03.638812+01 | 1486152783.63881 | pgbench_tellers_pkey  |           245760
 2017-02-03 21:13:03.638812+01 | 1486152783.63881 | pgbench_accounts_pkey |       2246197248

 2017-02-03 21:13:04.723223+01 | 1486152784.72322 | pgbench_branches_pkey |            40960
 2017-02-03 21:13:04.723223+01 | 1486152784.72322 | pgbench_tellers_pkey  |           245760
 2017-02-03 21:13:04.723223+01 | 1486152784.72322 | pgbench_accounts_pkey |       2246197248

 2017-02-03 21:13:05.806878+01 | 1486152785.80688 | pgbench_branches_pkey |            40960
 2017-02-03 21:13:05.806878+01 | 1486152785.80688 | pgbench_tellers_pkey  |           245760
 2017-02-03 21:13:05.806878+01 | 1486152785.80688 | pgbench_accounts_pkey |       2246197248

 2017-02-03 21:13:06.882405+01 | 1486152786.88241 | pgbench_branches_pkey |            40960
 2017-02-03 21:13:06.882405+01 | 1486152786.88241 | pgbench_tellers_pkey  |           245760
 2017-02-03 21:13:06.882405+01 | 1486152786.88241 | pgbench_accounts_pkey |       2246197248

 2017-02-03 21:13:07.968189+01 | 1486152787.96819 | pgbench_branches_pkey |            40960
 2017-02-03 21:13:07.968189+01 | 1486152787.96819 | pgbench_tellers_pkey  |           245760
 2017-02-03 21:13:07.968189+01 | 1486152787.96819 | pgbench_accounts_pkey |       2246197248

 2017-02-03 21:13:09.042506+01 | 1486152789.04251 | pgbench_branches_pkey |            40960
 2017-02-03 21:13:09.042506+01 | 1486152789.04251 | pgbench_tellers_pkey  |           245760
 2017-02-03 21:13:09.042506+01 | 1486152789.04251 | pgbench_accounts_pkey |       2246197248

 2017-02-03 21:13:10.135602+01 | 1486152790.1356 | pgbench_branches_pkey |            40960
 2017-02-03 21:13:10.135602+01 | 1486152790.1356 | pgbench_tellers_pkey  |           245760
 2017-02-03 21:13:10.135602+01 | 1486152790.1356 | pgbench_accounts_pkey |       2246197248

 2017-02-03 21:13:11.222732+01 | 1486152791.22273 | pgbench_branches_pkey |            40960
 2017-02-03 21:13:11.222732+01 | 1486152791.22273 | pgbench_tellers_pkey  |           245760
 2017-02-03 21:13:11.222732+01 | 1486152791.22273 | pgbench_accounts_pkey |       2246197248

 2017-02-03 21:13:12.310126+01 | 1486152792.31013 | pgbench_branches_pkey |            40960
 2017-02-03 21:13:12.310126+01 | 1486152792.31013 | pgbench_tellers_pkey  |           245760
 2017-02-03 21:13:12.310126+01 | 1486152792.31013 | pgbench_accounts_pkey |       2246197248

 2017-02-03 21:13:13.388487+01 | 1486152793.38849 | pgbench_branches_pkey |            40960
 2017-02-03 21:13:13.388487+01 | 1486152793.38849 | pgbench_tellers_pkey  |           245760
 2017-02-03 21:13:13.388487+01 | 1486152793.38849 | pgbench_accounts_pkey |       2246197248

 2017-02-03 21:13:14.471947+01 | 1486152794.47195 | pgbench_branches_pkey |            40960
 2017-02-03 21:13:14.471947+01 | 1486152794.47195 | pgbench_tellers_pkey  |           245760
 2017-02-03 21:13:14.471947+01 | 1486152794.47195 | pgbench_accounts_pkey |       2246197248

 2017-02-03 21:13:15.551152+01 | 1486152795.55115 | pgbench_branches_pkey |            40960
 2017-02-03 21:13:15.551152+01 | 1486152795.55115 | pgbench_tellers_pkey  |           245760
 2017-02-03 21:13:15.551152+01 | 1486152795.55115 | pgbench_accounts_pkey |       2246197248

 2017-02-03 21:13:16.62559+01 | 1486152796.62559 | pgbench_branches_pkey |            40960
 2017-02-03 21:13:16.62559+01 | 1486152796.62559 | pgbench_tellers_pkey  |           245760
 2017-02-03 21:13:16.62559+01 | 1486152796.62559 | pgbench_accounts_pkey |       2246197248

 2017-02-03 21:13:17.716731+01 | 1486152797.71673 | pgbench_branches_pkey |            40960
 2017-02-03 21:13:17.716731+01 | 1486152797.71673 | pgbench_tellers_pkey  |           245760
 2017-02-03 21:13:17.716731+01 | 1486152797.71673 | pgbench_accounts_pkey |       2246197248

 2017-02-03 21:13:18.800798+01 | 1486152798.8008 | pgbench_branches_pkey |            40960
 2017-02-03 21:13:18.800798+01 | 1486152798.8008 | pgbench_tellers_pkey  |           245760
 2017-02-03 21:13:18.800798+01 | 1486152798.8008 | pgbench_accounts_pkey |       2246197248

 2017-02-03 21:13:19.882666+01 | 1486152799.88267 | pgbench_branches_pkey |            40960
 2017-02-03 21:13:19.882666+01 | 1486152799.88267 | pgbench_tellers_pkey  |           245760
 2017-02-03 21:13:19.882666+01 | 1486152799.88267 | pgbench_accounts_pkey |       2246197248

 2017-02-03 21:13:20.971986+01 | 1486152800.97199 | pgbench_branches_pkey |            40960
 2017-02-03 21:13:20.971986+01 | 1486152800.97199 | pgbench_tellers_pkey  |           245760
 2017-02-03 21:13:20.971986+01 | 1486152800.97199 | pgbench_accounts_pkey |       2246197248

 2017-02-03 21:13:22.055405+01 | 1486152802.0554 | pgbench_branches_pkey |            40960
 2017-02-03 21:13:22.055405+01 | 1486152802.0554 | pgbench_tellers_pkey  |           245760
 2017-02-03 21:13:22.055405+01 | 1486152802.0554 | pgbench_accounts_pkey |       2246197248

 2017-02-03 21:13:23.130892+01 | 1486152803.13089 | pgbench_branches_pkey |            40960
 2017-02-03 21:13:23.130892+01 | 1486152803.13089 | pgbench_tellers_pkey  |           245760
 2017-02-03 21:13:23.130892+01 | 1486152803.13089 | pgbench_accounts_pkey |       2246197248

 2017-02-03 21:13:24.213817+01 | 1486152804.21382 | pgbench_branches_pkey |            40960
 2017-02-03 21:13:24.213817+01 | 1486152804.21382 | pgbench_tellers_pkey  |           245760
 2017-02-03 21:13:24.213817+01 | 1486152804.21382 | pgbench_accounts_pkey |       2246197248

 2017-02-03 21:13:25.287051+01 | 1486152805.28705 | pgbench_branches_pkey |            40960
 2017-02-03 21:13:25.287051+01 | 1486152805.28705 | pgbench_tellers_pkey  |           245760
 2017-02-03 21:13:25.287051+01 | 1486152805.28705 | pgbench_accounts_pkey |       2246197248

 2017-02-03 21:13:26.367909+01 | 1486152806.36791 | pgbench_branches_pkey |            40960
 2017-02-03 21:13:26.367909+01 | 1486152806.36791 | pgbench_tellers_pkey  |           245760
 2017-02-03 21:13:26.367909+01 | 1486152806.36791 | pgbench_accounts_pkey |       2246197248

 2017-02-03 21:13:27.453809+01 | 1486152807.45381 | pgbench_branches_pkey |            40960
 2017-02-03 21:13:27.453809+01 | 1486152807.45381 | pgbench_tellers_pkey  |           245760
 2017-02-03 21:13:27.453809+01 | 1486152807.45381 | pgbench_accounts_pkey |       2246197248

 2017-02-03 21:13:28.524052+01 | 1486152808.52405 | pgbench_branches_pkey |            40960
 2017-02-03 21:13:28.524052+01 | 1486152808.52405 | pgbench_tellers_pkey  |           245760
 2017-02-03 21:13:28.524052+01 | 1486152808.52405 | pgbench_accounts_pkey |       2246197248

 2017-02-03 21:13:29.603565+01 | 1486152809.60356 | pgbench_branches_pkey |            40960
 2017-02-03 21:13:29.603565+01 | 1486152809.60356 | pgbench_tellers_pkey  |           245760
 2017-02-03 21:13:29.603565+01 | 1486152809.60356 | pgbench_accounts_pkey |       2246197248

 2017-02-03 21:13:30.680798+01 | 1486152810.6808 | pgbench_branches_pkey |            40960
 2017-02-03 21:13:30.680798+01 | 1486152810.6808 | pgbench_tellers_pkey  |           245760
 2017-02-03 21:13:30.680798+01 | 1486152810.6808 | pgbench_accounts_pkey |       2246197248

 2017-02-03 21:13:31.757287+01 | 1486152811.75729 | pgbench_branches_pkey |            40960
 2017-02-03 21:13:31.757287+01 | 1486152811.75729 | pgbench_tellers_pkey  |           245760
 2017-02-03 21:13:31.757287+01 | 1486152811.75729 | pgbench_accounts_pkey |       2246197248

 2017-02-03 21:13:32.833924+01 | 1486152812.83392 | pgbench_branches_pkey |            40960
 2017-02-03 21:13:32.833924+01 | 1486152812.83392 | pgbench_tellers_pkey  |           245760
 2017-02-03 21:13:32.833924+01 | 1486152812.83392 | pgbench_accounts_pkey |       2246197248

 2017-02-03 21:13:33.915739+01 | 1486152813.91574 | pgbench_branches_pkey |            40960
 2017-02-03 21:13:33.915739+01 | 1486152813.91574 | pgbench_tellers_pkey  |           245760
 2017-02-03 21:13:33.915739+01 | 1486152813.91574 | pgbench_accounts_pkey |       2246197248

 2017-02-03 21:13:34.98616+01 | 1486152814.98616 | pgbench_branches_pkey |            40960
 2017-02-03 21:13:34.98616+01 | 1486152814.98616 | pgbench_tellers_pkey  |           245760
 2017-02-03 21:13:34.98616+01 | 1486152814.98616 | pgbench_accounts_pkey |       2246197248

 2017-02-03 21:13:36.064223+01 | 1486152816.06422 | pgbench_branches_pkey |            40960
 2017-02-03 21:13:36.064223+01 | 1486152816.06422 | pgbench_tellers_pkey  |           245760
 2017-02-03 21:13:36.064223+01 | 1486152816.06422 | pgbench_accounts_pkey |       2246197248

 2017-02-03 21:13:37.151366+01 | 1486152817.15137 | pgbench_branches_pkey |            40960
 2017-02-03 21:13:37.151366+01 | 1486152817.15137 | pgbench_tellers_pkey  |           245760
 2017-02-03 21:13:37.151366+01 | 1486152817.15137 | pgbench_accounts_pkey |       2246197248

 2017-02-03 21:13:38.233917+01 | 1486152818.23392 | pgbench_branches_pkey |            40960
 2017-02-03 21:13:38.233917+01 | 1486152818.23392 | pgbench_tellers_pkey  |           245760
 2017-02-03 21:13:38.233917+01 | 1486152818.23392 | pgbench_accounts_pkey |       2246197248

 2017-02-03 21:13:39.316632+01 | 1486152819.31663 | pgbench_branches_pkey |            40960
 2017-02-03 21:13:39.316632+01 | 1486152819.31663 | pgbench_tellers_pkey  |           245760
 2017-02-03 21:13:39.316632+01 | 1486152819.31663 | pgbench_accounts_pkey |       2246197248

 2017-02-03 21:13:40.402334+01 | 1486152820.40233 | pgbench_branches_pkey |            40960
 2017-02-03 21:13:40.402334+01 | 1486152820.40233 | pgbench_tellers_pkey  |           245760
 2017-02-03 21:13:40.402334+01 | 1486152820.40233 | pgbench_accounts_pkey |       2246197248

 2017-02-03 21:13:41.488021+01 | 1486152821.48802 | pgbench_branches_pkey |            40960
 2017-02-03 21:13:41.488021+01 | 1486152821.48802 | pgbench_tellers_pkey  |           245760
 2017-02-03 21:13:41.488021+01 | 1486152821.48802 | pgbench_accounts_pkey |       2246197248

 2017-02-03 21:13:42.564668+01 | 1486152822.56467 | pgbench_branches_pkey |            40960
 2017-02-03 21:13:42.564668+01 | 1486152822.56467 | pgbench_tellers_pkey  |           245760
 2017-02-03 21:13:42.564668+01 | 1486152822.56467 | pgbench_accounts_pkey |       2246197248

 2017-02-03 21:13:43.637706+01 | 1486152823.63771 | pgbench_branches_pkey |            40960
 2017-02-03 21:13:43.637706+01 | 1486152823.63771 | pgbench_tellers_pkey  |           245760
 2017-02-03 21:13:43.637706+01 | 1486152823.63771 | pgbench_accounts_pkey |       2246197248

 2017-02-03 21:13:44.714883+01 | 1486152824.71488 | pgbench_branches_pkey |            40960
 2017-02-03 21:13:44.714883+01 | 1486152824.71488 | pgbench_tellers_pkey  |           245760
 2017-02-03 21:13:44.714883+01 | 1486152824.71488 | pgbench_accounts_pkey |       2246197248

 2017-02-03 21:13:45.784732+01 | 1486152825.78473 | pgbench_branches_pkey |            40960
 2017-02-03 21:13:45.784732+01 | 1486152825.78473 | pgbench_tellers_pkey  |           245760
 2017-02-03 21:13:45.784732+01 | 1486152825.78473 | pgbench_accounts_pkey |       2246197248

 2017-02-03 21:13:46.863652+01 | 1486152826.86365 | pgbench_branches_pkey |            40960
 2017-02-03 21:13:46.863652+01 | 1486152826.86365 | pgbench_tellers_pkey  |           245760
 2017-02-03 21:13:46.863652+01 | 1486152826.86365 | pgbench_accounts_pkey |       2246197248

 2017-02-03 21:13:47.939456+01 | 1486152827.93946 | pgbench_branches_pkey |            40960
 2017-02-03 21:13:47.939456+01 | 1486152827.93946 | pgbench_tellers_pkey  |           245760
 2017-02-03 21:13:47.939456+01 | 1486152827.93946 | pgbench_accounts_pkey |       2246197248

 2017-02-03 21:13:49.013854+01 | 1486152829.01385 | pgbench_branches_pkey |            40960
 2017-02-03 21:13:49.013854+01 | 1486152829.01385 | pgbench_tellers_pkey  |           245760
 2017-02-03 21:13:49.013854+01 | 1486152829.01385 | pgbench_accounts_pkey |       2246197248

 2017-02-03 21:13:50.09007+01 | 1486152830.09007 | pgbench_branches_pkey |            40960
 2017-02-03 21:13:50.09007+01 | 1486152830.09007 | pgbench_tellers_pkey  |           245760
 2017-02-03 21:13:50.09007+01 | 1486152830.09007 | pgbench_accounts_pkey |       2246197248

 2017-02-03 21:13:51.167594+01 | 1486152831.16759 | pgbench_branches_pkey |            40960
 2017-02-03 21:13:51.167594+01 | 1486152831.16759 | pgbench_tellers_pkey  |           245760
 2017-02-03 21:13:51.167594+01 | 1486152831.16759 | pgbench_accounts_pkey |       2246197248

 2017-02-03 21:13:52.250164+01 | 1486152832.25016 | pgbench_branches_pkey |            40960
 2017-02-03 21:13:52.250164+01 | 1486152832.25016 | pgbench_tellers_pkey  |           245760
 2017-02-03 21:13:52.250164+01 | 1486152832.25016 | pgbench_accounts_pkey |       2246197248

 2017-02-03 21:13:53.336998+01 | 1486152833.337 | pgbench_branches_pkey |            40960
 2017-02-03 21:13:53.336998+01 | 1486152833.337 | pgbench_tellers_pkey  |           245760
 2017-02-03 21:13:53.336998+01 | 1486152833.337 | pgbench_accounts_pkey |       2246197248

 2017-02-03 21:13:54.421664+01 | 1486152834.42166 | pgbench_branches_pkey |            40960
 2017-02-03 21:13:54.421664+01 | 1486152834.42166 | pgbench_tellers_pkey  |           245760
 2017-02-03 21:13:54.421664+01 | 1486152834.42166 | pgbench_accounts_pkey |       2246197248

 2017-02-03 21:13:55.504429+01 | 1486152835.50443 | pgbench_branches_pkey |            40960
 2017-02-03 21:13:55.504429+01 | 1486152835.50443 | pgbench_tellers_pkey  |           245760
 2017-02-03 21:13:55.504429+01 | 1486152835.50443 | pgbench_accounts_pkey |       2246197248

 2017-02-03 21:13:56.589665+01 | 1486152836.58966 | pgbench_branches_pkey |            40960
 2017-02-03 21:13:56.589665+01 | 1486152836.58966 | pgbench_tellers_pkey  |           245760
 2017-02-03 21:13:56.589665+01 | 1486152836.58966 | pgbench_accounts_pkey |       2246197248

 2017-02-03 21:13:57.667473+01 | 1486152837.66747 | pgbench_branches_pkey |            40960
 2017-02-03 21:13:57.667473+01 | 1486152837.66747 | pgbench_tellers_pkey  |           245760
 2017-02-03 21:13:57.667473+01 | 1486152837.66747 | pgbench_accounts_pkey |       2246197248

 2017-02-03 21:13:58.744446+01 | 1486152838.74445 | pgbench_branches_pkey |            40960
 2017-02-03 21:13:58.744446+01 | 1486152838.74445 | pgbench_tellers_pkey  |           245760
 2017-02-03 21:13:58.744446+01 | 1486152838.74445 | pgbench_accounts_pkey |       2246197248

 2017-02-03 21:13:59.820122+01 | 1486152839.82012 | pgbench_branches_pkey |            40960
 2017-02-03 21:13:59.820122+01 | 1486152839.82012 | pgbench_tellers_pkey  |           245760
 2017-02-03 21:13:59.820122+01 | 1486152839.82012 | pgbench_accounts_pkey |       2246197248

 2017-02-03 21:14:00.910528+01 | 1486152840.91053 | pgbench_branches_pkey |            40960
 2017-02-03 21:14:00.910528+01 | 1486152840.91053 | pgbench_tellers_pkey  |           245760
 2017-02-03 21:14:00.910528+01 | 1486152840.91053 | pgbench_accounts_pkey |       2246197248

 2017-02-03 21:14:01.978581+01 | 1486152841.97858 | pgbench_branches_pkey |            40960
 2017-02-03 21:14:01.978581+01 | 1486152841.97858 | pgbench_tellers_pkey  |           245760
 2017-02-03 21:14:01.978581+01 | 1486152841.97858 | pgbench_accounts_pkey |       2246197248

 2017-02-03 21:14:03.057334+01 | 1486152843.05733 | pgbench_branches_pkey |            40960
 2017-02-03 21:14:03.057334+01 | 1486152843.05733 | pgbench_tellers_pkey  |           245760
 2017-02-03 21:14:03.057334+01 | 1486152843.05733 | pgbench_accounts_pkey |       2246197248

 2017-02-03 21:14:04.138201+01 | 1486152844.1382 | pgbench_branches_pkey |            40960
 2017-02-03 21:14:04.138201+01 | 1486152844.1382 | pgbench_tellers_pkey  |           245760
 2017-02-03 21:14:04.138201+01 | 1486152844.1382 | pgbench_accounts_pkey |       2246197248

 2017-02-03 21:14:05.216636+01 | 1486152845.21664 | pgbench_branches_pkey |            40960
 2017-02-03 21:14:05.216636+01 | 1486152845.21664 | pgbench_tellers_pkey  |           245760
 2017-02-03 21:14:05.216636+01 | 1486152845.21664 | pgbench_accounts_pkey |       2246197248

 2017-02-03 21:14:06.291578+01 | 1486152846.29158 | pgbench_branches_pkey |            40960
 2017-02-03 21:14:06.291578+01 | 1486152846.29158 | pgbench_tellers_pkey  |           245760
 2017-02-03 21:14:06.291578+01 | 1486152846.29158 | pgbench_accounts_pkey |       2246197248

 2017-02-03 21:14:07.362593+01 | 1486152847.36259 | pgbench_branches_pkey |            40960
 2017-02-03 21:14:07.362593+01 | 1486152847.36259 | pgbench_tellers_pkey  |           245760
 2017-02-03 21:14:07.362593+01 | 1486152847.36259 | pgbench_accounts_pkey |       2246197248

 2017-02-03 21:14:08.443473+01 | 1486152848.44347 | pgbench_branches_pkey |            40960
 2017-02-03 21:14:08.443473+01 | 1486152848.44347 | pgbench_tellers_pkey  |           245760
 2017-02-03 21:14:08.443473+01 | 1486152848.44347 | pgbench_accounts_pkey |       2246197248

 2017-02-03 21:14:09.521314+01 | 1486152849.52131 | pgbench_branches_pkey |            40960
 2017-02-03 21:14:09.521314+01 | 1486152849.52131 | pgbench_tellers_pkey  |           245760
 2017-02-03 21:14:09.521314+01 | 1486152849.52131 | pgbench_accounts_pkey |       2246197248

 2017-02-03 21:14:10.595621+01 | 1486152850.59562 | pgbench_branches_pkey |            40960
 2017-02-03 21:14:10.595621+01 | 1486152850.59562 | pgbench_tellers_pkey  |           245760
 2017-02-03 21:14:10.595621+01 | 1486152850.59562 | pgbench_accounts_pkey |       2246197248

 2017-02-03 21:14:11.683633+01 | 1486152851.68363 | pgbench_branches_pkey |            40960
 2017-02-03 21:14:11.683633+01 | 1486152851.68363 | pgbench_tellers_pkey  |           245760
 2017-02-03 21:14:11.683633+01 | 1486152851.68363 | pgbench_accounts_pkey |       2246197248

 2017-02-03 21:14:12.764776+01 | 1486152852.76478 | pgbench_branches_pkey |            40960
 2017-02-03 21:14:12.764776+01 | 1486152852.76478 | pgbench_tellers_pkey  |           245760
 2017-02-03 21:14:12.764776+01 | 1486152852.76478 | pgbench_accounts_pkey |       2246197248

 2017-02-03 21:14:13.845966+01 | 1486152853.84597 | pgbench_branches_pkey |            40960
 2017-02-03 21:14:13.845966+01 | 1486152853.84597 | pgbench_tellers_pkey  |           245760
 2017-02-03 21:14:13.845966+01 | 1486152853.84597 | pgbench_accounts_pkey |       2246197248

 2017-02-03 21:14:14.921551+01 | 1486152854.92155 | pgbench_branches_pkey |            40960
 2017-02-03 21:14:14.921551+01 | 1486152854.92155 | pgbench_tellers_pkey  |           245760
 2017-02-03 21:14:14.921551+01 | 1486152854.92155 | pgbench_accounts_pkey |       2246197248

 2017-02-03 21:14:16.004397+01 | 1486152856.0044 | pgbench_branches_pkey |            40960
 2017-02-03 21:14:16.004397+01 | 1486152856.0044 | pgbench_tellers_pkey  |           245760
 2017-02-03 21:14:16.004397+01 | 1486152856.0044 | pgbench_accounts_pkey |       2246197248

 2017-02-03 21:14:17.081295+01 | 1486152857.0813 | pgbench_branches_pkey |            40960
 2017-02-03 21:14:17.081295+01 | 1486152857.0813 | pgbench_tellers_pkey  |           245760
 2017-02-03 21:14:17.081295+01 | 1486152857.0813 | pgbench_accounts_pkey |       2246197248

 2017-02-03 21:14:18.156309+01 | 1486152858.15631 | pgbench_branches_pkey |            40960
 2017-02-03 21:14:18.156309+01 | 1486152858.15631 | pgbench_tellers_pkey  |           245760
 2017-02-03 21:14:18.156309+01 | 1486152858.15631 | pgbench_accounts_pkey |       2246197248

 2017-02-03 21:14:19.242029+01 | 1486152859.24203 | pgbench_branches_pkey |            40960
 2017-02-03 21:14:19.242029+01 | 1486152859.24203 | pgbench_tellers_pkey  |           245760
 2017-02-03 21:14:19.242029+01 | 1486152859.24203 | pgbench_accounts_pkey |       2246197248

 2017-02-03 21:14:20.327467+01 | 1486152860.32747 | pgbench_branches_pkey |            40960
 2017-02-03 21:14:20.327467+01 | 1486152860.32747 | pgbench_tellers_pkey  |           245760
 2017-02-03 21:14:20.327467+01 | 1486152860.32747 | pgbench_accounts_pkey |       2246197248

 2017-02-03 21:14:21.402956+01 | 1486152861.40296 | pgbench_branches_pkey |            40960
 2017-02-03 21:14:21.402956+01 | 1486152861.40296 | pgbench_tellers_pkey  |           245760
 2017-02-03 21:14:21.402956+01 | 1486152861.40296 | pgbench_accounts_pkey |       2246197248

 2017-02-03 21:14:22.479809+01 | 1486152862.47981 | pgbench_branches_pkey |            40960
 2017-02-03 21:14:22.479809+01 | 1486152862.47981 | pgbench_tellers_pkey  |           245760
 2017-02-03 21:14:22.479809+01 | 1486152862.47981 | pgbench_accounts_pkey |       2246197248

 2017-02-03 21:14:23.556434+01 | 1486152863.55643 | pgbench_branches_pkey |            40960
 2017-02-03 21:14:23.556434+01 | 1486152863.55643 | pgbench_tellers_pkey  |           245760
 2017-02-03 21:14:23.556434+01 | 1486152863.55643 | pgbench_accounts_pkey |       2246197248

 2017-02-03 21:14:24.639516+01 | 1486152864.63952 | pgbench_branches_pkey |            40960
 2017-02-03 21:14:24.639516+01 | 1486152864.63952 | pgbench_tellers_pkey  |           245760
 2017-02-03 21:14:24.639516+01 | 1486152864.63952 | pgbench_accounts_pkey |       2246197248

 2017-02-03 21:14:25.717335+01 | 1486152865.71733 | pgbench_branches_pkey |            40960
 2017-02-03 21:14:25.717335+01 | 1486152865.71733 | pgbench_tellers_pkey  |           245760
 2017-02-03 21:14:25.717335+01 | 1486152865.71733 | pgbench_accounts_pkey |       2246197248

 2017-02-03 21:14:26.801819+01 | 1486152866.80182 | pgbench_branches_pkey |            40960
 2017-02-03 21:14:26.801819+01 | 1486152866.80182 | pgbench_tellers_pkey  |           245760
 2017-02-03 21:14:26.801819+01 | 1486152866.80182 | pgbench_accounts_pkey |       2246197248

 2017-02-03 21:14:27.880411+01 | 1486152867.88041 | pgbench_branches_pkey |            40960
 2017-02-03 21:14:27.880411+01 | 1486152867.88041 | pgbench_tellers_pkey  |           245760
 2017-02-03 21:14:27.880411+01 | 1486152867.88041 | pgbench_accounts_pkey |       2246197248

 2017-02-03 21:14:28.967657+01 | 1486152868.96766 | pgbench_branches_pkey |            40960
 2017-02-03 21:14:28.967657+01 | 1486152868.96766 | pgbench_tellers_pkey  |           245760
 2017-02-03 21:14:28.967657+01 | 1486152868.96766 | pgbench_accounts_pkey |       2246197248

 2017-02-03 21:14:30.04311+01 | 1486152870.04311 | pgbench_branches_pkey |            40960
 2017-02-03 21:14:30.04311+01 | 1486152870.04311 | pgbench_tellers_pkey  |           245760
 2017-02-03 21:14:30.04311+01 | 1486152870.04311 | pgbench_accounts_pkey |       2246197248

 2017-02-03 21:14:31.128354+01 | 1486152871.12835 | pgbench_branches_pkey |            40960
 2017-02-03 21:14:31.128354+01 | 1486152871.12835 | pgbench_tellers_pkey  |           245760
 2017-02-03 21:14:31.128354+01 | 1486152871.12835 | pgbench_accounts_pkey |       2246197248

 2017-02-03 21:14:32.207425+01 | 1486152872.20743 | pgbench_branches_pkey |            40960
 2017-02-03 21:14:32.207425+01 | 1486152872.20743 | pgbench_tellers_pkey  |           245760
 2017-02-03 21:14:32.207425+01 | 1486152872.20743 | pgbench_accounts_pkey |       2246197248

 2017-02-03 21:14:33.284919+01 | 1486152873.28492 | pgbench_branches_pkey |            40960
 2017-02-03 21:14:33.284919+01 | 1486152873.28492 | pgbench_tellers_pkey  |           245760
 2017-02-03 21:14:33.284919+01 | 1486152873.28492 | pgbench_accounts_pkey |       2246197248

 2017-02-03 21:14:34.372613+01 | 1486152874.37261 | pgbench_branches_pkey |            40960
 2017-02-03 21:14:34.372613+01 | 1486152874.37261 | pgbench_tellers_pkey  |           245760
 2017-02-03 21:14:34.372613+01 | 1486152874.37261 | pgbench_accounts_pkey |       2246197248

 2017-02-03 21:14:35.439659+01 | 1486152875.43966 | pgbench_branches_pkey |            40960
 2017-02-03 21:14:35.439659+01 | 1486152875.43966 | pgbench_tellers_pkey  |           245760
 2017-02-03 21:14:35.439659+01 | 1486152875.43966 | pgbench_accounts_pkey |       2246197248

 2017-02-03 21:14:36.522781+01 | 1486152876.52278 | pgbench_branches_pkey |            40960
 2017-02-03 21:14:36.522781+01 | 1486152876.52278 | pgbench_tellers_pkey  |           245760
 2017-02-03 21:14:36.522781+01 | 1486152876.52278 | pgbench_accounts_pkey |       2246197248

 2017-02-03 21:14:37.598549+01 | 1486152877.59855 | pgbench_branches_pkey |            40960
 2017-02-03 21:14:37.598549+01 | 1486152877.59855 | pgbench_tellers_pkey  |           245760
 2017-02-03 21:14:37.598549+01 | 1486152877.59855 | pgbench_accounts_pkey |       2246197248

 2017-02-03 21:14:38.674384+01 | 1486152878.67438 | pgbench_branches_pkey |            40960
 2017-02-03 21:14:38.674384+01 | 1486152878.67438 | pgbench_tellers_pkey  |           245760
 2017-02-03 21:14:38.674384+01 | 1486152878.67438 | pgbench_accounts_pkey |       2246197248

 2017-02-03 21:14:39.748559+01 | 1486152879.74856 | pgbench_branches_pkey |            40960
 2017-02-03 21:14:39.748559+01 | 1486152879.74856 | pgbench_tellers_pkey  |           245760
 2017-02-03 21:14:39.748559+01 | 1486152879.74856 | pgbench_accounts_pkey |       2246197248

 2017-02-03 21:14:40.830705+01 | 1486152880.8307 | pgbench_branches_pkey |            40960
 2017-02-03 21:14:40.830705+01 | 1486152880.8307 | pgbench_tellers_pkey  |           245760
 2017-02-03 21:14:40.830705+01 | 1486152880.8307 | pgbench_accounts_pkey |       2246197248

 2017-02-03 21:14:41.906072+01 | 1486152881.90607 | pgbench_branches_pkey |            40960
 2017-02-03 21:14:41.906072+01 | 1486152881.90607 | pgbench_tellers_pkey  |           245760
 2017-02-03 21:14:41.906072+01 | 1486152881.90607 | pgbench_accounts_pkey |       2246197248

 2017-02-03 21:14:42.989964+01 | 1486152882.98996 | pgbench_branches_pkey |            40960
 2017-02-03 21:14:42.989964+01 | 1486152882.98996 | pgbench_tellers_pkey  |           245760
 2017-02-03 21:14:42.989964+01 | 1486152882.98996 | pgbench_accounts_pkey |       2246197248

 2017-02-03 21:14:44.068734+01 | 1486152884.06873 | pgbench_branches_pkey |            40960
 2017-02-03 21:14:44.068734+01 | 1486152884.06873 | pgbench_tellers_pkey  |           245760
 2017-02-03 21:14:44.068734+01 | 1486152884.06873 | pgbench_accounts_pkey |       2246197248

 2017-02-03 21:14:45.160901+01 | 1486152885.1609 | pgbench_branches_pkey |            40960
 2017-02-03 21:14:45.160901+01 | 1486152885.1609 | pgbench_tellers_pkey  |           245760
 2017-02-03 21:14:45.160901+01 | 1486152885.1609 | pgbench_accounts_pkey |       2246197248

 2017-02-03 21:14:46.238048+01 | 1486152886.23805 | pgbench_branches_pkey |            40960
 2017-02-03 21:14:46.238048+01 | 1486152886.23805 | pgbench_tellers_pkey  |           245760
 2017-02-03 21:14:46.238048+01 | 1486152886.23805 | pgbench_accounts_pkey |       2246197248

 2017-02-03 21:14:47.31451+01 | 1486152887.31451 | pgbench_branches_pkey |            40960
 2017-02-03 21:14:47.31451+01 | 1486152887.31451 | pgbench_tellers_pkey  |           245760
 2017-02-03 21:14:47.31451+01 | 1486152887.31451 | pgbench_accounts_pkey |       2246197248

 2017-02-03 21:14:48.392992+01 | 1486152888.39299 | pgbench_branches_pkey |            40960
 2017-02-03 21:14:48.392992+01 | 1486152888.39299 | pgbench_tellers_pkey  |           245760
 2017-02-03 21:14:48.392992+01 | 1486152888.39299 | pgbench_accounts_pkey |       2246197248

 2017-02-03 21:14:49.479969+01 | 1486152889.47997 | pgbench_branches_pkey |            40960
 2017-02-03 21:14:49.479969+01 | 1486152889.47997 | pgbench_tellers_pkey  |           245760
 2017-02-03 21:14:49.479969+01 | 1486152889.47997 | pgbench_accounts_pkey |       2246197248

 2017-02-03 21:14:50.560172+01 | 1486152890.56017 | pgbench_branches_pkey |            40960
 2017-02-03 21:14:50.560172+01 | 1486152890.56017 | pgbench_tellers_pkey  |           245760
 2017-02-03 21:14:50.560172+01 | 1486152890.56017 | pgbench_accounts_pkey |       2246197248

 2017-02-03 21:14:51.632503+01 | 1486152891.6325 | pgbench_branches_pkey |            40960
 2017-02-03 21:14:51.632503+01 | 1486152891.6325 | pgbench_tellers_pkey  |           245760
 2017-02-03 21:14:51.632503+01 | 1486152891.6325 | pgbench_accounts_pkey |       2246197248

 2017-02-03 21:14:52.717388+01 | 1486152892.71739 | pgbench_branches_pkey |            40960
 2017-02-03 21:14:52.717388+01 | 1486152892.71739 | pgbench_tellers_pkey  |           245760
 2017-02-03 21:14:52.717388+01 | 1486152892.71739 | pgbench_accounts_pkey |       2246197248

 2017-02-03 21:14:53.795345+01 | 1486152893.79535 | pgbench_branches_pkey |            40960
 2017-02-03 21:14:53.795345+01 | 1486152893.79535 | pgbench_tellers_pkey  |           245760
 2017-02-03 21:14:53.795345+01 | 1486152893.79535 | pgbench_accounts_pkey |       2246197248

 2017-02-03 21:14:54.872796+01 | 1486152894.8728 | pgbench_branches_pkey |            40960
 2017-02-03 21:14:54.872796+01 | 1486152894.8728 | pgbench_tellers_pkey  |           245760
 2017-02-03 21:14:54.872796+01 | 1486152894.8728 | pgbench_accounts_pkey |       2246197248

 2017-02-03 21:14:55.946977+01 | 1486152895.94698 | pgbench_branches_pkey |            40960
 2017-02-03 21:14:55.946977+01 | 1486152895.94698 | pgbench_tellers_pkey  |           245760
 2017-02-03 21:14:55.946977+01 | 1486152895.94698 | pgbench_accounts_pkey |       2246197248

 2017-02-03 21:14:57.027641+01 | 1486152897.02764 | pgbench_branches_pkey |            40960
 2017-02-03 21:14:57.027641+01 | 1486152897.02764 | pgbench_tellers_pkey  |           245760
 2017-02-03 21:14:57.027641+01 | 1486152897.02764 | pgbench_accounts_pkey |       2246197248

 2017-02-03 21:14:58.109637+01 | 1486152898.10964 | pgbench_branches_pkey |            40960
 2017-02-03 21:14:58.109637+01 | 1486152898.10964 | pgbench_tellers_pkey  |           245760
 2017-02-03 21:14:58.109637+01 | 1486152898.10964 | pgbench_accounts_pkey |       2246197248

 2017-02-03 21:14:59.186334+01 | 1486152899.18633 | pgbench_branches_pkey |            40960
 2017-02-03 21:14:59.186334+01 | 1486152899.18633 | pgbench_tellers_pkey  |           245760
 2017-02-03 21:14:59.186334+01 | 1486152899.18633 | pgbench_accounts_pkey |       2246197248

 2017-02-03 21:15:00.265341+01 | 1486152900.26534 | pgbench_branches_pkey |            40960
 2017-02-03 21:15:00.265341+01 | 1486152900.26534 | pgbench_tellers_pkey  |           245760
 2017-02-03 21:15:00.265341+01 | 1486152900.26534 | pgbench_accounts_pkey |       2246197248

 2017-02-03 21:15:01.35005+01 | 1486152901.35005 | pgbench_branches_pkey |            40960
 2017-02-03 21:15:01.35005+01 | 1486152901.35005 | pgbench_tellers_pkey  |           245760
 2017-02-03 21:15:01.35005+01 | 1486152901.35005 | pgbench_accounts_pkey |       2246197248

 2017-02-03 21:15:02.440691+01 | 1486152902.44069 | pgbench_branches_pkey |            40960
 2017-02-03 21:15:02.440691+01 | 1486152902.44069 | pgbench_tellers_pkey  |           245760
 2017-02-03 21:15:02.440691+01 | 1486152902.44069 | pgbench_accounts_pkey |       2246197248

 2017-02-03 21:15:03.52184+01 | 1486152903.52184 | pgbench_branches_pkey |            40960
 2017-02-03 21:15:03.52184+01 | 1486152903.52184 | pgbench_tellers_pkey  |           245760
 2017-02-03 21:15:03.52184+01 | 1486152903.52184 | pgbench_accounts_pkey |       2246197248

 2017-02-03 21:15:04.601174+01 | 1486152904.60117 | pgbench_branches_pkey |            40960
 2017-02-03 21:15:04.601174+01 | 1486152904.60117 | pgbench_tellers_pkey  |           245760
 2017-02-03 21:15:04.601174+01 | 1486152904.60117 | pgbench_accounts_pkey |       2246197248

 2017-02-03 21:15:05.67415+01 | 1486152905.67415 | pgbench_branches_pkey |            40960
 2017-02-03 21:15:05.67415+01 | 1486152905.67415 | pgbench_tellers_pkey  |           245760
 2017-02-03 21:15:05.67415+01 | 1486152905.67415 | pgbench_accounts_pkey |       2246197248

 2017-02-03 21:15:06.760489+01 | 1486152906.76049 | pgbench_branches_pkey |            40960
 2017-02-03 21:15:06.760489+01 | 1486152906.76049 | pgbench_tellers_pkey  |           245760
 2017-02-03 21:15:06.760489+01 | 1486152906.76049 | pgbench_accounts_pkey |       2246197248

 2017-02-03 21:15:07.839218+01 | 1486152907.83922 | pgbench_branches_pkey |            40960
 2017-02-03 21:15:07.839218+01 | 1486152907.83922 | pgbench_tellers_pkey  |           245760
 2017-02-03 21:15:07.839218+01 | 1486152907.83922 | pgbench_accounts_pkey |       2246197248

 2017-02-03 21:15:08.914806+01 | 1486152908.91481 | pgbench_branches_pkey |            40960
 2017-02-03 21:15:08.914806+01 | 1486152908.91481 | pgbench_tellers_pkey  |           245760
 2017-02-03 21:15:08.914806+01 | 1486152908.91481 | pgbench_accounts_pkey |       2246197248

 2017-02-03 21:15:09.991641+01 | 1486152909.99164 | pgbench_branches_pkey |            40960
 2017-02-03 21:15:09.991641+01 | 1486152909.99164 | pgbench_tellers_pkey  |           245760
 2017-02-03 21:15:09.991641+01 | 1486152909.99164 | pgbench_accounts_pkey |       2246197248

 2017-02-03 21:15:11.066997+01 | 1486152911.067 | pgbench_branches_pkey |            40960
 2017-02-03 21:15:11.066997+01 | 1486152911.067 | pgbench_tellers_pkey  |           245760
 2017-02-03 21:15:11.066997+01 | 1486152911.067 | pgbench_accounts_pkey |       2246197248

 2017-02-03 21:15:12.150699+01 | 1486152912.1507 | pgbench_branches_pkey |            40960
 2017-02-03 21:15:12.150699+01 | 1486152912.1507 | pgbench_tellers_pkey  |           245760
 2017-02-03 21:15:12.150699+01 | 1486152912.1507 | pgbench_accounts_pkey |       2246197248

 2017-02-03 21:15:13.226244+01 | 1486152913.22624 | pgbench_branches_pkey |            40960
 2017-02-03 21:15:13.226244+01 | 1486152913.22624 | pgbench_tellers_pkey  |           245760
 2017-02-03 21:15:13.226244+01 | 1486152913.22624 | pgbench_accounts_pkey |       2246197248

 2017-02-03 21:15:14.300471+01 | 1486152914.30047 | pgbench_branches_pkey |            40960
 2017-02-03 21:15:14.300471+01 | 1486152914.30047 | pgbench_tellers_pkey  |           245760
 2017-02-03 21:15:14.300471+01 | 1486152914.30047 | pgbench_accounts_pkey |       2246197248

 2017-02-03 21:15:15.378757+01 | 1486152915.37876 | pgbench_branches_pkey |            40960
 2017-02-03 21:15:15.378757+01 | 1486152915.37876 | pgbench_tellers_pkey  |           245760
 2017-02-03 21:15:15.378757+01 | 1486152915.37876 | pgbench_accounts_pkey |       2246197248

 2017-02-03 21:15:16.45757+01 | 1486152916.45757 | pgbench_branches_pkey |            40960
 2017-02-03 21:15:16.45757+01 | 1486152916.45757 | pgbench_tellers_pkey  |           245760
 2017-02-03 21:15:16.45757+01 | 1486152916.45757 | pgbench_accounts_pkey |       2246197248

 2017-02-03 21:15:17.531347+01 | 1486152917.53135 | pgbench_branches_pkey |            40960
 2017-02-03 21:15:17.531347+01 | 1486152917.53135 | pgbench_tellers_pkey  |           245760
 2017-02-03 21:15:17.531347+01 | 1486152917.53135 | pgbench_accounts_pkey |       2246197248

 2017-02-03 21:15:18.624731+01 | 1486152918.62473 | pgbench_branches_pkey |            40960
 2017-02-03 21:15:18.624731+01 | 1486152918.62473 | pgbench_tellers_pkey  |           245760
 2017-02-03 21:15:18.624731+01 | 1486152918.62473 | pgbench_accounts_pkey |       2246197248

 2017-02-03 21:15:19.69489+01 | 1486152919.69489 | pgbench_branches_pkey |            40960
 2017-02-03 21:15:19.69489+01 | 1486152919.69489 | pgbench_tellers_pkey  |           245760
 2017-02-03 21:15:19.69489+01 | 1486152919.69489 | pgbench_accounts_pkey |       2246197248

 2017-02-03 21:15:20.772096+01 | 1486152920.7721 | pgbench_branches_pkey |            40960
 2017-02-03 21:15:20.772096+01 | 1486152920.7721 | pgbench_tellers_pkey  |           245760
 2017-02-03 21:15:20.772096+01 | 1486152920.7721 | pgbench_accounts_pkey |       2246197248

 2017-02-03 21:15:21.860974+01 | 1486152921.86097 | pgbench_branches_pkey |            40960
 2017-02-03 21:15:21.860974+01 | 1486152921.86097 | pgbench_tellers_pkey  |           245760
 2017-02-03 21:15:21.860974+01 | 1486152921.86097 | pgbench_accounts_pkey |       2246197248

 2017-02-03 21:15:22.94934+01 | 1486152922.94934 | pgbench_branches_pkey |            40960
 2017-02-03 21:15:22.94934+01 | 1486152922.94934 | pgbench_tellers_pkey  |           245760
 2017-02-03 21:15:22.94934+01 | 1486152922.94934 | pgbench_accounts_pkey |       2246197248

 2017-02-03 21:15:24.023828+01 | 1486152924.02383 | pgbench_branches_pkey |            40960
 2017-02-03 21:15:24.023828+01 | 1486152924.02383 | pgbench_tellers_pkey  |           245760
 2017-02-03 21:15:24.023828+01 | 1486152924.02383 | pgbench_accounts_pkey |       2246197248

 2017-02-03 21:15:25.102576+01 | 1486152925.10258 | pgbench_branches_pkey |            40960
 2017-02-03 21:15:25.102576+01 | 1486152925.10258 | pgbench_tellers_pkey  |           245760
 2017-02-03 21:15:25.102576+01 | 1486152925.10258 | pgbench_accounts_pkey |       2246197248

 2017-02-03 21:15:26.179977+01 | 1486152926.17998 | pgbench_branches_pkey |            40960
 2017-02-03 21:15:26.179977+01 | 1486152926.17998 | pgbench_tellers_pkey  |           245760
 2017-02-03 21:15:26.179977+01 | 1486152926.17998 | pgbench_accounts_pkey |       2246197248

 2017-02-03 21:15:27.2551+01 | 1486152927.2551 | pgbench_branches_pkey |            40960
 2017-02-03 21:15:27.2551+01 | 1486152927.2551 | pgbench_tellers_pkey  |           245760
 2017-02-03 21:15:27.2551+01 | 1486152927.2551 | pgbench_accounts_pkey |       2246197248

 2017-02-03 21:15:28.339133+01 | 1486152928.33913 | pgbench_branches_pkey |            40960
 2017-02-03 21:15:28.339133+01 | 1486152928.33913 | pgbench_tellers_pkey  |           245760
 2017-02-03 21:15:28.339133+01 | 1486152928.33913 | pgbench_accounts_pkey |       2246197248

 2017-02-03 21:15:29.425936+01 | 1486152929.42594 | pgbench_branches_pkey |            40960
 2017-02-03 21:15:29.425936+01 | 1486152929.42594 | pgbench_tellers_pkey  |           245760
 2017-02-03 21:15:29.425936+01 | 1486152929.42594 | pgbench_accounts_pkey |       2246197248

 2017-02-03 21:15:30.501556+01 | 1486152930.50156 | pgbench_branches_pkey |            40960
 2017-02-03 21:15:30.501556+01 | 1486152930.50156 | pgbench_tellers_pkey  |           245760
 2017-02-03 21:15:30.501556+01 | 1486152930.50156 | pgbench_accounts_pkey |       2246197248

 2017-02-03 21:15:31.578468+01 | 1486152931.57847 | pgbench_branches_pkey |            40960
 2017-02-03 21:15:31.578468+01 | 1486152931.57847 | pgbench_tellers_pkey  |           245760
 2017-02-03 21:15:31.578468+01 | 1486152931.57847 | pgbench_accounts_pkey |       2246197248

 2017-02-03 21:15:32.661762+01 | 1486152932.66176 | pgbench_branches_pkey |            40960
 2017-02-03 21:15:32.661762+01 | 1486152932.66176 | pgbench_tellers_pkey  |           245760
 2017-02-03 21:15:32.661762+01 | 1486152932.66176 | pgbench_accounts_pkey |       2246197248

 2017-02-03 21:15:33.741236+01 | 1486152933.74124 | pgbench_branches_pkey |            40960
 2017-02-03 21:15:33.741236+01 | 1486152933.74124 | pgbench_tellers_pkey  |           245760
 2017-02-03 21:15:33.741236+01 | 1486152933.74124 | pgbench_accounts_pkey |       2246197248

 2017-02-03 21:15:34.815496+01 | 1486152934.8155 | pgbench_branches_pkey |            40960
 2017-02-03 21:15:34.815496+01 | 1486152934.8155 | pgbench_tellers_pkey  |           245760
 2017-02-03 21:15:34.815496+01 | 1486152934.8155 | pgbench_accounts_pkey |       2246197248

 2017-02-03 21:15:35.892057+01 | 1486152935.89206 | pgbench_branches_pkey |            40960
 2017-02-03 21:15:35.892057+01 | 1486152935.89206 | pgbench_tellers_pkey  |           245760
 2017-02-03 21:15:35.892057+01 | 1486152935.89206 | pgbench_accounts_pkey |       2246197248

 2017-02-03 21:15:36.972607+01 | 1486152936.97261 | pgbench_branches_pkey |            40960
 2017-02-03 21:15:36.972607+01 | 1486152936.97261 | pgbench_tellers_pkey  |           245760
 2017-02-03 21:15:36.972607+01 | 1486152936.97261 | pgbench_accounts_pkey |       2246197248

 2017-02-03 21:15:38.061019+01 | 1486152938.06102 | pgbench_branches_pkey |            40960
 2017-02-03 21:15:38.061019+01 | 1486152938.06102 | pgbench_tellers_pkey  |           245760
 2017-02-03 21:15:38.061019+01 | 1486152938.06102 | pgbench_accounts_pkey |       2246197248

 2017-02-03 21:15:39.142761+01 | 1486152939.14276 | pgbench_branches_pkey |            40960
 2017-02-03 21:15:39.142761+01 | 1486152939.14276 | pgbench_tellers_pkey  |           245760
 2017-02-03 21:15:39.142761+01 | 1486152939.14276 | pgbench_accounts_pkey |       2246197248

 2017-02-03 21:15:40.221686+01 | 1486152940.22169 | pgbench_branches_pkey |            40960
 2017-02-03 21:15:40.221686+01 | 1486152940.22169 | pgbench_tellers_pkey  |           245760
 2017-02-03 21:15:40.221686+01 | 1486152940.22169 | pgbench_accounts_pkey |       2246197248

 2017-02-03 21:15:41.298274+01 | 1486152941.29827 | pgbench_branches_pkey |            40960
 2017-02-03 21:15:41.298274+01 | 1486152941.29827 | pgbench_tellers_pkey  |           245760
 2017-02-03 21:15:41.298274+01 | 1486152941.29827 | pgbench_accounts_pkey |       2246197248

 2017-02-03 21:15:42.372706+01 | 1486152942.37271 | pgbench_branches_pkey |            40960
 2017-02-03 21:15:42.372706+01 | 1486152942.37271 | pgbench_tellers_pkey  |           245760
 2017-02-03 21:15:42.372706+01 | 1486152942.37271 | pgbench_accounts_pkey |       2246197248

 2017-02-03 21:15:43.457241+01 | 1486152943.45724 | pgbench_branches_pkey |            40960
 2017-02-03 21:15:43.457241+01 | 1486152943.45724 | pgbench_tellers_pkey  |           245760
 2017-02-03 21:15:43.457241+01 | 1486152943.45724 | pgbench_accounts_pkey |       2246197248

 2017-02-03 21:15:44.539697+01 | 1486152944.5397 | pgbench_branches_pkey |            40960
 2017-02-03 21:15:44.539697+01 | 1486152944.5397 | pgbench_tellers_pkey  |           245760
 2017-02-03 21:15:44.539697+01 | 1486152944.5397 | pgbench_accounts_pkey |       2246197248

 2017-02-03 21:15:45.621863+01 | 1486152945.62186 | pgbench_branches_pkey |            40960
 2017-02-03 21:15:45.621863+01 | 1486152945.62186 | pgbench_tellers_pkey  |           245760
 2017-02-03 21:15:45.621863+01 | 1486152945.62186 | pgbench_accounts_pkey |       2246197248

 2017-02-03 21:15:46.695381+01 | 1486152946.69538 | pgbench_branches_pkey |            40960
 2017-02-03 21:15:46.695381+01 | 1486152946.69538 | pgbench_tellers_pkey  |           245760
 2017-02-03 21:15:46.695381+01 | 1486152946.69538 | pgbench_accounts_pkey |       2246197248

 2017-02-03 21:15:47.771317+01 | 1486152947.77132 | pgbench_branches_pkey |            40960
 2017-02-03 21:15:47.771317+01 | 1486152947.77132 | pgbench_tellers_pkey  |           245760
 2017-02-03 21:15:47.771317+01 | 1486152947.77132 | pgbench_accounts_pkey |       2246197248

 2017-02-03 21:15:48.852293+01 | 1486152948.85229 | pgbench_branches_pkey |            40960
 2017-02-03 21:15:48.852293+01 | 1486152948.85229 | pgbench_tellers_pkey  |           245760
 2017-02-03 21:15:48.852293+01 | 1486152948.85229 | pgbench_accounts_pkey |       2246197248

 2017-02-03 21:15:49.925814+01 | 1486152949.92581 | pgbench_branches_pkey |            40960
 2017-02-03 21:15:49.925814+01 | 1486152949.92581 | pgbench_tellers_pkey  |           245760
 2017-02-03 21:15:49.925814+01 | 1486152949.92581 | pgbench_accounts_pkey |       2246197248

 2017-02-03 21:15:51.008019+01 | 1486152951.00802 | pgbench_branches_pkey |            40960
 2017-02-03 21:15:51.008019+01 | 1486152951.00802 | pgbench_tellers_pkey  |           245760
 2017-02-03 21:15:51.008019+01 | 1486152951.00802 | pgbench_accounts_pkey |       2246197248

 2017-02-03 21:15:52.08863+01 | 1486152952.08863 | pgbench_branches_pkey |            40960
 2017-02-03 21:15:52.08863+01 | 1486152952.08863 | pgbench_tellers_pkey  |           245760
 2017-02-03 21:15:52.08863+01 | 1486152952.08863 | pgbench_accounts_pkey |       2246197248

 2017-02-03 21:15:53.156002+01 | 1486152953.156 | pgbench_branches_pkey |            40960
 2017-02-03 21:15:53.156002+01 | 1486152953.156 | pgbench_tellers_pkey  |           245760
 2017-02-03 21:15:53.156002+01 | 1486152953.156 | pgbench_accounts_pkey |       2246197248

 2017-02-03 21:15:54.237409+01 | 1486152954.23741 | pgbench_branches_pkey |            40960
 2017-02-03 21:15:54.237409+01 | 1486152954.23741 | pgbench_tellers_pkey  |           245760
 2017-02-03 21:15:54.237409+01 | 1486152954.23741 | pgbench_accounts_pkey |       2246197248

 2017-02-03 21:15:55.318125+01 | 1486152955.31813 | pgbench_branches_pkey |            40960
 2017-02-03 21:15:55.318125+01 | 1486152955.31813 | pgbench_tellers_pkey  |           245760
 2017-02-03 21:15:55.318125+01 | 1486152955.31813 | pgbench_accounts_pkey |       2246197248

 2017-02-03 21:15:56.395796+01 | 1486152956.3958 | pgbench_branches_pkey |            40960
 2017-02-03 21:15:56.395796+01 | 1486152956.3958 | pgbench_tellers_pkey  |           245760
 2017-02-03 21:15:56.395796+01 | 1486152956.3958 | pgbench_accounts_pkey |       2246197248

 2017-02-03 21:15:57.476586+01 | 1486152957.47659 | pgbench_branches_pkey |            40960
 2017-02-03 21:15:57.476586+01 | 1486152957.47659 | pgbench_tellers_pkey  |           245760
 2017-02-03 21:15:57.476586+01 | 1486152957.47659 | pgbench_accounts_pkey |       2246197248

 2017-02-03 21:15:58.554089+01 | 1486152958.55409 | pgbench_branches_pkey |            40960
 2017-02-03 21:15:58.554089+01 | 1486152958.55409 | pgbench_tellers_pkey  |           245760
 2017-02-03 21:15:58.554089+01 | 1486152958.55409 | pgbench_accounts_pkey |       2246197248

 2017-02-03 21:15:59.630374+01 | 1486152959.63037 | pgbench_branches_pkey |            40960
 2017-02-03 21:15:59.630374+01 | 1486152959.63037 | pgbench_tellers_pkey  |           245760
 2017-02-03 21:15:59.630374+01 | 1486152959.63037 | pgbench_accounts_pkey |       2246197248

 2017-02-03 21:16:00.713833+01 | 1486152960.71383 | pgbench_branches_pkey |            40960
 2017-02-03 21:16:00.713833+01 | 1486152960.71383 | pgbench_tellers_pkey  |           245760
 2017-02-03 21:16:00.713833+01 | 1486152960.71383 | pgbench_accounts_pkey |       2246197248

 2017-02-03 21:16:01.788855+01 | 1486152961.78886 | pgbench_branches_pkey |            40960
 2017-02-03 21:16:01.788855+01 | 1486152961.78886 | pgbench_tellers_pkey  |           245760
 2017-02-03 21:16:01.788855+01 | 1486152961.78886 | pgbench_accounts_pkey |       2246197248

 2017-02-03 21:16:02.873366+01 | 1486152962.87337 | pgbench_branches_pkey |            40960
 2017-02-03 21:16:02.873366+01 | 1486152962.87337 | pgbench_tellers_pkey  |           245760
 2017-02-03 21:16:02.873366+01 | 1486152962.87337 | pgbench_accounts_pkey |       2246197248

 2017-02-03 21:16:03.951362+01 | 1486152963.95136 | pgbench_branches_pkey |            40960
 2017-02-03 21:16:03.951362+01 | 1486152963.95136 | pgbench_tellers_pkey  |           245760
 2017-02-03 21:16:03.951362+01 | 1486152963.95136 | pgbench_accounts_pkey |       2246197248

 2017-02-03 21:16:05.02793+01 | 1486152965.02793 | pgbench_branches_pkey |            40960
 2017-02-03 21:16:05.02793+01 | 1486152965.02793 | pgbench_tellers_pkey  |           245760
 2017-02-03 21:16:05.02793+01 | 1486152965.02793 | pgbench_accounts_pkey |       2246197248

 2017-02-03 21:16:06.113622+01 | 1486152966.11362 | pgbench_branches_pkey |            40960
 2017-02-03 21:16:06.113622+01 | 1486152966.11362 | pgbench_tellers_pkey  |           245760
 2017-02-03 21:16:06.113622+01 | 1486152966.11362 | pgbench_accounts_pkey |       2246197248

 2017-02-03 21:16:07.196319+01 | 1486152967.19632 | pgbench_branches_pkey |            40960
 2017-02-03 21:16:07.196319+01 | 1486152967.19632 | pgbench_tellers_pkey  |           245760
 2017-02-03 21:16:07.196319+01 | 1486152967.19632 | pgbench_accounts_pkey |       2246197248

 2017-02-03 21:16:08.28064+01 | 1486152968.28064 | pgbench_branches_pkey |            40960
 2017-02-03 21:16:08.28064+01 | 1486152968.28064 | pgbench_tellers_pkey  |           245760
 2017-02-03 21:16:08.28064+01 | 1486152968.28064 | pgbench_accounts_pkey |       2246197248

 2017-02-03 21:16:09.357499+01 | 1486152969.3575 | pgbench_branches_pkey |            40960
 2017-02-03 21:16:09.357499+01 | 1486152969.3575 | pgbench_tellers_pkey  |           245760
 2017-02-03 21:16:09.357499+01 | 1486152969.3575 | pgbench_accounts_pkey |       2246197248

 2017-02-03 21:16:10.430397+01 | 1486152970.4304 | pgbench_branches_pkey |            40960
 2017-02-03 21:16:10.430397+01 | 1486152970.4304 | pgbench_tellers_pkey  |           245760
 2017-02-03 21:16:10.430397+01 | 1486152970.4304 | pgbench_accounts_pkey |       2246197248

 2017-02-03 21:16:11.505768+01 | 1486152971.50577 | pgbench_branches_pkey |            40960
 2017-02-03 21:16:11.505768+01 | 1486152971.50577 | pgbench_tellers_pkey  |           245760
 2017-02-03 21:16:11.505768+01 | 1486152971.50577 | pgbench_accounts_pkey |       2246197248

 2017-02-03 21:16:12.573949+01 | 1486152972.57395 | pgbench_branches_pkey |            40960
 2017-02-03 21:16:12.573949+01 | 1486152972.57395 | pgbench_tellers_pkey  |           245760
 2017-02-03 21:16:12.573949+01 | 1486152972.57395 | pgbench_accounts_pkey |       2246197248

 2017-02-03 21:16:13.662353+01 | 1486152973.66235 | pgbench_branches_pkey |            40960
 2017-02-03 21:16:13.662353+01 | 1486152973.66235 | pgbench_tellers_pkey  |           245760
 2017-02-03 21:16:13.662353+01 | 1486152973.66235 | pgbench_accounts_pkey |       2246197248

 2017-02-03 21:16:14.736254+01 | 1486152974.73625 | pgbench_branches_pkey |            40960
 2017-02-03 21:16:14.736254+01 | 1486152974.73625 | pgbench_tellers_pkey  |           245760
 2017-02-03 21:16:14.736254+01 | 1486152974.73625 | pgbench_accounts_pkey |       2246197248

 2017-02-03 21:16:15.809139+01 | 1486152975.80914 | pgbench_branches_pkey |            40960
 2017-02-03 21:16:15.809139+01 | 1486152975.80914 | pgbench_tellers_pkey  |           245760
 2017-02-03 21:16:15.809139+01 | 1486152975.80914 | pgbench_accounts_pkey |       2246197248

 2017-02-03 21:16:16.890056+01 | 1486152976.89006 | pgbench_branches_pkey |            40960
 2017-02-03 21:16:16.890056+01 | 1486152976.89006 | pgbench_tellers_pkey  |           245760
 2017-02-03 21:16:16.890056+01 | 1486152976.89006 | pgbench_accounts_pkey |       2246197248

 2017-02-03 21:16:17.971505+01 | 1486152977.9715 | pgbench_branches_pkey |            40960
 2017-02-03 21:16:17.971505+01 | 1486152977.9715 | pgbench_tellers_pkey  |           245760
 2017-02-03 21:16:17.971505+01 | 1486152977.9715 | pgbench_accounts_pkey |       2246197248

 2017-02-03 21:16:19.053009+01 | 1486152979.05301 | pgbench_branches_pkey |            40960
 2017-02-03 21:16:19.053009+01 | 1486152979.05301 | pgbench_tellers_pkey  |           245760
 2017-02-03 21:16:19.053009+01 | 1486152979.05301 | pgbench_accounts_pkey |       2246197248

 2017-02-03 21:16:20.1339+01 | 1486152980.1339 | pgbench_branches_pkey |            40960
 2017-02-03 21:16:20.1339+01 | 1486152980.1339 | pgbench_tellers_pkey  |           245760
 2017-02-03 21:16:20.1339+01 | 1486152980.1339 | pgbench_accounts_pkey |       2246197248

 2017-02-03 21:16:21.215548+01 | 1486152981.21555 | pgbench_branches_pkey |            40960
 2017-02-03 21:16:21.215548+01 | 1486152981.21555 | pgbench_tellers_pkey  |           245760
 2017-02-03 21:16:21.215548+01 | 1486152981.21555 | pgbench_accounts_pkey |       2246197248

 2017-02-03 21:16:22.292151+01 | 1486152982.29215 | pgbench_branches_pkey |            40960
 2017-02-03 21:16:22.292151+01 | 1486152982.29215 | pgbench_tellers_pkey  |           245760
 2017-02-03 21:16:22.292151+01 | 1486152982.29215 | pgbench_accounts_pkey |       2246197248

 2017-02-03 21:16:23.377109+01 | 1486152983.37711 | pgbench_branches_pkey |            40960
 2017-02-03 21:16:23.377109+01 | 1486152983.37711 | pgbench_tellers_pkey  |           245760
 2017-02-03 21:16:23.377109+01 | 1486152983.37711 | pgbench_accounts_pkey |       2246197248

 2017-02-03 21:16:24.449383+01 | 1486152984.44938 | pgbench_branches_pkey |            40960
 2017-02-03 21:16:24.449383+01 | 1486152984.44938 | pgbench_tellers_pkey  |           245760
 2017-02-03 21:16:24.449383+01 | 1486152984.44938 | pgbench_accounts_pkey |       2246197248

 2017-02-03 21:16:25.52236+01 | 1486152985.52236 | pgbench_branches_pkey |            40960
 2017-02-03 21:16:25.52236+01 | 1486152985.52236 | pgbench_tellers_pkey  |           245760
 2017-02-03 21:16:25.52236+01 | 1486152985.52236 | pgbench_accounts_pkey |       2246197248

 2017-02-03 21:16:26.606322+01 | 1486152986.60632 | pgbench_branches_pkey |            40960
 2017-02-03 21:16:26.606322+01 | 1486152986.60632 | pgbench_tellers_pkey  |           245760
 2017-02-03 21:16:26.606322+01 | 1486152986.60632 | pgbench_accounts_pkey |       2246197248

 2017-02-03 21:16:27.680921+01 | 1486152987.68092 | pgbench_branches_pkey |            40960
 2017-02-03 21:16:27.680921+01 | 1486152987.68092 | pgbench_tellers_pkey  |           245760
 2017-02-03 21:16:27.680921+01 | 1486152987.68092 | pgbench_accounts_pkey |       2246197248

 2017-02-03 21:16:28.756812+01 | 1486152988.75681 | pgbench_branches_pkey |            40960
 2017-02-03 21:16:28.756812+01 | 1486152988.75681 | pgbench_tellers_pkey  |           245760
 2017-02-03 21:16:28.756812+01 | 1486152988.75681 | pgbench_accounts_pkey |       2246197248

 2017-02-03 21:16:29.8371+01 | 1486152989.8371 | pgbench_branches_pkey |            40960
 2017-02-03 21:16:29.8371+01 | 1486152989.8371 | pgbench_tellers_pkey  |           245760
 2017-02-03 21:16:29.8371+01 | 1486152989.8371 | pgbench_accounts_pkey |       2246197248

 2017-02-03 21:16:30.923485+01 | 1486152990.92349 | pgbench_branches_pkey |            40960
 2017-02-03 21:16:30.923485+01 | 1486152990.92349 | pgbench_tellers_pkey  |           245760
 2017-02-03 21:16:30.923485+01 | 1486152990.92349 | pgbench_accounts_pkey |       2246197248

 2017-02-03 21:16:31.995354+01 | 1486152991.99535 | pgbench_branches_pkey |            40960
 2017-02-03 21:16:31.995354+01 | 1486152991.99535 | pgbench_tellers_pkey  |           245760
 2017-02-03 21:16:31.995354+01 | 1486152991.99535 | pgbench_accounts_pkey |       2246197248

 2017-02-03 21:16:33.076183+01 | 1486152993.07618 | pgbench_branches_pkey |            40960
 2017-02-03 21:16:33.076183+01 | 1486152993.07618 | pgbench_tellers_pkey  |           245760
 2017-02-03 21:16:33.076183+01 | 1486152993.07618 | pgbench_accounts_pkey |       2246197248

 2017-02-03 21:16:34.160653+01 | 1486152994.16065 | pgbench_branches_pkey |            40960
 2017-02-03 21:16:34.160653+01 | 1486152994.16065 | pgbench_tellers_pkey  |           245760
 2017-02-03 21:16:34.160653+01 | 1486152994.16065 | pgbench_accounts_pkey |       2246197248

 2017-02-03 21:16:35.243101+01 | 1486152995.2431 | pgbench_branches_pkey |            40960
 2017-02-03 21:16:35.243101+01 | 1486152995.2431 | pgbench_tellers_pkey  |           245760
 2017-02-03 21:16:35.243101+01 | 1486152995.2431 | pgbench_accounts_pkey |       2246197248

 2017-02-03 21:16:36.322314+01 | 1486152996.32231 | pgbench_branches_pkey |            40960
 2017-02-03 21:16:36.322314+01 | 1486152996.32231 | pgbench_tellers_pkey  |           245760
 2017-02-03 21:16:36.322314+01 | 1486152996.32231 | pgbench_accounts_pkey |       2246197248

 2017-02-03 21:16:37.402219+01 | 1486152997.40222 | pgbench_branches_pkey |            40960
 2017-02-03 21:16:37.402219+01 | 1486152997.40222 | pgbench_tellers_pkey  |           245760
 2017-02-03 21:16:37.402219+01 | 1486152997.40222 | pgbench_accounts_pkey |       2246197248

 2017-02-03 21:16:38.488734+01 | 1486152998.48873 | pgbench_branches_pkey |            40960
 2017-02-03 21:16:38.488734+01 | 1486152998.48873 | pgbench_tellers_pkey  |           245760
 2017-02-03 21:16:38.488734+01 | 1486152998.48873 | pgbench_accounts_pkey |       2246197248

 2017-02-03 21:16:39.574804+01 | 1486152999.5748 | pgbench_branches_pkey |            40960
 2017-02-03 21:16:39.574804+01 | 1486152999.5748 | pgbench_tellers_pkey  |           245760
 2017-02-03 21:16:39.574804+01 | 1486152999.5748 | pgbench_accounts_pkey |       2246197248

 2017-02-03 21:16:40.661881+01 | 1486153000.66188 | pgbench_branches_pkey |            40960
 2017-02-03 21:16:40.661881+01 | 1486153000.66188 | pgbench_tellers_pkey  |           245760
 2017-02-03 21:16:40.661881+01 | 1486153000.66188 | pgbench_accounts_pkey |       2246197248

 2017-02-03 21:16:41.744724+01 | 1486153001.74472 | pgbench_branches_pkey |            40960
 2017-02-03 21:16:41.744724+01 | 1486153001.74472 | pgbench_tellers_pkey  |           245760
 2017-02-03 21:16:41.744724+01 | 1486153001.74472 | pgbench_accounts_pkey |       2246197248

 2017-02-03 21:16:42.818704+01 | 1486153002.8187 | pgbench_branches_pkey |            40960
 2017-02-03 21:16:42.818704+01 | 1486153002.8187 | pgbench_tellers_pkey  |           245760
 2017-02-03 21:16:42.818704+01 | 1486153002.8187 | pgbench_accounts_pkey |       2246197248

 2017-02-03 21:16:43.89806+01 | 1486153003.89806 | pgbench_branches_pkey |            40960
 2017-02-03 21:16:43.89806+01 | 1486153003.89806 | pgbench_tellers_pkey  |           245760
 2017-02-03 21:16:43.89806+01 | 1486153003.89806 | pgbench_accounts_pkey |       2246197248

 2017-02-03 21:16:44.981212+01 | 1486153004.98121 | pgbench_branches_pkey |            40960
 2017-02-03 21:16:44.981212+01 | 1486153004.98121 | pgbench_tellers_pkey  |           245760
 2017-02-03 21:16:44.981212+01 | 1486153004.98121 | pgbench_accounts_pkey |       2246197248

 2017-02-03 21:16:46.060114+01 | 1486153006.06011 | pgbench_branches_pkey |            40960
 2017-02-03 21:16:46.060114+01 | 1486153006.06011 | pgbench_tellers_pkey  |           245760
 2017-02-03 21:16:46.060114+01 | 1486153006.06011 | pgbench_accounts_pkey |       2246197248

 2017-02-03 21:16:47.133517+01 | 1486153007.13352 | pgbench_branches_pkey |            40960
 2017-02-03 21:16:47.133517+01 | 1486153007.13352 | pgbench_tellers_pkey  |           245760
 2017-02-03 21:16:47.133517+01 | 1486153007.13352 | pgbench_accounts_pkey |       2246197248

 2017-02-03 21:16:48.208435+01 | 1486153008.20844 | pgbench_branches_pkey |            40960
 2017-02-03 21:16:48.208435+01 | 1486153008.20844 | pgbench_tellers_pkey  |           245760
 2017-02-03 21:16:48.208435+01 | 1486153008.20844 | pgbench_accounts_pkey |       2246197248

 2017-02-03 21:16:49.294825+01 | 1486153009.29483 | pgbench_branches_pkey |            40960
 2017-02-03 21:16:49.294825+01 | 1486153009.29483 | pgbench_tellers_pkey  |           245760
 2017-02-03 21:16:49.294825+01 | 1486153009.29483 | pgbench_accounts_pkey |       2246197248

 2017-02-03 21:16:50.374294+01 | 1486153010.37429 | pgbench_branches_pkey |            40960
 2017-02-03 21:16:50.374294+01 | 1486153010.37429 | pgbench_tellers_pkey  |           245760
 2017-02-03 21:16:50.374294+01 | 1486153010.37429 | pgbench_accounts_pkey |       2246197248

 2017-02-03 21:16:51.462904+01 | 1486153011.4629 | pgbench_branches_pkey |            40960
 2017-02-03 21:16:51.462904+01 | 1486153011.4629 | pgbench_tellers_pkey  |           245760
 2017-02-03 21:16:51.462904+01 | 1486153011.4629 | pgbench_accounts_pkey |       2246197248

 2017-02-03 21:16:52.54107+01 | 1486153012.54107 | pgbench_branches_pkey |            40960
 2017-02-03 21:16:52.54107+01 | 1486153012.54107 | pgbench_tellers_pkey  |           245760
 2017-02-03 21:16:52.54107+01 | 1486153012.54107 | pgbench_accounts_pkey |       2246197248

 2017-02-03 21:16:53.622454+01 | 1486153013.62245 | pgbench_branches_pkey |            40960
 2017-02-03 21:16:53.622454+01 | 1486153013.62245 | pgbench_tellers_pkey  |           245760
 2017-02-03 21:16:53.622454+01 | 1486153013.62245 | pgbench_accounts_pkey |       2246197248

 2017-02-03 21:16:54.70635+01 | 1486153014.70635 | pgbench_branches_pkey |            40960
 2017-02-03 21:16:54.70635+01 | 1486153014.70635 | pgbench_tellers_pkey  |           245760
 2017-02-03 21:16:54.70635+01 | 1486153014.70635 | pgbench_accounts_pkey |       2246197248

 2017-02-03 21:16:55.783275+01 | 1486153015.78327 | pgbench_branches_pkey |            40960
 2017-02-03 21:16:55.783275+01 | 1486153015.78327 | pgbench_tellers_pkey  |           245760
 2017-02-03 21:16:55.783275+01 | 1486153015.78327 | pgbench_accounts_pkey |       2246197248

 2017-02-03 21:16:56.862008+01 | 1486153016.86201 | pgbench_branches_pkey |            40960
 2017-02-03 21:16:56.862008+01 | 1486153016.86201 | pgbench_tellers_pkey  |           245760
 2017-02-03 21:16:56.862008+01 | 1486153016.86201 | pgbench_accounts_pkey |       2246197248

 2017-02-03 21:16:57.941426+01 | 1486153017.94143 | pgbench_branches_pkey |            40960
 2017-02-03 21:16:57.941426+01 | 1486153017.94143 | pgbench_tellers_pkey  |           245760
 2017-02-03 21:16:57.941426+01 | 1486153017.94143 | pgbench_accounts_pkey |       2246197248

 2017-02-03 21:16:59.018961+01 | 1486153019.01896 | pgbench_branches_pkey |            40960
 2017-02-03 21:16:59.018961+01 | 1486153019.01896 | pgbench_tellers_pkey  |           245760
 2017-02-03 21:16:59.018961+01 | 1486153019.01896 | pgbench_accounts_pkey |       2246197248

 2017-02-03 21:17:00.092851+01 | 1486153020.09285 | pgbench_branches_pkey |            40960
 2017-02-03 21:17:00.092851+01 | 1486153020.09285 | pgbench_tellers_pkey  |           245760
 2017-02-03 21:17:00.092851+01 | 1486153020.09285 | pgbench_accounts_pkey |       2246197248

 2017-02-03 21:17:01.16846+01 | 1486153021.16846 | pgbench_branches_pkey |            40960
 2017-02-03 21:17:01.16846+01 | 1486153021.16846 | pgbench_tellers_pkey  |           245760
 2017-02-03 21:17:01.16846+01 | 1486153021.16846 | pgbench_accounts_pkey |       2246197248

 2017-02-03 21:17:02.245787+01 | 1486153022.24579 | pgbench_branches_pkey |            40960
 2017-02-03 21:17:02.245787+01 | 1486153022.24579 | pgbench_tellers_pkey  |           245760
 2017-02-03 21:17:02.245787+01 | 1486153022.24579 | pgbench_accounts_pkey |       2246197248

 2017-02-03 21:17:03.326131+01 | 1486153023.32613 | pgbench_branches_pkey |            40960
 2017-02-03 21:17:03.326131+01 | 1486153023.32613 | pgbench_tellers_pkey  |           245760
 2017-02-03 21:17:03.326131+01 | 1486153023.32613 | pgbench_accounts_pkey |       2246197248

 2017-02-03 21:17:04.411284+01 | 1486153024.41128 | pgbench_branches_pkey |            40960
 2017-02-03 21:17:04.411284+01 | 1486153024.41128 | pgbench_tellers_pkey  |           245760
 2017-02-03 21:17:04.411284+01 | 1486153024.41128 | pgbench_accounts_pkey |       2246197248

 2017-02-03 21:17:05.484877+01 | 1486153025.48488 | pgbench_branches_pkey |            40960
 2017-02-03 21:17:05.484877+01 | 1486153025.48488 | pgbench_tellers_pkey  |           245760
 2017-02-03 21:17:05.484877+01 | 1486153025.48488 | pgbench_accounts_pkey |       2246197248

 2017-02-03 21:17:06.560922+01 | 1486153026.56092 | pgbench_branches_pkey |            40960
 2017-02-03 21:17:06.560922+01 | 1486153026.56092 | pgbench_tellers_pkey  |           245760
 2017-02-03 21:17:06.560922+01 | 1486153026.56092 | pgbench_accounts_pkey |       2246197248

 2017-02-03 21:17:07.641226+01 | 1486153027.64123 | pgbench_branches_pkey |            40960
 2017-02-03 21:17:07.641226+01 | 1486153027.64123 | pgbench_tellers_pkey  |           245760
 2017-02-03 21:17:07.641226+01 | 1486153027.64123 | pgbench_accounts_pkey |       2246197248

