 2017-02-05 15:59:08.47251+01 | 1486306748.47251 |                 0 |               7 |                 10789 |                  446 |            1186283 |             0 |                0 |          901904 |                     0 |        605887 | 2017-02-05 15:28:29.905286+01

 2017-02-05 15:59:09.556362+01 | 1486306749.55636 |                 0 |               7 |                 10789 |                  446 |            1186283 |             0 |                0 |          901904 |                     0 |        606076 | 2017-02-05 15:28:29.905286+01

 2017-02-05 15:59:10.643508+01 | 1486306750.64351 |                 0 |               7 |                 10789 |                  446 |            1186283 |             0 |                0 |          901904 |                     0 |        606425 | 2017-02-05 15:28:29.905286+01

 2017-02-05 15:59:11.721456+01 | 1486306751.72146 |                 0 |               7 |                 10789 |                  446 |            1186283 |             0 |                0 |          901904 |                     0 |        606877 | 2017-02-05 15:28:29.905286+01

 2017-02-05 15:59:12.81568+01 | 1486306752.81568 |                 0 |               7 |                 10789 |                  446 |            1186283 |             0 |                0 |          901904 |                     0 |        607189 | 2017-02-05 15:28:29.905286+01

 2017-02-05 15:59:13.89488+01 | 1486306753.89488 |                 0 |               7 |                 10789 |                  446 |            1186283 |             0 |                0 |          901904 |                     0 |        607712 | 2017-02-05 15:28:29.905286+01

 2017-02-05 15:59:14.976688+01 | 1486306754.97669 |                 0 |               7 |                 10789 |                  446 |            1186283 |             0 |                0 |          901904 |                     0 |        608015 | 2017-02-05 15:28:29.905286+01

 2017-02-05 15:59:16.057494+01 | 1486306756.05749 |                 0 |               7 |                 10789 |                  446 |            1186283 |             0 |                0 |          901904 |                     0 |        608218 | 2017-02-05 15:28:29.905286+01

 2017-02-05 15:59:17.136566+01 | 1486306757.13657 |                 0 |               7 |                 10789 |                  446 |            1186283 |             0 |                0 |          901904 |                     0 |        608722 | 2017-02-05 15:28:29.905286+01

 2017-02-05 15:59:18.214739+01 | 1486306758.21474 |                 0 |               7 |                 10789 |                  446 |            1186283 |             0 |                0 |          901904 |                     0 |        608905 | 2017-02-05 15:28:29.905286+01

 2017-02-05 15:59:19.297113+01 | 1486306759.29711 |                 0 |               7 |                 10789 |                  446 |            1186283 |             0 |                0 |          901904 |                     0 |        609806 | 2017-02-05 15:28:29.905286+01

 2017-02-05 15:59:20.374754+01 | 1486306760.37475 |                 0 |               7 |                 10789 |                  446 |            1186283 |             0 |                0 |          901904 |                     0 |        609989 | 2017-02-05 15:28:29.905286+01

 2017-02-05 15:59:21.452325+01 | 1486306761.45233 |                 0 |               7 |                 10789 |                  446 |            1186283 |             0 |                0 |          901904 |                     0 |        610402 | 2017-02-05 15:28:29.905286+01

 2017-02-05 15:59:22.533559+01 | 1486306762.53356 |                 0 |               7 |                 10789 |                  446 |            1186283 |             0 |                0 |          901904 |                     0 |        610728 | 2017-02-05 15:28:29.905286+01

 2017-02-05 15:59:23.621802+01 | 1486306763.6218 |                 0 |               7 |                 10789 |                  446 |            1186283 |             0 |                0 |          901904 |                     0 |        611180 | 2017-02-05 15:28:29.905286+01

 2017-02-05 15:59:24.712901+01 | 1486306764.7129 |                 0 |               7 |                 10789 |                  446 |            1186283 |             0 |                0 |          901904 |                     0 |        611363 | 2017-02-05 15:28:29.905286+01

 2017-02-05 15:59:25.793382+01 | 1486306765.79338 |                 0 |               7 |                 10789 |                  446 |            1186283 |             0 |                0 |          901904 |                     0 |        611769 | 2017-02-05 15:28:29.905286+01

 2017-02-05 15:59:26.876142+01 | 1486306766.87614 |                 0 |               7 |                 10789 |                  446 |            1186283 |             0 |                0 |          901904 |                     0 |        612241 | 2017-02-05 15:28:29.905286+01

 2017-02-05 15:59:27.964504+01 | 1486306767.9645 |                 0 |               7 |                 10789 |                  446 |            1186283 |             0 |                0 |          901904 |                     0 |        612510 | 2017-02-05 15:28:29.905286+01

 2017-02-05 15:59:29.05393+01 | 1486306769.05393 |                 0 |               7 |                 10789 |                  446 |            1186283 |             0 |                0 |          901904 |                     0 |        612999 | 2017-02-05 15:28:29.905286+01

 2017-02-05 15:59:30.133576+01 | 1486306770.13358 |                 0 |               7 |                 10789 |                  446 |            1186283 |             0 |                0 |          901904 |                     0 |        613411 | 2017-02-05 15:28:29.905286+01

 2017-02-05 15:59:31.213176+01 | 1486306771.21318 |                 0 |               7 |                 10789 |                  446 |            1186283 |             0 |                0 |          901904 |                     0 |        613615 | 2017-02-05 15:28:29.905286+01

 2017-02-05 15:59:32.28765+01 | 1486306772.28765 |                 0 |               7 |                 10789 |                  446 |            1186283 |             0 |                0 |          901904 |                     0 |        614001 | 2017-02-05 15:28:29.905286+01

 2017-02-05 15:59:33.365298+01 | 1486306773.3653 |                 0 |               7 |                 10789 |                  446 |            1186283 |             0 |                0 |          901904 |                     0 |        614864 | 2017-02-05 15:28:29.905286+01

 2017-02-05 15:59:34.447136+01 | 1486306774.44714 |                 0 |               7 |                 10789 |                  446 |            1186283 |             0 |                0 |          901904 |                     0 |        614864 | 2017-02-05 15:28:29.905286+01

 2017-02-05 15:59:35.526322+01 | 1486306775.52632 |                 0 |               7 |                 10789 |                  446 |            1186283 |             0 |                0 |          901904 |                     0 |        615128 | 2017-02-05 15:28:29.905286+01

 2017-02-05 15:59:36.611344+01 | 1486306776.61134 |                 0 |               7 |                 10789 |                  446 |            1186283 |             0 |                0 |          901904 |                     0 |        615534 | 2017-02-05 15:28:29.905286+01

 2017-02-05 15:59:37.69478+01 | 1486306777.69478 |                 0 |               7 |                 10789 |                  446 |            1186283 |             0 |                0 |          901904 |                     0 |        616003 | 2017-02-05 15:28:29.905286+01

 2017-02-05 15:59:38.78091+01 | 1486306778.78091 |                 0 |               7 |                 10789 |                  446 |            1186283 |             0 |                0 |          901904 |                     0 |        616230 | 2017-02-05 15:28:29.905286+01

 2017-02-05 15:59:39.860519+01 | 1486306779.86052 |                 0 |               7 |                 10789 |                  446 |            1186283 |             0 |                0 |          901904 |                     0 |        616453 | 2017-02-05 15:28:29.905286+01

 2017-02-05 15:59:40.940133+01 | 1486306780.94013 |                 0 |               7 |                 10789 |                  446 |            1186283 |             0 |                0 |          901904 |                     0 |        616925 | 2017-02-05 15:28:29.905286+01

 2017-02-05 15:59:42.022579+01 | 1486306782.02258 |                 0 |               7 |                 10789 |                  446 |            1186283 |             0 |                0 |          901904 |                     0 |        617707 | 2017-02-05 15:28:29.905286+01

 2017-02-05 15:59:43.102302+01 | 1486306783.1023 |                 0 |               7 |                 10789 |                  446 |            1186283 |             0 |                0 |          901904 |                     0 |        617709 | 2017-02-05 15:28:29.905286+01

 2017-02-05 15:59:44.193617+01 | 1486306784.19362 |                 0 |               7 |                 10789 |                  446 |            1186283 |             0 |                0 |          901904 |                     0 |        618163 | 2017-02-05 15:28:29.905286+01

 2017-02-05 15:59:45.285031+01 | 1486306785.28503 |                 0 |               7 |                 10789 |                  446 |            1186283 |             0 |                0 |          901904 |                     0 |        618636 | 2017-02-05 15:28:29.905286+01

 2017-02-05 15:59:46.366802+01 | 1486306786.3668 |                 0 |               7 |                 10789 |                  446 |            1186283 |             0 |                0 |          901904 |                     0 |        618882 | 2017-02-05 15:28:29.905286+01

 2017-02-05 15:59:47.444213+01 | 1486306787.44421 |                 0 |               7 |                 10789 |                  446 |            1186283 |             0 |                0 |          901904 |                     0 |        619366 | 2017-02-05 15:28:29.905286+01

 2017-02-05 15:59:48.527069+01 | 1486306788.52707 |                 0 |               7 |                 10789 |                  446 |            1186283 |             0 |                0 |          901904 |                     0 |        619692 | 2017-02-05 15:28:29.905286+01

 2017-02-05 15:59:49.605859+01 | 1486306789.60586 |                 0 |               7 |                 10789 |                  446 |            1186283 |             0 |                0 |          901904 |                     0 |        620016 | 2017-02-05 15:28:29.905286+01

 2017-02-05 15:59:50.683274+01 | 1486306790.68327 |                 0 |               7 |                 10789 |                  446 |            1186283 |             0 |                0 |          901904 |                     0 |        620684 | 2017-02-05 15:28:29.905286+01

 2017-02-05 15:59:51.764095+01 | 1486306791.7641 |                 0 |               7 |                 10789 |                  446 |            1186283 |             0 |                0 |          901904 |                     0 |        620827 | 2017-02-05 15:28:29.905286+01

 2017-02-05 15:59:52.842005+01 | 1486306792.84201 |                 0 |               7 |                 10789 |                  446 |            1186283 |             0 |                0 |          901904 |                     0 |        621297 | 2017-02-05 15:28:29.905286+01

 2017-02-05 15:59:53.922084+01 | 1486306793.92208 |                 0 |               7 |                 10789 |                  446 |            1186283 |             0 |                0 |          901904 |                     0 |        621603 | 2017-02-05 15:28:29.905286+01

 2017-02-05 15:59:55.006708+01 | 1486306795.00671 |                 0 |               7 |                 10789 |                  446 |            1186283 |             0 |                0 |          901904 |                     0 |        622089 | 2017-02-05 15:28:29.905286+01

 2017-02-05 15:59:56.086337+01 | 1486306796.08634 |                 0 |               7 |                 10789 |                  446 |            1186283 |             0 |                0 |          901904 |                     0 |        622439 | 2017-02-05 15:28:29.905286+01

 2017-02-05 15:59:57.157746+01 | 1486306797.15775 |                 0 |               7 |                 10789 |                  446 |            1186283 |             0 |                0 |          901904 |                     0 |        622663 | 2017-02-05 15:28:29.905286+01

 2017-02-05 15:59:58.237577+01 | 1486306798.23758 |                 0 |               7 |                 10789 |                  446 |            1186283 |             0 |                0 |          901904 |                     0 |        623275 | 2017-02-05 15:28:29.905286+01

 2017-02-05 15:59:59.322505+01 | 1486306799.3225 |                 0 |               7 |                 10789 |                  446 |            1186283 |             0 |                0 |          901904 |                     0 |        623644 | 2017-02-05 15:28:29.905286+01

 2017-02-05 16:00:00.400718+01 | 1486306800.40072 |                 0 |               7 |                 10789 |                  446 |            1186283 |             0 |                0 |          901904 |                     0 |        623953 | 2017-02-05 15:28:29.905286+01

 2017-02-05 16:00:01.479335+01 | 1486306801.47934 |                 0 |               7 |                 10789 |                  446 |            1186283 |             0 |                0 |          901904 |                     0 |        624485 | 2017-02-05 15:28:29.905286+01

 2017-02-05 16:00:02.56067+01 | 1486306802.56067 |                 0 |               7 |                 10789 |                  446 |            1186283 |             0 |                0 |          901904 |                     0 |        624894 | 2017-02-05 15:28:29.905286+01

 2017-02-05 16:00:03.639657+01 | 1486306803.63966 |                 0 |               7 |                 10789 |                  446 |            1186283 |             0 |                0 |          901904 |                     0 |        625237 | 2017-02-05 15:28:29.905286+01

 2017-02-05 16:00:04.727111+01 | 1486306804.72711 |                 0 |               7 |                 10789 |                  446 |            1186283 |             0 |                0 |          901904 |                     0 |        625561 | 2017-02-05 15:28:29.905286+01

 2017-02-05 16:00:05.813882+01 | 1486306805.81388 |                 0 |               7 |                 10789 |                  446 |            1186283 |             0 |                0 |          901904 |                     0 |        626027 | 2017-02-05 15:28:29.905286+01

 2017-02-05 16:00:06.892569+01 | 1486306806.89257 |                 0 |               7 |                 10789 |                  446 |            1186283 |             0 |                0 |          901904 |                     0 |        626418 | 2017-02-05 15:28:29.905286+01

 2017-02-05 16:00:07.975829+01 | 1486306807.97583 |                 0 |               7 |                 10789 |                  446 |            1186283 |             0 |                0 |          901904 |                     0 |        626904 | 2017-02-05 15:28:29.905286+01

 2017-02-05 16:00:09.059998+01 | 1486306809.06 |                 0 |               7 |                 10789 |                  446 |            1186283 |             0 |                0 |          901904 |                     0 |        627573 | 2017-02-05 15:28:29.905286+01

 2017-02-05 16:00:10.140675+01 | 1486306810.14068 |                 0 |               7 |                 10789 |                  446 |            1186283 |             0 |                0 |          901904 |                     0 |        627656 | 2017-02-05 15:28:29.905286+01

 2017-02-05 16:00:11.217889+01 | 1486306811.21789 |                 0 |               7 |                 10789 |                  446 |            1186283 |             0 |                0 |          901904 |                     0 |        628148 | 2017-02-05 15:28:29.905286+01

 2017-02-05 16:00:12.295858+01 | 1486306812.29586 |                 0 |               7 |                 10789 |                  446 |            1186283 |             0 |                0 |          901904 |                     0 |        628546 | 2017-02-05 15:28:29.905286+01

 2017-02-05 16:00:13.38134+01 | 1486306813.38134 |                 0 |               7 |                 10789 |                  446 |            1186283 |             0 |                0 |          901904 |                     0 |        629039 | 2017-02-05 15:28:29.905286+01

 2017-02-05 16:00:14.459839+01 | 1486306814.45984 |                 0 |               7 |                 10789 |                  446 |            1186283 |             0 |                0 |          901904 |                     0 |        629328 | 2017-02-05 15:28:29.905286+01

 2017-02-05 16:00:15.525896+01 | 1486306815.5259 |                 0 |               7 |                 10789 |                  446 |            1186283 |             0 |                0 |          901904 |                     0 |        629716 | 2017-02-05 15:28:29.905286+01

 2017-02-05 16:00:16.596242+01 | 1486306816.59624 |                 0 |               7 |                 10789 |                  446 |            1186283 |             0 |                0 |          901904 |                     0 |        630229 | 2017-02-05 15:28:29.905286+01

 2017-02-05 16:00:17.676676+01 | 1486306817.67668 |                 0 |               7 |                 10789 |                  446 |            1186283 |             0 |                0 |          901904 |                     0 |        630536 | 2017-02-05 15:28:29.905286+01

 2017-02-05 16:00:18.7769+01 | 1486306818.7769 |                 0 |               7 |                 10789 |                  446 |            1186283 |             0 |                0 |          901904 |                     0 |        630908 | 2017-02-05 15:28:29.905286+01

 2017-02-05 16:00:19.854062+01 | 1486306819.85406 |                 0 |               7 |                 10789 |                  446 |            1186283 |             0 |                0 |          901904 |                     0 |        631341 | 2017-02-05 15:28:29.905286+01

 2017-02-05 16:00:20.93864+01 | 1486306820.93864 |                 0 |               7 |                 10789 |                  446 |            1186283 |             0 |                0 |          901904 |                     0 |        631727 | 2017-02-05 15:28:29.905286+01

 2017-02-05 16:00:22.019892+01 | 1486306822.01989 |                 0 |               7 |                 10789 |                  446 |            1186283 |             0 |                0 |          901904 |                     0 |        632096 | 2017-02-05 15:28:29.905286+01

 2017-02-05 16:00:23.108236+01 | 1486306823.10824 |                 0 |               7 |                 10789 |                  446 |            1186283 |             0 |                0 |          901904 |                     0 |        632648 | 2017-02-05 15:28:29.905286+01

 2017-02-05 16:00:24.190279+01 | 1486306824.19028 |                 0 |               7 |                 10789 |                  446 |            1186283 |             0 |                0 |          901904 |                     0 |        632971 | 2017-02-05 15:28:29.905286+01

 2017-02-05 16:00:25.272246+01 | 1486306825.27225 |                 0 |               7 |                 10789 |                  446 |            1186283 |             0 |                0 |          901904 |                     0 |        633234 | 2017-02-05 15:28:29.905286+01

 2017-02-05 16:00:26.351735+01 | 1486306826.35174 |                 0 |               7 |                 10789 |                  446 |            1186283 |             0 |                0 |          901904 |                     0 |        633926 | 2017-02-05 15:28:29.905286+01

 2017-02-05 16:00:27.432946+01 | 1486306827.43295 |                 0 |               7 |                 10789 |                  446 |            1186283 |             0 |                0 |          901904 |                     0 |        634309 | 2017-02-05 15:28:29.905286+01

 2017-02-05 16:00:28.50655+01 | 1486306828.50655 |                 0 |               7 |                 10789 |                  446 |            1186283 |             0 |                0 |          901904 |                     0 |        634599 | 2017-02-05 15:28:29.905286+01

 2017-02-05 16:00:29.587481+01 | 1486306829.58748 |                 0 |               7 |                 10789 |                  446 |            1186283 |             0 |                0 |          901904 |                     0 |        635069 | 2017-02-05 15:28:29.905286+01

 2017-02-05 16:00:30.676141+01 | 1486306830.67614 |                 0 |               7 |                 10789 |                  446 |            1186283 |             0 |                0 |          901904 |                     0 |        635532 | 2017-02-05 15:28:29.905286+01

 2017-02-05 16:00:31.761646+01 | 1486306831.76165 |                 0 |               7 |                 10789 |                  446 |            1186283 |             0 |                0 |          901904 |                     0 |        635755 | 2017-02-05 15:28:29.905286+01

 2017-02-05 16:00:32.853964+01 | 1486306832.85396 |                 0 |               7 |                 10789 |                  446 |            1186283 |             0 |                0 |          901904 |                     0 |        636204 | 2017-02-05 15:28:29.905286+01

 2017-02-05 16:00:33.93635+01 | 1486306833.93635 |                 0 |               7 |                 10789 |                  446 |            1186283 |             0 |                0 |          901904 |                     0 |        636633 | 2017-02-05 15:28:29.905286+01

 2017-02-05 16:00:35.018635+01 | 1486306835.01864 |                 0 |               7 |                 10789 |                  446 |            1186283 |             0 |                0 |          901904 |                     0 |        636982 | 2017-02-05 15:28:29.905286+01

 2017-02-05 16:00:36.09433+01 | 1486306836.09433 |                 0 |               7 |                 10789 |                  446 |            1186283 |             0 |                0 |          901904 |                     0 |        637488 | 2017-02-05 15:28:29.905286+01

 2017-02-05 16:00:37.174388+01 | 1486306837.17439 |                 0 |               7 |                 10789 |                  446 |            1186283 |             0 |                0 |          901904 |                     0 |        637817 | 2017-02-05 15:28:29.905286+01

 2017-02-05 16:00:38.259298+01 | 1486306838.2593 |                 0 |               7 |                 10789 |                  446 |            1186283 |             0 |                0 |          901904 |                     0 |        638186 | 2017-02-05 15:28:29.905286+01

 2017-02-05 16:00:39.348656+01 | 1486306839.34866 |                 0 |               7 |                 10789 |                  446 |            1186283 |             0 |                0 |          901904 |                     0 |        638699 | 2017-02-05 15:28:29.905286+01

 2017-02-05 16:00:40.425554+01 | 1486306840.42555 |                 0 |               7 |                 10789 |                  446 |            1186283 |             0 |                0 |          901904 |                     0 |        639008 | 2017-02-05 15:28:29.905286+01

 2017-02-05 16:00:41.514469+01 | 1486306841.51447 |                 0 |               7 |                 10789 |                  446 |            1186283 |             0 |                0 |          901904 |                     0 |        639524 | 2017-02-05 15:28:29.905286+01

 2017-02-05 16:00:42.5972+01 | 1486306842.5972 |                 0 |               7 |                 10789 |                  446 |            1186283 |             0 |                0 |          901904 |                     0 |        639873 | 2017-02-05 15:28:29.905286+01

 2017-02-05 16:00:43.677122+01 | 1486306843.67712 |                 0 |               7 |                 10789 |                  446 |            1186283 |             0 |                0 |          901904 |                     0 |        640382 | 2017-02-05 15:28:29.905286+01

 2017-02-05 16:00:44.760676+01 | 1486306844.76068 |                 0 |               7 |                 10789 |                  446 |            1186283 |             0 |                0 |          901904 |                     0 |        640646 | 2017-02-05 15:28:29.905286+01

 2017-02-05 16:00:45.838149+01 | 1486306845.83815 |                 0 |               7 |                 10789 |                  446 |            1186283 |             0 |                0 |          901904 |                     0 |        641134 | 2017-02-05 15:28:29.905286+01

 2017-02-05 16:00:46.920284+01 | 1486306846.92028 |                 0 |               7 |                 10789 |                  446 |            1186283 |             0 |                0 |          901904 |                     0 |        641660 | 2017-02-05 15:28:29.905286+01

 2017-02-05 16:00:48.00006+01 | 1486306848.00006 |                 0 |               7 |                 10789 |                  446 |            1186283 |             0 |                0 |          901904 |                     0 |        641906 | 2017-02-05 15:28:29.905286+01

 2017-02-05 16:00:49.080685+01 | 1486306849.08068 |                 0 |               7 |                 10789 |                  446 |            1186283 |             0 |                0 |          901904 |                     0 |        642235 | 2017-02-05 15:28:29.905286+01

 2017-02-05 16:00:50.158594+01 | 1486306850.15859 |                 0 |               7 |                 10789 |                  446 |            1186283 |             0 |                0 |          901904 |                     0 |        642828 | 2017-02-05 15:28:29.905286+01

 2017-02-05 16:00:51.239831+01 | 1486306851.23983 |                 0 |               7 |                 10789 |                  446 |            1186283 |             0 |                0 |          901904 |                     0 |        643174 | 2017-02-05 15:28:29.905286+01

 2017-02-05 16:00:52.323163+01 | 1486306852.32316 |                 0 |               7 |                 10789 |                  446 |            1186283 |             0 |                0 |          901904 |                     0 |        643603 | 2017-02-05 15:28:29.905286+01

 2017-02-05 16:00:53.407329+01 | 1486306853.40733 |                 0 |               7 |                 10789 |                  446 |            1186283 |             0 |                0 |          901904 |                     0 |        643848 | 2017-02-05 15:28:29.905286+01

 2017-02-05 16:00:54.487956+01 | 1486306854.48796 |                 0 |               7 |                 10789 |                  446 |            1186283 |             0 |                0 |          901904 |                     0 |        644255 | 2017-02-05 15:28:29.905286+01

 2017-02-05 16:00:55.568711+01 | 1486306855.56871 |                 0 |               7 |                 10789 |                  446 |            1186283 |             0 |                0 |          901904 |                     0 |        644561 | 2017-02-05 15:28:29.905286+01

 2017-02-05 16:00:56.647372+01 | 1486306856.64737 |                 0 |               7 |                 10789 |                  446 |            1186283 |             0 |                0 |          901904 |                     0 |        645127 | 2017-02-05 15:28:29.905286+01

 2017-02-05 16:00:57.722459+01 | 1486306857.72246 |                 0 |               7 |                 10789 |                  446 |            1186283 |             0 |                0 |          901904 |                     0 |        645490 | 2017-02-05 15:28:29.905286+01

 2017-02-05 16:00:58.810503+01 | 1486306858.8105 |                 0 |               7 |                 10789 |                  446 |            1186283 |             0 |                0 |          901904 |                     0 |        645936 | 2017-02-05 15:28:29.905286+01

 2017-02-05 16:00:59.895429+01 | 1486306859.89543 |                 0 |               7 |                 10789 |                  446 |            1186283 |             0 |                0 |          901904 |                     0 |        646522 | 2017-02-05 15:28:29.905286+01

 2017-02-05 16:01:00.969575+01 | 1486306860.96957 |                 0 |               7 |                 10789 |                  446 |            1186283 |             0 |                0 |          901904 |                     0 |        646605 | 2017-02-05 15:28:29.905286+01

 2017-02-05 16:01:02.049443+01 | 1486306862.04944 |                 0 |               7 |                 10789 |                  446 |            1186283 |             0 |                0 |          901904 |                     0 |        647058 | 2017-02-05 15:28:29.905286+01

 2017-02-05 16:01:03.130233+01 | 1486306863.13023 |                 0 |               7 |                 10789 |                  446 |            1186283 |             0 |                0 |          901904 |                     0 |        647509 | 2017-02-05 15:28:29.905286+01

 2017-02-05 16:01:04.213896+01 | 1486306864.2139 |                 0 |               7 |                 10789 |                  446 |            1186283 |             0 |                0 |          901904 |                     0 |        648321 | 2017-02-05 15:28:29.905286+01

 2017-02-05 16:01:05.29733+01 | 1486306865.29733 |                 0 |               7 |                 10789 |                  446 |            1186283 |             0 |                0 |          901904 |                     0 |        648321 | 2017-02-05 15:28:29.905286+01

 2017-02-05 16:01:06.379571+01 | 1486306866.37957 |                 0 |               7 |                 10789 |                  446 |            1186283 |             0 |                0 |          901904 |                     0 |        648653 | 2017-02-05 15:28:29.905286+01

 2017-02-05 16:01:07.468272+01 | 1486306867.46827 |                 0 |               7 |                 10789 |                  446 |            1186283 |             0 |                0 |          901904 |                     0 |        649082 | 2017-02-05 15:28:29.905286+01

 2017-02-05 16:01:08.539205+01 | 1486306868.53921 |                 0 |               7 |                 10789 |                  446 |            1186283 |             0 |                0 |          901904 |                     0 |        649598 | 2017-02-05 15:28:29.905286+01

 2017-02-05 16:01:09.614269+01 | 1486306869.61427 |                 0 |               7 |                 10789 |                  446 |            1186283 |             0 |                0 |          901904 |                     0 |        649987 | 2017-02-05 15:28:29.905286+01

 2017-02-05 16:01:10.692272+01 | 1486306870.69227 |                 0 |               7 |                 10789 |                  446 |            1186283 |             0 |                0 |          901904 |                     0 |        650436 | 2017-02-05 15:28:29.905286+01

 2017-02-05 16:01:11.765948+01 | 1486306871.76595 |                 0 |               7 |                 10789 |                  446 |            1186283 |             0 |                0 |          901904 |                     0 |        650720 | 2017-02-05 15:28:29.905286+01

 2017-02-05 16:01:12.854032+01 | 1486306872.85403 |                 0 |               7 |                 10789 |                  446 |            1186283 |             0 |                0 |          901904 |                     0 |        651512 | 2017-02-05 15:28:29.905286+01

 2017-02-05 16:01:13.933261+01 | 1486306873.93326 |                 0 |               7 |                 10789 |                  446 |            1186283 |             0 |                0 |          901904 |                     0 |        652057 | 2017-02-05 15:28:29.905286+01

 2017-02-05 16:01:15.01957+01 | 1486306875.01957 |                 0 |               7 |                 10789 |                  446 |            1186283 |             0 |                0 |          901904 |                     0 |        652059 | 2017-02-05 15:28:29.905286+01

 2017-02-05 16:01:16.098415+01 | 1486306876.09841 |                 0 |               7 |                 10789 |                  446 |            1186283 |             0 |                0 |          901904 |                     0 |        652633 | 2017-02-05 15:28:29.905286+01

 2017-02-05 16:01:17.18453+01 | 1486306877.18453 |                 0 |               7 |                 10789 |                  446 |            1186283 |             0 |                0 |          901904 |                     0 |        652931 | 2017-02-05 15:28:29.905286+01

 2017-02-05 16:01:18.270938+01 | 1486306878.27094 |                 0 |               7 |                 10789 |                  446 |            1186283 |             0 |                0 |          901904 |                     0 |        653516 | 2017-02-05 15:28:29.905286+01

 2017-02-05 16:01:19.349009+01 | 1486306879.34901 |                 0 |               7 |                 10789 |                  446 |            1186283 |             0 |                0 |          901904 |                     0 |        653762 | 2017-02-05 15:28:29.905286+01

 2017-02-05 16:01:20.432484+01 | 1486306880.43248 |                 0 |               7 |                 10789 |                  446 |            1186283 |             0 |                0 |          901904 |                     0 |        654439 | 2017-02-05 15:28:29.905286+01

 2017-02-05 16:01:21.506407+01 | 1486306881.50641 |                 0 |               7 |                 10789 |                  446 |            1186283 |             0 |                0 |          901904 |                     0 |        654955 | 2017-02-05 15:28:29.905286+01

 2017-02-05 16:01:22.580284+01 | 1486306882.58028 |                 0 |               7 |                 10789 |                  446 |            1186283 |             0 |                0 |          901904 |                     0 |        654956 | 2017-02-05 15:28:29.905286+01

 2017-02-05 16:01:23.65991+01 | 1486306883.65991 |                 0 |               7 |                 10789 |                  446 |            1186283 |             0 |                0 |          901904 |                     0 |        655470 | 2017-02-05 15:28:29.905286+01

 2017-02-05 16:01:24.7356+01 | 1486306884.7356 |                 0 |               7 |                 10789 |                  446 |            1186283 |             0 |                0 |          901904 |                     0 |        655816 | 2017-02-05 15:28:29.905286+01

 2017-02-05 16:01:25.823282+01 | 1486306885.82328 |                 0 |               7 |                 10789 |                  446 |            1186283 |             0 |                0 |          901904 |                     0 |        656262 | 2017-02-05 15:28:29.905286+01

 2017-02-05 16:01:26.90275+01 | 1486306886.90275 |                 0 |               7 |                 10789 |                  446 |            1186283 |             0 |                0 |          901904 |                     0 |        656777 | 2017-02-05 15:28:29.905286+01

 2017-02-05 16:01:27.980853+01 | 1486306887.98085 |                 0 |               7 |                 10789 |                  446 |            1186283 |             0 |                0 |          901904 |                     0 |        657183 | 2017-02-05 15:28:29.905286+01

 2017-02-05 16:01:29.068415+01 | 1486306889.06841 |                 0 |               7 |                 10789 |                  446 |            1186283 |             0 |                0 |          901904 |                     0 |        657412 | 2017-02-05 15:28:29.905286+01

 2017-02-05 16:01:30.14777+01 | 1486306890.14777 |                 0 |               7 |                 10789 |                  446 |            1186283 |             0 |                0 |          901904 |                     0 |        657987 | 2017-02-05 15:28:29.905286+01

 2017-02-05 16:01:31.231247+01 | 1486306891.23125 |                 0 |               7 |                 10789 |                  446 |            1186283 |             0 |                0 |          901904 |                     0 |        658273 | 2017-02-05 15:28:29.905286+01

 2017-02-05 16:01:32.311059+01 | 1486306892.31106 |                 0 |               7 |                 10789 |                  446 |            1186283 |             0 |                0 |          901904 |                     0 |        658785 | 2017-02-05 15:28:29.905286+01

 2017-02-05 16:01:33.391725+01 | 1486306893.39173 |                 0 |               7 |                 10789 |                  446 |            1186283 |             0 |                0 |          901904 |                     0 |        659134 | 2017-02-05 15:28:29.905286+01

 2017-02-05 16:01:34.467537+01 | 1486306894.46754 |                 0 |               7 |                 10789 |                  446 |            1186283 |             0 |                0 |          901904 |                     0 |        659766 | 2017-02-05 15:28:29.905286+01

 2017-02-05 16:01:35.544598+01 | 1486306895.5446 |                 0 |               7 |                 10789 |                  446 |            1186283 |             0 |                0 |          901904 |                     0 |        659953 | 2017-02-05 15:28:29.905286+01

 2017-02-05 16:01:36.618194+01 | 1486306896.61819 |                 0 |               7 |                 10789 |                  446 |            1186283 |             0 |                0 |          901904 |                     0 |        660499 | 2017-02-05 15:28:29.905286+01

 2017-02-05 16:01:37.701683+01 | 1486306897.70168 |                 0 |               7 |                 10789 |                  446 |            1186283 |             0 |                0 |          901904 |                     0 |        661068 | 2017-02-05 15:28:29.905286+01

 2017-02-05 16:01:38.781687+01 | 1486306898.78169 |                 0 |               7 |                 10789 |                  446 |            1186283 |             0 |                0 |          901904 |                     0 |        661211 | 2017-02-05 15:28:29.905286+01

 2017-02-05 16:01:39.867538+01 | 1486306899.86754 |                 0 |               7 |                 10789 |                  446 |            1186283 |             0 |                0 |          901904 |                     0 |        661621 | 2017-02-05 15:28:29.905286+01

 2017-02-05 16:01:40.963777+01 | 1486306900.96378 |                 0 |               7 |                 10789 |                  446 |            1186283 |             0 |                0 |          901904 |                     0 |        662132 | 2017-02-05 15:28:29.905286+01

 2017-02-05 16:01:42.04421+01 | 1486306902.04421 |                 0 |               7 |                 10789 |                  446 |            1186283 |             0 |                0 |          901904 |                     0 |        662470 | 2017-02-05 15:28:29.905286+01

 2017-02-05 16:01:43.121074+01 | 1486306903.12107 |                 0 |               7 |                 10789 |                  446 |            1186283 |             0 |                0 |          901904 |                     0 |        662900 | 2017-02-05 15:28:29.905286+01

 2017-02-05 16:01:44.203336+01 | 1486306904.20334 |                 0 |               7 |                 10789 |                  446 |            1186283 |             0 |                0 |          901904 |                     0 |        663231 | 2017-02-05 15:28:29.905286+01

 2017-02-05 16:01:45.286218+01 | 1486306905.28622 |                 0 |               7 |                 10789 |                  446 |            1186283 |             0 |                0 |          901904 |                     0 |        663745 | 2017-02-05 15:28:29.905286+01

 2017-02-05 16:01:46.366499+01 | 1486306906.3665 |                 0 |               7 |                 10789 |                  446 |            1186283 |             0 |                0 |          901904 |                     0 |        664092 | 2017-02-05 15:28:29.905286+01

 2017-02-05 16:01:47.446933+01 | 1486306907.44693 |                 0 |               7 |                 10789 |                  446 |            1186283 |             0 |                0 |          901904 |                     0 |        664435 | 2017-02-05 15:28:29.905286+01

 2017-02-05 16:01:48.521059+01 | 1486306908.52106 |                 0 |               7 |                 10789 |                  446 |            1186283 |             0 |                0 |          901904 |                     0 |        664983 | 2017-02-05 15:28:29.905286+01

 2017-02-05 16:01:49.598377+01 | 1486306909.59838 |                 0 |               7 |                 10789 |                  446 |            1186283 |             0 |                0 |          901904 |                     0 |        665466 | 2017-02-05 15:28:29.905286+01

 2017-02-05 16:01:50.679552+01 | 1486306910.67955 |                 0 |               7 |                 10789 |                  446 |            1186283 |             0 |                0 |          901904 |                     0 |        665912 | 2017-02-05 15:28:29.905286+01

 2017-02-05 16:01:51.757993+01 | 1486306911.75799 |                 0 |               7 |                 10789 |                  446 |            1186283 |             0 |                0 |          901904 |                     0 |        666258 | 2017-02-05 15:28:29.905286+01

 2017-02-05 16:01:52.844081+01 | 1486306912.84408 |                 0 |               7 |                 10789 |                  446 |            1186283 |             0 |                0 |          901904 |                     0 |        666690 | 2017-02-05 15:28:29.905286+01

 2017-02-05 16:01:53.926369+01 | 1486306913.92637 |                 0 |               7 |                 10789 |                  446 |            1186283 |             0 |                0 |          901904 |                     0 |        667116 | 2017-02-05 15:28:29.905286+01

 2017-02-05 16:01:55.012346+01 | 1486306915.01235 |                 0 |               7 |                 10789 |                  446 |            1186283 |             0 |                0 |          901904 |                     0 |        667423 | 2017-02-05 15:28:29.905286+01

 2017-02-05 16:01:56.088623+01 | 1486306916.08862 |                 0 |               7 |                 10789 |                  446 |            1186283 |             0 |                0 |          901904 |                     0 |        667812 | 2017-02-05 15:28:29.905286+01

 2017-02-05 16:01:57.172473+01 | 1486306917.17247 |                 0 |               7 |                 10789 |                  446 |            1186283 |             0 |                0 |          901904 |                     0 |        668301 | 2017-02-05 15:28:29.905286+01

 2017-02-05 16:01:58.258114+01 | 1486306918.25811 |                 0 |               7 |                 10789 |                  446 |            1186283 |             0 |                0 |          901904 |                     0 |        668653 | 2017-02-05 15:28:29.905286+01

 2017-02-05 16:01:59.342589+01 | 1486306919.34259 |                 0 |               7 |                 10789 |                  446 |            1186283 |             0 |                0 |          901904 |                     0 |        669022 | 2017-02-05 15:28:29.905286+01

 2017-02-05 16:02:00.426863+01 | 1486306920.42686 |                 0 |               7 |                 10789 |                  446 |            1186283 |             0 |                0 |          901904 |                     0 |        669674 | 2017-02-05 15:28:29.905286+01

 2017-02-05 16:02:01.511668+01 | 1486306921.51167 |                 0 |               7 |                 10789 |                  446 |            1186283 |             0 |                0 |          901904 |                     0 |        669937 | 2017-02-05 15:28:29.905286+01

 2017-02-05 16:02:02.593999+01 | 1486306922.594 |                 0 |               7 |                 10789 |                  446 |            1186283 |             0 |                0 |          901904 |                     0 |        670246 | 2017-02-05 15:28:29.905286+01

 2017-02-05 16:02:03.671506+01 | 1486306923.67151 |                 0 |               7 |                 10789 |                  446 |            1186283 |             0 |                0 |          901904 |                     0 |        670652 | 2017-02-05 15:28:29.905286+01

 2017-02-05 16:02:04.747312+01 | 1486306924.74731 |                 0 |               7 |                 10789 |                  446 |            1186283 |             0 |                0 |          901904 |                     0 |        671078 | 2017-02-05 15:28:29.905286+01

 2017-02-05 16:02:05.828022+01 | 1486306925.82802 |                 0 |               7 |                 10789 |                  446 |            1186283 |             0 |                0 |          901904 |                     0 |        671534 | 2017-02-05 15:28:29.905286+01

 2017-02-05 16:02:06.906903+01 | 1486306926.9069 |                 0 |               7 |                 10789 |                  446 |            1186283 |             0 |                0 |          901904 |                     0 |        671944 | 2017-02-05 15:28:29.905286+01

 2017-02-05 16:02:07.991666+01 | 1486306927.99167 |                 0 |               7 |                 10789 |                  446 |            1186283 |             0 |                0 |          901904 |                     0 |        672213 | 2017-02-05 15:28:29.905286+01

 2017-02-05 16:02:09.075687+01 | 1486306929.07569 |                 0 |               7 |                 10789 |                  446 |            1186283 |             0 |                0 |          901904 |                     0 |        672762 | 2017-02-05 15:28:29.905286+01

 2017-02-05 16:02:10.155541+01 | 1486306930.15554 |                 0 |               7 |                 10789 |                  446 |            1186283 |             0 |                0 |          901904 |                     0 |        673191 | 2017-02-05 15:28:29.905286+01

 2017-02-05 16:02:11.235939+01 | 1486306931.23594 |                 0 |               7 |                 10789 |                  446 |            1186283 |             0 |                0 |          901904 |                     0 |        673540 | 2017-02-05 15:28:29.905286+01

 2017-02-05 16:02:12.319319+01 | 1486306932.31932 |                 0 |               7 |                 10789 |                  446 |            1186283 |             0 |                0 |          901904 |                     0 |        673929 | 2017-02-05 15:28:29.905286+01

 2017-02-05 16:02:13.403431+01 | 1486306933.40343 |                 0 |               7 |                 10789 |                  446 |            1186283 |             0 |                0 |          901904 |                     0 |        674293 | 2017-02-05 15:28:29.905286+01

 2017-02-05 16:02:14.474552+01 | 1486306934.47455 |                 0 |               7 |                 10789 |                  446 |            1186283 |             0 |                0 |          901904 |                     0 |        674984 | 2017-02-05 15:28:29.905286+01

 2017-02-05 16:02:15.554175+01 | 1486306935.55417 |                 0 |               7 |                 10789 |                  446 |            1186283 |             0 |                0 |          901904 |                     0 |        675247 | 2017-02-05 15:28:29.905286+01

 2017-02-05 16:02:16.628784+01 | 1486306936.62878 |                 0 |               7 |                 10789 |                  446 |            1186283 |             0 |                0 |          901904 |                     0 |        675534 | 2017-02-05 15:28:29.905286+01

 2017-02-05 16:02:17.70573+01 | 1486306937.70573 |                 0 |               7 |                 10789 |                  446 |            1186283 |             0 |                0 |          901904 |                     0 |        676029 | 2017-02-05 15:28:29.905286+01

 2017-02-05 16:02:18.781715+01 | 1486306938.78171 |                 0 |               7 |                 10789 |                  446 |            1186283 |             0 |                0 |          901904 |                     0 |        676458 | 2017-02-05 15:28:29.905286+01

 2017-02-05 16:02:19.861171+01 | 1486306939.86117 |                 0 |               7 |                 10789 |                  446 |            1186283 |             0 |                0 |          901904 |                     0 |        676827 | 2017-02-05 15:28:29.905286+01

 2017-02-05 16:02:20.942779+01 | 1486306940.94278 |                 0 |               7 |                 10789 |                  446 |            1186283 |             0 |                0 |          901904 |                     0 |        677174 | 2017-02-05 15:28:29.905286+01

 2017-02-05 16:02:22.026368+01 | 1486306942.02637 |                 0 |               7 |                 10789 |                  446 |            1186283 |             0 |                0 |          901904 |                     0 |        677802 | 2017-02-05 15:28:29.905286+01

 2017-02-05 16:02:23.104508+01 | 1486306943.10451 |                 0 |               7 |                 10789 |                  446 |            1186283 |             0 |                0 |          901904 |                     0 |        678271 | 2017-02-05 15:28:29.905286+01

 2017-02-05 16:02:24.189684+01 | 1486306944.18968 |                 0 |               7 |                 10789 |                  446 |            1186283 |             0 |                0 |          901904 |                     0 |        678414 | 2017-02-05 15:28:29.905286+01

 2017-02-05 16:02:25.272352+01 | 1486306945.27235 |                 0 |               7 |                 10789 |                  446 |            1186283 |             0 |                0 |          901904 |                     0 |        678866 | 2017-02-05 15:28:29.905286+01

 2017-02-05 16:02:26.356236+01 | 1486306946.35624 |                 0 |               7 |                 10789 |                  446 |            1186283 |             0 |                0 |          901904 |                     0 |        679234 | 2017-02-05 15:28:29.905286+01

 2017-02-05 16:02:27.433813+01 | 1486306947.43381 |                 0 |               7 |                 10789 |                  446 |            1186283 |             0 |                0 |          901904 |                     0 |        679646 | 2017-02-05 15:28:29.905286+01

 2017-02-05 16:02:28.512162+01 | 1486306948.51216 |                 0 |               7 |                 10789 |                  446 |            1186283 |             0 |                0 |          901904 |                     0 |        680112 | 2017-02-05 15:28:29.905286+01

 2017-02-05 16:02:29.588776+01 | 1486306949.58878 |                 0 |               7 |                 10789 |                  446 |            1186283 |             0 |                0 |          901904 |                     0 |        680561 | 2017-02-05 15:28:29.905286+01

 2017-02-05 16:02:30.665174+01 | 1486306950.66517 |                 0 |               7 |                 10789 |                  446 |            1186283 |             0 |                0 |          901904 |                     0 |        680888 | 2017-02-05 15:28:29.905286+01

 2017-02-05 16:02:31.740461+01 | 1486306951.74046 |                 0 |               7 |                 10789 |                  446 |            1186283 |             0 |                0 |          901904 |                     0 |        681236 | 2017-02-05 15:28:29.905286+01

 2017-02-05 16:02:32.818085+01 | 1486306952.81808 |                 0 |               7 |                 10789 |                  446 |            1186283 |             0 |                0 |          901904 |                     0 |        681831 | 2017-02-05 15:28:29.905286+01

 2017-02-05 16:02:33.895833+01 | 1486306953.89583 |                 0 |               7 |                 10789 |                  446 |            1186283 |             0 |                0 |          901904 |                     0 |        682117 | 2017-02-05 15:28:29.905286+01

 2017-02-05 16:02:34.9804+01 | 1486306954.9804 |                 0 |               7 |                 10789 |                  446 |            1186283 |             0 |                0 |          901904 |                     0 |        682632 | 2017-02-05 15:28:29.905286+01

 2017-02-05 16:02:36.066826+01 | 1486306956.06683 |                 0 |               7 |                 10789 |                  446 |            1186283 |             0 |                0 |          901904 |                     0 |        682858 | 2017-02-05 15:28:29.905286+01

 2017-02-05 16:02:37.149483+01 | 1486306957.14948 |                 0 |               7 |                 10789 |                  446 |            1186283 |             0 |                0 |          901904 |                     0 |        683448 | 2017-02-05 15:28:29.905286+01

 2017-02-05 16:02:38.239468+01 | 1486306958.23947 |                 0 |               7 |                 10789 |                  446 |            1186283 |             0 |                0 |          901904 |                     0 |        683714 | 2017-02-05 15:28:29.905286+01

 2017-02-05 16:02:39.323156+01 | 1486306959.32316 |                 0 |               7 |                 10789 |                  446 |            1186283 |             0 |                0 |          901904 |                     0 |        684209 | 2017-02-05 15:28:29.905286+01

 2017-02-05 16:02:40.407717+01 | 1486306960.40772 |                 0 |               7 |                 10789 |                  446 |            1186283 |             0 |                0 |          901904 |                     0 |        684438 | 2017-02-05 15:28:29.905286+01

 2017-02-05 16:02:41.491816+01 | 1486306961.49182 |                 0 |               7 |                 10789 |                  446 |            1186283 |             0 |                0 |          901904 |                     0 |        684764 | 2017-02-05 15:28:29.905286+01

 2017-02-05 16:02:42.56523+01 | 1486306962.56523 |                 0 |               7 |                 10789 |                  446 |            1186283 |             0 |                0 |          901904 |                     0 |        685416 | 2017-02-05 15:28:29.905286+01

 2017-02-05 16:02:43.640795+01 | 1486306963.64079 |                 0 |               7 |                 10789 |                  446 |            1186283 |             0 |                0 |          901904 |                     0 |        685842 | 2017-02-05 15:28:29.905286+01

 2017-02-05 16:02:44.721606+01 | 1486306964.72161 |                 0 |               7 |                 10789 |                  446 |            1186283 |             0 |                0 |          901904 |                     0 |        686546 | 2017-02-05 15:28:29.905286+01

 2017-02-05 16:02:45.795437+01 | 1486306965.79544 |                 0 |               7 |                 10789 |                  446 |            1186283 |             0 |                0 |          901904 |                     0 |        686546 | 2017-02-05 15:28:29.905286+01

 2017-02-05 16:02:46.873544+01 | 1486306966.87354 |                 0 |               7 |                 10789 |                  446 |            1186283 |             0 |                0 |          901904 |                     0 |        687075 | 2017-02-05 15:28:29.905286+01

 2017-02-05 16:02:47.954786+01 | 1486306967.95479 |                 0 |               7 |                 10789 |                  446 |            1186283 |             0 |                0 |          901904 |                     0 |        687481 | 2017-02-05 15:28:29.905286+01

 2017-02-05 16:02:49.027653+01 | 1486306969.02765 |                 0 |               7 |                 10789 |                  446 |            1186283 |             0 |                0 |          901904 |                     0 |        688103 | 2017-02-05 15:28:29.905286+01

 2017-02-05 16:02:50.103668+01 | 1486306970.10367 |                 0 |               7 |                 10789 |                  446 |            1186283 |             0 |                0 |          901904 |                     0 |        688369 | 2017-02-05 15:28:29.905286+01

 2017-02-05 16:02:51.190582+01 | 1486306971.19058 |                 0 |               7 |                 10789 |                  446 |            1186283 |             0 |                0 |          901904 |                     0 |        688675 | 2017-02-05 15:28:29.905286+01

 2017-02-05 16:02:52.268186+01 | 1486306972.26819 |                 0 |               7 |                 10789 |                  446 |            1186283 |             0 |                0 |          901904 |                     0 |        689064 | 2017-02-05 15:28:29.905286+01

 2017-02-05 16:02:53.347758+01 | 1486306973.34776 |                 0 |               7 |                 10789 |                  446 |            1186283 |             0 |                0 |          901904 |                     0 |        689267 | 2017-02-05 15:28:29.905286+01

 2017-02-05 16:02:54.428279+01 | 1486306974.42828 |                 0 |               7 |                 10789 |                  446 |            1186283 |             0 |                0 |          901904 |                     0 |        689783 | 2017-02-05 15:28:29.905286+01

 2017-02-05 16:02:55.506618+01 | 1486306975.50662 |                 0 |               7 |                 10789 |                  446 |            1186283 |             0 |                0 |          901904 |                     0 |        690500 | 2017-02-05 15:28:29.905286+01

 2017-02-05 16:02:56.588935+01 | 1486306976.58893 |                 0 |               7 |                 10789 |                  446 |            1186283 |             0 |                0 |          901904 |                     0 |        690766 | 2017-02-05 15:28:29.905286+01

 2017-02-05 16:02:57.667538+01 | 1486306977.66754 |                 0 |               7 |                 10789 |                  446 |            1186283 |             0 |                0 |          901904 |                     0 |        691095 | 2017-02-05 15:28:29.905286+01

 2017-02-05 16:02:58.740111+01 | 1486306978.74011 |                 0 |               7 |                 10789 |                  446 |            1186283 |             0 |                0 |          901904 |                     0 |        691569 | 2017-02-05 15:28:29.905286+01

 2017-02-05 16:02:59.815186+01 | 1486306979.81519 |                 0 |               7 |                 10789 |                  446 |            1186283 |             0 |                0 |          901904 |                     0 |        692061 | 2017-02-05 15:28:29.905286+01

 2017-02-05 16:03:00.883208+01 | 1486306980.88321 |                 0 |               7 |                 10789 |                  446 |            1186283 |             0 |                0 |          901904 |                     0 |        692061 | 2017-02-05 15:28:29.905286+01

 2017-02-05 16:03:01.966032+01 | 1486306981.96603 |                 0 |               7 |                 10789 |                  446 |            1186283 |             0 |                0 |          901904 |                     0 |        692813 | 2017-02-05 15:28:29.905286+01

 2017-02-05 16:03:03.045723+01 | 1486306983.04572 |                 0 |               7 |                 10789 |                  446 |            1186283 |             0 |                0 |          901904 |                     0 |        693262 | 2017-02-05 15:28:29.905286+01

 2017-02-05 16:03:04.136154+01 | 1486306984.13615 |                 0 |               7 |                 10789 |                  446 |            1186283 |             0 |                0 |          901904 |                     0 |        693668 | 2017-02-05 15:28:29.905286+01

 2017-02-05 16:03:05.217654+01 | 1486306985.21765 |                 0 |               7 |                 10789 |                  446 |            1186283 |             0 |                0 |          901904 |                     0 |        693991 | 2017-02-05 15:28:29.905286+01

 2017-02-05 16:03:06.301072+01 | 1486306986.30107 |                 0 |               7 |                 10789 |                  446 |            1186283 |             0 |                0 |          901904 |                     0 |        694580 | 2017-02-05 15:28:29.905286+01

 2017-02-05 16:03:07.372156+01 | 1486306987.37216 |                 0 |               7 |                 10789 |                  446 |            1186283 |             0 |                0 |          901904 |                     0 |        694803 | 2017-02-05 15:28:29.905286+01

 2017-02-05 16:03:08.450226+01 | 1486306988.45023 |                 0 |               7 |                 10789 |                  446 |            1186283 |             0 |                0 |          901904 |                     0 |        695252 | 2017-02-05 15:28:29.905286+01

 2017-02-05 16:03:09.530587+01 | 1486306989.53059 |                 0 |               7 |                 10789 |                  446 |            1186283 |             0 |                0 |          901904 |                     0 |        695538 | 2017-02-05 15:28:29.905286+01

 2017-02-05 16:03:10.604498+01 | 1486306990.6045 |                 0 |               7 |                 10789 |                  446 |            1186283 |             0 |                0 |          901904 |                     0 |        696068 | 2017-02-05 15:28:29.905286+01

 2017-02-05 16:03:11.677959+01 | 1486306991.67796 |                 0 |               7 |                 10789 |                  446 |            1186283 |             0 |                0 |          901904 |                     0 |        696272 | 2017-02-05 15:28:29.905286+01

 2017-02-05 16:03:12.757896+01 | 1486306992.7579 |                 0 |               7 |                 10789 |                  446 |            1186283 |             0 |                0 |          901904 |                     0 |        697068 | 2017-02-05 15:28:29.905286+01

 2017-02-05 16:03:13.828671+01 | 1486306993.82867 |                 0 |               7 |                 10789 |                  446 |            1186283 |             0 |                0 |          901904 |                     0 |        697069 | 2017-02-05 15:28:29.905286+01

 2017-02-05 16:03:14.915003+01 | 1486306994.915 |                 0 |               7 |                 10789 |                  446 |            1186283 |             0 |                0 |          901904 |                     0 |        697377 | 2017-02-05 15:28:29.905286+01

 2017-02-05 16:03:15.995728+01 | 1486306995.99573 |                 0 |               7 |                 10789 |                  446 |            1186283 |             0 |                0 |          901904 |                     0 |        698113 | 2017-02-05 15:28:29.905286+01

 2017-02-05 16:03:17.075512+01 | 1486306997.07551 |                 0 |               7 |                 10789 |                  446 |            1186283 |             0 |                0 |          901904 |                     0 |        698379 | 2017-02-05 15:28:29.905286+01

 2017-02-05 16:03:18.153004+01 | 1486306998.153 |                 0 |               7 |                 10789 |                  446 |            1186283 |             0 |                0 |          901904 |                     0 |        698582 | 2017-02-05 15:28:29.905286+01

 2017-02-05 16:03:19.234552+01 | 1486306999.23455 |                 0 |               7 |                 10789 |                  446 |            1186283 |             0 |                0 |          901904 |                     0 |        699314 | 2017-02-05 15:28:29.905286+01

 2017-02-05 16:03:20.315428+01 | 1486307000.31543 |                 0 |               7 |                 10789 |                  446 |            1186283 |             0 |                0 |          901904 |                     0 |        699540 | 2017-02-05 15:28:29.905286+01

 2017-02-05 16:03:21.394254+01 | 1486307001.39425 |                 0 |               7 |                 10789 |                  446 |            1186283 |             0 |                0 |          901904 |                     0 |        699911 | 2017-02-05 15:28:29.905286+01

 2017-02-05 16:03:22.474169+01 | 1486307002.47417 |                 0 |               7 |                 10789 |                  446 |            1186283 |             0 |                0 |          901904 |                     0 |        700323 | 2017-02-05 15:28:29.905286+01

 2017-02-05 16:03:23.550819+01 | 1486307003.55082 |                 0 |               7 |                 10789 |                  446 |            1186283 |             0 |                0 |          901904 |                     0 |        700692 | 2017-02-05 15:28:29.905286+01

 2017-02-05 16:03:24.628494+01 | 1486307004.62849 |                 0 |               7 |                 10789 |                  446 |            1186283 |             0 |                0 |          901904 |                     0 |        701039 | 2017-02-05 15:28:29.905286+01

 2017-02-05 16:03:25.70791+01 | 1486307005.70791 |                 0 |               7 |                 10789 |                  446 |            1186283 |             0 |                0 |          901904 |                     0 |        701654 | 2017-02-05 15:28:29.905286+01

 2017-02-05 16:03:26.793357+01 | 1486307006.79336 |                 0 |               7 |                 10789 |                  446 |            1186283 |             0 |                0 |          901904 |                     0 |        701900 | 2017-02-05 15:28:29.905286+01

 2017-02-05 16:03:27.870669+01 | 1486307007.87067 |                 0 |               7 |                 10789 |                  446 |            1186283 |             0 |                0 |          901904 |                     0 |        702249 | 2017-02-05 15:28:29.905286+01

 2017-02-05 16:03:28.953541+01 | 1486307008.95354 |                 0 |               7 |                 10789 |                  446 |            1186283 |             0 |                0 |          901904 |                     0 |        702595 | 2017-02-05 15:28:29.905286+01

 2017-02-05 16:03:30.042833+01 | 1486307010.04283 |                 0 |               7 |                 10789 |                  446 |            1186283 |             0 |                0 |          901904 |                     0 |        703044 | 2017-02-05 15:28:29.905286+01

 2017-02-05 16:03:31.123322+01 | 1486307011.12332 |                 0 |               7 |                 10789 |                  446 |            1186283 |             0 |                0 |          901904 |                     0 |        703351 | 2017-02-05 15:28:29.905286+01

 2017-02-05 16:03:32.199322+01 | 1486307012.19932 |                 0 |               7 |                 10789 |                  446 |            1186283 |             0 |                0 |          901904 |                     0 |        703613 | 2017-02-05 15:28:29.905286+01

 2017-02-05 16:03:33.28386+01 | 1486307013.28386 |                 0 |               7 |                 10789 |                  446 |            1186283 |             0 |                0 |          901904 |                     0 |        704243 | 2017-02-05 15:28:29.905286+01

 2017-02-05 16:03:34.37254+01 | 1486307014.37254 |                 0 |               7 |                 10789 |                  446 |            1186283 |             0 |                0 |          901904 |                     0 |        704527 | 2017-02-05 15:28:29.905286+01

 2017-02-05 16:03:35.456264+01 | 1486307015.45626 |                 0 |               7 |                 10789 |                  446 |            1186283 |             0 |                0 |          901904 |                     0 |        704896 | 2017-02-05 15:28:29.905286+01

 2017-02-05 16:03:36.534204+01 | 1486307016.5342 |                 0 |               7 |                 10789 |                  446 |            1186283 |             0 |                0 |          901904 |                     0 |        705369 | 2017-02-05 15:28:29.905286+01

 2017-02-05 16:03:37.60927+01 | 1486307017.60927 |                 0 |               7 |                 10789 |                  446 |            1186283 |             0 |                0 |          901904 |                     0 |        705795 | 2017-02-05 15:28:29.905286+01

 2017-02-05 16:03:38.682375+01 | 1486307018.68237 |                 0 |               7 |                 10789 |                  446 |            1186283 |             0 |                0 |          901904 |                     0 |        706144 | 2017-02-05 15:28:29.905286+01

 2017-02-05 16:03:39.759547+01 | 1486307019.75955 |                 0 |               7 |                 10789 |                  446 |            1186283 |             0 |                0 |          901904 |                     0 |        706613 | 2017-02-05 15:28:29.905286+01

 2017-02-05 16:03:40.846465+01 | 1486307020.84647 |                 0 |               7 |                 10789 |                  446 |            1186283 |             0 |                0 |          901904 |                     0 |        707179 | 2017-02-05 15:28:29.905286+01

 2017-02-05 16:03:41.918131+01 | 1486307021.91813 |                 0 |               7 |                 10789 |                  446 |            1186283 |             0 |                0 |          901904 |                     0 |        707322 | 2017-02-05 15:28:29.905286+01

 2017-02-05 16:03:42.997808+01 | 1486307022.99781 |                 0 |               7 |                 10789 |                  446 |            1186283 |             0 |                0 |          901904 |                     0 |        707775 | 2017-02-05 15:28:29.905286+01

 2017-02-05 16:03:44.085366+01 | 1486307024.08537 |                 0 |               7 |                 10789 |                  446 |            1186283 |             0 |                0 |          901904 |                     0 |        708085 | 2017-02-05 15:28:29.905286+01

 2017-02-05 16:03:45.171164+01 | 1486307025.17116 |                 0 |               7 |                 10789 |                  446 |            1186283 |             0 |                0 |          901904 |                     0 |        708497 | 2017-02-05 15:28:29.905286+01

 2017-02-05 16:03:46.251632+01 | 1486307026.25163 |                 0 |               7 |                 10789 |                  446 |            1186283 |             0 |                0 |          901904 |                     0 |        709009 | 2017-02-05 15:28:29.905286+01

 2017-02-05 16:03:47.332582+01 | 1486307027.33258 |                 0 |               7 |                 10789 |                  446 |            1186283 |             0 |                0 |          901904 |                     0 |        709233 | 2017-02-05 15:28:29.905286+01

 2017-02-05 16:03:48.416131+01 | 1486307028.41613 |                 0 |               7 |                 10789 |                  446 |            1186283 |             0 |                0 |          901904 |                     0 |        709627 | 2017-02-05 15:28:29.905286+01

 2017-02-05 16:03:49.500017+01 | 1486307029.50002 |                 0 |               7 |                 10789 |                  446 |            1186283 |             0 |                0 |          901904 |                     0 |        710013 | 2017-02-05 15:28:29.905286+01

 2017-02-05 16:03:50.580163+01 | 1486307030.58016 |                 0 |               7 |                 10789 |                  446 |            1186283 |             0 |                0 |          901904 |                     0 |        710404 | 2017-02-05 15:28:29.905286+01

 2017-02-05 16:03:51.657934+01 | 1486307031.65793 |                 0 |               7 |                 10789 |                  446 |            1186283 |             0 |                0 |          901904 |                     0 |        711016 | 2017-02-05 15:28:29.905286+01

 2017-02-05 16:03:52.734934+01 | 1486307032.73493 |                 0 |               7 |                 10789 |                  446 |            1186283 |             0 |                0 |          901904 |                     0 |        711299 | 2017-02-05 15:28:29.905286+01

 2017-02-05 16:03:53.80931+01 | 1486307033.80931 |                 0 |               7 |                 10789 |                  446 |            1186283 |             0 |                0 |          901904 |                     0 |        711588 | 2017-02-05 15:28:29.905286+01

 2017-02-05 16:03:54.883787+01 | 1486307034.88379 |                 0 |               7 |                 10789 |                  446 |            1186283 |             0 |                0 |          901904 |                     0 |        712018 | 2017-02-05 15:28:29.905286+01

 2017-02-05 16:03:55.968514+01 | 1486307035.96851 |                 0 |               7 |                 10789 |                  446 |            1186283 |             0 |                0 |          901904 |                     0 |        712530 | 2017-02-05 15:28:29.905286+01

 2017-02-05 16:03:57.063004+01 | 1486307037.063 |                 0 |               7 |                 10789 |                  446 |            1186283 |             0 |                0 |          901904 |                     0 |        712839 | 2017-02-05 15:28:29.905286+01

 2017-02-05 16:03:58.157771+01 | 1486307038.15777 |                 0 |               7 |                 10789 |                  446 |            1186283 |             0 |                0 |          901904 |                     0 |        713189 | 2017-02-05 15:28:29.905286+01

 2017-02-05 16:03:59.244382+01 | 1486307039.24438 |                 0 |               7 |                 10789 |                  446 |            1186283 |             0 |                0 |          901904 |                     0 |        713558 | 2017-02-05 15:28:29.905286+01

 2017-02-05 16:04:00.328354+01 | 1486307040.32835 |                 0 |               7 |                 10789 |                  446 |            1186283 |             0 |                0 |          901904 |                     0 |        713887 | 2017-02-05 15:28:29.905286+01

 2017-02-05 16:04:01.412294+01 | 1486307041.41229 |                 0 |               7 |                 10789 |                  446 |            1186283 |             0 |                0 |          901904 |                     0 |        714399 | 2017-02-05 15:28:29.905286+01

 2017-02-05 16:04:02.488169+01 | 1486307042.48817 |                 0 |               7 |                 10789 |                  446 |            1186283 |             0 |                0 |          901904 |                     0 |        714745 | 2017-02-05 15:28:29.905286+01

 2017-02-05 16:04:03.571022+01 | 1486307043.57102 |                 0 |               7 |                 10789 |                  446 |            1186283 |             0 |                0 |          901904 |                     0 |        715029 | 2017-02-05 15:28:29.905286+01

 2017-02-05 16:04:04.647908+01 | 1486307044.64791 |                 0 |               7 |                 10789 |                  446 |            1186283 |             0 |                0 |          901904 |                     0 |        715375 | 2017-02-05 15:28:29.905286+01

 2017-02-05 16:04:05.730378+01 | 1486307045.73038 |                 0 |               7 |                 10789 |                  446 |            1186283 |             0 |                0 |          901904 |                     0 |        715824 | 2017-02-05 15:28:29.905286+01

 2017-02-05 16:04:06.813561+01 | 1486307046.81356 |                 0 |               7 |                 10789 |                  446 |            1186283 |             0 |                0 |          901904 |                     0 |        716250 | 2017-02-05 15:28:29.905286+01

 2017-02-05 16:04:07.891399+01 | 1486307047.8914 |                 0 |               7 |                 10789 |                  446 |            1186283 |             0 |                0 |          901904 |                     0 |        716616 | 2017-02-05 15:28:29.905286+01

