 2017-02-05 15:59:08.405134+01 | 1486306748.40513 | 5/680C9820               |           23220492320

 2017-02-05 15:59:09.490084+01 | 1486306749.49008 | 5/766DDFD0               |           23461748688

 2017-02-05 15:59:10.573229+01 | 1486306750.57323 | 5/7F56AEB0               |           23611223728

 2017-02-05 15:59:11.659263+01 | 1486306751.65926 | 5/862F5DC8               |           23726087624

 2017-02-05 15:59:12.741204+01 | 1486306752.7412 | 5/8B68F958               |           23813749080

 2017-02-05 15:59:13.831725+01 | 1486306753.83172 | 5/8FD4D0D0               |           23887925456

 2017-02-05 15:59:14.910838+01 | 1486306754.91084 | 5/93990E50               |           23951117904

 2017-02-05 15:59:15.990646+01 | 1486306755.99065 | 5/96F32B80               |           24007355264

 2017-02-05 15:59:17.073593+01 | 1486306757.07359 | 5/99AD2CD0               |           24053099728

 2017-02-05 15:59:18.150178+01 | 1486306758.15018 | 5/9C709918               |           24099461400

 2017-02-05 15:59:19.231562+01 | 1486306759.23156 | 5/9FD9BC98               |           24156683416

 2017-02-05 15:59:20.312296+01 | 1486306760.3123 | 5/A32A7268               |           24212304488

 2017-02-05 15:59:21.39077+01 | 1486306761.39077 | 5/A5ABD2C8               |           24254337736

 2017-02-05 15:59:22.467266+01 | 1486306762.46727 | 5/A730BC78               |           24279825528

 2017-02-05 15:59:23.55343+01 | 1486306763.55343 | 5/A87FE210               |           24301789712

 2017-02-05 15:59:24.640662+01 | 1486306764.64066 | 5/A9B46BF8               |           24322010104

 2017-02-05 15:59:25.727383+01 | 1486306765.72738 | 5/AAE7CD60               |           24342154592

 2017-02-05 15:59:26.810635+01 | 1486306766.81064 | 5/AC256C20               |           24362970144

 2017-02-05 15:59:27.898713+01 | 1486306767.89871 | 5/AD460318               |           24381883160

 2017-02-05 15:59:28.981718+01 | 1486306768.98172 | 5/AE6A9950               |           24401058128

 2017-02-05 15:59:30.068259+01 | 1486306770.06826 | 5/AFA63610               |           24421742096

 2017-02-05 15:59:31.148948+01 | 1486306771.14895 | 5/B0E81B68               |           24442837864

 2017-02-05 15:59:32.227194+01 | 1486306772.22719 | 5/B2147970               |           24462522736

 2017-02-05 15:59:33.307229+01 | 1486306773.30723 | 5/B33DAA18               |           24481999384

 2017-02-05 15:59:34.378475+01 | 1486306774.37847 | 5/B4674158               |           24501502296

 2017-02-05 15:59:35.462166+01 | 1486306775.46217 | 5/B56F1240               |           24518791744

 2017-02-05 15:59:36.5451+01 | 1486306776.5451 | 5/B678BB10               |           24536202000

 2017-02-05 15:59:37.627808+01 | 1486306777.62781 | 5/B76F7B68               |           24552373096

 2017-02-05 15:59:38.712786+01 | 1486306778.71279 | 5/B8798528               |           24569808168

 2017-02-05 15:59:39.798603+01 | 1486306779.7986 | 5/B9A036D0               |           24589123008

 2017-02-05 15:59:40.874189+01 | 1486306780.87419 | 5/BABCA898               |           24607762584

 2017-02-05 15:59:41.954236+01 | 1486306781.95424 | 5/BBDF39B8               |           24626805176

 2017-02-05 15:59:43.037579+01 | 1486306783.03758 | 5/BCF45B40               |           24644967232

 2017-02-05 15:59:44.120513+01 | 1486306784.12051 | 5/BE026FC0               |           24662667200

 2017-02-05 15:59:45.209552+01 | 1486306785.20955 | 5/BF105968               |           24680356200

 2017-02-05 15:59:46.302995+01 | 1486306786.30299 | 5/C02D8CA8               |           24699047080

 2017-02-05 15:59:47.381439+01 | 1486306787.38144 | 5/C154AF38               |           24718389048

 2017-02-05 15:59:48.459154+01 | 1486306788.45915 | 5/C26C4250               |           24736711248

 2017-02-05 15:59:49.540605+01 | 1486306789.54061 | 5/C38662B8               |           24755200696

 2017-02-05 15:59:50.620568+01 | 1486306790.62057 | 5/C49F7870               |           24773621872

 2017-02-05 15:59:51.69735+01 | 1486306791.69735 | 5/C5A40B08               |           24790698760

 2017-02-05 15:59:52.779057+01 | 1486306792.77906 | 5/C6BC63D0               |           24809071568

 2017-02-05 15:59:53.860347+01 | 1486306793.86035 | 5/C7D0D030               |           24827187248

 2017-02-05 15:59:54.938618+01 | 1486306794.93862 | 5/C8E89778               |           24845522808

 2017-02-05 15:59:56.022313+01 | 1486306796.02231 | 5/CA058BB8               |           24864197560

 2017-02-05 15:59:57.098995+01 | 1486306797.09899 | 5/CB19EDC8               |           24882310600

 2017-02-05 15:59:58.174866+01 | 1486306798.17487 | 5/CC286290               |           24900035216

 2017-02-05 15:59:59.253739+01 | 1486306799.25374 | 5/CD3436E0               |           24917587680

 2017-02-05 16:00:00.340757+01 | 1486306800.34076 | 5/CE4AFEC8               |           24935857864

 2017-02-05 16:00:01.416583+01 | 1486306801.41658 | 5/CF647AC0               |           24954305216

 2017-02-05 16:00:02.494577+01 | 1486306802.49458 | 5/D07DEED0               |           24972750544

 2017-02-05 16:00:03.574609+01 | 1486306803.57461 | 5/D1A8B310               |           24992330512

 2017-02-05 16:00:04.656801+01 | 1486306804.6568 | 5/D30E08C8               |           25015748808

 2017-02-05 16:00:05.749398+01 | 1486306805.7494 | 5/D4ABD1D8               |           25042866648

 2017-02-05 16:00:06.831879+01 | 1486306806.83188 | 5/D631BEE8               |           25068420840

 2017-02-05 16:00:07.908565+01 | 1486306807.90857 | 5/D7BF1A60               |           25094462048

 2017-02-05 16:00:08.994055+01 | 1486306808.99406 | 5/D947FED8               |           25120210648

 2017-02-05 16:00:10.076674+01 | 1486306810.07667 | 5/DB144728               |           25150375720

 2017-02-05 16:00:11.1573+01 | 1486306811.1573 | 5/DC3118A8               |           25169041576

 2017-02-05 16:00:12.234524+01 | 1486306812.23452 | 5/DD53A030               |           25188081712

 2017-02-05 16:00:13.310332+01 | 1486306813.31033 | 5/DE79DA58               |           25207364184

 2017-02-05 16:00:14.395974+01 | 1486306814.39597 | 5/DF8810D0               |           25225072848

 2017-02-05 16:00:15.475528+01 | 1486306815.47553 | 5/E0A98918               |           25244043544

 2017-02-05 16:00:16.540272+01 | 1486306816.54027 | 5/E1CAB218               |           25262993944

 2017-02-05 16:00:17.610958+01 | 1486306817.61096 | 5/E31ECC28               |           25285282856

 2017-02-05 16:00:18.695656+01 | 1486306818.69566 | 5/E44C7A80               |           25305053824

 2017-02-05 16:00:19.793549+01 | 1486306819.79355 | 5/E58B0260               |           25325929056

 2017-02-05 16:00:20.870933+01 | 1486306820.87093 | 5/E6B78670               |           25345623664

 2017-02-05 16:00:21.956436+01 | 1486306821.95644 | 5/E7E914E0               |           25365648608

 2017-02-05 16:00:23.036284+01 | 1486306823.03628 | 5/E8FFAE48               |           25383906888

 2017-02-05 16:00:24.125617+01 | 1486306824.12562 | 5/EA4C4508               |           25405703432

 2017-02-05 16:00:25.206662+01 | 1486306825.20666 | 5/EBAB6F88               |           25428717448

 2017-02-05 16:00:26.287701+01 | 1486306826.2877 | 5/ED075880               |           25451518080

 2017-02-05 16:00:27.366116+01 | 1486306827.36612 | 5/EE798950               |           25475778896

 2017-02-05 16:00:28.44738+01 | 1486306828.44738 | 5/EFF06570               |           25500345712

 2017-02-05 16:00:29.520065+01 | 1486306829.52007 | 5/F158E5C0               |           25523980368

 2017-02-05 16:00:30.607083+01 | 1486306830.60708 | 5/F2BCCD40               |           25547296064

 2017-02-05 16:00:31.692348+01 | 1486306831.69235 | 5/F4025938               |           25568631096

 2017-02-05 16:00:32.782226+01 | 1486306832.78223 | 5/F5775C68               |           25593076840

 2017-02-05 16:00:33.869741+01 | 1486306833.86974 | 5/F6DBF398               |           25616446360

 2017-02-05 16:00:34.953107+01 | 1486306834.95311 | 5/F8436838               |           25640003640

 2017-02-05 16:00:36.032159+01 | 1486306836.03216 | 5/F9A34E20               |           25663065632

 2017-02-05 16:00:37.108639+01 | 1486306837.10864 | 5/FAFE6088               |           25685811336

 2017-02-05 16:00:38.190527+01 | 1486306838.19053 | 5/FC75D0C8               |           25710416072

 2017-02-05 16:00:39.280602+01 | 1486306839.2806 | 5/FDEEA9A8               |           25735113128

 2017-02-05 16:00:40.364124+01 | 1486306840.36412 | 5/FF605330               |           25759339312

 2017-02-05 16:00:41.444858+01 | 1486306841.44486 | 6/E23D68                 |           25784630632

 2017-02-05 16:00:42.531781+01 | 1486306842.53178 | 6/26877A0                |           25810204576

 2017-02-05 16:00:43.611044+01 | 1486306843.61104 | 6/3D55868                |           25834117224

 2017-02-05 16:00:44.693177+01 | 1486306844.69318 | 6/5405A90                |           25857907344

 2017-02-05 16:00:45.777039+01 | 1486306845.77704 | 6/67AE348                |           25878520648

 2017-02-05 16:00:46.85654+01 | 1486306846.85654 | 6/7EDAF88                |           25902821256

 2017-02-05 16:00:47.93598+01 | 1486306847.93598 | 6/9597A40                |           25926662720

 2017-02-05 16:00:49.015839+01 | 1486306849.01584 | 6/AB13428                |           25949189160

 2017-02-05 16:00:50.097622+01 | 1486306850.09762 | 6/C1CC208                |           25973015048

 2017-02-05 16:00:51.174543+01 | 1486306851.17454 | 6/D658CB0                |           25994562736

 2017-02-05 16:00:52.258347+01 | 1486306852.25835 | 6/EC324B8                |           26017473720

 2017-02-05 16:00:53.339713+01 | 1486306853.33971 | 6/1019C578               |           26039928184

 2017-02-05 16:00:54.424205+01 | 1486306854.42421 | 6/1132BD10               |           26058341648

 2017-02-05 16:00:55.501495+01 | 1486306855.50149 | 6/122FE870               |           26074933360

 2017-02-05 16:00:56.58373+01 | 1486306856.58373 | 6/132CCE78               |           26091507320

 2017-02-05 16:00:57.661488+01 | 1486306857.66149 | 6/14261058               |           26107842648

 2017-02-05 16:00:58.740153+01 | 1486306858.74015 | 6/152104D0               |           26124289232

 2017-02-05 16:00:59.827071+01 | 1486306859.82707 | 6/162191C8               |           26141102536

 2017-02-05 16:01:00.916534+01 | 1486306860.91653 | 6/1722BF78               |           26157956984

 2017-02-05 16:01:01.986287+01 | 1486306861.98629 | 6/182876A0               |           26175108768

 2017-02-05 16:01:03.066972+01 | 1486306863.06697 | 6/1938CA00               |           26192955904

 2017-02-05 16:01:04.145953+01 | 1486306864.14595 | 6/1A52BCB0               |           26211433648

 2017-02-05 16:01:05.235175+01 | 1486306865.23517 | 6/1B7E6C48               |           26231073864

 2017-02-05 16:01:06.315193+01 | 1486306866.31519 | 6/1CA8F030               |           26250637360

 2017-02-05 16:01:07.401312+01 | 1486306867.40131 | 6/1DF14590               |           26272155024

 2017-02-05 16:01:08.48129+01 | 1486306868.48129 | 6/1FCC43C0               |           26303284160

 2017-02-05 16:01:09.553892+01 | 1486306869.55389 | 6/21D41DF8               |           26337353208

 2017-02-05 16:01:10.630125+01 | 1486306870.63013 | 6/23ED8F58               |           26372575064

 2017-02-05 16:01:11.707822+01 | 1486306871.70782 | 6/2594E348               |           26400318280

 2017-02-05 16:01:12.786528+01 | 1486306872.78653 | 6/269DA5F0               |           26417669616

 2017-02-05 16:01:13.86966+01 | 1486306873.86966 | 6/27AF0700               |           26435585792

 2017-02-05 16:01:14.947573+01 | 1486306874.94757 | 6/28C11280               |           26453545600

 2017-02-05 16:01:16.036023+01 | 1486306876.03602 | 6/29BF1068               |           26470191208

 2017-02-05 16:01:17.113668+01 | 1486306877.11367 | 6/2AE7B648               |           26489632328

 2017-02-05 16:01:18.201028+01 | 1486306878.20103 | 6/2C00AFC0               |           26508046272

 2017-02-05 16:01:19.285665+01 | 1486306879.28567 | 6/2D0E16F0               |           26525701872

 2017-02-05 16:01:20.36495+01 | 1486306880.36495 | 6/2E283808               |           26544191496

 2017-02-05 16:01:21.44749+01 | 1486306881.44749 | 6/2F2DCFA8               |           26561335208

 2017-02-05 16:01:22.519428+01 | 1486306882.51943 | 6/303A4F38               |           26578931512

 2017-02-05 16:01:23.593487+01 | 1486306883.59349 | 6/31412598               |           26596156824

 2017-02-05 16:01:24.674115+01 | 1486306884.67411 | 6/323C0EE8               |           26612600552

 2017-02-05 16:01:25.752883+01 | 1486306885.75288 | 6/33403338               |           26629649208

 2017-02-05 16:01:26.838568+01 | 1486306886.83857 | 6/343F64D8               |           26646373592

 2017-02-05 16:01:27.917019+01 | 1486306887.91702 | 6/35486AF8               |           26663742200

 2017-02-05 16:01:29.001967+01 | 1486306889.00197 | 6/365283E8               |           26681181160

 2017-02-05 16:01:30.084517+01 | 1486306890.08452 | 6/3758F788               |           26698381192

 2017-02-05 16:01:31.163262+01 | 1486306891.16326 | 6/3862A718               |           26715793176

 2017-02-05 16:01:32.246801+01 | 1486306892.2468 | 6/396357F0               |           26732615664

 2017-02-05 16:01:33.325798+01 | 1486306893.3258 | 6/3A714230               |           26750304816

 2017-02-05 16:01:34.407365+01 | 1486306894.40737 | 6/3B6EE280               |           26766926464

 2017-02-05 16:01:35.482543+01 | 1486306895.48254 | 6/3C727C30               |           26783939632

 2017-02-05 16:01:36.559457+01 | 1486306896.55946 | 6/3D7C6580               |           26801366400

 2017-02-05 16:01:37.632963+01 | 1486306897.63296 | 6/3E7D4548               |           26818200904

 2017-02-05 16:01:38.715539+01 | 1486306898.71554 | 6/3F833D98               |           26835369368

 2017-02-05 16:01:39.798512+01 | 1486306899.79851 | 6/4089D1D0               |           26852577744

 2017-02-05 16:01:40.886436+01 | 1486306900.88644 | 6/4192DA38               |           26869946936

 2017-02-05 16:01:41.978032+01 | 1486306901.97803 | 6/428ED078               |           26886459512

 2017-02-05 16:01:43.059538+01 | 1486306903.05954 | 6/439020F8               |           26903322872

 2017-02-05 16:01:44.136682+01 | 1486306904.13668 | 6/449C32A8               |           26920891048

 2017-02-05 16:01:45.219458+01 | 1486306905.21946 | 6/4594D630               |           26937185840

 2017-02-05 16:01:46.301642+01 | 1486306906.30164 | 6/46996380               |           26954261376

 2017-02-05 16:01:47.384173+01 | 1486306907.38417 | 6/477FF630               |           26969372208

 2017-02-05 16:01:48.461504+01 | 1486306908.4615 | 6/487F0AF0               |           26986089200

 2017-02-05 16:01:49.538983+01 | 1486306909.53898 | 6/497F84B0               |           27002897584

 2017-02-05 16:01:50.611812+01 | 1486306910.61181 | 6/4A7EBED8               |           27019624152

 2017-02-05 16:01:51.694243+01 | 1486306911.69424 | 6/4B8A5060               |           27037159520

 2017-02-05 16:01:52.774003+01 | 1486306912.774 | 6/4C8AC3B8               |           27053966264

 2017-02-05 16:01:53.858225+01 | 1486306913.85823 | 6/4D8A02C0               |           27070694080

 2017-02-05 16:01:54.945901+01 | 1486306914.9459 | 6/4E8D4D80               |           27087687040

 2017-02-05 16:01:56.028702+01 | 1486306916.0287 | 6/4F965068               |           27105054824

 2017-02-05 16:01:57.104147+01 | 1486306917.10415 | 6/508C5878               |           27121178744

 2017-02-05 16:01:58.188344+01 | 1486306918.18834 | 6/518973C0               |           27137766336

 2017-02-05 16:01:59.274665+01 | 1486306919.27467 | 6/52883238               |           27154461240

 2017-02-05 16:02:00.35838+01 | 1486306920.35838 | 6/539037B8               |           27171764152

 2017-02-05 16:02:01.442711+01 | 1486306921.44271 | 6/549B8748               |           27189282632

 2017-02-05 16:02:02.528128+01 | 1486306922.52813 | 6/5598BFD8               |           27205877720

 2017-02-05 16:02:03.609281+01 | 1486306923.60928 | 6/56ABA700               |           27223893760

 2017-02-05 16:02:04.684772+01 | 1486306924.68477 | 6/57CED840               |           27242977344

 2017-02-05 16:02:05.762791+01 | 1486306925.76279 | 6/58F15948               |           27262015816

 2017-02-05 16:02:06.841628+01 | 1486306926.84163 | 6/59FC9CA0               |           27279531168

 2017-02-05 16:02:07.922575+01 | 1486306927.92257 | 6/5B035530               |           27296748848

 2017-02-05 16:02:09.010365+01 | 1486306929.01037 | 6/5C073360               |           27313779552

 2017-02-05 16:02:10.088678+01 | 1486306930.08868 | 6/5D0D58D8               |           27330959576

 2017-02-05 16:02:11.171696+01 | 1486306931.1717 | 6/5E0CE7A8               |           27347707816

 2017-02-05 16:02:12.252546+01 | 1486306932.25255 | 6/5F208F80               |           27365773184

 2017-02-05 16:02:13.334581+01 | 1486306933.33458 | 6/60452D20               |           27384950048

 2017-02-05 16:02:14.418699+01 | 1486306934.4187 | 6/61574D40               |           27402915136

 2017-02-05 16:02:15.489178+01 | 1486306935.48918 | 6/625EBB88               |           27420179336

 2017-02-05 16:02:16.56865+01 | 1486306936.56865 | 6/636EEF10               |           27438018320

 2017-02-05 16:02:17.643253+01 | 1486306937.64325 | 6/64790A48               |           27455457864

 2017-02-05 16:02:18.720361+01 | 1486306938.72036 | 6/6574AFA0               |           27471949728

 2017-02-05 16:02:19.794339+01 | 1486306939.79434 | 6/667D2A08               |           27489282568

 2017-02-05 16:02:20.878724+01 | 1486306940.87872 | 6/6782F6E8               |           27506439912

 2017-02-05 16:02:21.957749+01 | 1486306941.95775 | 6/68875AE8               |           27523504872

 2017-02-05 16:02:23.041988+01 | 1486306943.04199 | 6/696D8428               |           27538588712

 2017-02-05 16:02:24.124822+01 | 1486306944.12482 | 6/6A74DDC8               |           27555847624

 2017-02-05 16:02:25.209646+01 | 1486306945.20965 | 6/6B6E03E8               |           27572175848

 2017-02-05 16:02:26.288985+01 | 1486306946.28899 | 6/6C718A38               |           27589184056

 2017-02-05 16:02:27.370632+01 | 1486306947.37063 | 6/6D78DD88               |           27606441352

 2017-02-05 16:02:28.449478+01 | 1486306948.44948 | 6/6E7C0050               |           27623424080

 2017-02-05 16:02:29.526076+01 | 1486306949.52608 | 6/6F7F34D8               |           27640411352

 2017-02-05 16:02:30.603745+01 | 1486306950.60374 | 6/707DC820               |           27657095200

 2017-02-05 16:02:31.679927+01 | 1486306951.67993 | 6/7183BE20               |           27674263072

 2017-02-05 16:02:32.755684+01 | 1486306952.75568 | 6/727EDDB8               |           27690720696

 2017-02-05 16:02:33.832068+01 | 1486306953.83207 | 6/7381DFD8               |           27707695064

 2017-02-05 16:02:34.914107+01 | 1486306954.91411 | 6/746953D0               |           27722863568

 2017-02-05 16:02:36.000083+01 | 1486306956.00008 | 6/7558F0F8               |           27738566904

 2017-02-05 16:02:37.083397+01 | 1486306957.0834 | 6/764CC4E8               |           27754546408

 2017-02-05 16:02:38.163295+01 | 1486306958.1633 | 6/77441C28               |           27770756136

 2017-02-05 16:02:39.256904+01 | 1486306959.2569 | 6/7844D580               |           27787580800

 2017-02-05 16:02:40.339417+01 | 1486306960.33942 | 6/79427348               |           27804201800

 2017-02-05 16:02:41.424658+01 | 1486306961.42466 | 6/7A47A198               |           27821318552

 2017-02-05 16:02:42.506041+01 | 1486306962.50604 | 6/7B42AEC0               |           27837771456

 2017-02-05 16:02:43.581489+01 | 1486306963.58149 | 6/7C43EFF0               |           27854630896

 2017-02-05 16:02:44.656147+01 | 1486306964.65615 | 6/7D4D9BA0               |           27872041888

 2017-02-05 16:02:45.736083+01 | 1486306965.73608 | 6/7E4E0F80               |           27888848768

 2017-02-05 16:02:46.810405+01 | 1486306966.81041 | 6/7F533948               |           27905964360

 2017-02-05 16:02:47.888369+01 | 1486306967.88837 | 6/805CCCC0               |           27923369152

 2017-02-05 16:02:48.969215+01 | 1486306968.96921 | 6/815FD1A8               |           27940344232

 2017-02-05 16:02:50.044484+01 | 1486306970.04448 | 6/82628D78               |           27957300600

 2017-02-05 16:02:51.119193+01 | 1486306971.11919 | 6/8360A868               |           27973953640

 2017-02-05 16:02:52.205833+01 | 1486306972.20583 | 6/84647B40               |           27990981440

 2017-02-05 16:02:53.282483+01 | 1486306973.28248 | 6/854E2BC0               |           28006296512

 2017-02-05 16:02:54.362599+01 | 1486306974.3626 | 6/8642E438               |           28022334520

 2017-02-05 16:02:55.446767+01 | 1486306975.44677 | 6/87488790               |           28039481232

 2017-02-05 16:02:56.52117+01 | 1486306976.52117 | 6/8848BF48               |           28056272712

 2017-02-05 16:02:57.605569+01 | 1486306977.60557 | 6/894940D0               |           28073083088

 2017-02-05 16:02:58.680401+01 | 1486306978.6804 | 6/8A494888               |           28089862280

 2017-02-05 16:02:59.754321+01 | 1486306979.75432 | 6/8B3D6C18               |           28105862168

 2017-02-05 16:03:00.829779+01 | 1486306980.82978 | 6/8C429540               |           28122977600

 2017-02-05 16:03:01.899899+01 | 1486306981.8999 | 6/8D48CBA8               |           28140161960

 2017-02-05 16:03:02.982259+01 | 1486306982.98226 | 6/8E5DB778               |           28158310264

 2017-02-05 16:03:04.060373+01 | 1486306984.06037 | 6/8F769A78               |           28176718456

 2017-02-05 16:03:05.150798+01 | 1486306985.1508 | 6/9097B680               |           28195665536

 2017-02-05 16:03:06.231415+01 | 1486306986.23142 | 6/91ACD8B8               |           28213827768

 2017-02-05 16:03:07.31429+01 | 1486306987.31429 | 6/92B0A7B0               |           28230854576

 2017-02-05 16:03:08.386276+01 | 1486306988.38628 | 6/93A5AEF8               |           28246912760

 2017-02-05 16:03:09.464052+01 | 1486306989.46405 | 6/949DDD18               |           28263177496

 2017-02-05 16:03:10.546349+01 | 1486306990.54635 | 6/95A1D528               |           28280214824

 2017-02-05 16:03:11.620047+01 | 1486306991.62005 | 6/96B05D80               |           28297944448

 2017-02-05 16:03:12.691733+01 | 1486306992.69173 | 6/97C80C10               |           28316273680

 2017-02-05 16:03:13.771896+01 | 1486306993.7719 | 6/98C292B0               |           28332692144

 2017-02-05 16:03:14.84353+01 | 1486306994.84353 | 6/99B5D218               |           28348633624

 2017-02-05 16:03:15.93066+01 | 1486306995.93066 | 6/9AB80768               |           28365555560

 2017-02-05 16:03:17.010884+01 | 1486306997.01088 | 6/9BB57078               |           28382163064

 2017-02-05 16:03:18.092403+01 | 1486306998.0924 | 6/9CB63940               |           28398991680

 2017-02-05 16:03:19.169185+01 | 1486306999.16918 | 6/9DAEE280               |           28415287936

 2017-02-05 16:03:20.250371+01 | 1486307000.25037 | 6/9EAB5698               |           28431832728

 2017-02-05 16:03:21.331797+01 | 1486307001.3318 | 6/9FAAFC70               |           28448586864

 2017-02-05 16:03:22.410505+01 | 1486307002.41051 | 6/A0A8AAC0               |           28465212096

 2017-02-05 16:03:23.489578+01 | 1486307003.48958 | 6/A1AA1FC0               |           28482084800

 2017-02-05 16:03:24.567585+01 | 1486307004.56758 | 6/A29BC6B8               |           28497921720

 2017-02-05 16:03:25.643457+01 | 1486307005.64346 | 6/A396BA40               |           28514368064

 2017-02-05 16:03:26.72057+01 | 1486307006.72057 | 6/A4827310               |           28529816336

 2017-02-05 16:03:27.808061+01 | 1486307007.80806 | 6/A57357D8               |           28545603544

 2017-02-05 16:03:28.885835+01 | 1486307008.88583 | 6/A6531D20               |           28560268576

 2017-02-05 16:03:29.969046+01 | 1486307009.96905 | 6/A7499DB0               |           28576423344

 2017-02-05 16:03:31.057507+01 | 1486307011.05751 | 6/A83F35D8               |           28592518616

 2017-02-05 16:03:32.137136+01 | 1486307012.13714 | 6/A92871E0               |           28607803872

 2017-02-05 16:03:33.215698+01 | 1486307013.2157 | 6/AA0F8150               |           28622946640

 2017-02-05 16:03:34.304401+01 | 1486307014.3044 | 6/AB02AC10               |           28638882832

 2017-02-05 16:03:35.393112+01 | 1486307015.39311 | 6/ABFF9570               |           28655457648

 2017-02-05 16:03:36.472266+01 | 1486307016.47227 | 6/ACFE9580               |           28672169344

 2017-02-05 16:03:37.54983+01 | 1486307017.54983 | 6/ADF57248               |           28688347720

 2017-02-05 16:03:38.622788+01 | 1486307018.62279 | 6/AEF0CE00               |           28704820736

 2017-02-05 16:03:39.69554+01 | 1486307019.69554 | 6/AFE65F18               |           28720914200

 2017-02-05 16:03:40.777471+01 | 1486307020.77747 | 6/B0D7DE48               |           28736740936

 2017-02-05 16:03:41.860449+01 | 1486307021.86045 | 6/B1C3EB00               |           28752210688

 2017-02-05 16:03:42.936527+01 | 1486307022.93653 | 6/B2B6F880               |           28768139392

 2017-02-05 16:03:44.014674+01 | 1486307024.01467 | 6/B3A4F968               |           28783737192

 2017-02-05 16:03:45.104068+01 | 1486307025.10407 | 6/B494D008               |           28799455240

 2017-02-05 16:03:46.188311+01 | 1486307026.18831 | 6/B584FDD8               |           28815195608

 2017-02-05 16:03:47.26844+01 | 1486307027.26844 | 6/B6755028               |           28830945320

 2017-02-05 16:03:48.351354+01 | 1486307028.35135 | 6/B769BCE8               |           28846963944

 2017-02-05 16:03:49.431569+01 | 1486307029.43157 | 6/B86362D8               |           28863324888

 2017-02-05 16:03:50.513142+01 | 1486307030.51314 | 6/B94B35F8               |           28878517752

 2017-02-05 16:03:51.594983+01 | 1486307031.59498 | 6/BA3B6F88               |           28894261128

 2017-02-05 16:03:52.673372+01 | 1486307032.67337 | 6/BB2414A0               |           28909507744

 2017-02-05 16:03:53.749956+01 | 1486307033.74996 | 6/BC1B0298               |           28925690520

 2017-02-05 16:03:54.823664+01 | 1486307034.82366 | 6/BD147120               |           28942037280

 2017-02-05 16:03:55.898386+01 | 1486307035.89839 | 6/BE051768               |           28957808488

 2017-02-05 16:03:56.983369+01 | 1486307036.98337 | 6/BF00B1A0               |           28974297504

 2017-02-05 16:03:58.079114+01 | 1486307038.07911 | 6/BFE27CF8               |           28989095160

 2017-02-05 16:03:59.174974+01 | 1486307039.17497 | 6/C0D4CE20               |           29004975648

 2017-02-05 16:04:00.260497+01 | 1486307040.2605 | 6/C1AEC178               |           29019259256

 2017-02-05 16:04:01.346085+01 | 1486307041.34609 | 6/C2A46920               |           29035358496

 2017-02-05 16:04:02.427408+01 | 1486307042.42741 | 6/C39495F0               |           29051098608

 2017-02-05 16:04:03.503999+01 | 1486307043.504 | 6/C4A43C90               |           29068901520

 2017-02-05 16:04:04.587193+01 | 1486307044.58719 | 6/C5B7E500               |           29086967040

 2017-02-05 16:04:05.664378+01 | 1486307045.66438 | 6/C6CC1958               |           29105068376

 2017-02-05 16:04:06.744943+01 | 1486307046.74494 | 6/C7CCB250               |           29121884752

 2017-02-05 16:04:07.826534+01 | 1486307047.82653 | 6/C8AC1218               |           29136523800

