 2017-02-05 18:40:38.596376+01 | 1486316438.59638 | pgbench_branches_pkey |            40960
 2017-02-05 18:40:38.596376+01 | 1486316438.59638 | pgbench_tellers_pkey  |           245760
 2017-02-05 18:40:38.596376+01 | 1486316438.59638 | pgbench_accounts_pkey |       2246197248

 2017-02-05 18:40:39.681091+01 | 1486316439.68109 | pgbench_branches_pkey |            40960
 2017-02-05 18:40:39.681091+01 | 1486316439.68109 | pgbench_tellers_pkey  |           245760
 2017-02-05 18:40:39.681091+01 | 1486316439.68109 | pgbench_accounts_pkey |       2246197248

 2017-02-05 18:40:40.765376+01 | 1486316440.76538 | pgbench_branches_pkey |            40960
 2017-02-05 18:40:40.765376+01 | 1486316440.76538 | pgbench_tellers_pkey  |           245760
 2017-02-05 18:40:40.765376+01 | 1486316440.76538 | pgbench_accounts_pkey |       2246197248

 2017-02-05 18:40:41.853437+01 | 1486316441.85344 | pgbench_branches_pkey |            40960
 2017-02-05 18:40:41.853437+01 | 1486316441.85344 | pgbench_tellers_pkey  |           245760
 2017-02-05 18:40:41.853437+01 | 1486316441.85344 | pgbench_accounts_pkey |       2246197248

 2017-02-05 18:40:42.923347+01 | 1486316442.92335 | pgbench_branches_pkey |            40960
 2017-02-05 18:40:42.923347+01 | 1486316442.92335 | pgbench_tellers_pkey  |           245760
 2017-02-05 18:40:42.923347+01 | 1486316442.92335 | pgbench_accounts_pkey |       2246197248

 2017-02-05 18:40:44.000206+01 | 1486316444.00021 | pgbench_branches_pkey |            40960
 2017-02-05 18:40:44.000206+01 | 1486316444.00021 | pgbench_tellers_pkey  |           245760
 2017-02-05 18:40:44.000206+01 | 1486316444.00021 | pgbench_accounts_pkey |       2246197248

 2017-02-05 18:40:45.077661+01 | 1486316445.07766 | pgbench_branches_pkey |            40960
 2017-02-05 18:40:45.077661+01 | 1486316445.07766 | pgbench_tellers_pkey  |           245760
 2017-02-05 18:40:45.077661+01 | 1486316445.07766 | pgbench_accounts_pkey |       2246197248

 2017-02-05 18:40:46.152526+01 | 1486316446.15253 | pgbench_branches_pkey |            40960
 2017-02-05 18:40:46.152526+01 | 1486316446.15253 | pgbench_tellers_pkey  |           245760
 2017-02-05 18:40:46.152526+01 | 1486316446.15253 | pgbench_accounts_pkey |       2246197248

 2017-02-05 18:40:47.231161+01 | 1486316447.23116 | pgbench_branches_pkey |            40960
 2017-02-05 18:40:47.231161+01 | 1486316447.23116 | pgbench_tellers_pkey  |           245760
 2017-02-05 18:40:47.231161+01 | 1486316447.23116 | pgbench_accounts_pkey |       2246197248

 2017-02-05 18:40:48.310515+01 | 1486316448.31051 | pgbench_branches_pkey |            40960
 2017-02-05 18:40:48.310515+01 | 1486316448.31051 | pgbench_tellers_pkey  |           245760
 2017-02-05 18:40:48.310515+01 | 1486316448.31051 | pgbench_accounts_pkey |       2246197248

 2017-02-05 18:40:49.392999+01 | 1486316449.393 | pgbench_branches_pkey |            40960
 2017-02-05 18:40:49.392999+01 | 1486316449.393 | pgbench_tellers_pkey  |           245760
 2017-02-05 18:40:49.392999+01 | 1486316449.393 | pgbench_accounts_pkey |       2246197248

 2017-02-05 18:40:50.472685+01 | 1486316450.47269 | pgbench_branches_pkey |            40960
 2017-02-05 18:40:50.472685+01 | 1486316450.47269 | pgbench_tellers_pkey  |           245760
 2017-02-05 18:40:50.472685+01 | 1486316450.47269 | pgbench_accounts_pkey |       2246197248

 2017-02-05 18:40:51.552857+01 | 1486316451.55286 | pgbench_branches_pkey |            40960
 2017-02-05 18:40:51.552857+01 | 1486316451.55286 | pgbench_tellers_pkey  |           245760
 2017-02-05 18:40:51.552857+01 | 1486316451.55286 | pgbench_accounts_pkey |       2246197248

 2017-02-05 18:40:52.627267+01 | 1486316452.62727 | pgbench_branches_pkey |            40960
 2017-02-05 18:40:52.627267+01 | 1486316452.62727 | pgbench_tellers_pkey  |           245760
 2017-02-05 18:40:52.627267+01 | 1486316452.62727 | pgbench_accounts_pkey |       2246197248

 2017-02-05 18:40:53.70439+01 | 1486316453.70439 | pgbench_branches_pkey |            40960
 2017-02-05 18:40:53.70439+01 | 1486316453.70439 | pgbench_tellers_pkey  |           245760
 2017-02-05 18:40:53.70439+01 | 1486316453.70439 | pgbench_accounts_pkey |       2246197248

 2017-02-05 18:40:54.778379+01 | 1486316454.77838 | pgbench_branches_pkey |            40960
 2017-02-05 18:40:54.778379+01 | 1486316454.77838 | pgbench_tellers_pkey  |           245760
 2017-02-05 18:40:54.778379+01 | 1486316454.77838 | pgbench_accounts_pkey |       2246197248

 2017-02-05 18:40:55.857932+01 | 1486316455.85793 | pgbench_branches_pkey |            40960
 2017-02-05 18:40:55.857932+01 | 1486316455.85793 | pgbench_tellers_pkey  |           245760
 2017-02-05 18:40:55.857932+01 | 1486316455.85793 | pgbench_accounts_pkey |       2246197248

 2017-02-05 18:40:56.939667+01 | 1486316456.93967 | pgbench_branches_pkey |            40960
 2017-02-05 18:40:56.939667+01 | 1486316456.93967 | pgbench_tellers_pkey  |           245760
 2017-02-05 18:40:56.939667+01 | 1486316456.93967 | pgbench_accounts_pkey |       2246197248

 2017-02-05 18:40:58.017526+01 | 1486316458.01753 | pgbench_branches_pkey |            40960
 2017-02-05 18:40:58.017526+01 | 1486316458.01753 | pgbench_tellers_pkey  |           245760
 2017-02-05 18:40:58.017526+01 | 1486316458.01753 | pgbench_accounts_pkey |       2246197248

 2017-02-05 18:40:59.093945+01 | 1486316459.09395 | pgbench_branches_pkey |            40960
 2017-02-05 18:40:59.093945+01 | 1486316459.09395 | pgbench_tellers_pkey  |           245760
 2017-02-05 18:40:59.093945+01 | 1486316459.09395 | pgbench_accounts_pkey |       2246197248

 2017-02-05 18:41:00.170764+01 | 1486316460.17076 | pgbench_branches_pkey |            40960
 2017-02-05 18:41:00.170764+01 | 1486316460.17076 | pgbench_tellers_pkey  |           245760
 2017-02-05 18:41:00.170764+01 | 1486316460.17076 | pgbench_accounts_pkey |       2246197248

 2017-02-05 18:41:01.246056+01 | 1486316461.24606 | pgbench_branches_pkey |            40960
 2017-02-05 18:41:01.246056+01 | 1486316461.24606 | pgbench_tellers_pkey  |           245760
 2017-02-05 18:41:01.246056+01 | 1486316461.24606 | pgbench_accounts_pkey |       2246197248

 2017-02-05 18:41:02.323336+01 | 1486316462.32334 | pgbench_branches_pkey |            40960
 2017-02-05 18:41:02.323336+01 | 1486316462.32334 | pgbench_tellers_pkey  |           245760
 2017-02-05 18:41:02.323336+01 | 1486316462.32334 | pgbench_accounts_pkey |       2246197248

 2017-02-05 18:41:03.397229+01 | 1486316463.39723 | pgbench_branches_pkey |            40960
 2017-02-05 18:41:03.397229+01 | 1486316463.39723 | pgbench_tellers_pkey  |           245760
 2017-02-05 18:41:03.397229+01 | 1486316463.39723 | pgbench_accounts_pkey |       2246197248

 2017-02-05 18:41:04.466958+01 | 1486316464.46696 | pgbench_branches_pkey |            40960
 2017-02-05 18:41:04.466958+01 | 1486316464.46696 | pgbench_tellers_pkey  |           245760
 2017-02-05 18:41:04.466958+01 | 1486316464.46696 | pgbench_accounts_pkey |       2246197248

 2017-02-05 18:41:05.544197+01 | 1486316465.5442 | pgbench_branches_pkey |            40960
 2017-02-05 18:41:05.544197+01 | 1486316465.5442 | pgbench_tellers_pkey  |           245760
 2017-02-05 18:41:05.544197+01 | 1486316465.5442 | pgbench_accounts_pkey |       2246197248

 2017-02-05 18:41:06.620808+01 | 1486316466.62081 | pgbench_branches_pkey |            40960
 2017-02-05 18:41:06.620808+01 | 1486316466.62081 | pgbench_tellers_pkey  |           245760
 2017-02-05 18:41:06.620808+01 | 1486316466.62081 | pgbench_accounts_pkey |       2246197248

 2017-02-05 18:41:07.705105+01 | 1486316467.70511 | pgbench_branches_pkey |            40960
 2017-02-05 18:41:07.705105+01 | 1486316467.70511 | pgbench_tellers_pkey  |           245760
 2017-02-05 18:41:07.705105+01 | 1486316467.70511 | pgbench_accounts_pkey |       2246197248

 2017-02-05 18:41:08.786074+01 | 1486316468.78607 | pgbench_branches_pkey |            40960
 2017-02-05 18:41:08.786074+01 | 1486316468.78607 | pgbench_tellers_pkey  |           245760
 2017-02-05 18:41:08.786074+01 | 1486316468.78607 | pgbench_accounts_pkey |       2246197248

 2017-02-05 18:41:09.864304+01 | 1486316469.8643 | pgbench_branches_pkey |            40960
 2017-02-05 18:41:09.864304+01 | 1486316469.8643 | pgbench_tellers_pkey  |           245760
 2017-02-05 18:41:09.864304+01 | 1486316469.8643 | pgbench_accounts_pkey |       2246197248

 2017-02-05 18:41:10.940621+01 | 1486316470.94062 | pgbench_branches_pkey |            40960
 2017-02-05 18:41:10.940621+01 | 1486316470.94062 | pgbench_tellers_pkey  |           245760
 2017-02-05 18:41:10.940621+01 | 1486316470.94062 | pgbench_accounts_pkey |       2246197248

 2017-02-05 18:41:12.016451+01 | 1486316472.01645 | pgbench_branches_pkey |            40960
 2017-02-05 18:41:12.016451+01 | 1486316472.01645 | pgbench_tellers_pkey  |           245760
 2017-02-05 18:41:12.016451+01 | 1486316472.01645 | pgbench_accounts_pkey |       2246197248

 2017-02-05 18:41:13.088697+01 | 1486316473.0887 | pgbench_branches_pkey |            40960
 2017-02-05 18:41:13.088697+01 | 1486316473.0887 | pgbench_tellers_pkey  |           245760
 2017-02-05 18:41:13.088697+01 | 1486316473.0887 | pgbench_accounts_pkey |       2246197248

 2017-02-05 18:41:14.163277+01 | 1486316474.16328 | pgbench_branches_pkey |            40960
 2017-02-05 18:41:14.163277+01 | 1486316474.16328 | pgbench_tellers_pkey  |           245760
 2017-02-05 18:41:14.163277+01 | 1486316474.16328 | pgbench_accounts_pkey |       2246197248

 2017-02-05 18:41:15.24199+01 | 1486316475.24199 | pgbench_branches_pkey |            40960
 2017-02-05 18:41:15.24199+01 | 1486316475.24199 | pgbench_tellers_pkey  |           245760
 2017-02-05 18:41:15.24199+01 | 1486316475.24199 | pgbench_accounts_pkey |       2246197248

 2017-02-05 18:41:16.323513+01 | 1486316476.32351 | pgbench_branches_pkey |            40960
 2017-02-05 18:41:16.323513+01 | 1486316476.32351 | pgbench_tellers_pkey  |           245760
 2017-02-05 18:41:16.323513+01 | 1486316476.32351 | pgbench_accounts_pkey |       2246197248

 2017-02-05 18:41:17.397078+01 | 1486316477.39708 | pgbench_branches_pkey |            40960
 2017-02-05 18:41:17.397078+01 | 1486316477.39708 | pgbench_tellers_pkey  |           245760
 2017-02-05 18:41:17.397078+01 | 1486316477.39708 | pgbench_accounts_pkey |       2246197248

 2017-02-05 18:41:18.486412+01 | 1486316478.48641 | pgbench_branches_pkey |            40960
 2017-02-05 18:41:18.486412+01 | 1486316478.48641 | pgbench_tellers_pkey  |           245760
 2017-02-05 18:41:18.486412+01 | 1486316478.48641 | pgbench_accounts_pkey |       2246197248

 2017-02-05 18:41:19.566397+01 | 1486316479.5664 | pgbench_branches_pkey |            40960
 2017-02-05 18:41:19.566397+01 | 1486316479.5664 | pgbench_tellers_pkey  |           245760
 2017-02-05 18:41:19.566397+01 | 1486316479.5664 | pgbench_accounts_pkey |       2246197248

 2017-02-05 18:41:20.647476+01 | 1486316480.64748 | pgbench_branches_pkey |            40960
 2017-02-05 18:41:20.647476+01 | 1486316480.64748 | pgbench_tellers_pkey  |           245760
 2017-02-05 18:41:20.647476+01 | 1486316480.64748 | pgbench_accounts_pkey |       2246197248

 2017-02-05 18:41:21.727421+01 | 1486316481.72742 | pgbench_branches_pkey |            40960
 2017-02-05 18:41:21.727421+01 | 1486316481.72742 | pgbench_tellers_pkey  |           245760
 2017-02-05 18:41:21.727421+01 | 1486316481.72742 | pgbench_accounts_pkey |       2246197248

 2017-02-05 18:41:22.804755+01 | 1486316482.80475 | pgbench_branches_pkey |            40960
 2017-02-05 18:41:22.804755+01 | 1486316482.80475 | pgbench_tellers_pkey  |           245760
 2017-02-05 18:41:22.804755+01 | 1486316482.80475 | pgbench_accounts_pkey |       2246197248

 2017-02-05 18:41:23.880293+01 | 1486316483.88029 | pgbench_branches_pkey |            40960
 2017-02-05 18:41:23.880293+01 | 1486316483.88029 | pgbench_tellers_pkey  |           245760
 2017-02-05 18:41:23.880293+01 | 1486316483.88029 | pgbench_accounts_pkey |       2246197248

 2017-02-05 18:41:24.958051+01 | 1486316484.95805 | pgbench_branches_pkey |            40960
 2017-02-05 18:41:24.958051+01 | 1486316484.95805 | pgbench_tellers_pkey  |           245760
 2017-02-05 18:41:24.958051+01 | 1486316484.95805 | pgbench_accounts_pkey |       2246197248

 2017-02-05 18:41:26.034725+01 | 1486316486.03472 | pgbench_branches_pkey |            40960
 2017-02-05 18:41:26.034725+01 | 1486316486.03472 | pgbench_tellers_pkey  |           245760
 2017-02-05 18:41:26.034725+01 | 1486316486.03472 | pgbench_accounts_pkey |       2246197248

 2017-02-05 18:41:27.108311+01 | 1486316487.10831 | pgbench_branches_pkey |            40960
 2017-02-05 18:41:27.108311+01 | 1486316487.10831 | pgbench_tellers_pkey  |           245760
 2017-02-05 18:41:27.108311+01 | 1486316487.10831 | pgbench_accounts_pkey |       2246197248

 2017-02-05 18:41:28.181371+01 | 1486316488.18137 | pgbench_branches_pkey |            40960
 2017-02-05 18:41:28.181371+01 | 1486316488.18137 | pgbench_tellers_pkey  |           245760
 2017-02-05 18:41:28.181371+01 | 1486316488.18137 | pgbench_accounts_pkey |       2246197248

 2017-02-05 18:41:29.263579+01 | 1486316489.26358 | pgbench_branches_pkey |            40960
 2017-02-05 18:41:29.263579+01 | 1486316489.26358 | pgbench_tellers_pkey  |           245760
 2017-02-05 18:41:29.263579+01 | 1486316489.26358 | pgbench_accounts_pkey |       2246197248

 2017-02-05 18:41:30.337874+01 | 1486316490.33787 | pgbench_branches_pkey |            40960
 2017-02-05 18:41:30.337874+01 | 1486316490.33787 | pgbench_tellers_pkey  |           245760
 2017-02-05 18:41:30.337874+01 | 1486316490.33787 | pgbench_accounts_pkey |       2246197248

 2017-02-05 18:41:31.415298+01 | 1486316491.4153 | pgbench_branches_pkey |            40960
 2017-02-05 18:41:31.415298+01 | 1486316491.4153 | pgbench_tellers_pkey  |           245760
 2017-02-05 18:41:31.415298+01 | 1486316491.4153 | pgbench_accounts_pkey |       2246197248

 2017-02-05 18:41:32.493344+01 | 1486316492.49334 | pgbench_branches_pkey |            40960
 2017-02-05 18:41:32.493344+01 | 1486316492.49334 | pgbench_tellers_pkey  |           245760
 2017-02-05 18:41:32.493344+01 | 1486316492.49334 | pgbench_accounts_pkey |       2246197248

 2017-02-05 18:41:33.572439+01 | 1486316493.57244 | pgbench_branches_pkey |            40960
 2017-02-05 18:41:33.572439+01 | 1486316493.57244 | pgbench_tellers_pkey  |           245760
 2017-02-05 18:41:33.572439+01 | 1486316493.57244 | pgbench_accounts_pkey |       2246197248

 2017-02-05 18:41:34.651483+01 | 1486316494.65148 | pgbench_branches_pkey |            40960
 2017-02-05 18:41:34.651483+01 | 1486316494.65148 | pgbench_tellers_pkey  |           245760
 2017-02-05 18:41:34.651483+01 | 1486316494.65148 | pgbench_accounts_pkey |       2246197248

 2017-02-05 18:41:35.72873+01 | 1486316495.72873 | pgbench_branches_pkey |            40960
 2017-02-05 18:41:35.72873+01 | 1486316495.72873 | pgbench_tellers_pkey  |           245760
 2017-02-05 18:41:35.72873+01 | 1486316495.72873 | pgbench_accounts_pkey |       2246197248

 2017-02-05 18:41:36.808695+01 | 1486316496.8087 | pgbench_branches_pkey |            40960
 2017-02-05 18:41:36.808695+01 | 1486316496.8087 | pgbench_tellers_pkey  |           245760
 2017-02-05 18:41:36.808695+01 | 1486316496.8087 | pgbench_accounts_pkey |       2246197248

 2017-02-05 18:41:37.88543+01 | 1486316497.88543 | pgbench_branches_pkey |            40960
 2017-02-05 18:41:37.88543+01 | 1486316497.88543 | pgbench_tellers_pkey  |           245760
 2017-02-05 18:41:37.88543+01 | 1486316497.88543 | pgbench_accounts_pkey |       2246197248

 2017-02-05 18:41:38.958715+01 | 1486316498.95871 | pgbench_branches_pkey |            40960
 2017-02-05 18:41:38.958715+01 | 1486316498.95871 | pgbench_tellers_pkey  |           245760
 2017-02-05 18:41:38.958715+01 | 1486316498.95871 | pgbench_accounts_pkey |       2246197248

 2017-02-05 18:41:40.04214+01 | 1486316500.04214 | pgbench_branches_pkey |            40960
 2017-02-05 18:41:40.04214+01 | 1486316500.04214 | pgbench_tellers_pkey  |           245760
 2017-02-05 18:41:40.04214+01 | 1486316500.04214 | pgbench_accounts_pkey |       2246197248

 2017-02-05 18:41:41.113718+01 | 1486316501.11372 | pgbench_branches_pkey |            40960
 2017-02-05 18:41:41.113718+01 | 1486316501.11372 | pgbench_tellers_pkey  |           245760
 2017-02-05 18:41:41.113718+01 | 1486316501.11372 | pgbench_accounts_pkey |       2246197248

 2017-02-05 18:41:42.190797+01 | 1486316502.1908 | pgbench_branches_pkey |            40960
 2017-02-05 18:41:42.190797+01 | 1486316502.1908 | pgbench_tellers_pkey  |           245760
 2017-02-05 18:41:42.190797+01 | 1486316502.1908 | pgbench_accounts_pkey |       2246197248

 2017-02-05 18:41:43.262592+01 | 1486316503.26259 | pgbench_branches_pkey |            40960
 2017-02-05 18:41:43.262592+01 | 1486316503.26259 | pgbench_tellers_pkey  |           245760
 2017-02-05 18:41:43.262592+01 | 1486316503.26259 | pgbench_accounts_pkey |       2246197248

 2017-02-05 18:41:44.340937+01 | 1486316504.34094 | pgbench_branches_pkey |            40960
 2017-02-05 18:41:44.340937+01 | 1486316504.34094 | pgbench_tellers_pkey  |           245760
 2017-02-05 18:41:44.340937+01 | 1486316504.34094 | pgbench_accounts_pkey |       2246197248

 2017-02-05 18:41:45.414215+01 | 1486316505.41422 | pgbench_branches_pkey |            40960
 2017-02-05 18:41:45.414215+01 | 1486316505.41422 | pgbench_tellers_pkey  |           245760
 2017-02-05 18:41:45.414215+01 | 1486316505.41422 | pgbench_accounts_pkey |       2246197248

 2017-02-05 18:41:46.488012+01 | 1486316506.48801 | pgbench_branches_pkey |            40960
 2017-02-05 18:41:46.488012+01 | 1486316506.48801 | pgbench_tellers_pkey  |           245760
 2017-02-05 18:41:46.488012+01 | 1486316506.48801 | pgbench_accounts_pkey |       2246197248

 2017-02-05 18:41:47.561629+01 | 1486316507.56163 | pgbench_branches_pkey |            40960
 2017-02-05 18:41:47.561629+01 | 1486316507.56163 | pgbench_tellers_pkey  |           245760
 2017-02-05 18:41:47.561629+01 | 1486316507.56163 | pgbench_accounts_pkey |       2246197248

 2017-02-05 18:41:48.634048+01 | 1486316508.63405 | pgbench_branches_pkey |            40960
 2017-02-05 18:41:48.634048+01 | 1486316508.63405 | pgbench_tellers_pkey  |           245760
 2017-02-05 18:41:48.634048+01 | 1486316508.63405 | pgbench_accounts_pkey |       2246197248

 2017-02-05 18:41:49.71184+01 | 1486316509.71184 | pgbench_branches_pkey |            40960
 2017-02-05 18:41:49.71184+01 | 1486316509.71184 | pgbench_tellers_pkey  |           245760
 2017-02-05 18:41:49.71184+01 | 1486316509.71184 | pgbench_accounts_pkey |       2246197248

 2017-02-05 18:41:50.794488+01 | 1486316510.79449 | pgbench_branches_pkey |            40960
 2017-02-05 18:41:50.794488+01 | 1486316510.79449 | pgbench_tellers_pkey  |           245760
 2017-02-05 18:41:50.794488+01 | 1486316510.79449 | pgbench_accounts_pkey |       2246197248

 2017-02-05 18:41:51.876848+01 | 1486316511.87685 | pgbench_branches_pkey |            40960
 2017-02-05 18:41:51.876848+01 | 1486316511.87685 | pgbench_tellers_pkey  |           245760
 2017-02-05 18:41:51.876848+01 | 1486316511.87685 | pgbench_accounts_pkey |       2246197248

 2017-02-05 18:41:52.952514+01 | 1486316512.95251 | pgbench_branches_pkey |            40960
 2017-02-05 18:41:52.952514+01 | 1486316512.95251 | pgbench_tellers_pkey  |           245760
 2017-02-05 18:41:52.952514+01 | 1486316512.95251 | pgbench_accounts_pkey |       2246197248

 2017-02-05 18:41:54.028749+01 | 1486316514.02875 | pgbench_branches_pkey |            40960
 2017-02-05 18:41:54.028749+01 | 1486316514.02875 | pgbench_tellers_pkey  |           245760
 2017-02-05 18:41:54.028749+01 | 1486316514.02875 | pgbench_accounts_pkey |       2246197248

 2017-02-05 18:41:55.105737+01 | 1486316515.10574 | pgbench_branches_pkey |            40960
 2017-02-05 18:41:55.105737+01 | 1486316515.10574 | pgbench_tellers_pkey  |           245760
 2017-02-05 18:41:55.105737+01 | 1486316515.10574 | pgbench_accounts_pkey |       2246197248

 2017-02-05 18:41:56.177957+01 | 1486316516.17796 | pgbench_branches_pkey |            40960
 2017-02-05 18:41:56.177957+01 | 1486316516.17796 | pgbench_tellers_pkey  |           245760
 2017-02-05 18:41:56.177957+01 | 1486316516.17796 | pgbench_accounts_pkey |       2246197248

 2017-02-05 18:41:57.249431+01 | 1486316517.24943 | pgbench_branches_pkey |            40960
 2017-02-05 18:41:57.249431+01 | 1486316517.24943 | pgbench_tellers_pkey  |           245760
 2017-02-05 18:41:57.249431+01 | 1486316517.24943 | pgbench_accounts_pkey |       2246197248

 2017-02-05 18:41:58.32514+01 | 1486316518.32514 | pgbench_branches_pkey |            40960
 2017-02-05 18:41:58.32514+01 | 1486316518.32514 | pgbench_tellers_pkey  |           245760
 2017-02-05 18:41:58.32514+01 | 1486316518.32514 | pgbench_accounts_pkey |       2246197248

 2017-02-05 18:41:59.404429+01 | 1486316519.40443 | pgbench_branches_pkey |            40960
 2017-02-05 18:41:59.404429+01 | 1486316519.40443 | pgbench_tellers_pkey  |           245760
 2017-02-05 18:41:59.404429+01 | 1486316519.40443 | pgbench_accounts_pkey |       2246197248

 2017-02-05 18:42:00.488992+01 | 1486316520.48899 | pgbench_branches_pkey |            40960
 2017-02-05 18:42:00.488992+01 | 1486316520.48899 | pgbench_tellers_pkey  |           245760
 2017-02-05 18:42:00.488992+01 | 1486316520.48899 | pgbench_accounts_pkey |       2246197248

 2017-02-05 18:42:01.56433+01 | 1486316521.56433 | pgbench_branches_pkey |            40960
 2017-02-05 18:42:01.56433+01 | 1486316521.56433 | pgbench_tellers_pkey  |           245760
 2017-02-05 18:42:01.56433+01 | 1486316521.56433 | pgbench_accounts_pkey |       2246197248

 2017-02-05 18:42:02.646116+01 | 1486316522.64612 | pgbench_branches_pkey |            40960
 2017-02-05 18:42:02.646116+01 | 1486316522.64612 | pgbench_tellers_pkey  |           245760
 2017-02-05 18:42:02.646116+01 | 1486316522.64612 | pgbench_accounts_pkey |       2246197248

 2017-02-05 18:42:03.727538+01 | 1486316523.72754 | pgbench_branches_pkey |            40960
 2017-02-05 18:42:03.727538+01 | 1486316523.72754 | pgbench_tellers_pkey  |           245760
 2017-02-05 18:42:03.727538+01 | 1486316523.72754 | pgbench_accounts_pkey |       2246197248

 2017-02-05 18:42:04.803877+01 | 1486316524.80388 | pgbench_branches_pkey |            40960
 2017-02-05 18:42:04.803877+01 | 1486316524.80388 | pgbench_tellers_pkey  |           245760
 2017-02-05 18:42:04.803877+01 | 1486316524.80388 | pgbench_accounts_pkey |       2246197248

 2017-02-05 18:42:05.880317+01 | 1486316525.88032 | pgbench_branches_pkey |            40960
 2017-02-05 18:42:05.880317+01 | 1486316525.88032 | pgbench_tellers_pkey  |           245760
 2017-02-05 18:42:05.880317+01 | 1486316525.88032 | pgbench_accounts_pkey |       2246197248

 2017-02-05 18:42:06.954178+01 | 1486316526.95418 | pgbench_branches_pkey |            40960
 2017-02-05 18:42:06.954178+01 | 1486316526.95418 | pgbench_tellers_pkey  |           245760
 2017-02-05 18:42:06.954178+01 | 1486316526.95418 | pgbench_accounts_pkey |       2246197248

 2017-02-05 18:42:08.023081+01 | 1486316528.02308 | pgbench_branches_pkey |            40960
 2017-02-05 18:42:08.023081+01 | 1486316528.02308 | pgbench_tellers_pkey  |           245760
 2017-02-05 18:42:08.023081+01 | 1486316528.02308 | pgbench_accounts_pkey |       2246197248

 2017-02-05 18:42:09.100613+01 | 1486316529.10061 | pgbench_branches_pkey |            40960
 2017-02-05 18:42:09.100613+01 | 1486316529.10061 | pgbench_tellers_pkey  |           245760
 2017-02-05 18:42:09.100613+01 | 1486316529.10061 | pgbench_accounts_pkey |       2246197248

 2017-02-05 18:42:10.175662+01 | 1486316530.17566 | pgbench_branches_pkey |            40960
 2017-02-05 18:42:10.175662+01 | 1486316530.17566 | pgbench_tellers_pkey  |           245760
 2017-02-05 18:42:10.175662+01 | 1486316530.17566 | pgbench_accounts_pkey |       2246197248

 2017-02-05 18:42:11.251619+01 | 1486316531.25162 | pgbench_branches_pkey |            40960
 2017-02-05 18:42:11.251619+01 | 1486316531.25162 | pgbench_tellers_pkey  |           245760
 2017-02-05 18:42:11.251619+01 | 1486316531.25162 | pgbench_accounts_pkey |       2246197248

 2017-02-05 18:42:12.328287+01 | 1486316532.32829 | pgbench_branches_pkey |            40960
 2017-02-05 18:42:12.328287+01 | 1486316532.32829 | pgbench_tellers_pkey  |           245760
 2017-02-05 18:42:12.328287+01 | 1486316532.32829 | pgbench_accounts_pkey |       2246197248

 2017-02-05 18:42:13.410449+01 | 1486316533.41045 | pgbench_branches_pkey |            40960
 2017-02-05 18:42:13.410449+01 | 1486316533.41045 | pgbench_tellers_pkey  |           245760
 2017-02-05 18:42:13.410449+01 | 1486316533.41045 | pgbench_accounts_pkey |       2246197248

 2017-02-05 18:42:14.48493+01 | 1486316534.48493 | pgbench_branches_pkey |            40960
 2017-02-05 18:42:14.48493+01 | 1486316534.48493 | pgbench_tellers_pkey  |           245760
 2017-02-05 18:42:14.48493+01 | 1486316534.48493 | pgbench_accounts_pkey |       2246197248

 2017-02-05 18:42:15.563925+01 | 1486316535.56393 | pgbench_branches_pkey |            40960
 2017-02-05 18:42:15.563925+01 | 1486316535.56393 | pgbench_tellers_pkey  |           245760
 2017-02-05 18:42:15.563925+01 | 1486316535.56393 | pgbench_accounts_pkey |       2246197248

 2017-02-05 18:42:16.642542+01 | 1486316536.64254 | pgbench_branches_pkey |            40960
 2017-02-05 18:42:16.642542+01 | 1486316536.64254 | pgbench_tellers_pkey  |           245760
 2017-02-05 18:42:16.642542+01 | 1486316536.64254 | pgbench_accounts_pkey |       2246197248

 2017-02-05 18:42:17.720444+01 | 1486316537.72044 | pgbench_branches_pkey |            40960
 2017-02-05 18:42:17.720444+01 | 1486316537.72044 | pgbench_tellers_pkey  |           245760
 2017-02-05 18:42:17.720444+01 | 1486316537.72044 | pgbench_accounts_pkey |       2246197248

 2017-02-05 18:42:18.799998+01 | 1486316538.8 | pgbench_branches_pkey |            40960
 2017-02-05 18:42:18.799998+01 | 1486316538.8 | pgbench_tellers_pkey  |           245760
 2017-02-05 18:42:18.799998+01 | 1486316538.8 | pgbench_accounts_pkey |       2246197248

 2017-02-05 18:42:19.870007+01 | 1486316539.87001 | pgbench_branches_pkey |            40960
 2017-02-05 18:42:19.870007+01 | 1486316539.87001 | pgbench_tellers_pkey  |           245760
 2017-02-05 18:42:19.870007+01 | 1486316539.87001 | pgbench_accounts_pkey |       2246197248

 2017-02-05 18:42:20.947396+01 | 1486316540.9474 | pgbench_branches_pkey |            40960
 2017-02-05 18:42:20.947396+01 | 1486316540.9474 | pgbench_tellers_pkey  |           245760
 2017-02-05 18:42:20.947396+01 | 1486316540.9474 | pgbench_accounts_pkey |       2246197248

 2017-02-05 18:42:22.022659+01 | 1486316542.02266 | pgbench_branches_pkey |            40960
 2017-02-05 18:42:22.022659+01 | 1486316542.02266 | pgbench_tellers_pkey  |           245760
 2017-02-05 18:42:22.022659+01 | 1486316542.02266 | pgbench_accounts_pkey |       2246197248

 2017-02-05 18:42:23.09812+01 | 1486316543.09812 | pgbench_branches_pkey |            40960
 2017-02-05 18:42:23.09812+01 | 1486316543.09812 | pgbench_tellers_pkey  |           245760
 2017-02-05 18:42:23.09812+01 | 1486316543.09812 | pgbench_accounts_pkey |       2246197248

 2017-02-05 18:42:24.160569+01 | 1486316544.16057 | pgbench_branches_pkey |            40960
 2017-02-05 18:42:24.160569+01 | 1486316544.16057 | pgbench_tellers_pkey  |           245760
 2017-02-05 18:42:24.160569+01 | 1486316544.16057 | pgbench_accounts_pkey |       2246197248

 2017-02-05 18:42:25.238451+01 | 1486316545.23845 | pgbench_branches_pkey |            40960
 2017-02-05 18:42:25.238451+01 | 1486316545.23845 | pgbench_tellers_pkey  |           245760
 2017-02-05 18:42:25.238451+01 | 1486316545.23845 | pgbench_accounts_pkey |       2246197248

 2017-02-05 18:42:26.318555+01 | 1486316546.31856 | pgbench_branches_pkey |            40960
 2017-02-05 18:42:26.318555+01 | 1486316546.31856 | pgbench_tellers_pkey  |           245760
 2017-02-05 18:42:26.318555+01 | 1486316546.31856 | pgbench_accounts_pkey |       2246197248

 2017-02-05 18:42:27.397966+01 | 1486316547.39797 | pgbench_branches_pkey |            40960
 2017-02-05 18:42:27.397966+01 | 1486316547.39797 | pgbench_tellers_pkey  |           245760
 2017-02-05 18:42:27.397966+01 | 1486316547.39797 | pgbench_accounts_pkey |       2246197248

 2017-02-05 18:42:28.471199+01 | 1486316548.4712 | pgbench_branches_pkey |            40960
 2017-02-05 18:42:28.471199+01 | 1486316548.4712 | pgbench_tellers_pkey  |           245760
 2017-02-05 18:42:28.471199+01 | 1486316548.4712 | pgbench_accounts_pkey |       2246197248

 2017-02-05 18:42:29.551607+01 | 1486316549.55161 | pgbench_branches_pkey |            40960
 2017-02-05 18:42:29.551607+01 | 1486316549.55161 | pgbench_tellers_pkey  |           245760
 2017-02-05 18:42:29.551607+01 | 1486316549.55161 | pgbench_accounts_pkey |       2246197248

 2017-02-05 18:42:30.633493+01 | 1486316550.63349 | pgbench_branches_pkey |            40960
 2017-02-05 18:42:30.633493+01 | 1486316550.63349 | pgbench_tellers_pkey  |           245760
 2017-02-05 18:42:30.633493+01 | 1486316550.63349 | pgbench_accounts_pkey |       2246197248

 2017-02-05 18:42:31.709878+01 | 1486316551.70988 | pgbench_branches_pkey |            40960
 2017-02-05 18:42:31.709878+01 | 1486316551.70988 | pgbench_tellers_pkey  |           245760
 2017-02-05 18:42:31.709878+01 | 1486316551.70988 | pgbench_accounts_pkey |       2246197248

 2017-02-05 18:42:32.786645+01 | 1486316552.78664 | pgbench_branches_pkey |            40960
 2017-02-05 18:42:32.786645+01 | 1486316552.78664 | pgbench_tellers_pkey  |           245760
 2017-02-05 18:42:32.786645+01 | 1486316552.78664 | pgbench_accounts_pkey |       2246197248

 2017-02-05 18:42:33.864777+01 | 1486316553.86478 | pgbench_branches_pkey |            40960
 2017-02-05 18:42:33.864777+01 | 1486316553.86478 | pgbench_tellers_pkey  |           245760
 2017-02-05 18:42:33.864777+01 | 1486316553.86478 | pgbench_accounts_pkey |       2246197248

 2017-02-05 18:42:34.938973+01 | 1486316554.93897 | pgbench_branches_pkey |            40960
 2017-02-05 18:42:34.938973+01 | 1486316554.93897 | pgbench_tellers_pkey  |           245760
 2017-02-05 18:42:34.938973+01 | 1486316554.93897 | pgbench_accounts_pkey |       2246197248

 2017-02-05 18:42:36.013149+01 | 1486316556.01315 | pgbench_branches_pkey |            40960
 2017-02-05 18:42:36.013149+01 | 1486316556.01315 | pgbench_tellers_pkey  |           245760
 2017-02-05 18:42:36.013149+01 | 1486316556.01315 | pgbench_accounts_pkey |       2246197248

 2017-02-05 18:42:37.098428+01 | 1486316557.09843 | pgbench_branches_pkey |            40960
 2017-02-05 18:42:37.098428+01 | 1486316557.09843 | pgbench_tellers_pkey  |           245760
 2017-02-05 18:42:37.098428+01 | 1486316557.09843 | pgbench_accounts_pkey |       2246197248

 2017-02-05 18:42:38.175456+01 | 1486316558.17546 | pgbench_branches_pkey |            40960
 2017-02-05 18:42:38.175456+01 | 1486316558.17546 | pgbench_tellers_pkey  |           245760
 2017-02-05 18:42:38.175456+01 | 1486316558.17546 | pgbench_accounts_pkey |       2246197248

 2017-02-05 18:42:39.250749+01 | 1486316559.25075 | pgbench_branches_pkey |            40960
 2017-02-05 18:42:39.250749+01 | 1486316559.25075 | pgbench_tellers_pkey  |           245760
 2017-02-05 18:42:39.250749+01 | 1486316559.25075 | pgbench_accounts_pkey |       2246197248

 2017-02-05 18:42:40.327519+01 | 1486316560.32752 | pgbench_branches_pkey |            40960
 2017-02-05 18:42:40.327519+01 | 1486316560.32752 | pgbench_tellers_pkey  |           245760
 2017-02-05 18:42:40.327519+01 | 1486316560.32752 | pgbench_accounts_pkey |       2246197248

 2017-02-05 18:42:41.403423+01 | 1486316561.40342 | pgbench_branches_pkey |            40960
 2017-02-05 18:42:41.403423+01 | 1486316561.40342 | pgbench_tellers_pkey  |           245760
 2017-02-05 18:42:41.403423+01 | 1486316561.40342 | pgbench_accounts_pkey |       2246197248

 2017-02-05 18:42:42.478517+01 | 1486316562.47852 | pgbench_branches_pkey |            40960
 2017-02-05 18:42:42.478517+01 | 1486316562.47852 | pgbench_tellers_pkey  |           245760
 2017-02-05 18:42:42.478517+01 | 1486316562.47852 | pgbench_accounts_pkey |       2246197248

 2017-02-05 18:42:43.558597+01 | 1486316563.5586 | pgbench_branches_pkey |            40960
 2017-02-05 18:42:43.558597+01 | 1486316563.5586 | pgbench_tellers_pkey  |           245760
 2017-02-05 18:42:43.558597+01 | 1486316563.5586 | pgbench_accounts_pkey |       2246197248

 2017-02-05 18:42:44.631155+01 | 1486316564.63116 | pgbench_branches_pkey |            40960
 2017-02-05 18:42:44.631155+01 | 1486316564.63116 | pgbench_tellers_pkey  |           245760
 2017-02-05 18:42:44.631155+01 | 1486316564.63116 | pgbench_accounts_pkey |       2246197248

 2017-02-05 18:42:45.707802+01 | 1486316565.7078 | pgbench_branches_pkey |            40960
 2017-02-05 18:42:45.707802+01 | 1486316565.7078 | pgbench_tellers_pkey  |           245760
 2017-02-05 18:42:45.707802+01 | 1486316565.7078 | pgbench_accounts_pkey |       2246197248

 2017-02-05 18:42:46.782144+01 | 1486316566.78214 | pgbench_branches_pkey |            40960
 2017-02-05 18:42:46.782144+01 | 1486316566.78214 | pgbench_tellers_pkey  |           245760
 2017-02-05 18:42:46.782144+01 | 1486316566.78214 | pgbench_accounts_pkey |       2246197248

 2017-02-05 18:42:47.858889+01 | 1486316567.85889 | pgbench_branches_pkey |            40960
 2017-02-05 18:42:47.858889+01 | 1486316567.85889 | pgbench_tellers_pkey  |           245760
 2017-02-05 18:42:47.858889+01 | 1486316567.85889 | pgbench_accounts_pkey |       2246197248

 2017-02-05 18:42:48.938933+01 | 1486316568.93893 | pgbench_branches_pkey |            40960
 2017-02-05 18:42:48.938933+01 | 1486316568.93893 | pgbench_tellers_pkey  |           245760
 2017-02-05 18:42:48.938933+01 | 1486316568.93893 | pgbench_accounts_pkey |       2246197248

 2017-02-05 18:42:50.014478+01 | 1486316570.01448 | pgbench_branches_pkey |            40960
 2017-02-05 18:42:50.014478+01 | 1486316570.01448 | pgbench_tellers_pkey  |           245760
 2017-02-05 18:42:50.014478+01 | 1486316570.01448 | pgbench_accounts_pkey |       2246197248

 2017-02-05 18:42:51.091214+01 | 1486316571.09121 | pgbench_branches_pkey |            40960
 2017-02-05 18:42:51.091214+01 | 1486316571.09121 | pgbench_tellers_pkey  |           245760
 2017-02-05 18:42:51.091214+01 | 1486316571.09121 | pgbench_accounts_pkey |       2246197248

 2017-02-05 18:42:52.175658+01 | 1486316572.17566 | pgbench_branches_pkey |            40960
 2017-02-05 18:42:52.175658+01 | 1486316572.17566 | pgbench_tellers_pkey  |           245760
 2017-02-05 18:42:52.175658+01 | 1486316572.17566 | pgbench_accounts_pkey |       2246197248

 2017-02-05 18:42:53.265209+01 | 1486316573.26521 | pgbench_branches_pkey |            40960
 2017-02-05 18:42:53.265209+01 | 1486316573.26521 | pgbench_tellers_pkey  |           245760
 2017-02-05 18:42:53.265209+01 | 1486316573.26521 | pgbench_accounts_pkey |       2246197248

 2017-02-05 18:42:54.341305+01 | 1486316574.34131 | pgbench_branches_pkey |            40960
 2017-02-05 18:42:54.341305+01 | 1486316574.34131 | pgbench_tellers_pkey  |           245760
 2017-02-05 18:42:54.341305+01 | 1486316574.34131 | pgbench_accounts_pkey |       2246197248

 2017-02-05 18:42:55.415988+01 | 1486316575.41599 | pgbench_branches_pkey |            40960
 2017-02-05 18:42:55.415988+01 | 1486316575.41599 | pgbench_tellers_pkey  |           245760
 2017-02-05 18:42:55.415988+01 | 1486316575.41599 | pgbench_accounts_pkey |       2246197248

 2017-02-05 18:42:56.494411+01 | 1486316576.49441 | pgbench_branches_pkey |            40960
 2017-02-05 18:42:56.494411+01 | 1486316576.49441 | pgbench_tellers_pkey  |           245760
 2017-02-05 18:42:56.494411+01 | 1486316576.49441 | pgbench_accounts_pkey |       2246197248

 2017-02-05 18:42:57.572886+01 | 1486316577.57289 | pgbench_branches_pkey |            40960
 2017-02-05 18:42:57.572886+01 | 1486316577.57289 | pgbench_tellers_pkey  |           245760
 2017-02-05 18:42:57.572886+01 | 1486316577.57289 | pgbench_accounts_pkey |       2246197248

 2017-02-05 18:42:58.648029+01 | 1486316578.64803 | pgbench_branches_pkey |            40960
 2017-02-05 18:42:58.648029+01 | 1486316578.64803 | pgbench_tellers_pkey  |           245760
 2017-02-05 18:42:58.648029+01 | 1486316578.64803 | pgbench_accounts_pkey |       2246197248

 2017-02-05 18:42:59.72538+01 | 1486316579.72538 | pgbench_branches_pkey |            40960
 2017-02-05 18:42:59.72538+01 | 1486316579.72538 | pgbench_tellers_pkey  |           245760
 2017-02-05 18:42:59.72538+01 | 1486316579.72538 | pgbench_accounts_pkey |       2246197248

 2017-02-05 18:43:00.800626+01 | 1486316580.80063 | pgbench_branches_pkey |            40960
 2017-02-05 18:43:00.800626+01 | 1486316580.80063 | pgbench_tellers_pkey  |           245760
 2017-02-05 18:43:00.800626+01 | 1486316580.80063 | pgbench_accounts_pkey |       2246197248

 2017-02-05 18:43:01.875608+01 | 1486316581.87561 | pgbench_branches_pkey |            40960
 2017-02-05 18:43:01.875608+01 | 1486316581.87561 | pgbench_tellers_pkey  |           245760
 2017-02-05 18:43:01.875608+01 | 1486316581.87561 | pgbench_accounts_pkey |       2246197248

 2017-02-05 18:43:02.949984+01 | 1486316582.94998 | pgbench_branches_pkey |            40960
 2017-02-05 18:43:02.949984+01 | 1486316582.94998 | pgbench_tellers_pkey  |           245760
 2017-02-05 18:43:02.949984+01 | 1486316582.94998 | pgbench_accounts_pkey |       2246197248

 2017-02-05 18:43:04.021193+01 | 1486316584.02119 | pgbench_branches_pkey |            40960
 2017-02-05 18:43:04.021193+01 | 1486316584.02119 | pgbench_tellers_pkey  |           245760
 2017-02-05 18:43:04.021193+01 | 1486316584.02119 | pgbench_accounts_pkey |       2246197248

 2017-02-05 18:43:05.099276+01 | 1486316585.09928 | pgbench_branches_pkey |            40960
 2017-02-05 18:43:05.099276+01 | 1486316585.09928 | pgbench_tellers_pkey  |           245760
 2017-02-05 18:43:05.099276+01 | 1486316585.09928 | pgbench_accounts_pkey |       2246197248

 2017-02-05 18:43:06.172726+01 | 1486316586.17273 | pgbench_branches_pkey |            40960
 2017-02-05 18:43:06.172726+01 | 1486316586.17273 | pgbench_tellers_pkey  |           245760
 2017-02-05 18:43:06.172726+01 | 1486316586.17273 | pgbench_accounts_pkey |       2246197248

 2017-02-05 18:43:07.250815+01 | 1486316587.25081 | pgbench_branches_pkey |            40960
 2017-02-05 18:43:07.250815+01 | 1486316587.25081 | pgbench_tellers_pkey  |           245760
 2017-02-05 18:43:07.250815+01 | 1486316587.25081 | pgbench_accounts_pkey |       2246197248

 2017-02-05 18:43:08.324412+01 | 1486316588.32441 | pgbench_branches_pkey |            40960
 2017-02-05 18:43:08.324412+01 | 1486316588.32441 | pgbench_tellers_pkey  |           245760
 2017-02-05 18:43:08.324412+01 | 1486316588.32441 | pgbench_accounts_pkey |       2246197248

 2017-02-05 18:43:09.409304+01 | 1486316589.4093 | pgbench_branches_pkey |            40960
 2017-02-05 18:43:09.409304+01 | 1486316589.4093 | pgbench_tellers_pkey  |           245760
 2017-02-05 18:43:09.409304+01 | 1486316589.4093 | pgbench_accounts_pkey |       2246197248

 2017-02-05 18:43:10.490598+01 | 1486316590.4906 | pgbench_branches_pkey |            40960
 2017-02-05 18:43:10.490598+01 | 1486316590.4906 | pgbench_tellers_pkey  |           245760
 2017-02-05 18:43:10.490598+01 | 1486316590.4906 | pgbench_accounts_pkey |       2246197248

 2017-02-05 18:43:11.567338+01 | 1486316591.56734 | pgbench_branches_pkey |            40960
 2017-02-05 18:43:11.567338+01 | 1486316591.56734 | pgbench_tellers_pkey  |           245760
 2017-02-05 18:43:11.567338+01 | 1486316591.56734 | pgbench_accounts_pkey |       2246197248

 2017-02-05 18:43:12.640967+01 | 1486316592.64097 | pgbench_branches_pkey |            40960
 2017-02-05 18:43:12.640967+01 | 1486316592.64097 | pgbench_tellers_pkey  |           245760
 2017-02-05 18:43:12.640967+01 | 1486316592.64097 | pgbench_accounts_pkey |       2246197248

 2017-02-05 18:43:13.719719+01 | 1486316593.71972 | pgbench_branches_pkey |            40960
 2017-02-05 18:43:13.719719+01 | 1486316593.71972 | pgbench_tellers_pkey  |           245760
 2017-02-05 18:43:13.719719+01 | 1486316593.71972 | pgbench_accounts_pkey |       2246197248

 2017-02-05 18:43:14.802283+01 | 1486316594.80228 | pgbench_branches_pkey |            40960
 2017-02-05 18:43:14.802283+01 | 1486316594.80228 | pgbench_tellers_pkey  |           245760
 2017-02-05 18:43:14.802283+01 | 1486316594.80228 | pgbench_accounts_pkey |       2246197248

 2017-02-05 18:43:15.885749+01 | 1486316595.88575 | pgbench_branches_pkey |            40960
 2017-02-05 18:43:15.885749+01 | 1486316595.88575 | pgbench_tellers_pkey  |           245760
 2017-02-05 18:43:15.885749+01 | 1486316595.88575 | pgbench_accounts_pkey |       2246197248

 2017-02-05 18:43:16.961177+01 | 1486316596.96118 | pgbench_branches_pkey |            40960
 2017-02-05 18:43:16.961177+01 | 1486316596.96118 | pgbench_tellers_pkey  |           245760
 2017-02-05 18:43:16.961177+01 | 1486316596.96118 | pgbench_accounts_pkey |       2246197248

 2017-02-05 18:43:18.048779+01 | 1486316598.04878 | pgbench_branches_pkey |            40960
 2017-02-05 18:43:18.048779+01 | 1486316598.04878 | pgbench_tellers_pkey  |           245760
 2017-02-05 18:43:18.048779+01 | 1486316598.04878 | pgbench_accounts_pkey |       2246197248

 2017-02-05 18:43:19.13529+01 | 1486316599.13529 | pgbench_branches_pkey |            40960
 2017-02-05 18:43:19.13529+01 | 1486316599.13529 | pgbench_tellers_pkey  |           245760
 2017-02-05 18:43:19.13529+01 | 1486316599.13529 | pgbench_accounts_pkey |       2246197248

 2017-02-05 18:43:20.214568+01 | 1486316600.21457 | pgbench_branches_pkey |            40960
 2017-02-05 18:43:20.214568+01 | 1486316600.21457 | pgbench_tellers_pkey  |           245760
 2017-02-05 18:43:20.214568+01 | 1486316600.21457 | pgbench_accounts_pkey |       2246197248

 2017-02-05 18:43:21.288158+01 | 1486316601.28816 | pgbench_branches_pkey |            40960
 2017-02-05 18:43:21.288158+01 | 1486316601.28816 | pgbench_tellers_pkey  |           245760
 2017-02-05 18:43:21.288158+01 | 1486316601.28816 | pgbench_accounts_pkey |       2246197248

 2017-02-05 18:43:22.361692+01 | 1486316602.36169 | pgbench_branches_pkey |            40960
 2017-02-05 18:43:22.361692+01 | 1486316602.36169 | pgbench_tellers_pkey  |           245760
 2017-02-05 18:43:22.361692+01 | 1486316602.36169 | pgbench_accounts_pkey |       2246197248

 2017-02-05 18:43:23.438485+01 | 1486316603.43848 | pgbench_branches_pkey |            40960
 2017-02-05 18:43:23.438485+01 | 1486316603.43848 | pgbench_tellers_pkey  |           245760
 2017-02-05 18:43:23.438485+01 | 1486316603.43848 | pgbench_accounts_pkey |       2246197248

 2017-02-05 18:43:24.513058+01 | 1486316604.51306 | pgbench_branches_pkey |            40960
 2017-02-05 18:43:24.513058+01 | 1486316604.51306 | pgbench_tellers_pkey  |           245760
 2017-02-05 18:43:24.513058+01 | 1486316604.51306 | pgbench_accounts_pkey |       2246197248

 2017-02-05 18:43:25.589901+01 | 1486316605.5899 | pgbench_branches_pkey |            40960
 2017-02-05 18:43:25.589901+01 | 1486316605.5899 | pgbench_tellers_pkey  |           245760
 2017-02-05 18:43:25.589901+01 | 1486316605.5899 | pgbench_accounts_pkey |       2246197248

 2017-02-05 18:43:26.670431+01 | 1486316606.67043 | pgbench_branches_pkey |            40960
 2017-02-05 18:43:26.670431+01 | 1486316606.67043 | pgbench_tellers_pkey  |           245760
 2017-02-05 18:43:26.670431+01 | 1486316606.67043 | pgbench_accounts_pkey |       2246197248

 2017-02-05 18:43:27.749208+01 | 1486316607.74921 | pgbench_branches_pkey |            40960
 2017-02-05 18:43:27.749208+01 | 1486316607.74921 | pgbench_tellers_pkey  |           245760
 2017-02-05 18:43:27.749208+01 | 1486316607.74921 | pgbench_accounts_pkey |       2246197248

 2017-02-05 18:43:28.825511+01 | 1486316608.82551 | pgbench_branches_pkey |            40960
 2017-02-05 18:43:28.825511+01 | 1486316608.82551 | pgbench_tellers_pkey  |           245760
 2017-02-05 18:43:28.825511+01 | 1486316608.82551 | pgbench_accounts_pkey |       2246197248

 2017-02-05 18:43:29.902234+01 | 1486316609.90223 | pgbench_branches_pkey |            40960
 2017-02-05 18:43:29.902234+01 | 1486316609.90223 | pgbench_tellers_pkey  |           245760
 2017-02-05 18:43:29.902234+01 | 1486316609.90223 | pgbench_accounts_pkey |       2246197248

 2017-02-05 18:43:30.979437+01 | 1486316610.97944 | pgbench_branches_pkey |            40960
 2017-02-05 18:43:30.979437+01 | 1486316610.97944 | pgbench_tellers_pkey  |           245760
 2017-02-05 18:43:30.979437+01 | 1486316610.97944 | pgbench_accounts_pkey |       2246197248

 2017-02-05 18:43:32.0503+01 | 1486316612.0503 | pgbench_branches_pkey |            40960
 2017-02-05 18:43:32.0503+01 | 1486316612.0503 | pgbench_tellers_pkey  |           245760
 2017-02-05 18:43:32.0503+01 | 1486316612.0503 | pgbench_accounts_pkey |       2246197248

 2017-02-05 18:43:33.132321+01 | 1486316613.13232 | pgbench_branches_pkey |            40960
 2017-02-05 18:43:33.132321+01 | 1486316613.13232 | pgbench_tellers_pkey  |           245760
 2017-02-05 18:43:33.132321+01 | 1486316613.13232 | pgbench_accounts_pkey |       2246197248

 2017-02-05 18:43:34.204147+01 | 1486316614.20415 | pgbench_branches_pkey |            40960
 2017-02-05 18:43:34.204147+01 | 1486316614.20415 | pgbench_tellers_pkey  |           245760
 2017-02-05 18:43:34.204147+01 | 1486316614.20415 | pgbench_accounts_pkey |       2246197248

 2017-02-05 18:43:35.28107+01 | 1486316615.28107 | pgbench_branches_pkey |            40960
 2017-02-05 18:43:35.28107+01 | 1486316615.28107 | pgbench_tellers_pkey  |           245760
 2017-02-05 18:43:35.28107+01 | 1486316615.28107 | pgbench_accounts_pkey |       2246197248

 2017-02-05 18:43:36.354898+01 | 1486316616.3549 | pgbench_branches_pkey |            40960
 2017-02-05 18:43:36.354898+01 | 1486316616.3549 | pgbench_tellers_pkey  |           245760
 2017-02-05 18:43:36.354898+01 | 1486316616.3549 | pgbench_accounts_pkey |       2246197248

 2017-02-05 18:43:37.436155+01 | 1486316617.43616 | pgbench_branches_pkey |            40960
 2017-02-05 18:43:37.436155+01 | 1486316617.43616 | pgbench_tellers_pkey  |           245760
 2017-02-05 18:43:37.436155+01 | 1486316617.43616 | pgbench_accounts_pkey |       2246197248

 2017-02-05 18:43:38.506455+01 | 1486316618.50645 | pgbench_branches_pkey |            40960
 2017-02-05 18:43:38.506455+01 | 1486316618.50645 | pgbench_tellers_pkey  |           245760
 2017-02-05 18:43:38.506455+01 | 1486316618.50645 | pgbench_accounts_pkey |       2246197248

 2017-02-05 18:43:39.585296+01 | 1486316619.5853 | pgbench_branches_pkey |            40960
 2017-02-05 18:43:39.585296+01 | 1486316619.5853 | pgbench_tellers_pkey  |           245760
 2017-02-05 18:43:39.585296+01 | 1486316619.5853 | pgbench_accounts_pkey |       2246197248

 2017-02-05 18:43:40.658568+01 | 1486316620.65857 | pgbench_branches_pkey |            40960
 2017-02-05 18:43:40.658568+01 | 1486316620.65857 | pgbench_tellers_pkey  |           245760
 2017-02-05 18:43:40.658568+01 | 1486316620.65857 | pgbench_accounts_pkey |       2246197248

 2017-02-05 18:43:41.732309+01 | 1486316621.73231 | pgbench_branches_pkey |            40960
 2017-02-05 18:43:41.732309+01 | 1486316621.73231 | pgbench_tellers_pkey  |           245760
 2017-02-05 18:43:41.732309+01 | 1486316621.73231 | pgbench_accounts_pkey |       2246197248

 2017-02-05 18:43:42.807184+01 | 1486316622.80718 | pgbench_branches_pkey |            40960
 2017-02-05 18:43:42.807184+01 | 1486316622.80718 | pgbench_tellers_pkey  |           245760
 2017-02-05 18:43:42.807184+01 | 1486316622.80718 | pgbench_accounts_pkey |       2246197248

 2017-02-05 18:43:43.881552+01 | 1486316623.88155 | pgbench_branches_pkey |            40960
 2017-02-05 18:43:43.881552+01 | 1486316623.88155 | pgbench_tellers_pkey  |           245760
 2017-02-05 18:43:43.881552+01 | 1486316623.88155 | pgbench_accounts_pkey |       2246197248

 2017-02-05 18:43:44.956496+01 | 1486316624.9565 | pgbench_branches_pkey |            40960
 2017-02-05 18:43:44.956496+01 | 1486316624.9565 | pgbench_tellers_pkey  |           245760
 2017-02-05 18:43:44.956496+01 | 1486316624.9565 | pgbench_accounts_pkey |       2246197248

 2017-02-05 18:43:46.029788+01 | 1486316626.02979 | pgbench_branches_pkey |            40960
 2017-02-05 18:43:46.029788+01 | 1486316626.02979 | pgbench_tellers_pkey  |           245760
 2017-02-05 18:43:46.029788+01 | 1486316626.02979 | pgbench_accounts_pkey |       2246197248

 2017-02-05 18:43:47.105714+01 | 1486316627.10571 | pgbench_branches_pkey |            40960
 2017-02-05 18:43:47.105714+01 | 1486316627.10571 | pgbench_tellers_pkey  |           245760
 2017-02-05 18:43:47.105714+01 | 1486316627.10571 | pgbench_accounts_pkey |       2246197248

 2017-02-05 18:43:48.178046+01 | 1486316628.17805 | pgbench_branches_pkey |            40960
 2017-02-05 18:43:48.178046+01 | 1486316628.17805 | pgbench_tellers_pkey  |           245760
 2017-02-05 18:43:48.178046+01 | 1486316628.17805 | pgbench_accounts_pkey |       2246197248

 2017-02-05 18:43:49.248679+01 | 1486316629.24868 | pgbench_branches_pkey |            40960
 2017-02-05 18:43:49.248679+01 | 1486316629.24868 | pgbench_tellers_pkey  |           245760
 2017-02-05 18:43:49.248679+01 | 1486316629.24868 | pgbench_accounts_pkey |       2246197248

 2017-02-05 18:43:50.3252+01 | 1486316630.3252 | pgbench_branches_pkey |            40960
 2017-02-05 18:43:50.3252+01 | 1486316630.3252 | pgbench_tellers_pkey  |           245760
 2017-02-05 18:43:50.3252+01 | 1486316630.3252 | pgbench_accounts_pkey |       2246197248

 2017-02-05 18:43:51.402488+01 | 1486316631.40249 | pgbench_branches_pkey |            40960
 2017-02-05 18:43:51.402488+01 | 1486316631.40249 | pgbench_tellers_pkey  |           245760
 2017-02-05 18:43:51.402488+01 | 1486316631.40249 | pgbench_accounts_pkey |       2246197248

 2017-02-05 18:43:52.473906+01 | 1486316632.47391 | pgbench_branches_pkey |            40960
 2017-02-05 18:43:52.473906+01 | 1486316632.47391 | pgbench_tellers_pkey  |           245760
 2017-02-05 18:43:52.473906+01 | 1486316632.47391 | pgbench_accounts_pkey |       2246197248

 2017-02-05 18:43:53.549319+01 | 1486316633.54932 | pgbench_branches_pkey |            40960
 2017-02-05 18:43:53.549319+01 | 1486316633.54932 | pgbench_tellers_pkey  |           245760
 2017-02-05 18:43:53.549319+01 | 1486316633.54932 | pgbench_accounts_pkey |       2246197248

 2017-02-05 18:43:54.622633+01 | 1486316634.62263 | pgbench_branches_pkey |            40960
 2017-02-05 18:43:54.622633+01 | 1486316634.62263 | pgbench_tellers_pkey  |           245760
 2017-02-05 18:43:54.622633+01 | 1486316634.62263 | pgbench_accounts_pkey |       2246197248

 2017-02-05 18:43:55.697491+01 | 1486316635.69749 | pgbench_branches_pkey |            40960
 2017-02-05 18:43:55.697491+01 | 1486316635.69749 | pgbench_tellers_pkey  |           245760
 2017-02-05 18:43:55.697491+01 | 1486316635.69749 | pgbench_accounts_pkey |       2246197248

 2017-02-05 18:43:56.770347+01 | 1486316636.77035 | pgbench_branches_pkey |            40960
 2017-02-05 18:43:56.770347+01 | 1486316636.77035 | pgbench_tellers_pkey  |           245760
 2017-02-05 18:43:56.770347+01 | 1486316636.77035 | pgbench_accounts_pkey |       2246197248

 2017-02-05 18:43:57.842708+01 | 1486316637.84271 | pgbench_branches_pkey |            40960
 2017-02-05 18:43:57.842708+01 | 1486316637.84271 | pgbench_tellers_pkey  |           245760
 2017-02-05 18:43:57.842708+01 | 1486316637.84271 | pgbench_accounts_pkey |       2246197248

 2017-02-05 18:43:58.918861+01 | 1486316638.91886 | pgbench_branches_pkey |            40960
 2017-02-05 18:43:58.918861+01 | 1486316638.91886 | pgbench_tellers_pkey  |           245760
 2017-02-05 18:43:58.918861+01 | 1486316638.91886 | pgbench_accounts_pkey |       2246197248

 2017-02-05 18:43:59.98669+01 | 1486316639.98669 | pgbench_branches_pkey |            40960
 2017-02-05 18:43:59.98669+01 | 1486316639.98669 | pgbench_tellers_pkey  |           245760
 2017-02-05 18:43:59.98669+01 | 1486316639.98669 | pgbench_accounts_pkey |       2246197248

 2017-02-05 18:44:01.064599+01 | 1486316641.0646 | pgbench_branches_pkey |            40960
 2017-02-05 18:44:01.064599+01 | 1486316641.0646 | pgbench_tellers_pkey  |           245760
 2017-02-05 18:44:01.064599+01 | 1486316641.0646 | pgbench_accounts_pkey |       2246197248

 2017-02-05 18:44:02.136511+01 | 1486316642.13651 | pgbench_branches_pkey |            40960
 2017-02-05 18:44:02.136511+01 | 1486316642.13651 | pgbench_tellers_pkey  |           245760
 2017-02-05 18:44:02.136511+01 | 1486316642.13651 | pgbench_accounts_pkey |       2246197248

 2017-02-05 18:44:03.214778+01 | 1486316643.21478 | pgbench_branches_pkey |            40960
 2017-02-05 18:44:03.214778+01 | 1486316643.21478 | pgbench_tellers_pkey  |           245760
 2017-02-05 18:44:03.214778+01 | 1486316643.21478 | pgbench_accounts_pkey |       2246197248

 2017-02-05 18:44:04.286929+01 | 1486316644.28693 | pgbench_branches_pkey |            40960
 2017-02-05 18:44:04.286929+01 | 1486316644.28693 | pgbench_tellers_pkey  |           245760
 2017-02-05 18:44:04.286929+01 | 1486316644.28693 | pgbench_accounts_pkey |       2246197248

 2017-02-05 18:44:05.365371+01 | 1486316645.36537 | pgbench_branches_pkey |            40960
 2017-02-05 18:44:05.365371+01 | 1486316645.36537 | pgbench_tellers_pkey  |           245760
 2017-02-05 18:44:05.365371+01 | 1486316645.36537 | pgbench_accounts_pkey |       2246197248

 2017-02-05 18:44:06.436859+01 | 1486316646.43686 | pgbench_branches_pkey |            40960
 2017-02-05 18:44:06.436859+01 | 1486316646.43686 | pgbench_tellers_pkey  |           245760
 2017-02-05 18:44:06.436859+01 | 1486316646.43686 | pgbench_accounts_pkey |       2246197248

 2017-02-05 18:44:07.515496+01 | 1486316647.5155 | pgbench_branches_pkey |            40960
 2017-02-05 18:44:07.515496+01 | 1486316647.5155 | pgbench_tellers_pkey  |           245760
 2017-02-05 18:44:07.515496+01 | 1486316647.5155 | pgbench_accounts_pkey |       2246197248

 2017-02-05 18:44:08.590311+01 | 1486316648.59031 | pgbench_branches_pkey |            40960
 2017-02-05 18:44:08.590311+01 | 1486316648.59031 | pgbench_tellers_pkey  |           245760
 2017-02-05 18:44:08.590311+01 | 1486316648.59031 | pgbench_accounts_pkey |       2246197248

 2017-02-05 18:44:09.663742+01 | 1486316649.66374 | pgbench_branches_pkey |            40960
 2017-02-05 18:44:09.663742+01 | 1486316649.66374 | pgbench_tellers_pkey  |           245760
 2017-02-05 18:44:09.663742+01 | 1486316649.66374 | pgbench_accounts_pkey |       2246197248

 2017-02-05 18:44:10.74052+01 | 1486316650.74052 | pgbench_branches_pkey |            40960
 2017-02-05 18:44:10.74052+01 | 1486316650.74052 | pgbench_tellers_pkey  |           245760
 2017-02-05 18:44:10.74052+01 | 1486316650.74052 | pgbench_accounts_pkey |       2246197248

 2017-02-05 18:44:11.812227+01 | 1486316651.81223 | pgbench_branches_pkey |            40960
 2017-02-05 18:44:11.812227+01 | 1486316651.81223 | pgbench_tellers_pkey  |           245760
 2017-02-05 18:44:11.812227+01 | 1486316651.81223 | pgbench_accounts_pkey |       2246197248

 2017-02-05 18:44:12.882698+01 | 1486316652.8827 | pgbench_branches_pkey |            40960
 2017-02-05 18:44:12.882698+01 | 1486316652.8827 | pgbench_tellers_pkey  |           245760
 2017-02-05 18:44:12.882698+01 | 1486316652.8827 | pgbench_accounts_pkey |       2246197248

 2017-02-05 18:44:13.956003+01 | 1486316653.956 | pgbench_branches_pkey |            40960
 2017-02-05 18:44:13.956003+01 | 1486316653.956 | pgbench_tellers_pkey  |           245760
 2017-02-05 18:44:13.956003+01 | 1486316653.956 | pgbench_accounts_pkey |       2246197248

 2017-02-05 18:44:15.029195+01 | 1486316655.0292 | pgbench_branches_pkey |            40960
 2017-02-05 18:44:15.029195+01 | 1486316655.0292 | pgbench_tellers_pkey  |           245760
 2017-02-05 18:44:15.029195+01 | 1486316655.0292 | pgbench_accounts_pkey |       2246197248

 2017-02-05 18:44:16.103466+01 | 1486316656.10347 | pgbench_branches_pkey |            40960
 2017-02-05 18:44:16.103466+01 | 1486316656.10347 | pgbench_tellers_pkey  |           245760
 2017-02-05 18:44:16.103466+01 | 1486316656.10347 | pgbench_accounts_pkey |       2246197248

 2017-02-05 18:44:17.182904+01 | 1486316657.1829 | pgbench_branches_pkey |            40960
 2017-02-05 18:44:17.182904+01 | 1486316657.1829 | pgbench_tellers_pkey  |           245760
 2017-02-05 18:44:17.182904+01 | 1486316657.1829 | pgbench_accounts_pkey |       2246197248

 2017-02-05 18:44:18.254914+01 | 1486316658.25491 | pgbench_branches_pkey |            40960
 2017-02-05 18:44:18.254914+01 | 1486316658.25491 | pgbench_tellers_pkey  |           245760
 2017-02-05 18:44:18.254914+01 | 1486316658.25491 | pgbench_accounts_pkey |       2246197248

 2017-02-05 18:44:19.330299+01 | 1486316659.3303 | pgbench_branches_pkey |            40960
 2017-02-05 18:44:19.330299+01 | 1486316659.3303 | pgbench_tellers_pkey  |           245760
 2017-02-05 18:44:19.330299+01 | 1486316659.3303 | pgbench_accounts_pkey |       2246197248

 2017-02-05 18:44:20.406049+01 | 1486316660.40605 | pgbench_branches_pkey |            40960
 2017-02-05 18:44:20.406049+01 | 1486316660.40605 | pgbench_tellers_pkey  |           245760
 2017-02-05 18:44:20.406049+01 | 1486316660.40605 | pgbench_accounts_pkey |       2246197248

 2017-02-05 18:44:21.480962+01 | 1486316661.48096 | pgbench_branches_pkey |            40960
 2017-02-05 18:44:21.480962+01 | 1486316661.48096 | pgbench_tellers_pkey  |           245760
 2017-02-05 18:44:21.480962+01 | 1486316661.48096 | pgbench_accounts_pkey |       2246197248

 2017-02-05 18:44:22.556499+01 | 1486316662.5565 | pgbench_branches_pkey |            40960
 2017-02-05 18:44:22.556499+01 | 1486316662.5565 | pgbench_tellers_pkey  |           245760
 2017-02-05 18:44:22.556499+01 | 1486316662.5565 | pgbench_accounts_pkey |       2246197248

 2017-02-05 18:44:23.625991+01 | 1486316663.62599 | pgbench_branches_pkey |            40960
 2017-02-05 18:44:23.625991+01 | 1486316663.62599 | pgbench_tellers_pkey  |           245760
 2017-02-05 18:44:23.625991+01 | 1486316663.62599 | pgbench_accounts_pkey |       2246197248

 2017-02-05 18:44:24.703966+01 | 1486316664.70397 | pgbench_branches_pkey |            40960
 2017-02-05 18:44:24.703966+01 | 1486316664.70397 | pgbench_tellers_pkey  |           245760
 2017-02-05 18:44:24.703966+01 | 1486316664.70397 | pgbench_accounts_pkey |       2246197248

 2017-02-05 18:44:25.780667+01 | 1486316665.78067 | pgbench_branches_pkey |            40960
 2017-02-05 18:44:25.780667+01 | 1486316665.78067 | pgbench_tellers_pkey  |           245760
 2017-02-05 18:44:25.780667+01 | 1486316665.78067 | pgbench_accounts_pkey |       2246197248

 2017-02-05 18:44:26.856745+01 | 1486316666.85675 | pgbench_branches_pkey |            40960
 2017-02-05 18:44:26.856745+01 | 1486316666.85675 | pgbench_tellers_pkey  |           245760
 2017-02-05 18:44:26.856745+01 | 1486316666.85675 | pgbench_accounts_pkey |       2246197248

 2017-02-05 18:44:27.933052+01 | 1486316667.93305 | pgbench_branches_pkey |            40960
 2017-02-05 18:44:27.933052+01 | 1486316667.93305 | pgbench_tellers_pkey  |           245760
 2017-02-05 18:44:27.933052+01 | 1486316667.93305 | pgbench_accounts_pkey |       2246197248

 2017-02-05 18:44:29.003718+01 | 1486316669.00372 | pgbench_branches_pkey |            40960
 2017-02-05 18:44:29.003718+01 | 1486316669.00372 | pgbench_tellers_pkey  |           245760
 2017-02-05 18:44:29.003718+01 | 1486316669.00372 | pgbench_accounts_pkey |       2246197248

 2017-02-05 18:44:30.078003+01 | 1486316670.078 | pgbench_branches_pkey |            40960
 2017-02-05 18:44:30.078003+01 | 1486316670.078 | pgbench_tellers_pkey  |           245760
 2017-02-05 18:44:30.078003+01 | 1486316670.078 | pgbench_accounts_pkey |       2246197248

 2017-02-05 18:44:31.152824+01 | 1486316671.15282 | pgbench_branches_pkey |            40960
 2017-02-05 18:44:31.152824+01 | 1486316671.15282 | pgbench_tellers_pkey  |           245760
 2017-02-05 18:44:31.152824+01 | 1486316671.15282 | pgbench_accounts_pkey |       2246197248

 2017-02-05 18:44:32.225689+01 | 1486316672.22569 | pgbench_branches_pkey |            40960
 2017-02-05 18:44:32.225689+01 | 1486316672.22569 | pgbench_tellers_pkey  |           245760
 2017-02-05 18:44:32.225689+01 | 1486316672.22569 | pgbench_accounts_pkey |       2246197248

 2017-02-05 18:44:33.301791+01 | 1486316673.30179 | pgbench_branches_pkey |            40960
 2017-02-05 18:44:33.301791+01 | 1486316673.30179 | pgbench_tellers_pkey  |           245760
 2017-02-05 18:44:33.301791+01 | 1486316673.30179 | pgbench_accounts_pkey |       2246197248

 2017-02-05 18:44:34.3769+01 | 1486316674.3769 | pgbench_branches_pkey |            40960
 2017-02-05 18:44:34.3769+01 | 1486316674.3769 | pgbench_tellers_pkey  |           245760
 2017-02-05 18:44:34.3769+01 | 1486316674.3769 | pgbench_accounts_pkey |       2246197248

 2017-02-05 18:44:35.454314+01 | 1486316675.45431 | pgbench_branches_pkey |            40960
 2017-02-05 18:44:35.454314+01 | 1486316675.45431 | pgbench_tellers_pkey  |           245760
 2017-02-05 18:44:35.454314+01 | 1486316675.45431 | pgbench_accounts_pkey |       2246197248

 2017-02-05 18:44:36.529505+01 | 1486316676.52951 | pgbench_branches_pkey |            40960
 2017-02-05 18:44:36.529505+01 | 1486316676.52951 | pgbench_tellers_pkey  |           245760
 2017-02-05 18:44:36.529505+01 | 1486316676.52951 | pgbench_accounts_pkey |       2246197248

 2017-02-05 18:44:37.600286+01 | 1486316677.60029 | pgbench_branches_pkey |            40960
 2017-02-05 18:44:37.600286+01 | 1486316677.60029 | pgbench_tellers_pkey  |           245760
 2017-02-05 18:44:37.600286+01 | 1486316677.60029 | pgbench_accounts_pkey |       2246197248

 2017-02-05 18:44:38.671678+01 | 1486316678.67168 | pgbench_branches_pkey |            40960
 2017-02-05 18:44:38.671678+01 | 1486316678.67168 | pgbench_tellers_pkey  |           245760
 2017-02-05 18:44:38.671678+01 | 1486316678.67168 | pgbench_accounts_pkey |       2246197248

 2017-02-05 18:44:39.750883+01 | 1486316679.75088 | pgbench_branches_pkey |            40960
 2017-02-05 18:44:39.750883+01 | 1486316679.75088 | pgbench_tellers_pkey  |           245760
 2017-02-05 18:44:39.750883+01 | 1486316679.75088 | pgbench_accounts_pkey |       2246197248

 2017-02-05 18:44:40.827781+01 | 1486316680.82778 | pgbench_branches_pkey |            40960
 2017-02-05 18:44:40.827781+01 | 1486316680.82778 | pgbench_tellers_pkey  |           245760
 2017-02-05 18:44:40.827781+01 | 1486316680.82778 | pgbench_accounts_pkey |       2246197248

 2017-02-05 18:44:41.902954+01 | 1486316681.90295 | pgbench_branches_pkey |            40960
 2017-02-05 18:44:41.902954+01 | 1486316681.90295 | pgbench_tellers_pkey  |           245760
 2017-02-05 18:44:41.902954+01 | 1486316681.90295 | pgbench_accounts_pkey |       2246197248

 2017-02-05 18:44:42.982404+01 | 1486316682.9824 | pgbench_branches_pkey |            40960
 2017-02-05 18:44:42.982404+01 | 1486316682.9824 | pgbench_tellers_pkey  |           245760
 2017-02-05 18:44:42.982404+01 | 1486316682.9824 | pgbench_accounts_pkey |       2246197248

 2017-02-05 18:44:44.06163+01 | 1486316684.06163 | pgbench_branches_pkey |            40960
 2017-02-05 18:44:44.06163+01 | 1486316684.06163 | pgbench_tellers_pkey  |           245760
 2017-02-05 18:44:44.06163+01 | 1486316684.06163 | pgbench_accounts_pkey |       2246197248

 2017-02-05 18:44:45.136522+01 | 1486316685.13652 | pgbench_branches_pkey |            40960
 2017-02-05 18:44:45.136522+01 | 1486316685.13652 | pgbench_tellers_pkey  |           245760
 2017-02-05 18:44:45.136522+01 | 1486316685.13652 | pgbench_accounts_pkey |       2246197248

 2017-02-05 18:44:46.211959+01 | 1486316686.21196 | pgbench_branches_pkey |            40960
 2017-02-05 18:44:46.211959+01 | 1486316686.21196 | pgbench_tellers_pkey  |           245760
 2017-02-05 18:44:46.211959+01 | 1486316686.21196 | pgbench_accounts_pkey |       2246197248

 2017-02-05 18:44:47.286388+01 | 1486316687.28639 | pgbench_branches_pkey |            40960
 2017-02-05 18:44:47.286388+01 | 1486316687.28639 | pgbench_tellers_pkey  |           245760
 2017-02-05 18:44:47.286388+01 | 1486316687.28639 | pgbench_accounts_pkey |       2246197248

 2017-02-05 18:44:48.362117+01 | 1486316688.36212 | pgbench_branches_pkey |            40960
 2017-02-05 18:44:48.362117+01 | 1486316688.36212 | pgbench_tellers_pkey  |           245760
 2017-02-05 18:44:48.362117+01 | 1486316688.36212 | pgbench_accounts_pkey |       2246197248

 2017-02-05 18:44:49.433884+01 | 1486316689.43388 | pgbench_branches_pkey |            40960
 2017-02-05 18:44:49.433884+01 | 1486316689.43388 | pgbench_tellers_pkey  |           245760
 2017-02-05 18:44:49.433884+01 | 1486316689.43388 | pgbench_accounts_pkey |       2246197248

 2017-02-05 18:44:50.504956+01 | 1486316690.50496 | pgbench_branches_pkey |            40960
 2017-02-05 18:44:50.504956+01 | 1486316690.50496 | pgbench_tellers_pkey  |           245760
 2017-02-05 18:44:50.504956+01 | 1486316690.50496 | pgbench_accounts_pkey |       2246197248

 2017-02-05 18:44:51.58768+01 | 1486316691.58768 | pgbench_branches_pkey |            40960
 2017-02-05 18:44:51.58768+01 | 1486316691.58768 | pgbench_tellers_pkey  |           245760
 2017-02-05 18:44:51.58768+01 | 1486316691.58768 | pgbench_accounts_pkey |       2246197248

 2017-02-05 18:44:52.666266+01 | 1486316692.66627 | pgbench_branches_pkey |            40960
 2017-02-05 18:44:52.666266+01 | 1486316692.66627 | pgbench_tellers_pkey  |           245760
 2017-02-05 18:44:52.666266+01 | 1486316692.66627 | pgbench_accounts_pkey |       2246197248

 2017-02-05 18:44:53.746156+01 | 1486316693.74616 | pgbench_branches_pkey |            40960
 2017-02-05 18:44:53.746156+01 | 1486316693.74616 | pgbench_tellers_pkey  |           245760
 2017-02-05 18:44:53.746156+01 | 1486316693.74616 | pgbench_accounts_pkey |       2246197248

 2017-02-05 18:44:54.824917+01 | 1486316694.82492 | pgbench_branches_pkey |            40960
 2017-02-05 18:44:54.824917+01 | 1486316694.82492 | pgbench_tellers_pkey  |           245760
 2017-02-05 18:44:54.824917+01 | 1486316694.82492 | pgbench_accounts_pkey |       2246197248

 2017-02-05 18:44:55.899748+01 | 1486316695.89975 | pgbench_branches_pkey |            40960
 2017-02-05 18:44:55.899748+01 | 1486316695.89975 | pgbench_tellers_pkey  |           245760
 2017-02-05 18:44:55.899748+01 | 1486316695.89975 | pgbench_accounts_pkey |       2246197248

 2017-02-05 18:44:56.978773+01 | 1486316696.97877 | pgbench_branches_pkey |            40960
 2017-02-05 18:44:56.978773+01 | 1486316696.97877 | pgbench_tellers_pkey  |           245760
 2017-02-05 18:44:56.978773+01 | 1486316696.97877 | pgbench_accounts_pkey |       2246197248

 2017-02-05 18:44:58.057299+01 | 1486316698.0573 | pgbench_branches_pkey |            40960
 2017-02-05 18:44:58.057299+01 | 1486316698.0573 | pgbench_tellers_pkey  |           245760
 2017-02-05 18:44:58.057299+01 | 1486316698.0573 | pgbench_accounts_pkey |       2246197248

 2017-02-05 18:44:59.131927+01 | 1486316699.13193 | pgbench_branches_pkey |            40960
 2017-02-05 18:44:59.131927+01 | 1486316699.13193 | pgbench_tellers_pkey  |           245760
 2017-02-05 18:44:59.131927+01 | 1486316699.13193 | pgbench_accounts_pkey |       2246197248

 2017-02-05 18:45:00.210258+01 | 1486316700.21026 | pgbench_branches_pkey |            40960
 2017-02-05 18:45:00.210258+01 | 1486316700.21026 | pgbench_tellers_pkey  |           245760
 2017-02-05 18:45:00.210258+01 | 1486316700.21026 | pgbench_accounts_pkey |       2246197248

 2017-02-05 18:45:01.291671+01 | 1486316701.29167 | pgbench_branches_pkey |            40960
 2017-02-05 18:45:01.291671+01 | 1486316701.29167 | pgbench_tellers_pkey  |           245760
 2017-02-05 18:45:01.291671+01 | 1486316701.29167 | pgbench_accounts_pkey |       2246197248

 2017-02-05 18:45:02.366099+01 | 1486316702.3661 | pgbench_branches_pkey |            40960
 2017-02-05 18:45:02.366099+01 | 1486316702.3661 | pgbench_tellers_pkey  |           245760
 2017-02-05 18:45:02.366099+01 | 1486316702.3661 | pgbench_accounts_pkey |       2246197248

 2017-02-05 18:45:03.442109+01 | 1486316703.44211 | pgbench_branches_pkey |            40960
 2017-02-05 18:45:03.442109+01 | 1486316703.44211 | pgbench_tellers_pkey  |           245760
 2017-02-05 18:45:03.442109+01 | 1486316703.44211 | pgbench_accounts_pkey |       2246197248

 2017-02-05 18:45:04.517016+01 | 1486316704.51702 | pgbench_branches_pkey |            40960
 2017-02-05 18:45:04.517016+01 | 1486316704.51702 | pgbench_tellers_pkey  |           245760
 2017-02-05 18:45:04.517016+01 | 1486316704.51702 | pgbench_accounts_pkey |       2246197248

 2017-02-05 18:45:05.595048+01 | 1486316705.59505 | pgbench_branches_pkey |            40960
 2017-02-05 18:45:05.595048+01 | 1486316705.59505 | pgbench_tellers_pkey  |           245760
 2017-02-05 18:45:05.595048+01 | 1486316705.59505 | pgbench_accounts_pkey |       2246197248

 2017-02-05 18:45:06.678587+01 | 1486316706.67859 | pgbench_branches_pkey |            40960
 2017-02-05 18:45:06.678587+01 | 1486316706.67859 | pgbench_tellers_pkey  |           245760
 2017-02-05 18:45:06.678587+01 | 1486316706.67859 | pgbench_accounts_pkey |       2246197248

 2017-02-05 18:45:07.75509+01 | 1486316707.75509 | pgbench_branches_pkey |            40960
 2017-02-05 18:45:07.75509+01 | 1486316707.75509 | pgbench_tellers_pkey  |           245760
 2017-02-05 18:45:07.75509+01 | 1486316707.75509 | pgbench_accounts_pkey |       2246197248

 2017-02-05 18:45:08.829984+01 | 1486316708.82998 | pgbench_branches_pkey |            40960
 2017-02-05 18:45:08.829984+01 | 1486316708.82998 | pgbench_tellers_pkey  |           245760
 2017-02-05 18:45:08.829984+01 | 1486316708.82998 | pgbench_accounts_pkey |       2246197248

 2017-02-05 18:45:09.907545+01 | 1486316709.90755 | pgbench_branches_pkey |            40960
 2017-02-05 18:45:09.907545+01 | 1486316709.90755 | pgbench_tellers_pkey  |           245760
 2017-02-05 18:45:09.907545+01 | 1486316709.90755 | pgbench_accounts_pkey |       2246197248

 2017-02-05 18:45:10.985416+01 | 1486316710.98542 | pgbench_branches_pkey |            40960
 2017-02-05 18:45:10.985416+01 | 1486316710.98542 | pgbench_tellers_pkey  |           245760
 2017-02-05 18:45:10.985416+01 | 1486316710.98542 | pgbench_accounts_pkey |       2246197248

 2017-02-05 18:45:12.063488+01 | 1486316712.06349 | pgbench_branches_pkey |            40960
 2017-02-05 18:45:12.063488+01 | 1486316712.06349 | pgbench_tellers_pkey  |           245760
 2017-02-05 18:45:12.063488+01 | 1486316712.06349 | pgbench_accounts_pkey |       2246197248

 2017-02-05 18:45:13.142158+01 | 1486316713.14216 | pgbench_branches_pkey |            40960
 2017-02-05 18:45:13.142158+01 | 1486316713.14216 | pgbench_tellers_pkey  |           245760
 2017-02-05 18:45:13.142158+01 | 1486316713.14216 | pgbench_accounts_pkey |       2246197248

 2017-02-05 18:45:14.218178+01 | 1486316714.21818 | pgbench_branches_pkey |            40960
 2017-02-05 18:45:14.218178+01 | 1486316714.21818 | pgbench_tellers_pkey  |           245760
 2017-02-05 18:45:14.218178+01 | 1486316714.21818 | pgbench_accounts_pkey |       2246197248

 2017-02-05 18:45:15.29307+01 | 1486316715.29307 | pgbench_branches_pkey |            40960
 2017-02-05 18:45:15.29307+01 | 1486316715.29307 | pgbench_tellers_pkey  |           245760
 2017-02-05 18:45:15.29307+01 | 1486316715.29307 | pgbench_accounts_pkey |       2246197248

 2017-02-05 18:45:16.368161+01 | 1486316716.36816 | pgbench_branches_pkey |            40960
 2017-02-05 18:45:16.368161+01 | 1486316716.36816 | pgbench_tellers_pkey  |           245760
 2017-02-05 18:45:16.368161+01 | 1486316716.36816 | pgbench_accounts_pkey |       2246197248

 2017-02-05 18:45:17.444573+01 | 1486316717.44457 | pgbench_branches_pkey |            40960
 2017-02-05 18:45:17.444573+01 | 1486316717.44457 | pgbench_tellers_pkey  |           245760
 2017-02-05 18:45:17.444573+01 | 1486316717.44457 | pgbench_accounts_pkey |       2246197248

 2017-02-05 18:45:18.524287+01 | 1486316718.52429 | pgbench_branches_pkey |            40960
 2017-02-05 18:45:18.524287+01 | 1486316718.52429 | pgbench_tellers_pkey  |           245760
 2017-02-05 18:45:18.524287+01 | 1486316718.52429 | pgbench_accounts_pkey |       2246197248

 2017-02-05 18:45:19.596838+01 | 1486316719.59684 | pgbench_branches_pkey |            40960
 2017-02-05 18:45:19.596838+01 | 1486316719.59684 | pgbench_tellers_pkey  |           245760
 2017-02-05 18:45:19.596838+01 | 1486316719.59684 | pgbench_accounts_pkey |       2246197248

 2017-02-05 18:45:20.67145+01 | 1486316720.67145 | pgbench_branches_pkey |            40960
 2017-02-05 18:45:20.67145+01 | 1486316720.67145 | pgbench_tellers_pkey  |           245760
 2017-02-05 18:45:20.67145+01 | 1486316720.67145 | pgbench_accounts_pkey |       2246197248

 2017-02-05 18:45:21.748024+01 | 1486316721.74802 | pgbench_branches_pkey |            40960
 2017-02-05 18:45:21.748024+01 | 1486316721.74802 | pgbench_tellers_pkey  |           245760
 2017-02-05 18:45:21.748024+01 | 1486316721.74802 | pgbench_accounts_pkey |       2246197248

 2017-02-05 18:45:22.824308+01 | 1486316722.82431 | pgbench_branches_pkey |            40960
 2017-02-05 18:45:22.824308+01 | 1486316722.82431 | pgbench_tellers_pkey  |           245760
 2017-02-05 18:45:22.824308+01 | 1486316722.82431 | pgbench_accounts_pkey |       2246197248

 2017-02-05 18:45:23.902005+01 | 1486316723.902 | pgbench_branches_pkey |            40960
 2017-02-05 18:45:23.902005+01 | 1486316723.902 | pgbench_tellers_pkey  |           245760
 2017-02-05 18:45:23.902005+01 | 1486316723.902 | pgbench_accounts_pkey |       2246197248

 2017-02-05 18:45:24.979727+01 | 1486316724.97973 | pgbench_branches_pkey |            40960
 2017-02-05 18:45:24.979727+01 | 1486316724.97973 | pgbench_tellers_pkey  |           245760
 2017-02-05 18:45:24.979727+01 | 1486316724.97973 | pgbench_accounts_pkey |       2246197248

 2017-02-05 18:45:26.06025+01 | 1486316726.06025 | pgbench_branches_pkey |            40960
 2017-02-05 18:45:26.06025+01 | 1486316726.06025 | pgbench_tellers_pkey  |           245760
 2017-02-05 18:45:26.06025+01 | 1486316726.06025 | pgbench_accounts_pkey |       2246197248

 2017-02-05 18:45:27.135599+01 | 1486316727.1356 | pgbench_branches_pkey |            40960
 2017-02-05 18:45:27.135599+01 | 1486316727.1356 | pgbench_tellers_pkey  |           245760
 2017-02-05 18:45:27.135599+01 | 1486316727.1356 | pgbench_accounts_pkey |       2246197248

 2017-02-05 18:45:28.218677+01 | 1486316728.21868 | pgbench_branches_pkey |            40960
 2017-02-05 18:45:28.218677+01 | 1486316728.21868 | pgbench_tellers_pkey  |           245760
 2017-02-05 18:45:28.218677+01 | 1486316728.21868 | pgbench_accounts_pkey |       2246197248

 2017-02-05 18:45:29.304255+01 | 1486316729.30426 | pgbench_branches_pkey |            40960
 2017-02-05 18:45:29.304255+01 | 1486316729.30426 | pgbench_tellers_pkey  |           245760
 2017-02-05 18:45:29.304255+01 | 1486316729.30426 | pgbench_accounts_pkey |       2246197248

 2017-02-05 18:45:30.387298+01 | 1486316730.3873 | pgbench_branches_pkey |            40960
 2017-02-05 18:45:30.387298+01 | 1486316730.3873 | pgbench_tellers_pkey  |           245760
 2017-02-05 18:45:30.387298+01 | 1486316730.3873 | pgbench_accounts_pkey |       2246197248

 2017-02-05 18:45:31.465902+01 | 1486316731.4659 | pgbench_branches_pkey |            40960
 2017-02-05 18:45:31.465902+01 | 1486316731.4659 | pgbench_tellers_pkey  |           245760
 2017-02-05 18:45:31.465902+01 | 1486316731.4659 | pgbench_accounts_pkey |       2246197248

 2017-02-05 18:45:32.535232+01 | 1486316732.53523 | pgbench_branches_pkey |            40960
 2017-02-05 18:45:32.535232+01 | 1486316732.53523 | pgbench_tellers_pkey  |           245760
 2017-02-05 18:45:32.535232+01 | 1486316732.53523 | pgbench_accounts_pkey |       2246197248

 2017-02-05 18:45:33.605225+01 | 1486316733.60523 | pgbench_branches_pkey |            40960
 2017-02-05 18:45:33.605225+01 | 1486316733.60523 | pgbench_tellers_pkey  |           245760
 2017-02-05 18:45:33.605225+01 | 1486316733.60523 | pgbench_accounts_pkey |       2246197248

 2017-02-05 18:45:34.679425+01 | 1486316734.67943 | pgbench_branches_pkey |            40960
 2017-02-05 18:45:34.679425+01 | 1486316734.67943 | pgbench_tellers_pkey  |           245760
 2017-02-05 18:45:34.679425+01 | 1486316734.67943 | pgbench_accounts_pkey |       2246197248

 2017-02-05 18:45:35.758792+01 | 1486316735.75879 | pgbench_branches_pkey |            40960
 2017-02-05 18:45:35.758792+01 | 1486316735.75879 | pgbench_tellers_pkey  |           245760
 2017-02-05 18:45:35.758792+01 | 1486316735.75879 | pgbench_accounts_pkey |       2246197248

 2017-02-05 18:45:36.833621+01 | 1486316736.83362 | pgbench_branches_pkey |            40960
 2017-02-05 18:45:36.833621+01 | 1486316736.83362 | pgbench_tellers_pkey  |           245760
 2017-02-05 18:45:36.833621+01 | 1486316736.83362 | pgbench_accounts_pkey |       2246197248

 2017-02-05 18:45:37.909092+01 | 1486316737.90909 | pgbench_branches_pkey |            40960
 2017-02-05 18:45:37.909092+01 | 1486316737.90909 | pgbench_tellers_pkey  |           245760
 2017-02-05 18:45:37.909092+01 | 1486316737.90909 | pgbench_accounts_pkey |       2246197248

