NOTICE:  table "pgbench_history" does not exist, skipping
NOTICE:  table "pgbench_tellers" does not exist, skipping
NOTICE:  table "pgbench_accounts" does not exist, skipping
NOTICE:  table "pgbench_branches" does not exist, skipping
creating tables...
100000 of 100000000 tuples (0%) done (elapsed 0.09 s, remaining 85.98 s)
200000 of 100000000 tuples (0%) done (elapsed 0.24 s, remaining 119.96 s)
300000 of 100000000 tuples (0%) done (elapsed 0.40 s, remaining 132.96 s)
400000 of 100000000 tuples (0%) done (elapsed 0.50 s, remaining 123.57 s)
500000 of 100000000 tuples (0%) done (elapsed 0.65 s, remaining 129.36 s)
600000 of 100000000 tuples (0%) done (elapsed 0.80 s, remaining 132.50 s)
700000 of 100000000 tuples (0%) done (elapsed 0.91 s, remaining 129.06 s)
800000 of 100000000 tuples (0%) done (elapsed 1.07 s, remaining 133.20 s)
900000 of 100000000 tuples (0%) done (elapsed 1.32 s, remaining 144.83 s)
1000000 of 100000000 tuples (1%) done (elapsed 1.43 s, remaining 141.46 s)
1100000 of 100000000 tuples (1%) done (elapsed 1.55 s, remaining 139.56 s)
1200000 of 100000000 tuples (1%) done (elapsed 1.71 s, remaining 141.20 s)
1300000 of 100000000 tuples (1%) done (elapsed 1.82 s, remaining 137.82 s)
1400000 of 100000000 tuples (1%) done (elapsed 1.98 s, remaining 139.52 s)
1500000 of 100000000 tuples (1%) done (elapsed 2.16 s, remaining 141.79 s)
1600000 of 100000000 tuples (1%) done (elapsed 2.26 s, remaining 139.25 s)
1700000 of 100000000 tuples (1%) done (elapsed 2.44 s, remaining 141.27 s)
1800000 of 100000000 tuples (1%) done (elapsed 2.72 s, remaining 148.59 s)
1900000 of 100000000 tuples (1%) done (elapsed 2.90 s, remaining 149.71 s)
2000000 of 100000000 tuples (2%) done (elapsed 3.05 s, remaining 149.30 s)
2100000 of 100000000 tuples (2%) done (elapsed 3.17 s, remaining 147.78 s)
2200000 of 100000000 tuples (2%) done (elapsed 3.30 s, remaining 146.56 s)
2300000 of 100000000 tuples (2%) done (elapsed 3.47 s, remaining 147.30 s)
2400000 of 100000000 tuples (2%) done (elapsed 3.57 s, remaining 145.09 s)
2500000 of 100000000 tuples (2%) done (elapsed 3.74 s, remaining 145.77 s)
2600000 of 100000000 tuples (2%) done (elapsed 4.02 s, remaining 150.73 s)
2700000 of 100000000 tuples (2%) done (elapsed 4.19 s, remaining 151.07 s)
2800000 of 100000000 tuples (2%) done (elapsed 4.30 s, remaining 149.16 s)
2900000 of 100000000 tuples (2%) done (elapsed 4.47 s, remaining 149.56 s)
3000000 of 100000000 tuples (3%) done (elapsed 4.63 s, remaining 149.85 s)
3100000 of 100000000 tuples (3%) done (elapsed 4.79 s, remaining 149.83 s)
3200000 of 100000000 tuples (3%) done (elapsed 4.90 s, remaining 148.36 s)
3300000 of 100000000 tuples (3%) done (elapsed 5.07 s, remaining 148.71 s)
3400000 of 100000000 tuples (3%) done (elapsed 5.22 s, remaining 148.41 s)
3500000 of 100000000 tuples (3%) done (elapsed 5.33 s, remaining 147.06 s)
3600000 of 100000000 tuples (3%) done (elapsed 5.50 s, remaining 147.40 s)
3700000 of 100000000 tuples (3%) done (elapsed 5.69 s, remaining 148.03 s)
3800000 of 100000000 tuples (3%) done (elapsed 5.85 s, remaining 148.21 s)
3900000 of 100000000 tuples (3%) done (elapsed 5.97 s, remaining 147.16 s)
4000000 of 100000000 tuples (4%) done (elapsed 6.15 s, remaining 147.66 s)
4100000 of 100000000 tuples (4%) done (elapsed 6.33 s, remaining 148.11 s)
4200000 of 100000000 tuples (4%) done (elapsed 6.66 s, remaining 151.97 s)
4300000 of 100000000 tuples (4%) done (elapsed 6.77 s, remaining 150.59 s)
4400000 of 100000000 tuples (4%) done (elapsed 6.89 s, remaining 149.69 s)
4500000 of 100000000 tuples (4%) done (elapsed 7.07 s, remaining 150.07 s)
4600000 of 100000000 tuples (4%) done (elapsed 7.23 s, remaining 150.05 s)
4700000 of 100000000 tuples (4%) done (elapsed 7.35 s, remaining 148.99 s)
4800000 of 100000000 tuples (4%) done (elapsed 7.52 s, remaining 149.08 s)
4900000 of 100000000 tuples (4%) done (elapsed 7.68 s, remaining 148.99 s)
5000000 of 100000000 tuples (5%) done (elapsed 7.78 s, remaining 147.82 s)
5100000 of 100000000 tuples (5%) done (elapsed 8.08 s, remaining 150.33 s)
5200000 of 100000000 tuples (5%) done (elapsed 8.25 s, remaining 150.39 s)
5300000 of 100000000 tuples (5%) done (elapsed 8.42 s, remaining 150.45 s)
5400000 of 100000000 tuples (5%) done (elapsed 8.54 s, remaining 149.58 s)
5500000 of 100000000 tuples (5%) done (elapsed 8.64 s, remaining 148.43 s)
5600000 of 100000000 tuples (5%) done (elapsed 8.81 s, remaining 148.55 s)
5700000 of 100000000 tuples (5%) done (elapsed 8.96 s, remaining 148.30 s)
5800000 of 100000000 tuples (5%) done (elapsed 9.08 s, remaining 147.46 s)
5900000 of 100000000 tuples (5%) done (elapsed 9.37 s, remaining 149.50 s)
6000000 of 100000000 tuples (6%) done (elapsed 9.54 s, remaining 149.39 s)
6100000 of 100000000 tuples (6%) done (elapsed 9.70 s, remaining 149.30 s)
6200000 of 100000000 tuples (6%) done (elapsed 9.81 s, remaining 148.39 s)
6300000 of 100000000 tuples (6%) done (elapsed 9.98 s, remaining 148.45 s)
6400000 of 100000000 tuples (6%) done (elapsed 10.15 s, remaining 148.45 s)
6500000 of 100000000 tuples (6%) done (elapsed 10.25 s, remaining 147.46 s)
6600000 of 100000000 tuples (6%) done (elapsed 10.43 s, remaining 147.58 s)
6700000 of 100000000 tuples (6%) done (elapsed 10.56 s, remaining 147.02 s)
6800000 of 100000000 tuples (6%) done (elapsed 10.71 s, remaining 146.84 s)
6900000 of 100000000 tuples (6%) done (elapsed 10.83 s, remaining 146.13 s)
7000000 of 100000000 tuples (7%) done (elapsed 11.00 s, remaining 146.15 s)
7100000 of 100000000 tuples (7%) done (elapsed 11.16 s, remaining 145.96 s)
7200000 of 100000000 tuples (7%) done (elapsed 11.27 s, remaining 145.28 s)
7300000 of 100000000 tuples (7%) done (elapsed 11.44 s, remaining 145.26 s)
7400000 of 100000000 tuples (7%) done (elapsed 11.60 s, remaining 145.16 s)
7500000 of 100000000 tuples (7%) done (elapsed 11.71 s, remaining 144.36 s)
7600000 of 100000000 tuples (7%) done (elapsed 12.00 s, remaining 145.95 s)
7700000 of 100000000 tuples (7%) done (elapsed 12.16 s, remaining 145.81 s)
7800000 of 100000000 tuples (7%) done (elapsed 12.33 s, remaining 145.71 s)
7900000 of 100000000 tuples (7%) done (elapsed 12.44 s, remaining 144.99 s)
8000000 of 100000000 tuples (8%) done (elapsed 12.61 s, remaining 144.98 s)
8100000 of 100000000 tuples (8%) done (elapsed 12.73 s, remaining 144.40 s)
8200000 of 100000000 tuples (8%) done (elapsed 12.88 s, remaining 144.16 s)
8300000 of 100000000 tuples (8%) done (elapsed 12.99 s, remaining 143.56 s)
8400000 of 100000000 tuples (8%) done (elapsed 13.27 s, remaining 144.70 s)
8500000 of 100000000 tuples (8%) done (elapsed 13.43 s, remaining 144.57 s)
8600000 of 100000000 tuples (8%) done (elapsed 13.54 s, remaining 143.87 s)
8700000 of 100000000 tuples (8%) done (elapsed 13.69 s, remaining 143.71 s)
8800000 of 100000000 tuples (8%) done (elapsed 13.87 s, remaining 143.72 s)
8900000 of 100000000 tuples (8%) done (elapsed 14.03 s, remaining 143.58 s)
9000000 of 100000000 tuples (9%) done (elapsed 14.15 s, remaining 143.05 s)
9100000 of 100000000 tuples (9%) done (elapsed 14.31 s, remaining 142.92 s)
9200000 of 100000000 tuples (9%) done (elapsed 14.58 s, remaining 143.86 s)
9300000 of 100000000 tuples (9%) done (elapsed 14.70 s, remaining 143.37 s)
9400000 of 100000000 tuples (9%) done (elapsed 14.81 s, remaining 142.72 s)
9500000 of 100000000 tuples (9%) done (elapsed 14.98 s, remaining 142.69 s)
9600000 of 100000000 tuples (9%) done (elapsed 15.13 s, remaining 142.52 s)
9700000 of 100000000 tuples (9%) done (elapsed 15.25 s, remaining 141.94 s)
9800000 of 100000000 tuples (9%) done (elapsed 15.41 s, remaining 141.84 s)
9900000 of 100000000 tuples (9%) done (elapsed 15.57 s, remaining 141.70 s)
10000000 of 100000000 tuples (10%) done (elapsed 15.68 s, remaining 141.13 s)
10100000 of 100000000 tuples (10%) done (elapsed 15.98 s, remaining 142.25 s)
10200000 of 100000000 tuples (10%) done (elapsed 16.14 s, remaining 142.10 s)
10300000 of 100000000 tuples (10%) done (elapsed 16.31 s, remaining 142.00 s)
10400000 of 100000000 tuples (10%) done (elapsed 16.42 s, remaining 141.44 s)
10500000 of 100000000 tuples (10%) done (elapsed 16.59 s, remaining 141.39 s)
10600000 of 100000000 tuples (10%) done (elapsed 16.71 s, remaining 140.94 s)
10700000 of 100000000 tuples (10%) done (elapsed 16.87 s, remaining 140.77 s)
10800000 of 100000000 tuples (10%) done (elapsed 16.98 s, remaining 140.25 s)
10900000 of 100000000 tuples (10%) done (elapsed 17.26 s, remaining 141.13 s)
11000000 of 100000000 tuples (11%) done (elapsed 17.42 s, remaining 140.97 s)
11100000 of 100000000 tuples (11%) done (elapsed 17.53 s, remaining 140.39 s)
11200000 of 100000000 tuples (11%) done (elapsed 17.70 s, remaining 140.31 s)
11300000 of 100000000 tuples (11%) done (elapsed 17.88 s, remaining 140.36 s)
11400000 of 100000000 tuples (11%) done (elapsed 18.05 s, remaining 140.25 s)
11500000 of 100000000 tuples (11%) done (elapsed 18.17 s, remaining 139.80 s)
11600000 of 100000000 tuples (11%) done (elapsed 18.27 s, remaining 139.23 s)
11700000 of 100000000 tuples (11%) done (elapsed 18.55 s, remaining 139.99 s)
11800000 of 100000000 tuples (11%) done (elapsed 18.72 s, remaining 139.89 s)
11900000 of 100000000 tuples (11%) done (elapsed 18.87 s, remaining 139.71 s)
12000000 of 100000000 tuples (12%) done (elapsed 18.98 s, remaining 139.22 s)
12100000 of 100000000 tuples (12%) done (elapsed 19.15 s, remaining 139.12 s)
12200000 of 100000000 tuples (12%) done (elapsed 19.32 s, remaining 139.01 s)
12300000 of 100000000 tuples (12%) done (elapsed 19.48 s, remaining 138.87 s)
12400000 of 100000000 tuples (12%) done (elapsed 19.59 s, remaining 138.42 s)
12500000 of 100000000 tuples (12%) done (elapsed 19.72 s, remaining 138.05 s)
12600000 of 100000000 tuples (12%) done (elapsed 19.89 s, remaining 137.97 s)
12700000 of 100000000 tuples (12%) done (elapsed 19.99 s, remaining 137.42 s)
12800000 of 100000000 tuples (12%) done (elapsed 20.16 s, remaining 137.36 s)
12900000 of 100000000 tuples (12%) done (elapsed 20.32 s, remaining 137.21 s)
13000000 of 100000000 tuples (13%) done (elapsed 20.43 s, remaining 136.71 s)
13100000 of 100000000 tuples (13%) done (elapsed 20.60 s, remaining 136.65 s)
13200000 of 100000000 tuples (13%) done (elapsed 20.76 s, remaining 136.49 s)
13300000 of 100000000 tuples (13%) done (elapsed 20.87 s, remaining 136.05 s)
13400000 of 100000000 tuples (13%) done (elapsed 21.15 s, remaining 136.69 s)
13500000 of 100000000 tuples (13%) done (elapsed 21.32 s, remaining 136.58 s)
13600000 of 100000000 tuples (13%) done (elapsed 21.48 s, remaining 136.47 s)
13700000 of 100000000 tuples (13%) done (elapsed 21.65 s, remaining 136.40 s)
13800000 of 100000000 tuples (13%) done (elapsed 21.77 s, remaining 135.98 s)
13900000 of 100000000 tuples (13%) done (elapsed 21.89 s, remaining 135.61 s)
14000000 of 100000000 tuples (14%) done (elapsed 22.06 s, remaining 135.50 s)
14100000 of 100000000 tuples (14%) done (elapsed 22.16 s, remaining 135.03 s)
14200000 of 100000000 tuples (14%) done (elapsed 22.44 s, remaining 135.60 s)
14300000 of 100000000 tuples (14%) done (elapsed 22.61 s, remaining 135.50 s)
14400000 of 100000000 tuples (14%) done (elapsed 22.78 s, remaining 135.39 s)
14500000 of 100000000 tuples (14%) done (elapsed 22.89 s, remaining 134.94 s)
14600000 of 100000000 tuples (14%) done (elapsed 23.05 s, remaining 134.86 s)
14700000 of 100000000 tuples (14%) done (elapsed 23.22 s, remaining 134.75 s)
14800000 of 100000000 tuples (14%) done (elapsed 23.38 s, remaining 134.58 s)
14900000 of 100000000 tuples (14%) done (elapsed 23.49 s, remaining 134.19 s)
15000000 of 100000000 tuples (15%) done (elapsed 23.62 s, remaining 133.85 s)
15100000 of 100000000 tuples (15%) done (elapsed 23.79 s, remaining 133.77 s)
15200000 of 100000000 tuples (15%) done (elapsed 23.89 s, remaining 133.31 s)
15300000 of 100000000 tuples (15%) done (elapsed 24.06 s, remaining 133.19 s)
15400000 of 100000000 tuples (15%) done (elapsed 24.23 s, remaining 133.08 s)
15500000 of 100000000 tuples (15%) done (elapsed 24.34 s, remaining 132.68 s)
15600000 of 100000000 tuples (15%) done (elapsed 24.50 s, remaining 132.56 s)
15700000 of 100000000 tuples (15%) done (elapsed 24.78 s, remaining 133.04 s)
15800000 of 100000000 tuples (15%) done (elapsed 24.94 s, remaining 132.90 s)
15900000 of 100000000 tuples (15%) done (elapsed 25.05 s, remaining 132.51 s)
16000000 of 100000000 tuples (16%) done (elapsed 25.22 s, remaining 132.41 s)
16100000 of 100000000 tuples (16%) done (elapsed 25.40 s, remaining 132.36 s)
16200000 of 100000000 tuples (16%) done (elapsed 25.57 s, remaining 132.29 s)
16300000 of 100000000 tuples (16%) done (elapsed 25.69 s, remaining 131.92 s)
16400000 of 100000000 tuples (16%) done (elapsed 25.81 s, remaining 131.59 s)
16500000 of 100000000 tuples (16%) done (elapsed 26.09 s, remaining 132.01 s)
16600000 of 100000000 tuples (16%) done (elapsed 26.25 s, remaining 131.89 s)
16700000 of 100000000 tuples (16%) done (elapsed 26.36 s, remaining 131.50 s)
16800000 of 100000000 tuples (16%) done (elapsed 26.53 s, remaining 131.40 s)
16900000 of 100000000 tuples (16%) done (elapsed 26.69 s, remaining 131.25 s)
17000000 of 100000000 tuples (17%) done (elapsed 26.85 s, remaining 131.12 s)
17100000 of 100000000 tuples (17%) done (elapsed 26.97 s, remaining 130.76 s)
17200000 of 100000000 tuples (17%) done (elapsed 27.14 s, remaining 130.67 s)
17300000 of 100000000 tuples (17%) done (elapsed 27.27 s, remaining 130.37 s)
17400000 of 100000000 tuples (17%) done (elapsed 27.38 s, remaining 129.96 s)
17500000 of 100000000 tuples (17%) done (elapsed 27.56 s, remaining 129.94 s)
17600000 of 100000000 tuples (17%) done (elapsed 27.73 s, remaining 129.82 s)
17700000 of 100000000 tuples (17%) done (elapsed 27.83 s, remaining 129.39 s)
17800000 of 100000000 tuples (17%) done (elapsed 28.00 s, remaining 129.30 s)
17900000 of 100000000 tuples (17%) done (elapsed 28.17 s, remaining 129.20 s)
18000000 of 100000000 tuples (18%) done (elapsed 28.33 s, remaining 129.04 s)
18100000 of 100000000 tuples (18%) done (elapsed 28.44 s, remaining 128.70 s)
18200000 of 100000000 tuples (18%) done (elapsed 28.65 s, remaining 128.76 s)
18300000 of 100000000 tuples (18%) done (elapsed 28.76 s, remaining 128.40 s)
18400000 of 100000000 tuples (18%) done (elapsed 28.93 s, remaining 128.30 s)
18500000 of 100000000 tuples (18%) done (elapsed 29.09 s, remaining 128.15 s)
18600000 of 100000000 tuples (18%) done (elapsed 29.19 s, remaining 127.76 s)
18700000 of 100000000 tuples (18%) done (elapsed 29.37 s, remaining 127.69 s)
18800000 of 100000000 tuples (18%) done (elapsed 29.52 s, remaining 127.52 s)
18900000 of 100000000 tuples (18%) done (elapsed 29.78 s, remaining 127.79 s)
19000000 of 100000000 tuples (19%) done (elapsed 29.90 s, remaining 127.48 s)
19100000 of 100000000 tuples (19%) done (elapsed 30.05 s, remaining 127.28 s)
19200000 of 100000000 tuples (19%) done (elapsed 30.17 s, remaining 126.97 s)
19300000 of 100000000 tuples (19%) done (elapsed 30.33 s, remaining 126.83 s)
19400000 of 100000000 tuples (19%) done (elapsed 30.45 s, remaining 126.50 s)
19500000 of 100000000 tuples (19%) done (elapsed 30.62 s, remaining 126.40 s)
19600000 of 100000000 tuples (19%) done (elapsed 30.76 s, remaining 126.20 s)
19700000 of 100000000 tuples (19%) done (elapsed 30.87 s, remaining 125.83 s)
19800000 of 100000000 tuples (19%) done (elapsed 31.16 s, remaining 126.21 s)
19900000 of 100000000 tuples (19%) done (elapsed 31.32 s, remaining 126.09 s)
20000000 of 100000000 tuples (20%) done (elapsed 31.49 s, remaining 125.95 s)
20100000 of 100000000 tuples (20%) done (elapsed 31.61 s, remaining 125.64 s)
20200000 of 100000000 tuples (20%) done (elapsed 31.78 s, remaining 125.54 s)
20300000 of 100000000 tuples (20%) done (elapsed 31.94 s, remaining 125.39 s)
20400000 of 100000000 tuples (20%) done (elapsed 32.05 s, remaining 125.04 s)
20500000 of 100000000 tuples (20%) done (elapsed 32.22 s, remaining 124.96 s)
20600000 of 100000000 tuples (20%) done (elapsed 32.35 s, remaining 124.71 s)
20700000 of 100000000 tuples (20%) done (elapsed 32.51 s, remaining 124.55 s)
20800000 of 100000000 tuples (20%) done (elapsed 32.63 s, remaining 124.24 s)
20900000 of 100000000 tuples (20%) done (elapsed 32.80 s, remaining 124.13 s)
21000000 of 100000000 tuples (21%) done (elapsed 32.96 s, remaining 123.98 s)
21100000 of 100000000 tuples (21%) done (elapsed 33.07 s, remaining 123.66 s)
21200000 of 100000000 tuples (21%) done (elapsed 33.25 s, remaining 123.58 s)
21300000 of 100000000 tuples (21%) done (elapsed 33.42 s, remaining 123.50 s)
21400000 of 100000000 tuples (21%) done (elapsed 33.69 s, remaining 123.76 s)
21500000 of 100000000 tuples (21%) done (elapsed 33.82 s, remaining 123.48 s)
21600000 of 100000000 tuples (21%) done (elapsed 33.98 s, remaining 123.35 s)
21700000 of 100000000 tuples (21%) done (elapsed 34.15 s, remaining 123.24 s)
21800000 of 100000000 tuples (21%) done (elapsed 34.28 s, remaining 122.97 s)
21900000 of 100000000 tuples (21%) done (elapsed 34.39 s, remaining 122.63 s)
22000000 of 100000000 tuples (22%) done (elapsed 34.56 s, remaining 122.54 s)
22100000 of 100000000 tuples (22%) done (elapsed 34.73 s, remaining 122.41 s)
22200000 of 100000000 tuples (22%) done (elapsed 34.83 s, remaining 122.08 s)
22300000 of 100000000 tuples (22%) done (elapsed 35.13 s, remaining 122.40 s)
22400000 of 100000000 tuples (22%) done (elapsed 35.29 s, remaining 122.26 s)
22500000 of 100000000 tuples (22%) done (elapsed 35.46 s, remaining 122.14 s)
22600000 of 100000000 tuples (22%) done (elapsed 35.57 s, remaining 121.83 s)
22700000 of 100000000 tuples (22%) done (elapsed 35.74 s, remaining 121.71 s)
22800000 of 100000000 tuples (22%) done (elapsed 35.92 s, remaining 121.61 s)
22900000 of 100000000 tuples (22%) done (elapsed 36.04 s, remaining 121.33 s)
23000000 of 100000000 tuples (23%) done (elapsed 36.15 s, remaining 121.03 s)
23100000 of 100000000 tuples (23%) done (elapsed 36.43 s, remaining 121.29 s)
23200000 of 100000000 tuples (23%) done (elapsed 36.60 s, remaining 121.15 s)
23300000 of 100000000 tuples (23%) done (elapsed 36.75 s, remaining 120.99 s)
23400000 of 100000000 tuples (23%) done (elapsed 36.87 s, remaining 120.69 s)
23500000 of 100000000 tuples (23%) done (elapsed 37.04 s, remaining 120.58 s)
23600000 of 100000000 tuples (23%) done (elapsed 37.22 s, remaining 120.48 s)
23700000 of 100000000 tuples (23%) done (elapsed 37.34 s, remaining 120.23 s)
23800000 of 100000000 tuples (23%) done (elapsed 37.45 s, remaining 119.89 s)
23900000 of 100000000 tuples (23%) done (elapsed 37.73 s, remaining 120.15 s)
24000000 of 100000000 tuples (24%) done (elapsed 37.88 s, remaining 119.95 s)
24100000 of 100000000 tuples (24%) done (elapsed 38.05 s, remaining 119.82 s)
24200000 of 100000000 tuples (24%) done (elapsed 38.15 s, remaining 119.51 s)
24300000 of 100000000 tuples (24%) done (elapsed 38.32 s, remaining 119.38 s)
24400000 of 100000000 tuples (24%) done (elapsed 38.47 s, remaining 119.19 s)
24500000 of 100000000 tuples (24%) done (elapsed 38.62 s, remaining 119.02 s)
24600000 of 100000000 tuples (24%) done (elapsed 38.72 s, remaining 118.68 s)
24700000 of 100000000 tuples (24%) done (elapsed 39.02 s, remaining 118.94 s)
24800000 of 100000000 tuples (24%) done (elapsed 39.14 s, remaining 118.70 s)
24900000 of 100000000 tuples (24%) done (elapsed 39.24 s, remaining 118.36 s)
25000000 of 100000000 tuples (25%) done (elapsed 39.42 s, remaining 118.25 s)
25100000 of 100000000 tuples (25%) done (elapsed 39.58 s, remaining 118.10 s)
25200000 of 100000000 tuples (25%) done (elapsed 39.68 s, remaining 117.79 s)
25300000 of 100000000 tuples (25%) done (elapsed 39.84 s, remaining 117.62 s)
25400000 of 100000000 tuples (25%) done (elapsed 39.99 s, remaining 117.45 s)
25500000 of 100000000 tuples (25%) done (elapsed 40.10 s, remaining 117.15 s)
25600000 of 100000000 tuples (25%) done (elapsed 40.39 s, remaining 117.38 s)
25700000 of 100000000 tuples (25%) done (elapsed 40.56 s, remaining 117.26 s)
25800000 of 100000000 tuples (25%) done (elapsed 40.72 s, remaining 117.11 s)
25900000 of 100000000 tuples (25%) done (elapsed 40.83 s, remaining 116.80 s)
26000000 of 100000000 tuples (26%) done (elapsed 40.99 s, remaining 116.68 s)
26100000 of 100000000 tuples (26%) done (elapsed 41.18 s, remaining 116.59 s)
26200000 of 100000000 tuples (26%) done (elapsed 41.30 s, remaining 116.34 s)
26300000 of 100000000 tuples (26%) done (elapsed 41.41 s, remaining 116.03 s)
26400000 of 100000000 tuples (26%) done (elapsed 41.69 s, remaining 116.23 s)
26500000 of 100000000 tuples (26%) done (elapsed 41.86 s, remaining 116.10 s)
26600000 of 100000000 tuples (26%) done (elapsed 42.02 s, remaining 115.95 s)
26700000 of 100000000 tuples (26%) done (elapsed 42.18 s, remaining 115.80 s)
26800000 of 100000000 tuples (26%) done (elapsed 42.30 s, remaining 115.53 s)
26900000 of 100000000 tuples (26%) done (elapsed 42.47 s, remaining 115.40 s)
27000000 of 100000000 tuples (27%) done (elapsed 42.59 s, remaining 115.14 s)
27100000 of 100000000 tuples (27%) done (elapsed 42.86 s, remaining 115.28 s)
27200000 of 100000000 tuples (27%) done (elapsed 42.98 s, remaining 115.03 s)
27300000 of 100000000 tuples (27%) done (elapsed 43.13 s, remaining 114.86 s)
27400000 of 100000000 tuples (27%) done (elapsed 43.30 s, remaining 114.72 s)
27500000 of 100000000 tuples (27%) done (elapsed 43.45 s, remaining 114.56 s)
27600000 of 100000000 tuples (27%) done (elapsed 43.59 s, remaining 114.35 s)
27700000 of 100000000 tuples (27%) done (elapsed 43.76 s, remaining 114.23 s)
27800000 of 100000000 tuples (27%) done (elapsed 43.94 s, remaining 114.12 s)
27900000 of 100000000 tuples (27%) done (elapsed 44.07 s, remaining 113.89 s)
28000000 of 100000000 tuples (28%) done (elapsed 44.18 s, remaining 113.60 s)
28100000 of 100000000 tuples (28%) done (elapsed 44.35 s, remaining 113.49 s)
28200000 of 100000000 tuples (28%) done (elapsed 44.52 s, remaining 113.34 s)
28300000 of 100000000 tuples (28%) done (elapsed 44.62 s, remaining 113.05 s)
28400000 of 100000000 tuples (28%) done (elapsed 44.79 s, remaining 112.92 s)
28500000 of 100000000 tuples (28%) done (elapsed 44.96 s, remaining 112.79 s)
28600000 of 100000000 tuples (28%) done (elapsed 45.07 s, remaining 112.52 s)
28700000 of 100000000 tuples (28%) done (elapsed 45.25 s, remaining 112.43 s)
28800000 of 100000000 tuples (28%) done (elapsed 45.54 s, remaining 112.58 s)
28900000 of 100000000 tuples (28%) done (elapsed 45.69 s, remaining 112.41 s)
29000000 of 100000000 tuples (29%) done (elapsed 45.81 s, remaining 112.16 s)
29100000 of 100000000 tuples (29%) done (elapsed 45.89 s, remaining 111.81 s)
29200000 of 100000000 tuples (29%) done (elapsed 46.05 s, remaining 111.65 s)
29300000 of 100000000 tuples (29%) done (elapsed 46.19 s, remaining 111.45 s)
29400000 of 100000000 tuples (29%) done (elapsed 46.30 s, remaining 111.19 s)
29500000 of 100000000 tuples (29%) done (elapsed 46.47 s, remaining 111.05 s)
29600000 of 100000000 tuples (29%) done (elapsed 46.75 s, remaining 111.20 s)
29700000 of 100000000 tuples (29%) done (elapsed 46.88 s, remaining 110.95 s)
29800000 of 100000000 tuples (29%) done (elapsed 47.05 s, remaining 110.84 s)
29900000 of 100000000 tuples (29%) done (elapsed 47.22 s, remaining 110.72 s)
30000000 of 100000000 tuples (30%) done (elapsed 47.40 s, remaining 110.59 s)
30100000 of 100000000 tuples (30%) done (elapsed 47.56 s, remaining 110.45 s)
30200000 of 100000000 tuples (30%) done (elapsed 47.69 s, remaining 110.23 s)
30300000 of 100000000 tuples (30%) done (elapsed 47.81 s, remaining 109.98 s)
30400000 of 100000000 tuples (30%) done (elapsed 48.10 s, remaining 110.13 s)
30500000 of 100000000 tuples (30%) done (elapsed 48.27 s, remaining 110.00 s)
30600000 of 100000000 tuples (30%) done (elapsed 48.39 s, remaining 109.74 s)
30700000 of 100000000 tuples (30%) done (elapsed 48.56 s, remaining 109.62 s)
30800000 of 100000000 tuples (30%) done (elapsed 48.73 s, remaining 109.49 s)
30900000 of 100000000 tuples (30%) done (elapsed 48.90 s, remaining 109.36 s)
31000000 of 100000000 tuples (31%) done (elapsed 49.02 s, remaining 109.11 s)
31100000 of 100000000 tuples (31%) done (elapsed 49.14 s, remaining 108.88 s)
31200000 of 100000000 tuples (31%) done (elapsed 49.43 s, remaining 109.01 s)
31300000 of 100000000 tuples (31%) done (elapsed 49.60 s, remaining 108.86 s)
31400000 of 100000000 tuples (31%) done (elapsed 49.71 s, remaining 108.61 s)
31500000 of 100000000 tuples (31%) done (elapsed 49.88 s, remaining 108.46 s)
31600000 of 100000000 tuples (31%) done (elapsed 50.04 s, remaining 108.32 s)
31700000 of 100000000 tuples (31%) done (elapsed 50.21 s, remaining 108.18 s)
31800000 of 100000000 tuples (31%) done (elapsed 50.33 s, remaining 107.94 s)
31900000 of 100000000 tuples (31%) done (elapsed 50.46 s, remaining 107.73 s)
32000000 of 100000000 tuples (32%) done (elapsed 50.77 s, remaining 107.88 s)
32100000 of 100000000 tuples (32%) done (elapsed 50.96 s, remaining 107.79 s)
32200000 of 100000000 tuples (32%) done (elapsed 51.12 s, remaining 107.63 s)
32300000 of 100000000 tuples (32%) done (elapsed 51.23 s, remaining 107.37 s)
32400000 of 100000000 tuples (32%) done (elapsed 51.40 s, remaining 107.24 s)
32500000 of 100000000 tuples (32%) done (elapsed 51.56 s, remaining 107.09 s)
32600000 of 100000000 tuples (32%) done (elapsed 51.68 s, remaining 106.85 s)
32700000 of 100000000 tuples (32%) done (elapsed 51.78 s, remaining 106.58 s)
32800000 of 100000000 tuples (32%) done (elapsed 52.07 s, remaining 106.69 s)
32900000 of 100000000 tuples (32%) done (elapsed 52.24 s, remaining 106.55 s)
33000000 of 100000000 tuples (33%) done (elapsed 52.41 s, remaining 106.41 s)
33100000 of 100000000 tuples (33%) done (elapsed 52.57 s, remaining 106.24 s)
33200000 of 100000000 tuples (33%) done (elapsed 52.69 s, remaining 106.01 s)
33300000 of 100000000 tuples (33%) done (elapsed 52.86 s, remaining 105.87 s)
33400000 of 100000000 tuples (33%) done (elapsed 52.98 s, remaining 105.64 s)
33500000 of 100000000 tuples (33%) done (elapsed 53.25 s, remaining 105.71 s)
33600000 of 100000000 tuples (33%) done (elapsed 53.37 s, remaining 105.48 s)
33700000 of 100000000 tuples (33%) done (elapsed 53.55 s, remaining 105.35 s)
33800000 of 100000000 tuples (33%) done (elapsed 53.71 s, remaining 105.20 s)
33900000 of 100000000 tuples (33%) done (elapsed 53.86 s, remaining 105.03 s)
34000000 of 100000000 tuples (34%) done (elapsed 53.97 s, remaining 104.76 s)
34100000 of 100000000 tuples (34%) done (elapsed 54.12 s, remaining 104.59 s)
34200000 of 100000000 tuples (34%) done (elapsed 54.28 s, remaining 104.43 s)
34300000 of 100000000 tuples (34%) done (elapsed 54.38 s, remaining 104.17 s)
34400000 of 100000000 tuples (34%) done (elapsed 54.69 s, remaining 104.29 s)
34500000 of 100000000 tuples (34%) done (elapsed 54.81 s, remaining 104.06 s)
34600000 of 100000000 tuples (34%) done (elapsed 54.99 s, remaining 103.93 s)
34700000 of 100000000 tuples (34%) done (elapsed 55.09 s, remaining 103.68 s)
34800000 of 100000000 tuples (34%) done (elapsed 55.26 s, remaining 103.53 s)
34900000 of 100000000 tuples (34%) done (elapsed 55.43 s, remaining 103.39 s)
35000000 of 100000000 tuples (35%) done (elapsed 55.53 s, remaining 103.14 s)
35100000 of 100000000 tuples (35%) done (elapsed 55.71 s, remaining 103.00 s)
35200000 of 100000000 tuples (35%) done (elapsed 56.00 s, remaining 103.09 s)
35300000 of 100000000 tuples (35%) done (elapsed 56.16 s, remaining 102.94 s)
35400000 of 100000000 tuples (35%) done (elapsed 56.27 s, remaining 102.69 s)
35500000 of 100000000 tuples (35%) done (elapsed 56.45 s, remaining 102.56 s)
35600000 of 100000000 tuples (35%) done (elapsed 56.57 s, remaining 102.33 s)
35700000 of 100000000 tuples (35%) done (elapsed 56.74 s, remaining 102.19 s)
35800000 of 100000000 tuples (35%) done (elapsed 56.84 s, remaining 101.93 s)
35900000 of 100000000 tuples (35%) done (elapsed 57.01 s, remaining 101.80 s)
36000000 of 100000000 tuples (36%) done (elapsed 57.31 s, remaining 101.88 s)
36100000 of 100000000 tuples (36%) done (elapsed 57.47 s, remaining 101.73 s)
36200000 of 100000000 tuples (36%) done (elapsed 57.58 s, remaining 101.48 s)
36300000 of 100000000 tuples (36%) done (elapsed 57.75 s, remaining 101.34 s)
36400000 of 100000000 tuples (36%) done (elapsed 57.92 s, remaining 101.19 s)
36500000 of 100000000 tuples (36%) done (elapsed 58.07 s, remaining 101.02 s)
36600000 of 100000000 tuples (36%) done (elapsed 58.19 s, remaining 100.81 s)
36700000 of 100000000 tuples (36%) done (elapsed 58.31 s, remaining 100.58 s)
36800000 of 100000000 tuples (36%) done (elapsed 58.59 s, remaining 100.62 s)
36900000 of 100000000 tuples (36%) done (elapsed 58.75 s, remaining 100.46 s)
37000000 of 100000000 tuples (37%) done (elapsed 58.87 s, remaining 100.23 s)
37100000 of 100000000 tuples (37%) done (elapsed 59.05 s, remaining 100.11 s)
37200000 of 100000000 tuples (37%) done (elapsed 59.22 s, remaining 99.97 s)
37300000 of 100000000 tuples (37%) done (elapsed 59.37 s, remaining 99.80 s)
37400000 of 100000000 tuples (37%) done (elapsed 59.49 s, remaining 99.58 s)
37500000 of 100000000 tuples (37%) done (elapsed 59.62 s, remaining 99.36 s)
37600000 of 100000000 tuples (37%) done (elapsed 59.89 s, remaining 99.40 s)
37700000 of 100000000 tuples (37%) done (elapsed 60.06 s, remaining 99.25 s)
37800000 of 100000000 tuples (37%) done (elapsed 60.16 s, remaining 99.00 s)
37900000 of 100000000 tuples (37%) done (elapsed 60.34 s, remaining 98.87 s)
38000000 of 100000000 tuples (38%) done (elapsed 60.51 s, remaining 98.73 s)
38100000 of 100000000 tuples (38%) done (elapsed 60.67 s, remaining 98.57 s)
38200000 of 100000000 tuples (38%) done (elapsed 60.78 s, remaining 98.33 s)
38300000 of 100000000 tuples (38%) done (elapsed 60.90 s, remaining 98.11 s)
38400000 of 100000000 tuples (38%) done (elapsed 61.19 s, remaining 98.15 s)
38500000 of 100000000 tuples (38%) done (elapsed 61.35 s, remaining 98.00 s)
38600000 of 100000000 tuples (38%) done (elapsed 61.51 s, remaining 97.85 s)
38700000 of 100000000 tuples (38%) done (elapsed 61.62 s, remaining 97.61 s)
38800000 of 100000000 tuples (38%) done (elapsed 61.79 s, remaining 97.47 s)
38900000 of 100000000 tuples (38%) done (elapsed 61.96 s, remaining 97.31 s)
39000000 of 100000000 tuples (39%) done (elapsed 62.06 s, remaining 97.06 s)
39100000 of 100000000 tuples (39%) done (elapsed 62.23 s, remaining 96.92 s)
39200000 of 100000000 tuples (39%) done (elapsed 62.38 s, remaining 96.76 s)
39300000 of 100000000 tuples (39%) done (elapsed 62.55 s, remaining 96.61 s)
39400000 of 100000000 tuples (39%) done (elapsed 62.65 s, remaining 96.36 s)
39500000 of 100000000 tuples (39%) done (elapsed 62.82 s, remaining 96.22 s)
39600000 of 100000000 tuples (39%) done (elapsed 63.00 s, remaining 96.09 s)
39700000 of 100000000 tuples (39%) done (elapsed 63.11 s, remaining 95.85 s)
39800000 of 100000000 tuples (39%) done (elapsed 63.27 s, remaining 95.70 s)
39900000 of 100000000 tuples (39%) done (elapsed 63.44 s, remaining 95.56 s)
40000000 of 100000000 tuples (40%) done (elapsed 63.71 s, remaining 95.57 s)
40100000 of 100000000 tuples (40%) done (elapsed 63.82 s, remaining 95.34 s)
40200000 of 100000000 tuples (40%) done (elapsed 64.00 s, remaining 95.20 s)
40300000 of 100000000 tuples (40%) done (elapsed 64.17 s, remaining 95.06 s)
40400000 of 100000000 tuples (40%) done (elapsed 64.29 s, remaining 94.84 s)
40500000 of 100000000 tuples (40%) done (elapsed 64.40 s, remaining 94.61 s)
40600000 of 100000000 tuples (40%) done (elapsed 64.56 s, remaining 94.46 s)
40700000 of 100000000 tuples (40%) done (elapsed 64.73 s, remaining 94.31 s)
40800000 of 100000000 tuples (40%) done (elapsed 64.84 s, remaining 94.08 s)
40900000 of 100000000 tuples (40%) done (elapsed 65.13 s, remaining 94.11 s)
41000000 of 100000000 tuples (41%) done (elapsed 65.30 s, remaining 93.97 s)
41100000 of 100000000 tuples (41%) done (elapsed 65.46 s, remaining 93.81 s)
41200000 of 100000000 tuples (41%) done (elapsed 65.57 s, remaining 93.59 s)
41300000 of 100000000 tuples (41%) done (elapsed 65.74 s, remaining 93.44 s)
41400000 of 100000000 tuples (41%) done (elapsed 65.90 s, remaining 93.29 s)
41500000 of 100000000 tuples (41%) done (elapsed 66.02 s, remaining 93.07 s)
41600000 of 100000000 tuples (41%) done (elapsed 66.13 s, remaining 92.84 s)
41700000 of 100000000 tuples (41%) done (elapsed 66.41 s, remaining 92.85 s)
41800000 of 100000000 tuples (41%) done (elapsed 66.59 s, remaining 92.71 s)
41900000 of 100000000 tuples (41%) done (elapsed 66.75 s, remaining 92.55 s)
42000000 of 100000000 tuples (42%) done (elapsed 66.85 s, remaining 92.32 s)
42100000 of 100000000 tuples (42%) done (elapsed 67.02 s, remaining 92.18 s)
42200000 of 100000000 tuples (42%) done (elapsed 67.20 s, remaining 92.04 s)
42300000 of 100000000 tuples (42%) done (elapsed 67.37 s, remaining 91.89 s)
42400000 of 100000000 tuples (42%) done (elapsed 67.47 s, remaining 91.66 s)
42500000 of 100000000 tuples (42%) done (elapsed 67.60 s, remaining 91.46 s)
42600000 of 100000000 tuples (42%) done (elapsed 67.78 s, remaining 91.32 s)
42700000 of 100000000 tuples (42%) done (elapsed 67.88 s, remaining 91.09 s)
42800000 of 100000000 tuples (42%) done (elapsed 68.05 s, remaining 90.94 s)
42900000 of 100000000 tuples (42%) done (elapsed 68.22 s, remaining 90.81 s)
43000000 of 100000000 tuples (43%) done (elapsed 68.33 s, remaining 90.57 s)
43100000 of 100000000 tuples (43%) done (elapsed 68.50 s, remaining 90.43 s)
43200000 of 100000000 tuples (43%) done (elapsed 68.66 s, remaining 90.28 s)
43300000 of 100000000 tuples (43%) done (elapsed 68.95 s, remaining 90.29 s)
43400000 of 100000000 tuples (43%) done (elapsed 69.07 s, remaining 90.07 s)
43500000 of 100000000 tuples (43%) done (elapsed 69.23 s, remaining 89.92 s)
43600000 of 100000000 tuples (43%) done (elapsed 69.41 s, remaining 89.78 s)
43700000 of 100000000 tuples (43%) done (elapsed 69.53 s, remaining 89.58 s)
43800000 of 100000000 tuples (43%) done (elapsed 69.63 s, remaining 89.34 s)
43900000 of 100000000 tuples (43%) done (elapsed 69.80 s, remaining 89.20 s)
44000000 of 100000000 tuples (44%) done (elapsed 69.97 s, remaining 89.05 s)
44100000 of 100000000 tuples (44%) done (elapsed 70.07 s, remaining 88.82 s)
44200000 of 100000000 tuples (44%) done (elapsed 70.36 s, remaining 88.83 s)
44300000 of 100000000 tuples (44%) done (elapsed 70.53 s, remaining 88.68 s)
44400000 of 100000000 tuples (44%) done (elapsed 70.70 s, remaining 88.53 s)
44500000 of 100000000 tuples (44%) done (elapsed 70.81 s, remaining 88.31 s)
44600000 of 100000000 tuples (44%) done (elapsed 70.98 s, remaining 88.17 s)
44700000 of 100000000 tuples (44%) done (elapsed 71.15 s, remaining 88.03 s)
44800000 of 100000000 tuples (44%) done (elapsed 71.28 s, remaining 87.83 s)
44900000 of 100000000 tuples (44%) done (elapsed 71.55 s, remaining 87.80 s)
45000000 of 100000000 tuples (45%) done (elapsed 71.67 s, remaining 87.60 s)
45100000 of 100000000 tuples (45%) done (elapsed 71.83 s, remaining 87.44 s)
45200000 of 100000000 tuples (45%) done (elapsed 72.01 s, remaining 87.30 s)
45300000 of 100000000 tuples (45%) done (elapsed 72.17 s, remaining 87.14 s)
45400000 of 100000000 tuples (45%) done (elapsed 72.28 s, remaining 86.92 s)
45500000 of 100000000 tuples (45%) done (elapsed 72.45 s, remaining 86.77 s)
45600000 of 100000000 tuples (45%) done (elapsed 72.57 s, remaining 86.58 s)
45700000 of 100000000 tuples (45%) done (elapsed 72.86 s, remaining 86.57 s)
45800000 of 100000000 tuples (45%) done (elapsed 72.97 s, remaining 86.35 s)
45900000 of 100000000 tuples (45%) done (elapsed 73.14 s, remaining 86.20 s)
46000000 of 100000000 tuples (46%) done (elapsed 73.30 s, remaining 86.05 s)
46100000 of 100000000 tuples (46%) done (elapsed 73.47 s, remaining 85.90 s)
46200000 of 100000000 tuples (46%) done (elapsed 73.57 s, remaining 85.67 s)
46300000 of 100000000 tuples (46%) done (elapsed 73.73 s, remaining 85.52 s)
46400000 of 100000000 tuples (46%) done (elapsed 73.84 s, remaining 85.30 s)
46500000 of 100000000 tuples (46%) done (elapsed 74.14 s, remaining 85.30 s)
46600000 of 100000000 tuples (46%) done (elapsed 74.31 s, remaining 85.15 s)
46700000 of 100000000 tuples (46%) done (elapsed 74.47 s, remaining 85.00 s)
46800000 of 100000000 tuples (46%) done (elapsed 74.58 s, remaining 84.78 s)
46900000 of 100000000 tuples (46%) done (elapsed 74.75 s, remaining 84.63 s)
47000000 of 100000000 tuples (47%) done (elapsed 74.88 s, remaining 84.44 s)
47100000 of 100000000 tuples (47%) done (elapsed 75.04 s, remaining 84.28 s)
47200000 of 100000000 tuples (47%) done (elapsed 75.16 s, remaining 84.08 s)
47300000 of 100000000 tuples (47%) done (elapsed 75.44 s, remaining 84.06 s)
47400000 of 100000000 tuples (47%) done (elapsed 75.61 s, remaining 83.91 s)
47500000 of 100000000 tuples (47%) done (elapsed 75.78 s, remaining 83.75 s)
47600000 of 100000000 tuples (47%) done (elapsed 75.89 s, remaining 83.54 s)
47700000 of 100000000 tuples (47%) done (elapsed 76.06 s, remaining 83.39 s)
47800000 of 100000000 tuples (47%) done (elapsed 76.22 s, remaining 83.24 s)
47900000 of 100000000 tuples (47%) done (elapsed 76.35 s, remaining 83.05 s)
48000000 of 100000000 tuples (48%) done (elapsed 76.46 s, remaining 82.83 s)
48100000 of 100000000 tuples (48%) done (elapsed 76.76 s, remaining 82.83 s)
48200000 of 100000000 tuples (48%) done (elapsed 76.93 s, remaining 82.68 s)
48300000 of 100000000 tuples (48%) done (elapsed 77.10 s, remaining 82.52 s)
48400000 of 100000000 tuples (48%) done (elapsed 77.26 s, remaining 82.37 s)
48500000 of 100000000 tuples (48%) done (elapsed 77.38 s, remaining 82.16 s)
48600000 of 100000000 tuples (48%) done (elapsed 77.55 s, remaining 82.02 s)
48700000 of 100000000 tuples (48%) done (elapsed 77.67 s, remaining 81.82 s)
48800000 of 100000000 tuples (48%) done (elapsed 77.77 s, remaining 81.60 s)
48900000 of 100000000 tuples (48%) done (elapsed 78.06 s, remaining 81.58 s)
49000000 of 100000000 tuples (49%) done (elapsed 78.24 s, remaining 81.43 s)
49100000 of 100000000 tuples (49%) done (elapsed 78.40 s, remaining 81.28 s)
49200000 of 100000000 tuples (49%) done (elapsed 78.56 s, remaining 81.12 s)
49300000 of 100000000 tuples (49%) done (elapsed 78.67 s, remaining 80.91 s)
49400000 of 100000000 tuples (49%) done (elapsed 78.84 s, remaining 80.76 s)
49500000 of 100000000 tuples (49%) done (elapsed 79.02 s, remaining 80.62 s)
49600000 of 100000000 tuples (49%) done (elapsed 79.15 s, remaining 80.43 s)
49700000 of 100000000 tuples (49%) done (elapsed 79.25 s, remaining 80.21 s)
49800000 of 100000000 tuples (49%) done (elapsed 79.43 s, remaining 80.07 s)
49900000 of 100000000 tuples (49%) done (elapsed 79.58 s, remaining 79.90 s)
50000000 of 100000000 tuples (50%) done (elapsed 79.70 s, remaining 79.70 s)
50100000 of 100000000 tuples (50%) done (elapsed 79.87 s, remaining 79.55 s)
50200000 of 100000000 tuples (50%) done (elapsed 80.02 s, remaining 79.39 s)
50300000 of 100000000 tuples (50%) done (elapsed 80.14 s, remaining 79.19 s)
50400000 of 100000000 tuples (50%) done (elapsed 80.30 s, remaining 79.03 s)
50500000 of 100000000 tuples (50%) done (elapsed 80.61 s, remaining 79.01 s)
50600000 of 100000000 tuples (50%) done (elapsed 80.77 s, remaining 78.86 s)
50700000 of 100000000 tuples (50%) done (elapsed 80.88 s, remaining 78.65 s)
50800000 of 100000000 tuples (50%) done (elapsed 81.05 s, remaining 78.50 s)
50900000 of 100000000 tuples (50%) done (elapsed 81.17 s, remaining 78.30 s)
51000000 of 100000000 tuples (51%) done (elapsed 81.34 s, remaining 78.15 s)
51100000 of 100000000 tuples (51%) done (elapsed 81.44 s, remaining 77.94 s)
51200000 of 100000000 tuples (51%) done (elapsed 81.61 s, remaining 77.79 s)
51300000 of 100000000 tuples (51%) done (elapsed 81.88 s, remaining 77.73 s)
51400000 of 100000000 tuples (51%) done (elapsed 82.00 s, remaining 77.53 s)
51500000 of 100000000 tuples (51%) done (elapsed 82.16 s, remaining 77.38 s)
51600000 of 100000000 tuples (51%) done (elapsed 82.33 s, remaining 77.23 s)
51700000 of 100000000 tuples (51%) done (elapsed 82.49 s, remaining 77.07 s)
51800000 of 100000000 tuples (51%) done (elapsed 82.60 s, remaining 76.86 s)
51900000 of 100000000 tuples (51%) done (elapsed 82.78 s, remaining 76.72 s)
52000000 of 100000000 tuples (52%) done (elapsed 82.90 s, remaining 76.53 s)
52100000 of 100000000 tuples (52%) done (elapsed 83.19 s, remaining 76.48 s)
52200000 of 100000000 tuples (52%) done (elapsed 83.30 s, remaining 76.27 s)
52300000 of 100000000 tuples (52%) done (elapsed 83.47 s, remaining 76.13 s)
52400000 of 100000000 tuples (52%) done (elapsed 83.64 s, remaining 75.97 s)
52500000 of 100000000 tuples (52%) done (elapsed 83.80 s, remaining 75.82 s)
52600000 of 100000000 tuples (52%) done (elapsed 83.90 s, remaining 75.61 s)
52700000 of 100000000 tuples (52%) done (elapsed 84.08 s, remaining 75.46 s)
52800000 of 100000000 tuples (52%) done (elapsed 84.24 s, remaining 75.31 s)
52900000 of 100000000 tuples (52%) done (elapsed 84.38 s, remaining 75.12 s)
53000000 of 100000000 tuples (53%) done (elapsed 84.48 s, remaining 74.91 s)
53100000 of 100000000 tuples (53%) done (elapsed 84.65 s, remaining 74.77 s)
53200000 of 100000000 tuples (53%) done (elapsed 84.82 s, remaining 74.61 s)
53300000 of 100000000 tuples (53%) done (elapsed 84.93 s, remaining 74.41 s)
53400000 of 100000000 tuples (53%) done (elapsed 85.10 s, remaining 74.26 s)
53500000 of 100000000 tuples (53%) done (elapsed 85.26 s, remaining 74.11 s)
53600000 of 100000000 tuples (53%) done (elapsed 85.37 s, remaining 73.90 s)
53700000 of 100000000 tuples (53%) done (elapsed 85.54 s, remaining 73.75 s)
53800000 of 100000000 tuples (53%) done (elapsed 85.82 s, remaining 73.70 s)
53900000 of 100000000 tuples (53%) done (elapsed 85.97 s, remaining 73.53 s)
54000000 of 100000000 tuples (54%) done (elapsed 86.13 s, remaining 73.37 s)
54100000 of 100000000 tuples (54%) done (elapsed 86.26 s, remaining 73.18 s)
54200000 of 100000000 tuples (54%) done (elapsed 86.37 s, remaining 72.99 s)
54300000 of 100000000 tuples (54%) done (elapsed 86.54 s, remaining 72.83 s)
54400000 of 100000000 tuples (54%) done (elapsed 86.65 s, remaining 72.63 s)
54500000 of 100000000 tuples (54%) done (elapsed 86.82 s, remaining 72.48 s)
54600000 of 100000000 tuples (54%) done (elapsed 87.11 s, remaining 72.43 s)
54700000 of 100000000 tuples (54%) done (elapsed 87.22 s, remaining 72.23 s)
54800000 of 100000000 tuples (54%) done (elapsed 87.39 s, remaining 72.08 s)
54900000 of 100000000 tuples (54%) done (elapsed 87.56 s, remaining 71.93 s)
55000000 of 100000000 tuples (55%) done (elapsed 87.73 s, remaining 71.78 s)
55100000 of 100000000 tuples (55%) done (elapsed 87.89 s, remaining 71.62 s)
55200000 of 100000000 tuples (55%) done (elapsed 88.01 s, remaining 71.43 s)
55300000 of 100000000 tuples (55%) done (elapsed 88.13 s, remaining 71.24 s)
55400000 of 100000000 tuples (55%) done (elapsed 88.42 s, remaining 71.19 s)
55500000 of 100000000 tuples (55%) done (elapsed 88.58 s, remaining 71.03 s)
55600000 of 100000000 tuples (55%) done (elapsed 88.70 s, remaining 70.83 s)
55700000 of 100000000 tuples (55%) done (elapsed 88.86 s, remaining 70.68 s)
55800000 of 100000000 tuples (55%) done (elapsed 89.03 s, remaining 70.52 s)
55900000 of 100000000 tuples (55%) done (elapsed 89.19 s, remaining 70.36 s)
56000000 of 100000000 tuples (56%) done (elapsed 89.31 s, remaining 70.17 s)
56100000 of 100000000 tuples (56%) done (elapsed 89.43 s, remaining 69.98 s)
56200000 of 100000000 tuples (56%) done (elapsed 89.71 s, remaining 69.91 s)
56300000 of 100000000 tuples (56%) done (elapsed 89.87 s, remaining 69.76 s)
56400000 of 100000000 tuples (56%) done (elapsed 90.03 s, remaining 69.60 s)
56500000 of 100000000 tuples (56%) done (elapsed 90.15 s, remaining 69.41 s)
56600000 of 100000000 tuples (56%) done (elapsed 90.32 s, remaining 69.25 s)
56700000 of 100000000 tuples (56%) done (elapsed 90.49 s, remaining 69.10 s)
56800000 of 100000000 tuples (56%) done (elapsed 90.61 s, remaining 68.91 s)
56900000 of 100000000 tuples (56%) done (elapsed 90.71 s, remaining 68.71 s)
57000000 of 100000000 tuples (57%) done (elapsed 91.01 s, remaining 68.66 s)
57100000 of 100000000 tuples (57%) done (elapsed 91.18 s, remaining 68.51 s)
57200000 of 100000000 tuples (57%) done (elapsed 91.35 s, remaining 68.35 s)
57300000 of 100000000 tuples (57%) done (elapsed 91.45 s, remaining 68.15 s)
57400000 of 100000000 tuples (57%) done (elapsed 91.61 s, remaining 67.99 s)
57500000 of 100000000 tuples (57%) done (elapsed 91.78 s, remaining 67.84 s)
57600000 of 100000000 tuples (57%) done (elapsed 91.94 s, remaining 67.68 s)
57700000 of 100000000 tuples (57%) done (elapsed 92.05 s, remaining 67.49 s)
57800000 of 100000000 tuples (57%) done (elapsed 92.19 s, remaining 67.31 s)
57900000 of 100000000 tuples (57%) done (elapsed 92.35 s, remaining 67.15 s)
58000000 of 100000000 tuples (58%) done (elapsed 92.46 s, remaining 66.95 s)
58100000 of 100000000 tuples (58%) done (elapsed 92.63 s, remaining 66.80 s)
58200000 of 100000000 tuples (58%) done (elapsed 92.79 s, remaining 66.65 s)
58300000 of 100000000 tuples (58%) done (elapsed 92.90 s, remaining 66.44 s)
58400000 of 100000000 tuples (58%) done (elapsed 93.06 s, remaining 66.29 s)
58500000 of 100000000 tuples (58%) done (elapsed 93.33 s, remaining 66.21 s)
58600000 of 100000000 tuples (58%) done (elapsed 93.45 s, remaining 66.02 s)
58700000 of 100000000 tuples (58%) done (elapsed 93.62 s, remaining 65.87 s)
58800000 of 100000000 tuples (58%) done (elapsed 93.78 s, remaining 65.71 s)
58900000 of 100000000 tuples (58%) done (elapsed 93.94 s, remaining 65.55 s)
59000000 of 100000000 tuples (59%) done (elapsed 94.05 s, remaining 65.36 s)
59100000 of 100000000 tuples (59%) done (elapsed 94.21 s, remaining 65.20 s)
59200000 of 100000000 tuples (59%) done (elapsed 94.39 s, remaining 65.05 s)
59300000 of 100000000 tuples (59%) done (elapsed 94.52 s, remaining 64.87 s)
59400000 of 100000000 tuples (59%) done (elapsed 94.62 s, remaining 64.67 s)
59500000 of 100000000 tuples (59%) done (elapsed 94.78 s, remaining 64.51 s)
59600000 of 100000000 tuples (59%) done (elapsed 94.94 s, remaining 64.36 s)
59700000 of 100000000 tuples (59%) done (elapsed 95.06 s, remaining 64.17 s)
59800000 of 100000000 tuples (59%) done (elapsed 95.23 s, remaining 64.01 s)
59900000 of 100000000 tuples (59%) done (elapsed 95.39 s, remaining 63.86 s)
60000000 of 100000000 tuples (60%) done (elapsed 95.50 s, remaining 63.66 s)
60100000 of 100000000 tuples (60%) done (elapsed 95.66 s, remaining 63.51 s)
60200000 of 100000000 tuples (60%) done (elapsed 95.94 s, remaining 63.43 s)
60300000 of 100000000 tuples (60%) done (elapsed 96.05 s, remaining 63.24 s)
60400000 of 100000000 tuples (60%) done (elapsed 96.22 s, remaining 63.09 s)
60500000 of 100000000 tuples (60%) done (elapsed 96.39 s, remaining 62.94 s)
60600000 of 100000000 tuples (60%) done (elapsed 96.56 s, remaining 62.78 s)
60700000 of 100000000 tuples (60%) done (elapsed 96.68 s, remaining 62.60 s)
60800000 of 100000000 tuples (60%) done (elapsed 96.78 s, remaining 62.40 s)
60900000 of 100000000 tuples (60%) done (elapsed 96.95 s, remaining 62.25 s)
61000000 of 100000000 tuples (61%) done (elapsed 97.22 s, remaining 62.15 s)
61100000 of 100000000 tuples (61%) done (elapsed 97.33 s, remaining 61.97 s)
61200000 of 100000000 tuples (61%) done (elapsed 97.50 s, remaining 61.81 s)
61300000 of 100000000 tuples (61%) done (elapsed 97.67 s, remaining 61.66 s)
61400000 of 100000000 tuples (61%) done (elapsed 97.84 s, remaining 61.51 s)
61500000 of 100000000 tuples (61%) done (elapsed 97.95 s, remaining 61.32 s)
61600000 of 100000000 tuples (61%) done (elapsed 98.12 s, remaining 61.16 s)
61700000 of 100000000 tuples (61%) done (elapsed 98.24 s, remaining 60.98 s)
61800000 of 100000000 tuples (61%) done (elapsed 98.52 s, remaining 60.90 s)
61900000 of 100000000 tuples (61%) done (elapsed 98.68 s, remaining 60.74 s)
62000000 of 100000000 tuples (62%) done (elapsed 98.80 s, remaining 60.55 s)
62100000 of 100000000 tuples (62%) done (elapsed 98.96 s, remaining 60.40 s)
62200000 of 100000000 tuples (62%) done (elapsed 99.13 s, remaining 60.24 s)
62300000 of 100000000 tuples (62%) done (elapsed 99.28 s, remaining 60.08 s)
62400000 of 100000000 tuples (62%) done (elapsed 99.40 s, remaining 59.90 s)
62500000 of 100000000 tuples (62%) done (elapsed 99.57 s, remaining 59.74 s)
62600000 of 100000000 tuples (62%) done (elapsed 99.70 s, remaining 59.57 s)
62700000 of 100000000 tuples (62%) done (elapsed 99.81 s, remaining 59.37 s)
62800000 of 100000000 tuples (62%) done (elapsed 99.98 s, remaining 59.23 s)
62900000 of 100000000 tuples (62%) done (elapsed 100.15 s, remaining 59.07 s)
63000000 of 100000000 tuples (63%) done (elapsed 100.26 s, remaining 58.88 s)
63100000 of 100000000 tuples (63%) done (elapsed 100.42 s, remaining 58.72 s)
63200000 of 100000000 tuples (63%) done (elapsed 100.58 s, remaining 58.57 s)
63300000 of 100000000 tuples (63%) done (elapsed 100.74 s, remaining 58.41 s)
63400000 of 100000000 tuples (63%) done (elapsed 100.86 s, remaining 58.22 s)
63500000 of 100000000 tuples (63%) done (elapsed 101.14 s, remaining 58.13 s)
63600000 of 100000000 tuples (63%) done (elapsed 101.30 s, remaining 57.98 s)
63700000 of 100000000 tuples (63%) done (elapsed 101.46 s, remaining 57.82 s)
63800000 of 100000000 tuples (63%) done (elapsed 101.58 s, remaining 57.63 s)
63900000 of 100000000 tuples (63%) done (elapsed 101.70 s, remaining 57.46 s)
64000000 of 100000000 tuples (64%) done (elapsed 101.87 s, remaining 57.30 s)
64100000 of 100000000 tuples (64%) done (elapsed 101.98 s, remaining 57.11 s)
64200000 of 100000000 tuples (64%) done (elapsed 102.14 s, remaining 56.96 s)
64300000 of 100000000 tuples (64%) done (elapsed 102.44 s, remaining 56.88 s)
64400000 of 100000000 tuples (64%) done (elapsed 102.60 s, remaining 56.72 s)
64500000 of 100000000 tuples (64%) done (elapsed 102.72 s, remaining 56.53 s)
64600000 of 100000000 tuples (64%) done (elapsed 102.88 s, remaining 56.38 s)
64700000 of 100000000 tuples (64%) done (elapsed 103.05 s, remaining 56.23 s)
64800000 of 100000000 tuples (64%) done (elapsed 103.21 s, remaining 56.07 s)
64900000 of 100000000 tuples (64%) done (elapsed 103.32 s, remaining 55.88 s)
65000000 of 100000000 tuples (65%) done (elapsed 103.45 s, remaining 55.70 s)
65100000 of 100000000 tuples (65%) done (elapsed 103.74 s, remaining 55.61 s)
65200000 of 100000000 tuples (65%) done (elapsed 103.91 s, remaining 55.46 s)
65300000 of 100000000 tuples (65%) done (elapsed 104.07 s, remaining 55.30 s)
65400000 of 100000000 tuples (65%) done (elapsed 104.18 s, remaining 55.12 s)
65500000 of 100000000 tuples (65%) done (elapsed 104.35 s, remaining 54.96 s)
65600000 of 100000000 tuples (65%) done (elapsed 104.52 s, remaining 54.81 s)
65700000 of 100000000 tuples (65%) done (elapsed 104.64 s, remaining 54.63 s)
65800000 of 100000000 tuples (65%) done (elapsed 104.75 s, remaining 54.44 s)
65900000 of 100000000 tuples (65%) done (elapsed 105.04 s, remaining 54.35 s)
66000000 of 100000000 tuples (66%) done (elapsed 105.21 s, remaining 54.20 s)
66100000 of 100000000 tuples (66%) done (elapsed 105.36 s, remaining 54.04 s)
66200000 of 100000000 tuples (66%) done (elapsed 105.47 s, remaining 53.85 s)
66300000 of 100000000 tuples (66%) done (elapsed 105.64 s, remaining 53.70 s)
66400000 of 100000000 tuples (66%) done (elapsed 105.81 s, remaining 53.54 s)
66500000 of 100000000 tuples (66%) done (elapsed 105.97 s, remaining 53.38 s)
66600000 of 100000000 tuples (66%) done (elapsed 106.08 s, remaining 53.20 s)
66700000 of 100000000 tuples (66%) done (elapsed 106.21 s, remaining 53.03 s)
66800000 of 100000000 tuples (66%) done (elapsed 106.38 s, remaining 52.87 s)
66900000 of 100000000 tuples (66%) done (elapsed 106.49 s, remaining 52.69 s)
67000000 of 100000000 tuples (67%) done (elapsed 106.66 s, remaining 52.53 s)
67100000 of 100000000 tuples (67%) done (elapsed 106.82 s, remaining 52.37 s)
67200000 of 100000000 tuples (67%) done (elapsed 106.93 s, remaining 52.19 s)
67300000 of 100000000 tuples (67%) done (elapsed 107.09 s, remaining 52.03 s)
67400000 of 100000000 tuples (67%) done (elapsed 107.25 s, remaining 51.88 s)
67500000 of 100000000 tuples (67%) done (elapsed 107.36 s, remaining 51.69 s)
67600000 of 100000000 tuples (67%) done (elapsed 107.64 s, remaining 51.59 s)
67700000 of 100000000 tuples (67%) done (elapsed 107.82 s, remaining 51.44 s)
67800000 of 100000000 tuples (67%) done (elapsed 107.99 s, remaining 51.29 s)
67900000 of 100000000 tuples (67%) done (elapsed 108.15 s, remaining 51.13 s)
68000000 of 100000000 tuples (68%) done (elapsed 108.27 s, remaining 50.95 s)
68100000 of 100000000 tuples (68%) done (elapsed 108.39 s, remaining 50.77 s)
68200000 of 100000000 tuples (68%) done (elapsed 108.56 s, remaining 50.62 s)
68300000 of 100000000 tuples (68%) done (elapsed 108.66 s, remaining 50.43 s)
68400000 of 100000000 tuples (68%) done (elapsed 108.96 s, remaining 50.34 s)
68500000 of 100000000 tuples (68%) done (elapsed 109.11 s, remaining 50.18 s)
68600000 of 100000000 tuples (68%) done (elapsed 109.28 s, remaining 50.02 s)
68700000 of 100000000 tuples (68%) done (elapsed 109.39 s, remaining 49.84 s)
68800000 of 100000000 tuples (68%) done (elapsed 109.56 s, remaining 49.68 s)
68900000 of 100000000 tuples (68%) done (elapsed 109.72 s, remaining 49.53 s)
69000000 of 100000000 tuples (69%) done (elapsed 109.89 s, remaining 49.37 s)
69100000 of 100000000 tuples (69%) done (elapsed 110.00 s, remaining 49.19 s)
69200000 of 100000000 tuples (69%) done (elapsed 110.14 s, remaining 49.02 s)
69300000 of 100000000 tuples (69%) done (elapsed 110.31 s, remaining 48.87 s)
69400000 of 100000000 tuples (69%) done (elapsed 110.44 s, remaining 48.69 s)
69500000 of 100000000 tuples (69%) done (elapsed 110.61 s, remaining 48.54 s)
69600000 of 100000000 tuples (69%) done (elapsed 110.78 s, remaining 48.38 s)
69700000 of 100000000 tuples (69%) done (elapsed 110.93 s, remaining 48.22 s)
69800000 of 100000000 tuples (69%) done (elapsed 111.05 s, remaining 48.05 s)
69900000 of 100000000 tuples (69%) done (elapsed 111.21 s, remaining 47.89 s)
70000000 of 100000000 tuples (70%) done (elapsed 111.50 s, remaining 47.78 s)
70100000 of 100000000 tuples (70%) done (elapsed 111.60 s, remaining 47.60 s)
70200000 of 100000000 tuples (70%) done (elapsed 111.77 s, remaining 47.45 s)
70300000 of 100000000 tuples (70%) done (elapsed 111.89 s, remaining 47.27 s)
70400000 of 100000000 tuples (70%) done (elapsed 112.06 s, remaining 47.12 s)
70500000 of 100000000 tuples (70%) done (elapsed 112.16 s, remaining 46.93 s)
70600000 of 100000000 tuples (70%) done (elapsed 112.34 s, remaining 46.78 s)
70700000 of 100000000 tuples (70%) done (elapsed 112.50 s, remaining 46.62 s)
70800000 of 100000000 tuples (70%) done (elapsed 112.60 s, remaining 46.44 s)
70900000 of 100000000 tuples (70%) done (elapsed 112.90 s, remaining 46.34 s)
71000000 of 100000000 tuples (71%) done (elapsed 113.06 s, remaining 46.18 s)
71100000 of 100000000 tuples (71%) done (elapsed 113.23 s, remaining 46.02 s)
71200000 of 100000000 tuples (71%) done (elapsed 113.33 s, remaining 45.84 s)
71300000 of 100000000 tuples (71%) done (elapsed 113.51 s, remaining 45.69 s)
71400000 of 100000000 tuples (71%) done (elapsed 113.68 s, remaining 45.53 s)
71500000 of 100000000 tuples (71%) done (elapsed 113.80 s, remaining 45.36 s)
71600000 of 100000000 tuples (71%) done (elapsed 113.90 s, remaining 45.18 s)
71700000 of 100000000 tuples (71%) done (elapsed 114.20 s, remaining 45.07 s)
71800000 of 100000000 tuples (71%) done (elapsed 114.36 s, remaining 44.92 s)
71900000 of 100000000 tuples (71%) done (elapsed 114.53 s, remaining 44.76 s)
72000000 of 100000000 tuples (72%) done (elapsed 114.69 s, remaining 44.60 s)
72100000 of 100000000 tuples (72%) done (elapsed 114.80 s, remaining 44.43 s)
72200000 of 100000000 tuples (72%) done (elapsed 114.97 s, remaining 44.27 s)
72300000 of 100000000 tuples (72%) done (elapsed 115.14 s, remaining 44.11 s)
72400000 of 100000000 tuples (72%) done (elapsed 115.28 s, remaining 43.94 s)
72500000 of 100000000 tuples (72%) done (elapsed 115.38 s, remaining 43.76 s)
72600000 of 100000000 tuples (72%) done (elapsed 115.55 s, remaining 43.61 s)
72700000 of 100000000 tuples (72%) done (elapsed 115.65 s, remaining 43.43 s)
72800000 of 100000000 tuples (72%) done (elapsed 115.83 s, remaining 43.28 s)
72900000 of 100000000 tuples (72%) done (elapsed 115.99 s, remaining 43.12 s)
73000000 of 100000000 tuples (73%) done (elapsed 116.10 s, remaining 42.94 s)
73100000 of 100000000 tuples (73%) done (elapsed 116.27 s, remaining 42.79 s)
73200000 of 100000000 tuples (73%) done (elapsed 116.44 s, remaining 42.63 s)
73300000 of 100000000 tuples (73%) done (elapsed 116.72 s, remaining 42.51 s)
73400000 of 100000000 tuples (73%) done (elapsed 116.83 s, remaining 42.34 s)
73500000 of 100000000 tuples (73%) done (elapsed 117.00 s, remaining 42.18 s)
73600000 of 100000000 tuples (73%) done (elapsed 117.17 s, remaining 42.03 s)
73700000 of 100000000 tuples (73%) done (elapsed 117.29 s, remaining 41.86 s)
73800000 of 100000000 tuples (73%) done (elapsed 117.45 s, remaining 41.70 s)
73900000 of 100000000 tuples (73%) done (elapsed 117.57 s, remaining 41.52 s)
74000000 of 100000000 tuples (74%) done (elapsed 117.73 s, remaining 41.37 s)
74100000 of 100000000 tuples (74%) done (elapsed 117.83 s, remaining 41.19 s)
74200000 of 100000000 tuples (74%) done (elapsed 118.14 s, remaining 41.08 s)
74300000 of 100000000 tuples (74%) done (elapsed 118.31 s, remaining 40.92 s)
74400000 of 100000000 tuples (74%) done (elapsed 118.48 s, remaining 40.77 s)
74500000 of 100000000 tuples (74%) done (elapsed 118.63 s, remaining 40.61 s)
74600000 of 100000000 tuples (74%) done (elapsed 118.75 s, remaining 40.43 s)
74700000 of 100000000 tuples (74%) done (elapsed 118.92 s, remaining 40.28 s)
74800000 of 100000000 tuples (74%) done (elapsed 119.04 s, remaining 40.11 s)
74900000 of 100000000 tuples (74%) done (elapsed 119.33 s, remaining 39.99 s)
75000000 of 100000000 tuples (75%) done (elapsed 119.44 s, remaining 39.81 s)
75100000 of 100000000 tuples (75%) done (elapsed 119.62 s, remaining 39.66 s)
75200000 of 100000000 tuples (75%) done (elapsed 119.78 s, remaining 39.50 s)
75300000 of 100000000 tuples (75%) done (elapsed 119.95 s, remaining 39.35 s)
75400000 of 100000000 tuples (75%) done (elapsed 120.11 s, remaining 39.19 s)
75500000 of 100000000 tuples (75%) done (elapsed 120.23 s, remaining 39.01 s)
75600000 of 100000000 tuples (75%) done (elapsed 120.35 s, remaining 38.84 s)
75700000 of 100000000 tuples (75%) done (elapsed 120.62 s, remaining 38.72 s)
75800000 of 100000000 tuples (75%) done (elapsed 120.79 s, remaining 38.56 s)
75900000 of 100000000 tuples (75%) done (elapsed 120.90 s, remaining 38.39 s)
76000000 of 100000000 tuples (76%) done (elapsed 121.07 s, remaining 38.23 s)
76100000 of 100000000 tuples (76%) done (elapsed 121.23 s, remaining 38.07 s)
76200000 of 100000000 tuples (76%) done (elapsed 121.39 s, remaining 37.91 s)
76300000 of 100000000 tuples (76%) done (elapsed 121.50 s, remaining 37.74 s)
76400000 of 100000000 tuples (76%) done (elapsed 121.68 s, remaining 37.59 s)
76500000 of 100000000 tuples (76%) done (elapsed 121.81 s, remaining 37.42 s)
76600000 of 100000000 tuples (76%) done (elapsed 121.91 s, remaining 37.24 s)
76700000 of 100000000 tuples (76%) done (elapsed 122.07 s, remaining 37.08 s)
76800000 of 100000000 tuples (76%) done (elapsed 122.24 s, remaining 36.93 s)
76900000 of 100000000 tuples (76%) done (elapsed 122.35 s, remaining 36.75 s)
77000000 of 100000000 tuples (77%) done (elapsed 122.52 s, remaining 36.60 s)
77100000 of 100000000 tuples (77%) done (elapsed 122.69 s, remaining 36.44 s)
77200000 of 100000000 tuples (77%) done (elapsed 122.79 s, remaining 36.26 s)
77300000 of 100000000 tuples (77%) done (elapsed 122.96 s, remaining 36.11 s)
77400000 of 100000000 tuples (77%) done (elapsed 123.24 s, remaining 35.99 s)
77500000 of 100000000 tuples (77%) done (elapsed 123.41 s, remaining 35.83 s)
77600000 of 100000000 tuples (77%) done (elapsed 123.52 s, remaining 35.65 s)
77700000 of 100000000 tuples (77%) done (elapsed 123.69 s, remaining 35.50 s)
77800000 of 100000000 tuples (77%) done (elapsed 123.86 s, remaining 35.34 s)
77900000 of 100000000 tuples (77%) done (elapsed 123.98 s, remaining 35.17 s)
78000000 of 100000000 tuples (78%) done (elapsed 124.09 s, remaining 35.00 s)
78100000 of 100000000 tuples (78%) done (elapsed 124.25 s, remaining 34.84 s)
78200000 of 100000000 tuples (78%) done (elapsed 124.53 s, remaining 34.72 s)
78300000 of 100000000 tuples (78%) done (elapsed 124.70 s, remaining 34.56 s)
78400000 of 100000000 tuples (78%) done (elapsed 124.80 s, remaining 34.38 s)
78500000 of 100000000 tuples (78%) done (elapsed 124.98 s, remaining 34.23 s)
78600000 of 100000000 tuples (78%) done (elapsed 125.14 s, remaining 34.07 s)
78700000 of 100000000 tuples (78%) done (elapsed 125.30 s, remaining 33.91 s)
78800000 of 100000000 tuples (78%) done (elapsed 125.42 s, remaining 33.74 s)
78900000 of 100000000 tuples (78%) done (elapsed 125.59 s, remaining 33.58 s)
79000000 of 100000000 tuples (79%) done (elapsed 125.72 s, remaining 33.42 s)
79100000 of 100000000 tuples (79%) done (elapsed 125.82 s, remaining 33.24 s)
79200000 of 100000000 tuples (79%) done (elapsed 125.99 s, remaining 33.09 s)
79300000 of 100000000 tuples (79%) done (elapsed 126.16 s, remaining 32.93 s)
79400000 of 100000000 tuples (79%) done (elapsed 126.26 s, remaining 32.76 s)
79500000 of 100000000 tuples (79%) done (elapsed 126.43 s, remaining 32.60 s)
79600000 of 100000000 tuples (79%) done (elapsed 126.59 s, remaining 32.44 s)
79700000 of 100000000 tuples (79%) done (elapsed 126.70 s, remaining 32.27 s)
79800000 of 100000000 tuples (79%) done (elapsed 126.87 s, remaining 32.11 s)
79900000 of 100000000 tuples (79%) done (elapsed 127.15 s, remaining 31.99 s)
80000000 of 100000000 tuples (80%) done (elapsed 127.31 s, remaining 31.83 s)
80100000 of 100000000 tuples (80%) done (elapsed 127.42 s, remaining 31.66 s)
80200000 of 100000000 tuples (80%) done (elapsed 127.60 s, remaining 31.50 s)
80300000 of 100000000 tuples (80%) done (elapsed 127.77 s, remaining 31.35 s)
80400000 of 100000000 tuples (80%) done (elapsed 127.90 s, remaining 31.18 s)
80500000 of 100000000 tuples (80%) done (elapsed 128.00 s, remaining 31.01 s)
80600000 of 100000000 tuples (80%) done (elapsed 128.16 s, remaining 30.85 s)
80700000 of 100000000 tuples (80%) done (elapsed 128.45 s, remaining 30.72 s)
80800000 of 100000000 tuples (80%) done (elapsed 128.61 s, remaining 30.56 s)
80900000 of 100000000 tuples (80%) done (elapsed 128.72 s, remaining 30.39 s)
81000000 of 100000000 tuples (81%) done (elapsed 128.89 s, remaining 30.23 s)
81100000 of 100000000 tuples (81%) done (elapsed 129.05 s, remaining 30.07 s)
81200000 of 100000000 tuples (81%) done (elapsed 129.20 s, remaining 29.91 s)
81300000 of 100000000 tuples (81%) done (elapsed 129.33 s, remaining 29.75 s)
81400000 of 100000000 tuples (81%) done (elapsed 129.50 s, remaining 29.59 s)
81500000 of 100000000 tuples (81%) done (elapsed 129.65 s, remaining 29.43 s)
81600000 of 100000000 tuples (81%) done (elapsed 129.75 s, remaining 29.26 s)
81700000 of 100000000 tuples (81%) done (elapsed 129.93 s, remaining 29.10 s)
81800000 of 100000000 tuples (81%) done (elapsed 130.09 s, remaining 28.94 s)
81900000 of 100000000 tuples (81%) done (elapsed 130.19 s, remaining 28.77 s)
82000000 of 100000000 tuples (82%) done (elapsed 130.36 s, remaining 28.62 s)
82100000 of 100000000 tuples (82%) done (elapsed 130.52 s, remaining 28.46 s)
82200000 of 100000000 tuples (82%) done (elapsed 130.68 s, remaining 28.30 s)
82300000 of 100000000 tuples (82%) done (elapsed 130.80 s, remaining 28.13 s)
82400000 of 100000000 tuples (82%) done (elapsed 131.08 s, remaining 28.00 s)
82500000 of 100000000 tuples (82%) done (elapsed 131.25 s, remaining 27.84 s)
82600000 of 100000000 tuples (82%) done (elapsed 131.41 s, remaining 27.68 s)
82700000 of 100000000 tuples (82%) done (elapsed 131.53 s, remaining 27.51 s)
82800000 of 100000000 tuples (82%) done (elapsed 131.70 s, remaining 27.36 s)
82900000 of 100000000 tuples (82%) done (elapsed 131.82 s, remaining 27.19 s)
83000000 of 100000000 tuples (83%) done (elapsed 131.92 s, remaining 27.02 s)
83100000 of 100000000 tuples (83%) done (elapsed 132.10 s, remaining 26.86 s)
83200000 of 100000000 tuples (83%) done (elapsed 132.38 s, remaining 26.73 s)
83300000 of 100000000 tuples (83%) done (elapsed 132.55 s, remaining 26.57 s)
83400000 of 100000000 tuples (83%) done (elapsed 132.66 s, remaining 26.41 s)
83500000 of 100000000 tuples (83%) done (elapsed 132.83 s, remaining 26.25 s)
83600000 of 100000000 tuples (83%) done (elapsed 132.99 s, remaining 26.09 s)
83700000 of 100000000 tuples (83%) done (elapsed 133.15 s, remaining 25.93 s)
83800000 of 100000000 tuples (83%) done (elapsed 133.28 s, remaining 25.76 s)
83900000 of 100000000 tuples (83%) done (elapsed 133.45 s, remaining 25.61 s)
84000000 of 100000000 tuples (84%) done (elapsed 133.58 s, remaining 25.44 s)
84100000 of 100000000 tuples (84%) done (elapsed 133.68 s, remaining 25.27 s)
84200000 of 100000000 tuples (84%) done (elapsed 133.86 s, remaining 25.12 s)
84300000 of 100000000 tuples (84%) done (elapsed 134.02 s, remaining 24.96 s)
84400000 of 100000000 tuples (84%) done (elapsed 134.13 s, remaining 24.79 s)
84500000 of 100000000 tuples (84%) done (elapsed 134.30 s, remaining 24.63 s)
84600000 of 100000000 tuples (84%) done (elapsed 134.46 s, remaining 24.48 s)
84700000 of 100000000 tuples (84%) done (elapsed 134.62 s, remaining 24.32 s)
84800000 of 100000000 tuples (84%) done (elapsed 134.74 s, remaining 24.15 s)
84900000 of 100000000 tuples (84%) done (elapsed 135.03 s, remaining 24.02 s)
85000000 of 100000000 tuples (85%) done (elapsed 135.21 s, remaining 23.86 s)
85100000 of 100000000 tuples (85%) done (elapsed 135.36 s, remaining 23.70 s)
85200000 of 100000000 tuples (85%) done (elapsed 135.48 s, remaining 23.53 s)
85300000 of 100000000 tuples (85%) done (elapsed 135.65 s, remaining 23.38 s)
85400000 of 100000000 tuples (85%) done (elapsed 135.77 s, remaining 23.21 s)
85500000 of 100000000 tuples (85%) done (elapsed 135.88 s, remaining 23.04 s)
85600000 of 100000000 tuples (85%) done (elapsed 136.05 s, remaining 22.89 s)
85700000 of 100000000 tuples (85%) done (elapsed 136.34 s, remaining 22.75 s)
85800000 of 100000000 tuples (85%) done (elapsed 136.50 s, remaining 22.59 s)
85900000 of 100000000 tuples (85%) done (elapsed 136.61 s, remaining 22.42 s)
86000000 of 100000000 tuples (86%) done (elapsed 136.78 s, remaining 22.27 s)
86100000 of 100000000 tuples (86%) done (elapsed 136.95 s, remaining 22.11 s)
86200000 of 100000000 tuples (86%) done (elapsed 137.10 s, remaining 21.95 s)
86300000 of 100000000 tuples (86%) done (elapsed 137.22 s, remaining 21.78 s)
86400000 of 100000000 tuples (86%) done (elapsed 137.39 s, remaining 21.63 s)
86500000 of 100000000 tuples (86%) done (elapsed 137.55 s, remaining 21.47 s)
86600000 of 100000000 tuples (86%) done (elapsed 137.72 s, remaining 21.31 s)
86700000 of 100000000 tuples (86%) done (elapsed 137.83 s, remaining 21.14 s)
86800000 of 100000000 tuples (86%) done (elapsed 138.00 s, remaining 20.99 s)
86900000 of 100000000 tuples (86%) done (elapsed 138.10 s, remaining 20.82 s)
87000000 of 100000000 tuples (87%) done (elapsed 138.27 s, remaining 20.66 s)
87100000 of 100000000 tuples (87%) done (elapsed 138.44 s, remaining 20.50 s)
87200000 of 100000000 tuples (87%) done (elapsed 138.60 s, remaining 20.34 s)
87300000 of 100000000 tuples (87%) done (elapsed 138.71 s, remaining 20.18 s)
87400000 of 100000000 tuples (87%) done (elapsed 139.00 s, remaining 20.04 s)
87500000 of 100000000 tuples (87%) done (elapsed 139.16 s, remaining 19.88 s)
87600000 of 100000000 tuples (87%) done (elapsed 139.33 s, remaining 19.72 s)
87700000 of 100000000 tuples (87%) done (elapsed 139.44 s, remaining 19.56 s)
87800000 of 100000000 tuples (87%) done (elapsed 139.55 s, remaining 19.39 s)
87900000 of 100000000 tuples (87%) done (elapsed 139.72 s, remaining 19.23 s)
88000000 of 100000000 tuples (88%) done (elapsed 139.89 s, remaining 19.08 s)
88100000 of 100000000 tuples (88%) done (elapsed 139.99 s, remaining 18.91 s)
88200000 of 100000000 tuples (88%) done (elapsed 140.28 s, remaining 18.77 s)
88300000 of 100000000 tuples (88%) done (elapsed 140.45 s, remaining 18.61 s)
88400000 of 100000000 tuples (88%) done (elapsed 140.61 s, remaining 18.45 s)
88500000 of 100000000 tuples (88%) done (elapsed 140.71 s, remaining 18.28 s)
88600000 of 100000000 tuples (88%) done (elapsed 140.84 s, remaining 18.12 s)
88700000 of 100000000 tuples (88%) done (elapsed 141.01 s, remaining 17.96 s)
88800000 of 100000000 tuples (88%) done (elapsed 141.17 s, remaining 17.80 s)
88900000 of 100000000 tuples (88%) done (elapsed 141.28 s, remaining 17.64 s)
89000000 of 100000000 tuples (89%) done (elapsed 141.58 s, remaining 17.50 s)
89100000 of 100000000 tuples (89%) done (elapsed 141.75 s, remaining 17.34 s)
89200000 of 100000000 tuples (89%) done (elapsed 141.91 s, remaining 17.18 s)
89300000 of 100000000 tuples (89%) done (elapsed 142.03 s, remaining 17.02 s)
89400000 of 100000000 tuples (89%) done (elapsed 142.20 s, remaining 16.86 s)
89500000 of 100000000 tuples (89%) done (elapsed 142.36 s, remaining 16.70 s)
89600000 of 100000000 tuples (89%) done (elapsed 142.49 s, remaining 16.54 s)
89700000 of 100000000 tuples (89%) done (elapsed 142.59 s, remaining 16.37 s)
89800000 of 100000000 tuples (89%) done (elapsed 142.90 s, remaining 16.23 s)
89900000 of 100000000 tuples (89%) done (elapsed 143.06 s, remaining 16.07 s)
90000000 of 100000000 tuples (90%) done (elapsed 143.23 s, remaining 15.91 s)
90100000 of 100000000 tuples (90%) done (elapsed 143.34 s, remaining 15.75 s)
90200000 of 100000000 tuples (90%) done (elapsed 143.51 s, remaining 15.59 s)
90300000 of 100000000 tuples (90%) done (elapsed 143.68 s, remaining 15.43 s)
90400000 of 100000000 tuples (90%) done (elapsed 143.80 s, remaining 15.27 s)
90500000 of 100000000 tuples (90%) done (elapsed 143.90 s, remaining 15.11 s)
90600000 of 100000000 tuples (90%) done (elapsed 144.19 s, remaining 14.96 s)
90700000 of 100000000 tuples (90%) done (elapsed 144.36 s, remaining 14.80 s)
90800000 of 100000000 tuples (90%) done (elapsed 144.53 s, remaining 14.64 s)
90900000 of 100000000 tuples (90%) done (elapsed 144.69 s, remaining 14.48 s)
91000000 of 100000000 tuples (91%) done (elapsed 144.80 s, remaining 14.32 s)
91100000 of 100000000 tuples (91%) done (elapsed 144.97 s, remaining 14.16 s)
91200000 of 100000000 tuples (91%) done (elapsed 145.09 s, remaining 14.00 s)
91300000 of 100000000 tuples (91%) done (elapsed 145.37 s, remaining 13.85 s)
91400000 of 100000000 tuples (91%) done (elapsed 145.48 s, remaining 13.69 s)
91500000 of 100000000 tuples (91%) done (elapsed 145.65 s, remaining 13.53 s)
91600000 of 100000000 tuples (91%) done (elapsed 145.82 s, remaining 13.37 s)
91700000 of 100000000 tuples (91%) done (elapsed 145.98 s, remaining 13.21 s)
91800000 of 100000000 tuples (91%) done (elapsed 146.09 s, remaining 13.05 s)
91900000 of 100000000 tuples (91%) done (elapsed 146.26 s, remaining 12.89 s)
92000000 of 100000000 tuples (92%) done (elapsed 146.43 s, remaining 12.73 s)
92100000 of 100000000 tuples (92%) done (elapsed 146.56 s, remaining 12.57 s)
92200000 of 100000000 tuples (92%) done (elapsed 146.67 s, remaining 12.41 s)
92300000 of 100000000 tuples (92%) done (elapsed 146.84 s, remaining 12.25 s)
92400000 of 100000000 tuples (92%) done (elapsed 147.00 s, remaining 12.09 s)
92500000 of 100000000 tuples (92%) done (elapsed 147.12 s, remaining 11.93 s)
92600000 of 100000000 tuples (92%) done (elapsed 147.28 s, remaining 11.77 s)
92700000 of 100000000 tuples (92%) done (elapsed 147.44 s, remaining 11.61 s)
92800000 of 100000000 tuples (92%) done (elapsed 147.55 s, remaining 11.45 s)
92900000 of 100000000 tuples (92%) done (elapsed 147.71 s, remaining 11.29 s)
93000000 of 100000000 tuples (93%) done (elapsed 148.01 s, remaining 11.14 s)
93100000 of 100000000 tuples (93%) done (elapsed 148.17 s, remaining 10.98 s)
93200000 of 100000000 tuples (93%) done (elapsed 148.29 s, remaining 10.82 s)
93300000 of 100000000 tuples (93%) done (elapsed 148.46 s, remaining 10.66 s)
93400000 of 100000000 tuples (93%) done (elapsed 148.58 s, remaining 10.50 s)
93500000 of 100000000 tuples (93%) done (elapsed 148.75 s, remaining 10.34 s)
93600000 of 100000000 tuples (93%) done (elapsed 148.85 s, remaining 10.18 s)
93700000 of 100000000 tuples (93%) done (elapsed 149.00 s, remaining 10.02 s)
93800000 of 100000000 tuples (93%) done (elapsed 149.30 s, remaining 9.87 s)
93900000 of 100000000 tuples (93%) done (elapsed 149.42 s, remaining 9.71 s)
94000000 of 100000000 tuples (94%) done (elapsed 149.59 s, remaining 9.55 s)
94100000 of 100000000 tuples (94%) done (elapsed 149.75 s, remaining 9.39 s)
94200000 of 100000000 tuples (94%) done (elapsed 149.92 s, remaining 9.23 s)
94300000 of 100000000 tuples (94%) done (elapsed 150.03 s, remaining 9.07 s)
94400000 of 100000000 tuples (94%) done (elapsed 150.20 s, remaining 8.91 s)
94500000 of 100000000 tuples (94%) done (elapsed 150.37 s, remaining 8.75 s)
94600000 of 100000000 tuples (94%) done (elapsed 150.50 s, remaining 8.59 s)
94700000 of 100000000 tuples (94%) done (elapsed 150.60 s, remaining 8.43 s)
94800000 of 100000000 tuples (94%) done (elapsed 150.78 s, remaining 8.27 s)
94900000 of 100000000 tuples (94%) done (elapsed 150.94 s, remaining 8.11 s)
95000000 of 100000000 tuples (95%) done (elapsed 151.05 s, remaining 7.95 s)
95100000 of 100000000 tuples (95%) done (elapsed 151.22 s, remaining 7.79 s)
95200000 of 100000000 tuples (95%) done (elapsed 151.39 s, remaining 7.63 s)
95300000 of 100000000 tuples (95%) done (elapsed 151.49 s, remaining 7.47 s)
95400000 of 100000000 tuples (95%) done (elapsed 151.66 s, remaining 7.31 s)
95500000 of 100000000 tuples (95%) done (elapsed 151.94 s, remaining 7.16 s)
95600000 of 100000000 tuples (95%) done (elapsed 152.11 s, remaining 7.00 s)
95700000 of 100000000 tuples (95%) done (elapsed 152.22 s, remaining 6.84 s)
95800000 of 100000000 tuples (95%) done (elapsed 152.38 s, remaining 6.68 s)
95900000 of 100000000 tuples (95%) done (elapsed 152.51 s, remaining 6.52 s)
96000000 of 100000000 tuples (96%) done (elapsed 152.67 s, remaining 6.36 s)
96100000 of 100000000 tuples (96%) done (elapsed 152.78 s, remaining 6.20 s)
96200000 of 100000000 tuples (96%) done (elapsed 152.96 s, remaining 6.04 s)
96300000 of 100000000 tuples (96%) done (elapsed 153.24 s, remaining 5.89 s)
96400000 of 100000000 tuples (96%) done (elapsed 153.41 s, remaining 5.73 s)
96500000 of 100000000 tuples (96%) done (elapsed 153.52 s, remaining 5.57 s)
96600000 of 100000000 tuples (96%) done (elapsed 153.69 s, remaining 5.41 s)
96700000 of 100000000 tuples (96%) done (elapsed 153.86 s, remaining 5.25 s)
96800000 of 100000000 tuples (96%) done (elapsed 154.01 s, remaining 5.09 s)
96900000 of 100000000 tuples (96%) done (elapsed 154.14 s, remaining 4.93 s)
97000000 of 100000000 tuples (97%) done (elapsed 154.26 s, remaining 4.77 s)
97100000 of 100000000 tuples (97%) done (elapsed 154.54 s, remaining 4.62 s)
97200000 of 100000000 tuples (97%) done (elapsed 154.72 s, remaining 4.46 s)
97300000 of 100000000 tuples (97%) done (elapsed 154.83 s, remaining 4.30 s)
97400000 of 100000000 tuples (97%) done (elapsed 155.00 s, remaining 4.14 s)
97500000 of 100000000 tuples (97%) done (elapsed 155.16 s, remaining 3.98 s)
97600000 of 100000000 tuples (97%) done (elapsed 155.33 s, remaining 3.82 s)
97700000 of 100000000 tuples (97%) done (elapsed 155.44 s, remaining 3.66 s)
97800000 of 100000000 tuples (97%) done (elapsed 155.56 s, remaining 3.50 s)
97900000 of 100000000 tuples (97%) done (elapsed 155.84 s, remaining 3.34 s)
98000000 of 100000000 tuples (98%) done (elapsed 156.01 s, remaining 3.18 s)
98100000 of 100000000 tuples (98%) done (elapsed 156.11 s, remaining 3.02 s)
98200000 of 100000000 tuples (98%) done (elapsed 156.28 s, remaining 2.86 s)
98300000 of 100000000 tuples (98%) done (elapsed 156.45 s, remaining 2.71 s)
98400000 of 100000000 tuples (98%) done (elapsed 156.62 s, remaining 2.55 s)
98500000 of 100000000 tuples (98%) done (elapsed 156.72 s, remaining 2.39 s)
98600000 of 100000000 tuples (98%) done (elapsed 156.89 s, remaining 2.23 s)
98700000 of 100000000 tuples (98%) done (elapsed 157.02 s, remaining 2.07 s)
98800000 of 100000000 tuples (98%) done (elapsed 157.19 s, remaining 1.91 s)
98900000 of 100000000 tuples (98%) done (elapsed 157.30 s, remaining 1.75 s)
99000000 of 100000000 tuples (99%) done (elapsed 157.47 s, remaining 1.59 s)
99100000 of 100000000 tuples (99%) done (elapsed 157.62 s, remaining 1.43 s)
99200000 of 100000000 tuples (99%) done (elapsed 157.74 s, remaining 1.27 s)
99300000 of 100000000 tuples (99%) done (elapsed 157.91 s, remaining 1.11 s)
99400000 of 100000000 tuples (99%) done (elapsed 158.06 s, remaining 0.95 s)
99500000 of 100000000 tuples (99%) done (elapsed 158.17 s, remaining 0.79 s)
99600000 of 100000000 tuples (99%) done (elapsed 158.46 s, remaining 0.64 s)
99700000 of 100000000 tuples (99%) done (elapsed 158.64 s, remaining 0.48 s)
99800000 of 100000000 tuples (99%) done (elapsed 158.80 s, remaining 0.32 s)
99900000 of 100000000 tuples (99%) done (elapsed 158.91 s, remaining 0.16 s)
100000000 of 100000000 tuples (100%) done (elapsed 159.03 s, remaining 0.00 s)
vacuum...
set primary keys...
done.
