 2017-02-06 18:40:45.892757+01 | 1486402845.89276 | 16/789E000               |           94615756800

 2017-02-06 18:40:47.866969+01 | 1486402847.86697 | 16/112D3748              |           94777456456

 2017-02-06 18:40:48.953809+01 | 1486402848.95381 | 16/1C95FD48              |           94968872264

 2017-02-06 18:40:50.036757+01 | 1486402850.03676 | 16/2870BD28              |           95167757808

 2017-02-06 18:40:51.124708+01 | 1486402851.12471 | 16/355FCCF8              |           95384751352

 2017-02-06 18:40:52.211591+01 | 1486402852.21159 | 16/43696890              |           95620262032

 2017-02-06 18:40:53.300301+01 | 1486402853.3003 | 16/51E36F80              |           95863140224

 2017-02-06 18:40:54.386489+01 | 1486402854.38649 | 16/606EEF38              |           96107163448

 2017-02-06 18:40:55.478852+01 | 1486402855.47885 | 16/6ECB0F78              |           96348082040

 2017-02-06 18:40:56.569526+01 | 1486402856.56953 | 16/7CFA6048              |           96586063944

 2017-02-06 18:40:57.663627+01 | 1486402857.66363 | 16/8B26F208              |           96823865864

 2017-02-06 18:40:58.761309+01 | 1486402858.76131 | 16/99359C30              |           97059707952

 2017-02-06 18:40:59.847804+01 | 1486402859.8478 | 16/A6968F60              |           97284165472

 2017-02-06 18:41:00.939818+01 | 1486402860.93982 | 16/B3ACC7B8              |           97503725496

 2017-02-06 18:41:02.026563+01 | 1486402862.02656 | 16/C0A873B8              |           97721545656

 2017-02-06 18:41:03.110983+01 | 1486402863.11098 | 16/CD93C920              |           97938295072

 2017-02-06 18:41:04.200114+01 | 1486402864.20011 | 16/DA62FF08              |           98153201416

 2017-02-06 18:41:05.296311+01 | 1486402865.29631 | 16/E7627818              |           98371270680

 2017-02-06 18:41:06.387384+01 | 1486402866.38738 | 16/F43F63D0              |           98587075536

 2017-02-06 18:41:07.470476+01 | 1486402867.47048 | 17/A530A0                |           98795073696

 2017-02-06 18:41:08.566467+01 | 1486402868.56647 | 17/D0FB0C0               |           99003379904

 2017-02-06 18:41:09.652153+01 | 1486402869.65215 | 17/1914F360              |           99205051232

 2017-02-06 18:41:10.741987+01 | 1486402870.74199 | 17/25203C40              |           99407117376

 2017-02-06 18:41:11.827916+01 | 1486402871.82792 | 17/30E78000              |           99604725760

 2017-02-06 18:41:12.9196+01 | 1486402872.9196 | 17/3C604C88              |           99797191816

 2017-02-06 18:41:14.005216+01 | 1486402874.00522 | 17/47B51648              |           99987297864

 2017-02-06 18:41:15.098464+01 | 1486402875.09846 | 17/52D4B250              |          100173918800

 2017-02-06 18:41:16.189856+01 | 1486402876.18986 | 17/5DC986E8              |          100357736168

 2017-02-06 18:41:17.287852+01 | 1486402877.28785 | 17/68F06600              |          100544833024

 2017-02-06 18:41:18.377706+01 | 1486402878.37771 | 17/737731B8              |          100721439160

 2017-02-06 18:41:19.479592+01 | 1486402879.47959 | 17/7E6FAD38              |          100905495864

 2017-02-06 18:41:20.573722+01 | 1486402880.57372 | 17/88576C10              |          101071678480

 2017-02-06 18:41:21.675425+01 | 1486402881.67543 | 17/92ECC458              |          101249238104

 2017-02-06 18:41:22.768415+01 | 1486402882.76841 | 17/9B8BE0B8              |          101393883320

 2017-02-06 18:41:23.864755+01 | 1486402883.86475 | 17/A4FDA670              |          101552334448

 2017-02-06 18:41:24.96511+01 | 1486402884.96511 | 17/AE4BEF28              |          101708459816

 2017-02-06 18:41:26.051519+01 | 1486402886.05152 | 17/B72B0340              |          101857297216

 2017-02-06 18:41:27.133587+01 | 1486402887.13359 | 17/BFD478A0              |          102002620576

 2017-02-06 18:41:28.205123+01 | 1486402888.20512 | 17/C7838D88              |          102131535240

 2017-02-06 18:41:29.297827+01 | 1486402889.29783 | 17/D028C940              |          102276581696

 2017-02-06 18:41:30.396187+01 | 1486402890.39619 | 17/D87E6450              |          102416409680

 2017-02-06 18:41:31.496209+01 | 1486402891.49621 | 17/E015AC30              |          102543764528

 2017-02-06 18:41:32.605426+01 | 1486402892.60543 | 17/E7D2EDD0              |          102673608144

 2017-02-06 18:41:33.689535+01 | 1486402893.68953 | 17/EE2125C8              |          102779397576

 2017-02-06 18:41:34.780267+01 | 1486402894.78027 | 17/F3DE6508              |          102875686152

 2017-02-06 18:41:35.856456+01 | 1486402895.85646 | 17/FA55EC70              |          102984182896

 2017-02-06 18:41:36.941433+01 | 1486402896.94143 | 18/AB5C60                |          103090445408

 2017-02-06 18:41:38.004011+01 | 1486402898.00401 | 18/67E7308               |          103188165384

 2017-02-06 18:41:39.073787+01 | 1486402899.07379 | 18/C189090               |          103282151568

 2017-02-06 18:41:40.179204+01 | 1486402900.1792 | 18/128A97B0              |          103390287792

 2017-02-06 18:41:41.2847+01 | 1486402901.2847 | 18/1A3AF8D8              |          103519287512

 2017-02-06 18:41:42.380538+01 | 1486402902.38054 | 18/20D2EAA8              |          103629908648

 2017-02-06 18:41:43.478317+01 | 1486402903.47832 | 18/27819B80              |          103742020480

 2017-02-06 18:41:44.574949+01 | 1486402904.57495 | 18/2E1029B8              |          103852026296

 2017-02-06 18:41:45.638397+01 | 1486402905.6384 | 18/3427E320              |          103954244384

 2017-02-06 18:41:46.741108+01 | 1486402906.74111 | 18/3ADE9EC8              |          104066883272

 2017-02-06 18:41:47.830233+01 | 1486402907.83023 | 18/400E5688              |          104153896584

 2017-02-06 18:41:48.931363+01 | 1486402908.93136 | 18/45E45358              |          104251806552

 2017-02-06 18:41:50.013454+01 | 1486402910.01345 | 18/4A5C95C0              |          104326796736

 2017-02-06 18:41:51.104629+01 | 1486402911.10463 | 18/50B04620              |          104432944672

 2017-02-06 18:41:52.19545+01 | 1486402912.19545 | 18/56ED2370              |          104537596784

 2017-02-06 18:41:53.271975+01 | 1486402913.27198 | 18/5C553110              |          104628302096

 2017-02-06 18:41:54.365116+01 | 1486402914.36512 | 18/61E6D4B8              |          104721732792

 2017-02-06 18:41:55.458461+01 | 1486402915.45846 | 18/68100B90              |          104825097104

 2017-02-06 18:41:56.563038+01 | 1486402916.56304 | 18/6D585A08              |          104913721864

 2017-02-06 18:41:57.673496+01 | 1486402917.6735 | 18/732B9050              |          105011449936

 2017-02-06 18:41:58.769243+01 | 1486402918.76924 | 18/77CDC8A0              |          105089190048

 2017-02-06 18:41:59.872323+01 | 1486402919.87232 | 18/7CA4CF38              |          105170390840

 2017-02-06 18:42:00.954105+01 | 1486402920.9541 | 18/808DBDE0              |          105235987936

 2017-02-06 18:42:02.046212+01 | 1486402922.04621 | 18/85327F10              |          105313894160

 2017-02-06 18:42:03.131634+01 | 1486402923.13163 | 18/891A1A90              |          105379404432

 2017-02-06 18:42:04.221691+01 | 1486402924.22169 | 18/8DEA26C0              |          105460147904

 2017-02-06 18:42:05.308042+01 | 1486402925.30804 | 18/932252B8              |          105547715256

 2017-02-06 18:42:06.391364+01 | 1486402926.39136 | 18/977BF050              |          105620697168

 2017-02-06 18:42:07.495792+01 | 1486402927.49579 | 18/9C99CE10              |          105706540560

 2017-02-06 18:42:08.598171+01 | 1486402928.59817 | 18/A173BBC8              |          105787931592

 2017-02-06 18:42:09.667089+01 | 1486402929.66709 | 18/A59031F0              |          105856905712

 2017-02-06 18:42:10.775432+01 | 1486402930.77543 | 18/AA4E00C0              |          105936453824

 2017-02-06 18:42:11.864568+01 | 1486402931.86457 | 18/AE8C95F0              |          106007664112

 2017-02-06 18:42:12.970463+01 | 1486402932.97046 | 18/B31C7B40              |          106084203328

 2017-02-06 18:42:14.071402+01 | 1486402934.0714 | 18/B7563198              |          106155094424

 2017-02-06 18:42:15.166181+01 | 1486402935.16618 | 18/BBA0A580              |          106227082624

 2017-02-06 18:42:16.258672+01 | 1486402936.25867 | 18/BFB6DB00              |          106295646976

 2017-02-06 18:42:17.343511+01 | 1486402937.34351 | 18/C3EAB0C0              |          106366152896

 2017-02-06 18:42:18.43337+01 | 1486402938.43337 | 18/C7D27DA0              |          106431675808

 2017-02-06 18:42:19.534715+01 | 1486402939.53471 | 18/CBE665E0              |          106500089312

 2017-02-06 18:42:20.641913+01 | 1486402940.64191 | 18/CFF11A68              |          106567899752

 2017-02-06 18:42:21.707339+01 | 1486402941.70734 | 18/D3AA1A68              |          106630355560

 2017-02-06 18:42:22.819615+01 | 1486402942.81961 | 18/D7966988              |          106696173960

 2017-02-06 18:42:23.888863+01 | 1486402943.88886 | 18/DA916228              |          106746176040

 2017-02-06 18:42:24.977506+01 | 1486402944.97751 | 18/DDC21B80              |          106799700864

 2017-02-06 18:42:26.073114+01 | 1486402946.07311 | 18/E09C6810              |          106847561744

 2017-02-06 18:42:27.155809+01 | 1486402947.15581 | 18/E3758420              |          106895344672

 2017-02-06 18:42:28.241674+01 | 1486402948.24167 | 18/E6A69CB8              |          106948893880

 2017-02-06 18:42:29.334487+01 | 1486402949.33449 | 18/E99CB0C0              |          106998575296

 2017-02-06 18:42:30.391281+01 | 1486402950.39128 | 18/EC6847D0              |          107045472208

 2017-02-06 18:42:31.462759+01 | 1486402951.46276 | 18/EF15EB58              |          107090406232

 2017-02-06 18:42:32.549088+01 | 1486402952.54909 | 18/F25D5318              |          107145417496

 2017-02-06 18:42:33.644192+01 | 1486402953.64419 | 18/F5760298              |          107197366936

 2017-02-06 18:42:34.73643+01 | 1486402954.73643 | 18/F8DCF020              |          107254444064

 2017-02-06 18:42:35.846761+01 | 1486402955.84676 | 18/FBD9A9C0              |          107304561088

 2017-02-06 18:42:36.950231+01 | 1486402956.95023 | 18/FF389DD0              |          107361115600

 2017-02-06 18:42:38.047176+01 | 1486402958.04718 | 19/1C57A00               |          107403901440

 2017-02-06 18:42:39.135912+01 | 1486402959.13591 | 19/47C1D08               |          107449425160

 2017-02-06 18:42:40.210219+01 | 1486402960.21022 | 19/79606E8               |          107501455080

 2017-02-06 18:42:41.278452+01 | 1486402961.27845 | 19/A4D3B00               |          107547015936

 2017-02-06 18:42:42.369937+01 | 1486402962.36994 | 19/D5A7C00               |          107598216192

 2017-02-06 18:42:43.444075+01 | 1486402963.44408 | 19/FF30A40               |          107641768512

 2017-02-06 18:42:44.506437+01 | 1486402964.50644 | 19/1281E688              |          107684685448

 2017-02-06 18:42:45.588666+01 | 1486402965.58867 | 19/158E5558              |          107735831896

 2017-02-06 18:42:46.701164+01 | 1486402966.70116 | 19/186EECF8              |          107784105208

 2017-02-06 18:42:47.775832+01 | 1486402967.77583 | 19/1AA05948              |          107820898632

 2017-02-06 18:42:48.86435+01 | 1486402968.86435 | 19/1CEAE650              |          107859338832

 2017-02-06 18:42:49.949584+01 | 1486402969.94958 | 19/1F2A3668              |          107897042536

 2017-02-06 18:42:51.040818+01 | 1486402971.04082 | 19/2219F600              |          107946309120

 2017-02-06 18:42:52.144383+01 | 1486402972.14438 | 19/24A50EE8              |          107988979432

 2017-02-06 18:42:53.237174+01 | 1486402973.23717 | 19/2772F8E8              |          108036028648

 2017-02-06 18:42:54.335315+01 | 1486402974.33531 | 19/2A030CB0              |          108079025328

 2017-02-06 18:42:55.422675+01 | 1486402975.42267 | 19/2CBB8298              |          108124668568

 2017-02-06 18:42:56.501321+01 | 1486402976.50132 | 19/2F2416C8              |          108165076680

 2017-02-06 18:42:57.57545+01 | 1486402977.57545 | 19/31A03AE8              |          108206766824

 2017-02-06 18:42:58.666694+01 | 1486402978.66669 | 19/33953658              |          108239599192

 2017-02-06 18:42:59.758522+01 | 1486402979.75852 | 19/35B06A20              |          108274936352

 2017-02-06 18:43:00.854956+01 | 1486402980.85496 | 19/378C9DE8              |          108306144744

 2017-02-06 18:43:01.948676+01 | 1486402981.94868 | 19/395E4E70              |          108336664176

 2017-02-06 18:43:03.035853+01 | 1486402983.03585 | 19/3AF8F6B0              |          108363577008

 2017-02-06 18:43:04.134752+01 | 1486402984.13475 | 19/3CFD1280              |          108397400704

 2017-02-06 18:43:05.202456+01 | 1486402985.20246 | 19/3EE916E8              |          108429645544

 2017-02-06 18:43:06.299203+01 | 1486402986.2992 | 19/4182B268              |          108473266792

 2017-02-06 18:43:07.389415+01 | 1486402987.38942 | 19/441267F8              |          108516239352

 2017-02-06 18:43:08.474853+01 | 1486402988.47485 | 19/469699F0              |          108558457328

 2017-02-06 18:43:09.558123+01 | 1486402989.55812 | 19/491ADE90              |          108600680080

 2017-02-06 18:43:10.637056+01 | 1486402990.63706 | 19/4BEE01B8              |          108648071608

 2017-02-06 18:43:11.720685+01 | 1486402991.72069 | 19/4E378AC0              |          108686445248

 2017-02-06 18:43:12.827701+01 | 1486402992.8277 | 19/5088DF80              |          108725329792

 2017-02-06 18:43:13.924692+01 | 1486402993.92469 | 19/52C05090              |          108762517648

 2017-02-06 18:43:15.015826+01 | 1486402995.01583 | 19/54BF88D0              |          108796020944

 2017-02-06 18:43:16.103781+01 | 1486402996.10378 | 19/5682B808              |          108825589768

 2017-02-06 18:43:17.205908+01 | 1486402997.20591 | 19/589193A8              |          108860117928

 2017-02-06 18:43:18.30956+01 | 1486402998.30956 | 19/5AB3F198              |          108895924632

 2017-02-06 18:43:19.391804+01 | 1486402999.3918 | 19/5C6FF2E0              |          108925022944

 2017-02-06 18:43:20.475042+01 | 1486403000.47504 | 19/5E5DB378              |          108957381496

 2017-02-06 18:43:21.560703+01 | 1486403001.5607 | 19/60548418              |          108990333976

 2017-02-06 18:43:22.654902+01 | 1486403002.6549 | 19/620D8A58              |          109019236952

 2017-02-06 18:43:23.752037+01 | 1486403003.75204 | 19/63FBC8C0              |          109051627712

 2017-02-06 18:43:24.840586+01 | 1486403004.84059 | 19/660D8300              |          109086343936

 2017-02-06 18:43:25.915498+01 | 1486403005.9155 | 19/67A71288              |          109113184904

 2017-02-06 18:43:27.012325+01 | 1486403007.01233 | 19/69B0D610              |          109147379216

 2017-02-06 18:43:28.104816+01 | 1486403008.10482 | 19/6B962618              |          109179184664

 2017-02-06 18:43:29.214506+01 | 1486403009.21451 | 19/6D59F3B8              |          109208794040

 2017-02-06 18:43:30.313911+01 | 1486403010.31391 | 19/6F38CD28              |          109240175912

 2017-02-06 18:43:31.402056+01 | 1486403011.40206 | 19/71201E58              |          109272112728

 2017-02-06 18:43:32.483346+01 | 1486403012.48335 | 19/728CC6C0              |          109296010944

 2017-02-06 18:43:33.545429+01 | 1486403013.54543 | 19/73E0F040              |          109318303808

 2017-02-06 18:43:34.63368+01 | 1486403014.63368 | 19/754FEA58              |          109342354008

 2017-02-06 18:43:35.716138+01 | 1486403015.71614 | 19/76B27338              |          109365588792

 2017-02-06 18:43:36.796001+01 | 1486403016.796 | 19/78331090              |          109390794896

 2017-02-06 18:43:37.886994+01 | 1486403017.88699 | 19/79786E90              |          109412118160

 2017-02-06 18:43:38.973966+01 | 1486403018.97397 | 19/7AF25AB0              |          109436885680

 2017-02-06 18:43:40.062125+01 | 1486403020.06212 | 19/7C38CFC8              |          109458280392

 2017-02-06 18:43:41.152464+01 | 1486403021.15246 | 19/7DC697D0              |          109484349392

 2017-02-06 18:43:42.246089+01 | 1486403022.24609 | 19/7F331808              |          109508237320

 2017-02-06 18:43:43.328214+01 | 1486403023.32821 | 19/80C8C630              |          109534823984

 2017-02-06 18:43:44.409974+01 | 1486403024.40997 | 19/825BD1F0              |          109561238000

 2017-02-06 18:43:45.496094+01 | 1486403025.49609 | 19/841A08D0              |          109590481104

 2017-02-06 18:43:46.57427+01 | 1486403026.57427 | 19/85963088              |          109615394952

 2017-02-06 18:43:47.656056+01 | 1486403027.65606 | 19/873EF8F0              |          109643233520

 2017-02-06 18:43:48.741303+01 | 1486403028.7413 | 19/88BFFA38              |          109668465208

 2017-02-06 18:43:49.822395+01 | 1486403029.8224 | 19/8A5C5928              |          109695490344

 2017-02-06 18:43:50.902367+01 | 1486403030.90237 | 19/8BDE2D38              |          109720775992

 2017-02-06 18:43:51.999693+01 | 1486403031.99969 | 19/8D8196F8              |          109748262648

 2017-02-06 18:43:53.097706+01 | 1486403033.09771 | 19/8EF5E0B8              |          109772660920

 2017-02-06 18:43:54.207006+01 | 1486403034.20701 | 19/909E2870              |          109800466544

 2017-02-06 18:43:55.302034+01 | 1486403035.30203 | 19/91FC16B8              |          109823399608

 2017-02-06 18:43:56.391851+01 | 1486403036.39185 | 19/93A0D1D0              |          109850972624

 2017-02-06 18:43:57.482272+01 | 1486403037.48227 | 19/9517E780              |          109875554176

 2017-02-06 18:43:58.575617+01 | 1486403038.57562 | 19/969EA1E8              |          109901160936

 2017-02-06 18:43:59.662164+01 | 1486403039.66216 | 19/980953F0              |          109924930544

 2017-02-06 18:44:00.747298+01 | 1486403040.7473 | 19/99983B08              |          109951073032

 2017-02-06 18:44:01.835006+01 | 1486403041.83501 | 19/9AE76D38              |          109973040440

 2017-02-06 18:44:02.928692+01 | 1486403042.92869 | 19/9C6846D8              |          109998261976

 2017-02-06 18:44:04.018624+01 | 1486403044.01862 | 19/9DBCAF98              |          110020571032

 2017-02-06 18:44:05.111929+01 | 1486403045.11193 | 19/9F3809D0              |          110045432272

 2017-02-06 18:44:06.212053+01 | 1486403046.21205 | 19/A09308E0              |          110068173024

 2017-02-06 18:44:07.310429+01 | 1486403047.31043 | 19/A20B7E80              |          110092844672

 2017-02-06 18:44:08.41189+01 | 1486403048.41189 | 19/A3542680              |          110114383488

 2017-02-06 18:44:09.501028+01 | 1486403049.50103 | 19/A4C59B08              |          110138596104

 2017-02-06 18:44:10.578833+01 | 1486403050.57883 | 19/A60AFBA0              |          110159920032

 2017-02-06 18:44:11.664595+01 | 1486403051.66459 | 19/A77F9780              |          110184339328

 2017-02-06 18:44:12.728287+01 | 1486403052.72829 | 19/A8BFA5A8              |          110205314472

 2017-02-06 18:44:13.821322+01 | 1486403053.82132 | 19/AA127A90              |          110227520144

 2017-02-06 18:44:14.920493+01 | 1486403054.92049 | 19/AB5A48A0              |          110249003168

 2017-02-06 18:44:16.013746+01 | 1486403056.01375 | 19/AC99F828              |          110269954088

 2017-02-06 18:44:17.115316+01 | 1486403057.11532 | 19/ADEF96E0              |          110292342496

 2017-02-06 18:44:18.212827+01 | 1486403058.21283 | 19/AF30BE70              |          110313389680

 2017-02-06 18:44:19.30868+01 | 1486403059.30868 | 19/B08EB7F0              |          110336325616

 2017-02-06 18:44:20.405688+01 | 1486403060.40569 | 19/B1C5BB70              |          110356708208

 2017-02-06 18:44:21.502919+01 | 1486403061.50292 | 19/B31A4720              |          110379026208

 2017-02-06 18:44:22.598566+01 | 1486403062.59857 | 19/B45F94E8              |          110400345320

 2017-02-06 18:44:23.691082+01 | 1486403063.69108 | 19/B59B8FA0              |          110421053344

 2017-02-06 18:44:24.769192+01 | 1486403064.76919 | 19/B6BA5E08              |          110439849480

 2017-02-06 18:44:25.865795+01 | 1486403065.86579 | 19/B7C2FF40              |          110457192256

 2017-02-06 18:44:26.968229+01 | 1486403066.96823 | 19/B8DE0048              |          110475739208

 2017-02-06 18:44:28.036374+01 | 1486403068.03637 | 19/B9BF1080              |          110490488960

 2017-02-06 18:44:29.132448+01 | 1486403069.13245 | 19/BAB47368              |          110506570600

 2017-02-06 18:44:30.235445+01 | 1486403070.23545 | 19/BBF286F0              |          110527416048

 2017-02-06 18:44:31.329049+01 | 1486403071.32905 | 19/BD1F3160              |          110547120480

 2017-02-06 18:44:32.425932+01 | 1486403072.42593 | 19/BE569E30              |          110567530032

 2017-02-06 18:44:33.514575+01 | 1486403073.51458 | 19/BF781D10              |          110586502416

 2017-02-06 18:44:34.61561+01 | 1486403074.61561 | 19/C0B2A5A0              |          110607115680

 2017-02-06 18:44:35.699553+01 | 1486403075.69955 | 19/C1C68B88              |          110625196936

 2017-02-06 18:44:36.781995+01 | 1486403076.782 | 19/C2E6DD28              |          110644092200

 2017-02-06 18:44:37.873247+01 | 1486403077.87325 | 19/C3FC8678              |          110662289016

 2017-02-06 18:44:38.96315+01 | 1486403078.96315 | 19/C51CEB88              |          110681189256

 2017-02-06 18:44:40.056492+01 | 1486403080.05649 | 19/C62A9728              |          110698862376

 2017-02-06 18:44:41.153685+01 | 1486403081.15369 | 19/C7496958              |          110717659480

 2017-02-06 18:44:42.260685+01 | 1486403082.26068 | 19/C84F5E58              |          110734827096

 2017-02-06 18:44:43.354541+01 | 1486403083.35454 | 19/C969AE18              |          110753328664

 2017-02-06 18:44:44.454231+01 | 1486403084.45423 | 19/CA909268              |          110772654696

 2017-02-06 18:44:45.54877+01 | 1486403085.54877 | 19/CBE65DB8              |          110795054520

 2017-02-06 18:44:46.636551+01 | 1486403086.63655 | 19/CD341C20              |          110816926752

 2017-02-06 18:44:47.702208+01 | 1486403087.70221 | 19/CE4AFF60              |          110835203936

 2017-02-06 18:44:48.785733+01 | 1486403088.78573 | 19/CF8EDEB0              |          110856429232

 2017-02-06 18:44:49.84887+01 | 1486403089.84887 | 19/D0C75E30              |          110876909104

 2017-02-06 18:44:50.938277+01 | 1486403090.93828 | 19/D21BD9C8              |          110899222984

 2017-02-06 18:44:52.032207+01 | 1486403092.03221 | 19/D39DCF58              |          110924517208

 2017-02-06 18:44:53.114704+01 | 1486403093.1147 | 19/D52B1D10              |          110950554896

 2017-02-06 18:44:54.228791+01 | 1486403094.22879 | 19/D6FAF300              |          110980952832

 2017-02-06 18:44:55.29915+01 | 1486403095.29915 | 19/D8A5D970              |          111008930160

 2017-02-06 18:44:56.400621+01 | 1486403096.40062 | 19/DA4FB508              |          111036839176

 2017-02-06 18:44:57.508756+01 | 1486403097.50876 | 19/DB65E438              |          111055070264

 2017-02-06 18:44:58.604297+01 | 1486403098.6043 | 19/DC673728              |          111071934248

 2017-02-06 18:44:59.69022+01 | 1486403099.69022 | 19/DD6E5E78              |          111089180280

 2017-02-06 18:45:00.791419+01 | 1486403100.79142 | 19/DE7CCBE0              |          111106903008

 2017-02-06 18:45:01.866811+01 | 1486403101.86681 | 19/DF7BC810              |          111123613712

 2017-02-06 18:45:02.966173+01 | 1486403102.96617 | 19/E07083F0              |          111139652592

 2017-02-06 18:45:04.056484+01 | 1486403104.05648 | 19/E17BE4C8              |          111157175496

 2017-02-06 18:45:05.15546+01 | 1486403105.15546 | 19/E26C9D80              |          111172951424

 2017-02-06 18:45:06.252762+01 | 1486403106.25276 | 19/E36F2950              |          111189895504

 2017-02-06 18:45:07.357377+01 | 1486403107.35738 | 19/E45A8FB8              |          111205322680

 2017-02-06 18:45:08.443004+01 | 1486403108.443 | 19/E56BD1D0              |          111223230928

 2017-02-06 18:45:09.529268+01 | 1486403109.52927 | 19/E6506E50              |          111238213200

 2017-02-06 18:45:10.619585+01 | 1486403110.61959 | 19/E74454D8              |          111254197464

 2017-02-06 18:45:11.714258+01 | 1486403111.71426 | 19/E82EA3E8              |          111269553128

 2017-02-06 18:45:12.804986+01 | 1486403112.80499 | 19/E92E3880              |          111286302848

 2017-02-06 18:45:13.897921+01 | 1486403113.89792 | 19/EA0FC2A0              |          111301083808

 2017-02-06 18:45:14.991893+01 | 1486403114.99189 | 19/EB06D598              |          111317276056

 2017-02-06 18:45:16.094463+01 | 1486403116.09446 | 19/EBEEDF78              |          111332482936

 2017-02-06 18:45:17.179938+01 | 1486403117.17994 | 19/ECEE46F0              |          111349221104

 2017-02-06 18:45:18.264641+01 | 1486403118.26464 | 19/EDD21450              |          111364150352

 2017-02-06 18:45:19.359545+01 | 1486403119.35954 | 19/EEBFDDB0              |          111379733936

 2017-02-06 18:45:20.460719+01 | 1486403120.46072 | 19/EF8E6ED0              |          111393271504

 2017-02-06 18:45:21.549572+01 | 1486403121.54957 | 19/F0631980              |          111407208832

 2017-02-06 18:45:22.641148+01 | 1486403122.64115 | 19/F11D8498              |          111419425944

 2017-02-06 18:45:23.734177+01 | 1486403123.73418 | 19/F1E67148              |          111432593736

 2017-02-06 18:45:24.822419+01 | 1486403124.82242 | 19/F28EE3C8              |          111443633096

 2017-02-06 18:45:25.905713+01 | 1486403125.90571 | 19/F358F4A0              |          111456875680

 2017-02-06 18:45:26.973455+01 | 1486403126.97345 | 19/F404B908              |          111468132616

 2017-02-06 18:45:28.070181+01 | 1486403128.07018 | 19/F4DA1490              |          111482115216

 2017-02-06 18:45:29.155267+01 | 1486403129.15527 | 19/F5BABE38              |          111496838712

 2017-02-06 18:45:30.259289+01 | 1486403130.25929 | 19/F68794C8              |          111510262984

 2017-02-06 18:45:31.35929+01 | 1486403131.35929 | 19/F77961D0              |          111526109648

 2017-02-06 18:45:32.455436+01 | 1486403132.45544 | 19/F84F35D0              |          111540123088

 2017-02-06 18:45:33.518025+01 | 1486403133.51802 | 19/F920C7D8              |          111553857496

 2017-02-06 18:45:34.624601+01 | 1486403134.6246 | 19/FA133460              |          111569744992

 2017-02-06 18:45:35.709706+01 | 1486403135.70971 | 19/FAED0558              |          111584019800

 2017-02-06 18:45:36.802244+01 | 1486403136.80224 | 19/FBD14550              |          111598978384

 2017-02-06 18:45:37.906392+01 | 1486403137.90639 | 19/FCC68AF8              |          111615052536

 2017-02-06 18:45:39.004822+01 | 1486403139.00482 | 19/FDB56C40              |          111630707776

 2017-02-06 18:45:40.077448+01 | 1486403140.07745 | 19/FE87DF88              |          111644499848

 2017-02-06 18:45:41.170343+01 | 1486403141.17034 | 19/FF5E1680              |          111658538624

 2017-02-06 18:45:42.269371+01 | 1486403142.26937 | 1A/56D3B8                |          111674839992

 2017-02-06 18:45:43.356423+01 | 1486403143.35642 | 1A/148A8F0               |          111690688752

 2017-02-06 18:45:44.435218+01 | 1486403144.43522 | 1A/218DC60               |          111704333408

 2017-02-06 18:45:45.520402+01 | 1486403145.5204 | 1A/2FA0478               |          111719089272

 2017-02-06 18:45:46.600431+01 | 1486403146.60043 | 1A/3D7CB38               |          111733623608

