 2017-02-05 06:11:15.715933+01 | 1486271475.71593 |                 0 |              22 |                 32817 |                 1367 |            3933300 |             0 |                0 |          493871 |                     0 |        197839 | 2017-02-05 04:25:08.73631+01

 2017-02-05 06:11:16.802499+01 | 1486271476.8025 |                 0 |              22 |                 32817 |                 1367 |            3933300 |             0 |                0 |          493871 |                     0 |        197839 | 2017-02-05 04:25:08.73631+01

 2017-02-05 06:11:17.888583+01 | 1486271477.88858 |                 0 |              22 |                 32817 |                 1367 |            3933300 |             0 |                0 |          493871 |                     0 |        197839 | 2017-02-05 04:25:08.73631+01

 2017-02-05 06:11:18.965781+01 | 1486271478.96578 |                 0 |              22 |                 32817 |                 1367 |            3933300 |             0 |                0 |          493871 |                     0 |        197839 | 2017-02-05 04:25:08.73631+01

 2017-02-05 06:11:20.040824+01 | 1486271480.04082 |                 0 |              22 |                 32817 |                 1367 |            3933300 |             0 |                0 |          493871 |                     0 |        197839 | 2017-02-05 04:25:08.73631+01

 2017-02-05 06:11:21.124247+01 | 1486271481.12425 |                 0 |              22 |                 32817 |                 1367 |            3933300 |             0 |                0 |          493871 |                     0 |        197839 | 2017-02-05 04:25:08.73631+01

 2017-02-05 06:11:22.196234+01 | 1486271482.19623 |                 0 |              22 |                 32817 |                 1367 |            3933300 |             0 |                0 |          493871 |                     0 |        197839 | 2017-02-05 04:25:08.73631+01

 2017-02-05 06:11:23.276158+01 | 1486271483.27616 |                 0 |              22 |                 32817 |                 1367 |            3933300 |             0 |                0 |          493871 |                     0 |        197839 | 2017-02-05 04:25:08.73631+01

 2017-02-05 06:11:24.362192+01 | 1486271484.36219 |                 0 |              22 |                 32817 |                 1367 |            3933300 |             0 |                0 |          493871 |                     0 |        197839 | 2017-02-05 04:25:08.73631+01

 2017-02-05 06:11:25.436495+01 | 1486271485.4365 |                 0 |              22 |                 32817 |                 1367 |            3933300 |             0 |                0 |          493871 |                     0 |        197839 | 2017-02-05 04:25:08.73631+01

 2017-02-05 06:11:26.517138+01 | 1486271486.51714 |                 0 |              22 |                 32817 |                 1367 |            3933300 |             0 |                0 |          493871 |                     0 |        197839 | 2017-02-05 04:25:08.73631+01

 2017-02-05 06:11:27.601084+01 | 1486271487.60108 |                 0 |              22 |                 32817 |                 1367 |            3933300 |             0 |                0 |          493871 |                     0 |        197839 | 2017-02-05 04:25:08.73631+01

 2017-02-05 06:11:28.677525+01 | 1486271488.67753 |                 0 |              22 |                 32817 |                 1367 |            3933300 |             0 |                0 |          493871 |                     0 |        197839 | 2017-02-05 04:25:08.73631+01

 2017-02-05 06:11:29.756064+01 | 1486271489.75606 |                 0 |              22 |                 32817 |                 1367 |            3933300 |             0 |                0 |          493871 |                     0 |        197839 | 2017-02-05 04:25:08.73631+01

 2017-02-05 06:11:30.833582+01 | 1486271490.83358 |                 0 |              22 |                 32817 |                 1367 |            3933300 |             0 |                0 |          493871 |                     0 |        197839 | 2017-02-05 04:25:08.73631+01

 2017-02-05 06:11:31.904574+01 | 1486271491.90457 |                 0 |              22 |                 32817 |                 1367 |            3933300 |             0 |                0 |          493871 |                     0 |        197839 | 2017-02-05 04:25:08.73631+01

 2017-02-05 06:11:32.984585+01 | 1486271492.98459 |                 0 |              22 |                 32817 |                 1367 |            3933300 |             0 |                0 |          493871 |                     0 |        197839 | 2017-02-05 04:25:08.73631+01

 2017-02-05 06:11:34.065464+01 | 1486271494.06546 |                 0 |              22 |                 32817 |                 1367 |            3933300 |             0 |                0 |          493871 |                     0 |        197839 | 2017-02-05 04:25:08.73631+01

 2017-02-05 06:11:35.138134+01 | 1486271495.13813 |                 0 |              22 |                 32817 |                 1367 |            3933300 |             0 |                0 |          493871 |                     0 |        197839 | 2017-02-05 04:25:08.73631+01

 2017-02-05 06:11:36.210538+01 | 1486271496.21054 |                 0 |              22 |                 32817 |                 1367 |            3933300 |             0 |                0 |          493871 |                     0 |        197839 | 2017-02-05 04:25:08.73631+01

 2017-02-05 06:11:37.284929+01 | 1486271497.28493 |                 0 |              22 |                 32817 |                 1367 |            3933300 |             0 |                0 |          493871 |                     0 |        197839 | 2017-02-05 04:25:08.73631+01

 2017-02-05 06:11:38.363689+01 | 1486271498.36369 |                 0 |              22 |                 32817 |                 1367 |            3933300 |             0 |                0 |          493871 |                     0 |        197839 | 2017-02-05 04:25:08.73631+01

 2017-02-05 06:11:39.437716+01 | 1486271499.43772 |                 0 |              22 |                 32817 |                 1367 |            3933300 |             0 |                0 |          493871 |                     0 |        197839 | 2017-02-05 04:25:08.73631+01

 2017-02-05 06:11:40.511674+01 | 1486271500.51167 |                 0 |              22 |                 32817 |                 1367 |            3933300 |             0 |                0 |          493871 |                     0 |        197839 | 2017-02-05 04:25:08.73631+01

 2017-02-05 06:11:41.592007+01 | 1486271501.59201 |                 0 |              22 |                 32817 |                 1367 |            3933300 |             0 |                0 |          493871 |                     0 |        197839 | 2017-02-05 04:25:08.73631+01

 2017-02-05 06:11:42.671319+01 | 1486271502.67132 |                 0 |              22 |                 32817 |                 1367 |            3933300 |             0 |                0 |          493871 |                     0 |        197839 | 2017-02-05 04:25:08.73631+01

 2017-02-05 06:11:43.745258+01 | 1486271503.74526 |                 0 |              22 |                 32817 |                 1367 |            3933300 |             0 |                0 |          493871 |                     0 |        197839 | 2017-02-05 04:25:08.73631+01

 2017-02-05 06:11:44.823911+01 | 1486271504.82391 |                 0 |              22 |                 32817 |                 1367 |            3933300 |             0 |                0 |          493871 |                     0 |        197839 | 2017-02-05 04:25:08.73631+01

 2017-02-05 06:11:45.906146+01 | 1486271505.90615 |                 0 |              22 |                 32817 |                 1367 |            3933300 |             0 |                0 |          493871 |                     0 |        197839 | 2017-02-05 04:25:08.73631+01

 2017-02-05 06:11:46.9912+01 | 1486271506.9912 |                 0 |              22 |                 32817 |                 1367 |            3933300 |             0 |                0 |          493871 |                     0 |        197839 | 2017-02-05 04:25:08.73631+01

 2017-02-05 06:11:48.072183+01 | 1486271508.07218 |                 0 |              22 |                 32817 |                 1367 |            3933300 |             0 |                0 |          493871 |                     0 |        197839 | 2017-02-05 04:25:08.73631+01

 2017-02-05 06:11:49.155711+01 | 1486271509.15571 |                 0 |              22 |                 32817 |                 1367 |            3933300 |             0 |                0 |          493871 |                     0 |        197839 | 2017-02-05 04:25:08.73631+01

 2017-02-05 06:11:50.229989+01 | 1486271510.22999 |                 0 |              22 |                 32817 |                 1367 |            3933300 |             0 |                0 |          493871 |                     0 |        197839 | 2017-02-05 04:25:08.73631+01

 2017-02-05 06:11:51.308612+01 | 1486271511.30861 |                 0 |              22 |                 32817 |                 1367 |            3933300 |             0 |                0 |          493871 |                     0 |        197839 | 2017-02-05 04:25:08.73631+01

 2017-02-05 06:11:52.3824+01 | 1486271512.3824 |                 0 |              22 |                 32817 |                 1367 |            3933300 |             0 |                0 |          493871 |                     0 |        197839 | 2017-02-05 04:25:08.73631+01

 2017-02-05 06:11:53.454307+01 | 1486271513.45431 |                 0 |              22 |                 32817 |                 1367 |            3933300 |             0 |                0 |          493871 |                     0 |        197839 | 2017-02-05 04:25:08.73631+01

 2017-02-05 06:11:54.531923+01 | 1486271514.53192 |                 0 |              22 |                 32817 |                 1367 |            3933300 |             0 |                0 |          493871 |                     0 |        197839 | 2017-02-05 04:25:08.73631+01

 2017-02-05 06:11:55.610309+01 | 1486271515.61031 |                 0 |              22 |                 32817 |                 1367 |            3933300 |             0 |                0 |          493871 |                     0 |        197839 | 2017-02-05 04:25:08.73631+01

 2017-02-05 06:11:56.684229+01 | 1486271516.68423 |                 0 |              22 |                 32817 |                 1367 |            3933300 |             0 |                0 |          493871 |                     0 |        197839 | 2017-02-05 04:25:08.73631+01

 2017-02-05 06:11:57.756879+01 | 1486271517.75688 |                 0 |              22 |                 32817 |                 1367 |            3933300 |             0 |                0 |          493871 |                     0 |        197839 | 2017-02-05 04:25:08.73631+01

 2017-02-05 06:11:58.835794+01 | 1486271518.83579 |                 0 |              22 |                 32817 |                 1367 |            3933300 |             0 |                0 |          493871 |                     0 |        197839 | 2017-02-05 04:25:08.73631+01

 2017-02-05 06:11:59.905598+01 | 1486271519.9056 |                 0 |              22 |                 32817 |                 1367 |            3933300 |             0 |                0 |          493871 |                     0 |        197839 | 2017-02-05 04:25:08.73631+01

 2017-02-05 06:12:00.981537+01 | 1486271520.98154 |                 0 |              22 |                 32817 |                 1367 |            3933300 |             0 |                0 |          493871 |                     0 |        197839 | 2017-02-05 04:25:08.73631+01

 2017-02-05 06:12:02.059693+01 | 1486271522.05969 |                 0 |              22 |                 32817 |                 1367 |            3933300 |             0 |                0 |          493871 |                     0 |        197839 | 2017-02-05 04:25:08.73631+01

 2017-02-05 06:12:03.14467+01 | 1486271523.14467 |                 0 |              22 |                 32817 |                 1367 |            3933300 |             0 |                0 |          493871 |                     0 |        197839 | 2017-02-05 04:25:08.73631+01

 2017-02-05 06:12:04.225914+01 | 1486271524.22591 |                 0 |              22 |                 32817 |                 1367 |            3933300 |             0 |                0 |          493871 |                     0 |        197839 | 2017-02-05 04:25:08.73631+01

 2017-02-05 06:12:05.297933+01 | 1486271525.29793 |                 0 |              22 |                 32817 |                 1367 |            3933300 |             0 |                0 |          493871 |                     0 |        197839 | 2017-02-05 04:25:08.73631+01

 2017-02-05 06:12:06.37418+01 | 1486271526.37418 |                 0 |              22 |                 32817 |                 1367 |            3933300 |             0 |                0 |          493871 |                     0 |        197839 | 2017-02-05 04:25:08.73631+01

 2017-02-05 06:12:07.455765+01 | 1486271527.45577 |                 0 |              22 |                 32817 |                 1367 |            3933300 |             0 |                0 |          493871 |                     0 |        197839 | 2017-02-05 04:25:08.73631+01

 2017-02-05 06:12:08.530998+01 | 1486271528.531 |                 0 |              22 |                 32817 |                 1367 |            3933300 |             0 |                0 |          493871 |                     0 |        197839 | 2017-02-05 04:25:08.73631+01

 2017-02-05 06:12:09.60422+01 | 1486271529.60422 |                 0 |              22 |                 32817 |                 1367 |            3933300 |             0 |                0 |          493871 |                     0 |        197839 | 2017-02-05 04:25:08.73631+01

 2017-02-05 06:12:10.681209+01 | 1486271530.68121 |                 0 |              22 |                 32817 |                 1367 |            3933300 |             0 |                0 |          493871 |                     0 |        197839 | 2017-02-05 04:25:08.73631+01

 2017-02-05 06:12:11.758739+01 | 1486271531.75874 |                 0 |              22 |                 32817 |                 1367 |            3933300 |             0 |                0 |          493871 |                     0 |        197839 | 2017-02-05 04:25:08.73631+01

 2017-02-05 06:12:12.828342+01 | 1486271532.82834 |                 0 |              22 |                 32817 |                 1367 |            3933300 |             0 |                0 |          493871 |                     0 |        197839 | 2017-02-05 04:25:08.73631+01

 2017-02-05 06:12:13.901586+01 | 1486271533.90159 |                 0 |              22 |                 32817 |                 1367 |            3933300 |             0 |                0 |          493871 |                     0 |        197839 | 2017-02-05 04:25:08.73631+01

 2017-02-05 06:12:14.982365+01 | 1486271534.98236 |                 0 |              22 |                 32817 |                 1367 |            3933300 |             0 |                0 |          493871 |                     0 |        197839 | 2017-02-05 04:25:08.73631+01

 2017-02-05 06:12:16.057108+01 | 1486271536.05711 |                 0 |              22 |                 32817 |                 1367 |            3933300 |             0 |                0 |          493871 |                     0 |        197839 | 2017-02-05 04:25:08.73631+01

 2017-02-05 06:12:17.136302+01 | 1486271537.1363 |                 0 |              22 |                 32817 |                 1367 |            3933300 |             0 |                0 |          493871 |                     0 |        197839 | 2017-02-05 04:25:08.73631+01

 2017-02-05 06:12:18.207589+01 | 1486271538.20759 |                 0 |              22 |                 32817 |                 1367 |            3933300 |             0 |                0 |          493871 |                     0 |        197839 | 2017-02-05 04:25:08.73631+01

 2017-02-05 06:12:19.286263+01 | 1486271539.28626 |                 0 |              22 |                 32817 |                 1367 |            3933300 |             0 |                0 |          493871 |                     0 |        197839 | 2017-02-05 04:25:08.73631+01

 2017-02-05 06:12:20.366062+01 | 1486271540.36606 |                 0 |              22 |                 32817 |                 1367 |            3933300 |             0 |                0 |          493871 |                     0 |        197839 | 2017-02-05 04:25:08.73631+01

 2017-02-05 06:12:21.446038+01 | 1486271541.44604 |                 0 |              22 |                 32817 |                 1367 |            3933300 |             0 |                0 |          493871 |                     0 |        197839 | 2017-02-05 04:25:08.73631+01

 2017-02-05 06:12:22.513485+01 | 1486271542.51348 |                 0 |              22 |                 32817 |                 1367 |            3933300 |             0 |                0 |          493871 |                     0 |        197839 | 2017-02-05 04:25:08.73631+01

 2017-02-05 06:12:23.587998+01 | 1486271543.588 |                 0 |              22 |                 32817 |                 1367 |            3933300 |             0 |                0 |          493871 |                     0 |        197839 | 2017-02-05 04:25:08.73631+01

 2017-02-05 06:12:24.665398+01 | 1486271544.6654 |                 0 |              22 |                 32817 |                 1367 |            3933300 |             0 |                0 |          493871 |                     0 |        197839 | 2017-02-05 04:25:08.73631+01

 2017-02-05 06:12:25.749647+01 | 1486271545.74965 |                 0 |              22 |                 32817 |                 1367 |            3933300 |             0 |                0 |          493871 |                     0 |        197839 | 2017-02-05 04:25:08.73631+01

 2017-02-05 06:12:26.824251+01 | 1486271546.82425 |                 0 |              22 |                 32817 |                 1367 |            3933300 |             0 |                0 |          493871 |                     0 |        197839 | 2017-02-05 04:25:08.73631+01

 2017-02-05 06:12:27.901145+01 | 1486271547.90114 |                 0 |              22 |                 32817 |                 1367 |            3933300 |             0 |                0 |          493871 |                     0 |        197839 | 2017-02-05 04:25:08.73631+01

 2017-02-05 06:12:28.978973+01 | 1486271548.97897 |                 0 |              22 |                 32817 |                 1367 |            3933300 |             0 |                0 |          493871 |                     0 |        197839 | 2017-02-05 04:25:08.73631+01

 2017-02-05 06:12:30.048917+01 | 1486271550.04892 |                 0 |              22 |                 32817 |                 1367 |            3933300 |             0 |                0 |          493871 |                     0 |        197839 | 2017-02-05 04:25:08.73631+01

 2017-02-05 06:12:31.123956+01 | 1486271551.12396 |                 0 |              22 |                 32817 |                 1367 |            3933300 |             0 |                0 |          493871 |                     0 |        197839 | 2017-02-05 04:25:08.73631+01

 2017-02-05 06:12:32.200587+01 | 1486271552.20059 |                 0 |              22 |                 32817 |                 1367 |            3933300 |             0 |                0 |          493871 |                     0 |        197839 | 2017-02-05 04:25:08.73631+01

 2017-02-05 06:12:33.279509+01 | 1486271553.27951 |                 0 |              22 |                 32817 |                 1367 |            3933300 |             0 |                0 |          493871 |                     0 |        197839 | 2017-02-05 04:25:08.73631+01

 2017-02-05 06:12:34.35125+01 | 1486271554.35125 |                 0 |              22 |                 32817 |                 1367 |            3933300 |             0 |                0 |          493871 |                     0 |        197839 | 2017-02-05 04:25:08.73631+01

 2017-02-05 06:12:35.42421+01 | 1486271555.42421 |                 0 |              22 |                 32817 |                 1367 |            3933300 |             0 |                0 |          493871 |                     0 |        197839 | 2017-02-05 04:25:08.73631+01

 2017-02-05 06:12:36.508139+01 | 1486271556.50814 |                 0 |              22 |                 32817 |                 1367 |            3933300 |             0 |                0 |          493871 |                     0 |        197839 | 2017-02-05 04:25:08.73631+01

 2017-02-05 06:12:37.593621+01 | 1486271557.59362 |                 0 |              22 |                 32817 |                 1367 |            3933300 |             0 |                0 |          493871 |                     0 |        197839 | 2017-02-05 04:25:08.73631+01

 2017-02-05 06:12:38.671655+01 | 1486271558.67165 |                 0 |              22 |                 32817 |                 1367 |            3933300 |             0 |                0 |          493871 |                     0 |        197839 | 2017-02-05 04:25:08.73631+01

 2017-02-05 06:12:39.757508+01 | 1486271559.75751 |                 0 |              22 |                 32817 |                 1367 |            3933300 |             0 |                0 |          493871 |                     0 |        197839 | 2017-02-05 04:25:08.73631+01

 2017-02-05 06:12:40.830243+01 | 1486271560.83024 |                 0 |              22 |                 32817 |                 1367 |            3933300 |             0 |                0 |          493871 |                     0 |        197839 | 2017-02-05 04:25:08.73631+01

 2017-02-05 06:12:41.897424+01 | 1486271561.89742 |                 0 |              22 |                 32817 |                 1367 |            3933300 |             0 |                0 |          493871 |                     0 |        197839 | 2017-02-05 04:25:08.73631+01

 2017-02-05 06:12:42.977905+01 | 1486271562.97791 |                 0 |              22 |                 32817 |                 1367 |            3933300 |             0 |                0 |          493871 |                     0 |        197839 | 2017-02-05 04:25:08.73631+01

 2017-02-05 06:12:44.061152+01 | 1486271564.06115 |                 0 |              22 |                 32817 |                 1367 |            3933300 |             0 |                0 |          493871 |                     0 |        197839 | 2017-02-05 04:25:08.73631+01

 2017-02-05 06:12:45.147096+01 | 1486271565.1471 |                 0 |              22 |                 32817 |                 1367 |            3933300 |             0 |                0 |          493871 |                     0 |        197839 | 2017-02-05 04:25:08.73631+01

 2017-02-05 06:12:46.225141+01 | 1486271566.22514 |                 0 |              22 |                 32817 |                 1367 |            3933300 |             0 |                0 |          493871 |                     0 |        197839 | 2017-02-05 04:25:08.73631+01

 2017-02-05 06:12:47.307411+01 | 1486271567.30741 |                 0 |              22 |                 32817 |                 1367 |            3933300 |             0 |                0 |          493871 |                     0 |        197839 | 2017-02-05 04:25:08.73631+01

 2017-02-05 06:12:48.383085+01 | 1486271568.38309 |                 0 |              22 |                 32817 |                 1367 |            3933300 |             0 |                0 |          493871 |                     0 |        197839 | 2017-02-05 04:25:08.73631+01

 2017-02-05 06:12:49.466507+01 | 1486271569.46651 |                 0 |              22 |                 32817 |                 1367 |            3933300 |             0 |                0 |          493871 |                     0 |        197839 | 2017-02-05 04:25:08.73631+01

 2017-02-05 06:12:50.551341+01 | 1486271570.55134 |                 0 |              22 |                 32817 |                 1367 |            3933300 |             0 |                0 |          493871 |                     0 |        197839 | 2017-02-05 04:25:08.73631+01

 2017-02-05 06:12:51.625486+01 | 1486271571.62549 |                 0 |              22 |                 32817 |                 1367 |            3933300 |             0 |                0 |          493871 |                     0 |        197839 | 2017-02-05 04:25:08.73631+01

 2017-02-05 06:12:52.704469+01 | 1486271572.70447 |                 0 |              22 |                 32817 |                 1367 |            3933300 |             0 |                0 |          493871 |                     0 |        197839 | 2017-02-05 04:25:08.73631+01

 2017-02-05 06:12:53.78339+01 | 1486271573.78339 |                 0 |              22 |                 32817 |                 1367 |            3933300 |             0 |                0 |          493871 |                     0 |        197839 | 2017-02-05 04:25:08.73631+01

 2017-02-05 06:12:54.856714+01 | 1486271574.85671 |                 0 |              22 |                 32817 |                 1367 |            3933300 |             0 |                0 |          493871 |                     0 |        197839 | 2017-02-05 04:25:08.73631+01

 2017-02-05 06:12:55.930674+01 | 1486271575.93067 |                 0 |              22 |                 32817 |                 1367 |            3933300 |             0 |                0 |          493871 |                     0 |        197839 | 2017-02-05 04:25:08.73631+01

 2017-02-05 06:12:57.018395+01 | 1486271577.01839 |                 0 |              22 |                 32817 |                 1367 |            3933300 |             0 |                0 |          493871 |                     0 |        197839 | 2017-02-05 04:25:08.73631+01

 2017-02-05 06:12:58.088629+01 | 1486271578.08863 |                 0 |              22 |                 32817 |                 1367 |            3933300 |             0 |                0 |          493871 |                     0 |        197839 | 2017-02-05 04:25:08.73631+01

 2017-02-05 06:12:59.165912+01 | 1486271579.16591 |                 0 |              22 |                 32817 |                 1367 |            3933300 |             0 |                0 |          493871 |                     0 |        197839 | 2017-02-05 04:25:08.73631+01

 2017-02-05 06:13:00.245652+01 | 1486271580.24565 |                 0 |              22 |                 32817 |                 1367 |            3933300 |             0 |                0 |          493871 |                     0 |        197839 | 2017-02-05 04:25:08.73631+01

 2017-02-05 06:13:01.324229+01 | 1486271581.32423 |                 0 |              22 |                 32817 |                 1367 |            3933300 |             0 |                0 |          493871 |                     0 |        197839 | 2017-02-05 04:25:08.73631+01

 2017-02-05 06:13:02.400154+01 | 1486271582.40015 |                 0 |              22 |                 32817 |                 1367 |            3933300 |             0 |                0 |          493871 |                     0 |        197839 | 2017-02-05 04:25:08.73631+01

 2017-02-05 06:13:03.47545+01 | 1486271583.47545 |                 0 |              22 |                 32817 |                 1367 |            3933300 |             0 |                0 |          493871 |                     0 |        197839 | 2017-02-05 04:25:08.73631+01

 2017-02-05 06:13:04.548409+01 | 1486271584.54841 |                 0 |              22 |                 32817 |                 1367 |            3933300 |             0 |                0 |          493871 |                     0 |        197839 | 2017-02-05 04:25:08.73631+01

 2017-02-05 06:13:05.624344+01 | 1486271585.62434 |                 0 |              22 |                 32817 |                 1367 |            3933300 |             0 |                0 |          493871 |                     0 |        197839 | 2017-02-05 04:25:08.73631+01

 2017-02-05 06:13:06.695669+01 | 1486271586.69567 |                 0 |              22 |                 32817 |                 1367 |            3933300 |             0 |                0 |          493871 |                     0 |        197839 | 2017-02-05 04:25:08.73631+01

 2017-02-05 06:13:07.776682+01 | 1486271587.77668 |                 0 |              22 |                 32817 |                 1367 |            3933300 |             0 |                0 |          493871 |                     0 |        197839 | 2017-02-05 04:25:08.73631+01

 2017-02-05 06:13:08.854028+01 | 1486271588.85403 |                 0 |              22 |                 32817 |                 1367 |            3933300 |             0 |                0 |          493871 |                     0 |        197839 | 2017-02-05 04:25:08.73631+01

 2017-02-05 06:13:09.933618+01 | 1486271589.93362 |                 0 |              22 |                 32817 |                 1367 |            3933300 |             0 |                0 |          493871 |                     0 |        197839 | 2017-02-05 04:25:08.73631+01

 2017-02-05 06:13:11.007692+01 | 1486271591.00769 |                 0 |              22 |                 32817 |                 1367 |            3933300 |             0 |                0 |          493871 |                     0 |        197839 | 2017-02-05 04:25:08.73631+01

 2017-02-05 06:13:12.084823+01 | 1486271592.08482 |                 0 |              22 |                 32817 |                 1367 |            3933300 |             0 |                0 |          493871 |                     0 |        197839 | 2017-02-05 04:25:08.73631+01

 2017-02-05 06:13:13.160893+01 | 1486271593.16089 |                 0 |              22 |                 32817 |                 1367 |            3933300 |             0 |                0 |          493871 |                     0 |        197839 | 2017-02-05 04:25:08.73631+01

 2017-02-05 06:13:14.231347+01 | 1486271594.23135 |                 0 |              22 |                 32817 |                 1367 |            3933300 |             0 |                0 |          493871 |                     0 |        197839 | 2017-02-05 04:25:08.73631+01

 2017-02-05 06:13:15.310055+01 | 1486271595.31006 |                 0 |              22 |                 32817 |                 1367 |            3933300 |             0 |                0 |          493871 |                     0 |        197839 | 2017-02-05 04:25:08.73631+01

 2017-02-05 06:13:16.396085+01 | 1486271596.39609 |                 0 |              22 |                 32817 |                 1367 |            3933300 |             0 |                0 |          493871 |                     0 |        197839 | 2017-02-05 04:25:08.73631+01

 2017-02-05 06:13:17.474637+01 | 1486271597.47464 |                 0 |              22 |                 32817 |                 1367 |            3933300 |             0 |                0 |          493871 |                     0 |        197839 | 2017-02-05 04:25:08.73631+01

 2017-02-05 06:13:18.550857+01 | 1486271598.55086 |                 0 |              22 |                 32817 |                 1367 |            3933300 |             0 |                0 |          493871 |                     0 |        197839 | 2017-02-05 04:25:08.73631+01

 2017-02-05 06:13:19.627364+01 | 1486271599.62736 |                 0 |              22 |                 32817 |                 1367 |            3933300 |             0 |                0 |          493871 |                     0 |        197839 | 2017-02-05 04:25:08.73631+01

 2017-02-05 06:13:20.705382+01 | 1486271600.70538 |                 0 |              22 |                 32817 |                 1367 |            3933300 |             0 |                0 |          493871 |                     0 |        197839 | 2017-02-05 04:25:08.73631+01

 2017-02-05 06:13:21.778952+01 | 1486271601.77895 |                 0 |              22 |                 32817 |                 1367 |            3933300 |             0 |                0 |          493871 |                     0 |        197839 | 2017-02-05 04:25:08.73631+01

 2017-02-05 06:13:22.856023+01 | 1486271602.85602 |                 0 |              22 |                 32817 |                 1367 |            3933300 |             0 |                0 |          493871 |                     0 |        197839 | 2017-02-05 04:25:08.73631+01

 2017-02-05 06:13:23.93489+01 | 1486271603.93489 |                 0 |              22 |                 32817 |                 1367 |            3933300 |             0 |                0 |          493871 |                     0 |        197839 | 2017-02-05 04:25:08.73631+01

 2017-02-05 06:13:25.01864+01 | 1486271605.01864 |                 0 |              22 |                 32817 |                 1367 |            3933300 |             0 |                0 |          493871 |                     0 |        197839 | 2017-02-05 04:25:08.73631+01

 2017-02-05 06:13:26.096821+01 | 1486271606.09682 |                 0 |              22 |                 32817 |                 1367 |            3933300 |             0 |                0 |          493871 |                     0 |        197839 | 2017-02-05 04:25:08.73631+01

 2017-02-05 06:13:27.186365+01 | 1486271607.18636 |                 0 |              22 |                 32817 |                 1367 |            3933300 |             0 |                0 |          493871 |                     0 |        197839 | 2017-02-05 04:25:08.73631+01

 2017-02-05 06:13:28.260688+01 | 1486271608.26069 |                 0 |              22 |                 32817 |                 1367 |            3933300 |             0 |                0 |          493871 |                     0 |        197839 | 2017-02-05 04:25:08.73631+01

 2017-02-05 06:13:29.337736+01 | 1486271609.33774 |                 0 |              22 |                 32817 |                 1367 |            3933300 |             0 |                0 |          493871 |                     0 |        197839 | 2017-02-05 04:25:08.73631+01

 2017-02-05 06:13:30.41408+01 | 1486271610.41408 |                 0 |              22 |                 32817 |                 1367 |            3933300 |             0 |                0 |          493871 |                     0 |        197839 | 2017-02-05 04:25:08.73631+01

 2017-02-05 06:13:31.489605+01 | 1486271611.4896 |                 0 |              22 |                 32817 |                 1367 |            3933300 |             0 |                0 |          493871 |                     0 |        197839 | 2017-02-05 04:25:08.73631+01

 2017-02-05 06:13:32.562781+01 | 1486271612.56278 |                 0 |              22 |                 32817 |                 1367 |            3933300 |             0 |                0 |          493871 |                     0 |        197839 | 2017-02-05 04:25:08.73631+01

 2017-02-05 06:13:33.648639+01 | 1486271613.64864 |                 0 |              22 |                 32817 |                 1367 |            3933300 |             0 |                0 |          493871 |                     0 |        197839 | 2017-02-05 04:25:08.73631+01

 2017-02-05 06:13:34.724101+01 | 1486271614.7241 |                 0 |              22 |                 32817 |                 1367 |            3933300 |             0 |                0 |          493871 |                     0 |        197839 | 2017-02-05 04:25:08.73631+01

 2017-02-05 06:13:35.796429+01 | 1486271615.79643 |                 0 |              22 |                 32817 |                 1367 |            3933300 |             0 |                0 |          493871 |                     0 |        197839 | 2017-02-05 04:25:08.73631+01

 2017-02-05 06:13:36.872019+01 | 1486271616.87202 |                 0 |              22 |                 32817 |                 1367 |            3933300 |             0 |                0 |          493871 |                     0 |        197839 | 2017-02-05 04:25:08.73631+01

 2017-02-05 06:13:37.950317+01 | 1486271617.95032 |                 0 |              22 |                 32817 |                 1367 |            3933300 |             0 |                0 |          493871 |                     0 |        197839 | 2017-02-05 04:25:08.73631+01

 2017-02-05 06:13:39.025148+01 | 1486271619.02515 |                 0 |              22 |                 32817 |                 1367 |            3933300 |             0 |                0 |          493871 |                     0 |        197839 | 2017-02-05 04:25:08.73631+01

 2017-02-05 06:13:40.10883+01 | 1486271620.10883 |                 0 |              22 |                 32817 |                 1367 |            3933300 |             0 |                0 |          493871 |                     0 |        197839 | 2017-02-05 04:25:08.73631+01

 2017-02-05 06:13:41.185277+01 | 1486271621.18528 |                 0 |              22 |                 32817 |                 1367 |            3933300 |             0 |                0 |          493871 |                     0 |        197839 | 2017-02-05 04:25:08.73631+01

 2017-02-05 06:13:42.263399+01 | 1486271622.2634 |                 0 |              22 |                 32817 |                 1367 |            3933300 |             0 |                0 |          493871 |                     0 |        197839 | 2017-02-05 04:25:08.73631+01

 2017-02-05 06:13:43.346203+01 | 1486271623.3462 |                 0 |              22 |                 32817 |                 1367 |            3933300 |             0 |                0 |          493871 |                     0 |        197839 | 2017-02-05 04:25:08.73631+01

 2017-02-05 06:13:44.43734+01 | 1486271624.43734 |                 0 |              22 |                 32817 |                 1367 |            3933300 |             0 |                0 |          493871 |                     0 |        197839 | 2017-02-05 04:25:08.73631+01

 2017-02-05 06:13:45.518798+01 | 1486271625.5188 |                 0 |              22 |                 32817 |                 1367 |            3933300 |             0 |                0 |          493871 |                     0 |        197839 | 2017-02-05 04:25:08.73631+01

 2017-02-05 06:13:46.587501+01 | 1486271626.5875 |                 0 |              22 |                 32817 |                 1367 |            3933300 |             0 |                0 |          493871 |                     0 |        197839 | 2017-02-05 04:25:08.73631+01

 2017-02-05 06:13:47.663912+01 | 1486271627.66391 |                 0 |              22 |                 32817 |                 1367 |            3933300 |             0 |                0 |          493871 |                     0 |        197839 | 2017-02-05 04:25:08.73631+01

 2017-02-05 06:13:48.744228+01 | 1486271628.74423 |                 0 |              22 |                 32817 |                 1367 |            3933300 |             0 |                0 |          493871 |                     0 |        197839 | 2017-02-05 04:25:08.73631+01

 2017-02-05 06:13:49.827869+01 | 1486271629.82787 |                 0 |              22 |                 32817 |                 1367 |            3933300 |             0 |                0 |          493871 |                     0 |        197839 | 2017-02-05 04:25:08.73631+01

 2017-02-05 06:13:50.910065+01 | 1486271630.91006 |                 0 |              22 |                 32817 |                 1367 |            3933300 |             0 |                0 |          493871 |                     0 |        197839 | 2017-02-05 04:25:08.73631+01

 2017-02-05 06:13:51.990356+01 | 1486271631.99036 |                 0 |              22 |                 32817 |                 1367 |            3933300 |             0 |                0 |          493871 |                     0 |        197839 | 2017-02-05 04:25:08.73631+01

 2017-02-05 06:13:53.065252+01 | 1486271633.06525 |                 0 |              22 |                 32817 |                 1367 |            3933300 |             0 |                0 |          493871 |                     0 |        197839 | 2017-02-05 04:25:08.73631+01

 2017-02-05 06:13:54.135887+01 | 1486271634.13589 |                 0 |              22 |                 32817 |                 1367 |            3933300 |             0 |                0 |          493871 |                     0 |        197839 | 2017-02-05 04:25:08.73631+01

 2017-02-05 06:13:55.221254+01 | 1486271635.22125 |                 0 |              22 |                 32817 |                 1367 |            3933300 |             0 |                0 |          493871 |                     0 |        197839 | 2017-02-05 04:25:08.73631+01

 2017-02-05 06:13:56.294559+01 | 1486271636.29456 |                 0 |              22 |                 32817 |                 1367 |            3933300 |             0 |                0 |          493871 |                     0 |        197839 | 2017-02-05 04:25:08.73631+01

 2017-02-05 06:13:57.379563+01 | 1486271637.37956 |                 0 |              22 |                 32817 |                 1367 |            3933300 |             0 |                0 |          493871 |                     0 |        197839 | 2017-02-05 04:25:08.73631+01

 2017-02-05 06:13:58.452164+01 | 1486271638.45216 |                 0 |              22 |                 32817 |                 1367 |            3933300 |             0 |                0 |          493871 |                     0 |        197839 | 2017-02-05 04:25:08.73631+01

 2017-02-05 06:13:59.529297+01 | 1486271639.5293 |                 0 |              22 |                 32817 |                 1367 |            3933300 |             0 |                0 |          493871 |                     0 |        197839 | 2017-02-05 04:25:08.73631+01

 2017-02-05 06:14:00.607945+01 | 1486271640.60794 |                 0 |              22 |                 32817 |                 1367 |            3933300 |             0 |                0 |          493871 |                     0 |        197839 | 2017-02-05 04:25:08.73631+01

 2017-02-05 06:14:01.69012+01 | 1486271641.69012 |                 0 |              22 |                 32817 |                 1367 |            3933300 |             0 |                0 |          493871 |                     0 |        197839 | 2017-02-05 04:25:08.73631+01

 2017-02-05 06:14:02.762685+01 | 1486271642.76269 |                 0 |              22 |                 32817 |                 1367 |            3933300 |             0 |                0 |          493871 |                     0 |        197839 | 2017-02-05 04:25:08.73631+01

 2017-02-05 06:14:03.837756+01 | 1486271643.83776 |                 0 |              22 |                 32817 |                 1367 |            3933300 |             0 |                0 |          493871 |                     0 |        197839 | 2017-02-05 04:25:08.73631+01

 2017-02-05 06:14:04.915095+01 | 1486271644.9151 |                 0 |              22 |                 32817 |                 1367 |            3933300 |             0 |                0 |          493871 |                     0 |        197839 | 2017-02-05 04:25:08.73631+01

 2017-02-05 06:14:06.004966+01 | 1486271646.00497 |                 0 |              22 |                 32817 |                 1367 |            3933300 |             0 |                0 |          493871 |                     0 |        197839 | 2017-02-05 04:25:08.73631+01

 2017-02-05 06:14:07.086049+01 | 1486271647.08605 |                 0 |              22 |                 32817 |                 1367 |            3933300 |             0 |                0 |          493871 |                     0 |        197839 | 2017-02-05 04:25:08.73631+01

 2017-02-05 06:14:08.162941+01 | 1486271648.16294 |                 0 |              22 |                 32817 |                 1367 |            3933300 |             0 |                0 |          493871 |                     0 |        197839 | 2017-02-05 04:25:08.73631+01

 2017-02-05 06:14:09.232665+01 | 1486271649.23267 |                 0 |              22 |                 32817 |                 1367 |            3933300 |             0 |                0 |          493871 |                     0 |        197839 | 2017-02-05 04:25:08.73631+01

 2017-02-05 06:14:10.308223+01 | 1486271650.30822 |                 0 |              22 |                 32817 |                 1367 |            3933300 |             0 |                0 |          493871 |                     0 |        197839 | 2017-02-05 04:25:08.73631+01

 2017-02-05 06:14:11.384821+01 | 1486271651.38482 |                 0 |              22 |                 32817 |                 1367 |            3933300 |             0 |                0 |          493871 |                     0 |        197839 | 2017-02-05 04:25:08.73631+01

 2017-02-05 06:14:12.462536+01 | 1486271652.46254 |                 0 |              22 |                 32817 |                 1367 |            3933300 |             0 |                0 |          493871 |                     0 |        197839 | 2017-02-05 04:25:08.73631+01

 2017-02-05 06:14:13.540599+01 | 1486271653.5406 |                 0 |              22 |                 32817 |                 1367 |            3933300 |             0 |                0 |          493871 |                     0 |        197839 | 2017-02-05 04:25:08.73631+01

 2017-02-05 06:14:14.616035+01 | 1486271654.61603 |                 0 |              22 |                 32817 |                 1367 |            3933300 |             0 |                0 |          493871 |                     0 |        197839 | 2017-02-05 04:25:08.73631+01

 2017-02-05 06:14:15.696052+01 | 1486271655.69605 |                 0 |              22 |                 32817 |                 1367 |            3933300 |             0 |                0 |          493871 |                     0 |        197839 | 2017-02-05 04:25:08.73631+01

 2017-02-05 06:14:16.771162+01 | 1486271656.77116 |                 0 |              22 |                 32817 |                 1367 |            3933300 |             0 |                0 |          493871 |                     0 |        197839 | 2017-02-05 04:25:08.73631+01

 2017-02-05 06:14:17.848445+01 | 1486271657.84844 |                 0 |              22 |                 32817 |                 1367 |            3933300 |             0 |                0 |          493871 |                     0 |        197839 | 2017-02-05 04:25:08.73631+01

 2017-02-05 06:14:18.923545+01 | 1486271658.92354 |                 0 |              22 |                 32817 |                 1367 |            3933300 |             0 |                0 |          493871 |                     0 |        197839 | 2017-02-05 04:25:08.73631+01

 2017-02-05 06:14:20.001538+01 | 1486271660.00154 |                 0 |              22 |                 32817 |                 1367 |            3933300 |             0 |                0 |          493871 |                     0 |        197839 | 2017-02-05 04:25:08.73631+01

 2017-02-05 06:14:21.073521+01 | 1486271661.07352 |                 0 |              22 |                 32817 |                 1367 |            3933300 |             0 |                0 |          493871 |                     0 |        197839 | 2017-02-05 04:25:08.73631+01

 2017-02-05 06:14:22.150282+01 | 1486271662.15028 |                 0 |              22 |                 32817 |                 1367 |            3933300 |             0 |                0 |          493871 |                     0 |        197839 | 2017-02-05 04:25:08.73631+01

 2017-02-05 06:14:23.231656+01 | 1486271663.23166 |                 0 |              22 |                 32817 |                 1367 |            3933300 |             0 |                0 |          493871 |                     0 |        197839 | 2017-02-05 04:25:08.73631+01

 2017-02-05 06:14:24.304631+01 | 1486271664.30463 |                 0 |              22 |                 32817 |                 1367 |            3933300 |             0 |                0 |          493871 |                     0 |        197839 | 2017-02-05 04:25:08.73631+01

 2017-02-05 06:14:25.390009+01 | 1486271665.39001 |                 0 |              22 |                 32817 |                 1367 |            3933300 |             0 |                0 |          493871 |                     0 |        197839 | 2017-02-05 04:25:08.73631+01

 2017-02-05 06:14:26.470966+01 | 1486271666.47097 |                 0 |              22 |                 32817 |                 1367 |            3933300 |             0 |                0 |          493871 |                     0 |        197839 | 2017-02-05 04:25:08.73631+01

 2017-02-05 06:14:27.548042+01 | 1486271667.54804 |                 0 |              22 |                 32817 |                 1367 |            3933300 |             0 |                0 |          493871 |                     0 |        197839 | 2017-02-05 04:25:08.73631+01

 2017-02-05 06:14:28.641447+01 | 1486271668.64145 |                 0 |              22 |                 32817 |                 1367 |            3933300 |             0 |                0 |          493871 |                     0 |        197839 | 2017-02-05 04:25:08.73631+01

 2017-02-05 06:14:29.721871+01 | 1486271669.72187 |                 0 |              22 |                 32817 |                 1367 |            3933300 |             0 |                0 |          493871 |                     0 |        197839 | 2017-02-05 04:25:08.73631+01

 2017-02-05 06:14:30.794573+01 | 1486271670.79457 |                 0 |              22 |                 32817 |                 1367 |            3933300 |             0 |                0 |          493871 |                     0 |        197839 | 2017-02-05 04:25:08.73631+01

 2017-02-05 06:14:31.868872+01 | 1486271671.86887 |                 0 |              22 |                 32817 |                 1367 |            3933300 |             0 |                0 |          493871 |                     0 |        197839 | 2017-02-05 04:25:08.73631+01

 2017-02-05 06:14:32.939805+01 | 1486271672.93981 |                 0 |              22 |                 32817 |                 1367 |            3933300 |             0 |                0 |          493871 |                     0 |        197839 | 2017-02-05 04:25:08.73631+01

 2017-02-05 06:14:34.018293+01 | 1486271674.01829 |                 0 |              22 |                 32817 |                 1367 |            3933300 |             0 |                0 |          493871 |                     0 |        197839 | 2017-02-05 04:25:08.73631+01

 2017-02-05 06:14:35.099167+01 | 1486271675.09917 |                 0 |              22 |                 32817 |                 1367 |            3933300 |             0 |                0 |          493871 |                     0 |        197839 | 2017-02-05 04:25:08.73631+01

 2017-02-05 06:14:36.179793+01 | 1486271676.17979 |                 0 |              22 |                 32817 |                 1367 |            3933300 |             0 |                0 |          493871 |                     0 |        197839 | 2017-02-05 04:25:08.73631+01

 2017-02-05 06:14:37.25468+01 | 1486271677.25468 |                 0 |              22 |                 32817 |                 1367 |            3933300 |             0 |                0 |          493871 |                     0 |        197839 | 2017-02-05 04:25:08.73631+01

 2017-02-05 06:14:38.329762+01 | 1486271678.32976 |                 0 |              22 |                 32817 |                 1367 |            3933300 |             0 |                0 |          493871 |                     0 |        197839 | 2017-02-05 04:25:08.73631+01

 2017-02-05 06:14:39.403255+01 | 1486271679.40325 |                 0 |              22 |                 32817 |                 1367 |            3933300 |             0 |                0 |          493871 |                     0 |        197839 | 2017-02-05 04:25:08.73631+01

 2017-02-05 06:14:40.488664+01 | 1486271680.48866 |                 0 |              22 |                 32817 |                 1367 |            3933300 |             0 |                0 |          493871 |                     0 |        197839 | 2017-02-05 04:25:08.73631+01

 2017-02-05 06:14:41.559607+01 | 1486271681.55961 |                 0 |              22 |                 32817 |                 1367 |            3933300 |             0 |                0 |          493871 |                     0 |        197839 | 2017-02-05 04:25:08.73631+01

 2017-02-05 06:14:42.641398+01 | 1486271682.6414 |                 0 |              22 |                 32817 |                 1367 |            3933300 |             0 |                0 |          493871 |                     0 |        197839 | 2017-02-05 04:25:08.73631+01

 2017-02-05 06:14:43.713743+01 | 1486271683.71374 |                 0 |              22 |                 32817 |                 1367 |            3933300 |             0 |                0 |          493871 |                     0 |        197839 | 2017-02-05 04:25:08.73631+01

 2017-02-05 06:14:44.790786+01 | 1486271684.79079 |                 0 |              22 |                 32817 |                 1367 |            3933300 |             0 |                0 |          493871 |                     0 |        197839 | 2017-02-05 04:25:08.73631+01

 2017-02-05 06:14:45.874079+01 | 1486271685.87408 |                 0 |              22 |                 32817 |                 1367 |            3933300 |             0 |                0 |          493871 |                     0 |        197839 | 2017-02-05 04:25:08.73631+01

 2017-02-05 06:14:46.951333+01 | 1486271686.95133 |                 0 |              22 |                 32817 |                 1367 |            3933300 |             0 |                0 |          493871 |                     0 |        197839 | 2017-02-05 04:25:08.73631+01

 2017-02-05 06:14:48.027819+01 | 1486271688.02782 |                 0 |              22 |                 32817 |                 1367 |            3933300 |             0 |                0 |          493871 |                     0 |        197839 | 2017-02-05 04:25:08.73631+01

 2017-02-05 06:14:49.103159+01 | 1486271689.10316 |                 0 |              22 |                 32817 |                 1367 |            3933300 |             0 |                0 |          493871 |                     0 |        197839 | 2017-02-05 04:25:08.73631+01

 2017-02-05 06:14:50.177253+01 | 1486271690.17725 |                 0 |              22 |                 32817 |                 1367 |            3933300 |             0 |                0 |          493871 |                     0 |        197839 | 2017-02-05 04:25:08.73631+01

 2017-02-05 06:14:51.260595+01 | 1486271691.2606 |                 0 |              22 |                 32817 |                 1367 |            3933300 |             0 |                0 |          493871 |                     0 |        197839 | 2017-02-05 04:25:08.73631+01

 2017-02-05 06:14:52.337747+01 | 1486271692.33775 |                 0 |              22 |                 32817 |                 1367 |            3933300 |             0 |                0 |          493871 |                     0 |        197839 | 2017-02-05 04:25:08.73631+01

 2017-02-05 06:14:53.413189+01 | 1486271693.41319 |                 0 |              22 |                 32817 |                 1367 |            3933300 |             0 |                0 |          493871 |                     0 |        197839 | 2017-02-05 04:25:08.73631+01

 2017-02-05 06:14:54.489638+01 | 1486271694.48964 |                 0 |              22 |                 32817 |                 1367 |            3933300 |             0 |                0 |          493871 |                     0 |        197839 | 2017-02-05 04:25:08.73631+01

 2017-02-05 06:14:55.573423+01 | 1486271695.57342 |                 0 |              22 |                 32817 |                 1367 |            3933300 |             0 |                0 |          493871 |                     0 |        197839 | 2017-02-05 04:25:08.73631+01

 2017-02-05 06:14:56.651232+01 | 1486271696.65123 |                 0 |              22 |                 32817 |                 1367 |            3933300 |             0 |                0 |          493871 |                     0 |        197839 | 2017-02-05 04:25:08.73631+01

 2017-02-05 06:14:57.734167+01 | 1486271697.73417 |                 0 |              22 |                 32817 |                 1367 |            3933300 |             0 |                0 |          493871 |                     0 |        197839 | 2017-02-05 04:25:08.73631+01

 2017-02-05 06:14:58.811551+01 | 1486271698.81155 |                 0 |              22 |                 32817 |                 1367 |            3933300 |             0 |                0 |          493871 |                     0 |        197839 | 2017-02-05 04:25:08.73631+01

 2017-02-05 06:14:59.886986+01 | 1486271699.88699 |                 0 |              22 |                 32817 |                 1367 |            3933300 |             0 |                0 |          493871 |                     0 |        197839 | 2017-02-05 04:25:08.73631+01

 2017-02-05 06:15:00.964578+01 | 1486271700.96458 |                 0 |              22 |                 32817 |                 1367 |            3933300 |             0 |                0 |          493871 |                     0 |        197839 | 2017-02-05 04:25:08.73631+01

 2017-02-05 06:15:02.042628+01 | 1486271702.04263 |                 0 |              22 |                 32817 |                 1367 |            3933300 |             0 |                0 |          493871 |                     0 |        197839 | 2017-02-05 04:25:08.73631+01

 2017-02-05 06:15:03.13107+01 | 1486271703.13107 |                 0 |              22 |                 32817 |                 1367 |            3933300 |             0 |                0 |          493871 |                     0 |        197839 | 2017-02-05 04:25:08.73631+01

 2017-02-05 06:15:04.206076+01 | 1486271704.20608 |                 0 |              22 |                 32817 |                 1367 |            3933300 |             0 |                0 |          493871 |                     0 |        197839 | 2017-02-05 04:25:08.73631+01

 2017-02-05 06:15:05.279042+01 | 1486271705.27904 |                 0 |              22 |                 32817 |                 1367 |            3933300 |             0 |                0 |          493871 |                     0 |        197839 | 2017-02-05 04:25:08.73631+01

 2017-02-05 06:15:06.352332+01 | 1486271706.35233 |                 0 |              22 |                 32817 |                 1367 |            3933300 |             0 |                0 |          493871 |                     0 |        197839 | 2017-02-05 04:25:08.73631+01

 2017-02-05 06:15:07.426964+01 | 1486271707.42696 |                 0 |              22 |                 32817 |                 1367 |            3933300 |             0 |                0 |          493871 |                     0 |        197839 | 2017-02-05 04:25:08.73631+01

 2017-02-05 06:15:08.502681+01 | 1486271708.50268 |                 0 |              22 |                 32817 |                 1367 |            3933300 |             0 |                0 |          493871 |                     0 |        197839 | 2017-02-05 04:25:08.73631+01

 2017-02-05 06:15:09.582968+01 | 1486271709.58297 |                 0 |              22 |                 32817 |                 1367 |            3933300 |             0 |                0 |          493871 |                     0 |        197839 | 2017-02-05 04:25:08.73631+01

 2017-02-05 06:15:10.656522+01 | 1486271710.65652 |                 0 |              22 |                 32817 |                 1367 |            3933300 |             0 |                0 |          493871 |                     0 |        197839 | 2017-02-05 04:25:08.73631+01

 2017-02-05 06:15:11.729889+01 | 1486271711.72989 |                 0 |              22 |                 32817 |                 1367 |            3933300 |             0 |                0 |          493871 |                     0 |        197839 | 2017-02-05 04:25:08.73631+01

 2017-02-05 06:15:12.801285+01 | 1486271712.80129 |                 0 |              22 |                 32817 |                 1367 |            3933300 |             0 |                0 |          493871 |                     0 |        197839 | 2017-02-05 04:25:08.73631+01

 2017-02-05 06:15:13.877882+01 | 1486271713.87788 |                 0 |              22 |                 32817 |                 1367 |            3933300 |             0 |                0 |          493871 |                     0 |        197839 | 2017-02-05 04:25:08.73631+01

 2017-02-05 06:15:14.957683+01 | 1486271714.95768 |                 0 |              22 |                 32817 |                 1367 |            3933300 |             0 |                0 |          493871 |                     0 |        197839 | 2017-02-05 04:25:08.73631+01

 2017-02-05 06:15:16.038205+01 | 1486271716.0382 |                 0 |              22 |                 32817 |                 1367 |            3933300 |             0 |                0 |          493871 |                     0 |        197839 | 2017-02-05 04:25:08.73631+01

 2017-02-05 06:15:17.1196+01 | 1486271717.1196 |                 0 |              22 |                 32817 |                 1367 |            3933300 |             0 |                0 |          493871 |                     0 |        197839 | 2017-02-05 04:25:08.73631+01

 2017-02-05 06:15:18.19478+01 | 1486271718.19478 |                 0 |              22 |                 32817 |                 1367 |            3933300 |             0 |                0 |          493871 |                     0 |        197839 | 2017-02-05 04:25:08.73631+01

 2017-02-05 06:15:19.274917+01 | 1486271719.27492 |                 0 |              22 |                 32817 |                 1367 |            3933300 |             0 |                0 |          493871 |                     0 |        197839 | 2017-02-05 04:25:08.73631+01

 2017-02-05 06:15:20.366226+01 | 1486271720.36623 |                 0 |              22 |                 32817 |                 1367 |            3933300 |             0 |                0 |          493871 |                     0 |        197839 | 2017-02-05 04:25:08.73631+01

 2017-02-05 06:15:21.441888+01 | 1486271721.44189 |                 0 |              22 |                 32817 |                 1367 |            3933300 |             0 |                0 |          493871 |                     0 |        197839 | 2017-02-05 04:25:08.73631+01

 2017-02-05 06:15:22.519981+01 | 1486271722.51998 |                 0 |              22 |                 32817 |                 1367 |            3933300 |             0 |                0 |          493871 |                     0 |        197839 | 2017-02-05 04:25:08.73631+01

 2017-02-05 06:15:23.607102+01 | 1486271723.6071 |                 0 |              22 |                 32817 |                 1367 |            3933300 |             0 |                0 |          493871 |                     0 |        197839 | 2017-02-05 04:25:08.73631+01

 2017-02-05 06:15:24.680125+01 | 1486271724.68012 |                 0 |              22 |                 32817 |                 1367 |            3933300 |             0 |                0 |          493871 |                     0 |        197839 | 2017-02-05 04:25:08.73631+01

 2017-02-05 06:15:25.757121+01 | 1486271725.75712 |                 0 |              22 |                 32817 |                 1367 |            3933300 |             0 |                0 |          493871 |                     0 |        197839 | 2017-02-05 04:25:08.73631+01

 2017-02-05 06:15:26.830668+01 | 1486271726.83067 |                 0 |              22 |                 32817 |                 1367 |            3933300 |             0 |                0 |          493871 |                     0 |        197839 | 2017-02-05 04:25:08.73631+01

 2017-02-05 06:15:27.902783+01 | 1486271727.90278 |                 0 |              22 |                 32817 |                 1367 |            3933300 |             0 |                0 |          493871 |                     0 |        197839 | 2017-02-05 04:25:08.73631+01

 2017-02-05 06:15:28.976867+01 | 1486271728.97687 |                 0 |              22 |                 32817 |                 1367 |            3933300 |             0 |                0 |          493871 |                     0 |        197839 | 2017-02-05 04:25:08.73631+01

 2017-02-05 06:15:30.050835+01 | 1486271730.05083 |                 0 |              22 |                 32817 |                 1367 |            3933300 |             0 |                0 |          493871 |                     0 |        197839 | 2017-02-05 04:25:08.73631+01

 2017-02-05 06:15:31.131061+01 | 1486271731.13106 |                 0 |              22 |                 32817 |                 1367 |            3933300 |             0 |                0 |          493871 |                     0 |        197839 | 2017-02-05 04:25:08.73631+01

 2017-02-05 06:15:32.205953+01 | 1486271732.20595 |                 0 |              22 |                 32817 |                 1367 |            3933300 |             0 |                0 |          493871 |                     0 |        197839 | 2017-02-05 04:25:08.73631+01

 2017-02-05 06:15:33.279204+01 | 1486271733.2792 |                 0 |              22 |                 32817 |                 1367 |            3933300 |             0 |                0 |          493871 |                     0 |        197839 | 2017-02-05 04:25:08.73631+01

 2017-02-05 06:15:34.3574+01 | 1486271734.3574 |                 0 |              22 |                 32817 |                 1367 |            3933300 |             0 |                0 |          493871 |                     0 |        197839 | 2017-02-05 04:25:08.73631+01

 2017-02-05 06:15:35.443772+01 | 1486271735.44377 |                 0 |              22 |                 32817 |                 1367 |            3933300 |             0 |                0 |          493871 |                     0 |        197839 | 2017-02-05 04:25:08.73631+01

 2017-02-05 06:15:36.525005+01 | 1486271736.52501 |                 0 |              22 |                 32817 |                 1367 |            3933300 |             0 |                0 |          493871 |                     0 |        197839 | 2017-02-05 04:25:08.73631+01

 2017-02-05 06:15:37.602444+01 | 1486271737.60244 |                 0 |              22 |                 32817 |                 1367 |            3933300 |             0 |                0 |          493871 |                     0 |        197839 | 2017-02-05 04:25:08.73631+01

 2017-02-05 06:15:38.676877+01 | 1486271738.67688 |                 0 |              22 |                 32817 |                 1367 |            3933300 |             0 |                0 |          493871 |                     0 |        197839 | 2017-02-05 04:25:08.73631+01

 2017-02-05 06:15:39.749678+01 | 1486271739.74968 |                 0 |              22 |                 32817 |                 1367 |            3933300 |             0 |                0 |          493871 |                     0 |        197839 | 2017-02-05 04:25:08.73631+01

 2017-02-05 06:15:40.82265+01 | 1486271740.82265 |                 0 |              22 |                 32817 |                 1367 |            3933300 |             0 |                0 |          493871 |                     0 |        197839 | 2017-02-05 04:25:08.73631+01

 2017-02-05 06:15:41.88692+01 | 1486271741.88692 |                 0 |              22 |                 32817 |                 1367 |            3933300 |             0 |                0 |          493871 |                     0 |        197839 | 2017-02-05 04:25:08.73631+01

 2017-02-05 06:15:42.966255+01 | 1486271742.96625 |                 0 |              22 |                 32817 |                 1367 |            3933300 |             0 |                0 |          493871 |                     0 |        197839 | 2017-02-05 04:25:08.73631+01

 2017-02-05 06:15:44.040044+01 | 1486271744.04004 |                 0 |              22 |                 32817 |                 1367 |            3933300 |             0 |                0 |          493871 |                     0 |        197839 | 2017-02-05 04:25:08.73631+01

 2017-02-05 06:15:45.117729+01 | 1486271745.11773 |                 0 |              22 |                 32817 |                 1367 |            3933300 |             0 |                0 |          493871 |                     0 |        197839 | 2017-02-05 04:25:08.73631+01

 2017-02-05 06:15:46.200529+01 | 1486271746.20053 |                 0 |              22 |                 32817 |                 1367 |            3933300 |             0 |                0 |          493871 |                     0 |        197839 | 2017-02-05 04:25:08.73631+01

 2017-02-05 06:15:47.276439+01 | 1486271747.27644 |                 0 |              22 |                 32817 |                 1367 |            3933300 |             0 |                0 |          493871 |                     0 |        197839 | 2017-02-05 04:25:08.73631+01

 2017-02-05 06:15:48.352007+01 | 1486271748.35201 |                 0 |              22 |                 32817 |                 1367 |            3933300 |             0 |                0 |          493871 |                     0 |        197839 | 2017-02-05 04:25:08.73631+01

 2017-02-05 06:15:49.421709+01 | 1486271749.42171 |                 0 |              22 |                 32817 |                 1367 |            3933300 |             0 |                0 |          493871 |                     0 |        197839 | 2017-02-05 04:25:08.73631+01

 2017-02-05 06:15:50.501657+01 | 1486271750.50166 |                 0 |              22 |                 32817 |                 1367 |            3933300 |             0 |                0 |          493871 |                     0 |        197839 | 2017-02-05 04:25:08.73631+01

 2017-02-05 06:15:51.592455+01 | 1486271751.59245 |                 0 |              22 |                 32817 |                 1367 |            3933300 |             0 |                0 |          493871 |                     0 |        197839 | 2017-02-05 04:25:08.73631+01

 2017-02-05 06:15:52.667725+01 | 1486271752.66773 |                 0 |              22 |                 32817 |                 1367 |            3933300 |             0 |                0 |          493871 |                     0 |        197839 | 2017-02-05 04:25:08.73631+01

 2017-02-05 06:15:53.750694+01 | 1486271753.75069 |                 0 |              22 |                 32817 |                 1367 |            3933300 |             0 |                0 |          493871 |                     0 |        197839 | 2017-02-05 04:25:08.73631+01

 2017-02-05 06:15:54.829792+01 | 1486271754.82979 |                 0 |              22 |                 32817 |                 1367 |            3933300 |             0 |                0 |          493871 |                     0 |        197839 | 2017-02-05 04:25:08.73631+01

 2017-02-05 06:15:55.906407+01 | 1486271755.90641 |                 0 |              22 |                 32817 |                 1367 |            3933300 |             0 |                0 |          493871 |                     0 |        197839 | 2017-02-05 04:25:08.73631+01

 2017-02-05 06:15:56.982914+01 | 1486271756.98291 |                 0 |              22 |                 32817 |                 1367 |            3933300 |             0 |                0 |          493871 |                     0 |        197839 | 2017-02-05 04:25:08.73631+01

 2017-02-05 06:15:58.070268+01 | 1486271758.07027 |                 0 |              22 |                 32817 |                 1367 |            3933300 |             0 |                0 |          493871 |                     0 |        197839 | 2017-02-05 04:25:08.73631+01

 2017-02-05 06:15:59.146905+01 | 1486271759.1469 |                 0 |              22 |                 32817 |                 1367 |            3933300 |             0 |                0 |          493871 |                     0 |        197839 | 2017-02-05 04:25:08.73631+01

 2017-02-05 06:16:00.239216+01 | 1486271760.23922 |                 0 |              22 |                 32817 |                 1367 |            3933300 |             0 |                0 |          493871 |                     0 |        197839 | 2017-02-05 04:25:08.73631+01

 2017-02-05 06:16:01.315287+01 | 1486271761.31529 |                 0 |              22 |                 32817 |                 1367 |            3933300 |             0 |                0 |          493871 |                     0 |        197839 | 2017-02-05 04:25:08.73631+01

 2017-02-05 06:16:02.396291+01 | 1486271762.39629 |                 0 |              22 |                 32817 |                 1367 |            3933300 |             0 |                0 |          493871 |                     0 |        197839 | 2017-02-05 04:25:08.73631+01

 2017-02-05 06:16:03.470299+01 | 1486271763.4703 |                 0 |              22 |                 32817 |                 1367 |            3933300 |             0 |                0 |          493871 |                     0 |        197839 | 2017-02-05 04:25:08.73631+01

 2017-02-05 06:16:04.543931+01 | 1486271764.54393 |                 0 |              22 |                 32817 |                 1367 |            3933300 |             0 |                0 |          493871 |                     0 |        197839 | 2017-02-05 04:25:08.73631+01

 2017-02-05 06:16:05.618139+01 | 1486271765.61814 |                 0 |              22 |                 32817 |                 1367 |            3933300 |             0 |                0 |          493871 |                     0 |        197839 | 2017-02-05 04:25:08.73631+01

 2017-02-05 06:16:06.696323+01 | 1486271766.69632 |                 0 |              22 |                 32817 |                 1367 |            3933300 |             0 |                0 |          493871 |                     0 |        197839 | 2017-02-05 04:25:08.73631+01

 2017-02-05 06:16:07.773661+01 | 1486271767.77366 |                 0 |              22 |                 32817 |                 1367 |            3933300 |             0 |                0 |          493871 |                     0 |        197839 | 2017-02-05 04:25:08.73631+01

 2017-02-05 06:16:08.85222+01 | 1486271768.85222 |                 0 |              22 |                 32817 |                 1367 |            3933300 |             0 |                0 |          493871 |                     0 |        197839 | 2017-02-05 04:25:08.73631+01

 2017-02-05 06:16:09.935055+01 | 1486271769.93506 |                 0 |              22 |                 32817 |                 1367 |            3933300 |             0 |                0 |          493871 |                     0 |        197839 | 2017-02-05 04:25:08.73631+01

 2017-02-05 06:16:11.009278+01 | 1486271771.00928 |                 0 |              22 |                 32817 |                 1367 |            3933300 |             0 |                0 |          493871 |                     0 |        197839 | 2017-02-05 04:25:08.73631+01

 2017-02-05 06:16:12.084896+01 | 1486271772.0849 |                 0 |              22 |                 32817 |                 1367 |            3933300 |             0 |                0 |          493871 |                     0 |        197839 | 2017-02-05 04:25:08.73631+01

 2017-02-05 06:16:13.161135+01 | 1486271773.16113 |                 0 |              22 |                 32817 |                 1367 |            3933300 |             0 |                0 |          493871 |                     0 |        197839 | 2017-02-05 04:25:08.73631+01

 2017-02-05 06:16:14.235681+01 | 1486271774.23568 |                 0 |              22 |                 32817 |                 1367 |            3933300 |             0 |                0 |          493871 |                     0 |        197839 | 2017-02-05 04:25:08.73631+01

 2017-02-05 06:16:15.311706+01 | 1486271775.31171 |                 0 |              22 |                 32817 |                 1367 |            3933300 |             0 |                0 |          493871 |                     0 |        197839 | 2017-02-05 04:25:08.73631+01

