 2017-02-05 13:49:10.252504+01 | 1486298950.2525 |                 0 |              14 |                125591 |                 2716 |           11716908 |       1209345 |            11321 |         9760783 |                     0 |       5443220 | 2017-02-05 12:37:55.464888+01

 2017-02-05 13:49:11.347421+01 | 1486298951.34742 |                 0 |              14 |                125591 |                 2716 |           11716908 |       1209345 |            11321 |         9760783 |                     0 |       5444762 | 2017-02-05 12:37:55.464888+01

 2017-02-05 13:49:12.436183+01 | 1486298952.43618 |                 0 |              14 |                125591 |                 2716 |           11716908 |       1209345 |            11321 |         9760783 |                     0 |       5446616 | 2017-02-05 12:37:55.464888+01

 2017-02-05 13:49:13.518776+01 | 1486298953.51878 |                 0 |              14 |                125591 |                 2716 |           11716908 |       1209345 |            11321 |         9760783 |                     0 |       5448423 | 2017-02-05 12:37:55.464888+01

 2017-02-05 13:49:14.601827+01 | 1486298954.60183 |                 0 |              14 |                125591 |                 2716 |           11716908 |       1209345 |            11321 |         9760783 |                     0 |       5450499 | 2017-02-05 12:37:55.464888+01

 2017-02-05 13:49:15.683292+01 | 1486298955.68329 |                 0 |              14 |                125591 |                 2716 |           11716908 |       1209345 |            11321 |         9760783 |                     0 |       5453037 | 2017-02-05 12:37:55.464888+01

 2017-02-05 13:49:16.772183+01 | 1486298956.77218 |                 0 |              14 |                125591 |                 2716 |           11716908 |       1209345 |            11321 |         9760783 |                     0 |       5455097 | 2017-02-05 12:37:55.464888+01

 2017-02-05 13:49:17.856519+01 | 1486298957.85652 |                 0 |              14 |                125591 |                 2716 |           11716908 |       1209345 |            11321 |         9760783 |                     0 |       5457676 | 2017-02-05 12:37:55.464888+01

 2017-02-05 13:49:18.936069+01 | 1486298958.93607 |                 0 |              14 |                125591 |                 2716 |           11716908 |       1209345 |            11321 |         9760783 |                     0 |       5459625 | 2017-02-05 12:37:55.464888+01

 2017-02-05 13:49:20.025439+01 | 1486298960.02544 |                 0 |              14 |                125591 |                 2716 |           11716908 |       1209345 |            11321 |         9760783 |                     0 |       5461889 | 2017-02-05 12:37:55.464888+01

 2017-02-05 13:49:21.10725+01 | 1486298961.10725 |                 0 |              14 |                125591 |                 2716 |           11716908 |       1209345 |            11321 |         9760783 |                     0 |       5464592 | 2017-02-05 12:37:55.464888+01

 2017-02-05 13:49:22.191086+01 | 1486298962.19109 |                 0 |              14 |                125591 |                 2716 |           11716908 |       1209345 |            11321 |         9760783 |                     0 |       5467239 | 2017-02-05 12:37:55.464888+01

 2017-02-05 13:49:23.270312+01 | 1486298963.27031 |                 0 |              14 |                125591 |                 2716 |           11716908 |       1209345 |            11321 |         9760783 |                     0 |       5469677 | 2017-02-05 12:37:55.464888+01

 2017-02-05 13:49:24.358284+01 | 1486298964.35828 |                 0 |              14 |                125591 |                 2716 |           11716908 |       1209345 |            11321 |         9760783 |                     0 |       5472018 | 2017-02-05 12:37:55.464888+01

 2017-02-05 13:49:25.449667+01 | 1486298965.44967 |                 0 |              14 |                125591 |                 2716 |           11716908 |       1209345 |            11321 |         9760783 |                     0 |       5474735 | 2017-02-05 12:37:55.464888+01

 2017-02-05 13:49:26.539549+01 | 1486298966.53955 |                 0 |              14 |                125591 |                 2716 |           11716908 |       1209345 |            11321 |         9760783 |                     0 |       5477045 | 2017-02-05 12:37:55.464888+01

 2017-02-05 13:49:27.614948+01 | 1486298967.61495 |                 0 |              14 |                125591 |                 2716 |           11716908 |       1209345 |            11321 |         9760783 |                     0 |       5479276 | 2017-02-05 12:37:55.464888+01

 2017-02-05 13:49:28.686168+01 | 1486298968.68617 |                 0 |              14 |                125591 |                 2716 |           11716908 |       1209345 |            11321 |         9760783 |                     0 |       5481791 | 2017-02-05 12:37:55.464888+01

 2017-02-05 13:49:29.773173+01 | 1486298969.77317 |                 0 |              14 |                125591 |                 2716 |           11716908 |       1209345 |            11321 |         9760783 |                     0 |       5483697 | 2017-02-05 12:37:55.464888+01

 2017-02-05 13:49:30.863768+01 | 1486298970.86377 |                 0 |              14 |                125591 |                 2716 |           11716908 |       1209345 |            11321 |         9760783 |                     0 |       5485811 | 2017-02-05 12:37:55.464888+01

 2017-02-05 13:49:31.950719+01 | 1486298971.95072 |                 0 |              14 |                125591 |                 2716 |           11716908 |       1209345 |            11321 |         9760783 |                     0 |       5488513 | 2017-02-05 12:37:55.464888+01

 2017-02-05 13:49:33.032667+01 | 1486298973.03267 |                 0 |              14 |                125591 |                 2716 |           11716908 |       1209345 |            11321 |         9760783 |                     0 |       5490956 | 2017-02-05 12:37:55.464888+01

 2017-02-05 13:49:34.121924+01 | 1486298974.12192 |                 0 |              14 |                125591 |                 2716 |           11716908 |       1209345 |            11321 |         9760783 |                     0 |       5493443 | 2017-02-05 12:37:55.464888+01

 2017-02-05 13:49:35.20379+01 | 1486298975.20379 |                 0 |              14 |                125591 |                 2716 |           11716908 |       1209345 |            11321 |         9760783 |                     0 |       5495907 | 2017-02-05 12:37:55.464888+01

 2017-02-05 13:49:36.28507+01 | 1486298976.28507 |                 0 |              14 |                125591 |                 2716 |           11716908 |       1209345 |            11321 |         9760783 |                     0 |       5498681 | 2017-02-05 12:37:55.464888+01

 2017-02-05 13:49:37.372485+01 | 1486298977.37248 |                 0 |              14 |                125591 |                 2716 |           11716908 |       1209345 |            11321 |         9760783 |                     0 |       5501047 | 2017-02-05 12:37:55.464888+01

 2017-02-05 13:49:38.461096+01 | 1486298978.4611 |                 0 |              14 |                125591 |                 2716 |           11716908 |       1209345 |            11321 |         9760783 |                     0 |       5503243 | 2017-02-05 12:37:55.464888+01

 2017-02-05 13:49:39.547632+01 | 1486298979.54763 |                 0 |              14 |                125591 |                 2716 |           11716908 |       1209364 |            11321 |         9760783 |                     0 |       5506125 | 2017-02-05 12:37:55.464888+01

 2017-02-05 13:49:40.637207+01 | 1486298980.63721 |                 0 |              14 |                125591 |                 2716 |           11716908 |       1209395 |            11321 |         9760783 |                     0 |       5508193 | 2017-02-05 12:37:55.464888+01

 2017-02-05 13:49:41.721024+01 | 1486298981.72102 |                 0 |              14 |                125591 |                 2716 |           11716908 |       1209428 |            11321 |         9760783 |                     0 |       5511070 | 2017-02-05 12:37:55.464888+01

 2017-02-05 13:49:42.802179+01 | 1486298982.80218 |                 0 |              14 |                125591 |                 2716 |           11716908 |       1209452 |            11321 |         9760783 |                     0 |       5513355 | 2017-02-05 12:37:55.464888+01

 2017-02-05 13:49:43.89571+01 | 1486298983.89571 |                 0 |              14 |                125591 |                 2716 |           11716908 |       1209475 |            11321 |         9760783 |                     0 |       5515549 | 2017-02-05 12:37:55.464888+01

 2017-02-05 13:49:44.980885+01 | 1486298984.98089 |                 0 |              14 |                125591 |                 2716 |           11716908 |       1209504 |            11321 |         9760783 |                     0 |       5518380 | 2017-02-05 12:37:55.464888+01

 2017-02-05 13:49:46.067887+01 | 1486298986.06789 |                 0 |              14 |                125591 |                 2716 |           11716908 |       1209532 |            11321 |         9760783 |                     0 |       5520852 | 2017-02-05 12:37:55.464888+01

 2017-02-05 13:49:47.156967+01 | 1486298987.15697 |                 0 |              14 |                125591 |                 2716 |           11716908 |       1209552 |            11321 |         9760783 |                     0 |       5523587 | 2017-02-05 12:37:55.464888+01

 2017-02-05 13:49:48.238259+01 | 1486298988.23826 |                 0 |              14 |                125591 |                 2716 |           11716908 |       1209575 |            11321 |         9760783 |                     0 |       5525917 | 2017-02-05 12:37:55.464888+01

 2017-02-05 13:49:49.322882+01 | 1486298989.32288 |                 0 |              14 |                125591 |                 2716 |           11716908 |       1209594 |            11321 |         9760783 |                     0 |       5528803 | 2017-02-05 12:37:55.464888+01

 2017-02-05 13:49:50.414331+01 | 1486298990.41433 |                 0 |              14 |                125591 |                 2716 |           11716908 |       1209616 |            11321 |         9760783 |                     0 |       5531252 | 2017-02-05 12:37:55.464888+01

 2017-02-05 13:49:51.501708+01 | 1486298991.50171 |                 0 |              14 |                125591 |                 2716 |           11716908 |       1209640 |            11321 |         9760783 |                     0 |       5533501 | 2017-02-05 12:37:55.464888+01

 2017-02-05 13:49:52.590671+01 | 1486298992.59067 |                 0 |              14 |                125591 |                 2716 |           11716908 |       1209679 |            11321 |         9760783 |                     0 |       5536320 | 2017-02-05 12:37:55.464888+01

 2017-02-05 13:49:53.675813+01 | 1486298993.67581 |                 0 |              14 |                125591 |                 2716 |           11716908 |       1209704 |            11321 |         9760783 |                     0 |       5538768 | 2017-02-05 12:37:55.464888+01

 2017-02-05 13:49:54.767049+01 | 1486298994.76705 |                 0 |              14 |                125591 |                 2716 |           11716908 |       1209731 |            11321 |         9760783 |                     0 |       5541516 | 2017-02-05 12:37:55.464888+01

 2017-02-05 13:49:55.854068+01 | 1486298995.85407 |                 0 |              14 |                125591 |                 2716 |           11716908 |       1209750 |            11321 |         9760783 |                     0 |       5544042 | 2017-02-05 12:37:55.464888+01

 2017-02-05 13:49:56.938997+01 | 1486298996.939 |                 0 |              14 |                125591 |                 2716 |           11716908 |       1209788 |            11321 |         9760783 |                     0 |       5546789 | 2017-02-05 12:37:55.464888+01

 2017-02-05 13:49:58.027351+01 | 1486298998.02735 |                 0 |              14 |                125591 |                 2716 |           11716908 |       1209814 |            11321 |         9760783 |                     0 |       5549251 | 2017-02-05 12:37:55.464888+01

 2017-02-05 13:49:59.118414+01 | 1486298999.11841 |                 0 |              14 |                125591 |                 2716 |           11716908 |       1209844 |            11321 |         9760783 |                     0 |       5551490 | 2017-02-05 12:37:55.464888+01

 2017-02-05 13:50:00.201682+01 | 1486299000.20168 |                 0 |              14 |                125591 |                 2716 |           11716908 |       1209894 |            11321 |         9760783 |                     0 |       5554186 | 2017-02-05 12:37:55.464888+01

 2017-02-05 13:50:01.282169+01 | 1486299001.28217 |                 0 |              14 |                125591 |                 2716 |           11716908 |       1209926 |            11321 |         9760783 |                     0 |       5556394 | 2017-02-05 12:37:55.464888+01

 2017-02-05 13:50:02.363944+01 | 1486299002.36394 |                 0 |              14 |                125591 |                 2716 |           11716908 |       1209964 |            11321 |         9760783 |                     0 |       5559192 | 2017-02-05 12:37:55.464888+01

 2017-02-05 13:50:03.455887+01 | 1486299003.45589 |                 0 |              14 |                125591 |                 2716 |           11716908 |       1209978 |            11321 |         9760783 |                     0 |       5561199 | 2017-02-05 12:37:55.464888+01

 2017-02-05 13:50:04.546099+01 | 1486299004.5461 |                 0 |              14 |                125591 |                 2716 |           11716908 |       1210004 |            11321 |         9760783 |                     0 |       5563769 | 2017-02-05 12:37:55.464888+01

 2017-02-05 13:50:05.631214+01 | 1486299005.63121 |                 0 |              14 |                125591 |                 2716 |           11716908 |       1210040 |            11321 |         9760783 |                     0 |       5566447 | 2017-02-05 12:37:55.464888+01

 2017-02-05 13:50:06.713581+01 | 1486299006.71358 |                 0 |              14 |                125591 |                 2716 |           11716908 |       1210067 |            11321 |         9760783 |                     0 |       5568754 | 2017-02-05 12:37:55.464888+01

 2017-02-05 13:50:07.802382+01 | 1486299007.80238 |                 0 |              14 |                125591 |                 2716 |           11716908 |       1210157 |            11321 |         9760783 |                     0 |       5571533 | 2017-02-05 12:37:55.464888+01

 2017-02-05 13:50:08.888071+01 | 1486299008.88807 |                 0 |              14 |                125591 |                 2716 |           11716908 |       1210657 |            11326 |         9760783 |                     0 |       5574302 | 2017-02-05 12:37:55.464888+01

 2017-02-05 13:50:09.972023+01 | 1486299009.97202 |                 0 |              14 |                125591 |                 2716 |           11716908 |       1211157 |            11331 |         9760783 |                     0 |       5576441 | 2017-02-05 12:37:55.464888+01

 2017-02-05 13:50:11.060631+01 | 1486299011.06063 |                 0 |              14 |                125591 |                 2716 |           11716908 |       1211757 |            11337 |         9760783 |                     0 |       5579304 | 2017-02-05 12:37:55.464888+01

 2017-02-05 13:50:12.147477+01 | 1486299012.14748 |                 0 |              14 |                125591 |                 2716 |           11716908 |       1212257 |            11342 |         9760783 |                     0 |       5581512 | 2017-02-05 12:37:55.464888+01

 2017-02-05 13:50:13.225386+01 | 1486299013.22539 |                 0 |              14 |                125591 |                 2716 |           11716908 |       1212757 |            11347 |         9760783 |                     0 |       5583826 | 2017-02-05 12:37:55.464888+01

 2017-02-05 13:50:14.305924+01 | 1486299014.30592 |                 0 |              14 |                125591 |                 2716 |           11716908 |       1213357 |            11353 |         9760783 |                     0 |       5586654 | 2017-02-05 12:37:55.464888+01

 2017-02-05 13:50:15.385581+01 | 1486299015.38558 |                 0 |              14 |                125591 |                 2716 |           11716908 |       1213857 |            11358 |         9760783 |                     0 |       5588818 | 2017-02-05 12:37:55.464888+01

 2017-02-05 13:50:16.470383+01 | 1486299016.47038 |                 0 |              14 |                125591 |                 2716 |           11716908 |       1214357 |            11363 |         9760783 |                     0 |       5591057 | 2017-02-05 12:37:55.464888+01

 2017-02-05 13:50:17.563391+01 | 1486299017.56339 |                 0 |              14 |                125591 |                 2716 |           11716908 |       1214957 |            11369 |         9760783 |                     0 |       5593852 | 2017-02-05 12:37:55.464888+01

 2017-02-05 13:50:18.658884+01 | 1486299018.65888 |                 0 |              14 |                125591 |                 2716 |           11716908 |       1215457 |            11374 |         9760783 |                     0 |       5596101 | 2017-02-05 12:37:55.464888+01

 2017-02-05 13:50:19.748127+01 | 1486299019.74813 |                 0 |              14 |                125591 |                 2716 |           11716908 |       1216057 |            11380 |         9760783 |                     0 |       5598678 | 2017-02-05 12:37:55.464888+01

 2017-02-05 13:50:20.843301+01 | 1486299020.8433 |                 0 |              14 |                125591 |                 2716 |           11716908 |       1216557 |            11385 |         9760783 |                     0 |       5601512 | 2017-02-05 12:37:55.464888+01

 2017-02-05 13:50:21.927739+01 | 1486299021.92774 |                 0 |              14 |                125591 |                 2716 |           11716908 |       1217057 |            11390 |         9760783 |                     0 |       5603626 | 2017-02-05 12:37:55.464888+01

 2017-02-05 13:50:23.024082+01 | 1486299023.02408 |                 0 |              14 |                125591 |                 2716 |           11716908 |       1217657 |            11396 |         9760783 |                     0 |       5606419 | 2017-02-05 12:37:55.464888+01

 2017-02-05 13:50:24.112353+01 | 1486299024.11235 |                 0 |              14 |                125591 |                 2716 |           11716908 |       1218157 |            11401 |         9760783 |                     0 |       5608728 | 2017-02-05 12:37:55.464888+01

 2017-02-05 13:50:25.198214+01 | 1486299025.19821 |                 0 |              14 |                125591 |                 2716 |           11716908 |       1218757 |            11407 |         9760783 |                     0 |       5611582 | 2017-02-05 12:37:55.464888+01

 2017-02-05 13:50:26.283321+01 | 1486299026.28332 |                 0 |              14 |                125591 |                 2716 |           11716908 |       1219257 |            11412 |         9760783 |                     0 |       5614104 | 2017-02-05 12:37:55.464888+01

 2017-02-05 13:50:27.368941+01 | 1486299027.36894 |                 0 |              14 |                125591 |                 2716 |           11716908 |       1219757 |            11417 |         9760783 |                     0 |       5616215 | 2017-02-05 12:37:55.464888+01

 2017-02-05 13:50:28.453339+01 | 1486299028.45334 |                 0 |              14 |                125591 |                 2716 |           11716908 |       1220357 |            11423 |         9760783 |                     0 |       5619075 | 2017-02-05 12:37:55.464888+01

 2017-02-05 13:50:29.539247+01 | 1486299029.53925 |                 0 |              14 |                125591 |                 2716 |           11716908 |       1220857 |            11428 |         9760783 |                     0 |       5621435 | 2017-02-05 12:37:55.464888+01

 2017-02-05 13:50:30.626021+01 | 1486299030.62602 |                 0 |              14 |                125591 |                 2716 |           11716908 |       1221457 |            11434 |         9760783 |                     0 |       5624497 | 2017-02-05 12:37:55.464888+01

 2017-02-05 13:50:31.712267+01 | 1486299031.71227 |                 0 |              14 |                125591 |                 2716 |           11716908 |       1221957 |            11439 |         9760783 |                     0 |       5626353 | 2017-02-05 12:37:55.464888+01

 2017-02-05 13:50:32.795482+01 | 1486299032.79548 |                 0 |              14 |                125591 |                 2716 |           11716908 |       1222457 |            11444 |         9760783 |                     0 |       5628756 | 2017-02-05 12:37:55.464888+01

 2017-02-05 13:50:33.891638+01 | 1486299033.89164 |                 0 |              14 |                125591 |                 2716 |           11716908 |       1223057 |            11450 |         9760783 |                     0 |       5631499 | 2017-02-05 12:37:55.464888+01

 2017-02-05 13:50:34.976517+01 | 1486299034.97652 |                 0 |              14 |                125591 |                 2716 |           11716908 |       1223557 |            11455 |         9760783 |                     0 |       5633667 | 2017-02-05 12:37:55.464888+01

 2017-02-05 13:50:36.062334+01 | 1486299036.06233 |                 0 |              14 |                125591 |                 2716 |           11716908 |       1224057 |            11460 |         9760783 |                     0 |       5635886 | 2017-02-05 12:37:55.464888+01

 2017-02-05 13:50:37.154313+01 | 1486299037.15431 |                 0 |              14 |                125591 |                 2716 |           11716908 |       1224657 |            11466 |         9760783 |                     0 |       5638601 | 2017-02-05 12:37:55.464888+01

 2017-02-05 13:50:38.238769+01 | 1486299038.23877 |                 0 |              14 |                125591 |                 2716 |           11716908 |       1225157 |            11471 |         9760783 |                     0 |       5640922 | 2017-02-05 12:37:55.464888+01

 2017-02-05 13:50:39.319526+01 | 1486299039.31953 |                 0 |              14 |                125591 |                 2716 |           11716908 |       1225757 |            11477 |         9760783 |                     0 |       5648885 | 2017-02-05 12:37:55.464888+01

 2017-02-05 13:50:40.402766+01 | 1486299040.40277 |                 0 |              14 |                125591 |                 2716 |           11716908 |       1226257 |            11482 |         9760783 |                     0 |       5654485 | 2017-02-05 12:37:55.464888+01

 2017-02-05 13:50:41.486362+01 | 1486299041.48636 |                 0 |              14 |                125591 |                 2716 |           11716908 |       1226757 |            11487 |         9760783 |                     0 |       5659940 | 2017-02-05 12:37:55.464888+01

 2017-02-05 13:50:42.575091+01 | 1486299042.57509 |                 0 |              14 |                125591 |                 2716 |           11716908 |       1227357 |            11493 |         9760783 |                     0 |       5666090 | 2017-02-05 12:37:55.464888+01

 2017-02-05 13:50:43.671354+01 | 1486299043.67135 |                 0 |              14 |                125591 |                 2716 |           11716908 |       1227857 |            11498 |         9760783 |                     0 |       5670968 | 2017-02-05 12:37:55.464888+01

 2017-02-05 13:50:44.764235+01 | 1486299044.76424 |                 0 |              14 |                125591 |                 2716 |           11716908 |       1228357 |            11503 |         9760783 |                     0 |       5675895 | 2017-02-05 12:37:55.464888+01

 2017-02-05 13:50:45.8596+01 | 1486299045.8596 |                 0 |              14 |                125591 |                 2716 |           11716908 |       1228957 |            11509 |         9760783 |                     0 |       5681331 | 2017-02-05 12:37:55.464888+01

 2017-02-05 13:50:46.947799+01 | 1486299046.9478 |                 0 |              14 |                125591 |                 2716 |           11716908 |       1229457 |            11514 |         9760783 |                     0 |       5685414 | 2017-02-05 12:37:55.464888+01

 2017-02-05 13:50:48.042908+01 | 1486299048.04291 |                 0 |              14 |                125591 |                 2716 |           11716908 |       1230057 |            11520 |         9760783 |                     0 |       5690201 | 2017-02-05 12:37:55.464888+01

 2017-02-05 13:50:49.134518+01 | 1486299049.13452 |                 0 |              14 |                125591 |                 2716 |           11716908 |       1230557 |            11525 |         9760783 |                     0 |       5694285 | 2017-02-05 12:37:55.464888+01

 2017-02-05 13:50:50.219114+01 | 1486299050.21911 |                 0 |              14 |                125591 |                 2716 |           11716908 |       1231057 |            11530 |         9760783 |                     0 |       5698235 | 2017-02-05 12:37:55.464888+01

 2017-02-05 13:50:51.300695+01 | 1486299051.30069 |                 0 |              14 |                125591 |                 2716 |           11716908 |       1231657 |            11536 |         9760783 |                     0 |       5702635 | 2017-02-05 12:37:55.464888+01

 2017-02-05 13:50:52.383711+01 | 1486299052.38371 |                 0 |              14 |                125591 |                 2716 |           11716908 |       1232157 |            11541 |         9760783 |                     0 |       5706555 | 2017-02-05 12:37:55.464888+01

 2017-02-05 13:50:53.463817+01 | 1486299053.46382 |                 0 |              14 |                125591 |                 2716 |           11716908 |       1232657 |            11546 |         9760783 |                     0 |       5710523 | 2017-02-05 12:37:55.464888+01

 2017-02-05 13:50:54.556077+01 | 1486299054.55608 |                 0 |              14 |                125591 |                 2716 |           11716908 |       1233257 |            11552 |         9760783 |                     0 |       5714926 | 2017-02-05 12:37:55.464888+01

 2017-02-05 13:50:55.648943+01 | 1486299055.64894 |                 0 |              14 |                125591 |                 2716 |           11716908 |       1233757 |            11557 |         9760783 |                     0 |       5718592 | 2017-02-05 12:37:55.464888+01

 2017-02-05 13:50:56.7372+01 | 1486299056.7372 |                 0 |              14 |                125591 |                 2716 |           11716908 |       1234357 |            11563 |         9760783 |                     0 |       5723227 | 2017-02-05 12:37:55.464888+01

 2017-02-05 13:50:57.820419+01 | 1486299057.82042 |                 0 |              14 |                125591 |                 2716 |           11716908 |       1234857 |            11568 |         9760783 |                     0 |       5726836 | 2017-02-05 12:37:55.464888+01

 2017-02-05 13:50:58.909746+01 | 1486299058.90975 |                 0 |              14 |                125591 |                 2716 |           11716908 |       1235357 |            11573 |         9760783 |                     0 |       5730566 | 2017-02-05 12:37:55.464888+01

 2017-02-05 13:51:00.00725+01 | 1486299060.00725 |                 0 |              14 |                125591 |                 2716 |           11716908 |       1235957 |            11579 |         9760783 |                     0 |       5734826 | 2017-02-05 12:37:55.464888+01

 2017-02-05 13:51:01.101288+01 | 1486299061.10129 |                 0 |              14 |                125591 |                 2716 |           11716908 |       1236457 |            11584 |         9760783 |                     0 |       5738403 | 2017-02-05 12:37:55.464888+01

 2017-02-05 13:51:02.188762+01 | 1486299062.18876 |                 0 |              14 |                125591 |                 2716 |           11716908 |       1236957 |            11589 |         9760783 |                     0 |       5741950 | 2017-02-05 12:37:55.464888+01

 2017-02-05 13:51:03.270131+01 | 1486299063.27013 |                 0 |              14 |                125591 |                 2716 |           11716908 |       1237557 |            11595 |         9760783 |                     0 |       5745114 | 2017-02-05 12:37:55.464888+01

 2017-02-05 13:51:04.356296+01 | 1486299064.3563 |                 0 |              14 |                125591 |                 2716 |           11716908 |       1238057 |            11600 |         9760783 |                     0 |       5747581 | 2017-02-05 12:37:55.464888+01

 2017-02-05 13:51:05.431348+01 | 1486299065.43135 |                 0 |              14 |                125591 |                 2716 |           11716908 |       1238657 |            11606 |         9760783 |                     0 |       5750209 | 2017-02-05 12:37:55.464888+01

 2017-02-05 13:51:06.517221+01 | 1486299066.51722 |                 0 |              14 |                125591 |                 2716 |           11716908 |       1239157 |            11611 |         9760783 |                     0 |       5752437 | 2017-02-05 12:37:55.464888+01

 2017-02-05 13:51:07.601171+01 | 1486299067.60117 |                 0 |              14 |                125591 |                 2716 |           11716908 |       1239657 |            11616 |         9760783 |                     0 |       5754552 | 2017-02-05 12:37:55.464888+01

 2017-02-05 13:51:08.690754+01 | 1486299068.69075 |                 0 |              14 |                125591 |                 2716 |           11716908 |       1240257 |            11622 |         9760783 |                     0 |       5757239 | 2017-02-05 12:37:55.464888+01

 2017-02-05 13:51:09.788176+01 | 1486299069.78818 |                 0 |              14 |                125591 |                 2716 |           11716908 |       1240757 |            11627 |         9760783 |                     0 |       5759829 | 2017-02-05 12:37:55.464888+01

 2017-02-05 13:51:10.876103+01 | 1486299070.8761 |                 0 |              14 |                125591 |                 2716 |           11716908 |       1241257 |            11632 |         9760783 |                     0 |       5762315 | 2017-02-05 12:37:55.464888+01

 2017-02-05 13:51:11.964473+01 | 1486299071.96447 |                 0 |              14 |                125591 |                 2716 |           11716908 |       1241857 |            11638 |         9760783 |                     0 |       5765294 | 2017-02-05 12:37:55.464888+01

 2017-02-05 13:51:13.052924+01 | 1486299073.05292 |                 0 |              14 |                125591 |                 2716 |           11716908 |       1242357 |            11643 |         9760783 |                     0 |       5767926 | 2017-02-05 12:37:55.464888+01

 2017-02-05 13:51:14.139097+01 | 1486299074.1391 |                 0 |              14 |                125591 |                 2716 |           11716908 |       1242957 |            11649 |         9760783 |                     0 |       5771056 | 2017-02-05 12:37:55.464888+01

 2017-02-05 13:51:15.227507+01 | 1486299075.22751 |                 0 |              14 |                125591 |                 2716 |           11716908 |       1243457 |            11654 |         9760783 |                     0 |       5773227 | 2017-02-05 12:37:55.464888+01

 2017-02-05 13:51:16.308775+01 | 1486299076.30877 |                 0 |              14 |                125591 |                 2716 |           11716908 |       1243957 |            11659 |         9760783 |                     0 |       5775756 | 2017-02-05 12:37:55.464888+01

 2017-02-05 13:51:17.389447+01 | 1486299077.38945 |                 0 |              14 |                125591 |                 2716 |           11716908 |       1244557 |            11665 |         9760783 |                     0 |       5778741 | 2017-02-05 12:37:55.464888+01

 2017-02-05 13:51:18.466556+01 | 1486299078.46656 |                 0 |              14 |                125591 |                 2716 |           11716908 |       1245057 |            11670 |         9760783 |                     0 |       5781404 | 2017-02-05 12:37:55.464888+01

 2017-02-05 13:51:19.549676+01 | 1486299079.54968 |                 0 |              14 |                125591 |                 2716 |           11716908 |       1245557 |            11675 |         9760783 |                     0 |       5783661 | 2017-02-05 12:37:55.464888+01

 2017-02-05 13:51:20.638748+01 | 1486299080.63875 |                 0 |              14 |                125591 |                 2716 |           11716908 |       1246157 |            11681 |         9760783 |                     0 |       5786499 | 2017-02-05 12:37:55.464888+01

 2017-02-05 13:51:21.72601+01 | 1486299081.72601 |                 0 |              14 |                125591 |                 2716 |           11716908 |       1246657 |            11686 |         9760783 |                     0 |       5789070 | 2017-02-05 12:37:55.464888+01

 2017-02-05 13:51:22.810827+01 | 1486299082.81083 |                 0 |              14 |                125591 |                 2716 |           11716908 |       1247257 |            11692 |         9760783 |                     0 |       5792094 | 2017-02-05 12:37:55.464888+01

 2017-02-05 13:51:23.907775+01 | 1486299083.90777 |                 0 |              14 |                125591 |                 2716 |           11716908 |       1247757 |            11697 |         9760783 |                     0 |       5794523 | 2017-02-05 12:37:55.464888+01

 2017-02-05 13:51:25.006325+01 | 1486299085.00633 |                 0 |              14 |                125591 |                 2716 |           11716908 |       1248257 |            11702 |         9760783 |                     0 |       5797107 | 2017-02-05 12:37:55.464888+01

 2017-02-05 13:51:26.101492+01 | 1486299086.10149 |                 0 |              14 |                125591 |                 2716 |           11716908 |       1248857 |            11708 |         9760783 |                     0 |       5799690 | 2017-02-05 12:37:55.464888+01

 2017-02-05 13:51:27.188919+01 | 1486299087.18892 |                 0 |              14 |                125591 |                 2716 |           11716908 |       1249357 |            11713 |         9760783 |                     0 |       5802203 | 2017-02-05 12:37:55.464888+01

 2017-02-05 13:51:28.271636+01 | 1486299088.27164 |                 0 |              14 |                125591 |                 2716 |           11716908 |       1249957 |            11719 |         9760783 |                     0 |       5805182 | 2017-02-05 12:37:55.464888+01

 2017-02-05 13:51:29.347122+01 | 1486299089.34712 |                 0 |              14 |                125591 |                 2716 |           11716908 |       1250457 |            11724 |         9760783 |                     0 |       5807675 | 2017-02-05 12:37:55.464888+01

 2017-02-05 13:51:30.430041+01 | 1486299090.43004 |                 0 |              14 |                125591 |                 2716 |           11716908 |       1250957 |            11729 |         9760783 |                     0 |       5810200 | 2017-02-05 12:37:55.464888+01

 2017-02-05 13:51:31.515093+01 | 1486299091.51509 |                 0 |              14 |                125591 |                 2716 |           11716908 |       1251557 |            11735 |         9760783 |                     0 |       5813028 | 2017-02-05 12:37:55.464888+01

 2017-02-05 13:51:32.597608+01 | 1486299092.59761 |                 0 |              14 |                125591 |                 2716 |           11716908 |       1252057 |            11740 |         9760783 |                     0 |       5815530 | 2017-02-05 12:37:55.464888+01

 2017-02-05 13:51:33.68799+01 | 1486299093.68799 |                 0 |              14 |                125591 |                 2716 |           11716908 |       1252557 |            11745 |         9760783 |                     0 |       5818222 | 2017-02-05 12:37:55.464888+01

 2017-02-05 13:51:34.772737+01 | 1486299094.77274 |                 0 |              14 |                125591 |                 2716 |           11716908 |       1253157 |            11751 |         9760783 |                     0 |       5820369 | 2017-02-05 12:37:55.464888+01

 2017-02-05 13:51:35.863674+01 | 1486299095.86367 |                 0 |              14 |                125591 |                 2716 |           11716908 |       1253657 |            11756 |         9760783 |                     0 |       5822726 | 2017-02-05 12:37:55.464888+01

 2017-02-05 13:51:36.957811+01 | 1486299096.95781 |                 0 |              14 |                125591 |                 2716 |           11716908 |       1254157 |            11761 |         9760783 |                     0 |       5825322 | 2017-02-05 12:37:55.464888+01

 2017-02-05 13:51:38.052285+01 | 1486299098.05228 |                 0 |              14 |                125591 |                 2716 |           11716908 |       1254757 |            11767 |         9760783 |                     0 |       5828385 | 2017-02-05 12:37:55.464888+01

 2017-02-05 13:51:39.148233+01 | 1486299099.14823 |                 0 |              14 |                125591 |                 2716 |           11716908 |       1255257 |            11772 |         9760783 |                     0 |       5830635 | 2017-02-05 12:37:55.464888+01

 2017-02-05 13:51:40.235946+01 | 1486299100.23595 |                 0 |              14 |                125591 |                 2716 |           11716908 |       1255857 |            11778 |         9760783 |                     0 |       5833564 | 2017-02-05 12:37:55.464888+01

 2017-02-05 13:51:41.317725+01 | 1486299101.31772 |                 0 |              14 |                125591 |                 2716 |           11716908 |       1256357 |            11783 |         9760783 |                     0 |       5835883 | 2017-02-05 12:37:55.464888+01

 2017-02-05 13:51:42.399684+01 | 1486299102.39968 |                 0 |              14 |                125591 |                 2716 |           11716908 |       1256857 |            11788 |         9760783 |                     0 |       5838317 | 2017-02-05 12:37:55.464888+01

 2017-02-05 13:51:43.482299+01 | 1486299103.4823 |                 0 |              14 |                125591 |                 2716 |           11716908 |       1257457 |            11794 |         9760783 |                     0 |       5841048 | 2017-02-05 12:37:55.464888+01

 2017-02-05 13:51:44.56008+01 | 1486299104.56008 |                 0 |              14 |                125591 |                 2716 |           11716908 |       1257957 |            11799 |         9760783 |                     0 |       5843472 | 2017-02-05 12:37:55.464888+01

 2017-02-05 13:51:45.653225+01 | 1486299105.65322 |                 0 |              14 |                125591 |                 2716 |           11716908 |       1258457 |            11804 |         9760783 |                     0 |       5845788 | 2017-02-05 12:37:55.464888+01

 2017-02-05 13:51:46.740141+01 | 1486299106.74014 |                 0 |              14 |                125591 |                 2716 |           11716908 |       1259057 |            11810 |         9760783 |                     0 |       5848675 | 2017-02-05 12:37:55.464888+01

 2017-02-05 13:51:47.834224+01 | 1486299107.83422 |                 0 |              14 |                125591 |                 2716 |           11716908 |       1259557 |            11815 |         9760783 |                     0 |       5851024 | 2017-02-05 12:37:55.464888+01

 2017-02-05 13:51:48.923892+01 | 1486299108.92389 |                 0 |              14 |                125591 |                 2716 |           11716908 |       1260157 |            11821 |         9760783 |                     0 |       5853785 | 2017-02-05 12:37:55.464888+01

 2017-02-05 13:51:50.016587+01 | 1486299110.01659 |                 0 |              14 |                125591 |                 2716 |           11716908 |       1260657 |            11826 |         9760783 |                     0 |       5856614 | 2017-02-05 12:37:55.464888+01

 2017-02-05 13:51:51.108486+01 | 1486299111.10849 |                 0 |              14 |                125591 |                 2716 |           11716908 |       1261157 |            11831 |         9760783 |                     0 |       5859058 | 2017-02-05 12:37:55.464888+01

 2017-02-05 13:51:52.188008+01 | 1486299112.18801 |                 0 |              14 |                125591 |                 2716 |           11716908 |       1261757 |            11837 |         9760783 |                     0 |       5861708 | 2017-02-05 12:37:55.464888+01

 2017-02-05 13:51:53.275789+01 | 1486299113.27579 |                 0 |              14 |                125591 |                 2716 |           11716908 |       1262257 |            11842 |         9760783 |                     0 |       5864309 | 2017-02-05 12:37:55.464888+01

 2017-02-05 13:51:54.352513+01 | 1486299114.35251 |                 0 |              14 |                125591 |                 2716 |           11716908 |       1262857 |            11848 |         9760783 |                     0 |       5867498 | 2017-02-05 12:37:55.464888+01

 2017-02-05 13:51:55.435301+01 | 1486299115.4353 |                 0 |              14 |                125591 |                 2716 |           11716908 |       1263357 |            11853 |         9760783 |                     0 |       5869602 | 2017-02-05 12:37:55.464888+01

 2017-02-05 13:51:56.515511+01 | 1486299116.51551 |                 0 |              14 |                125591 |                 2716 |           11716908 |       1263857 |            11858 |         9760783 |                     0 |       5872146 | 2017-02-05 12:37:55.464888+01

 2017-02-05 13:51:57.591777+01 | 1486299117.59178 |                 0 |              14 |                125591 |                 2716 |           11716908 |       1264457 |            11864 |         9760783 |                     0 |       5874795 | 2017-02-05 12:37:55.464888+01

 2017-02-05 13:51:58.676642+01 | 1486299118.67664 |                 0 |              14 |                125591 |                 2716 |           11716908 |       1264957 |            11869 |         9760783 |                     0 |       5877205 | 2017-02-05 12:37:55.464888+01

 2017-02-05 13:51:59.760401+01 | 1486299119.7604 |                 0 |              14 |                125591 |                 2716 |           11716908 |       1265457 |            11874 |         9760783 |                     0 |       5879559 | 2017-02-05 12:37:55.464888+01

 2017-02-05 13:52:00.845506+01 | 1486299120.84551 |                 0 |              14 |                125591 |                 2716 |           11716908 |       1266057 |            11880 |         9760783 |                     0 |       5882304 | 2017-02-05 12:37:55.464888+01

 2017-02-05 13:52:01.932028+01 | 1486299121.93203 |                 0 |              14 |                125591 |                 2716 |           11716908 |       1266557 |            11885 |         9760783 |                     0 |       5885022 | 2017-02-05 12:37:55.464888+01

 2017-02-05 13:52:03.021542+01 | 1486299123.02154 |                 0 |              14 |                125591 |                 2716 |           11716908 |       1267057 |            11890 |         9760783 |                     0 |       5887378 | 2017-02-05 12:37:55.464888+01

 2017-02-05 13:52:04.113506+01 | 1486299124.11351 |                 0 |              14 |                125591 |                 2716 |           11716908 |       1267657 |            11896 |         9760783 |                     0 |       5890551 | 2017-02-05 12:37:55.464888+01

 2017-02-05 13:52:05.207068+01 | 1486299125.20707 |                 0 |              14 |                125591 |                 2716 |           11716908 |       1268157 |            11901 |         9760783 |                     0 |       5892431 | 2017-02-05 12:37:55.464888+01

 2017-02-05 13:52:06.284262+01 | 1486299126.28426 |                 0 |              14 |                125591 |                 2716 |           11716908 |       1268757 |            11907 |         9760783 |                     0 |       5895170 | 2017-02-05 12:37:55.464888+01

 2017-02-05 13:52:07.363009+01 | 1486299127.36301 |                 0 |              14 |                125591 |                 2716 |           11716908 |       1269257 |            11912 |         9760783 |                     0 |       5897413 | 2017-02-05 12:37:55.464888+01

 2017-02-05 13:52:08.43961+01 | 1486299128.43961 |                 0 |              14 |                125591 |                 2716 |           11716908 |       1269757 |            11917 |         9760783 |                     0 |       5899760 | 2017-02-05 12:37:55.464888+01

 2017-02-05 13:52:09.518099+01 | 1486299129.5181 |                 0 |              14 |                125591 |                 2716 |           11716908 |       1270357 |            11923 |         9760783 |                     0 |       5901980 | 2017-02-05 12:37:55.464888+01

 2017-02-05 13:52:10.597025+01 | 1486299130.59702 |                 0 |              14 |                125591 |                 2716 |           11716908 |       1270857 |            11928 |         9760783 |                     0 |       5903990 | 2017-02-05 12:37:55.464888+01

 2017-02-05 13:52:11.681868+01 | 1486299131.68187 |                 0 |              14 |                125591 |                 2716 |           11716908 |       1271357 |            11933 |         9760783 |                     0 |       5905954 | 2017-02-05 12:37:55.464888+01

 2017-02-05 13:52:12.770246+01 | 1486299132.77025 |                 0 |              14 |                125591 |                 2716 |           11716908 |       1271957 |            11939 |         9760783 |                     0 |       5909130 | 2017-02-05 12:37:55.464888+01

 2017-02-05 13:52:13.863669+01 | 1486299133.86367 |                 0 |              14 |                125591 |                 2716 |           11716908 |       1272457 |            11944 |         9760783 |                     0 |       5911522 | 2017-02-05 12:37:55.464888+01

 2017-02-05 13:52:14.941209+01 | 1486299134.94121 |                 0 |              14 |                125591 |                 2716 |           11716908 |       1272957 |            11949 |         9760783 |                     0 |       5914006 | 2017-02-05 12:37:55.464888+01

 2017-02-05 13:52:16.023187+01 | 1486299136.02319 |                 0 |              14 |                125591 |                 2716 |           11716908 |       1273557 |            11955 |         9760783 |                     0 |       5916901 | 2017-02-05 12:37:55.464888+01

 2017-02-05 13:52:17.11601+01 | 1486299137.11601 |                 0 |              14 |                125591 |                 2716 |           11716908 |       1274057 |            11960 |         9760783 |                     0 |       5919538 | 2017-02-05 12:37:55.464888+01

 2017-02-05 13:52:18.209128+01 | 1486299138.20913 |                 0 |              14 |                125591 |                 2716 |           11716908 |       1274657 |            11966 |         9760783 |                     0 |       5922116 | 2017-02-05 12:37:55.464888+01

 2017-02-05 13:52:19.292974+01 | 1486299139.29297 |                 0 |              14 |                125591 |                 2716 |           11716908 |       1275157 |            11971 |         9760783 |                     0 |       5924826 | 2017-02-05 12:37:55.464888+01

 2017-02-05 13:52:20.37545+01 | 1486299140.37545 |                 0 |              14 |                125591 |                 2716 |           11716908 |       1275657 |            11976 |         9760783 |                     0 |       5927387 | 2017-02-05 12:37:55.464888+01

 2017-02-05 13:52:21.460677+01 | 1486299141.46068 |                 0 |              14 |                125591 |                 2716 |           11716908 |       1276257 |            11982 |         9760783 |                     0 |       5930382 | 2017-02-05 12:37:55.464888+01

 2017-02-05 13:52:22.538871+01 | 1486299142.53887 |                 0 |              14 |                125591 |                 2716 |           11716908 |       1276757 |            11987 |         9760783 |                     0 |       5932274 | 2017-02-05 12:37:55.464888+01

 2017-02-05 13:52:23.615513+01 | 1486299143.61551 |                 0 |              14 |                125591 |                 2716 |           11716908 |       1277257 |            11992 |         9760783 |                     0 |       5934431 | 2017-02-05 12:37:55.464888+01

 2017-02-05 13:52:24.69714+01 | 1486299144.69714 |                 0 |              14 |                125591 |                 2716 |           11716908 |       1277857 |            11998 |         9760783 |                     0 |       5937326 | 2017-02-05 12:37:55.464888+01

 2017-02-05 13:52:25.803469+01 | 1486299145.80347 |                 0 |              14 |                125591 |                 2716 |           11716908 |       1278357 |            12003 |         9760783 |                     0 |       5939805 | 2017-02-05 12:37:55.464888+01

 2017-02-05 13:52:26.888566+01 | 1486299146.88857 |                 0 |              14 |                125591 |                 2716 |           11716908 |       1278857 |            12008 |         9760783 |                     0 |       5942230 | 2017-02-05 12:37:55.464888+01

 2017-02-05 13:52:27.968868+01 | 1486299147.96887 |                 0 |              14 |                125591 |                 2716 |           11716908 |       1279257 |            12012 |         9760783 |                     0 |       5943936 | 2017-02-05 12:37:55.464888+01

 2017-02-05 13:52:29.048939+01 | 1486299149.04894 |                 0 |              14 |                125591 |                 2716 |           11716908 |       1279957 |            12019 |         9760783 |                     0 |       5947420 | 2017-02-05 12:37:55.464888+01

 2017-02-05 13:52:30.13778+01 | 1486299150.13778 |                 0 |              14 |                125591 |                 2716 |           11716908 |       1280557 |            12025 |         9760783 |                     0 |       5950296 | 2017-02-05 12:37:55.464888+01

 2017-02-05 13:52:31.225351+01 | 1486299151.22535 |                 0 |              14 |                125591 |                 2716 |           11716908 |       1281057 |            12030 |         9760783 |                     0 |       5952731 | 2017-02-05 12:37:55.464888+01

 2017-02-05 13:52:32.311684+01 | 1486299152.31168 |                 0 |              14 |                125591 |                 2716 |           11716908 |       1281557 |            12035 |         9760783 |                     0 |       5955286 | 2017-02-05 12:37:55.464888+01

 2017-02-05 13:52:33.393093+01 | 1486299153.39309 |                 0 |              14 |                125591 |                 2716 |           11716908 |       1282157 |            12041 |         9760783 |                     0 |       5958003 | 2017-02-05 12:37:55.464888+01

 2017-02-05 13:52:34.470978+01 | 1486299154.47098 |                 0 |              14 |                125591 |                 2716 |           11716908 |       1282657 |            12046 |         9760783 |                     0 |       5960303 | 2017-02-05 12:37:55.464888+01

 2017-02-05 13:52:35.547133+01 | 1486299155.54713 |                 0 |              14 |                125591 |                 2716 |           11716908 |       1283157 |            12051 |         9760783 |                     0 |       5962803 | 2017-02-05 12:37:55.464888+01

 2017-02-05 13:52:36.624945+01 | 1486299156.62494 |                 0 |              14 |                125591 |                 2716 |           11716908 |       1283757 |            12057 |         9760783 |                     0 |       5965360 | 2017-02-05 12:37:55.464888+01

 2017-02-05 13:52:37.711416+01 | 1486299157.71142 |                 0 |              14 |                125591 |                 2716 |           11716908 |       1284257 |            12062 |         9760783 |                     0 |       5967667 | 2017-02-05 12:37:55.464888+01

 2017-02-05 13:52:38.793063+01 | 1486299158.79306 |                 0 |              14 |                125591 |                 2716 |           11716908 |       1284757 |            12067 |         9760783 |                     0 |       5970059 | 2017-02-05 12:37:55.464888+01

 2017-02-05 13:52:39.886215+01 | 1486299159.88621 |                 0 |              14 |                125591 |                 2716 |           11716908 |       1285357 |            12073 |         9760783 |                     0 |       5972611 | 2017-02-05 12:37:55.464888+01

 2017-02-05 13:52:40.973571+01 | 1486299160.97357 |                 0 |              14 |                125591 |                 2716 |           11716908 |       1285857 |            12078 |         9760783 |                     0 |       5974935 | 2017-02-05 12:37:55.464888+01

 2017-02-05 13:52:42.060107+01 | 1486299162.06011 |                 0 |              14 |                125591 |                 2716 |           11716908 |       1286457 |            12084 |         9760783 |                     0 |       5977734 | 2017-02-05 12:37:55.464888+01

 2017-02-05 13:52:43.162509+01 | 1486299163.16251 |                 0 |              14 |                125591 |                 2716 |           11716908 |       1286957 |            12089 |         9760783 |                     0 |       5980099 | 2017-02-05 12:37:55.464888+01

 2017-02-05 13:52:44.255821+01 | 1486299164.25582 |                 0 |              14 |                125591 |                 2716 |           11716908 |       1287457 |            12094 |         9760783 |                     0 |       5982427 | 2017-02-05 12:37:55.464888+01

 2017-02-05 13:52:45.338001+01 | 1486299165.338 |                 0 |              14 |                125591 |                 2716 |           11716908 |       1288057 |            12100 |         9760783 |                     0 |       5985329 | 2017-02-05 12:37:55.464888+01

 2017-02-05 13:52:46.417257+01 | 1486299166.41726 |                 0 |              14 |                125591 |                 2716 |           11716908 |       1288557 |            12105 |         9760783 |                     0 |       5987625 | 2017-02-05 12:37:55.464888+01

 2017-02-05 13:52:47.50706+01 | 1486299167.50706 |                 0 |              14 |                125591 |                 2716 |           11716908 |       1289057 |            12110 |         9760783 |                     0 |       5990093 | 2017-02-05 12:37:55.464888+01

 2017-02-05 13:52:48.58475+01 | 1486299168.58475 |                 0 |              14 |                125591 |                 2716 |           11716908 |       1289657 |            12116 |         9760783 |                     0 |       5992401 | 2017-02-05 12:37:55.464888+01

 2017-02-05 13:52:49.671388+01 | 1486299169.67139 |                 0 |              14 |                125591 |                 2716 |           11716908 |       1290157 |            12121 |         9760783 |                     0 |       5994872 | 2017-02-05 12:37:55.464888+01

 2017-02-05 13:52:50.752665+01 | 1486299170.75267 |                 0 |              14 |                125591 |                 2716 |           11716908 |       1290757 |            12127 |         9760783 |                     0 |       5997563 | 2017-02-05 12:37:55.464888+01

 2017-02-05 13:52:51.836224+01 | 1486299171.83622 |                 0 |              14 |                125591 |                 2716 |           11716908 |       1291257 |            12132 |         9760783 |                     0 |       5999940 | 2017-02-05 12:37:55.464888+01

 2017-02-05 13:52:52.942159+01 | 1486299172.94216 |                 0 |              14 |                125591 |                 2716 |           11716908 |       1291757 |            12137 |         9760783 |                     0 |       6002138 | 2017-02-05 12:37:55.464888+01

 2017-02-05 13:52:54.029238+01 | 1486299174.02924 |                 0 |              14 |                125591 |                 2716 |           11716908 |       1292357 |            12143 |         9760783 |                     0 |       6004555 | 2017-02-05 12:37:55.464888+01

 2017-02-05 13:52:55.117896+01 | 1486299175.1179 |                 0 |              14 |                125591 |                 2716 |           11716908 |       1292857 |            12148 |         9760783 |                     0 |       6006829 | 2017-02-05 12:37:55.464888+01

 2017-02-05 13:52:56.209375+01 | 1486299176.20937 |                 0 |              14 |                125591 |                 2716 |           11716908 |       1293457 |            12154 |         9760783 |                     0 |       6009692 | 2017-02-05 12:37:55.464888+01

 2017-02-05 13:52:57.294461+01 | 1486299177.29446 |                 0 |              14 |                125591 |                 2716 |           11716908 |       1293957 |            12159 |         9760783 |                     0 |       6011918 | 2017-02-05 12:37:55.464888+01

 2017-02-05 13:52:58.378145+01 | 1486299178.37814 |                 0 |              14 |                125591 |                 2716 |           11716908 |       1294457 |            12164 |         9760783 |                     0 |       6014051 | 2017-02-05 12:37:55.464888+01

 2017-02-05 13:52:59.46125+01 | 1486299179.46125 |                 0 |              14 |                125591 |                 2716 |           11716908 |       1295057 |            12170 |         9760783 |                     0 |       6016918 | 2017-02-05 12:37:55.464888+01

 2017-02-05 13:53:00.547385+01 | 1486299180.54738 |                 0 |              14 |                125591 |                 2716 |           11716908 |       1295557 |            12175 |         9760783 |                     0 |       6019372 | 2017-02-05 12:37:55.464888+01

 2017-02-05 13:53:01.630313+01 | 1486299181.63031 |                 0 |              14 |                125591 |                 2716 |           11716908 |       1296057 |            12180 |         9760783 |                     0 |       6021602 | 2017-02-05 12:37:55.464888+01

 2017-02-05 13:53:02.712919+01 | 1486299182.71292 |                 0 |              14 |                125591 |                 2716 |           11716908 |       1296657 |            12186 |         9760783 |                     0 |       6024222 | 2017-02-05 12:37:55.464888+01

 2017-02-05 13:53:03.790309+01 | 1486299183.79031 |                 0 |              14 |                125591 |                 2716 |           11716908 |       1297157 |            12191 |         9760783 |                     0 |       6026742 | 2017-02-05 12:37:55.464888+01

 2017-02-05 13:53:04.868876+01 | 1486299184.86888 |                 0 |              14 |                125591 |                 2716 |           11716908 |       1297657 |            12196 |         9760783 |                     0 |       6028836 | 2017-02-05 12:37:55.464888+01

 2017-02-05 13:53:05.965223+01 | 1486299185.96522 |                 0 |              14 |                125591 |                 2716 |           11716908 |       1298257 |            12202 |        10196360 |                     0 |       6031301 | 2017-02-05 12:37:55.464888+01

 2017-02-05 13:53:07.051693+01 | 1486299187.05169 |                 0 |              14 |                125591 |                 2716 |           11716908 |       1298757 |            12207 |        10196360 |                     0 |       6033331 | 2017-02-05 12:37:55.464888+01

 2017-02-05 13:53:08.141067+01 | 1486299188.14107 |                 0 |              14 |                125591 |                 2716 |           11716908 |       1299357 |            12213 |        10196360 |                     0 |       6036045 | 2017-02-05 12:37:55.464888+01

 2017-02-05 13:53:09.22971+01 | 1486299189.22971 |                 0 |              14 |                125591 |                 2716 |           11716908 |       1299857 |            12218 |        10196360 |                     0 |       6038258 | 2017-02-05 12:37:55.464888+01

 2017-02-05 13:53:10.311134+01 | 1486299190.31113 |                 0 |              14 |                125591 |                 2716 |           11716908 |       1300357 |            12223 |        10196360 |                     0 |       6040267 | 2017-02-05 12:37:55.464888+01

 2017-02-05 13:53:11.393483+01 | 1486299191.39348 |                 0 |              14 |                125591 |                 2716 |           11716908 |       1300957 |            12229 |        10196360 |                     0 |       6043024 | 2017-02-05 12:37:55.464888+01

 2017-02-05 13:53:12.479141+01 | 1486299192.47914 |                 0 |              14 |                125591 |                 2716 |           11716908 |       1301457 |            12234 |        10196360 |                     0 |       6045471 | 2017-02-05 12:37:55.464888+01

 2017-02-05 13:53:13.558838+01 | 1486299193.55884 |                 0 |              14 |                125591 |                 2716 |           11716908 |       1301957 |            12239 |        10196360 |                     0 |       6047899 | 2017-02-05 12:37:55.464888+01

 2017-02-05 13:53:14.638499+01 | 1486299194.6385 |                 0 |              14 |                125591 |                 2716 |           11716908 |       1302557 |            12245 |        10196360 |                     0 |       6050176 | 2017-02-05 12:37:55.464888+01

 2017-02-05 13:53:15.729219+01 | 1486299195.72922 |                 0 |              14 |                125591 |                 2716 |           11716908 |       1303057 |            12250 |        10196360 |                     0 |       6052291 | 2017-02-05 12:37:55.464888+01

 2017-02-05 13:53:16.811295+01 | 1486299196.8113 |                 0 |              14 |                125591 |                 2716 |           11716908 |       1303657 |            12256 |        10196360 |                     0 |       6054899 | 2017-02-05 12:37:55.464888+01

 2017-02-05 13:53:17.8981+01 | 1486299197.8981 |                 0 |              14 |                125591 |                 2716 |           11716908 |       1304157 |            12261 |        10196360 |                     0 |       6057246 | 2017-02-05 12:37:55.464888+01

 2017-02-05 13:53:18.982768+01 | 1486299198.98277 |                 0 |              14 |                125591 |                 2716 |           11716908 |       1304657 |            12266 |        10196360 |                     0 |       6059513 | 2017-02-05 12:37:55.464888+01

 2017-02-05 13:53:20.071907+01 | 1486299200.07191 |                 0 |              14 |                125591 |                 2716 |           11716908 |       1305257 |            12272 |        10196360 |                     0 |       6062073 | 2017-02-05 12:37:55.464888+01

 2017-02-05 13:53:21.16527+01 | 1486299201.16527 |                 0 |              14 |                125591 |                 2716 |           11716908 |       1305757 |            12277 |        10196360 |                     0 |       6064381 | 2017-02-05 12:37:55.464888+01

 2017-02-05 13:53:22.254048+01 | 1486299202.25405 |                 0 |              14 |                125591 |                 2716 |           11716908 |       1306357 |            12283 |        10196360 |                     0 |       6066678 | 2017-02-05 12:37:55.464888+01

 2017-02-05 13:53:23.338743+01 | 1486299203.33874 |                 0 |              14 |                125591 |                 2716 |           11716908 |       1306857 |            12288 |        10196360 |                     0 |       6069085 | 2017-02-05 12:37:55.464888+01

 2017-02-05 13:53:24.421704+01 | 1486299204.4217 |                 0 |              14 |                125591 |                 2716 |           11716908 |       1307357 |            12293 |        10196360 |                     0 |       6071269 | 2017-02-05 12:37:55.464888+01

 2017-02-05 13:53:25.498409+01 | 1486299205.49841 |                 0 |              14 |                125591 |                 2716 |           11716908 |       1307957 |            12299 |        10196360 |                     0 |       6074027 | 2017-02-05 12:37:55.464888+01

 2017-02-05 13:53:26.579907+01 | 1486299206.57991 |                 0 |              14 |                125591 |                 2716 |           11716908 |       1308457 |            12304 |        10196360 |                     0 |       6076420 | 2017-02-05 12:37:55.464888+01

 2017-02-05 13:53:27.654486+01 | 1486299207.65449 |                 0 |              14 |                125591 |                 2716 |           11716908 |       1308957 |            12309 |        10196360 |                     0 |       6078296 | 2017-02-05 12:37:55.464888+01

 2017-02-05 13:53:28.743977+01 | 1486299208.74398 |                 0 |              14 |                125591 |                 2716 |           11716908 |       1309557 |            12315 |        10196360 |                     0 |       6080969 | 2017-02-05 12:37:55.464888+01

 2017-02-05 13:53:29.827116+01 | 1486299209.82712 |                 0 |              14 |                125591 |                 2716 |           11716908 |       1310057 |            12320 |        10196360 |                     0 |       6083339 | 2017-02-05 12:37:55.464888+01

 2017-02-05 13:53:30.91117+01 | 1486299210.91117 |                 0 |              14 |                125591 |                 2716 |           11716908 |       1310557 |            12325 |        10196360 |                     0 |       6085986 | 2017-02-05 12:37:55.464888+01

 2017-02-05 13:53:32.000687+01 | 1486299212.00069 |                 0 |              14 |                125591 |                 2716 |           11716908 |       1311157 |            12331 |        10196360 |                     0 |       6088834 | 2017-02-05 12:37:55.464888+01

 2017-02-05 13:53:33.089508+01 | 1486299213.08951 |                 0 |              14 |                125591 |                 2716 |           11716908 |       1311657 |            12336 |        10196360 |                     0 |       6091087 | 2017-02-05 12:37:55.464888+01

 2017-02-05 13:53:34.173886+01 | 1486299214.17389 |                 0 |              14 |                125591 |                 2716 |           11716908 |       1312257 |            12342 |        10196360 |                     0 |       6093813 | 2017-02-05 12:37:55.464888+01

 2017-02-05 13:53:35.259693+01 | 1486299215.25969 |                 0 |              14 |                125591 |                 2716 |           11716908 |       1312757 |            12347 |        10196360 |                     0 |       6096138 | 2017-02-05 12:37:55.464888+01

 2017-02-05 13:53:36.34628+01 | 1486299216.34628 |                 0 |              14 |                125591 |                 2716 |           11716908 |       1313257 |            12352 |        10196360 |                     0 |       6098279 | 2017-02-05 12:37:55.464888+01

 2017-02-05 13:53:37.43091+01 | 1486299217.43091 |                 0 |              14 |                125591 |                 2716 |           11716908 |       1313857 |            12358 |        10196360 |                     0 |       6101088 | 2017-02-05 12:37:55.464888+01

 2017-02-05 13:53:38.510161+01 | 1486299218.51016 |                 0 |              14 |                125591 |                 2716 |           11716908 |       1314357 |            12363 |        10196360 |                     0 |       6103047 | 2017-02-05 12:37:55.464888+01

 2017-02-05 13:53:39.592659+01 | 1486299219.59266 |                 0 |              14 |                125591 |                 2716 |           11716908 |       1314857 |            12368 |        10196360 |                     0 |       6104443 | 2017-02-05 12:37:55.464888+01

 2017-02-05 13:53:40.673072+01 | 1486299220.67307 |                 0 |              14 |                125591 |                 2716 |           11716908 |       1315457 |            12374 |        10196360 |                     0 |       6106708 | 2017-02-05 12:37:55.464888+01

 2017-02-05 13:53:41.754885+01 | 1486299221.75488 |                 0 |              14 |                125591 |                 2716 |           11716908 |       1315957 |            12379 |        10196360 |                     0 |       6108722 | 2017-02-05 12:37:55.464888+01

 2017-02-05 13:53:42.836156+01 | 1486299222.83616 |                 0 |              14 |                125591 |                 2716 |           11716908 |       1316457 |            12384 |        10196360 |                     0 |       6110841 | 2017-02-05 12:37:55.464888+01

 2017-02-05 13:53:43.917914+01 | 1486299223.91791 |                 0 |              14 |                125591 |                 2716 |           11716908 |       1317057 |            12390 |        10196360 |                     0 |       6113522 | 2017-02-05 12:37:55.464888+01

 2017-02-05 13:53:45.005432+01 | 1486299225.00543 |                 0 |              14 |                125591 |                 2716 |           11716908 |       1317557 |            12395 |        10196360 |                     0 |       6115605 | 2017-02-05 12:37:55.464888+01

 2017-02-05 13:53:46.100587+01 | 1486299226.10059 |                 0 |              14 |                125591 |                 2716 |           11716908 |       1318057 |            12400 |        10196360 |                     0 |       6117761 | 2017-02-05 12:37:55.464888+01

 2017-02-05 13:53:47.189764+01 | 1486299227.18976 |                 0 |              14 |                125591 |                 2716 |           11716908 |       1318657 |            12406 |        10196360 |                     0 |       6120523 | 2017-02-05 12:37:55.464888+01

 2017-02-05 13:53:48.281089+01 | 1486299228.28109 |                 0 |              14 |                125591 |                 2716 |           11716908 |       1319157 |            12411 |        10196360 |                     0 |       6122316 | 2017-02-05 12:37:55.464888+01

 2017-02-05 13:53:49.376648+01 | 1486299229.37665 |                 0 |              14 |                125591 |                 2716 |           11716908 |       1319757 |            12417 |        10196360 |                     0 |       6124900 | 2017-02-05 12:37:55.464888+01

 2017-02-05 13:53:50.457177+01 | 1486299230.45718 |                 0 |              14 |                125591 |                 2716 |           11716908 |       1320257 |            12422 |        10196360 |                     0 |       6127196 | 2017-02-05 12:37:55.464888+01

 2017-02-05 13:53:51.542381+01 | 1486299231.54238 |                 0 |              14 |                125591 |                 2716 |           11716908 |       1320757 |            12427 |        10196360 |                     0 |       6129010 | 2017-02-05 12:37:55.464888+01

 2017-02-05 13:53:52.626523+01 | 1486299232.62652 |                 0 |              14 |                125591 |                 2716 |           11716908 |       1321357 |            12433 |        10196360 |                     0 |       6131632 | 2017-02-05 12:37:55.464888+01

 2017-02-05 13:53:53.704793+01 | 1486299233.70479 |                 0 |              14 |                125591 |                 2716 |           11716908 |       1321857 |            12438 |        10196360 |                     0 |       6133929 | 2017-02-05 12:37:55.464888+01

 2017-02-05 13:53:54.790214+01 | 1486299234.79021 |                 0 |              14 |                125591 |                 2716 |           11716908 |       1322357 |            12443 |        10196360 |                     0 |       6136548 | 2017-02-05 12:37:55.464888+01

 2017-02-05 13:53:55.871726+01 | 1486299235.87173 |                 0 |              14 |                125591 |                 2716 |           11716908 |       1322957 |            12449 |        10196360 |                     0 |       6138889 | 2017-02-05 12:37:55.464888+01

 2017-02-05 13:53:56.960712+01 | 1486299236.96071 |                 0 |              14 |                125591 |                 2716 |           11716908 |       1323457 |            12454 |        10196360 |                     0 |       6140808 | 2017-02-05 12:37:55.464888+01

 2017-02-05 13:53:58.048023+01 | 1486299238.04802 |                 0 |              14 |                125591 |                 2716 |           11716908 |       1324057 |            12460 |        10196360 |                     0 |       6143495 | 2017-02-05 12:37:55.464888+01

 2017-02-05 13:53:59.135868+01 | 1486299239.13587 |                 0 |              14 |                125591 |                 2716 |           11716908 |       1324557 |            12465 |        10196360 |                     0 |       6145829 | 2017-02-05 12:37:55.464888+01

 2017-02-05 13:54:00.233885+01 | 1486299240.23389 |                 0 |              14 |                125591 |                 2716 |           11716908 |       1325057 |            12470 |        10196360 |                     0 |       6148379 | 2017-02-05 12:37:55.464888+01

 2017-02-05 13:54:01.329528+01 | 1486299241.32953 |                 0 |              14 |                125591 |                 2716 |           11716908 |       1325657 |            12476 |        10196360 |                     0 |       6150606 | 2017-02-05 12:37:55.464888+01

 2017-02-05 13:54:02.421785+01 | 1486299242.42179 |                 0 |              14 |                125591 |                 2716 |           11716908 |       1326157 |            12481 |        10196360 |                     0 |       6152511 | 2017-02-05 12:37:55.464888+01

 2017-02-05 13:54:03.499696+01 | 1486299243.4997 |                 0 |              14 |                125591 |                 2716 |           11716908 |       1326757 |            12487 |        10196360 |                     0 |       6155243 | 2017-02-05 12:37:55.464888+01

 2017-02-05 13:54:04.579374+01 | 1486299244.57937 |                 0 |              14 |                125591 |                 2716 |           11716908 |       1327257 |            12492 |        10196360 |                     0 |       6157565 | 2017-02-05 12:37:55.464888+01

 2017-02-05 13:54:05.660303+01 | 1486299245.6603 |                 0 |              14 |                125591 |                 2716 |           11716908 |       1327757 |            12497 |        10196360 |                     0 |       6159786 | 2017-02-05 12:37:55.464888+01

 2017-02-05 13:54:06.741787+01 | 1486299246.74179 |                 0 |              14 |                125591 |                 2716 |           11716908 |       1328357 |            12503 |        10196360 |                     0 |       6162427 | 2017-02-05 12:37:55.464888+01

 2017-02-05 13:54:07.821099+01 | 1486299247.8211 |                 0 |              14 |                125591 |                 2716 |           11716908 |       1328857 |            12508 |        10196360 |                     0 |       6164215 | 2017-02-05 12:37:55.464888+01

 2017-02-05 13:54:08.903838+01 | 1486299248.90384 |                 0 |              14 |                125591 |                 2716 |           11716908 |       1329357 |            12513 |        10196360 |                     0 |       6166455 | 2017-02-05 12:37:55.464888+01

 2017-02-05 13:54:09.988874+01 | 1486299249.98887 |                 0 |              14 |                125591 |                 2716 |           11716908 |       1329957 |            12519 |        10196360 |                     0 |       6169310 | 2017-02-05 12:37:55.464888+01

