 2017-02-06 14:13:57.709082+01 | 1486386837.70908 |                 0 |              21 |                307700 |                 6037 |           17327094 |       2869147 |            28162 |        60744334 |                     0 |      61627110 | 2017-02-06 12:24:33.04114+01

 2017-02-06 14:13:58.798458+01 | 1486386838.79846 |                 0 |              21 |                307700 |                 6037 |           17327094 |       2869147 |            28162 |        60744334 |                     0 |      61631992 | 2017-02-06 12:24:33.04114+01

 2017-02-06 14:13:59.868545+01 | 1486386839.86855 |                 0 |              21 |                307700 |                 6037 |           17327094 |       2869147 |            28162 |        60744334 |                     0 |      61638632 | 2017-02-06 12:24:33.04114+01

 2017-02-06 14:14:00.953142+01 | 1486386840.95314 |                 0 |              21 |                307700 |                 6037 |           17327094 |       2869147 |            28162 |        60744334 |                     0 |      61644553 | 2017-02-06 12:24:33.04114+01

 2017-02-06 14:14:02.041231+01 | 1486386842.04123 |                 0 |              21 |                307700 |                 6037 |           17327094 |       2869147 |            28162 |        60744334 |                     0 |      61650225 | 2017-02-06 12:24:33.04114+01

 2017-02-06 14:14:03.122363+01 | 1486386843.12236 |                 0 |              21 |                307700 |                 6037 |           17327094 |       2869147 |            28162 |        60744334 |                     0 |      61656933 | 2017-02-06 12:24:33.04114+01

 2017-02-06 14:14:04.195232+01 | 1486386844.19523 |                 0 |              21 |                307700 |                 6037 |           17327094 |       2869147 |            28162 |        60744334 |                     0 |      61662515 | 2017-02-06 12:24:33.04114+01

 2017-02-06 14:14:05.274864+01 | 1486386845.27486 |                 0 |              21 |                307700 |                 6037 |           17327094 |       2869147 |            28162 |        60744334 |                     0 |      61668360 | 2017-02-06 12:24:33.04114+01

 2017-02-06 14:14:06.3553+01 | 1486386846.3553 |                 0 |              21 |                307700 |                 6037 |           17327094 |       2869147 |            28162 |        60744334 |                     0 |      61673092 | 2017-02-06 12:24:33.04114+01

 2017-02-06 14:14:07.433183+01 | 1486386847.43318 |                 0 |              21 |                307700 |                 6037 |           17327094 |       2869147 |            28162 |        60744334 |                     0 |      61678078 | 2017-02-06 12:24:33.04114+01

 2017-02-06 14:14:08.505783+01 | 1486386848.50578 |                 0 |              21 |                307700 |                 6037 |           17327094 |       2869147 |            28162 |        60744334 |                     0 |      61684001 | 2017-02-06 12:24:33.04114+01

 2017-02-06 14:14:09.584199+01 | 1486386849.5842 |                 0 |              21 |                307700 |                 6037 |           17327094 |       2869147 |            28162 |        60744334 |                     0 |      61687903 | 2017-02-06 12:24:33.04114+01

 2017-02-06 14:14:10.656961+01 | 1486386850.65696 |                 0 |              21 |                307700 |                 6037 |           17327094 |       2869158 |            28162 |        60744334 |                     0 |      61693462 | 2017-02-06 12:24:33.04114+01

 2017-02-06 14:14:11.742677+01 | 1486386851.74268 |                 0 |              21 |                307700 |                 6037 |           17327094 |       2869269 |            28162 |        60744334 |                     0 |      61700299 | 2017-02-06 12:24:33.04114+01

 2017-02-06 14:14:12.813742+01 | 1486386852.81374 |                 0 |              21 |                307700 |                 6037 |           17327094 |       2869369 |            28162 |        60744334 |                     0 |      61705474 | 2017-02-06 12:24:33.04114+01

 2017-02-06 14:14:13.904714+01 | 1486386853.90471 |                 0 |              21 |                307700 |                 6037 |           17327094 |       2869493 |            28162 |        60744334 |                     0 |      61710461 | 2017-02-06 12:24:33.04114+01

 2017-02-06 14:14:14.991457+01 | 1486386854.99146 |                 0 |              21 |                307700 |                 6037 |           17327094 |       2869636 |            28162 |        60744334 |                     0 |      61716210 | 2017-02-06 12:24:33.04114+01

 2017-02-06 14:14:16.080259+01 | 1486386856.08026 |                 0 |              21 |                307700 |                 6037 |           17327094 |       2869775 |            28162 |        60744334 |                     0 |      61720742 | 2017-02-06 12:24:33.04114+01

 2017-02-06 14:14:17.164669+01 | 1486386857.16467 |                 0 |              21 |                307700 |                 6037 |           17327094 |       2869977 |            28162 |        60744334 |                     0 |      61726784 | 2017-02-06 12:24:33.04114+01

 2017-02-06 14:14:18.248568+01 | 1486386858.24857 |                 0 |              21 |                307700 |                 6037 |           17327094 |       2870152 |            28162 |        60744334 |                     0 |      61732549 | 2017-02-06 12:24:33.04114+01

 2017-02-06 14:14:19.320568+01 | 1486386859.32057 |                 0 |              21 |                307700 |                 6037 |           17327094 |       2870340 |            28162 |        60744334 |                     0 |      61738618 | 2017-02-06 12:24:33.04114+01

 2017-02-06 14:14:20.403451+01 | 1486386860.40345 |                 0 |              21 |                307700 |                 6037 |           17327094 |       2870588 |            28162 |        60744334 |                     0 |      61745494 | 2017-02-06 12:24:33.04114+01

 2017-02-06 14:14:21.491825+01 | 1486386861.49183 |                 0 |              21 |                307700 |                 6037 |           17327094 |       2870794 |            28162 |        60744334 |                     0 |      61751404 | 2017-02-06 12:24:33.04114+01

 2017-02-06 14:14:22.563826+01 | 1486386862.56383 |                 0 |              21 |                307700 |                 6037 |           17327094 |       2871046 |            28162 |        60744334 |                     0 |      61758204 | 2017-02-06 12:24:33.04114+01

 2017-02-06 14:14:23.633+01 | 1486386863.633 |                 0 |              21 |                307700 |                 6037 |           17327094 |       2871282 |            28162 |        60744334 |                     0 |      61763000 | 2017-02-06 12:24:33.04114+01

 2017-02-06 14:14:24.709822+01 | 1486386864.70982 |                 0 |              21 |                307700 |                 6037 |           17327094 |       2871527 |            28162 |        60744334 |                     0 |      61768625 | 2017-02-06 12:24:33.04114+01

 2017-02-06 14:14:25.788582+01 | 1486386865.78858 |                 0 |              21 |                307700 |                 6037 |           17327094 |       2871842 |            28162 |        60744334 |                     0 |      61775626 | 2017-02-06 12:24:33.04114+01

 2017-02-06 14:14:26.87031+01 | 1486386866.87031 |                 0 |              21 |                307700 |                 6037 |           17327094 |       2872126 |            28162 |        60744334 |                     0 |      61781413 | 2017-02-06 12:24:33.04114+01

 2017-02-06 14:14:27.958308+01 | 1486386867.95831 |                 0 |              21 |                307700 |                 6037 |           17327094 |       2872394 |            28162 |        60744334 |                     0 |      61787119 | 2017-02-06 12:24:33.04114+01

 2017-02-06 14:14:29.035545+01 | 1486386869.03555 |                 0 |              21 |                307700 |                 6037 |           17327094 |       2872784 |            28162 |        60744334 |                     0 |      61794239 | 2017-02-06 12:24:33.04114+01

 2017-02-06 14:14:30.113661+01 | 1486386870.11366 |                 0 |              21 |                307700 |                 6037 |           17327094 |       2873059 |            28162 |        60744334 |                     0 |      61799919 | 2017-02-06 12:24:33.04114+01

 2017-02-06 14:14:31.201788+01 | 1486386871.20179 |                 0 |              21 |                307700 |                 6037 |           17327094 |       2873351 |            28162 |        60744334 |                     0 |      61806111 | 2017-02-06 12:24:33.04114+01

 2017-02-06 14:14:32.28075+01 | 1486386872.28075 |                 0 |              21 |                307700 |                 6037 |           17327094 |       2873745 |            28162 |        60744334 |                     0 |      61813288 | 2017-02-06 12:24:33.04114+01

 2017-02-06 14:14:33.37047+01 | 1486386873.37047 |                 0 |              21 |                307700 |                 6037 |           17327094 |       2874245 |            28167 |        60744334 |                     0 |      61819288 | 2017-02-06 12:24:33.04114+01

 2017-02-06 14:14:34.448201+01 | 1486386874.4482 |                 0 |              21 |                307700 |                 6037 |           17327094 |       2874738 |            28171 |        60744334 |                     0 |      61825282 | 2017-02-06 12:24:33.04114+01

 2017-02-06 14:14:35.537986+01 | 1486386875.53799 |                 0 |              21 |                307700 |                 6037 |           17327094 |       2875307 |            28175 |        60744334 |                     0 |      61832006 | 2017-02-06 12:24:33.04114+01

 2017-02-06 14:14:36.615916+01 | 1486386876.61592 |                 0 |              21 |                307700 |                 6037 |           17327094 |       2875807 |            28180 |        60744334 |                     0 |      61837534 | 2017-02-06 12:24:33.04114+01

 2017-02-06 14:14:37.702615+01 | 1486386877.70262 |                 0 |              21 |                307700 |                 6037 |           17327094 |       2876407 |            28186 |        60744334 |                     0 |      61843336 | 2017-02-06 12:24:33.04114+01

 2017-02-06 14:14:38.777958+01 | 1486386878.77796 |                 0 |              21 |                307700 |                 6037 |           17327094 |       2876907 |            28191 |        60744334 |                     0 |      61848416 | 2017-02-06 12:24:33.04114+01

 2017-02-06 14:14:39.849902+01 | 1486386879.8499 |                 0 |              21 |                307700 |                 6037 |           17327094 |       2877407 |            28196 |        60744334 |                     0 |      61853287 | 2017-02-06 12:24:33.04114+01

 2017-02-06 14:14:40.930975+01 | 1486386880.93097 |                 0 |              21 |                307700 |                 6037 |           17327094 |       2878007 |            28202 |        60744334 |                     0 |      61859516 | 2017-02-06 12:24:33.04114+01

 2017-02-06 14:14:42.005285+01 | 1486386882.00529 |                 0 |              21 |                307700 |                 6037 |           17327094 |       2878507 |            28207 |        60744334 |                     0 |      61865294 | 2017-02-06 12:24:33.04114+01

 2017-02-06 14:14:43.086439+01 | 1486386883.08644 |                 0 |              21 |                307700 |                 6037 |           17327094 |       2879007 |            28212 |        60744334 |                     0 |      61870905 | 2017-02-06 12:24:33.04114+01

 2017-02-06 14:14:44.16662+01 | 1486386884.16662 |                 0 |              21 |                307700 |                 6037 |           17327094 |       2879607 |            28218 |        60744334 |                     0 |      61878053 | 2017-02-06 12:24:33.04114+01

 2017-02-06 14:14:45.255304+01 | 1486386885.2553 |                 0 |              21 |                307700 |                 6037 |           17327094 |       2880107 |            28223 |        60744334 |                     0 |      61884074 | 2017-02-06 12:24:33.04114+01

 2017-02-06 14:14:46.343135+01 | 1486386886.34314 |                 0 |              21 |                307700 |                 6037 |           17327094 |       2880607 |            28228 |        60744334 |                     0 |      61890036 | 2017-02-06 12:24:33.04114+01

 2017-02-06 14:14:47.412175+01 | 1486386887.41217 |                 0 |              21 |                307700 |                 6037 |           17327094 |       2881207 |            28234 |        60744334 |                     0 |      61897165 | 2017-02-06 12:24:33.04114+01

 2017-02-06 14:14:48.488753+01 | 1486386888.48875 |                 0 |              21 |                307700 |                 6037 |           17327094 |       2881707 |            28239 |        60744334 |                     0 |      61903152 | 2017-02-06 12:24:33.04114+01

 2017-02-06 14:14:49.570039+01 | 1486386889.57004 |                 0 |              21 |                307700 |                 6037 |           17327094 |       2882207 |            28244 |        60744334 |                     0 |      61909157 | 2017-02-06 12:24:33.04114+01

 2017-02-06 14:14:50.650481+01 | 1486386890.65048 |                 0 |              21 |                307700 |                 6037 |           17327094 |       2882807 |            28250 |        60744334 |                     0 |      61916677 | 2017-02-06 12:24:33.04114+01

 2017-02-06 14:14:51.724876+01 | 1486386891.72488 |                 0 |              21 |                307700 |                 6037 |           17327094 |       2883307 |            28255 |        60744334 |                     0 |      61922576 | 2017-02-06 12:24:33.04114+01

 2017-02-06 14:14:52.80344+01 | 1486386892.80344 |                 0 |              21 |                307700 |                 6037 |           17327094 |       2883807 |            28260 |        60744334 |                     0 |      61928504 | 2017-02-06 12:24:33.04114+01

 2017-02-06 14:14:53.89097+01 | 1486386893.89097 |                 0 |              21 |                307700 |                 6037 |           17327094 |       2884407 |            28266 |        60744334 |                     0 |      61935712 | 2017-02-06 12:24:33.04114+01

 2017-02-06 14:14:54.97925+01 | 1486386894.97925 |                 0 |              21 |                307700 |                 6037 |           17327094 |       2884907 |            28271 |        60744334 |                     0 |      61941590 | 2017-02-06 12:24:33.04114+01

 2017-02-06 14:14:56.056706+01 | 1486386896.05671 |                 0 |              21 |                307700 |                 6037 |           17327094 |       2885407 |            28276 |        60744334 |                     0 |      61947062 | 2017-02-06 12:24:33.04114+01

 2017-02-06 14:14:57.13402+01 | 1486386897.13402 |                 0 |              21 |                307700 |                 6037 |           17327094 |       2886007 |            28282 |        60744334 |                     0 |      61954497 | 2017-02-06 12:24:33.04114+01

 2017-02-06 14:14:58.208469+01 | 1486386898.20847 |                 0 |              21 |                307700 |                 6037 |           17327094 |       2886507 |            28287 |        60744334 |                     0 |      61960571 | 2017-02-06 12:24:33.04114+01

 2017-02-06 14:14:59.274256+01 | 1486386899.27426 |                 0 |              21 |                307700 |                 6037 |           17327094 |       2887007 |            28292 |        60744334 |                     0 |      61966500 | 2017-02-06 12:24:33.04114+01

 2017-02-06 14:15:00.352703+01 | 1486386900.3527 |                 0 |              21 |                307700 |                 6037 |           17327094 |       2887607 |            28298 |        60744334 |                     0 |      61973361 | 2017-02-06 12:24:33.04114+01

 2017-02-06 14:15:01.432042+01 | 1486386901.43204 |                 0 |              21 |                307700 |                 6037 |           17327094 |       2888107 |            28303 |        60744334 |                     0 |      61979026 | 2017-02-06 12:24:33.04114+01

 2017-02-06 14:15:02.51324+01 | 1486386902.51324 |                 0 |              21 |                307700 |                 6037 |           17327094 |       2888607 |            28308 |        60744334 |                     0 |      61985197 | 2017-02-06 12:24:33.04114+01

 2017-02-06 14:15:03.573288+01 | 1486386903.57329 |                 0 |              21 |                307700 |                 6037 |           17327094 |       2889207 |            28314 |        60744334 |                     0 |      61992522 | 2017-02-06 12:24:33.04114+01

 2017-02-06 14:15:04.659789+01 | 1486386904.65979 |                 0 |              21 |                307700 |                 6037 |           17327094 |       2889707 |            28319 |        60744334 |                     0 |      61998738 | 2017-02-06 12:24:33.04114+01

 2017-02-06 14:15:05.729616+01 | 1486386905.72962 |                 0 |              21 |                307700 |                 6037 |           17327094 |       2890207 |            28324 |        60744334 |                     0 |      62004632 | 2017-02-06 12:24:33.04114+01

 2017-02-06 14:15:06.815519+01 | 1486386906.81552 |                 0 |              21 |                307700 |                 6037 |           17327094 |       2890807 |            28330 |        60744334 |                     0 |      62011772 | 2017-02-06 12:24:33.04114+01

 2017-02-06 14:15:07.891276+01 | 1486386907.89128 |                 0 |              21 |                307700 |                 6037 |           17327094 |       2891307 |            28335 |        60744334 |                     0 |      62017729 | 2017-02-06 12:24:33.04114+01

 2017-02-06 14:15:08.961677+01 | 1486386908.96168 |                 0 |              21 |                307700 |                 6037 |           17327094 |       2891807 |            28340 |        60744334 |                     0 |      62023777 | 2017-02-06 12:24:33.04114+01

 2017-02-06 14:15:10.043526+01 | 1486386910.04353 |                 0 |              21 |                307700 |                 6037 |           17327094 |       2892407 |            28346 |        60744334 |                     0 |      62030799 | 2017-02-06 12:24:33.04114+01

 2017-02-06 14:15:11.115883+01 | 1486386911.11588 |                 0 |              21 |                307700 |                 6037 |           17327094 |       2892907 |            28351 |        60744334 |                     0 |      62037015 | 2017-02-06 12:24:33.04114+01

 2017-02-06 14:15:12.181156+01 | 1486386912.18116 |                 0 |              21 |                307700 |                 6037 |           17327094 |       2893407 |            28356 |        60744334 |                     0 |      62042467 | 2017-02-06 12:24:33.04114+01

 2017-02-06 14:15:13.259039+01 | 1486386913.25904 |                 0 |              21 |                307700 |                 6037 |           17327094 |       2894007 |            28362 |        60744334 |                     0 |      62049567 | 2017-02-06 12:24:33.04114+01

 2017-02-06 14:15:14.343664+01 | 1486386914.34366 |                 0 |              21 |                307700 |                 6037 |           17327094 |       2894507 |            28367 |        60744334 |                     0 |      62055436 | 2017-02-06 12:24:33.04114+01

 2017-02-06 14:15:15.422866+01 | 1486386915.42287 |                 0 |              21 |                307700 |                 6037 |           17327094 |       2895007 |            28372 |        60744334 |                     0 |      62061338 | 2017-02-06 12:24:33.04114+01

 2017-02-06 14:15:16.498589+01 | 1486386916.49859 |                 0 |              21 |                307700 |                 6037 |           17327094 |       2895607 |            28378 |        60744334 |                     0 |      62068548 | 2017-02-06 12:24:33.04114+01

 2017-02-06 14:15:17.57915+01 | 1486386917.57915 |                 0 |              21 |                307700 |                 6037 |           17327094 |       2896107 |            28383 |        60744334 |                     0 |      62073884 | 2017-02-06 12:24:33.04114+01

 2017-02-06 14:15:18.660474+01 | 1486386918.66047 |                 0 |              21 |                307700 |                 6037 |           17327094 |       2896607 |            28388 |        60744334 |                     0 |      62079887 | 2017-02-06 12:24:33.04114+01

 2017-02-06 14:15:19.73055+01 | 1486386919.73055 |                 0 |              21 |                307700 |                 6037 |           17327094 |       2897207 |            28394 |        60744334 |                     0 |      62087116 | 2017-02-06 12:24:33.04114+01

 2017-02-06 14:15:20.814898+01 | 1486386920.8149 |                 0 |              21 |                307700 |                 6037 |           17327094 |       2897707 |            28399 |        60744334 |                     0 |      62093139 | 2017-02-06 12:24:33.04114+01

 2017-02-06 14:15:21.881782+01 | 1486386921.88178 |                 0 |              21 |                307700 |                 6037 |           17327094 |       2898207 |            28404 |        60744334 |                     0 |      62098959 | 2017-02-06 12:24:33.04114+01

 2017-02-06 14:15:22.954876+01 | 1486386922.95488 |                 0 |              21 |                307700 |                 6037 |           17327094 |       2898807 |            28410 |        60744334 |                     0 |      62105952 | 2017-02-06 12:24:33.04114+01

 2017-02-06 14:15:24.041019+01 | 1486386924.04102 |                 0 |              21 |                307700 |                 6037 |           17327094 |       2899307 |            28415 |        60744334 |                     0 |      62111817 | 2017-02-06 12:24:33.04114+01

 2017-02-06 14:15:25.114534+01 | 1486386925.11453 |                 0 |              21 |                307700 |                 6037 |           17327094 |       2899807 |            28420 |        60744334 |                     0 |      62117627 | 2017-02-06 12:24:33.04114+01

 2017-02-06 14:15:26.199212+01 | 1486386926.19921 |                 0 |              21 |                307700 |                 6037 |           17327094 |       2900407 |            28426 |        60744334 |                     0 |      62124742 | 2017-02-06 12:24:33.04114+01

 2017-02-06 14:15:27.270211+01 | 1486386927.27021 |                 0 |              21 |                307700 |                 6037 |           17327094 |       2900907 |            28431 |        60744334 |                     0 |      62129896 | 2017-02-06 12:24:33.04114+01

 2017-02-06 14:15:28.337622+01 | 1486386928.33762 |                 0 |              21 |                307700 |                 6037 |           17327094 |       2901407 |            28436 |        60744334 |                     0 |      62135828 | 2017-02-06 12:24:33.04114+01

 2017-02-06 14:15:29.421943+01 | 1486386929.42194 |                 0 |              21 |                307700 |                 6037 |           17327094 |       2901907 |            28441 |        60744334 |                     0 |      62141728 | 2017-02-06 12:24:33.04114+01

 2017-02-06 14:15:30.490561+01 | 1486386930.49056 |                 0 |              21 |                307700 |                 6037 |           17327094 |       2902507 |            28447 |        60744334 |                     0 |      62148094 | 2017-02-06 12:24:33.04114+01

 2017-02-06 14:15:31.565103+01 | 1486386931.5651 |                 0 |              21 |                307700 |                 6037 |           17327094 |       2903007 |            28452 |        60744334 |                     0 |      62153911 | 2017-02-06 12:24:33.04114+01

 2017-02-06 14:15:32.634021+01 | 1486386932.63402 |                 0 |              21 |                307700 |                 6037 |           17327094 |       2903507 |            28457 |        60744334 |                     0 |      62159375 | 2017-02-06 12:24:33.04114+01

 2017-02-06 14:15:33.714239+01 | 1486386933.71424 |                 0 |              21 |                307700 |                 6037 |           17327094 |       2904107 |            28463 |        60744334 |                     0 |      62166248 | 2017-02-06 12:24:33.04114+01

 2017-02-06 14:15:34.794166+01 | 1486386934.79417 |                 0 |              21 |                307700 |                 6037 |           17327094 |       2904607 |            28468 |        60744334 |                     0 |      62171824 | 2017-02-06 12:24:33.04114+01

 2017-02-06 14:15:35.881406+01 | 1486386935.88141 |                 0 |              21 |                307700 |                 6037 |           17327094 |       2905107 |            28473 |        60744334 |                     0 |      62176984 | 2017-02-06 12:24:33.04114+01

 2017-02-06 14:15:36.94306+01 | 1486386936.94306 |                 0 |              21 |                307700 |                 6037 |           17327094 |       2905507 |            28477 |        60744334 |                     0 |      62181667 | 2017-02-06 12:24:33.04114+01

 2017-02-06 14:15:38.023915+01 | 1486386938.02392 |                 0 |              21 |                307700 |                 6037 |           17327094 |       2906207 |            28484 |        60744334 |                     0 |      62189597 | 2017-02-06 12:24:33.04114+01

 2017-02-06 14:15:39.112553+01 | 1486386939.11255 |                 0 |              21 |                307700 |                 6037 |           17327094 |       2906707 |            28489 |        60744334 |                     0 |      62195085 | 2017-02-06 12:24:33.04114+01

 2017-02-06 14:15:40.198678+01 | 1486386940.19868 |                 0 |              21 |                307700 |                 6037 |           17327094 |       2907307 |            28495 |        60744334 |                     0 |      62201338 | 2017-02-06 12:24:33.04114+01

 2017-02-06 14:15:41.273351+01 | 1486386941.27335 |                 0 |              21 |                307700 |                 6037 |           17327094 |       2907807 |            28500 |        60744334 |                     0 |      62207195 | 2017-02-06 12:24:33.04114+01

 2017-02-06 14:15:42.364334+01 | 1486386942.36433 |                 0 |              21 |                307700 |                 6037 |           17327094 |       2908407 |            28506 |        60744334 |                     0 |      62213946 | 2017-02-06 12:24:33.04114+01

 2017-02-06 14:15:43.453858+01 | 1486386943.45386 |                 0 |              21 |                307700 |                 6037 |           17327094 |       2908907 |            28511 |        60744334 |                     0 |      62219871 | 2017-02-06 12:24:33.04114+01

 2017-02-06 14:15:44.536762+01 | 1486386944.53676 |                 0 |              21 |                307700 |                 6037 |           17327094 |       2909407 |            28516 |        60744334 |                     0 |      62225158 | 2017-02-06 12:24:33.04114+01

 2017-02-06 14:15:45.60161+01 | 1486386945.60161 |                 0 |              21 |                307700 |                 6037 |           17327094 |       2910007 |            28522 |        60744334 |                     0 |      62232044 | 2017-02-06 12:24:33.04114+01

 2017-02-06 14:15:46.685797+01 | 1486386946.6858 |                 0 |              21 |                307700 |                 6037 |           17327094 |       2910507 |            28527 |        60744334 |                     0 |      62237429 | 2017-02-06 12:24:33.04114+01

 2017-02-06 14:15:47.767514+01 | 1486386947.76751 |                 0 |              21 |                307700 |                 6037 |           17327094 |       2911007 |            28532 |        60744334 |                     0 |      62243032 | 2017-02-06 12:24:33.04114+01

 2017-02-06 14:15:48.837327+01 | 1486386948.83733 |                 0 |              21 |                307700 |                 6037 |           17327094 |       2911607 |            28538 |        60744334 |                     0 |      62249628 | 2017-02-06 12:24:33.04114+01

 2017-02-06 14:15:49.901978+01 | 1486386949.90198 |                 0 |              21 |                307700 |                 6037 |           17327094 |       2912107 |            28543 |        60744334 |                     0 |      62255372 | 2017-02-06 12:24:33.04114+01

 2017-02-06 14:15:50.98254+01 | 1486386950.98254 |                 0 |              21 |                307700 |                 6037 |           17327094 |       2912607 |            28548 |        60744334 |                     0 |      62260693 | 2017-02-06 12:24:33.04114+01

 2017-02-06 14:15:52.071307+01 | 1486386952.07131 |                 0 |              21 |                307700 |                 6037 |           17327094 |       2913207 |            28554 |        60744334 |                     0 |      62267216 | 2017-02-06 12:24:33.04114+01

 2017-02-06 14:15:53.144827+01 | 1486386953.14483 |                 0 |              21 |                307700 |                 6037 |           17327094 |       2913707 |            28559 |        60744334 |                     0 |      62272761 | 2017-02-06 12:24:33.04114+01

 2017-02-06 14:15:54.212736+01 | 1486386954.21274 |                 0 |              21 |                307700 |                 6037 |           17327094 |       2914207 |            28564 |        60744334 |                     0 |      62278681 | 2017-02-06 12:24:33.04114+01

 2017-02-06 14:15:55.306858+01 | 1486386955.30686 |                 0 |              21 |                307700 |                 6037 |           17327094 |       2914807 |            28570 |        60744334 |                     0 |      62285244 | 2017-02-06 12:24:33.04114+01

 2017-02-06 14:15:56.387131+01 | 1486386956.38713 |                 0 |              21 |                307700 |                 6037 |           17327094 |       2915307 |            28575 |        60744334 |                     0 |      62290575 | 2017-02-06 12:24:33.04114+01

 2017-02-06 14:15:57.468786+01 | 1486386957.46879 |                 0 |              21 |                307700 |                 6037 |           17327094 |       2915807 |            28580 |        60744334 |                     0 |      62296277 | 2017-02-06 12:24:33.04114+01

 2017-02-06 14:15:58.560662+01 | 1486386958.56066 |                 0 |              21 |                307700 |                 6037 |           17327094 |       2916407 |            28586 |        60744334 |                     0 |      62303063 | 2017-02-06 12:24:33.04114+01

 2017-02-06 14:15:59.637982+01 | 1486386959.63798 |                 0 |              21 |                307700 |                 6037 |           17327094 |       2916907 |            28591 |        60744334 |                     0 |      62308735 | 2017-02-06 12:24:33.04114+01

 2017-02-06 14:16:00.71262+01 | 1486386960.71262 |                 0 |              21 |                307700 |                 6037 |           17327094 |       2917407 |            28596 |        60744334 |                     0 |      62314093 | 2017-02-06 12:24:33.04114+01

 2017-02-06 14:16:01.79143+01 | 1486386961.79143 |                 0 |              21 |                307700 |                 6037 |           17327094 |       2918007 |            28602 |        60744334 |                     0 |      62321106 | 2017-02-06 12:24:33.04114+01

 2017-02-06 14:16:02.875025+01 | 1486386962.87503 |                 0 |              21 |                307700 |                 6037 |           17327094 |       2918507 |            28607 |        60744334 |                     0 |      62326276 | 2017-02-06 12:24:33.04114+01

 2017-02-06 14:16:03.96116+01 | 1486386963.96116 |                 0 |              21 |                307700 |                 6037 |           17327094 |       2919107 |            28613 |        60744334 |                     0 |      62332663 | 2017-02-06 12:24:33.04114+01

 2017-02-06 14:16:05.04464+01 | 1486386965.04464 |                 0 |              21 |                307700 |                 6037 |           17327094 |       2919607 |            28618 |        60744334 |                     0 |      62338636 | 2017-02-06 12:24:33.04114+01

 2017-02-06 14:16:06.127338+01 | 1486386966.12734 |                 0 |              21 |                307700 |                 6037 |           17327094 |       2920107 |            28623 |        60744334 |                     0 |      62344329 | 2017-02-06 12:24:33.04114+01

 2017-02-06 14:16:07.215192+01 | 1486386967.21519 |                 0 |              21 |                307700 |                 6037 |           17327094 |       2920707 |            28629 |        60744334 |                     0 |      62351766 | 2017-02-06 12:24:33.04114+01

 2017-02-06 14:16:08.286807+01 | 1486386968.28681 |                 0 |              21 |                307700 |                 6037 |           17327094 |       2921207 |            28634 |        60744334 |                     0 |      62357280 | 2017-02-06 12:24:33.04114+01

 2017-02-06 14:16:09.377324+01 | 1486386969.37732 |                 0 |              21 |                307700 |                 6037 |           17327094 |       2921707 |            28639 |        60744334 |                     0 |      62363253 | 2017-02-06 12:24:33.04114+01

 2017-02-06 14:16:10.467222+01 | 1486386970.46722 |                 0 |              21 |                307700 |                 6037 |           17327094 |       2922307 |            28645 |        60744334 |                     0 |      62371565 | 2017-02-06 12:24:33.04114+01

 2017-02-06 14:16:11.560094+01 | 1486386971.56009 |                 0 |              21 |                307700 |                 6037 |           17327094 |       2922807 |            28650 |        60744334 |                     0 |      62377869 | 2017-02-06 12:24:33.04114+01

 2017-02-06 14:16:12.648648+01 | 1486386972.64865 |                 0 |              21 |                307700 |                 6037 |           17327094 |       2923407 |            28656 |        60744334 |                     0 |      62385461 | 2017-02-06 12:24:33.04114+01

 2017-02-06 14:16:13.734312+01 | 1486386973.73431 |                 0 |              21 |                307700 |                 6037 |           17327094 |       2923907 |            28661 |        60744334 |                     0 |      62392449 | 2017-02-06 12:24:33.04114+01

 2017-02-06 14:16:14.817064+01 | 1486386974.81706 |                 0 |              21 |                307700 |                 6037 |           17327094 |       2924407 |            28666 |        60744334 |                     0 |      62399051 | 2017-02-06 12:24:33.04114+01

 2017-02-06 14:16:15.895308+01 | 1486386975.89531 |                 0 |              21 |                307700 |                 6037 |           17327094 |       2925007 |            28672 |        60744334 |                     0 |      62406333 | 2017-02-06 12:24:33.04114+01

 2017-02-06 14:16:16.977155+01 | 1486386976.97715 |                 0 |              21 |                307700 |                 6037 |           17327094 |       2925507 |            28677 |        60744334 |                     0 |      62412181 | 2017-02-06 12:24:33.04114+01

 2017-02-06 14:16:18.054173+01 | 1486386978.05417 |                 0 |              21 |                307700 |                 6037 |           17327094 |       2926007 |            28682 |        60744334 |                     0 |      62417466 | 2017-02-06 12:24:33.04114+01

 2017-02-06 14:16:19.129005+01 | 1486386979.129 |                 0 |              21 |                307700 |                 6037 |           17327094 |       2926607 |            28688 |        60744334 |                     0 |      62424519 | 2017-02-06 12:24:33.04114+01

 2017-02-06 14:16:20.204972+01 | 1486386980.20497 |                 0 |              21 |                307700 |                 6037 |           17327094 |       2927107 |            28693 |        60744334 |                     0 |      62429680 | 2017-02-06 12:24:33.04114+01

 2017-02-06 14:16:21.291868+01 | 1486386981.29187 |                 0 |              21 |                307700 |                 6037 |           17327094 |       2927607 |            28698 |        60744334 |                     0 |      62434183 | 2017-02-06 12:24:33.04114+01

 2017-02-06 14:16:22.372256+01 | 1486386982.37226 |                 0 |              21 |                307700 |                 6037 |           17327094 |       2928207 |            28704 |        60744334 |                     0 |      62440486 | 2017-02-06 12:24:33.04114+01

 2017-02-06 14:16:23.461079+01 | 1486386983.46108 |                 0 |              21 |                307700 |                 6037 |           17327094 |       2928707 |            28709 |        60744334 |                     0 |      62444826 | 2017-02-06 12:24:33.04114+01

 2017-02-06 14:16:24.550932+01 | 1486386984.55093 |                 0 |              21 |                307700 |                 6037 |           17327094 |       2929207 |            28714 |        60744334 |                     0 |      62450073 | 2017-02-06 12:24:33.04114+01

 2017-02-06 14:16:25.628602+01 | 1486386985.6286 |                 0 |              21 |                307700 |                 6037 |           17327094 |       2929807 |            28720 |        60744334 |                     0 |      62456470 | 2017-02-06 12:24:33.04114+01

 2017-02-06 14:16:26.706144+01 | 1486386986.70614 |                 0 |              21 |                307700 |                 6037 |           17327094 |       2930307 |            28725 |        60744334 |                     0 |      62462078 | 2017-02-06 12:24:33.04114+01

 2017-02-06 14:16:27.79488+01 | 1486386987.79488 |                 0 |              21 |                307700 |                 6037 |           17327094 |       2930907 |            28731 |        60744334 |                     0 |      62468360 | 2017-02-06 12:24:33.04114+01

 2017-02-06 14:16:28.870763+01 | 1486386988.87076 |                 0 |              21 |                307700 |                 6037 |           17327094 |       2931407 |            28736 |        60744334 |                     0 |      62474172 | 2017-02-06 12:24:33.04114+01

 2017-02-06 14:16:29.945603+01 | 1486386989.9456 |                 0 |              21 |                307700 |                 6037 |           17327094 |       2931907 |            28741 |        60744334 |                     0 |      62480090 | 2017-02-06 12:24:33.04114+01

 2017-02-06 14:16:31.023509+01 | 1486386991.02351 |                 0 |              21 |                307700 |                 6037 |           17327094 |       2932507 |            28747 |        61205562 |                     0 |      62486727 | 2017-02-06 12:24:33.04114+01

 2017-02-06 14:16:32.110017+01 | 1486386992.11002 |                 0 |              21 |                307700 |                 6037 |           17327094 |       2933007 |            28752 |        61205562 |                     0 |      62492035 | 2017-02-06 12:24:33.04114+01

 2017-02-06 14:16:33.196095+01 | 1486386993.19609 |                 0 |              21 |                307700 |                 6037 |           17327094 |       2933507 |            28757 |        61205562 |                     0 |      62497732 | 2017-02-06 12:24:33.04114+01

 2017-02-06 14:16:34.27045+01 | 1486386994.27045 |                 0 |              21 |                307700 |                 6037 |           17327094 |       2934107 |            28763 |        61205562 |                     0 |      62504397 | 2017-02-06 12:24:33.04114+01

 2017-02-06 14:16:35.357922+01 | 1486386995.35792 |                 0 |              21 |                307700 |                 6037 |           17327094 |       2934607 |            28768 |        61205562 |                     0 |      62510651 | 2017-02-06 12:24:33.04114+01

 2017-02-06 14:16:36.430109+01 | 1486386996.43011 |                 0 |              21 |                307700 |                 6037 |           17327094 |       2935107 |            28773 |        61205562 |                     0 |      62516163 | 2017-02-06 12:24:33.04114+01

 2017-02-06 14:16:37.510972+01 | 1486386997.51097 |                 0 |              21 |                307700 |                 6037 |           17327094 |       2935707 |            28779 |        61205562 |                     0 |      62523248 | 2017-02-06 12:24:33.04114+01

 2017-02-06 14:16:38.603177+01 | 1486386998.60318 |                 0 |              21 |                307700 |                 6037 |           17327094 |       2936207 |            28784 |        61205562 |                     0 |      62528322 | 2017-02-06 12:24:33.04114+01

 2017-02-06 14:16:39.681607+01 | 1486386999.68161 |                 0 |              21 |                307700 |                 6037 |           17327094 |       2936707 |            28789 |        61205562 |                     0 |      62532971 | 2017-02-06 12:24:33.04114+01

 2017-02-06 14:16:40.767963+01 | 1486387000.76796 |                 0 |              21 |                307700 |                 6037 |           17327094 |       2937307 |            28795 |        61205562 |                     0 |      62538911 | 2017-02-06 12:24:33.04114+01

 2017-02-06 14:16:41.84135+01 | 1486387001.84135 |                 0 |              21 |                307700 |                 6037 |           17327094 |       2937807 |            28800 |        61205562 |                     0 |      62544267 | 2017-02-06 12:24:33.04114+01

 2017-02-06 14:16:42.923464+01 | 1486387002.92346 |                 0 |              21 |                307700 |                 6037 |           17327094 |       2938307 |            28805 |        61205562 |                     0 |      62550021 | 2017-02-06 12:24:33.04114+01

 2017-02-06 14:16:44.014598+01 | 1486387004.0146 |                 0 |              21 |                307700 |                 6037 |           17327094 |       2938907 |            28811 |        61205562 |                     0 |      62556697 | 2017-02-06 12:24:33.04114+01

 2017-02-06 14:16:45.1028+01 | 1486387005.1028 |                 0 |              21 |                307700 |                 6037 |           17327094 |       2939407 |            28816 |        61205562 |                     0 |      62562305 | 2017-02-06 12:24:33.04114+01

 2017-02-06 14:16:46.17808+01 | 1486387006.17808 |                 0 |              21 |                307700 |                 6037 |           17327094 |       2940007 |            28822 |        61205562 |                     0 |      62568926 | 2017-02-06 12:24:33.04114+01

 2017-02-06 14:16:47.25974+01 | 1486387007.25974 |                 0 |              21 |                307700 |                 6037 |           17327094 |       2940507 |            28827 |        61205562 |                     0 |      62574597 | 2017-02-06 12:24:33.04114+01

 2017-02-06 14:16:48.330395+01 | 1486387008.33039 |                 0 |              21 |                307700 |                 6037 |           17327094 |       2941007 |            28832 |        61205562 |                     0 |      62579799 | 2017-02-06 12:24:33.04114+01

 2017-02-06 14:16:49.403945+01 | 1486387009.40394 |                 0 |              21 |                307700 |                 6037 |           17327094 |       2941607 |            28838 |        61205562 |                     0 |      62586569 | 2017-02-06 12:24:33.04114+01

 2017-02-06 14:16:50.482669+01 | 1486387010.48267 |                 0 |              21 |                307700 |                 6037 |           17327094 |       2942107 |            28843 |        61205562 |                     0 |      62591663 | 2017-02-06 12:24:33.04114+01

 2017-02-06 14:16:51.558838+01 | 1486387011.55884 |                 0 |              21 |                307700 |                 6037 |           17327094 |       2942607 |            28848 |        61205562 |                     0 |      62596950 | 2017-02-06 12:24:33.04114+01

 2017-02-06 14:16:52.635212+01 | 1486387012.63521 |                 0 |              21 |                307700 |                 6037 |           17327094 |       2943207 |            28854 |        61205562 |                     0 |      62604034 | 2017-02-06 12:24:33.04114+01

 2017-02-06 14:16:53.711491+01 | 1486387013.71149 |                 0 |              21 |                307700 |                 6037 |           17327094 |       2943707 |            28859 |        61205562 |                     0 |      62609381 | 2017-02-06 12:24:33.04114+01

 2017-02-06 14:16:54.79201+01 | 1486387014.79201 |                 0 |              21 |                307700 |                 6037 |           17327094 |       2944207 |            28864 |        61205562 |                     0 |      62614940 | 2017-02-06 12:24:33.04114+01

 2017-02-06 14:16:55.882975+01 | 1486387015.88298 |                 0 |              21 |                307700 |                 6037 |           17327094 |       2944807 |            28870 |        61205562 |                     0 |      62621670 | 2017-02-06 12:24:33.04114+01

 2017-02-06 14:16:56.960191+01 | 1486387016.96019 |                 0 |              21 |                307700 |                 6037 |           17327094 |       2945307 |            28875 |        61205562 |                     0 |      62626996 | 2017-02-06 12:24:33.04114+01

 2017-02-06 14:16:58.030191+01 | 1486387018.03019 |                 0 |              21 |                307700 |                 6037 |           17327094 |       2945807 |            28880 |        61205562 |                     0 |      62632968 | 2017-02-06 12:24:33.04114+01

 2017-02-06 14:16:59.102195+01 | 1486387019.1022 |                 0 |              21 |                307700 |                 6037 |           17327094 |       2946407 |            28886 |        61205562 |                     0 |      62638943 | 2017-02-06 12:24:33.04114+01

 2017-02-06 14:17:00.169738+01 | 1486387020.16974 |                 0 |              21 |                307700 |                 6037 |           17327094 |       2946907 |            28891 |        61205562 |                     0 |      62644674 | 2017-02-06 12:24:33.04114+01

 2017-02-06 14:17:01.239763+01 | 1486387021.23976 |                 0 |              21 |                307700 |                 6037 |           17327094 |       2947407 |            28896 |        61205562 |                     0 |      62650182 | 2017-02-06 12:24:33.04114+01

 2017-02-06 14:17:02.314096+01 | 1486387022.3141 |                 0 |              21 |                307700 |                 6037 |           17327094 |       2948007 |            28902 |        61205562 |                     0 |      62656234 | 2017-02-06 12:24:33.04114+01

 2017-02-06 14:17:03.386284+01 | 1486387023.38628 |                 0 |              21 |                307700 |                 6037 |           17327094 |       2948507 |            28907 |        61205562 |                     0 |      62661823 | 2017-02-06 12:24:33.04114+01

 2017-02-06 14:17:04.459654+01 | 1486387024.45965 |                 0 |              21 |                307700 |                 6037 |           17327094 |       2949007 |            28912 |        61205562 |                     0 |      62667013 | 2017-02-06 12:24:33.04114+01

 2017-02-06 14:17:05.534938+01 | 1486387025.53494 |                 0 |              21 |                307700 |                 6037 |           17327094 |       2949507 |            28917 |        61205562 |                     0 |      62672133 | 2017-02-06 12:24:33.04114+01

 2017-02-06 14:17:06.602345+01 | 1486387026.60234 |                 0 |              21 |                307700 |                 6037 |           17327094 |       2950107 |            28923 |        61205562 |                     0 |      62678951 | 2017-02-06 12:24:33.04114+01

 2017-02-06 14:17:07.690779+01 | 1486387027.69078 |                 0 |              21 |                307700 |                 6037 |           17327094 |       2950607 |            28928 |        61205562 |                     0 |      62684162 | 2017-02-06 12:24:33.04114+01

 2017-02-06 14:17:08.764598+01 | 1486387028.7646 |                 0 |              21 |                307700 |                 6037 |           17327094 |       2951107 |            28933 |        61205562 |                     0 |      62689513 | 2017-02-06 12:24:33.04114+01

 2017-02-06 14:17:09.838254+01 | 1486387029.83825 |                 0 |              21 |                307700 |                 6037 |           17327094 |       2951707 |            28939 |        61205562 |                     0 |      62696276 | 2017-02-06 12:24:33.04114+01

 2017-02-06 14:17:10.920443+01 | 1486387030.92044 |                 0 |              21 |                307700 |                 6037 |           17327094 |       2952207 |            28944 |        61205562 |                     0 |      62701368 | 2017-02-06 12:24:33.04114+01

 2017-02-06 14:17:11.999271+01 | 1486387031.99927 |                 0 |              21 |                307700 |                 6037 |           17327094 |       2952807 |            28950 |        61205562 |                     0 |      62707579 | 2017-02-06 12:24:33.04114+01

 2017-02-06 14:17:13.079827+01 | 1486387033.07983 |                 0 |              21 |                307700 |                 6037 |           17327094 |       2953307 |            28955 |        61205562 |                     0 |      62712562 | 2017-02-06 12:24:33.04114+01

 2017-02-06 14:17:14.155486+01 | 1486387034.15549 |                 0 |              21 |                307700 |                 6037 |           17327094 |       2953807 |            28960 |        61205562 |                     0 |      62718075 | 2017-02-06 12:24:33.04114+01

 2017-02-06 14:17:15.230692+01 | 1486387035.23069 |                 0 |              21 |                307700 |                 6037 |           17327094 |       2954407 |            28966 |        61205562 |                     0 |      62724776 | 2017-02-06 12:24:33.04114+01

 2017-02-06 14:17:16.307612+01 | 1486387036.30761 |                 0 |              21 |                307700 |                 6037 |           17327094 |       2954907 |            28971 |        61205562 |                     0 |      62730013 | 2017-02-06 12:24:33.04114+01

 2017-02-06 14:17:17.394132+01 | 1486387037.39413 |                 0 |              21 |                307700 |                 6037 |           17327094 |       2955407 |            28976 |        61205562 |                     0 |      62735689 | 2017-02-06 12:24:33.04114+01

 2017-02-06 14:17:18.477007+01 | 1486387038.47701 |                 0 |              21 |                307700 |                 6037 |           17327094 |       2956007 |            28982 |        61205562 |                     0 |      62742446 | 2017-02-06 12:24:33.04114+01

 2017-02-06 14:17:19.550122+01 | 1486387039.55012 |                 0 |              21 |                307700 |                 6037 |           17327094 |       2956507 |            28987 |        61205562 |                     0 |      62747686 | 2017-02-06 12:24:33.04114+01

 2017-02-06 14:17:20.637202+01 | 1486387040.6372 |                 0 |              21 |                307700 |                 6037 |           17327094 |       2957007 |            28992 |        61205562 |                     0 |      62753513 | 2017-02-06 12:24:33.04114+01

 2017-02-06 14:17:21.706272+01 | 1486387041.70627 |                 0 |              21 |                307700 |                 6037 |           17327094 |       2957607 |            28998 |        61205562 |                     0 |      62760102 | 2017-02-06 12:24:33.04114+01

 2017-02-06 14:17:22.774878+01 | 1486387042.77488 |                 0 |              21 |                307700 |                 6037 |           17327094 |       2958107 |            29003 |        61205562 |                     0 |      62765247 | 2017-02-06 12:24:33.04114+01

 2017-02-06 14:17:23.845921+01 | 1486387043.84592 |                 0 |              21 |                307700 |                 6037 |           17327094 |       2958607 |            29008 |        61205562 |                     0 |      62771029 | 2017-02-06 12:24:33.04114+01

 2017-02-06 14:17:24.917235+01 | 1486387044.91723 |                 0 |              21 |                307700 |                 6037 |           17327094 |       2959107 |            29013 |        61205562 |                     0 |      62776333 | 2017-02-06 12:24:33.04114+01

 2017-02-06 14:17:26.001495+01 | 1486387046.00149 |                 0 |              21 |                307700 |                 6037 |           17327094 |       2959707 |            29019 |        61205562 |                     0 |      62782373 | 2017-02-06 12:24:33.04114+01

 2017-02-06 14:17:27.088+01 | 1486387047.088 |                 0 |              21 |                307700 |                 6037 |           17327094 |       2960207 |            29024 |        61205562 |                     0 |      62788025 | 2017-02-06 12:24:33.04114+01

 2017-02-06 14:17:28.166879+01 | 1486387048.16688 |                 0 |              21 |                307700 |                 6037 |           17327094 |       2960807 |            29030 |        61205562 |                     0 |      62794969 | 2017-02-06 12:24:33.04114+01

 2017-02-06 14:17:29.236997+01 | 1486387049.237 |                 0 |              21 |                307700 |                 6037 |           17327094 |       2961307 |            29035 |        61205562 |                     0 |      62799807 | 2017-02-06 12:24:33.04114+01

 2017-02-06 14:17:30.324541+01 | 1486387050.32454 |                 0 |              21 |                307700 |                 6037 |           17327094 |       2961807 |            29040 |        61205562 |                     0 |      62805620 | 2017-02-06 12:24:33.04114+01

 2017-02-06 14:17:31.392276+01 | 1486387051.39228 |                 0 |              21 |                307700 |                 6037 |           17327094 |       2962407 |            29046 |        61205562 |                     0 |      62812376 | 2017-02-06 12:24:33.04114+01

 2017-02-06 14:17:32.45895+01 | 1486387052.45895 |                 0 |              21 |                307700 |                 6037 |           17327094 |       2962907 |            29051 |        61205562 |                     0 |      62817645 | 2017-02-06 12:24:33.04114+01

 2017-02-06 14:17:33.536238+01 | 1486387053.53624 |                 0 |              21 |                307700 |                 6037 |           17327094 |       2963407 |            29056 |        61205562 |                     0 |      62823253 | 2017-02-06 12:24:33.04114+01

 2017-02-06 14:17:34.622203+01 | 1486387054.6222 |                 0 |              21 |                307700 |                 6037 |           17327094 |       2963907 |            29061 |        61205562 |                     0 |      62828833 | 2017-02-06 12:24:33.04114+01

 2017-02-06 14:17:35.697669+01 | 1486387055.69767 |                 0 |              21 |                307700 |                 6037 |           17327094 |       2964507 |            29067 |        61205562 |                     0 |      62835410 | 2017-02-06 12:24:33.04114+01

 2017-02-06 14:17:36.769071+01 | 1486387056.76907 |                 0 |              21 |                307700 |                 6037 |           17327094 |       2965007 |            29072 |        61205562 |                     0 |      62840571 | 2017-02-06 12:24:33.04114+01

 2017-02-06 14:17:37.845237+01 | 1486387057.84524 |                 0 |              21 |                307700 |                 6037 |           17327094 |       2965507 |            29077 |        61205562 |                     0 |      62846195 | 2017-02-06 12:24:33.04114+01

 2017-02-06 14:17:38.924515+01 | 1486387058.92452 |                 0 |              21 |                307700 |                 6037 |           17327094 |       2966107 |            29083 |        61205562 |                     0 |      62852769 | 2017-02-06 12:24:33.04114+01

 2017-02-06 14:17:40.008863+01 | 1486387060.00886 |                 0 |              21 |                307700 |                 6037 |           17327094 |       2966607 |            29088 |        61205562 |                     0 |      62857968 | 2017-02-06 12:24:33.04114+01

 2017-02-06 14:17:41.079814+01 | 1486387061.07981 |                 0 |              21 |                307700 |                 6037 |           17327094 |       2967207 |            29094 |        61205562 |                     0 |      62864885 | 2017-02-06 12:24:33.04114+01

 2017-02-06 14:17:42.154689+01 | 1486387062.15469 |                 0 |              21 |                307700 |                 6037 |           17327094 |       2967707 |            29099 |        61205562 |                     0 |      62870207 | 2017-02-06 12:24:33.04114+01

 2017-02-06 14:17:43.233572+01 | 1486387063.23357 |                 0 |              21 |                307700 |                 6037 |           17327094 |       2968207 |            29104 |        61205562 |                     0 |      62875403 | 2017-02-06 12:24:33.04114+01

 2017-02-06 14:17:44.306109+01 | 1486387064.30611 |                 0 |              21 |                307700 |                 6037 |           17327094 |       2968807 |            29110 |        61205562 |                     0 |      62882180 | 2017-02-06 12:24:33.04114+01

 2017-02-06 14:17:45.378879+01 | 1486387065.37888 |                 0 |              21 |                307700 |                 6037 |           17327094 |       2969307 |            29115 |        61205562 |                     0 |      62887299 | 2017-02-06 12:24:33.04114+01

 2017-02-06 14:17:46.452111+01 | 1486387066.45211 |                 0 |              21 |                307700 |                 6037 |           17327094 |       2969807 |            29120 |        61205562 |                     0 |      62893117 | 2017-02-06 12:24:33.04114+01

 2017-02-06 14:17:47.532491+01 | 1486387067.53249 |                 0 |              21 |                307700 |                 6037 |           17327094 |       2970307 |            29125 |        61205562 |                     0 |      62898230 | 2017-02-06 12:24:33.04114+01

 2017-02-06 14:17:48.60255+01 | 1486387068.60255 |                 0 |              21 |                307700 |                 6037 |           17327094 |       2970907 |            29131 |        61205562 |                     0 |      62904674 | 2017-02-06 12:24:33.04114+01

 2017-02-06 14:17:49.682142+01 | 1486387069.68214 |                 0 |              21 |                307700 |                 6037 |           17327094 |       2971407 |            29136 |        61205562 |                     0 |      62910272 | 2017-02-06 12:24:33.04114+01

 2017-02-06 14:17:50.752716+01 | 1486387070.75272 |                 0 |              21 |                307700 |                 6037 |           17327094 |       2971907 |            29141 |        61690465 |                     0 |      62915372 | 2017-02-06 12:24:33.04114+01

 2017-02-06 14:17:51.83435+01 | 1486387071.83435 |                 0 |              21 |                307700 |                 6037 |           17327094 |       2972507 |            29147 |        61690465 |                     0 |      62922070 | 2017-02-06 12:24:33.04114+01

 2017-02-06 14:17:52.91497+01 | 1486387072.91497 |                 0 |              21 |                307700 |                 6037 |           17327094 |       2973007 |            29152 |        61690465 |                     0 |      62927586 | 2017-02-06 12:24:33.04114+01

 2017-02-06 14:17:53.993341+01 | 1486387073.99334 |                 0 |              21 |                307700 |                 6037 |           17327094 |       2973507 |            29157 |        61690465 |                     0 |      62932795 | 2017-02-06 12:24:33.04114+01

 2017-02-06 14:17:55.065669+01 | 1486387075.06567 |                 0 |              21 |                307700 |                 6037 |           17327094 |       2974107 |            29163 |        61690465 |                     0 |      62939572 | 2017-02-06 12:24:33.04114+01

 2017-02-06 14:17:56.151822+01 | 1486387076.15182 |                 0 |              21 |                307700 |                 6037 |           17327094 |       2974607 |            29168 |        61690465 |                     0 |      62945052 | 2017-02-06 12:24:33.04114+01

 2017-02-06 14:17:57.229295+01 | 1486387077.2293 |                 0 |              21 |                307700 |                 6037 |           17327094 |       2975107 |            29173 |        61690465 |                     0 |      62950007 | 2017-02-06 12:24:33.04114+01

 2017-02-06 14:17:58.307941+01 | 1486387078.30794 |                 0 |              21 |                307700 |                 6037 |           17327094 |       2975707 |            29179 |        61690465 |                     0 |      62956734 | 2017-02-06 12:24:33.04114+01

 2017-02-06 14:17:59.377371+01 | 1486387079.37737 |                 0 |              21 |                307700 |                 6037 |           17327094 |       2976207 |            29184 |        61690465 |                     0 |      62962147 | 2017-02-06 12:24:33.04114+01

 2017-02-06 14:18:00.460224+01 | 1486387080.46022 |                 0 |              21 |                307700 |                 6037 |           17327094 |       2976707 |            29189 |        61690465 |                     0 |      62967355 | 2017-02-06 12:24:33.04114+01

 2017-02-06 14:18:01.540219+01 | 1486387081.54022 |                 0 |              21 |                307700 |                 6037 |           17327094 |       2977307 |            29195 |        61690465 |                     0 |      62974380 | 2017-02-06 12:24:33.04114+01

 2017-02-06 14:18:02.630043+01 | 1486387082.63004 |                 0 |              21 |                307700 |                 6037 |           17327094 |       2977807 |            29200 |        61690465 |                     0 |      62979635 | 2017-02-06 12:24:33.04114+01

 2017-02-06 14:18:03.712258+01 | 1486387083.71226 |                 0 |              21 |                307700 |                 6037 |           17327094 |       2978407 |            29206 |        61690465 |                     0 |      62986031 | 2017-02-06 12:24:33.04114+01

 2017-02-06 14:18:04.787036+01 | 1486387084.78704 |                 0 |              21 |                307700 |                 6037 |           17327094 |       2978907 |            29211 |        61690465 |                     0 |      62991452 | 2017-02-06 12:24:33.04114+01

 2017-02-06 14:18:05.864145+01 | 1486387085.86415 |                 0 |              21 |                307700 |                 6037 |           17327094 |       2979407 |            29216 |        61690465 |                     0 |      62997024 | 2017-02-06 12:24:33.04114+01

 2017-02-06 14:18:06.948197+01 | 1486387086.9482 |                 0 |              21 |                307700 |                 6037 |           17327094 |       2980007 |            29222 |        61690465 |                     0 |      63003061 | 2017-02-06 12:24:33.04114+01

 2017-02-06 14:18:08.024186+01 | 1486387088.02419 |                 0 |              21 |                307700 |                 6037 |           17327094 |       2980507 |            29227 |        61690465 |                     0 |      63008635 | 2017-02-06 12:24:33.04114+01

 2017-02-06 14:18:09.115008+01 | 1486387089.11501 |                 0 |              21 |                307700 |                 6037 |           17327094 |       2981007 |            29232 |        61690465 |                     0 |      63014478 | 2017-02-06 12:24:33.04114+01

 2017-02-06 14:18:10.195709+01 | 1486387090.19571 |                 0 |              21 |                307700 |                 6037 |           17327094 |       2981607 |            29238 |        61690465 |                     0 |      63020989 | 2017-02-06 12:24:33.04114+01

 2017-02-06 14:18:11.277974+01 | 1486387091.27797 |                 0 |              21 |                307700 |                 6037 |           17327094 |       2982107 |            29243 |        61690465 |                     0 |      63026076 | 2017-02-06 12:24:33.04114+01

 2017-02-06 14:18:12.36605+01 | 1486387092.36605 |                 0 |              21 |                307700 |                 6037 |           17327094 |       2982607 |            29248 |        61690465 |                     0 |      63031811 | 2017-02-06 12:24:33.04114+01

 2017-02-06 14:18:13.451964+01 | 1486387093.45196 |                 0 |              21 |                307700 |                 6037 |           17327094 |       2983207 |            29254 |        61690465 |                     0 |      63038366 | 2017-02-06 12:24:33.04114+01

 2017-02-06 14:18:14.52244+01 | 1486387094.52244 |                 0 |              21 |                307700 |                 6037 |           17327094 |       2983707 |            29259 |        61690465 |                     0 |      63043512 | 2017-02-06 12:24:33.04114+01

 2017-02-06 14:18:15.606367+01 | 1486387095.60637 |                 0 |              21 |                307700 |                 6037 |           17327094 |       2984207 |            29264 |        61690465 |                     0 |      63049444 | 2017-02-06 12:24:33.04114+01

 2017-02-06 14:18:16.690921+01 | 1486387096.69092 |                 0 |              21 |                307700 |                 6037 |           17327094 |       2984807 |            29270 |        61690465 |                     0 |      63055817 | 2017-02-06 12:24:33.04114+01

 2017-02-06 14:18:17.777055+01 | 1486387097.77706 |                 0 |              21 |                307700 |                 6037 |           17327094 |       2985307 |            29275 |        61690465 |                     0 |      63060988 | 2017-02-06 12:24:33.04114+01

 2017-02-06 14:18:18.847248+01 | 1486387098.84725 |                 0 |              21 |                307700 |                 6037 |           17327094 |       2985907 |            29281 |        61690465 |                     0 |      63068096 | 2017-02-06 12:24:33.04114+01

 2017-02-06 14:18:19.932216+01 | 1486387099.93222 |                 0 |              21 |                307700 |                 6037 |           17327094 |       2986407 |            29286 |        61690465 |                     0 |      63073605 | 2017-02-06 12:24:33.04114+01

 2017-02-06 14:18:21.00976+01 | 1486387101.00976 |                 0 |              21 |                307700 |                 6037 |           17327094 |       2986907 |            29291 |        61690465 |                     0 |      63078825 | 2017-02-06 12:24:33.04114+01

 2017-02-06 14:18:22.098577+01 | 1486387102.09858 |                 0 |              21 |                307700 |                 6037 |           17327094 |       2987507 |            29297 |        61690465 |                     0 |      63085784 | 2017-02-06 12:24:33.04114+01

 2017-02-06 14:18:23.182119+01 | 1486387103.18212 |                 0 |              21 |                307700 |                 6037 |           17327094 |       2988007 |            29302 |        61690465 |                     0 |      63091267 | 2017-02-06 12:24:33.04114+01

 2017-02-06 14:18:24.262379+01 | 1486387104.26238 |                 0 |              21 |                307700 |                 6037 |           17327094 |       2988507 |            29307 |        61690465 |                     0 |      63096747 | 2017-02-06 12:24:33.04114+01

 2017-02-06 14:18:25.349064+01 | 1486387105.34906 |                 0 |              21 |                307700 |                 6037 |           17327094 |       2989107 |            29313 |        61690465 |                     0 |      63103253 | 2017-02-06 12:24:33.04114+01

 2017-02-06 14:18:26.438891+01 | 1486387106.43889 |                 0 |              21 |                307700 |                 6037 |           17327094 |       2989607 |            29318 |        61690465 |                     0 |      63108546 | 2017-02-06 12:24:33.04114+01

 2017-02-06 14:18:27.519912+01 | 1486387107.51991 |                 0 |              21 |                307700 |                 6037 |           17327094 |       2990107 |            29323 |        61690465 |                     0 |      63114106 | 2017-02-06 12:24:33.04114+01

 2017-02-06 14:18:28.598619+01 | 1486387108.59862 |                 0 |              21 |                307700 |                 6037 |           17327094 |       2990707 |            29329 |        61690465 |                     0 |      63120154 | 2017-02-06 12:24:33.04114+01

 2017-02-06 14:18:29.671642+01 | 1486387109.67164 |                 0 |              21 |                307700 |                 6037 |           17327094 |       2991207 |            29334 |        61690465 |                     0 |      63125736 | 2017-02-06 12:24:33.04114+01

 2017-02-06 14:18:30.74953+01 | 1486387110.74953 |                 0 |              21 |                307700 |                 6037 |           17327094 |       2991707 |            29339 |        61690465 |                     0 |      63131117 | 2017-02-06 12:24:33.04114+01

 2017-02-06 14:18:31.834706+01 | 1486387111.83471 |                 0 |              21 |                307700 |                 6037 |           17327094 |       2992307 |            29345 |        61690465 |                     0 |      63137362 | 2017-02-06 12:24:33.04114+01

 2017-02-06 14:18:32.913652+01 | 1486387112.91365 |                 0 |              21 |                307700 |                 6037 |           17327094 |       2992807 |            29350 |        61690465 |                     0 |      63143025 | 2017-02-06 12:24:33.04114+01

 2017-02-06 14:18:33.99401+01 | 1486387113.99401 |                 0 |              21 |                307700 |                 6037 |           17327094 |       2993407 |            29356 |        61690465 |                     0 |      63149732 | 2017-02-06 12:24:33.04114+01

 2017-02-06 14:18:35.087278+01 | 1486387115.08728 |                 0 |              21 |                307700 |                 6037 |           17327094 |       2993907 |            29361 |        61690465 |                     0 |      63154972 | 2017-02-06 12:24:33.04114+01

 2017-02-06 14:18:36.157034+01 | 1486387116.15703 |                 0 |              21 |                307700 |                 6037 |           17327094 |       2994407 |            29366 |        61690465 |                     0 |      63160754 | 2017-02-06 12:24:33.04114+01

 2017-02-06 14:18:37.231407+01 | 1486387117.23141 |                 0 |              21 |                307700 |                 6037 |           17327094 |       2994907 |            29371 |        61690465 |                     0 |      63166179 | 2017-02-06 12:24:33.04114+01

 2017-02-06 14:18:38.313959+01 | 1486387118.31396 |                 0 |              21 |                307700 |                 6037 |           17327094 |       2995507 |            29377 |        61690465 |                     0 |      63173171 | 2017-02-06 12:24:33.04114+01

 2017-02-06 14:18:39.385927+01 | 1486387119.38593 |                 0 |              21 |                307700 |                 6037 |           17327094 |       2996007 |            29382 |        61690465 |                     0 |      63178552 | 2017-02-06 12:24:33.04114+01

 2017-02-06 14:18:40.452522+01 | 1486387120.45252 |                 0 |              21 |                307700 |                 6037 |           17327094 |       2996607 |            29388 |        61690465 |                     0 |      63185485 | 2017-02-06 12:24:33.04114+01

 2017-02-06 14:18:41.524333+01 | 1486387121.52433 |                 0 |              21 |                307700 |                 6037 |           17327094 |       2997107 |            29393 |        61690465 |                     0 |      63190945 | 2017-02-06 12:24:33.04114+01

 2017-02-06 14:18:42.599515+01 | 1486387122.59951 |                 0 |              21 |                307700 |                 6037 |           17327094 |       2997607 |            29398 |        61690465 |                     0 |      63196049 | 2017-02-06 12:24:33.04114+01

 2017-02-06 14:18:43.675915+01 | 1486387123.67592 |                 0 |              21 |                307700 |                 6037 |           17327094 |       2998107 |            29403 |        61690465 |                     0 |      63201984 | 2017-02-06 12:24:33.04114+01

 2017-02-06 14:18:44.752953+01 | 1486387124.75295 |                 0 |              21 |                307700 |                 6037 |           17327094 |       2998707 |            29409 |        61690465 |                     0 |      63208392 | 2017-02-06 12:24:33.04114+01

 2017-02-06 14:18:45.8276+01 | 1486387125.8276 |                 0 |              21 |                307700 |                 6037 |           17327094 |       2999207 |            29414 |        61690465 |                     0 |      63212751 | 2017-02-06 12:24:33.04114+01

 2017-02-06 14:18:46.904867+01 | 1486387126.90487 |                 0 |              21 |                307700 |                 6037 |           17327094 |       2999707 |            29419 |        61690465 |                     0 |      63217740 | 2017-02-06 12:24:33.04114+01

 2017-02-06 14:18:47.994438+01 | 1486387127.99444 |                 0 |              21 |                307700 |                 6037 |           17327094 |       3000307 |            29425 |        61690465 |                     0 |      63223262 | 2017-02-06 12:24:33.04114+01

 2017-02-06 14:18:49.069359+01 | 1486387129.06936 |                 0 |              21 |                307700 |                 6037 |           17327094 |       3000807 |            29430 |        61690465 |                     0 |      63228300 | 2017-02-06 12:24:33.04114+01

 2017-02-06 14:18:50.140941+01 | 1486387130.14094 |                 0 |              21 |                307700 |                 6037 |           17327094 |       3001407 |            29436 |        61690465 |                     0 |      63234606 | 2017-02-06 12:24:33.04114+01

 2017-02-06 14:18:51.21522+01 | 1486387131.21522 |                 0 |              21 |                307700 |                 6037 |           17327094 |       3001907 |            29441 |        61690465 |                     0 |      63239875 | 2017-02-06 12:24:33.04114+01

 2017-02-06 14:18:52.304653+01 | 1486387132.30465 |                 0 |              21 |                307700 |                 6037 |           17327094 |       3002407 |            29446 |        61690465 |                     0 |      63245780 | 2017-02-06 12:24:33.04114+01

 2017-02-06 14:18:53.394708+01 | 1486387133.39471 |                 0 |              21 |                307700 |                 6037 |           17327094 |       3003007 |            29452 |        61690465 |                     0 |      63252163 | 2017-02-06 12:24:33.04114+01

 2017-02-06 14:18:54.471655+01 | 1486387134.47165 |                 0 |              21 |                307700 |                 6037 |           17327094 |       3003507 |            29457 |        61690465 |                     0 |      63257982 | 2017-02-06 12:24:33.04114+01

 2017-02-06 14:18:55.540001+01 | 1486387135.54 |                 0 |              21 |                307700 |                 6037 |           17327094 |       3004007 |            29462 |        61690465 |                     0 |      63263286 | 2017-02-06 12:24:33.04114+01

 2017-02-06 14:18:56.626569+01 | 1486387136.62657 |                 0 |              21 |                307700 |                 6037 |           17327094 |       3004607 |            29468 |        61690465 |                     0 |      63269722 | 2017-02-06 12:24:33.04114+01

