 2017-02-06 14:13:57.686868+01 | 1486386837.68687 | pgbench_accounts |      13894000640
 2017-02-06 14:13:57.686868+01 | 1486386837.68687 | pgbench_tellers  |         16769024
 2017-02-06 14:13:57.686868+01 | 1486386837.68687 | pgbench_history  |             8192
 2017-02-06 14:13:57.686868+01 | 1486386837.68687 | pgbench_branches |          9527296

 2017-02-06 14:13:58.784067+01 | 1486386838.78407 | pgbench_accounts |      13894000640
 2017-02-06 14:13:58.784067+01 | 1486386838.78407 | pgbench_tellers  |         16769024
 2017-02-06 14:13:58.784067+01 | 1486386838.78407 | pgbench_history  |           729088
 2017-02-06 14:13:58.784067+01 | 1486386838.78407 | pgbench_branches |          9527296

 2017-02-06 14:13:59.856591+01 | 1486386839.85659 | pgbench_accounts |      13894000640
 2017-02-06 14:13:59.856591+01 | 1486386839.85659 | pgbench_tellers  |         16769024
 2017-02-06 14:13:59.856591+01 | 1486386839.85659 | pgbench_history  |          1105920
 2017-02-06 14:13:59.856591+01 | 1486386839.85659 | pgbench_branches |          9527296

 2017-02-06 14:14:00.937589+01 | 1486386840.93759 | pgbench_accounts |      13894000640
 2017-02-06 14:14:00.937589+01 | 1486386840.93759 | pgbench_tellers  |         16769024
 2017-02-06 14:14:00.937589+01 | 1486386840.93759 | pgbench_history  |          1835008
 2017-02-06 14:14:00.937589+01 | 1486386840.93759 | pgbench_branches |          9527296

 2017-02-06 14:14:02.025204+01 | 1486386842.0252 | pgbench_accounts |      13894049792
 2017-02-06 14:14:02.025204+01 | 1486386842.0252 | pgbench_tellers  |         16769024
 2017-02-06 14:14:02.025204+01 | 1486386842.0252 | pgbench_history  |          2383872
 2017-02-06 14:14:02.025204+01 | 1486386842.0252 | pgbench_branches |          9527296

 2017-02-06 14:14:03.106585+01 | 1486386843.10659 | pgbench_accounts |      13894066176
 2017-02-06 14:14:03.106585+01 | 1486386843.10659 | pgbench_tellers  |         16769024
 2017-02-06 14:14:03.106585+01 | 1486386843.10659 | pgbench_history  |          2940928
 2017-02-06 14:14:03.106585+01 | 1486386843.10659 | pgbench_branches |          9527296

 2017-02-06 14:14:04.182633+01 | 1486386844.18263 | pgbench_accounts |      13894066176
 2017-02-06 14:14:04.182633+01 | 1486386844.18263 | pgbench_tellers  |         16769024
 2017-02-06 14:14:04.182633+01 | 1486386844.18263 | pgbench_history  |          3538944
 2017-02-06 14:14:04.182633+01 | 1486386844.18263 | pgbench_branches |          9527296

 2017-02-06 14:14:05.258724+01 | 1486386845.25872 | pgbench_accounts |      13894066176
 2017-02-06 14:14:05.258724+01 | 1486386845.25872 | pgbench_tellers  |         16769024
 2017-02-06 14:14:05.258724+01 | 1486386845.25872 | pgbench_history  |          3940352
 2017-02-06 14:14:05.258724+01 | 1486386845.25872 | pgbench_branches |          9527296

 2017-02-06 14:14:06.340998+01 | 1486386846.341 | pgbench_accounts |      13894066176
 2017-02-06 14:14:06.340998+01 | 1486386846.341 | pgbench_tellers  |         16769024
 2017-02-06 14:14:06.340998+01 | 1486386846.341 | pgbench_history  |          4669440
 2017-02-06 14:14:06.340998+01 | 1486386846.341 | pgbench_branches |          9527296

 2017-02-06 14:14:07.420788+01 | 1486386847.42079 | pgbench_accounts |      13894066176
 2017-02-06 14:14:07.420788+01 | 1486386847.42079 | pgbench_tellers  |         16769024
 2017-02-06 14:14:07.420788+01 | 1486386847.42079 | pgbench_history  |          5054464
 2017-02-06 14:14:07.420788+01 | 1486386847.42079 | pgbench_branches |          9527296

 2017-02-06 14:14:08.490907+01 | 1486386848.49091 | pgbench_accounts |      13894066176
 2017-02-06 14:14:08.490907+01 | 1486386848.49091 | pgbench_tellers  |         16769024
 2017-02-06 14:14:08.490907+01 | 1486386848.49091 | pgbench_history  |          5447680
 2017-02-06 14:14:08.490907+01 | 1486386848.49091 | pgbench_branches |          9527296

 2017-02-06 14:14:09.569825+01 | 1486386849.56982 | pgbench_accounts |      13894066176
 2017-02-06 14:14:09.569825+01 | 1486386849.56982 | pgbench_tellers  |         16769024
 2017-02-06 14:14:09.569825+01 | 1486386849.56982 | pgbench_history  |          5799936
 2017-02-06 14:14:09.569825+01 | 1486386849.56982 | pgbench_branches |          9527296

 2017-02-06 14:14:10.641787+01 | 1486386850.64179 | pgbench_accounts |      13894066176
 2017-02-06 14:14:10.641787+01 | 1486386850.64179 | pgbench_tellers  |         16769024
 2017-02-06 14:14:10.641787+01 | 1486386850.64179 | pgbench_history  |          6365184
 2017-02-06 14:14:10.641787+01 | 1486386850.64179 | pgbench_branches |          9527296

 2017-02-06 14:14:11.726556+01 | 1486386851.72656 | pgbench_accounts |      13894066176
 2017-02-06 14:14:11.726556+01 | 1486386851.72656 | pgbench_tellers  |         16769024
 2017-02-06 14:14:11.726556+01 | 1486386851.72656 | pgbench_history  |          6955008
 2017-02-06 14:14:11.726556+01 | 1486386851.72656 | pgbench_branches |          9527296

 2017-02-06 14:14:12.799656+01 | 1486386852.79966 | pgbench_accounts |      13894066176
 2017-02-06 14:14:12.799656+01 | 1486386852.79966 | pgbench_tellers  |         16769024
 2017-02-06 14:14:12.799656+01 | 1486386852.79966 | pgbench_history  |          7495680
 2017-02-06 14:14:12.799656+01 | 1486386852.79966 | pgbench_branches |          9527296

 2017-02-06 14:14:13.887142+01 | 1486386853.88714 | pgbench_accounts |      13894066176
 2017-02-06 14:14:13.887142+01 | 1486386853.88714 | pgbench_tellers  |         16769024
 2017-02-06 14:14:13.887142+01 | 1486386853.88714 | pgbench_history  |          8085504
 2017-02-06 14:14:13.887142+01 | 1486386853.88714 | pgbench_branches |          9527296

 2017-02-06 14:14:14.978594+01 | 1486386854.97859 | pgbench_accounts |      13894066176
 2017-02-06 14:14:14.978594+01 | 1486386854.97859 | pgbench_tellers  |         16769024
 2017-02-06 14:14:14.978594+01 | 1486386854.97859 | pgbench_history  |          9142272
 2017-02-06 14:14:14.978594+01 | 1486386854.97859 | pgbench_branches |          9527296

 2017-02-06 14:14:16.062653+01 | 1486386856.06265 | pgbench_accounts |      13894066176
 2017-02-06 14:14:16.062653+01 | 1486386856.06265 | pgbench_tellers  |         16769024
 2017-02-06 14:14:16.062653+01 | 1486386856.06265 | pgbench_history  |          9142272
 2017-02-06 14:14:16.062653+01 | 1486386856.06265 | pgbench_branches |          9527296

 2017-02-06 14:14:17.146413+01 | 1486386857.14641 | pgbench_accounts |      13894066176
 2017-02-06 14:14:17.146413+01 | 1486386857.14641 | pgbench_tellers  |         16769024
 2017-02-06 14:14:17.146413+01 | 1486386857.14641 | pgbench_history  |          9691136
 2017-02-06 14:14:17.146413+01 | 1486386857.14641 | pgbench_branches |          9527296

 2017-02-06 14:14:18.232359+01 | 1486386858.23236 | pgbench_accounts |      13894066176
 2017-02-06 14:14:18.232359+01 | 1486386858.23236 | pgbench_tellers  |         16769024
 2017-02-06 14:14:18.232359+01 | 1486386858.23236 | pgbench_history  |         10264576
 2017-02-06 14:14:18.232359+01 | 1486386858.23236 | pgbench_branches |          9527296

 2017-02-06 14:14:19.307775+01 | 1486386859.30778 | pgbench_accounts |      13894066176
 2017-02-06 14:14:19.307775+01 | 1486386859.30778 | pgbench_tellers  |         16769024
 2017-02-06 14:14:19.307775+01 | 1486386859.30778 | pgbench_history  |         11001856
 2017-02-06 14:14:19.307775+01 | 1486386859.30778 | pgbench_branches |          9527296

 2017-02-06 14:14:20.38775+01 | 1486386860.38775 | pgbench_accounts |      13894066176
 2017-02-06 14:14:20.38775+01 | 1486386860.38775 | pgbench_tellers  |         16769024
 2017-02-06 14:14:20.38775+01 | 1486386860.38775 | pgbench_history  |         11239424
 2017-02-06 14:14:20.38775+01 | 1486386860.38775 | pgbench_branches |          9527296

 2017-02-06 14:14:21.475864+01 | 1486386861.47586 | pgbench_accounts |      13894066176
 2017-02-06 14:14:21.475864+01 | 1486386861.47586 | pgbench_tellers  |         16769024
 2017-02-06 14:14:21.475864+01 | 1486386861.47586 | pgbench_history  |         12025856
 2017-02-06 14:14:21.475864+01 | 1486386861.47586 | pgbench_branches |          9527296

 2017-02-06 14:14:22.550937+01 | 1486386862.55094 | pgbench_accounts |      13894066176
 2017-02-06 14:14:22.550937+01 | 1486386862.55094 | pgbench_tellers  |         16769024
 2017-02-06 14:14:22.550937+01 | 1486386862.55094 | pgbench_history  |         12402688
 2017-02-06 14:14:22.550937+01 | 1486386862.55094 | pgbench_branches |          9527296

 2017-02-06 14:14:23.621258+01 | 1486386863.62126 | pgbench_accounts |      13894066176
 2017-02-06 14:14:23.621258+01 | 1486386863.62126 | pgbench_tellers  |         16769024
 2017-02-06 14:14:23.621258+01 | 1486386863.62126 | pgbench_history  |         12812288
 2017-02-06 14:14:23.621258+01 | 1486386863.62126 | pgbench_branches |          9527296

 2017-02-06 14:14:24.694852+01 | 1486386864.69485 | pgbench_accounts |      13894066176
 2017-02-06 14:14:24.694852+01 | 1486386864.69485 | pgbench_tellers  |         16769024
 2017-02-06 14:14:24.694852+01 | 1486386864.69485 | pgbench_history  |         13402112
 2017-02-06 14:14:24.694852+01 | 1486386864.69485 | pgbench_branches |          9527296

 2017-02-06 14:14:25.774326+01 | 1486386865.77433 | pgbench_accounts |      13894074368
 2017-02-06 14:14:25.774326+01 | 1486386865.77433 | pgbench_tellers  |         16769024
 2017-02-06 14:14:25.774326+01 | 1486386865.77433 | pgbench_history  |         13991936
 2017-02-06 14:14:25.774326+01 | 1486386865.77433 | pgbench_branches |          9527296

 2017-02-06 14:14:26.855359+01 | 1486386866.85536 | pgbench_accounts |      13894074368
 2017-02-06 14:14:26.855359+01 | 1486386866.85536 | pgbench_tellers  |         16769024
 2017-02-06 14:14:26.855359+01 | 1486386866.85536 | pgbench_history  |         14737408
 2017-02-06 14:14:26.855359+01 | 1486386866.85536 | pgbench_branches |          9527296

 2017-02-06 14:14:27.940189+01 | 1486386867.94019 | pgbench_accounts |      13894090752
 2017-02-06 14:14:27.940189+01 | 1486386867.94019 | pgbench_tellers  |         16769024
 2017-02-06 14:14:27.940189+01 | 1486386867.94019 | pgbench_history  |         15163392
 2017-02-06 14:14:27.940189+01 | 1486386867.94019 | pgbench_branches |          9527296

 2017-02-06 14:14:29.024495+01 | 1486386869.02449 | pgbench_accounts |      13894098944
 2017-02-06 14:14:29.024495+01 | 1486386869.02449 | pgbench_tellers  |         16769024
 2017-02-06 14:14:29.024495+01 | 1486386869.02449 | pgbench_history  |         15761408
 2017-02-06 14:14:29.024495+01 | 1486386869.02449 | pgbench_branches |          9527296

 2017-02-06 14:14:30.096864+01 | 1486386870.09686 | pgbench_accounts |      13894107136
 2017-02-06 14:14:30.096864+01 | 1486386870.09686 | pgbench_tellers  |         16769024
 2017-02-06 14:14:30.096864+01 | 1486386870.09686 | pgbench_history  |         16441344
 2017-02-06 14:14:30.096864+01 | 1486386870.09686 | pgbench_branches |          9527296

 2017-02-06 14:14:31.184578+01 | 1486386871.18458 | pgbench_accounts |      13894107136
 2017-02-06 14:14:31.184578+01 | 1486386871.18458 | pgbench_tellers  |         16769024
 2017-02-06 14:14:31.184578+01 | 1486386871.18458 | pgbench_history  |         17055744
 2017-02-06 14:14:31.184578+01 | 1486386871.18458 | pgbench_branches |          9527296

 2017-02-06 14:14:32.264637+01 | 1486386872.26464 | pgbench_accounts |      13894123520
 2017-02-06 14:14:32.264637+01 | 1486386872.26464 | pgbench_tellers  |         16769024
 2017-02-06 14:14:32.264637+01 | 1486386872.26464 | pgbench_history  |         17596416
 2017-02-06 14:14:32.264637+01 | 1486386872.26464 | pgbench_branches |          9527296

 2017-02-06 14:14:33.351988+01 | 1486386873.35199 | pgbench_accounts |      13894123520
 2017-02-06 14:14:33.351988+01 | 1486386873.35199 | pgbench_tellers  |         16769024
 2017-02-06 14:14:33.351988+01 | 1486386873.35199 | pgbench_history  |         18243584
 2017-02-06 14:14:33.351988+01 | 1486386873.35199 | pgbench_branches |          9527296

 2017-02-06 14:14:34.431784+01 | 1486386874.43178 | pgbench_accounts |      13894131712
 2017-02-06 14:14:34.431784+01 | 1486386874.43178 | pgbench_tellers  |         16769024
 2017-02-06 14:14:34.431784+01 | 1486386874.43178 | pgbench_history  |         18923520
 2017-02-06 14:14:34.431784+01 | 1486386874.43178 | pgbench_branches |          9527296

 2017-02-06 14:14:35.519468+01 | 1486386875.51947 | pgbench_accounts |      13894131712
 2017-02-06 14:14:35.519468+01 | 1486386875.51947 | pgbench_tellers  |         16769024
 2017-02-06 14:14:35.519468+01 | 1486386875.51947 | pgbench_history  |         19283968
 2017-02-06 14:14:35.519468+01 | 1486386875.51947 | pgbench_branches |          9527296

 2017-02-06 14:14:36.599908+01 | 1486386876.59991 | pgbench_accounts |      13894131712
 2017-02-06 14:14:36.599908+01 | 1486386876.59991 | pgbench_tellers  |         16769024
 2017-02-06 14:14:36.599908+01 | 1486386876.59991 | pgbench_history  |         20021248
 2017-02-06 14:14:36.599908+01 | 1486386876.59991 | pgbench_branches |          9527296

 2017-02-06 14:14:37.685193+01 | 1486386877.68519 | pgbench_accounts |      13894131712
 2017-02-06 14:14:37.685193+01 | 1486386877.68519 | pgbench_tellers  |         16769024
 2017-02-06 14:14:37.685193+01 | 1486386877.68519 | pgbench_history  |         20381696
 2017-02-06 14:14:37.685193+01 | 1486386877.68519 | pgbench_branches |          9527296

 2017-02-06 14:14:38.765622+01 | 1486386878.76562 | pgbench_accounts |      13894131712
 2017-02-06 14:14:38.765622+01 | 1486386878.76562 | pgbench_tellers  |         16769024
 2017-02-06 14:14:38.765622+01 | 1486386878.76562 | pgbench_history  |         20938752
 2017-02-06 14:14:38.765622+01 | 1486386878.76562 | pgbench_branches |          9527296

 2017-02-06 14:14:39.836662+01 | 1486386879.83666 | pgbench_accounts |      13894131712
 2017-02-06 14:14:39.836662+01 | 1486386879.83666 | pgbench_tellers  |         16769024
 2017-02-06 14:14:39.836662+01 | 1486386879.83666 | pgbench_history  |         21495808
 2017-02-06 14:14:39.836662+01 | 1486386879.83666 | pgbench_branches |          9527296

 2017-02-06 14:14:40.917163+01 | 1486386880.91716 | pgbench_accounts |      13894131712
 2017-02-06 14:14:40.917163+01 | 1486386880.91716 | pgbench_tellers  |         16769024
 2017-02-06 14:14:40.917163+01 | 1486386880.91716 | pgbench_history  |         22200320
 2017-02-06 14:14:40.917163+01 | 1486386880.91716 | pgbench_branches |          9527296

 2017-02-06 14:14:41.990113+01 | 1486386881.99011 | pgbench_accounts |      13894131712
 2017-02-06 14:14:41.990113+01 | 1486386881.99011 | pgbench_tellers  |         16769024
 2017-02-06 14:14:41.990113+01 | 1486386881.99011 | pgbench_history  |         22560768
 2017-02-06 14:14:41.990113+01 | 1486386881.99011 | pgbench_branches |          9527296

 2017-02-06 14:14:43.069255+01 | 1486386883.06926 | pgbench_accounts |      13894131712
 2017-02-06 14:14:43.069255+01 | 1486386883.06926 | pgbench_tellers  |         16769024
 2017-02-06 14:14:43.069255+01 | 1486386883.06926 | pgbench_history  |         22970368
 2017-02-06 14:14:43.069255+01 | 1486386883.06926 | pgbench_branches |          9527296

 2017-02-06 14:14:44.153422+01 | 1486386884.15342 | pgbench_accounts |      13894131712
 2017-02-06 14:14:44.153422+01 | 1486386884.15342 | pgbench_tellers  |         16769024
 2017-02-06 14:14:44.153422+01 | 1486386884.15342 | pgbench_history  |         23592960
 2017-02-06 14:14:44.153422+01 | 1486386884.15342 | pgbench_branches |          9527296

 2017-02-06 14:14:45.237217+01 | 1486386885.23722 | pgbench_accounts |      13894131712
 2017-02-06 14:14:45.237217+01 | 1486386885.23722 | pgbench_tellers  |         16769024
 2017-02-06 14:14:45.237217+01 | 1486386885.23722 | pgbench_history  |         24207360
 2017-02-06 14:14:45.237217+01 | 1486386885.23722 | pgbench_branches |          9527296

 2017-02-06 14:14:46.326614+01 | 1486386886.32661 | pgbench_accounts |      13894131712
 2017-02-06 14:14:46.326614+01 | 1486386886.32661 | pgbench_tellers  |         16769024
 2017-02-06 14:14:46.326614+01 | 1486386886.32661 | pgbench_history  |         24780800
 2017-02-06 14:14:46.326614+01 | 1486386886.32661 | pgbench_branches |          9527296

 2017-02-06 14:14:47.399501+01 | 1486386887.3995 | pgbench_accounts |      13894131712
 2017-02-06 14:14:47.399501+01 | 1486386887.3995 | pgbench_tellers  |         16769024
 2017-02-06 14:14:47.399501+01 | 1486386887.3995 | pgbench_history  |         25362432
 2017-02-06 14:14:47.399501+01 | 1486386887.3995 | pgbench_branches |          9527296

 2017-02-06 14:14:48.474504+01 | 1486386888.4745 | pgbench_accounts |      13894131712
 2017-02-06 14:14:48.474504+01 | 1486386888.4745 | pgbench_tellers  |         16769024
 2017-02-06 14:14:48.474504+01 | 1486386888.4745 | pgbench_history  |         25968640
 2017-02-06 14:14:48.474504+01 | 1486386888.4745 | pgbench_branches |          9527296

 2017-02-06 14:14:49.555754+01 | 1486386889.55575 | pgbench_accounts |      13894131712
 2017-02-06 14:14:49.555754+01 | 1486386889.55575 | pgbench_tellers  |         16769024
 2017-02-06 14:14:49.555754+01 | 1486386889.55575 | pgbench_history  |         26566656
 2017-02-06 14:14:49.555754+01 | 1486386889.55575 | pgbench_branches |          9527296

 2017-02-06 14:14:50.635451+01 | 1486386890.63545 | pgbench_accounts |      13894131712
 2017-02-06 14:14:50.635451+01 | 1486386890.63545 | pgbench_tellers  |         16769024
 2017-02-06 14:14:50.635451+01 | 1486386890.63545 | pgbench_history  |         27189248
 2017-02-06 14:14:50.635451+01 | 1486386890.63545 | pgbench_branches |          9527296

 2017-02-06 14:14:51.711606+01 | 1486386891.71161 | pgbench_accounts |      13894139904
 2017-02-06 14:14:51.711606+01 | 1486386891.71161 | pgbench_tellers  |         16769024
 2017-02-06 14:14:51.711606+01 | 1486386891.71161 | pgbench_history  |         27787264
 2017-02-06 14:14:51.711606+01 | 1486386891.71161 | pgbench_branches |          9527296

 2017-02-06 14:14:52.786701+01 | 1486386892.7867 | pgbench_accounts |      13894139904
 2017-02-06 14:14:52.786701+01 | 1486386892.7867 | pgbench_tellers  |         16769024
 2017-02-06 14:14:52.786701+01 | 1486386892.7867 | pgbench_history  |         28368896
 2017-02-06 14:14:52.786701+01 | 1486386892.7867 | pgbench_branches |          9527296

 2017-02-06 14:14:53.873013+01 | 1486386893.87301 | pgbench_accounts |      13894139904
 2017-02-06 14:14:53.873013+01 | 1486386893.87301 | pgbench_tellers  |         16769024
 2017-02-06 14:14:53.873013+01 | 1486386893.87301 | pgbench_history  |         28983296
 2017-02-06 14:14:53.873013+01 | 1486386893.87301 | pgbench_branches |          9527296

 2017-02-06 14:14:54.960412+01 | 1486386894.96041 | pgbench_accounts |      13894156288
 2017-02-06 14:14:54.960412+01 | 1486386894.96041 | pgbench_tellers  |         16769024
 2017-02-06 14:14:54.960412+01 | 1486386894.96041 | pgbench_history  |         29564928
 2017-02-06 14:14:54.960412+01 | 1486386894.96041 | pgbench_branches |          9527296

 2017-02-06 14:14:56.041438+01 | 1486386896.04144 | pgbench_accounts |      13894164480
 2017-02-06 14:14:56.041438+01 | 1486386896.04144 | pgbench_tellers  |         16769024
 2017-02-06 14:14:56.041438+01 | 1486386896.04144 | pgbench_history  |         30121984
 2017-02-06 14:14:56.041438+01 | 1486386896.04144 | pgbench_branches |          9527296

 2017-02-06 14:14:57.117883+01 | 1486386897.11788 | pgbench_accounts |      13894172672
 2017-02-06 14:14:57.117883+01 | 1486386897.11788 | pgbench_tellers  |         16769024
 2017-02-06 14:14:57.117883+01 | 1486386897.11788 | pgbench_history  |         30728192
 2017-02-06 14:14:57.117883+01 | 1486386897.11788 | pgbench_branches |          9527296

 2017-02-06 14:14:58.195152+01 | 1486386898.19515 | pgbench_accounts |      13894172672
 2017-02-06 14:14:58.195152+01 | 1486386898.19515 | pgbench_tellers  |         16769024
 2017-02-06 14:14:58.195152+01 | 1486386898.19515 | pgbench_history  |         31350784
 2017-02-06 14:14:58.195152+01 | 1486386898.19515 | pgbench_branches |          9527296

 2017-02-06 14:14:59.262498+01 | 1486386899.2625 | pgbench_accounts |      13894180864
 2017-02-06 14:14:59.262498+01 | 1486386899.2625 | pgbench_tellers  |         16769024
 2017-02-06 14:14:59.262498+01 | 1486386899.2625 | pgbench_history  |         31932416
 2017-02-06 14:14:59.262498+01 | 1486386899.2625 | pgbench_branches |          9527296

 2017-02-06 14:15:00.337371+01 | 1486386900.33737 | pgbench_accounts |      13894180864
 2017-02-06 14:15:00.337371+01 | 1486386900.33737 | pgbench_tellers  |         16769024
 2017-02-06 14:15:00.337371+01 | 1486386900.33737 | pgbench_history  |         32505856
 2017-02-06 14:15:00.337371+01 | 1486386900.33737 | pgbench_branches |          9527296

 2017-02-06 14:15:01.417963+01 | 1486386901.41796 | pgbench_accounts |      13894189056
 2017-02-06 14:15:01.417963+01 | 1486386901.41796 | pgbench_tellers  |         16769024
 2017-02-06 14:15:01.417963+01 | 1486386901.41796 | pgbench_history  |         33210368
 2017-02-06 14:15:01.417963+01 | 1486386901.41796 | pgbench_branches |          9527296

 2017-02-06 14:15:02.501418+01 | 1486386902.50142 | pgbench_accounts |      13894189056
 2017-02-06 14:15:02.501418+01 | 1486386902.50142 | pgbench_tellers  |         16769024
 2017-02-06 14:15:02.501418+01 | 1486386902.50142 | pgbench_history  |         33988608
 2017-02-06 14:15:02.501418+01 | 1486386902.50142 | pgbench_branches |          9527296

 2017-02-06 14:15:03.562381+01 | 1486386903.56238 | pgbench_accounts |      13894189056
 2017-02-06 14:15:03.562381+01 | 1486386903.56238 | pgbench_tellers  |         16769024
 2017-02-06 14:15:03.562381+01 | 1486386903.56238 | pgbench_history  |         34299904
 2017-02-06 14:15:03.562381+01 | 1486386903.56238 | pgbench_branches |          9527296

 2017-02-06 14:15:04.640084+01 | 1486386904.64008 | pgbench_accounts |      13894197248
 2017-02-06 14:15:04.640084+01 | 1486386904.64008 | pgbench_tellers  |         16769024
 2017-02-06 14:15:04.640084+01 | 1486386904.64008 | pgbench_history  |         34906112
 2017-02-06 14:15:04.640084+01 | 1486386904.64008 | pgbench_branches |          9527296

 2017-02-06 14:15:05.716852+01 | 1486386905.71685 | pgbench_accounts |      13894197248
 2017-02-06 14:15:05.716852+01 | 1486386905.71685 | pgbench_tellers  |         16769024
 2017-02-06 14:15:05.716852+01 | 1486386905.71685 | pgbench_history  |         35487744
 2017-02-06 14:15:05.716852+01 | 1486386905.71685 | pgbench_branches |          9527296

 2017-02-06 14:15:06.799584+01 | 1486386906.79958 | pgbench_accounts |      13894197248
 2017-02-06 14:15:06.799584+01 | 1486386906.79958 | pgbench_tellers  |         16769024
 2017-02-06 14:15:06.799584+01 | 1486386906.79958 | pgbench_history  |         36077568
 2017-02-06 14:15:06.799584+01 | 1486386906.79958 | pgbench_branches |          9527296

 2017-02-06 14:15:07.879209+01 | 1486386907.87921 | pgbench_accounts |      13894197248
 2017-02-06 14:15:07.879209+01 | 1486386907.87921 | pgbench_tellers  |         16769024
 2017-02-06 14:15:07.879209+01 | 1486386907.87921 | pgbench_history  |         36732928
 2017-02-06 14:15:07.879209+01 | 1486386907.87921 | pgbench_branches |          9527296

 2017-02-06 14:15:08.948822+01 | 1486386908.94882 | pgbench_accounts |      13894197248
 2017-02-06 14:15:08.948822+01 | 1486386908.94882 | pgbench_tellers  |         16769024
 2017-02-06 14:15:08.948822+01 | 1486386908.94882 | pgbench_history  |         37347328
 2017-02-06 14:15:08.948822+01 | 1486386908.94882 | pgbench_branches |          9527296

 2017-02-06 14:15:10.027281+01 | 1486386910.02728 | pgbench_accounts |      13894197248
 2017-02-06 14:15:10.027281+01 | 1486386910.02728 | pgbench_tellers  |         16769024
 2017-02-06 14:15:10.027281+01 | 1486386910.02728 | pgbench_history  |         37871616
 2017-02-06 14:15:10.027281+01 | 1486386910.02728 | pgbench_branches |          9527296

 2017-02-06 14:15:11.102994+01 | 1486386911.10299 | pgbench_accounts |      13894197248
 2017-02-06 14:15:11.102994+01 | 1486386911.10299 | pgbench_tellers  |         16769024
 2017-02-06 14:15:11.102994+01 | 1486386911.10299 | pgbench_history  |         38510592
 2017-02-06 14:15:11.102994+01 | 1486386911.10299 | pgbench_branches |          9527296

 2017-02-06 14:15:12.169425+01 | 1486386912.16943 | pgbench_accounts |      13894197248
 2017-02-06 14:15:12.169425+01 | 1486386912.16943 | pgbench_tellers  |         16769024
 2017-02-06 14:15:12.169425+01 | 1486386912.16943 | pgbench_history  |         39223296
 2017-02-06 14:15:12.169425+01 | 1486386912.16943 | pgbench_branches |          9527296

 2017-02-06 14:15:13.242594+01 | 1486386913.24259 | pgbench_accounts |      13894197248
 2017-02-06 14:15:13.242594+01 | 1486386913.24259 | pgbench_tellers  |         16769024
 2017-02-06 14:15:13.242594+01 | 1486386913.24259 | pgbench_history  |         39600128
 2017-02-06 14:15:13.242594+01 | 1486386913.24259 | pgbench_branches |          9527296

 2017-02-06 14:15:14.328378+01 | 1486386914.32838 | pgbench_accounts |      13894197248
 2017-02-06 14:15:14.328378+01 | 1486386914.32838 | pgbench_tellers  |         16769024
 2017-02-06 14:15:14.328378+01 | 1486386914.32838 | pgbench_history  |         40361984
 2017-02-06 14:15:14.328378+01 | 1486386914.32838 | pgbench_branches |          9527296

 2017-02-06 14:15:15.406829+01 | 1486386915.40683 | pgbench_accounts |      13894197248
 2017-02-06 14:15:15.406829+01 | 1486386915.40683 | pgbench_tellers  |         16769024
 2017-02-06 14:15:15.406829+01 | 1486386915.40683 | pgbench_history  |         40960000
 2017-02-06 14:15:15.406829+01 | 1486386915.40683 | pgbench_branches |          9527296

 2017-02-06 14:15:16.484577+01 | 1486386916.48458 | pgbench_accounts |      13894197248
 2017-02-06 14:15:16.484577+01 | 1486386916.48458 | pgbench_tellers  |         16769024
 2017-02-06 14:15:16.484577+01 | 1486386916.48458 | pgbench_history  |         41377792
 2017-02-06 14:15:16.484577+01 | 1486386916.48458 | pgbench_branches |          9527296

 2017-02-06 14:15:17.563986+01 | 1486386917.56399 | pgbench_accounts |      13894197248
 2017-02-06 14:15:17.563986+01 | 1486386917.56399 | pgbench_tellers  |         16769024
 2017-02-06 14:15:17.563986+01 | 1486386917.56399 | pgbench_history  |         41975808
 2017-02-06 14:15:17.563986+01 | 1486386917.56399 | pgbench_branches |          9527296

 2017-02-06 14:15:18.646376+01 | 1486386918.64638 | pgbench_accounts |      13894197248
 2017-02-06 14:15:18.646376+01 | 1486386918.64638 | pgbench_tellers  |         16769024
 2017-02-06 14:15:18.646376+01 | 1486386918.64638 | pgbench_history  |         42680320
 2017-02-06 14:15:18.646376+01 | 1486386918.64638 | pgbench_branches |          9527296

 2017-02-06 14:15:19.716293+01 | 1486386919.71629 | pgbench_accounts |      13894221824
 2017-02-06 14:15:19.716293+01 | 1486386919.71629 | pgbench_tellers  |         16769024
 2017-02-06 14:15:19.716293+01 | 1486386919.71629 | pgbench_history  |         43393024
 2017-02-06 14:15:19.716293+01 | 1486386919.71629 | pgbench_branches |          9527296

 2017-02-06 14:15:20.800604+01 | 1486386920.8006 | pgbench_accounts |      13894221824
 2017-02-06 14:15:20.800604+01 | 1486386920.8006 | pgbench_tellers  |         16769024
 2017-02-06 14:15:20.800604+01 | 1486386920.8006 | pgbench_history  |         43958272
 2017-02-06 14:15:20.800604+01 | 1486386920.8006 | pgbench_branches |          9527296

 2017-02-06 14:15:21.867426+01 | 1486386921.86743 | pgbench_accounts |      13894230016
 2017-02-06 14:15:21.867426+01 | 1486386921.86743 | pgbench_tellers  |         16769024
 2017-02-06 14:15:21.867426+01 | 1486386921.86743 | pgbench_history  |         44384256
 2017-02-06 14:15:21.867426+01 | 1486386921.86743 | pgbench_branches |          9527296

 2017-02-06 14:15:22.941589+01 | 1486386922.94159 | pgbench_accounts |      13894230016
 2017-02-06 14:15:22.941589+01 | 1486386922.94159 | pgbench_tellers  |         16769024
 2017-02-06 14:15:22.941589+01 | 1486386922.94159 | pgbench_history  |         44933120
 2017-02-06 14:15:22.941589+01 | 1486386922.94159 | pgbench_branches |          9527296

 2017-02-06 14:15:24.025269+01 | 1486386924.02527 | pgbench_accounts |      13894230016
 2017-02-06 14:15:24.025269+01 | 1486386924.02527 | pgbench_tellers  |         16769024
 2017-02-06 14:15:24.025269+01 | 1486386924.02527 | pgbench_history  |         45498368
 2017-02-06 14:15:24.025269+01 | 1486386924.02527 | pgbench_branches |          9527296

 2017-02-06 14:15:25.102578+01 | 1486386925.10258 | pgbench_accounts |      13894238208
 2017-02-06 14:15:25.102578+01 | 1486386925.10258 | pgbench_tellers  |         16769024
 2017-02-06 14:15:25.102578+01 | 1486386925.10258 | pgbench_history  |         46137344
 2017-02-06 14:15:25.102578+01 | 1486386925.10258 | pgbench_branches |          9527296

 2017-02-06 14:15:26.181868+01 | 1486386926.18187 | pgbench_accounts |      13894238208
 2017-02-06 14:15:26.181868+01 | 1486386926.18187 | pgbench_tellers  |         16769024
 2017-02-06 14:15:26.181868+01 | 1486386926.18187 | pgbench_history  |         46727168
 2017-02-06 14:15:26.181868+01 | 1486386926.18187 | pgbench_branches |          9527296

 2017-02-06 14:15:27.255357+01 | 1486386927.25536 | pgbench_accounts |      13894238208
 2017-02-06 14:15:27.255357+01 | 1486386927.25536 | pgbench_tellers  |         16769024
 2017-02-06 14:15:27.255357+01 | 1486386927.25536 | pgbench_history  |         47136768
 2017-02-06 14:15:27.255357+01 | 1486386927.25536 | pgbench_branches |          9527296

 2017-02-06 14:15:28.325385+01 | 1486386928.32539 | pgbench_accounts |      13894238208
 2017-02-06 14:15:28.325385+01 | 1486386928.32539 | pgbench_tellers  |         16769024
 2017-02-06 14:15:28.325385+01 | 1486386928.32539 | pgbench_history  |         47751168
 2017-02-06 14:15:28.325385+01 | 1486386928.32539 | pgbench_branches |          9527296

 2017-02-06 14:15:29.407383+01 | 1486386929.40738 | pgbench_accounts |      13894246400
 2017-02-06 14:15:29.407383+01 | 1486386929.40738 | pgbench_tellers  |         16769024
 2017-02-06 14:15:29.407383+01 | 1486386929.40738 | pgbench_history  |         48496640
 2017-02-06 14:15:29.407383+01 | 1486386929.40738 | pgbench_branches |          9527296

 2017-02-06 14:15:30.476568+01 | 1486386930.47657 | pgbench_accounts |      13894246400
 2017-02-06 14:15:30.476568+01 | 1486386930.47657 | pgbench_tellers  |         16769024
 2017-02-06 14:15:30.476568+01 | 1486386930.47657 | pgbench_history  |         48873472
 2017-02-06 14:15:30.476568+01 | 1486386930.47657 | pgbench_branches |          9527296

 2017-02-06 14:15:31.552686+01 | 1486386931.55269 | pgbench_accounts |      13894246400
 2017-02-06 14:15:31.552686+01 | 1486386931.55269 | pgbench_tellers  |         16769024
 2017-02-06 14:15:31.552686+01 | 1486386931.55269 | pgbench_history  |         49405952
 2017-02-06 14:15:31.552686+01 | 1486386931.55269 | pgbench_branches |          9527296

 2017-02-06 14:15:32.622615+01 | 1486386932.62262 | pgbench_accounts |      13894254592
 2017-02-06 14:15:32.622615+01 | 1486386932.62262 | pgbench_tellers  |         16769024
 2017-02-06 14:15:32.622615+01 | 1486386932.62262 | pgbench_history  |         49971200
 2017-02-06 14:15:32.622615+01 | 1486386932.62262 | pgbench_branches |          9527296

 2017-02-06 14:15:33.70052+01 | 1486386933.70052 | pgbench_accounts |      13894262784
 2017-02-06 14:15:33.70052+01 | 1486386933.70052 | pgbench_tellers  |         16769024
 2017-02-06 14:15:33.70052+01 | 1486386933.70052 | pgbench_history  |         50528256
 2017-02-06 14:15:33.70052+01 | 1486386933.70052 | pgbench_branches |          9527296

 2017-02-06 14:15:34.777407+01 | 1486386934.77741 | pgbench_accounts |      13894262784
 2017-02-06 14:15:34.777407+01 | 1486386934.77741 | pgbench_tellers  |         16769024
 2017-02-06 14:15:34.777407+01 | 1486386934.77741 | pgbench_history  |         51068928
 2017-02-06 14:15:34.777407+01 | 1486386934.77741 | pgbench_branches |          9527296

 2017-02-06 14:15:35.866036+01 | 1486386935.86604 | pgbench_accounts |      13894262784
 2017-02-06 14:15:35.866036+01 | 1486386935.86604 | pgbench_tellers  |         16769024
 2017-02-06 14:15:35.866036+01 | 1486386935.86604 | pgbench_history  |         51593216
 2017-02-06 14:15:35.866036+01 | 1486386935.86604 | pgbench_branches |          9527296

 2017-02-06 14:15:36.930585+01 | 1486386936.93058 | pgbench_accounts |      13894262784
 2017-02-06 14:15:36.930585+01 | 1486386936.93058 | pgbench_tellers  |         16769024
 2017-02-06 14:15:36.930585+01 | 1486386936.93058 | pgbench_history  |         52232192
 2017-02-06 14:15:36.930585+01 | 1486386936.93058 | pgbench_branches |          9527296

 2017-02-06 14:15:38.006576+01 | 1486386938.00658 | pgbench_accounts |      13894262784
 2017-02-06 14:15:38.006576+01 | 1486386938.00658 | pgbench_tellers  |         16769024
 2017-02-06 14:15:38.006576+01 | 1486386938.00658 | pgbench_history  |         52748288
 2017-02-06 14:15:38.006576+01 | 1486386938.00658 | pgbench_branches |          9527296

 2017-02-06 14:15:39.094549+01 | 1486386939.09455 | pgbench_accounts |      13894262784
 2017-02-06 14:15:39.094549+01 | 1486386939.09455 | pgbench_tellers  |         16769024
 2017-02-06 14:15:39.094549+01 | 1486386939.09455 | pgbench_history  |         53272576
 2017-02-06 14:15:39.094549+01 | 1486386939.09455 | pgbench_branches |          9527296

 2017-02-06 14:15:40.180765+01 | 1486386940.18076 | pgbench_accounts |      13894262784
 2017-02-06 14:15:40.180765+01 | 1486386940.18076 | pgbench_tellers  |         16769024
 2017-02-06 14:15:40.180765+01 | 1486386940.18076 | pgbench_history  |         53788672
 2017-02-06 14:15:40.180765+01 | 1486386940.18076 | pgbench_branches |          9527296

 2017-02-06 14:15:41.255968+01 | 1486386941.25597 | pgbench_accounts |      13894262784
 2017-02-06 14:15:41.255968+01 | 1486386941.25597 | pgbench_tellers  |         16769024
 2017-02-06 14:15:41.255968+01 | 1486386941.25597 | pgbench_history  |         54525952
 2017-02-06 14:15:41.255968+01 | 1486386941.25597 | pgbench_branches |          9527296

 2017-02-06 14:15:42.34574+01 | 1486386942.34574 | pgbench_accounts |      13894262784
 2017-02-06 14:15:42.34574+01 | 1486386942.34574 | pgbench_tellers  |         16769024
 2017-02-06 14:15:42.34574+01 | 1486386942.34574 | pgbench_history  |         54919168
 2017-02-06 14:15:42.34574+01 | 1486386942.34574 | pgbench_branches |          9527296

 2017-02-06 14:15:43.435403+01 | 1486386943.4354 | pgbench_accounts |      13894262784
 2017-02-06 14:15:43.435403+01 | 1486386943.4354 | pgbench_tellers  |         16769024
 2017-02-06 14:15:43.435403+01 | 1486386943.4354 | pgbench_history  |         55525376
 2017-02-06 14:15:43.435403+01 | 1486386943.4354 | pgbench_branches |          9527296

 2017-02-06 14:15:44.517617+01 | 1486386944.51762 | pgbench_accounts |      13894262784
 2017-02-06 14:15:44.517617+01 | 1486386944.51762 | pgbench_tellers  |         16769024
 2017-02-06 14:15:44.517617+01 | 1486386944.51762 | pgbench_history  |         56033280
 2017-02-06 14:15:44.517617+01 | 1486386944.51762 | pgbench_branches |          9527296

 2017-02-06 14:15:45.589809+01 | 1486386945.58981 | pgbench_accounts |      13894270976
 2017-02-06 14:15:45.589809+01 | 1486386945.58981 | pgbench_tellers  |         16769024
 2017-02-06 14:15:45.589809+01 | 1486386945.58981 | pgbench_history  |         56606720
 2017-02-06 14:15:45.589809+01 | 1486386945.58981 | pgbench_branches |          9527296

 2017-02-06 14:15:46.671323+01 | 1486386946.67132 | pgbench_accounts |      13894270976
 2017-02-06 14:15:46.671323+01 | 1486386946.67132 | pgbench_tellers  |         16769024
 2017-02-06 14:15:46.671323+01 | 1486386946.67132 | pgbench_history  |         57147392
 2017-02-06 14:15:46.671323+01 | 1486386946.67132 | pgbench_branches |          9527296

 2017-02-06 14:15:47.753802+01 | 1486386947.7538 | pgbench_accounts |      13894270976
 2017-02-06 14:15:47.753802+01 | 1486386947.7538 | pgbench_tellers  |         16769024
 2017-02-06 14:15:47.753802+01 | 1486386947.7538 | pgbench_history  |         57974784
 2017-02-06 14:15:47.753802+01 | 1486386947.7538 | pgbench_branches |          9527296

 2017-02-06 14:15:48.824431+01 | 1486386948.82443 | pgbench_accounts |      13894270976
 2017-02-06 14:15:48.824431+01 | 1486386948.82443 | pgbench_tellers  |         16769024
 2017-02-06 14:15:48.824431+01 | 1486386948.82443 | pgbench_history  |         58359808
 2017-02-06 14:15:48.824431+01 | 1486386948.82443 | pgbench_branches |          9527296

 2017-02-06 14:15:49.890147+01 | 1486386949.89015 | pgbench_accounts |      13894279168
 2017-02-06 14:15:49.890147+01 | 1486386949.89015 | pgbench_tellers  |         16769024
 2017-02-06 14:15:49.890147+01 | 1486386949.89015 | pgbench_history  |         58933248
 2017-02-06 14:15:49.890147+01 | 1486386949.89015 | pgbench_branches |          9527296

 2017-02-06 14:15:50.965527+01 | 1486386950.96553 | pgbench_accounts |      13894287360
 2017-02-06 14:15:50.965527+01 | 1486386950.96553 | pgbench_tellers  |         16769024
 2017-02-06 14:15:50.965527+01 | 1486386950.96553 | pgbench_history  |         59473920
 2017-02-06 14:15:50.965527+01 | 1486386950.96553 | pgbench_branches |          9527296

 2017-02-06 14:15:52.052853+01 | 1486386952.05285 | pgbench_accounts |      13894295552
 2017-02-06 14:15:52.052853+01 | 1486386952.05285 | pgbench_tellers  |         16769024
 2017-02-06 14:15:52.052853+01 | 1486386952.05285 | pgbench_history  |         60178432
 2017-02-06 14:15:52.052853+01 | 1486386952.05285 | pgbench_branches |          9527296

 2017-02-06 14:15:53.131815+01 | 1486386953.13181 | pgbench_accounts |      13894295552
 2017-02-06 14:15:53.131815+01 | 1486386953.13181 | pgbench_tellers  |         16769024
 2017-02-06 14:15:53.131815+01 | 1486386953.13181 | pgbench_history  |         60563456
 2017-02-06 14:15:53.131815+01 | 1486386953.13181 | pgbench_branches |          9527296

 2017-02-06 14:15:54.199468+01 | 1486386954.19947 | pgbench_accounts |      13894295552
 2017-02-06 14:15:54.199468+01 | 1486386954.19947 | pgbench_tellers  |         16769024
 2017-02-06 14:15:54.199468+01 | 1486386954.19947 | pgbench_history  |         60964864
 2017-02-06 14:15:54.199468+01 | 1486386954.19947 | pgbench_branches |          9527296

 2017-02-06 14:15:55.288446+01 | 1486386955.28845 | pgbench_accounts |      13894295552
 2017-02-06 14:15:55.288446+01 | 1486386955.28845 | pgbench_tellers  |         16769024
 2017-02-06 14:15:55.288446+01 | 1486386955.28845 | pgbench_history  |         61538304
 2017-02-06 14:15:55.288446+01 | 1486386955.28845 | pgbench_branches |          9527296

 2017-02-06 14:15:56.36912+01 | 1486386956.36912 | pgbench_accounts |      13894295552
 2017-02-06 14:15:56.36912+01 | 1486386956.36912 | pgbench_tellers  |         16769024
 2017-02-06 14:15:56.36912+01 | 1486386956.36912 | pgbench_history  |         62259200
 2017-02-06 14:15:56.36912+01 | 1486386956.36912 | pgbench_branches |          9527296

 2017-02-06 14:15:57.456042+01 | 1486386957.45604 | pgbench_accounts |      13894303744
 2017-02-06 14:15:57.456042+01 | 1486386957.45604 | pgbench_tellers  |         16769024
 2017-02-06 14:15:57.456042+01 | 1486386957.45604 | pgbench_history  |         62857216
 2017-02-06 14:15:57.456042+01 | 1486386957.45604 | pgbench_branches |          9527296

 2017-02-06 14:15:58.541898+01 | 1486386958.5419 | pgbench_accounts |      13894303744
 2017-02-06 14:15:58.541898+01 | 1486386958.5419 | pgbench_tellers  |         16769024
 2017-02-06 14:15:58.541898+01 | 1486386958.5419 | pgbench_history  |         63766528
 2017-02-06 14:15:58.541898+01 | 1486386958.5419 | pgbench_branches |          9527296

 2017-02-06 14:15:59.626544+01 | 1486386959.62654 | pgbench_accounts |      13894311936
 2017-02-06 14:15:59.626544+01 | 1486386959.62654 | pgbench_tellers  |         16769024
 2017-02-06 14:15:59.626544+01 | 1486386959.62654 | pgbench_history  |         63971328
 2017-02-06 14:15:59.626544+01 | 1486386959.62654 | pgbench_branches |          9527296

 2017-02-06 14:16:00.697739+01 | 1486386960.69774 | pgbench_accounts |      13894311936
 2017-02-06 14:16:00.697739+01 | 1486386960.69774 | pgbench_tellers  |         16769024
 2017-02-06 14:16:00.697739+01 | 1486386960.69774 | pgbench_history  |         64307200
 2017-02-06 14:16:00.697739+01 | 1486386960.69774 | pgbench_branches |          9527296

 2017-02-06 14:16:01.776537+01 | 1486386961.77654 | pgbench_accounts |      13894311936
 2017-02-06 14:16:01.776537+01 | 1486386961.77654 | pgbench_tellers  |         16769024
 2017-02-06 14:16:01.776537+01 | 1486386961.77654 | pgbench_history  |         64905216
 2017-02-06 14:16:01.776537+01 | 1486386961.77654 | pgbench_branches |          9527296

 2017-02-06 14:16:02.859263+01 | 1486386962.85926 | pgbench_accounts |      13894311936
 2017-02-06 14:16:02.859263+01 | 1486386962.85926 | pgbench_tellers  |         16769024
 2017-02-06 14:16:02.859263+01 | 1486386962.85926 | pgbench_history  |         65421312
 2017-02-06 14:16:02.859263+01 | 1486386962.85926 | pgbench_branches |          9527296

 2017-02-06 14:16:03.944448+01 | 1486386963.94445 | pgbench_accounts |      13894320128
 2017-02-06 14:16:03.944448+01 | 1486386963.94445 | pgbench_tellers  |         16769024
 2017-02-06 14:16:03.944448+01 | 1486386963.94445 | pgbench_history  |         65953792
 2017-02-06 14:16:03.944448+01 | 1486386963.94445 | pgbench_branches |          9527296

 2017-02-06 14:16:05.029488+01 | 1486386965.02949 | pgbench_accounts |      13894320128
 2017-02-06 14:16:05.029488+01 | 1486386965.02949 | pgbench_tellers  |         16769024
 2017-02-06 14:16:05.029488+01 | 1486386965.02949 | pgbench_history  |         66535424
 2017-02-06 14:16:05.029488+01 | 1486386965.02949 | pgbench_branches |          9527296

 2017-02-06 14:16:06.108967+01 | 1486386966.10897 | pgbench_accounts |      13894320128
 2017-02-06 14:16:06.108967+01 | 1486386966.10897 | pgbench_tellers  |         16769024
 2017-02-06 14:16:06.108967+01 | 1486386966.10897 | pgbench_history  |         67174400
 2017-02-06 14:16:06.108967+01 | 1486386966.10897 | pgbench_branches |          9527296

 2017-02-06 14:16:07.197895+01 | 1486386967.1979 | pgbench_accounts |      13894320128
 2017-02-06 14:16:07.197895+01 | 1486386967.1979 | pgbench_tellers  |         16769024
 2017-02-06 14:16:07.197895+01 | 1486386967.1979 | pgbench_history  |         67731456
 2017-02-06 14:16:07.197895+01 | 1486386967.1979 | pgbench_branches |          9527296

 2017-02-06 14:16:08.273905+01 | 1486386968.27391 | pgbench_accounts |      13894320128
 2017-02-06 14:16:08.273905+01 | 1486386968.27391 | pgbench_tellers  |         16769024
 2017-02-06 14:16:08.273905+01 | 1486386968.27391 | pgbench_history  |         68132864
 2017-02-06 14:16:08.273905+01 | 1486386968.27391 | pgbench_branches |          9527296

 2017-02-06 14:16:09.359646+01 | 1486386969.35965 | pgbench_accounts |      13894320128
 2017-02-06 14:16:09.359646+01 | 1486386969.35965 | pgbench_tellers  |         16769024
 2017-02-06 14:16:09.359646+01 | 1486386969.35965 | pgbench_history  |         68689920
 2017-02-06 14:16:09.359646+01 | 1486386969.35965 | pgbench_branches |          9527296

 2017-02-06 14:16:10.450898+01 | 1486386970.4509 | pgbench_accounts |      13894320128
 2017-02-06 14:16:10.450898+01 | 1486386970.4509 | pgbench_tellers  |         16769024
 2017-02-06 14:16:10.450898+01 | 1486386970.4509 | pgbench_history  |         69435392
 2017-02-06 14:16:10.450898+01 | 1486386970.4509 | pgbench_branches |          9527296

 2017-02-06 14:16:11.538252+01 | 1486386971.53825 | pgbench_accounts |      13894320128
 2017-02-06 14:16:11.538252+01 | 1486386971.53825 | pgbench_tellers  |         16769024
 2017-02-06 14:16:11.538252+01 | 1486386971.53825 | pgbench_history  |         69828608
 2017-02-06 14:16:11.538252+01 | 1486386971.53825 | pgbench_branches |          9527296

 2017-02-06 14:16:12.632518+01 | 1486386972.63252 | pgbench_accounts |      13894320128
 2017-02-06 14:16:12.632518+01 | 1486386972.63252 | pgbench_tellers  |         16769024
 2017-02-06 14:16:12.632518+01 | 1486386972.63252 | pgbench_history  |         70287360
 2017-02-06 14:16:12.632518+01 | 1486386972.63252 | pgbench_branches |          9527296

 2017-02-06 14:16:13.716593+01 | 1486386973.71659 | pgbench_accounts |      13894320128
 2017-02-06 14:16:13.716593+01 | 1486386973.71659 | pgbench_tellers  |         16769024
 2017-02-06 14:16:13.716593+01 | 1486386973.71659 | pgbench_history  |         70959104
 2017-02-06 14:16:13.716593+01 | 1486386973.71659 | pgbench_branches |          9527296

 2017-02-06 14:16:14.802204+01 | 1486386974.8022 | pgbench_accounts |      13894320128
 2017-02-06 14:16:14.802204+01 | 1486386974.8022 | pgbench_tellers  |         16769024
 2017-02-06 14:16:14.802204+01 | 1486386974.8022 | pgbench_history  |         71311360
 2017-02-06 14:16:14.802204+01 | 1486386974.8022 | pgbench_branches |          9527296

 2017-02-06 14:16:15.874232+01 | 1486386975.87423 | pgbench_accounts |      13894320128
 2017-02-06 14:16:15.874232+01 | 1486386975.87423 | pgbench_tellers  |         16769024
 2017-02-06 14:16:15.874232+01 | 1486386975.87423 | pgbench_history  |         71876608
 2017-02-06 14:16:15.874232+01 | 1486386975.87423 | pgbench_branches |          9527296

 2017-02-06 14:16:16.962517+01 | 1486386976.96252 | pgbench_accounts |      13894320128
 2017-02-06 14:16:16.962517+01 | 1486386976.96252 | pgbench_tellers  |         16769024
 2017-02-06 14:16:16.962517+01 | 1486386976.96252 | pgbench_history  |         72417280
 2017-02-06 14:16:16.962517+01 | 1486386976.96252 | pgbench_branches |          9527296

 2017-02-06 14:16:18.042786+01 | 1486386978.04279 | pgbench_accounts |      13894320128
 2017-02-06 14:16:18.042786+01 | 1486386978.04279 | pgbench_tellers  |         16769024
 2017-02-06 14:16:18.042786+01 | 1486386978.04279 | pgbench_history  |         73064448
 2017-02-06 14:16:18.042786+01 | 1486386978.04279 | pgbench_branches |          9527296

 2017-02-06 14:16:19.113331+01 | 1486386979.11333 | pgbench_accounts |      13894320128
 2017-02-06 14:16:19.113331+01 | 1486386979.11333 | pgbench_tellers  |         16769024
 2017-02-06 14:16:19.113331+01 | 1486386979.11333 | pgbench_history  |         73809920
 2017-02-06 14:16:19.113331+01 | 1486386979.11333 | pgbench_branches |          9527296

 2017-02-06 14:16:20.190213+01 | 1486386980.19021 | pgbench_accounts |      13894320128
 2017-02-06 14:16:20.190213+01 | 1486386980.19021 | pgbench_tellers  |         16769024
 2017-02-06 14:16:20.190213+01 | 1486386980.19021 | pgbench_history  |         73998336
 2017-02-06 14:16:20.190213+01 | 1486386980.19021 | pgbench_branches |          9527296

 2017-02-06 14:16:21.273779+01 | 1486386981.27378 | pgbench_accounts |      13894320128
 2017-02-06 14:16:21.273779+01 | 1486386981.27378 | pgbench_tellers  |         16769024
 2017-02-06 14:16:21.273779+01 | 1486386981.27378 | pgbench_history  |         74465280
 2017-02-06 14:16:21.273779+01 | 1486386981.27378 | pgbench_branches |          9527296

 2017-02-06 14:16:22.352238+01 | 1486386982.35224 | pgbench_accounts |      13894320128
 2017-02-06 14:16:22.352238+01 | 1486386982.35224 | pgbench_tellers  |         16769024
 2017-02-06 14:16:22.352238+01 | 1486386982.35224 | pgbench_history  |         74948608
 2017-02-06 14:16:22.352238+01 | 1486386982.35224 | pgbench_branches |          9527296

 2017-02-06 14:16:23.443695+01 | 1486386983.4437 | pgbench_accounts |      13894320128
 2017-02-06 14:16:23.443695+01 | 1486386983.4437 | pgbench_tellers  |         16769024
 2017-02-06 14:16:23.443695+01 | 1486386983.4437 | pgbench_history  |         75948032
 2017-02-06 14:16:23.443695+01 | 1486386983.4437 | pgbench_branches |          9527296

 2017-02-06 14:16:24.533191+01 | 1486386984.53319 | pgbench_accounts |      13894320128
 2017-02-06 14:16:24.533191+01 | 1486386984.53319 | pgbench_tellers  |         16769024
 2017-02-06 14:16:24.533191+01 | 1486386984.53319 | pgbench_history  |         75948032
 2017-02-06 14:16:24.533191+01 | 1486386984.53319 | pgbench_branches |          9527296

 2017-02-06 14:16:25.61494+01 | 1486386985.61494 | pgbench_accounts |      13894320128
 2017-02-06 14:16:25.61494+01 | 1486386985.61494 | pgbench_tellers  |         16769024
 2017-02-06 14:16:25.61494+01 | 1486386985.61494 | pgbench_history  |         76513280
 2017-02-06 14:16:25.61494+01 | 1486386985.61494 | pgbench_branches |          9527296

 2017-02-06 14:16:26.689648+01 | 1486386986.68965 | pgbench_accounts |      13894320128
 2017-02-06 14:16:26.689648+01 | 1486386986.68965 | pgbench_tellers  |         16769024
 2017-02-06 14:16:26.689648+01 | 1486386986.68965 | pgbench_history  |         77152256
 2017-02-06 14:16:26.689648+01 | 1486386986.68965 | pgbench_branches |          9527296

 2017-02-06 14:16:27.776787+01 | 1486386987.77679 | pgbench_accounts |      13894320128
 2017-02-06 14:16:27.776787+01 | 1486386987.77679 | pgbench_tellers  |         16769024
 2017-02-06 14:16:27.776787+01 | 1486386987.77679 | pgbench_history  |         77594624
 2017-02-06 14:16:27.776787+01 | 1486386987.77679 | pgbench_branches |          9527296

 2017-02-06 14:16:28.856976+01 | 1486386988.85698 | pgbench_accounts |      13894320128
 2017-02-06 14:16:28.856976+01 | 1486386988.85698 | pgbench_tellers  |         16769024
 2017-02-06 14:16:28.856976+01 | 1486386988.85698 | pgbench_history  |         78151680
 2017-02-06 14:16:28.856976+01 | 1486386988.85698 | pgbench_branches |          9527296

 2017-02-06 14:16:29.932085+01 | 1486386989.93209 | pgbench_accounts |      13894320128
 2017-02-06 14:16:29.932085+01 | 1486386989.93209 | pgbench_tellers  |         16769024
 2017-02-06 14:16:29.932085+01 | 1486386989.93209 | pgbench_history  |         78905344
 2017-02-06 14:16:29.932085+01 | 1486386989.93209 | pgbench_branches |          9527296

 2017-02-06 14:16:31.007454+01 | 1486386991.00745 | pgbench_accounts |      13894320128
 2017-02-06 14:16:31.007454+01 | 1486386991.00745 | pgbench_tellers  |         16769024
 2017-02-06 14:16:31.007454+01 | 1486386991.00745 | pgbench_history  |         79470592
 2017-02-06 14:16:31.007454+01 | 1486386991.00745 | pgbench_branches |          9527296

 2017-02-06 14:16:32.092619+01 | 1486386992.09262 | pgbench_accounts |      13894320128
 2017-02-06 14:16:32.092619+01 | 1486386992.09262 | pgbench_tellers  |         16769024
 2017-02-06 14:16:32.092619+01 | 1486386992.09262 | pgbench_history  |         79740928
 2017-02-06 14:16:32.092619+01 | 1486386992.09262 | pgbench_branches |          9527296

 2017-02-06 14:16:33.177611+01 | 1486386993.17761 | pgbench_accounts |      13894320128
 2017-02-06 14:16:33.177611+01 | 1486386993.17761 | pgbench_tellers  |         16769024
 2017-02-06 14:16:33.177611+01 | 1486386993.17761 | pgbench_history  |         80306176
 2017-02-06 14:16:33.177611+01 | 1486386993.17761 | pgbench_branches |          9527296

 2017-02-06 14:16:34.255116+01 | 1486386994.25512 | pgbench_accounts |      13894320128
 2017-02-06 14:16:34.255116+01 | 1486386994.25512 | pgbench_tellers  |         16769024
 2017-02-06 14:16:34.255116+01 | 1486386994.25512 | pgbench_history  |         80863232
 2017-02-06 14:16:34.255116+01 | 1486386994.25512 | pgbench_branches |          9527296

 2017-02-06 14:16:35.341026+01 | 1486386995.34103 | pgbench_accounts |      13894320128
 2017-02-06 14:16:35.341026+01 | 1486386995.34103 | pgbench_tellers  |         16769024
 2017-02-06 14:16:35.341026+01 | 1486386995.34103 | pgbench_history  |         81494016
 2017-02-06 14:16:35.341026+01 | 1486386995.34103 | pgbench_branches |          9527296

 2017-02-06 14:16:36.416926+01 | 1486386996.41693 | pgbench_accounts |      13894320128
 2017-02-06 14:16:36.416926+01 | 1486386996.41693 | pgbench_tellers  |         16769024
 2017-02-06 14:16:36.416926+01 | 1486386996.41693 | pgbench_history  |         82075648
 2017-02-06 14:16:36.416926+01 | 1486386996.41693 | pgbench_branches |          9527296

 2017-02-06 14:16:37.494725+01 | 1486386997.49472 | pgbench_accounts |      13894320128
 2017-02-06 14:16:37.494725+01 | 1486386997.49472 | pgbench_tellers  |         16769024
 2017-02-06 14:16:37.494725+01 | 1486386997.49472 | pgbench_history  |         82518016
 2017-02-06 14:16:37.494725+01 | 1486386997.49472 | pgbench_branches |          9527296

 2017-02-06 14:16:38.586673+01 | 1486386998.58667 | pgbench_accounts |      13894320128
 2017-02-06 14:16:38.586673+01 | 1486386998.58667 | pgbench_tellers  |         16769024
 2017-02-06 14:16:38.586673+01 | 1486386998.58667 | pgbench_history  |         82984960
 2017-02-06 14:16:38.586673+01 | 1486386998.58667 | pgbench_branches |          9527296

 2017-02-06 14:16:39.666387+01 | 1486386999.66639 | pgbench_accounts |      13894320128
 2017-02-06 14:16:39.666387+01 | 1486386999.66639 | pgbench_tellers  |         16769024
 2017-02-06 14:16:39.666387+01 | 1486386999.66639 | pgbench_history  |         83501056
 2017-02-06 14:16:39.666387+01 | 1486386999.66639 | pgbench_branches |          9527296

 2017-02-06 14:16:40.752223+01 | 1486387000.75222 | pgbench_accounts |      13894320128
 2017-02-06 14:16:40.752223+01 | 1486387000.75222 | pgbench_tellers  |         16769024
 2017-02-06 14:16:40.752223+01 | 1486387000.75222 | pgbench_history  |         83968000
 2017-02-06 14:16:40.752223+01 | 1486387000.75222 | pgbench_branches |          9527296

 2017-02-06 14:16:41.827323+01 | 1486387001.82732 | pgbench_accounts |      13894320128
 2017-02-06 14:16:41.827323+01 | 1486387001.82732 | pgbench_tellers  |         16769024
 2017-02-06 14:16:41.827323+01 | 1486387001.82732 | pgbench_history  |         84484096
 2017-02-06 14:16:41.827323+01 | 1486387001.82732 | pgbench_branches |          9527296

 2017-02-06 14:16:42.908439+01 | 1486387002.90844 | pgbench_accounts |      13894320128
 2017-02-06 14:16:42.908439+01 | 1486387002.90844 | pgbench_tellers  |         16769024
 2017-02-06 14:16:42.908439+01 | 1486387002.90844 | pgbench_history  |         85065728
 2017-02-06 14:16:42.908439+01 | 1486387002.90844 | pgbench_branches |          9527296

 2017-02-06 14:16:43.997912+01 | 1486387003.99791 | pgbench_accounts |      13894320128
 2017-02-06 14:16:43.997912+01 | 1486387003.99791 | pgbench_tellers  |         16769024
 2017-02-06 14:16:43.997912+01 | 1486387003.99791 | pgbench_history  |         85663744
 2017-02-06 14:16:43.997912+01 | 1486387003.99791 | pgbench_branches |          9527296

 2017-02-06 14:16:45.083849+01 | 1486387005.08385 | pgbench_accounts |      13894320128
 2017-02-06 14:16:45.083849+01 | 1486387005.08385 | pgbench_tellers  |         16769024
 2017-02-06 14:16:45.083849+01 | 1486387005.08385 | pgbench_history  |         86179840
 2017-02-06 14:16:45.083849+01 | 1486387005.08385 | pgbench_branches |          9527296

 2017-02-06 14:16:46.16531+01 | 1486387006.16531 | pgbench_accounts |      13894320128
 2017-02-06 14:16:46.16531+01 | 1486387006.16531 | pgbench_tellers  |         16769024
 2017-02-06 14:16:46.16531+01 | 1486387006.16531 | pgbench_history  |         86753280
 2017-02-06 14:16:46.16531+01 | 1486387006.16531 | pgbench_branches |          9527296

 2017-02-06 14:16:47.245673+01 | 1486387007.24567 | pgbench_accounts |      13894320128
 2017-02-06 14:16:47.245673+01 | 1486387007.24567 | pgbench_tellers  |         16769024
 2017-02-06 14:16:47.245673+01 | 1486387007.24567 | pgbench_history  |         87318528
 2017-02-06 14:16:47.245673+01 | 1486387007.24567 | pgbench_branches |          9527296

 2017-02-06 14:16:48.318025+01 | 1486387008.31803 | pgbench_accounts |      13894320128
 2017-02-06 14:16:48.318025+01 | 1486387008.31803 | pgbench_tellers  |         16769024
 2017-02-06 14:16:48.318025+01 | 1486387008.31803 | pgbench_history  |         87908352
 2017-02-06 14:16:48.318025+01 | 1486387008.31803 | pgbench_branches |          9527296

 2017-02-06 14:16:49.387418+01 | 1486387009.38742 | pgbench_accounts |      13894320128
 2017-02-06 14:16:49.387418+01 | 1486387009.38742 | pgbench_tellers  |         16769024
 2017-02-06 14:16:49.387418+01 | 1486387009.38742 | pgbench_history  |         88465408
 2017-02-06 14:16:49.387418+01 | 1486387009.38742 | pgbench_branches |          9527296

 2017-02-06 14:16:50.468724+01 | 1486387010.46872 | pgbench_accounts |      13894320128
 2017-02-06 14:16:50.468724+01 | 1486387010.46872 | pgbench_tellers  |         16769024
 2017-02-06 14:16:50.468724+01 | 1486387010.46872 | pgbench_history  |         88866816
 2017-02-06 14:16:50.468724+01 | 1486387010.46872 | pgbench_branches |          9527296

 2017-02-06 14:16:51.544998+01 | 1486387011.545 | pgbench_accounts |      13894320128
 2017-02-06 14:16:51.544998+01 | 1486387011.545 | pgbench_tellers  |         16769024
 2017-02-06 14:16:51.544998+01 | 1486387011.545 | pgbench_history  |         89432064
 2017-02-06 14:16:51.544998+01 | 1486387011.545 | pgbench_branches |          9527296

 2017-02-06 14:16:52.616747+01 | 1486387012.61675 | pgbench_accounts |      13894320128
 2017-02-06 14:16:52.616747+01 | 1486387012.61675 | pgbench_tellers  |         16769024
 2017-02-06 14:16:52.616747+01 | 1486387012.61675 | pgbench_history  |         90030080
 2017-02-06 14:16:52.616747+01 | 1486387012.61675 | pgbench_branches |          9527296

 2017-02-06 14:16:53.697297+01 | 1486387013.6973 | pgbench_accounts |      13894320128
 2017-02-06 14:16:53.697297+01 | 1486387013.6973 | pgbench_tellers  |         16769024
 2017-02-06 14:16:53.697297+01 | 1486387013.6973 | pgbench_history  |         90415104
 2017-02-06 14:16:53.697297+01 | 1486387013.6973 | pgbench_branches |          9527296

 2017-02-06 14:16:54.776082+01 | 1486387014.77608 | pgbench_accounts |      13894320128
 2017-02-06 14:16:54.776082+01 | 1486387014.77608 | pgbench_tellers  |         16769024
 2017-02-06 14:16:54.776082+01 | 1486387014.77608 | pgbench_history  |         91136000
 2017-02-06 14:16:54.776082+01 | 1486387014.77608 | pgbench_branches |          9527296

 2017-02-06 14:16:55.864309+01 | 1486387015.86431 | pgbench_accounts |      13894320128
 2017-02-06 14:16:55.864309+01 | 1486387015.86431 | pgbench_tellers  |         16769024
 2017-02-06 14:16:55.864309+01 | 1486387015.86431 | pgbench_history  |         91553792
 2017-02-06 14:16:55.864309+01 | 1486387015.86431 | pgbench_branches |          9527296

 2017-02-06 14:16:56.94694+01 | 1486387016.94694 | pgbench_accounts |      13894320128
 2017-02-06 14:16:56.94694+01 | 1486387016.94694 | pgbench_tellers  |         16769024
 2017-02-06 14:16:56.94694+01 | 1486387016.94694 | pgbench_history  |         92479488
 2017-02-06 14:16:56.94694+01 | 1486387016.94694 | pgbench_branches |          9527296

 2017-02-06 14:16:58.017113+01 | 1486387018.01711 | pgbench_accounts |      13894320128
 2017-02-06 14:16:58.017113+01 | 1486387018.01711 | pgbench_tellers  |         16769024
 2017-02-06 14:16:58.017113+01 | 1486387018.01711 | pgbench_history  |         92692480
 2017-02-06 14:16:58.017113+01 | 1486387018.01711 | pgbench_branches |          9527296

 2017-02-06 14:16:59.089718+01 | 1486387019.08972 | pgbench_accounts |      13894320128
 2017-02-06 14:16:59.089718+01 | 1486387019.08972 | pgbench_tellers  |         16769024
 2017-02-06 14:16:59.089718+01 | 1486387019.08972 | pgbench_history  |         93110272
 2017-02-06 14:16:59.089718+01 | 1486387019.08972 | pgbench_branches |          9527296

 2017-02-06 14:17:00.156597+01 | 1486387020.1566 | pgbench_accounts |      13894320128
 2017-02-06 14:17:00.156597+01 | 1486387020.1566 | pgbench_tellers  |         16769024
 2017-02-06 14:17:00.156597+01 | 1486387020.1566 | pgbench_history  |         93650944
 2017-02-06 14:17:00.156597+01 | 1486387020.1566 | pgbench_branches |          9527296

 2017-02-06 14:17:01.226083+01 | 1486387021.22608 | pgbench_accounts |      13894320128
 2017-02-06 14:17:01.226083+01 | 1486387021.22608 | pgbench_tellers  |         16769024
 2017-02-06 14:17:01.226083+01 | 1486387021.22608 | pgbench_history  |         94240768
 2017-02-06 14:17:01.226083+01 | 1486387021.22608 | pgbench_branches |          9527296

 2017-02-06 14:17:02.299392+01 | 1486387022.29939 | pgbench_accounts |      13894320128
 2017-02-06 14:17:02.299392+01 | 1486387022.29939 | pgbench_tellers  |         16769024
 2017-02-06 14:17:02.299392+01 | 1486387022.29939 | pgbench_history  |         95281152
 2017-02-06 14:17:02.299392+01 | 1486387022.29939 | pgbench_branches |          9527296

 2017-02-06 14:17:03.373404+01 | 1486387023.3734 | pgbench_accounts |      13894320128
 2017-02-06 14:17:03.373404+01 | 1486387023.3734 | pgbench_tellers  |         16769024
 2017-02-06 14:17:03.373404+01 | 1486387023.3734 | pgbench_history  |         95281152
 2017-02-06 14:17:03.373404+01 | 1486387023.3734 | pgbench_branches |          9527296

 2017-02-06 14:17:04.445973+01 | 1486387024.44597 | pgbench_accounts |      13894320128
 2017-02-06 14:17:04.445973+01 | 1486387024.44597 | pgbench_tellers  |         16769024
 2017-02-06 14:17:04.445973+01 | 1486387024.44597 | pgbench_history  |         95805440
 2017-02-06 14:17:04.445973+01 | 1486387024.44597 | pgbench_branches |          9527296

 2017-02-06 14:17:05.520343+01 | 1486387025.52034 | pgbench_accounts |      13894320128
 2017-02-06 14:17:05.520343+01 | 1486387025.52034 | pgbench_tellers  |         16769024
 2017-02-06 14:17:05.520343+01 | 1486387025.52034 | pgbench_history  |         96395264
 2017-02-06 14:17:05.520343+01 | 1486387025.52034 | pgbench_branches |          9527296

 2017-02-06 14:17:06.588616+01 | 1486387026.58862 | pgbench_accounts |      13894320128
 2017-02-06 14:17:06.588616+01 | 1486387026.58862 | pgbench_tellers  |         16769024
 2017-02-06 14:17:06.588616+01 | 1486387026.58862 | pgbench_history  |         97017856
 2017-02-06 14:17:06.588616+01 | 1486387026.58862 | pgbench_branches |          9527296

 2017-02-06 14:17:07.674648+01 | 1486387027.67465 | pgbench_accounts |      13894320128
 2017-02-06 14:17:07.674648+01 | 1486387027.67465 | pgbench_tellers  |         16769024
 2017-02-06 14:17:07.674648+01 | 1486387027.67465 | pgbench_history  |         97378304
 2017-02-06 14:17:07.674648+01 | 1486387027.67465 | pgbench_branches |          9527296

 2017-02-06 14:17:08.749882+01 | 1486387028.74988 | pgbench_accounts |      13894320128
 2017-02-06 14:17:08.749882+01 | 1486387028.74988 | pgbench_tellers  |         16769024
 2017-02-06 14:17:08.749882+01 | 1486387028.74988 | pgbench_history  |         98271232
 2017-02-06 14:17:08.749882+01 | 1486387028.74988 | pgbench_branches |          9527296

 2017-02-06 14:17:09.822706+01 | 1486387029.82271 | pgbench_accounts |      13894320128
 2017-02-06 14:17:09.822706+01 | 1486387029.82271 | pgbench_tellers  |         16769024
 2017-02-06 14:17:09.822706+01 | 1486387029.82271 | pgbench_history  |         98648064
 2017-02-06 14:17:09.822706+01 | 1486387029.82271 | pgbench_branches |          9527296

 2017-02-06 14:17:10.906814+01 | 1486387030.90681 | pgbench_accounts |      13894320128
 2017-02-06 14:17:10.906814+01 | 1486387030.90681 | pgbench_tellers  |         16769024
 2017-02-06 14:17:10.906814+01 | 1486387030.90681 | pgbench_history  |         99041280
 2017-02-06 14:17:10.906814+01 | 1486387030.90681 | pgbench_branches |          9527296

 2017-02-06 14:17:11.983703+01 | 1486387031.9837 | pgbench_accounts |      13894320128
 2017-02-06 14:17:11.983703+01 | 1486387031.9837 | pgbench_tellers  |         16769024
 2017-02-06 14:17:11.983703+01 | 1486387031.9837 | pgbench_history  |         99557376
 2017-02-06 14:17:11.983703+01 | 1486387031.9837 | pgbench_branches |          9527296

 2017-02-06 14:17:13.065487+01 | 1486387033.06549 | pgbench_accounts |      13894320128
 2017-02-06 14:17:13.065487+01 | 1486387033.06549 | pgbench_tellers  |         16769024
 2017-02-06 14:17:13.065487+01 | 1486387033.06549 | pgbench_history  |         99926016
 2017-02-06 14:17:13.065487+01 | 1486387033.06549 | pgbench_branches |          9527296

 2017-02-06 14:17:14.141558+01 | 1486387034.14156 | pgbench_accounts |      13894320128
 2017-02-06 14:17:14.141558+01 | 1486387034.14156 | pgbench_tellers  |         16769024
 2017-02-06 14:17:14.141558+01 | 1486387034.14156 | pgbench_history  |        100507648
 2017-02-06 14:17:14.141558+01 | 1486387034.14156 | pgbench_branches |          9527296

 2017-02-06 14:17:15.217798+01 | 1486387035.2178 | pgbench_accounts |      13894320128
 2017-02-06 14:17:15.217798+01 | 1486387035.2178 | pgbench_tellers  |         16769024
 2017-02-06 14:17:15.217798+01 | 1486387035.2178 | pgbench_history  |        101277696
 2017-02-06 14:17:15.217798+01 | 1486387035.2178 | pgbench_branches |          9527296

 2017-02-06 14:17:16.291334+01 | 1486387036.29133 | pgbench_accounts |      13894320128
 2017-02-06 14:17:16.291334+01 | 1486387036.29133 | pgbench_tellers  |         16769024
 2017-02-06 14:17:16.291334+01 | 1486387036.29133 | pgbench_history  |        101670912
 2017-02-06 14:17:16.291334+01 | 1486387036.29133 | pgbench_branches |          9527296

 2017-02-06 14:17:17.376837+01 | 1486387037.37684 | pgbench_accounts |      13894320128
 2017-02-06 14:17:17.376837+01 | 1486387037.37684 | pgbench_tellers  |         16769024
 2017-02-06 14:17:17.376837+01 | 1486387037.37684 | pgbench_history  |        102096896
 2017-02-06 14:17:17.376837+01 | 1486387037.37684 | pgbench_branches |          9527296

 2017-02-06 14:17:18.463495+01 | 1486387038.4635 | pgbench_accounts |      13894320128
 2017-02-06 14:17:18.463495+01 | 1486387038.4635 | pgbench_tellers  |         16769024
 2017-02-06 14:17:18.463495+01 | 1486387038.4635 | pgbench_history  |        102686720
 2017-02-06 14:17:18.463495+01 | 1486387038.4635 | pgbench_branches |          9527296

 2017-02-06 14:17:19.534632+01 | 1486387039.53463 | pgbench_accounts |      13894320128
 2017-02-06 14:17:19.534632+01 | 1486387039.53463 | pgbench_tellers  |         16769024
 2017-02-06 14:17:19.534632+01 | 1486387039.53463 | pgbench_history  |        103211008
 2017-02-06 14:17:19.534632+01 | 1486387039.53463 | pgbench_branches |          9527296

 2017-02-06 14:17:20.621621+01 | 1486387040.62162 | pgbench_accounts |      13894320128
 2017-02-06 14:17:20.621621+01 | 1486387040.62162 | pgbench_tellers  |         16769024
 2017-02-06 14:17:20.621621+01 | 1486387040.62162 | pgbench_history  |        103792640
 2017-02-06 14:17:20.621621+01 | 1486387040.62162 | pgbench_branches |          9527296

 2017-02-06 14:17:21.690788+01 | 1486387041.69079 | pgbench_accounts |      13894320128
 2017-02-06 14:17:21.690788+01 | 1486387041.69079 | pgbench_tellers  |         16769024
 2017-02-06 14:17:21.690788+01 | 1486387041.69079 | pgbench_history  |        104308736
 2017-02-06 14:17:21.690788+01 | 1486387041.69079 | pgbench_branches |          9527296

 2017-02-06 14:17:22.763978+01 | 1486387042.76398 | pgbench_accounts |      13894320128
 2017-02-06 14:17:22.763978+01 | 1486387042.76398 | pgbench_tellers  |         16769024
 2017-02-06 14:17:22.763978+01 | 1486387042.76398 | pgbench_history  |        104816640
 2017-02-06 14:17:22.763978+01 | 1486387042.76398 | pgbench_branches |          9527296

 2017-02-06 14:17:23.831425+01 | 1486387043.83142 | pgbench_accounts |      13894320128
 2017-02-06 14:17:23.831425+01 | 1486387043.83142 | pgbench_tellers  |         16769024
 2017-02-06 14:17:23.831425+01 | 1486387043.83142 | pgbench_history  |        105488384
 2017-02-06 14:17:23.831425+01 | 1486387043.83142 | pgbench_branches |          9527296

 2017-02-06 14:17:24.904137+01 | 1486387044.90414 | pgbench_accounts |      13894320128
 2017-02-06 14:17:24.904137+01 | 1486387044.90414 | pgbench_tellers  |         16769024
 2017-02-06 14:17:24.904137+01 | 1486387044.90414 | pgbench_history  |        105873408
 2017-02-06 14:17:24.904137+01 | 1486387044.90414 | pgbench_branches |          9527296

 2017-02-06 14:17:25.986952+01 | 1486387045.98695 | pgbench_accounts |      13894320128
 2017-02-06 14:17:25.986952+01 | 1486387045.98695 | pgbench_tellers  |         16769024
 2017-02-06 14:17:25.986952+01 | 1486387045.98695 | pgbench_history  |        106708992
 2017-02-06 14:17:25.986952+01 | 1486387045.98695 | pgbench_branches |          9527296

 2017-02-06 14:17:27.0703+01 | 1486387047.0703 | pgbench_accounts |      13894320128
 2017-02-06 14:17:27.0703+01 | 1486387047.0703 | pgbench_tellers  |         16769024
 2017-02-06 14:17:27.0703+01 | 1486387047.0703 | pgbench_history  |        107126784
 2017-02-06 14:17:27.0703+01 | 1486387047.0703 | pgbench_branches |          9527296

 2017-02-06 14:17:28.153577+01 | 1486387048.15358 | pgbench_accounts |      13894320128
 2017-02-06 14:17:28.153577+01 | 1486387048.15358 | pgbench_tellers  |         16769024
 2017-02-06 14:17:28.153577+01 | 1486387048.15358 | pgbench_history  |        107675648
 2017-02-06 14:17:28.153577+01 | 1486387048.15358 | pgbench_branches |          9527296

 2017-02-06 14:17:29.224816+01 | 1486387049.22482 | pgbench_accounts |      13894320128
 2017-02-06 14:17:29.224816+01 | 1486387049.22482 | pgbench_tellers  |         16769024
 2017-02-06 14:17:29.224816+01 | 1486387049.22482 | pgbench_history  |        108003328
 2017-02-06 14:17:29.224816+01 | 1486387049.22482 | pgbench_branches |          9527296

 2017-02-06 14:17:30.307519+01 | 1486387050.30752 | pgbench_accounts |      13894320128
 2017-02-06 14:17:30.307519+01 | 1486387050.30752 | pgbench_tellers  |         16769024
 2017-02-06 14:17:30.307519+01 | 1486387050.30752 | pgbench_history  |        108593152
 2017-02-06 14:17:30.307519+01 | 1486387050.30752 | pgbench_branches |          9527296

 2017-02-06 14:17:31.3794+01 | 1486387051.3794 | pgbench_accounts |      13894320128
 2017-02-06 14:17:31.3794+01 | 1486387051.3794 | pgbench_tellers  |         16769024
 2017-02-06 14:17:31.3794+01 | 1486387051.3794 | pgbench_history  |        109215744
 2017-02-06 14:17:31.3794+01 | 1486387051.3794 | pgbench_branches |          9527296

 2017-02-06 14:17:32.44465+01 | 1486387052.44465 | pgbench_accounts |      13894320128
 2017-02-06 14:17:32.44465+01 | 1486387052.44465 | pgbench_tellers  |         16769024
 2017-02-06 14:17:32.44465+01 | 1486387052.44465 | pgbench_history  |        109797376
 2017-02-06 14:17:32.44465+01 | 1486387052.44465 | pgbench_branches |          9527296

 2017-02-06 14:17:33.520598+01 | 1486387053.5206 | pgbench_accounts |      13894320128
 2017-02-06 14:17:33.520598+01 | 1486387053.5206 | pgbench_tellers  |         16769024
 2017-02-06 14:17:33.520598+01 | 1486387053.5206 | pgbench_history  |        110231552
 2017-02-06 14:17:33.520598+01 | 1486387053.5206 | pgbench_branches |          9527296

 2017-02-06 14:17:34.606369+01 | 1486387054.60637 | pgbench_accounts |      13894320128
 2017-02-06 14:17:34.606369+01 | 1486387054.60637 | pgbench_tellers  |         16769024
 2017-02-06 14:17:34.606369+01 | 1486387054.60637 | pgbench_history  |        110960640
 2017-02-06 14:17:34.606369+01 | 1486387054.60637 | pgbench_branches |          9527296

 2017-02-06 14:17:35.681693+01 | 1486387055.68169 | pgbench_accounts |      13894320128
 2017-02-06 14:17:35.681693+01 | 1486387055.68169 | pgbench_tellers  |         16769024
 2017-02-06 14:17:35.681693+01 | 1486387055.68169 | pgbench_history  |        111312896
 2017-02-06 14:17:35.681693+01 | 1486387055.68169 | pgbench_branches |          9527296

 2017-02-06 14:17:36.755166+01 | 1486387056.75517 | pgbench_accounts |      13894320128
 2017-02-06 14:17:36.755166+01 | 1486387056.75517 | pgbench_tellers  |         16769024
 2017-02-06 14:17:36.755166+01 | 1486387056.75517 | pgbench_history  |        112197632
 2017-02-06 14:17:36.755166+01 | 1486387056.75517 | pgbench_branches |          9527296

 2017-02-06 14:17:37.831088+01 | 1486387057.83109 | pgbench_accounts |      13894320128
 2017-02-06 14:17:37.831088+01 | 1486387057.83109 | pgbench_tellers  |         16769024
 2017-02-06 14:17:37.831088+01 | 1486387057.83109 | pgbench_history  |        112386048
 2017-02-06 14:17:37.831088+01 | 1486387057.83109 | pgbench_branches |          9527296

 2017-02-06 14:17:38.909161+01 | 1486387058.90916 | pgbench_accounts |      13894320128
 2017-02-06 14:17:38.909161+01 | 1486387058.90916 | pgbench_tellers  |         16769024
 2017-02-06 14:17:38.909161+01 | 1486387058.90916 | pgbench_history  |        112992256
 2017-02-06 14:17:38.909161+01 | 1486387058.90916 | pgbench_branches |          9527296

 2017-02-06 14:17:39.994023+01 | 1486387059.99402 | pgbench_accounts |      13894320128
 2017-02-06 14:17:39.994023+01 | 1486387059.99402 | pgbench_tellers  |         16769024
 2017-02-06 14:17:39.994023+01 | 1486387059.99402 | pgbench_history  |        113532928
 2017-02-06 14:17:39.994023+01 | 1486387059.99402 | pgbench_branches |          9527296

 2017-02-06 14:17:41.067163+01 | 1486387061.06716 | pgbench_accounts |      13894320128
 2017-02-06 14:17:41.067163+01 | 1486387061.06716 | pgbench_tellers  |         16769024
 2017-02-06 14:17:41.067163+01 | 1486387061.06716 | pgbench_history  |        113934336
 2017-02-06 14:17:41.067163+01 | 1486387061.06716 | pgbench_branches |          9527296

 2017-02-06 14:17:42.139936+01 | 1486387062.13994 | pgbench_accounts |      13894320128
 2017-02-06 14:17:42.139936+01 | 1486387062.13994 | pgbench_tellers  |         16769024
 2017-02-06 14:17:42.139936+01 | 1486387062.13994 | pgbench_history  |        114458624
 2017-02-06 14:17:42.139936+01 | 1486387062.13994 | pgbench_branches |          9527296

 2017-02-06 14:17:43.22021+01 | 1486387063.22021 | pgbench_accounts |      13894320128
 2017-02-06 14:17:43.22021+01 | 1486387063.22021 | pgbench_tellers  |         16769024
 2017-02-06 14:17:43.22021+01 | 1486387063.22021 | pgbench_history  |        114974720
 2017-02-06 14:17:43.22021+01 | 1486387063.22021 | pgbench_branches |          9527296

 2017-02-06 14:17:44.29295+01 | 1486387064.29295 | pgbench_accounts |      13894320128
 2017-02-06 14:17:44.29295+01 | 1486387064.29295 | pgbench_tellers  |         16769024
 2017-02-06 14:17:44.29295+01 | 1486387064.29295 | pgbench_history  |        115539968
 2017-02-06 14:17:44.29295+01 | 1486387064.29295 | pgbench_branches |          9527296

 2017-02-06 14:17:45.366678+01 | 1486387065.36668 | pgbench_accounts |      13894320128
 2017-02-06 14:17:45.366678+01 | 1486387065.36668 | pgbench_tellers  |         16769024
 2017-02-06 14:17:45.366678+01 | 1486387065.36668 | pgbench_history  |        116031488
 2017-02-06 14:17:45.366678+01 | 1486387065.36668 | pgbench_branches |          9527296

 2017-02-06 14:17:46.435672+01 | 1486387066.43567 | pgbench_accounts |      13894320128
 2017-02-06 14:17:46.435672+01 | 1486387066.43567 | pgbench_tellers  |         16769024
 2017-02-06 14:17:46.435672+01 | 1486387066.43567 | pgbench_history  |        116555776
 2017-02-06 14:17:46.435672+01 | 1486387066.43567 | pgbench_branches |          9527296

 2017-02-06 14:17:47.513556+01 | 1486387067.51356 | pgbench_accounts |      13894320128
 2017-02-06 14:17:47.513556+01 | 1486387067.51356 | pgbench_tellers  |         16769024
 2017-02-06 14:17:47.513556+01 | 1486387067.51356 | pgbench_history  |        117301248
 2017-02-06 14:17:47.513556+01 | 1486387067.51356 | pgbench_branches |          9527296

 2017-02-06 14:17:48.589683+01 | 1486387068.58968 | pgbench_accounts |      13894320128
 2017-02-06 14:17:48.589683+01 | 1486387068.58968 | pgbench_tellers  |         16769024
 2017-02-06 14:17:48.589683+01 | 1486387068.58968 | pgbench_history  |        117719040
 2017-02-06 14:17:48.589683+01 | 1486387068.58968 | pgbench_branches |          9527296

 2017-02-06 14:17:49.666114+01 | 1486387069.66611 | pgbench_accounts |      13894320128
 2017-02-06 14:17:49.666114+01 | 1486387069.66611 | pgbench_tellers  |         16769024
 2017-02-06 14:17:49.666114+01 | 1486387069.66611 | pgbench_history  |        118308864
 2017-02-06 14:17:49.666114+01 | 1486387069.66611 | pgbench_branches |          9527296

 2017-02-06 14:17:50.738937+01 | 1486387070.73894 | pgbench_accounts |      13894320128
 2017-02-06 14:17:50.738937+01 | 1486387070.73894 | pgbench_tellers  |         16769024
 2017-02-06 14:17:50.738937+01 | 1486387070.73894 | pgbench_history  |        118882304
 2017-02-06 14:17:50.738937+01 | 1486387070.73894 | pgbench_branches |          9527296

 2017-02-06 14:17:51.819324+01 | 1486387071.81932 | pgbench_accounts |      13894320128
 2017-02-06 14:17:51.819324+01 | 1486387071.81932 | pgbench_tellers  |         16769024
 2017-02-06 14:17:51.819324+01 | 1486387071.81932 | pgbench_history  |        119291904
 2017-02-06 14:17:51.819324+01 | 1486387071.81932 | pgbench_branches |          9527296

 2017-02-06 14:17:52.899812+01 | 1486387072.89981 | pgbench_accounts |      13894320128
 2017-02-06 14:17:52.899812+01 | 1486387072.89981 | pgbench_tellers  |         16769024
 2017-02-06 14:17:52.899812+01 | 1486387072.89981 | pgbench_history  |        120053760
 2017-02-06 14:17:52.899812+01 | 1486387072.89981 | pgbench_branches |          9527296

 2017-02-06 14:17:53.976085+01 | 1486387073.97608 | pgbench_accounts |      13894320128
 2017-02-06 14:17:53.976085+01 | 1486387073.97608 | pgbench_tellers  |         16769024
 2017-02-06 14:17:53.976085+01 | 1486387073.97608 | pgbench_history  |        120406016
 2017-02-06 14:17:53.976085+01 | 1486387073.97608 | pgbench_branches |          9527296

 2017-02-06 14:17:55.052824+01 | 1486387075.05282 | pgbench_accounts |      13894320128
 2017-02-06 14:17:55.052824+01 | 1486387075.05282 | pgbench_tellers  |         16769024
 2017-02-06 14:17:55.052824+01 | 1486387075.05282 | pgbench_history  |        120987648
 2017-02-06 14:17:55.052824+01 | 1486387075.05282 | pgbench_branches |          9527296

 2017-02-06 14:17:56.13278+01 | 1486387076.13278 | pgbench_accounts |      13894320128
 2017-02-06 14:17:56.13278+01 | 1486387076.13278 | pgbench_tellers  |         16769024
 2017-02-06 14:17:56.13278+01 | 1486387076.13278 | pgbench_history  |        121413632
 2017-02-06 14:17:56.13278+01 | 1486387076.13278 | pgbench_branches |          9527296

 2017-02-06 14:17:57.214509+01 | 1486387077.21451 | pgbench_accounts |      13894320128
 2017-02-06 14:17:57.214509+01 | 1486387077.21451 | pgbench_tellers  |         16769024
 2017-02-06 14:17:57.214509+01 | 1486387077.21451 | pgbench_history  |        122167296
 2017-02-06 14:17:57.214509+01 | 1486387077.21451 | pgbench_branches |          9527296

 2017-02-06 14:17:58.29459+01 | 1486387078.29459 | pgbench_accounts |      13894320128
 2017-02-06 14:17:58.29459+01 | 1486387078.29459 | pgbench_tellers  |         16769024
 2017-02-06 14:17:58.29459+01 | 1486387078.29459 | pgbench_history  |        122609664
 2017-02-06 14:17:58.29459+01 | 1486387078.29459 | pgbench_branches |          9527296

 2017-02-06 14:17:59.364874+01 | 1486387079.36487 | pgbench_accounts |      13894320128
 2017-02-06 14:17:59.364874+01 | 1486387079.36487 | pgbench_tellers  |         16769024
 2017-02-06 14:17:59.364874+01 | 1486387079.36487 | pgbench_history  |        123060224
 2017-02-06 14:17:59.364874+01 | 1486387079.36487 | pgbench_branches |          9527296

 2017-02-06 14:18:00.444962+01 | 1486387080.44496 | pgbench_accounts |      13894320128
 2017-02-06 14:18:00.444962+01 | 1486387080.44496 | pgbench_tellers  |         16769024
 2017-02-06 14:18:00.444962+01 | 1486387080.44496 | pgbench_history  |        123781120
 2017-02-06 14:18:00.444962+01 | 1486387080.44496 | pgbench_branches |          9527296

 2017-02-06 14:18:01.524809+01 | 1486387081.52481 | pgbench_accounts |      13894320128
 2017-02-06 14:18:01.524809+01 | 1486387081.52481 | pgbench_tellers  |         16769024
 2017-02-06 14:18:01.524809+01 | 1486387081.52481 | pgbench_history  |        124157952
 2017-02-06 14:18:01.524809+01 | 1486387081.52481 | pgbench_branches |          9527296

 2017-02-06 14:18:02.613839+01 | 1486387082.61384 | pgbench_accounts |      13894320128
 2017-02-06 14:18:02.613839+01 | 1486387082.61384 | pgbench_tellers  |         16769024
 2017-02-06 14:18:02.613839+01 | 1486387082.61384 | pgbench_history  |        124715008
 2017-02-06 14:18:02.613839+01 | 1486387082.61384 | pgbench_branches |          9527296

 2017-02-06 14:18:03.698009+01 | 1486387083.69801 | pgbench_accounts |      13894320128
 2017-02-06 14:18:03.698009+01 | 1486387083.69801 | pgbench_tellers  |         16769024
 2017-02-06 14:18:03.698009+01 | 1486387083.69801 | pgbench_history  |        125255680
 2017-02-06 14:18:03.698009+01 | 1486387083.69801 | pgbench_branches |          9527296

 2017-02-06 14:18:04.773241+01 | 1486387084.77324 | pgbench_accounts |      13894320128
 2017-02-06 14:18:04.773241+01 | 1486387084.77324 | pgbench_tellers  |         16769024
 2017-02-06 14:18:04.773241+01 | 1486387084.77324 | pgbench_history  |        125648896
 2017-02-06 14:18:04.773241+01 | 1486387084.77324 | pgbench_branches |          9527296

 2017-02-06 14:18:05.851985+01 | 1486387085.85198 | pgbench_accounts |      13894320128
 2017-02-06 14:18:05.851985+01 | 1486387085.85198 | pgbench_tellers  |         16769024
 2017-02-06 14:18:05.851985+01 | 1486387085.85198 | pgbench_history  |        126164992
 2017-02-06 14:18:05.851985+01 | 1486387085.85198 | pgbench_branches |          9527296

 2017-02-06 14:18:06.932982+01 | 1486387086.93298 | pgbench_accounts |      13894320128
 2017-02-06 14:18:06.932982+01 | 1486387086.93298 | pgbench_tellers  |         16769024
 2017-02-06 14:18:06.932982+01 | 1486387086.93298 | pgbench_history  |        126656512
 2017-02-06 14:18:06.932982+01 | 1486387086.93298 | pgbench_branches |          9527296

 2017-02-06 14:18:08.008912+01 | 1486387088.00891 | pgbench_accounts |      13894320128
 2017-02-06 14:18:08.008912+01 | 1486387088.00891 | pgbench_tellers  |         16769024
 2017-02-06 14:18:08.008912+01 | 1486387088.00891 | pgbench_history  |        127213568
 2017-02-06 14:18:08.008912+01 | 1486387088.00891 | pgbench_branches |          9527296

 2017-02-06 14:18:09.097371+01 | 1486387089.09737 | pgbench_accounts |      13894320128
 2017-02-06 14:18:09.097371+01 | 1486387089.09737 | pgbench_tellers  |         16769024
 2017-02-06 14:18:09.097371+01 | 1486387089.09737 | pgbench_history  |        127795200
 2017-02-06 14:18:09.097371+01 | 1486387089.09737 | pgbench_branches |          9527296

 2017-02-06 14:18:10.177671+01 | 1486387090.17767 | pgbench_accounts |      13894320128
 2017-02-06 14:18:10.177671+01 | 1486387090.17767 | pgbench_tellers  |         16769024
 2017-02-06 14:18:10.177671+01 | 1486387090.17767 | pgbench_history  |        128425984
 2017-02-06 14:18:10.177671+01 | 1486387090.17767 | pgbench_branches |          9527296

 2017-02-06 14:18:11.262731+01 | 1486387091.26273 | pgbench_accounts |      13894320128
 2017-02-06 14:18:11.262731+01 | 1486387091.26273 | pgbench_tellers  |         16769024
 2017-02-06 14:18:11.262731+01 | 1486387091.26273 | pgbench_history  |        128991232
 2017-02-06 14:18:11.262731+01 | 1486387091.26273 | pgbench_branches |          9527296

 2017-02-06 14:18:12.348088+01 | 1486387092.34809 | pgbench_accounts |      13894320128
 2017-02-06 14:18:12.348088+01 | 1486387092.34809 | pgbench_tellers  |         16769024
 2017-02-06 14:18:12.348088+01 | 1486387092.34809 | pgbench_history  |        129384448
 2017-02-06 14:18:12.348088+01 | 1486387092.34809 | pgbench_branches |          9527296

 2017-02-06 14:18:13.433809+01 | 1486387093.43381 | pgbench_accounts |      13894320128
 2017-02-06 14:18:13.433809+01 | 1486387093.43381 | pgbench_tellers  |         16769024
 2017-02-06 14:18:13.433809+01 | 1486387093.43381 | pgbench_history  |        129941504
 2017-02-06 14:18:13.433809+01 | 1486387093.43381 | pgbench_branches |          9527296

 2017-02-06 14:18:14.507278+01 | 1486387094.50728 | pgbench_accounts |      13894320128
 2017-02-06 14:18:14.507278+01 | 1486387094.50728 | pgbench_tellers  |         16769024
 2017-02-06 14:18:14.507278+01 | 1486387094.50728 | pgbench_history  |        130441216
 2017-02-06 14:18:14.507278+01 | 1486387094.50728 | pgbench_branches |          9527296

 2017-02-06 14:18:15.590578+01 | 1486387095.59058 | pgbench_accounts |      13894320128
 2017-02-06 14:18:15.590578+01 | 1486387095.59058 | pgbench_tellers  |         16769024
 2017-02-06 14:18:15.590578+01 | 1486387095.59058 | pgbench_history  |        130998272
 2017-02-06 14:18:15.590578+01 | 1486387095.59058 | pgbench_branches |          9527296

 2017-02-06 14:18:16.677396+01 | 1486387096.6774 | pgbench_accounts |      13894320128
 2017-02-06 14:18:16.677396+01 | 1486387096.6774 | pgbench_tellers  |         16769024
 2017-02-06 14:18:16.677396+01 | 1486387096.6774 | pgbench_history  |        131563520
 2017-02-06 14:18:16.677396+01 | 1486387096.6774 | pgbench_branches |          9527296

 2017-02-06 14:18:17.761594+01 | 1486387097.76159 | pgbench_accounts |      13894320128
 2017-02-06 14:18:17.761594+01 | 1486387097.76159 | pgbench_tellers  |         16769024
 2017-02-06 14:18:17.761594+01 | 1486387097.76159 | pgbench_history  |        132087808
 2017-02-06 14:18:17.761594+01 | 1486387097.76159 | pgbench_branches |          9527296

 2017-02-06 14:18:18.834507+01 | 1486387098.83451 | pgbench_accounts |      13894320128
 2017-02-06 14:18:18.834507+01 | 1486387098.83451 | pgbench_tellers  |         16769024
 2017-02-06 14:18:18.834507+01 | 1486387098.83451 | pgbench_history  |        132669440
 2017-02-06 14:18:18.834507+01 | 1486387098.83451 | pgbench_branches |          9527296

 2017-02-06 14:18:19.915615+01 | 1486387099.91562 | pgbench_accounts |      13894320128
 2017-02-06 14:18:19.915615+01 | 1486387099.91562 | pgbench_tellers  |         16769024
 2017-02-06 14:18:19.915615+01 | 1486387099.91562 | pgbench_history  |        133201920
 2017-02-06 14:18:19.915615+01 | 1486387099.91562 | pgbench_branches |          9527296

 2017-02-06 14:18:20.991589+01 | 1486387100.99159 | pgbench_accounts |      13894320128
 2017-02-06 14:18:20.991589+01 | 1486387100.99159 | pgbench_tellers  |         16769024
 2017-02-06 14:18:20.991589+01 | 1486387100.99159 | pgbench_history  |        133718016
 2017-02-06 14:18:20.991589+01 | 1486387100.99159 | pgbench_branches |          9527296

 2017-02-06 14:18:22.081494+01 | 1486387102.08149 | pgbench_accounts |      13894320128
 2017-02-06 14:18:22.081494+01 | 1486387102.08149 | pgbench_tellers  |         16769024
 2017-02-06 14:18:22.081494+01 | 1486387102.08149 | pgbench_history  |        134291456
 2017-02-06 14:18:22.081494+01 | 1486387102.08149 | pgbench_branches |          9527296

 2017-02-06 14:18:23.167705+01 | 1486387103.16771 | pgbench_accounts |      13894320128
 2017-02-06 14:18:23.167705+01 | 1486387103.16771 | pgbench_tellers  |         16769024
 2017-02-06 14:18:23.167705+01 | 1486387103.16771 | pgbench_history  |        134840320
 2017-02-06 14:18:23.167705+01 | 1486387103.16771 | pgbench_branches |          9527296

 2017-02-06 14:18:24.246319+01 | 1486387104.24632 | pgbench_accounts |      13894320128
 2017-02-06 14:18:24.246319+01 | 1486387104.24632 | pgbench_tellers  |         16769024
 2017-02-06 14:18:24.246319+01 | 1486387104.24632 | pgbench_history  |        135397376
 2017-02-06 14:18:24.246319+01 | 1486387104.24632 | pgbench_branches |          9527296

 2017-02-06 14:18:25.332596+01 | 1486387105.3326 | pgbench_accounts |      13894320128
 2017-02-06 14:18:25.332596+01 | 1486387105.3326 | pgbench_tellers  |         16769024
 2017-02-06 14:18:25.332596+01 | 1486387105.3326 | pgbench_history  |        136110080
 2017-02-06 14:18:25.332596+01 | 1486387105.3326 | pgbench_branches |          9527296

 2017-02-06 14:18:26.421416+01 | 1486387106.42142 | pgbench_accounts |      13894320128
 2017-02-06 14:18:26.421416+01 | 1486387106.42142 | pgbench_tellers  |         16769024
 2017-02-06 14:18:26.421416+01 | 1486387106.42142 | pgbench_history  |        136486912
 2017-02-06 14:18:26.421416+01 | 1486387106.42142 | pgbench_branches |          9527296

 2017-02-06 14:18:27.502424+01 | 1486387107.50242 | pgbench_accounts |      13894320128
 2017-02-06 14:18:27.502424+01 | 1486387107.50242 | pgbench_tellers  |         16769024
 2017-02-06 14:18:27.502424+01 | 1486387107.50242 | pgbench_history  |        137052160
 2017-02-06 14:18:27.502424+01 | 1486387107.50242 | pgbench_branches |          9527296

 2017-02-06 14:18:28.583678+01 | 1486387108.58368 | pgbench_accounts |      13894320128
 2017-02-06 14:18:28.583678+01 | 1486387108.58368 | pgbench_tellers  |         16769024
 2017-02-06 14:18:28.583678+01 | 1486387108.58368 | pgbench_history  |        137502720
 2017-02-06 14:18:28.583678+01 | 1486387108.58368 | pgbench_branches |          9527296

 2017-02-06 14:18:29.656698+01 | 1486387109.6567 | pgbench_accounts |      13894320128
 2017-02-06 14:18:29.656698+01 | 1486387109.6567 | pgbench_tellers  |         16769024
 2017-02-06 14:18:29.656698+01 | 1486387109.6567 | pgbench_history  |        138182656
 2017-02-06 14:18:29.656698+01 | 1486387109.6567 | pgbench_branches |          9527296

 2017-02-06 14:18:30.734423+01 | 1486387110.73442 | pgbench_accounts |      13894320128
 2017-02-06 14:18:30.734423+01 | 1486387110.73442 | pgbench_tellers  |         16769024
 2017-02-06 14:18:30.734423+01 | 1486387110.73442 | pgbench_history  |        138608640
 2017-02-06 14:18:30.734423+01 | 1486387110.73442 | pgbench_branches |          9527296

 2017-02-06 14:18:31.817039+01 | 1486387111.81704 | pgbench_accounts |      13894320128
 2017-02-06 14:18:31.817039+01 | 1486387111.81704 | pgbench_tellers  |         16769024
 2017-02-06 14:18:31.817039+01 | 1486387111.81704 | pgbench_history  |        139198464
 2017-02-06 14:18:31.817039+01 | 1486387111.81704 | pgbench_branches |          9527296

 2017-02-06 14:18:32.90003+01 | 1486387112.90003 | pgbench_accounts |      13894320128
 2017-02-06 14:18:32.90003+01 | 1486387112.90003 | pgbench_tellers  |         16769024
 2017-02-06 14:18:32.90003+01 | 1486387112.90003 | pgbench_history  |        139608064
 2017-02-06 14:18:32.90003+01 | 1486387112.90003 | pgbench_branches |          9527296

 2017-02-06 14:18:33.981652+01 | 1486387113.98165 | pgbench_accounts |      13894320128
 2017-02-06 14:18:33.981652+01 | 1486387113.98165 | pgbench_tellers  |         16769024
 2017-02-06 14:18:33.981652+01 | 1486387113.98165 | pgbench_history  |        140369920
 2017-02-06 14:18:33.981652+01 | 1486387113.98165 | pgbench_branches |          9527296

 2017-02-06 14:18:35.069608+01 | 1486387115.06961 | pgbench_accounts |      13894320128
 2017-02-06 14:18:35.069608+01 | 1486387115.06961 | pgbench_tellers  |         16769024
 2017-02-06 14:18:35.069608+01 | 1486387115.06961 | pgbench_history  |        140787712
 2017-02-06 14:18:35.069608+01 | 1486387115.06961 | pgbench_branches |          9527296

 2017-02-06 14:18:36.142667+01 | 1486387116.14267 | pgbench_accounts |      13894320128
 2017-02-06 14:18:36.142667+01 | 1486387116.14267 | pgbench_tellers  |         16769024
 2017-02-06 14:18:36.142667+01 | 1486387116.14267 | pgbench_history  |        141500416
 2017-02-06 14:18:36.142667+01 | 1486387116.14267 | pgbench_branches |          9527296

 2017-02-06 14:18:37.214326+01 | 1486387117.21433 | pgbench_accounts |      13894320128
 2017-02-06 14:18:37.214326+01 | 1486387117.21433 | pgbench_tellers  |         16769024
 2017-02-06 14:18:37.214326+01 | 1486387117.21433 | pgbench_history  |        142024704
 2017-02-06 14:18:37.214326+01 | 1486387117.21433 | pgbench_branches |          9527296

 2017-02-06 14:18:38.300758+01 | 1486387118.30076 | pgbench_accounts |      13894320128
 2017-02-06 14:18:38.300758+01 | 1486387118.30076 | pgbench_tellers  |         16769024
 2017-02-06 14:18:38.300758+01 | 1486387118.30076 | pgbench_history  |        142565376
 2017-02-06 14:18:38.300758+01 | 1486387118.30076 | pgbench_branches |          9527296

 2017-02-06 14:18:39.368824+01 | 1486387119.36882 | pgbench_accounts |      13894320128
 2017-02-06 14:18:39.368824+01 | 1486387119.36882 | pgbench_tellers  |         16769024
 2017-02-06 14:18:39.368824+01 | 1486387119.36882 | pgbench_history  |        142966784
 2017-02-06 14:18:39.368824+01 | 1486387119.36882 | pgbench_branches |          9527296

 2017-02-06 14:18:40.439979+01 | 1486387120.43998 | pgbench_accounts |      13894320128
 2017-02-06 14:18:40.439979+01 | 1486387120.43998 | pgbench_tellers  |         16769024
 2017-02-06 14:18:40.439979+01 | 1486387120.43998 | pgbench_history  |        143482880
 2017-02-06 14:18:40.439979+01 | 1486387120.43998 | pgbench_branches |          9527296

 2017-02-06 14:18:41.509979+01 | 1486387121.50998 | pgbench_accounts |      13894320128
 2017-02-06 14:18:41.509979+01 | 1486387121.50998 | pgbench_tellers  |         16769024
 2017-02-06 14:18:41.509979+01 | 1486387121.50998 | pgbench_history  |        144064512
 2017-02-06 14:18:41.509979+01 | 1486387121.50998 | pgbench_branches |          9527296

 2017-02-06 14:18:42.586988+01 | 1486387122.58699 | pgbench_accounts |      13894320128
 2017-02-06 14:18:42.586988+01 | 1486387122.58699 | pgbench_tellers  |         16769024
 2017-02-06 14:18:42.586988+01 | 1486387122.58699 | pgbench_history  |        144498688
 2017-02-06 14:18:42.586988+01 | 1486387122.58699 | pgbench_branches |          9527296

 2017-02-06 14:18:43.661646+01 | 1486387123.66165 | pgbench_accounts |      13894320128
 2017-02-06 14:18:43.661646+01 | 1486387123.66165 | pgbench_tellers  |         16769024
 2017-02-06 14:18:43.661646+01 | 1486387123.66165 | pgbench_history  |        145252352
 2017-02-06 14:18:43.661646+01 | 1486387123.66165 | pgbench_branches |          9527296

 2017-02-06 14:18:44.736106+01 | 1486387124.73611 | pgbench_accounts |      13894320128
 2017-02-06 14:18:44.736106+01 | 1486387124.73611 | pgbench_tellers  |         16769024
 2017-02-06 14:18:44.736106+01 | 1486387124.73611 | pgbench_history  |        145801216
 2017-02-06 14:18:44.736106+01 | 1486387124.73611 | pgbench_branches |          9527296

 2017-02-06 14:18:45.813004+01 | 1486387125.813 | pgbench_accounts |      13894320128
 2017-02-06 14:18:45.813004+01 | 1486387125.813 | pgbench_tellers  |         16769024
 2017-02-06 14:18:45.813004+01 | 1486387125.813 | pgbench_history  |        145989632
 2017-02-06 14:18:45.813004+01 | 1486387125.813 | pgbench_branches |          9527296

 2017-02-06 14:18:46.88484+01 | 1486387126.88484 | pgbench_accounts |      13894320128
 2017-02-06 14:18:46.88484+01 | 1486387126.88484 | pgbench_tellers  |         16769024
 2017-02-06 14:18:46.88484+01 | 1486387126.88484 | pgbench_history  |        146554880
 2017-02-06 14:18:46.88484+01 | 1486387126.88484 | pgbench_branches |          9527296

 2017-02-06 14:18:47.978336+01 | 1486387127.97834 | pgbench_accounts |      13894320128
 2017-02-06 14:18:47.978336+01 | 1486387127.97834 | pgbench_tellers  |         16769024
 2017-02-06 14:18:47.978336+01 | 1486387127.97834 | pgbench_history  |        147103744
 2017-02-06 14:18:47.978336+01 | 1486387127.97834 | pgbench_branches |          9527296

 2017-02-06 14:18:49.055233+01 | 1486387129.05523 | pgbench_accounts |      13894320128
 2017-02-06 14:18:49.055233+01 | 1486387129.05523 | pgbench_tellers  |         16769024
 2017-02-06 14:18:49.055233+01 | 1486387129.05523 | pgbench_history  |        147456000
 2017-02-06 14:18:49.055233+01 | 1486387129.05523 | pgbench_branches |          9527296

 2017-02-06 14:18:50.127406+01 | 1486387130.12741 | pgbench_accounts |      13894320128
 2017-02-06 14:18:50.127406+01 | 1486387130.12741 | pgbench_tellers  |         16769024
 2017-02-06 14:18:50.127406+01 | 1486387130.12741 | pgbench_history  |        147939328
 2017-02-06 14:18:50.127406+01 | 1486387130.12741 | pgbench_branches |          9527296

 2017-02-06 14:18:51.19988+01 | 1486387131.19988 | pgbench_accounts |      13894320128
 2017-02-06 14:18:51.19988+01 | 1486387131.19988 | pgbench_tellers  |         16769024
 2017-02-06 14:18:51.19988+01 | 1486387131.19988 | pgbench_history  |        148463616
 2017-02-06 14:18:51.19988+01 | 1486387131.19988 | pgbench_branches |          9527296

 2017-02-06 14:18:52.285332+01 | 1486387132.28533 | pgbench_accounts |      13894320128
 2017-02-06 14:18:52.285332+01 | 1486387132.28533 | pgbench_tellers  |         16769024
 2017-02-06 14:18:52.285332+01 | 1486387132.28533 | pgbench_history  |        149553152
 2017-02-06 14:18:52.285332+01 | 1486387132.28533 | pgbench_branches |          9527296

 2017-02-06 14:18:53.37628+01 | 1486387133.37628 | pgbench_accounts |      13894320128
 2017-02-06 14:18:53.37628+01 | 1486387133.37628 | pgbench_tellers  |         16769024
 2017-02-06 14:18:53.37628+01 | 1486387133.37628 | pgbench_history  |        149553152
 2017-02-06 14:18:53.37628+01 | 1486387133.37628 | pgbench_branches |          9527296

 2017-02-06 14:18:54.456611+01 | 1486387134.45661 | pgbench_accounts |      13894320128
 2017-02-06 14:18:54.456611+01 | 1486387134.45661 | pgbench_tellers  |         16769024
 2017-02-06 14:18:54.456611+01 | 1486387134.45661 | pgbench_history  |        150142976
 2017-02-06 14:18:54.456611+01 | 1486387134.45661 | pgbench_branches |          9527296

 2017-02-06 14:18:55.528939+01 | 1486387135.52894 | pgbench_accounts |      13894320128
 2017-02-06 14:18:55.528939+01 | 1486387135.52894 | pgbench_tellers  |         16769024
 2017-02-06 14:18:55.528939+01 | 1486387135.52894 | pgbench_history  |        150667264
 2017-02-06 14:18:55.528939+01 | 1486387135.52894 | pgbench_branches |          9527296

 2017-02-06 14:18:56.61064+01 | 1486387136.61064 | pgbench_accounts |      13894320128
 2017-02-06 14:18:56.61064+01 | 1486387136.61064 | pgbench_tellers  |         16769024
 2017-02-06 14:18:56.61064+01 | 1486387136.61064 | pgbench_history  |        151183360
 2017-02-06 14:18:56.61064+01 | 1486387136.61064 | pgbench_branches |          9527296

