 2017-02-05 01:21:37.937567+01 | 1486254097.93757 |                 0 |              30 |                 46373 |                 1900 |            5506005 |             0 |                0 |          493968 |                     0 |        198958 | 2017-02-04 22:55:19.380096+01

 2017-02-05 01:21:39.021491+01 | 1486254099.02149 |                 0 |              30 |                 46373 |                 1900 |            5506005 |             0 |                0 |          493968 |                     0 |        198958 | 2017-02-04 22:55:19.380096+01

 2017-02-05 01:21:40.114181+01 | 1486254100.11418 |                 0 |              30 |                 46373 |                 1900 |            5506005 |             0 |                0 |          493968 |                     0 |        198958 | 2017-02-04 22:55:19.380096+01

 2017-02-05 01:21:41.199402+01 | 1486254101.1994 |                 0 |              30 |                 46373 |                 1900 |            5506005 |             0 |                0 |          493968 |                     0 |        198958 | 2017-02-04 22:55:19.380096+01

 2017-02-05 01:21:42.288433+01 | 1486254102.28843 |                 0 |              30 |                 46373 |                 1900 |            5506005 |             0 |                0 |          493968 |                     0 |        198958 | 2017-02-04 22:55:19.380096+01

 2017-02-05 01:21:43.375294+01 | 1486254103.37529 |                 0 |              30 |                 46373 |                 1900 |            5506005 |             0 |                0 |          493968 |                     0 |        198958 | 2017-02-04 22:55:19.380096+01

 2017-02-05 01:21:44.458244+01 | 1486254104.45824 |                 0 |              30 |                 46373 |                 1900 |            5506005 |             0 |                0 |          493968 |                     0 |        198958 | 2017-02-04 22:55:19.380096+01

 2017-02-05 01:21:45.552034+01 | 1486254105.55203 |                 0 |              30 |                 46373 |                 1900 |            5506005 |             0 |                0 |          493968 |                     0 |        198958 | 2017-02-04 22:55:19.380096+01

 2017-02-05 01:21:46.640968+01 | 1486254106.64097 |                 0 |              30 |                 46373 |                 1900 |            5506005 |             0 |                0 |          493968 |                     0 |        198958 | 2017-02-04 22:55:19.380096+01

 2017-02-05 01:21:47.726966+01 | 1486254107.72697 |                 0 |              30 |                 46373 |                 1900 |            5506005 |             0 |                0 |          493968 |                     0 |        198958 | 2017-02-04 22:55:19.380096+01

 2017-02-05 01:21:48.809743+01 | 1486254108.80974 |                 0 |              30 |                 46373 |                 1900 |            5506005 |             0 |                0 |          493968 |                     0 |        198958 | 2017-02-04 22:55:19.380096+01

 2017-02-05 01:21:49.885065+01 | 1486254109.88507 |                 0 |              30 |                 46373 |                 1900 |            5506005 |             0 |                0 |          493968 |                     0 |        198958 | 2017-02-04 22:55:19.380096+01

 2017-02-05 01:21:50.962177+01 | 1486254110.96218 |                 0 |              30 |                 46373 |                 1900 |            5506005 |             0 |                0 |          493968 |                     0 |        198958 | 2017-02-04 22:55:19.380096+01

 2017-02-05 01:21:52.055923+01 | 1486254112.05592 |                 0 |              30 |                 46373 |                 1900 |            5506005 |             0 |                0 |          493968 |                     0 |        198958 | 2017-02-04 22:55:19.380096+01

 2017-02-05 01:21:53.143737+01 | 1486254113.14374 |                 0 |              30 |                 46373 |                 1900 |            5506005 |             0 |                0 |          493968 |                     0 |        198958 | 2017-02-04 22:55:19.380096+01

 2017-02-05 01:21:54.223729+01 | 1486254114.22373 |                 0 |              30 |                 46373 |                 1900 |            5506005 |             0 |                0 |          493968 |                     0 |        198958 | 2017-02-04 22:55:19.380096+01

 2017-02-05 01:21:55.312333+01 | 1486254115.31233 |                 0 |              30 |                 46373 |                 1900 |            5506005 |             0 |                0 |          493968 |                     0 |        198958 | 2017-02-04 22:55:19.380096+01

 2017-02-05 01:21:56.398614+01 | 1486254116.39861 |                 0 |              30 |                 46373 |                 1900 |            5506005 |             0 |                0 |          493968 |                     0 |        198958 | 2017-02-04 22:55:19.380096+01

 2017-02-05 01:21:57.473567+01 | 1486254117.47357 |                 0 |              30 |                 46373 |                 1900 |            5506005 |             0 |                0 |          493968 |                     0 |        198958 | 2017-02-04 22:55:19.380096+01

 2017-02-05 01:21:58.570513+01 | 1486254118.57051 |                 0 |              30 |                 46373 |                 1900 |            5506005 |             0 |                0 |          493968 |                     0 |        198958 | 2017-02-04 22:55:19.380096+01

 2017-02-05 01:21:59.663975+01 | 1486254119.66398 |                 0 |              30 |                 46373 |                 1900 |            5506005 |             0 |                0 |          493968 |                     0 |        198958 | 2017-02-04 22:55:19.380096+01

 2017-02-05 01:22:00.754063+01 | 1486254120.75406 |                 0 |              30 |                 46373 |                 1900 |            5506005 |             0 |                0 |          493968 |                     0 |        198958 | 2017-02-04 22:55:19.380096+01

 2017-02-05 01:22:01.835909+01 | 1486254121.83591 |                 0 |              30 |                 46373 |                 1900 |            5506005 |             0 |                0 |          493968 |                     0 |        198958 | 2017-02-04 22:55:19.380096+01

 2017-02-05 01:22:02.923657+01 | 1486254122.92366 |                 0 |              30 |                 46373 |                 1900 |            5506005 |             0 |                0 |          493968 |                     0 |        198958 | 2017-02-04 22:55:19.380096+01

 2017-02-05 01:22:04.018505+01 | 1486254124.01851 |                 0 |              30 |                 46373 |                 1900 |            5506005 |             0 |                0 |          493968 |                     0 |        198958 | 2017-02-04 22:55:19.380096+01

 2017-02-05 01:22:05.10439+01 | 1486254125.10439 |                 0 |              30 |                 46373 |                 1900 |            5506005 |             0 |                0 |          493968 |                     0 |        198958 | 2017-02-04 22:55:19.380096+01

 2017-02-05 01:22:06.192716+01 | 1486254126.19272 |                 0 |              30 |                 46373 |                 1900 |            5506005 |             0 |                0 |          493968 |                     0 |        198958 | 2017-02-04 22:55:19.380096+01

 2017-02-05 01:22:07.277129+01 | 1486254127.27713 |                 0 |              30 |                 46373 |                 1900 |            5506005 |             0 |                0 |          493968 |                     0 |        198958 | 2017-02-04 22:55:19.380096+01

 2017-02-05 01:22:08.365707+01 | 1486254128.36571 |                 0 |              30 |                 46373 |                 1900 |            5506005 |             0 |                0 |          493968 |                     0 |        198958 | 2017-02-04 22:55:19.380096+01

 2017-02-05 01:22:09.444901+01 | 1486254129.4449 |                 0 |              30 |                 46373 |                 1900 |            5506005 |             0 |                0 |          493968 |                     0 |        198958 | 2017-02-04 22:55:19.380096+01

 2017-02-05 01:22:10.530121+01 | 1486254130.53012 |                 0 |              30 |                 46373 |                 1900 |            5506005 |             0 |                0 |          493968 |                     0 |        198958 | 2017-02-04 22:55:19.380096+01

 2017-02-05 01:22:11.614192+01 | 1486254131.61419 |                 0 |              30 |                 46373 |                 1900 |            5506005 |             0 |                0 |          493968 |                     0 |        198958 | 2017-02-04 22:55:19.380096+01

 2017-02-05 01:22:12.696435+01 | 1486254132.69643 |                 0 |              30 |                 46373 |                 1900 |            5506005 |             0 |                0 |          493968 |                     0 |        198958 | 2017-02-04 22:55:19.380096+01

 2017-02-05 01:22:13.777988+01 | 1486254133.77799 |                 0 |              30 |                 46373 |                 1900 |            5506005 |             0 |                0 |          493968 |                     0 |        198958 | 2017-02-04 22:55:19.380096+01

 2017-02-05 01:22:14.859825+01 | 1486254134.85982 |                 0 |              30 |                 46373 |                 1900 |            5506005 |             0 |                0 |          493968 |                     0 |        198958 | 2017-02-04 22:55:19.380096+01

 2017-02-05 01:22:15.952703+01 | 1486254135.9527 |                 0 |              30 |                 46373 |                 1900 |            5506005 |             0 |                0 |          493968 |                     0 |        198958 | 2017-02-04 22:55:19.380096+01

 2017-02-05 01:22:17.036177+01 | 1486254137.03618 |                 0 |              30 |                 46373 |                 1900 |            5506005 |             0 |                0 |          493968 |                     0 |        198958 | 2017-02-04 22:55:19.380096+01

 2017-02-05 01:22:18.121241+01 | 1486254138.12124 |                 0 |              30 |                 46373 |                 1900 |            5506005 |             0 |                0 |          493968 |                     0 |        198958 | 2017-02-04 22:55:19.380096+01

 2017-02-05 01:22:19.205496+01 | 1486254139.2055 |                 0 |              30 |                 46373 |                 1900 |            5506005 |             0 |                0 |          493968 |                     0 |        198958 | 2017-02-04 22:55:19.380096+01

 2017-02-05 01:22:20.29117+01 | 1486254140.29117 |                 0 |              30 |                 46373 |                 1900 |            5506005 |             0 |                0 |          493968 |                     0 |        198958 | 2017-02-04 22:55:19.380096+01

 2017-02-05 01:22:21.379433+01 | 1486254141.37943 |                 0 |              30 |                 46373 |                 1900 |            5506005 |             0 |                0 |          493968 |                     0 |        198958 | 2017-02-04 22:55:19.380096+01

 2017-02-05 01:22:22.460326+01 | 1486254142.46033 |                 0 |              30 |                 46373 |                 1900 |            5506005 |             0 |                0 |          493968 |                     0 |        198958 | 2017-02-04 22:55:19.380096+01

 2017-02-05 01:22:23.538211+01 | 1486254143.53821 |                 0 |              30 |                 46373 |                 1900 |            5506005 |             0 |                0 |          493968 |                     0 |        198958 | 2017-02-04 22:55:19.380096+01

 2017-02-05 01:22:24.61835+01 | 1486254144.61835 |                 0 |              30 |                 46373 |                 1900 |            5506005 |             0 |                0 |          493968 |                     0 |        198958 | 2017-02-04 22:55:19.380096+01

 2017-02-05 01:22:25.703254+01 | 1486254145.70325 |                 0 |              30 |                 46373 |                 1900 |            5506005 |             0 |                0 |          493968 |                     0 |        198958 | 2017-02-04 22:55:19.380096+01

 2017-02-05 01:22:26.780767+01 | 1486254146.78077 |                 0 |              30 |                 46373 |                 1900 |            5506005 |             0 |                0 |          493968 |                     0 |        198958 | 2017-02-04 22:55:19.380096+01

 2017-02-05 01:22:27.858107+01 | 1486254147.85811 |                 0 |              30 |                 46373 |                 1900 |            5506005 |             0 |                0 |          493968 |                     0 |        198958 | 2017-02-04 22:55:19.380096+01

 2017-02-05 01:22:28.94012+01 | 1486254148.94012 |                 0 |              30 |                 46373 |                 1900 |            5506005 |             0 |                0 |          493968 |                     0 |        198958 | 2017-02-04 22:55:19.380096+01

 2017-02-05 01:22:30.027426+01 | 1486254150.02743 |                 0 |              30 |                 46373 |                 1900 |            5506005 |             0 |                0 |          493968 |                     0 |        198958 | 2017-02-04 22:55:19.380096+01

 2017-02-05 01:22:31.112704+01 | 1486254151.1127 |                 0 |              30 |                 46373 |                 1900 |            5506005 |             0 |                0 |          493968 |                     0 |        198958 | 2017-02-04 22:55:19.380096+01

 2017-02-05 01:22:32.203081+01 | 1486254152.20308 |                 0 |              30 |                 46373 |                 1900 |            5506005 |             0 |                0 |          493968 |                     0 |        198958 | 2017-02-04 22:55:19.380096+01

 2017-02-05 01:22:33.287475+01 | 1486254153.28748 |                 0 |              30 |                 46373 |                 1900 |            5506005 |             0 |                0 |          493968 |                     0 |        198958 | 2017-02-04 22:55:19.380096+01

 2017-02-05 01:22:34.37072+01 | 1486254154.37072 |                 0 |              30 |                 46373 |                 1900 |            5506005 |             0 |                0 |          493968 |                     0 |        198958 | 2017-02-04 22:55:19.380096+01

 2017-02-05 01:22:35.455529+01 | 1486254155.45553 |                 0 |              30 |                 46373 |                 1900 |            5506005 |             0 |                0 |          493968 |                     0 |        198958 | 2017-02-04 22:55:19.380096+01

 2017-02-05 01:22:36.540856+01 | 1486254156.54086 |                 0 |              30 |                 46373 |                 1900 |            5506005 |             0 |                0 |          493968 |                     0 |        198958 | 2017-02-04 22:55:19.380096+01

 2017-02-05 01:22:37.623421+01 | 1486254157.62342 |                 0 |              30 |                 46373 |                 1900 |            5506005 |             0 |                0 |          493968 |                     0 |        198958 | 2017-02-04 22:55:19.380096+01

 2017-02-05 01:22:38.708658+01 | 1486254158.70866 |                 0 |              30 |                 46373 |                 1900 |            5506005 |             0 |                0 |          493968 |                     0 |        198958 | 2017-02-04 22:55:19.380096+01

 2017-02-05 01:22:39.790318+01 | 1486254159.79032 |                 0 |              30 |                 46373 |                 1900 |            5506005 |             0 |                0 |          493968 |                     0 |        198958 | 2017-02-04 22:55:19.380096+01

 2017-02-05 01:22:40.870029+01 | 1486254160.87003 |                 0 |              30 |                 46373 |                 1900 |            5506005 |             0 |                0 |          493968 |                     0 |        198958 | 2017-02-04 22:55:19.380096+01

 2017-02-05 01:22:41.956857+01 | 1486254161.95686 |                 0 |              30 |                 46373 |                 1900 |            5506005 |             0 |                0 |          493968 |                     0 |        198958 | 2017-02-04 22:55:19.380096+01

 2017-02-05 01:22:43.042759+01 | 1486254163.04276 |                 0 |              30 |                 46373 |                 1900 |            5506005 |             0 |                0 |          493968 |                     0 |        198958 | 2017-02-04 22:55:19.380096+01

 2017-02-05 01:22:44.119728+01 | 1486254164.11973 |                 0 |              30 |                 46373 |                 1900 |            5506005 |             0 |                0 |          493968 |                     0 |        198958 | 2017-02-04 22:55:19.380096+01

 2017-02-05 01:22:45.208671+01 | 1486254165.20867 |                 0 |              30 |                 46373 |                 1900 |            5506005 |             0 |                0 |          493968 |                     0 |        198958 | 2017-02-04 22:55:19.380096+01

 2017-02-05 01:22:46.288867+01 | 1486254166.28887 |                 0 |              30 |                 46373 |                 1900 |            5506005 |             0 |                0 |          493968 |                     0 |        198958 | 2017-02-04 22:55:19.380096+01

 2017-02-05 01:22:47.365218+01 | 1486254167.36522 |                 0 |              30 |                 46373 |                 1900 |            5506005 |             0 |                0 |          493968 |                     0 |        198958 | 2017-02-04 22:55:19.380096+01

 2017-02-05 01:22:48.452908+01 | 1486254168.45291 |                 0 |              30 |                 46373 |                 1900 |            5506005 |             0 |                0 |          493968 |                     0 |        198958 | 2017-02-04 22:55:19.380096+01

 2017-02-05 01:22:49.531916+01 | 1486254169.53192 |                 0 |              30 |                 46373 |                 1900 |            5506005 |             0 |                0 |          493968 |                     0 |        198958 | 2017-02-04 22:55:19.380096+01

 2017-02-05 01:22:50.621028+01 | 1486254170.62103 |                 0 |              30 |                 46373 |                 1900 |            5506005 |             0 |                0 |          493968 |                     0 |        198958 | 2017-02-04 22:55:19.380096+01

 2017-02-05 01:22:51.704317+01 | 1486254171.70432 |                 0 |              30 |                 46373 |                 1900 |            5506005 |             0 |                0 |          493968 |                     0 |        198958 | 2017-02-04 22:55:19.380096+01

 2017-02-05 01:22:52.790735+01 | 1486254172.79074 |                 0 |              30 |                 46373 |                 1900 |            5506005 |             0 |                0 |          493968 |                     0 |        198958 | 2017-02-04 22:55:19.380096+01

 2017-02-05 01:22:53.872081+01 | 1486254173.87208 |                 0 |              30 |                 46373 |                 1900 |            5506005 |             0 |                0 |          493968 |                     0 |        198958 | 2017-02-04 22:55:19.380096+01

 2017-02-05 01:22:54.948756+01 | 1486254174.94876 |                 0 |              30 |                 46373 |                 1900 |            5506005 |             0 |                0 |          493968 |                     0 |        198958 | 2017-02-04 22:55:19.380096+01

 2017-02-05 01:22:56.034121+01 | 1486254176.03412 |                 0 |              30 |                 46373 |                 1900 |            5506005 |             0 |                0 |          493968 |                     0 |        198958 | 2017-02-04 22:55:19.380096+01

 2017-02-05 01:22:57.117121+01 | 1486254177.11712 |                 0 |              30 |                 46373 |                 1900 |            5506005 |             0 |                0 |          493968 |                     0 |        198958 | 2017-02-04 22:55:19.380096+01

 2017-02-05 01:22:58.203143+01 | 1486254178.20314 |                 0 |              30 |                 46373 |                 1900 |            5506005 |             0 |                0 |          493968 |                     0 |        198958 | 2017-02-04 22:55:19.380096+01

 2017-02-05 01:22:59.291729+01 | 1486254179.29173 |                 0 |              30 |                 46373 |                 1900 |            5506005 |             0 |                0 |          493968 |                     0 |        198958 | 2017-02-04 22:55:19.380096+01

 2017-02-05 01:23:00.375987+01 | 1486254180.37599 |                 0 |              30 |                 46373 |                 1900 |            5506005 |             0 |                0 |          493968 |                     0 |        198958 | 2017-02-04 22:55:19.380096+01

 2017-02-05 01:23:01.459501+01 | 1486254181.4595 |                 0 |              30 |                 46373 |                 1900 |            5506005 |             0 |                0 |          493968 |                     0 |        198958 | 2017-02-04 22:55:19.380096+01

 2017-02-05 01:23:02.546509+01 | 1486254182.54651 |                 0 |              30 |                 46373 |                 1900 |            5506005 |             0 |                0 |          493968 |                     0 |        198958 | 2017-02-04 22:55:19.380096+01

 2017-02-05 01:23:03.629734+01 | 1486254183.62973 |                 0 |              30 |                 46373 |                 1900 |            5506005 |             0 |                0 |          493968 |                     0 |        198958 | 2017-02-04 22:55:19.380096+01

 2017-02-05 01:23:04.71746+01 | 1486254184.71746 |                 0 |              30 |                 46373 |                 1900 |            5506005 |             0 |                0 |          493968 |                     0 |        198958 | 2017-02-04 22:55:19.380096+01

 2017-02-05 01:23:05.806475+01 | 1486254185.80647 |                 0 |              30 |                 46373 |                 1900 |            5506005 |             0 |                0 |          493968 |                     0 |        198958 | 2017-02-04 22:55:19.380096+01

 2017-02-05 01:23:06.888236+01 | 1486254186.88824 |                 0 |              30 |                 46373 |                 1900 |            5506005 |             0 |                0 |          493968 |                     0 |        198958 | 2017-02-04 22:55:19.380096+01

 2017-02-05 01:23:07.972464+01 | 1486254187.97246 |                 0 |              30 |                 46373 |                 1900 |            5506005 |             0 |                0 |          493968 |                     0 |        198958 | 2017-02-04 22:55:19.380096+01

 2017-02-05 01:23:09.05421+01 | 1486254189.05421 |                 0 |              30 |                 46373 |                 1900 |            5506005 |             0 |                0 |          493968 |                     0 |        198958 | 2017-02-04 22:55:19.380096+01

 2017-02-05 01:23:10.139797+01 | 1486254190.1398 |                 0 |              30 |                 46373 |                 1900 |            5506005 |             0 |                0 |          493968 |                     0 |        198958 | 2017-02-04 22:55:19.380096+01

 2017-02-05 01:23:11.229263+01 | 1486254191.22926 |                 0 |              30 |                 46373 |                 1900 |            5506005 |             0 |                0 |          493968 |                     0 |        198958 | 2017-02-04 22:55:19.380096+01

 2017-02-05 01:23:12.317408+01 | 1486254192.31741 |                 0 |              30 |                 46373 |                 1900 |            5506005 |             0 |                0 |          493968 |                     0 |        198958 | 2017-02-04 22:55:19.380096+01

 2017-02-05 01:23:13.410914+01 | 1486254193.41091 |                 0 |              30 |                 46373 |                 1900 |            5506005 |             0 |                0 |          493968 |                     0 |        198958 | 2017-02-04 22:55:19.380096+01

 2017-02-05 01:23:14.497072+01 | 1486254194.49707 |                 0 |              30 |                 46373 |                 1900 |            5506005 |             0 |                0 |          493968 |                     0 |        198958 | 2017-02-04 22:55:19.380096+01

 2017-02-05 01:23:15.580983+01 | 1486254195.58098 |                 0 |              30 |                 46373 |                 1900 |            5506005 |             0 |                0 |          493968 |                     0 |        198958 | 2017-02-04 22:55:19.380096+01

 2017-02-05 01:23:16.667366+01 | 1486254196.66737 |                 0 |              30 |                 46373 |                 1900 |            5506005 |             0 |                0 |          493968 |                     0 |        198958 | 2017-02-04 22:55:19.380096+01

 2017-02-05 01:23:17.752401+01 | 1486254197.7524 |                 0 |              30 |                 46373 |                 1900 |            5506005 |             0 |                0 |          493968 |                     0 |        198958 | 2017-02-04 22:55:19.380096+01

 2017-02-05 01:23:18.837985+01 | 1486254198.83799 |                 0 |              30 |                 46373 |                 1900 |            5506005 |             0 |                0 |          493968 |                     0 |        198958 | 2017-02-04 22:55:19.380096+01

 2017-02-05 01:23:19.916302+01 | 1486254199.9163 |                 0 |              30 |                 46373 |                 1900 |            5506005 |             0 |                0 |          493968 |                     0 |        198958 | 2017-02-04 22:55:19.380096+01

 2017-02-05 01:23:21.001785+01 | 1486254201.00179 |                 0 |              30 |                 46373 |                 1900 |            5506005 |             0 |                0 |          493968 |                     0 |        198958 | 2017-02-04 22:55:19.380096+01

 2017-02-05 01:23:22.091659+01 | 1486254202.09166 |                 0 |              30 |                 46373 |                 1900 |            5506005 |             0 |                0 |          493968 |                     0 |        198958 | 2017-02-04 22:55:19.380096+01

 2017-02-05 01:23:23.180274+01 | 1486254203.18027 |                 0 |              30 |                 46373 |                 1900 |            5506005 |             0 |                0 |          493968 |                     0 |        198958 | 2017-02-04 22:55:19.380096+01

 2017-02-05 01:23:24.255511+01 | 1486254204.25551 |                 0 |              30 |                 46373 |                 1900 |            5506005 |             0 |                0 |          493968 |                     0 |        198958 | 2017-02-04 22:55:19.380096+01

 2017-02-05 01:23:25.332733+01 | 1486254205.33273 |                 0 |              30 |                 46373 |                 1900 |            5506005 |             0 |                0 |          493968 |                     0 |        198958 | 2017-02-04 22:55:19.380096+01

 2017-02-05 01:23:26.423254+01 | 1486254206.42325 |                 0 |              30 |                 46373 |                 1900 |            5506005 |             0 |                0 |          493968 |                     0 |        198958 | 2017-02-04 22:55:19.380096+01

 2017-02-05 01:23:27.513253+01 | 1486254207.51325 |                 0 |              30 |                 46373 |                 1900 |            5506005 |             0 |                0 |          493968 |                     0 |        198958 | 2017-02-04 22:55:19.380096+01

 2017-02-05 01:23:28.598563+01 | 1486254208.59856 |                 0 |              30 |                 46373 |                 1900 |            5506005 |             0 |                0 |          493968 |                     0 |        198958 | 2017-02-04 22:55:19.380096+01

 2017-02-05 01:23:29.681757+01 | 1486254209.68176 |                 0 |              30 |                 46373 |                 1900 |            5506005 |             0 |                0 |          493968 |                     0 |        198958 | 2017-02-04 22:55:19.380096+01

 2017-02-05 01:23:30.76287+01 | 1486254210.76287 |                 0 |              30 |                 46373 |                 1900 |            5506005 |             0 |                0 |          493968 |                     0 |        198958 | 2017-02-04 22:55:19.380096+01

 2017-02-05 01:23:31.854675+01 | 1486254211.85468 |                 0 |              30 |                 46373 |                 1900 |            5506005 |             0 |                0 |          493968 |                     0 |        198958 | 2017-02-04 22:55:19.380096+01

 2017-02-05 01:23:32.932406+01 | 1486254212.93241 |                 0 |              30 |                 46373 |                 1900 |            5506005 |             0 |                0 |          493968 |                     0 |        198958 | 2017-02-04 22:55:19.380096+01

 2017-02-05 01:23:34.008126+01 | 1486254214.00813 |                 0 |              30 |                 46373 |                 1900 |            5506005 |             0 |                0 |          493968 |                     0 |        198958 | 2017-02-04 22:55:19.380096+01

 2017-02-05 01:23:35.093072+01 | 1486254215.09307 |                 0 |              30 |                 46373 |                 1900 |            5506005 |             0 |                0 |          493968 |                     0 |        198958 | 2017-02-04 22:55:19.380096+01

 2017-02-05 01:23:36.184674+01 | 1486254216.18467 |                 0 |              30 |                 46373 |                 1900 |            5506005 |             0 |                0 |          493968 |                     0 |        198958 | 2017-02-04 22:55:19.380096+01

 2017-02-05 01:23:37.26006+01 | 1486254217.26006 |                 0 |              30 |                 46373 |                 1900 |            5506005 |             0 |                0 |          493968 |                     0 |        198958 | 2017-02-04 22:55:19.380096+01

 2017-02-05 01:23:38.347581+01 | 1486254218.34758 |                 0 |              30 |                 46373 |                 1900 |            5506005 |             0 |                0 |          493968 |                     0 |        198958 | 2017-02-04 22:55:19.380096+01

 2017-02-05 01:23:39.434335+01 | 1486254219.43433 |                 0 |              30 |                 46373 |                 1900 |            5506005 |             0 |                0 |          493968 |                     0 |        198958 | 2017-02-04 22:55:19.380096+01

 2017-02-05 01:23:40.524718+01 | 1486254220.52472 |                 0 |              30 |                 46373 |                 1900 |            5506005 |             0 |                0 |          493968 |                     0 |        198958 | 2017-02-04 22:55:19.380096+01

 2017-02-05 01:23:41.60426+01 | 1486254221.60426 |                 0 |              30 |                 46373 |                 1900 |            5506005 |             0 |                0 |          493968 |                     0 |        198958 | 2017-02-04 22:55:19.380096+01

 2017-02-05 01:23:42.697547+01 | 1486254222.69755 |                 0 |              30 |                 46373 |                 1900 |            5506005 |             0 |                0 |          493968 |                     0 |        198958 | 2017-02-04 22:55:19.380096+01

 2017-02-05 01:23:43.777987+01 | 1486254223.77799 |                 0 |              30 |                 46373 |                 1900 |            5506005 |             0 |                0 |          493968 |                     0 |        198958 | 2017-02-04 22:55:19.380096+01

 2017-02-05 01:23:44.863869+01 | 1486254224.86387 |                 0 |              30 |                 46373 |                 1900 |            5506005 |             0 |                0 |          493968 |                     0 |        198958 | 2017-02-04 22:55:19.380096+01

 2017-02-05 01:23:45.945579+01 | 1486254225.94558 |                 0 |              30 |                 46373 |                 1900 |            5506005 |             0 |                0 |          493968 |                     0 |        198958 | 2017-02-04 22:55:19.380096+01

 2017-02-05 01:23:47.030373+01 | 1486254227.03037 |                 0 |              30 |                 46373 |                 1900 |            5506005 |             0 |                0 |          493968 |                     0 |        198958 | 2017-02-04 22:55:19.380096+01

 2017-02-05 01:23:48.120044+01 | 1486254228.12004 |                 0 |              30 |                 46373 |                 1900 |            5506005 |             0 |                0 |          493968 |                     0 |        198958 | 2017-02-04 22:55:19.380096+01

 2017-02-05 01:23:49.202829+01 | 1486254229.20283 |                 0 |              30 |                 46373 |                 1900 |            5506005 |             0 |                0 |          493968 |                     0 |        198958 | 2017-02-04 22:55:19.380096+01

 2017-02-05 01:23:50.293836+01 | 1486254230.29384 |                 0 |              30 |                 46373 |                 1900 |            5506005 |             0 |                0 |          493968 |                     0 |        198958 | 2017-02-04 22:55:19.380096+01

 2017-02-05 01:23:51.374935+01 | 1486254231.37493 |                 0 |              30 |                 46373 |                 1900 |            5506005 |             0 |                0 |          493968 |                     0 |        198958 | 2017-02-04 22:55:19.380096+01

 2017-02-05 01:23:52.451681+01 | 1486254232.45168 |                 0 |              30 |                 46373 |                 1900 |            5506005 |             0 |                0 |          493968 |                     0 |        198958 | 2017-02-04 22:55:19.380096+01

 2017-02-05 01:23:53.530675+01 | 1486254233.53067 |                 0 |              30 |                 46373 |                 1900 |            5506005 |             0 |                0 |          493968 |                     0 |        198958 | 2017-02-04 22:55:19.380096+01

 2017-02-05 01:23:54.625824+01 | 1486254234.62582 |                 0 |              30 |                 46373 |                 1900 |            5506005 |             0 |                0 |          493968 |                     0 |        198958 | 2017-02-04 22:55:19.380096+01

 2017-02-05 01:23:55.717462+01 | 1486254235.71746 |                 0 |              30 |                 46373 |                 1900 |            5506005 |             0 |                0 |          493968 |                     0 |        198958 | 2017-02-04 22:55:19.380096+01

 2017-02-05 01:23:56.807023+01 | 1486254236.80702 |                 0 |              30 |                 46373 |                 1900 |            5506005 |             0 |                0 |          493968 |                     0 |        198958 | 2017-02-04 22:55:19.380096+01

 2017-02-05 01:23:57.879809+01 | 1486254237.87981 |                 0 |              30 |                 46373 |                 1900 |            5506005 |             0 |                0 |          493968 |                     0 |        198958 | 2017-02-04 22:55:19.380096+01

 2017-02-05 01:23:58.971763+01 | 1486254238.97176 |                 0 |              30 |                 46373 |                 1900 |            5506005 |             0 |                0 |          493968 |                     0 |        198958 | 2017-02-04 22:55:19.380096+01

 2017-02-05 01:24:00.048202+01 | 1486254240.0482 |                 0 |              30 |                 46373 |                 1900 |            5506005 |             0 |                0 |          493968 |                     0 |        198958 | 2017-02-04 22:55:19.380096+01

 2017-02-05 01:24:01.137001+01 | 1486254241.137 |                 0 |              30 |                 46373 |                 1900 |            5506005 |             0 |                0 |          493968 |                     0 |        198958 | 2017-02-04 22:55:19.380096+01

 2017-02-05 01:24:02.224168+01 | 1486254242.22417 |                 0 |              30 |                 46373 |                 1900 |            5506005 |             0 |                0 |          493968 |                     0 |        198958 | 2017-02-04 22:55:19.380096+01

 2017-02-05 01:24:03.304601+01 | 1486254243.3046 |                 0 |              30 |                 46373 |                 1900 |            5506005 |             0 |                0 |          493968 |                     0 |        198958 | 2017-02-04 22:55:19.380096+01

 2017-02-05 01:24:04.391512+01 | 1486254244.39151 |                 0 |              30 |                 46373 |                 1900 |            5506005 |             0 |                0 |          493968 |                     0 |        198958 | 2017-02-04 22:55:19.380096+01

 2017-02-05 01:24:05.477622+01 | 1486254245.47762 |                 0 |              30 |                 46373 |                 1900 |            5506005 |             0 |                0 |          493968 |                     0 |        198958 | 2017-02-04 22:55:19.380096+01

 2017-02-05 01:24:06.562686+01 | 1486254246.56269 |                 0 |              30 |                 46373 |                 1900 |            5506005 |             0 |                0 |          493968 |                     0 |        198958 | 2017-02-04 22:55:19.380096+01

 2017-02-05 01:24:07.649683+01 | 1486254247.64968 |                 0 |              30 |                 46373 |                 1900 |            5506005 |             0 |                0 |          493968 |                     0 |        198958 | 2017-02-04 22:55:19.380096+01

 2017-02-05 01:24:08.730547+01 | 1486254248.73055 |                 0 |              30 |                 46373 |                 1900 |            5506005 |             0 |                0 |          493968 |                     0 |        198958 | 2017-02-04 22:55:19.380096+01

 2017-02-05 01:24:09.818958+01 | 1486254249.81896 |                 0 |              30 |                 46373 |                 1900 |            5506005 |             0 |                0 |          493968 |                     0 |        198958 | 2017-02-04 22:55:19.380096+01

 2017-02-05 01:24:10.904086+01 | 1486254250.90409 |                 0 |              30 |                 46373 |                 1900 |            5506005 |             0 |                0 |          493968 |                     0 |        198958 | 2017-02-04 22:55:19.380096+01

 2017-02-05 01:24:11.98064+01 | 1486254251.98064 |                 0 |              30 |                 46373 |                 1900 |            5506005 |             0 |                0 |          493968 |                     0 |        198958 | 2017-02-04 22:55:19.380096+01

 2017-02-05 01:24:13.061751+01 | 1486254253.06175 |                 0 |              30 |                 46373 |                 1900 |            5506005 |             0 |                0 |          493968 |                     0 |        198958 | 2017-02-04 22:55:19.380096+01

 2017-02-05 01:24:14.143019+01 | 1486254254.14302 |                 0 |              30 |                 46373 |                 1900 |            5506005 |             0 |                0 |          493968 |                     0 |        198958 | 2017-02-04 22:55:19.380096+01

 2017-02-05 01:24:15.233781+01 | 1486254255.23378 |                 0 |              30 |                 46373 |                 1900 |            5506005 |             0 |                0 |          493968 |                     0 |        198958 | 2017-02-04 22:55:19.380096+01

 2017-02-05 01:24:16.313462+01 | 1486254256.31346 |                 0 |              30 |                 46373 |                 1900 |            5506005 |             0 |                0 |          493968 |                     0 |        198958 | 2017-02-04 22:55:19.380096+01

 2017-02-05 01:24:17.396482+01 | 1486254257.39648 |                 0 |              30 |                 46373 |                 1900 |            5506005 |             0 |                0 |          493968 |                     0 |        198958 | 2017-02-04 22:55:19.380096+01

 2017-02-05 01:24:18.479166+01 | 1486254258.47917 |                 0 |              30 |                 46373 |                 1900 |            5506005 |             0 |                0 |          493968 |                     0 |        198958 | 2017-02-04 22:55:19.380096+01

 2017-02-05 01:24:19.561049+01 | 1486254259.56105 |                 0 |              30 |                 46373 |                 1900 |            5506005 |             0 |                0 |          493968 |                     0 |        198958 | 2017-02-04 22:55:19.380096+01

 2017-02-05 01:24:20.645266+01 | 1486254260.64527 |                 0 |              30 |                 46373 |                 1900 |            5506005 |             0 |                0 |          493968 |                     0 |        198958 | 2017-02-04 22:55:19.380096+01

 2017-02-05 01:24:21.724535+01 | 1486254261.72453 |                 0 |              30 |                 46373 |                 1900 |            5506005 |             0 |                0 |          493968 |                     0 |        198958 | 2017-02-04 22:55:19.380096+01

 2017-02-05 01:24:22.809411+01 | 1486254262.80941 |                 0 |              30 |                 46373 |                 1900 |            5506005 |             0 |                0 |          493968 |                     0 |        198958 | 2017-02-04 22:55:19.380096+01

 2017-02-05 01:24:23.897324+01 | 1486254263.89732 |                 0 |              30 |                 46373 |                 1900 |            5506005 |             0 |                0 |          493968 |                     0 |        198958 | 2017-02-04 22:55:19.380096+01

 2017-02-05 01:24:24.971357+01 | 1486254264.97136 |                 0 |              30 |                 46373 |                 1900 |            5506005 |             0 |                0 |          493968 |                     0 |        198958 | 2017-02-04 22:55:19.380096+01

 2017-02-05 01:24:26.04919+01 | 1486254266.04919 |                 0 |              30 |                 46373 |                 1900 |            5506005 |             0 |                0 |          493968 |                     0 |        198958 | 2017-02-04 22:55:19.380096+01

 2017-02-05 01:24:27.130051+01 | 1486254267.13005 |                 0 |              30 |                 46373 |                 1900 |            5506005 |             0 |                0 |          493968 |                     0 |        198958 | 2017-02-04 22:55:19.380096+01

 2017-02-05 01:24:28.215868+01 | 1486254268.21587 |                 0 |              30 |                 46373 |                 1900 |            5506005 |             0 |                0 |          493968 |                     0 |        198958 | 2017-02-04 22:55:19.380096+01

 2017-02-05 01:24:29.299645+01 | 1486254269.29964 |                 0 |              30 |                 46373 |                 1900 |            5506005 |             0 |                0 |          493968 |                     0 |        198958 | 2017-02-04 22:55:19.380096+01

 2017-02-05 01:24:30.381637+01 | 1486254270.38164 |                 0 |              30 |                 46373 |                 1900 |            5506005 |             0 |                0 |          493968 |                     0 |        198958 | 2017-02-04 22:55:19.380096+01

 2017-02-05 01:24:31.467606+01 | 1486254271.46761 |                 0 |              30 |                 46373 |                 1900 |            5506005 |             0 |                0 |          493968 |                     0 |        198958 | 2017-02-04 22:55:19.380096+01

 2017-02-05 01:24:32.547936+01 | 1486254272.54794 |                 0 |              30 |                 46373 |                 1900 |            5506005 |             0 |                0 |          493968 |                     0 |        198958 | 2017-02-04 22:55:19.380096+01

 2017-02-05 01:24:33.63219+01 | 1486254273.63219 |                 0 |              30 |                 46373 |                 1900 |            5506005 |             0 |                0 |          493968 |                     0 |        198958 | 2017-02-04 22:55:19.380096+01

 2017-02-05 01:24:34.708848+01 | 1486254274.70885 |                 0 |              30 |                 46373 |                 1900 |            5506005 |             0 |                0 |          493968 |                     0 |        198958 | 2017-02-04 22:55:19.380096+01

 2017-02-05 01:24:35.781823+01 | 1486254275.78182 |                 0 |              30 |                 46373 |                 1900 |            5506005 |             0 |                0 |          493968 |                     0 |        198958 | 2017-02-04 22:55:19.380096+01

 2017-02-05 01:24:36.862819+01 | 1486254276.86282 |                 0 |              30 |                 46373 |                 1900 |            5506005 |             0 |                0 |          493968 |                     0 |        198958 | 2017-02-04 22:55:19.380096+01

 2017-02-05 01:24:37.943139+01 | 1486254277.94314 |                 0 |              30 |                 46373 |                 1900 |            5506005 |             0 |                0 |          493968 |                     0 |        198958 | 2017-02-04 22:55:19.380096+01

 2017-02-05 01:24:39.017211+01 | 1486254279.01721 |                 0 |              30 |                 46373 |                 1900 |            5506005 |             0 |                0 |          493968 |                     0 |        198958 | 2017-02-04 22:55:19.380096+01

 2017-02-05 01:24:40.099473+01 | 1486254280.09947 |                 0 |              30 |                 46373 |                 1900 |            5506005 |             0 |                0 |          493968 |                     0 |        198958 | 2017-02-04 22:55:19.380096+01

 2017-02-05 01:24:41.180424+01 | 1486254281.18042 |                 0 |              30 |                 46373 |                 1900 |            5506005 |             0 |                0 |          493968 |                     0 |        198958 | 2017-02-04 22:55:19.380096+01

 2017-02-05 01:24:42.267601+01 | 1486254282.2676 |                 0 |              30 |                 46373 |                 1900 |            5506005 |             0 |                0 |          493968 |                     0 |        198958 | 2017-02-04 22:55:19.380096+01

 2017-02-05 01:24:43.358716+01 | 1486254283.35872 |                 0 |              30 |                 46373 |                 1900 |            5506005 |             0 |                0 |          493968 |                     0 |        198958 | 2017-02-04 22:55:19.380096+01

 2017-02-05 01:24:44.445565+01 | 1486254284.44556 |                 0 |              30 |                 46373 |                 1900 |            5506005 |             0 |                0 |          493968 |                     0 |        198958 | 2017-02-04 22:55:19.380096+01

 2017-02-05 01:24:45.532459+01 | 1486254285.53246 |                 0 |              30 |                 46373 |                 1900 |            5506005 |             0 |                0 |          493968 |                     0 |        198958 | 2017-02-04 22:55:19.380096+01

 2017-02-05 01:24:46.619297+01 | 1486254286.6193 |                 0 |              30 |                 46373 |                 1900 |            5506005 |             0 |                0 |          493968 |                     0 |        198958 | 2017-02-04 22:55:19.380096+01

 2017-02-05 01:24:47.704808+01 | 1486254287.70481 |                 0 |              30 |                 46373 |                 1900 |            5506005 |             0 |                0 |          493968 |                     0 |        198958 | 2017-02-04 22:55:19.380096+01

 2017-02-05 01:24:48.797044+01 | 1486254288.79704 |                 0 |              30 |                 46373 |                 1900 |            5506005 |             0 |                0 |          493968 |                     0 |        198958 | 2017-02-04 22:55:19.380096+01

 2017-02-05 01:24:49.884756+01 | 1486254289.88476 |                 0 |              30 |                 46373 |                 1900 |            5506005 |             0 |                0 |          493968 |                     0 |        198958 | 2017-02-04 22:55:19.380096+01

 2017-02-05 01:24:50.968178+01 | 1486254290.96818 |                 0 |              30 |                 46373 |                 1900 |            5506005 |             0 |                0 |          493968 |                     0 |        198958 | 2017-02-04 22:55:19.380096+01

 2017-02-05 01:24:52.041717+01 | 1486254292.04172 |                 0 |              30 |                 46373 |                 1900 |            5506005 |             0 |                0 |          493968 |                     0 |        198958 | 2017-02-04 22:55:19.380096+01

 2017-02-05 01:24:53.129264+01 | 1486254293.12926 |                 0 |              30 |                 46373 |                 1900 |            5506005 |             0 |                0 |          493968 |                     0 |        198958 | 2017-02-04 22:55:19.380096+01

 2017-02-05 01:24:54.214245+01 | 1486254294.21425 |                 0 |              30 |                 46373 |                 1900 |            5506005 |             0 |                0 |          493968 |                     0 |        198958 | 2017-02-04 22:55:19.380096+01

 2017-02-05 01:24:55.302901+01 | 1486254295.3029 |                 0 |              30 |                 46373 |                 1900 |            5506005 |             0 |                0 |          493968 |                     0 |        198958 | 2017-02-04 22:55:19.380096+01

 2017-02-05 01:24:56.388521+01 | 1486254296.38852 |                 0 |              30 |                 46373 |                 1900 |            5506005 |             0 |                0 |          493968 |                     0 |        198958 | 2017-02-04 22:55:19.380096+01

 2017-02-05 01:24:57.466081+01 | 1486254297.46608 |                 0 |              30 |                 46373 |                 1900 |            5506005 |             0 |                0 |          493968 |                     0 |        198958 | 2017-02-04 22:55:19.380096+01

 2017-02-05 01:24:58.555477+01 | 1486254298.55548 |                 0 |              30 |                 46373 |                 1900 |            5506005 |             0 |                0 |          493968 |                     0 |        198958 | 2017-02-04 22:55:19.380096+01

 2017-02-05 01:24:59.639686+01 | 1486254299.63969 |                 0 |              30 |                 46373 |                 1900 |            5506005 |             0 |                0 |          493968 |                     0 |        198958 | 2017-02-04 22:55:19.380096+01

 2017-02-05 01:25:00.720977+01 | 1486254300.72098 |                 0 |              30 |                 46373 |                 1900 |            5506005 |             0 |                0 |          493968 |                     0 |        198958 | 2017-02-04 22:55:19.380096+01

 2017-02-05 01:25:01.811962+01 | 1486254301.81196 |                 0 |              30 |                 46373 |                 1900 |            5506005 |             0 |                0 |          493968 |                     0 |        198958 | 2017-02-04 22:55:19.380096+01

 2017-02-05 01:25:02.896096+01 | 1486254302.8961 |                 0 |              30 |                 46373 |                 1900 |            5506005 |             0 |                0 |          493968 |                     0 |        198958 | 2017-02-04 22:55:19.380096+01

 2017-02-05 01:25:03.978049+01 | 1486254303.97805 |                 0 |              30 |                 46373 |                 1900 |            5506005 |             0 |                0 |          493968 |                     0 |        198958 | 2017-02-04 22:55:19.380096+01

 2017-02-05 01:25:05.052046+01 | 1486254305.05205 |                 0 |              30 |                 46373 |                 1900 |            5506005 |             0 |                0 |          493968 |                     0 |        198958 | 2017-02-04 22:55:19.380096+01

 2017-02-05 01:25:06.136012+01 | 1486254306.13601 |                 0 |              30 |                 46373 |                 1900 |            5506005 |             0 |                0 |          493968 |                     0 |        198958 | 2017-02-04 22:55:19.380096+01

 2017-02-05 01:25:07.224776+01 | 1486254307.22478 |                 0 |              30 |                 46373 |                 1900 |            5506005 |             0 |                0 |          493968 |                     0 |        198958 | 2017-02-04 22:55:19.380096+01

 2017-02-05 01:25:08.305565+01 | 1486254308.30557 |                 0 |              30 |                 46373 |                 1900 |            5506005 |             0 |                0 |          493968 |                     0 |        198958 | 2017-02-04 22:55:19.380096+01

 2017-02-05 01:25:09.389083+01 | 1486254309.38908 |                 0 |              30 |                 46373 |                 1900 |            5506005 |             0 |                0 |          493968 |                     0 |        198958 | 2017-02-04 22:55:19.380096+01

 2017-02-05 01:25:10.47114+01 | 1486254310.47114 |                 0 |              30 |                 46373 |                 1900 |            5506005 |             0 |                0 |          493968 |                     0 |        198958 | 2017-02-04 22:55:19.380096+01

 2017-02-05 01:25:11.556452+01 | 1486254311.55645 |                 0 |              30 |                 46373 |                 1900 |            5506005 |             0 |                0 |          493968 |                     0 |        198958 | 2017-02-04 22:55:19.380096+01

 2017-02-05 01:25:12.635034+01 | 1486254312.63503 |                 0 |              30 |                 46373 |                 1900 |            5506005 |             0 |                0 |          493968 |                     0 |        198958 | 2017-02-04 22:55:19.380096+01

 2017-02-05 01:25:13.720487+01 | 1486254313.72049 |                 0 |              30 |                 46373 |                 1900 |            5506005 |             0 |                0 |          493968 |                     0 |        198958 | 2017-02-04 22:55:19.380096+01

 2017-02-05 01:25:14.80752+01 | 1486254314.80752 |                 0 |              30 |                 46373 |                 1900 |            5506005 |             0 |                0 |          493968 |                     0 |        198958 | 2017-02-04 22:55:19.380096+01

 2017-02-05 01:25:15.891808+01 | 1486254315.89181 |                 0 |              30 |                 46373 |                 1900 |            5506005 |             0 |                0 |          493968 |                     0 |        198958 | 2017-02-04 22:55:19.380096+01

 2017-02-05 01:25:16.979532+01 | 1486254316.97953 |                 0 |              30 |                 46373 |                 1900 |            5506005 |             0 |                0 |          493968 |                     0 |        198958 | 2017-02-04 22:55:19.380096+01

 2017-02-05 01:25:18.055978+01 | 1486254318.05598 |                 0 |              30 |                 46373 |                 1900 |            5506005 |             0 |                0 |          493968 |                     0 |        198958 | 2017-02-04 22:55:19.380096+01

 2017-02-05 01:25:19.137931+01 | 1486254319.13793 |                 0 |              30 |                 46373 |                 1900 |            5506005 |             0 |                0 |          493968 |                     0 |        198958 | 2017-02-04 22:55:19.380096+01

 2017-02-05 01:25:20.224595+01 | 1486254320.2246 |                 0 |              30 |                 46373 |                 1900 |            5506005 |             0 |                0 |          493968 |                     0 |        198958 | 2017-02-04 22:55:19.380096+01

 2017-02-05 01:25:21.307508+01 | 1486254321.30751 |                 0 |              30 |                 46373 |                 1900 |            5506005 |             0 |                0 |          493968 |                     0 |        198958 | 2017-02-04 22:55:19.380096+01

 2017-02-05 01:25:22.385536+01 | 1486254322.38554 |                 0 |              30 |                 46373 |                 1900 |            5506005 |             0 |                0 |          493968 |                     0 |        198958 | 2017-02-04 22:55:19.380096+01

 2017-02-05 01:25:23.474552+01 | 1486254323.47455 |                 0 |              30 |                 46373 |                 1900 |            5506005 |             0 |                0 |          493968 |                     0 |        198958 | 2017-02-04 22:55:19.380096+01

 2017-02-05 01:25:24.556048+01 | 1486254324.55605 |                 0 |              30 |                 46373 |                 1900 |            5506005 |             0 |                0 |          493968 |                     0 |        198958 | 2017-02-04 22:55:19.380096+01

 2017-02-05 01:25:25.6427+01 | 1486254325.6427 |                 0 |              30 |                 46373 |                 1900 |            5506005 |             0 |                0 |          493968 |                     0 |        198958 | 2017-02-04 22:55:19.380096+01

 2017-02-05 01:25:26.723098+01 | 1486254326.7231 |                 0 |              30 |                 46373 |                 1900 |            5506005 |             0 |                0 |          493968 |                     0 |        198958 | 2017-02-04 22:55:19.380096+01

 2017-02-05 01:25:27.808198+01 | 1486254327.8082 |                 0 |              30 |                 46373 |                 1900 |            5506005 |             0 |                0 |          493968 |                     0 |        198958 | 2017-02-04 22:55:19.380096+01

 2017-02-05 01:25:28.893595+01 | 1486254328.89359 |                 0 |              30 |                 46373 |                 1900 |            5506005 |             0 |                0 |          493968 |                     0 |        198958 | 2017-02-04 22:55:19.380096+01

 2017-02-05 01:25:29.972079+01 | 1486254329.97208 |                 0 |              30 |                 46373 |                 1900 |            5506005 |             0 |                0 |          493968 |                     0 |        198958 | 2017-02-04 22:55:19.380096+01

 2017-02-05 01:25:31.048301+01 | 1486254331.0483 |                 0 |              30 |                 46373 |                 1900 |            5506005 |             0 |                0 |          493968 |                     0 |        198958 | 2017-02-04 22:55:19.380096+01

 2017-02-05 01:25:32.125364+01 | 1486254332.12536 |                 0 |              30 |                 46373 |                 1900 |            5506005 |             0 |                0 |          493968 |                     0 |        198958 | 2017-02-04 22:55:19.380096+01

 2017-02-05 01:25:33.211857+01 | 1486254333.21186 |                 0 |              30 |                 46373 |                 1900 |            5506005 |             0 |                0 |          493968 |                     0 |        198958 | 2017-02-04 22:55:19.380096+01

 2017-02-05 01:25:34.302979+01 | 1486254334.30298 |                 0 |              30 |                 46373 |                 1900 |            5506005 |             0 |                0 |          493968 |                     0 |        198958 | 2017-02-04 22:55:19.380096+01

 2017-02-05 01:25:35.387023+01 | 1486254335.38702 |                 0 |              30 |                 46373 |                 1900 |            5506005 |             0 |                0 |          493968 |                     0 |        198958 | 2017-02-04 22:55:19.380096+01

 2017-02-05 01:25:36.470062+01 | 1486254336.47006 |                 0 |              30 |                 46373 |                 1900 |            5506005 |             0 |                0 |          493968 |                     0 |        198958 | 2017-02-04 22:55:19.380096+01

 2017-02-05 01:25:37.557075+01 | 1486254337.55708 |                 0 |              30 |                 46373 |                 1900 |            5506005 |             0 |                0 |          493968 |                     0 |        198958 | 2017-02-04 22:55:19.380096+01

 2017-02-05 01:25:38.643244+01 | 1486254338.64324 |                 0 |              30 |                 46373 |                 1900 |            5506005 |             0 |                0 |          493968 |                     0 |        198958 | 2017-02-04 22:55:19.380096+01

 2017-02-05 01:25:39.723228+01 | 1486254339.72323 |                 0 |              30 |                 46373 |                 1900 |            5506005 |             0 |                0 |          493968 |                     0 |        198958 | 2017-02-04 22:55:19.380096+01

 2017-02-05 01:25:40.807746+01 | 1486254340.80775 |                 0 |              30 |                 46373 |                 1900 |            5506005 |             0 |                0 |          493968 |                     0 |        198958 | 2017-02-04 22:55:19.380096+01

 2017-02-05 01:25:41.890395+01 | 1486254341.89039 |                 0 |              30 |                 46373 |                 1900 |            5506005 |             0 |                0 |          493968 |                     0 |        198958 | 2017-02-04 22:55:19.380096+01

 2017-02-05 01:25:42.983283+01 | 1486254342.98328 |                 0 |              30 |                 46373 |                 1900 |            5506005 |             0 |                0 |          493968 |                     0 |        198958 | 2017-02-04 22:55:19.380096+01

 2017-02-05 01:25:44.064823+01 | 1486254344.06482 |                 0 |              30 |                 46373 |                 1900 |            5506005 |             0 |                0 |          493968 |                     0 |        198958 | 2017-02-04 22:55:19.380096+01

 2017-02-05 01:25:45.142155+01 | 1486254345.14215 |                 0 |              30 |                 46373 |                 1900 |            5506005 |             0 |                0 |          493968 |                     0 |        198958 | 2017-02-04 22:55:19.380096+01

 2017-02-05 01:25:46.231283+01 | 1486254346.23128 |                 0 |              30 |                 46373 |                 1900 |            5506005 |             0 |                0 |          493968 |                     0 |        198958 | 2017-02-04 22:55:19.380096+01

 2017-02-05 01:25:47.315717+01 | 1486254347.31572 |                 0 |              30 |                 46373 |                 1900 |            5506005 |             0 |                0 |          493968 |                     0 |        198958 | 2017-02-04 22:55:19.380096+01

 2017-02-05 01:25:48.402501+01 | 1486254348.4025 |                 0 |              30 |                 46373 |                 1900 |            5506005 |             0 |                0 |          493968 |                     0 |        198958 | 2017-02-04 22:55:19.380096+01

 2017-02-05 01:25:49.485505+01 | 1486254349.48551 |                 0 |              30 |                 46373 |                 1900 |            5506005 |             0 |                0 |          493968 |                     0 |        198958 | 2017-02-04 22:55:19.380096+01

 2017-02-05 01:25:50.565486+01 | 1486254350.56549 |                 0 |              30 |                 46373 |                 1900 |            5506005 |             0 |                0 |          493968 |                     0 |        198958 | 2017-02-04 22:55:19.380096+01

 2017-02-05 01:25:51.645093+01 | 1486254351.64509 |                 0 |              30 |                 46373 |                 1900 |            5506005 |             0 |                0 |          493968 |                     0 |        198958 | 2017-02-04 22:55:19.380096+01

 2017-02-05 01:25:52.727347+01 | 1486254352.72735 |                 0 |              30 |                 46373 |                 1900 |            5506005 |             0 |                0 |          493968 |                     0 |        198958 | 2017-02-04 22:55:19.380096+01

 2017-02-05 01:25:53.808598+01 | 1486254353.8086 |                 0 |              30 |                 46373 |                 1900 |            5506005 |             0 |                0 |          493968 |                     0 |        198958 | 2017-02-04 22:55:19.380096+01

 2017-02-05 01:25:54.899801+01 | 1486254354.8998 |                 0 |              30 |                 46373 |                 1900 |            5506005 |             0 |                0 |          493968 |                     0 |        198958 | 2017-02-04 22:55:19.380096+01

 2017-02-05 01:25:55.98575+01 | 1486254355.98575 |                 0 |              30 |                 46373 |                 1900 |            5506005 |             0 |                0 |          493968 |                     0 |        198958 | 2017-02-04 22:55:19.380096+01

 2017-02-05 01:25:57.059697+01 | 1486254357.0597 |                 0 |              30 |                 46373 |                 1900 |            5506005 |             0 |                0 |          493968 |                     0 |        198958 | 2017-02-04 22:55:19.380096+01

 2017-02-05 01:25:58.138727+01 | 1486254358.13873 |                 0 |              30 |                 46373 |                 1900 |            5506005 |             0 |                0 |          493968 |                     0 |        198958 | 2017-02-04 22:55:19.380096+01

 2017-02-05 01:25:59.222141+01 | 1486254359.22214 |                 0 |              30 |                 46373 |                 1900 |            5506005 |             0 |                0 |          493968 |                     0 |        198958 | 2017-02-04 22:55:19.380096+01

 2017-02-05 01:26:00.300647+01 | 1486254360.30065 |                 0 |              30 |                 46373 |                 1900 |            5506005 |             0 |                0 |          493968 |                     0 |        198958 | 2017-02-04 22:55:19.380096+01

 2017-02-05 01:26:01.388904+01 | 1486254361.3889 |                 0 |              30 |                 46373 |                 1900 |            5506005 |             0 |                0 |          493968 |                     0 |        198958 | 2017-02-04 22:55:19.380096+01

 2017-02-05 01:26:02.481497+01 | 1486254362.4815 |                 0 |              30 |                 46373 |                 1900 |            5506005 |             0 |                0 |          493968 |                     0 |        198958 | 2017-02-04 22:55:19.380096+01

 2017-02-05 01:26:03.56273+01 | 1486254363.56273 |                 0 |              30 |                 46373 |                 1900 |            5506005 |             0 |                0 |          493968 |                     0 |        198958 | 2017-02-04 22:55:19.380096+01

 2017-02-05 01:26:04.639615+01 | 1486254364.63962 |                 0 |              30 |                 46373 |                 1900 |            5506005 |             0 |                0 |          493968 |                     0 |        198958 | 2017-02-04 22:55:19.380096+01

 2017-02-05 01:26:05.724986+01 | 1486254365.72499 |                 0 |              30 |                 46373 |                 1900 |            5506005 |             0 |                0 |          493968 |                     0 |        198958 | 2017-02-04 22:55:19.380096+01

 2017-02-05 01:26:06.827109+01 | 1486254366.82711 |                 0 |              30 |                 46373 |                 1900 |            5506005 |             0 |                0 |          493968 |                     0 |        198958 | 2017-02-04 22:55:19.380096+01

 2017-02-05 01:26:07.911195+01 | 1486254367.9112 |                 0 |              30 |                 46373 |                 1900 |            5506005 |             0 |                0 |          493968 |                     0 |        198958 | 2017-02-04 22:55:19.380096+01

 2017-02-05 01:26:08.994447+01 | 1486254368.99445 |                 0 |              30 |                 46373 |                 1900 |            5506005 |             0 |                0 |          493968 |                     0 |        198958 | 2017-02-04 22:55:19.380096+01

 2017-02-05 01:26:10.078969+01 | 1486254370.07897 |                 0 |              30 |                 46373 |                 1900 |            5506005 |             0 |                0 |          493968 |                     0 |        198958 | 2017-02-04 22:55:19.380096+01

 2017-02-05 01:26:11.157042+01 | 1486254371.15704 |                 0 |              30 |                 46373 |                 1900 |            5506005 |             0 |                0 |          493968 |                     0 |        198958 | 2017-02-04 22:55:19.380096+01

 2017-02-05 01:26:12.231953+01 | 1486254372.23195 |                 0 |              30 |                 46373 |                 1900 |            5506005 |             0 |                0 |          493968 |                     0 |        198958 | 2017-02-04 22:55:19.380096+01

 2017-02-05 01:26:13.315739+01 | 1486254373.31574 |                 0 |              30 |                 46373 |                 1900 |            5506005 |             0 |                0 |          493968 |                     0 |        198958 | 2017-02-04 22:55:19.380096+01

 2017-02-05 01:26:14.403376+01 | 1486254374.40338 |                 0 |              30 |                 46373 |                 1900 |            5506005 |             0 |                0 |          493968 |                     0 |        198958 | 2017-02-04 22:55:19.380096+01

 2017-02-05 01:26:15.487403+01 | 1486254375.4874 |                 0 |              30 |                 46373 |                 1900 |            5506005 |             0 |                0 |          493968 |                     0 |        198958 | 2017-02-04 22:55:19.380096+01

 2017-02-05 01:26:16.573393+01 | 1486254376.57339 |                 0 |              30 |                 46373 |                 1900 |            5506005 |             0 |                0 |          493968 |                     0 |        198958 | 2017-02-04 22:55:19.380096+01

 2017-02-05 01:26:17.662219+01 | 1486254377.66222 |                 0 |              30 |                 46373 |                 1900 |            5506005 |             0 |                0 |          493968 |                     0 |        198958 | 2017-02-04 22:55:19.380096+01

 2017-02-05 01:26:18.750595+01 | 1486254378.7506 |                 0 |              30 |                 46373 |                 1900 |            5506005 |             0 |                0 |          493968 |                     0 |        198958 | 2017-02-04 22:55:19.380096+01

 2017-02-05 01:26:19.834893+01 | 1486254379.83489 |                 0 |              30 |                 46373 |                 1900 |            5506005 |             0 |                0 |          493968 |                     0 |        198958 | 2017-02-04 22:55:19.380096+01

 2017-02-05 01:26:20.913883+01 | 1486254380.91388 |                 0 |              30 |                 46373 |                 1900 |            5506005 |             0 |                0 |          493968 |                     0 |        198958 | 2017-02-04 22:55:19.380096+01

 2017-02-05 01:26:22.000361+01 | 1486254382.00036 |                 0 |              30 |                 46373 |                 1900 |            5506005 |             0 |                0 |          493968 |                     0 |        198958 | 2017-02-04 22:55:19.380096+01

 2017-02-05 01:26:23.081642+01 | 1486254383.08164 |                 0 |              30 |                 46373 |                 1900 |            5506005 |             0 |                0 |          493968 |                     0 |        198958 | 2017-02-04 22:55:19.380096+01

 2017-02-05 01:26:24.156752+01 | 1486254384.15675 |                 0 |              30 |                 46373 |                 1900 |            5506005 |             0 |                0 |          493968 |                     0 |        198958 | 2017-02-04 22:55:19.380096+01

 2017-02-05 01:26:25.239918+01 | 1486254385.23992 |                 0 |              30 |                 46373 |                 1900 |            5506005 |             0 |                0 |          493968 |                     0 |        198958 | 2017-02-04 22:55:19.380096+01

 2017-02-05 01:26:26.328291+01 | 1486254386.32829 |                 0 |              30 |                 46373 |                 1900 |            5506005 |             0 |                0 |          493968 |                     0 |        198958 | 2017-02-04 22:55:19.380096+01

 2017-02-05 01:26:27.411094+01 | 1486254387.41109 |                 0 |              30 |                 46373 |                 1900 |            5506005 |             0 |                0 |          493968 |                     0 |        198958 | 2017-02-04 22:55:19.380096+01

 2017-02-05 01:26:28.506366+01 | 1486254388.50637 |                 0 |              30 |                 46373 |                 1900 |            5506005 |             0 |                0 |          493968 |                     0 |        198958 | 2017-02-04 22:55:19.380096+01

 2017-02-05 01:26:29.590176+01 | 1486254389.59018 |                 0 |              30 |                 46373 |                 1900 |            5506005 |             0 |                0 |          493968 |                     0 |        198958 | 2017-02-04 22:55:19.380096+01

 2017-02-05 01:26:30.673882+01 | 1486254390.67388 |                 0 |              30 |                 46373 |                 1900 |            5506005 |             0 |                0 |          493968 |                     0 |        198958 | 2017-02-04 22:55:19.380096+01

 2017-02-05 01:26:31.757023+01 | 1486254391.75702 |                 0 |              30 |                 46373 |                 1900 |            5506005 |             0 |                0 |          493968 |                     0 |        198958 | 2017-02-04 22:55:19.380096+01

 2017-02-05 01:26:32.83926+01 | 1486254392.83926 |                 0 |              30 |                 46373 |                 1900 |            5506005 |             0 |                0 |          493968 |                     0 |        198958 | 2017-02-04 22:55:19.380096+01

 2017-02-05 01:26:33.920459+01 | 1486254393.92046 |                 0 |              30 |                 46373 |                 1900 |            5506005 |             0 |                0 |          493968 |                     0 |        198958 | 2017-02-04 22:55:19.380096+01

 2017-02-05 01:26:35.005217+01 | 1486254395.00522 |                 0 |              30 |                 46373 |                 1900 |            5506005 |             0 |                0 |          493968 |                     0 |        198958 | 2017-02-04 22:55:19.380096+01

 2017-02-05 01:26:36.083365+01 | 1486254396.08336 |                 0 |              30 |                 46373 |                 1900 |            5506005 |             0 |                0 |          493968 |                     0 |        198958 | 2017-02-04 22:55:19.380096+01

 2017-02-05 01:26:37.160039+01 | 1486254397.16004 |                 0 |              30 |                 46373 |                 1900 |            5506005 |             0 |                0 |          493968 |                     0 |        198958 | 2017-02-04 22:55:19.380096+01

