 2017-02-05 01:21:37.91582+01 | 1486254097.91582 | pgbench_accounts |       1392427008
 2017-02-05 01:21:37.91582+01 | 1486254097.91582 | pgbench_tellers  |            49152
 2017-02-05 01:21:37.91582+01 | 1486254097.91582 | pgbench_history  |                0
 2017-02-05 01:21:37.91582+01 | 1486254097.91582 | pgbench_branches |             8192

 2017-02-05 01:21:39.003617+01 | 1486254099.00362 | pgbench_accounts |       1392427008
 2017-02-05 01:21:39.003617+01 | 1486254099.00362 | pgbench_tellers  |            49152
 2017-02-05 01:21:39.003617+01 | 1486254099.00362 | pgbench_history  |                0
 2017-02-05 01:21:39.003617+01 | 1486254099.00362 | pgbench_branches |             8192

 2017-02-05 01:21:40.096641+01 | 1486254100.09664 | pgbench_accounts |       1392427008
 2017-02-05 01:21:40.096641+01 | 1486254100.09664 | pgbench_tellers  |            49152
 2017-02-05 01:21:40.096641+01 | 1486254100.09664 | pgbench_history  |                0
 2017-02-05 01:21:40.096641+01 | 1486254100.09664 | pgbench_branches |             8192

 2017-02-05 01:21:41.183653+01 | 1486254101.18365 | pgbench_accounts |       1392427008
 2017-02-05 01:21:41.183653+01 | 1486254101.18365 | pgbench_tellers  |            49152
 2017-02-05 01:21:41.183653+01 | 1486254101.18365 | pgbench_history  |                0
 2017-02-05 01:21:41.183653+01 | 1486254101.18365 | pgbench_branches |             8192

 2017-02-05 01:21:42.269132+01 | 1486254102.26913 | pgbench_accounts |       1392427008
 2017-02-05 01:21:42.269132+01 | 1486254102.26913 | pgbench_tellers  |            49152
 2017-02-05 01:21:42.269132+01 | 1486254102.26913 | pgbench_history  |                0
 2017-02-05 01:21:42.269132+01 | 1486254102.26913 | pgbench_branches |             8192

 2017-02-05 01:21:43.356777+01 | 1486254103.35678 | pgbench_accounts |       1392427008
 2017-02-05 01:21:43.356777+01 | 1486254103.35678 | pgbench_tellers  |            49152
 2017-02-05 01:21:43.356777+01 | 1486254103.35678 | pgbench_history  |                0
 2017-02-05 01:21:43.356777+01 | 1486254103.35678 | pgbench_branches |             8192

 2017-02-05 01:21:44.445151+01 | 1486254104.44515 | pgbench_accounts |       1392427008
 2017-02-05 01:21:44.445151+01 | 1486254104.44515 | pgbench_tellers  |            49152
 2017-02-05 01:21:44.445151+01 | 1486254104.44515 | pgbench_history  |                0
 2017-02-05 01:21:44.445151+01 | 1486254104.44515 | pgbench_branches |             8192

 2017-02-05 01:21:45.533359+01 | 1486254105.53336 | pgbench_accounts |       1392427008
 2017-02-05 01:21:45.533359+01 | 1486254105.53336 | pgbench_tellers  |            49152
 2017-02-05 01:21:45.533359+01 | 1486254105.53336 | pgbench_history  |                0
 2017-02-05 01:21:45.533359+01 | 1486254105.53336 | pgbench_branches |             8192

 2017-02-05 01:21:46.623598+01 | 1486254106.6236 | pgbench_accounts |       1392427008
 2017-02-05 01:21:46.623598+01 | 1486254106.6236 | pgbench_tellers  |            49152
 2017-02-05 01:21:46.623598+01 | 1486254106.6236 | pgbench_history  |                0
 2017-02-05 01:21:46.623598+01 | 1486254106.6236 | pgbench_branches |             8192

 2017-02-05 01:21:47.708893+01 | 1486254107.70889 | pgbench_accounts |       1392427008
 2017-02-05 01:21:47.708893+01 | 1486254107.70889 | pgbench_tellers  |            49152
 2017-02-05 01:21:47.708893+01 | 1486254107.70889 | pgbench_history  |                0
 2017-02-05 01:21:47.708893+01 | 1486254107.70889 | pgbench_branches |             8192

 2017-02-05 01:21:48.795085+01 | 1486254108.79508 | pgbench_accounts |       1392427008
 2017-02-05 01:21:48.795085+01 | 1486254108.79508 | pgbench_tellers  |            49152
 2017-02-05 01:21:48.795085+01 | 1486254108.79508 | pgbench_history  |                0
 2017-02-05 01:21:48.795085+01 | 1486254108.79508 | pgbench_branches |             8192

 2017-02-05 01:21:49.871787+01 | 1486254109.87179 | pgbench_accounts |       1392427008
 2017-02-05 01:21:49.871787+01 | 1486254109.87179 | pgbench_tellers  |            49152
 2017-02-05 01:21:49.871787+01 | 1486254109.87179 | pgbench_history  |                0
 2017-02-05 01:21:49.871787+01 | 1486254109.87179 | pgbench_branches |             8192

 2017-02-05 01:21:50.94471+01 | 1486254110.94471 | pgbench_accounts |       1392427008
 2017-02-05 01:21:50.94471+01 | 1486254110.94471 | pgbench_tellers  |            49152
 2017-02-05 01:21:50.94471+01 | 1486254110.94471 | pgbench_history  |                0
 2017-02-05 01:21:50.94471+01 | 1486254110.94471 | pgbench_branches |             8192

 2017-02-05 01:21:52.037619+01 | 1486254112.03762 | pgbench_accounts |       1392427008
 2017-02-05 01:21:52.037619+01 | 1486254112.03762 | pgbench_tellers  |            49152
 2017-02-05 01:21:52.037619+01 | 1486254112.03762 | pgbench_history  |                0
 2017-02-05 01:21:52.037619+01 | 1486254112.03762 | pgbench_branches |             8192

 2017-02-05 01:21:53.126088+01 | 1486254113.12609 | pgbench_accounts |       1392427008
 2017-02-05 01:21:53.126088+01 | 1486254113.12609 | pgbench_tellers  |            49152
 2017-02-05 01:21:53.126088+01 | 1486254113.12609 | pgbench_history  |                0
 2017-02-05 01:21:53.126088+01 | 1486254113.12609 | pgbench_branches |             8192

 2017-02-05 01:21:54.205935+01 | 1486254114.20594 | pgbench_accounts |       1392427008
 2017-02-05 01:21:54.205935+01 | 1486254114.20594 | pgbench_tellers  |            49152
 2017-02-05 01:21:54.205935+01 | 1486254114.20594 | pgbench_history  |                0
 2017-02-05 01:21:54.205935+01 | 1486254114.20594 | pgbench_branches |             8192

 2017-02-05 01:21:55.293043+01 | 1486254115.29304 | pgbench_accounts |       1392427008
 2017-02-05 01:21:55.293043+01 | 1486254115.29304 | pgbench_tellers  |            49152
 2017-02-05 01:21:55.293043+01 | 1486254115.29304 | pgbench_history  |                0
 2017-02-05 01:21:55.293043+01 | 1486254115.29304 | pgbench_branches |             8192

 2017-02-05 01:21:56.381912+01 | 1486254116.38191 | pgbench_accounts |       1392427008
 2017-02-05 01:21:56.381912+01 | 1486254116.38191 | pgbench_tellers  |            49152
 2017-02-05 01:21:56.381912+01 | 1486254116.38191 | pgbench_history  |                0
 2017-02-05 01:21:56.381912+01 | 1486254116.38191 | pgbench_branches |             8192

 2017-02-05 01:21:57.45564+01 | 1486254117.45564 | pgbench_accounts |       1392427008
 2017-02-05 01:21:57.45564+01 | 1486254117.45564 | pgbench_tellers  |            49152
 2017-02-05 01:21:57.45564+01 | 1486254117.45564 | pgbench_history  |                0
 2017-02-05 01:21:57.45564+01 | 1486254117.45564 | pgbench_branches |             8192

 2017-02-05 01:21:58.552319+01 | 1486254118.55232 | pgbench_accounts |       1392427008
 2017-02-05 01:21:58.552319+01 | 1486254118.55232 | pgbench_tellers  |            49152
 2017-02-05 01:21:58.552319+01 | 1486254118.55232 | pgbench_history  |                0
 2017-02-05 01:21:58.552319+01 | 1486254118.55232 | pgbench_branches |             8192

 2017-02-05 01:21:59.644834+01 | 1486254119.64483 | pgbench_accounts |       1392427008
 2017-02-05 01:21:59.644834+01 | 1486254119.64483 | pgbench_tellers  |            49152
 2017-02-05 01:21:59.644834+01 | 1486254119.64483 | pgbench_history  |                0
 2017-02-05 01:21:59.644834+01 | 1486254119.64483 | pgbench_branches |             8192

 2017-02-05 01:22:00.739218+01 | 1486254120.73922 | pgbench_accounts |       1392427008
 2017-02-05 01:22:00.739218+01 | 1486254120.73922 | pgbench_tellers  |            49152
 2017-02-05 01:22:00.739218+01 | 1486254120.73922 | pgbench_history  |                0
 2017-02-05 01:22:00.739218+01 | 1486254120.73922 | pgbench_branches |             8192

 2017-02-05 01:22:01.819823+01 | 1486254121.81982 | pgbench_accounts |       1392427008
 2017-02-05 01:22:01.819823+01 | 1486254121.81982 | pgbench_tellers  |            49152
 2017-02-05 01:22:01.819823+01 | 1486254121.81982 | pgbench_history  |                0
 2017-02-05 01:22:01.819823+01 | 1486254121.81982 | pgbench_branches |             8192

 2017-02-05 01:22:02.90874+01 | 1486254122.90874 | pgbench_accounts |       1392427008
 2017-02-05 01:22:02.90874+01 | 1486254122.90874 | pgbench_tellers  |            49152
 2017-02-05 01:22:02.90874+01 | 1486254122.90874 | pgbench_history  |                0
 2017-02-05 01:22:02.90874+01 | 1486254122.90874 | pgbench_branches |             8192

 2017-02-05 01:22:03.997795+01 | 1486254123.9978 | pgbench_accounts |       1392427008
 2017-02-05 01:22:03.997795+01 | 1486254123.9978 | pgbench_tellers  |            49152
 2017-02-05 01:22:03.997795+01 | 1486254123.9978 | pgbench_history  |                0
 2017-02-05 01:22:03.997795+01 | 1486254123.9978 | pgbench_branches |             8192

 2017-02-05 01:22:05.085737+01 | 1486254125.08574 | pgbench_accounts |       1392427008
 2017-02-05 01:22:05.085737+01 | 1486254125.08574 | pgbench_tellers  |            49152
 2017-02-05 01:22:05.085737+01 | 1486254125.08574 | pgbench_history  |                0
 2017-02-05 01:22:05.085737+01 | 1486254125.08574 | pgbench_branches |             8192

 2017-02-05 01:22:06.176829+01 | 1486254126.17683 | pgbench_accounts |       1392427008
 2017-02-05 01:22:06.176829+01 | 1486254126.17683 | pgbench_tellers  |            49152
 2017-02-05 01:22:06.176829+01 | 1486254126.17683 | pgbench_history  |                0
 2017-02-05 01:22:06.176829+01 | 1486254126.17683 | pgbench_branches |             8192

 2017-02-05 01:22:07.260766+01 | 1486254127.26077 | pgbench_accounts |       1392427008
 2017-02-05 01:22:07.260766+01 | 1486254127.26077 | pgbench_tellers  |            49152
 2017-02-05 01:22:07.260766+01 | 1486254127.26077 | pgbench_history  |                0
 2017-02-05 01:22:07.260766+01 | 1486254127.26077 | pgbench_branches |             8192

 2017-02-05 01:22:08.350158+01 | 1486254128.35016 | pgbench_accounts |       1392427008
 2017-02-05 01:22:08.350158+01 | 1486254128.35016 | pgbench_tellers  |            49152
 2017-02-05 01:22:08.350158+01 | 1486254128.35016 | pgbench_history  |                0
 2017-02-05 01:22:08.350158+01 | 1486254128.35016 | pgbench_branches |             8192

 2017-02-05 01:22:09.429985+01 | 1486254129.42999 | pgbench_accounts |       1392427008
 2017-02-05 01:22:09.429985+01 | 1486254129.42999 | pgbench_tellers  |            49152
 2017-02-05 01:22:09.429985+01 | 1486254129.42999 | pgbench_history  |                0
 2017-02-05 01:22:09.429985+01 | 1486254129.42999 | pgbench_branches |             8192

 2017-02-05 01:22:10.514604+01 | 1486254130.5146 | pgbench_accounts |       1392427008
 2017-02-05 01:22:10.514604+01 | 1486254130.5146 | pgbench_tellers  |            49152
 2017-02-05 01:22:10.514604+01 | 1486254130.5146 | pgbench_history  |                0
 2017-02-05 01:22:10.514604+01 | 1486254130.5146 | pgbench_branches |             8192

 2017-02-05 01:22:11.599648+01 | 1486254131.59965 | pgbench_accounts |       1392427008
 2017-02-05 01:22:11.599648+01 | 1486254131.59965 | pgbench_tellers  |            49152
 2017-02-05 01:22:11.599648+01 | 1486254131.59965 | pgbench_history  |                0
 2017-02-05 01:22:11.599648+01 | 1486254131.59965 | pgbench_branches |             8192

 2017-02-05 01:22:12.682465+01 | 1486254132.68247 | pgbench_accounts |       1392427008
 2017-02-05 01:22:12.682465+01 | 1486254132.68247 | pgbench_tellers  |            49152
 2017-02-05 01:22:12.682465+01 | 1486254132.68247 | pgbench_history  |                0
 2017-02-05 01:22:12.682465+01 | 1486254132.68247 | pgbench_branches |             8192

 2017-02-05 01:22:13.764338+01 | 1486254133.76434 | pgbench_accounts |       1392427008
 2017-02-05 01:22:13.764338+01 | 1486254133.76434 | pgbench_tellers  |            49152
 2017-02-05 01:22:13.764338+01 | 1486254133.76434 | pgbench_history  |                0
 2017-02-05 01:22:13.764338+01 | 1486254133.76434 | pgbench_branches |             8192

 2017-02-05 01:22:14.844954+01 | 1486254134.84495 | pgbench_accounts |       1392427008
 2017-02-05 01:22:14.844954+01 | 1486254134.84495 | pgbench_tellers  |            49152
 2017-02-05 01:22:14.844954+01 | 1486254134.84495 | pgbench_history  |                0
 2017-02-05 01:22:14.844954+01 | 1486254134.84495 | pgbench_branches |             8192

 2017-02-05 01:22:15.936175+01 | 1486254135.93618 | pgbench_accounts |       1392427008
 2017-02-05 01:22:15.936175+01 | 1486254135.93618 | pgbench_tellers  |            49152
 2017-02-05 01:22:15.936175+01 | 1486254135.93618 | pgbench_history  |                0
 2017-02-05 01:22:15.936175+01 | 1486254135.93618 | pgbench_branches |             8192

 2017-02-05 01:22:17.018688+01 | 1486254137.01869 | pgbench_accounts |       1392427008
 2017-02-05 01:22:17.018688+01 | 1486254137.01869 | pgbench_tellers  |            49152
 2017-02-05 01:22:17.018688+01 | 1486254137.01869 | pgbench_history  |                0
 2017-02-05 01:22:17.018688+01 | 1486254137.01869 | pgbench_branches |             8192

 2017-02-05 01:22:18.102727+01 | 1486254138.10273 | pgbench_accounts |       1392427008
 2017-02-05 01:22:18.102727+01 | 1486254138.10273 | pgbench_tellers  |            49152
 2017-02-05 01:22:18.102727+01 | 1486254138.10273 | pgbench_history  |                0
 2017-02-05 01:22:18.102727+01 | 1486254138.10273 | pgbench_branches |             8192

 2017-02-05 01:22:19.18898+01 | 1486254139.18898 | pgbench_accounts |       1392427008
 2017-02-05 01:22:19.18898+01 | 1486254139.18898 | pgbench_tellers  |            49152
 2017-02-05 01:22:19.18898+01 | 1486254139.18898 | pgbench_history  |                0
 2017-02-05 01:22:19.18898+01 | 1486254139.18898 | pgbench_branches |             8192

 2017-02-05 01:22:20.271814+01 | 1486254140.27181 | pgbench_accounts |       1392427008
 2017-02-05 01:22:20.271814+01 | 1486254140.27181 | pgbench_tellers  |            49152
 2017-02-05 01:22:20.271814+01 | 1486254140.27181 | pgbench_history  |                0
 2017-02-05 01:22:20.271814+01 | 1486254140.27181 | pgbench_branches |             8192

 2017-02-05 01:22:21.360999+01 | 1486254141.361 | pgbench_accounts |       1392427008
 2017-02-05 01:22:21.360999+01 | 1486254141.361 | pgbench_tellers  |            49152
 2017-02-05 01:22:21.360999+01 | 1486254141.361 | pgbench_history  |                0
 2017-02-05 01:22:21.360999+01 | 1486254141.361 | pgbench_branches |             8192

 2017-02-05 01:22:22.446162+01 | 1486254142.44616 | pgbench_accounts |       1392427008
 2017-02-05 01:22:22.446162+01 | 1486254142.44616 | pgbench_tellers  |            49152
 2017-02-05 01:22:22.446162+01 | 1486254142.44616 | pgbench_history  |                0
 2017-02-05 01:22:22.446162+01 | 1486254142.44616 | pgbench_branches |             8192

 2017-02-05 01:22:23.524618+01 | 1486254143.52462 | pgbench_accounts |       1392427008
 2017-02-05 01:22:23.524618+01 | 1486254143.52462 | pgbench_tellers  |            49152
 2017-02-05 01:22:23.524618+01 | 1486254143.52462 | pgbench_history  |                0
 2017-02-05 01:22:23.524618+01 | 1486254143.52462 | pgbench_branches |             8192

 2017-02-05 01:22:24.602353+01 | 1486254144.60235 | pgbench_accounts |       1392427008
 2017-02-05 01:22:24.602353+01 | 1486254144.60235 | pgbench_tellers  |            49152
 2017-02-05 01:22:24.602353+01 | 1486254144.60235 | pgbench_history  |                0
 2017-02-05 01:22:24.602353+01 | 1486254144.60235 | pgbench_branches |             8192

 2017-02-05 01:22:25.685895+01 | 1486254145.68589 | pgbench_accounts |       1392427008
 2017-02-05 01:22:25.685895+01 | 1486254145.68589 | pgbench_tellers  |            49152
 2017-02-05 01:22:25.685895+01 | 1486254145.68589 | pgbench_history  |                0
 2017-02-05 01:22:25.685895+01 | 1486254145.68589 | pgbench_branches |             8192

 2017-02-05 01:22:26.765292+01 | 1486254146.76529 | pgbench_accounts |       1392427008
 2017-02-05 01:22:26.765292+01 | 1486254146.76529 | pgbench_tellers  |            49152
 2017-02-05 01:22:26.765292+01 | 1486254146.76529 | pgbench_history  |                0
 2017-02-05 01:22:26.765292+01 | 1486254146.76529 | pgbench_branches |             8192

 2017-02-05 01:22:27.843012+01 | 1486254147.84301 | pgbench_accounts |       1392427008
 2017-02-05 01:22:27.843012+01 | 1486254147.84301 | pgbench_tellers  |            49152
 2017-02-05 01:22:27.843012+01 | 1486254147.84301 | pgbench_history  |                0
 2017-02-05 01:22:27.843012+01 | 1486254147.84301 | pgbench_branches |             8192

 2017-02-05 01:22:28.92327+01 | 1486254148.92327 | pgbench_accounts |       1392427008
 2017-02-05 01:22:28.92327+01 | 1486254148.92327 | pgbench_tellers  |            49152
 2017-02-05 01:22:28.92327+01 | 1486254148.92327 | pgbench_history  |                0
 2017-02-05 01:22:28.92327+01 | 1486254148.92327 | pgbench_branches |             8192

 2017-02-05 01:22:30.011+01 | 1486254150.011 | pgbench_accounts |       1392427008
 2017-02-05 01:22:30.011+01 | 1486254150.011 | pgbench_tellers  |            49152
 2017-02-05 01:22:30.011+01 | 1486254150.011 | pgbench_history  |                0
 2017-02-05 01:22:30.011+01 | 1486254150.011 | pgbench_branches |             8192

 2017-02-05 01:22:31.094497+01 | 1486254151.0945 | pgbench_accounts |       1392427008
 2017-02-05 01:22:31.094497+01 | 1486254151.0945 | pgbench_tellers  |            49152
 2017-02-05 01:22:31.094497+01 | 1486254151.0945 | pgbench_history  |                0
 2017-02-05 01:22:31.094497+01 | 1486254151.0945 | pgbench_branches |             8192

 2017-02-05 01:22:32.18663+01 | 1486254152.18663 | pgbench_accounts |       1392427008
 2017-02-05 01:22:32.18663+01 | 1486254152.18663 | pgbench_tellers  |            49152
 2017-02-05 01:22:32.18663+01 | 1486254152.18663 | pgbench_history  |                0
 2017-02-05 01:22:32.18663+01 | 1486254152.18663 | pgbench_branches |             8192

 2017-02-05 01:22:33.274944+01 | 1486254153.27494 | pgbench_accounts |       1392427008
 2017-02-05 01:22:33.274944+01 | 1486254153.27494 | pgbench_tellers  |            49152
 2017-02-05 01:22:33.274944+01 | 1486254153.27494 | pgbench_history  |                0
 2017-02-05 01:22:33.274944+01 | 1486254153.27494 | pgbench_branches |             8192

 2017-02-05 01:22:34.351768+01 | 1486254154.35177 | pgbench_accounts |       1392427008
 2017-02-05 01:22:34.351768+01 | 1486254154.35177 | pgbench_tellers  |            49152
 2017-02-05 01:22:34.351768+01 | 1486254154.35177 | pgbench_history  |                0
 2017-02-05 01:22:34.351768+01 | 1486254154.35177 | pgbench_branches |             8192

 2017-02-05 01:22:35.440236+01 | 1486254155.44024 | pgbench_accounts |       1392427008
 2017-02-05 01:22:35.440236+01 | 1486254155.44024 | pgbench_tellers  |            49152
 2017-02-05 01:22:35.440236+01 | 1486254155.44024 | pgbench_history  |                0
 2017-02-05 01:22:35.440236+01 | 1486254155.44024 | pgbench_branches |             8192

 2017-02-05 01:22:36.524903+01 | 1486254156.5249 | pgbench_accounts |       1392427008
 2017-02-05 01:22:36.524903+01 | 1486254156.5249 | pgbench_tellers  |            49152
 2017-02-05 01:22:36.524903+01 | 1486254156.5249 | pgbench_history  |                0
 2017-02-05 01:22:36.524903+01 | 1486254156.5249 | pgbench_branches |             8192

 2017-02-05 01:22:37.606008+01 | 1486254157.60601 | pgbench_accounts |       1392427008
 2017-02-05 01:22:37.606008+01 | 1486254157.60601 | pgbench_tellers  |            49152
 2017-02-05 01:22:37.606008+01 | 1486254157.60601 | pgbench_history  |                0
 2017-02-05 01:22:37.606008+01 | 1486254157.60601 | pgbench_branches |             8192

 2017-02-05 01:22:38.691977+01 | 1486254158.69198 | pgbench_accounts |       1392427008
 2017-02-05 01:22:38.691977+01 | 1486254158.69198 | pgbench_tellers  |            49152
 2017-02-05 01:22:38.691977+01 | 1486254158.69198 | pgbench_history  |                0
 2017-02-05 01:22:38.691977+01 | 1486254158.69198 | pgbench_branches |             8192

 2017-02-05 01:22:39.775875+01 | 1486254159.77588 | pgbench_accounts |       1392427008
 2017-02-05 01:22:39.775875+01 | 1486254159.77588 | pgbench_tellers  |            49152
 2017-02-05 01:22:39.775875+01 | 1486254159.77588 | pgbench_history  |                0
 2017-02-05 01:22:39.775875+01 | 1486254159.77588 | pgbench_branches |             8192

 2017-02-05 01:22:40.856353+01 | 1486254160.85635 | pgbench_accounts |       1392427008
 2017-02-05 01:22:40.856353+01 | 1486254160.85635 | pgbench_tellers  |            49152
 2017-02-05 01:22:40.856353+01 | 1486254160.85635 | pgbench_history  |                0
 2017-02-05 01:22:40.856353+01 | 1486254160.85635 | pgbench_branches |             8192

 2017-02-05 01:22:41.940751+01 | 1486254161.94075 | pgbench_accounts |       1392427008
 2017-02-05 01:22:41.940751+01 | 1486254161.94075 | pgbench_tellers  |            49152
 2017-02-05 01:22:41.940751+01 | 1486254161.94075 | pgbench_history  |                0
 2017-02-05 01:22:41.940751+01 | 1486254161.94075 | pgbench_branches |             8192

 2017-02-05 01:22:43.025982+01 | 1486254163.02598 | pgbench_accounts |       1392427008
 2017-02-05 01:22:43.025982+01 | 1486254163.02598 | pgbench_tellers  |            49152
 2017-02-05 01:22:43.025982+01 | 1486254163.02598 | pgbench_history  |                0
 2017-02-05 01:22:43.025982+01 | 1486254163.02598 | pgbench_branches |             8192

 2017-02-05 01:22:44.105364+01 | 1486254164.10536 | pgbench_accounts |       1392427008
 2017-02-05 01:22:44.105364+01 | 1486254164.10536 | pgbench_tellers  |            49152
 2017-02-05 01:22:44.105364+01 | 1486254164.10536 | pgbench_history  |                0
 2017-02-05 01:22:44.105364+01 | 1486254164.10536 | pgbench_branches |             8192

 2017-02-05 01:22:45.187723+01 | 1486254165.18772 | pgbench_accounts |       1392427008
 2017-02-05 01:22:45.187723+01 | 1486254165.18772 | pgbench_tellers  |            49152
 2017-02-05 01:22:45.187723+01 | 1486254165.18772 | pgbench_history  |                0
 2017-02-05 01:22:45.187723+01 | 1486254165.18772 | pgbench_branches |             8192

 2017-02-05 01:22:46.274747+01 | 1486254166.27475 | pgbench_accounts |       1392427008
 2017-02-05 01:22:46.274747+01 | 1486254166.27475 | pgbench_tellers  |            49152
 2017-02-05 01:22:46.274747+01 | 1486254166.27475 | pgbench_history  |                0
 2017-02-05 01:22:46.274747+01 | 1486254166.27475 | pgbench_branches |             8192

 2017-02-05 01:22:47.350036+01 | 1486254167.35004 | pgbench_accounts |       1392427008
 2017-02-05 01:22:47.350036+01 | 1486254167.35004 | pgbench_tellers  |            49152
 2017-02-05 01:22:47.350036+01 | 1486254167.35004 | pgbench_history  |                0
 2017-02-05 01:22:47.350036+01 | 1486254167.35004 | pgbench_branches |             8192

 2017-02-05 01:22:48.437848+01 | 1486254168.43785 | pgbench_accounts |       1392427008
 2017-02-05 01:22:48.437848+01 | 1486254168.43785 | pgbench_tellers  |            49152
 2017-02-05 01:22:48.437848+01 | 1486254168.43785 | pgbench_history  |                0
 2017-02-05 01:22:48.437848+01 | 1486254168.43785 | pgbench_branches |             8192

 2017-02-05 01:22:49.515176+01 | 1486254169.51518 | pgbench_accounts |       1392427008
 2017-02-05 01:22:49.515176+01 | 1486254169.51518 | pgbench_tellers  |            49152
 2017-02-05 01:22:49.515176+01 | 1486254169.51518 | pgbench_history  |                0
 2017-02-05 01:22:49.515176+01 | 1486254169.51518 | pgbench_branches |             8192

 2017-02-05 01:22:50.601415+01 | 1486254170.60141 | pgbench_accounts |       1392427008
 2017-02-05 01:22:50.601415+01 | 1486254170.60141 | pgbench_tellers  |            49152
 2017-02-05 01:22:50.601415+01 | 1486254170.60141 | pgbench_history  |                0
 2017-02-05 01:22:50.601415+01 | 1486254170.60141 | pgbench_branches |             8192

 2017-02-05 01:22:51.683647+01 | 1486254171.68365 | pgbench_accounts |       1392427008
 2017-02-05 01:22:51.683647+01 | 1486254171.68365 | pgbench_tellers  |            49152
 2017-02-05 01:22:51.683647+01 | 1486254171.68365 | pgbench_history  |                0
 2017-02-05 01:22:51.683647+01 | 1486254171.68365 | pgbench_branches |             8192

 2017-02-05 01:22:52.775517+01 | 1486254172.77552 | pgbench_accounts |       1392427008
 2017-02-05 01:22:52.775517+01 | 1486254172.77552 | pgbench_tellers  |            49152
 2017-02-05 01:22:52.775517+01 | 1486254172.77552 | pgbench_history  |                0
 2017-02-05 01:22:52.775517+01 | 1486254172.77552 | pgbench_branches |             8192

 2017-02-05 01:22:53.857529+01 | 1486254173.85753 | pgbench_accounts |       1392427008
 2017-02-05 01:22:53.857529+01 | 1486254173.85753 | pgbench_tellers  |            49152
 2017-02-05 01:22:53.857529+01 | 1486254173.85753 | pgbench_history  |                0
 2017-02-05 01:22:53.857529+01 | 1486254173.85753 | pgbench_branches |             8192

 2017-02-05 01:22:54.935798+01 | 1486254174.9358 | pgbench_accounts |       1392427008
 2017-02-05 01:22:54.935798+01 | 1486254174.9358 | pgbench_tellers  |            49152
 2017-02-05 01:22:54.935798+01 | 1486254174.9358 | pgbench_history  |                0
 2017-02-05 01:22:54.935798+01 | 1486254174.9358 | pgbench_branches |             8192

 2017-02-05 01:22:56.017702+01 | 1486254176.0177 | pgbench_accounts |       1392427008
 2017-02-05 01:22:56.017702+01 | 1486254176.0177 | pgbench_tellers  |            49152
 2017-02-05 01:22:56.017702+01 | 1486254176.0177 | pgbench_history  |                0
 2017-02-05 01:22:56.017702+01 | 1486254176.0177 | pgbench_branches |             8192

 2017-02-05 01:22:57.102632+01 | 1486254177.10263 | pgbench_accounts |       1392427008
 2017-02-05 01:22:57.102632+01 | 1486254177.10263 | pgbench_tellers  |            49152
 2017-02-05 01:22:57.102632+01 | 1486254177.10263 | pgbench_history  |                0
 2017-02-05 01:22:57.102632+01 | 1486254177.10263 | pgbench_branches |             8192

 2017-02-05 01:22:58.183014+01 | 1486254178.18301 | pgbench_accounts |       1392427008
 2017-02-05 01:22:58.183014+01 | 1486254178.18301 | pgbench_tellers  |            49152
 2017-02-05 01:22:58.183014+01 | 1486254178.18301 | pgbench_history  |                0
 2017-02-05 01:22:58.183014+01 | 1486254178.18301 | pgbench_branches |             8192

 2017-02-05 01:22:59.274102+01 | 1486254179.2741 | pgbench_accounts |       1392427008
 2017-02-05 01:22:59.274102+01 | 1486254179.2741 | pgbench_tellers  |            49152
 2017-02-05 01:22:59.274102+01 | 1486254179.2741 | pgbench_history  |                0
 2017-02-05 01:22:59.274102+01 | 1486254179.2741 | pgbench_branches |             8192

 2017-02-05 01:23:00.361268+01 | 1486254180.36127 | pgbench_accounts |       1392427008
 2017-02-05 01:23:00.361268+01 | 1486254180.36127 | pgbench_tellers  |            49152
 2017-02-05 01:23:00.361268+01 | 1486254180.36127 | pgbench_history  |                0
 2017-02-05 01:23:00.361268+01 | 1486254180.36127 | pgbench_branches |             8192

 2017-02-05 01:23:01.4419+01 | 1486254181.4419 | pgbench_accounts |       1392427008
 2017-02-05 01:23:01.4419+01 | 1486254181.4419 | pgbench_tellers  |            49152
 2017-02-05 01:23:01.4419+01 | 1486254181.4419 | pgbench_history  |                0
 2017-02-05 01:23:01.4419+01 | 1486254181.4419 | pgbench_branches |             8192

 2017-02-05 01:23:02.528587+01 | 1486254182.52859 | pgbench_accounts |       1392427008
 2017-02-05 01:23:02.528587+01 | 1486254182.52859 | pgbench_tellers  |            49152
 2017-02-05 01:23:02.528587+01 | 1486254182.52859 | pgbench_history  |                0
 2017-02-05 01:23:02.528587+01 | 1486254182.52859 | pgbench_branches |             8192

 2017-02-05 01:23:03.61239+01 | 1486254183.61239 | pgbench_accounts |       1392427008
 2017-02-05 01:23:03.61239+01 | 1486254183.61239 | pgbench_tellers  |            49152
 2017-02-05 01:23:03.61239+01 | 1486254183.61239 | pgbench_history  |                0
 2017-02-05 01:23:03.61239+01 | 1486254183.61239 | pgbench_branches |             8192

 2017-02-05 01:23:04.69823+01 | 1486254184.69823 | pgbench_accounts |       1392427008
 2017-02-05 01:23:04.69823+01 | 1486254184.69823 | pgbench_tellers  |            49152
 2017-02-05 01:23:04.69823+01 | 1486254184.69823 | pgbench_history  |                0
 2017-02-05 01:23:04.69823+01 | 1486254184.69823 | pgbench_branches |             8192

 2017-02-05 01:23:05.787509+01 | 1486254185.78751 | pgbench_accounts |       1392427008
 2017-02-05 01:23:05.787509+01 | 1486254185.78751 | pgbench_tellers  |            49152
 2017-02-05 01:23:05.787509+01 | 1486254185.78751 | pgbench_history  |                0
 2017-02-05 01:23:05.787509+01 | 1486254185.78751 | pgbench_branches |             8192

 2017-02-05 01:23:06.871154+01 | 1486254186.87115 | pgbench_accounts |       1392427008
 2017-02-05 01:23:06.871154+01 | 1486254186.87115 | pgbench_tellers  |            49152
 2017-02-05 01:23:06.871154+01 | 1486254186.87115 | pgbench_history  |                0
 2017-02-05 01:23:06.871154+01 | 1486254186.87115 | pgbench_branches |             8192

 2017-02-05 01:23:07.954994+01 | 1486254187.95499 | pgbench_accounts |       1392427008
 2017-02-05 01:23:07.954994+01 | 1486254187.95499 | pgbench_tellers  |            49152
 2017-02-05 01:23:07.954994+01 | 1486254187.95499 | pgbench_history  |                0
 2017-02-05 01:23:07.954994+01 | 1486254187.95499 | pgbench_branches |             8192

 2017-02-05 01:23:09.038183+01 | 1486254189.03818 | pgbench_accounts |       1392427008
 2017-02-05 01:23:09.038183+01 | 1486254189.03818 | pgbench_tellers  |            49152
 2017-02-05 01:23:09.038183+01 | 1486254189.03818 | pgbench_history  |                0
 2017-02-05 01:23:09.038183+01 | 1486254189.03818 | pgbench_branches |             8192

 2017-02-05 01:23:10.120881+01 | 1486254190.12088 | pgbench_accounts |       1392427008
 2017-02-05 01:23:10.120881+01 | 1486254190.12088 | pgbench_tellers  |            49152
 2017-02-05 01:23:10.120881+01 | 1486254190.12088 | pgbench_history  |                0
 2017-02-05 01:23:10.120881+01 | 1486254190.12088 | pgbench_branches |             8192

 2017-02-05 01:23:11.211522+01 | 1486254191.21152 | pgbench_accounts |       1392427008
 2017-02-05 01:23:11.211522+01 | 1486254191.21152 | pgbench_tellers  |            49152
 2017-02-05 01:23:11.211522+01 | 1486254191.21152 | pgbench_history  |                0
 2017-02-05 01:23:11.211522+01 | 1486254191.21152 | pgbench_branches |             8192

 2017-02-05 01:23:12.301818+01 | 1486254192.30182 | pgbench_accounts |       1392427008
 2017-02-05 01:23:12.301818+01 | 1486254192.30182 | pgbench_tellers  |            49152
 2017-02-05 01:23:12.301818+01 | 1486254192.30182 | pgbench_history  |                0
 2017-02-05 01:23:12.301818+01 | 1486254192.30182 | pgbench_branches |             8192

 2017-02-05 01:23:13.393825+01 | 1486254193.39383 | pgbench_accounts |       1392427008
 2017-02-05 01:23:13.393825+01 | 1486254193.39383 | pgbench_tellers  |            49152
 2017-02-05 01:23:13.393825+01 | 1486254193.39383 | pgbench_history  |                0
 2017-02-05 01:23:13.393825+01 | 1486254193.39383 | pgbench_branches |             8192

 2017-02-05 01:23:14.481054+01 | 1486254194.48105 | pgbench_accounts |       1392427008
 2017-02-05 01:23:14.481054+01 | 1486254194.48105 | pgbench_tellers  |            49152
 2017-02-05 01:23:14.481054+01 | 1486254194.48105 | pgbench_history  |                0
 2017-02-05 01:23:14.481054+01 | 1486254194.48105 | pgbench_branches |             8192

 2017-02-05 01:23:15.566758+01 | 1486254195.56676 | pgbench_accounts |       1392427008
 2017-02-05 01:23:15.566758+01 | 1486254195.56676 | pgbench_tellers  |            49152
 2017-02-05 01:23:15.566758+01 | 1486254195.56676 | pgbench_history  |                0
 2017-02-05 01:23:15.566758+01 | 1486254195.56676 | pgbench_branches |             8192

 2017-02-05 01:23:16.653055+01 | 1486254196.65305 | pgbench_accounts |       1392427008
 2017-02-05 01:23:16.653055+01 | 1486254196.65305 | pgbench_tellers  |            49152
 2017-02-05 01:23:16.653055+01 | 1486254196.65305 | pgbench_history  |                0
 2017-02-05 01:23:16.653055+01 | 1486254196.65305 | pgbench_branches |             8192

 2017-02-05 01:23:17.736156+01 | 1486254197.73616 | pgbench_accounts |       1392427008
 2017-02-05 01:23:17.736156+01 | 1486254197.73616 | pgbench_tellers  |            49152
 2017-02-05 01:23:17.736156+01 | 1486254197.73616 | pgbench_history  |                0
 2017-02-05 01:23:17.736156+01 | 1486254197.73616 | pgbench_branches |             8192

 2017-02-05 01:23:18.81966+01 | 1486254198.81966 | pgbench_accounts |       1392427008
 2017-02-05 01:23:18.81966+01 | 1486254198.81966 | pgbench_tellers  |            49152
 2017-02-05 01:23:18.81966+01 | 1486254198.81966 | pgbench_history  |                0
 2017-02-05 01:23:18.81966+01 | 1486254198.81966 | pgbench_branches |             8192

 2017-02-05 01:23:19.902388+01 | 1486254199.90239 | pgbench_accounts |       1392427008
 2017-02-05 01:23:19.902388+01 | 1486254199.90239 | pgbench_tellers  |            49152
 2017-02-05 01:23:19.902388+01 | 1486254199.90239 | pgbench_history  |                0
 2017-02-05 01:23:19.902388+01 | 1486254199.90239 | pgbench_branches |             8192

 2017-02-05 01:23:20.983343+01 | 1486254200.98334 | pgbench_accounts |       1392427008
 2017-02-05 01:23:20.983343+01 | 1486254200.98334 | pgbench_tellers  |            49152
 2017-02-05 01:23:20.983343+01 | 1486254200.98334 | pgbench_history  |                0
 2017-02-05 01:23:20.983343+01 | 1486254200.98334 | pgbench_branches |             8192

 2017-02-05 01:23:22.072495+01 | 1486254202.07249 | pgbench_accounts |       1392427008
 2017-02-05 01:23:22.072495+01 | 1486254202.07249 | pgbench_tellers  |            49152
 2017-02-05 01:23:22.072495+01 | 1486254202.07249 | pgbench_history  |                0
 2017-02-05 01:23:22.072495+01 | 1486254202.07249 | pgbench_branches |             8192

 2017-02-05 01:23:23.161572+01 | 1486254203.16157 | pgbench_accounts |       1392427008
 2017-02-05 01:23:23.161572+01 | 1486254203.16157 | pgbench_tellers  |            49152
 2017-02-05 01:23:23.161572+01 | 1486254203.16157 | pgbench_history  |                0
 2017-02-05 01:23:23.161572+01 | 1486254203.16157 | pgbench_branches |             8192

 2017-02-05 01:23:24.240997+01 | 1486254204.241 | pgbench_accounts |       1392427008
 2017-02-05 01:23:24.240997+01 | 1486254204.241 | pgbench_tellers  |            49152
 2017-02-05 01:23:24.240997+01 | 1486254204.241 | pgbench_history  |                0
 2017-02-05 01:23:24.240997+01 | 1486254204.241 | pgbench_branches |             8192

 2017-02-05 01:23:25.318115+01 | 1486254205.31811 | pgbench_accounts |       1392427008
 2017-02-05 01:23:25.318115+01 | 1486254205.31811 | pgbench_tellers  |            49152
 2017-02-05 01:23:25.318115+01 | 1486254205.31811 | pgbench_history  |                0
 2017-02-05 01:23:25.318115+01 | 1486254205.31811 | pgbench_branches |             8192

 2017-02-05 01:23:26.402522+01 | 1486254206.40252 | pgbench_accounts |       1392427008
 2017-02-05 01:23:26.402522+01 | 1486254206.40252 | pgbench_tellers  |            49152
 2017-02-05 01:23:26.402522+01 | 1486254206.40252 | pgbench_history  |                0
 2017-02-05 01:23:26.402522+01 | 1486254206.40252 | pgbench_branches |             8192

 2017-02-05 01:23:27.495027+01 | 1486254207.49503 | pgbench_accounts |       1392427008
 2017-02-05 01:23:27.495027+01 | 1486254207.49503 | pgbench_tellers  |            49152
 2017-02-05 01:23:27.495027+01 | 1486254207.49503 | pgbench_history  |                0
 2017-02-05 01:23:27.495027+01 | 1486254207.49503 | pgbench_branches |             8192

 2017-02-05 01:23:28.5826+01 | 1486254208.5826 | pgbench_accounts |       1392427008
 2017-02-05 01:23:28.5826+01 | 1486254208.5826 | pgbench_tellers  |            49152
 2017-02-05 01:23:28.5826+01 | 1486254208.5826 | pgbench_history  |                0
 2017-02-05 01:23:28.5826+01 | 1486254208.5826 | pgbench_branches |             8192

 2017-02-05 01:23:29.663519+01 | 1486254209.66352 | pgbench_accounts |       1392427008
 2017-02-05 01:23:29.663519+01 | 1486254209.66352 | pgbench_tellers  |            49152
 2017-02-05 01:23:29.663519+01 | 1486254209.66352 | pgbench_history  |                0
 2017-02-05 01:23:29.663519+01 | 1486254209.66352 | pgbench_branches |             8192

 2017-02-05 01:23:30.746921+01 | 1486254210.74692 | pgbench_accounts |       1392427008
 2017-02-05 01:23:30.746921+01 | 1486254210.74692 | pgbench_tellers  |            49152
 2017-02-05 01:23:30.746921+01 | 1486254210.74692 | pgbench_history  |                0
 2017-02-05 01:23:30.746921+01 | 1486254210.74692 | pgbench_branches |             8192

 2017-02-05 01:23:31.839118+01 | 1486254211.83912 | pgbench_accounts |       1392427008
 2017-02-05 01:23:31.839118+01 | 1486254211.83912 | pgbench_tellers  |            49152
 2017-02-05 01:23:31.839118+01 | 1486254211.83912 | pgbench_history  |                0
 2017-02-05 01:23:31.839118+01 | 1486254211.83912 | pgbench_branches |             8192

 2017-02-05 01:23:32.918667+01 | 1486254212.91867 | pgbench_accounts |       1392427008
 2017-02-05 01:23:32.918667+01 | 1486254212.91867 | pgbench_tellers  |            49152
 2017-02-05 01:23:32.918667+01 | 1486254212.91867 | pgbench_history  |                0
 2017-02-05 01:23:32.918667+01 | 1486254212.91867 | pgbench_branches |             8192

 2017-02-05 01:23:33.99373+01 | 1486254213.99373 | pgbench_accounts |       1392427008
 2017-02-05 01:23:33.99373+01 | 1486254213.99373 | pgbench_tellers  |            49152
 2017-02-05 01:23:33.99373+01 | 1486254213.99373 | pgbench_history  |                0
 2017-02-05 01:23:33.99373+01 | 1486254213.99373 | pgbench_branches |             8192

 2017-02-05 01:23:35.076517+01 | 1486254215.07652 | pgbench_accounts |       1392427008
 2017-02-05 01:23:35.076517+01 | 1486254215.07652 | pgbench_tellers  |            49152
 2017-02-05 01:23:35.076517+01 | 1486254215.07652 | pgbench_history  |                0
 2017-02-05 01:23:35.076517+01 | 1486254215.07652 | pgbench_branches |             8192

 2017-02-05 01:23:36.162857+01 | 1486254216.16286 | pgbench_accounts |       1392427008
 2017-02-05 01:23:36.162857+01 | 1486254216.16286 | pgbench_tellers  |            49152
 2017-02-05 01:23:36.162857+01 | 1486254216.16286 | pgbench_history  |                0
 2017-02-05 01:23:36.162857+01 | 1486254216.16286 | pgbench_branches |             8192

 2017-02-05 01:23:37.247353+01 | 1486254217.24735 | pgbench_accounts |       1392427008
 2017-02-05 01:23:37.247353+01 | 1486254217.24735 | pgbench_tellers  |            49152
 2017-02-05 01:23:37.247353+01 | 1486254217.24735 | pgbench_history  |                0
 2017-02-05 01:23:37.247353+01 | 1486254217.24735 | pgbench_branches |             8192

 2017-02-05 01:23:38.332392+01 | 1486254218.33239 | pgbench_accounts |       1392427008
 2017-02-05 01:23:38.332392+01 | 1486254218.33239 | pgbench_tellers  |            49152
 2017-02-05 01:23:38.332392+01 | 1486254218.33239 | pgbench_history  |                0
 2017-02-05 01:23:38.332392+01 | 1486254218.33239 | pgbench_branches |             8192

 2017-02-05 01:23:39.415304+01 | 1486254219.4153 | pgbench_accounts |       1392427008
 2017-02-05 01:23:39.415304+01 | 1486254219.4153 | pgbench_tellers  |            49152
 2017-02-05 01:23:39.415304+01 | 1486254219.4153 | pgbench_history  |                0
 2017-02-05 01:23:39.415304+01 | 1486254219.4153 | pgbench_branches |             8192

 2017-02-05 01:23:40.502382+01 | 1486254220.50238 | pgbench_accounts |       1392427008
 2017-02-05 01:23:40.502382+01 | 1486254220.50238 | pgbench_tellers  |            49152
 2017-02-05 01:23:40.502382+01 | 1486254220.50238 | pgbench_history  |                0
 2017-02-05 01:23:40.502382+01 | 1486254220.50238 | pgbench_branches |             8192

 2017-02-05 01:23:41.588258+01 | 1486254221.58826 | pgbench_accounts |       1392427008
 2017-02-05 01:23:41.588258+01 | 1486254221.58826 | pgbench_tellers  |            49152
 2017-02-05 01:23:41.588258+01 | 1486254221.58826 | pgbench_history  |                0
 2017-02-05 01:23:41.588258+01 | 1486254221.58826 | pgbench_branches |             8192

 2017-02-05 01:23:42.67072+01 | 1486254222.67072 | pgbench_accounts |       1392427008
 2017-02-05 01:23:42.67072+01 | 1486254222.67072 | pgbench_tellers  |            49152
 2017-02-05 01:23:42.67072+01 | 1486254222.67072 | pgbench_history  |                0
 2017-02-05 01:23:42.67072+01 | 1486254222.67072 | pgbench_branches |             8192

 2017-02-05 01:23:43.764195+01 | 1486254223.76419 | pgbench_accounts |       1392427008
 2017-02-05 01:23:43.764195+01 | 1486254223.76419 | pgbench_tellers  |            49152
 2017-02-05 01:23:43.764195+01 | 1486254223.76419 | pgbench_history  |                0
 2017-02-05 01:23:43.764195+01 | 1486254223.76419 | pgbench_branches |             8192

 2017-02-05 01:23:44.846729+01 | 1486254224.84673 | pgbench_accounts |       1392427008
 2017-02-05 01:23:44.846729+01 | 1486254224.84673 | pgbench_tellers  |            49152
 2017-02-05 01:23:44.846729+01 | 1486254224.84673 | pgbench_history  |                0
 2017-02-05 01:23:44.846729+01 | 1486254224.84673 | pgbench_branches |             8192

 2017-02-05 01:23:45.928153+01 | 1486254225.92815 | pgbench_accounts |       1392427008
 2017-02-05 01:23:45.928153+01 | 1486254225.92815 | pgbench_tellers  |            49152
 2017-02-05 01:23:45.928153+01 | 1486254225.92815 | pgbench_history  |                0
 2017-02-05 01:23:45.928153+01 | 1486254225.92815 | pgbench_branches |             8192

 2017-02-05 01:23:47.010304+01 | 1486254227.0103 | pgbench_accounts |       1392427008
 2017-02-05 01:23:47.010304+01 | 1486254227.0103 | pgbench_tellers  |            49152
 2017-02-05 01:23:47.010304+01 | 1486254227.0103 | pgbench_history  |                0
 2017-02-05 01:23:47.010304+01 | 1486254227.0103 | pgbench_branches |             8192

 2017-02-05 01:23:48.100828+01 | 1486254228.10083 | pgbench_accounts |       1392427008
 2017-02-05 01:23:48.100828+01 | 1486254228.10083 | pgbench_tellers  |            49152
 2017-02-05 01:23:48.100828+01 | 1486254228.10083 | pgbench_history  |                0
 2017-02-05 01:23:48.100828+01 | 1486254228.10083 | pgbench_branches |             8192

 2017-02-05 01:23:49.185913+01 | 1486254229.18591 | pgbench_accounts |       1392427008
 2017-02-05 01:23:49.185913+01 | 1486254229.18591 | pgbench_tellers  |            49152
 2017-02-05 01:23:49.185913+01 | 1486254229.18591 | pgbench_history  |                0
 2017-02-05 01:23:49.185913+01 | 1486254229.18591 | pgbench_branches |             8192

 2017-02-05 01:23:50.275631+01 | 1486254230.27563 | pgbench_accounts |       1392427008
 2017-02-05 01:23:50.275631+01 | 1486254230.27563 | pgbench_tellers  |            49152
 2017-02-05 01:23:50.275631+01 | 1486254230.27563 | pgbench_history  |                0
 2017-02-05 01:23:50.275631+01 | 1486254230.27563 | pgbench_branches |             8192

 2017-02-05 01:23:51.357176+01 | 1486254231.35718 | pgbench_accounts |       1392427008
 2017-02-05 01:23:51.357176+01 | 1486254231.35718 | pgbench_tellers  |            49152
 2017-02-05 01:23:51.357176+01 | 1486254231.35718 | pgbench_history  |                0
 2017-02-05 01:23:51.357176+01 | 1486254231.35718 | pgbench_branches |             8192

 2017-02-05 01:23:52.436455+01 | 1486254232.43646 | pgbench_accounts |       1392427008
 2017-02-05 01:23:52.436455+01 | 1486254232.43646 | pgbench_tellers  |            49152
 2017-02-05 01:23:52.436455+01 | 1486254232.43646 | pgbench_history  |                0
 2017-02-05 01:23:52.436455+01 | 1486254232.43646 | pgbench_branches |             8192

 2017-02-05 01:23:53.51397+01 | 1486254233.51397 | pgbench_accounts |       1392427008
 2017-02-05 01:23:53.51397+01 | 1486254233.51397 | pgbench_tellers  |            49152
 2017-02-05 01:23:53.51397+01 | 1486254233.51397 | pgbench_history  |                0
 2017-02-05 01:23:53.51397+01 | 1486254233.51397 | pgbench_branches |             8192

 2017-02-05 01:23:54.603019+01 | 1486254234.60302 | pgbench_accounts |       1392427008
 2017-02-05 01:23:54.603019+01 | 1486254234.60302 | pgbench_tellers  |            49152
 2017-02-05 01:23:54.603019+01 | 1486254234.60302 | pgbench_history  |                0
 2017-02-05 01:23:54.603019+01 | 1486254234.60302 | pgbench_branches |             8192

 2017-02-05 01:23:55.696328+01 | 1486254235.69633 | pgbench_accounts |       1392427008
 2017-02-05 01:23:55.696328+01 | 1486254235.69633 | pgbench_tellers  |            49152
 2017-02-05 01:23:55.696328+01 | 1486254235.69633 | pgbench_history  |                0
 2017-02-05 01:23:55.696328+01 | 1486254235.69633 | pgbench_branches |             8192

 2017-02-05 01:23:56.786818+01 | 1486254236.78682 | pgbench_accounts |       1392427008
 2017-02-05 01:23:56.786818+01 | 1486254236.78682 | pgbench_tellers  |            49152
 2017-02-05 01:23:56.786818+01 | 1486254236.78682 | pgbench_history  |                0
 2017-02-05 01:23:56.786818+01 | 1486254236.78682 | pgbench_branches |             8192

 2017-02-05 01:23:57.863231+01 | 1486254237.86323 | pgbench_accounts |       1392427008
 2017-02-05 01:23:57.863231+01 | 1486254237.86323 | pgbench_tellers  |            49152
 2017-02-05 01:23:57.863231+01 | 1486254237.86323 | pgbench_history  |                0
 2017-02-05 01:23:57.863231+01 | 1486254237.86323 | pgbench_branches |             8192

 2017-02-05 01:23:58.9556+01 | 1486254238.9556 | pgbench_accounts |       1392427008
 2017-02-05 01:23:58.9556+01 | 1486254238.9556 | pgbench_tellers  |            49152
 2017-02-05 01:23:58.9556+01 | 1486254238.9556 | pgbench_history  |                0
 2017-02-05 01:23:58.9556+01 | 1486254238.9556 | pgbench_branches |             8192

 2017-02-05 01:24:00.033723+01 | 1486254240.03372 | pgbench_accounts |       1392427008
 2017-02-05 01:24:00.033723+01 | 1486254240.03372 | pgbench_tellers  |            49152
 2017-02-05 01:24:00.033723+01 | 1486254240.03372 | pgbench_history  |                0
 2017-02-05 01:24:00.033723+01 | 1486254240.03372 | pgbench_branches |             8192

 2017-02-05 01:24:01.120655+01 | 1486254241.12066 | pgbench_accounts |       1392427008
 2017-02-05 01:24:01.120655+01 | 1486254241.12066 | pgbench_tellers  |            49152
 2017-02-05 01:24:01.120655+01 | 1486254241.12066 | pgbench_history  |                0
 2017-02-05 01:24:01.120655+01 | 1486254241.12066 | pgbench_branches |             8192

 2017-02-05 01:24:02.206457+01 | 1486254242.20646 | pgbench_accounts |       1392427008
 2017-02-05 01:24:02.206457+01 | 1486254242.20646 | pgbench_tellers  |            49152
 2017-02-05 01:24:02.206457+01 | 1486254242.20646 | pgbench_history  |                0
 2017-02-05 01:24:02.206457+01 | 1486254242.20646 | pgbench_branches |             8192

 2017-02-05 01:24:03.289675+01 | 1486254243.28967 | pgbench_accounts |       1392427008
 2017-02-05 01:24:03.289675+01 | 1486254243.28967 | pgbench_tellers  |            49152
 2017-02-05 01:24:03.289675+01 | 1486254243.28967 | pgbench_history  |                0
 2017-02-05 01:24:03.289675+01 | 1486254243.28967 | pgbench_branches |             8192

 2017-02-05 01:24:04.372395+01 | 1486254244.3724 | pgbench_accounts |       1392427008
 2017-02-05 01:24:04.372395+01 | 1486254244.3724 | pgbench_tellers  |            49152
 2017-02-05 01:24:04.372395+01 | 1486254244.3724 | pgbench_history  |                0
 2017-02-05 01:24:04.372395+01 | 1486254244.3724 | pgbench_branches |             8192

 2017-02-05 01:24:05.463476+01 | 1486254245.46348 | pgbench_accounts |       1392427008
 2017-02-05 01:24:05.463476+01 | 1486254245.46348 | pgbench_tellers  |            49152
 2017-02-05 01:24:05.463476+01 | 1486254245.46348 | pgbench_history  |                0
 2017-02-05 01:24:05.463476+01 | 1486254245.46348 | pgbench_branches |             8192

 2017-02-05 01:24:06.54591+01 | 1486254246.54591 | pgbench_accounts |       1392427008
 2017-02-05 01:24:06.54591+01 | 1486254246.54591 | pgbench_tellers  |            49152
 2017-02-05 01:24:06.54591+01 | 1486254246.54591 | pgbench_history  |                0
 2017-02-05 01:24:06.54591+01 | 1486254246.54591 | pgbench_branches |             8192

 2017-02-05 01:24:07.633041+01 | 1486254247.63304 | pgbench_accounts |       1392427008
 2017-02-05 01:24:07.633041+01 | 1486254247.63304 | pgbench_tellers  |            49152
 2017-02-05 01:24:07.633041+01 | 1486254247.63304 | pgbench_history  |                0
 2017-02-05 01:24:07.633041+01 | 1486254247.63304 | pgbench_branches |             8192

 2017-02-05 01:24:08.715233+01 | 1486254248.71523 | pgbench_accounts |       1392427008
 2017-02-05 01:24:08.715233+01 | 1486254248.71523 | pgbench_tellers  |            49152
 2017-02-05 01:24:08.715233+01 | 1486254248.71523 | pgbench_history  |                0
 2017-02-05 01:24:08.715233+01 | 1486254248.71523 | pgbench_branches |             8192

 2017-02-05 01:24:09.802699+01 | 1486254249.8027 | pgbench_accounts |       1392427008
 2017-02-05 01:24:09.802699+01 | 1486254249.8027 | pgbench_tellers  |            49152
 2017-02-05 01:24:09.802699+01 | 1486254249.8027 | pgbench_history  |                0
 2017-02-05 01:24:09.802699+01 | 1486254249.8027 | pgbench_branches |             8192

 2017-02-05 01:24:10.886556+01 | 1486254250.88656 | pgbench_accounts |       1392427008
 2017-02-05 01:24:10.886556+01 | 1486254250.88656 | pgbench_tellers  |            49152
 2017-02-05 01:24:10.886556+01 | 1486254250.88656 | pgbench_history  |                0
 2017-02-05 01:24:10.886556+01 | 1486254250.88656 | pgbench_branches |             8192

 2017-02-05 01:24:11.966708+01 | 1486254251.96671 | pgbench_accounts |       1392427008
 2017-02-05 01:24:11.966708+01 | 1486254251.96671 | pgbench_tellers  |            49152
 2017-02-05 01:24:11.966708+01 | 1486254251.96671 | pgbench_history  |                0
 2017-02-05 01:24:11.966708+01 | 1486254251.96671 | pgbench_branches |             8192

 2017-02-05 01:24:13.048364+01 | 1486254253.04836 | pgbench_accounts |       1392427008
 2017-02-05 01:24:13.048364+01 | 1486254253.04836 | pgbench_tellers  |            49152
 2017-02-05 01:24:13.048364+01 | 1486254253.04836 | pgbench_history  |                0
 2017-02-05 01:24:13.048364+01 | 1486254253.04836 | pgbench_branches |             8192

 2017-02-05 01:24:14.128066+01 | 1486254254.12807 | pgbench_accounts |       1392427008
 2017-02-05 01:24:14.128066+01 | 1486254254.12807 | pgbench_tellers  |            49152
 2017-02-05 01:24:14.128066+01 | 1486254254.12807 | pgbench_history  |                0
 2017-02-05 01:24:14.128066+01 | 1486254254.12807 | pgbench_branches |             8192

 2017-02-05 01:24:15.217703+01 | 1486254255.2177 | pgbench_accounts |       1392427008
 2017-02-05 01:24:15.217703+01 | 1486254255.2177 | pgbench_tellers  |            49152
 2017-02-05 01:24:15.217703+01 | 1486254255.2177 | pgbench_history  |                0
 2017-02-05 01:24:15.217703+01 | 1486254255.2177 | pgbench_branches |             8192

 2017-02-05 01:24:16.300749+01 | 1486254256.30075 | pgbench_accounts |       1392427008
 2017-02-05 01:24:16.300749+01 | 1486254256.30075 | pgbench_tellers  |            49152
 2017-02-05 01:24:16.300749+01 | 1486254256.30075 | pgbench_history  |                0
 2017-02-05 01:24:16.300749+01 | 1486254256.30075 | pgbench_branches |             8192

 2017-02-05 01:24:17.380667+01 | 1486254257.38067 | pgbench_accounts |       1392427008
 2017-02-05 01:24:17.380667+01 | 1486254257.38067 | pgbench_tellers  |            49152
 2017-02-05 01:24:17.380667+01 | 1486254257.38067 | pgbench_history  |                0
 2017-02-05 01:24:17.380667+01 | 1486254257.38067 | pgbench_branches |             8192

 2017-02-05 01:24:18.463781+01 | 1486254258.46378 | pgbench_accounts |       1392427008
 2017-02-05 01:24:18.463781+01 | 1486254258.46378 | pgbench_tellers  |            49152
 2017-02-05 01:24:18.463781+01 | 1486254258.46378 | pgbench_history  |                0
 2017-02-05 01:24:18.463781+01 | 1486254258.46378 | pgbench_branches |             8192

 2017-02-05 01:24:19.544833+01 | 1486254259.54483 | pgbench_accounts |       1392427008
 2017-02-05 01:24:19.544833+01 | 1486254259.54483 | pgbench_tellers  |            49152
 2017-02-05 01:24:19.544833+01 | 1486254259.54483 | pgbench_history  |                0
 2017-02-05 01:24:19.544833+01 | 1486254259.54483 | pgbench_branches |             8192

 2017-02-05 01:24:20.62868+01 | 1486254260.62868 | pgbench_accounts |       1392427008
 2017-02-05 01:24:20.62868+01 | 1486254260.62868 | pgbench_tellers  |            49152
 2017-02-05 01:24:20.62868+01 | 1486254260.62868 | pgbench_history  |                0
 2017-02-05 01:24:20.62868+01 | 1486254260.62868 | pgbench_branches |             8192

 2017-02-05 01:24:21.710557+01 | 1486254261.71056 | pgbench_accounts |       1392427008
 2017-02-05 01:24:21.710557+01 | 1486254261.71056 | pgbench_tellers  |            49152
 2017-02-05 01:24:21.710557+01 | 1486254261.71056 | pgbench_history  |                0
 2017-02-05 01:24:21.710557+01 | 1486254261.71056 | pgbench_branches |             8192

 2017-02-05 01:24:22.792623+01 | 1486254262.79262 | pgbench_accounts |       1392427008
 2017-02-05 01:24:22.792623+01 | 1486254262.79262 | pgbench_tellers  |            49152
 2017-02-05 01:24:22.792623+01 | 1486254262.79262 | pgbench_history  |                0
 2017-02-05 01:24:22.792623+01 | 1486254262.79262 | pgbench_branches |             8192

 2017-02-05 01:24:23.878455+01 | 1486254263.87845 | pgbench_accounts |       1392427008
 2017-02-05 01:24:23.878455+01 | 1486254263.87845 | pgbench_tellers  |            49152
 2017-02-05 01:24:23.878455+01 | 1486254263.87845 | pgbench_history  |                0
 2017-02-05 01:24:23.878455+01 | 1486254263.87845 | pgbench_branches |             8192

 2017-02-05 01:24:24.956547+01 | 1486254264.95655 | pgbench_accounts |       1392427008
 2017-02-05 01:24:24.956547+01 | 1486254264.95655 | pgbench_tellers  |            49152
 2017-02-05 01:24:24.956547+01 | 1486254264.95655 | pgbench_history  |                0
 2017-02-05 01:24:24.956547+01 | 1486254264.95655 | pgbench_branches |             8192

 2017-02-05 01:24:26.032821+01 | 1486254266.03282 | pgbench_accounts |       1392427008
 2017-02-05 01:24:26.032821+01 | 1486254266.03282 | pgbench_tellers  |            49152
 2017-02-05 01:24:26.032821+01 | 1486254266.03282 | pgbench_history  |                0
 2017-02-05 01:24:26.032821+01 | 1486254266.03282 | pgbench_branches |             8192

 2017-02-05 01:24:27.111785+01 | 1486254267.11178 | pgbench_accounts |       1392427008
 2017-02-05 01:24:27.111785+01 | 1486254267.11178 | pgbench_tellers  |            49152
 2017-02-05 01:24:27.111785+01 | 1486254267.11178 | pgbench_history  |                0
 2017-02-05 01:24:27.111785+01 | 1486254267.11178 | pgbench_branches |             8192

 2017-02-05 01:24:28.196499+01 | 1486254268.1965 | pgbench_accounts |       1392427008
 2017-02-05 01:24:28.196499+01 | 1486254268.1965 | pgbench_tellers  |            49152
 2017-02-05 01:24:28.196499+01 | 1486254268.1965 | pgbench_history  |                0
 2017-02-05 01:24:28.196499+01 | 1486254268.1965 | pgbench_branches |             8192

 2017-02-05 01:24:29.281655+01 | 1486254269.28166 | pgbench_accounts |       1392427008
 2017-02-05 01:24:29.281655+01 | 1486254269.28166 | pgbench_tellers  |            49152
 2017-02-05 01:24:29.281655+01 | 1486254269.28166 | pgbench_history  |                0
 2017-02-05 01:24:29.281655+01 | 1486254269.28166 | pgbench_branches |             8192

 2017-02-05 01:24:30.365916+01 | 1486254270.36592 | pgbench_accounts |       1392427008
 2017-02-05 01:24:30.365916+01 | 1486254270.36592 | pgbench_tellers  |            49152
 2017-02-05 01:24:30.365916+01 | 1486254270.36592 | pgbench_history  |                0
 2017-02-05 01:24:30.365916+01 | 1486254270.36592 | pgbench_branches |             8192

 2017-02-05 01:24:31.452265+01 | 1486254271.45227 | pgbench_accounts |       1392427008
 2017-02-05 01:24:31.452265+01 | 1486254271.45227 | pgbench_tellers  |            49152
 2017-02-05 01:24:31.452265+01 | 1486254271.45227 | pgbench_history  |                0
 2017-02-05 01:24:31.452265+01 | 1486254271.45227 | pgbench_branches |             8192

 2017-02-05 01:24:32.530137+01 | 1486254272.53014 | pgbench_accounts |       1392427008
 2017-02-05 01:24:32.530137+01 | 1486254272.53014 | pgbench_tellers  |            49152
 2017-02-05 01:24:32.530137+01 | 1486254272.53014 | pgbench_history  |                0
 2017-02-05 01:24:32.530137+01 | 1486254272.53014 | pgbench_branches |             8192

 2017-02-05 01:24:33.615235+01 | 1486254273.61524 | pgbench_accounts |       1392427008
 2017-02-05 01:24:33.615235+01 | 1486254273.61524 | pgbench_tellers  |            49152
 2017-02-05 01:24:33.615235+01 | 1486254273.61524 | pgbench_history  |                0
 2017-02-05 01:24:33.615235+01 | 1486254273.61524 | pgbench_branches |             8192

 2017-02-05 01:24:34.693363+01 | 1486254274.69336 | pgbench_accounts |       1392427008
 2017-02-05 01:24:34.693363+01 | 1486254274.69336 | pgbench_tellers  |            49152
 2017-02-05 01:24:34.693363+01 | 1486254274.69336 | pgbench_history  |                0
 2017-02-05 01:24:34.693363+01 | 1486254274.69336 | pgbench_branches |             8192

 2017-02-05 01:24:35.768352+01 | 1486254275.76835 | pgbench_accounts |       1392427008
 2017-02-05 01:24:35.768352+01 | 1486254275.76835 | pgbench_tellers  |            49152
 2017-02-05 01:24:35.768352+01 | 1486254275.76835 | pgbench_history  |                0
 2017-02-05 01:24:35.768352+01 | 1486254275.76835 | pgbench_branches |             8192

 2017-02-05 01:24:36.847484+01 | 1486254276.84748 | pgbench_accounts |       1392427008
 2017-02-05 01:24:36.847484+01 | 1486254276.84748 | pgbench_tellers  |            49152
 2017-02-05 01:24:36.847484+01 | 1486254276.84748 | pgbench_history  |                0
 2017-02-05 01:24:36.847484+01 | 1486254276.84748 | pgbench_branches |             8192

 2017-02-05 01:24:37.92742+01 | 1486254277.92742 | pgbench_accounts |       1392427008
 2017-02-05 01:24:37.92742+01 | 1486254277.92742 | pgbench_tellers  |            49152
 2017-02-05 01:24:37.92742+01 | 1486254277.92742 | pgbench_history  |                0
 2017-02-05 01:24:37.92742+01 | 1486254277.92742 | pgbench_branches |             8192

 2017-02-05 01:24:39.002605+01 | 1486254279.0026 | pgbench_accounts |       1392427008
 2017-02-05 01:24:39.002605+01 | 1486254279.0026 | pgbench_tellers  |            49152
 2017-02-05 01:24:39.002605+01 | 1486254279.0026 | pgbench_history  |                0
 2017-02-05 01:24:39.002605+01 | 1486254279.0026 | pgbench_branches |             8192

 2017-02-05 01:24:40.085166+01 | 1486254280.08517 | pgbench_accounts |       1392427008
 2017-02-05 01:24:40.085166+01 | 1486254280.08517 | pgbench_tellers  |            49152
 2017-02-05 01:24:40.085166+01 | 1486254280.08517 | pgbench_history  |                0
 2017-02-05 01:24:40.085166+01 | 1486254280.08517 | pgbench_branches |             8192

 2017-02-05 01:24:41.162677+01 | 1486254281.16268 | pgbench_accounts |       1392427008
 2017-02-05 01:24:41.162677+01 | 1486254281.16268 | pgbench_tellers  |            49152
 2017-02-05 01:24:41.162677+01 | 1486254281.16268 | pgbench_history  |                0
 2017-02-05 01:24:41.162677+01 | 1486254281.16268 | pgbench_branches |             8192

 2017-02-05 01:24:42.253284+01 | 1486254282.25328 | pgbench_accounts |       1392427008
 2017-02-05 01:24:42.253284+01 | 1486254282.25328 | pgbench_tellers  |            49152
 2017-02-05 01:24:42.253284+01 | 1486254282.25328 | pgbench_history  |                0
 2017-02-05 01:24:42.253284+01 | 1486254282.25328 | pgbench_branches |             8192

 2017-02-05 01:24:43.341112+01 | 1486254283.34111 | pgbench_accounts |       1392427008
 2017-02-05 01:24:43.341112+01 | 1486254283.34111 | pgbench_tellers  |            49152
 2017-02-05 01:24:43.341112+01 | 1486254283.34111 | pgbench_history  |                0
 2017-02-05 01:24:43.341112+01 | 1486254283.34111 | pgbench_branches |             8192

 2017-02-05 01:24:44.428915+01 | 1486254284.42892 | pgbench_accounts |       1392427008
 2017-02-05 01:24:44.428915+01 | 1486254284.42892 | pgbench_tellers  |            49152
 2017-02-05 01:24:44.428915+01 | 1486254284.42892 | pgbench_history  |                0
 2017-02-05 01:24:44.428915+01 | 1486254284.42892 | pgbench_branches |             8192

 2017-02-05 01:24:45.512713+01 | 1486254285.51271 | pgbench_accounts |       1392427008
 2017-02-05 01:24:45.512713+01 | 1486254285.51271 | pgbench_tellers  |            49152
 2017-02-05 01:24:45.512713+01 | 1486254285.51271 | pgbench_history  |                0
 2017-02-05 01:24:45.512713+01 | 1486254285.51271 | pgbench_branches |             8192

 2017-02-05 01:24:46.599602+01 | 1486254286.5996 | pgbench_accounts |       1392427008
 2017-02-05 01:24:46.599602+01 | 1486254286.5996 | pgbench_tellers  |            49152
 2017-02-05 01:24:46.599602+01 | 1486254286.5996 | pgbench_history  |                0
 2017-02-05 01:24:46.599602+01 | 1486254286.5996 | pgbench_branches |             8192

 2017-02-05 01:24:47.688736+01 | 1486254287.68874 | pgbench_accounts |       1392427008
 2017-02-05 01:24:47.688736+01 | 1486254287.68874 | pgbench_tellers  |            49152
 2017-02-05 01:24:47.688736+01 | 1486254287.68874 | pgbench_history  |                0
 2017-02-05 01:24:47.688736+01 | 1486254287.68874 | pgbench_branches |             8192

 2017-02-05 01:24:48.778741+01 | 1486254288.77874 | pgbench_accounts |       1392427008
 2017-02-05 01:24:48.778741+01 | 1486254288.77874 | pgbench_tellers  |            49152
 2017-02-05 01:24:48.778741+01 | 1486254288.77874 | pgbench_history  |                0
 2017-02-05 01:24:48.778741+01 | 1486254288.77874 | pgbench_branches |             8192

 2017-02-05 01:24:49.86719+01 | 1486254289.86719 | pgbench_accounts |       1392427008
 2017-02-05 01:24:49.86719+01 | 1486254289.86719 | pgbench_tellers  |            49152
 2017-02-05 01:24:49.86719+01 | 1486254289.86719 | pgbench_history  |                0
 2017-02-05 01:24:49.86719+01 | 1486254289.86719 | pgbench_branches |             8192

 2017-02-05 01:24:50.948875+01 | 1486254290.94887 | pgbench_accounts |       1392427008
 2017-02-05 01:24:50.948875+01 | 1486254290.94887 | pgbench_tellers  |            49152
 2017-02-05 01:24:50.948875+01 | 1486254290.94887 | pgbench_history  |                0
 2017-02-05 01:24:50.948875+01 | 1486254290.94887 | pgbench_branches |             8192

 2017-02-05 01:24:52.027803+01 | 1486254292.0278 | pgbench_accounts |       1392427008
 2017-02-05 01:24:52.027803+01 | 1486254292.0278 | pgbench_tellers  |            49152
 2017-02-05 01:24:52.027803+01 | 1486254292.0278 | pgbench_history  |                0
 2017-02-05 01:24:52.027803+01 | 1486254292.0278 | pgbench_branches |             8192

 2017-02-05 01:24:53.110205+01 | 1486254293.1102 | pgbench_accounts |       1392427008
 2017-02-05 01:24:53.110205+01 | 1486254293.1102 | pgbench_tellers  |            49152
 2017-02-05 01:24:53.110205+01 | 1486254293.1102 | pgbench_history  |                0
 2017-02-05 01:24:53.110205+01 | 1486254293.1102 | pgbench_branches |             8192

 2017-02-05 01:24:54.196328+01 | 1486254294.19633 | pgbench_accounts |       1392427008
 2017-02-05 01:24:54.196328+01 | 1486254294.19633 | pgbench_tellers  |            49152
 2017-02-05 01:24:54.196328+01 | 1486254294.19633 | pgbench_history  |                0
 2017-02-05 01:24:54.196328+01 | 1486254294.19633 | pgbench_branches |             8192

 2017-02-05 01:24:55.28721+01 | 1486254295.28721 | pgbench_accounts |       1392427008
 2017-02-05 01:24:55.28721+01 | 1486254295.28721 | pgbench_tellers  |            49152
 2017-02-05 01:24:55.28721+01 | 1486254295.28721 | pgbench_history  |                0
 2017-02-05 01:24:55.28721+01 | 1486254295.28721 | pgbench_branches |             8192

 2017-02-05 01:24:56.372155+01 | 1486254296.37215 | pgbench_accounts |       1392427008
 2017-02-05 01:24:56.372155+01 | 1486254296.37215 | pgbench_tellers  |            49152
 2017-02-05 01:24:56.372155+01 | 1486254296.37215 | pgbench_history  |                0
 2017-02-05 01:24:56.372155+01 | 1486254296.37215 | pgbench_branches |             8192

 2017-02-05 01:24:57.449097+01 | 1486254297.4491 | pgbench_accounts |       1392427008
 2017-02-05 01:24:57.449097+01 | 1486254297.4491 | pgbench_tellers  |            49152
 2017-02-05 01:24:57.449097+01 | 1486254297.4491 | pgbench_history  |                0
 2017-02-05 01:24:57.449097+01 | 1486254297.4491 | pgbench_branches |             8192

 2017-02-05 01:24:58.537548+01 | 1486254298.53755 | pgbench_accounts |       1392427008
 2017-02-05 01:24:58.537548+01 | 1486254298.53755 | pgbench_tellers  |            49152
 2017-02-05 01:24:58.537548+01 | 1486254298.53755 | pgbench_history  |                0
 2017-02-05 01:24:58.537548+01 | 1486254298.53755 | pgbench_branches |             8192

 2017-02-05 01:24:59.620621+01 | 1486254299.62062 | pgbench_accounts |       1392427008
 2017-02-05 01:24:59.620621+01 | 1486254299.62062 | pgbench_tellers  |            49152
 2017-02-05 01:24:59.620621+01 | 1486254299.62062 | pgbench_history  |                0
 2017-02-05 01:24:59.620621+01 | 1486254299.62062 | pgbench_branches |             8192

 2017-02-05 01:25:00.70496+01 | 1486254300.70496 | pgbench_accounts |       1392427008
 2017-02-05 01:25:00.70496+01 | 1486254300.70496 | pgbench_tellers  |            49152
 2017-02-05 01:25:00.70496+01 | 1486254300.70496 | pgbench_history  |                0
 2017-02-05 01:25:00.70496+01 | 1486254300.70496 | pgbench_branches |             8192

 2017-02-05 01:25:01.793146+01 | 1486254301.79315 | pgbench_accounts |       1392427008
 2017-02-05 01:25:01.793146+01 | 1486254301.79315 | pgbench_tellers  |            49152
 2017-02-05 01:25:01.793146+01 | 1486254301.79315 | pgbench_history  |                0
 2017-02-05 01:25:01.793146+01 | 1486254301.79315 | pgbench_branches |             8192

 2017-02-05 01:25:02.878951+01 | 1486254302.87895 | pgbench_accounts |       1392427008
 2017-02-05 01:25:02.878951+01 | 1486254302.87895 | pgbench_tellers  |            49152
 2017-02-05 01:25:02.878951+01 | 1486254302.87895 | pgbench_history  |                0
 2017-02-05 01:25:02.878951+01 | 1486254302.87895 | pgbench_branches |             8192

 2017-02-05 01:25:03.963532+01 | 1486254303.96353 | pgbench_accounts |       1392427008
 2017-02-05 01:25:03.963532+01 | 1486254303.96353 | pgbench_tellers  |            49152
 2017-02-05 01:25:03.963532+01 | 1486254303.96353 | pgbench_history  |                0
 2017-02-05 01:25:03.963532+01 | 1486254303.96353 | pgbench_branches |             8192

 2017-02-05 01:25:05.038059+01 | 1486254305.03806 | pgbench_accounts |       1392427008
 2017-02-05 01:25:05.038059+01 | 1486254305.03806 | pgbench_tellers  |            49152
 2017-02-05 01:25:05.038059+01 | 1486254305.03806 | pgbench_history  |                0
 2017-02-05 01:25:05.038059+01 | 1486254305.03806 | pgbench_branches |             8192

 2017-02-05 01:25:06.119068+01 | 1486254306.11907 | pgbench_accounts |       1392427008
 2017-02-05 01:25:06.119068+01 | 1486254306.11907 | pgbench_tellers  |            49152
 2017-02-05 01:25:06.119068+01 | 1486254306.11907 | pgbench_history  |                0
 2017-02-05 01:25:06.119068+01 | 1486254306.11907 | pgbench_branches |             8192

 2017-02-05 01:25:07.205196+01 | 1486254307.2052 | pgbench_accounts |       1392427008
 2017-02-05 01:25:07.205196+01 | 1486254307.2052 | pgbench_tellers  |            49152
 2017-02-05 01:25:07.205196+01 | 1486254307.2052 | pgbench_history  |                0
 2017-02-05 01:25:07.205196+01 | 1486254307.2052 | pgbench_branches |             8192

 2017-02-05 01:25:08.292505+01 | 1486254308.29251 | pgbench_accounts |       1392427008
 2017-02-05 01:25:08.292505+01 | 1486254308.29251 | pgbench_tellers  |            49152
 2017-02-05 01:25:08.292505+01 | 1486254308.29251 | pgbench_history  |                0
 2017-02-05 01:25:08.292505+01 | 1486254308.29251 | pgbench_branches |             8192

 2017-02-05 01:25:09.376475+01 | 1486254309.37648 | pgbench_accounts |       1392427008
 2017-02-05 01:25:09.376475+01 | 1486254309.37648 | pgbench_tellers  |            49152
 2017-02-05 01:25:09.376475+01 | 1486254309.37648 | pgbench_history  |                0
 2017-02-05 01:25:09.376475+01 | 1486254309.37648 | pgbench_branches |             8192

 2017-02-05 01:25:10.452286+01 | 1486254310.45229 | pgbench_accounts |       1392427008
 2017-02-05 01:25:10.452286+01 | 1486254310.45229 | pgbench_tellers  |            49152
 2017-02-05 01:25:10.452286+01 | 1486254310.45229 | pgbench_history  |                0
 2017-02-05 01:25:10.452286+01 | 1486254310.45229 | pgbench_branches |             8192

 2017-02-05 01:25:11.532975+01 | 1486254311.53297 | pgbench_accounts |       1392427008
 2017-02-05 01:25:11.532975+01 | 1486254311.53297 | pgbench_tellers  |            49152
 2017-02-05 01:25:11.532975+01 | 1486254311.53297 | pgbench_history  |                0
 2017-02-05 01:25:11.532975+01 | 1486254311.53297 | pgbench_branches |             8192

 2017-02-05 01:25:12.618031+01 | 1486254312.61803 | pgbench_accounts |       1392427008
 2017-02-05 01:25:12.618031+01 | 1486254312.61803 | pgbench_tellers  |            49152
 2017-02-05 01:25:12.618031+01 | 1486254312.61803 | pgbench_history  |                0
 2017-02-05 01:25:12.618031+01 | 1486254312.61803 | pgbench_branches |             8192

 2017-02-05 01:25:13.702914+01 | 1486254313.70291 | pgbench_accounts |       1392427008
 2017-02-05 01:25:13.702914+01 | 1486254313.70291 | pgbench_tellers  |            49152
 2017-02-05 01:25:13.702914+01 | 1486254313.70291 | pgbench_history  |                0
 2017-02-05 01:25:13.702914+01 | 1486254313.70291 | pgbench_branches |             8192

 2017-02-05 01:25:14.789466+01 | 1486254314.78947 | pgbench_accounts |       1392427008
 2017-02-05 01:25:14.789466+01 | 1486254314.78947 | pgbench_tellers  |            49152
 2017-02-05 01:25:14.789466+01 | 1486254314.78947 | pgbench_history  |                0
 2017-02-05 01:25:14.789466+01 | 1486254314.78947 | pgbench_branches |             8192

 2017-02-05 01:25:15.875621+01 | 1486254315.87562 | pgbench_accounts |       1392427008
 2017-02-05 01:25:15.875621+01 | 1486254315.87562 | pgbench_tellers  |            49152
 2017-02-05 01:25:15.875621+01 | 1486254315.87562 | pgbench_history  |                0
 2017-02-05 01:25:15.875621+01 | 1486254315.87562 | pgbench_branches |             8192

 2017-02-05 01:25:16.96064+01 | 1486254316.96064 | pgbench_accounts |       1392427008
 2017-02-05 01:25:16.96064+01 | 1486254316.96064 | pgbench_tellers  |            49152
 2017-02-05 01:25:16.96064+01 | 1486254316.96064 | pgbench_history  |                0
 2017-02-05 01:25:16.96064+01 | 1486254316.96064 | pgbench_branches |             8192

 2017-02-05 01:25:18.039941+01 | 1486254318.03994 | pgbench_accounts |       1392427008
 2017-02-05 01:25:18.039941+01 | 1486254318.03994 | pgbench_tellers  |            49152
 2017-02-05 01:25:18.039941+01 | 1486254318.03994 | pgbench_history  |                0
 2017-02-05 01:25:18.039941+01 | 1486254318.03994 | pgbench_branches |             8192

 2017-02-05 01:25:19.118538+01 | 1486254319.11854 | pgbench_accounts |       1392427008
 2017-02-05 01:25:19.118538+01 | 1486254319.11854 | pgbench_tellers  |            49152
 2017-02-05 01:25:19.118538+01 | 1486254319.11854 | pgbench_history  |                0
 2017-02-05 01:25:19.118538+01 | 1486254319.11854 | pgbench_branches |             8192

 2017-02-05 01:25:20.207016+01 | 1486254320.20702 | pgbench_accounts |       1392427008
 2017-02-05 01:25:20.207016+01 | 1486254320.20702 | pgbench_tellers  |            49152
 2017-02-05 01:25:20.207016+01 | 1486254320.20702 | pgbench_history  |                0
 2017-02-05 01:25:20.207016+01 | 1486254320.20702 | pgbench_branches |             8192

 2017-02-05 01:25:21.289896+01 | 1486254321.2899 | pgbench_accounts |       1392427008
 2017-02-05 01:25:21.289896+01 | 1486254321.2899 | pgbench_tellers  |            49152
 2017-02-05 01:25:21.289896+01 | 1486254321.2899 | pgbench_history  |                0
 2017-02-05 01:25:21.289896+01 | 1486254321.2899 | pgbench_branches |             8192

 2017-02-05 01:25:22.369113+01 | 1486254322.36911 | pgbench_accounts |       1392427008
 2017-02-05 01:25:22.369113+01 | 1486254322.36911 | pgbench_tellers  |            49152
 2017-02-05 01:25:22.369113+01 | 1486254322.36911 | pgbench_history  |                0
 2017-02-05 01:25:22.369113+01 | 1486254322.36911 | pgbench_branches |             8192

 2017-02-05 01:25:23.453689+01 | 1486254323.45369 | pgbench_accounts |       1392427008
 2017-02-05 01:25:23.453689+01 | 1486254323.45369 | pgbench_tellers  |            49152
 2017-02-05 01:25:23.453689+01 | 1486254323.45369 | pgbench_history  |                0
 2017-02-05 01:25:23.453689+01 | 1486254323.45369 | pgbench_branches |             8192

 2017-02-05 01:25:24.54056+01 | 1486254324.54056 | pgbench_accounts |       1392427008
 2017-02-05 01:25:24.54056+01 | 1486254324.54056 | pgbench_tellers  |            49152
 2017-02-05 01:25:24.54056+01 | 1486254324.54056 | pgbench_history  |                0
 2017-02-05 01:25:24.54056+01 | 1486254324.54056 | pgbench_branches |             8192

 2017-02-05 01:25:25.626304+01 | 1486254325.6263 | pgbench_accounts |       1392427008
 2017-02-05 01:25:25.626304+01 | 1486254325.6263 | pgbench_tellers  |            49152
 2017-02-05 01:25:25.626304+01 | 1486254325.6263 | pgbench_history  |                0
 2017-02-05 01:25:25.626304+01 | 1486254325.6263 | pgbench_branches |             8192

 2017-02-05 01:25:26.705085+01 | 1486254326.70509 | pgbench_accounts |       1392427008
 2017-02-05 01:25:26.705085+01 | 1486254326.70509 | pgbench_tellers  |            49152
 2017-02-05 01:25:26.705085+01 | 1486254326.70509 | pgbench_history  |                0
 2017-02-05 01:25:26.705085+01 | 1486254326.70509 | pgbench_branches |             8192

 2017-02-05 01:25:27.789262+01 | 1486254327.78926 | pgbench_accounts |       1392427008
 2017-02-05 01:25:27.789262+01 | 1486254327.78926 | pgbench_tellers  |            49152
 2017-02-05 01:25:27.789262+01 | 1486254327.78926 | pgbench_history  |                0
 2017-02-05 01:25:27.789262+01 | 1486254327.78926 | pgbench_branches |             8192

 2017-02-05 01:25:28.876781+01 | 1486254328.87678 | pgbench_accounts |       1392427008
 2017-02-05 01:25:28.876781+01 | 1486254328.87678 | pgbench_tellers  |            49152
 2017-02-05 01:25:28.876781+01 | 1486254328.87678 | pgbench_history  |                0
 2017-02-05 01:25:28.876781+01 | 1486254328.87678 | pgbench_branches |             8192

 2017-02-05 01:25:29.957081+01 | 1486254329.95708 | pgbench_accounts |       1392427008
 2017-02-05 01:25:29.957081+01 | 1486254329.95708 | pgbench_tellers  |            49152
 2017-02-05 01:25:29.957081+01 | 1486254329.95708 | pgbench_history  |                0
 2017-02-05 01:25:29.957081+01 | 1486254329.95708 | pgbench_branches |             8192

 2017-02-05 01:25:31.03267+01 | 1486254331.03267 | pgbench_accounts |       1392427008
 2017-02-05 01:25:31.03267+01 | 1486254331.03267 | pgbench_tellers  |            49152
 2017-02-05 01:25:31.03267+01 | 1486254331.03267 | pgbench_history  |                0
 2017-02-05 01:25:31.03267+01 | 1486254331.03267 | pgbench_branches |             8192

 2017-02-05 01:25:32.11024+01 | 1486254332.11024 | pgbench_accounts |       1392427008
 2017-02-05 01:25:32.11024+01 | 1486254332.11024 | pgbench_tellers  |            49152
 2017-02-05 01:25:32.11024+01 | 1486254332.11024 | pgbench_history  |                0
 2017-02-05 01:25:32.11024+01 | 1486254332.11024 | pgbench_branches |             8192

 2017-02-05 01:25:33.193055+01 | 1486254333.19305 | pgbench_accounts |       1392427008
 2017-02-05 01:25:33.193055+01 | 1486254333.19305 | pgbench_tellers  |            49152
 2017-02-05 01:25:33.193055+01 | 1486254333.19305 | pgbench_history  |                0
 2017-02-05 01:25:33.193055+01 | 1486254333.19305 | pgbench_branches |             8192

 2017-02-05 01:25:34.283193+01 | 1486254334.28319 | pgbench_accounts |       1392427008
 2017-02-05 01:25:34.283193+01 | 1486254334.28319 | pgbench_tellers  |            49152
 2017-02-05 01:25:34.283193+01 | 1486254334.28319 | pgbench_history  |                0
 2017-02-05 01:25:34.283193+01 | 1486254334.28319 | pgbench_branches |             8192

 2017-02-05 01:25:35.36847+01 | 1486254335.36847 | pgbench_accounts |       1392427008
 2017-02-05 01:25:35.36847+01 | 1486254335.36847 | pgbench_tellers  |            49152
 2017-02-05 01:25:35.36847+01 | 1486254335.36847 | pgbench_history  |                0
 2017-02-05 01:25:35.36847+01 | 1486254335.36847 | pgbench_branches |             8192

 2017-02-05 01:25:36.453223+01 | 1486254336.45322 | pgbench_accounts |       1392427008
 2017-02-05 01:25:36.453223+01 | 1486254336.45322 | pgbench_tellers  |            49152
 2017-02-05 01:25:36.453223+01 | 1486254336.45322 | pgbench_history  |                0
 2017-02-05 01:25:36.453223+01 | 1486254336.45322 | pgbench_branches |             8192

 2017-02-05 01:25:37.539565+01 | 1486254337.53957 | pgbench_accounts |       1392427008
 2017-02-05 01:25:37.539565+01 | 1486254337.53957 | pgbench_tellers  |            49152
 2017-02-05 01:25:37.539565+01 | 1486254337.53957 | pgbench_history  |                0
 2017-02-05 01:25:37.539565+01 | 1486254337.53957 | pgbench_branches |             8192

 2017-02-05 01:25:38.624741+01 | 1486254338.62474 | pgbench_accounts |       1392427008
 2017-02-05 01:25:38.624741+01 | 1486254338.62474 | pgbench_tellers  |            49152
 2017-02-05 01:25:38.624741+01 | 1486254338.62474 | pgbench_history  |                0
 2017-02-05 01:25:38.624741+01 | 1486254338.62474 | pgbench_branches |             8192

 2017-02-05 01:25:39.706744+01 | 1486254339.70674 | pgbench_accounts |       1392427008
 2017-02-05 01:25:39.706744+01 | 1486254339.70674 | pgbench_tellers  |            49152
 2017-02-05 01:25:39.706744+01 | 1486254339.70674 | pgbench_history  |                0
 2017-02-05 01:25:39.706744+01 | 1486254339.70674 | pgbench_branches |             8192

 2017-02-05 01:25:40.790688+01 | 1486254340.79069 | pgbench_accounts |       1392427008
 2017-02-05 01:25:40.790688+01 | 1486254340.79069 | pgbench_tellers  |            49152
 2017-02-05 01:25:40.790688+01 | 1486254340.79069 | pgbench_history  |                0
 2017-02-05 01:25:40.790688+01 | 1486254340.79069 | pgbench_branches |             8192

 2017-02-05 01:25:41.87464+01 | 1486254341.87464 | pgbench_accounts |       1392427008
 2017-02-05 01:25:41.87464+01 | 1486254341.87464 | pgbench_tellers  |            49152
 2017-02-05 01:25:41.87464+01 | 1486254341.87464 | pgbench_history  |                0
 2017-02-05 01:25:41.87464+01 | 1486254341.87464 | pgbench_branches |             8192

 2017-02-05 01:25:42.964331+01 | 1486254342.96433 | pgbench_accounts |       1392427008
 2017-02-05 01:25:42.964331+01 | 1486254342.96433 | pgbench_tellers  |            49152
 2017-02-05 01:25:42.964331+01 | 1486254342.96433 | pgbench_history  |                0
 2017-02-05 01:25:42.964331+01 | 1486254342.96433 | pgbench_branches |             8192

 2017-02-05 01:25:44.048785+01 | 1486254344.04878 | pgbench_accounts |       1392427008
 2017-02-05 01:25:44.048785+01 | 1486254344.04878 | pgbench_tellers  |            49152
 2017-02-05 01:25:44.048785+01 | 1486254344.04878 | pgbench_history  |                0
 2017-02-05 01:25:44.048785+01 | 1486254344.04878 | pgbench_branches |             8192

 2017-02-05 01:25:45.126634+01 | 1486254345.12663 | pgbench_accounts |       1392427008
 2017-02-05 01:25:45.126634+01 | 1486254345.12663 | pgbench_tellers  |            49152
 2017-02-05 01:25:45.126634+01 | 1486254345.12663 | pgbench_history  |                0
 2017-02-05 01:25:45.126634+01 | 1486254345.12663 | pgbench_branches |             8192

 2017-02-05 01:25:46.213682+01 | 1486254346.21368 | pgbench_accounts |       1392427008
 2017-02-05 01:25:46.213682+01 | 1486254346.21368 | pgbench_tellers  |            49152
 2017-02-05 01:25:46.213682+01 | 1486254346.21368 | pgbench_history  |                0
 2017-02-05 01:25:46.213682+01 | 1486254346.21368 | pgbench_branches |             8192

 2017-02-05 01:25:47.299336+01 | 1486254347.29934 | pgbench_accounts |       1392427008
 2017-02-05 01:25:47.299336+01 | 1486254347.29934 | pgbench_tellers  |            49152
 2017-02-05 01:25:47.299336+01 | 1486254347.29934 | pgbench_history  |                0
 2017-02-05 01:25:47.299336+01 | 1486254347.29934 | pgbench_branches |             8192

 2017-02-05 01:25:48.384863+01 | 1486254348.38486 | pgbench_accounts |       1392427008
 2017-02-05 01:25:48.384863+01 | 1486254348.38486 | pgbench_tellers  |            49152
 2017-02-05 01:25:48.384863+01 | 1486254348.38486 | pgbench_history  |                0
 2017-02-05 01:25:48.384863+01 | 1486254348.38486 | pgbench_branches |             8192

 2017-02-05 01:25:49.468553+01 | 1486254349.46855 | pgbench_accounts |       1392427008
 2017-02-05 01:25:49.468553+01 | 1486254349.46855 | pgbench_tellers  |            49152
 2017-02-05 01:25:49.468553+01 | 1486254349.46855 | pgbench_history  |                0
 2017-02-05 01:25:49.468553+01 | 1486254349.46855 | pgbench_branches |             8192

 2017-02-05 01:25:50.549235+01 | 1486254350.54924 | pgbench_accounts |       1392427008
 2017-02-05 01:25:50.549235+01 | 1486254350.54924 | pgbench_tellers  |            49152
 2017-02-05 01:25:50.549235+01 | 1486254350.54924 | pgbench_history  |                0
 2017-02-05 01:25:50.549235+01 | 1486254350.54924 | pgbench_branches |             8192

 2017-02-05 01:25:51.62887+01 | 1486254351.62887 | pgbench_accounts |       1392427008
 2017-02-05 01:25:51.62887+01 | 1486254351.62887 | pgbench_tellers  |            49152
 2017-02-05 01:25:51.62887+01 | 1486254351.62887 | pgbench_history  |                0
 2017-02-05 01:25:51.62887+01 | 1486254351.62887 | pgbench_branches |             8192

 2017-02-05 01:25:52.711096+01 | 1486254352.7111 | pgbench_accounts |       1392427008
 2017-02-05 01:25:52.711096+01 | 1486254352.7111 | pgbench_tellers  |            49152
 2017-02-05 01:25:52.711096+01 | 1486254352.7111 | pgbench_history  |                0
 2017-02-05 01:25:52.711096+01 | 1486254352.7111 | pgbench_branches |             8192

 2017-02-05 01:25:53.793733+01 | 1486254353.79373 | pgbench_accounts |       1392427008
 2017-02-05 01:25:53.793733+01 | 1486254353.79373 | pgbench_tellers  |            49152
 2017-02-05 01:25:53.793733+01 | 1486254353.79373 | pgbench_history  |                0
 2017-02-05 01:25:53.793733+01 | 1486254353.79373 | pgbench_branches |             8192

 2017-02-05 01:25:54.88061+01 | 1486254354.88061 | pgbench_accounts |       1392427008
 2017-02-05 01:25:54.88061+01 | 1486254354.88061 | pgbench_tellers  |            49152
 2017-02-05 01:25:54.88061+01 | 1486254354.88061 | pgbench_history  |                0
 2017-02-05 01:25:54.88061+01 | 1486254354.88061 | pgbench_branches |             8192

 2017-02-05 01:25:55.969025+01 | 1486254355.96902 | pgbench_accounts |       1392427008
 2017-02-05 01:25:55.969025+01 | 1486254355.96902 | pgbench_tellers  |            49152
 2017-02-05 01:25:55.969025+01 | 1486254355.96902 | pgbench_history  |                0
 2017-02-05 01:25:55.969025+01 | 1486254355.96902 | pgbench_branches |             8192

 2017-02-05 01:25:57.044373+01 | 1486254357.04437 | pgbench_accounts |       1392427008
 2017-02-05 01:25:57.044373+01 | 1486254357.04437 | pgbench_tellers  |            49152
 2017-02-05 01:25:57.044373+01 | 1486254357.04437 | pgbench_history  |                0
 2017-02-05 01:25:57.044373+01 | 1486254357.04437 | pgbench_branches |             8192

 2017-02-05 01:25:58.121516+01 | 1486254358.12152 | pgbench_accounts |       1392427008
 2017-02-05 01:25:58.121516+01 | 1486254358.12152 | pgbench_tellers  |            49152
 2017-02-05 01:25:58.121516+01 | 1486254358.12152 | pgbench_history  |                0
 2017-02-05 01:25:58.121516+01 | 1486254358.12152 | pgbench_branches |             8192

 2017-02-05 01:25:59.205752+01 | 1486254359.20575 | pgbench_accounts |       1392427008
 2017-02-05 01:25:59.205752+01 | 1486254359.20575 | pgbench_tellers  |            49152
 2017-02-05 01:25:59.205752+01 | 1486254359.20575 | pgbench_history  |                0
 2017-02-05 01:25:59.205752+01 | 1486254359.20575 | pgbench_branches |             8192

 2017-02-05 01:26:00.285136+01 | 1486254360.28514 | pgbench_accounts |       1392427008
 2017-02-05 01:26:00.285136+01 | 1486254360.28514 | pgbench_tellers  |            49152
 2017-02-05 01:26:00.285136+01 | 1486254360.28514 | pgbench_history  |                0
 2017-02-05 01:26:00.285136+01 | 1486254360.28514 | pgbench_branches |             8192

 2017-02-05 01:26:01.372714+01 | 1486254361.37271 | pgbench_accounts |       1392427008
 2017-02-05 01:26:01.372714+01 | 1486254361.37271 | pgbench_tellers  |            49152
 2017-02-05 01:26:01.372714+01 | 1486254361.37271 | pgbench_history  |                0
 2017-02-05 01:26:01.372714+01 | 1486254361.37271 | pgbench_branches |             8192

 2017-02-05 01:26:02.465337+01 | 1486254362.46534 | pgbench_accounts |       1392427008
 2017-02-05 01:26:02.465337+01 | 1486254362.46534 | pgbench_tellers  |            49152
 2017-02-05 01:26:02.465337+01 | 1486254362.46534 | pgbench_history  |                0
 2017-02-05 01:26:02.465337+01 | 1486254362.46534 | pgbench_branches |             8192

 2017-02-05 01:26:03.545092+01 | 1486254363.54509 | pgbench_accounts |       1392427008
 2017-02-05 01:26:03.545092+01 | 1486254363.54509 | pgbench_tellers  |            49152
 2017-02-05 01:26:03.545092+01 | 1486254363.54509 | pgbench_history  |                0
 2017-02-05 01:26:03.545092+01 | 1486254363.54509 | pgbench_branches |             8192

 2017-02-05 01:26:04.626378+01 | 1486254364.62638 | pgbench_accounts |       1392427008
 2017-02-05 01:26:04.626378+01 | 1486254364.62638 | pgbench_tellers  |            49152
 2017-02-05 01:26:04.626378+01 | 1486254364.62638 | pgbench_history  |                0
 2017-02-05 01:26:04.626378+01 | 1486254364.62638 | pgbench_branches |             8192

 2017-02-05 01:26:05.709103+01 | 1486254365.7091 | pgbench_accounts |       1392427008
 2017-02-05 01:26:05.709103+01 | 1486254365.7091 | pgbench_tellers  |            49152
 2017-02-05 01:26:05.709103+01 | 1486254365.7091 | pgbench_history  |                0
 2017-02-05 01:26:05.709103+01 | 1486254365.7091 | pgbench_branches |             8192

 2017-02-05 01:26:06.802126+01 | 1486254366.80213 | pgbench_accounts |       1392427008
 2017-02-05 01:26:06.802126+01 | 1486254366.80213 | pgbench_tellers  |            49152
 2017-02-05 01:26:06.802126+01 | 1486254366.80213 | pgbench_history  |                0
 2017-02-05 01:26:06.802126+01 | 1486254366.80213 | pgbench_branches |             8192

 2017-02-05 01:26:07.897012+01 | 1486254367.89701 | pgbench_accounts |       1392427008
 2017-02-05 01:26:07.897012+01 | 1486254367.89701 | pgbench_tellers  |            49152
 2017-02-05 01:26:07.897012+01 | 1486254367.89701 | pgbench_history  |                0
 2017-02-05 01:26:07.897012+01 | 1486254367.89701 | pgbench_branches |             8192

 2017-02-05 01:26:08.976246+01 | 1486254368.97625 | pgbench_accounts |       1392427008
 2017-02-05 01:26:08.976246+01 | 1486254368.97625 | pgbench_tellers  |            49152
 2017-02-05 01:26:08.976246+01 | 1486254368.97625 | pgbench_history  |                0
 2017-02-05 01:26:08.976246+01 | 1486254368.97625 | pgbench_branches |             8192

 2017-02-05 01:26:10.064958+01 | 1486254370.06496 | pgbench_accounts |       1392427008
 2017-02-05 01:26:10.064958+01 | 1486254370.06496 | pgbench_tellers  |            49152
 2017-02-05 01:26:10.064958+01 | 1486254370.06496 | pgbench_history  |                0
 2017-02-05 01:26:10.064958+01 | 1486254370.06496 | pgbench_branches |             8192

 2017-02-05 01:26:11.141497+01 | 1486254371.1415 | pgbench_accounts |       1392427008
 2017-02-05 01:26:11.141497+01 | 1486254371.1415 | pgbench_tellers  |            49152
 2017-02-05 01:26:11.141497+01 | 1486254371.1415 | pgbench_history  |                0
 2017-02-05 01:26:11.141497+01 | 1486254371.1415 | pgbench_branches |             8192

 2017-02-05 01:26:12.217735+01 | 1486254372.21774 | pgbench_accounts |       1392427008
 2017-02-05 01:26:12.217735+01 | 1486254372.21774 | pgbench_tellers  |            49152
 2017-02-05 01:26:12.217735+01 | 1486254372.21774 | pgbench_history  |                0
 2017-02-05 01:26:12.217735+01 | 1486254372.21774 | pgbench_branches |             8192

 2017-02-05 01:26:13.300945+01 | 1486254373.30095 | pgbench_accounts |       1392427008
 2017-02-05 01:26:13.300945+01 | 1486254373.30095 | pgbench_tellers  |            49152
 2017-02-05 01:26:13.300945+01 | 1486254373.30095 | pgbench_history  |                0
 2017-02-05 01:26:13.300945+01 | 1486254373.30095 | pgbench_branches |             8192

 2017-02-05 01:26:14.387028+01 | 1486254374.38703 | pgbench_accounts |       1392427008
 2017-02-05 01:26:14.387028+01 | 1486254374.38703 | pgbench_tellers  |            49152
 2017-02-05 01:26:14.387028+01 | 1486254374.38703 | pgbench_history  |                0
 2017-02-05 01:26:14.387028+01 | 1486254374.38703 | pgbench_branches |             8192

 2017-02-05 01:26:15.471596+01 | 1486254375.4716 | pgbench_accounts |       1392427008
 2017-02-05 01:26:15.471596+01 | 1486254375.4716 | pgbench_tellers  |            49152
 2017-02-05 01:26:15.471596+01 | 1486254375.4716 | pgbench_history  |                0
 2017-02-05 01:26:15.471596+01 | 1486254375.4716 | pgbench_branches |             8192

 2017-02-05 01:26:16.557494+01 | 1486254376.55749 | pgbench_accounts |       1392427008
 2017-02-05 01:26:16.557494+01 | 1486254376.55749 | pgbench_tellers  |            49152
 2017-02-05 01:26:16.557494+01 | 1486254376.55749 | pgbench_history  |                0
 2017-02-05 01:26:16.557494+01 | 1486254376.55749 | pgbench_branches |             8192

 2017-02-05 01:26:17.647051+01 | 1486254377.64705 | pgbench_accounts |       1392427008
 2017-02-05 01:26:17.647051+01 | 1486254377.64705 | pgbench_tellers  |            49152
 2017-02-05 01:26:17.647051+01 | 1486254377.64705 | pgbench_history  |                0
 2017-02-05 01:26:17.647051+01 | 1486254377.64705 | pgbench_branches |             8192

 2017-02-05 01:26:18.734302+01 | 1486254378.7343 | pgbench_accounts |       1392427008
 2017-02-05 01:26:18.734302+01 | 1486254378.7343 | pgbench_tellers  |            49152
 2017-02-05 01:26:18.734302+01 | 1486254378.7343 | pgbench_history  |                0
 2017-02-05 01:26:18.734302+01 | 1486254378.7343 | pgbench_branches |             8192

 2017-02-05 01:26:19.817523+01 | 1486254379.81752 | pgbench_accounts |       1392427008
 2017-02-05 01:26:19.817523+01 | 1486254379.81752 | pgbench_tellers  |            49152
 2017-02-05 01:26:19.817523+01 | 1486254379.81752 | pgbench_history  |                0
 2017-02-05 01:26:19.817523+01 | 1486254379.81752 | pgbench_branches |             8192

 2017-02-05 01:26:20.89657+01 | 1486254380.89657 | pgbench_accounts |       1392427008
 2017-02-05 01:26:20.89657+01 | 1486254380.89657 | pgbench_tellers  |            49152
 2017-02-05 01:26:20.89657+01 | 1486254380.89657 | pgbench_history  |                0
 2017-02-05 01:26:20.89657+01 | 1486254380.89657 | pgbench_branches |             8192

 2017-02-05 01:26:21.980441+01 | 1486254381.98044 | pgbench_accounts |       1392427008
 2017-02-05 01:26:21.980441+01 | 1486254381.98044 | pgbench_tellers  |            49152
 2017-02-05 01:26:21.980441+01 | 1486254381.98044 | pgbench_history  |                0
 2017-02-05 01:26:21.980441+01 | 1486254381.98044 | pgbench_branches |             8192

 2017-02-05 01:26:23.065829+01 | 1486254383.06583 | pgbench_accounts |       1392427008
 2017-02-05 01:26:23.065829+01 | 1486254383.06583 | pgbench_tellers  |            49152
 2017-02-05 01:26:23.065829+01 | 1486254383.06583 | pgbench_history  |                0
 2017-02-05 01:26:23.065829+01 | 1486254383.06583 | pgbench_branches |             8192

 2017-02-05 01:26:24.142183+01 | 1486254384.14218 | pgbench_accounts |       1392427008
 2017-02-05 01:26:24.142183+01 | 1486254384.14218 | pgbench_tellers  |            49152
 2017-02-05 01:26:24.142183+01 | 1486254384.14218 | pgbench_history  |                0
 2017-02-05 01:26:24.142183+01 | 1486254384.14218 | pgbench_branches |             8192

 2017-02-05 01:26:25.221811+01 | 1486254385.22181 | pgbench_accounts |       1392427008
 2017-02-05 01:26:25.221811+01 | 1486254385.22181 | pgbench_tellers  |            49152
 2017-02-05 01:26:25.221811+01 | 1486254385.22181 | pgbench_history  |                0
 2017-02-05 01:26:25.221811+01 | 1486254385.22181 | pgbench_branches |             8192

 2017-02-05 01:26:26.31247+01 | 1486254386.31247 | pgbench_accounts |       1392427008
 2017-02-05 01:26:26.31247+01 | 1486254386.31247 | pgbench_tellers  |            49152
 2017-02-05 01:26:26.31247+01 | 1486254386.31247 | pgbench_history  |                0
 2017-02-05 01:26:26.31247+01 | 1486254386.31247 | pgbench_branches |             8192

 2017-02-05 01:26:27.393475+01 | 1486254387.39348 | pgbench_accounts |       1392427008
 2017-02-05 01:26:27.393475+01 | 1486254387.39348 | pgbench_tellers  |            49152
 2017-02-05 01:26:27.393475+01 | 1486254387.39348 | pgbench_history  |                0
 2017-02-05 01:26:27.393475+01 | 1486254387.39348 | pgbench_branches |             8192

 2017-02-05 01:26:28.487493+01 | 1486254388.48749 | pgbench_accounts |       1392427008
 2017-02-05 01:26:28.487493+01 | 1486254388.48749 | pgbench_tellers  |            49152
 2017-02-05 01:26:28.487493+01 | 1486254388.48749 | pgbench_history  |                0
 2017-02-05 01:26:28.487493+01 | 1486254388.48749 | pgbench_branches |             8192

 2017-02-05 01:26:29.572328+01 | 1486254389.57233 | pgbench_accounts |       1392427008
 2017-02-05 01:26:29.572328+01 | 1486254389.57233 | pgbench_tellers  |            49152
 2017-02-05 01:26:29.572328+01 | 1486254389.57233 | pgbench_history  |                0
 2017-02-05 01:26:29.572328+01 | 1486254389.57233 | pgbench_branches |             8192

 2017-02-05 01:26:30.654952+01 | 1486254390.65495 | pgbench_accounts |       1392427008
 2017-02-05 01:26:30.654952+01 | 1486254390.65495 | pgbench_tellers  |            49152
 2017-02-05 01:26:30.654952+01 | 1486254390.65495 | pgbench_history  |                0
 2017-02-05 01:26:30.654952+01 | 1486254390.65495 | pgbench_branches |             8192

 2017-02-05 01:26:31.741619+01 | 1486254391.74162 | pgbench_accounts |       1392427008
 2017-02-05 01:26:31.741619+01 | 1486254391.74162 | pgbench_tellers  |            49152
 2017-02-05 01:26:31.741619+01 | 1486254391.74162 | pgbench_history  |                0
 2017-02-05 01:26:31.741619+01 | 1486254391.74162 | pgbench_branches |             8192

 2017-02-05 01:26:32.822531+01 | 1486254392.82253 | pgbench_accounts |       1392427008
 2017-02-05 01:26:32.822531+01 | 1486254392.82253 | pgbench_tellers  |            49152
 2017-02-05 01:26:32.822531+01 | 1486254392.82253 | pgbench_history  |                0
 2017-02-05 01:26:32.822531+01 | 1486254392.82253 | pgbench_branches |             8192

 2017-02-05 01:26:33.904777+01 | 1486254393.90478 | pgbench_accounts |       1392427008
 2017-02-05 01:26:33.904777+01 | 1486254393.90478 | pgbench_tellers  |            49152
 2017-02-05 01:26:33.904777+01 | 1486254393.90478 | pgbench_history  |                0
 2017-02-05 01:26:33.904777+01 | 1486254393.90478 | pgbench_branches |             8192

 2017-02-05 01:26:34.98871+01 | 1486254394.98871 | pgbench_accounts |       1392427008
 2017-02-05 01:26:34.98871+01 | 1486254394.98871 | pgbench_tellers  |            49152
 2017-02-05 01:26:34.98871+01 | 1486254394.98871 | pgbench_history  |                0
 2017-02-05 01:26:34.98871+01 | 1486254394.98871 | pgbench_branches |             8192

 2017-02-05 01:26:36.070321+01 | 1486254396.07032 | pgbench_accounts |       1392427008
 2017-02-05 01:26:36.070321+01 | 1486254396.07032 | pgbench_tellers  |            49152
 2017-02-05 01:26:36.070321+01 | 1486254396.07032 | pgbench_history  |                0
 2017-02-05 01:26:36.070321+01 | 1486254396.07032 | pgbench_branches |             8192

 2017-02-05 01:26:37.145535+01 | 1486254397.14553 | pgbench_accounts |       1392427008
 2017-02-05 01:26:37.145535+01 | 1486254397.14553 | pgbench_tellers  |            49152
 2017-02-05 01:26:37.145535+01 | 1486254397.14553 | pgbench_history  |                0
 2017-02-05 01:26:37.145535+01 | 1486254397.14553 | pgbench_branches |             8192

