 2017-02-05 03:48:51.771298+01 | 1486262931.7713 | pgbench_branches_pkey |            40960
 2017-02-05 03:48:51.771298+01 | 1486262931.7713 | pgbench_tellers_pkey  |           245760
 2017-02-05 03:48:51.771298+01 | 1486262931.7713 | pgbench_accounts_pkey |       2246197248

 2017-02-05 03:48:52.884556+01 | 1486262932.88456 | pgbench_branches_pkey |            40960
 2017-02-05 03:48:52.884556+01 | 1486262932.88456 | pgbench_tellers_pkey  |           245760
 2017-02-05 03:48:52.884556+01 | 1486262932.88456 | pgbench_accounts_pkey |       2246197248

 2017-02-05 03:48:53.99111+01 | 1486262933.99111 | pgbench_branches_pkey |            40960
 2017-02-05 03:48:53.99111+01 | 1486262933.99111 | pgbench_tellers_pkey  |           245760
 2017-02-05 03:48:53.99111+01 | 1486262933.99111 | pgbench_accounts_pkey |       2246197248

 2017-02-05 03:48:55.098419+01 | 1486262935.09842 | pgbench_branches_pkey |            40960
 2017-02-05 03:48:55.098419+01 | 1486262935.09842 | pgbench_tellers_pkey  |           245760
 2017-02-05 03:48:55.098419+01 | 1486262935.09842 | pgbench_accounts_pkey |       2246197248

 2017-02-05 03:48:56.211762+01 | 1486262936.21176 | pgbench_branches_pkey |            40960
 2017-02-05 03:48:56.211762+01 | 1486262936.21176 | pgbench_tellers_pkey  |           245760
 2017-02-05 03:48:56.211762+01 | 1486262936.21176 | pgbench_accounts_pkey |       2246197248

 2017-02-05 03:48:57.292667+01 | 1486262937.29267 | pgbench_branches_pkey |            40960
 2017-02-05 03:48:57.292667+01 | 1486262937.29267 | pgbench_tellers_pkey  |           245760
 2017-02-05 03:48:57.292667+01 | 1486262937.29267 | pgbench_accounts_pkey |       2246197248

 2017-02-05 03:48:58.368539+01 | 1486262938.36854 | pgbench_branches_pkey |            40960
 2017-02-05 03:48:58.368539+01 | 1486262938.36854 | pgbench_tellers_pkey  |           245760
 2017-02-05 03:48:58.368539+01 | 1486262938.36854 | pgbench_accounts_pkey |       2246197248

 2017-02-05 03:48:59.490577+01 | 1486262939.49058 | pgbench_branches_pkey |            40960
 2017-02-05 03:48:59.490577+01 | 1486262939.49058 | pgbench_tellers_pkey  |           245760
 2017-02-05 03:48:59.490577+01 | 1486262939.49058 | pgbench_accounts_pkey |       2246197248

 2017-02-05 03:49:00.59715+01 | 1486262940.59715 | pgbench_branches_pkey |            40960
 2017-02-05 03:49:00.59715+01 | 1486262940.59715 | pgbench_tellers_pkey  |           245760
 2017-02-05 03:49:00.59715+01 | 1486262940.59715 | pgbench_accounts_pkey |       2246197248

 2017-02-05 03:49:01.695624+01 | 1486262941.69562 | pgbench_branches_pkey |            40960
 2017-02-05 03:49:01.695624+01 | 1486262941.69562 | pgbench_tellers_pkey  |           245760
 2017-02-05 03:49:01.695624+01 | 1486262941.69562 | pgbench_accounts_pkey |       2246197248

 2017-02-05 03:49:02.80482+01 | 1486262942.80482 | pgbench_branches_pkey |            40960
 2017-02-05 03:49:02.80482+01 | 1486262942.80482 | pgbench_tellers_pkey  |           245760
 2017-02-05 03:49:02.80482+01 | 1486262942.80482 | pgbench_accounts_pkey |       2246197248

 2017-02-05 03:49:03.887401+01 | 1486262943.8874 | pgbench_branches_pkey |            40960
 2017-02-05 03:49:03.887401+01 | 1486262943.8874 | pgbench_tellers_pkey  |           245760
 2017-02-05 03:49:03.887401+01 | 1486262943.8874 | pgbench_accounts_pkey |       2246197248

 2017-02-05 03:49:04.982615+01 | 1486262944.98261 | pgbench_branches_pkey |            40960
 2017-02-05 03:49:04.982615+01 | 1486262944.98261 | pgbench_tellers_pkey  |           245760
 2017-02-05 03:49:04.982615+01 | 1486262944.98261 | pgbench_accounts_pkey |       2246197248

 2017-02-05 03:49:06.086267+01 | 1486262946.08627 | pgbench_branches_pkey |            40960
 2017-02-05 03:49:06.086267+01 | 1486262946.08627 | pgbench_tellers_pkey  |           245760
 2017-02-05 03:49:06.086267+01 | 1486262946.08627 | pgbench_accounts_pkey |       2246197248

 2017-02-05 03:49:07.173126+01 | 1486262947.17313 | pgbench_branches_pkey |            40960
 2017-02-05 03:49:07.173126+01 | 1486262947.17313 | pgbench_tellers_pkey  |           245760
 2017-02-05 03:49:07.173126+01 | 1486262947.17313 | pgbench_accounts_pkey |       2246197248

 2017-02-05 03:49:08.269985+01 | 1486262948.26998 | pgbench_branches_pkey |            40960
 2017-02-05 03:49:08.269985+01 | 1486262948.26998 | pgbench_tellers_pkey  |           245760
 2017-02-05 03:49:08.269985+01 | 1486262948.26998 | pgbench_accounts_pkey |       2246197248

 2017-02-05 03:49:09.356457+01 | 1486262949.35646 | pgbench_branches_pkey |            40960
 2017-02-05 03:49:09.356457+01 | 1486262949.35646 | pgbench_tellers_pkey  |           245760
 2017-02-05 03:49:09.356457+01 | 1486262949.35646 | pgbench_accounts_pkey |       2246197248

 2017-02-05 03:49:10.457905+01 | 1486262950.45791 | pgbench_branches_pkey |            40960
 2017-02-05 03:49:10.457905+01 | 1486262950.45791 | pgbench_tellers_pkey  |           245760
 2017-02-05 03:49:10.457905+01 | 1486262950.45791 | pgbench_accounts_pkey |       2246197248

 2017-02-05 03:49:11.573772+01 | 1486262951.57377 | pgbench_branches_pkey |            40960
 2017-02-05 03:49:11.573772+01 | 1486262951.57377 | pgbench_tellers_pkey  |           245760
 2017-02-05 03:49:11.573772+01 | 1486262951.57377 | pgbench_accounts_pkey |       2246197248

 2017-02-05 03:49:12.66972+01 | 1486262952.66972 | pgbench_branches_pkey |            40960
 2017-02-05 03:49:12.66972+01 | 1486262952.66972 | pgbench_tellers_pkey  |           245760
 2017-02-05 03:49:12.66972+01 | 1486262952.66972 | pgbench_accounts_pkey |       2246197248

 2017-02-05 03:49:13.750023+01 | 1486262953.75002 | pgbench_branches_pkey |            40960
 2017-02-05 03:49:13.750023+01 | 1486262953.75002 | pgbench_tellers_pkey  |           245760
 2017-02-05 03:49:13.750023+01 | 1486262953.75002 | pgbench_accounts_pkey |       2246197248

 2017-02-05 03:49:14.847454+01 | 1486262954.84745 | pgbench_branches_pkey |            40960
 2017-02-05 03:49:14.847454+01 | 1486262954.84745 | pgbench_tellers_pkey  |           245760
 2017-02-05 03:49:14.847454+01 | 1486262954.84745 | pgbench_accounts_pkey |       2246197248

 2017-02-05 03:49:15.961181+01 | 1486262955.96118 | pgbench_branches_pkey |            40960
 2017-02-05 03:49:15.961181+01 | 1486262955.96118 | pgbench_tellers_pkey  |           245760
 2017-02-05 03:49:15.961181+01 | 1486262955.96118 | pgbench_accounts_pkey |       2246197248

 2017-02-05 03:49:17.061716+01 | 1486262957.06172 | pgbench_branches_pkey |            40960
 2017-02-05 03:49:17.061716+01 | 1486262957.06172 | pgbench_tellers_pkey  |           245760
 2017-02-05 03:49:17.061716+01 | 1486262957.06172 | pgbench_accounts_pkey |       2246197248

 2017-02-05 03:49:18.135098+01 | 1486262958.1351 | pgbench_branches_pkey |            40960
 2017-02-05 03:49:18.135098+01 | 1486262958.1351 | pgbench_tellers_pkey  |           245760
 2017-02-05 03:49:18.135098+01 | 1486262958.1351 | pgbench_accounts_pkey |       2246197248

 2017-02-05 03:49:19.234123+01 | 1486262959.23412 | pgbench_branches_pkey |            40960
 2017-02-05 03:49:19.234123+01 | 1486262959.23412 | pgbench_tellers_pkey  |           245760
 2017-02-05 03:49:19.234123+01 | 1486262959.23412 | pgbench_accounts_pkey |       2246197248

 2017-02-05 03:49:20.337339+01 | 1486262960.33734 | pgbench_branches_pkey |            40960
 2017-02-05 03:49:20.337339+01 | 1486262960.33734 | pgbench_tellers_pkey  |           245760
 2017-02-05 03:49:20.337339+01 | 1486262960.33734 | pgbench_accounts_pkey |       2246197248

 2017-02-05 03:49:21.421014+01 | 1486262961.42101 | pgbench_branches_pkey |            40960
 2017-02-05 03:49:21.421014+01 | 1486262961.42101 | pgbench_tellers_pkey  |           245760
 2017-02-05 03:49:21.421014+01 | 1486262961.42101 | pgbench_accounts_pkey |       2246197248

 2017-02-05 03:49:22.506731+01 | 1486262962.50673 | pgbench_branches_pkey |            40960
 2017-02-05 03:49:22.506731+01 | 1486262962.50673 | pgbench_tellers_pkey  |           245760
 2017-02-05 03:49:22.506731+01 | 1486262962.50673 | pgbench_accounts_pkey |       2246197248

 2017-02-05 03:49:23.604211+01 | 1486262963.60421 | pgbench_branches_pkey |            40960
 2017-02-05 03:49:23.604211+01 | 1486262963.60421 | pgbench_tellers_pkey  |           245760
 2017-02-05 03:49:23.604211+01 | 1486262963.60421 | pgbench_accounts_pkey |       2246197248

 2017-02-05 03:49:24.698968+01 | 1486262964.69897 | pgbench_branches_pkey |            40960
 2017-02-05 03:49:24.698968+01 | 1486262964.69897 | pgbench_tellers_pkey  |           245760
 2017-02-05 03:49:24.698968+01 | 1486262964.69897 | pgbench_accounts_pkey |       2246197248

 2017-02-05 03:49:25.784543+01 | 1486262965.78454 | pgbench_branches_pkey |            40960
 2017-02-05 03:49:25.784543+01 | 1486262965.78454 | pgbench_tellers_pkey  |           245760
 2017-02-05 03:49:25.784543+01 | 1486262965.78454 | pgbench_accounts_pkey |       2246197248

 2017-02-05 03:49:26.878776+01 | 1486262966.87878 | pgbench_branches_pkey |            40960
 2017-02-05 03:49:26.878776+01 | 1486262966.87878 | pgbench_tellers_pkey  |           245760
 2017-02-05 03:49:26.878776+01 | 1486262966.87878 | pgbench_accounts_pkey |       2246197248

 2017-02-05 03:49:27.9676+01 | 1486262967.9676 | pgbench_branches_pkey |            40960
 2017-02-05 03:49:27.9676+01 | 1486262967.9676 | pgbench_tellers_pkey  |           245760
 2017-02-05 03:49:27.9676+01 | 1486262967.9676 | pgbench_accounts_pkey |       2246197248

 2017-02-05 03:49:29.074819+01 | 1486262969.07482 | pgbench_branches_pkey |            40960
 2017-02-05 03:49:29.074819+01 | 1486262969.07482 | pgbench_tellers_pkey  |           245760
 2017-02-05 03:49:29.074819+01 | 1486262969.07482 | pgbench_accounts_pkey |       2246197248

 2017-02-05 03:49:30.183179+01 | 1486262970.18318 | pgbench_branches_pkey |            40960
 2017-02-05 03:49:30.183179+01 | 1486262970.18318 | pgbench_tellers_pkey  |           245760
 2017-02-05 03:49:30.183179+01 | 1486262970.18318 | pgbench_accounts_pkey |       2246197248

 2017-02-05 03:49:31.274586+01 | 1486262971.27459 | pgbench_branches_pkey |            40960
 2017-02-05 03:49:31.274586+01 | 1486262971.27459 | pgbench_tellers_pkey  |           245760
 2017-02-05 03:49:31.274586+01 | 1486262971.27459 | pgbench_accounts_pkey |       2246197248

 2017-02-05 03:49:32.3816+01 | 1486262972.3816 | pgbench_branches_pkey |            40960
 2017-02-05 03:49:32.3816+01 | 1486262972.3816 | pgbench_tellers_pkey  |           245760
 2017-02-05 03:49:32.3816+01 | 1486262972.3816 | pgbench_accounts_pkey |       2246197248

 2017-02-05 03:49:33.485785+01 | 1486262973.48579 | pgbench_branches_pkey |            40960
 2017-02-05 03:49:33.485785+01 | 1486262973.48579 | pgbench_tellers_pkey  |           245760
 2017-02-05 03:49:33.485785+01 | 1486262973.48579 | pgbench_accounts_pkey |       2246197248

 2017-02-05 03:49:34.571774+01 | 1486262974.57177 | pgbench_branches_pkey |            40960
 2017-02-05 03:49:34.571774+01 | 1486262974.57177 | pgbench_tellers_pkey  |           245760
 2017-02-05 03:49:34.571774+01 | 1486262974.57177 | pgbench_accounts_pkey |       2246197248

 2017-02-05 03:49:35.658445+01 | 1486262975.65844 | pgbench_branches_pkey |            40960
 2017-02-05 03:49:35.658445+01 | 1486262975.65844 | pgbench_tellers_pkey  |           245760
 2017-02-05 03:49:35.658445+01 | 1486262975.65844 | pgbench_accounts_pkey |       2246197248

 2017-02-05 03:49:36.743215+01 | 1486262976.74322 | pgbench_branches_pkey |            40960
 2017-02-05 03:49:36.743215+01 | 1486262976.74322 | pgbench_tellers_pkey  |           245760
 2017-02-05 03:49:36.743215+01 | 1486262976.74322 | pgbench_accounts_pkey |       2246197248

 2017-02-05 03:49:37.843613+01 | 1486262977.84361 | pgbench_branches_pkey |            40960
 2017-02-05 03:49:37.843613+01 | 1486262977.84361 | pgbench_tellers_pkey  |           245760
 2017-02-05 03:49:37.843613+01 | 1486262977.84361 | pgbench_accounts_pkey |       2246197248

 2017-02-05 03:49:38.950307+01 | 1486262978.95031 | pgbench_branches_pkey |            40960
 2017-02-05 03:49:38.950307+01 | 1486262978.95031 | pgbench_tellers_pkey  |           245760
 2017-02-05 03:49:38.950307+01 | 1486262978.95031 | pgbench_accounts_pkey |       2246197248

 2017-02-05 03:49:40.058489+01 | 1486262980.05849 | pgbench_branches_pkey |            40960
 2017-02-05 03:49:40.058489+01 | 1486262980.05849 | pgbench_tellers_pkey  |           245760
 2017-02-05 03:49:40.058489+01 | 1486262980.05849 | pgbench_accounts_pkey |       2246197248

 2017-02-05 03:49:41.169816+01 | 1486262981.16982 | pgbench_branches_pkey |            40960
 2017-02-05 03:49:41.169816+01 | 1486262981.16982 | pgbench_tellers_pkey  |           245760
 2017-02-05 03:49:41.169816+01 | 1486262981.16982 | pgbench_accounts_pkey |       2246197248

 2017-02-05 03:49:42.280054+01 | 1486262982.28005 | pgbench_branches_pkey |            40960
 2017-02-05 03:49:42.280054+01 | 1486262982.28005 | pgbench_tellers_pkey  |           245760
 2017-02-05 03:49:42.280054+01 | 1486262982.28005 | pgbench_accounts_pkey |       2246197248

 2017-02-05 03:49:43.358118+01 | 1486262983.35812 | pgbench_branches_pkey |            40960
 2017-02-05 03:49:43.358118+01 | 1486262983.35812 | pgbench_tellers_pkey  |           245760
 2017-02-05 03:49:43.358118+01 | 1486262983.35812 | pgbench_accounts_pkey |       2246197248

 2017-02-05 03:49:44.458693+01 | 1486262984.45869 | pgbench_branches_pkey |            40960
 2017-02-05 03:49:44.458693+01 | 1486262984.45869 | pgbench_tellers_pkey  |           245760
 2017-02-05 03:49:44.458693+01 | 1486262984.45869 | pgbench_accounts_pkey |       2246197248

 2017-02-05 03:49:45.568494+01 | 1486262985.56849 | pgbench_branches_pkey |            40960
 2017-02-05 03:49:45.568494+01 | 1486262985.56849 | pgbench_tellers_pkey  |           245760
 2017-02-05 03:49:45.568494+01 | 1486262985.56849 | pgbench_accounts_pkey |       2246197248

 2017-02-05 03:49:46.658909+01 | 1486262986.65891 | pgbench_branches_pkey |            40960
 2017-02-05 03:49:46.658909+01 | 1486262986.65891 | pgbench_tellers_pkey  |           245760
 2017-02-05 03:49:46.658909+01 | 1486262986.65891 | pgbench_accounts_pkey |       2246197248

 2017-02-05 03:49:47.73873+01 | 1486262987.73873 | pgbench_branches_pkey |            40960
 2017-02-05 03:49:47.73873+01 | 1486262987.73873 | pgbench_tellers_pkey  |           245760
 2017-02-05 03:49:47.73873+01 | 1486262987.73873 | pgbench_accounts_pkey |       2246197248

 2017-02-05 03:49:48.818477+01 | 1486262988.81848 | pgbench_branches_pkey |            40960
 2017-02-05 03:49:48.818477+01 | 1486262988.81848 | pgbench_tellers_pkey  |           245760
 2017-02-05 03:49:48.818477+01 | 1486262988.81848 | pgbench_accounts_pkey |       2246197248

 2017-02-05 03:49:49.910024+01 | 1486262989.91002 | pgbench_branches_pkey |            40960
 2017-02-05 03:49:49.910024+01 | 1486262989.91002 | pgbench_tellers_pkey  |           245760
 2017-02-05 03:49:49.910024+01 | 1486262989.91002 | pgbench_accounts_pkey |       2246197248

 2017-02-05 03:49:51.025886+01 | 1486262991.02589 | pgbench_branches_pkey |            40960
 2017-02-05 03:49:51.025886+01 | 1486262991.02589 | pgbench_tellers_pkey  |           245760
 2017-02-05 03:49:51.025886+01 | 1486262991.02589 | pgbench_accounts_pkey |       2246197248

 2017-02-05 03:49:52.111827+01 | 1486262992.11183 | pgbench_branches_pkey |            40960
 2017-02-05 03:49:52.111827+01 | 1486262992.11183 | pgbench_tellers_pkey  |           245760
 2017-02-05 03:49:52.111827+01 | 1486262992.11183 | pgbench_accounts_pkey |       2246197248

 2017-02-05 03:49:53.192888+01 | 1486262993.19289 | pgbench_branches_pkey |            40960
 2017-02-05 03:49:53.192888+01 | 1486262993.19289 | pgbench_tellers_pkey  |           245760
 2017-02-05 03:49:53.192888+01 | 1486262993.19289 | pgbench_accounts_pkey |       2246197248

 2017-02-05 03:49:54.2893+01 | 1486262994.2893 | pgbench_branches_pkey |            40960
 2017-02-05 03:49:54.2893+01 | 1486262994.2893 | pgbench_tellers_pkey  |           245760
 2017-02-05 03:49:54.2893+01 | 1486262994.2893 | pgbench_accounts_pkey |       2246197248

 2017-02-05 03:49:55.392256+01 | 1486262995.39226 | pgbench_branches_pkey |            40960
 2017-02-05 03:49:55.392256+01 | 1486262995.39226 | pgbench_tellers_pkey  |           245760
 2017-02-05 03:49:55.392256+01 | 1486262995.39226 | pgbench_accounts_pkey |       2246197248

 2017-02-05 03:49:56.515571+01 | 1486262996.51557 | pgbench_branches_pkey |            40960
 2017-02-05 03:49:56.515571+01 | 1486262996.51557 | pgbench_tellers_pkey  |           245760
 2017-02-05 03:49:56.515571+01 | 1486262996.51557 | pgbench_accounts_pkey |       2246197248

 2017-02-05 03:49:57.591353+01 | 1486262997.59135 | pgbench_branches_pkey |            40960
 2017-02-05 03:49:57.591353+01 | 1486262997.59135 | pgbench_tellers_pkey  |           245760
 2017-02-05 03:49:57.591353+01 | 1486262997.59135 | pgbench_accounts_pkey |       2246197248

 2017-02-05 03:49:58.694768+01 | 1486262998.69477 | pgbench_branches_pkey |            40960
 2017-02-05 03:49:58.694768+01 | 1486262998.69477 | pgbench_tellers_pkey  |           245760
 2017-02-05 03:49:58.694768+01 | 1486262998.69477 | pgbench_accounts_pkey |       2246197248

 2017-02-05 03:49:59.792301+01 | 1486262999.7923 | pgbench_branches_pkey |            40960
 2017-02-05 03:49:59.792301+01 | 1486262999.7923 | pgbench_tellers_pkey  |           245760
 2017-02-05 03:49:59.792301+01 | 1486262999.7923 | pgbench_accounts_pkey |       2246197248

 2017-02-05 03:50:00.877823+01 | 1486263000.87782 | pgbench_branches_pkey |            40960
 2017-02-05 03:50:00.877823+01 | 1486263000.87782 | pgbench_tellers_pkey  |           245760
 2017-02-05 03:50:00.877823+01 | 1486263000.87782 | pgbench_accounts_pkey |       2246197248

 2017-02-05 03:50:01.975101+01 | 1486263001.9751 | pgbench_branches_pkey |            40960
 2017-02-05 03:50:01.975101+01 | 1486263001.9751 | pgbench_tellers_pkey  |           245760
 2017-02-05 03:50:01.975101+01 | 1486263001.9751 | pgbench_accounts_pkey |       2246197248

 2017-02-05 03:50:03.058813+01 | 1486263003.05881 | pgbench_branches_pkey |            40960
 2017-02-05 03:50:03.058813+01 | 1486263003.05881 | pgbench_tellers_pkey  |           245760
 2017-02-05 03:50:03.058813+01 | 1486263003.05881 | pgbench_accounts_pkey |       2246197248

 2017-02-05 03:50:04.133912+01 | 1486263004.13391 | pgbench_branches_pkey |            40960
 2017-02-05 03:50:04.133912+01 | 1486263004.13391 | pgbench_tellers_pkey  |           245760
 2017-02-05 03:50:04.133912+01 | 1486263004.13391 | pgbench_accounts_pkey |       2246197248

 2017-02-05 03:50:05.205393+01 | 1486263005.20539 | pgbench_branches_pkey |            40960
 2017-02-05 03:50:05.205393+01 | 1486263005.20539 | pgbench_tellers_pkey  |           245760
 2017-02-05 03:50:05.205393+01 | 1486263005.20539 | pgbench_accounts_pkey |       2246197248

 2017-02-05 03:50:06.296488+01 | 1486263006.29649 | pgbench_branches_pkey |            40960
 2017-02-05 03:50:06.296488+01 | 1486263006.29649 | pgbench_tellers_pkey  |           245760
 2017-02-05 03:50:06.296488+01 | 1486263006.29649 | pgbench_accounts_pkey |       2246197248

 2017-02-05 03:50:07.397006+01 | 1486263007.39701 | pgbench_branches_pkey |            40960
 2017-02-05 03:50:07.397006+01 | 1486263007.39701 | pgbench_tellers_pkey  |           245760
 2017-02-05 03:50:07.397006+01 | 1486263007.39701 | pgbench_accounts_pkey |       2246197248

 2017-02-05 03:50:08.504654+01 | 1486263008.50465 | pgbench_branches_pkey |            40960
 2017-02-05 03:50:08.504654+01 | 1486263008.50465 | pgbench_tellers_pkey  |           245760
 2017-02-05 03:50:08.504654+01 | 1486263008.50465 | pgbench_accounts_pkey |       2246197248

 2017-02-05 03:50:09.587634+01 | 1486263009.58763 | pgbench_branches_pkey |            40960
 2017-02-05 03:50:09.587634+01 | 1486263009.58763 | pgbench_tellers_pkey  |           245760
 2017-02-05 03:50:09.587634+01 | 1486263009.58763 | pgbench_accounts_pkey |       2246197248

 2017-02-05 03:50:10.66532+01 | 1486263010.66532 | pgbench_branches_pkey |            40960
 2017-02-05 03:50:10.66532+01 | 1486263010.66532 | pgbench_tellers_pkey  |           245760
 2017-02-05 03:50:10.66532+01 | 1486263010.66532 | pgbench_accounts_pkey |       2246197248

 2017-02-05 03:50:11.757085+01 | 1486263011.75709 | pgbench_branches_pkey |            40960
 2017-02-05 03:50:11.757085+01 | 1486263011.75709 | pgbench_tellers_pkey  |           245760
 2017-02-05 03:50:11.757085+01 | 1486263011.75709 | pgbench_accounts_pkey |       2246197248

 2017-02-05 03:50:12.852611+01 | 1486263012.85261 | pgbench_branches_pkey |            40960
 2017-02-05 03:50:12.852611+01 | 1486263012.85261 | pgbench_tellers_pkey  |           245760
 2017-02-05 03:50:12.852611+01 | 1486263012.85261 | pgbench_accounts_pkey |       2246197248

 2017-02-05 03:50:13.926534+01 | 1486263013.92653 | pgbench_branches_pkey |            40960
 2017-02-05 03:50:13.926534+01 | 1486263013.92653 | pgbench_tellers_pkey  |           245760
 2017-02-05 03:50:13.926534+01 | 1486263013.92653 | pgbench_accounts_pkey |       2246197248

 2017-02-05 03:50:15.023108+01 | 1486263015.02311 | pgbench_branches_pkey |            40960
 2017-02-05 03:50:15.023108+01 | 1486263015.02311 | pgbench_tellers_pkey  |           245760
 2017-02-05 03:50:15.023108+01 | 1486263015.02311 | pgbench_accounts_pkey |       2246197248

 2017-02-05 03:50:16.137251+01 | 1486263016.13725 | pgbench_branches_pkey |            40960
 2017-02-05 03:50:16.137251+01 | 1486263016.13725 | pgbench_tellers_pkey  |           245760
 2017-02-05 03:50:16.137251+01 | 1486263016.13725 | pgbench_accounts_pkey |       2246197248

 2017-02-05 03:50:17.256888+01 | 1486263017.25689 | pgbench_branches_pkey |            40960
 2017-02-05 03:50:17.256888+01 | 1486263017.25689 | pgbench_tellers_pkey  |           245760
 2017-02-05 03:50:17.256888+01 | 1486263017.25689 | pgbench_accounts_pkey |       2246197248

 2017-02-05 03:50:18.345424+01 | 1486263018.34542 | pgbench_branches_pkey |            40960
 2017-02-05 03:50:18.345424+01 | 1486263018.34542 | pgbench_tellers_pkey  |           245760
 2017-02-05 03:50:18.345424+01 | 1486263018.34542 | pgbench_accounts_pkey |       2246197248

 2017-02-05 03:50:19.43841+01 | 1486263019.43841 | pgbench_branches_pkey |            40960
 2017-02-05 03:50:19.43841+01 | 1486263019.43841 | pgbench_tellers_pkey  |           245760
 2017-02-05 03:50:19.43841+01 | 1486263019.43841 | pgbench_accounts_pkey |       2246197248

 2017-02-05 03:50:20.536404+01 | 1486263020.5364 | pgbench_branches_pkey |            40960
 2017-02-05 03:50:20.536404+01 | 1486263020.5364 | pgbench_tellers_pkey  |           245760
 2017-02-05 03:50:20.536404+01 | 1486263020.5364 | pgbench_accounts_pkey |       2246197248

 2017-02-05 03:50:21.626026+01 | 1486263021.62603 | pgbench_branches_pkey |            40960
 2017-02-05 03:50:21.626026+01 | 1486263021.62603 | pgbench_tellers_pkey  |           245760
 2017-02-05 03:50:21.626026+01 | 1486263021.62603 | pgbench_accounts_pkey |       2246197248

 2017-02-05 03:50:22.720817+01 | 1486263022.72082 | pgbench_branches_pkey |            40960
 2017-02-05 03:50:22.720817+01 | 1486263022.72082 | pgbench_tellers_pkey  |           245760
 2017-02-05 03:50:22.720817+01 | 1486263022.72082 | pgbench_accounts_pkey |       2246197248

 2017-02-05 03:50:23.801114+01 | 1486263023.80111 | pgbench_branches_pkey |            40960
 2017-02-05 03:50:23.801114+01 | 1486263023.80111 | pgbench_tellers_pkey  |           245760
 2017-02-05 03:50:23.801114+01 | 1486263023.80111 | pgbench_accounts_pkey |       2246197248

 2017-02-05 03:50:24.890276+01 | 1486263024.89028 | pgbench_branches_pkey |            40960
 2017-02-05 03:50:24.890276+01 | 1486263024.89028 | pgbench_tellers_pkey  |           245760
 2017-02-05 03:50:24.890276+01 | 1486263024.89028 | pgbench_accounts_pkey |       2246197248

 2017-02-05 03:50:25.978112+01 | 1486263025.97811 | pgbench_branches_pkey |            40960
 2017-02-05 03:50:25.978112+01 | 1486263025.97811 | pgbench_tellers_pkey  |           245760
 2017-02-05 03:50:25.978112+01 | 1486263025.97811 | pgbench_accounts_pkey |       2246197248

 2017-02-05 03:50:27.063231+01 | 1486263027.06323 | pgbench_branches_pkey |            40960
 2017-02-05 03:50:27.063231+01 | 1486263027.06323 | pgbench_tellers_pkey  |           245760
 2017-02-05 03:50:27.063231+01 | 1486263027.06323 | pgbench_accounts_pkey |       2246197248

 2017-02-05 03:50:28.150986+01 | 1486263028.15099 | pgbench_branches_pkey |            40960
 2017-02-05 03:50:28.150986+01 | 1486263028.15099 | pgbench_tellers_pkey  |           245760
 2017-02-05 03:50:28.150986+01 | 1486263028.15099 | pgbench_accounts_pkey |       2246197248

 2017-02-05 03:50:29.25317+01 | 1486263029.25317 | pgbench_branches_pkey |            40960
 2017-02-05 03:50:29.25317+01 | 1486263029.25317 | pgbench_tellers_pkey  |           245760
 2017-02-05 03:50:29.25317+01 | 1486263029.25317 | pgbench_accounts_pkey |       2246197248

 2017-02-05 03:50:30.365712+01 | 1486263030.36571 | pgbench_branches_pkey |            40960
 2017-02-05 03:50:30.365712+01 | 1486263030.36571 | pgbench_tellers_pkey  |           245760
 2017-02-05 03:50:30.365712+01 | 1486263030.36571 | pgbench_accounts_pkey |       2246197248

 2017-02-05 03:50:31.487288+01 | 1486263031.48729 | pgbench_branches_pkey |            40960
 2017-02-05 03:50:31.487288+01 | 1486263031.48729 | pgbench_tellers_pkey  |           245760
 2017-02-05 03:50:31.487288+01 | 1486263031.48729 | pgbench_accounts_pkey |       2246197248

 2017-02-05 03:50:32.597368+01 | 1486263032.59737 | pgbench_branches_pkey |            40960
 2017-02-05 03:50:32.597368+01 | 1486263032.59737 | pgbench_tellers_pkey  |           245760
 2017-02-05 03:50:32.597368+01 | 1486263032.59737 | pgbench_accounts_pkey |       2246197248

 2017-02-05 03:50:33.685679+01 | 1486263033.68568 | pgbench_branches_pkey |            40960
 2017-02-05 03:50:33.685679+01 | 1486263033.68568 | pgbench_tellers_pkey  |           245760
 2017-02-05 03:50:33.685679+01 | 1486263033.68568 | pgbench_accounts_pkey |       2246197248

 2017-02-05 03:50:34.772504+01 | 1486263034.7725 | pgbench_branches_pkey |            40960
 2017-02-05 03:50:34.772504+01 | 1486263034.7725 | pgbench_tellers_pkey  |           245760
 2017-02-05 03:50:34.772504+01 | 1486263034.7725 | pgbench_accounts_pkey |       2246197248

 2017-02-05 03:50:35.843591+01 | 1486263035.84359 | pgbench_branches_pkey |            40960
 2017-02-05 03:50:35.843591+01 | 1486263035.84359 | pgbench_tellers_pkey  |           245760
 2017-02-05 03:50:35.843591+01 | 1486263035.84359 | pgbench_accounts_pkey |       2246197248

 2017-02-05 03:50:36.956383+01 | 1486263036.95638 | pgbench_branches_pkey |            40960
 2017-02-05 03:50:36.956383+01 | 1486263036.95638 | pgbench_tellers_pkey  |           245760
 2017-02-05 03:50:36.956383+01 | 1486263036.95638 | pgbench_accounts_pkey |       2246197248

 2017-02-05 03:50:38.050417+01 | 1486263038.05042 | pgbench_branches_pkey |            40960
 2017-02-05 03:50:38.050417+01 | 1486263038.05042 | pgbench_tellers_pkey  |           245760
 2017-02-05 03:50:38.050417+01 | 1486263038.05042 | pgbench_accounts_pkey |       2246197248

 2017-02-05 03:50:39.142603+01 | 1486263039.1426 | pgbench_branches_pkey |            40960
 2017-02-05 03:50:39.142603+01 | 1486263039.1426 | pgbench_tellers_pkey  |           245760
 2017-02-05 03:50:39.142603+01 | 1486263039.1426 | pgbench_accounts_pkey |       2246197248

 2017-02-05 03:50:40.250939+01 | 1486263040.25094 | pgbench_branches_pkey |            40960
 2017-02-05 03:50:40.250939+01 | 1486263040.25094 | pgbench_tellers_pkey  |           245760
 2017-02-05 03:50:40.250939+01 | 1486263040.25094 | pgbench_accounts_pkey |       2246197248

 2017-02-05 03:50:41.328056+01 | 1486263041.32806 | pgbench_branches_pkey |            40960
 2017-02-05 03:50:41.328056+01 | 1486263041.32806 | pgbench_tellers_pkey  |           245760
 2017-02-05 03:50:41.328056+01 | 1486263041.32806 | pgbench_accounts_pkey |       2246197248

 2017-02-05 03:50:42.402718+01 | 1486263042.40272 | pgbench_branches_pkey |            40960
 2017-02-05 03:50:42.402718+01 | 1486263042.40272 | pgbench_tellers_pkey  |           245760
 2017-02-05 03:50:42.402718+01 | 1486263042.40272 | pgbench_accounts_pkey |       2246197248

 2017-02-05 03:50:43.485321+01 | 1486263043.48532 | pgbench_branches_pkey |            40960
 2017-02-05 03:50:43.485321+01 | 1486263043.48532 | pgbench_tellers_pkey  |           245760
 2017-02-05 03:50:43.485321+01 | 1486263043.48532 | pgbench_accounts_pkey |       2246197248

 2017-02-05 03:50:44.58622+01 | 1486263044.58622 | pgbench_branches_pkey |            40960
 2017-02-05 03:50:44.58622+01 | 1486263044.58622 | pgbench_tellers_pkey  |           245760
 2017-02-05 03:50:44.58622+01 | 1486263044.58622 | pgbench_accounts_pkey |       2246197248

 2017-02-05 03:50:45.684973+01 | 1486263045.68497 | pgbench_branches_pkey |            40960
 2017-02-05 03:50:45.684973+01 | 1486263045.68497 | pgbench_tellers_pkey  |           245760
 2017-02-05 03:50:45.684973+01 | 1486263045.68497 | pgbench_accounts_pkey |       2246197248

 2017-02-05 03:50:46.795615+01 | 1486263046.79561 | pgbench_branches_pkey |            40960
 2017-02-05 03:50:46.795615+01 | 1486263046.79561 | pgbench_tellers_pkey  |           245760
 2017-02-05 03:50:46.795615+01 | 1486263046.79561 | pgbench_accounts_pkey |       2246197248

 2017-02-05 03:50:47.908266+01 | 1486263047.90827 | pgbench_branches_pkey |            40960
 2017-02-05 03:50:47.908266+01 | 1486263047.90827 | pgbench_tellers_pkey  |           245760
 2017-02-05 03:50:47.908266+01 | 1486263047.90827 | pgbench_accounts_pkey |       2246197248

 2017-02-05 03:50:48.990849+01 | 1486263048.99085 | pgbench_branches_pkey |            40960
 2017-02-05 03:50:48.990849+01 | 1486263048.99085 | pgbench_tellers_pkey  |           245760
 2017-02-05 03:50:48.990849+01 | 1486263048.99085 | pgbench_accounts_pkey |       2246197248

 2017-02-05 03:50:50.079294+01 | 1486263050.07929 | pgbench_branches_pkey |            40960
 2017-02-05 03:50:50.079294+01 | 1486263050.07929 | pgbench_tellers_pkey  |           245760
 2017-02-05 03:50:50.079294+01 | 1486263050.07929 | pgbench_accounts_pkey |       2246197248

 2017-02-05 03:50:51.186535+01 | 1486263051.18653 | pgbench_branches_pkey |            40960
 2017-02-05 03:50:51.186535+01 | 1486263051.18653 | pgbench_tellers_pkey  |           245760
 2017-02-05 03:50:51.186535+01 | 1486263051.18653 | pgbench_accounts_pkey |       2246197248

 2017-02-05 03:50:52.286532+01 | 1486263052.28653 | pgbench_branches_pkey |            40960
 2017-02-05 03:50:52.286532+01 | 1486263052.28653 | pgbench_tellers_pkey  |           245760
 2017-02-05 03:50:52.286532+01 | 1486263052.28653 | pgbench_accounts_pkey |       2246197248

 2017-02-05 03:50:53.38377+01 | 1486263053.38377 | pgbench_branches_pkey |            40960
 2017-02-05 03:50:53.38377+01 | 1486263053.38377 | pgbench_tellers_pkey  |           245760
 2017-02-05 03:50:53.38377+01 | 1486263053.38377 | pgbench_accounts_pkey |       2246197248

 2017-02-05 03:50:54.483857+01 | 1486263054.48386 | pgbench_branches_pkey |            40960
 2017-02-05 03:50:54.483857+01 | 1486263054.48386 | pgbench_tellers_pkey  |           245760
 2017-02-05 03:50:54.483857+01 | 1486263054.48386 | pgbench_accounts_pkey |       2246197248

 2017-02-05 03:50:55.582102+01 | 1486263055.5821 | pgbench_branches_pkey |            40960
 2017-02-05 03:50:55.582102+01 | 1486263055.5821 | pgbench_tellers_pkey  |           245760
 2017-02-05 03:50:55.582102+01 | 1486263055.5821 | pgbench_accounts_pkey |       2246197248

 2017-02-05 03:50:56.674144+01 | 1486263056.67414 | pgbench_branches_pkey |            40960
 2017-02-05 03:50:56.674144+01 | 1486263056.67414 | pgbench_tellers_pkey  |           245760
 2017-02-05 03:50:56.674144+01 | 1486263056.67414 | pgbench_accounts_pkey |       2246197248

 2017-02-05 03:50:57.778875+01 | 1486263057.77888 | pgbench_branches_pkey |            40960
 2017-02-05 03:50:57.778875+01 | 1486263057.77888 | pgbench_tellers_pkey  |           245760
 2017-02-05 03:50:57.778875+01 | 1486263057.77888 | pgbench_accounts_pkey |       2246197248

 2017-02-05 03:50:58.854202+01 | 1486263058.8542 | pgbench_branches_pkey |            40960
 2017-02-05 03:50:58.854202+01 | 1486263058.8542 | pgbench_tellers_pkey  |           245760
 2017-02-05 03:50:58.854202+01 | 1486263058.8542 | pgbench_accounts_pkey |       2246197248

 2017-02-05 03:50:59.931275+01 | 1486263059.93127 | pgbench_branches_pkey |            40960
 2017-02-05 03:50:59.931275+01 | 1486263059.93127 | pgbench_tellers_pkey  |           245760
 2017-02-05 03:50:59.931275+01 | 1486263059.93127 | pgbench_accounts_pkey |       2246197248

 2017-02-05 03:51:01.021298+01 | 1486263061.0213 | pgbench_branches_pkey |            40960
 2017-02-05 03:51:01.021298+01 | 1486263061.0213 | pgbench_tellers_pkey  |           245760
 2017-02-05 03:51:01.021298+01 | 1486263061.0213 | pgbench_accounts_pkey |       2246197248

 2017-02-05 03:51:02.128244+01 | 1486263062.12824 | pgbench_branches_pkey |            40960
 2017-02-05 03:51:02.128244+01 | 1486263062.12824 | pgbench_tellers_pkey  |           245760
 2017-02-05 03:51:02.128244+01 | 1486263062.12824 | pgbench_accounts_pkey |       2246197248

 2017-02-05 03:51:03.222518+01 | 1486263063.22252 | pgbench_branches_pkey |            40960
 2017-02-05 03:51:03.222518+01 | 1486263063.22252 | pgbench_tellers_pkey  |           245760
 2017-02-05 03:51:03.222518+01 | 1486263063.22252 | pgbench_accounts_pkey |       2246197248

 2017-02-05 03:51:04.32719+01 | 1486263064.32719 | pgbench_branches_pkey |            40960
 2017-02-05 03:51:04.32719+01 | 1486263064.32719 | pgbench_tellers_pkey  |           245760
 2017-02-05 03:51:04.32719+01 | 1486263064.32719 | pgbench_accounts_pkey |       2246197248

 2017-02-05 03:51:05.442616+01 | 1486263065.44262 | pgbench_branches_pkey |            40960
 2017-02-05 03:51:05.442616+01 | 1486263065.44262 | pgbench_tellers_pkey  |           245760
 2017-02-05 03:51:05.442616+01 | 1486263065.44262 | pgbench_accounts_pkey |       2246197248

 2017-02-05 03:51:06.522172+01 | 1486263066.52217 | pgbench_branches_pkey |            40960
 2017-02-05 03:51:06.522172+01 | 1486263066.52217 | pgbench_tellers_pkey  |           245760
 2017-02-05 03:51:06.522172+01 | 1486263066.52217 | pgbench_accounts_pkey |       2246197248

 2017-02-05 03:51:07.601278+01 | 1486263067.60128 | pgbench_branches_pkey |            40960
 2017-02-05 03:51:07.601278+01 | 1486263067.60128 | pgbench_tellers_pkey  |           245760
 2017-02-05 03:51:07.601278+01 | 1486263067.60128 | pgbench_accounts_pkey |       2246197248

 2017-02-05 03:51:08.698012+01 | 1486263068.69801 | pgbench_branches_pkey |            40960
 2017-02-05 03:51:08.698012+01 | 1486263068.69801 | pgbench_tellers_pkey  |           245760
 2017-02-05 03:51:08.698012+01 | 1486263068.69801 | pgbench_accounts_pkey |       2246197248

 2017-02-05 03:51:09.775067+01 | 1486263069.77507 | pgbench_branches_pkey |            40960
 2017-02-05 03:51:09.775067+01 | 1486263069.77507 | pgbench_tellers_pkey  |           245760
 2017-02-05 03:51:09.775067+01 | 1486263069.77507 | pgbench_accounts_pkey |       2246197248

 2017-02-05 03:51:10.868491+01 | 1486263070.86849 | pgbench_branches_pkey |            40960
 2017-02-05 03:51:10.868491+01 | 1486263070.86849 | pgbench_tellers_pkey  |           245760
 2017-02-05 03:51:10.868491+01 | 1486263070.86849 | pgbench_accounts_pkey |       2246197248

 2017-02-05 03:51:11.96555+01 | 1486263071.96555 | pgbench_branches_pkey |            40960
 2017-02-05 03:51:11.96555+01 | 1486263071.96555 | pgbench_tellers_pkey  |           245760
 2017-02-05 03:51:11.96555+01 | 1486263071.96555 | pgbench_accounts_pkey |       2246197248

 2017-02-05 03:51:13.067652+01 | 1486263073.06765 | pgbench_branches_pkey |            40960
 2017-02-05 03:51:13.067652+01 | 1486263073.06765 | pgbench_tellers_pkey  |           245760
 2017-02-05 03:51:13.067652+01 | 1486263073.06765 | pgbench_accounts_pkey |       2246197248

 2017-02-05 03:51:14.176728+01 | 1486263074.17673 | pgbench_branches_pkey |            40960
 2017-02-05 03:51:14.176728+01 | 1486263074.17673 | pgbench_tellers_pkey  |           245760
 2017-02-05 03:51:14.176728+01 | 1486263074.17673 | pgbench_accounts_pkey |       2246197248

 2017-02-05 03:51:15.250746+01 | 1486263075.25075 | pgbench_branches_pkey |            40960
 2017-02-05 03:51:15.250746+01 | 1486263075.25075 | pgbench_tellers_pkey  |           245760
 2017-02-05 03:51:15.250746+01 | 1486263075.25075 | pgbench_accounts_pkey |       2246197248

 2017-02-05 03:51:16.344194+01 | 1486263076.34419 | pgbench_branches_pkey |            40960
 2017-02-05 03:51:16.344194+01 | 1486263076.34419 | pgbench_tellers_pkey  |           245760
 2017-02-05 03:51:16.344194+01 | 1486263076.34419 | pgbench_accounts_pkey |       2246197248

 2017-02-05 03:51:17.427995+01 | 1486263077.42799 | pgbench_branches_pkey |            40960
 2017-02-05 03:51:17.427995+01 | 1486263077.42799 | pgbench_tellers_pkey  |           245760
 2017-02-05 03:51:17.427995+01 | 1486263077.42799 | pgbench_accounts_pkey |       2246197248

 2017-02-05 03:51:18.522896+01 | 1486263078.5229 | pgbench_branches_pkey |            40960
 2017-02-05 03:51:18.522896+01 | 1486263078.5229 | pgbench_tellers_pkey  |           245760
 2017-02-05 03:51:18.522896+01 | 1486263078.5229 | pgbench_accounts_pkey |       2246197248

 2017-02-05 03:51:19.626383+01 | 1486263079.62638 | pgbench_branches_pkey |            40960
 2017-02-05 03:51:19.626383+01 | 1486263079.62638 | pgbench_tellers_pkey  |           245760
 2017-02-05 03:51:19.626383+01 | 1486263079.62638 | pgbench_accounts_pkey |       2246197248

 2017-02-05 03:51:20.740897+01 | 1486263080.7409 | pgbench_branches_pkey |            40960
 2017-02-05 03:51:20.740897+01 | 1486263080.7409 | pgbench_tellers_pkey  |           245760
 2017-02-05 03:51:20.740897+01 | 1486263080.7409 | pgbench_accounts_pkey |       2246197248

 2017-02-05 03:51:21.854134+01 | 1486263081.85413 | pgbench_branches_pkey |            40960
 2017-02-05 03:51:21.854134+01 | 1486263081.85413 | pgbench_tellers_pkey  |           245760
 2017-02-05 03:51:21.854134+01 | 1486263081.85413 | pgbench_accounts_pkey |       2246197248

 2017-02-05 03:51:22.968405+01 | 1486263082.96841 | pgbench_branches_pkey |            40960
 2017-02-05 03:51:22.968405+01 | 1486263082.96841 | pgbench_tellers_pkey  |           245760
 2017-02-05 03:51:22.968405+01 | 1486263082.96841 | pgbench_accounts_pkey |       2246197248

 2017-02-05 03:51:24.04818+01 | 1486263084.04818 | pgbench_branches_pkey |            40960
 2017-02-05 03:51:24.04818+01 | 1486263084.04818 | pgbench_tellers_pkey  |           245760
 2017-02-05 03:51:24.04818+01 | 1486263084.04818 | pgbench_accounts_pkey |       2246197248

 2017-02-05 03:51:25.138976+01 | 1486263085.13898 | pgbench_branches_pkey |            40960
 2017-02-05 03:51:25.138976+01 | 1486263085.13898 | pgbench_tellers_pkey  |           245760
 2017-02-05 03:51:25.138976+01 | 1486263085.13898 | pgbench_accounts_pkey |       2246197248

 2017-02-05 03:51:26.235886+01 | 1486263086.23589 | pgbench_branches_pkey |            40960
 2017-02-05 03:51:26.235886+01 | 1486263086.23589 | pgbench_tellers_pkey  |           245760
 2017-02-05 03:51:26.235886+01 | 1486263086.23589 | pgbench_accounts_pkey |       2246197248

 2017-02-05 03:51:27.35357+01 | 1486263087.35357 | pgbench_branches_pkey |            40960
 2017-02-05 03:51:27.35357+01 | 1486263087.35357 | pgbench_tellers_pkey  |           245760
 2017-02-05 03:51:27.35357+01 | 1486263087.35357 | pgbench_accounts_pkey |       2246197248

 2017-02-05 03:51:28.468925+01 | 1486263088.46892 | pgbench_branches_pkey |            40960
 2017-02-05 03:51:28.468925+01 | 1486263088.46892 | pgbench_tellers_pkey  |           245760
 2017-02-05 03:51:28.468925+01 | 1486263088.46892 | pgbench_accounts_pkey |       2246197248

 2017-02-05 03:51:29.565542+01 | 1486263089.56554 | pgbench_branches_pkey |            40960
 2017-02-05 03:51:29.565542+01 | 1486263089.56554 | pgbench_tellers_pkey  |           245760
 2017-02-05 03:51:29.565542+01 | 1486263089.56554 | pgbench_accounts_pkey |       2246197248

 2017-02-05 03:51:30.64337+01 | 1486263090.64337 | pgbench_branches_pkey |            40960
 2017-02-05 03:51:30.64337+01 | 1486263090.64337 | pgbench_tellers_pkey  |           245760
 2017-02-05 03:51:30.64337+01 | 1486263090.64337 | pgbench_accounts_pkey |       2246197248

 2017-02-05 03:51:31.737995+01 | 1486263091.73799 | pgbench_branches_pkey |            40960
 2017-02-05 03:51:31.737995+01 | 1486263091.73799 | pgbench_tellers_pkey  |           245760
 2017-02-05 03:51:31.737995+01 | 1486263091.73799 | pgbench_accounts_pkey |       2246197248

 2017-02-05 03:51:32.854274+01 | 1486263092.85427 | pgbench_branches_pkey |            40960
 2017-02-05 03:51:32.854274+01 | 1486263092.85427 | pgbench_tellers_pkey  |           245760
 2017-02-05 03:51:32.854274+01 | 1486263092.85427 | pgbench_accounts_pkey |       2246197248

 2017-02-05 03:51:33.945078+01 | 1486263093.94508 | pgbench_branches_pkey |            40960
 2017-02-05 03:51:33.945078+01 | 1486263093.94508 | pgbench_tellers_pkey  |           245760
 2017-02-05 03:51:33.945078+01 | 1486263093.94508 | pgbench_accounts_pkey |       2246197248

 2017-02-05 03:51:35.023701+01 | 1486263095.0237 | pgbench_branches_pkey |            40960
 2017-02-05 03:51:35.023701+01 | 1486263095.0237 | pgbench_tellers_pkey  |           245760
 2017-02-05 03:51:35.023701+01 | 1486263095.0237 | pgbench_accounts_pkey |       2246197248

 2017-02-05 03:51:36.10833+01 | 1486263096.10833 | pgbench_branches_pkey |            40960
 2017-02-05 03:51:36.10833+01 | 1486263096.10833 | pgbench_tellers_pkey  |           245760
 2017-02-05 03:51:36.10833+01 | 1486263096.10833 | pgbench_accounts_pkey |       2246197248

 2017-02-05 03:51:37.195277+01 | 1486263097.19528 | pgbench_branches_pkey |            40960
 2017-02-05 03:51:37.195277+01 | 1486263097.19528 | pgbench_tellers_pkey  |           245760
 2017-02-05 03:51:37.195277+01 | 1486263097.19528 | pgbench_accounts_pkey |       2246197248

 2017-02-05 03:51:38.296733+01 | 1486263098.29673 | pgbench_branches_pkey |            40960
 2017-02-05 03:51:38.296733+01 | 1486263098.29673 | pgbench_tellers_pkey  |           245760
 2017-02-05 03:51:38.296733+01 | 1486263098.29673 | pgbench_accounts_pkey |       2246197248

 2017-02-05 03:51:39.392316+01 | 1486263099.39232 | pgbench_branches_pkey |            40960
 2017-02-05 03:51:39.392316+01 | 1486263099.39232 | pgbench_tellers_pkey  |           245760
 2017-02-05 03:51:39.392316+01 | 1486263099.39232 | pgbench_accounts_pkey |       2246197248

 2017-02-05 03:51:40.491637+01 | 1486263100.49164 | pgbench_branches_pkey |            40960
 2017-02-05 03:51:40.491637+01 | 1486263100.49164 | pgbench_tellers_pkey  |           245760
 2017-02-05 03:51:40.491637+01 | 1486263100.49164 | pgbench_accounts_pkey |       2246197248

 2017-02-05 03:51:41.595579+01 | 1486263101.59558 | pgbench_branches_pkey |            40960
 2017-02-05 03:51:41.595579+01 | 1486263101.59558 | pgbench_tellers_pkey  |           245760
 2017-02-05 03:51:41.595579+01 | 1486263101.59558 | pgbench_accounts_pkey |       2246197248

 2017-02-05 03:51:42.707065+01 | 1486263102.70707 | pgbench_branches_pkey |            40960
 2017-02-05 03:51:42.707065+01 | 1486263102.70707 | pgbench_tellers_pkey  |           245760
 2017-02-05 03:51:42.707065+01 | 1486263102.70707 | pgbench_accounts_pkey |       2246197248

 2017-02-05 03:51:43.8259+01 | 1486263103.8259 | pgbench_branches_pkey |            40960
 2017-02-05 03:51:43.8259+01 | 1486263103.8259 | pgbench_tellers_pkey  |           245760
 2017-02-05 03:51:43.8259+01 | 1486263103.8259 | pgbench_accounts_pkey |       2246197248

 2017-02-05 03:51:44.92682+01 | 1486263104.92682 | pgbench_branches_pkey |            40960
 2017-02-05 03:51:44.92682+01 | 1486263104.92682 | pgbench_tellers_pkey  |           245760
 2017-02-05 03:51:44.92682+01 | 1486263104.92682 | pgbench_accounts_pkey |       2246197248

 2017-02-05 03:51:46.023144+01 | 1486263106.02314 | pgbench_branches_pkey |            40960
 2017-02-05 03:51:46.023144+01 | 1486263106.02314 | pgbench_tellers_pkey  |           245760
 2017-02-05 03:51:46.023144+01 | 1486263106.02314 | pgbench_accounts_pkey |       2246197248

 2017-02-05 03:51:47.12328+01 | 1486263107.12328 | pgbench_branches_pkey |            40960
 2017-02-05 03:51:47.12328+01 | 1486263107.12328 | pgbench_tellers_pkey  |           245760
 2017-02-05 03:51:47.12328+01 | 1486263107.12328 | pgbench_accounts_pkey |       2246197248

 2017-02-05 03:51:48.205709+01 | 1486263108.20571 | pgbench_branches_pkey |            40960
 2017-02-05 03:51:48.205709+01 | 1486263108.20571 | pgbench_tellers_pkey  |           245760
 2017-02-05 03:51:48.205709+01 | 1486263108.20571 | pgbench_accounts_pkey |       2246197248

 2017-02-05 03:51:49.310642+01 | 1486263109.31064 | pgbench_branches_pkey |            40960
 2017-02-05 03:51:49.310642+01 | 1486263109.31064 | pgbench_tellers_pkey  |           245760
 2017-02-05 03:51:49.310642+01 | 1486263109.31064 | pgbench_accounts_pkey |       2246197248

 2017-02-05 03:51:50.405326+01 | 1486263110.40533 | pgbench_branches_pkey |            40960
 2017-02-05 03:51:50.405326+01 | 1486263110.40533 | pgbench_tellers_pkey  |           245760
 2017-02-05 03:51:50.405326+01 | 1486263110.40533 | pgbench_accounts_pkey |       2246197248

 2017-02-05 03:51:51.516774+01 | 1486263111.51677 | pgbench_branches_pkey |            40960
 2017-02-05 03:51:51.516774+01 | 1486263111.51677 | pgbench_tellers_pkey  |           245760
 2017-02-05 03:51:51.516774+01 | 1486263111.51677 | pgbench_accounts_pkey |       2246197248

 2017-02-05 03:51:52.626049+01 | 1486263112.62605 | pgbench_branches_pkey |            40960
 2017-02-05 03:51:52.626049+01 | 1486263112.62605 | pgbench_tellers_pkey  |           245760
 2017-02-05 03:51:52.626049+01 | 1486263112.62605 | pgbench_accounts_pkey |       2246197248

 2017-02-05 03:51:53.727401+01 | 1486263113.7274 | pgbench_branches_pkey |            40960
 2017-02-05 03:51:53.727401+01 | 1486263113.7274 | pgbench_tellers_pkey  |           245760
 2017-02-05 03:51:53.727401+01 | 1486263113.7274 | pgbench_accounts_pkey |       2246197248

 2017-02-05 03:51:54.843867+01 | 1486263114.84387 | pgbench_branches_pkey |            40960
 2017-02-05 03:51:54.843867+01 | 1486263114.84387 | pgbench_tellers_pkey  |           245760
 2017-02-05 03:51:54.843867+01 | 1486263114.84387 | pgbench_accounts_pkey |       2246197248

 2017-02-05 03:51:55.956316+01 | 1486263115.95632 | pgbench_branches_pkey |            40960
 2017-02-05 03:51:55.956316+01 | 1486263115.95632 | pgbench_tellers_pkey  |           245760
 2017-02-05 03:51:55.956316+01 | 1486263115.95632 | pgbench_accounts_pkey |       2246197248

 2017-02-05 03:51:57.068913+01 | 1486263117.06891 | pgbench_branches_pkey |            40960
 2017-02-05 03:51:57.068913+01 | 1486263117.06891 | pgbench_tellers_pkey  |           245760
 2017-02-05 03:51:57.068913+01 | 1486263117.06891 | pgbench_accounts_pkey |       2246197248

 2017-02-05 03:51:58.161248+01 | 1486263118.16125 | pgbench_branches_pkey |            40960
 2017-02-05 03:51:58.161248+01 | 1486263118.16125 | pgbench_tellers_pkey  |           245760
 2017-02-05 03:51:58.161248+01 | 1486263118.16125 | pgbench_accounts_pkey |       2246197248

 2017-02-05 03:51:59.248839+01 | 1486263119.24884 | pgbench_branches_pkey |            40960
 2017-02-05 03:51:59.248839+01 | 1486263119.24884 | pgbench_tellers_pkey  |           245760
 2017-02-05 03:51:59.248839+01 | 1486263119.24884 | pgbench_accounts_pkey |       2246197248

 2017-02-05 03:52:00.326761+01 | 1486263120.32676 | pgbench_branches_pkey |            40960
 2017-02-05 03:52:00.326761+01 | 1486263120.32676 | pgbench_tellers_pkey  |           245760
 2017-02-05 03:52:00.326761+01 | 1486263120.32676 | pgbench_accounts_pkey |       2246197248

 2017-02-05 03:52:01.398556+01 | 1486263121.39856 | pgbench_branches_pkey |            40960
 2017-02-05 03:52:01.398556+01 | 1486263121.39856 | pgbench_tellers_pkey  |           245760
 2017-02-05 03:52:01.398556+01 | 1486263121.39856 | pgbench_accounts_pkey |       2246197248

 2017-02-05 03:52:02.480348+01 | 1486263122.48035 | pgbench_branches_pkey |            40960
 2017-02-05 03:52:02.480348+01 | 1486263122.48035 | pgbench_tellers_pkey  |           245760
 2017-02-05 03:52:02.480348+01 | 1486263122.48035 | pgbench_accounts_pkey |       2246197248

 2017-02-05 03:52:03.56022+01 | 1486263123.56022 | pgbench_branches_pkey |            40960
 2017-02-05 03:52:03.56022+01 | 1486263123.56022 | pgbench_tellers_pkey  |           245760
 2017-02-05 03:52:03.56022+01 | 1486263123.56022 | pgbench_accounts_pkey |       2246197248

 2017-02-05 03:52:04.636198+01 | 1486263124.6362 | pgbench_branches_pkey |            40960
 2017-02-05 03:52:04.636198+01 | 1486263124.6362 | pgbench_tellers_pkey  |           245760
 2017-02-05 03:52:04.636198+01 | 1486263124.6362 | pgbench_accounts_pkey |       2246197248

 2017-02-05 03:52:05.710522+01 | 1486263125.71052 | pgbench_branches_pkey |            40960
 2017-02-05 03:52:05.710522+01 | 1486263125.71052 | pgbench_tellers_pkey  |           245760
 2017-02-05 03:52:05.710522+01 | 1486263125.71052 | pgbench_accounts_pkey |       2246197248

 2017-02-05 03:52:06.824023+01 | 1486263126.82402 | pgbench_branches_pkey |            40960
 2017-02-05 03:52:06.824023+01 | 1486263126.82402 | pgbench_tellers_pkey  |           245760
 2017-02-05 03:52:06.824023+01 | 1486263126.82402 | pgbench_accounts_pkey |       2246197248

 2017-02-05 03:52:07.940553+01 | 1486263127.94055 | pgbench_branches_pkey |            40960
 2017-02-05 03:52:07.940553+01 | 1486263127.94055 | pgbench_tellers_pkey  |           245760
 2017-02-05 03:52:07.940553+01 | 1486263127.94055 | pgbench_accounts_pkey |       2246197248

 2017-02-05 03:52:09.051992+01 | 1486263129.05199 | pgbench_branches_pkey |            40960
 2017-02-05 03:52:09.051992+01 | 1486263129.05199 | pgbench_tellers_pkey  |           245760
 2017-02-05 03:52:09.051992+01 | 1486263129.05199 | pgbench_accounts_pkey |       2246197248

 2017-02-05 03:52:10.155236+01 | 1486263130.15524 | pgbench_branches_pkey |            40960
 2017-02-05 03:52:10.155236+01 | 1486263130.15524 | pgbench_tellers_pkey  |           245760
 2017-02-05 03:52:10.155236+01 | 1486263130.15524 | pgbench_accounts_pkey |       2246197248

 2017-02-05 03:52:11.263281+01 | 1486263131.26328 | pgbench_branches_pkey |            40960
 2017-02-05 03:52:11.263281+01 | 1486263131.26328 | pgbench_tellers_pkey  |           245760
 2017-02-05 03:52:11.263281+01 | 1486263131.26328 | pgbench_accounts_pkey |       2246197248

 2017-02-05 03:52:12.364739+01 | 1486263132.36474 | pgbench_branches_pkey |            40960
 2017-02-05 03:52:12.364739+01 | 1486263132.36474 | pgbench_tellers_pkey  |           245760
 2017-02-05 03:52:12.364739+01 | 1486263132.36474 | pgbench_accounts_pkey |       2246197248

 2017-02-05 03:52:13.479298+01 | 1486263133.4793 | pgbench_branches_pkey |            40960
 2017-02-05 03:52:13.479298+01 | 1486263133.4793 | pgbench_tellers_pkey  |           245760
 2017-02-05 03:52:13.479298+01 | 1486263133.4793 | pgbench_accounts_pkey |       2246197248

 2017-02-05 03:52:14.58834+01 | 1486263134.58834 | pgbench_branches_pkey |            40960
 2017-02-05 03:52:14.58834+01 | 1486263134.58834 | pgbench_tellers_pkey  |           245760
 2017-02-05 03:52:14.58834+01 | 1486263134.58834 | pgbench_accounts_pkey |       2246197248

 2017-02-05 03:52:15.689573+01 | 1486263135.68957 | pgbench_branches_pkey |            40960
 2017-02-05 03:52:15.689573+01 | 1486263135.68957 | pgbench_tellers_pkey  |           245760
 2017-02-05 03:52:15.689573+01 | 1486263135.68957 | pgbench_accounts_pkey |       2246197248

 2017-02-05 03:52:16.796051+01 | 1486263136.79605 | pgbench_branches_pkey |            40960
 2017-02-05 03:52:16.796051+01 | 1486263136.79605 | pgbench_tellers_pkey  |           245760
 2017-02-05 03:52:16.796051+01 | 1486263136.79605 | pgbench_accounts_pkey |       2246197248

 2017-02-05 03:52:17.913997+01 | 1486263137.914 | pgbench_branches_pkey |            40960
 2017-02-05 03:52:17.913997+01 | 1486263137.914 | pgbench_tellers_pkey  |           245760
 2017-02-05 03:52:17.913997+01 | 1486263137.914 | pgbench_accounts_pkey |       2246197248

 2017-02-05 03:52:19.024613+01 | 1486263139.02461 | pgbench_branches_pkey |            40960
 2017-02-05 03:52:19.024613+01 | 1486263139.02461 | pgbench_tellers_pkey  |           245760
 2017-02-05 03:52:19.024613+01 | 1486263139.02461 | pgbench_accounts_pkey |       2246197248

 2017-02-05 03:52:20.106115+01 | 1486263140.10612 | pgbench_branches_pkey |            40960
 2017-02-05 03:52:20.106115+01 | 1486263140.10612 | pgbench_tellers_pkey  |           245760
 2017-02-05 03:52:20.106115+01 | 1486263140.10612 | pgbench_accounts_pkey |       2246197248

 2017-02-05 03:52:21.212023+01 | 1486263141.21202 | pgbench_branches_pkey |            40960
 2017-02-05 03:52:21.212023+01 | 1486263141.21202 | pgbench_tellers_pkey  |           245760
 2017-02-05 03:52:21.212023+01 | 1486263141.21202 | pgbench_accounts_pkey |       2246197248

 2017-02-05 03:52:22.309077+01 | 1486263142.30908 | pgbench_branches_pkey |            40960
 2017-02-05 03:52:22.309077+01 | 1486263142.30908 | pgbench_tellers_pkey  |           245760
 2017-02-05 03:52:22.309077+01 | 1486263142.30908 | pgbench_accounts_pkey |       2246197248

 2017-02-05 03:52:23.404819+01 | 1486263143.40482 | pgbench_branches_pkey |            40960
 2017-02-05 03:52:23.404819+01 | 1486263143.40482 | pgbench_tellers_pkey  |           245760
 2017-02-05 03:52:23.404819+01 | 1486263143.40482 | pgbench_accounts_pkey |       2246197248

 2017-02-05 03:52:24.507933+01 | 1486263144.50793 | pgbench_branches_pkey |            40960
 2017-02-05 03:52:24.507933+01 | 1486263144.50793 | pgbench_tellers_pkey  |           245760
 2017-02-05 03:52:24.507933+01 | 1486263144.50793 | pgbench_accounts_pkey |       2246197248

 2017-02-05 03:52:25.608963+01 | 1486263145.60896 | pgbench_branches_pkey |            40960
 2017-02-05 03:52:25.608963+01 | 1486263145.60896 | pgbench_tellers_pkey  |           245760
 2017-02-05 03:52:25.608963+01 | 1486263145.60896 | pgbench_accounts_pkey |       2246197248

 2017-02-05 03:52:26.694796+01 | 1486263146.6948 | pgbench_branches_pkey |            40960
 2017-02-05 03:52:26.694796+01 | 1486263146.6948 | pgbench_tellers_pkey  |           245760
 2017-02-05 03:52:26.694796+01 | 1486263146.6948 | pgbench_accounts_pkey |       2246197248

 2017-02-05 03:52:27.77042+01 | 1486263147.77042 | pgbench_branches_pkey |            40960
 2017-02-05 03:52:27.77042+01 | 1486263147.77042 | pgbench_tellers_pkey  |           245760
 2017-02-05 03:52:27.77042+01 | 1486263147.77042 | pgbench_accounts_pkey |       2246197248

 2017-02-05 03:52:28.865421+01 | 1486263148.86542 | pgbench_branches_pkey |            40960
 2017-02-05 03:52:28.865421+01 | 1486263148.86542 | pgbench_tellers_pkey  |           245760
 2017-02-05 03:52:28.865421+01 | 1486263148.86542 | pgbench_accounts_pkey |       2246197248

 2017-02-05 03:52:29.945935+01 | 1486263149.94594 | pgbench_branches_pkey |            40960
 2017-02-05 03:52:29.945935+01 | 1486263149.94594 | pgbench_tellers_pkey  |           245760
 2017-02-05 03:52:29.945935+01 | 1486263149.94594 | pgbench_accounts_pkey |       2246197248

 2017-02-05 03:52:31.041074+01 | 1486263151.04107 | pgbench_branches_pkey |            40960
 2017-02-05 03:52:31.041074+01 | 1486263151.04107 | pgbench_tellers_pkey  |           245760
 2017-02-05 03:52:31.041074+01 | 1486263151.04107 | pgbench_accounts_pkey |       2246197248

 2017-02-05 03:52:32.154185+01 | 1486263152.15419 | pgbench_branches_pkey |            40960
 2017-02-05 03:52:32.154185+01 | 1486263152.15419 | pgbench_tellers_pkey  |           245760
 2017-02-05 03:52:32.154185+01 | 1486263152.15419 | pgbench_accounts_pkey |       2246197248

 2017-02-05 03:52:33.256332+01 | 1486263153.25633 | pgbench_branches_pkey |            40960
 2017-02-05 03:52:33.256332+01 | 1486263153.25633 | pgbench_tellers_pkey  |           245760
 2017-02-05 03:52:33.256332+01 | 1486263153.25633 | pgbench_accounts_pkey |       2246197248

 2017-02-05 03:52:34.36786+01 | 1486263154.36786 | pgbench_branches_pkey |            40960
 2017-02-05 03:52:34.36786+01 | 1486263154.36786 | pgbench_tellers_pkey  |           245760
 2017-02-05 03:52:34.36786+01 | 1486263154.36786 | pgbench_accounts_pkey |       2246197248

 2017-02-05 03:52:35.476919+01 | 1486263155.47692 | pgbench_branches_pkey |            40960
 2017-02-05 03:52:35.476919+01 | 1486263155.47692 | pgbench_tellers_pkey  |           245760
 2017-02-05 03:52:35.476919+01 | 1486263155.47692 | pgbench_accounts_pkey |       2246197248

 2017-02-05 03:52:36.580873+01 | 1486263156.58087 | pgbench_branches_pkey |            40960
 2017-02-05 03:52:36.580873+01 | 1486263156.58087 | pgbench_tellers_pkey  |           245760
 2017-02-05 03:52:36.580873+01 | 1486263156.58087 | pgbench_accounts_pkey |       2246197248

 2017-02-05 03:52:37.683069+01 | 1486263157.68307 | pgbench_branches_pkey |            40960
 2017-02-05 03:52:37.683069+01 | 1486263157.68307 | pgbench_tellers_pkey  |           245760
 2017-02-05 03:52:37.683069+01 | 1486263157.68307 | pgbench_accounts_pkey |       2246197248

 2017-02-05 03:52:38.802121+01 | 1486263158.80212 | pgbench_branches_pkey |            40960
 2017-02-05 03:52:38.802121+01 | 1486263158.80212 | pgbench_tellers_pkey  |           245760
 2017-02-05 03:52:38.802121+01 | 1486263158.80212 | pgbench_accounts_pkey |       2246197248

 2017-02-05 03:52:39.901138+01 | 1486263159.90114 | pgbench_branches_pkey |            40960
 2017-02-05 03:52:39.901138+01 | 1486263159.90114 | pgbench_tellers_pkey  |           245760
 2017-02-05 03:52:39.901138+01 | 1486263159.90114 | pgbench_accounts_pkey |       2246197248

 2017-02-05 03:52:41.001378+01 | 1486263161.00138 | pgbench_branches_pkey |            40960
 2017-02-05 03:52:41.001378+01 | 1486263161.00138 | pgbench_tellers_pkey  |           245760
 2017-02-05 03:52:41.001378+01 | 1486263161.00138 | pgbench_accounts_pkey |       2246197248

 2017-02-05 03:52:42.103805+01 | 1486263162.10381 | pgbench_branches_pkey |            40960
 2017-02-05 03:52:42.103805+01 | 1486263162.10381 | pgbench_tellers_pkey  |           245760
 2017-02-05 03:52:42.103805+01 | 1486263162.10381 | pgbench_accounts_pkey |       2246197248

 2017-02-05 03:52:43.197632+01 | 1486263163.19763 | pgbench_branches_pkey |            40960
 2017-02-05 03:52:43.197632+01 | 1486263163.19763 | pgbench_tellers_pkey  |           245760
 2017-02-05 03:52:43.197632+01 | 1486263163.19763 | pgbench_accounts_pkey |       2246197248

 2017-02-05 03:52:44.310569+01 | 1486263164.31057 | pgbench_branches_pkey |            40960
 2017-02-05 03:52:44.310569+01 | 1486263164.31057 | pgbench_tellers_pkey  |           245760
 2017-02-05 03:52:44.310569+01 | 1486263164.31057 | pgbench_accounts_pkey |       2246197248

 2017-02-05 03:52:45.416596+01 | 1486263165.4166 | pgbench_branches_pkey |            40960
 2017-02-05 03:52:45.416596+01 | 1486263165.4166 | pgbench_tellers_pkey  |           245760
 2017-02-05 03:52:45.416596+01 | 1486263165.4166 | pgbench_accounts_pkey |       2246197248

 2017-02-05 03:52:46.522369+01 | 1486263166.52237 | pgbench_branches_pkey |            40960
 2017-02-05 03:52:46.522369+01 | 1486263166.52237 | pgbench_tellers_pkey  |           245760
 2017-02-05 03:52:46.522369+01 | 1486263166.52237 | pgbench_accounts_pkey |       2246197248

 2017-02-05 03:52:47.623216+01 | 1486263167.62322 | pgbench_branches_pkey |            40960
 2017-02-05 03:52:47.623216+01 | 1486263167.62322 | pgbench_tellers_pkey  |           245760
 2017-02-05 03:52:47.623216+01 | 1486263167.62322 | pgbench_accounts_pkey |       2246197248

 2017-02-05 03:52:48.713998+01 | 1486263168.714 | pgbench_branches_pkey |            40960
 2017-02-05 03:52:48.713998+01 | 1486263168.714 | pgbench_tellers_pkey  |           245760
 2017-02-05 03:52:48.713998+01 | 1486263168.714 | pgbench_accounts_pkey |       2246197248

 2017-02-05 03:52:49.826046+01 | 1486263169.82605 | pgbench_branches_pkey |            40960
 2017-02-05 03:52:49.826046+01 | 1486263169.82605 | pgbench_tellers_pkey  |           245760
 2017-02-05 03:52:49.826046+01 | 1486263169.82605 | pgbench_accounts_pkey |       2246197248

 2017-02-05 03:52:50.951743+01 | 1486263170.95174 | pgbench_branches_pkey |            40960
 2017-02-05 03:52:50.951743+01 | 1486263170.95174 | pgbench_tellers_pkey  |           245760
 2017-02-05 03:52:50.951743+01 | 1486263170.95174 | pgbench_accounts_pkey |       2246197248

 2017-02-05 03:52:52.074852+01 | 1486263172.07485 | pgbench_branches_pkey |            40960
 2017-02-05 03:52:52.074852+01 | 1486263172.07485 | pgbench_tellers_pkey  |           245760
 2017-02-05 03:52:52.074852+01 | 1486263172.07485 | pgbench_accounts_pkey |       2246197248

 2017-02-05 03:52:53.178278+01 | 1486263173.17828 | pgbench_branches_pkey |            40960
 2017-02-05 03:52:53.178278+01 | 1486263173.17828 | pgbench_tellers_pkey  |           245760
 2017-02-05 03:52:53.178278+01 | 1486263173.17828 | pgbench_accounts_pkey |       2246197248

 2017-02-05 03:52:54.26412+01 | 1486263174.26412 | pgbench_branches_pkey |            40960
 2017-02-05 03:52:54.26412+01 | 1486263174.26412 | pgbench_tellers_pkey  |           245760
 2017-02-05 03:52:54.26412+01 | 1486263174.26412 | pgbench_accounts_pkey |       2246197248

 2017-02-05 03:52:55.329725+01 | 1486263175.32973 | pgbench_branches_pkey |            40960
 2017-02-05 03:52:55.329725+01 | 1486263175.32973 | pgbench_tellers_pkey  |           245760
 2017-02-05 03:52:55.329725+01 | 1486263175.32973 | pgbench_accounts_pkey |       2246197248

 2017-02-05 03:52:56.420216+01 | 1486263176.42022 | pgbench_branches_pkey |            40960
 2017-02-05 03:52:56.420216+01 | 1486263176.42022 | pgbench_tellers_pkey  |           245760
 2017-02-05 03:52:56.420216+01 | 1486263176.42022 | pgbench_accounts_pkey |       2246197248

 2017-02-05 03:52:57.518135+01 | 1486263177.51814 | pgbench_branches_pkey |            40960
 2017-02-05 03:52:57.518135+01 | 1486263177.51814 | pgbench_tellers_pkey  |           245760
 2017-02-05 03:52:57.518135+01 | 1486263177.51814 | pgbench_accounts_pkey |       2246197248

 2017-02-05 03:52:58.627177+01 | 1486263178.62718 | pgbench_branches_pkey |            40960
 2017-02-05 03:52:58.627177+01 | 1486263178.62718 | pgbench_tellers_pkey  |           245760
 2017-02-05 03:52:58.627177+01 | 1486263178.62718 | pgbench_accounts_pkey |       2246197248

 2017-02-05 03:52:59.730568+01 | 1486263179.73057 | pgbench_branches_pkey |            40960
 2017-02-05 03:52:59.730568+01 | 1486263179.73057 | pgbench_tellers_pkey  |           245760
 2017-02-05 03:52:59.730568+01 | 1486263179.73057 | pgbench_accounts_pkey |       2246197248

 2017-02-05 03:53:00.838891+01 | 1486263180.83889 | pgbench_branches_pkey |            40960
 2017-02-05 03:53:00.838891+01 | 1486263180.83889 | pgbench_tellers_pkey  |           245760
 2017-02-05 03:53:00.838891+01 | 1486263180.83889 | pgbench_accounts_pkey |       2246197248

 2017-02-05 03:53:01.937952+01 | 1486263181.93795 | pgbench_branches_pkey |            40960
 2017-02-05 03:53:01.937952+01 | 1486263181.93795 | pgbench_tellers_pkey  |           245760
 2017-02-05 03:53:01.937952+01 | 1486263181.93795 | pgbench_accounts_pkey |       2246197248

 2017-02-05 03:53:03.034053+01 | 1486263183.03405 | pgbench_branches_pkey |            40960
 2017-02-05 03:53:03.034053+01 | 1486263183.03405 | pgbench_tellers_pkey  |           245760
 2017-02-05 03:53:03.034053+01 | 1486263183.03405 | pgbench_accounts_pkey |       2246197248

 2017-02-05 03:53:04.13574+01 | 1486263184.13574 | pgbench_branches_pkey |            40960
 2017-02-05 03:53:04.13574+01 | 1486263184.13574 | pgbench_tellers_pkey  |           245760
 2017-02-05 03:53:04.13574+01 | 1486263184.13574 | pgbench_accounts_pkey |       2246197248

 2017-02-05 03:53:05.232449+01 | 1486263185.23245 | pgbench_branches_pkey |            40960
 2017-02-05 03:53:05.232449+01 | 1486263185.23245 | pgbench_tellers_pkey  |           245760
 2017-02-05 03:53:05.232449+01 | 1486263185.23245 | pgbench_accounts_pkey |       2246197248

 2017-02-05 03:53:06.336212+01 | 1486263186.33621 | pgbench_branches_pkey |            40960
 2017-02-05 03:53:06.336212+01 | 1486263186.33621 | pgbench_tellers_pkey  |           245760
 2017-02-05 03:53:06.336212+01 | 1486263186.33621 | pgbench_accounts_pkey |       2246197248

 2017-02-05 03:53:07.438849+01 | 1486263187.43885 | pgbench_branches_pkey |            40960
 2017-02-05 03:53:07.438849+01 | 1486263187.43885 | pgbench_tellers_pkey  |           245760
 2017-02-05 03:53:07.438849+01 | 1486263187.43885 | pgbench_accounts_pkey |       2246197248

 2017-02-05 03:53:08.54542+01 | 1486263188.54542 | pgbench_branches_pkey |            40960
 2017-02-05 03:53:08.54542+01 | 1486263188.54542 | pgbench_tellers_pkey  |           245760
 2017-02-05 03:53:08.54542+01 | 1486263188.54542 | pgbench_accounts_pkey |       2246197248

 2017-02-05 03:53:09.648364+01 | 1486263189.64836 | pgbench_branches_pkey |            40960
 2017-02-05 03:53:09.648364+01 | 1486263189.64836 | pgbench_tellers_pkey  |           245760
 2017-02-05 03:53:09.648364+01 | 1486263189.64836 | pgbench_accounts_pkey |       2246197248

 2017-02-05 03:53:10.746338+01 | 1486263190.74634 | pgbench_branches_pkey |            40960
 2017-02-05 03:53:10.746338+01 | 1486263190.74634 | pgbench_tellers_pkey  |           245760
 2017-02-05 03:53:10.746338+01 | 1486263190.74634 | pgbench_accounts_pkey |       2246197248

 2017-02-05 03:53:11.834596+01 | 1486263191.8346 | pgbench_branches_pkey |            40960
 2017-02-05 03:53:11.834596+01 | 1486263191.8346 | pgbench_tellers_pkey  |           245760
 2017-02-05 03:53:11.834596+01 | 1486263191.8346 | pgbench_accounts_pkey |       2246197248

 2017-02-05 03:53:12.935053+01 | 1486263192.93505 | pgbench_branches_pkey |            40960
 2017-02-05 03:53:12.935053+01 | 1486263192.93505 | pgbench_tellers_pkey  |           245760
 2017-02-05 03:53:12.935053+01 | 1486263192.93505 | pgbench_accounts_pkey |       2246197248

 2017-02-05 03:53:14.030492+01 | 1486263194.03049 | pgbench_branches_pkey |            40960
 2017-02-05 03:53:14.030492+01 | 1486263194.03049 | pgbench_tellers_pkey  |           245760
 2017-02-05 03:53:14.030492+01 | 1486263194.03049 | pgbench_accounts_pkey |       2246197248

 2017-02-05 03:53:15.138942+01 | 1486263195.13894 | pgbench_branches_pkey |            40960
 2017-02-05 03:53:15.138942+01 | 1486263195.13894 | pgbench_tellers_pkey  |           245760
 2017-02-05 03:53:15.138942+01 | 1486263195.13894 | pgbench_accounts_pkey |       2246197248

 2017-02-05 03:53:16.260332+01 | 1486263196.26033 | pgbench_branches_pkey |            40960
 2017-02-05 03:53:16.260332+01 | 1486263196.26033 | pgbench_tellers_pkey  |           245760
 2017-02-05 03:53:16.260332+01 | 1486263196.26033 | pgbench_accounts_pkey |       2246197248

 2017-02-05 03:53:17.353103+01 | 1486263197.3531 | pgbench_branches_pkey |            40960
 2017-02-05 03:53:17.353103+01 | 1486263197.3531 | pgbench_tellers_pkey  |           245760
 2017-02-05 03:53:17.353103+01 | 1486263197.3531 | pgbench_accounts_pkey |       2246197248

 2017-02-05 03:53:18.441748+01 | 1486263198.44175 | pgbench_branches_pkey |            40960
 2017-02-05 03:53:18.441748+01 | 1486263198.44175 | pgbench_tellers_pkey  |           245760
 2017-02-05 03:53:18.441748+01 | 1486263198.44175 | pgbench_accounts_pkey |       2246197248

 2017-02-05 03:53:19.543518+01 | 1486263199.54352 | pgbench_branches_pkey |            40960
 2017-02-05 03:53:19.543518+01 | 1486263199.54352 | pgbench_tellers_pkey  |           245760
 2017-02-05 03:53:19.543518+01 | 1486263199.54352 | pgbench_accounts_pkey |       2246197248

 2017-02-05 03:53:20.625078+01 | 1486263200.62508 | pgbench_branches_pkey |            40960
 2017-02-05 03:53:20.625078+01 | 1486263200.62508 | pgbench_tellers_pkey  |           245760
 2017-02-05 03:53:20.625078+01 | 1486263200.62508 | pgbench_accounts_pkey |       2246197248

 2017-02-05 03:53:21.723688+01 | 1486263201.72369 | pgbench_branches_pkey |            40960
 2017-02-05 03:53:21.723688+01 | 1486263201.72369 | pgbench_tellers_pkey  |           245760
 2017-02-05 03:53:21.723688+01 | 1486263201.72369 | pgbench_accounts_pkey |       2246197248

 2017-02-05 03:53:22.819429+01 | 1486263202.81943 | pgbench_branches_pkey |            40960
 2017-02-05 03:53:22.819429+01 | 1486263202.81943 | pgbench_tellers_pkey  |           245760
 2017-02-05 03:53:22.819429+01 | 1486263202.81943 | pgbench_accounts_pkey |       2246197248

 2017-02-05 03:53:23.893245+01 | 1486263203.89324 | pgbench_branches_pkey |            40960
 2017-02-05 03:53:23.893245+01 | 1486263203.89324 | pgbench_tellers_pkey  |           245760
 2017-02-05 03:53:23.893245+01 | 1486263203.89324 | pgbench_accounts_pkey |       2246197248

 2017-02-05 03:53:24.980772+01 | 1486263204.98077 | pgbench_branches_pkey |            40960
 2017-02-05 03:53:24.980772+01 | 1486263204.98077 | pgbench_tellers_pkey  |           245760
 2017-02-05 03:53:24.980772+01 | 1486263204.98077 | pgbench_accounts_pkey |       2246197248

 2017-02-05 03:53:26.09731+01 | 1486263206.09731 | pgbench_branches_pkey |            40960
 2017-02-05 03:53:26.09731+01 | 1486263206.09731 | pgbench_tellers_pkey  |           245760
 2017-02-05 03:53:26.09731+01 | 1486263206.09731 | pgbench_accounts_pkey |       2246197248

 2017-02-05 03:53:27.197004+01 | 1486263207.197 | pgbench_branches_pkey |            40960
 2017-02-05 03:53:27.197004+01 | 1486263207.197 | pgbench_tellers_pkey  |           245760
 2017-02-05 03:53:27.197004+01 | 1486263207.197 | pgbench_accounts_pkey |       2246197248

 2017-02-05 03:53:28.313183+01 | 1486263208.31318 | pgbench_branches_pkey |            40960
 2017-02-05 03:53:28.313183+01 | 1486263208.31318 | pgbench_tellers_pkey  |           245760
 2017-02-05 03:53:28.313183+01 | 1486263208.31318 | pgbench_accounts_pkey |       2246197248

 2017-02-05 03:53:29.390808+01 | 1486263209.39081 | pgbench_branches_pkey |            40960
 2017-02-05 03:53:29.390808+01 | 1486263209.39081 | pgbench_tellers_pkey  |           245760
 2017-02-05 03:53:29.390808+01 | 1486263209.39081 | pgbench_accounts_pkey |       2246197248

 2017-02-05 03:53:30.465308+01 | 1486263210.46531 | pgbench_branches_pkey |            40960
 2017-02-05 03:53:30.465308+01 | 1486263210.46531 | pgbench_tellers_pkey  |           245760
 2017-02-05 03:53:30.465308+01 | 1486263210.46531 | pgbench_accounts_pkey |       2246197248

 2017-02-05 03:53:31.559416+01 | 1486263211.55942 | pgbench_branches_pkey |            40960
 2017-02-05 03:53:31.559416+01 | 1486263211.55942 | pgbench_tellers_pkey  |           245760
 2017-02-05 03:53:31.559416+01 | 1486263211.55942 | pgbench_accounts_pkey |       2246197248

 2017-02-05 03:53:32.672069+01 | 1486263212.67207 | pgbench_branches_pkey |            40960
 2017-02-05 03:53:32.672069+01 | 1486263212.67207 | pgbench_tellers_pkey  |           245760
 2017-02-05 03:53:32.672069+01 | 1486263212.67207 | pgbench_accounts_pkey |       2246197248

 2017-02-05 03:53:33.758696+01 | 1486263213.7587 | pgbench_branches_pkey |            40960
 2017-02-05 03:53:33.758696+01 | 1486263213.7587 | pgbench_tellers_pkey  |           245760
 2017-02-05 03:53:33.758696+01 | 1486263213.7587 | pgbench_accounts_pkey |       2246197248

 2017-02-05 03:53:34.875303+01 | 1486263214.8753 | pgbench_branches_pkey |            40960
 2017-02-05 03:53:34.875303+01 | 1486263214.8753 | pgbench_tellers_pkey  |           245760
 2017-02-05 03:53:34.875303+01 | 1486263214.8753 | pgbench_accounts_pkey |       2246197248

 2017-02-05 03:53:35.950653+01 | 1486263215.95065 | pgbench_branches_pkey |            40960
 2017-02-05 03:53:35.950653+01 | 1486263215.95065 | pgbench_tellers_pkey  |           245760
 2017-02-05 03:53:35.950653+01 | 1486263215.95065 | pgbench_accounts_pkey |       2246197248

 2017-02-05 03:53:37.042616+01 | 1486263217.04262 | pgbench_branches_pkey |            40960
 2017-02-05 03:53:37.042616+01 | 1486263217.04262 | pgbench_tellers_pkey  |           245760
 2017-02-05 03:53:37.042616+01 | 1486263217.04262 | pgbench_accounts_pkey |       2246197248

 2017-02-05 03:53:38.123187+01 | 1486263218.12319 | pgbench_branches_pkey |            40960
 2017-02-05 03:53:38.123187+01 | 1486263218.12319 | pgbench_tellers_pkey  |           245760
 2017-02-05 03:53:38.123187+01 | 1486263218.12319 | pgbench_accounts_pkey |       2246197248

 2017-02-05 03:53:39.22721+01 | 1486263219.22721 | pgbench_branches_pkey |            40960
 2017-02-05 03:53:39.22721+01 | 1486263219.22721 | pgbench_tellers_pkey  |           245760
 2017-02-05 03:53:39.22721+01 | 1486263219.22721 | pgbench_accounts_pkey |       2246197248

 2017-02-05 03:53:40.32408+01 | 1486263220.32408 | pgbench_branches_pkey |            40960
 2017-02-05 03:53:40.32408+01 | 1486263220.32408 | pgbench_tellers_pkey  |           245760
 2017-02-05 03:53:40.32408+01 | 1486263220.32408 | pgbench_accounts_pkey |       2246197248

 2017-02-05 03:53:41.428252+01 | 1486263221.42825 | pgbench_branches_pkey |            40960
 2017-02-05 03:53:41.428252+01 | 1486263221.42825 | pgbench_tellers_pkey  |           245760
 2017-02-05 03:53:41.428252+01 | 1486263221.42825 | pgbench_accounts_pkey |       2246197248

 2017-02-05 03:53:42.537294+01 | 1486263222.53729 | pgbench_branches_pkey |            40960
 2017-02-05 03:53:42.537294+01 | 1486263222.53729 | pgbench_tellers_pkey  |           245760
 2017-02-05 03:53:42.537294+01 | 1486263222.53729 | pgbench_accounts_pkey |       2246197248

 2017-02-05 03:53:43.651626+01 | 1486263223.65163 | pgbench_branches_pkey |            40960
 2017-02-05 03:53:43.651626+01 | 1486263223.65163 | pgbench_tellers_pkey  |           245760
 2017-02-05 03:53:43.651626+01 | 1486263223.65163 | pgbench_accounts_pkey |       2246197248

 2017-02-05 03:53:44.741405+01 | 1486263224.74141 | pgbench_branches_pkey |            40960
 2017-02-05 03:53:44.741405+01 | 1486263224.74141 | pgbench_tellers_pkey  |           245760
 2017-02-05 03:53:44.741405+01 | 1486263224.74141 | pgbench_accounts_pkey |       2246197248

 2017-02-05 03:53:45.830749+01 | 1486263225.83075 | pgbench_branches_pkey |            40960
 2017-02-05 03:53:45.830749+01 | 1486263225.83075 | pgbench_tellers_pkey  |           245760
 2017-02-05 03:53:45.830749+01 | 1486263225.83075 | pgbench_accounts_pkey |       2246197248

 2017-02-05 03:53:46.926891+01 | 1486263226.92689 | pgbench_branches_pkey |            40960
 2017-02-05 03:53:46.926891+01 | 1486263226.92689 | pgbench_tellers_pkey  |           245760
 2017-02-05 03:53:46.926891+01 | 1486263226.92689 | pgbench_accounts_pkey |       2246197248

 2017-02-05 03:53:48.027302+01 | 1486263228.0273 | pgbench_branches_pkey |            40960
 2017-02-05 03:53:48.027302+01 | 1486263228.0273 | pgbench_tellers_pkey  |           245760
 2017-02-05 03:53:48.027302+01 | 1486263228.0273 | pgbench_accounts_pkey |       2246197248

 2017-02-05 03:53:49.092122+01 | 1486263229.09212 | pgbench_branches_pkey |            40960
 2017-02-05 03:53:49.092122+01 | 1486263229.09212 | pgbench_tellers_pkey  |           245760
 2017-02-05 03:53:49.092122+01 | 1486263229.09212 | pgbench_accounts_pkey |       2246197248

 2017-02-05 03:53:50.196193+01 | 1486263230.19619 | pgbench_branches_pkey |            40960
 2017-02-05 03:53:50.196193+01 | 1486263230.19619 | pgbench_tellers_pkey  |           245760
 2017-02-05 03:53:50.196193+01 | 1486263230.19619 | pgbench_accounts_pkey |       2246197248

 2017-02-05 03:53:51.295172+01 | 1486263231.29517 | pgbench_branches_pkey |            40960
 2017-02-05 03:53:51.295172+01 | 1486263231.29517 | pgbench_tellers_pkey  |           245760
 2017-02-05 03:53:51.295172+01 | 1486263231.29517 | pgbench_accounts_pkey |       2246197248

