 2017-02-05 20:35:06.90784+01 | 1486323306.90784 | 4E/7CD66A0               |          335138350752

 2017-02-05 20:35:07.998066+01 | 1486323307.99807 | 4E/162508A0              |          335378974880

 2017-02-05 20:35:09.087665+01 | 1486323309.08767 | 4E/244F17E8              |          335616612328

 2017-02-05 20:35:10.172369+01 | 1486323310.17237 | 4E/322CB520              |          335849239840

 2017-02-05 20:35:11.25421+01 | 1486323311.25421 | 4E/3F1D13B8              |          336066319288

 2017-02-05 20:35:12.33435+01 | 1486323312.33435 | 4E/4B77A790              |          336273581968

 2017-02-05 20:35:13.41555+01 | 1486323313.41555 | 4E/5730A1E0              |          336470254048

 2017-02-05 20:35:14.496052+01 | 1486323314.49605 | 4E/62794350              |          336659563344

 2017-02-05 20:35:15.578312+01 | 1486323315.57831 | 4E/6D34F9B0              |          336839637424

 2017-02-05 20:35:16.661251+01 | 1486323316.66125 | 4E/76EF1C58              |          337002830936

 2017-02-05 20:35:17.741816+01 | 1486323317.74182 | 4E/80707430              |          337162302512

 2017-02-05 20:35:18.813129+01 | 1486323318.81313 | 4E/89290B68              |          337308617576

 2017-02-05 20:35:19.890699+01 | 1486323319.8907 | 4E/91D065D0              |          337453802960

 2017-02-05 20:35:20.982025+01 | 1486323320.98202 | 4E/99BA1BF0              |          337586559984

 2017-02-05 20:35:22.060155+01 | 1486323322.06015 | 4E/A18F6980              |          337717979520

 2017-02-05 20:35:23.134894+01 | 1486323323.13489 | 4E/A911D150              |          337843966288

 2017-02-05 20:35:24.210581+01 | 1486323324.21058 | 4E/AF4A3378              |          337948324728

 2017-02-05 20:35:25.292029+01 | 1486323325.29203 | 4E/B5F17608              |          338059949576

 2017-02-05 20:35:26.368658+01 | 1486323326.36866 | 4E/BC5D49A8              |          338167679400

 2017-02-05 20:35:27.453396+01 | 1486323327.4534 | 4E/C29BEE18              |          338272448024

 2017-02-05 20:35:28.544616+01 | 1486323328.54462 | 4E/C87D83A8              |          338371117992

 2017-02-05 20:35:29.639391+01 | 1486323329.63939 | 4E/CE420310              |          338467881744

 2017-02-05 20:35:30.717082+01 | 1486323330.71708 | 4E/D3D93408              |          338561676296

 2017-02-05 20:35:31.794149+01 | 1486323331.79415 | 4E/D9617320              |          338654491424

 2017-02-05 20:35:32.877365+01 | 1486323332.87737 | 4E/DEBBE8B8              |          338744305848

 2017-02-05 20:35:33.963489+01 | 1486323333.96349 | 4E/E3DE9C18              |          338830466072

 2017-02-05 20:35:35.038472+01 | 1486323335.03847 | 4E/E8EA6DD0              |          338915126736

 2017-02-05 20:35:36.127252+01 | 1486323336.12725 | 4E/EDCAEEC8              |          338996948680

 2017-02-05 20:35:37.198724+01 | 1486323337.19872 | 4E/F269BB60              |          339074464608

 2017-02-05 20:35:38.278021+01 | 1486323338.27802 | 4E/F6ED95E8              |          339150214632

 2017-02-05 20:35:39.365416+01 | 1486323339.36542 | 4E/FB4B1A60              |          339223452256

 2017-02-05 20:35:40.45049+01 | 1486323340.45049 | 4E/FF98B720              |          339295647520

 2017-02-05 20:35:41.531543+01 | 1486323341.53154 | 4F/32C42B0               |          339355648688

 2017-02-05 20:35:42.612657+01 | 1486323342.61266 | 4F/73F1EF8               |          339423993592

 2017-02-05 20:35:43.697513+01 | 1486323343.69751 | 4F/B524A90               |          339492358800

 2017-02-05 20:35:44.783219+01 | 1486323344.78322 | 4F/F48E9E0               |          339558853088

 2017-02-05 20:35:45.866495+01 | 1486323345.86649 | 4F/13216AD8              |          339623373528

 2017-02-05 20:35:46.944083+01 | 1486323346.94408 | 4F/16329AD0              |          339674831568

 2017-02-05 20:35:48.021549+01 | 1486323348.02155 | 4F/197F52F0              |          339730191088

 2017-02-05 20:35:49.09858+01 | 1486323349.09858 | 4F/1CA49E18              |          339782966808

 2017-02-05 20:35:50.17522+01 | 1486323350.17522 | 4F/1FD6F000              |          339836596224

 2017-02-05 20:35:51.261909+01 | 1486323351.26191 | 4F/22EE73B8              |          339888468920

 2017-02-05 20:35:52.336276+01 | 1486323352.33628 | 4F/25F9C0E8              |          339939541224

 2017-02-05 20:35:53.427408+01 | 1486323353.42741 | 4F/2909B720              |          339990918944

 2017-02-05 20:35:54.511585+01 | 1486323354.51158 | 4F/2C12FC50              |          340041858128

 2017-02-05 20:35:55.593017+01 | 1486323355.59302 | 4F/2EEC0028              |          340089634856

 2017-02-05 20:35:56.672639+01 | 1486323356.67264 | 4F/31919458              |          340134040664

 2017-02-05 20:35:57.758734+01 | 1486323357.75873 | 4F/33CB6978              |          340171385208

 2017-02-05 20:35:58.835553+01 | 1486323358.83555 | 4F/3652A070              |          340213801072

 2017-02-05 20:35:59.916631+01 | 1486323359.91663 | 4F/3923CAA0              |          340261063328

 2017-02-05 20:36:00.991338+01 | 1486323360.99134 | 4F/3BED9DD0              |          340307844560

 2017-02-05 20:36:02.069717+01 | 1486323362.06972 | 4F/3E888720              |          340351551264

 2017-02-05 20:36:03.157037+01 | 1486323363.15704 | 4F/4191C380              |          340402488192

 2017-02-05 20:36:04.230656+01 | 1486323364.23066 | 4F/44C42B38              |          340456123192

 2017-02-05 20:36:05.311987+01 | 1486323365.31199 | 4F/47D39968              |          340507466088

 2017-02-05 20:36:06.392016+01 | 1486323366.39202 | 4F/4AD796E0              |          340558059232

 2017-02-05 20:36:07.485043+01 | 1486323367.48504 | 4F/4DD877B0              |          340608448432

 2017-02-05 20:36:08.574411+01 | 1486323368.57441 | 4F/50BAD540              |          340656837952

 2017-02-05 20:36:09.650473+01 | 1486323369.65047 | 4F/53BD0D28              |          340707314984

 2017-02-05 20:36:10.729941+01 | 1486323370.72994 | 4F/5687B448              |          340754150472

 2017-02-05 20:36:11.813548+01 | 1486323371.81355 | 4F/59347650              |          340799035544

 2017-02-05 20:36:12.900396+01 | 1486323372.9004 | 4F/5C1A49B8              |          340847643064

 2017-02-05 20:36:13.976949+01 | 1486323373.97695 | 4F/5EE8F1F8              |          340894740984

 2017-02-05 20:36:15.055507+01 | 1486323375.05551 | 4F/619F7248              |          340940255816

 2017-02-05 20:36:16.136787+01 | 1486323376.13679 | 4F/6475D760              |          340987860832

 2017-02-05 20:36:17.213456+01 | 1486323377.21346 | 4F/6717FAC8              |          341032041160

 2017-02-05 20:36:18.291118+01 | 1486323378.29112 | 4F/69BBB2B8              |          341076325048

 2017-02-05 20:36:19.374034+01 | 1486323379.37403 | 4F/6C718608              |          341121795592

 2017-02-05 20:36:20.456956+01 | 1486323380.45696 | 4F/6F1EDA28              |          341166709288

 2017-02-05 20:36:21.533534+01 | 1486323381.53353 | 4F/71CD84C0              |          341211710656

 2017-02-05 20:36:22.611272+01 | 1486323382.61127 | 4F/746D03B0              |          341255717808

 2017-02-05 20:36:23.687816+01 | 1486323383.68782 | 4F/76FC7950              |          341298674000

 2017-02-05 20:36:24.760198+01 | 1486323384.7602 | 4F/7980E8F0              |          341340907760

 2017-02-05 20:36:25.846211+01 | 1486323385.84621 | 4F/7C0C0500              |          341383578880

 2017-02-05 20:36:26.918962+01 | 1486323386.91896 | 4F/7E330670              |          341419689584

 2017-02-05 20:36:28.007148+01 | 1486323388.00715 | 4F/80B18868              |          341461534824

 2017-02-05 20:36:29.086531+01 | 1486323389.08653 | 4F/8313A6F0              |          341501519600

 2017-02-05 20:36:30.16943+01 | 1486323390.16943 | 4F/85840F40              |          341542440768

 2017-02-05 20:36:31.248595+01 | 1486323391.24859 | 4F/87FB7B60              |          341583821664

 2017-02-05 20:36:32.327281+01 | 1486323392.32728 | 4F/8A563730              |          341623322416

 2017-02-05 20:36:33.399934+01 | 1486323393.39993 | 4F/8CB37270              |          341662986864

 2017-02-05 20:36:34.474149+01 | 1486323394.47415 | 4F/8EFAA1C8              |          341701206472

 2017-02-05 20:36:35.551148+01 | 1486323395.55115 | 4F/913E81E8              |          341739209192

 2017-02-05 20:36:36.630247+01 | 1486323396.63025 | 4F/938EFD40              |          341778038080

 2017-02-05 20:36:37.706012+01 | 1486323397.70601 | 4F/95E34358              |          341817115480

 2017-02-05 20:36:38.790231+01 | 1486323398.79023 | 4F/97F32C90              |          341851712656

 2017-02-05 20:36:39.864817+01 | 1486323399.86482 | 4F/9A32EDB8              |          341889445304

 2017-02-05 20:36:40.944026+01 | 1486323400.94403 | 4F/9C723DC8              |          341927149000

 2017-02-05 20:36:42.022815+01 | 1486323402.02281 | 4F/9EAE3FA8              |          341964636072

 2017-02-05 20:36:43.101478+01 | 1486323403.10148 | 4F/A0EA85A0              |          342002140576

 2017-02-05 20:36:44.190631+01 | 1486323404.19063 | 4F/A3102C10              |          342038162448

 2017-02-05 20:36:45.264836+01 | 1486323405.26484 | 4F/A5430F98              |          342075051928

 2017-02-05 20:36:46.344825+01 | 1486323406.34483 | 4F/A7640BB0              |          342110768048

 2017-02-05 20:36:47.41428+01 | 1486323407.41428 | 4F/A93ADC88              |          342141623432

 2017-02-05 20:36:48.492674+01 | 1486323408.49267 | 4F/AB51DCC8              |          342176685256

 2017-02-05 20:36:49.576404+01 | 1486323409.5764 | 4F/AD6FBEF0              |          342212198128

 2017-02-05 20:36:50.65554+01 | 1486323410.65554 | 4F/AF579340              |          342244168512

 2017-02-05 20:36:51.734679+01 | 1486323411.73468 | 4F/B1705368              |          342279345000

 2017-02-05 20:36:52.811638+01 | 1486323412.81164 | 4F/B3848DE0              |          342314225120

 2017-02-05 20:36:53.888839+01 | 1486323413.88884 | 4F/B568A788              |          342345951112

 2017-02-05 20:36:54.965462+01 | 1486323414.96546 | 4F/B7486C70              |          342377393264

 2017-02-05 20:36:56.05553+01 | 1486323416.05553 | 4F/B9463420              |          342410802208

 2017-02-05 20:36:57.133619+01 | 1486323417.13362 | 4F/BB3A4640              |          342443574848

 2017-02-05 20:36:58.207775+01 | 1486323418.20778 | 4F/BD3AF5C8              |          342477174216

 2017-02-05 20:36:59.283905+01 | 1486323419.28391 | 4F/BF3A64A0              |          342510691488

 2017-02-05 20:37:00.367579+01 | 1486323420.36758 | 4F/C134A7A8              |          342543869864

 2017-02-05 20:37:01.450956+01 | 1486323421.45096 | 4F/C3314BA0              |          342577204128

 2017-02-05 20:37:02.537827+01 | 1486323422.53783 | 4F/C4EEC990              |          342606399888

 2017-02-05 20:37:03.616134+01 | 1486323423.61613 | 4F/C6E71AC0              |          342639450816

 2017-02-05 20:37:04.705002+01 | 1486323424.705 | 4F/C8DC3F18              |          342672293656

 2017-02-05 20:37:05.78491+01 | 1486323425.78491 | 4F/CAD07700              |          342705077600

 2017-02-05 20:37:06.867774+01 | 1486323426.86777 | 4F/CCCB8788              |          342738306952

 2017-02-05 20:37:07.950364+01 | 1486323427.95036 | 4F/CEB48610              |          342770353680

 2017-02-05 20:37:09.024397+01 | 1486323429.0244 | 4F/D09D7F00              |          342802398976

 2017-02-05 20:37:10.103415+01 | 1486323430.10342 | 4F/D2859348              |          342834385736

 2017-02-05 20:37:11.19263+01 | 1486323431.19263 | 4F/D4693F68              |          342866083688

 2017-02-05 20:37:12.271331+01 | 1486323432.27133 | 4F/D6428AA0              |          342897101472

 2017-02-05 20:37:13.353878+01 | 1486323433.35388 | 4F/D7FE8828              |          342926198824

 2017-02-05 20:37:14.431707+01 | 1486323434.43171 | 4F/D9D56258              |          342957056600

 2017-02-05 20:37:15.510505+01 | 1486323435.5105 | 4F/DBAB68F0              |          342987860208

 2017-02-05 20:37:16.591539+01 | 1486323436.59154 | 4F/DD7E08E0              |          343018440928

 2017-02-05 20:37:17.670676+01 | 1486323437.67068 | 4F/DF567760              |          343049402208

 2017-02-05 20:37:18.751485+01 | 1486323438.75149 | 4F/E111B9D0              |          343078451664

 2017-02-05 20:37:19.83136+01 | 1486323439.83136 | 4F/E2E62308              |          343109149448

 2017-02-05 20:37:20.907919+01 | 1486323440.90792 | 4F/E4B40800              |          343139420160

 2017-02-05 20:37:21.983667+01 | 1486323441.98367 | 4F/E68690A0              |          343169994912

 2017-02-05 20:37:23.080486+01 | 1486323443.08049 | 4F/E84B8570              |          343199679856

 2017-02-05 20:37:24.162922+01 | 1486323444.16292 | 4F/EA140400              |          343229596672

 2017-02-05 20:37:25.244636+01 | 1486323445.24464 | 4F/EBB4A558              |          343256900952

 2017-02-05 20:37:26.321435+01 | 1486323446.32143 | 4F/ED7649E8              |          343286368744

 2017-02-05 20:37:27.406711+01 | 1486323447.40671 | 4F/EF39C780              |          343315957632

 2017-02-05 20:37:28.488565+01 | 1486323448.48856 | 4F/F0F03F88              |          343344693128

 2017-02-05 20:37:29.571545+01 | 1486323449.57154 | 4F/F2A84078              |          343373529208

 2017-02-05 20:37:30.650926+01 | 1486323450.65093 | 4F/F4568CB8              |          343401729208

 2017-02-05 20:37:31.726108+01 | 1486323451.72611 | 4F/F6013EF0              |          343429693168

 2017-02-05 20:37:32.803651+01 | 1486323452.80365 | 4F/F7BF1B08              |          343458913032

 2017-02-05 20:37:33.885774+01 | 1486323453.88577 | 4F/F97AFFC0              |          343488004032

 2017-02-05 20:37:34.965827+01 | 1486323454.96583 | 4F/FB2C3FB8              |          343516397496

 2017-02-05 20:37:36.046821+01 | 1486323456.04682 | 4F/FCB2ABE8              |          343541984232

 2017-02-05 20:37:37.117773+01 | 1486323457.11777 | 4F/FE5D75D0              |          343569954256

 2017-02-05 20:37:38.204231+01 | 1486323458.20423 | 50/1548C8                |          343598778568

 2017-02-05 20:37:39.288531+01 | 1486323459.28853 | 50/1BF7200               |          343626707456

 2017-02-05 20:37:40.367658+01 | 1486323460.36766 | 50/3686AA8               |          343654558376

 2017-02-05 20:37:41.442164+01 | 1486323461.44216 | 50/4F37B70               |          343680449392

 2017-02-05 20:37:42.523334+01 | 1486323462.52333 | 50/68B5B70               |          343707179888

 2017-02-05 20:37:43.606152+01 | 1486323463.60615 | 50/8301B18               |          343734754072

 2017-02-05 20:37:44.689232+01 | 1486323464.68923 | 50/9CD1CD0               |          343761820880

 2017-02-05 20:37:45.766469+01 | 1486323465.76647 | 50/B717308               |          343789368072

 2017-02-05 20:37:46.847224+01 | 1486323466.84722 | 50/CF23370               |          343814583152

 2017-02-05 20:37:47.927956+01 | 1486323467.92796 | 50/E3C2E50               |          343836208720

 2017-02-05 20:37:49.016318+01 | 1486323469.01632 | 50/FDD88D0               |          343863560400

 2017-02-05 20:37:50.093249+01 | 1486323470.09325 | 50/11858948              |          343891347784

 2017-02-05 20:37:51.17715+01 | 1486323471.17715 | 50/1329CDD8              |          343918890456

 2017-02-05 20:37:52.254804+01 | 1486323472.2548 | 50/14C784F0              |          343946003696

 2017-02-05 20:37:53.332763+01 | 1486323473.33276 | 50/16668CF0              |          343973203184

 2017-02-05 20:37:54.410068+01 | 1486323474.41007 | 50/180BE6A0              |          344000816800

 2017-02-05 20:37:55.501747+01 | 1486323475.50175 | 50/19A8A4A0              |          344027866272

 2017-02-05 20:37:56.583611+01 | 1486323476.58361 | 50/1B41C7D8              |          344054679512

 2017-02-05 20:37:57.666074+01 | 1486323477.66607 | 50/1CD9B6E0              |          344081413856

 2017-02-05 20:37:58.743294+01 | 1486323478.74329 | 50/1E3DC960              |          344104749408

 2017-02-05 20:37:59.823532+01 | 1486323479.82353 | 50/1FC85DE8              |          344130608616

 2017-02-05 20:38:00.907069+01 | 1486323480.90707 | 50/2162D2E8              |          344157508328

 2017-02-05 20:38:01.984927+01 | 1486323481.98493 | 50/22FAA2A8              |          344184234664

 2017-02-05 20:38:03.066363+01 | 1486323483.06636 | 50/248CAEC0              |          344210583232

 2017-02-05 20:38:04.142024+01 | 1486323484.14202 | 50/2625EAC0              |          344237402816

 2017-02-05 20:38:05.218193+01 | 1486323485.21819 | 50/27B94880              |          344263837824

 2017-02-05 20:38:06.291513+01 | 1486323486.29151 | 50/2953FBC8              |          344290753480

 2017-02-05 20:38:07.368526+01 | 1486323487.36853 | 50/2ADC1C78              |          344316451960

 2017-02-05 20:38:08.446981+01 | 1486323488.44698 | 50/2C632A38              |          344342080056

 2017-02-05 20:38:09.52685+01 | 1486323489.52685 | 50/2DC60920              |          344365336864

 2017-02-05 20:38:10.604141+01 | 1486323490.60414 | 50/2F5AB960              |          344391858528

 2017-02-05 20:38:11.685915+01 | 1486323491.68591 | 50/30E47C60              |          344417664096

 2017-02-05 20:38:12.763139+01 | 1486323492.76314 | 50/326F9238              |          344443556408

 2017-02-05 20:38:13.8481+01 | 1486323493.8481 | 50/33FF0DB8              |          344469736888

 2017-02-05 20:38:14.931899+01 | 1486323494.9319 | 50/358344B0              |          344495178928

 2017-02-05 20:38:16.019732+01 | 1486323496.01973 | 50/37055890              |          344520480912

 2017-02-05 20:38:17.100446+01 | 1486323497.10045 | 50/387B28F8              |          344544979192

 2017-02-05 20:38:18.187346+01 | 1486323498.18735 | 50/39FA1858              |          344570075224

 2017-02-05 20:38:19.266562+01 | 1486323499.26656 | 50/3B6DBC68              |          344594431080

 2017-02-05 20:38:20.352928+01 | 1486323500.35293 | 50/3CCE5E58              |          344617541208

 2017-02-05 20:38:21.428167+01 | 1486323501.42817 | 50/3E43B2C8              |          344642007752

 2017-02-05 20:38:22.504618+01 | 1486323502.50462 | 50/3FB42478              |          344666154104

 2017-02-05 20:38:23.584683+01 | 1486323503.58468 | 50/41330A80              |          344691247744

 2017-02-05 20:38:24.665511+01 | 1486323504.66551 | 50/42A70EE8              |          344715628264

 2017-02-05 20:38:25.750391+01 | 1486323505.75039 | 50/44223B98              |          344740477848

 2017-02-05 20:38:26.825333+01 | 1486323506.82533 | 50/458D84D0              |          344764286160

 2017-02-05 20:38:27.901134+01 | 1486323507.90113 | 50/46EB9240              |          344787227200

 2017-02-05 20:38:28.981464+01 | 1486323508.98146 | 50/484CCBC8              |          344810376136

 2017-02-05 20:38:30.059707+01 | 1486323510.05971 | 50/498A2748              |          344831174472

 2017-02-05 20:38:31.149522+01 | 1486323511.14952 | 50/4ADA2BE0              |          344853195744

 2017-02-05 20:38:32.231281+01 | 1486323512.23128 | 50/4C2606E0              |          344874944224

 2017-02-05 20:38:33.321232+01 | 1486323513.32123 | 50/4D7547F8              |          344896915448

 2017-02-05 20:38:34.405377+01 | 1486323514.40538 | 50/4EB20DB8              |          344917675448

 2017-02-05 20:38:35.481692+01 | 1486323515.48169 | 50/4FDACE90              |          344937123472

 2017-02-05 20:38:36.558037+01 | 1486323516.55804 | 50/50D11A78              |          344953264760

 2017-02-05 20:38:37.652022+01 | 1486323517.65202 | 50/51F26668              |          344972224104

 2017-02-05 20:38:38.72378+01 | 1486323518.72378 | 50/53190F68              |          344991534952

 2017-02-05 20:38:39.800056+01 | 1486323519.80006 | 50/54412858              |          345010939992

 2017-02-05 20:38:40.881533+01 | 1486323520.88153 | 50/5566DD80              |          345030188416

 2017-02-05 20:38:41.954079+01 | 1486323521.95408 | 50/56700608              |          345047565832

 2017-02-05 20:38:43.028684+01 | 1486323523.02868 | 50/579B6EF8              |          345067187960

 2017-02-05 20:38:44.124767+01 | 1486323524.12477 | 50/58C6AB00              |          345086798592

 2017-02-05 20:38:45.210012+01 | 1486323525.21001 | 50/59EB7530              |          345105986864

 2017-02-05 20:38:46.281475+01 | 1486323526.28148 | 50/5B0EB2E8              |          345125073640

 2017-02-05 20:38:47.366645+01 | 1486323527.36665 | 50/5C075FC0              |          345141370816

 2017-02-05 20:38:48.442402+01 | 1486323528.4424 | 50/5D2A0928              |          345160419624

 2017-02-05 20:38:49.516888+01 | 1486323529.51689 | 50/5E5B8BE0              |          345180441568

 2017-02-05 20:38:50.587916+01 | 1486323530.58792 | 50/5FABA290              |          345202467472

 2017-02-05 20:38:51.671223+01 | 1486323531.67122 | 50/60F6BB88              |          345224166280

 2017-02-05 20:38:52.759905+01 | 1486323532.75991 | 50/624EFC48              |          345246727240

 2017-02-05 20:38:53.832737+01 | 1486323533.83274 | 50/63A0D810              |          345268869136

 2017-02-05 20:38:54.908925+01 | 1486323534.90893 | 50/64EAFAA0              |          345290504864

 2017-02-05 20:38:55.988238+01 | 1486323535.98824 | 50/6641B430              |          345312965680

 2017-02-05 20:38:57.066264+01 | 1486323537.06626 | 50/67997B00              |          345335495424

 2017-02-05 20:38:58.144164+01 | 1486323538.14416 | 50/68F17C30              |          345358040112

 2017-02-05 20:38:59.222381+01 | 1486323539.22238 | 50/6A463FE8              |          345380372456

 2017-02-05 20:39:00.302636+01 | 1486323540.30264 | 50/6B95B888              |          345402357896

 2017-02-05 20:39:01.383386+01 | 1486323541.38339 | 50/6CD58000              |          345423314944

 2017-02-05 20:39:02.466731+01 | 1486323542.46673 | 50/6E364828              |          345446434856

 2017-02-05 20:39:03.545199+01 | 1486323543.5452 | 50/6F942120              |          345469362464

 2017-02-05 20:39:04.629121+01 | 1486323544.62912 | 50/70E34738              |          345491326776

 2017-02-05 20:39:05.70567+01 | 1486323545.70567 | 50/722FCB68              |          345513118568

 2017-02-05 20:39:06.781978+01 | 1486323546.78198 | 50/73817470              |          345535247472

 2017-02-05 20:39:07.867417+01 | 1486323547.86742 | 50/74CFE968              |          345557166440

 2017-02-05 20:39:08.947147+01 | 1486323548.94715 | 50/7629DFD0              |          345579839440

 2017-02-05 20:39:10.023783+01 | 1486323550.02378 | 50/777D8A60              |          345602099808

 2017-02-05 20:39:11.109186+01 | 1486323551.10919 | 50/78D46CD0              |          345624571088

 2017-02-05 20:39:12.191112+01 | 1486323552.19111 | 50/7A26BEF8              |          345646743288

 2017-02-05 20:39:13.269179+01 | 1486323553.26918 | 50/7B560350              |          345666618192

 2017-02-05 20:39:14.345022+01 | 1486323554.34502 | 50/7C984B58              |          345687739224

 2017-02-05 20:39:15.425392+01 | 1486323555.42539 | 50/7DE5E528              |          345709602088

 2017-02-05 20:39:16.507646+01 | 1486323556.50765 | 50/7F358030              |          345731597336

 2017-02-05 20:39:17.586776+01 | 1486323557.58678 | 50/80809358              |          345753293656

 2017-02-05 20:39:18.664673+01 | 1486323558.66467 | 50/81C33F78              |          345774440312

 2017-02-05 20:39:19.75079+01 | 1486323559.75079 | 50/83133C88              |          345796459656

 2017-02-05 20:39:20.841411+01 | 1486323560.84141 | 50/84697E00              |          345818889728

 2017-02-05 20:39:21.917135+01 | 1486323561.91714 | 50/85A663B0              |          345839657904

 2017-02-05 20:39:22.991404+01 | 1486323562.9914 | 50/86DDA088              |          345860057248

 2017-02-05 20:39:24.072326+01 | 1486323564.07233 | 50/88297798              |          345881802648

 2017-02-05 20:39:25.153064+01 | 1486323565.15306 | 50/894DAFF8              |          345900953592

 2017-02-05 20:39:26.239695+01 | 1486323566.2397 | 50/8A953438              |          345922417720

 2017-02-05 20:39:27.315966+01 | 1486323567.31597 | 50/8BD86F30              |          345943600944

 2017-02-05 20:39:28.39198+01 | 1486323568.39198 | 50/8D142700              |          345964291840

 2017-02-05 20:39:29.469181+01 | 1486323569.46918 | 50/8E54CE48              |          345985306184

 2017-02-05 20:39:30.548171+01 | 1486323570.54817 | 50/8F8481E0              |          346005209568

 2017-02-05 20:39:31.634957+01 | 1486323571.63496 | 50/90B69A58              |          346025269848

 2017-02-05 20:39:32.718129+01 | 1486323572.71813 | 50/91EBC2C8              |          346045530824

 2017-02-05 20:39:33.797263+01 | 1486323573.79726 | 50/9327D548              |          346066244936

 2017-02-05 20:39:34.875824+01 | 1486323574.87582 | 50/9441CCF0              |          346084723952

 2017-02-05 20:39:35.962413+01 | 1486323575.96241 | 50/9558DD58              |          346103012696

 2017-02-05 20:39:37.037385+01 | 1486323577.03738 | 50/966BA920              |          346121021728

 2017-02-05 20:39:38.122752+01 | 1486323578.12275 | 50/97851FB0              |          346139467696

 2017-02-05 20:39:39.204801+01 | 1486323579.2048 | 50/9893DC30              |          346157210672

 2017-02-05 20:39:40.277349+01 | 1486323580.27735 | 50/99A59898              |          346175150232

 2017-02-05 20:39:41.356941+01 | 1486323581.35694 | 50/9A9936B0              |          346191115952

 2017-02-05 20:39:42.443771+01 | 1486323582.44377 | 50/9BA125C8              |          346208413128

 2017-02-05 20:39:43.527385+01 | 1486323583.52738 | 50/9CAA41F0              |          346225787376

 2017-02-05 20:39:44.607418+01 | 1486323584.60742 | 50/9DB3FFA0              |          346243202976

 2017-02-05 20:39:45.686392+01 | 1486323585.68639 | 50/9EBC1CD8              |          346260511960

 2017-02-05 20:39:46.763879+01 | 1486323586.76388 | 50/9F9EB478              |          346275361912

 2017-02-05 20:39:47.830529+01 | 1486323587.83053 | 50/A08EDC60              |          346291100768

 2017-02-05 20:39:48.912039+01 | 1486323588.91204 | 50/A18E7230              |          346307850800

 2017-02-05 20:39:49.999379+01 | 1486323589.99938 | 50/A294D468              |          346325046376

 2017-02-05 20:39:51.074557+01 | 1486323591.07456 | 50/A38F1348              |          346341446472

 2017-02-05 20:39:52.167812+01 | 1486323592.16781 | 50/A4914A78              |          346358368888

 2017-02-05 20:39:53.245448+01 | 1486323593.24545 | 50/A5870D58              |          346374475096

 2017-02-05 20:39:54.318626+01 | 1486323594.31863 | 50/A68CA7A8              |          346391619496

 2017-02-05 20:39:55.398239+01 | 1486323595.39824 | 50/A786B890              |          346408007824

 2017-02-05 20:39:56.479642+01 | 1486323596.47964 | 50/A86CB708              |          346423080712

 2017-02-05 20:39:57.560891+01 | 1486323597.56089 | 50/A9604E70              |          346439044720

 2017-02-05 20:39:58.652362+01 | 1486323598.65236 | 50/AA4DA1D0              |          346454598096

 2017-02-05 20:39:59.735597+01 | 1486323599.7356 | 50/AB355050              |          346469781584

 2017-02-05 20:40:00.8107+01 | 1486323600.8107 | 50/AC204D30              |          346485181744

 2017-02-05 20:40:01.894234+01 | 1486323601.89423 | 50/AD06D230              |          346500289072

 2017-02-05 20:40:02.972588+01 | 1486323602.97259 | 50/ADFC48E8              |          346516375784

 2017-02-05 20:40:04.041685+01 | 1486323604.04169 | 50/AEE81868              |          346531829864

 2017-02-05 20:40:05.121003+01 | 1486323605.121 | 50/AFC9FEE0              |          346546634464

 2017-02-05 20:40:06.20372+01 | 1486323606.20372 | 50/B0A64C58              |          346561072216

