 2017-02-05 02:31:53.379691+01 | 1486258313.37969 |                 0 |              11 |                 40091 |                 1860 |            2393217 |       1476743 |            14746 |        58544338 |                     0 |     217664643 | 2017-02-05 01:37:12.521687+01

 2017-02-05 02:31:54.478394+01 | 1486258314.47839 |                 0 |              11 |                 40091 |                 1860 |            2393217 |       1476743 |            14746 |        58544338 |                     0 |     217742550 | 2017-02-05 01:37:12.521687+01

 2017-02-05 02:31:55.568347+01 | 1486258315.56835 |                 0 |              11 |                 40091 |                 1860 |            2393217 |       1476743 |            14746 |        58544338 |                     0 |     217810062 | 2017-02-05 01:37:12.521687+01

 2017-02-05 02:31:56.655885+01 | 1486258316.65588 |                 0 |              11 |                 40091 |                 1860 |            2393217 |       1476743 |            14746 |        58544338 |                     0 |     217904810 | 2017-02-05 01:37:12.521687+01

 2017-02-05 02:31:57.735922+01 | 1486258317.73592 |                 0 |              11 |                 40091 |                 1860 |            2393217 |       1477198 |            14750 |        58544338 |                     0 |     218006031 | 2017-02-05 01:37:12.521687+01

 2017-02-05 02:31:58.818155+01 | 1486258318.81816 |                 0 |              11 |                 40091 |                 1860 |            2393217 |       1477698 |            14755 |        58544338 |                     0 |     218108255 | 2017-02-05 01:37:12.521687+01

 2017-02-05 02:31:59.900594+01 | 1486258319.90059 |                 0 |              11 |                 40091 |                 1860 |            2393217 |       1478298 |            14761 |        58544338 |                     0 |     218229611 | 2017-02-05 01:37:12.521687+01

 2017-02-05 02:32:00.98461+01 | 1486258320.98461 |                 0 |              11 |                 40091 |                 1860 |            2393217 |       1478798 |            14766 |        58544338 |                     0 |     218319907 | 2017-02-05 01:37:12.521687+01

 2017-02-05 02:32:02.065497+01 | 1486258322.0655 |                 0 |              11 |                 40091 |                 1860 |            2393217 |       1479398 |            14772 |        58544338 |                     0 |     218421551 | 2017-02-05 01:37:12.521687+01

 2017-02-05 02:32:03.143418+01 | 1486258323.14342 |                 0 |              11 |                 40091 |                 1860 |            2393217 |       1479898 |            14777 |        58544338 |                     0 |     218519691 | 2017-02-05 01:37:12.521687+01

 2017-02-05 02:32:04.226435+01 | 1486258324.22643 |                 0 |              11 |                 40091 |                 1860 |            2393217 |       1480398 |            14782 |        58544338 |                     0 |     218602236 | 2017-02-05 01:37:12.521687+01

 2017-02-05 02:32:05.308962+01 | 1486258325.30896 |                 0 |              11 |                 40091 |                 1860 |            2393217 |       1480998 |            14788 |        58544338 |                     0 |     218706456 | 2017-02-05 01:37:12.521687+01

 2017-02-05 02:32:06.385816+01 | 1486258326.38582 |                 0 |              11 |                 40091 |                 1860 |            2393217 |       1481498 |            14793 |        58544338 |                     0 |     218792653 | 2017-02-05 01:37:12.521687+01

 2017-02-05 02:32:07.467604+01 | 1486258327.4676 |                 0 |              11 |                 40091 |                 1860 |            2393217 |       1481998 |            14798 |        58544338 |                     0 |     218879080 | 2017-02-05 01:37:12.521687+01

 2017-02-05 02:32:08.547317+01 | 1486258328.54732 |                 0 |              11 |                 40091 |                 1860 |            2393217 |       1482598 |            14804 |        58544338 |                     0 |     218982591 | 2017-02-05 01:37:12.521687+01

 2017-02-05 02:32:09.633974+01 | 1486258329.63397 |                 0 |              11 |                 40091 |                 1860 |            2393217 |       1483098 |            14809 |        58544338 |                     0 |     219072964 | 2017-02-05 01:37:12.521687+01

 2017-02-05 02:32:10.721507+01 | 1486258330.72151 |                 0 |              11 |                 40091 |                 1860 |            2393217 |       1483598 |            14814 |        58544338 |                     0 |     219162514 | 2017-02-05 01:37:12.521687+01

 2017-02-05 02:32:11.801044+01 | 1486258331.80104 |                 0 |              11 |                 40091 |                 1860 |            2393217 |       1484198 |            14820 |        58544338 |                     0 |     219263250 | 2017-02-05 01:37:12.521687+01

 2017-02-05 02:32:12.885326+01 | 1486258332.88533 |                 0 |              11 |                 40091 |                 1860 |            2393217 |       1484698 |            14825 |        58544338 |                     0 |     219345573 | 2017-02-05 01:37:12.521687+01

 2017-02-05 02:32:13.970513+01 | 1486258333.97051 |                 0 |              11 |                 40091 |                 1860 |            2393217 |       1485198 |            14830 |        58544338 |                     0 |     219432713 | 2017-02-05 01:37:12.521687+01

 2017-02-05 02:32:15.050166+01 | 1486258335.05017 |                 0 |              11 |                 40091 |                 1860 |            2393217 |       1485798 |            14836 |        58544338 |                     0 |     219540067 | 2017-02-05 01:37:12.521687+01

 2017-02-05 02:32:16.127982+01 | 1486258336.12798 |                 0 |              11 |                 40091 |                 1860 |            2393217 |       1486298 |            14841 |        58544338 |                     0 |     219623423 | 2017-02-05 01:37:12.521687+01

 2017-02-05 02:32:17.205688+01 | 1486258337.20569 |                 0 |              11 |                 40091 |                 1860 |            2393217 |       1486898 |            14847 |        58544338 |                     0 |     219709938 | 2017-02-05 01:37:12.521687+01

 2017-02-05 02:32:18.281275+01 | 1486258338.28128 |                 0 |              11 |                 40091 |                 1860 |            2393217 |       1487398 |            14852 |        58544338 |                     0 |     219781226 | 2017-02-05 01:37:12.521687+01

 2017-02-05 02:32:19.356815+01 | 1486258339.35682 |                 0 |              11 |                 40091 |                 1860 |            2393217 |       1487898 |            14857 |        58544338 |                     0 |     219846315 | 2017-02-05 01:37:12.521687+01

 2017-02-05 02:32:20.421938+01 | 1486258340.42194 |                 0 |              11 |                 40091 |                 1860 |            2393217 |       1488398 |            14862 |        58544338 |                     0 |     219909700 | 2017-02-05 01:37:12.521687+01

 2017-02-05 02:32:21.498923+01 | 1486258341.49892 |                 0 |              11 |                 40091 |                 1860 |            2393217 |       1488998 |            14868 |        58544338 |                     0 |     219988676 | 2017-02-05 01:37:12.521687+01

 2017-02-05 02:32:22.58116+01 | 1486258342.58116 |                 0 |              11 |                 40091 |                 1860 |            2393217 |       1489498 |            14873 |        58544338 |                     0 |     220057410 | 2017-02-05 01:37:12.521687+01

 2017-02-05 02:32:23.676129+01 | 1486258343.67613 |                 0 |              11 |                 40091 |                 1860 |            2393217 |       1489998 |            14878 |        58544338 |                     0 |     220123129 | 2017-02-05 01:37:12.521687+01

 2017-02-05 02:32:24.756585+01 | 1486258344.75658 |                 0 |              11 |                 40091 |                 1860 |            2393217 |       1490598 |            14884 |        58544338 |                     0 |     220197826 | 2017-02-05 01:37:12.521687+01

 2017-02-05 02:32:25.838892+01 | 1486258345.83889 |                 0 |              11 |                 40091 |                 1860 |            2393217 |       1491098 |            14889 |        58544338 |                     0 |     220272849 | 2017-02-05 01:37:12.521687+01

 2017-02-05 02:32:26.931866+01 | 1486258346.93187 |                 0 |              11 |                 40091 |                 1860 |            2393217 |       1491698 |            14895 |        58544338 |                     0 |     220369399 | 2017-02-05 01:37:12.521687+01

 2017-02-05 02:32:28.01604+01 | 1486258348.01604 |                 0 |              11 |                 40091 |                 1860 |            2393217 |       1492198 |            14900 |        59053571 |                     0 |     220455470 | 2017-02-05 01:37:12.521687+01

 2017-02-05 02:32:29.094288+01 | 1486258349.09429 |                 0 |              11 |                 40091 |                 1860 |            2393217 |       1492698 |            14905 |        59053571 |                     0 |     220544397 | 2017-02-05 01:37:12.521687+01

 2017-02-05 02:32:30.177412+01 | 1486258350.17741 |                 0 |              11 |                 40091 |                 1860 |            2393217 |       1493298 |            14911 |        59053571 |                     0 |     220636986 | 2017-02-05 01:37:12.521687+01

 2017-02-05 02:32:31.264726+01 | 1486258351.26473 |                 0 |              11 |                 40091 |                 1860 |            2393217 |       1493798 |            14916 |        59053571 |                     0 |     220725459 | 2017-02-05 01:37:12.521687+01

 2017-02-05 02:32:32.349013+01 | 1486258352.34901 |                 0 |              11 |                 40091 |                 1860 |            2393217 |       1494298 |            14921 |        59053571 |                     0 |     220814615 | 2017-02-05 01:37:12.521687+01

 2017-02-05 02:32:33.445301+01 | 1486258353.4453 |                 0 |              11 |                 40091 |                 1860 |            2393217 |       1494898 |            14927 |        59053571 |                     0 |     220907535 | 2017-02-05 01:37:12.521687+01

 2017-02-05 02:32:34.530609+01 | 1486258354.53061 |                 0 |              11 |                 40091 |                 1860 |            2393217 |       1495398 |            14932 |        59053571 |                     0 |     220992238 | 2017-02-05 01:37:12.521687+01

 2017-02-05 02:32:35.614205+01 | 1486258355.6142 |                 0 |              11 |                 40091 |                 1860 |            2393217 |       1495998 |            14938 |        59053571 |                     0 |     221081252 | 2017-02-05 01:37:12.521687+01

 2017-02-05 02:32:36.685567+01 | 1486258356.68557 |                 0 |              11 |                 40091 |                 1860 |            2393217 |       1496498 |            14943 |        59053571 |                     0 |     221155645 | 2017-02-05 01:37:12.521687+01

 2017-02-05 02:32:37.774389+01 | 1486258357.77439 |                 0 |              11 |                 40091 |                 1860 |            2393217 |       1496998 |            14948 |        59053571 |                     0 |     221222081 | 2017-02-05 01:37:12.521687+01

 2017-02-05 02:32:38.85537+01 | 1486258358.85537 |                 0 |              11 |                 40091 |                 1860 |            2393217 |       1497598 |            14954 |        59053571 |                     0 |     221303057 | 2017-02-05 01:37:12.521687+01

 2017-02-05 02:32:39.953133+01 | 1486258359.95313 |                 0 |              11 |                 40091 |                 1860 |            2393217 |       1498098 |            14959 |        59053571 |                     0 |     221371224 | 2017-02-05 01:37:12.521687+01

 2017-02-05 02:32:41.038396+01 | 1486258361.0384 |                 0 |              11 |                 40091 |                 1860 |            2393217 |       1498598 |            14964 |        59053571 |                     0 |     221429971 | 2017-02-05 01:37:12.521687+01

 2017-02-05 02:32:42.130305+01 | 1486258362.13031 |                 0 |              11 |                 40091 |                 1860 |            2393217 |       1499198 |            14970 |        59053571 |                     0 |     221501428 | 2017-02-05 01:37:12.521687+01

 2017-02-05 02:32:43.217468+01 | 1486258363.21747 |                 0 |              11 |                 40091 |                 1860 |            2393217 |       1499698 |            14975 |        59053571 |                     0 |     221567026 | 2017-02-05 01:37:12.521687+01

 2017-02-05 02:32:44.276015+01 | 1486258364.27602 |                 0 |              11 |                 40091 |                 1860 |            2393217 |       1500198 |            14980 |        59053571 |                     0 |     221630962 | 2017-02-05 01:37:12.521687+01

 2017-02-05 02:32:45.358268+01 | 1486258365.35827 |                 0 |              11 |                 40091 |                 1860 |            2393217 |       1500798 |            14986 |        59053571 |                     0 |     221711529 | 2017-02-05 01:37:12.521687+01

 2017-02-05 02:32:46.439207+01 | 1486258366.43921 |                 0 |              11 |                 40091 |                 1860 |            2393217 |       1501298 |            14991 |        59053571 |                     0 |     221773362 | 2017-02-05 01:37:12.521687+01

 2017-02-05 02:32:47.52134+01 | 1486258367.52134 |                 0 |              11 |                 40091 |                 1860 |            2393217 |       1501898 |            14997 |        59053571 |                     0 |     221871061 | 2017-02-05 01:37:12.521687+01

 2017-02-05 02:32:48.610592+01 | 1486258368.61059 |                 0 |              11 |                 40091 |                 1860 |            2393217 |       1502398 |            15002 |        59053571 |                     0 |     221961141 | 2017-02-05 01:37:12.521687+01

 2017-02-05 02:32:49.703065+01 | 1486258369.70306 |                 0 |              11 |                 40091 |                 1860 |            2393217 |       1502898 |            15007 |        59053571 |                     0 |     222047989 | 2017-02-05 01:37:12.521687+01

 2017-02-05 02:32:50.796664+01 | 1486258370.79666 |                 0 |              11 |                 40091 |                 1860 |            2393217 |       1503498 |            15013 |        59053571 |                     0 |     222140081 | 2017-02-05 01:37:12.521687+01

 2017-02-05 02:32:51.883157+01 | 1486258371.88316 |                 0 |              11 |                 40091 |                 1860 |            2393217 |       1503998 |            15018 |        59053571 |                     0 |     222221117 | 2017-02-05 01:37:12.521687+01

 2017-02-05 02:32:52.961827+01 | 1486258372.96183 |                 0 |              11 |                 40091 |                 1860 |            2393217 |       1504498 |            15023 |        59053571 |                     0 |     222276672 | 2017-02-05 01:37:12.521687+01

 2017-02-05 02:32:54.046073+01 | 1486258374.04607 |                 0 |              11 |                 40091 |                 1860 |            2393217 |       1505098 |            15029 |        59053571 |                     0 |     222360072 | 2017-02-05 01:37:12.521687+01

 2017-02-05 02:32:55.120676+01 | 1486258375.12068 |                 0 |              11 |                 40091 |                 1860 |            2393217 |       1505598 |            15034 |        59564059 |                     0 |     222435917 | 2017-02-05 01:37:12.521687+01

 2017-02-05 02:32:56.187426+01 | 1486258376.18743 |                 0 |              11 |                 40091 |                 1860 |            2393217 |       1506098 |            15039 |        59564059 |                     0 |     222516438 | 2017-02-05 01:37:12.521687+01

 2017-02-05 02:32:57.257768+01 | 1486258377.25777 |                 0 |              11 |                 40091 |                 1860 |            2393217 |       1506698 |            15045 |        59564059 |                     0 |     222592649 | 2017-02-05 01:37:12.521687+01

 2017-02-05 02:32:58.340369+01 | 1486258378.34037 |                 0 |              11 |                 40091 |                 1860 |            2393217 |       1507198 |            15050 |        59564059 |                     0 |     222652374 | 2017-02-05 01:37:12.521687+01

 2017-02-05 02:32:59.422123+01 | 1486258379.42212 |                 0 |              11 |                 40091 |                 1860 |            2393217 |       1507698 |            15055 |        59564059 |                     0 |     222706063 | 2017-02-05 01:37:12.521687+01

 2017-02-05 02:33:00.508615+01 | 1486258380.50862 |                 0 |              11 |                 40091 |                 1860 |            2393217 |       1508298 |            15061 |        59564059 |                     0 |     222780219 | 2017-02-05 01:37:12.521687+01

 2017-02-05 02:33:01.605504+01 | 1486258381.6055 |                 0 |              11 |                 40091 |                 1860 |            2393217 |       1508798 |            15066 |        59564059 |                     0 |     222851748 | 2017-02-05 01:37:12.521687+01

 2017-02-05 02:33:02.692244+01 | 1486258382.69224 |                 0 |              11 |                 40091 |                 1860 |            2393217 |       1509398 |            15072 |        59564059 |                     0 |     222939660 | 2017-02-05 01:37:12.521687+01

 2017-02-05 02:33:03.771541+01 | 1486258383.77154 |                 0 |              11 |                 40091 |                 1860 |            2393217 |       1509898 |            15077 |        59564059 |                     0 |     223030493 | 2017-02-05 01:37:12.521687+01

 2017-02-05 02:33:04.854437+01 | 1486258384.85444 |                 0 |              11 |                 40091 |                 1860 |            2393217 |       1510398 |            15082 |        59564059 |                     0 |     223102197 | 2017-02-05 01:37:12.521687+01

 2017-02-05 02:33:05.932319+01 | 1486258385.93232 |                 0 |              11 |                 40091 |                 1860 |            2393217 |       1510998 |            15088 |        59564059 |                     0 |     223207461 | 2017-02-05 01:37:12.521687+01

 2017-02-05 02:33:07.031099+01 | 1486258387.0311 |                 0 |              11 |                 40091 |                 1860 |            2393217 |       1511498 |            15093 |        59564059 |                     0 |     223286696 | 2017-02-05 01:37:12.521687+01

 2017-02-05 02:33:08.118564+01 | 1486258388.11856 |                 0 |              11 |                 40091 |                 1860 |            2393217 |       1511998 |            15098 |        59564059 |                     0 |     223344518 | 2017-02-05 01:37:12.521687+01

 2017-02-05 02:33:09.203488+01 | 1486258389.20349 |                 0 |              11 |                 40091 |                 1860 |            2393217 |       1512598 |            15104 |        59564059 |                     0 |     223418966 | 2017-02-05 01:37:12.521687+01

 2017-02-05 02:33:10.294054+01 | 1486258390.29405 |                 0 |              11 |                 40091 |                 1860 |            2393217 |       1513098 |            15109 |        59564059 |                     0 |     223498681 | 2017-02-05 01:37:12.521687+01

 2017-02-05 02:33:11.364208+01 | 1486258391.36421 |                 0 |              11 |                 40091 |                 1860 |            2393217 |       1513698 |            15115 |        59564059 |                     0 |     223596452 | 2017-02-05 01:37:12.521687+01

 2017-02-05 02:33:12.440218+01 | 1486258392.44022 |                 0 |              11 |                 40091 |                 1860 |            2393217 |       1514198 |            15120 |        59564059 |                     0 |     223676086 | 2017-02-05 01:37:12.521687+01

 2017-02-05 02:33:13.520598+01 | 1486258393.5206 |                 0 |              11 |                 40091 |                 1860 |            2393217 |       1514698 |            15125 |        59564059 |                     0 |     223752724 | 2017-02-05 01:37:12.521687+01

 2017-02-05 02:33:14.601391+01 | 1486258394.60139 |                 0 |              11 |                 40091 |                 1860 |            2393217 |       1515298 |            15131 |        59564059 |                     0 |     223850401 | 2017-02-05 01:37:12.521687+01

 2017-02-05 02:33:15.682455+01 | 1486258395.68246 |                 0 |              11 |                 40091 |                 1860 |            2393217 |       1515798 |            15136 |        59564059 |                     0 |     223921871 | 2017-02-05 01:37:12.521687+01

 2017-02-05 02:33:16.768763+01 | 1486258396.76876 |                 0 |              11 |                 40091 |                 1860 |            2393217 |       1516298 |            15141 |        59564059 |                     0 |     224006161 | 2017-02-05 01:37:12.521687+01

 2017-02-05 02:33:17.856195+01 | 1486258397.85619 |                 0 |              11 |                 40091 |                 1860 |            2393217 |       1516898 |            15147 |        59564059 |                     0 |     224102889 | 2017-02-05 01:37:12.521687+01

 2017-02-05 02:33:18.938096+01 | 1486258398.9381 |                 0 |              11 |                 40091 |                 1860 |            2393217 |       1517398 |            15152 |        59564059 |                     0 |     224163888 | 2017-02-05 01:37:12.521687+01

 2017-02-05 02:33:20.01433+01 | 1486258400.01433 |                 0 |              11 |                 40091 |                 1860 |            2393217 |       1517898 |            15157 |        59564059 |                     0 |     224215874 | 2017-02-05 01:37:12.521687+01

 2017-02-05 02:33:21.092182+01 | 1486258401.09218 |                 0 |              11 |                 40091 |                 1860 |            2393217 |       1518498 |            15163 |        59564059 |                     0 |     224297609 | 2017-02-05 01:37:12.521687+01

 2017-02-05 02:33:22.164546+01 | 1486258402.16455 |                 0 |              11 |                 40091 |                 1860 |            2393217 |       1518998 |            15168 |        59564059 |                     0 |     224366156 | 2017-02-05 01:37:12.521687+01

 2017-02-05 02:33:23.248586+01 | 1486258403.24859 |                 0 |              11 |                 40091 |                 1860 |            2393217 |       1519498 |            15173 |        59564059 |                     0 |     224446101 | 2017-02-05 01:37:12.521687+01

 2017-02-05 02:33:24.324402+01 | 1486258404.3244 |                 0 |              11 |                 40091 |                 1860 |            2393217 |       1520098 |            15179 |        60074248 |                     0 |     224550155 | 2017-02-05 01:37:12.521687+01

 2017-02-05 02:33:25.404478+01 | 1486258405.40448 |                 0 |              11 |                 40091 |                 1860 |            2393217 |       1520598 |            15184 |        60074248 |                     0 |     224635694 | 2017-02-05 01:37:12.521687+01

 2017-02-05 02:33:26.482161+01 | 1486258406.48216 |                 0 |              11 |                 40091 |                 1860 |            2393217 |       1521098 |            15189 |        60074248 |                     0 |     224720111 | 2017-02-05 01:37:12.521687+01

 2017-02-05 02:33:27.55494+01 | 1486258407.55494 |                 0 |              11 |                 40091 |                 1860 |            2393217 |       1521698 |            15195 |        60074248 |                     0 |     224819928 | 2017-02-05 01:37:12.521687+01

 2017-02-05 02:33:28.638547+01 | 1486258408.63855 |                 0 |              11 |                 40091 |                 1860 |            2393217 |       1522198 |            15200 |        60074248 |                     0 |     224903281 | 2017-02-05 01:37:12.521687+01

 2017-02-05 02:33:29.709105+01 | 1486258409.70911 |                 0 |              11 |                 40091 |                 1860 |            2393217 |       1522698 |            15205 |        60074248 |                     0 |     224993263 | 2017-02-05 01:37:12.521687+01

 2017-02-05 02:33:30.785008+01 | 1486258410.78501 |                 0 |              11 |                 40091 |                 1860 |            2393217 |       1523298 |            15211 |        60074248 |                     0 |     225075254 | 2017-02-05 01:37:12.521687+01

 2017-02-05 02:33:31.86624+01 | 1486258411.86624 |                 0 |              11 |                 40091 |                 1860 |            2393217 |       1523798 |            15216 |        60074248 |                     0 |     225137118 | 2017-02-05 01:37:12.521687+01

 2017-02-05 02:33:32.948005+01 | 1486258412.948 |                 0 |              11 |                 40091 |                 1860 |            2393217 |       1524298 |            15221 |        60074248 |                     0 |     225206918 | 2017-02-05 01:37:12.521687+01

 2017-02-05 02:33:34.029579+01 | 1486258414.02958 |                 0 |              11 |                 40091 |                 1860 |            2393217 |       1524898 |            15227 |        60074248 |                     0 |     225277193 | 2017-02-05 01:37:12.521687+01

 2017-02-05 02:33:35.116025+01 | 1486258415.11602 |                 0 |              11 |                 40091 |                 1860 |            2393217 |       1525398 |            15232 |        60074248 |                     0 |     225352149 | 2017-02-05 01:37:12.521687+01

 2017-02-05 02:33:36.200839+01 | 1486258416.20084 |                 0 |              11 |                 40091 |                 1860 |            2393217 |       1525998 |            15238 |        60074248 |                     0 |     225435012 | 2017-02-05 01:37:12.521687+01

 2017-02-05 02:33:37.278768+01 | 1486258417.27877 |                 0 |              11 |                 40091 |                 1860 |            2393217 |       1526498 |            15243 |        60074248 |                     0 |     225502336 | 2017-02-05 01:37:12.521687+01

 2017-02-05 02:33:38.349913+01 | 1486258418.34991 |                 0 |              11 |                 40091 |                 1860 |            2393217 |       1526998 |            15248 |        60074248 |                     0 |     225565392 | 2017-02-05 01:37:12.521687+01

 2017-02-05 02:33:39.427017+01 | 1486258419.42702 |                 0 |              11 |                 40091 |                 1860 |            2393217 |       1527498 |            15253 |        60074248 |                     0 |     225631506 | 2017-02-05 01:37:12.521687+01

 2017-02-05 02:33:40.512323+01 | 1486258420.51232 |                 0 |              11 |                 40091 |                 1860 |            2393217 |       1528098 |            15259 |        60074248 |                     0 |     225724297 | 2017-02-05 01:37:12.521687+01

 2017-02-05 02:33:41.592881+01 | 1486258421.59288 |                 0 |              11 |                 40091 |                 1860 |            2393217 |       1528598 |            15264 |        60074248 |                     0 |     225812928 | 2017-02-05 01:37:12.521687+01

 2017-02-05 02:33:42.67935+01 | 1486258422.67935 |                 0 |              11 |                 40091 |                 1860 |            2393217 |       1529198 |            15270 |        60074248 |                     0 |     225910987 | 2017-02-05 01:37:12.521687+01

 2017-02-05 02:33:43.760994+01 | 1486258423.76099 |                 0 |              11 |                 40091 |                 1860 |            2393217 |       1529698 |            15275 |        60074248 |                     0 |     225996534 | 2017-02-05 01:37:12.521687+01

 2017-02-05 02:33:44.836061+01 | 1486258424.83606 |                 0 |              11 |                 40091 |                 1860 |            2393217 |       1530198 |            15280 |        60074248 |                     0 |     226081256 | 2017-02-05 01:37:12.521687+01

 2017-02-05 02:33:45.919276+01 | 1486258425.91928 |                 0 |              11 |                 40091 |                 1860 |            2393217 |       1530798 |            15286 |        60074248 |                     0 |     226185609 | 2017-02-05 01:37:12.521687+01

 2017-02-05 02:33:47.002879+01 | 1486258427.00288 |                 0 |              11 |                 40091 |                 1860 |            2393217 |       1531298 |            15291 |        60074248 |                     0 |     226265068 | 2017-02-05 01:37:12.521687+01

 2017-02-05 02:33:48.080759+01 | 1486258428.08076 |                 0 |              11 |                 40091 |                 1860 |            2393217 |       1531798 |            15296 |        60074248 |                     0 |     226350629 | 2017-02-05 01:37:12.521687+01

 2017-02-05 02:33:49.155202+01 | 1486258429.1552 |                 0 |              11 |                 40091 |                 1860 |            2393217 |       1532398 |            15302 |        60074248 |                     0 |     226463887 | 2017-02-05 01:37:12.521687+01

 2017-02-05 02:33:50.234234+01 | 1486258430.23423 |                 0 |              11 |                 40091 |                 1860 |            2393217 |       1532898 |            15307 |        60585537 |                     0 |     226550446 | 2017-02-05 01:37:12.521687+01

 2017-02-05 02:33:51.3118+01 | 1486258431.3118 |                 0 |              11 |                 40091 |                 1860 |            2393217 |       1533398 |            15312 |        60585537 |                     0 |     226637512 | 2017-02-05 01:37:12.521687+01

 2017-02-05 02:33:52.388145+01 | 1486258432.38814 |                 0 |              11 |                 40091 |                 1860 |            2393217 |       1533998 |            15318 |        60585537 |                     0 |     226740437 | 2017-02-05 01:37:12.521687+01

 2017-02-05 02:33:53.475224+01 | 1486258433.47522 |                 0 |              11 |                 40091 |                 1860 |            2393217 |       1534498 |            15323 |        60585537 |                     0 |     226828741 | 2017-02-05 01:37:12.521687+01

 2017-02-05 02:33:54.555137+01 | 1486258434.55514 |                 0 |              11 |                 40091 |                 1860 |            2393217 |       1534998 |            15328 |        60585537 |                     0 |     226908034 | 2017-02-05 01:37:12.521687+01

 2017-02-05 02:33:55.631365+01 | 1486258435.63137 |                 0 |              11 |                 40091 |                 1860 |            2393217 |       1535598 |            15334 |        60585537 |                     0 |     227014615 | 2017-02-05 01:37:12.521687+01

 2017-02-05 02:33:56.707925+01 | 1486258436.70793 |                 0 |              11 |                 40091 |                 1860 |            2393217 |       1536098 |            15339 |        60585537 |                     0 |     227102518 | 2017-02-05 01:37:12.521687+01

 2017-02-05 02:33:57.785909+01 | 1486258437.78591 |                 0 |              11 |                 40091 |                 1860 |            2393217 |       1536598 |            15344 |        60585537 |                     0 |     227189041 | 2017-02-05 01:37:12.521687+01

 2017-02-05 02:33:58.876395+01 | 1486258438.87639 |                 0 |              11 |                 40091 |                 1860 |            2393217 |       1537198 |            15350 |        60585537 |                     0 |     227291050 | 2017-02-05 01:37:12.521687+01

 2017-02-05 02:33:59.964567+01 | 1486258439.96457 |                 0 |              11 |                 40091 |                 1860 |            2393217 |       1537698 |            15355 |        60585537 |                     0 |     227378152 | 2017-02-05 01:37:12.521687+01

 2017-02-05 02:34:01.041961+01 | 1486258441.04196 |                 0 |              11 |                 40091 |                 1860 |            2393217 |       1538198 |            15360 |        60585537 |                     0 |     227458989 | 2017-02-05 01:37:12.521687+01

 2017-02-05 02:34:02.126191+01 | 1486258442.12619 |                 0 |              11 |                 40091 |                 1860 |            2393217 |       1538798 |            15366 |        60585537 |                     0 |     227562714 | 2017-02-05 01:37:12.521687+01

 2017-02-05 02:34:03.206685+01 | 1486258443.20669 |                 0 |              11 |                 40091 |                 1860 |            2393217 |       1539298 |            15371 |        60585537 |                     0 |     227653235 | 2017-02-05 01:37:12.521687+01

 2017-02-05 02:34:04.291674+01 | 1486258444.29167 |                 0 |              11 |                 40091 |                 1860 |            2393217 |       1539798 |            15376 |        60585537 |                     0 |     227738380 | 2017-02-05 01:37:12.521687+01

 2017-02-05 02:34:05.370911+01 | 1486258445.37091 |                 0 |              11 |                 40091 |                 1860 |            2393217 |       1540398 |            15382 |        60585537 |                     0 |     227838808 | 2017-02-05 01:37:12.521687+01

 2017-02-05 02:34:06.448439+01 | 1486258446.44844 |                 0 |              11 |                 40091 |                 1860 |            2393217 |       1540898 |            15387 |        60585537 |                     0 |     227927378 | 2017-02-05 01:37:12.521687+01

 2017-02-05 02:34:07.52957+01 | 1486258447.52957 |                 0 |              11 |                 40091 |                 1860 |            2393217 |       1541398 |            15392 |        60585537 |                     0 |     228018819 | 2017-02-05 01:37:12.521687+01

 2017-02-05 02:34:08.608089+01 | 1486258448.60809 |                 0 |              11 |                 40091 |                 1860 |            2393217 |       1541998 |            15398 |        60585537 |                     0 |     228119350 | 2017-02-05 01:37:12.521687+01

 2017-02-05 02:34:09.690422+01 | 1486258449.69042 |                 0 |              11 |                 40091 |                 1860 |            2393217 |       1542498 |            15403 |        60585537 |                     0 |     228208305 | 2017-02-05 01:37:12.521687+01

 2017-02-05 02:34:10.768077+01 | 1486258450.76808 |                 0 |              11 |                 40091 |                 1860 |            2393217 |       1543098 |            15409 |        60585537 |                     0 |     228316884 | 2017-02-05 01:37:12.521687+01

 2017-02-05 02:34:11.842496+01 | 1486258451.8425 |                 0 |              11 |                 40091 |                 1860 |            2393217 |       1543598 |            15414 |        60585537 |                     0 |     228399830 | 2017-02-05 01:37:12.521687+01

 2017-02-05 02:34:12.915271+01 | 1486258452.91527 |                 0 |              11 |                 40091 |                 1860 |            2393217 |       1544098 |            15419 |        60585537 |                     0 |     228486173 | 2017-02-05 01:37:12.521687+01

 2017-02-05 02:34:13.992346+01 | 1486258453.99235 |                 0 |              11 |                 40091 |                 1860 |            2393217 |       1544598 |            15424 |        61098025 |                     0 |     228566619 | 2017-02-05 01:37:12.521687+01

 2017-02-05 02:34:15.063052+01 | 1486258455.06305 |                 0 |              11 |                 40091 |                 1860 |            2393217 |       1545198 |            15430 |        61098025 |                     0 |     228656060 | 2017-02-05 01:37:12.521687+01

 2017-02-05 02:34:16.152614+01 | 1486258456.15261 |                 0 |              11 |                 40091 |                 1860 |            2393217 |       1545698 |            15435 |        61098025 |                     0 |     228726794 | 2017-02-05 01:37:12.521687+01

 2017-02-05 02:34:17.236451+01 | 1486258457.23645 |                 0 |              11 |                 40091 |                 1860 |            2393217 |       1546298 |            15441 |        61098025 |                     0 |     228806434 | 2017-02-05 01:37:12.521687+01

 2017-02-05 02:34:18.317712+01 | 1486258458.31771 |                 0 |              11 |                 40091 |                 1860 |            2393217 |       1546798 |            15446 |        61098025 |                     0 |     228880252 | 2017-02-05 01:37:12.521687+01

 2017-02-05 02:34:19.397615+01 | 1486258459.39761 |                 0 |              11 |                 40091 |                 1860 |            2393217 |       1547298 |            15451 |        61098025 |                     0 |     228951240 | 2017-02-05 01:37:12.521687+01

 2017-02-05 02:34:20.483813+01 | 1486258460.48381 |                 0 |              11 |                 40091 |                 1860 |            2393217 |       1547898 |            15457 |        61098025 |                     0 |     229029670 | 2017-02-05 01:37:12.521687+01

 2017-02-05 02:34:21.55872+01 | 1486258461.55872 |                 0 |              11 |                 40091 |                 1860 |            2393217 |       1548398 |            15462 |        61098025 |                     0 |     229101455 | 2017-02-05 01:37:12.521687+01

 2017-02-05 02:34:22.636435+01 | 1486258462.63644 |                 0 |              11 |                 40091 |                 1860 |            2393217 |       1548898 |            15467 |        61098025 |                     0 |     229174355 | 2017-02-05 01:37:12.521687+01

 2017-02-05 02:34:23.713216+01 | 1486258463.71322 |                 0 |              11 |                 40091 |                 1860 |            2393217 |       1549498 |            15473 |        61098025 |                     0 |     229278636 | 2017-02-05 01:37:12.521687+01

 2017-02-05 02:34:24.78877+01 | 1486258464.78877 |                 0 |              11 |                 40091 |                 1860 |            2393217 |       1549998 |            15478 |        61098025 |                     0 |     229369294 | 2017-02-05 01:37:12.521687+01

 2017-02-05 02:34:25.870824+01 | 1486258465.87082 |                 0 |              11 |                 40091 |                 1860 |            2393217 |       1550498 |            15483 |        61098025 |                     0 |     229457624 | 2017-02-05 01:37:12.521687+01

 2017-02-05 02:34:26.96689+01 | 1486258466.96689 |                 0 |              11 |                 40091 |                 1860 |            2393217 |       1551098 |            15489 |        61098025 |                     0 |     229557422 | 2017-02-05 01:37:12.521687+01

 2017-02-05 02:34:28.046287+01 | 1486258468.04629 |                 0 |              11 |                 40091 |                 1860 |            2393217 |       1551598 |            15494 |        61098025 |                     0 |     229646199 | 2017-02-05 01:37:12.521687+01

 2017-02-05 02:34:29.121868+01 | 1486258469.12187 |                 0 |              11 |                 40091 |                 1860 |            2393217 |       1552098 |            15499 |        61098025 |                     0 |     229736942 | 2017-02-05 01:37:12.521687+01

 2017-02-05 02:34:30.202745+01 | 1486258470.20274 |                 0 |              11 |                 40091 |                 1860 |            2393217 |       1552698 |            15505 |        61098025 |                     0 |     229853730 | 2017-02-05 01:37:12.521687+01

 2017-02-05 02:34:31.279555+01 | 1486258471.27956 |                 0 |              11 |                 40091 |                 1860 |            2393217 |       1553198 |            15510 |        61098025 |                     0 |     229947490 | 2017-02-05 01:37:12.521687+01

 2017-02-05 02:34:32.362495+01 | 1486258472.36249 |                 0 |              11 |                 40091 |                 1860 |            2393217 |       1553698 |            15515 |        61098025 |                     0 |     230039263 | 2017-02-05 01:37:12.521687+01

 2017-02-05 02:34:33.444305+01 | 1486258473.4443 |                 0 |              11 |                 40091 |                 1860 |            2393217 |       1554298 |            15521 |        61098025 |                     0 |     230143764 | 2017-02-05 01:37:12.521687+01

 2017-02-05 02:34:34.524978+01 | 1486258474.52498 |                 0 |              11 |                 40091 |                 1860 |            2393217 |       1554798 |            15526 |        61098025 |                     0 |     230230851 | 2017-02-05 01:37:12.521687+01

 2017-02-05 02:34:35.607036+01 | 1486258475.60704 |                 0 |              11 |                 40091 |                 1860 |            2393217 |       1555298 |            15531 |        61098025 |                     0 |     230317430 | 2017-02-05 01:37:12.521687+01

 2017-02-05 02:34:36.684154+01 | 1486258476.68415 |                 0 |              11 |                 40091 |                 1860 |            2393217 |       1555898 |            15537 |        61098025 |                     0 |     230429729 | 2017-02-05 01:37:12.521687+01

 2017-02-05 02:34:37.7598+01 | 1486258477.7598 |                 0 |              11 |                 40091 |                 1860 |            2393217 |       1556398 |            15542 |        61098025 |                     0 |     230517344 | 2017-02-05 01:37:12.521687+01

 2017-02-05 02:34:38.82426+01 | 1486258478.82426 |                 0 |              11 |                 40091 |                 1860 |            2393217 |       1556998 |            15548 |        61610014 |                     0 |     230624050 | 2017-02-05 01:37:12.521687+01

 2017-02-05 02:34:39.896277+01 | 1486258479.89628 |                 0 |              11 |                 40091 |                 1860 |            2393217 |       1557498 |            15553 |        61610014 |                     0 |     230713798 | 2017-02-05 01:37:12.521687+01

 2017-02-05 02:34:40.968581+01 | 1486258480.96858 |                 0 |              11 |                 40091 |                 1860 |            2393217 |       1557998 |            15558 |        61610014 |                     0 |     230797712 | 2017-02-05 01:37:12.521687+01

 2017-02-05 02:34:42.037892+01 | 1486258482.03789 |                 0 |              11 |                 40091 |                 1860 |            2393217 |       1558498 |            15563 |        61610014 |                     0 |     230881130 | 2017-02-05 01:37:12.521687+01

 2017-02-05 02:34:43.12472+01 | 1486258483.12472 |                 0 |              11 |                 40091 |                 1860 |            2393217 |       1559098 |            15569 |        61610014 |                     0 |     230984830 | 2017-02-05 01:37:12.521687+01

 2017-02-05 02:34:44.191838+01 | 1486258484.19184 |                 0 |              11 |                 40091 |                 1860 |            2393217 |       1559598 |            15574 |        61610014 |                     0 |     231073572 | 2017-02-05 01:37:12.521687+01

 2017-02-05 02:34:45.275103+01 | 1486258485.2751 |                 0 |              11 |                 40091 |                 1860 |            2393217 |       1560098 |            15579 |        61610014 |                     0 |     231163117 | 2017-02-05 01:37:12.521687+01

 2017-02-05 02:34:46.350824+01 | 1486258486.35082 |                 0 |              11 |                 40091 |                 1860 |            2393217 |       1560698 |            15585 |        61610014 |                     0 |     231274986 | 2017-02-05 01:37:12.521687+01

 2017-02-05 02:34:47.425684+01 | 1486258487.42568 |                 0 |              11 |                 40091 |                 1860 |            2393217 |       1561198 |            15590 |        61610014 |                     0 |     231358983 | 2017-02-05 01:37:12.521687+01

 2017-02-05 02:34:48.502365+01 | 1486258488.50237 |                 0 |              11 |                 40091 |                 1860 |            2393217 |       1561698 |            15595 |        61610014 |                     0 |     231451223 | 2017-02-05 01:37:12.521687+01

 2017-02-05 02:34:49.576201+01 | 1486258489.5762 |                 0 |              11 |                 40091 |                 1860 |            2393217 |       1562298 |            15601 |        61610014 |                     0 |     231562686 | 2017-02-05 01:37:12.521687+01

 2017-02-05 02:34:50.657296+01 | 1486258490.6573 |                 0 |              11 |                 40091 |                 1860 |            2393217 |       1562798 |            15606 |        61610014 |                     0 |     231648667 | 2017-02-05 01:37:12.521687+01

 2017-02-05 02:34:51.737714+01 | 1486258491.73771 |                 0 |              11 |                 40091 |                 1860 |            2393217 |       1563298 |            15611 |        61610014 |                     0 |     231741944 | 2017-02-05 01:37:12.521687+01

 2017-02-05 02:34:52.825685+01 | 1486258492.82569 |                 0 |              11 |                 40091 |                 1860 |            2393217 |       1563898 |            15617 |        61610014 |                     0 |     231846195 | 2017-02-05 01:37:12.521687+01

 2017-02-05 02:34:53.907542+01 | 1486258493.90754 |                 0 |              11 |                 40091 |                 1860 |            2393217 |       1564398 |            15622 |        61610014 |                     0 |     231935072 | 2017-02-05 01:37:12.521687+01

 2017-02-05 02:34:54.990919+01 | 1486258494.99092 |                 0 |              11 |                 40091 |                 1860 |            2393217 |       1564898 |            15627 |        61610014 |                     0 |     232023430 | 2017-02-05 01:37:12.521687+01

 2017-02-05 02:34:56.066989+01 | 1486258496.06699 |                 0 |              11 |                 40091 |                 1860 |            2393217 |       1565498 |            15633 |        61610014 |                     0 |     232127413 | 2017-02-05 01:37:12.521687+01

 2017-02-05 02:34:57.143589+01 | 1486258497.14359 |                 0 |              11 |                 40091 |                 1860 |            2393217 |       1565998 |            15638 |        61610014 |                     0 |     232218567 | 2017-02-05 01:37:12.521687+01

 2017-02-05 02:34:58.222546+01 | 1486258498.22255 |                 0 |              11 |                 40091 |                 1860 |            2393217 |       1566498 |            15643 |        61610014 |                     0 |     232310612 | 2017-02-05 01:37:12.521687+01

 2017-02-05 02:34:59.298694+01 | 1486258499.29869 |                 0 |              11 |                 40091 |                 1860 |            2393217 |       1567098 |            15649 |        61610014 |                     0 |     232426575 | 2017-02-05 01:37:12.521687+01

 2017-02-05 02:35:00.367759+01 | 1486258500.36776 |                 0 |              11 |                 40091 |                 1860 |            2393217 |       1567598 |            15654 |        61610014 |                     0 |     232516696 | 2017-02-05 01:37:12.521687+01

 2017-02-05 02:35:01.448173+01 | 1486258501.44817 |                 0 |              11 |                 40091 |                 1860 |            2393217 |       1568098 |            15659 |        61610014 |                     0 |     232609957 | 2017-02-05 01:37:12.521687+01

 2017-02-05 02:35:02.524783+01 | 1486258502.52478 |                 0 |              11 |                 40091 |                 1860 |            2393217 |       1568698 |            15665 |        62122903 |                     0 |     232714288 | 2017-02-05 01:37:12.521687+01

 2017-02-05 02:35:03.60431+01 | 1486258503.60431 |                 0 |              11 |                 40091 |                 1860 |            2393217 |       1569198 |            15670 |        62122903 |                     0 |     232804924 | 2017-02-05 01:37:12.521687+01

 2017-02-05 02:35:04.683555+01 | 1486258504.68355 |                 0 |              11 |                 40091 |                 1860 |            2393217 |       1569698 |            15675 |        62122903 |                     0 |     232898792 | 2017-02-05 01:37:12.521687+01

 2017-02-05 02:35:05.76554+01 | 1486258505.76554 |                 0 |              11 |                 40091 |                 1860 |            2393217 |       1570298 |            15681 |        62122903 |                     0 |     233008346 | 2017-02-05 01:37:12.521687+01

 2017-02-05 02:35:06.84721+01 | 1486258506.84721 |                 0 |              11 |                 40091 |                 1860 |            2393217 |       1570798 |            15686 |        62122903 |                     0 |     233098344 | 2017-02-05 01:37:12.521687+01

 2017-02-05 02:35:07.938716+01 | 1486258507.93872 |                 0 |              11 |                 40091 |                 1860 |            2393217 |       1571298 |            15691 |        62122903 |                     0 |     233181031 | 2017-02-05 01:37:12.521687+01

 2017-02-05 02:35:09.019673+01 | 1486258509.01967 |                 0 |              11 |                 40091 |                 1860 |            2393217 |       1571898 |            15697 |        62122903 |                     0 |     233259517 | 2017-02-05 01:37:12.521687+01

 2017-02-05 02:35:10.105186+01 | 1486258510.10519 |                 0 |              11 |                 40091 |                 1860 |            2393217 |       1572398 |            15702 |        62122903 |                     0 |     233330031 | 2017-02-05 01:37:12.521687+01

 2017-02-05 02:35:11.184226+01 | 1486258511.18423 |                 0 |              11 |                 40091 |                 1860 |            2393217 |       1572998 |            15708 |        62122903 |                     0 |     233418036 | 2017-02-05 01:37:12.521687+01

 2017-02-05 02:35:12.256339+01 | 1486258512.25634 |                 0 |              11 |                 40091 |                 1860 |            2393217 |       1573498 |            15713 |        62122903 |                     0 |     233492748 | 2017-02-05 01:37:12.521687+01

 2017-02-05 02:35:13.34086+01 | 1486258513.34086 |                 0 |              11 |                 40091 |                 1860 |            2393217 |       1573998 |            15718 |        62122903 |                     0 |     233563853 | 2017-02-05 01:37:12.521687+01

 2017-02-05 02:35:14.425415+01 | 1486258514.42542 |                 0 |              11 |                 40091 |                 1860 |            2393217 |       1574598 |            15724 |        62122903 |                     0 |     233647249 | 2017-02-05 01:37:12.521687+01

 2017-02-05 02:35:15.508106+01 | 1486258515.50811 |                 0 |              11 |                 40091 |                 1860 |            2393217 |       1575098 |            15729 |        62122903 |                     0 |     233743490 | 2017-02-05 01:37:12.521687+01

 2017-02-05 02:35:16.593121+01 | 1486258516.59312 |                 0 |              11 |                 40091 |                 1860 |            2393217 |       1575598 |            15734 |        62122903 |                     0 |     233830556 | 2017-02-05 01:37:12.521687+01

 2017-02-05 02:35:17.67013+01 | 1486258517.67013 |                 0 |              11 |                 40091 |                 1860 |            2393217 |       1576198 |            15740 |        62122903 |                     0 |     233932228 | 2017-02-05 01:37:12.521687+01

 2017-02-05 02:35:18.754267+01 | 1486258518.75427 |                 0 |              11 |                 40091 |                 1860 |            2393217 |       1576698 |            15745 |        62122903 |                     0 |     234017096 | 2017-02-05 01:37:12.521687+01

 2017-02-05 02:35:19.843259+01 | 1486258519.84326 |                 0 |              11 |                 40091 |                 1860 |            2393217 |       1577198 |            15750 |        62122903 |                     0 |     234103794 | 2017-02-05 01:37:12.521687+01

 2017-02-05 02:35:20.922083+01 | 1486258520.92208 |                 0 |              11 |                 40091 |                 1860 |            2393217 |       1577798 |            15756 |        62122903 |                     0 |     234217972 | 2017-02-05 01:37:12.521687+01

 2017-02-05 02:35:21.991837+01 | 1486258521.99184 |                 0 |              11 |                 40091 |                 1860 |            2393217 |       1578298 |            15761 |        62122903 |                     0 |     234309969 | 2017-02-05 01:37:12.521687+01

 2017-02-05 02:35:23.079811+01 | 1486258523.07981 |                 0 |              11 |                 40091 |                 1860 |            2393217 |       1578798 |            15766 |        62122903 |                     0 |     234397193 | 2017-02-05 01:37:12.521687+01

 2017-02-05 02:35:24.170661+01 | 1486258524.17066 |                 0 |              11 |                 40091 |                 1860 |            2393217 |       1579398 |            15772 |        62122903 |                     0 |     234505306 | 2017-02-05 01:37:12.521687+01

 2017-02-05 02:35:25.248891+01 | 1486258525.24889 |                 0 |              11 |                 40091 |                 1860 |            2393217 |       1579898 |            15777 |        62122903 |                     0 |     234594312 | 2017-02-05 01:37:12.521687+01

 2017-02-05 02:35:26.325788+01 | 1486258526.32579 |                 0 |              11 |                 40091 |                 1860 |            2393217 |       1580498 |            15783 |        62635093 |                     0 |     234704464 | 2017-02-05 01:37:12.521687+01

 2017-02-05 02:35:27.407138+01 | 1486258527.40714 |                 0 |              11 |                 40091 |                 1860 |            2393217 |       1580998 |            15788 |        62635093 |                     0 |     234789383 | 2017-02-05 01:37:12.521687+01

 2017-02-05 02:35:28.487146+01 | 1486258528.48715 |                 0 |              11 |                 40091 |                 1860 |            2393217 |       1581498 |            15793 |        62635093 |                     0 |     234878574 | 2017-02-05 01:37:12.521687+01

 2017-02-05 02:35:29.568227+01 | 1486258529.56823 |                 0 |              11 |                 40091 |                 1860 |            2393217 |       1582098 |            15799 |        62635093 |                     0 |     234986203 | 2017-02-05 01:37:12.521687+01

 2017-02-05 02:35:30.650819+01 | 1486258530.65082 |                 0 |              11 |                 40091 |                 1860 |            2393217 |       1582598 |            15804 |        62635093 |                     0 |     235070321 | 2017-02-05 01:37:12.521687+01

 2017-02-05 02:35:31.727188+01 | 1486258531.72719 |                 0 |              11 |                 40091 |                 1860 |            2393217 |       1583098 |            15809 |        62635093 |                     0 |     235165562 | 2017-02-05 01:37:12.521687+01

 2017-02-05 02:35:32.807065+01 | 1486258532.80707 |                 0 |              11 |                 40091 |                 1860 |            2393217 |       1583698 |            15815 |        62635093 |                     0 |     235271180 | 2017-02-05 01:37:12.521687+01

 2017-02-05 02:35:33.89363+01 | 1486258533.89363 |                 0 |              11 |                 40091 |                 1860 |            2393217 |       1584198 |            15820 |        62635093 |                     0 |     235353149 | 2017-02-05 01:37:12.521687+01

 2017-02-05 02:35:34.965882+01 | 1486258534.96588 |                 0 |              11 |                 40091 |                 1860 |            2393217 |       1584698 |            15825 |        62635093 |                     0 |     235438409 | 2017-02-05 01:37:12.521687+01

 2017-02-05 02:35:36.035709+01 | 1486258536.03571 |                 0 |              11 |                 40091 |                 1860 |            2393217 |       1585298 |            15831 |        62635093 |                     0 |     235547652 | 2017-02-05 01:37:12.521687+01

 2017-02-05 02:35:37.112827+01 | 1486258537.11283 |                 0 |              11 |                 40091 |                 1860 |            2393217 |       1585798 |            15836 |        62635093 |                     0 |     235636390 | 2017-02-05 01:37:12.521687+01

 2017-02-05 02:35:38.196963+01 | 1486258538.19696 |                 0 |              11 |                 40091 |                 1860 |            2393217 |       1586298 |            15841 |        62635093 |                     0 |     235724124 | 2017-02-05 01:37:12.521687+01

 2017-02-05 02:35:39.277693+01 | 1486258539.27769 |                 0 |              11 |                 40091 |                 1860 |            2393217 |       1586898 |            15847 |        62635093 |                     0 |     235831505 | 2017-02-05 01:37:12.521687+01

 2017-02-05 02:35:40.361861+01 | 1486258540.36186 |                 0 |              11 |                 40091 |                 1860 |            2393217 |       1587398 |            15852 |        62635093 |                     0 |     235922738 | 2017-02-05 01:37:12.521687+01

 2017-02-05 02:35:41.443524+01 | 1486258541.44352 |                 0 |              11 |                 40091 |                 1860 |            2393217 |       1587898 |            15857 |        62635093 |                     0 |     236011454 | 2017-02-05 01:37:12.521687+01

 2017-02-05 02:35:42.513517+01 | 1486258542.51352 |                 0 |              11 |                 40091 |                 1860 |            2393217 |       1588498 |            15863 |        62635093 |                     0 |     236122930 | 2017-02-05 01:37:12.521687+01

 2017-02-05 02:35:43.589008+01 | 1486258543.58901 |                 0 |              11 |                 40091 |                 1860 |            2393217 |       1588998 |            15868 |        62635093 |                     0 |     236207288 | 2017-02-05 01:37:12.521687+01

 2017-02-05 02:35:44.678594+01 | 1486258544.67859 |                 0 |              11 |                 40091 |                 1860 |            2393217 |       1589498 |            15873 |        62635093 |                     0 |     236301979 | 2017-02-05 01:37:12.521687+01

 2017-02-05 02:35:45.759816+01 | 1486258545.75982 |                 0 |              11 |                 40091 |                 1860 |            2393217 |       1590098 |            15879 |        62635093 |                     0 |     236408011 | 2017-02-05 01:37:12.521687+01

 2017-02-05 02:35:46.838068+01 | 1486258546.83807 |                 0 |              11 |                 40091 |                 1860 |            2393217 |       1590598 |            15884 |        62635093 |                     0 |     236494904 | 2017-02-05 01:37:12.521687+01

 2017-02-05 02:35:47.924131+01 | 1486258547.92413 |                 0 |              11 |                 40091 |                 1860 |            2393217 |       1591098 |            15889 |        62635093 |                     0 |     236585338 | 2017-02-05 01:37:12.521687+01

 2017-02-05 02:35:49.001675+01 | 1486258549.00167 |                 0 |              11 |                 40091 |                 1860 |            2393217 |       1591698 |            15895 |        62635093 |                     0 |     236690308 | 2017-02-05 01:37:12.521687+01

 2017-02-05 02:35:50.070806+01 | 1486258550.07081 |                 0 |              11 |                 40091 |                 1860 |            2393217 |       1592198 |            15900 |        63147882 |                     0 |     236779132 | 2017-02-05 01:37:12.521687+01

 2017-02-05 02:35:51.150977+01 | 1486258551.15098 |                 0 |              11 |                 40091 |                 1860 |            2393217 |       1592698 |            15905 |        63147882 |                     0 |     236867259 | 2017-02-05 01:37:12.521687+01

 2017-02-05 02:35:52.231553+01 | 1486258552.23155 |                 0 |              11 |                 40091 |                 1860 |            2393217 |       1593298 |            15911 |        63147882 |                     0 |     236971621 | 2017-02-05 01:37:12.521687+01

 2017-02-05 02:35:53.308573+01 | 1486258553.30857 |                 0 |              11 |                 40091 |                 1860 |            2393217 |       1593798 |            15916 |        63147882 |                     0 |     237059540 | 2017-02-05 01:37:12.521687+01

 2017-02-05 02:35:54.387225+01 | 1486258554.38722 |                 0 |              11 |                 40091 |                 1860 |            2393217 |       1594298 |            15921 |        63147882 |                     0 |     237146588 | 2017-02-05 01:37:12.521687+01

 2017-02-05 02:35:55.469086+01 | 1486258555.46909 |                 0 |              11 |                 40091 |                 1860 |            2393217 |       1594898 |            15927 |        63147882 |                     0 |     237254337 | 2017-02-05 01:37:12.521687+01

 2017-02-05 02:35:56.549036+01 | 1486258556.54904 |                 0 |              11 |                 40091 |                 1860 |            2393217 |       1595398 |            15932 |        63147882 |                     0 |     237346229 | 2017-02-05 01:37:12.521687+01

 2017-02-05 02:35:57.614076+01 | 1486258557.61408 |                 0 |              11 |                 40091 |                 1860 |            2393217 |       1595898 |            15937 |        63147882 |                     0 |     237432020 | 2017-02-05 01:37:12.521687+01

 2017-02-05 02:35:58.693152+01 | 1486258558.69315 |                 0 |              11 |                 40091 |                 1860 |            2393217 |       1596498 |            15943 |        63147882 |                     0 |     237536513 | 2017-02-05 01:37:12.521687+01

 2017-02-05 02:35:59.769678+01 | 1486258559.76968 |                 0 |              11 |                 40091 |                 1860 |            2393217 |       1596998 |            15948 |        63147882 |                     0 |     237621222 | 2017-02-05 01:37:12.521687+01

 2017-02-05 02:36:00.847128+01 | 1486258560.84713 |                 0 |              11 |                 40091 |                 1860 |            2393217 |       1597498 |            15953 |        63147882 |                     0 |     237705771 | 2017-02-05 01:37:12.521687+01

 2017-02-05 02:36:01.916115+01 | 1486258561.91612 |                 0 |              11 |                 40091 |                 1860 |            2393217 |       1598098 |            15959 |        63147882 |                     0 |     237818464 | 2017-02-05 01:37:12.521687+01

 2017-02-05 02:36:02.993493+01 | 1486258562.99349 |                 0 |              11 |                 40091 |                 1860 |            2393217 |       1598598 |            15964 |        63147882 |                     0 |     237904433 | 2017-02-05 01:37:12.521687+01

 2017-02-05 02:36:04.073221+01 | 1486258564.07322 |                 0 |              11 |                 40091 |                 1860 |            2393217 |       1599098 |            15969 |        63147882 |                     0 |     237991669 | 2017-02-05 01:37:12.521687+01

 2017-02-05 02:36:05.154554+01 | 1486258565.15455 |                 0 |              11 |                 40091 |                 1860 |            2393217 |       1599698 |            15975 |        63147882 |                     0 |     238087885 | 2017-02-05 01:37:12.521687+01

 2017-02-05 02:36:06.234458+01 | 1486258566.23446 |                 0 |              11 |                 40091 |                 1860 |            2393217 |       1600198 |            15980 |        63147882 |                     0 |     238176462 | 2017-02-05 01:37:12.521687+01

 2017-02-05 02:36:07.316+01 | 1486258567.316 |                 0 |              11 |                 40091 |                 1860 |            2393217 |       1600698 |            15985 |        63147882 |                     0 |     238275538 | 2017-02-05 01:37:12.521687+01

 2017-02-05 02:36:08.395317+01 | 1486258568.39532 |                 0 |              11 |                 40091 |                 1860 |            2393217 |       1601298 |            15991 |        63147882 |                     0 |     238356816 | 2017-02-05 01:37:12.521687+01

 2017-02-05 02:36:09.474146+01 | 1486258569.47415 |                 0 |              11 |                 40091 |                 1860 |            2393217 |       1601798 |            15996 |        63147882 |                     0 |     238421364 | 2017-02-05 01:37:12.521687+01

 2017-02-05 02:36:10.553448+01 | 1486258570.55345 |                 0 |              11 |                 40091 |                 1860 |            2393217 |       1602298 |            16001 |        63147882 |                     0 |     238492822 | 2017-02-05 01:37:12.521687+01

 2017-02-05 02:36:11.63306+01 | 1486258571.63306 |                 0 |              11 |                 40091 |                 1860 |            2393217 |       1602898 |            16007 |        63147882 |                     0 |     238580721 | 2017-02-05 01:37:12.521687+01

 2017-02-05 02:36:12.704835+01 | 1486258572.70483 |                 0 |              11 |                 40091 |                 1860 |            2393217 |       1603398 |            16012 |        63147882 |                     0 |     238652347 | 2017-02-05 01:37:12.521687+01

 2017-02-05 02:36:13.787309+01 | 1486258573.78731 |                 0 |              11 |                 40091 |                 1860 |            2393217 |       1603898 |            16017 |        63147882 |                     0 |     238722717 | 2017-02-05 01:37:12.521687+01

 2017-02-05 02:36:14.873877+01 | 1486258574.87388 |                 0 |              11 |                 40091 |                 1860 |            2393217 |       1604498 |            16023 |        63660070 |                     0 |     238820984 | 2017-02-05 01:37:12.521687+01

 2017-02-05 02:36:15.960025+01 | 1486258575.96003 |                 0 |              11 |                 40091 |                 1860 |            2393217 |       1604998 |            16028 |        63660070 |                     0 |     238905692 | 2017-02-05 01:37:12.521687+01

 2017-02-05 02:36:17.041036+01 | 1486258577.04104 |                 0 |              11 |                 40091 |                 1860 |            2393217 |       1605498 |            16033 |        63660070 |                     0 |     238993005 | 2017-02-05 01:37:12.521687+01

 2017-02-05 02:36:18.124523+01 | 1486258578.12452 |                 0 |              11 |                 40091 |                 1860 |            2393217 |       1606098 |            16039 |        63660070 |                     0 |     239096395 | 2017-02-05 01:37:12.521687+01

 2017-02-05 02:36:19.204647+01 | 1486258579.20465 |                 0 |              11 |                 40091 |                 1860 |            2393217 |       1606598 |            16044 |        63660070 |                     0 |     239184364 | 2017-02-05 01:37:12.521687+01

 2017-02-05 02:36:20.287118+01 | 1486258580.28712 |                 0 |              11 |                 40091 |                 1860 |            2393217 |       1607198 |            16050 |        63660070 |                     0 |     239293979 | 2017-02-05 01:37:12.521687+01

 2017-02-05 02:36:21.366278+01 | 1486258581.36628 |                 0 |              11 |                 40091 |                 1860 |            2393217 |       1607698 |            16055 |        63660070 |                     0 |     239380987 | 2017-02-05 01:37:12.521687+01

 2017-02-05 02:36:22.456108+01 | 1486258582.45611 |                 0 |              11 |                 40091 |                 1860 |            2393217 |       1608198 |            16060 |        63660070 |                     0 |     239462902 | 2017-02-05 01:37:12.521687+01

 2017-02-05 02:36:23.539105+01 | 1486258583.5391 |                 0 |              11 |                 40091 |                 1860 |            2393217 |       1608798 |            16066 |        63660070 |                     0 |     239569820 | 2017-02-05 01:37:12.521687+01

 2017-02-05 02:36:24.622757+01 | 1486258584.62276 |                 0 |              11 |                 40091 |                 1860 |            2393217 |       1609298 |            16071 |        63660070 |                     0 |     239655413 | 2017-02-05 01:37:12.521687+01

 2017-02-05 02:36:25.709324+01 | 1486258585.70932 |                 0 |              11 |                 40091 |                 1860 |            2393217 |       1609798 |            16076 |        63660070 |                     0 |     239743070 | 2017-02-05 01:37:12.521687+01

 2017-02-05 02:36:26.7829+01 | 1486258586.7829 |                 0 |              11 |                 40091 |                 1860 |            2393217 |       1610398 |            16082 |        63660070 |                     0 |     239850924 | 2017-02-05 01:37:12.521687+01

 2017-02-05 02:36:27.856502+01 | 1486258587.8565 |                 0 |              11 |                 40091 |                 1860 |            2393217 |       1610898 |            16087 |        63660070 |                     0 |     239940242 | 2017-02-05 01:37:12.521687+01

 2017-02-05 02:36:28.943737+01 | 1486258588.94374 |                 0 |              11 |                 40091 |                 1860 |            2393217 |       1611398 |            16092 |        63660070 |                     0 |     240030353 | 2017-02-05 01:37:12.521687+01

 2017-02-05 02:36:30.034705+01 | 1486258590.0347 |                 0 |              11 |                 40091 |                 1860 |            2393217 |       1611998 |            16098 |        63660070 |                     0 |     240129783 | 2017-02-05 01:37:12.521687+01

 2017-02-05 02:36:31.123661+01 | 1486258591.12366 |                 0 |              11 |                 40091 |                 1860 |            2393217 |       1612498 |            16103 |        63660070 |                     0 |     240223283 | 2017-02-05 01:37:12.521687+01

 2017-02-05 02:36:32.199173+01 | 1486258592.19917 |                 0 |              11 |                 40091 |                 1860 |            2393217 |       1613098 |            16109 |        63660070 |                     0 |     240324473 | 2017-02-05 01:37:12.521687+01

 2017-02-05 02:36:33.281369+01 | 1486258593.28137 |                 0 |              11 |                 40091 |                 1860 |            2393217 |       1613598 |            16114 |        63660070 |                     0 |     240410512 | 2017-02-05 01:37:12.521687+01

 2017-02-05 02:36:34.362047+01 | 1486258594.36205 |                 0 |              11 |                 40091 |                 1860 |            2393217 |       1614098 |            16119 |        63660070 |                     0 |     240496662 | 2017-02-05 01:37:12.521687+01

 2017-02-05 02:36:35.440411+01 | 1486258595.44041 |                 0 |              11 |                 40091 |                 1860 |            2393217 |       1614698 |            16125 |        63660070 |                     0 |     240606961 | 2017-02-05 01:37:12.521687+01

 2017-02-05 02:36:36.519748+01 | 1486258596.51975 |                 0 |              11 |                 40091 |                 1860 |            2393217 |       1615198 |            16130 |        63660070 |                     0 |     240698760 | 2017-02-05 01:37:12.521687+01

 2017-02-05 02:36:37.594109+01 | 1486258597.59411 |                 0 |              11 |                 40091 |                 1860 |            2393217 |       1615698 |            16135 |        64172658 |                     0 |     240782735 | 2017-02-05 01:37:12.521687+01

 2017-02-05 02:36:38.674898+01 | 1486258598.6749 |                 0 |              11 |                 40091 |                 1860 |            2393217 |       1616298 |            16141 |        64172658 |                     0 |     240889922 | 2017-02-05 01:37:12.521687+01

 2017-02-05 02:36:39.759108+01 | 1486258599.75911 |                 0 |              11 |                 40091 |                 1860 |            2393217 |       1616798 |            16146 |        64172658 |                     0 |     240980031 | 2017-02-05 01:37:12.521687+01

 2017-02-05 02:36:40.839808+01 | 1486258600.83981 |                 0 |              11 |                 40091 |                 1860 |            2393217 |       1617298 |            16151 |        64172658 |                     0 |     241069698 | 2017-02-05 01:37:12.521687+01

 2017-02-05 02:36:41.919927+01 | 1486258601.91993 |                 0 |              11 |                 40091 |                 1860 |            2393217 |       1617898 |            16157 |        64172658 |                     0 |     241175182 | 2017-02-05 01:37:12.521687+01

 2017-02-05 02:36:42.995594+01 | 1486258602.99559 |                 0 |              11 |                 40091 |                 1860 |            2393217 |       1618398 |            16162 |        64172658 |                     0 |     241264673 | 2017-02-05 01:37:12.521687+01

 2017-02-05 02:36:44.073996+01 | 1486258604.074 |                 0 |              11 |                 40091 |                 1860 |            2393217 |       1618898 |            16167 |        64172658 |                     0 |     241347984 | 2017-02-05 01:37:12.521687+01

 2017-02-05 02:36:45.153872+01 | 1486258605.15387 |                 0 |              11 |                 40091 |                 1860 |            2393217 |       1619498 |            16173 |        64172658 |                     0 |     241455270 | 2017-02-05 01:37:12.521687+01

 2017-02-05 02:36:46.234013+01 | 1486258606.23401 |                 0 |              11 |                 40091 |                 1860 |            2393217 |       1619998 |            16178 |        64172658 |                     0 |     241543808 | 2017-02-05 01:37:12.521687+01

 2017-02-05 02:36:47.315093+01 | 1486258607.31509 |                 0 |              11 |                 40091 |                 1860 |            2393217 |       1620498 |            16183 |        64172658 |                     0 |     241631961 | 2017-02-05 01:37:12.521687+01

 2017-02-05 02:36:48.392605+01 | 1486258608.39261 |                 0 |              11 |                 40091 |                 1860 |            2393217 |       1621098 |            16189 |        64172658 |                     0 |     241737146 | 2017-02-05 01:37:12.521687+01

 2017-02-05 02:36:49.47569+01 | 1486258609.47569 |                 0 |              11 |                 40091 |                 1860 |            2393217 |       1621598 |            16194 |        64172658 |                     0 |     241827788 | 2017-02-05 01:37:12.521687+01

 2017-02-05 02:36:50.567935+01 | 1486258610.56793 |                 0 |              11 |                 40091 |                 1860 |            2393217 |       1622098 |            16199 |        64172658 |                     0 |     241911284 | 2017-02-05 01:37:12.521687+01

 2017-02-05 02:36:51.6517+01 | 1486258611.6517 |                 0 |              11 |                 40091 |                 1860 |            2393217 |       1622698 |            16205 |        64172658 |                     0 |     242008977 | 2017-02-05 01:37:12.521687+01

 2017-02-05 02:36:52.735643+01 | 1486258612.73564 |                 0 |              11 |                 40091 |                 1860 |            2393217 |       1623198 |            16210 |        64172658 |                     0 |     242095085 | 2017-02-05 01:37:12.521687+01

