 2017-02-06 16:18:48.275897+01 | 1486394328.2759 | A/F5EFBDA8               |           47075802536

 2017-02-06 16:18:49.366864+01 | 1486394329.36686 | A/FE5A1BA8               |           47216991144

 2017-02-06 16:18:50.461272+01 | 1486394330.46127 | B/65A86B8                |           47351236280

 2017-02-06 16:18:51.541749+01 | 1486394331.54175 | B/E5ED880                |           47485737088

 2017-02-06 16:18:52.630538+01 | 1486394332.63054 | B/15EA12C0               |           47612302016

 2017-02-06 16:18:53.735619+01 | 1486394333.73562 | B/1D8B02D8               |           47740289752

 2017-02-06 16:18:54.825974+01 | 1486394334.82597 | B/25707908               |           47872768264

 2017-02-06 16:18:55.909469+01 | 1486394335.90947 | B/2C8D0610               |           47992079888

 2017-02-06 16:18:56.995974+01 | 1486394336.99597 | B/329EF778               |           48093919096

 2017-02-06 16:18:58.087659+01 | 1486394338.08766 | B/37F654B0               |           48183530672

 2017-02-06 16:18:59.17362+01 | 1486394339.17362 | B/3C8D8130               |           48260546864

 2017-02-06 16:19:00.254749+01 | 1486394340.25475 | B/4098A968               |           48328386920

 2017-02-06 16:19:01.329888+01 | 1486394341.32989 | B/4427DB48               |           48388102984

 2017-02-06 16:19:02.410686+01 | 1486394342.41069 | B/474BAEA8               |           48440782504

 2017-02-06 16:19:03.498397+01 | 1486394343.4984 | B/4A4434A8               |           48490624168

 2017-02-06 16:19:04.589436+01 | 1486394344.58944 | B/4CB005E8               |           48531244520

 2017-02-06 16:19:05.677076+01 | 1486394345.67708 | B/4EEB5488               |           48568685704

 2017-02-06 16:19:06.760293+01 | 1486394346.76029 | B/50DEDD90               |           48601423248

 2017-02-06 16:19:07.849119+01 | 1486394347.84912 | B/52B615B8               |           48632305080

 2017-02-06 16:19:08.93363+01 | 1486394348.93363 | B/546F4230               |           48661217840

 2017-02-06 16:19:10.022991+01 | 1486394350.02299 | B/55F20EB8               |           48686567096

 2017-02-06 16:19:11.108664+01 | 1486394351.10866 | B/57505F60               |           48709525344

 2017-02-06 16:19:12.193486+01 | 1486394352.19349 | B/589DD628               |           48731379240

 2017-02-06 16:19:13.271234+01 | 1486394353.27123 | B/59D3EFD0               |           48751701968

 2017-02-06 16:19:14.351603+01 | 1486394354.3516 | B/5B045878               |           48771651704

 2017-02-06 16:19:15.429147+01 | 1486394355.42915 | B/5C254D58               |           48790588760

 2017-02-06 16:19:16.521069+01 | 1486394356.52107 | B/5D4897D0               |           48809678800

 2017-02-06 16:19:17.608088+01 | 1486394357.60809 | B/5E5518E0               |           48827275488

 2017-02-06 16:19:18.695511+01 | 1486394358.69551 | B/5F56B490               |           48844158096

 2017-02-06 16:19:19.791952+01 | 1486394359.79195 | B/604B8F60               |           48860204896

 2017-02-06 16:19:20.882559+01 | 1486394360.88256 | B/613B3EF8               |           48875912952

 2017-02-06 16:19:21.971017+01 | 1486394361.97102 | B/6221CE10               |           48891022864

 2017-02-06 16:19:23.061723+01 | 1486394363.06172 | B/6318FA10               |           48907221520

 2017-02-06 16:19:24.146386+01 | 1486394364.14639 | B/64004AD0               |           48922381008

 2017-02-06 16:19:25.224266+01 | 1486394365.22427 | B/64D66468               |           48936412264

 2017-02-06 16:19:26.304908+01 | 1486394366.30491 | B/65D2E408               |           48952960008

 2017-02-06 16:19:27.376098+01 | 1486394367.3761 | B/66C228F0               |           48968640752

 2017-02-06 16:19:28.462962+01 | 1486394368.46296 | B/67A36F40               |           48983404352

 2017-02-06 16:19:29.547804+01 | 1486394369.5478 | B/68838ED0               |           48998092496

 2017-02-06 16:19:30.63685+01 | 1486394370.63685 | B/6961B110               |           49012650256

 2017-02-06 16:19:31.723204+01 | 1486394371.7232 | B/6A429038               |           49027387448

 2017-02-06 16:19:32.813634+01 | 1486394372.81363 | B/6B1CCB20               |           49041689376

 2017-02-06 16:19:33.897619+01 | 1486394373.89762 | B/6BF34550               |           49055745360

 2017-02-06 16:19:34.979441+01 | 1486394374.97944 | B/6CF1E150               |           49072431440

 2017-02-06 16:19:36.06302+01 | 1486394376.06302 | B/6E0B6C38               |           49090882616

 2017-02-06 16:19:37.149514+01 | 1486394377.14951 | B/6F639878               |           49113438328

 2017-02-06 16:19:38.238104+01 | 1486394378.2381 | B/7044DCA0               |           49128201376

 2017-02-06 16:19:39.313348+01 | 1486394379.31335 | B/714A1500               |           49145320704

 2017-02-06 16:19:40.383061+01 | 1486394380.38306 | B/7214A3B8               |           49158595512

 2017-02-06 16:19:41.463793+01 | 1486394381.46379 | B/72DE04F8               |           49171793144

 2017-02-06 16:19:42.549037+01 | 1486394382.54904 | B/73A21A80               |           49184643712

 2017-02-06 16:19:43.640921+01 | 1486394383.64092 | B/74707098               |           49198166168

 2017-02-06 16:19:44.727533+01 | 1486394384.72753 | B/753CDE80               |           49211563648

 2017-02-06 16:19:45.821127+01 | 1486394385.82113 | B/76046FE0               |           49224642528

 2017-02-06 16:19:46.909506+01 | 1486394386.90951 | B/76CC44B8               |           49237738680

 2017-02-06 16:19:48.003483+01 | 1486394388.00348 | B/7799EAA0               |           49251216032

 2017-02-06 16:19:49.086185+01 | 1486394389.08618 | B/785C17D0               |           49263941584

 2017-02-06 16:19:50.179175+01 | 1486394390.17917 | B/79246250               |           49277067856

 2017-02-06 16:19:51.25617+01 | 1486394391.25617 | B/79E1FB90               |           49289493392

 2017-02-06 16:19:52.339946+01 | 1486394392.33995 | B/7AA60B40               |           49302342464

 2017-02-06 16:19:53.420931+01 | 1486394393.42093 | B/7B68F690               |           49315116688

 2017-02-06 16:19:54.50672+01 | 1486394394.50672 | B/7C2F2E20               |           49328107040

 2017-02-06 16:19:55.594296+01 | 1486394395.5943 | B/7CF58A68               |           49341106792

 2017-02-06 16:19:56.67872+01 | 1486394396.67872 | B/7DB88080               |           49353883776

 2017-02-06 16:19:57.764493+01 | 1486394397.76449 | B/7E7BF620               |           49366693408

 2017-02-06 16:19:58.855239+01 | 1486394398.85524 | B/7F3F5E08               |           49379499528

 2017-02-06 16:19:59.947722+01 | 1486394399.94772 | B/80069F68               |           49392557928

 2017-02-06 16:20:01.038665+01 | 1486394401.03867 | B/80C2B000               |           49404882944

 2017-02-06 16:20:02.126601+01 | 1486394402.1266 | B/81883310               |           49417827088

 2017-02-06 16:20:03.216031+01 | 1486394403.21603 | B/8246E878               |           49430325368

 2017-02-06 16:20:04.297143+01 | 1486394404.29714 | B/830D1C90               |           49443314832

 2017-02-06 16:20:05.375916+01 | 1486394405.37592 | B/83C47488               |           49455330440

 2017-02-06 16:20:06.459822+01 | 1486394406.45982 | B/84803D50               |           49467637072

 2017-02-06 16:20:07.558791+01 | 1486394407.55879 | B/853BB348               |           49479922504

 2017-02-06 16:20:08.653673+01 | 1486394408.65367 | B/85F9D588               |           49492383112

 2017-02-06 16:20:09.742905+01 | 1486394409.7429 | B/86B58580               |           49504683392

 2017-02-06 16:20:10.827591+01 | 1486394410.82759 | B/87713F08               |           49516986120

 2017-02-06 16:20:11.917771+01 | 1486394411.91777 | B/882BB2A8               |           49529205416

 2017-02-06 16:20:13.007034+01 | 1486394413.00703 | B/88ED33F8               |           49541886968

 2017-02-06 16:20:14.092285+01 | 1486394414.09228 | B/89B1B130               |           49554764080

 2017-02-06 16:20:15.18043+01 | 1486394415.18043 | B/8A709E68               |           49567276648

 2017-02-06 16:20:16.265626+01 | 1486394416.26563 | B/8B2D5C20               |           49579645984

 2017-02-06 16:20:17.356519+01 | 1486394417.35652 | B/8BE70CC8               |           49591815368

 2017-02-06 16:20:18.432419+01 | 1486394418.43242 | B/8CAC4C08               |           49604742152

 2017-02-06 16:20:19.513138+01 | 1486394419.51314 | B/8D6E9E58               |           49617477208

 2017-02-06 16:20:20.601561+01 | 1486394420.60156 | B/8E2EA780               |           49630062464

 2017-02-06 16:20:21.689931+01 | 1486394421.68993 | B/8EE03910               |           49641699600

 2017-02-06 16:20:22.787249+01 | 1486394422.78725 | B/8FA3DA98               |           49654520472

 2017-02-06 16:20:23.87587+01 | 1486394423.87587 | B/90683620               |           49667388960

 2017-02-06 16:20:24.968204+01 | 1486394424.9682 | B/912B1E40               |           49680162368

 2017-02-06 16:20:26.055621+01 | 1486394426.05562 | B/91F39B88               |           49693301640

 2017-02-06 16:20:27.14318+01 | 1486394427.14318 | B/92B17430               |           49705743408

 2017-02-06 16:20:28.230726+01 | 1486394428.23073 | B/9374E2E0               |           49718551264

 2017-02-06 16:20:29.313933+01 | 1486394429.31393 | B/943B8418               |           49731568664

 2017-02-06 16:20:30.395327+01 | 1486394430.39533 | B/94FF4068               |           49744396392

 2017-02-06 16:20:31.463639+01 | 1486394431.46364 | B/95D81EA0               |           49758609056

 2017-02-06 16:20:32.54653+01 | 1486394432.54653 | B/96B191B0               |           49772859824

 2017-02-06 16:20:33.635489+01 | 1486394433.63549 | B/97829AB0               |           49786559152

 2017-02-06 16:20:34.727499+01 | 1486394434.7275 | B/9852A3A0               |           49800192928

 2017-02-06 16:20:35.823736+01 | 1486394435.82374 | B/99286F98               |           49814204312

 2017-02-06 16:20:36.917339+01 | 1486394436.91734 | B/99F205B8               |           49827415480

 2017-02-06 16:20:38.008705+01 | 1486394438.0087 | B/9AB91990               |           49840462224

 2017-02-06 16:20:39.092279+01 | 1486394439.09228 | B/9B7EDF80               |           49853423488

 2017-02-06 16:20:40.173168+01 | 1486394440.17317 | B/9C44EC08               |           49866402824

 2017-02-06 16:20:41.25922+01 | 1486394441.25922 | B/9D0D0AF0               |           49879517936

 2017-02-06 16:20:42.344069+01 | 1486394442.34407 | B/9DE76200               |           49893827072

 2017-02-06 16:20:43.428169+01 | 1486394443.42817 | B/9EC7F1A8               |           49908543912

 2017-02-06 16:20:44.508622+01 | 1486394444.50862 | B/9F9DD4C8               |           49922561224

 2017-02-06 16:20:45.606946+01 | 1486394445.60695 | B/A057F700               |           49934759680

 2017-02-06 16:20:46.699199+01 | 1486394446.6992 | B/A11EF758               |           49947801432

 2017-02-06 16:20:47.785527+01 | 1486394447.78553 | B/A1E622B0               |           49960854192

 2017-02-06 16:20:48.869782+01 | 1486394448.86978 | B/A2A58290               |           49973396112

 2017-02-06 16:20:49.947631+01 | 1486394449.94763 | B/A365BDB8               |           49985994168

 2017-02-06 16:20:51.046666+01 | 1486394451.04667 | B/A42A8918               |           49998891288

 2017-02-06 16:20:52.1373+01 | 1486394452.1373 | B/A4DF9AB8               |           50010757816

 2017-02-06 16:20:53.220469+01 | 1486394453.22047 | B/A5A4EF38               |           50023690040

 2017-02-06 16:20:54.301386+01 | 1486394454.30139 | B/A6688570               |           50036508016

 2017-02-06 16:20:55.381144+01 | 1486394455.38114 | B/A726BF00               |           50048974592

 2017-02-06 16:20:56.465666+01 | 1486394456.46567 | B/A7E14EB0               |           50061201072

 2017-02-06 16:20:57.55422+01 | 1486394457.55422 | B/A89FF508               |           50073695496

 2017-02-06 16:20:58.641833+01 | 1486394458.64183 | B/A94B6270               |           50084930160

 2017-02-06 16:20:59.730808+01 | 1486394459.73081 | B/AA0406E8               |           50097030888

 2017-02-06 16:21:00.821894+01 | 1486394460.82189 | B/AABFC9D0               |           50109336016

 2017-02-06 16:21:01.908178+01 | 1486394461.90818 | B/AB78EC80               |           50121469056

 2017-02-06 16:21:02.999791+01 | 1486394462.99979 | B/AC3A1080               |           50134126720

 2017-02-06 16:21:04.085794+01 | 1486394464.08579 | B/ACEF6438               |           50146010168

 2017-02-06 16:21:05.171274+01 | 1486394465.17127 | B/ADB16CC0               |           50158726336

 2017-02-06 16:21:06.253507+01 | 1486394466.25351 | B/AE710A00               |           50171283968

 2017-02-06 16:21:07.331486+01 | 1486394467.33149 | B/AF2D35D0               |           50183615952

 2017-02-06 16:21:08.412865+01 | 1486394468.41286 | B/AFEFD428               |           50196370472

 2017-02-06 16:21:09.489942+01 | 1486394469.48994 | B/B0B1B378               |           50209076088

 2017-02-06 16:21:10.568301+01 | 1486394470.5683 | B/B17398C8               |           50221783240

 2017-02-06 16:21:11.648725+01 | 1486394471.64873 | B/B22C1398               |           50233873304

 2017-02-06 16:21:12.742611+01 | 1486394472.74261 | B/B2E58090               |           50246025360

 2017-02-06 16:21:13.830131+01 | 1486394473.83013 | B/B3AAFE70               |           50258968176

 2017-02-06 16:21:14.912957+01 | 1486394474.91296 | B/B465C060               |           50271207520

 2017-02-06 16:21:16.006258+01 | 1486394476.00626 | B/B52224C8               |           50283553992

 2017-02-06 16:21:17.097551+01 | 1486394477.09755 | B/B5D3D2C8               |           50295198408

 2017-02-06 16:21:18.18482+01 | 1486394478.18482 | B/B67D0EA0               |           50306289312

 2017-02-06 16:21:19.266563+01 | 1486394479.26656 | B/B728EFE8               |           50317553640

 2017-02-06 16:21:20.354078+01 | 1486394480.35408 | B/B7CCA420               |           50328282144

 2017-02-06 16:21:21.43459+01 | 1486394481.43459 | B/B871C848               |           50339104840

 2017-02-06 16:21:22.514591+01 | 1486394482.51459 | B/B912B5D0               |           50349651408

 2017-02-06 16:21:23.596345+01 | 1486394483.59634 | B/B9B4D7B8               |           50360276920

 2017-02-06 16:21:24.675123+01 | 1486394484.67512 | B/BA5556D8               |           50370795224

 2017-02-06 16:21:25.773086+01 | 1486394485.77309 | B/BB09DB70               |           50382625648

 2017-02-06 16:21:26.841693+01 | 1486394486.84169 | B/BBCD8FE8               |           50395451368

 2017-02-06 16:21:27.933754+01 | 1486394487.93375 | B/BC9493F0               |           50408494064

 2017-02-06 16:21:29.027624+01 | 1486394489.02762 | B/BD5B7568               |           50421527912

 2017-02-06 16:21:30.110978+01 | 1486394490.11098 | B/BE137D90               |           50433588624

 2017-02-06 16:21:31.192865+01 | 1486394491.19286 | B/BEDCC860               |           50446780512

 2017-02-06 16:21:32.279762+01 | 1486394492.27976 | B/BF9CF420               |           50459374624

 2017-02-06 16:21:33.370685+01 | 1486394493.37069 | B/C05C1B08               |           50471901960

 2017-02-06 16:21:34.45602+01 | 1486394494.45602 | B/C1204620               |           50484758048

 2017-02-06 16:21:35.537314+01 | 1486394495.53731 | B/C1D4D2F8               |           50496590584

 2017-02-06 16:21:36.622013+01 | 1486394496.62201 | B/C2956670               |           50509211248

 2017-02-06 16:21:37.708299+01 | 1486394497.7083 | B/C35D4968               |           50522311016

 2017-02-06 16:21:38.796497+01 | 1486394498.7965 | B/C424A758               |           50535376728

 2017-02-06 16:21:39.888347+01 | 1486394499.88835 | B/C4F534D0               |           50549044432

 2017-02-06 16:21:40.979977+01 | 1486394500.97998 | B/C5B056E8               |           50561308392

 2017-02-06 16:21:42.071634+01 | 1486394502.07163 | B/C66E5D78               |           50573761912

 2017-02-06 16:21:43.156422+01 | 1486394503.15642 | B/C7286E50               |           50585955920

 2017-02-06 16:21:44.244959+01 | 1486394504.24496 | B/C7E699E0               |           50598418912

 2017-02-06 16:21:45.340348+01 | 1486394505.34035 | B/C89E1180               |           50610442624

 2017-02-06 16:21:46.420221+01 | 1486394506.42022 | B/C961D170               |           50623271280

 2017-02-06 16:21:47.495729+01 | 1486394507.49573 | B/CA14BBC8               |           50634996680

 2017-02-06 16:21:48.571614+01 | 1486394508.57161 | B/CAD6DB30               |           50647718704

 2017-02-06 16:21:49.654563+01 | 1486394509.65456 | B/CB93B0E0               |           50660094176

 2017-02-06 16:21:50.736333+01 | 1486394510.73633 | B/CC5017B8               |           50672441272

 2017-02-06 16:21:51.820446+01 | 1486394511.82045 | B/CD0B6268               |           50684715624

 2017-02-06 16:21:52.911919+01 | 1486394512.91192 | B/CDC79468               |           50697049192

 2017-02-06 16:21:53.995328+01 | 1486394513.99533 | B/CE71EB68               |           50708212584

 2017-02-06 16:21:55.07537+01 | 1486394515.07537 | B/CF2CFA18               |           50720471576

 2017-02-06 16:21:56.166646+01 | 1486394516.16665 | B/CFF316C8               |           50733455048

 2017-02-06 16:21:57.254772+01 | 1486394517.25477 | B/D0A6EC08               |           50745240584

 2017-02-06 16:21:58.337729+01 | 1486394518.33773 | B/D166D718               |           50757818136

 2017-02-06 16:21:59.415829+01 | 1486394519.41583 | B/D21C6198               |           50769715608

 2017-02-06 16:22:00.507822+01 | 1486394520.50782 | B/D2DD5138               |           50782359864

 2017-02-06 16:22:01.590122+01 | 1486394521.59012 | B/D39550F8               |           50794418424

 2017-02-06 16:22:02.670143+01 | 1486394522.67014 | B/D44E0F20               |           50806525728

 2017-02-06 16:22:03.756949+01 | 1486394523.75695 | B/D4FD6710               |           50818017040

 2017-02-06 16:22:04.854435+01 | 1486394524.85443 | B/D5BFD3F0               |           50830758896

 2017-02-06 16:22:05.951807+01 | 1486394525.95181 | B/D682DDC0               |           50843540928

 2017-02-06 16:22:07.044328+01 | 1486394527.04433 | B/D74E7FF0               |           50856886256

 2017-02-06 16:22:08.134015+01 | 1486394528.13402 | B/D8062AA0               |           50868923040

 2017-02-06 16:22:09.222994+01 | 1486394529.22299 | B/D8C06A50               |           50881129040

 2017-02-06 16:22:10.309622+01 | 1486394530.30962 | B/D97E9770               |           50893592432

 2017-02-06 16:22:11.394141+01 | 1486394531.39414 | B/DA3D8C98               |           50906107032

 2017-02-06 16:22:12.471209+01 | 1486394532.47121 | B/DAF53960               |           50918144352

 2017-02-06 16:22:13.56027+01 | 1486394533.56027 | B/DBADF4C0               |           50930250944

 2017-02-06 16:22:14.641574+01 | 1486394534.64157 | B/DC630838               |           50942117944

 2017-02-06 16:22:15.728826+01 | 1486394535.72883 | B/DD1B9928               |           50954213672

 2017-02-06 16:22:16.815334+01 | 1486394536.81533 | B/DDD49B00               |           50966338304

 2017-02-06 16:22:17.90504+01 | 1486394537.90504 | B/DE876620               |           50978055712

 2017-02-06 16:22:18.99015+01 | 1486394538.99015 | B/DF424C40               |           50990304320

 2017-02-06 16:22:20.082391+01 | 1486394540.08239 | B/E0051488               |           51003069576

 2017-02-06 16:22:21.171385+01 | 1486394541.17139 | B/E0CA2F30               |           51015986992

 2017-02-06 16:22:22.273573+01 | 1486394542.27357 | B/E182FA88               |           51028097672

 2017-02-06 16:22:23.362011+01 | 1486394543.36201 | B/E243AE30               |           51040726576

 2017-02-06 16:22:24.437936+01 | 1486394544.43794 | B/E2FDF460               |           51052934240

 2017-02-06 16:22:25.518666+01 | 1486394545.51867 | B/E3BD59E0               |           51065477600

 2017-02-06 16:22:26.588036+01 | 1486394546.58804 | B/E4891258               |           51078828632

 2017-02-06 16:22:27.66851+01 | 1486394547.66851 | B/E5563790               |           51092273040

 2017-02-06 16:22:28.751138+01 | 1486394548.75114 | B/E61F2EE0               |           51105443552

 2017-02-06 16:22:29.838182+01 | 1486394549.83818 | B/E6E28378               |           51118244728

 2017-02-06 16:22:30.934558+01 | 1486394550.93456 | B/E7A918C8               |           51131259080

 2017-02-06 16:22:32.017525+01 | 1486394552.01752 | B/E86C7B20               |           51144063776

 2017-02-06 16:22:33.10553+01 | 1486394553.10553 | B/E927FD88               |           51156352392

 2017-02-06 16:22:34.193115+01 | 1486394554.19311 | B/E9E4E520               |           51168732448

 2017-02-06 16:22:35.274265+01 | 1486394555.27427 | B/EAA13710               |           51181074192

 2017-02-06 16:22:36.36432+01 | 1486394556.36432 | B/EB6457A0               |           51193862048

 2017-02-06 16:22:37.443592+01 | 1486394557.44359 | B/EC2E8808               |           51207112712

 2017-02-06 16:22:38.520111+01 | 1486394558.52011 | B/ECF0CEF8               |           51219844856

 2017-02-06 16:22:39.608879+01 | 1486394559.60888 | B/EDA6EFE0               |           51231780832

 2017-02-06 16:22:40.691118+01 | 1486394560.69112 | B/EE5BB5E0               |           51243628000

 2017-02-06 16:22:41.764194+01 | 1486394561.76419 | B/EF0D1470               |           51255252080

 2017-02-06 16:22:42.846604+01 | 1486394562.8466 | B/EFC281E8               |           51267142120

 2017-02-06 16:22:43.930294+01 | 1486394563.93029 | B/F07E18D8               |           51279435992

 2017-02-06 16:22:45.017001+01 | 1486394565.017 | B/F13401C0               |           51291357632

 2017-02-06 16:22:46.107426+01 | 1486394566.10743 | B/F1EDCFF0               |           51303534576

 2017-02-06 16:22:47.19316+01 | 1486394567.19316 | B/F29DA918               |           51315058968

 2017-02-06 16:22:48.286251+01 | 1486394568.28625 | B/F355CA58               |           51327126104

 2017-02-06 16:22:49.377476+01 | 1486394569.37748 | B/F40D2D58               |           51339144536

 2017-02-06 16:22:50.457943+01 | 1486394570.45794 | B/F4C161C0               |           51350954432

 2017-02-06 16:22:51.541088+01 | 1486394571.54109 | B/F57833E0               |           51362935776

 2017-02-06 16:22:52.622734+01 | 1486394572.62273 | B/F62F4E20               |           51374935584

 2017-02-06 16:22:53.706736+01 | 1486394573.70674 | B/F6E8D428               |           51387094056

 2017-02-06 16:22:54.786705+01 | 1486394574.78671 | B/F7989C70               |           51398614128

 2017-02-06 16:22:55.871009+01 | 1486394575.87101 | B/F848E748               |           51410167624

 2017-02-06 16:22:56.97189+01 | 1486394576.97189 | B/F9021728               |           51422304040

 2017-02-06 16:22:58.066995+01 | 1486394578.06699 | B/F9AFF730               |           51433699120

 2017-02-06 16:22:59.167337+01 | 1486394579.16734 | B/FA6133C8               |           51445314504

 2017-02-06 16:23:00.261507+01 | 1486394580.26151 | B/FB182A58               |           51457305176

 2017-02-06 16:23:01.353665+01 | 1486394581.35367 | B/FBD1BD00               |           51469466880

 2017-02-06 16:23:02.44042+01 | 1486394582.44042 | B/FC86E3E8               |           51481338856

 2017-02-06 16:23:03.523339+01 | 1486394583.52334 | B/FD3CBA68               |           51493255784

 2017-02-06 16:23:04.607674+01 | 1486394584.60767 | B/FDEFE030               |           51504996400

 2017-02-06 16:23:05.695102+01 | 1486394585.6951 | B/FEA71100               |           51517001984

 2017-02-06 16:23:06.775174+01 | 1486394586.77517 | B/FF54D420               |           51528389664

 2017-02-06 16:23:07.849456+01 | 1486394587.84946 | C/70060                  |           51540066400

 2017-02-06 16:23:08.928803+01 | 1486394588.9288 | C/BF5C20                 |           51552148512

 2017-02-06 16:23:10.020925+01 | 1486394590.02093 | C/17E8518                |           51564676376

 2017-02-06 16:23:11.108859+01 | 1486394591.10886 | C/238F0B0                |           51576893616

 2017-02-06 16:23:12.195799+01 | 1486394592.1958 | C/2F728C8                |           51589359816

 2017-02-06 16:23:13.284489+01 | 1486394593.28449 | C/3A6CE40                |           51600870976

 2017-02-06 16:23:14.384002+01 | 1486394594.384 | C/460CE88                |           51613060744

 2017-02-06 16:23:15.472632+01 | 1486394595.47263 | C/50F8D18                |           51624512792

 2017-02-06 16:23:16.55115+01 | 1486394596.55115 | C/5BD6548                |           51635905864

 2017-02-06 16:23:17.628503+01 | 1486394597.6285 | C/66B0BE8                |           51647286248

 2017-02-06 16:23:18.711167+01 | 1486394598.71117 | C/71FE210                |           51659137552

 2017-02-06 16:23:19.797101+01 | 1486394599.7971 | C/7D20450                |           51670811728

 2017-02-06 16:23:20.877143+01 | 1486394600.87714 | C/87B7138                |           51681915192

 2017-02-06 16:23:21.966574+01 | 1486394601.96657 | C/9372740                |           51694217024

 2017-02-06 16:23:23.060051+01 | 1486394603.06005 | C/9EB3A80                |           51706018432

 2017-02-06 16:23:24.145615+01 | 1486394604.14562 | C/A9FDE78                |           51717856888

 2017-02-06 16:23:25.239044+01 | 1486394605.23904 | C/B53E1C8                |           51729654216

 2017-02-06 16:23:26.311442+01 | 1486394606.31144 | C/C18FC30                |           51742571568

 2017-02-06 16:23:27.395091+01 | 1486394607.39509 | C/CE7FDD0                |           51756137936

 2017-02-06 16:23:28.478305+01 | 1486394608.47831 | C/DADEDC8                |           51769109960

 2017-02-06 16:23:29.558456+01 | 1486394609.55846 | C/E6963D0                |           51781395408

 2017-02-06 16:23:30.642105+01 | 1486394610.64211 | C/F298EB0                |           51793989296

 2017-02-06 16:23:31.723948+01 | 1486394611.72395 | C/FE71BB8                |           51806411704

 2017-02-06 16:23:32.809326+01 | 1486394612.80933 | C/109C8730               |           51818301232

 2017-02-06 16:23:33.897142+01 | 1486394613.89714 | C/115B16C0               |           51830789824

 2017-02-06 16:23:34.987166+01 | 1486394614.98717 | C/120B0DF8               |           51842321912

 2017-02-06 16:23:36.076013+01 | 1486394616.07601 | C/12C089E8               |           51854215656

 2017-02-06 16:23:37.173451+01 | 1486394617.17345 | C/13881310               |           51867292432

 2017-02-06 16:23:38.266816+01 | 1486394618.26682 | C/144A0D08               |           51880004872

 2017-02-06 16:23:39.3544+01 | 1486394619.3544 | C/14FFA1B8               |           51891904952

 2017-02-06 16:23:40.449365+01 | 1486394620.44936 | C/15B504E8               |           51903792360

 2017-02-06 16:23:41.526617+01 | 1486394621.52662 | C/166C2128               |           51915792680

 2017-02-06 16:23:42.613379+01 | 1486394622.61338 | C/1722FB68               |           51927776104

 2017-02-06 16:23:43.691335+01 | 1486394623.69133 | C/17CF06F8               |           51939051256

 2017-02-06 16:23:44.76919+01 | 1486394624.76919 | C/1886E278               |           51951100536

 2017-02-06 16:23:45.848983+01 | 1486394625.84898 | C/19402160               |           51963240800

 2017-02-06 16:23:46.930751+01 | 1486394626.93075 | C/19F564B0               |           51975120048

 2017-02-06 16:23:48.026335+01 | 1486394628.02634 | C/1AABE078               |           51987079288

