 2017-02-06 19:54:50.750263+01 | 1486407290.75026 | pgbench_branches_pkey |          1327104
 2017-02-06 19:54:50.750263+01 | 1486407290.75026 | pgbench_tellers_pkey  |          4694016
 2017-02-06 19:54:50.750263+01 | 1486407290.75026 | pgbench_accounts_pkey |       2246197248

 2017-02-06 19:54:51.836002+01 | 1486407291.836 | pgbench_branches_pkey |          1327104
 2017-02-06 19:54:51.836002+01 | 1486407291.836 | pgbench_tellers_pkey  |          4694016
 2017-02-06 19:54:51.836002+01 | 1486407291.836 | pgbench_accounts_pkey |       2246197248

 2017-02-06 19:54:52.912719+01 | 1486407292.91272 | pgbench_branches_pkey |          1327104
 2017-02-06 19:54:52.912719+01 | 1486407292.91272 | pgbench_tellers_pkey  |          4694016
 2017-02-06 19:54:52.912719+01 | 1486407292.91272 | pgbench_accounts_pkey |       2246197248

 2017-02-06 19:54:53.999817+01 | 1486407293.99982 | pgbench_branches_pkey |          1327104
 2017-02-06 19:54:53.999817+01 | 1486407293.99982 | pgbench_tellers_pkey  |          4694016
 2017-02-06 19:54:53.999817+01 | 1486407293.99982 | pgbench_accounts_pkey |       2246197248

 2017-02-06 19:54:55.074211+01 | 1486407295.07421 | pgbench_branches_pkey |          1327104
 2017-02-06 19:54:55.074211+01 | 1486407295.07421 | pgbench_tellers_pkey  |          4694016
 2017-02-06 19:54:55.074211+01 | 1486407295.07421 | pgbench_accounts_pkey |       2246197248

 2017-02-06 19:54:56.142298+01 | 1486407296.1423 | pgbench_branches_pkey |          1327104
 2017-02-06 19:54:56.142298+01 | 1486407296.1423 | pgbench_tellers_pkey  |          4694016
 2017-02-06 19:54:56.142298+01 | 1486407296.1423 | pgbench_accounts_pkey |       2246197248

 2017-02-06 19:54:57.220096+01 | 1486407297.2201 | pgbench_branches_pkey |          1327104
 2017-02-06 19:54:57.220096+01 | 1486407297.2201 | pgbench_tellers_pkey  |          4694016
 2017-02-06 19:54:57.220096+01 | 1486407297.2201 | pgbench_accounts_pkey |       2246197248

 2017-02-06 19:54:58.292383+01 | 1486407298.29238 | pgbench_branches_pkey |          1327104
 2017-02-06 19:54:58.292383+01 | 1486407298.29238 | pgbench_tellers_pkey  |          4694016
 2017-02-06 19:54:58.292383+01 | 1486407298.29238 | pgbench_accounts_pkey |       2246197248

 2017-02-06 19:54:59.366315+01 | 1486407299.36631 | pgbench_branches_pkey |          1327104
 2017-02-06 19:54:59.366315+01 | 1486407299.36631 | pgbench_tellers_pkey  |          4694016
 2017-02-06 19:54:59.366315+01 | 1486407299.36631 | pgbench_accounts_pkey |       2246197248

 2017-02-06 19:55:00.433835+01 | 1486407300.43384 | pgbench_branches_pkey |          1327104
 2017-02-06 19:55:00.433835+01 | 1486407300.43384 | pgbench_tellers_pkey  |          4694016
 2017-02-06 19:55:00.433835+01 | 1486407300.43384 | pgbench_accounts_pkey |       2246197248

 2017-02-06 19:55:01.505096+01 | 1486407301.5051 | pgbench_branches_pkey |          1327104
 2017-02-06 19:55:01.505096+01 | 1486407301.5051 | pgbench_tellers_pkey  |          4694016
 2017-02-06 19:55:01.505096+01 | 1486407301.5051 | pgbench_accounts_pkey |       2246197248

 2017-02-06 19:55:02.580321+01 | 1486407302.58032 | pgbench_branches_pkey |          1327104
 2017-02-06 19:55:02.580321+01 | 1486407302.58032 | pgbench_tellers_pkey  |          4694016
 2017-02-06 19:55:02.580321+01 | 1486407302.58032 | pgbench_accounts_pkey |       2246197248

 2017-02-06 19:55:03.663775+01 | 1486407303.66377 | pgbench_branches_pkey |          1327104
 2017-02-06 19:55:03.663775+01 | 1486407303.66377 | pgbench_tellers_pkey  |          4694016
 2017-02-06 19:55:03.663775+01 | 1486407303.66377 | pgbench_accounts_pkey |       2246197248

 2017-02-06 19:55:04.764093+01 | 1486407304.76409 | pgbench_branches_pkey |          1327104
 2017-02-06 19:55:04.764093+01 | 1486407304.76409 | pgbench_tellers_pkey  |          4694016
 2017-02-06 19:55:04.764093+01 | 1486407304.76409 | pgbench_accounts_pkey |       2246197248

 2017-02-06 19:55:05.842837+01 | 1486407305.84284 | pgbench_branches_pkey |          1327104
 2017-02-06 19:55:05.842837+01 | 1486407305.84284 | pgbench_tellers_pkey  |          4694016
 2017-02-06 19:55:05.842837+01 | 1486407305.84284 | pgbench_accounts_pkey |       2246197248

 2017-02-06 19:55:06.91807+01 | 1486407306.91807 | pgbench_branches_pkey |          1327104
 2017-02-06 19:55:06.91807+01 | 1486407306.91807 | pgbench_tellers_pkey  |          4694016
 2017-02-06 19:55:06.91807+01 | 1486407306.91807 | pgbench_accounts_pkey |       2246197248

 2017-02-06 19:55:08.007733+01 | 1486407308.00773 | pgbench_branches_pkey |          1327104
 2017-02-06 19:55:08.007733+01 | 1486407308.00773 | pgbench_tellers_pkey  |          4694016
 2017-02-06 19:55:08.007733+01 | 1486407308.00773 | pgbench_accounts_pkey |       2246197248

 2017-02-06 19:55:09.084012+01 | 1486407309.08401 | pgbench_branches_pkey |          1327104
 2017-02-06 19:55:09.084012+01 | 1486407309.08401 | pgbench_tellers_pkey  |          4694016
 2017-02-06 19:55:09.084012+01 | 1486407309.08401 | pgbench_accounts_pkey |       2246197248

 2017-02-06 19:55:10.157429+01 | 1486407310.15743 | pgbench_branches_pkey |          1327104
 2017-02-06 19:55:10.157429+01 | 1486407310.15743 | pgbench_tellers_pkey  |          4694016
 2017-02-06 19:55:10.157429+01 | 1486407310.15743 | pgbench_accounts_pkey |       2246197248

 2017-02-06 19:55:11.226924+01 | 1486407311.22692 | pgbench_branches_pkey |          1327104
 2017-02-06 19:55:11.226924+01 | 1486407311.22692 | pgbench_tellers_pkey  |          4694016
 2017-02-06 19:55:11.226924+01 | 1486407311.22692 | pgbench_accounts_pkey |       2246197248

 2017-02-06 19:55:12.31045+01 | 1486407312.31045 | pgbench_branches_pkey |          1327104
 2017-02-06 19:55:12.31045+01 | 1486407312.31045 | pgbench_tellers_pkey  |          4694016
 2017-02-06 19:55:12.31045+01 | 1486407312.31045 | pgbench_accounts_pkey |       2246197248

 2017-02-06 19:55:13.388044+01 | 1486407313.38804 | pgbench_branches_pkey |          1327104
 2017-02-06 19:55:13.388044+01 | 1486407313.38804 | pgbench_tellers_pkey  |          4694016
 2017-02-06 19:55:13.388044+01 | 1486407313.38804 | pgbench_accounts_pkey |       2246197248

 2017-02-06 19:55:14.464064+01 | 1486407314.46406 | pgbench_branches_pkey |          1327104
 2017-02-06 19:55:14.464064+01 | 1486407314.46406 | pgbench_tellers_pkey  |          4694016
 2017-02-06 19:55:14.464064+01 | 1486407314.46406 | pgbench_accounts_pkey |       2246197248

 2017-02-06 19:55:15.542698+01 | 1486407315.5427 | pgbench_branches_pkey |          1327104
 2017-02-06 19:55:15.542698+01 | 1486407315.5427 | pgbench_tellers_pkey  |          4694016
 2017-02-06 19:55:15.542698+01 | 1486407315.5427 | pgbench_accounts_pkey |       2246197248

 2017-02-06 19:55:16.618359+01 | 1486407316.61836 | pgbench_branches_pkey |          1327104
 2017-02-06 19:55:16.618359+01 | 1486407316.61836 | pgbench_tellers_pkey  |          4694016
 2017-02-06 19:55:16.618359+01 | 1486407316.61836 | pgbench_accounts_pkey |       2246197248

 2017-02-06 19:55:17.701179+01 | 1486407317.70118 | pgbench_branches_pkey |          1327104
 2017-02-06 19:55:17.701179+01 | 1486407317.70118 | pgbench_tellers_pkey  |          4694016
 2017-02-06 19:55:17.701179+01 | 1486407317.70118 | pgbench_accounts_pkey |       2246197248

 2017-02-06 19:55:18.779287+01 | 1486407318.77929 | pgbench_branches_pkey |          1327104
 2017-02-06 19:55:18.779287+01 | 1486407318.77929 | pgbench_tellers_pkey  |          4694016
 2017-02-06 19:55:18.779287+01 | 1486407318.77929 | pgbench_accounts_pkey |       2246197248

 2017-02-06 19:55:19.8619+01 | 1486407319.8619 | pgbench_branches_pkey |          1327104
 2017-02-06 19:55:19.8619+01 | 1486407319.8619 | pgbench_tellers_pkey  |          4694016
 2017-02-06 19:55:19.8619+01 | 1486407319.8619 | pgbench_accounts_pkey |       2246197248

 2017-02-06 19:55:20.945069+01 | 1486407320.94507 | pgbench_branches_pkey |          1327104
 2017-02-06 19:55:20.945069+01 | 1486407320.94507 | pgbench_tellers_pkey  |          4694016
 2017-02-06 19:55:20.945069+01 | 1486407320.94507 | pgbench_accounts_pkey |       2246197248

 2017-02-06 19:55:22.022001+01 | 1486407322.022 | pgbench_branches_pkey |          1327104
 2017-02-06 19:55:22.022001+01 | 1486407322.022 | pgbench_tellers_pkey  |          4694016
 2017-02-06 19:55:22.022001+01 | 1486407322.022 | pgbench_accounts_pkey |       2246197248

 2017-02-06 19:55:23.111194+01 | 1486407323.11119 | pgbench_branches_pkey |          1327104
 2017-02-06 19:55:23.111194+01 | 1486407323.11119 | pgbench_tellers_pkey  |          4694016
 2017-02-06 19:55:23.111194+01 | 1486407323.11119 | pgbench_accounts_pkey |       2246197248

 2017-02-06 19:55:24.191422+01 | 1486407324.19142 | pgbench_branches_pkey |          1327104
 2017-02-06 19:55:24.191422+01 | 1486407324.19142 | pgbench_tellers_pkey  |          4694016
 2017-02-06 19:55:24.191422+01 | 1486407324.19142 | pgbench_accounts_pkey |       2246197248

 2017-02-06 19:55:25.264659+01 | 1486407325.26466 | pgbench_branches_pkey |          1327104
 2017-02-06 19:55:25.264659+01 | 1486407325.26466 | pgbench_tellers_pkey  |          4694016
 2017-02-06 19:55:25.264659+01 | 1486407325.26466 | pgbench_accounts_pkey |       2246197248

 2017-02-06 19:55:26.337944+01 | 1486407326.33794 | pgbench_branches_pkey |          1327104
 2017-02-06 19:55:26.337944+01 | 1486407326.33794 | pgbench_tellers_pkey  |          4694016
 2017-02-06 19:55:26.337944+01 | 1486407326.33794 | pgbench_accounts_pkey |       2246197248

 2017-02-06 19:55:27.417813+01 | 1486407327.41781 | pgbench_branches_pkey |          1327104
 2017-02-06 19:55:27.417813+01 | 1486407327.41781 | pgbench_tellers_pkey  |          4694016
 2017-02-06 19:55:27.417813+01 | 1486407327.41781 | pgbench_accounts_pkey |       2246197248

 2017-02-06 19:55:28.496989+01 | 1486407328.49699 | pgbench_branches_pkey |          1327104
 2017-02-06 19:55:28.496989+01 | 1486407328.49699 | pgbench_tellers_pkey  |          4694016
 2017-02-06 19:55:28.496989+01 | 1486407328.49699 | pgbench_accounts_pkey |       2246197248

 2017-02-06 19:55:29.57077+01 | 1486407329.57077 | pgbench_branches_pkey |          1327104
 2017-02-06 19:55:29.57077+01 | 1486407329.57077 | pgbench_tellers_pkey  |          4694016
 2017-02-06 19:55:29.57077+01 | 1486407329.57077 | pgbench_accounts_pkey |       2246197248

 2017-02-06 19:55:30.647772+01 | 1486407330.64777 | pgbench_branches_pkey |          1327104
 2017-02-06 19:55:30.647772+01 | 1486407330.64777 | pgbench_tellers_pkey  |          4694016
 2017-02-06 19:55:30.647772+01 | 1486407330.64777 | pgbench_accounts_pkey |       2246197248

 2017-02-06 19:55:31.720011+01 | 1486407331.72001 | pgbench_branches_pkey |          1327104
 2017-02-06 19:55:31.720011+01 | 1486407331.72001 | pgbench_tellers_pkey  |          4694016
 2017-02-06 19:55:31.720011+01 | 1486407331.72001 | pgbench_accounts_pkey |       2246197248

 2017-02-06 19:55:32.800717+01 | 1486407332.80072 | pgbench_branches_pkey |          1327104
 2017-02-06 19:55:32.800717+01 | 1486407332.80072 | pgbench_tellers_pkey  |          4694016
 2017-02-06 19:55:32.800717+01 | 1486407332.80072 | pgbench_accounts_pkey |       2246197248

 2017-02-06 19:55:33.879441+01 | 1486407333.87944 | pgbench_branches_pkey |          1327104
 2017-02-06 19:55:33.879441+01 | 1486407333.87944 | pgbench_tellers_pkey  |          4694016
 2017-02-06 19:55:33.879441+01 | 1486407333.87944 | pgbench_accounts_pkey |       2246197248

 2017-02-06 19:55:34.954317+01 | 1486407334.95432 | pgbench_branches_pkey |          1327104
 2017-02-06 19:55:34.954317+01 | 1486407334.95432 | pgbench_tellers_pkey  |          4694016
 2017-02-06 19:55:34.954317+01 | 1486407334.95432 | pgbench_accounts_pkey |       2246197248

 2017-02-06 19:55:36.028169+01 | 1486407336.02817 | pgbench_branches_pkey |          1327104
 2017-02-06 19:55:36.028169+01 | 1486407336.02817 | pgbench_tellers_pkey  |          4694016
 2017-02-06 19:55:36.028169+01 | 1486407336.02817 | pgbench_accounts_pkey |       2246197248

 2017-02-06 19:55:37.104712+01 | 1486407337.10471 | pgbench_branches_pkey |          1327104
 2017-02-06 19:55:37.104712+01 | 1486407337.10471 | pgbench_tellers_pkey  |          4694016
 2017-02-06 19:55:37.104712+01 | 1486407337.10471 | pgbench_accounts_pkey |       2246197248

 2017-02-06 19:55:38.179357+01 | 1486407338.17936 | pgbench_branches_pkey |          1327104
 2017-02-06 19:55:38.179357+01 | 1486407338.17936 | pgbench_tellers_pkey  |          4694016
 2017-02-06 19:55:38.179357+01 | 1486407338.17936 | pgbench_accounts_pkey |       2246197248

 2017-02-06 19:55:39.254464+01 | 1486407339.25446 | pgbench_branches_pkey |          1327104
 2017-02-06 19:55:39.254464+01 | 1486407339.25446 | pgbench_tellers_pkey  |          4694016
 2017-02-06 19:55:39.254464+01 | 1486407339.25446 | pgbench_accounts_pkey |       2246197248

 2017-02-06 19:55:40.330626+01 | 1486407340.33063 | pgbench_branches_pkey |          1327104
 2017-02-06 19:55:40.330626+01 | 1486407340.33063 | pgbench_tellers_pkey  |          4694016
 2017-02-06 19:55:40.330626+01 | 1486407340.33063 | pgbench_accounts_pkey |       2246197248

 2017-02-06 19:55:41.409389+01 | 1486407341.40939 | pgbench_branches_pkey |          1327104
 2017-02-06 19:55:41.409389+01 | 1486407341.40939 | pgbench_tellers_pkey  |          4694016
 2017-02-06 19:55:41.409389+01 | 1486407341.40939 | pgbench_accounts_pkey |       2246197248

 2017-02-06 19:55:42.48591+01 | 1486407342.48591 | pgbench_branches_pkey |          1327104
 2017-02-06 19:55:42.48591+01 | 1486407342.48591 | pgbench_tellers_pkey  |          4694016
 2017-02-06 19:55:42.48591+01 | 1486407342.48591 | pgbench_accounts_pkey |       2246197248

 2017-02-06 19:55:43.566803+01 | 1486407343.5668 | pgbench_branches_pkey |          1327104
 2017-02-06 19:55:43.566803+01 | 1486407343.5668 | pgbench_tellers_pkey  |          4694016
 2017-02-06 19:55:43.566803+01 | 1486407343.5668 | pgbench_accounts_pkey |       2246197248

 2017-02-06 19:55:44.631128+01 | 1486407344.63113 | pgbench_branches_pkey |          1327104
 2017-02-06 19:55:44.631128+01 | 1486407344.63113 | pgbench_tellers_pkey  |          4694016
 2017-02-06 19:55:44.631128+01 | 1486407344.63113 | pgbench_accounts_pkey |       2246197248

 2017-02-06 19:55:45.731866+01 | 1486407345.73187 | pgbench_branches_pkey |          1327104
 2017-02-06 19:55:45.731866+01 | 1486407345.73187 | pgbench_tellers_pkey  |          4694016
 2017-02-06 19:55:45.731866+01 | 1486407345.73187 | pgbench_accounts_pkey |       2246197248

 2017-02-06 19:55:46.8099+01 | 1486407346.8099 | pgbench_branches_pkey |          1327104
 2017-02-06 19:55:46.8099+01 | 1486407346.8099 | pgbench_tellers_pkey  |          4694016
 2017-02-06 19:55:46.8099+01 | 1486407346.8099 | pgbench_accounts_pkey |       2246197248

 2017-02-06 19:55:47.885293+01 | 1486407347.88529 | pgbench_branches_pkey |          1327104
 2017-02-06 19:55:47.885293+01 | 1486407347.88529 | pgbench_tellers_pkey  |          4694016
 2017-02-06 19:55:47.885293+01 | 1486407347.88529 | pgbench_accounts_pkey |       2246197248

 2017-02-06 19:55:48.958105+01 | 1486407348.95811 | pgbench_branches_pkey |          1327104
 2017-02-06 19:55:48.958105+01 | 1486407348.95811 | pgbench_tellers_pkey  |          4694016
 2017-02-06 19:55:48.958105+01 | 1486407348.95811 | pgbench_accounts_pkey |       2246197248

 2017-02-06 19:55:50.038392+01 | 1486407350.03839 | pgbench_branches_pkey |          1327104
 2017-02-06 19:55:50.038392+01 | 1486407350.03839 | pgbench_tellers_pkey  |          4694016
 2017-02-06 19:55:50.038392+01 | 1486407350.03839 | pgbench_accounts_pkey |       2246197248

 2017-02-06 19:55:51.113803+01 | 1486407351.1138 | pgbench_branches_pkey |          1327104
 2017-02-06 19:55:51.113803+01 | 1486407351.1138 | pgbench_tellers_pkey  |          4694016
 2017-02-06 19:55:51.113803+01 | 1486407351.1138 | pgbench_accounts_pkey |       2246197248

 2017-02-06 19:55:52.193909+01 | 1486407352.19391 | pgbench_branches_pkey |          1327104
 2017-02-06 19:55:52.193909+01 | 1486407352.19391 | pgbench_tellers_pkey  |          4694016
 2017-02-06 19:55:52.193909+01 | 1486407352.19391 | pgbench_accounts_pkey |       2246197248

 2017-02-06 19:55:53.278464+01 | 1486407353.27846 | pgbench_branches_pkey |          1327104
 2017-02-06 19:55:53.278464+01 | 1486407353.27846 | pgbench_tellers_pkey  |          4694016
 2017-02-06 19:55:53.278464+01 | 1486407353.27846 | pgbench_accounts_pkey |       2246197248

 2017-02-06 19:55:54.355614+01 | 1486407354.35561 | pgbench_branches_pkey |          1327104
 2017-02-06 19:55:54.355614+01 | 1486407354.35561 | pgbench_tellers_pkey  |          4694016
 2017-02-06 19:55:54.355614+01 | 1486407354.35561 | pgbench_accounts_pkey |       2246197248

 2017-02-06 19:55:55.428659+01 | 1486407355.42866 | pgbench_branches_pkey |          1327104
 2017-02-06 19:55:55.428659+01 | 1486407355.42866 | pgbench_tellers_pkey  |          4694016
 2017-02-06 19:55:55.428659+01 | 1486407355.42866 | pgbench_accounts_pkey |       2246197248

 2017-02-06 19:55:56.509517+01 | 1486407356.50952 | pgbench_branches_pkey |          1327104
 2017-02-06 19:55:56.509517+01 | 1486407356.50952 | pgbench_tellers_pkey  |          4694016
 2017-02-06 19:55:56.509517+01 | 1486407356.50952 | pgbench_accounts_pkey |       2246197248

 2017-02-06 19:55:57.585545+01 | 1486407357.58555 | pgbench_branches_pkey |          1327104
 2017-02-06 19:55:57.585545+01 | 1486407357.58555 | pgbench_tellers_pkey  |          4694016
 2017-02-06 19:55:57.585545+01 | 1486407357.58555 | pgbench_accounts_pkey |       2246197248

 2017-02-06 19:55:58.669939+01 | 1486407358.66994 | pgbench_branches_pkey |          1327104
 2017-02-06 19:55:58.669939+01 | 1486407358.66994 | pgbench_tellers_pkey  |          4694016
 2017-02-06 19:55:58.669939+01 | 1486407358.66994 | pgbench_accounts_pkey |       2246197248

 2017-02-06 19:55:59.748463+01 | 1486407359.74846 | pgbench_branches_pkey |          1327104
 2017-02-06 19:55:59.748463+01 | 1486407359.74846 | pgbench_tellers_pkey  |          4694016
 2017-02-06 19:55:59.748463+01 | 1486407359.74846 | pgbench_accounts_pkey |       2246197248

 2017-02-06 19:56:00.828765+01 | 1486407360.82876 | pgbench_branches_pkey |          1327104
 2017-02-06 19:56:00.828765+01 | 1486407360.82876 | pgbench_tellers_pkey  |          4694016
 2017-02-06 19:56:00.828765+01 | 1486407360.82876 | pgbench_accounts_pkey |       2246197248

 2017-02-06 19:56:01.911566+01 | 1486407361.91157 | pgbench_branches_pkey |          1327104
 2017-02-06 19:56:01.911566+01 | 1486407361.91157 | pgbench_tellers_pkey  |          4694016
 2017-02-06 19:56:01.911566+01 | 1486407361.91157 | pgbench_accounts_pkey |       2246197248

 2017-02-06 19:56:02.98709+01 | 1486407362.98709 | pgbench_branches_pkey |          1327104
 2017-02-06 19:56:02.98709+01 | 1486407362.98709 | pgbench_tellers_pkey  |          4694016
 2017-02-06 19:56:02.98709+01 | 1486407362.98709 | pgbench_accounts_pkey |       2246197248

 2017-02-06 19:56:04.058906+01 | 1486407364.05891 | pgbench_branches_pkey |          1327104
 2017-02-06 19:56:04.058906+01 | 1486407364.05891 | pgbench_tellers_pkey  |          4694016
 2017-02-06 19:56:04.058906+01 | 1486407364.05891 | pgbench_accounts_pkey |       2246197248

 2017-02-06 19:56:05.134019+01 | 1486407365.13402 | pgbench_branches_pkey |          1327104
 2017-02-06 19:56:05.134019+01 | 1486407365.13402 | pgbench_tellers_pkey  |          4694016
 2017-02-06 19:56:05.134019+01 | 1486407365.13402 | pgbench_accounts_pkey |       2246197248

 2017-02-06 19:56:06.208132+01 | 1486407366.20813 | pgbench_branches_pkey |          1327104
 2017-02-06 19:56:06.208132+01 | 1486407366.20813 | pgbench_tellers_pkey  |          4694016
 2017-02-06 19:56:06.208132+01 | 1486407366.20813 | pgbench_accounts_pkey |       2246197248

 2017-02-06 19:56:07.288201+01 | 1486407367.2882 | pgbench_branches_pkey |          1327104
 2017-02-06 19:56:07.288201+01 | 1486407367.2882 | pgbench_tellers_pkey  |          4694016
 2017-02-06 19:56:07.288201+01 | 1486407367.2882 | pgbench_accounts_pkey |       2246197248

 2017-02-06 19:56:08.365331+01 | 1486407368.36533 | pgbench_branches_pkey |          1327104
 2017-02-06 19:56:08.365331+01 | 1486407368.36533 | pgbench_tellers_pkey  |          4694016
 2017-02-06 19:56:08.365331+01 | 1486407368.36533 | pgbench_accounts_pkey |       2246197248

 2017-02-06 19:56:09.441137+01 | 1486407369.44114 | pgbench_branches_pkey |          1327104
 2017-02-06 19:56:09.441137+01 | 1486407369.44114 | pgbench_tellers_pkey  |          4694016
 2017-02-06 19:56:09.441137+01 | 1486407369.44114 | pgbench_accounts_pkey |       2246197248

 2017-02-06 19:56:10.516638+01 | 1486407370.51664 | pgbench_branches_pkey |          1327104
 2017-02-06 19:56:10.516638+01 | 1486407370.51664 | pgbench_tellers_pkey  |          4694016
 2017-02-06 19:56:10.516638+01 | 1486407370.51664 | pgbench_accounts_pkey |       2246197248

 2017-02-06 19:56:11.583338+01 | 1486407371.58334 | pgbench_branches_pkey |          1327104
 2017-02-06 19:56:11.583338+01 | 1486407371.58334 | pgbench_tellers_pkey  |          4694016
 2017-02-06 19:56:11.583338+01 | 1486407371.58334 | pgbench_accounts_pkey |       2246197248

 2017-02-06 19:56:12.657632+01 | 1486407372.65763 | pgbench_branches_pkey |          1327104
 2017-02-06 19:56:12.657632+01 | 1486407372.65763 | pgbench_tellers_pkey  |          4694016
 2017-02-06 19:56:12.657632+01 | 1486407372.65763 | pgbench_accounts_pkey |       2246197248

 2017-02-06 19:56:13.734832+01 | 1486407373.73483 | pgbench_branches_pkey |          1327104
 2017-02-06 19:56:13.734832+01 | 1486407373.73483 | pgbench_tellers_pkey  |          4694016
 2017-02-06 19:56:13.734832+01 | 1486407373.73483 | pgbench_accounts_pkey |       2246197248

 2017-02-06 19:56:14.817713+01 | 1486407374.81771 | pgbench_branches_pkey |          1327104
 2017-02-06 19:56:14.817713+01 | 1486407374.81771 | pgbench_tellers_pkey  |          4694016
 2017-02-06 19:56:14.817713+01 | 1486407374.81771 | pgbench_accounts_pkey |       2246197248

 2017-02-06 19:56:15.906839+01 | 1486407375.90684 | pgbench_branches_pkey |          1327104
 2017-02-06 19:56:15.906839+01 | 1486407375.90684 | pgbench_tellers_pkey  |          4694016
 2017-02-06 19:56:15.906839+01 | 1486407375.90684 | pgbench_accounts_pkey |       2246197248

 2017-02-06 19:56:16.980514+01 | 1486407376.98051 | pgbench_branches_pkey |          1327104
 2017-02-06 19:56:16.980514+01 | 1486407376.98051 | pgbench_tellers_pkey  |          4694016
 2017-02-06 19:56:16.980514+01 | 1486407376.98051 | pgbench_accounts_pkey |       2246197248

 2017-02-06 19:56:18.059079+01 | 1486407378.05908 | pgbench_branches_pkey |          1327104
 2017-02-06 19:56:18.059079+01 | 1486407378.05908 | pgbench_tellers_pkey  |          4694016
 2017-02-06 19:56:18.059079+01 | 1486407378.05908 | pgbench_accounts_pkey |       2246197248

 2017-02-06 19:56:19.136673+01 | 1486407379.13667 | pgbench_branches_pkey |          1327104
 2017-02-06 19:56:19.136673+01 | 1486407379.13667 | pgbench_tellers_pkey  |          4694016
 2017-02-06 19:56:19.136673+01 | 1486407379.13667 | pgbench_accounts_pkey |       2246197248

 2017-02-06 19:56:20.208788+01 | 1486407380.20879 | pgbench_branches_pkey |          1327104
 2017-02-06 19:56:20.208788+01 | 1486407380.20879 | pgbench_tellers_pkey  |          4694016
 2017-02-06 19:56:20.208788+01 | 1486407380.20879 | pgbench_accounts_pkey |       2246197248

 2017-02-06 19:56:21.284945+01 | 1486407381.28495 | pgbench_branches_pkey |          1327104
 2017-02-06 19:56:21.284945+01 | 1486407381.28495 | pgbench_tellers_pkey  |          4694016
 2017-02-06 19:56:21.284945+01 | 1486407381.28495 | pgbench_accounts_pkey |       2246197248

 2017-02-06 19:56:22.360014+01 | 1486407382.36001 | pgbench_branches_pkey |          1327104
 2017-02-06 19:56:22.360014+01 | 1486407382.36001 | pgbench_tellers_pkey  |          4694016
 2017-02-06 19:56:22.360014+01 | 1486407382.36001 | pgbench_accounts_pkey |       2246197248

 2017-02-06 19:56:23.436758+01 | 1486407383.43676 | pgbench_branches_pkey |          1327104
 2017-02-06 19:56:23.436758+01 | 1486407383.43676 | pgbench_tellers_pkey  |          4694016
 2017-02-06 19:56:23.436758+01 | 1486407383.43676 | pgbench_accounts_pkey |       2246197248

 2017-02-06 19:56:24.51473+01 | 1486407384.51473 | pgbench_branches_pkey |          1327104
 2017-02-06 19:56:24.51473+01 | 1486407384.51473 | pgbench_tellers_pkey  |          4694016
 2017-02-06 19:56:24.51473+01 | 1486407384.51473 | pgbench_accounts_pkey |       2246197248

 2017-02-06 19:56:25.582433+01 | 1486407385.58243 | pgbench_branches_pkey |          1327104
 2017-02-06 19:56:25.582433+01 | 1486407385.58243 | pgbench_tellers_pkey  |          4694016
 2017-02-06 19:56:25.582433+01 | 1486407385.58243 | pgbench_accounts_pkey |       2246197248

 2017-02-06 19:56:26.660611+01 | 1486407386.66061 | pgbench_branches_pkey |          1327104
 2017-02-06 19:56:26.660611+01 | 1486407386.66061 | pgbench_tellers_pkey  |          4694016
 2017-02-06 19:56:26.660611+01 | 1486407386.66061 | pgbench_accounts_pkey |       2246197248

 2017-02-06 19:56:27.751437+01 | 1486407387.75144 | pgbench_branches_pkey |          1327104
 2017-02-06 19:56:27.751437+01 | 1486407387.75144 | pgbench_tellers_pkey  |          4694016
 2017-02-06 19:56:27.751437+01 | 1486407387.75144 | pgbench_accounts_pkey |       2246197248

 2017-02-06 19:56:28.828682+01 | 1486407388.82868 | pgbench_branches_pkey |          1327104
 2017-02-06 19:56:28.828682+01 | 1486407388.82868 | pgbench_tellers_pkey  |          4694016
 2017-02-06 19:56:28.828682+01 | 1486407388.82868 | pgbench_accounts_pkey |       2246197248

 2017-02-06 19:56:29.903946+01 | 1486407389.90395 | pgbench_branches_pkey |          1327104
 2017-02-06 19:56:29.903946+01 | 1486407389.90395 | pgbench_tellers_pkey  |          4694016
 2017-02-06 19:56:29.903946+01 | 1486407389.90395 | pgbench_accounts_pkey |       2246197248

 2017-02-06 19:56:30.984186+01 | 1486407390.98419 | pgbench_branches_pkey |          1327104
 2017-02-06 19:56:30.984186+01 | 1486407390.98419 | pgbench_tellers_pkey  |          4694016
 2017-02-06 19:56:30.984186+01 | 1486407390.98419 | pgbench_accounts_pkey |       2246197248

 2017-02-06 19:56:32.0673+01 | 1486407392.0673 | pgbench_branches_pkey |          1327104
 2017-02-06 19:56:32.0673+01 | 1486407392.0673 | pgbench_tellers_pkey  |          4694016
 2017-02-06 19:56:32.0673+01 | 1486407392.0673 | pgbench_accounts_pkey |       2246197248

 2017-02-06 19:56:33.145773+01 | 1486407393.14577 | pgbench_branches_pkey |          1327104
 2017-02-06 19:56:33.145773+01 | 1486407393.14577 | pgbench_tellers_pkey  |          4694016
 2017-02-06 19:56:33.145773+01 | 1486407393.14577 | pgbench_accounts_pkey |       2246197248

 2017-02-06 19:56:34.22622+01 | 1486407394.22622 | pgbench_branches_pkey |          1327104
 2017-02-06 19:56:34.22622+01 | 1486407394.22622 | pgbench_tellers_pkey  |          4694016
 2017-02-06 19:56:34.22622+01 | 1486407394.22622 | pgbench_accounts_pkey |       2246197248

 2017-02-06 19:56:35.302499+01 | 1486407395.3025 | pgbench_branches_pkey |          1327104
 2017-02-06 19:56:35.302499+01 | 1486407395.3025 | pgbench_tellers_pkey  |          4694016
 2017-02-06 19:56:35.302499+01 | 1486407395.3025 | pgbench_accounts_pkey |       2246197248

 2017-02-06 19:56:36.378172+01 | 1486407396.37817 | pgbench_branches_pkey |          1327104
 2017-02-06 19:56:36.378172+01 | 1486407396.37817 | pgbench_tellers_pkey  |          4694016
 2017-02-06 19:56:36.378172+01 | 1486407396.37817 | pgbench_accounts_pkey |       2246197248

 2017-02-06 19:56:37.451263+01 | 1486407397.45126 | pgbench_branches_pkey |          1327104
 2017-02-06 19:56:37.451263+01 | 1486407397.45126 | pgbench_tellers_pkey  |          4694016
 2017-02-06 19:56:37.451263+01 | 1486407397.45126 | pgbench_accounts_pkey |       2246197248

 2017-02-06 19:56:38.521947+01 | 1486407398.52195 | pgbench_branches_pkey |          1327104
 2017-02-06 19:56:38.521947+01 | 1486407398.52195 | pgbench_tellers_pkey  |          4694016
 2017-02-06 19:56:38.521947+01 | 1486407398.52195 | pgbench_accounts_pkey |       2246197248

 2017-02-06 19:56:39.597197+01 | 1486407399.5972 | pgbench_branches_pkey |          1327104
 2017-02-06 19:56:39.597197+01 | 1486407399.5972 | pgbench_tellers_pkey  |          4694016
 2017-02-06 19:56:39.597197+01 | 1486407399.5972 | pgbench_accounts_pkey |       2246197248

 2017-02-06 19:56:40.672447+01 | 1486407400.67245 | pgbench_branches_pkey |          1327104
 2017-02-06 19:56:40.672447+01 | 1486407400.67245 | pgbench_tellers_pkey  |          4694016
 2017-02-06 19:56:40.672447+01 | 1486407400.67245 | pgbench_accounts_pkey |       2246197248

 2017-02-06 19:56:41.74594+01 | 1486407401.74594 | pgbench_branches_pkey |          1327104
 2017-02-06 19:56:41.74594+01 | 1486407401.74594 | pgbench_tellers_pkey  |          4694016
 2017-02-06 19:56:41.74594+01 | 1486407401.74594 | pgbench_accounts_pkey |       2246197248

 2017-02-06 19:56:42.824037+01 | 1486407402.82404 | pgbench_branches_pkey |          1327104
 2017-02-06 19:56:42.824037+01 | 1486407402.82404 | pgbench_tellers_pkey  |          4694016
 2017-02-06 19:56:42.824037+01 | 1486407402.82404 | pgbench_accounts_pkey |       2246197248

 2017-02-06 19:56:43.899597+01 | 1486407403.8996 | pgbench_branches_pkey |          1327104
 2017-02-06 19:56:43.899597+01 | 1486407403.8996 | pgbench_tellers_pkey  |          4694016
 2017-02-06 19:56:43.899597+01 | 1486407403.8996 | pgbench_accounts_pkey |       2246197248

 2017-02-06 19:56:44.962611+01 | 1486407404.96261 | pgbench_branches_pkey |          1327104
 2017-02-06 19:56:44.962611+01 | 1486407404.96261 | pgbench_tellers_pkey  |          4694016
 2017-02-06 19:56:44.962611+01 | 1486407404.96261 | pgbench_accounts_pkey |       2246197248

 2017-02-06 19:56:46.038588+01 | 1486407406.03859 | pgbench_branches_pkey |          1327104
 2017-02-06 19:56:46.038588+01 | 1486407406.03859 | pgbench_tellers_pkey  |          4694016
 2017-02-06 19:56:46.038588+01 | 1486407406.03859 | pgbench_accounts_pkey |       2246197248

 2017-02-06 19:56:47.114886+01 | 1486407407.11489 | pgbench_branches_pkey |          1327104
 2017-02-06 19:56:47.114886+01 | 1486407407.11489 | pgbench_tellers_pkey  |          4694016
 2017-02-06 19:56:47.114886+01 | 1486407407.11489 | pgbench_accounts_pkey |       2246197248

 2017-02-06 19:56:48.193693+01 | 1486407408.19369 | pgbench_branches_pkey |          1327104
 2017-02-06 19:56:48.193693+01 | 1486407408.19369 | pgbench_tellers_pkey  |          4694016
 2017-02-06 19:56:48.193693+01 | 1486407408.19369 | pgbench_accounts_pkey |       2246197248

 2017-02-06 19:56:49.273292+01 | 1486407409.27329 | pgbench_branches_pkey |          1327104
 2017-02-06 19:56:49.273292+01 | 1486407409.27329 | pgbench_tellers_pkey  |          4694016
 2017-02-06 19:56:49.273292+01 | 1486407409.27329 | pgbench_accounts_pkey |       2246197248

 2017-02-06 19:56:50.349493+01 | 1486407410.34949 | pgbench_branches_pkey |          1327104
 2017-02-06 19:56:50.349493+01 | 1486407410.34949 | pgbench_tellers_pkey  |          4694016
 2017-02-06 19:56:50.349493+01 | 1486407410.34949 | pgbench_accounts_pkey |       2246197248

 2017-02-06 19:56:51.430891+01 | 1486407411.43089 | pgbench_branches_pkey |          1327104
 2017-02-06 19:56:51.430891+01 | 1486407411.43089 | pgbench_tellers_pkey  |          4694016
 2017-02-06 19:56:51.430891+01 | 1486407411.43089 | pgbench_accounts_pkey |       2246197248

 2017-02-06 19:56:52.510606+01 | 1486407412.51061 | pgbench_branches_pkey |          1327104
 2017-02-06 19:56:52.510606+01 | 1486407412.51061 | pgbench_tellers_pkey  |          4694016
 2017-02-06 19:56:52.510606+01 | 1486407412.51061 | pgbench_accounts_pkey |       2246197248

 2017-02-06 19:56:53.590351+01 | 1486407413.59035 | pgbench_branches_pkey |          1327104
 2017-02-06 19:56:53.590351+01 | 1486407413.59035 | pgbench_tellers_pkey  |          4694016
 2017-02-06 19:56:53.590351+01 | 1486407413.59035 | pgbench_accounts_pkey |       2246197248

 2017-02-06 19:56:54.669668+01 | 1486407414.66967 | pgbench_branches_pkey |          1327104
 2017-02-06 19:56:54.669668+01 | 1486407414.66967 | pgbench_tellers_pkey  |          4694016
 2017-02-06 19:56:54.669668+01 | 1486407414.66967 | pgbench_accounts_pkey |       2246197248

 2017-02-06 19:56:55.745713+01 | 1486407415.74571 | pgbench_branches_pkey |          1327104
 2017-02-06 19:56:55.745713+01 | 1486407415.74571 | pgbench_tellers_pkey  |          4694016
 2017-02-06 19:56:55.745713+01 | 1486407415.74571 | pgbench_accounts_pkey |       2246197248

 2017-02-06 19:56:56.825056+01 | 1486407416.82506 | pgbench_branches_pkey |          1327104
 2017-02-06 19:56:56.825056+01 | 1486407416.82506 | pgbench_tellers_pkey  |          4694016
 2017-02-06 19:56:56.825056+01 | 1486407416.82506 | pgbench_accounts_pkey |       2246197248

 2017-02-06 19:56:57.919421+01 | 1486407417.91942 | pgbench_branches_pkey |          1327104
 2017-02-06 19:56:57.919421+01 | 1486407417.91942 | pgbench_tellers_pkey  |          4694016
 2017-02-06 19:56:57.919421+01 | 1486407417.91942 | pgbench_accounts_pkey |       2246197248

 2017-02-06 19:56:58.988958+01 | 1486407418.98896 | pgbench_branches_pkey |          1327104
 2017-02-06 19:56:58.988958+01 | 1486407418.98896 | pgbench_tellers_pkey  |          4694016
 2017-02-06 19:56:58.988958+01 | 1486407418.98896 | pgbench_accounts_pkey |       2246197248

 2017-02-06 19:57:00.062079+01 | 1486407420.06208 | pgbench_branches_pkey |          1327104
 2017-02-06 19:57:00.062079+01 | 1486407420.06208 | pgbench_tellers_pkey  |          4694016
 2017-02-06 19:57:00.062079+01 | 1486407420.06208 | pgbench_accounts_pkey |       2246197248

 2017-02-06 19:57:01.143761+01 | 1486407421.14376 | pgbench_branches_pkey |          1327104
 2017-02-06 19:57:01.143761+01 | 1486407421.14376 | pgbench_tellers_pkey  |          4694016
 2017-02-06 19:57:01.143761+01 | 1486407421.14376 | pgbench_accounts_pkey |       2246197248

 2017-02-06 19:57:02.222269+01 | 1486407422.22227 | pgbench_branches_pkey |          1327104
 2017-02-06 19:57:02.222269+01 | 1486407422.22227 | pgbench_tellers_pkey  |          4694016
 2017-02-06 19:57:02.222269+01 | 1486407422.22227 | pgbench_accounts_pkey |       2246197248

 2017-02-06 19:57:03.296437+01 | 1486407423.29644 | pgbench_branches_pkey |          1327104
 2017-02-06 19:57:03.296437+01 | 1486407423.29644 | pgbench_tellers_pkey  |          4694016
 2017-02-06 19:57:03.296437+01 | 1486407423.29644 | pgbench_accounts_pkey |       2246197248

 2017-02-06 19:57:04.377385+01 | 1486407424.37738 | pgbench_branches_pkey |          1327104
 2017-02-06 19:57:04.377385+01 | 1486407424.37738 | pgbench_tellers_pkey  |          4694016
 2017-02-06 19:57:04.377385+01 | 1486407424.37738 | pgbench_accounts_pkey |       2246197248

 2017-02-06 19:57:05.454245+01 | 1486407425.45425 | pgbench_branches_pkey |          1327104
 2017-02-06 19:57:05.454245+01 | 1486407425.45425 | pgbench_tellers_pkey  |          4694016
 2017-02-06 19:57:05.454245+01 | 1486407425.45425 | pgbench_accounts_pkey |       2246197248

 2017-02-06 19:57:06.541352+01 | 1486407426.54135 | pgbench_branches_pkey |          1327104
 2017-02-06 19:57:06.541352+01 | 1486407426.54135 | pgbench_tellers_pkey  |          4694016
 2017-02-06 19:57:06.541352+01 | 1486407426.54135 | pgbench_accounts_pkey |       2246197248

 2017-02-06 19:57:07.611766+01 | 1486407427.61177 | pgbench_branches_pkey |          1327104
 2017-02-06 19:57:07.611766+01 | 1486407427.61177 | pgbench_tellers_pkey  |          4694016
 2017-02-06 19:57:07.611766+01 | 1486407427.61177 | pgbench_accounts_pkey |       2246197248

 2017-02-06 19:57:08.694856+01 | 1486407428.69486 | pgbench_branches_pkey |          1327104
 2017-02-06 19:57:08.694856+01 | 1486407428.69486 | pgbench_tellers_pkey  |          4694016
 2017-02-06 19:57:08.694856+01 | 1486407428.69486 | pgbench_accounts_pkey |       2246197248

 2017-02-06 19:57:09.770256+01 | 1486407429.77026 | pgbench_branches_pkey |          1327104
 2017-02-06 19:57:09.770256+01 | 1486407429.77026 | pgbench_tellers_pkey  |          4694016
 2017-02-06 19:57:09.770256+01 | 1486407429.77026 | pgbench_accounts_pkey |       2246197248

 2017-02-06 19:57:10.857809+01 | 1486407430.85781 | pgbench_branches_pkey |          1327104
 2017-02-06 19:57:10.857809+01 | 1486407430.85781 | pgbench_tellers_pkey  |          4694016
 2017-02-06 19:57:10.857809+01 | 1486407430.85781 | pgbench_accounts_pkey |       2246197248

 2017-02-06 19:57:11.932715+01 | 1486407431.93271 | pgbench_branches_pkey |          1327104
 2017-02-06 19:57:11.932715+01 | 1486407431.93271 | pgbench_tellers_pkey  |          4694016
 2017-02-06 19:57:11.932715+01 | 1486407431.93271 | pgbench_accounts_pkey |       2246197248

 2017-02-06 19:57:13.011275+01 | 1486407433.01128 | pgbench_branches_pkey |          1327104
 2017-02-06 19:57:13.011275+01 | 1486407433.01128 | pgbench_tellers_pkey  |          4694016
 2017-02-06 19:57:13.011275+01 | 1486407433.01128 | pgbench_accounts_pkey |       2246197248

 2017-02-06 19:57:14.083289+01 | 1486407434.08329 | pgbench_branches_pkey |          1327104
 2017-02-06 19:57:14.083289+01 | 1486407434.08329 | pgbench_tellers_pkey  |          4694016
 2017-02-06 19:57:14.083289+01 | 1486407434.08329 | pgbench_accounts_pkey |       2246197248

 2017-02-06 19:57:15.160181+01 | 1486407435.16018 | pgbench_branches_pkey |          1327104
 2017-02-06 19:57:15.160181+01 | 1486407435.16018 | pgbench_tellers_pkey  |          4694016
 2017-02-06 19:57:15.160181+01 | 1486407435.16018 | pgbench_accounts_pkey |       2246197248

 2017-02-06 19:57:16.24473+01 | 1486407436.24473 | pgbench_branches_pkey |          1327104
 2017-02-06 19:57:16.24473+01 | 1486407436.24473 | pgbench_tellers_pkey  |          4694016
 2017-02-06 19:57:16.24473+01 | 1486407436.24473 | pgbench_accounts_pkey |       2246197248

 2017-02-06 19:57:17.315789+01 | 1486407437.31579 | pgbench_branches_pkey |          1327104
 2017-02-06 19:57:17.315789+01 | 1486407437.31579 | pgbench_tellers_pkey  |          4694016
 2017-02-06 19:57:17.315789+01 | 1486407437.31579 | pgbench_accounts_pkey |       2246197248

 2017-02-06 19:57:18.400253+01 | 1486407438.40025 | pgbench_branches_pkey |          1327104
 2017-02-06 19:57:18.400253+01 | 1486407438.40025 | pgbench_tellers_pkey  |          4694016
 2017-02-06 19:57:18.400253+01 | 1486407438.40025 | pgbench_accounts_pkey |       2246197248

 2017-02-06 19:57:19.4765+01 | 1486407439.4765 | pgbench_branches_pkey |          1327104
 2017-02-06 19:57:19.4765+01 | 1486407439.4765 | pgbench_tellers_pkey  |          4694016
 2017-02-06 19:57:19.4765+01 | 1486407439.4765 | pgbench_accounts_pkey |       2246197248

 2017-02-06 19:57:20.552295+01 | 1486407440.55229 | pgbench_branches_pkey |          1327104
 2017-02-06 19:57:20.552295+01 | 1486407440.55229 | pgbench_tellers_pkey  |          4694016
 2017-02-06 19:57:20.552295+01 | 1486407440.55229 | pgbench_accounts_pkey |       2246197248

 2017-02-06 19:57:21.634755+01 | 1486407441.63475 | pgbench_branches_pkey |          1327104
 2017-02-06 19:57:21.634755+01 | 1486407441.63475 | pgbench_tellers_pkey  |          4694016
 2017-02-06 19:57:21.634755+01 | 1486407441.63475 | pgbench_accounts_pkey |       2246197248

 2017-02-06 19:57:22.709973+01 | 1486407442.70997 | pgbench_branches_pkey |          1327104
 2017-02-06 19:57:22.709973+01 | 1486407442.70997 | pgbench_tellers_pkey  |          4694016
 2017-02-06 19:57:22.709973+01 | 1486407442.70997 | pgbench_accounts_pkey |       2246197248

 2017-02-06 19:57:23.788968+01 | 1486407443.78897 | pgbench_branches_pkey |          1327104
 2017-02-06 19:57:23.788968+01 | 1486407443.78897 | pgbench_tellers_pkey  |          4694016
 2017-02-06 19:57:23.788968+01 | 1486407443.78897 | pgbench_accounts_pkey |       2246197248

 2017-02-06 19:57:24.880232+01 | 1486407444.88023 | pgbench_branches_pkey |          1327104
 2017-02-06 19:57:24.880232+01 | 1486407444.88023 | pgbench_tellers_pkey  |          4694016
 2017-02-06 19:57:24.880232+01 | 1486407444.88023 | pgbench_accounts_pkey |       2246197248

 2017-02-06 19:57:25.952863+01 | 1486407445.95286 | pgbench_branches_pkey |          1327104
 2017-02-06 19:57:25.952863+01 | 1486407445.95286 | pgbench_tellers_pkey  |          4694016
 2017-02-06 19:57:25.952863+01 | 1486407445.95286 | pgbench_accounts_pkey |       2246197248

 2017-02-06 19:57:27.031571+01 | 1486407447.03157 | pgbench_branches_pkey |          1327104
 2017-02-06 19:57:27.031571+01 | 1486407447.03157 | pgbench_tellers_pkey  |          4694016
 2017-02-06 19:57:27.031571+01 | 1486407447.03157 | pgbench_accounts_pkey |       2246197248

 2017-02-06 19:57:28.111943+01 | 1486407448.11194 | pgbench_branches_pkey |          1327104
 2017-02-06 19:57:28.111943+01 | 1486407448.11194 | pgbench_tellers_pkey  |          4694016
 2017-02-06 19:57:28.111943+01 | 1486407448.11194 | pgbench_accounts_pkey |       2246197248

 2017-02-06 19:57:29.18546+01 | 1486407449.18546 | pgbench_branches_pkey |          1327104
 2017-02-06 19:57:29.18546+01 | 1486407449.18546 | pgbench_tellers_pkey  |          4694016
 2017-02-06 19:57:29.18546+01 | 1486407449.18546 | pgbench_accounts_pkey |       2246197248

 2017-02-06 19:57:30.255421+01 | 1486407450.25542 | pgbench_branches_pkey |          1327104
 2017-02-06 19:57:30.255421+01 | 1486407450.25542 | pgbench_tellers_pkey  |          4694016
 2017-02-06 19:57:30.255421+01 | 1486407450.25542 | pgbench_accounts_pkey |       2246197248

 2017-02-06 19:57:31.331823+01 | 1486407451.33182 | pgbench_branches_pkey |          1327104
 2017-02-06 19:57:31.331823+01 | 1486407451.33182 | pgbench_tellers_pkey  |          4694016
 2017-02-06 19:57:31.331823+01 | 1486407451.33182 | pgbench_accounts_pkey |       2246197248

 2017-02-06 19:57:32.410296+01 | 1486407452.4103 | pgbench_branches_pkey |          1327104
 2017-02-06 19:57:32.410296+01 | 1486407452.4103 | pgbench_tellers_pkey  |          4694016
 2017-02-06 19:57:32.410296+01 | 1486407452.4103 | pgbench_accounts_pkey |       2246197248

 2017-02-06 19:57:33.490448+01 | 1486407453.49045 | pgbench_branches_pkey |          1327104
 2017-02-06 19:57:33.490448+01 | 1486407453.49045 | pgbench_tellers_pkey  |          4694016
 2017-02-06 19:57:33.490448+01 | 1486407453.49045 | pgbench_accounts_pkey |       2246197248

 2017-02-06 19:57:34.564645+01 | 1486407454.56465 | pgbench_branches_pkey |          1327104
 2017-02-06 19:57:34.564645+01 | 1486407454.56465 | pgbench_tellers_pkey  |          4694016
 2017-02-06 19:57:34.564645+01 | 1486407454.56465 | pgbench_accounts_pkey |       2246197248

 2017-02-06 19:57:35.652684+01 | 1486407455.65268 | pgbench_branches_pkey |          1327104
 2017-02-06 19:57:35.652684+01 | 1486407455.65268 | pgbench_tellers_pkey  |          4694016
 2017-02-06 19:57:35.652684+01 | 1486407455.65268 | pgbench_accounts_pkey |       2246197248

 2017-02-06 19:57:36.730401+01 | 1486407456.7304 | pgbench_branches_pkey |          1327104
 2017-02-06 19:57:36.730401+01 | 1486407456.7304 | pgbench_tellers_pkey  |          4694016
 2017-02-06 19:57:36.730401+01 | 1486407456.7304 | pgbench_accounts_pkey |       2246197248

 2017-02-06 19:57:37.796564+01 | 1486407457.79656 | pgbench_branches_pkey |          1327104
 2017-02-06 19:57:37.796564+01 | 1486407457.79656 | pgbench_tellers_pkey  |          4694016
 2017-02-06 19:57:37.796564+01 | 1486407457.79656 | pgbench_accounts_pkey |       2246197248

 2017-02-06 19:57:38.877925+01 | 1486407458.87792 | pgbench_branches_pkey |          1327104
 2017-02-06 19:57:38.877925+01 | 1486407458.87792 | pgbench_tellers_pkey  |          4694016
 2017-02-06 19:57:38.877925+01 | 1486407458.87792 | pgbench_accounts_pkey |       2246197248

 2017-02-06 19:57:39.9622+01 | 1486407459.9622 | pgbench_branches_pkey |          1327104
 2017-02-06 19:57:39.9622+01 | 1486407459.9622 | pgbench_tellers_pkey  |          4694016
 2017-02-06 19:57:39.9622+01 | 1486407459.9622 | pgbench_accounts_pkey |       2246197248

 2017-02-06 19:57:41.040893+01 | 1486407461.04089 | pgbench_branches_pkey |          1327104
 2017-02-06 19:57:41.040893+01 | 1486407461.04089 | pgbench_tellers_pkey  |          4694016
 2017-02-06 19:57:41.040893+01 | 1486407461.04089 | pgbench_accounts_pkey |       2246197248

 2017-02-06 19:57:42.115934+01 | 1486407462.11593 | pgbench_branches_pkey |          1327104
 2017-02-06 19:57:42.115934+01 | 1486407462.11593 | pgbench_tellers_pkey  |          4694016
 2017-02-06 19:57:42.115934+01 | 1486407462.11593 | pgbench_accounts_pkey |       2246197248

 2017-02-06 19:57:43.194138+01 | 1486407463.19414 | pgbench_branches_pkey |          1327104
 2017-02-06 19:57:43.194138+01 | 1486407463.19414 | pgbench_tellers_pkey  |          4694016
 2017-02-06 19:57:43.194138+01 | 1486407463.19414 | pgbench_accounts_pkey |       2246197248

 2017-02-06 19:57:44.263627+01 | 1486407464.26363 | pgbench_branches_pkey |          1327104
 2017-02-06 19:57:44.263627+01 | 1486407464.26363 | pgbench_tellers_pkey  |          4694016
 2017-02-06 19:57:44.263627+01 | 1486407464.26363 | pgbench_accounts_pkey |       2246197248

 2017-02-06 19:57:45.328592+01 | 1486407465.32859 | pgbench_branches_pkey |          1327104
 2017-02-06 19:57:45.328592+01 | 1486407465.32859 | pgbench_tellers_pkey  |          4694016
 2017-02-06 19:57:45.328592+01 | 1486407465.32859 | pgbench_accounts_pkey |       2246197248

 2017-02-06 19:57:46.404318+01 | 1486407466.40432 | pgbench_branches_pkey |          1327104
 2017-02-06 19:57:46.404318+01 | 1486407466.40432 | pgbench_tellers_pkey  |          4694016
 2017-02-06 19:57:46.404318+01 | 1486407466.40432 | pgbench_accounts_pkey |       2246197248

 2017-02-06 19:57:47.494934+01 | 1486407467.49493 | pgbench_branches_pkey |          1327104
 2017-02-06 19:57:47.494934+01 | 1486407467.49493 | pgbench_tellers_pkey  |          4694016
 2017-02-06 19:57:47.494934+01 | 1486407467.49493 | pgbench_accounts_pkey |       2246197248

 2017-02-06 19:57:48.577579+01 | 1486407468.57758 | pgbench_branches_pkey |          1327104
 2017-02-06 19:57:48.577579+01 | 1486407468.57758 | pgbench_tellers_pkey  |          4694016
 2017-02-06 19:57:48.577579+01 | 1486407468.57758 | pgbench_accounts_pkey |       2246197248

 2017-02-06 19:57:49.653758+01 | 1486407469.65376 | pgbench_branches_pkey |          1327104
 2017-02-06 19:57:49.653758+01 | 1486407469.65376 | pgbench_tellers_pkey  |          4694016
 2017-02-06 19:57:49.653758+01 | 1486407469.65376 | pgbench_accounts_pkey |       2246197248

 2017-02-06 19:57:50.732696+01 | 1486407470.7327 | pgbench_branches_pkey |          1327104
 2017-02-06 19:57:50.732696+01 | 1486407470.7327 | pgbench_tellers_pkey  |          4694016
 2017-02-06 19:57:50.732696+01 | 1486407470.7327 | pgbench_accounts_pkey |       2246197248

 2017-02-06 19:57:51.813174+01 | 1486407471.81317 | pgbench_branches_pkey |          1327104
 2017-02-06 19:57:51.813174+01 | 1486407471.81317 | pgbench_tellers_pkey  |          4694016
 2017-02-06 19:57:51.813174+01 | 1486407471.81317 | pgbench_accounts_pkey |       2246197248

 2017-02-06 19:57:52.908801+01 | 1486407472.9088 | pgbench_branches_pkey |          1327104
 2017-02-06 19:57:52.908801+01 | 1486407472.9088 | pgbench_tellers_pkey  |          4694016
 2017-02-06 19:57:52.908801+01 | 1486407472.9088 | pgbench_accounts_pkey |       2246197248

 2017-02-06 19:57:53.980441+01 | 1486407473.98044 | pgbench_branches_pkey |          1327104
 2017-02-06 19:57:53.980441+01 | 1486407473.98044 | pgbench_tellers_pkey  |          4694016
 2017-02-06 19:57:53.980441+01 | 1486407473.98044 | pgbench_accounts_pkey |       2246197248

 2017-02-06 19:57:55.061816+01 | 1486407475.06182 | pgbench_branches_pkey |          1327104
 2017-02-06 19:57:55.061816+01 | 1486407475.06182 | pgbench_tellers_pkey  |          4694016
 2017-02-06 19:57:55.061816+01 | 1486407475.06182 | pgbench_accounts_pkey |       2246197248

 2017-02-06 19:57:56.144826+01 | 1486407476.14483 | pgbench_branches_pkey |          1327104
 2017-02-06 19:57:56.144826+01 | 1486407476.14483 | pgbench_tellers_pkey  |          4694016
 2017-02-06 19:57:56.144826+01 | 1486407476.14483 | pgbench_accounts_pkey |       2246197248

 2017-02-06 19:57:57.221696+01 | 1486407477.2217 | pgbench_branches_pkey |          1327104
 2017-02-06 19:57:57.221696+01 | 1486407477.2217 | pgbench_tellers_pkey  |          4694016
 2017-02-06 19:57:57.221696+01 | 1486407477.2217 | pgbench_accounts_pkey |       2246197248

 2017-02-06 19:57:58.300035+01 | 1486407478.30003 | pgbench_branches_pkey |          1327104
 2017-02-06 19:57:58.300035+01 | 1486407478.30003 | pgbench_tellers_pkey  |          4694016
 2017-02-06 19:57:58.300035+01 | 1486407478.30003 | pgbench_accounts_pkey |       2246197248

 2017-02-06 19:57:59.386167+01 | 1486407479.38617 | pgbench_branches_pkey |          1327104
 2017-02-06 19:57:59.386167+01 | 1486407479.38617 | pgbench_tellers_pkey  |          4694016
 2017-02-06 19:57:59.386167+01 | 1486407479.38617 | pgbench_accounts_pkey |       2246197248

 2017-02-06 19:58:00.462365+01 | 1486407480.46236 | pgbench_branches_pkey |          1327104
 2017-02-06 19:58:00.462365+01 | 1486407480.46236 | pgbench_tellers_pkey  |          4694016
 2017-02-06 19:58:00.462365+01 | 1486407480.46236 | pgbench_accounts_pkey |       2246197248

 2017-02-06 19:58:01.541023+01 | 1486407481.54102 | pgbench_branches_pkey |          1327104
 2017-02-06 19:58:01.541023+01 | 1486407481.54102 | pgbench_tellers_pkey  |          4694016
 2017-02-06 19:58:01.541023+01 | 1486407481.54102 | pgbench_accounts_pkey |       2246197248

 2017-02-06 19:58:02.61662+01 | 1486407482.61662 | pgbench_branches_pkey |          1327104
 2017-02-06 19:58:02.61662+01 | 1486407482.61662 | pgbench_tellers_pkey  |          4694016
 2017-02-06 19:58:02.61662+01 | 1486407482.61662 | pgbench_accounts_pkey |       2246197248

 2017-02-06 19:58:03.693736+01 | 1486407483.69374 | pgbench_branches_pkey |          1327104
 2017-02-06 19:58:03.693736+01 | 1486407483.69374 | pgbench_tellers_pkey  |          4694016
 2017-02-06 19:58:03.693736+01 | 1486407483.69374 | pgbench_accounts_pkey |       2246197248

 2017-02-06 19:58:04.769721+01 | 1486407484.76972 | pgbench_branches_pkey |          1327104
 2017-02-06 19:58:04.769721+01 | 1486407484.76972 | pgbench_tellers_pkey  |          4694016
 2017-02-06 19:58:04.769721+01 | 1486407484.76972 | pgbench_accounts_pkey |       2246197248

 2017-02-06 19:58:05.856389+01 | 1486407485.85639 | pgbench_branches_pkey |          1327104
 2017-02-06 19:58:05.856389+01 | 1486407485.85639 | pgbench_tellers_pkey  |          4694016
 2017-02-06 19:58:05.856389+01 | 1486407485.85639 | pgbench_accounts_pkey |       2246197248

 2017-02-06 19:58:06.937989+01 | 1486407486.93799 | pgbench_branches_pkey |          1327104
 2017-02-06 19:58:06.937989+01 | 1486407486.93799 | pgbench_tellers_pkey  |          4694016
 2017-02-06 19:58:06.937989+01 | 1486407486.93799 | pgbench_accounts_pkey |       2246197248

 2017-02-06 19:58:08.017583+01 | 1486407488.01758 | pgbench_branches_pkey |          1327104
 2017-02-06 19:58:08.017583+01 | 1486407488.01758 | pgbench_tellers_pkey  |          4694016
 2017-02-06 19:58:08.017583+01 | 1486407488.01758 | pgbench_accounts_pkey |       2246197248

 2017-02-06 19:58:09.098188+01 | 1486407489.09819 | pgbench_branches_pkey |          1327104
 2017-02-06 19:58:09.098188+01 | 1486407489.09819 | pgbench_tellers_pkey  |          4694016
 2017-02-06 19:58:09.098188+01 | 1486407489.09819 | pgbench_accounts_pkey |       2246197248

 2017-02-06 19:58:10.172225+01 | 1486407490.17222 | pgbench_branches_pkey |          1327104
 2017-02-06 19:58:10.172225+01 | 1486407490.17222 | pgbench_tellers_pkey  |          4694016
 2017-02-06 19:58:10.172225+01 | 1486407490.17222 | pgbench_accounts_pkey |       2246197248

 2017-02-06 19:58:11.248572+01 | 1486407491.24857 | pgbench_branches_pkey |          1327104
 2017-02-06 19:58:11.248572+01 | 1486407491.24857 | pgbench_tellers_pkey  |          4694016
 2017-02-06 19:58:11.248572+01 | 1486407491.24857 | pgbench_accounts_pkey |       2246197248

 2017-02-06 19:58:12.330049+01 | 1486407492.33005 | pgbench_branches_pkey |          1327104
 2017-02-06 19:58:12.330049+01 | 1486407492.33005 | pgbench_tellers_pkey  |          4694016
 2017-02-06 19:58:12.330049+01 | 1486407492.33005 | pgbench_accounts_pkey |       2246197248

 2017-02-06 19:58:13.407165+01 | 1486407493.40717 | pgbench_branches_pkey |          1327104
 2017-02-06 19:58:13.407165+01 | 1486407493.40717 | pgbench_tellers_pkey  |          4694016
 2017-02-06 19:58:13.407165+01 | 1486407493.40717 | pgbench_accounts_pkey |       2246197248

 2017-02-06 19:58:14.485007+01 | 1486407494.48501 | pgbench_branches_pkey |          1327104
 2017-02-06 19:58:14.485007+01 | 1486407494.48501 | pgbench_tellers_pkey  |          4694016
 2017-02-06 19:58:14.485007+01 | 1486407494.48501 | pgbench_accounts_pkey |       2246197248

 2017-02-06 19:58:15.561429+01 | 1486407495.56143 | pgbench_branches_pkey |          1327104
 2017-02-06 19:58:15.561429+01 | 1486407495.56143 | pgbench_tellers_pkey  |          4694016
 2017-02-06 19:58:15.561429+01 | 1486407495.56143 | pgbench_accounts_pkey |       2246197248

 2017-02-06 19:58:16.641078+01 | 1486407496.64108 | pgbench_branches_pkey |          1327104
 2017-02-06 19:58:16.641078+01 | 1486407496.64108 | pgbench_tellers_pkey  |          4694016
 2017-02-06 19:58:16.641078+01 | 1486407496.64108 | pgbench_accounts_pkey |       2246197248

 2017-02-06 19:58:17.721808+01 | 1486407497.72181 | pgbench_branches_pkey |          1327104
 2017-02-06 19:58:17.721808+01 | 1486407497.72181 | pgbench_tellers_pkey  |          4694016
 2017-02-06 19:58:17.721808+01 | 1486407497.72181 | pgbench_accounts_pkey |       2246197248

 2017-02-06 19:58:18.800716+01 | 1486407498.80072 | pgbench_branches_pkey |          1327104
 2017-02-06 19:58:18.800716+01 | 1486407498.80072 | pgbench_tellers_pkey  |          4694016
 2017-02-06 19:58:18.800716+01 | 1486407498.80072 | pgbench_accounts_pkey |       2246197248

 2017-02-06 19:58:19.884615+01 | 1486407499.88461 | pgbench_branches_pkey |          1327104
 2017-02-06 19:58:19.884615+01 | 1486407499.88461 | pgbench_tellers_pkey  |          4694016
 2017-02-06 19:58:19.884615+01 | 1486407499.88461 | pgbench_accounts_pkey |       2246197248

 2017-02-06 19:58:20.963759+01 | 1486407500.96376 | pgbench_branches_pkey |          1327104
 2017-02-06 19:58:20.963759+01 | 1486407500.96376 | pgbench_tellers_pkey  |          4694016
 2017-02-06 19:58:20.963759+01 | 1486407500.96376 | pgbench_accounts_pkey |       2246197248

 2017-02-06 19:58:22.050887+01 | 1486407502.05089 | pgbench_branches_pkey |          1327104
 2017-02-06 19:58:22.050887+01 | 1486407502.05089 | pgbench_tellers_pkey  |          4694016
 2017-02-06 19:58:22.050887+01 | 1486407502.05089 | pgbench_accounts_pkey |       2246197248

 2017-02-06 19:58:23.127625+01 | 1486407503.12762 | pgbench_branches_pkey |          1327104
 2017-02-06 19:58:23.127625+01 | 1486407503.12762 | pgbench_tellers_pkey  |          4694016
 2017-02-06 19:58:23.127625+01 | 1486407503.12762 | pgbench_accounts_pkey |       2246197248

 2017-02-06 19:58:24.207716+01 | 1486407504.20772 | pgbench_branches_pkey |          1327104
 2017-02-06 19:58:24.207716+01 | 1486407504.20772 | pgbench_tellers_pkey  |          4694016
 2017-02-06 19:58:24.207716+01 | 1486407504.20772 | pgbench_accounts_pkey |       2246197248

 2017-02-06 19:58:25.283272+01 | 1486407505.28327 | pgbench_branches_pkey |          1327104
 2017-02-06 19:58:25.283272+01 | 1486407505.28327 | pgbench_tellers_pkey  |          4694016
 2017-02-06 19:58:25.283272+01 | 1486407505.28327 | pgbench_accounts_pkey |       2246197248

 2017-02-06 19:58:26.358378+01 | 1486407506.35838 | pgbench_branches_pkey |          1327104
 2017-02-06 19:58:26.358378+01 | 1486407506.35838 | pgbench_tellers_pkey  |          4694016
 2017-02-06 19:58:26.358378+01 | 1486407506.35838 | pgbench_accounts_pkey |       2246197248

 2017-02-06 19:58:27.449209+01 | 1486407507.44921 | pgbench_branches_pkey |          1327104
 2017-02-06 19:58:27.449209+01 | 1486407507.44921 | pgbench_tellers_pkey  |          4694016
 2017-02-06 19:58:27.449209+01 | 1486407507.44921 | pgbench_accounts_pkey |       2246197248

 2017-02-06 19:58:28.5221+01 | 1486407508.5221 | pgbench_branches_pkey |          1327104
 2017-02-06 19:58:28.5221+01 | 1486407508.5221 | pgbench_tellers_pkey  |          4694016
 2017-02-06 19:58:28.5221+01 | 1486407508.5221 | pgbench_accounts_pkey |       2246197248

 2017-02-06 19:58:29.598599+01 | 1486407509.5986 | pgbench_branches_pkey |          1327104
 2017-02-06 19:58:29.598599+01 | 1486407509.5986 | pgbench_tellers_pkey  |          4694016
 2017-02-06 19:58:29.598599+01 | 1486407509.5986 | pgbench_accounts_pkey |       2246197248

 2017-02-06 19:58:30.684421+01 | 1486407510.68442 | pgbench_branches_pkey |          1327104
 2017-02-06 19:58:30.684421+01 | 1486407510.68442 | pgbench_tellers_pkey  |          4694016
 2017-02-06 19:58:30.684421+01 | 1486407510.68442 | pgbench_accounts_pkey |       2246197248

 2017-02-06 19:58:31.770368+01 | 1486407511.77037 | pgbench_branches_pkey |          1327104
 2017-02-06 19:58:31.770368+01 | 1486407511.77037 | pgbench_tellers_pkey  |          4694016
 2017-02-06 19:58:31.770368+01 | 1486407511.77037 | pgbench_accounts_pkey |       2246197248

 2017-02-06 19:58:32.846043+01 | 1486407512.84604 | pgbench_branches_pkey |          1327104
 2017-02-06 19:58:32.846043+01 | 1486407512.84604 | pgbench_tellers_pkey  |          4694016
 2017-02-06 19:58:32.846043+01 | 1486407512.84604 | pgbench_accounts_pkey |       2246197248

 2017-02-06 19:58:33.927561+01 | 1486407513.92756 | pgbench_branches_pkey |          1327104
 2017-02-06 19:58:33.927561+01 | 1486407513.92756 | pgbench_tellers_pkey  |          4694016
 2017-02-06 19:58:33.927561+01 | 1486407513.92756 | pgbench_accounts_pkey |       2246197248

 2017-02-06 19:58:35.00327+01 | 1486407515.00327 | pgbench_branches_pkey |          1327104
 2017-02-06 19:58:35.00327+01 | 1486407515.00327 | pgbench_tellers_pkey  |          4694016
 2017-02-06 19:58:35.00327+01 | 1486407515.00327 | pgbench_accounts_pkey |       2246197248

 2017-02-06 19:58:36.091512+01 | 1486407516.09151 | pgbench_branches_pkey |          1327104
 2017-02-06 19:58:36.091512+01 | 1486407516.09151 | pgbench_tellers_pkey  |          4694016
 2017-02-06 19:58:36.091512+01 | 1486407516.09151 | pgbench_accounts_pkey |       2246197248

 2017-02-06 19:58:37.174582+01 | 1486407517.17458 | pgbench_branches_pkey |          1327104
 2017-02-06 19:58:37.174582+01 | 1486407517.17458 | pgbench_tellers_pkey  |          4694016
 2017-02-06 19:58:37.174582+01 | 1486407517.17458 | pgbench_accounts_pkey |       2246197248

 2017-02-06 19:58:38.25097+01 | 1486407518.25097 | pgbench_branches_pkey |          1327104
 2017-02-06 19:58:38.25097+01 | 1486407518.25097 | pgbench_tellers_pkey  |          4694016
 2017-02-06 19:58:38.25097+01 | 1486407518.25097 | pgbench_accounts_pkey |       2246197248

 2017-02-06 19:58:39.318762+01 | 1486407519.31876 | pgbench_branches_pkey |          1327104
 2017-02-06 19:58:39.318762+01 | 1486407519.31876 | pgbench_tellers_pkey  |          4694016
 2017-02-06 19:58:39.318762+01 | 1486407519.31876 | pgbench_accounts_pkey |       2246197248

 2017-02-06 19:58:40.397596+01 | 1486407520.3976 | pgbench_branches_pkey |          1327104
 2017-02-06 19:58:40.397596+01 | 1486407520.3976 | pgbench_tellers_pkey  |          4694016
 2017-02-06 19:58:40.397596+01 | 1486407520.3976 | pgbench_accounts_pkey |       2246197248

 2017-02-06 19:58:41.467485+01 | 1486407521.46748 | pgbench_branches_pkey |          1327104
 2017-02-06 19:58:41.467485+01 | 1486407521.46748 | pgbench_tellers_pkey  |          4694016
 2017-02-06 19:58:41.467485+01 | 1486407521.46748 | pgbench_accounts_pkey |       2246197248

 2017-02-06 19:58:42.540236+01 | 1486407522.54024 | pgbench_branches_pkey |          1327104
 2017-02-06 19:58:42.540236+01 | 1486407522.54024 | pgbench_tellers_pkey  |          4694016
 2017-02-06 19:58:42.540236+01 | 1486407522.54024 | pgbench_accounts_pkey |       2246197248

 2017-02-06 19:58:43.612912+01 | 1486407523.61291 | pgbench_branches_pkey |          1327104
 2017-02-06 19:58:43.612912+01 | 1486407523.61291 | pgbench_tellers_pkey  |          4694016
 2017-02-06 19:58:43.612912+01 | 1486407523.61291 | pgbench_accounts_pkey |       2246197248

 2017-02-06 19:58:44.683139+01 | 1486407524.68314 | pgbench_branches_pkey |          1327104
 2017-02-06 19:58:44.683139+01 | 1486407524.68314 | pgbench_tellers_pkey  |          4694016
 2017-02-06 19:58:44.683139+01 | 1486407524.68314 | pgbench_accounts_pkey |       2246197248

 2017-02-06 19:58:45.745229+01 | 1486407525.74523 | pgbench_branches_pkey |          1327104
 2017-02-06 19:58:45.745229+01 | 1486407525.74523 | pgbench_tellers_pkey  |          4694016
 2017-02-06 19:58:45.745229+01 | 1486407525.74523 | pgbench_accounts_pkey |       2246197248

 2017-02-06 19:58:46.818758+01 | 1486407526.81876 | pgbench_branches_pkey |          1327104
 2017-02-06 19:58:46.818758+01 | 1486407526.81876 | pgbench_tellers_pkey  |          4694016
 2017-02-06 19:58:46.818758+01 | 1486407526.81876 | pgbench_accounts_pkey |       2246197248

 2017-02-06 19:58:47.892987+01 | 1486407527.89299 | pgbench_branches_pkey |          1327104
 2017-02-06 19:58:47.892987+01 | 1486407527.89299 | pgbench_tellers_pkey  |          4694016
 2017-02-06 19:58:47.892987+01 | 1486407527.89299 | pgbench_accounts_pkey |       2246197248

 2017-02-06 19:58:48.967549+01 | 1486407528.96755 | pgbench_branches_pkey |          1327104
 2017-02-06 19:58:48.967549+01 | 1486407528.96755 | pgbench_tellers_pkey  |          4694016
 2017-02-06 19:58:48.967549+01 | 1486407528.96755 | pgbench_accounts_pkey |       2246197248

 2017-02-06 19:58:50.051863+01 | 1486407530.05186 | pgbench_branches_pkey |          1327104
 2017-02-06 19:58:50.051863+01 | 1486407530.05186 | pgbench_tellers_pkey  |          4694016
 2017-02-06 19:58:50.051863+01 | 1486407530.05186 | pgbench_accounts_pkey |       2246197248

 2017-02-06 19:58:51.126027+01 | 1486407531.12603 | pgbench_branches_pkey |          1327104
 2017-02-06 19:58:51.126027+01 | 1486407531.12603 | pgbench_tellers_pkey  |          4694016
 2017-02-06 19:58:51.126027+01 | 1486407531.12603 | pgbench_accounts_pkey |       2246197248

 2017-02-06 19:58:52.207624+01 | 1486407532.20762 | pgbench_branches_pkey |          1327104
 2017-02-06 19:58:52.207624+01 | 1486407532.20762 | pgbench_tellers_pkey  |          4694016
 2017-02-06 19:58:52.207624+01 | 1486407532.20762 | pgbench_accounts_pkey |       2246197248

 2017-02-06 19:58:53.296637+01 | 1486407533.29664 | pgbench_branches_pkey |          1327104
 2017-02-06 19:58:53.296637+01 | 1486407533.29664 | pgbench_tellers_pkey  |          4694016
 2017-02-06 19:58:53.296637+01 | 1486407533.29664 | pgbench_accounts_pkey |       2246197248

 2017-02-06 19:58:54.369153+01 | 1486407534.36915 | pgbench_branches_pkey |          1327104
 2017-02-06 19:58:54.369153+01 | 1486407534.36915 | pgbench_tellers_pkey  |          4694016
 2017-02-06 19:58:54.369153+01 | 1486407534.36915 | pgbench_accounts_pkey |       2246197248

 2017-02-06 19:58:55.448698+01 | 1486407535.4487 | pgbench_branches_pkey |          1327104
 2017-02-06 19:58:55.448698+01 | 1486407535.4487 | pgbench_tellers_pkey  |          4694016
 2017-02-06 19:58:55.448698+01 | 1486407535.4487 | pgbench_accounts_pkey |       2246197248

 2017-02-06 19:58:56.522795+01 | 1486407536.52279 | pgbench_branches_pkey |          1327104
 2017-02-06 19:58:56.522795+01 | 1486407536.52279 | pgbench_tellers_pkey  |          4694016
 2017-02-06 19:58:56.522795+01 | 1486407536.52279 | pgbench_accounts_pkey |       2246197248

 2017-02-06 19:58:57.598133+01 | 1486407537.59813 | pgbench_branches_pkey |          1327104
 2017-02-06 19:58:57.598133+01 | 1486407537.59813 | pgbench_tellers_pkey  |          4694016
 2017-02-06 19:58:57.598133+01 | 1486407537.59813 | pgbench_accounts_pkey |       2246197248

 2017-02-06 19:58:58.680621+01 | 1486407538.68062 | pgbench_branches_pkey |          1327104
 2017-02-06 19:58:58.680621+01 | 1486407538.68062 | pgbench_tellers_pkey  |          4694016
 2017-02-06 19:58:58.680621+01 | 1486407538.68062 | pgbench_accounts_pkey |       2246197248

 2017-02-06 19:58:59.756836+01 | 1486407539.75684 | pgbench_branches_pkey |          1327104
 2017-02-06 19:58:59.756836+01 | 1486407539.75684 | pgbench_tellers_pkey  |          4694016
 2017-02-06 19:58:59.756836+01 | 1486407539.75684 | pgbench_accounts_pkey |       2246197248

 2017-02-06 19:59:00.83853+01 | 1486407540.83853 | pgbench_branches_pkey |          1327104
 2017-02-06 19:59:00.83853+01 | 1486407540.83853 | pgbench_tellers_pkey  |          4694016
 2017-02-06 19:59:00.83853+01 | 1486407540.83853 | pgbench_accounts_pkey |       2246197248

 2017-02-06 19:59:01.91121+01 | 1486407541.91121 | pgbench_branches_pkey |          1327104
 2017-02-06 19:59:01.91121+01 | 1486407541.91121 | pgbench_tellers_pkey  |          4694016
 2017-02-06 19:59:01.91121+01 | 1486407541.91121 | pgbench_accounts_pkey |       2246197248

 2017-02-06 19:59:02.988938+01 | 1486407542.98894 | pgbench_branches_pkey |          1327104
 2017-02-06 19:59:02.988938+01 | 1486407542.98894 | pgbench_tellers_pkey  |          4694016
 2017-02-06 19:59:02.988938+01 | 1486407542.98894 | pgbench_accounts_pkey |       2246197248

 2017-02-06 19:59:04.070983+01 | 1486407544.07098 | pgbench_branches_pkey |          1327104
 2017-02-06 19:59:04.070983+01 | 1486407544.07098 | pgbench_tellers_pkey  |          4694016
 2017-02-06 19:59:04.070983+01 | 1486407544.07098 | pgbench_accounts_pkey |       2246197248

 2017-02-06 19:59:05.146523+01 | 1486407545.14652 | pgbench_branches_pkey |          1327104
 2017-02-06 19:59:05.146523+01 | 1486407545.14652 | pgbench_tellers_pkey  |          4694016
 2017-02-06 19:59:05.146523+01 | 1486407545.14652 | pgbench_accounts_pkey |       2246197248

 2017-02-06 19:59:06.240828+01 | 1486407546.24083 | pgbench_branches_pkey |          1327104
 2017-02-06 19:59:06.240828+01 | 1486407546.24083 | pgbench_tellers_pkey  |          4694016
 2017-02-06 19:59:06.240828+01 | 1486407546.24083 | pgbench_accounts_pkey |       2246197248

 2017-02-06 19:59:07.316474+01 | 1486407547.31647 | pgbench_branches_pkey |          1327104
 2017-02-06 19:59:07.316474+01 | 1486407547.31647 | pgbench_tellers_pkey  |          4694016
 2017-02-06 19:59:07.316474+01 | 1486407547.31647 | pgbench_accounts_pkey |       2246197248

 2017-02-06 19:59:08.398166+01 | 1486407548.39817 | pgbench_branches_pkey |          1327104
 2017-02-06 19:59:08.398166+01 | 1486407548.39817 | pgbench_tellers_pkey  |          4694016
 2017-02-06 19:59:08.398166+01 | 1486407548.39817 | pgbench_accounts_pkey |       2246197248

 2017-02-06 19:59:09.480121+01 | 1486407549.48012 | pgbench_branches_pkey |          1327104
 2017-02-06 19:59:09.480121+01 | 1486407549.48012 | pgbench_tellers_pkey  |          4694016
 2017-02-06 19:59:09.480121+01 | 1486407549.48012 | pgbench_accounts_pkey |       2246197248

 2017-02-06 19:59:10.560805+01 | 1486407550.56081 | pgbench_branches_pkey |          1327104
 2017-02-06 19:59:10.560805+01 | 1486407550.56081 | pgbench_tellers_pkey  |          4694016
 2017-02-06 19:59:10.560805+01 | 1486407550.56081 | pgbench_accounts_pkey |       2246197248

 2017-02-06 19:59:11.636248+01 | 1486407551.63625 | pgbench_branches_pkey |          1327104
 2017-02-06 19:59:11.636248+01 | 1486407551.63625 | pgbench_tellers_pkey  |          4694016
 2017-02-06 19:59:11.636248+01 | 1486407551.63625 | pgbench_accounts_pkey |       2246197248

 2017-02-06 19:59:12.716671+01 | 1486407552.71667 | pgbench_branches_pkey |          1327104
 2017-02-06 19:59:12.716671+01 | 1486407552.71667 | pgbench_tellers_pkey  |          4694016
 2017-02-06 19:59:12.716671+01 | 1486407552.71667 | pgbench_accounts_pkey |       2246197248

 2017-02-06 19:59:13.788205+01 | 1486407553.7882 | pgbench_branches_pkey |          1327104
 2017-02-06 19:59:13.788205+01 | 1486407553.7882 | pgbench_tellers_pkey  |          4694016
 2017-02-06 19:59:13.788205+01 | 1486407553.7882 | pgbench_accounts_pkey |       2246197248

 2017-02-06 19:59:14.876901+01 | 1486407554.8769 | pgbench_branches_pkey |          1327104
 2017-02-06 19:59:14.876901+01 | 1486407554.8769 | pgbench_tellers_pkey  |          4694016
 2017-02-06 19:59:14.876901+01 | 1486407554.8769 | pgbench_accounts_pkey |       2246197248

 2017-02-06 19:59:15.96183+01 | 1486407555.96183 | pgbench_branches_pkey |          1327104
 2017-02-06 19:59:15.96183+01 | 1486407555.96183 | pgbench_tellers_pkey  |          4694016
 2017-02-06 19:59:15.96183+01 | 1486407555.96183 | pgbench_accounts_pkey |       2246197248

 2017-02-06 19:59:17.033049+01 | 1486407557.03305 | pgbench_branches_pkey |          1327104
 2017-02-06 19:59:17.033049+01 | 1486407557.03305 | pgbench_tellers_pkey  |          4694016
 2017-02-06 19:59:17.033049+01 | 1486407557.03305 | pgbench_accounts_pkey |       2246197248

 2017-02-06 19:59:18.102431+01 | 1486407558.10243 | pgbench_branches_pkey |          1327104
 2017-02-06 19:59:18.102431+01 | 1486407558.10243 | pgbench_tellers_pkey  |          4694016
 2017-02-06 19:59:18.102431+01 | 1486407558.10243 | pgbench_accounts_pkey |       2246197248

 2017-02-06 19:59:19.191492+01 | 1486407559.19149 | pgbench_branches_pkey |          1327104
 2017-02-06 19:59:19.191492+01 | 1486407559.19149 | pgbench_tellers_pkey  |          4694016
 2017-02-06 19:59:19.191492+01 | 1486407559.19149 | pgbench_accounts_pkey |       2246197248

 2017-02-06 19:59:20.287478+01 | 1486407560.28748 | pgbench_branches_pkey |          1327104
 2017-02-06 19:59:20.287478+01 | 1486407560.28748 | pgbench_tellers_pkey  |          4694016
 2017-02-06 19:59:20.287478+01 | 1486407560.28748 | pgbench_accounts_pkey |       2246197248

 2017-02-06 19:59:21.370513+01 | 1486407561.37051 | pgbench_branches_pkey |          1327104
 2017-02-06 19:59:21.370513+01 | 1486407561.37051 | pgbench_tellers_pkey  |          4694016
 2017-02-06 19:59:21.370513+01 | 1486407561.37051 | pgbench_accounts_pkey |       2246197248

 2017-02-06 19:59:22.456465+01 | 1486407562.45647 | pgbench_branches_pkey |          1327104
 2017-02-06 19:59:22.456465+01 | 1486407562.45647 | pgbench_tellers_pkey  |          4694016
 2017-02-06 19:59:22.456465+01 | 1486407562.45647 | pgbench_accounts_pkey |       2246197248

 2017-02-06 19:59:23.532533+01 | 1486407563.53253 | pgbench_branches_pkey |          1327104
 2017-02-06 19:59:23.532533+01 | 1486407563.53253 | pgbench_tellers_pkey  |          4694016
 2017-02-06 19:59:23.532533+01 | 1486407563.53253 | pgbench_accounts_pkey |       2246197248

 2017-02-06 19:59:24.609584+01 | 1486407564.60958 | pgbench_branches_pkey |          1327104
 2017-02-06 19:59:24.609584+01 | 1486407564.60958 | pgbench_tellers_pkey  |          4694016
 2017-02-06 19:59:24.609584+01 | 1486407564.60958 | pgbench_accounts_pkey |       2246197248

 2017-02-06 19:59:25.695672+01 | 1486407565.69567 | pgbench_branches_pkey |          1327104
 2017-02-06 19:59:25.695672+01 | 1486407565.69567 | pgbench_tellers_pkey  |          4694016
 2017-02-06 19:59:25.695672+01 | 1486407565.69567 | pgbench_accounts_pkey |       2246197248

 2017-02-06 19:59:26.772769+01 | 1486407566.77277 | pgbench_branches_pkey |          1327104
 2017-02-06 19:59:26.772769+01 | 1486407566.77277 | pgbench_tellers_pkey  |          4694016
 2017-02-06 19:59:26.772769+01 | 1486407566.77277 | pgbench_accounts_pkey |       2246197248

 2017-02-06 19:59:27.846377+01 | 1486407567.84638 | pgbench_branches_pkey |          1327104
 2017-02-06 19:59:27.846377+01 | 1486407567.84638 | pgbench_tellers_pkey  |          4694016
 2017-02-06 19:59:27.846377+01 | 1486407567.84638 | pgbench_accounts_pkey |       2246197248

 2017-02-06 19:59:28.920337+01 | 1486407568.92034 | pgbench_branches_pkey |          1327104
 2017-02-06 19:59:28.920337+01 | 1486407568.92034 | pgbench_tellers_pkey  |          4694016
 2017-02-06 19:59:28.920337+01 | 1486407568.92034 | pgbench_accounts_pkey |       2246197248

 2017-02-06 19:59:30.006081+01 | 1486407570.00608 | pgbench_branches_pkey |          1327104
 2017-02-06 19:59:30.006081+01 | 1486407570.00608 | pgbench_tellers_pkey  |          4694016
 2017-02-06 19:59:30.006081+01 | 1486407570.00608 | pgbench_accounts_pkey |       2246197248

 2017-02-06 19:59:31.082248+01 | 1486407571.08225 | pgbench_branches_pkey |          1327104
 2017-02-06 19:59:31.082248+01 | 1486407571.08225 | pgbench_tellers_pkey  |          4694016
 2017-02-06 19:59:31.082248+01 | 1486407571.08225 | pgbench_accounts_pkey |       2246197248

 2017-02-06 19:59:32.165888+01 | 1486407572.16589 | pgbench_branches_pkey |          1327104
 2017-02-06 19:59:32.165888+01 | 1486407572.16589 | pgbench_tellers_pkey  |          4694016
 2017-02-06 19:59:32.165888+01 | 1486407572.16589 | pgbench_accounts_pkey |       2246197248

 2017-02-06 19:59:33.248741+01 | 1486407573.24874 | pgbench_branches_pkey |          1327104
 2017-02-06 19:59:33.248741+01 | 1486407573.24874 | pgbench_tellers_pkey  |          4694016
 2017-02-06 19:59:33.248741+01 | 1486407573.24874 | pgbench_accounts_pkey |       2246197248

 2017-02-06 19:59:34.322503+01 | 1486407574.3225 | pgbench_branches_pkey |          1327104
 2017-02-06 19:59:34.322503+01 | 1486407574.3225 | pgbench_tellers_pkey  |          4694016
 2017-02-06 19:59:34.322503+01 | 1486407574.3225 | pgbench_accounts_pkey |       2246197248

 2017-02-06 19:59:35.399541+01 | 1486407575.39954 | pgbench_branches_pkey |          1327104
 2017-02-06 19:59:35.399541+01 | 1486407575.39954 | pgbench_tellers_pkey  |          4694016
 2017-02-06 19:59:35.399541+01 | 1486407575.39954 | pgbench_accounts_pkey |       2246197248

 2017-02-06 19:59:36.477889+01 | 1486407576.47789 | pgbench_branches_pkey |          1327104
 2017-02-06 19:59:36.477889+01 | 1486407576.47789 | pgbench_tellers_pkey  |          4694016
 2017-02-06 19:59:36.477889+01 | 1486407576.47789 | pgbench_accounts_pkey |       2246197248

 2017-02-06 19:59:37.547603+01 | 1486407577.5476 | pgbench_branches_pkey |          1327104
 2017-02-06 19:59:37.547603+01 | 1486407577.5476 | pgbench_tellers_pkey  |          4694016
 2017-02-06 19:59:37.547603+01 | 1486407577.5476 | pgbench_accounts_pkey |       2246197248

 2017-02-06 19:59:38.627947+01 | 1486407578.62795 | pgbench_branches_pkey |          1327104
 2017-02-06 19:59:38.627947+01 | 1486407578.62795 | pgbench_tellers_pkey  |          4694016
 2017-02-06 19:59:38.627947+01 | 1486407578.62795 | pgbench_accounts_pkey |       2246197248

 2017-02-06 19:59:39.702641+01 | 1486407579.70264 | pgbench_branches_pkey |          1327104
 2017-02-06 19:59:39.702641+01 | 1486407579.70264 | pgbench_tellers_pkey  |          4694016
 2017-02-06 19:59:39.702641+01 | 1486407579.70264 | pgbench_accounts_pkey |       2246197248

 2017-02-06 19:59:40.778289+01 | 1486407580.77829 | pgbench_branches_pkey |          1327104
 2017-02-06 19:59:40.778289+01 | 1486407580.77829 | pgbench_tellers_pkey  |          4694016
 2017-02-06 19:59:40.778289+01 | 1486407580.77829 | pgbench_accounts_pkey |       2246197248

 2017-02-06 19:59:41.859312+01 | 1486407581.85931 | pgbench_branches_pkey |          1327104
 2017-02-06 19:59:41.859312+01 | 1486407581.85931 | pgbench_tellers_pkey  |          4694016
 2017-02-06 19:59:41.859312+01 | 1486407581.85931 | pgbench_accounts_pkey |       2246197248

 2017-02-06 19:59:42.937374+01 | 1486407582.93737 | pgbench_branches_pkey |          1327104
 2017-02-06 19:59:42.937374+01 | 1486407582.93737 | pgbench_tellers_pkey  |          4694016
 2017-02-06 19:59:42.937374+01 | 1486407582.93737 | pgbench_accounts_pkey |       2246197248

 2017-02-06 19:59:44.010399+01 | 1486407584.0104 | pgbench_branches_pkey |          1327104
 2017-02-06 19:59:44.010399+01 | 1486407584.0104 | pgbench_tellers_pkey  |          4694016
 2017-02-06 19:59:44.010399+01 | 1486407584.0104 | pgbench_accounts_pkey |       2246197248

 2017-02-06 19:59:45.091261+01 | 1486407585.09126 | pgbench_branches_pkey |          1327104
 2017-02-06 19:59:45.091261+01 | 1486407585.09126 | pgbench_tellers_pkey  |          4694016
 2017-02-06 19:59:45.091261+01 | 1486407585.09126 | pgbench_accounts_pkey |       2246197248

 2017-02-06 19:59:46.17874+01 | 1486407586.17874 | pgbench_branches_pkey |          1327104
 2017-02-06 19:59:46.17874+01 | 1486407586.17874 | pgbench_tellers_pkey  |          4694016
 2017-02-06 19:59:46.17874+01 | 1486407586.17874 | pgbench_accounts_pkey |       2246197248

 2017-02-06 19:59:47.255929+01 | 1486407587.25593 | pgbench_branches_pkey |          1327104
 2017-02-06 19:59:47.255929+01 | 1486407587.25593 | pgbench_tellers_pkey  |          4694016
 2017-02-06 19:59:47.255929+01 | 1486407587.25593 | pgbench_accounts_pkey |       2246197248

 2017-02-06 19:59:48.339748+01 | 1486407588.33975 | pgbench_branches_pkey |          1327104
 2017-02-06 19:59:48.339748+01 | 1486407588.33975 | pgbench_tellers_pkey  |          4694016
 2017-02-06 19:59:48.339748+01 | 1486407588.33975 | pgbench_accounts_pkey |       2246197248

 2017-02-06 19:59:49.41914+01 | 1486407589.41914 | pgbench_branches_pkey |          1327104
 2017-02-06 19:59:49.41914+01 | 1486407589.41914 | pgbench_tellers_pkey  |          4694016
 2017-02-06 19:59:49.41914+01 | 1486407589.41914 | pgbench_accounts_pkey |       2246197248

 2017-02-06 19:59:50.494789+01 | 1486407590.49479 | pgbench_branches_pkey |          1327104
 2017-02-06 19:59:50.494789+01 | 1486407590.49479 | pgbench_tellers_pkey  |          4694016
 2017-02-06 19:59:50.494789+01 | 1486407590.49479 | pgbench_accounts_pkey |       2246197248

