 2017-02-05 13:07:33.273389+01 | 1486296453.27339 | B/F2E0DCA0               |           51319463072

 2017-02-05 13:07:34.360647+01 | 1486296454.36065 | C/232D820                |           51576494112

 2017-02-05 13:07:35.44082+01 | 1486296455.44082 | C/130CEAA8               |           51859221160

 2017-02-05 13:07:36.518804+01 | 1486296456.5188 | C/25E21640               |           52175181376

 2017-02-05 13:07:37.598865+01 | 1486296457.59887 | C/368D0A70               |           52454820464

 2017-02-05 13:07:38.683659+01 | 1486296458.68366 | C/461FEEF8               |           52716105464

 2017-02-05 13:07:39.764934+01 | 1486296459.76493 | C/54B9C2F8               |           52961067768

 2017-02-05 13:07:40.847063+01 | 1486296460.84706 | C/626045C8               |           53190084040

 2017-02-05 13:07:41.924882+01 | 1486296461.92488 | C/6F597050               |           53407739984

 2017-02-05 13:07:43.009626+01 | 1486296463.00963 | C/7B8E2730               |           53612521264

 2017-02-05 13:07:44.087829+01 | 1486296464.08783 | C/85E67AD8               |           53786082008

 2017-02-05 13:07:45.180717+01 | 1486296465.18072 | C/90104DA0               |           53956595104

 2017-02-05 13:07:46.25579+01 | 1486296466.25579 | C/99D2B050               |           54120329296

 2017-02-05 13:07:47.330729+01 | 1486296467.33073 | C/A39C4000               |           54284533760

 2017-02-05 13:07:48.4077+01 | 1486296468.4077 | C/AB846FC0               |           54417190848

 2017-02-05 13:07:49.489169+01 | 1486296469.48917 | C/B3C45F30               |           54555598640

 2017-02-05 13:07:50.562493+01 | 1486296470.56249 | C/BBEB61C0               |           54692372928

 2017-02-05 13:07:51.64097+01 | 1486296471.64097 | C/C3CF6E40               |           54824784024

 2017-02-05 13:07:52.717101+01 | 1486296472.7171 | C/CB793430               |           54953325616

 2017-02-05 13:07:53.79737+01 | 1486296473.79737 | C/D2C0B8D0               |           55075453136

 2017-02-05 13:07:54.874481+01 | 1486296474.87448 | C/D9C8DED0               |           55193427664

 2017-02-05 13:07:55.951368+01 | 1486296475.95137 | C/E00D38C8               |           55298570440

 2017-02-05 13:07:57.032084+01 | 1486296477.03208 | C/E61C06B8               |           55400203960

 2017-02-05 13:07:58.111389+01 | 1486296478.11139 | C/EBC1DFA0               |           55494959008

 2017-02-05 13:07:59.188403+01 | 1486296479.1884 | C/F13F0FE8               |           55587049448

 2017-02-05 13:08:00.262252+01 | 1486296480.26225 | C/F708A900               |           55684147456

 2017-02-05 13:08:01.337686+01 | 1486296481.33769 | C/FC5A00C0               |           55773364416

 2017-02-05 13:08:02.411597+01 | 1486296482.4116 | D/1966C58                |           55861210200

 2017-02-05 13:08:03.48842+01 | 1486296483.48842 | D/68920E8                |           55944225000

 2017-02-05 13:08:04.56645+01 | 1486296484.56645 | D/A34C528                |           56005805352

 2017-02-05 13:08:05.642072+01 | 1486296485.64207 | D/EA09A18                |           56079981080

 2017-02-05 13:08:06.719982+01 | 1486296486.71998 | D/13026810               |           56153499664

 2017-02-05 13:08:07.799047+01 | 1486296487.79905 | D/17CFBC18               |           56234064920

 2017-02-05 13:08:08.877683+01 | 1486296488.87768 | D/1C7E9F20               |           56312635168

 2017-02-05 13:08:09.955369+01 | 1486296489.95537 | D/201EE430               |           56373470256

 2017-02-05 13:08:11.029604+01 | 1486296491.0296 | D/24708140               |           56445927744

 2017-02-05 13:08:12.108195+01 | 1486296492.1082 | D/28A68370               |           56516576112

 2017-02-05 13:08:13.184244+01 | 1486296493.18424 | D/2CC75FB0               |           56585838512

 2017-02-05 13:08:14.261328+01 | 1486296494.26133 | D/30EEF2F0               |           56655540976

 2017-02-05 13:08:15.336658+01 | 1486296495.33666 | D/34EC8150               |           56722489680

 2017-02-05 13:08:16.412723+01 | 1486296496.41272 | D/38D28B38               |           56787897144

 2017-02-05 13:08:17.489375+01 | 1486296497.48938 | D/3CAC1EF8               |           56852487928

 2017-02-05 13:08:18.563485+01 | 1486296498.56348 | D/40C12520               |           56920974624

 2017-02-05 13:08:19.645862+01 | 1486296499.64586 | D/44E56BA0               |           56990460832

 2017-02-05 13:08:20.721961+01 | 1486296500.72196 | D/4913A660               |           57060599392

 2017-02-05 13:08:21.799331+01 | 1486296501.79933 | D/4D458858               |           57130977368

 2017-02-05 13:08:22.878498+01 | 1486296502.8785 | D/51271FA0               |           57196093344

 2017-02-05 13:08:23.954877+01 | 1486296503.95488 | D/54B696A8               |           57255827112

 2017-02-05 13:08:25.031784+01 | 1486296505.03178 | D/589B4A50               |           57321146960

 2017-02-05 13:08:26.112297+01 | 1486296506.1123 | D/5C930D48               |           57387715912

 2017-02-05 13:08:27.187826+01 | 1486296507.18783 | D/60F05088               |           57460936840

 2017-02-05 13:08:28.272501+01 | 1486296508.2725 | D/665D4C30               |           57551965232

 2017-02-05 13:08:29.351737+01 | 1486296509.35174 | D/69F06240               |           57611936320

 2017-02-05 13:08:30.430336+01 | 1486296510.43034 | D/6DBAD6F0               |           57675536112

 2017-02-05 13:08:31.506664+01 | 1486296511.50666 | D/7158A3B8               |           57736209336

 2017-02-05 13:08:32.591386+01 | 1486296512.59139 | D/74FCF458               |           57797309528

 2017-02-05 13:08:33.669753+01 | 1486296513.66975 | D/787F1770               |           57856169840

 2017-02-05 13:08:34.742831+01 | 1486296514.74283 | D/7BF1A428               |           57914008616

 2017-02-05 13:08:35.820766+01 | 1486296515.82077 | D/7F7123E0               |           57972696032

 2017-02-05 13:08:36.895092+01 | 1486296516.89509 | D/83037B98               |           58032618392

 2017-02-05 13:08:37.971889+01 | 1486296517.97189 | D/86035178               |           58082939256

 2017-02-05 13:08:39.055012+01 | 1486296519.05501 | D/89983400               |           58143028224

 2017-02-05 13:08:40.133685+01 | 1486296520.13369 | D/8CF02720               |           58199123744

 2017-02-05 13:08:41.213496+01 | 1486296521.2135 | D/905854D0               |           58256282832

 2017-02-05 13:08:42.291303+01 | 1486296522.2913 | D/93AD2C98               |           58312174744

 2017-02-05 13:08:43.368047+01 | 1486296523.36805 | D/96DF5690               |           58365793936

 2017-02-05 13:08:44.44677+01 | 1486296524.44677 | D/9A281F00               |           58420895488

 2017-02-05 13:08:45.517882+01 | 1486296525.51788 | D/9D52EE00               |           58474032640

 2017-02-05 13:08:46.594567+01 | 1486296526.59457 | D/A07AC3A0               |           58526974880

 2017-02-05 13:08:47.672198+01 | 1486296527.6722 | D/A39D2D40               |           58579561792

 2017-02-05 13:08:48.751983+01 | 1486296528.75198 | D/A6A14E50               |           58630164048

 2017-02-05 13:08:49.82673+01 | 1486296529.82673 | D/A9A19880               |           58680514688

 2017-02-05 13:08:50.898666+01 | 1486296530.89867 | D/AC460CF0               |           58724846832

 2017-02-05 13:08:51.977168+01 | 1486296531.97717 | D/AE825ED8               |           58762354392

 2017-02-05 13:08:53.052877+01 | 1486296533.05288 | D/B16FBBA0               |           58811464608

 2017-02-05 13:08:54.133087+01 | 1486296534.13309 | D/B478FC08               |           58862402568

 2017-02-05 13:08:55.209475+01 | 1486296535.20948 | D/B7701550               |           58912150864

 2017-02-05 13:08:56.283487+01 | 1486296536.28349 | D/BA5D4C90               |           58961251472

 2017-02-05 13:08:57.359726+01 | 1486296537.35973 | D/BD422938               |           59009804600

 2017-02-05 13:08:58.435193+01 | 1486296538.43519 | D/C02F3210               |           59058893328

 2017-02-05 13:08:59.511094+01 | 1486296539.51109 | D/C30A3CB8               |           59106802872

 2017-02-05 13:09:00.587835+01 | 1486296540.58784 | D/C61E85A8               |           59158463912

 2017-02-05 13:09:01.668136+01 | 1486296541.66814 | D/C91DA040               |           59208736832

 2017-02-05 13:09:02.742184+01 | 1486296542.74218 | D/CC0CE798               |           59257972632

 2017-02-05 13:09:03.815175+01 | 1486296543.81518 | D/CE9A3AA0               |           59300788896

 2017-02-05 13:09:04.89694+01 | 1486296544.89694 | D/D1770128               |           59348812072

 2017-02-05 13:09:05.974022+01 | 1486296545.97402 | D/D43DAEA0               |           59395387040

 2017-02-05 13:09:07.050775+01 | 1486296547.05078 | D/D71C51B8               |           59443532216

 2017-02-05 13:09:08.127961+01 | 1486296548.12796 | D/D9ED33C8               |           59490776008

 2017-02-05 13:09:09.205134+01 | 1486296549.20513 | D/DCD6D4A8               |           59539641512

 2017-02-05 13:09:10.276874+01 | 1486296550.27687 | D/DFA3D168               |           59586629992

 2017-02-05 13:09:11.353546+01 | 1486296551.35355 | D/E266E518               |           59632968984

 2017-02-05 13:09:12.433815+01 | 1486296552.43382 | D/E4F89B90               |           59676072848

 2017-02-05 13:09:13.512048+01 | 1486296553.51205 | D/E777D9A0               |           59717966240

 2017-02-05 13:09:14.591698+01 | 1486296554.5917 | D/EA181058               |           59762020440

 2017-02-05 13:09:15.670695+01 | 1486296555.6707 | D/ECC85AF8               |           59807128312

 2017-02-05 13:09:16.747297+01 | 1486296556.7473 | D/EF8993D8               |           59853345752

 2017-02-05 13:09:17.825876+01 | 1486296557.82588 | D/F1E8EAD0               |           59893148368

 2017-02-05 13:09:18.906013+01 | 1486296558.90601 | D/F422FEB8               |           59930508984

 2017-02-05 13:09:19.984163+01 | 1486296559.98416 | D/F65E8E68               |           59967966824

 2017-02-05 13:09:21.059595+01 | 1486296561.0596 | D/F8BCADE0               |           60007689696

 2017-02-05 13:09:22.137408+01 | 1486296562.13741 | D/FB1E3C78               |           60047637624

 2017-02-05 13:09:23.214514+01 | 1486296563.21451 | D/FD1DF3E8               |           60081173480

 2017-02-05 13:09:24.293236+01 | 1486296564.29324 | D/FF647710               |           60119349008

 2017-02-05 13:09:25.3649+01 | 1486296565.3649 | E/19E6B18                |           60156701464

 2017-02-05 13:09:26.440532+01 | 1486296566.44053 | E/3DDE698                |           60194416280

 2017-02-05 13:09:27.509813+01 | 1486296567.50981 | E/6559E28                |           60235816488

 2017-02-05 13:09:28.594139+01 | 1486296568.59414 | E/9555A40                |           60286130752

 2017-02-05 13:09:29.668286+01 | 1486296569.66829 | E/B8D0968                |           60323334504

 2017-02-05 13:09:30.745495+01 | 1486296570.7455 | E/DA94710                |           60358739728

 2017-02-05 13:09:31.821624+01 | 1486296571.82162 | E/F91C6B8                |           60390753976

 2017-02-05 13:09:32.899613+01 | 1486296572.89961 | E/11789FD0               |           60422660048

 2017-02-05 13:09:33.97749+01 | 1486296573.97749 | E/13112E58               |           60449435224

 2017-02-05 13:09:35.05594+01 | 1486296575.05594 | E/14D684A8               |           60479145128

 2017-02-05 13:09:36.126701+01 | 1486296576.1267 | E/16A83C38               |           60509666360

 2017-02-05 13:09:37.202313+01 | 1486296577.20231 | E/18733000               |           60539744256

 2017-02-05 13:09:38.279487+01 | 1486296578.27949 | E/1A2985C0               |           60568470976

 2017-02-05 13:09:39.357331+01 | 1486296579.35733 | E/1BBD08A0               |           60594915488

 2017-02-05 13:09:40.431583+01 | 1486296580.43158 | E/1D7C1E48               |           60624215624

 2017-02-05 13:09:41.507794+01 | 1486296581.50779 | E/1F4E5680               |           60654769792

 2017-02-05 13:09:42.582459+01 | 1486296582.58246 | E/214846D0               |           60687926992

 2017-02-05 13:09:43.657717+01 | 1486296583.65772 | E/23193B78               |           60718398328

 2017-02-05 13:09:44.728862+01 | 1486296584.72886 | E/250A3660               |           60750968416

 2017-02-05 13:09:45.803621+01 | 1486296585.80362 | E/26E0A478               |           60781798520

 2017-02-05 13:09:46.884919+01 | 1486296586.88492 | E/2891E9C0               |           60810193344

 2017-02-05 13:09:47.960277+01 | 1486296587.96028 | E/2A6F7DF8               |           60841491960

 2017-02-05 13:09:49.031186+01 | 1486296589.03119 | E/2C4D6678               |           60872812152

 2017-02-05 13:09:50.110202+01 | 1486296590.1102 | E/2E26B938               |           60903831864

 2017-02-05 13:09:51.186666+01 | 1486296591.18667 | E/2FF3F210               |           60934058512

 2017-02-05 13:09:52.262346+01 | 1486296592.26235 | E/31BA4D28               |           60963835176

 2017-02-05 13:09:53.348134+01 | 1486296593.34813 | E/338F6CB8               |           60994579640

 2017-02-05 13:09:54.427231+01 | 1486296594.42723 | E/3561BB70               |           61025139568

 2017-02-05 13:09:55.504426+01 | 1486296595.50443 | E/373CF1D0               |           61056283088

 2017-02-05 13:09:56.579305+01 | 1486296596.5793 | E/38FF9800               |           61085816832

 2017-02-05 13:09:57.649432+01 | 1486296597.64943 | E/3AA02A68               |           61113117288

 2017-02-05 13:09:58.726936+01 | 1486296598.72694 | E/3C616AA0               |           61142559392

 2017-02-05 13:09:59.803828+01 | 1486296599.80383 | E/3E32C330               |           61173056304

 2017-02-05 13:10:00.880471+01 | 1486296600.88047 | E/3FFB5478               |           61202977912

 2017-02-05 13:10:01.95762+01 | 1486296601.95762 | E/41B8F4E0               |           61232182496

 2017-02-05 13:10:03.038817+01 | 1486296603.03882 | E/435779E0               |           61259348448

 2017-02-05 13:10:04.120476+01 | 1486296604.12048 | E/44F80BA0               |           61286648736

 2017-02-05 13:10:05.20069+01 | 1486296605.20069 | E/46A8E598               |           61315016088

 2017-02-05 13:10:06.276878+01 | 1486296606.27688 | E/486715F0               |           61344257520

 2017-02-05 13:10:07.351343+01 | 1486296607.35134 | E/4A179C58               |           61372603480

 2017-02-05 13:10:08.428064+01 | 1486296608.42806 | E/4BA0D0C8               |           61398372552

 2017-02-05 13:10:09.505243+01 | 1486296609.50524 | E/4D557BA0               |           61426989984

 2017-02-05 13:10:10.585195+01 | 1486296610.5852 | E/4F02B178               |           61455118712

 2017-02-05 13:10:11.658532+01 | 1486296611.65853 | E/509D3A18               |           61482023448

 2017-02-05 13:10:12.740202+01 | 1486296612.7402 | E/523F7D90               |           61509434768

 2017-02-05 13:10:13.813137+01 | 1486296613.81314 | E/53CB0978               |           61535357304

 2017-02-05 13:10:14.890164+01 | 1486296614.89016 | E/556878E0               |           61562452192

 2017-02-05 13:10:15.971769+01 | 1486296615.97177 | E/5700BA70               |           61589207664

 2017-02-05 13:10:17.049166+01 | 1486296617.04917 | E/58A6EA08               |           61616876040

 2017-02-05 13:10:18.127538+01 | 1486296618.12754 | E/5A468DC8               |           61644115400

 2017-02-05 13:10:19.19867+01 | 1486296619.19867 | E/5BCF7D10               |           61669866768

 2017-02-05 13:10:20.276634+01 | 1486296620.27663 | E/5D421958               |           61694155096

 2017-02-05 13:10:21.354008+01 | 1486296621.35401 | E/5EE15278               |           61721367160

 2017-02-05 13:10:22.432653+01 | 1486296622.43265 | E/606C2148               |           61747241288

 2017-02-05 13:10:23.512024+01 | 1486296623.51202 | E/62032708               |           61773915912

 2017-02-05 13:10:24.593688+01 | 1486296624.59369 | E/6390C078               |           61799972984

 2017-02-05 13:10:25.667117+01 | 1486296625.66712 | E/65076AF8               |           61824527096

 2017-02-05 13:10:26.74466+01 | 1486296626.74466 | E/6691D898               |           61850376344

 2017-02-05 13:10:27.810468+01 | 1486296627.81047 | E/6870B790               |           61881759632

 2017-02-05 13:10:28.889926+01 | 1486296628.88993 | E/6A4D1380               |           61912978304

 2017-02-05 13:10:29.966919+01 | 1486296629.96692 | E/6BBFEA00               |           61937281536

 2017-02-05 13:10:31.038641+01 | 1486296631.03864 | E/6D0DE098               |           61959168152

 2017-02-05 13:10:32.117205+01 | 1486296632.1172 | E/6E57B890               |           61980784784

 2017-02-05 13:10:33.191121+01 | 1486296633.19112 | E/6FB008A8               |           62003349672

 2017-02-05 13:10:34.264545+01 | 1486296634.26454 | E/70E338D8               |           62023481560

 2017-02-05 13:10:35.336318+01 | 1486296635.33632 | E/723756E8               |           62045771496

 2017-02-05 13:10:36.412492+01 | 1486296636.41249 | E/738EB7C0               |           62068275136

 2017-02-05 13:10:37.488603+01 | 1486296637.4886 | E/75073338               |           62092948280

 2017-02-05 13:10:38.57429+01 | 1486296638.57429 | E/7681D2E0               |           62117761760

 2017-02-05 13:10:39.650435+01 | 1486296639.65043 | E/77D59440               |           62140027968

 2017-02-05 13:10:40.727562+01 | 1486296640.72756 | E/794A8AE8               |           62164470504

 2017-02-05 13:10:41.804246+01 | 1486296641.80425 | E/7ABE6FF0               |           62188842992

 2017-02-05 13:10:42.882544+01 | 1486296642.88254 | E/7C2D34D0               |           62212879568

 2017-02-05 13:10:43.961924+01 | 1486296643.96192 | E/7DA01E90               |           62237187728

 2017-02-05 13:10:45.035243+01 | 1486296645.03524 | E/7EFC1930               |           62259992880

 2017-02-05 13:10:46.110573+01 | 1486296646.11057 | E/806461D0               |           62283604432

 2017-02-05 13:10:47.185167+01 | 1486296647.18517 | E/81CE99E8               |           62307342824

 2017-02-05 13:10:48.26806+01 | 1486296648.26806 | E/8314D958               |           62328723800

 2017-02-05 13:10:49.3451+01 | 1486296649.3451 | E/84828850               |           62352689232

 2017-02-05 13:10:50.424596+01 | 1486296650.4246 | E/85DB1BF8               |           62375271416

 2017-02-05 13:10:51.507055+01 | 1486296651.50706 | E/87233320               |           62396773152

 2017-02-05 13:10:52.58353+01 | 1486296652.58353 | E/8859F4A0               |           62417138848

 2017-02-05 13:10:53.663608+01 | 1486296653.66361 | E/8992E6D0               |           62437648080

 2017-02-05 13:10:54.74322+01 | 1486296654.74322 | E/8B01C8A0               |           62461692064

 2017-02-05 13:10:55.812075+01 | 1486296655.81207 | E/8C6B4770               |           62485383024

 2017-02-05 13:10:56.887254+01 | 1486296656.88725 | E/8DD486E8               |           62509057768

 2017-02-05 13:10:57.962748+01 | 1486296657.96275 | E/8F331D30               |           62532033840

 2017-02-05 13:10:59.03666+01 | 1486296659.03666 | E/907FCFB8               |           62553837496

 2017-02-05 13:11:00.117148+01 | 1486296660.11715 | E/91E28688               |           62577084040

 2017-02-05 13:11:01.195187+01 | 1486296661.19519 | E/931FDE18               |           62597881368

 2017-02-05 13:11:02.277044+01 | 1486296662.27704 | E/9465C850               |           62619240528

 2017-02-05 13:11:03.354862+01 | 1486296663.35486 | E/95C92198               |           62642528664

 2017-02-05 13:11:04.431658+01 | 1486296664.43166 | E/97207DB0               |           62665031088

 2017-02-05 13:11:05.505787+01 | 1486296665.50579 | E/987946F8               |           62687627000

 2017-02-05 13:11:06.582333+01 | 1486296666.58233 | E/99CBF458               |           62709822552

 2017-02-05 13:11:07.65515+01 | 1486296667.65515 | E/9B1D3FB0               |           62731927472

 2017-02-05 13:11:08.729733+01 | 1486296668.72973 | E/9C647A50               |           62753372752

 2017-02-05 13:11:09.805533+01 | 1486296669.80553 | E/9DB33E00               |           62775311872

 2017-02-05 13:11:10.882245+01 | 1486296670.88225 | E/9EF89140               |           62796632384

 2017-02-05 13:11:11.956286+01 | 1486296671.95629 | E/A0369398               |           62817473432

 2017-02-05 13:11:13.028681+01 | 1486296673.02868 | E/A1448190               |           62835163536

 2017-02-05 13:11:14.10097+01 | 1486296674.10097 | E/A28DC6D0               |           62856742608

 2017-02-05 13:11:15.175974+01 | 1486296675.17597 | E/A3E5E6C8               |           62879295176

 2017-02-05 13:11:16.25035+01 | 1486296676.25035 | E/A53AA470               |           62901625968

 2017-02-05 13:11:17.32496+01 | 1486296677.32496 | E/A67B4728               |           62922639144

 2017-02-05 13:11:18.397922+01 | 1486296678.39792 | E/A7A63080               |           62942228608

 2017-02-05 13:11:19.475945+01 | 1486296679.47594 | E/A8FD28C0               |           62964705472

 2017-02-05 13:11:20.555088+01 | 1486296680.55509 | E/AA3E0190               |           62985732496

 2017-02-05 13:11:21.632156+01 | 1486296681.63216 | E/AB7F4D78               |           63006788984

 2017-02-05 13:11:22.710762+01 | 1486296682.71076 | E/ACBCDD58               |           63027600728

 2017-02-05 13:11:23.783959+01 | 1486296683.78396 | E/AE0167A8               |           63048869800

 2017-02-05 13:11:24.861076+01 | 1486296684.86108 | E/AF55DFB0               |           63071182768

 2017-02-05 13:11:25.936637+01 | 1486296685.93664 | E/B09E6160               |           63092711776

 2017-02-05 13:11:27.011933+01 | 1486296687.01193 | E/B1E15BC0               |           63113878464

 2017-02-05 13:11:28.088691+01 | 1486296688.08869 | E/B3832DF0               |           63141260784

 2017-02-05 13:11:29.163505+01 | 1486296689.16351 | E/B4FC9298               |           63165993624

 2017-02-05 13:11:30.237823+01 | 1486296690.23782 | E/B65878C0               |           63188793536

 2017-02-05 13:11:31.312162+01 | 1486296691.31216 | E/B7A18000               |           63210356736

 2017-02-05 13:11:32.388435+01 | 1486296692.38843 | E/B8E7CF60               |           63231741792

 2017-02-05 13:11:33.463511+01 | 1486296693.46351 | E/BA30E250               |           63253307984

 2017-02-05 13:11:34.538062+01 | 1486296694.53806 | E/BB76D1D0               |           63274668496

 2017-02-05 13:11:35.613881+01 | 1486296695.61388 | E/BC93F700               |           63293355776

 2017-02-05 13:11:36.692474+01 | 1486296696.69247 | E/BDEEF3B0               |           63316095920

 2017-02-05 13:11:37.767674+01 | 1486296697.76767 | E/BF63E2A0               |           63340536480

 2017-02-05 13:11:38.845834+01 | 1486296698.84583 | E/C1981920               |           63377512736

 2017-02-05 13:11:39.922591+01 | 1486296699.92259 | E/C3FB5670               |           63417570928

 2017-02-05 13:11:40.997413+01 | 1486296700.99741 | E/C670F1C0               |           63458832832

 2017-02-05 13:11:42.074079+01 | 1486296702.07408 | E/C8F55668               |           63501063784

 2017-02-05 13:11:43.154139+01 | 1486296703.15414 | E/CA7137F0               |           63525959664

 2017-02-05 13:11:44.228472+01 | 1486296704.22847 | E/CC184658               |           63553685080

 2017-02-05 13:11:45.306512+01 | 1486296705.30651 | E/CDCF1CC0               |           63582444736

 2017-02-05 13:11:46.380833+01 | 1486296706.38083 | E/CF668490               |           63609144464

 2017-02-05 13:11:47.454008+01 | 1486296707.45401 | E/D11A6858               |           63637710936

 2017-02-05 13:11:48.53138+01 | 1486296708.53138 | E/D2E716F8               |           63667902200

 2017-02-05 13:11:49.606855+01 | 1486296709.60685 | E/D4B26280               |           63698002560

 2017-02-05 13:11:50.690306+01 | 1486296710.69031 | E/D68D5A48               |           63729130056

 2017-02-05 13:11:51.773934+01 | 1486296711.77393 | E/D8486698               |           63758165656

 2017-02-05 13:11:52.848094+01 | 1486296712.84809 | E/DA01A838               |           63787083832

 2017-02-05 13:11:53.924721+01 | 1486296713.92472 | E/DBCE2730               |           63817262896

 2017-02-05 13:11:55.005146+01 | 1486296715.00515 | E/DD86BE98               |           63846137496

 2017-02-05 13:11:56.088145+01 | 1486296716.08815 | E/DF23B6F0               |           63873201904

 2017-02-05 13:11:57.166651+01 | 1486296717.16665 | E/E0C95040               |           63900831808

 2017-02-05 13:11:58.240248+01 | 1486296718.24025 | E/E26AACF0               |           63928184048

 2017-02-05 13:11:59.310099+01 | 1486296719.3101 | E/E40B1A48               |           63955475016

 2017-02-05 13:12:00.385275+01 | 1486296720.38527 | E/E59E97F0               |           63981918192

 2017-02-05 13:12:01.465542+01 | 1486296721.46554 | E/E74969F8               |           64009890296

 2017-02-05 13:12:02.536931+01 | 1486296722.53693 | E/E8F0BB40               |           64037632832

 2017-02-05 13:12:03.611275+01 | 1486296723.61127 | E/EA9E5D88               |           64065789320

 2017-02-05 13:12:04.682355+01 | 1486296724.68235 | E/EC38A1B0               |           64092676528

 2017-02-05 13:12:05.760134+01 | 1486296725.76013 | E/EDBE3760               |           64118208352

 2017-02-05 13:12:06.835107+01 | 1486296726.83511 | E/EF501C68               |           64144546920

 2017-02-05 13:12:07.912052+01 | 1486296727.91205 | E/F0C4C058               |           64168968280

 2017-02-05 13:12:08.990321+01 | 1486296728.99032 | E/F23E1648               |           64193697352

 2017-02-05 13:12:10.068378+01 | 1486296730.06838 | E/F3C73138               |           64219459896

 2017-02-05 13:12:11.141975+01 | 1486296731.14197 | E/F5404BE8               |           64244173800

 2017-02-05 13:12:12.218027+01 | 1486296732.21803 | E/F6C00B58               |           64269323096

 2017-02-05 13:12:13.296599+01 | 1486296733.2966 | E/F823B700               |           64292632320

 2017-02-05 13:12:14.369745+01 | 1486296734.36975 | E/F988EC90               |           64316042384

 2017-02-05 13:12:15.445874+01 | 1486296735.44587 | E/FAF8FCD0               |           64340163792

 2017-02-05 13:12:16.527393+01 | 1486296736.52739 | E/FC5A10E0               |           64363303136

 2017-02-05 13:12:17.602418+01 | 1486296737.60242 | E/FDA40180               |           64384926080

 2017-02-05 13:12:18.678511+01 | 1486296738.67851 | E/FEF9E470               |           64407331952

 2017-02-05 13:12:19.757195+01 | 1486296739.75719 | F/407718                 |           64428734232

 2017-02-05 13:12:20.827461+01 | 1486296740.82746 | F/1831188                |           64449876360

 2017-02-05 13:12:21.909311+01 | 1486296741.90931 | F/2BC6C00                |           64470412288

 2017-02-05 13:12:22.989431+01 | 1486296742.98943 | F/3C996D8                |           64488052440

 2017-02-05 13:12:24.065354+01 | 1486296744.06535 | F/4E50ED0                |           64506629840

 2017-02-05 13:12:25.141371+01 | 1486296745.14137 | F/60180E0                |           64525271264

 2017-02-05 13:12:26.214607+01 | 1486296746.21461 | F/71F4E70                |           64544001648

 2017-02-05 13:12:27.287361+01 | 1486296747.28736 | F/82CE9E0                |           64561670624

 2017-02-05 13:12:28.361392+01 | 1486296748.36139 | F/930CBD8                |           64578702296

 2017-02-05 13:12:29.434674+01 | 1486296749.43467 | F/A3ACB80                |           64596134784

 2017-02-05 13:12:30.508972+01 | 1486296750.50897 | F/B224FC8                |           64611307464

 2017-02-05 13:12:31.584367+01 | 1486296751.58437 | F/C2924C0                |           64628532416

 2017-02-05 13:12:32.660922+01 | 1486296752.66092 | F/D475588                |           64647288200

