 2017-02-04 02:10:24.241577+01 | 1486170624.24158 | 4D/7F9DB660              |          332853524064

 2017-02-04 02:10:25.321593+01 | 1486170625.32159 | 4D/86698200              |          332967543296

 2017-02-04 02:10:26.39446+01 | 1486170626.39446 | 4D/8E20FBB0              |          333097008048

 2017-02-04 02:10:27.472428+01 | 1486170627.47243 | 4D/95D17370              |          333226013552

 2017-02-04 02:10:28.555058+01 | 1486170628.55506 | 4D/9D72A5A0              |          333354018208

 2017-02-04 02:10:29.635937+01 | 1486170629.63594 | 4D/A6185128              |          333499093288

 2017-02-04 02:10:30.727388+01 | 1486170630.72739 | 4D/AE03E5E8              |          333631972840

 2017-02-04 02:10:31.814915+01 | 1486170631.81491 | 4D/B4D31100              |          333746213120

 2017-02-04 02:10:32.895966+01 | 1486170632.89597 | 4D/BB47FCD0              |          333854538960

 2017-02-04 02:10:33.977443+01 | 1486170633.97744 | 4D/C1FB98D0              |          333966973136

 2017-02-04 02:10:35.066755+01 | 1486170635.06676 | 4D/C8AB4690              |          334079149712

 2017-02-04 02:10:36.147277+01 | 1486170636.14728 | 4D/CF80DBF8              |          334193810424

 2017-02-04 02:10:37.235519+01 | 1486170637.23552 | 4D/D66FFCC8              |          334310145224

 2017-02-04 02:10:38.320906+01 | 1486170638.32091 | 4D/DB747040              |          334394323008

 2017-02-04 02:10:39.412702+01 | 1486170639.4127 | 4D/E2836A88              |          334512745096

 2017-02-04 02:10:40.502742+01 | 1486170640.50274 | 4D/EA3B2E88              |          334642228872

 2017-02-04 02:10:41.572525+01 | 1486170641.57253 | 4D/F00D2CC0              |          334739877056

 2017-02-04 02:10:42.65176+01 | 1486170642.65176 | 4D/F7985160              |          334866436448

 2017-02-04 02:10:43.728582+01 | 1486170643.72858 | 4D/FEF5AAE8              |          334989994728

 2017-02-04 02:10:44.802208+01 | 1486170644.80221 | 4E/67CAB18               |          335116282648

 2017-02-04 02:10:45.88818+01 | 1486170645.88818 | 4E/E665928               |          335249037608

 2017-02-04 02:10:46.963491+01 | 1486170646.96349 | 4E/161285C8              |          335377761736

 2017-02-04 02:10:48.03776+01 | 1486170648.03776 | 4E/1DF47C50              |          335510010960

 2017-02-04 02:10:49.12277+01 | 1486170649.12277 | 4E/2582E800              |          335636785152

 2017-02-04 02:10:50.213019+01 | 1486170650.21302 | 4E/2C77C208              |          335753495048

 2017-02-04 02:10:51.300122+01 | 1486170651.30012 | 4E/32DFBD78              |          335860972920

 2017-02-04 02:10:52.388637+01 | 1486170652.38864 | 4E/388F6DE8              |          335956372968

 2017-02-04 02:10:53.467249+01 | 1486170653.46725 | 4E/3FBD3150              |          336076812624

 2017-02-04 02:10:54.541554+01 | 1486170654.54155 | 4E/47277108              |          336201216264

 2017-02-04 02:10:55.630038+01 | 1486170655.63004 | 4E/4E856EE8              |          336324816616

 2017-02-04 02:10:56.715541+01 | 1486170656.71554 | 4E/5622B998              |          336452565400

 2017-02-04 02:10:57.792669+01 | 1486170657.79267 | 4E/5C8EC118              |          336560308504

 2017-02-04 02:10:58.873195+01 | 1486170658.87319 | 4E/6386F8B0              |          336677238960

 2017-02-04 02:10:59.939361+01 | 1486170659.93936 | 4E/6AA5A698              |          336796690072

 2017-02-04 02:11:01.013245+01 | 1486170661.01325 | 4E/71E22EC0              |          336918097600

 2017-02-04 02:11:02.099416+01 | 1486170662.09942 | 4E/78DFA598              |          337035371928

 2017-02-04 02:11:03.180129+01 | 1486170663.18013 | 4E/7FC96750              |          337151354704

 2017-02-04 02:11:04.266249+01 | 1486170664.26625 | 4E/86E50C10              |          337270606864

 2017-02-04 02:11:05.355693+01 | 1486170665.35569 | 4E/8DE21168              |          337387852136

 2017-02-04 02:11:06.417873+01 | 1486170666.41787 | 4E/948F9080              |          337499885696

 2017-02-04 02:11:07.498962+01 | 1486170667.49896 | 4E/9B531DB0              |          337613364656

 2017-02-04 02:11:08.588137+01 | 1486170668.58814 | 4E/A1E4E650              |          337723582032

 2017-02-04 02:11:09.655468+01 | 1486170669.65547 | 4E/A84F5AD8              |          337831221976

 2017-02-04 02:11:10.741479+01 | 1486170670.74148 | 4E/AE6C9410              |          337933800464

 2017-02-04 02:11:11.829828+01 | 1486170671.82983 | 4E/B4FDBEB0              |          338043977392

 2017-02-04 02:11:12.900885+01 | 1486170672.90089 | 4E/BB057540              |          338145146176

 2017-02-04 02:11:13.994948+01 | 1486170673.99495 | 4E/C0C6DE98              |          338241707672

 2017-02-04 02:11:15.077398+01 | 1486170675.0774 | 4E/C5E43250              |          338327515728

 2017-02-04 02:11:16.165676+01 | 1486170676.16568 | 4E/CB383A80              |          338416908928

 2017-02-04 02:11:17.24455+01 | 1486170677.24455 | 4E/D072CD38              |          338504633656

 2017-02-04 02:11:18.33725+01 | 1486170678.33725 | 4E/D5EC6810              |          338596489232

 2017-02-04 02:11:19.418811+01 | 1486170679.41881 | 4E/DB12AA00              |          338682882560

 2017-02-04 02:11:20.500731+01 | 1486170680.50073 | 4E/E0388938              |          338769250616

 2017-02-04 02:11:21.570488+01 | 1486170681.57049 | 4E/E536C6F0              |          338853021424

 2017-02-04 02:11:22.64646+01 | 1486170682.64646 | 4E/EA34A870              |          338936768624

 2017-02-04 02:11:23.737359+01 | 1486170683.73736 | 4E/EF1D7BA0              |          339019135904

 2017-02-04 02:11:24.812128+01 | 1486170684.81213 | 4E/F4B8A9D8              |          339113191896

 2017-02-04 02:11:25.903128+01 | 1486170685.90313 | 4E/FA3D7C40              |          339205782592

 2017-02-04 02:11:26.983708+01 | 1486170686.98371 | 4E/FFD21B80              |          339299408768

 2017-02-04 02:11:28.073017+01 | 1486170688.07302 | 4F/580B7A0               |          339394738080

 2017-02-04 02:11:29.155622+01 | 1486170689.15562 | 4F/A71C088               |          339477643400

 2017-02-04 02:11:30.234266+01 | 1486170690.23427 | 4F/F6542B0               |          339560710832

 2017-02-04 02:11:31.325421+01 | 1486170691.32542 | 4F/14218518              |          339640157464

 2017-02-04 02:11:32.418348+01 | 1486170692.41835 | 4F/184BAD80              |          339710029184

 2017-02-04 02:11:33.498914+01 | 1486170693.49891 | 4F/1D2D3020              |          339791917088

 2017-02-04 02:11:34.57038+01 | 1486170694.57038 | 4F/20FCCE98              |          339855855256

 2017-02-04 02:11:35.633238+01 | 1486170695.63324 | 4F/25D8E468              |          339937387624

 2017-02-04 02:11:36.727678+01 | 1486170696.72768 | 4F/2AB9D890              |          340019239056

 2017-02-04 02:11:37.819032+01 | 1486170697.81903 | 4F/2F390FC0              |          340094685120

 2017-02-04 02:11:38.911131+01 | 1486170698.91113 | 4F/33D6E870              |          340172138608

 2017-02-04 02:11:39.99675+01 | 1486170699.99675 | 4F/38A46C70              |          340252716144

 2017-02-04 02:11:41.084529+01 | 1486170701.08453 | 4F/3CE619D8              |          340324129240

 2017-02-04 02:11:42.165724+01 | 1486170702.16572 | 4F/413B9E80              |          340396842624

 2017-02-04 02:11:43.239001+01 | 1486170703.239 | 4F/45925648              |          340469634632

 2017-02-04 02:11:44.310098+01 | 1486170704.3101 | 4F/4996F360              |          340537045856

 2017-02-04 02:11:45.382068+01 | 1486170705.38207 | 4F/4DD037E8              |          340607907816

 2017-02-04 02:11:46.451243+01 | 1486170706.45124 | 4F/51E56D58              |          340676407432

 2017-02-04 02:11:47.532347+01 | 1486170707.53235 | 4F/567C4D08              |          340753403144

 2017-02-04 02:11:48.615573+01 | 1486170708.61557 | 4F/5A9CF5D8              |          340822652376

 2017-02-04 02:11:49.703722+01 | 1486170709.70372 | 4F/5E9CB850              |          340889745488

 2017-02-04 02:11:50.792405+01 | 1486170710.7924 | 4F/62CC88E0              |          340959987936

 2017-02-04 02:11:51.865799+01 | 1486170711.8658 | 4F/66A83B38              |          341024717624

 2017-02-04 02:11:52.944188+01 | 1486170712.94419 | 4F/6AA51498              |          341091619992

 2017-02-04 02:11:54.017984+01 | 1486170714.01798 | 4F/6E7F9368              |          341156270952

 2017-02-04 02:11:55.092731+01 | 1486170715.09273 | 4F/72B70D08              |          341227015432

 2017-02-04 02:11:56.17149+01 | 1486170716.17149 | 4F/765844B8              |          341287912632

 2017-02-04 02:11:57.245447+01 | 1486170717.24545 | 4F/7A06F1A8              |          341349691816

 2017-02-04 02:11:58.331412+01 | 1486170718.33141 | 4F/7DCAB908              |          341412854024

 2017-02-04 02:11:59.406289+01 | 1486170719.40629 | 4F/81B7B840              |          341478717504

 2017-02-04 02:12:00.484469+01 | 1486170720.48447 | 4F/855E5A98              |          341539969688

 2017-02-04 02:12:01.560309+01 | 1486170721.56031 | 4F/88EDCFC8              |          341599702984

 2017-02-04 02:12:02.635156+01 | 1486170722.63516 | 4F/8CA2E2D8              |          341661901528

 2017-02-04 02:12:03.719008+01 | 1486170723.71901 | 4F/90370FF8              |          341721944056

 2017-02-04 02:12:04.810146+01 | 1486170724.81015 | 4F/940AE040              |          341786157120

 2017-02-04 02:12:05.894215+01 | 1486170725.89422 | 4F/97941D98              |          341845482904

 2017-02-04 02:12:06.967468+01 | 1486170726.96747 | 4F/9B1B0038              |          341904654392

 2017-02-04 02:12:08.03822+01 | 1486170728.03822 | 4F/9E98B168              |          341963223400

 2017-02-04 02:12:09.120373+01 | 1486170729.12037 | 4F/A2338AB8              |          342023703224

 2017-02-04 02:12:10.188386+01 | 1486170730.18839 | 4F/A532C0C8              |          342073983176

 2017-02-04 02:12:11.278384+01 | 1486170731.27838 | 4F/A7EE40B8              |          342119825592

 2017-02-04 02:12:12.366066+01 | 1486170732.36607 | 4F/AAFF26C0              |          342171264704

 2017-02-04 02:12:13.442158+01 | 1486170733.44216 | 4F/ADBD2728              |          342217271080

 2017-02-04 02:12:14.533696+01 | 1486170734.5337 | 4F/B15950E8              |          342277837032

 2017-02-04 02:12:15.613189+01 | 1486170735.61319 | 4F/B44073D0              |          342326539216

 2017-02-04 02:12:16.691666+01 | 1486170736.69167 | 4F/B70F11F0              |          342373634544

 2017-02-04 02:12:17.778881+01 | 1486170737.77888 | 4F/B9C44A88              |          342419065480

 2017-02-04 02:12:18.862874+01 | 1486170738.86287 | 4F/BC556A90              |          342462130832

 2017-02-04 02:12:19.945368+01 | 1486170739.94537 | 4F/BEE768F0              |          342505253104

 2017-02-04 02:12:21.033885+01 | 1486170741.03389 | 4F/C191C468              |          342549972072

 2017-02-04 02:12:22.10801+01 | 1486170742.10801 | 4F/C56F6570              |          342614828400

 2017-02-04 02:12:23.195025+01 | 1486170743.19502 | 4F/C90DFA08              |          342675552776

 2017-02-04 02:12:24.272765+01 | 1486170744.27276 | 4F/CC971D48              |          342734871880

 2017-02-04 02:12:25.357936+01 | 1486170745.35794 | 4F/D02182B8              |          342794273464

 2017-02-04 02:12:26.447381+01 | 1486170746.44738 | 4F/D3DBA410              |          342856803344

 2017-02-04 02:12:27.528533+01 | 1486170747.52853 | 4F/D77092E0              |          342916895456

 2017-02-04 02:12:28.610452+01 | 1486170748.61045 | 4F/DADDA480              |          342974375040

 2017-02-04 02:12:29.691005+01 | 1486170749.691 | 4F/DE612D50              |          343033326928

 2017-02-04 02:12:30.780246+01 | 1486170750.78025 | 4F/E20D0DA8              |          343094922664

 2017-02-04 02:12:31.854868+01 | 1486170751.85487 | 4F/E56CE650              |          343151535696

 2017-02-04 02:12:32.943754+01 | 1486170752.94375 | 4F/E8DDDC80              |          343209270400

 2017-02-04 02:12:34.019289+01 | 1486170754.01929 | 4F/EC5991C0              |          343267709376

 2017-02-04 02:12:35.102193+01 | 1486170755.10219 | 4F/EFAA8368              |          343323345768

 2017-02-04 02:12:36.193464+01 | 1486170756.19346 | 4F/F2FF5F30              |          343379238704

 2017-02-04 02:12:37.280004+01 | 1486170757.28 | 4F/F68CA508              |          343438828808

 2017-02-04 02:12:38.368109+01 | 1486170758.36811 | 4F/F9F8FB08              |          343496260360

 2017-02-04 02:12:39.45293+01 | 1486170759.45293 | 4F/FD5104B0              |          343552361648

 2017-02-04 02:12:40.538439+01 | 1486170760.53844 | 50/970700                |          343607281408

 2017-02-04 02:12:41.624762+01 | 1486170761.62476 | 50/3E7AF28               |          343662898984

 2017-02-04 02:12:42.706914+01 | 1486170762.70691 | 50/7061FE0               |          343715225568

 2017-02-04 02:12:43.781238+01 | 1486170763.78124 | 50/A07E948               |          343765674312

 2017-02-04 02:12:44.861285+01 | 1486170764.86128 | 50/CCD4CD0               |          343812164816

 2017-02-04 02:12:45.950554+01 | 1486170765.95055 | 50/1011E408              |          343866991624

 2017-02-04 02:12:47.032801+01 | 1486170767.0328 | 50/13379608              |          343919793672

 2017-02-04 02:12:48.113598+01 | 1486170768.1136 | 50/164B57D8              |          343971420120

 2017-02-04 02:12:49.188921+01 | 1486170769.18892 | 50/1952B5D8              |          344022234584

 2017-02-04 02:12:50.265993+01 | 1486170770.26599 | 50/1BF92828              |          344066697256

 2017-02-04 02:12:51.346636+01 | 1486170771.34664 | 50/1EAB10E8              |          344111911144

 2017-02-04 02:12:52.437897+01 | 1486170772.4379 | 50/21A11398              |          344161588120

 2017-02-04 02:12:53.514263+01 | 1486170773.51426 | 50/245674D8              |          344207029464

 2017-02-04 02:12:54.586235+01 | 1486170774.58624 | 50/2725B0E0              |          344254165216

 2017-02-04 02:12:55.662126+01 | 1486170775.66213 | 50/2A09EC50              |          344302677072

 2017-02-04 02:12:56.737529+01 | 1486170776.73753 | 50/2D1CBE40              |          344354242112

 2017-02-04 02:12:57.811056+01 | 1486170777.81106 | 50/3002F738              |          344402884408

 2017-02-04 02:12:58.899325+01 | 1486170778.89932 | 50/32DC0F58              |          344450666328

 2017-02-04 02:12:59.970998+01 | 1486170779.971 | 50/35ED2258              |          344502116952

 2017-02-04 02:13:01.061205+01 | 1486170781.0612 | 50/38E352F0              |          344551805680

 2017-02-04 02:13:02.152203+01 | 1486170782.1522 | 50/3BCA50E8              |          344600498408

 2017-02-04 02:13:03.225495+01 | 1486170783.2255 | 50/3ED17C48              |          344651299912

 2017-02-04 02:13:04.309234+01 | 1486170784.30923 | 50/41EFCCD0              |          344703618256

 2017-02-04 02:13:05.395833+01 | 1486170785.39583 | 50/44E22E58              |          344753057368

 2017-02-04 02:13:06.485315+01 | 1486170786.48532 | 50/47C249A8              |          344801298856

 2017-02-04 02:13:07.558895+01 | 1486170787.5589 | 50/4AA97ED8              |          344850005720

 2017-02-04 02:13:08.648886+01 | 1486170788.64889 | 50/4DA49BC8              |          344900017096

 2017-02-04 02:13:09.726545+01 | 1486170789.72655 | 50/5082B2B0              |          344948126384

 2017-02-04 02:13:10.809143+01 | 1486170790.80914 | 50/53524568              |          344995284328

 2017-02-04 02:13:11.885768+01 | 1486170791.88577 | 50/566263F8              |          345046672376

 2017-02-04 02:13:12.961911+01 | 1486170792.96191 | 50/593F4F48              |          345094704968

 2017-02-04 02:13:14.044614+01 | 1486170794.04461 | 50/5C0146C8              |          345140971208

 2017-02-04 02:13:15.127495+01 | 1486170795.1275 | 50/5EC7A898              |          345187526808

 2017-02-04 02:13:16.210269+01 | 1486170796.21027 | 50/61C0B640              |          345237403200

 2017-02-04 02:13:17.301856+01 | 1486170797.30186 | 50/64836558              |          345283716440

 2017-02-04 02:13:18.374498+01 | 1486170798.3745 | 50/674B3D98              |          345330367896

 2017-02-04 02:13:19.447897+01 | 1486170799.4479 | 50/6A1A4108              |          345377489160

 2017-02-04 02:13:20.530244+01 | 1486170800.53024 | 50/6CEBCEA8              |          345424776872

 2017-02-04 02:13:21.616001+01 | 1486170801.616 | 50/6F928168              |          345469256040

 2017-02-04 02:13:22.703217+01 | 1486170802.70322 | 50/724A0CE8              |          345514839272

 2017-02-04 02:13:23.788545+01 | 1486170803.78854 | 50/752A44E8              |          345563088104

 2017-02-04 02:13:24.864189+01 | 1486170804.86419 | 50/77D850A0              |          345608048800

 2017-02-04 02:13:25.946659+01 | 1486170805.94666 | 50/7A838448              |          345652823112

 2017-02-04 02:13:27.036106+01 | 1486170807.03611 | 50/7D49C5A0              |          345699370400

 2017-02-04 02:13:28.122347+01 | 1486170808.12235 | 50/7FFCE620              |          345744664096

 2017-02-04 02:13:29.208877+01 | 1486170809.20888 | 50/829D9940              |          345788750144

 2017-02-04 02:13:30.302412+01 | 1486170810.30241 | 50/8572E0E0              |          345836282080

 2017-02-04 02:13:31.388822+01 | 1486170811.38882 | 50/8830F908              |          345882294536

 2017-02-04 02:13:32.468241+01 | 1486170812.46824 | 50/8AC097B8              |          345925261240

 2017-02-04 02:13:33.551595+01 | 1486170813.55159 | 50/8D744B98              |          345970592664

 2017-02-04 02:13:34.625083+01 | 1486170814.62508 | 50/8FF80DB0              |          346012782000

 2017-02-04 02:13:35.702028+01 | 1486170815.70203 | 50/92A62FA8              |          346057748392

 2017-02-04 02:13:36.781882+01 | 1486170816.78188 | 50/953C0828              |          346101123112

 2017-02-04 02:13:37.871159+01 | 1486170817.87116 | 50/97D47D80              |          346144669056

 2017-02-04 02:13:38.953743+01 | 1486170818.95374 | 50/9A72BA00              |          346188593664

 2017-02-04 02:13:40.04364+01 | 1486170820.04364 | 50/9CF83888              |          346230896776

 2017-02-04 02:13:41.130546+01 | 1486170821.13055 | 50/9F80C3C8              |          346273399752

 2017-02-04 02:13:42.214575+01 | 1486170822.21458 | 50/A2149C10              |          346316643344

 2017-02-04 02:13:43.289059+01 | 1486170823.28906 | 50/A4A4F4B8              |          346359657656

 2017-02-04 02:13:44.37688+01 | 1486170824.37688 | 50/A6CC43D8              |          346395788248

 2017-02-04 02:13:45.464101+01 | 1486170825.4641 | 50/A8DCBD90              |          346430422416

 2017-02-04 02:13:46.550388+01 | 1486170826.55039 | 50/AB034380              |          346466501504

 2017-02-04 02:13:47.637336+01 | 1486170827.63734 | 50/AD20B4C0              |          346501985472

 2017-02-04 02:13:48.689619+01 | 1486170828.68962 | 50/AF74BD50              |          346541047120

 2017-02-04 02:13:49.77535+01 | 1486170829.77535 | 50/B1EAB968              |          346582333800

 2017-02-04 02:13:50.861204+01 | 1486170830.8612 | 50/B47DAB28              |          346625518376

 2017-02-04 02:13:51.947548+01 | 1486170831.94755 | 50/B6FF0578              |          346667550072

 2017-02-04 02:13:53.036697+01 | 1486170833.0367 | 50/B9627348              |          346707620680

 2017-02-04 02:13:54.120904+01 | 1486170834.1209 | 50/BBECE5F0              |          346750248432

 2017-02-04 02:13:55.200705+01 | 1486170835.20071 | 50/BE28A6D8              |          346787718872

 2017-02-04 02:13:56.276085+01 | 1486170836.27608 | 50/BFC23880              |          346814560384

 2017-02-04 02:13:57.353196+01 | 1486170837.3532 | 50/C16A8F98              |          346842369944

 2017-02-04 02:13:58.434476+01 | 1486170838.43448 | 50/C2F28EE0              |          346868059872

 2017-02-04 02:13:59.525961+01 | 1486170839.52596 | 50/C4C62EE0              |          346898706144

 2017-02-04 02:14:00.613648+01 | 1486170840.61365 | 50/C6553E20              |          346924858912

 2017-02-04 02:14:01.698362+01 | 1486170841.69836 | 50/C8090DB0              |          346953420208

 2017-02-04 02:14:02.786565+01 | 1486170842.78657 | 50/C9AFA878              |          346981116024

 2017-02-04 02:14:03.865264+01 | 1486170843.86526 | 50/CB3D3C10              |          347007171600

 2017-02-04 02:14:04.957506+01 | 1486170844.95751 | 50/CCE9CFD8              |          347035258840

 2017-02-04 02:14:06.045121+01 | 1486170846.04512 | 50/CE5CE9A8              |          347059579304

 2017-02-04 02:14:07.126828+01 | 1486170847.12683 | 50/CFF617E0              |          347086395360

 2017-02-04 02:14:08.203963+01 | 1486170848.20396 | 50/D163C350              |          347110359888

 2017-02-04 02:14:09.293864+01 | 1486170849.29386 | 50/D2FA3130              |          347136995632

 2017-02-04 02:14:10.389373+01 | 1486170850.38937 | 50/D46DC588              |          347161347464

 2017-02-04 02:14:11.472699+01 | 1486170851.4727 | 50/D5A73D20              |          347181890848

 2017-02-04 02:14:12.556714+01 | 1486170852.55671 | 50/D6F05CF8              |          347203460344

 2017-02-04 02:14:13.640725+01 | 1486170853.64072 | 50/D837D4D0              |          347224921296

 2017-02-04 02:14:14.719511+01 | 1486170854.71951 | 50/D9715000              |          347245465600

 2017-02-04 02:14:15.809817+01 | 1486170855.80982 | 50/DAB0FA48              |          347266415176

 2017-02-04 02:14:16.8905+01 | 1486170856.8905 | 50/DC171680              |          347289884288

 2017-02-04 02:14:17.969771+01 | 1486170857.96977 | 50/DD74CD48              |          347312803144

 2017-02-04 02:14:19.042936+01 | 1486170859.04294 | 50/DECA03A0              |          347335164832

 2017-02-04 02:14:20.120741+01 | 1486170860.12074 | 50/E03E48E0              |          347359561952

 2017-02-04 02:14:21.199795+01 | 1486170861.1998 | 50/E1A5EFD0              |          347383132112

 2017-02-04 02:14:22.296114+01 | 1486170862.29611 | 50/E30FC640              |          347406845504

 2017-02-04 02:14:23.384472+01 | 1486170863.38447 | 50/E472D2F8              |          347430114040

 2017-02-04 02:14:24.469376+01 | 1486170864.46938 | 50/E5CB98E8              |          347452709096

 2017-02-04 02:14:25.54545+01 | 1486170865.54545 | 50/E72167F8              |          347475109880

 2017-02-04 02:14:26.622755+01 | 1486170866.62276 | 50/E88DD1D0              |          347498992080

 2017-02-04 02:14:27.689416+01 | 1486170867.68942 | 50/E9C73558              |          347519530328

 2017-02-04 02:14:28.769181+01 | 1486170868.76918 | 50/EB2D8760              |          347543013216

 2017-02-04 02:14:29.856649+01 | 1486170869.85665 | 50/EC7E2438              |          347565073464

 2017-02-04 02:14:30.937351+01 | 1486170870.93735 | 50/EDB91060              |          347585712224

 2017-02-04 02:14:32.027796+01 | 1486170872.0278 | 50/EF089790              |          347607701392

 2017-02-04 02:14:33.103913+01 | 1486170873.10391 | 50/F0474C40              |          347628588096

 2017-02-04 02:14:34.189056+01 | 1486170874.18906 | 50/F1A44098              |          347651457176

 2017-02-04 02:14:35.283261+01 | 1486170875.28326 | 50/F2D6B728              |          347671541544

 2017-02-04 02:14:36.364525+01 | 1486170876.36453 | 50/F422EF00              |          347693313792

 2017-02-04 02:14:37.448369+01 | 1486170877.44837 | 50/F55A65B0              |          347713725872

 2017-02-04 02:14:38.52055+01 | 1486170878.52055 | 50/F68D4440              |          347733836864

 2017-02-04 02:14:39.607723+01 | 1486170879.60772 | 50/F7CC2BF0              |          347754736624

 2017-02-04 02:14:40.693084+01 | 1486170880.69308 | 50/F8F45540              |          347774145856

 2017-02-04 02:14:41.773746+01 | 1486170881.77375 | 50/FA26A240              |          347794219584

 2017-02-04 02:14:42.86289+01 | 1486170882.86289 | 50/FB563B98              |          347814116248

 2017-02-04 02:14:43.952141+01 | 1486170883.95214 | 50/FC954170              |          347835023728

 2017-02-04 02:14:45.04093+01 | 1486170885.04093 | 50/FDB59998              |          347853920664

 2017-02-04 02:14:46.120277+01 | 1486170886.12028 | 50/FEC2A6B8              |          347871553208

 2017-02-04 02:14:47.213753+01 | 1486170887.21375 | 50/FFE7ECE0              |          347890773216

 2017-02-04 02:14:48.311508+01 | 1486170888.31151 | 51/11A8218               |          347910865432

 2017-02-04 02:14:49.39778+01 | 1486170889.39778 | 51/2525040               |          347931299904

 2017-02-04 02:14:50.481008+01 | 1486170890.48101 | 51/380C528               |          347951121704

 2017-02-04 02:14:51.560152+01 | 1486170891.56015 | 51/4923988               |          347969042824

 2017-02-04 02:14:52.648112+01 | 1486170892.64811 | 51/5B82AB0               |          347988306608

 2017-02-04 02:14:53.735293+01 | 1486170893.73529 | 51/6D21E78               |          348006784632

 2017-02-04 02:14:54.821422+01 | 1486170894.82142 | 51/7F2D6C0               |          348025706176

 2017-02-04 02:14:55.906639+01 | 1486170895.90664 | 51/8F228E0               |          348042438880

 2017-02-04 02:14:56.995243+01 | 1486170896.99524 | 51/9E76C30               |          348058512432

 2017-02-04 02:14:58.081525+01 | 1486170898.08153 | 51/AD4A7A0               |          348074059680

 2017-02-04 02:14:59.173357+01 | 1486170899.17336 | 51/BCE11A0               |          348090405280

 2017-02-04 02:15:00.251602+01 | 1486170900.2516 | 51/CBDC040               |          348106113088

 2017-02-04 02:15:01.340954+01 | 1486170901.34095 | 51/DCADB90               |          348123749264

 2017-02-04 02:15:02.423299+01 | 1486170902.4233 | 51/EDA70F8               |          348141547768

 2017-02-04 02:15:03.505717+01 | 1486170903.50572 | 51/FE40E38               |          348158955064

 2017-02-04 02:15:04.574684+01 | 1486170904.57468 | 51/10E1B310              |          348175577872

 2017-02-04 02:15:05.645765+01 | 1486170905.64577 | 51/11E27D60              |          348192406880

 2017-02-04 02:15:06.733963+01 | 1486170906.73396 | 51/12FCAD58              |          348210900312

 2017-02-04 02:15:07.810832+01 | 1486170907.81083 | 51/13FAE1D8              |          348227559896

 2017-02-04 02:15:08.892872+01 | 1486170908.89287 | 51/14F48438              |          348243919928

 2017-02-04 02:15:09.97856+01 | 1486170909.97856 | 51/15FD7110              |          348261282064

 2017-02-04 02:15:11.058246+01 | 1486170911.05825 | 51/16F9A038              |          348277809208

 2017-02-04 02:15:12.138535+01 | 1486170912.13854 | 51/17FE1BB0              |          348294880176

 2017-02-04 02:15:13.21844+01 | 1486170913.21844 | 51/18F10A20              |          348310800928

 2017-02-04 02:15:14.310137+01 | 1486170914.31014 | 51/1A0316E8              |          348328761064

 2017-02-04 02:15:15.401203+01 | 1486170915.4012 | 51/1B0BCA08              |          348346108424

 2017-02-04 02:15:16.485945+01 | 1486170916.48594 | 51/1C0A42F0              |          348362785520

 2017-02-04 02:15:17.572722+01 | 1486170917.57272 | 51/1D0E9140              |          348379844928

 2017-02-04 02:15:18.653746+01 | 1486170918.65375 | 51/1DF9B588              |          348395255176

 2017-02-04 02:15:19.738514+01 | 1486170919.73851 | 51/1EF79BB0              |          348411894704

 2017-02-04 02:15:20.83054+01 | 1486170920.83054 | 51/1FF73718              |          348428646168

 2017-02-04 02:15:21.920871+01 | 1486170921.92087 | 51/20F0EF00              |          348445011712

 2017-02-04 02:15:23.012995+01 | 1486170923.013 | 51/21E78D30              |          348461174064

 2017-02-04 02:15:24.09587+01 | 1486170924.09587 | 51/22D37660              |          348476634720

