 2017-02-04 00:14:35.705753+01 | 1486163675.70575 | pgbench_branches_pkey |            90112
 2017-02-04 00:14:35.705753+01 | 1486163675.70575 | pgbench_tellers_pkey  |           516096
 2017-02-04 00:14:35.705753+01 | 1486163675.70575 | pgbench_accounts_pkey |        224641024

 2017-02-04 00:14:36.803829+01 | 1486163676.80383 | pgbench_branches_pkey |            90112
 2017-02-04 00:14:36.803829+01 | 1486163676.80383 | pgbench_tellers_pkey  |           516096
 2017-02-04 00:14:36.803829+01 | 1486163676.80383 | pgbench_accounts_pkey |        224641024

 2017-02-04 00:14:37.896427+01 | 1486163677.89643 | pgbench_branches_pkey |            90112
 2017-02-04 00:14:37.896427+01 | 1486163677.89643 | pgbench_tellers_pkey  |           516096
 2017-02-04 00:14:37.896427+01 | 1486163677.89643 | pgbench_accounts_pkey |        224641024

 2017-02-04 00:14:38.997532+01 | 1486163678.99753 | pgbench_branches_pkey |            90112
 2017-02-04 00:14:38.997532+01 | 1486163678.99753 | pgbench_tellers_pkey  |           516096
 2017-02-04 00:14:38.997532+01 | 1486163678.99753 | pgbench_accounts_pkey |        224641024

 2017-02-04 00:14:40.089102+01 | 1486163680.0891 | pgbench_branches_pkey |            90112
 2017-02-04 00:14:40.089102+01 | 1486163680.0891 | pgbench_tellers_pkey  |           516096
 2017-02-04 00:14:40.089102+01 | 1486163680.0891 | pgbench_accounts_pkey |        224641024

 2017-02-04 00:14:41.173101+01 | 1486163681.1731 | pgbench_branches_pkey |            90112
 2017-02-04 00:14:41.173101+01 | 1486163681.1731 | pgbench_tellers_pkey  |           516096
 2017-02-04 00:14:41.173101+01 | 1486163681.1731 | pgbench_accounts_pkey |        224641024

 2017-02-04 00:14:42.263795+01 | 1486163682.26379 | pgbench_branches_pkey |            90112
 2017-02-04 00:14:42.263795+01 | 1486163682.26379 | pgbench_tellers_pkey  |           516096
 2017-02-04 00:14:42.263795+01 | 1486163682.26379 | pgbench_accounts_pkey |        224641024

 2017-02-04 00:14:43.348033+01 | 1486163683.34803 | pgbench_branches_pkey |            90112
 2017-02-04 00:14:43.348033+01 | 1486163683.34803 | pgbench_tellers_pkey  |           516096
 2017-02-04 00:14:43.348033+01 | 1486163683.34803 | pgbench_accounts_pkey |        224641024

 2017-02-04 00:14:44.437156+01 | 1486163684.43716 | pgbench_branches_pkey |            90112
 2017-02-04 00:14:44.437156+01 | 1486163684.43716 | pgbench_tellers_pkey  |           516096
 2017-02-04 00:14:44.437156+01 | 1486163684.43716 | pgbench_accounts_pkey |        224641024

 2017-02-04 00:14:45.532007+01 | 1486163685.53201 | pgbench_branches_pkey |            90112
 2017-02-04 00:14:45.532007+01 | 1486163685.53201 | pgbench_tellers_pkey  |           516096
 2017-02-04 00:14:45.532007+01 | 1486163685.53201 | pgbench_accounts_pkey |        224641024

 2017-02-04 00:14:46.62001+01 | 1486163686.62001 | pgbench_branches_pkey |            90112
 2017-02-04 00:14:46.62001+01 | 1486163686.62001 | pgbench_tellers_pkey  |           516096
 2017-02-04 00:14:46.62001+01 | 1486163686.62001 | pgbench_accounts_pkey |        224641024

 2017-02-04 00:14:47.712134+01 | 1486163687.71213 | pgbench_branches_pkey |            90112
 2017-02-04 00:14:47.712134+01 | 1486163687.71213 | pgbench_tellers_pkey  |           516096
 2017-02-04 00:14:47.712134+01 | 1486163687.71213 | pgbench_accounts_pkey |        224641024

 2017-02-04 00:14:48.807503+01 | 1486163688.8075 | pgbench_branches_pkey |            90112
 2017-02-04 00:14:48.807503+01 | 1486163688.8075 | pgbench_tellers_pkey  |           516096
 2017-02-04 00:14:48.807503+01 | 1486163688.8075 | pgbench_accounts_pkey |        224641024

 2017-02-04 00:14:49.903649+01 | 1486163689.90365 | pgbench_branches_pkey |            90112
 2017-02-04 00:14:49.903649+01 | 1486163689.90365 | pgbench_tellers_pkey  |           516096
 2017-02-04 00:14:49.903649+01 | 1486163689.90365 | pgbench_accounts_pkey |        224641024

 2017-02-04 00:14:50.998712+01 | 1486163690.99871 | pgbench_branches_pkey |            90112
 2017-02-04 00:14:50.998712+01 | 1486163690.99871 | pgbench_tellers_pkey  |           516096
 2017-02-04 00:14:50.998712+01 | 1486163690.99871 | pgbench_accounts_pkey |        224641024

 2017-02-04 00:14:52.084386+01 | 1486163692.08439 | pgbench_branches_pkey |            90112
 2017-02-04 00:14:52.084386+01 | 1486163692.08439 | pgbench_tellers_pkey  |           516096
 2017-02-04 00:14:52.084386+01 | 1486163692.08439 | pgbench_accounts_pkey |        224641024

 2017-02-04 00:14:53.179348+01 | 1486163693.17935 | pgbench_branches_pkey |            90112
 2017-02-04 00:14:53.179348+01 | 1486163693.17935 | pgbench_tellers_pkey  |           516096
 2017-02-04 00:14:53.179348+01 | 1486163693.17935 | pgbench_accounts_pkey |        224641024

 2017-02-04 00:14:54.271215+01 | 1486163694.27121 | pgbench_branches_pkey |            90112
 2017-02-04 00:14:54.271215+01 | 1486163694.27121 | pgbench_tellers_pkey  |           516096
 2017-02-04 00:14:54.271215+01 | 1486163694.27121 | pgbench_accounts_pkey |        224641024

 2017-02-04 00:14:55.358093+01 | 1486163695.35809 | pgbench_branches_pkey |            90112
 2017-02-04 00:14:55.358093+01 | 1486163695.35809 | pgbench_tellers_pkey  |           516096
 2017-02-04 00:14:55.358093+01 | 1486163695.35809 | pgbench_accounts_pkey |        224641024

 2017-02-04 00:14:56.463374+01 | 1486163696.46337 | pgbench_branches_pkey |            90112
 2017-02-04 00:14:56.463374+01 | 1486163696.46337 | pgbench_tellers_pkey  |           516096
 2017-02-04 00:14:56.463374+01 | 1486163696.46337 | pgbench_accounts_pkey |        224641024

 2017-02-04 00:14:57.553018+01 | 1486163697.55302 | pgbench_branches_pkey |            90112
 2017-02-04 00:14:57.553018+01 | 1486163697.55302 | pgbench_tellers_pkey  |           516096
 2017-02-04 00:14:57.553018+01 | 1486163697.55302 | pgbench_accounts_pkey |        224641024

 2017-02-04 00:14:58.635904+01 | 1486163698.6359 | pgbench_branches_pkey |            90112
 2017-02-04 00:14:58.635904+01 | 1486163698.6359 | pgbench_tellers_pkey  |           516096
 2017-02-04 00:14:58.635904+01 | 1486163698.6359 | pgbench_accounts_pkey |        224641024

 2017-02-04 00:14:59.721819+01 | 1486163699.72182 | pgbench_branches_pkey |            90112
 2017-02-04 00:14:59.721819+01 | 1486163699.72182 | pgbench_tellers_pkey  |           516096
 2017-02-04 00:14:59.721819+01 | 1486163699.72182 | pgbench_accounts_pkey |        224641024

 2017-02-04 00:15:00.807142+01 | 1486163700.80714 | pgbench_branches_pkey |            90112
 2017-02-04 00:15:00.807142+01 | 1486163700.80714 | pgbench_tellers_pkey  |           516096
 2017-02-04 00:15:00.807142+01 | 1486163700.80714 | pgbench_accounts_pkey |        224641024

 2017-02-04 00:15:01.894209+01 | 1486163701.89421 | pgbench_branches_pkey |            90112
 2017-02-04 00:15:01.894209+01 | 1486163701.89421 | pgbench_tellers_pkey  |           516096
 2017-02-04 00:15:01.894209+01 | 1486163701.89421 | pgbench_accounts_pkey |        224641024

 2017-02-04 00:15:02.983457+01 | 1486163702.98346 | pgbench_branches_pkey |            90112
 2017-02-04 00:15:02.983457+01 | 1486163702.98346 | pgbench_tellers_pkey  |           516096
 2017-02-04 00:15:02.983457+01 | 1486163702.98346 | pgbench_accounts_pkey |        224641024

 2017-02-04 00:15:04.067976+01 | 1486163704.06798 | pgbench_branches_pkey |            90112
 2017-02-04 00:15:04.067976+01 | 1486163704.06798 | pgbench_tellers_pkey  |           516096
 2017-02-04 00:15:04.067976+01 | 1486163704.06798 | pgbench_accounts_pkey |        224641024

 2017-02-04 00:15:05.166597+01 | 1486163705.1666 | pgbench_branches_pkey |            90112
 2017-02-04 00:15:05.166597+01 | 1486163705.1666 | pgbench_tellers_pkey  |           516096
 2017-02-04 00:15:05.166597+01 | 1486163705.1666 | pgbench_accounts_pkey |        224641024

 2017-02-04 00:15:06.255882+01 | 1486163706.25588 | pgbench_branches_pkey |            90112
 2017-02-04 00:15:06.255882+01 | 1486163706.25588 | pgbench_tellers_pkey  |           516096
 2017-02-04 00:15:06.255882+01 | 1486163706.25588 | pgbench_accounts_pkey |        224641024

 2017-02-04 00:15:07.347746+01 | 1486163707.34775 | pgbench_branches_pkey |            90112
 2017-02-04 00:15:07.347746+01 | 1486163707.34775 | pgbench_tellers_pkey  |           516096
 2017-02-04 00:15:07.347746+01 | 1486163707.34775 | pgbench_accounts_pkey |        224641024

 2017-02-04 00:15:08.453833+01 | 1486163708.45383 | pgbench_branches_pkey |            90112
 2017-02-04 00:15:08.453833+01 | 1486163708.45383 | pgbench_tellers_pkey  |           516096
 2017-02-04 00:15:08.453833+01 | 1486163708.45383 | pgbench_accounts_pkey |        224641024

 2017-02-04 00:15:09.549459+01 | 1486163709.54946 | pgbench_branches_pkey |            90112
 2017-02-04 00:15:09.549459+01 | 1486163709.54946 | pgbench_tellers_pkey  |           516096
 2017-02-04 00:15:09.549459+01 | 1486163709.54946 | pgbench_accounts_pkey |        224641024

 2017-02-04 00:15:10.628698+01 | 1486163710.6287 | pgbench_branches_pkey |            90112
 2017-02-04 00:15:10.628698+01 | 1486163710.6287 | pgbench_tellers_pkey  |           516096
 2017-02-04 00:15:10.628698+01 | 1486163710.6287 | pgbench_accounts_pkey |        224641024

 2017-02-04 00:15:11.714943+01 | 1486163711.71494 | pgbench_branches_pkey |            90112
 2017-02-04 00:15:11.714943+01 | 1486163711.71494 | pgbench_tellers_pkey  |           516096
 2017-02-04 00:15:11.714943+01 | 1486163711.71494 | pgbench_accounts_pkey |        224641024

 2017-02-04 00:15:12.803178+01 | 1486163712.80318 | pgbench_branches_pkey |            90112
 2017-02-04 00:15:12.803178+01 | 1486163712.80318 | pgbench_tellers_pkey  |           516096
 2017-02-04 00:15:12.803178+01 | 1486163712.80318 | pgbench_accounts_pkey |        224641024

 2017-02-04 00:15:13.897487+01 | 1486163713.89749 | pgbench_branches_pkey |            90112
 2017-02-04 00:15:13.897487+01 | 1486163713.89749 | pgbench_tellers_pkey  |           516096
 2017-02-04 00:15:13.897487+01 | 1486163713.89749 | pgbench_accounts_pkey |        224641024

 2017-02-04 00:15:14.980186+01 | 1486163714.98019 | pgbench_branches_pkey |            90112
 2017-02-04 00:15:14.980186+01 | 1486163714.98019 | pgbench_tellers_pkey  |           516096
 2017-02-04 00:15:14.980186+01 | 1486163714.98019 | pgbench_accounts_pkey |        224641024

 2017-02-04 00:15:16.071076+01 | 1486163716.07108 | pgbench_branches_pkey |            90112
 2017-02-04 00:15:16.071076+01 | 1486163716.07108 | pgbench_tellers_pkey  |           516096
 2017-02-04 00:15:16.071076+01 | 1486163716.07108 | pgbench_accounts_pkey |        224641024

 2017-02-04 00:15:17.164832+01 | 1486163717.16483 | pgbench_branches_pkey |            90112
 2017-02-04 00:15:17.164832+01 | 1486163717.16483 | pgbench_tellers_pkey  |           516096
 2017-02-04 00:15:17.164832+01 | 1486163717.16483 | pgbench_accounts_pkey |        224641024

 2017-02-04 00:15:18.257832+01 | 1486163718.25783 | pgbench_branches_pkey |            90112
 2017-02-04 00:15:18.257832+01 | 1486163718.25783 | pgbench_tellers_pkey  |           516096
 2017-02-04 00:15:18.257832+01 | 1486163718.25783 | pgbench_accounts_pkey |        224641024

 2017-02-04 00:15:19.344633+01 | 1486163719.34463 | pgbench_branches_pkey |            90112
 2017-02-04 00:15:19.344633+01 | 1486163719.34463 | pgbench_tellers_pkey  |           516096
 2017-02-04 00:15:19.344633+01 | 1486163719.34463 | pgbench_accounts_pkey |        224641024

 2017-02-04 00:15:20.430246+01 | 1486163720.43025 | pgbench_branches_pkey |            90112
 2017-02-04 00:15:20.430246+01 | 1486163720.43025 | pgbench_tellers_pkey  |           516096
 2017-02-04 00:15:20.430246+01 | 1486163720.43025 | pgbench_accounts_pkey |        224641024

 2017-02-04 00:15:21.519345+01 | 1486163721.51935 | pgbench_branches_pkey |            90112
 2017-02-04 00:15:21.519345+01 | 1486163721.51935 | pgbench_tellers_pkey  |           516096
 2017-02-04 00:15:21.519345+01 | 1486163721.51935 | pgbench_accounts_pkey |        224641024

 2017-02-04 00:15:22.605067+01 | 1486163722.60507 | pgbench_branches_pkey |            90112
 2017-02-04 00:15:22.605067+01 | 1486163722.60507 | pgbench_tellers_pkey  |           516096
 2017-02-04 00:15:22.605067+01 | 1486163722.60507 | pgbench_accounts_pkey |        224641024

 2017-02-04 00:15:23.690972+01 | 1486163723.69097 | pgbench_branches_pkey |            90112
 2017-02-04 00:15:23.690972+01 | 1486163723.69097 | pgbench_tellers_pkey  |           516096
 2017-02-04 00:15:23.690972+01 | 1486163723.69097 | pgbench_accounts_pkey |        224641024

 2017-02-04 00:15:24.775838+01 | 1486163724.77584 | pgbench_branches_pkey |            90112
 2017-02-04 00:15:24.775838+01 | 1486163724.77584 | pgbench_tellers_pkey  |           516096
 2017-02-04 00:15:24.775838+01 | 1486163724.77584 | pgbench_accounts_pkey |        224641024

 2017-02-04 00:15:25.876129+01 | 1486163725.87613 | pgbench_branches_pkey |            90112
 2017-02-04 00:15:25.876129+01 | 1486163725.87613 | pgbench_tellers_pkey  |           516096
 2017-02-04 00:15:25.876129+01 | 1486163725.87613 | pgbench_accounts_pkey |        224641024

 2017-02-04 00:15:26.966214+01 | 1486163726.96621 | pgbench_branches_pkey |            90112
 2017-02-04 00:15:26.966214+01 | 1486163726.96621 | pgbench_tellers_pkey  |           516096
 2017-02-04 00:15:26.966214+01 | 1486163726.96621 | pgbench_accounts_pkey |        224641024

 2017-02-04 00:15:28.054651+01 | 1486163728.05465 | pgbench_branches_pkey |            90112
 2017-02-04 00:15:28.054651+01 | 1486163728.05465 | pgbench_tellers_pkey  |           516096
 2017-02-04 00:15:28.054651+01 | 1486163728.05465 | pgbench_accounts_pkey |        224641024

 2017-02-04 00:15:29.149851+01 | 1486163729.14985 | pgbench_branches_pkey |            90112
 2017-02-04 00:15:29.149851+01 | 1486163729.14985 | pgbench_tellers_pkey  |           516096
 2017-02-04 00:15:29.149851+01 | 1486163729.14985 | pgbench_accounts_pkey |        224641024

 2017-02-04 00:15:30.231935+01 | 1486163730.23194 | pgbench_branches_pkey |            90112
 2017-02-04 00:15:30.231935+01 | 1486163730.23194 | pgbench_tellers_pkey  |           516096
 2017-02-04 00:15:30.231935+01 | 1486163730.23194 | pgbench_accounts_pkey |        224641024

 2017-02-04 00:15:31.323731+01 | 1486163731.32373 | pgbench_branches_pkey |            90112
 2017-02-04 00:15:31.323731+01 | 1486163731.32373 | pgbench_tellers_pkey  |           516096
 2017-02-04 00:15:31.323731+01 | 1486163731.32373 | pgbench_accounts_pkey |        224641024

 2017-02-04 00:15:32.412034+01 | 1486163732.41203 | pgbench_branches_pkey |            90112
 2017-02-04 00:15:32.412034+01 | 1486163732.41203 | pgbench_tellers_pkey  |           516096
 2017-02-04 00:15:32.412034+01 | 1486163732.41203 | pgbench_accounts_pkey |        224641024

 2017-02-04 00:15:33.510894+01 | 1486163733.51089 | pgbench_branches_pkey |            90112
 2017-02-04 00:15:33.510894+01 | 1486163733.51089 | pgbench_tellers_pkey  |           516096
 2017-02-04 00:15:33.510894+01 | 1486163733.51089 | pgbench_accounts_pkey |        224641024

 2017-02-04 00:15:34.59677+01 | 1486163734.59677 | pgbench_branches_pkey |            90112
 2017-02-04 00:15:34.59677+01 | 1486163734.59677 | pgbench_tellers_pkey  |           516096
 2017-02-04 00:15:34.59677+01 | 1486163734.59677 | pgbench_accounts_pkey |        224641024

 2017-02-04 00:15:35.683369+01 | 1486163735.68337 | pgbench_branches_pkey |            90112
 2017-02-04 00:15:35.683369+01 | 1486163735.68337 | pgbench_tellers_pkey  |           516096
 2017-02-04 00:15:35.683369+01 | 1486163735.68337 | pgbench_accounts_pkey |        224641024

 2017-02-04 00:15:36.765628+01 | 1486163736.76563 | pgbench_branches_pkey |            90112
 2017-02-04 00:15:36.765628+01 | 1486163736.76563 | pgbench_tellers_pkey  |           516096
 2017-02-04 00:15:36.765628+01 | 1486163736.76563 | pgbench_accounts_pkey |        224641024

 2017-02-04 00:15:37.851658+01 | 1486163737.85166 | pgbench_branches_pkey |            90112
 2017-02-04 00:15:37.851658+01 | 1486163737.85166 | pgbench_tellers_pkey  |           516096
 2017-02-04 00:15:37.851658+01 | 1486163737.85166 | pgbench_accounts_pkey |        224641024

 2017-02-04 00:15:38.932708+01 | 1486163738.93271 | pgbench_branches_pkey |            90112
 2017-02-04 00:15:38.932708+01 | 1486163738.93271 | pgbench_tellers_pkey  |           516096
 2017-02-04 00:15:38.932708+01 | 1486163738.93271 | pgbench_accounts_pkey |        224641024

 2017-02-04 00:15:40.037158+01 | 1486163740.03716 | pgbench_branches_pkey |            90112
 2017-02-04 00:15:40.037158+01 | 1486163740.03716 | pgbench_tellers_pkey  |           516096
 2017-02-04 00:15:40.037158+01 | 1486163740.03716 | pgbench_accounts_pkey |        224641024

 2017-02-04 00:15:41.131133+01 | 1486163741.13113 | pgbench_branches_pkey |            90112
 2017-02-04 00:15:41.131133+01 | 1486163741.13113 | pgbench_tellers_pkey  |           516096
 2017-02-04 00:15:41.131133+01 | 1486163741.13113 | pgbench_accounts_pkey |        224641024

 2017-02-04 00:15:42.218377+01 | 1486163742.21838 | pgbench_branches_pkey |            90112
 2017-02-04 00:15:42.218377+01 | 1486163742.21838 | pgbench_tellers_pkey  |           516096
 2017-02-04 00:15:42.218377+01 | 1486163742.21838 | pgbench_accounts_pkey |        224641024

 2017-02-04 00:15:43.308965+01 | 1486163743.30896 | pgbench_branches_pkey |            90112
 2017-02-04 00:15:43.308965+01 | 1486163743.30896 | pgbench_tellers_pkey  |           516096
 2017-02-04 00:15:43.308965+01 | 1486163743.30896 | pgbench_accounts_pkey |        224641024

 2017-02-04 00:15:44.394291+01 | 1486163744.39429 | pgbench_branches_pkey |            90112
 2017-02-04 00:15:44.394291+01 | 1486163744.39429 | pgbench_tellers_pkey  |           516096
 2017-02-04 00:15:44.394291+01 | 1486163744.39429 | pgbench_accounts_pkey |        224641024

 2017-02-04 00:15:45.480672+01 | 1486163745.48067 | pgbench_branches_pkey |            90112
 2017-02-04 00:15:45.480672+01 | 1486163745.48067 | pgbench_tellers_pkey  |           516096
 2017-02-04 00:15:45.480672+01 | 1486163745.48067 | pgbench_accounts_pkey |        224641024

 2017-02-04 00:15:46.563517+01 | 1486163746.56352 | pgbench_branches_pkey |            90112
 2017-02-04 00:15:46.563517+01 | 1486163746.56352 | pgbench_tellers_pkey  |           516096
 2017-02-04 00:15:46.563517+01 | 1486163746.56352 | pgbench_accounts_pkey |        224641024

 2017-02-04 00:15:47.655628+01 | 1486163747.65563 | pgbench_branches_pkey |            90112
 2017-02-04 00:15:47.655628+01 | 1486163747.65563 | pgbench_tellers_pkey  |           516096
 2017-02-04 00:15:47.655628+01 | 1486163747.65563 | pgbench_accounts_pkey |        224641024

 2017-02-04 00:15:48.735718+01 | 1486163748.73572 | pgbench_branches_pkey |            90112
 2017-02-04 00:15:48.735718+01 | 1486163748.73572 | pgbench_tellers_pkey  |           516096
 2017-02-04 00:15:48.735718+01 | 1486163748.73572 | pgbench_accounts_pkey |        224641024

 2017-02-04 00:15:49.822303+01 | 1486163749.8223 | pgbench_branches_pkey |            90112
 2017-02-04 00:15:49.822303+01 | 1486163749.8223 | pgbench_tellers_pkey  |           516096
 2017-02-04 00:15:49.822303+01 | 1486163749.8223 | pgbench_accounts_pkey |        224641024

 2017-02-04 00:15:50.914697+01 | 1486163750.9147 | pgbench_branches_pkey |            90112
 2017-02-04 00:15:50.914697+01 | 1486163750.9147 | pgbench_tellers_pkey  |           516096
 2017-02-04 00:15:50.914697+01 | 1486163750.9147 | pgbench_accounts_pkey |        224641024

 2017-02-04 00:15:51.998823+01 | 1486163751.99882 | pgbench_branches_pkey |            90112
 2017-02-04 00:15:51.998823+01 | 1486163751.99882 | pgbench_tellers_pkey  |           516096
 2017-02-04 00:15:51.998823+01 | 1486163751.99882 | pgbench_accounts_pkey |        224641024

 2017-02-04 00:15:53.095232+01 | 1486163753.09523 | pgbench_branches_pkey |            90112
 2017-02-04 00:15:53.095232+01 | 1486163753.09523 | pgbench_tellers_pkey  |           516096
 2017-02-04 00:15:53.095232+01 | 1486163753.09523 | pgbench_accounts_pkey |        224641024

 2017-02-04 00:15:54.180417+01 | 1486163754.18042 | pgbench_branches_pkey |            90112
 2017-02-04 00:15:54.180417+01 | 1486163754.18042 | pgbench_tellers_pkey  |           516096
 2017-02-04 00:15:54.180417+01 | 1486163754.18042 | pgbench_accounts_pkey |        224641024

 2017-02-04 00:15:55.274823+01 | 1486163755.27482 | pgbench_branches_pkey |            90112
 2017-02-04 00:15:55.274823+01 | 1486163755.27482 | pgbench_tellers_pkey  |           516096
 2017-02-04 00:15:55.274823+01 | 1486163755.27482 | pgbench_accounts_pkey |        224641024

 2017-02-04 00:15:56.359039+01 | 1486163756.35904 | pgbench_branches_pkey |            90112
 2017-02-04 00:15:56.359039+01 | 1486163756.35904 | pgbench_tellers_pkey  |           516096
 2017-02-04 00:15:56.359039+01 | 1486163756.35904 | pgbench_accounts_pkey |        224641024

 2017-02-04 00:15:57.454281+01 | 1486163757.45428 | pgbench_branches_pkey |            90112
 2017-02-04 00:15:57.454281+01 | 1486163757.45428 | pgbench_tellers_pkey  |           516096
 2017-02-04 00:15:57.454281+01 | 1486163757.45428 | pgbench_accounts_pkey |        224641024

 2017-02-04 00:15:58.537522+01 | 1486163758.53752 | pgbench_branches_pkey |            90112
 2017-02-04 00:15:58.537522+01 | 1486163758.53752 | pgbench_tellers_pkey  |           516096
 2017-02-04 00:15:58.537522+01 | 1486163758.53752 | pgbench_accounts_pkey |        224641024

 2017-02-04 00:15:59.637765+01 | 1486163759.63776 | pgbench_branches_pkey |            90112
 2017-02-04 00:15:59.637765+01 | 1486163759.63776 | pgbench_tellers_pkey  |           516096
 2017-02-04 00:15:59.637765+01 | 1486163759.63776 | pgbench_accounts_pkey |        224641024

 2017-02-04 00:16:00.703957+01 | 1486163760.70396 | pgbench_branches_pkey |            90112
 2017-02-04 00:16:00.703957+01 | 1486163760.70396 | pgbench_tellers_pkey  |           516096
 2017-02-04 00:16:00.703957+01 | 1486163760.70396 | pgbench_accounts_pkey |        224641024

 2017-02-04 00:16:01.783727+01 | 1486163761.78373 | pgbench_branches_pkey |            90112
 2017-02-04 00:16:01.783727+01 | 1486163761.78373 | pgbench_tellers_pkey  |           516096
 2017-02-04 00:16:01.783727+01 | 1486163761.78373 | pgbench_accounts_pkey |        224641024

 2017-02-04 00:16:02.879189+01 | 1486163762.87919 | pgbench_branches_pkey |            90112
 2017-02-04 00:16:02.879189+01 | 1486163762.87919 | pgbench_tellers_pkey  |           516096
 2017-02-04 00:16:02.879189+01 | 1486163762.87919 | pgbench_accounts_pkey |        224641024

 2017-02-04 00:16:03.975065+01 | 1486163763.97506 | pgbench_branches_pkey |            90112
 2017-02-04 00:16:03.975065+01 | 1486163763.97506 | pgbench_tellers_pkey  |           516096
 2017-02-04 00:16:03.975065+01 | 1486163763.97506 | pgbench_accounts_pkey |        224641024

 2017-02-04 00:16:05.059482+01 | 1486163765.05948 | pgbench_branches_pkey |            90112
 2017-02-04 00:16:05.059482+01 | 1486163765.05948 | pgbench_tellers_pkey  |           516096
 2017-02-04 00:16:05.059482+01 | 1486163765.05948 | pgbench_accounts_pkey |        224641024

 2017-02-04 00:16:06.148018+01 | 1486163766.14802 | pgbench_branches_pkey |            90112
 2017-02-04 00:16:06.148018+01 | 1486163766.14802 | pgbench_tellers_pkey  |           516096
 2017-02-04 00:16:06.148018+01 | 1486163766.14802 | pgbench_accounts_pkey |        224641024

 2017-02-04 00:16:07.234849+01 | 1486163767.23485 | pgbench_branches_pkey |            90112
 2017-02-04 00:16:07.234849+01 | 1486163767.23485 | pgbench_tellers_pkey  |           516096
 2017-02-04 00:16:07.234849+01 | 1486163767.23485 | pgbench_accounts_pkey |        224641024

 2017-02-04 00:16:08.324332+01 | 1486163768.32433 | pgbench_branches_pkey |            90112
 2017-02-04 00:16:08.324332+01 | 1486163768.32433 | pgbench_tellers_pkey  |           516096
 2017-02-04 00:16:08.324332+01 | 1486163768.32433 | pgbench_accounts_pkey |        224641024

 2017-02-04 00:16:09.419963+01 | 1486163769.41996 | pgbench_branches_pkey |            90112
 2017-02-04 00:16:09.419963+01 | 1486163769.41996 | pgbench_tellers_pkey  |           516096
 2017-02-04 00:16:09.419963+01 | 1486163769.41996 | pgbench_accounts_pkey |        224641024

 2017-02-04 00:16:10.50668+01 | 1486163770.50668 | pgbench_branches_pkey |            90112
 2017-02-04 00:16:10.50668+01 | 1486163770.50668 | pgbench_tellers_pkey  |           516096
 2017-02-04 00:16:10.50668+01 | 1486163770.50668 | pgbench_accounts_pkey |        224641024

 2017-02-04 00:16:11.603988+01 | 1486163771.60399 | pgbench_branches_pkey |            90112
 2017-02-04 00:16:11.603988+01 | 1486163771.60399 | pgbench_tellers_pkey  |           516096
 2017-02-04 00:16:11.603988+01 | 1486163771.60399 | pgbench_accounts_pkey |        224641024

 2017-02-04 00:16:12.692895+01 | 1486163772.69289 | pgbench_branches_pkey |            90112
 2017-02-04 00:16:12.692895+01 | 1486163772.69289 | pgbench_tellers_pkey  |           516096
 2017-02-04 00:16:12.692895+01 | 1486163772.69289 | pgbench_accounts_pkey |        224641024

 2017-02-04 00:16:13.773677+01 | 1486163773.77368 | pgbench_branches_pkey |            90112
 2017-02-04 00:16:13.773677+01 | 1486163773.77368 | pgbench_tellers_pkey  |           516096
 2017-02-04 00:16:13.773677+01 | 1486163773.77368 | pgbench_accounts_pkey |        224641024

 2017-02-04 00:16:14.856994+01 | 1486163774.85699 | pgbench_branches_pkey |            90112
 2017-02-04 00:16:14.856994+01 | 1486163774.85699 | pgbench_tellers_pkey  |           516096
 2017-02-04 00:16:14.856994+01 | 1486163774.85699 | pgbench_accounts_pkey |        224641024

 2017-02-04 00:16:15.943467+01 | 1486163775.94347 | pgbench_branches_pkey |            90112
 2017-02-04 00:16:15.943467+01 | 1486163775.94347 | pgbench_tellers_pkey  |           516096
 2017-02-04 00:16:15.943467+01 | 1486163775.94347 | pgbench_accounts_pkey |        224641024

 2017-02-04 00:16:17.023056+01 | 1486163777.02306 | pgbench_branches_pkey |            90112
 2017-02-04 00:16:17.023056+01 | 1486163777.02306 | pgbench_tellers_pkey  |           516096
 2017-02-04 00:16:17.023056+01 | 1486163777.02306 | pgbench_accounts_pkey |        224641024

 2017-02-04 00:16:18.11764+01 | 1486163778.11764 | pgbench_branches_pkey |            90112
 2017-02-04 00:16:18.11764+01 | 1486163778.11764 | pgbench_tellers_pkey  |           516096
 2017-02-04 00:16:18.11764+01 | 1486163778.11764 | pgbench_accounts_pkey |        224641024

 2017-02-04 00:16:19.201361+01 | 1486163779.20136 | pgbench_branches_pkey |            90112
 2017-02-04 00:16:19.201361+01 | 1486163779.20136 | pgbench_tellers_pkey  |           516096
 2017-02-04 00:16:19.201361+01 | 1486163779.20136 | pgbench_accounts_pkey |        224641024

 2017-02-04 00:16:20.283827+01 | 1486163780.28383 | pgbench_branches_pkey |            90112
 2017-02-04 00:16:20.283827+01 | 1486163780.28383 | pgbench_tellers_pkey  |           516096
 2017-02-04 00:16:20.283827+01 | 1486163780.28383 | pgbench_accounts_pkey |        224641024

 2017-02-04 00:16:21.377983+01 | 1486163781.37798 | pgbench_branches_pkey |            90112
 2017-02-04 00:16:21.377983+01 | 1486163781.37798 | pgbench_tellers_pkey  |           516096
 2017-02-04 00:16:21.377983+01 | 1486163781.37798 | pgbench_accounts_pkey |        224641024

 2017-02-04 00:16:22.468433+01 | 1486163782.46843 | pgbench_branches_pkey |            90112
 2017-02-04 00:16:22.468433+01 | 1486163782.46843 | pgbench_tellers_pkey  |           516096
 2017-02-04 00:16:22.468433+01 | 1486163782.46843 | pgbench_accounts_pkey |        224641024

 2017-02-04 00:16:23.565192+01 | 1486163783.56519 | pgbench_branches_pkey |            90112
 2017-02-04 00:16:23.565192+01 | 1486163783.56519 | pgbench_tellers_pkey  |           516096
 2017-02-04 00:16:23.565192+01 | 1486163783.56519 | pgbench_accounts_pkey |        224641024

 2017-02-04 00:16:24.650444+01 | 1486163784.65044 | pgbench_branches_pkey |            90112
 2017-02-04 00:16:24.650444+01 | 1486163784.65044 | pgbench_tellers_pkey  |           516096
 2017-02-04 00:16:24.650444+01 | 1486163784.65044 | pgbench_accounts_pkey |        224641024

 2017-02-04 00:16:25.732911+01 | 1486163785.73291 | pgbench_branches_pkey |            90112
 2017-02-04 00:16:25.732911+01 | 1486163785.73291 | pgbench_tellers_pkey  |           516096
 2017-02-04 00:16:25.732911+01 | 1486163785.73291 | pgbench_accounts_pkey |        224641024

 2017-02-04 00:16:26.81713+01 | 1486163786.81713 | pgbench_branches_pkey |            90112
 2017-02-04 00:16:26.81713+01 | 1486163786.81713 | pgbench_tellers_pkey  |           516096
 2017-02-04 00:16:26.81713+01 | 1486163786.81713 | pgbench_accounts_pkey |        224641024

 2017-02-04 00:16:27.901224+01 | 1486163787.90122 | pgbench_branches_pkey |            90112
 2017-02-04 00:16:27.901224+01 | 1486163787.90122 | pgbench_tellers_pkey  |           516096
 2017-02-04 00:16:27.901224+01 | 1486163787.90122 | pgbench_accounts_pkey |        224641024

 2017-02-04 00:16:28.991509+01 | 1486163788.99151 | pgbench_branches_pkey |            90112
 2017-02-04 00:16:28.991509+01 | 1486163788.99151 | pgbench_tellers_pkey  |           516096
 2017-02-04 00:16:28.991509+01 | 1486163788.99151 | pgbench_accounts_pkey |        224641024

 2017-02-04 00:16:30.080679+01 | 1486163790.08068 | pgbench_branches_pkey |            90112
 2017-02-04 00:16:30.080679+01 | 1486163790.08068 | pgbench_tellers_pkey  |           516096
 2017-02-04 00:16:30.080679+01 | 1486163790.08068 | pgbench_accounts_pkey |        224641024

 2017-02-04 00:16:31.170816+01 | 1486163791.17082 | pgbench_branches_pkey |            90112
 2017-02-04 00:16:31.170816+01 | 1486163791.17082 | pgbench_tellers_pkey  |           516096
 2017-02-04 00:16:31.170816+01 | 1486163791.17082 | pgbench_accounts_pkey |        224641024

 2017-02-04 00:16:32.262687+01 | 1486163792.26269 | pgbench_branches_pkey |            90112
 2017-02-04 00:16:32.262687+01 | 1486163792.26269 | pgbench_tellers_pkey  |           516096
 2017-02-04 00:16:32.262687+01 | 1486163792.26269 | pgbench_accounts_pkey |        224641024

 2017-02-04 00:16:33.353394+01 | 1486163793.35339 | pgbench_branches_pkey |            90112
 2017-02-04 00:16:33.353394+01 | 1486163793.35339 | pgbench_tellers_pkey  |           516096
 2017-02-04 00:16:33.353394+01 | 1486163793.35339 | pgbench_accounts_pkey |        224641024

 2017-02-04 00:16:34.45294+01 | 1486163794.45294 | pgbench_branches_pkey |            90112
 2017-02-04 00:16:34.45294+01 | 1486163794.45294 | pgbench_tellers_pkey  |           516096
 2017-02-04 00:16:34.45294+01 | 1486163794.45294 | pgbench_accounts_pkey |        224641024

 2017-02-04 00:16:35.542746+01 | 1486163795.54275 | pgbench_branches_pkey |            90112
 2017-02-04 00:16:35.542746+01 | 1486163795.54275 | pgbench_tellers_pkey  |           516096
 2017-02-04 00:16:35.542746+01 | 1486163795.54275 | pgbench_accounts_pkey |        224641024

 2017-02-04 00:16:36.638511+01 | 1486163796.63851 | pgbench_branches_pkey |            90112
 2017-02-04 00:16:36.638511+01 | 1486163796.63851 | pgbench_tellers_pkey  |           516096
 2017-02-04 00:16:36.638511+01 | 1486163796.63851 | pgbench_accounts_pkey |        224641024

 2017-02-04 00:16:37.719951+01 | 1486163797.71995 | pgbench_branches_pkey |            90112
 2017-02-04 00:16:37.719951+01 | 1486163797.71995 | pgbench_tellers_pkey  |           516096
 2017-02-04 00:16:37.719951+01 | 1486163797.71995 | pgbench_accounts_pkey |        224641024

 2017-02-04 00:16:38.802054+01 | 1486163798.80205 | pgbench_branches_pkey |            90112
 2017-02-04 00:16:38.802054+01 | 1486163798.80205 | pgbench_tellers_pkey  |           516096
 2017-02-04 00:16:38.802054+01 | 1486163798.80205 | pgbench_accounts_pkey |        224641024

 2017-02-04 00:16:39.891512+01 | 1486163799.89151 | pgbench_branches_pkey |            90112
 2017-02-04 00:16:39.891512+01 | 1486163799.89151 | pgbench_tellers_pkey  |           516096
 2017-02-04 00:16:39.891512+01 | 1486163799.89151 | pgbench_accounts_pkey |        224641024

 2017-02-04 00:16:40.983441+01 | 1486163800.98344 | pgbench_branches_pkey |            90112
 2017-02-04 00:16:40.983441+01 | 1486163800.98344 | pgbench_tellers_pkey  |           516096
 2017-02-04 00:16:40.983441+01 | 1486163800.98344 | pgbench_accounts_pkey |        224641024

 2017-02-04 00:16:42.072648+01 | 1486163802.07265 | pgbench_branches_pkey |            90112
 2017-02-04 00:16:42.072648+01 | 1486163802.07265 | pgbench_tellers_pkey  |           516096
 2017-02-04 00:16:42.072648+01 | 1486163802.07265 | pgbench_accounts_pkey |        224641024

 2017-02-04 00:16:43.158615+01 | 1486163803.15862 | pgbench_branches_pkey |            90112
 2017-02-04 00:16:43.158615+01 | 1486163803.15862 | pgbench_tellers_pkey  |           516096
 2017-02-04 00:16:43.158615+01 | 1486163803.15862 | pgbench_accounts_pkey |        224641024

 2017-02-04 00:16:44.257486+01 | 1486163804.25749 | pgbench_branches_pkey |            90112
 2017-02-04 00:16:44.257486+01 | 1486163804.25749 | pgbench_tellers_pkey  |           516096
 2017-02-04 00:16:44.257486+01 | 1486163804.25749 | pgbench_accounts_pkey |        224641024

 2017-02-04 00:16:45.344847+01 | 1486163805.34485 | pgbench_branches_pkey |            90112
 2017-02-04 00:16:45.344847+01 | 1486163805.34485 | pgbench_tellers_pkey  |           516096
 2017-02-04 00:16:45.344847+01 | 1486163805.34485 | pgbench_accounts_pkey |        224641024

 2017-02-04 00:16:46.439712+01 | 1486163806.43971 | pgbench_branches_pkey |            90112
 2017-02-04 00:16:46.439712+01 | 1486163806.43971 | pgbench_tellers_pkey  |           516096
 2017-02-04 00:16:46.439712+01 | 1486163806.43971 | pgbench_accounts_pkey |        224641024

 2017-02-04 00:16:47.530097+01 | 1486163807.5301 | pgbench_branches_pkey |            90112
 2017-02-04 00:16:47.530097+01 | 1486163807.5301 | pgbench_tellers_pkey  |           516096
 2017-02-04 00:16:47.530097+01 | 1486163807.5301 | pgbench_accounts_pkey |        224641024

 2017-02-04 00:16:48.615488+01 | 1486163808.61549 | pgbench_branches_pkey |            90112
 2017-02-04 00:16:48.615488+01 | 1486163808.61549 | pgbench_tellers_pkey  |           516096
 2017-02-04 00:16:48.615488+01 | 1486163808.61549 | pgbench_accounts_pkey |        224641024

 2017-02-04 00:16:49.706892+01 | 1486163809.70689 | pgbench_branches_pkey |            90112
 2017-02-04 00:16:49.706892+01 | 1486163809.70689 | pgbench_tellers_pkey  |           516096
 2017-02-04 00:16:49.706892+01 | 1486163809.70689 | pgbench_accounts_pkey |        224641024

 2017-02-04 00:16:50.789716+01 | 1486163810.78972 | pgbench_branches_pkey |            90112
 2017-02-04 00:16:50.789716+01 | 1486163810.78972 | pgbench_tellers_pkey  |           516096
 2017-02-04 00:16:50.789716+01 | 1486163810.78972 | pgbench_accounts_pkey |        224641024

 2017-02-04 00:16:51.878118+01 | 1486163811.87812 | pgbench_branches_pkey |            90112
 2017-02-04 00:16:51.878118+01 | 1486163811.87812 | pgbench_tellers_pkey  |           516096
 2017-02-04 00:16:51.878118+01 | 1486163811.87812 | pgbench_accounts_pkey |        224641024

 2017-02-04 00:16:52.959995+01 | 1486163812.96 | pgbench_branches_pkey |            90112
 2017-02-04 00:16:52.959995+01 | 1486163812.96 | pgbench_tellers_pkey  |           516096
 2017-02-04 00:16:52.959995+01 | 1486163812.96 | pgbench_accounts_pkey |        224641024

 2017-02-04 00:16:54.05279+01 | 1486163814.05279 | pgbench_branches_pkey |            90112
 2017-02-04 00:16:54.05279+01 | 1486163814.05279 | pgbench_tellers_pkey  |           516096
 2017-02-04 00:16:54.05279+01 | 1486163814.05279 | pgbench_accounts_pkey |        224641024

 2017-02-04 00:16:55.150059+01 | 1486163815.15006 | pgbench_branches_pkey |            90112
 2017-02-04 00:16:55.150059+01 | 1486163815.15006 | pgbench_tellers_pkey  |           516096
 2017-02-04 00:16:55.150059+01 | 1486163815.15006 | pgbench_accounts_pkey |        224641024

 2017-02-04 00:16:56.245076+01 | 1486163816.24508 | pgbench_branches_pkey |            90112
 2017-02-04 00:16:56.245076+01 | 1486163816.24508 | pgbench_tellers_pkey  |           516096
 2017-02-04 00:16:56.245076+01 | 1486163816.24508 | pgbench_accounts_pkey |        224641024

 2017-02-04 00:16:57.344259+01 | 1486163817.34426 | pgbench_branches_pkey |            90112
 2017-02-04 00:16:57.344259+01 | 1486163817.34426 | pgbench_tellers_pkey  |           516096
 2017-02-04 00:16:57.344259+01 | 1486163817.34426 | pgbench_accounts_pkey |        224641024

 2017-02-04 00:16:58.433558+01 | 1486163818.43356 | pgbench_branches_pkey |            90112
 2017-02-04 00:16:58.433558+01 | 1486163818.43356 | pgbench_tellers_pkey  |           516096
 2017-02-04 00:16:58.433558+01 | 1486163818.43356 | pgbench_accounts_pkey |        224641024

 2017-02-04 00:16:59.519189+01 | 1486163819.51919 | pgbench_branches_pkey |            90112
 2017-02-04 00:16:59.519189+01 | 1486163819.51919 | pgbench_tellers_pkey  |           516096
 2017-02-04 00:16:59.519189+01 | 1486163819.51919 | pgbench_accounts_pkey |        224641024

 2017-02-04 00:17:00.62084+01 | 1486163820.62084 | pgbench_branches_pkey |            90112
 2017-02-04 00:17:00.62084+01 | 1486163820.62084 | pgbench_tellers_pkey  |           516096
 2017-02-04 00:17:00.62084+01 | 1486163820.62084 | pgbench_accounts_pkey |        224641024

 2017-02-04 00:17:01.71119+01 | 1486163821.71119 | pgbench_branches_pkey |            90112
 2017-02-04 00:17:01.71119+01 | 1486163821.71119 | pgbench_tellers_pkey  |           516096
 2017-02-04 00:17:01.71119+01 | 1486163821.71119 | pgbench_accounts_pkey |        224641024

 2017-02-04 00:17:02.792982+01 | 1486163822.79298 | pgbench_branches_pkey |            90112
 2017-02-04 00:17:02.792982+01 | 1486163822.79298 | pgbench_tellers_pkey  |           516096
 2017-02-04 00:17:02.792982+01 | 1486163822.79298 | pgbench_accounts_pkey |        224641024

 2017-02-04 00:17:03.875272+01 | 1486163823.87527 | pgbench_branches_pkey |            90112
 2017-02-04 00:17:03.875272+01 | 1486163823.87527 | pgbench_tellers_pkey  |           516096
 2017-02-04 00:17:03.875272+01 | 1486163823.87527 | pgbench_accounts_pkey |        224641024

 2017-02-04 00:17:04.970445+01 | 1486163824.97044 | pgbench_branches_pkey |            90112
 2017-02-04 00:17:04.970445+01 | 1486163824.97044 | pgbench_tellers_pkey  |           516096
 2017-02-04 00:17:04.970445+01 | 1486163824.97044 | pgbench_accounts_pkey |        224641024

 2017-02-04 00:17:06.067818+01 | 1486163826.06782 | pgbench_branches_pkey |            90112
 2017-02-04 00:17:06.067818+01 | 1486163826.06782 | pgbench_tellers_pkey  |           516096
 2017-02-04 00:17:06.067818+01 | 1486163826.06782 | pgbench_accounts_pkey |        224641024

 2017-02-04 00:17:07.160706+01 | 1486163827.16071 | pgbench_branches_pkey |            90112
 2017-02-04 00:17:07.160706+01 | 1486163827.16071 | pgbench_tellers_pkey  |           516096
 2017-02-04 00:17:07.160706+01 | 1486163827.16071 | pgbench_accounts_pkey |        224641024

 2017-02-04 00:17:08.252006+01 | 1486163828.25201 | pgbench_branches_pkey |            90112
 2017-02-04 00:17:08.252006+01 | 1486163828.25201 | pgbench_tellers_pkey  |           516096
 2017-02-04 00:17:08.252006+01 | 1486163828.25201 | pgbench_accounts_pkey |        224641024

 2017-02-04 00:17:09.344383+01 | 1486163829.34438 | pgbench_branches_pkey |            90112
 2017-02-04 00:17:09.344383+01 | 1486163829.34438 | pgbench_tellers_pkey  |           516096
 2017-02-04 00:17:09.344383+01 | 1486163829.34438 | pgbench_accounts_pkey |        224641024

 2017-02-04 00:17:10.427656+01 | 1486163830.42766 | pgbench_branches_pkey |            90112
 2017-02-04 00:17:10.427656+01 | 1486163830.42766 | pgbench_tellers_pkey  |           516096
 2017-02-04 00:17:10.427656+01 | 1486163830.42766 | pgbench_accounts_pkey |        224641024

 2017-02-04 00:17:11.526795+01 | 1486163831.52679 | pgbench_branches_pkey |            90112
 2017-02-04 00:17:11.526795+01 | 1486163831.52679 | pgbench_tellers_pkey  |           516096
 2017-02-04 00:17:11.526795+01 | 1486163831.52679 | pgbench_accounts_pkey |        224641024

 2017-02-04 00:17:12.625276+01 | 1486163832.62528 | pgbench_branches_pkey |            90112
 2017-02-04 00:17:12.625276+01 | 1486163832.62528 | pgbench_tellers_pkey  |           516096
 2017-02-04 00:17:12.625276+01 | 1486163832.62528 | pgbench_accounts_pkey |        224641024

 2017-02-04 00:17:13.706892+01 | 1486163833.70689 | pgbench_branches_pkey |            90112
 2017-02-04 00:17:13.706892+01 | 1486163833.70689 | pgbench_tellers_pkey  |           516096
 2017-02-04 00:17:13.706892+01 | 1486163833.70689 | pgbench_accounts_pkey |        224641024

 2017-02-04 00:17:14.786997+01 | 1486163834.787 | pgbench_branches_pkey |            90112
 2017-02-04 00:17:14.786997+01 | 1486163834.787 | pgbench_tellers_pkey  |           516096
 2017-02-04 00:17:14.786997+01 | 1486163834.787 | pgbench_accounts_pkey |        224641024

 2017-02-04 00:17:15.865147+01 | 1486163835.86515 | pgbench_branches_pkey |            90112
 2017-02-04 00:17:15.865147+01 | 1486163835.86515 | pgbench_tellers_pkey  |           516096
 2017-02-04 00:17:15.865147+01 | 1486163835.86515 | pgbench_accounts_pkey |        224641024

 2017-02-04 00:17:16.948221+01 | 1486163836.94822 | pgbench_branches_pkey |            90112
 2017-02-04 00:17:16.948221+01 | 1486163836.94822 | pgbench_tellers_pkey  |           516096
 2017-02-04 00:17:16.948221+01 | 1486163836.94822 | pgbench_accounts_pkey |        224641024

 2017-02-04 00:17:18.038496+01 | 1486163838.0385 | pgbench_branches_pkey |            90112
 2017-02-04 00:17:18.038496+01 | 1486163838.0385 | pgbench_tellers_pkey  |           516096
 2017-02-04 00:17:18.038496+01 | 1486163838.0385 | pgbench_accounts_pkey |        224641024

 2017-02-04 00:17:19.125478+01 | 1486163839.12548 | pgbench_branches_pkey |            90112
 2017-02-04 00:17:19.125478+01 | 1486163839.12548 | pgbench_tellers_pkey  |           516096
 2017-02-04 00:17:19.125478+01 | 1486163839.12548 | pgbench_accounts_pkey |        224641024

 2017-02-04 00:17:20.222176+01 | 1486163840.22218 | pgbench_branches_pkey |            90112
 2017-02-04 00:17:20.222176+01 | 1486163840.22218 | pgbench_tellers_pkey  |           516096
 2017-02-04 00:17:20.222176+01 | 1486163840.22218 | pgbench_accounts_pkey |        224641024

 2017-02-04 00:17:21.307629+01 | 1486163841.30763 | pgbench_branches_pkey |            90112
 2017-02-04 00:17:21.307629+01 | 1486163841.30763 | pgbench_tellers_pkey  |           516096
 2017-02-04 00:17:21.307629+01 | 1486163841.30763 | pgbench_accounts_pkey |        224641024

 2017-02-04 00:17:22.402936+01 | 1486163842.40294 | pgbench_branches_pkey |            90112
 2017-02-04 00:17:22.402936+01 | 1486163842.40294 | pgbench_tellers_pkey  |           516096
 2017-02-04 00:17:22.402936+01 | 1486163842.40294 | pgbench_accounts_pkey |        224641024

 2017-02-04 00:17:23.486301+01 | 1486163843.4863 | pgbench_branches_pkey |            90112
 2017-02-04 00:17:23.486301+01 | 1486163843.4863 | pgbench_tellers_pkey  |           516096
 2017-02-04 00:17:23.486301+01 | 1486163843.4863 | pgbench_accounts_pkey |        224641024

 2017-02-04 00:17:24.582028+01 | 1486163844.58203 | pgbench_branches_pkey |            90112
 2017-02-04 00:17:24.582028+01 | 1486163844.58203 | pgbench_tellers_pkey  |           516096
 2017-02-04 00:17:24.582028+01 | 1486163844.58203 | pgbench_accounts_pkey |        224641024

 2017-02-04 00:17:25.684144+01 | 1486163845.68414 | pgbench_branches_pkey |            90112
 2017-02-04 00:17:25.684144+01 | 1486163845.68414 | pgbench_tellers_pkey  |           516096
 2017-02-04 00:17:25.684144+01 | 1486163845.68414 | pgbench_accounts_pkey |        224641024

 2017-02-04 00:17:26.770216+01 | 1486163846.77022 | pgbench_branches_pkey |            90112
 2017-02-04 00:17:26.770216+01 | 1486163846.77022 | pgbench_tellers_pkey  |           516096
 2017-02-04 00:17:26.770216+01 | 1486163846.77022 | pgbench_accounts_pkey |        224641024

 2017-02-04 00:17:27.851212+01 | 1486163847.85121 | pgbench_branches_pkey |            90112
 2017-02-04 00:17:27.851212+01 | 1486163847.85121 | pgbench_tellers_pkey  |           516096
 2017-02-04 00:17:27.851212+01 | 1486163847.85121 | pgbench_accounts_pkey |        224641024

 2017-02-04 00:17:28.937543+01 | 1486163848.93754 | pgbench_branches_pkey |            90112
 2017-02-04 00:17:28.937543+01 | 1486163848.93754 | pgbench_tellers_pkey  |           516096
 2017-02-04 00:17:28.937543+01 | 1486163848.93754 | pgbench_accounts_pkey |        224641024

 2017-02-04 00:17:30.027957+01 | 1486163850.02796 | pgbench_branches_pkey |            90112
 2017-02-04 00:17:30.027957+01 | 1486163850.02796 | pgbench_tellers_pkey  |           516096
 2017-02-04 00:17:30.027957+01 | 1486163850.02796 | pgbench_accounts_pkey |        224641024

 2017-02-04 00:17:31.126144+01 | 1486163851.12614 | pgbench_branches_pkey |            90112
 2017-02-04 00:17:31.126144+01 | 1486163851.12614 | pgbench_tellers_pkey  |           516096
 2017-02-04 00:17:31.126144+01 | 1486163851.12614 | pgbench_accounts_pkey |        224641024

 2017-02-04 00:17:32.217968+01 | 1486163852.21797 | pgbench_branches_pkey |            90112
 2017-02-04 00:17:32.217968+01 | 1486163852.21797 | pgbench_tellers_pkey  |           516096
 2017-02-04 00:17:32.217968+01 | 1486163852.21797 | pgbench_accounts_pkey |        224641024

 2017-02-04 00:17:33.306775+01 | 1486163853.30678 | pgbench_branches_pkey |            90112
 2017-02-04 00:17:33.306775+01 | 1486163853.30678 | pgbench_tellers_pkey  |           516096
 2017-02-04 00:17:33.306775+01 | 1486163853.30678 | pgbench_accounts_pkey |        224641024

 2017-02-04 00:17:34.393767+01 | 1486163854.39377 | pgbench_branches_pkey |            90112
 2017-02-04 00:17:34.393767+01 | 1486163854.39377 | pgbench_tellers_pkey  |           516096
 2017-02-04 00:17:34.393767+01 | 1486163854.39377 | pgbench_accounts_pkey |        224641024

 2017-02-04 00:17:35.476931+01 | 1486163855.47693 | pgbench_branches_pkey |            90112
 2017-02-04 00:17:35.476931+01 | 1486163855.47693 | pgbench_tellers_pkey  |           516096
 2017-02-04 00:17:35.476931+01 | 1486163855.47693 | pgbench_accounts_pkey |        224641024

 2017-02-04 00:17:36.566214+01 | 1486163856.56621 | pgbench_branches_pkey |            90112
 2017-02-04 00:17:36.566214+01 | 1486163856.56621 | pgbench_tellers_pkey  |           516096
 2017-02-04 00:17:36.566214+01 | 1486163856.56621 | pgbench_accounts_pkey |        224641024

 2017-02-04 00:17:37.663275+01 | 1486163857.66328 | pgbench_branches_pkey |            90112
 2017-02-04 00:17:37.663275+01 | 1486163857.66328 | pgbench_tellers_pkey  |           516096
 2017-02-04 00:17:37.663275+01 | 1486163857.66328 | pgbench_accounts_pkey |        224641024

 2017-02-04 00:17:38.755116+01 | 1486163858.75512 | pgbench_branches_pkey |            90112
 2017-02-04 00:17:38.755116+01 | 1486163858.75512 | pgbench_tellers_pkey  |           516096
 2017-02-04 00:17:38.755116+01 | 1486163858.75512 | pgbench_accounts_pkey |        224641024

 2017-02-04 00:17:39.837766+01 | 1486163859.83777 | pgbench_branches_pkey |            90112
 2017-02-04 00:17:39.837766+01 | 1486163859.83777 | pgbench_tellers_pkey  |           516096
 2017-02-04 00:17:39.837766+01 | 1486163859.83777 | pgbench_accounts_pkey |        224641024

 2017-02-04 00:17:40.919433+01 | 1486163860.91943 | pgbench_branches_pkey |            90112
 2017-02-04 00:17:40.919433+01 | 1486163860.91943 | pgbench_tellers_pkey  |           516096
 2017-02-04 00:17:40.919433+01 | 1486163860.91943 | pgbench_accounts_pkey |        224641024

 2017-02-04 00:17:42.00207+01 | 1486163862.00207 | pgbench_branches_pkey |            90112
 2017-02-04 00:17:42.00207+01 | 1486163862.00207 | pgbench_tellers_pkey  |           516096
 2017-02-04 00:17:42.00207+01 | 1486163862.00207 | pgbench_accounts_pkey |        224641024

 2017-02-04 00:17:43.08619+01 | 1486163863.08619 | pgbench_branches_pkey |            90112
 2017-02-04 00:17:43.08619+01 | 1486163863.08619 | pgbench_tellers_pkey  |           516096
 2017-02-04 00:17:43.08619+01 | 1486163863.08619 | pgbench_accounts_pkey |        224641024

 2017-02-04 00:17:44.177359+01 | 1486163864.17736 | pgbench_branches_pkey |            90112
 2017-02-04 00:17:44.177359+01 | 1486163864.17736 | pgbench_tellers_pkey  |           516096
 2017-02-04 00:17:44.177359+01 | 1486163864.17736 | pgbench_accounts_pkey |        224641024

 2017-02-04 00:17:45.260115+01 | 1486163865.26011 | pgbench_branches_pkey |            90112
 2017-02-04 00:17:45.260115+01 | 1486163865.26011 | pgbench_tellers_pkey  |           516096
 2017-02-04 00:17:45.260115+01 | 1486163865.26011 | pgbench_accounts_pkey |        224641024

 2017-02-04 00:17:46.351403+01 | 1486163866.3514 | pgbench_branches_pkey |            90112
 2017-02-04 00:17:46.351403+01 | 1486163866.3514 | pgbench_tellers_pkey  |           516096
 2017-02-04 00:17:46.351403+01 | 1486163866.3514 | pgbench_accounts_pkey |        224641024

 2017-02-04 00:17:47.444701+01 | 1486163867.4447 | pgbench_branches_pkey |            90112
 2017-02-04 00:17:47.444701+01 | 1486163867.4447 | pgbench_tellers_pkey  |           516096
 2017-02-04 00:17:47.444701+01 | 1486163867.4447 | pgbench_accounts_pkey |        224641024

 2017-02-04 00:17:48.536264+01 | 1486163868.53626 | pgbench_branches_pkey |            90112
 2017-02-04 00:17:48.536264+01 | 1486163868.53626 | pgbench_tellers_pkey  |           516096
 2017-02-04 00:17:48.536264+01 | 1486163868.53626 | pgbench_accounts_pkey |        224641024

 2017-02-04 00:17:49.631734+01 | 1486163869.63173 | pgbench_branches_pkey |            90112
 2017-02-04 00:17:49.631734+01 | 1486163869.63173 | pgbench_tellers_pkey  |           516096
 2017-02-04 00:17:49.631734+01 | 1486163869.63173 | pgbench_accounts_pkey |        224641024

 2017-02-04 00:17:50.726295+01 | 1486163870.72629 | pgbench_branches_pkey |            90112
 2017-02-04 00:17:50.726295+01 | 1486163870.72629 | pgbench_tellers_pkey  |           516096
 2017-02-04 00:17:50.726295+01 | 1486163870.72629 | pgbench_accounts_pkey |        224641024

 2017-02-04 00:17:51.810231+01 | 1486163871.81023 | pgbench_branches_pkey |            90112
 2017-02-04 00:17:51.810231+01 | 1486163871.81023 | pgbench_tellers_pkey  |           516096
 2017-02-04 00:17:51.810231+01 | 1486163871.81023 | pgbench_accounts_pkey |        224641024

 2017-02-04 00:17:52.897805+01 | 1486163872.8978 | pgbench_branches_pkey |            90112
 2017-02-04 00:17:52.897805+01 | 1486163872.8978 | pgbench_tellers_pkey  |           516096
 2017-02-04 00:17:52.897805+01 | 1486163872.8978 | pgbench_accounts_pkey |        224641024

 2017-02-04 00:17:53.979914+01 | 1486163873.97991 | pgbench_branches_pkey |            90112
 2017-02-04 00:17:53.979914+01 | 1486163873.97991 | pgbench_tellers_pkey  |           516096
 2017-02-04 00:17:53.979914+01 | 1486163873.97991 | pgbench_accounts_pkey |        224641024

 2017-02-04 00:17:55.067689+01 | 1486163875.06769 | pgbench_branches_pkey |            90112
 2017-02-04 00:17:55.067689+01 | 1486163875.06769 | pgbench_tellers_pkey  |           516096
 2017-02-04 00:17:55.067689+01 | 1486163875.06769 | pgbench_accounts_pkey |        224641024

 2017-02-04 00:17:56.149301+01 | 1486163876.1493 | pgbench_branches_pkey |            90112
 2017-02-04 00:17:56.149301+01 | 1486163876.1493 | pgbench_tellers_pkey  |           516096
 2017-02-04 00:17:56.149301+01 | 1486163876.1493 | pgbench_accounts_pkey |        224641024

 2017-02-04 00:17:57.240878+01 | 1486163877.24088 | pgbench_branches_pkey |            90112
 2017-02-04 00:17:57.240878+01 | 1486163877.24088 | pgbench_tellers_pkey  |           516096
 2017-02-04 00:17:57.240878+01 | 1486163877.24088 | pgbench_accounts_pkey |        224641024

 2017-02-04 00:17:58.331511+01 | 1486163878.33151 | pgbench_branches_pkey |            90112
 2017-02-04 00:17:58.331511+01 | 1486163878.33151 | pgbench_tellers_pkey  |           516096
 2017-02-04 00:17:58.331511+01 | 1486163878.33151 | pgbench_accounts_pkey |        224641024

 2017-02-04 00:17:59.421731+01 | 1486163879.42173 | pgbench_branches_pkey |            90112
 2017-02-04 00:17:59.421731+01 | 1486163879.42173 | pgbench_tellers_pkey  |           516096
 2017-02-04 00:17:59.421731+01 | 1486163879.42173 | pgbench_accounts_pkey |        224641024

 2017-02-04 00:18:00.513047+01 | 1486163880.51305 | pgbench_branches_pkey |            90112
 2017-02-04 00:18:00.513047+01 | 1486163880.51305 | pgbench_tellers_pkey  |           516096
 2017-02-04 00:18:00.513047+01 | 1486163880.51305 | pgbench_accounts_pkey |        224641024

 2017-02-04 00:18:01.616578+01 | 1486163881.61658 | pgbench_branches_pkey |            90112
 2017-02-04 00:18:01.616578+01 | 1486163881.61658 | pgbench_tellers_pkey  |           516096
 2017-02-04 00:18:01.616578+01 | 1486163881.61658 | pgbench_accounts_pkey |        224641024

 2017-02-04 00:18:02.707585+01 | 1486163882.70759 | pgbench_branches_pkey |            90112
 2017-02-04 00:18:02.707585+01 | 1486163882.70759 | pgbench_tellers_pkey  |           516096
 2017-02-04 00:18:02.707585+01 | 1486163882.70759 | pgbench_accounts_pkey |        224641024

 2017-02-04 00:18:03.794952+01 | 1486163883.79495 | pgbench_branches_pkey |            90112
 2017-02-04 00:18:03.794952+01 | 1486163883.79495 | pgbench_tellers_pkey  |           516096
 2017-02-04 00:18:03.794952+01 | 1486163883.79495 | pgbench_accounts_pkey |        224641024

 2017-02-04 00:18:04.878287+01 | 1486163884.87829 | pgbench_branches_pkey |            90112
 2017-02-04 00:18:04.878287+01 | 1486163884.87829 | pgbench_tellers_pkey  |           516096
 2017-02-04 00:18:04.878287+01 | 1486163884.87829 | pgbench_accounts_pkey |        224641024

 2017-02-04 00:18:05.958974+01 | 1486163885.95897 | pgbench_branches_pkey |            90112
 2017-02-04 00:18:05.958974+01 | 1486163885.95897 | pgbench_tellers_pkey  |           516096
 2017-02-04 00:18:05.958974+01 | 1486163885.95897 | pgbench_accounts_pkey |        224641024

 2017-02-04 00:18:07.038701+01 | 1486163887.0387 | pgbench_branches_pkey |            90112
 2017-02-04 00:18:07.038701+01 | 1486163887.0387 | pgbench_tellers_pkey  |           516096
 2017-02-04 00:18:07.038701+01 | 1486163887.0387 | pgbench_accounts_pkey |        224641024

 2017-02-04 00:18:08.1313+01 | 1486163888.1313 | pgbench_branches_pkey |            90112
 2017-02-04 00:18:08.1313+01 | 1486163888.1313 | pgbench_tellers_pkey  |           516096
 2017-02-04 00:18:08.1313+01 | 1486163888.1313 | pgbench_accounts_pkey |        224641024

 2017-02-04 00:18:09.232615+01 | 1486163889.23261 | pgbench_branches_pkey |            90112
 2017-02-04 00:18:09.232615+01 | 1486163889.23261 | pgbench_tellers_pkey  |           516096
 2017-02-04 00:18:09.232615+01 | 1486163889.23261 | pgbench_accounts_pkey |        224641024

 2017-02-04 00:18:10.323176+01 | 1486163890.32318 | pgbench_branches_pkey |            90112
 2017-02-04 00:18:10.323176+01 | 1486163890.32318 | pgbench_tellers_pkey  |           516096
 2017-02-04 00:18:10.323176+01 | 1486163890.32318 | pgbench_accounts_pkey |        224641024

 2017-02-04 00:18:11.41388+01 | 1486163891.41388 | pgbench_branches_pkey |            90112
 2017-02-04 00:18:11.41388+01 | 1486163891.41388 | pgbench_tellers_pkey  |           516096
 2017-02-04 00:18:11.41388+01 | 1486163891.41388 | pgbench_accounts_pkey |        224641024

 2017-02-04 00:18:12.498786+01 | 1486163892.49879 | pgbench_branches_pkey |            90112
 2017-02-04 00:18:12.498786+01 | 1486163892.49879 | pgbench_tellers_pkey  |           516096
 2017-02-04 00:18:12.498786+01 | 1486163892.49879 | pgbench_accounts_pkey |        224641024

 2017-02-04 00:18:13.587906+01 | 1486163893.58791 | pgbench_branches_pkey |            90112
 2017-02-04 00:18:13.587906+01 | 1486163893.58791 | pgbench_tellers_pkey  |           516096
 2017-02-04 00:18:13.587906+01 | 1486163893.58791 | pgbench_accounts_pkey |        224641024

 2017-02-04 00:18:14.672109+01 | 1486163894.67211 | pgbench_branches_pkey |            90112
 2017-02-04 00:18:14.672109+01 | 1486163894.67211 | pgbench_tellers_pkey  |           516096
 2017-02-04 00:18:14.672109+01 | 1486163894.67211 | pgbench_accounts_pkey |        224641024

 2017-02-04 00:18:15.747956+01 | 1486163895.74796 | pgbench_branches_pkey |            90112
 2017-02-04 00:18:15.747956+01 | 1486163895.74796 | pgbench_tellers_pkey  |           516096
 2017-02-04 00:18:15.747956+01 | 1486163895.74796 | pgbench_accounts_pkey |        224641024

 2017-02-04 00:18:16.827057+01 | 1486163896.82706 | pgbench_branches_pkey |            90112
 2017-02-04 00:18:16.827057+01 | 1486163896.82706 | pgbench_tellers_pkey  |           516096
 2017-02-04 00:18:16.827057+01 | 1486163896.82706 | pgbench_accounts_pkey |        224641024

 2017-02-04 00:18:17.908388+01 | 1486163897.90839 | pgbench_branches_pkey |            90112
 2017-02-04 00:18:17.908388+01 | 1486163897.90839 | pgbench_tellers_pkey  |           516096
 2017-02-04 00:18:17.908388+01 | 1486163897.90839 | pgbench_accounts_pkey |        224641024

 2017-02-04 00:18:18.989816+01 | 1486163898.98982 | pgbench_branches_pkey |            90112
 2017-02-04 00:18:18.989816+01 | 1486163898.98982 | pgbench_tellers_pkey  |           516096
 2017-02-04 00:18:18.989816+01 | 1486163898.98982 | pgbench_accounts_pkey |        224641024

 2017-02-04 00:18:20.073285+01 | 1486163900.07329 | pgbench_branches_pkey |            90112
 2017-02-04 00:18:20.073285+01 | 1486163900.07329 | pgbench_tellers_pkey  |           516096
 2017-02-04 00:18:20.073285+01 | 1486163900.07329 | pgbench_accounts_pkey |        224641024

 2017-02-04 00:18:21.169214+01 | 1486163901.16921 | pgbench_branches_pkey |            90112
 2017-02-04 00:18:21.169214+01 | 1486163901.16921 | pgbench_tellers_pkey  |           516096
 2017-02-04 00:18:21.169214+01 | 1486163901.16921 | pgbench_accounts_pkey |        224641024

 2017-02-04 00:18:22.26256+01 | 1486163902.26256 | pgbench_branches_pkey |            90112
 2017-02-04 00:18:22.26256+01 | 1486163902.26256 | pgbench_tellers_pkey  |           516096
 2017-02-04 00:18:22.26256+01 | 1486163902.26256 | pgbench_accounts_pkey |        224641024

 2017-02-04 00:18:23.349612+01 | 1486163903.34961 | pgbench_branches_pkey |            90112
 2017-02-04 00:18:23.349612+01 | 1486163903.34961 | pgbench_tellers_pkey  |           516096
 2017-02-04 00:18:23.349612+01 | 1486163903.34961 | pgbench_accounts_pkey |        224641024

 2017-02-04 00:18:24.438361+01 | 1486163904.43836 | pgbench_branches_pkey |            90112
 2017-02-04 00:18:24.438361+01 | 1486163904.43836 | pgbench_tellers_pkey  |           516096
 2017-02-04 00:18:24.438361+01 | 1486163904.43836 | pgbench_accounts_pkey |        224641024

 2017-02-04 00:18:25.526122+01 | 1486163905.52612 | pgbench_branches_pkey |            90112
 2017-02-04 00:18:25.526122+01 | 1486163905.52612 | pgbench_tellers_pkey  |           516096
 2017-02-04 00:18:25.526122+01 | 1486163905.52612 | pgbench_accounts_pkey |        224641024

 2017-02-04 00:18:26.613394+01 | 1486163906.61339 | pgbench_branches_pkey |            90112
 2017-02-04 00:18:26.613394+01 | 1486163906.61339 | pgbench_tellers_pkey  |           516096
 2017-02-04 00:18:26.613394+01 | 1486163906.61339 | pgbench_accounts_pkey |        224641024

 2017-02-04 00:18:27.701419+01 | 1486163907.70142 | pgbench_branches_pkey |            90112
 2017-02-04 00:18:27.701419+01 | 1486163907.70142 | pgbench_tellers_pkey  |           516096
 2017-02-04 00:18:27.701419+01 | 1486163907.70142 | pgbench_accounts_pkey |        224641024

 2017-02-04 00:18:28.790216+01 | 1486163908.79022 | pgbench_branches_pkey |            90112
 2017-02-04 00:18:28.790216+01 | 1486163908.79022 | pgbench_tellers_pkey  |           516096
 2017-02-04 00:18:28.790216+01 | 1486163908.79022 | pgbench_accounts_pkey |        224641024

 2017-02-04 00:18:29.869763+01 | 1486163909.86976 | pgbench_branches_pkey |            90112
 2017-02-04 00:18:29.869763+01 | 1486163909.86976 | pgbench_tellers_pkey  |           516096
 2017-02-04 00:18:29.869763+01 | 1486163909.86976 | pgbench_accounts_pkey |        224641024

 2017-02-04 00:18:30.949272+01 | 1486163910.94927 | pgbench_branches_pkey |            90112
 2017-02-04 00:18:30.949272+01 | 1486163910.94927 | pgbench_tellers_pkey  |           516096
 2017-02-04 00:18:30.949272+01 | 1486163910.94927 | pgbench_accounts_pkey |        224641024

 2017-02-04 00:18:32.028837+01 | 1486163912.02884 | pgbench_branches_pkey |            90112
 2017-02-04 00:18:32.028837+01 | 1486163912.02884 | pgbench_tellers_pkey  |           516096
 2017-02-04 00:18:32.028837+01 | 1486163912.02884 | pgbench_accounts_pkey |        224641024

 2017-02-04 00:18:33.119245+01 | 1486163913.11925 | pgbench_branches_pkey |            90112
 2017-02-04 00:18:33.119245+01 | 1486163913.11925 | pgbench_tellers_pkey  |           516096
 2017-02-04 00:18:33.119245+01 | 1486163913.11925 | pgbench_accounts_pkey |        224641024

 2017-02-04 00:18:34.208412+01 | 1486163914.20841 | pgbench_branches_pkey |            90112
 2017-02-04 00:18:34.208412+01 | 1486163914.20841 | pgbench_tellers_pkey  |           516096
 2017-02-04 00:18:34.208412+01 | 1486163914.20841 | pgbench_accounts_pkey |        224641024

 2017-02-04 00:18:35.301654+01 | 1486163915.30165 | pgbench_branches_pkey |            90112
 2017-02-04 00:18:35.301654+01 | 1486163915.30165 | pgbench_tellers_pkey  |           516096
 2017-02-04 00:18:35.301654+01 | 1486163915.30165 | pgbench_accounts_pkey |        224641024

 2017-02-04 00:18:36.387403+01 | 1486163916.3874 | pgbench_branches_pkey |            90112
 2017-02-04 00:18:36.387403+01 | 1486163916.3874 | pgbench_tellers_pkey  |           516096
 2017-02-04 00:18:36.387403+01 | 1486163916.3874 | pgbench_accounts_pkey |        224641024

 2017-02-04 00:18:37.479312+01 | 1486163917.47931 | pgbench_branches_pkey |            90112
 2017-02-04 00:18:37.479312+01 | 1486163917.47931 | pgbench_tellers_pkey  |           516096
 2017-02-04 00:18:37.479312+01 | 1486163917.47931 | pgbench_accounts_pkey |        224641024

 2017-02-04 00:18:38.568158+01 | 1486163918.56816 | pgbench_branches_pkey |            90112
 2017-02-04 00:18:38.568158+01 | 1486163918.56816 | pgbench_tellers_pkey  |           516096
 2017-02-04 00:18:38.568158+01 | 1486163918.56816 | pgbench_accounts_pkey |        224641024

 2017-02-04 00:18:39.655922+01 | 1486163919.65592 | pgbench_branches_pkey |            90112
 2017-02-04 00:18:39.655922+01 | 1486163919.65592 | pgbench_tellers_pkey  |           516096
 2017-02-04 00:18:39.655922+01 | 1486163919.65592 | pgbench_accounts_pkey |        224641024

 2017-02-04 00:18:40.747402+01 | 1486163920.7474 | pgbench_branches_pkey |            90112
 2017-02-04 00:18:40.747402+01 | 1486163920.7474 | pgbench_tellers_pkey  |           516096
 2017-02-04 00:18:40.747402+01 | 1486163920.7474 | pgbench_accounts_pkey |        224641024

 2017-02-04 00:18:41.83136+01 | 1486163921.83136 | pgbench_branches_pkey |            90112
 2017-02-04 00:18:41.83136+01 | 1486163921.83136 | pgbench_tellers_pkey  |           516096
 2017-02-04 00:18:41.83136+01 | 1486163921.83136 | pgbench_accounts_pkey |        224641024

 2017-02-04 00:18:42.91193+01 | 1486163922.91193 | pgbench_branches_pkey |            90112
 2017-02-04 00:18:42.91193+01 | 1486163922.91193 | pgbench_tellers_pkey  |           516096
 2017-02-04 00:18:42.91193+01 | 1486163922.91193 | pgbench_accounts_pkey |        224641024

 2017-02-04 00:18:43.994396+01 | 1486163923.9944 | pgbench_branches_pkey |            90112
 2017-02-04 00:18:43.994396+01 | 1486163923.9944 | pgbench_tellers_pkey  |           516096
 2017-02-04 00:18:43.994396+01 | 1486163923.9944 | pgbench_accounts_pkey |        224641024

 2017-02-04 00:18:45.075907+01 | 1486163925.07591 | pgbench_branches_pkey |            90112
 2017-02-04 00:18:45.075907+01 | 1486163925.07591 | pgbench_tellers_pkey  |           516096
 2017-02-04 00:18:45.075907+01 | 1486163925.07591 | pgbench_accounts_pkey |        224641024

 2017-02-04 00:18:46.165467+01 | 1486163926.16547 | pgbench_branches_pkey |            90112
 2017-02-04 00:18:46.165467+01 | 1486163926.16547 | pgbench_tellers_pkey  |           516096
 2017-02-04 00:18:46.165467+01 | 1486163926.16547 | pgbench_accounts_pkey |        224641024

 2017-02-04 00:18:47.247366+01 | 1486163927.24737 | pgbench_branches_pkey |            90112
 2017-02-04 00:18:47.247366+01 | 1486163927.24737 | pgbench_tellers_pkey  |           516096
 2017-02-04 00:18:47.247366+01 | 1486163927.24737 | pgbench_accounts_pkey |        224641024

 2017-02-04 00:18:48.348655+01 | 1486163928.34865 | pgbench_branches_pkey |            90112
 2017-02-04 00:18:48.348655+01 | 1486163928.34865 | pgbench_tellers_pkey  |           516096
 2017-02-04 00:18:48.348655+01 | 1486163928.34865 | pgbench_accounts_pkey |        224641024

 2017-02-04 00:18:49.447054+01 | 1486163929.44705 | pgbench_branches_pkey |            90112
 2017-02-04 00:18:49.447054+01 | 1486163929.44705 | pgbench_tellers_pkey  |           516096
 2017-02-04 00:18:49.447054+01 | 1486163929.44705 | pgbench_accounts_pkey |        224641024

 2017-02-04 00:18:50.529347+01 | 1486163930.52935 | pgbench_branches_pkey |            90112
 2017-02-04 00:18:50.529347+01 | 1486163930.52935 | pgbench_tellers_pkey  |           516096
 2017-02-04 00:18:50.529347+01 | 1486163930.52935 | pgbench_accounts_pkey |        224641024

 2017-02-04 00:18:51.626727+01 | 1486163931.62673 | pgbench_branches_pkey |            90112
 2017-02-04 00:18:51.626727+01 | 1486163931.62673 | pgbench_tellers_pkey  |           516096
 2017-02-04 00:18:51.626727+01 | 1486163931.62673 | pgbench_accounts_pkey |        224641024

 2017-02-04 00:18:52.715474+01 | 1486163932.71547 | pgbench_branches_pkey |            90112
 2017-02-04 00:18:52.715474+01 | 1486163932.71547 | pgbench_tellers_pkey  |           516096
 2017-02-04 00:18:52.715474+01 | 1486163932.71547 | pgbench_accounts_pkey |        224641024

 2017-02-04 00:18:53.803698+01 | 1486163933.8037 | pgbench_branches_pkey |            90112
 2017-02-04 00:18:53.803698+01 | 1486163933.8037 | pgbench_tellers_pkey  |           516096
 2017-02-04 00:18:53.803698+01 | 1486163933.8037 | pgbench_accounts_pkey |        224641024

 2017-02-04 00:18:54.893205+01 | 1486163934.8932 | pgbench_branches_pkey |            90112
 2017-02-04 00:18:54.893205+01 | 1486163934.8932 | pgbench_tellers_pkey  |           516096
 2017-02-04 00:18:54.893205+01 | 1486163934.8932 | pgbench_accounts_pkey |        224641024

 2017-02-04 00:18:55.959553+01 | 1486163935.95955 | pgbench_branches_pkey |            90112
 2017-02-04 00:18:55.959553+01 | 1486163935.95955 | pgbench_tellers_pkey  |           516096
 2017-02-04 00:18:55.959553+01 | 1486163935.95955 | pgbench_accounts_pkey |        224641024

 2017-02-04 00:18:57.03661+01 | 1486163937.03661 | pgbench_branches_pkey |            90112
 2017-02-04 00:18:57.03661+01 | 1486163937.03661 | pgbench_tellers_pkey  |           516096
 2017-02-04 00:18:57.03661+01 | 1486163937.03661 | pgbench_accounts_pkey |        224641024

 2017-02-04 00:18:58.117243+01 | 1486163938.11724 | pgbench_branches_pkey |            90112
 2017-02-04 00:18:58.117243+01 | 1486163938.11724 | pgbench_tellers_pkey  |           516096
 2017-02-04 00:18:58.117243+01 | 1486163938.11724 | pgbench_accounts_pkey |        224641024

 2017-02-04 00:18:59.217446+01 | 1486163939.21745 | pgbench_branches_pkey |            90112
 2017-02-04 00:18:59.217446+01 | 1486163939.21745 | pgbench_tellers_pkey  |           516096
 2017-02-04 00:18:59.217446+01 | 1486163939.21745 | pgbench_accounts_pkey |        224641024

 2017-02-04 00:19:00.309863+01 | 1486163940.30986 | pgbench_branches_pkey |            90112
 2017-02-04 00:19:00.309863+01 | 1486163940.30986 | pgbench_tellers_pkey  |           516096
 2017-02-04 00:19:00.309863+01 | 1486163940.30986 | pgbench_accounts_pkey |        224641024

 2017-02-04 00:19:01.398293+01 | 1486163941.39829 | pgbench_branches_pkey |            90112
 2017-02-04 00:19:01.398293+01 | 1486163941.39829 | pgbench_tellers_pkey  |           516096
 2017-02-04 00:19:01.398293+01 | 1486163941.39829 | pgbench_accounts_pkey |        224641024

 2017-02-04 00:19:02.481706+01 | 1486163942.48171 | pgbench_branches_pkey |            90112
 2017-02-04 00:19:02.481706+01 | 1486163942.48171 | pgbench_tellers_pkey  |           516096
 2017-02-04 00:19:02.481706+01 | 1486163942.48171 | pgbench_accounts_pkey |        224641024

 2017-02-04 00:19:03.566096+01 | 1486163943.5661 | pgbench_branches_pkey |            90112
 2017-02-04 00:19:03.566096+01 | 1486163943.5661 | pgbench_tellers_pkey  |           516096
 2017-02-04 00:19:03.566096+01 | 1486163943.5661 | pgbench_accounts_pkey |        224641024

 2017-02-04 00:19:04.650254+01 | 1486163944.65025 | pgbench_branches_pkey |            90112
 2017-02-04 00:19:04.650254+01 | 1486163944.65025 | pgbench_tellers_pkey  |           516096
 2017-02-04 00:19:04.650254+01 | 1486163944.65025 | pgbench_accounts_pkey |        224641024

 2017-02-04 00:19:05.736312+01 | 1486163945.73631 | pgbench_branches_pkey |            90112
 2017-02-04 00:19:05.736312+01 | 1486163945.73631 | pgbench_tellers_pkey  |           516096
 2017-02-04 00:19:05.736312+01 | 1486163945.73631 | pgbench_accounts_pkey |        224641024

 2017-02-04 00:19:06.833494+01 | 1486163946.83349 | pgbench_branches_pkey |            90112
 2017-02-04 00:19:06.833494+01 | 1486163946.83349 | pgbench_tellers_pkey  |           516096
 2017-02-04 00:19:06.833494+01 | 1486163946.83349 | pgbench_accounts_pkey |        224641024

 2017-02-04 00:19:07.909513+01 | 1486163947.90951 | pgbench_branches_pkey |            90112
 2017-02-04 00:19:07.909513+01 | 1486163947.90951 | pgbench_tellers_pkey  |           516096
 2017-02-04 00:19:07.909513+01 | 1486163947.90951 | pgbench_accounts_pkey |        224641024

 2017-02-04 00:19:08.987892+01 | 1486163948.98789 | pgbench_branches_pkey |            90112
 2017-02-04 00:19:08.987892+01 | 1486163948.98789 | pgbench_tellers_pkey  |           516096
 2017-02-04 00:19:08.987892+01 | 1486163948.98789 | pgbench_accounts_pkey |        224641024

 2017-02-04 00:19:10.072763+01 | 1486163950.07276 | pgbench_branches_pkey |            90112
 2017-02-04 00:19:10.072763+01 | 1486163950.07276 | pgbench_tellers_pkey  |           516096
 2017-02-04 00:19:10.072763+01 | 1486163950.07276 | pgbench_accounts_pkey |        224641024

 2017-02-04 00:19:11.149261+01 | 1486163951.14926 | pgbench_branches_pkey |            90112
 2017-02-04 00:19:11.149261+01 | 1486163951.14926 | pgbench_tellers_pkey  |           516096
 2017-02-04 00:19:11.149261+01 | 1486163951.14926 | pgbench_accounts_pkey |        224641024

 2017-02-04 00:19:12.24066+01 | 1486163952.24066 | pgbench_branches_pkey |            90112
 2017-02-04 00:19:12.24066+01 | 1486163952.24066 | pgbench_tellers_pkey  |           516096
 2017-02-04 00:19:12.24066+01 | 1486163952.24066 | pgbench_accounts_pkey |        224641024

 2017-02-04 00:19:13.330824+01 | 1486163953.33082 | pgbench_branches_pkey |            90112
 2017-02-04 00:19:13.330824+01 | 1486163953.33082 | pgbench_tellers_pkey  |           516096
 2017-02-04 00:19:13.330824+01 | 1486163953.33082 | pgbench_accounts_pkey |        224641024

 2017-02-04 00:19:14.428961+01 | 1486163954.42896 | pgbench_branches_pkey |            90112
 2017-02-04 00:19:14.428961+01 | 1486163954.42896 | pgbench_tellers_pkey  |           516096
 2017-02-04 00:19:14.428961+01 | 1486163954.42896 | pgbench_accounts_pkey |        224641024

 2017-02-04 00:19:15.511993+01 | 1486163955.51199 | pgbench_branches_pkey |            90112
 2017-02-04 00:19:15.511993+01 | 1486163955.51199 | pgbench_tellers_pkey  |           516096
 2017-02-04 00:19:15.511993+01 | 1486163955.51199 | pgbench_accounts_pkey |        224641024

 2017-02-04 00:19:16.605473+01 | 1486163956.60547 | pgbench_branches_pkey |            90112
 2017-02-04 00:19:16.605473+01 | 1486163956.60547 | pgbench_tellers_pkey  |           516096
 2017-02-04 00:19:16.605473+01 | 1486163956.60547 | pgbench_accounts_pkey |        224641024

 2017-02-04 00:19:17.704441+01 | 1486163957.70444 | pgbench_branches_pkey |            90112
 2017-02-04 00:19:17.704441+01 | 1486163957.70444 | pgbench_tellers_pkey  |           516096
 2017-02-04 00:19:17.704441+01 | 1486163957.70444 | pgbench_accounts_pkey |        224641024

 2017-02-04 00:19:18.800922+01 | 1486163958.80092 | pgbench_branches_pkey |            90112
 2017-02-04 00:19:18.800922+01 | 1486163958.80092 | pgbench_tellers_pkey  |           516096
 2017-02-04 00:19:18.800922+01 | 1486163958.80092 | pgbench_accounts_pkey |        224641024

 2017-02-04 00:19:19.883701+01 | 1486163959.8837 | pgbench_branches_pkey |            90112
 2017-02-04 00:19:19.883701+01 | 1486163959.8837 | pgbench_tellers_pkey  |           516096
 2017-02-04 00:19:19.883701+01 | 1486163959.8837 | pgbench_accounts_pkey |        224641024

 2017-02-04 00:19:20.961948+01 | 1486163960.96195 | pgbench_branches_pkey |            90112
 2017-02-04 00:19:20.961948+01 | 1486163960.96195 | pgbench_tellers_pkey  |           516096
 2017-02-04 00:19:20.961948+01 | 1486163960.96195 | pgbench_accounts_pkey |        224641024

 2017-02-04 00:19:22.041472+01 | 1486163962.04147 | pgbench_branches_pkey |            90112
 2017-02-04 00:19:22.041472+01 | 1486163962.04147 | pgbench_tellers_pkey  |           516096
 2017-02-04 00:19:22.041472+01 | 1486163962.04147 | pgbench_accounts_pkey |        224641024

 2017-02-04 00:19:23.122804+01 | 1486163963.1228 | pgbench_branches_pkey |            90112
 2017-02-04 00:19:23.122804+01 | 1486163963.1228 | pgbench_tellers_pkey  |           516096
 2017-02-04 00:19:23.122804+01 | 1486163963.1228 | pgbench_accounts_pkey |        224641024

 2017-02-04 00:19:24.19975+01 | 1486163964.19975 | pgbench_branches_pkey |            90112
 2017-02-04 00:19:24.19975+01 | 1486163964.19975 | pgbench_tellers_pkey  |           516096
 2017-02-04 00:19:24.19975+01 | 1486163964.19975 | pgbench_accounts_pkey |        224641024

 2017-02-04 00:19:25.281018+01 | 1486163965.28102 | pgbench_branches_pkey |            90112
 2017-02-04 00:19:25.281018+01 | 1486163965.28102 | pgbench_tellers_pkey  |           516096
 2017-02-04 00:19:25.281018+01 | 1486163965.28102 | pgbench_accounts_pkey |        224641024

 2017-02-04 00:19:26.37339+01 | 1486163966.37339 | pgbench_branches_pkey |            90112
 2017-02-04 00:19:26.37339+01 | 1486163966.37339 | pgbench_tellers_pkey  |           516096
 2017-02-04 00:19:26.37339+01 | 1486163966.37339 | pgbench_accounts_pkey |        224641024

 2017-02-04 00:19:27.456901+01 | 1486163967.4569 | pgbench_branches_pkey |            90112
 2017-02-04 00:19:27.456901+01 | 1486163967.4569 | pgbench_tellers_pkey  |           516096
 2017-02-04 00:19:27.456901+01 | 1486163967.4569 | pgbench_accounts_pkey |        224641024

 2017-02-04 00:19:28.546989+01 | 1486163968.54699 | pgbench_branches_pkey |            90112
 2017-02-04 00:19:28.546989+01 | 1486163968.54699 | pgbench_tellers_pkey  |           516096
 2017-02-04 00:19:28.546989+01 | 1486163968.54699 | pgbench_accounts_pkey |        224641024

 2017-02-04 00:19:29.63723+01 | 1486163969.63723 | pgbench_branches_pkey |            90112
 2017-02-04 00:19:29.63723+01 | 1486163969.63723 | pgbench_tellers_pkey  |           516096
 2017-02-04 00:19:29.63723+01 | 1486163969.63723 | pgbench_accounts_pkey |        224641024

 2017-02-04 00:19:30.72608+01 | 1486163970.72608 | pgbench_branches_pkey |            90112
 2017-02-04 00:19:30.72608+01 | 1486163970.72608 | pgbench_tellers_pkey  |           516096
 2017-02-04 00:19:30.72608+01 | 1486163970.72608 | pgbench_accounts_pkey |        224641024

 2017-02-04 00:19:31.815092+01 | 1486163971.81509 | pgbench_branches_pkey |            90112
 2017-02-04 00:19:31.815092+01 | 1486163971.81509 | pgbench_tellers_pkey  |           516096
 2017-02-04 00:19:31.815092+01 | 1486163971.81509 | pgbench_accounts_pkey |        224641024

 2017-02-04 00:19:32.897648+01 | 1486163972.89765 | pgbench_branches_pkey |            90112
 2017-02-04 00:19:32.897648+01 | 1486163972.89765 | pgbench_tellers_pkey  |           516096
 2017-02-04 00:19:32.897648+01 | 1486163972.89765 | pgbench_accounts_pkey |        224641024

 2017-02-04 00:19:33.978614+01 | 1486163973.97861 | pgbench_branches_pkey |            90112
 2017-02-04 00:19:33.978614+01 | 1486163973.97861 | pgbench_tellers_pkey  |           516096
 2017-02-04 00:19:33.978614+01 | 1486163973.97861 | pgbench_accounts_pkey |        224641024

 2017-02-04 00:19:35.062022+01 | 1486163975.06202 | pgbench_branches_pkey |            90112
 2017-02-04 00:19:35.062022+01 | 1486163975.06202 | pgbench_tellers_pkey  |           516096
 2017-02-04 00:19:35.062022+01 | 1486163975.06202 | pgbench_accounts_pkey |        224641024

