 2017-02-05 14:35:53.767777+01 | 1486301753.76778 | 3E/C4B3FEF0              |          269588102896

 2017-02-05 14:35:54.862795+01 | 1486301754.8628 | 3E/D45B2000              |          269850714112

 2017-02-05 14:35:55.940607+01 | 1486301755.94061 | 3E/E3E401D0              |          270111343056

 2017-02-05 14:35:57.022308+01 | 1486301757.02231 | 3E/F32BA000              |          270367694848

 2017-02-05 14:35:58.103715+01 | 1486301758.10371 | 3F/2E9C638               |          270631814712

 2017-02-05 14:35:59.187631+01 | 1486301759.18763 | 3F/10FFF260              |          270868148832

 2017-02-05 14:36:00.266216+01 | 1486301760.26622 | 3F/1DF1C8C0              |          271085324480

 2017-02-05 14:36:01.344207+01 | 1486301761.34421 | 3F/2A0D53E0              |          271288456160

 2017-02-05 14:36:02.423868+01 | 1486301762.42387 | 3F/35379BE0              |          271475776480

 2017-02-05 14:36:03.501095+01 | 1486301763.5011 | 3F/3FE897B0              |          271655147440

 2017-02-05 14:36:04.563628+01 | 1486301764.56363 | 3F/4A380EF0              |          271828127472

 2017-02-05 14:36:05.638206+01 | 1486301765.63821 | 3F/54A6BE00              |          272003153408

 2017-02-05 14:36:06.713435+01 | 1486301766.71343 | 3F/5F4B2830              |          272181700656

 2017-02-05 14:36:07.793414+01 | 1486301767.79341 | 3F/69810C58              |          272353004632

 2017-02-05 14:36:08.866684+01 | 1486301768.86668 | 3F/73C22E48              |          272525045320

 2017-02-05 14:36:09.937705+01 | 1486301769.93771 | 3F/7D5D2CD8              |          272686197976

 2017-02-05 14:36:11.015149+01 | 1486301771.01515 | 3F/8668A7E8              |          272837945320

 2017-02-05 14:36:12.092084+01 | 1486301772.09208 | 3F/8DDD2BF8              |          272963021816

 2017-02-05 14:36:13.166874+01 | 1486301773.16687 | 3F/93EE3158              |          273064800600

 2017-02-05 14:36:14.245433+01 | 1486301774.24543 | 3F/99DFE740              |          273164527424

 2017-02-05 14:36:15.322178+01 | 1486301775.32218 | 3F/9F93C060              |          273260200032

 2017-02-05 14:36:16.401921+01 | 1486301776.40192 | 3F/A4F51530              |          273350464816

 2017-02-05 14:36:17.484985+01 | 1486301777.48499 | 3F/AA0C78B8              |          273435883704

 2017-02-05 14:36:18.561719+01 | 1486301778.56172 | 3F/AEB424B8              |          273513981112

 2017-02-05 14:36:19.634771+01 | 1486301779.63477 | 3F/B370E9C8              |          273593461192

 2017-02-05 14:36:20.71226+01 | 1486301780.71226 | 3F/B7B19CC0              |          273664810176

 2017-02-05 14:36:21.788427+01 | 1486301781.78843 | 3F/BBA9AA50              |          273731398224

 2017-02-05 14:36:22.867607+01 | 1486301782.86761 | 3F/BFDC0F10              |          273801809680

 2017-02-05 14:36:23.946464+01 | 1486301783.94646 | 3F/C38D0908              |          273863739656

 2017-02-05 14:36:25.029453+01 | 1486301785.02945 | 3F/C70371B8              |          273921831352

 2017-02-05 14:36:26.105914+01 | 1486301786.10591 | 3F/CACFEEF8              |          273985564408

 2017-02-05 14:36:27.185574+01 | 1486301787.18557 | 3F/CEC90058              |          274052218968

 2017-02-05 14:36:28.257402+01 | 1486301788.2574 | 3F/D2A777F8              |          274117130232

 2017-02-05 14:36:29.332939+01 | 1486301789.33294 | 3F/D640A228              |          274177499688

 2017-02-05 14:36:30.411889+01 | 1486301790.41189 | 3F/D9D7AED0              |          274237730512

 2017-02-05 14:36:31.486713+01 | 1486301791.48671 | 3F/DCDF69E8              |          274288568808

 2017-02-05 14:36:32.561594+01 | 1486301792.56159 | 3F/DFED5068              |          274339811432

 2017-02-05 14:36:33.641532+01 | 1486301793.64153 | 3F/E2CFB828              |          274388203560

 2017-02-05 14:36:34.715965+01 | 1486301794.71597 | 3F/E5A67580              |          274435831168

 2017-02-05 14:36:35.792032+01 | 1486301795.79203 | 3F/E87C0C00              |          274483383296

 2017-02-05 14:36:36.868949+01 | 1486301796.86895 | 3F/EB2D19B0              |          274528541104

 2017-02-05 14:36:37.942056+01 | 1486301797.94206 | 3F/EDEBD878              |          274574596216

 2017-02-05 14:36:39.019301+01 | 1486301799.0193 | 3F/F0FD2D40              |          274626063680

 2017-02-05 14:36:40.097716+01 | 1486301800.09772 | 3F/F40E9D50              |          274677538128

 2017-02-05 14:36:41.175997+01 | 1486301801.176 | 3F/F6F879A8              |          274726418856

 2017-02-05 14:36:42.254846+01 | 1486301802.25485 | 3F/F9D3A6E8              |          274774337256

 2017-02-05 14:36:43.33161+01 | 1486301803.33161 | 3F/FCB581F8              |          274822693368

 2017-02-05 14:36:44.411991+01 | 1486301804.41199 | 3F/FF9265A8              |          274870724008

 2017-02-05 14:36:45.486884+01 | 1486301805.48688 | 40/2838850               |          274920081488

 2017-02-05 14:36:46.565637+01 | 1486301806.56564 | 40/554D908               |          274967363120

 2017-02-05 14:36:47.639246+01 | 1486301807.63925 | 40/831F6E8               |          275015399144

 2017-02-05 14:36:48.712851+01 | 1486301808.71285 | 40/AEEB870               |          275061323888

 2017-02-05 14:36:49.787947+01 | 1486301809.78795 | 40/D98C140               |          275106021696

 2017-02-05 14:36:50.863447+01 | 1486301810.86345 | 40/103F74A0              |          275150501024

 2017-02-05 14:36:51.937892+01 | 1486301811.93789 | 40/12EFA880              |          275195603072

 2017-02-05 14:36:53.01665+01 | 1486301813.01665 | 40/15851FC0              |          275238952896

 2017-02-05 14:36:54.087914+01 | 1486301814.08791 | 40/18237178              |          275282882936

 2017-02-05 14:36:55.163019+01 | 1486301815.16302 | 40/1AACFEB0              |          275325451952

 2017-02-05 14:36:56.234286+01 | 1486301816.23429 | 40/1CFA7D80              |          275364085120

 2017-02-05 14:36:57.309458+01 | 1486301817.30946 | 40/1F7155B0              |          275405428144

 2017-02-05 14:36:58.381037+01 | 1486301818.38104 | 40/21B5DAA0              |          275443473056

 2017-02-05 14:36:59.45799+01 | 1486301819.45799 | 40/240A2CD0              |          275482553552

 2017-02-05 14:37:00.533866+01 | 1486301820.53387 | 40/2664BFC0              |          275522043840

 2017-02-05 14:37:01.611187+01 | 1486301821.61119 | 40/28BAF220              |          275561247264

 2017-02-05 14:37:02.688263+01 | 1486301822.68826 | 40/2B04A948              |          275599632712

 2017-02-05 14:37:03.76461+01 | 1486301823.76461 | 40/2D46F568              |          275637532008

 2017-02-05 14:37:04.833136+01 | 1486301824.83314 | 40/2F7516D0              |          275674109648

 2017-02-05 14:37:05.91179+01 | 1486301825.91179 | 40/31C2FA90              |          275712768656

 2017-02-05 14:37:06.984858+01 | 1486301826.98486 | 40/340F95D8              |          275751343576

 2017-02-05 14:37:08.067263+01 | 1486301828.06726 | 40/36422EA0              |          275788213920

 2017-02-05 14:37:09.152773+01 | 1486301829.15277 | 40/385637B0              |          275823081392

 2017-02-05 14:37:10.227347+01 | 1486301830.22735 | 40/3A6CBE98              |          275858112152

 2017-02-05 14:37:11.301167+01 | 1486301831.30117 | 40/3CA21020              |          275895160864

 2017-02-05 14:37:12.367388+01 | 1486301832.36739 | 40/3ECA2E60              |          275931344480

 2017-02-05 14:37:13.440963+01 | 1486301833.44096 | 40/40DCE5D0              |          275966125520

 2017-02-05 14:37:14.515039+01 | 1486301834.51504 | 40/43074CD8              |          276002458840

 2017-02-05 14:37:15.592539+01 | 1486301835.59254 | 40/452608C8              |          276038027464

 2017-02-05 14:37:16.66749+01 | 1486301836.66749 | 40/473BC3A8              |          276073005992

 2017-02-05 14:37:17.746087+01 | 1486301837.74609 | 40/49444B48              |          276107119432

 2017-02-05 14:37:18.825539+01 | 1486301838.82554 | 40/4B4AB368              |          276141093736

 2017-02-05 14:37:19.901825+01 | 1486301839.90182 | 40/4D51C120              |          276175110432

 2017-02-05 14:37:20.975575+01 | 1486301840.97557 | 40/4F399AC8              |          276207082184

 2017-02-05 14:37:22.049237+01 | 1486301842.04924 | 40/51215198              |          276239045016

 2017-02-05 14:37:23.124834+01 | 1486301843.12483 | 40/53225AB0              |          276272667312

 2017-02-05 14:37:24.196849+01 | 1486301844.19685 | 40/55152288              |          276305355400

 2017-02-05 14:37:25.274799+01 | 1486301845.2748 | 40/571612D0              |          276338971344

 2017-02-05 14:37:26.347977+01 | 1486301846.34798 | 40/58FF5488              |          276371035272

 2017-02-05 14:37:27.423976+01 | 1486301847.42398 | 40/5ACC6E78              |          276401254008

 2017-02-05 14:37:28.496795+01 | 1486301848.49679 | 40/5C918120              |          276430946592

 2017-02-05 14:37:29.57115+01 | 1486301849.57115 | 40/5E1D3260              |          276456878688

 2017-02-05 14:37:30.647925+01 | 1486301850.64792 | 40/5FA68AD8              |          276482656984

 2017-02-05 14:37:31.725207+01 | 1486301851.72521 | 40/612909C0              |          276507986368

 2017-02-05 14:37:32.807736+01 | 1486301852.80774 | 40/62B226A8              |          276533749416

 2017-02-05 14:37:33.88198+01 | 1486301853.88198 | 40/6449AAB0              |          276560456368

 2017-02-05 14:37:34.952958+01 | 1486301854.95296 | 40/65D60188              |          276586430856

 2017-02-05 14:37:36.030499+01 | 1486301856.0305 | 40/67521CE8              |          276611341544

 2017-02-05 14:37:37.108131+01 | 1486301857.10813 | 40/68CD13E0              |          276636177376

 2017-02-05 14:37:38.193209+01 | 1486301858.19321 | 40/6A5C3428              |          276662334504

 2017-02-05 14:37:39.268958+01 | 1486301859.26896 | 40/6C303B68              |          276693007208

 2017-02-05 14:37:40.347035+01 | 1486301860.34703 | 40/6DEFDF40              |          276722343744

 2017-02-05 14:37:41.421562+01 | 1486301861.42156 | 40/6FA996A8              |          276751292072

 2017-02-05 14:37:42.497343+01 | 1486301862.49734 | 40/71709228              |          276781109800

 2017-02-05 14:37:43.573862+01 | 1486301863.57386 | 40/732B6F08              |          276810133256

 2017-02-05 14:37:44.650567+01 | 1486301864.65057 | 40/74E90E90              |          276839337616

 2017-02-05 14:37:45.73371+01 | 1486301865.73371 | 40/76B40560              |          276869416288

 2017-02-05 14:37:46.814857+01 | 1486301866.81486 | 40/786D0318              |          276898317080

 2017-02-05 14:37:47.892995+01 | 1486301867.893 | 40/79FDEFC8              |          276924592072

 2017-02-05 14:37:48.974475+01 | 1486301868.97447 | 40/7BB12290              |          276953113232

 2017-02-05 14:37:50.057217+01 | 1486301870.05722 | 40/7D5EFE30              |          276981284400

 2017-02-05 14:37:51.129759+01 | 1486301871.12976 | 40/7EFDC3A8              |          277008466856

 2017-02-05 14:37:52.206115+01 | 1486301872.20612 | 40/809EF7B8              |          277035808696

 2017-02-05 14:37:53.284736+01 | 1486301873.28474 | 40/824B54C0              |          277063881920

 2017-02-05 14:37:54.361933+01 | 1486301874.36193 | 40/83DD54B0              |          277090227376

 2017-02-05 14:37:55.445482+01 | 1486301875.44548 | 40/857A4D98              |          277117291928

 2017-02-05 14:37:56.526231+01 | 1486301876.52623 | 40/872A9830              |          277145622576

 2017-02-05 14:37:57.599752+01 | 1486301877.59975 | 40/88B0E670              |          277171201648

 2017-02-05 14:37:58.678905+01 | 1486301878.67891 | 40/8A508BD8              |          277198441432

 2017-02-05 14:37:59.758993+01 | 1486301879.75899 | 40/8BF5C318              |          277226046232

 2017-02-05 14:38:00.83489+01 | 1486301880.83489 | 40/8DA07628              |          277254010408

 2017-02-05 14:38:01.915347+01 | 1486301881.91535 | 40/8F238FC8              |          277279379400

 2017-02-05 14:38:02.988886+01 | 1486301882.98889 | 40/90B75F48              |          277305843528

 2017-02-05 14:38:04.065668+01 | 1486301884.06567 | 40/92495A00              |          277332187648

 2017-02-05 14:38:05.146492+01 | 1486301885.14649 | 40/93F563E0              |          277360239584

 2017-02-05 14:38:06.235704+01 | 1486301886.2357 | 40/959C4DE8              |          277387955688

 2017-02-05 14:38:07.313937+01 | 1486301887.31394 | 40/97404CA8              |          277415480488

 2017-02-05 14:38:08.391038+01 | 1486301888.39104 | 40/98FE2AA0              |          277444700832

 2017-02-05 14:38:09.470721+01 | 1486301889.47072 | 40/9AB24C70              |          277473283184

 2017-02-05 14:38:10.543743+01 | 1486301890.54374 | 40/9C639F30              |          277501681456

 2017-02-05 14:38:11.619933+01 | 1486301891.61993 | 40/9E142708              |          277530027784

 2017-02-05 14:38:12.69704+01 | 1486301892.69704 | 40/9FD4CFC0              |          277559431104

 2017-02-05 14:38:13.774128+01 | 1486301893.77413 | 40/A182BC90              |          277587606672

 2017-02-05 14:38:14.8511+01 | 1486301894.8511 | 40/A33CB388              |          277616571272

 2017-02-05 14:38:15.925568+01 | 1486301895.92557 | 40/A4F1DED8              |          277645221592

 2017-02-05 14:38:17.002151+01 | 1486301897.00215 | 40/A6A51910              |          277673744656

 2017-02-05 14:38:18.082969+01 | 1486301898.08297 | 40/A85DF6A8              |          277702637224

 2017-02-05 14:38:19.158747+01 | 1486301899.15875 | 40/AA0216F0              |          277730170608

 2017-02-05 14:38:20.227118+01 | 1486301900.22712 | 40/ABBE5E00              |          277759286784

 2017-02-05 14:38:21.306521+01 | 1486301901.30652 | 40/AD7F7070              |          277788717168

 2017-02-05 14:38:22.385468+01 | 1486301902.38547 | 40/AF357F48              |          277817425736

 2017-02-05 14:38:23.465866+01 | 1486301903.46587 | 40/B1040760              |          277847738208

 2017-02-05 14:38:24.547022+01 | 1486301904.54702 | 40/B2DDE070              |          277878792304

 2017-02-05 14:38:25.622125+01 | 1486301905.62212 | 40/B4B39220              |          277909574176

 2017-02-05 14:38:26.69801+01 | 1486301906.69801 | 40/B68ED538              |          277940720952

 2017-02-05 14:38:27.771252+01 | 1486301907.77125 | 40/B87100B0              |          277972320432

 2017-02-05 14:38:28.851899+01 | 1486301908.8519 | 40/BA33FF98              |          278001876888

 2017-02-05 14:38:29.929481+01 | 1486301909.92948 | 40/BC1CD5D8              |          278033913304

 2017-02-05 14:38:31.002255+01 | 1486301911.00225 | 40/BE0B1BA8              |          278066305960

 2017-02-05 14:38:32.0758+01 | 1486301912.0758 | 40/C00271B0              |          278099292592

 2017-02-05 14:38:33.146747+01 | 1486301913.14675 | 40/C1EA3CF0              |          278131260656

 2017-02-05 14:38:34.22039+01 | 1486301914.22039 | 40/C3D67C58              |          278163520600

 2017-02-05 14:38:35.295383+01 | 1486301915.29538 | 40/C5CD0660              |          278196455008

 2017-02-05 14:38:36.370762+01 | 1486301916.37076 | 40/C7BE9EA0              |          278229065376

 2017-02-05 14:38:37.445176+01 | 1486301917.44518 | 40/C9B99768              |          278262290280

 2017-02-05 14:38:38.522191+01 | 1486301918.52219 | 40/CBA88A98              |          278294727320

 2017-02-05 14:38:39.60792+01 | 1486301919.60792 | 40/CD9F6A00              |          278327683584

 2017-02-05 14:38:40.684708+01 | 1486301920.68471 | 40/CF8E5220              |          278360117792

 2017-02-05 14:38:41.764041+01 | 1486301921.76404 | 40/D1786380              |          278392234880

 2017-02-05 14:38:42.83743+01 | 1486301922.83743 | 40/D3611C50              |          278424263760

 2017-02-05 14:38:43.913665+01 | 1486301923.91367 | 40/D534BAE8              |          278454909672

 2017-02-05 14:38:44.994526+01 | 1486301924.99453 | 40/D728F2E0              |          278487692000

 2017-02-05 14:38:46.07413+01 | 1486301926.07413 | 40/D9014880              |          278518646912

 2017-02-05 14:38:47.150055+01 | 1486301927.15005 | 40/DAE32B48              |          278550227784

 2017-02-05 14:38:48.230369+01 | 1486301928.23037 | 40/DCBC3210              |          278581228048

 2017-02-05 14:38:49.30912+01 | 1486301929.30912 | 40/DE990E60              |          278612479584

 2017-02-05 14:38:50.381449+01 | 1486301930.38145 | 40/E079AEF0              |          278643977968

 2017-02-05 14:38:51.454597+01 | 1486301931.4546 | 40/E262F490              |          278676042896

 2017-02-05 14:38:52.531712+01 | 1486301932.53171 | 40/E43782F8              |          278706750200

 2017-02-05 14:38:53.605636+01 | 1486301933.60564 | 40/E5DC0370              |          278734308208

 2017-02-05 14:38:54.696507+01 | 1486301934.69651 | 40/E7A748E0              |          278764407008

 2017-02-05 14:38:55.773323+01 | 1486301935.77332 | 40/E97757D0              |          278794819536

 2017-02-05 14:38:56.849709+01 | 1486301936.84971 | 40/EB50CC10              |          278825847824

 2017-02-05 14:38:57.921541+01 | 1486301937.92154 | 40/ED1FFD78              |          278856203640

 2017-02-05 14:38:58.996472+01 | 1486301938.99647 | 40/EEEF5020              |          278886567968

 2017-02-05 14:39:00.068665+01 | 1486301940.06867 | 40/F0B8AE70              |          278916542064

 2017-02-05 14:39:01.143756+01 | 1486301941.14376 | 40/F2900718              |          278947432216

 2017-02-05 14:39:02.21468+01 | 1486301942.21468 | 40/F452EFC8              |          278976982984

 2017-02-05 14:39:03.29098+01 | 1486301943.29098 | 40/F60E2FE0              |          279006031840

 2017-02-05 14:39:04.365807+01 | 1486301944.36581 | 40/F7A25528              |          279032517928

 2017-02-05 14:39:05.445514+01 | 1486301945.44551 | 40/F93D3718              |          279059445528

 2017-02-05 14:39:06.530571+01 | 1486301946.53057 | 40/FADC2238              |          279086637624

 2017-02-05 14:39:07.604906+01 | 1486301947.60491 | 40/FCAC43C0              |          279117054912

 2017-02-05 14:39:08.681791+01 | 1486301948.68179 | 40/FE767638              |          279147083320

 2017-02-05 14:39:09.754035+01 | 1486301949.75403 | 41/3C0EA0                |          279176810144

 2017-02-05 14:39:10.829876+01 | 1486301950.82988 | 41/1FEBCB0               |          279206345904

 2017-02-05 14:39:11.910251+01 | 1486301951.91025 | 41/3B3F2A8               |          279234998952

 2017-02-05 14:39:12.986686+01 | 1486301952.98669 | 41/5723A00               |          279264246272

 2017-02-05 14:39:14.069142+01 | 1486301954.06914 | 41/7255AA0               |          279292762784

 2017-02-05 14:39:15.14967+01 | 1486301955.14967 | 41/8CB28B8               |          279320406200

 2017-02-05 14:39:16.225301+01 | 1486301956.2253 | 41/A5C2348               |          279346684744

 2017-02-05 14:39:17.29576+01 | 1486301957.29576 | 41/BB84258               |          279369499224

 2017-02-05 14:39:18.370606+01 | 1486301958.37061 | 41/D45EE00               |          279395560960

 2017-02-05 14:39:19.445769+01 | 1486301959.44577 | 41/ECFFE68               |          279421386344

 2017-02-05 14:39:20.52116+01 | 1486301960.52116 | 41/105B8530              |          279447307568

 2017-02-05 14:39:21.59924+01 | 1486301961.59924 | 41/11CF4EF8              |          279471673080

 2017-02-05 14:39:22.680267+01 | 1486301962.68027 | 41/13560248              |          279497278024

 2017-02-05 14:39:23.755463+01 | 1486301963.75546 | 41/14FED080              |          279525118080

 2017-02-05 14:39:24.832372+01 | 1486301964.83237 | 41/16B9DAD0              |          279554153168

 2017-02-05 14:39:25.910819+01 | 1486301965.91082 | 41/1861DA40              |          279581940288

 2017-02-05 14:39:26.992211+01 | 1486301966.99221 | 41/1A033CC8              |          279609294024

 2017-02-05 14:39:28.063778+01 | 1486301968.06378 | 41/1B97E708              |          279635814152

 2017-02-05 14:39:29.141383+01 | 1486301969.14138 | 41/1D1DE768              |          279661373288

 2017-02-05 14:39:30.21217+01 | 1486301970.21217 | 41/1ECBB420              |          279689540640

 2017-02-05 14:39:31.284757+01 | 1486301971.28476 | 41/206BED50              |          279716818256

 2017-02-05 14:39:32.367832+01 | 1486301972.36783 | 41/22226D58              |          279745555800

 2017-02-05 14:39:33.443091+01 | 1486301973.44309 | 41/23C21C80              |          279772798080

 2017-02-05 14:39:34.521048+01 | 1486301974.52105 | 41/255EC190              |          279799841168

 2017-02-05 14:39:35.596805+01 | 1486301975.59681 | 41/26D4AE08              |          279824346632

 2017-02-05 14:39:36.666878+01 | 1486301976.66688 | 41/284AF0F0              |          279848874224

 2017-02-05 14:39:37.741285+01 | 1486301977.74129 | 41/29E40540              |          279875683648

 2017-02-05 14:39:38.823835+01 | 1486301978.82383 | 41/2B743AA8              |          279901911720

 2017-02-05 14:39:39.893293+01 | 1486301979.89329 | 41/2CEB29C0              |          279926483392

 2017-02-05 14:39:40.967247+01 | 1486301980.96725 | 41/2E725B28              |          279952120616

 2017-02-05 14:39:42.041577+01 | 1486301982.04158 | 41/2FF6DD00              |          279977581824

 2017-02-05 14:39:43.114281+01 | 1486301983.11428 | 41/3175C960              |          280002677088

 2017-02-05 14:39:44.188391+01 | 1486301984.18839 | 41/32DD09B8              |          280026220984

 2017-02-05 14:39:45.260261+01 | 1486301985.26026 | 41/34547800              |          280050825216

 2017-02-05 14:39:46.333944+01 | 1486301986.33394 | 41/35BEC9F8              |          280074570232

 2017-02-05 14:39:47.4095+01 | 1486301987.4095 | 41/37302FD0              |          280098779088

 2017-02-05 14:39:48.481975+01 | 1486301988.48198 | 41/38699F50              |          280119320400

 2017-02-05 14:39:49.557826+01 | 1486301989.55783 | 41/39F1E140              |          280145027392

 2017-02-05 14:39:50.630624+01 | 1486301990.63062 | 41/3B77FB68              |          280170593128

 2017-02-05 14:39:51.697719+01 | 1486301991.69772 | 41/3D09BE48              |          280196922952

 2017-02-05 14:39:52.775124+01 | 1486301992.77512 | 41/3EA0FF90              |          280223612816

 2017-02-05 14:39:53.851789+01 | 1486301993.85179 | 41/402912F8              |          280249307896

 2017-02-05 14:39:54.928223+01 | 1486301994.92822 | 41/41C0E348              |          280276034376

 2017-02-05 14:39:56.002506+01 | 1486301996.00251 | 41/43227110              |          280299204880

 2017-02-05 14:39:57.076124+01 | 1486301997.07612 | 41/44B47488              |          280325551240

 2017-02-05 14:39:58.149182+01 | 1486301998.14918 | 41/463D9500              |          280351315200

 2017-02-05 14:39:59.221539+01 | 1486301999.22154 | 41/47CDEEB8              |          280377552568

 2017-02-05 14:40:00.293057+01 | 1486302000.29306 | 41/49454C58              |          280402152536

 2017-02-05 14:40:01.375527+01 | 1486302001.37553 | 41/4AC6D110              |          280427417872

 2017-02-05 14:40:02.453539+01 | 1486302002.45354 | 41/4C455DB0              |          280452488624

 2017-02-05 14:40:03.533639+01 | 1486302003.53364 | 41/4D913148              |          280474235208

 2017-02-05 14:40:04.609391+01 | 1486302004.60939 | 41/4EC65E50              |          280494497360

 2017-02-05 14:40:05.687017+01 | 1486302005.68702 | 41/4FFCACE0              |          280514833632

 2017-02-05 14:40:06.76539+01 | 1486302006.76539 | 41/515611C8              |          280537469384

 2017-02-05 14:40:07.849982+01 | 1486302007.84998 | 41/52B28CD8              |          280560307416

 2017-02-05 14:40:08.924301+01 | 1486302008.9243 | 41/53F90930              |          280581703984

 2017-02-05 14:40:09.997181+01 | 1486302009.99718 | 41/5551D250              |          280604299856

 2017-02-05 14:40:11.071643+01 | 1486302011.07164 | 41/56B99060              |          280627875936

 2017-02-05 14:40:12.144661+01 | 1486302012.14466 | 41/582236B0              |          280651511472

 2017-02-05 14:40:13.219324+01 | 1486302013.21932 | 41/597021A0              |          280673395104

 2017-02-05 14:40:14.291865+01 | 1486302014.29187 | 41/5AEB9BE0              |          280698264544

 2017-02-05 14:40:15.364273+01 | 1486302015.36427 | 41/5C4C6E60              |          280721387104

 2017-02-05 14:40:16.436177+01 | 1486302016.43618 | 41/5DA6FE08              |          280744099336

 2017-02-05 14:40:17.516142+01 | 1486302017.51614 | 41/5F1C0EF0              |          280768548592

 2017-02-05 14:40:18.585938+01 | 1486302018.58594 | 41/60861120              |          280792273184

 2017-02-05 14:40:19.660822+01 | 1486302019.66082 | 41/61FF2FA0              |          280816988064

 2017-02-05 14:40:20.734746+01 | 1486302020.73475 | 41/636BF440              |          280840893504

 2017-02-05 14:40:21.816297+01 | 1486302021.8163 | 41/64C1A518              |          280863286552

 2017-02-05 14:40:22.893704+01 | 1486302022.8937 | 41/663DF2F8              |          280888210168

 2017-02-05 14:40:23.967318+01 | 1486302023.96732 | 41/67AE1218              |          280912335384

 2017-02-05 14:40:25.042881+01 | 1486302025.04288 | 41/691EFC50              |          280936512592

 2017-02-05 14:40:26.118139+01 | 1486302026.11814 | 41/6A8BF028              |          280960430120

 2017-02-05 14:40:27.193268+01 | 1486302027.19327 | 41/6C009708              |          280984852232

 2017-02-05 14:40:28.264864+01 | 1486302028.26486 | 41/6D4DB158              |          281006682456

 2017-02-05 14:40:29.339322+01 | 1486302029.33932 | 41/6EC5D330              |          281031332656

 2017-02-05 14:40:30.411983+01 | 1486302030.41198 | 41/703B64E8              |          281055814888

 2017-02-05 14:40:31.486782+01 | 1486302031.48678 | 41/719E84F8              |          281079088376

 2017-02-05 14:40:32.566766+01 | 1486302032.56677 | 41/72FD2BA0              |          281102068640

 2017-02-05 14:40:33.63796+01 | 1486302033.63796 | 41/745E7CD0              |          281125223632

 2017-02-05 14:40:34.71449+01 | 1486302034.71449 | 41/75C7FCD8              |          281148914904

 2017-02-05 14:40:35.784556+01 | 1486302035.78456 | 41/76F59B18              |          281168681752

 2017-02-05 14:40:36.85679+01 | 1486302036.85679 | 41/7849EE58              |          281190985304

 2017-02-05 14:40:37.92916+01 | 1486302037.92916 | 41/798DCF40              |          281212211008

 2017-02-05 14:40:39.001494+01 | 1486302039.00149 | 41/7AD87010              |          281233879056

 2017-02-05 14:40:40.076819+01 | 1486302040.07682 | 41/7C0D3AC8              |          281254116040

 2017-02-05 14:40:41.149316+01 | 1486302041.14932 | 41/7D443B10              |          281274497808

 2017-02-05 14:40:42.225918+01 | 1486302042.22592 | 41/7E9DF290              |          281297154704

 2017-02-05 14:40:43.300043+01 | 1486302043.30004 | 41/8001BAD0              |          281320471248

 2017-02-05 14:40:44.368683+01 | 1486302044.36868 | 41/8144B890              |          281341638800

 2017-02-05 14:40:45.446012+01 | 1486302045.44601 | 41/82ADA5C8              |          281365292488

 2017-02-05 14:40:46.528253+01 | 1486302046.52825 | 41/841A18E0              |          281389177056

 2017-02-05 14:40:47.606576+01 | 1486302047.60658 | 41/85819408              |          281412736008

 2017-02-05 14:40:48.679131+01 | 1486302048.67913 | 41/86ECCB58              |          281436539736

 2017-02-05 14:40:49.754139+01 | 1486302049.75414 | 41/88431500              |          281458971904

 2017-02-05 14:40:50.831707+01 | 1486302050.83171 | 41/89A69AE8              |          281482271464

 2017-02-05 14:40:51.907699+01 | 1486302051.9077 | 41/8AFDC380              |          281504760704

 2017-02-05 14:40:52.986968+01 | 1486302052.98697 | 41/8C04D6D8              |          281522001624

