 2017-02-05 16:29:25.243442+01 | 1486308565.24344 | pgbench_branches_pkey |            16384
 2017-02-05 16:29:25.243442+01 | 1486308565.24344 | pgbench_tellers_pkey  |            40960
 2017-02-05 16:29:25.243442+01 | 1486308565.24344 | pgbench_accounts_pkey |        225017856

 2017-02-05 16:29:26.33017+01 | 1486308566.33017 | pgbench_branches_pkey |            16384
 2017-02-05 16:29:26.33017+01 | 1486308566.33017 | pgbench_tellers_pkey  |            40960
 2017-02-05 16:29:26.33017+01 | 1486308566.33017 | pgbench_accounts_pkey |        225017856

 2017-02-05 16:29:27.41248+01 | 1486308567.41248 | pgbench_branches_pkey |            16384
 2017-02-05 16:29:27.41248+01 | 1486308567.41248 | pgbench_tellers_pkey  |            40960
 2017-02-05 16:29:27.41248+01 | 1486308567.41248 | pgbench_accounts_pkey |        225017856

 2017-02-05 16:29:28.505154+01 | 1486308568.50515 | pgbench_branches_pkey |            16384
 2017-02-05 16:29:28.505154+01 | 1486308568.50515 | pgbench_tellers_pkey  |            40960
 2017-02-05 16:29:28.505154+01 | 1486308568.50515 | pgbench_accounts_pkey |        225017856

 2017-02-05 16:29:29.583128+01 | 1486308569.58313 | pgbench_branches_pkey |            16384
 2017-02-05 16:29:29.583128+01 | 1486308569.58313 | pgbench_tellers_pkey  |            40960
 2017-02-05 16:29:29.583128+01 | 1486308569.58313 | pgbench_accounts_pkey |        225017856

 2017-02-05 16:29:30.6698+01 | 1486308570.6698 | pgbench_branches_pkey |            16384
 2017-02-05 16:29:30.6698+01 | 1486308570.6698 | pgbench_tellers_pkey  |            40960
 2017-02-05 16:29:30.6698+01 | 1486308570.6698 | pgbench_accounts_pkey |        225017856

 2017-02-05 16:29:31.753767+01 | 1486308571.75377 | pgbench_branches_pkey |            16384
 2017-02-05 16:29:31.753767+01 | 1486308571.75377 | pgbench_tellers_pkey  |            40960
 2017-02-05 16:29:31.753767+01 | 1486308571.75377 | pgbench_accounts_pkey |        225017856

 2017-02-05 16:29:32.832+01 | 1486308572.832 | pgbench_branches_pkey |            16384
 2017-02-05 16:29:32.832+01 | 1486308572.832 | pgbench_tellers_pkey  |            40960
 2017-02-05 16:29:32.832+01 | 1486308572.832 | pgbench_accounts_pkey |        225017856

 2017-02-05 16:29:33.916135+01 | 1486308573.91614 | pgbench_branches_pkey |            16384
 2017-02-05 16:29:33.916135+01 | 1486308573.91614 | pgbench_tellers_pkey  |            40960
 2017-02-05 16:29:33.916135+01 | 1486308573.91614 | pgbench_accounts_pkey |        225017856

 2017-02-05 16:29:34.997445+01 | 1486308574.99745 | pgbench_branches_pkey |            16384
 2017-02-05 16:29:34.997445+01 | 1486308574.99745 | pgbench_tellers_pkey  |            40960
 2017-02-05 16:29:34.997445+01 | 1486308574.99745 | pgbench_accounts_pkey |        225017856

 2017-02-05 16:29:36.079313+01 | 1486308576.07931 | pgbench_branches_pkey |            16384
 2017-02-05 16:29:36.079313+01 | 1486308576.07931 | pgbench_tellers_pkey  |            40960
 2017-02-05 16:29:36.079313+01 | 1486308576.07931 | pgbench_accounts_pkey |        225017856

 2017-02-05 16:29:37.161139+01 | 1486308577.16114 | pgbench_branches_pkey |            16384
 2017-02-05 16:29:37.161139+01 | 1486308577.16114 | pgbench_tellers_pkey  |            40960
 2017-02-05 16:29:37.161139+01 | 1486308577.16114 | pgbench_accounts_pkey |        225017856

 2017-02-05 16:29:38.238145+01 | 1486308578.23815 | pgbench_branches_pkey |            16384
 2017-02-05 16:29:38.238145+01 | 1486308578.23815 | pgbench_tellers_pkey  |            40960
 2017-02-05 16:29:38.238145+01 | 1486308578.23815 | pgbench_accounts_pkey |        225017856

 2017-02-05 16:29:39.31942+01 | 1486308579.31942 | pgbench_branches_pkey |            16384
 2017-02-05 16:29:39.31942+01 | 1486308579.31942 | pgbench_tellers_pkey  |            40960
 2017-02-05 16:29:39.31942+01 | 1486308579.31942 | pgbench_accounts_pkey |        225017856

 2017-02-05 16:29:40.39793+01 | 1486308580.39793 | pgbench_branches_pkey |            16384
 2017-02-05 16:29:40.39793+01 | 1486308580.39793 | pgbench_tellers_pkey  |            40960
 2017-02-05 16:29:40.39793+01 | 1486308580.39793 | pgbench_accounts_pkey |        225017856

 2017-02-05 16:29:41.485913+01 | 1486308581.48591 | pgbench_branches_pkey |            16384
 2017-02-05 16:29:41.485913+01 | 1486308581.48591 | pgbench_tellers_pkey  |            40960
 2017-02-05 16:29:41.485913+01 | 1486308581.48591 | pgbench_accounts_pkey |        225017856

 2017-02-05 16:29:42.567476+01 | 1486308582.56748 | pgbench_branches_pkey |            16384
 2017-02-05 16:29:42.567476+01 | 1486308582.56748 | pgbench_tellers_pkey  |            40960
 2017-02-05 16:29:42.567476+01 | 1486308582.56748 | pgbench_accounts_pkey |        225017856

 2017-02-05 16:29:43.646229+01 | 1486308583.64623 | pgbench_branches_pkey |            16384
 2017-02-05 16:29:43.646229+01 | 1486308583.64623 | pgbench_tellers_pkey  |            40960
 2017-02-05 16:29:43.646229+01 | 1486308583.64623 | pgbench_accounts_pkey |        225017856

 2017-02-05 16:29:44.723407+01 | 1486308584.72341 | pgbench_branches_pkey |            16384
 2017-02-05 16:29:44.723407+01 | 1486308584.72341 | pgbench_tellers_pkey  |            40960
 2017-02-05 16:29:44.723407+01 | 1486308584.72341 | pgbench_accounts_pkey |        225017856

 2017-02-05 16:29:45.81819+01 | 1486308585.81819 | pgbench_branches_pkey |            16384
 2017-02-05 16:29:45.81819+01 | 1486308585.81819 | pgbench_tellers_pkey  |            40960
 2017-02-05 16:29:45.81819+01 | 1486308585.81819 | pgbench_accounts_pkey |        225017856

 2017-02-05 16:29:46.907755+01 | 1486308586.90775 | pgbench_branches_pkey |            16384
 2017-02-05 16:29:46.907755+01 | 1486308586.90775 | pgbench_tellers_pkey  |            40960
 2017-02-05 16:29:46.907755+01 | 1486308586.90775 | pgbench_accounts_pkey |        225017856

 2017-02-05 16:29:47.991183+01 | 1486308587.99118 | pgbench_branches_pkey |            16384
 2017-02-05 16:29:47.991183+01 | 1486308587.99118 | pgbench_tellers_pkey  |            40960
 2017-02-05 16:29:47.991183+01 | 1486308587.99118 | pgbench_accounts_pkey |        225017856

 2017-02-05 16:29:49.069816+01 | 1486308589.06982 | pgbench_branches_pkey |            16384
 2017-02-05 16:29:49.069816+01 | 1486308589.06982 | pgbench_tellers_pkey  |            40960
 2017-02-05 16:29:49.069816+01 | 1486308589.06982 | pgbench_accounts_pkey |        225017856

 2017-02-05 16:29:50.144501+01 | 1486308590.1445 | pgbench_branches_pkey |            16384
 2017-02-05 16:29:50.144501+01 | 1486308590.1445 | pgbench_tellers_pkey  |            40960
 2017-02-05 16:29:50.144501+01 | 1486308590.1445 | pgbench_accounts_pkey |        225017856

 2017-02-05 16:29:51.22371+01 | 1486308591.22371 | pgbench_branches_pkey |            16384
 2017-02-05 16:29:51.22371+01 | 1486308591.22371 | pgbench_tellers_pkey  |            40960
 2017-02-05 16:29:51.22371+01 | 1486308591.22371 | pgbench_accounts_pkey |        225017856

 2017-02-05 16:29:52.303719+01 | 1486308592.30372 | pgbench_branches_pkey |            16384
 2017-02-05 16:29:52.303719+01 | 1486308592.30372 | pgbench_tellers_pkey  |            40960
 2017-02-05 16:29:52.303719+01 | 1486308592.30372 | pgbench_accounts_pkey |        225017856

 2017-02-05 16:29:53.381946+01 | 1486308593.38195 | pgbench_branches_pkey |            16384
 2017-02-05 16:29:53.381946+01 | 1486308593.38195 | pgbench_tellers_pkey  |            40960
 2017-02-05 16:29:53.381946+01 | 1486308593.38195 | pgbench_accounts_pkey |        225017856

 2017-02-05 16:29:54.466187+01 | 1486308594.46619 | pgbench_branches_pkey |            16384
 2017-02-05 16:29:54.466187+01 | 1486308594.46619 | pgbench_tellers_pkey  |            40960
 2017-02-05 16:29:54.466187+01 | 1486308594.46619 | pgbench_accounts_pkey |        225017856

 2017-02-05 16:29:55.550614+01 | 1486308595.55061 | pgbench_branches_pkey |            16384
 2017-02-05 16:29:55.550614+01 | 1486308595.55061 | pgbench_tellers_pkey  |            40960
 2017-02-05 16:29:55.550614+01 | 1486308595.55061 | pgbench_accounts_pkey |        225017856

 2017-02-05 16:29:56.633531+01 | 1486308596.63353 | pgbench_branches_pkey |            16384
 2017-02-05 16:29:56.633531+01 | 1486308596.63353 | pgbench_tellers_pkey  |            40960
 2017-02-05 16:29:56.633531+01 | 1486308596.63353 | pgbench_accounts_pkey |        225017856

 2017-02-05 16:29:57.71273+01 | 1486308597.71273 | pgbench_branches_pkey |            16384
 2017-02-05 16:29:57.71273+01 | 1486308597.71273 | pgbench_tellers_pkey  |            40960
 2017-02-05 16:29:57.71273+01 | 1486308597.71273 | pgbench_accounts_pkey |        225017856

 2017-02-05 16:29:58.802602+01 | 1486308598.8026 | pgbench_branches_pkey |            16384
 2017-02-05 16:29:58.802602+01 | 1486308598.8026 | pgbench_tellers_pkey  |            40960
 2017-02-05 16:29:58.802602+01 | 1486308598.8026 | pgbench_accounts_pkey |        225017856

 2017-02-05 16:29:59.881301+01 | 1486308599.8813 | pgbench_branches_pkey |            16384
 2017-02-05 16:29:59.881301+01 | 1486308599.8813 | pgbench_tellers_pkey  |            40960
 2017-02-05 16:29:59.881301+01 | 1486308599.8813 | pgbench_accounts_pkey |        225017856

 2017-02-05 16:30:00.96578+01 | 1486308600.96578 | pgbench_branches_pkey |            16384
 2017-02-05 16:30:00.96578+01 | 1486308600.96578 | pgbench_tellers_pkey  |            40960
 2017-02-05 16:30:00.96578+01 | 1486308600.96578 | pgbench_accounts_pkey |        225017856

 2017-02-05 16:30:02.042106+01 | 1486308602.04211 | pgbench_branches_pkey |            16384
 2017-02-05 16:30:02.042106+01 | 1486308602.04211 | pgbench_tellers_pkey  |            40960
 2017-02-05 16:30:02.042106+01 | 1486308602.04211 | pgbench_accounts_pkey |        225017856

 2017-02-05 16:30:03.126568+01 | 1486308603.12657 | pgbench_branches_pkey |            16384
 2017-02-05 16:30:03.126568+01 | 1486308603.12657 | pgbench_tellers_pkey  |            40960
 2017-02-05 16:30:03.126568+01 | 1486308603.12657 | pgbench_accounts_pkey |        225017856

 2017-02-05 16:30:04.204342+01 | 1486308604.20434 | pgbench_branches_pkey |            16384
 2017-02-05 16:30:04.204342+01 | 1486308604.20434 | pgbench_tellers_pkey  |            40960
 2017-02-05 16:30:04.204342+01 | 1486308604.20434 | pgbench_accounts_pkey |        225017856

 2017-02-05 16:30:05.281765+01 | 1486308605.28176 | pgbench_branches_pkey |            16384
 2017-02-05 16:30:05.281765+01 | 1486308605.28176 | pgbench_tellers_pkey  |            40960
 2017-02-05 16:30:05.281765+01 | 1486308605.28176 | pgbench_accounts_pkey |        225017856

 2017-02-05 16:30:06.361743+01 | 1486308606.36174 | pgbench_branches_pkey |            16384
 2017-02-05 16:30:06.361743+01 | 1486308606.36174 | pgbench_tellers_pkey  |            40960
 2017-02-05 16:30:06.361743+01 | 1486308606.36174 | pgbench_accounts_pkey |        225017856

 2017-02-05 16:30:07.439961+01 | 1486308607.43996 | pgbench_branches_pkey |            16384
 2017-02-05 16:30:07.439961+01 | 1486308607.43996 | pgbench_tellers_pkey  |            40960
 2017-02-05 16:30:07.439961+01 | 1486308607.43996 | pgbench_accounts_pkey |        225017856

 2017-02-05 16:30:08.521504+01 | 1486308608.5215 | pgbench_branches_pkey |            16384
 2017-02-05 16:30:08.521504+01 | 1486308608.5215 | pgbench_tellers_pkey  |            40960
 2017-02-05 16:30:08.521504+01 | 1486308608.5215 | pgbench_accounts_pkey |        225017856

 2017-02-05 16:30:09.609356+01 | 1486308609.60936 | pgbench_branches_pkey |            16384
 2017-02-05 16:30:09.609356+01 | 1486308609.60936 | pgbench_tellers_pkey  |            40960
 2017-02-05 16:30:09.609356+01 | 1486308609.60936 | pgbench_accounts_pkey |        225017856

 2017-02-05 16:30:10.690927+01 | 1486308610.69093 | pgbench_branches_pkey |            16384
 2017-02-05 16:30:10.690927+01 | 1486308610.69093 | pgbench_tellers_pkey  |            40960
 2017-02-05 16:30:10.690927+01 | 1486308610.69093 | pgbench_accounts_pkey |        225017856

 2017-02-05 16:30:11.77639+01 | 1486308611.77639 | pgbench_branches_pkey |            16384
 2017-02-05 16:30:11.77639+01 | 1486308611.77639 | pgbench_tellers_pkey  |            40960
 2017-02-05 16:30:11.77639+01 | 1486308611.77639 | pgbench_accounts_pkey |        225017856

 2017-02-05 16:30:12.863451+01 | 1486308612.86345 | pgbench_branches_pkey |            16384
 2017-02-05 16:30:12.863451+01 | 1486308612.86345 | pgbench_tellers_pkey  |            40960
 2017-02-05 16:30:12.863451+01 | 1486308612.86345 | pgbench_accounts_pkey |        225017856

 2017-02-05 16:30:13.943102+01 | 1486308613.9431 | pgbench_branches_pkey |            16384
 2017-02-05 16:30:13.943102+01 | 1486308613.9431 | pgbench_tellers_pkey  |            40960
 2017-02-05 16:30:13.943102+01 | 1486308613.9431 | pgbench_accounts_pkey |        225017856

 2017-02-05 16:30:15.025766+01 | 1486308615.02577 | pgbench_branches_pkey |            16384
 2017-02-05 16:30:15.025766+01 | 1486308615.02577 | pgbench_tellers_pkey  |            40960
 2017-02-05 16:30:15.025766+01 | 1486308615.02577 | pgbench_accounts_pkey |        225017856

 2017-02-05 16:30:16.110999+01 | 1486308616.111 | pgbench_branches_pkey |            16384
 2017-02-05 16:30:16.110999+01 | 1486308616.111 | pgbench_tellers_pkey  |            40960
 2017-02-05 16:30:16.110999+01 | 1486308616.111 | pgbench_accounts_pkey |        225017856

 2017-02-05 16:30:17.195602+01 | 1486308617.1956 | pgbench_branches_pkey |            16384
 2017-02-05 16:30:17.195602+01 | 1486308617.1956 | pgbench_tellers_pkey  |            40960
 2017-02-05 16:30:17.195602+01 | 1486308617.1956 | pgbench_accounts_pkey |        225017856

 2017-02-05 16:30:18.275099+01 | 1486308618.2751 | pgbench_branches_pkey |            16384
 2017-02-05 16:30:18.275099+01 | 1486308618.2751 | pgbench_tellers_pkey  |            40960
 2017-02-05 16:30:18.275099+01 | 1486308618.2751 | pgbench_accounts_pkey |        225017856

 2017-02-05 16:30:19.351624+01 | 1486308619.35162 | pgbench_branches_pkey |            16384
 2017-02-05 16:30:19.351624+01 | 1486308619.35162 | pgbench_tellers_pkey  |            40960
 2017-02-05 16:30:19.351624+01 | 1486308619.35162 | pgbench_accounts_pkey |        225017856

 2017-02-05 16:30:20.436076+01 | 1486308620.43608 | pgbench_branches_pkey |            16384
 2017-02-05 16:30:20.436076+01 | 1486308620.43608 | pgbench_tellers_pkey  |            40960
 2017-02-05 16:30:20.436076+01 | 1486308620.43608 | pgbench_accounts_pkey |        225017856

 2017-02-05 16:30:21.519861+01 | 1486308621.51986 | pgbench_branches_pkey |            16384
 2017-02-05 16:30:21.519861+01 | 1486308621.51986 | pgbench_tellers_pkey  |            40960
 2017-02-05 16:30:21.519861+01 | 1486308621.51986 | pgbench_accounts_pkey |        225017856

 2017-02-05 16:30:22.601273+01 | 1486308622.60127 | pgbench_branches_pkey |            16384
 2017-02-05 16:30:22.601273+01 | 1486308622.60127 | pgbench_tellers_pkey  |            40960
 2017-02-05 16:30:22.601273+01 | 1486308622.60127 | pgbench_accounts_pkey |        225017856

 2017-02-05 16:30:23.698915+01 | 1486308623.69892 | pgbench_branches_pkey |            16384
 2017-02-05 16:30:23.698915+01 | 1486308623.69892 | pgbench_tellers_pkey  |            40960
 2017-02-05 16:30:23.698915+01 | 1486308623.69892 | pgbench_accounts_pkey |        225017856

 2017-02-05 16:30:24.779413+01 | 1486308624.77941 | pgbench_branches_pkey |            16384
 2017-02-05 16:30:24.779413+01 | 1486308624.77941 | pgbench_tellers_pkey  |            40960
 2017-02-05 16:30:24.779413+01 | 1486308624.77941 | pgbench_accounts_pkey |        225017856

 2017-02-05 16:30:25.861375+01 | 1486308625.86138 | pgbench_branches_pkey |            16384
 2017-02-05 16:30:25.861375+01 | 1486308625.86138 | pgbench_tellers_pkey  |            40960
 2017-02-05 16:30:25.861375+01 | 1486308625.86138 | pgbench_accounts_pkey |        225017856

 2017-02-05 16:30:26.94244+01 | 1486308626.94244 | pgbench_branches_pkey |            16384
 2017-02-05 16:30:26.94244+01 | 1486308626.94244 | pgbench_tellers_pkey  |            40960
 2017-02-05 16:30:26.94244+01 | 1486308626.94244 | pgbench_accounts_pkey |        225017856

 2017-02-05 16:30:28.022746+01 | 1486308628.02275 | pgbench_branches_pkey |            16384
 2017-02-05 16:30:28.022746+01 | 1486308628.02275 | pgbench_tellers_pkey  |            40960
 2017-02-05 16:30:28.022746+01 | 1486308628.02275 | pgbench_accounts_pkey |        225017856

 2017-02-05 16:30:29.116596+01 | 1486308629.1166 | pgbench_branches_pkey |            16384
 2017-02-05 16:30:29.116596+01 | 1486308629.1166 | pgbench_tellers_pkey  |            40960
 2017-02-05 16:30:29.116596+01 | 1486308629.1166 | pgbench_accounts_pkey |        225017856

 2017-02-05 16:30:30.193796+01 | 1486308630.1938 | pgbench_branches_pkey |            16384
 2017-02-05 16:30:30.193796+01 | 1486308630.1938 | pgbench_tellers_pkey  |            40960
 2017-02-05 16:30:30.193796+01 | 1486308630.1938 | pgbench_accounts_pkey |        225017856

 2017-02-05 16:30:31.277139+01 | 1486308631.27714 | pgbench_branches_pkey |            16384
 2017-02-05 16:30:31.277139+01 | 1486308631.27714 | pgbench_tellers_pkey  |            40960
 2017-02-05 16:30:31.277139+01 | 1486308631.27714 | pgbench_accounts_pkey |        225017856

 2017-02-05 16:30:32.361436+01 | 1486308632.36144 | pgbench_branches_pkey |            16384
 2017-02-05 16:30:32.361436+01 | 1486308632.36144 | pgbench_tellers_pkey  |            40960
 2017-02-05 16:30:32.361436+01 | 1486308632.36144 | pgbench_accounts_pkey |        225017856

 2017-02-05 16:30:33.441743+01 | 1486308633.44174 | pgbench_branches_pkey |            16384
 2017-02-05 16:30:33.441743+01 | 1486308633.44174 | pgbench_tellers_pkey  |            40960
 2017-02-05 16:30:33.441743+01 | 1486308633.44174 | pgbench_accounts_pkey |        225017856

 2017-02-05 16:30:34.527258+01 | 1486308634.52726 | pgbench_branches_pkey |            16384
 2017-02-05 16:30:34.527258+01 | 1486308634.52726 | pgbench_tellers_pkey  |            40960
 2017-02-05 16:30:34.527258+01 | 1486308634.52726 | pgbench_accounts_pkey |        225017856

 2017-02-05 16:30:35.608988+01 | 1486308635.60899 | pgbench_branches_pkey |            16384
 2017-02-05 16:30:35.608988+01 | 1486308635.60899 | pgbench_tellers_pkey  |            40960
 2017-02-05 16:30:35.608988+01 | 1486308635.60899 | pgbench_accounts_pkey |        225017856

 2017-02-05 16:30:36.68365+01 | 1486308636.68365 | pgbench_branches_pkey |            16384
 2017-02-05 16:30:36.68365+01 | 1486308636.68365 | pgbench_tellers_pkey  |            40960
 2017-02-05 16:30:36.68365+01 | 1486308636.68365 | pgbench_accounts_pkey |        225017856

 2017-02-05 16:30:37.767358+01 | 1486308637.76736 | pgbench_branches_pkey |            16384
 2017-02-05 16:30:37.767358+01 | 1486308637.76736 | pgbench_tellers_pkey  |            40960
 2017-02-05 16:30:37.767358+01 | 1486308637.76736 | pgbench_accounts_pkey |        225017856

 2017-02-05 16:30:38.849484+01 | 1486308638.84948 | pgbench_branches_pkey |            16384
 2017-02-05 16:30:38.849484+01 | 1486308638.84948 | pgbench_tellers_pkey  |            40960
 2017-02-05 16:30:38.849484+01 | 1486308638.84948 | pgbench_accounts_pkey |        225017856

 2017-02-05 16:30:39.927661+01 | 1486308639.92766 | pgbench_branches_pkey |            16384
 2017-02-05 16:30:39.927661+01 | 1486308639.92766 | pgbench_tellers_pkey  |            40960
 2017-02-05 16:30:39.927661+01 | 1486308639.92766 | pgbench_accounts_pkey |        225017856

 2017-02-05 16:30:41.010934+01 | 1486308641.01093 | pgbench_branches_pkey |            16384
 2017-02-05 16:30:41.010934+01 | 1486308641.01093 | pgbench_tellers_pkey  |            40960
 2017-02-05 16:30:41.010934+01 | 1486308641.01093 | pgbench_accounts_pkey |        225017856

 2017-02-05 16:30:42.091658+01 | 1486308642.09166 | pgbench_branches_pkey |            16384
 2017-02-05 16:30:42.091658+01 | 1486308642.09166 | pgbench_tellers_pkey  |            40960
 2017-02-05 16:30:42.091658+01 | 1486308642.09166 | pgbench_accounts_pkey |        225017856

 2017-02-05 16:30:43.172732+01 | 1486308643.17273 | pgbench_branches_pkey |            16384
 2017-02-05 16:30:43.172732+01 | 1486308643.17273 | pgbench_tellers_pkey  |            40960
 2017-02-05 16:30:43.172732+01 | 1486308643.17273 | pgbench_accounts_pkey |        225017856

 2017-02-05 16:30:44.252877+01 | 1486308644.25288 | pgbench_branches_pkey |            16384
 2017-02-05 16:30:44.252877+01 | 1486308644.25288 | pgbench_tellers_pkey  |            40960
 2017-02-05 16:30:44.252877+01 | 1486308644.25288 | pgbench_accounts_pkey |        225017856

 2017-02-05 16:30:45.343054+01 | 1486308645.34305 | pgbench_branches_pkey |            16384
 2017-02-05 16:30:45.343054+01 | 1486308645.34305 | pgbench_tellers_pkey  |            40960
 2017-02-05 16:30:45.343054+01 | 1486308645.34305 | pgbench_accounts_pkey |        225017856

 2017-02-05 16:30:46.435656+01 | 1486308646.43566 | pgbench_branches_pkey |            16384
 2017-02-05 16:30:46.435656+01 | 1486308646.43566 | pgbench_tellers_pkey  |            40960
 2017-02-05 16:30:46.435656+01 | 1486308646.43566 | pgbench_accounts_pkey |        225017856

 2017-02-05 16:30:47.522495+01 | 1486308647.5225 | pgbench_branches_pkey |            16384
 2017-02-05 16:30:47.522495+01 | 1486308647.5225 | pgbench_tellers_pkey  |            40960
 2017-02-05 16:30:47.522495+01 | 1486308647.5225 | pgbench_accounts_pkey |        225017856

 2017-02-05 16:30:48.604242+01 | 1486308648.60424 | pgbench_branches_pkey |            16384
 2017-02-05 16:30:48.604242+01 | 1486308648.60424 | pgbench_tellers_pkey  |            40960
 2017-02-05 16:30:48.604242+01 | 1486308648.60424 | pgbench_accounts_pkey |        225017856

 2017-02-05 16:30:49.693231+01 | 1486308649.69323 | pgbench_branches_pkey |            16384
 2017-02-05 16:30:49.693231+01 | 1486308649.69323 | pgbench_tellers_pkey  |            40960
 2017-02-05 16:30:49.693231+01 | 1486308649.69323 | pgbench_accounts_pkey |        225017856

 2017-02-05 16:30:50.774557+01 | 1486308650.77456 | pgbench_branches_pkey |            16384
 2017-02-05 16:30:50.774557+01 | 1486308650.77456 | pgbench_tellers_pkey  |            40960
 2017-02-05 16:30:50.774557+01 | 1486308650.77456 | pgbench_accounts_pkey |        225017856

 2017-02-05 16:30:51.860011+01 | 1486308651.86001 | pgbench_branches_pkey |            16384
 2017-02-05 16:30:51.860011+01 | 1486308651.86001 | pgbench_tellers_pkey  |            40960
 2017-02-05 16:30:51.860011+01 | 1486308651.86001 | pgbench_accounts_pkey |        225017856

 2017-02-05 16:30:52.935436+01 | 1486308652.93544 | pgbench_branches_pkey |            16384
 2017-02-05 16:30:52.935436+01 | 1486308652.93544 | pgbench_tellers_pkey  |            40960
 2017-02-05 16:30:52.935436+01 | 1486308652.93544 | pgbench_accounts_pkey |        225017856

 2017-02-05 16:30:54.013526+01 | 1486308654.01353 | pgbench_branches_pkey |            16384
 2017-02-05 16:30:54.013526+01 | 1486308654.01353 | pgbench_tellers_pkey  |            40960
 2017-02-05 16:30:54.013526+01 | 1486308654.01353 | pgbench_accounts_pkey |        225017856

 2017-02-05 16:30:55.093933+01 | 1486308655.09393 | pgbench_branches_pkey |            16384
 2017-02-05 16:30:55.093933+01 | 1486308655.09393 | pgbench_tellers_pkey  |            40960
 2017-02-05 16:30:55.093933+01 | 1486308655.09393 | pgbench_accounts_pkey |        225017856

 2017-02-05 16:30:56.17006+01 | 1486308656.17006 | pgbench_branches_pkey |            16384
 2017-02-05 16:30:56.17006+01 | 1486308656.17006 | pgbench_tellers_pkey  |            40960
 2017-02-05 16:30:56.17006+01 | 1486308656.17006 | pgbench_accounts_pkey |        225017856

 2017-02-05 16:30:57.264048+01 | 1486308657.26405 | pgbench_branches_pkey |            16384
 2017-02-05 16:30:57.264048+01 | 1486308657.26405 | pgbench_tellers_pkey  |            40960
 2017-02-05 16:30:57.264048+01 | 1486308657.26405 | pgbench_accounts_pkey |        225017856

 2017-02-05 16:30:58.338223+01 | 1486308658.33822 | pgbench_branches_pkey |            16384
 2017-02-05 16:30:58.338223+01 | 1486308658.33822 | pgbench_tellers_pkey  |            40960
 2017-02-05 16:30:58.338223+01 | 1486308658.33822 | pgbench_accounts_pkey |        225017856

 2017-02-05 16:30:59.416201+01 | 1486308659.4162 | pgbench_branches_pkey |            16384
 2017-02-05 16:30:59.416201+01 | 1486308659.4162 | pgbench_tellers_pkey  |            40960
 2017-02-05 16:30:59.416201+01 | 1486308659.4162 | pgbench_accounts_pkey |        225017856

 2017-02-05 16:31:00.499998+01 | 1486308660.5 | pgbench_branches_pkey |            16384
 2017-02-05 16:31:00.499998+01 | 1486308660.5 | pgbench_tellers_pkey  |            40960
 2017-02-05 16:31:00.499998+01 | 1486308660.5 | pgbench_accounts_pkey |        225017856

 2017-02-05 16:31:01.574305+01 | 1486308661.57431 | pgbench_branches_pkey |            16384
 2017-02-05 16:31:01.574305+01 | 1486308661.57431 | pgbench_tellers_pkey  |            40960
 2017-02-05 16:31:01.574305+01 | 1486308661.57431 | pgbench_accounts_pkey |        225017856

 2017-02-05 16:31:02.657242+01 | 1486308662.65724 | pgbench_branches_pkey |            16384
 2017-02-05 16:31:02.657242+01 | 1486308662.65724 | pgbench_tellers_pkey  |            40960
 2017-02-05 16:31:02.657242+01 | 1486308662.65724 | pgbench_accounts_pkey |        225017856

 2017-02-05 16:31:03.735874+01 | 1486308663.73587 | pgbench_branches_pkey |            16384
 2017-02-05 16:31:03.735874+01 | 1486308663.73587 | pgbench_tellers_pkey  |            40960
 2017-02-05 16:31:03.735874+01 | 1486308663.73587 | pgbench_accounts_pkey |        225017856

 2017-02-05 16:31:04.816513+01 | 1486308664.81651 | pgbench_branches_pkey |            16384
 2017-02-05 16:31:04.816513+01 | 1486308664.81651 | pgbench_tellers_pkey  |            40960
 2017-02-05 16:31:04.816513+01 | 1486308664.81651 | pgbench_accounts_pkey |        225017856

 2017-02-05 16:31:05.89549+01 | 1486308665.89549 | pgbench_branches_pkey |            16384
 2017-02-05 16:31:05.89549+01 | 1486308665.89549 | pgbench_tellers_pkey  |            40960
 2017-02-05 16:31:05.89549+01 | 1486308665.89549 | pgbench_accounts_pkey |        225017856

 2017-02-05 16:31:06.981134+01 | 1486308666.98113 | pgbench_branches_pkey |            16384
 2017-02-05 16:31:06.981134+01 | 1486308666.98113 | pgbench_tellers_pkey  |            40960
 2017-02-05 16:31:06.981134+01 | 1486308666.98113 | pgbench_accounts_pkey |        225017856

 2017-02-05 16:31:08.067741+01 | 1486308668.06774 | pgbench_branches_pkey |            16384
 2017-02-05 16:31:08.067741+01 | 1486308668.06774 | pgbench_tellers_pkey  |            40960
 2017-02-05 16:31:08.067741+01 | 1486308668.06774 | pgbench_accounts_pkey |        225017856

 2017-02-05 16:31:09.147201+01 | 1486308669.1472 | pgbench_branches_pkey |            16384
 2017-02-05 16:31:09.147201+01 | 1486308669.1472 | pgbench_tellers_pkey  |            40960
 2017-02-05 16:31:09.147201+01 | 1486308669.1472 | pgbench_accounts_pkey |        225017856

 2017-02-05 16:31:10.233525+01 | 1486308670.23353 | pgbench_branches_pkey |            16384
 2017-02-05 16:31:10.233525+01 | 1486308670.23353 | pgbench_tellers_pkey  |            40960
 2017-02-05 16:31:10.233525+01 | 1486308670.23353 | pgbench_accounts_pkey |        225017856

 2017-02-05 16:31:11.32261+01 | 1486308671.32261 | pgbench_branches_pkey |            16384
 2017-02-05 16:31:11.32261+01 | 1486308671.32261 | pgbench_tellers_pkey  |            40960
 2017-02-05 16:31:11.32261+01 | 1486308671.32261 | pgbench_accounts_pkey |        225017856

 2017-02-05 16:31:12.406183+01 | 1486308672.40618 | pgbench_branches_pkey |            16384
 2017-02-05 16:31:12.406183+01 | 1486308672.40618 | pgbench_tellers_pkey  |            40960
 2017-02-05 16:31:12.406183+01 | 1486308672.40618 | pgbench_accounts_pkey |        225017856

 2017-02-05 16:31:13.486946+01 | 1486308673.48695 | pgbench_branches_pkey |            16384
 2017-02-05 16:31:13.486946+01 | 1486308673.48695 | pgbench_tellers_pkey  |            40960
 2017-02-05 16:31:13.486946+01 | 1486308673.48695 | pgbench_accounts_pkey |        225017856

 2017-02-05 16:31:14.564784+01 | 1486308674.56478 | pgbench_branches_pkey |            16384
 2017-02-05 16:31:14.564784+01 | 1486308674.56478 | pgbench_tellers_pkey  |            40960
 2017-02-05 16:31:14.564784+01 | 1486308674.56478 | pgbench_accounts_pkey |        225017856

 2017-02-05 16:31:15.652455+01 | 1486308675.65246 | pgbench_branches_pkey |            16384
 2017-02-05 16:31:15.652455+01 | 1486308675.65246 | pgbench_tellers_pkey  |            40960
 2017-02-05 16:31:15.652455+01 | 1486308675.65246 | pgbench_accounts_pkey |        225017856

 2017-02-05 16:31:16.735765+01 | 1486308676.73576 | pgbench_branches_pkey |            16384
 2017-02-05 16:31:16.735765+01 | 1486308676.73576 | pgbench_tellers_pkey  |            40960
 2017-02-05 16:31:16.735765+01 | 1486308676.73576 | pgbench_accounts_pkey |        225017856

 2017-02-05 16:31:17.816419+01 | 1486308677.81642 | pgbench_branches_pkey |            16384
 2017-02-05 16:31:17.816419+01 | 1486308677.81642 | pgbench_tellers_pkey  |            40960
 2017-02-05 16:31:17.816419+01 | 1486308677.81642 | pgbench_accounts_pkey |        225017856

 2017-02-05 16:31:18.890283+01 | 1486308678.89028 | pgbench_branches_pkey |            16384
 2017-02-05 16:31:18.890283+01 | 1486308678.89028 | pgbench_tellers_pkey  |            40960
 2017-02-05 16:31:18.890283+01 | 1486308678.89028 | pgbench_accounts_pkey |        225017856

 2017-02-05 16:31:19.965757+01 | 1486308679.96576 | pgbench_branches_pkey |            16384
 2017-02-05 16:31:19.965757+01 | 1486308679.96576 | pgbench_tellers_pkey  |            40960
 2017-02-05 16:31:19.965757+01 | 1486308679.96576 | pgbench_accounts_pkey |        225017856

 2017-02-05 16:31:21.045635+01 | 1486308681.04563 | pgbench_branches_pkey |            16384
 2017-02-05 16:31:21.045635+01 | 1486308681.04563 | pgbench_tellers_pkey  |            40960
 2017-02-05 16:31:21.045635+01 | 1486308681.04563 | pgbench_accounts_pkey |        225017856

 2017-02-05 16:31:22.129676+01 | 1486308682.12968 | pgbench_branches_pkey |            16384
 2017-02-05 16:31:22.129676+01 | 1486308682.12968 | pgbench_tellers_pkey  |            40960
 2017-02-05 16:31:22.129676+01 | 1486308682.12968 | pgbench_accounts_pkey |        225017856

 2017-02-05 16:31:23.206963+01 | 1486308683.20696 | pgbench_branches_pkey |            16384
 2017-02-05 16:31:23.206963+01 | 1486308683.20696 | pgbench_tellers_pkey  |            40960
 2017-02-05 16:31:23.206963+01 | 1486308683.20696 | pgbench_accounts_pkey |        225017856

 2017-02-05 16:31:24.284249+01 | 1486308684.28425 | pgbench_branches_pkey |            16384
 2017-02-05 16:31:24.284249+01 | 1486308684.28425 | pgbench_tellers_pkey  |            40960
 2017-02-05 16:31:24.284249+01 | 1486308684.28425 | pgbench_accounts_pkey |        225017856

 2017-02-05 16:31:25.358758+01 | 1486308685.35876 | pgbench_branches_pkey |            16384
 2017-02-05 16:31:25.358758+01 | 1486308685.35876 | pgbench_tellers_pkey  |            40960
 2017-02-05 16:31:25.358758+01 | 1486308685.35876 | pgbench_accounts_pkey |        225017856

 2017-02-05 16:31:26.445499+01 | 1486308686.4455 | pgbench_branches_pkey |            16384
 2017-02-05 16:31:26.445499+01 | 1486308686.4455 | pgbench_tellers_pkey  |            40960
 2017-02-05 16:31:26.445499+01 | 1486308686.4455 | pgbench_accounts_pkey |        225017856

 2017-02-05 16:31:27.524815+01 | 1486308687.52482 | pgbench_branches_pkey |            16384
 2017-02-05 16:31:27.524815+01 | 1486308687.52482 | pgbench_tellers_pkey  |            40960
 2017-02-05 16:31:27.524815+01 | 1486308687.52482 | pgbench_accounts_pkey |        225017856

 2017-02-05 16:31:28.606555+01 | 1486308688.60655 | pgbench_branches_pkey |            16384
 2017-02-05 16:31:28.606555+01 | 1486308688.60655 | pgbench_tellers_pkey  |            40960
 2017-02-05 16:31:28.606555+01 | 1486308688.60655 | pgbench_accounts_pkey |        225017856

 2017-02-05 16:31:29.688576+01 | 1486308689.68858 | pgbench_branches_pkey |            16384
 2017-02-05 16:31:29.688576+01 | 1486308689.68858 | pgbench_tellers_pkey  |            40960
 2017-02-05 16:31:29.688576+01 | 1486308689.68858 | pgbench_accounts_pkey |        225017856

 2017-02-05 16:31:30.769099+01 | 1486308690.7691 | pgbench_branches_pkey |            16384
 2017-02-05 16:31:30.769099+01 | 1486308690.7691 | pgbench_tellers_pkey  |            40960
 2017-02-05 16:31:30.769099+01 | 1486308690.7691 | pgbench_accounts_pkey |        225017856

 2017-02-05 16:31:31.852596+01 | 1486308691.8526 | pgbench_branches_pkey |            16384
 2017-02-05 16:31:31.852596+01 | 1486308691.8526 | pgbench_tellers_pkey  |            40960
 2017-02-05 16:31:31.852596+01 | 1486308691.8526 | pgbench_accounts_pkey |        225017856

 2017-02-05 16:31:32.925745+01 | 1486308692.92575 | pgbench_branches_pkey |            16384
 2017-02-05 16:31:32.925745+01 | 1486308692.92575 | pgbench_tellers_pkey  |            40960
 2017-02-05 16:31:32.925745+01 | 1486308692.92575 | pgbench_accounts_pkey |        225017856

 2017-02-05 16:31:34.003396+01 | 1486308694.0034 | pgbench_branches_pkey |            16384
 2017-02-05 16:31:34.003396+01 | 1486308694.0034 | pgbench_tellers_pkey  |            40960
 2017-02-05 16:31:34.003396+01 | 1486308694.0034 | pgbench_accounts_pkey |        225017856

 2017-02-05 16:31:35.081562+01 | 1486308695.08156 | pgbench_branches_pkey |            16384
 2017-02-05 16:31:35.081562+01 | 1486308695.08156 | pgbench_tellers_pkey  |            40960
 2017-02-05 16:31:35.081562+01 | 1486308695.08156 | pgbench_accounts_pkey |        225017856

 2017-02-05 16:31:36.160629+01 | 1486308696.16063 | pgbench_branches_pkey |            16384
 2017-02-05 16:31:36.160629+01 | 1486308696.16063 | pgbench_tellers_pkey  |            40960
 2017-02-05 16:31:36.160629+01 | 1486308696.16063 | pgbench_accounts_pkey |        225017856

 2017-02-05 16:31:37.236873+01 | 1486308697.23687 | pgbench_branches_pkey |            16384
 2017-02-05 16:31:37.236873+01 | 1486308697.23687 | pgbench_tellers_pkey  |            40960
 2017-02-05 16:31:37.236873+01 | 1486308697.23687 | pgbench_accounts_pkey |        225017856

 2017-02-05 16:31:38.311481+01 | 1486308698.31148 | pgbench_branches_pkey |            16384
 2017-02-05 16:31:38.311481+01 | 1486308698.31148 | pgbench_tellers_pkey  |            40960
 2017-02-05 16:31:38.311481+01 | 1486308698.31148 | pgbench_accounts_pkey |        225017856

 2017-02-05 16:31:39.385937+01 | 1486308699.38594 | pgbench_branches_pkey |            16384
 2017-02-05 16:31:39.385937+01 | 1486308699.38594 | pgbench_tellers_pkey  |            40960
 2017-02-05 16:31:39.385937+01 | 1486308699.38594 | pgbench_accounts_pkey |        225017856

 2017-02-05 16:31:40.463163+01 | 1486308700.46316 | pgbench_branches_pkey |            16384
 2017-02-05 16:31:40.463163+01 | 1486308700.46316 | pgbench_tellers_pkey  |            40960
 2017-02-05 16:31:40.463163+01 | 1486308700.46316 | pgbench_accounts_pkey |        225017856

 2017-02-05 16:31:41.55259+01 | 1486308701.55259 | pgbench_branches_pkey |            16384
 2017-02-05 16:31:41.55259+01 | 1486308701.55259 | pgbench_tellers_pkey  |            40960
 2017-02-05 16:31:41.55259+01 | 1486308701.55259 | pgbench_accounts_pkey |        225017856

 2017-02-05 16:31:42.641046+01 | 1486308702.64105 | pgbench_branches_pkey |            16384
 2017-02-05 16:31:42.641046+01 | 1486308702.64105 | pgbench_tellers_pkey  |            40960
 2017-02-05 16:31:42.641046+01 | 1486308702.64105 | pgbench_accounts_pkey |        225017856

 2017-02-05 16:31:43.728722+01 | 1486308703.72872 | pgbench_branches_pkey |            16384
 2017-02-05 16:31:43.728722+01 | 1486308703.72872 | pgbench_tellers_pkey  |            40960
 2017-02-05 16:31:43.728722+01 | 1486308703.72872 | pgbench_accounts_pkey |        225017856

 2017-02-05 16:31:44.809225+01 | 1486308704.80923 | pgbench_branches_pkey |            16384
 2017-02-05 16:31:44.809225+01 | 1486308704.80923 | pgbench_tellers_pkey  |            40960
 2017-02-05 16:31:44.809225+01 | 1486308704.80923 | pgbench_accounts_pkey |        225017856

 2017-02-05 16:31:45.889293+01 | 1486308705.88929 | pgbench_branches_pkey |            16384
 2017-02-05 16:31:45.889293+01 | 1486308705.88929 | pgbench_tellers_pkey  |            40960
 2017-02-05 16:31:45.889293+01 | 1486308705.88929 | pgbench_accounts_pkey |        225017856

 2017-02-05 16:31:46.968826+01 | 1486308706.96883 | pgbench_branches_pkey |            16384
 2017-02-05 16:31:46.968826+01 | 1486308706.96883 | pgbench_tellers_pkey  |            40960
 2017-02-05 16:31:46.968826+01 | 1486308706.96883 | pgbench_accounts_pkey |        225017856

 2017-02-05 16:31:48.053788+01 | 1486308708.05379 | pgbench_branches_pkey |            16384
 2017-02-05 16:31:48.053788+01 | 1486308708.05379 | pgbench_tellers_pkey  |            40960
 2017-02-05 16:31:48.053788+01 | 1486308708.05379 | pgbench_accounts_pkey |        225017856

 2017-02-05 16:31:49.134416+01 | 1486308709.13442 | pgbench_branches_pkey |            16384
 2017-02-05 16:31:49.134416+01 | 1486308709.13442 | pgbench_tellers_pkey  |            40960
 2017-02-05 16:31:49.134416+01 | 1486308709.13442 | pgbench_accounts_pkey |        225017856

 2017-02-05 16:31:50.209929+01 | 1486308710.20993 | pgbench_branches_pkey |            16384
 2017-02-05 16:31:50.209929+01 | 1486308710.20993 | pgbench_tellers_pkey  |            40960
 2017-02-05 16:31:50.209929+01 | 1486308710.20993 | pgbench_accounts_pkey |        225017856

 2017-02-05 16:31:51.282348+01 | 1486308711.28235 | pgbench_branches_pkey |            16384
 2017-02-05 16:31:51.282348+01 | 1486308711.28235 | pgbench_tellers_pkey  |            40960
 2017-02-05 16:31:51.282348+01 | 1486308711.28235 | pgbench_accounts_pkey |        225017856

 2017-02-05 16:31:52.364359+01 | 1486308712.36436 | pgbench_branches_pkey |            16384
 2017-02-05 16:31:52.364359+01 | 1486308712.36436 | pgbench_tellers_pkey  |            40960
 2017-02-05 16:31:52.364359+01 | 1486308712.36436 | pgbench_accounts_pkey |        225017856

 2017-02-05 16:31:53.438084+01 | 1486308713.43808 | pgbench_branches_pkey |            16384
 2017-02-05 16:31:53.438084+01 | 1486308713.43808 | pgbench_tellers_pkey  |            40960
 2017-02-05 16:31:53.438084+01 | 1486308713.43808 | pgbench_accounts_pkey |        225017856

 2017-02-05 16:31:54.514571+01 | 1486308714.51457 | pgbench_branches_pkey |            16384
 2017-02-05 16:31:54.514571+01 | 1486308714.51457 | pgbench_tellers_pkey  |            40960
 2017-02-05 16:31:54.514571+01 | 1486308714.51457 | pgbench_accounts_pkey |        225017856

 2017-02-05 16:31:55.591616+01 | 1486308715.59162 | pgbench_branches_pkey |            16384
 2017-02-05 16:31:55.591616+01 | 1486308715.59162 | pgbench_tellers_pkey  |            40960
 2017-02-05 16:31:55.591616+01 | 1486308715.59162 | pgbench_accounts_pkey |        225017856

 2017-02-05 16:31:56.674094+01 | 1486308716.67409 | pgbench_branches_pkey |            16384
 2017-02-05 16:31:56.674094+01 | 1486308716.67409 | pgbench_tellers_pkey  |            40960
 2017-02-05 16:31:56.674094+01 | 1486308716.67409 | pgbench_accounts_pkey |        225017856

 2017-02-05 16:31:57.756749+01 | 1486308717.75675 | pgbench_branches_pkey |            16384
 2017-02-05 16:31:57.756749+01 | 1486308717.75675 | pgbench_tellers_pkey  |            40960
 2017-02-05 16:31:57.756749+01 | 1486308717.75675 | pgbench_accounts_pkey |        225017856

 2017-02-05 16:31:58.835564+01 | 1486308718.83556 | pgbench_branches_pkey |            16384
 2017-02-05 16:31:58.835564+01 | 1486308718.83556 | pgbench_tellers_pkey  |            40960
 2017-02-05 16:31:58.835564+01 | 1486308718.83556 | pgbench_accounts_pkey |        225017856

 2017-02-05 16:31:59.913886+01 | 1486308719.91389 | pgbench_branches_pkey |            16384
 2017-02-05 16:31:59.913886+01 | 1486308719.91389 | pgbench_tellers_pkey  |            40960
 2017-02-05 16:31:59.913886+01 | 1486308719.91389 | pgbench_accounts_pkey |        225017856

 2017-02-05 16:32:01.00518+01 | 1486308721.00518 | pgbench_branches_pkey |            16384
 2017-02-05 16:32:01.00518+01 | 1486308721.00518 | pgbench_tellers_pkey  |            40960
 2017-02-05 16:32:01.00518+01 | 1486308721.00518 | pgbench_accounts_pkey |        225017856

 2017-02-05 16:32:02.079228+01 | 1486308722.07923 | pgbench_branches_pkey |            16384
 2017-02-05 16:32:02.079228+01 | 1486308722.07923 | pgbench_tellers_pkey  |            40960
 2017-02-05 16:32:02.079228+01 | 1486308722.07923 | pgbench_accounts_pkey |        225017856

 2017-02-05 16:32:03.166557+01 | 1486308723.16656 | pgbench_branches_pkey |            16384
 2017-02-05 16:32:03.166557+01 | 1486308723.16656 | pgbench_tellers_pkey  |            40960
 2017-02-05 16:32:03.166557+01 | 1486308723.16656 | pgbench_accounts_pkey |        225017856

 2017-02-05 16:32:04.247037+01 | 1486308724.24704 | pgbench_branches_pkey |            16384
 2017-02-05 16:32:04.247037+01 | 1486308724.24704 | pgbench_tellers_pkey  |            40960
 2017-02-05 16:32:04.247037+01 | 1486308724.24704 | pgbench_accounts_pkey |        225017856

 2017-02-05 16:32:05.322034+01 | 1486308725.32203 | pgbench_branches_pkey |            16384
 2017-02-05 16:32:05.322034+01 | 1486308725.32203 | pgbench_tellers_pkey  |            40960
 2017-02-05 16:32:05.322034+01 | 1486308725.32203 | pgbench_accounts_pkey |        225017856

 2017-02-05 16:32:06.39945+01 | 1486308726.39945 | pgbench_branches_pkey |            16384
 2017-02-05 16:32:06.39945+01 | 1486308726.39945 | pgbench_tellers_pkey  |            40960
 2017-02-05 16:32:06.39945+01 | 1486308726.39945 | pgbench_accounts_pkey |        225017856

 2017-02-05 16:32:07.479208+01 | 1486308727.47921 | pgbench_branches_pkey |            16384
 2017-02-05 16:32:07.479208+01 | 1486308727.47921 | pgbench_tellers_pkey  |            40960
 2017-02-05 16:32:07.479208+01 | 1486308727.47921 | pgbench_accounts_pkey |        225017856

 2017-02-05 16:32:08.562428+01 | 1486308728.56243 | pgbench_branches_pkey |            16384
 2017-02-05 16:32:08.562428+01 | 1486308728.56243 | pgbench_tellers_pkey  |            40960
 2017-02-05 16:32:08.562428+01 | 1486308728.56243 | pgbench_accounts_pkey |        225017856

 2017-02-05 16:32:09.641496+01 | 1486308729.6415 | pgbench_branches_pkey |            16384
 2017-02-05 16:32:09.641496+01 | 1486308729.6415 | pgbench_tellers_pkey  |            40960
 2017-02-05 16:32:09.641496+01 | 1486308729.6415 | pgbench_accounts_pkey |        225017856

 2017-02-05 16:32:10.719056+01 | 1486308730.71906 | pgbench_branches_pkey |            16384
 2017-02-05 16:32:10.719056+01 | 1486308730.71906 | pgbench_tellers_pkey  |            40960
 2017-02-05 16:32:10.719056+01 | 1486308730.71906 | pgbench_accounts_pkey |        225017856

 2017-02-05 16:32:11.799074+01 | 1486308731.79907 | pgbench_branches_pkey |            16384
 2017-02-05 16:32:11.799074+01 | 1486308731.79907 | pgbench_tellers_pkey  |            40960
 2017-02-05 16:32:11.799074+01 | 1486308731.79907 | pgbench_accounts_pkey |        225017856

 2017-02-05 16:32:12.876737+01 | 1486308732.87674 | pgbench_branches_pkey |            16384
 2017-02-05 16:32:12.876737+01 | 1486308732.87674 | pgbench_tellers_pkey  |            40960
 2017-02-05 16:32:12.876737+01 | 1486308732.87674 | pgbench_accounts_pkey |        225017856

 2017-02-05 16:32:13.958416+01 | 1486308733.95842 | pgbench_branches_pkey |            16384
 2017-02-05 16:32:13.958416+01 | 1486308733.95842 | pgbench_tellers_pkey  |            40960
 2017-02-05 16:32:13.958416+01 | 1486308733.95842 | pgbench_accounts_pkey |        225017856

 2017-02-05 16:32:15.034629+01 | 1486308735.03463 | pgbench_branches_pkey |            16384
 2017-02-05 16:32:15.034629+01 | 1486308735.03463 | pgbench_tellers_pkey  |            40960
 2017-02-05 16:32:15.034629+01 | 1486308735.03463 | pgbench_accounts_pkey |        225017856

 2017-02-05 16:32:16.106524+01 | 1486308736.10652 | pgbench_branches_pkey |            16384
 2017-02-05 16:32:16.106524+01 | 1486308736.10652 | pgbench_tellers_pkey  |            40960
 2017-02-05 16:32:16.106524+01 | 1486308736.10652 | pgbench_accounts_pkey |        225017856

 2017-02-05 16:32:17.187107+01 | 1486308737.18711 | pgbench_branches_pkey |            16384
 2017-02-05 16:32:17.187107+01 | 1486308737.18711 | pgbench_tellers_pkey  |            40960
 2017-02-05 16:32:17.187107+01 | 1486308737.18711 | pgbench_accounts_pkey |        225017856

 2017-02-05 16:32:18.259995+01 | 1486308738.25999 | pgbench_branches_pkey |            16384
 2017-02-05 16:32:18.259995+01 | 1486308738.25999 | pgbench_tellers_pkey  |            40960
 2017-02-05 16:32:18.259995+01 | 1486308738.25999 | pgbench_accounts_pkey |        225017856

 2017-02-05 16:32:19.334379+01 | 1486308739.33438 | pgbench_branches_pkey |            16384
 2017-02-05 16:32:19.334379+01 | 1486308739.33438 | pgbench_tellers_pkey  |            40960
 2017-02-05 16:32:19.334379+01 | 1486308739.33438 | pgbench_accounts_pkey |        225017856

 2017-02-05 16:32:20.411118+01 | 1486308740.41112 | pgbench_branches_pkey |            16384
 2017-02-05 16:32:20.411118+01 | 1486308740.41112 | pgbench_tellers_pkey  |            40960
 2017-02-05 16:32:20.411118+01 | 1486308740.41112 | pgbench_accounts_pkey |        225017856

 2017-02-05 16:32:21.492278+01 | 1486308741.49228 | pgbench_branches_pkey |            16384
 2017-02-05 16:32:21.492278+01 | 1486308741.49228 | pgbench_tellers_pkey  |            40960
 2017-02-05 16:32:21.492278+01 | 1486308741.49228 | pgbench_accounts_pkey |        225017856

 2017-02-05 16:32:22.570989+01 | 1486308742.57099 | pgbench_branches_pkey |            16384
 2017-02-05 16:32:22.570989+01 | 1486308742.57099 | pgbench_tellers_pkey  |            40960
 2017-02-05 16:32:22.570989+01 | 1486308742.57099 | pgbench_accounts_pkey |        225017856

 2017-02-05 16:32:23.64909+01 | 1486308743.64909 | pgbench_branches_pkey |            16384
 2017-02-05 16:32:23.64909+01 | 1486308743.64909 | pgbench_tellers_pkey  |            40960
 2017-02-05 16:32:23.64909+01 | 1486308743.64909 | pgbench_accounts_pkey |        225017856

 2017-02-05 16:32:24.737868+01 | 1486308744.73787 | pgbench_branches_pkey |            16384
 2017-02-05 16:32:24.737868+01 | 1486308744.73787 | pgbench_tellers_pkey  |            40960
 2017-02-05 16:32:24.737868+01 | 1486308744.73787 | pgbench_accounts_pkey |        225017856

 2017-02-05 16:32:25.820408+01 | 1486308745.82041 | pgbench_branches_pkey |            16384
 2017-02-05 16:32:25.820408+01 | 1486308745.82041 | pgbench_tellers_pkey  |            40960
 2017-02-05 16:32:25.820408+01 | 1486308745.82041 | pgbench_accounts_pkey |        225017856

 2017-02-05 16:32:26.901838+01 | 1486308746.90184 | pgbench_branches_pkey |            16384
 2017-02-05 16:32:26.901838+01 | 1486308746.90184 | pgbench_tellers_pkey  |            40960
 2017-02-05 16:32:26.901838+01 | 1486308746.90184 | pgbench_accounts_pkey |        225017856

 2017-02-05 16:32:27.983507+01 | 1486308747.98351 | pgbench_branches_pkey |            16384
 2017-02-05 16:32:27.983507+01 | 1486308747.98351 | pgbench_tellers_pkey  |            40960
 2017-02-05 16:32:27.983507+01 | 1486308747.98351 | pgbench_accounts_pkey |        225017856

 2017-02-05 16:32:29.065512+01 | 1486308749.06551 | pgbench_branches_pkey |            16384
 2017-02-05 16:32:29.065512+01 | 1486308749.06551 | pgbench_tellers_pkey  |            40960
 2017-02-05 16:32:29.065512+01 | 1486308749.06551 | pgbench_accounts_pkey |        225017856

 2017-02-05 16:32:30.14274+01 | 1486308750.14274 | pgbench_branches_pkey |            16384
 2017-02-05 16:32:30.14274+01 | 1486308750.14274 | pgbench_tellers_pkey  |            40960
 2017-02-05 16:32:30.14274+01 | 1486308750.14274 | pgbench_accounts_pkey |        225017856

 2017-02-05 16:32:31.22305+01 | 1486308751.22305 | pgbench_branches_pkey |            16384
 2017-02-05 16:32:31.22305+01 | 1486308751.22305 | pgbench_tellers_pkey  |            40960
 2017-02-05 16:32:31.22305+01 | 1486308751.22305 | pgbench_accounts_pkey |        225017856

 2017-02-05 16:32:32.298449+01 | 1486308752.29845 | pgbench_branches_pkey |            16384
 2017-02-05 16:32:32.298449+01 | 1486308752.29845 | pgbench_tellers_pkey  |            40960
 2017-02-05 16:32:32.298449+01 | 1486308752.29845 | pgbench_accounts_pkey |        225017856

 2017-02-05 16:32:33.376888+01 | 1486308753.37689 | pgbench_branches_pkey |            16384
 2017-02-05 16:32:33.376888+01 | 1486308753.37689 | pgbench_tellers_pkey  |            40960
 2017-02-05 16:32:33.376888+01 | 1486308753.37689 | pgbench_accounts_pkey |        225017856

 2017-02-05 16:32:34.452766+01 | 1486308754.45277 | pgbench_branches_pkey |            16384
 2017-02-05 16:32:34.452766+01 | 1486308754.45277 | pgbench_tellers_pkey  |            40960
 2017-02-05 16:32:34.452766+01 | 1486308754.45277 | pgbench_accounts_pkey |        225017856

 2017-02-05 16:32:35.530281+01 | 1486308755.53028 | pgbench_branches_pkey |            16384
 2017-02-05 16:32:35.530281+01 | 1486308755.53028 | pgbench_tellers_pkey  |            40960
 2017-02-05 16:32:35.530281+01 | 1486308755.53028 | pgbench_accounts_pkey |        225017856

 2017-02-05 16:32:36.607271+01 | 1486308756.60727 | pgbench_branches_pkey |            16384
 2017-02-05 16:32:36.607271+01 | 1486308756.60727 | pgbench_tellers_pkey  |            40960
 2017-02-05 16:32:36.607271+01 | 1486308756.60727 | pgbench_accounts_pkey |        225017856

 2017-02-05 16:32:37.688278+01 | 1486308757.68828 | pgbench_branches_pkey |            16384
 2017-02-05 16:32:37.688278+01 | 1486308757.68828 | pgbench_tellers_pkey  |            40960
 2017-02-05 16:32:37.688278+01 | 1486308757.68828 | pgbench_accounts_pkey |        225017856

 2017-02-05 16:32:38.765099+01 | 1486308758.7651 | pgbench_branches_pkey |            16384
 2017-02-05 16:32:38.765099+01 | 1486308758.7651 | pgbench_tellers_pkey  |            40960
 2017-02-05 16:32:38.765099+01 | 1486308758.7651 | pgbench_accounts_pkey |        225017856

 2017-02-05 16:32:39.843016+01 | 1486308759.84302 | pgbench_branches_pkey |            16384
 2017-02-05 16:32:39.843016+01 | 1486308759.84302 | pgbench_tellers_pkey  |            40960
 2017-02-05 16:32:39.843016+01 | 1486308759.84302 | pgbench_accounts_pkey |        225017856

 2017-02-05 16:32:40.922297+01 | 1486308760.9223 | pgbench_branches_pkey |            16384
 2017-02-05 16:32:40.922297+01 | 1486308760.9223 | pgbench_tellers_pkey  |            40960
 2017-02-05 16:32:40.922297+01 | 1486308760.9223 | pgbench_accounts_pkey |        225017856

 2017-02-05 16:32:42.010258+01 | 1486308762.01026 | pgbench_branches_pkey |            16384
 2017-02-05 16:32:42.010258+01 | 1486308762.01026 | pgbench_tellers_pkey  |            40960
 2017-02-05 16:32:42.010258+01 | 1486308762.01026 | pgbench_accounts_pkey |        225017856

 2017-02-05 16:32:43.091295+01 | 1486308763.0913 | pgbench_branches_pkey |            16384
 2017-02-05 16:32:43.091295+01 | 1486308763.0913 | pgbench_tellers_pkey  |            40960
 2017-02-05 16:32:43.091295+01 | 1486308763.0913 | pgbench_accounts_pkey |        225017856

 2017-02-05 16:32:44.180792+01 | 1486308764.18079 | pgbench_branches_pkey |            16384
 2017-02-05 16:32:44.180792+01 | 1486308764.18079 | pgbench_tellers_pkey  |            40960
 2017-02-05 16:32:44.180792+01 | 1486308764.18079 | pgbench_accounts_pkey |        225017856

 2017-02-05 16:32:45.260068+01 | 1486308765.26007 | pgbench_branches_pkey |            16384
 2017-02-05 16:32:45.260068+01 | 1486308765.26007 | pgbench_tellers_pkey  |            40960
 2017-02-05 16:32:45.260068+01 | 1486308765.26007 | pgbench_accounts_pkey |        225017856

 2017-02-05 16:32:46.336937+01 | 1486308766.33694 | pgbench_branches_pkey |            16384
 2017-02-05 16:32:46.336937+01 | 1486308766.33694 | pgbench_tellers_pkey  |            40960
 2017-02-05 16:32:46.336937+01 | 1486308766.33694 | pgbench_accounts_pkey |        225017856

 2017-02-05 16:32:47.417041+01 | 1486308767.41704 | pgbench_branches_pkey |            16384
 2017-02-05 16:32:47.417041+01 | 1486308767.41704 | pgbench_tellers_pkey  |            40960
 2017-02-05 16:32:47.417041+01 | 1486308767.41704 | pgbench_accounts_pkey |        225017856

 2017-02-05 16:32:48.490763+01 | 1486308768.49076 | pgbench_branches_pkey |            16384
 2017-02-05 16:32:48.490763+01 | 1486308768.49076 | pgbench_tellers_pkey  |            40960
 2017-02-05 16:32:48.490763+01 | 1486308768.49076 | pgbench_accounts_pkey |        225017856

 2017-02-05 16:32:49.57181+01 | 1486308769.57181 | pgbench_branches_pkey |            16384
 2017-02-05 16:32:49.57181+01 | 1486308769.57181 | pgbench_tellers_pkey  |            40960
 2017-02-05 16:32:49.57181+01 | 1486308769.57181 | pgbench_accounts_pkey |        225017856

 2017-02-05 16:32:50.663953+01 | 1486308770.66395 | pgbench_branches_pkey |            16384
 2017-02-05 16:32:50.663953+01 | 1486308770.66395 | pgbench_tellers_pkey  |            40960
 2017-02-05 16:32:50.663953+01 | 1486308770.66395 | pgbench_accounts_pkey |        225017856

 2017-02-05 16:32:51.75007+01 | 1486308771.75007 | pgbench_branches_pkey |            16384
 2017-02-05 16:32:51.75007+01 | 1486308771.75007 | pgbench_tellers_pkey  |            40960
 2017-02-05 16:32:51.75007+01 | 1486308771.75007 | pgbench_accounts_pkey |        225017856

 2017-02-05 16:32:52.83345+01 | 1486308772.83345 | pgbench_branches_pkey |            16384
 2017-02-05 16:32:52.83345+01 | 1486308772.83345 | pgbench_tellers_pkey  |            40960
 2017-02-05 16:32:52.83345+01 | 1486308772.83345 | pgbench_accounts_pkey |        225017856

 2017-02-05 16:32:53.910008+01 | 1486308773.91001 | pgbench_branches_pkey |            16384
 2017-02-05 16:32:53.910008+01 | 1486308773.91001 | pgbench_tellers_pkey  |            40960
 2017-02-05 16:32:53.910008+01 | 1486308773.91001 | pgbench_accounts_pkey |        225017856

 2017-02-05 16:32:54.990752+01 | 1486308774.99075 | pgbench_branches_pkey |            16384
 2017-02-05 16:32:54.990752+01 | 1486308774.99075 | pgbench_tellers_pkey  |            40960
 2017-02-05 16:32:54.990752+01 | 1486308774.99075 | pgbench_accounts_pkey |        225017856

 2017-02-05 16:32:56.073044+01 | 1486308776.07304 | pgbench_branches_pkey |            16384
 2017-02-05 16:32:56.073044+01 | 1486308776.07304 | pgbench_tellers_pkey  |            40960
 2017-02-05 16:32:56.073044+01 | 1486308776.07304 | pgbench_accounts_pkey |        225017856

 2017-02-05 16:32:57.155339+01 | 1486308777.15534 | pgbench_branches_pkey |            16384
 2017-02-05 16:32:57.155339+01 | 1486308777.15534 | pgbench_tellers_pkey  |            40960
 2017-02-05 16:32:57.155339+01 | 1486308777.15534 | pgbench_accounts_pkey |        225017856

 2017-02-05 16:32:58.241732+01 | 1486308778.24173 | pgbench_branches_pkey |            16384
 2017-02-05 16:32:58.241732+01 | 1486308778.24173 | pgbench_tellers_pkey  |            40960
 2017-02-05 16:32:58.241732+01 | 1486308778.24173 | pgbench_accounts_pkey |        225017856

 2017-02-05 16:32:59.322447+01 | 1486308779.32245 | pgbench_branches_pkey |            16384
 2017-02-05 16:32:59.322447+01 | 1486308779.32245 | pgbench_tellers_pkey  |            40960
 2017-02-05 16:32:59.322447+01 | 1486308779.32245 | pgbench_accounts_pkey |        225017856

 2017-02-05 16:33:00.399596+01 | 1486308780.3996 | pgbench_branches_pkey |            16384
 2017-02-05 16:33:00.399596+01 | 1486308780.3996 | pgbench_tellers_pkey  |            40960
 2017-02-05 16:33:00.399596+01 | 1486308780.3996 | pgbench_accounts_pkey |        225017856

 2017-02-05 16:33:01.472906+01 | 1486308781.47291 | pgbench_branches_pkey |            16384
 2017-02-05 16:33:01.472906+01 | 1486308781.47291 | pgbench_tellers_pkey  |            40960
 2017-02-05 16:33:01.472906+01 | 1486308781.47291 | pgbench_accounts_pkey |        225017856

 2017-02-05 16:33:02.550781+01 | 1486308782.55078 | pgbench_branches_pkey |            16384
 2017-02-05 16:33:02.550781+01 | 1486308782.55078 | pgbench_tellers_pkey  |            40960
 2017-02-05 16:33:02.550781+01 | 1486308782.55078 | pgbench_accounts_pkey |        225017856

 2017-02-05 16:33:03.640913+01 | 1486308783.64091 | pgbench_branches_pkey |            16384
 2017-02-05 16:33:03.640913+01 | 1486308783.64091 | pgbench_tellers_pkey  |            40960
 2017-02-05 16:33:03.640913+01 | 1486308783.64091 | pgbench_accounts_pkey |        225017856

 2017-02-05 16:33:04.722082+01 | 1486308784.72208 | pgbench_branches_pkey |            16384
 2017-02-05 16:33:04.722082+01 | 1486308784.72208 | pgbench_tellers_pkey  |            40960
 2017-02-05 16:33:04.722082+01 | 1486308784.72208 | pgbench_accounts_pkey |        225017856

 2017-02-05 16:33:05.809008+01 | 1486308785.80901 | pgbench_branches_pkey |            16384
 2017-02-05 16:33:05.809008+01 | 1486308785.80901 | pgbench_tellers_pkey  |            40960
 2017-02-05 16:33:05.809008+01 | 1486308785.80901 | pgbench_accounts_pkey |        225017856

 2017-02-05 16:33:06.880954+01 | 1486308786.88095 | pgbench_branches_pkey |            16384
 2017-02-05 16:33:06.880954+01 | 1486308786.88095 | pgbench_tellers_pkey  |            40960
 2017-02-05 16:33:06.880954+01 | 1486308786.88095 | pgbench_accounts_pkey |        225017856

 2017-02-05 16:33:07.966668+01 | 1486308787.96667 | pgbench_branches_pkey |            16384
 2017-02-05 16:33:07.966668+01 | 1486308787.96667 | pgbench_tellers_pkey  |            40960
 2017-02-05 16:33:07.966668+01 | 1486308787.96667 | pgbench_accounts_pkey |        225017856

 2017-02-05 16:33:09.047762+01 | 1486308789.04776 | pgbench_branches_pkey |            16384
 2017-02-05 16:33:09.047762+01 | 1486308789.04776 | pgbench_tellers_pkey  |            40960
 2017-02-05 16:33:09.047762+01 | 1486308789.04776 | pgbench_accounts_pkey |        225017856

 2017-02-05 16:33:10.130121+01 | 1486308790.13012 | pgbench_branches_pkey |            16384
 2017-02-05 16:33:10.130121+01 | 1486308790.13012 | pgbench_tellers_pkey  |            40960
 2017-02-05 16:33:10.130121+01 | 1486308790.13012 | pgbench_accounts_pkey |        225017856

 2017-02-05 16:33:11.213627+01 | 1486308791.21363 | pgbench_branches_pkey |            16384
 2017-02-05 16:33:11.213627+01 | 1486308791.21363 | pgbench_tellers_pkey  |            40960
 2017-02-05 16:33:11.213627+01 | 1486308791.21363 | pgbench_accounts_pkey |        225017856

 2017-02-05 16:33:12.288929+01 | 1486308792.28893 | pgbench_branches_pkey |            16384
 2017-02-05 16:33:12.288929+01 | 1486308792.28893 | pgbench_tellers_pkey  |            40960
 2017-02-05 16:33:12.288929+01 | 1486308792.28893 | pgbench_accounts_pkey |        225017856

 2017-02-05 16:33:13.36637+01 | 1486308793.36637 | pgbench_branches_pkey |            16384
 2017-02-05 16:33:13.36637+01 | 1486308793.36637 | pgbench_tellers_pkey  |            40960
 2017-02-05 16:33:13.36637+01 | 1486308793.36637 | pgbench_accounts_pkey |        225017856

 2017-02-05 16:33:14.459084+01 | 1486308794.45908 | pgbench_branches_pkey |            16384
 2017-02-05 16:33:14.459084+01 | 1486308794.45908 | pgbench_tellers_pkey  |            40960
 2017-02-05 16:33:14.459084+01 | 1486308794.45908 | pgbench_accounts_pkey |        225017856

 2017-02-05 16:33:15.534545+01 | 1486308795.53454 | pgbench_branches_pkey |            16384
 2017-02-05 16:33:15.534545+01 | 1486308795.53454 | pgbench_tellers_pkey  |            40960
 2017-02-05 16:33:15.534545+01 | 1486308795.53454 | pgbench_accounts_pkey |        225017856

 2017-02-05 16:33:16.614155+01 | 1486308796.61416 | pgbench_branches_pkey |            16384
 2017-02-05 16:33:16.614155+01 | 1486308796.61416 | pgbench_tellers_pkey  |            40960
 2017-02-05 16:33:16.614155+01 | 1486308796.61416 | pgbench_accounts_pkey |        225017856

 2017-02-05 16:33:17.699957+01 | 1486308797.69996 | pgbench_branches_pkey |            16384
 2017-02-05 16:33:17.699957+01 | 1486308797.69996 | pgbench_tellers_pkey  |            40960
 2017-02-05 16:33:17.699957+01 | 1486308797.69996 | pgbench_accounts_pkey |        225017856

 2017-02-05 16:33:18.780579+01 | 1486308798.78058 | pgbench_branches_pkey |            16384
 2017-02-05 16:33:18.780579+01 | 1486308798.78058 | pgbench_tellers_pkey  |            40960
 2017-02-05 16:33:18.780579+01 | 1486308798.78058 | pgbench_accounts_pkey |        225017856

 2017-02-05 16:33:19.862685+01 | 1486308799.86268 | pgbench_branches_pkey |            16384
 2017-02-05 16:33:19.862685+01 | 1486308799.86268 | pgbench_tellers_pkey  |            40960
 2017-02-05 16:33:19.862685+01 | 1486308799.86268 | pgbench_accounts_pkey |        225017856

 2017-02-05 16:33:20.956979+01 | 1486308800.95698 | pgbench_branches_pkey |            16384
 2017-02-05 16:33:20.956979+01 | 1486308800.95698 | pgbench_tellers_pkey  |            40960
 2017-02-05 16:33:20.956979+01 | 1486308800.95698 | pgbench_accounts_pkey |        225017856

 2017-02-05 16:33:22.038543+01 | 1486308802.03854 | pgbench_branches_pkey |            16384
 2017-02-05 16:33:22.038543+01 | 1486308802.03854 | pgbench_tellers_pkey  |            40960
 2017-02-05 16:33:22.038543+01 | 1486308802.03854 | pgbench_accounts_pkey |        225017856

 2017-02-05 16:33:23.119012+01 | 1486308803.11901 | pgbench_branches_pkey |            16384
 2017-02-05 16:33:23.119012+01 | 1486308803.11901 | pgbench_tellers_pkey  |            40960
 2017-02-05 16:33:23.119012+01 | 1486308803.11901 | pgbench_accounts_pkey |        225017856

 2017-02-05 16:33:24.202163+01 | 1486308804.20216 | pgbench_branches_pkey |            16384
 2017-02-05 16:33:24.202163+01 | 1486308804.20216 | pgbench_tellers_pkey  |            40960
 2017-02-05 16:33:24.202163+01 | 1486308804.20216 | pgbench_accounts_pkey |        225017856

 2017-02-05 16:33:25.28841+01 | 1486308805.28841 | pgbench_branches_pkey |            16384
 2017-02-05 16:33:25.28841+01 | 1486308805.28841 | pgbench_tellers_pkey  |            40960
 2017-02-05 16:33:25.28841+01 | 1486308805.28841 | pgbench_accounts_pkey |        225017856

 2017-02-05 16:33:26.365369+01 | 1486308806.36537 | pgbench_branches_pkey |            16384
 2017-02-05 16:33:26.365369+01 | 1486308806.36537 | pgbench_tellers_pkey  |            40960
 2017-02-05 16:33:26.365369+01 | 1486308806.36537 | pgbench_accounts_pkey |        225017856

 2017-02-05 16:33:27.439371+01 | 1486308807.43937 | pgbench_branches_pkey |            16384
 2017-02-05 16:33:27.439371+01 | 1486308807.43937 | pgbench_tellers_pkey  |            40960
 2017-02-05 16:33:27.439371+01 | 1486308807.43937 | pgbench_accounts_pkey |        225017856

 2017-02-05 16:33:28.532111+01 | 1486308808.53211 | pgbench_branches_pkey |            16384
 2017-02-05 16:33:28.532111+01 | 1486308808.53211 | pgbench_tellers_pkey  |            40960
 2017-02-05 16:33:28.532111+01 | 1486308808.53211 | pgbench_accounts_pkey |        225017856

 2017-02-05 16:33:29.619104+01 | 1486308809.6191 | pgbench_branches_pkey |            16384
 2017-02-05 16:33:29.619104+01 | 1486308809.6191 | pgbench_tellers_pkey  |            40960
 2017-02-05 16:33:29.619104+01 | 1486308809.6191 | pgbench_accounts_pkey |        225017856

 2017-02-05 16:33:30.702384+01 | 1486308810.70238 | pgbench_branches_pkey |            16384
 2017-02-05 16:33:30.702384+01 | 1486308810.70238 | pgbench_tellers_pkey  |            40960
 2017-02-05 16:33:30.702384+01 | 1486308810.70238 | pgbench_accounts_pkey |        225017856

 2017-02-05 16:33:31.780434+01 | 1486308811.78043 | pgbench_branches_pkey |            16384
 2017-02-05 16:33:31.780434+01 | 1486308811.78043 | pgbench_tellers_pkey  |            40960
 2017-02-05 16:33:31.780434+01 | 1486308811.78043 | pgbench_accounts_pkey |        225017856

 2017-02-05 16:33:32.864133+01 | 1486308812.86413 | pgbench_branches_pkey |            16384
 2017-02-05 16:33:32.864133+01 | 1486308812.86413 | pgbench_tellers_pkey  |            40960
 2017-02-05 16:33:32.864133+01 | 1486308812.86413 | pgbench_accounts_pkey |        225017856

 2017-02-05 16:33:33.951433+01 | 1486308813.95143 | pgbench_branches_pkey |            16384
 2017-02-05 16:33:33.951433+01 | 1486308813.95143 | pgbench_tellers_pkey  |            40960
 2017-02-05 16:33:33.951433+01 | 1486308813.95143 | pgbench_accounts_pkey |        225017856

 2017-02-05 16:33:35.034704+01 | 1486308815.0347 | pgbench_branches_pkey |            16384
 2017-02-05 16:33:35.034704+01 | 1486308815.0347 | pgbench_tellers_pkey  |            40960
 2017-02-05 16:33:35.034704+01 | 1486308815.0347 | pgbench_accounts_pkey |        225017856

 2017-02-05 16:33:36.120094+01 | 1486308816.12009 | pgbench_branches_pkey |            16384
 2017-02-05 16:33:36.120094+01 | 1486308816.12009 | pgbench_tellers_pkey  |            40960
 2017-02-05 16:33:36.120094+01 | 1486308816.12009 | pgbench_accounts_pkey |        225017856

 2017-02-05 16:33:37.205717+01 | 1486308817.20572 | pgbench_branches_pkey |            16384
 2017-02-05 16:33:37.205717+01 | 1486308817.20572 | pgbench_tellers_pkey  |            40960
 2017-02-05 16:33:37.205717+01 | 1486308817.20572 | pgbench_accounts_pkey |        225017856

 2017-02-05 16:33:38.289814+01 | 1486308818.28981 | pgbench_branches_pkey |            16384
 2017-02-05 16:33:38.289814+01 | 1486308818.28981 | pgbench_tellers_pkey  |            40960
 2017-02-05 16:33:38.289814+01 | 1486308818.28981 | pgbench_accounts_pkey |        225017856

 2017-02-05 16:33:39.380248+01 | 1486308819.38025 | pgbench_branches_pkey |            16384
 2017-02-05 16:33:39.380248+01 | 1486308819.38025 | pgbench_tellers_pkey  |            40960
 2017-02-05 16:33:39.380248+01 | 1486308819.38025 | pgbench_accounts_pkey |        225017856

 2017-02-05 16:33:40.455245+01 | 1486308820.45525 | pgbench_branches_pkey |            16384
 2017-02-05 16:33:40.455245+01 | 1486308820.45525 | pgbench_tellers_pkey  |            40960
 2017-02-05 16:33:40.455245+01 | 1486308820.45525 | pgbench_accounts_pkey |        225017856

 2017-02-05 16:33:41.52649+01 | 1486308821.52649 | pgbench_branches_pkey |            16384
 2017-02-05 16:33:41.52649+01 | 1486308821.52649 | pgbench_tellers_pkey  |            40960
 2017-02-05 16:33:41.52649+01 | 1486308821.52649 | pgbench_accounts_pkey |        225017856

 2017-02-05 16:33:42.60277+01 | 1486308822.60277 | pgbench_branches_pkey |            16384
 2017-02-05 16:33:42.60277+01 | 1486308822.60277 | pgbench_tellers_pkey  |            40960
 2017-02-05 16:33:42.60277+01 | 1486308822.60277 | pgbench_accounts_pkey |        225017856

 2017-02-05 16:33:43.686412+01 | 1486308823.68641 | pgbench_branches_pkey |            16384
 2017-02-05 16:33:43.686412+01 | 1486308823.68641 | pgbench_tellers_pkey  |            40960
 2017-02-05 16:33:43.686412+01 | 1486308823.68641 | pgbench_accounts_pkey |        225017856

 2017-02-05 16:33:44.770797+01 | 1486308824.7708 | pgbench_branches_pkey |            16384
 2017-02-05 16:33:44.770797+01 | 1486308824.7708 | pgbench_tellers_pkey  |            40960
 2017-02-05 16:33:44.770797+01 | 1486308824.7708 | pgbench_accounts_pkey |        225017856

 2017-02-05 16:33:45.85459+01 | 1486308825.85459 | pgbench_branches_pkey |            16384
 2017-02-05 16:33:45.85459+01 | 1486308825.85459 | pgbench_tellers_pkey  |            40960
 2017-02-05 16:33:45.85459+01 | 1486308825.85459 | pgbench_accounts_pkey |        225017856

 2017-02-05 16:33:46.937426+01 | 1486308826.93743 | pgbench_branches_pkey |            16384
 2017-02-05 16:33:46.937426+01 | 1486308826.93743 | pgbench_tellers_pkey  |            40960
 2017-02-05 16:33:46.937426+01 | 1486308826.93743 | pgbench_accounts_pkey |        225017856

 2017-02-05 16:33:48.019736+01 | 1486308828.01974 | pgbench_branches_pkey |            16384
 2017-02-05 16:33:48.019736+01 | 1486308828.01974 | pgbench_tellers_pkey  |            40960
 2017-02-05 16:33:48.019736+01 | 1486308828.01974 | pgbench_accounts_pkey |        225017856

 2017-02-05 16:33:49.105125+01 | 1486308829.10512 | pgbench_branches_pkey |            16384
 2017-02-05 16:33:49.105125+01 | 1486308829.10512 | pgbench_tellers_pkey  |            40960
 2017-02-05 16:33:49.105125+01 | 1486308829.10512 | pgbench_accounts_pkey |        225017856

 2017-02-05 16:33:50.183535+01 | 1486308830.18354 | pgbench_branches_pkey |            16384
 2017-02-05 16:33:50.183535+01 | 1486308830.18354 | pgbench_tellers_pkey  |            40960
 2017-02-05 16:33:50.183535+01 | 1486308830.18354 | pgbench_accounts_pkey |        225017856

 2017-02-05 16:33:51.261659+01 | 1486308831.26166 | pgbench_branches_pkey |            16384
 2017-02-05 16:33:51.261659+01 | 1486308831.26166 | pgbench_tellers_pkey  |            40960
 2017-02-05 16:33:51.261659+01 | 1486308831.26166 | pgbench_accounts_pkey |        225017856

 2017-02-05 16:33:52.346143+01 | 1486308832.34614 | pgbench_branches_pkey |            16384
 2017-02-05 16:33:52.346143+01 | 1486308832.34614 | pgbench_tellers_pkey  |            40960
 2017-02-05 16:33:52.346143+01 | 1486308832.34614 | pgbench_accounts_pkey |        225017856

 2017-02-05 16:33:53.423139+01 | 1486308833.42314 | pgbench_branches_pkey |            16384
 2017-02-05 16:33:53.423139+01 | 1486308833.42314 | pgbench_tellers_pkey  |            40960
 2017-02-05 16:33:53.423139+01 | 1486308833.42314 | pgbench_accounts_pkey |        225017856

 2017-02-05 16:33:54.501462+01 | 1486308834.50146 | pgbench_branches_pkey |            16384
 2017-02-05 16:33:54.501462+01 | 1486308834.50146 | pgbench_tellers_pkey  |            40960
 2017-02-05 16:33:54.501462+01 | 1486308834.50146 | pgbench_accounts_pkey |        225017856

 2017-02-05 16:33:55.577022+01 | 1486308835.57702 | pgbench_branches_pkey |            16384
 2017-02-05 16:33:55.577022+01 | 1486308835.57702 | pgbench_tellers_pkey  |            40960
 2017-02-05 16:33:55.577022+01 | 1486308835.57702 | pgbench_accounts_pkey |        225017856

 2017-02-05 16:33:56.655273+01 | 1486308836.65527 | pgbench_branches_pkey |            16384
 2017-02-05 16:33:56.655273+01 | 1486308836.65527 | pgbench_tellers_pkey  |            40960
 2017-02-05 16:33:56.655273+01 | 1486308836.65527 | pgbench_accounts_pkey |        225017856

 2017-02-05 16:33:57.73272+01 | 1486308837.73272 | pgbench_branches_pkey |            16384
 2017-02-05 16:33:57.73272+01 | 1486308837.73272 | pgbench_tellers_pkey  |            40960
 2017-02-05 16:33:57.73272+01 | 1486308837.73272 | pgbench_accounts_pkey |        225017856

 2017-02-05 16:33:58.814007+01 | 1486308838.81401 | pgbench_branches_pkey |            16384
 2017-02-05 16:33:58.814007+01 | 1486308838.81401 | pgbench_tellers_pkey  |            40960
 2017-02-05 16:33:58.814007+01 | 1486308838.81401 | pgbench_accounts_pkey |        225017856

 2017-02-05 16:33:59.897512+01 | 1486308839.89751 | pgbench_branches_pkey |            16384
 2017-02-05 16:33:59.897512+01 | 1486308839.89751 | pgbench_tellers_pkey  |            40960
 2017-02-05 16:33:59.897512+01 | 1486308839.89751 | pgbench_accounts_pkey |        225017856

 2017-02-05 16:34:00.987052+01 | 1486308840.98705 | pgbench_branches_pkey |            16384
 2017-02-05 16:34:00.987052+01 | 1486308840.98705 | pgbench_tellers_pkey  |            40960
 2017-02-05 16:34:00.987052+01 | 1486308840.98705 | pgbench_accounts_pkey |        225017856

 2017-02-05 16:34:02.055686+01 | 1486308842.05569 | pgbench_branches_pkey |            16384
 2017-02-05 16:34:02.055686+01 | 1486308842.05569 | pgbench_tellers_pkey  |            40960
 2017-02-05 16:34:02.055686+01 | 1486308842.05569 | pgbench_accounts_pkey |        225017856

 2017-02-05 16:34:03.136492+01 | 1486308843.13649 | pgbench_branches_pkey |            16384
 2017-02-05 16:34:03.136492+01 | 1486308843.13649 | pgbench_tellers_pkey  |            40960
 2017-02-05 16:34:03.136492+01 | 1486308843.13649 | pgbench_accounts_pkey |        225017856

 2017-02-05 16:34:04.216154+01 | 1486308844.21615 | pgbench_branches_pkey |            16384
 2017-02-05 16:34:04.216154+01 | 1486308844.21615 | pgbench_tellers_pkey  |            40960
 2017-02-05 16:34:04.216154+01 | 1486308844.21615 | pgbench_accounts_pkey |        225017856

 2017-02-05 16:34:05.297989+01 | 1486308845.29799 | pgbench_branches_pkey |            16384
 2017-02-05 16:34:05.297989+01 | 1486308845.29799 | pgbench_tellers_pkey  |            40960
 2017-02-05 16:34:05.297989+01 | 1486308845.29799 | pgbench_accounts_pkey |        225017856

 2017-02-05 16:34:06.376579+01 | 1486308846.37658 | pgbench_branches_pkey |            16384
 2017-02-05 16:34:06.376579+01 | 1486308846.37658 | pgbench_tellers_pkey  |            40960
 2017-02-05 16:34:06.376579+01 | 1486308846.37658 | pgbench_accounts_pkey |        225017856

 2017-02-05 16:34:07.457323+01 | 1486308847.45732 | pgbench_branches_pkey |            16384
 2017-02-05 16:34:07.457323+01 | 1486308847.45732 | pgbench_tellers_pkey  |            40960
 2017-02-05 16:34:07.457323+01 | 1486308847.45732 | pgbench_accounts_pkey |        225017856

 2017-02-05 16:34:08.532008+01 | 1486308848.53201 | pgbench_branches_pkey |            16384
 2017-02-05 16:34:08.532008+01 | 1486308848.53201 | pgbench_tellers_pkey  |            40960
 2017-02-05 16:34:08.532008+01 | 1486308848.53201 | pgbench_accounts_pkey |        225017856

 2017-02-05 16:34:09.610106+01 | 1486308849.61011 | pgbench_branches_pkey |            16384
 2017-02-05 16:34:09.610106+01 | 1486308849.61011 | pgbench_tellers_pkey  |            40960
 2017-02-05 16:34:09.610106+01 | 1486308849.61011 | pgbench_accounts_pkey |        225017856

 2017-02-05 16:34:10.693811+01 | 1486308850.69381 | pgbench_branches_pkey |            16384
 2017-02-05 16:34:10.693811+01 | 1486308850.69381 | pgbench_tellers_pkey  |            40960
 2017-02-05 16:34:10.693811+01 | 1486308850.69381 | pgbench_accounts_pkey |        225017856

 2017-02-05 16:34:11.778876+01 | 1486308851.77888 | pgbench_branches_pkey |            16384
 2017-02-05 16:34:11.778876+01 | 1486308851.77888 | pgbench_tellers_pkey  |            40960
 2017-02-05 16:34:11.778876+01 | 1486308851.77888 | pgbench_accounts_pkey |        225017856

 2017-02-05 16:34:12.861408+01 | 1486308852.86141 | pgbench_branches_pkey |            16384
 2017-02-05 16:34:12.861408+01 | 1486308852.86141 | pgbench_tellers_pkey  |            40960
 2017-02-05 16:34:12.861408+01 | 1486308852.86141 | pgbench_accounts_pkey |        225017856

 2017-02-05 16:34:13.940369+01 | 1486308853.94037 | pgbench_branches_pkey |            16384
 2017-02-05 16:34:13.940369+01 | 1486308853.94037 | pgbench_tellers_pkey  |            40960
 2017-02-05 16:34:13.940369+01 | 1486308853.94037 | pgbench_accounts_pkey |        225017856

 2017-02-05 16:34:15.022156+01 | 1486308855.02216 | pgbench_branches_pkey |            16384
 2017-02-05 16:34:15.022156+01 | 1486308855.02216 | pgbench_tellers_pkey  |            40960
 2017-02-05 16:34:15.022156+01 | 1486308855.02216 | pgbench_accounts_pkey |        225017856

 2017-02-05 16:34:16.099727+01 | 1486308856.09973 | pgbench_branches_pkey |            16384
 2017-02-05 16:34:16.099727+01 | 1486308856.09973 | pgbench_tellers_pkey  |            40960
 2017-02-05 16:34:16.099727+01 | 1486308856.09973 | pgbench_accounts_pkey |        225017856

 2017-02-05 16:34:17.178558+01 | 1486308857.17856 | pgbench_branches_pkey |            16384
 2017-02-05 16:34:17.178558+01 | 1486308857.17856 | pgbench_tellers_pkey  |            40960
 2017-02-05 16:34:17.178558+01 | 1486308857.17856 | pgbench_accounts_pkey |        225017856

 2017-02-05 16:34:18.256296+01 | 1486308858.2563 | pgbench_branches_pkey |            16384
 2017-02-05 16:34:18.256296+01 | 1486308858.2563 | pgbench_tellers_pkey  |            40960
 2017-02-05 16:34:18.256296+01 | 1486308858.2563 | pgbench_accounts_pkey |        225017856

 2017-02-05 16:34:19.340239+01 | 1486308859.34024 | pgbench_branches_pkey |            16384
 2017-02-05 16:34:19.340239+01 | 1486308859.34024 | pgbench_tellers_pkey  |            40960
 2017-02-05 16:34:19.340239+01 | 1486308859.34024 | pgbench_accounts_pkey |        225017856

 2017-02-05 16:34:20.41329+01 | 1486308860.41329 | pgbench_branches_pkey |            16384
 2017-02-05 16:34:20.41329+01 | 1486308860.41329 | pgbench_tellers_pkey  |            40960
 2017-02-05 16:34:20.41329+01 | 1486308860.41329 | pgbench_accounts_pkey |        225017856

 2017-02-05 16:34:21.492961+01 | 1486308861.49296 | pgbench_branches_pkey |            16384
 2017-02-05 16:34:21.492961+01 | 1486308861.49296 | pgbench_tellers_pkey  |            40960
 2017-02-05 16:34:21.492961+01 | 1486308861.49296 | pgbench_accounts_pkey |        225017856

 2017-02-05 16:34:22.564832+01 | 1486308862.56483 | pgbench_branches_pkey |            16384
 2017-02-05 16:34:22.564832+01 | 1486308862.56483 | pgbench_tellers_pkey  |            40960
 2017-02-05 16:34:22.564832+01 | 1486308862.56483 | pgbench_accounts_pkey |        225017856

 2017-02-05 16:34:23.641851+01 | 1486308863.64185 | pgbench_branches_pkey |            16384
 2017-02-05 16:34:23.641851+01 | 1486308863.64185 | pgbench_tellers_pkey  |            40960
 2017-02-05 16:34:23.641851+01 | 1486308863.64185 | pgbench_accounts_pkey |        225017856

 2017-02-05 16:34:24.724562+01 | 1486308864.72456 | pgbench_branches_pkey |            16384
 2017-02-05 16:34:24.724562+01 | 1486308864.72456 | pgbench_tellers_pkey  |            40960
 2017-02-05 16:34:24.724562+01 | 1486308864.72456 | pgbench_accounts_pkey |        225017856

