 2017-02-04 07:31:14.255643+01 | 1486189874.25564 | 40/6C10FFF8              |          276690960376

 2017-02-04 07:31:15.345036+01 | 1486189875.34504 | 40/785BE830              |          276897196080

 2017-02-04 07:31:16.431827+01 | 1486189876.43183 | 40/85C6C4E0              |          277122303200

 2017-02-04 07:31:17.50215+01 | 1486189877.50215 | 40/93976000              |          277354078208

 2017-02-04 07:31:18.576953+01 | 1486189878.57695 | 40/A33A8000              |          277616427008

 2017-02-04 07:31:19.654203+01 | 1486189879.6542 | 40/B3F364A8              |          277896979624

 2017-02-04 07:31:20.729757+01 | 1486189880.72976 | 40/C4696CC8              |          278173150408

 2017-02-04 07:31:21.807261+01 | 1486189881.80726 | 40/D4A78B88              |          278445656968

 2017-02-04 07:31:22.884128+01 | 1486189882.88413 | 40/E41D8DE0              |          278705049056

 2017-02-04 07:31:23.961788+01 | 1486189883.96179 | 40/F3C5A668              |          278967723624

 2017-02-04 07:31:25.046458+01 | 1486189885.04646 | 41/2F42F98               |          279222431640

 2017-02-04 07:31:26.127518+01 | 1486189886.12752 | 41/11F17CB0              |          279473913008

 2017-02-04 07:31:27.205606+01 | 1486189887.20561 | 41/204F2D68              |          279714934120

 2017-02-04 07:31:28.287046+01 | 1486189888.28705 | 41/2EB2D930              |          279956347184

 2017-02-04 07:31:29.369457+01 | 1486189889.36946 | 41/3B5BFE88              |          280168758920

 2017-02-04 07:31:30.452344+01 | 1486189890.45234 | 41/49C124B0              |          280410268848

 2017-02-04 07:31:31.532263+01 | 1486189891.53226 | 41/57FBBAF0              |          280648989424

 2017-02-04 07:31:32.621028+01 | 1486189892.62103 | 41/655D73E8              |          280873497576

 2017-02-04 07:31:33.697641+01 | 1486189893.69764 | 41/72867C10              |          281094290448

 2017-02-04 07:31:34.776484+01 | 1486189894.77648 | 41/7F3CFA68              |          281307576936

 2017-02-04 07:31:35.853772+01 | 1486189895.85377 | 41/8C55A0E0              |          281527296224

 2017-02-04 07:31:36.931785+01 | 1486189896.93179 | 41/99613F40              |          281746161472

 2017-02-04 07:31:38.012345+01 | 1486189898.01235 | 41/A6099680              |          281958520448

 2017-02-04 07:31:39.095577+01 | 1486189899.09558 | 41/B2B4ECD0              |          282171075792

 2017-02-04 07:31:40.174831+01 | 1486189900.17483 | 41/BCD000E8              |          282340622568

 2017-02-04 07:31:41.254404+01 | 1486189901.2544 | 41/C8B28000              |          282540015616

 2017-02-04 07:31:42.331977+01 | 1486189902.33198 | 41/D42F9318              |          282732761880

 2017-02-04 07:31:43.411003+01 | 1486189903.411 | 41/DFDEF590              |          282928805264

 2017-02-04 07:31:44.490569+01 | 1486189904.49057 | 41/E92C4F60              |          283084869472

 2017-02-04 07:31:45.567708+01 | 1486189905.56771 | 41/F2CF1F60              |          283246534496

 2017-02-04 07:31:46.642825+01 | 1486189906.64282 | 41/FC0719B0              |          283401198000

 2017-02-04 07:31:47.736751+01 | 1486189907.73675 | 42/5406DD0               |          283555950032

 2017-02-04 07:31:48.817622+01 | 1486189908.81762 | 42/E361280               |          283706266240

 2017-02-04 07:31:49.892293+01 | 1486189909.89229 | 42/17146F90              |          283855056784

 2017-02-04 07:31:50.962987+01 | 1486189910.96299 | 42/1F5D1CB0              |          283994037424

 2017-02-04 07:31:52.030393+01 | 1486189912.03039 | 42/27B9EBC0              |          284134337472

 2017-02-04 07:31:53.112505+01 | 1486189913.1125 | 42/308996E0              |          284282164960

 2017-02-04 07:31:54.180373+01 | 1486189914.18037 | 42/38856348              |          284416107336

 2017-02-04 07:31:55.256327+01 | 1486189915.25633 | 42/403933B8              |          284545332152

 2017-02-04 07:31:56.333534+01 | 1486189916.33353 | 42/482FB288              |          284678926984

 2017-02-04 07:31:57.410748+01 | 1486189917.41075 | 42/50B24AD0              |          284821703376

 2017-02-04 07:31:58.487144+01 | 1486189918.48714 | 42/581E77E8              |          284946233320

 2017-02-04 07:31:59.568645+01 | 1486189919.56865 | 42/601E3E78              |          285080436344

 2017-02-04 07:32:00.650562+01 | 1486189920.65056 | 42/6754BE30              |          285201448496

 2017-02-04 07:32:01.73138+01 | 1486189921.73138 | 42/6F76F6F8              |          285337908984

 2017-02-04 07:32:02.805515+01 | 1486189922.80552 | 42/7643E220              |          285452001824

 2017-02-04 07:32:03.888281+01 | 1486189923.88828 | 42/7DF45240              |          285581005376

 2017-02-04 07:32:04.966309+01 | 1486189924.96631 | 42/8451A3D0              |          285687784400

 2017-02-04 07:32:06.045109+01 | 1486189926.04511 | 42/8B839070              |          285808496752

 2017-02-04 07:32:07.120561+01 | 1486189927.12056 | 42/922E4000              |          285920346112

 2017-02-04 07:32:08.195381+01 | 1486189928.19538 | 42/9893D368              |          286027666280

 2017-02-04 07:32:09.278285+01 | 1486189929.27829 | 42/9F023458              |          286135563352

 2017-02-04 07:32:10.353763+01 | 1486189930.35376 | 42/A50702E0              |          286236541664

 2017-02-04 07:32:11.431222+01 | 1486189931.43122 | 42/AB48E2E8              |          286341522152

 2017-02-04 07:32:12.508886+01 | 1486189932.50889 | 42/B1ECB110              |          286452920592

 2017-02-04 07:32:13.58715+01 | 1486189933.58715 | 42/B7C425B0              |          286550926768

 2017-02-04 07:32:14.663991+01 | 1486189934.66399 | 42/BD9203D8              |          286648304600

 2017-02-04 07:32:15.742136+01 | 1486189935.74214 | 42/C31DB310              |          286741345040

 2017-02-04 07:32:16.823815+01 | 1486189936.82382 | 42/C8F4B430              |          286839321648

 2017-02-04 07:32:17.909665+01 | 1486189937.90967 | 42/CEB154C8              |          286935569608

 2017-02-04 07:32:18.983709+01 | 1486189938.98371 | 42/D4351880              |          287028091008

 2017-02-04 07:32:20.065093+01 | 1486189940.06509 | 42/D95833A0              |          287114277792

 2017-02-04 07:32:21.151757+01 | 1486189941.15176 | 42/DEF2D1B8              |          287208296888

 2017-02-04 07:32:22.229196+01 | 1486189942.2292 | 42/E4748968              |          287300684136

 2017-02-04 07:32:23.309232+01 | 1486189943.30923 | 42/EA027A08              |          287393872392

 2017-02-04 07:32:24.387607+01 | 1486189944.38761 | 42/EED93D48              |          287475055944

 2017-02-04 07:32:25.461402+01 | 1486189945.4614 | 42/F4305478              |          287564649592

 2017-02-04 07:32:26.527887+01 | 1486189946.52789 | 42/F936C600              |          287648957952

 2017-02-04 07:32:27.607991+01 | 1486189947.60799 | 42/FE166C98              |          287730723992

 2017-02-04 07:32:28.681438+01 | 1486189948.68144 | 43/2F98B30               |          287812717360

 2017-02-04 07:32:29.766111+01 | 1486189949.76611 | 43/787A390               |          287889138576

 2017-02-04 07:32:30.844183+01 | 1486189950.84418 | 43/BDBB0F8               |          287961755896

 2017-02-04 07:32:31.929667+01 | 1486189951.92967 | 43/109BA390              |          288041444240

 2017-02-04 07:32:33.006139+01 | 1486189953.00614 | 43/146A0AA8              |          288105302696

 2017-02-04 07:32:34.099973+01 | 1486189954.09997 | 43/193CF248              |          288186233416

 2017-02-04 07:32:35.165605+01 | 1486189955.16561 | 43/1D78D1C0              |          288257266112

 2017-02-04 07:32:36.248407+01 | 1486189956.24841 | 43/21A48700              |          288327239424

 2017-02-04 07:32:37.325249+01 | 1486189957.32525 | 43/25FF3450              |          288400290896

 2017-02-04 07:32:38.403234+01 | 1486189958.40323 | 43/2A118FF0              |          288468602864

 2017-02-04 07:32:39.483335+01 | 1486189959.48334 | 43/2D87D068              |          288526684264

 2017-02-04 07:32:40.564336+01 | 1486189960.56434 | 43/3154A190              |          288590438800

 2017-02-04 07:32:41.629354+01 | 1486189961.62935 | 43/34434AA8              |          288639634088

 2017-02-04 07:32:42.705352+01 | 1486189962.70535 | 43/370FB3C0              |          288686584768

 2017-02-04 07:32:43.787703+01 | 1486189963.7877 | 43/398D8900              |          288728385792

 2017-02-04 07:32:44.877367+01 | 1486189964.87737 | 43/3C5E19E0              |          288775608800

 2017-02-04 07:32:45.949468+01 | 1486189965.94947 | 43/3EF2F7E0              |          288818919392

 2017-02-04 07:32:47.026907+01 | 1486189967.02691 | 43/41D9C430              |          288867599408

 2017-02-04 07:32:48.10674+01 | 1486189968.10674 | 43/4600CA40              |          288937265728

 2017-02-04 07:32:49.177371+01 | 1486189969.17737 | 43/4A5A7A10              |          289010252304

 2017-02-04 07:32:50.255798+01 | 1486189970.2558 | 43/4EA79058              |          289082413144

 2017-02-04 07:32:51.34034+01 | 1486189971.34034 | 43/52BA6428              |          289150755880

 2017-02-04 07:32:52.420302+01 | 1486189972.4203 | 43/56C5DA80              |          289218615936

 2017-02-04 07:32:53.490836+01 | 1486189973.49084 | 43/5B1F9F40              |          289291607872

 2017-02-04 07:32:54.570039+01 | 1486189974.57004 | 43/5F29B0A0              |          289359376544

 2017-02-04 07:32:55.650088+01 | 1486189975.65009 | 43/638F1C80              |          289433132160

 2017-02-04 07:32:56.72394+01 | 1486189976.72394 | 43/678A6488              |          289499931784

 2017-02-04 07:32:57.803105+01 | 1486189977.80311 | 43/6B6951B8              |          289564873144

 2017-02-04 07:32:58.873795+01 | 1486189978.8738 | 43/6E9C17A8              |          289618532264

 2017-02-04 07:32:59.962205+01 | 1486189979.9622 | 43/71F213D0              |          289674499024

 2017-02-04 07:33:01.044891+01 | 1486189981.04489 | 43/75D6B320              |          289739813664

 2017-02-04 07:33:02.122866+01 | 1486189982.12287 | 43/79CCADC0              |          289806265792

 2017-02-04 07:33:03.205079+01 | 1486189983.20508 | 43/7D68E420              |          289866834976

 2017-02-04 07:33:04.288983+01 | 1486189984.28898 | 43/814DACC0              |          289932160192

 2017-02-04 07:33:05.368742+01 | 1486189985.36874 | 43/85413168              |          289998451048

 2017-02-04 07:33:06.439172+01 | 1486189986.43917 | 43/88A59AD8              |          290055363288

 2017-02-04 07:33:07.522086+01 | 1486189987.52209 | 43/8CAB8148              |          290122858824

 2017-02-04 07:33:08.595966+01 | 1486189988.59597 | 43/8FDEA0A0              |          290176540832

 2017-02-04 07:33:09.672778+01 | 1486189989.67278 | 43/93774E20              |          290236878368

 2017-02-04 07:33:10.750918+01 | 1486189990.75092 | 43/96DCE0A8              |          290293866664

 2017-02-04 07:33:11.823211+01 | 1486189991.82321 | 43/99C63F68              |          290342715240

 2017-02-04 07:33:12.901209+01 | 1486189992.90121 | 43/9CD5B378              |          290394059640

 2017-02-04 07:33:13.967427+01 | 1486189993.96743 | 43/9FCBAB18              |          290443733784

 2017-02-04 07:33:15.041913+01 | 1486189995.04191 | 43/A2C0C590              |          290493351312

 2017-02-04 07:33:16.112559+01 | 1486189996.11256 | 43/A60ECBB8              |          290548796344

 2017-02-04 07:33:17.194795+01 | 1486189997.19479 | 43/A92FC938              |          290601290040

 2017-02-04 07:33:18.28309+01 | 1486189998.28309 | 43/AC76C108              |          290656272648

 2017-02-04 07:33:19.359391+01 | 1486189999.35939 | 43/AF938B98              |          290708491160

 2017-02-04 07:33:20.436832+01 | 1486190000.43683 | 43/B2C0C3A8              |          290761786280

 2017-02-04 07:33:21.521913+01 | 1486190001.52191 | 43/B6261910              |          290818758928

 2017-02-04 07:33:22.601996+01 | 1486190002.602 | 43/B948F778              |          290871375736

 2017-02-04 07:33:23.670403+01 | 1486190003.6704 | 43/BC1CD7A0              |          290918815648

 2017-02-04 07:33:24.753506+01 | 1486190004.75351 | 43/BF296668              |          290969970280

 2017-02-04 07:33:25.836165+01 | 1486190005.83616 | 43/C240EDF0              |          291021843952

 2017-02-04 07:33:26.908428+01 | 1486190006.90843 | 43/C530D4E8              |          291071120616

 2017-02-04 07:33:27.993526+01 | 1486190007.99353 | 43/C87383D0              |          291125822416

 2017-02-04 07:33:29.075367+01 | 1486190009.07537 | 43/CB8C5FD0              |          291177783248

 2017-02-04 07:33:30.156214+01 | 1486190010.15621 | 43/CEA3F6D8              |          291229660888

 2017-02-04 07:33:31.230572+01 | 1486190011.23057 | 43/D1352B88              |          291272731528

 2017-02-04 07:33:32.308235+01 | 1486190012.30823 | 43/D3BA3170              |          291315003760

 2017-02-04 07:33:33.393864+01 | 1486190013.39386 | 43/D672D720              |          291360659232

 2017-02-04 07:33:34.47678+01 | 1486190014.47678 | 43/D8F5D1B8              |          291402797496

 2017-02-04 07:33:35.555223+01 | 1486190015.55522 | 43/DB88C318              |          291445981976

 2017-02-04 07:33:36.635124+01 | 1486190016.63512 | 43/DE2007D8              |          291489449944

 2017-02-04 07:33:37.70953+01 | 1486190017.70953 | 43/E0B70EE0              |          291532902112

 2017-02-04 07:33:38.773663+01 | 1486190018.77366 | 43/E34F72F8              |          291576443640

 2017-02-04 07:33:39.851396+01 | 1486190019.8514 | 43/E6059108              |          291621933320

 2017-02-04 07:33:40.92755+01 | 1486190020.92755 | 43/E902D858              |          291672086616

 2017-02-04 07:33:41.996839+01 | 1486190021.99684 | 43/EBD67638              |          291719509560

 2017-02-04 07:33:43.08629+01 | 1486190023.08629 | 43/EEC30308              |          291768566536

 2017-02-04 07:33:44.168187+01 | 1486190024.16819 | 43/F18A4998              |          291815180696

 2017-02-04 07:33:45.244093+01 | 1486190025.24409 | 43/F3E1AF50              |          291854462800

 2017-02-04 07:33:46.328203+01 | 1486190026.3282 | 43/F688D768              |          291898972008

 2017-02-04 07:33:47.410659+01 | 1486190027.41066 | 43/F90C6FE0              |          291941150688

 2017-02-04 07:33:48.49215+01 | 1486190028.49215 | 43/FB85FF70              |          291982671728

 2017-02-04 07:33:49.572833+01 | 1486190029.57283 | 43/FDF967A0              |          292023789472

 2017-02-04 07:33:50.652557+01 | 1486190030.65256 | 44/4E7CB0                |          292062919856

 2017-02-04 07:33:51.733889+01 | 1486190031.73389 | 44/2E6DBD0               |          292106460112

 2017-02-04 07:33:52.817186+01 | 1486190032.81719 | 44/53F6C80               |          292145818752

 2017-02-04 07:33:53.881836+01 | 1486190033.88184 | 44/7B3A620               |          292186990112

 2017-02-04 07:33:54.961399+01 | 1486190034.9614 | 44/A009350               |          292225586000

 2017-02-04 07:33:56.049929+01 | 1486190036.04993 | 44/CA85690               |          292270134928

 2017-02-04 07:33:57.131121+01 | 1486190037.13112 | 44/F23CEF8               |          292311781112

 2017-02-04 07:33:58.216666+01 | 1486190038.21667 | 44/11E6EC00              |          292358122496

 2017-02-04 07:33:59.29726+01 | 1486190039.29726 | 44/14773A68              |          292401134184

 2017-02-04 07:34:00.37741+01 | 1486190040.37741 | 44/174C2430              |          292448642096

 2017-02-04 07:34:01.463818+01 | 1486190041.46382 | 44/19F999E0              |          292493564384

 2017-02-04 07:34:02.540451+01 | 1486190042.54045 | 44/1CB79C00              |          292539571200

 2017-02-04 07:34:03.62262+01 | 1486190043.62262 | 44/1F3E0A18              |          292581935640

 2017-02-04 07:34:04.704731+01 | 1486190044.70473 | 44/21C0B3C0              |          292624053184

 2017-02-04 07:34:05.789091+01 | 1486190045.78909 | 44/24720DB0              |          292669230512

 2017-02-04 07:34:06.876256+01 | 1486190046.87626 | 44/26F0BE28              |          292711087656

 2017-02-04 07:34:07.955526+01 | 1486190047.95553 | 44/298AC500              |          292754736384

 2017-02-04 07:34:09.039878+01 | 1486190049.03988 | 44/2BF0D438              |          292794979384

 2017-02-04 07:34:10.127643+01 | 1486190050.12764 | 44/2EA1C4D0              |          292840129744

 2017-02-04 07:34:11.20423+01 | 1486190051.20423 | 44/30FFD830              |          292879849520

 2017-02-04 07:34:12.28283+01 | 1486190052.28283 | 44/33862448              |          292922205256

 2017-02-04 07:34:13.365502+01 | 1486190053.3655 | 44/3607D720              |          292964259616

 2017-02-04 07:34:14.445958+01 | 1486190054.44596 | 44/38950848              |          293007067208

 2017-02-04 07:34:15.51357+01 | 1486190055.51357 | 44/3AE46518              |          293045822744

 2017-02-04 07:34:16.597668+01 | 1486190056.59767 | 44/3D553648              |          293086770760

 2017-02-04 07:34:17.68054+01 | 1486190057.68054 | 44/3FC86D30              |          293127875888

 2017-02-04 07:34:18.761992+01 | 1486190058.76199 | 44/421AF948              |          293166840136

 2017-02-04 07:34:19.846382+01 | 1486190059.84638 | 44/449E2A10              |          293208992272

 2017-02-04 07:34:20.918802+01 | 1486190060.9188 | 44/46F14970              |          293247994224

 2017-02-04 07:34:22.002122+01 | 1486190062.00212 | 44/49604238              |          293288821304

 2017-02-04 07:34:23.086832+01 | 1486190063.08683 | 44/4BC64170              |          293329060208

 2017-02-04 07:34:24.171225+01 | 1486190064.17123 | 44/4E1F72A8              |          293368459944

 2017-02-04 07:34:25.249995+01 | 1486190065.24999 | 44/50876160              |          293408825696

 2017-02-04 07:34:26.330806+01 | 1486190066.33081 | 44/52D418F0              |          293447407856

 2017-02-04 07:34:27.410666+01 | 1486190067.41067 | 44/5529CA90              |          293486578320

 2017-02-04 07:34:28.491404+01 | 1486190068.4914 | 44/577BACE0              |          293525499104

 2017-02-04 07:34:29.570823+01 | 1486190069.57082 | 44/59F10408              |          293566743560

 2017-02-04 07:34:30.651542+01 | 1486190070.65154 | 44/5C22CD88              |          293603560840

 2017-02-04 07:34:31.729742+01 | 1486190071.72974 | 44/5E844B28              |          293643504424

 2017-02-04 07:34:32.814736+01 | 1486190072.81474 | 44/60B46600              |          293680211456

 2017-02-04 07:34:33.891417+01 | 1486190073.89142 | 44/62F46B98              |          293717961624

 2017-02-04 07:34:34.967326+01 | 1486190074.96733 | 44/651F7E88              |          293754338952

 2017-02-04 07:34:36.048464+01 | 1486190076.04846 | 44/67508778              |          293791106936

 2017-02-04 07:34:37.129164+01 | 1486190077.12916 | 44/695FA070              |          293825650800

 2017-02-04 07:34:38.209103+01 | 1486190078.2091 | 44/6B42AB30              |          293857307440

 2017-02-04 07:34:39.303628+01 | 1486190079.30363 | 44/6CCEE118              |          293883273496

 2017-02-04 07:34:40.385268+01 | 1486190080.38527 | 44/6DCE4C28              |          293900012584

 2017-02-04 07:34:41.467793+01 | 1486190081.46779 | 44/6ED71B38              |          293917372328

 2017-02-04 07:34:42.549412+01 | 1486190082.54941 | 44/6FCB85D8              |          293933385176

 2017-02-04 07:34:43.630239+01 | 1486190083.63024 | 44/70D0E9C0              |          293950515648

 2017-02-04 07:34:44.711084+01 | 1486190084.71108 | 44/7200E898              |          293970438296

 2017-02-04 07:34:45.792659+01 | 1486190085.79266 | 44/731CFB50              |          293989055312

 2017-02-04 07:34:46.876293+01 | 1486190086.87629 | 44/746C34D0              |          294011024592

 2017-02-04 07:34:47.955103+01 | 1486190087.9551 | 44/7595D040              |          294030528576

 2017-02-04 07:34:49.030726+01 | 1486190089.03073 | 44/76C8FD68              |          294050659688

 2017-02-04 07:34:50.115411+01 | 1486190090.11541 | 44/77F20570              |          294070125936

 2017-02-04 07:34:51.189983+01 | 1486190091.18998 | 44/78F53170              |          294087111024

 2017-02-04 07:34:52.250262+01 | 1486190092.25026 | 44/79E33898              |          294102710424

 2017-02-04 07:34:53.335042+01 | 1486190093.33504 | 44/7AC984C0              |          294117803200

 2017-02-04 07:34:54.420965+01 | 1486190094.42096 | 44/7BCE8BA8              |          294134909864

 2017-02-04 07:34:55.496601+01 | 1486190095.4966 | 44/7CD77500              |          294152271104

 2017-02-04 07:34:56.581754+01 | 1486190096.58175 | 44/7DF224D8              |          294170797272

 2017-02-04 07:34:57.662873+01 | 1486190097.66287 | 44/7F2E27F8              |          294191507448

 2017-02-04 07:34:58.751313+01 | 1486190098.75131 | 44/8084D2D8              |          294213964504

 2017-02-04 07:34:59.838345+01 | 1486190099.83835 | 44/81BC6428              |          294234383400

 2017-02-04 07:35:00.917228+01 | 1486190100.91723 | 44/831FF708              |          294257686280

 2017-02-04 07:35:01.99304+01 | 1486190101.99304 | 44/84650D78              |          294278991224

 2017-02-04 07:35:03.076023+01 | 1486190103.07602 | 44/85BDDAD8              |          294301588184

 2017-02-04 07:35:04.161422+01 | 1486190104.16142 | 44/86E39C10              |          294320839696

 2017-02-04 07:35:05.241402+01 | 1486190105.2414 | 44/880572E8              |          294339834600

 2017-02-04 07:35:06.326405+01 | 1486190106.32641 | 44/8927F330              |          294358872880

 2017-02-04 07:35:07.409785+01 | 1486190107.40979 | 44/8A34E600              |          294376498688

 2017-02-04 07:35:08.49151+01 | 1486190108.49151 | 44/8B417638              |          294394099256

 2017-02-04 07:35:09.572708+01 | 1486190109.57271 | 44/8C6A9910              |          294413572368

 2017-02-04 07:35:10.658641+01 | 1486190110.65864 | 44/8D708428              |          294430737448

 2017-02-04 07:35:11.735744+01 | 1486190111.73574 | 44/8E81B298              |          294448640664

 2017-02-04 07:35:12.815233+01 | 1486190112.81523 | 44/8FAF25A0              |          294468396448

 2017-02-04 07:35:13.888419+01 | 1486190113.88842 | 44/90A91ED8              |          294484778712

 2017-02-04 07:35:14.9644+01 | 1486190114.9644 | 44/91A71340              |          294501421888

 2017-02-04 07:35:16.045067+01 | 1486190116.04507 | 44/92B7C290              |          294519292560

 2017-02-04 07:35:17.128237+01 | 1486190117.12824 | 44/93BE2FF8              |          294536491000

 2017-02-04 07:35:18.21081+01 | 1486190118.21081 | 44/94B4E558              |          294552659288

 2017-02-04 07:35:19.296395+01 | 1486190119.2964 | 44/95D1D9C8              |          294571334088

 2017-02-04 07:35:20.371408+01 | 1486190120.37141 | 44/96DED3B8              |          294588961720

 2017-02-04 07:35:21.455336+01 | 1486190121.45534 | 44/97E4CEE8              |          294606130920

 2017-02-04 07:35:22.53468+01 | 1486190122.53468 | 44/98FAD010              |          294624350224

 2017-02-04 07:35:23.61021+01 | 1486190123.61021 | 44/99E894F8              |          294639932664

 2017-02-04 07:35:24.694326+01 | 1486190124.69433 | 44/9ADE4120              |          294656033056

 2017-02-04 07:35:25.775336+01 | 1486190125.77534 | 44/9BE24CE8              |          294673075432

 2017-02-04 07:35:26.853715+01 | 1486190126.85371 | 44/9CD74278              |          294689129080

 2017-02-04 07:35:27.939373+01 | 1486190127.93937 | 44/9DC85AA0              |          294704929440

 2017-02-04 07:35:29.013259+01 | 1486190129.01326 | 44/9ECE5AB8              |          294722099896

 2017-02-04 07:35:30.079075+01 | 1486190130.07908 | 44/9FBD3CA0              |          294737755296

 2017-02-04 07:35:31.161437+01 | 1486190131.16144 | 44/A09798B8              |          294752065720

 2017-02-04 07:35:32.239649+01 | 1486190132.23965 | 44/A1A65DE8              |          294769810920

 2017-02-04 07:35:33.312797+01 | 1486190133.3128 | 44/A287C550              |          294784582992

 2017-02-04 07:35:34.397586+01 | 1486190134.39759 | 44/A371D868              |          294799923304

 2017-02-04 07:35:35.477112+01 | 1486190135.47711 | 44/A4735748              |          294816798536

 2017-02-04 07:35:36.557065+01 | 1486190136.55707 | 44/A56343F8              |          294832522232

 2017-02-04 07:35:37.635927+01 | 1486190137.63593 | 44/A65F2748              |          294849029960

 2017-02-04 07:35:38.720206+01 | 1486190138.72021 | 44/A75C7E28              |          294865632808

 2017-02-04 07:35:39.793369+01 | 1486190139.79337 | 44/A847C668              |          294881052264

 2017-02-04 07:35:40.874594+01 | 1486190140.87459 | 44/A928F338              |          294895809336

 2017-02-04 07:35:41.952423+01 | 1486190141.95242 | 44/AA2A4858              |          294912673880

 2017-02-04 07:35:43.03644+01 | 1486190143.03644 | 44/AB11A728              |          294927836968

 2017-02-04 07:35:44.113111+01 | 1486190144.11311 | 44/ABF8ED88              |          294942993800

 2017-02-04 07:35:45.201284+01 | 1486190145.20128 | 44/ACF63AA0              |          294959594144

 2017-02-04 07:35:46.279811+01 | 1486190146.27981 | 44/ADD78120              |          294974357792

 2017-02-04 07:35:47.355793+01 | 1486190147.35579 | 44/AEBAEC28              |          294989261864

 2017-02-04 07:35:48.439472+01 | 1486190148.43947 | 44/AFB97C98              |          295005944984

 2017-02-04 07:35:49.520586+01 | 1486190149.52059 | 44/B09DFFF0              |          295020920816

 2017-02-04 07:35:50.600157+01 | 1486190150.60016 | 44/B179CAC8              |          295035325128

 2017-02-04 07:35:51.685091+01 | 1486190151.68509 | 44/B2817E48              |          295052607048

 2017-02-04 07:35:52.766799+01 | 1486190152.7668 | 44/B37A9F78              |          295068934008

 2017-02-04 07:35:53.832661+01 | 1486190153.83266 | 44/B47BC8D0              |          295085787344

 2017-02-04 07:35:54.896814+01 | 1486190154.89681 | 44/B56900B8              |          295101333688

 2017-02-04 07:35:55.973471+01 | 1486190155.97347 | 44/B67048A0              |          295118588064

 2017-02-04 07:35:57.048568+01 | 1486190157.04857 | 44/B78FA2A0              |          295137419936

 2017-02-04 07:35:58.11949+01 | 1486190158.11949 | 44/B8AE0880              |          295156189312

 2017-02-04 07:35:59.196907+01 | 1486190159.19691 | 44/B9BDFCD0              |          295174012112

 2017-02-04 07:36:00.276473+01 | 1486190160.27647 | 44/BAD1BBC0              |          295192083392

 2017-02-04 07:36:01.363772+01 | 1486190161.36377 | 44/BBE228D8              |          295209937112

 2017-02-04 07:36:02.450386+01 | 1486190162.45039 | 44/BD0AD930              |          295229380912

 2017-02-04 07:36:03.535223+01 | 1486190163.53522 | 44/BE359698              |          295248959128

 2017-02-04 07:36:04.603823+01 | 1486190164.60382 | 44/BF3C0E60              |          295266160224

 2017-02-04 07:36:05.690555+01 | 1486190165.69056 | 44/C04EAEF0              |          295284158192

 2017-02-04 07:36:06.78226+01 | 1486190166.78226 | 44/C13E1170              |          295299846512

 2017-02-04 07:36:07.856161+01 | 1486190167.85616 | 44/C213C8C0              |          295313852608

 2017-02-04 07:36:08.93525+01 | 1486190168.93525 | 44/C2F87F48              |          295328841544

 2017-02-04 07:36:10.010308+01 | 1486190170.01031 | 44/C3E3F4B8              |          295344272568

 2017-02-04 07:36:11.086122+01 | 1486190171.08612 | 44/C4BC3BB0              |          295358446512

 2017-02-04 07:36:12.168535+01 | 1486190172.16853 | 44/C59ECD98              |          295373295000

 2017-02-04 07:36:13.250681+01 | 1486190173.25068 | 44/C680F290              |          295388115600

 2017-02-04 07:36:14.352137+01 | 1486190174.35214 | 44/C7525D48              |          295401839944

