 2017-02-06 20:21:12.423323+01 | 1486408872.42332 | pgbench_branches_pkey |          1327104
 2017-02-06 20:21:12.423323+01 | 1486408872.42332 | pgbench_tellers_pkey  |          4734976
 2017-02-06 20:21:12.423323+01 | 1486408872.42332 | pgbench_accounts_pkey |       2246197248

 2017-02-06 20:21:13.501373+01 | 1486408873.50137 | pgbench_branches_pkey |          1327104
 2017-02-06 20:21:13.501373+01 | 1486408873.50137 | pgbench_tellers_pkey  |          4734976
 2017-02-06 20:21:13.501373+01 | 1486408873.50137 | pgbench_accounts_pkey |       2246197248

 2017-02-06 20:21:14.590707+01 | 1486408874.59071 | pgbench_branches_pkey |          1327104
 2017-02-06 20:21:14.590707+01 | 1486408874.59071 | pgbench_tellers_pkey  |          4734976
 2017-02-06 20:21:14.590707+01 | 1486408874.59071 | pgbench_accounts_pkey |       2246197248

 2017-02-06 20:21:15.667+01 | 1486408875.667 | pgbench_branches_pkey |          1327104
 2017-02-06 20:21:15.667+01 | 1486408875.667 | pgbench_tellers_pkey  |          4734976
 2017-02-06 20:21:15.667+01 | 1486408875.667 | pgbench_accounts_pkey |       2246197248

 2017-02-06 20:21:16.755873+01 | 1486408876.75587 | pgbench_branches_pkey |          1327104
 2017-02-06 20:21:16.755873+01 | 1486408876.75587 | pgbench_tellers_pkey  |          4734976
 2017-02-06 20:21:16.755873+01 | 1486408876.75587 | pgbench_accounts_pkey |       2246197248

 2017-02-06 20:21:17.841884+01 | 1486408877.84188 | pgbench_branches_pkey |          1327104
 2017-02-06 20:21:17.841884+01 | 1486408877.84188 | pgbench_tellers_pkey  |          4734976
 2017-02-06 20:21:17.841884+01 | 1486408877.84188 | pgbench_accounts_pkey |       2246197248

 2017-02-06 20:21:18.922809+01 | 1486408878.92281 | pgbench_branches_pkey |          1327104
 2017-02-06 20:21:18.922809+01 | 1486408878.92281 | pgbench_tellers_pkey  |          4734976
 2017-02-06 20:21:18.922809+01 | 1486408878.92281 | pgbench_accounts_pkey |       2246197248

 2017-02-06 20:21:20.004504+01 | 1486408880.0045 | pgbench_branches_pkey |          1327104
 2017-02-06 20:21:20.004504+01 | 1486408880.0045 | pgbench_tellers_pkey  |          4734976
 2017-02-06 20:21:20.004504+01 | 1486408880.0045 | pgbench_accounts_pkey |       2246197248

 2017-02-06 20:21:21.090176+01 | 1486408881.09018 | pgbench_branches_pkey |          1327104
 2017-02-06 20:21:21.090176+01 | 1486408881.09018 | pgbench_tellers_pkey  |          4734976
 2017-02-06 20:21:21.090176+01 | 1486408881.09018 | pgbench_accounts_pkey |       2246197248

 2017-02-06 20:21:22.170857+01 | 1486408882.17086 | pgbench_branches_pkey |          1327104
 2017-02-06 20:21:22.170857+01 | 1486408882.17086 | pgbench_tellers_pkey  |          4734976
 2017-02-06 20:21:22.170857+01 | 1486408882.17086 | pgbench_accounts_pkey |       2246197248

 2017-02-06 20:21:23.242356+01 | 1486408883.24236 | pgbench_branches_pkey |          1327104
 2017-02-06 20:21:23.242356+01 | 1486408883.24236 | pgbench_tellers_pkey  |          4734976
 2017-02-06 20:21:23.242356+01 | 1486408883.24236 | pgbench_accounts_pkey |       2246197248

 2017-02-06 20:21:24.317766+01 | 1486408884.31777 | pgbench_branches_pkey |          1327104
 2017-02-06 20:21:24.317766+01 | 1486408884.31777 | pgbench_tellers_pkey  |          4734976
 2017-02-06 20:21:24.317766+01 | 1486408884.31777 | pgbench_accounts_pkey |       2246197248

 2017-02-06 20:21:25.398717+01 | 1486408885.39872 | pgbench_branches_pkey |          1327104
 2017-02-06 20:21:25.398717+01 | 1486408885.39872 | pgbench_tellers_pkey  |          4734976
 2017-02-06 20:21:25.398717+01 | 1486408885.39872 | pgbench_accounts_pkey |       2246197248

 2017-02-06 20:21:26.479225+01 | 1486408886.47922 | pgbench_branches_pkey |          1327104
 2017-02-06 20:21:26.479225+01 | 1486408886.47922 | pgbench_tellers_pkey  |          4734976
 2017-02-06 20:21:26.479225+01 | 1486408886.47922 | pgbench_accounts_pkey |       2246197248

 2017-02-06 20:21:27.563489+01 | 1486408887.56349 | pgbench_branches_pkey |          1327104
 2017-02-06 20:21:27.563489+01 | 1486408887.56349 | pgbench_tellers_pkey  |          4734976
 2017-02-06 20:21:27.563489+01 | 1486408887.56349 | pgbench_accounts_pkey |       2246197248

 2017-02-06 20:21:28.651958+01 | 1486408888.65196 | pgbench_branches_pkey |          1327104
 2017-02-06 20:21:28.651958+01 | 1486408888.65196 | pgbench_tellers_pkey  |          4734976
 2017-02-06 20:21:28.651958+01 | 1486408888.65196 | pgbench_accounts_pkey |       2246197248

 2017-02-06 20:21:29.725061+01 | 1486408889.72506 | pgbench_branches_pkey |          1327104
 2017-02-06 20:21:29.725061+01 | 1486408889.72506 | pgbench_tellers_pkey  |          4734976
 2017-02-06 20:21:29.725061+01 | 1486408889.72506 | pgbench_accounts_pkey |       2246197248

 2017-02-06 20:21:30.799792+01 | 1486408890.79979 | pgbench_branches_pkey |          1327104
 2017-02-06 20:21:30.799792+01 | 1486408890.79979 | pgbench_tellers_pkey  |          4734976
 2017-02-06 20:21:30.799792+01 | 1486408890.79979 | pgbench_accounts_pkey |       2246197248

 2017-02-06 20:21:31.883698+01 | 1486408891.8837 | pgbench_branches_pkey |          1327104
 2017-02-06 20:21:31.883698+01 | 1486408891.8837 | pgbench_tellers_pkey  |          4734976
 2017-02-06 20:21:31.883698+01 | 1486408891.8837 | pgbench_accounts_pkey |       2246197248

 2017-02-06 20:21:32.953873+01 | 1486408892.95387 | pgbench_branches_pkey |          1327104
 2017-02-06 20:21:32.953873+01 | 1486408892.95387 | pgbench_tellers_pkey  |          4734976
 2017-02-06 20:21:32.953873+01 | 1486408892.95387 | pgbench_accounts_pkey |       2246197248

 2017-02-06 20:21:34.040737+01 | 1486408894.04074 | pgbench_branches_pkey |          1327104
 2017-02-06 20:21:34.040737+01 | 1486408894.04074 | pgbench_tellers_pkey  |          4734976
 2017-02-06 20:21:34.040737+01 | 1486408894.04074 | pgbench_accounts_pkey |       2246197248

 2017-02-06 20:21:35.118251+01 | 1486408895.11825 | pgbench_branches_pkey |          1327104
 2017-02-06 20:21:35.118251+01 | 1486408895.11825 | pgbench_tellers_pkey  |          4734976
 2017-02-06 20:21:35.118251+01 | 1486408895.11825 | pgbench_accounts_pkey |       2246197248

 2017-02-06 20:21:36.198521+01 | 1486408896.19852 | pgbench_branches_pkey |          1327104
 2017-02-06 20:21:36.198521+01 | 1486408896.19852 | pgbench_tellers_pkey  |          4734976
 2017-02-06 20:21:36.198521+01 | 1486408896.19852 | pgbench_accounts_pkey |       2246197248

 2017-02-06 20:21:37.27797+01 | 1486408897.27797 | pgbench_branches_pkey |          1327104
 2017-02-06 20:21:37.27797+01 | 1486408897.27797 | pgbench_tellers_pkey  |          4734976
 2017-02-06 20:21:37.27797+01 | 1486408897.27797 | pgbench_accounts_pkey |       2246197248

 2017-02-06 20:21:38.352808+01 | 1486408898.35281 | pgbench_branches_pkey |          1327104
 2017-02-06 20:21:38.352808+01 | 1486408898.35281 | pgbench_tellers_pkey  |          4734976
 2017-02-06 20:21:38.352808+01 | 1486408898.35281 | pgbench_accounts_pkey |       2246197248

 2017-02-06 20:21:39.4255+01 | 1486408899.4255 | pgbench_branches_pkey |          1327104
 2017-02-06 20:21:39.4255+01 | 1486408899.4255 | pgbench_tellers_pkey  |          4734976
 2017-02-06 20:21:39.4255+01 | 1486408899.4255 | pgbench_accounts_pkey |       2246197248

 2017-02-06 20:21:40.503217+01 | 1486408900.50322 | pgbench_branches_pkey |          1327104
 2017-02-06 20:21:40.503217+01 | 1486408900.50322 | pgbench_tellers_pkey  |          4734976
 2017-02-06 20:21:40.503217+01 | 1486408900.50322 | pgbench_accounts_pkey |       2246197248

 2017-02-06 20:21:41.580642+01 | 1486408901.58064 | pgbench_branches_pkey |          1327104
 2017-02-06 20:21:41.580642+01 | 1486408901.58064 | pgbench_tellers_pkey  |          4734976
 2017-02-06 20:21:41.580642+01 | 1486408901.58064 | pgbench_accounts_pkey |       2246197248

 2017-02-06 20:21:42.659969+01 | 1486408902.65997 | pgbench_branches_pkey |          1327104
 2017-02-06 20:21:42.659969+01 | 1486408902.65997 | pgbench_tellers_pkey  |          4734976
 2017-02-06 20:21:42.659969+01 | 1486408902.65997 | pgbench_accounts_pkey |       2246197248

 2017-02-06 20:21:43.745023+01 | 1486408903.74502 | pgbench_branches_pkey |          1327104
 2017-02-06 20:21:43.745023+01 | 1486408903.74502 | pgbench_tellers_pkey  |          4734976
 2017-02-06 20:21:43.745023+01 | 1486408903.74502 | pgbench_accounts_pkey |       2246197248

 2017-02-06 20:21:44.830614+01 | 1486408904.83061 | pgbench_branches_pkey |          1327104
 2017-02-06 20:21:44.830614+01 | 1486408904.83061 | pgbench_tellers_pkey  |          4734976
 2017-02-06 20:21:44.830614+01 | 1486408904.83061 | pgbench_accounts_pkey |       2246197248

 2017-02-06 20:21:45.909223+01 | 1486408905.90922 | pgbench_branches_pkey |          1327104
 2017-02-06 20:21:45.909223+01 | 1486408905.90922 | pgbench_tellers_pkey  |          4734976
 2017-02-06 20:21:45.909223+01 | 1486408905.90922 | pgbench_accounts_pkey |       2246197248

 2017-02-06 20:21:46.985648+01 | 1486408906.98565 | pgbench_branches_pkey |          1327104
 2017-02-06 20:21:46.985648+01 | 1486408906.98565 | pgbench_tellers_pkey  |          4734976
 2017-02-06 20:21:46.985648+01 | 1486408906.98565 | pgbench_accounts_pkey |       2246197248

 2017-02-06 20:21:48.07097+01 | 1486408908.07097 | pgbench_branches_pkey |          1327104
 2017-02-06 20:21:48.07097+01 | 1486408908.07097 | pgbench_tellers_pkey  |          4734976
 2017-02-06 20:21:48.07097+01 | 1486408908.07097 | pgbench_accounts_pkey |       2246197248

 2017-02-06 20:21:49.150677+01 | 1486408909.15068 | pgbench_branches_pkey |          1327104
 2017-02-06 20:21:49.150677+01 | 1486408909.15068 | pgbench_tellers_pkey  |          4734976
 2017-02-06 20:21:49.150677+01 | 1486408909.15068 | pgbench_accounts_pkey |       2246197248

 2017-02-06 20:21:50.22229+01 | 1486408910.22229 | pgbench_branches_pkey |          1327104
 2017-02-06 20:21:50.22229+01 | 1486408910.22229 | pgbench_tellers_pkey  |          4734976
 2017-02-06 20:21:50.22229+01 | 1486408910.22229 | pgbench_accounts_pkey |       2246197248

 2017-02-06 20:21:51.29569+01 | 1486408911.29569 | pgbench_branches_pkey |          1327104
 2017-02-06 20:21:51.29569+01 | 1486408911.29569 | pgbench_tellers_pkey  |          4734976
 2017-02-06 20:21:51.29569+01 | 1486408911.29569 | pgbench_accounts_pkey |       2246197248

 2017-02-06 20:21:52.379749+01 | 1486408912.37975 | pgbench_branches_pkey |          1327104
 2017-02-06 20:21:52.379749+01 | 1486408912.37975 | pgbench_tellers_pkey  |          4734976
 2017-02-06 20:21:52.379749+01 | 1486408912.37975 | pgbench_accounts_pkey |       2246197248

 2017-02-06 20:21:53.456989+01 | 1486408913.45699 | pgbench_branches_pkey |          1327104
 2017-02-06 20:21:53.456989+01 | 1486408913.45699 | pgbench_tellers_pkey  |          4734976
 2017-02-06 20:21:53.456989+01 | 1486408913.45699 | pgbench_accounts_pkey |       2246197248

 2017-02-06 20:21:54.525449+01 | 1486408914.52545 | pgbench_branches_pkey |          1327104
 2017-02-06 20:21:54.525449+01 | 1486408914.52545 | pgbench_tellers_pkey  |          4734976
 2017-02-06 20:21:54.525449+01 | 1486408914.52545 | pgbench_accounts_pkey |       2246197248

 2017-02-06 20:21:55.598632+01 | 1486408915.59863 | pgbench_branches_pkey |          1327104
 2017-02-06 20:21:55.598632+01 | 1486408915.59863 | pgbench_tellers_pkey  |          4734976
 2017-02-06 20:21:55.598632+01 | 1486408915.59863 | pgbench_accounts_pkey |       2246197248

 2017-02-06 20:21:56.667096+01 | 1486408916.6671 | pgbench_branches_pkey |          1327104
 2017-02-06 20:21:56.667096+01 | 1486408916.6671 | pgbench_tellers_pkey  |          4734976
 2017-02-06 20:21:56.667096+01 | 1486408916.6671 | pgbench_accounts_pkey |       2246197248

 2017-02-06 20:21:57.75431+01 | 1486408917.75431 | pgbench_branches_pkey |          1327104
 2017-02-06 20:21:57.75431+01 | 1486408917.75431 | pgbench_tellers_pkey  |          4734976
 2017-02-06 20:21:57.75431+01 | 1486408917.75431 | pgbench_accounts_pkey |       2246197248

 2017-02-06 20:21:58.8476+01 | 1486408918.8476 | pgbench_branches_pkey |          1327104
 2017-02-06 20:21:58.8476+01 | 1486408918.8476 | pgbench_tellers_pkey  |          4734976
 2017-02-06 20:21:58.8476+01 | 1486408918.8476 | pgbench_accounts_pkey |       2246197248

 2017-02-06 20:21:59.926162+01 | 1486408919.92616 | pgbench_branches_pkey |          1327104
 2017-02-06 20:21:59.926162+01 | 1486408919.92616 | pgbench_tellers_pkey  |          4734976
 2017-02-06 20:21:59.926162+01 | 1486408919.92616 | pgbench_accounts_pkey |       2246197248

 2017-02-06 20:22:01.017806+01 | 1486408921.01781 | pgbench_branches_pkey |          1327104
 2017-02-06 20:22:01.017806+01 | 1486408921.01781 | pgbench_tellers_pkey  |          4734976
 2017-02-06 20:22:01.017806+01 | 1486408921.01781 | pgbench_accounts_pkey |       2246197248

 2017-02-06 20:22:02.105439+01 | 1486408922.10544 | pgbench_branches_pkey |          1327104
 2017-02-06 20:22:02.105439+01 | 1486408922.10544 | pgbench_tellers_pkey  |          4734976
 2017-02-06 20:22:02.105439+01 | 1486408922.10544 | pgbench_accounts_pkey |       2246197248

 2017-02-06 20:22:03.19366+01 | 1486408923.19366 | pgbench_branches_pkey |          1327104
 2017-02-06 20:22:03.19366+01 | 1486408923.19366 | pgbench_tellers_pkey  |          4734976
 2017-02-06 20:22:03.19366+01 | 1486408923.19366 | pgbench_accounts_pkey |       2246197248

 2017-02-06 20:22:04.283776+01 | 1486408924.28378 | pgbench_branches_pkey |          1327104
 2017-02-06 20:22:04.283776+01 | 1486408924.28378 | pgbench_tellers_pkey  |          4734976
 2017-02-06 20:22:04.283776+01 | 1486408924.28378 | pgbench_accounts_pkey |       2246197248

 2017-02-06 20:22:05.363908+01 | 1486408925.36391 | pgbench_branches_pkey |          1327104
 2017-02-06 20:22:05.363908+01 | 1486408925.36391 | pgbench_tellers_pkey  |          4734976
 2017-02-06 20:22:05.363908+01 | 1486408925.36391 | pgbench_accounts_pkey |       2246197248

 2017-02-06 20:22:06.436657+01 | 1486408926.43666 | pgbench_branches_pkey |          1327104
 2017-02-06 20:22:06.436657+01 | 1486408926.43666 | pgbench_tellers_pkey  |          4734976
 2017-02-06 20:22:06.436657+01 | 1486408926.43666 | pgbench_accounts_pkey |       2246197248

 2017-02-06 20:22:07.524678+01 | 1486408927.52468 | pgbench_branches_pkey |          1327104
 2017-02-06 20:22:07.524678+01 | 1486408927.52468 | pgbench_tellers_pkey  |          4734976
 2017-02-06 20:22:07.524678+01 | 1486408927.52468 | pgbench_accounts_pkey |       2246197248

 2017-02-06 20:22:08.60374+01 | 1486408928.60374 | pgbench_branches_pkey |          1327104
 2017-02-06 20:22:08.60374+01 | 1486408928.60374 | pgbench_tellers_pkey  |          4734976
 2017-02-06 20:22:08.60374+01 | 1486408928.60374 | pgbench_accounts_pkey |       2246197248

 2017-02-06 20:22:09.683043+01 | 1486408929.68304 | pgbench_branches_pkey |          1327104
 2017-02-06 20:22:09.683043+01 | 1486408929.68304 | pgbench_tellers_pkey  |          4734976
 2017-02-06 20:22:09.683043+01 | 1486408929.68304 | pgbench_accounts_pkey |       2246197248

 2017-02-06 20:22:10.760756+01 | 1486408930.76076 | pgbench_branches_pkey |          1327104
 2017-02-06 20:22:10.760756+01 | 1486408930.76076 | pgbench_tellers_pkey  |          4734976
 2017-02-06 20:22:10.760756+01 | 1486408930.76076 | pgbench_accounts_pkey |       2246197248

 2017-02-06 20:22:11.837437+01 | 1486408931.83744 | pgbench_branches_pkey |          1327104
 2017-02-06 20:22:11.837437+01 | 1486408931.83744 | pgbench_tellers_pkey  |          4734976
 2017-02-06 20:22:11.837437+01 | 1486408931.83744 | pgbench_accounts_pkey |       2246197248

 2017-02-06 20:22:12.911534+01 | 1486408932.91153 | pgbench_branches_pkey |          1327104
 2017-02-06 20:22:12.911534+01 | 1486408932.91153 | pgbench_tellers_pkey  |          4734976
 2017-02-06 20:22:12.911534+01 | 1486408932.91153 | pgbench_accounts_pkey |       2246197248

 2017-02-06 20:22:13.996101+01 | 1486408933.9961 | pgbench_branches_pkey |          1327104
 2017-02-06 20:22:13.996101+01 | 1486408933.9961 | pgbench_tellers_pkey  |          4734976
 2017-02-06 20:22:13.996101+01 | 1486408933.9961 | pgbench_accounts_pkey |       2246197248

 2017-02-06 20:22:15.083536+01 | 1486408935.08354 | pgbench_branches_pkey |          1327104
 2017-02-06 20:22:15.083536+01 | 1486408935.08354 | pgbench_tellers_pkey  |          4734976
 2017-02-06 20:22:15.083536+01 | 1486408935.08354 | pgbench_accounts_pkey |       2246197248

 2017-02-06 20:22:16.165441+01 | 1486408936.16544 | pgbench_branches_pkey |          1327104
 2017-02-06 20:22:16.165441+01 | 1486408936.16544 | pgbench_tellers_pkey  |          4734976
 2017-02-06 20:22:16.165441+01 | 1486408936.16544 | pgbench_accounts_pkey |       2246197248

 2017-02-06 20:22:17.230871+01 | 1486408937.23087 | pgbench_branches_pkey |          1327104
 2017-02-06 20:22:17.230871+01 | 1486408937.23087 | pgbench_tellers_pkey  |          4734976
 2017-02-06 20:22:17.230871+01 | 1486408937.23087 | pgbench_accounts_pkey |       2246197248

 2017-02-06 20:22:18.314838+01 | 1486408938.31484 | pgbench_branches_pkey |          1327104
 2017-02-06 20:22:18.314838+01 | 1486408938.31484 | pgbench_tellers_pkey  |          4734976
 2017-02-06 20:22:18.314838+01 | 1486408938.31484 | pgbench_accounts_pkey |       2246197248

 2017-02-06 20:22:19.395694+01 | 1486408939.39569 | pgbench_branches_pkey |          1327104
 2017-02-06 20:22:19.395694+01 | 1486408939.39569 | pgbench_tellers_pkey  |          4734976
 2017-02-06 20:22:19.395694+01 | 1486408939.39569 | pgbench_accounts_pkey |       2246197248

 2017-02-06 20:22:20.473662+01 | 1486408940.47366 | pgbench_branches_pkey |          1327104
 2017-02-06 20:22:20.473662+01 | 1486408940.47366 | pgbench_tellers_pkey  |          4734976
 2017-02-06 20:22:20.473662+01 | 1486408940.47366 | pgbench_accounts_pkey |       2246197248

 2017-02-06 20:22:21.551591+01 | 1486408941.55159 | pgbench_branches_pkey |          1327104
 2017-02-06 20:22:21.551591+01 | 1486408941.55159 | pgbench_tellers_pkey  |          4734976
 2017-02-06 20:22:21.551591+01 | 1486408941.55159 | pgbench_accounts_pkey |       2246197248

 2017-02-06 20:22:22.626963+01 | 1486408942.62696 | pgbench_branches_pkey |          1327104
 2017-02-06 20:22:22.626963+01 | 1486408942.62696 | pgbench_tellers_pkey  |          4734976
 2017-02-06 20:22:22.626963+01 | 1486408942.62696 | pgbench_accounts_pkey |       2246197248

 2017-02-06 20:22:23.697816+01 | 1486408943.69782 | pgbench_branches_pkey |          1327104
 2017-02-06 20:22:23.697816+01 | 1486408943.69782 | pgbench_tellers_pkey  |          4734976
 2017-02-06 20:22:23.697816+01 | 1486408943.69782 | pgbench_accounts_pkey |       2246197248

 2017-02-06 20:22:24.767815+01 | 1486408944.76782 | pgbench_branches_pkey |          1327104
 2017-02-06 20:22:24.767815+01 | 1486408944.76782 | pgbench_tellers_pkey  |          4734976
 2017-02-06 20:22:24.767815+01 | 1486408944.76782 | pgbench_accounts_pkey |       2246197248

 2017-02-06 20:22:25.842739+01 | 1486408945.84274 | pgbench_branches_pkey |          1327104
 2017-02-06 20:22:25.842739+01 | 1486408945.84274 | pgbench_tellers_pkey  |          4734976
 2017-02-06 20:22:25.842739+01 | 1486408945.84274 | pgbench_accounts_pkey |       2246197248

 2017-02-06 20:22:26.929291+01 | 1486408946.92929 | pgbench_branches_pkey |          1327104
 2017-02-06 20:22:26.929291+01 | 1486408946.92929 | pgbench_tellers_pkey  |          4734976
 2017-02-06 20:22:26.929291+01 | 1486408946.92929 | pgbench_accounts_pkey |       2246197248

 2017-02-06 20:22:28.010437+01 | 1486408948.01044 | pgbench_branches_pkey |          1327104
 2017-02-06 20:22:28.010437+01 | 1486408948.01044 | pgbench_tellers_pkey  |          4734976
 2017-02-06 20:22:28.010437+01 | 1486408948.01044 | pgbench_accounts_pkey |       2246197248

 2017-02-06 20:22:29.087405+01 | 1486408949.0874 | pgbench_branches_pkey |          1327104
 2017-02-06 20:22:29.087405+01 | 1486408949.0874 | pgbench_tellers_pkey  |          4734976
 2017-02-06 20:22:29.087405+01 | 1486408949.0874 | pgbench_accounts_pkey |       2246197248

 2017-02-06 20:22:30.169457+01 | 1486408950.16946 | pgbench_branches_pkey |          1327104
 2017-02-06 20:22:30.169457+01 | 1486408950.16946 | pgbench_tellers_pkey  |          4734976
 2017-02-06 20:22:30.169457+01 | 1486408950.16946 | pgbench_accounts_pkey |       2246197248

 2017-02-06 20:22:31.247198+01 | 1486408951.2472 | pgbench_branches_pkey |          1327104
 2017-02-06 20:22:31.247198+01 | 1486408951.2472 | pgbench_tellers_pkey  |          4734976
 2017-02-06 20:22:31.247198+01 | 1486408951.2472 | pgbench_accounts_pkey |       2246197248

 2017-02-06 20:22:32.320834+01 | 1486408952.32083 | pgbench_branches_pkey |          1327104
 2017-02-06 20:22:32.320834+01 | 1486408952.32083 | pgbench_tellers_pkey  |          4734976
 2017-02-06 20:22:32.320834+01 | 1486408952.32083 | pgbench_accounts_pkey |       2246197248

 2017-02-06 20:22:33.390756+01 | 1486408953.39076 | pgbench_branches_pkey |          1327104
 2017-02-06 20:22:33.390756+01 | 1486408953.39076 | pgbench_tellers_pkey  |          4734976
 2017-02-06 20:22:33.390756+01 | 1486408953.39076 | pgbench_accounts_pkey |       2246197248

 2017-02-06 20:22:34.46156+01 | 1486408954.46156 | pgbench_branches_pkey |          1327104
 2017-02-06 20:22:34.46156+01 | 1486408954.46156 | pgbench_tellers_pkey  |          4734976
 2017-02-06 20:22:34.46156+01 | 1486408954.46156 | pgbench_accounts_pkey |       2246197248

 2017-02-06 20:22:35.545437+01 | 1486408955.54544 | pgbench_branches_pkey |          1327104
 2017-02-06 20:22:35.545437+01 | 1486408955.54544 | pgbench_tellers_pkey  |          4734976
 2017-02-06 20:22:35.545437+01 | 1486408955.54544 | pgbench_accounts_pkey |       2246197248

 2017-02-06 20:22:36.633098+01 | 1486408956.6331 | pgbench_branches_pkey |          1327104
 2017-02-06 20:22:36.633098+01 | 1486408956.6331 | pgbench_tellers_pkey  |          4734976
 2017-02-06 20:22:36.633098+01 | 1486408956.6331 | pgbench_accounts_pkey |       2246197248

 2017-02-06 20:22:37.726509+01 | 1486408957.72651 | pgbench_branches_pkey |          1327104
 2017-02-06 20:22:37.726509+01 | 1486408957.72651 | pgbench_tellers_pkey  |          4734976
 2017-02-06 20:22:37.726509+01 | 1486408957.72651 | pgbench_accounts_pkey |       2246197248

 2017-02-06 20:22:38.817904+01 | 1486408958.8179 | pgbench_branches_pkey |          1327104
 2017-02-06 20:22:38.817904+01 | 1486408958.8179 | pgbench_tellers_pkey  |          4734976
 2017-02-06 20:22:38.817904+01 | 1486408958.8179 | pgbench_accounts_pkey |       2246197248

 2017-02-06 20:22:39.904576+01 | 1486408959.90458 | pgbench_branches_pkey |          1327104
 2017-02-06 20:22:39.904576+01 | 1486408959.90458 | pgbench_tellers_pkey  |          4734976
 2017-02-06 20:22:39.904576+01 | 1486408959.90458 | pgbench_accounts_pkey |       2246197248

 2017-02-06 20:22:40.994901+01 | 1486408960.9949 | pgbench_branches_pkey |          1327104
 2017-02-06 20:22:40.994901+01 | 1486408960.9949 | pgbench_tellers_pkey  |          4734976
 2017-02-06 20:22:40.994901+01 | 1486408960.9949 | pgbench_accounts_pkey |       2246197248

 2017-02-06 20:22:42.080877+01 | 1486408962.08088 | pgbench_branches_pkey |          1327104
 2017-02-06 20:22:42.080877+01 | 1486408962.08088 | pgbench_tellers_pkey  |          4734976
 2017-02-06 20:22:42.080877+01 | 1486408962.08088 | pgbench_accounts_pkey |       2246197248

 2017-02-06 20:22:43.159288+01 | 1486408963.15929 | pgbench_branches_pkey |          1327104
 2017-02-06 20:22:43.159288+01 | 1486408963.15929 | pgbench_tellers_pkey  |          4734976
 2017-02-06 20:22:43.159288+01 | 1486408963.15929 | pgbench_accounts_pkey |       2246197248

 2017-02-06 20:22:44.247374+01 | 1486408964.24737 | pgbench_branches_pkey |          1327104
 2017-02-06 20:22:44.247374+01 | 1486408964.24737 | pgbench_tellers_pkey  |          4734976
 2017-02-06 20:22:44.247374+01 | 1486408964.24737 | pgbench_accounts_pkey |       2246197248

 2017-02-06 20:22:45.307359+01 | 1486408965.30736 | pgbench_branches_pkey |          1327104
 2017-02-06 20:22:45.307359+01 | 1486408965.30736 | pgbench_tellers_pkey  |          4734976
 2017-02-06 20:22:45.307359+01 | 1486408965.30736 | pgbench_accounts_pkey |       2246197248

 2017-02-06 20:22:46.379198+01 | 1486408966.3792 | pgbench_branches_pkey |          1327104
 2017-02-06 20:22:46.379198+01 | 1486408966.3792 | pgbench_tellers_pkey  |          4734976
 2017-02-06 20:22:46.379198+01 | 1486408966.3792 | pgbench_accounts_pkey |       2246197248

 2017-02-06 20:22:47.443691+01 | 1486408967.44369 | pgbench_branches_pkey |          1327104
 2017-02-06 20:22:47.443691+01 | 1486408967.44369 | pgbench_tellers_pkey  |          4734976
 2017-02-06 20:22:47.443691+01 | 1486408967.44369 | pgbench_accounts_pkey |       2246197248

 2017-02-06 20:22:48.527108+01 | 1486408968.52711 | pgbench_branches_pkey |          1327104
 2017-02-06 20:22:48.527108+01 | 1486408968.52711 | pgbench_tellers_pkey  |          4734976
 2017-02-06 20:22:48.527108+01 | 1486408968.52711 | pgbench_accounts_pkey |       2246197248

 2017-02-06 20:22:49.617277+01 | 1486408969.61728 | pgbench_branches_pkey |          1327104
 2017-02-06 20:22:49.617277+01 | 1486408969.61728 | pgbench_tellers_pkey  |          4734976
 2017-02-06 20:22:49.617277+01 | 1486408969.61728 | pgbench_accounts_pkey |       2246197248

 2017-02-06 20:22:50.692932+01 | 1486408970.69293 | pgbench_branches_pkey |          1327104
 2017-02-06 20:22:50.692932+01 | 1486408970.69293 | pgbench_tellers_pkey  |          4734976
 2017-02-06 20:22:50.692932+01 | 1486408970.69293 | pgbench_accounts_pkey |       2246197248

 2017-02-06 20:22:51.782936+01 | 1486408971.78294 | pgbench_branches_pkey |          1327104
 2017-02-06 20:22:51.782936+01 | 1486408971.78294 | pgbench_tellers_pkey  |          4734976
 2017-02-06 20:22:51.782936+01 | 1486408971.78294 | pgbench_accounts_pkey |       2246197248

 2017-02-06 20:22:52.86559+01 | 1486408972.86559 | pgbench_branches_pkey |          1327104
 2017-02-06 20:22:52.86559+01 | 1486408972.86559 | pgbench_tellers_pkey  |          4734976
 2017-02-06 20:22:52.86559+01 | 1486408972.86559 | pgbench_accounts_pkey |       2246197248

 2017-02-06 20:22:53.948204+01 | 1486408973.9482 | pgbench_branches_pkey |          1327104
 2017-02-06 20:22:53.948204+01 | 1486408973.9482 | pgbench_tellers_pkey  |          4734976
 2017-02-06 20:22:53.948204+01 | 1486408973.9482 | pgbench_accounts_pkey |       2246197248

 2017-02-06 20:22:55.026566+01 | 1486408975.02657 | pgbench_branches_pkey |          1327104
 2017-02-06 20:22:55.026566+01 | 1486408975.02657 | pgbench_tellers_pkey  |          4734976
 2017-02-06 20:22:55.026566+01 | 1486408975.02657 | pgbench_accounts_pkey |       2246197248

 2017-02-06 20:22:56.115635+01 | 1486408976.11563 | pgbench_branches_pkey |          1327104
 2017-02-06 20:22:56.115635+01 | 1486408976.11563 | pgbench_tellers_pkey  |          4734976
 2017-02-06 20:22:56.115635+01 | 1486408976.11563 | pgbench_accounts_pkey |       2246197248

 2017-02-06 20:22:57.198675+01 | 1486408977.19867 | pgbench_branches_pkey |          1327104
 2017-02-06 20:22:57.198675+01 | 1486408977.19867 | pgbench_tellers_pkey  |          4734976
 2017-02-06 20:22:57.198675+01 | 1486408977.19867 | pgbench_accounts_pkey |       2246197248

 2017-02-06 20:22:58.286437+01 | 1486408978.28644 | pgbench_branches_pkey |          1327104
 2017-02-06 20:22:58.286437+01 | 1486408978.28644 | pgbench_tellers_pkey  |          4734976
 2017-02-06 20:22:58.286437+01 | 1486408978.28644 | pgbench_accounts_pkey |       2246197248

 2017-02-06 20:22:59.376065+01 | 1486408979.37607 | pgbench_branches_pkey |          1327104
 2017-02-06 20:22:59.376065+01 | 1486408979.37607 | pgbench_tellers_pkey  |          4734976
 2017-02-06 20:22:59.376065+01 | 1486408979.37607 | pgbench_accounts_pkey |       2246197248

 2017-02-06 20:23:00.446436+01 | 1486408980.44644 | pgbench_branches_pkey |          1327104
 2017-02-06 20:23:00.446436+01 | 1486408980.44644 | pgbench_tellers_pkey  |          4734976
 2017-02-06 20:23:00.446436+01 | 1486408980.44644 | pgbench_accounts_pkey |       2246197248

 2017-02-06 20:23:01.516946+01 | 1486408981.51695 | pgbench_branches_pkey |          1327104
 2017-02-06 20:23:01.516946+01 | 1486408981.51695 | pgbench_tellers_pkey  |          4734976
 2017-02-06 20:23:01.516946+01 | 1486408981.51695 | pgbench_accounts_pkey |       2246197248

 2017-02-06 20:23:02.604605+01 | 1486408982.6046 | pgbench_branches_pkey |          1327104
 2017-02-06 20:23:02.604605+01 | 1486408982.6046 | pgbench_tellers_pkey  |          4734976
 2017-02-06 20:23:02.604605+01 | 1486408982.6046 | pgbench_accounts_pkey |       2246197248

 2017-02-06 20:23:03.691956+01 | 1486408983.69196 | pgbench_branches_pkey |          1327104
 2017-02-06 20:23:03.691956+01 | 1486408983.69196 | pgbench_tellers_pkey  |          4734976
 2017-02-06 20:23:03.691956+01 | 1486408983.69196 | pgbench_accounts_pkey |       2246197248

 2017-02-06 20:23:04.763379+01 | 1486408984.76338 | pgbench_branches_pkey |          1327104
 2017-02-06 20:23:04.763379+01 | 1486408984.76338 | pgbench_tellers_pkey  |          4734976
 2017-02-06 20:23:04.763379+01 | 1486408984.76338 | pgbench_accounts_pkey |       2246197248

 2017-02-06 20:23:05.842984+01 | 1486408985.84298 | pgbench_branches_pkey |          1327104
 2017-02-06 20:23:05.842984+01 | 1486408985.84298 | pgbench_tellers_pkey  |          4734976
 2017-02-06 20:23:05.842984+01 | 1486408985.84298 | pgbench_accounts_pkey |       2246197248

 2017-02-06 20:23:06.916568+01 | 1486408986.91657 | pgbench_branches_pkey |          1327104
 2017-02-06 20:23:06.916568+01 | 1486408986.91657 | pgbench_tellers_pkey  |          4734976
 2017-02-06 20:23:06.916568+01 | 1486408986.91657 | pgbench_accounts_pkey |       2246197248

 2017-02-06 20:23:07.996836+01 | 1486408987.99684 | pgbench_branches_pkey |          1327104
 2017-02-06 20:23:07.996836+01 | 1486408987.99684 | pgbench_tellers_pkey  |          4734976
 2017-02-06 20:23:07.996836+01 | 1486408987.99684 | pgbench_accounts_pkey |       2246197248

 2017-02-06 20:23:09.090758+01 | 1486408989.09076 | pgbench_branches_pkey |          1327104
 2017-02-06 20:23:09.090758+01 | 1486408989.09076 | pgbench_tellers_pkey  |          4734976
 2017-02-06 20:23:09.090758+01 | 1486408989.09076 | pgbench_accounts_pkey |       2246197248

 2017-02-06 20:23:10.174973+01 | 1486408990.17497 | pgbench_branches_pkey |          1327104
 2017-02-06 20:23:10.174973+01 | 1486408990.17497 | pgbench_tellers_pkey  |          4734976
 2017-02-06 20:23:10.174973+01 | 1486408990.17497 | pgbench_accounts_pkey |       2246197248

 2017-02-06 20:23:11.254242+01 | 1486408991.25424 | pgbench_branches_pkey |          1327104
 2017-02-06 20:23:11.254242+01 | 1486408991.25424 | pgbench_tellers_pkey  |          4734976
 2017-02-06 20:23:11.254242+01 | 1486408991.25424 | pgbench_accounts_pkey |       2246197248

 2017-02-06 20:23:12.330297+01 | 1486408992.3303 | pgbench_branches_pkey |          1327104
 2017-02-06 20:23:12.330297+01 | 1486408992.3303 | pgbench_tellers_pkey  |          4734976
 2017-02-06 20:23:12.330297+01 | 1486408992.3303 | pgbench_accounts_pkey |       2246197248

 2017-02-06 20:23:13.419682+01 | 1486408993.41968 | pgbench_branches_pkey |          1327104
 2017-02-06 20:23:13.419682+01 | 1486408993.41968 | pgbench_tellers_pkey  |          4734976
 2017-02-06 20:23:13.419682+01 | 1486408993.41968 | pgbench_accounts_pkey |       2246197248

 2017-02-06 20:23:14.500224+01 | 1486408994.50022 | pgbench_branches_pkey |          1327104
 2017-02-06 20:23:14.500224+01 | 1486408994.50022 | pgbench_tellers_pkey  |          4734976
 2017-02-06 20:23:14.500224+01 | 1486408994.50022 | pgbench_accounts_pkey |       2246197248

 2017-02-06 20:23:15.583572+01 | 1486408995.58357 | pgbench_branches_pkey |          1327104
 2017-02-06 20:23:15.583572+01 | 1486408995.58357 | pgbench_tellers_pkey  |          4734976
 2017-02-06 20:23:15.583572+01 | 1486408995.58357 | pgbench_accounts_pkey |       2246197248

 2017-02-06 20:23:16.660322+01 | 1486408996.66032 | pgbench_branches_pkey |          1327104
 2017-02-06 20:23:16.660322+01 | 1486408996.66032 | pgbench_tellers_pkey  |          4734976
 2017-02-06 20:23:16.660322+01 | 1486408996.66032 | pgbench_accounts_pkey |       2246197248

 2017-02-06 20:23:17.746311+01 | 1486408997.74631 | pgbench_branches_pkey |          1327104
 2017-02-06 20:23:17.746311+01 | 1486408997.74631 | pgbench_tellers_pkey  |          4734976
 2017-02-06 20:23:17.746311+01 | 1486408997.74631 | pgbench_accounts_pkey |       2246197248

 2017-02-06 20:23:18.822965+01 | 1486408998.82296 | pgbench_branches_pkey |          1327104
 2017-02-06 20:23:18.822965+01 | 1486408998.82296 | pgbench_tellers_pkey  |          4734976
 2017-02-06 20:23:18.822965+01 | 1486408998.82296 | pgbench_accounts_pkey |       2246197248

 2017-02-06 20:23:19.909312+01 | 1486408999.90931 | pgbench_branches_pkey |          1327104
 2017-02-06 20:23:19.909312+01 | 1486408999.90931 | pgbench_tellers_pkey  |          4734976
 2017-02-06 20:23:19.909312+01 | 1486408999.90931 | pgbench_accounts_pkey |       2246197248

 2017-02-06 20:23:20.981177+01 | 1486409000.98118 | pgbench_branches_pkey |          1327104
 2017-02-06 20:23:20.981177+01 | 1486409000.98118 | pgbench_tellers_pkey  |          4734976
 2017-02-06 20:23:20.981177+01 | 1486409000.98118 | pgbench_accounts_pkey |       2246197248

 2017-02-06 20:23:22.060881+01 | 1486409002.06088 | pgbench_branches_pkey |          1327104
 2017-02-06 20:23:22.060881+01 | 1486409002.06088 | pgbench_tellers_pkey  |          4734976
 2017-02-06 20:23:22.060881+01 | 1486409002.06088 | pgbench_accounts_pkey |       2246197248

 2017-02-06 20:23:23.143095+01 | 1486409003.1431 | pgbench_branches_pkey |          1327104
 2017-02-06 20:23:23.143095+01 | 1486409003.1431 | pgbench_tellers_pkey  |          4734976
 2017-02-06 20:23:23.143095+01 | 1486409003.1431 | pgbench_accounts_pkey |       2246197248

 2017-02-06 20:23:24.235888+01 | 1486409004.23589 | pgbench_branches_pkey |          1327104
 2017-02-06 20:23:24.235888+01 | 1486409004.23589 | pgbench_tellers_pkey  |          4734976
 2017-02-06 20:23:24.235888+01 | 1486409004.23589 | pgbench_accounts_pkey |       2246197248

 2017-02-06 20:23:25.325427+01 | 1486409005.32543 | pgbench_branches_pkey |          1327104
 2017-02-06 20:23:25.325427+01 | 1486409005.32543 | pgbench_tellers_pkey  |          4734976
 2017-02-06 20:23:25.325427+01 | 1486409005.32543 | pgbench_accounts_pkey |       2246197248

 2017-02-06 20:23:26.416049+01 | 1486409006.41605 | pgbench_branches_pkey |          1327104
 2017-02-06 20:23:26.416049+01 | 1486409006.41605 | pgbench_tellers_pkey  |          4734976
 2017-02-06 20:23:26.416049+01 | 1486409006.41605 | pgbench_accounts_pkey |       2246197248

 2017-02-06 20:23:27.492353+01 | 1486409007.49235 | pgbench_branches_pkey |          1327104
 2017-02-06 20:23:27.492353+01 | 1486409007.49235 | pgbench_tellers_pkey  |          4734976
 2017-02-06 20:23:27.492353+01 | 1486409007.49235 | pgbench_accounts_pkey |       2246197248

 2017-02-06 20:23:28.562798+01 | 1486409008.5628 | pgbench_branches_pkey |          1327104
 2017-02-06 20:23:28.562798+01 | 1486409008.5628 | pgbench_tellers_pkey  |          4734976
 2017-02-06 20:23:28.562798+01 | 1486409008.5628 | pgbench_accounts_pkey |       2246197248

 2017-02-06 20:23:29.637402+01 | 1486409009.6374 | pgbench_branches_pkey |          1327104
 2017-02-06 20:23:29.637402+01 | 1486409009.6374 | pgbench_tellers_pkey  |          4734976
 2017-02-06 20:23:29.637402+01 | 1486409009.6374 | pgbench_accounts_pkey |       2246197248

 2017-02-06 20:23:30.714278+01 | 1486409010.71428 | pgbench_branches_pkey |          1327104
 2017-02-06 20:23:30.714278+01 | 1486409010.71428 | pgbench_tellers_pkey  |          4734976
 2017-02-06 20:23:30.714278+01 | 1486409010.71428 | pgbench_accounts_pkey |       2246197248

 2017-02-06 20:23:31.785084+01 | 1486409011.78508 | pgbench_branches_pkey |          1327104
 2017-02-06 20:23:31.785084+01 | 1486409011.78508 | pgbench_tellers_pkey  |          4734976
 2017-02-06 20:23:31.785084+01 | 1486409011.78508 | pgbench_accounts_pkey |       2246197248

 2017-02-06 20:23:32.866603+01 | 1486409012.8666 | pgbench_branches_pkey |          1327104
 2017-02-06 20:23:32.866603+01 | 1486409012.8666 | pgbench_tellers_pkey  |          4734976
 2017-02-06 20:23:32.866603+01 | 1486409012.8666 | pgbench_accounts_pkey |       2246197248

 2017-02-06 20:23:33.947196+01 | 1486409013.9472 | pgbench_branches_pkey |          1327104
 2017-02-06 20:23:33.947196+01 | 1486409013.9472 | pgbench_tellers_pkey  |          4734976
 2017-02-06 20:23:33.947196+01 | 1486409013.9472 | pgbench_accounts_pkey |       2246197248

 2017-02-06 20:23:35.013755+01 | 1486409015.01376 | pgbench_branches_pkey |          1327104
 2017-02-06 20:23:35.013755+01 | 1486409015.01376 | pgbench_tellers_pkey  |          4734976
 2017-02-06 20:23:35.013755+01 | 1486409015.01376 | pgbench_accounts_pkey |       2246197248

 2017-02-06 20:23:36.10229+01 | 1486409016.10229 | pgbench_branches_pkey |          1327104
 2017-02-06 20:23:36.10229+01 | 1486409016.10229 | pgbench_tellers_pkey  |          4734976
 2017-02-06 20:23:36.10229+01 | 1486409016.10229 | pgbench_accounts_pkey |       2246197248

 2017-02-06 20:23:37.184533+01 | 1486409017.18453 | pgbench_branches_pkey |          1327104
 2017-02-06 20:23:37.184533+01 | 1486409017.18453 | pgbench_tellers_pkey  |          4734976
 2017-02-06 20:23:37.184533+01 | 1486409017.18453 | pgbench_accounts_pkey |       2246197248

 2017-02-06 20:23:38.272836+01 | 1486409018.27284 | pgbench_branches_pkey |          1327104
 2017-02-06 20:23:38.272836+01 | 1486409018.27284 | pgbench_tellers_pkey  |          4734976
 2017-02-06 20:23:38.272836+01 | 1486409018.27284 | pgbench_accounts_pkey |       2246197248

 2017-02-06 20:23:39.364573+01 | 1486409019.36457 | pgbench_branches_pkey |          1327104
 2017-02-06 20:23:39.364573+01 | 1486409019.36457 | pgbench_tellers_pkey  |          4734976
 2017-02-06 20:23:39.364573+01 | 1486409019.36457 | pgbench_accounts_pkey |       2246197248

 2017-02-06 20:23:40.453792+01 | 1486409020.45379 | pgbench_branches_pkey |          1327104
 2017-02-06 20:23:40.453792+01 | 1486409020.45379 | pgbench_tellers_pkey  |          4734976
 2017-02-06 20:23:40.453792+01 | 1486409020.45379 | pgbench_accounts_pkey |       2246197248

 2017-02-06 20:23:41.539783+01 | 1486409021.53978 | pgbench_branches_pkey |          1327104
 2017-02-06 20:23:41.539783+01 | 1486409021.53978 | pgbench_tellers_pkey  |          4734976
 2017-02-06 20:23:41.539783+01 | 1486409021.53978 | pgbench_accounts_pkey |       2246197248

 2017-02-06 20:23:42.633352+01 | 1486409022.63335 | pgbench_branches_pkey |          1327104
 2017-02-06 20:23:42.633352+01 | 1486409022.63335 | pgbench_tellers_pkey  |          4734976
 2017-02-06 20:23:42.633352+01 | 1486409022.63335 | pgbench_accounts_pkey |       2246197248

 2017-02-06 20:23:43.727623+01 | 1486409023.72762 | pgbench_branches_pkey |          1327104
 2017-02-06 20:23:43.727623+01 | 1486409023.72762 | pgbench_tellers_pkey  |          4734976
 2017-02-06 20:23:43.727623+01 | 1486409023.72762 | pgbench_accounts_pkey |       2246197248

 2017-02-06 20:23:44.813286+01 | 1486409024.81329 | pgbench_branches_pkey |          1327104
 2017-02-06 20:23:44.813286+01 | 1486409024.81329 | pgbench_tellers_pkey  |          4734976
 2017-02-06 20:23:44.813286+01 | 1486409024.81329 | pgbench_accounts_pkey |       2246197248

 2017-02-06 20:23:45.884482+01 | 1486409025.88448 | pgbench_branches_pkey |          1327104
 2017-02-06 20:23:45.884482+01 | 1486409025.88448 | pgbench_tellers_pkey  |          4734976
 2017-02-06 20:23:45.884482+01 | 1486409025.88448 | pgbench_accounts_pkey |       2246197248

 2017-02-06 20:23:46.956137+01 | 1486409026.95614 | pgbench_branches_pkey |          1327104
 2017-02-06 20:23:46.956137+01 | 1486409026.95614 | pgbench_tellers_pkey  |          4734976
 2017-02-06 20:23:46.956137+01 | 1486409026.95614 | pgbench_accounts_pkey |       2246197248

 2017-02-06 20:23:48.035678+01 | 1486409028.03568 | pgbench_branches_pkey |          1327104
 2017-02-06 20:23:48.035678+01 | 1486409028.03568 | pgbench_tellers_pkey  |          4734976
 2017-02-06 20:23:48.035678+01 | 1486409028.03568 | pgbench_accounts_pkey |       2246197248

 2017-02-06 20:23:49.123113+01 | 1486409029.12311 | pgbench_branches_pkey |          1327104
 2017-02-06 20:23:49.123113+01 | 1486409029.12311 | pgbench_tellers_pkey  |          4734976
 2017-02-06 20:23:49.123113+01 | 1486409029.12311 | pgbench_accounts_pkey |       2246197248

 2017-02-06 20:23:50.194422+01 | 1486409030.19442 | pgbench_branches_pkey |          1327104
 2017-02-06 20:23:50.194422+01 | 1486409030.19442 | pgbench_tellers_pkey  |          4734976
 2017-02-06 20:23:50.194422+01 | 1486409030.19442 | pgbench_accounts_pkey |       2246197248

 2017-02-06 20:23:51.275645+01 | 1486409031.27565 | pgbench_branches_pkey |          1327104
 2017-02-06 20:23:51.275645+01 | 1486409031.27565 | pgbench_tellers_pkey  |          4734976
 2017-02-06 20:23:51.275645+01 | 1486409031.27565 | pgbench_accounts_pkey |       2246197248

 2017-02-06 20:23:52.361269+01 | 1486409032.36127 | pgbench_branches_pkey |          1327104
 2017-02-06 20:23:52.361269+01 | 1486409032.36127 | pgbench_tellers_pkey  |          4734976
 2017-02-06 20:23:52.361269+01 | 1486409032.36127 | pgbench_accounts_pkey |       2246197248

 2017-02-06 20:23:53.452599+01 | 1486409033.4526 | pgbench_branches_pkey |          1327104
 2017-02-06 20:23:53.452599+01 | 1486409033.4526 | pgbench_tellers_pkey  |          4734976
 2017-02-06 20:23:53.452599+01 | 1486409033.4526 | pgbench_accounts_pkey |       2246197248

 2017-02-06 20:23:54.535097+01 | 1486409034.5351 | pgbench_branches_pkey |          1327104
 2017-02-06 20:23:54.535097+01 | 1486409034.5351 | pgbench_tellers_pkey  |          4734976
 2017-02-06 20:23:54.535097+01 | 1486409034.5351 | pgbench_accounts_pkey |       2246197248

 2017-02-06 20:23:55.605901+01 | 1486409035.6059 | pgbench_branches_pkey |          1327104
 2017-02-06 20:23:55.605901+01 | 1486409035.6059 | pgbench_tellers_pkey  |          4734976
 2017-02-06 20:23:55.605901+01 | 1486409035.6059 | pgbench_accounts_pkey |       2246197248

 2017-02-06 20:23:56.682965+01 | 1486409036.68297 | pgbench_branches_pkey |          1327104
 2017-02-06 20:23:56.682965+01 | 1486409036.68297 | pgbench_tellers_pkey  |          4734976
 2017-02-06 20:23:56.682965+01 | 1486409036.68297 | pgbench_accounts_pkey |       2246197248

 2017-02-06 20:23:57.768099+01 | 1486409037.7681 | pgbench_branches_pkey |          1327104
 2017-02-06 20:23:57.768099+01 | 1486409037.7681 | pgbench_tellers_pkey  |          4734976
 2017-02-06 20:23:57.768099+01 | 1486409037.7681 | pgbench_accounts_pkey |       2246197248

 2017-02-06 20:23:58.844666+01 | 1486409038.84467 | pgbench_branches_pkey |          1327104
 2017-02-06 20:23:58.844666+01 | 1486409038.84467 | pgbench_tellers_pkey  |          4734976
 2017-02-06 20:23:58.844666+01 | 1486409038.84467 | pgbench_accounts_pkey |       2246197248

 2017-02-06 20:23:59.929255+01 | 1486409039.92926 | pgbench_branches_pkey |          1327104
 2017-02-06 20:23:59.929255+01 | 1486409039.92926 | pgbench_tellers_pkey  |          4734976
 2017-02-06 20:23:59.929255+01 | 1486409039.92926 | pgbench_accounts_pkey |       2246197248

 2017-02-06 20:24:01.017298+01 | 1486409041.0173 | pgbench_branches_pkey |          1327104
 2017-02-06 20:24:01.017298+01 | 1486409041.0173 | pgbench_tellers_pkey  |          4734976
 2017-02-06 20:24:01.017298+01 | 1486409041.0173 | pgbench_accounts_pkey |       2246197248

 2017-02-06 20:24:02.095409+01 | 1486409042.09541 | pgbench_branches_pkey |          1327104
 2017-02-06 20:24:02.095409+01 | 1486409042.09541 | pgbench_tellers_pkey  |          4734976
 2017-02-06 20:24:02.095409+01 | 1486409042.09541 | pgbench_accounts_pkey |       2246197248

 2017-02-06 20:24:03.176646+01 | 1486409043.17665 | pgbench_branches_pkey |          1327104
 2017-02-06 20:24:03.176646+01 | 1486409043.17665 | pgbench_tellers_pkey  |          4734976
 2017-02-06 20:24:03.176646+01 | 1486409043.17665 | pgbench_accounts_pkey |       2246197248

 2017-02-06 20:24:04.245426+01 | 1486409044.24543 | pgbench_branches_pkey |          1327104
 2017-02-06 20:24:04.245426+01 | 1486409044.24543 | pgbench_tellers_pkey  |          4734976
 2017-02-06 20:24:04.245426+01 | 1486409044.24543 | pgbench_accounts_pkey |       2246197248

 2017-02-06 20:24:05.322216+01 | 1486409045.32222 | pgbench_branches_pkey |          1327104
 2017-02-06 20:24:05.322216+01 | 1486409045.32222 | pgbench_tellers_pkey  |          4734976
 2017-02-06 20:24:05.322216+01 | 1486409045.32222 | pgbench_accounts_pkey |       2246197248

 2017-02-06 20:24:06.413358+01 | 1486409046.41336 | pgbench_branches_pkey |          1327104
 2017-02-06 20:24:06.413358+01 | 1486409046.41336 | pgbench_tellers_pkey  |          4734976
 2017-02-06 20:24:06.413358+01 | 1486409046.41336 | pgbench_accounts_pkey |       2246197248

 2017-02-06 20:24:07.496266+01 | 1486409047.49627 | pgbench_branches_pkey |          1327104
 2017-02-06 20:24:07.496266+01 | 1486409047.49627 | pgbench_tellers_pkey  |          4734976
 2017-02-06 20:24:07.496266+01 | 1486409047.49627 | pgbench_accounts_pkey |       2246197248

 2017-02-06 20:24:08.589121+01 | 1486409048.58912 | pgbench_branches_pkey |          1327104
 2017-02-06 20:24:08.589121+01 | 1486409048.58912 | pgbench_tellers_pkey  |          4734976
 2017-02-06 20:24:08.589121+01 | 1486409048.58912 | pgbench_accounts_pkey |       2246197248

 2017-02-06 20:24:09.674877+01 | 1486409049.67488 | pgbench_branches_pkey |          1327104
 2017-02-06 20:24:09.674877+01 | 1486409049.67488 | pgbench_tellers_pkey  |          4734976
 2017-02-06 20:24:09.674877+01 | 1486409049.67488 | pgbench_accounts_pkey |       2246197248

 2017-02-06 20:24:10.762893+01 | 1486409050.76289 | pgbench_branches_pkey |          1327104
 2017-02-06 20:24:10.762893+01 | 1486409050.76289 | pgbench_tellers_pkey  |          4734976
 2017-02-06 20:24:10.762893+01 | 1486409050.76289 | pgbench_accounts_pkey |       2246197248

 2017-02-06 20:24:11.857642+01 | 1486409051.85764 | pgbench_branches_pkey |          1327104
 2017-02-06 20:24:11.857642+01 | 1486409051.85764 | pgbench_tellers_pkey  |          4734976
 2017-02-06 20:24:11.857642+01 | 1486409051.85764 | pgbench_accounts_pkey |       2246197248

 2017-02-06 20:24:12.93908+01 | 1486409052.93908 | pgbench_branches_pkey |          1327104
 2017-02-06 20:24:12.93908+01 | 1486409052.93908 | pgbench_tellers_pkey  |          4734976
 2017-02-06 20:24:12.93908+01 | 1486409052.93908 | pgbench_accounts_pkey |       2246197248

 2017-02-06 20:24:14.024078+01 | 1486409054.02408 | pgbench_branches_pkey |          1327104
 2017-02-06 20:24:14.024078+01 | 1486409054.02408 | pgbench_tellers_pkey  |          4734976
 2017-02-06 20:24:14.024078+01 | 1486409054.02408 | pgbench_accounts_pkey |       2246197248

 2017-02-06 20:24:15.115093+01 | 1486409055.11509 | pgbench_branches_pkey |          1327104
 2017-02-06 20:24:15.115093+01 | 1486409055.11509 | pgbench_tellers_pkey  |          4734976
 2017-02-06 20:24:15.115093+01 | 1486409055.11509 | pgbench_accounts_pkey |       2246197248

 2017-02-06 20:24:16.19283+01 | 1486409056.19283 | pgbench_branches_pkey |          1327104
 2017-02-06 20:24:16.19283+01 | 1486409056.19283 | pgbench_tellers_pkey  |          4734976
 2017-02-06 20:24:16.19283+01 | 1486409056.19283 | pgbench_accounts_pkey |       2246197248

 2017-02-06 20:24:17.263134+01 | 1486409057.26313 | pgbench_branches_pkey |          1327104
 2017-02-06 20:24:17.263134+01 | 1486409057.26313 | pgbench_tellers_pkey  |          4734976
 2017-02-06 20:24:17.263134+01 | 1486409057.26313 | pgbench_accounts_pkey |       2246197248

 2017-02-06 20:24:18.342993+01 | 1486409058.34299 | pgbench_branches_pkey |          1327104
 2017-02-06 20:24:18.342993+01 | 1486409058.34299 | pgbench_tellers_pkey  |          4734976
 2017-02-06 20:24:18.342993+01 | 1486409058.34299 | pgbench_accounts_pkey |       2246197248

 2017-02-06 20:24:19.432384+01 | 1486409059.43238 | pgbench_branches_pkey |          1327104
 2017-02-06 20:24:19.432384+01 | 1486409059.43238 | pgbench_tellers_pkey  |          4734976
 2017-02-06 20:24:19.432384+01 | 1486409059.43238 | pgbench_accounts_pkey |       2246197248

 2017-02-06 20:24:20.510918+01 | 1486409060.51092 | pgbench_branches_pkey |          1327104
 2017-02-06 20:24:20.510918+01 | 1486409060.51092 | pgbench_tellers_pkey  |          4734976
 2017-02-06 20:24:20.510918+01 | 1486409060.51092 | pgbench_accounts_pkey |       2246197248

 2017-02-06 20:24:21.597909+01 | 1486409061.59791 | pgbench_branches_pkey |          1327104
 2017-02-06 20:24:21.597909+01 | 1486409061.59791 | pgbench_tellers_pkey  |          4734976
 2017-02-06 20:24:21.597909+01 | 1486409061.59791 | pgbench_accounts_pkey |       2246197248

 2017-02-06 20:24:22.687762+01 | 1486409062.68776 | pgbench_branches_pkey |          1327104
 2017-02-06 20:24:22.687762+01 | 1486409062.68776 | pgbench_tellers_pkey  |          4734976
 2017-02-06 20:24:22.687762+01 | 1486409062.68776 | pgbench_accounts_pkey |       2246197248

 2017-02-06 20:24:23.774304+01 | 1486409063.7743 | pgbench_branches_pkey |          1327104
 2017-02-06 20:24:23.774304+01 | 1486409063.7743 | pgbench_tellers_pkey  |          4734976
 2017-02-06 20:24:23.774304+01 | 1486409063.7743 | pgbench_accounts_pkey |       2246197248

 2017-02-06 20:24:24.860932+01 | 1486409064.86093 | pgbench_branches_pkey |          1327104
 2017-02-06 20:24:24.860932+01 | 1486409064.86093 | pgbench_tellers_pkey  |          4734976
 2017-02-06 20:24:24.860932+01 | 1486409064.86093 | pgbench_accounts_pkey |       2246197248

 2017-02-06 20:24:25.933245+01 | 1486409065.93324 | pgbench_branches_pkey |          1327104
 2017-02-06 20:24:25.933245+01 | 1486409065.93324 | pgbench_tellers_pkey  |          4734976
 2017-02-06 20:24:25.933245+01 | 1486409065.93324 | pgbench_accounts_pkey |       2246197248

 2017-02-06 20:24:27.015709+01 | 1486409067.01571 | pgbench_branches_pkey |          1327104
 2017-02-06 20:24:27.015709+01 | 1486409067.01571 | pgbench_tellers_pkey  |          4734976
 2017-02-06 20:24:27.015709+01 | 1486409067.01571 | pgbench_accounts_pkey |       2246197248

 2017-02-06 20:24:28.098732+01 | 1486409068.09873 | pgbench_branches_pkey |          1327104
 2017-02-06 20:24:28.098732+01 | 1486409068.09873 | pgbench_tellers_pkey  |          4734976
 2017-02-06 20:24:28.098732+01 | 1486409068.09873 | pgbench_accounts_pkey |       2246197248

 2017-02-06 20:24:29.186039+01 | 1486409069.18604 | pgbench_branches_pkey |          1327104
 2017-02-06 20:24:29.186039+01 | 1486409069.18604 | pgbench_tellers_pkey  |          4734976
 2017-02-06 20:24:29.186039+01 | 1486409069.18604 | pgbench_accounts_pkey |       2246197248

 2017-02-06 20:24:30.279989+01 | 1486409070.27999 | pgbench_branches_pkey |          1327104
 2017-02-06 20:24:30.279989+01 | 1486409070.27999 | pgbench_tellers_pkey  |          4734976
 2017-02-06 20:24:30.279989+01 | 1486409070.27999 | pgbench_accounts_pkey |       2246197248

 2017-02-06 20:24:31.368224+01 | 1486409071.36822 | pgbench_branches_pkey |          1327104
 2017-02-06 20:24:31.368224+01 | 1486409071.36822 | pgbench_tellers_pkey  |          4734976
 2017-02-06 20:24:31.368224+01 | 1486409071.36822 | pgbench_accounts_pkey |       2246197248

 2017-02-06 20:24:32.456158+01 | 1486409072.45616 | pgbench_branches_pkey |          1327104
 2017-02-06 20:24:32.456158+01 | 1486409072.45616 | pgbench_tellers_pkey  |          4734976
 2017-02-06 20:24:32.456158+01 | 1486409072.45616 | pgbench_accounts_pkey |       2246197248

 2017-02-06 20:24:33.543624+01 | 1486409073.54362 | pgbench_branches_pkey |          1327104
 2017-02-06 20:24:33.543624+01 | 1486409073.54362 | pgbench_tellers_pkey  |          4734976
 2017-02-06 20:24:33.543624+01 | 1486409073.54362 | pgbench_accounts_pkey |       2246197248

 2017-02-06 20:24:34.633971+01 | 1486409074.63397 | pgbench_branches_pkey |          1327104
 2017-02-06 20:24:34.633971+01 | 1486409074.63397 | pgbench_tellers_pkey  |          4734976
 2017-02-06 20:24:34.633971+01 | 1486409074.63397 | pgbench_accounts_pkey |       2246197248

 2017-02-06 20:24:35.720512+01 | 1486409075.72051 | pgbench_branches_pkey |          1327104
 2017-02-06 20:24:35.720512+01 | 1486409075.72051 | pgbench_tellers_pkey  |          4734976
 2017-02-06 20:24:35.720512+01 | 1486409075.72051 | pgbench_accounts_pkey |       2246197248

 2017-02-06 20:24:36.81447+01 | 1486409076.81447 | pgbench_branches_pkey |          1327104
 2017-02-06 20:24:36.81447+01 | 1486409076.81447 | pgbench_tellers_pkey  |          4734976
 2017-02-06 20:24:36.81447+01 | 1486409076.81447 | pgbench_accounts_pkey |       2246197248

 2017-02-06 20:24:37.903684+01 | 1486409077.90368 | pgbench_branches_pkey |          1327104
 2017-02-06 20:24:37.903684+01 | 1486409077.90368 | pgbench_tellers_pkey  |          4734976
 2017-02-06 20:24:37.903684+01 | 1486409077.90368 | pgbench_accounts_pkey |       2246197248

 2017-02-06 20:24:38.995151+01 | 1486409078.99515 | pgbench_branches_pkey |          1327104
 2017-02-06 20:24:38.995151+01 | 1486409078.99515 | pgbench_tellers_pkey  |          4734976
 2017-02-06 20:24:38.995151+01 | 1486409078.99515 | pgbench_accounts_pkey |       2246197248

 2017-02-06 20:24:40.068617+01 | 1486409080.06862 | pgbench_branches_pkey |          1327104
 2017-02-06 20:24:40.068617+01 | 1486409080.06862 | pgbench_tellers_pkey  |          4734976
 2017-02-06 20:24:40.068617+01 | 1486409080.06862 | pgbench_accounts_pkey |       2246197248

 2017-02-06 20:24:41.153873+01 | 1486409081.15387 | pgbench_branches_pkey |          1327104
 2017-02-06 20:24:41.153873+01 | 1486409081.15387 | pgbench_tellers_pkey  |          4734976
 2017-02-06 20:24:41.153873+01 | 1486409081.15387 | pgbench_accounts_pkey |       2246197248

 2017-02-06 20:24:42.232664+01 | 1486409082.23266 | pgbench_branches_pkey |          1327104
 2017-02-06 20:24:42.232664+01 | 1486409082.23266 | pgbench_tellers_pkey  |          4734976
 2017-02-06 20:24:42.232664+01 | 1486409082.23266 | pgbench_accounts_pkey |       2246197248

 2017-02-06 20:24:43.323974+01 | 1486409083.32397 | pgbench_branches_pkey |          1327104
 2017-02-06 20:24:43.323974+01 | 1486409083.32397 | pgbench_tellers_pkey  |          4734976
 2017-02-06 20:24:43.323974+01 | 1486409083.32397 | pgbench_accounts_pkey |       2246197248

 2017-02-06 20:24:44.416091+01 | 1486409084.41609 | pgbench_branches_pkey |          1327104
 2017-02-06 20:24:44.416091+01 | 1486409084.41609 | pgbench_tellers_pkey  |          4734976
 2017-02-06 20:24:44.416091+01 | 1486409084.41609 | pgbench_accounts_pkey |       2246197248

 2017-02-06 20:24:45.49423+01 | 1486409085.49423 | pgbench_branches_pkey |          1327104
 2017-02-06 20:24:45.49423+01 | 1486409085.49423 | pgbench_tellers_pkey  |          4734976
 2017-02-06 20:24:45.49423+01 | 1486409085.49423 | pgbench_accounts_pkey |       2246197248

 2017-02-06 20:24:46.567297+01 | 1486409086.5673 | pgbench_branches_pkey |          1327104
 2017-02-06 20:24:46.567297+01 | 1486409086.5673 | pgbench_tellers_pkey  |          4734976
 2017-02-06 20:24:46.567297+01 | 1486409086.5673 | pgbench_accounts_pkey |       2246197248

 2017-02-06 20:24:47.661431+01 | 1486409087.66143 | pgbench_branches_pkey |          1327104
 2017-02-06 20:24:47.661431+01 | 1486409087.66143 | pgbench_tellers_pkey  |          4734976
 2017-02-06 20:24:47.661431+01 | 1486409087.66143 | pgbench_accounts_pkey |       2246197248

 2017-02-06 20:24:48.742969+01 | 1486409088.74297 | pgbench_branches_pkey |          1327104
 2017-02-06 20:24:48.742969+01 | 1486409088.74297 | pgbench_tellers_pkey  |          4734976
 2017-02-06 20:24:48.742969+01 | 1486409088.74297 | pgbench_accounts_pkey |       2246197248

 2017-02-06 20:24:49.832275+01 | 1486409089.83227 | pgbench_branches_pkey |          1327104
 2017-02-06 20:24:49.832275+01 | 1486409089.83227 | pgbench_tellers_pkey  |          4734976
 2017-02-06 20:24:49.832275+01 | 1486409089.83227 | pgbench_accounts_pkey |       2246197248

 2017-02-06 20:24:50.912062+01 | 1486409090.91206 | pgbench_branches_pkey |          1327104
 2017-02-06 20:24:50.912062+01 | 1486409090.91206 | pgbench_tellers_pkey  |          4734976
 2017-02-06 20:24:50.912062+01 | 1486409090.91206 | pgbench_accounts_pkey |       2246197248

 2017-02-06 20:24:52.00226+01 | 1486409092.00226 | pgbench_branches_pkey |          1327104
 2017-02-06 20:24:52.00226+01 | 1486409092.00226 | pgbench_tellers_pkey  |          4734976
 2017-02-06 20:24:52.00226+01 | 1486409092.00226 | pgbench_accounts_pkey |       2246197248

 2017-02-06 20:24:53.091669+01 | 1486409093.09167 | pgbench_branches_pkey |          1327104
 2017-02-06 20:24:53.091669+01 | 1486409093.09167 | pgbench_tellers_pkey  |          4734976
 2017-02-06 20:24:53.091669+01 | 1486409093.09167 | pgbench_accounts_pkey |       2246197248

 2017-02-06 20:24:54.17981+01 | 1486409094.17981 | pgbench_branches_pkey |          1327104
 2017-02-06 20:24:54.17981+01 | 1486409094.17981 | pgbench_tellers_pkey  |          4734976
 2017-02-06 20:24:54.17981+01 | 1486409094.17981 | pgbench_accounts_pkey |       2246197248

 2017-02-06 20:24:55.26776+01 | 1486409095.26776 | pgbench_branches_pkey |          1327104
 2017-02-06 20:24:55.26776+01 | 1486409095.26776 | pgbench_tellers_pkey  |          4734976
 2017-02-06 20:24:55.26776+01 | 1486409095.26776 | pgbench_accounts_pkey |       2246197248

 2017-02-06 20:24:56.3489+01 | 1486409096.3489 | pgbench_branches_pkey |          1327104
 2017-02-06 20:24:56.3489+01 | 1486409096.3489 | pgbench_tellers_pkey  |          4734976
 2017-02-06 20:24:56.3489+01 | 1486409096.3489 | pgbench_accounts_pkey |       2246197248

 2017-02-06 20:24:57.420134+01 | 1486409097.42013 | pgbench_branches_pkey |          1327104
 2017-02-06 20:24:57.420134+01 | 1486409097.42013 | pgbench_tellers_pkey  |          4734976
 2017-02-06 20:24:57.420134+01 | 1486409097.42013 | pgbench_accounts_pkey |       2246197248

 2017-02-06 20:24:58.509194+01 | 1486409098.50919 | pgbench_branches_pkey |          1327104
 2017-02-06 20:24:58.509194+01 | 1486409098.50919 | pgbench_tellers_pkey  |          4734976
 2017-02-06 20:24:58.509194+01 | 1486409098.50919 | pgbench_accounts_pkey |       2246197248

 2017-02-06 20:24:59.602598+01 | 1486409099.6026 | pgbench_branches_pkey |          1327104
 2017-02-06 20:24:59.602598+01 | 1486409099.6026 | pgbench_tellers_pkey  |          4734976
 2017-02-06 20:24:59.602598+01 | 1486409099.6026 | pgbench_accounts_pkey |       2246197248

 2017-02-06 20:25:00.69752+01 | 1486409100.69752 | pgbench_branches_pkey |          1327104
 2017-02-06 20:25:00.69752+01 | 1486409100.69752 | pgbench_tellers_pkey  |          4734976
 2017-02-06 20:25:00.69752+01 | 1486409100.69752 | pgbench_accounts_pkey |       2246197248

 2017-02-06 20:25:01.786624+01 | 1486409101.78662 | pgbench_branches_pkey |          1327104
 2017-02-06 20:25:01.786624+01 | 1486409101.78662 | pgbench_tellers_pkey  |          4734976
 2017-02-06 20:25:01.786624+01 | 1486409101.78662 | pgbench_accounts_pkey |       2246197248

 2017-02-06 20:25:02.876186+01 | 1486409102.87619 | pgbench_branches_pkey |          1327104
 2017-02-06 20:25:02.876186+01 | 1486409102.87619 | pgbench_tellers_pkey  |          4734976
 2017-02-06 20:25:02.876186+01 | 1486409102.87619 | pgbench_accounts_pkey |       2246197248

 2017-02-06 20:25:03.958234+01 | 1486409103.95823 | pgbench_branches_pkey |          1327104
 2017-02-06 20:25:03.958234+01 | 1486409103.95823 | pgbench_tellers_pkey  |          4734976
 2017-02-06 20:25:03.958234+01 | 1486409103.95823 | pgbench_accounts_pkey |       2246197248

 2017-02-06 20:25:05.050098+01 | 1486409105.0501 | pgbench_branches_pkey |          1327104
 2017-02-06 20:25:05.050098+01 | 1486409105.0501 | pgbench_tellers_pkey  |          4734976
 2017-02-06 20:25:05.050098+01 | 1486409105.0501 | pgbench_accounts_pkey |       2246197248

 2017-02-06 20:25:06.130573+01 | 1486409106.13057 | pgbench_branches_pkey |          1327104
 2017-02-06 20:25:06.130573+01 | 1486409106.13057 | pgbench_tellers_pkey  |          4734976
 2017-02-06 20:25:06.130573+01 | 1486409106.13057 | pgbench_accounts_pkey |       2246197248

 2017-02-06 20:25:07.214887+01 | 1486409107.21489 | pgbench_branches_pkey |          1327104
 2017-02-06 20:25:07.214887+01 | 1486409107.21489 | pgbench_tellers_pkey  |          4734976
 2017-02-06 20:25:07.214887+01 | 1486409107.21489 | pgbench_accounts_pkey |       2246197248

 2017-02-06 20:25:08.303885+01 | 1486409108.30388 | pgbench_branches_pkey |          1327104
 2017-02-06 20:25:08.303885+01 | 1486409108.30388 | pgbench_tellers_pkey  |          4734976
 2017-02-06 20:25:08.303885+01 | 1486409108.30388 | pgbench_accounts_pkey |       2246197248

 2017-02-06 20:25:09.390454+01 | 1486409109.39045 | pgbench_branches_pkey |          1327104
 2017-02-06 20:25:09.390454+01 | 1486409109.39045 | pgbench_tellers_pkey  |          4734976
 2017-02-06 20:25:09.390454+01 | 1486409109.39045 | pgbench_accounts_pkey |       2246197248

 2017-02-06 20:25:10.482581+01 | 1486409110.48258 | pgbench_branches_pkey |          1327104
 2017-02-06 20:25:10.482581+01 | 1486409110.48258 | pgbench_tellers_pkey  |          4734976
 2017-02-06 20:25:10.482581+01 | 1486409110.48258 | pgbench_accounts_pkey |       2246197248

 2017-02-06 20:25:11.577778+01 | 1486409111.57778 | pgbench_branches_pkey |          1327104
 2017-02-06 20:25:11.577778+01 | 1486409111.57778 | pgbench_tellers_pkey  |          4734976
 2017-02-06 20:25:11.577778+01 | 1486409111.57778 | pgbench_accounts_pkey |       2246197248

 2017-02-06 20:25:12.666969+01 | 1486409112.66697 | pgbench_branches_pkey |          1327104
 2017-02-06 20:25:12.666969+01 | 1486409112.66697 | pgbench_tellers_pkey  |          4734976
 2017-02-06 20:25:12.666969+01 | 1486409112.66697 | pgbench_accounts_pkey |       2246197248

 2017-02-06 20:25:13.746+01 | 1486409113.746 | pgbench_branches_pkey |          1327104
 2017-02-06 20:25:13.746+01 | 1486409113.746 | pgbench_tellers_pkey  |          4734976
 2017-02-06 20:25:13.746+01 | 1486409113.746 | pgbench_accounts_pkey |       2246197248

 2017-02-06 20:25:14.816857+01 | 1486409114.81686 | pgbench_branches_pkey |          1327104
 2017-02-06 20:25:14.816857+01 | 1486409114.81686 | pgbench_tellers_pkey  |          4734976
 2017-02-06 20:25:14.816857+01 | 1486409114.81686 | pgbench_accounts_pkey |       2246197248

 2017-02-06 20:25:15.897417+01 | 1486409115.89742 | pgbench_branches_pkey |          1327104
 2017-02-06 20:25:15.897417+01 | 1486409115.89742 | pgbench_tellers_pkey  |          4734976
 2017-02-06 20:25:15.897417+01 | 1486409115.89742 | pgbench_accounts_pkey |       2246197248

 2017-02-06 20:25:16.988914+01 | 1486409116.98891 | pgbench_branches_pkey |          1327104
 2017-02-06 20:25:16.988914+01 | 1486409116.98891 | pgbench_tellers_pkey  |          4734976
 2017-02-06 20:25:16.988914+01 | 1486409116.98891 | pgbench_accounts_pkey |       2246197248

 2017-02-06 20:25:18.070292+01 | 1486409118.07029 | pgbench_branches_pkey |          1327104
 2017-02-06 20:25:18.070292+01 | 1486409118.07029 | pgbench_tellers_pkey  |          4734976
 2017-02-06 20:25:18.070292+01 | 1486409118.07029 | pgbench_accounts_pkey |       2246197248

 2017-02-06 20:25:19.158151+01 | 1486409119.15815 | pgbench_branches_pkey |          1327104
 2017-02-06 20:25:19.158151+01 | 1486409119.15815 | pgbench_tellers_pkey  |          4734976
 2017-02-06 20:25:19.158151+01 | 1486409119.15815 | pgbench_accounts_pkey |       2246197248

 2017-02-06 20:25:20.237904+01 | 1486409120.2379 | pgbench_branches_pkey |          1327104
 2017-02-06 20:25:20.237904+01 | 1486409120.2379 | pgbench_tellers_pkey  |          4734976
 2017-02-06 20:25:20.237904+01 | 1486409120.2379 | pgbench_accounts_pkey |       2246197248

 2017-02-06 20:25:21.322579+01 | 1486409121.32258 | pgbench_branches_pkey |          1327104
 2017-02-06 20:25:21.322579+01 | 1486409121.32258 | pgbench_tellers_pkey  |          4734976
 2017-02-06 20:25:21.322579+01 | 1486409121.32258 | pgbench_accounts_pkey |       2246197248

 2017-02-06 20:25:22.408756+01 | 1486409122.40876 | pgbench_branches_pkey |          1327104
 2017-02-06 20:25:22.408756+01 | 1486409122.40876 | pgbench_tellers_pkey  |          4734976
 2017-02-06 20:25:22.408756+01 | 1486409122.40876 | pgbench_accounts_pkey |       2246197248

 2017-02-06 20:25:23.475943+01 | 1486409123.47594 | pgbench_branches_pkey |          1327104
 2017-02-06 20:25:23.475943+01 | 1486409123.47594 | pgbench_tellers_pkey  |          4734976
 2017-02-06 20:25:23.475943+01 | 1486409123.47594 | pgbench_accounts_pkey |       2246197248

 2017-02-06 20:25:24.559909+01 | 1486409124.55991 | pgbench_branches_pkey |          1327104
 2017-02-06 20:25:24.559909+01 | 1486409124.55991 | pgbench_tellers_pkey  |          4734976
 2017-02-06 20:25:24.559909+01 | 1486409124.55991 | pgbench_accounts_pkey |       2246197248

 2017-02-06 20:25:25.630667+01 | 1486409125.63067 | pgbench_branches_pkey |          1327104
 2017-02-06 20:25:25.630667+01 | 1486409125.63067 | pgbench_tellers_pkey  |          4734976
 2017-02-06 20:25:25.630667+01 | 1486409125.63067 | pgbench_accounts_pkey |       2246197248

 2017-02-06 20:25:26.708595+01 | 1486409126.7086 | pgbench_branches_pkey |          1327104
 2017-02-06 20:25:26.708595+01 | 1486409126.7086 | pgbench_tellers_pkey  |          4734976
 2017-02-06 20:25:26.708595+01 | 1486409126.7086 | pgbench_accounts_pkey |       2246197248

 2017-02-06 20:25:27.794876+01 | 1486409127.79488 | pgbench_branches_pkey |          1327104
 2017-02-06 20:25:27.794876+01 | 1486409127.79488 | pgbench_tellers_pkey  |          4734976
 2017-02-06 20:25:27.794876+01 | 1486409127.79488 | pgbench_accounts_pkey |       2246197248

 2017-02-06 20:25:28.884581+01 | 1486409128.88458 | pgbench_branches_pkey |          1327104
 2017-02-06 20:25:28.884581+01 | 1486409128.88458 | pgbench_tellers_pkey  |          4734976
 2017-02-06 20:25:28.884581+01 | 1486409128.88458 | pgbench_accounts_pkey |       2246197248

 2017-02-06 20:25:29.961707+01 | 1486409129.96171 | pgbench_branches_pkey |          1327104
 2017-02-06 20:25:29.961707+01 | 1486409129.96171 | pgbench_tellers_pkey  |          4734976
 2017-02-06 20:25:29.961707+01 | 1486409129.96171 | pgbench_accounts_pkey |       2246197248

 2017-02-06 20:25:31.046285+01 | 1486409131.04628 | pgbench_branches_pkey |          1327104
 2017-02-06 20:25:31.046285+01 | 1486409131.04628 | pgbench_tellers_pkey  |          4734976
 2017-02-06 20:25:31.046285+01 | 1486409131.04628 | pgbench_accounts_pkey |       2246197248

 2017-02-06 20:25:32.122796+01 | 1486409132.1228 | pgbench_branches_pkey |          1327104
 2017-02-06 20:25:32.122796+01 | 1486409132.1228 | pgbench_tellers_pkey  |          4734976
 2017-02-06 20:25:32.122796+01 | 1486409132.1228 | pgbench_accounts_pkey |       2246197248

 2017-02-06 20:25:33.202861+01 | 1486409133.20286 | pgbench_branches_pkey |          1327104
 2017-02-06 20:25:33.202861+01 | 1486409133.20286 | pgbench_tellers_pkey  |          4734976
 2017-02-06 20:25:33.202861+01 | 1486409133.20286 | pgbench_accounts_pkey |       2246197248

 2017-02-06 20:25:34.268066+01 | 1486409134.26807 | pgbench_branches_pkey |          1327104
 2017-02-06 20:25:34.268066+01 | 1486409134.26807 | pgbench_tellers_pkey  |          4734976
 2017-02-06 20:25:34.268066+01 | 1486409134.26807 | pgbench_accounts_pkey |       2246197248

 2017-02-06 20:25:35.351223+01 | 1486409135.35122 | pgbench_branches_pkey |          1327104
 2017-02-06 20:25:35.351223+01 | 1486409135.35122 | pgbench_tellers_pkey  |          4734976
 2017-02-06 20:25:35.351223+01 | 1486409135.35122 | pgbench_accounts_pkey |       2246197248

 2017-02-06 20:25:36.443945+01 | 1486409136.44394 | pgbench_branches_pkey |          1327104
 2017-02-06 20:25:36.443945+01 | 1486409136.44394 | pgbench_tellers_pkey  |          4734976
 2017-02-06 20:25:36.443945+01 | 1486409136.44394 | pgbench_accounts_pkey |       2246197248

 2017-02-06 20:25:37.533767+01 | 1486409137.53377 | pgbench_branches_pkey |          1327104
 2017-02-06 20:25:37.533767+01 | 1486409137.53377 | pgbench_tellers_pkey  |          4734976
 2017-02-06 20:25:37.533767+01 | 1486409137.53377 | pgbench_accounts_pkey |       2246197248

 2017-02-06 20:25:38.625583+01 | 1486409138.62558 | pgbench_branches_pkey |          1327104
 2017-02-06 20:25:38.625583+01 | 1486409138.62558 | pgbench_tellers_pkey  |          4734976
 2017-02-06 20:25:38.625583+01 | 1486409138.62558 | pgbench_accounts_pkey |       2246197248

 2017-02-06 20:25:39.713953+01 | 1486409139.71395 | pgbench_branches_pkey |          1327104
 2017-02-06 20:25:39.713953+01 | 1486409139.71395 | pgbench_tellers_pkey  |          4734976
 2017-02-06 20:25:39.713953+01 | 1486409139.71395 | pgbench_accounts_pkey |       2246197248

 2017-02-06 20:25:40.789861+01 | 1486409140.78986 | pgbench_branches_pkey |          1327104
 2017-02-06 20:25:40.789861+01 | 1486409140.78986 | pgbench_tellers_pkey  |          4734976
 2017-02-06 20:25:40.789861+01 | 1486409140.78986 | pgbench_accounts_pkey |       2246197248

 2017-02-06 20:25:41.87224+01 | 1486409141.87224 | pgbench_branches_pkey |          1327104
 2017-02-06 20:25:41.87224+01 | 1486409141.87224 | pgbench_tellers_pkey  |          4734976
 2017-02-06 20:25:41.87224+01 | 1486409141.87224 | pgbench_accounts_pkey |       2246197248

 2017-02-06 20:25:42.955658+01 | 1486409142.95566 | pgbench_branches_pkey |          1327104
 2017-02-06 20:25:42.955658+01 | 1486409142.95566 | pgbench_tellers_pkey  |          4734976
 2017-02-06 20:25:42.955658+01 | 1486409142.95566 | pgbench_accounts_pkey |       2246197248

 2017-02-06 20:25:44.029164+01 | 1486409144.02916 | pgbench_branches_pkey |          1327104
 2017-02-06 20:25:44.029164+01 | 1486409144.02916 | pgbench_tellers_pkey  |          4734976
 2017-02-06 20:25:44.029164+01 | 1486409144.02916 | pgbench_accounts_pkey |       2246197248

 2017-02-06 20:25:45.088831+01 | 1486409145.08883 | pgbench_branches_pkey |          1327104
 2017-02-06 20:25:45.088831+01 | 1486409145.08883 | pgbench_tellers_pkey  |          4734976
 2017-02-06 20:25:45.088831+01 | 1486409145.08883 | pgbench_accounts_pkey |       2246197248

 2017-02-06 20:25:46.162251+01 | 1486409146.16225 | pgbench_branches_pkey |          1327104
 2017-02-06 20:25:46.162251+01 | 1486409146.16225 | pgbench_tellers_pkey  |          4734976
 2017-02-06 20:25:46.162251+01 | 1486409146.16225 | pgbench_accounts_pkey |       2246197248

 2017-02-06 20:25:47.254793+01 | 1486409147.25479 | pgbench_branches_pkey |          1327104
 2017-02-06 20:25:47.254793+01 | 1486409147.25479 | pgbench_tellers_pkey  |          4734976
 2017-02-06 20:25:47.254793+01 | 1486409147.25479 | pgbench_accounts_pkey |       2246197248

 2017-02-06 20:25:48.336165+01 | 1486409148.33616 | pgbench_branches_pkey |          1327104
 2017-02-06 20:25:48.336165+01 | 1486409148.33616 | pgbench_tellers_pkey  |          4734976
 2017-02-06 20:25:48.336165+01 | 1486409148.33616 | pgbench_accounts_pkey |       2246197248

 2017-02-06 20:25:49.419326+01 | 1486409149.41933 | pgbench_branches_pkey |          1327104
 2017-02-06 20:25:49.419326+01 | 1486409149.41933 | pgbench_tellers_pkey  |          4734976
 2017-02-06 20:25:49.419326+01 | 1486409149.41933 | pgbench_accounts_pkey |       2246197248

 2017-02-06 20:25:50.491165+01 | 1486409150.49116 | pgbench_branches_pkey |          1327104
 2017-02-06 20:25:50.491165+01 | 1486409150.49116 | pgbench_tellers_pkey  |          4734976
 2017-02-06 20:25:50.491165+01 | 1486409150.49116 | pgbench_accounts_pkey |       2246197248

 2017-02-06 20:25:51.559837+01 | 1486409151.55984 | pgbench_branches_pkey |          1327104
 2017-02-06 20:25:51.559837+01 | 1486409151.55984 | pgbench_tellers_pkey  |          4734976
 2017-02-06 20:25:51.559837+01 | 1486409151.55984 | pgbench_accounts_pkey |       2246197248

 2017-02-06 20:25:52.63848+01 | 1486409152.63848 | pgbench_branches_pkey |          1327104
 2017-02-06 20:25:52.63848+01 | 1486409152.63848 | pgbench_tellers_pkey  |          4734976
 2017-02-06 20:25:52.63848+01 | 1486409152.63848 | pgbench_accounts_pkey |       2246197248

 2017-02-06 20:25:53.730265+01 | 1486409153.73026 | pgbench_branches_pkey |          1327104
 2017-02-06 20:25:53.730265+01 | 1486409153.73026 | pgbench_tellers_pkey  |          4734976
 2017-02-06 20:25:53.730265+01 | 1486409153.73026 | pgbench_accounts_pkey |       2246197248

 2017-02-06 20:25:54.824082+01 | 1486409154.82408 | pgbench_branches_pkey |          1327104
 2017-02-06 20:25:54.824082+01 | 1486409154.82408 | pgbench_tellers_pkey  |          4734976
 2017-02-06 20:25:54.824082+01 | 1486409154.82408 | pgbench_accounts_pkey |       2246197248

 2017-02-06 20:25:55.907215+01 | 1486409155.90722 | pgbench_branches_pkey |          1327104
 2017-02-06 20:25:55.907215+01 | 1486409155.90722 | pgbench_tellers_pkey  |          4734976
 2017-02-06 20:25:55.907215+01 | 1486409155.90722 | pgbench_accounts_pkey |       2246197248

 2017-02-06 20:25:56.994764+01 | 1486409156.99476 | pgbench_branches_pkey |          1327104
 2017-02-06 20:25:56.994764+01 | 1486409156.99476 | pgbench_tellers_pkey  |          4734976
 2017-02-06 20:25:56.994764+01 | 1486409156.99476 | pgbench_accounts_pkey |       2246197248

 2017-02-06 20:25:58.086085+01 | 1486409158.08609 | pgbench_branches_pkey |          1327104
 2017-02-06 20:25:58.086085+01 | 1486409158.08609 | pgbench_tellers_pkey  |          4734976
 2017-02-06 20:25:58.086085+01 | 1486409158.08609 | pgbench_accounts_pkey |       2246197248

 2017-02-06 20:25:59.175548+01 | 1486409159.17555 | pgbench_branches_pkey |          1327104
 2017-02-06 20:25:59.175548+01 | 1486409159.17555 | pgbench_tellers_pkey  |          4734976
 2017-02-06 20:25:59.175548+01 | 1486409159.17555 | pgbench_accounts_pkey |       2246197248

 2017-02-06 20:26:00.264886+01 | 1486409160.26489 | pgbench_branches_pkey |          1327104
 2017-02-06 20:26:00.264886+01 | 1486409160.26489 | pgbench_tellers_pkey  |          4734976
 2017-02-06 20:26:00.264886+01 | 1486409160.26489 | pgbench_accounts_pkey |       2246197248

 2017-02-06 20:26:01.342477+01 | 1486409161.34248 | pgbench_branches_pkey |          1327104
 2017-02-06 20:26:01.342477+01 | 1486409161.34248 | pgbench_tellers_pkey  |          4734976
 2017-02-06 20:26:01.342477+01 | 1486409161.34248 | pgbench_accounts_pkey |       2246197248

 2017-02-06 20:26:02.433155+01 | 1486409162.43316 | pgbench_branches_pkey |          1327104
 2017-02-06 20:26:02.433155+01 | 1486409162.43316 | pgbench_tellers_pkey  |          4734976
 2017-02-06 20:26:02.433155+01 | 1486409162.43316 | pgbench_accounts_pkey |       2246197248

 2017-02-06 20:26:03.526825+01 | 1486409163.52682 | pgbench_branches_pkey |          1327104
 2017-02-06 20:26:03.526825+01 | 1486409163.52682 | pgbench_tellers_pkey  |          4734976
 2017-02-06 20:26:03.526825+01 | 1486409163.52682 | pgbench_accounts_pkey |       2246197248

 2017-02-06 20:26:04.610816+01 | 1486409164.61082 | pgbench_branches_pkey |          1327104
 2017-02-06 20:26:04.610816+01 | 1486409164.61082 | pgbench_tellers_pkey  |          4734976
 2017-02-06 20:26:04.610816+01 | 1486409164.61082 | pgbench_accounts_pkey |       2246197248

 2017-02-06 20:26:05.696515+01 | 1486409165.69652 | pgbench_branches_pkey |          1327104
 2017-02-06 20:26:05.696515+01 | 1486409165.69652 | pgbench_tellers_pkey  |          4734976
 2017-02-06 20:26:05.696515+01 | 1486409165.69652 | pgbench_accounts_pkey |       2246197248

 2017-02-06 20:26:06.775382+01 | 1486409166.77538 | pgbench_branches_pkey |          1327104
 2017-02-06 20:26:06.775382+01 | 1486409166.77538 | pgbench_tellers_pkey  |          4734976
 2017-02-06 20:26:06.775382+01 | 1486409166.77538 | pgbench_accounts_pkey |       2246197248

 2017-02-06 20:26:07.850126+01 | 1486409167.85013 | pgbench_branches_pkey |          1327104
 2017-02-06 20:26:07.850126+01 | 1486409167.85013 | pgbench_tellers_pkey  |          4734976
 2017-02-06 20:26:07.850126+01 | 1486409167.85013 | pgbench_accounts_pkey |       2246197248

 2017-02-06 20:26:08.924285+01 | 1486409168.92428 | pgbench_branches_pkey |          1327104
 2017-02-06 20:26:08.924285+01 | 1486409168.92428 | pgbench_tellers_pkey  |          4734976
 2017-02-06 20:26:08.924285+01 | 1486409168.92428 | pgbench_accounts_pkey |       2246197248

 2017-02-06 20:26:10.015506+01 | 1486409170.01551 | pgbench_branches_pkey |          1327104
 2017-02-06 20:26:10.015506+01 | 1486409170.01551 | pgbench_tellers_pkey  |          4734976
 2017-02-06 20:26:10.015506+01 | 1486409170.01551 | pgbench_accounts_pkey |       2246197248

 2017-02-06 20:26:11.111029+01 | 1486409171.11103 | pgbench_branches_pkey |          1327104
 2017-02-06 20:26:11.111029+01 | 1486409171.11103 | pgbench_tellers_pkey  |          4734976
 2017-02-06 20:26:11.111029+01 | 1486409171.11103 | pgbench_accounts_pkey |       2246197248

 2017-02-06 20:26:12.193683+01 | 1486409172.19368 | pgbench_branches_pkey |          1327104
 2017-02-06 20:26:12.193683+01 | 1486409172.19368 | pgbench_tellers_pkey  |          4734976
 2017-02-06 20:26:12.193683+01 | 1486409172.19368 | pgbench_accounts_pkey |       2246197248

