 2017-02-03 18:07:49.124342+01 | 1486141669.12434 | pgbench_branches_pkey |            16384
 2017-02-03 18:07:49.124342+01 | 1486141669.12434 | pgbench_tellers_pkey  |            40960
 2017-02-03 18:07:49.124342+01 | 1486141669.12434 | pgbench_accounts_pkey |        224641024

 2017-02-03 18:07:50.204797+01 | 1486141670.2048 | pgbench_branches_pkey |            16384
 2017-02-03 18:07:50.204797+01 | 1486141670.2048 | pgbench_tellers_pkey  |            40960
 2017-02-03 18:07:50.204797+01 | 1486141670.2048 | pgbench_accounts_pkey |        224641024

 2017-02-03 18:07:51.288294+01 | 1486141671.28829 | pgbench_branches_pkey |            16384
 2017-02-03 18:07:51.288294+01 | 1486141671.28829 | pgbench_tellers_pkey  |            40960
 2017-02-03 18:07:51.288294+01 | 1486141671.28829 | pgbench_accounts_pkey |        224641024

 2017-02-03 18:07:52.370419+01 | 1486141672.37042 | pgbench_branches_pkey |            16384
 2017-02-03 18:07:52.370419+01 | 1486141672.37042 | pgbench_tellers_pkey  |            40960
 2017-02-03 18:07:52.370419+01 | 1486141672.37042 | pgbench_accounts_pkey |        224641024

 2017-02-03 18:07:53.47315+01 | 1486141673.47315 | pgbench_branches_pkey |            16384
 2017-02-03 18:07:53.47315+01 | 1486141673.47315 | pgbench_tellers_pkey  |            40960
 2017-02-03 18:07:53.47315+01 | 1486141673.47315 | pgbench_accounts_pkey |        224641024

 2017-02-03 18:07:54.567994+01 | 1486141674.56799 | pgbench_branches_pkey |            16384
 2017-02-03 18:07:54.567994+01 | 1486141674.56799 | pgbench_tellers_pkey  |            40960
 2017-02-03 18:07:54.567994+01 | 1486141674.56799 | pgbench_accounts_pkey |        224641024

 2017-02-03 18:07:55.654745+01 | 1486141675.65475 | pgbench_branches_pkey |            16384
 2017-02-03 18:07:55.654745+01 | 1486141675.65475 | pgbench_tellers_pkey  |            40960
 2017-02-03 18:07:55.654745+01 | 1486141675.65475 | pgbench_accounts_pkey |        224641024

 2017-02-03 18:07:56.756364+01 | 1486141676.75636 | pgbench_branches_pkey |            16384
 2017-02-03 18:07:56.756364+01 | 1486141676.75636 | pgbench_tellers_pkey  |            40960
 2017-02-03 18:07:56.756364+01 | 1486141676.75636 | pgbench_accounts_pkey |        224641024

 2017-02-03 18:07:57.848163+01 | 1486141677.84816 | pgbench_branches_pkey |            16384
 2017-02-03 18:07:57.848163+01 | 1486141677.84816 | pgbench_tellers_pkey  |            40960
 2017-02-03 18:07:57.848163+01 | 1486141677.84816 | pgbench_accounts_pkey |        224641024

 2017-02-03 18:07:58.936968+01 | 1486141678.93697 | pgbench_branches_pkey |            16384
 2017-02-03 18:07:58.936968+01 | 1486141678.93697 | pgbench_tellers_pkey  |            40960
 2017-02-03 18:07:58.936968+01 | 1486141678.93697 | pgbench_accounts_pkey |        224641024

 2017-02-03 18:08:00.035784+01 | 1486141680.03578 | pgbench_branches_pkey |            16384
 2017-02-03 18:08:00.035784+01 | 1486141680.03578 | pgbench_tellers_pkey  |            40960
 2017-02-03 18:08:00.035784+01 | 1486141680.03578 | pgbench_accounts_pkey |        224641024

 2017-02-03 18:08:01.138339+01 | 1486141681.13834 | pgbench_branches_pkey |            16384
 2017-02-03 18:08:01.138339+01 | 1486141681.13834 | pgbench_tellers_pkey  |            40960
 2017-02-03 18:08:01.138339+01 | 1486141681.13834 | pgbench_accounts_pkey |        224641024

 2017-02-03 18:08:02.229661+01 | 1486141682.22966 | pgbench_branches_pkey |            16384
 2017-02-03 18:08:02.229661+01 | 1486141682.22966 | pgbench_tellers_pkey  |            40960
 2017-02-03 18:08:02.229661+01 | 1486141682.22966 | pgbench_accounts_pkey |        224641024

 2017-02-03 18:08:03.310154+01 | 1486141683.31015 | pgbench_branches_pkey |            16384
 2017-02-03 18:08:03.310154+01 | 1486141683.31015 | pgbench_tellers_pkey  |            40960
 2017-02-03 18:08:03.310154+01 | 1486141683.31015 | pgbench_accounts_pkey |        224641024

 2017-02-03 18:08:04.397182+01 | 1486141684.39718 | pgbench_branches_pkey |            16384
 2017-02-03 18:08:04.397182+01 | 1486141684.39718 | pgbench_tellers_pkey  |            40960
 2017-02-03 18:08:04.397182+01 | 1486141684.39718 | pgbench_accounts_pkey |        224641024

 2017-02-03 18:08:05.487786+01 | 1486141685.48779 | pgbench_branches_pkey |            16384
 2017-02-03 18:08:05.487786+01 | 1486141685.48779 | pgbench_tellers_pkey  |            40960
 2017-02-03 18:08:05.487786+01 | 1486141685.48779 | pgbench_accounts_pkey |        224641024

 2017-02-03 18:08:06.589593+01 | 1486141686.58959 | pgbench_branches_pkey |            16384
 2017-02-03 18:08:06.589593+01 | 1486141686.58959 | pgbench_tellers_pkey  |            40960
 2017-02-03 18:08:06.589593+01 | 1486141686.58959 | pgbench_accounts_pkey |        224641024

 2017-02-03 18:08:07.672346+01 | 1486141687.67235 | pgbench_branches_pkey |            16384
 2017-02-03 18:08:07.672346+01 | 1486141687.67235 | pgbench_tellers_pkey  |            40960
 2017-02-03 18:08:07.672346+01 | 1486141687.67235 | pgbench_accounts_pkey |        224641024

 2017-02-03 18:08:08.771835+01 | 1486141688.77184 | pgbench_branches_pkey |            16384
 2017-02-03 18:08:08.771835+01 | 1486141688.77184 | pgbench_tellers_pkey  |            40960
 2017-02-03 18:08:08.771835+01 | 1486141688.77184 | pgbench_accounts_pkey |        224641024

 2017-02-03 18:08:09.865284+01 | 1486141689.86528 | pgbench_branches_pkey |            16384
 2017-02-03 18:08:09.865284+01 | 1486141689.86528 | pgbench_tellers_pkey  |            40960
 2017-02-03 18:08:09.865284+01 | 1486141689.86528 | pgbench_accounts_pkey |        224641024

 2017-02-03 18:08:10.966022+01 | 1486141690.96602 | pgbench_branches_pkey |            16384
 2017-02-03 18:08:10.966022+01 | 1486141690.96602 | pgbench_tellers_pkey  |            40960
 2017-02-03 18:08:10.966022+01 | 1486141690.96602 | pgbench_accounts_pkey |        224641024

 2017-02-03 18:08:12.059603+01 | 1486141692.0596 | pgbench_branches_pkey |            16384
 2017-02-03 18:08:12.059603+01 | 1486141692.0596 | pgbench_tellers_pkey  |            40960
 2017-02-03 18:08:12.059603+01 | 1486141692.0596 | pgbench_accounts_pkey |        224641024

 2017-02-03 18:08:13.158215+01 | 1486141693.15822 | pgbench_branches_pkey |            16384
 2017-02-03 18:08:13.158215+01 | 1486141693.15822 | pgbench_tellers_pkey  |            40960
 2017-02-03 18:08:13.158215+01 | 1486141693.15822 | pgbench_accounts_pkey |        224641024

 2017-02-03 18:08:14.256433+01 | 1486141694.25643 | pgbench_branches_pkey |            16384
 2017-02-03 18:08:14.256433+01 | 1486141694.25643 | pgbench_tellers_pkey  |            40960
 2017-02-03 18:08:14.256433+01 | 1486141694.25643 | pgbench_accounts_pkey |        224641024

 2017-02-03 18:08:15.343292+01 | 1486141695.34329 | pgbench_branches_pkey |            16384
 2017-02-03 18:08:15.343292+01 | 1486141695.34329 | pgbench_tellers_pkey  |            40960
 2017-02-03 18:08:15.343292+01 | 1486141695.34329 | pgbench_accounts_pkey |        224641024

 2017-02-03 18:08:16.42678+01 | 1486141696.42678 | pgbench_branches_pkey |            16384
 2017-02-03 18:08:16.42678+01 | 1486141696.42678 | pgbench_tellers_pkey  |            40960
 2017-02-03 18:08:16.42678+01 | 1486141696.42678 | pgbench_accounts_pkey |        224641024

 2017-02-03 18:08:17.513642+01 | 1486141697.51364 | pgbench_branches_pkey |            16384
 2017-02-03 18:08:17.513642+01 | 1486141697.51364 | pgbench_tellers_pkey  |            40960
 2017-02-03 18:08:17.513642+01 | 1486141697.51364 | pgbench_accounts_pkey |        224641024

 2017-02-03 18:08:18.610292+01 | 1486141698.61029 | pgbench_branches_pkey |            16384
 2017-02-03 18:08:18.610292+01 | 1486141698.61029 | pgbench_tellers_pkey  |            40960
 2017-02-03 18:08:18.610292+01 | 1486141698.61029 | pgbench_accounts_pkey |        224641024

 2017-02-03 18:08:19.702542+01 | 1486141699.70254 | pgbench_branches_pkey |            16384
 2017-02-03 18:08:19.702542+01 | 1486141699.70254 | pgbench_tellers_pkey  |            40960
 2017-02-03 18:08:19.702542+01 | 1486141699.70254 | pgbench_accounts_pkey |        224641024

 2017-02-03 18:08:20.79735+01 | 1486141700.79735 | pgbench_branches_pkey |            16384
 2017-02-03 18:08:20.79735+01 | 1486141700.79735 | pgbench_tellers_pkey  |            40960
 2017-02-03 18:08:20.79735+01 | 1486141700.79735 | pgbench_accounts_pkey |        224641024

 2017-02-03 18:08:21.884909+01 | 1486141701.88491 | pgbench_branches_pkey |            16384
 2017-02-03 18:08:21.884909+01 | 1486141701.88491 | pgbench_tellers_pkey  |            40960
 2017-02-03 18:08:21.884909+01 | 1486141701.88491 | pgbench_accounts_pkey |        224641024

 2017-02-03 18:08:22.975884+01 | 1486141702.97588 | pgbench_branches_pkey |            16384
 2017-02-03 18:08:22.975884+01 | 1486141702.97588 | pgbench_tellers_pkey  |            40960
 2017-02-03 18:08:22.975884+01 | 1486141702.97588 | pgbench_accounts_pkey |        224641024

 2017-02-03 18:08:24.082505+01 | 1486141704.0825 | pgbench_branches_pkey |            16384
 2017-02-03 18:08:24.082505+01 | 1486141704.0825 | pgbench_tellers_pkey  |            40960
 2017-02-03 18:08:24.082505+01 | 1486141704.0825 | pgbench_accounts_pkey |        224641024

 2017-02-03 18:08:25.173767+01 | 1486141705.17377 | pgbench_branches_pkey |            16384
 2017-02-03 18:08:25.173767+01 | 1486141705.17377 | pgbench_tellers_pkey  |            40960
 2017-02-03 18:08:25.173767+01 | 1486141705.17377 | pgbench_accounts_pkey |        224641024

 2017-02-03 18:08:26.270127+01 | 1486141706.27013 | pgbench_branches_pkey |            16384
 2017-02-03 18:08:26.270127+01 | 1486141706.27013 | pgbench_tellers_pkey  |            40960
 2017-02-03 18:08:26.270127+01 | 1486141706.27013 | pgbench_accounts_pkey |        224641024

 2017-02-03 18:08:27.358863+01 | 1486141707.35886 | pgbench_branches_pkey |            16384
 2017-02-03 18:08:27.358863+01 | 1486141707.35886 | pgbench_tellers_pkey  |            40960
 2017-02-03 18:08:27.358863+01 | 1486141707.35886 | pgbench_accounts_pkey |        224641024

 2017-02-03 18:08:28.440535+01 | 1486141708.44054 | pgbench_branches_pkey |            16384
 2017-02-03 18:08:28.440535+01 | 1486141708.44054 | pgbench_tellers_pkey  |            40960
 2017-02-03 18:08:28.440535+01 | 1486141708.44054 | pgbench_accounts_pkey |        224641024

 2017-02-03 18:08:29.52604+01 | 1486141709.52604 | pgbench_branches_pkey |            16384
 2017-02-03 18:08:29.52604+01 | 1486141709.52604 | pgbench_tellers_pkey  |            40960
 2017-02-03 18:08:29.52604+01 | 1486141709.52604 | pgbench_accounts_pkey |        224641024

 2017-02-03 18:08:30.608802+01 | 1486141710.6088 | pgbench_branches_pkey |            16384
 2017-02-03 18:08:30.608802+01 | 1486141710.6088 | pgbench_tellers_pkey  |            40960
 2017-02-03 18:08:30.608802+01 | 1486141710.6088 | pgbench_accounts_pkey |        224641024

 2017-02-03 18:08:31.698706+01 | 1486141711.69871 | pgbench_branches_pkey |            16384
 2017-02-03 18:08:31.698706+01 | 1486141711.69871 | pgbench_tellers_pkey  |            40960
 2017-02-03 18:08:31.698706+01 | 1486141711.69871 | pgbench_accounts_pkey |        224641024

 2017-02-03 18:08:32.786935+01 | 1486141712.78694 | pgbench_branches_pkey |            16384
 2017-02-03 18:08:32.786935+01 | 1486141712.78694 | pgbench_tellers_pkey  |            40960
 2017-02-03 18:08:32.786935+01 | 1486141712.78694 | pgbench_accounts_pkey |        224641024

 2017-02-03 18:08:33.883053+01 | 1486141713.88305 | pgbench_branches_pkey |            16384
 2017-02-03 18:08:33.883053+01 | 1486141713.88305 | pgbench_tellers_pkey  |            40960
 2017-02-03 18:08:33.883053+01 | 1486141713.88305 | pgbench_accounts_pkey |        224641024

 2017-02-03 18:08:34.998665+01 | 1486141714.99867 | pgbench_branches_pkey |            16384
 2017-02-03 18:08:34.998665+01 | 1486141714.99867 | pgbench_tellers_pkey  |            40960
 2017-02-03 18:08:34.998665+01 | 1486141714.99867 | pgbench_accounts_pkey |        224641024

 2017-02-03 18:08:36.102063+01 | 1486141716.10206 | pgbench_branches_pkey |            16384
 2017-02-03 18:08:36.102063+01 | 1486141716.10206 | pgbench_tellers_pkey  |            40960
 2017-02-03 18:08:36.102063+01 | 1486141716.10206 | pgbench_accounts_pkey |        224641024

 2017-02-03 18:08:37.196784+01 | 1486141717.19678 | pgbench_branches_pkey |            16384
 2017-02-03 18:08:37.196784+01 | 1486141717.19678 | pgbench_tellers_pkey  |            40960
 2017-02-03 18:08:37.196784+01 | 1486141717.19678 | pgbench_accounts_pkey |        224641024

 2017-02-03 18:08:38.292806+01 | 1486141718.29281 | pgbench_branches_pkey |            16384
 2017-02-03 18:08:38.292806+01 | 1486141718.29281 | pgbench_tellers_pkey  |            40960
 2017-02-03 18:08:38.292806+01 | 1486141718.29281 | pgbench_accounts_pkey |        224641024

 2017-02-03 18:08:39.389583+01 | 1486141719.38958 | pgbench_branches_pkey |            16384
 2017-02-03 18:08:39.389583+01 | 1486141719.38958 | pgbench_tellers_pkey  |            40960
 2017-02-03 18:08:39.389583+01 | 1486141719.38958 | pgbench_accounts_pkey |        224641024

 2017-02-03 18:08:40.469435+01 | 1486141720.46943 | pgbench_branches_pkey |            16384
 2017-02-03 18:08:40.469435+01 | 1486141720.46943 | pgbench_tellers_pkey  |            40960
 2017-02-03 18:08:40.469435+01 | 1486141720.46943 | pgbench_accounts_pkey |        224641024

 2017-02-03 18:08:41.563869+01 | 1486141721.56387 | pgbench_branches_pkey |            16384
 2017-02-03 18:08:41.563869+01 | 1486141721.56387 | pgbench_tellers_pkey  |            40960
 2017-02-03 18:08:41.563869+01 | 1486141721.56387 | pgbench_accounts_pkey |        224641024

 2017-02-03 18:08:42.652759+01 | 1486141722.65276 | pgbench_branches_pkey |            16384
 2017-02-03 18:08:42.652759+01 | 1486141722.65276 | pgbench_tellers_pkey  |            40960
 2017-02-03 18:08:42.652759+01 | 1486141722.65276 | pgbench_accounts_pkey |        224641024

 2017-02-03 18:08:43.740486+01 | 1486141723.74049 | pgbench_branches_pkey |            16384
 2017-02-03 18:08:43.740486+01 | 1486141723.74049 | pgbench_tellers_pkey  |            40960
 2017-02-03 18:08:43.740486+01 | 1486141723.74049 | pgbench_accounts_pkey |        224641024

 2017-02-03 18:08:44.831914+01 | 1486141724.83191 | pgbench_branches_pkey |            16384
 2017-02-03 18:08:44.831914+01 | 1486141724.83191 | pgbench_tellers_pkey  |            40960
 2017-02-03 18:08:44.831914+01 | 1486141724.83191 | pgbench_accounts_pkey |        224641024

 2017-02-03 18:08:45.933478+01 | 1486141725.93348 | pgbench_branches_pkey |            16384
 2017-02-03 18:08:45.933478+01 | 1486141725.93348 | pgbench_tellers_pkey  |            40960
 2017-02-03 18:08:45.933478+01 | 1486141725.93348 | pgbench_accounts_pkey |        224641024

 2017-02-03 18:08:47.021605+01 | 1486141727.02161 | pgbench_branches_pkey |            16384
 2017-02-03 18:08:47.021605+01 | 1486141727.02161 | pgbench_tellers_pkey  |            40960
 2017-02-03 18:08:47.021605+01 | 1486141727.02161 | pgbench_accounts_pkey |        224641024

 2017-02-03 18:08:48.115031+01 | 1486141728.11503 | pgbench_branches_pkey |            16384
 2017-02-03 18:08:48.115031+01 | 1486141728.11503 | pgbench_tellers_pkey  |            40960
 2017-02-03 18:08:48.115031+01 | 1486141728.11503 | pgbench_accounts_pkey |        224641024

 2017-02-03 18:08:49.211598+01 | 1486141729.2116 | pgbench_branches_pkey |            16384
 2017-02-03 18:08:49.211598+01 | 1486141729.2116 | pgbench_tellers_pkey  |            40960
 2017-02-03 18:08:49.211598+01 | 1486141729.2116 | pgbench_accounts_pkey |        224641024

 2017-02-03 18:08:50.315666+01 | 1486141730.31567 | pgbench_branches_pkey |            16384
 2017-02-03 18:08:50.315666+01 | 1486141730.31567 | pgbench_tellers_pkey  |            40960
 2017-02-03 18:08:50.315666+01 | 1486141730.31567 | pgbench_accounts_pkey |        224641024

 2017-02-03 18:08:51.406177+01 | 1486141731.40618 | pgbench_branches_pkey |            16384
 2017-02-03 18:08:51.406177+01 | 1486141731.40618 | pgbench_tellers_pkey  |            40960
 2017-02-03 18:08:51.406177+01 | 1486141731.40618 | pgbench_accounts_pkey |        224641024

 2017-02-03 18:08:52.494878+01 | 1486141732.49488 | pgbench_branches_pkey |            16384
 2017-02-03 18:08:52.494878+01 | 1486141732.49488 | pgbench_tellers_pkey  |            40960
 2017-02-03 18:08:52.494878+01 | 1486141732.49488 | pgbench_accounts_pkey |        224641024

 2017-02-03 18:08:53.575503+01 | 1486141733.5755 | pgbench_branches_pkey |            16384
 2017-02-03 18:08:53.575503+01 | 1486141733.5755 | pgbench_tellers_pkey  |            40960
 2017-02-03 18:08:53.575503+01 | 1486141733.5755 | pgbench_accounts_pkey |        224641024

 2017-02-03 18:08:54.662781+01 | 1486141734.66278 | pgbench_branches_pkey |            16384
 2017-02-03 18:08:54.662781+01 | 1486141734.66278 | pgbench_tellers_pkey  |            40960
 2017-02-03 18:08:54.662781+01 | 1486141734.66278 | pgbench_accounts_pkey |        224641024

 2017-02-03 18:08:55.750875+01 | 1486141735.75087 | pgbench_branches_pkey |            16384
 2017-02-03 18:08:55.750875+01 | 1486141735.75087 | pgbench_tellers_pkey  |            40960
 2017-02-03 18:08:55.750875+01 | 1486141735.75087 | pgbench_accounts_pkey |        224641024

 2017-02-03 18:08:56.849477+01 | 1486141736.84948 | pgbench_branches_pkey |            16384
 2017-02-03 18:08:56.849477+01 | 1486141736.84948 | pgbench_tellers_pkey  |            40960
 2017-02-03 18:08:56.849477+01 | 1486141736.84948 | pgbench_accounts_pkey |        224641024

 2017-02-03 18:08:57.942579+01 | 1486141737.94258 | pgbench_branches_pkey |            16384
 2017-02-03 18:08:57.942579+01 | 1486141737.94258 | pgbench_tellers_pkey  |            40960
 2017-02-03 18:08:57.942579+01 | 1486141737.94258 | pgbench_accounts_pkey |        224641024

 2017-02-03 18:08:59.039257+01 | 1486141739.03926 | pgbench_branches_pkey |            16384
 2017-02-03 18:08:59.039257+01 | 1486141739.03926 | pgbench_tellers_pkey  |            40960
 2017-02-03 18:08:59.039257+01 | 1486141739.03926 | pgbench_accounts_pkey |        224641024

 2017-02-03 18:09:00.123271+01 | 1486141740.12327 | pgbench_branches_pkey |            16384
 2017-02-03 18:09:00.123271+01 | 1486141740.12327 | pgbench_tellers_pkey  |            40960
 2017-02-03 18:09:00.123271+01 | 1486141740.12327 | pgbench_accounts_pkey |        224641024

 2017-02-03 18:09:01.226671+01 | 1486141741.22667 | pgbench_branches_pkey |            16384
 2017-02-03 18:09:01.226671+01 | 1486141741.22667 | pgbench_tellers_pkey  |            40960
 2017-02-03 18:09:01.226671+01 | 1486141741.22667 | pgbench_accounts_pkey |        224641024

 2017-02-03 18:09:02.326806+01 | 1486141742.32681 | pgbench_branches_pkey |            16384
 2017-02-03 18:09:02.326806+01 | 1486141742.32681 | pgbench_tellers_pkey  |            40960
 2017-02-03 18:09:02.326806+01 | 1486141742.32681 | pgbench_accounts_pkey |        224641024

 2017-02-03 18:09:03.423522+01 | 1486141743.42352 | pgbench_branches_pkey |            16384
 2017-02-03 18:09:03.423522+01 | 1486141743.42352 | pgbench_tellers_pkey  |            40960
 2017-02-03 18:09:03.423522+01 | 1486141743.42352 | pgbench_accounts_pkey |        224641024

 2017-02-03 18:09:04.505732+01 | 1486141744.50573 | pgbench_branches_pkey |            16384
 2017-02-03 18:09:04.505732+01 | 1486141744.50573 | pgbench_tellers_pkey  |            40960
 2017-02-03 18:09:04.505732+01 | 1486141744.50573 | pgbench_accounts_pkey |        224641024

 2017-02-03 18:09:05.586924+01 | 1486141745.58692 | pgbench_branches_pkey |            16384
 2017-02-03 18:09:05.586924+01 | 1486141745.58692 | pgbench_tellers_pkey  |            40960
 2017-02-03 18:09:05.586924+01 | 1486141745.58692 | pgbench_accounts_pkey |        224641024

 2017-02-03 18:09:06.671021+01 | 1486141746.67102 | pgbench_branches_pkey |            16384
 2017-02-03 18:09:06.671021+01 | 1486141746.67102 | pgbench_tellers_pkey  |            40960
 2017-02-03 18:09:06.671021+01 | 1486141746.67102 | pgbench_accounts_pkey |        224641024

 2017-02-03 18:09:07.753115+01 | 1486141747.75311 | pgbench_branches_pkey |            16384
 2017-02-03 18:09:07.753115+01 | 1486141747.75311 | pgbench_tellers_pkey  |            40960
 2017-02-03 18:09:07.753115+01 | 1486141747.75311 | pgbench_accounts_pkey |        224641024

 2017-02-03 18:09:08.84223+01 | 1486141748.84223 | pgbench_branches_pkey |            16384
 2017-02-03 18:09:08.84223+01 | 1486141748.84223 | pgbench_tellers_pkey  |            40960
 2017-02-03 18:09:08.84223+01 | 1486141748.84223 | pgbench_accounts_pkey |        224641024

 2017-02-03 18:09:09.93181+01 | 1486141749.93181 | pgbench_branches_pkey |            16384
 2017-02-03 18:09:09.93181+01 | 1486141749.93181 | pgbench_tellers_pkey  |            40960
 2017-02-03 18:09:09.93181+01 | 1486141749.93181 | pgbench_accounts_pkey |        224641024

 2017-02-03 18:09:11.025648+01 | 1486141751.02565 | pgbench_branches_pkey |            16384
 2017-02-03 18:09:11.025648+01 | 1486141751.02565 | pgbench_tellers_pkey  |            40960
 2017-02-03 18:09:11.025648+01 | 1486141751.02565 | pgbench_accounts_pkey |        224641024

 2017-02-03 18:09:12.129669+01 | 1486141752.12967 | pgbench_branches_pkey |            16384
 2017-02-03 18:09:12.129669+01 | 1486141752.12967 | pgbench_tellers_pkey  |            40960
 2017-02-03 18:09:12.129669+01 | 1486141752.12967 | pgbench_accounts_pkey |        224641024

 2017-02-03 18:09:13.225972+01 | 1486141753.22597 | pgbench_branches_pkey |            16384
 2017-02-03 18:09:13.225972+01 | 1486141753.22597 | pgbench_tellers_pkey  |            40960
 2017-02-03 18:09:13.225972+01 | 1486141753.22597 | pgbench_accounts_pkey |        224641024

 2017-02-03 18:09:14.318378+01 | 1486141754.31838 | pgbench_branches_pkey |            16384
 2017-02-03 18:09:14.318378+01 | 1486141754.31838 | pgbench_tellers_pkey  |            40960
 2017-02-03 18:09:14.318378+01 | 1486141754.31838 | pgbench_accounts_pkey |        224641024

 2017-02-03 18:09:15.420566+01 | 1486141755.42057 | pgbench_branches_pkey |            16384
 2017-02-03 18:09:15.420566+01 | 1486141755.42057 | pgbench_tellers_pkey  |            40960
 2017-02-03 18:09:15.420566+01 | 1486141755.42057 | pgbench_accounts_pkey |        224641024

 2017-02-03 18:09:16.50834+01 | 1486141756.50834 | pgbench_branches_pkey |            16384
 2017-02-03 18:09:16.50834+01 | 1486141756.50834 | pgbench_tellers_pkey  |            40960
 2017-02-03 18:09:16.50834+01 | 1486141756.50834 | pgbench_accounts_pkey |        224641024

 2017-02-03 18:09:17.591816+01 | 1486141757.59182 | pgbench_branches_pkey |            16384
 2017-02-03 18:09:17.591816+01 | 1486141757.59182 | pgbench_tellers_pkey  |            40960
 2017-02-03 18:09:17.591816+01 | 1486141757.59182 | pgbench_accounts_pkey |        224641024

 2017-02-03 18:09:18.694372+01 | 1486141758.69437 | pgbench_branches_pkey |            16384
 2017-02-03 18:09:18.694372+01 | 1486141758.69437 | pgbench_tellers_pkey  |            40960
 2017-02-03 18:09:18.694372+01 | 1486141758.69437 | pgbench_accounts_pkey |        224641024

 2017-02-03 18:09:19.780685+01 | 1486141759.78068 | pgbench_branches_pkey |            16384
 2017-02-03 18:09:19.780685+01 | 1486141759.78068 | pgbench_tellers_pkey  |            40960
 2017-02-03 18:09:19.780685+01 | 1486141759.78068 | pgbench_accounts_pkey |        224641024

 2017-02-03 18:09:20.86452+01 | 1486141760.86452 | pgbench_branches_pkey |            16384
 2017-02-03 18:09:20.86452+01 | 1486141760.86452 | pgbench_tellers_pkey  |            40960
 2017-02-03 18:09:20.86452+01 | 1486141760.86452 | pgbench_accounts_pkey |        224641024

 2017-02-03 18:09:21.95624+01 | 1486141761.95624 | pgbench_branches_pkey |            16384
 2017-02-03 18:09:21.95624+01 | 1486141761.95624 | pgbench_tellers_pkey  |            40960
 2017-02-03 18:09:21.95624+01 | 1486141761.95624 | pgbench_accounts_pkey |        224641024

 2017-02-03 18:09:23.053284+01 | 1486141763.05328 | pgbench_branches_pkey |            16384
 2017-02-03 18:09:23.053284+01 | 1486141763.05328 | pgbench_tellers_pkey  |            40960
 2017-02-03 18:09:23.053284+01 | 1486141763.05328 | pgbench_accounts_pkey |        224641024

 2017-02-03 18:09:24.163432+01 | 1486141764.16343 | pgbench_branches_pkey |            16384
 2017-02-03 18:09:24.163432+01 | 1486141764.16343 | pgbench_tellers_pkey  |            40960
 2017-02-03 18:09:24.163432+01 | 1486141764.16343 | pgbench_accounts_pkey |        224641024

 2017-02-03 18:09:25.266366+01 | 1486141765.26637 | pgbench_branches_pkey |            16384
 2017-02-03 18:09:25.266366+01 | 1486141765.26637 | pgbench_tellers_pkey  |            40960
 2017-02-03 18:09:25.266366+01 | 1486141765.26637 | pgbench_accounts_pkey |        224641024

 2017-02-03 18:09:26.361387+01 | 1486141766.36139 | pgbench_branches_pkey |            16384
 2017-02-03 18:09:26.361387+01 | 1486141766.36139 | pgbench_tellers_pkey  |            40960
 2017-02-03 18:09:26.361387+01 | 1486141766.36139 | pgbench_accounts_pkey |        224641024

 2017-02-03 18:09:27.455899+01 | 1486141767.4559 | pgbench_branches_pkey |            16384
 2017-02-03 18:09:27.455899+01 | 1486141767.4559 | pgbench_tellers_pkey  |            40960
 2017-02-03 18:09:27.455899+01 | 1486141767.4559 | pgbench_accounts_pkey |        224641024

 2017-02-03 18:09:28.537518+01 | 1486141768.53752 | pgbench_branches_pkey |            16384
 2017-02-03 18:09:28.537518+01 | 1486141768.53752 | pgbench_tellers_pkey  |            40960
 2017-02-03 18:09:28.537518+01 | 1486141768.53752 | pgbench_accounts_pkey |        224641024

 2017-02-03 18:09:29.622449+01 | 1486141769.62245 | pgbench_branches_pkey |            16384
 2017-02-03 18:09:29.622449+01 | 1486141769.62245 | pgbench_tellers_pkey  |            40960
 2017-02-03 18:09:29.622449+01 | 1486141769.62245 | pgbench_accounts_pkey |        224641024

 2017-02-03 18:09:30.706451+01 | 1486141770.70645 | pgbench_branches_pkey |            16384
 2017-02-03 18:09:30.706451+01 | 1486141770.70645 | pgbench_tellers_pkey  |            40960
 2017-02-03 18:09:30.706451+01 | 1486141770.70645 | pgbench_accounts_pkey |        224641024

 2017-02-03 18:09:31.789817+01 | 1486141771.78982 | pgbench_branches_pkey |            16384
 2017-02-03 18:09:31.789817+01 | 1486141771.78982 | pgbench_tellers_pkey  |            40960
 2017-02-03 18:09:31.789817+01 | 1486141771.78982 | pgbench_accounts_pkey |        224641024

 2017-02-03 18:09:32.887497+01 | 1486141772.8875 | pgbench_branches_pkey |            16384
 2017-02-03 18:09:32.887497+01 | 1486141772.8875 | pgbench_tellers_pkey  |            40960
 2017-02-03 18:09:32.887497+01 | 1486141772.8875 | pgbench_accounts_pkey |        224641024

 2017-02-03 18:09:33.986532+01 | 1486141773.98653 | pgbench_branches_pkey |            16384
 2017-02-03 18:09:33.986532+01 | 1486141773.98653 | pgbench_tellers_pkey  |            40960
 2017-02-03 18:09:33.986532+01 | 1486141773.98653 | pgbench_accounts_pkey |        224641024

 2017-02-03 18:09:35.075082+01 | 1486141775.07508 | pgbench_branches_pkey |            16384
 2017-02-03 18:09:35.075082+01 | 1486141775.07508 | pgbench_tellers_pkey  |            40960
 2017-02-03 18:09:35.075082+01 | 1486141775.07508 | pgbench_accounts_pkey |        224641024

 2017-02-03 18:09:36.166567+01 | 1486141776.16657 | pgbench_branches_pkey |            16384
 2017-02-03 18:09:36.166567+01 | 1486141776.16657 | pgbench_tellers_pkey  |            40960
 2017-02-03 18:09:36.166567+01 | 1486141776.16657 | pgbench_accounts_pkey |        224641024

 2017-02-03 18:09:37.257382+01 | 1486141777.25738 | pgbench_branches_pkey |            16384
 2017-02-03 18:09:37.257382+01 | 1486141777.25738 | pgbench_tellers_pkey  |            40960
 2017-02-03 18:09:37.257382+01 | 1486141777.25738 | pgbench_accounts_pkey |        224641024

 2017-02-03 18:09:38.360157+01 | 1486141778.36016 | pgbench_branches_pkey |            16384
 2017-02-03 18:09:38.360157+01 | 1486141778.36016 | pgbench_tellers_pkey  |            40960
 2017-02-03 18:09:38.360157+01 | 1486141778.36016 | pgbench_accounts_pkey |        224641024

 2017-02-03 18:09:39.450639+01 | 1486141779.45064 | pgbench_branches_pkey |            16384
 2017-02-03 18:09:39.450639+01 | 1486141779.45064 | pgbench_tellers_pkey  |            40960
 2017-02-03 18:09:39.450639+01 | 1486141779.45064 | pgbench_accounts_pkey |        224641024

 2017-02-03 18:09:40.541014+01 | 1486141780.54101 | pgbench_branches_pkey |            16384
 2017-02-03 18:09:40.541014+01 | 1486141780.54101 | pgbench_tellers_pkey  |            40960
 2017-02-03 18:09:40.541014+01 | 1486141780.54101 | pgbench_accounts_pkey |        224641024

 2017-02-03 18:09:41.630143+01 | 1486141781.63014 | pgbench_branches_pkey |            16384
 2017-02-03 18:09:41.630143+01 | 1486141781.63014 | pgbench_tellers_pkey  |            40960
 2017-02-03 18:09:41.630143+01 | 1486141781.63014 | pgbench_accounts_pkey |        224641024

 2017-02-03 18:09:42.72142+01 | 1486141782.72142 | pgbench_branches_pkey |            16384
 2017-02-03 18:09:42.72142+01 | 1486141782.72142 | pgbench_tellers_pkey  |            40960
 2017-02-03 18:09:42.72142+01 | 1486141782.72142 | pgbench_accounts_pkey |        224641024

 2017-02-03 18:09:43.812488+01 | 1486141783.81249 | pgbench_branches_pkey |            16384
 2017-02-03 18:09:43.812488+01 | 1486141783.81249 | pgbench_tellers_pkey  |            40960
 2017-02-03 18:09:43.812488+01 | 1486141783.81249 | pgbench_accounts_pkey |        224641024

 2017-02-03 18:09:44.905726+01 | 1486141784.90573 | pgbench_branches_pkey |            16384
 2017-02-03 18:09:44.905726+01 | 1486141784.90573 | pgbench_tellers_pkey  |            40960
 2017-02-03 18:09:44.905726+01 | 1486141784.90573 | pgbench_accounts_pkey |        224641024

 2017-02-03 18:09:45.998665+01 | 1486141785.99867 | pgbench_branches_pkey |            16384
 2017-02-03 18:09:45.998665+01 | 1486141785.99867 | pgbench_tellers_pkey  |            40960
 2017-02-03 18:09:45.998665+01 | 1486141785.99867 | pgbench_accounts_pkey |        224641024

 2017-02-03 18:09:47.09661+01 | 1486141787.09661 | pgbench_branches_pkey |            16384
 2017-02-03 18:09:47.09661+01 | 1486141787.09661 | pgbench_tellers_pkey  |            40960
 2017-02-03 18:09:47.09661+01 | 1486141787.09661 | pgbench_accounts_pkey |        224641024

 2017-02-03 18:09:48.193155+01 | 1486141788.19316 | pgbench_branches_pkey |            16384
 2017-02-03 18:09:48.193155+01 | 1486141788.19316 | pgbench_tellers_pkey  |            40960
 2017-02-03 18:09:48.193155+01 | 1486141788.19316 | pgbench_accounts_pkey |        224641024

 2017-02-03 18:09:49.292052+01 | 1486141789.29205 | pgbench_branches_pkey |            16384
 2017-02-03 18:09:49.292052+01 | 1486141789.29205 | pgbench_tellers_pkey  |            40960
 2017-02-03 18:09:49.292052+01 | 1486141789.29205 | pgbench_accounts_pkey |        224641024

 2017-02-03 18:09:50.387856+01 | 1486141790.38786 | pgbench_branches_pkey |            16384
 2017-02-03 18:09:50.387856+01 | 1486141790.38786 | pgbench_tellers_pkey  |            40960
 2017-02-03 18:09:50.387856+01 | 1486141790.38786 | pgbench_accounts_pkey |        224641024

 2017-02-03 18:09:51.476945+01 | 1486141791.47694 | pgbench_branches_pkey |            16384
 2017-02-03 18:09:51.476945+01 | 1486141791.47694 | pgbench_tellers_pkey  |            40960
 2017-02-03 18:09:51.476945+01 | 1486141791.47694 | pgbench_accounts_pkey |        224641024

 2017-02-03 18:09:52.563577+01 | 1486141792.56358 | pgbench_branches_pkey |            16384
 2017-02-03 18:09:52.563577+01 | 1486141792.56358 | pgbench_tellers_pkey  |            40960
 2017-02-03 18:09:52.563577+01 | 1486141792.56358 | pgbench_accounts_pkey |        224641024

 2017-02-03 18:09:53.665202+01 | 1486141793.6652 | pgbench_branches_pkey |            16384
 2017-02-03 18:09:53.665202+01 | 1486141793.6652 | pgbench_tellers_pkey  |            40960
 2017-02-03 18:09:53.665202+01 | 1486141793.6652 | pgbench_accounts_pkey |        224641024

 2017-02-03 18:09:54.756529+01 | 1486141794.75653 | pgbench_branches_pkey |            16384
 2017-02-03 18:09:54.756529+01 | 1486141794.75653 | pgbench_tellers_pkey  |            40960
 2017-02-03 18:09:54.756529+01 | 1486141794.75653 | pgbench_accounts_pkey |        224641024

 2017-02-03 18:09:55.869833+01 | 1486141795.86983 | pgbench_branches_pkey |            16384
 2017-02-03 18:09:55.869833+01 | 1486141795.86983 | pgbench_tellers_pkey  |            40960
 2017-02-03 18:09:55.869833+01 | 1486141795.86983 | pgbench_accounts_pkey |        224641024

 2017-02-03 18:09:56.964463+01 | 1486141796.96446 | pgbench_branches_pkey |            16384
 2017-02-03 18:09:56.964463+01 | 1486141796.96446 | pgbench_tellers_pkey  |            40960
 2017-02-03 18:09:56.964463+01 | 1486141796.96446 | pgbench_accounts_pkey |        224641024

 2017-02-03 18:09:58.063275+01 | 1486141798.06328 | pgbench_branches_pkey |            16384
 2017-02-03 18:09:58.063275+01 | 1486141798.06328 | pgbench_tellers_pkey  |            40960
 2017-02-03 18:09:58.063275+01 | 1486141798.06328 | pgbench_accounts_pkey |        224641024

 2017-02-03 18:09:59.1493+01 | 1486141799.1493 | pgbench_branches_pkey |            16384
 2017-02-03 18:09:59.1493+01 | 1486141799.1493 | pgbench_tellers_pkey  |            40960
 2017-02-03 18:09:59.1493+01 | 1486141799.1493 | pgbench_accounts_pkey |        224641024

 2017-02-03 18:10:00.242728+01 | 1486141800.24273 | pgbench_branches_pkey |            16384
 2017-02-03 18:10:00.242728+01 | 1486141800.24273 | pgbench_tellers_pkey  |            40960
 2017-02-03 18:10:00.242728+01 | 1486141800.24273 | pgbench_accounts_pkey |        224641024

 2017-02-03 18:10:01.330004+01 | 1486141801.33 | pgbench_branches_pkey |            16384
 2017-02-03 18:10:01.330004+01 | 1486141801.33 | pgbench_tellers_pkey  |            40960
 2017-02-03 18:10:01.330004+01 | 1486141801.33 | pgbench_accounts_pkey |        224641024

 2017-02-03 18:10:02.435067+01 | 1486141802.43507 | pgbench_branches_pkey |            16384
 2017-02-03 18:10:02.435067+01 | 1486141802.43507 | pgbench_tellers_pkey  |            40960
 2017-02-03 18:10:02.435067+01 | 1486141802.43507 | pgbench_accounts_pkey |        224641024

 2017-02-03 18:10:03.523115+01 | 1486141803.52311 | pgbench_branches_pkey |            16384
 2017-02-03 18:10:03.523115+01 | 1486141803.52311 | pgbench_tellers_pkey  |            40960
 2017-02-03 18:10:03.523115+01 | 1486141803.52311 | pgbench_accounts_pkey |        224641024

 2017-02-03 18:10:04.609514+01 | 1486141804.60951 | pgbench_branches_pkey |            16384
 2017-02-03 18:10:04.609514+01 | 1486141804.60951 | pgbench_tellers_pkey  |            40960
 2017-02-03 18:10:04.609514+01 | 1486141804.60951 | pgbench_accounts_pkey |        224641024

 2017-02-03 18:10:05.701641+01 | 1486141805.70164 | pgbench_branches_pkey |            16384
 2017-02-03 18:10:05.701641+01 | 1486141805.70164 | pgbench_tellers_pkey  |            40960
 2017-02-03 18:10:05.701641+01 | 1486141805.70164 | pgbench_accounts_pkey |        224641024

 2017-02-03 18:10:06.792062+01 | 1486141806.79206 | pgbench_branches_pkey |            16384
 2017-02-03 18:10:06.792062+01 | 1486141806.79206 | pgbench_tellers_pkey  |            40960
 2017-02-03 18:10:06.792062+01 | 1486141806.79206 | pgbench_accounts_pkey |        224641024

 2017-02-03 18:10:07.876125+01 | 1486141807.87613 | pgbench_branches_pkey |            16384
 2017-02-03 18:10:07.876125+01 | 1486141807.87613 | pgbench_tellers_pkey  |            40960
 2017-02-03 18:10:07.876125+01 | 1486141807.87613 | pgbench_accounts_pkey |        224641024

 2017-02-03 18:10:08.971994+01 | 1486141808.97199 | pgbench_branches_pkey |            16384
 2017-02-03 18:10:08.971994+01 | 1486141808.97199 | pgbench_tellers_pkey  |            40960
 2017-02-03 18:10:08.971994+01 | 1486141808.97199 | pgbench_accounts_pkey |        224641024

 2017-02-03 18:10:10.058101+01 | 1486141810.0581 | pgbench_branches_pkey |            16384
 2017-02-03 18:10:10.058101+01 | 1486141810.0581 | pgbench_tellers_pkey  |            40960
 2017-02-03 18:10:10.058101+01 | 1486141810.0581 | pgbench_accounts_pkey |        224641024

 2017-02-03 18:10:11.156086+01 | 1486141811.15609 | pgbench_branches_pkey |            16384
 2017-02-03 18:10:11.156086+01 | 1486141811.15609 | pgbench_tellers_pkey  |            40960
 2017-02-03 18:10:11.156086+01 | 1486141811.15609 | pgbench_accounts_pkey |        224641024

 2017-02-03 18:10:12.257037+01 | 1486141812.25704 | pgbench_branches_pkey |            16384
 2017-02-03 18:10:12.257037+01 | 1486141812.25704 | pgbench_tellers_pkey  |            40960
 2017-02-03 18:10:12.257037+01 | 1486141812.25704 | pgbench_accounts_pkey |        224641024

 2017-02-03 18:10:13.354038+01 | 1486141813.35404 | pgbench_branches_pkey |            16384
 2017-02-03 18:10:13.354038+01 | 1486141813.35404 | pgbench_tellers_pkey  |            40960
 2017-02-03 18:10:13.354038+01 | 1486141813.35404 | pgbench_accounts_pkey |        224641024

 2017-02-03 18:10:14.435746+01 | 1486141814.43575 | pgbench_branches_pkey |            16384
 2017-02-03 18:10:14.435746+01 | 1486141814.43575 | pgbench_tellers_pkey  |            40960
 2017-02-03 18:10:14.435746+01 | 1486141814.43575 | pgbench_accounts_pkey |        224641024

 2017-02-03 18:10:15.522216+01 | 1486141815.52222 | pgbench_branches_pkey |            16384
 2017-02-03 18:10:15.522216+01 | 1486141815.52222 | pgbench_tellers_pkey  |            40960
 2017-02-03 18:10:15.522216+01 | 1486141815.52222 | pgbench_accounts_pkey |        224641024

 2017-02-03 18:10:16.612344+01 | 1486141816.61234 | pgbench_branches_pkey |            16384
 2017-02-03 18:10:16.612344+01 | 1486141816.61234 | pgbench_tellers_pkey  |            40960
 2017-02-03 18:10:16.612344+01 | 1486141816.61234 | pgbench_accounts_pkey |        224641024

 2017-02-03 18:10:17.69795+01 | 1486141817.69795 | pgbench_branches_pkey |            16384
 2017-02-03 18:10:17.69795+01 | 1486141817.69795 | pgbench_tellers_pkey  |            40960
 2017-02-03 18:10:17.69795+01 | 1486141817.69795 | pgbench_accounts_pkey |        224641024

 2017-02-03 18:10:18.792698+01 | 1486141818.7927 | pgbench_branches_pkey |            16384
 2017-02-03 18:10:18.792698+01 | 1486141818.7927 | pgbench_tellers_pkey  |            40960
 2017-02-03 18:10:18.792698+01 | 1486141818.7927 | pgbench_accounts_pkey |        224641024

 2017-02-03 18:10:19.885388+01 | 1486141819.88539 | pgbench_branches_pkey |            16384
 2017-02-03 18:10:19.885388+01 | 1486141819.88539 | pgbench_tellers_pkey  |            40960
 2017-02-03 18:10:19.885388+01 | 1486141819.88539 | pgbench_accounts_pkey |        224641024

 2017-02-03 18:10:20.979174+01 | 1486141820.97917 | pgbench_branches_pkey |            16384
 2017-02-03 18:10:20.979174+01 | 1486141820.97917 | pgbench_tellers_pkey  |            40960
 2017-02-03 18:10:20.979174+01 | 1486141820.97917 | pgbench_accounts_pkey |        224641024

 2017-02-03 18:10:22.084835+01 | 1486141822.08484 | pgbench_branches_pkey |            16384
 2017-02-03 18:10:22.084835+01 | 1486141822.08484 | pgbench_tellers_pkey  |            40960
 2017-02-03 18:10:22.084835+01 | 1486141822.08484 | pgbench_accounts_pkey |        224641024

 2017-02-03 18:10:23.189756+01 | 1486141823.18976 | pgbench_branches_pkey |            16384
 2017-02-03 18:10:23.189756+01 | 1486141823.18976 | pgbench_tellers_pkey  |            40960
 2017-02-03 18:10:23.189756+01 | 1486141823.18976 | pgbench_accounts_pkey |        224641024

 2017-02-03 18:10:24.294894+01 | 1486141824.29489 | pgbench_branches_pkey |            16384
 2017-02-03 18:10:24.294894+01 | 1486141824.29489 | pgbench_tellers_pkey  |            40960
 2017-02-03 18:10:24.294894+01 | 1486141824.29489 | pgbench_accounts_pkey |        224641024

 2017-02-03 18:10:25.392527+01 | 1486141825.39253 | pgbench_branches_pkey |            16384
 2017-02-03 18:10:25.392527+01 | 1486141825.39253 | pgbench_tellers_pkey  |            40960
 2017-02-03 18:10:25.392527+01 | 1486141825.39253 | pgbench_accounts_pkey |        224641024

 2017-02-03 18:10:26.495764+01 | 1486141826.49576 | pgbench_branches_pkey |            16384
 2017-02-03 18:10:26.495764+01 | 1486141826.49576 | pgbench_tellers_pkey  |            40960
 2017-02-03 18:10:26.495764+01 | 1486141826.49576 | pgbench_accounts_pkey |        224641024

 2017-02-03 18:10:27.576555+01 | 1486141827.57656 | pgbench_branches_pkey |            16384
 2017-02-03 18:10:27.576555+01 | 1486141827.57656 | pgbench_tellers_pkey  |            40960
 2017-02-03 18:10:27.576555+01 | 1486141827.57656 | pgbench_accounts_pkey |        224641024

 2017-02-03 18:10:28.668965+01 | 1486141828.66897 | pgbench_branches_pkey |            16384
 2017-02-03 18:10:28.668965+01 | 1486141828.66897 | pgbench_tellers_pkey  |            40960
 2017-02-03 18:10:28.668965+01 | 1486141828.66897 | pgbench_accounts_pkey |        224641024

 2017-02-03 18:10:29.754764+01 | 1486141829.75476 | pgbench_branches_pkey |            16384
 2017-02-03 18:10:29.754764+01 | 1486141829.75476 | pgbench_tellers_pkey  |            40960
 2017-02-03 18:10:29.754764+01 | 1486141829.75476 | pgbench_accounts_pkey |        224641024

 2017-02-03 18:10:30.841627+01 | 1486141830.84163 | pgbench_branches_pkey |            16384
 2017-02-03 18:10:30.841627+01 | 1486141830.84163 | pgbench_tellers_pkey  |            40960
 2017-02-03 18:10:30.841627+01 | 1486141830.84163 | pgbench_accounts_pkey |        224641024

 2017-02-03 18:10:31.928186+01 | 1486141831.92819 | pgbench_branches_pkey |            16384
 2017-02-03 18:10:31.928186+01 | 1486141831.92819 | pgbench_tellers_pkey  |            40960
 2017-02-03 18:10:31.928186+01 | 1486141831.92819 | pgbench_accounts_pkey |        224641024

 2017-02-03 18:10:33.020683+01 | 1486141833.02068 | pgbench_branches_pkey |            16384
 2017-02-03 18:10:33.020683+01 | 1486141833.02068 | pgbench_tellers_pkey  |            40960
 2017-02-03 18:10:33.020683+01 | 1486141833.02068 | pgbench_accounts_pkey |        224641024

 2017-02-03 18:10:34.11875+01 | 1486141834.11875 | pgbench_branches_pkey |            16384
 2017-02-03 18:10:34.11875+01 | 1486141834.11875 | pgbench_tellers_pkey  |            40960
 2017-02-03 18:10:34.11875+01 | 1486141834.11875 | pgbench_accounts_pkey |        224641024

 2017-02-03 18:10:35.211037+01 | 1486141835.21104 | pgbench_branches_pkey |            16384
 2017-02-03 18:10:35.211037+01 | 1486141835.21104 | pgbench_tellers_pkey  |            40960
 2017-02-03 18:10:35.211037+01 | 1486141835.21104 | pgbench_accounts_pkey |        224641024

 2017-02-03 18:10:36.30499+01 | 1486141836.30499 | pgbench_branches_pkey |            16384
 2017-02-03 18:10:36.30499+01 | 1486141836.30499 | pgbench_tellers_pkey  |            40960
 2017-02-03 18:10:36.30499+01 | 1486141836.30499 | pgbench_accounts_pkey |        224641024

 2017-02-03 18:10:37.404077+01 | 1486141837.40408 | pgbench_branches_pkey |            16384
 2017-02-03 18:10:37.404077+01 | 1486141837.40408 | pgbench_tellers_pkey  |            40960
 2017-02-03 18:10:37.404077+01 | 1486141837.40408 | pgbench_accounts_pkey |        224641024

 2017-02-03 18:10:38.506407+01 | 1486141838.50641 | pgbench_branches_pkey |            16384
 2017-02-03 18:10:38.506407+01 | 1486141838.50641 | pgbench_tellers_pkey  |            40960
 2017-02-03 18:10:38.506407+01 | 1486141838.50641 | pgbench_accounts_pkey |        224641024

 2017-02-03 18:10:39.596298+01 | 1486141839.5963 | pgbench_branches_pkey |            16384
 2017-02-03 18:10:39.596298+01 | 1486141839.5963 | pgbench_tellers_pkey  |            40960
 2017-02-03 18:10:39.596298+01 | 1486141839.5963 | pgbench_accounts_pkey |        224641024

 2017-02-03 18:10:40.683079+01 | 1486141840.68308 | pgbench_branches_pkey |            16384
 2017-02-03 18:10:40.683079+01 | 1486141840.68308 | pgbench_tellers_pkey  |            40960
 2017-02-03 18:10:40.683079+01 | 1486141840.68308 | pgbench_accounts_pkey |        224641024

 2017-02-03 18:10:41.771723+01 | 1486141841.77172 | pgbench_branches_pkey |            16384
 2017-02-03 18:10:41.771723+01 | 1486141841.77172 | pgbench_tellers_pkey  |            40960
 2017-02-03 18:10:41.771723+01 | 1486141841.77172 | pgbench_accounts_pkey |        224641024

 2017-02-03 18:10:42.861871+01 | 1486141842.86187 | pgbench_branches_pkey |            16384
 2017-02-03 18:10:42.861871+01 | 1486141842.86187 | pgbench_tellers_pkey  |            40960
 2017-02-03 18:10:42.861871+01 | 1486141842.86187 | pgbench_accounts_pkey |        224641024

 2017-02-03 18:10:43.963429+01 | 1486141843.96343 | pgbench_branches_pkey |            16384
 2017-02-03 18:10:43.963429+01 | 1486141843.96343 | pgbench_tellers_pkey  |            40960
 2017-02-03 18:10:43.963429+01 | 1486141843.96343 | pgbench_accounts_pkey |        224641024

 2017-02-03 18:10:45.056475+01 | 1486141845.05647 | pgbench_branches_pkey |            16384
 2017-02-03 18:10:45.056475+01 | 1486141845.05647 | pgbench_tellers_pkey  |            40960
 2017-02-03 18:10:45.056475+01 | 1486141845.05647 | pgbench_accounts_pkey |        224641024

 2017-02-03 18:10:46.151752+01 | 1486141846.15175 | pgbench_branches_pkey |            16384
 2017-02-03 18:10:46.151752+01 | 1486141846.15175 | pgbench_tellers_pkey  |            40960
 2017-02-03 18:10:46.151752+01 | 1486141846.15175 | pgbench_accounts_pkey |        224641024

 2017-02-03 18:10:47.252063+01 | 1486141847.25206 | pgbench_branches_pkey |            16384
 2017-02-03 18:10:47.252063+01 | 1486141847.25206 | pgbench_tellers_pkey  |            40960
 2017-02-03 18:10:47.252063+01 | 1486141847.25206 | pgbench_accounts_pkey |        224641024

 2017-02-03 18:10:48.347947+01 | 1486141848.34795 | pgbench_branches_pkey |            16384
 2017-02-03 18:10:48.347947+01 | 1486141848.34795 | pgbench_tellers_pkey  |            40960
 2017-02-03 18:10:48.347947+01 | 1486141848.34795 | pgbench_accounts_pkey |        224641024

 2017-02-03 18:10:49.449839+01 | 1486141849.44984 | pgbench_branches_pkey |            16384
 2017-02-03 18:10:49.449839+01 | 1486141849.44984 | pgbench_tellers_pkey  |            40960
 2017-02-03 18:10:49.449839+01 | 1486141849.44984 | pgbench_accounts_pkey |        224641024

 2017-02-03 18:10:50.552876+01 | 1486141850.55288 | pgbench_branches_pkey |            16384
 2017-02-03 18:10:50.552876+01 | 1486141850.55288 | pgbench_tellers_pkey  |            40960
 2017-02-03 18:10:50.552876+01 | 1486141850.55288 | pgbench_accounts_pkey |        224641024

 2017-02-03 18:10:51.6495+01 | 1486141851.6495 | pgbench_branches_pkey |            16384
 2017-02-03 18:10:51.6495+01 | 1486141851.6495 | pgbench_tellers_pkey  |            40960
 2017-02-03 18:10:51.6495+01 | 1486141851.6495 | pgbench_accounts_pkey |        224641024

 2017-02-03 18:10:52.737279+01 | 1486141852.73728 | pgbench_branches_pkey |            16384
 2017-02-03 18:10:52.737279+01 | 1486141852.73728 | pgbench_tellers_pkey  |            40960
 2017-02-03 18:10:52.737279+01 | 1486141852.73728 | pgbench_accounts_pkey |        224641024

 2017-02-03 18:10:53.826847+01 | 1486141853.82685 | pgbench_branches_pkey |            16384
 2017-02-03 18:10:53.826847+01 | 1486141853.82685 | pgbench_tellers_pkey  |            40960
 2017-02-03 18:10:53.826847+01 | 1486141853.82685 | pgbench_accounts_pkey |        224641024

 2017-02-03 18:10:54.913934+01 | 1486141854.91393 | pgbench_branches_pkey |            16384
 2017-02-03 18:10:54.913934+01 | 1486141854.91393 | pgbench_tellers_pkey  |            40960
 2017-02-03 18:10:54.913934+01 | 1486141854.91393 | pgbench_accounts_pkey |        224641024

 2017-02-03 18:10:56.011295+01 | 1486141856.0113 | pgbench_branches_pkey |            16384
 2017-02-03 18:10:56.011295+01 | 1486141856.0113 | pgbench_tellers_pkey  |            40960
 2017-02-03 18:10:56.011295+01 | 1486141856.0113 | pgbench_accounts_pkey |        224641024

 2017-02-03 18:10:57.110341+01 | 1486141857.11034 | pgbench_branches_pkey |            16384
 2017-02-03 18:10:57.110341+01 | 1486141857.11034 | pgbench_tellers_pkey  |            40960
 2017-02-03 18:10:57.110341+01 | 1486141857.11034 | pgbench_accounts_pkey |        224641024

 2017-02-03 18:10:58.216866+01 | 1486141858.21687 | pgbench_branches_pkey |            16384
 2017-02-03 18:10:58.216866+01 | 1486141858.21687 | pgbench_tellers_pkey  |            40960
 2017-02-03 18:10:58.216866+01 | 1486141858.21687 | pgbench_accounts_pkey |        224641024

 2017-02-03 18:10:59.307473+01 | 1486141859.30747 | pgbench_branches_pkey |            16384
 2017-02-03 18:10:59.307473+01 | 1486141859.30747 | pgbench_tellers_pkey  |            40960
 2017-02-03 18:10:59.307473+01 | 1486141859.30747 | pgbench_accounts_pkey |        224641024

 2017-02-03 18:11:00.4074+01 | 1486141860.4074 | pgbench_branches_pkey |            16384
 2017-02-03 18:11:00.4074+01 | 1486141860.4074 | pgbench_tellers_pkey  |            40960
 2017-02-03 18:11:00.4074+01 | 1486141860.4074 | pgbench_accounts_pkey |        224641024

 2017-02-03 18:11:01.514593+01 | 1486141861.51459 | pgbench_branches_pkey |            16384
 2017-02-03 18:11:01.514593+01 | 1486141861.51459 | pgbench_tellers_pkey  |            40960
 2017-02-03 18:11:01.514593+01 | 1486141861.51459 | pgbench_accounts_pkey |        224641024

 2017-02-03 18:11:02.604656+01 | 1486141862.60466 | pgbench_branches_pkey |            16384
 2017-02-03 18:11:02.604656+01 | 1486141862.60466 | pgbench_tellers_pkey  |            40960
 2017-02-03 18:11:02.604656+01 | 1486141862.60466 | pgbench_accounts_pkey |        224641024

 2017-02-03 18:11:03.690103+01 | 1486141863.6901 | pgbench_branches_pkey |            16384
 2017-02-03 18:11:03.690103+01 | 1486141863.6901 | pgbench_tellers_pkey  |            40960
 2017-02-03 18:11:03.690103+01 | 1486141863.6901 | pgbench_accounts_pkey |        224641024

 2017-02-03 18:11:04.776381+01 | 1486141864.77638 | pgbench_branches_pkey |            16384
 2017-02-03 18:11:04.776381+01 | 1486141864.77638 | pgbench_tellers_pkey  |            40960
 2017-02-03 18:11:04.776381+01 | 1486141864.77638 | pgbench_accounts_pkey |        224641024

 2017-02-03 18:11:05.859981+01 | 1486141865.85998 | pgbench_branches_pkey |            16384
 2017-02-03 18:11:05.859981+01 | 1486141865.85998 | pgbench_tellers_pkey  |            40960
 2017-02-03 18:11:05.859981+01 | 1486141865.85998 | pgbench_accounts_pkey |        224641024

 2017-02-03 18:11:06.960131+01 | 1486141866.96013 | pgbench_branches_pkey |            16384
 2017-02-03 18:11:06.960131+01 | 1486141866.96013 | pgbench_tellers_pkey  |            40960
 2017-02-03 18:11:06.960131+01 | 1486141866.96013 | pgbench_accounts_pkey |        224641024

 2017-02-03 18:11:08.05185+01 | 1486141868.05185 | pgbench_branches_pkey |            16384
 2017-02-03 18:11:08.05185+01 | 1486141868.05185 | pgbench_tellers_pkey  |            40960
 2017-02-03 18:11:08.05185+01 | 1486141868.05185 | pgbench_accounts_pkey |        224641024

 2017-02-03 18:11:09.142546+01 | 1486141869.14255 | pgbench_branches_pkey |            16384
 2017-02-03 18:11:09.142546+01 | 1486141869.14255 | pgbench_tellers_pkey  |            40960
 2017-02-03 18:11:09.142546+01 | 1486141869.14255 | pgbench_accounts_pkey |        224641024

 2017-02-03 18:11:10.24885+01 | 1486141870.24885 | pgbench_branches_pkey |            16384
 2017-02-03 18:11:10.24885+01 | 1486141870.24885 | pgbench_tellers_pkey  |            40960
 2017-02-03 18:11:10.24885+01 | 1486141870.24885 | pgbench_accounts_pkey |        224641024

 2017-02-03 18:11:11.35325+01 | 1486141871.35325 | pgbench_branches_pkey |            16384
 2017-02-03 18:11:11.35325+01 | 1486141871.35325 | pgbench_tellers_pkey  |            40960
 2017-02-03 18:11:11.35325+01 | 1486141871.35325 | pgbench_accounts_pkey |        224641024

 2017-02-03 18:11:12.450428+01 | 1486141872.45043 | pgbench_branches_pkey |            16384
 2017-02-03 18:11:12.450428+01 | 1486141872.45043 | pgbench_tellers_pkey  |            40960
 2017-02-03 18:11:12.450428+01 | 1486141872.45043 | pgbench_accounts_pkey |        224641024

 2017-02-03 18:11:13.562536+01 | 1486141873.56254 | pgbench_branches_pkey |            16384
 2017-02-03 18:11:13.562536+01 | 1486141873.56254 | pgbench_tellers_pkey  |            40960
 2017-02-03 18:11:13.562536+01 | 1486141873.56254 | pgbench_accounts_pkey |        224641024

 2017-02-03 18:11:14.645868+01 | 1486141874.64587 | pgbench_branches_pkey |            16384
 2017-02-03 18:11:14.645868+01 | 1486141874.64587 | pgbench_tellers_pkey  |            40960
 2017-02-03 18:11:14.645868+01 | 1486141874.64587 | pgbench_accounts_pkey |        224641024

 2017-02-03 18:11:15.730572+01 | 1486141875.73057 | pgbench_branches_pkey |            16384
 2017-02-03 18:11:15.730572+01 | 1486141875.73057 | pgbench_tellers_pkey  |            40960
 2017-02-03 18:11:15.730572+01 | 1486141875.73057 | pgbench_accounts_pkey |        224641024

 2017-02-03 18:11:16.810788+01 | 1486141876.81079 | pgbench_branches_pkey |            16384
 2017-02-03 18:11:16.810788+01 | 1486141876.81079 | pgbench_tellers_pkey  |            40960
 2017-02-03 18:11:16.810788+01 | 1486141876.81079 | pgbench_accounts_pkey |        224641024

 2017-02-03 18:11:17.894237+01 | 1486141877.89424 | pgbench_branches_pkey |            16384
 2017-02-03 18:11:17.894237+01 | 1486141877.89424 | pgbench_tellers_pkey  |            40960
 2017-02-03 18:11:17.894237+01 | 1486141877.89424 | pgbench_accounts_pkey |        224641024

 2017-02-03 18:11:18.980105+01 | 1486141878.9801 | pgbench_branches_pkey |            16384
 2017-02-03 18:11:18.980105+01 | 1486141878.9801 | pgbench_tellers_pkey  |            40960
 2017-02-03 18:11:18.980105+01 | 1486141878.9801 | pgbench_accounts_pkey |        224641024

 2017-02-03 18:11:20.060296+01 | 1486141880.0603 | pgbench_branches_pkey |            16384
 2017-02-03 18:11:20.060296+01 | 1486141880.0603 | pgbench_tellers_pkey  |            40960
 2017-02-03 18:11:20.060296+01 | 1486141880.0603 | pgbench_accounts_pkey |        224641024

 2017-02-03 18:11:21.152495+01 | 1486141881.15249 | pgbench_branches_pkey |            16384
 2017-02-03 18:11:21.152495+01 | 1486141881.15249 | pgbench_tellers_pkey  |            40960
 2017-02-03 18:11:21.152495+01 | 1486141881.15249 | pgbench_accounts_pkey |        224641024

 2017-02-03 18:11:22.243345+01 | 1486141882.24335 | pgbench_branches_pkey |            16384
 2017-02-03 18:11:22.243345+01 | 1486141882.24335 | pgbench_tellers_pkey  |            40960
 2017-02-03 18:11:22.243345+01 | 1486141882.24335 | pgbench_accounts_pkey |        224641024

 2017-02-03 18:11:23.346225+01 | 1486141883.34623 | pgbench_branches_pkey |            16384
 2017-02-03 18:11:23.346225+01 | 1486141883.34623 | pgbench_tellers_pkey  |            40960
 2017-02-03 18:11:23.346225+01 | 1486141883.34623 | pgbench_accounts_pkey |        224641024

 2017-02-03 18:11:24.45781+01 | 1486141884.45781 | pgbench_branches_pkey |            16384
 2017-02-03 18:11:24.45781+01 | 1486141884.45781 | pgbench_tellers_pkey  |            40960
 2017-02-03 18:11:24.45781+01 | 1486141884.45781 | pgbench_accounts_pkey |        224641024

 2017-02-03 18:11:25.556827+01 | 1486141885.55683 | pgbench_branches_pkey |            16384
 2017-02-03 18:11:25.556827+01 | 1486141885.55683 | pgbench_tellers_pkey  |            40960
 2017-02-03 18:11:25.556827+01 | 1486141885.55683 | pgbench_accounts_pkey |        224641024

 2017-02-03 18:11:26.648046+01 | 1486141886.64805 | pgbench_branches_pkey |            16384
 2017-02-03 18:11:26.648046+01 | 1486141886.64805 | pgbench_tellers_pkey  |            40960
 2017-02-03 18:11:26.648046+01 | 1486141886.64805 | pgbench_accounts_pkey |        224641024

 2017-02-03 18:11:27.732504+01 | 1486141887.7325 | pgbench_branches_pkey |            16384
 2017-02-03 18:11:27.732504+01 | 1486141887.7325 | pgbench_tellers_pkey  |            40960
 2017-02-03 18:11:27.732504+01 | 1486141887.7325 | pgbench_accounts_pkey |        224641024

 2017-02-03 18:11:28.819828+01 | 1486141888.81983 | pgbench_branches_pkey |            16384
 2017-02-03 18:11:28.819828+01 | 1486141888.81983 | pgbench_tellers_pkey  |            40960
 2017-02-03 18:11:28.819828+01 | 1486141888.81983 | pgbench_accounts_pkey |        224641024

 2017-02-03 18:11:29.901425+01 | 1486141889.90142 | pgbench_branches_pkey |            16384
 2017-02-03 18:11:29.901425+01 | 1486141889.90142 | pgbench_tellers_pkey  |            40960
 2017-02-03 18:11:29.901425+01 | 1486141889.90142 | pgbench_accounts_pkey |        224641024

 2017-02-03 18:11:30.990837+01 | 1486141890.99084 | pgbench_branches_pkey |            16384
 2017-02-03 18:11:30.990837+01 | 1486141890.99084 | pgbench_tellers_pkey  |            40960
 2017-02-03 18:11:30.990837+01 | 1486141890.99084 | pgbench_accounts_pkey |        224641024

 2017-02-03 18:11:32.085542+01 | 1486141892.08554 | pgbench_branches_pkey |            16384
 2017-02-03 18:11:32.085542+01 | 1486141892.08554 | pgbench_tellers_pkey  |            40960
 2017-02-03 18:11:32.085542+01 | 1486141892.08554 | pgbench_accounts_pkey |        224641024

 2017-02-03 18:11:33.17895+01 | 1486141893.17895 | pgbench_branches_pkey |            16384
 2017-02-03 18:11:33.17895+01 | 1486141893.17895 | pgbench_tellers_pkey  |            40960
 2017-02-03 18:11:33.17895+01 | 1486141893.17895 | pgbench_accounts_pkey |        224641024

 2017-02-03 18:11:34.272982+01 | 1486141894.27298 | pgbench_branches_pkey |            16384
 2017-02-03 18:11:34.272982+01 | 1486141894.27298 | pgbench_tellers_pkey  |            40960
 2017-02-03 18:11:34.272982+01 | 1486141894.27298 | pgbench_accounts_pkey |        224641024

 2017-02-03 18:11:35.366733+01 | 1486141895.36673 | pgbench_branches_pkey |            16384
 2017-02-03 18:11:35.366733+01 | 1486141895.36673 | pgbench_tellers_pkey  |            40960
 2017-02-03 18:11:35.366733+01 | 1486141895.36673 | pgbench_accounts_pkey |        224641024

 2017-02-03 18:11:36.470326+01 | 1486141896.47033 | pgbench_branches_pkey |            16384
 2017-02-03 18:11:36.470326+01 | 1486141896.47033 | pgbench_tellers_pkey  |            40960
 2017-02-03 18:11:36.470326+01 | 1486141896.47033 | pgbench_accounts_pkey |        224641024

 2017-02-03 18:11:37.562959+01 | 1486141897.56296 | pgbench_branches_pkey |            16384
 2017-02-03 18:11:37.562959+01 | 1486141897.56296 | pgbench_tellers_pkey  |            40960
 2017-02-03 18:11:37.562959+01 | 1486141897.56296 | pgbench_accounts_pkey |        224641024

 2017-02-03 18:11:38.662932+01 | 1486141898.66293 | pgbench_branches_pkey |            16384
 2017-02-03 18:11:38.662932+01 | 1486141898.66293 | pgbench_tellers_pkey  |            40960
 2017-02-03 18:11:38.662932+01 | 1486141898.66293 | pgbench_accounts_pkey |        224641024

 2017-02-03 18:11:39.753411+01 | 1486141899.75341 | pgbench_branches_pkey |            16384
 2017-02-03 18:11:39.753411+01 | 1486141899.75341 | pgbench_tellers_pkey  |            40960
 2017-02-03 18:11:39.753411+01 | 1486141899.75341 | pgbench_accounts_pkey |        224641024

 2017-02-03 18:11:40.835915+01 | 1486141900.83592 | pgbench_branches_pkey |            16384
 2017-02-03 18:11:40.835915+01 | 1486141900.83592 | pgbench_tellers_pkey  |            40960
 2017-02-03 18:11:40.835915+01 | 1486141900.83592 | pgbench_accounts_pkey |        224641024

 2017-02-03 18:11:41.918263+01 | 1486141901.91826 | pgbench_branches_pkey |            16384
 2017-02-03 18:11:41.918263+01 | 1486141901.91826 | pgbench_tellers_pkey  |            40960
 2017-02-03 18:11:41.918263+01 | 1486141901.91826 | pgbench_accounts_pkey |        224641024

 2017-02-03 18:11:43.015248+01 | 1486141903.01525 | pgbench_branches_pkey |            16384
 2017-02-03 18:11:43.015248+01 | 1486141903.01525 | pgbench_tellers_pkey  |            40960
 2017-02-03 18:11:43.015248+01 | 1486141903.01525 | pgbench_accounts_pkey |        224641024

 2017-02-03 18:11:44.114+01 | 1486141904.114 | pgbench_branches_pkey |            16384
 2017-02-03 18:11:44.114+01 | 1486141904.114 | pgbench_tellers_pkey  |            40960
 2017-02-03 18:11:44.114+01 | 1486141904.114 | pgbench_accounts_pkey |        224641024

 2017-02-03 18:11:45.206956+01 | 1486141905.20696 | pgbench_branches_pkey |            16384
 2017-02-03 18:11:45.206956+01 | 1486141905.20696 | pgbench_tellers_pkey  |            40960
 2017-02-03 18:11:45.206956+01 | 1486141905.20696 | pgbench_accounts_pkey |        224641024

 2017-02-03 18:11:46.298573+01 | 1486141906.29857 | pgbench_branches_pkey |            16384
 2017-02-03 18:11:46.298573+01 | 1486141906.29857 | pgbench_tellers_pkey  |            40960
 2017-02-03 18:11:46.298573+01 | 1486141906.29857 | pgbench_accounts_pkey |        224641024

 2017-02-03 18:11:47.3916+01 | 1486141907.3916 | pgbench_branches_pkey |            16384
 2017-02-03 18:11:47.3916+01 | 1486141907.3916 | pgbench_tellers_pkey  |            40960
 2017-02-03 18:11:47.3916+01 | 1486141907.3916 | pgbench_accounts_pkey |        224641024

 2017-02-03 18:11:48.485128+01 | 1486141908.48513 | pgbench_branches_pkey |            16384
 2017-02-03 18:11:48.485128+01 | 1486141908.48513 | pgbench_tellers_pkey  |            40960
 2017-02-03 18:11:48.485128+01 | 1486141908.48513 | pgbench_accounts_pkey |        224641024

 2017-02-03 18:11:49.581175+01 | 1486141909.58118 | pgbench_branches_pkey |            16384
 2017-02-03 18:11:49.581175+01 | 1486141909.58118 | pgbench_tellers_pkey  |            40960
 2017-02-03 18:11:49.581175+01 | 1486141909.58118 | pgbench_accounts_pkey |        224641024

 2017-02-03 18:11:50.669933+01 | 1486141910.66993 | pgbench_branches_pkey |            16384
 2017-02-03 18:11:50.669933+01 | 1486141910.66993 | pgbench_tellers_pkey  |            40960
 2017-02-03 18:11:50.669933+01 | 1486141910.66993 | pgbench_accounts_pkey |        224641024

 2017-02-03 18:11:51.75479+01 | 1486141911.75479 | pgbench_branches_pkey |            16384
 2017-02-03 18:11:51.75479+01 | 1486141911.75479 | pgbench_tellers_pkey  |            40960
 2017-02-03 18:11:51.75479+01 | 1486141911.75479 | pgbench_accounts_pkey |        224641024

 2017-02-03 18:11:52.840241+01 | 1486141912.84024 | pgbench_branches_pkey |            16384
 2017-02-03 18:11:52.840241+01 | 1486141912.84024 | pgbench_tellers_pkey  |            40960
 2017-02-03 18:11:52.840241+01 | 1486141912.84024 | pgbench_accounts_pkey |        224641024

 2017-02-03 18:11:53.920417+01 | 1486141913.92042 | pgbench_branches_pkey |            16384
 2017-02-03 18:11:53.920417+01 | 1486141913.92042 | pgbench_tellers_pkey  |            40960
 2017-02-03 18:11:53.920417+01 | 1486141913.92042 | pgbench_accounts_pkey |        224641024

 2017-02-03 18:11:54.99799+01 | 1486141914.99799 | pgbench_branches_pkey |            16384
 2017-02-03 18:11:54.99799+01 | 1486141914.99799 | pgbench_tellers_pkey  |            40960
 2017-02-03 18:11:54.99799+01 | 1486141914.99799 | pgbench_accounts_pkey |        224641024

 2017-02-03 18:11:56.093578+01 | 1486141916.09358 | pgbench_branches_pkey |            16384
 2017-02-03 18:11:56.093578+01 | 1486141916.09358 | pgbench_tellers_pkey  |            40960
 2017-02-03 18:11:56.093578+01 | 1486141916.09358 | pgbench_accounts_pkey |        224641024

 2017-02-03 18:11:57.195551+01 | 1486141917.19555 | pgbench_branches_pkey |            16384
 2017-02-03 18:11:57.195551+01 | 1486141917.19555 | pgbench_tellers_pkey  |            40960
 2017-02-03 18:11:57.195551+01 | 1486141917.19555 | pgbench_accounts_pkey |        224641024

 2017-02-03 18:11:58.288449+01 | 1486141918.28845 | pgbench_branches_pkey |            16384
 2017-02-03 18:11:58.288449+01 | 1486141918.28845 | pgbench_tellers_pkey  |            40960
 2017-02-03 18:11:58.288449+01 | 1486141918.28845 | pgbench_accounts_pkey |        224641024

 2017-02-03 18:11:59.404669+01 | 1486141919.40467 | pgbench_branches_pkey |            16384
 2017-02-03 18:11:59.404669+01 | 1486141919.40467 | pgbench_tellers_pkey  |            40960
 2017-02-03 18:11:59.404669+01 | 1486141919.40467 | pgbench_accounts_pkey |        224641024

 2017-02-03 18:12:00.503058+01 | 1486141920.50306 | pgbench_branches_pkey |            16384
 2017-02-03 18:12:00.503058+01 | 1486141920.50306 | pgbench_tellers_pkey  |            40960
 2017-02-03 18:12:00.503058+01 | 1486141920.50306 | pgbench_accounts_pkey |        224641024

 2017-02-03 18:12:01.590687+01 | 1486141921.59069 | pgbench_branches_pkey |            16384
 2017-02-03 18:12:01.590687+01 | 1486141921.59069 | pgbench_tellers_pkey  |            40960
 2017-02-03 18:12:01.590687+01 | 1486141921.59069 | pgbench_accounts_pkey |        224641024

 2017-02-03 18:12:02.686645+01 | 1486141922.68665 | pgbench_branches_pkey |            16384
 2017-02-03 18:12:02.686645+01 | 1486141922.68665 | pgbench_tellers_pkey  |            40960
 2017-02-03 18:12:02.686645+01 | 1486141922.68665 | pgbench_accounts_pkey |        224641024

 2017-02-03 18:12:03.778509+01 | 1486141923.77851 | pgbench_branches_pkey |            16384
 2017-02-03 18:12:03.778509+01 | 1486141923.77851 | pgbench_tellers_pkey  |            40960
 2017-02-03 18:12:03.778509+01 | 1486141923.77851 | pgbench_accounts_pkey |        224641024

 2017-02-03 18:12:04.859164+01 | 1486141924.85916 | pgbench_branches_pkey |            16384
 2017-02-03 18:12:04.859164+01 | 1486141924.85916 | pgbench_tellers_pkey  |            40960
 2017-02-03 18:12:04.859164+01 | 1486141924.85916 | pgbench_accounts_pkey |        224641024

 2017-02-03 18:12:05.95001+01 | 1486141925.95001 | pgbench_branches_pkey |            16384
 2017-02-03 18:12:05.95001+01 | 1486141925.95001 | pgbench_tellers_pkey  |            40960
 2017-02-03 18:12:05.95001+01 | 1486141925.95001 | pgbench_accounts_pkey |        224641024

 2017-02-03 18:12:07.054349+01 | 1486141927.05435 | pgbench_branches_pkey |            16384
 2017-02-03 18:12:07.054349+01 | 1486141927.05435 | pgbench_tellers_pkey  |            40960
 2017-02-03 18:12:07.054349+01 | 1486141927.05435 | pgbench_accounts_pkey |        224641024

 2017-02-03 18:12:08.145121+01 | 1486141928.14512 | pgbench_branches_pkey |            16384
 2017-02-03 18:12:08.145121+01 | 1486141928.14512 | pgbench_tellers_pkey  |            40960
 2017-02-03 18:12:08.145121+01 | 1486141928.14512 | pgbench_accounts_pkey |        224641024

 2017-02-03 18:12:09.240042+01 | 1486141929.24004 | pgbench_branches_pkey |            16384
 2017-02-03 18:12:09.240042+01 | 1486141929.24004 | pgbench_tellers_pkey  |            40960
 2017-02-03 18:12:09.240042+01 | 1486141929.24004 | pgbench_accounts_pkey |        224641024

 2017-02-03 18:12:10.347528+01 | 1486141930.34753 | pgbench_branches_pkey |            16384
 2017-02-03 18:12:10.347528+01 | 1486141930.34753 | pgbench_tellers_pkey  |            40960
 2017-02-03 18:12:10.347528+01 | 1486141930.34753 | pgbench_accounts_pkey |        224641024

 2017-02-03 18:12:11.445322+01 | 1486141931.44532 | pgbench_branches_pkey |            16384
 2017-02-03 18:12:11.445322+01 | 1486141931.44532 | pgbench_tellers_pkey  |            40960
 2017-02-03 18:12:11.445322+01 | 1486141931.44532 | pgbench_accounts_pkey |        224641024

 2017-02-03 18:12:12.536541+01 | 1486141932.53654 | pgbench_branches_pkey |            16384
 2017-02-03 18:12:12.536541+01 | 1486141932.53654 | pgbench_tellers_pkey  |            40960
 2017-02-03 18:12:12.536541+01 | 1486141932.53654 | pgbench_accounts_pkey |        224641024

 2017-02-03 18:12:13.638015+01 | 1486141933.63802 | pgbench_branches_pkey |            16384
 2017-02-03 18:12:13.638015+01 | 1486141933.63802 | pgbench_tellers_pkey  |            40960
 2017-02-03 18:12:13.638015+01 | 1486141933.63802 | pgbench_accounts_pkey |        224641024

 2017-02-03 18:12:14.729966+01 | 1486141934.72997 | pgbench_branches_pkey |            16384
 2017-02-03 18:12:14.729966+01 | 1486141934.72997 | pgbench_tellers_pkey  |            40960
 2017-02-03 18:12:14.729966+01 | 1486141934.72997 | pgbench_accounts_pkey |        224641024

 2017-02-03 18:12:15.812381+01 | 1486141935.81238 | pgbench_branches_pkey |            16384
 2017-02-03 18:12:15.812381+01 | 1486141935.81238 | pgbench_tellers_pkey  |            40960
 2017-02-03 18:12:15.812381+01 | 1486141935.81238 | pgbench_accounts_pkey |        224641024

 2017-02-03 18:12:16.899541+01 | 1486141936.89954 | pgbench_branches_pkey |            16384
 2017-02-03 18:12:16.899541+01 | 1486141936.89954 | pgbench_tellers_pkey  |            40960
 2017-02-03 18:12:16.899541+01 | 1486141936.89954 | pgbench_accounts_pkey |        224641024

 2017-02-03 18:12:17.981882+01 | 1486141937.98188 | pgbench_branches_pkey |            16384
 2017-02-03 18:12:17.981882+01 | 1486141937.98188 | pgbench_tellers_pkey  |            40960
 2017-02-03 18:12:17.981882+01 | 1486141937.98188 | pgbench_accounts_pkey |        224641024

 2017-02-03 18:12:19.075187+01 | 1486141939.07519 | pgbench_branches_pkey |            16384
 2017-02-03 18:12:19.075187+01 | 1486141939.07519 | pgbench_tellers_pkey  |            40960
 2017-02-03 18:12:19.075187+01 | 1486141939.07519 | pgbench_accounts_pkey |        224641024

 2017-02-03 18:12:20.170478+01 | 1486141940.17048 | pgbench_branches_pkey |            16384
 2017-02-03 18:12:20.170478+01 | 1486141940.17048 | pgbench_tellers_pkey  |            40960
 2017-02-03 18:12:20.170478+01 | 1486141940.17048 | pgbench_accounts_pkey |        224641024

 2017-02-03 18:12:21.281952+01 | 1486141941.28195 | pgbench_branches_pkey |            16384
 2017-02-03 18:12:21.281952+01 | 1486141941.28195 | pgbench_tellers_pkey  |            40960
 2017-02-03 18:12:21.281952+01 | 1486141941.28195 | pgbench_accounts_pkey |        224641024

 2017-02-03 18:12:22.369733+01 | 1486141942.36973 | pgbench_branches_pkey |            16384
 2017-02-03 18:12:22.369733+01 | 1486141942.36973 | pgbench_tellers_pkey  |            40960
 2017-02-03 18:12:22.369733+01 | 1486141942.36973 | pgbench_accounts_pkey |        224641024

 2017-02-03 18:12:23.455771+01 | 1486141943.45577 | pgbench_branches_pkey |            16384
 2017-02-03 18:12:23.455771+01 | 1486141943.45577 | pgbench_tellers_pkey  |            40960
 2017-02-03 18:12:23.455771+01 | 1486141943.45577 | pgbench_accounts_pkey |        224641024

 2017-02-03 18:12:24.544578+01 | 1486141944.54458 | pgbench_branches_pkey |            16384
 2017-02-03 18:12:24.544578+01 | 1486141944.54458 | pgbench_tellers_pkey  |            40960
 2017-02-03 18:12:24.544578+01 | 1486141944.54458 | pgbench_accounts_pkey |        224641024

 2017-02-03 18:12:25.632528+01 | 1486141945.63253 | pgbench_branches_pkey |            16384
 2017-02-03 18:12:25.632528+01 | 1486141945.63253 | pgbench_tellers_pkey  |            40960
 2017-02-03 18:12:25.632528+01 | 1486141945.63253 | pgbench_accounts_pkey |        224641024

 2017-02-03 18:12:26.733101+01 | 1486141946.7331 | pgbench_branches_pkey |            16384
 2017-02-03 18:12:26.733101+01 | 1486141946.7331 | pgbench_tellers_pkey  |            40960
 2017-02-03 18:12:26.733101+01 | 1486141946.7331 | pgbench_accounts_pkey |        224641024

 2017-02-03 18:12:27.817507+01 | 1486141947.81751 | pgbench_branches_pkey |            16384
 2017-02-03 18:12:27.817507+01 | 1486141947.81751 | pgbench_tellers_pkey  |            40960
 2017-02-03 18:12:27.817507+01 | 1486141947.81751 | pgbench_accounts_pkey |        224641024

 2017-02-03 18:12:28.904189+01 | 1486141948.90419 | pgbench_branches_pkey |            16384
 2017-02-03 18:12:28.904189+01 | 1486141948.90419 | pgbench_tellers_pkey  |            40960
 2017-02-03 18:12:28.904189+01 | 1486141948.90419 | pgbench_accounts_pkey |        224641024

 2017-02-03 18:12:29.996002+01 | 1486141949.996 | pgbench_branches_pkey |            16384
 2017-02-03 18:12:29.996002+01 | 1486141949.996 | pgbench_tellers_pkey  |            40960
 2017-02-03 18:12:29.996002+01 | 1486141949.996 | pgbench_accounts_pkey |        224641024

 2017-02-03 18:12:31.08504+01 | 1486141951.08504 | pgbench_branches_pkey |            16384
 2017-02-03 18:12:31.08504+01 | 1486141951.08504 | pgbench_tellers_pkey  |            40960
 2017-02-03 18:12:31.08504+01 | 1486141951.08504 | pgbench_accounts_pkey |        224641024

 2017-02-03 18:12:32.185474+01 | 1486141952.18547 | pgbench_branches_pkey |            16384
 2017-02-03 18:12:32.185474+01 | 1486141952.18547 | pgbench_tellers_pkey  |            40960
 2017-02-03 18:12:32.185474+01 | 1486141952.18547 | pgbench_accounts_pkey |        224641024

 2017-02-03 18:12:33.279637+01 | 1486141953.27964 | pgbench_branches_pkey |            16384
 2017-02-03 18:12:33.279637+01 | 1486141953.27964 | pgbench_tellers_pkey  |            40960
 2017-02-03 18:12:33.279637+01 | 1486141953.27964 | pgbench_accounts_pkey |        224641024

 2017-02-03 18:12:34.367915+01 | 1486141954.36791 | pgbench_branches_pkey |            16384
 2017-02-03 18:12:34.367915+01 | 1486141954.36791 | pgbench_tellers_pkey  |            40960
 2017-02-03 18:12:34.367915+01 | 1486141954.36791 | pgbench_accounts_pkey |        224641024

 2017-02-03 18:12:35.462942+01 | 1486141955.46294 | pgbench_branches_pkey |            16384
 2017-02-03 18:12:35.462942+01 | 1486141955.46294 | pgbench_tellers_pkey  |            40960
 2017-02-03 18:12:35.462942+01 | 1486141955.46294 | pgbench_accounts_pkey |        224641024

 2017-02-03 18:12:36.554795+01 | 1486141956.5548 | pgbench_branches_pkey |            16384
 2017-02-03 18:12:36.554795+01 | 1486141956.5548 | pgbench_tellers_pkey  |            40960
 2017-02-03 18:12:36.554795+01 | 1486141956.5548 | pgbench_accounts_pkey |        224641024

 2017-02-03 18:12:37.650719+01 | 1486141957.65072 | pgbench_branches_pkey |            16384
 2017-02-03 18:12:37.650719+01 | 1486141957.65072 | pgbench_tellers_pkey  |            40960
 2017-02-03 18:12:37.650719+01 | 1486141957.65072 | pgbench_accounts_pkey |        224641024

 2017-02-03 18:12:38.744752+01 | 1486141958.74475 | pgbench_branches_pkey |            16384
 2017-02-03 18:12:38.744752+01 | 1486141958.74475 | pgbench_tellers_pkey  |            40960
 2017-02-03 18:12:38.744752+01 | 1486141958.74475 | pgbench_accounts_pkey |        224641024

 2017-02-03 18:12:39.833707+01 | 1486141959.83371 | pgbench_branches_pkey |            16384
 2017-02-03 18:12:39.833707+01 | 1486141959.83371 | pgbench_tellers_pkey  |            40960
 2017-02-03 18:12:39.833707+01 | 1486141959.83371 | pgbench_accounts_pkey |        224641024

 2017-02-03 18:12:40.908517+01 | 1486141960.90852 | pgbench_branches_pkey |            16384
 2017-02-03 18:12:40.908517+01 | 1486141960.90852 | pgbench_tellers_pkey  |            40960
 2017-02-03 18:12:40.908517+01 | 1486141960.90852 | pgbench_accounts_pkey |        224641024

 2017-02-03 18:12:41.999105+01 | 1486141961.9991 | pgbench_branches_pkey |            16384
 2017-02-03 18:12:41.999105+01 | 1486141961.9991 | pgbench_tellers_pkey  |            40960
 2017-02-03 18:12:41.999105+01 | 1486141961.9991 | pgbench_accounts_pkey |        224641024

 2017-02-03 18:12:43.100985+01 | 1486141963.10099 | pgbench_branches_pkey |            16384
 2017-02-03 18:12:43.100985+01 | 1486141963.10099 | pgbench_tellers_pkey  |            40960
 2017-02-03 18:12:43.100985+01 | 1486141963.10099 | pgbench_accounts_pkey |        224641024

 2017-02-03 18:12:44.209234+01 | 1486141964.20923 | pgbench_branches_pkey |            16384
 2017-02-03 18:12:44.209234+01 | 1486141964.20923 | pgbench_tellers_pkey  |            40960
 2017-02-03 18:12:44.209234+01 | 1486141964.20923 | pgbench_accounts_pkey |        224641024

 2017-02-03 18:12:45.30306+01 | 1486141965.30306 | pgbench_branches_pkey |            16384
 2017-02-03 18:12:45.30306+01 | 1486141965.30306 | pgbench_tellers_pkey  |            40960
 2017-02-03 18:12:45.30306+01 | 1486141965.30306 | pgbench_accounts_pkey |        224641024

 2017-02-03 18:12:46.389964+01 | 1486141966.38996 | pgbench_branches_pkey |            16384
 2017-02-03 18:12:46.389964+01 | 1486141966.38996 | pgbench_tellers_pkey  |            40960
 2017-02-03 18:12:46.389964+01 | 1486141966.38996 | pgbench_accounts_pkey |        224641024

 2017-02-03 18:12:47.490002+01 | 1486141967.49 | pgbench_branches_pkey |            16384
 2017-02-03 18:12:47.490002+01 | 1486141967.49 | pgbench_tellers_pkey  |            40960
 2017-02-03 18:12:47.490002+01 | 1486141967.49 | pgbench_accounts_pkey |        224641024

 2017-02-03 18:12:48.591936+01 | 1486141968.59194 | pgbench_branches_pkey |            16384
 2017-02-03 18:12:48.591936+01 | 1486141968.59194 | pgbench_tellers_pkey  |            40960
 2017-02-03 18:12:48.591936+01 | 1486141968.59194 | pgbench_accounts_pkey |        224641024

