 2017-02-05 09:29:20.250813+01 | 1486283360.25081 | 56/25BDE0A0              |          370000388256

 2017-02-05 09:29:21.333021+01 | 1486283361.33302 | 56/3075EB78              |          370180221816

 2017-02-05 09:29:22.415905+01 | 1486283362.4159 | 56/3C2EFD78              |          370376899960

 2017-02-05 09:29:23.49983+01 | 1486283363.49983 | 56/479073C0              |          370567836608

 2017-02-05 09:29:24.582061+01 | 1486283364.58206 | 56/5387D990              |          370768599440

 2017-02-05 09:29:25.67249+01 | 1486283365.67249 | 56/5F2F5408              |          370964124680

 2017-02-05 09:29:26.746339+01 | 1486283366.74634 | 56/6A697FD8              |          371152486360

 2017-02-05 09:29:27.828003+01 | 1486283367.828 | 56/74D8C4E8              |          371327550696

 2017-02-05 09:29:28.903836+01 | 1486283368.90384 | 56/7ECDB038              |          371494596664

 2017-02-05 09:29:29.982502+01 | 1486283369.9825 | 56/874969C8              |          371636922824

 2017-02-05 09:29:31.066566+01 | 1486283371.06657 | 56/9022C368              |          371785384808

 2017-02-05 09:29:32.159083+01 | 1486283372.15908 | 56/97D739D8              |          371914652120

 2017-02-05 09:29:33.242461+01 | 1486283373.24246 | 56/9E9B4D00              |          372028165376

 2017-02-05 09:29:34.325934+01 | 1486283374.32593 | 56/A6EE7CE0              |          372167834848

 2017-02-05 09:29:35.408997+01 | 1486283375.409 | 56/AEC4D990              |          372299323792

 2017-02-05 09:29:36.480284+01 | 1486283376.48028 | 56/B519AC00              |          372405545984

 2017-02-05 09:29:37.565675+01 | 1486283377.56568 | 56/BCA102A8              |          372531856040

 2017-02-05 09:29:38.640422+01 | 1486283378.64042 | 56/C3AB2BA0              |          372649962400

 2017-02-05 09:29:39.725048+01 | 1486283379.72505 | 56/CA2BE1A8              |          372759060904

 2017-02-05 09:29:40.801795+01 | 1486283380.8018 | 56/D0A14A30              |          372867418672

 2017-02-05 09:29:41.882642+01 | 1486283381.88264 | 56/D647F160              |          372962226528

 2017-02-05 09:29:42.962879+01 | 1486283382.96288 | 56/DD2B7318              |          373077799704

 2017-02-05 09:29:44.048068+01 | 1486283384.04807 | 56/E2F41938              |          373174835512

 2017-02-05 09:29:45.134308+01 | 1486283385.13431 | 56/E9554000              |          373281865728

 2017-02-05 09:29:46.214006+01 | 1486283386.21401 | 56/EF3A6380              |          373380768640

 2017-02-05 09:29:47.300079+01 | 1486283387.30008 | 56/F4C985A8              |          373474035112

 2017-02-05 09:29:48.374525+01 | 1486283388.37453 | 56/FA82CFB8              |          373570064312

 2017-02-05 09:29:49.454738+01 | 1486283389.45474 | 56/FFC3E7F8              |          373658216440

 2017-02-05 09:29:50.529686+01 | 1486283390.52969 | 57/47CEA80               |          373737450112

 2017-02-05 09:29:51.608889+01 | 1486283391.60889 | 57/91E9978               |          373815155064

 2017-02-05 09:29:52.699805+01 | 1486283392.69981 | 57/D6F9D98               |          373887573400

 2017-02-05 09:29:53.799226+01 | 1486283393.79923 | 57/12496C40              |          373968956480

 2017-02-05 09:29:54.897141+01 | 1486283394.89714 | 57/17EEF368              |          374063690600

 2017-02-05 09:29:55.974815+01 | 1486283395.97481 | 57/1CE61980              |          374146996608

 2017-02-05 09:29:57.06497+01 | 1486283397.06497 | 57/22084330              |          374233121584

 2017-02-05 09:29:58.144357+01 | 1486283398.14436 | 57/2770BD08              |          374323854600

 2017-02-05 09:29:59.213439+01 | 1486283399.21344 | 57/2C4D75F0              |          374405428720

 2017-02-05 09:30:00.291403+01 | 1486283400.2914 | 57/3145A2F8              |          374488802040

 2017-02-05 09:30:01.36771+01 | 1486283401.36771 | 57/34EFF688              |          374550296200

 2017-02-05 09:30:02.452534+01 | 1486283402.45253 | 57/3885D680              |          374610450048

 2017-02-05 09:30:03.529129+01 | 1486283403.52913 | 57/3CA693A0              |          374679704480

 2017-02-05 09:30:04.613736+01 | 1486283404.61374 | 57/40615A68              |          374742276712

 2017-02-05 09:30:05.703128+01 | 1486283405.70313 | 57/43ACEF90              |          374797561744

 2017-02-05 09:30:06.785965+01 | 1486283406.78596 | 57/470828A0              |          374853871776

 2017-02-05 09:30:07.86754+01 | 1486283407.86754 | 57/4BD198A8              |          374934182056

 2017-02-05 09:30:08.933362+01 | 1486283408.93336 | 57/4FD2C968              |          375001368936

 2017-02-05 09:30:10.018529+01 | 1486283410.01853 | 57/549C1D58              |          375081672024

 2017-02-05 09:30:11.089092+01 | 1486283411.08909 | 57/587C5460              |          375146697824

 2017-02-05 09:30:12.16757+01 | 1486283412.16757 | 57/5C8AA290              |          375214744208

 2017-02-05 09:30:13.246809+01 | 1486283413.24681 | 57/5F970498              |          375265887384

 2017-02-05 09:30:14.329492+01 | 1486283414.32949 | 57/632E39B0              |          375326128560

 2017-02-05 09:30:15.41011+01 | 1486283415.41011 | 57/6758B7F8              |          375396022264

 2017-02-05 09:30:16.489312+01 | 1486283416.48931 | 57/6B5EDBD0              |          375463533520

 2017-02-05 09:30:17.570098+01 | 1486283417.5701 | 57/6FDB18C0              |          375538784448

 2017-02-05 09:30:18.651195+01 | 1486283418.6512 | 57/7356AB90              |          375597214608

 2017-02-05 09:30:19.720422+01 | 1486283419.72042 | 57/76F44B58              |          375657876312

 2017-02-05 09:30:20.799578+01 | 1486283420.79958 | 57/7B3B2F70              |          375729631088

 2017-02-05 09:30:21.892236+01 | 1486283421.89224 | 57/7F69E8F8              |          375799802104

 2017-02-05 09:30:22.976985+01 | 1486283422.97698 | 57/835A0CC0              |          375865871552

 2017-02-05 09:30:24.051821+01 | 1486283424.05182 | 57/87440A88              |          375931538056

 2017-02-05 09:30:25.133142+01 | 1486283425.13314 | 57/8B496E50              |          375999000144

 2017-02-05 09:30:26.210587+01 | 1486283426.21059 | 57/8F6AE828              |          376068302888

 2017-02-05 09:30:27.295087+01 | 1486283427.29509 | 57/935C5A70              |          376134457968

 2017-02-05 09:30:28.37603+01 | 1486283428.37603 | 57/972DC838              |          376198514744

 2017-02-05 09:30:29.453396+01 | 1486283429.4534 | 57/9AB51C38              |          376257715256

 2017-02-05 09:30:30.540156+01 | 1486283430.54016 | 57/9D91E000              |          376305737728

 2017-02-05 09:30:31.626953+01 | 1486283431.62695 | 57/A0872EB0              |          376355368624

 2017-02-05 09:30:32.711752+01 | 1486283432.71175 | 57/A38E0000              |          376406147072

 2017-02-05 09:30:33.796346+01 | 1486283433.79635 | 57/A67548F8              |          376454859000

 2017-02-05 09:30:34.880448+01 | 1486283434.88045 | 57/A9770D08              |          376505306376

 2017-02-05 09:30:35.962633+01 | 1486283435.96263 | 57/AC4958B0              |          376552642736

 2017-02-05 09:30:37.044733+01 | 1486283437.04473 | 57/AF377EB8              |          376601804472

 2017-02-05 09:30:38.122713+01 | 1486283438.12271 | 57/B1E26C68              |          376646560872

 2017-02-05 09:30:39.214479+01 | 1486283439.21448 | 57/B52A0EF8              |          376701587192

 2017-02-05 09:30:40.288682+01 | 1486283440.28868 | 57/B86B8A08              |          376756210184

 2017-02-05 09:30:41.363054+01 | 1486283441.36305 | 57/BBF13530              |          376815301936

 2017-02-05 09:30:42.444457+01 | 1486283442.44446 | 57/BF8C7D68              |          376875810152

 2017-02-05 09:30:43.518927+01 | 1486283443.51893 | 57/C3213D30              |          376935890224

 2017-02-05 09:30:44.602888+01 | 1486283444.60289 | 57/C63DA910              |          376988084496

 2017-02-05 09:30:45.686959+01 | 1486283445.68696 | 57/C9E15258              |          377049141848

 2017-02-05 09:30:46.760172+01 | 1486283446.76017 | 57/CCC7E698              |          377097807512

 2017-02-05 09:30:47.841157+01 | 1486283447.84116 | 57/CF8B15F0              |          377144153584

 2017-02-05 09:30:48.920157+01 | 1486283448.92016 | 57/D2DF3A80              |          377199999616

 2017-02-05 09:30:49.99789+01 | 1486283449.99789 | 57/D53234C0              |          377238992064

 2017-02-05 09:30:51.075623+01 | 1486283451.07562 | 57/D8B21DF0              |          377297706480

 2017-02-05 09:30:52.153482+01 | 1486283452.15348 | 57/DC010000              |          377353207808

 2017-02-05 09:30:53.234865+01 | 1486283453.23486 | 57/DF79C7B8              |          377411454904

 2017-02-05 09:30:54.317535+01 | 1486283454.31753 | 57/E2865480              |          377462609024

 2017-02-05 09:30:55.395169+01 | 1486283455.39517 | 57/E5DE6328              |          377518711592

 2017-02-05 09:30:56.46879+01 | 1486283456.46879 | 57/E8DEE270              |          377569075824

 2017-02-05 09:30:57.550525+01 | 1486283457.55052 | 57/EC177D18              |          377623117080

 2017-02-05 09:30:58.619484+01 | 1486283458.61948 | 57/EF0EC3B8              |          377672876984

 2017-02-05 09:30:59.702254+01 | 1486283459.70225 | 57/F2351C18              |          377725721624

 2017-02-05 09:31:00.772894+01 | 1486283460.77289 | 57/F551AD48              |          377777925448

 2017-02-05 09:31:01.854299+01 | 1486283461.8543 | 57/F84FEC48              |          377828142152

 2017-02-05 09:31:02.942686+01 | 1486283462.94269 | 57/FB94A280              |          377882976896

 2017-02-05 09:31:04.022186+01 | 1486283464.02219 | 57/FE937EB0              |          377933233840

 2017-02-05 09:31:05.104505+01 | 1486283465.10451 | 58/1D3FA48               |          377987791432

 2017-02-05 09:31:06.182402+01 | 1486283466.1824 | 58/4937BB0               |          378033896368

 2017-02-05 09:31:07.264576+01 | 1486283467.26458 | 58/7CCBA50               |          378087979600

 2017-02-05 09:31:08.345904+01 | 1486283468.3459 | 58/AC676F0               |          378137900784

 2017-02-05 09:31:09.438724+01 | 1486283469.43872 | 58/DD7DD08               |          378189372680

 2017-02-05 09:31:10.514199+01 | 1486283470.5142 | 58/10E886B0              |          378240796336

 2017-02-05 09:31:11.589528+01 | 1486283471.58953 | 58/13C9F1B0              |          378289123760

 2017-02-05 09:31:12.672486+01 | 1486283472.67249 | 58/17064C50              |          378343410768

 2017-02-05 09:31:13.750127+01 | 1486283473.75013 | 58/19C931F8              |          378389737976

 2017-02-05 09:31:14.829156+01 | 1486283474.82916 | 58/1CAE3980              |          378438302080

 2017-02-05 09:31:15.90833+01 | 1486283475.90833 | 58/1F56DE10              |          378482908688

 2017-02-05 09:31:16.987718+01 | 1486283476.98772 | 58/224D9048              |          378532630600

 2017-02-05 09:31:18.065874+01 | 1486283478.06587 | 58/250F2E60              |          378578873952

 2017-02-05 09:31:19.141154+01 | 1486283479.14115 | 58/27DDC040              |          378625966144

 2017-02-05 09:31:20.224924+01 | 1486283480.22492 | 58/2AB89B88              |          378673863560

 2017-02-05 09:31:21.310314+01 | 1486283481.31031 | 58/2D752DB8              |          378719776184

 2017-02-05 09:31:22.385739+01 | 1486283482.38574 | 58/30649CC0              |          378769022144

 2017-02-05 09:31:23.469505+01 | 1486283483.46951 | 58/331D1020              |          378814664736

 2017-02-05 09:31:24.551468+01 | 1486283484.55147 | 58/35CB2778              |          378859628408

 2017-02-05 09:31:25.639273+01 | 1486283485.63927 | 58/3871C240              |          378904101440

 2017-02-05 09:31:26.708773+01 | 1486283486.70877 | 58/3AC5C2A0              |          378943160992

 2017-02-05 09:31:27.797922+01 | 1486283487.79792 | 58/3D975B78              |          378990451576

 2017-02-05 09:31:28.881829+01 | 1486283488.88183 | 58/4018EEC8              |          379032497864

 2017-02-05 09:31:29.966296+01 | 1486283489.9663 | 58/42911AE0              |          379073927904

 2017-02-05 09:31:31.045074+01 | 1486283491.04507 | 58/44B5C3E8              |          379109884904

 2017-02-05 09:31:32.125537+01 | 1486283492.12554 | 58/4775FCE8              |          379156036840

 2017-02-05 09:31:33.204338+01 | 1486283493.20434 | 58/49EB8BF0              |          379197295600

 2017-02-05 09:31:34.295791+01 | 1486283494.29579 | 58/4CA53048              |          379243016264

 2017-02-05 09:31:35.375984+01 | 1486283495.37598 | 58/4F45D190              |          379287097744

 2017-02-05 09:31:36.45317+01 | 1486283496.45317 | 58/51BE5330              |          379328549680

 2017-02-05 09:31:37.535937+01 | 1486283497.53594 | 58/5439D6A0              |          379370198688

 2017-02-05 09:31:38.615407+01 | 1486283498.61541 | 58/56C31090              |          379412746384

 2017-02-05 09:31:39.697715+01 | 1486283499.69772 | 58/593E6A80              |          379454384768

 2017-02-05 09:31:40.772456+01 | 1486283500.77246 | 58/5BE11378              |          379498599288

 2017-02-05 09:31:41.853391+01 | 1486283501.85339 | 58/5E473A28              |          379538848296

 2017-02-05 09:31:42.930256+01 | 1486283502.93026 | 58/608EB7D8              |          379577087960

 2017-02-05 09:31:44.011522+01 | 1486283504.01152 | 58/6353C228              |          379623555624

 2017-02-05 09:31:45.090877+01 | 1486283505.09088 | 58/657A5550              |          379659638096

 2017-02-05 09:31:46.167326+01 | 1486283506.16733 | 58/67FCCD30              |          379701742896

 2017-02-05 09:31:47.236833+01 | 1486283507.23683 | 58/6A406108              |          379739726088

 2017-02-05 09:31:48.318461+01 | 1486283508.31846 | 58/6C889F10              |          379778014992

 2017-02-05 09:31:49.397117+01 | 1486283509.39712 | 58/6F029128              |          379819561256

 2017-02-05 09:31:50.481086+01 | 1486283510.48109 | 58/7116DA68              |          379854445160

 2017-02-05 09:31:51.560444+01 | 1486283511.56044 | 58/7360E7E8              |          379892852712

 2017-02-05 09:31:52.633444+01 | 1486283512.63344 | 58/759EF260              |          379930473056

 2017-02-05 09:31:53.71429+01 | 1486283513.71429 | 58/77CD7D08              |          379967077640

 2017-02-05 09:31:54.807645+01 | 1486283514.80765 | 58/7A345D28              |          380007374120

 2017-02-05 09:31:55.885218+01 | 1486283515.88522 | 58/7C367D48              |          380041067848

 2017-02-05 09:31:56.961596+01 | 1486283516.9616 | 58/7E97AD58              |          380080991576

 2017-02-05 09:31:58.031428+01 | 1486283518.03143 | 58/80AABB50              |          380115794768

 2017-02-05 09:31:59.119951+01 | 1486283519.11995 | 58/82DC1EF0              |          380152585968

 2017-02-05 09:32:00.194321+01 | 1486283520.19432 | 58/84EFE808              |          380187437064

 2017-02-05 09:32:01.267292+01 | 1486283521.26729 | 58/8711F6B0              |          380223223472

 2017-02-05 09:32:02.343052+01 | 1486283522.34305 | 58/88D38990              |          380252686736

 2017-02-05 09:32:03.422551+01 | 1486283523.42255 | 58/8A772E88              |          380280188552

 2017-02-05 09:32:04.501571+01 | 1486283524.50157 | 58/8C3CEBA0              |          380309924768

 2017-02-05 09:32:05.586138+01 | 1486283525.58614 | 58/8DF132A0              |          380338516640

 2017-02-05 09:32:06.665404+01 | 1486283526.6654 | 58/8F57FD30              |          380362030384

 2017-02-05 09:32:07.748481+01 | 1486283527.74848 | 58/912E52C0              |          380392854208

 2017-02-05 09:32:08.836868+01 | 1486283528.83687 | 58/93368DB0              |          380426948016

 2017-02-05 09:32:09.92099+01 | 1486283529.92099 | 58/9542ECF8              |          380461313272

 2017-02-05 09:32:10.998668+01 | 1486283530.99867 | 58/971842C0              |          380492071616

 2017-02-05 09:32:12.082731+01 | 1486283532.08273 | 58/99296A10              |          380526750224

 2017-02-05 09:32:13.164773+01 | 1486283533.16477 | 58/9B189A48              |          380559202888

 2017-02-05 09:32:14.242942+01 | 1486283534.24294 | 58/9D207288              |          380593271432

 2017-02-05 09:32:15.325193+01 | 1486283535.32519 | 58/9F167AA0              |          380626172576

 2017-02-05 09:32:16.420278+01 | 1486283536.42028 | 58/A0DD7988              |          380655991176

 2017-02-05 09:32:17.510529+01 | 1486283537.51053 | 58/A2F6F690              |          380691216016

 2017-02-05 09:32:18.605763+01 | 1486283538.60576 | 58/A4BF5C78              |          380721126520

 2017-02-05 09:32:19.686496+01 | 1486283539.6865 | 58/A6AF2578              |          380753618296

 2017-02-05 09:32:20.767667+01 | 1486283540.76767 | 58/A87C5240              |          380783841856

 2017-02-05 09:32:21.844627+01 | 1486283541.84463 | 58/AA59CFF0              |          380815134704

 2017-02-05 09:32:22.927576+01 | 1486283542.92758 | 58/AC177BF8              |          380844342264

 2017-02-05 09:32:24.00421+01 | 1486283544.00421 | 58/ADF31BC8              |          380875512776

 2017-02-05 09:32:25.074107+01 | 1486283545.07411 | 58/AFB4D458              |          380904985688

 2017-02-05 09:32:26.165471+01 | 1486283546.16547 | 58/B18E2A10              |          380936006160

 2017-02-05 09:32:27.254777+01 | 1486283547.25478 | 58/B3479BC0              |          380964936640

 2017-02-05 09:32:28.332962+01 | 1486283548.33296 | 58/B4C12B10              |          380989680400

 2017-02-05 09:32:29.410908+01 | 1486283549.41091 | 58/B635CF78              |          381014101880

 2017-02-05 09:32:30.485473+01 | 1486283550.48547 | 58/B776A578              |          381035128184

 2017-02-05 09:32:31.569956+01 | 1486283551.56996 | 58/B8DB5B08              |          381058505480

 2017-02-05 09:32:32.663033+01 | 1486283552.66303 | 58/BA4FEF00              |          381082922752

 2017-02-05 09:32:33.744985+01 | 1486283553.74499 | 58/BBA1A1A0              |          381105054112

 2017-02-05 09:32:34.822052+01 | 1486283554.82205 | 58/BD4985C0              |          381132834240

 2017-02-05 09:32:35.910192+01 | 1486283555.91019 | 58/BF219390              |          381163770768

 2017-02-05 09:32:36.983275+01 | 1486283556.98327 | 58/C0D29358              |          381192147800

 2017-02-05 09:32:38.062414+01 | 1486283558.06241 | 58/C291D700              |          381221459712

 2017-02-05 09:32:39.154714+01 | 1486283559.15471 | 58/C4440498              |          381249914008

 2017-02-05 09:32:40.244775+01 | 1486283560.24478 | 58/C5D52900              |          381276203264

 2017-02-05 09:32:41.317874+01 | 1486283561.31787 | 58/C78A4450              |          381304849488

 2017-02-05 09:32:42.39326+01 | 1486283562.39326 | 58/C90DC9B0              |          381330246064

 2017-02-05 09:32:43.471475+01 | 1486283563.47147 | 58/CAD685A8              |          381360178600

 2017-02-05 09:32:44.555652+01 | 1486283564.55565 | 58/CC5BA518              |          381385680152

 2017-02-05 09:32:45.635513+01 | 1486283565.63551 | 58/CE03C5F0              |          381413475824

 2017-02-05 09:32:46.709848+01 | 1486283566.70985 | 58/CF94EB20              |          381439765280

 2017-02-05 09:32:47.787191+01 | 1486283567.78719 | 58/D1346B28              |          381466995496

 2017-02-05 09:32:48.87368+01 | 1486283568.87368 | 58/D2A86600              |          381491373568

 2017-02-05 09:32:49.952456+01 | 1486283569.95246 | 58/D44624B8              |          381518488760

 2017-02-05 09:32:51.023009+01 | 1486283571.02301 | 58/D5C1ACD0              |          381543361744

 2017-02-05 09:32:52.105471+01 | 1486283572.10547 | 58/D74BDF88              |          381569195912

 2017-02-05 09:32:53.190399+01 | 1486283573.1904 | 58/D8FFCD50              |          381597764944

 2017-02-05 09:32:54.263617+01 | 1486283574.26362 | 58/DA617390              |          381620941712

 2017-02-05 09:32:55.349132+01 | 1486283575.34913 | 58/DBF3C090              |          381647306896

 2017-02-05 09:32:56.426575+01 | 1486283576.42657 | 58/DD779788              |          381672724360

 2017-02-05 09:32:57.511229+01 | 1486283577.51123 | 58/DEE6D9B0              |          381696801424

 2017-02-05 09:32:58.593378+01 | 1486283578.59338 | 58/E074A818              |          381722863640

 2017-02-05 09:32:59.680757+01 | 1486283579.68076 | 58/E1D2DDE8              |          381745815016

 2017-02-05 09:33:00.760756+01 | 1486283580.76076 | 58/E3565F10              |          381771210512

 2017-02-05 09:33:01.850549+01 | 1486283581.85055 | 58/E4A29320              |          381792981792

 2017-02-05 09:33:02.935972+01 | 1486283582.93597 | 58/E6399BF0              |          381819657200

 2017-02-05 09:33:04.013932+01 | 1486283584.01393 | 58/E7B09A90              |          381844232848

 2017-02-05 09:33:05.096662+01 | 1486283585.09666 | 58/E9326E90              |          381869518480

 2017-02-05 09:33:06.16951+01 | 1486283586.16951 | 58/EA8E8CC8              |          381892332744

 2017-02-05 09:33:07.252158+01 | 1486283587.25216 | 58/EBDF7F88              |          381914414984

 2017-02-05 09:33:08.338598+01 | 1486283588.3386 | 58/ED69DB70              |          381940259696

 2017-02-05 09:33:09.416443+01 | 1486283589.41644 | 58/EEA7DC28              |          381961100328

 2017-02-05 09:33:10.497629+01 | 1486283590.49763 | 58/F003A408              |          381983892488

 2017-02-05 09:33:11.576037+01 | 1486283591.57604 | 58/F1624068              |          382006870120

 2017-02-05 09:33:12.665118+01 | 1486283592.66512 | 58/F2AE2B10              |          382028622608

 2017-02-05 09:33:13.753623+01 | 1486283593.75362 | 58/F424EEC8              |          382053183176

 2017-02-05 09:33:14.84343+01 | 1486283594.84343 | 58/F55D05F0              |          382073636336

 2017-02-05 09:33:15.920167+01 | 1486283595.92017 | 58/F6BED2A0              |          382096822944

 2017-02-05 09:33:17.00471+01 | 1486283597.00471 | 58/F80CDA40              |          382118713920

 2017-02-05 09:33:18.080892+01 | 1486283598.08089 | 58/F94E9898              |          382139799704

 2017-02-05 09:33:19.155516+01 | 1486283599.15552 | 58/FAB26E88              |          382163119752

 2017-02-05 09:33:20.233681+01 | 1486283600.23368 | 58/FBF09A30              |          382183971376

 2017-02-05 09:33:21.312461+01 | 1486283601.31246 | 58/FD3CF460              |          382205752416

 2017-02-05 09:33:22.395041+01 | 1486283602.39504 | 58/FE8EC460              |          382227891296

 2017-02-05 09:33:23.47264+01 | 1486283603.47264 | 58/FFBEE058              |          382247821400

 2017-02-05 09:33:24.553332+01 | 1486283604.55333 | 59/119EA40               |          382270564928

 2017-02-05 09:33:25.62553+01 | 1486283605.62553 | 59/2460AA0               |          382290234016

 2017-02-05 09:33:26.708048+01 | 1486283606.70805 | 59/3907C20               |          382311889952

 2017-02-05 09:33:27.780487+01 | 1486283607.78049 | 59/4B0C980               |          382330784128

 2017-02-05 09:33:28.857693+01 | 1486283608.85769 | 59/5F31050               |          382351904848

 2017-02-05 09:33:29.939625+01 | 1486283609.93963 | 59/73FC820               |          382373709856

 2017-02-05 09:33:31.011797+01 | 1486283611.0118 | 59/8719780               |          382393751424

 2017-02-05 09:33:32.093368+01 | 1486283612.09337 | 59/9A10818               |          382413637656

 2017-02-05 09:33:33.172977+01 | 1486283613.17298 | 59/AD29BA0               |          382433663904

 2017-02-05 09:33:34.241406+01 | 1486283614.24141 | 59/BC51B60               |          382449556320

 2017-02-05 09:33:35.318461+01 | 1486283615.31846 | 59/CCC8350               |          382466818896

 2017-02-05 09:33:36.399381+01 | 1486283616.39938 | 59/DC53230               |          382483116592

 2017-02-05 09:33:37.479386+01 | 1486283617.47939 | 59/EACDEE8               |          382498299624

 2017-02-05 09:33:38.557948+01 | 1486283618.55795 | 59/FBF6F40               |          382516293440

 2017-02-05 09:33:39.642907+01 | 1486283619.64291 | 59/10EDDDC8              |          382536113608

 2017-02-05 09:33:40.717359+01 | 1486283620.71736 | 59/11ECD6A0              |          382552823456

 2017-02-05 09:33:41.805809+01 | 1486283621.80581 | 59/132EA598              |          382573913496

 2017-02-05 09:33:42.893282+01 | 1486283622.89328 | 59/14278878              |          382590224504

 2017-02-05 09:33:43.974603+01 | 1486283623.9746 | 59/1554FD68              |          382609980776

 2017-02-05 09:33:45.052158+01 | 1486283625.05216 | 59/165DBD60              |          382627331424

 2017-02-05 09:33:46.13272+01 | 1486283626.13272 | 59/177B4A58              |          382646045272

 2017-02-05 09:33:47.212809+01 | 1486283627.21281 | 59/18899508              |          382663759112

 2017-02-05 09:33:48.290254+01 | 1486283628.29025 | 59/19A177F8              |          382682101752

 2017-02-05 09:33:49.37258+01 | 1486283629.37258 | 59/1AA3AB68              |          382699023208

 2017-02-05 09:33:50.465648+01 | 1486283630.46565 | 59/1BA39F00              |          382715797248

 2017-02-05 09:33:51.539725+01 | 1486283631.53973 | 59/1CB4B740              |          382733694784

 2017-02-05 09:33:52.624087+01 | 1486283632.62409 | 59/1DB5A8D0              |          382750533840

 2017-02-05 09:33:53.700948+01 | 1486283633.70095 | 59/1EBC7908              |          382767757576

 2017-02-05 09:33:54.782414+01 | 1486283634.78241 | 59/1FA4F110              |          382782992656

 2017-02-05 09:33:55.860302+01 | 1486283635.8603 | 59/206771D8              |          382795739608

 2017-02-05 09:33:56.936569+01 | 1486283636.93657 | 59/2137BBE8              |          382809390056

 2017-02-05 09:33:58.02042+01 | 1486283638.02042 | 59/220FDBB0              |          382823553968

 2017-02-05 09:33:59.094309+01 | 1486283639.09431 | 59/22CBE650              |          382835877456

 2017-02-05 09:34:00.183241+01 | 1486283640.18324 | 59/23911648              |          382848800328

 2017-02-05 09:34:01.269588+01 | 1486283641.26959 | 59/246A9210              |          382863053328

 2017-02-05 09:34:02.351954+01 | 1486283642.35195 | 59/255C3F38              |          382878891832

 2017-02-05 09:34:03.435373+01 | 1486283643.43537 | 59/26561888              |          382895265928

 2017-02-05 09:34:04.521964+01 | 1486283644.52196 | 59/27493DB8              |          382911200696

 2017-02-05 09:34:05.596141+01 | 1486283645.59614 | 59/2826A5B0              |          382925710768

 2017-02-05 09:34:06.674839+01 | 1486283646.67484 | 59/292C93A0              |          382942876576

 2017-02-05 09:34:07.755805+01 | 1486283647.75581 | 59/2A212290              |          382958903952

 2017-02-05 09:34:08.834035+01 | 1486283648.83403 | 59/2B2554E8              |          382975956200

 2017-02-05 09:34:09.91131+01 | 1486283649.91131 | 59/2C13D530              |          382991586608

 2017-02-05 09:34:10.991625+01 | 1486283650.99163 | 59/2D04EED8              |          383007387352

 2017-02-05 09:34:12.061286+01 | 1486283652.06129 | 59/2E096DC0              |          383024459200

 2017-02-05 09:34:13.143569+01 | 1486283653.14357 | 59/2EEB1BD0              |          383039249360

 2017-02-05 09:34:14.229454+01 | 1486283654.22945 | 59/2FE5A350              |          383055668048

 2017-02-05 09:34:15.30946+01 | 1486283655.30946 | 59/30C48228              |          383070274088

 2017-02-05 09:34:16.400437+01 | 1486283656.40044 | 59/3191D610              |          383083730448

 2017-02-05 09:34:17.471348+01 | 1486283657.47135 | 59/32397FA8              |          383094718376

 2017-02-05 09:34:18.55069+01 | 1486283658.55069 | 59/32E3B8F0              |          383105874160

 2017-02-05 09:34:19.630365+01 | 1486283659.63036 | 59/33AD50E8              |          383119085800

