 2017-02-05 18:30:16.458712+01 | 1486315816.45871 | pgbench_branches_pkey |            40960
 2017-02-05 18:30:16.458712+01 | 1486315816.45871 | pgbench_tellers_pkey  |           245760
 2017-02-05 18:30:16.458712+01 | 1486315816.45871 | pgbench_accounts_pkey |       2246197248

 2017-02-05 18:30:17.556214+01 | 1486315817.55621 | pgbench_branches_pkey |            40960
 2017-02-05 18:30:17.556214+01 | 1486315817.55621 | pgbench_tellers_pkey  |           245760
 2017-02-05 18:30:17.556214+01 | 1486315817.55621 | pgbench_accounts_pkey |       2246197248

 2017-02-05 18:30:18.640679+01 | 1486315818.64068 | pgbench_branches_pkey |            40960
 2017-02-05 18:30:18.640679+01 | 1486315818.64068 | pgbench_tellers_pkey  |           245760
 2017-02-05 18:30:18.640679+01 | 1486315818.64068 | pgbench_accounts_pkey |       2246197248

 2017-02-05 18:30:19.72405+01 | 1486315819.72405 | pgbench_branches_pkey |            40960
 2017-02-05 18:30:19.72405+01 | 1486315819.72405 | pgbench_tellers_pkey  |           245760
 2017-02-05 18:30:19.72405+01 | 1486315819.72405 | pgbench_accounts_pkey |       2246197248

 2017-02-05 18:30:20.807792+01 | 1486315820.80779 | pgbench_branches_pkey |            40960
 2017-02-05 18:30:20.807792+01 | 1486315820.80779 | pgbench_tellers_pkey  |           245760
 2017-02-05 18:30:20.807792+01 | 1486315820.80779 | pgbench_accounts_pkey |       2246197248

 2017-02-05 18:30:21.894353+01 | 1486315821.89435 | pgbench_branches_pkey |            40960
 2017-02-05 18:30:21.894353+01 | 1486315821.89435 | pgbench_tellers_pkey  |           245760
 2017-02-05 18:30:21.894353+01 | 1486315821.89435 | pgbench_accounts_pkey |       2246197248

 2017-02-05 18:30:22.972774+01 | 1486315822.97277 | pgbench_branches_pkey |            40960
 2017-02-05 18:30:22.972774+01 | 1486315822.97277 | pgbench_tellers_pkey  |           245760
 2017-02-05 18:30:22.972774+01 | 1486315822.97277 | pgbench_accounts_pkey |       2246197248

 2017-02-05 18:30:24.036679+01 | 1486315824.03668 | pgbench_branches_pkey |            40960
 2017-02-05 18:30:24.036679+01 | 1486315824.03668 | pgbench_tellers_pkey  |           245760
 2017-02-05 18:30:24.036679+01 | 1486315824.03668 | pgbench_accounts_pkey |       2246197248

 2017-02-05 18:30:25.114776+01 | 1486315825.11478 | pgbench_branches_pkey |            40960
 2017-02-05 18:30:25.114776+01 | 1486315825.11478 | pgbench_tellers_pkey  |           245760
 2017-02-05 18:30:25.114776+01 | 1486315825.11478 | pgbench_accounts_pkey |       2246197248

 2017-02-05 18:30:26.200267+01 | 1486315826.20027 | pgbench_branches_pkey |            40960
 2017-02-05 18:30:26.200267+01 | 1486315826.20027 | pgbench_tellers_pkey  |           245760
 2017-02-05 18:30:26.200267+01 | 1486315826.20027 | pgbench_accounts_pkey |       2246197248

 2017-02-05 18:30:27.276271+01 | 1486315827.27627 | pgbench_branches_pkey |            40960
 2017-02-05 18:30:27.276271+01 | 1486315827.27627 | pgbench_tellers_pkey  |           245760
 2017-02-05 18:30:27.276271+01 | 1486315827.27627 | pgbench_accounts_pkey |       2246197248

 2017-02-05 18:30:28.359108+01 | 1486315828.35911 | pgbench_branches_pkey |            40960
 2017-02-05 18:30:28.359108+01 | 1486315828.35911 | pgbench_tellers_pkey  |           245760
 2017-02-05 18:30:28.359108+01 | 1486315828.35911 | pgbench_accounts_pkey |       2246197248

 2017-02-05 18:30:29.446462+01 | 1486315829.44646 | pgbench_branches_pkey |            40960
 2017-02-05 18:30:29.446462+01 | 1486315829.44646 | pgbench_tellers_pkey  |           245760
 2017-02-05 18:30:29.446462+01 | 1486315829.44646 | pgbench_accounts_pkey |       2246197248

 2017-02-05 18:30:30.532695+01 | 1486315830.5327 | pgbench_branches_pkey |            40960
 2017-02-05 18:30:30.532695+01 | 1486315830.5327 | pgbench_tellers_pkey  |           245760
 2017-02-05 18:30:30.532695+01 | 1486315830.5327 | pgbench_accounts_pkey |       2246197248

 2017-02-05 18:30:31.620749+01 | 1486315831.62075 | pgbench_branches_pkey |            40960
 2017-02-05 18:30:31.620749+01 | 1486315831.62075 | pgbench_tellers_pkey  |           245760
 2017-02-05 18:30:31.620749+01 | 1486315831.62075 | pgbench_accounts_pkey |       2246197248

 2017-02-05 18:30:32.695021+01 | 1486315832.69502 | pgbench_branches_pkey |            40960
 2017-02-05 18:30:32.695021+01 | 1486315832.69502 | pgbench_tellers_pkey  |           245760
 2017-02-05 18:30:32.695021+01 | 1486315832.69502 | pgbench_accounts_pkey |       2246197248

 2017-02-05 18:30:33.767614+01 | 1486315833.76761 | pgbench_branches_pkey |            40960
 2017-02-05 18:30:33.767614+01 | 1486315833.76761 | pgbench_tellers_pkey  |           245760
 2017-02-05 18:30:33.767614+01 | 1486315833.76761 | pgbench_accounts_pkey |       2246197248

 2017-02-05 18:30:34.852218+01 | 1486315834.85222 | pgbench_branches_pkey |            40960
 2017-02-05 18:30:34.852218+01 | 1486315834.85222 | pgbench_tellers_pkey  |           245760
 2017-02-05 18:30:34.852218+01 | 1486315834.85222 | pgbench_accounts_pkey |       2246197248

 2017-02-05 18:30:35.938209+01 | 1486315835.93821 | pgbench_branches_pkey |            40960
 2017-02-05 18:30:35.938209+01 | 1486315835.93821 | pgbench_tellers_pkey  |           245760
 2017-02-05 18:30:35.938209+01 | 1486315835.93821 | pgbench_accounts_pkey |       2246197248

 2017-02-05 18:30:37.016132+01 | 1486315837.01613 | pgbench_branches_pkey |            40960
 2017-02-05 18:30:37.016132+01 | 1486315837.01613 | pgbench_tellers_pkey  |           245760
 2017-02-05 18:30:37.016132+01 | 1486315837.01613 | pgbench_accounts_pkey |       2246197248

 2017-02-05 18:30:38.102184+01 | 1486315838.10218 | pgbench_branches_pkey |            40960
 2017-02-05 18:30:38.102184+01 | 1486315838.10218 | pgbench_tellers_pkey  |           245760
 2017-02-05 18:30:38.102184+01 | 1486315838.10218 | pgbench_accounts_pkey |       2246197248

 2017-02-05 18:30:39.183527+01 | 1486315839.18353 | pgbench_branches_pkey |            40960
 2017-02-05 18:30:39.183527+01 | 1486315839.18353 | pgbench_tellers_pkey  |           245760
 2017-02-05 18:30:39.183527+01 | 1486315839.18353 | pgbench_accounts_pkey |       2246197248

 2017-02-05 18:30:40.265427+01 | 1486315840.26543 | pgbench_branches_pkey |            40960
 2017-02-05 18:30:40.265427+01 | 1486315840.26543 | pgbench_tellers_pkey  |           245760
 2017-02-05 18:30:40.265427+01 | 1486315840.26543 | pgbench_accounts_pkey |       2246197248

 2017-02-05 18:30:41.350899+01 | 1486315841.3509 | pgbench_branches_pkey |            40960
 2017-02-05 18:30:41.350899+01 | 1486315841.3509 | pgbench_tellers_pkey  |           245760
 2017-02-05 18:30:41.350899+01 | 1486315841.3509 | pgbench_accounts_pkey |       2246197248

 2017-02-05 18:30:42.427718+01 | 1486315842.42772 | pgbench_branches_pkey |            40960
 2017-02-05 18:30:42.427718+01 | 1486315842.42772 | pgbench_tellers_pkey  |           245760
 2017-02-05 18:30:42.427718+01 | 1486315842.42772 | pgbench_accounts_pkey |       2246197248

 2017-02-05 18:30:43.509042+01 | 1486315843.50904 | pgbench_branches_pkey |            40960
 2017-02-05 18:30:43.509042+01 | 1486315843.50904 | pgbench_tellers_pkey  |           245760
 2017-02-05 18:30:43.509042+01 | 1486315843.50904 | pgbench_accounts_pkey |       2246197248

 2017-02-05 18:30:44.593884+01 | 1486315844.59388 | pgbench_branches_pkey |            40960
 2017-02-05 18:30:44.593884+01 | 1486315844.59388 | pgbench_tellers_pkey  |           245760
 2017-02-05 18:30:44.593884+01 | 1486315844.59388 | pgbench_accounts_pkey |       2246197248

 2017-02-05 18:30:45.668033+01 | 1486315845.66803 | pgbench_branches_pkey |            40960
 2017-02-05 18:30:45.668033+01 | 1486315845.66803 | pgbench_tellers_pkey  |           245760
 2017-02-05 18:30:45.668033+01 | 1486315845.66803 | pgbench_accounts_pkey |       2246197248

 2017-02-05 18:30:46.747311+01 | 1486315846.74731 | pgbench_branches_pkey |            40960
 2017-02-05 18:30:46.747311+01 | 1486315846.74731 | pgbench_tellers_pkey  |           245760
 2017-02-05 18:30:46.747311+01 | 1486315846.74731 | pgbench_accounts_pkey |       2246197248

 2017-02-05 18:30:47.829431+01 | 1486315847.82943 | pgbench_branches_pkey |            40960
 2017-02-05 18:30:47.829431+01 | 1486315847.82943 | pgbench_tellers_pkey  |           245760
 2017-02-05 18:30:47.829431+01 | 1486315847.82943 | pgbench_accounts_pkey |       2246197248

 2017-02-05 18:30:48.905032+01 | 1486315848.90503 | pgbench_branches_pkey |            40960
 2017-02-05 18:30:48.905032+01 | 1486315848.90503 | pgbench_tellers_pkey  |           245760
 2017-02-05 18:30:48.905032+01 | 1486315848.90503 | pgbench_accounts_pkey |       2246197248

 2017-02-05 18:30:49.986572+01 | 1486315849.98657 | pgbench_branches_pkey |            40960
 2017-02-05 18:30:49.986572+01 | 1486315849.98657 | pgbench_tellers_pkey  |           245760
 2017-02-05 18:30:49.986572+01 | 1486315849.98657 | pgbench_accounts_pkey |       2246197248

 2017-02-05 18:30:51.067955+01 | 1486315851.06796 | pgbench_branches_pkey |            40960
 2017-02-05 18:30:51.067955+01 | 1486315851.06796 | pgbench_tellers_pkey  |           245760
 2017-02-05 18:30:51.067955+01 | 1486315851.06796 | pgbench_accounts_pkey |       2246197248

 2017-02-05 18:30:52.14558+01 | 1486315852.14558 | pgbench_branches_pkey |            40960
 2017-02-05 18:30:52.14558+01 | 1486315852.14558 | pgbench_tellers_pkey  |           245760
 2017-02-05 18:30:52.14558+01 | 1486315852.14558 | pgbench_accounts_pkey |       2246197248

 2017-02-05 18:30:53.227582+01 | 1486315853.22758 | pgbench_branches_pkey |            40960
 2017-02-05 18:30:53.227582+01 | 1486315853.22758 | pgbench_tellers_pkey  |           245760
 2017-02-05 18:30:53.227582+01 | 1486315853.22758 | pgbench_accounts_pkey |       2246197248

 2017-02-05 18:30:54.305424+01 | 1486315854.30542 | pgbench_branches_pkey |            40960
 2017-02-05 18:30:54.305424+01 | 1486315854.30542 | pgbench_tellers_pkey  |           245760
 2017-02-05 18:30:54.305424+01 | 1486315854.30542 | pgbench_accounts_pkey |       2246197248

 2017-02-05 18:30:55.387332+01 | 1486315855.38733 | pgbench_branches_pkey |            40960
 2017-02-05 18:30:55.387332+01 | 1486315855.38733 | pgbench_tellers_pkey  |           245760
 2017-02-05 18:30:55.387332+01 | 1486315855.38733 | pgbench_accounts_pkey |       2246197248

 2017-02-05 18:30:56.464792+01 | 1486315856.46479 | pgbench_branches_pkey |            40960
 2017-02-05 18:30:56.464792+01 | 1486315856.46479 | pgbench_tellers_pkey  |           245760
 2017-02-05 18:30:56.464792+01 | 1486315856.46479 | pgbench_accounts_pkey |       2246197248

 2017-02-05 18:30:57.545717+01 | 1486315857.54572 | pgbench_branches_pkey |            40960
 2017-02-05 18:30:57.545717+01 | 1486315857.54572 | pgbench_tellers_pkey  |           245760
 2017-02-05 18:30:57.545717+01 | 1486315857.54572 | pgbench_accounts_pkey |       2246197248

 2017-02-05 18:30:58.624299+01 | 1486315858.6243 | pgbench_branches_pkey |            40960
 2017-02-05 18:30:58.624299+01 | 1486315858.6243 | pgbench_tellers_pkey  |           245760
 2017-02-05 18:30:58.624299+01 | 1486315858.6243 | pgbench_accounts_pkey |       2246197248

 2017-02-05 18:30:59.707571+01 | 1486315859.70757 | pgbench_branches_pkey |            40960
 2017-02-05 18:30:59.707571+01 | 1486315859.70757 | pgbench_tellers_pkey  |           245760
 2017-02-05 18:30:59.707571+01 | 1486315859.70757 | pgbench_accounts_pkey |       2246197248

 2017-02-05 18:31:00.789774+01 | 1486315860.78977 | pgbench_branches_pkey |            40960
 2017-02-05 18:31:00.789774+01 | 1486315860.78977 | pgbench_tellers_pkey  |           245760
 2017-02-05 18:31:00.789774+01 | 1486315860.78977 | pgbench_accounts_pkey |       2246197248

 2017-02-05 18:31:01.86889+01 | 1486315861.86889 | pgbench_branches_pkey |            40960
 2017-02-05 18:31:01.86889+01 | 1486315861.86889 | pgbench_tellers_pkey  |           245760
 2017-02-05 18:31:01.86889+01 | 1486315861.86889 | pgbench_accounts_pkey |       2246197248

 2017-02-05 18:31:02.946032+01 | 1486315862.94603 | pgbench_branches_pkey |            40960
 2017-02-05 18:31:02.946032+01 | 1486315862.94603 | pgbench_tellers_pkey  |           245760
 2017-02-05 18:31:02.946032+01 | 1486315862.94603 | pgbench_accounts_pkey |       2246197248

 2017-02-05 18:31:04.021253+01 | 1486315864.02125 | pgbench_branches_pkey |            40960
 2017-02-05 18:31:04.021253+01 | 1486315864.02125 | pgbench_tellers_pkey  |           245760
 2017-02-05 18:31:04.021253+01 | 1486315864.02125 | pgbench_accounts_pkey |       2246197248

 2017-02-05 18:31:05.099435+01 | 1486315865.09944 | pgbench_branches_pkey |            40960
 2017-02-05 18:31:05.099435+01 | 1486315865.09944 | pgbench_tellers_pkey  |           245760
 2017-02-05 18:31:05.099435+01 | 1486315865.09944 | pgbench_accounts_pkey |       2246197248

 2017-02-05 18:31:06.174013+01 | 1486315866.17401 | pgbench_branches_pkey |            40960
 2017-02-05 18:31:06.174013+01 | 1486315866.17401 | pgbench_tellers_pkey  |           245760
 2017-02-05 18:31:06.174013+01 | 1486315866.17401 | pgbench_accounts_pkey |       2246197248

 2017-02-05 18:31:07.265669+01 | 1486315867.26567 | pgbench_branches_pkey |            40960
 2017-02-05 18:31:07.265669+01 | 1486315867.26567 | pgbench_tellers_pkey  |           245760
 2017-02-05 18:31:07.265669+01 | 1486315867.26567 | pgbench_accounts_pkey |       2246197248

 2017-02-05 18:31:08.345405+01 | 1486315868.34541 | pgbench_branches_pkey |            40960
 2017-02-05 18:31:08.345405+01 | 1486315868.34541 | pgbench_tellers_pkey  |           245760
 2017-02-05 18:31:08.345405+01 | 1486315868.34541 | pgbench_accounts_pkey |       2246197248

 2017-02-05 18:31:09.423903+01 | 1486315869.4239 | pgbench_branches_pkey |            40960
 2017-02-05 18:31:09.423903+01 | 1486315869.4239 | pgbench_tellers_pkey  |           245760
 2017-02-05 18:31:09.423903+01 | 1486315869.4239 | pgbench_accounts_pkey |       2246197248

 2017-02-05 18:31:10.503223+01 | 1486315870.50322 | pgbench_branches_pkey |            40960
 2017-02-05 18:31:10.503223+01 | 1486315870.50322 | pgbench_tellers_pkey  |           245760
 2017-02-05 18:31:10.503223+01 | 1486315870.50322 | pgbench_accounts_pkey |       2246197248

 2017-02-05 18:31:11.586204+01 | 1486315871.5862 | pgbench_branches_pkey |            40960
 2017-02-05 18:31:11.586204+01 | 1486315871.5862 | pgbench_tellers_pkey  |           245760
 2017-02-05 18:31:11.586204+01 | 1486315871.5862 | pgbench_accounts_pkey |       2246197248

 2017-02-05 18:31:12.660928+01 | 1486315872.66093 | pgbench_branches_pkey |            40960
 2017-02-05 18:31:12.660928+01 | 1486315872.66093 | pgbench_tellers_pkey  |           245760
 2017-02-05 18:31:12.660928+01 | 1486315872.66093 | pgbench_accounts_pkey |       2246197248

 2017-02-05 18:31:13.737836+01 | 1486315873.73784 | pgbench_branches_pkey |            40960
 2017-02-05 18:31:13.737836+01 | 1486315873.73784 | pgbench_tellers_pkey  |           245760
 2017-02-05 18:31:13.737836+01 | 1486315873.73784 | pgbench_accounts_pkey |       2246197248

 2017-02-05 18:31:14.816795+01 | 1486315874.8168 | pgbench_branches_pkey |            40960
 2017-02-05 18:31:14.816795+01 | 1486315874.8168 | pgbench_tellers_pkey  |           245760
 2017-02-05 18:31:14.816795+01 | 1486315874.8168 | pgbench_accounts_pkey |       2246197248

 2017-02-05 18:31:15.905991+01 | 1486315875.90599 | pgbench_branches_pkey |            40960
 2017-02-05 18:31:15.905991+01 | 1486315875.90599 | pgbench_tellers_pkey  |           245760
 2017-02-05 18:31:15.905991+01 | 1486315875.90599 | pgbench_accounts_pkey |       2246197248

 2017-02-05 18:31:16.987648+01 | 1486315876.98765 | pgbench_branches_pkey |            40960
 2017-02-05 18:31:16.987648+01 | 1486315876.98765 | pgbench_tellers_pkey  |           245760
 2017-02-05 18:31:16.987648+01 | 1486315876.98765 | pgbench_accounts_pkey |       2246197248

 2017-02-05 18:31:18.068047+01 | 1486315878.06805 | pgbench_branches_pkey |            40960
 2017-02-05 18:31:18.068047+01 | 1486315878.06805 | pgbench_tellers_pkey  |           245760
 2017-02-05 18:31:18.068047+01 | 1486315878.06805 | pgbench_accounts_pkey |       2246197248

 2017-02-05 18:31:19.143254+01 | 1486315879.14325 | pgbench_branches_pkey |            40960
 2017-02-05 18:31:19.143254+01 | 1486315879.14325 | pgbench_tellers_pkey  |           245760
 2017-02-05 18:31:19.143254+01 | 1486315879.14325 | pgbench_accounts_pkey |       2246197248

 2017-02-05 18:31:20.22258+01 | 1486315880.22258 | pgbench_branches_pkey |            40960
 2017-02-05 18:31:20.22258+01 | 1486315880.22258 | pgbench_tellers_pkey  |           245760
 2017-02-05 18:31:20.22258+01 | 1486315880.22258 | pgbench_accounts_pkey |       2246197248

 2017-02-05 18:31:21.31113+01 | 1486315881.31113 | pgbench_branches_pkey |            40960
 2017-02-05 18:31:21.31113+01 | 1486315881.31113 | pgbench_tellers_pkey  |           245760
 2017-02-05 18:31:21.31113+01 | 1486315881.31113 | pgbench_accounts_pkey |       2246197248

 2017-02-05 18:31:22.39185+01 | 1486315882.39185 | pgbench_branches_pkey |            40960
 2017-02-05 18:31:22.39185+01 | 1486315882.39185 | pgbench_tellers_pkey  |           245760
 2017-02-05 18:31:22.39185+01 | 1486315882.39185 | pgbench_accounts_pkey |       2246197248

 2017-02-05 18:31:23.476989+01 | 1486315883.47699 | pgbench_branches_pkey |            40960
 2017-02-05 18:31:23.476989+01 | 1486315883.47699 | pgbench_tellers_pkey  |           245760
 2017-02-05 18:31:23.476989+01 | 1486315883.47699 | pgbench_accounts_pkey |       2246197248

 2017-02-05 18:31:24.552739+01 | 1486315884.55274 | pgbench_branches_pkey |            40960
 2017-02-05 18:31:24.552739+01 | 1486315884.55274 | pgbench_tellers_pkey  |           245760
 2017-02-05 18:31:24.552739+01 | 1486315884.55274 | pgbench_accounts_pkey |       2246197248

 2017-02-05 18:31:25.627665+01 | 1486315885.62767 | pgbench_branches_pkey |            40960
 2017-02-05 18:31:25.627665+01 | 1486315885.62767 | pgbench_tellers_pkey  |           245760
 2017-02-05 18:31:25.627665+01 | 1486315885.62767 | pgbench_accounts_pkey |       2246197248

 2017-02-05 18:31:26.701183+01 | 1486315886.70118 | pgbench_branches_pkey |            40960
 2017-02-05 18:31:26.701183+01 | 1486315886.70118 | pgbench_tellers_pkey  |           245760
 2017-02-05 18:31:26.701183+01 | 1486315886.70118 | pgbench_accounts_pkey |       2246197248

 2017-02-05 18:31:27.779352+01 | 1486315887.77935 | pgbench_branches_pkey |            40960
 2017-02-05 18:31:27.779352+01 | 1486315887.77935 | pgbench_tellers_pkey  |           245760
 2017-02-05 18:31:27.779352+01 | 1486315887.77935 | pgbench_accounts_pkey |       2246197248

 2017-02-05 18:31:28.852207+01 | 1486315888.85221 | pgbench_branches_pkey |            40960
 2017-02-05 18:31:28.852207+01 | 1486315888.85221 | pgbench_tellers_pkey  |           245760
 2017-02-05 18:31:28.852207+01 | 1486315888.85221 | pgbench_accounts_pkey |       2246197248

 2017-02-05 18:31:29.934061+01 | 1486315889.93406 | pgbench_branches_pkey |            40960
 2017-02-05 18:31:29.934061+01 | 1486315889.93406 | pgbench_tellers_pkey  |           245760
 2017-02-05 18:31:29.934061+01 | 1486315889.93406 | pgbench_accounts_pkey |       2246197248

 2017-02-05 18:31:31.018767+01 | 1486315891.01877 | pgbench_branches_pkey |            40960
 2017-02-05 18:31:31.018767+01 | 1486315891.01877 | pgbench_tellers_pkey  |           245760
 2017-02-05 18:31:31.018767+01 | 1486315891.01877 | pgbench_accounts_pkey |       2246197248

 2017-02-05 18:31:32.094748+01 | 1486315892.09475 | pgbench_branches_pkey |            40960
 2017-02-05 18:31:32.094748+01 | 1486315892.09475 | pgbench_tellers_pkey  |           245760
 2017-02-05 18:31:32.094748+01 | 1486315892.09475 | pgbench_accounts_pkey |       2246197248

 2017-02-05 18:31:33.171993+01 | 1486315893.17199 | pgbench_branches_pkey |            40960
 2017-02-05 18:31:33.171993+01 | 1486315893.17199 | pgbench_tellers_pkey  |           245760
 2017-02-05 18:31:33.171993+01 | 1486315893.17199 | pgbench_accounts_pkey |       2246197248

 2017-02-05 18:31:34.253138+01 | 1486315894.25314 | pgbench_branches_pkey |            40960
 2017-02-05 18:31:34.253138+01 | 1486315894.25314 | pgbench_tellers_pkey  |           245760
 2017-02-05 18:31:34.253138+01 | 1486315894.25314 | pgbench_accounts_pkey |       2246197248

 2017-02-05 18:31:35.337211+01 | 1486315895.33721 | pgbench_branches_pkey |            40960
 2017-02-05 18:31:35.337211+01 | 1486315895.33721 | pgbench_tellers_pkey  |           245760
 2017-02-05 18:31:35.337211+01 | 1486315895.33721 | pgbench_accounts_pkey |       2246197248

 2017-02-05 18:31:36.422101+01 | 1486315896.4221 | pgbench_branches_pkey |            40960
 2017-02-05 18:31:36.422101+01 | 1486315896.4221 | pgbench_tellers_pkey  |           245760
 2017-02-05 18:31:36.422101+01 | 1486315896.4221 | pgbench_accounts_pkey |       2246197248

 2017-02-05 18:31:37.507266+01 | 1486315897.50727 | pgbench_branches_pkey |            40960
 2017-02-05 18:31:37.507266+01 | 1486315897.50727 | pgbench_tellers_pkey  |           245760
 2017-02-05 18:31:37.507266+01 | 1486315897.50727 | pgbench_accounts_pkey |       2246197248

 2017-02-05 18:31:38.584092+01 | 1486315898.58409 | pgbench_branches_pkey |            40960
 2017-02-05 18:31:38.584092+01 | 1486315898.58409 | pgbench_tellers_pkey  |           245760
 2017-02-05 18:31:38.584092+01 | 1486315898.58409 | pgbench_accounts_pkey |       2246197248

 2017-02-05 18:31:39.663391+01 | 1486315899.66339 | pgbench_branches_pkey |            40960
 2017-02-05 18:31:39.663391+01 | 1486315899.66339 | pgbench_tellers_pkey  |           245760
 2017-02-05 18:31:39.663391+01 | 1486315899.66339 | pgbench_accounts_pkey |       2246197248

 2017-02-05 18:31:40.738133+01 | 1486315900.73813 | pgbench_branches_pkey |            40960
 2017-02-05 18:31:40.738133+01 | 1486315900.73813 | pgbench_tellers_pkey  |           245760
 2017-02-05 18:31:40.738133+01 | 1486315900.73813 | pgbench_accounts_pkey |       2246197248

 2017-02-05 18:31:41.819366+01 | 1486315901.81937 | pgbench_branches_pkey |            40960
 2017-02-05 18:31:41.819366+01 | 1486315901.81937 | pgbench_tellers_pkey  |           245760
 2017-02-05 18:31:41.819366+01 | 1486315901.81937 | pgbench_accounts_pkey |       2246197248

 2017-02-05 18:31:42.895001+01 | 1486315902.895 | pgbench_branches_pkey |            40960
 2017-02-05 18:31:42.895001+01 | 1486315902.895 | pgbench_tellers_pkey  |           245760
 2017-02-05 18:31:42.895001+01 | 1486315902.895 | pgbench_accounts_pkey |       2246197248

 2017-02-05 18:31:43.974596+01 | 1486315903.9746 | pgbench_branches_pkey |            40960
 2017-02-05 18:31:43.974596+01 | 1486315903.9746 | pgbench_tellers_pkey  |           245760
 2017-02-05 18:31:43.974596+01 | 1486315903.9746 | pgbench_accounts_pkey |       2246197248

 2017-02-05 18:31:45.05421+01 | 1486315905.05421 | pgbench_branches_pkey |            40960
 2017-02-05 18:31:45.05421+01 | 1486315905.05421 | pgbench_tellers_pkey  |           245760
 2017-02-05 18:31:45.05421+01 | 1486315905.05421 | pgbench_accounts_pkey |       2246197248

 2017-02-05 18:31:46.129973+01 | 1486315906.12997 | pgbench_branches_pkey |            40960
 2017-02-05 18:31:46.129973+01 | 1486315906.12997 | pgbench_tellers_pkey  |           245760
 2017-02-05 18:31:46.129973+01 | 1486315906.12997 | pgbench_accounts_pkey |       2246197248

 2017-02-05 18:31:47.209876+01 | 1486315907.20988 | pgbench_branches_pkey |            40960
 2017-02-05 18:31:47.209876+01 | 1486315907.20988 | pgbench_tellers_pkey  |           245760
 2017-02-05 18:31:47.209876+01 | 1486315907.20988 | pgbench_accounts_pkey |       2246197248

 2017-02-05 18:31:48.292978+01 | 1486315908.29298 | pgbench_branches_pkey |            40960
 2017-02-05 18:31:48.292978+01 | 1486315908.29298 | pgbench_tellers_pkey  |           245760
 2017-02-05 18:31:48.292978+01 | 1486315908.29298 | pgbench_accounts_pkey |       2246197248

 2017-02-05 18:31:49.378565+01 | 1486315909.37857 | pgbench_branches_pkey |            40960
 2017-02-05 18:31:49.378565+01 | 1486315909.37857 | pgbench_tellers_pkey  |           245760
 2017-02-05 18:31:49.378565+01 | 1486315909.37857 | pgbench_accounts_pkey |       2246197248

 2017-02-05 18:31:50.459123+01 | 1486315910.45912 | pgbench_branches_pkey |            40960
 2017-02-05 18:31:50.459123+01 | 1486315910.45912 | pgbench_tellers_pkey  |           245760
 2017-02-05 18:31:50.459123+01 | 1486315910.45912 | pgbench_accounts_pkey |       2246197248

 2017-02-05 18:31:51.538075+01 | 1486315911.53807 | pgbench_branches_pkey |            40960
 2017-02-05 18:31:51.538075+01 | 1486315911.53807 | pgbench_tellers_pkey  |           245760
 2017-02-05 18:31:51.538075+01 | 1486315911.53807 | pgbench_accounts_pkey |       2246197248

 2017-02-05 18:31:52.622885+01 | 1486315912.62288 | pgbench_branches_pkey |            40960
 2017-02-05 18:31:52.622885+01 | 1486315912.62288 | pgbench_tellers_pkey  |           245760
 2017-02-05 18:31:52.622885+01 | 1486315912.62288 | pgbench_accounts_pkey |       2246197248

 2017-02-05 18:31:53.706969+01 | 1486315913.70697 | pgbench_branches_pkey |            40960
 2017-02-05 18:31:53.706969+01 | 1486315913.70697 | pgbench_tellers_pkey  |           245760
 2017-02-05 18:31:53.706969+01 | 1486315913.70697 | pgbench_accounts_pkey |       2246197248

 2017-02-05 18:31:54.790518+01 | 1486315914.79052 | pgbench_branches_pkey |            40960
 2017-02-05 18:31:54.790518+01 | 1486315914.79052 | pgbench_tellers_pkey  |           245760
 2017-02-05 18:31:54.790518+01 | 1486315914.79052 | pgbench_accounts_pkey |       2246197248

 2017-02-05 18:31:55.874266+01 | 1486315915.87427 | pgbench_branches_pkey |            40960
 2017-02-05 18:31:55.874266+01 | 1486315915.87427 | pgbench_tellers_pkey  |           245760
 2017-02-05 18:31:55.874266+01 | 1486315915.87427 | pgbench_accounts_pkey |       2246197248

 2017-02-05 18:31:56.959011+01 | 1486315916.95901 | pgbench_branches_pkey |            40960
 2017-02-05 18:31:56.959011+01 | 1486315916.95901 | pgbench_tellers_pkey  |           245760
 2017-02-05 18:31:56.959011+01 | 1486315916.95901 | pgbench_accounts_pkey |       2246197248

 2017-02-05 18:31:58.038341+01 | 1486315918.03834 | pgbench_branches_pkey |            40960
 2017-02-05 18:31:58.038341+01 | 1486315918.03834 | pgbench_tellers_pkey  |           245760
 2017-02-05 18:31:58.038341+01 | 1486315918.03834 | pgbench_accounts_pkey |       2246197248

 2017-02-05 18:31:59.118036+01 | 1486315919.11804 | pgbench_branches_pkey |            40960
 2017-02-05 18:31:59.118036+01 | 1486315919.11804 | pgbench_tellers_pkey  |           245760
 2017-02-05 18:31:59.118036+01 | 1486315919.11804 | pgbench_accounts_pkey |       2246197248

 2017-02-05 18:32:00.198318+01 | 1486315920.19832 | pgbench_branches_pkey |            40960
 2017-02-05 18:32:00.198318+01 | 1486315920.19832 | pgbench_tellers_pkey  |           245760
 2017-02-05 18:32:00.198318+01 | 1486315920.19832 | pgbench_accounts_pkey |       2246197248

 2017-02-05 18:32:01.275042+01 | 1486315921.27504 | pgbench_branches_pkey |            40960
 2017-02-05 18:32:01.275042+01 | 1486315921.27504 | pgbench_tellers_pkey  |           245760
 2017-02-05 18:32:01.275042+01 | 1486315921.27504 | pgbench_accounts_pkey |       2246197248

 2017-02-05 18:32:02.357579+01 | 1486315922.35758 | pgbench_branches_pkey |            40960
 2017-02-05 18:32:02.357579+01 | 1486315922.35758 | pgbench_tellers_pkey  |           245760
 2017-02-05 18:32:02.357579+01 | 1486315922.35758 | pgbench_accounts_pkey |       2246197248

 2017-02-05 18:32:03.434184+01 | 1486315923.43418 | pgbench_branches_pkey |            40960
 2017-02-05 18:32:03.434184+01 | 1486315923.43418 | pgbench_tellers_pkey  |           245760
 2017-02-05 18:32:03.434184+01 | 1486315923.43418 | pgbench_accounts_pkey |       2246197248

 2017-02-05 18:32:04.516039+01 | 1486315924.51604 | pgbench_branches_pkey |            40960
 2017-02-05 18:32:04.516039+01 | 1486315924.51604 | pgbench_tellers_pkey  |           245760
 2017-02-05 18:32:04.516039+01 | 1486315924.51604 | pgbench_accounts_pkey |       2246197248

 2017-02-05 18:32:05.592281+01 | 1486315925.59228 | pgbench_branches_pkey |            40960
 2017-02-05 18:32:05.592281+01 | 1486315925.59228 | pgbench_tellers_pkey  |           245760
 2017-02-05 18:32:05.592281+01 | 1486315925.59228 | pgbench_accounts_pkey |       2246197248

 2017-02-05 18:32:06.672033+01 | 1486315926.67203 | pgbench_branches_pkey |            40960
 2017-02-05 18:32:06.672033+01 | 1486315926.67203 | pgbench_tellers_pkey  |           245760
 2017-02-05 18:32:06.672033+01 | 1486315926.67203 | pgbench_accounts_pkey |       2246197248

 2017-02-05 18:32:07.751804+01 | 1486315927.7518 | pgbench_branches_pkey |            40960
 2017-02-05 18:32:07.751804+01 | 1486315927.7518 | pgbench_tellers_pkey  |           245760
 2017-02-05 18:32:07.751804+01 | 1486315927.7518 | pgbench_accounts_pkey |       2246197248

 2017-02-05 18:32:08.830252+01 | 1486315928.83025 | pgbench_branches_pkey |            40960
 2017-02-05 18:32:08.830252+01 | 1486315928.83025 | pgbench_tellers_pkey  |           245760
 2017-02-05 18:32:08.830252+01 | 1486315928.83025 | pgbench_accounts_pkey |       2246197248

 2017-02-05 18:32:09.912133+01 | 1486315929.91213 | pgbench_branches_pkey |            40960
 2017-02-05 18:32:09.912133+01 | 1486315929.91213 | pgbench_tellers_pkey  |           245760
 2017-02-05 18:32:09.912133+01 | 1486315929.91213 | pgbench_accounts_pkey |       2246197248

 2017-02-05 18:32:10.988773+01 | 1486315930.98877 | pgbench_branches_pkey |            40960
 2017-02-05 18:32:10.988773+01 | 1486315930.98877 | pgbench_tellers_pkey  |           245760
 2017-02-05 18:32:10.988773+01 | 1486315930.98877 | pgbench_accounts_pkey |       2246197248

 2017-02-05 18:32:12.071603+01 | 1486315932.0716 | pgbench_branches_pkey |            40960
 2017-02-05 18:32:12.071603+01 | 1486315932.0716 | pgbench_tellers_pkey  |           245760
 2017-02-05 18:32:12.071603+01 | 1486315932.0716 | pgbench_accounts_pkey |       2246197248

 2017-02-05 18:32:13.153759+01 | 1486315933.15376 | pgbench_branches_pkey |            40960
 2017-02-05 18:32:13.153759+01 | 1486315933.15376 | pgbench_tellers_pkey  |           245760
 2017-02-05 18:32:13.153759+01 | 1486315933.15376 | pgbench_accounts_pkey |       2246197248

 2017-02-05 18:32:14.239943+01 | 1486315934.23994 | pgbench_branches_pkey |            40960
 2017-02-05 18:32:14.239943+01 | 1486315934.23994 | pgbench_tellers_pkey  |           245760
 2017-02-05 18:32:14.239943+01 | 1486315934.23994 | pgbench_accounts_pkey |       2246197248

 2017-02-05 18:32:15.322385+01 | 1486315935.32239 | pgbench_branches_pkey |            40960
 2017-02-05 18:32:15.322385+01 | 1486315935.32239 | pgbench_tellers_pkey  |           245760
 2017-02-05 18:32:15.322385+01 | 1486315935.32239 | pgbench_accounts_pkey |       2246197248

 2017-02-05 18:32:16.396739+01 | 1486315936.39674 | pgbench_branches_pkey |            40960
 2017-02-05 18:32:16.396739+01 | 1486315936.39674 | pgbench_tellers_pkey  |           245760
 2017-02-05 18:32:16.396739+01 | 1486315936.39674 | pgbench_accounts_pkey |       2246197248

 2017-02-05 18:32:17.48476+01 | 1486315937.48476 | pgbench_branches_pkey |            40960
 2017-02-05 18:32:17.48476+01 | 1486315937.48476 | pgbench_tellers_pkey  |           245760
 2017-02-05 18:32:17.48476+01 | 1486315937.48476 | pgbench_accounts_pkey |       2246197248

 2017-02-05 18:32:18.56443+01 | 1486315938.56443 | pgbench_branches_pkey |            40960
 2017-02-05 18:32:18.56443+01 | 1486315938.56443 | pgbench_tellers_pkey  |           245760
 2017-02-05 18:32:18.56443+01 | 1486315938.56443 | pgbench_accounts_pkey |       2246197248

 2017-02-05 18:32:19.639985+01 | 1486315939.63999 | pgbench_branches_pkey |            40960
 2017-02-05 18:32:19.639985+01 | 1486315939.63999 | pgbench_tellers_pkey  |           245760
 2017-02-05 18:32:19.639985+01 | 1486315939.63999 | pgbench_accounts_pkey |       2246197248

 2017-02-05 18:32:20.72333+01 | 1486315940.72333 | pgbench_branches_pkey |            40960
 2017-02-05 18:32:20.72333+01 | 1486315940.72333 | pgbench_tellers_pkey  |           245760
 2017-02-05 18:32:20.72333+01 | 1486315940.72333 | pgbench_accounts_pkey |       2246197248

 2017-02-05 18:32:21.800124+01 | 1486315941.80012 | pgbench_branches_pkey |            40960
 2017-02-05 18:32:21.800124+01 | 1486315941.80012 | pgbench_tellers_pkey  |           245760
 2017-02-05 18:32:21.800124+01 | 1486315941.80012 | pgbench_accounts_pkey |       2246197248

 2017-02-05 18:32:22.877331+01 | 1486315942.87733 | pgbench_branches_pkey |            40960
 2017-02-05 18:32:22.877331+01 | 1486315942.87733 | pgbench_tellers_pkey  |           245760
 2017-02-05 18:32:22.877331+01 | 1486315942.87733 | pgbench_accounts_pkey |       2246197248

 2017-02-05 18:32:23.940029+01 | 1486315943.94003 | pgbench_branches_pkey |            40960
 2017-02-05 18:32:23.940029+01 | 1486315943.94003 | pgbench_tellers_pkey  |           245760
 2017-02-05 18:32:23.940029+01 | 1486315943.94003 | pgbench_accounts_pkey |       2246197248

 2017-02-05 18:32:25.020882+01 | 1486315945.02088 | pgbench_branches_pkey |            40960
 2017-02-05 18:32:25.020882+01 | 1486315945.02088 | pgbench_tellers_pkey  |           245760
 2017-02-05 18:32:25.020882+01 | 1486315945.02088 | pgbench_accounts_pkey |       2246197248

 2017-02-05 18:32:26.104275+01 | 1486315946.10427 | pgbench_branches_pkey |            40960
 2017-02-05 18:32:26.104275+01 | 1486315946.10427 | pgbench_tellers_pkey  |           245760
 2017-02-05 18:32:26.104275+01 | 1486315946.10427 | pgbench_accounts_pkey |       2246197248

 2017-02-05 18:32:27.180531+01 | 1486315947.18053 | pgbench_branches_pkey |            40960
 2017-02-05 18:32:27.180531+01 | 1486315947.18053 | pgbench_tellers_pkey  |           245760
 2017-02-05 18:32:27.180531+01 | 1486315947.18053 | pgbench_accounts_pkey |       2246197248

 2017-02-05 18:32:28.255262+01 | 1486315948.25526 | pgbench_branches_pkey |            40960
 2017-02-05 18:32:28.255262+01 | 1486315948.25526 | pgbench_tellers_pkey  |           245760
 2017-02-05 18:32:28.255262+01 | 1486315948.25526 | pgbench_accounts_pkey |       2246197248

 2017-02-05 18:32:29.336369+01 | 1486315949.33637 | pgbench_branches_pkey |            40960
 2017-02-05 18:32:29.336369+01 | 1486315949.33637 | pgbench_tellers_pkey  |           245760
 2017-02-05 18:32:29.336369+01 | 1486315949.33637 | pgbench_accounts_pkey |       2246197248

 2017-02-05 18:32:30.420404+01 | 1486315950.4204 | pgbench_branches_pkey |            40960
 2017-02-05 18:32:30.420404+01 | 1486315950.4204 | pgbench_tellers_pkey  |           245760
 2017-02-05 18:32:30.420404+01 | 1486315950.4204 | pgbench_accounts_pkey |       2246197248

 2017-02-05 18:32:31.505576+01 | 1486315951.50558 | pgbench_branches_pkey |            40960
 2017-02-05 18:32:31.505576+01 | 1486315951.50558 | pgbench_tellers_pkey  |           245760
 2017-02-05 18:32:31.505576+01 | 1486315951.50558 | pgbench_accounts_pkey |       2246197248

 2017-02-05 18:32:32.585108+01 | 1486315952.58511 | pgbench_branches_pkey |            40960
 2017-02-05 18:32:32.585108+01 | 1486315952.58511 | pgbench_tellers_pkey  |           245760
 2017-02-05 18:32:32.585108+01 | 1486315952.58511 | pgbench_accounts_pkey |       2246197248

 2017-02-05 18:32:33.664197+01 | 1486315953.6642 | pgbench_branches_pkey |            40960
 2017-02-05 18:32:33.664197+01 | 1486315953.6642 | pgbench_tellers_pkey  |           245760
 2017-02-05 18:32:33.664197+01 | 1486315953.6642 | pgbench_accounts_pkey |       2246197248

 2017-02-05 18:32:34.742051+01 | 1486315954.74205 | pgbench_branches_pkey |            40960
 2017-02-05 18:32:34.742051+01 | 1486315954.74205 | pgbench_tellers_pkey  |           245760
 2017-02-05 18:32:34.742051+01 | 1486315954.74205 | pgbench_accounts_pkey |       2246197248

 2017-02-05 18:32:35.817446+01 | 1486315955.81745 | pgbench_branches_pkey |            40960
 2017-02-05 18:32:35.817446+01 | 1486315955.81745 | pgbench_tellers_pkey  |           245760
 2017-02-05 18:32:35.817446+01 | 1486315955.81745 | pgbench_accounts_pkey |       2246197248

 2017-02-05 18:32:36.89663+01 | 1486315956.89663 | pgbench_branches_pkey |            40960
 2017-02-05 18:32:36.89663+01 | 1486315956.89663 | pgbench_tellers_pkey  |           245760
 2017-02-05 18:32:36.89663+01 | 1486315956.89663 | pgbench_accounts_pkey |       2246197248

 2017-02-05 18:32:37.969408+01 | 1486315957.96941 | pgbench_branches_pkey |            40960
 2017-02-05 18:32:37.969408+01 | 1486315957.96941 | pgbench_tellers_pkey  |           245760
 2017-02-05 18:32:37.969408+01 | 1486315957.96941 | pgbench_accounts_pkey |       2246197248

 2017-02-05 18:32:39.041356+01 | 1486315959.04136 | pgbench_branches_pkey |            40960
 2017-02-05 18:32:39.041356+01 | 1486315959.04136 | pgbench_tellers_pkey  |           245760
 2017-02-05 18:32:39.041356+01 | 1486315959.04136 | pgbench_accounts_pkey |       2246197248

 2017-02-05 18:32:40.123097+01 | 1486315960.1231 | pgbench_branches_pkey |            40960
 2017-02-05 18:32:40.123097+01 | 1486315960.1231 | pgbench_tellers_pkey  |           245760
 2017-02-05 18:32:40.123097+01 | 1486315960.1231 | pgbench_accounts_pkey |       2246197248

 2017-02-05 18:32:41.205248+01 | 1486315961.20525 | pgbench_branches_pkey |            40960
 2017-02-05 18:32:41.205248+01 | 1486315961.20525 | pgbench_tellers_pkey  |           245760
 2017-02-05 18:32:41.205248+01 | 1486315961.20525 | pgbench_accounts_pkey |       2246197248

 2017-02-05 18:32:42.280547+01 | 1486315962.28055 | pgbench_branches_pkey |            40960
 2017-02-05 18:32:42.280547+01 | 1486315962.28055 | pgbench_tellers_pkey  |           245760
 2017-02-05 18:32:42.280547+01 | 1486315962.28055 | pgbench_accounts_pkey |       2246197248

 2017-02-05 18:32:43.358338+01 | 1486315963.35834 | pgbench_branches_pkey |            40960
 2017-02-05 18:32:43.358338+01 | 1486315963.35834 | pgbench_tellers_pkey  |           245760
 2017-02-05 18:32:43.358338+01 | 1486315963.35834 | pgbench_accounts_pkey |       2246197248

 2017-02-05 18:32:44.444605+01 | 1486315964.44461 | pgbench_branches_pkey |            40960
 2017-02-05 18:32:44.444605+01 | 1486315964.44461 | pgbench_tellers_pkey  |           245760
 2017-02-05 18:32:44.444605+01 | 1486315964.44461 | pgbench_accounts_pkey |       2246197248

 2017-02-05 18:32:45.51828+01 | 1486315965.51828 | pgbench_branches_pkey |            40960
 2017-02-05 18:32:45.51828+01 | 1486315965.51828 | pgbench_tellers_pkey  |           245760
 2017-02-05 18:32:45.51828+01 | 1486315965.51828 | pgbench_accounts_pkey |       2246197248

 2017-02-05 18:32:46.600681+01 | 1486315966.60068 | pgbench_branches_pkey |            40960
 2017-02-05 18:32:46.600681+01 | 1486315966.60068 | pgbench_tellers_pkey  |           245760
 2017-02-05 18:32:46.600681+01 | 1486315966.60068 | pgbench_accounts_pkey |       2246197248

 2017-02-05 18:32:47.6775+01 | 1486315967.6775 | pgbench_branches_pkey |            40960
 2017-02-05 18:32:47.6775+01 | 1486315967.6775 | pgbench_tellers_pkey  |           245760
 2017-02-05 18:32:47.6775+01 | 1486315967.6775 | pgbench_accounts_pkey |       2246197248

 2017-02-05 18:32:48.75957+01 | 1486315968.75957 | pgbench_branches_pkey |            40960
 2017-02-05 18:32:48.75957+01 | 1486315968.75957 | pgbench_tellers_pkey  |           245760
 2017-02-05 18:32:48.75957+01 | 1486315968.75957 | pgbench_accounts_pkey |       2246197248

 2017-02-05 18:32:49.842725+01 | 1486315969.84273 | pgbench_branches_pkey |            40960
 2017-02-05 18:32:49.842725+01 | 1486315969.84273 | pgbench_tellers_pkey  |           245760
 2017-02-05 18:32:49.842725+01 | 1486315969.84273 | pgbench_accounts_pkey |       2246197248

 2017-02-05 18:32:50.930834+01 | 1486315970.93083 | pgbench_branches_pkey |            40960
 2017-02-05 18:32:50.930834+01 | 1486315970.93083 | pgbench_tellers_pkey  |           245760
 2017-02-05 18:32:50.930834+01 | 1486315970.93083 | pgbench_accounts_pkey |       2246197248

 2017-02-05 18:32:52.010032+01 | 1486315972.01003 | pgbench_branches_pkey |            40960
 2017-02-05 18:32:52.010032+01 | 1486315972.01003 | pgbench_tellers_pkey  |           245760
 2017-02-05 18:32:52.010032+01 | 1486315972.01003 | pgbench_accounts_pkey |       2246197248

 2017-02-05 18:32:53.095205+01 | 1486315973.09521 | pgbench_branches_pkey |            40960
 2017-02-05 18:32:53.095205+01 | 1486315973.09521 | pgbench_tellers_pkey  |           245760
 2017-02-05 18:32:53.095205+01 | 1486315973.09521 | pgbench_accounts_pkey |       2246197248

 2017-02-05 18:32:54.180297+01 | 1486315974.1803 | pgbench_branches_pkey |            40960
 2017-02-05 18:32:54.180297+01 | 1486315974.1803 | pgbench_tellers_pkey  |           245760
 2017-02-05 18:32:54.180297+01 | 1486315974.1803 | pgbench_accounts_pkey |       2246197248

 2017-02-05 18:32:55.257756+01 | 1486315975.25776 | pgbench_branches_pkey |            40960
 2017-02-05 18:32:55.257756+01 | 1486315975.25776 | pgbench_tellers_pkey  |           245760
 2017-02-05 18:32:55.257756+01 | 1486315975.25776 | pgbench_accounts_pkey |       2246197248

 2017-02-05 18:32:56.332342+01 | 1486315976.33234 | pgbench_branches_pkey |            40960
 2017-02-05 18:32:56.332342+01 | 1486315976.33234 | pgbench_tellers_pkey  |           245760
 2017-02-05 18:32:56.332342+01 | 1486315976.33234 | pgbench_accounts_pkey |       2246197248

 2017-02-05 18:32:57.416781+01 | 1486315977.41678 | pgbench_branches_pkey |            40960
 2017-02-05 18:32:57.416781+01 | 1486315977.41678 | pgbench_tellers_pkey  |           245760
 2017-02-05 18:32:57.416781+01 | 1486315977.41678 | pgbench_accounts_pkey |       2246197248

 2017-02-05 18:32:58.49595+01 | 1486315978.49595 | pgbench_branches_pkey |            40960
 2017-02-05 18:32:58.49595+01 | 1486315978.49595 | pgbench_tellers_pkey  |           245760
 2017-02-05 18:32:58.49595+01 | 1486315978.49595 | pgbench_accounts_pkey |       2246197248

 2017-02-05 18:32:59.577551+01 | 1486315979.57755 | pgbench_branches_pkey |            40960
 2017-02-05 18:32:59.577551+01 | 1486315979.57755 | pgbench_tellers_pkey  |           245760
 2017-02-05 18:32:59.577551+01 | 1486315979.57755 | pgbench_accounts_pkey |       2246197248

 2017-02-05 18:33:00.651905+01 | 1486315980.65191 | pgbench_branches_pkey |            40960
 2017-02-05 18:33:00.651905+01 | 1486315980.65191 | pgbench_tellers_pkey  |           245760
 2017-02-05 18:33:00.651905+01 | 1486315980.65191 | pgbench_accounts_pkey |       2246197248

 2017-02-05 18:33:01.736086+01 | 1486315981.73609 | pgbench_branches_pkey |            40960
 2017-02-05 18:33:01.736086+01 | 1486315981.73609 | pgbench_tellers_pkey  |           245760
 2017-02-05 18:33:01.736086+01 | 1486315981.73609 | pgbench_accounts_pkey |       2246197248

 2017-02-05 18:33:02.82043+01 | 1486315982.82043 | pgbench_branches_pkey |            40960
 2017-02-05 18:33:02.82043+01 | 1486315982.82043 | pgbench_tellers_pkey  |           245760
 2017-02-05 18:33:02.82043+01 | 1486315982.82043 | pgbench_accounts_pkey |       2246197248

 2017-02-05 18:33:03.898938+01 | 1486315983.89894 | pgbench_branches_pkey |            40960
 2017-02-05 18:33:03.898938+01 | 1486315983.89894 | pgbench_tellers_pkey  |           245760
 2017-02-05 18:33:03.898938+01 | 1486315983.89894 | pgbench_accounts_pkey |       2246197248

 2017-02-05 18:33:04.978114+01 | 1486315984.97811 | pgbench_branches_pkey |            40960
 2017-02-05 18:33:04.978114+01 | 1486315984.97811 | pgbench_tellers_pkey  |           245760
 2017-02-05 18:33:04.978114+01 | 1486315984.97811 | pgbench_accounts_pkey |       2246197248

 2017-02-05 18:33:06.056001+01 | 1486315986.056 | pgbench_branches_pkey |            40960
 2017-02-05 18:33:06.056001+01 | 1486315986.056 | pgbench_tellers_pkey  |           245760
 2017-02-05 18:33:06.056001+01 | 1486315986.056 | pgbench_accounts_pkey |       2246197248

 2017-02-05 18:33:07.133442+01 | 1486315987.13344 | pgbench_branches_pkey |            40960
 2017-02-05 18:33:07.133442+01 | 1486315987.13344 | pgbench_tellers_pkey  |           245760
 2017-02-05 18:33:07.133442+01 | 1486315987.13344 | pgbench_accounts_pkey |       2246197248

 2017-02-05 18:33:08.215676+01 | 1486315988.21568 | pgbench_branches_pkey |            40960
 2017-02-05 18:33:08.215676+01 | 1486315988.21568 | pgbench_tellers_pkey  |           245760
 2017-02-05 18:33:08.215676+01 | 1486315988.21568 | pgbench_accounts_pkey |       2246197248

 2017-02-05 18:33:09.296258+01 | 1486315989.29626 | pgbench_branches_pkey |            40960
 2017-02-05 18:33:09.296258+01 | 1486315989.29626 | pgbench_tellers_pkey  |           245760
 2017-02-05 18:33:09.296258+01 | 1486315989.29626 | pgbench_accounts_pkey |       2246197248

 2017-02-05 18:33:10.377768+01 | 1486315990.37777 | pgbench_branches_pkey |            40960
 2017-02-05 18:33:10.377768+01 | 1486315990.37777 | pgbench_tellers_pkey  |           245760
 2017-02-05 18:33:10.377768+01 | 1486315990.37777 | pgbench_accounts_pkey |       2246197248

 2017-02-05 18:33:11.455552+01 | 1486315991.45555 | pgbench_branches_pkey |            40960
 2017-02-05 18:33:11.455552+01 | 1486315991.45555 | pgbench_tellers_pkey  |           245760
 2017-02-05 18:33:11.455552+01 | 1486315991.45555 | pgbench_accounts_pkey |       2246197248

 2017-02-05 18:33:12.545962+01 | 1486315992.54596 | pgbench_branches_pkey |            40960
 2017-02-05 18:33:12.545962+01 | 1486315992.54596 | pgbench_tellers_pkey  |           245760
 2017-02-05 18:33:12.545962+01 | 1486315992.54596 | pgbench_accounts_pkey |       2246197248

 2017-02-05 18:33:13.628848+01 | 1486315993.62885 | pgbench_branches_pkey |            40960
 2017-02-05 18:33:13.628848+01 | 1486315993.62885 | pgbench_tellers_pkey  |           245760
 2017-02-05 18:33:13.628848+01 | 1486315993.62885 | pgbench_accounts_pkey |       2246197248

 2017-02-05 18:33:14.701752+01 | 1486315994.70175 | pgbench_branches_pkey |            40960
 2017-02-05 18:33:14.701752+01 | 1486315994.70175 | pgbench_tellers_pkey  |           245760
 2017-02-05 18:33:14.701752+01 | 1486315994.70175 | pgbench_accounts_pkey |       2246197248

 2017-02-05 18:33:15.779692+01 | 1486315995.77969 | pgbench_branches_pkey |            40960
 2017-02-05 18:33:15.779692+01 | 1486315995.77969 | pgbench_tellers_pkey  |           245760
 2017-02-05 18:33:15.779692+01 | 1486315995.77969 | pgbench_accounts_pkey |       2246197248

 2017-02-05 18:33:16.856152+01 | 1486315996.85615 | pgbench_branches_pkey |            40960
 2017-02-05 18:33:16.856152+01 | 1486315996.85615 | pgbench_tellers_pkey  |           245760
 2017-02-05 18:33:16.856152+01 | 1486315996.85615 | pgbench_accounts_pkey |       2246197248

 2017-02-05 18:33:17.944288+01 | 1486315997.94429 | pgbench_branches_pkey |            40960
 2017-02-05 18:33:17.944288+01 | 1486315997.94429 | pgbench_tellers_pkey  |           245760
 2017-02-05 18:33:17.944288+01 | 1486315997.94429 | pgbench_accounts_pkey |       2246197248

 2017-02-05 18:33:19.02804+01 | 1486315999.02804 | pgbench_branches_pkey |            40960
 2017-02-05 18:33:19.02804+01 | 1486315999.02804 | pgbench_tellers_pkey  |           245760
 2017-02-05 18:33:19.02804+01 | 1486315999.02804 | pgbench_accounts_pkey |       2246197248

 2017-02-05 18:33:20.114193+01 | 1486316000.11419 | pgbench_branches_pkey |            40960
 2017-02-05 18:33:20.114193+01 | 1486316000.11419 | pgbench_tellers_pkey  |           245760
 2017-02-05 18:33:20.114193+01 | 1486316000.11419 | pgbench_accounts_pkey |       2246197248

 2017-02-05 18:33:21.20111+01 | 1486316001.20111 | pgbench_branches_pkey |            40960
 2017-02-05 18:33:21.20111+01 | 1486316001.20111 | pgbench_tellers_pkey  |           245760
 2017-02-05 18:33:21.20111+01 | 1486316001.20111 | pgbench_accounts_pkey |       2246197248

 2017-02-05 18:33:22.284517+01 | 1486316002.28452 | pgbench_branches_pkey |            40960
 2017-02-05 18:33:22.284517+01 | 1486316002.28452 | pgbench_tellers_pkey  |           245760
 2017-02-05 18:33:22.284517+01 | 1486316002.28452 | pgbench_accounts_pkey |       2246197248

 2017-02-05 18:33:23.359904+01 | 1486316003.3599 | pgbench_branches_pkey |            40960
 2017-02-05 18:33:23.359904+01 | 1486316003.3599 | pgbench_tellers_pkey  |           245760
 2017-02-05 18:33:23.359904+01 | 1486316003.3599 | pgbench_accounts_pkey |       2246197248

 2017-02-05 18:33:24.44822+01 | 1486316004.44822 | pgbench_branches_pkey |            40960
 2017-02-05 18:33:24.44822+01 | 1486316004.44822 | pgbench_tellers_pkey  |           245760
 2017-02-05 18:33:24.44822+01 | 1486316004.44822 | pgbench_accounts_pkey |       2246197248

 2017-02-05 18:33:25.531948+01 | 1486316005.53195 | pgbench_branches_pkey |            40960
 2017-02-05 18:33:25.531948+01 | 1486316005.53195 | pgbench_tellers_pkey  |           245760
 2017-02-05 18:33:25.531948+01 | 1486316005.53195 | pgbench_accounts_pkey |       2246197248

 2017-02-05 18:33:26.618801+01 | 1486316006.6188 | pgbench_branches_pkey |            40960
 2017-02-05 18:33:26.618801+01 | 1486316006.6188 | pgbench_tellers_pkey  |           245760
 2017-02-05 18:33:26.618801+01 | 1486316006.6188 | pgbench_accounts_pkey |       2246197248

 2017-02-05 18:33:27.702962+01 | 1486316007.70296 | pgbench_branches_pkey |            40960
 2017-02-05 18:33:27.702962+01 | 1486316007.70296 | pgbench_tellers_pkey  |           245760
 2017-02-05 18:33:27.702962+01 | 1486316007.70296 | pgbench_accounts_pkey |       2246197248

 2017-02-05 18:33:28.78453+01 | 1486316008.78453 | pgbench_branches_pkey |            40960
 2017-02-05 18:33:28.78453+01 | 1486316008.78453 | pgbench_tellers_pkey  |           245760
 2017-02-05 18:33:28.78453+01 | 1486316008.78453 | pgbench_accounts_pkey |       2246197248

 2017-02-05 18:33:29.856566+01 | 1486316009.85657 | pgbench_branches_pkey |            40960
 2017-02-05 18:33:29.856566+01 | 1486316009.85657 | pgbench_tellers_pkey  |           245760
 2017-02-05 18:33:29.856566+01 | 1486316009.85657 | pgbench_accounts_pkey |       2246197248

 2017-02-05 18:33:30.929422+01 | 1486316010.92942 | pgbench_branches_pkey |            40960
 2017-02-05 18:33:30.929422+01 | 1486316010.92942 | pgbench_tellers_pkey  |           245760
 2017-02-05 18:33:30.929422+01 | 1486316010.92942 | pgbench_accounts_pkey |       2246197248

 2017-02-05 18:33:32.015289+01 | 1486316012.01529 | pgbench_branches_pkey |            40960
 2017-02-05 18:33:32.015289+01 | 1486316012.01529 | pgbench_tellers_pkey  |           245760
 2017-02-05 18:33:32.015289+01 | 1486316012.01529 | pgbench_accounts_pkey |       2246197248

 2017-02-05 18:33:33.096675+01 | 1486316013.09667 | pgbench_branches_pkey |            40960
 2017-02-05 18:33:33.096675+01 | 1486316013.09667 | pgbench_tellers_pkey  |           245760
 2017-02-05 18:33:33.096675+01 | 1486316013.09667 | pgbench_accounts_pkey |       2246197248

 2017-02-05 18:33:34.179912+01 | 1486316014.17991 | pgbench_branches_pkey |            40960
 2017-02-05 18:33:34.179912+01 | 1486316014.17991 | pgbench_tellers_pkey  |           245760
 2017-02-05 18:33:34.179912+01 | 1486316014.17991 | pgbench_accounts_pkey |       2246197248

 2017-02-05 18:33:35.256058+01 | 1486316015.25606 | pgbench_branches_pkey |            40960
 2017-02-05 18:33:35.256058+01 | 1486316015.25606 | pgbench_tellers_pkey  |           245760
 2017-02-05 18:33:35.256058+01 | 1486316015.25606 | pgbench_accounts_pkey |       2246197248

 2017-02-05 18:33:36.330375+01 | 1486316016.33037 | pgbench_branches_pkey |            40960
 2017-02-05 18:33:36.330375+01 | 1486316016.33037 | pgbench_tellers_pkey  |           245760
 2017-02-05 18:33:36.330375+01 | 1486316016.33037 | pgbench_accounts_pkey |       2246197248

 2017-02-05 18:33:37.408681+01 | 1486316017.40868 | pgbench_branches_pkey |            40960
 2017-02-05 18:33:37.408681+01 | 1486316017.40868 | pgbench_tellers_pkey  |           245760
 2017-02-05 18:33:37.408681+01 | 1486316017.40868 | pgbench_accounts_pkey |       2246197248

 2017-02-05 18:33:38.485345+01 | 1486316018.48534 | pgbench_branches_pkey |            40960
 2017-02-05 18:33:38.485345+01 | 1486316018.48534 | pgbench_tellers_pkey  |           245760
 2017-02-05 18:33:38.485345+01 | 1486316018.48534 | pgbench_accounts_pkey |       2246197248

 2017-02-05 18:33:39.56265+01 | 1486316019.56265 | pgbench_branches_pkey |            40960
 2017-02-05 18:33:39.56265+01 | 1486316019.56265 | pgbench_tellers_pkey  |           245760
 2017-02-05 18:33:39.56265+01 | 1486316019.56265 | pgbench_accounts_pkey |       2246197248

 2017-02-05 18:33:40.637426+01 | 1486316020.63743 | pgbench_branches_pkey |            40960
 2017-02-05 18:33:40.637426+01 | 1486316020.63743 | pgbench_tellers_pkey  |           245760
 2017-02-05 18:33:40.637426+01 | 1486316020.63743 | pgbench_accounts_pkey |       2246197248

 2017-02-05 18:33:41.717877+01 | 1486316021.71788 | pgbench_branches_pkey |            40960
 2017-02-05 18:33:41.717877+01 | 1486316021.71788 | pgbench_tellers_pkey  |           245760
 2017-02-05 18:33:41.717877+01 | 1486316021.71788 | pgbench_accounts_pkey |       2246197248

 2017-02-05 18:33:42.797223+01 | 1486316022.79722 | pgbench_branches_pkey |            40960
 2017-02-05 18:33:42.797223+01 | 1486316022.79722 | pgbench_tellers_pkey  |           245760
 2017-02-05 18:33:42.797223+01 | 1486316022.79722 | pgbench_accounts_pkey |       2246197248

 2017-02-05 18:33:43.875599+01 | 1486316023.8756 | pgbench_branches_pkey |            40960
 2017-02-05 18:33:43.875599+01 | 1486316023.8756 | pgbench_tellers_pkey  |           245760
 2017-02-05 18:33:43.875599+01 | 1486316023.8756 | pgbench_accounts_pkey |       2246197248

 2017-02-05 18:33:44.949753+01 | 1486316024.94975 | pgbench_branches_pkey |            40960
 2017-02-05 18:33:44.949753+01 | 1486316024.94975 | pgbench_tellers_pkey  |           245760
 2017-02-05 18:33:44.949753+01 | 1486316024.94975 | pgbench_accounts_pkey |       2246197248

 2017-02-05 18:33:46.031836+01 | 1486316026.03184 | pgbench_branches_pkey |            40960
 2017-02-05 18:33:46.031836+01 | 1486316026.03184 | pgbench_tellers_pkey  |           245760
 2017-02-05 18:33:46.031836+01 | 1486316026.03184 | pgbench_accounts_pkey |       2246197248

 2017-02-05 18:33:47.108122+01 | 1486316027.10812 | pgbench_branches_pkey |            40960
 2017-02-05 18:33:47.108122+01 | 1486316027.10812 | pgbench_tellers_pkey  |           245760
 2017-02-05 18:33:47.108122+01 | 1486316027.10812 | pgbench_accounts_pkey |       2246197248

 2017-02-05 18:33:48.182996+01 | 1486316028.183 | pgbench_branches_pkey |            40960
 2017-02-05 18:33:48.182996+01 | 1486316028.183 | pgbench_tellers_pkey  |           245760
 2017-02-05 18:33:48.182996+01 | 1486316028.183 | pgbench_accounts_pkey |       2246197248

 2017-02-05 18:33:49.26437+01 | 1486316029.26437 | pgbench_branches_pkey |            40960
 2017-02-05 18:33:49.26437+01 | 1486316029.26437 | pgbench_tellers_pkey  |           245760
 2017-02-05 18:33:49.26437+01 | 1486316029.26437 | pgbench_accounts_pkey |       2246197248

 2017-02-05 18:33:50.339563+01 | 1486316030.33956 | pgbench_branches_pkey |            40960
 2017-02-05 18:33:50.339563+01 | 1486316030.33956 | pgbench_tellers_pkey  |           245760
 2017-02-05 18:33:50.339563+01 | 1486316030.33956 | pgbench_accounts_pkey |       2246197248

 2017-02-05 18:33:51.42236+01 | 1486316031.42236 | pgbench_branches_pkey |            40960
 2017-02-05 18:33:51.42236+01 | 1486316031.42236 | pgbench_tellers_pkey  |           245760
 2017-02-05 18:33:51.42236+01 | 1486316031.42236 | pgbench_accounts_pkey |       2246197248

 2017-02-05 18:33:52.503312+01 | 1486316032.50331 | pgbench_branches_pkey |            40960
 2017-02-05 18:33:52.503312+01 | 1486316032.50331 | pgbench_tellers_pkey  |           245760
 2017-02-05 18:33:52.503312+01 | 1486316032.50331 | pgbench_accounts_pkey |       2246197248

 2017-02-05 18:33:53.579271+01 | 1486316033.57927 | pgbench_branches_pkey |            40960
 2017-02-05 18:33:53.579271+01 | 1486316033.57927 | pgbench_tellers_pkey  |           245760
 2017-02-05 18:33:53.579271+01 | 1486316033.57927 | pgbench_accounts_pkey |       2246197248

 2017-02-05 18:33:54.668312+01 | 1486316034.66831 | pgbench_branches_pkey |            40960
 2017-02-05 18:33:54.668312+01 | 1486316034.66831 | pgbench_tellers_pkey  |           245760
 2017-02-05 18:33:54.668312+01 | 1486316034.66831 | pgbench_accounts_pkey |       2246197248

 2017-02-05 18:33:55.754026+01 | 1486316035.75403 | pgbench_branches_pkey |            40960
 2017-02-05 18:33:55.754026+01 | 1486316035.75403 | pgbench_tellers_pkey  |           245760
 2017-02-05 18:33:55.754026+01 | 1486316035.75403 | pgbench_accounts_pkey |       2246197248

 2017-02-05 18:33:56.835467+01 | 1486316036.83547 | pgbench_branches_pkey |            40960
 2017-02-05 18:33:56.835467+01 | 1486316036.83547 | pgbench_tellers_pkey  |           245760
 2017-02-05 18:33:56.835467+01 | 1486316036.83547 | pgbench_accounts_pkey |       2246197248

 2017-02-05 18:33:57.926907+01 | 1486316037.92691 | pgbench_branches_pkey |            40960
 2017-02-05 18:33:57.926907+01 | 1486316037.92691 | pgbench_tellers_pkey  |           245760
 2017-02-05 18:33:57.926907+01 | 1486316037.92691 | pgbench_accounts_pkey |       2246197248

 2017-02-05 18:33:59.005261+01 | 1486316039.00526 | pgbench_branches_pkey |            40960
 2017-02-05 18:33:59.005261+01 | 1486316039.00526 | pgbench_tellers_pkey  |           245760
 2017-02-05 18:33:59.005261+01 | 1486316039.00526 | pgbench_accounts_pkey |       2246197248

 2017-02-05 18:34:00.090877+01 | 1486316040.09088 | pgbench_branches_pkey |            40960
 2017-02-05 18:34:00.090877+01 | 1486316040.09088 | pgbench_tellers_pkey  |           245760
 2017-02-05 18:34:00.090877+01 | 1486316040.09088 | pgbench_accounts_pkey |       2246197248

 2017-02-05 18:34:01.169655+01 | 1486316041.16966 | pgbench_branches_pkey |            40960
 2017-02-05 18:34:01.169655+01 | 1486316041.16966 | pgbench_tellers_pkey  |           245760
 2017-02-05 18:34:01.169655+01 | 1486316041.16966 | pgbench_accounts_pkey |       2246197248

 2017-02-05 18:34:02.249002+01 | 1486316042.249 | pgbench_branches_pkey |            40960
 2017-02-05 18:34:02.249002+01 | 1486316042.249 | pgbench_tellers_pkey  |           245760
 2017-02-05 18:34:02.249002+01 | 1486316042.249 | pgbench_accounts_pkey |       2246197248

 2017-02-05 18:34:03.322098+01 | 1486316043.3221 | pgbench_branches_pkey |            40960
 2017-02-05 18:34:03.322098+01 | 1486316043.3221 | pgbench_tellers_pkey  |           245760
 2017-02-05 18:34:03.322098+01 | 1486316043.3221 | pgbench_accounts_pkey |       2246197248

 2017-02-05 18:34:04.400521+01 | 1486316044.40052 | pgbench_branches_pkey |            40960
 2017-02-05 18:34:04.400521+01 | 1486316044.40052 | pgbench_tellers_pkey  |           245760
 2017-02-05 18:34:04.400521+01 | 1486316044.40052 | pgbench_accounts_pkey |       2246197248

 2017-02-05 18:34:05.477561+01 | 1486316045.47756 | pgbench_branches_pkey |            40960
 2017-02-05 18:34:05.477561+01 | 1486316045.47756 | pgbench_tellers_pkey  |           245760
 2017-02-05 18:34:05.477561+01 | 1486316045.47756 | pgbench_accounts_pkey |       2246197248

 2017-02-05 18:34:06.556545+01 | 1486316046.55655 | pgbench_branches_pkey |            40960
 2017-02-05 18:34:06.556545+01 | 1486316046.55655 | pgbench_tellers_pkey  |           245760
 2017-02-05 18:34:06.556545+01 | 1486316046.55655 | pgbench_accounts_pkey |       2246197248

 2017-02-05 18:34:07.64235+01 | 1486316047.64235 | pgbench_branches_pkey |            40960
 2017-02-05 18:34:07.64235+01 | 1486316047.64235 | pgbench_tellers_pkey  |           245760
 2017-02-05 18:34:07.64235+01 | 1486316047.64235 | pgbench_accounts_pkey |       2246197248

 2017-02-05 18:34:08.726261+01 | 1486316048.72626 | pgbench_branches_pkey |            40960
 2017-02-05 18:34:08.726261+01 | 1486316048.72626 | pgbench_tellers_pkey  |           245760
 2017-02-05 18:34:08.726261+01 | 1486316048.72626 | pgbench_accounts_pkey |       2246197248

 2017-02-05 18:34:09.806086+01 | 1486316049.80609 | pgbench_branches_pkey |            40960
 2017-02-05 18:34:09.806086+01 | 1486316049.80609 | pgbench_tellers_pkey  |           245760
 2017-02-05 18:34:09.806086+01 | 1486316049.80609 | pgbench_accounts_pkey |       2246197248

 2017-02-05 18:34:10.877609+01 | 1486316050.87761 | pgbench_branches_pkey |            40960
 2017-02-05 18:34:10.877609+01 | 1486316050.87761 | pgbench_tellers_pkey  |           245760
 2017-02-05 18:34:10.877609+01 | 1486316050.87761 | pgbench_accounts_pkey |       2246197248

 2017-02-05 18:34:11.962813+01 | 1486316051.96281 | pgbench_branches_pkey |            40960
 2017-02-05 18:34:11.962813+01 | 1486316051.96281 | pgbench_tellers_pkey  |           245760
 2017-02-05 18:34:11.962813+01 | 1486316051.96281 | pgbench_accounts_pkey |       2246197248

 2017-02-05 18:34:13.04707+01 | 1486316053.04707 | pgbench_branches_pkey |            40960
 2017-02-05 18:34:13.04707+01 | 1486316053.04707 | pgbench_tellers_pkey  |           245760
 2017-02-05 18:34:13.04707+01 | 1486316053.04707 | pgbench_accounts_pkey |       2246197248

 2017-02-05 18:34:14.123151+01 | 1486316054.12315 | pgbench_branches_pkey |            40960
 2017-02-05 18:34:14.123151+01 | 1486316054.12315 | pgbench_tellers_pkey  |           245760
 2017-02-05 18:34:14.123151+01 | 1486316054.12315 | pgbench_accounts_pkey |       2246197248

 2017-02-05 18:34:15.206087+01 | 1486316055.20609 | pgbench_branches_pkey |            40960
 2017-02-05 18:34:15.206087+01 | 1486316055.20609 | pgbench_tellers_pkey  |           245760
 2017-02-05 18:34:15.206087+01 | 1486316055.20609 | pgbench_accounts_pkey |       2246197248

 2017-02-05 18:34:16.293702+01 | 1486316056.2937 | pgbench_branches_pkey |            40960
 2017-02-05 18:34:16.293702+01 | 1486316056.2937 | pgbench_tellers_pkey  |           245760
 2017-02-05 18:34:16.293702+01 | 1486316056.2937 | pgbench_accounts_pkey |       2246197248

 2017-02-05 18:34:17.378129+01 | 1486316057.37813 | pgbench_branches_pkey |            40960
 2017-02-05 18:34:17.378129+01 | 1486316057.37813 | pgbench_tellers_pkey  |           245760
 2017-02-05 18:34:17.378129+01 | 1486316057.37813 | pgbench_accounts_pkey |       2246197248

 2017-02-05 18:34:18.457257+01 | 1486316058.45726 | pgbench_branches_pkey |            40960
 2017-02-05 18:34:18.457257+01 | 1486316058.45726 | pgbench_tellers_pkey  |           245760
 2017-02-05 18:34:18.457257+01 | 1486316058.45726 | pgbench_accounts_pkey |       2246197248

 2017-02-05 18:34:19.536619+01 | 1486316059.53662 | pgbench_branches_pkey |            40960
 2017-02-05 18:34:19.536619+01 | 1486316059.53662 | pgbench_tellers_pkey  |           245760
 2017-02-05 18:34:19.536619+01 | 1486316059.53662 | pgbench_accounts_pkey |       2246197248

 2017-02-05 18:34:20.61077+01 | 1486316060.61077 | pgbench_branches_pkey |            40960
 2017-02-05 18:34:20.61077+01 | 1486316060.61077 | pgbench_tellers_pkey  |           245760
 2017-02-05 18:34:20.61077+01 | 1486316060.61077 | pgbench_accounts_pkey |       2246197248

 2017-02-05 18:34:21.685092+01 | 1486316061.68509 | pgbench_branches_pkey |            40960
 2017-02-05 18:34:21.685092+01 | 1486316061.68509 | pgbench_tellers_pkey  |           245760
 2017-02-05 18:34:21.685092+01 | 1486316061.68509 | pgbench_accounts_pkey |       2246197248

 2017-02-05 18:34:22.763848+01 | 1486316062.76385 | pgbench_branches_pkey |            40960
 2017-02-05 18:34:22.763848+01 | 1486316062.76385 | pgbench_tellers_pkey  |           245760
 2017-02-05 18:34:22.763848+01 | 1486316062.76385 | pgbench_accounts_pkey |       2246197248

 2017-02-05 18:34:23.844469+01 | 1486316063.84447 | pgbench_branches_pkey |            40960
 2017-02-05 18:34:23.844469+01 | 1486316063.84447 | pgbench_tellers_pkey  |           245760
 2017-02-05 18:34:23.844469+01 | 1486316063.84447 | pgbench_accounts_pkey |       2246197248

 2017-02-05 18:34:24.924917+01 | 1486316064.92492 | pgbench_branches_pkey |            40960
 2017-02-05 18:34:24.924917+01 | 1486316064.92492 | pgbench_tellers_pkey  |           245760
 2017-02-05 18:34:24.924917+01 | 1486316064.92492 | pgbench_accounts_pkey |       2246197248

 2017-02-05 18:34:26.015433+01 | 1486316066.01543 | pgbench_branches_pkey |            40960
 2017-02-05 18:34:26.015433+01 | 1486316066.01543 | pgbench_tellers_pkey  |           245760
 2017-02-05 18:34:26.015433+01 | 1486316066.01543 | pgbench_accounts_pkey |       2246197248

 2017-02-05 18:34:27.095932+01 | 1486316067.09593 | pgbench_branches_pkey |            40960
 2017-02-05 18:34:27.095932+01 | 1486316067.09593 | pgbench_tellers_pkey  |           245760
 2017-02-05 18:34:27.095932+01 | 1486316067.09593 | pgbench_accounts_pkey |       2246197248

 2017-02-05 18:34:28.17897+01 | 1486316068.17897 | pgbench_branches_pkey |            40960
 2017-02-05 18:34:28.17897+01 | 1486316068.17897 | pgbench_tellers_pkey  |           245760
 2017-02-05 18:34:28.17897+01 | 1486316068.17897 | pgbench_accounts_pkey |       2246197248

 2017-02-05 18:34:29.258752+01 | 1486316069.25875 | pgbench_branches_pkey |            40960
 2017-02-05 18:34:29.258752+01 | 1486316069.25875 | pgbench_tellers_pkey  |           245760
 2017-02-05 18:34:29.258752+01 | 1486316069.25875 | pgbench_accounts_pkey |       2246197248

 2017-02-05 18:34:30.346446+01 | 1486316070.34645 | pgbench_branches_pkey |            40960
 2017-02-05 18:34:30.346446+01 | 1486316070.34645 | pgbench_tellers_pkey  |           245760
 2017-02-05 18:34:30.346446+01 | 1486316070.34645 | pgbench_accounts_pkey |       2246197248

 2017-02-05 18:34:31.432663+01 | 1486316071.43266 | pgbench_branches_pkey |            40960
 2017-02-05 18:34:31.432663+01 | 1486316071.43266 | pgbench_tellers_pkey  |           245760
 2017-02-05 18:34:31.432663+01 | 1486316071.43266 | pgbench_accounts_pkey |       2246197248

 2017-02-05 18:34:32.520496+01 | 1486316072.5205 | pgbench_branches_pkey |            40960
 2017-02-05 18:34:32.520496+01 | 1486316072.5205 | pgbench_tellers_pkey  |           245760
 2017-02-05 18:34:32.520496+01 | 1486316072.5205 | pgbench_accounts_pkey |       2246197248

 2017-02-05 18:34:33.602291+01 | 1486316073.60229 | pgbench_branches_pkey |            40960
 2017-02-05 18:34:33.602291+01 | 1486316073.60229 | pgbench_tellers_pkey  |           245760
 2017-02-05 18:34:33.602291+01 | 1486316073.60229 | pgbench_accounts_pkey |       2246197248

 2017-02-05 18:34:34.693959+01 | 1486316074.69396 | pgbench_branches_pkey |            40960
 2017-02-05 18:34:34.693959+01 | 1486316074.69396 | pgbench_tellers_pkey  |           245760
 2017-02-05 18:34:34.693959+01 | 1486316074.69396 | pgbench_accounts_pkey |       2246197248

 2017-02-05 18:34:35.777657+01 | 1486316075.77766 | pgbench_branches_pkey |            40960
 2017-02-05 18:34:35.777657+01 | 1486316075.77766 | pgbench_tellers_pkey  |           245760
 2017-02-05 18:34:35.777657+01 | 1486316075.77766 | pgbench_accounts_pkey |       2246197248

 2017-02-05 18:34:36.854506+01 | 1486316076.85451 | pgbench_branches_pkey |            40960
 2017-02-05 18:34:36.854506+01 | 1486316076.85451 | pgbench_tellers_pkey  |           245760
 2017-02-05 18:34:36.854506+01 | 1486316076.85451 | pgbench_accounts_pkey |       2246197248

 2017-02-05 18:34:37.933591+01 | 1486316077.93359 | pgbench_branches_pkey |            40960
 2017-02-05 18:34:37.933591+01 | 1486316077.93359 | pgbench_tellers_pkey  |           245760
 2017-02-05 18:34:37.933591+01 | 1486316077.93359 | pgbench_accounts_pkey |       2246197248

 2017-02-05 18:34:39.013745+01 | 1486316079.01375 | pgbench_branches_pkey |            40960
 2017-02-05 18:34:39.013745+01 | 1486316079.01375 | pgbench_tellers_pkey  |           245760
 2017-02-05 18:34:39.013745+01 | 1486316079.01375 | pgbench_accounts_pkey |       2246197248

 2017-02-05 18:34:40.094338+01 | 1486316080.09434 | pgbench_branches_pkey |            40960
 2017-02-05 18:34:40.094338+01 | 1486316080.09434 | pgbench_tellers_pkey  |           245760
 2017-02-05 18:34:40.094338+01 | 1486316080.09434 | pgbench_accounts_pkey |       2246197248

 2017-02-05 18:34:41.178333+01 | 1486316081.17833 | pgbench_branches_pkey |            40960
 2017-02-05 18:34:41.178333+01 | 1486316081.17833 | pgbench_tellers_pkey  |           245760
 2017-02-05 18:34:41.178333+01 | 1486316081.17833 | pgbench_accounts_pkey |       2246197248

 2017-02-05 18:34:42.253351+01 | 1486316082.25335 | pgbench_branches_pkey |            40960
 2017-02-05 18:34:42.253351+01 | 1486316082.25335 | pgbench_tellers_pkey  |           245760
 2017-02-05 18:34:42.253351+01 | 1486316082.25335 | pgbench_accounts_pkey |       2246197248

 2017-02-05 18:34:43.329015+01 | 1486316083.32902 | pgbench_branches_pkey |            40960
 2017-02-05 18:34:43.329015+01 | 1486316083.32902 | pgbench_tellers_pkey  |           245760
 2017-02-05 18:34:43.329015+01 | 1486316083.32902 | pgbench_accounts_pkey |       2246197248

 2017-02-05 18:34:44.405782+01 | 1486316084.40578 | pgbench_branches_pkey |            40960
 2017-02-05 18:34:44.405782+01 | 1486316084.40578 | pgbench_tellers_pkey  |           245760
 2017-02-05 18:34:44.405782+01 | 1486316084.40578 | pgbench_accounts_pkey |       2246197248

 2017-02-05 18:34:45.486776+01 | 1486316085.48678 | pgbench_branches_pkey |            40960
 2017-02-05 18:34:45.486776+01 | 1486316085.48678 | pgbench_tellers_pkey  |           245760
 2017-02-05 18:34:45.486776+01 | 1486316085.48678 | pgbench_accounts_pkey |       2246197248

 2017-02-05 18:34:46.573564+01 | 1486316086.57356 | pgbench_branches_pkey |            40960
 2017-02-05 18:34:46.573564+01 | 1486316086.57356 | pgbench_tellers_pkey  |           245760
 2017-02-05 18:34:46.573564+01 | 1486316086.57356 | pgbench_accounts_pkey |       2246197248

 2017-02-05 18:34:47.666934+01 | 1486316087.66693 | pgbench_branches_pkey |            40960
 2017-02-05 18:34:47.666934+01 | 1486316087.66693 | pgbench_tellers_pkey  |           245760
 2017-02-05 18:34:47.666934+01 | 1486316087.66693 | pgbench_accounts_pkey |       2246197248

 2017-02-05 18:34:48.757653+01 | 1486316088.75765 | pgbench_branches_pkey |            40960
 2017-02-05 18:34:48.757653+01 | 1486316088.75765 | pgbench_tellers_pkey  |           245760
 2017-02-05 18:34:48.757653+01 | 1486316088.75765 | pgbench_accounts_pkey |       2246197248

 2017-02-05 18:34:49.839141+01 | 1486316089.83914 | pgbench_branches_pkey |            40960
 2017-02-05 18:34:49.839141+01 | 1486316089.83914 | pgbench_tellers_pkey  |           245760
 2017-02-05 18:34:49.839141+01 | 1486316089.83914 | pgbench_accounts_pkey |       2246197248

 2017-02-05 18:34:50.926025+01 | 1486316090.92602 | pgbench_branches_pkey |            40960
 2017-02-05 18:34:50.926025+01 | 1486316090.92602 | pgbench_tellers_pkey  |           245760
 2017-02-05 18:34:50.926025+01 | 1486316090.92602 | pgbench_accounts_pkey |       2246197248

 2017-02-05 18:34:52.001955+01 | 1486316092.00196 | pgbench_branches_pkey |            40960
 2017-02-05 18:34:52.001955+01 | 1486316092.00196 | pgbench_tellers_pkey  |           245760
 2017-02-05 18:34:52.001955+01 | 1486316092.00196 | pgbench_accounts_pkey |       2246197248

 2017-02-05 18:34:53.095528+01 | 1486316093.09553 | pgbench_branches_pkey |            40960
 2017-02-05 18:34:53.095528+01 | 1486316093.09553 | pgbench_tellers_pkey  |           245760
 2017-02-05 18:34:53.095528+01 | 1486316093.09553 | pgbench_accounts_pkey |       2246197248

 2017-02-05 18:34:54.170877+01 | 1486316094.17088 | pgbench_branches_pkey |            40960
 2017-02-05 18:34:54.170877+01 | 1486316094.17088 | pgbench_tellers_pkey  |           245760
 2017-02-05 18:34:54.170877+01 | 1486316094.17088 | pgbench_accounts_pkey |       2246197248

 2017-02-05 18:34:55.251362+01 | 1486316095.25136 | pgbench_branches_pkey |            40960
 2017-02-05 18:34:55.251362+01 | 1486316095.25136 | pgbench_tellers_pkey  |           245760
 2017-02-05 18:34:55.251362+01 | 1486316095.25136 | pgbench_accounts_pkey |       2246197248

 2017-02-05 18:34:56.32679+01 | 1486316096.32679 | pgbench_branches_pkey |            40960
 2017-02-05 18:34:56.32679+01 | 1486316096.32679 | pgbench_tellers_pkey  |           245760
 2017-02-05 18:34:56.32679+01 | 1486316096.32679 | pgbench_accounts_pkey |       2246197248

 2017-02-05 18:34:57.400829+01 | 1486316097.40083 | pgbench_branches_pkey |            40960
 2017-02-05 18:34:57.400829+01 | 1486316097.40083 | pgbench_tellers_pkey  |           245760
 2017-02-05 18:34:57.400829+01 | 1486316097.40083 | pgbench_accounts_pkey |       2246197248

 2017-02-05 18:34:58.481061+01 | 1486316098.48106 | pgbench_branches_pkey |            40960
 2017-02-05 18:34:58.481061+01 | 1486316098.48106 | pgbench_tellers_pkey  |           245760
 2017-02-05 18:34:58.481061+01 | 1486316098.48106 | pgbench_accounts_pkey |       2246197248

 2017-02-05 18:34:59.571328+01 | 1486316099.57133 | pgbench_branches_pkey |            40960
 2017-02-05 18:34:59.571328+01 | 1486316099.57133 | pgbench_tellers_pkey  |           245760
 2017-02-05 18:34:59.571328+01 | 1486316099.57133 | pgbench_accounts_pkey |       2246197248

 2017-02-05 18:35:00.652519+01 | 1486316100.65252 | pgbench_branches_pkey |            40960
 2017-02-05 18:35:00.652519+01 | 1486316100.65252 | pgbench_tellers_pkey  |           245760
 2017-02-05 18:35:00.652519+01 | 1486316100.65252 | pgbench_accounts_pkey |       2246197248

 2017-02-05 18:35:01.736371+01 | 1486316101.73637 | pgbench_branches_pkey |            40960
 2017-02-05 18:35:01.736371+01 | 1486316101.73637 | pgbench_tellers_pkey  |           245760
 2017-02-05 18:35:01.736371+01 | 1486316101.73637 | pgbench_accounts_pkey |       2246197248

 2017-02-05 18:35:02.821615+01 | 1486316102.82161 | pgbench_branches_pkey |            40960
 2017-02-05 18:35:02.821615+01 | 1486316102.82161 | pgbench_tellers_pkey  |           245760
 2017-02-05 18:35:02.821615+01 | 1486316102.82161 | pgbench_accounts_pkey |       2246197248

 2017-02-05 18:35:03.904161+01 | 1486316103.90416 | pgbench_branches_pkey |            40960
 2017-02-05 18:35:03.904161+01 | 1486316103.90416 | pgbench_tellers_pkey  |           245760
 2017-02-05 18:35:03.904161+01 | 1486316103.90416 | pgbench_accounts_pkey |       2246197248

 2017-02-05 18:35:04.992129+01 | 1486316104.99213 | pgbench_branches_pkey |            40960
 2017-02-05 18:35:04.992129+01 | 1486316104.99213 | pgbench_tellers_pkey  |           245760
 2017-02-05 18:35:04.992129+01 | 1486316104.99213 | pgbench_accounts_pkey |       2246197248

 2017-02-05 18:35:06.073034+01 | 1486316106.07303 | pgbench_branches_pkey |            40960
 2017-02-05 18:35:06.073034+01 | 1486316106.07303 | pgbench_tellers_pkey  |           245760
 2017-02-05 18:35:06.073034+01 | 1486316106.07303 | pgbench_accounts_pkey |       2246197248

 2017-02-05 18:35:07.144527+01 | 1486316107.14453 | pgbench_branches_pkey |            40960
 2017-02-05 18:35:07.144527+01 | 1486316107.14453 | pgbench_tellers_pkey  |           245760
 2017-02-05 18:35:07.144527+01 | 1486316107.14453 | pgbench_accounts_pkey |       2246197248

 2017-02-05 18:35:08.225208+01 | 1486316108.22521 | pgbench_branches_pkey |            40960
 2017-02-05 18:35:08.225208+01 | 1486316108.22521 | pgbench_tellers_pkey  |           245760
 2017-02-05 18:35:08.225208+01 | 1486316108.22521 | pgbench_accounts_pkey |       2246197248

 2017-02-05 18:35:09.310382+01 | 1486316109.31038 | pgbench_branches_pkey |            40960
 2017-02-05 18:35:09.310382+01 | 1486316109.31038 | pgbench_tellers_pkey  |           245760
 2017-02-05 18:35:09.310382+01 | 1486316109.31038 | pgbench_accounts_pkey |       2246197248

 2017-02-05 18:35:10.390596+01 | 1486316110.3906 | pgbench_branches_pkey |            40960
 2017-02-05 18:35:10.390596+01 | 1486316110.3906 | pgbench_tellers_pkey  |           245760
 2017-02-05 18:35:10.390596+01 | 1486316110.3906 | pgbench_accounts_pkey |       2246197248

 2017-02-05 18:35:11.467622+01 | 1486316111.46762 | pgbench_branches_pkey |            40960
 2017-02-05 18:35:11.467622+01 | 1486316111.46762 | pgbench_tellers_pkey  |           245760
 2017-02-05 18:35:11.467622+01 | 1486316111.46762 | pgbench_accounts_pkey |       2246197248

 2017-02-05 18:35:12.544456+01 | 1486316112.54446 | pgbench_branches_pkey |            40960
 2017-02-05 18:35:12.544456+01 | 1486316112.54446 | pgbench_tellers_pkey  |           245760
 2017-02-05 18:35:12.544456+01 | 1486316112.54446 | pgbench_accounts_pkey |       2246197248

 2017-02-05 18:35:13.629318+01 | 1486316113.62932 | pgbench_branches_pkey |            40960
 2017-02-05 18:35:13.629318+01 | 1486316113.62932 | pgbench_tellers_pkey  |           245760
 2017-02-05 18:35:13.629318+01 | 1486316113.62932 | pgbench_accounts_pkey |       2246197248

 2017-02-05 18:35:14.706208+01 | 1486316114.70621 | pgbench_branches_pkey |            40960
 2017-02-05 18:35:14.706208+01 | 1486316114.70621 | pgbench_tellers_pkey  |           245760
 2017-02-05 18:35:14.706208+01 | 1486316114.70621 | pgbench_accounts_pkey |       2246197248

 2017-02-05 18:35:15.78573+01 | 1486316115.78573 | pgbench_branches_pkey |            40960
 2017-02-05 18:35:15.78573+01 | 1486316115.78573 | pgbench_tellers_pkey  |           245760
 2017-02-05 18:35:15.78573+01 | 1486316115.78573 | pgbench_accounts_pkey |       2246197248

