 2017-02-05 23:21:41.769568+01 | 1486333301.76957 |                 0 |               7 |                   233 |                   19 |               2183 |             0 |                0 |          487803 |                     0 |        191841 | 2017-02-05 22:51:16.555195+01

 2017-02-05 23:21:42.865062+01 | 1486333302.86506 |                 0 |               7 |                   233 |                   19 |               2183 |             0 |                0 |          487803 |                     0 |        191841 | 2017-02-05 22:51:16.555195+01

 2017-02-05 23:21:43.966193+01 | 1486333303.96619 |                 0 |               7 |                   233 |                   19 |               2183 |             0 |                0 |          487803 |                     0 |        191841 | 2017-02-05 22:51:16.555195+01

 2017-02-05 23:21:45.066281+01 | 1486333305.06628 |                 0 |               7 |                   233 |                   19 |               2183 |             0 |                0 |          487803 |                     0 |        191841 | 2017-02-05 22:51:16.555195+01

 2017-02-05 23:21:46.168026+01 | 1486333306.16803 |                 0 |               7 |                   233 |                   19 |               2183 |             0 |                0 |          487803 |                     0 |        191841 | 2017-02-05 22:51:16.555195+01

 2017-02-05 23:21:47.27699+01 | 1486333307.27699 |                 0 |               7 |                   233 |                   19 |               2183 |             0 |                0 |          487803 |                     0 |        191841 | 2017-02-05 22:51:16.555195+01

 2017-02-05 23:21:48.384618+01 | 1486333308.38462 |                 0 |               7 |                   233 |                   19 |               2183 |             0 |                0 |          487803 |                     0 |        191841 | 2017-02-05 22:51:16.555195+01

 2017-02-05 23:21:49.50197+01 | 1486333309.50197 |                 0 |               7 |                   233 |                   19 |               2183 |             0 |                0 |          487803 |                     0 |        191841 | 2017-02-05 22:51:16.555195+01

 2017-02-05 23:21:50.612706+01 | 1486333310.61271 |                 0 |               7 |                   233 |                   19 |               2183 |             0 |                0 |          487803 |                     0 |        191841 | 2017-02-05 22:51:16.555195+01

 2017-02-05 23:21:51.714197+01 | 1486333311.7142 |                 0 |               7 |                   233 |                   19 |               2183 |             0 |                0 |          487803 |                     0 |        191841 | 2017-02-05 22:51:16.555195+01

 2017-02-05 23:21:52.824446+01 | 1486333312.82445 |                 0 |               7 |                   233 |                   19 |               2183 |             0 |                0 |          487803 |                     0 |        191841 | 2017-02-05 22:51:16.555195+01

 2017-02-05 23:21:53.921402+01 | 1486333313.9214 |                 0 |               7 |                   233 |                   19 |               2183 |             0 |                0 |          487803 |                     0 |        191841 | 2017-02-05 22:51:16.555195+01

 2017-02-05 23:21:55.016553+01 | 1486333315.01655 |                 0 |               7 |                   233 |                   19 |               2183 |             0 |                0 |          487803 |                     0 |        191841 | 2017-02-05 22:51:16.555195+01

 2017-02-05 23:21:56.106672+01 | 1486333316.10667 |                 0 |               7 |                   233 |                   19 |               2183 |             0 |                0 |          487803 |                     0 |        191841 | 2017-02-05 22:51:16.555195+01

 2017-02-05 23:21:57.199582+01 | 1486333317.19958 |                 0 |               7 |                   233 |                   19 |               2183 |             0 |                0 |          487803 |                     0 |        191841 | 2017-02-05 22:51:16.555195+01

 2017-02-05 23:21:58.28202+01 | 1486333318.28202 |                 0 |               7 |                   233 |                   19 |               2183 |             0 |                0 |          487803 |                     0 |        191841 | 2017-02-05 22:51:16.555195+01

 2017-02-05 23:21:59.367658+01 | 1486333319.36766 |                 0 |               7 |                   233 |                   19 |               2183 |             0 |                0 |          487803 |                     0 |        191841 | 2017-02-05 22:51:16.555195+01

 2017-02-05 23:22:00.461076+01 | 1486333320.46108 |                 0 |               7 |                   233 |                   19 |               2183 |             0 |                0 |          487803 |                     0 |        191841 | 2017-02-05 22:51:16.555195+01

 2017-02-05 23:22:01.56635+01 | 1486333321.56635 |                 0 |               7 |                   233 |                   19 |               2183 |             0 |                0 |          487803 |                     0 |        191841 | 2017-02-05 22:51:16.555195+01

 2017-02-05 23:22:02.652083+01 | 1486333322.65208 |                 0 |               7 |                   233 |                   19 |               2183 |             0 |                0 |          487803 |                     0 |        191841 | 2017-02-05 22:51:16.555195+01

 2017-02-05 23:22:03.742411+01 | 1486333323.74241 |                 0 |               7 |                   233 |                   19 |               2183 |             0 |                0 |          487803 |                     0 |        191841 | 2017-02-05 22:51:16.555195+01

 2017-02-05 23:22:04.858261+01 | 1486333324.85826 |                 0 |               7 |                   233 |                   19 |               2183 |             0 |                0 |          487803 |                     0 |        191841 | 2017-02-05 22:51:16.555195+01

 2017-02-05 23:22:05.992567+01 | 1486333325.99257 |                 0 |               7 |                   233 |                   19 |               2183 |             0 |                0 |          487803 |                     0 |        191841 | 2017-02-05 22:51:16.555195+01

 2017-02-05 23:22:07.089062+01 | 1486333327.08906 |                 0 |               7 |                   233 |                   19 |               2183 |             0 |                0 |          487803 |                     0 |        191841 | 2017-02-05 22:51:16.555195+01

 2017-02-05 23:22:08.17569+01 | 1486333328.17569 |                 0 |               7 |                   233 |                   19 |               2183 |             0 |                0 |          487803 |                     0 |        191841 | 2017-02-05 22:51:16.555195+01

 2017-02-05 23:22:09.262137+01 | 1486333329.26214 |                 0 |               7 |                   233 |                   19 |               2183 |             0 |                0 |          487803 |                     0 |        191841 | 2017-02-05 22:51:16.555195+01

 2017-02-05 23:22:10.359432+01 | 1486333330.35943 |                 0 |               7 |                   233 |                   19 |               2183 |             0 |                0 |          487803 |                     0 |        191841 | 2017-02-05 22:51:16.555195+01

 2017-02-05 23:22:11.451967+01 | 1486333331.45197 |                 0 |               7 |                   233 |                   19 |               2183 |             0 |                0 |          487803 |                     0 |        191841 | 2017-02-05 22:51:16.555195+01

 2017-02-05 23:22:12.54413+01 | 1486333332.54413 |                 0 |               7 |                   233 |                   19 |               2183 |             0 |                0 |          487803 |                     0 |        191841 | 2017-02-05 22:51:16.555195+01

 2017-02-05 23:22:13.642408+01 | 1486333333.64241 |                 0 |               7 |                   233 |                   19 |               2183 |             0 |                0 |          487803 |                     0 |        191841 | 2017-02-05 22:51:16.555195+01

 2017-02-05 23:22:14.755013+01 | 1486333334.75501 |                 0 |               7 |                   233 |                   19 |               2183 |             0 |                0 |          487803 |                     0 |        191841 | 2017-02-05 22:51:16.555195+01

 2017-02-05 23:22:15.867403+01 | 1486333335.8674 |                 0 |               7 |                   233 |                   19 |               2183 |             0 |                0 |          487803 |                     0 |        191841 | 2017-02-05 22:51:16.555195+01

 2017-02-05 23:22:16.966425+01 | 1486333336.96642 |                 0 |               7 |                   233 |                   19 |               2183 |             0 |                0 |          487803 |                     0 |        191841 | 2017-02-05 22:51:16.555195+01

 2017-02-05 23:22:18.069964+01 | 1486333338.06996 |                 0 |               7 |                   233 |                   19 |               2183 |             0 |                0 |          487803 |                     0 |        191841 | 2017-02-05 22:51:16.555195+01

 2017-02-05 23:22:19.159969+01 | 1486333339.15997 |                 0 |               7 |                   233 |                   19 |               2183 |             0 |                0 |          487803 |                     0 |        191841 | 2017-02-05 22:51:16.555195+01

 2017-02-05 23:22:20.249239+01 | 1486333340.24924 |                 0 |               7 |                   233 |                   19 |               2183 |             0 |                0 |          487803 |                     0 |        191841 | 2017-02-05 22:51:16.555195+01

 2017-02-05 23:22:21.34173+01 | 1486333341.34173 |                 0 |               7 |                   233 |                   19 |               2183 |             0 |                0 |          487803 |                     0 |        191841 | 2017-02-05 22:51:16.555195+01

 2017-02-05 23:22:22.429911+01 | 1486333342.42991 |                 0 |               7 |                   233 |                   19 |               2183 |             0 |                0 |          487803 |                     0 |        191841 | 2017-02-05 22:51:16.555195+01

 2017-02-05 23:22:23.513703+01 | 1486333343.5137 |                 0 |               7 |                   233 |                   19 |               2183 |             0 |                0 |          487803 |                     0 |        191841 | 2017-02-05 22:51:16.555195+01

 2017-02-05 23:22:24.61599+01 | 1486333344.61599 |                 0 |               7 |                   233 |                   19 |               2183 |             0 |                0 |          487803 |                     0 |        191841 | 2017-02-05 22:51:16.555195+01

 2017-02-05 23:22:25.71718+01 | 1486333345.71718 |                 0 |               7 |                   233 |                   19 |               2183 |             0 |                0 |          487803 |                     0 |        191841 | 2017-02-05 22:51:16.555195+01

 2017-02-05 23:22:26.828694+01 | 1486333346.82869 |                 0 |               7 |                   233 |                   19 |               2183 |             0 |                0 |          487803 |                     0 |        191841 | 2017-02-05 22:51:16.555195+01

 2017-02-05 23:22:27.931745+01 | 1486333347.93175 |                 0 |               7 |                   233 |                   19 |               2183 |             0 |                0 |          487803 |                     0 |        191841 | 2017-02-05 22:51:16.555195+01

 2017-02-05 23:22:29.044477+01 | 1486333349.04448 |                 0 |               7 |                   233 |                   19 |               2183 |             0 |                0 |          487803 |                     0 |        191841 | 2017-02-05 22:51:16.555195+01

 2017-02-05 23:22:30.145117+01 | 1486333350.14512 |                 0 |               7 |                   233 |                   19 |               2183 |             0 |                0 |          487803 |                     0 |        191841 | 2017-02-05 22:51:16.555195+01

 2017-02-05 23:22:31.246246+01 | 1486333351.24625 |                 0 |               7 |                   233 |                   19 |               2183 |             0 |                0 |          487803 |                     0 |        191841 | 2017-02-05 22:51:16.555195+01

 2017-02-05 23:22:32.323832+01 | 1486333352.32383 |                 0 |               7 |                   233 |                   19 |               2183 |             0 |                0 |          487803 |                     0 |        191841 | 2017-02-05 22:51:16.555195+01

 2017-02-05 23:22:33.4232+01 | 1486333353.4232 |                 0 |               7 |                   233 |                   19 |               2183 |             0 |                0 |          487803 |                     0 |        191841 | 2017-02-05 22:51:16.555195+01

 2017-02-05 23:22:34.52112+01 | 1486333354.52112 |                 0 |               7 |                   233 |                   19 |               2183 |             0 |                0 |          487803 |                     0 |        191841 | 2017-02-05 22:51:16.555195+01

 2017-02-05 23:22:35.624453+01 | 1486333355.62445 |                 0 |               7 |                   233 |                   19 |               2183 |             0 |                0 |          487803 |                     0 |        191841 | 2017-02-05 22:51:16.555195+01

 2017-02-05 23:22:36.72476+01 | 1486333356.72476 |                 0 |               7 |                   233 |                   19 |               2183 |             0 |                0 |          487803 |                     0 |        191841 | 2017-02-05 22:51:16.555195+01

 2017-02-05 23:22:37.824616+01 | 1486333357.82462 |                 0 |               7 |                   233 |                   19 |               2183 |             0 |                0 |          487803 |                     0 |        191841 | 2017-02-05 22:51:16.555195+01

 2017-02-05 23:22:38.927393+01 | 1486333358.92739 |                 0 |               7 |                   233 |                   19 |               2183 |             0 |                0 |          487803 |                     0 |        191841 | 2017-02-05 22:51:16.555195+01

 2017-02-05 23:22:40.029873+01 | 1486333360.02987 |                 0 |               7 |                   233 |                   19 |               2183 |             0 |                0 |          487803 |                     0 |        191841 | 2017-02-05 22:51:16.555195+01

 2017-02-05 23:22:41.122038+01 | 1486333361.12204 |                 0 |               7 |                   233 |                   19 |               2183 |             0 |                0 |          487803 |                     0 |        191841 | 2017-02-05 22:51:16.555195+01

 2017-02-05 23:22:42.21638+01 | 1486333362.21638 |                 0 |               7 |                   233 |                   19 |               2183 |             0 |                0 |          487803 |                     0 |        191841 | 2017-02-05 22:51:16.555195+01

 2017-02-05 23:22:43.310409+01 | 1486333363.31041 |                 0 |               7 |                   233 |                   19 |               2183 |             0 |                0 |          487803 |                     0 |        191841 | 2017-02-05 22:51:16.555195+01

 2017-02-05 23:22:44.395339+01 | 1486333364.39534 |                 0 |               7 |                   233 |                   19 |               2183 |             0 |                0 |          487803 |                     0 |        191841 | 2017-02-05 22:51:16.555195+01

 2017-02-05 23:22:45.485115+01 | 1486333365.48512 |                 0 |               7 |                   233 |                   19 |               2183 |             0 |                0 |          487803 |                     0 |        191841 | 2017-02-05 22:51:16.555195+01

 2017-02-05 23:22:46.574828+01 | 1486333366.57483 |                 0 |               7 |                   233 |                   19 |               2183 |             0 |                0 |          487803 |                     0 |        191841 | 2017-02-05 22:51:16.555195+01

 2017-02-05 23:22:47.649612+01 | 1486333367.64961 |                 0 |               7 |                   233 |                   19 |               2183 |             0 |                0 |          487803 |                     0 |        191841 | 2017-02-05 22:51:16.555195+01

 2017-02-05 23:22:48.740665+01 | 1486333368.74066 |                 0 |               7 |                   233 |                   19 |               2183 |             0 |                0 |          487803 |                     0 |        191841 | 2017-02-05 22:51:16.555195+01

 2017-02-05 23:22:49.83411+01 | 1486333369.83411 |                 0 |               7 |                   233 |                   19 |               2183 |             0 |                0 |          487803 |                     0 |        191841 | 2017-02-05 22:51:16.555195+01

 2017-02-05 23:22:50.929952+01 | 1486333370.92995 |                 0 |               7 |                   233 |                   19 |               2183 |             0 |                0 |          487803 |                     0 |        191841 | 2017-02-05 22:51:16.555195+01

 2017-02-05 23:22:52.02874+01 | 1486333372.02874 |                 0 |               7 |                   233 |                   19 |               2183 |             0 |                0 |          487803 |                     0 |        191841 | 2017-02-05 22:51:16.555195+01

 2017-02-05 23:22:53.121704+01 | 1486333373.1217 |                 0 |               7 |                   233 |                   19 |               2183 |             0 |                0 |          487803 |                     0 |        191841 | 2017-02-05 22:51:16.555195+01

 2017-02-05 23:22:54.216712+01 | 1486333374.21671 |                 0 |               7 |                   233 |                   19 |               2183 |             0 |                0 |          487803 |                     0 |        191841 | 2017-02-05 22:51:16.555195+01

 2017-02-05 23:22:55.297897+01 | 1486333375.2979 |                 0 |               7 |                   233 |                   19 |               2183 |             0 |                0 |          487803 |                     0 |        191841 | 2017-02-05 22:51:16.555195+01

 2017-02-05 23:22:56.382628+01 | 1486333376.38263 |                 0 |               7 |                   233 |                   19 |               2183 |             0 |                0 |          487803 |                     0 |        191841 | 2017-02-05 22:51:16.555195+01

 2017-02-05 23:22:57.469173+01 | 1486333377.46917 |                 0 |               7 |                   233 |                   19 |               2183 |             0 |                0 |          487803 |                     0 |        191841 | 2017-02-05 22:51:16.555195+01

 2017-02-05 23:22:58.565324+01 | 1486333378.56532 |                 0 |               7 |                   233 |                   19 |               2183 |             0 |                0 |          487803 |                     0 |        191841 | 2017-02-05 22:51:16.555195+01

 2017-02-05 23:22:59.657696+01 | 1486333379.6577 |                 0 |               7 |                   233 |                   19 |               2183 |             0 |                0 |          487803 |                     0 |        191841 | 2017-02-05 22:51:16.555195+01

 2017-02-05 23:23:00.756245+01 | 1486333380.75624 |                 0 |               7 |                   233 |                   19 |               2183 |             0 |                0 |          487803 |                     0 |        191841 | 2017-02-05 22:51:16.555195+01

 2017-02-05 23:23:01.850642+01 | 1486333381.85064 |                 0 |               7 |                   233 |                   19 |               2183 |             0 |                0 |          487803 |                     0 |        191841 | 2017-02-05 22:51:16.555195+01

 2017-02-05 23:23:02.955087+01 | 1486333382.95509 |                 0 |               7 |                   233 |                   19 |               2183 |             0 |                0 |          487803 |                     0 |        191841 | 2017-02-05 22:51:16.555195+01

 2017-02-05 23:23:04.058247+01 | 1486333384.05825 |                 0 |               7 |                   233 |                   19 |               2183 |             0 |                0 |          487803 |                     0 |        191841 | 2017-02-05 22:51:16.555195+01

 2017-02-05 23:23:05.163583+01 | 1486333385.16358 |                 0 |               7 |                   233 |                   19 |               2183 |             0 |                0 |          487803 |                     0 |        191841 | 2017-02-05 22:51:16.555195+01

 2017-02-05 23:23:06.267147+01 | 1486333386.26715 |                 0 |               7 |                   233 |                   19 |               2183 |             0 |                0 |          487803 |                     0 |        191841 | 2017-02-05 22:51:16.555195+01

 2017-02-05 23:23:07.3549+01 | 1486333387.3549 |                 0 |               7 |                   233 |                   19 |               2183 |             0 |                0 |          487803 |                     0 |        191841 | 2017-02-05 22:51:16.555195+01

 2017-02-05 23:23:08.449072+01 | 1486333388.44907 |                 0 |               7 |                   233 |                   19 |               2183 |             0 |                0 |          487803 |                     0 |        191841 | 2017-02-05 22:51:16.555195+01

 2017-02-05 23:23:09.545135+01 | 1486333389.54514 |                 0 |               7 |                   233 |                   19 |               2183 |             0 |                0 |          487803 |                     0 |        191841 | 2017-02-05 22:51:16.555195+01

 2017-02-05 23:23:10.636107+01 | 1486333390.63611 |                 0 |               7 |                   233 |                   19 |               2183 |             0 |                0 |          487803 |                     0 |        191841 | 2017-02-05 22:51:16.555195+01

 2017-02-05 23:23:11.727146+01 | 1486333391.72715 |                 0 |               7 |                   233 |                   19 |               2183 |             0 |                0 |          487803 |                     0 |        191841 | 2017-02-05 22:51:16.555195+01

 2017-02-05 23:23:12.822629+01 | 1486333392.82263 |                 0 |               7 |                   233 |                   19 |               2183 |             0 |                0 |          487803 |                     0 |        191841 | 2017-02-05 22:51:16.555195+01

 2017-02-05 23:23:13.925534+01 | 1486333393.92553 |                 0 |               7 |                   233 |                   19 |               2183 |             0 |                0 |          487803 |                     0 |        191841 | 2017-02-05 22:51:16.555195+01

 2017-02-05 23:23:15.025115+01 | 1486333395.02512 |                 0 |               7 |                   233 |                   19 |               2183 |             0 |                0 |          487803 |                     0 |        191841 | 2017-02-05 22:51:16.555195+01

 2017-02-05 23:23:16.122455+01 | 1486333396.12245 |                 0 |               7 |                   233 |                   19 |               2183 |             0 |                0 |          487803 |                     0 |        191841 | 2017-02-05 22:51:16.555195+01

 2017-02-05 23:23:17.208592+01 | 1486333397.20859 |                 0 |               7 |                   233 |                   19 |               2183 |             0 |                0 |          487803 |                     0 |        191841 | 2017-02-05 22:51:16.555195+01

 2017-02-05 23:23:18.312694+01 | 1486333398.31269 |                 0 |               7 |                   233 |                   19 |               2183 |             0 |                0 |          487803 |                     0 |        191841 | 2017-02-05 22:51:16.555195+01

 2017-02-05 23:23:19.396259+01 | 1486333399.39626 |                 0 |               7 |                   233 |                   19 |               2183 |             0 |                0 |          487803 |                     0 |        191841 | 2017-02-05 22:51:16.555195+01

 2017-02-05 23:23:20.488314+01 | 1486333400.48831 |                 0 |               7 |                   233 |                   19 |               2183 |             0 |                0 |          487803 |                     0 |        191841 | 2017-02-05 22:51:16.555195+01

 2017-02-05 23:23:21.579886+01 | 1486333401.57989 |                 0 |               7 |                   233 |                   19 |               2183 |             0 |                0 |          487803 |                     0 |        191841 | 2017-02-05 22:51:16.555195+01

 2017-02-05 23:23:22.665481+01 | 1486333402.66548 |                 0 |               7 |                   233 |                   19 |               2183 |             0 |                0 |          487803 |                     0 |        191841 | 2017-02-05 22:51:16.555195+01

 2017-02-05 23:23:23.761433+01 | 1486333403.76143 |                 0 |               7 |                   233 |                   19 |               2183 |             0 |                0 |          487803 |                     0 |        191841 | 2017-02-05 22:51:16.555195+01

 2017-02-05 23:23:24.852055+01 | 1486333404.85206 |                 0 |               7 |                   233 |                   19 |               2183 |             0 |                0 |          487803 |                     0 |        191841 | 2017-02-05 22:51:16.555195+01

 2017-02-05 23:23:25.948948+01 | 1486333405.94895 |                 0 |               7 |                   233 |                   19 |               2183 |             0 |                0 |          487803 |                     0 |        191841 | 2017-02-05 22:51:16.555195+01

 2017-02-05 23:23:27.050594+01 | 1486333407.05059 |                 0 |               7 |                   233 |                   19 |               2183 |             0 |                0 |          487803 |                     0 |        191841 | 2017-02-05 22:51:16.555195+01

 2017-02-05 23:23:28.156618+01 | 1486333408.15662 |                 0 |               7 |                   233 |                   19 |               2183 |             0 |                0 |          487803 |                     0 |        191841 | 2017-02-05 22:51:16.555195+01

 2017-02-05 23:23:29.251273+01 | 1486333409.25127 |                 0 |               7 |                   233 |                   19 |               2183 |             0 |                0 |          487803 |                     0 |        191841 | 2017-02-05 22:51:16.555195+01

 2017-02-05 23:23:30.344681+01 | 1486333410.34468 |                 0 |               7 |                   233 |                   19 |               2183 |             0 |                0 |          487803 |                     0 |        191841 | 2017-02-05 22:51:16.555195+01

 2017-02-05 23:23:31.436488+01 | 1486333411.43649 |                 0 |               7 |                   233 |                   19 |               2183 |             0 |                0 |          487803 |                     0 |        191841 | 2017-02-05 22:51:16.555195+01

 2017-02-05 23:23:32.530141+01 | 1486333412.53014 |                 0 |               7 |                   233 |                   19 |               2183 |             0 |                0 |          487803 |                     0 |        191841 | 2017-02-05 22:51:16.555195+01

 2017-02-05 23:23:33.613388+01 | 1486333413.61339 |                 0 |               7 |                   233 |                   19 |               2183 |             0 |                0 |          487803 |                     0 |        191841 | 2017-02-05 22:51:16.555195+01

 2017-02-05 23:23:34.69997+01 | 1486333414.69997 |                 0 |               7 |                   233 |                   19 |               2183 |             0 |                0 |          487803 |                     0 |        191841 | 2017-02-05 22:51:16.555195+01

 2017-02-05 23:23:35.794967+01 | 1486333415.79497 |                 0 |               7 |                   233 |                   19 |               2183 |             0 |                0 |          487803 |                     0 |        191841 | 2017-02-05 22:51:16.555195+01

 2017-02-05 23:23:36.879451+01 | 1486333416.87945 |                 0 |               7 |                   233 |                   19 |               2183 |             0 |                0 |          487803 |                     0 |        191841 | 2017-02-05 22:51:16.555195+01

 2017-02-05 23:23:37.975304+01 | 1486333417.9753 |                 0 |               7 |                   233 |                   19 |               2183 |             0 |                0 |          487803 |                     0 |        191841 | 2017-02-05 22:51:16.555195+01

 2017-02-05 23:23:39.072366+01 | 1486333419.07237 |                 0 |               7 |                   233 |                   19 |               2183 |             0 |                0 |          487803 |                     0 |        191841 | 2017-02-05 22:51:16.555195+01

 2017-02-05 23:23:40.162017+01 | 1486333420.16202 |                 0 |               7 |                   233 |                   19 |               2183 |             0 |                0 |          487803 |                     0 |        191841 | 2017-02-05 22:51:16.555195+01

 2017-02-05 23:23:41.259375+01 | 1486333421.25938 |                 0 |               7 |                   233 |                   19 |               2183 |             0 |                0 |          487803 |                     0 |        191841 | 2017-02-05 22:51:16.555195+01

 2017-02-05 23:23:42.363422+01 | 1486333422.36342 |                 0 |               7 |                   233 |                   19 |               2183 |             0 |                0 |          487803 |                     0 |        191841 | 2017-02-05 22:51:16.555195+01

 2017-02-05 23:23:43.452031+01 | 1486333423.45203 |                 0 |               7 |                   233 |                   19 |               2183 |             0 |                0 |          487803 |                     0 |        191841 | 2017-02-05 22:51:16.555195+01

 2017-02-05 23:23:44.538638+01 | 1486333424.53864 |                 0 |               7 |                   233 |                   19 |               2183 |             0 |                0 |          487803 |                     0 |        191841 | 2017-02-05 22:51:16.555195+01

 2017-02-05 23:23:45.628055+01 | 1486333425.62806 |                 0 |               7 |                   233 |                   19 |               2183 |             0 |                0 |          487803 |                     0 |        191841 | 2017-02-05 22:51:16.555195+01

 2017-02-05 23:23:46.716951+01 | 1486333426.71695 |                 0 |               7 |                   233 |                   19 |               2183 |             0 |                0 |          487803 |                     0 |        191841 | 2017-02-05 22:51:16.555195+01

 2017-02-05 23:23:47.801125+01 | 1486333427.80113 |                 0 |               7 |                   233 |                   19 |               2183 |             0 |                0 |          487803 |                     0 |        191841 | 2017-02-05 22:51:16.555195+01

 2017-02-05 23:23:48.896945+01 | 1486333428.89694 |                 0 |               7 |                   233 |                   19 |               2183 |             0 |                0 |          487803 |                     0 |        191841 | 2017-02-05 22:51:16.555195+01

 2017-02-05 23:23:50.000553+01 | 1486333430.00055 |                 0 |               7 |                   233 |                   19 |               2183 |             0 |                0 |          487803 |                     0 |        191841 | 2017-02-05 22:51:16.555195+01

 2017-02-05 23:23:51.091665+01 | 1486333431.09167 |                 0 |               7 |                   233 |                   19 |               2183 |             0 |                0 |          487803 |                     0 |        191841 | 2017-02-05 22:51:16.555195+01

 2017-02-05 23:23:52.178278+01 | 1486333432.17828 |                 0 |               7 |                   233 |                   19 |               2183 |             0 |                0 |          487803 |                     0 |        191841 | 2017-02-05 22:51:16.555195+01

 2017-02-05 23:23:53.282422+01 | 1486333433.28242 |                 0 |               7 |                   233 |                   19 |               2183 |             0 |                0 |          487803 |                     0 |        191841 | 2017-02-05 22:51:16.555195+01

 2017-02-05 23:23:54.395486+01 | 1486333434.39549 |                 0 |               7 |                   233 |                   19 |               2183 |             0 |                0 |          487803 |                     0 |        191841 | 2017-02-05 22:51:16.555195+01

 2017-02-05 23:23:55.480265+01 | 1486333435.48026 |                 0 |               7 |                   233 |                   19 |               2183 |             0 |                0 |          487803 |                     0 |        191841 | 2017-02-05 22:51:16.555195+01

 2017-02-05 23:23:56.58016+01 | 1486333436.58016 |                 0 |               7 |                   233 |                   19 |               2183 |             0 |                0 |          487803 |                     0 |        191841 | 2017-02-05 22:51:16.555195+01

 2017-02-05 23:23:57.668593+01 | 1486333437.66859 |                 0 |               7 |                   233 |                   19 |               2183 |             0 |                0 |          487803 |                     0 |        191841 | 2017-02-05 22:51:16.555195+01

 2017-02-05 23:23:58.759489+01 | 1486333438.75949 |                 0 |               7 |                   233 |                   19 |               2183 |             0 |                0 |          487803 |                     0 |        191841 | 2017-02-05 22:51:16.555195+01

 2017-02-05 23:23:59.851197+01 | 1486333439.8512 |                 0 |               7 |                   233 |                   19 |               2183 |             0 |                0 |          487803 |                     0 |        191841 | 2017-02-05 22:51:16.555195+01

 2017-02-05 23:24:00.952235+01 | 1486333440.95223 |                 0 |               7 |                   233 |                   19 |               2183 |             0 |                0 |          487803 |                     0 |        191841 | 2017-02-05 22:51:16.555195+01

 2017-02-05 23:24:02.033505+01 | 1486333442.0335 |                 0 |               7 |                   233 |                   19 |               2183 |             0 |                0 |          487803 |                     0 |        191841 | 2017-02-05 22:51:16.555195+01

 2017-02-05 23:24:03.132713+01 | 1486333443.13271 |                 0 |               7 |                   233 |                   19 |               2183 |             0 |                0 |          487803 |                     0 |        191841 | 2017-02-05 22:51:16.555195+01

 2017-02-05 23:24:04.220786+01 | 1486333444.22079 |                 0 |               7 |                   233 |                   19 |               2183 |             0 |                0 |          487803 |                     0 |        191841 | 2017-02-05 22:51:16.555195+01

 2017-02-05 23:24:05.314819+01 | 1486333445.31482 |                 0 |               7 |                   233 |                   19 |               2183 |             0 |                0 |          487803 |                     0 |        191841 | 2017-02-05 22:51:16.555195+01

 2017-02-05 23:24:06.40015+01 | 1486333446.40015 |                 0 |               7 |                   233 |                   19 |               2183 |             0 |                0 |          487803 |                     0 |        191841 | 2017-02-05 22:51:16.555195+01

 2017-02-05 23:24:07.49401+01 | 1486333447.49401 |                 0 |               7 |                   233 |                   19 |               2183 |             0 |                0 |          487803 |                     0 |        191841 | 2017-02-05 22:51:16.555195+01

 2017-02-05 23:24:08.577551+01 | 1486333448.57755 |                 0 |               7 |                   233 |                   19 |               2183 |             0 |                0 |          487803 |                     0 |        191841 | 2017-02-05 22:51:16.555195+01

 2017-02-05 23:24:09.658914+01 | 1486333449.65891 |                 0 |               7 |                   233 |                   19 |               2183 |             0 |                0 |          487803 |                     0 |        191841 | 2017-02-05 22:51:16.555195+01

 2017-02-05 23:24:10.753996+01 | 1486333450.754 |                 0 |               7 |                   233 |                   19 |               2183 |             0 |                0 |          487803 |                     0 |        191841 | 2017-02-05 22:51:16.555195+01

 2017-02-05 23:24:11.858248+01 | 1486333451.85825 |                 0 |               7 |                   233 |                   19 |               2183 |             0 |                0 |          487803 |                     0 |        191841 | 2017-02-05 22:51:16.555195+01

 2017-02-05 23:24:12.956207+01 | 1486333452.95621 |                 0 |               7 |                   233 |                   19 |               2183 |             0 |                0 |          487803 |                     0 |        191841 | 2017-02-05 22:51:16.555195+01

 2017-02-05 23:24:14.058123+01 | 1486333454.05812 |                 0 |               7 |                   233 |                   19 |               2183 |             0 |                0 |          487803 |                     0 |        191841 | 2017-02-05 22:51:16.555195+01

 2017-02-05 23:24:15.163461+01 | 1486333455.16346 |                 0 |               7 |                   233 |                   19 |               2183 |             0 |                0 |          487803 |                     0 |        191841 | 2017-02-05 22:51:16.555195+01

 2017-02-05 23:24:16.264708+01 | 1486333456.26471 |                 0 |               7 |                   233 |                   19 |               2183 |             0 |                0 |          487803 |                     0 |        191841 | 2017-02-05 22:51:16.555195+01

 2017-02-05 23:24:17.37572+01 | 1486333457.37572 |                 0 |               7 |                   233 |                   19 |               2183 |             0 |                0 |          487803 |                     0 |        191841 | 2017-02-05 22:51:16.555195+01

 2017-02-05 23:24:18.483587+01 | 1486333458.48359 |                 0 |               7 |                   233 |                   19 |               2183 |             0 |                0 |          487803 |                     0 |        191841 | 2017-02-05 22:51:16.555195+01

 2017-02-05 23:24:19.577092+01 | 1486333459.57709 |                 0 |               7 |                   233 |                   19 |               2183 |             0 |                0 |          487803 |                     0 |        191841 | 2017-02-05 22:51:16.555195+01

 2017-02-05 23:24:20.656068+01 | 1486333460.65607 |                 0 |               7 |                   233 |                   19 |               2183 |             0 |                0 |          487803 |                     0 |        191841 | 2017-02-05 22:51:16.555195+01

 2017-02-05 23:24:21.745063+01 | 1486333461.74506 |                 0 |               7 |                   233 |                   19 |               2183 |             0 |                0 |          487803 |                     0 |        191841 | 2017-02-05 22:51:16.555195+01

 2017-02-05 23:24:22.845241+01 | 1486333462.84524 |                 0 |               7 |                   233 |                   19 |               2183 |             0 |                0 |          487803 |                     0 |        191841 | 2017-02-05 22:51:16.555195+01

 2017-02-05 23:24:23.943173+01 | 1486333463.94317 |                 0 |               7 |                   233 |                   19 |               2183 |             0 |                0 |          487803 |                     0 |        191841 | 2017-02-05 22:51:16.555195+01

 2017-02-05 23:24:25.04729+01 | 1486333465.04729 |                 0 |               7 |                   233 |                   19 |               2183 |             0 |                0 |          487803 |                     0 |        191841 | 2017-02-05 22:51:16.555195+01

 2017-02-05 23:24:26.134772+01 | 1486333466.13477 |                 0 |               7 |                   233 |                   19 |               2183 |             0 |                0 |          487803 |                     0 |        191841 | 2017-02-05 22:51:16.555195+01

 2017-02-05 23:24:27.226951+01 | 1486333467.22695 |                 0 |               7 |                   233 |                   19 |               2183 |             0 |                0 |          487803 |                     0 |        191841 | 2017-02-05 22:51:16.555195+01

 2017-02-05 23:24:28.324039+01 | 1486333468.32404 |                 0 |               7 |                   233 |                   19 |               2183 |             0 |                0 |          487803 |                     0 |        191841 | 2017-02-05 22:51:16.555195+01

 2017-02-05 23:24:29.431538+01 | 1486333469.43154 |                 0 |               7 |                   233 |                   19 |               2183 |             0 |                0 |          487803 |                     0 |        191841 | 2017-02-05 22:51:16.555195+01

 2017-02-05 23:24:30.526041+01 | 1486333470.52604 |                 0 |               7 |                   233 |                   19 |               2183 |             0 |                0 |          487803 |                     0 |        191841 | 2017-02-05 22:51:16.555195+01

 2017-02-05 23:24:31.626132+01 | 1486333471.62613 |                 0 |               7 |                   233 |                   19 |               2183 |             0 |                0 |          487803 |                     0 |        191841 | 2017-02-05 22:51:16.555195+01

 2017-02-05 23:24:32.716563+01 | 1486333472.71656 |                 0 |               7 |                   233 |                   19 |               2183 |             0 |                0 |          487803 |                     0 |        191841 | 2017-02-05 22:51:16.555195+01

 2017-02-05 23:24:33.807808+01 | 1486333473.80781 |                 0 |               7 |                   233 |                   19 |               2183 |             0 |                0 |          487803 |                     0 |        191841 | 2017-02-05 22:51:16.555195+01

 2017-02-05 23:24:34.906046+01 | 1486333474.90605 |                 0 |               7 |                   233 |                   19 |               2183 |             0 |                0 |          487803 |                     0 |        191841 | 2017-02-05 22:51:16.555195+01

 2017-02-05 23:24:36.0074+01 | 1486333476.0074 |                 0 |               7 |                   233 |                   19 |               2183 |             0 |                0 |          487803 |                     0 |        191841 | 2017-02-05 22:51:16.555195+01

 2017-02-05 23:24:37.089927+01 | 1486333477.08993 |                 0 |               7 |                   233 |                   19 |               2183 |             0 |                0 |          487803 |                     0 |        191841 | 2017-02-05 22:51:16.555195+01

 2017-02-05 23:24:38.189525+01 | 1486333478.18952 |                 0 |               7 |                   233 |                   19 |               2183 |             0 |                0 |          487803 |                     0 |        191841 | 2017-02-05 22:51:16.555195+01

 2017-02-05 23:24:39.305682+01 | 1486333479.30568 |                 0 |               7 |                   233 |                   19 |               2183 |             0 |                0 |          487803 |                     0 |        191841 | 2017-02-05 22:51:16.555195+01

 2017-02-05 23:24:40.408931+01 | 1486333480.40893 |                 0 |               7 |                   233 |                   19 |               2183 |             0 |                0 |          487803 |                     0 |        191841 | 2017-02-05 22:51:16.555195+01

 2017-02-05 23:24:41.517026+01 | 1486333481.51703 |                 0 |               7 |                   233 |                   19 |               2183 |             0 |                0 |          487803 |                     0 |        191841 | 2017-02-05 22:51:16.555195+01

 2017-02-05 23:24:42.613495+01 | 1486333482.6135 |                 0 |               7 |                   233 |                   19 |               2183 |             0 |                0 |          487803 |                     0 |        191841 | 2017-02-05 22:51:16.555195+01

 2017-02-05 23:24:43.701488+01 | 1486333483.70149 |                 0 |               7 |                   233 |                   19 |               2183 |             0 |                0 |          487803 |                     0 |        191841 | 2017-02-05 22:51:16.555195+01

 2017-02-05 23:24:44.7911+01 | 1486333484.7911 |                 0 |               7 |                   233 |                   19 |               2183 |             0 |                0 |          487803 |                     0 |        191841 | 2017-02-05 22:51:16.555195+01

 2017-02-05 23:24:45.894713+01 | 1486333485.89471 |                 0 |               7 |                   233 |                   19 |               2183 |             0 |                0 |          487803 |                     0 |        191841 | 2017-02-05 22:51:16.555195+01

 2017-02-05 23:24:46.992088+01 | 1486333486.99209 |                 0 |               7 |                   233 |                   19 |               2183 |             0 |                0 |          487803 |                     0 |        191841 | 2017-02-05 22:51:16.555195+01

 2017-02-05 23:24:48.094674+01 | 1486333488.09467 |                 0 |               7 |                   233 |                   19 |               2183 |             0 |                0 |          487803 |                     0 |        191841 | 2017-02-05 22:51:16.555195+01

 2017-02-05 23:24:49.197098+01 | 1486333489.1971 |                 0 |               7 |                   233 |                   19 |               2183 |             0 |                0 |          487803 |                     0 |        191841 | 2017-02-05 22:51:16.555195+01

 2017-02-05 23:24:50.29692+01 | 1486333490.29692 |                 0 |               7 |                   233 |                   19 |               2183 |             0 |                0 |          487803 |                     0 |        191841 | 2017-02-05 22:51:16.555195+01

 2017-02-05 23:24:51.385528+01 | 1486333491.38553 |                 0 |               7 |                   233 |                   19 |               2183 |             0 |                0 |          487803 |                     0 |        191841 | 2017-02-05 22:51:16.555195+01

 2017-02-05 23:24:52.486527+01 | 1486333492.48653 |                 0 |               7 |                   233 |                   19 |               2183 |             0 |                0 |          487803 |                     0 |        191841 | 2017-02-05 22:51:16.555195+01

 2017-02-05 23:24:53.585209+01 | 1486333493.58521 |                 0 |               7 |                   233 |                   19 |               2183 |             0 |                0 |          487803 |                     0 |        191841 | 2017-02-05 22:51:16.555195+01

 2017-02-05 23:24:54.672115+01 | 1486333494.67212 |                 0 |               7 |                   233 |                   19 |               2183 |             0 |                0 |          487803 |                     0 |        191841 | 2017-02-05 22:51:16.555195+01

 2017-02-05 23:24:55.761916+01 | 1486333495.76192 |                 0 |               7 |                   233 |                   19 |               2183 |             0 |                0 |          487803 |                     0 |        191841 | 2017-02-05 22:51:16.555195+01

 2017-02-05 23:24:56.848424+01 | 1486333496.84842 |                 0 |               7 |                   233 |                   19 |               2183 |             0 |                0 |          487803 |                     0 |        191841 | 2017-02-05 22:51:16.555195+01

 2017-02-05 23:24:57.955521+01 | 1486333497.95552 |                 0 |               7 |                   233 |                   19 |               2183 |             0 |                0 |          487803 |                     0 |        191841 | 2017-02-05 22:51:16.555195+01

 2017-02-05 23:24:59.054613+01 | 1486333499.05461 |                 0 |               7 |                   233 |                   19 |               2183 |             0 |                0 |          487803 |                     0 |        191841 | 2017-02-05 22:51:16.555195+01

 2017-02-05 23:25:00.145546+01 | 1486333500.14555 |                 0 |               7 |                   233 |                   19 |               2183 |             0 |                0 |          487803 |                     0 |        191841 | 2017-02-05 22:51:16.555195+01

 2017-02-05 23:25:01.246423+01 | 1486333501.24642 |                 0 |               7 |                   233 |                   19 |               2183 |             0 |                0 |          487803 |                     0 |        191841 | 2017-02-05 22:51:16.555195+01

 2017-02-05 23:25:02.35163+01 | 1486333502.35163 |                 0 |               7 |                   233 |                   19 |               2183 |             0 |                0 |          487803 |                     0 |        191841 | 2017-02-05 22:51:16.555195+01

 2017-02-05 23:25:03.445234+01 | 1486333503.44523 |                 0 |               7 |                   233 |                   19 |               2183 |             0 |                0 |          487803 |                     0 |        191841 | 2017-02-05 22:51:16.555195+01

 2017-02-05 23:25:04.547246+01 | 1486333504.54725 |                 0 |               7 |                   233 |                   19 |               2183 |             0 |                0 |          487803 |                     0 |        191841 | 2017-02-05 22:51:16.555195+01

 2017-02-05 23:25:05.635341+01 | 1486333505.63534 |                 0 |               7 |                   233 |                   19 |               2183 |             0 |                0 |          487803 |                     0 |        191841 | 2017-02-05 22:51:16.555195+01

 2017-02-05 23:25:06.724394+01 | 1486333506.72439 |                 0 |               7 |                   233 |                   19 |               2183 |             0 |                0 |          487803 |                     0 |        191841 | 2017-02-05 22:51:16.555195+01

 2017-02-05 23:25:07.818491+01 | 1486333507.81849 |                 0 |               7 |                   233 |                   19 |               2183 |             0 |                0 |          487803 |                     0 |        191841 | 2017-02-05 22:51:16.555195+01

 2017-02-05 23:25:08.917793+01 | 1486333508.91779 |                 0 |               7 |                   233 |                   19 |               2183 |             0 |                0 |          487803 |                     0 |        191841 | 2017-02-05 22:51:16.555195+01

 2017-02-05 23:25:10.013462+01 | 1486333510.01346 |                 0 |               7 |                   233 |                   19 |               2183 |             0 |                0 |          487803 |                     0 |        191841 | 2017-02-05 22:51:16.555195+01

 2017-02-05 23:25:11.106874+01 | 1486333511.10687 |                 0 |               7 |                   233 |                   19 |               2183 |             0 |                0 |          487803 |                     0 |        191841 | 2017-02-05 22:51:16.555195+01

 2017-02-05 23:25:12.205628+01 | 1486333512.20563 |                 0 |               7 |                   233 |                   19 |               2183 |             0 |                0 |          487803 |                     0 |        191841 | 2017-02-05 22:51:16.555195+01

 2017-02-05 23:25:13.301076+01 | 1486333513.30108 |                 0 |               7 |                   233 |                   19 |               2183 |             0 |                0 |          487803 |                     0 |        191841 | 2017-02-05 22:51:16.555195+01

 2017-02-05 23:25:14.391362+01 | 1486333514.39136 |                 0 |               7 |                   233 |                   19 |               2183 |             0 |                0 |          487803 |                     0 |        191841 | 2017-02-05 22:51:16.555195+01

 2017-02-05 23:25:15.497793+01 | 1486333515.49779 |                 0 |               7 |                   233 |                   19 |               2183 |             0 |                0 |          487803 |                     0 |        191841 | 2017-02-05 22:51:16.555195+01

 2017-02-05 23:25:16.602276+01 | 1486333516.60228 |                 0 |               7 |                   233 |                   19 |               2183 |             0 |                0 |          487803 |                     0 |        191841 | 2017-02-05 22:51:16.555195+01

 2017-02-05 23:25:17.704328+01 | 1486333517.70433 |                 0 |               7 |                   233 |                   19 |               2183 |             0 |                0 |          487803 |                     0 |        191841 | 2017-02-05 22:51:16.555195+01

 2017-02-05 23:25:18.789009+01 | 1486333518.78901 |                 0 |               7 |                   233 |                   19 |               2183 |             0 |                0 |          487803 |                     0 |        191841 | 2017-02-05 22:51:16.555195+01

 2017-02-05 23:25:19.872742+01 | 1486333519.87274 |                 0 |               7 |                   233 |                   19 |               2183 |             0 |                0 |          487803 |                     0 |        191841 | 2017-02-05 22:51:16.555195+01

 2017-02-05 23:25:20.962505+01 | 1486333520.96251 |                 0 |               7 |                   233 |                   19 |               2183 |             0 |                0 |          487803 |                     0 |        191841 | 2017-02-05 22:51:16.555195+01

 2017-02-05 23:25:22.050275+01 | 1486333522.05028 |                 0 |               7 |                   233 |                   19 |               2183 |             0 |                0 |          487803 |                     0 |        191841 | 2017-02-05 22:51:16.555195+01

 2017-02-05 23:25:23.147045+01 | 1486333523.14704 |                 0 |               7 |                   233 |                   19 |               2183 |             0 |                0 |          487803 |                     0 |        191841 | 2017-02-05 22:51:16.555195+01

 2017-02-05 23:25:24.243946+01 | 1486333524.24395 |                 0 |               7 |                   233 |                   19 |               2183 |             0 |                0 |          487803 |                     0 |        191841 | 2017-02-05 22:51:16.555195+01

 2017-02-05 23:25:25.352778+01 | 1486333525.35278 |                 0 |               7 |                   233 |                   19 |               2183 |             0 |                0 |          487803 |                     0 |        191841 | 2017-02-05 22:51:16.555195+01

 2017-02-05 23:25:26.455045+01 | 1486333526.45504 |                 0 |               7 |                   233 |                   19 |               2183 |             0 |                0 |          487803 |                     0 |        191841 | 2017-02-05 22:51:16.555195+01

 2017-02-05 23:25:27.553035+01 | 1486333527.55304 |                 0 |               7 |                   233 |                   19 |               2183 |             0 |                0 |          487803 |                     0 |        191841 | 2017-02-05 22:51:16.555195+01

 2017-02-05 23:25:28.655998+01 | 1486333528.656 |                 0 |               7 |                   233 |                   19 |               2183 |             0 |                0 |          487803 |                     0 |        191841 | 2017-02-05 22:51:16.555195+01

 2017-02-05 23:25:29.748959+01 | 1486333529.74896 |                 0 |               7 |                   233 |                   19 |               2183 |             0 |                0 |          487803 |                     0 |        191841 | 2017-02-05 22:51:16.555195+01

 2017-02-05 23:25:30.833124+01 | 1486333530.83312 |                 0 |               7 |                   233 |                   19 |               2183 |             0 |                0 |          487803 |                     0 |        191841 | 2017-02-05 22:51:16.555195+01

 2017-02-05 23:25:31.92231+01 | 1486333531.92231 |                 0 |               7 |                   233 |                   19 |               2183 |             0 |                0 |          487803 |                     0 |        191841 | 2017-02-05 22:51:16.555195+01

 2017-02-05 23:25:33.015628+01 | 1486333533.01563 |                 0 |               7 |                   233 |                   19 |               2183 |             0 |                0 |          487803 |                     0 |        191841 | 2017-02-05 22:51:16.555195+01

 2017-02-05 23:25:34.111213+01 | 1486333534.11121 |                 0 |               7 |                   233 |                   19 |               2183 |             0 |                0 |          487803 |                     0 |        191841 | 2017-02-05 22:51:16.555195+01

 2017-02-05 23:25:35.209422+01 | 1486333535.20942 |                 0 |               7 |                   233 |                   19 |               2183 |             0 |                0 |          487803 |                     0 |        191841 | 2017-02-05 22:51:16.555195+01

 2017-02-05 23:25:36.30352+01 | 1486333536.30352 |                 0 |               7 |                   233 |                   19 |               2183 |             0 |                0 |          487803 |                     0 |        191841 | 2017-02-05 22:51:16.555195+01

 2017-02-05 23:25:37.403969+01 | 1486333537.40397 |                 0 |               7 |                   233 |                   19 |               2183 |             0 |                0 |          487803 |                     0 |        191841 | 2017-02-05 22:51:16.555195+01

 2017-02-05 23:25:38.498374+01 | 1486333538.49837 |                 0 |               7 |                   233 |                   19 |               2183 |             0 |                0 |          487803 |                     0 |        191841 | 2017-02-05 22:51:16.555195+01

 2017-02-05 23:25:39.589073+01 | 1486333539.58907 |                 0 |               7 |                   233 |                   19 |               2183 |             0 |                0 |          487803 |                     0 |        191841 | 2017-02-05 22:51:16.555195+01

 2017-02-05 23:25:40.703359+01 | 1486333540.70336 |                 0 |               7 |                   233 |                   19 |               2183 |             0 |                0 |          487803 |                     0 |        191841 | 2017-02-05 22:51:16.555195+01

 2017-02-05 23:25:41.795137+01 | 1486333541.79514 |                 0 |               7 |                   233 |                   19 |               2183 |             0 |                0 |          487803 |                     0 |        191841 | 2017-02-05 22:51:16.555195+01

 2017-02-05 23:25:42.877787+01 | 1486333542.87779 |                 0 |               7 |                   233 |                   19 |               2183 |             0 |                0 |          487803 |                     0 |        191841 | 2017-02-05 22:51:16.555195+01

 2017-02-05 23:25:43.968051+01 | 1486333543.96805 |                 0 |               7 |                   233 |                   19 |               2183 |             0 |                0 |          487803 |                     0 |        191841 | 2017-02-05 22:51:16.555195+01

 2017-02-05 23:25:45.056667+01 | 1486333545.05667 |                 0 |               7 |                   233 |                   19 |               2183 |             0 |                0 |          487803 |                     0 |        191841 | 2017-02-05 22:51:16.555195+01

 2017-02-05 23:25:46.13716+01 | 1486333546.13716 |                 0 |               7 |                   233 |                   19 |               2183 |             0 |                0 |          487803 |                     0 |        191841 | 2017-02-05 22:51:16.555195+01

 2017-02-05 23:25:47.216193+01 | 1486333547.21619 |                 0 |               7 |                   233 |                   19 |               2183 |             0 |                0 |          487803 |                     0 |        191841 | 2017-02-05 22:51:16.555195+01

 2017-02-05 23:25:48.312799+01 | 1486333548.3128 |                 0 |               7 |                   233 |                   19 |               2183 |             0 |                0 |          487803 |                     0 |        191841 | 2017-02-05 22:51:16.555195+01

 2017-02-05 23:25:49.414223+01 | 1486333549.41422 |                 0 |               7 |                   233 |                   19 |               2183 |             0 |                0 |          487803 |                     0 |        191841 | 2017-02-05 22:51:16.555195+01

 2017-02-05 23:25:50.516882+01 | 1486333550.51688 |                 0 |               7 |                   233 |                   19 |               2183 |             0 |                0 |          487803 |                     0 |        191841 | 2017-02-05 22:51:16.555195+01

 2017-02-05 23:25:51.629041+01 | 1486333551.62904 |                 0 |               7 |                   233 |                   19 |               2183 |             0 |                0 |          487803 |                     0 |        191841 | 2017-02-05 22:51:16.555195+01

 2017-02-05 23:25:52.728566+01 | 1486333552.72857 |                 0 |               7 |                   233 |                   19 |               2183 |             0 |                0 |          487803 |                     0 |        191841 | 2017-02-05 22:51:16.555195+01

 2017-02-05 23:25:53.833612+01 | 1486333553.83361 |                 0 |               7 |                   233 |                   19 |               2183 |             0 |                0 |          487803 |                     0 |        191841 | 2017-02-05 22:51:16.555195+01

 2017-02-05 23:25:54.931091+01 | 1486333554.93109 |                 0 |               7 |                   233 |                   19 |               2183 |             0 |                0 |          487803 |                     0 |        191841 | 2017-02-05 22:51:16.555195+01

 2017-02-05 23:25:56.035033+01 | 1486333556.03503 |                 0 |               7 |                   233 |                   19 |               2183 |             0 |                0 |          487803 |                     0 |        191841 | 2017-02-05 22:51:16.555195+01

 2017-02-05 23:25:57.135212+01 | 1486333557.13521 |                 0 |               7 |                   233 |                   19 |               2183 |             0 |                0 |          487803 |                     0 |        191841 | 2017-02-05 22:51:16.555195+01

 2017-02-05 23:25:58.231754+01 | 1486333558.23175 |                 0 |               7 |                   233 |                   19 |               2183 |             0 |                0 |          487803 |                     0 |        191841 | 2017-02-05 22:51:16.555195+01

 2017-02-05 23:25:59.332448+01 | 1486333559.33245 |                 0 |               7 |                   233 |                   19 |               2183 |             0 |                0 |          487803 |                     0 |        191841 | 2017-02-05 22:51:16.555195+01

 2017-02-05 23:26:00.432616+01 | 1486333560.43262 |                 0 |               7 |                   233 |                   19 |               2183 |             0 |                0 |          487803 |                     0 |        191841 | 2017-02-05 22:51:16.555195+01

 2017-02-05 23:26:01.527092+01 | 1486333561.52709 |                 0 |               7 |                   233 |                   19 |               2183 |             0 |                0 |          487803 |                     0 |        191841 | 2017-02-05 22:51:16.555195+01

 2017-02-05 23:26:02.61505+01 | 1486333562.61505 |                 0 |               7 |                   233 |                   19 |               2183 |             0 |                0 |          487803 |                     0 |        191841 | 2017-02-05 22:51:16.555195+01

 2017-02-05 23:26:03.712263+01 | 1486333563.71226 |                 0 |               7 |                   233 |                   19 |               2183 |             0 |                0 |          487803 |                     0 |        191841 | 2017-02-05 22:51:16.555195+01

 2017-02-05 23:26:04.838597+01 | 1486333564.8386 |                 0 |               7 |                   233 |                   19 |               2183 |             0 |                0 |          487803 |                     0 |        191841 | 2017-02-05 22:51:16.555195+01

 2017-02-05 23:26:05.936145+01 | 1486333565.93615 |                 0 |               7 |                   233 |                   19 |               2183 |             0 |                0 |          487803 |                     0 |        191841 | 2017-02-05 22:51:16.555195+01

 2017-02-05 23:26:07.031231+01 | 1486333567.03123 |                 0 |               7 |                   233 |                   19 |               2183 |             0 |                0 |          487803 |                     0 |        191841 | 2017-02-05 22:51:16.555195+01

 2017-02-05 23:26:08.125853+01 | 1486333568.12585 |                 0 |               7 |                   233 |                   19 |               2183 |             0 |                0 |          487803 |                     0 |        191841 | 2017-02-05 22:51:16.555195+01

 2017-02-05 23:26:09.215587+01 | 1486333569.21559 |                 0 |               7 |                   233 |                   19 |               2183 |             0 |                0 |          487803 |                     0 |        191841 | 2017-02-05 22:51:16.555195+01

 2017-02-05 23:26:10.304835+01 | 1486333570.30484 |                 0 |               7 |                   233 |                   19 |               2183 |             0 |                0 |          487803 |                     0 |        191841 | 2017-02-05 22:51:16.555195+01

 2017-02-05 23:26:11.395933+01 | 1486333571.39593 |                 0 |               7 |                   233 |                   19 |               2183 |             0 |                0 |          487803 |                     0 |        191841 | 2017-02-05 22:51:16.555195+01

 2017-02-05 23:26:12.486747+01 | 1486333572.48675 |                 0 |               7 |                   233 |                   19 |               2183 |             0 |                0 |          487803 |                     0 |        191841 | 2017-02-05 22:51:16.555195+01

 2017-02-05 23:26:13.587765+01 | 1486333573.58776 |                 0 |               7 |                   233 |                   19 |               2183 |             0 |                0 |          487803 |                     0 |        191841 | 2017-02-05 22:51:16.555195+01

 2017-02-05 23:26:14.682908+01 | 1486333574.68291 |                 0 |               7 |                   233 |                   19 |               2183 |             0 |                0 |          487803 |                     0 |        191841 | 2017-02-05 22:51:16.555195+01

 2017-02-05 23:26:15.781052+01 | 1486333575.78105 |                 0 |               7 |                   233 |                   19 |               2183 |             0 |                0 |          487803 |                     0 |        191841 | 2017-02-05 22:51:16.555195+01

 2017-02-05 23:26:16.880859+01 | 1486333576.88086 |                 0 |               7 |                   233 |                   19 |               2183 |             0 |                0 |          487803 |                     0 |        191841 | 2017-02-05 22:51:16.555195+01

 2017-02-05 23:26:17.975773+01 | 1486333577.97577 |                 0 |               7 |                   233 |                   19 |               2183 |             0 |                0 |          487803 |                     0 |        191841 | 2017-02-05 22:51:16.555195+01

 2017-02-05 23:26:19.056202+01 | 1486333579.0562 |                 0 |               7 |                   233 |                   19 |               2183 |             0 |                0 |          487803 |                     0 |        191841 | 2017-02-05 22:51:16.555195+01

 2017-02-05 23:26:20.142308+01 | 1486333580.14231 |                 0 |               7 |                   233 |                   19 |               2183 |             0 |                0 |          487803 |                     0 |        191841 | 2017-02-05 22:51:16.555195+01

 2017-02-05 23:26:21.228861+01 | 1486333581.22886 |                 0 |               7 |                   233 |                   19 |               2183 |             0 |                0 |          487803 |                     0 |        191841 | 2017-02-05 22:51:16.555195+01

 2017-02-05 23:26:22.316797+01 | 1486333582.3168 |                 0 |               7 |                   233 |                   19 |               2183 |             0 |                0 |          487803 |                     0 |        191841 | 2017-02-05 22:51:16.555195+01

 2017-02-05 23:26:23.41707+01 | 1486333583.41707 |                 0 |               7 |                   233 |                   19 |               2183 |             0 |                0 |          487803 |                     0 |        191841 | 2017-02-05 22:51:16.555195+01

 2017-02-05 23:26:24.513933+01 | 1486333584.51393 |                 0 |               7 |                   233 |                   19 |               2183 |             0 |                0 |          487803 |                     0 |        191841 | 2017-02-05 22:51:16.555195+01

 2017-02-05 23:26:25.609603+01 | 1486333585.6096 |                 0 |               7 |                   233 |                   19 |               2183 |             0 |                0 |          487803 |                     0 |        191841 | 2017-02-05 22:51:16.555195+01

 2017-02-05 23:26:26.713895+01 | 1486333586.7139 |                 0 |               7 |                   233 |                   19 |               2183 |             0 |                0 |          487803 |                     0 |        191841 | 2017-02-05 22:51:16.555195+01

 2017-02-05 23:26:27.818839+01 | 1486333587.81884 |                 0 |               7 |                   233 |                   19 |               2183 |             0 |                0 |          487803 |                     0 |        191841 | 2017-02-05 22:51:16.555195+01

 2017-02-05 23:26:28.911778+01 | 1486333588.91178 |                 0 |               7 |                   233 |                   19 |               2183 |             0 |                0 |          487803 |                     0 |        191841 | 2017-02-05 22:51:16.555195+01

 2017-02-05 23:26:30.00398+01 | 1486333590.00398 |                 0 |               7 |                   233 |                   19 |               2183 |             0 |                0 |          487803 |                     0 |        191841 | 2017-02-05 22:51:16.555195+01

 2017-02-05 23:26:31.089895+01 | 1486333591.0899 |                 0 |               7 |                   233 |                   19 |               2183 |             0 |                0 |          487803 |                     0 |        191841 | 2017-02-05 22:51:16.555195+01

 2017-02-05 23:26:32.181098+01 | 1486333592.1811 |                 0 |               7 |                   233 |                   19 |               2183 |             0 |                0 |          487803 |                     0 |        191841 | 2017-02-05 22:51:16.555195+01

 2017-02-05 23:26:33.274423+01 | 1486333593.27442 |                 0 |               7 |                   233 |                   19 |               2183 |             0 |                0 |          487803 |                     0 |        191841 | 2017-02-05 22:51:16.555195+01

 2017-02-05 23:26:34.373921+01 | 1486333594.37392 |                 0 |               7 |                   233 |                   19 |               2183 |             0 |                0 |          487803 |                     0 |        191841 | 2017-02-05 22:51:16.555195+01

 2017-02-05 23:26:35.477296+01 | 1486333595.4773 |                 0 |               7 |                   233 |                   19 |               2183 |             0 |                0 |          487803 |                     0 |        191841 | 2017-02-05 22:51:16.555195+01

 2017-02-05 23:26:36.57193+01 | 1486333596.57193 |                 0 |               7 |                   233 |                   19 |               2183 |             0 |                0 |          487803 |                     0 |        191841 | 2017-02-05 22:51:16.555195+01

 2017-02-05 23:26:37.670617+01 | 1486333597.67062 |                 0 |               7 |                   233 |                   19 |               2183 |             0 |                0 |          487803 |                     0 |        191841 | 2017-02-05 22:51:16.555195+01

 2017-02-05 23:26:38.771026+01 | 1486333598.77103 |                 0 |               7 |                   233 |                   19 |               2183 |             0 |                0 |          487803 |                     0 |        191841 | 2017-02-05 22:51:16.555195+01

 2017-02-05 23:26:39.878025+01 | 1486333599.87803 |                 0 |               7 |                   233 |                   19 |               2183 |             0 |                0 |          487803 |                     0 |        191841 | 2017-02-05 22:51:16.555195+01

 2017-02-05 23:26:40.982075+01 | 1486333600.98207 |                 0 |               7 |                   233 |                   19 |               2183 |             0 |                0 |          487803 |                     0 |        191841 | 2017-02-05 22:51:16.555195+01

