 2017-02-05 13:43:57.374689+01 | 1486298637.37469 | 21/65D419B8              |          143442319800

 2017-02-05 13:43:58.464703+01 | 1486298638.4647 | 21/7617E5A0              |          143715198368

 2017-02-05 13:43:59.541963+01 | 1486298639.54196 | 21/8910C680              |          144033498752

 2017-02-05 13:44:00.629761+01 | 1486298640.62976 | 21/9BEA5DD8              |          144349748696

 2017-02-05 13:44:01.711378+01 | 1486298641.71138 | 21/AE89A000              |          144662175744

 2017-02-05 13:44:02.795464+01 | 1486298642.79546 | 21/BFDBFA88              |          144952785544

 2017-02-05 13:44:03.877273+01 | 1486298643.87727 | 21/D03F3DC0              |          145227726272

 2017-02-05 13:44:04.954431+01 | 1486298644.95443 | 21/DF15BAA8              |          145476663976

 2017-02-05 13:44:06.034438+01 | 1486298646.03444 | 21/ECBE75E0              |          145705825760

 2017-02-05 13:44:07.115029+01 | 1486298647.11503 | 21/F93BB870              |          145915361392

 2017-02-05 13:44:08.193713+01 | 1486298648.19371 | 22/38777C0               |          146088097728

 2017-02-05 13:44:09.269266+01 | 1486298649.26927 | 22/E956978               |          146273560952

 2017-02-05 13:44:10.350643+01 | 1486298650.35064 | 22/1951CFC8              |          146453680072

 2017-02-05 13:44:11.435013+01 | 1486298651.43501 | 22/237D8A70              |          146624318064

 2017-02-05 13:44:12.520632+01 | 1486298652.52063 | 22/2CE91C30              |          146782362672

 2017-02-05 13:44:13.59964+01 | 1486298653.59964 | 22/35C8B590              |          146931234192

 2017-02-05 13:44:14.677226+01 | 1486298654.67723 | 22/3E5A42A8              |          147074990760

 2017-02-05 13:44:15.760797+01 | 1486298655.7608 | 22/46B76F80              |          147215314816

 2017-02-05 13:44:16.842982+01 | 1486298656.84298 | 22/4E63F540              |          147344061760

 2017-02-05 13:44:17.928391+01 | 1486298657.92839 | 22/54B24778              |          147449857912

 2017-02-05 13:44:19.008577+01 | 1486298659.00858 | 22/5B7A2A48              |          147563620936

 2017-02-05 13:44:20.091704+01 | 1486298660.0917 | 22/61E8C528              |          147671532840

 2017-02-05 13:44:21.173695+01 | 1486298661.1737 | 22/684A0FF0              |          147778572272

 2017-02-05 13:44:22.252623+01 | 1486298662.25262 | 22/6E57D3C8              |          147880137672

 2017-02-05 13:44:23.329976+01 | 1486298663.32998 | 22/7420DCE0              |          147977198816

 2017-02-05 13:44:24.411499+01 | 1486298664.4115 | 22/79BC82A0              |          148071285408

 2017-02-05 13:44:25.490753+01 | 1486298665.49075 | 22/7FC64CB8              |          148172590264

 2017-02-05 13:44:26.566484+01 | 1486298666.56648 | 22/8583EB68              |          148268903272

 2017-02-05 13:44:27.644381+01 | 1486298667.64438 | 22/8B0B6CA8              |          148361669800

 2017-02-05 13:44:28.718741+01 | 1486298668.71874 | 22/91104D58              |          148462652760

 2017-02-05 13:44:29.802171+01 | 1486298669.80217 | 22/95AC5978              |          148539988344

 2017-02-05 13:44:30.880245+01 | 1486298670.88024 | 22/9B112D28              |          148630482216

 2017-02-05 13:44:31.962565+01 | 1486298671.96256 | 22/A039A298              |          148717019800

 2017-02-05 13:44:33.043052+01 | 1486298673.04305 | 22/A5434ED0              |          148801567904

 2017-02-05 13:44:34.124505+01 | 1486298674.12451 | 22/AA4C2D00              |          148886007040

 2017-02-05 13:44:35.203636+01 | 1486298675.20364 | 22/AEFD5258              |          148964725336

 2017-02-05 13:44:36.278947+01 | 1486298676.27895 | 22/B3B22AE0              |          149043686112

 2017-02-05 13:44:37.356759+01 | 1486298677.35676 | 22/B86DDCD8              |          149123095768

 2017-02-05 13:44:38.43622+01 | 1486298678.43622 | 22/BD06B368              |          149200221032

 2017-02-05 13:44:39.517178+01 | 1486298679.51718 | 22/C17C8468              |          149275051112

 2017-02-05 13:44:40.600488+01 | 1486298680.60049 | 22/C4E10A08              |          149331970568

 2017-02-05 13:44:41.681974+01 | 1486298681.68197 | 22/C8B63738              |          149396272952

 2017-02-05 13:44:42.761448+01 | 1486298682.76145 | 22/CC97B1E8              |          149461381608

 2017-02-05 13:44:43.838424+01 | 1486298683.83842 | 22/D081F988              |          149527067016

 2017-02-05 13:44:44.918313+01 | 1486298684.91831 | 22/D49E7990              |          149596043664

 2017-02-05 13:44:45.999144+01 | 1486298685.99914 | 22/D81A37B8              |          149654484920

 2017-02-05 13:44:47.074796+01 | 1486298687.0748 | 22/DBCCA1C0              |          149716509120

 2017-02-05 13:44:48.151682+01 | 1486298688.15168 | 22/DF8943C8              |          149779203016

 2017-02-05 13:44:49.227804+01 | 1486298689.2278 | 22/E3181400              |          149838894080

 2017-02-05 13:44:50.304408+01 | 1486298690.30441 | 22/E6A030E0              |          149898146016

 2017-02-05 13:44:51.382096+01 | 1486298691.3821 | 22/EA617D30              |          149961145648

 2017-02-05 13:44:52.462655+01 | 1486298692.46266 | 22/EDF0BFF8              |          150020866040

 2017-02-05 13:44:53.541373+01 | 1486298693.54137 | 22/F1A07D00              |          150082714880

 2017-02-05 13:44:54.614041+01 | 1486298694.61404 | 22/F4C05C20              |          150135135264

 2017-02-05 13:44:55.697813+01 | 1486298695.69781 | 22/F84D8CC0              |          150194719936

 2017-02-05 13:44:56.776447+01 | 1486298696.77645 | 22/FBFE1CA8              |          150256622760

 2017-02-05 13:44:57.863178+01 | 1486298697.86318 | 22/FF58EE48              |          150312906312

 2017-02-05 13:44:58.938064+01 | 1486298698.93806 | 23/2B57428               |          150369301544

 2017-02-05 13:45:00.014399+01 | 1486298700.0144 | 23/60D43F0               |          150425388016

 2017-02-05 13:45:01.091098+01 | 1486298701.0911 | 23/99FD098               |          150485323928

 2017-02-05 13:45:02.17184+01 | 1486298702.17184 | 23/D226490               |          150544213136

 2017-02-05 13:45:03.252621+01 | 1486298703.25262 | 23/10B98DE0              |          150604451296

 2017-02-05 13:45:04.334326+01 | 1486298704.33433 | 23/143166B0              |          150662637232

 2017-02-05 13:45:05.408232+01 | 1486298705.40823 | 23/177976C8              |          150717691592

 2017-02-05 13:45:06.485032+01 | 1486298706.48503 | 23/1AAFEE28              |          150771592744

 2017-02-05 13:45:07.564794+01 | 1486298707.56479 | 23/1D925788              |          150819985288

 2017-02-05 13:45:08.641117+01 | 1486298708.64112 | 23/20C364B0              |          150873531568

 2017-02-05 13:45:09.723454+01 | 1486298709.72345 | 23/2400F108              |          150927896840

 2017-02-05 13:45:10.798784+01 | 1486298710.79878 | 23/2746A240              |          150982795840

 2017-02-05 13:45:11.878649+01 | 1486298711.87865 | 23/2A9A9178              |          151038628216

 2017-02-05 13:45:12.965557+01 | 1486298712.96556 | 23/2DE092D0              |          151093547728

 2017-02-05 13:45:14.048392+01 | 1486298714.04839 | 23/310C93C0              |          151146763200

 2017-02-05 13:45:15.131726+01 | 1486298715.13173 | 23/341CE2F8              |          151198163704

 2017-02-05 13:45:16.212598+01 | 1486298716.2126 | 23/37589CD8              |          151252409560

 2017-02-05 13:45:17.291172+01 | 1486298717.29117 | 23/3A7C9180              |          151305097600

 2017-02-05 13:45:18.371496+01 | 1486298718.3715 | 23/3D76B720              |          151355045664

 2017-02-05 13:45:19.458083+01 | 1486298719.45808 | 23/4067AAB0              |          151404391088

 2017-02-05 13:45:20.525357+01 | 1486298720.52536 | 23/42FFE6F8              |          151447922424

 2017-02-05 13:45:21.606509+01 | 1486298721.60651 | 23/460181F8              |          151498359288

 2017-02-05 13:45:22.686442+01 | 1486298722.68644 | 23/48FE0E08              |          151548464648

 2017-02-05 13:45:23.765834+01 | 1486298723.76583 | 23/4BF36000              |          151598096384

 2017-02-05 13:45:24.842395+01 | 1486298724.8424 | 23/4EFA3340              |          151648875328

 2017-02-05 13:45:25.923153+01 | 1486298725.92315 | 23/51FB1278              |          151699264120

 2017-02-05 13:45:27.001331+01 | 1486298727.00133 | 23/54EB38E0              |          151748557024

 2017-02-05 13:45:28.080991+01 | 1486298728.08099 | 23/5869B778              |          151807178616

 2017-02-05 13:45:29.160759+01 | 1486298729.16076 | 23/5E396038              |          151904673848

 2017-02-05 13:45:30.236331+01 | 1486298730.23633 | 23/633E5E50              |          151988887120

 2017-02-05 13:45:31.317971+01 | 1486298731.31797 | 23/65F10820              |          152034150432

 2017-02-05 13:45:32.395713+01 | 1486298732.39571 | 23/68B75788              |          152080701320

 2017-02-05 13:45:33.474295+01 | 1486298733.47429 | 23/6B714F00              |          152126443264

 2017-02-05 13:45:34.540346+01 | 1486298734.54035 | 23/6DD30E38              |          152166403640

 2017-02-05 13:45:35.617529+01 | 1486298735.61753 | 23/707A77C0              |          152210929600

 2017-02-05 13:45:36.695149+01 | 1486298736.69515 | 23/7331A1E8              |          152256487912

 2017-02-05 13:45:37.774008+01 | 1486298737.77401 | 23/75D04DA8              |          152300441000

 2017-02-05 13:45:38.852537+01 | 1486298738.85254 | 23/787E6EF0              |          152345407216

 2017-02-05 13:45:39.932013+01 | 1486298739.93201 | 23/7B197220              |          152389120544

 2017-02-05 13:45:41.01183+01 | 1486298741.01183 | 23/7DAC1938              |          152432286008

 2017-02-05 13:45:42.087824+01 | 1486298742.08782 | 23/804C48B0              |          152476338352

 2017-02-05 13:45:43.169969+01 | 1486298743.16997 | 23/82FBDB88              |          152521399176

 2017-02-05 13:45:44.244638+01 | 1486298744.24464 | 23/859273B0              |          152564822960

 2017-02-05 13:45:45.320329+01 | 1486298745.32033 | 23/8808CE80              |          152606133888

 2017-02-05 13:45:46.402176+01 | 1486298746.40218 | 23/8A39B8D8              |          152642894040

 2017-02-05 13:45:47.484158+01 | 1486298747.48416 | 23/8CD37480              |          152686523520

 2017-02-05 13:45:48.563463+01 | 1486298748.56346 | 23/8F40FC40              |          152727257120

 2017-02-05 13:45:49.643878+01 | 1486298749.64388 | 23/91B82CB0              |          152768621744

 2017-02-05 13:45:50.723898+01 | 1486298750.7239 | 23/943AF080              |          152810745984

 2017-02-05 13:45:51.81123+01 | 1486298751.81123 | 23/96B9AB80              |          152852605824

 2017-02-05 13:45:52.892478+01 | 1486298752.89248 | 23/99511960              |          152896084320

 2017-02-05 13:45:53.969717+01 | 1486298753.96972 | 23/9BC01198              |          152936911256

 2017-02-05 13:45:55.050101+01 | 1486298755.0501 | 23/9DE30E90              |          152972758672

 2017-02-05 13:45:56.13085+01 | 1486298756.13085 | 23/A0486C80              |          153012956288

 2017-02-05 13:45:57.214134+01 | 1486298757.21413 | 23/A2AA12F8              |          153052910328

 2017-02-05 13:45:58.29046+01 | 1486298758.29046 | 23/A4DB3000              |          153089683456

 2017-02-05 13:45:59.367375+01 | 1486298759.36737 | 23/A6FB9E88              |          153125363336

 2017-02-05 13:46:00.443496+01 | 1486298760.4435 | 23/A91EF898              |          153161234584

 2017-02-05 13:46:01.521391+01 | 1486298761.52139 | 23/AB679A90              |          153199549072

 2017-02-05 13:46:02.60535+01 | 1486298762.60535 | 23/ADADAA58              |          153237695064

 2017-02-05 13:46:03.686036+01 | 1486298763.68604 | 23/B008DAC0              |          153277225664

 2017-02-05 13:46:04.766064+01 | 1486298764.76606 | 23/B2161E80              |          153311649408

 2017-02-05 13:46:05.84272+01 | 1486298765.84272 | 23/B47B5170              |          153351836016

 2017-02-05 13:46:06.924187+01 | 1486298766.92419 | 23/B6B9E680              |          153389491840

 2017-02-05 13:46:08.007143+01 | 1486298768.00714 | 23/B8FB9000              |          153427349504

 2017-02-05 13:46:09.084416+01 | 1486298769.08442 | 23/BAF9E390              |          153460794256

 2017-02-05 13:46:10.170979+01 | 1486298770.17098 | 23/BCE34A20              |          153492867616

 2017-02-05 13:46:11.248902+01 | 1486298771.2489 | 23/BEC148C8              |          153524193480

 2017-02-05 13:46:12.330161+01 | 1486298772.33016 | 23/C0BB38A0              |          153557350560

 2017-02-05 13:46:13.412827+01 | 1486298773.41283 | 23/C27AC8D8              |          153586682072

 2017-02-05 13:46:14.487682+01 | 1486298774.48768 | 23/C46C5FB0              |          153619292080

 2017-02-05 13:46:15.566794+01 | 1486298775.56679 | 23/C6663C30              |          153652444208

 2017-02-05 13:46:16.6468+01 | 1486298776.6468 | 23/C83C5180              |          153683251584

 2017-02-05 13:46:17.723799+01 | 1486298777.7238 | 23/CA3876B8              |          153716553400

 2017-02-05 13:46:18.806429+01 | 1486298778.80643 | 23/CBF2EB10              |          153745550096

 2017-02-05 13:46:19.885324+01 | 1486298779.88532 | 23/CDCE0DE0              |          153776688608

 2017-02-05 13:46:20.965148+01 | 1486298780.96515 | 23/CFA7DC78              |          153807740024

 2017-02-05 13:46:22.042726+01 | 1486298782.04273 | 23/D1789E30              |          153838198320

 2017-02-05 13:46:23.125327+01 | 1486298783.12533 | 23/D32CB7B0              |          153866778544

 2017-02-05 13:46:24.204532+01 | 1486298784.20453 | 23/D508EC88              |          153897987208

 2017-02-05 13:46:25.279503+01 | 1486298785.2795 | 23/D6DD6380              |          153928688512

 2017-02-05 13:46:26.359532+01 | 1486298786.35953 | 23/D8B72560              |          153959736672

 2017-02-05 13:46:27.43815+01 | 1486298787.43815 | 23/DA81A210              |          153989784080

 2017-02-05 13:46:28.515636+01 | 1486298788.51564 | 23/DCA73EF8              |          154025803512

 2017-02-05 13:46:29.602951+01 | 1486298789.60295 | 23/DF9865D0              |          154075162064

 2017-02-05 13:46:30.678599+01 | 1486298790.6786 | 23/E1739220              |          154106303008

 2017-02-05 13:46:31.762034+01 | 1486298791.76203 | 23/E334C670              |          154135742064

 2017-02-05 13:46:32.840292+01 | 1486298792.84029 | 23/E4D84068              |          154163232872

 2017-02-05 13:46:33.922017+01 | 1486298793.92202 | 23/E69FD2A0              |          154193089184

 2017-02-05 13:46:35.002282+01 | 1486298795.00228 | 23/E87DF020              |          154224422944

 2017-02-05 13:46:36.082677+01 | 1486298796.08268 | 23/EA3C5E80              |          154253680256

 2017-02-05 13:46:37.160029+01 | 1486298797.16003 | 23/EC0E58E0              |          154284218592

 2017-02-05 13:46:38.236393+01 | 1486298798.23639 | 23/EDD776D8              |          154314176216

 2017-02-05 13:46:39.315885+01 | 1486298799.31589 | 23/EFA49F80              |          154344398720

 2017-02-05 13:46:40.392461+01 | 1486298800.39246 | 23/F17AE8B8              |          154375219384

 2017-02-05 13:46:41.474604+01 | 1486298801.4746 | 23/F317D280              |          154402280064

 2017-02-05 13:46:42.548815+01 | 1486298802.54882 | 23/F4F22F10              |          154433367824

 2017-02-05 13:46:43.626484+01 | 1486298803.62648 | 23/F6B38A40              |          154462816832

 2017-02-05 13:46:44.714207+01 | 1486298804.71421 | 23/F88A79A8              |          154493680040

 2017-02-05 13:46:45.797294+01 | 1486298805.79729 | 23/FA31F8E8              |          154521434344

 2017-02-05 13:46:46.885299+01 | 1486298806.8853 | 23/FC020EE0              |          154551848672

 2017-02-05 13:46:47.970055+01 | 1486298807.97006 | 23/FDD00050              |          154582122576

 2017-02-05 13:46:49.054405+01 | 1486298809.0544 | 23/FF99EDE8              |          154612133352

 2017-02-05 13:46:50.135571+01 | 1486298810.13557 | 24/133A5B0               |          154638984624

 2017-02-05 13:46:51.222294+01 | 1486298811.22229 | 24/2F70E60               |          154668568160

 2017-02-05 13:46:52.306367+01 | 1486298812.30637 | 24/49E0F18               |          154696290072

 2017-02-05 13:46:53.386993+01 | 1486298813.38699 | 24/6520E30               |          154724863536

 2017-02-05 13:46:54.469169+01 | 1486298814.46917 | 24/7F162E8               |          154752082664

 2017-02-05 13:46:55.548668+01 | 1486298815.54867 | 24/99F4C80               |          154780257408

 2017-02-05 13:46:56.625945+01 | 1486298816.62595 | 24/B26BB58               |          154805910360

 2017-02-05 13:46:57.70557+01 | 1486298817.70557 | 24/C9C5D00               |          154830396672

 2017-02-05 13:46:58.785764+01 | 1486298818.78576 | 24/E5F0578               |          154859931000

 2017-02-05 13:46:59.866582+01 | 1486298819.86658 | 24/103DF210              |          154891317776

 2017-02-05 13:47:00.950874+01 | 1486298820.95087 | 24/1231F6E8              |          154924087016

 2017-02-05 13:47:02.037718+01 | 1486298822.03772 | 24/13F5C2D8              |          154953695960

 2017-02-05 13:47:03.129147+01 | 1486298823.12915 | 24/15C4D860              |          154984044640

 2017-02-05 13:47:04.211983+01 | 1486298824.21198 | 24/176FD758              |          155012028248

 2017-02-05 13:47:05.293757+01 | 1486298825.29376 | 24/195ACB80              |          155044203392

 2017-02-05 13:47:06.37455+01 | 1486298826.37455 | 24/1B2BF848              |          155074689096

 2017-02-05 13:47:07.451642+01 | 1486298827.45164 | 24/1CFB7BD0              |          155105065936

 2017-02-05 13:47:08.531595+01 | 1486298828.53159 | 24/1ECB48C8              |          155135461576

 2017-02-05 13:47:09.611009+01 | 1486298829.61101 | 24/20B4B660              |          155167536736

 2017-02-05 13:47:10.693902+01 | 1486298830.6939 | 24/22A813C0              |          155200263104

 2017-02-05 13:47:11.775864+01 | 1486298831.77586 | 24/2490D198              |          155232293272

 2017-02-05 13:47:12.853663+01 | 1486298832.85366 | 24/268B6418              |          155265491992

 2017-02-05 13:47:13.941829+01 | 1486298833.94183 | 24/289EE388              |          155300324232

 2017-02-05 13:47:15.021914+01 | 1486298835.02191 | 24/2AB8AD90              |          155335568784

 2017-02-05 13:47:16.102475+01 | 1486298836.10247 | 24/2CE671E8              |          155372122600

 2017-02-05 13:47:17.184709+01 | 1486298837.18471 | 24/2EC33D48              |          155403369800

 2017-02-05 13:47:18.262769+01 | 1486298838.26277 | 24/30D7AF78              |          155438264184

 2017-02-05 13:47:19.343611+01 | 1486298839.34361 | 24/32F09B68              |          155473451880

 2017-02-05 13:47:20.422547+01 | 1486298840.42255 | 24/35287608              |          155510666760

 2017-02-05 13:47:21.506556+01 | 1486298841.50656 | 24/371EE330              |          155543593776

 2017-02-05 13:47:22.593306+01 | 1486298842.59331 | 24/38CEB230              |          155571892784

 2017-02-05 13:47:23.675041+01 | 1486298843.67504 | 24/3AE561F0              |          155606934000

 2017-02-05 13:47:24.768145+01 | 1486298844.76815 | 24/3D5EC198              |          155648442776

 2017-02-05 13:47:25.853535+01 | 1486298845.85353 | 24/3FF576A8              |          155691873960

 2017-02-05 13:47:26.936042+01 | 1486298846.93604 | 24/42BA6588              |          155738334600

 2017-02-05 13:47:28.018606+01 | 1486298848.01861 | 24/456219A0              |          155782879648

 2017-02-05 13:47:29.114535+01 | 1486298849.11454 | 24/48B23810              |          155838461968

 2017-02-05 13:47:30.197786+01 | 1486298850.19779 | 24/4D16A090              |          155912151184

 2017-02-05 13:47:31.284653+01 | 1486298851.28465 | 24/502A2B88              |          155963763592

 2017-02-05 13:47:32.370759+01 | 1486298852.37076 | 24/52B6CA90              |          156006533776

 2017-02-05 13:47:33.453637+01 | 1486298853.45364 | 24/54ED7BD0              |          156043672528

 2017-02-05 13:47:34.52838+01 | 1486298854.52838 | 24/573E3F58              |          156082519896

 2017-02-05 13:47:35.600801+01 | 1486298855.6008 | 24/5999CD20              |          156122074400

 2017-02-05 13:47:36.678784+01 | 1486298856.67878 | 24/5BAF76E0              |          156157048544

 2017-02-05 13:47:37.759105+01 | 1486298857.7591 | 24/5D746FF0              |          156186734576

 2017-02-05 13:47:38.838944+01 | 1486298858.83894 | 24/5EE7E940              |          156211079488

 2017-02-05 13:47:39.91789+01 | 1486298859.91789 | 24/602A5778              |          156232210296

 2017-02-05 13:47:41.00937+01 | 1486298861.00937 | 24/620C2508              |          156263785736

 2017-02-05 13:47:42.097324+01 | 1486298862.09732 | 24/64194FD0              |          156298203088

 2017-02-05 13:47:43.177462+01 | 1486298863.17746 | 24/66279D40              |          156332694848

 2017-02-05 13:47:44.262752+01 | 1486298864.26275 | 24/67E7B048              |          156362059848

 2017-02-05 13:47:45.343374+01 | 1486298865.34337 | 24/69D1EBB8              |          156394187704

 2017-02-05 13:47:46.425039+01 | 1486298866.42504 | 24/6BF039D8              |          156429728216

 2017-02-05 13:47:47.504486+01 | 1486298867.50449 | 24/6DC79FA0              |          156460621728

 2017-02-05 13:47:48.586213+01 | 1486298868.58621 | 24/6FE64EC8              |          156496187080

 2017-02-05 13:47:49.670695+01 | 1486298869.6707 | 24/71F9F210              |          156531028496

 2017-02-05 13:47:50.751825+01 | 1486298870.75183 | 24/73FD8F28              |          156564819752

 2017-02-05 13:47:51.832391+01 | 1486298871.83239 | 24/75F43B30              |          156597762864

 2017-02-05 13:47:52.917269+01 | 1486298872.91727 | 24/77BD7438              |          156627727416

 2017-02-05 13:47:53.997349+01 | 1486298873.99735 | 24/79B47128              |          156660691240

 2017-02-05 13:47:55.075612+01 | 1486298875.07561 | 24/7BBCF010              |          156694802448

 2017-02-05 13:47:56.159332+01 | 1486298876.15933 | 24/7DB32718              |          156727715608

 2017-02-05 13:47:57.243733+01 | 1486298877.24373 | 24/7F85E410              |          156758303760

 2017-02-05 13:47:58.324642+01 | 1486298878.32464 | 24/816D5918              |          156790249752

 2017-02-05 13:47:59.414054+01 | 1486298879.41405 | 24/832C72D8              |          156819550936

 2017-02-05 13:48:00.502439+01 | 1486298880.50244 | 24/851CFFD0              |          156852092880

 2017-02-05 13:48:01.582089+01 | 1486298881.58209 | 24/871B0300              |          156885517056

 2017-02-05 13:48:02.66269+01 | 1486298882.66269 | 24/8905B570              |          156917675376

 2017-02-05 13:48:03.74025+01 | 1486298883.74025 | 24/8AD129A0              |          156947786144

 2017-02-05 13:48:04.822802+01 | 1486298884.8228 | 24/8CB08A20              |          156979202592

 2017-02-05 13:48:05.905893+01 | 1486298885.90589 | 24/8E83D278              |          157009826424

 2017-02-05 13:48:06.998988+01 | 1486298886.99899 | 24/901D9E00              |          157036682752

 2017-02-05 13:48:08.083014+01 | 1486298888.08301 | 24/91CC1348              |          157064893256

 2017-02-05 13:48:09.159384+01 | 1486298889.15938 | 24/937A5E30              |          157093092912

 2017-02-05 13:48:10.235987+01 | 1486298890.23599 | 24/95126C50              |          157119835216

 2017-02-05 13:48:11.317034+01 | 1486298891.31703 | 24/96D240D0              |          157149184208

 2017-02-05 13:48:12.398732+01 | 1486298892.39873 | 24/9884DA20              |          157177666080

 2017-02-05 13:48:13.481857+01 | 1486298893.48186 | 24/9A3AB3C0              |          157206361024

 2017-02-05 13:48:14.560889+01 | 1486298894.56089 | 24/9BE294B0              |          157234140336

 2017-02-05 13:48:15.640745+01 | 1486298895.64074 | 24/9D9A5990              |          157262961040

 2017-02-05 13:48:16.72097+01 | 1486298896.72097 | 24/9F1CC3D0              |          157288285136

 2017-02-05 13:48:17.799577+01 | 1486298897.79958 | 24/A0BD2C48              |          157315574856

 2017-02-05 13:48:18.887017+01 | 1486298898.88702 | 24/A25A9F20              |          157342670624

 2017-02-05 13:48:19.969178+01 | 1486298899.96918 | 24/A3FAE278              |          157369950840

 2017-02-05 13:48:21.048664+01 | 1486298901.04866 | 24/A5643640              |          157393630784

 2017-02-05 13:48:22.132924+01 | 1486298902.13292 | 24/A705CC40              |          157420997696

 2017-02-05 13:48:23.21445+01 | 1486298903.21445 | 24/A8925680              |          157446985344

 2017-02-05 13:48:24.294464+01 | 1486298904.29446 | 24/AA07B348              |          157471454024

 2017-02-05 13:48:25.366606+01 | 1486298905.36661 | 24/AB8205E8              |          157496247784

 2017-02-05 13:48:26.449058+01 | 1486298906.44906 | 24/ACDFFC18              |          157519182872

 2017-02-05 13:48:27.531307+01 | 1486298907.53131 | 24/AE3C6278              |          157542015608

 2017-02-05 13:48:28.603008+01 | 1486298908.60301 | 24/B00C93C0              |          157572436928

 2017-02-05 13:48:29.681292+01 | 1486298909.68129 | 24/B24E6420              |          157610304544

 2017-02-05 13:48:30.755019+01 | 1486298910.75502 | 24/B5A9AF28              |          157666619176

 2017-02-05 13:48:31.838564+01 | 1486298911.83856 | 24/BA4B39B0              |          157744314800

 2017-02-05 13:48:32.928069+01 | 1486298912.92807 | 24/C0FF5E70              |          157856783984

 2017-02-05 13:48:34.004929+01 | 1486298914.00493 | 24/C82CE000              |          157977206784

 2017-02-05 13:48:35.090511+01 | 1486298915.09051 | 24/CA4788D8              |          158012508376

 2017-02-05 13:48:36.169562+01 | 1486298916.16956 | 24/CBDE9698              |          158039185048

 2017-02-05 13:48:37.244103+01 | 1486298917.2441 | 24/CD6FBE60              |          158065475168

 2017-02-05 13:48:38.327456+01 | 1486298918.32746 | 24/CEF90F68              |          158091251560

 2017-02-05 13:48:39.414655+01 | 1486298919.41465 | 24/D09ADF88              |          158118633352

 2017-02-05 13:48:40.494242+01 | 1486298920.49424 | 24/D2369D58              |          158145617240

 2017-02-05 13:48:41.567184+01 | 1486298921.56718 | 24/D3C096A8              |          158171436712

 2017-02-05 13:48:42.641077+01 | 1486298922.64108 | 24/D52B6258              |          158195212888

 2017-02-05 13:48:43.72003+01 | 1486298923.72003 | 24/D6BF9528              |          158221702440

 2017-02-05 13:48:44.796541+01 | 1486298924.79654 | 24/D87A6218              |          158250721816

 2017-02-05 13:48:45.872312+01 | 1486298925.87231 | 24/DA6589E8              |          158282910184

 2017-02-05 13:48:46.949733+01 | 1486298926.94973 | 24/DC285478              |          158312453240

 2017-02-05 13:48:48.029233+01 | 1486298928.02923 | 24/DE2E3978              |          158346393976

 2017-02-05 13:48:49.107734+01 | 1486298929.10773 | 24/E027D8A0              |          158379530400

 2017-02-05 13:48:50.189166+01 | 1486298930.18917 | 24/E2393138              |          158414221624

 2017-02-05 13:48:51.265583+01 | 1486298931.26558 | 24/E3FCF940              |          158443829568

 2017-02-05 13:48:52.353086+01 | 1486298932.35309 | 24/E5A74B30              |          158471768880

 2017-02-05 13:48:53.436071+01 | 1486298933.43607 | 24/E7416798              |          158498645912

 2017-02-05 13:48:54.527127+01 | 1486298934.52713 | 24/E8CAD9B8              |          158524430776

 2017-02-05 13:48:55.610152+01 | 1486298935.61015 | 24/E9FC4420              |          158544446496

 2017-02-05 13:48:56.688416+01 | 1486298936.68842 | 24/EBB77198              |          158573490584

