 2017-02-05 10:06:00.176015+01 | 1486285560.17601 | pgbench_branches_pkey |            16384
 2017-02-05 10:06:00.176015+01 | 1486285560.17601 | pgbench_tellers_pkey  |            40960
 2017-02-05 10:06:00.176015+01 | 1486285560.17601 | pgbench_accounts_pkey |        224641024

 2017-02-05 10:06:01.262407+01 | 1486285561.26241 | pgbench_branches_pkey |            16384
 2017-02-05 10:06:01.262407+01 | 1486285561.26241 | pgbench_tellers_pkey  |            40960
 2017-02-05 10:06:01.262407+01 | 1486285561.26241 | pgbench_accounts_pkey |        224641024

 2017-02-05 10:06:02.340818+01 | 1486285562.34082 | pgbench_branches_pkey |            16384
 2017-02-05 10:06:02.340818+01 | 1486285562.34082 | pgbench_tellers_pkey  |            40960
 2017-02-05 10:06:02.340818+01 | 1486285562.34082 | pgbench_accounts_pkey |        224641024

 2017-02-05 10:06:03.424934+01 | 1486285563.42493 | pgbench_branches_pkey |            16384
 2017-02-05 10:06:03.424934+01 | 1486285563.42493 | pgbench_tellers_pkey  |            40960
 2017-02-05 10:06:03.424934+01 | 1486285563.42493 | pgbench_accounts_pkey |        224641024

 2017-02-05 10:06:04.506696+01 | 1486285564.5067 | pgbench_branches_pkey |            16384
 2017-02-05 10:06:04.506696+01 | 1486285564.5067 | pgbench_tellers_pkey  |            40960
 2017-02-05 10:06:04.506696+01 | 1486285564.5067 | pgbench_accounts_pkey |        224641024

 2017-02-05 10:06:05.595953+01 | 1486285565.59595 | pgbench_branches_pkey |            16384
 2017-02-05 10:06:05.595953+01 | 1486285565.59595 | pgbench_tellers_pkey  |            40960
 2017-02-05 10:06:05.595953+01 | 1486285565.59595 | pgbench_accounts_pkey |        224641024

 2017-02-05 10:06:06.675111+01 | 1486285566.67511 | pgbench_branches_pkey |            16384
 2017-02-05 10:06:06.675111+01 | 1486285566.67511 | pgbench_tellers_pkey  |            40960
 2017-02-05 10:06:06.675111+01 | 1486285566.67511 | pgbench_accounts_pkey |        224641024

 2017-02-05 10:06:07.755403+01 | 1486285567.7554 | pgbench_branches_pkey |            16384
 2017-02-05 10:06:07.755403+01 | 1486285567.7554 | pgbench_tellers_pkey  |            40960
 2017-02-05 10:06:07.755403+01 | 1486285567.7554 | pgbench_accounts_pkey |        224641024

 2017-02-05 10:06:08.839171+01 | 1486285568.83917 | pgbench_branches_pkey |            16384
 2017-02-05 10:06:08.839171+01 | 1486285568.83917 | pgbench_tellers_pkey  |            40960
 2017-02-05 10:06:08.839171+01 | 1486285568.83917 | pgbench_accounts_pkey |        224641024

 2017-02-05 10:06:09.931463+01 | 1486285569.93146 | pgbench_branches_pkey |            16384
 2017-02-05 10:06:09.931463+01 | 1486285569.93146 | pgbench_tellers_pkey  |            40960
 2017-02-05 10:06:09.931463+01 | 1486285569.93146 | pgbench_accounts_pkey |        224641024

 2017-02-05 10:06:11.021762+01 | 1486285571.02176 | pgbench_branches_pkey |            16384
 2017-02-05 10:06:11.021762+01 | 1486285571.02176 | pgbench_tellers_pkey  |            40960
 2017-02-05 10:06:11.021762+01 | 1486285571.02176 | pgbench_accounts_pkey |        224641024

 2017-02-05 10:06:12.101291+01 | 1486285572.10129 | pgbench_branches_pkey |            16384
 2017-02-05 10:06:12.101291+01 | 1486285572.10129 | pgbench_tellers_pkey  |            40960
 2017-02-05 10:06:12.101291+01 | 1486285572.10129 | pgbench_accounts_pkey |        224641024

 2017-02-05 10:06:13.189973+01 | 1486285573.18997 | pgbench_branches_pkey |            16384
 2017-02-05 10:06:13.189973+01 | 1486285573.18997 | pgbench_tellers_pkey  |            40960
 2017-02-05 10:06:13.189973+01 | 1486285573.18997 | pgbench_accounts_pkey |        224641024

 2017-02-05 10:06:14.262558+01 | 1486285574.26256 | pgbench_branches_pkey |            16384
 2017-02-05 10:06:14.262558+01 | 1486285574.26256 | pgbench_tellers_pkey  |            40960
 2017-02-05 10:06:14.262558+01 | 1486285574.26256 | pgbench_accounts_pkey |        224641024

 2017-02-05 10:06:15.351096+01 | 1486285575.3511 | pgbench_branches_pkey |            16384
 2017-02-05 10:06:15.351096+01 | 1486285575.3511 | pgbench_tellers_pkey  |            40960
 2017-02-05 10:06:15.351096+01 | 1486285575.3511 | pgbench_accounts_pkey |        224641024

 2017-02-05 10:06:16.435579+01 | 1486285576.43558 | pgbench_branches_pkey |            16384
 2017-02-05 10:06:16.435579+01 | 1486285576.43558 | pgbench_tellers_pkey  |            40960
 2017-02-05 10:06:16.435579+01 | 1486285576.43558 | pgbench_accounts_pkey |        224641024

 2017-02-05 10:06:17.51935+01 | 1486285577.51935 | pgbench_branches_pkey |            16384
 2017-02-05 10:06:17.51935+01 | 1486285577.51935 | pgbench_tellers_pkey  |            40960
 2017-02-05 10:06:17.51935+01 | 1486285577.51935 | pgbench_accounts_pkey |        224641024

 2017-02-05 10:06:18.602375+01 | 1486285578.60238 | pgbench_branches_pkey |            16384
 2017-02-05 10:06:18.602375+01 | 1486285578.60238 | pgbench_tellers_pkey  |            40960
 2017-02-05 10:06:18.602375+01 | 1486285578.60238 | pgbench_accounts_pkey |        224641024

 2017-02-05 10:06:19.686808+01 | 1486285579.68681 | pgbench_branches_pkey |            16384
 2017-02-05 10:06:19.686808+01 | 1486285579.68681 | pgbench_tellers_pkey  |            40960
 2017-02-05 10:06:19.686808+01 | 1486285579.68681 | pgbench_accounts_pkey |        224641024

 2017-02-05 10:06:20.769946+01 | 1486285580.76995 | pgbench_branches_pkey |            16384
 2017-02-05 10:06:20.769946+01 | 1486285580.76995 | pgbench_tellers_pkey  |            40960
 2017-02-05 10:06:20.769946+01 | 1486285580.76995 | pgbench_accounts_pkey |        224641024

 2017-02-05 10:06:21.857297+01 | 1486285581.8573 | pgbench_branches_pkey |            16384
 2017-02-05 10:06:21.857297+01 | 1486285581.8573 | pgbench_tellers_pkey  |            40960
 2017-02-05 10:06:21.857297+01 | 1486285581.8573 | pgbench_accounts_pkey |        224641024

 2017-02-05 10:06:22.939317+01 | 1486285582.93932 | pgbench_branches_pkey |            16384
 2017-02-05 10:06:22.939317+01 | 1486285582.93932 | pgbench_tellers_pkey  |            40960
 2017-02-05 10:06:22.939317+01 | 1486285582.93932 | pgbench_accounts_pkey |        224641024

 2017-02-05 10:06:24.018941+01 | 1486285584.01894 | pgbench_branches_pkey |            16384
 2017-02-05 10:06:24.018941+01 | 1486285584.01894 | pgbench_tellers_pkey  |            40960
 2017-02-05 10:06:24.018941+01 | 1486285584.01894 | pgbench_accounts_pkey |        224641024

 2017-02-05 10:06:25.106042+01 | 1486285585.10604 | pgbench_branches_pkey |            16384
 2017-02-05 10:06:25.106042+01 | 1486285585.10604 | pgbench_tellers_pkey  |            40960
 2017-02-05 10:06:25.106042+01 | 1486285585.10604 | pgbench_accounts_pkey |        224641024

 2017-02-05 10:06:26.1818+01 | 1486285586.1818 | pgbench_branches_pkey |            16384
 2017-02-05 10:06:26.1818+01 | 1486285586.1818 | pgbench_tellers_pkey  |            40960
 2017-02-05 10:06:26.1818+01 | 1486285586.1818 | pgbench_accounts_pkey |        224641024

 2017-02-05 10:06:27.258067+01 | 1486285587.25807 | pgbench_branches_pkey |            16384
 2017-02-05 10:06:27.258067+01 | 1486285587.25807 | pgbench_tellers_pkey  |            40960
 2017-02-05 10:06:27.258067+01 | 1486285587.25807 | pgbench_accounts_pkey |        224641024

 2017-02-05 10:06:28.336604+01 | 1486285588.3366 | pgbench_branches_pkey |            16384
 2017-02-05 10:06:28.336604+01 | 1486285588.3366 | pgbench_tellers_pkey  |            40960
 2017-02-05 10:06:28.336604+01 | 1486285588.3366 | pgbench_accounts_pkey |        224641024

 2017-02-05 10:06:29.420936+01 | 1486285589.42094 | pgbench_branches_pkey |            16384
 2017-02-05 10:06:29.420936+01 | 1486285589.42094 | pgbench_tellers_pkey  |            40960
 2017-02-05 10:06:29.420936+01 | 1486285589.42094 | pgbench_accounts_pkey |        224641024

 2017-02-05 10:06:30.51034+01 | 1486285590.51034 | pgbench_branches_pkey |            16384
 2017-02-05 10:06:30.51034+01 | 1486285590.51034 | pgbench_tellers_pkey  |            40960
 2017-02-05 10:06:30.51034+01 | 1486285590.51034 | pgbench_accounts_pkey |        224641024

 2017-02-05 10:06:31.596778+01 | 1486285591.59678 | pgbench_branches_pkey |            16384
 2017-02-05 10:06:31.596778+01 | 1486285591.59678 | pgbench_tellers_pkey  |            40960
 2017-02-05 10:06:31.596778+01 | 1486285591.59678 | pgbench_accounts_pkey |        224641024

 2017-02-05 10:06:32.68222+01 | 1486285592.68222 | pgbench_branches_pkey |            16384
 2017-02-05 10:06:32.68222+01 | 1486285592.68222 | pgbench_tellers_pkey  |            40960
 2017-02-05 10:06:32.68222+01 | 1486285592.68222 | pgbench_accounts_pkey |        224641024

 2017-02-05 10:06:33.764395+01 | 1486285593.76439 | pgbench_branches_pkey |            16384
 2017-02-05 10:06:33.764395+01 | 1486285593.76439 | pgbench_tellers_pkey  |            40960
 2017-02-05 10:06:33.764395+01 | 1486285593.76439 | pgbench_accounts_pkey |        224641024

 2017-02-05 10:06:34.840776+01 | 1486285594.84078 | pgbench_branches_pkey |            16384
 2017-02-05 10:06:34.840776+01 | 1486285594.84078 | pgbench_tellers_pkey  |            40960
 2017-02-05 10:06:34.840776+01 | 1486285594.84078 | pgbench_accounts_pkey |        224641024

 2017-02-05 10:06:35.920713+01 | 1486285595.92071 | pgbench_branches_pkey |            16384
 2017-02-05 10:06:35.920713+01 | 1486285595.92071 | pgbench_tellers_pkey  |            40960
 2017-02-05 10:06:35.920713+01 | 1486285595.92071 | pgbench_accounts_pkey |        224641024

 2017-02-05 10:06:37.009768+01 | 1486285597.00977 | pgbench_branches_pkey |            16384
 2017-02-05 10:06:37.009768+01 | 1486285597.00977 | pgbench_tellers_pkey  |            40960
 2017-02-05 10:06:37.009768+01 | 1486285597.00977 | pgbench_accounts_pkey |        224641024

 2017-02-05 10:06:38.089774+01 | 1486285598.08977 | pgbench_branches_pkey |            16384
 2017-02-05 10:06:38.089774+01 | 1486285598.08977 | pgbench_tellers_pkey  |            40960
 2017-02-05 10:06:38.089774+01 | 1486285598.08977 | pgbench_accounts_pkey |        224641024

 2017-02-05 10:06:39.16317+01 | 1486285599.16317 | pgbench_branches_pkey |            16384
 2017-02-05 10:06:39.16317+01 | 1486285599.16317 | pgbench_tellers_pkey  |            40960
 2017-02-05 10:06:39.16317+01 | 1486285599.16317 | pgbench_accounts_pkey |        224641024

 2017-02-05 10:06:40.247969+01 | 1486285600.24797 | pgbench_branches_pkey |            16384
 2017-02-05 10:06:40.247969+01 | 1486285600.24797 | pgbench_tellers_pkey  |            40960
 2017-02-05 10:06:40.247969+01 | 1486285600.24797 | pgbench_accounts_pkey |        224641024

 2017-02-05 10:06:41.327034+01 | 1486285601.32703 | pgbench_branches_pkey |            16384
 2017-02-05 10:06:41.327034+01 | 1486285601.32703 | pgbench_tellers_pkey  |            40960
 2017-02-05 10:06:41.327034+01 | 1486285601.32703 | pgbench_accounts_pkey |        224641024

 2017-02-05 10:06:42.406026+01 | 1486285602.40603 | pgbench_branches_pkey |            16384
 2017-02-05 10:06:42.406026+01 | 1486285602.40603 | pgbench_tellers_pkey  |            40960
 2017-02-05 10:06:42.406026+01 | 1486285602.40603 | pgbench_accounts_pkey |        224641024

 2017-02-05 10:06:43.485208+01 | 1486285603.48521 | pgbench_branches_pkey |            16384
 2017-02-05 10:06:43.485208+01 | 1486285603.48521 | pgbench_tellers_pkey  |            40960
 2017-02-05 10:06:43.485208+01 | 1486285603.48521 | pgbench_accounts_pkey |        224641024

 2017-02-05 10:06:44.564472+01 | 1486285604.56447 | pgbench_branches_pkey |            16384
 2017-02-05 10:06:44.564472+01 | 1486285604.56447 | pgbench_tellers_pkey  |            40960
 2017-02-05 10:06:44.564472+01 | 1486285604.56447 | pgbench_accounts_pkey |        224641024

 2017-02-05 10:06:45.645575+01 | 1486285605.64558 | pgbench_branches_pkey |            16384
 2017-02-05 10:06:45.645575+01 | 1486285605.64558 | pgbench_tellers_pkey  |            40960
 2017-02-05 10:06:45.645575+01 | 1486285605.64558 | pgbench_accounts_pkey |        224641024

 2017-02-05 10:06:46.731142+01 | 1486285606.73114 | pgbench_branches_pkey |            16384
 2017-02-05 10:06:46.731142+01 | 1486285606.73114 | pgbench_tellers_pkey  |            40960
 2017-02-05 10:06:46.731142+01 | 1486285606.73114 | pgbench_accounts_pkey |        224641024

 2017-02-05 10:06:47.807139+01 | 1486285607.80714 | pgbench_branches_pkey |            16384
 2017-02-05 10:06:47.807139+01 | 1486285607.80714 | pgbench_tellers_pkey  |            40960
 2017-02-05 10:06:47.807139+01 | 1486285607.80714 | pgbench_accounts_pkey |        224641024

 2017-02-05 10:06:48.900591+01 | 1486285608.90059 | pgbench_branches_pkey |            16384
 2017-02-05 10:06:48.900591+01 | 1486285608.90059 | pgbench_tellers_pkey  |            40960
 2017-02-05 10:06:48.900591+01 | 1486285608.90059 | pgbench_accounts_pkey |        224641024

 2017-02-05 10:06:49.973835+01 | 1486285609.97383 | pgbench_branches_pkey |            16384
 2017-02-05 10:06:49.973835+01 | 1486285609.97383 | pgbench_tellers_pkey  |            40960
 2017-02-05 10:06:49.973835+01 | 1486285609.97383 | pgbench_accounts_pkey |        224641024

 2017-02-05 10:06:51.054141+01 | 1486285611.05414 | pgbench_branches_pkey |            16384
 2017-02-05 10:06:51.054141+01 | 1486285611.05414 | pgbench_tellers_pkey  |            40960
 2017-02-05 10:06:51.054141+01 | 1486285611.05414 | pgbench_accounts_pkey |        224641024

 2017-02-05 10:06:52.135022+01 | 1486285612.13502 | pgbench_branches_pkey |            16384
 2017-02-05 10:06:52.135022+01 | 1486285612.13502 | pgbench_tellers_pkey  |            40960
 2017-02-05 10:06:52.135022+01 | 1486285612.13502 | pgbench_accounts_pkey |        224641024

 2017-02-05 10:06:53.21002+01 | 1486285613.21002 | pgbench_branches_pkey |            16384
 2017-02-05 10:06:53.21002+01 | 1486285613.21002 | pgbench_tellers_pkey  |            40960
 2017-02-05 10:06:53.21002+01 | 1486285613.21002 | pgbench_accounts_pkey |        224641024

 2017-02-05 10:06:54.294423+01 | 1486285614.29442 | pgbench_branches_pkey |            16384
 2017-02-05 10:06:54.294423+01 | 1486285614.29442 | pgbench_tellers_pkey  |            40960
 2017-02-05 10:06:54.294423+01 | 1486285614.29442 | pgbench_accounts_pkey |        224641024

 2017-02-05 10:06:55.371809+01 | 1486285615.37181 | pgbench_branches_pkey |            16384
 2017-02-05 10:06:55.371809+01 | 1486285615.37181 | pgbench_tellers_pkey  |            40960
 2017-02-05 10:06:55.371809+01 | 1486285615.37181 | pgbench_accounts_pkey |        224641024

 2017-02-05 10:06:56.460369+01 | 1486285616.46037 | pgbench_branches_pkey |            16384
 2017-02-05 10:06:56.460369+01 | 1486285616.46037 | pgbench_tellers_pkey  |            40960
 2017-02-05 10:06:56.460369+01 | 1486285616.46037 | pgbench_accounts_pkey |        224641024

 2017-02-05 10:06:57.545877+01 | 1486285617.54588 | pgbench_branches_pkey |            16384
 2017-02-05 10:06:57.545877+01 | 1486285617.54588 | pgbench_tellers_pkey  |            40960
 2017-02-05 10:06:57.545877+01 | 1486285617.54588 | pgbench_accounts_pkey |        224641024

 2017-02-05 10:06:58.62525+01 | 1486285618.62525 | pgbench_branches_pkey |            16384
 2017-02-05 10:06:58.62525+01 | 1486285618.62525 | pgbench_tellers_pkey  |            40960
 2017-02-05 10:06:58.62525+01 | 1486285618.62525 | pgbench_accounts_pkey |        224641024

 2017-02-05 10:06:59.711819+01 | 1486285619.71182 | pgbench_branches_pkey |            16384
 2017-02-05 10:06:59.711819+01 | 1486285619.71182 | pgbench_tellers_pkey  |            40960
 2017-02-05 10:06:59.711819+01 | 1486285619.71182 | pgbench_accounts_pkey |        224641024

 2017-02-05 10:07:00.787371+01 | 1486285620.78737 | pgbench_branches_pkey |            16384
 2017-02-05 10:07:00.787371+01 | 1486285620.78737 | pgbench_tellers_pkey  |            40960
 2017-02-05 10:07:00.787371+01 | 1486285620.78737 | pgbench_accounts_pkey |        224641024

 2017-02-05 10:07:01.862635+01 | 1486285621.86263 | pgbench_branches_pkey |            16384
 2017-02-05 10:07:01.862635+01 | 1486285621.86263 | pgbench_tellers_pkey  |            40960
 2017-02-05 10:07:01.862635+01 | 1486285621.86263 | pgbench_accounts_pkey |        224641024

 2017-02-05 10:07:02.948433+01 | 1486285622.94843 | pgbench_branches_pkey |            16384
 2017-02-05 10:07:02.948433+01 | 1486285622.94843 | pgbench_tellers_pkey  |            40960
 2017-02-05 10:07:02.948433+01 | 1486285622.94843 | pgbench_accounts_pkey |        224641024

 2017-02-05 10:07:04.032486+01 | 1486285624.03249 | pgbench_branches_pkey |            16384
 2017-02-05 10:07:04.032486+01 | 1486285624.03249 | pgbench_tellers_pkey  |            40960
 2017-02-05 10:07:04.032486+01 | 1486285624.03249 | pgbench_accounts_pkey |        224641024

 2017-02-05 10:07:05.107313+01 | 1486285625.10731 | pgbench_branches_pkey |            16384
 2017-02-05 10:07:05.107313+01 | 1486285625.10731 | pgbench_tellers_pkey  |            40960
 2017-02-05 10:07:05.107313+01 | 1486285625.10731 | pgbench_accounts_pkey |        224641024

 2017-02-05 10:07:06.185108+01 | 1486285626.18511 | pgbench_branches_pkey |            16384
 2017-02-05 10:07:06.185108+01 | 1486285626.18511 | pgbench_tellers_pkey  |            40960
 2017-02-05 10:07:06.185108+01 | 1486285626.18511 | pgbench_accounts_pkey |        224641024

 2017-02-05 10:07:07.262797+01 | 1486285627.2628 | pgbench_branches_pkey |            16384
 2017-02-05 10:07:07.262797+01 | 1486285627.2628 | pgbench_tellers_pkey  |            40960
 2017-02-05 10:07:07.262797+01 | 1486285627.2628 | pgbench_accounts_pkey |        224641024

 2017-02-05 10:07:08.338439+01 | 1486285628.33844 | pgbench_branches_pkey |            16384
 2017-02-05 10:07:08.338439+01 | 1486285628.33844 | pgbench_tellers_pkey  |            40960
 2017-02-05 10:07:08.338439+01 | 1486285628.33844 | pgbench_accounts_pkey |        224641024

 2017-02-05 10:07:09.415734+01 | 1486285629.41573 | pgbench_branches_pkey |            16384
 2017-02-05 10:07:09.415734+01 | 1486285629.41573 | pgbench_tellers_pkey  |            40960
 2017-02-05 10:07:09.415734+01 | 1486285629.41573 | pgbench_accounts_pkey |        224641024

 2017-02-05 10:07:10.491308+01 | 1486285630.49131 | pgbench_branches_pkey |            16384
 2017-02-05 10:07:10.491308+01 | 1486285630.49131 | pgbench_tellers_pkey  |            40960
 2017-02-05 10:07:10.491308+01 | 1486285630.49131 | pgbench_accounts_pkey |        224641024

 2017-02-05 10:07:11.576098+01 | 1486285631.5761 | pgbench_branches_pkey |            16384
 2017-02-05 10:07:11.576098+01 | 1486285631.5761 | pgbench_tellers_pkey  |            40960
 2017-02-05 10:07:11.576098+01 | 1486285631.5761 | pgbench_accounts_pkey |        224641024

 2017-02-05 10:07:12.661742+01 | 1486285632.66174 | pgbench_branches_pkey |            16384
 2017-02-05 10:07:12.661742+01 | 1486285632.66174 | pgbench_tellers_pkey  |            40960
 2017-02-05 10:07:12.661742+01 | 1486285632.66174 | pgbench_accounts_pkey |        224641024

 2017-02-05 10:07:13.746673+01 | 1486285633.74667 | pgbench_branches_pkey |            16384
 2017-02-05 10:07:13.746673+01 | 1486285633.74667 | pgbench_tellers_pkey  |            40960
 2017-02-05 10:07:13.746673+01 | 1486285633.74667 | pgbench_accounts_pkey |        224641024

 2017-02-05 10:07:14.826926+01 | 1486285634.82693 | pgbench_branches_pkey |            16384
 2017-02-05 10:07:14.826926+01 | 1486285634.82693 | pgbench_tellers_pkey  |            40960
 2017-02-05 10:07:14.826926+01 | 1486285634.82693 | pgbench_accounts_pkey |        224641024

 2017-02-05 10:07:15.914253+01 | 1486285635.91425 | pgbench_branches_pkey |            16384
 2017-02-05 10:07:15.914253+01 | 1486285635.91425 | pgbench_tellers_pkey  |            40960
 2017-02-05 10:07:15.914253+01 | 1486285635.91425 | pgbench_accounts_pkey |        224641024

 2017-02-05 10:07:17.005646+01 | 1486285637.00565 | pgbench_branches_pkey |            16384
 2017-02-05 10:07:17.005646+01 | 1486285637.00565 | pgbench_tellers_pkey  |            40960
 2017-02-05 10:07:17.005646+01 | 1486285637.00565 | pgbench_accounts_pkey |        224641024

 2017-02-05 10:07:18.097591+01 | 1486285638.09759 | pgbench_branches_pkey |            16384
 2017-02-05 10:07:18.097591+01 | 1486285638.09759 | pgbench_tellers_pkey  |            40960
 2017-02-05 10:07:18.097591+01 | 1486285638.09759 | pgbench_accounts_pkey |        224641024

 2017-02-05 10:07:19.184649+01 | 1486285639.18465 | pgbench_branches_pkey |            16384
 2017-02-05 10:07:19.184649+01 | 1486285639.18465 | pgbench_tellers_pkey  |            40960
 2017-02-05 10:07:19.184649+01 | 1486285639.18465 | pgbench_accounts_pkey |        224641024

 2017-02-05 10:07:20.277954+01 | 1486285640.27795 | pgbench_branches_pkey |            16384
 2017-02-05 10:07:20.277954+01 | 1486285640.27795 | pgbench_tellers_pkey  |            40960
 2017-02-05 10:07:20.277954+01 | 1486285640.27795 | pgbench_accounts_pkey |        224641024

 2017-02-05 10:07:21.3617+01 | 1486285641.3617 | pgbench_branches_pkey |            16384
 2017-02-05 10:07:21.3617+01 | 1486285641.3617 | pgbench_tellers_pkey  |            40960
 2017-02-05 10:07:21.3617+01 | 1486285641.3617 | pgbench_accounts_pkey |        224641024

 2017-02-05 10:07:22.44997+01 | 1486285642.44997 | pgbench_branches_pkey |            16384
 2017-02-05 10:07:22.44997+01 | 1486285642.44997 | pgbench_tellers_pkey  |            40960
 2017-02-05 10:07:22.44997+01 | 1486285642.44997 | pgbench_accounts_pkey |        224641024

 2017-02-05 10:07:23.532233+01 | 1486285643.53223 | pgbench_branches_pkey |            16384
 2017-02-05 10:07:23.532233+01 | 1486285643.53223 | pgbench_tellers_pkey  |            40960
 2017-02-05 10:07:23.532233+01 | 1486285643.53223 | pgbench_accounts_pkey |        224641024

 2017-02-05 10:07:24.616503+01 | 1486285644.6165 | pgbench_branches_pkey |            16384
 2017-02-05 10:07:24.616503+01 | 1486285644.6165 | pgbench_tellers_pkey  |            40960
 2017-02-05 10:07:24.616503+01 | 1486285644.6165 | pgbench_accounts_pkey |        224641024

 2017-02-05 10:07:25.701456+01 | 1486285645.70146 | pgbench_branches_pkey |            16384
 2017-02-05 10:07:25.701456+01 | 1486285645.70146 | pgbench_tellers_pkey  |            40960
 2017-02-05 10:07:25.701456+01 | 1486285645.70146 | pgbench_accounts_pkey |        224641024

 2017-02-05 10:07:26.779666+01 | 1486285646.77967 | pgbench_branches_pkey |            16384
 2017-02-05 10:07:26.779666+01 | 1486285646.77967 | pgbench_tellers_pkey  |            40960
 2017-02-05 10:07:26.779666+01 | 1486285646.77967 | pgbench_accounts_pkey |        224641024

 2017-02-05 10:07:27.866115+01 | 1486285647.86612 | pgbench_branches_pkey |            16384
 2017-02-05 10:07:27.866115+01 | 1486285647.86612 | pgbench_tellers_pkey  |            40960
 2017-02-05 10:07:27.866115+01 | 1486285647.86612 | pgbench_accounts_pkey |        224641024

 2017-02-05 10:07:28.947764+01 | 1486285648.94776 | pgbench_branches_pkey |            16384
 2017-02-05 10:07:28.947764+01 | 1486285648.94776 | pgbench_tellers_pkey  |            40960
 2017-02-05 10:07:28.947764+01 | 1486285648.94776 | pgbench_accounts_pkey |        224641024

 2017-02-05 10:07:30.031727+01 | 1486285650.03173 | pgbench_branches_pkey |            16384
 2017-02-05 10:07:30.031727+01 | 1486285650.03173 | pgbench_tellers_pkey  |            40960
 2017-02-05 10:07:30.031727+01 | 1486285650.03173 | pgbench_accounts_pkey |        224641024

 2017-02-05 10:07:31.11318+01 | 1486285651.11318 | pgbench_branches_pkey |            16384
 2017-02-05 10:07:31.11318+01 | 1486285651.11318 | pgbench_tellers_pkey  |            40960
 2017-02-05 10:07:31.11318+01 | 1486285651.11318 | pgbench_accounts_pkey |        224641024

 2017-02-05 10:07:32.194301+01 | 1486285652.1943 | pgbench_branches_pkey |            16384
 2017-02-05 10:07:32.194301+01 | 1486285652.1943 | pgbench_tellers_pkey  |            40960
 2017-02-05 10:07:32.194301+01 | 1486285652.1943 | pgbench_accounts_pkey |        224641024

 2017-02-05 10:07:33.278542+01 | 1486285653.27854 | pgbench_branches_pkey |            16384
 2017-02-05 10:07:33.278542+01 | 1486285653.27854 | pgbench_tellers_pkey  |            40960
 2017-02-05 10:07:33.278542+01 | 1486285653.27854 | pgbench_accounts_pkey |        224641024

 2017-02-05 10:07:34.366737+01 | 1486285654.36674 | pgbench_branches_pkey |            16384
 2017-02-05 10:07:34.366737+01 | 1486285654.36674 | pgbench_tellers_pkey  |            40960
 2017-02-05 10:07:34.366737+01 | 1486285654.36674 | pgbench_accounts_pkey |        224641024

 2017-02-05 10:07:35.450327+01 | 1486285655.45033 | pgbench_branches_pkey |            16384
 2017-02-05 10:07:35.450327+01 | 1486285655.45033 | pgbench_tellers_pkey  |            40960
 2017-02-05 10:07:35.450327+01 | 1486285655.45033 | pgbench_accounts_pkey |        224641024

 2017-02-05 10:07:36.527877+01 | 1486285656.52788 | pgbench_branches_pkey |            16384
 2017-02-05 10:07:36.527877+01 | 1486285656.52788 | pgbench_tellers_pkey  |            40960
 2017-02-05 10:07:36.527877+01 | 1486285656.52788 | pgbench_accounts_pkey |        224641024

 2017-02-05 10:07:37.602276+01 | 1486285657.60228 | pgbench_branches_pkey |            16384
 2017-02-05 10:07:37.602276+01 | 1486285657.60228 | pgbench_tellers_pkey  |            40960
 2017-02-05 10:07:37.602276+01 | 1486285657.60228 | pgbench_accounts_pkey |        224641024

 2017-02-05 10:07:38.687625+01 | 1486285658.68762 | pgbench_branches_pkey |            16384
 2017-02-05 10:07:38.687625+01 | 1486285658.68762 | pgbench_tellers_pkey  |            40960
 2017-02-05 10:07:38.687625+01 | 1486285658.68762 | pgbench_accounts_pkey |        224641024

 2017-02-05 10:07:39.768398+01 | 1486285659.7684 | pgbench_branches_pkey |            16384
 2017-02-05 10:07:39.768398+01 | 1486285659.7684 | pgbench_tellers_pkey  |            40960
 2017-02-05 10:07:39.768398+01 | 1486285659.7684 | pgbench_accounts_pkey |        224641024

 2017-02-05 10:07:40.852045+01 | 1486285660.85205 | pgbench_branches_pkey |            16384
 2017-02-05 10:07:40.852045+01 | 1486285660.85205 | pgbench_tellers_pkey  |            40960
 2017-02-05 10:07:40.852045+01 | 1486285660.85205 | pgbench_accounts_pkey |        224641024

 2017-02-05 10:07:41.93588+01 | 1486285661.93588 | pgbench_branches_pkey |            16384
 2017-02-05 10:07:41.93588+01 | 1486285661.93588 | pgbench_tellers_pkey  |            40960
 2017-02-05 10:07:41.93588+01 | 1486285661.93588 | pgbench_accounts_pkey |        224641024

 2017-02-05 10:07:43.019298+01 | 1486285663.0193 | pgbench_branches_pkey |            16384
 2017-02-05 10:07:43.019298+01 | 1486285663.0193 | pgbench_tellers_pkey  |            40960
 2017-02-05 10:07:43.019298+01 | 1486285663.0193 | pgbench_accounts_pkey |        224641024

 2017-02-05 10:07:44.103447+01 | 1486285664.10345 | pgbench_branches_pkey |            16384
 2017-02-05 10:07:44.103447+01 | 1486285664.10345 | pgbench_tellers_pkey  |            40960
 2017-02-05 10:07:44.103447+01 | 1486285664.10345 | pgbench_accounts_pkey |        224641024

 2017-02-05 10:07:45.194852+01 | 1486285665.19485 | pgbench_branches_pkey |            16384
 2017-02-05 10:07:45.194852+01 | 1486285665.19485 | pgbench_tellers_pkey  |            40960
 2017-02-05 10:07:45.194852+01 | 1486285665.19485 | pgbench_accounts_pkey |        224641024

 2017-02-05 10:07:46.285853+01 | 1486285666.28585 | pgbench_branches_pkey |            16384
 2017-02-05 10:07:46.285853+01 | 1486285666.28585 | pgbench_tellers_pkey  |            40960
 2017-02-05 10:07:46.285853+01 | 1486285666.28585 | pgbench_accounts_pkey |        224641024

 2017-02-05 10:07:47.36703+01 | 1486285667.36703 | pgbench_branches_pkey |            16384
 2017-02-05 10:07:47.36703+01 | 1486285667.36703 | pgbench_tellers_pkey  |            40960
 2017-02-05 10:07:47.36703+01 | 1486285667.36703 | pgbench_accounts_pkey |        224641024

 2017-02-05 10:07:48.451944+01 | 1486285668.45194 | pgbench_branches_pkey |            16384
 2017-02-05 10:07:48.451944+01 | 1486285668.45194 | pgbench_tellers_pkey  |            40960
 2017-02-05 10:07:48.451944+01 | 1486285668.45194 | pgbench_accounts_pkey |        224641024

 2017-02-05 10:07:49.540856+01 | 1486285669.54086 | pgbench_branches_pkey |            16384
 2017-02-05 10:07:49.540856+01 | 1486285669.54086 | pgbench_tellers_pkey  |            40960
 2017-02-05 10:07:49.540856+01 | 1486285669.54086 | pgbench_accounts_pkey |        224641024

 2017-02-05 10:07:50.617861+01 | 1486285670.61786 | pgbench_branches_pkey |            16384
 2017-02-05 10:07:50.617861+01 | 1486285670.61786 | pgbench_tellers_pkey  |            40960
 2017-02-05 10:07:50.617861+01 | 1486285670.61786 | pgbench_accounts_pkey |        224641024

 2017-02-05 10:07:51.710499+01 | 1486285671.7105 | pgbench_branches_pkey |            16384
 2017-02-05 10:07:51.710499+01 | 1486285671.7105 | pgbench_tellers_pkey  |            40960
 2017-02-05 10:07:51.710499+01 | 1486285671.7105 | pgbench_accounts_pkey |        224641024

 2017-02-05 10:07:52.781792+01 | 1486285672.78179 | pgbench_branches_pkey |            16384
 2017-02-05 10:07:52.781792+01 | 1486285672.78179 | pgbench_tellers_pkey  |            40960
 2017-02-05 10:07:52.781792+01 | 1486285672.78179 | pgbench_accounts_pkey |        224641024

 2017-02-05 10:07:53.86212+01 | 1486285673.86212 | pgbench_branches_pkey |            16384
 2017-02-05 10:07:53.86212+01 | 1486285673.86212 | pgbench_tellers_pkey  |            40960
 2017-02-05 10:07:53.86212+01 | 1486285673.86212 | pgbench_accounts_pkey |        224641024

 2017-02-05 10:07:54.952656+01 | 1486285674.95266 | pgbench_branches_pkey |            16384
 2017-02-05 10:07:54.952656+01 | 1486285674.95266 | pgbench_tellers_pkey  |            40960
 2017-02-05 10:07:54.952656+01 | 1486285674.95266 | pgbench_accounts_pkey |        224641024

 2017-02-05 10:07:56.033027+01 | 1486285676.03303 | pgbench_branches_pkey |            16384
 2017-02-05 10:07:56.033027+01 | 1486285676.03303 | pgbench_tellers_pkey  |            40960
 2017-02-05 10:07:56.033027+01 | 1486285676.03303 | pgbench_accounts_pkey |        224641024

 2017-02-05 10:07:57.121856+01 | 1486285677.12186 | pgbench_branches_pkey |            16384
 2017-02-05 10:07:57.121856+01 | 1486285677.12186 | pgbench_tellers_pkey  |            40960
 2017-02-05 10:07:57.121856+01 | 1486285677.12186 | pgbench_accounts_pkey |        224641024

 2017-02-05 10:07:58.21283+01 | 1486285678.21283 | pgbench_branches_pkey |            16384
 2017-02-05 10:07:58.21283+01 | 1486285678.21283 | pgbench_tellers_pkey  |            40960
 2017-02-05 10:07:58.21283+01 | 1486285678.21283 | pgbench_accounts_pkey |        224641024

 2017-02-05 10:07:59.294382+01 | 1486285679.29438 | pgbench_branches_pkey |            16384
 2017-02-05 10:07:59.294382+01 | 1486285679.29438 | pgbench_tellers_pkey  |            40960
 2017-02-05 10:07:59.294382+01 | 1486285679.29438 | pgbench_accounts_pkey |        224641024

 2017-02-05 10:08:00.364597+01 | 1486285680.3646 | pgbench_branches_pkey |            16384
 2017-02-05 10:08:00.364597+01 | 1486285680.3646 | pgbench_tellers_pkey  |            40960
 2017-02-05 10:08:00.364597+01 | 1486285680.3646 | pgbench_accounts_pkey |        224641024

 2017-02-05 10:08:01.447867+01 | 1486285681.44787 | pgbench_branches_pkey |            16384
 2017-02-05 10:08:01.447867+01 | 1486285681.44787 | pgbench_tellers_pkey  |            40960
 2017-02-05 10:08:01.447867+01 | 1486285681.44787 | pgbench_accounts_pkey |        224641024

 2017-02-05 10:08:02.522878+01 | 1486285682.52288 | pgbench_branches_pkey |            16384
 2017-02-05 10:08:02.522878+01 | 1486285682.52288 | pgbench_tellers_pkey  |            40960
 2017-02-05 10:08:02.522878+01 | 1486285682.52288 | pgbench_accounts_pkey |        224641024

 2017-02-05 10:08:03.597939+01 | 1486285683.59794 | pgbench_branches_pkey |            16384
 2017-02-05 10:08:03.597939+01 | 1486285683.59794 | pgbench_tellers_pkey  |            40960
 2017-02-05 10:08:03.597939+01 | 1486285683.59794 | pgbench_accounts_pkey |        224641024

 2017-02-05 10:08:04.687408+01 | 1486285684.68741 | pgbench_branches_pkey |            16384
 2017-02-05 10:08:04.687408+01 | 1486285684.68741 | pgbench_tellers_pkey  |            40960
 2017-02-05 10:08:04.687408+01 | 1486285684.68741 | pgbench_accounts_pkey |        224641024

 2017-02-05 10:08:05.778158+01 | 1486285685.77816 | pgbench_branches_pkey |            16384
 2017-02-05 10:08:05.778158+01 | 1486285685.77816 | pgbench_tellers_pkey  |            40960
 2017-02-05 10:08:05.778158+01 | 1486285685.77816 | pgbench_accounts_pkey |        224641024

 2017-02-05 10:08:06.85766+01 | 1486285686.85766 | pgbench_branches_pkey |            16384
 2017-02-05 10:08:06.85766+01 | 1486285686.85766 | pgbench_tellers_pkey  |            40960
 2017-02-05 10:08:06.85766+01 | 1486285686.85766 | pgbench_accounts_pkey |        224641024

 2017-02-05 10:08:07.939874+01 | 1486285687.93987 | pgbench_branches_pkey |            16384
 2017-02-05 10:08:07.939874+01 | 1486285687.93987 | pgbench_tellers_pkey  |            40960
 2017-02-05 10:08:07.939874+01 | 1486285687.93987 | pgbench_accounts_pkey |        224641024

 2017-02-05 10:08:09.017622+01 | 1486285689.01762 | pgbench_branches_pkey |            16384
 2017-02-05 10:08:09.017622+01 | 1486285689.01762 | pgbench_tellers_pkey  |            40960
 2017-02-05 10:08:09.017622+01 | 1486285689.01762 | pgbench_accounts_pkey |        224641024

 2017-02-05 10:08:10.097334+01 | 1486285690.09733 | pgbench_branches_pkey |            16384
 2017-02-05 10:08:10.097334+01 | 1486285690.09733 | pgbench_tellers_pkey  |            40960
 2017-02-05 10:08:10.097334+01 | 1486285690.09733 | pgbench_accounts_pkey |        224641024

 2017-02-05 10:08:11.186165+01 | 1486285691.18617 | pgbench_branches_pkey |            16384
 2017-02-05 10:08:11.186165+01 | 1486285691.18617 | pgbench_tellers_pkey  |            40960
 2017-02-05 10:08:11.186165+01 | 1486285691.18617 | pgbench_accounts_pkey |        224641024

 2017-02-05 10:08:12.277294+01 | 1486285692.27729 | pgbench_branches_pkey |            16384
 2017-02-05 10:08:12.277294+01 | 1486285692.27729 | pgbench_tellers_pkey  |            40960
 2017-02-05 10:08:12.277294+01 | 1486285692.27729 | pgbench_accounts_pkey |        224641024

 2017-02-05 10:08:13.360302+01 | 1486285693.3603 | pgbench_branches_pkey |            16384
 2017-02-05 10:08:13.360302+01 | 1486285693.3603 | pgbench_tellers_pkey  |            40960
 2017-02-05 10:08:13.360302+01 | 1486285693.3603 | pgbench_accounts_pkey |        224641024

 2017-02-05 10:08:14.438535+01 | 1486285694.43853 | pgbench_branches_pkey |            16384
 2017-02-05 10:08:14.438535+01 | 1486285694.43853 | pgbench_tellers_pkey  |            40960
 2017-02-05 10:08:14.438535+01 | 1486285694.43853 | pgbench_accounts_pkey |        224641024

 2017-02-05 10:08:15.514667+01 | 1486285695.51467 | pgbench_branches_pkey |            16384
 2017-02-05 10:08:15.514667+01 | 1486285695.51467 | pgbench_tellers_pkey  |            40960
 2017-02-05 10:08:15.514667+01 | 1486285695.51467 | pgbench_accounts_pkey |        224641024

 2017-02-05 10:08:16.598442+01 | 1486285696.59844 | pgbench_branches_pkey |            16384
 2017-02-05 10:08:16.598442+01 | 1486285696.59844 | pgbench_tellers_pkey  |            40960
 2017-02-05 10:08:16.598442+01 | 1486285696.59844 | pgbench_accounts_pkey |        224641024

 2017-02-05 10:08:17.688517+01 | 1486285697.68852 | pgbench_branches_pkey |            16384
 2017-02-05 10:08:17.688517+01 | 1486285697.68852 | pgbench_tellers_pkey  |            40960
 2017-02-05 10:08:17.688517+01 | 1486285697.68852 | pgbench_accounts_pkey |        224641024

 2017-02-05 10:08:18.773944+01 | 1486285698.77394 | pgbench_branches_pkey |            16384
 2017-02-05 10:08:18.773944+01 | 1486285698.77394 | pgbench_tellers_pkey  |            40960
 2017-02-05 10:08:18.773944+01 | 1486285698.77394 | pgbench_accounts_pkey |        224641024

 2017-02-05 10:08:19.858178+01 | 1486285699.85818 | pgbench_branches_pkey |            16384
 2017-02-05 10:08:19.858178+01 | 1486285699.85818 | pgbench_tellers_pkey  |            40960
 2017-02-05 10:08:19.858178+01 | 1486285699.85818 | pgbench_accounts_pkey |        224641024

 2017-02-05 10:08:20.945098+01 | 1486285700.9451 | pgbench_branches_pkey |            16384
 2017-02-05 10:08:20.945098+01 | 1486285700.9451 | pgbench_tellers_pkey  |            40960
 2017-02-05 10:08:20.945098+01 | 1486285700.9451 | pgbench_accounts_pkey |        224641024

 2017-02-05 10:08:22.02889+01 | 1486285702.02889 | pgbench_branches_pkey |            16384
 2017-02-05 10:08:22.02889+01 | 1486285702.02889 | pgbench_tellers_pkey  |            40960
 2017-02-05 10:08:22.02889+01 | 1486285702.02889 | pgbench_accounts_pkey |        224641024

 2017-02-05 10:08:23.105756+01 | 1486285703.10576 | pgbench_branches_pkey |            16384
 2017-02-05 10:08:23.105756+01 | 1486285703.10576 | pgbench_tellers_pkey  |            40960
 2017-02-05 10:08:23.105756+01 | 1486285703.10576 | pgbench_accounts_pkey |        224641024

 2017-02-05 10:08:24.185181+01 | 1486285704.18518 | pgbench_branches_pkey |            16384
 2017-02-05 10:08:24.185181+01 | 1486285704.18518 | pgbench_tellers_pkey  |            40960
 2017-02-05 10:08:24.185181+01 | 1486285704.18518 | pgbench_accounts_pkey |        224641024

 2017-02-05 10:08:25.268322+01 | 1486285705.26832 | pgbench_branches_pkey |            16384
 2017-02-05 10:08:25.268322+01 | 1486285705.26832 | pgbench_tellers_pkey  |            40960
 2017-02-05 10:08:25.268322+01 | 1486285705.26832 | pgbench_accounts_pkey |        224641024

 2017-02-05 10:08:26.348999+01 | 1486285706.349 | pgbench_branches_pkey |            16384
 2017-02-05 10:08:26.348999+01 | 1486285706.349 | pgbench_tellers_pkey  |            40960
 2017-02-05 10:08:26.348999+01 | 1486285706.349 | pgbench_accounts_pkey |        224641024

 2017-02-05 10:08:27.425611+01 | 1486285707.42561 | pgbench_branches_pkey |            16384
 2017-02-05 10:08:27.425611+01 | 1486285707.42561 | pgbench_tellers_pkey  |            40960
 2017-02-05 10:08:27.425611+01 | 1486285707.42561 | pgbench_accounts_pkey |        224641024

 2017-02-05 10:08:28.508829+01 | 1486285708.50883 | pgbench_branches_pkey |            16384
 2017-02-05 10:08:28.508829+01 | 1486285708.50883 | pgbench_tellers_pkey  |            40960
 2017-02-05 10:08:28.508829+01 | 1486285708.50883 | pgbench_accounts_pkey |        224641024

 2017-02-05 10:08:29.583028+01 | 1486285709.58303 | pgbench_branches_pkey |            16384
 2017-02-05 10:08:29.583028+01 | 1486285709.58303 | pgbench_tellers_pkey  |            40960
 2017-02-05 10:08:29.583028+01 | 1486285709.58303 | pgbench_accounts_pkey |        224641024

 2017-02-05 10:08:30.666863+01 | 1486285710.66686 | pgbench_branches_pkey |            16384
 2017-02-05 10:08:30.666863+01 | 1486285710.66686 | pgbench_tellers_pkey  |            40960
 2017-02-05 10:08:30.666863+01 | 1486285710.66686 | pgbench_accounts_pkey |        224641024

 2017-02-05 10:08:31.749914+01 | 1486285711.74991 | pgbench_branches_pkey |            16384
 2017-02-05 10:08:31.749914+01 | 1486285711.74991 | pgbench_tellers_pkey  |            40960
 2017-02-05 10:08:31.749914+01 | 1486285711.74991 | pgbench_accounts_pkey |        224641024

 2017-02-05 10:08:32.828446+01 | 1486285712.82845 | pgbench_branches_pkey |            16384
 2017-02-05 10:08:32.828446+01 | 1486285712.82845 | pgbench_tellers_pkey  |            40960
 2017-02-05 10:08:32.828446+01 | 1486285712.82845 | pgbench_accounts_pkey |        224641024

 2017-02-05 10:08:33.912848+01 | 1486285713.91285 | pgbench_branches_pkey |            16384
 2017-02-05 10:08:33.912848+01 | 1486285713.91285 | pgbench_tellers_pkey  |            40960
 2017-02-05 10:08:33.912848+01 | 1486285713.91285 | pgbench_accounts_pkey |        224641024

 2017-02-05 10:08:35.00053+01 | 1486285715.00053 | pgbench_branches_pkey |            16384
 2017-02-05 10:08:35.00053+01 | 1486285715.00053 | pgbench_tellers_pkey  |            40960
 2017-02-05 10:08:35.00053+01 | 1486285715.00053 | pgbench_accounts_pkey |        224641024

 2017-02-05 10:08:36.078744+01 | 1486285716.07874 | pgbench_branches_pkey |            16384
 2017-02-05 10:08:36.078744+01 | 1486285716.07874 | pgbench_tellers_pkey  |            40960
 2017-02-05 10:08:36.078744+01 | 1486285716.07874 | pgbench_accounts_pkey |        224641024

 2017-02-05 10:08:37.149984+01 | 1486285717.14998 | pgbench_branches_pkey |            16384
 2017-02-05 10:08:37.149984+01 | 1486285717.14998 | pgbench_tellers_pkey  |            40960
 2017-02-05 10:08:37.149984+01 | 1486285717.14998 | pgbench_accounts_pkey |        224641024

 2017-02-05 10:08:38.234525+01 | 1486285718.23452 | pgbench_branches_pkey |            16384
 2017-02-05 10:08:38.234525+01 | 1486285718.23452 | pgbench_tellers_pkey  |            40960
 2017-02-05 10:08:38.234525+01 | 1486285718.23452 | pgbench_accounts_pkey |        224641024

 2017-02-05 10:08:39.303976+01 | 1486285719.30398 | pgbench_branches_pkey |            16384
 2017-02-05 10:08:39.303976+01 | 1486285719.30398 | pgbench_tellers_pkey  |            40960
 2017-02-05 10:08:39.303976+01 | 1486285719.30398 | pgbench_accounts_pkey |        224641024

 2017-02-05 10:08:40.376984+01 | 1486285720.37698 | pgbench_branches_pkey |            16384
 2017-02-05 10:08:40.376984+01 | 1486285720.37698 | pgbench_tellers_pkey  |            40960
 2017-02-05 10:08:40.376984+01 | 1486285720.37698 | pgbench_accounts_pkey |        224641024

 2017-02-05 10:08:41.461023+01 | 1486285721.46102 | pgbench_branches_pkey |            16384
 2017-02-05 10:08:41.461023+01 | 1486285721.46102 | pgbench_tellers_pkey  |            40960
 2017-02-05 10:08:41.461023+01 | 1486285721.46102 | pgbench_accounts_pkey |        224641024

 2017-02-05 10:08:42.549293+01 | 1486285722.54929 | pgbench_branches_pkey |            16384
 2017-02-05 10:08:42.549293+01 | 1486285722.54929 | pgbench_tellers_pkey  |            40960
 2017-02-05 10:08:42.549293+01 | 1486285722.54929 | pgbench_accounts_pkey |        224641024

 2017-02-05 10:08:43.63359+01 | 1486285723.63359 | pgbench_branches_pkey |            16384
 2017-02-05 10:08:43.63359+01 | 1486285723.63359 | pgbench_tellers_pkey  |            40960
 2017-02-05 10:08:43.63359+01 | 1486285723.63359 | pgbench_accounts_pkey |        224641024

 2017-02-05 10:08:44.71179+01 | 1486285724.71179 | pgbench_branches_pkey |            16384
 2017-02-05 10:08:44.71179+01 | 1486285724.71179 | pgbench_tellers_pkey  |            40960
 2017-02-05 10:08:44.71179+01 | 1486285724.71179 | pgbench_accounts_pkey |        224641024

 2017-02-05 10:08:45.786672+01 | 1486285725.78667 | pgbench_branches_pkey |            16384
 2017-02-05 10:08:45.786672+01 | 1486285725.78667 | pgbench_tellers_pkey  |            40960
 2017-02-05 10:08:45.786672+01 | 1486285725.78667 | pgbench_accounts_pkey |        224641024

 2017-02-05 10:08:46.864937+01 | 1486285726.86494 | pgbench_branches_pkey |            16384
 2017-02-05 10:08:46.864937+01 | 1486285726.86494 | pgbench_tellers_pkey  |            40960
 2017-02-05 10:08:46.864937+01 | 1486285726.86494 | pgbench_accounts_pkey |        224641024

 2017-02-05 10:08:47.940879+01 | 1486285727.94088 | pgbench_branches_pkey |            16384
 2017-02-05 10:08:47.940879+01 | 1486285727.94088 | pgbench_tellers_pkey  |            40960
 2017-02-05 10:08:47.940879+01 | 1486285727.94088 | pgbench_accounts_pkey |        224641024

 2017-02-05 10:08:49.029857+01 | 1486285729.02986 | pgbench_branches_pkey |            16384
 2017-02-05 10:08:49.029857+01 | 1486285729.02986 | pgbench_tellers_pkey  |            40960
 2017-02-05 10:08:49.029857+01 | 1486285729.02986 | pgbench_accounts_pkey |        224641024

 2017-02-05 10:08:50.107041+01 | 1486285730.10704 | pgbench_branches_pkey |            16384
 2017-02-05 10:08:50.107041+01 | 1486285730.10704 | pgbench_tellers_pkey  |            40960
 2017-02-05 10:08:50.107041+01 | 1486285730.10704 | pgbench_accounts_pkey |        224641024

 2017-02-05 10:08:51.188626+01 | 1486285731.18863 | pgbench_branches_pkey |            16384
 2017-02-05 10:08:51.188626+01 | 1486285731.18863 | pgbench_tellers_pkey  |            40960
 2017-02-05 10:08:51.188626+01 | 1486285731.18863 | pgbench_accounts_pkey |        224641024

 2017-02-05 10:08:52.27354+01 | 1486285732.27354 | pgbench_branches_pkey |            16384
 2017-02-05 10:08:52.27354+01 | 1486285732.27354 | pgbench_tellers_pkey  |            40960
 2017-02-05 10:08:52.27354+01 | 1486285732.27354 | pgbench_accounts_pkey |        224641024

 2017-02-05 10:08:53.35607+01 | 1486285733.35607 | pgbench_branches_pkey |            16384
 2017-02-05 10:08:53.35607+01 | 1486285733.35607 | pgbench_tellers_pkey  |            40960
 2017-02-05 10:08:53.35607+01 | 1486285733.35607 | pgbench_accounts_pkey |        224641024

 2017-02-05 10:08:54.441589+01 | 1486285734.44159 | pgbench_branches_pkey |            16384
 2017-02-05 10:08:54.441589+01 | 1486285734.44159 | pgbench_tellers_pkey  |            40960
 2017-02-05 10:08:54.441589+01 | 1486285734.44159 | pgbench_accounts_pkey |        224641024

 2017-02-05 10:08:55.522173+01 | 1486285735.52217 | pgbench_branches_pkey |            16384
 2017-02-05 10:08:55.522173+01 | 1486285735.52217 | pgbench_tellers_pkey  |            40960
 2017-02-05 10:08:55.522173+01 | 1486285735.52217 | pgbench_accounts_pkey |        224641024

 2017-02-05 10:08:56.605487+01 | 1486285736.60549 | pgbench_branches_pkey |            16384
 2017-02-05 10:08:56.605487+01 | 1486285736.60549 | pgbench_tellers_pkey  |            40960
 2017-02-05 10:08:56.605487+01 | 1486285736.60549 | pgbench_accounts_pkey |        224641024

 2017-02-05 10:08:57.686368+01 | 1486285737.68637 | pgbench_branches_pkey |            16384
 2017-02-05 10:08:57.686368+01 | 1486285737.68637 | pgbench_tellers_pkey  |            40960
 2017-02-05 10:08:57.686368+01 | 1486285737.68637 | pgbench_accounts_pkey |        224641024

 2017-02-05 10:08:58.770589+01 | 1486285738.77059 | pgbench_branches_pkey |            16384
 2017-02-05 10:08:58.770589+01 | 1486285738.77059 | pgbench_tellers_pkey  |            40960
 2017-02-05 10:08:58.770589+01 | 1486285738.77059 | pgbench_accounts_pkey |        224641024

 2017-02-05 10:08:59.853241+01 | 1486285739.85324 | pgbench_branches_pkey |            16384
 2017-02-05 10:08:59.853241+01 | 1486285739.85324 | pgbench_tellers_pkey  |            40960
 2017-02-05 10:08:59.853241+01 | 1486285739.85324 | pgbench_accounts_pkey |        224641024

 2017-02-05 10:09:00.927924+01 | 1486285740.92792 | pgbench_branches_pkey |            16384
 2017-02-05 10:09:00.927924+01 | 1486285740.92792 | pgbench_tellers_pkey  |            40960
 2017-02-05 10:09:00.927924+01 | 1486285740.92792 | pgbench_accounts_pkey |        224641024

 2017-02-05 10:09:02.008869+01 | 1486285742.00887 | pgbench_branches_pkey |            16384
 2017-02-05 10:09:02.008869+01 | 1486285742.00887 | pgbench_tellers_pkey  |            40960
 2017-02-05 10:09:02.008869+01 | 1486285742.00887 | pgbench_accounts_pkey |        224641024

 2017-02-05 10:09:03.092721+01 | 1486285743.09272 | pgbench_branches_pkey |            16384
 2017-02-05 10:09:03.092721+01 | 1486285743.09272 | pgbench_tellers_pkey  |            40960
 2017-02-05 10:09:03.092721+01 | 1486285743.09272 | pgbench_accounts_pkey |        224641024

 2017-02-05 10:09:04.176441+01 | 1486285744.17644 | pgbench_branches_pkey |            16384
 2017-02-05 10:09:04.176441+01 | 1486285744.17644 | pgbench_tellers_pkey  |            40960
 2017-02-05 10:09:04.176441+01 | 1486285744.17644 | pgbench_accounts_pkey |        224641024

 2017-02-05 10:09:05.261533+01 | 1486285745.26153 | pgbench_branches_pkey |            16384
 2017-02-05 10:09:05.261533+01 | 1486285745.26153 | pgbench_tellers_pkey  |            40960
 2017-02-05 10:09:05.261533+01 | 1486285745.26153 | pgbench_accounts_pkey |        224641024

 2017-02-05 10:09:06.335398+01 | 1486285746.3354 | pgbench_branches_pkey |            16384
 2017-02-05 10:09:06.335398+01 | 1486285746.3354 | pgbench_tellers_pkey  |            40960
 2017-02-05 10:09:06.335398+01 | 1486285746.3354 | pgbench_accounts_pkey |        224641024

 2017-02-05 10:09:07.420994+01 | 1486285747.42099 | pgbench_branches_pkey |            16384
 2017-02-05 10:09:07.420994+01 | 1486285747.42099 | pgbench_tellers_pkey  |            40960
 2017-02-05 10:09:07.420994+01 | 1486285747.42099 | pgbench_accounts_pkey |        224641024

 2017-02-05 10:09:08.509039+01 | 1486285748.50904 | pgbench_branches_pkey |            16384
 2017-02-05 10:09:08.509039+01 | 1486285748.50904 | pgbench_tellers_pkey  |            40960
 2017-02-05 10:09:08.509039+01 | 1486285748.50904 | pgbench_accounts_pkey |        224641024

 2017-02-05 10:09:09.579816+01 | 1486285749.57982 | pgbench_branches_pkey |            16384
 2017-02-05 10:09:09.579816+01 | 1486285749.57982 | pgbench_tellers_pkey  |            40960
 2017-02-05 10:09:09.579816+01 | 1486285749.57982 | pgbench_accounts_pkey |        224641024

 2017-02-05 10:09:10.660166+01 | 1486285750.66017 | pgbench_branches_pkey |            16384
 2017-02-05 10:09:10.660166+01 | 1486285750.66017 | pgbench_tellers_pkey  |            40960
 2017-02-05 10:09:10.660166+01 | 1486285750.66017 | pgbench_accounts_pkey |        224641024

 2017-02-05 10:09:11.750163+01 | 1486285751.75016 | pgbench_branches_pkey |            16384
 2017-02-05 10:09:11.750163+01 | 1486285751.75016 | pgbench_tellers_pkey  |            40960
 2017-02-05 10:09:11.750163+01 | 1486285751.75016 | pgbench_accounts_pkey |        224641024

 2017-02-05 10:09:12.826382+01 | 1486285752.82638 | pgbench_branches_pkey |            16384
 2017-02-05 10:09:12.826382+01 | 1486285752.82638 | pgbench_tellers_pkey  |            40960
 2017-02-05 10:09:12.826382+01 | 1486285752.82638 | pgbench_accounts_pkey |        224641024

 2017-02-05 10:09:13.89005+01 | 1486285753.89005 | pgbench_branches_pkey |            16384
 2017-02-05 10:09:13.89005+01 | 1486285753.89005 | pgbench_tellers_pkey  |            40960
 2017-02-05 10:09:13.89005+01 | 1486285753.89005 | pgbench_accounts_pkey |        224641024

 2017-02-05 10:09:14.970344+01 | 1486285754.97034 | pgbench_branches_pkey |            16384
 2017-02-05 10:09:14.970344+01 | 1486285754.97034 | pgbench_tellers_pkey  |            40960
 2017-02-05 10:09:14.970344+01 | 1486285754.97034 | pgbench_accounts_pkey |        224641024

 2017-02-05 10:09:16.060163+01 | 1486285756.06016 | pgbench_branches_pkey |            16384
 2017-02-05 10:09:16.060163+01 | 1486285756.06016 | pgbench_tellers_pkey  |            40960
 2017-02-05 10:09:16.060163+01 | 1486285756.06016 | pgbench_accounts_pkey |        224641024

 2017-02-05 10:09:17.150978+01 | 1486285757.15098 | pgbench_branches_pkey |            16384
 2017-02-05 10:09:17.150978+01 | 1486285757.15098 | pgbench_tellers_pkey  |            40960
 2017-02-05 10:09:17.150978+01 | 1486285757.15098 | pgbench_accounts_pkey |        224641024

 2017-02-05 10:09:18.233357+01 | 1486285758.23336 | pgbench_branches_pkey |            16384
 2017-02-05 10:09:18.233357+01 | 1486285758.23336 | pgbench_tellers_pkey  |            40960
 2017-02-05 10:09:18.233357+01 | 1486285758.23336 | pgbench_accounts_pkey |        224641024

 2017-02-05 10:09:19.322521+01 | 1486285759.32252 | pgbench_branches_pkey |            16384
 2017-02-05 10:09:19.322521+01 | 1486285759.32252 | pgbench_tellers_pkey  |            40960
 2017-02-05 10:09:19.322521+01 | 1486285759.32252 | pgbench_accounts_pkey |        224641024

 2017-02-05 10:09:20.397939+01 | 1486285760.39794 | pgbench_branches_pkey |            16384
 2017-02-05 10:09:20.397939+01 | 1486285760.39794 | pgbench_tellers_pkey  |            40960
 2017-02-05 10:09:20.397939+01 | 1486285760.39794 | pgbench_accounts_pkey |        224641024

 2017-02-05 10:09:21.486282+01 | 1486285761.48628 | pgbench_branches_pkey |            16384
 2017-02-05 10:09:21.486282+01 | 1486285761.48628 | pgbench_tellers_pkey  |            40960
 2017-02-05 10:09:21.486282+01 | 1486285761.48628 | pgbench_accounts_pkey |        224641024

 2017-02-05 10:09:22.561226+01 | 1486285762.56123 | pgbench_branches_pkey |            16384
 2017-02-05 10:09:22.561226+01 | 1486285762.56123 | pgbench_tellers_pkey  |            40960
 2017-02-05 10:09:22.561226+01 | 1486285762.56123 | pgbench_accounts_pkey |        224641024

 2017-02-05 10:09:23.647291+01 | 1486285763.64729 | pgbench_branches_pkey |            16384
 2017-02-05 10:09:23.647291+01 | 1486285763.64729 | pgbench_tellers_pkey  |            40960
 2017-02-05 10:09:23.647291+01 | 1486285763.64729 | pgbench_accounts_pkey |        224641024

 2017-02-05 10:09:24.728127+01 | 1486285764.72813 | pgbench_branches_pkey |            16384
 2017-02-05 10:09:24.728127+01 | 1486285764.72813 | pgbench_tellers_pkey  |            40960
 2017-02-05 10:09:24.728127+01 | 1486285764.72813 | pgbench_accounts_pkey |        224641024

 2017-02-05 10:09:25.811964+01 | 1486285765.81196 | pgbench_branches_pkey |            16384
 2017-02-05 10:09:25.811964+01 | 1486285765.81196 | pgbench_tellers_pkey  |            40960
 2017-02-05 10:09:25.811964+01 | 1486285765.81196 | pgbench_accounts_pkey |        224641024

 2017-02-05 10:09:26.901323+01 | 1486285766.90132 | pgbench_branches_pkey |            16384
 2017-02-05 10:09:26.901323+01 | 1486285766.90132 | pgbench_tellers_pkey  |            40960
 2017-02-05 10:09:26.901323+01 | 1486285766.90132 | pgbench_accounts_pkey |        224641024

 2017-02-05 10:09:27.99019+01 | 1486285767.99019 | pgbench_branches_pkey |            16384
 2017-02-05 10:09:27.99019+01 | 1486285767.99019 | pgbench_tellers_pkey  |            40960
 2017-02-05 10:09:27.99019+01 | 1486285767.99019 | pgbench_accounts_pkey |        224641024

 2017-02-05 10:09:29.077278+01 | 1486285769.07728 | pgbench_branches_pkey |            16384
 2017-02-05 10:09:29.077278+01 | 1486285769.07728 | pgbench_tellers_pkey  |            40960
 2017-02-05 10:09:29.077278+01 | 1486285769.07728 | pgbench_accounts_pkey |        224641024

 2017-02-05 10:09:30.170866+01 | 1486285770.17087 | pgbench_branches_pkey |            16384
 2017-02-05 10:09:30.170866+01 | 1486285770.17087 | pgbench_tellers_pkey  |            40960
 2017-02-05 10:09:30.170866+01 | 1486285770.17087 | pgbench_accounts_pkey |        224641024

 2017-02-05 10:09:31.2479+01 | 1486285771.2479 | pgbench_branches_pkey |            16384
 2017-02-05 10:09:31.2479+01 | 1486285771.2479 | pgbench_tellers_pkey  |            40960
 2017-02-05 10:09:31.2479+01 | 1486285771.2479 | pgbench_accounts_pkey |        224641024

 2017-02-05 10:09:32.329813+01 | 1486285772.32981 | pgbench_branches_pkey |            16384
 2017-02-05 10:09:32.329813+01 | 1486285772.32981 | pgbench_tellers_pkey  |            40960
 2017-02-05 10:09:32.329813+01 | 1486285772.32981 | pgbench_accounts_pkey |        224641024

 2017-02-05 10:09:33.412678+01 | 1486285773.41268 | pgbench_branches_pkey |            16384
 2017-02-05 10:09:33.412678+01 | 1486285773.41268 | pgbench_tellers_pkey  |            40960
 2017-02-05 10:09:33.412678+01 | 1486285773.41268 | pgbench_accounts_pkey |        224641024

 2017-02-05 10:09:34.496909+01 | 1486285774.49691 | pgbench_branches_pkey |            16384
 2017-02-05 10:09:34.496909+01 | 1486285774.49691 | pgbench_tellers_pkey  |            40960
 2017-02-05 10:09:34.496909+01 | 1486285774.49691 | pgbench_accounts_pkey |        224641024

 2017-02-05 10:09:35.582372+01 | 1486285775.58237 | pgbench_branches_pkey |            16384
 2017-02-05 10:09:35.582372+01 | 1486285775.58237 | pgbench_tellers_pkey  |            40960
 2017-02-05 10:09:35.582372+01 | 1486285775.58237 | pgbench_accounts_pkey |        224641024

 2017-02-05 10:09:36.661795+01 | 1486285776.66179 | pgbench_branches_pkey |            16384
 2017-02-05 10:09:36.661795+01 | 1486285776.66179 | pgbench_tellers_pkey  |            40960
 2017-02-05 10:09:36.661795+01 | 1486285776.66179 | pgbench_accounts_pkey |        224641024

 2017-02-05 10:09:37.745948+01 | 1486285777.74595 | pgbench_branches_pkey |            16384
 2017-02-05 10:09:37.745948+01 | 1486285777.74595 | pgbench_tellers_pkey  |            40960
 2017-02-05 10:09:37.745948+01 | 1486285777.74595 | pgbench_accounts_pkey |        224641024

 2017-02-05 10:09:38.834125+01 | 1486285778.83413 | pgbench_branches_pkey |            16384
 2017-02-05 10:09:38.834125+01 | 1486285778.83413 | pgbench_tellers_pkey  |            40960
 2017-02-05 10:09:38.834125+01 | 1486285778.83413 | pgbench_accounts_pkey |        224641024

 2017-02-05 10:09:39.926078+01 | 1486285779.92608 | pgbench_branches_pkey |            16384
 2017-02-05 10:09:39.926078+01 | 1486285779.92608 | pgbench_tellers_pkey  |            40960
 2017-02-05 10:09:39.926078+01 | 1486285779.92608 | pgbench_accounts_pkey |        224641024

 2017-02-05 10:09:41.015385+01 | 1486285781.01538 | pgbench_branches_pkey |            16384
 2017-02-05 10:09:41.015385+01 | 1486285781.01538 | pgbench_tellers_pkey  |            40960
 2017-02-05 10:09:41.015385+01 | 1486285781.01538 | pgbench_accounts_pkey |        224641024

 2017-02-05 10:09:42.097602+01 | 1486285782.0976 | pgbench_branches_pkey |            16384
 2017-02-05 10:09:42.097602+01 | 1486285782.0976 | pgbench_tellers_pkey  |            40960
 2017-02-05 10:09:42.097602+01 | 1486285782.0976 | pgbench_accounts_pkey |        224641024

 2017-02-05 10:09:43.188083+01 | 1486285783.18808 | pgbench_branches_pkey |            16384
 2017-02-05 10:09:43.188083+01 | 1486285783.18808 | pgbench_tellers_pkey  |            40960
 2017-02-05 10:09:43.188083+01 | 1486285783.18808 | pgbench_accounts_pkey |        224641024

 2017-02-05 10:09:44.280273+01 | 1486285784.28027 | pgbench_branches_pkey |            16384
 2017-02-05 10:09:44.280273+01 | 1486285784.28027 | pgbench_tellers_pkey  |            40960
 2017-02-05 10:09:44.280273+01 | 1486285784.28027 | pgbench_accounts_pkey |        224641024

 2017-02-05 10:09:45.356621+01 | 1486285785.35662 | pgbench_branches_pkey |            16384
 2017-02-05 10:09:45.356621+01 | 1486285785.35662 | pgbench_tellers_pkey  |            40960
 2017-02-05 10:09:45.356621+01 | 1486285785.35662 | pgbench_accounts_pkey |        224641024

 2017-02-05 10:09:46.439162+01 | 1486285786.43916 | pgbench_branches_pkey |            16384
 2017-02-05 10:09:46.439162+01 | 1486285786.43916 | pgbench_tellers_pkey  |            40960
 2017-02-05 10:09:46.439162+01 | 1486285786.43916 | pgbench_accounts_pkey |        224641024

 2017-02-05 10:09:47.520451+01 | 1486285787.52045 | pgbench_branches_pkey |            16384
 2017-02-05 10:09:47.520451+01 | 1486285787.52045 | pgbench_tellers_pkey  |            40960
 2017-02-05 10:09:47.520451+01 | 1486285787.52045 | pgbench_accounts_pkey |        224641024

 2017-02-05 10:09:48.594085+01 | 1486285788.59408 | pgbench_branches_pkey |            16384
 2017-02-05 10:09:48.594085+01 | 1486285788.59408 | pgbench_tellers_pkey  |            40960
 2017-02-05 10:09:48.594085+01 | 1486285788.59408 | pgbench_accounts_pkey |        224641024

 2017-02-05 10:09:49.672598+01 | 1486285789.6726 | pgbench_branches_pkey |            16384
 2017-02-05 10:09:49.672598+01 | 1486285789.6726 | pgbench_tellers_pkey  |            40960
 2017-02-05 10:09:49.672598+01 | 1486285789.6726 | pgbench_accounts_pkey |        224641024

 2017-02-05 10:09:50.7623+01 | 1486285790.7623 | pgbench_branches_pkey |            16384
 2017-02-05 10:09:50.7623+01 | 1486285790.7623 | pgbench_tellers_pkey  |            40960
 2017-02-05 10:09:50.7623+01 | 1486285790.7623 | pgbench_accounts_pkey |        224641024

 2017-02-05 10:09:51.844329+01 | 1486285791.84433 | pgbench_branches_pkey |            16384
 2017-02-05 10:09:51.844329+01 | 1486285791.84433 | pgbench_tellers_pkey  |            40960
 2017-02-05 10:09:51.844329+01 | 1486285791.84433 | pgbench_accounts_pkey |        224641024

 2017-02-05 10:09:52.923296+01 | 1486285792.9233 | pgbench_branches_pkey |            16384
 2017-02-05 10:09:52.923296+01 | 1486285792.9233 | pgbench_tellers_pkey  |            40960
 2017-02-05 10:09:52.923296+01 | 1486285792.9233 | pgbench_accounts_pkey |        224641024

 2017-02-05 10:09:53.999588+01 | 1486285793.99959 | pgbench_branches_pkey |            16384
 2017-02-05 10:09:53.999588+01 | 1486285793.99959 | pgbench_tellers_pkey  |            40960
 2017-02-05 10:09:53.999588+01 | 1486285793.99959 | pgbench_accounts_pkey |        224641024

 2017-02-05 10:09:55.098419+01 | 1486285795.09842 | pgbench_branches_pkey |            16384
 2017-02-05 10:09:55.098419+01 | 1486285795.09842 | pgbench_tellers_pkey  |            40960
 2017-02-05 10:09:55.098419+01 | 1486285795.09842 | pgbench_accounts_pkey |        224641024

 2017-02-05 10:09:56.181827+01 | 1486285796.18183 | pgbench_branches_pkey |            16384
 2017-02-05 10:09:56.181827+01 | 1486285796.18183 | pgbench_tellers_pkey  |            40960
 2017-02-05 10:09:56.181827+01 | 1486285796.18183 | pgbench_accounts_pkey |        224641024

 2017-02-05 10:09:57.269164+01 | 1486285797.26916 | pgbench_branches_pkey |            16384
 2017-02-05 10:09:57.269164+01 | 1486285797.26916 | pgbench_tellers_pkey  |            40960
 2017-02-05 10:09:57.269164+01 | 1486285797.26916 | pgbench_accounts_pkey |        224641024

 2017-02-05 10:09:58.355407+01 | 1486285798.35541 | pgbench_branches_pkey |            16384
 2017-02-05 10:09:58.355407+01 | 1486285798.35541 | pgbench_tellers_pkey  |            40960
 2017-02-05 10:09:58.355407+01 | 1486285798.35541 | pgbench_accounts_pkey |        224641024

 2017-02-05 10:09:59.43795+01 | 1486285799.43795 | pgbench_branches_pkey |            16384
 2017-02-05 10:09:59.43795+01 | 1486285799.43795 | pgbench_tellers_pkey  |            40960
 2017-02-05 10:09:59.43795+01 | 1486285799.43795 | pgbench_accounts_pkey |        224641024

 2017-02-05 10:10:00.520938+01 | 1486285800.52094 | pgbench_branches_pkey |            16384
 2017-02-05 10:10:00.520938+01 | 1486285800.52094 | pgbench_tellers_pkey  |            40960
 2017-02-05 10:10:00.520938+01 | 1486285800.52094 | pgbench_accounts_pkey |        224641024

 2017-02-05 10:10:01.606014+01 | 1486285801.60601 | pgbench_branches_pkey |            16384
 2017-02-05 10:10:01.606014+01 | 1486285801.60601 | pgbench_tellers_pkey  |            40960
 2017-02-05 10:10:01.606014+01 | 1486285801.60601 | pgbench_accounts_pkey |        224641024

 2017-02-05 10:10:02.680567+01 | 1486285802.68057 | pgbench_branches_pkey |            16384
 2017-02-05 10:10:02.680567+01 | 1486285802.68057 | pgbench_tellers_pkey  |            40960
 2017-02-05 10:10:02.680567+01 | 1486285802.68057 | pgbench_accounts_pkey |        224641024

 2017-02-05 10:10:03.757956+01 | 1486285803.75796 | pgbench_branches_pkey |            16384
 2017-02-05 10:10:03.757956+01 | 1486285803.75796 | pgbench_tellers_pkey  |            40960
 2017-02-05 10:10:03.757956+01 | 1486285803.75796 | pgbench_accounts_pkey |        224641024

 2017-02-05 10:10:04.841309+01 | 1486285804.84131 | pgbench_branches_pkey |            16384
 2017-02-05 10:10:04.841309+01 | 1486285804.84131 | pgbench_tellers_pkey  |            40960
 2017-02-05 10:10:04.841309+01 | 1486285804.84131 | pgbench_accounts_pkey |        224641024

 2017-02-05 10:10:05.923651+01 | 1486285805.92365 | pgbench_branches_pkey |            16384
 2017-02-05 10:10:05.923651+01 | 1486285805.92365 | pgbench_tellers_pkey  |            40960
 2017-02-05 10:10:05.923651+01 | 1486285805.92365 | pgbench_accounts_pkey |        224641024

 2017-02-05 10:10:07.008276+01 | 1486285807.00828 | pgbench_branches_pkey |            16384
 2017-02-05 10:10:07.008276+01 | 1486285807.00828 | pgbench_tellers_pkey  |            40960
 2017-02-05 10:10:07.008276+01 | 1486285807.00828 | pgbench_accounts_pkey |        224641024

 2017-02-05 10:10:08.080924+01 | 1486285808.08092 | pgbench_branches_pkey |            16384
 2017-02-05 10:10:08.080924+01 | 1486285808.08092 | pgbench_tellers_pkey  |            40960
 2017-02-05 10:10:08.080924+01 | 1486285808.08092 | pgbench_accounts_pkey |        224641024

 2017-02-05 10:10:09.159148+01 | 1486285809.15915 | pgbench_branches_pkey |            16384
 2017-02-05 10:10:09.159148+01 | 1486285809.15915 | pgbench_tellers_pkey  |            40960
 2017-02-05 10:10:09.159148+01 | 1486285809.15915 | pgbench_accounts_pkey |        224641024

 2017-02-05 10:10:10.240053+01 | 1486285810.24005 | pgbench_branches_pkey |            16384
 2017-02-05 10:10:10.240053+01 | 1486285810.24005 | pgbench_tellers_pkey  |            40960
 2017-02-05 10:10:10.240053+01 | 1486285810.24005 | pgbench_accounts_pkey |        224641024

 2017-02-05 10:10:11.311441+01 | 1486285811.31144 | pgbench_branches_pkey |            16384
 2017-02-05 10:10:11.311441+01 | 1486285811.31144 | pgbench_tellers_pkey  |            40960
 2017-02-05 10:10:11.311441+01 | 1486285811.31144 | pgbench_accounts_pkey |        224641024

 2017-02-05 10:10:12.391769+01 | 1486285812.39177 | pgbench_branches_pkey |            16384
 2017-02-05 10:10:12.391769+01 | 1486285812.39177 | pgbench_tellers_pkey  |            40960
 2017-02-05 10:10:12.391769+01 | 1486285812.39177 | pgbench_accounts_pkey |        224641024

 2017-02-05 10:10:13.4687+01 | 1486285813.4687 | pgbench_branches_pkey |            16384
 2017-02-05 10:10:13.4687+01 | 1486285813.4687 | pgbench_tellers_pkey  |            40960
 2017-02-05 10:10:13.4687+01 | 1486285813.4687 | pgbench_accounts_pkey |        224641024

 2017-02-05 10:10:14.549023+01 | 1486285814.54902 | pgbench_branches_pkey |            16384
 2017-02-05 10:10:14.549023+01 | 1486285814.54902 | pgbench_tellers_pkey  |            40960
 2017-02-05 10:10:14.549023+01 | 1486285814.54902 | pgbench_accounts_pkey |        224641024

 2017-02-05 10:10:15.632388+01 | 1486285815.63239 | pgbench_branches_pkey |            16384
 2017-02-05 10:10:15.632388+01 | 1486285815.63239 | pgbench_tellers_pkey  |            40960
 2017-02-05 10:10:15.632388+01 | 1486285815.63239 | pgbench_accounts_pkey |        224641024

 2017-02-05 10:10:16.719055+01 | 1486285816.71905 | pgbench_branches_pkey |            16384
 2017-02-05 10:10:16.719055+01 | 1486285816.71905 | pgbench_tellers_pkey  |            40960
 2017-02-05 10:10:16.719055+01 | 1486285816.71905 | pgbench_accounts_pkey |        224641024

 2017-02-05 10:10:17.805313+01 | 1486285817.80531 | pgbench_branches_pkey |            16384
 2017-02-05 10:10:17.805313+01 | 1486285817.80531 | pgbench_tellers_pkey  |            40960
 2017-02-05 10:10:17.805313+01 | 1486285817.80531 | pgbench_accounts_pkey |        224641024

 2017-02-05 10:10:18.889654+01 | 1486285818.88965 | pgbench_branches_pkey |            16384
 2017-02-05 10:10:18.889654+01 | 1486285818.88965 | pgbench_tellers_pkey  |            40960
 2017-02-05 10:10:18.889654+01 | 1486285818.88965 | pgbench_accounts_pkey |        224641024

 2017-02-05 10:10:19.973737+01 | 1486285819.97374 | pgbench_branches_pkey |            16384
 2017-02-05 10:10:19.973737+01 | 1486285819.97374 | pgbench_tellers_pkey  |            40960
 2017-02-05 10:10:19.973737+01 | 1486285819.97374 | pgbench_accounts_pkey |        224641024

 2017-02-05 10:10:21.060376+01 | 1486285821.06038 | pgbench_branches_pkey |            16384
 2017-02-05 10:10:21.060376+01 | 1486285821.06038 | pgbench_tellers_pkey  |            40960
 2017-02-05 10:10:21.060376+01 | 1486285821.06038 | pgbench_accounts_pkey |        224641024

 2017-02-05 10:10:22.139628+01 | 1486285822.13963 | pgbench_branches_pkey |            16384
 2017-02-05 10:10:22.139628+01 | 1486285822.13963 | pgbench_tellers_pkey  |            40960
 2017-02-05 10:10:22.139628+01 | 1486285822.13963 | pgbench_accounts_pkey |        224641024

 2017-02-05 10:10:23.224349+01 | 1486285823.22435 | pgbench_branches_pkey |            16384
 2017-02-05 10:10:23.224349+01 | 1486285823.22435 | pgbench_tellers_pkey  |            40960
 2017-02-05 10:10:23.224349+01 | 1486285823.22435 | pgbench_accounts_pkey |        224641024

 2017-02-05 10:10:24.30937+01 | 1486285824.30937 | pgbench_branches_pkey |            16384
 2017-02-05 10:10:24.30937+01 | 1486285824.30937 | pgbench_tellers_pkey  |            40960
 2017-02-05 10:10:24.30937+01 | 1486285824.30937 | pgbench_accounts_pkey |        224641024

 2017-02-05 10:10:25.394748+01 | 1486285825.39475 | pgbench_branches_pkey |            16384
 2017-02-05 10:10:25.394748+01 | 1486285825.39475 | pgbench_tellers_pkey  |            40960
 2017-02-05 10:10:25.394748+01 | 1486285825.39475 | pgbench_accounts_pkey |        224641024

 2017-02-05 10:10:26.467835+01 | 1486285826.46783 | pgbench_branches_pkey |            16384
 2017-02-05 10:10:26.467835+01 | 1486285826.46783 | pgbench_tellers_pkey  |            40960
 2017-02-05 10:10:26.467835+01 | 1486285826.46783 | pgbench_accounts_pkey |        224641024

 2017-02-05 10:10:27.552067+01 | 1486285827.55207 | pgbench_branches_pkey |            16384
 2017-02-05 10:10:27.552067+01 | 1486285827.55207 | pgbench_tellers_pkey  |            40960
 2017-02-05 10:10:27.552067+01 | 1486285827.55207 | pgbench_accounts_pkey |        224641024

 2017-02-05 10:10:28.628222+01 | 1486285828.62822 | pgbench_branches_pkey |            16384
 2017-02-05 10:10:28.628222+01 | 1486285828.62822 | pgbench_tellers_pkey  |            40960
 2017-02-05 10:10:28.628222+01 | 1486285828.62822 | pgbench_accounts_pkey |        224641024

 2017-02-05 10:10:29.704543+01 | 1486285829.70454 | pgbench_branches_pkey |            16384
 2017-02-05 10:10:29.704543+01 | 1486285829.70454 | pgbench_tellers_pkey  |            40960
 2017-02-05 10:10:29.704543+01 | 1486285829.70454 | pgbench_accounts_pkey |        224641024

 2017-02-05 10:10:30.777816+01 | 1486285830.77782 | pgbench_branches_pkey |            16384
 2017-02-05 10:10:30.777816+01 | 1486285830.77782 | pgbench_tellers_pkey  |            40960
 2017-02-05 10:10:30.777816+01 | 1486285830.77782 | pgbench_accounts_pkey |        224641024

 2017-02-05 10:10:31.866819+01 | 1486285831.86682 | pgbench_branches_pkey |            16384
 2017-02-05 10:10:31.866819+01 | 1486285831.86682 | pgbench_tellers_pkey  |            40960
 2017-02-05 10:10:31.866819+01 | 1486285831.86682 | pgbench_accounts_pkey |        224641024

 2017-02-05 10:10:32.945281+01 | 1486285832.94528 | pgbench_branches_pkey |            16384
 2017-02-05 10:10:32.945281+01 | 1486285832.94528 | pgbench_tellers_pkey  |            40960
 2017-02-05 10:10:32.945281+01 | 1486285832.94528 | pgbench_accounts_pkey |        224641024

 2017-02-05 10:10:34.029741+01 | 1486285834.02974 | pgbench_branches_pkey |            16384
 2017-02-05 10:10:34.029741+01 | 1486285834.02974 | pgbench_tellers_pkey  |            40960
 2017-02-05 10:10:34.029741+01 | 1486285834.02974 | pgbench_accounts_pkey |        224641024

 2017-02-05 10:10:35.119285+01 | 1486285835.11929 | pgbench_branches_pkey |            16384
 2017-02-05 10:10:35.119285+01 | 1486285835.11929 | pgbench_tellers_pkey  |            40960
 2017-02-05 10:10:35.119285+01 | 1486285835.11929 | pgbench_accounts_pkey |        224641024

 2017-02-05 10:10:36.209098+01 | 1486285836.2091 | pgbench_branches_pkey |            16384
 2017-02-05 10:10:36.209098+01 | 1486285836.2091 | pgbench_tellers_pkey  |            40960
 2017-02-05 10:10:36.209098+01 | 1486285836.2091 | pgbench_accounts_pkey |        224641024

 2017-02-05 10:10:37.279381+01 | 1486285837.27938 | pgbench_branches_pkey |            16384
 2017-02-05 10:10:37.279381+01 | 1486285837.27938 | pgbench_tellers_pkey  |            40960
 2017-02-05 10:10:37.279381+01 | 1486285837.27938 | pgbench_accounts_pkey |        224641024

 2017-02-05 10:10:38.365125+01 | 1486285838.36512 | pgbench_branches_pkey |            16384
 2017-02-05 10:10:38.365125+01 | 1486285838.36512 | pgbench_tellers_pkey  |            40960
 2017-02-05 10:10:38.365125+01 | 1486285838.36512 | pgbench_accounts_pkey |        224641024

 2017-02-05 10:10:39.447151+01 | 1486285839.44715 | pgbench_branches_pkey |            16384
 2017-02-05 10:10:39.447151+01 | 1486285839.44715 | pgbench_tellers_pkey  |            40960
 2017-02-05 10:10:39.447151+01 | 1486285839.44715 | pgbench_accounts_pkey |        224641024

 2017-02-05 10:10:40.527759+01 | 1486285840.52776 | pgbench_branches_pkey |            16384
 2017-02-05 10:10:40.527759+01 | 1486285840.52776 | pgbench_tellers_pkey  |            40960
 2017-02-05 10:10:40.527759+01 | 1486285840.52776 | pgbench_accounts_pkey |        224641024

 2017-02-05 10:10:41.613993+01 | 1486285841.61399 | pgbench_branches_pkey |            16384
 2017-02-05 10:10:41.613993+01 | 1486285841.61399 | pgbench_tellers_pkey  |            40960
 2017-02-05 10:10:41.613993+01 | 1486285841.61399 | pgbench_accounts_pkey |        224641024

 2017-02-05 10:10:42.687484+01 | 1486285842.68748 | pgbench_branches_pkey |            16384
 2017-02-05 10:10:42.687484+01 | 1486285842.68748 | pgbench_tellers_pkey  |            40960
 2017-02-05 10:10:42.687484+01 | 1486285842.68748 | pgbench_accounts_pkey |        224641024

 2017-02-05 10:10:43.765701+01 | 1486285843.7657 | pgbench_branches_pkey |            16384
 2017-02-05 10:10:43.765701+01 | 1486285843.7657 | pgbench_tellers_pkey  |            40960
 2017-02-05 10:10:43.765701+01 | 1486285843.7657 | pgbench_accounts_pkey |        224641024

 2017-02-05 10:10:44.849587+01 | 1486285844.84959 | pgbench_branches_pkey |            16384
 2017-02-05 10:10:44.849587+01 | 1486285844.84959 | pgbench_tellers_pkey  |            40960
 2017-02-05 10:10:44.849587+01 | 1486285844.84959 | pgbench_accounts_pkey |        224641024

 2017-02-05 10:10:45.933563+01 | 1486285845.93356 | pgbench_branches_pkey |            16384
 2017-02-05 10:10:45.933563+01 | 1486285845.93356 | pgbench_tellers_pkey  |            40960
 2017-02-05 10:10:45.933563+01 | 1486285845.93356 | pgbench_accounts_pkey |        224641024

 2017-02-05 10:10:47.009762+01 | 1486285847.00976 | pgbench_branches_pkey |            16384
 2017-02-05 10:10:47.009762+01 | 1486285847.00976 | pgbench_tellers_pkey  |            40960
 2017-02-05 10:10:47.009762+01 | 1486285847.00976 | pgbench_accounts_pkey |        224641024

 2017-02-05 10:10:48.08127+01 | 1486285848.08127 | pgbench_branches_pkey |            16384
 2017-02-05 10:10:48.08127+01 | 1486285848.08127 | pgbench_tellers_pkey  |            40960
 2017-02-05 10:10:48.08127+01 | 1486285848.08127 | pgbench_accounts_pkey |        224641024

 2017-02-05 10:10:49.167386+01 | 1486285849.16739 | pgbench_branches_pkey |            16384
 2017-02-05 10:10:49.167386+01 | 1486285849.16739 | pgbench_tellers_pkey  |            40960
 2017-02-05 10:10:49.167386+01 | 1486285849.16739 | pgbench_accounts_pkey |        224641024

 2017-02-05 10:10:50.241702+01 | 1486285850.2417 | pgbench_branches_pkey |            16384
 2017-02-05 10:10:50.241702+01 | 1486285850.2417 | pgbench_tellers_pkey  |            40960
 2017-02-05 10:10:50.241702+01 | 1486285850.2417 | pgbench_accounts_pkey |        224641024

 2017-02-05 10:10:51.317707+01 | 1486285851.31771 | pgbench_branches_pkey |            16384
 2017-02-05 10:10:51.317707+01 | 1486285851.31771 | pgbench_tellers_pkey  |            40960
 2017-02-05 10:10:51.317707+01 | 1486285851.31771 | pgbench_accounts_pkey |        224641024

 2017-02-05 10:10:52.388601+01 | 1486285852.3886 | pgbench_branches_pkey |            16384
 2017-02-05 10:10:52.388601+01 | 1486285852.3886 | pgbench_tellers_pkey  |            40960
 2017-02-05 10:10:52.388601+01 | 1486285852.3886 | pgbench_accounts_pkey |        224641024

 2017-02-05 10:10:53.473557+01 | 1486285853.47356 | pgbench_branches_pkey |            16384
 2017-02-05 10:10:53.473557+01 | 1486285853.47356 | pgbench_tellers_pkey  |            40960
 2017-02-05 10:10:53.473557+01 | 1486285853.47356 | pgbench_accounts_pkey |        224641024

 2017-02-05 10:10:54.558286+01 | 1486285854.55829 | pgbench_branches_pkey |            16384
 2017-02-05 10:10:54.558286+01 | 1486285854.55829 | pgbench_tellers_pkey  |            40960
 2017-02-05 10:10:54.558286+01 | 1486285854.55829 | pgbench_accounts_pkey |        224641024

 2017-02-05 10:10:55.646047+01 | 1486285855.64605 | pgbench_branches_pkey |            16384
 2017-02-05 10:10:55.646047+01 | 1486285855.64605 | pgbench_tellers_pkey  |            40960
 2017-02-05 10:10:55.646047+01 | 1486285855.64605 | pgbench_accounts_pkey |        224641024

 2017-02-05 10:10:56.734951+01 | 1486285856.73495 | pgbench_branches_pkey |            16384
 2017-02-05 10:10:56.734951+01 | 1486285856.73495 | pgbench_tellers_pkey  |            40960
 2017-02-05 10:10:56.734951+01 | 1486285856.73495 | pgbench_accounts_pkey |        224641024

 2017-02-05 10:10:57.81611+01 | 1486285857.81611 | pgbench_branches_pkey |            16384
 2017-02-05 10:10:57.81611+01 | 1486285857.81611 | pgbench_tellers_pkey  |            40960
 2017-02-05 10:10:57.81611+01 | 1486285857.81611 | pgbench_accounts_pkey |        224641024

 2017-02-05 10:10:58.896708+01 | 1486285858.89671 | pgbench_branches_pkey |            16384
 2017-02-05 10:10:58.896708+01 | 1486285858.89671 | pgbench_tellers_pkey  |            40960
 2017-02-05 10:10:58.896708+01 | 1486285858.89671 | pgbench_accounts_pkey |        224641024

 2017-02-05 10:10:59.982202+01 | 1486285859.9822 | pgbench_branches_pkey |            16384
 2017-02-05 10:10:59.982202+01 | 1486285859.9822 | pgbench_tellers_pkey  |            40960
 2017-02-05 10:10:59.982202+01 | 1486285859.9822 | pgbench_accounts_pkey |        224641024

