 2017-02-04 05:46:40.852113+01 | 1486183600.85211 | 25/350D21F0              |          159803843056

 2017-02-04 05:46:41.937645+01 | 1486183601.93764 | 25/409BE658              |          159997748824

 2017-02-04 05:46:43.022125+01 | 1486183603.02213 | 25/4CB36430              |          160200614960

 2017-02-04 05:46:44.112696+01 | 1486183604.1127 | 25/57B469B8              |          160385231288

 2017-02-04 05:46:45.20909+01 | 1486183605.20909 | 25/61F01A18              |          160556915224

 2017-02-04 05:46:46.292067+01 | 1486183606.29207 | 25/6A9EB680              |          160702576256

 2017-02-04 05:46:47.379169+01 | 1486183607.37917 | 25/72BEF010              |          160838905872

 2017-02-04 05:46:48.47295+01 | 1486183608.47295 | 25/79535858              |          160949295192

 2017-02-04 05:46:49.565336+01 | 1486183609.56534 | 25/7F1623D0              |          161045947344

 2017-02-04 05:46:50.653009+01 | 1486183610.65301 | 25/83E8B5A8              |          161126856104

 2017-02-04 05:46:51.744297+01 | 1486183611.7443 | 25/882FBB90              |          161198619536

 2017-02-04 05:46:52.822013+01 | 1486183612.82201 | 25/8BB973E0              |          161257976800

 2017-02-04 05:46:53.903212+01 | 1486183613.90321 | 25/8ED4F4C0              |          161310120592

 2017-02-04 05:46:54.982527+01 | 1486183614.98253 | 25/9182E4C0              |          161355064512

 2017-02-04 05:46:56.068129+01 | 1486183616.06813 | 25/93E8D3D0              |          161395299280

 2017-02-04 05:46:57.155863+01 | 1486183617.15586 | 25/9602A3C0              |          161430545344

 2017-02-04 05:46:58.249231+01 | 1486183618.24923 | 25/97EB6870              |          161462577264

 2017-02-04 05:46:59.33567+01 | 1486183619.33567 | 25/99C6B0A0              |          161493725344

 2017-02-04 05:47:00.424403+01 | 1486183620.4244 | 25/9B702E70              |          161521610352

 2017-02-04 05:47:01.504336+01 | 1486183621.50434 | 25/9D319328              |          161551061800

 2017-02-04 05:47:02.590182+01 | 1486183622.59018 | 25/9EE68D58              |          161579699544

 2017-02-04 05:47:03.668003+01 | 1486183623.668 | 25/A0732090              |          161605689488

 2017-02-04 05:47:04.754734+01 | 1486183624.75473 | 25/A1E97E98              |          161630224024

 2017-02-04 05:47:05.829329+01 | 1486183625.82933 | 25/A3521168              |          161653854568

 2017-02-04 05:47:06.909411+01 | 1486183626.90941 | 25/A4A6FB70              |          161676196720

 2017-02-04 05:47:07.992767+01 | 1486183627.99277 | 25/A5FF3508              |          161698755848

 2017-02-04 05:47:09.085823+01 | 1486183629.08582 | 25/A7572A88              |          161721297544

 2017-02-04 05:47:10.176037+01 | 1486183630.17604 | 25/A91BA630              |          161750951472

 2017-02-04 05:47:11.259325+01 | 1486183631.25933 | 25/AB436B18              |          161787112216

 2017-02-04 05:47:12.34626+01 | 1486183632.34626 | 25/AD2ECA30              |          161819314736

 2017-02-04 05:47:13.437235+01 | 1486183633.43724 | 25/AF058900              |          161850165504

 2017-02-04 05:47:14.527973+01 | 1486183634.52797 | 25/B1207850              |          161885485136

 2017-02-04 05:47:15.609724+01 | 1486183635.60972 | 25/B2608A58              |          161906461272

 2017-02-04 05:47:16.690877+01 | 1486183636.69088 | 25/B3858EB8              |          161925664440

 2017-02-04 05:47:17.773654+01 | 1486183637.77365 | 25/B4D4EC88              |          161947643016

 2017-02-04 05:47:18.850257+01 | 1486183638.85026 | 25/B5FF6C50              |          161967205456

 2017-02-04 05:47:19.932682+01 | 1486183639.93268 | 25/B7226058              |          161986273368

 2017-02-04 05:47:21.014413+01 | 1486183641.01441 | 25/B842E058              |          162005180504

 2017-02-04 05:47:22.104024+01 | 1486183642.10402 | 25/B96A24C0              |          162024531136

 2017-02-04 05:47:23.20418+01 | 1486183643.20418 | 25/BA98AAE8              |          162044357352

 2017-02-04 05:47:24.283696+01 | 1486183644.2837 | 25/BBC240D0              |          162063859920

 2017-02-04 05:47:25.370929+01 | 1486183645.37093 | 25/BCDE12A8              |          162082460328

 2017-02-04 05:47:26.462542+01 | 1486183646.46254 | 25/BDFC7280              |          162101228160

 2017-02-04 05:47:27.546065+01 | 1486183647.54607 | 25/BF1C9BD0              |          162120113104

 2017-02-04 05:47:28.628591+01 | 1486183648.62859 | 25/C04487F0              |          162139506672

 2017-02-04 05:47:29.712875+01 | 1486183649.71287 | 25/C1675AA8              |          162158566056

 2017-02-04 05:47:30.796586+01 | 1486183650.79659 | 25/C297D418              |          162178520088

 2017-02-04 05:47:31.871997+01 | 1486183651.872 | 25/C3BD2D18              |          162197744920

 2017-02-04 05:47:32.952726+01 | 1486183652.95273 | 25/C4E47768              |          162217097064

 2017-02-04 05:47:34.032942+01 | 1486183654.03294 | 25/C60DB320              |          162236576544

 2017-02-04 05:47:35.118273+01 | 1486183655.11827 | 25/C72E96D8              |          162255509208

 2017-02-04 05:47:36.198852+01 | 1486183656.19885 | 25/C84F1100              |          162274416280

 2017-02-04 05:47:37.286989+01 | 1486183657.28699 | 25/C97175B8              |          162293446072

 2017-02-04 05:47:38.373297+01 | 1486183658.3733 | 25/CA951A00              |          162312559104

 2017-02-04 05:47:39.456363+01 | 1486183659.45636 | 25/CBB35D48              |          162331319624

 2017-02-04 05:47:40.540618+01 | 1486183660.54062 | 25/CCD1CC90              |          162350091408

 2017-02-04 05:47:41.625028+01 | 1486183661.62503 | 25/CDF423E0              |          162369119200

 2017-02-04 05:47:42.708458+01 | 1486183662.70846 | 25/CF160520              |          162388116768

 2017-02-04 05:47:43.790211+01 | 1486183663.79021 | 25/D032C438              |          162406777912

 2017-02-04 05:47:44.869204+01 | 1486183664.8692 | 25/D15B6D10              |          162426219792

 2017-02-04 05:47:45.949228+01 | 1486183665.94923 | 25/D27BA2F0              |          162445107952

 2017-02-04 05:47:47.027986+01 | 1486183667.02799 | 25/D38D0410              |          162463024144

 2017-02-04 05:47:48.113034+01 | 1486183668.11303 | 25/D4AD3BF0              |          162481912816

 2017-02-04 05:47:49.19686+01 | 1486183669.19686 | 25/D5D341C8              |          162501181896

 2017-02-04 05:47:50.281627+01 | 1486183670.28163 | 25/D6EFC6D8              |          162519828184

 2017-02-04 05:47:51.369025+01 | 1486183671.36902 | 25/D814AB60              |          162539023200

 2017-02-04 05:47:52.453721+01 | 1486183672.45372 | 25/D928AB20              |          162557111072

 2017-02-04 05:47:53.535685+01 | 1486183673.53569 | 25/DA4C9CD8              |          162576243928

 2017-02-04 05:47:54.620605+01 | 1486183674.6206 | 25/DB71C078              |          162595455096

 2017-02-04 05:47:55.69751+01 | 1486183675.69751 | 25/DC8B17F0              |          162613893104

 2017-02-04 05:47:56.780239+01 | 1486183676.78024 | 25/DDA610F0              |          162632438000

 2017-02-04 05:47:57.858166+01 | 1486183677.85817 | 25/DECCCB60              |          162651753312

 2017-02-04 05:47:58.938053+01 | 1486183678.93805 | 25/DFF1A9B0              |          162670946736

 2017-02-04 05:48:00.014506+01 | 1486183680.01451 | 25/E11A91A8              |          162690404776

 2017-02-04 05:48:01.100833+01 | 1486183681.10083 | 25/E2460B00              |          162710031104

 2017-02-04 05:48:02.188509+01 | 1486183682.18851 | 25/E361EB60              |          162728635232

 2017-02-04 05:48:03.271137+01 | 1486183683.27114 | 25/E4800C78              |          162747387000

 2017-02-04 05:48:04.350464+01 | 1486183684.35046 | 25/E59DB220              |          162766107168

 2017-02-04 05:48:05.432776+01 | 1486183685.43278 | 25/E6C79FF8              |          162785632248

 2017-02-04 05:48:06.51038+01 | 1486183686.51038 | 25/E80077E8              |          162806134760

 2017-02-04 05:48:07.598546+01 | 1486183687.59855 | 25/E9348A50              |          162826324560

 2017-02-04 05:48:08.690027+01 | 1486183688.69003 | 25/EA5EF2B8              |          162845881016

 2017-02-04 05:48:09.77702+01 | 1486183689.77702 | 25/EB8D0958              |          162865678680

 2017-02-04 05:48:10.864301+01 | 1486183690.8643 | 25/ECAD8A78              |          162884586104

 2017-02-04 05:48:11.943573+01 | 1486183691.94357 | 25/EDD25520              |          162903774496

 2017-02-04 05:48:13.034183+01 | 1486183693.03418 | 25/EEEDFF48              |          162922364744

 2017-02-04 05:48:14.116311+01 | 1486183694.11631 | 25/F014C878              |          162941683832

 2017-02-04 05:48:15.203042+01 | 1486183695.20304 | 25/F1387B58              |          162960800600

 2017-02-04 05:48:16.288724+01 | 1486183696.28872 | 25/F263C038              |          162980413496

 2017-02-04 05:48:17.369864+01 | 1486183697.36986 | 25/F38A3698              |          162999711384

 2017-02-04 05:48:18.455037+01 | 1486183698.45504 | 25/F4C2DA28              |          163020200488

 2017-02-04 05:48:19.539483+01 | 1486183699.53948 | 25/F5EC1F58              |          163039682392

 2017-02-04 05:48:20.628263+01 | 1486183700.62826 | 25/F71A6038              |          163059490872

 2017-02-04 05:48:21.713794+01 | 1486183701.71379 | 25/F8385E50              |          163078233680

 2017-02-04 05:48:22.799167+01 | 1486183702.79917 | 25/F95C9990              |          163097385360

 2017-02-04 05:48:23.882391+01 | 1486183703.88239 | 25/FA7DAB20              |          163116329760

 2017-02-04 05:48:24.960259+01 | 1486183704.96026 | 25/FB9A1DA0              |          163134971296

 2017-02-04 05:48:26.041429+01 | 1486183706.04143 | 25/FCB8A598              |          163153749400

 2017-02-04 05:48:27.12399+01 | 1486183707.12399 | 25/FDDA14B8              |          163172717752

 2017-02-04 05:48:28.207859+01 | 1486183708.20786 | 25/FEE70E48              |          163190345288

 2017-02-04 05:48:29.301614+01 | 1486183709.30161 | 25/FFFABB40              |          163208411968

 2017-02-04 05:48:30.387805+01 | 1486183710.3878 | 26/111B048               |          163226693704

 2017-02-04 05:48:31.476271+01 | 1486183711.47627 | 26/225C4A0               |          163244786848

 2017-02-04 05:48:32.570007+01 | 1486183712.57001 | 26/3466808               |          163263703048

 2017-02-04 05:48:33.648796+01 | 1486183713.6488 | 26/45EE360               |          163282084704

 2017-02-04 05:48:34.731299+01 | 1486183714.7313 | 26/580ECE8               |          163301092584

 2017-02-04 05:48:35.812921+01 | 1486183715.81292 | 26/6946C98               |          163319147672

 2017-02-04 05:48:36.891805+01 | 1486183716.8918 | 26/7ACDA80               |          163337525888

 2017-02-04 05:48:37.968978+01 | 1486183717.96898 | 26/8BF3D50               |          163355508048

 2017-02-04 05:48:39.050396+01 | 1486183719.0504 | 26/9DA3F50               |          163374055248

 2017-02-04 05:48:40.128106+01 | 1486183720.12811 | 26/AF74808               |          163392735240

 2017-02-04 05:48:41.215124+01 | 1486183721.21512 | 26/C14ED40               |          163411455296

 2017-02-04 05:48:42.304077+01 | 1486183722.30408 | 26/D3F10B0               |          163430994096

 2017-02-04 05:48:43.391637+01 | 1486183723.39164 | 26/E5AE088               |          163449593992

 2017-02-04 05:48:44.477436+01 | 1486183724.47744 | 26/F7634C8               |          163468162248

 2017-02-04 05:48:45.561375+01 | 1486183725.56137 | 26/108C9190              |          163486405008

 2017-02-04 05:48:46.645306+01 | 1486183726.64531 | 26/11A38128              |          163504685352

 2017-02-04 05:48:47.726307+01 | 1486183727.72631 | 26/12BA89A8              |          163522972072

 2017-02-04 05:48:48.808733+01 | 1486183728.80873 | 26/13C49458              |          163540407384

 2017-02-04 05:48:49.89133+01 | 1486183729.89133 | 26/14E90B88              |          163559574408

 2017-02-04 05:48:50.96755+01 | 1486183730.96755 | 26/15F92298              |          163577406104

 2017-02-04 05:48:52.049237+01 | 1486183732.04924 | 26/170AF718              |          163595351832

 2017-02-04 05:48:53.134227+01 | 1486183733.13423 | 26/18284BE0              |          163614051296

 2017-02-04 05:48:54.223196+01 | 1486183734.2232 | 26/193E6260              |          163632276064

 2017-02-04 05:48:55.314981+01 | 1486183735.31498 | 26/1A55EF68              |          163650596712

 2017-02-04 05:48:56.397569+01 | 1486183736.39757 | 26/1B67F960              |          163668556128

 2017-02-04 05:48:57.486079+01 | 1486183737.48608 | 26/1C81CEA8              |          163687026344

 2017-02-04 05:48:58.565545+01 | 1486183738.56555 | 26/1D9AA3B8              |          163705430968

 2017-02-04 05:48:59.652637+01 | 1486183739.65264 | 26/1EB7B428              |          163724112936

 2017-02-04 05:49:00.735813+01 | 1486183740.73581 | 26/1FDEC020              |          163743449120

 2017-02-04 05:49:01.816442+01 | 1486183741.81644 | 26/210D2F80              |          163763269504

 2017-02-04 05:49:02.9058+01 | 1486183742.9058 | 26/222DCD88              |          163782184328

 2017-02-04 05:49:03.984773+01 | 1486183743.98477 | 26/234C58A0              |          163800963232

 2017-02-04 05:49:05.070049+01 | 1486183745.07005 | 26/246BA230              |          163819790896

 2017-02-04 05:49:06.147487+01 | 1486183746.14749 | 26/258035D8              |          163837916632

 2017-02-04 05:49:07.235003+01 | 1486183747.235 | 26/269872C0              |          163856282304

 2017-02-04 05:49:08.315178+01 | 1486183748.31518 | 26/27B2D398              |          163874788248

 2017-02-04 05:49:09.399457+01 | 1486183749.39946 | 26/28C7DBA0              |          163892943776

 2017-02-04 05:49:10.484141+01 | 1486183750.48414 | 26/29E3E020              |          163911557152

 2017-02-04 05:49:11.562989+01 | 1486183751.56299 | 26/2AFD8DC8              |          163930017224

 2017-02-04 05:49:12.646025+01 | 1486183752.64602 | 26/2C1C9998              |          163948829080

 2017-02-04 05:49:13.738055+01 | 1486183753.73805 | 26/2D43F808              |          163968186376

 2017-02-04 05:49:14.825181+01 | 1486183754.82518 | 26/2E64BD60              |          163987111264

 2017-02-04 05:49:15.902728+01 | 1486183755.90273 | 26/2F740B88              |          164004891528

 2017-02-04 05:49:16.993541+01 | 1486183756.99354 | 26/3082B6C0              |          164022630080

 2017-02-04 05:49:18.074596+01 | 1486183758.0746 | 26/318A4688              |          164039902856

 2017-02-04 05:49:19.153283+01 | 1486183759.15328 | 26/327E0300              |          164055876352

 2017-02-04 05:49:20.23781+01 | 1486183760.23781 | 26/33917DE0              |          164073930208

 2017-02-04 05:49:21.31949+01 | 1486183761.31949 | 26/34A30468              |          164091855976

 2017-02-04 05:49:22.408073+01 | 1486183762.40807 | 26/35BA3F28              |          164110155560

 2017-02-04 05:49:23.495604+01 | 1486183763.4956 | 26/36D1EC18              |          164128484376

 2017-02-04 05:49:24.584885+01 | 1486183764.58488 | 26/37EAA280              |          164146881152

 2017-02-04 05:49:25.666744+01 | 1486183765.66674 | 26/39035F28              |          164165279528

 2017-02-04 05:49:26.751668+01 | 1486183766.75167 | 26/3A12D070              |          164183068784

 2017-02-04 05:49:27.835526+01 | 1486183767.83553 | 26/3B1EE868              |          164200638568

 2017-02-04 05:49:28.920255+01 | 1486183768.92025 | 26/3C267068              |          164217909352

 2017-02-04 05:49:29.997246+01 | 1486183769.99725 | 26/3D369388              |          164235744136

 2017-02-04 05:49:31.079357+01 | 1486183771.07936 | 26/3E44E820              |          164253460512

 2017-02-04 05:49:32.159789+01 | 1486183772.15979 | 26/3F557180              |          164271321472

 2017-02-04 05:49:33.251369+01 | 1486183773.25137 | 26/405BCBA8              |          164288514984

 2017-02-04 05:49:34.346498+01 | 1486183774.3465 | 26/416CF850              |          164306417744

 2017-02-04 05:49:35.432455+01 | 1486183775.43246 | 26/427F3338              |          164324389688

 2017-02-04 05:49:36.518597+01 | 1486183776.5186 | 26/4395D840              |          164342650944

 2017-02-04 05:49:37.603257+01 | 1486183777.60326 | 26/44AE29D0              |          164361021904

 2017-02-04 05:49:38.693044+01 | 1486183778.69304 | 26/45BEAEF0              |          164378881776

 2017-02-04 05:49:39.780041+01 | 1486183779.78004 | 26/46D9BBD0              |          164397431760

 2017-02-04 05:49:40.859874+01 | 1486183780.85987 | 26/47E353F0              |          164414837744

 2017-02-04 05:49:41.950561+01 | 1486183781.95056 | 26/48F28600              |          164432610816

 2017-02-04 05:49:43.028783+01 | 1486183783.02878 | 26/4A031F70              |          164450475888

 2017-02-04 05:49:44.114014+01 | 1486183784.11401 | 26/4B0AAAC8              |          164467747528

 2017-02-04 05:49:45.193856+01 | 1486183785.19386 | 26/4C1EAF30              |          164485836592

 2017-02-04 05:49:46.274235+01 | 1486183786.27424 | 26/4D2E6758              |          164503643992

 2017-02-04 05:49:47.364054+01 | 1486183787.36405 | 26/4E3A4378              |          164521198456

 2017-02-04 05:49:48.450627+01 | 1486183788.45063 | 26/4F471878              |          164538816632

 2017-02-04 05:49:49.538631+01 | 1486183789.53863 | 26/505EBD48              |          164557143368

 2017-02-04 05:49:50.618045+01 | 1486183790.61805 | 26/5177ADB8              |          164575555000

 2017-02-04 05:49:51.707722+01 | 1486183791.70772 | 26/5292DCD0              |          164594113744

 2017-02-04 05:49:52.788943+01 | 1486183792.78894 | 26/53AB6498              |          164612498584

 2017-02-04 05:49:53.869824+01 | 1486183793.86982 | 26/54C074F0              |          164630656240

 2017-02-04 05:49:54.952771+01 | 1486183794.95277 | 26/55C528E8              |          164647743160

 2017-02-04 05:49:56.035323+01 | 1486183796.03532 | 26/56DB7618              |          164665980440

 2017-02-04 05:49:57.11972+01 | 1486183797.11972 | 26/57ED56B0              |          164683929264

 2017-02-04 05:49:58.200096+01 | 1486183798.2001 | 26/59020638              |          164702062136

 2017-02-04 05:49:59.281795+01 | 1486183799.2818 | 26/5A1B4DE0              |          164720496096

 2017-02-04 05:50:00.375999+01 | 1486183800.376 | 26/5B3A9BE0              |          164739324896

 2017-02-04 05:50:01.441776+01 | 1486183801.44178 | 26/5C6F6408              |          164759561224

 2017-02-04 05:50:02.534042+01 | 1486183802.53404 | 26/5D9E11B8              |          164779397560

 2017-02-04 05:50:03.619619+01 | 1486183803.61962 | 26/5EC959A0              |          164799011232

 2017-02-04 05:50:04.708642+01 | 1486183804.70864 | 26/5FEADD98              |          164817984920

 2017-02-04 05:50:05.792767+01 | 1486183805.79277 | 26/61127D48              |          164837358920

 2017-02-04 05:50:06.877524+01 | 1486183806.87752 | 26/62248C20              |          164855319584

 2017-02-04 05:50:07.965015+01 | 1486183807.96501 | 26/63481318              |          164874425112

 2017-02-04 05:50:09.042948+01 | 1486183809.04295 | 26/6460F920              |          164892834080

 2017-02-04 05:50:10.124846+01 | 1486183810.12485 | 26/65779590              |          164911093136

 2017-02-04 05:50:11.206717+01 | 1486183811.20672 | 26/668D8170              |          164929306992

 2017-02-04 05:50:12.286493+01 | 1486183812.28649 | 26/67B34458              |          164948558936

 2017-02-04 05:50:13.375142+01 | 1486183813.37514 | 26/68E24FB0              |          164968419248

 2017-02-04 05:50:14.471639+01 | 1486183814.47164 | 26/6A0B2C08              |          164987874312

 2017-02-04 05:50:15.555743+01 | 1486183815.55574 | 26/6B22BCD0              |          165006195920

 2017-02-04 05:50:16.64397+01 | 1486183816.64397 | 26/6C369F38              |          165024276280

 2017-02-04 05:50:17.727387+01 | 1486183817.72739 | 26/6D507D00              |          165042748672

 2017-02-04 05:50:18.809226+01 | 1486183818.80923 | 26/6E6DA2A8              |          165061436072

 2017-02-04 05:50:19.897447+01 | 1486183819.89745 | 26/6F98BBA8              |          165081037736

 2017-02-04 05:50:20.982356+01 | 1486183820.98236 | 26/70BDD718              |          165100246808

 2017-02-04 05:50:22.062127+01 | 1486183822.06213 | 26/71D8B898              |          165118785688

 2017-02-04 05:50:23.14303+01 | 1486183823.14303 | 26/72F80CF0              |          165137616112

 2017-02-04 05:50:24.226802+01 | 1486183824.2268 | 26/740945D8              |          165155522008

 2017-02-04 05:50:25.30333+01 | 1486183825.30333 | 26/750CD5B8              |          165172532664

 2017-02-04 05:50:26.39996+01 | 1486183826.39996 | 26/762C74D8              |          165191382232

 2017-02-04 05:50:27.484421+01 | 1486183827.48442 | 26/774ED338              |          165210411832

 2017-02-04 05:50:28.567033+01 | 1486183828.56703 | 26/786B8850              |          165229070416

 2017-02-04 05:50:29.656957+01 | 1486183829.65696 | 26/798F5708              |          165248194312

 2017-02-04 05:50:30.743406+01 | 1486183830.74341 | 26/7AB79830              |          165267609648

 2017-02-04 05:50:31.829494+01 | 1486183831.82949 | 26/7BD06FD0              |          165286014928

 2017-02-04 05:50:32.907746+01 | 1486183832.90775 | 26/7CEB0378              |          165304533880

 2017-02-04 05:50:33.999578+01 | 1486183833.99958 | 26/7E078AB8              |          165323180728

 2017-02-04 05:50:35.077715+01 | 1486183835.07771 | 26/7F2371B8              |          165341786552

 2017-02-04 05:50:36.153586+01 | 1486183836.15359 | 26/80401940              |          165360441664

 2017-02-04 05:50:37.229214+01 | 1486183837.22921 | 26/815E9348              |          165379216200

 2017-02-04 05:50:38.311307+01 | 1486183838.31131 | 26/8270D0C0              |          165397188800

 2017-02-04 05:50:39.392587+01 | 1486183839.39259 | 26/8392B658              |          165416187480

 2017-02-04 05:50:40.478323+01 | 1486183840.47832 | 26/84AF8CC8              |          165434854600

 2017-02-04 05:50:41.560968+01 | 1486183841.56097 | 26/85C8F328              |          165453296424

 2017-02-04 05:50:42.647977+01 | 1486183842.64798 | 26/86E73FC0              |          165472059328

 2017-02-04 05:50:43.73142+01 | 1486183843.73142 | 26/88051120              |          165490790688

 2017-02-04 05:50:44.811664+01 | 1486183844.81166 | 26/8921F340              |          165509460800

 2017-02-04 05:50:45.890727+01 | 1486183845.89073 | 26/8A3D9B28              |          165528050472

 2017-02-04 05:50:46.973287+01 | 1486183846.97329 | 26/8B5592A0              |          165546398368

 2017-02-04 05:50:48.054892+01 | 1486183848.05489 | 26/8C751EC0              |          165565243072

 2017-02-04 05:50:49.135839+01 | 1486183849.13584 | 26/8D89D870              |          165583378544

 2017-02-04 05:50:50.222077+01 | 1486183850.22208 | 26/8EA052F0              |          165601628912

 2017-02-04 05:50:51.30758+01 | 1486183851.30758 | 26/8FB73158              |          165619904856

 2017-02-04 05:50:52.390811+01 | 1486183852.39081 | 26/90CFE1D0              |          165638300112

 2017-02-04 05:50:53.478486+01 | 1486183853.47849 | 26/91EB86C8              |          165656889032

 2017-02-04 05:50:54.566699+01 | 1486183854.5667 | 26/930DBB40              |          165675907904

 2017-02-04 05:50:55.654973+01 | 1486183855.65497 | 26/9427F658              |          165694404184

 2017-02-04 05:50:56.741648+01 | 1486183856.74165 | 26/952BCEC8              |          165711433416

 2017-02-04 05:50:57.828645+01 | 1486183857.82864 | 26/964CD570              |          165730375024

 2017-02-04 05:50:58.912834+01 | 1486183858.91283 | 26/975CD1E0              |          165748199904

 2017-02-04 05:51:00.002987+01 | 1486183860.00299 | 26/9876BDE0              |          165766675936

 2017-02-04 05:51:01.083202+01 | 1486183861.0832 | 26/999729A0              |          165785577888

 2017-02-04 05:51:02.16236+01 | 1486183862.16236 | 26/9AB703A0              |          165804442528

 2017-02-04 05:51:03.243183+01 | 1486183863.24318 | 26/9BDDD398              |          165823763352

 2017-02-04 05:51:04.325685+01 | 1486183864.32569 | 26/9CFCFE70              |          165842583152

 2017-02-04 05:51:05.410333+01 | 1486183865.41033 | 26/9E16C910              |          165861050640

 2017-02-04 05:51:06.487618+01 | 1486183866.48762 | 26/9F4BB030              |          165881294896

 2017-02-04 05:51:07.567172+01 | 1486183867.56717 | 26/A0725340              |          165900604224

 2017-02-04 05:51:08.652071+01 | 1486183868.65207 | 26/A1975538              |          165919806776

 2017-02-04 05:51:09.739075+01 | 1486183869.73907 | 26/A2C00760              |          165939251040

 2017-02-04 05:51:10.827426+01 | 1486183870.82743 | 26/A3DA6A98              |          165957757592

 2017-02-04 05:51:11.907002+01 | 1486183871.907 | 26/A4F81DD0              |          165976481232

 2017-02-04 05:51:12.998269+01 | 1486183872.99827 | 26/A6147530              |          165995115824

 2017-02-04 05:51:14.075851+01 | 1486183874.07585 | 26/A7362700              |          166014101248

 2017-02-04 05:51:15.152254+01 | 1486183875.15225 | 26/A8444BE0              |          166031805408

 2017-02-04 05:51:16.228244+01 | 1486183876.22824 | 26/A96CFEE0              |          166051249888

 2017-02-04 05:51:17.314591+01 | 1486183877.31459 | 26/AA8F6E78              |          166070283896

 2017-02-04 05:51:18.390497+01 | 1486183878.3905 | 26/ABBB7508              |          166089946376

 2017-02-04 05:51:19.478586+01 | 1486183879.47859 | 26/ACDBF3F0              |          166108853232

 2017-02-04 05:51:20.562118+01 | 1486183880.56212 | 26/ADF0F0B0              |          166127005872

 2017-02-04 05:51:21.643355+01 | 1486183881.64335 | 26/AF017AC0              |          166144867008

 2017-02-04 05:51:22.726774+01 | 1486183882.72677 | 26/B0128620              |          166162761248

 2017-02-04 05:51:23.813002+01 | 1486183883.813 | 26/B1300718              |          166181472024

 2017-02-04 05:51:24.890211+01 | 1486183884.89021 | 26/B2421C88              |          166199434376

 2017-02-04 05:51:25.97701+01 | 1486183885.97701 | 26/B3643BC8              |          166218447816

 2017-02-04 05:51:27.060377+01 | 1486183887.06038 | 26/B468D990              |          166235527568

 2017-02-04 05:51:28.141417+01 | 1486183888.14142 | 26/B588A5C0              |          166254388672

 2017-02-04 05:51:29.223616+01 | 1486183889.22362 | 26/B6AFD160              |          166273732960

 2017-02-04 05:51:30.302156+01 | 1486183890.30216 | 26/B7C5B2E0              |          166291944160

 2017-02-04 05:51:31.376951+01 | 1486183891.37695 | 26/B8D98958              |          166310021464

 2017-02-04 05:51:32.460585+01 | 1486183892.46059 | 26/B9F2C1B0              |          166328451504

 2017-02-04 05:51:33.549324+01 | 1486183893.54932 | 26/BB10EBF0              |          166347205616

 2017-02-04 05:51:34.632421+01 | 1486183894.63242 | 26/BC285C88              |          166365518984

 2017-02-04 05:51:35.715823+01 | 1486183895.71582 | 26/BD4A5408              |          166384522248

 2017-02-04 05:51:36.812316+01 | 1486183896.81232 | 26/BE62BED8              |          166402899672

 2017-02-04 05:51:37.900873+01 | 1486183897.90087 | 26/BF7E6E30              |          166421491248

 2017-02-04 05:51:38.985825+01 | 1486183898.98583 | 26/C0962060              |          166439821408

 2017-02-04 05:51:40.072631+01 | 1486183900.07263 | 26/C1A52510              |          166457582864

