 2017-02-05 05:15:54.594201+01 | 1486268154.5942 | pgbench_accounts |       1391968256
 2017-02-05 05:15:54.594201+01 | 1486268154.5942 | pgbench_tellers  |            49152
 2017-02-05 05:15:54.594201+01 | 1486268154.5942 | pgbench_history  |                0
 2017-02-05 05:15:54.594201+01 | 1486268154.5942 | pgbench_branches |             8192

 2017-02-05 05:15:55.67573+01 | 1486268155.67573 | pgbench_accounts |       1391968256
 2017-02-05 05:15:55.67573+01 | 1486268155.67573 | pgbench_tellers  |            49152
 2017-02-05 05:15:55.67573+01 | 1486268155.67573 | pgbench_history  |                0
 2017-02-05 05:15:55.67573+01 | 1486268155.67573 | pgbench_branches |             8192

 2017-02-05 05:15:56.7673+01 | 1486268156.7673 | pgbench_accounts |       1391968256
 2017-02-05 05:15:56.7673+01 | 1486268156.7673 | pgbench_tellers  |            49152
 2017-02-05 05:15:56.7673+01 | 1486268156.7673 | pgbench_history  |                0
 2017-02-05 05:15:56.7673+01 | 1486268156.7673 | pgbench_branches |             8192

 2017-02-05 05:15:57.848985+01 | 1486268157.84898 | pgbench_accounts |       1391968256
 2017-02-05 05:15:57.848985+01 | 1486268157.84898 | pgbench_tellers  |            49152
 2017-02-05 05:15:57.848985+01 | 1486268157.84898 | pgbench_history  |                0
 2017-02-05 05:15:57.848985+01 | 1486268157.84898 | pgbench_branches |             8192

 2017-02-05 05:15:58.928692+01 | 1486268158.92869 | pgbench_accounts |       1391968256
 2017-02-05 05:15:58.928692+01 | 1486268158.92869 | pgbench_tellers  |            49152
 2017-02-05 05:15:58.928692+01 | 1486268158.92869 | pgbench_history  |                0
 2017-02-05 05:15:58.928692+01 | 1486268158.92869 | pgbench_branches |             8192

 2017-02-05 05:16:00.006294+01 | 1486268160.00629 | pgbench_accounts |       1391968256
 2017-02-05 05:16:00.006294+01 | 1486268160.00629 | pgbench_tellers  |            49152
 2017-02-05 05:16:00.006294+01 | 1486268160.00629 | pgbench_history  |                0
 2017-02-05 05:16:00.006294+01 | 1486268160.00629 | pgbench_branches |             8192

 2017-02-05 05:16:01.078857+01 | 1486268161.07886 | pgbench_accounts |       1391968256
 2017-02-05 05:16:01.078857+01 | 1486268161.07886 | pgbench_tellers  |            49152
 2017-02-05 05:16:01.078857+01 | 1486268161.07886 | pgbench_history  |                0
 2017-02-05 05:16:01.078857+01 | 1486268161.07886 | pgbench_branches |             8192

 2017-02-05 05:16:02.156805+01 | 1486268162.15681 | pgbench_accounts |       1391968256
 2017-02-05 05:16:02.156805+01 | 1486268162.15681 | pgbench_tellers  |            49152
 2017-02-05 05:16:02.156805+01 | 1486268162.15681 | pgbench_history  |                0
 2017-02-05 05:16:02.156805+01 | 1486268162.15681 | pgbench_branches |             8192

 2017-02-05 05:16:03.230171+01 | 1486268163.23017 | pgbench_accounts |       1391968256
 2017-02-05 05:16:03.230171+01 | 1486268163.23017 | pgbench_tellers  |            49152
 2017-02-05 05:16:03.230171+01 | 1486268163.23017 | pgbench_history  |                0
 2017-02-05 05:16:03.230171+01 | 1486268163.23017 | pgbench_branches |             8192

 2017-02-05 05:16:04.309036+01 | 1486268164.30904 | pgbench_accounts |       1391968256
 2017-02-05 05:16:04.309036+01 | 1486268164.30904 | pgbench_tellers  |            49152
 2017-02-05 05:16:04.309036+01 | 1486268164.30904 | pgbench_history  |                0
 2017-02-05 05:16:04.309036+01 | 1486268164.30904 | pgbench_branches |             8192

 2017-02-05 05:16:05.381891+01 | 1486268165.38189 | pgbench_accounts |       1391968256
 2017-02-05 05:16:05.381891+01 | 1486268165.38189 | pgbench_tellers  |            49152
 2017-02-05 05:16:05.381891+01 | 1486268165.38189 | pgbench_history  |                0
 2017-02-05 05:16:05.381891+01 | 1486268165.38189 | pgbench_branches |             8192

 2017-02-05 05:16:06.45272+01 | 1486268166.45272 | pgbench_accounts |       1391968256
 2017-02-05 05:16:06.45272+01 | 1486268166.45272 | pgbench_tellers  |            49152
 2017-02-05 05:16:06.45272+01 | 1486268166.45272 | pgbench_history  |                0
 2017-02-05 05:16:06.45272+01 | 1486268166.45272 | pgbench_branches |             8192

 2017-02-05 05:16:07.5247+01 | 1486268167.5247 | pgbench_accounts |       1391968256
 2017-02-05 05:16:07.5247+01 | 1486268167.5247 | pgbench_tellers  |            49152
 2017-02-05 05:16:07.5247+01 | 1486268167.5247 | pgbench_history  |                0
 2017-02-05 05:16:07.5247+01 | 1486268167.5247 | pgbench_branches |             8192

 2017-02-05 05:16:08.598562+01 | 1486268168.59856 | pgbench_accounts |       1391968256
 2017-02-05 05:16:08.598562+01 | 1486268168.59856 | pgbench_tellers  |            49152
 2017-02-05 05:16:08.598562+01 | 1486268168.59856 | pgbench_history  |                0
 2017-02-05 05:16:08.598562+01 | 1486268168.59856 | pgbench_branches |             8192

 2017-02-05 05:16:09.672238+01 | 1486268169.67224 | pgbench_accounts |       1391968256
 2017-02-05 05:16:09.672238+01 | 1486268169.67224 | pgbench_tellers  |            49152
 2017-02-05 05:16:09.672238+01 | 1486268169.67224 | pgbench_history  |                0
 2017-02-05 05:16:09.672238+01 | 1486268169.67224 | pgbench_branches |             8192

 2017-02-05 05:16:10.747485+01 | 1486268170.74748 | pgbench_accounts |       1391968256
 2017-02-05 05:16:10.747485+01 | 1486268170.74748 | pgbench_tellers  |            49152
 2017-02-05 05:16:10.747485+01 | 1486268170.74748 | pgbench_history  |                0
 2017-02-05 05:16:10.747485+01 | 1486268170.74748 | pgbench_branches |             8192

 2017-02-05 05:16:11.822875+01 | 1486268171.82288 | pgbench_accounts |       1391968256
 2017-02-05 05:16:11.822875+01 | 1486268171.82288 | pgbench_tellers  |            49152
 2017-02-05 05:16:11.822875+01 | 1486268171.82288 | pgbench_history  |                0
 2017-02-05 05:16:11.822875+01 | 1486268171.82288 | pgbench_branches |             8192

 2017-02-05 05:16:12.897387+01 | 1486268172.89739 | pgbench_accounts |       1391968256
 2017-02-05 05:16:12.897387+01 | 1486268172.89739 | pgbench_tellers  |            49152
 2017-02-05 05:16:12.897387+01 | 1486268172.89739 | pgbench_history  |                0
 2017-02-05 05:16:12.897387+01 | 1486268172.89739 | pgbench_branches |             8192

 2017-02-05 05:16:13.971414+01 | 1486268173.97141 | pgbench_accounts |       1391968256
 2017-02-05 05:16:13.971414+01 | 1486268173.97141 | pgbench_tellers  |            49152
 2017-02-05 05:16:13.971414+01 | 1486268173.97141 | pgbench_history  |                0
 2017-02-05 05:16:13.971414+01 | 1486268173.97141 | pgbench_branches |             8192

 2017-02-05 05:16:15.046426+01 | 1486268175.04643 | pgbench_accounts |       1391968256
 2017-02-05 05:16:15.046426+01 | 1486268175.04643 | pgbench_tellers  |            49152
 2017-02-05 05:16:15.046426+01 | 1486268175.04643 | pgbench_history  |                0
 2017-02-05 05:16:15.046426+01 | 1486268175.04643 | pgbench_branches |             8192

 2017-02-05 05:16:16.121745+01 | 1486268176.12175 | pgbench_accounts |       1391968256
 2017-02-05 05:16:16.121745+01 | 1486268176.12175 | pgbench_tellers  |            49152
 2017-02-05 05:16:16.121745+01 | 1486268176.12175 | pgbench_history  |                0
 2017-02-05 05:16:16.121745+01 | 1486268176.12175 | pgbench_branches |             8192

 2017-02-05 05:16:17.190733+01 | 1486268177.19073 | pgbench_accounts |       1391968256
 2017-02-05 05:16:17.190733+01 | 1486268177.19073 | pgbench_tellers  |            49152
 2017-02-05 05:16:17.190733+01 | 1486268177.19073 | pgbench_history  |                0
 2017-02-05 05:16:17.190733+01 | 1486268177.19073 | pgbench_branches |             8192

 2017-02-05 05:16:18.261794+01 | 1486268178.26179 | pgbench_accounts |       1391968256
 2017-02-05 05:16:18.261794+01 | 1486268178.26179 | pgbench_tellers  |            49152
 2017-02-05 05:16:18.261794+01 | 1486268178.26179 | pgbench_history  |                0
 2017-02-05 05:16:18.261794+01 | 1486268178.26179 | pgbench_branches |             8192

 2017-02-05 05:16:19.336482+01 | 1486268179.33648 | pgbench_accounts |       1391968256
 2017-02-05 05:16:19.336482+01 | 1486268179.33648 | pgbench_tellers  |            49152
 2017-02-05 05:16:19.336482+01 | 1486268179.33648 | pgbench_history  |                0
 2017-02-05 05:16:19.336482+01 | 1486268179.33648 | pgbench_branches |             8192

 2017-02-05 05:16:20.409944+01 | 1486268180.40994 | pgbench_accounts |       1391968256
 2017-02-05 05:16:20.409944+01 | 1486268180.40994 | pgbench_tellers  |            49152
 2017-02-05 05:16:20.409944+01 | 1486268180.40994 | pgbench_history  |                0
 2017-02-05 05:16:20.409944+01 | 1486268180.40994 | pgbench_branches |             8192

 2017-02-05 05:16:21.479369+01 | 1486268181.47937 | pgbench_accounts |       1391968256
 2017-02-05 05:16:21.479369+01 | 1486268181.47937 | pgbench_tellers  |            49152
 2017-02-05 05:16:21.479369+01 | 1486268181.47937 | pgbench_history  |                0
 2017-02-05 05:16:21.479369+01 | 1486268181.47937 | pgbench_branches |             8192

 2017-02-05 05:16:22.556172+01 | 1486268182.55617 | pgbench_accounts |       1391968256
 2017-02-05 05:16:22.556172+01 | 1486268182.55617 | pgbench_tellers  |            49152
 2017-02-05 05:16:22.556172+01 | 1486268182.55617 | pgbench_history  |                0
 2017-02-05 05:16:22.556172+01 | 1486268182.55617 | pgbench_branches |             8192

 2017-02-05 05:16:23.630871+01 | 1486268183.63087 | pgbench_accounts |       1391968256
 2017-02-05 05:16:23.630871+01 | 1486268183.63087 | pgbench_tellers  |            49152
 2017-02-05 05:16:23.630871+01 | 1486268183.63087 | pgbench_history  |                0
 2017-02-05 05:16:23.630871+01 | 1486268183.63087 | pgbench_branches |             8192

 2017-02-05 05:16:24.710169+01 | 1486268184.71017 | pgbench_accounts |       1391968256
 2017-02-05 05:16:24.710169+01 | 1486268184.71017 | pgbench_tellers  |            49152
 2017-02-05 05:16:24.710169+01 | 1486268184.71017 | pgbench_history  |                0
 2017-02-05 05:16:24.710169+01 | 1486268184.71017 | pgbench_branches |             8192

 2017-02-05 05:16:25.784439+01 | 1486268185.78444 | pgbench_accounts |       1391968256
 2017-02-05 05:16:25.784439+01 | 1486268185.78444 | pgbench_tellers  |            49152
 2017-02-05 05:16:25.784439+01 | 1486268185.78444 | pgbench_history  |                0
 2017-02-05 05:16:25.784439+01 | 1486268185.78444 | pgbench_branches |             8192

 2017-02-05 05:16:26.856604+01 | 1486268186.8566 | pgbench_accounts |       1391968256
 2017-02-05 05:16:26.856604+01 | 1486268186.8566 | pgbench_tellers  |            49152
 2017-02-05 05:16:26.856604+01 | 1486268186.8566 | pgbench_history  |                0
 2017-02-05 05:16:26.856604+01 | 1486268186.8566 | pgbench_branches |             8192

 2017-02-05 05:16:27.929315+01 | 1486268187.92932 | pgbench_accounts |       1391968256
 2017-02-05 05:16:27.929315+01 | 1486268187.92932 | pgbench_tellers  |            49152
 2017-02-05 05:16:27.929315+01 | 1486268187.92932 | pgbench_history  |                0
 2017-02-05 05:16:27.929315+01 | 1486268187.92932 | pgbench_branches |             8192

 2017-02-05 05:16:29.008919+01 | 1486268189.00892 | pgbench_accounts |       1391968256
 2017-02-05 05:16:29.008919+01 | 1486268189.00892 | pgbench_tellers  |            49152
 2017-02-05 05:16:29.008919+01 | 1486268189.00892 | pgbench_history  |                0
 2017-02-05 05:16:29.008919+01 | 1486268189.00892 | pgbench_branches |             8192

 2017-02-05 05:16:30.082745+01 | 1486268190.08275 | pgbench_accounts |       1391968256
 2017-02-05 05:16:30.082745+01 | 1486268190.08275 | pgbench_tellers  |            49152
 2017-02-05 05:16:30.082745+01 | 1486268190.08275 | pgbench_history  |                0
 2017-02-05 05:16:30.082745+01 | 1486268190.08275 | pgbench_branches |             8192

 2017-02-05 05:16:31.159044+01 | 1486268191.15904 | pgbench_accounts |       1391968256
 2017-02-05 05:16:31.159044+01 | 1486268191.15904 | pgbench_tellers  |            49152
 2017-02-05 05:16:31.159044+01 | 1486268191.15904 | pgbench_history  |                0
 2017-02-05 05:16:31.159044+01 | 1486268191.15904 | pgbench_branches |             8192

 2017-02-05 05:16:32.23994+01 | 1486268192.23994 | pgbench_accounts |       1391968256
 2017-02-05 05:16:32.23994+01 | 1486268192.23994 | pgbench_tellers  |            49152
 2017-02-05 05:16:32.23994+01 | 1486268192.23994 | pgbench_history  |                0
 2017-02-05 05:16:32.23994+01 | 1486268192.23994 | pgbench_branches |             8192

 2017-02-05 05:16:33.315557+01 | 1486268193.31556 | pgbench_accounts |       1391968256
 2017-02-05 05:16:33.315557+01 | 1486268193.31556 | pgbench_tellers  |            49152
 2017-02-05 05:16:33.315557+01 | 1486268193.31556 | pgbench_history  |                0
 2017-02-05 05:16:33.315557+01 | 1486268193.31556 | pgbench_branches |             8192

 2017-02-05 05:16:34.390998+01 | 1486268194.391 | pgbench_accounts |       1391968256
 2017-02-05 05:16:34.390998+01 | 1486268194.391 | pgbench_tellers  |            49152
 2017-02-05 05:16:34.390998+01 | 1486268194.391 | pgbench_history  |                0
 2017-02-05 05:16:34.390998+01 | 1486268194.391 | pgbench_branches |             8192

 2017-02-05 05:16:35.462103+01 | 1486268195.4621 | pgbench_accounts |       1391968256
 2017-02-05 05:16:35.462103+01 | 1486268195.4621 | pgbench_tellers  |            49152
 2017-02-05 05:16:35.462103+01 | 1486268195.4621 | pgbench_history  |                0
 2017-02-05 05:16:35.462103+01 | 1486268195.4621 | pgbench_branches |             8192

 2017-02-05 05:16:36.54023+01 | 1486268196.54023 | pgbench_accounts |       1391968256
 2017-02-05 05:16:36.54023+01 | 1486268196.54023 | pgbench_tellers  |            49152
 2017-02-05 05:16:36.54023+01 | 1486268196.54023 | pgbench_history  |                0
 2017-02-05 05:16:36.54023+01 | 1486268196.54023 | pgbench_branches |             8192

 2017-02-05 05:16:37.615163+01 | 1486268197.61516 | pgbench_accounts |       1391968256
 2017-02-05 05:16:37.615163+01 | 1486268197.61516 | pgbench_tellers  |            49152
 2017-02-05 05:16:37.615163+01 | 1486268197.61516 | pgbench_history  |                0
 2017-02-05 05:16:37.615163+01 | 1486268197.61516 | pgbench_branches |             8192

 2017-02-05 05:16:38.691013+01 | 1486268198.69101 | pgbench_accounts |       1391968256
 2017-02-05 05:16:38.691013+01 | 1486268198.69101 | pgbench_tellers  |            49152
 2017-02-05 05:16:38.691013+01 | 1486268198.69101 | pgbench_history  |                0
 2017-02-05 05:16:38.691013+01 | 1486268198.69101 | pgbench_branches |             8192

 2017-02-05 05:16:39.765741+01 | 1486268199.76574 | pgbench_accounts |       1391968256
 2017-02-05 05:16:39.765741+01 | 1486268199.76574 | pgbench_tellers  |            49152
 2017-02-05 05:16:39.765741+01 | 1486268199.76574 | pgbench_history  |                0
 2017-02-05 05:16:39.765741+01 | 1486268199.76574 | pgbench_branches |             8192

 2017-02-05 05:16:40.838192+01 | 1486268200.83819 | pgbench_accounts |       1391968256
 2017-02-05 05:16:40.838192+01 | 1486268200.83819 | pgbench_tellers  |            49152
 2017-02-05 05:16:40.838192+01 | 1486268200.83819 | pgbench_history  |                0
 2017-02-05 05:16:40.838192+01 | 1486268200.83819 | pgbench_branches |             8192

 2017-02-05 05:16:41.910481+01 | 1486268201.91048 | pgbench_accounts |       1391968256
 2017-02-05 05:16:41.910481+01 | 1486268201.91048 | pgbench_tellers  |            49152
 2017-02-05 05:16:41.910481+01 | 1486268201.91048 | pgbench_history  |                0
 2017-02-05 05:16:41.910481+01 | 1486268201.91048 | pgbench_branches |             8192

 2017-02-05 05:16:42.983643+01 | 1486268202.98364 | pgbench_accounts |       1391968256
 2017-02-05 05:16:42.983643+01 | 1486268202.98364 | pgbench_tellers  |            49152
 2017-02-05 05:16:42.983643+01 | 1486268202.98364 | pgbench_history  |                0
 2017-02-05 05:16:42.983643+01 | 1486268202.98364 | pgbench_branches |             8192

 2017-02-05 05:16:44.064118+01 | 1486268204.06412 | pgbench_accounts |       1391968256
 2017-02-05 05:16:44.064118+01 | 1486268204.06412 | pgbench_tellers  |            49152
 2017-02-05 05:16:44.064118+01 | 1486268204.06412 | pgbench_history  |                0
 2017-02-05 05:16:44.064118+01 | 1486268204.06412 | pgbench_branches |             8192

 2017-02-05 05:16:45.132244+01 | 1486268205.13224 | pgbench_accounts |       1391968256
 2017-02-05 05:16:45.132244+01 | 1486268205.13224 | pgbench_tellers  |            49152
 2017-02-05 05:16:45.132244+01 | 1486268205.13224 | pgbench_history  |                0
 2017-02-05 05:16:45.132244+01 | 1486268205.13224 | pgbench_branches |             8192

 2017-02-05 05:16:46.206719+01 | 1486268206.20672 | pgbench_accounts |       1391968256
 2017-02-05 05:16:46.206719+01 | 1486268206.20672 | pgbench_tellers  |            49152
 2017-02-05 05:16:46.206719+01 | 1486268206.20672 | pgbench_history  |                0
 2017-02-05 05:16:46.206719+01 | 1486268206.20672 | pgbench_branches |             8192

 2017-02-05 05:16:47.288165+01 | 1486268207.28817 | pgbench_accounts |       1391968256
 2017-02-05 05:16:47.288165+01 | 1486268207.28817 | pgbench_tellers  |            49152
 2017-02-05 05:16:47.288165+01 | 1486268207.28817 | pgbench_history  |                0
 2017-02-05 05:16:47.288165+01 | 1486268207.28817 | pgbench_branches |             8192

 2017-02-05 05:16:48.363894+01 | 1486268208.36389 | pgbench_accounts |       1391968256
 2017-02-05 05:16:48.363894+01 | 1486268208.36389 | pgbench_tellers  |            49152
 2017-02-05 05:16:48.363894+01 | 1486268208.36389 | pgbench_history  |                0
 2017-02-05 05:16:48.363894+01 | 1486268208.36389 | pgbench_branches |             8192

 2017-02-05 05:16:49.442037+01 | 1486268209.44204 | pgbench_accounts |       1391968256
 2017-02-05 05:16:49.442037+01 | 1486268209.44204 | pgbench_tellers  |            49152
 2017-02-05 05:16:49.442037+01 | 1486268209.44204 | pgbench_history  |                0
 2017-02-05 05:16:49.442037+01 | 1486268209.44204 | pgbench_branches |             8192

 2017-02-05 05:16:50.532313+01 | 1486268210.53231 | pgbench_accounts |       1391968256
 2017-02-05 05:16:50.532313+01 | 1486268210.53231 | pgbench_tellers  |            49152
 2017-02-05 05:16:50.532313+01 | 1486268210.53231 | pgbench_history  |                0
 2017-02-05 05:16:50.532313+01 | 1486268210.53231 | pgbench_branches |             8192

 2017-02-05 05:16:51.607943+01 | 1486268211.60794 | pgbench_accounts |       1391968256
 2017-02-05 05:16:51.607943+01 | 1486268211.60794 | pgbench_tellers  |            49152
 2017-02-05 05:16:51.607943+01 | 1486268211.60794 | pgbench_history  |                0
 2017-02-05 05:16:51.607943+01 | 1486268211.60794 | pgbench_branches |             8192

 2017-02-05 05:16:52.692041+01 | 1486268212.69204 | pgbench_accounts |       1391968256
 2017-02-05 05:16:52.692041+01 | 1486268212.69204 | pgbench_tellers  |            49152
 2017-02-05 05:16:52.692041+01 | 1486268212.69204 | pgbench_history  |                0
 2017-02-05 05:16:52.692041+01 | 1486268212.69204 | pgbench_branches |             8192

 2017-02-05 05:16:53.769463+01 | 1486268213.76946 | pgbench_accounts |       1391968256
 2017-02-05 05:16:53.769463+01 | 1486268213.76946 | pgbench_tellers  |            49152
 2017-02-05 05:16:53.769463+01 | 1486268213.76946 | pgbench_history  |                0
 2017-02-05 05:16:53.769463+01 | 1486268213.76946 | pgbench_branches |             8192

 2017-02-05 05:16:54.845857+01 | 1486268214.84586 | pgbench_accounts |       1391968256
 2017-02-05 05:16:54.845857+01 | 1486268214.84586 | pgbench_tellers  |            49152
 2017-02-05 05:16:54.845857+01 | 1486268214.84586 | pgbench_history  |                0
 2017-02-05 05:16:54.845857+01 | 1486268214.84586 | pgbench_branches |             8192

 2017-02-05 05:16:55.921351+01 | 1486268215.92135 | pgbench_accounts |       1391968256
 2017-02-05 05:16:55.921351+01 | 1486268215.92135 | pgbench_tellers  |            49152
 2017-02-05 05:16:55.921351+01 | 1486268215.92135 | pgbench_history  |                0
 2017-02-05 05:16:55.921351+01 | 1486268215.92135 | pgbench_branches |             8192

 2017-02-05 05:16:57.011334+01 | 1486268217.01133 | pgbench_accounts |       1391968256
 2017-02-05 05:16:57.011334+01 | 1486268217.01133 | pgbench_tellers  |            49152
 2017-02-05 05:16:57.011334+01 | 1486268217.01133 | pgbench_history  |                0
 2017-02-05 05:16:57.011334+01 | 1486268217.01133 | pgbench_branches |             8192

 2017-02-05 05:16:58.084326+01 | 1486268218.08433 | pgbench_accounts |       1391968256
 2017-02-05 05:16:58.084326+01 | 1486268218.08433 | pgbench_tellers  |            49152
 2017-02-05 05:16:58.084326+01 | 1486268218.08433 | pgbench_history  |                0
 2017-02-05 05:16:58.084326+01 | 1486268218.08433 | pgbench_branches |             8192

 2017-02-05 05:16:59.158655+01 | 1486268219.15865 | pgbench_accounts |       1391968256
 2017-02-05 05:16:59.158655+01 | 1486268219.15865 | pgbench_tellers  |            49152
 2017-02-05 05:16:59.158655+01 | 1486268219.15865 | pgbench_history  |                0
 2017-02-05 05:16:59.158655+01 | 1486268219.15865 | pgbench_branches |             8192

 2017-02-05 05:17:00.230238+01 | 1486268220.23024 | pgbench_accounts |       1391968256
 2017-02-05 05:17:00.230238+01 | 1486268220.23024 | pgbench_tellers  |            49152
 2017-02-05 05:17:00.230238+01 | 1486268220.23024 | pgbench_history  |                0
 2017-02-05 05:17:00.230238+01 | 1486268220.23024 | pgbench_branches |             8192

 2017-02-05 05:17:01.303925+01 | 1486268221.30393 | pgbench_accounts |       1391968256
 2017-02-05 05:17:01.303925+01 | 1486268221.30393 | pgbench_tellers  |            49152
 2017-02-05 05:17:01.303925+01 | 1486268221.30393 | pgbench_history  |                0
 2017-02-05 05:17:01.303925+01 | 1486268221.30393 | pgbench_branches |             8192

 2017-02-05 05:17:02.380761+01 | 1486268222.38076 | pgbench_accounts |       1391968256
 2017-02-05 05:17:02.380761+01 | 1486268222.38076 | pgbench_tellers  |            49152
 2017-02-05 05:17:02.380761+01 | 1486268222.38076 | pgbench_history  |                0
 2017-02-05 05:17:02.380761+01 | 1486268222.38076 | pgbench_branches |             8192

 2017-02-05 05:17:03.454982+01 | 1486268223.45498 | pgbench_accounts |       1391968256
 2017-02-05 05:17:03.454982+01 | 1486268223.45498 | pgbench_tellers  |            49152
 2017-02-05 05:17:03.454982+01 | 1486268223.45498 | pgbench_history  |                0
 2017-02-05 05:17:03.454982+01 | 1486268223.45498 | pgbench_branches |             8192

 2017-02-05 05:17:04.530969+01 | 1486268224.53097 | pgbench_accounts |       1391968256
 2017-02-05 05:17:04.530969+01 | 1486268224.53097 | pgbench_tellers  |            49152
 2017-02-05 05:17:04.530969+01 | 1486268224.53097 | pgbench_history  |                0
 2017-02-05 05:17:04.530969+01 | 1486268224.53097 | pgbench_branches |             8192

 2017-02-05 05:17:05.605247+01 | 1486268225.60525 | pgbench_accounts |       1391968256
 2017-02-05 05:17:05.605247+01 | 1486268225.60525 | pgbench_tellers  |            49152
 2017-02-05 05:17:05.605247+01 | 1486268225.60525 | pgbench_history  |                0
 2017-02-05 05:17:05.605247+01 | 1486268225.60525 | pgbench_branches |             8192

 2017-02-05 05:17:06.678802+01 | 1486268226.6788 | pgbench_accounts |       1391968256
 2017-02-05 05:17:06.678802+01 | 1486268226.6788 | pgbench_tellers  |            49152
 2017-02-05 05:17:06.678802+01 | 1486268226.6788 | pgbench_history  |                0
 2017-02-05 05:17:06.678802+01 | 1486268226.6788 | pgbench_branches |             8192

 2017-02-05 05:17:07.748804+01 | 1486268227.7488 | pgbench_accounts |       1391968256
 2017-02-05 05:17:07.748804+01 | 1486268227.7488 | pgbench_tellers  |            49152
 2017-02-05 05:17:07.748804+01 | 1486268227.7488 | pgbench_history  |                0
 2017-02-05 05:17:07.748804+01 | 1486268227.7488 | pgbench_branches |             8192

 2017-02-05 05:17:08.823706+01 | 1486268228.82371 | pgbench_accounts |       1391968256
 2017-02-05 05:17:08.823706+01 | 1486268228.82371 | pgbench_tellers  |            49152
 2017-02-05 05:17:08.823706+01 | 1486268228.82371 | pgbench_history  |                0
 2017-02-05 05:17:08.823706+01 | 1486268228.82371 | pgbench_branches |             8192

 2017-02-05 05:17:09.898506+01 | 1486268229.89851 | pgbench_accounts |       1391968256
 2017-02-05 05:17:09.898506+01 | 1486268229.89851 | pgbench_tellers  |            49152
 2017-02-05 05:17:09.898506+01 | 1486268229.89851 | pgbench_history  |                0
 2017-02-05 05:17:09.898506+01 | 1486268229.89851 | pgbench_branches |             8192

 2017-02-05 05:17:10.971753+01 | 1486268230.97175 | pgbench_accounts |       1391968256
 2017-02-05 05:17:10.971753+01 | 1486268230.97175 | pgbench_tellers  |            49152
 2017-02-05 05:17:10.971753+01 | 1486268230.97175 | pgbench_history  |                0
 2017-02-05 05:17:10.971753+01 | 1486268230.97175 | pgbench_branches |             8192

 2017-02-05 05:17:12.046754+01 | 1486268232.04675 | pgbench_accounts |       1391968256
 2017-02-05 05:17:12.046754+01 | 1486268232.04675 | pgbench_tellers  |            49152
 2017-02-05 05:17:12.046754+01 | 1486268232.04675 | pgbench_history  |                0
 2017-02-05 05:17:12.046754+01 | 1486268232.04675 | pgbench_branches |             8192

 2017-02-05 05:17:13.129304+01 | 1486268233.1293 | pgbench_accounts |       1391968256
 2017-02-05 05:17:13.129304+01 | 1486268233.1293 | pgbench_tellers  |            49152
 2017-02-05 05:17:13.129304+01 | 1486268233.1293 | pgbench_history  |                0
 2017-02-05 05:17:13.129304+01 | 1486268233.1293 | pgbench_branches |             8192

 2017-02-05 05:17:14.202629+01 | 1486268234.20263 | pgbench_accounts |       1391968256
 2017-02-05 05:17:14.202629+01 | 1486268234.20263 | pgbench_tellers  |            49152
 2017-02-05 05:17:14.202629+01 | 1486268234.20263 | pgbench_history  |                0
 2017-02-05 05:17:14.202629+01 | 1486268234.20263 | pgbench_branches |             8192

 2017-02-05 05:17:15.274466+01 | 1486268235.27447 | pgbench_accounts |       1391968256
 2017-02-05 05:17:15.274466+01 | 1486268235.27447 | pgbench_tellers  |            49152
 2017-02-05 05:17:15.274466+01 | 1486268235.27447 | pgbench_history  |                0
 2017-02-05 05:17:15.274466+01 | 1486268235.27447 | pgbench_branches |             8192

 2017-02-05 05:17:16.343578+01 | 1486268236.34358 | pgbench_accounts |       1391968256
 2017-02-05 05:17:16.343578+01 | 1486268236.34358 | pgbench_tellers  |            49152
 2017-02-05 05:17:16.343578+01 | 1486268236.34358 | pgbench_history  |                0
 2017-02-05 05:17:16.343578+01 | 1486268236.34358 | pgbench_branches |             8192

 2017-02-05 05:17:17.419524+01 | 1486268237.41952 | pgbench_accounts |       1391968256
 2017-02-05 05:17:17.419524+01 | 1486268237.41952 | pgbench_tellers  |            49152
 2017-02-05 05:17:17.419524+01 | 1486268237.41952 | pgbench_history  |                0
 2017-02-05 05:17:17.419524+01 | 1486268237.41952 | pgbench_branches |             8192

 2017-02-05 05:17:18.49275+01 | 1486268238.49275 | pgbench_accounts |       1391968256
 2017-02-05 05:17:18.49275+01 | 1486268238.49275 | pgbench_tellers  |            49152
 2017-02-05 05:17:18.49275+01 | 1486268238.49275 | pgbench_history  |                0
 2017-02-05 05:17:18.49275+01 | 1486268238.49275 | pgbench_branches |             8192

 2017-02-05 05:17:19.570886+01 | 1486268239.57089 | pgbench_accounts |       1391968256
 2017-02-05 05:17:19.570886+01 | 1486268239.57089 | pgbench_tellers  |            49152
 2017-02-05 05:17:19.570886+01 | 1486268239.57089 | pgbench_history  |                0
 2017-02-05 05:17:19.570886+01 | 1486268239.57089 | pgbench_branches |             8192

 2017-02-05 05:17:20.643589+01 | 1486268240.64359 | pgbench_accounts |       1391968256
 2017-02-05 05:17:20.643589+01 | 1486268240.64359 | pgbench_tellers  |            49152
 2017-02-05 05:17:20.643589+01 | 1486268240.64359 | pgbench_history  |                0
 2017-02-05 05:17:20.643589+01 | 1486268240.64359 | pgbench_branches |             8192

 2017-02-05 05:17:21.716737+01 | 1486268241.71674 | pgbench_accounts |       1391968256
 2017-02-05 05:17:21.716737+01 | 1486268241.71674 | pgbench_tellers  |            49152
 2017-02-05 05:17:21.716737+01 | 1486268241.71674 | pgbench_history  |                0
 2017-02-05 05:17:21.716737+01 | 1486268241.71674 | pgbench_branches |             8192

 2017-02-05 05:17:22.786346+01 | 1486268242.78635 | pgbench_accounts |       1391968256
 2017-02-05 05:17:22.786346+01 | 1486268242.78635 | pgbench_tellers  |            49152
 2017-02-05 05:17:22.786346+01 | 1486268242.78635 | pgbench_history  |                0
 2017-02-05 05:17:22.786346+01 | 1486268242.78635 | pgbench_branches |             8192

 2017-02-05 05:17:23.860149+01 | 1486268243.86015 | pgbench_accounts |       1391968256
 2017-02-05 05:17:23.860149+01 | 1486268243.86015 | pgbench_tellers  |            49152
 2017-02-05 05:17:23.860149+01 | 1486268243.86015 | pgbench_history  |                0
 2017-02-05 05:17:23.860149+01 | 1486268243.86015 | pgbench_branches |             8192

 2017-02-05 05:17:24.933342+01 | 1486268244.93334 | pgbench_accounts |       1391968256
 2017-02-05 05:17:24.933342+01 | 1486268244.93334 | pgbench_tellers  |            49152
 2017-02-05 05:17:24.933342+01 | 1486268244.93334 | pgbench_history  |                0
 2017-02-05 05:17:24.933342+01 | 1486268244.93334 | pgbench_branches |             8192

 2017-02-05 05:17:26.014738+01 | 1486268246.01474 | pgbench_accounts |       1391968256
 2017-02-05 05:17:26.014738+01 | 1486268246.01474 | pgbench_tellers  |            49152
 2017-02-05 05:17:26.014738+01 | 1486268246.01474 | pgbench_history  |                0
 2017-02-05 05:17:26.014738+01 | 1486268246.01474 | pgbench_branches |             8192

 2017-02-05 05:17:27.089272+01 | 1486268247.08927 | pgbench_accounts |       1391968256
 2017-02-05 05:17:27.089272+01 | 1486268247.08927 | pgbench_tellers  |            49152
 2017-02-05 05:17:27.089272+01 | 1486268247.08927 | pgbench_history  |                0
 2017-02-05 05:17:27.089272+01 | 1486268247.08927 | pgbench_branches |             8192

 2017-02-05 05:17:28.163349+01 | 1486268248.16335 | pgbench_accounts |       1391968256
 2017-02-05 05:17:28.163349+01 | 1486268248.16335 | pgbench_tellers  |            49152
 2017-02-05 05:17:28.163349+01 | 1486268248.16335 | pgbench_history  |                0
 2017-02-05 05:17:28.163349+01 | 1486268248.16335 | pgbench_branches |             8192

 2017-02-05 05:17:29.236933+01 | 1486268249.23693 | pgbench_accounts |       1391968256
 2017-02-05 05:17:29.236933+01 | 1486268249.23693 | pgbench_tellers  |            49152
 2017-02-05 05:17:29.236933+01 | 1486268249.23693 | pgbench_history  |                0
 2017-02-05 05:17:29.236933+01 | 1486268249.23693 | pgbench_branches |             8192

 2017-02-05 05:17:30.31355+01 | 1486268250.31355 | pgbench_accounts |       1391968256
 2017-02-05 05:17:30.31355+01 | 1486268250.31355 | pgbench_tellers  |            49152
 2017-02-05 05:17:30.31355+01 | 1486268250.31355 | pgbench_history  |                0
 2017-02-05 05:17:30.31355+01 | 1486268250.31355 | pgbench_branches |             8192

 2017-02-05 05:17:31.392268+01 | 1486268251.39227 | pgbench_accounts |       1391968256
 2017-02-05 05:17:31.392268+01 | 1486268251.39227 | pgbench_tellers  |            49152
 2017-02-05 05:17:31.392268+01 | 1486268251.39227 | pgbench_history  |                0
 2017-02-05 05:17:31.392268+01 | 1486268251.39227 | pgbench_branches |             8192

 2017-02-05 05:17:32.465745+01 | 1486268252.46574 | pgbench_accounts |       1391968256
 2017-02-05 05:17:32.465745+01 | 1486268252.46574 | pgbench_tellers  |            49152
 2017-02-05 05:17:32.465745+01 | 1486268252.46574 | pgbench_history  |                0
 2017-02-05 05:17:32.465745+01 | 1486268252.46574 | pgbench_branches |             8192

 2017-02-05 05:17:33.545918+01 | 1486268253.54592 | pgbench_accounts |       1391968256
 2017-02-05 05:17:33.545918+01 | 1486268253.54592 | pgbench_tellers  |            49152
 2017-02-05 05:17:33.545918+01 | 1486268253.54592 | pgbench_history  |                0
 2017-02-05 05:17:33.545918+01 | 1486268253.54592 | pgbench_branches |             8192

 2017-02-05 05:17:34.621622+01 | 1486268254.62162 | pgbench_accounts |       1391968256
 2017-02-05 05:17:34.621622+01 | 1486268254.62162 | pgbench_tellers  |            49152
 2017-02-05 05:17:34.621622+01 | 1486268254.62162 | pgbench_history  |                0
 2017-02-05 05:17:34.621622+01 | 1486268254.62162 | pgbench_branches |             8192

 2017-02-05 05:17:35.693867+01 | 1486268255.69387 | pgbench_accounts |       1391968256
 2017-02-05 05:17:35.693867+01 | 1486268255.69387 | pgbench_tellers  |            49152
 2017-02-05 05:17:35.693867+01 | 1486268255.69387 | pgbench_history  |                0
 2017-02-05 05:17:35.693867+01 | 1486268255.69387 | pgbench_branches |             8192

 2017-02-05 05:17:36.765964+01 | 1486268256.76596 | pgbench_accounts |       1391968256
 2017-02-05 05:17:36.765964+01 | 1486268256.76596 | pgbench_tellers  |            49152
 2017-02-05 05:17:36.765964+01 | 1486268256.76596 | pgbench_history  |                0
 2017-02-05 05:17:36.765964+01 | 1486268256.76596 | pgbench_branches |             8192

 2017-02-05 05:17:37.83716+01 | 1486268257.83716 | pgbench_accounts |       1391968256
 2017-02-05 05:17:37.83716+01 | 1486268257.83716 | pgbench_tellers  |            49152
 2017-02-05 05:17:37.83716+01 | 1486268257.83716 | pgbench_history  |                0
 2017-02-05 05:17:37.83716+01 | 1486268257.83716 | pgbench_branches |             8192

 2017-02-05 05:17:38.910122+01 | 1486268258.91012 | pgbench_accounts |       1391968256
 2017-02-05 05:17:38.910122+01 | 1486268258.91012 | pgbench_tellers  |            49152
 2017-02-05 05:17:38.910122+01 | 1486268258.91012 | pgbench_history  |                0
 2017-02-05 05:17:38.910122+01 | 1486268258.91012 | pgbench_branches |             8192

 2017-02-05 05:17:39.989566+01 | 1486268259.98957 | pgbench_accounts |       1391968256
 2017-02-05 05:17:39.989566+01 | 1486268259.98957 | pgbench_tellers  |            49152
 2017-02-05 05:17:39.989566+01 | 1486268259.98957 | pgbench_history  |                0
 2017-02-05 05:17:39.989566+01 | 1486268259.98957 | pgbench_branches |             8192

 2017-02-05 05:17:41.063569+01 | 1486268261.06357 | pgbench_accounts |       1391968256
 2017-02-05 05:17:41.063569+01 | 1486268261.06357 | pgbench_tellers  |            49152
 2017-02-05 05:17:41.063569+01 | 1486268261.06357 | pgbench_history  |                0
 2017-02-05 05:17:41.063569+01 | 1486268261.06357 | pgbench_branches |             8192

 2017-02-05 05:17:42.139999+01 | 1486268262.14 | pgbench_accounts |       1391968256
 2017-02-05 05:17:42.139999+01 | 1486268262.14 | pgbench_tellers  |            49152
 2017-02-05 05:17:42.139999+01 | 1486268262.14 | pgbench_history  |                0
 2017-02-05 05:17:42.139999+01 | 1486268262.14 | pgbench_branches |             8192

 2017-02-05 05:17:43.214507+01 | 1486268263.21451 | pgbench_accounts |       1391968256
 2017-02-05 05:17:43.214507+01 | 1486268263.21451 | pgbench_tellers  |            49152
 2017-02-05 05:17:43.214507+01 | 1486268263.21451 | pgbench_history  |                0
 2017-02-05 05:17:43.214507+01 | 1486268263.21451 | pgbench_branches |             8192

 2017-02-05 05:17:44.286227+01 | 1486268264.28623 | pgbench_accounts |       1391968256
 2017-02-05 05:17:44.286227+01 | 1486268264.28623 | pgbench_tellers  |            49152
 2017-02-05 05:17:44.286227+01 | 1486268264.28623 | pgbench_history  |                0
 2017-02-05 05:17:44.286227+01 | 1486268264.28623 | pgbench_branches |             8192

 2017-02-05 05:17:45.359545+01 | 1486268265.35954 | pgbench_accounts |       1391968256
 2017-02-05 05:17:45.359545+01 | 1486268265.35954 | pgbench_tellers  |            49152
 2017-02-05 05:17:45.359545+01 | 1486268265.35954 | pgbench_history  |                0
 2017-02-05 05:17:45.359545+01 | 1486268265.35954 | pgbench_branches |             8192

 2017-02-05 05:17:46.432884+01 | 1486268266.43288 | pgbench_accounts |       1391968256
 2017-02-05 05:17:46.432884+01 | 1486268266.43288 | pgbench_tellers  |            49152
 2017-02-05 05:17:46.432884+01 | 1486268266.43288 | pgbench_history  |                0
 2017-02-05 05:17:46.432884+01 | 1486268266.43288 | pgbench_branches |             8192

 2017-02-05 05:17:47.50562+01 | 1486268267.50562 | pgbench_accounts |       1391968256
 2017-02-05 05:17:47.50562+01 | 1486268267.50562 | pgbench_tellers  |            49152
 2017-02-05 05:17:47.50562+01 | 1486268267.50562 | pgbench_history  |                0
 2017-02-05 05:17:47.50562+01 | 1486268267.50562 | pgbench_branches |             8192

 2017-02-05 05:17:48.580124+01 | 1486268268.58012 | pgbench_accounts |       1391968256
 2017-02-05 05:17:48.580124+01 | 1486268268.58012 | pgbench_tellers  |            49152
 2017-02-05 05:17:48.580124+01 | 1486268268.58012 | pgbench_history  |                0
 2017-02-05 05:17:48.580124+01 | 1486268268.58012 | pgbench_branches |             8192

 2017-02-05 05:17:49.650685+01 | 1486268269.65069 | pgbench_accounts |       1391968256
 2017-02-05 05:17:49.650685+01 | 1486268269.65069 | pgbench_tellers  |            49152
 2017-02-05 05:17:49.650685+01 | 1486268269.65069 | pgbench_history  |                0
 2017-02-05 05:17:49.650685+01 | 1486268269.65069 | pgbench_branches |             8192

 2017-02-05 05:17:50.722899+01 | 1486268270.7229 | pgbench_accounts |       1391968256
 2017-02-05 05:17:50.722899+01 | 1486268270.7229 | pgbench_tellers  |            49152
 2017-02-05 05:17:50.722899+01 | 1486268270.7229 | pgbench_history  |                0
 2017-02-05 05:17:50.722899+01 | 1486268270.7229 | pgbench_branches |             8192

 2017-02-05 05:17:51.796882+01 | 1486268271.79688 | pgbench_accounts |       1391968256
 2017-02-05 05:17:51.796882+01 | 1486268271.79688 | pgbench_tellers  |            49152
 2017-02-05 05:17:51.796882+01 | 1486268271.79688 | pgbench_history  |                0
 2017-02-05 05:17:51.796882+01 | 1486268271.79688 | pgbench_branches |             8192

 2017-02-05 05:17:52.871578+01 | 1486268272.87158 | pgbench_accounts |       1391968256
 2017-02-05 05:17:52.871578+01 | 1486268272.87158 | pgbench_tellers  |            49152
 2017-02-05 05:17:52.871578+01 | 1486268272.87158 | pgbench_history  |                0
 2017-02-05 05:17:52.871578+01 | 1486268272.87158 | pgbench_branches |             8192

 2017-02-05 05:17:53.94772+01 | 1486268273.94772 | pgbench_accounts |       1391968256
 2017-02-05 05:17:53.94772+01 | 1486268273.94772 | pgbench_tellers  |            49152
 2017-02-05 05:17:53.94772+01 | 1486268273.94772 | pgbench_history  |                0
 2017-02-05 05:17:53.94772+01 | 1486268273.94772 | pgbench_branches |             8192

 2017-02-05 05:17:55.026728+01 | 1486268275.02673 | pgbench_accounts |       1391968256
 2017-02-05 05:17:55.026728+01 | 1486268275.02673 | pgbench_tellers  |            49152
 2017-02-05 05:17:55.026728+01 | 1486268275.02673 | pgbench_history  |                0
 2017-02-05 05:17:55.026728+01 | 1486268275.02673 | pgbench_branches |             8192

 2017-02-05 05:17:56.103002+01 | 1486268276.103 | pgbench_accounts |       1391968256
 2017-02-05 05:17:56.103002+01 | 1486268276.103 | pgbench_tellers  |            49152
 2017-02-05 05:17:56.103002+01 | 1486268276.103 | pgbench_history  |                0
 2017-02-05 05:17:56.103002+01 | 1486268276.103 | pgbench_branches |             8192

 2017-02-05 05:17:57.180589+01 | 1486268277.18059 | pgbench_accounts |       1391968256
 2017-02-05 05:17:57.180589+01 | 1486268277.18059 | pgbench_tellers  |            49152
 2017-02-05 05:17:57.180589+01 | 1486268277.18059 | pgbench_history  |                0
 2017-02-05 05:17:57.180589+01 | 1486268277.18059 | pgbench_branches |             8192

 2017-02-05 05:17:58.258039+01 | 1486268278.25804 | pgbench_accounts |       1391968256
 2017-02-05 05:17:58.258039+01 | 1486268278.25804 | pgbench_tellers  |            49152
 2017-02-05 05:17:58.258039+01 | 1486268278.25804 | pgbench_history  |                0
 2017-02-05 05:17:58.258039+01 | 1486268278.25804 | pgbench_branches |             8192

 2017-02-05 05:17:59.334281+01 | 1486268279.33428 | pgbench_accounts |       1391968256
 2017-02-05 05:17:59.334281+01 | 1486268279.33428 | pgbench_tellers  |            49152
 2017-02-05 05:17:59.334281+01 | 1486268279.33428 | pgbench_history  |                0
 2017-02-05 05:17:59.334281+01 | 1486268279.33428 | pgbench_branches |             8192

 2017-02-05 05:18:00.410492+01 | 1486268280.41049 | pgbench_accounts |       1391968256
 2017-02-05 05:18:00.410492+01 | 1486268280.41049 | pgbench_tellers  |            49152
 2017-02-05 05:18:00.410492+01 | 1486268280.41049 | pgbench_history  |                0
 2017-02-05 05:18:00.410492+01 | 1486268280.41049 | pgbench_branches |             8192

 2017-02-05 05:18:01.48515+01 | 1486268281.48515 | pgbench_accounts |       1391968256
 2017-02-05 05:18:01.48515+01 | 1486268281.48515 | pgbench_tellers  |            49152
 2017-02-05 05:18:01.48515+01 | 1486268281.48515 | pgbench_history  |                0
 2017-02-05 05:18:01.48515+01 | 1486268281.48515 | pgbench_branches |             8192

 2017-02-05 05:18:02.558368+01 | 1486268282.55837 | pgbench_accounts |       1391968256
 2017-02-05 05:18:02.558368+01 | 1486268282.55837 | pgbench_tellers  |            49152
 2017-02-05 05:18:02.558368+01 | 1486268282.55837 | pgbench_history  |                0
 2017-02-05 05:18:02.558368+01 | 1486268282.55837 | pgbench_branches |             8192

 2017-02-05 05:18:03.627251+01 | 1486268283.62725 | pgbench_accounts |       1391968256
 2017-02-05 05:18:03.627251+01 | 1486268283.62725 | pgbench_tellers  |            49152
 2017-02-05 05:18:03.627251+01 | 1486268283.62725 | pgbench_history  |                0
 2017-02-05 05:18:03.627251+01 | 1486268283.62725 | pgbench_branches |             8192

 2017-02-05 05:18:04.703348+01 | 1486268284.70335 | pgbench_accounts |       1391968256
 2017-02-05 05:18:04.703348+01 | 1486268284.70335 | pgbench_tellers  |            49152
 2017-02-05 05:18:04.703348+01 | 1486268284.70335 | pgbench_history  |                0
 2017-02-05 05:18:04.703348+01 | 1486268284.70335 | pgbench_branches |             8192

 2017-02-05 05:18:05.775695+01 | 1486268285.7757 | pgbench_accounts |       1391968256
 2017-02-05 05:18:05.775695+01 | 1486268285.7757 | pgbench_tellers  |            49152
 2017-02-05 05:18:05.775695+01 | 1486268285.7757 | pgbench_history  |                0
 2017-02-05 05:18:05.775695+01 | 1486268285.7757 | pgbench_branches |             8192

 2017-02-05 05:18:06.854509+01 | 1486268286.85451 | pgbench_accounts |       1391968256
 2017-02-05 05:18:06.854509+01 | 1486268286.85451 | pgbench_tellers  |            49152
 2017-02-05 05:18:06.854509+01 | 1486268286.85451 | pgbench_history  |                0
 2017-02-05 05:18:06.854509+01 | 1486268286.85451 | pgbench_branches |             8192

 2017-02-05 05:18:07.930448+01 | 1486268287.93045 | pgbench_accounts |       1391968256
 2017-02-05 05:18:07.930448+01 | 1486268287.93045 | pgbench_tellers  |            49152
 2017-02-05 05:18:07.930448+01 | 1486268287.93045 | pgbench_history  |                0
 2017-02-05 05:18:07.930448+01 | 1486268287.93045 | pgbench_branches |             8192

 2017-02-05 05:18:09.001259+01 | 1486268289.00126 | pgbench_accounts |       1391968256
 2017-02-05 05:18:09.001259+01 | 1486268289.00126 | pgbench_tellers  |            49152
 2017-02-05 05:18:09.001259+01 | 1486268289.00126 | pgbench_history  |                0
 2017-02-05 05:18:09.001259+01 | 1486268289.00126 | pgbench_branches |             8192

 2017-02-05 05:18:10.073716+01 | 1486268290.07372 | pgbench_accounts |       1391968256
 2017-02-05 05:18:10.073716+01 | 1486268290.07372 | pgbench_tellers  |            49152
 2017-02-05 05:18:10.073716+01 | 1486268290.07372 | pgbench_history  |                0
 2017-02-05 05:18:10.073716+01 | 1486268290.07372 | pgbench_branches |             8192

 2017-02-05 05:18:11.154422+01 | 1486268291.15442 | pgbench_accounts |       1391968256
 2017-02-05 05:18:11.154422+01 | 1486268291.15442 | pgbench_tellers  |            49152
 2017-02-05 05:18:11.154422+01 | 1486268291.15442 | pgbench_history  |                0
 2017-02-05 05:18:11.154422+01 | 1486268291.15442 | pgbench_branches |             8192

 2017-02-05 05:18:12.227938+01 | 1486268292.22794 | pgbench_accounts |       1391968256
 2017-02-05 05:18:12.227938+01 | 1486268292.22794 | pgbench_tellers  |            49152
 2017-02-05 05:18:12.227938+01 | 1486268292.22794 | pgbench_history  |                0
 2017-02-05 05:18:12.227938+01 | 1486268292.22794 | pgbench_branches |             8192

 2017-02-05 05:18:13.300905+01 | 1486268293.3009 | pgbench_accounts |       1391968256
 2017-02-05 05:18:13.300905+01 | 1486268293.3009 | pgbench_tellers  |            49152
 2017-02-05 05:18:13.300905+01 | 1486268293.3009 | pgbench_history  |                0
 2017-02-05 05:18:13.300905+01 | 1486268293.3009 | pgbench_branches |             8192

 2017-02-05 05:18:14.379682+01 | 1486268294.37968 | pgbench_accounts |       1391968256
 2017-02-05 05:18:14.379682+01 | 1486268294.37968 | pgbench_tellers  |            49152
 2017-02-05 05:18:14.379682+01 | 1486268294.37968 | pgbench_history  |                0
 2017-02-05 05:18:14.379682+01 | 1486268294.37968 | pgbench_branches |             8192

 2017-02-05 05:18:15.452672+01 | 1486268295.45267 | pgbench_accounts |       1391968256
 2017-02-05 05:18:15.452672+01 | 1486268295.45267 | pgbench_tellers  |            49152
 2017-02-05 05:18:15.452672+01 | 1486268295.45267 | pgbench_history  |                0
 2017-02-05 05:18:15.452672+01 | 1486268295.45267 | pgbench_branches |             8192

 2017-02-05 05:18:16.525833+01 | 1486268296.52583 | pgbench_accounts |       1391968256
 2017-02-05 05:18:16.525833+01 | 1486268296.52583 | pgbench_tellers  |            49152
 2017-02-05 05:18:16.525833+01 | 1486268296.52583 | pgbench_history  |                0
 2017-02-05 05:18:16.525833+01 | 1486268296.52583 | pgbench_branches |             8192

 2017-02-05 05:18:17.602155+01 | 1486268297.60215 | pgbench_accounts |       1391968256
 2017-02-05 05:18:17.602155+01 | 1486268297.60215 | pgbench_tellers  |            49152
 2017-02-05 05:18:17.602155+01 | 1486268297.60215 | pgbench_history  |                0
 2017-02-05 05:18:17.602155+01 | 1486268297.60215 | pgbench_branches |             8192

 2017-02-05 05:18:18.678184+01 | 1486268298.67818 | pgbench_accounts |       1391968256
 2017-02-05 05:18:18.678184+01 | 1486268298.67818 | pgbench_tellers  |            49152
 2017-02-05 05:18:18.678184+01 | 1486268298.67818 | pgbench_history  |                0
 2017-02-05 05:18:18.678184+01 | 1486268298.67818 | pgbench_branches |             8192

 2017-02-05 05:18:19.746822+01 | 1486268299.74682 | pgbench_accounts |       1391968256
 2017-02-05 05:18:19.746822+01 | 1486268299.74682 | pgbench_tellers  |            49152
 2017-02-05 05:18:19.746822+01 | 1486268299.74682 | pgbench_history  |                0
 2017-02-05 05:18:19.746822+01 | 1486268299.74682 | pgbench_branches |             8192

 2017-02-05 05:18:20.824673+01 | 1486268300.82467 | pgbench_accounts |       1391968256
 2017-02-05 05:18:20.824673+01 | 1486268300.82467 | pgbench_tellers  |            49152
 2017-02-05 05:18:20.824673+01 | 1486268300.82467 | pgbench_history  |                0
 2017-02-05 05:18:20.824673+01 | 1486268300.82467 | pgbench_branches |             8192

 2017-02-05 05:18:21.901868+01 | 1486268301.90187 | pgbench_accounts |       1391968256
 2017-02-05 05:18:21.901868+01 | 1486268301.90187 | pgbench_tellers  |            49152
 2017-02-05 05:18:21.901868+01 | 1486268301.90187 | pgbench_history  |                0
 2017-02-05 05:18:21.901868+01 | 1486268301.90187 | pgbench_branches |             8192

 2017-02-05 05:18:22.983826+01 | 1486268302.98383 | pgbench_accounts |       1391968256
 2017-02-05 05:18:22.983826+01 | 1486268302.98383 | pgbench_tellers  |            49152
 2017-02-05 05:18:22.983826+01 | 1486268302.98383 | pgbench_history  |                0
 2017-02-05 05:18:22.983826+01 | 1486268302.98383 | pgbench_branches |             8192

 2017-02-05 05:18:24.059035+01 | 1486268304.05904 | pgbench_accounts |       1391968256
 2017-02-05 05:18:24.059035+01 | 1486268304.05904 | pgbench_tellers  |            49152
 2017-02-05 05:18:24.059035+01 | 1486268304.05904 | pgbench_history  |                0
 2017-02-05 05:18:24.059035+01 | 1486268304.05904 | pgbench_branches |             8192

 2017-02-05 05:18:25.134175+01 | 1486268305.13418 | pgbench_accounts |       1391968256
 2017-02-05 05:18:25.134175+01 | 1486268305.13418 | pgbench_tellers  |            49152
 2017-02-05 05:18:25.134175+01 | 1486268305.13418 | pgbench_history  |                0
 2017-02-05 05:18:25.134175+01 | 1486268305.13418 | pgbench_branches |             8192

 2017-02-05 05:18:26.211531+01 | 1486268306.21153 | pgbench_accounts |       1391968256
 2017-02-05 05:18:26.211531+01 | 1486268306.21153 | pgbench_tellers  |            49152
 2017-02-05 05:18:26.211531+01 | 1486268306.21153 | pgbench_history  |                0
 2017-02-05 05:18:26.211531+01 | 1486268306.21153 | pgbench_branches |             8192

 2017-02-05 05:18:27.289376+01 | 1486268307.28938 | pgbench_accounts |       1391968256
 2017-02-05 05:18:27.289376+01 | 1486268307.28938 | pgbench_tellers  |            49152
 2017-02-05 05:18:27.289376+01 | 1486268307.28938 | pgbench_history  |                0
 2017-02-05 05:18:27.289376+01 | 1486268307.28938 | pgbench_branches |             8192

 2017-02-05 05:18:28.36647+01 | 1486268308.36647 | pgbench_accounts |       1391968256
 2017-02-05 05:18:28.36647+01 | 1486268308.36647 | pgbench_tellers  |            49152
 2017-02-05 05:18:28.36647+01 | 1486268308.36647 | pgbench_history  |                0
 2017-02-05 05:18:28.36647+01 | 1486268308.36647 | pgbench_branches |             8192

 2017-02-05 05:18:29.4374+01 | 1486268309.4374 | pgbench_accounts |       1391968256
 2017-02-05 05:18:29.4374+01 | 1486268309.4374 | pgbench_tellers  |            49152
 2017-02-05 05:18:29.4374+01 | 1486268309.4374 | pgbench_history  |                0
 2017-02-05 05:18:29.4374+01 | 1486268309.4374 | pgbench_branches |             8192

 2017-02-05 05:18:30.51256+01 | 1486268310.51256 | pgbench_accounts |       1391968256
 2017-02-05 05:18:30.51256+01 | 1486268310.51256 | pgbench_tellers  |            49152
 2017-02-05 05:18:30.51256+01 | 1486268310.51256 | pgbench_history  |                0
 2017-02-05 05:18:30.51256+01 | 1486268310.51256 | pgbench_branches |             8192

 2017-02-05 05:18:31.591981+01 | 1486268311.59198 | pgbench_accounts |       1391968256
 2017-02-05 05:18:31.591981+01 | 1486268311.59198 | pgbench_tellers  |            49152
 2017-02-05 05:18:31.591981+01 | 1486268311.59198 | pgbench_history  |                0
 2017-02-05 05:18:31.591981+01 | 1486268311.59198 | pgbench_branches |             8192

 2017-02-05 05:18:32.668651+01 | 1486268312.66865 | pgbench_accounts |       1391968256
 2017-02-05 05:18:32.668651+01 | 1486268312.66865 | pgbench_tellers  |            49152
 2017-02-05 05:18:32.668651+01 | 1486268312.66865 | pgbench_history  |                0
 2017-02-05 05:18:32.668651+01 | 1486268312.66865 | pgbench_branches |             8192

 2017-02-05 05:18:33.740396+01 | 1486268313.7404 | pgbench_accounts |       1391968256
 2017-02-05 05:18:33.740396+01 | 1486268313.7404 | pgbench_tellers  |            49152
 2017-02-05 05:18:33.740396+01 | 1486268313.7404 | pgbench_history  |                0
 2017-02-05 05:18:33.740396+01 | 1486268313.7404 | pgbench_branches |             8192

 2017-02-05 05:18:34.81221+01 | 1486268314.81221 | pgbench_accounts |       1391968256
 2017-02-05 05:18:34.81221+01 | 1486268314.81221 | pgbench_tellers  |            49152
 2017-02-05 05:18:34.81221+01 | 1486268314.81221 | pgbench_history  |                0
 2017-02-05 05:18:34.81221+01 | 1486268314.81221 | pgbench_branches |             8192

 2017-02-05 05:18:35.889554+01 | 1486268315.88955 | pgbench_accounts |       1391968256
 2017-02-05 05:18:35.889554+01 | 1486268315.88955 | pgbench_tellers  |            49152
 2017-02-05 05:18:35.889554+01 | 1486268315.88955 | pgbench_history  |                0
 2017-02-05 05:18:35.889554+01 | 1486268315.88955 | pgbench_branches |             8192

 2017-02-05 05:18:36.968004+01 | 1486268316.968 | pgbench_accounts |       1391968256
 2017-02-05 05:18:36.968004+01 | 1486268316.968 | pgbench_tellers  |            49152
 2017-02-05 05:18:36.968004+01 | 1486268316.968 | pgbench_history  |                0
 2017-02-05 05:18:36.968004+01 | 1486268316.968 | pgbench_branches |             8192

 2017-02-05 05:18:38.044272+01 | 1486268318.04427 | pgbench_accounts |       1391968256
 2017-02-05 05:18:38.044272+01 | 1486268318.04427 | pgbench_tellers  |            49152
 2017-02-05 05:18:38.044272+01 | 1486268318.04427 | pgbench_history  |                0
 2017-02-05 05:18:38.044272+01 | 1486268318.04427 | pgbench_branches |             8192

 2017-02-05 05:18:39.114816+01 | 1486268319.11482 | pgbench_accounts |       1391968256
 2017-02-05 05:18:39.114816+01 | 1486268319.11482 | pgbench_tellers  |            49152
 2017-02-05 05:18:39.114816+01 | 1486268319.11482 | pgbench_history  |                0
 2017-02-05 05:18:39.114816+01 | 1486268319.11482 | pgbench_branches |             8192

 2017-02-05 05:18:40.179581+01 | 1486268320.17958 | pgbench_accounts |       1391968256
 2017-02-05 05:18:40.179581+01 | 1486268320.17958 | pgbench_tellers  |            49152
 2017-02-05 05:18:40.179581+01 | 1486268320.17958 | pgbench_history  |                0
 2017-02-05 05:18:40.179581+01 | 1486268320.17958 | pgbench_branches |             8192

 2017-02-05 05:18:41.256803+01 | 1486268321.2568 | pgbench_accounts |       1391968256
 2017-02-05 05:18:41.256803+01 | 1486268321.2568 | pgbench_tellers  |            49152
 2017-02-05 05:18:41.256803+01 | 1486268321.2568 | pgbench_history  |                0
 2017-02-05 05:18:41.256803+01 | 1486268321.2568 | pgbench_branches |             8192

 2017-02-05 05:18:42.330664+01 | 1486268322.33066 | pgbench_accounts |       1391968256
 2017-02-05 05:18:42.330664+01 | 1486268322.33066 | pgbench_tellers  |            49152
 2017-02-05 05:18:42.330664+01 | 1486268322.33066 | pgbench_history  |                0
 2017-02-05 05:18:42.330664+01 | 1486268322.33066 | pgbench_branches |             8192

 2017-02-05 05:18:43.403328+01 | 1486268323.40333 | pgbench_accounts |       1391968256
 2017-02-05 05:18:43.403328+01 | 1486268323.40333 | pgbench_tellers  |            49152
 2017-02-05 05:18:43.403328+01 | 1486268323.40333 | pgbench_history  |                0
 2017-02-05 05:18:43.403328+01 | 1486268323.40333 | pgbench_branches |             8192

 2017-02-05 05:18:44.479703+01 | 1486268324.4797 | pgbench_accounts |       1391968256
 2017-02-05 05:18:44.479703+01 | 1486268324.4797 | pgbench_tellers  |            49152
 2017-02-05 05:18:44.479703+01 | 1486268324.4797 | pgbench_history  |                0
 2017-02-05 05:18:44.479703+01 | 1486268324.4797 | pgbench_branches |             8192

 2017-02-05 05:18:45.551171+01 | 1486268325.55117 | pgbench_accounts |       1391968256
 2017-02-05 05:18:45.551171+01 | 1486268325.55117 | pgbench_tellers  |            49152
 2017-02-05 05:18:45.551171+01 | 1486268325.55117 | pgbench_history  |                0
 2017-02-05 05:18:45.551171+01 | 1486268325.55117 | pgbench_branches |             8192

 2017-02-05 05:18:46.628033+01 | 1486268326.62803 | pgbench_accounts |       1391968256
 2017-02-05 05:18:46.628033+01 | 1486268326.62803 | pgbench_tellers  |            49152
 2017-02-05 05:18:46.628033+01 | 1486268326.62803 | pgbench_history  |                0
 2017-02-05 05:18:46.628033+01 | 1486268326.62803 | pgbench_branches |             8192

 2017-02-05 05:18:47.70195+01 | 1486268327.70195 | pgbench_accounts |       1391968256
 2017-02-05 05:18:47.70195+01 | 1486268327.70195 | pgbench_tellers  |            49152
 2017-02-05 05:18:47.70195+01 | 1486268327.70195 | pgbench_history  |                0
 2017-02-05 05:18:47.70195+01 | 1486268327.70195 | pgbench_branches |             8192

 2017-02-05 05:18:48.784002+01 | 1486268328.784 | pgbench_accounts |       1391968256
 2017-02-05 05:18:48.784002+01 | 1486268328.784 | pgbench_tellers  |            49152
 2017-02-05 05:18:48.784002+01 | 1486268328.784 | pgbench_history  |                0
 2017-02-05 05:18:48.784002+01 | 1486268328.784 | pgbench_branches |             8192

 2017-02-05 05:18:49.860027+01 | 1486268329.86003 | pgbench_accounts |       1391968256
 2017-02-05 05:18:49.860027+01 | 1486268329.86003 | pgbench_tellers  |            49152
 2017-02-05 05:18:49.860027+01 | 1486268329.86003 | pgbench_history  |                0
 2017-02-05 05:18:49.860027+01 | 1486268329.86003 | pgbench_branches |             8192

 2017-02-05 05:18:50.941177+01 | 1486268330.94118 | pgbench_accounts |       1391968256
 2017-02-05 05:18:50.941177+01 | 1486268330.94118 | pgbench_tellers  |            49152
 2017-02-05 05:18:50.941177+01 | 1486268330.94118 | pgbench_history  |                0
 2017-02-05 05:18:50.941177+01 | 1486268330.94118 | pgbench_branches |             8192

 2017-02-05 05:18:52.014974+01 | 1486268332.01497 | pgbench_accounts |       1391968256
 2017-02-05 05:18:52.014974+01 | 1486268332.01497 | pgbench_tellers  |            49152
 2017-02-05 05:18:52.014974+01 | 1486268332.01497 | pgbench_history  |                0
 2017-02-05 05:18:52.014974+01 | 1486268332.01497 | pgbench_branches |             8192

 2017-02-05 05:18:53.089545+01 | 1486268333.08955 | pgbench_accounts |       1391968256
 2017-02-05 05:18:53.089545+01 | 1486268333.08955 | pgbench_tellers  |            49152
 2017-02-05 05:18:53.089545+01 | 1486268333.08955 | pgbench_history  |                0
 2017-02-05 05:18:53.089545+01 | 1486268333.08955 | pgbench_branches |             8192

 2017-02-05 05:18:54.166123+01 | 1486268334.16612 | pgbench_accounts |       1391968256
 2017-02-05 05:18:54.166123+01 | 1486268334.16612 | pgbench_tellers  |            49152
 2017-02-05 05:18:54.166123+01 | 1486268334.16612 | pgbench_history  |                0
 2017-02-05 05:18:54.166123+01 | 1486268334.16612 | pgbench_branches |             8192

 2017-02-05 05:18:55.240895+01 | 1486268335.2409 | pgbench_accounts |       1391968256
 2017-02-05 05:18:55.240895+01 | 1486268335.2409 | pgbench_tellers  |            49152
 2017-02-05 05:18:55.240895+01 | 1486268335.2409 | pgbench_history  |                0
 2017-02-05 05:18:55.240895+01 | 1486268335.2409 | pgbench_branches |             8192

 2017-02-05 05:18:56.316962+01 | 1486268336.31696 | pgbench_accounts |       1391968256
 2017-02-05 05:18:56.316962+01 | 1486268336.31696 | pgbench_tellers  |            49152
 2017-02-05 05:18:56.316962+01 | 1486268336.31696 | pgbench_history  |                0
 2017-02-05 05:18:56.316962+01 | 1486268336.31696 | pgbench_branches |             8192

 2017-02-05 05:18:57.399006+01 | 1486268337.39901 | pgbench_accounts |       1391968256
 2017-02-05 05:18:57.399006+01 | 1486268337.39901 | pgbench_tellers  |            49152
 2017-02-05 05:18:57.399006+01 | 1486268337.39901 | pgbench_history  |                0
 2017-02-05 05:18:57.399006+01 | 1486268337.39901 | pgbench_branches |             8192

 2017-02-05 05:18:58.474789+01 | 1486268338.47479 | pgbench_accounts |       1391968256
 2017-02-05 05:18:58.474789+01 | 1486268338.47479 | pgbench_tellers  |            49152
 2017-02-05 05:18:58.474789+01 | 1486268338.47479 | pgbench_history  |                0
 2017-02-05 05:18:58.474789+01 | 1486268338.47479 | pgbench_branches |             8192

 2017-02-05 05:18:59.551209+01 | 1486268339.55121 | pgbench_accounts |       1391968256
 2017-02-05 05:18:59.551209+01 | 1486268339.55121 | pgbench_tellers  |            49152
 2017-02-05 05:18:59.551209+01 | 1486268339.55121 | pgbench_history  |                0
 2017-02-05 05:18:59.551209+01 | 1486268339.55121 | pgbench_branches |             8192

 2017-02-05 05:19:00.625769+01 | 1486268340.62577 | pgbench_accounts |       1391968256
 2017-02-05 05:19:00.625769+01 | 1486268340.62577 | pgbench_tellers  |            49152
 2017-02-05 05:19:00.625769+01 | 1486268340.62577 | pgbench_history  |                0
 2017-02-05 05:19:00.625769+01 | 1486268340.62577 | pgbench_branches |             8192

 2017-02-05 05:19:01.705436+01 | 1486268341.70544 | pgbench_accounts |       1391968256
 2017-02-05 05:19:01.705436+01 | 1486268341.70544 | pgbench_tellers  |            49152
 2017-02-05 05:19:01.705436+01 | 1486268341.70544 | pgbench_history  |                0
 2017-02-05 05:19:01.705436+01 | 1486268341.70544 | pgbench_branches |             8192

 2017-02-05 05:19:02.782575+01 | 1486268342.78257 | pgbench_accounts |       1391968256
 2017-02-05 05:19:02.782575+01 | 1486268342.78257 | pgbench_tellers  |            49152
 2017-02-05 05:19:02.782575+01 | 1486268342.78257 | pgbench_history  |                0
 2017-02-05 05:19:02.782575+01 | 1486268342.78257 | pgbench_branches |             8192

 2017-02-05 05:19:03.857754+01 | 1486268343.85775 | pgbench_accounts |       1391968256
 2017-02-05 05:19:03.857754+01 | 1486268343.85775 | pgbench_tellers  |            49152
 2017-02-05 05:19:03.857754+01 | 1486268343.85775 | pgbench_history  |                0
 2017-02-05 05:19:03.857754+01 | 1486268343.85775 | pgbench_branches |             8192

 2017-02-05 05:19:04.932816+01 | 1486268344.93282 | pgbench_accounts |       1391968256
 2017-02-05 05:19:04.932816+01 | 1486268344.93282 | pgbench_tellers  |            49152
 2017-02-05 05:19:04.932816+01 | 1486268344.93282 | pgbench_history  |                0
 2017-02-05 05:19:04.932816+01 | 1486268344.93282 | pgbench_branches |             8192

 2017-02-05 05:19:06.005293+01 | 1486268346.00529 | pgbench_accounts |       1391968256
 2017-02-05 05:19:06.005293+01 | 1486268346.00529 | pgbench_tellers  |            49152
 2017-02-05 05:19:06.005293+01 | 1486268346.00529 | pgbench_history  |                0
 2017-02-05 05:19:06.005293+01 | 1486268346.00529 | pgbench_branches |             8192

 2017-02-05 05:19:07.079582+01 | 1486268347.07958 | pgbench_accounts |       1391968256
 2017-02-05 05:19:07.079582+01 | 1486268347.07958 | pgbench_tellers  |            49152
 2017-02-05 05:19:07.079582+01 | 1486268347.07958 | pgbench_history  |                0
 2017-02-05 05:19:07.079582+01 | 1486268347.07958 | pgbench_branches |             8192

 2017-02-05 05:19:08.151761+01 | 1486268348.15176 | pgbench_accounts |       1391968256
 2017-02-05 05:19:08.151761+01 | 1486268348.15176 | pgbench_tellers  |            49152
 2017-02-05 05:19:08.151761+01 | 1486268348.15176 | pgbench_history  |                0
 2017-02-05 05:19:08.151761+01 | 1486268348.15176 | pgbench_branches |             8192

 2017-02-05 05:19:09.225822+01 | 1486268349.22582 | pgbench_accounts |       1391968256
 2017-02-05 05:19:09.225822+01 | 1486268349.22582 | pgbench_tellers  |            49152
 2017-02-05 05:19:09.225822+01 | 1486268349.22582 | pgbench_history  |                0
 2017-02-05 05:19:09.225822+01 | 1486268349.22582 | pgbench_branches |             8192

 2017-02-05 05:19:10.302162+01 | 1486268350.30216 | pgbench_accounts |       1391968256
 2017-02-05 05:19:10.302162+01 | 1486268350.30216 | pgbench_tellers  |            49152
 2017-02-05 05:19:10.302162+01 | 1486268350.30216 | pgbench_history  |                0
 2017-02-05 05:19:10.302162+01 | 1486268350.30216 | pgbench_branches |             8192

 2017-02-05 05:19:11.38247+01 | 1486268351.38247 | pgbench_accounts |       1391968256
 2017-02-05 05:19:11.38247+01 | 1486268351.38247 | pgbench_tellers  |            49152
 2017-02-05 05:19:11.38247+01 | 1486268351.38247 | pgbench_history  |                0
 2017-02-05 05:19:11.38247+01 | 1486268351.38247 | pgbench_branches |             8192

 2017-02-05 05:19:12.457266+01 | 1486268352.45727 | pgbench_accounts |       1391968256
 2017-02-05 05:19:12.457266+01 | 1486268352.45727 | pgbench_tellers  |            49152
 2017-02-05 05:19:12.457266+01 | 1486268352.45727 | pgbench_history  |                0
 2017-02-05 05:19:12.457266+01 | 1486268352.45727 | pgbench_branches |             8192

 2017-02-05 05:19:13.532616+01 | 1486268353.53262 | pgbench_accounts |       1391968256
 2017-02-05 05:19:13.532616+01 | 1486268353.53262 | pgbench_tellers  |            49152
 2017-02-05 05:19:13.532616+01 | 1486268353.53262 | pgbench_history  |                0
 2017-02-05 05:19:13.532616+01 | 1486268353.53262 | pgbench_branches |             8192

 2017-02-05 05:19:14.609829+01 | 1486268354.60983 | pgbench_accounts |       1391968256
 2017-02-05 05:19:14.609829+01 | 1486268354.60983 | pgbench_tellers  |            49152
 2017-02-05 05:19:14.609829+01 | 1486268354.60983 | pgbench_history  |                0
 2017-02-05 05:19:14.609829+01 | 1486268354.60983 | pgbench_branches |             8192

 2017-02-05 05:19:15.683521+01 | 1486268355.68352 | pgbench_accounts |       1391968256
 2017-02-05 05:19:15.683521+01 | 1486268355.68352 | pgbench_tellers  |            49152
 2017-02-05 05:19:15.683521+01 | 1486268355.68352 | pgbench_history  |                0
 2017-02-05 05:19:15.683521+01 | 1486268355.68352 | pgbench_branches |             8192

 2017-02-05 05:19:16.757814+01 | 1486268356.75781 | pgbench_accounts |       1391968256
 2017-02-05 05:19:16.757814+01 | 1486268356.75781 | pgbench_tellers  |            49152
 2017-02-05 05:19:16.757814+01 | 1486268356.75781 | pgbench_history  |                0
 2017-02-05 05:19:16.757814+01 | 1486268356.75781 | pgbench_branches |             8192

 2017-02-05 05:19:17.842677+01 | 1486268357.84268 | pgbench_accounts |       1391968256
 2017-02-05 05:19:17.842677+01 | 1486268357.84268 | pgbench_tellers  |            49152
 2017-02-05 05:19:17.842677+01 | 1486268357.84268 | pgbench_history  |                0
 2017-02-05 05:19:17.842677+01 | 1486268357.84268 | pgbench_branches |             8192

 2017-02-05 05:19:18.921302+01 | 1486268358.9213 | pgbench_accounts |       1391968256
 2017-02-05 05:19:18.921302+01 | 1486268358.9213 | pgbench_tellers  |            49152
 2017-02-05 05:19:18.921302+01 | 1486268358.9213 | pgbench_history  |                0
 2017-02-05 05:19:18.921302+01 | 1486268358.9213 | pgbench_branches |             8192

 2017-02-05 05:19:19.994108+01 | 1486268359.99411 | pgbench_accounts |       1391968256
 2017-02-05 05:19:19.994108+01 | 1486268359.99411 | pgbench_tellers  |            49152
 2017-02-05 05:19:19.994108+01 | 1486268359.99411 | pgbench_history  |                0
 2017-02-05 05:19:19.994108+01 | 1486268359.99411 | pgbench_branches |             8192

 2017-02-05 05:19:21.066413+01 | 1486268361.06641 | pgbench_accounts |       1391968256
 2017-02-05 05:19:21.066413+01 | 1486268361.06641 | pgbench_tellers  |            49152
 2017-02-05 05:19:21.066413+01 | 1486268361.06641 | pgbench_history  |                0
 2017-02-05 05:19:21.066413+01 | 1486268361.06641 | pgbench_branches |             8192

 2017-02-05 05:19:22.148272+01 | 1486268362.14827 | pgbench_accounts |       1391968256
 2017-02-05 05:19:22.148272+01 | 1486268362.14827 | pgbench_tellers  |            49152
 2017-02-05 05:19:22.148272+01 | 1486268362.14827 | pgbench_history  |                0
 2017-02-05 05:19:22.148272+01 | 1486268362.14827 | pgbench_branches |             8192

 2017-02-05 05:19:23.225239+01 | 1486268363.22524 | pgbench_accounts |       1391968256
 2017-02-05 05:19:23.225239+01 | 1486268363.22524 | pgbench_tellers  |            49152
 2017-02-05 05:19:23.225239+01 | 1486268363.22524 | pgbench_history  |                0
 2017-02-05 05:19:23.225239+01 | 1486268363.22524 | pgbench_branches |             8192

 2017-02-05 05:19:24.294119+01 | 1486268364.29412 | pgbench_accounts |       1391968256
 2017-02-05 05:19:24.294119+01 | 1486268364.29412 | pgbench_tellers  |            49152
 2017-02-05 05:19:24.294119+01 | 1486268364.29412 | pgbench_history  |                0
 2017-02-05 05:19:24.294119+01 | 1486268364.29412 | pgbench_branches |             8192

 2017-02-05 05:19:25.369788+01 | 1486268365.36979 | pgbench_accounts |       1391968256
 2017-02-05 05:19:25.369788+01 | 1486268365.36979 | pgbench_tellers  |            49152
 2017-02-05 05:19:25.369788+01 | 1486268365.36979 | pgbench_history  |                0
 2017-02-05 05:19:25.369788+01 | 1486268365.36979 | pgbench_branches |             8192

 2017-02-05 05:19:26.447712+01 | 1486268366.44771 | pgbench_accounts |       1391968256
 2017-02-05 05:19:26.447712+01 | 1486268366.44771 | pgbench_tellers  |            49152
 2017-02-05 05:19:26.447712+01 | 1486268366.44771 | pgbench_history  |                0
 2017-02-05 05:19:26.447712+01 | 1486268366.44771 | pgbench_branches |             8192

 2017-02-05 05:19:27.519507+01 | 1486268367.51951 | pgbench_accounts |       1391968256
 2017-02-05 05:19:27.519507+01 | 1486268367.51951 | pgbench_tellers  |            49152
 2017-02-05 05:19:27.519507+01 | 1486268367.51951 | pgbench_history  |                0
 2017-02-05 05:19:27.519507+01 | 1486268367.51951 | pgbench_branches |             8192

 2017-02-05 05:19:28.593553+01 | 1486268368.59355 | pgbench_accounts |       1391968256
 2017-02-05 05:19:28.593553+01 | 1486268368.59355 | pgbench_tellers  |            49152
 2017-02-05 05:19:28.593553+01 | 1486268368.59355 | pgbench_history  |                0
 2017-02-05 05:19:28.593553+01 | 1486268368.59355 | pgbench_branches |             8192

 2017-02-05 05:19:29.666956+01 | 1486268369.66696 | pgbench_accounts |       1391968256
 2017-02-05 05:19:29.666956+01 | 1486268369.66696 | pgbench_tellers  |            49152
 2017-02-05 05:19:29.666956+01 | 1486268369.66696 | pgbench_history  |                0
 2017-02-05 05:19:29.666956+01 | 1486268369.66696 | pgbench_branches |             8192

 2017-02-05 05:19:30.744204+01 | 1486268370.7442 | pgbench_accounts |       1391968256
 2017-02-05 05:19:30.744204+01 | 1486268370.7442 | pgbench_tellers  |            49152
 2017-02-05 05:19:30.744204+01 | 1486268370.7442 | pgbench_history  |                0
 2017-02-05 05:19:30.744204+01 | 1486268370.7442 | pgbench_branches |             8192

 2017-02-05 05:19:31.818808+01 | 1486268371.81881 | pgbench_accounts |       1391968256
 2017-02-05 05:19:31.818808+01 | 1486268371.81881 | pgbench_tellers  |            49152
 2017-02-05 05:19:31.818808+01 | 1486268371.81881 | pgbench_history  |                0
 2017-02-05 05:19:31.818808+01 | 1486268371.81881 | pgbench_branches |             8192

 2017-02-05 05:19:32.888182+01 | 1486268372.88818 | pgbench_accounts |       1391968256
 2017-02-05 05:19:32.888182+01 | 1486268372.88818 | pgbench_tellers  |            49152
 2017-02-05 05:19:32.888182+01 | 1486268372.88818 | pgbench_history  |                0
 2017-02-05 05:19:32.888182+01 | 1486268372.88818 | pgbench_branches |             8192

 2017-02-05 05:19:33.961349+01 | 1486268373.96135 | pgbench_accounts |       1391968256
 2017-02-05 05:19:33.961349+01 | 1486268373.96135 | pgbench_tellers  |            49152
 2017-02-05 05:19:33.961349+01 | 1486268373.96135 | pgbench_history  |                0
 2017-02-05 05:19:33.961349+01 | 1486268373.96135 | pgbench_branches |             8192

 2017-02-05 05:19:35.034935+01 | 1486268375.03493 | pgbench_accounts |       1391968256
 2017-02-05 05:19:35.034935+01 | 1486268375.03493 | pgbench_tellers  |            49152
 2017-02-05 05:19:35.034935+01 | 1486268375.03493 | pgbench_history  |                0
 2017-02-05 05:19:35.034935+01 | 1486268375.03493 | pgbench_branches |             8192

 2017-02-05 05:19:36.114877+01 | 1486268376.11488 | pgbench_accounts |       1391968256
 2017-02-05 05:19:36.114877+01 | 1486268376.11488 | pgbench_tellers  |            49152
 2017-02-05 05:19:36.114877+01 | 1486268376.11488 | pgbench_history  |                0
 2017-02-05 05:19:36.114877+01 | 1486268376.11488 | pgbench_branches |             8192

 2017-02-05 05:19:37.189342+01 | 1486268377.18934 | pgbench_accounts |       1391968256
 2017-02-05 05:19:37.189342+01 | 1486268377.18934 | pgbench_tellers  |            49152
 2017-02-05 05:19:37.189342+01 | 1486268377.18934 | pgbench_history  |                0
 2017-02-05 05:19:37.189342+01 | 1486268377.18934 | pgbench_branches |             8192

 2017-02-05 05:19:38.267718+01 | 1486268378.26772 | pgbench_accounts |       1391968256
 2017-02-05 05:19:38.267718+01 | 1486268378.26772 | pgbench_tellers  |            49152
 2017-02-05 05:19:38.267718+01 | 1486268378.26772 | pgbench_history  |                0
 2017-02-05 05:19:38.267718+01 | 1486268378.26772 | pgbench_branches |             8192

 2017-02-05 05:19:39.343144+01 | 1486268379.34314 | pgbench_accounts |       1391968256
 2017-02-05 05:19:39.343144+01 | 1486268379.34314 | pgbench_tellers  |            49152
 2017-02-05 05:19:39.343144+01 | 1486268379.34314 | pgbench_history  |                0
 2017-02-05 05:19:39.343144+01 | 1486268379.34314 | pgbench_branches |             8192

 2017-02-05 05:19:40.410504+01 | 1486268380.4105 | pgbench_accounts |       1391968256
 2017-02-05 05:19:40.410504+01 | 1486268380.4105 | pgbench_tellers  |            49152
 2017-02-05 05:19:40.410504+01 | 1486268380.4105 | pgbench_history  |                0
 2017-02-05 05:19:40.410504+01 | 1486268380.4105 | pgbench_branches |             8192

 2017-02-05 05:19:41.483834+01 | 1486268381.48383 | pgbench_accounts |       1391968256
 2017-02-05 05:19:41.483834+01 | 1486268381.48383 | pgbench_tellers  |            49152
 2017-02-05 05:19:41.483834+01 | 1486268381.48383 | pgbench_history  |                0
 2017-02-05 05:19:41.483834+01 | 1486268381.48383 | pgbench_branches |             8192

 2017-02-05 05:19:42.556516+01 | 1486268382.55652 | pgbench_accounts |       1391968256
 2017-02-05 05:19:42.556516+01 | 1486268382.55652 | pgbench_tellers  |            49152
 2017-02-05 05:19:42.556516+01 | 1486268382.55652 | pgbench_history  |                0
 2017-02-05 05:19:42.556516+01 | 1486268382.55652 | pgbench_branches |             8192

 2017-02-05 05:19:43.633781+01 | 1486268383.63378 | pgbench_accounts |       1391968256
 2017-02-05 05:19:43.633781+01 | 1486268383.63378 | pgbench_tellers  |            49152
 2017-02-05 05:19:43.633781+01 | 1486268383.63378 | pgbench_history  |                0
 2017-02-05 05:19:43.633781+01 | 1486268383.63378 | pgbench_branches |             8192

 2017-02-05 05:19:44.70833+01 | 1486268384.70833 | pgbench_accounts |       1391968256
 2017-02-05 05:19:44.70833+01 | 1486268384.70833 | pgbench_tellers  |            49152
 2017-02-05 05:19:44.70833+01 | 1486268384.70833 | pgbench_history  |                0
 2017-02-05 05:19:44.70833+01 | 1486268384.70833 | pgbench_branches |             8192

 2017-02-05 05:19:45.780166+01 | 1486268385.78017 | pgbench_accounts |       1391968256
 2017-02-05 05:19:45.780166+01 | 1486268385.78017 | pgbench_tellers  |            49152
 2017-02-05 05:19:45.780166+01 | 1486268385.78017 | pgbench_history  |                0
 2017-02-05 05:19:45.780166+01 | 1486268385.78017 | pgbench_branches |             8192

 2017-02-05 05:19:46.854832+01 | 1486268386.85483 | pgbench_accounts |       1391968256
 2017-02-05 05:19:46.854832+01 | 1486268386.85483 | pgbench_tellers  |            49152
 2017-02-05 05:19:46.854832+01 | 1486268386.85483 | pgbench_history  |                0
 2017-02-05 05:19:46.854832+01 | 1486268386.85483 | pgbench_branches |             8192

 2017-02-05 05:19:47.930777+01 | 1486268387.93078 | pgbench_accounts |       1391968256
 2017-02-05 05:19:47.930777+01 | 1486268387.93078 | pgbench_tellers  |            49152
 2017-02-05 05:19:47.930777+01 | 1486268387.93078 | pgbench_history  |                0
 2017-02-05 05:19:47.930777+01 | 1486268387.93078 | pgbench_branches |             8192

 2017-02-05 05:19:49.004848+01 | 1486268389.00485 | pgbench_accounts |       1391968256
 2017-02-05 05:19:49.004848+01 | 1486268389.00485 | pgbench_tellers  |            49152
 2017-02-05 05:19:49.004848+01 | 1486268389.00485 | pgbench_history  |                0
 2017-02-05 05:19:49.004848+01 | 1486268389.00485 | pgbench_branches |             8192

 2017-02-05 05:19:50.081819+01 | 1486268390.08182 | pgbench_accounts |       1391968256
 2017-02-05 05:19:50.081819+01 | 1486268390.08182 | pgbench_tellers  |            49152
 2017-02-05 05:19:50.081819+01 | 1486268390.08182 | pgbench_history  |                0
 2017-02-05 05:19:50.081819+01 | 1486268390.08182 | pgbench_branches |             8192

 2017-02-05 05:19:51.153522+01 | 1486268391.15352 | pgbench_accounts |       1391968256
 2017-02-05 05:19:51.153522+01 | 1486268391.15352 | pgbench_tellers  |            49152
 2017-02-05 05:19:51.153522+01 | 1486268391.15352 | pgbench_history  |                0
 2017-02-05 05:19:51.153522+01 | 1486268391.15352 | pgbench_branches |             8192

 2017-02-05 05:19:52.229093+01 | 1486268392.22909 | pgbench_accounts |       1391968256
 2017-02-05 05:19:52.229093+01 | 1486268392.22909 | pgbench_tellers  |            49152
 2017-02-05 05:19:52.229093+01 | 1486268392.22909 | pgbench_history  |                0
 2017-02-05 05:19:52.229093+01 | 1486268392.22909 | pgbench_branches |             8192

 2017-02-05 05:19:53.303932+01 | 1486268393.30393 | pgbench_accounts |       1391968256
 2017-02-05 05:19:53.303932+01 | 1486268393.30393 | pgbench_tellers  |            49152
 2017-02-05 05:19:53.303932+01 | 1486268393.30393 | pgbench_history  |                0
 2017-02-05 05:19:53.303932+01 | 1486268393.30393 | pgbench_branches |             8192

 2017-02-05 05:19:54.376258+01 | 1486268394.37626 | pgbench_accounts |       1391968256
 2017-02-05 05:19:54.376258+01 | 1486268394.37626 | pgbench_tellers  |            49152
 2017-02-05 05:19:54.376258+01 | 1486268394.37626 | pgbench_history  |                0
 2017-02-05 05:19:54.376258+01 | 1486268394.37626 | pgbench_branches |             8192

 2017-02-05 05:19:55.454955+01 | 1486268395.45496 | pgbench_accounts |       1391968256
 2017-02-05 05:19:55.454955+01 | 1486268395.45496 | pgbench_tellers  |            49152
 2017-02-05 05:19:55.454955+01 | 1486268395.45496 | pgbench_history  |                0
 2017-02-05 05:19:55.454955+01 | 1486268395.45496 | pgbench_branches |             8192

 2017-02-05 05:19:56.535502+01 | 1486268396.5355 | pgbench_accounts |       1391968256
 2017-02-05 05:19:56.535502+01 | 1486268396.5355 | pgbench_tellers  |            49152
 2017-02-05 05:19:56.535502+01 | 1486268396.5355 | pgbench_history  |                0
 2017-02-05 05:19:56.535502+01 | 1486268396.5355 | pgbench_branches |             8192

 2017-02-05 05:19:57.613077+01 | 1486268397.61308 | pgbench_accounts |       1391968256
 2017-02-05 05:19:57.613077+01 | 1486268397.61308 | pgbench_tellers  |            49152
 2017-02-05 05:19:57.613077+01 | 1486268397.61308 | pgbench_history  |                0
 2017-02-05 05:19:57.613077+01 | 1486268397.61308 | pgbench_branches |             8192

 2017-02-05 05:19:58.6909+01 | 1486268398.6909 | pgbench_accounts |       1391968256
 2017-02-05 05:19:58.6909+01 | 1486268398.6909 | pgbench_tellers  |            49152
 2017-02-05 05:19:58.6909+01 | 1486268398.6909 | pgbench_history  |                0
 2017-02-05 05:19:58.6909+01 | 1486268398.6909 | pgbench_branches |             8192

 2017-02-05 05:19:59.769935+01 | 1486268399.76993 | pgbench_accounts |       1391968256
 2017-02-05 05:19:59.769935+01 | 1486268399.76993 | pgbench_tellers  |            49152
 2017-02-05 05:19:59.769935+01 | 1486268399.76993 | pgbench_history  |                0
 2017-02-05 05:19:59.769935+01 | 1486268399.76993 | pgbench_branches |             8192

 2017-02-05 05:20:00.843902+01 | 1486268400.8439 | pgbench_accounts |       1391968256
 2017-02-05 05:20:00.843902+01 | 1486268400.8439 | pgbench_tellers  |            49152
 2017-02-05 05:20:00.843902+01 | 1486268400.8439 | pgbench_history  |                0
 2017-02-05 05:20:00.843902+01 | 1486268400.8439 | pgbench_branches |             8192

 2017-02-05 05:20:01.920387+01 | 1486268401.92039 | pgbench_accounts |       1391968256
 2017-02-05 05:20:01.920387+01 | 1486268401.92039 | pgbench_tellers  |            49152
 2017-02-05 05:20:01.920387+01 | 1486268401.92039 | pgbench_history  |                0
 2017-02-05 05:20:01.920387+01 | 1486268401.92039 | pgbench_branches |             8192

 2017-02-05 05:20:02.990974+01 | 1486268402.99097 | pgbench_accounts |       1391968256
 2017-02-05 05:20:02.990974+01 | 1486268402.99097 | pgbench_tellers  |            49152
 2017-02-05 05:20:02.990974+01 | 1486268402.99097 | pgbench_history  |                0
 2017-02-05 05:20:02.990974+01 | 1486268402.99097 | pgbench_branches |             8192

 2017-02-05 05:20:04.062336+01 | 1486268404.06234 | pgbench_accounts |       1391968256
 2017-02-05 05:20:04.062336+01 | 1486268404.06234 | pgbench_tellers  |            49152
 2017-02-05 05:20:04.062336+01 | 1486268404.06234 | pgbench_history  |                0
 2017-02-05 05:20:04.062336+01 | 1486268404.06234 | pgbench_branches |             8192

 2017-02-05 05:20:05.132041+01 | 1486268405.13204 | pgbench_accounts |       1391968256
 2017-02-05 05:20:05.132041+01 | 1486268405.13204 | pgbench_tellers  |            49152
 2017-02-05 05:20:05.132041+01 | 1486268405.13204 | pgbench_history  |                0
 2017-02-05 05:20:05.132041+01 | 1486268405.13204 | pgbench_branches |             8192

 2017-02-05 05:20:06.204986+01 | 1486268406.20499 | pgbench_accounts |       1391968256
 2017-02-05 05:20:06.204986+01 | 1486268406.20499 | pgbench_tellers  |            49152
 2017-02-05 05:20:06.204986+01 | 1486268406.20499 | pgbench_history  |                0
 2017-02-05 05:20:06.204986+01 | 1486268406.20499 | pgbench_branches |             8192

 2017-02-05 05:20:07.275615+01 | 1486268407.27561 | pgbench_accounts |       1391968256
 2017-02-05 05:20:07.275615+01 | 1486268407.27561 | pgbench_tellers  |            49152
 2017-02-05 05:20:07.275615+01 | 1486268407.27561 | pgbench_history  |                0
 2017-02-05 05:20:07.275615+01 | 1486268407.27561 | pgbench_branches |             8192

 2017-02-05 05:20:08.344377+01 | 1486268408.34438 | pgbench_accounts |       1391968256
 2017-02-05 05:20:08.344377+01 | 1486268408.34438 | pgbench_tellers  |            49152
 2017-02-05 05:20:08.344377+01 | 1486268408.34438 | pgbench_history  |                0
 2017-02-05 05:20:08.344377+01 | 1486268408.34438 | pgbench_branches |             8192

 2017-02-05 05:20:09.421451+01 | 1486268409.42145 | pgbench_accounts |       1391968256
 2017-02-05 05:20:09.421451+01 | 1486268409.42145 | pgbench_tellers  |            49152
 2017-02-05 05:20:09.421451+01 | 1486268409.42145 | pgbench_history  |                0
 2017-02-05 05:20:09.421451+01 | 1486268409.42145 | pgbench_branches |             8192

 2017-02-05 05:20:10.498857+01 | 1486268410.49886 | pgbench_accounts |       1391968256
 2017-02-05 05:20:10.498857+01 | 1486268410.49886 | pgbench_tellers  |            49152
 2017-02-05 05:20:10.498857+01 | 1486268410.49886 | pgbench_history  |                0
 2017-02-05 05:20:10.498857+01 | 1486268410.49886 | pgbench_branches |             8192

 2017-02-05 05:20:11.577071+01 | 1486268411.57707 | pgbench_accounts |       1391968256
 2017-02-05 05:20:11.577071+01 | 1486268411.57707 | pgbench_tellers  |            49152
 2017-02-05 05:20:11.577071+01 | 1486268411.57707 | pgbench_history  |                0
 2017-02-05 05:20:11.577071+01 | 1486268411.57707 | pgbench_branches |             8192

 2017-02-05 05:20:12.650812+01 | 1486268412.65081 | pgbench_accounts |       1391968256
 2017-02-05 05:20:12.650812+01 | 1486268412.65081 | pgbench_tellers  |            49152
 2017-02-05 05:20:12.650812+01 | 1486268412.65081 | pgbench_history  |                0
 2017-02-05 05:20:12.650812+01 | 1486268412.65081 | pgbench_branches |             8192

 2017-02-05 05:20:13.72321+01 | 1486268413.72321 | pgbench_accounts |       1391968256
 2017-02-05 05:20:13.72321+01 | 1486268413.72321 | pgbench_tellers  |            49152
 2017-02-05 05:20:13.72321+01 | 1486268413.72321 | pgbench_history  |                0
 2017-02-05 05:20:13.72321+01 | 1486268413.72321 | pgbench_branches |             8192

 2017-02-05 05:20:14.795649+01 | 1486268414.79565 | pgbench_accounts |       1391968256
 2017-02-05 05:20:14.795649+01 | 1486268414.79565 | pgbench_tellers  |            49152
 2017-02-05 05:20:14.795649+01 | 1486268414.79565 | pgbench_history  |                0
 2017-02-05 05:20:14.795649+01 | 1486268414.79565 | pgbench_branches |             8192

 2017-02-05 05:20:15.86931+01 | 1486268415.86931 | pgbench_accounts |       1391968256
 2017-02-05 05:20:15.86931+01 | 1486268415.86931 | pgbench_tellers  |            49152
 2017-02-05 05:20:15.86931+01 | 1486268415.86931 | pgbench_history  |                0
 2017-02-05 05:20:15.86931+01 | 1486268415.86931 | pgbench_branches |             8192

 2017-02-05 05:20:16.944023+01 | 1486268416.94402 | pgbench_accounts |       1391968256
 2017-02-05 05:20:16.944023+01 | 1486268416.94402 | pgbench_tellers  |            49152
 2017-02-05 05:20:16.944023+01 | 1486268416.94402 | pgbench_history  |                0
 2017-02-05 05:20:16.944023+01 | 1486268416.94402 | pgbench_branches |             8192

 2017-02-05 05:20:18.020329+01 | 1486268418.02033 | pgbench_accounts |       1391968256
 2017-02-05 05:20:18.020329+01 | 1486268418.02033 | pgbench_tellers  |            49152
 2017-02-05 05:20:18.020329+01 | 1486268418.02033 | pgbench_history  |                0
 2017-02-05 05:20:18.020329+01 | 1486268418.02033 | pgbench_branches |             8192

 2017-02-05 05:20:19.097692+01 | 1486268419.09769 | pgbench_accounts |       1391968256
 2017-02-05 05:20:19.097692+01 | 1486268419.09769 | pgbench_tellers  |            49152
 2017-02-05 05:20:19.097692+01 | 1486268419.09769 | pgbench_history  |                0
 2017-02-05 05:20:19.097692+01 | 1486268419.09769 | pgbench_branches |             8192

 2017-02-05 05:20:20.172606+01 | 1486268420.17261 | pgbench_accounts |       1391968256
 2017-02-05 05:20:20.172606+01 | 1486268420.17261 | pgbench_tellers  |            49152
 2017-02-05 05:20:20.172606+01 | 1486268420.17261 | pgbench_history  |                0
 2017-02-05 05:20:20.172606+01 | 1486268420.17261 | pgbench_branches |             8192

 2017-02-05 05:20:21.247646+01 | 1486268421.24765 | pgbench_accounts |       1391968256
 2017-02-05 05:20:21.247646+01 | 1486268421.24765 | pgbench_tellers  |            49152
 2017-02-05 05:20:21.247646+01 | 1486268421.24765 | pgbench_history  |                0
 2017-02-05 05:20:21.247646+01 | 1486268421.24765 | pgbench_branches |             8192

 2017-02-05 05:20:22.318164+01 | 1486268422.31816 | pgbench_accounts |       1391968256
 2017-02-05 05:20:22.318164+01 | 1486268422.31816 | pgbench_tellers  |            49152
 2017-02-05 05:20:22.318164+01 | 1486268422.31816 | pgbench_history  |                0
 2017-02-05 05:20:22.318164+01 | 1486268422.31816 | pgbench_branches |             8192

 2017-02-05 05:20:23.403509+01 | 1486268423.40351 | pgbench_accounts |       1391968256
 2017-02-05 05:20:23.403509+01 | 1486268423.40351 | pgbench_tellers  |            49152
 2017-02-05 05:20:23.403509+01 | 1486268423.40351 | pgbench_history  |                0
 2017-02-05 05:20:23.403509+01 | 1486268423.40351 | pgbench_branches |             8192

 2017-02-05 05:20:24.480873+01 | 1486268424.48087 | pgbench_accounts |       1391968256
 2017-02-05 05:20:24.480873+01 | 1486268424.48087 | pgbench_tellers  |            49152
 2017-02-05 05:20:24.480873+01 | 1486268424.48087 | pgbench_history  |                0
 2017-02-05 05:20:24.480873+01 | 1486268424.48087 | pgbench_branches |             8192

 2017-02-05 05:20:25.557197+01 | 1486268425.5572 | pgbench_accounts |       1391968256
 2017-02-05 05:20:25.557197+01 | 1486268425.5572 | pgbench_tellers  |            49152
 2017-02-05 05:20:25.557197+01 | 1486268425.5572 | pgbench_history  |                0
 2017-02-05 05:20:25.557197+01 | 1486268425.5572 | pgbench_branches |             8192

 2017-02-05 05:20:26.640378+01 | 1486268426.64038 | pgbench_accounts |       1391968256
 2017-02-05 05:20:26.640378+01 | 1486268426.64038 | pgbench_tellers  |            49152
 2017-02-05 05:20:26.640378+01 | 1486268426.64038 | pgbench_history  |                0
 2017-02-05 05:20:26.640378+01 | 1486268426.64038 | pgbench_branches |             8192

 2017-02-05 05:20:27.71367+01 | 1486268427.71367 | pgbench_accounts |       1391968256
 2017-02-05 05:20:27.71367+01 | 1486268427.71367 | pgbench_tellers  |            49152
 2017-02-05 05:20:27.71367+01 | 1486268427.71367 | pgbench_history  |                0
 2017-02-05 05:20:27.71367+01 | 1486268427.71367 | pgbench_branches |             8192

 2017-02-05 05:20:28.788334+01 | 1486268428.78833 | pgbench_accounts |       1391968256
 2017-02-05 05:20:28.788334+01 | 1486268428.78833 | pgbench_tellers  |            49152
 2017-02-05 05:20:28.788334+01 | 1486268428.78833 | pgbench_history  |                0
 2017-02-05 05:20:28.788334+01 | 1486268428.78833 | pgbench_branches |             8192

 2017-02-05 05:20:29.858152+01 | 1486268429.85815 | pgbench_accounts |       1391968256
 2017-02-05 05:20:29.858152+01 | 1486268429.85815 | pgbench_tellers  |            49152
 2017-02-05 05:20:29.858152+01 | 1486268429.85815 | pgbench_history  |                0
 2017-02-05 05:20:29.858152+01 | 1486268429.85815 | pgbench_branches |             8192

 2017-02-05 05:20:30.933822+01 | 1486268430.93382 | pgbench_accounts |       1391968256
 2017-02-05 05:20:30.933822+01 | 1486268430.93382 | pgbench_tellers  |            49152
 2017-02-05 05:20:30.933822+01 | 1486268430.93382 | pgbench_history  |                0
 2017-02-05 05:20:30.933822+01 | 1486268430.93382 | pgbench_branches |             8192

 2017-02-05 05:20:32.011165+01 | 1486268432.01116 | pgbench_accounts |       1391968256
 2017-02-05 05:20:32.011165+01 | 1486268432.01116 | pgbench_tellers  |            49152
 2017-02-05 05:20:32.011165+01 | 1486268432.01116 | pgbench_history  |                0
 2017-02-05 05:20:32.011165+01 | 1486268432.01116 | pgbench_branches |             8192

 2017-02-05 05:20:33.086999+01 | 1486268433.087 | pgbench_accounts |       1391968256
 2017-02-05 05:20:33.086999+01 | 1486268433.087 | pgbench_tellers  |            49152
 2017-02-05 05:20:33.086999+01 | 1486268433.087 | pgbench_history  |                0
 2017-02-05 05:20:33.086999+01 | 1486268433.087 | pgbench_branches |             8192

 2017-02-05 05:20:34.168604+01 | 1486268434.1686 | pgbench_accounts |       1391968256
 2017-02-05 05:20:34.168604+01 | 1486268434.1686 | pgbench_tellers  |            49152
 2017-02-05 05:20:34.168604+01 | 1486268434.1686 | pgbench_history  |                0
 2017-02-05 05:20:34.168604+01 | 1486268434.1686 | pgbench_branches |             8192

 2017-02-05 05:20:35.241978+01 | 1486268435.24198 | pgbench_accounts |       1391968256
 2017-02-05 05:20:35.241978+01 | 1486268435.24198 | pgbench_tellers  |            49152
 2017-02-05 05:20:35.241978+01 | 1486268435.24198 | pgbench_history  |                0
 2017-02-05 05:20:35.241978+01 | 1486268435.24198 | pgbench_branches |             8192

 2017-02-05 05:20:36.317175+01 | 1486268436.31717 | pgbench_accounts |       1391968256
 2017-02-05 05:20:36.317175+01 | 1486268436.31717 | pgbench_tellers  |            49152
 2017-02-05 05:20:36.317175+01 | 1486268436.31717 | pgbench_history  |                0
 2017-02-05 05:20:36.317175+01 | 1486268436.31717 | pgbench_branches |             8192

 2017-02-05 05:20:37.391253+01 | 1486268437.39125 | pgbench_accounts |       1391968256
 2017-02-05 05:20:37.391253+01 | 1486268437.39125 | pgbench_tellers  |            49152
 2017-02-05 05:20:37.391253+01 | 1486268437.39125 | pgbench_history  |                0
 2017-02-05 05:20:37.391253+01 | 1486268437.39125 | pgbench_branches |             8192

 2017-02-05 05:20:38.458927+01 | 1486268438.45893 | pgbench_accounts |       1391968256
 2017-02-05 05:20:38.458927+01 | 1486268438.45893 | pgbench_tellers  |            49152
 2017-02-05 05:20:38.458927+01 | 1486268438.45893 | pgbench_history  |                0
 2017-02-05 05:20:38.458927+01 | 1486268438.45893 | pgbench_branches |             8192

 2017-02-05 05:20:39.530791+01 | 1486268439.53079 | pgbench_accounts |       1391968256
 2017-02-05 05:20:39.530791+01 | 1486268439.53079 | pgbench_tellers  |            49152
 2017-02-05 05:20:39.530791+01 | 1486268439.53079 | pgbench_history  |                0
 2017-02-05 05:20:39.530791+01 | 1486268439.53079 | pgbench_branches |             8192

 2017-02-05 05:20:40.595206+01 | 1486268440.59521 | pgbench_accounts |       1391968256
 2017-02-05 05:20:40.595206+01 | 1486268440.59521 | pgbench_tellers  |            49152
 2017-02-05 05:20:40.595206+01 | 1486268440.59521 | pgbench_history  |                0
 2017-02-05 05:20:40.595206+01 | 1486268440.59521 | pgbench_branches |             8192

 2017-02-05 05:20:41.672182+01 | 1486268441.67218 | pgbench_accounts |       1391968256
 2017-02-05 05:20:41.672182+01 | 1486268441.67218 | pgbench_tellers  |            49152
 2017-02-05 05:20:41.672182+01 | 1486268441.67218 | pgbench_history  |                0
 2017-02-05 05:20:41.672182+01 | 1486268441.67218 | pgbench_branches |             8192

 2017-02-05 05:20:42.745027+01 | 1486268442.74503 | pgbench_accounts |       1391968256
 2017-02-05 05:20:42.745027+01 | 1486268442.74503 | pgbench_tellers  |            49152
 2017-02-05 05:20:42.745027+01 | 1486268442.74503 | pgbench_history  |                0
 2017-02-05 05:20:42.745027+01 | 1486268442.74503 | pgbench_branches |             8192

 2017-02-05 05:20:43.822579+01 | 1486268443.82258 | pgbench_accounts |       1391968256
 2017-02-05 05:20:43.822579+01 | 1486268443.82258 | pgbench_tellers  |            49152
 2017-02-05 05:20:43.822579+01 | 1486268443.82258 | pgbench_history  |                0
 2017-02-05 05:20:43.822579+01 | 1486268443.82258 | pgbench_branches |             8192

 2017-02-05 05:20:44.904229+01 | 1486268444.90423 | pgbench_accounts |       1391968256
 2017-02-05 05:20:44.904229+01 | 1486268444.90423 | pgbench_tellers  |            49152
 2017-02-05 05:20:44.904229+01 | 1486268444.90423 | pgbench_history  |                0
 2017-02-05 05:20:44.904229+01 | 1486268444.90423 | pgbench_branches |             8192

 2017-02-05 05:20:45.987638+01 | 1486268445.98764 | pgbench_accounts |       1391968256
 2017-02-05 05:20:45.987638+01 | 1486268445.98764 | pgbench_tellers  |            49152
 2017-02-05 05:20:45.987638+01 | 1486268445.98764 | pgbench_history  |                0
 2017-02-05 05:20:45.987638+01 | 1486268445.98764 | pgbench_branches |             8192

 2017-02-05 05:20:47.076436+01 | 1486268447.07644 | pgbench_accounts |       1391968256
 2017-02-05 05:20:47.076436+01 | 1486268447.07644 | pgbench_tellers  |            49152
 2017-02-05 05:20:47.076436+01 | 1486268447.07644 | pgbench_history  |                0
 2017-02-05 05:20:47.076436+01 | 1486268447.07644 | pgbench_branches |             8192

 2017-02-05 05:20:48.147226+01 | 1486268448.14723 | pgbench_accounts |       1391968256
 2017-02-05 05:20:48.147226+01 | 1486268448.14723 | pgbench_tellers  |            49152
 2017-02-05 05:20:48.147226+01 | 1486268448.14723 | pgbench_history  |                0
 2017-02-05 05:20:48.147226+01 | 1486268448.14723 | pgbench_branches |             8192

 2017-02-05 05:20:49.223867+01 | 1486268449.22387 | pgbench_accounts |       1391968256
 2017-02-05 05:20:49.223867+01 | 1486268449.22387 | pgbench_tellers  |            49152
 2017-02-05 05:20:49.223867+01 | 1486268449.22387 | pgbench_history  |                0
 2017-02-05 05:20:49.223867+01 | 1486268449.22387 | pgbench_branches |             8192

 2017-02-05 05:20:50.30171+01 | 1486268450.30171 | pgbench_accounts |       1391968256
 2017-02-05 05:20:50.30171+01 | 1486268450.30171 | pgbench_tellers  |            49152
 2017-02-05 05:20:50.30171+01 | 1486268450.30171 | pgbench_history  |                0
 2017-02-05 05:20:50.30171+01 | 1486268450.30171 | pgbench_branches |             8192

 2017-02-05 05:20:51.381871+01 | 1486268451.38187 | pgbench_accounts |       1391968256
 2017-02-05 05:20:51.381871+01 | 1486268451.38187 | pgbench_tellers  |            49152
 2017-02-05 05:20:51.381871+01 | 1486268451.38187 | pgbench_history  |                0
 2017-02-05 05:20:51.381871+01 | 1486268451.38187 | pgbench_branches |             8192

 2017-02-05 05:20:52.45693+01 | 1486268452.45693 | pgbench_accounts |       1391968256
 2017-02-05 05:20:52.45693+01 | 1486268452.45693 | pgbench_tellers  |            49152
 2017-02-05 05:20:52.45693+01 | 1486268452.45693 | pgbench_history  |                0
 2017-02-05 05:20:52.45693+01 | 1486268452.45693 | pgbench_branches |             8192

 2017-02-05 05:20:53.537686+01 | 1486268453.53769 | pgbench_accounts |       1391968256
 2017-02-05 05:20:53.537686+01 | 1486268453.53769 | pgbench_tellers  |            49152
 2017-02-05 05:20:53.537686+01 | 1486268453.53769 | pgbench_history  |                0
 2017-02-05 05:20:53.537686+01 | 1486268453.53769 | pgbench_branches |             8192

