 2017-02-03 14:21:28.364529+01 | 1486128088.36453 | 3/1AD4B80                |           12913036160

 2017-02-03 14:21:29.465458+01 | 1486128089.46546 | 3/1AD4B80                |           12913036160

 2017-02-03 14:21:30.547686+01 | 1486128090.54769 | 3/1AD4B80                |           12913036160

 2017-02-03 14:21:31.645358+01 | 1486128091.64536 | 3/1AD4B80                |           12913036160

 2017-02-03 14:21:32.740234+01 | 1486128092.74023 | 3/1AD4B80                |           12913036160

 2017-02-03 14:21:33.832878+01 | 1486128093.83288 | 3/1AD4B80                |           12913036160

 2017-02-03 14:21:34.924222+01 | 1486128094.92422 | 3/1AD4B80                |           12913036160

 2017-02-03 14:21:36.028031+01 | 1486128096.02803 | 3/1AD4B80                |           12913036160

 2017-02-03 14:21:37.119821+01 | 1486128097.11982 | 3/1AD4B80                |           12913036160

 2017-02-03 14:21:38.216486+01 | 1486128098.21649 | 3/1AD4B80                |           12913036160

 2017-02-03 14:21:39.311438+01 | 1486128099.31144 | 3/1AD4B80                |           12913036160

 2017-02-03 14:21:40.406359+01 | 1486128100.40636 | 3/1AD4B80                |           12913036160

 2017-02-03 14:21:41.504725+01 | 1486128101.50472 | 3/1AD4B80                |           12913036160

 2017-02-03 14:21:42.59274+01 | 1486128102.59274 | 3/1AD4B80                |           12913036160

 2017-02-03 14:21:43.686314+01 | 1486128103.68631 | 3/1AD4BB8                |           12913036216

 2017-02-03 14:21:44.768084+01 | 1486128104.76808 | 3/1AD4BB8                |           12913036216

 2017-02-03 14:21:45.863155+01 | 1486128105.86315 | 3/1AD4BB8                |           12913036216

 2017-02-03 14:21:46.955448+01 | 1486128106.95545 | 3/1AD4BB8                |           12913036216

 2017-02-03 14:21:48.054013+01 | 1486128108.05401 | 3/1AD4BB8                |           12913036216

 2017-02-03 14:21:49.154509+01 | 1486128109.15451 | 3/1AD4BB8                |           12913036216

 2017-02-03 14:21:50.259287+01 | 1486128110.25929 | 3/1AD4BB8                |           12913036216

 2017-02-03 14:21:51.355059+01 | 1486128111.35506 | 3/1AD4BB8                |           12913036216

 2017-02-03 14:21:52.449941+01 | 1486128112.44994 | 3/1AD4BB8                |           12913036216

 2017-02-03 14:21:53.54807+01 | 1486128113.54807 | 3/1AD4BB8                |           12913036216

 2017-02-03 14:21:54.643089+01 | 1486128114.64309 | 3/1AD4BB8                |           12913036216

 2017-02-03 14:21:55.739563+01 | 1486128115.73956 | 3/1AD4BB8                |           12913036216

 2017-02-03 14:21:56.831557+01 | 1486128116.83156 | 3/1AD4BB8                |           12913036216

 2017-02-03 14:21:57.932621+01 | 1486128117.93262 | 3/1AD4BB8                |           12913036216

 2017-02-03 14:21:59.028777+01 | 1486128119.02878 | 3/1AD4BB8                |           12913036216

 2017-02-03 14:22:00.125258+01 | 1486128120.12526 | 3/1AD4BB8                |           12913036216

 2017-02-03 14:22:01.214867+01 | 1486128121.21487 | 3/1AD4BB8                |           12913036216

 2017-02-03 14:22:02.317602+01 | 1486128122.3176 | 3/1AD4BB8                |           12913036216

 2017-02-03 14:22:03.412732+01 | 1486128123.41273 | 3/1AD4BB8                |           12913036216

 2017-02-03 14:22:04.505569+01 | 1486128124.50557 | 3/1AD4BB8                |           12913036216

 2017-02-03 14:22:05.59546+01 | 1486128125.59546 | 3/1AD4BB8                |           12913036216

 2017-02-03 14:22:06.68719+01 | 1486128126.68719 | 3/1AD4BB8                |           12913036216

 2017-02-03 14:22:07.774633+01 | 1486128127.77463 | 3/1AD4BB8                |           12913036216

 2017-02-03 14:22:08.860233+01 | 1486128128.86023 | 3/1AD4BB8                |           12913036216

 2017-02-03 14:22:09.958808+01 | 1486128129.95881 | 3/1AD4BB8                |           12913036216

 2017-02-03 14:22:11.064959+01 | 1486128131.06496 | 3/1AD4BB8                |           12913036216

 2017-02-03 14:22:12.161258+01 | 1486128132.16126 | 3/1AD4BB8                |           12913036216

 2017-02-03 14:22:13.262263+01 | 1486128133.26226 | 3/1AD4BB8                |           12913036216

 2017-02-03 14:22:14.353566+01 | 1486128134.35357 | 3/1AD4BB8                |           12913036216

 2017-02-03 14:22:15.426032+01 | 1486128135.42603 | 3/1AD4BB8                |           12913036216

 2017-02-03 14:22:16.518579+01 | 1486128136.51858 | 3/1AD4BB8                |           12913036216

 2017-02-03 14:22:17.610658+01 | 1486128137.61066 | 3/1AD4BB8                |           12913036216

 2017-02-03 14:22:18.705007+01 | 1486128138.70501 | 3/1AD4BB8                |           12913036216

 2017-02-03 14:22:19.805448+01 | 1486128139.80545 | 3/1AD4BB8                |           12913036216

 2017-02-03 14:22:20.90424+01 | 1486128140.90424 | 3/1AD4BB8                |           12913036216

 2017-02-03 14:22:22.005445+01 | 1486128142.00545 | 3/1AD4BB8                |           12913036216

 2017-02-03 14:22:23.103074+01 | 1486128143.10307 | 3/1AD4BB8                |           12913036216

 2017-02-03 14:22:24.194032+01 | 1486128144.19403 | 3/1AD4BB8                |           12913036216

 2017-02-03 14:22:25.290467+01 | 1486128145.29047 | 3/1AD4BB8                |           12913036216

 2017-02-03 14:22:26.385174+01 | 1486128146.38517 | 3/1AD4BB8                |           12913036216

 2017-02-03 14:22:27.484943+01 | 1486128147.48494 | 3/1AD4BB8                |           12913036216

 2017-02-03 14:22:28.578797+01 | 1486128148.5788 | 3/1AD4BB8                |           12913036216

 2017-02-03 14:22:29.67395+01 | 1486128149.67395 | 3/1AD4BB8                |           12913036216

 2017-02-03 14:22:30.767301+01 | 1486128150.7673 | 3/1AD4BB8                |           12913036216

 2017-02-03 14:22:31.86696+01 | 1486128151.86696 | 3/1AD4BB8                |           12913036216

 2017-02-03 14:22:32.972322+01 | 1486128152.97232 | 3/1AD4BB8                |           12913036216

 2017-02-03 14:22:34.070619+01 | 1486128154.07062 | 3/1AD4BB8                |           12913036216

 2017-02-03 14:22:35.162035+01 | 1486128155.16203 | 3/1AD4BB8                |           12913036216

 2017-02-03 14:22:36.258976+01 | 1486128156.25898 | 3/1AD4BB8                |           12913036216

 2017-02-03 14:22:37.352907+01 | 1486128157.35291 | 3/1AD4BB8                |           12913036216

 2017-02-03 14:22:38.441938+01 | 1486128158.44194 | 3/1AD4BB8                |           12913036216

 2017-02-03 14:22:39.529153+01 | 1486128159.52915 | 3/1AD4BB8                |           12913036216

 2017-02-03 14:22:40.623758+01 | 1486128160.62376 | 3/1AD4BB8                |           12913036216

 2017-02-03 14:22:41.715726+01 | 1486128161.71573 | 3/1AD4BB8                |           12913036216

 2017-02-03 14:22:42.815423+01 | 1486128162.81542 | 3/1AD4BB8                |           12913036216

 2017-02-03 14:22:43.907566+01 | 1486128163.90757 | 3/1AD4BB8                |           12913036216

 2017-02-03 14:22:45.007701+01 | 1486128165.0077 | 3/1AD4BB8                |           12913036216

 2017-02-03 14:22:46.103295+01 | 1486128166.1033 | 3/1AD4BB8                |           12913036216

 2017-02-03 14:22:47.198989+01 | 1486128167.19899 | 3/1AD4BB8                |           12913036216

 2017-02-03 14:22:48.292803+01 | 1486128168.2928 | 3/1AD4BB8                |           12913036216

 2017-02-03 14:22:49.385305+01 | 1486128169.3853 | 3/1AD4BB8                |           12913036216

 2017-02-03 14:22:50.473517+01 | 1486128170.47352 | 3/1AD4BB8                |           12913036216

 2017-02-03 14:22:51.572036+01 | 1486128171.57204 | 3/1AD4BB8                |           12913036216

 2017-02-03 14:22:52.67125+01 | 1486128172.67125 | 3/1AD4BB8                |           12913036216

 2017-02-03 14:22:53.763177+01 | 1486128173.76318 | 3/1AD4BB8                |           12913036216

 2017-02-03 14:22:54.858025+01 | 1486128174.85803 | 3/1AD4BB8                |           12913036216

 2017-02-03 14:22:55.948692+01 | 1486128175.94869 | 3/1AD4BB8                |           12913036216

 2017-02-03 14:22:57.048781+01 | 1486128177.04878 | 3/1AD4BB8                |           12913036216

 2017-02-03 14:22:58.145928+01 | 1486128178.14593 | 3/1AD4BB8                |           12913036216

 2017-02-03 14:22:59.251691+01 | 1486128179.25169 | 3/1AD4BB8                |           12913036216

 2017-02-03 14:23:00.340406+01 | 1486128180.34041 | 3/1AD4BB8                |           12913036216

 2017-02-03 14:23:01.435256+01 | 1486128181.43526 | 3/1AD4BB8                |           12913036216

 2017-02-03 14:23:02.526591+01 | 1486128182.52659 | 3/1AD4BB8                |           12913036216

 2017-02-03 14:23:03.631779+01 | 1486128183.63178 | 3/1AD4BB8                |           12913036216

 2017-02-03 14:23:04.736975+01 | 1486128184.73697 | 3/1AD4BB8                |           12913036216

 2017-02-03 14:23:05.831107+01 | 1486128185.83111 | 3/1AD4BB8                |           12913036216

 2017-02-03 14:23:06.924195+01 | 1486128186.9242 | 3/1AD4BB8                |           12913036216

 2017-02-03 14:23:08.018498+01 | 1486128188.0185 | 3/1AD4BB8                |           12913036216

 2017-02-03 14:23:09.126148+01 | 1486128189.12615 | 3/1AD4BB8                |           12913036216

 2017-02-03 14:23:10.220757+01 | 1486128190.22076 | 3/1AD4BB8                |           12913036216

 2017-02-03 14:23:11.315025+01 | 1486128191.31503 | 3/1AD4BB8                |           12913036216

 2017-02-03 14:23:12.424674+01 | 1486128192.42467 | 3/1AD4BB8                |           12913036216

 2017-02-03 14:23:13.522797+01 | 1486128193.5228 | 3/1AD4BB8                |           12913036216

 2017-02-03 14:23:14.619333+01 | 1486128194.61933 | 3/1AD4BB8                |           12913036216

 2017-02-03 14:23:15.714426+01 | 1486128195.71443 | 3/1AD4BB8                |           12913036216

 2017-02-03 14:23:16.81044+01 | 1486128196.81044 | 3/1AD4BB8                |           12913036216

 2017-02-03 14:23:17.910781+01 | 1486128197.91078 | 3/1AD4BB8                |           12913036216

 2017-02-03 14:23:19.005504+01 | 1486128199.0055 | 3/1AD4BB8                |           12913036216

 2017-02-03 14:23:20.100094+01 | 1486128200.10009 | 3/1AD4BB8                |           12913036216

 2017-02-03 14:23:21.190697+01 | 1486128201.1907 | 3/1AD4BB8                |           12913036216

 2017-02-03 14:23:22.284441+01 | 1486128202.28444 | 3/1AD4BB8                |           12913036216

 2017-02-03 14:23:23.386991+01 | 1486128203.38699 | 3/1AD4BB8                |           12913036216

 2017-02-03 14:23:24.477469+01 | 1486128204.47747 | 3/1AD4BB8                |           12913036216

 2017-02-03 14:23:25.580199+01 | 1486128205.5802 | 3/1AD4BB8                |           12913036216

 2017-02-03 14:23:26.662294+01 | 1486128206.66229 | 3/1AD4BB8                |           12913036216

 2017-02-03 14:23:27.751568+01 | 1486128207.75157 | 3/1AD4BB8                |           12913036216

 2017-02-03 14:23:28.835338+01 | 1486128208.83534 | 3/1AD4BB8                |           12913036216

 2017-02-03 14:23:29.936226+01 | 1486128209.93623 | 3/1AD4BB8                |           12913036216

 2017-02-03 14:23:31.029034+01 | 1486128211.02903 | 3/1AD4BB8                |           12913036216

 2017-02-03 14:23:32.133481+01 | 1486128212.13348 | 3/1AD4BB8                |           12913036216

 2017-02-03 14:23:33.225497+01 | 1486128213.2255 | 3/1AD4BB8                |           12913036216

 2017-02-03 14:23:34.316674+01 | 1486128214.31667 | 3/1AD4BB8                |           12913036216

 2017-02-03 14:23:35.412487+01 | 1486128215.41249 | 3/1AD4BB8                |           12913036216

 2017-02-03 14:23:36.510172+01 | 1486128216.51017 | 3/1AD4BB8                |           12913036216

 2017-02-03 14:23:37.611478+01 | 1486128217.61148 | 3/1AD4BB8                |           12913036216

 2017-02-03 14:23:38.696777+01 | 1486128218.69678 | 3/1AD4BB8                |           12913036216

 2017-02-03 14:23:39.793659+01 | 1486128219.79366 | 3/1AD4BB8                |           12913036216

 2017-02-03 14:23:40.885155+01 | 1486128220.88515 | 3/1AD4BB8                |           12913036216

 2017-02-03 14:23:41.987392+01 | 1486128221.98739 | 3/1AD4BB8                |           12913036216

 2017-02-03 14:23:43.07547+01 | 1486128223.07547 | 3/1AD4BB8                |           12913036216

 2017-02-03 14:23:44.166865+01 | 1486128224.16687 | 3/1AD4BB8                |           12913036216

 2017-02-03 14:23:45.259131+01 | 1486128225.25913 | 3/1AD4BB8                |           12913036216

 2017-02-03 14:23:46.358+01 | 1486128226.358 | 3/1AD4BB8                |           12913036216

 2017-02-03 14:23:47.44458+01 | 1486128227.44458 | 3/1AD4BB8                |           12913036216

 2017-02-03 14:23:48.535229+01 | 1486128228.53523 | 3/1AD4BB8                |           12913036216

 2017-02-03 14:23:49.632136+01 | 1486128229.63214 | 3/1AD4BB8                |           12913036216

 2017-02-03 14:23:50.727588+01 | 1486128230.72759 | 3/1AD4BB8                |           12913036216

 2017-02-03 14:23:51.821835+01 | 1486128231.82184 | 3/1AD4BB8                |           12913036216

 2017-02-03 14:23:52.915003+01 | 1486128232.915 | 3/1AD4BB8                |           12913036216

 2017-02-03 14:23:54.006837+01 | 1486128234.00684 | 3/1AD4BB8                |           12913036216

 2017-02-03 14:23:55.105411+01 | 1486128235.10541 | 3/1AD4BB8                |           12913036216

 2017-02-03 14:23:56.202934+01 | 1486128236.20293 | 3/1AD4BB8                |           12913036216

 2017-02-03 14:23:57.298807+01 | 1486128237.29881 | 3/1AD4BB8                |           12913036216

 2017-02-03 14:23:58.389827+01 | 1486128238.38983 | 3/1AD4BB8                |           12913036216

 2017-02-03 14:23:59.478238+01 | 1486128239.47824 | 3/1AD4BB8                |           12913036216

 2017-02-03 14:24:00.577725+01 | 1486128240.57772 | 3/1AD4BB8                |           12913036216

 2017-02-03 14:24:01.668221+01 | 1486128241.66822 | 3/1AD4BB8                |           12913036216

 2017-02-03 14:24:02.771257+01 | 1486128242.77126 | 3/1AD4BB8                |           12913036216

 2017-02-03 14:24:03.865447+01 | 1486128243.86545 | 3/1AD4BB8                |           12913036216

 2017-02-03 14:24:04.962969+01 | 1486128244.96297 | 3/1AD4BB8                |           12913036216

 2017-02-03 14:24:06.059597+01 | 1486128246.0596 | 3/1AD4BB8                |           12913036216

 2017-02-03 14:24:07.156614+01 | 1486128247.15661 | 3/1AD4BB8                |           12913036216

 2017-02-03 14:24:08.24688+01 | 1486128248.24688 | 3/1AD4BB8                |           12913036216

 2017-02-03 14:24:09.345318+01 | 1486128249.34532 | 3/1AD4BB8                |           12913036216

 2017-02-03 14:24:10.441685+01 | 1486128250.44168 | 3/1AD4BB8                |           12913036216

 2017-02-03 14:24:11.53821+01 | 1486128251.53821 | 3/1AD4BB8                |           12913036216

 2017-02-03 14:24:12.634054+01 | 1486128252.63405 | 3/1AD4BB8                |           12913036216

 2017-02-03 14:24:13.728427+01 | 1486128253.72843 | 3/1AD4BB8                |           12913036216

 2017-02-03 14:24:14.826181+01 | 1486128254.82618 | 3/1AD4BB8                |           12913036216

 2017-02-03 14:24:15.913791+01 | 1486128255.91379 | 3/1AD4BB8                |           12913036216

 2017-02-03 14:24:17.005706+01 | 1486128257.00571 | 3/1AD4BB8                |           12913036216

 2017-02-03 14:24:18.107007+01 | 1486128258.10701 | 3/1AD4BB8                |           12913036216

 2017-02-03 14:24:19.203489+01 | 1486128259.20349 | 3/1AD4BB8                |           12913036216

 2017-02-03 14:24:20.305648+01 | 1486128260.30565 | 3/1AD4BB8                |           12913036216

 2017-02-03 14:24:21.401203+01 | 1486128261.4012 | 3/1AD4BB8                |           12913036216

 2017-02-03 14:24:22.499423+01 | 1486128262.49942 | 3/1AD4BB8                |           12913036216

 2017-02-03 14:24:23.59379+01 | 1486128263.59379 | 3/1AD4BB8                |           12913036216

 2017-02-03 14:24:24.690043+01 | 1486128264.69004 | 3/1AD4BB8                |           12913036216

 2017-02-03 14:24:25.779927+01 | 1486128265.77993 | 3/1AD4BB8                |           12913036216

 2017-02-03 14:24:26.874754+01 | 1486128266.87475 | 3/1AD4BB8                |           12913036216

 2017-02-03 14:24:27.974387+01 | 1486128267.97439 | 3/1AD4BB8                |           12913036216

 2017-02-03 14:24:29.071223+01 | 1486128269.07122 | 3/1AD4BB8                |           12913036216

 2017-02-03 14:24:30.168191+01 | 1486128270.16819 | 3/1AD4BB8                |           12913036216

 2017-02-03 14:24:31.269293+01 | 1486128271.26929 | 3/1AD4BB8                |           12913036216

 2017-02-03 14:24:32.362521+01 | 1486128272.36252 | 3/1AD4BB8                |           12913036216

 2017-02-03 14:24:33.464051+01 | 1486128273.46405 | 3/1AD4BB8                |           12913036216

 2017-02-03 14:24:34.561811+01 | 1486128274.56181 | 3/1AD4BB8                |           12913036216

 2017-02-03 14:24:35.672426+01 | 1486128275.67243 | 3/1AD4BB8                |           12913036216

 2017-02-03 14:24:36.762693+01 | 1486128276.76269 | 3/1AD4BB8                |           12913036216

 2017-02-03 14:24:37.853373+01 | 1486128277.85337 | 3/1AD4BB8                |           12913036216

 2017-02-03 14:24:38.943024+01 | 1486128278.94302 | 3/1AD4BB8                |           12913036216

 2017-02-03 14:24:40.033746+01 | 1486128280.03375 | 3/1AD4BB8                |           12913036216

 2017-02-03 14:24:41.128258+01 | 1486128281.12826 | 3/1AD4BB8                |           12913036216

 2017-02-03 14:24:42.230204+01 | 1486128282.2302 | 3/1AD4BB8                |           12913036216

 2017-02-03 14:24:43.322805+01 | 1486128283.3228 | 3/1AD4BB8                |           12913036216

 2017-02-03 14:24:44.414849+01 | 1486128284.41485 | 3/1AD4BB8                |           12913036216

 2017-02-03 14:24:45.516248+01 | 1486128285.51625 | 3/1AD4BB8                |           12913036216

 2017-02-03 14:24:46.607555+01 | 1486128286.60755 | 3/1AD4BB8                |           12913036216

 2017-02-03 14:24:47.695836+01 | 1486128287.69584 | 3/1AD4BB8                |           12913036216

 2017-02-03 14:24:48.786363+01 | 1486128288.78636 | 3/1AD4BB8                |           12913036216

 2017-02-03 14:24:49.887829+01 | 1486128289.88783 | 3/1AD4BB8                |           12913036216

 2017-02-03 14:24:50.981298+01 | 1486128290.9813 | 3/1AD4BB8                |           12913036216

 2017-02-03 14:24:52.074719+01 | 1486128292.07472 | 3/1AD4BB8                |           12913036216

 2017-02-03 14:24:53.178114+01 | 1486128293.17811 | 3/1AD4BB8                |           12913036216

 2017-02-03 14:24:54.275745+01 | 1486128294.27574 | 3/1AD4BB8                |           12913036216

 2017-02-03 14:24:55.376277+01 | 1486128295.37628 | 3/1AD4BB8                |           12913036216

 2017-02-03 14:24:56.476712+01 | 1486128296.47671 | 3/1AD4BB8                |           12913036216

 2017-02-03 14:24:57.567301+01 | 1486128297.5673 | 3/1AD4BB8                |           12913036216

 2017-02-03 14:24:58.66634+01 | 1486128298.66634 | 3/1AD4BB8                |           12913036216

 2017-02-03 14:24:59.7645+01 | 1486128299.7645 | 3/1AD4BB8                |           12913036216

 2017-02-03 14:25:00.860533+01 | 1486128300.86053 | 3/1AD4BB8                |           12913036216

 2017-02-03 14:25:01.955862+01 | 1486128301.95586 | 3/1AD4BB8                |           12913036216

 2017-02-03 14:25:03.043815+01 | 1486128303.04381 | 3/1AD4BB8                |           12913036216

 2017-02-03 14:25:04.136654+01 | 1486128304.13665 | 3/1AD4BB8                |           12913036216

 2017-02-03 14:25:05.233618+01 | 1486128305.23362 | 3/1AD4BB8                |           12913036216

 2017-02-03 14:25:06.331977+01 | 1486128306.33198 | 3/1AD4BB8                |           12913036216

 2017-02-03 14:25:07.429765+01 | 1486128307.42976 | 3/1AD4BB8                |           12913036216

 2017-02-03 14:25:08.529454+01 | 1486128308.52945 | 3/1AD4BB8                |           12913036216

 2017-02-03 14:25:09.62379+01 | 1486128309.62379 | 3/1AD4BB8                |           12913036216

 2017-02-03 14:25:10.717291+01 | 1486128310.71729 | 3/1AD4BB8                |           12913036216

 2017-02-03 14:25:11.815465+01 | 1486128311.81546 | 3/1AD4BB8                |           12913036216

 2017-02-03 14:25:12.915199+01 | 1486128312.9152 | 3/1AD4BB8                |           12913036216

 2017-02-03 14:25:14.006249+01 | 1486128314.00625 | 3/1AD4BB8                |           12913036216

 2017-02-03 14:25:15.097715+01 | 1486128315.09771 | 3/1AD4BB8                |           12913036216

 2017-02-03 14:25:16.194013+01 | 1486128316.19401 | 3/1AD4BB8                |           12913036216

 2017-02-03 14:25:17.297416+01 | 1486128317.29742 | 3/1AD4BB8                |           12913036216

 2017-02-03 14:25:18.395184+01 | 1486128318.39518 | 3/1AD4BB8                |           12913036216

 2017-02-03 14:25:19.491433+01 | 1486128319.49143 | 3/1AD4BB8                |           12913036216

 2017-02-03 14:25:20.589304+01 | 1486128320.5893 | 3/1AD4BB8                |           12913036216

 2017-02-03 14:25:21.685345+01 | 1486128321.68534 | 3/1AD4BB8                |           12913036216

 2017-02-03 14:25:22.773105+01 | 1486128322.7731 | 3/1AD4BB8                |           12913036216

 2017-02-03 14:25:23.869691+01 | 1486128323.86969 | 3/1AD4BB8                |           12913036216

 2017-02-03 14:25:24.9649+01 | 1486128324.9649 | 3/1AD4BB8                |           12913036216

 2017-02-03 14:25:26.055864+01 | 1486128326.05586 | 3/1AD4BB8                |           12913036216

 2017-02-03 14:25:27.157456+01 | 1486128327.15746 | 3/1AD4BB8                |           12913036216

 2017-02-03 14:25:28.249281+01 | 1486128328.24928 | 3/1AD4BB8                |           12913036216

 2017-02-03 14:25:29.348168+01 | 1486128329.34817 | 3/1AD4BB8                |           12913036216

 2017-02-03 14:25:30.445337+01 | 1486128330.44534 | 3/1AD4BB8                |           12913036216

 2017-02-03 14:25:31.543283+01 | 1486128331.54328 | 3/1AD4BB8                |           12913036216

 2017-02-03 14:25:32.636219+01 | 1486128332.63622 | 3/1AD4BB8                |           12913036216

 2017-02-03 14:25:33.727403+01 | 1486128333.7274 | 3/1AD4BB8                |           12913036216

 2017-02-03 14:25:34.820808+01 | 1486128334.82081 | 3/1AD4BB8                |           12913036216

 2017-02-03 14:25:35.906846+01 | 1486128335.90685 | 3/1AD4BB8                |           12913036216

 2017-02-03 14:25:36.999667+01 | 1486128336.99967 | 3/1AD4BB8                |           12913036216

 2017-02-03 14:25:38.094578+01 | 1486128338.09458 | 3/1AD4BB8                |           12913036216

 2017-02-03 14:25:39.190402+01 | 1486128339.1904 | 3/1AD4BB8                |           12913036216

 2017-02-03 14:25:40.285673+01 | 1486128340.28567 | 3/1AD4BB8                |           12913036216

 2017-02-03 14:25:41.385033+01 | 1486128341.38503 | 3/1AD4BB8                |           12913036216

 2017-02-03 14:25:42.477759+01 | 1486128342.47776 | 3/1AD4BB8                |           12913036216

 2017-02-03 14:25:43.571372+01 | 1486128343.57137 | 3/1AD4BB8                |           12913036216

 2017-02-03 14:25:44.665127+01 | 1486128344.66513 | 3/1AD4BB8                |           12913036216

 2017-02-03 14:25:45.761577+01 | 1486128345.76158 | 3/1AD4BB8                |           12913036216

 2017-02-03 14:25:46.857132+01 | 1486128346.85713 | 3/1AD4BB8                |           12913036216

 2017-02-03 14:25:47.945236+01 | 1486128347.94524 | 3/1AD4BB8                |           12913036216

 2017-02-03 14:25:49.038237+01 | 1486128349.03824 | 3/1AD4BB8                |           12913036216

 2017-02-03 14:25:50.123359+01 | 1486128350.12336 | 3/1AD4BB8                |           12913036216

 2017-02-03 14:25:51.21769+01 | 1486128351.21769 | 3/1AD4BB8                |           12913036216

 2017-02-03 14:25:52.310073+01 | 1486128352.31007 | 3/1AD4BB8                |           12913036216

 2017-02-03 14:25:53.405898+01 | 1486128353.4059 | 3/1AD4BB8                |           12913036216

 2017-02-03 14:25:54.489373+01 | 1486128354.48937 | 3/1AD4BB8                |           12913036216

 2017-02-03 14:25:55.584447+01 | 1486128355.58445 | 3/1AD4BB8                |           12913036216

 2017-02-03 14:25:56.683356+01 | 1486128356.68336 | 3/1AD4BB8                |           12913036216

 2017-02-03 14:25:57.781724+01 | 1486128357.78172 | 3/1AD4BB8                |           12913036216

 2017-02-03 14:25:58.875852+01 | 1486128358.87585 | 3/1AD4BB8                |           12913036216

 2017-02-03 14:25:59.966177+01 | 1486128359.96618 | 3/1AD4BB8                |           12913036216

 2017-02-03 14:26:01.059363+01 | 1486128361.05936 | 3/1AD4BB8                |           12913036216

 2017-02-03 14:26:02.154741+01 | 1486128362.15474 | 3/1AD4BB8                |           12913036216

 2017-02-03 14:26:03.248078+01 | 1486128363.24808 | 3/1AD4BB8                |           12913036216

 2017-02-03 14:26:04.360352+01 | 1486128364.36035 | 3/1AD4BB8                |           12913036216

 2017-02-03 14:26:05.448816+01 | 1486128365.44882 | 3/1AD4BB8                |           12913036216

 2017-02-03 14:26:06.542056+01 | 1486128366.54206 | 3/1AD4BB8                |           12913036216

 2017-02-03 14:26:07.631767+01 | 1486128367.63177 | 3/1AD4BB8                |           12913036216

 2017-02-03 14:26:08.724469+01 | 1486128368.72447 | 3/1AD4BB8                |           12913036216

 2017-02-03 14:26:09.816015+01 | 1486128369.81602 | 3/1AD4BB8                |           12913036216

 2017-02-03 14:26:10.915702+01 | 1486128370.9157 | 3/1AD4BB8                |           12913036216

 2017-02-03 14:26:12.011151+01 | 1486128372.01115 | 3/1AD4BB8                |           12913036216

 2017-02-03 14:26:13.102641+01 | 1486128373.10264 | 3/1AD4BB8                |           12913036216

 2017-02-03 14:26:14.204339+01 | 1486128374.20434 | 3/1AD4BB8                |           12913036216

 2017-02-03 14:26:15.290405+01 | 1486128375.29041 | 3/1AD4BB8                |           12913036216

 2017-02-03 14:26:16.382015+01 | 1486128376.38201 | 3/1AD4BB8                |           12913036216

 2017-02-03 14:26:17.469237+01 | 1486128377.46924 | 3/1AD4BB8                |           12913036216

 2017-02-03 14:26:18.552102+01 | 1486128378.5521 | 3/1AD4BB8                |           12913036216

 2017-02-03 14:26:19.65285+01 | 1486128379.65285 | 3/1AD4BB8                |           12913036216

 2017-02-03 14:26:20.74187+01 | 1486128380.74187 | 3/1AD4BB8                |           12913036216

 2017-02-03 14:26:21.837446+01 | 1486128381.83745 | 3/1AD4BB8                |           12913036216

 2017-02-03 14:26:22.929536+01 | 1486128382.92954 | 3/1AD4BB8                |           12913036216

 2017-02-03 14:26:24.012965+01 | 1486128384.01296 | 3/1AD4BB8                |           12913036216

 2017-02-03 14:26:25.103944+01 | 1486128385.10394 | 3/1AD4BB8                |           12913036216

 2017-02-03 14:26:26.194327+01 | 1486128386.19433 | 3/1AD4BB8                |           12913036216

 2017-02-03 14:26:27.281785+01 | 1486128387.28179 | 3/1AD4BB8                |           12913036216

