 2017-02-06 01:46:14.811737+01 | 1486341974.81174 | pgbench_branches_pkey |            40960
 2017-02-06 01:46:14.811737+01 | 1486341974.81174 | pgbench_tellers_pkey  |           245760
 2017-02-06 01:46:14.811737+01 | 1486341974.81174 | pgbench_accounts_pkey |       2246197248

 2017-02-06 01:46:15.890882+01 | 1486341975.89088 | pgbench_branches_pkey |            40960
 2017-02-06 01:46:15.890882+01 | 1486341975.89088 | pgbench_tellers_pkey  |           245760
 2017-02-06 01:46:15.890882+01 | 1486341975.89088 | pgbench_accounts_pkey |       2246197248

 2017-02-06 01:46:16.962848+01 | 1486341976.96285 | pgbench_branches_pkey |            40960
 2017-02-06 01:46:16.962848+01 | 1486341976.96285 | pgbench_tellers_pkey  |           245760
 2017-02-06 01:46:16.962848+01 | 1486341976.96285 | pgbench_accounts_pkey |       2246197248

 2017-02-06 01:46:18.046285+01 | 1486341978.04628 | pgbench_branches_pkey |            40960
 2017-02-06 01:46:18.046285+01 | 1486341978.04628 | pgbench_tellers_pkey  |           245760
 2017-02-06 01:46:18.046285+01 | 1486341978.04628 | pgbench_accounts_pkey |       2246197248

 2017-02-06 01:46:19.130913+01 | 1486341979.13091 | pgbench_branches_pkey |            40960
 2017-02-06 01:46:19.130913+01 | 1486341979.13091 | pgbench_tellers_pkey  |           245760
 2017-02-06 01:46:19.130913+01 | 1486341979.13091 | pgbench_accounts_pkey |       2246197248

 2017-02-06 01:46:20.20845+01 | 1486341980.20845 | pgbench_branches_pkey |            40960
 2017-02-06 01:46:20.20845+01 | 1486341980.20845 | pgbench_tellers_pkey  |           245760
 2017-02-06 01:46:20.20845+01 | 1486341980.20845 | pgbench_accounts_pkey |       2246197248

 2017-02-06 01:46:21.290419+01 | 1486341981.29042 | pgbench_branches_pkey |            40960
 2017-02-06 01:46:21.290419+01 | 1486341981.29042 | pgbench_tellers_pkey  |           245760
 2017-02-06 01:46:21.290419+01 | 1486341981.29042 | pgbench_accounts_pkey |       2246197248

 2017-02-06 01:46:22.367714+01 | 1486341982.36771 | pgbench_branches_pkey |            40960
 2017-02-06 01:46:22.367714+01 | 1486341982.36771 | pgbench_tellers_pkey  |           245760
 2017-02-06 01:46:22.367714+01 | 1486341982.36771 | pgbench_accounts_pkey |       2246197248

 2017-02-06 01:46:23.44718+01 | 1486341983.44718 | pgbench_branches_pkey |            40960
 2017-02-06 01:46:23.44718+01 | 1486341983.44718 | pgbench_tellers_pkey  |           245760
 2017-02-06 01:46:23.44718+01 | 1486341983.44718 | pgbench_accounts_pkey |       2246197248

 2017-02-06 01:46:24.531024+01 | 1486341984.53102 | pgbench_branches_pkey |            40960
 2017-02-06 01:46:24.531024+01 | 1486341984.53102 | pgbench_tellers_pkey  |           245760
 2017-02-06 01:46:24.531024+01 | 1486341984.53102 | pgbench_accounts_pkey |       2246197248

 2017-02-06 01:46:25.610946+01 | 1486341985.61095 | pgbench_branches_pkey |            40960
 2017-02-06 01:46:25.610946+01 | 1486341985.61095 | pgbench_tellers_pkey  |           245760
 2017-02-06 01:46:25.610946+01 | 1486341985.61095 | pgbench_accounts_pkey |       2246197248

 2017-02-06 01:46:26.688349+01 | 1486341986.68835 | pgbench_branches_pkey |            40960
 2017-02-06 01:46:26.688349+01 | 1486341986.68835 | pgbench_tellers_pkey  |           245760
 2017-02-06 01:46:26.688349+01 | 1486341986.68835 | pgbench_accounts_pkey |       2246197248

 2017-02-06 01:46:27.773153+01 | 1486341987.77315 | pgbench_branches_pkey |            40960
 2017-02-06 01:46:27.773153+01 | 1486341987.77315 | pgbench_tellers_pkey  |           245760
 2017-02-06 01:46:27.773153+01 | 1486341987.77315 | pgbench_accounts_pkey |       2246197248

 2017-02-06 01:46:28.849936+01 | 1486341988.84994 | pgbench_branches_pkey |            40960
 2017-02-06 01:46:28.849936+01 | 1486341988.84994 | pgbench_tellers_pkey  |           245760
 2017-02-06 01:46:28.849936+01 | 1486341988.84994 | pgbench_accounts_pkey |       2246197248

 2017-02-06 01:46:29.934075+01 | 1486341989.93408 | pgbench_branches_pkey |            40960
 2017-02-06 01:46:29.934075+01 | 1486341989.93408 | pgbench_tellers_pkey  |           245760
 2017-02-06 01:46:29.934075+01 | 1486341989.93408 | pgbench_accounts_pkey |       2246197248

 2017-02-06 01:46:31.019489+01 | 1486341991.01949 | pgbench_branches_pkey |            40960
 2017-02-06 01:46:31.019489+01 | 1486341991.01949 | pgbench_tellers_pkey  |           245760
 2017-02-06 01:46:31.019489+01 | 1486341991.01949 | pgbench_accounts_pkey |       2246197248

 2017-02-06 01:46:32.090686+01 | 1486341992.09069 | pgbench_branches_pkey |            40960
 2017-02-06 01:46:32.090686+01 | 1486341992.09069 | pgbench_tellers_pkey  |           245760
 2017-02-06 01:46:32.090686+01 | 1486341992.09069 | pgbench_accounts_pkey |       2246197248

 2017-02-06 01:46:33.173798+01 | 1486341993.1738 | pgbench_branches_pkey |            40960
 2017-02-06 01:46:33.173798+01 | 1486341993.1738 | pgbench_tellers_pkey  |           245760
 2017-02-06 01:46:33.173798+01 | 1486341993.1738 | pgbench_accounts_pkey |       2246197248

 2017-02-06 01:46:34.259055+01 | 1486341994.25905 | pgbench_branches_pkey |            40960
 2017-02-06 01:46:34.259055+01 | 1486341994.25905 | pgbench_tellers_pkey  |           245760
 2017-02-06 01:46:34.259055+01 | 1486341994.25905 | pgbench_accounts_pkey |       2246197248

 2017-02-06 01:46:35.340854+01 | 1486341995.34085 | pgbench_branches_pkey |            40960
 2017-02-06 01:46:35.340854+01 | 1486341995.34085 | pgbench_tellers_pkey  |           245760
 2017-02-06 01:46:35.340854+01 | 1486341995.34085 | pgbench_accounts_pkey |       2246197248

 2017-02-06 01:46:36.423163+01 | 1486341996.42316 | pgbench_branches_pkey |            40960
 2017-02-06 01:46:36.423163+01 | 1486341996.42316 | pgbench_tellers_pkey  |           245760
 2017-02-06 01:46:36.423163+01 | 1486341996.42316 | pgbench_accounts_pkey |       2246197248

 2017-02-06 01:46:37.497193+01 | 1486341997.49719 | pgbench_branches_pkey |            40960
 2017-02-06 01:46:37.497193+01 | 1486341997.49719 | pgbench_tellers_pkey  |           245760
 2017-02-06 01:46:37.497193+01 | 1486341997.49719 | pgbench_accounts_pkey |       2246197248

 2017-02-06 01:46:38.573313+01 | 1486341998.57331 | pgbench_branches_pkey |            40960
 2017-02-06 01:46:38.573313+01 | 1486341998.57331 | pgbench_tellers_pkey  |           245760
 2017-02-06 01:46:38.573313+01 | 1486341998.57331 | pgbench_accounts_pkey |       2246197248

 2017-02-06 01:46:39.648309+01 | 1486341999.64831 | pgbench_branches_pkey |            40960
 2017-02-06 01:46:39.648309+01 | 1486341999.64831 | pgbench_tellers_pkey  |           245760
 2017-02-06 01:46:39.648309+01 | 1486341999.64831 | pgbench_accounts_pkey |       2246197248

 2017-02-06 01:46:40.722412+01 | 1486342000.72241 | pgbench_branches_pkey |            40960
 2017-02-06 01:46:40.722412+01 | 1486342000.72241 | pgbench_tellers_pkey  |           245760
 2017-02-06 01:46:40.722412+01 | 1486342000.72241 | pgbench_accounts_pkey |       2246197248

 2017-02-06 01:46:41.809491+01 | 1486342001.80949 | pgbench_branches_pkey |            40960
 2017-02-06 01:46:41.809491+01 | 1486342001.80949 | pgbench_tellers_pkey  |           245760
 2017-02-06 01:46:41.809491+01 | 1486342001.80949 | pgbench_accounts_pkey |       2246197248

 2017-02-06 01:46:42.883975+01 | 1486342002.88398 | pgbench_branches_pkey |            40960
 2017-02-06 01:46:42.883975+01 | 1486342002.88398 | pgbench_tellers_pkey  |           245760
 2017-02-06 01:46:42.883975+01 | 1486342002.88398 | pgbench_accounts_pkey |       2246197248

 2017-02-06 01:46:43.970456+01 | 1486342003.97046 | pgbench_branches_pkey |            40960
 2017-02-06 01:46:43.970456+01 | 1486342003.97046 | pgbench_tellers_pkey  |           245760
 2017-02-06 01:46:43.970456+01 | 1486342003.97046 | pgbench_accounts_pkey |       2246197248

 2017-02-06 01:46:45.046305+01 | 1486342005.0463 | pgbench_branches_pkey |            40960
 2017-02-06 01:46:45.046305+01 | 1486342005.0463 | pgbench_tellers_pkey  |           245760
 2017-02-06 01:46:45.046305+01 | 1486342005.0463 | pgbench_accounts_pkey |       2246197248

 2017-02-06 01:46:46.12944+01 | 1486342006.12944 | pgbench_branches_pkey |            40960
 2017-02-06 01:46:46.12944+01 | 1486342006.12944 | pgbench_tellers_pkey  |           245760
 2017-02-06 01:46:46.12944+01 | 1486342006.12944 | pgbench_accounts_pkey |       2246197248

 2017-02-06 01:46:47.209671+01 | 1486342007.20967 | pgbench_branches_pkey |            40960
 2017-02-06 01:46:47.209671+01 | 1486342007.20967 | pgbench_tellers_pkey  |           245760
 2017-02-06 01:46:47.209671+01 | 1486342007.20967 | pgbench_accounts_pkey |       2246197248

 2017-02-06 01:46:48.289371+01 | 1486342008.28937 | pgbench_branches_pkey |            40960
 2017-02-06 01:46:48.289371+01 | 1486342008.28937 | pgbench_tellers_pkey  |           245760
 2017-02-06 01:46:48.289371+01 | 1486342008.28937 | pgbench_accounts_pkey |       2246197248

 2017-02-06 01:46:49.374193+01 | 1486342009.37419 | pgbench_branches_pkey |            40960
 2017-02-06 01:46:49.374193+01 | 1486342009.37419 | pgbench_tellers_pkey  |           245760
 2017-02-06 01:46:49.374193+01 | 1486342009.37419 | pgbench_accounts_pkey |       2246197248

 2017-02-06 01:46:50.453412+01 | 1486342010.45341 | pgbench_branches_pkey |            40960
 2017-02-06 01:46:50.453412+01 | 1486342010.45341 | pgbench_tellers_pkey  |           245760
 2017-02-06 01:46:50.453412+01 | 1486342010.45341 | pgbench_accounts_pkey |       2246197248

 2017-02-06 01:46:51.523685+01 | 1486342011.52368 | pgbench_branches_pkey |            40960
 2017-02-06 01:46:51.523685+01 | 1486342011.52368 | pgbench_tellers_pkey  |           245760
 2017-02-06 01:46:51.523685+01 | 1486342011.52368 | pgbench_accounts_pkey |       2246197248

 2017-02-06 01:46:52.613088+01 | 1486342012.61309 | pgbench_branches_pkey |            40960
 2017-02-06 01:46:52.613088+01 | 1486342012.61309 | pgbench_tellers_pkey  |           245760
 2017-02-06 01:46:52.613088+01 | 1486342012.61309 | pgbench_accounts_pkey |       2246197248

 2017-02-06 01:46:53.697217+01 | 1486342013.69722 | pgbench_branches_pkey |            40960
 2017-02-06 01:46:53.697217+01 | 1486342013.69722 | pgbench_tellers_pkey  |           245760
 2017-02-06 01:46:53.697217+01 | 1486342013.69722 | pgbench_accounts_pkey |       2246197248

 2017-02-06 01:46:54.783442+01 | 1486342014.78344 | pgbench_branches_pkey |            40960
 2017-02-06 01:46:54.783442+01 | 1486342014.78344 | pgbench_tellers_pkey  |           245760
 2017-02-06 01:46:54.783442+01 | 1486342014.78344 | pgbench_accounts_pkey |       2246197248

 2017-02-06 01:46:55.858502+01 | 1486342015.8585 | pgbench_branches_pkey |            40960
 2017-02-06 01:46:55.858502+01 | 1486342015.8585 | pgbench_tellers_pkey  |           245760
 2017-02-06 01:46:55.858502+01 | 1486342015.8585 | pgbench_accounts_pkey |       2246197248

 2017-02-06 01:46:56.933331+01 | 1486342016.93333 | pgbench_branches_pkey |            40960
 2017-02-06 01:46:56.933331+01 | 1486342016.93333 | pgbench_tellers_pkey  |           245760
 2017-02-06 01:46:56.933331+01 | 1486342016.93333 | pgbench_accounts_pkey |       2246197248

 2017-02-06 01:46:58.015782+01 | 1486342018.01578 | pgbench_branches_pkey |            40960
 2017-02-06 01:46:58.015782+01 | 1486342018.01578 | pgbench_tellers_pkey  |           245760
 2017-02-06 01:46:58.015782+01 | 1486342018.01578 | pgbench_accounts_pkey |       2246197248

 2017-02-06 01:46:59.096345+01 | 1486342019.09634 | pgbench_branches_pkey |            40960
 2017-02-06 01:46:59.096345+01 | 1486342019.09634 | pgbench_tellers_pkey  |           245760
 2017-02-06 01:46:59.096345+01 | 1486342019.09634 | pgbench_accounts_pkey |       2246197248

 2017-02-06 01:47:00.171494+01 | 1486342020.17149 | pgbench_branches_pkey |            40960
 2017-02-06 01:47:00.171494+01 | 1486342020.17149 | pgbench_tellers_pkey  |           245760
 2017-02-06 01:47:00.171494+01 | 1486342020.17149 | pgbench_accounts_pkey |       2246197248

 2017-02-06 01:47:01.251078+01 | 1486342021.25108 | pgbench_branches_pkey |            40960
 2017-02-06 01:47:01.251078+01 | 1486342021.25108 | pgbench_tellers_pkey  |           245760
 2017-02-06 01:47:01.251078+01 | 1486342021.25108 | pgbench_accounts_pkey |       2246197248

 2017-02-06 01:47:02.327778+01 | 1486342022.32778 | pgbench_branches_pkey |            40960
 2017-02-06 01:47:02.327778+01 | 1486342022.32778 | pgbench_tellers_pkey  |           245760
 2017-02-06 01:47:02.327778+01 | 1486342022.32778 | pgbench_accounts_pkey |       2246197248

 2017-02-06 01:47:03.406874+01 | 1486342023.40687 | pgbench_branches_pkey |            40960
 2017-02-06 01:47:03.406874+01 | 1486342023.40687 | pgbench_tellers_pkey  |           245760
 2017-02-06 01:47:03.406874+01 | 1486342023.40687 | pgbench_accounts_pkey |       2246197248

 2017-02-06 01:47:04.491499+01 | 1486342024.4915 | pgbench_branches_pkey |            40960
 2017-02-06 01:47:04.491499+01 | 1486342024.4915 | pgbench_tellers_pkey  |           245760
 2017-02-06 01:47:04.491499+01 | 1486342024.4915 | pgbench_accounts_pkey |       2246197248

 2017-02-06 01:47:05.565664+01 | 1486342025.56566 | pgbench_branches_pkey |            40960
 2017-02-06 01:47:05.565664+01 | 1486342025.56566 | pgbench_tellers_pkey  |           245760
 2017-02-06 01:47:05.565664+01 | 1486342025.56566 | pgbench_accounts_pkey |       2246197248

 2017-02-06 01:47:06.642218+01 | 1486342026.64222 | pgbench_branches_pkey |            40960
 2017-02-06 01:47:06.642218+01 | 1486342026.64222 | pgbench_tellers_pkey  |           245760
 2017-02-06 01:47:06.642218+01 | 1486342026.64222 | pgbench_accounts_pkey |       2246197248

 2017-02-06 01:47:07.714418+01 | 1486342027.71442 | pgbench_branches_pkey |            40960
 2017-02-06 01:47:07.714418+01 | 1486342027.71442 | pgbench_tellers_pkey  |           245760
 2017-02-06 01:47:07.714418+01 | 1486342027.71442 | pgbench_accounts_pkey |       2246197248

 2017-02-06 01:47:08.783247+01 | 1486342028.78325 | pgbench_branches_pkey |            40960
 2017-02-06 01:47:08.783247+01 | 1486342028.78325 | pgbench_tellers_pkey  |           245760
 2017-02-06 01:47:08.783247+01 | 1486342028.78325 | pgbench_accounts_pkey |       2246197248

 2017-02-06 01:47:09.862236+01 | 1486342029.86224 | pgbench_branches_pkey |            40960
 2017-02-06 01:47:09.862236+01 | 1486342029.86224 | pgbench_tellers_pkey  |           245760
 2017-02-06 01:47:09.862236+01 | 1486342029.86224 | pgbench_accounts_pkey |       2246197248

 2017-02-06 01:47:10.933839+01 | 1486342030.93384 | pgbench_branches_pkey |            40960
 2017-02-06 01:47:10.933839+01 | 1486342030.93384 | pgbench_tellers_pkey  |           245760
 2017-02-06 01:47:10.933839+01 | 1486342030.93384 | pgbench_accounts_pkey |       2246197248

 2017-02-06 01:47:12.016303+01 | 1486342032.0163 | pgbench_branches_pkey |            40960
 2017-02-06 01:47:12.016303+01 | 1486342032.0163 | pgbench_tellers_pkey  |           245760
 2017-02-06 01:47:12.016303+01 | 1486342032.0163 | pgbench_accounts_pkey |       2246197248

 2017-02-06 01:47:13.105644+01 | 1486342033.10564 | pgbench_branches_pkey |            40960
 2017-02-06 01:47:13.105644+01 | 1486342033.10564 | pgbench_tellers_pkey  |           245760
 2017-02-06 01:47:13.105644+01 | 1486342033.10564 | pgbench_accounts_pkey |       2246197248

 2017-02-06 01:47:14.188951+01 | 1486342034.18895 | pgbench_branches_pkey |            40960
 2017-02-06 01:47:14.188951+01 | 1486342034.18895 | pgbench_tellers_pkey  |           245760
 2017-02-06 01:47:14.188951+01 | 1486342034.18895 | pgbench_accounts_pkey |       2246197248

 2017-02-06 01:47:15.270561+01 | 1486342035.27056 | pgbench_branches_pkey |            40960
 2017-02-06 01:47:15.270561+01 | 1486342035.27056 | pgbench_tellers_pkey  |           245760
 2017-02-06 01:47:15.270561+01 | 1486342035.27056 | pgbench_accounts_pkey |       2246197248

 2017-02-06 01:47:16.342554+01 | 1486342036.34255 | pgbench_branches_pkey |            40960
 2017-02-06 01:47:16.342554+01 | 1486342036.34255 | pgbench_tellers_pkey  |           245760
 2017-02-06 01:47:16.342554+01 | 1486342036.34255 | pgbench_accounts_pkey |       2246197248

 2017-02-06 01:47:17.422135+01 | 1486342037.42214 | pgbench_branches_pkey |            40960
 2017-02-06 01:47:17.422135+01 | 1486342037.42214 | pgbench_tellers_pkey  |           245760
 2017-02-06 01:47:17.422135+01 | 1486342037.42214 | pgbench_accounts_pkey |       2246197248

 2017-02-06 01:47:18.502191+01 | 1486342038.50219 | pgbench_branches_pkey |            40960
 2017-02-06 01:47:18.502191+01 | 1486342038.50219 | pgbench_tellers_pkey  |           245760
 2017-02-06 01:47:18.502191+01 | 1486342038.50219 | pgbench_accounts_pkey |       2246197248

 2017-02-06 01:47:19.583893+01 | 1486342039.58389 | pgbench_branches_pkey |            40960
 2017-02-06 01:47:19.583893+01 | 1486342039.58389 | pgbench_tellers_pkey  |           245760
 2017-02-06 01:47:19.583893+01 | 1486342039.58389 | pgbench_accounts_pkey |       2246197248

 2017-02-06 01:47:20.665361+01 | 1486342040.66536 | pgbench_branches_pkey |            40960
 2017-02-06 01:47:20.665361+01 | 1486342040.66536 | pgbench_tellers_pkey  |           245760
 2017-02-06 01:47:20.665361+01 | 1486342040.66536 | pgbench_accounts_pkey |       2246197248

 2017-02-06 01:47:21.746625+01 | 1486342041.74662 | pgbench_branches_pkey |            40960
 2017-02-06 01:47:21.746625+01 | 1486342041.74662 | pgbench_tellers_pkey  |           245760
 2017-02-06 01:47:21.746625+01 | 1486342041.74662 | pgbench_accounts_pkey |       2246197248

 2017-02-06 01:47:22.828007+01 | 1486342042.82801 | pgbench_branches_pkey |            40960
 2017-02-06 01:47:22.828007+01 | 1486342042.82801 | pgbench_tellers_pkey  |           245760
 2017-02-06 01:47:22.828007+01 | 1486342042.82801 | pgbench_accounts_pkey |       2246197248

 2017-02-06 01:47:23.911595+01 | 1486342043.9116 | pgbench_branches_pkey |            40960
 2017-02-06 01:47:23.911595+01 | 1486342043.9116 | pgbench_tellers_pkey  |           245760
 2017-02-06 01:47:23.911595+01 | 1486342043.9116 | pgbench_accounts_pkey |       2246197248

 2017-02-06 01:47:24.987454+01 | 1486342044.98745 | pgbench_branches_pkey |            40960
 2017-02-06 01:47:24.987454+01 | 1486342044.98745 | pgbench_tellers_pkey  |           245760
 2017-02-06 01:47:24.987454+01 | 1486342044.98745 | pgbench_accounts_pkey |       2246197248

 2017-02-06 01:47:26.078326+01 | 1486342046.07833 | pgbench_branches_pkey |            40960
 2017-02-06 01:47:26.078326+01 | 1486342046.07833 | pgbench_tellers_pkey  |           245760
 2017-02-06 01:47:26.078326+01 | 1486342046.07833 | pgbench_accounts_pkey |       2246197248

 2017-02-06 01:47:27.154176+01 | 1486342047.15418 | pgbench_branches_pkey |            40960
 2017-02-06 01:47:27.154176+01 | 1486342047.15418 | pgbench_tellers_pkey  |           245760
 2017-02-06 01:47:27.154176+01 | 1486342047.15418 | pgbench_accounts_pkey |       2246197248

 2017-02-06 01:47:28.232061+01 | 1486342048.23206 | pgbench_branches_pkey |            40960
 2017-02-06 01:47:28.232061+01 | 1486342048.23206 | pgbench_tellers_pkey  |           245760
 2017-02-06 01:47:28.232061+01 | 1486342048.23206 | pgbench_accounts_pkey |       2246197248

 2017-02-06 01:47:29.313839+01 | 1486342049.31384 | pgbench_branches_pkey |            40960
 2017-02-06 01:47:29.313839+01 | 1486342049.31384 | pgbench_tellers_pkey  |           245760
 2017-02-06 01:47:29.313839+01 | 1486342049.31384 | pgbench_accounts_pkey |       2246197248

 2017-02-06 01:47:30.392249+01 | 1486342050.39225 | pgbench_branches_pkey |            40960
 2017-02-06 01:47:30.392249+01 | 1486342050.39225 | pgbench_tellers_pkey  |           245760
 2017-02-06 01:47:30.392249+01 | 1486342050.39225 | pgbench_accounts_pkey |       2246197248

 2017-02-06 01:47:31.476258+01 | 1486342051.47626 | pgbench_branches_pkey |            40960
 2017-02-06 01:47:31.476258+01 | 1486342051.47626 | pgbench_tellers_pkey  |           245760
 2017-02-06 01:47:31.476258+01 | 1486342051.47626 | pgbench_accounts_pkey |       2246197248

 2017-02-06 01:47:32.558353+01 | 1486342052.55835 | pgbench_branches_pkey |            40960
 2017-02-06 01:47:32.558353+01 | 1486342052.55835 | pgbench_tellers_pkey  |           245760
 2017-02-06 01:47:32.558353+01 | 1486342052.55835 | pgbench_accounts_pkey |       2246197248

 2017-02-06 01:47:33.64139+01 | 1486342053.64139 | pgbench_branches_pkey |            40960
 2017-02-06 01:47:33.64139+01 | 1486342053.64139 | pgbench_tellers_pkey  |           245760
 2017-02-06 01:47:33.64139+01 | 1486342053.64139 | pgbench_accounts_pkey |       2246197248

 2017-02-06 01:47:34.717504+01 | 1486342054.7175 | pgbench_branches_pkey |            40960
 2017-02-06 01:47:34.717504+01 | 1486342054.7175 | pgbench_tellers_pkey  |           245760
 2017-02-06 01:47:34.717504+01 | 1486342054.7175 | pgbench_accounts_pkey |       2246197248

 2017-02-06 01:47:35.798774+01 | 1486342055.79877 | pgbench_branches_pkey |            40960
 2017-02-06 01:47:35.798774+01 | 1486342055.79877 | pgbench_tellers_pkey  |           245760
 2017-02-06 01:47:35.798774+01 | 1486342055.79877 | pgbench_accounts_pkey |       2246197248

 2017-02-06 01:47:36.876474+01 | 1486342056.87647 | pgbench_branches_pkey |            40960
 2017-02-06 01:47:36.876474+01 | 1486342056.87647 | pgbench_tellers_pkey  |           245760
 2017-02-06 01:47:36.876474+01 | 1486342056.87647 | pgbench_accounts_pkey |       2246197248

 2017-02-06 01:47:37.96022+01 | 1486342057.96022 | pgbench_branches_pkey |            40960
 2017-02-06 01:47:37.96022+01 | 1486342057.96022 | pgbench_tellers_pkey  |           245760
 2017-02-06 01:47:37.96022+01 | 1486342057.96022 | pgbench_accounts_pkey |       2246197248

 2017-02-06 01:47:39.044719+01 | 1486342059.04472 | pgbench_branches_pkey |            40960
 2017-02-06 01:47:39.044719+01 | 1486342059.04472 | pgbench_tellers_pkey  |           245760
 2017-02-06 01:47:39.044719+01 | 1486342059.04472 | pgbench_accounts_pkey |       2246197248

 2017-02-06 01:47:40.120991+01 | 1486342060.12099 | pgbench_branches_pkey |            40960
 2017-02-06 01:47:40.120991+01 | 1486342060.12099 | pgbench_tellers_pkey  |           245760
 2017-02-06 01:47:40.120991+01 | 1486342060.12099 | pgbench_accounts_pkey |       2246197248

 2017-02-06 01:47:41.197759+01 | 1486342061.19776 | pgbench_branches_pkey |            40960
 2017-02-06 01:47:41.197759+01 | 1486342061.19776 | pgbench_tellers_pkey  |           245760
 2017-02-06 01:47:41.197759+01 | 1486342061.19776 | pgbench_accounts_pkey |       2246197248

 2017-02-06 01:47:42.282249+01 | 1486342062.28225 | pgbench_branches_pkey |            40960
 2017-02-06 01:47:42.282249+01 | 1486342062.28225 | pgbench_tellers_pkey  |           245760
 2017-02-06 01:47:42.282249+01 | 1486342062.28225 | pgbench_accounts_pkey |       2246197248

 2017-02-06 01:47:43.355856+01 | 1486342063.35586 | pgbench_branches_pkey |            40960
 2017-02-06 01:47:43.355856+01 | 1486342063.35586 | pgbench_tellers_pkey  |           245760
 2017-02-06 01:47:43.355856+01 | 1486342063.35586 | pgbench_accounts_pkey |       2246197248

 2017-02-06 01:47:44.415191+01 | 1486342064.41519 | pgbench_branches_pkey |            40960
 2017-02-06 01:47:44.415191+01 | 1486342064.41519 | pgbench_tellers_pkey  |           245760
 2017-02-06 01:47:44.415191+01 | 1486342064.41519 | pgbench_accounts_pkey |       2246197248

 2017-02-06 01:47:45.497164+01 | 1486342065.49716 | pgbench_branches_pkey |            40960
 2017-02-06 01:47:45.497164+01 | 1486342065.49716 | pgbench_tellers_pkey  |           245760
 2017-02-06 01:47:45.497164+01 | 1486342065.49716 | pgbench_accounts_pkey |       2246197248

 2017-02-06 01:47:46.571538+01 | 1486342066.57154 | pgbench_branches_pkey |            40960
 2017-02-06 01:47:46.571538+01 | 1486342066.57154 | pgbench_tellers_pkey  |           245760
 2017-02-06 01:47:46.571538+01 | 1486342066.57154 | pgbench_accounts_pkey |       2246197248

 2017-02-06 01:47:47.664514+01 | 1486342067.66451 | pgbench_branches_pkey |            40960
 2017-02-06 01:47:47.664514+01 | 1486342067.66451 | pgbench_tellers_pkey  |           245760
 2017-02-06 01:47:47.664514+01 | 1486342067.66451 | pgbench_accounts_pkey |       2246197248

 2017-02-06 01:47:48.752231+01 | 1486342068.75223 | pgbench_branches_pkey |            40960
 2017-02-06 01:47:48.752231+01 | 1486342068.75223 | pgbench_tellers_pkey  |           245760
 2017-02-06 01:47:48.752231+01 | 1486342068.75223 | pgbench_accounts_pkey |       2246197248

 2017-02-06 01:47:49.836202+01 | 1486342069.8362 | pgbench_branches_pkey |            40960
 2017-02-06 01:47:49.836202+01 | 1486342069.8362 | pgbench_tellers_pkey  |           245760
 2017-02-06 01:47:49.836202+01 | 1486342069.8362 | pgbench_accounts_pkey |       2246197248

 2017-02-06 01:47:50.915892+01 | 1486342070.91589 | pgbench_branches_pkey |            40960
 2017-02-06 01:47:50.915892+01 | 1486342070.91589 | pgbench_tellers_pkey  |           245760
 2017-02-06 01:47:50.915892+01 | 1486342070.91589 | pgbench_accounts_pkey |       2246197248

 2017-02-06 01:47:52.000466+01 | 1486342072.00047 | pgbench_branches_pkey |            40960
 2017-02-06 01:47:52.000466+01 | 1486342072.00047 | pgbench_tellers_pkey  |           245760
 2017-02-06 01:47:52.000466+01 | 1486342072.00047 | pgbench_accounts_pkey |       2246197248

 2017-02-06 01:47:53.084824+01 | 1486342073.08482 | pgbench_branches_pkey |            40960
 2017-02-06 01:47:53.084824+01 | 1486342073.08482 | pgbench_tellers_pkey  |           245760
 2017-02-06 01:47:53.084824+01 | 1486342073.08482 | pgbench_accounts_pkey |       2246197248

 2017-02-06 01:47:54.159287+01 | 1486342074.15929 | pgbench_branches_pkey |            40960
 2017-02-06 01:47:54.159287+01 | 1486342074.15929 | pgbench_tellers_pkey  |           245760
 2017-02-06 01:47:54.159287+01 | 1486342074.15929 | pgbench_accounts_pkey |       2246197248

 2017-02-06 01:47:55.242879+01 | 1486342075.24288 | pgbench_branches_pkey |            40960
 2017-02-06 01:47:55.242879+01 | 1486342075.24288 | pgbench_tellers_pkey  |           245760
 2017-02-06 01:47:55.242879+01 | 1486342075.24288 | pgbench_accounts_pkey |       2246197248

 2017-02-06 01:47:56.32498+01 | 1486342076.32498 | pgbench_branches_pkey |            40960
 2017-02-06 01:47:56.32498+01 | 1486342076.32498 | pgbench_tellers_pkey  |           245760
 2017-02-06 01:47:56.32498+01 | 1486342076.32498 | pgbench_accounts_pkey |       2246197248

 2017-02-06 01:47:57.396499+01 | 1486342077.3965 | pgbench_branches_pkey |            40960
 2017-02-06 01:47:57.396499+01 | 1486342077.3965 | pgbench_tellers_pkey  |           245760
 2017-02-06 01:47:57.396499+01 | 1486342077.3965 | pgbench_accounts_pkey |       2246197248

 2017-02-06 01:47:58.480122+01 | 1486342078.48012 | pgbench_branches_pkey |            40960
 2017-02-06 01:47:58.480122+01 | 1486342078.48012 | pgbench_tellers_pkey  |           245760
 2017-02-06 01:47:58.480122+01 | 1486342078.48012 | pgbench_accounts_pkey |       2246197248

 2017-02-06 01:47:59.555335+01 | 1486342079.55534 | pgbench_branches_pkey |            40960
 2017-02-06 01:47:59.555335+01 | 1486342079.55534 | pgbench_tellers_pkey  |           245760
 2017-02-06 01:47:59.555335+01 | 1486342079.55534 | pgbench_accounts_pkey |       2246197248

 2017-02-06 01:48:00.631766+01 | 1486342080.63177 | pgbench_branches_pkey |            40960
 2017-02-06 01:48:00.631766+01 | 1486342080.63177 | pgbench_tellers_pkey  |           245760
 2017-02-06 01:48:00.631766+01 | 1486342080.63177 | pgbench_accounts_pkey |       2246197248

 2017-02-06 01:48:01.713954+01 | 1486342081.71395 | pgbench_branches_pkey |            40960
 2017-02-06 01:48:01.713954+01 | 1486342081.71395 | pgbench_tellers_pkey  |           245760
 2017-02-06 01:48:01.713954+01 | 1486342081.71395 | pgbench_accounts_pkey |       2246197248

 2017-02-06 01:48:02.798011+01 | 1486342082.79801 | pgbench_branches_pkey |            40960
 2017-02-06 01:48:02.798011+01 | 1486342082.79801 | pgbench_tellers_pkey  |           245760
 2017-02-06 01:48:02.798011+01 | 1486342082.79801 | pgbench_accounts_pkey |       2246197248

 2017-02-06 01:48:03.888002+01 | 1486342083.888 | pgbench_branches_pkey |            40960
 2017-02-06 01:48:03.888002+01 | 1486342083.888 | pgbench_tellers_pkey  |           245760
 2017-02-06 01:48:03.888002+01 | 1486342083.888 | pgbench_accounts_pkey |       2246197248

 2017-02-06 01:48:04.972375+01 | 1486342084.97237 | pgbench_branches_pkey |            40960
 2017-02-06 01:48:04.972375+01 | 1486342084.97237 | pgbench_tellers_pkey  |           245760
 2017-02-06 01:48:04.972375+01 | 1486342084.97237 | pgbench_accounts_pkey |       2246197248

 2017-02-06 01:48:06.04781+01 | 1486342086.04781 | pgbench_branches_pkey |            40960
 2017-02-06 01:48:06.04781+01 | 1486342086.04781 | pgbench_tellers_pkey  |           245760
 2017-02-06 01:48:06.04781+01 | 1486342086.04781 | pgbench_accounts_pkey |       2246197248

 2017-02-06 01:48:07.126556+01 | 1486342087.12656 | pgbench_branches_pkey |            40960
 2017-02-06 01:48:07.126556+01 | 1486342087.12656 | pgbench_tellers_pkey  |           245760
 2017-02-06 01:48:07.126556+01 | 1486342087.12656 | pgbench_accounts_pkey |       2246197248

 2017-02-06 01:48:08.211714+01 | 1486342088.21171 | pgbench_branches_pkey |            40960
 2017-02-06 01:48:08.211714+01 | 1486342088.21171 | pgbench_tellers_pkey  |           245760
 2017-02-06 01:48:08.211714+01 | 1486342088.21171 | pgbench_accounts_pkey |       2246197248

 2017-02-06 01:48:09.290742+01 | 1486342089.29074 | pgbench_branches_pkey |            40960
 2017-02-06 01:48:09.290742+01 | 1486342089.29074 | pgbench_tellers_pkey  |           245760
 2017-02-06 01:48:09.290742+01 | 1486342089.29074 | pgbench_accounts_pkey |       2246197248

 2017-02-06 01:48:10.374975+01 | 1486342090.37497 | pgbench_branches_pkey |            40960
 2017-02-06 01:48:10.374975+01 | 1486342090.37497 | pgbench_tellers_pkey  |           245760
 2017-02-06 01:48:10.374975+01 | 1486342090.37497 | pgbench_accounts_pkey |       2246197248

 2017-02-06 01:48:11.457075+01 | 1486342091.45708 | pgbench_branches_pkey |            40960
 2017-02-06 01:48:11.457075+01 | 1486342091.45708 | pgbench_tellers_pkey  |           245760
 2017-02-06 01:48:11.457075+01 | 1486342091.45708 | pgbench_accounts_pkey |       2246197248

 2017-02-06 01:48:12.544963+01 | 1486342092.54496 | pgbench_branches_pkey |            40960
 2017-02-06 01:48:12.544963+01 | 1486342092.54496 | pgbench_tellers_pkey  |           245760
 2017-02-06 01:48:12.544963+01 | 1486342092.54496 | pgbench_accounts_pkey |       2246197248

 2017-02-06 01:48:13.626616+01 | 1486342093.62662 | pgbench_branches_pkey |            40960
 2017-02-06 01:48:13.626616+01 | 1486342093.62662 | pgbench_tellers_pkey  |           245760
 2017-02-06 01:48:13.626616+01 | 1486342093.62662 | pgbench_accounts_pkey |       2246197248

 2017-02-06 01:48:14.710585+01 | 1486342094.71059 | pgbench_branches_pkey |            40960
 2017-02-06 01:48:14.710585+01 | 1486342094.71059 | pgbench_tellers_pkey  |           245760
 2017-02-06 01:48:14.710585+01 | 1486342094.71059 | pgbench_accounts_pkey |       2246197248

 2017-02-06 01:48:15.783553+01 | 1486342095.78355 | pgbench_branches_pkey |            40960
 2017-02-06 01:48:15.783553+01 | 1486342095.78355 | pgbench_tellers_pkey  |           245760
 2017-02-06 01:48:15.783553+01 | 1486342095.78355 | pgbench_accounts_pkey |       2246197248

 2017-02-06 01:48:16.867695+01 | 1486342096.8677 | pgbench_branches_pkey |            40960
 2017-02-06 01:48:16.867695+01 | 1486342096.8677 | pgbench_tellers_pkey  |           245760
 2017-02-06 01:48:16.867695+01 | 1486342096.8677 | pgbench_accounts_pkey |       2246197248

 2017-02-06 01:48:17.952295+01 | 1486342097.9523 | pgbench_branches_pkey |            40960
 2017-02-06 01:48:17.952295+01 | 1486342097.9523 | pgbench_tellers_pkey  |           245760
 2017-02-06 01:48:17.952295+01 | 1486342097.9523 | pgbench_accounts_pkey |       2246197248

 2017-02-06 01:48:19.027708+01 | 1486342099.02771 | pgbench_branches_pkey |            40960
 2017-02-06 01:48:19.027708+01 | 1486342099.02771 | pgbench_tellers_pkey  |           245760
 2017-02-06 01:48:19.027708+01 | 1486342099.02771 | pgbench_accounts_pkey |       2246197248

 2017-02-06 01:48:20.104242+01 | 1486342100.10424 | pgbench_branches_pkey |            40960
 2017-02-06 01:48:20.104242+01 | 1486342100.10424 | pgbench_tellers_pkey  |           245760
 2017-02-06 01:48:20.104242+01 | 1486342100.10424 | pgbench_accounts_pkey |       2246197248

 2017-02-06 01:48:21.180264+01 | 1486342101.18026 | pgbench_branches_pkey |            40960
 2017-02-06 01:48:21.180264+01 | 1486342101.18026 | pgbench_tellers_pkey  |           245760
 2017-02-06 01:48:21.180264+01 | 1486342101.18026 | pgbench_accounts_pkey |       2246197248

 2017-02-06 01:48:22.259321+01 | 1486342102.25932 | pgbench_branches_pkey |            40960
 2017-02-06 01:48:22.259321+01 | 1486342102.25932 | pgbench_tellers_pkey  |           245760
 2017-02-06 01:48:22.259321+01 | 1486342102.25932 | pgbench_accounts_pkey |       2246197248

 2017-02-06 01:48:23.338625+01 | 1486342103.33862 | pgbench_branches_pkey |            40960
 2017-02-06 01:48:23.338625+01 | 1486342103.33862 | pgbench_tellers_pkey  |           245760
 2017-02-06 01:48:23.338625+01 | 1486342103.33862 | pgbench_accounts_pkey |       2246197248

 2017-02-06 01:48:24.413032+01 | 1486342104.41303 | pgbench_branches_pkey |            40960
 2017-02-06 01:48:24.413032+01 | 1486342104.41303 | pgbench_tellers_pkey  |           245760
 2017-02-06 01:48:24.413032+01 | 1486342104.41303 | pgbench_accounts_pkey |       2246197248

 2017-02-06 01:48:25.495098+01 | 1486342105.4951 | pgbench_branches_pkey |            40960
 2017-02-06 01:48:25.495098+01 | 1486342105.4951 | pgbench_tellers_pkey  |           245760
 2017-02-06 01:48:25.495098+01 | 1486342105.4951 | pgbench_accounts_pkey |       2246197248

 2017-02-06 01:48:26.585771+01 | 1486342106.58577 | pgbench_branches_pkey |            40960
 2017-02-06 01:48:26.585771+01 | 1486342106.58577 | pgbench_tellers_pkey  |           245760
 2017-02-06 01:48:26.585771+01 | 1486342106.58577 | pgbench_accounts_pkey |       2246197248

 2017-02-06 01:48:27.662203+01 | 1486342107.6622 | pgbench_branches_pkey |            40960
 2017-02-06 01:48:27.662203+01 | 1486342107.6622 | pgbench_tellers_pkey  |           245760
 2017-02-06 01:48:27.662203+01 | 1486342107.6622 | pgbench_accounts_pkey |       2246197248

 2017-02-06 01:48:28.726801+01 | 1486342108.7268 | pgbench_branches_pkey |            40960
 2017-02-06 01:48:28.726801+01 | 1486342108.7268 | pgbench_tellers_pkey  |           245760
 2017-02-06 01:48:28.726801+01 | 1486342108.7268 | pgbench_accounts_pkey |       2246197248

 2017-02-06 01:48:29.810554+01 | 1486342109.81055 | pgbench_branches_pkey |            40960
 2017-02-06 01:48:29.810554+01 | 1486342109.81055 | pgbench_tellers_pkey  |           245760
 2017-02-06 01:48:29.810554+01 | 1486342109.81055 | pgbench_accounts_pkey |       2246197248

 2017-02-06 01:48:30.892556+01 | 1486342110.89256 | pgbench_branches_pkey |            40960
 2017-02-06 01:48:30.892556+01 | 1486342110.89256 | pgbench_tellers_pkey  |           245760
 2017-02-06 01:48:30.892556+01 | 1486342110.89256 | pgbench_accounts_pkey |       2246197248

 2017-02-06 01:48:31.97659+01 | 1486342111.97659 | pgbench_branches_pkey |            40960
 2017-02-06 01:48:31.97659+01 | 1486342111.97659 | pgbench_tellers_pkey  |           245760
 2017-02-06 01:48:31.97659+01 | 1486342111.97659 | pgbench_accounts_pkey |       2246197248

 2017-02-06 01:48:33.049103+01 | 1486342113.0491 | pgbench_branches_pkey |            40960
 2017-02-06 01:48:33.049103+01 | 1486342113.0491 | pgbench_tellers_pkey  |           245760
 2017-02-06 01:48:33.049103+01 | 1486342113.0491 | pgbench_accounts_pkey |       2246197248

 2017-02-06 01:48:34.124761+01 | 1486342114.12476 | pgbench_branches_pkey |            40960
 2017-02-06 01:48:34.124761+01 | 1486342114.12476 | pgbench_tellers_pkey  |           245760
 2017-02-06 01:48:34.124761+01 | 1486342114.12476 | pgbench_accounts_pkey |       2246197248

 2017-02-06 01:48:35.203459+01 | 1486342115.20346 | pgbench_branches_pkey |            40960
 2017-02-06 01:48:35.203459+01 | 1486342115.20346 | pgbench_tellers_pkey  |           245760
 2017-02-06 01:48:35.203459+01 | 1486342115.20346 | pgbench_accounts_pkey |       2246197248

 2017-02-06 01:48:36.282762+01 | 1486342116.28276 | pgbench_branches_pkey |            40960
 2017-02-06 01:48:36.282762+01 | 1486342116.28276 | pgbench_tellers_pkey  |           245760
 2017-02-06 01:48:36.282762+01 | 1486342116.28276 | pgbench_accounts_pkey |       2246197248

 2017-02-06 01:48:37.358469+01 | 1486342117.35847 | pgbench_branches_pkey |            40960
 2017-02-06 01:48:37.358469+01 | 1486342117.35847 | pgbench_tellers_pkey  |           245760
 2017-02-06 01:48:37.358469+01 | 1486342117.35847 | pgbench_accounts_pkey |       2246197248

 2017-02-06 01:48:38.443444+01 | 1486342118.44344 | pgbench_branches_pkey |            40960
 2017-02-06 01:48:38.443444+01 | 1486342118.44344 | pgbench_tellers_pkey  |           245760
 2017-02-06 01:48:38.443444+01 | 1486342118.44344 | pgbench_accounts_pkey |       2246197248

 2017-02-06 01:48:39.522189+01 | 1486342119.52219 | pgbench_branches_pkey |            40960
 2017-02-06 01:48:39.522189+01 | 1486342119.52219 | pgbench_tellers_pkey  |           245760
 2017-02-06 01:48:39.522189+01 | 1486342119.52219 | pgbench_accounts_pkey |       2246197248

 2017-02-06 01:48:40.604587+01 | 1486342120.60459 | pgbench_branches_pkey |            40960
 2017-02-06 01:48:40.604587+01 | 1486342120.60459 | pgbench_tellers_pkey  |           245760
 2017-02-06 01:48:40.604587+01 | 1486342120.60459 | pgbench_accounts_pkey |       2246197248

 2017-02-06 01:48:41.687351+01 | 1486342121.68735 | pgbench_branches_pkey |            40960
 2017-02-06 01:48:41.687351+01 | 1486342121.68735 | pgbench_tellers_pkey  |           245760
 2017-02-06 01:48:41.687351+01 | 1486342121.68735 | pgbench_accounts_pkey |       2246197248

 2017-02-06 01:48:42.76901+01 | 1486342122.76901 | pgbench_branches_pkey |            40960
 2017-02-06 01:48:42.76901+01 | 1486342122.76901 | pgbench_tellers_pkey  |           245760
 2017-02-06 01:48:42.76901+01 | 1486342122.76901 | pgbench_accounts_pkey |       2246197248

 2017-02-06 01:48:43.841646+01 | 1486342123.84165 | pgbench_branches_pkey |            40960
 2017-02-06 01:48:43.841646+01 | 1486342123.84165 | pgbench_tellers_pkey  |           245760
 2017-02-06 01:48:43.841646+01 | 1486342123.84165 | pgbench_accounts_pkey |       2246197248

 2017-02-06 01:48:44.923254+01 | 1486342124.92325 | pgbench_branches_pkey |            40960
 2017-02-06 01:48:44.923254+01 | 1486342124.92325 | pgbench_tellers_pkey  |           245760
 2017-02-06 01:48:44.923254+01 | 1486342124.92325 | pgbench_accounts_pkey |       2246197248

 2017-02-06 01:48:46.010118+01 | 1486342126.01012 | pgbench_branches_pkey |            40960
 2017-02-06 01:48:46.010118+01 | 1486342126.01012 | pgbench_tellers_pkey  |           245760
 2017-02-06 01:48:46.010118+01 | 1486342126.01012 | pgbench_accounts_pkey |       2246197248

 2017-02-06 01:48:47.083107+01 | 1486342127.08311 | pgbench_branches_pkey |            40960
 2017-02-06 01:48:47.083107+01 | 1486342127.08311 | pgbench_tellers_pkey  |           245760
 2017-02-06 01:48:47.083107+01 | 1486342127.08311 | pgbench_accounts_pkey |       2246197248

 2017-02-06 01:48:48.159276+01 | 1486342128.15928 | pgbench_branches_pkey |            40960
 2017-02-06 01:48:48.159276+01 | 1486342128.15928 | pgbench_tellers_pkey  |           245760
 2017-02-06 01:48:48.159276+01 | 1486342128.15928 | pgbench_accounts_pkey |       2246197248

 2017-02-06 01:48:49.249726+01 | 1486342129.24973 | pgbench_branches_pkey |            40960
 2017-02-06 01:48:49.249726+01 | 1486342129.24973 | pgbench_tellers_pkey  |           245760
 2017-02-06 01:48:49.249726+01 | 1486342129.24973 | pgbench_accounts_pkey |       2246197248

 2017-02-06 01:48:50.333888+01 | 1486342130.33389 | pgbench_branches_pkey |            40960
 2017-02-06 01:48:50.333888+01 | 1486342130.33389 | pgbench_tellers_pkey  |           245760
 2017-02-06 01:48:50.333888+01 | 1486342130.33389 | pgbench_accounts_pkey |       2246197248

 2017-02-06 01:48:51.413771+01 | 1486342131.41377 | pgbench_branches_pkey |            40960
 2017-02-06 01:48:51.413771+01 | 1486342131.41377 | pgbench_tellers_pkey  |           245760
 2017-02-06 01:48:51.413771+01 | 1486342131.41377 | pgbench_accounts_pkey |       2246197248

 2017-02-06 01:48:52.489314+01 | 1486342132.48931 | pgbench_branches_pkey |            40960
 2017-02-06 01:48:52.489314+01 | 1486342132.48931 | pgbench_tellers_pkey  |           245760
 2017-02-06 01:48:52.489314+01 | 1486342132.48931 | pgbench_accounts_pkey |       2246197248

 2017-02-06 01:48:53.556681+01 | 1486342133.55668 | pgbench_branches_pkey |            40960
 2017-02-06 01:48:53.556681+01 | 1486342133.55668 | pgbench_tellers_pkey  |           245760
 2017-02-06 01:48:53.556681+01 | 1486342133.55668 | pgbench_accounts_pkey |       2246197248

 2017-02-06 01:48:54.639809+01 | 1486342134.63981 | pgbench_branches_pkey |            40960
 2017-02-06 01:48:54.639809+01 | 1486342134.63981 | pgbench_tellers_pkey  |           245760
 2017-02-06 01:48:54.639809+01 | 1486342134.63981 | pgbench_accounts_pkey |       2246197248

 2017-02-06 01:48:55.708714+01 | 1486342135.70871 | pgbench_branches_pkey |            40960
 2017-02-06 01:48:55.708714+01 | 1486342135.70871 | pgbench_tellers_pkey  |           245760
 2017-02-06 01:48:55.708714+01 | 1486342135.70871 | pgbench_accounts_pkey |       2246197248

 2017-02-06 01:48:56.791891+01 | 1486342136.79189 | pgbench_branches_pkey |            40960
 2017-02-06 01:48:56.791891+01 | 1486342136.79189 | pgbench_tellers_pkey  |           245760
 2017-02-06 01:48:56.791891+01 | 1486342136.79189 | pgbench_accounts_pkey |       2246197248

 2017-02-06 01:48:57.873224+01 | 1486342137.87322 | pgbench_branches_pkey |            40960
 2017-02-06 01:48:57.873224+01 | 1486342137.87322 | pgbench_tellers_pkey  |           245760
 2017-02-06 01:48:57.873224+01 | 1486342137.87322 | pgbench_accounts_pkey |       2246197248

 2017-02-06 01:48:58.950336+01 | 1486342138.95034 | pgbench_branches_pkey |            40960
 2017-02-06 01:48:58.950336+01 | 1486342138.95034 | pgbench_tellers_pkey  |           245760
 2017-02-06 01:48:58.950336+01 | 1486342138.95034 | pgbench_accounts_pkey |       2246197248

 2017-02-06 01:49:00.027737+01 | 1486342140.02774 | pgbench_branches_pkey |            40960
 2017-02-06 01:49:00.027737+01 | 1486342140.02774 | pgbench_tellers_pkey  |           245760
 2017-02-06 01:49:00.027737+01 | 1486342140.02774 | pgbench_accounts_pkey |       2246197248

 2017-02-06 01:49:01.118492+01 | 1486342141.11849 | pgbench_branches_pkey |            40960
 2017-02-06 01:49:01.118492+01 | 1486342141.11849 | pgbench_tellers_pkey  |           245760
 2017-02-06 01:49:01.118492+01 | 1486342141.11849 | pgbench_accounts_pkey |       2246197248

 2017-02-06 01:49:02.208229+01 | 1486342142.20823 | pgbench_branches_pkey |            40960
 2017-02-06 01:49:02.208229+01 | 1486342142.20823 | pgbench_tellers_pkey  |           245760
 2017-02-06 01:49:02.208229+01 | 1486342142.20823 | pgbench_accounts_pkey |       2246197248

 2017-02-06 01:49:03.296147+01 | 1486342143.29615 | pgbench_branches_pkey |            40960
 2017-02-06 01:49:03.296147+01 | 1486342143.29615 | pgbench_tellers_pkey  |           245760
 2017-02-06 01:49:03.296147+01 | 1486342143.29615 | pgbench_accounts_pkey |       2246197248

 2017-02-06 01:49:04.385781+01 | 1486342144.38578 | pgbench_branches_pkey |            40960
 2017-02-06 01:49:04.385781+01 | 1486342144.38578 | pgbench_tellers_pkey  |           245760
 2017-02-06 01:49:04.385781+01 | 1486342144.38578 | pgbench_accounts_pkey |       2246197248

 2017-02-06 01:49:05.468937+01 | 1486342145.46894 | pgbench_branches_pkey |            40960
 2017-02-06 01:49:05.468937+01 | 1486342145.46894 | pgbench_tellers_pkey  |           245760
 2017-02-06 01:49:05.468937+01 | 1486342145.46894 | pgbench_accounts_pkey |       2246197248

 2017-02-06 01:49:06.558753+01 | 1486342146.55875 | pgbench_branches_pkey |            40960
 2017-02-06 01:49:06.558753+01 | 1486342146.55875 | pgbench_tellers_pkey  |           245760
 2017-02-06 01:49:06.558753+01 | 1486342146.55875 | pgbench_accounts_pkey |       2246197248

 2017-02-06 01:49:07.626515+01 | 1486342147.62651 | pgbench_branches_pkey |            40960
 2017-02-06 01:49:07.626515+01 | 1486342147.62651 | pgbench_tellers_pkey  |           245760
 2017-02-06 01:49:07.626515+01 | 1486342147.62651 | pgbench_accounts_pkey |       2246197248

 2017-02-06 01:49:08.693325+01 | 1486342148.69333 | pgbench_branches_pkey |            40960
 2017-02-06 01:49:08.693325+01 | 1486342148.69333 | pgbench_tellers_pkey  |           245760
 2017-02-06 01:49:08.693325+01 | 1486342148.69333 | pgbench_accounts_pkey |       2246197248

 2017-02-06 01:49:09.780788+01 | 1486342149.78079 | pgbench_branches_pkey |            40960
 2017-02-06 01:49:09.780788+01 | 1486342149.78079 | pgbench_tellers_pkey  |           245760
 2017-02-06 01:49:09.780788+01 | 1486342149.78079 | pgbench_accounts_pkey |       2246197248

 2017-02-06 01:49:10.860728+01 | 1486342150.86073 | pgbench_branches_pkey |            40960
 2017-02-06 01:49:10.860728+01 | 1486342150.86073 | pgbench_tellers_pkey  |           245760
 2017-02-06 01:49:10.860728+01 | 1486342150.86073 | pgbench_accounts_pkey |       2246197248

 2017-02-06 01:49:11.940867+01 | 1486342151.94087 | pgbench_branches_pkey |            40960
 2017-02-06 01:49:11.940867+01 | 1486342151.94087 | pgbench_tellers_pkey  |           245760
 2017-02-06 01:49:11.940867+01 | 1486342151.94087 | pgbench_accounts_pkey |       2246197248

 2017-02-06 01:49:13.020824+01 | 1486342153.02082 | pgbench_branches_pkey |            40960
 2017-02-06 01:49:13.020824+01 | 1486342153.02082 | pgbench_tellers_pkey  |           245760
 2017-02-06 01:49:13.020824+01 | 1486342153.02082 | pgbench_accounts_pkey |       2246197248

 2017-02-06 01:49:14.110547+01 | 1486342154.11055 | pgbench_branches_pkey |            40960
 2017-02-06 01:49:14.110547+01 | 1486342154.11055 | pgbench_tellers_pkey  |           245760
 2017-02-06 01:49:14.110547+01 | 1486342154.11055 | pgbench_accounts_pkey |       2246197248

 2017-02-06 01:49:15.185495+01 | 1486342155.18549 | pgbench_branches_pkey |            40960
 2017-02-06 01:49:15.185495+01 | 1486342155.18549 | pgbench_tellers_pkey  |           245760
 2017-02-06 01:49:15.185495+01 | 1486342155.18549 | pgbench_accounts_pkey |       2246197248

 2017-02-06 01:49:16.265683+01 | 1486342156.26568 | pgbench_branches_pkey |            40960
 2017-02-06 01:49:16.265683+01 | 1486342156.26568 | pgbench_tellers_pkey  |           245760
 2017-02-06 01:49:16.265683+01 | 1486342156.26568 | pgbench_accounts_pkey |       2246197248

 2017-02-06 01:49:17.345146+01 | 1486342157.34515 | pgbench_branches_pkey |            40960
 2017-02-06 01:49:17.345146+01 | 1486342157.34515 | pgbench_tellers_pkey  |           245760
 2017-02-06 01:49:17.345146+01 | 1486342157.34515 | pgbench_accounts_pkey |       2246197248

 2017-02-06 01:49:18.427162+01 | 1486342158.42716 | pgbench_branches_pkey |            40960
 2017-02-06 01:49:18.427162+01 | 1486342158.42716 | pgbench_tellers_pkey  |           245760
 2017-02-06 01:49:18.427162+01 | 1486342158.42716 | pgbench_accounts_pkey |       2246197248

 2017-02-06 01:49:19.510567+01 | 1486342159.51057 | pgbench_branches_pkey |            40960
 2017-02-06 01:49:19.510567+01 | 1486342159.51057 | pgbench_tellers_pkey  |           245760
 2017-02-06 01:49:19.510567+01 | 1486342159.51057 | pgbench_accounts_pkey |       2246197248

 2017-02-06 01:49:20.602992+01 | 1486342160.60299 | pgbench_branches_pkey |            40960
 2017-02-06 01:49:20.602992+01 | 1486342160.60299 | pgbench_tellers_pkey  |           245760
 2017-02-06 01:49:20.602992+01 | 1486342160.60299 | pgbench_accounts_pkey |       2246197248

 2017-02-06 01:49:21.686709+01 | 1486342161.68671 | pgbench_branches_pkey |            40960
 2017-02-06 01:49:21.686709+01 | 1486342161.68671 | pgbench_tellers_pkey  |           245760
 2017-02-06 01:49:21.686709+01 | 1486342161.68671 | pgbench_accounts_pkey |       2246197248

 2017-02-06 01:49:22.769921+01 | 1486342162.76992 | pgbench_branches_pkey |            40960
 2017-02-06 01:49:22.769921+01 | 1486342162.76992 | pgbench_tellers_pkey  |           245760
 2017-02-06 01:49:22.769921+01 | 1486342162.76992 | pgbench_accounts_pkey |       2246197248

 2017-02-06 01:49:23.849849+01 | 1486342163.84985 | pgbench_branches_pkey |            40960
 2017-02-06 01:49:23.849849+01 | 1486342163.84985 | pgbench_tellers_pkey  |           245760
 2017-02-06 01:49:23.849849+01 | 1486342163.84985 | pgbench_accounts_pkey |       2246197248

 2017-02-06 01:49:24.925054+01 | 1486342164.92505 | pgbench_branches_pkey |            40960
 2017-02-06 01:49:24.925054+01 | 1486342164.92505 | pgbench_tellers_pkey  |           245760
 2017-02-06 01:49:24.925054+01 | 1486342164.92505 | pgbench_accounts_pkey |       2246197248

 2017-02-06 01:49:26.010457+01 | 1486342166.01046 | pgbench_branches_pkey |            40960
 2017-02-06 01:49:26.010457+01 | 1486342166.01046 | pgbench_tellers_pkey  |           245760
 2017-02-06 01:49:26.010457+01 | 1486342166.01046 | pgbench_accounts_pkey |       2246197248

 2017-02-06 01:49:27.096468+01 | 1486342167.09647 | pgbench_branches_pkey |            40960
 2017-02-06 01:49:27.096468+01 | 1486342167.09647 | pgbench_tellers_pkey  |           245760
 2017-02-06 01:49:27.096468+01 | 1486342167.09647 | pgbench_accounts_pkey |       2246197248

 2017-02-06 01:49:28.171246+01 | 1486342168.17125 | pgbench_branches_pkey |            40960
 2017-02-06 01:49:28.171246+01 | 1486342168.17125 | pgbench_tellers_pkey  |           245760
 2017-02-06 01:49:28.171246+01 | 1486342168.17125 | pgbench_accounts_pkey |       2246197248

 2017-02-06 01:49:29.258801+01 | 1486342169.2588 | pgbench_branches_pkey |            40960
 2017-02-06 01:49:29.258801+01 | 1486342169.2588 | pgbench_tellers_pkey  |           245760
 2017-02-06 01:49:29.258801+01 | 1486342169.2588 | pgbench_accounts_pkey |       2246197248

 2017-02-06 01:49:30.338132+01 | 1486342170.33813 | pgbench_branches_pkey |            40960
 2017-02-06 01:49:30.338132+01 | 1486342170.33813 | pgbench_tellers_pkey  |           245760
 2017-02-06 01:49:30.338132+01 | 1486342170.33813 | pgbench_accounts_pkey |       2246197248

 2017-02-06 01:49:31.41241+01 | 1486342171.41241 | pgbench_branches_pkey |            40960
 2017-02-06 01:49:31.41241+01 | 1486342171.41241 | pgbench_tellers_pkey  |           245760
 2017-02-06 01:49:31.41241+01 | 1486342171.41241 | pgbench_accounts_pkey |       2246197248

 2017-02-06 01:49:32.493388+01 | 1486342172.49339 | pgbench_branches_pkey |            40960
 2017-02-06 01:49:32.493388+01 | 1486342172.49339 | pgbench_tellers_pkey  |           245760
 2017-02-06 01:49:32.493388+01 | 1486342172.49339 | pgbench_accounts_pkey |       2246197248

 2017-02-06 01:49:33.574803+01 | 1486342173.5748 | pgbench_branches_pkey |            40960
 2017-02-06 01:49:33.574803+01 | 1486342173.5748 | pgbench_tellers_pkey  |           245760
 2017-02-06 01:49:33.574803+01 | 1486342173.5748 | pgbench_accounts_pkey |       2246197248

 2017-02-06 01:49:34.647967+01 | 1486342174.64797 | pgbench_branches_pkey |            40960
 2017-02-06 01:49:34.647967+01 | 1486342174.64797 | pgbench_tellers_pkey  |           245760
 2017-02-06 01:49:34.647967+01 | 1486342174.64797 | pgbench_accounts_pkey |       2246197248

 2017-02-06 01:49:35.726521+01 | 1486342175.72652 | pgbench_branches_pkey |            40960
 2017-02-06 01:49:35.726521+01 | 1486342175.72652 | pgbench_tellers_pkey  |           245760
 2017-02-06 01:49:35.726521+01 | 1486342175.72652 | pgbench_accounts_pkey |       2246197248

 2017-02-06 01:49:36.802742+01 | 1486342176.80274 | pgbench_branches_pkey |            40960
 2017-02-06 01:49:36.802742+01 | 1486342176.80274 | pgbench_tellers_pkey  |           245760
 2017-02-06 01:49:36.802742+01 | 1486342176.80274 | pgbench_accounts_pkey |       2246197248

 2017-02-06 01:49:37.881665+01 | 1486342177.88166 | pgbench_branches_pkey |            40960
 2017-02-06 01:49:37.881665+01 | 1486342177.88166 | pgbench_tellers_pkey  |           245760
 2017-02-06 01:49:37.881665+01 | 1486342177.88166 | pgbench_accounts_pkey |       2246197248

 2017-02-06 01:49:38.961288+01 | 1486342178.96129 | pgbench_branches_pkey |            40960
 2017-02-06 01:49:38.961288+01 | 1486342178.96129 | pgbench_tellers_pkey  |           245760
 2017-02-06 01:49:38.961288+01 | 1486342178.96129 | pgbench_accounts_pkey |       2246197248

 2017-02-06 01:49:40.035366+01 | 1486342180.03537 | pgbench_branches_pkey |            40960
 2017-02-06 01:49:40.035366+01 | 1486342180.03537 | pgbench_tellers_pkey  |           245760
 2017-02-06 01:49:40.035366+01 | 1486342180.03537 | pgbench_accounts_pkey |       2246197248

 2017-02-06 01:49:41.11485+01 | 1486342181.11485 | pgbench_branches_pkey |            40960
 2017-02-06 01:49:41.11485+01 | 1486342181.11485 | pgbench_tellers_pkey  |           245760
 2017-02-06 01:49:41.11485+01 | 1486342181.11485 | pgbench_accounts_pkey |       2246197248

 2017-02-06 01:49:42.188753+01 | 1486342182.18875 | pgbench_branches_pkey |            40960
 2017-02-06 01:49:42.188753+01 | 1486342182.18875 | pgbench_tellers_pkey  |           245760
 2017-02-06 01:49:42.188753+01 | 1486342182.18875 | pgbench_accounts_pkey |       2246197248

 2017-02-06 01:49:43.2656+01 | 1486342183.2656 | pgbench_branches_pkey |            40960
 2017-02-06 01:49:43.2656+01 | 1486342183.2656 | pgbench_tellers_pkey  |           245760
 2017-02-06 01:49:43.2656+01 | 1486342183.2656 | pgbench_accounts_pkey |       2246197248

 2017-02-06 01:49:44.344904+01 | 1486342184.3449 | pgbench_branches_pkey |            40960
 2017-02-06 01:49:44.344904+01 | 1486342184.3449 | pgbench_tellers_pkey  |           245760
 2017-02-06 01:49:44.344904+01 | 1486342184.3449 | pgbench_accounts_pkey |       2246197248

 2017-02-06 01:49:45.427143+01 | 1486342185.42714 | pgbench_branches_pkey |            40960
 2017-02-06 01:49:45.427143+01 | 1486342185.42714 | pgbench_tellers_pkey  |           245760
 2017-02-06 01:49:45.427143+01 | 1486342185.42714 | pgbench_accounts_pkey |       2246197248

 2017-02-06 01:49:46.50927+01 | 1486342186.50927 | pgbench_branches_pkey |            40960
 2017-02-06 01:49:46.50927+01 | 1486342186.50927 | pgbench_tellers_pkey  |           245760
 2017-02-06 01:49:46.50927+01 | 1486342186.50927 | pgbench_accounts_pkey |       2246197248

 2017-02-06 01:49:47.580708+01 | 1486342187.58071 | pgbench_branches_pkey |            40960
 2017-02-06 01:49:47.580708+01 | 1486342187.58071 | pgbench_tellers_pkey  |           245760
 2017-02-06 01:49:47.580708+01 | 1486342187.58071 | pgbench_accounts_pkey |       2246197248

 2017-02-06 01:49:48.66217+01 | 1486342188.66217 | pgbench_branches_pkey |            40960
 2017-02-06 01:49:48.66217+01 | 1486342188.66217 | pgbench_tellers_pkey  |           245760
 2017-02-06 01:49:48.66217+01 | 1486342188.66217 | pgbench_accounts_pkey |       2246197248

 2017-02-06 01:49:49.735878+01 | 1486342189.73588 | pgbench_branches_pkey |            40960
 2017-02-06 01:49:49.735878+01 | 1486342189.73588 | pgbench_tellers_pkey  |           245760
 2017-02-06 01:49:49.735878+01 | 1486342189.73588 | pgbench_accounts_pkey |       2246197248

 2017-02-06 01:49:50.812201+01 | 1486342190.8122 | pgbench_branches_pkey |            40960
 2017-02-06 01:49:50.812201+01 | 1486342190.8122 | pgbench_tellers_pkey  |           245760
 2017-02-06 01:49:50.812201+01 | 1486342190.8122 | pgbench_accounts_pkey |       2246197248

 2017-02-06 01:49:51.894519+01 | 1486342191.89452 | pgbench_branches_pkey |            40960
 2017-02-06 01:49:51.894519+01 | 1486342191.89452 | pgbench_tellers_pkey  |           245760
 2017-02-06 01:49:51.894519+01 | 1486342191.89452 | pgbench_accounts_pkey |       2246197248

 2017-02-06 01:49:52.982159+01 | 1486342192.98216 | pgbench_branches_pkey |            40960
 2017-02-06 01:49:52.982159+01 | 1486342192.98216 | pgbench_tellers_pkey  |           245760
 2017-02-06 01:49:52.982159+01 | 1486342192.98216 | pgbench_accounts_pkey |       2246197248

 2017-02-06 01:49:54.051809+01 | 1486342194.05181 | pgbench_branches_pkey |            40960
 2017-02-06 01:49:54.051809+01 | 1486342194.05181 | pgbench_tellers_pkey  |           245760
 2017-02-06 01:49:54.051809+01 | 1486342194.05181 | pgbench_accounts_pkey |       2246197248

 2017-02-06 01:49:55.125775+01 | 1486342195.12578 | pgbench_branches_pkey |            40960
 2017-02-06 01:49:55.125775+01 | 1486342195.12578 | pgbench_tellers_pkey  |           245760
 2017-02-06 01:49:55.125775+01 | 1486342195.12578 | pgbench_accounts_pkey |       2246197248

 2017-02-06 01:49:56.199696+01 | 1486342196.1997 | pgbench_branches_pkey |            40960
 2017-02-06 01:49:56.199696+01 | 1486342196.1997 | pgbench_tellers_pkey  |           245760
 2017-02-06 01:49:56.199696+01 | 1486342196.1997 | pgbench_accounts_pkey |       2246197248

 2017-02-06 01:49:57.284394+01 | 1486342197.28439 | pgbench_branches_pkey |            40960
 2017-02-06 01:49:57.284394+01 | 1486342197.28439 | pgbench_tellers_pkey  |           245760
 2017-02-06 01:49:57.284394+01 | 1486342197.28439 | pgbench_accounts_pkey |       2246197248

 2017-02-06 01:49:58.367145+01 | 1486342198.36715 | pgbench_branches_pkey |            40960
 2017-02-06 01:49:58.367145+01 | 1486342198.36715 | pgbench_tellers_pkey  |           245760
 2017-02-06 01:49:58.367145+01 | 1486342198.36715 | pgbench_accounts_pkey |       2246197248

 2017-02-06 01:49:59.445105+01 | 1486342199.44511 | pgbench_branches_pkey |            40960
 2017-02-06 01:49:59.445105+01 | 1486342199.44511 | pgbench_tellers_pkey  |           245760
 2017-02-06 01:49:59.445105+01 | 1486342199.44511 | pgbench_accounts_pkey |       2246197248

 2017-02-06 01:50:00.519044+01 | 1486342200.51904 | pgbench_branches_pkey |            40960
 2017-02-06 01:50:00.519044+01 | 1486342200.51904 | pgbench_tellers_pkey  |           245760
 2017-02-06 01:50:00.519044+01 | 1486342200.51904 | pgbench_accounts_pkey |       2246197248

 2017-02-06 01:50:01.592149+01 | 1486342201.59215 | pgbench_branches_pkey |            40960
 2017-02-06 01:50:01.592149+01 | 1486342201.59215 | pgbench_tellers_pkey  |           245760
 2017-02-06 01:50:01.592149+01 | 1486342201.59215 | pgbench_accounts_pkey |       2246197248

 2017-02-06 01:50:02.671394+01 | 1486342202.67139 | pgbench_branches_pkey |            40960
 2017-02-06 01:50:02.671394+01 | 1486342202.67139 | pgbench_tellers_pkey  |           245760
 2017-02-06 01:50:02.671394+01 | 1486342202.67139 | pgbench_accounts_pkey |       2246197248

 2017-02-06 01:50:03.76359+01 | 1486342203.76359 | pgbench_branches_pkey |            40960
 2017-02-06 01:50:03.76359+01 | 1486342203.76359 | pgbench_tellers_pkey  |           245760
 2017-02-06 01:50:03.76359+01 | 1486342203.76359 | pgbench_accounts_pkey |       2246197248

 2017-02-06 01:50:04.847022+01 | 1486342204.84702 | pgbench_branches_pkey |            40960
 2017-02-06 01:50:04.847022+01 | 1486342204.84702 | pgbench_tellers_pkey  |           245760
 2017-02-06 01:50:04.847022+01 | 1486342204.84702 | pgbench_accounts_pkey |       2246197248

 2017-02-06 01:50:05.920428+01 | 1486342205.92043 | pgbench_branches_pkey |            40960
 2017-02-06 01:50:05.920428+01 | 1486342205.92043 | pgbench_tellers_pkey  |           245760
 2017-02-06 01:50:05.920428+01 | 1486342205.92043 | pgbench_accounts_pkey |       2246197248

 2017-02-06 01:50:06.995673+01 | 1486342206.99567 | pgbench_branches_pkey |            40960
 2017-02-06 01:50:06.995673+01 | 1486342206.99567 | pgbench_tellers_pkey  |           245760
 2017-02-06 01:50:06.995673+01 | 1486342206.99567 | pgbench_accounts_pkey |       2246197248

 2017-02-06 01:50:08.067243+01 | 1486342208.06724 | pgbench_branches_pkey |            40960
 2017-02-06 01:50:08.067243+01 | 1486342208.06724 | pgbench_tellers_pkey  |           245760
 2017-02-06 01:50:08.067243+01 | 1486342208.06724 | pgbench_accounts_pkey |       2246197248

 2017-02-06 01:50:09.154292+01 | 1486342209.15429 | pgbench_branches_pkey |            40960
 2017-02-06 01:50:09.154292+01 | 1486342209.15429 | pgbench_tellers_pkey  |           245760
 2017-02-06 01:50:09.154292+01 | 1486342209.15429 | pgbench_accounts_pkey |       2246197248

 2017-02-06 01:50:10.241559+01 | 1486342210.24156 | pgbench_branches_pkey |            40960
 2017-02-06 01:50:10.241559+01 | 1486342210.24156 | pgbench_tellers_pkey  |           245760
 2017-02-06 01:50:10.241559+01 | 1486342210.24156 | pgbench_accounts_pkey |       2246197248

 2017-02-06 01:50:11.330821+01 | 1486342211.33082 | pgbench_branches_pkey |            40960
 2017-02-06 01:50:11.330821+01 | 1486342211.33082 | pgbench_tellers_pkey  |           245760
 2017-02-06 01:50:11.330821+01 | 1486342211.33082 | pgbench_accounts_pkey |       2246197248

 2017-02-06 01:50:12.411404+01 | 1486342212.4114 | pgbench_branches_pkey |            40960
 2017-02-06 01:50:12.411404+01 | 1486342212.4114 | pgbench_tellers_pkey  |           245760
 2017-02-06 01:50:12.411404+01 | 1486342212.4114 | pgbench_accounts_pkey |       2246197248

 2017-02-06 01:50:13.488296+01 | 1486342213.4883 | pgbench_branches_pkey |            40960
 2017-02-06 01:50:13.488296+01 | 1486342213.4883 | pgbench_tellers_pkey  |           245760
 2017-02-06 01:50:13.488296+01 | 1486342213.4883 | pgbench_accounts_pkey |       2246197248

 2017-02-06 01:50:14.563879+01 | 1486342214.56388 | pgbench_branches_pkey |            40960
 2017-02-06 01:50:14.563879+01 | 1486342214.56388 | pgbench_tellers_pkey  |           245760
 2017-02-06 01:50:14.563879+01 | 1486342214.56388 | pgbench_accounts_pkey |       2246197248

 2017-02-06 01:50:15.64374+01 | 1486342215.64374 | pgbench_branches_pkey |            40960
 2017-02-06 01:50:15.64374+01 | 1486342215.64374 | pgbench_tellers_pkey  |           245760
 2017-02-06 01:50:15.64374+01 | 1486342215.64374 | pgbench_accounts_pkey |       2246197248

 2017-02-06 01:50:16.725369+01 | 1486342216.72537 | pgbench_branches_pkey |            40960
 2017-02-06 01:50:16.725369+01 | 1486342216.72537 | pgbench_tellers_pkey  |           245760
 2017-02-06 01:50:16.725369+01 | 1486342216.72537 | pgbench_accounts_pkey |       2246197248

 2017-02-06 01:50:17.808162+01 | 1486342217.80816 | pgbench_branches_pkey |            40960
 2017-02-06 01:50:17.808162+01 | 1486342217.80816 | pgbench_tellers_pkey  |           245760
 2017-02-06 01:50:17.808162+01 | 1486342217.80816 | pgbench_accounts_pkey |       2246197248

 2017-02-06 01:50:18.882383+01 | 1486342218.88238 | pgbench_branches_pkey |            40960
 2017-02-06 01:50:18.882383+01 | 1486342218.88238 | pgbench_tellers_pkey  |           245760
 2017-02-06 01:50:18.882383+01 | 1486342218.88238 | pgbench_accounts_pkey |       2246197248

 2017-02-06 01:50:19.962557+01 | 1486342219.96256 | pgbench_branches_pkey |            40960
 2017-02-06 01:50:19.962557+01 | 1486342219.96256 | pgbench_tellers_pkey  |           245760
 2017-02-06 01:50:19.962557+01 | 1486342219.96256 | pgbench_accounts_pkey |       2246197248

 2017-02-06 01:50:21.042258+01 | 1486342221.04226 | pgbench_branches_pkey |            40960
 2017-02-06 01:50:21.042258+01 | 1486342221.04226 | pgbench_tellers_pkey  |           245760
 2017-02-06 01:50:21.042258+01 | 1486342221.04226 | pgbench_accounts_pkey |       2246197248

 2017-02-06 01:50:22.116788+01 | 1486342222.11679 | pgbench_branches_pkey |            40960
 2017-02-06 01:50:22.116788+01 | 1486342222.11679 | pgbench_tellers_pkey  |           245760
 2017-02-06 01:50:22.116788+01 | 1486342222.11679 | pgbench_accounts_pkey |       2246197248

 2017-02-06 01:50:23.200108+01 | 1486342223.20011 | pgbench_branches_pkey |            40960
 2017-02-06 01:50:23.200108+01 | 1486342223.20011 | pgbench_tellers_pkey  |           245760
 2017-02-06 01:50:23.200108+01 | 1486342223.20011 | pgbench_accounts_pkey |       2246197248

 2017-02-06 01:50:24.282602+01 | 1486342224.2826 | pgbench_branches_pkey |            40960
 2017-02-06 01:50:24.282602+01 | 1486342224.2826 | pgbench_tellers_pkey  |           245760
 2017-02-06 01:50:24.282602+01 | 1486342224.2826 | pgbench_accounts_pkey |       2246197248

 2017-02-06 01:50:25.370741+01 | 1486342225.37074 | pgbench_branches_pkey |            40960
 2017-02-06 01:50:25.370741+01 | 1486342225.37074 | pgbench_tellers_pkey  |           245760
 2017-02-06 01:50:25.370741+01 | 1486342225.37074 | pgbench_accounts_pkey |       2246197248

 2017-02-06 01:50:26.445574+01 | 1486342226.44557 | pgbench_branches_pkey |            40960
 2017-02-06 01:50:26.445574+01 | 1486342226.44557 | pgbench_tellers_pkey  |           245760
 2017-02-06 01:50:26.445574+01 | 1486342226.44557 | pgbench_accounts_pkey |       2246197248

 2017-02-06 01:50:27.526377+01 | 1486342227.52638 | pgbench_branches_pkey |            40960
 2017-02-06 01:50:27.526377+01 | 1486342227.52638 | pgbench_tellers_pkey  |           245760
 2017-02-06 01:50:27.526377+01 | 1486342227.52638 | pgbench_accounts_pkey |       2246197248

 2017-02-06 01:50:28.596317+01 | 1486342228.59632 | pgbench_branches_pkey |            40960
 2017-02-06 01:50:28.596317+01 | 1486342228.59632 | pgbench_tellers_pkey  |           245760
 2017-02-06 01:50:28.596317+01 | 1486342228.59632 | pgbench_accounts_pkey |       2246197248

 2017-02-06 01:50:29.673511+01 | 1486342229.67351 | pgbench_branches_pkey |            40960
 2017-02-06 01:50:29.673511+01 | 1486342229.67351 | pgbench_tellers_pkey  |           245760
 2017-02-06 01:50:29.673511+01 | 1486342229.67351 | pgbench_accounts_pkey |       2246197248

 2017-02-06 01:50:30.746847+01 | 1486342230.74685 | pgbench_branches_pkey |            40960
 2017-02-06 01:50:30.746847+01 | 1486342230.74685 | pgbench_tellers_pkey  |           245760
 2017-02-06 01:50:30.746847+01 | 1486342230.74685 | pgbench_accounts_pkey |       2246197248

 2017-02-06 01:50:31.819671+01 | 1486342231.81967 | pgbench_branches_pkey |            40960
 2017-02-06 01:50:31.819671+01 | 1486342231.81967 | pgbench_tellers_pkey  |           245760
 2017-02-06 01:50:31.819671+01 | 1486342231.81967 | pgbench_accounts_pkey |       2246197248

 2017-02-06 01:50:32.901042+01 | 1486342232.90104 | pgbench_branches_pkey |            40960
 2017-02-06 01:50:32.901042+01 | 1486342232.90104 | pgbench_tellers_pkey  |           245760
 2017-02-06 01:50:32.901042+01 | 1486342232.90104 | pgbench_accounts_pkey |       2246197248

 2017-02-06 01:50:33.978663+01 | 1486342233.97866 | pgbench_branches_pkey |            40960
 2017-02-06 01:50:33.978663+01 | 1486342233.97866 | pgbench_tellers_pkey  |           245760
 2017-02-06 01:50:33.978663+01 | 1486342233.97866 | pgbench_accounts_pkey |       2246197248

 2017-02-06 01:50:35.062106+01 | 1486342235.06211 | pgbench_branches_pkey |            40960
 2017-02-06 01:50:35.062106+01 | 1486342235.06211 | pgbench_tellers_pkey  |           245760
 2017-02-06 01:50:35.062106+01 | 1486342235.06211 | pgbench_accounts_pkey |       2246197248

 2017-02-06 01:50:36.144357+01 | 1486342236.14436 | pgbench_branches_pkey |            40960
 2017-02-06 01:50:36.144357+01 | 1486342236.14436 | pgbench_tellers_pkey  |           245760
 2017-02-06 01:50:36.144357+01 | 1486342236.14436 | pgbench_accounts_pkey |       2246197248

 2017-02-06 01:50:37.219911+01 | 1486342237.21991 | pgbench_branches_pkey |            40960
 2017-02-06 01:50:37.219911+01 | 1486342237.21991 | pgbench_tellers_pkey  |           245760
 2017-02-06 01:50:37.219911+01 | 1486342237.21991 | pgbench_accounts_pkey |       2246197248

 2017-02-06 01:50:38.306119+01 | 1486342238.30612 | pgbench_branches_pkey |            40960
 2017-02-06 01:50:38.306119+01 | 1486342238.30612 | pgbench_tellers_pkey  |           245760
 2017-02-06 01:50:38.306119+01 | 1486342238.30612 | pgbench_accounts_pkey |       2246197248

 2017-02-06 01:50:39.383917+01 | 1486342239.38392 | pgbench_branches_pkey |            40960
 2017-02-06 01:50:39.383917+01 | 1486342239.38392 | pgbench_tellers_pkey  |           245760
 2017-02-06 01:50:39.383917+01 | 1486342239.38392 | pgbench_accounts_pkey |       2246197248

 2017-02-06 01:50:40.468762+01 | 1486342240.46876 | pgbench_branches_pkey |            40960
 2017-02-06 01:50:40.468762+01 | 1486342240.46876 | pgbench_tellers_pkey  |           245760
 2017-02-06 01:50:40.468762+01 | 1486342240.46876 | pgbench_accounts_pkey |       2246197248

 2017-02-06 01:50:41.546933+01 | 1486342241.54693 | pgbench_branches_pkey |            40960
 2017-02-06 01:50:41.546933+01 | 1486342241.54693 | pgbench_tellers_pkey  |           245760
 2017-02-06 01:50:41.546933+01 | 1486342241.54693 | pgbench_accounts_pkey |       2246197248

 2017-02-06 01:50:42.627991+01 | 1486342242.62799 | pgbench_branches_pkey |            40960
 2017-02-06 01:50:42.627991+01 | 1486342242.62799 | pgbench_tellers_pkey  |           245760
 2017-02-06 01:50:42.627991+01 | 1486342242.62799 | pgbench_accounts_pkey |       2246197248

 2017-02-06 01:50:43.715185+01 | 1486342243.71518 | pgbench_branches_pkey |            40960
 2017-02-06 01:50:43.715185+01 | 1486342243.71518 | pgbench_tellers_pkey  |           245760
 2017-02-06 01:50:43.715185+01 | 1486342243.71518 | pgbench_accounts_pkey |       2246197248

 2017-02-06 01:50:44.78369+01 | 1486342244.78369 | pgbench_branches_pkey |            40960
 2017-02-06 01:50:44.78369+01 | 1486342244.78369 | pgbench_tellers_pkey  |           245760
 2017-02-06 01:50:44.78369+01 | 1486342244.78369 | pgbench_accounts_pkey |       2246197248

 2017-02-06 01:50:45.870092+01 | 1486342245.87009 | pgbench_branches_pkey |            40960
 2017-02-06 01:50:45.870092+01 | 1486342245.87009 | pgbench_tellers_pkey  |           245760
 2017-02-06 01:50:45.870092+01 | 1486342245.87009 | pgbench_accounts_pkey |       2246197248

 2017-02-06 01:50:46.947567+01 | 1486342246.94757 | pgbench_branches_pkey |            40960
 2017-02-06 01:50:46.947567+01 | 1486342246.94757 | pgbench_tellers_pkey  |           245760
 2017-02-06 01:50:46.947567+01 | 1486342246.94757 | pgbench_accounts_pkey |       2246197248

 2017-02-06 01:50:48.031791+01 | 1486342248.03179 | pgbench_branches_pkey |            40960
 2017-02-06 01:50:48.031791+01 | 1486342248.03179 | pgbench_tellers_pkey  |           245760
 2017-02-06 01:50:48.031791+01 | 1486342248.03179 | pgbench_accounts_pkey |       2246197248

 2017-02-06 01:50:49.106167+01 | 1486342249.10617 | pgbench_branches_pkey |            40960
 2017-02-06 01:50:49.106167+01 | 1486342249.10617 | pgbench_tellers_pkey  |           245760
 2017-02-06 01:50:49.106167+01 | 1486342249.10617 | pgbench_accounts_pkey |       2246197248

 2017-02-06 01:50:50.173446+01 | 1486342250.17345 | pgbench_branches_pkey |            40960
 2017-02-06 01:50:50.173446+01 | 1486342250.17345 | pgbench_tellers_pkey  |           245760
 2017-02-06 01:50:50.173446+01 | 1486342250.17345 | pgbench_accounts_pkey |       2246197248

 2017-02-06 01:50:51.252074+01 | 1486342251.25207 | pgbench_branches_pkey |            40960
 2017-02-06 01:50:51.252074+01 | 1486342251.25207 | pgbench_tellers_pkey  |           245760
 2017-02-06 01:50:51.252074+01 | 1486342251.25207 | pgbench_accounts_pkey |       2246197248

 2017-02-06 01:50:52.336005+01 | 1486342252.336 | pgbench_branches_pkey |            40960
 2017-02-06 01:50:52.336005+01 | 1486342252.336 | pgbench_tellers_pkey  |           245760
 2017-02-06 01:50:52.336005+01 | 1486342252.336 | pgbench_accounts_pkey |       2246197248

 2017-02-06 01:50:53.412409+01 | 1486342253.41241 | pgbench_branches_pkey |            40960
 2017-02-06 01:50:53.412409+01 | 1486342253.41241 | pgbench_tellers_pkey  |           245760
 2017-02-06 01:50:53.412409+01 | 1486342253.41241 | pgbench_accounts_pkey |       2246197248

 2017-02-06 01:50:54.493114+01 | 1486342254.49311 | pgbench_branches_pkey |            40960
 2017-02-06 01:50:54.493114+01 | 1486342254.49311 | pgbench_tellers_pkey  |           245760
 2017-02-06 01:50:54.493114+01 | 1486342254.49311 | pgbench_accounts_pkey |       2246197248

 2017-02-06 01:50:55.572029+01 | 1486342255.57203 | pgbench_branches_pkey |            40960
 2017-02-06 01:50:55.572029+01 | 1486342255.57203 | pgbench_tellers_pkey  |           245760
 2017-02-06 01:50:55.572029+01 | 1486342255.57203 | pgbench_accounts_pkey |       2246197248

 2017-02-06 01:50:56.650632+01 | 1486342256.65063 | pgbench_branches_pkey |            40960
 2017-02-06 01:50:56.650632+01 | 1486342256.65063 | pgbench_tellers_pkey  |           245760
 2017-02-06 01:50:56.650632+01 | 1486342256.65063 | pgbench_accounts_pkey |       2246197248

 2017-02-06 01:50:57.720593+01 | 1486342257.72059 | pgbench_branches_pkey |            40960
 2017-02-06 01:50:57.720593+01 | 1486342257.72059 | pgbench_tellers_pkey  |           245760
 2017-02-06 01:50:57.720593+01 | 1486342257.72059 | pgbench_accounts_pkey |       2246197248

 2017-02-06 01:50:58.803971+01 | 1486342258.80397 | pgbench_branches_pkey |            40960
 2017-02-06 01:50:58.803971+01 | 1486342258.80397 | pgbench_tellers_pkey  |           245760
 2017-02-06 01:50:58.803971+01 | 1486342258.80397 | pgbench_accounts_pkey |       2246197248

 2017-02-06 01:50:59.881577+01 | 1486342259.88158 | pgbench_branches_pkey |            40960
 2017-02-06 01:50:59.881577+01 | 1486342259.88158 | pgbench_tellers_pkey  |           245760
 2017-02-06 01:50:59.881577+01 | 1486342259.88158 | pgbench_accounts_pkey |       2246197248

 2017-02-06 01:51:00.95775+01 | 1486342260.95775 | pgbench_branches_pkey |            40960
 2017-02-06 01:51:00.95775+01 | 1486342260.95775 | pgbench_tellers_pkey  |           245760
 2017-02-06 01:51:00.95775+01 | 1486342260.95775 | pgbench_accounts_pkey |       2246197248

 2017-02-06 01:51:02.038074+01 | 1486342262.03807 | pgbench_branches_pkey |            40960
 2017-02-06 01:51:02.038074+01 | 1486342262.03807 | pgbench_tellers_pkey  |           245760
 2017-02-06 01:51:02.038074+01 | 1486342262.03807 | pgbench_accounts_pkey |       2246197248

 2017-02-06 01:51:03.125286+01 | 1486342263.12529 | pgbench_branches_pkey |            40960
 2017-02-06 01:51:03.125286+01 | 1486342263.12529 | pgbench_tellers_pkey  |           245760
 2017-02-06 01:51:03.125286+01 | 1486342263.12529 | pgbench_accounts_pkey |       2246197248

 2017-02-06 01:51:04.211544+01 | 1486342264.21154 | pgbench_branches_pkey |            40960
 2017-02-06 01:51:04.211544+01 | 1486342264.21154 | pgbench_tellers_pkey  |           245760
 2017-02-06 01:51:04.211544+01 | 1486342264.21154 | pgbench_accounts_pkey |       2246197248

 2017-02-06 01:51:05.291538+01 | 1486342265.29154 | pgbench_branches_pkey |            40960
 2017-02-06 01:51:05.291538+01 | 1486342265.29154 | pgbench_tellers_pkey  |           245760
 2017-02-06 01:51:05.291538+01 | 1486342265.29154 | pgbench_accounts_pkey |       2246197248

 2017-02-06 01:51:06.377671+01 | 1486342266.37767 | pgbench_branches_pkey |            40960
 2017-02-06 01:51:06.377671+01 | 1486342266.37767 | pgbench_tellers_pkey  |           245760
 2017-02-06 01:51:06.377671+01 | 1486342266.37767 | pgbench_accounts_pkey |       2246197248

 2017-02-06 01:51:07.447826+01 | 1486342267.44783 | pgbench_branches_pkey |            40960
 2017-02-06 01:51:07.447826+01 | 1486342267.44783 | pgbench_tellers_pkey  |           245760
 2017-02-06 01:51:07.447826+01 | 1486342267.44783 | pgbench_accounts_pkey |       2246197248

 2017-02-06 01:51:08.52374+01 | 1486342268.52374 | pgbench_branches_pkey |            40960
 2017-02-06 01:51:08.52374+01 | 1486342268.52374 | pgbench_tellers_pkey  |           245760
 2017-02-06 01:51:08.52374+01 | 1486342268.52374 | pgbench_accounts_pkey |       2246197248

 2017-02-06 01:51:09.612669+01 | 1486342269.61267 | pgbench_branches_pkey |            40960
 2017-02-06 01:51:09.612669+01 | 1486342269.61267 | pgbench_tellers_pkey  |           245760
 2017-02-06 01:51:09.612669+01 | 1486342269.61267 | pgbench_accounts_pkey |       2246197248

 2017-02-06 01:51:10.705762+01 | 1486342270.70576 | pgbench_branches_pkey |            40960
 2017-02-06 01:51:10.705762+01 | 1486342270.70576 | pgbench_tellers_pkey  |           245760
 2017-02-06 01:51:10.705762+01 | 1486342270.70576 | pgbench_accounts_pkey |       2246197248

 2017-02-06 01:51:11.802633+01 | 1486342271.80263 | pgbench_branches_pkey |            40960
 2017-02-06 01:51:11.802633+01 | 1486342271.80263 | pgbench_tellers_pkey  |           245760
 2017-02-06 01:51:11.802633+01 | 1486342271.80263 | pgbench_accounts_pkey |       2246197248

 2017-02-06 01:51:12.884243+01 | 1486342272.88424 | pgbench_branches_pkey |            40960
 2017-02-06 01:51:12.884243+01 | 1486342272.88424 | pgbench_tellers_pkey  |           245760
 2017-02-06 01:51:12.884243+01 | 1486342272.88424 | pgbench_accounts_pkey |       2246197248

