 2017-02-06 01:46:14.765142+01 | 1486341974.76514 | 3/1AA8998                |           12912855448

 2017-02-06 01:46:15.831597+01 | 1486341975.8316 | 3/1AA8998                |           12912855448

 2017-02-06 01:46:16.91283+01 | 1486341976.91283 | 3/1AA8998                |           12912855448

 2017-02-06 01:46:17.983909+01 | 1486341977.98391 | 3/1AA8998                |           12912855448

 2017-02-06 01:46:19.069918+01 | 1486341979.06992 | 3/1AA8998                |           12912855448

 2017-02-06 01:46:20.155823+01 | 1486341980.15582 | 3/1AA8998                |           12912855448

 2017-02-06 01:46:21.232075+01 | 1486341981.23207 | 3/1AA8998                |           12912855448

 2017-02-06 01:46:22.312256+01 | 1486341982.31226 | 3/1AA8998                |           12912855448

 2017-02-06 01:46:23.387548+01 | 1486341983.38755 | 3/1AA8998                |           12912855448

 2017-02-06 01:46:24.470942+01 | 1486341984.47094 | 3/1AA8998                |           12912855448

 2017-02-06 01:46:25.554323+01 | 1486341985.55432 | 3/1AA8998                |           12912855448

 2017-02-06 01:46:26.633113+01 | 1486341986.63311 | 3/1AA8998                |           12912855448

 2017-02-06 01:46:27.709233+01 | 1486341987.70923 | 3/1AA8998                |           12912855448

 2017-02-06 01:46:28.796185+01 | 1486341988.79619 | 3/1AA8998                |           12912855448

 2017-02-06 01:46:29.874984+01 | 1486341989.87498 | 3/1AA8998                |           12912855448

 2017-02-06 01:46:30.956172+01 | 1486341990.95617 | 3/1AA8998                |           12912855448

 2017-02-06 01:46:32.040303+01 | 1486341992.0403 | 3/1AA8998                |           12912855448

 2017-02-06 01:46:33.111077+01 | 1486341993.11108 | 3/1AA8998                |           12912855448

 2017-02-06 01:46:34.198112+01 | 1486341994.19811 | 3/1AA8998                |           12912855448

 2017-02-06 01:46:35.284915+01 | 1486341995.28491 | 3/1AA8998                |           12912855448

 2017-02-06 01:46:36.365754+01 | 1486341996.36575 | 3/1AA8998                |           12912855448

 2017-02-06 01:46:37.44574+01 | 1486341997.44574 | 3/1AA8998                |           12912855448

 2017-02-06 01:46:38.521132+01 | 1486341998.52113 | 3/1AA8998                |           12912855448

 2017-02-06 01:46:39.597102+01 | 1486341999.5971 | 3/1AA8998                |           12912855448

 2017-02-06 01:46:40.670485+01 | 1486342000.67049 | 3/1AA8998                |           12912855448

 2017-02-06 01:46:41.742789+01 | 1486342001.74279 | 3/1AA8998                |           12912855448

 2017-02-06 01:46:42.82998+01 | 1486342002.82998 | 3/1AA8998                |           12912855448

 2017-02-06 01:46:43.906358+01 | 1486342003.90636 | 3/1AA8998                |           12912855448

 2017-02-06 01:46:44.99556+01 | 1486342004.99556 | 3/1AA8998                |           12912855448

 2017-02-06 01:46:46.069671+01 | 1486342006.06967 | 3/1AA8998                |           12912855448

 2017-02-06 01:46:47.15153+01 | 1486342007.15153 | 3/1AA8998                |           12912855448

 2017-02-06 01:46:48.230109+01 | 1486342008.23011 | 3/1AA8998                |           12912855448

 2017-02-06 01:46:49.312726+01 | 1486342009.31273 | 3/1AA8998                |           12912855448

 2017-02-06 01:46:50.398929+01 | 1486342010.39893 | 3/1AA8998                |           12912855448

 2017-02-06 01:46:51.472859+01 | 1486342011.47286 | 3/1AA8998                |           12912855448

 2017-02-06 01:46:52.549944+01 | 1486342012.54994 | 3/1AA8998                |           12912855448

 2017-02-06 01:46:53.638196+01 | 1486342013.6382 | 3/1AA8998                |           12912855448

 2017-02-06 01:46:54.720009+01 | 1486342014.72001 | 3/1AA8998                |           12912855448

 2017-02-06 01:46:55.806955+01 | 1486342015.80696 | 3/1AA8998                |           12912855448

 2017-02-06 01:46:56.880979+01 | 1486342016.88098 | 3/1AA8998                |           12912855448

 2017-02-06 01:46:57.954068+01 | 1486342017.95407 | 3/1AA8998                |           12912855448

 2017-02-06 01:46:59.038223+01 | 1486342019.03822 | 3/1AA8998                |           12912855448

 2017-02-06 01:47:00.11941+01 | 1486342020.11941 | 3/1AA8998                |           12912855448

 2017-02-06 01:47:01.192117+01 | 1486342021.19212 | 3/1AA8998                |           12912855448

 2017-02-06 01:47:02.277225+01 | 1486342022.27723 | 3/1AA8998                |           12912855448

 2017-02-06 01:47:03.348919+01 | 1486342023.34892 | 3/1AA8998                |           12912855448

 2017-02-06 01:47:04.430805+01 | 1486342024.4308 | 3/1AA8998                |           12912855448

 2017-02-06 01:47:05.512982+01 | 1486342025.51298 | 3/1AA8998                |           12912855448

 2017-02-06 01:47:06.588969+01 | 1486342026.58897 | 3/1AA8998                |           12912855448

 2017-02-06 01:47:07.663033+01 | 1486342027.66303 | 3/1AA8998                |           12912855448

 2017-02-06 01:47:08.734702+01 | 1486342028.7347 | 3/1AA8998                |           12912855448

 2017-02-06 01:47:09.805378+01 | 1486342029.80538 | 3/1AA8998                |           12912855448

 2017-02-06 01:47:10.884328+01 | 1486342030.88433 | 3/1AA8998                |           12912855448

 2017-02-06 01:47:11.955032+01 | 1486342031.95503 | 3/1AA8998                |           12912855448

 2017-02-06 01:47:13.041588+01 | 1486342033.04159 | 3/1AA8998                |           12912855448

 2017-02-06 01:47:14.132217+01 | 1486342034.13222 | 3/1AA8998                |           12912855448

 2017-02-06 01:47:15.211722+01 | 1486342035.21172 | 3/1AA8998                |           12912855448

 2017-02-06 01:47:16.292333+01 | 1486342036.29233 | 3/1AA8998                |           12912855448

 2017-02-06 01:47:17.365326+01 | 1486342037.36533 | 3/1AA8998                |           12912855448

 2017-02-06 01:47:18.443075+01 | 1486342038.44307 | 3/1AA8998                |           12912855448

 2017-02-06 01:47:19.526318+01 | 1486342039.52632 | 3/1AA8998                |           12912855448

 2017-02-06 01:47:20.607145+01 | 1486342040.60715 | 3/1AA8998                |           12912855448

 2017-02-06 01:47:21.690232+01 | 1486342041.69023 | 3/1AA8998                |           12912855448

 2017-02-06 01:47:22.765671+01 | 1486342042.76567 | 3/1AA8998                |           12912855448

 2017-02-06 01:47:23.854277+01 | 1486342043.85428 | 3/1AA8998                |           12912855448

 2017-02-06 01:47:24.934566+01 | 1486342044.93457 | 3/1AA8998                |           12912855448

 2017-02-06 01:47:26.01388+01 | 1486342046.01388 | 3/1AA8998                |           12912855448

 2017-02-06 01:47:27.099018+01 | 1486342047.09902 | 3/1AA8998                |           12912855448

 2017-02-06 01:47:28.176632+01 | 1486342048.17663 | 3/1AA8998                |           12912855448

 2017-02-06 01:47:29.254067+01 | 1486342049.25407 | 3/1AA8998                |           12912855448

 2017-02-06 01:47:30.335881+01 | 1486342050.33588 | 3/1AA8998                |           12912855448

 2017-02-06 01:47:31.417563+01 | 1486342051.41756 | 3/1AA8998                |           12912855448

 2017-02-06 01:47:32.498276+01 | 1486342052.49828 | 3/1AA8998                |           12912855448

 2017-02-06 01:47:33.583964+01 | 1486342053.58396 | 3/1AA8998                |           12912855448

 2017-02-06 01:47:34.662051+01 | 1486342054.66205 | 3/1AA8998                |           12912855448

 2017-02-06 01:47:35.73836+01 | 1486342055.73836 | 3/1AA8998                |           12912855448

 2017-02-06 01:47:36.821783+01 | 1486342056.82178 | 3/1AA8998                |           12912855448

 2017-02-06 01:47:37.900664+01 | 1486342057.90066 | 3/1AA8998                |           12912855448

 2017-02-06 01:47:38.985471+01 | 1486342058.98547 | 3/1AA8998                |           12912855448

 2017-02-06 01:47:40.068829+01 | 1486342060.06883 | 3/1AA8998                |           12912855448

 2017-02-06 01:47:41.139938+01 | 1486342061.13994 | 3/1AA8998                |           12912855448

 2017-02-06 01:47:42.222141+01 | 1486342062.22214 | 3/1AA8998                |           12912855448

 2017-02-06 01:47:43.304066+01 | 1486342063.30407 | 3/1AA8998                |           12912855448

 2017-02-06 01:47:44.377452+01 | 1486342064.37745 | 3/1AA8998                |           12912855448

 2017-02-06 01:47:45.435022+01 | 1486342065.43502 | 3/1AA8998                |           12912855448

 2017-02-06 01:47:46.52315+01 | 1486342066.52315 | 3/1AA8998                |           12912855448

 2017-02-06 01:47:47.597354+01 | 1486342067.59735 | 3/1AA8998                |           12912855448

 2017-02-06 01:47:48.688285+01 | 1486342068.68829 | 3/1AA8998                |           12912855448

 2017-02-06 01:47:49.776541+01 | 1486342069.77654 | 3/1AA8998                |           12912855448

 2017-02-06 01:47:50.857485+01 | 1486342070.85749 | 3/1AA8998                |           12912855448

 2017-02-06 01:47:51.93965+01 | 1486342071.93965 | 3/1AA8998                |           12912855448

 2017-02-06 01:47:53.028018+01 | 1486342073.02802 | 3/1AA8998                |           12912855448

 2017-02-06 01:47:54.108262+01 | 1486342074.10826 | 3/1AA8998                |           12912855448

 2017-02-06 01:47:55.181225+01 | 1486342075.18123 | 3/1AA8998                |           12912855448

 2017-02-06 01:47:56.266795+01 | 1486342076.26679 | 3/1AA8998                |           12912855448

 2017-02-06 01:47:57.345634+01 | 1486342077.34563 | 3/1AA8998                |           12912855448

 2017-02-06 01:47:58.420055+01 | 1486342078.42005 | 3/1AA8998                |           12912855448

 2017-02-06 01:47:59.50043+01 | 1486342079.50043 | 3/1AA8998                |           12912855448

 2017-02-06 01:48:00.578373+01 | 1486342080.57837 | 3/1AA8998                |           12912855448

 2017-02-06 01:48:01.65621+01 | 1486342081.65621 | 3/1AA8998                |           12912855448

 2017-02-06 01:48:02.736594+01 | 1486342082.73659 | 3/1AA8998                |           12912855448

 2017-02-06 01:48:03.825406+01 | 1486342083.82541 | 3/1AA8998                |           12912855448

 2017-02-06 01:48:04.912143+01 | 1486342084.91214 | 3/1AA8998                |           12912855448

 2017-02-06 01:48:05.995764+01 | 1486342085.99576 | 3/1AA8998                |           12912855448

 2017-02-06 01:48:07.067961+01 | 1486342087.06796 | 3/1AA8998                |           12912855448

 2017-02-06 01:48:08.15246+01 | 1486342088.15246 | 3/1AA8998                |           12912855448

 2017-02-06 01:48:09.232262+01 | 1486342089.23226 | 3/1AA8998                |           12912855448

 2017-02-06 01:48:10.31483+01 | 1486342090.31483 | 3/1AA8998                |           12912855448

 2017-02-06 01:48:11.395066+01 | 1486342091.39507 | 3/1AA8998                |           12912855448

 2017-02-06 01:48:12.482805+01 | 1486342092.48281 | 3/1AA8998                |           12912855448

 2017-02-06 01:48:13.567599+01 | 1486342093.5676 | 3/1AA8998                |           12912855448

 2017-02-06 01:48:14.650792+01 | 1486342094.65079 | 3/1AA8998                |           12912855448

 2017-02-06 01:48:15.735178+01 | 1486342095.73518 | 3/1AA8998                |           12912855448

 2017-02-06 01:48:16.809296+01 | 1486342096.8093 | 3/1AA8998                |           12912855448

 2017-02-06 01:48:17.892403+01 | 1486342097.8924 | 3/1AA8998                |           12912855448

 2017-02-06 01:48:18.978291+01 | 1486342098.97829 | 3/1AA8998                |           12912855448

 2017-02-06 01:48:20.048774+01 | 1486342100.04877 | 3/1AA8998                |           12912855448

 2017-02-06 01:48:21.1234+01 | 1486342101.1234 | 3/1AA8998                |           12912855448

 2017-02-06 01:48:22.206882+01 | 1486342102.20688 | 3/1AA8998                |           12912855448

 2017-02-06 01:48:23.286462+01 | 1486342103.28646 | 3/1AA8998                |           12912855448

 2017-02-06 01:48:24.359804+01 | 1486342104.3598 | 3/1AA8998                |           12912855448

 2017-02-06 01:48:25.436026+01 | 1486342105.43603 | 3/1AA8998                |           12912855448

 2017-02-06 01:48:26.523224+01 | 1486342106.52322 | 3/1AA8998                |           12912855448

 2017-02-06 01:48:27.610949+01 | 1486342107.61095 | 3/1AA8998                |           12912855448

 2017-02-06 01:48:28.681647+01 | 1486342108.68165 | 3/1AA8998                |           12912855448

 2017-02-06 01:48:29.749824+01 | 1486342109.74982 | 3/1AA8998                |           12912855448

 2017-02-06 01:48:30.833327+01 | 1486342110.83333 | 3/1AA8998                |           12912855448

 2017-02-06 01:48:31.91604+01 | 1486342111.91604 | 3/1AA8998                |           12912855448

 2017-02-06 01:48:32.997045+01 | 1486342112.99705 | 3/1AA8998                |           12912855448

 2017-02-06 01:48:34.069432+01 | 1486342114.06943 | 3/1AA8998                |           12912855448

 2017-02-06 01:48:35.149486+01 | 1486342115.14949 | 3/1AA8998                |           12912855448

 2017-02-06 01:48:36.223685+01 | 1486342116.22369 | 3/1AA8998                |           12912855448

 2017-02-06 01:48:37.306523+01 | 1486342117.30652 | 3/1AA8998                |           12912855448

 2017-02-06 01:48:38.382391+01 | 1486342118.38239 | 3/1AA8998                |           12912855448

 2017-02-06 01:48:39.467634+01 | 1486342119.46763 | 3/1AA8998                |           12912855448

 2017-02-06 01:48:40.548963+01 | 1486342120.54896 | 3/1AA8998                |           12912855448

 2017-02-06 01:48:41.62471+01 | 1486342121.62471 | 3/1AA8998                |           12912855448

 2017-02-06 01:48:42.710671+01 | 1486342122.71067 | 3/1AA8998                |           12912855448

 2017-02-06 01:48:43.788026+01 | 1486342123.78803 | 3/1AA8998                |           12912855448

 2017-02-06 01:48:44.866244+01 | 1486342124.86624 | 3/1AA8998                |           12912855448

 2017-02-06 01:48:45.94489+01 | 1486342125.94489 | 3/1AA8998                |           12912855448

 2017-02-06 01:48:47.032928+01 | 1486342127.03293 | 3/1AA8998                |           12912855448

 2017-02-06 01:48:48.106746+01 | 1486342128.10675 | 3/1AA8998                |           12912855448

 2017-02-06 01:48:49.184243+01 | 1486342129.18424 | 3/1AA8998                |           12912855448

 2017-02-06 01:48:50.277498+01 | 1486342130.2775 | 3/1AA8998                |           12912855448

 2017-02-06 01:48:51.355721+01 | 1486342131.35572 | 3/1AA8998                |           12912855448

 2017-02-06 01:48:52.438107+01 | 1486342132.43811 | 3/1AA8998                |           12912855448

 2017-02-06 01:48:53.507048+01 | 1486342133.50705 | 3/1AA8998                |           12912855448

 2017-02-06 01:48:54.583127+01 | 1486342134.58313 | 3/1AA8998                |           12912855448

 2017-02-06 01:48:55.660287+01 | 1486342135.66029 | 3/1AA8998                |           12912855448

 2017-02-06 01:48:56.735567+01 | 1486342136.73557 | 3/1AA8998                |           12912855448

 2017-02-06 01:48:57.813364+01 | 1486342137.81336 | 3/1AA8998                |           12912855448

 2017-02-06 01:48:58.896516+01 | 1486342138.89652 | 3/1AA8998                |           12912855448

 2017-02-06 01:48:59.970704+01 | 1486342139.9707 | 3/1AA8998                |           12912855448

 2017-02-06 01:49:01.053671+01 | 1486342141.05367 | 3/1AA8998                |           12912855448

 2017-02-06 01:49:02.14484+01 | 1486342142.14484 | 3/1AA8998                |           12912855448

 2017-02-06 01:49:03.234965+01 | 1486342143.23497 | 3/1AA8998                |           12912855448

 2017-02-06 01:49:04.321369+01 | 1486342144.32137 | 3/1AA8998                |           12912855448

 2017-02-06 01:49:05.411353+01 | 1486342145.41135 | 3/1AA8998                |           12912855448

 2017-02-06 01:49:06.493155+01 | 1486342146.49316 | 3/1AA8998                |           12912855448

 2017-02-06 01:49:07.581216+01 | 1486342147.58122 | 3/1AA8998                |           12912855448

 2017-02-06 01:49:08.645107+01 | 1486342148.64511 | 3/1AA8998                |           12912855448

 2017-02-06 01:49:09.719813+01 | 1486342149.71981 | 3/1AA8998                |           12912855448

 2017-02-06 01:49:10.806973+01 | 1486342150.80697 | 3/1AA8998                |           12912855448

 2017-02-06 01:49:11.88646+01 | 1486342151.88646 | 3/1AA8998                |           12912855448

 2017-02-06 01:49:12.962511+01 | 1486342152.96251 | 3/1AA8998                |           12912855448

 2017-02-06 01:49:14.04387+01 | 1486342154.04387 | 3/1AA8998                |           12912855448

 2017-02-06 01:49:15.135346+01 | 1486342155.13535 | 3/1AA8998                |           12912855448

 2017-02-06 01:49:16.209086+01 | 1486342156.20909 | 3/1AA8998                |           12912855448

 2017-02-06 01:49:17.288207+01 | 1486342157.28821 | 3/1AA8998                |           12912855448

 2017-02-06 01:49:18.367514+01 | 1486342158.36751 | 3/1AA8998                |           12912855448

 2017-02-06 01:49:19.448766+01 | 1486342159.44877 | 3/1AA8998                |           12912855448

 2017-02-06 01:49:20.537243+01 | 1486342160.53724 | 3/1AA8998                |           12912855448

 2017-02-06 01:49:21.627854+01 | 1486342161.62785 | 3/1AA8998                |           12912855448

 2017-02-06 01:49:22.710413+01 | 1486342162.71041 | 3/1AA8998                |           12912855448

 2017-02-06 01:49:23.790309+01 | 1486342163.79031 | 3/1AA8998                |           12912855448

 2017-02-06 01:49:24.874365+01 | 1486342164.87437 | 3/1AA8998                |           12912855448

 2017-02-06 01:49:25.95088+01 | 1486342165.95088 | 3/1AA8998                |           12912855448

 2017-02-06 01:49:27.035778+01 | 1486342167.03578 | 3/1AA8998                |           12912855448

 2017-02-06 01:49:28.120576+01 | 1486342168.12058 | 3/1AA8998                |           12912855448

 2017-02-06 01:49:29.193368+01 | 1486342169.19337 | 3/1AA8998                |           12912855448

 2017-02-06 01:49:30.282331+01 | 1486342170.28233 | 3/1AA8998                |           12912855448

 2017-02-06 01:49:31.361221+01 | 1486342171.36122 | 3/1AA8998                |           12912855448

 2017-02-06 01:49:32.434772+01 | 1486342172.43477 | 3/1AA8998                |           12912855448

 2017-02-06 01:49:33.51439+01 | 1486342173.51439 | 3/1AA8998                |           12912855448

 2017-02-06 01:49:34.595532+01 | 1486342174.59553 | 3/1AA8998                |           12912855448

 2017-02-06 01:49:35.672547+01 | 1486342175.67255 | 3/1AA8998                |           12912855448

 2017-02-06 01:49:36.747367+01 | 1486342176.74737 | 3/1AA8998                |           12912855448

 2017-02-06 01:49:37.821452+01 | 1486342177.82145 | 3/1AA8998                |           12912855448

 2017-02-06 01:49:38.903683+01 | 1486342178.90368 | 3/1AA8998                |           12912855448

 2017-02-06 01:49:39.983837+01 | 1486342179.98384 | 3/1AA8998                |           12912855448

 2017-02-06 01:49:41.057561+01 | 1486342181.05756 | 3/1AA8998                |           12912855448

 2017-02-06 01:49:42.136307+01 | 1486342182.13631 | 3/1AA8998                |           12912855448

 2017-02-06 01:49:43.211624+01 | 1486342183.21162 | 3/1AA8998                |           12912855448

 2017-02-06 01:49:44.2894+01 | 1486342184.2894 | 3/1AA8998                |           12912855448

 2017-02-06 01:49:45.36687+01 | 1486342185.36687 | 3/1AA8998                |           12912855448

 2017-02-06 01:49:46.455412+01 | 1486342186.45541 | 3/1AA8998                |           12912855448

 2017-02-06 01:49:47.531283+01 | 1486342187.53128 | 3/1AA8998                |           12912855448

 2017-02-06 01:49:48.606712+01 | 1486342188.60671 | 3/1AA8998                |           12912855448

 2017-02-06 01:49:49.686492+01 | 1486342189.68649 | 3/1AA8998                |           12912855448

 2017-02-06 01:49:50.75366+01 | 1486342190.75366 | 3/1AA8998                |           12912855448

 2017-02-06 01:49:51.837322+01 | 1486342191.83732 | 3/1AA8998                |           12912855448

 2017-02-06 01:49:52.92069+01 | 1486342192.92069 | 3/1AA8998                |           12912855448

 2017-02-06 01:49:54.001966+01 | 1486342194.00197 | 3/1AA8998                |           12912855448

 2017-02-06 01:49:55.074251+01 | 1486342195.07425 | 3/1AA8998                |           12912855448

 2017-02-06 01:49:56.146847+01 | 1486342196.14685 | 3/1AA8998                |           12912855448

 2017-02-06 01:49:57.223496+01 | 1486342197.2235 | 3/1AA8998                |           12912855448

 2017-02-06 01:49:58.30683+01 | 1486342198.30683 | 3/1AA8998                |           12912855448

 2017-02-06 01:49:59.391483+01 | 1486342199.39148 | 3/1AA8998                |           12912855448

 2017-02-06 01:50:00.467397+01 | 1486342200.4674 | 3/1AA8998                |           12912855448

 2017-02-06 01:50:01.541289+01 | 1486342201.54129 | 3/1AA8998                |           12912855448

 2017-02-06 01:50:02.613136+01 | 1486342202.61314 | 3/1AA8998                |           12912855448

 2017-02-06 01:50:03.697794+01 | 1486342203.69779 | 3/1AA8998                |           12912855448

 2017-02-06 01:50:04.789956+01 | 1486342204.78996 | 3/1AA8998                |           12912855448

 2017-02-06 01:50:05.869161+01 | 1486342205.86916 | 3/1AA8998                |           12912855448

 2017-02-06 01:50:06.941543+01 | 1486342206.94154 | 3/1AA8998                |           12912855448

 2017-02-06 01:50:08.015479+01 | 1486342208.01548 | 3/1AA8998                |           12912855448

 2017-02-06 01:50:09.090143+01 | 1486342209.09014 | 3/1AA8998                |           12912855448

 2017-02-06 01:50:10.178218+01 | 1486342210.17822 | 3/1AA8998                |           12912855448

 2017-02-06 01:50:11.265918+01 | 1486342211.26592 | 3/1AA8998                |           12912855448

 2017-02-06 01:50:12.356175+01 | 1486342212.35617 | 3/1AA8998                |           12912855448

 2017-02-06 01:50:13.436839+01 | 1486342213.43684 | 3/1AA8998                |           12912855448

 2017-02-06 01:50:14.510676+01 | 1486342214.51068 | 3/1AA8998                |           12912855448

 2017-02-06 01:50:15.586089+01 | 1486342215.58609 | 3/1AA8998                |           12912855448

 2017-02-06 01:50:16.66607+01 | 1486342216.66607 | 3/1AA8998                |           12912855448

 2017-02-06 01:50:17.74674+01 | 1486342217.74674 | 3/1AA8998                |           12912855448

 2017-02-06 01:50:18.830533+01 | 1486342218.83053 | 3/1AA8998                |           12912855448

 2017-02-06 01:50:19.905015+01 | 1486342219.90501 | 3/1AA8998                |           12912855448

 2017-02-06 01:50:20.984573+01 | 1486342220.98457 | 3/1AA8998                |           12912855448

 2017-02-06 01:50:22.064709+01 | 1486342222.06471 | 3/1AA8998                |           12912855448

 2017-02-06 01:50:23.140351+01 | 1486342223.14035 | 3/1AA8998                |           12912855448

 2017-02-06 01:50:24.223144+01 | 1486342224.22314 | 3/1AA8998                |           12912855448

 2017-02-06 01:50:25.306626+01 | 1486342225.30663 | 3/1AA8998                |           12912855448

 2017-02-06 01:50:26.393252+01 | 1486342226.39325 | 3/1AA8998                |           12912855448

 2017-02-06 01:50:27.466893+01 | 1486342227.46689 | 3/1AA8998                |           12912855448

 2017-02-06 01:50:28.546189+01 | 1486342228.54619 | 3/1AA8998                |           12912855448

 2017-02-06 01:50:29.618174+01 | 1486342229.61817 | 3/1AA8998                |           12912855448

 2017-02-06 01:50:30.694133+01 | 1486342230.69413 | 3/1AA8998                |           12912855448

 2017-02-06 01:50:31.767759+01 | 1486342231.76776 | 3/1AA8998                |           12912855448

 2017-02-06 01:50:32.843042+01 | 1486342232.84304 | 3/1AA8998                |           12912855448

 2017-02-06 01:50:33.924743+01 | 1486342233.92474 | 3/1AA8998                |           12912855448

 2017-02-06 01:50:35.000619+01 | 1486342235.00062 | 3/1AA8998                |           12912855448

 2017-02-06 01:50:36.084765+01 | 1486342236.08476 | 3/1AA8998                |           12912855448

 2017-02-06 01:50:37.168321+01 | 1486342237.16832 | 3/1AA8998                |           12912855448

 2017-02-06 01:50:38.245883+01 | 1486342238.24588 | 3/1AA8998                |           12912855448

 2017-02-06 01:50:39.333255+01 | 1486342239.33326 | 3/1AA8998                |           12912855448

 2017-02-06 01:50:40.409462+01 | 1486342240.40946 | 3/1AA8998                |           12912855448

 2017-02-06 01:50:41.491917+01 | 1486342241.49192 | 3/1AA8998                |           12912855448

 2017-02-06 01:50:42.567608+01 | 1486342242.56761 | 3/1AA8998                |           12912855448

 2017-02-06 01:50:43.655622+01 | 1486342243.65562 | 3/1AA8998                |           12912855448

 2017-02-06 01:50:44.737267+01 | 1486342244.73727 | 3/1AA8998                |           12912855448

 2017-02-06 01:50:45.810739+01 | 1486342245.81074 | 3/1AA8998                |           12912855448

 2017-02-06 01:50:46.891227+01 | 1486342246.89123 | 3/1AA8998                |           12912855448

 2017-02-06 01:50:47.971814+01 | 1486342247.97181 | 3/1AA8998                |           12912855448

 2017-02-06 01:50:49.053352+01 | 1486342249.05335 | 3/1AA8998                |           12912855448

 2017-02-06 01:50:50.127516+01 | 1486342250.12752 | 3/1AA8998                |           12912855448

 2017-02-06 01:50:51.193344+01 | 1486342251.19334 | 3/1AA8998                |           12912855448

 2017-02-06 01:50:52.2758+01 | 1486342252.2758 | 3/1AA8998                |           12912855448

 2017-02-06 01:50:53.356421+01 | 1486342253.35642 | 3/1AA8998                |           12912855448

 2017-02-06 01:50:54.433959+01 | 1486342254.43396 | 3/1AA8998                |           12912855448

 2017-02-06 01:50:55.514345+01 | 1486342255.51434 | 3/1AA8998                |           12912855448

 2017-02-06 01:50:56.591479+01 | 1486342256.59148 | 3/1AA8998                |           12912855448

 2017-02-06 01:50:57.670747+01 | 1486342257.67075 | 3/1AA8998                |           12912855448

 2017-02-06 01:50:58.742598+01 | 1486342258.7426 | 3/1AA8998                |           12912855448

 2017-02-06 01:50:59.82503+01 | 1486342259.82503 | 3/1AA8998                |           12912855448

 2017-02-06 01:51:00.901375+01 | 1486342260.90138 | 3/1AA8998                |           12912855448

 2017-02-06 01:51:01.979532+01 | 1486342261.97953 | 3/1AA8998                |           12912855448

 2017-02-06 01:51:03.062133+01 | 1486342263.06213 | 3/1AA8998                |           12912855448

 2017-02-06 01:51:04.151344+01 | 1486342264.15134 | 3/1AA8998                |           12912855448

 2017-02-06 01:51:05.235483+01 | 1486342265.23548 | 3/1AA8998                |           12912855448

 2017-02-06 01:51:06.314616+01 | 1486342266.31462 | 3/1AA8998                |           12912855448

 2017-02-06 01:51:07.401068+01 | 1486342267.40107 | 3/1AA8998                |           12912855448

 2017-02-06 01:51:08.471001+01 | 1486342268.471 | 3/1AA8998                |           12912855448

 2017-02-06 01:51:09.547247+01 | 1486342269.54725 | 3/1AA8998                |           12912855448

 2017-02-06 01:51:10.641701+01 | 1486342270.6417 | 3/1AA8998                |           12912855448

 2017-02-06 01:51:11.731965+01 | 1486342271.73197 | 3/1AA8998                |           12912855448

 2017-02-06 01:51:12.825536+01 | 1486342272.82554 | 3/1AA8998                |           12912855448

