 2017-02-05 14:51:32.421547+01 | 1486302692.42155 | pgbench_accounts |      13737844736
 2017-02-05 14:51:32.421547+01 | 1486302692.42155 | pgbench_tellers  |           450560
 2017-02-05 14:51:32.421547+01 | 1486302692.42155 | pgbench_history  |                0
 2017-02-05 14:51:32.421547+01 | 1486302692.42155 | pgbench_branches |            40960

 2017-02-05 14:51:33.512896+01 | 1486302693.5129 | pgbench_accounts |      13737885696
 2017-02-05 14:51:33.512896+01 | 1486302693.5129 | pgbench_tellers  |           450560
 2017-02-05 14:51:33.512896+01 | 1486302693.5129 | pgbench_history  |          4218880
 2017-02-05 14:51:33.512896+01 | 1486302693.5129 | pgbench_branches |            40960

 2017-02-05 14:51:34.604389+01 | 1486302694.60439 | pgbench_accounts |      13738139648
 2017-02-05 14:51:34.604389+01 | 1486302694.60439 | pgbench_tellers  |           450560
 2017-02-05 14:51:34.604389+01 | 1486302694.60439 | pgbench_history  |          4218880
 2017-02-05 14:51:34.604389+01 | 1486302694.60439 | pgbench_branches |            40960

 2017-02-05 14:51:35.686404+01 | 1486302695.6864 | pgbench_accounts |      13738369024
 2017-02-05 14:51:35.686404+01 | 1486302695.6864 | pgbench_tellers  |           450560
 2017-02-05 14:51:35.686404+01 | 1486302695.6864 | pgbench_history  |          7520256
 2017-02-05 14:51:35.686404+01 | 1486302695.6864 | pgbench_branches |            40960

 2017-02-05 14:51:36.781902+01 | 1486302696.7819 | pgbench_accounts |      13738369024
 2017-02-05 14:51:36.781902+01 | 1486302696.7819 | pgbench_tellers  |           450560
 2017-02-05 14:51:36.781902+01 | 1486302696.7819 | pgbench_history  |          9371648
 2017-02-05 14:51:36.781902+01 | 1486302696.7819 | pgbench_branches |            40960

 2017-02-05 14:51:37.866502+01 | 1486302697.8665 | pgbench_accounts |      13738680320
 2017-02-05 14:51:37.866502+01 | 1486302697.8665 | pgbench_tellers  |           450560
 2017-02-05 14:51:37.866502+01 | 1486302697.8665 | pgbench_history  |         13492224
 2017-02-05 14:51:37.866502+01 | 1486302697.8665 | pgbench_branches |            40960

 2017-02-05 14:51:38.949434+01 | 1486302698.94943 | pgbench_accounts |      13738680320
 2017-02-05 14:51:38.949434+01 | 1486302698.94943 | pgbench_tellers  |           450560
 2017-02-05 14:51:38.949434+01 | 1486302698.94943 | pgbench_history  |         15343616
 2017-02-05 14:51:38.949434+01 | 1486302698.94943 | pgbench_branches |            40960

 2017-02-05 14:51:40.031759+01 | 1486302700.03176 | pgbench_accounts |      13739032576
 2017-02-05 14:51:40.031759+01 | 1486302700.03176 | pgbench_tellers  |           450560
 2017-02-05 14:51:40.031759+01 | 1486302700.03176 | pgbench_history  |         18227200
 2017-02-05 14:51:40.031759+01 | 1486302700.03176 | pgbench_branches |            40960

 2017-02-05 14:51:41.112497+01 | 1486302701.1125 | pgbench_accounts |      13739032576
 2017-02-05 14:51:41.112497+01 | 1486302701.1125 | pgbench_tellers  |           450560
 2017-02-05 14:51:41.112497+01 | 1486302701.1125 | pgbench_history  |         20594688
 2017-02-05 14:51:41.112497+01 | 1486302701.1125 | pgbench_branches |            40960

 2017-02-05 14:51:42.196234+01 | 1486302702.19623 | pgbench_accounts |      13739032576
 2017-02-05 14:51:42.196234+01 | 1486302702.19623 | pgbench_tellers  |           450560
 2017-02-05 14:51:42.196234+01 | 1486302702.19623 | pgbench_history  |         23781376
 2017-02-05 14:51:42.196234+01 | 1486302702.19623 | pgbench_branches |            40960

 2017-02-05 14:51:43.281445+01 | 1486302703.28145 | pgbench_accounts |      13739507712
 2017-02-05 14:51:43.281445+01 | 1486302703.28145 | pgbench_tellers  |           450560
 2017-02-05 14:51:43.281445+01 | 1486302703.28145 | pgbench_history  |         27181056
 2017-02-05 14:51:43.281445+01 | 1486302703.28145 | pgbench_branches |            40960

 2017-02-05 14:51:44.363825+01 | 1486302704.36383 | pgbench_accounts |      13739507712
 2017-02-05 14:51:44.363825+01 | 1486302704.36383 | pgbench_tellers  |           450560
 2017-02-05 14:51:44.363825+01 | 1486302704.36383 | pgbench_history  |         30318592
 2017-02-05 14:51:44.363825+01 | 1486302704.36383 | pgbench_branches |            40960

 2017-02-05 14:51:45.443735+01 | 1486302705.44373 | pgbench_accounts |      13739507712
 2017-02-05 14:51:45.443735+01 | 1486302705.44373 | pgbench_tellers  |           450560
 2017-02-05 14:51:45.443735+01 | 1486302705.44373 | pgbench_history  |         33177600
 2017-02-05 14:51:45.443735+01 | 1486302705.44373 | pgbench_branches |            40960

 2017-02-05 14:51:46.522678+01 | 1486302706.52268 | pgbench_accounts |      13739704320
 2017-02-05 14:51:46.522678+01 | 1486302706.52268 | pgbench_tellers  |           450560
 2017-02-05 14:51:46.522678+01 | 1486302706.52268 | pgbench_history  |         36380672
 2017-02-05 14:51:46.522678+01 | 1486302706.52268 | pgbench_branches |            40960

 2017-02-05 14:51:47.609624+01 | 1486302707.60962 | pgbench_accounts |      13739704320
 2017-02-05 14:51:47.609624+01 | 1486302707.60962 | pgbench_tellers  |           450560
 2017-02-05 14:51:47.609624+01 | 1486302707.60962 | pgbench_history  |         39895040
 2017-02-05 14:51:47.609624+01 | 1486302707.60962 | pgbench_branches |            40960

 2017-02-05 14:51:48.696448+01 | 1486302708.69645 | pgbench_accounts |      13739966464
 2017-02-05 14:51:48.696448+01 | 1486302708.69645 | pgbench_tellers  |           450560
 2017-02-05 14:51:48.696448+01 | 1486302708.69645 | pgbench_history  |         42893312
 2017-02-05 14:51:48.696448+01 | 1486302708.69645 | pgbench_branches |            40960

 2017-02-05 14:51:49.785231+01 | 1486302709.78523 | pgbench_accounts |      13739966464
 2017-02-05 14:51:49.785231+01 | 1486302709.78523 | pgbench_tellers  |           450560
 2017-02-05 14:51:49.785231+01 | 1486302709.78523 | pgbench_history  |         46596096
 2017-02-05 14:51:49.785231+01 | 1486302709.78523 | pgbench_branches |            40960

 2017-02-05 14:51:50.874083+01 | 1486302710.87408 | pgbench_accounts |      13740277760
 2017-02-05 14:51:50.874083+01 | 1486302710.87408 | pgbench_tellers  |           450560
 2017-02-05 14:51:50.874083+01 | 1486302710.87408 | pgbench_history  |         50249728
 2017-02-05 14:51:50.874083+01 | 1486302710.87408 | pgbench_branches |            40960

 2017-02-05 14:51:51.958718+01 | 1486302711.95872 | pgbench_accounts |      13740277760
 2017-02-05 14:51:51.958718+01 | 1486302711.95872 | pgbench_tellers  |           450560
 2017-02-05 14:51:51.958718+01 | 1486302711.95872 | pgbench_history  |         53575680
 2017-02-05 14:51:51.958718+01 | 1486302711.95872 | pgbench_branches |            40960

 2017-02-05 14:51:53.050944+01 | 1486302713.05094 | pgbench_accounts |      13740711936
 2017-02-05 14:51:53.050944+01 | 1486302713.05094 | pgbench_tellers  |           450560
 2017-02-05 14:51:53.050944+01 | 1486302713.05094 | pgbench_history  |         58802176
 2017-02-05 14:51:53.050944+01 | 1486302713.05094 | pgbench_branches |            40960

 2017-02-05 14:51:54.138118+01 | 1486302714.13812 | pgbench_accounts |      13740744704
 2017-02-05 14:51:54.138118+01 | 1486302714.13812 | pgbench_tellers  |           450560
 2017-02-05 14:51:54.138118+01 | 1486302714.13812 | pgbench_history  |         59482112
 2017-02-05 14:51:54.138118+01 | 1486302714.13812 | pgbench_branches |            40960

 2017-02-05 14:51:55.222554+01 | 1486302715.22255 | pgbench_accounts |      13740818432
 2017-02-05 14:51:55.222554+01 | 1486302715.22255 | pgbench_tellers  |           450560
 2017-02-05 14:51:55.222554+01 | 1486302715.22255 | pgbench_history  |         63348736
 2017-02-05 14:51:55.222554+01 | 1486302715.22255 | pgbench_branches |            40960

 2017-02-05 14:51:56.310096+01 | 1486302716.3101 | pgbench_accounts |      13740867584
 2017-02-05 14:51:56.310096+01 | 1486302716.3101 | pgbench_tellers  |           450560
 2017-02-05 14:51:56.310096+01 | 1486302716.3101 | pgbench_history  |         66412544
 2017-02-05 14:51:56.310096+01 | 1486302716.3101 | pgbench_branches |            40960

 2017-02-05 14:51:57.394163+01 | 1486302717.39416 | pgbench_accounts |      13740941312
 2017-02-05 14:51:57.394163+01 | 1486302717.39416 | pgbench_tellers  |           450560
 2017-02-05 14:51:57.394163+01 | 1486302717.39416 | pgbench_history  |         70467584
 2017-02-05 14:51:57.394163+01 | 1486302717.39416 | pgbench_branches |            40960

 2017-02-05 14:51:58.473325+01 | 1486302718.47333 | pgbench_accounts |      13741219840
 2017-02-05 14:51:58.473325+01 | 1486302718.47333 | pgbench_tellers  |           450560
 2017-02-05 14:51:58.473325+01 | 1486302718.47333 | pgbench_history  |         73326592
 2017-02-05 14:51:58.473325+01 | 1486302718.47333 | pgbench_branches |            40960

 2017-02-05 14:51:59.550392+01 | 1486302719.55039 | pgbench_accounts |      13741359104
 2017-02-05 14:51:59.550392+01 | 1486302719.55039 | pgbench_tellers  |           450560
 2017-02-05 14:51:59.550392+01 | 1486302719.55039 | pgbench_history  |         77307904
 2017-02-05 14:51:59.550392+01 | 1486302719.55039 | pgbench_branches |            40960

 2017-02-05 14:52:00.633876+01 | 1486302720.63388 | pgbench_accounts |      13741457408
 2017-02-05 14:52:00.633876+01 | 1486302720.63388 | pgbench_tellers  |           450560
 2017-02-05 14:52:00.633876+01 | 1486302720.63388 | pgbench_history  |         81780736
 2017-02-05 14:52:00.633876+01 | 1486302720.63388 | pgbench_branches |            40960

 2017-02-05 14:52:01.721086+01 | 1486302721.72109 | pgbench_accounts |      13741514752
 2017-02-05 14:52:01.721086+01 | 1486302721.72109 | pgbench_tellers  |           450560
 2017-02-05 14:52:01.721086+01 | 1486302721.72109 | pgbench_history  |         84590592
 2017-02-05 14:52:01.721086+01 | 1486302721.72109 | pgbench_branches |            40960

 2017-02-05 14:52:02.817678+01 | 1486302722.81768 | pgbench_accounts |      13741555712
 2017-02-05 14:52:02.817678+01 | 1486302722.81768 | pgbench_tellers  |           450560
 2017-02-05 14:52:02.817678+01 | 1486302722.81768 | pgbench_history  |         87916544
 2017-02-05 14:52:02.817678+01 | 1486302722.81768 | pgbench_branches |            40960

 2017-02-05 14:52:03.901837+01 | 1486302723.90184 | pgbench_accounts |      13741686784
 2017-02-05 14:52:03.901837+01 | 1486302723.90184 | pgbench_tellers  |           450560
 2017-02-05 14:52:03.901837+01 | 1486302723.90184 | pgbench_history  |         90472448
 2017-02-05 14:52:03.901837+01 | 1486302723.90184 | pgbench_branches |            40960

 2017-02-05 14:52:04.989435+01 | 1486302724.98943 | pgbench_accounts |      13742039040
 2017-02-05 14:52:04.989435+01 | 1486302724.98943 | pgbench_tellers  |           450560
 2017-02-05 14:52:04.989435+01 | 1486302724.98943 | pgbench_history  |         93822976
 2017-02-05 14:52:04.989435+01 | 1486302724.98943 | pgbench_branches |            40960

 2017-02-05 14:52:06.077835+01 | 1486302726.07784 | pgbench_accounts |      13742129152
 2017-02-05 14:52:06.077835+01 | 1486302726.07784 | pgbench_tellers  |           450560
 2017-02-05 14:52:06.077835+01 | 1486302726.07784 | pgbench_history  |         98344960
 2017-02-05 14:52:06.077835+01 | 1486302726.07784 | pgbench_branches |            40960

 2017-02-05 14:52:07.161617+01 | 1486302727.16162 | pgbench_accounts |      13742202880
 2017-02-05 14:52:07.161617+01 | 1486302727.16162 | pgbench_tellers  |           450560
 2017-02-05 14:52:07.161617+01 | 1486302727.16162 | pgbench_history  |         99844096
 2017-02-05 14:52:07.161617+01 | 1486302727.16162 | pgbench_branches |            40960

 2017-02-05 14:52:08.25117+01 | 1486302728.25117 | pgbench_accounts |      13742292992
 2017-02-05 14:52:08.25117+01 | 1486302728.25117 | pgbench_tellers  |           450560
 2017-02-05 14:52:08.25117+01 | 1486302728.25117 | pgbench_history  |        103497728
 2017-02-05 14:52:08.25117+01 | 1486302728.25117 | pgbench_branches |            40960

 2017-02-05 14:52:09.337531+01 | 1486302729.33753 | pgbench_accounts |      13742481408
 2017-02-05 14:52:09.337531+01 | 1486302729.33753 | pgbench_tellers  |           450560
 2017-02-05 14:52:09.337531+01 | 1486302729.33753 | pgbench_history  |        107151360
 2017-02-05 14:52:09.337531+01 | 1486302729.33753 | pgbench_branches |            40960

 2017-02-05 14:52:10.430677+01 | 1486302730.43068 | pgbench_accounts |      13742596096
 2017-02-05 14:52:10.430677+01 | 1486302730.43068 | pgbench_tellers  |           450560
 2017-02-05 14:52:10.430677+01 | 1486302730.43068 | pgbench_history  |        114884608
 2017-02-05 14:52:10.430677+01 | 1486302730.43068 | pgbench_branches |            40960

 2017-02-05 14:52:11.512221+01 | 1486302731.51222 | pgbench_accounts |      13742702592
 2017-02-05 14:52:11.512221+01 | 1486302731.51222 | pgbench_tellers  |           450560
 2017-02-05 14:52:11.512221+01 | 1486302731.51222 | pgbench_history  |        114884608
 2017-02-05 14:52:11.512221+01 | 1486302731.51222 | pgbench_branches |            40960

 2017-02-05 14:52:12.592927+01 | 1486302732.59293 | pgbench_accounts |      13742809088
 2017-02-05 14:52:12.592927+01 | 1486302732.59293 | pgbench_tellers  |           450560
 2017-02-05 14:52:12.592927+01 | 1486302732.59293 | pgbench_history  |        118046720
 2017-02-05 14:52:12.592927+01 | 1486302732.59293 | pgbench_branches |            40960

 2017-02-05 14:52:13.686506+01 | 1486302733.68651 | pgbench_accounts |      13742882816
 2017-02-05 14:52:13.686506+01 | 1486302733.68651 | pgbench_tellers  |           450560
 2017-02-05 14:52:13.686506+01 | 1486302733.68651 | pgbench_history  |        123502592
 2017-02-05 14:52:13.686506+01 | 1486302733.68651 | pgbench_branches |            40960

 2017-02-05 14:52:14.770552+01 | 1486302734.77055 | pgbench_accounts |      13742972928
 2017-02-05 14:52:14.770552+01 | 1486302734.77055 | pgbench_tellers  |           450560
 2017-02-05 14:52:14.770552+01 | 1486302734.77055 | pgbench_history  |        125526016
 2017-02-05 14:52:14.770552+01 | 1486302734.77055 | pgbench_branches |            40960

 2017-02-05 14:52:15.866371+01 | 1486302735.86637 | pgbench_accounts |      13743128576
 2017-02-05 14:52:15.866371+01 | 1486302735.86637 | pgbench_tellers  |           450560
 2017-02-05 14:52:15.866371+01 | 1486302735.86637 | pgbench_history  |        129015808
 2017-02-05 14:52:15.866371+01 | 1486302735.86637 | pgbench_branches |            40960

 2017-02-05 14:52:16.956545+01 | 1486302736.95655 | pgbench_accounts |      13743251456
 2017-02-05 14:52:16.956545+01 | 1486302736.95655 | pgbench_tellers  |           450560
 2017-02-05 14:52:16.956545+01 | 1486302736.95655 | pgbench_history  |        133373952
 2017-02-05 14:52:16.956545+01 | 1486302736.95655 | pgbench_branches |            40960

 2017-02-05 14:52:18.037111+01 | 1486302738.03711 | pgbench_accounts |      13743382528
 2017-02-05 14:52:18.037111+01 | 1486302738.03711 | pgbench_tellers  |           450560
 2017-02-05 14:52:18.037111+01 | 1486302738.03711 | pgbench_history  |        137191424
 2017-02-05 14:52:18.037111+01 | 1486302738.03711 | pgbench_branches |            40960

 2017-02-05 14:52:19.121021+01 | 1486302739.12102 | pgbench_accounts |      13743464448
 2017-02-05 14:52:19.121021+01 | 1486302739.12102 | pgbench_tellers  |           450560
 2017-02-05 14:52:19.121021+01 | 1486302739.12102 | pgbench_history  |        139067392
 2017-02-05 14:52:19.121021+01 | 1486302739.12102 | pgbench_branches |            40960

 2017-02-05 14:52:20.218952+01 | 1486302740.21895 | pgbench_accounts |      13743529984
 2017-02-05 14:52:20.218952+01 | 1486302740.21895 | pgbench_tellers  |           450560
 2017-02-05 14:52:20.218952+01 | 1486302740.21895 | pgbench_history  |        143589376
 2017-02-05 14:52:20.218952+01 | 1486302740.21895 | pgbench_branches |            40960

 2017-02-05 14:52:21.30586+01 | 1486302741.30586 | pgbench_accounts |      13743677440
 2017-02-05 14:52:21.30586+01 | 1486302741.30586 | pgbench_tellers  |           450560
 2017-02-05 14:52:21.30586+01 | 1486302741.30586 | pgbench_history  |        146726912
 2017-02-05 14:52:21.30586+01 | 1486302741.30586 | pgbench_branches |            40960

 2017-02-05 14:52:22.388239+01 | 1486302742.38824 | pgbench_accounts |      13743734784
 2017-02-05 14:52:22.388239+01 | 1486302742.38824 | pgbench_tellers  |           450560
 2017-02-05 14:52:22.388239+01 | 1486302742.38824 | pgbench_history  |        150241280
 2017-02-05 14:52:22.388239+01 | 1486302742.38824 | pgbench_branches |            40960

 2017-02-05 14:52:23.47113+01 | 1486302743.47113 | pgbench_accounts |      13743923200
 2017-02-05 14:52:23.47113+01 | 1486302743.47113 | pgbench_tellers  |           450560
 2017-02-05 14:52:23.47113+01 | 1486302743.47113 | pgbench_history  |        154411008
 2017-02-05 14:52:23.47113+01 | 1486302743.47113 | pgbench_branches |            40960

 2017-02-05 14:52:24.550469+01 | 1486302744.55047 | pgbench_accounts |      13743988736
 2017-02-05 14:52:24.550469+01 | 1486302744.55047 | pgbench_tellers  |           450560
 2017-02-05 14:52:24.550469+01 | 1486302744.55047 | pgbench_history  |        157057024
 2017-02-05 14:52:24.550469+01 | 1486302744.55047 | pgbench_branches |            40960

 2017-02-05 14:52:25.637145+01 | 1486302745.63715 | pgbench_accounts |      13744062464
 2017-02-05 14:52:25.637145+01 | 1486302745.63715 | pgbench_tellers  |           450560
 2017-02-05 14:52:25.637145+01 | 1486302745.63715 | pgbench_history  |        161202176
 2017-02-05 14:52:25.637145+01 | 1486302745.63715 | pgbench_branches |            40960

 2017-02-05 14:52:26.73097+01 | 1486302746.73097 | pgbench_accounts |      13744160768
 2017-02-05 14:52:26.73097+01 | 1486302746.73097 | pgbench_tellers  |           450560
 2017-02-05 14:52:26.73097+01 | 1486302746.73097 | pgbench_history  |        163733504
 2017-02-05 14:52:26.73097+01 | 1486302746.73097 | pgbench_branches |            40960

 2017-02-05 14:52:27.824245+01 | 1486302747.82424 | pgbench_accounts |      13744308224
 2017-02-05 14:52:27.824245+01 | 1486302747.82424 | pgbench_tellers  |           450560
 2017-02-05 14:52:27.824245+01 | 1486302747.82424 | pgbench_history  |        167763968
 2017-02-05 14:52:27.824245+01 | 1486302747.82424 | pgbench_branches |            40960

 2017-02-05 14:52:28.917105+01 | 1486302748.9171 | pgbench_accounts |      13744447488
 2017-02-05 14:52:28.917105+01 | 1486302748.9171 | pgbench_tellers  |           450560
 2017-02-05 14:52:28.917105+01 | 1486302748.9171 | pgbench_history  |        171327488
 2017-02-05 14:52:28.917105+01 | 1486302748.9171 | pgbench_branches |            40960

 2017-02-05 14:52:30.011351+01 | 1486302750.01135 | pgbench_accounts |      13744570368
 2017-02-05 14:52:30.011351+01 | 1486302750.01135 | pgbench_tellers  |           450560
 2017-02-05 14:52:30.011351+01 | 1486302750.01135 | pgbench_history  |        177913856
 2017-02-05 14:52:30.011351+01 | 1486302750.01135 | pgbench_branches |            40960

 2017-02-05 14:52:31.097735+01 | 1486302751.09773 | pgbench_accounts |      13744652288
 2017-02-05 14:52:31.097735+01 | 1486302751.09773 | pgbench_tellers  |           450560
 2017-02-05 14:52:31.097735+01 | 1486302751.09773 | pgbench_history  |        181051392
 2017-02-05 14:52:31.097735+01 | 1486302751.09773 | pgbench_branches |            40960

 2017-02-05 14:52:32.188813+01 | 1486302752.18881 | pgbench_accounts |      13744701440
 2017-02-05 14:52:32.188813+01 | 1486302752.18881 | pgbench_tellers  |           450560
 2017-02-05 14:52:32.188813+01 | 1486302752.18881 | pgbench_history  |        181051392
 2017-02-05 14:52:32.188813+01 | 1486302752.18881 | pgbench_branches |            40960

 2017-02-05 14:52:33.272546+01 | 1486302753.27255 | pgbench_accounts |      13744766976
 2017-02-05 14:52:33.272546+01 | 1486302753.27255 | pgbench_tellers  |           450560
 2017-02-05 14:52:33.272546+01 | 1486302753.27255 | pgbench_history  |        185196544
 2017-02-05 14:52:33.272546+01 | 1486302753.27255 | pgbench_branches |            40960

 2017-02-05 14:52:34.363097+01 | 1486302754.3631 | pgbench_accounts |      13744906240
 2017-02-05 14:52:34.363097+01 | 1486302754.3631 | pgbench_tellers  |           450560
 2017-02-05 14:52:34.363097+01 | 1486302754.3631 | pgbench_history  |        188366848
 2017-02-05 14:52:34.363097+01 | 1486302754.3631 | pgbench_branches |            40960

 2017-02-05 14:52:35.442741+01 | 1486302755.44274 | pgbench_accounts |      13745037312
 2017-02-05 14:52:35.442741+01 | 1486302755.44274 | pgbench_tellers  |           450560
 2017-02-05 14:52:35.442741+01 | 1486302755.44274 | pgbench_history  |        191905792
 2017-02-05 14:52:35.442741+01 | 1486302755.44274 | pgbench_branches |            40960

 2017-02-05 14:52:36.527913+01 | 1486302756.52791 | pgbench_accounts |      13745127424
 2017-02-05 14:52:36.527913+01 | 1486302756.52791 | pgbench_tellers  |           450560
 2017-02-05 14:52:36.527913+01 | 1486302756.52791 | pgbench_history  |        195371008
 2017-02-05 14:52:36.527913+01 | 1486302756.52791 | pgbench_branches |            40960

 2017-02-05 14:52:37.609554+01 | 1486302757.60955 | pgbench_accounts |      13745242112
 2017-02-05 14:52:37.609554+01 | 1486302757.60955 | pgbench_tellers  |           450560
 2017-02-05 14:52:37.609554+01 | 1486302757.60955 | pgbench_history  |        198860800
 2017-02-05 14:52:37.609554+01 | 1486302757.60955 | pgbench_branches |            40960

 2017-02-05 14:52:38.689005+01 | 1486302758.689 | pgbench_accounts |      13745307648
 2017-02-05 14:52:38.689005+01 | 1486302758.689 | pgbench_tellers  |           450560
 2017-02-05 14:52:38.689005+01 | 1486302758.689 | pgbench_history  |        202375168
 2017-02-05 14:52:38.689005+01 | 1486302758.689 | pgbench_branches |            40960

 2017-02-05 14:52:39.784348+01 | 1486302759.78435 | pgbench_accounts |      13745364992
 2017-02-05 14:52:39.784348+01 | 1486302759.78435 | pgbench_tellers  |           450560
 2017-02-05 14:52:39.784348+01 | 1486302759.78435 | pgbench_history  |        206594048
 2017-02-05 14:52:39.784348+01 | 1486302759.78435 | pgbench_branches |            40960

 2017-02-05 14:52:40.870974+01 | 1486302760.87097 | pgbench_accounts |      13745496064
 2017-02-05 14:52:40.870974+01 | 1486302760.87097 | pgbench_tellers  |           450560
 2017-02-05 14:52:40.870974+01 | 1486302760.87097 | pgbench_history  |        208445440
 2017-02-05 14:52:40.870974+01 | 1486302760.87097 | pgbench_branches |            40960

 2017-02-05 14:52:41.959048+01 | 1486302761.95905 | pgbench_accounts |      13745553408
 2017-02-05 14:52:41.959048+01 | 1486302761.95905 | pgbench_tellers  |           450560
 2017-02-05 14:52:41.959048+01 | 1486302761.95905 | pgbench_history  |        212664320
 2017-02-05 14:52:41.959048+01 | 1486302761.95905 | pgbench_branches |            40960

 2017-02-05 14:52:43.045257+01 | 1486302763.04526 | pgbench_accounts |      13745651712
 2017-02-05 14:52:43.045257+01 | 1486302763.04526 | pgbench_tellers  |           450560
 2017-02-05 14:52:43.045257+01 | 1486302763.04526 | pgbench_history  |        215171072
 2017-02-05 14:52:43.045257+01 | 1486302763.04526 | pgbench_branches |            40960

 2017-02-05 14:52:44.132174+01 | 1486302764.13217 | pgbench_accounts |      13745750016
 2017-02-05 14:52:44.132174+01 | 1486302764.13217 | pgbench_tellers  |           450560
 2017-02-05 14:52:44.132174+01 | 1486302764.13217 | pgbench_history  |        219480064
 2017-02-05 14:52:44.132174+01 | 1486302764.13217 | pgbench_branches |            40960

 2017-02-05 14:52:45.211633+01 | 1486302765.21163 | pgbench_accounts |      13745856512
 2017-02-05 14:52:45.211633+01 | 1486302765.21163 | pgbench_tellers  |           450560
 2017-02-05 14:52:45.211633+01 | 1486302765.21163 | pgbench_history  |        221306880
 2017-02-05 14:52:45.211633+01 | 1486302765.21163 | pgbench_branches |            40960

 2017-02-05 14:52:46.291162+01 | 1486302766.29116 | pgbench_accounts |      13745930240
 2017-02-05 14:52:46.291162+01 | 1486302766.29116 | pgbench_tellers  |           450560
 2017-02-05 14:52:46.291162+01 | 1486302766.29116 | pgbench_history  |        225476608
 2017-02-05 14:52:46.291162+01 | 1486302766.29116 | pgbench_branches |            40960

 2017-02-05 14:52:47.382839+01 | 1486302767.38284 | pgbench_accounts |      13746012160
 2017-02-05 14:52:47.382839+01 | 1486302767.38284 | pgbench_tellers  |           450560
 2017-02-05 14:52:47.382839+01 | 1486302767.38284 | pgbench_history  |        228614144
 2017-02-05 14:52:47.382839+01 | 1486302767.38284 | pgbench_branches |            40960

 2017-02-05 14:52:48.462335+01 | 1486302768.46234 | pgbench_accounts |      13746102272
 2017-02-05 14:52:48.462335+01 | 1486302768.46234 | pgbench_tellers  |           450560
 2017-02-05 14:52:48.462335+01 | 1486302768.46234 | pgbench_history  |        232079360
 2017-02-05 14:52:48.462335+01 | 1486302768.46234 | pgbench_branches |            40960

 2017-02-05 14:52:49.547494+01 | 1486302769.54749 | pgbench_accounts |      13746249728
 2017-02-05 14:52:49.547494+01 | 1486302769.54749 | pgbench_tellers  |           450560
 2017-02-05 14:52:49.547494+01 | 1486302769.54749 | pgbench_history  |        236969984
 2017-02-05 14:52:49.547494+01 | 1486302769.54749 | pgbench_branches |            40960

 2017-02-05 14:52:50.631291+01 | 1486302770.63129 | pgbench_accounts |      13746315264
 2017-02-05 14:52:50.631291+01 | 1486302770.63129 | pgbench_tellers  |           450560
 2017-02-05 14:52:50.631291+01 | 1486302770.63129 | pgbench_history  |        239616000
 2017-02-05 14:52:50.631291+01 | 1486302770.63129 | pgbench_branches |            40960

 2017-02-05 14:52:51.7124+01 | 1486302771.7124 | pgbench_accounts |      13746429952
 2017-02-05 14:52:51.7124+01 | 1486302771.7124 | pgbench_tellers  |           450560
 2017-02-05 14:52:51.7124+01 | 1486302771.7124 | pgbench_history  |        244768768
 2017-02-05 14:52:51.7124+01 | 1486302771.7124 | pgbench_branches |            40960

 2017-02-05 14:52:52.80674+01 | 1486302772.80674 | pgbench_accounts |      13746528256
 2017-02-05 14:52:52.80674+01 | 1486302772.80674 | pgbench_tellers  |           450560
 2017-02-05 14:52:52.80674+01 | 1486302772.80674 | pgbench_history  |        247930880
 2017-02-05 14:52:52.80674+01 | 1486302772.80674 | pgbench_branches |            40960

 2017-02-05 14:52:53.89227+01 | 1486302773.89227 | pgbench_accounts |      13746659328
 2017-02-05 14:52:53.89227+01 | 1486302773.89227 | pgbench_tellers  |           450560
 2017-02-05 14:52:53.89227+01 | 1486302773.89227 | pgbench_history  |        253059072
 2017-02-05 14:52:53.89227+01 | 1486302773.89227 | pgbench_branches |            40960

 2017-02-05 14:52:54.979522+01 | 1486302774.97952 | pgbench_accounts |      13746708480
 2017-02-05 14:52:54.979522+01 | 1486302774.97952 | pgbench_tellers  |           450560
 2017-02-05 14:52:54.979522+01 | 1486302774.97952 | pgbench_history  |        254230528
 2017-02-05 14:52:54.979522+01 | 1486302774.97952 | pgbench_branches |            40960

 2017-02-05 14:52:56.07508+01 | 1486302776.07508 | pgbench_accounts |      13746814976
 2017-02-05 14:52:56.07508+01 | 1486302776.07508 | pgbench_tellers  |           450560
 2017-02-05 14:52:56.07508+01 | 1486302776.07508 | pgbench_history  |        257744896
 2017-02-05 14:52:56.07508+01 | 1486302776.07508 | pgbench_branches |            40960

 2017-02-05 14:52:57.168539+01 | 1486302777.16854 | pgbench_accounts |      13746905088
 2017-02-05 14:52:57.168539+01 | 1486302777.16854 | pgbench_tellers  |           450560
 2017-02-05 14:52:57.168539+01 | 1486302777.16854 | pgbench_history  |        261259264
 2017-02-05 14:52:57.168539+01 | 1486302777.16854 | pgbench_branches |            40960

 2017-02-05 14:52:58.255633+01 | 1486302778.25563 | pgbench_accounts |      13746987008
 2017-02-05 14:52:58.255633+01 | 1486302778.25563 | pgbench_tellers  |           450560
 2017-02-05 14:52:58.255633+01 | 1486302778.25563 | pgbench_history  |        265953280
 2017-02-05 14:52:58.255633+01 | 1486302778.25563 | pgbench_branches |            40960

 2017-02-05 14:52:59.347158+01 | 1486302779.34716 | pgbench_accounts |      13747109888
 2017-02-05 14:52:59.347158+01 | 1486302779.34716 | pgbench_tellers  |           450560
 2017-02-05 14:52:59.347158+01 | 1486302779.34716 | pgbench_history  |        268648448
 2017-02-05 14:52:59.347158+01 | 1486302779.34716 | pgbench_branches |            40960

 2017-02-05 14:53:00.429374+01 | 1486302780.42937 | pgbench_accounts |      13747208192
 2017-02-05 14:53:00.429374+01 | 1486302780.42937 | pgbench_tellers  |           450560
 2017-02-05 14:53:00.429374+01 | 1486302780.42937 | pgbench_history  |        272490496
 2017-02-05 14:53:00.429374+01 | 1486302780.42937 | pgbench_branches |            40960

 2017-02-05 14:53:01.50851+01 | 1486302781.50851 | pgbench_accounts |      13747306496
 2017-02-05 14:53:01.50851+01 | 1486302781.50851 | pgbench_tellers  |           450560
 2017-02-05 14:53:01.50851+01 | 1486302781.50851 | pgbench_history  |        277864448
 2017-02-05 14:53:01.50851+01 | 1486302781.50851 | pgbench_branches |            40960

 2017-02-05 14:53:02.590877+01 | 1486302782.59088 | pgbench_accounts |      13747404800
 2017-02-05 14:53:02.590877+01 | 1486302782.59088 | pgbench_tellers  |           450560
 2017-02-05 14:53:02.590877+01 | 1486302782.59088 | pgbench_history  |        280723456
 2017-02-05 14:53:02.590877+01 | 1486302782.59088 | pgbench_branches |            40960

 2017-02-05 14:53:03.673482+01 | 1486302783.67348 | pgbench_accounts |      13747486720
 2017-02-05 14:53:03.673482+01 | 1486302783.67348 | pgbench_tellers  |           450560
 2017-02-05 14:53:03.673482+01 | 1486302783.67348 | pgbench_history  |        286113792
 2017-02-05 14:53:03.673482+01 | 1486302783.67348 | pgbench_branches |            40960

 2017-02-05 14:53:04.754564+01 | 1486302784.75456 | pgbench_accounts |      13747699712
 2017-02-05 14:53:04.754564+01 | 1486302784.75456 | pgbench_tellers  |           450560
 2017-02-05 14:53:04.754564+01 | 1486302784.75456 | pgbench_history  |        288759808
 2017-02-05 14:53:04.754564+01 | 1486302784.75456 | pgbench_branches |            40960

 2017-02-05 14:53:05.837529+01 | 1486302785.83753 | pgbench_accounts |      13748142080
 2017-02-05 14:53:05.837529+01 | 1486302785.83753 | pgbench_tellers  |           450560
 2017-02-05 14:53:05.837529+01 | 1486302785.83753 | pgbench_history  |        290799616
 2017-02-05 14:53:05.837529+01 | 1486302785.83753 | pgbench_branches |            40960

 2017-02-05 14:53:06.92392+01 | 1486302786.92392 | pgbench_accounts |      13748625408
 2017-02-05 14:53:06.92392+01 | 1486302786.92392 | pgbench_tellers  |           450560
 2017-02-05 14:53:06.92392+01 | 1486302786.92392 | pgbench_history  |        295157760
 2017-02-05 14:53:06.92392+01 | 1486302786.92392 | pgbench_branches |            40960

 2017-02-05 14:53:08.00685+01 | 1486302788.00685 | pgbench_accounts |      13748682752
 2017-02-05 14:53:08.00685+01 | 1486302788.00685 | pgbench_tellers  |           450560
 2017-02-05 14:53:08.00685+01 | 1486302788.00685 | pgbench_history  |        299024384
 2017-02-05 14:53:08.00685+01 | 1486302788.00685 | pgbench_branches |            40960

 2017-02-05 14:53:09.09627+01 | 1486302789.09627 | pgbench_accounts |      13748797440
 2017-02-05 14:53:09.09627+01 | 1486302789.09627 | pgbench_tellers  |           450560
 2017-02-05 14:53:09.09627+01 | 1486302789.09627 | pgbench_history  |        302211072
 2017-02-05 14:53:09.09627+01 | 1486302789.09627 | pgbench_branches |            40960

 2017-02-05 14:53:10.186084+01 | 1486302790.18608 | pgbench_accounts |      13748887552
 2017-02-05 14:53:10.186084+01 | 1486302790.18608 | pgbench_tellers  |           450560
 2017-02-05 14:53:10.186084+01 | 1486302790.18608 | pgbench_history  |        305864704
 2017-02-05 14:53:10.186084+01 | 1486302790.18608 | pgbench_branches |            40960

 2017-02-05 14:53:11.276796+01 | 1486302791.2768 | pgbench_accounts |      13749002240
 2017-02-05 14:53:11.276796+01 | 1486302791.2768 | pgbench_tellers  |           450560
 2017-02-05 14:53:11.276796+01 | 1486302791.2768 | pgbench_history  |        312238080
 2017-02-05 14:53:11.276796+01 | 1486302791.2768 | pgbench_branches |            40960

 2017-02-05 14:53:12.364187+01 | 1486302792.36419 | pgbench_accounts |      13749100544
 2017-02-05 14:53:12.364187+01 | 1486302792.36419 | pgbench_tellers  |           450560
 2017-02-05 14:53:12.364187+01 | 1486302792.36419 | pgbench_history  |        313925632
 2017-02-05 14:53:12.364187+01 | 1486302792.36419 | pgbench_branches |            40960

 2017-02-05 14:53:13.455369+01 | 1486302793.45537 | pgbench_accounts |      13749174272
 2017-02-05 14:53:13.455369+01 | 1486302793.45537 | pgbench_tellers  |           450560
 2017-02-05 14:53:13.455369+01 | 1486302793.45537 | pgbench_history  |        316784640
 2017-02-05 14:53:13.455369+01 | 1486302793.45537 | pgbench_branches |            40960

 2017-02-05 14:53:14.539035+01 | 1486302794.53904 | pgbench_accounts |      13749264384
 2017-02-05 14:53:14.539035+01 | 1486302794.53904 | pgbench_tellers  |           450560
 2017-02-05 14:53:14.539035+01 | 1486302794.53904 | pgbench_history  |        320462848
 2017-02-05 14:53:14.539035+01 | 1486302794.53904 | pgbench_branches |            40960

 2017-02-05 14:53:15.618328+01 | 1486302795.61833 | pgbench_accounts |      13749362688
 2017-02-05 14:53:15.618328+01 | 1486302795.61833 | pgbench_tellers  |           450560
 2017-02-05 14:53:15.618328+01 | 1486302795.61833 | pgbench_history  |        324329472
 2017-02-05 14:53:15.618328+01 | 1486302795.61833 | pgbench_branches |            40960

 2017-02-05 14:53:16.708267+01 | 1486302796.70827 | pgbench_accounts |      13749469184
 2017-02-05 14:53:16.708267+01 | 1486302796.70827 | pgbench_tellers  |           450560
 2017-02-05 14:53:16.708267+01 | 1486302796.70827 | pgbench_history  |        330137600
 2017-02-05 14:53:16.708267+01 | 1486302796.70827 | pgbench_branches |            40960

 2017-02-05 14:53:17.804158+01 | 1486302797.80416 | pgbench_accounts |      13749534720
 2017-02-05 14:53:17.804158+01 | 1486302797.80416 | pgbench_tellers  |           450560
 2017-02-05 14:53:17.804158+01 | 1486302797.80416 | pgbench_history  |        332062720
 2017-02-05 14:53:17.804158+01 | 1486302797.80416 | pgbench_branches |            40960

 2017-02-05 14:53:18.889038+01 | 1486302798.88904 | pgbench_accounts |      13749649408
 2017-02-05 14:53:18.889038+01 | 1486302798.88904 | pgbench_tellers  |           450560
 2017-02-05 14:53:18.889038+01 | 1486302798.88904 | pgbench_history  |        334946304
 2017-02-05 14:53:18.889038+01 | 1486302798.88904 | pgbench_branches |            40960

 2017-02-05 14:53:19.97566+01 | 1486302799.97566 | pgbench_accounts |      13749731328
 2017-02-05 14:53:19.97566+01 | 1486302799.97566 | pgbench_tellers  |           450560
 2017-02-05 14:53:19.97566+01 | 1486302799.97566 | pgbench_history  |        338984960
 2017-02-05 14:53:19.97566+01 | 1486302799.97566 | pgbench_branches |            40960

 2017-02-05 14:53:21.059251+01 | 1486302801.05925 | pgbench_accounts |      13749805056
 2017-02-05 14:53:21.059251+01 | 1486302801.05925 | pgbench_tellers  |           450560
 2017-02-05 14:53:21.059251+01 | 1486302801.05925 | pgbench_history  |        342827008
 2017-02-05 14:53:21.059251+01 | 1486302801.05925 | pgbench_branches |            40960

 2017-02-05 14:53:22.145752+01 | 1486302802.14575 | pgbench_accounts |      13749878784
 2017-02-05 14:53:22.145752+01 | 1486302802.14575 | pgbench_tellers  |           450560
 2017-02-05 14:53:22.145752+01 | 1486302802.14575 | pgbench_history  |        346521600
 2017-02-05 14:53:22.145752+01 | 1486302802.14575 | pgbench_branches |            40960

 2017-02-05 14:53:23.231299+01 | 1486302803.2313 | pgbench_accounts |      13749960704
 2017-02-05 14:53:23.231299+01 | 1486302803.2313 | pgbench_tellers  |           450560
 2017-02-05 14:53:23.231299+01 | 1486302803.2313 | pgbench_history  |        350363648
 2017-02-05 14:53:23.231299+01 | 1486302803.2313 | pgbench_branches |            40960

 2017-02-05 14:53:24.320593+01 | 1486302804.32059 | pgbench_accounts |      13750034432
 2017-02-05 14:53:24.320593+01 | 1486302804.32059 | pgbench_tellers  |           450560
 2017-02-05 14:53:24.320593+01 | 1486302804.32059 | pgbench_history  |        355426304
 2017-02-05 14:53:24.320593+01 | 1486302804.32059 | pgbench_branches |            40960

 2017-02-05 14:53:25.417818+01 | 1486302805.41782 | pgbench_accounts |      13750149120
 2017-02-05 14:53:25.417818+01 | 1486302805.41782 | pgbench_tellers  |           450560
 2017-02-05 14:53:25.417818+01 | 1486302805.41782 | pgbench_history  |        359120896
 2017-02-05 14:53:25.417818+01 | 1486302805.41782 | pgbench_branches |            40960

 2017-02-05 14:53:26.50307+01 | 1486302806.50307 | pgbench_accounts |      13750255616
 2017-02-05 14:53:26.50307+01 | 1486302806.50307 | pgbench_tellers  |           450560
 2017-02-05 14:53:26.50307+01 | 1486302806.50307 | pgbench_history  |        361488384
 2017-02-05 14:53:26.50307+01 | 1486302806.50307 | pgbench_branches |            40960

 2017-02-05 14:53:27.586785+01 | 1486302807.58679 | pgbench_accounts |      13750329344
 2017-02-05 14:53:27.586785+01 | 1486302807.58679 | pgbench_tellers  |           450560
 2017-02-05 14:53:27.586785+01 | 1486302807.58679 | pgbench_history  |        364347392
 2017-02-05 14:53:27.586785+01 | 1486302807.58679 | pgbench_branches |            40960

 2017-02-05 14:53:28.671355+01 | 1486302808.67136 | pgbench_accounts |      13750394880
 2017-02-05 14:53:28.671355+01 | 1486302808.67136 | pgbench_tellers  |           450560
 2017-02-05 14:53:28.671355+01 | 1486302808.67136 | pgbench_history  |        368680960
 2017-02-05 14:53:28.671355+01 | 1486302808.67136 | pgbench_branches |            40960

 2017-02-05 14:53:29.75017+01 | 1486302809.75017 | pgbench_accounts |      13750460416
 2017-02-05 14:53:29.75017+01 | 1486302809.75017 | pgbench_tellers  |           450560
 2017-02-05 14:53:29.75017+01 | 1486302809.75017 | pgbench_history  |        372391936
 2017-02-05 14:53:29.75017+01 | 1486302809.75017 | pgbench_branches |            40960

 2017-02-05 14:53:30.831267+01 | 1486302810.83127 | pgbench_accounts |      13750542336
 2017-02-05 14:53:30.831267+01 | 1486302810.83127 | pgbench_tellers  |           450560
 2017-02-05 14:53:30.831267+01 | 1486302810.83127 | pgbench_history  |        374784000
 2017-02-05 14:53:30.831267+01 | 1486302810.83127 | pgbench_branches |            40960

 2017-02-05 14:53:31.921178+01 | 1486302811.92118 | pgbench_accounts |      13750624256
 2017-02-05 14:53:31.921178+01 | 1486302811.92118 | pgbench_tellers  |           450560
 2017-02-05 14:53:31.921178+01 | 1486302811.92118 | pgbench_history  |        378978304
 2017-02-05 14:53:31.921178+01 | 1486302811.92118 | pgbench_branches |            40960

 2017-02-05 14:53:33.007089+01 | 1486302813.00709 | pgbench_accounts |      13750755328
 2017-02-05 14:53:33.007089+01 | 1486302813.00709 | pgbench_tellers  |           450560
 2017-02-05 14:53:33.007089+01 | 1486302813.00709 | pgbench_history  |        384131072
 2017-02-05 14:53:33.007089+01 | 1486302813.00709 | pgbench_branches |            40960

 2017-02-05 14:53:34.092879+01 | 1486302814.09288 | pgbench_accounts |      13750845440
 2017-02-05 14:53:34.092879+01 | 1486302814.09288 | pgbench_tellers  |           450560
 2017-02-05 14:53:34.092879+01 | 1486302814.09288 | pgbench_history  |        386334720
 2017-02-05 14:53:34.092879+01 | 1486302814.09288 | pgbench_branches |            40960

 2017-02-05 14:53:35.180816+01 | 1486302815.18082 | pgbench_accounts |      13750919168
 2017-02-05 14:53:35.180816+01 | 1486302815.18082 | pgbench_tellers  |           450560
 2017-02-05 14:53:35.180816+01 | 1486302815.18082 | pgbench_history  |        391020544
 2017-02-05 14:53:35.180816+01 | 1486302815.18082 | pgbench_branches |            40960

 2017-02-05 14:53:36.264019+01 | 1486302816.26402 | pgbench_accounts |      13750984704
 2017-02-05 14:53:36.264019+01 | 1486302816.26402 | pgbench_tellers  |           450560
 2017-02-05 14:53:36.264019+01 | 1486302816.26402 | pgbench_history  |        393199616
 2017-02-05 14:53:36.264019+01 | 1486302816.26402 | pgbench_branches |            40960

 2017-02-05 14:53:37.355417+01 | 1486302817.35542 | pgbench_accounts |      13751083008
 2017-02-05 14:53:37.355417+01 | 1486302817.35542 | pgbench_tellers  |           450560
 2017-02-05 14:53:37.355417+01 | 1486302817.35542 | pgbench_history  |        397484032
 2017-02-05 14:53:37.355417+01 | 1486302817.35542 | pgbench_branches |            40960

 2017-02-05 14:53:38.43858+01 | 1486302818.43858 | pgbench_accounts |      13751173120
 2017-02-05 14:53:38.43858+01 | 1486302818.43858 | pgbench_tellers  |           450560
 2017-02-05 14:53:38.43858+01 | 1486302818.43858 | pgbench_history  |        400867328
 2017-02-05 14:53:38.43858+01 | 1486302818.43858 | pgbench_branches |            40960

 2017-02-05 14:53:39.523815+01 | 1486302819.52381 | pgbench_accounts |      13751255040
 2017-02-05 14:53:39.523815+01 | 1486302819.52381 | pgbench_tellers  |           450560
 2017-02-05 14:53:39.523815+01 | 1486302819.52381 | pgbench_history  |        407109632
 2017-02-05 14:53:39.523815+01 | 1486302819.52381 | pgbench_branches |            40960

 2017-02-05 14:53:40.602279+01 | 1486302820.60228 | pgbench_accounts |      13751296000
 2017-02-05 14:53:40.602279+01 | 1486302820.60228 | pgbench_tellers  |           450560
 2017-02-05 14:53:40.602279+01 | 1486302820.60228 | pgbench_history  |        408281088
 2017-02-05 14:53:40.602279+01 | 1486302820.60228 | pgbench_branches |            40960

 2017-02-05 14:53:41.682133+01 | 1486302821.68213 | pgbench_accounts |      13751353344
 2017-02-05 14:53:41.682133+01 | 1486302821.68213 | pgbench_tellers  |           450560
 2017-02-05 14:53:41.682133+01 | 1486302821.68213 | pgbench_history  |        412123136
 2017-02-05 14:53:41.682133+01 | 1486302821.68213 | pgbench_branches |            40960

 2017-02-05 14:53:42.764781+01 | 1486302822.76478 | pgbench_accounts |      13751484416
 2017-02-05 14:53:42.764781+01 | 1486302822.76478 | pgbench_tellers  |           450560
 2017-02-05 14:53:42.764781+01 | 1486302822.76478 | pgbench_history  |        415121408
 2017-02-05 14:53:42.764781+01 | 1486302822.76478 | pgbench_branches |            40960

 2017-02-05 14:53:43.844421+01 | 1486302823.84442 | pgbench_accounts |      13751574528
 2017-02-05 14:53:43.844421+01 | 1486302823.84442 | pgbench_tellers  |           450560
 2017-02-05 14:53:43.844421+01 | 1486302823.84442 | pgbench_history  |        421281792
 2017-02-05 14:53:43.844421+01 | 1486302823.84442 | pgbench_branches |            40960

 2017-02-05 14:53:44.927881+01 | 1486302824.92788 | pgbench_accounts |      13751664640
 2017-02-05 14:53:44.927881+01 | 1486302824.92788 | pgbench_tellers  |           450560
 2017-02-05 14:53:44.927881+01 | 1486302824.92788 | pgbench_history  |        422641664
 2017-02-05 14:53:44.927881+01 | 1486302824.92788 | pgbench_branches |            40960

 2017-02-05 14:53:46.013149+01 | 1486302826.01315 | pgbench_accounts |      13751730176
 2017-02-05 14:53:46.013149+01 | 1486302826.01315 | pgbench_tellers  |           450560
 2017-02-05 14:53:46.013149+01 | 1486302826.01315 | pgbench_history  |        427540480
 2017-02-05 14:53:46.013149+01 | 1486302826.01315 | pgbench_branches |            40960

 2017-02-05 14:53:47.103342+01 | 1486302827.10334 | pgbench_accounts |      13751812096
 2017-02-05 14:53:47.103342+01 | 1486302827.10334 | pgbench_tellers  |           450560
 2017-02-05 14:53:47.103342+01 | 1486302827.10334 | pgbench_history  |        429744128
 2017-02-05 14:53:47.103342+01 | 1486302827.10334 | pgbench_branches |            40960

 2017-02-05 14:53:48.192948+01 | 1486302828.19295 | pgbench_accounts |      13751869440
 2017-02-05 14:53:48.192948+01 | 1486302828.19295 | pgbench_tellers  |           450560
 2017-02-05 14:53:48.192948+01 | 1486302828.19295 | pgbench_history  |        433635328
 2017-02-05 14:53:48.192948+01 | 1486302828.19295 | pgbench_branches |            40960

 2017-02-05 14:53:49.282957+01 | 1486302829.28296 | pgbench_accounts |      13751943168
 2017-02-05 14:53:49.282957+01 | 1486302829.28296 | pgbench_tellers  |           450560
 2017-02-05 14:53:49.282957+01 | 1486302829.28296 | pgbench_history  |        438484992
 2017-02-05 14:53:49.282957+01 | 1486302829.28296 | pgbench_branches |            40960

 2017-02-05 14:53:50.373315+01 | 1486302830.37332 | pgbench_accounts |      13752008704
 2017-02-05 14:53:50.373315+01 | 1486302830.37332 | pgbench_tellers  |           450560
 2017-02-05 14:53:50.373315+01 | 1486302830.37332 | pgbench_history  |        440664064
 2017-02-05 14:53:50.373315+01 | 1486302830.37332 | pgbench_branches |            40960

 2017-02-05 14:53:51.464376+01 | 1486302831.46438 | pgbench_accounts |      13752066048
 2017-02-05 14:53:51.464376+01 | 1486302831.46438 | pgbench_tellers  |           450560
 2017-02-05 14:53:51.464376+01 | 1486302831.46438 | pgbench_history  |        444694528
 2017-02-05 14:53:51.464376+01 | 1486302831.46438 | pgbench_branches |            40960

 2017-02-05 14:53:52.546743+01 | 1486302832.54674 | pgbench_accounts |      13752188928
 2017-02-05 14:53:52.546743+01 | 1486302832.54674 | pgbench_tellers  |           450560
 2017-02-05 14:53:52.546743+01 | 1486302832.54674 | pgbench_history  |        448045056
 2017-02-05 14:53:52.546743+01 | 1486302832.54674 | pgbench_branches |            40960

 2017-02-05 14:53:53.625672+01 | 1486302833.62567 | pgbench_accounts |      13752254464
 2017-02-05 14:53:53.625672+01 | 1486302833.62567 | pgbench_tellers  |           450560
 2017-02-05 14:53:53.625672+01 | 1486302833.62567 | pgbench_history  |        452214784
 2017-02-05 14:53:53.625672+01 | 1486302833.62567 | pgbench_branches |            40960

 2017-02-05 14:53:54.706108+01 | 1486302834.70611 | pgbench_accounts |      13752344576
 2017-02-05 14:53:54.706108+01 | 1486302834.70611 | pgbench_tellers  |           450560
 2017-02-05 14:53:54.706108+01 | 1486302834.70611 | pgbench_history  |        458121216
 2017-02-05 14:53:54.706108+01 | 1486302834.70611 | pgbench_branches |            40960

 2017-02-05 14:53:55.790968+01 | 1486302835.79097 | pgbench_accounts |      13752410112
 2017-02-05 14:53:55.790968+01 | 1486302835.79097 | pgbench_tellers  |           450560
 2017-02-05 14:53:55.790968+01 | 1486302835.79097 | pgbench_history  |        459300864
 2017-02-05 14:53:55.790968+01 | 1486302835.79097 | pgbench_branches |            40960

 2017-02-05 14:53:56.884655+01 | 1486302836.88465 | pgbench_accounts |      13752508416
 2017-02-05 14:53:56.884655+01 | 1486302836.88465 | pgbench_tellers  |           450560
 2017-02-05 14:53:56.884655+01 | 1486302836.88465 | pgbench_history  |        462348288
 2017-02-05 14:53:56.884655+01 | 1486302836.88465 | pgbench_branches |            40960

 2017-02-05 14:53:57.977936+01 | 1486302837.97794 | pgbench_accounts |      13752557568
 2017-02-05 14:53:57.977936+01 | 1486302837.97794 | pgbench_tellers  |           450560
 2017-02-05 14:53:57.977936+01 | 1486302837.97794 | pgbench_history  |        466354176
 2017-02-05 14:53:57.977936+01 | 1486302837.97794 | pgbench_branches |            40960

 2017-02-05 14:53:59.063795+01 | 1486302839.0638 | pgbench_accounts |      13752655872
 2017-02-05 14:53:59.063795+01 | 1486302839.0638 | pgbench_tellers  |           450560
 2017-02-05 14:53:59.063795+01 | 1486302839.0638 | pgbench_history  |        470245376
 2017-02-05 14:53:59.063795+01 | 1486302839.0638 | pgbench_branches |            40960

 2017-02-05 14:54:00.153055+01 | 1486302840.15305 | pgbench_accounts |      13752705024
 2017-02-05 14:54:00.153055+01 | 1486302840.15305 | pgbench_tellers  |           450560
 2017-02-05 14:54:00.153055+01 | 1486302840.15305 | pgbench_history  |        474439680
 2017-02-05 14:54:00.153055+01 | 1486302840.15305 | pgbench_branches |            40960

 2017-02-05 14:54:01.239066+01 | 1486302841.23907 | pgbench_accounts |      13752795136
 2017-02-05 14:54:01.239066+01 | 1486302841.23907 | pgbench_tellers  |           450560
 2017-02-05 14:54:01.239066+01 | 1486302841.23907 | pgbench_history  |        477904896
 2017-02-05 14:54:01.239066+01 | 1486302841.23907 | pgbench_branches |            40960

 2017-02-05 14:54:02.330476+01 | 1486302842.33048 | pgbench_accounts |      13752877056
 2017-02-05 14:54:02.330476+01 | 1486302842.33048 | pgbench_tellers  |           450560
 2017-02-05 14:54:02.330476+01 | 1486302842.33048 | pgbench_history  |        481452032
 2017-02-05 14:54:02.330476+01 | 1486302842.33048 | pgbench_branches |            40960

 2017-02-05 14:54:03.417671+01 | 1486302843.41767 | pgbench_accounts |      13752983552
 2017-02-05 14:54:03.417671+01 | 1486302843.41767 | pgbench_tellers  |           450560
 2017-02-05 14:54:03.417671+01 | 1486302843.41767 | pgbench_history  |        484450304
 2017-02-05 14:54:03.417671+01 | 1486302843.41767 | pgbench_branches |            40960

 2017-02-05 14:54:04.504295+01 | 1486302844.5043 | pgbench_accounts |      13753090048
 2017-02-05 14:54:04.504295+01 | 1486302844.5043 | pgbench_tellers  |           450560
 2017-02-05 14:54:04.504295+01 | 1486302844.5043 | pgbench_history  |        492019712
 2017-02-05 14:54:04.504295+01 | 1486302844.5043 | pgbench_branches |            40960

 2017-02-05 14:54:05.588808+01 | 1486302845.58881 | pgbench_accounts |      13753466880
 2017-02-05 14:54:05.588808+01 | 1486302845.58881 | pgbench_tellers  |           450560
 2017-02-05 14:54:05.588808+01 | 1486302845.58881 | pgbench_history  |        492019712
 2017-02-05 14:54:05.588808+01 | 1486302845.58881 | pgbench_branches |            40960

 2017-02-05 14:54:06.668671+01 | 1486302846.66867 | pgbench_accounts |      13753892864
 2017-02-05 14:54:06.668671+01 | 1486302846.66867 | pgbench_tellers  |           450560
 2017-02-05 14:54:06.668671+01 | 1486302846.66867 | pgbench_history  |        495534080
 2017-02-05 14:54:06.668671+01 | 1486302846.66867 | pgbench_branches |            40960

 2017-02-05 14:54:07.750486+01 | 1486302847.75049 | pgbench_accounts |      13753892864
 2017-02-05 14:54:07.750486+01 | 1486302847.75049 | pgbench_tellers  |           450560
 2017-02-05 14:54:07.750486+01 | 1486302847.75049 | pgbench_history  |        499187712
 2017-02-05 14:54:07.750486+01 | 1486302847.75049 | pgbench_branches |            40960

 2017-02-05 14:54:08.836264+01 | 1486302848.83626 | pgbench_accounts |      13753892864
 2017-02-05 14:54:08.836264+01 | 1486302848.83626 | pgbench_tellers  |           450560
 2017-02-05 14:54:08.836264+01 | 1486302848.83626 | pgbench_history  |        502489088
 2017-02-05 14:54:08.836264+01 | 1486302848.83626 | pgbench_branches |            40960

 2017-02-05 14:54:09.921506+01 | 1486302849.92151 | pgbench_accounts |      13753892864
 2017-02-05 14:54:09.921506+01 | 1486302849.92151 | pgbench_tellers  |           450560
 2017-02-05 14:54:09.921506+01 | 1486302849.92151 | pgbench_history  |        509304832
 2017-02-05 14:54:09.921506+01 | 1486302849.92151 | pgbench_branches |            40960

 2017-02-05 14:54:11.012345+01 | 1486302851.01235 | pgbench_accounts |      13753892864
 2017-02-05 14:54:11.012345+01 | 1486302851.01235 | pgbench_tellers  |           450560
 2017-02-05 14:54:11.012345+01 | 1486302851.01235 | pgbench_history  |        510640128
 2017-02-05 14:54:11.012345+01 | 1486302851.01235 | pgbench_branches |            40960

 2017-02-05 14:54:12.099964+01 | 1486302852.09996 | pgbench_accounts |      13754122240
 2017-02-05 14:54:12.099964+01 | 1486302852.09996 | pgbench_tellers  |           450560
 2017-02-05 14:54:12.099964+01 | 1486302852.09996 | pgbench_history  |        514129920
 2017-02-05 14:54:12.099964+01 | 1486302852.09996 | pgbench_branches |            40960

 2017-02-05 14:54:13.192616+01 | 1486302853.19262 | pgbench_accounts |      13754122240
 2017-02-05 14:54:13.192616+01 | 1486302853.19262 | pgbench_tellers  |           450560
 2017-02-05 14:54:13.192616+01 | 1486302853.19262 | pgbench_history  |        519585792
 2017-02-05 14:54:13.192616+01 | 1486302853.19262 | pgbench_branches |            40960

 2017-02-05 14:54:14.27616+01 | 1486302854.27616 | pgbench_accounts |      13754122240
 2017-02-05 14:54:14.27616+01 | 1486302854.27616 | pgbench_tellers  |           450560
 2017-02-05 14:54:14.27616+01 | 1486302854.27616 | pgbench_history  |        523804672
 2017-02-05 14:54:14.27616+01 | 1486302854.27616 | pgbench_branches |            40960

 2017-02-05 14:54:15.364253+01 | 1486302855.36425 | pgbench_accounts |      13754376192
 2017-02-05 14:54:15.364253+01 | 1486302855.36425 | pgbench_tellers  |           450560
 2017-02-05 14:54:15.364253+01 | 1486302855.36425 | pgbench_history  |        525631488
 2017-02-05 14:54:15.364253+01 | 1486302855.36425 | pgbench_branches |            40960

 2017-02-05 14:54:16.450698+01 | 1486302856.4507 | pgbench_accounts |      13754720256
 2017-02-05 14:54:16.450698+01 | 1486302856.4507 | pgbench_tellers  |           450560
 2017-02-05 14:54:16.450698+01 | 1486302856.4507 | pgbench_history  |        529285120
 2017-02-05 14:54:16.450698+01 | 1486302856.4507 | pgbench_branches |            40960

 2017-02-05 14:54:17.529691+01 | 1486302857.52969 | pgbench_accounts |      13754720256
 2017-02-05 14:54:17.529691+01 | 1486302857.52969 | pgbench_tellers  |           450560
 2017-02-05 14:54:17.529691+01 | 1486302857.52969 | pgbench_history  |        532774912
 2017-02-05 14:54:17.529691+01 | 1486302857.52969 | pgbench_branches |            40960

 2017-02-05 14:54:18.613657+01 | 1486302858.61366 | pgbench_accounts |      13754720256
 2017-02-05 14:54:18.613657+01 | 1486302858.61366 | pgbench_tellers  |           450560
 2017-02-05 14:54:18.613657+01 | 1486302858.61366 | pgbench_history  |        536616960
 2017-02-05 14:54:18.613657+01 | 1486302858.61366 | pgbench_branches |            40960

 2017-02-05 14:54:19.694351+01 | 1486302859.69435 | pgbench_accounts |      13754720256
 2017-02-05 14:54:19.694351+01 | 1486302859.69435 | pgbench_tellers  |           450560
 2017-02-05 14:54:19.694351+01 | 1486302859.69435 | pgbench_history  |        539779072
 2017-02-05 14:54:19.694351+01 | 1486302859.69435 | pgbench_branches |            40960

 2017-02-05 14:54:20.777976+01 | 1486302860.77798 | pgbench_accounts |      13754720256
 2017-02-05 14:54:20.777976+01 | 1486302860.77798 | pgbench_tellers  |           450560
 2017-02-05 14:54:20.777976+01 | 1486302860.77798 | pgbench_history  |        543318016
 2017-02-05 14:54:20.777976+01 | 1486302860.77798 | pgbench_branches |            40960

 2017-02-05 14:54:21.853918+01 | 1486302861.85392 | pgbench_accounts |      13754736640
 2017-02-05 14:54:21.853918+01 | 1486302861.85392 | pgbench_tellers  |           450560
 2017-02-05 14:54:21.853918+01 | 1486302861.85392 | pgbench_history  |        546340864
 2017-02-05 14:54:21.853918+01 | 1486302861.85392 | pgbench_branches |            40960

 2017-02-05 14:54:22.938277+01 | 1486302862.93828 | pgbench_accounts |      13754753024
 2017-02-05 14:54:22.938277+01 | 1486302862.93828 | pgbench_tellers  |           450560
 2017-02-05 14:54:22.938277+01 | 1486302862.93828 | pgbench_history  |        549855232
 2017-02-05 14:54:22.938277+01 | 1486302862.93828 | pgbench_branches |            40960

 2017-02-05 14:54:24.027968+01 | 1486302864.02797 | pgbench_accounts |      13754908672
 2017-02-05 14:54:24.027968+01 | 1486302864.02797 | pgbench_tellers  |           450560
 2017-02-05 14:54:24.027968+01 | 1486302864.02797 | pgbench_history  |        553697280
 2017-02-05 14:54:24.027968+01 | 1486302864.02797 | pgbench_branches |            40960

 2017-02-05 14:54:25.125317+01 | 1486302865.12532 | pgbench_accounts |      13755006976
 2017-02-05 14:54:25.125317+01 | 1486302865.12532 | pgbench_tellers  |           450560
 2017-02-05 14:54:25.125317+01 | 1486302865.12532 | pgbench_history  |        557375488
 2017-02-05 14:54:25.125317+01 | 1486302865.12532 | pgbench_branches |            40960

 2017-02-05 14:54:26.212004+01 | 1486302866.212 | pgbench_accounts |      13755203584
 2017-02-05 14:54:26.212004+01 | 1486302866.212 | pgbench_tellers  |           450560
 2017-02-05 14:54:26.212004+01 | 1486302866.212 | pgbench_history  |        562716672
 2017-02-05 14:54:26.212004+01 | 1486302866.212 | pgbench_branches |            40960

 2017-02-05 14:54:27.300725+01 | 1486302867.30072 | pgbench_accounts |      13755318272
 2017-02-05 14:54:27.300725+01 | 1486302867.30072 | pgbench_tellers  |           450560
 2017-02-05 14:54:27.300725+01 | 1486302867.30072 | pgbench_history  |        564051968
 2017-02-05 14:54:27.300725+01 | 1486302867.30072 | pgbench_branches |            40960

 2017-02-05 14:54:28.390882+01 | 1486302868.39088 | pgbench_accounts |      13755367424
 2017-02-05 14:54:28.390882+01 | 1486302868.39088 | pgbench_tellers  |           450560
 2017-02-05 14:54:28.390882+01 | 1486302868.39088 | pgbench_history  |        567050240
 2017-02-05 14:54:28.390882+01 | 1486302868.39088 | pgbench_branches |            40960

 2017-02-05 14:54:29.480732+01 | 1486302869.48073 | pgbench_accounts |      13755375616
 2017-02-05 14:54:29.480732+01 | 1486302869.48073 | pgbench_tellers  |           450560
 2017-02-05 14:54:29.480732+01 | 1486302869.48073 | pgbench_history  |        571359232
 2017-02-05 14:54:29.480732+01 | 1486302869.48073 | pgbench_branches |            40960

 2017-02-05 14:54:30.56454+01 | 1486302870.56454 | pgbench_accounts |      13755375616
 2017-02-05 14:54:30.56454+01 | 1486302870.56454 | pgbench_tellers  |           450560
 2017-02-05 14:54:30.56454+01 | 1486302870.56454 | pgbench_history  |        572694528
 2017-02-05 14:54:30.56454+01 | 1486302870.56454 | pgbench_branches |            40960

 2017-02-05 14:54:31.643562+01 | 1486302871.64356 | pgbench_accounts |      13755383808
 2017-02-05 14:54:31.643562+01 | 1486302871.64356 | pgbench_tellers  |           450560
 2017-02-05 14:54:31.643562+01 | 1486302871.64356 | pgbench_history  |        578084864
 2017-02-05 14:54:31.643562+01 | 1486302871.64356 | pgbench_branches |            40960

 2017-02-05 14:54:32.722698+01 | 1486302872.7227 | pgbench_accounts |      13755416576
 2017-02-05 14:54:32.722698+01 | 1486302872.7227 | pgbench_tellers  |           450560
 2017-02-05 14:54:32.722698+01 | 1486302872.7227 | pgbench_history  |        580272128
 2017-02-05 14:54:32.722698+01 | 1486302872.7227 | pgbench_branches |            40960

 2017-02-05 14:54:33.812017+01 | 1486302873.81202 | pgbench_accounts |      13755449344
 2017-02-05 14:54:33.812017+01 | 1486302873.81202 | pgbench_tellers  |           450560
 2017-02-05 14:54:33.812017+01 | 1486302873.81202 | pgbench_history  |        583303168
 2017-02-05 14:54:33.812017+01 | 1486302873.81202 | pgbench_branches |            40960

 2017-02-05 14:54:34.899143+01 | 1486302874.89914 | pgbench_accounts |      13755531264
 2017-02-05 14:54:34.899143+01 | 1486302874.89914 | pgbench_tellers  |           450560
 2017-02-05 14:54:34.899143+01 | 1486302874.89914 | pgbench_history  |        586694656
 2017-02-05 14:54:34.899143+01 | 1486302874.89914 | pgbench_branches |            40960

 2017-02-05 14:54:35.990181+01 | 1486302875.99018 | pgbench_accounts |      13755695104
 2017-02-05 14:54:35.990181+01 | 1486302875.99018 | pgbench_tellers  |           450560
 2017-02-05 14:54:35.990181+01 | 1486302875.99018 | pgbench_history  |        591380480
 2017-02-05 14:54:35.990181+01 | 1486302875.99018 | pgbench_branches |            40960

 2017-02-05 14:54:37.082428+01 | 1486302877.08243 | pgbench_accounts |      13755842560
 2017-02-05 14:54:37.082428+01 | 1486302877.08243 | pgbench_tellers  |           450560
 2017-02-05 14:54:37.082428+01 | 1486302877.08243 | pgbench_history  |        594894848
 2017-02-05 14:54:37.082428+01 | 1486302877.08243 | pgbench_branches |            40960

 2017-02-05 14:54:38.168074+01 | 1486302878.16807 | pgbench_accounts |      13755899904
 2017-02-05 14:54:38.168074+01 | 1486302878.16807 | pgbench_tellers  |           450560
 2017-02-05 14:54:38.168074+01 | 1486302878.16807 | pgbench_history  |        598163456
 2017-02-05 14:54:38.168074+01 | 1486302878.16807 | pgbench_branches |            40960

 2017-02-05 14:54:39.255391+01 | 1486302879.25539 | pgbench_accounts |      13755981824
 2017-02-05 14:54:39.255391+01 | 1486302879.25539 | pgbench_tellers  |           450560
 2017-02-05 14:54:39.255391+01 | 1486302879.25539 | pgbench_history  |        601948160
 2017-02-05 14:54:39.255391+01 | 1486302879.25539 | pgbench_branches |            40960

 2017-02-05 14:54:40.352988+01 | 1486302880.35299 | pgbench_accounts |      13756039168
 2017-02-05 14:54:40.352988+01 | 1486302880.35299 | pgbench_tellers  |           450560
 2017-02-05 14:54:40.352988+01 | 1486302880.35299 | pgbench_history  |        608837632
 2017-02-05 14:54:40.352988+01 | 1486302880.35299 | pgbench_branches |            40960

 2017-02-05 14:54:41.444397+01 | 1486302881.4444 | pgbench_accounts |      13756055552
 2017-02-05 14:54:41.444397+01 | 1486302881.4444 | pgbench_tellers  |           450560
 2017-02-05 14:54:41.444397+01 | 1486302881.4444 | pgbench_history  |        608837632
 2017-02-05 14:54:41.444397+01 | 1486302881.4444 | pgbench_branches |            40960

 2017-02-05 14:54:42.526063+01 | 1486302882.52606 | pgbench_accounts |      13756096512
 2017-02-05 14:54:42.526063+01 | 1486302882.52606 | pgbench_tellers  |           450560
 2017-02-05 14:54:42.526063+01 | 1486302882.52606 | pgbench_history  |        612728832
 2017-02-05 14:54:42.526063+01 | 1486302882.52606 | pgbench_branches |            40960

 2017-02-05 14:54:43.603525+01 | 1486302883.60352 | pgbench_accounts |      13756137472
 2017-02-05 14:54:43.603525+01 | 1486302883.60352 | pgbench_tellers  |           450560
 2017-02-05 14:54:43.603525+01 | 1486302883.60352 | pgbench_history  |        616570880
 2017-02-05 14:54:43.603525+01 | 1486302883.60352 | pgbench_branches |            40960

 2017-02-05 14:54:44.673592+01 | 1486302884.67359 | pgbench_accounts |      13756203008
 2017-02-05 14:54:44.673592+01 | 1486302884.67359 | pgbench_tellers  |           450560
 2017-02-05 14:54:44.673592+01 | 1486302884.67359 | pgbench_history  |        620249088
 2017-02-05 14:54:44.673592+01 | 1486302884.67359 | pgbench_branches |            40960

 2017-02-05 14:54:45.748949+01 | 1486302885.74895 | pgbench_accounts |      13756293120
 2017-02-05 14:54:45.748949+01 | 1486302885.74895 | pgbench_tellers  |           450560
 2017-02-05 14:54:45.748949+01 | 1486302885.74895 | pgbench_history  |        623624192
 2017-02-05 14:54:45.748949+01 | 1486302885.74895 | pgbench_branches |            40960

 2017-02-05 14:54:46.834701+01 | 1486302886.8347 | pgbench_accounts |      13756407808
 2017-02-05 14:54:46.834701+01 | 1486302886.8347 | pgbench_tellers  |           450560
 2017-02-05 14:54:46.834701+01 | 1486302886.8347 | pgbench_history  |        626860032
 2017-02-05 14:54:46.834701+01 | 1486302886.8347 | pgbench_branches |            40960

 2017-02-05 14:54:47.915523+01 | 1486302887.91552 | pgbench_accounts |      13756481536
 2017-02-05 14:54:47.915523+01 | 1486302887.91552 | pgbench_tellers  |           450560
 2017-02-05 14:54:47.915523+01 | 1486302887.91552 | pgbench_history  |        630587392
 2017-02-05 14:54:47.915523+01 | 1486302887.91552 | pgbench_branches |            40960

 2017-02-05 14:54:49.008315+01 | 1486302889.00832 | pgbench_accounts |      13756555264
 2017-02-05 14:54:49.008315+01 | 1486302889.00832 | pgbench_tellers  |           450560
 2017-02-05 14:54:49.008315+01 | 1486302889.00832 | pgbench_history  |        634404864
 2017-02-05 14:54:49.008315+01 | 1486302889.00832 | pgbench_branches |            40960

 2017-02-05 14:54:50.094983+01 | 1486302890.09498 | pgbench_accounts |      13756596224
 2017-02-05 14:54:50.094983+01 | 1486302890.09498 | pgbench_tellers  |           450560
 2017-02-05 14:54:50.094983+01 | 1486302890.09498 | pgbench_history  |        637943808
 2017-02-05 14:54:50.094983+01 | 1486302890.09498 | pgbench_branches |            40960

 2017-02-05 14:54:51.185095+01 | 1486302891.1851 | pgbench_accounts |      13756686336
 2017-02-05 14:54:51.185095+01 | 1486302891.1851 | pgbench_tellers  |           450560
 2017-02-05 14:54:51.185095+01 | 1486302891.1851 | pgbench_history  |        641294336
 2017-02-05 14:54:51.185095+01 | 1486302891.1851 | pgbench_branches |            40960

 2017-02-05 14:54:52.269934+01 | 1486302892.26993 | pgbench_accounts |      13756719104
 2017-02-05 14:54:52.269934+01 | 1486302892.26993 | pgbench_tellers  |           450560
 2017-02-05 14:54:52.269934+01 | 1486302892.26993 | pgbench_history  |        645005312
 2017-02-05 14:54:52.269934+01 | 1486302892.26993 | pgbench_branches |            40960

 2017-02-05 14:54:53.360169+01 | 1486302893.36017 | pgbench_accounts |      13756760064
 2017-02-05 14:54:53.360169+01 | 1486302893.36017 | pgbench_tellers  |           450560
 2017-02-05 14:54:53.360169+01 | 1486302893.36017 | pgbench_history  |        650182656
 2017-02-05 14:54:53.360169+01 | 1486302893.36017 | pgbench_branches |            40960

 2017-02-05 14:54:54.449077+01 | 1486302894.44908 | pgbench_accounts |      13756801024
 2017-02-05 14:54:54.449077+01 | 1486302894.44908 | pgbench_tellers  |           450560
 2017-02-05 14:54:54.449077+01 | 1486302894.44908 | pgbench_history  |        652197888
 2017-02-05 14:54:54.449077+01 | 1486302894.44908 | pgbench_branches |            40960

 2017-02-05 14:54:55.533018+01 | 1486302895.53302 | pgbench_accounts |      13756923904
 2017-02-05 14:54:55.533018+01 | 1486302895.53302 | pgbench_tellers  |           450560
 2017-02-05 14:54:55.533018+01 | 1486302895.53302 | pgbench_history  |        656367616
 2017-02-05 14:54:55.533018+01 | 1486302895.53302 | pgbench_branches |            40960

 2017-02-05 14:54:56.611605+01 | 1486302896.6116 | pgbench_accounts |      13757022208
 2017-02-05 14:54:56.611605+01 | 1486302896.6116 | pgbench_tellers  |           450560
 2017-02-05 14:54:56.611605+01 | 1486302896.6116 | pgbench_history  |        660045824
 2017-02-05 14:54:56.611605+01 | 1486302896.6116 | pgbench_branches |            40960

 2017-02-05 14:54:57.692467+01 | 1486302897.69247 | pgbench_accounts |      13757079552
 2017-02-05 14:54:57.692467+01 | 1486302897.69247 | pgbench_tellers  |           450560
 2017-02-05 14:54:57.692467+01 | 1486302897.69247 | pgbench_history  |        662904832
 2017-02-05 14:54:57.692467+01 | 1486302897.69247 | pgbench_branches |            40960

 2017-02-05 14:54:58.774566+01 | 1486302898.77457 | pgbench_accounts |      13757153280
 2017-02-05 14:54:58.774566+01 | 1486302898.77457 | pgbench_tellers  |           450560
 2017-02-05 14:54:58.774566+01 | 1486302898.77457 | pgbench_history  |        667123712
 2017-02-05 14:54:58.774566+01 | 1486302898.77457 | pgbench_branches |            40960

 2017-02-05 14:54:59.860701+01 | 1486302899.8607 | pgbench_accounts |      13757202432
 2017-02-05 14:54:59.860701+01 | 1486302899.8607 | pgbench_tellers  |           450560
 2017-02-05 14:54:59.860701+01 | 1486302899.8607 | pgbench_history  |        670285824
 2017-02-05 14:54:59.860701+01 | 1486302899.8607 | pgbench_branches |            40960

 2017-02-05 14:55:00.946916+01 | 1486302900.94692 | pgbench_accounts |      13757267968
 2017-02-05 14:55:00.946916+01 | 1486302900.94692 | pgbench_tellers  |           450560
 2017-02-05 14:55:00.946916+01 | 1486302900.94692 | pgbench_history  |        676610048
 2017-02-05 14:55:00.946916+01 | 1486302900.94692 | pgbench_branches |            40960

 2017-02-05 14:55:02.041236+01 | 1486302902.04124 | pgbench_accounts |      13757358080
 2017-02-05 14:55:02.041236+01 | 1486302902.04124 | pgbench_tellers  |           450560
 2017-02-05 14:55:02.041236+01 | 1486302902.04124 | pgbench_history  |        677617664
 2017-02-05 14:55:02.041236+01 | 1486302902.04124 | pgbench_branches |            40960

 2017-02-05 14:55:03.127511+01 | 1486302903.12751 | pgbench_accounts |      13757390848
 2017-02-05 14:55:03.127511+01 | 1486302903.12751 | pgbench_tellers  |           450560
 2017-02-05 14:55:03.127511+01 | 1486302903.12751 | pgbench_history  |        683237376
 2017-02-05 14:55:03.127511+01 | 1486302903.12751 | pgbench_branches |            40960

 2017-02-05 14:55:04.204312+01 | 1486302904.20431 | pgbench_accounts |      13757431808
 2017-02-05 14:55:04.204312+01 | 1486302904.20431 | pgbench_tellers  |           450560
 2017-02-05 14:55:04.204312+01 | 1486302904.20431 | pgbench_history  |        686727168
 2017-02-05 14:55:04.204312+01 | 1486302904.20431 | pgbench_branches |            40960

 2017-02-05 14:55:05.289214+01 | 1486302905.28921 | pgbench_accounts |      13757718528
 2017-02-05 14:55:05.289214+01 | 1486302905.28921 | pgbench_tellers  |           450560
 2017-02-05 14:55:05.289214+01 | 1486302905.28921 | pgbench_history  |        689561600
 2017-02-05 14:55:05.289214+01 | 1486302905.28921 | pgbench_branches |            40960

 2017-02-05 14:55:06.383243+01 | 1486302906.38324 | pgbench_accounts |      13758283776
 2017-02-05 14:55:06.383243+01 | 1486302906.38324 | pgbench_tellers  |           450560
 2017-02-05 14:55:06.383243+01 | 1486302906.38324 | pgbench_history  |        691904512
 2017-02-05 14:55:06.383243+01 | 1486302906.38324 | pgbench_branches |            40960

 2017-02-05 14:55:07.473503+01 | 1486302907.4735 | pgbench_accounts |      13758283776
 2017-02-05 14:55:07.473503+01 | 1486302907.4735 | pgbench_tellers  |           450560
 2017-02-05 14:55:07.473503+01 | 1486302907.4735 | pgbench_history  |        695795712
 2017-02-05 14:55:07.473503+01 | 1486302907.4735 | pgbench_branches |            40960

 2017-02-05 14:55:08.567412+01 | 1486302908.56741 | pgbench_accounts |      13758283776
 2017-02-05 14:55:08.567412+01 | 1486302908.56741 | pgbench_tellers  |           450560
 2017-02-05 14:55:08.567412+01 | 1486302908.56741 | pgbench_history  |        699645952
 2017-02-05 14:55:08.567412+01 | 1486302908.56741 | pgbench_branches |            40960

 2017-02-05 14:55:09.651258+01 | 1486302909.65126 | pgbench_accounts |      13758283776
 2017-02-05 14:55:09.651258+01 | 1486302909.65126 | pgbench_tellers  |           450560
 2017-02-05 14:55:09.651258+01 | 1486302909.65126 | pgbench_history  |        703651840
 2017-02-05 14:55:09.651258+01 | 1486302909.65126 | pgbench_branches |            40960

 2017-02-05 14:55:10.736804+01 | 1486302910.7368 | pgbench_accounts |      13758676992
 2017-02-05 14:55:10.736804+01 | 1486302910.7368 | pgbench_tellers  |           450560
 2017-02-05 14:55:10.736804+01 | 1486302910.7368 | pgbench_history  |        706674688
 2017-02-05 14:55:10.736804+01 | 1486302910.7368 | pgbench_branches |            40960

 2017-02-05 14:55:11.817977+01 | 1486302911.81798 | pgbench_accounts |      13758824448
 2017-02-05 14:55:11.817977+01 | 1486302911.81798 | pgbench_tellers  |           450560
 2017-02-05 14:55:11.817977+01 | 1486302911.81798 | pgbench_history  |        710713344
 2017-02-05 14:55:11.817977+01 | 1486302911.81798 | pgbench_branches |            40960

 2017-02-05 14:55:12.89909+01 | 1486302912.89909 | pgbench_accounts |      13758889984
 2017-02-05 14:55:12.89909+01 | 1486302912.89909 | pgbench_tellers  |           450560
 2017-02-05 14:55:12.89909+01 | 1486302912.89909 | pgbench_history  |        713875456
 2017-02-05 14:55:12.89909+01 | 1486302912.89909 | pgbench_branches |            40960

 2017-02-05 14:55:13.989046+01 | 1486302913.98905 | pgbench_accounts |      13758922752
 2017-02-05 14:55:13.989046+01 | 1486302913.98905 | pgbench_tellers  |           450560
 2017-02-05 14:55:13.989046+01 | 1486302913.98905 | pgbench_history  |        718594048
 2017-02-05 14:55:13.989046+01 | 1486302913.98905 | pgbench_branches |            40960

 2017-02-05 14:55:15.081863+01 | 1486302915.08186 | pgbench_accounts |      13758922752
 2017-02-05 14:55:15.081863+01 | 1486302915.08186 | pgbench_tellers  |           450560
 2017-02-05 14:55:15.081863+01 | 1486302915.08186 | pgbench_history  |        722411520
 2017-02-05 14:55:15.081863+01 | 1486302915.08186 | pgbench_branches |            40960

 2017-02-05 14:55:16.177731+01 | 1486302916.17773 | pgbench_accounts |      13758930944
 2017-02-05 14:55:16.177731+01 | 1486302916.17773 | pgbench_tellers  |           450560
 2017-02-05 14:55:16.177731+01 | 1486302916.17773 | pgbench_history  |        724754432
 2017-02-05 14:55:16.177731+01 | 1486302916.17773 | pgbench_branches |            40960

 2017-02-05 14:55:17.272178+01 | 1486302917.27218 | pgbench_accounts |      13758939136
 2017-02-05 14:55:17.272178+01 | 1486302917.27218 | pgbench_tellers  |           450560
 2017-02-05 14:55:17.272178+01 | 1486302917.27218 | pgbench_history  |        727097344
 2017-02-05 14:55:17.272178+01 | 1486302917.27218 | pgbench_branches |            40960

 2017-02-05 14:55:18.366089+01 | 1486302918.36609 | pgbench_accounts |      13758939136
 2017-02-05 14:55:18.366089+01 | 1486302918.36609 | pgbench_tellers  |           450560
 2017-02-05 14:55:18.366089+01 | 1486302918.36609 | pgbench_history  |        733724672
 2017-02-05 14:55:18.366089+01 | 1486302918.36609 | pgbench_branches |            40960

 2017-02-05 14:55:19.44919+01 | 1486302919.44919 | pgbench_accounts |      13758939136
 2017-02-05 14:55:19.44919+01 | 1486302919.44919 | pgbench_tellers  |           450560
 2017-02-05 14:55:19.44919+01 | 1486302919.44919 | pgbench_history  |        733724672
 2017-02-05 14:55:19.44919+01 | 1486302919.44919 | pgbench_branches |            40960

 2017-02-05 14:55:20.537548+01 | 1486302920.53755 | pgbench_accounts |      13758971904
 2017-02-05 14:55:20.537548+01 | 1486302920.53755 | pgbench_tellers  |           450560
 2017-02-05 14:55:20.537548+01 | 1486302920.53755 | pgbench_history  |        739303424
 2017-02-05 14:55:20.537548+01 | 1486302920.53755 | pgbench_branches |            40960

 2017-02-05 14:55:21.61524+01 | 1486302921.61524 | pgbench_accounts |      13759021056
 2017-02-05 14:55:21.61524+01 | 1486302921.61524 | pgbench_tellers  |           450560
 2017-02-05 14:55:21.61524+01 | 1486302921.61524 | pgbench_history  |        739983360
 2017-02-05 14:55:21.61524+01 | 1486302921.61524 | pgbench_branches |            40960

 2017-02-05 14:55:22.700006+01 | 1486302922.70001 | pgbench_accounts |      13759127552
 2017-02-05 14:55:22.700006+01 | 1486302922.70001 | pgbench_tellers  |           450560
 2017-02-05 14:55:22.700006+01 | 1486302922.70001 | pgbench_history  |        743145472
 2017-02-05 14:55:22.700006+01 | 1486302922.70001 | pgbench_branches |            40960

 2017-02-05 14:55:23.785164+01 | 1486302923.78516 | pgbench_accounts |      13759258624
 2017-02-05 14:55:23.785164+01 | 1486302923.78516 | pgbench_tellers  |           450560
 2017-02-05 14:55:23.785164+01 | 1486302923.78516 | pgbench_history  |        747339776
 2017-02-05 14:55:23.785164+01 | 1486302923.78516 | pgbench_branches |            40960

 2017-02-05 14:55:24.868184+01 | 1486302924.86818 | pgbench_accounts |      13759422464
 2017-02-05 14:55:24.868184+01 | 1486302924.86818 | pgbench_tellers  |           450560
 2017-02-05 14:55:24.868184+01 | 1486302924.86818 | pgbench_history  |        751157248
 2017-02-05 14:55:24.868184+01 | 1486302924.86818 | pgbench_branches |            40960

 2017-02-05 14:55:25.948929+01 | 1486302925.94893 | pgbench_accounts |      13759537152
 2017-02-05 14:55:25.948929+01 | 1486302925.94893 | pgbench_tellers  |           450560
 2017-02-05 14:55:25.948929+01 | 1486302925.94893 | pgbench_history  |        754507776
 2017-02-05 14:55:25.948929+01 | 1486302925.94893 | pgbench_branches |            40960

 2017-02-05 14:55:27.03783+01 | 1486302927.03783 | pgbench_accounts |      13759569920
 2017-02-05 14:55:27.03783+01 | 1486302927.03783 | pgbench_tellers  |           450560
 2017-02-05 14:55:27.03783+01 | 1486302927.03783 | pgbench_history  |        757858304
 2017-02-05 14:55:27.03783+01 | 1486302927.03783 | pgbench_branches |            40960

 2017-02-05 14:55:28.127768+01 | 1486302928.12777 | pgbench_accounts |      13759586304
 2017-02-05 14:55:28.127768+01 | 1486302928.12777 | pgbench_tellers  |           450560
 2017-02-05 14:55:28.127768+01 | 1486302928.12777 | pgbench_history  |        761020416
 2017-02-05 14:55:28.127768+01 | 1486302928.12777 | pgbench_branches |            40960

 2017-02-05 14:55:29.218206+01 | 1486302929.21821 | pgbench_accounts |      13759586304
 2017-02-05 14:55:29.218206+01 | 1486302929.21821 | pgbench_tellers  |           450560
 2017-02-05 14:55:29.218206+01 | 1486302929.21821 | pgbench_history  |        765001728
 2017-02-05 14:55:29.218206+01 | 1486302929.21821 | pgbench_branches |            40960

 2017-02-05 14:55:30.304036+01 | 1486302930.30404 | pgbench_accounts |      13759602688
 2017-02-05 14:55:30.304036+01 | 1486302930.30404 | pgbench_tellers  |           450560
 2017-02-05 14:55:30.304036+01 | 1486302930.30404 | pgbench_history  |        768360448
 2017-02-05 14:55:30.304036+01 | 1486302930.30404 | pgbench_branches |            40960

 2017-02-05 14:55:31.391466+01 | 1486302931.39147 | pgbench_accounts |      13759627264
 2017-02-05 14:55:31.391466+01 | 1486302931.39147 | pgbench_tellers  |           450560
 2017-02-05 14:55:31.391466+01 | 1486302931.39147 | pgbench_history  |        773840896
 2017-02-05 14:55:31.391466+01 | 1486302931.39147 | pgbench_branches |            40960

 2017-02-05 14:55:32.484376+01 | 1486302932.48438 | pgbench_accounts |      13759676416
 2017-02-05 14:55:32.484376+01 | 1486302932.48438 | pgbench_tellers  |           450560
 2017-02-05 14:55:32.484376+01 | 1486302932.48438 | pgbench_history  |        776019968
 2017-02-05 14:55:32.484376+01 | 1486302932.48438 | pgbench_branches |            40960

 2017-02-05 14:55:33.582504+01 | 1486302933.5825 | pgbench_accounts |      13759758336
 2017-02-05 14:55:33.582504+01 | 1486302933.5825 | pgbench_tellers  |           450560
 2017-02-05 14:55:33.582504+01 | 1486302933.5825 | pgbench_history  |        780222464
 2017-02-05 14:55:33.582504+01 | 1486302933.5825 | pgbench_branches |            40960

 2017-02-05 14:55:34.67424+01 | 1486302934.67424 | pgbench_accounts |      13759856640
 2017-02-05 14:55:34.67424+01 | 1486302934.67424 | pgbench_tellers  |           450560
 2017-02-05 14:55:34.67424+01 | 1486302934.67424 | pgbench_history  |        783548416
 2017-02-05 14:55:34.67424+01 | 1486302934.67424 | pgbench_branches |            40960

 2017-02-05 14:55:35.756458+01 | 1486302935.75646 | pgbench_accounts |      13759954944
 2017-02-05 14:55:35.756458+01 | 1486302935.75646 | pgbench_tellers  |           450560
 2017-02-05 14:55:35.756458+01 | 1486302935.75646 | pgbench_history  |        786849792
 2017-02-05 14:55:35.756458+01 | 1486302935.75646 | pgbench_branches |            40960

 2017-02-05 14:55:36.843092+01 | 1486302936.84309 | pgbench_accounts |      13760012288
 2017-02-05 14:55:36.843092+01 | 1486302936.84309 | pgbench_tellers  |           450560
 2017-02-05 14:55:36.843092+01 | 1486302936.84309 | pgbench_history  |        790036480
 2017-02-05 14:55:36.843092+01 | 1486302936.84309 | pgbench_branches |            40960

 2017-02-05 14:55:37.929742+01 | 1486302937.92974 | pgbench_accounts |      13760126976
 2017-02-05 14:55:37.929742+01 | 1486302937.92974 | pgbench_tellers  |           450560
 2017-02-05 14:55:37.929742+01 | 1486302937.92974 | pgbench_history  |        793526272
 2017-02-05 14:55:37.929742+01 | 1486302937.92974 | pgbench_branches |            40960

 2017-02-05 14:55:39.012934+01 | 1486302939.01293 | pgbench_accounts |      13760159744
 2017-02-05 14:55:39.012934+01 | 1486302939.01293 | pgbench_tellers  |           450560
 2017-02-05 14:55:39.012934+01 | 1486302939.01293 | pgbench_history  |        797392896
 2017-02-05 14:55:39.012934+01 | 1486302939.01293 | pgbench_branches |            40960

 2017-02-05 14:55:40.098552+01 | 1486302940.09855 | pgbench_accounts |      13760233472
 2017-02-05 14:55:40.098552+01 | 1486302940.09855 | pgbench_tellers  |           450560
 2017-02-05 14:55:40.098552+01 | 1486302940.09855 | pgbench_history  |        800718848
 2017-02-05 14:55:40.098552+01 | 1486302940.09855 | pgbench_branches |            40960

 2017-02-05 14:55:41.192001+01 | 1486302941.192 | pgbench_accounts |      13760266240
 2017-02-05 14:55:41.192001+01 | 1486302941.192 | pgbench_tellers  |           450560
 2017-02-05 14:55:41.192001+01 | 1486302941.192 | pgbench_history  |        804921344
 2017-02-05 14:55:41.192001+01 | 1486302941.192 | pgbench_branches |            40960

 2017-02-05 14:55:42.286364+01 | 1486302942.28636 | pgbench_accounts |      13760274432
 2017-02-05 14:55:42.286364+01 | 1486302942.28636 | pgbench_tellers  |           450560
 2017-02-05 14:55:42.286364+01 | 1486302942.28636 | pgbench_history  |        807919616
 2017-02-05 14:55:42.286364+01 | 1486302942.28636 | pgbench_branches |            40960

 2017-02-05 14:55:43.374326+01 | 1486302943.37433 | pgbench_accounts |      13760274432
 2017-02-05 14:55:43.374326+01 | 1486302943.37433 | pgbench_tellers  |           450560
 2017-02-05 14:55:43.374326+01 | 1486302943.37433 | pgbench_history  |        812908544
 2017-02-05 14:55:43.374326+01 | 1486302943.37433 | pgbench_branches |            40960

 2017-02-05 14:55:44.47072+01 | 1486302944.47072 | pgbench_accounts |      13760323584
 2017-02-05 14:55:44.47072+01 | 1486302944.47072 | pgbench_tellers  |           450560
 2017-02-05 14:55:44.47072+01 | 1486302944.47072 | pgbench_history  |        818098176
 2017-02-05 14:55:44.47072+01 | 1486302944.47072 | pgbench_branches |            40960

 2017-02-05 14:55:45.56017+01 | 1486302945.56017 | pgbench_accounts |      13760389120
 2017-02-05 14:55:45.56017+01 | 1486302945.56017 | pgbench_tellers  |           450560
 2017-02-05 14:55:45.56017+01 | 1486302945.56017 | pgbench_history  |        822444032
 2017-02-05 14:55:45.56017+01 | 1486302945.56017 | pgbench_branches |            40960

 2017-02-05 14:55:46.653908+01 | 1486302946.65391 | pgbench_accounts |      13760462848
 2017-02-05 14:55:46.653908+01 | 1486302946.65391 | pgbench_tellers  |           450560
 2017-02-05 14:55:46.653908+01 | 1486302946.65391 | pgbench_history  |        822444032
 2017-02-05 14:55:46.653908+01 | 1486302946.65391 | pgbench_branches |            40960

 2017-02-05 14:55:47.735267+01 | 1486302947.73527 | pgbench_accounts |      13760544768
 2017-02-05 14:55:47.735267+01 | 1486302947.73527 | pgbench_tellers  |           450560
 2017-02-05 14:55:47.735267+01 | 1486302947.73527 | pgbench_history  |        827080704
 2017-02-05 14:55:47.735267+01 | 1486302947.73527 | pgbench_branches |            40960

 2017-02-05 14:55:48.812645+01 | 1486302948.81264 | pgbench_accounts |      13760667648
 2017-02-05 14:55:48.812645+01 | 1486302948.81264 | pgbench_tellers  |           450560
 2017-02-05 14:55:48.812645+01 | 1486302948.81264 | pgbench_history  |        830431232
 2017-02-05 14:55:48.812645+01 | 1486302948.81264 | pgbench_branches |            40960

 2017-02-05 14:55:49.887726+01 | 1486302949.88773 | pgbench_accounts |      13760741376
 2017-02-05 14:55:49.887726+01 | 1486302949.88773 | pgbench_tellers  |           450560
 2017-02-05 14:55:49.887726+01 | 1486302949.88773 | pgbench_history  |        834117632
 2017-02-05 14:55:49.887726+01 | 1486302949.88773 | pgbench_branches |            40960

 2017-02-05 14:55:50.969801+01 | 1486302950.9698 | pgbench_accounts |      13760782336
 2017-02-05 14:55:50.969801+01 | 1486302950.9698 | pgbench_tellers  |           450560
 2017-02-05 14:55:50.969801+01 | 1486302950.9698 | pgbench_history  |        837795840
 2017-02-05 14:55:50.969801+01 | 1486302950.9698 | pgbench_branches |            40960

 2017-02-05 14:55:52.05737+01 | 1486302952.05737 | pgbench_accounts |      13760831488
 2017-02-05 14:55:52.05737+01 | 1486302952.05737 | pgbench_tellers  |           450560
 2017-02-05 14:55:52.05737+01 | 1486302952.05737 | pgbench_history  |        840982528
 2017-02-05 14:55:52.05737+01 | 1486302952.05737 | pgbench_branches |            40960

 2017-02-05 14:55:53.143598+01 | 1486302953.1436 | pgbench_accounts |      13760880640
 2017-02-05 14:55:53.143598+01 | 1486302953.1436 | pgbench_tellers  |           450560
 2017-02-05 14:55:53.143598+01 | 1486302953.1436 | pgbench_history  |        844333056
 2017-02-05 14:55:53.143598+01 | 1486302953.1436 | pgbench_branches |            40960

 2017-02-05 14:55:54.234989+01 | 1486302954.23499 | pgbench_accounts |      13760946176
 2017-02-05 14:55:54.234989+01 | 1486302954.23499 | pgbench_tellers  |           450560
 2017-02-05 14:55:54.234989+01 | 1486302954.23499 | pgbench_history  |        847519744
 2017-02-05 14:55:54.234989+01 | 1486302954.23499 | pgbench_branches |            40960

 2017-02-05 14:55:55.319588+01 | 1486302955.31959 | pgbench_accounts |      13760970752
 2017-02-05 14:55:55.319588+01 | 1486302955.31959 | pgbench_tellers  |           450560
 2017-02-05 14:55:55.319588+01 | 1486302955.31959 | pgbench_history  |        852254720
 2017-02-05 14:55:55.319588+01 | 1486302955.31959 | pgbench_branches |            40960

 2017-02-05 14:55:56.398705+01 | 1486302956.39871 | pgbench_accounts |      13760987136
 2017-02-05 14:55:56.398705+01 | 1486302956.39871 | pgbench_tellers  |           450560
 2017-02-05 14:55:56.398705+01 | 1486302956.39871 | pgbench_history  |        855089152
 2017-02-05 14:55:56.398705+01 | 1486302956.39871 | pgbench_branches |            40960

 2017-02-05 14:55:57.495277+01 | 1486302957.49528 | pgbench_accounts |      13761028096
 2017-02-05 14:55:57.495277+01 | 1486302957.49528 | pgbench_tellers  |           450560
 2017-02-05 14:55:57.495277+01 | 1486302957.49528 | pgbench_history  |        859471872
 2017-02-05 14:55:57.495277+01 | 1486302957.49528 | pgbench_branches |            40960

 2017-02-05 14:55:58.584323+01 | 1486302958.58432 | pgbench_accounts |      13761085440
 2017-02-05 14:55:58.584323+01 | 1486302958.58432 | pgbench_tellers  |           450560
 2017-02-05 14:55:58.584323+01 | 1486302958.58432 | pgbench_history  |        862330880
 2017-02-05 14:55:58.584323+01 | 1486302958.58432 | pgbench_branches |            40960

 2017-02-05 14:55:59.672906+01 | 1486302959.67291 | pgbench_accounts |      13761191936
 2017-02-05 14:55:59.672906+01 | 1486302959.67291 | pgbench_tellers  |           450560
 2017-02-05 14:55:59.672906+01 | 1486302959.67291 | pgbench_history  |        866500608
 2017-02-05 14:55:59.672906+01 | 1486302959.67291 | pgbench_branches |            40960

 2017-02-05 14:56:00.751542+01 | 1486302960.75154 | pgbench_accounts |      13761241088
 2017-02-05 14:56:00.751542+01 | 1486302960.75154 | pgbench_tellers  |           450560
 2017-02-05 14:56:00.751542+01 | 1486302960.75154 | pgbench_history  |        869523456
 2017-02-05 14:56:00.751542+01 | 1486302960.75154 | pgbench_branches |            40960

 2017-02-05 14:56:01.829846+01 | 1486302961.82985 | pgbench_accounts |      13761306624
 2017-02-05 14:56:01.829846+01 | 1486302961.82985 | pgbench_tellers  |           450560
 2017-02-05 14:56:01.829846+01 | 1486302961.82985 | pgbench_history  |        873480192
 2017-02-05 14:56:01.829846+01 | 1486302961.82985 | pgbench_branches |            40960

 2017-02-05 14:56:02.910349+01 | 1486302962.91035 | pgbench_accounts |      13761372160
 2017-02-05 14:56:02.910349+01 | 1486302962.91035 | pgbench_tellers  |           450560
 2017-02-05 14:56:02.910349+01 | 1486302962.91035 | pgbench_history  |        878051328
 2017-02-05 14:56:02.910349+01 | 1486302962.91035 | pgbench_branches |            40960

 2017-02-05 14:56:03.979825+01 | 1486302963.97983 | pgbench_accounts |      13761429504
 2017-02-05 14:56:03.979825+01 | 1486302963.97983 | pgbench_tellers  |           450560
 2017-02-05 14:56:03.979825+01 | 1486302963.97983 | pgbench_history  |        880427008
 2017-02-05 14:56:03.979825+01 | 1486302963.97983 | pgbench_branches |            40960

 2017-02-05 14:56:05.069584+01 | 1486302965.06958 | pgbench_accounts |      13761593344
 2017-02-05 14:56:05.069584+01 | 1486302965.06958 | pgbench_tellers  |           450560
 2017-02-05 14:56:05.069584+01 | 1486302965.06958 | pgbench_history  |        884842496
 2017-02-05 14:56:05.069584+01 | 1486302965.06958 | pgbench_branches |            40960

 2017-02-05 14:56:06.163061+01 | 1486302966.16306 | pgbench_accounts |      13762076672
 2017-02-05 14:56:06.163061+01 | 1486302966.16306 | pgbench_tellers  |           450560
 2017-02-05 14:56:06.163061+01 | 1486302966.16306 | pgbench_history  |        887865344
 2017-02-05 14:56:06.163061+01 | 1486302966.16306 | pgbench_branches |            40960

 2017-02-05 14:56:07.255031+01 | 1486302967.25503 | pgbench_accounts |      13762904064
 2017-02-05 14:56:07.255031+01 | 1486302967.25503 | pgbench_tellers  |           450560
 2017-02-05 14:56:07.255031+01 | 1486302967.25503 | pgbench_history  |        892551168
 2017-02-05 14:56:07.255031+01 | 1486302967.25503 | pgbench_branches |            40960

 2017-02-05 14:56:08.344267+01 | 1486302968.34427 | pgbench_accounts |      13764100096
 2017-02-05 14:56:08.344267+01 | 1486302968.34427 | pgbench_tellers  |           450560
 2017-02-05 14:56:08.344267+01 | 1486302968.34427 | pgbench_history  |        895877120
 2017-02-05 14:56:08.344267+01 | 1486302968.34427 | pgbench_branches |            40960

 2017-02-05 14:56:09.443814+01 | 1486302969.44381 | pgbench_accounts |      13765320704
 2017-02-05 14:56:09.443814+01 | 1486302969.44381 | pgbench_tellers  |           450560
 2017-02-05 14:56:09.443814+01 | 1486302969.44381 | pgbench_history  |        899391488
 2017-02-05 14:56:09.443814+01 | 1486302969.44381 | pgbench_branches |            40960

 2017-02-05 14:56:10.526178+01 | 1486302970.52618 | pgbench_accounts |      13765320704
 2017-02-05 14:56:10.526178+01 | 1486302970.52618 | pgbench_tellers  |           450560
 2017-02-05 14:56:10.526178+01 | 1486302970.52618 | pgbench_history  |        903913472
 2017-02-05 14:56:10.526178+01 | 1486302970.52618 | pgbench_branches |            40960

 2017-02-05 14:56:11.617348+01 | 1486302971.61735 | pgbench_accounts |      13765320704
 2017-02-05 14:56:11.617348+01 | 1486302971.61735 | pgbench_tellers  |           450560
 2017-02-05 14:56:11.617348+01 | 1486302971.61735 | pgbench_history  |        905936896
 2017-02-05 14:56:11.617348+01 | 1486302971.61735 | pgbench_branches |            40960

 2017-02-05 14:56:12.706756+01 | 1486302972.70676 | pgbench_accounts |      13765623808
 2017-02-05 14:56:12.706756+01 | 1486302972.70676 | pgbench_tellers  |           450560
 2017-02-05 14:56:12.706756+01 | 1486302972.70676 | pgbench_history  |        910934016
 2017-02-05 14:56:12.706756+01 | 1486302972.70676 | pgbench_branches |            40960

 2017-02-05 14:56:13.79042+01 | 1486302973.79042 | pgbench_accounts |      13765951488
 2017-02-05 14:56:13.79042+01 | 1486302973.79042 | pgbench_tellers  |           450560
 2017-02-05 14:56:13.79042+01 | 1486302973.79042 | pgbench_history  |        913137664
 2017-02-05 14:56:13.79042+01 | 1486302973.79042 | pgbench_branches |            40960

 2017-02-05 14:56:14.867816+01 | 1486302974.86782 | pgbench_accounts |      13765967872
 2017-02-05 14:56:14.867816+01 | 1486302974.86782 | pgbench_tellers  |           450560
 2017-02-05 14:56:14.867816+01 | 1486302974.86782 | pgbench_history  |        916824064
 2017-02-05 14:56:14.867816+01 | 1486302974.86782 | pgbench_branches |            40960

 2017-02-05 14:56:15.953003+01 | 1486302975.953 | pgbench_accounts |      13765976064
 2017-02-05 14:56:15.953003+01 | 1486302975.953 | pgbench_tellers  |           450560
 2017-02-05 14:56:15.953003+01 | 1486302975.953 | pgbench_history  |        924393472
 2017-02-05 14:56:15.953003+01 | 1486302975.953 | pgbench_branches |            40960

 2017-02-05 14:56:17.038872+01 | 1486302977.03887 | pgbench_accounts |      13765976064
 2017-02-05 14:56:17.038872+01 | 1486302977.03887 | pgbench_tellers  |           450560
 2017-02-05 14:56:17.038872+01 | 1486302977.03887 | pgbench_history  |        924393472
 2017-02-05 14:56:17.038872+01 | 1486302977.03887 | pgbench_branches |            40960

 2017-02-05 14:56:18.108472+01 | 1486302978.10847 | pgbench_accounts |      13765976064
 2017-02-05 14:56:18.108472+01 | 1486302978.10847 | pgbench_tellers  |           450560
 2017-02-05 14:56:18.108472+01 | 1486302978.10847 | pgbench_history  |        930111488
 2017-02-05 14:56:18.108472+01 | 1486302978.10847 | pgbench_branches |            40960

 2017-02-05 14:56:19.196493+01 | 1486302979.19649 | pgbench_accounts |      13765976064
 2017-02-05 14:56:19.196493+01 | 1486302979.19649 | pgbench_tellers  |           450560
 2017-02-05 14:56:19.196493+01 | 1486302979.19649 | pgbench_history  |        934846464
 2017-02-05 14:56:19.196493+01 | 1486302979.19649 | pgbench_branches |            40960

 2017-02-05 14:56:20.289548+01 | 1486302980.28955 | pgbench_accounts |      13765976064
 2017-02-05 14:56:20.289548+01 | 1486302980.28955 | pgbench_tellers  |           450560
 2017-02-05 14:56:20.289548+01 | 1486302980.28955 | pgbench_history  |        935854080
 2017-02-05 14:56:20.289548+01 | 1486302980.28955 | pgbench_branches |            40960

 2017-02-05 14:56:21.373391+01 | 1486302981.37339 | pgbench_accounts |      13765984256
 2017-02-05 14:56:21.373391+01 | 1486302981.37339 | pgbench_tellers  |           450560
 2017-02-05 14:56:21.373391+01 | 1486302981.37339 | pgbench_history  |        941924352
 2017-02-05 14:56:21.373391+01 | 1486302981.37339 | pgbench_branches |            40960

 2017-02-05 14:56:22.470532+01 | 1486302982.47053 | pgbench_accounts |      13766008832
 2017-02-05 14:56:22.470532+01 | 1486302982.47053 | pgbench_tellers  |           450560
 2017-02-05 14:56:22.470532+01 | 1486302982.47053 | pgbench_history  |        942931968
 2017-02-05 14:56:22.470532+01 | 1486302982.47053 | pgbench_branches |            40960

 2017-02-05 14:56:23.564484+01 | 1486302983.56448 | pgbench_accounts |      13766025216
 2017-02-05 14:56:23.564484+01 | 1486302983.56448 | pgbench_tellers  |           450560
 2017-02-05 14:56:23.564484+01 | 1486302983.56448 | pgbench_history  |        949231616
 2017-02-05 14:56:23.564484+01 | 1486302983.56448 | pgbench_branches |            40960

 2017-02-05 14:56:24.64978+01 | 1486302984.64978 | pgbench_accounts |      13766082560
 2017-02-05 14:56:24.64978+01 | 1486302984.64978 | pgbench_tellers  |           450560
 2017-02-05 14:56:24.64978+01 | 1486302984.64978 | pgbench_history  |        950239232
 2017-02-05 14:56:24.64978+01 | 1486302984.64978 | pgbench_branches |            40960

 2017-02-05 14:56:25.73406+01 | 1486302985.73406 | pgbench_accounts |      13766230016
 2017-02-05 14:56:25.73406+01 | 1486302985.73406 | pgbench_tellers  |           450560
 2017-02-05 14:56:25.73406+01 | 1486302985.73406 | pgbench_history  |        953597952
 2017-02-05 14:56:25.73406+01 | 1486302985.73406 | pgbench_branches |            40960

 2017-02-05 14:56:26.816856+01 | 1486302986.81686 | pgbench_accounts |      13766385664
 2017-02-05 14:56:26.816856+01 | 1486302986.81686 | pgbench_tellers  |           450560
 2017-02-05 14:56:26.816856+01 | 1486302986.81686 | pgbench_history  |        957063168
 2017-02-05 14:56:26.816856+01 | 1486302986.81686 | pgbench_branches |            40960

 2017-02-05 14:56:27.896621+01 | 1486302987.89662 | pgbench_accounts |      13766500352
 2017-02-05 14:56:27.896621+01 | 1486302987.89662 | pgbench_tellers  |           450560
 2017-02-05 14:56:27.896621+01 | 1486302987.89662 | pgbench_history  |        960389120
 2017-02-05 14:56:27.896621+01 | 1486302987.89662 | pgbench_branches |            40960

 2017-02-05 14:56:28.978118+01 | 1486302988.97812 | pgbench_accounts |      13766565888
 2017-02-05 14:56:28.978118+01 | 1486302988.97812 | pgbench_tellers  |           450560
 2017-02-05 14:56:28.978118+01 | 1486302988.97812 | pgbench_history  |        963903488
 2017-02-05 14:56:28.978118+01 | 1486302988.97812 | pgbench_branches |            40960

 2017-02-05 14:56:30.064628+01 | 1486302990.06463 | pgbench_accounts |      13766590464
 2017-02-05 14:56:30.064628+01 | 1486302990.06463 | pgbench_tellers  |           450560
 2017-02-05 14:56:30.064628+01 | 1486302990.06463 | pgbench_history  |        968073216
 2017-02-05 14:56:30.064628+01 | 1486302990.06463 | pgbench_branches |            40960

 2017-02-05 14:56:31.138591+01 | 1486302991.13859 | pgbench_accounts |      13766631424
 2017-02-05 14:56:31.138591+01 | 1486302991.13859 | pgbench_tellers  |           450560
 2017-02-05 14:56:31.138591+01 | 1486302991.13859 | pgbench_history  |        970768384
 2017-02-05 14:56:31.138591+01 | 1486302991.13859 | pgbench_branches |            40960

 2017-02-05 14:56:32.226865+01 | 1486302992.22687 | pgbench_accounts |      13766631424
 2017-02-05 14:56:32.226865+01 | 1486302992.22687 | pgbench_tellers  |           450560
 2017-02-05 14:56:32.226865+01 | 1486302992.22687 | pgbench_history  |        975618048
 2017-02-05 14:56:32.226865+01 | 1486302992.22687 | pgbench_branches |            40960

