 2017-02-06 14:45:34.506371+01 | 1486388734.50637 | 5E/7E3AE000              |          405844713472

 2017-02-06 14:45:35.566904+01 | 1486388735.5669 | 5E/828FA000              |          405917376512

 2017-02-06 14:45:36.627912+01 | 1486388736.62791 | 5E/87C64048              |          406004842568

 2017-02-06 14:45:37.709134+01 | 1486388737.70913 | 5E/8DB1E7C8              |          406104172488

 2017-02-06 14:45:38.785341+01 | 1486388738.78534 | 5E/941868B0              |          406211553456

 2017-02-06 14:45:39.851698+01 | 1486388739.8517 | 5E/9A5EEAF0              |          406316837616

 2017-02-06 14:45:40.9292+01 | 1486388740.9292 | 5E/A0F8C1D8              |          406427582936

 2017-02-06 14:45:42.011389+01 | 1486388742.01139 | 5E/A74F16D0              |          406533904080

 2017-02-06 14:45:43.07785+01 | 1486388743.07785 | 5E/ACD86628              |          406626788904

 2017-02-06 14:45:44.152702+01 | 1486388744.1527 | 5E/B29D0308              |          406723560200

 2017-02-06 14:45:45.226251+01 | 1486388745.22625 | 5E/B81265F0              |          406815139312

 2017-02-06 14:45:46.312789+01 | 1486388746.31279 | 5E/BC9A8000              |          406891167744

 2017-02-06 14:45:47.399315+01 | 1486388747.39932 | 5E/BF3EF910              |          406935501072

 2017-02-06 14:45:48.494119+01 | 1486388748.49412 | 5E/C44C6A58              |          407020268120

 2017-02-06 14:45:49.570448+01 | 1486388749.57045 | 5E/CA576268              |          407121650280

 2017-02-06 14:45:50.649908+01 | 1486388750.64991 | 5E/D0239998              |          407218919832

 2017-02-06 14:45:51.72946+01 | 1486388751.72946 | 5E/D5A5C7F0              |          407311337456

 2017-02-06 14:45:52.804853+01 | 1486388752.80485 | 5E/DB7FD810              |          407409514512

 2017-02-06 14:45:53.887445+01 | 1486388753.88744 | 5E/E1827F18              |          407510351640

 2017-02-06 14:45:54.962985+01 | 1486388754.96299 | 5E/E76CF4C0              |          407609603264

 2017-02-06 14:45:56.046445+01 | 1486388756.04644 | 5E/ED590AE0              |          407708961504

 2017-02-06 14:45:57.112199+01 | 1486388757.1122 | 5E/F32023A8              |          407805895592

 2017-02-06 14:45:58.196863+01 | 1486388758.19686 | 5E/F8E1AC40              |          407902465088

 2017-02-06 14:45:59.269583+01 | 1486388759.26958 | 5E/FE709678              |          407995717240

 2017-02-06 14:46:00.348492+01 | 1486388760.34849 | 5F/3FBC2E8               |          408088724200

 2017-02-06 14:46:01.435368+01 | 1486388761.43537 | 5F/998EBE0               |          408182909920

 2017-02-06 14:46:02.510197+01 | 1486388762.5102 | 5F/F521720               |          408278931232

 2017-02-06 14:46:03.596135+01 | 1486388763.59613 | 5F/152741B8              |          408376787384

 2017-02-06 14:46:04.665817+01 | 1486388764.66582 | 5F/1A9C27F0              |          408468334576

 2017-02-06 14:46:05.736994+01 | 1486388765.73699 | 5F/201A1FB8              |          408560476088

 2017-02-06 14:46:06.821889+01 | 1486388766.82189 | 5F/25AFFAF8              |          408654183160

 2017-02-06 14:46:07.898657+01 | 1486388767.89866 | 5F/2AF2C928              |          408742447400

 2017-02-06 14:46:08.981705+01 | 1486388768.9817 | 5F/30A62EF0              |          408838090480

 2017-02-06 14:46:10.058311+01 | 1486388770.05831 | 5F/358CD9D0              |          408920316368

 2017-02-06 14:46:11.134216+01 | 1486388771.13422 | 5F/3AECB6D8              |          409010484952

 2017-02-06 14:46:12.209031+01 | 1486388772.20903 | 5F/402F7700              |          409098745600

 2017-02-06 14:46:13.280297+01 | 1486388773.2803 | 5F/454877B8              |          409184270264

 2017-02-06 14:46:14.359602+01 | 1486388774.3596 | 5F/4A7845E8              |          409271289320

 2017-02-06 14:46:15.433121+01 | 1486388775.43312 | 5F/4F191BA8              |          409348938664

 2017-02-06 14:46:16.503038+01 | 1486388776.50304 | 5F/539BB408              |          409424606216

 2017-02-06 14:46:17.579665+01 | 1486388777.57966 | 5F/57F7C8F8              |          409497749752

 2017-02-06 14:46:18.672237+01 | 1486388778.67224 | 5F/5C472148              |          409570058568

 2017-02-06 14:46:19.745551+01 | 1486388779.74555 | 5F/607E53D0              |          409640784848

 2017-02-06 14:46:20.827933+01 | 1486388780.82793 | 5F/64B26538              |          409711306040

 2017-02-06 14:46:21.914355+01 | 1486388781.91436 | 5F/695C1440              |          409789535296

 2017-02-06 14:46:22.985568+01 | 1486388782.98557 | 5F/6DFF50D8              |          409867342040

 2017-02-06 14:46:24.058154+01 | 1486388784.05815 | 5F/730BAA60              |          409952037472

 2017-02-06 14:46:25.137896+01 | 1486388785.1379 | 5F/77FE4BC8              |          410035047368

 2017-02-06 14:46:26.227151+01 | 1486388786.22715 | 5F/7C761C88              |          410110008456

 2017-02-06 14:46:27.313211+01 | 1486388787.31321 | 5F/80D363A0              |          410183230368

 2017-02-06 14:46:28.390796+01 | 1486388788.3908 | 5F/85167DF8              |          410254736888

 2017-02-06 14:46:29.458663+01 | 1486388789.45866 | 5F/88BD18C0              |          410315987136

 2017-02-06 14:46:30.533458+01 | 1486388790.53346 | 5F/8D0F7210              |          410388492816

 2017-02-06 14:46:31.607316+01 | 1486388791.60732 | 5F/9172A6B0              |          410462103216

 2017-02-06 14:46:32.691888+01 | 1486388792.69189 | 5F/95BE0F28              |          410534154024

 2017-02-06 14:46:33.765379+01 | 1486388793.76538 | 5F/99BBA5A0              |          410601104800

 2017-02-06 14:46:34.851524+01 | 1486388794.85152 | 5F/9E12BCD0              |          410673921232

 2017-02-06 14:46:35.926008+01 | 1486388795.92601 | 5F/A26E8320              |          410747044640

 2017-02-06 14:46:36.995541+01 | 1486388796.99554 | 5F/A6A55A88              |          410817747592

 2017-02-06 14:46:38.060167+01 | 1486388798.06017 | 5F/AA819E90              |          410882514576

 2017-02-06 14:46:39.135244+01 | 1486388799.13524 | 5F/AE980C80              |          410951093376

 2017-02-06 14:46:40.210054+01 | 1486388800.21005 | 5F/B2ADD998              |          411019631000

 2017-02-06 14:46:41.294744+01 | 1486388801.29474 | 5F/B6C66DD0              |          411088350672

 2017-02-06 14:46:42.37543+01 | 1486388802.37543 | 5F/BAFE34C8              |          411159114952

 2017-02-06 14:46:43.45472+01 | 1486388803.45472 | 5F/BF806720              |          411234756384

 2017-02-06 14:46:44.526661+01 | 1486388804.52666 | 5F/C4144120              |          411311554848

 2017-02-06 14:46:45.597135+01 | 1486388805.59714 | 5F/C88AE568              |          411386439016

 2017-02-06 14:46:46.657837+01 | 1486388806.65784 | 5F/CCF32500              |          411460379904

 2017-02-06 14:46:47.728064+01 | 1486388807.72806 | 5F/D0B6CA00              |          411523533312

 2017-02-06 14:46:48.797158+01 | 1486388808.79716 | 5F/D51F5F10              |          411597496080

 2017-02-06 14:46:49.883543+01 | 1486388809.88354 | 5F/D9476710              |          411667228432

 2017-02-06 14:46:50.954861+01 | 1486388810.95486 | 5F/DD935BF8              |          411739315192

 2017-02-06 14:46:52.031962+01 | 1486388812.03196 | 5F/E1DFA348              |          411811423048

 2017-02-06 14:46:53.106387+01 | 1486388813.10639 | 5F/E62F3C18              |          411883748376

 2017-02-06 14:46:54.19028+01 | 1486388814.19028 | 5F/EA7613B0              |          411955499952

 2017-02-06 14:46:55.260257+01 | 1486388815.26026 | 5F/EEB2D7C8              |          412026591176

 2017-02-06 14:46:56.328931+01 | 1486388816.32893 | 5F/F2E51340              |          412096992064

 2017-02-06 14:46:57.403108+01 | 1486388817.40311 | 5F/F6FE92C8              |          412165771976

 2017-02-06 14:46:58.475949+01 | 1486388818.47595 | 5F/FAA4E290              |          412227003024

 2017-02-06 14:46:59.547164+01 | 1486388819.54716 | 5F/FE929E88              |          412292914824

 2017-02-06 14:47:00.627318+01 | 1486388820.62732 | 60/2B7E888               |          412362467464

 2017-02-06 14:47:01.717508+01 | 1486388821.71751 | 60/6DB1018               |          412431880216

 2017-02-06 14:47:02.795349+01 | 1486388822.79535 | 60/AE7FD28               |          412499836200

 2017-02-06 14:47:03.871024+01 | 1486388823.87102 | 60/ED6A888               |          412565809288

 2017-02-06 14:47:04.945434+01 | 1486388824.94543 | 60/12D59B38              |          412632849208

 2017-02-06 14:47:06.018491+01 | 1486388826.01849 | 60/16869000              |          412694777856

 2017-02-06 14:47:07.104958+01 | 1486388827.10496 | 60/19C731A8              |          412749345192

 2017-02-06 14:47:08.184528+01 | 1486388828.18453 | 60/1D474DD8              |          412808072664

 2017-02-06 14:47:09.252922+01 | 1486388829.25292 | 60/20B88B78              |          412865825656

 2017-02-06 14:47:10.332275+01 | 1486388830.33227 | 60/242F2388              |          412923929480

 2017-02-06 14:47:11.420365+01 | 1486388831.42037 | 60/27B2F938              |          412982901048

 2017-02-06 14:47:12.495237+01 | 1486388832.49524 | 60/2ADB3620              |          413035869728

 2017-02-06 14:47:13.572363+01 | 1486388833.57236 | 60/2E875330              |          413097481008

 2017-02-06 14:47:14.645406+01 | 1486388834.64541 | 60/3249A690              |          413160547984

 2017-02-06 14:47:15.722109+01 | 1486388835.72211 | 60/35BE9E08              |          413218545160

 2017-02-06 14:47:16.804471+01 | 1486388836.80447 | 60/393B1518              |          413277033752

 2017-02-06 14:47:17.883719+01 | 1486388837.88372 | 60/3CE6F8B8              |          413338630328

 2017-02-06 14:47:18.963678+01 | 1486388838.96368 | 60/409A9FA0              |          413400735648

 2017-02-06 14:47:20.025715+01 | 1486388840.02572 | 60/43E0B4C0              |          413455660224

 2017-02-06 14:47:21.113381+01 | 1486388841.11338 | 60/472C0A50              |          413510928976

 2017-02-06 14:47:22.186423+01 | 1486388842.18642 | 60/4A9E0728              |          413568730920

 2017-02-06 14:47:23.265094+01 | 1486388843.26509 | 60/4DEDAA28              |          413624281640

 2017-02-06 14:47:24.346697+01 | 1486388844.3467 | 60/51607760              |          413682136928

 2017-02-06 14:47:25.416626+01 | 1486388845.41663 | 60/548B55A8              |          413735277992

 2017-02-06 14:47:26.490444+01 | 1486388846.49044 | 60/57F23E50              |          413792353872

 2017-02-06 14:47:27.562857+01 | 1486388847.56286 | 60/5B2BF410              |          413846467600

 2017-02-06 14:47:28.635476+01 | 1486388848.63548 | 60/5E733398              |          413901468568

 2017-02-06 14:47:29.718756+01 | 1486388849.71876 | 60/618A0B20              |          413953297184

 2017-02-06 14:47:30.794309+01 | 1486388850.79431 | 60/64EADAA8              |          414009973416

 2017-02-06 14:47:31.873383+01 | 1486388851.87338 | 60/681E3460              |          414063670368

 2017-02-06 14:47:32.948563+01 | 1486388852.94856 | 60/6B1A40C0              |          414113743040

 2017-02-06 14:47:34.026788+01 | 1486388854.02679 | 60/6E3F4A78              |          414166502008

 2017-02-06 14:47:35.100748+01 | 1486388855.10075 | 60/713984A8              |          414216455336

 2017-02-06 14:47:36.17588+01 | 1486388856.17588 | 60/744BD0F0              |          414267986160

 2017-02-06 14:47:37.252542+01 | 1486388857.25254 | 60/77138D70              |          414314630512

 2017-02-06 14:47:38.315289+01 | 1486388858.31529 | 60/79FCA2C0              |          414363460288

 2017-02-06 14:47:39.399564+01 | 1486388859.39956 | 60/7D2F34A8              |          414417106088

 2017-02-06 14:47:40.472995+01 | 1486388860.473 | 60/8023A7F8              |          414466680824

 2017-02-06 14:47:41.547303+01 | 1486388861.5473 | 60/82F53B18              |          414513969944

 2017-02-06 14:47:42.618805+01 | 1486388862.6188 | 60/85D852E0              |          414562407136

 2017-02-06 14:47:43.697668+01 | 1486388863.69767 | 60/88EA4650              |          414613915216

 2017-02-06 14:47:44.770886+01 | 1486388864.77089 | 60/8BB65688              |          414660843144

 2017-02-06 14:47:45.841225+01 | 1486388865.84122 | 60/8EB04320              |          414710776608

 2017-02-06 14:47:46.927745+01 | 1486388866.92775 | 60/9180F108              |          414758007048

 2017-02-06 14:47:48.005557+01 | 1486388868.00556 | 60/94280B48              |          414802512712

 2017-02-06 14:47:49.078103+01 | 1486388869.0781 | 60/97112660              |          414851343968

 2017-02-06 14:47:50.147804+01 | 1486388870.1478 | 60/99DE9980              |          414898362752

 2017-02-06 14:47:51.218525+01 | 1486388871.21852 | 60/9CBF9F20              |          414946664224

 2017-02-06 14:47:52.290655+01 | 1486388872.29065 | 60/9F4DC428              |          414989534248

 2017-02-06 14:47:53.363994+01 | 1486388873.36399 | 60/A21FD8D8              |          415036856536

 2017-02-06 14:47:54.434441+01 | 1486388874.43444 | 60/A4C7FB90              |          415081429904

 2017-02-06 14:47:55.50956+01 | 1486388875.50956 | 60/A75A2E08              |          415124565512

 2017-02-06 14:47:56.584027+01 | 1486388876.58403 | 60/AA28BA18              |          415171656216

 2017-02-06 14:47:57.665505+01 | 1486388877.6655 | 60/ACC77EA8              |          415215615656

 2017-02-06 14:47:58.738535+01 | 1486388878.73853 | 60/AF721BA0              |          415260351392

 2017-02-06 14:47:59.815746+01 | 1486388879.81575 | 60/B1F6D888              |          415302604936

 2017-02-06 14:48:00.904693+01 | 1486388880.90469 | 60/B4A5C308              |          415347622664

 2017-02-06 14:48:01.994417+01 | 1486388881.99442 | 60/B73C0BB0              |          415391026096

 2017-02-06 14:48:03.073783+01 | 1486388883.07378 | 60/B9A496E0              |          415431431904

 2017-02-06 14:48:04.149896+01 | 1486388884.1499 | 60/BC5934B0              |          415476823216

 2017-02-06 14:48:05.233984+01 | 1486388885.23398 | 60/BEDB7AA8              |          415518915240

 2017-02-06 14:48:06.311001+01 | 1486388886.311 | 60/C1632468              |          415561360488

 2017-02-06 14:48:07.400062+01 | 1486388887.40006 | 60/C3EA4708              |          415603771144

 2017-02-06 14:48:08.471628+01 | 1486388888.47163 | 60/C6569158              |          415644422488

 2017-02-06 14:48:09.557318+01 | 1486388889.55732 | 60/C8E1BEC8              |          415687098056

 2017-02-06 14:48:10.637423+01 | 1486388890.63742 | 60/CB36E6F0              |          415726233328

 2017-02-06 14:48:11.721914+01 | 1486388891.72191 | 60/CDBDFDD8              |          415768640984

 2017-02-06 14:48:12.794499+01 | 1486388892.7945 | 60/D00D61F8              |          415807398392

 2017-02-06 14:48:13.871652+01 | 1486388893.87165 | 60/D262E168              |          415846556008

 2017-02-06 14:48:14.950369+01 | 1486388894.95037 | 60/D4E7F578              |          415888840200

 2017-02-06 14:48:16.025057+01 | 1486388896.02506 | 60/D746DF00              |          415928606464

 2017-02-06 14:48:17.093271+01 | 1486388897.09327 | 60/D9A94208              |          415968608776

 2017-02-06 14:48:18.167117+01 | 1486388898.16712 | 60/DBDA6A40              |          416005384768

 2017-02-06 14:48:19.246621+01 | 1486388899.24662 | 60/DE28DB80              |          416044080000

 2017-02-06 14:48:20.332303+01 | 1486388900.3323 | 60/E07BC270              |          416083067504

 2017-02-06 14:48:21.400752+01 | 1486388901.40075 | 60/E2A0FE98              |          416119062168

 2017-02-06 14:48:22.468322+01 | 1486388902.46832 | 60/E5067BD0              |          416159267792

 2017-02-06 14:48:23.538221+01 | 1486388903.53822 | 60/E74C3A90              |          416197393040

 2017-02-06 14:48:24.604616+01 | 1486388904.60462 | 60/E972A4C0              |          416233465024

 2017-02-06 14:48:25.687491+01 | 1486388905.68749 | 60/EBC4DEA0              |          416272408224

 2017-02-06 14:48:26.764548+01 | 1486388906.76455 | 60/EDE810A0              |          416308269216

 2017-02-06 14:48:27.837315+01 | 1486388907.83732 | 60/F008E2C0              |          416343974592

 2017-02-06 14:48:28.919596+01 | 1486388908.9196 | 60/F249C000              |          416381779968

 2017-02-06 14:48:30.005229+01 | 1486388910.00523 | 60/F47EB990              |          416418806160

 2017-02-06 14:48:31.078699+01 | 1486388911.0787 | 60/F6CBC0A8              |          416457408680

 2017-02-06 14:48:32.171923+01 | 1486388912.17192 | 60/F8E39510              |          416492524816

 2017-02-06 14:48:33.236862+01 | 1486388913.23686 | 60/FB0BD2F0              |          416528716528

 2017-02-06 14:48:34.316705+01 | 1486388914.3167 | 60/FD27DB80              |          416564108160

 2017-02-06 14:48:35.383672+01 | 1486388915.38367 | 60/FF086338              |          416595600184

 2017-02-06 14:48:36.46059+01 | 1486388916.46059 | 61/EFF578                |          416627553656

 2017-02-06 14:48:37.536754+01 | 1486388917.53675 | 61/27E3890               |          416653654160

 2017-02-06 14:48:38.619373+01 | 1486388918.61937 | 61/4291BE0               |          416681630688

 2017-02-06 14:48:39.712953+01 | 1486388919.71295 | 61/5E6AEB0               |          416710831792

 2017-02-06 14:48:40.78861+01 | 1486388920.78861 | 61/7E93E60               |          416744554080

 2017-02-06 14:48:41.859643+01 | 1486388921.85964 | 61/9CB0468               |          416776127592

 2017-02-06 14:48:42.935137+01 | 1486388922.93514 | 61/BD5C488               |          416810386568

 2017-02-06 14:48:44.025364+01 | 1486388924.02536 | 61/DD544E0               |          416843908320

 2017-02-06 14:48:45.114825+01 | 1486388925.11483 | 61/FEB1A90               |          416878893712

 2017-02-06 14:48:46.189207+01 | 1486388926.18921 | 61/11EDFD20              |          416912637216

 2017-02-06 14:48:47.27071+01 | 1486388927.27071 | 61/13F60EE0              |          416946720480

 2017-02-06 14:48:48.341257+01 | 1486388928.34126 | 61/1608D380              |          416981504896

 2017-02-06 14:48:49.415179+01 | 1486388929.41518 | 61/17F05C58              |          417013455960

 2017-02-06 14:48:50.498076+01 | 1486388930.49808 | 61/19D37988              |          417045117320

 2017-02-06 14:48:51.572282+01 | 1486388931.57228 | 61/1BBCDCF8              |          417077189880

 2017-02-06 14:48:52.643761+01 | 1486388932.64376 | 61/1DA65C58              |          417109269592

 2017-02-06 14:48:53.710757+01 | 1486388933.71076 | 61/1F641718              |          417138480920

 2017-02-06 14:48:54.791029+01 | 1486388934.79103 | 61/2130D160              |          417168675168

 2017-02-06 14:48:55.871598+01 | 1486388935.8716 | 61/2311FA70              |          417200208496

 2017-02-06 14:48:56.945716+01 | 1486388936.94572 | 61/250177B0              |          417232680880

 2017-02-06 14:48:58.035008+01 | 1486388938.03501 | 61/26D37AC8              |          417263221448

 2017-02-06 14:48:59.126413+01 | 1486388939.12641 | 61/28C3DDB8              |          417295752632

 2017-02-06 14:49:00.204399+01 | 1486388940.2044 | 61/2A8F1B48              |          417325849616

 2017-02-06 14:49:01.276928+01 | 1486388941.27693 | 61/2C4F6EC8              |          417355230920

 2017-02-06 14:49:02.342917+01 | 1486388942.34292 | 61/2E25B090              |          417386049680

 2017-02-06 14:49:03.415912+01 | 1486388943.41591 | 61/2FE0B9E0              |          417415084512

 2017-02-06 14:49:04.493456+01 | 1486388944.49346 | 61/319EC6F8              |          417444316920

 2017-02-06 14:49:05.580626+01 | 1486388945.58063 | 61/337D4B00              |          417475676928

 2017-02-06 14:49:06.649006+01 | 1486388946.64901 | 61/3533BDC0              |          417504411072

 2017-02-06 14:49:07.71871+01 | 1486388947.71871 | 61/36E66C60              |          417532898400

 2017-02-06 14:49:08.79209+01 | 1486388948.79209 | 61/38AB27D8              |          417562568664

 2017-02-06 14:49:09.875196+01 | 1486388949.8752 | 61/3A6402E0              |          417591460576

 2017-02-06 14:49:10.959485+01 | 1486388950.95949 | 61/3C2C1FB8              |          417621352376

 2017-02-06 14:49:12.041508+01 | 1486388952.04151 | 61/3DD50308              |          417649197832

 2017-02-06 14:49:13.113443+01 | 1486388953.11344 | 61/3F9C5B78              |          417679039352

 2017-02-06 14:49:14.203373+01 | 1486388954.20337 | 61/416CDB18              |          417709480728

 2017-02-06 14:49:15.2843+01 | 1486388955.2843 | 61/43154858              |          417737295960

 2017-02-06 14:49:16.359124+01 | 1486388956.35912 | 61/44C5D890              |          417765644432

 2017-02-06 14:49:17.440568+01 | 1486388957.44057 | 61/466E6890              |          417793468560

 2017-02-06 14:49:18.515612+01 | 1486388958.51561 | 61/47FC55B0              |          417819547056

 2017-02-06 14:49:19.594498+01 | 1486388959.5945 | 61/49B77608              |          417848587784

 2017-02-06 14:49:20.67346+01 | 1486388960.67346 | 61/4B5691E8              |          417875792360

 2017-02-06 14:49:21.750878+01 | 1486388961.75088 | 61/4CF07F38              |          417902657336

 2017-02-06 14:49:22.836911+01 | 1486388962.83691 | 61/4E984B90              |          417930431376

 2017-02-06 14:49:23.922673+01 | 1486388963.92267 | 61/50320E80              |          417957285504

 2017-02-06 14:49:24.991541+01 | 1486388964.99154 | 61/51B6A610              |          417982752272

 2017-02-06 14:49:26.076303+01 | 1486388966.0763 | 61/53628A00              |          418010794496

 2017-02-06 14:49:27.147043+01 | 1486388967.14704 | 61/54FDDE80              |          418037751424

 2017-02-06 14:49:28.229208+01 | 1486388968.22921 | 61/5696EEE8              |          418064559848

 2017-02-06 14:49:29.308601+01 | 1486388969.3086 | 61/584C9F00              |          418093244160

 2017-02-06 14:49:30.389956+01 | 1486388970.38996 | 61/59E61070              |          418120077424

 2017-02-06 14:49:31.482243+01 | 1486388971.48224 | 61/5B76CA68              |          418146339432

 2017-02-06 14:49:32.564617+01 | 1486388972.56462 | 61/5D236438              |          418174428216

 2017-02-06 14:49:33.631216+01 | 1486388973.63122 | 61/5EB4B7E8              |          418200729576

 2017-02-06 14:49:34.693393+01 | 1486388974.69339 | 61/6036E700              |          418226038528

 2017-02-06 14:49:35.783109+01 | 1486388975.78311 | 61/61BF6470              |          418251760752

 2017-02-06 14:49:36.856405+01 | 1486388976.85641 | 61/634569A0              |          418277321120

 2017-02-06 14:49:37.930902+01 | 1486388977.9309 | 61/64AFB2B8              |          418301063864

 2017-02-06 14:49:38.990303+01 | 1486388978.9903 | 61/66108BE8              |          418324188136

 2017-02-06 14:49:40.076437+01 | 1486388980.07644 | 61/679ABE90              |          418350022288

 2017-02-06 14:49:41.142631+01 | 1486388981.14263 | 61/6907D028              |          418373947432

 2017-02-06 14:49:42.231774+01 | 1486388982.23177 | 61/6A6D4E50              |          418397376080

 2017-02-06 14:49:43.31416+01 | 1486388983.31416 | 61/6BF5F0F0              |          418423107824

 2017-02-06 14:49:44.405692+01 | 1486388984.40569 | 61/6D6664D0              |          418447254736

 2017-02-06 14:49:45.477325+01 | 1486388985.47732 | 61/6ECB7850              |          418470656080

 2017-02-06 14:49:46.544679+01 | 1486388986.54468 | 61/70457F90              |          418495430544

 2017-02-06 14:49:47.616332+01 | 1486388987.61633 | 61/71A5AC68              |          418518510696

 2017-02-06 14:49:48.690406+01 | 1486388988.69041 | 61/72F5C9E8              |          418540538344

 2017-02-06 14:49:49.77192+01 | 1486388989.77192 | 61/7468CC00              |          418564852736

 2017-02-06 14:49:50.852917+01 | 1486388990.85292 | 61/75CE5DB0              |          418588286384

 2017-02-06 14:49:51.938644+01 | 1486388991.93864 | 61/7720D258              |          418610467416

 2017-02-06 14:49:53.025565+01 | 1486388993.02556 | 61/78879790              |          418633979792

 2017-02-06 14:49:54.111579+01 | 1486388994.11158 | 61/79E05B30              |          418656574256

 2017-02-06 14:49:55.189644+01 | 1486388995.18964 | 61/7B3D3A70              |          418679437936

 2017-02-06 14:49:56.282881+01 | 1486388996.28288 | 61/7C9BA830              |          418702403632

 2017-02-06 14:49:57.364407+01 | 1486388997.36441 | 61/7DFA9928              |          418725402920

 2017-02-06 14:49:58.43558+01 | 1486388998.43558 | 61/7F5E5F28              |          418748718888

 2017-02-06 14:49:59.499518+01 | 1486388999.49952 | 61/80AA21A8              |          418770461096

 2017-02-06 14:50:00.571565+01 | 1486389000.57156 | 61/81F84898              |          418792360088

 2017-02-06 14:50:01.642041+01 | 1486389001.64204 | 61/833A6CC0              |          418813471936

 2017-02-06 14:50:02.717453+01 | 1486389002.71745 | 61/847B8528              |          418834515240

 2017-02-06 14:50:03.788195+01 | 1486389003.78819 | 61/85C8F930              |          418856368432

 2017-02-06 14:50:04.866077+01 | 1486389004.86608 | 61/87189028              |          418878361640

 2017-02-06 14:50:05.94112+01 | 1486389005.94112 | 61/884D2488              |          418898584712

 2017-02-06 14:50:07.017775+01 | 1486389007.01778 | 61/898F2B68              |          418919689064

 2017-02-06 14:50:08.091627+01 | 1486389008.09163 | 61/8AD83FE0              |          418941255648

 2017-02-06 14:50:09.165972+01 | 1486389009.16597 | 61/8BFEAB40              |          418960550720

 2017-02-06 14:50:10.250102+01 | 1486389010.2501 | 61/8D422870              |          418981750896

 2017-02-06 14:50:11.336175+01 | 1486389011.33617 | 61/8E627EF8              |          419000647416

 2017-02-06 14:50:12.42783+01 | 1486389012.42783 | 61/8F9C9AE0              |          419021232864

 2017-02-06 14:50:13.508834+01 | 1486389013.50883 | 61/90CABF60              |          419041034080

 2017-02-06 14:50:14.590528+01 | 1486389014.59053 | 61/92051208              |          419061633544

 2017-02-06 14:50:15.671079+01 | 1486389015.67108 | 61/93193F38              |          419079733048

 2017-02-06 14:50:16.743513+01 | 1486389016.74351 | 61/9447D228              |          419099562536

 2017-02-06 14:50:17.831193+01 | 1486389017.83119 | 61/95725C50              |          419119127632

 2017-02-06 14:50:18.914233+01 | 1486389018.91423 | 61/9690D4B8              |          419137901752

 2017-02-06 14:50:20.002663+01 | 1486389020.00266 | 61/97C7EBF0              |          419158289392

 2017-02-06 14:50:21.082348+01 | 1486389021.08235 | 61/98EDE960              |          419177556320

 2017-02-06 14:50:22.151933+01 | 1486389022.15193 | 61/99F734E8              |          419194942696

 2017-02-06 14:50:23.224962+01 | 1486389023.22496 | 61/9B1CFAC8              |          419214195400

 2017-02-06 14:50:24.294224+01 | 1486389024.29422 | 61/9C3760E0              |          419232702688

 2017-02-06 14:50:25.372406+01 | 1486389025.37241 | 61/9D4EDC08              |          419251018760

 2017-02-06 14:50:26.451518+01 | 1486389026.45152 | 61/9E716AA8              |          419270060712

 2017-02-06 14:50:27.521161+01 | 1486389027.52116 | 61/9F83BA40              |          419288037952

 2017-02-06 14:50:28.587013+01 | 1486389028.58701 | 61/A098E190              |          419306201488

 2017-02-06 14:50:29.656726+01 | 1486389029.65673 | 61/A1A33210              |          419323654672

 2017-02-06 14:50:30.728432+01 | 1486389030.72843 | 61/A2AB1B08              |          419340950280

 2017-02-06 14:50:31.800727+01 | 1486389031.80073 | 61/A3C16A98              |          419359189656

 2017-02-06 14:50:32.88003+01 | 1486389032.88003 | 61/A4C7E1B0              |          419376390576

 2017-02-06 14:50:33.958387+01 | 1486389033.95839 | 61/A5EC6D40              |          419395562816

