 2017-02-03 20:47:07.522366+01 | 1486151227.52237 | pgbench_accounts |      13429514240
 2017-02-03 20:47:07.522366+01 | 1486151227.52237 | pgbench_tellers  |           450560
 2017-02-03 20:47:07.522366+01 | 1486151227.52237 | pgbench_history  |                0
 2017-02-03 20:47:07.522366+01 | 1486151227.52237 | pgbench_branches |            40960

 2017-02-03 20:47:08.608754+01 | 1486151228.60875 | pgbench_accounts |      13429514240
 2017-02-03 20:47:08.608754+01 | 1486151228.60875 | pgbench_tellers  |           450560
 2017-02-03 20:47:08.608754+01 | 1486151228.60875 | pgbench_history  |                0
 2017-02-03 20:47:08.608754+01 | 1486151228.60875 | pgbench_branches |            40960

 2017-02-03 20:47:09.711368+01 | 1486151229.71137 | pgbench_accounts |      13429514240
 2017-02-03 20:47:09.711368+01 | 1486151229.71137 | pgbench_tellers  |           450560
 2017-02-03 20:47:09.711368+01 | 1486151229.71137 | pgbench_history  |                0
 2017-02-03 20:47:09.711368+01 | 1486151229.71137 | pgbench_branches |            40960

 2017-02-03 20:47:10.806407+01 | 1486151230.80641 | pgbench_accounts |      13429514240
 2017-02-03 20:47:10.806407+01 | 1486151230.80641 | pgbench_tellers  |           450560
 2017-02-03 20:47:10.806407+01 | 1486151230.80641 | pgbench_history  |                0
 2017-02-03 20:47:10.806407+01 | 1486151230.80641 | pgbench_branches |            40960

 2017-02-03 20:47:11.897919+01 | 1486151231.89792 | pgbench_accounts |      13429514240
 2017-02-03 20:47:11.897919+01 | 1486151231.89792 | pgbench_tellers  |           450560
 2017-02-03 20:47:11.897919+01 | 1486151231.89792 | pgbench_history  |                0
 2017-02-03 20:47:11.897919+01 | 1486151231.89792 | pgbench_branches |            40960

 2017-02-03 20:47:12.997904+01 | 1486151232.9979 | pgbench_accounts |      13429514240
 2017-02-03 20:47:12.997904+01 | 1486151232.9979 | pgbench_tellers  |           450560
 2017-02-03 20:47:12.997904+01 | 1486151232.9979 | pgbench_history  |                0
 2017-02-03 20:47:12.997904+01 | 1486151232.9979 | pgbench_branches |            40960

 2017-02-03 20:47:14.086234+01 | 1486151234.08623 | pgbench_accounts |      13429514240
 2017-02-03 20:47:14.086234+01 | 1486151234.08623 | pgbench_tellers  |           450560
 2017-02-03 20:47:14.086234+01 | 1486151234.08623 | pgbench_history  |                0
 2017-02-03 20:47:14.086234+01 | 1486151234.08623 | pgbench_branches |            40960

 2017-02-03 20:47:15.18558+01 | 1486151235.18558 | pgbench_accounts |      13429514240
 2017-02-03 20:47:15.18558+01 | 1486151235.18558 | pgbench_tellers  |           450560
 2017-02-03 20:47:15.18558+01 | 1486151235.18558 | pgbench_history  |                0
 2017-02-03 20:47:15.18558+01 | 1486151235.18558 | pgbench_branches |            40960

 2017-02-03 20:47:16.283498+01 | 1486151236.2835 | pgbench_accounts |      13429514240
 2017-02-03 20:47:16.283498+01 | 1486151236.2835 | pgbench_tellers  |           450560
 2017-02-03 20:47:16.283498+01 | 1486151236.2835 | pgbench_history  |                0
 2017-02-03 20:47:16.283498+01 | 1486151236.2835 | pgbench_branches |            40960

 2017-02-03 20:47:17.379043+01 | 1486151237.37904 | pgbench_accounts |      13429514240
 2017-02-03 20:47:17.379043+01 | 1486151237.37904 | pgbench_tellers  |           450560
 2017-02-03 20:47:17.379043+01 | 1486151237.37904 | pgbench_history  |                0
 2017-02-03 20:47:17.379043+01 | 1486151237.37904 | pgbench_branches |            40960

 2017-02-03 20:47:18.471791+01 | 1486151238.47179 | pgbench_accounts |      13429514240
 2017-02-03 20:47:18.471791+01 | 1486151238.47179 | pgbench_tellers  |           450560
 2017-02-03 20:47:18.471791+01 | 1486151238.47179 | pgbench_history  |                0
 2017-02-03 20:47:18.471791+01 | 1486151238.47179 | pgbench_branches |            40960

 2017-02-03 20:47:19.573086+01 | 1486151239.57309 | pgbench_accounts |      13429514240
 2017-02-03 20:47:19.573086+01 | 1486151239.57309 | pgbench_tellers  |           450560
 2017-02-03 20:47:19.573086+01 | 1486151239.57309 | pgbench_history  |                0
 2017-02-03 20:47:19.573086+01 | 1486151239.57309 | pgbench_branches |            40960

 2017-02-03 20:47:20.670355+01 | 1486151240.67036 | pgbench_accounts |      13429514240
 2017-02-03 20:47:20.670355+01 | 1486151240.67036 | pgbench_tellers  |           450560
 2017-02-03 20:47:20.670355+01 | 1486151240.67036 | pgbench_history  |                0
 2017-02-03 20:47:20.670355+01 | 1486151240.67036 | pgbench_branches |            40960

 2017-02-03 20:47:21.76263+01 | 1486151241.76263 | pgbench_accounts |      13429514240
 2017-02-03 20:47:21.76263+01 | 1486151241.76263 | pgbench_tellers  |           450560
 2017-02-03 20:47:21.76263+01 | 1486151241.76263 | pgbench_history  |                0
 2017-02-03 20:47:21.76263+01 | 1486151241.76263 | pgbench_branches |            40960

 2017-02-03 20:47:22.854746+01 | 1486151242.85475 | pgbench_accounts |      13429514240
 2017-02-03 20:47:22.854746+01 | 1486151242.85475 | pgbench_tellers  |           450560
 2017-02-03 20:47:22.854746+01 | 1486151242.85475 | pgbench_history  |                0
 2017-02-03 20:47:22.854746+01 | 1486151242.85475 | pgbench_branches |            40960

 2017-02-03 20:47:23.947218+01 | 1486151243.94722 | pgbench_accounts |      13429514240
 2017-02-03 20:47:23.947218+01 | 1486151243.94722 | pgbench_tellers  |           450560
 2017-02-03 20:47:23.947218+01 | 1486151243.94722 | pgbench_history  |                0
 2017-02-03 20:47:23.947218+01 | 1486151243.94722 | pgbench_branches |            40960

 2017-02-03 20:47:25.030136+01 | 1486151245.03014 | pgbench_accounts |      13429514240
 2017-02-03 20:47:25.030136+01 | 1486151245.03014 | pgbench_tellers  |           450560
 2017-02-03 20:47:25.030136+01 | 1486151245.03014 | pgbench_history  |                0
 2017-02-03 20:47:25.030136+01 | 1486151245.03014 | pgbench_branches |            40960

 2017-02-03 20:47:26.122133+01 | 1486151246.12213 | pgbench_accounts |      13429514240
 2017-02-03 20:47:26.122133+01 | 1486151246.12213 | pgbench_tellers  |           450560
 2017-02-03 20:47:26.122133+01 | 1486151246.12213 | pgbench_history  |                0
 2017-02-03 20:47:26.122133+01 | 1486151246.12213 | pgbench_branches |            40960

 2017-02-03 20:47:27.234567+01 | 1486151247.23457 | pgbench_accounts |      13429514240
 2017-02-03 20:47:27.234567+01 | 1486151247.23457 | pgbench_tellers  |           450560
 2017-02-03 20:47:27.234567+01 | 1486151247.23457 | pgbench_history  |                0
 2017-02-03 20:47:27.234567+01 | 1486151247.23457 | pgbench_branches |            40960

 2017-02-03 20:47:28.326875+01 | 1486151248.32687 | pgbench_accounts |      13429514240
 2017-02-03 20:47:28.326875+01 | 1486151248.32687 | pgbench_tellers  |           450560
 2017-02-03 20:47:28.326875+01 | 1486151248.32687 | pgbench_history  |                0
 2017-02-03 20:47:28.326875+01 | 1486151248.32687 | pgbench_branches |            40960

 2017-02-03 20:47:29.4243+01 | 1486151249.4243 | pgbench_accounts |      13429514240
 2017-02-03 20:47:29.4243+01 | 1486151249.4243 | pgbench_tellers  |           450560
 2017-02-03 20:47:29.4243+01 | 1486151249.4243 | pgbench_history  |                0
 2017-02-03 20:47:29.4243+01 | 1486151249.4243 | pgbench_branches |            40960

 2017-02-03 20:47:30.510635+01 | 1486151250.51063 | pgbench_accounts |      13429514240
 2017-02-03 20:47:30.510635+01 | 1486151250.51063 | pgbench_tellers  |           450560
 2017-02-03 20:47:30.510635+01 | 1486151250.51063 | pgbench_history  |                0
 2017-02-03 20:47:30.510635+01 | 1486151250.51063 | pgbench_branches |            40960

 2017-02-03 20:47:31.602146+01 | 1486151251.60215 | pgbench_accounts |      13429514240
 2017-02-03 20:47:31.602146+01 | 1486151251.60215 | pgbench_tellers  |           450560
 2017-02-03 20:47:31.602146+01 | 1486151251.60215 | pgbench_history  |                0
 2017-02-03 20:47:31.602146+01 | 1486151251.60215 | pgbench_branches |            40960

 2017-02-03 20:47:32.694545+01 | 1486151252.69455 | pgbench_accounts |      13429514240
 2017-02-03 20:47:32.694545+01 | 1486151252.69455 | pgbench_tellers  |           450560
 2017-02-03 20:47:32.694545+01 | 1486151252.69455 | pgbench_history  |                0
 2017-02-03 20:47:32.694545+01 | 1486151252.69455 | pgbench_branches |            40960

 2017-02-03 20:47:33.79465+01 | 1486151253.79465 | pgbench_accounts |      13429514240
 2017-02-03 20:47:33.79465+01 | 1486151253.79465 | pgbench_tellers  |           450560
 2017-02-03 20:47:33.79465+01 | 1486151253.79465 | pgbench_history  |                0
 2017-02-03 20:47:33.79465+01 | 1486151253.79465 | pgbench_branches |            40960

 2017-02-03 20:47:34.883185+01 | 1486151254.88318 | pgbench_accounts |      13429514240
 2017-02-03 20:47:34.883185+01 | 1486151254.88318 | pgbench_tellers  |           450560
 2017-02-03 20:47:34.883185+01 | 1486151254.88318 | pgbench_history  |                0
 2017-02-03 20:47:34.883185+01 | 1486151254.88318 | pgbench_branches |            40960

 2017-02-03 20:47:35.981927+01 | 1486151255.98193 | pgbench_accounts |      13429514240
 2017-02-03 20:47:35.981927+01 | 1486151255.98193 | pgbench_tellers  |           450560
 2017-02-03 20:47:35.981927+01 | 1486151255.98193 | pgbench_history  |                0
 2017-02-03 20:47:35.981927+01 | 1486151255.98193 | pgbench_branches |            40960

 2017-02-03 20:47:37.075268+01 | 1486151257.07527 | pgbench_accounts |      13429514240
 2017-02-03 20:47:37.075268+01 | 1486151257.07527 | pgbench_tellers  |           450560
 2017-02-03 20:47:37.075268+01 | 1486151257.07527 | pgbench_history  |                0
 2017-02-03 20:47:37.075268+01 | 1486151257.07527 | pgbench_branches |            40960

 2017-02-03 20:47:38.181933+01 | 1486151258.18193 | pgbench_accounts |      13429514240
 2017-02-03 20:47:38.181933+01 | 1486151258.18193 | pgbench_tellers  |           450560
 2017-02-03 20:47:38.181933+01 | 1486151258.18193 | pgbench_history  |                0
 2017-02-03 20:47:38.181933+01 | 1486151258.18193 | pgbench_branches |            40960

 2017-02-03 20:47:39.277304+01 | 1486151259.2773 | pgbench_accounts |      13429514240
 2017-02-03 20:47:39.277304+01 | 1486151259.2773 | pgbench_tellers  |           450560
 2017-02-03 20:47:39.277304+01 | 1486151259.2773 | pgbench_history  |                0
 2017-02-03 20:47:39.277304+01 | 1486151259.2773 | pgbench_branches |            40960

 2017-02-03 20:47:40.369195+01 | 1486151260.36919 | pgbench_accounts |      13429514240
 2017-02-03 20:47:40.369195+01 | 1486151260.36919 | pgbench_tellers  |           450560
 2017-02-03 20:47:40.369195+01 | 1486151260.36919 | pgbench_history  |                0
 2017-02-03 20:47:40.369195+01 | 1486151260.36919 | pgbench_branches |            40960

 2017-02-03 20:47:41.468071+01 | 1486151261.46807 | pgbench_accounts |      13429514240
 2017-02-03 20:47:41.468071+01 | 1486151261.46807 | pgbench_tellers  |           450560
 2017-02-03 20:47:41.468071+01 | 1486151261.46807 | pgbench_history  |                0
 2017-02-03 20:47:41.468071+01 | 1486151261.46807 | pgbench_branches |            40960

 2017-02-03 20:47:42.55674+01 | 1486151262.55674 | pgbench_accounts |      13429514240
 2017-02-03 20:47:42.55674+01 | 1486151262.55674 | pgbench_tellers  |           450560
 2017-02-03 20:47:42.55674+01 | 1486151262.55674 | pgbench_history  |                0
 2017-02-03 20:47:42.55674+01 | 1486151262.55674 | pgbench_branches |            40960

 2017-02-03 20:47:43.657587+01 | 1486151263.65759 | pgbench_accounts |      13429514240
 2017-02-03 20:47:43.657587+01 | 1486151263.65759 | pgbench_tellers  |           450560
 2017-02-03 20:47:43.657587+01 | 1486151263.65759 | pgbench_history  |                0
 2017-02-03 20:47:43.657587+01 | 1486151263.65759 | pgbench_branches |            40960

 2017-02-03 20:47:44.757173+01 | 1486151264.75717 | pgbench_accounts |      13429514240
 2017-02-03 20:47:44.757173+01 | 1486151264.75717 | pgbench_tellers  |           450560
 2017-02-03 20:47:44.757173+01 | 1486151264.75717 | pgbench_history  |                0
 2017-02-03 20:47:44.757173+01 | 1486151264.75717 | pgbench_branches |            40960

 2017-02-03 20:47:45.847645+01 | 1486151265.84765 | pgbench_accounts |      13429514240
 2017-02-03 20:47:45.847645+01 | 1486151265.84765 | pgbench_tellers  |           450560
 2017-02-03 20:47:45.847645+01 | 1486151265.84765 | pgbench_history  |                0
 2017-02-03 20:47:45.847645+01 | 1486151265.84765 | pgbench_branches |            40960

 2017-02-03 20:47:46.942431+01 | 1486151266.94243 | pgbench_accounts |      13429514240
 2017-02-03 20:47:46.942431+01 | 1486151266.94243 | pgbench_tellers  |           450560
 2017-02-03 20:47:46.942431+01 | 1486151266.94243 | pgbench_history  |                0
 2017-02-03 20:47:46.942431+01 | 1486151266.94243 | pgbench_branches |            40960

 2017-02-03 20:47:48.031451+01 | 1486151268.03145 | pgbench_accounts |      13429514240
 2017-02-03 20:47:48.031451+01 | 1486151268.03145 | pgbench_tellers  |           450560
 2017-02-03 20:47:48.031451+01 | 1486151268.03145 | pgbench_history  |                0
 2017-02-03 20:47:48.031451+01 | 1486151268.03145 | pgbench_branches |            40960

 2017-02-03 20:47:49.124591+01 | 1486151269.12459 | pgbench_accounts |      13429514240
 2017-02-03 20:47:49.124591+01 | 1486151269.12459 | pgbench_tellers  |           450560
 2017-02-03 20:47:49.124591+01 | 1486151269.12459 | pgbench_history  |                0
 2017-02-03 20:47:49.124591+01 | 1486151269.12459 | pgbench_branches |            40960

 2017-02-03 20:47:50.22112+01 | 1486151270.22112 | pgbench_accounts |      13429514240
 2017-02-03 20:47:50.22112+01 | 1486151270.22112 | pgbench_tellers  |           450560
 2017-02-03 20:47:50.22112+01 | 1486151270.22112 | pgbench_history  |                0
 2017-02-03 20:47:50.22112+01 | 1486151270.22112 | pgbench_branches |            40960

 2017-02-03 20:47:51.315591+01 | 1486151271.31559 | pgbench_accounts |      13429514240
 2017-02-03 20:47:51.315591+01 | 1486151271.31559 | pgbench_tellers  |           450560
 2017-02-03 20:47:51.315591+01 | 1486151271.31559 | pgbench_history  |                0
 2017-02-03 20:47:51.315591+01 | 1486151271.31559 | pgbench_branches |            40960

 2017-02-03 20:47:52.402761+01 | 1486151272.40276 | pgbench_accounts |      13429514240
 2017-02-03 20:47:52.402761+01 | 1486151272.40276 | pgbench_tellers  |           450560
 2017-02-03 20:47:52.402761+01 | 1486151272.40276 | pgbench_history  |                0
 2017-02-03 20:47:52.402761+01 | 1486151272.40276 | pgbench_branches |            40960

 2017-02-03 20:47:53.494173+01 | 1486151273.49417 | pgbench_accounts |      13429514240
 2017-02-03 20:47:53.494173+01 | 1486151273.49417 | pgbench_tellers  |           450560
 2017-02-03 20:47:53.494173+01 | 1486151273.49417 | pgbench_history  |                0
 2017-02-03 20:47:53.494173+01 | 1486151273.49417 | pgbench_branches |            40960

 2017-02-03 20:47:54.589994+01 | 1486151274.58999 | pgbench_accounts |      13429514240
 2017-02-03 20:47:54.589994+01 | 1486151274.58999 | pgbench_tellers  |           450560
 2017-02-03 20:47:54.589994+01 | 1486151274.58999 | pgbench_history  |                0
 2017-02-03 20:47:54.589994+01 | 1486151274.58999 | pgbench_branches |            40960

 2017-02-03 20:47:55.680961+01 | 1486151275.68096 | pgbench_accounts |      13429514240
 2017-02-03 20:47:55.680961+01 | 1486151275.68096 | pgbench_tellers  |           450560
 2017-02-03 20:47:55.680961+01 | 1486151275.68096 | pgbench_history  |                0
 2017-02-03 20:47:55.680961+01 | 1486151275.68096 | pgbench_branches |            40960

 2017-02-03 20:47:56.773625+01 | 1486151276.77362 | pgbench_accounts |      13429514240
 2017-02-03 20:47:56.773625+01 | 1486151276.77362 | pgbench_tellers  |           450560
 2017-02-03 20:47:56.773625+01 | 1486151276.77362 | pgbench_history  |                0
 2017-02-03 20:47:56.773625+01 | 1486151276.77362 | pgbench_branches |            40960

 2017-02-03 20:47:57.869537+01 | 1486151277.86954 | pgbench_accounts |      13429514240
 2017-02-03 20:47:57.869537+01 | 1486151277.86954 | pgbench_tellers  |           450560
 2017-02-03 20:47:57.869537+01 | 1486151277.86954 | pgbench_history  |                0
 2017-02-03 20:47:57.869537+01 | 1486151277.86954 | pgbench_branches |            40960

 2017-02-03 20:47:58.961854+01 | 1486151278.96185 | pgbench_accounts |      13429514240
 2017-02-03 20:47:58.961854+01 | 1486151278.96185 | pgbench_tellers  |           450560
 2017-02-03 20:47:58.961854+01 | 1486151278.96185 | pgbench_history  |                0
 2017-02-03 20:47:58.961854+01 | 1486151278.96185 | pgbench_branches |            40960

 2017-02-03 20:48:00.052439+01 | 1486151280.05244 | pgbench_accounts |      13429514240
 2017-02-03 20:48:00.052439+01 | 1486151280.05244 | pgbench_tellers  |           450560
 2017-02-03 20:48:00.052439+01 | 1486151280.05244 | pgbench_history  |                0
 2017-02-03 20:48:00.052439+01 | 1486151280.05244 | pgbench_branches |            40960

 2017-02-03 20:48:01.141476+01 | 1486151281.14148 | pgbench_accounts |      13429514240
 2017-02-03 20:48:01.141476+01 | 1486151281.14148 | pgbench_tellers  |           450560
 2017-02-03 20:48:01.141476+01 | 1486151281.14148 | pgbench_history  |                0
 2017-02-03 20:48:01.141476+01 | 1486151281.14148 | pgbench_branches |            40960

 2017-02-03 20:48:02.231299+01 | 1486151282.2313 | pgbench_accounts |      13429514240
 2017-02-03 20:48:02.231299+01 | 1486151282.2313 | pgbench_tellers  |           450560
 2017-02-03 20:48:02.231299+01 | 1486151282.2313 | pgbench_history  |                0
 2017-02-03 20:48:02.231299+01 | 1486151282.2313 | pgbench_branches |            40960

 2017-02-03 20:48:03.330668+01 | 1486151283.33067 | pgbench_accounts |      13429514240
 2017-02-03 20:48:03.330668+01 | 1486151283.33067 | pgbench_tellers  |           450560
 2017-02-03 20:48:03.330668+01 | 1486151283.33067 | pgbench_history  |                0
 2017-02-03 20:48:03.330668+01 | 1486151283.33067 | pgbench_branches |            40960

 2017-02-03 20:48:04.424832+01 | 1486151284.42483 | pgbench_accounts |      13429514240
 2017-02-03 20:48:04.424832+01 | 1486151284.42483 | pgbench_tellers  |           450560
 2017-02-03 20:48:04.424832+01 | 1486151284.42483 | pgbench_history  |                0
 2017-02-03 20:48:04.424832+01 | 1486151284.42483 | pgbench_branches |            40960

 2017-02-03 20:48:05.521697+01 | 1486151285.5217 | pgbench_accounts |      13429514240
 2017-02-03 20:48:05.521697+01 | 1486151285.5217 | pgbench_tellers  |           450560
 2017-02-03 20:48:05.521697+01 | 1486151285.5217 | pgbench_history  |                0
 2017-02-03 20:48:05.521697+01 | 1486151285.5217 | pgbench_branches |            40960

 2017-02-03 20:48:06.619242+01 | 1486151286.61924 | pgbench_accounts |      13429514240
 2017-02-03 20:48:06.619242+01 | 1486151286.61924 | pgbench_tellers  |           450560
 2017-02-03 20:48:06.619242+01 | 1486151286.61924 | pgbench_history  |                0
 2017-02-03 20:48:06.619242+01 | 1486151286.61924 | pgbench_branches |            40960

 2017-02-03 20:48:07.709758+01 | 1486151287.70976 | pgbench_accounts |      13429514240
 2017-02-03 20:48:07.709758+01 | 1486151287.70976 | pgbench_tellers  |           450560
 2017-02-03 20:48:07.709758+01 | 1486151287.70976 | pgbench_history  |                0
 2017-02-03 20:48:07.709758+01 | 1486151287.70976 | pgbench_branches |            40960

 2017-02-03 20:48:08.80293+01 | 1486151288.80293 | pgbench_accounts |      13429514240
 2017-02-03 20:48:08.80293+01 | 1486151288.80293 | pgbench_tellers  |           450560
 2017-02-03 20:48:08.80293+01 | 1486151288.80293 | pgbench_history  |                0
 2017-02-03 20:48:08.80293+01 | 1486151288.80293 | pgbench_branches |            40960

 2017-02-03 20:48:09.896579+01 | 1486151289.89658 | pgbench_accounts |      13429514240
 2017-02-03 20:48:09.896579+01 | 1486151289.89658 | pgbench_tellers  |           450560
 2017-02-03 20:48:09.896579+01 | 1486151289.89658 | pgbench_history  |                0
 2017-02-03 20:48:09.896579+01 | 1486151289.89658 | pgbench_branches |            40960

 2017-02-03 20:48:10.985793+01 | 1486151290.98579 | pgbench_accounts |      13429514240
 2017-02-03 20:48:10.985793+01 | 1486151290.98579 | pgbench_tellers  |           450560
 2017-02-03 20:48:10.985793+01 | 1486151290.98579 | pgbench_history  |                0
 2017-02-03 20:48:10.985793+01 | 1486151290.98579 | pgbench_branches |            40960

 2017-02-03 20:48:12.079141+01 | 1486151292.07914 | pgbench_accounts |      13429514240
 2017-02-03 20:48:12.079141+01 | 1486151292.07914 | pgbench_tellers  |           450560
 2017-02-03 20:48:12.079141+01 | 1486151292.07914 | pgbench_history  |                0
 2017-02-03 20:48:12.079141+01 | 1486151292.07914 | pgbench_branches |            40960

 2017-02-03 20:48:13.176741+01 | 1486151293.17674 | pgbench_accounts |      13429514240
 2017-02-03 20:48:13.176741+01 | 1486151293.17674 | pgbench_tellers  |           450560
 2017-02-03 20:48:13.176741+01 | 1486151293.17674 | pgbench_history  |                0
 2017-02-03 20:48:13.176741+01 | 1486151293.17674 | pgbench_branches |            40960

 2017-02-03 20:48:14.272225+01 | 1486151294.27222 | pgbench_accounts |      13429514240
 2017-02-03 20:48:14.272225+01 | 1486151294.27222 | pgbench_tellers  |           450560
 2017-02-03 20:48:14.272225+01 | 1486151294.27222 | pgbench_history  |                0
 2017-02-03 20:48:14.272225+01 | 1486151294.27222 | pgbench_branches |            40960

 2017-02-03 20:48:15.36805+01 | 1486151295.36805 | pgbench_accounts |      13429514240
 2017-02-03 20:48:15.36805+01 | 1486151295.36805 | pgbench_tellers  |           450560
 2017-02-03 20:48:15.36805+01 | 1486151295.36805 | pgbench_history  |                0
 2017-02-03 20:48:15.36805+01 | 1486151295.36805 | pgbench_branches |            40960

 2017-02-03 20:48:16.461775+01 | 1486151296.46178 | pgbench_accounts |      13429514240
 2017-02-03 20:48:16.461775+01 | 1486151296.46178 | pgbench_tellers  |           450560
 2017-02-03 20:48:16.461775+01 | 1486151296.46178 | pgbench_history  |                0
 2017-02-03 20:48:16.461775+01 | 1486151296.46178 | pgbench_branches |            40960

 2017-02-03 20:48:17.554486+01 | 1486151297.55449 | pgbench_accounts |      13429514240
 2017-02-03 20:48:17.554486+01 | 1486151297.55449 | pgbench_tellers  |           450560
 2017-02-03 20:48:17.554486+01 | 1486151297.55449 | pgbench_history  |                0
 2017-02-03 20:48:17.554486+01 | 1486151297.55449 | pgbench_branches |            40960

 2017-02-03 20:48:18.648791+01 | 1486151298.64879 | pgbench_accounts |      13429514240
 2017-02-03 20:48:18.648791+01 | 1486151298.64879 | pgbench_tellers  |           450560
 2017-02-03 20:48:18.648791+01 | 1486151298.64879 | pgbench_history  |                0
 2017-02-03 20:48:18.648791+01 | 1486151298.64879 | pgbench_branches |            40960

 2017-02-03 20:48:19.73534+01 | 1486151299.73534 | pgbench_accounts |      13429514240
 2017-02-03 20:48:19.73534+01 | 1486151299.73534 | pgbench_tellers  |           450560
 2017-02-03 20:48:19.73534+01 | 1486151299.73534 | pgbench_history  |                0
 2017-02-03 20:48:19.73534+01 | 1486151299.73534 | pgbench_branches |            40960

 2017-02-03 20:48:20.826865+01 | 1486151300.82686 | pgbench_accounts |      13429514240
 2017-02-03 20:48:20.826865+01 | 1486151300.82686 | pgbench_tellers  |           450560
 2017-02-03 20:48:20.826865+01 | 1486151300.82686 | pgbench_history  |                0
 2017-02-03 20:48:20.826865+01 | 1486151300.82686 | pgbench_branches |            40960

 2017-02-03 20:48:21.917196+01 | 1486151301.9172 | pgbench_accounts |      13429514240
 2017-02-03 20:48:21.917196+01 | 1486151301.9172 | pgbench_tellers  |           450560
 2017-02-03 20:48:21.917196+01 | 1486151301.9172 | pgbench_history  |                0
 2017-02-03 20:48:21.917196+01 | 1486151301.9172 | pgbench_branches |            40960

 2017-02-03 20:48:23.0176+01 | 1486151303.0176 | pgbench_accounts |      13429514240
 2017-02-03 20:48:23.0176+01 | 1486151303.0176 | pgbench_tellers  |           450560
 2017-02-03 20:48:23.0176+01 | 1486151303.0176 | pgbench_history  |                0
 2017-02-03 20:48:23.0176+01 | 1486151303.0176 | pgbench_branches |            40960

 2017-02-03 20:48:24.109466+01 | 1486151304.10947 | pgbench_accounts |      13429514240
 2017-02-03 20:48:24.109466+01 | 1486151304.10947 | pgbench_tellers  |           450560
 2017-02-03 20:48:24.109466+01 | 1486151304.10947 | pgbench_history  |                0
 2017-02-03 20:48:24.109466+01 | 1486151304.10947 | pgbench_branches |            40960

 2017-02-03 20:48:25.206409+01 | 1486151305.20641 | pgbench_accounts |      13429514240
 2017-02-03 20:48:25.206409+01 | 1486151305.20641 | pgbench_tellers  |           450560
 2017-02-03 20:48:25.206409+01 | 1486151305.20641 | pgbench_history  |                0
 2017-02-03 20:48:25.206409+01 | 1486151305.20641 | pgbench_branches |            40960

 2017-02-03 20:48:26.312128+01 | 1486151306.31213 | pgbench_accounts |      13429514240
 2017-02-03 20:48:26.312128+01 | 1486151306.31213 | pgbench_tellers  |           450560
 2017-02-03 20:48:26.312128+01 | 1486151306.31213 | pgbench_history  |                0
 2017-02-03 20:48:26.312128+01 | 1486151306.31213 | pgbench_branches |            40960

 2017-02-03 20:48:27.406892+01 | 1486151307.40689 | pgbench_accounts |      13429514240
 2017-02-03 20:48:27.406892+01 | 1486151307.40689 | pgbench_tellers  |           450560
 2017-02-03 20:48:27.406892+01 | 1486151307.40689 | pgbench_history  |                0
 2017-02-03 20:48:27.406892+01 | 1486151307.40689 | pgbench_branches |            40960

 2017-02-03 20:48:28.494483+01 | 1486151308.49448 | pgbench_accounts |      13429514240
 2017-02-03 20:48:28.494483+01 | 1486151308.49448 | pgbench_tellers  |           450560
 2017-02-03 20:48:28.494483+01 | 1486151308.49448 | pgbench_history  |                0
 2017-02-03 20:48:28.494483+01 | 1486151308.49448 | pgbench_branches |            40960

 2017-02-03 20:48:29.592481+01 | 1486151309.59248 | pgbench_accounts |      13429514240
 2017-02-03 20:48:29.592481+01 | 1486151309.59248 | pgbench_tellers  |           450560
 2017-02-03 20:48:29.592481+01 | 1486151309.59248 | pgbench_history  |                0
 2017-02-03 20:48:29.592481+01 | 1486151309.59248 | pgbench_branches |            40960

 2017-02-03 20:48:30.682415+01 | 1486151310.68242 | pgbench_accounts |      13429514240
 2017-02-03 20:48:30.682415+01 | 1486151310.68242 | pgbench_tellers  |           450560
 2017-02-03 20:48:30.682415+01 | 1486151310.68242 | pgbench_history  |                0
 2017-02-03 20:48:30.682415+01 | 1486151310.68242 | pgbench_branches |            40960

 2017-02-03 20:48:31.780901+01 | 1486151311.7809 | pgbench_accounts |      13429514240
 2017-02-03 20:48:31.780901+01 | 1486151311.7809 | pgbench_tellers  |           450560
 2017-02-03 20:48:31.780901+01 | 1486151311.7809 | pgbench_history  |                0
 2017-02-03 20:48:31.780901+01 | 1486151311.7809 | pgbench_branches |            40960

 2017-02-03 20:48:32.874989+01 | 1486151312.87499 | pgbench_accounts |      13429514240
 2017-02-03 20:48:32.874989+01 | 1486151312.87499 | pgbench_tellers  |           450560
 2017-02-03 20:48:32.874989+01 | 1486151312.87499 | pgbench_history  |                0
 2017-02-03 20:48:32.874989+01 | 1486151312.87499 | pgbench_branches |            40960

 2017-02-03 20:48:33.96627+01 | 1486151313.96627 | pgbench_accounts |      13429514240
 2017-02-03 20:48:33.96627+01 | 1486151313.96627 | pgbench_tellers  |           450560
 2017-02-03 20:48:33.96627+01 | 1486151313.96627 | pgbench_history  |                0
 2017-02-03 20:48:33.96627+01 | 1486151313.96627 | pgbench_branches |            40960

 2017-02-03 20:48:35.052244+01 | 1486151315.05224 | pgbench_accounts |      13429514240
 2017-02-03 20:48:35.052244+01 | 1486151315.05224 | pgbench_tellers  |           450560
 2017-02-03 20:48:35.052244+01 | 1486151315.05224 | pgbench_history  |                0
 2017-02-03 20:48:35.052244+01 | 1486151315.05224 | pgbench_branches |            40960

 2017-02-03 20:48:36.145664+01 | 1486151316.14566 | pgbench_accounts |      13429514240
 2017-02-03 20:48:36.145664+01 | 1486151316.14566 | pgbench_tellers  |           450560
 2017-02-03 20:48:36.145664+01 | 1486151316.14566 | pgbench_history  |                0
 2017-02-03 20:48:36.145664+01 | 1486151316.14566 | pgbench_branches |            40960

 2017-02-03 20:48:37.243096+01 | 1486151317.2431 | pgbench_accounts |      13429514240
 2017-02-03 20:48:37.243096+01 | 1486151317.2431 | pgbench_tellers  |           450560
 2017-02-03 20:48:37.243096+01 | 1486151317.2431 | pgbench_history  |                0
 2017-02-03 20:48:37.243096+01 | 1486151317.2431 | pgbench_branches |            40960

 2017-02-03 20:48:38.330495+01 | 1486151318.3305 | pgbench_accounts |      13429514240
 2017-02-03 20:48:38.330495+01 | 1486151318.3305 | pgbench_tellers  |           450560
 2017-02-03 20:48:38.330495+01 | 1486151318.3305 | pgbench_history  |                0
 2017-02-03 20:48:38.330495+01 | 1486151318.3305 | pgbench_branches |            40960

 2017-02-03 20:48:39.422828+01 | 1486151319.42283 | pgbench_accounts |      13429514240
 2017-02-03 20:48:39.422828+01 | 1486151319.42283 | pgbench_tellers  |           450560
 2017-02-03 20:48:39.422828+01 | 1486151319.42283 | pgbench_history  |                0
 2017-02-03 20:48:39.422828+01 | 1486151319.42283 | pgbench_branches |            40960

 2017-02-03 20:48:40.513212+01 | 1486151320.51321 | pgbench_accounts |      13429514240
 2017-02-03 20:48:40.513212+01 | 1486151320.51321 | pgbench_tellers  |           450560
 2017-02-03 20:48:40.513212+01 | 1486151320.51321 | pgbench_history  |                0
 2017-02-03 20:48:40.513212+01 | 1486151320.51321 | pgbench_branches |            40960

 2017-02-03 20:48:41.605728+01 | 1486151321.60573 | pgbench_accounts |      13429514240
 2017-02-03 20:48:41.605728+01 | 1486151321.60573 | pgbench_tellers  |           450560
 2017-02-03 20:48:41.605728+01 | 1486151321.60573 | pgbench_history  |                0
 2017-02-03 20:48:41.605728+01 | 1486151321.60573 | pgbench_branches |            40960

 2017-02-03 20:48:42.699666+01 | 1486151322.69967 | pgbench_accounts |      13429514240
 2017-02-03 20:48:42.699666+01 | 1486151322.69967 | pgbench_tellers  |           450560
 2017-02-03 20:48:42.699666+01 | 1486151322.69967 | pgbench_history  |                0
 2017-02-03 20:48:42.699666+01 | 1486151322.69967 | pgbench_branches |            40960

 2017-02-03 20:48:43.789754+01 | 1486151323.78975 | pgbench_accounts |      13429514240
 2017-02-03 20:48:43.789754+01 | 1486151323.78975 | pgbench_tellers  |           450560
 2017-02-03 20:48:43.789754+01 | 1486151323.78975 | pgbench_history  |                0
 2017-02-03 20:48:43.789754+01 | 1486151323.78975 | pgbench_branches |            40960

 2017-02-03 20:48:44.893304+01 | 1486151324.8933 | pgbench_accounts |      13429514240
 2017-02-03 20:48:44.893304+01 | 1486151324.8933 | pgbench_tellers  |           450560
 2017-02-03 20:48:44.893304+01 | 1486151324.8933 | pgbench_history  |                0
 2017-02-03 20:48:44.893304+01 | 1486151324.8933 | pgbench_branches |            40960

 2017-02-03 20:48:45.98777+01 | 1486151325.98777 | pgbench_accounts |      13429514240
 2017-02-03 20:48:45.98777+01 | 1486151325.98777 | pgbench_tellers  |           450560
 2017-02-03 20:48:45.98777+01 | 1486151325.98777 | pgbench_history  |                0
 2017-02-03 20:48:45.98777+01 | 1486151325.98777 | pgbench_branches |            40960

 2017-02-03 20:48:47.095009+01 | 1486151327.09501 | pgbench_accounts |      13429514240
 2017-02-03 20:48:47.095009+01 | 1486151327.09501 | pgbench_tellers  |           450560
 2017-02-03 20:48:47.095009+01 | 1486151327.09501 | pgbench_history  |                0
 2017-02-03 20:48:47.095009+01 | 1486151327.09501 | pgbench_branches |            40960

 2017-02-03 20:48:48.19231+01 | 1486151328.19231 | pgbench_accounts |      13429514240
 2017-02-03 20:48:48.19231+01 | 1486151328.19231 | pgbench_tellers  |           450560
 2017-02-03 20:48:48.19231+01 | 1486151328.19231 | pgbench_history  |                0
 2017-02-03 20:48:48.19231+01 | 1486151328.19231 | pgbench_branches |            40960

 2017-02-03 20:48:49.294273+01 | 1486151329.29427 | pgbench_accounts |      13429514240
 2017-02-03 20:48:49.294273+01 | 1486151329.29427 | pgbench_tellers  |           450560
 2017-02-03 20:48:49.294273+01 | 1486151329.29427 | pgbench_history  |                0
 2017-02-03 20:48:49.294273+01 | 1486151329.29427 | pgbench_branches |            40960

 2017-02-03 20:48:50.38643+01 | 1486151330.38643 | pgbench_accounts |      13429514240
 2017-02-03 20:48:50.38643+01 | 1486151330.38643 | pgbench_tellers  |           450560
 2017-02-03 20:48:50.38643+01 | 1486151330.38643 | pgbench_history  |                0
 2017-02-03 20:48:50.38643+01 | 1486151330.38643 | pgbench_branches |            40960

 2017-02-03 20:48:51.477322+01 | 1486151331.47732 | pgbench_accounts |      13429514240
 2017-02-03 20:48:51.477322+01 | 1486151331.47732 | pgbench_tellers  |           450560
 2017-02-03 20:48:51.477322+01 | 1486151331.47732 | pgbench_history  |                0
 2017-02-03 20:48:51.477322+01 | 1486151331.47732 | pgbench_branches |            40960

 2017-02-03 20:48:52.558978+01 | 1486151332.55898 | pgbench_accounts |      13429514240
 2017-02-03 20:48:52.558978+01 | 1486151332.55898 | pgbench_tellers  |           450560
 2017-02-03 20:48:52.558978+01 | 1486151332.55898 | pgbench_history  |                0
 2017-02-03 20:48:52.558978+01 | 1486151332.55898 | pgbench_branches |            40960

 2017-02-03 20:48:53.654479+01 | 1486151333.65448 | pgbench_accounts |      13429514240
 2017-02-03 20:48:53.654479+01 | 1486151333.65448 | pgbench_tellers  |           450560
 2017-02-03 20:48:53.654479+01 | 1486151333.65448 | pgbench_history  |                0
 2017-02-03 20:48:53.654479+01 | 1486151333.65448 | pgbench_branches |            40960

 2017-02-03 20:48:54.749001+01 | 1486151334.749 | pgbench_accounts |      13429514240
 2017-02-03 20:48:54.749001+01 | 1486151334.749 | pgbench_tellers  |           450560
 2017-02-03 20:48:54.749001+01 | 1486151334.749 | pgbench_history  |                0
 2017-02-03 20:48:54.749001+01 | 1486151334.749 | pgbench_branches |            40960

 2017-02-03 20:48:55.84054+01 | 1486151335.84054 | pgbench_accounts |      13429514240
 2017-02-03 20:48:55.84054+01 | 1486151335.84054 | pgbench_tellers  |           450560
 2017-02-03 20:48:55.84054+01 | 1486151335.84054 | pgbench_history  |                0
 2017-02-03 20:48:55.84054+01 | 1486151335.84054 | pgbench_branches |            40960

 2017-02-03 20:48:56.931463+01 | 1486151336.93146 | pgbench_accounts |      13429514240
 2017-02-03 20:48:56.931463+01 | 1486151336.93146 | pgbench_tellers  |           450560
 2017-02-03 20:48:56.931463+01 | 1486151336.93146 | pgbench_history  |                0
 2017-02-03 20:48:56.931463+01 | 1486151336.93146 | pgbench_branches |            40960

 2017-02-03 20:48:58.027331+01 | 1486151338.02733 | pgbench_accounts |      13429514240
 2017-02-03 20:48:58.027331+01 | 1486151338.02733 | pgbench_tellers  |           450560
 2017-02-03 20:48:58.027331+01 | 1486151338.02733 | pgbench_history  |                0
 2017-02-03 20:48:58.027331+01 | 1486151338.02733 | pgbench_branches |            40960

 2017-02-03 20:48:59.120908+01 | 1486151339.12091 | pgbench_accounts |      13429514240
 2017-02-03 20:48:59.120908+01 | 1486151339.12091 | pgbench_tellers  |           450560
 2017-02-03 20:48:59.120908+01 | 1486151339.12091 | pgbench_history  |                0
 2017-02-03 20:48:59.120908+01 | 1486151339.12091 | pgbench_branches |            40960

 2017-02-03 20:49:00.221683+01 | 1486151340.22168 | pgbench_accounts |      13429514240
 2017-02-03 20:49:00.221683+01 | 1486151340.22168 | pgbench_tellers  |           450560
 2017-02-03 20:49:00.221683+01 | 1486151340.22168 | pgbench_history  |                0
 2017-02-03 20:49:00.221683+01 | 1486151340.22168 | pgbench_branches |            40960

 2017-02-03 20:49:01.316966+01 | 1486151341.31697 | pgbench_accounts |      13429514240
 2017-02-03 20:49:01.316966+01 | 1486151341.31697 | pgbench_tellers  |           450560
 2017-02-03 20:49:01.316966+01 | 1486151341.31697 | pgbench_history  |                0
 2017-02-03 20:49:01.316966+01 | 1486151341.31697 | pgbench_branches |            40960

 2017-02-03 20:49:02.40614+01 | 1486151342.40614 | pgbench_accounts |      13429514240
 2017-02-03 20:49:02.40614+01 | 1486151342.40614 | pgbench_tellers  |           450560
 2017-02-03 20:49:02.40614+01 | 1486151342.40614 | pgbench_history  |                0
 2017-02-03 20:49:02.40614+01 | 1486151342.40614 | pgbench_branches |            40960

 2017-02-03 20:49:03.495498+01 | 1486151343.4955 | pgbench_accounts |      13429514240
 2017-02-03 20:49:03.495498+01 | 1486151343.4955 | pgbench_tellers  |           450560
 2017-02-03 20:49:03.495498+01 | 1486151343.4955 | pgbench_history  |                0
 2017-02-03 20:49:03.495498+01 | 1486151343.4955 | pgbench_branches |            40960

 2017-02-03 20:49:04.584632+01 | 1486151344.58463 | pgbench_accounts |      13429514240
 2017-02-03 20:49:04.584632+01 | 1486151344.58463 | pgbench_tellers  |           450560
 2017-02-03 20:49:04.584632+01 | 1486151344.58463 | pgbench_history  |                0
 2017-02-03 20:49:04.584632+01 | 1486151344.58463 | pgbench_branches |            40960

 2017-02-03 20:49:05.685991+01 | 1486151345.68599 | pgbench_accounts |      13429514240
 2017-02-03 20:49:05.685991+01 | 1486151345.68599 | pgbench_tellers  |           450560
 2017-02-03 20:49:05.685991+01 | 1486151345.68599 | pgbench_history  |                0
 2017-02-03 20:49:05.685991+01 | 1486151345.68599 | pgbench_branches |            40960

 2017-02-03 20:49:06.781193+01 | 1486151346.78119 | pgbench_accounts |      13429514240
 2017-02-03 20:49:06.781193+01 | 1486151346.78119 | pgbench_tellers  |           450560
 2017-02-03 20:49:06.781193+01 | 1486151346.78119 | pgbench_history  |                0
 2017-02-03 20:49:06.781193+01 | 1486151346.78119 | pgbench_branches |            40960

 2017-02-03 20:49:07.867466+01 | 1486151347.86747 | pgbench_accounts |      13429514240
 2017-02-03 20:49:07.867466+01 | 1486151347.86747 | pgbench_tellers  |           450560
 2017-02-03 20:49:07.867466+01 | 1486151347.86747 | pgbench_history  |                0
 2017-02-03 20:49:07.867466+01 | 1486151347.86747 | pgbench_branches |            40960

 2017-02-03 20:49:08.959983+01 | 1486151348.95998 | pgbench_accounts |      13429514240
 2017-02-03 20:49:08.959983+01 | 1486151348.95998 | pgbench_tellers  |           450560
 2017-02-03 20:49:08.959983+01 | 1486151348.95998 | pgbench_history  |                0
 2017-02-03 20:49:08.959983+01 | 1486151348.95998 | pgbench_branches |            40960

 2017-02-03 20:49:10.051256+01 | 1486151350.05126 | pgbench_accounts |      13429514240
 2017-02-03 20:49:10.051256+01 | 1486151350.05126 | pgbench_tellers  |           450560
 2017-02-03 20:49:10.051256+01 | 1486151350.05126 | pgbench_history  |                0
 2017-02-03 20:49:10.051256+01 | 1486151350.05126 | pgbench_branches |            40960

 2017-02-03 20:49:11.150511+01 | 1486151351.15051 | pgbench_accounts |      13429514240
 2017-02-03 20:49:11.150511+01 | 1486151351.15051 | pgbench_tellers  |           450560
 2017-02-03 20:49:11.150511+01 | 1486151351.15051 | pgbench_history  |                0
 2017-02-03 20:49:11.150511+01 | 1486151351.15051 | pgbench_branches |            40960

 2017-02-03 20:49:12.238937+01 | 1486151352.23894 | pgbench_accounts |      13429514240
 2017-02-03 20:49:12.238937+01 | 1486151352.23894 | pgbench_tellers  |           450560
 2017-02-03 20:49:12.238937+01 | 1486151352.23894 | pgbench_history  |                0
 2017-02-03 20:49:12.238937+01 | 1486151352.23894 | pgbench_branches |            40960

 2017-02-03 20:49:13.333821+01 | 1486151353.33382 | pgbench_accounts |      13429514240
 2017-02-03 20:49:13.333821+01 | 1486151353.33382 | pgbench_tellers  |           450560
 2017-02-03 20:49:13.333821+01 | 1486151353.33382 | pgbench_history  |                0
 2017-02-03 20:49:13.333821+01 | 1486151353.33382 | pgbench_branches |            40960

 2017-02-03 20:49:14.421783+01 | 1486151354.42178 | pgbench_accounts |      13429514240
 2017-02-03 20:49:14.421783+01 | 1486151354.42178 | pgbench_tellers  |           450560
 2017-02-03 20:49:14.421783+01 | 1486151354.42178 | pgbench_history  |                0
 2017-02-03 20:49:14.421783+01 | 1486151354.42178 | pgbench_branches |            40960

 2017-02-03 20:49:15.51037+01 | 1486151355.51037 | pgbench_accounts |      13429514240
 2017-02-03 20:49:15.51037+01 | 1486151355.51037 | pgbench_tellers  |           450560
 2017-02-03 20:49:15.51037+01 | 1486151355.51037 | pgbench_history  |                0
 2017-02-03 20:49:15.51037+01 | 1486151355.51037 | pgbench_branches |            40960

 2017-02-03 20:49:16.598457+01 | 1486151356.59846 | pgbench_accounts |      13429514240
 2017-02-03 20:49:16.598457+01 | 1486151356.59846 | pgbench_tellers  |           450560
 2017-02-03 20:49:16.598457+01 | 1486151356.59846 | pgbench_history  |                0
 2017-02-03 20:49:16.598457+01 | 1486151356.59846 | pgbench_branches |            40960

 2017-02-03 20:49:17.696862+01 | 1486151357.69686 | pgbench_accounts |      13429514240
 2017-02-03 20:49:17.696862+01 | 1486151357.69686 | pgbench_tellers  |           450560
 2017-02-03 20:49:17.696862+01 | 1486151357.69686 | pgbench_history  |                0
 2017-02-03 20:49:17.696862+01 | 1486151357.69686 | pgbench_branches |            40960

 2017-02-03 20:49:18.78746+01 | 1486151358.78746 | pgbench_accounts |      13429514240
 2017-02-03 20:49:18.78746+01 | 1486151358.78746 | pgbench_tellers  |           450560
 2017-02-03 20:49:18.78746+01 | 1486151358.78746 | pgbench_history  |                0
 2017-02-03 20:49:18.78746+01 | 1486151358.78746 | pgbench_branches |            40960

 2017-02-03 20:49:19.886324+01 | 1486151359.88632 | pgbench_accounts |      13429514240
 2017-02-03 20:49:19.886324+01 | 1486151359.88632 | pgbench_tellers  |           450560
 2017-02-03 20:49:19.886324+01 | 1486151359.88632 | pgbench_history  |                0
 2017-02-03 20:49:19.886324+01 | 1486151359.88632 | pgbench_branches |            40960

 2017-02-03 20:49:20.979527+01 | 1486151360.97953 | pgbench_accounts |      13429514240
 2017-02-03 20:49:20.979527+01 | 1486151360.97953 | pgbench_tellers  |           450560
 2017-02-03 20:49:20.979527+01 | 1486151360.97953 | pgbench_history  |                0
 2017-02-03 20:49:20.979527+01 | 1486151360.97953 | pgbench_branches |            40960

 2017-02-03 20:49:22.074677+01 | 1486151362.07468 | pgbench_accounts |      13429514240
 2017-02-03 20:49:22.074677+01 | 1486151362.07468 | pgbench_tellers  |           450560
 2017-02-03 20:49:22.074677+01 | 1486151362.07468 | pgbench_history  |                0
 2017-02-03 20:49:22.074677+01 | 1486151362.07468 | pgbench_branches |            40960

 2017-02-03 20:49:23.171254+01 | 1486151363.17125 | pgbench_accounts |      13429514240
 2017-02-03 20:49:23.171254+01 | 1486151363.17125 | pgbench_tellers  |           450560
 2017-02-03 20:49:23.171254+01 | 1486151363.17125 | pgbench_history  |                0
 2017-02-03 20:49:23.171254+01 | 1486151363.17125 | pgbench_branches |            40960

 2017-02-03 20:49:24.265908+01 | 1486151364.26591 | pgbench_accounts |      13429514240
 2017-02-03 20:49:24.265908+01 | 1486151364.26591 | pgbench_tellers  |           450560
 2017-02-03 20:49:24.265908+01 | 1486151364.26591 | pgbench_history  |                0
 2017-02-03 20:49:24.265908+01 | 1486151364.26591 | pgbench_branches |            40960

 2017-02-03 20:49:25.368881+01 | 1486151365.36888 | pgbench_accounts |      13429514240
 2017-02-03 20:49:25.368881+01 | 1486151365.36888 | pgbench_tellers  |           450560
 2017-02-03 20:49:25.368881+01 | 1486151365.36888 | pgbench_history  |                0
 2017-02-03 20:49:25.368881+01 | 1486151365.36888 | pgbench_branches |            40960

 2017-02-03 20:49:26.472637+01 | 1486151366.47264 | pgbench_accounts |      13429514240
 2017-02-03 20:49:26.472637+01 | 1486151366.47264 | pgbench_tellers  |           450560
 2017-02-03 20:49:26.472637+01 | 1486151366.47264 | pgbench_history  |                0
 2017-02-03 20:49:26.472637+01 | 1486151366.47264 | pgbench_branches |            40960

 2017-02-03 20:49:27.575361+01 | 1486151367.57536 | pgbench_accounts |      13429514240
 2017-02-03 20:49:27.575361+01 | 1486151367.57536 | pgbench_tellers  |           450560
 2017-02-03 20:49:27.575361+01 | 1486151367.57536 | pgbench_history  |                0
 2017-02-03 20:49:27.575361+01 | 1486151367.57536 | pgbench_branches |            40960

 2017-02-03 20:49:28.663654+01 | 1486151368.66365 | pgbench_accounts |      13429514240
 2017-02-03 20:49:28.663654+01 | 1486151368.66365 | pgbench_tellers  |           450560
 2017-02-03 20:49:28.663654+01 | 1486151368.66365 | pgbench_history  |                0
 2017-02-03 20:49:28.663654+01 | 1486151368.66365 | pgbench_branches |            40960

 2017-02-03 20:49:29.760531+01 | 1486151369.76053 | pgbench_accounts |      13429514240
 2017-02-03 20:49:29.760531+01 | 1486151369.76053 | pgbench_tellers  |           450560
 2017-02-03 20:49:29.760531+01 | 1486151369.76053 | pgbench_history  |                0
 2017-02-03 20:49:29.760531+01 | 1486151369.76053 | pgbench_branches |            40960

 2017-02-03 20:49:30.87657+01 | 1486151370.87657 | pgbench_accounts |      13429514240
 2017-02-03 20:49:30.87657+01 | 1486151370.87657 | pgbench_tellers  |           450560
 2017-02-03 20:49:30.87657+01 | 1486151370.87657 | pgbench_history  |                0
 2017-02-03 20:49:30.87657+01 | 1486151370.87657 | pgbench_branches |            40960

 2017-02-03 20:49:31.973587+01 | 1486151371.97359 | pgbench_accounts |      13429514240
 2017-02-03 20:49:31.973587+01 | 1486151371.97359 | pgbench_tellers  |           450560
 2017-02-03 20:49:31.973587+01 | 1486151371.97359 | pgbench_history  |                0
 2017-02-03 20:49:31.973587+01 | 1486151371.97359 | pgbench_branches |            40960

 2017-02-03 20:49:33.058703+01 | 1486151373.0587 | pgbench_accounts |      13429514240
 2017-02-03 20:49:33.058703+01 | 1486151373.0587 | pgbench_tellers  |           450560
 2017-02-03 20:49:33.058703+01 | 1486151373.0587 | pgbench_history  |                0
 2017-02-03 20:49:33.058703+01 | 1486151373.0587 | pgbench_branches |            40960

 2017-02-03 20:49:34.151739+01 | 1486151374.15174 | pgbench_accounts |      13429514240
 2017-02-03 20:49:34.151739+01 | 1486151374.15174 | pgbench_tellers  |           450560
 2017-02-03 20:49:34.151739+01 | 1486151374.15174 | pgbench_history  |                0
 2017-02-03 20:49:34.151739+01 | 1486151374.15174 | pgbench_branches |            40960

 2017-02-03 20:49:35.241794+01 | 1486151375.24179 | pgbench_accounts |      13429514240
 2017-02-03 20:49:35.241794+01 | 1486151375.24179 | pgbench_tellers  |           450560
 2017-02-03 20:49:35.241794+01 | 1486151375.24179 | pgbench_history  |                0
 2017-02-03 20:49:35.241794+01 | 1486151375.24179 | pgbench_branches |            40960

 2017-02-03 20:49:36.333582+01 | 1486151376.33358 | pgbench_accounts |      13429514240
 2017-02-03 20:49:36.333582+01 | 1486151376.33358 | pgbench_tellers  |           450560
 2017-02-03 20:49:36.333582+01 | 1486151376.33358 | pgbench_history  |                0
 2017-02-03 20:49:36.333582+01 | 1486151376.33358 | pgbench_branches |            40960

 2017-02-03 20:49:37.422729+01 | 1486151377.42273 | pgbench_accounts |      13429514240
 2017-02-03 20:49:37.422729+01 | 1486151377.42273 | pgbench_tellers  |           450560
 2017-02-03 20:49:37.422729+01 | 1486151377.42273 | pgbench_history  |                0
 2017-02-03 20:49:37.422729+01 | 1486151377.42273 | pgbench_branches |            40960

 2017-02-03 20:49:38.513723+01 | 1486151378.51372 | pgbench_accounts |      13429514240
 2017-02-03 20:49:38.513723+01 | 1486151378.51372 | pgbench_tellers  |           450560
 2017-02-03 20:49:38.513723+01 | 1486151378.51372 | pgbench_history  |                0
 2017-02-03 20:49:38.513723+01 | 1486151378.51372 | pgbench_branches |            40960

 2017-02-03 20:49:39.599781+01 | 1486151379.59978 | pgbench_accounts |      13429514240
 2017-02-03 20:49:39.599781+01 | 1486151379.59978 | pgbench_tellers  |           450560
 2017-02-03 20:49:39.599781+01 | 1486151379.59978 | pgbench_history  |                0
 2017-02-03 20:49:39.599781+01 | 1486151379.59978 | pgbench_branches |            40960

 2017-02-03 20:49:40.697999+01 | 1486151380.698 | pgbench_accounts |      13429514240
 2017-02-03 20:49:40.697999+01 | 1486151380.698 | pgbench_tellers  |           450560
 2017-02-03 20:49:40.697999+01 | 1486151380.698 | pgbench_history  |                0
 2017-02-03 20:49:40.697999+01 | 1486151380.698 | pgbench_branches |            40960

 2017-02-03 20:49:41.792298+01 | 1486151381.7923 | pgbench_accounts |      13429514240
 2017-02-03 20:49:41.792298+01 | 1486151381.7923 | pgbench_tellers  |           450560
 2017-02-03 20:49:41.792298+01 | 1486151381.7923 | pgbench_history  |                0
 2017-02-03 20:49:41.792298+01 | 1486151381.7923 | pgbench_branches |            40960

 2017-02-03 20:49:42.875736+01 | 1486151382.87574 | pgbench_accounts |      13429514240
 2017-02-03 20:49:42.875736+01 | 1486151382.87574 | pgbench_tellers  |           450560
 2017-02-03 20:49:42.875736+01 | 1486151382.87574 | pgbench_history  |                0
 2017-02-03 20:49:42.875736+01 | 1486151382.87574 | pgbench_branches |            40960

 2017-02-03 20:49:43.973748+01 | 1486151383.97375 | pgbench_accounts |      13429514240
 2017-02-03 20:49:43.973748+01 | 1486151383.97375 | pgbench_tellers  |           450560
 2017-02-03 20:49:43.973748+01 | 1486151383.97375 | pgbench_history  |                0
 2017-02-03 20:49:43.973748+01 | 1486151383.97375 | pgbench_branches |            40960

 2017-02-03 20:49:45.067888+01 | 1486151385.06789 | pgbench_accounts |      13429514240
 2017-02-03 20:49:45.067888+01 | 1486151385.06789 | pgbench_tellers  |           450560
 2017-02-03 20:49:45.067888+01 | 1486151385.06789 | pgbench_history  |                0
 2017-02-03 20:49:45.067888+01 | 1486151385.06789 | pgbench_branches |            40960

 2017-02-03 20:49:46.162485+01 | 1486151386.16248 | pgbench_accounts |      13429514240
 2017-02-03 20:49:46.162485+01 | 1486151386.16248 | pgbench_tellers  |           450560
 2017-02-03 20:49:46.162485+01 | 1486151386.16248 | pgbench_history  |                0
 2017-02-03 20:49:46.162485+01 | 1486151386.16248 | pgbench_branches |            40960

 2017-02-03 20:49:47.252264+01 | 1486151387.25226 | pgbench_accounts |      13429514240
 2017-02-03 20:49:47.252264+01 | 1486151387.25226 | pgbench_tellers  |           450560
 2017-02-03 20:49:47.252264+01 | 1486151387.25226 | pgbench_history  |                0
 2017-02-03 20:49:47.252264+01 | 1486151387.25226 | pgbench_branches |            40960

 2017-02-03 20:49:48.357243+01 | 1486151388.35724 | pgbench_accounts |      13429514240
 2017-02-03 20:49:48.357243+01 | 1486151388.35724 | pgbench_tellers  |           450560
 2017-02-03 20:49:48.357243+01 | 1486151388.35724 | pgbench_history  |                0
 2017-02-03 20:49:48.357243+01 | 1486151388.35724 | pgbench_branches |            40960

 2017-02-03 20:49:49.452662+01 | 1486151389.45266 | pgbench_accounts |      13429514240
 2017-02-03 20:49:49.452662+01 | 1486151389.45266 | pgbench_tellers  |           450560
 2017-02-03 20:49:49.452662+01 | 1486151389.45266 | pgbench_history  |                0
 2017-02-03 20:49:49.452662+01 | 1486151389.45266 | pgbench_branches |            40960

 2017-02-03 20:49:50.540801+01 | 1486151390.5408 | pgbench_accounts |      13429514240
 2017-02-03 20:49:50.540801+01 | 1486151390.5408 | pgbench_tellers  |           450560
 2017-02-03 20:49:50.540801+01 | 1486151390.5408 | pgbench_history  |                0
 2017-02-03 20:49:50.540801+01 | 1486151390.5408 | pgbench_branches |            40960

 2017-02-03 20:49:51.630217+01 | 1486151391.63022 | pgbench_accounts |      13429514240
 2017-02-03 20:49:51.630217+01 | 1486151391.63022 | pgbench_tellers  |           450560
 2017-02-03 20:49:51.630217+01 | 1486151391.63022 | pgbench_history  |                0
 2017-02-03 20:49:51.630217+01 | 1486151391.63022 | pgbench_branches |            40960

 2017-02-03 20:49:52.72053+01 | 1486151392.72053 | pgbench_accounts |      13429514240
 2017-02-03 20:49:52.72053+01 | 1486151392.72053 | pgbench_tellers  |           450560
 2017-02-03 20:49:52.72053+01 | 1486151392.72053 | pgbench_history  |                0
 2017-02-03 20:49:52.72053+01 | 1486151392.72053 | pgbench_branches |            40960

 2017-02-03 20:49:53.819179+01 | 1486151393.81918 | pgbench_accounts |      13429514240
 2017-02-03 20:49:53.819179+01 | 1486151393.81918 | pgbench_tellers  |           450560
 2017-02-03 20:49:53.819179+01 | 1486151393.81918 | pgbench_history  |                0
 2017-02-03 20:49:53.819179+01 | 1486151393.81918 | pgbench_branches |            40960

 2017-02-03 20:49:54.909199+01 | 1486151394.9092 | pgbench_accounts |      13429514240
 2017-02-03 20:49:54.909199+01 | 1486151394.9092 | pgbench_tellers  |           450560
 2017-02-03 20:49:54.909199+01 | 1486151394.9092 | pgbench_history  |                0
 2017-02-03 20:49:54.909199+01 | 1486151394.9092 | pgbench_branches |            40960

 2017-02-03 20:49:56.009318+01 | 1486151396.00932 | pgbench_accounts |      13429514240
 2017-02-03 20:49:56.009318+01 | 1486151396.00932 | pgbench_tellers  |           450560
 2017-02-03 20:49:56.009318+01 | 1486151396.00932 | pgbench_history  |                0
 2017-02-03 20:49:56.009318+01 | 1486151396.00932 | pgbench_branches |            40960

 2017-02-03 20:49:57.104243+01 | 1486151397.10424 | pgbench_accounts |      13429514240
 2017-02-03 20:49:57.104243+01 | 1486151397.10424 | pgbench_tellers  |           450560
 2017-02-03 20:49:57.104243+01 | 1486151397.10424 | pgbench_history  |                0
 2017-02-03 20:49:57.104243+01 | 1486151397.10424 | pgbench_branches |            40960

 2017-02-03 20:49:58.19969+01 | 1486151398.19969 | pgbench_accounts |      13429514240
 2017-02-03 20:49:58.19969+01 | 1486151398.19969 | pgbench_tellers  |           450560
 2017-02-03 20:49:58.19969+01 | 1486151398.19969 | pgbench_history  |                0
 2017-02-03 20:49:58.19969+01 | 1486151398.19969 | pgbench_branches |            40960

 2017-02-03 20:49:59.29239+01 | 1486151399.29239 | pgbench_accounts |      13429514240
 2017-02-03 20:49:59.29239+01 | 1486151399.29239 | pgbench_tellers  |           450560
 2017-02-03 20:49:59.29239+01 | 1486151399.29239 | pgbench_history  |                0
 2017-02-03 20:49:59.29239+01 | 1486151399.29239 | pgbench_branches |            40960

 2017-02-03 20:50:00.380224+01 | 1486151400.38022 | pgbench_accounts |      13429514240
 2017-02-03 20:50:00.380224+01 | 1486151400.38022 | pgbench_tellers  |           450560
 2017-02-03 20:50:00.380224+01 | 1486151400.38022 | pgbench_history  |                0
 2017-02-03 20:50:00.380224+01 | 1486151400.38022 | pgbench_branches |            40960

 2017-02-03 20:50:01.467692+01 | 1486151401.46769 | pgbench_accounts |      13429514240
 2017-02-03 20:50:01.467692+01 | 1486151401.46769 | pgbench_tellers  |           450560
 2017-02-03 20:50:01.467692+01 | 1486151401.46769 | pgbench_history  |                0
 2017-02-03 20:50:01.467692+01 | 1486151401.46769 | pgbench_branches |            40960

 2017-02-03 20:50:02.563137+01 | 1486151402.56314 | pgbench_accounts |      13429514240
 2017-02-03 20:50:02.563137+01 | 1486151402.56314 | pgbench_tellers  |           450560
 2017-02-03 20:50:02.563137+01 | 1486151402.56314 | pgbench_history  |                0
 2017-02-03 20:50:02.563137+01 | 1486151402.56314 | pgbench_branches |            40960

 2017-02-03 20:50:03.664608+01 | 1486151403.66461 | pgbench_accounts |      13429514240
 2017-02-03 20:50:03.664608+01 | 1486151403.66461 | pgbench_tellers  |           450560
 2017-02-03 20:50:03.664608+01 | 1486151403.66461 | pgbench_history  |                0
 2017-02-03 20:50:03.664608+01 | 1486151403.66461 | pgbench_branches |            40960

 2017-02-03 20:50:04.760978+01 | 1486151404.76098 | pgbench_accounts |      13429514240
 2017-02-03 20:50:04.760978+01 | 1486151404.76098 | pgbench_tellers  |           450560
 2017-02-03 20:50:04.760978+01 | 1486151404.76098 | pgbench_history  |                0
 2017-02-03 20:50:04.760978+01 | 1486151404.76098 | pgbench_branches |            40960

 2017-02-03 20:50:05.854643+01 | 1486151405.85464 | pgbench_accounts |      13429514240
 2017-02-03 20:50:05.854643+01 | 1486151405.85464 | pgbench_tellers  |           450560
 2017-02-03 20:50:05.854643+01 | 1486151405.85464 | pgbench_history  |                0
 2017-02-03 20:50:05.854643+01 | 1486151405.85464 | pgbench_branches |            40960

 2017-02-03 20:50:06.95419+01 | 1486151406.95419 | pgbench_accounts |      13429514240
 2017-02-03 20:50:06.95419+01 | 1486151406.95419 | pgbench_tellers  |           450560
 2017-02-03 20:50:06.95419+01 | 1486151406.95419 | pgbench_history  |                0
 2017-02-03 20:50:06.95419+01 | 1486151406.95419 | pgbench_branches |            40960

 2017-02-03 20:50:08.054067+01 | 1486151408.05407 | pgbench_accounts |      13429514240
 2017-02-03 20:50:08.054067+01 | 1486151408.05407 | pgbench_tellers  |           450560
 2017-02-03 20:50:08.054067+01 | 1486151408.05407 | pgbench_history  |                0
 2017-02-03 20:50:08.054067+01 | 1486151408.05407 | pgbench_branches |            40960

 2017-02-03 20:50:09.149926+01 | 1486151409.14993 | pgbench_accounts |      13429514240
 2017-02-03 20:50:09.149926+01 | 1486151409.14993 | pgbench_tellers  |           450560
 2017-02-03 20:50:09.149926+01 | 1486151409.14993 | pgbench_history  |                0
 2017-02-03 20:50:09.149926+01 | 1486151409.14993 | pgbench_branches |            40960

 2017-02-03 20:50:10.249647+01 | 1486151410.24965 | pgbench_accounts |      13429514240
 2017-02-03 20:50:10.249647+01 | 1486151410.24965 | pgbench_tellers  |           450560
 2017-02-03 20:50:10.249647+01 | 1486151410.24965 | pgbench_history  |                0
 2017-02-03 20:50:10.249647+01 | 1486151410.24965 | pgbench_branches |            40960

 2017-02-03 20:50:11.342639+01 | 1486151411.34264 | pgbench_accounts |      13429514240
 2017-02-03 20:50:11.342639+01 | 1486151411.34264 | pgbench_tellers  |           450560
 2017-02-03 20:50:11.342639+01 | 1486151411.34264 | pgbench_history  |                0
 2017-02-03 20:50:11.342639+01 | 1486151411.34264 | pgbench_branches |            40960

 2017-02-03 20:50:12.437764+01 | 1486151412.43776 | pgbench_accounts |      13429514240
 2017-02-03 20:50:12.437764+01 | 1486151412.43776 | pgbench_tellers  |           450560
 2017-02-03 20:50:12.437764+01 | 1486151412.43776 | pgbench_history  |                0
 2017-02-03 20:50:12.437764+01 | 1486151412.43776 | pgbench_branches |            40960

 2017-02-03 20:50:13.532267+01 | 1486151413.53227 | pgbench_accounts |      13429514240
 2017-02-03 20:50:13.532267+01 | 1486151413.53227 | pgbench_tellers  |           450560
 2017-02-03 20:50:13.532267+01 | 1486151413.53227 | pgbench_history  |                0
 2017-02-03 20:50:13.532267+01 | 1486151413.53227 | pgbench_branches |            40960

 2017-02-03 20:50:14.620623+01 | 1486151414.62062 | pgbench_accounts |      13429514240
 2017-02-03 20:50:14.620623+01 | 1486151414.62062 | pgbench_tellers  |           450560
 2017-02-03 20:50:14.620623+01 | 1486151414.62062 | pgbench_history  |                0
 2017-02-03 20:50:14.620623+01 | 1486151414.62062 | pgbench_branches |            40960

 2017-02-03 20:50:15.700259+01 | 1486151415.70026 | pgbench_accounts |      13429514240
 2017-02-03 20:50:15.700259+01 | 1486151415.70026 | pgbench_tellers  |           450560
 2017-02-03 20:50:15.700259+01 | 1486151415.70026 | pgbench_history  |                0
 2017-02-03 20:50:15.700259+01 | 1486151415.70026 | pgbench_branches |            40960

 2017-02-03 20:50:16.793861+01 | 1486151416.79386 | pgbench_accounts |      13429514240
 2017-02-03 20:50:16.793861+01 | 1486151416.79386 | pgbench_tellers  |           450560
 2017-02-03 20:50:16.793861+01 | 1486151416.79386 | pgbench_history  |                0
 2017-02-03 20:50:16.793861+01 | 1486151416.79386 | pgbench_branches |            40960

 2017-02-03 20:50:17.88798+01 | 1486151417.88798 | pgbench_accounts |      13429514240
 2017-02-03 20:50:17.88798+01 | 1486151417.88798 | pgbench_tellers  |           450560
 2017-02-03 20:50:17.88798+01 | 1486151417.88798 | pgbench_history  |                0
 2017-02-03 20:50:17.88798+01 | 1486151417.88798 | pgbench_branches |            40960

 2017-02-03 20:50:18.984663+01 | 1486151418.98466 | pgbench_accounts |      13429514240
 2017-02-03 20:50:18.984663+01 | 1486151418.98466 | pgbench_tellers  |           450560
 2017-02-03 20:50:18.984663+01 | 1486151418.98466 | pgbench_history  |                0
 2017-02-03 20:50:18.984663+01 | 1486151418.98466 | pgbench_branches |            40960

 2017-02-03 20:50:20.088603+01 | 1486151420.0886 | pgbench_accounts |      13429514240
 2017-02-03 20:50:20.088603+01 | 1486151420.0886 | pgbench_tellers  |           450560
 2017-02-03 20:50:20.088603+01 | 1486151420.0886 | pgbench_history  |                0
 2017-02-03 20:50:20.088603+01 | 1486151420.0886 | pgbench_branches |            40960

 2017-02-03 20:50:21.182122+01 | 1486151421.18212 | pgbench_accounts |      13429514240
 2017-02-03 20:50:21.182122+01 | 1486151421.18212 | pgbench_tellers  |           450560
 2017-02-03 20:50:21.182122+01 | 1486151421.18212 | pgbench_history  |                0
 2017-02-03 20:50:21.182122+01 | 1486151421.18212 | pgbench_branches |            40960

 2017-02-03 20:50:22.268733+01 | 1486151422.26873 | pgbench_accounts |      13429514240
 2017-02-03 20:50:22.268733+01 | 1486151422.26873 | pgbench_tellers  |           450560
 2017-02-03 20:50:22.268733+01 | 1486151422.26873 | pgbench_history  |                0
 2017-02-03 20:50:22.268733+01 | 1486151422.26873 | pgbench_branches |            40960

 2017-02-03 20:50:23.353874+01 | 1486151423.35387 | pgbench_accounts |      13429514240
 2017-02-03 20:50:23.353874+01 | 1486151423.35387 | pgbench_tellers  |           450560
 2017-02-03 20:50:23.353874+01 | 1486151423.35387 | pgbench_history  |                0
 2017-02-03 20:50:23.353874+01 | 1486151423.35387 | pgbench_branches |            40960

 2017-02-03 20:50:24.45627+01 | 1486151424.45627 | pgbench_accounts |      13429514240
 2017-02-03 20:50:24.45627+01 | 1486151424.45627 | pgbench_tellers  |           450560
 2017-02-03 20:50:24.45627+01 | 1486151424.45627 | pgbench_history  |                0
 2017-02-03 20:50:24.45627+01 | 1486151424.45627 | pgbench_branches |            40960

 2017-02-03 20:50:25.550565+01 | 1486151425.55057 | pgbench_accounts |      13429514240
 2017-02-03 20:50:25.550565+01 | 1486151425.55057 | pgbench_tellers  |           450560
 2017-02-03 20:50:25.550565+01 | 1486151425.55057 | pgbench_history  |                0
 2017-02-03 20:50:25.550565+01 | 1486151425.55057 | pgbench_branches |            40960

 2017-02-03 20:50:26.635344+01 | 1486151426.63534 | pgbench_accounts |      13429514240
 2017-02-03 20:50:26.635344+01 | 1486151426.63534 | pgbench_tellers  |           450560
 2017-02-03 20:50:26.635344+01 | 1486151426.63534 | pgbench_history  |                0
 2017-02-03 20:50:26.635344+01 | 1486151426.63534 | pgbench_branches |            40960

 2017-02-03 20:50:27.733994+01 | 1486151427.73399 | pgbench_accounts |      13429514240
 2017-02-03 20:50:27.733994+01 | 1486151427.73399 | pgbench_tellers  |           450560
 2017-02-03 20:50:27.733994+01 | 1486151427.73399 | pgbench_history  |                0
 2017-02-03 20:50:27.733994+01 | 1486151427.73399 | pgbench_branches |            40960

 2017-02-03 20:50:28.828971+01 | 1486151428.82897 | pgbench_accounts |      13429514240
 2017-02-03 20:50:28.828971+01 | 1486151428.82897 | pgbench_tellers  |           450560
 2017-02-03 20:50:28.828971+01 | 1486151428.82897 | pgbench_history  |                0
 2017-02-03 20:50:28.828971+01 | 1486151428.82897 | pgbench_branches |            40960

 2017-02-03 20:50:29.92885+01 | 1486151429.92885 | pgbench_accounts |      13429514240
 2017-02-03 20:50:29.92885+01 | 1486151429.92885 | pgbench_tellers  |           450560
 2017-02-03 20:50:29.92885+01 | 1486151429.92885 | pgbench_history  |                0
 2017-02-03 20:50:29.92885+01 | 1486151429.92885 | pgbench_branches |            40960

 2017-02-03 20:50:31.029241+01 | 1486151431.02924 | pgbench_accounts |      13429514240
 2017-02-03 20:50:31.029241+01 | 1486151431.02924 | pgbench_tellers  |           450560
 2017-02-03 20:50:31.029241+01 | 1486151431.02924 | pgbench_history  |                0
 2017-02-03 20:50:31.029241+01 | 1486151431.02924 | pgbench_branches |            40960

 2017-02-03 20:50:32.126221+01 | 1486151432.12622 | pgbench_accounts |      13429514240
 2017-02-03 20:50:32.126221+01 | 1486151432.12622 | pgbench_tellers  |           450560
 2017-02-03 20:50:32.126221+01 | 1486151432.12622 | pgbench_history  |                0
 2017-02-03 20:50:32.126221+01 | 1486151432.12622 | pgbench_branches |            40960

 2017-02-03 20:50:33.222435+01 | 1486151433.22243 | pgbench_accounts |      13429514240
 2017-02-03 20:50:33.222435+01 | 1486151433.22243 | pgbench_tellers  |           450560
 2017-02-03 20:50:33.222435+01 | 1486151433.22243 | pgbench_history  |                0
 2017-02-03 20:50:33.222435+01 | 1486151433.22243 | pgbench_branches |            40960

 2017-02-03 20:50:34.318153+01 | 1486151434.31815 | pgbench_accounts |      13429514240
 2017-02-03 20:50:34.318153+01 | 1486151434.31815 | pgbench_tellers  |           450560
 2017-02-03 20:50:34.318153+01 | 1486151434.31815 | pgbench_history  |                0
 2017-02-03 20:50:34.318153+01 | 1486151434.31815 | pgbench_branches |            40960

 2017-02-03 20:50:35.412576+01 | 1486151435.41258 | pgbench_accounts |      13429514240
 2017-02-03 20:50:35.412576+01 | 1486151435.41258 | pgbench_tellers  |           450560
 2017-02-03 20:50:35.412576+01 | 1486151435.41258 | pgbench_history  |                0
 2017-02-03 20:50:35.412576+01 | 1486151435.41258 | pgbench_branches |            40960

 2017-02-03 20:50:36.509983+01 | 1486151436.50998 | pgbench_accounts |      13429514240
 2017-02-03 20:50:36.509983+01 | 1486151436.50998 | pgbench_tellers  |           450560
 2017-02-03 20:50:36.509983+01 | 1486151436.50998 | pgbench_history  |                0
 2017-02-03 20:50:36.509983+01 | 1486151436.50998 | pgbench_branches |            40960

 2017-02-03 20:50:37.606817+01 | 1486151437.60682 | pgbench_accounts |      13429514240
 2017-02-03 20:50:37.606817+01 | 1486151437.60682 | pgbench_tellers  |           450560
 2017-02-03 20:50:37.606817+01 | 1486151437.60682 | pgbench_history  |                0
 2017-02-03 20:50:37.606817+01 | 1486151437.60682 | pgbench_branches |            40960

 2017-02-03 20:50:38.696087+01 | 1486151438.69609 | pgbench_accounts |      13429514240
 2017-02-03 20:50:38.696087+01 | 1486151438.69609 | pgbench_tellers  |           450560
 2017-02-03 20:50:38.696087+01 | 1486151438.69609 | pgbench_history  |                0
 2017-02-03 20:50:38.696087+01 | 1486151438.69609 | pgbench_branches |            40960

 2017-02-03 20:50:39.796368+01 | 1486151439.79637 | pgbench_accounts |      13429514240
 2017-02-03 20:50:39.796368+01 | 1486151439.79637 | pgbench_tellers  |           450560
 2017-02-03 20:50:39.796368+01 | 1486151439.79637 | pgbench_history  |                0
 2017-02-03 20:50:39.796368+01 | 1486151439.79637 | pgbench_branches |            40960

 2017-02-03 20:50:40.889553+01 | 1486151440.88955 | pgbench_accounts |      13429514240
 2017-02-03 20:50:40.889553+01 | 1486151440.88955 | pgbench_tellers  |           450560
 2017-02-03 20:50:40.889553+01 | 1486151440.88955 | pgbench_history  |                0
 2017-02-03 20:50:40.889553+01 | 1486151440.88955 | pgbench_branches |            40960

 2017-02-03 20:50:41.985416+01 | 1486151441.98542 | pgbench_accounts |      13429514240
 2017-02-03 20:50:41.985416+01 | 1486151441.98542 | pgbench_tellers  |           450560
 2017-02-03 20:50:41.985416+01 | 1486151441.98542 | pgbench_history  |                0
 2017-02-03 20:50:41.985416+01 | 1486151441.98542 | pgbench_branches |            40960

 2017-02-03 20:50:43.083651+01 | 1486151443.08365 | pgbench_accounts |      13429514240
 2017-02-03 20:50:43.083651+01 | 1486151443.08365 | pgbench_tellers  |           450560
 2017-02-03 20:50:43.083651+01 | 1486151443.08365 | pgbench_history  |                0
 2017-02-03 20:50:43.083651+01 | 1486151443.08365 | pgbench_branches |            40960

 2017-02-03 20:50:44.177911+01 | 1486151444.17791 | pgbench_accounts |      13429514240
 2017-02-03 20:50:44.177911+01 | 1486151444.17791 | pgbench_tellers  |           450560
 2017-02-03 20:50:44.177911+01 | 1486151444.17791 | pgbench_history  |                0
 2017-02-03 20:50:44.177911+01 | 1486151444.17791 | pgbench_branches |            40960

 2017-02-03 20:50:45.267871+01 | 1486151445.26787 | pgbench_accounts |      13429514240
 2017-02-03 20:50:45.267871+01 | 1486151445.26787 | pgbench_tellers  |           450560
 2017-02-03 20:50:45.267871+01 | 1486151445.26787 | pgbench_history  |                0
 2017-02-03 20:50:45.267871+01 | 1486151445.26787 | pgbench_branches |            40960

 2017-02-03 20:50:46.364413+01 | 1486151446.36441 | pgbench_accounts |      13429514240
 2017-02-03 20:50:46.364413+01 | 1486151446.36441 | pgbench_tellers  |           450560
 2017-02-03 20:50:46.364413+01 | 1486151446.36441 | pgbench_history  |                0
 2017-02-03 20:50:46.364413+01 | 1486151446.36441 | pgbench_branches |            40960

 2017-02-03 20:50:47.460881+01 | 1486151447.46088 | pgbench_accounts |      13429514240
 2017-02-03 20:50:47.460881+01 | 1486151447.46088 | pgbench_tellers  |           450560
 2017-02-03 20:50:47.460881+01 | 1486151447.46088 | pgbench_history  |                0
 2017-02-03 20:50:47.460881+01 | 1486151447.46088 | pgbench_branches |            40960

 2017-02-03 20:50:48.554808+01 | 1486151448.55481 | pgbench_accounts |      13429514240
 2017-02-03 20:50:48.554808+01 | 1486151448.55481 | pgbench_tellers  |           450560
 2017-02-03 20:50:48.554808+01 | 1486151448.55481 | pgbench_history  |                0
 2017-02-03 20:50:48.554808+01 | 1486151448.55481 | pgbench_branches |            40960

 2017-02-03 20:50:49.652836+01 | 1486151449.65284 | pgbench_accounts |      13429514240
 2017-02-03 20:50:49.652836+01 | 1486151449.65284 | pgbench_tellers  |           450560
 2017-02-03 20:50:49.652836+01 | 1486151449.65284 | pgbench_history  |                0
 2017-02-03 20:50:49.652836+01 | 1486151449.65284 | pgbench_branches |            40960

 2017-02-03 20:50:50.754106+01 | 1486151450.75411 | pgbench_accounts |      13429514240
 2017-02-03 20:50:50.754106+01 | 1486151450.75411 | pgbench_tellers  |           450560
 2017-02-03 20:50:50.754106+01 | 1486151450.75411 | pgbench_history  |                0
 2017-02-03 20:50:50.754106+01 | 1486151450.75411 | pgbench_branches |            40960

 2017-02-03 20:50:51.838709+01 | 1486151451.83871 | pgbench_accounts |      13429514240
 2017-02-03 20:50:51.838709+01 | 1486151451.83871 | pgbench_tellers  |           450560
 2017-02-03 20:50:51.838709+01 | 1486151451.83871 | pgbench_history  |                0
 2017-02-03 20:50:51.838709+01 | 1486151451.83871 | pgbench_branches |            40960

 2017-02-03 20:50:52.936651+01 | 1486151452.93665 | pgbench_accounts |      13429514240
 2017-02-03 20:50:52.936651+01 | 1486151452.93665 | pgbench_tellers  |           450560
 2017-02-03 20:50:52.936651+01 | 1486151452.93665 | pgbench_history  |                0
 2017-02-03 20:50:52.936651+01 | 1486151452.93665 | pgbench_branches |            40960

 2017-02-03 20:50:54.027172+01 | 1486151454.02717 | pgbench_accounts |      13429514240
 2017-02-03 20:50:54.027172+01 | 1486151454.02717 | pgbench_tellers  |           450560
 2017-02-03 20:50:54.027172+01 | 1486151454.02717 | pgbench_history  |                0
 2017-02-03 20:50:54.027172+01 | 1486151454.02717 | pgbench_branches |            40960

 2017-02-03 20:50:55.122369+01 | 1486151455.12237 | pgbench_accounts |      13429514240
 2017-02-03 20:50:55.122369+01 | 1486151455.12237 | pgbench_tellers  |           450560
 2017-02-03 20:50:55.122369+01 | 1486151455.12237 | pgbench_history  |                0
 2017-02-03 20:50:55.122369+01 | 1486151455.12237 | pgbench_branches |            40960

 2017-02-03 20:50:56.21118+01 | 1486151456.21118 | pgbench_accounts |      13429514240
 2017-02-03 20:50:56.21118+01 | 1486151456.21118 | pgbench_tellers  |           450560
 2017-02-03 20:50:56.21118+01 | 1486151456.21118 | pgbench_history  |                0
 2017-02-03 20:50:56.21118+01 | 1486151456.21118 | pgbench_branches |            40960

 2017-02-03 20:50:57.30763+01 | 1486151457.30763 | pgbench_accounts |      13429514240
 2017-02-03 20:50:57.30763+01 | 1486151457.30763 | pgbench_tellers  |           450560
 2017-02-03 20:50:57.30763+01 | 1486151457.30763 | pgbench_history  |                0
 2017-02-03 20:50:57.30763+01 | 1486151457.30763 | pgbench_branches |            40960

 2017-02-03 20:50:58.404813+01 | 1486151458.40481 | pgbench_accounts |      13429514240
 2017-02-03 20:50:58.404813+01 | 1486151458.40481 | pgbench_tellers  |           450560
 2017-02-03 20:50:58.404813+01 | 1486151458.40481 | pgbench_history  |                0
 2017-02-03 20:50:58.404813+01 | 1486151458.40481 | pgbench_branches |            40960

 2017-02-03 20:50:59.497857+01 | 1486151459.49786 | pgbench_accounts |      13429514240
 2017-02-03 20:50:59.497857+01 | 1486151459.49786 | pgbench_tellers  |           450560
 2017-02-03 20:50:59.497857+01 | 1486151459.49786 | pgbench_history  |                0
 2017-02-03 20:50:59.497857+01 | 1486151459.49786 | pgbench_branches |            40960

 2017-02-03 20:51:00.589379+01 | 1486151460.58938 | pgbench_accounts |      13429514240
 2017-02-03 20:51:00.589379+01 | 1486151460.58938 | pgbench_tellers  |           450560
 2017-02-03 20:51:00.589379+01 | 1486151460.58938 | pgbench_history  |                0
 2017-02-03 20:51:00.589379+01 | 1486151460.58938 | pgbench_branches |            40960

 2017-02-03 20:51:01.692276+01 | 1486151461.69228 | pgbench_accounts |      13429514240
 2017-02-03 20:51:01.692276+01 | 1486151461.69228 | pgbench_tellers  |           450560
 2017-02-03 20:51:01.692276+01 | 1486151461.69228 | pgbench_history  |                0
 2017-02-03 20:51:01.692276+01 | 1486151461.69228 | pgbench_branches |            40960

 2017-02-03 20:51:02.783501+01 | 1486151462.7835 | pgbench_accounts |      13429514240
 2017-02-03 20:51:02.783501+01 | 1486151462.7835 | pgbench_tellers  |           450560
 2017-02-03 20:51:02.783501+01 | 1486151462.7835 | pgbench_history  |                0
 2017-02-03 20:51:02.783501+01 | 1486151462.7835 | pgbench_branches |            40960

 2017-02-03 20:51:03.885807+01 | 1486151463.88581 | pgbench_accounts |      13429514240
 2017-02-03 20:51:03.885807+01 | 1486151463.88581 | pgbench_tellers  |           450560
 2017-02-03 20:51:03.885807+01 | 1486151463.88581 | pgbench_history  |                0
 2017-02-03 20:51:03.885807+01 | 1486151463.88581 | pgbench_branches |            40960

 2017-02-03 20:51:04.982916+01 | 1486151464.98292 | pgbench_accounts |      13429514240
 2017-02-03 20:51:04.982916+01 | 1486151464.98292 | pgbench_tellers  |           450560
 2017-02-03 20:51:04.982916+01 | 1486151464.98292 | pgbench_history  |                0
 2017-02-03 20:51:04.982916+01 | 1486151464.98292 | pgbench_branches |            40960

 2017-02-03 20:51:06.075906+01 | 1486151466.07591 | pgbench_accounts |      13429514240
 2017-02-03 20:51:06.075906+01 | 1486151466.07591 | pgbench_tellers  |           450560
 2017-02-03 20:51:06.075906+01 | 1486151466.07591 | pgbench_history  |                0
 2017-02-03 20:51:06.075906+01 | 1486151466.07591 | pgbench_branches |            40960

 2017-02-03 20:51:07.172579+01 | 1486151467.17258 | pgbench_accounts |      13429514240
 2017-02-03 20:51:07.172579+01 | 1486151467.17258 | pgbench_tellers  |           450560
 2017-02-03 20:51:07.172579+01 | 1486151467.17258 | pgbench_history  |                0
 2017-02-03 20:51:07.172579+01 | 1486151467.17258 | pgbench_branches |            40960

 2017-02-03 20:51:08.267378+01 | 1486151468.26738 | pgbench_accounts |      13429514240
 2017-02-03 20:51:08.267378+01 | 1486151468.26738 | pgbench_tellers  |           450560
 2017-02-03 20:51:08.267378+01 | 1486151468.26738 | pgbench_history  |                0
 2017-02-03 20:51:08.267378+01 | 1486151468.26738 | pgbench_branches |            40960

 2017-02-03 20:51:09.363539+01 | 1486151469.36354 | pgbench_accounts |      13429514240
 2017-02-03 20:51:09.363539+01 | 1486151469.36354 | pgbench_tellers  |           450560
 2017-02-03 20:51:09.363539+01 | 1486151469.36354 | pgbench_history  |                0
 2017-02-03 20:51:09.363539+01 | 1486151469.36354 | pgbench_branches |            40960

 2017-02-03 20:51:10.460442+01 | 1486151470.46044 | pgbench_accounts |      13429514240
 2017-02-03 20:51:10.460442+01 | 1486151470.46044 | pgbench_tellers  |           450560
 2017-02-03 20:51:10.460442+01 | 1486151470.46044 | pgbench_history  |                0
 2017-02-03 20:51:10.460442+01 | 1486151470.46044 | pgbench_branches |            40960

 2017-02-03 20:51:11.553526+01 | 1486151471.55353 | pgbench_accounts |      13429514240
 2017-02-03 20:51:11.553526+01 | 1486151471.55353 | pgbench_tellers  |           450560
 2017-02-03 20:51:11.553526+01 | 1486151471.55353 | pgbench_history  |                0
 2017-02-03 20:51:11.553526+01 | 1486151471.55353 | pgbench_branches |            40960

 2017-02-03 20:51:12.649821+01 | 1486151472.64982 | pgbench_accounts |      13429514240
 2017-02-03 20:51:12.649821+01 | 1486151472.64982 | pgbench_tellers  |           450560
 2017-02-03 20:51:12.649821+01 | 1486151472.64982 | pgbench_history  |                0
 2017-02-03 20:51:12.649821+01 | 1486151472.64982 | pgbench_branches |            40960

 2017-02-03 20:51:13.748584+01 | 1486151473.74858 | pgbench_accounts |      13429514240
 2017-02-03 20:51:13.748584+01 | 1486151473.74858 | pgbench_tellers  |           450560
 2017-02-03 20:51:13.748584+01 | 1486151473.74858 | pgbench_history  |                0
 2017-02-03 20:51:13.748584+01 | 1486151473.74858 | pgbench_branches |            40960

 2017-02-03 20:51:14.838197+01 | 1486151474.8382 | pgbench_accounts |      13429514240
 2017-02-03 20:51:14.838197+01 | 1486151474.8382 | pgbench_tellers  |           450560
 2017-02-03 20:51:14.838197+01 | 1486151474.8382 | pgbench_history  |                0
 2017-02-03 20:51:14.838197+01 | 1486151474.8382 | pgbench_branches |            40960

 2017-02-03 20:51:15.932431+01 | 1486151475.93243 | pgbench_accounts |      13429514240
 2017-02-03 20:51:15.932431+01 | 1486151475.93243 | pgbench_tellers  |           450560
 2017-02-03 20:51:15.932431+01 | 1486151475.93243 | pgbench_history  |                0
 2017-02-03 20:51:15.932431+01 | 1486151475.93243 | pgbench_branches |            40960

 2017-02-03 20:51:17.034171+01 | 1486151477.03417 | pgbench_accounts |      13429514240
 2017-02-03 20:51:17.034171+01 | 1486151477.03417 | pgbench_tellers  |           450560
 2017-02-03 20:51:17.034171+01 | 1486151477.03417 | pgbench_history  |                0
 2017-02-03 20:51:17.034171+01 | 1486151477.03417 | pgbench_branches |            40960

 2017-02-03 20:51:18.123916+01 | 1486151478.12392 | pgbench_accounts |      13429514240
 2017-02-03 20:51:18.123916+01 | 1486151478.12392 | pgbench_tellers  |           450560
 2017-02-03 20:51:18.123916+01 | 1486151478.12392 | pgbench_history  |                0
 2017-02-03 20:51:18.123916+01 | 1486151478.12392 | pgbench_branches |            40960

 2017-02-03 20:51:19.213599+01 | 1486151479.2136 | pgbench_accounts |      13429514240
 2017-02-03 20:51:19.213599+01 | 1486151479.2136 | pgbench_tellers  |           450560
 2017-02-03 20:51:19.213599+01 | 1486151479.2136 | pgbench_history  |                0
 2017-02-03 20:51:19.213599+01 | 1486151479.2136 | pgbench_branches |            40960

 2017-02-03 20:51:20.313588+01 | 1486151480.31359 | pgbench_accounts |      13429514240
 2017-02-03 20:51:20.313588+01 | 1486151480.31359 | pgbench_tellers  |           450560
 2017-02-03 20:51:20.313588+01 | 1486151480.31359 | pgbench_history  |                0
 2017-02-03 20:51:20.313588+01 | 1486151480.31359 | pgbench_branches |            40960

 2017-02-03 20:51:21.408714+01 | 1486151481.40871 | pgbench_accounts |      13429514240
 2017-02-03 20:51:21.408714+01 | 1486151481.40871 | pgbench_tellers  |           450560
 2017-02-03 20:51:21.408714+01 | 1486151481.40871 | pgbench_history  |                0
 2017-02-03 20:51:21.408714+01 | 1486151481.40871 | pgbench_branches |            40960

 2017-02-03 20:51:22.503585+01 | 1486151482.50359 | pgbench_accounts |      13429514240
 2017-02-03 20:51:22.503585+01 | 1486151482.50359 | pgbench_tellers  |           450560
 2017-02-03 20:51:22.503585+01 | 1486151482.50359 | pgbench_history  |                0
 2017-02-03 20:51:22.503585+01 | 1486151482.50359 | pgbench_branches |            40960

 2017-02-03 20:51:23.593307+01 | 1486151483.59331 | pgbench_accounts |      13429514240
 2017-02-03 20:51:23.593307+01 | 1486151483.59331 | pgbench_tellers  |           450560
 2017-02-03 20:51:23.593307+01 | 1486151483.59331 | pgbench_history  |                0
 2017-02-03 20:51:23.593307+01 | 1486151483.59331 | pgbench_branches |            40960

 2017-02-03 20:51:24.694237+01 | 1486151484.69424 | pgbench_accounts |      13429514240
 2017-02-03 20:51:24.694237+01 | 1486151484.69424 | pgbench_tellers  |           450560
 2017-02-03 20:51:24.694237+01 | 1486151484.69424 | pgbench_history  |                0
 2017-02-03 20:51:24.694237+01 | 1486151484.69424 | pgbench_branches |            40960

 2017-02-03 20:51:25.801374+01 | 1486151485.80137 | pgbench_accounts |      13429514240
 2017-02-03 20:51:25.801374+01 | 1486151485.80137 | pgbench_tellers  |           450560
 2017-02-03 20:51:25.801374+01 | 1486151485.80137 | pgbench_history  |                0
 2017-02-03 20:51:25.801374+01 | 1486151485.80137 | pgbench_branches |            40960

 2017-02-03 20:51:26.884397+01 | 1486151486.8844 | pgbench_accounts |      13429514240
 2017-02-03 20:51:26.884397+01 | 1486151486.8844 | pgbench_tellers  |           450560
 2017-02-03 20:51:26.884397+01 | 1486151486.8844 | pgbench_history  |                0
 2017-02-03 20:51:26.884397+01 | 1486151486.8844 | pgbench_branches |            40960

 2017-02-03 20:51:27.975013+01 | 1486151487.97501 | pgbench_accounts |      13429514240
 2017-02-03 20:51:27.975013+01 | 1486151487.97501 | pgbench_tellers  |           450560
 2017-02-03 20:51:27.975013+01 | 1486151487.97501 | pgbench_history  |                0
 2017-02-03 20:51:27.975013+01 | 1486151487.97501 | pgbench_branches |            40960

 2017-02-03 20:51:29.067026+01 | 1486151489.06703 | pgbench_accounts |      13429514240
 2017-02-03 20:51:29.067026+01 | 1486151489.06703 | pgbench_tellers  |           450560
 2017-02-03 20:51:29.067026+01 | 1486151489.06703 | pgbench_history  |                0
 2017-02-03 20:51:29.067026+01 | 1486151489.06703 | pgbench_branches |            40960

 2017-02-03 20:51:30.162323+01 | 1486151490.16232 | pgbench_accounts |      13429514240
 2017-02-03 20:51:30.162323+01 | 1486151490.16232 | pgbench_tellers  |           450560
 2017-02-03 20:51:30.162323+01 | 1486151490.16232 | pgbench_history  |                0
 2017-02-03 20:51:30.162323+01 | 1486151490.16232 | pgbench_branches |            40960

 2017-02-03 20:51:31.269613+01 | 1486151491.26961 | pgbench_accounts |      13429514240
 2017-02-03 20:51:31.269613+01 | 1486151491.26961 | pgbench_tellers  |           450560
 2017-02-03 20:51:31.269613+01 | 1486151491.26961 | pgbench_history  |                0
 2017-02-03 20:51:31.269613+01 | 1486151491.26961 | pgbench_branches |            40960

 2017-02-03 20:51:32.375515+01 | 1486151492.37551 | pgbench_accounts |      13429514240
 2017-02-03 20:51:32.375515+01 | 1486151492.37551 | pgbench_tellers  |           450560
 2017-02-03 20:51:32.375515+01 | 1486151492.37551 | pgbench_history  |                0
 2017-02-03 20:51:32.375515+01 | 1486151492.37551 | pgbench_branches |            40960

 2017-02-03 20:51:33.46835+01 | 1486151493.46835 | pgbench_accounts |      13429514240
 2017-02-03 20:51:33.46835+01 | 1486151493.46835 | pgbench_tellers  |           450560
 2017-02-03 20:51:33.46835+01 | 1486151493.46835 | pgbench_history  |                0
 2017-02-03 20:51:33.46835+01 | 1486151493.46835 | pgbench_branches |            40960

 2017-02-03 20:51:34.56873+01 | 1486151494.56873 | pgbench_accounts |      13429514240
 2017-02-03 20:51:34.56873+01 | 1486151494.56873 | pgbench_tellers  |           450560
 2017-02-03 20:51:34.56873+01 | 1486151494.56873 | pgbench_history  |                0
 2017-02-03 20:51:34.56873+01 | 1486151494.56873 | pgbench_branches |            40960

 2017-02-03 20:51:35.664102+01 | 1486151495.6641 | pgbench_accounts |      13429514240
 2017-02-03 20:51:35.664102+01 | 1486151495.6641 | pgbench_tellers  |           450560
 2017-02-03 20:51:35.664102+01 | 1486151495.6641 | pgbench_history  |                0
 2017-02-03 20:51:35.664102+01 | 1486151495.6641 | pgbench_branches |            40960

 2017-02-03 20:51:36.759831+01 | 1486151496.75983 | pgbench_accounts |      13429514240
 2017-02-03 20:51:36.759831+01 | 1486151496.75983 | pgbench_tellers  |           450560
 2017-02-03 20:51:36.759831+01 | 1486151496.75983 | pgbench_history  |                0
 2017-02-03 20:51:36.759831+01 | 1486151496.75983 | pgbench_branches |            40960

 2017-02-03 20:51:37.850932+01 | 1486151497.85093 | pgbench_accounts |      13429514240
 2017-02-03 20:51:37.850932+01 | 1486151497.85093 | pgbench_tellers  |           450560
 2017-02-03 20:51:37.850932+01 | 1486151497.85093 | pgbench_history  |                0
 2017-02-03 20:51:37.850932+01 | 1486151497.85093 | pgbench_branches |            40960

 2017-02-03 20:51:38.950597+01 | 1486151498.9506 | pgbench_accounts |      13429514240
 2017-02-03 20:51:38.950597+01 | 1486151498.9506 | pgbench_tellers  |           450560
 2017-02-03 20:51:38.950597+01 | 1486151498.9506 | pgbench_history  |                0
 2017-02-03 20:51:38.950597+01 | 1486151498.9506 | pgbench_branches |            40960

 2017-02-03 20:51:40.044128+01 | 1486151500.04413 | pgbench_accounts |      13429514240
 2017-02-03 20:51:40.044128+01 | 1486151500.04413 | pgbench_tellers  |           450560
 2017-02-03 20:51:40.044128+01 | 1486151500.04413 | pgbench_history  |                0
 2017-02-03 20:51:40.044128+01 | 1486151500.04413 | pgbench_branches |            40960

 2017-02-03 20:51:41.138725+01 | 1486151501.13873 | pgbench_accounts |      13429514240
 2017-02-03 20:51:41.138725+01 | 1486151501.13873 | pgbench_tellers  |           450560
 2017-02-03 20:51:41.138725+01 | 1486151501.13873 | pgbench_history  |                0
 2017-02-03 20:51:41.138725+01 | 1486151501.13873 | pgbench_branches |            40960

 2017-02-03 20:51:42.22761+01 | 1486151502.22761 | pgbench_accounts |      13429514240
 2017-02-03 20:51:42.22761+01 | 1486151502.22761 | pgbench_tellers  |           450560
 2017-02-03 20:51:42.22761+01 | 1486151502.22761 | pgbench_history  |                0
 2017-02-03 20:51:42.22761+01 | 1486151502.22761 | pgbench_branches |            40960

 2017-02-03 20:51:43.317658+01 | 1486151503.31766 | pgbench_accounts |      13429514240
 2017-02-03 20:51:43.317658+01 | 1486151503.31766 | pgbench_tellers  |           450560
 2017-02-03 20:51:43.317658+01 | 1486151503.31766 | pgbench_history  |                0
 2017-02-03 20:51:43.317658+01 | 1486151503.31766 | pgbench_branches |            40960

 2017-02-03 20:51:44.417545+01 | 1486151504.41755 | pgbench_accounts |      13429514240
 2017-02-03 20:51:44.417545+01 | 1486151504.41755 | pgbench_tellers  |           450560
 2017-02-03 20:51:44.417545+01 | 1486151504.41755 | pgbench_history  |                0
 2017-02-03 20:51:44.417545+01 | 1486151504.41755 | pgbench_branches |            40960

 2017-02-03 20:51:45.508896+01 | 1486151505.5089 | pgbench_accounts |      13429514240
 2017-02-03 20:51:45.508896+01 | 1486151505.5089 | pgbench_tellers  |           450560
 2017-02-03 20:51:45.508896+01 | 1486151505.5089 | pgbench_history  |                0
 2017-02-03 20:51:45.508896+01 | 1486151505.5089 | pgbench_branches |            40960

 2017-02-03 20:51:46.605579+01 | 1486151506.60558 | pgbench_accounts |      13429514240
 2017-02-03 20:51:46.605579+01 | 1486151506.60558 | pgbench_tellers  |           450560
 2017-02-03 20:51:46.605579+01 | 1486151506.60558 | pgbench_history  |                0
 2017-02-03 20:51:46.605579+01 | 1486151506.60558 | pgbench_branches |            40960

 2017-02-03 20:51:47.70157+01 | 1486151507.70157 | pgbench_accounts |      13429514240
 2017-02-03 20:51:47.70157+01 | 1486151507.70157 | pgbench_tellers  |           450560
 2017-02-03 20:51:47.70157+01 | 1486151507.70157 | pgbench_history  |                0
 2017-02-03 20:51:47.70157+01 | 1486151507.70157 | pgbench_branches |            40960

 2017-02-03 20:51:48.791273+01 | 1486151508.79127 | pgbench_accounts |      13429514240
 2017-02-03 20:51:48.791273+01 | 1486151508.79127 | pgbench_tellers  |           450560
 2017-02-03 20:51:48.791273+01 | 1486151508.79127 | pgbench_history  |                0
 2017-02-03 20:51:48.791273+01 | 1486151508.79127 | pgbench_branches |            40960

 2017-02-03 20:51:49.904011+01 | 1486151509.90401 | pgbench_accounts |      13429514240
 2017-02-03 20:51:49.904011+01 | 1486151509.90401 | pgbench_tellers  |           450560
 2017-02-03 20:51:49.904011+01 | 1486151509.90401 | pgbench_history  |                0
 2017-02-03 20:51:49.904011+01 | 1486151509.90401 | pgbench_branches |            40960

 2017-02-03 20:51:50.992415+01 | 1486151510.99241 | pgbench_accounts |      13429514240
 2017-02-03 20:51:50.992415+01 | 1486151510.99241 | pgbench_tellers  |           450560
 2017-02-03 20:51:50.992415+01 | 1486151510.99241 | pgbench_history  |                0
 2017-02-03 20:51:50.992415+01 | 1486151510.99241 | pgbench_branches |            40960

 2017-02-03 20:51:52.08466+01 | 1486151512.08466 | pgbench_accounts |      13429514240
 2017-02-03 20:51:52.08466+01 | 1486151512.08466 | pgbench_tellers  |           450560
 2017-02-03 20:51:52.08466+01 | 1486151512.08466 | pgbench_history  |                0
 2017-02-03 20:51:52.08466+01 | 1486151512.08466 | pgbench_branches |            40960

 2017-02-03 20:51:53.179412+01 | 1486151513.17941 | pgbench_accounts |      13429514240
 2017-02-03 20:51:53.179412+01 | 1486151513.17941 | pgbench_tellers  |           450560
 2017-02-03 20:51:53.179412+01 | 1486151513.17941 | pgbench_history  |                0
 2017-02-03 20:51:53.179412+01 | 1486151513.17941 | pgbench_branches |            40960

 2017-02-03 20:51:54.265989+01 | 1486151514.26599 | pgbench_accounts |      13429514240
 2017-02-03 20:51:54.265989+01 | 1486151514.26599 | pgbench_tellers  |           450560
 2017-02-03 20:51:54.265989+01 | 1486151514.26599 | pgbench_history  |                0
 2017-02-03 20:51:54.265989+01 | 1486151514.26599 | pgbench_branches |            40960

 2017-02-03 20:51:55.363564+01 | 1486151515.36356 | pgbench_accounts |      13429514240
 2017-02-03 20:51:55.363564+01 | 1486151515.36356 | pgbench_tellers  |           450560
 2017-02-03 20:51:55.363564+01 | 1486151515.36356 | pgbench_history  |                0
 2017-02-03 20:51:55.363564+01 | 1486151515.36356 | pgbench_branches |            40960

 2017-02-03 20:51:56.456174+01 | 1486151516.45617 | pgbench_accounts |      13429514240
 2017-02-03 20:51:56.456174+01 | 1486151516.45617 | pgbench_tellers  |           450560
 2017-02-03 20:51:56.456174+01 | 1486151516.45617 | pgbench_history  |                0
 2017-02-03 20:51:56.456174+01 | 1486151516.45617 | pgbench_branches |            40960

 2017-02-03 20:51:57.558638+01 | 1486151517.55864 | pgbench_accounts |      13429514240
 2017-02-03 20:51:57.558638+01 | 1486151517.55864 | pgbench_tellers  |           450560
 2017-02-03 20:51:57.558638+01 | 1486151517.55864 | pgbench_history  |                0
 2017-02-03 20:51:57.558638+01 | 1486151517.55864 | pgbench_branches |            40960

 2017-02-03 20:51:58.649269+01 | 1486151518.64927 | pgbench_accounts |      13429514240
 2017-02-03 20:51:58.649269+01 | 1486151518.64927 | pgbench_tellers  |           450560
 2017-02-03 20:51:58.649269+01 | 1486151518.64927 | pgbench_history  |                0
 2017-02-03 20:51:58.649269+01 | 1486151518.64927 | pgbench_branches |            40960

 2017-02-03 20:51:59.743441+01 | 1486151519.74344 | pgbench_accounts |      13429514240
 2017-02-03 20:51:59.743441+01 | 1486151519.74344 | pgbench_tellers  |           450560
 2017-02-03 20:51:59.743441+01 | 1486151519.74344 | pgbench_history  |                0
 2017-02-03 20:51:59.743441+01 | 1486151519.74344 | pgbench_branches |            40960

 2017-02-03 20:52:00.8476+01 | 1486151520.8476 | pgbench_accounts |      13429514240
 2017-02-03 20:52:00.8476+01 | 1486151520.8476 | pgbench_tellers  |           450560
 2017-02-03 20:52:00.8476+01 | 1486151520.8476 | pgbench_history  |                0
 2017-02-03 20:52:00.8476+01 | 1486151520.8476 | pgbench_branches |            40960

 2017-02-03 20:52:01.94565+01 | 1486151521.94565 | pgbench_accounts |      13429514240
 2017-02-03 20:52:01.94565+01 | 1486151521.94565 | pgbench_tellers  |           450560
 2017-02-03 20:52:01.94565+01 | 1486151521.94565 | pgbench_history  |                0
 2017-02-03 20:52:01.94565+01 | 1486151521.94565 | pgbench_branches |            40960

 2017-02-03 20:52:03.041257+01 | 1486151523.04126 | pgbench_accounts |      13429514240
 2017-02-03 20:52:03.041257+01 | 1486151523.04126 | pgbench_tellers  |           450560
 2017-02-03 20:52:03.041257+01 | 1486151523.04126 | pgbench_history  |                0
 2017-02-03 20:52:03.041257+01 | 1486151523.04126 | pgbench_branches |            40960

 2017-02-03 20:52:04.140996+01 | 1486151524.141 | pgbench_accounts |      13429514240
 2017-02-03 20:52:04.140996+01 | 1486151524.141 | pgbench_tellers  |           450560
 2017-02-03 20:52:04.140996+01 | 1486151524.141 | pgbench_history  |                0
 2017-02-03 20:52:04.140996+01 | 1486151524.141 | pgbench_branches |            40960

 2017-02-03 20:52:05.230049+01 | 1486151525.23005 | pgbench_accounts |      13429514240
 2017-02-03 20:52:05.230049+01 | 1486151525.23005 | pgbench_tellers  |           450560
 2017-02-03 20:52:05.230049+01 | 1486151525.23005 | pgbench_history  |                0
 2017-02-03 20:52:05.230049+01 | 1486151525.23005 | pgbench_branches |            40960

 2017-02-03 20:52:06.333968+01 | 1486151526.33397 | pgbench_accounts |      13429514240
 2017-02-03 20:52:06.333968+01 | 1486151526.33397 | pgbench_tellers  |           450560
 2017-02-03 20:52:06.333968+01 | 1486151526.33397 | pgbench_history  |                0
 2017-02-03 20:52:06.333968+01 | 1486151526.33397 | pgbench_branches |            40960

