 2017-02-04 12:45:44.978992+01 | 1486208744.97899 |                 0 |              12 |                 18686 |                  985 |            2126921 |             0 |                0 |         1083601 |                     0 |        787626 | 2017-02-04 11:49:56.627292+01

 2017-02-04 12:45:46.057476+01 | 1486208746.05748 |                 0 |              12 |                 18686 |                  985 |            2126921 |             0 |                0 |         1083601 |                     0 |        787755 | 2017-02-04 11:49:56.627292+01

 2017-02-04 12:45:47.133027+01 | 1486208747.13303 |                 0 |              12 |                 18686 |                  985 |            2126921 |             0 |                0 |         1083601 |                     0 |        788021 | 2017-02-04 11:49:56.627292+01

 2017-02-04 12:45:48.20889+01 | 1486208748.20889 |                 0 |              12 |                 18686 |                  985 |            2126921 |             0 |                0 |         1083601 |                     0 |        788353 | 2017-02-04 11:49:56.627292+01

 2017-02-04 12:45:49.288903+01 | 1486208749.2889 |                 0 |              12 |                 18686 |                  985 |            2126921 |             0 |                0 |         1083601 |                     0 |        788536 | 2017-02-04 11:49:56.627292+01

 2017-02-04 12:45:50.365445+01 | 1486208750.36544 |                 0 |              12 |                 18686 |                  985 |            2126921 |             0 |                0 |         1083601 |                     0 |        788786 | 2017-02-04 11:49:56.627292+01

 2017-02-04 12:45:51.438644+01 | 1486208751.43864 |                 0 |              12 |                 18686 |                  985 |            2126921 |             0 |                0 |         1083601 |                     0 |        788938 | 2017-02-04 11:49:56.627292+01

 2017-02-04 12:45:52.51255+01 | 1486208752.51255 |                 0 |              12 |                 18686 |                  985 |            2126921 |             0 |                0 |         1083601 |                     0 |        789213 | 2017-02-04 11:49:56.627292+01

 2017-02-04 12:45:53.591482+01 | 1486208753.59148 |                 0 |              12 |                 18686 |                  985 |            2126921 |             0 |                0 |         1083601 |                     0 |        789505 | 2017-02-04 11:49:56.627292+01

 2017-02-04 12:45:54.654858+01 | 1486208754.65486 |                 0 |              12 |                 18686 |                  985 |            2126921 |             0 |                0 |         1083601 |                     0 |        789634 | 2017-02-04 11:49:56.627292+01

 2017-02-04 12:45:55.736732+01 | 1486208755.73673 |                 0 |              12 |                 18686 |                  985 |            2126921 |             0 |                0 |         1083601 |                     0 |        790052 | 2017-02-04 11:49:56.627292+01

 2017-02-04 12:45:56.821451+01 | 1486208756.82145 |                 0 |              12 |                 18686 |                  985 |            2126921 |             0 |                0 |         1083601 |                     0 |        790298 | 2017-02-04 11:49:56.627292+01

 2017-02-04 12:45:57.896398+01 | 1486208757.8964 |                 0 |              12 |                 18686 |                  985 |            2126921 |             0 |                0 |         1083601 |                     0 |        790447 | 2017-02-04 11:49:56.627292+01

 2017-02-04 12:45:58.978413+01 | 1486208758.97841 |                 0 |              12 |                 18686 |                  985 |            2126921 |             0 |                0 |         1083601 |                     0 |        790739 | 2017-02-04 11:49:56.627292+01

 2017-02-04 12:46:00.05403+01 | 1486208760.05403 |                 0 |              12 |                 18686 |                  985 |            2126921 |             0 |                0 |         1083601 |                     0 |        790882 | 2017-02-04 11:49:56.627292+01

 2017-02-04 12:46:01.12838+01 | 1486208761.12838 |                 0 |              12 |                 18686 |                  985 |            2126921 |             0 |                0 |         1083601 |                     0 |        791174 | 2017-02-04 11:49:56.627292+01

 2017-02-04 12:46:02.203968+01 | 1486208762.20397 |                 0 |              12 |                 18686 |                  985 |            2126921 |             0 |                0 |         1083601 |                     0 |        791411 | 2017-02-04 11:49:56.627292+01

 2017-02-04 12:46:03.279982+01 | 1486208763.27998 |                 0 |              12 |                 18686 |                  985 |            2126921 |             0 |                0 |         1083601 |                     0 |        791700 | 2017-02-04 11:49:56.627292+01

 2017-02-04 12:46:04.353724+01 | 1486208764.35372 |                 0 |              12 |                 18686 |                  985 |            2126921 |             0 |                0 |         1083601 |                     0 |        791987 | 2017-02-04 11:49:56.627292+01

 2017-02-04 12:46:05.425091+01 | 1486208765.42509 |                 0 |              12 |                 18686 |                  985 |            2126921 |             0 |                0 |         1083601 |                     0 |        792133 | 2017-02-04 11:49:56.627292+01

 2017-02-04 12:46:06.498322+01 | 1486208766.49832 |                 0 |              12 |                 18686 |                  985 |            2126921 |             0 |                0 |         1083601 |                     0 |        792422 | 2017-02-04 11:49:56.627292+01

 2017-02-04 12:46:07.573103+01 | 1486208767.5731 |                 0 |              12 |                 18686 |                  985 |            2126921 |             0 |                0 |         1083601 |                     0 |        792568 | 2017-02-04 11:49:56.627292+01

 2017-02-04 12:46:08.650708+01 | 1486208768.65071 |                 0 |              12 |                 18686 |                  985 |            2126921 |             0 |                0 |         1083601 |                     0 |        792917 | 2017-02-04 11:49:56.627292+01

 2017-02-04 12:46:09.738825+01 | 1486208769.73883 |                 0 |              12 |                 18686 |                  985 |            2126921 |             0 |                0 |         1083601 |                     0 |        793127 | 2017-02-04 11:49:56.627292+01

 2017-02-04 12:46:10.814768+01 | 1486208770.81477 |                 0 |              12 |                 18686 |                  985 |            2126921 |             0 |                0 |         1083601 |                     0 |        793382 | 2017-02-04 11:49:56.627292+01

 2017-02-04 12:46:11.893169+01 | 1486208771.89317 |                 0 |              12 |                 18686 |                  985 |            2126921 |             0 |                0 |         1083601 |                     0 |        793594 | 2017-02-04 11:49:56.627292+01

 2017-02-04 12:46:12.977774+01 | 1486208772.97777 |                 0 |              12 |                 18686 |                  985 |            2126921 |             0 |                0 |         1083601 |                     0 |        793764 | 2017-02-04 11:49:56.627292+01

 2017-02-04 12:46:14.055145+01 | 1486208774.05515 |                 0 |              12 |                 18686 |                  985 |            2126921 |             0 |                0 |         1083601 |                     0 |        794061 | 2017-02-04 11:49:56.627292+01

 2017-02-04 12:46:15.137697+01 | 1486208775.1377 |                 0 |              12 |                 18686 |                  985 |            2126921 |             0 |                0 |         1083601 |                     0 |        794228 | 2017-02-04 11:49:56.627292+01

 2017-02-04 12:46:16.219448+01 | 1486208776.21945 |                 0 |              12 |                 18686 |                  985 |            2126921 |             0 |                0 |         1083601 |                     0 |        794521 | 2017-02-04 11:49:56.627292+01

 2017-02-04 12:46:17.297705+01 | 1486208777.2977 |                 0 |              12 |                 18686 |                  985 |            2126921 |             0 |                0 |         1083601 |                     0 |        794759 | 2017-02-04 11:49:56.627292+01

 2017-02-04 12:46:18.380544+01 | 1486208778.38054 |                 0 |              12 |                 18686 |                  985 |            2126921 |             0 |                0 |         1083601 |                     0 |        795105 | 2017-02-04 11:49:56.627292+01

 2017-02-04 12:46:19.455464+01 | 1486208779.45546 |                 0 |              12 |                 18686 |                  985 |            2126921 |             0 |                0 |         1083601 |                     0 |        795168 | 2017-02-04 11:49:56.627292+01

 2017-02-04 12:46:20.536041+01 | 1486208780.53604 |                 0 |              12 |                 18686 |                  985 |            2126921 |             0 |                0 |         1083601 |                     0 |        795497 | 2017-02-04 11:49:56.627292+01

 2017-02-04 12:46:21.611544+01 | 1486208781.61154 |                 0 |              12 |                 18686 |                  985 |            2126921 |             0 |                0 |         1083601 |                     0 |        795603 | 2017-02-04 11:49:56.627292+01

 2017-02-04 12:46:22.684708+01 | 1486208782.68471 |                 0 |              12 |                 18686 |                  985 |            2126921 |             0 |                0 |         1083601 |                     0 |        795746 | 2017-02-04 11:49:56.627292+01

 2017-02-04 12:46:23.756581+01 | 1486208783.75658 |                 0 |              12 |                 18686 |                  985 |            2126921 |             0 |                0 |         1083601 |                     0 |        796124 | 2017-02-04 11:49:56.627292+01

 2017-02-04 12:46:24.831132+01 | 1486208784.83113 |                 0 |              12 |                 18686 |                  985 |            2126921 |             0 |                0 |         1083601 |                     0 |        796356 | 2017-02-04 11:49:56.627292+01

 2017-02-04 12:46:25.903768+01 | 1486208785.90377 |                 0 |              12 |                 18686 |                  985 |            2126921 |             0 |                0 |         1083601 |                     0 |        796609 | 2017-02-04 11:49:56.627292+01

 2017-02-04 12:46:26.975687+01 | 1486208786.97569 |                 0 |              12 |                 18686 |                  985 |            2126921 |             0 |                0 |         1083601 |                     0 |        796875 | 2017-02-04 11:49:56.627292+01

 2017-02-04 12:46:28.051207+01 | 1486208788.05121 |                 0 |              12 |                 18686 |                  985 |            2126921 |             0 |                0 |         1083601 |                     0 |        797284 | 2017-02-04 11:49:56.627292+01

 2017-02-04 12:46:29.128718+01 | 1486208789.12872 |                 0 |              12 |                 18686 |                  985 |            2126921 |             0 |                0 |         1083601 |                     0 |        797285 | 2017-02-04 11:49:56.627292+01

 2017-02-04 12:46:30.205927+01 | 1486208790.20593 |                 0 |              12 |                 18686 |                  985 |            2126921 |             0 |                0 |         1083601 |                     0 |        797536 | 2017-02-04 11:49:56.627292+01

 2017-02-04 12:46:31.281413+01 | 1486208791.28141 |                 0 |              12 |                 18686 |                  985 |            2126921 |             0 |                0 |         1083601 |                     0 |        797768 | 2017-02-04 11:49:56.627292+01

 2017-02-04 12:46:32.356226+01 | 1486208792.35623 |                 0 |              12 |                 18686 |                  985 |            2126921 |             0 |                0 |         1083601 |                     0 |        797997 | 2017-02-04 11:49:56.627292+01

 2017-02-04 12:46:33.430235+01 | 1486208793.43023 |                 0 |              12 |                 18686 |                  985 |            2126921 |             0 |                0 |         1083601 |                     0 |        798183 | 2017-02-04 11:49:56.627292+01

 2017-02-04 12:46:34.518158+01 | 1486208794.51816 |                 0 |              12 |                 18686 |                  985 |            2126921 |             0 |                0 |         1083601 |                     0 |        798598 | 2017-02-04 11:49:56.627292+01

 2017-02-04 12:46:35.590606+01 | 1486208795.59061 |                 0 |              12 |                 18686 |                  985 |            2126921 |             0 |                0 |         1083601 |                     0 |        798744 | 2017-02-04 11:49:56.627292+01

 2017-02-04 12:46:36.666943+01 | 1486208796.66694 |                 0 |              12 |                 18686 |                  985 |            2126921 |             0 |                0 |         1083601 |                     0 |        798973 | 2017-02-04 11:49:56.627292+01

 2017-02-04 12:46:37.75866+01 | 1486208797.75866 |                 0 |              12 |                 18686 |                  985 |            2126921 |             0 |                0 |         1083601 |                     0 |        799243 | 2017-02-04 11:49:56.627292+01

 2017-02-04 12:46:38.845659+01 | 1486208798.84566 |                 0 |              12 |                 18686 |                  985 |            2126921 |             0 |                0 |         1083601 |                     0 |        799393 | 2017-02-04 11:49:56.627292+01

 2017-02-04 12:46:39.924457+01 | 1486208799.92446 |                 0 |              12 |                 18686 |                  985 |            2126921 |             0 |                0 |         1083601 |                     0 |        799705 | 2017-02-04 11:49:56.627292+01

 2017-02-04 12:46:41.001093+01 | 1486208801.00109 |                 0 |              12 |                 18686 |                  985 |            2126921 |             0 |                0 |         1083601 |                     0 |        799849 | 2017-02-04 11:49:56.627292+01

 2017-02-04 12:46:42.081786+01 | 1486208802.08179 |                 0 |              12 |                 18686 |                  985 |            2126921 |             0 |                0 |         1083601 |                     0 |        800155 | 2017-02-04 11:49:56.627292+01

 2017-02-04 12:46:43.163738+01 | 1486208803.16374 |                 0 |              12 |                 18686 |                  985 |            2126921 |             0 |                0 |         1083601 |                     0 |        800364 | 2017-02-04 11:49:56.627292+01

 2017-02-04 12:46:44.240419+01 | 1486208804.24042 |                 0 |              12 |                 18686 |                  985 |            2126921 |             0 |                0 |         1083601 |                     0 |        800567 | 2017-02-04 11:49:56.627292+01

 2017-02-04 12:46:45.313781+01 | 1486208805.31378 |                 0 |              12 |                 18686 |                  985 |            2126921 |             0 |                0 |         1083601 |                     0 |        800821 | 2017-02-04 11:49:56.627292+01

 2017-02-04 12:46:46.386398+01 | 1486208806.3864 |                 0 |              12 |                 18686 |                  985 |            2126921 |             0 |                0 |         1083601 |                     0 |        801027 | 2017-02-04 11:49:56.627292+01

 2017-02-04 12:46:47.469094+01 | 1486208807.46909 |                 0 |              12 |                 18686 |                  985 |            2126921 |             0 |                0 |         1083601 |                     0 |        801322 | 2017-02-04 11:49:56.627292+01

 2017-02-04 12:46:48.544369+01 | 1486208808.54437 |                 0 |              12 |                 18686 |                  985 |            2126921 |             0 |                0 |         1083601 |                     0 |        801495 | 2017-02-04 11:49:56.627292+01

 2017-02-04 12:46:49.622641+01 | 1486208809.62264 |                 0 |              12 |                 18686 |                  985 |            2126921 |             0 |                0 |         1083601 |                     0 |        801721 | 2017-02-04 11:49:56.627292+01

 2017-02-04 12:46:50.696928+01 | 1486208810.69693 |                 0 |              12 |                 18686 |                  985 |            2126921 |             0 |                0 |         1083601 |                     0 |        801968 | 2017-02-04 11:49:56.627292+01

 2017-02-04 12:46:51.776162+01 | 1486208811.77616 |                 0 |              12 |                 18686 |                  985 |            2126921 |             0 |                0 |         1083601 |                     0 |        802184 | 2017-02-04 11:49:56.627292+01

 2017-02-04 12:46:52.855663+01 | 1486208812.85566 |                 0 |              12 |                 18686 |                  985 |            2126921 |             0 |                0 |         1083601 |                     0 |        802409 | 2017-02-04 11:49:56.627292+01

 2017-02-04 12:46:53.948612+01 | 1486208813.94861 |                 0 |              12 |                 18686 |                  985 |            2126921 |             0 |                0 |         1083601 |                     0 |        802699 | 2017-02-04 11:49:56.627292+01

 2017-02-04 12:46:55.022783+01 | 1486208815.02278 |                 0 |              12 |                 18686 |                  985 |            2126921 |             0 |                0 |         1083601 |                     0 |        802984 | 2017-02-04 11:49:56.627292+01

 2017-02-04 12:46:56.102735+01 | 1486208816.10274 |                 0 |              12 |                 18686 |                  985 |            2126921 |             0 |                0 |         1083601 |                     0 |        803290 | 2017-02-04 11:49:56.627292+01

 2017-02-04 12:46:57.181493+01 | 1486208817.18149 |                 0 |              12 |                 18686 |                  985 |            2126921 |             0 |                0 |         1083601 |                     0 |        803436 | 2017-02-04 11:49:56.627292+01

 2017-02-04 12:46:58.260508+01 | 1486208818.26051 |                 0 |              12 |                 18686 |                  985 |            2126921 |             0 |                0 |         1083601 |                     0 |        803708 | 2017-02-04 11:49:56.627292+01

 2017-02-04 12:46:59.335571+01 | 1486208819.33557 |                 0 |              12 |                 18686 |                  985 |            2126921 |             0 |                0 |         1083601 |                     0 |        803900 | 2017-02-04 11:49:56.627292+01

 2017-02-04 12:47:00.414154+01 | 1486208820.41415 |                 0 |              12 |                 18686 |                  985 |            2126921 |             0 |                0 |         1083601 |                     0 |        804105 | 2017-02-04 11:49:56.627292+01

 2017-02-04 12:47:01.496709+01 | 1486208821.49671 |                 0 |              12 |                 18686 |                  985 |            2126921 |             0 |                0 |         1083601 |                     0 |        804373 | 2017-02-04 11:49:56.627292+01

 2017-02-04 12:47:02.575809+01 | 1486208822.57581 |                 0 |              12 |                 18686 |                  985 |            2126921 |             0 |                0 |         1083601 |                     0 |        804603 | 2017-02-04 11:49:56.627292+01

 2017-02-04 12:47:03.653394+01 | 1486208823.65339 |                 0 |              12 |                 18686 |                  985 |            2126921 |             0 |                0 |         1083601 |                     0 |        804835 | 2017-02-04 11:49:56.627292+01

 2017-02-04 12:47:04.731031+01 | 1486208824.73103 |                 0 |              12 |                 18686 |                  985 |            2126921 |             0 |                0 |         1083601 |                     0 |        804938 | 2017-02-04 11:49:56.627292+01

 2017-02-04 12:47:05.805611+01 | 1486208825.80561 |                 0 |              12 |                 18686 |                  985 |            2126921 |             0 |                0 |         1083601 |                     0 |        805267 | 2017-02-04 11:49:56.627292+01

 2017-02-04 12:47:06.882478+01 | 1486208826.88248 |                 0 |              12 |                 18686 |                  985 |            2126921 |             0 |                0 |         1083601 |                     0 |        805502 | 2017-02-04 11:49:56.627292+01

 2017-02-04 12:47:07.959703+01 | 1486208827.9597 |                 0 |              12 |                 18686 |                  985 |            2126921 |             0 |                0 |         1083601 |                     0 |        805772 | 2017-02-04 11:49:56.627292+01

 2017-02-04 12:47:09.047427+01 | 1486208829.04743 |                 0 |              12 |                 18686 |                  985 |            2126921 |             0 |                0 |         1083601 |                     0 |        806003 | 2017-02-04 11:49:56.627292+01

 2017-02-04 12:47:10.117636+01 | 1486208830.11764 |                 0 |              12 |                 18686 |                  985 |            2126921 |             0 |                0 |         1083601 |                     0 |        806233 | 2017-02-04 11:49:56.627292+01

 2017-02-04 12:47:11.203072+01 | 1486208831.20307 |                 0 |              12 |                 18686 |                  985 |            2126921 |             0 |                0 |         1083601 |                     0 |        806399 | 2017-02-04 11:49:56.627292+01

 2017-02-04 12:47:12.282046+01 | 1486208832.28205 |                 0 |              12 |                 18686 |                  985 |            2126921 |             0 |                0 |         1083601 |                     0 |        806694 | 2017-02-04 11:49:56.627292+01

 2017-02-04 12:47:13.367262+01 | 1486208833.36726 |                 0 |              12 |                 18686 |                  985 |            2126921 |             0 |                0 |         1083601 |                     0 |        806923 | 2017-02-04 11:49:56.627292+01

 2017-02-04 12:47:14.442055+01 | 1486208834.44205 |                 0 |              12 |                 18686 |                  985 |            2126921 |             0 |                0 |         1083601 |                     0 |        807152 | 2017-02-04 11:49:56.627292+01

 2017-02-04 12:47:15.516067+01 | 1486208835.51607 |                 0 |              12 |                 18686 |                  985 |            2126921 |             0 |                0 |         1083601 |                     0 |        807421 | 2017-02-04 11:49:56.627292+01

 2017-02-04 12:47:16.586885+01 | 1486208836.58688 |                 0 |              12 |                 18686 |                  985 |            2126921 |             0 |                0 |         1083601 |                     0 |        807627 | 2017-02-04 11:49:56.627292+01

 2017-02-04 12:47:17.657721+01 | 1486208837.65772 |                 0 |              12 |                 18686 |                  985 |            2126921 |             0 |                0 |         1083601 |                     0 |        807899 | 2017-02-04 11:49:56.627292+01

 2017-02-04 12:47:18.730425+01 | 1486208838.73042 |                 0 |              12 |                 18686 |                  985 |            2126921 |             0 |                0 |         1083601 |                     0 |        808209 | 2017-02-04 11:49:56.627292+01

 2017-02-04 12:47:19.806625+01 | 1486208839.80662 |                 0 |              12 |                 18686 |                  985 |            2126921 |             0 |                0 |         1083601 |                     0 |        808421 | 2017-02-04 11:49:56.627292+01

 2017-02-04 12:47:20.881255+01 | 1486208840.88125 |                 0 |              12 |                 18686 |                  985 |            2126921 |             0 |                0 |         1083601 |                     0 |        808647 | 2017-02-04 11:49:56.627292+01

 2017-02-04 12:47:21.962283+01 | 1486208841.96228 |                 0 |              12 |                 18686 |                  985 |            2126921 |             0 |                0 |         1083601 |                     0 |        808850 | 2017-02-04 11:49:56.627292+01

 2017-02-04 12:47:23.043515+01 | 1486208843.04351 |                 0 |              12 |                 18686 |                  985 |            2126921 |             0 |                0 |         1083601 |                     0 |        809102 | 2017-02-04 11:49:56.627292+01

 2017-02-04 12:47:24.123473+01 | 1486208844.12347 |                 0 |              12 |                 18686 |                  985 |            2126921 |             0 |                0 |         1083601 |                     0 |        809252 | 2017-02-04 11:49:56.627292+01

 2017-02-04 12:47:25.201861+01 | 1486208845.20186 |                 0 |              12 |                 18686 |                  985 |            2126921 |             0 |                0 |         1083601 |                     0 |        809438 | 2017-02-04 11:49:56.627292+01

 2017-02-04 12:47:26.277957+01 | 1486208846.27796 |                 0 |              12 |                 18686 |                  985 |            2126921 |             0 |                0 |         1083601 |                     0 |        809828 | 2017-02-04 11:49:56.627292+01

 2017-02-04 12:47:27.360602+01 | 1486208847.3606 |                 0 |              12 |                 18686 |                  985 |            2126921 |             0 |                0 |         1083601 |                     0 |        809911 | 2017-02-04 11:49:56.627292+01

 2017-02-04 12:47:28.425897+01 | 1486208848.4259 |                 0 |              12 |                 18686 |                  985 |            2126921 |             0 |                0 |         1083601 |                     0 |        810120 | 2017-02-04 11:49:56.627292+01

 2017-02-04 12:47:29.500684+01 | 1486208849.50068 |                 0 |              12 |                 18686 |                  985 |            2126921 |             0 |                0 |         1083601 |                     0 |        810397 | 2017-02-04 11:49:56.627292+01

 2017-02-04 12:47:30.57466+01 | 1486208850.57466 |                 0 |              12 |                 18686 |                  985 |            2126921 |             0 |                0 |         1083601 |                     0 |        810549 | 2017-02-04 11:49:56.627292+01

 2017-02-04 12:47:31.66979+01 | 1486208851.66979 |                 0 |              12 |                 18686 |                  985 |            2126921 |             0 |                0 |         1083601 |                     0 |        810864 | 2017-02-04 11:49:56.627292+01

 2017-02-04 12:47:32.753072+01 | 1486208852.75307 |                 0 |              12 |                 18686 |                  985 |            2126921 |             0 |                0 |         1083601 |                     0 |        810948 | 2017-02-04 11:49:56.627292+01

 2017-02-04 12:47:33.832979+01 | 1486208853.83298 |                 0 |              12 |                 18686 |                  985 |            2126921 |             0 |                0 |         1083601 |                     0 |        811246 | 2017-02-04 11:49:56.627292+01

 2017-02-04 12:47:34.904976+01 | 1486208854.90498 |                 0 |              12 |                 18686 |                  985 |            2126921 |             0 |                0 |         1083601 |                     0 |        811370 | 2017-02-04 11:49:56.627292+01

 2017-02-04 12:47:35.98995+01 | 1486208855.98995 |                 0 |              12 |                 18686 |                  985 |            2126921 |             0 |                0 |         1083601 |                     0 |        811642 | 2017-02-04 11:49:56.627292+01

 2017-02-04 12:47:37.067108+01 | 1486208857.06711 |                 0 |              12 |                 18686 |                  985 |            2126921 |             0 |                0 |         1083601 |                     0 |        811851 | 2017-02-04 11:49:56.627292+01

 2017-02-04 12:47:38.148957+01 | 1486208858.14896 |                 0 |              12 |                 18686 |                  985 |            2126921 |             0 |                0 |         1083601 |                     0 |        812065 | 2017-02-04 11:49:56.627292+01

 2017-02-04 12:47:39.231004+01 | 1486208859.231 |                 0 |              12 |                 18686 |                  985 |            2126921 |             0 |                0 |         1083601 |                     0 |        812316 | 2017-02-04 11:49:56.627292+01

 2017-02-04 12:47:40.304685+01 | 1486208860.30469 |                 0 |              12 |                 18686 |                  985 |            2126921 |             0 |                0 |         1083601 |                     0 |        812316 | 2017-02-04 11:49:56.627292+01

 2017-02-04 12:47:41.382483+01 | 1486208861.38248 |                 0 |              12 |                 18686 |                  985 |            2126921 |             0 |                0 |         1083601 |                     0 |        812763 | 2017-02-04 11:49:56.627292+01

 2017-02-04 12:47:42.458063+01 | 1486208862.45806 |                 0 |              12 |                 18686 |                  985 |            2126921 |             0 |                0 |         1083601 |                     0 |        813081 | 2017-02-04 11:49:56.627292+01

 2017-02-04 12:47:43.532899+01 | 1486208863.5329 |                 0 |              12 |                 18686 |                  985 |            2126921 |             0 |                0 |         1083601 |                     0 |        813271 | 2017-02-04 11:49:56.627292+01

 2017-02-04 12:47:44.610014+01 | 1486208864.61001 |                 0 |              12 |                 18686 |                  985 |            2126921 |             0 |                0 |         1083601 |                     0 |        813490 | 2017-02-04 11:49:56.627292+01

 2017-02-04 12:47:45.692638+01 | 1486208865.69264 |                 0 |              12 |                 18686 |                  985 |            2126921 |             0 |                0 |         1083601 |                     0 |        813684 | 2017-02-04 11:49:56.627292+01

 2017-02-04 12:47:46.777419+01 | 1486208866.77742 |                 0 |              12 |                 18686 |                  985 |            2126921 |             0 |                0 |         1083601 |                     0 |        813921 | 2017-02-04 11:49:56.627292+01

 2017-02-04 12:47:47.852543+01 | 1486208867.85254 |                 0 |              12 |                 18686 |                  985 |            2126921 |             0 |                0 |         1083601 |                     0 |        814064 | 2017-02-04 11:49:56.627292+01

 2017-02-04 12:47:48.923785+01 | 1486208868.92378 |                 0 |              12 |                 18686 |                  985 |            2126921 |             0 |                0 |         1083601 |                     0 |        814351 | 2017-02-04 11:49:56.627292+01

 2017-02-04 12:47:50.000114+01 | 1486208870.00011 |                 0 |              12 |                 18686 |                  985 |            2126921 |             0 |                0 |         1083601 |                     0 |        814494 | 2017-02-04 11:49:56.627292+01

 2017-02-04 12:47:51.076882+01 | 1486208871.07688 |                 0 |              12 |                 18686 |                  985 |            2126921 |             0 |                0 |         1083601 |                     0 |        814893 | 2017-02-04 11:49:56.627292+01

 2017-02-04 12:47:52.158371+01 | 1486208872.15837 |                 0 |              12 |                 18686 |                  985 |            2126921 |             0 |                0 |         1083601 |                     0 |        814893 | 2017-02-04 11:49:56.627292+01

 2017-02-04 12:47:53.247255+01 | 1486208873.24726 |                 0 |              12 |                 18686 |                  985 |            2126921 |             0 |                0 |         1083601 |                     0 |        815247 | 2017-02-04 11:49:56.627292+01

 2017-02-04 12:47:54.327628+01 | 1486208874.32763 |                 0 |              12 |                 18686 |                  985 |            2126921 |             0 |                0 |         1083601 |                     0 |        815462 | 2017-02-04 11:49:56.627292+01

 2017-02-04 12:47:55.405486+01 | 1486208875.40549 |                 0 |              12 |                 18686 |                  985 |            2126921 |             0 |                0 |         1083601 |                     0 |        815633 | 2017-02-04 11:49:56.627292+01

 2017-02-04 12:47:56.479783+01 | 1486208876.47978 |                 0 |              12 |                 18686 |                  985 |            2126921 |             0 |                0 |         1083601 |                     0 |        815862 | 2017-02-04 11:49:56.627292+01

 2017-02-04 12:47:57.560596+01 | 1486208877.5606 |                 0 |              12 |                 18686 |                  985 |            2126921 |             0 |                0 |         1083601 |                     0 |        816089 | 2017-02-04 11:49:56.627292+01

 2017-02-04 12:47:58.644651+01 | 1486208878.64465 |                 0 |              12 |                 18686 |                  985 |            2126921 |             0 |                0 |         1083601 |                     0 |        816355 | 2017-02-04 11:49:56.627292+01

 2017-02-04 12:47:59.727496+01 | 1486208879.7275 |                 0 |              12 |                 18686 |                  985 |            2126921 |             0 |                0 |         1083601 |                     0 |        816646 | 2017-02-04 11:49:56.627292+01

 2017-02-04 12:48:00.804137+01 | 1486208880.80414 |                 0 |              12 |                 18686 |                  985 |            2126921 |             0 |                0 |         1083601 |                     0 |        816849 | 2017-02-04 11:49:56.627292+01

 2017-02-04 12:48:01.882495+01 | 1486208881.88249 |                 0 |              12 |                 18686 |                  985 |            2126921 |             0 |                0 |         1083601 |                     0 |        817159 | 2017-02-04 11:49:56.627292+01

 2017-02-04 12:48:02.966734+01 | 1486208882.96673 |                 0 |              12 |                 18686 |                  985 |            2126921 |             0 |                0 |         1083601 |                     0 |        817306 | 2017-02-04 11:49:56.627292+01

 2017-02-04 12:48:04.038924+01 | 1486208884.03892 |                 0 |              12 |                 18686 |                  985 |            2126921 |             0 |                0 |         1083601 |                     0 |        817575 | 2017-02-04 11:49:56.627292+01

 2017-02-04 12:48:05.114828+01 | 1486208885.11483 |                 0 |              12 |                 18686 |                  985 |            2126921 |             0 |                0 |         1083601 |                     0 |        817744 | 2017-02-04 11:49:56.627292+01

 2017-02-04 12:48:06.198717+01 | 1486208886.19872 |                 0 |              12 |                 18686 |                  985 |            2126921 |             0 |                0 |         1083601 |                     0 |        817970 | 2017-02-04 11:49:56.627292+01

 2017-02-04 12:48:07.282969+01 | 1486208887.28297 |                 0 |              12 |                 18686 |                  985 |            2126921 |             0 |                0 |         1083601 |                     0 |        818199 | 2017-02-04 11:49:56.627292+01

 2017-02-04 12:48:08.356474+01 | 1486208888.35647 |                 0 |              12 |                 18686 |                  985 |            2126921 |             0 |                0 |         1083601 |                     0 |        818608 | 2017-02-04 11:49:56.627292+01

 2017-02-04 12:48:09.438296+01 | 1486208889.4383 |                 0 |              12 |                 18686 |                  985 |            2126921 |             0 |                0 |         1083601 |                     0 |        818609 | 2017-02-04 11:49:56.627292+01

 2017-02-04 12:48:10.52129+01 | 1486208890.52129 |                 0 |              12 |                 18686 |                  985 |            2126921 |             0 |                0 |         1083601 |                     0 |        818862 | 2017-02-04 11:49:56.627292+01

 2017-02-04 12:48:11.60086+01 | 1486208891.60086 |                 0 |              12 |                 18686 |                  985 |            2126921 |             0 |                0 |         1083601 |                     0 |        819094 | 2017-02-04 11:49:56.627292+01

 2017-02-04 12:48:12.680818+01 | 1486208892.68082 |                 0 |              12 |                 18686 |                  985 |            2126921 |             0 |                0 |         1083601 |                     0 |        819321 | 2017-02-04 11:49:56.627292+01

 2017-02-04 12:48:13.761678+01 | 1486208893.76168 |                 0 |              12 |                 18686 |                  985 |            2126921 |             0 |                0 |         1083601 |                     0 |        819560 | 2017-02-04 11:49:56.627292+01

 2017-02-04 12:48:14.830803+01 | 1486208894.8308 |                 0 |              12 |                 18686 |                  985 |            2126921 |             0 |                0 |         1083601 |                     0 |        819792 | 2017-02-04 11:49:56.627292+01

 2017-02-04 12:48:15.910896+01 | 1486208895.9109 |                 0 |              12 |                 18686 |                  985 |            2126921 |             0 |                0 |         1083601 |                     0 |        820008 | 2017-02-04 11:49:56.627292+01

 2017-02-04 12:48:16.991719+01 | 1486208896.99172 |                 0 |              12 |                 18686 |                  985 |            2126921 |             0 |                0 |         1083601 |                     0 |        820221 | 2017-02-04 11:49:56.627292+01

 2017-02-04 12:48:18.066271+01 | 1486208898.06627 |                 0 |              12 |                 18686 |                  985 |            2126921 |             0 |                0 |         1083601 |                     0 |        820531 | 2017-02-04 11:49:56.627292+01

 2017-02-04 12:48:19.145732+01 | 1486208899.14573 |                 0 |              12 |                 18686 |                  985 |            2126921 |             0 |                0 |         1083601 |                     0 |        820677 | 2017-02-04 11:49:56.627292+01

 2017-02-04 12:48:20.223618+01 | 1486208900.22362 |                 0 |              12 |                 18686 |                  985 |            2126921 |             0 |                0 |         1083601 |                     0 |        820966 | 2017-02-04 11:49:56.627292+01

 2017-02-04 12:48:21.301847+01 | 1486208901.30185 |                 0 |              12 |                 18686 |                  985 |            2126921 |             0 |                0 |         1083601 |                     0 |        821156 | 2017-02-04 11:49:56.627292+01

 2017-02-04 12:48:22.377681+01 | 1486208902.37768 |                 0 |              12 |                 18686 |                  985 |            2126921 |             0 |                0 |         1083601 |                     0 |        821409 | 2017-02-04 11:49:56.627292+01

 2017-02-04 12:48:23.45467+01 | 1486208903.45467 |                 0 |              12 |                 18686 |                  985 |            2126921 |             0 |                0 |         1083601 |                     0 |        821682 | 2017-02-04 11:49:56.627292+01

 2017-02-04 12:48:24.540808+01 | 1486208904.54081 |                 0 |              12 |                 18686 |                  985 |            2126921 |             0 |                0 |         1083601 |                     0 |        821851 | 2017-02-04 11:49:56.627292+01

 2017-02-04 12:48:25.621862+01 | 1486208905.62186 |                 0 |              12 |                 18686 |                  985 |            2126921 |             0 |                0 |         1083601 |                     0 |        822123 | 2017-02-04 11:49:56.627292+01

 2017-02-04 12:48:26.702047+01 | 1486208906.70205 |                 0 |              12 |                 18686 |                  985 |            2126921 |             0 |                0 |         1083601 |                     0 |        822331 | 2017-02-04 11:49:56.627292+01

 2017-02-04 12:48:27.780735+01 | 1486208907.78074 |                 0 |              12 |                 18686 |                  985 |            2126921 |             0 |                0 |         1083601 |                     0 |        822552 | 2017-02-04 11:49:56.627292+01

 2017-02-04 12:48:28.857273+01 | 1486208908.85727 |                 0 |              12 |                 18686 |                  985 |            2126921 |             0 |                0 |         1083601 |                     0 |        822808 | 2017-02-04 11:49:56.627292+01

 2017-02-04 12:48:29.934966+01 | 1486208909.93497 |                 0 |              12 |                 18686 |                  985 |            2126921 |             0 |                0 |         1083601 |                     0 |        823081 | 2017-02-04 11:49:56.627292+01

 2017-02-04 12:48:31.010053+01 | 1486208911.01005 |                 0 |              12 |                 18686 |                  985 |            2126921 |             0 |                0 |         1083601 |                     0 |        823294 | 2017-02-04 11:49:56.627292+01

 2017-02-04 12:48:32.095398+01 | 1486208912.0954 |                 0 |              12 |                 18686 |                  985 |            2126921 |             0 |                0 |         1083601 |                     0 |        823587 | 2017-02-04 11:49:56.627292+01

 2017-02-04 12:48:33.184166+01 | 1486208913.18417 |                 0 |              12 |                 18686 |                  985 |            2126921 |             0 |                0 |         1083601 |                     0 |        823817 | 2017-02-04 11:49:56.627292+01

 2017-02-04 12:48:34.267002+01 | 1486208914.267 |                 0 |              12 |                 18686 |                  985 |            2126921 |             0 |                0 |         1083601 |                     0 |        824069 | 2017-02-04 11:49:56.627292+01

 2017-02-04 12:48:35.344443+01 | 1486208915.34444 |                 0 |              12 |                 18686 |                  985 |            2126921 |             0 |                0 |         1083601 |                     0 |        824259 | 2017-02-04 11:49:56.627292+01

 2017-02-04 12:48:36.421382+01 | 1486208916.42138 |                 0 |              12 |                 18686 |                  985 |            2126921 |             0 |                0 |         1083601 |                     0 |        824598 | 2017-02-04 11:49:56.627292+01

 2017-02-04 12:48:37.494508+01 | 1486208917.49451 |                 0 |              12 |                 18686 |                  985 |            2126921 |             0 |                0 |         1083601 |                     0 |        824827 | 2017-02-04 11:49:56.627292+01

 2017-02-04 12:48:38.570099+01 | 1486208918.5701 |                 0 |              12 |                 18686 |                  985 |            2126921 |             0 |                0 |         1083601 |                     0 |        824994 | 2017-02-04 11:49:56.627292+01

 2017-02-04 12:48:39.648994+01 | 1486208919.64899 |                 0 |              12 |                 18686 |                  985 |            2126921 |             0 |                0 |         1083601 |                     0 |        825311 | 2017-02-04 11:49:56.627292+01

 2017-02-04 12:48:40.728479+01 | 1486208920.72848 |                 0 |              12 |                 18686 |                  985 |            2126921 |             0 |                0 |         1083601 |                     0 |        825560 | 2017-02-04 11:49:56.627292+01

 2017-02-04 12:48:41.802701+01 | 1486208921.8027 |                 0 |              12 |                 18686 |                  985 |            2126921 |             0 |                0 |         1083601 |                     0 |        825786 | 2017-02-04 11:49:56.627292+01

 2017-02-04 12:48:42.877146+01 | 1486208922.87715 |                 0 |              12 |                 18686 |                  985 |            2126921 |             0 |                0 |         1083601 |                     0 |        825956 | 2017-02-04 11:49:56.627292+01

 2017-02-04 12:48:43.956228+01 | 1486208923.95623 |                 0 |              12 |                 18686 |                  985 |            2126921 |             0 |                0 |         1083601 |                     0 |        826270 | 2017-02-04 11:49:56.627292+01

 2017-02-04 12:48:45.038829+01 | 1486208925.03883 |                 0 |              12 |                 18686 |                  985 |            2126921 |             0 |                0 |         1083601 |                     0 |        826536 | 2017-02-04 11:49:56.627292+01

 2017-02-04 12:48:46.127357+01 | 1486208926.12736 |                 0 |              12 |                 18686 |                  985 |            2126921 |             0 |                0 |         1083601 |                     0 |        826837 | 2017-02-04 11:49:56.627292+01

 2017-02-04 12:48:47.206308+01 | 1486208927.20631 |                 0 |              12 |                 18686 |                  985 |            2126921 |             0 |                0 |         1083601 |                     0 |        827124 | 2017-02-04 11:49:56.627292+01

 2017-02-04 12:48:48.282125+01 | 1486208928.28212 |                 0 |              12 |                 18686 |                  985 |            2126921 |             0 |                0 |         1083601 |                     0 |        827310 | 2017-02-04 11:49:56.627292+01

 2017-02-04 12:48:49.357512+01 | 1486208929.35751 |                 0 |              12 |                 18686 |                  985 |            2126921 |             0 |                0 |         1083601 |                     0 |        827476 | 2017-02-04 11:49:56.627292+01

 2017-02-04 12:48:50.431819+01 | 1486208930.43182 |                 0 |              12 |                 18686 |                  985 |            2126921 |             0 |                0 |         1083601 |                     0 |        827788 | 2017-02-04 11:49:56.627292+01

 2017-02-04 12:48:51.507728+01 | 1486208931.50773 |                 0 |              12 |                 18686 |                  985 |            2126921 |             0 |                0 |         1083601 |                     0 |        828018 | 2017-02-04 11:49:56.627292+01

 2017-02-04 12:48:52.584051+01 | 1486208932.58405 |                 0 |              12 |                 18686 |                  985 |            2126921 |             0 |                0 |         1083601 |                     0 |        828208 | 2017-02-04 11:49:56.627292+01

 2017-02-04 12:48:53.658888+01 | 1486208933.65889 |                 0 |              12 |                 18686 |                  985 |            2126921 |             0 |                0 |         1083601 |                     0 |        828374 | 2017-02-04 11:49:56.627292+01

 2017-02-04 12:48:54.735959+01 | 1486208934.73596 |                 0 |              12 |                 18686 |                  985 |            2126921 |             0 |                0 |         1083601 |                     0 |        828704 | 2017-02-04 11:49:56.627292+01

 2017-02-04 12:48:55.810134+01 | 1486208935.81013 |                 0 |              12 |                 18686 |                  985 |            2126921 |             0 |                0 |         1083601 |                     0 |        828930 | 2017-02-04 11:49:56.627292+01

 2017-02-04 12:48:56.894008+01 | 1486208936.89401 |                 0 |              12 |                 18686 |                  985 |            2126921 |             0 |                0 |         1083601 |                     0 |        829216 | 2017-02-04 11:49:56.627292+01

 2017-02-04 12:48:57.970649+01 | 1486208937.97065 |                 0 |              12 |                 18686 |                  985 |            2126921 |             0 |                0 |         1083601 |                     0 |        829482 | 2017-02-04 11:49:56.627292+01

 2017-02-04 12:48:59.042784+01 | 1486208939.04278 |                 0 |              12 |                 18686 |                  985 |            2126921 |             0 |                0 |         1083601 |                     0 |        829692 | 2017-02-04 11:49:56.627292+01

 2017-02-04 12:49:00.120764+01 | 1486208940.12076 |                 0 |              12 |                 18686 |                  985 |            2126921 |             0 |                0 |         1083601 |                     0 |        829947 | 2017-02-04 11:49:56.627292+01

 2017-02-04 12:49:01.190114+01 | 1486208941.19011 |                 0 |              12 |                 18686 |                  985 |            2126921 |             0 |                0 |         1083601 |                     0 |        830134 | 2017-02-04 11:49:56.627292+01

 2017-02-04 12:49:02.267447+01 | 1486208942.26745 |                 0 |              12 |                 18686 |                  985 |            2126921 |             0 |                0 |         1083601 |                     0 |        830379 | 2017-02-04 11:49:56.627292+01

 2017-02-04 12:49:03.342048+01 | 1486208943.34205 |                 0 |              12 |                 18686 |                  985 |            2126921 |             0 |                0 |         1083601 |                     0 |        830609 | 2017-02-04 11:49:56.627292+01

 2017-02-04 12:49:04.423476+01 | 1486208944.42348 |                 0 |              12 |                 18686 |                  985 |            2126921 |             0 |                0 |         1083601 |                     0 |        830842 | 2017-02-04 11:49:56.627292+01

 2017-02-04 12:49:05.499208+01 | 1486208945.49921 |                 0 |              12 |                 18686 |                  985 |            2126921 |             0 |                0 |         1083601 |                     0 |        831178 | 2017-02-04 11:49:56.627292+01

 2017-02-04 12:49:06.584255+01 | 1486208946.58425 |                 0 |              12 |                 18686 |                  985 |            2126921 |             0 |                0 |         1083601 |                     0 |        831324 | 2017-02-04 11:49:56.627292+01

 2017-02-04 12:49:07.662966+01 | 1486208947.66297 |                 0 |              12 |                 18686 |                  985 |            2126921 |             0 |                0 |         1083601 |                     0 |        831533 | 2017-02-04 11:49:56.627292+01

 2017-02-04 12:49:08.748507+01 | 1486208948.74851 |                 0 |              12 |                 18686 |                  985 |            2126921 |             0 |                0 |         1083601 |                     0 |        831902 | 2017-02-04 11:49:56.627292+01

 2017-02-04 12:49:09.819727+01 | 1486208949.81973 |                 0 |              12 |                 18686 |                  985 |            2126921 |             0 |                0 |         1083601 |                     0 |        832055 | 2017-02-04 11:49:56.627292+01

 2017-02-04 12:49:10.896026+01 | 1486208950.89603 |                 0 |              12 |                 18686 |                  985 |            2126921 |             0 |                0 |         1083601 |                     0 |        832325 | 2017-02-04 11:49:56.627292+01

 2017-02-04 12:49:11.974725+01 | 1486208951.97473 |                 0 |              12 |                 18686 |                  985 |            2126921 |             0 |                0 |         1083601 |                     0 |        832495 | 2017-02-04 11:49:56.627292+01

 2017-02-04 12:49:13.047984+01 | 1486208953.04798 |                 0 |              12 |                 18686 |                  985 |            2126921 |             0 |                0 |         1083601 |                     0 |        832725 | 2017-02-04 11:49:56.627292+01

 2017-02-04 12:49:14.127455+01 | 1486208954.12745 |                 0 |              12 |                 18686 |                  985 |            2126921 |             0 |                0 |         1083601 |                     0 |        833020 | 2017-02-04 11:49:56.627292+01

 2017-02-04 12:49:15.199559+01 | 1486208955.19956 |                 0 |              12 |                 18686 |                  985 |            2126921 |             0 |                0 |         1083601 |                     0 |        833232 | 2017-02-04 11:49:56.627292+01

 2017-02-04 12:49:16.278298+01 | 1486208956.2783 |                 0 |              12 |                 18686 |                  985 |            2126921 |             0 |                0 |         1083601 |                     0 |        833482 | 2017-02-04 11:49:56.627292+01

 2017-02-04 12:49:17.356804+01 | 1486208957.3568 |                 0 |              12 |                 18686 |                  985 |            2126921 |             0 |                0 |         1083601 |                     0 |        833669 | 2017-02-04 11:49:56.627292+01

 2017-02-04 12:49:18.437191+01 | 1486208958.43719 |                 0 |              12 |                 18686 |                  985 |            2126921 |             0 |                0 |         1083601 |                     0 |        833917 | 2017-02-04 11:49:56.627292+01

 2017-02-04 12:49:19.517809+01 | 1486208959.51781 |                 0 |              12 |                 18686 |                  985 |            2126921 |             0 |                0 |         1083601 |                     0 |        834212 | 2017-02-04 11:49:56.627292+01

 2017-02-04 12:49:20.596519+01 | 1486208960.59652 |                 0 |              12 |                 18686 |                  985 |            2126921 |             0 |                0 |         1083601 |                     0 |        834399 | 2017-02-04 11:49:56.627292+01

 2017-02-04 12:49:21.691594+01 | 1486208961.69159 |                 0 |              12 |                 18686 |                  985 |            2126921 |             0 |                0 |         1083601 |                     0 |        834771 | 2017-02-04 11:49:56.627292+01

 2017-02-04 12:49:22.772745+01 | 1486208962.77274 |                 0 |              12 |                 18686 |                  985 |            2126921 |             0 |                0 |         1083601 |                     0 |        834898 | 2017-02-04 11:49:56.627292+01

 2017-02-04 12:49:23.845991+01 | 1486208963.84599 |                 0 |              12 |                 18686 |                  985 |            2126921 |             0 |                0 |         1083601 |                     0 |        835211 | 2017-02-04 11:49:56.627292+01

 2017-02-04 12:49:24.925595+01 | 1486208964.9256 |                 0 |              12 |                 18686 |                  985 |            2126921 |             0 |                0 |         1083601 |                     0 |        835600 | 2017-02-04 11:49:56.627292+01

 2017-02-04 12:49:25.998862+01 | 1486208965.99886 |                 0 |              12 |                 18686 |                  985 |            2126921 |             0 |                0 |         1083601 |                     0 |        835643 | 2017-02-04 11:49:56.627292+01

 2017-02-04 12:49:27.082404+01 | 1486208967.0824 |                 0 |              12 |                 18686 |                  985 |            2126921 |             0 |                0 |         1083601 |                     0 |        835919 | 2017-02-04 11:49:56.627292+01

 2017-02-04 12:49:28.156599+01 | 1486208968.1566 |                 0 |              12 |                 18686 |                  985 |            2126921 |             0 |                0 |         1083601 |                     0 |        836188 | 2017-02-04 11:49:56.627292+01

 2017-02-04 12:49:29.239108+01 | 1486208969.23911 |                 0 |              12 |                 18686 |                  985 |            2126921 |             0 |                0 |         1083601 |                     0 |        836492 | 2017-02-04 11:49:56.627292+01

 2017-02-04 12:49:30.312787+01 | 1486208970.31279 |                 0 |              12 |                 18686 |                  985 |            2126921 |             0 |                0 |         1083601 |                     0 |        836659 | 2017-02-04 11:49:56.627292+01

 2017-02-04 12:49:31.386706+01 | 1486208971.38671 |                 0 |              12 |                 18686 |                  985 |            2126921 |             0 |                0 |         1083601 |                     0 |        836891 | 2017-02-04 11:49:56.627292+01

 2017-02-04 12:49:32.465452+01 | 1486208972.46545 |                 0 |              12 |                 18686 |                  985 |            2126921 |             0 |                0 |         1083601 |                     0 |        837081 | 2017-02-04 11:49:56.627292+01

 2017-02-04 12:49:33.538402+01 | 1486208973.5384 |                 0 |              12 |                 18686 |                  985 |            2126921 |             0 |                0 |         1083601 |                     0 |        837290 | 2017-02-04 11:49:56.627292+01

 2017-02-04 12:49:34.615713+01 | 1486208974.61571 |                 0 |              12 |                 18686 |                  985 |            2126921 |             0 |                0 |         1083601 |                     0 |        837573 | 2017-02-04 11:49:56.627292+01

 2017-02-04 12:49:35.692155+01 | 1486208975.69215 |                 0 |              12 |                 18686 |                  985 |            2126921 |             0 |                0 |         1083601 |                     0 |        837786 | 2017-02-04 11:49:56.627292+01

 2017-02-04 12:49:36.771392+01 | 1486208976.77139 |                 0 |              12 |                 18686 |                  985 |            2126921 |             0 |                0 |         1083601 |                     0 |        838047 | 2017-02-04 11:49:56.627292+01

 2017-02-04 12:49:37.846655+01 | 1486208977.84665 |                 0 |              12 |                 18686 |                  985 |            2126921 |             0 |                0 |         1083601 |                     0 |        838253 | 2017-02-04 11:49:56.627292+01

 2017-02-04 12:49:38.927776+01 | 1486208978.92778 |                 0 |              12 |                 18686 |                  985 |            2126921 |             0 |                0 |         1083601 |                     0 |        838502 | 2017-02-04 11:49:56.627292+01

 2017-02-04 12:49:40.005493+01 | 1486208980.00549 |                 0 |              12 |                 18686 |                  985 |            2126921 |             0 |                0 |         1083601 |                     0 |        838837 | 2017-02-04 11:49:56.627292+01

 2017-02-04 12:49:41.080813+01 | 1486208981.08081 |                 0 |              12 |                 18686 |                  985 |            2126921 |             0 |                0 |         1083601 |                     0 |        839047 | 2017-02-04 11:49:56.627292+01

 2017-02-04 12:49:42.156988+01 | 1486208982.15699 |                 0 |              12 |                 18686 |                  985 |            2126921 |             0 |                0 |         1083601 |                     0 |        839436 | 2017-02-04 11:49:56.627292+01

 2017-02-04 12:49:43.230965+01 | 1486208983.23096 |                 0 |              12 |                 18686 |                  985 |            2126921 |             0 |                0 |         1083601 |                     0 |        839599 | 2017-02-04 11:49:56.627292+01

 2017-02-04 12:49:44.301722+01 | 1486208984.30172 |                 0 |              12 |                 18686 |                  985 |            2126921 |             0 |                0 |         1083601 |                     0 |        839909 | 2017-02-04 11:49:56.627292+01

 2017-02-04 12:49:45.382535+01 | 1486208985.38253 |                 0 |              12 |                 18686 |                  985 |            2126921 |             0 |                0 |         1083601 |                     0 |        840058 | 2017-02-04 11:49:56.627292+01

 2017-02-04 12:49:46.460453+01 | 1486208986.46045 |                 0 |              12 |                 18686 |                  985 |            2126921 |             0 |                0 |         1083601 |                     0 |        840270 | 2017-02-04 11:49:56.627292+01

 2017-02-04 12:49:47.546732+01 | 1486208987.54673 |                 0 |              12 |                 18686 |                  985 |            2126921 |             0 |                0 |         1083601 |                     0 |        840393 | 2017-02-04 11:49:56.627292+01

 2017-02-04 12:49:48.628829+01 | 1486208988.62883 |                 0 |              12 |                 18686 |                  985 |            2126921 |             0 |                0 |         1083601 |                     0 |        840829 | 2017-02-04 11:49:56.627292+01

 2017-02-04 12:49:49.706682+01 | 1486208989.70668 |                 0 |              12 |                 18686 |                  985 |            2126921 |             0 |                0 |         1083601 |                     0 |        840952 | 2017-02-04 11:49:56.627292+01

 2017-02-04 12:49:50.782286+01 | 1486208990.78229 |                 0 |              12 |                 18686 |                  985 |            2126921 |             0 |                0 |         1083601 |                     0 |        841178 | 2017-02-04 11:49:56.627292+01

 2017-02-04 12:49:51.865429+01 | 1486208991.86543 |                 0 |              12 |                 18686 |                  985 |            2126921 |             0 |                0 |         1083601 |                     0 |        841430 | 2017-02-04 11:49:56.627292+01

 2017-02-04 12:49:52.943146+01 | 1486208992.94315 |                 0 |              12 |                 18686 |                  985 |            2126921 |             0 |                0 |         1083601 |                     0 |        841646 | 2017-02-04 11:49:56.627292+01

 2017-02-04 12:49:54.018724+01 | 1486208994.01872 |                 0 |              12 |                 18686 |                  985 |            2126921 |             0 |                0 |         1083601 |                     0 |        841918 | 2017-02-04 11:49:56.627292+01

 2017-02-04 12:49:55.093808+01 | 1486208995.09381 |                 0 |              12 |                 18686 |                  985 |            2126921 |             0 |                0 |         1083601 |                     0 |        842296 | 2017-02-04 11:49:56.627292+01

 2017-02-04 12:49:56.166339+01 | 1486208996.16634 |                 0 |              12 |                 18686 |                  985 |            2126921 |             0 |                0 |         1083601 |                     0 |        842379 | 2017-02-04 11:49:56.627292+01

 2017-02-04 12:49:57.240774+01 | 1486208997.24077 |                 0 |              12 |                 18686 |                  985 |            2126921 |             0 |                0 |         1083601 |                     0 |        842592 | 2017-02-04 11:49:56.627292+01

 2017-02-04 12:49:58.315388+01 | 1486208998.31539 |                 0 |              12 |                 18686 |                  985 |            2126921 |             0 |                0 |         1083601 |                     0 |        842868 | 2017-02-04 11:49:56.627292+01

 2017-02-04 12:49:59.393531+01 | 1486208999.39353 |                 0 |              12 |                 18686 |                  985 |            2126921 |             0 |                0 |         1083601 |                     0 |        843101 | 2017-02-04 11:49:56.627292+01

 2017-02-04 12:50:00.471476+01 | 1486209000.47148 |                 0 |              12 |                 18686 |                  985 |            2126921 |             0 |                0 |         1083601 |                     0 |        843473 | 2017-02-04 11:49:56.627292+01

 2017-02-04 12:50:01.547417+01 | 1486209001.54742 |                 0 |              12 |                 18686 |                  985 |            2126921 |             0 |                0 |         1083601 |                     0 |        843616 | 2017-02-04 11:49:56.627292+01

 2017-02-04 12:50:02.627439+01 | 1486209002.62744 |                 0 |              12 |                 18686 |                  985 |            2126921 |             0 |                0 |         1083601 |                     0 |        843785 | 2017-02-04 11:49:56.627292+01

 2017-02-04 12:50:03.710417+01 | 1486209003.71042 |                 0 |              12 |                 18686 |                  985 |            2126921 |             0 |                0 |         1083601 |                     0 |        844011 | 2017-02-04 11:49:56.627292+01

 2017-02-04 12:50:04.786887+01 | 1486209004.78689 |                 0 |              12 |                 18686 |                  985 |            2126921 |             0 |                0 |         1083601 |                     0 |        844283 | 2017-02-04 11:49:56.627292+01

 2017-02-04 12:50:05.861461+01 | 1486209005.86146 |                 0 |              12 |                 18686 |                  985 |            2126921 |             0 |                0 |         1083601 |                     0 |        844552 | 2017-02-04 11:49:56.627292+01

 2017-02-04 12:50:06.937513+01 | 1486209006.93751 |                 0 |              12 |                 18686 |                  985 |            2126921 |             0 |                0 |         1083601 |                     0 |        844726 | 2017-02-04 11:49:56.627292+01

 2017-02-04 12:50:08.011962+01 | 1486209008.01196 |                 0 |              12 |                 18686 |                  985 |            2126921 |             0 |                0 |         1083601 |                     0 |        845001 | 2017-02-04 11:49:56.627292+01

 2017-02-04 12:50:09.083836+01 | 1486209009.08384 |                 0 |              12 |                 18686 |                  985 |            2126921 |             0 |                0 |         1083601 |                     0 |        845227 | 2017-02-04 11:49:56.627292+01

 2017-02-04 12:50:10.161859+01 | 1486209010.16186 |                 0 |              12 |                 18686 |                  985 |            2126921 |             0 |                0 |         1083601 |                     0 |        845421 | 2017-02-04 11:49:56.627292+01

 2017-02-04 12:50:11.239912+01 | 1486209011.23991 |                 0 |              12 |                 18686 |                  985 |            2126921 |             0 |                0 |         1083601 |                     0 |        845718 | 2017-02-04 11:49:56.627292+01

 2017-02-04 12:50:12.320455+01 | 1486209012.32046 |                 0 |              12 |                 18686 |                  985 |            2126921 |             0 |                0 |         1083601 |                     0 |        845964 | 2017-02-04 11:49:56.627292+01

 2017-02-04 12:50:13.39867+01 | 1486209013.39867 |                 0 |              12 |                 18686 |                  985 |            2126921 |             0 |                0 |         1083601 |                     0 |        846170 | 2017-02-04 11:49:56.627292+01

 2017-02-04 12:50:14.474627+01 | 1486209014.47463 |                 0 |              12 |                 18686 |                  985 |            2126921 |             0 |                0 |         1083601 |                     0 |        846479 | 2017-02-04 11:49:56.627292+01

 2017-02-04 12:50:15.552456+01 | 1486209015.55246 |                 0 |              12 |                 18686 |                  985 |            2126921 |             0 |                0 |         1083601 |                     0 |        846648 | 2017-02-04 11:49:56.627292+01

 2017-02-04 12:50:16.622733+01 | 1486209016.62273 |                 0 |              12 |                 18686 |                  985 |            2126921 |             0 |                0 |         1083601 |                     0 |        846884 | 2017-02-04 11:49:56.627292+01

 2017-02-04 12:50:17.70034+01 | 1486209017.70034 |                 0 |              12 |                 18686 |                  985 |            2126921 |             0 |                0 |         1083601 |                     0 |        847154 | 2017-02-04 11:49:56.627292+01

 2017-02-04 12:50:18.777573+01 | 1486209018.77757 |                 0 |              12 |                 18686 |                  985 |            2126921 |             0 |                0 |         1083601 |                     0 |        847406 | 2017-02-04 11:49:56.627292+01

 2017-02-04 12:50:19.856251+01 | 1486209019.85625 |                 0 |              12 |                 18686 |                  985 |            2126921 |             0 |                0 |         1083601 |                     0 |        847659 | 2017-02-04 11:49:56.627292+01

 2017-02-04 12:50:20.935734+01 | 1486209020.93573 |                 0 |              12 |                 18686 |                  985 |            2126921 |             0 |                0 |         1083601 |                     0 |        847812 | 2017-02-04 11:49:56.627292+01

 2017-02-04 12:50:22.018345+01 | 1486209022.01835 |                 0 |              12 |                 18686 |                  985 |            2126921 |             0 |                0 |         1083601 |                     0 |        848085 | 2017-02-04 11:49:56.627292+01

 2017-02-04 12:50:23.097462+01 | 1486209023.09746 |                 0 |              12 |                 18686 |                  985 |            2126921 |             0 |                0 |         1083601 |                     0 |        848362 | 2017-02-04 11:49:56.627292+01

 2017-02-04 12:50:24.173301+01 | 1486209024.1733 |                 0 |              12 |                 18686 |                  985 |            2126921 |             0 |                0 |         1083601 |                     0 |        848575 | 2017-02-04 11:49:56.627292+01

 2017-02-04 12:50:25.246777+01 | 1486209025.24678 |                 0 |              12 |                 18686 |                  985 |            2126921 |             0 |                0 |         1083601 |                     0 |        848945 | 2017-02-04 11:49:56.627292+01

 2017-02-04 12:50:26.329074+01 | 1486209026.32907 |                 0 |              12 |                 18686 |                  985 |            2126921 |             0 |                0 |         1083601 |                     0 |        849031 | 2017-02-04 11:49:56.627292+01

 2017-02-04 12:50:27.412282+01 | 1486209027.41228 |                 0 |              12 |                 18686 |                  985 |            2126921 |             0 |                0 |         1083601 |                     0 |        849306 | 2017-02-04 11:49:56.627292+01

 2017-02-04 12:50:28.474757+01 | 1486209028.47476 |                 0 |              12 |                 18686 |                  985 |            2126921 |             0 |                0 |         1083601 |                     0 |        849492 | 2017-02-04 11:49:56.627292+01

 2017-02-04 12:50:29.546575+01 | 1486209029.54658 |                 0 |              12 |                 18686 |                  985 |            2126921 |             0 |                0 |         1083601 |                     0 |        849724 | 2017-02-04 11:49:56.627292+01

 2017-02-04 12:50:30.623541+01 | 1486209030.62354 |                 0 |              12 |                 18686 |                  985 |            2126921 |             0 |                0 |         1083601 |                     0 |        849979 | 2017-02-04 11:49:56.627292+01

 2017-02-04 12:50:31.699973+01 | 1486209031.69997 |                 0 |              12 |                 18686 |                  985 |            2126921 |             0 |                0 |         1083601 |                     0 |        850208 | 2017-02-04 11:49:56.627292+01

 2017-02-04 12:50:32.775607+01 | 1486209032.77561 |                 0 |              12 |                 18686 |                  985 |            2126921 |             0 |                0 |         1083601 |                     0 |        850480 | 2017-02-04 11:49:56.627292+01

 2017-02-04 12:50:33.845075+01 | 1486209033.84507 |                 0 |              12 |                 18686 |                  985 |            2126921 |             0 |                0 |         1083601 |                     0 |        850609 | 2017-02-04 11:49:56.627292+01

 2017-02-04 12:50:34.921812+01 | 1486209034.92181 |                 0 |              12 |                 18686 |                  985 |            2126921 |             0 |                0 |         1083601 |                     0 |        850942 | 2017-02-04 11:49:56.627292+01

 2017-02-04 12:50:36.000885+01 | 1486209036.00089 |                 0 |              12 |                 18686 |                  985 |            2126921 |             0 |                0 |         1083601 |                     0 |        851148 | 2017-02-04 11:49:56.627292+01

 2017-02-04 12:50:37.082604+01 | 1486209037.0826 |                 0 |              12 |                 18686 |                  985 |            2126921 |             0 |                0 |         1083601 |                     0 |        851417 | 2017-02-04 11:49:56.627292+01

 2017-02-04 12:50:38.154188+01 | 1486209038.15419 |                 0 |              12 |                 18686 |                  985 |            2126921 |             0 |                0 |         1083601 |                     0 |        851706 | 2017-02-04 11:49:56.627292+01

 2017-02-04 12:50:39.231837+01 | 1486209039.23184 |                 0 |              12 |                 18686 |                  985 |            2126921 |             0 |                0 |         1083601 |                     0 |        851875 | 2017-02-04 11:49:56.627292+01

 2017-02-04 12:50:40.308967+01 | 1486209040.30897 |                 0 |              12 |                 18686 |                  985 |            2126921 |             0 |                0 |         1083601 |                     0 |        852152 | 2017-02-04 11:49:56.627292+01

 2017-02-04 12:50:41.389188+01 | 1486209041.38919 |                 0 |              12 |                 18686 |                  985 |            2126921 |             0 |                0 |         1083601 |                     0 |        852381 | 2017-02-04 11:49:56.627292+01

 2017-02-04 12:50:42.465402+01 | 1486209042.4654 |                 0 |              12 |                 18686 |                  985 |            2126921 |             0 |                0 |         1083601 |                     0 |        852613 | 2017-02-04 11:49:56.627292+01

 2017-02-04 12:50:43.536701+01 | 1486209043.5367 |                 0 |              12 |                 18686 |                  985 |            2126921 |             0 |                0 |         1083601 |                     0 |        852757 | 2017-02-04 11:49:56.627292+01

 2017-02-04 12:50:44.620075+01 | 1486209044.62007 |                 0 |              12 |                 18686 |                  985 |            2126921 |             0 |                0 |         1083601 |                     0 |        853197 | 2017-02-04 11:49:56.627292+01

