 2017-02-05 19:43:04.778764+01 | 1486320184.77876 | pgbench_branches_pkey |            40960
 2017-02-05 19:43:04.778764+01 | 1486320184.77876 | pgbench_tellers_pkey  |           245760
 2017-02-05 19:43:04.778764+01 | 1486320184.77876 | pgbench_accounts_pkey |       2246197248

 2017-02-05 19:43:05.867411+01 | 1486320185.86741 | pgbench_branches_pkey |            40960
 2017-02-05 19:43:05.867411+01 | 1486320185.86741 | pgbench_tellers_pkey  |           245760
 2017-02-05 19:43:05.867411+01 | 1486320185.86741 | pgbench_accounts_pkey |       2246197248

 2017-02-05 19:43:06.943659+01 | 1486320186.94366 | pgbench_branches_pkey |            40960
 2017-02-05 19:43:06.943659+01 | 1486320186.94366 | pgbench_tellers_pkey  |           245760
 2017-02-05 19:43:06.943659+01 | 1486320186.94366 | pgbench_accounts_pkey |       2246197248

 2017-02-05 19:43:08.025182+01 | 1486320188.02518 | pgbench_branches_pkey |            40960
 2017-02-05 19:43:08.025182+01 | 1486320188.02518 | pgbench_tellers_pkey  |           245760
 2017-02-05 19:43:08.025182+01 | 1486320188.02518 | pgbench_accounts_pkey |       2246197248

 2017-02-05 19:43:09.105704+01 | 1486320189.1057 | pgbench_branches_pkey |            40960
 2017-02-05 19:43:09.105704+01 | 1486320189.1057 | pgbench_tellers_pkey  |           245760
 2017-02-05 19:43:09.105704+01 | 1486320189.1057 | pgbench_accounts_pkey |       2246197248

 2017-02-05 19:43:10.193713+01 | 1486320190.19371 | pgbench_branches_pkey |            40960
 2017-02-05 19:43:10.193713+01 | 1486320190.19371 | pgbench_tellers_pkey  |           245760
 2017-02-05 19:43:10.193713+01 | 1486320190.19371 | pgbench_accounts_pkey |       2246197248

 2017-02-05 19:43:11.266642+01 | 1486320191.26664 | pgbench_branches_pkey |            40960
 2017-02-05 19:43:11.266642+01 | 1486320191.26664 | pgbench_tellers_pkey  |           245760
 2017-02-05 19:43:11.266642+01 | 1486320191.26664 | pgbench_accounts_pkey |       2246197248

 2017-02-05 19:43:12.343496+01 | 1486320192.3435 | pgbench_branches_pkey |            40960
 2017-02-05 19:43:12.343496+01 | 1486320192.3435 | pgbench_tellers_pkey  |           245760
 2017-02-05 19:43:12.343496+01 | 1486320192.3435 | pgbench_accounts_pkey |       2246197248

 2017-02-05 19:43:13.423124+01 | 1486320193.42312 | pgbench_branches_pkey |            40960
 2017-02-05 19:43:13.423124+01 | 1486320193.42312 | pgbench_tellers_pkey  |           245760
 2017-02-05 19:43:13.423124+01 | 1486320193.42312 | pgbench_accounts_pkey |       2246197248

 2017-02-05 19:43:14.498219+01 | 1486320194.49822 | pgbench_branches_pkey |            40960
 2017-02-05 19:43:14.498219+01 | 1486320194.49822 | pgbench_tellers_pkey  |           245760
 2017-02-05 19:43:14.498219+01 | 1486320194.49822 | pgbench_accounts_pkey |       2246197248

 2017-02-05 19:43:15.575494+01 | 1486320195.57549 | pgbench_branches_pkey |            40960
 2017-02-05 19:43:15.575494+01 | 1486320195.57549 | pgbench_tellers_pkey  |           245760
 2017-02-05 19:43:15.575494+01 | 1486320195.57549 | pgbench_accounts_pkey |       2246197248

 2017-02-05 19:43:16.658981+01 | 1486320196.65898 | pgbench_branches_pkey |            40960
 2017-02-05 19:43:16.658981+01 | 1486320196.65898 | pgbench_tellers_pkey  |           245760
 2017-02-05 19:43:16.658981+01 | 1486320196.65898 | pgbench_accounts_pkey |       2246197248

 2017-02-05 19:43:17.737391+01 | 1486320197.73739 | pgbench_branches_pkey |            40960
 2017-02-05 19:43:17.737391+01 | 1486320197.73739 | pgbench_tellers_pkey  |           245760
 2017-02-05 19:43:17.737391+01 | 1486320197.73739 | pgbench_accounts_pkey |       2246197248

 2017-02-05 19:43:18.8165+01 | 1486320198.8165 | pgbench_branches_pkey |            40960
 2017-02-05 19:43:18.8165+01 | 1486320198.8165 | pgbench_tellers_pkey  |           245760
 2017-02-05 19:43:18.8165+01 | 1486320198.8165 | pgbench_accounts_pkey |       2246197248

 2017-02-05 19:43:19.894088+01 | 1486320199.89409 | pgbench_branches_pkey |            40960
 2017-02-05 19:43:19.894088+01 | 1486320199.89409 | pgbench_tellers_pkey  |           245760
 2017-02-05 19:43:19.894088+01 | 1486320199.89409 | pgbench_accounts_pkey |       2246197248

 2017-02-05 19:43:20.975037+01 | 1486320200.97504 | pgbench_branches_pkey |            40960
 2017-02-05 19:43:20.975037+01 | 1486320200.97504 | pgbench_tellers_pkey  |           245760
 2017-02-05 19:43:20.975037+01 | 1486320200.97504 | pgbench_accounts_pkey |       2246197248

 2017-02-05 19:43:22.060168+01 | 1486320202.06017 | pgbench_branches_pkey |            40960
 2017-02-05 19:43:22.060168+01 | 1486320202.06017 | pgbench_tellers_pkey  |           245760
 2017-02-05 19:43:22.060168+01 | 1486320202.06017 | pgbench_accounts_pkey |       2246197248

 2017-02-05 19:43:23.133404+01 | 1486320203.1334 | pgbench_branches_pkey |            40960
 2017-02-05 19:43:23.133404+01 | 1486320203.1334 | pgbench_tellers_pkey  |           245760
 2017-02-05 19:43:23.133404+01 | 1486320203.1334 | pgbench_accounts_pkey |       2246197248

 2017-02-05 19:43:24.21267+01 | 1486320204.21267 | pgbench_branches_pkey |            40960
 2017-02-05 19:43:24.21267+01 | 1486320204.21267 | pgbench_tellers_pkey  |           245760
 2017-02-05 19:43:24.21267+01 | 1486320204.21267 | pgbench_accounts_pkey |       2246197248

 2017-02-05 19:43:25.28652+01 | 1486320205.28652 | pgbench_branches_pkey |            40960
 2017-02-05 19:43:25.28652+01 | 1486320205.28652 | pgbench_tellers_pkey  |           245760
 2017-02-05 19:43:25.28652+01 | 1486320205.28652 | pgbench_accounts_pkey |       2246197248

 2017-02-05 19:43:26.363424+01 | 1486320206.36342 | pgbench_branches_pkey |            40960
 2017-02-05 19:43:26.363424+01 | 1486320206.36342 | pgbench_tellers_pkey  |           245760
 2017-02-05 19:43:26.363424+01 | 1486320206.36342 | pgbench_accounts_pkey |       2246197248

 2017-02-05 19:43:27.440827+01 | 1486320207.44083 | pgbench_branches_pkey |            40960
 2017-02-05 19:43:27.440827+01 | 1486320207.44083 | pgbench_tellers_pkey  |           245760
 2017-02-05 19:43:27.440827+01 | 1486320207.44083 | pgbench_accounts_pkey |       2246197248

 2017-02-05 19:43:28.518825+01 | 1486320208.51883 | pgbench_branches_pkey |            40960
 2017-02-05 19:43:28.518825+01 | 1486320208.51883 | pgbench_tellers_pkey  |           245760
 2017-02-05 19:43:28.518825+01 | 1486320208.51883 | pgbench_accounts_pkey |       2246197248

 2017-02-05 19:43:29.596557+01 | 1486320209.59656 | pgbench_branches_pkey |            40960
 2017-02-05 19:43:29.596557+01 | 1486320209.59656 | pgbench_tellers_pkey  |           245760
 2017-02-05 19:43:29.596557+01 | 1486320209.59656 | pgbench_accounts_pkey |       2246197248

 2017-02-05 19:43:30.668208+01 | 1486320210.66821 | pgbench_branches_pkey |            40960
 2017-02-05 19:43:30.668208+01 | 1486320210.66821 | pgbench_tellers_pkey  |           245760
 2017-02-05 19:43:30.668208+01 | 1486320210.66821 | pgbench_accounts_pkey |       2246197248

 2017-02-05 19:43:31.744757+01 | 1486320211.74476 | pgbench_branches_pkey |            40960
 2017-02-05 19:43:31.744757+01 | 1486320211.74476 | pgbench_tellers_pkey  |           245760
 2017-02-05 19:43:31.744757+01 | 1486320211.74476 | pgbench_accounts_pkey |       2246197248

 2017-02-05 19:43:32.821457+01 | 1486320212.82146 | pgbench_branches_pkey |            40960
 2017-02-05 19:43:32.821457+01 | 1486320212.82146 | pgbench_tellers_pkey  |           245760
 2017-02-05 19:43:32.821457+01 | 1486320212.82146 | pgbench_accounts_pkey |       2246197248

 2017-02-05 19:43:33.895773+01 | 1486320213.89577 | pgbench_branches_pkey |            40960
 2017-02-05 19:43:33.895773+01 | 1486320213.89577 | pgbench_tellers_pkey  |           245760
 2017-02-05 19:43:33.895773+01 | 1486320213.89577 | pgbench_accounts_pkey |       2246197248

 2017-02-05 19:43:34.9821+01 | 1486320214.9821 | pgbench_branches_pkey |            40960
 2017-02-05 19:43:34.9821+01 | 1486320214.9821 | pgbench_tellers_pkey  |           245760
 2017-02-05 19:43:34.9821+01 | 1486320214.9821 | pgbench_accounts_pkey |       2246197248

 2017-02-05 19:43:36.055205+01 | 1486320216.05521 | pgbench_branches_pkey |            40960
 2017-02-05 19:43:36.055205+01 | 1486320216.05521 | pgbench_tellers_pkey  |           245760
 2017-02-05 19:43:36.055205+01 | 1486320216.05521 | pgbench_accounts_pkey |       2246197248

 2017-02-05 19:43:37.126116+01 | 1486320217.12612 | pgbench_branches_pkey |            40960
 2017-02-05 19:43:37.126116+01 | 1486320217.12612 | pgbench_tellers_pkey  |           245760
 2017-02-05 19:43:37.126116+01 | 1486320217.12612 | pgbench_accounts_pkey |       2246197248

 2017-02-05 19:43:38.202833+01 | 1486320218.20283 | pgbench_branches_pkey |            40960
 2017-02-05 19:43:38.202833+01 | 1486320218.20283 | pgbench_tellers_pkey  |           245760
 2017-02-05 19:43:38.202833+01 | 1486320218.20283 | pgbench_accounts_pkey |       2246197248

 2017-02-05 19:43:39.276376+01 | 1486320219.27638 | pgbench_branches_pkey |            40960
 2017-02-05 19:43:39.276376+01 | 1486320219.27638 | pgbench_tellers_pkey  |           245760
 2017-02-05 19:43:39.276376+01 | 1486320219.27638 | pgbench_accounts_pkey |       2246197248

 2017-02-05 19:43:40.351641+01 | 1486320220.35164 | pgbench_branches_pkey |            40960
 2017-02-05 19:43:40.351641+01 | 1486320220.35164 | pgbench_tellers_pkey  |           245760
 2017-02-05 19:43:40.351641+01 | 1486320220.35164 | pgbench_accounts_pkey |       2246197248

 2017-02-05 19:43:41.428059+01 | 1486320221.42806 | pgbench_branches_pkey |            40960
 2017-02-05 19:43:41.428059+01 | 1486320221.42806 | pgbench_tellers_pkey  |           245760
 2017-02-05 19:43:41.428059+01 | 1486320221.42806 | pgbench_accounts_pkey |       2246197248

 2017-02-05 19:43:42.505253+01 | 1486320222.50525 | pgbench_branches_pkey |            40960
 2017-02-05 19:43:42.505253+01 | 1486320222.50525 | pgbench_tellers_pkey  |           245760
 2017-02-05 19:43:42.505253+01 | 1486320222.50525 | pgbench_accounts_pkey |       2246197248

 2017-02-05 19:43:43.577293+01 | 1486320223.57729 | pgbench_branches_pkey |            40960
 2017-02-05 19:43:43.577293+01 | 1486320223.57729 | pgbench_tellers_pkey  |           245760
 2017-02-05 19:43:43.577293+01 | 1486320223.57729 | pgbench_accounts_pkey |       2246197248

 2017-02-05 19:43:44.649412+01 | 1486320224.64941 | pgbench_branches_pkey |            40960
 2017-02-05 19:43:44.649412+01 | 1486320224.64941 | pgbench_tellers_pkey  |           245760
 2017-02-05 19:43:44.649412+01 | 1486320224.64941 | pgbench_accounts_pkey |       2246197248

 2017-02-05 19:43:45.728751+01 | 1486320225.72875 | pgbench_branches_pkey |            40960
 2017-02-05 19:43:45.728751+01 | 1486320225.72875 | pgbench_tellers_pkey  |           245760
 2017-02-05 19:43:45.728751+01 | 1486320225.72875 | pgbench_accounts_pkey |       2246197248

 2017-02-05 19:43:46.80244+01 | 1486320226.80244 | pgbench_branches_pkey |            40960
 2017-02-05 19:43:46.80244+01 | 1486320226.80244 | pgbench_tellers_pkey  |           245760
 2017-02-05 19:43:46.80244+01 | 1486320226.80244 | pgbench_accounts_pkey |       2246197248

 2017-02-05 19:43:47.879652+01 | 1486320227.87965 | pgbench_branches_pkey |            40960
 2017-02-05 19:43:47.879652+01 | 1486320227.87965 | pgbench_tellers_pkey  |           245760
 2017-02-05 19:43:47.879652+01 | 1486320227.87965 | pgbench_accounts_pkey |       2246197248

 2017-02-05 19:43:48.955334+01 | 1486320228.95533 | pgbench_branches_pkey |            40960
 2017-02-05 19:43:48.955334+01 | 1486320228.95533 | pgbench_tellers_pkey  |           245760
 2017-02-05 19:43:48.955334+01 | 1486320228.95533 | pgbench_accounts_pkey |       2246197248

 2017-02-05 19:43:50.028502+01 | 1486320230.0285 | pgbench_branches_pkey |            40960
 2017-02-05 19:43:50.028502+01 | 1486320230.0285 | pgbench_tellers_pkey  |           245760
 2017-02-05 19:43:50.028502+01 | 1486320230.0285 | pgbench_accounts_pkey |       2246197248

 2017-02-05 19:43:51.103394+01 | 1486320231.10339 | pgbench_branches_pkey |            40960
 2017-02-05 19:43:51.103394+01 | 1486320231.10339 | pgbench_tellers_pkey  |           245760
 2017-02-05 19:43:51.103394+01 | 1486320231.10339 | pgbench_accounts_pkey |       2246197248

 2017-02-05 19:43:52.180992+01 | 1486320232.18099 | pgbench_branches_pkey |            40960
 2017-02-05 19:43:52.180992+01 | 1486320232.18099 | pgbench_tellers_pkey  |           245760
 2017-02-05 19:43:52.180992+01 | 1486320232.18099 | pgbench_accounts_pkey |       2246197248

 2017-02-05 19:43:53.25429+01 | 1486320233.25429 | pgbench_branches_pkey |            40960
 2017-02-05 19:43:53.25429+01 | 1486320233.25429 | pgbench_tellers_pkey  |           245760
 2017-02-05 19:43:53.25429+01 | 1486320233.25429 | pgbench_accounts_pkey |       2246197248

 2017-02-05 19:43:54.334202+01 | 1486320234.3342 | pgbench_branches_pkey |            40960
 2017-02-05 19:43:54.334202+01 | 1486320234.3342 | pgbench_tellers_pkey  |           245760
 2017-02-05 19:43:54.334202+01 | 1486320234.3342 | pgbench_accounts_pkey |       2246197248

 2017-02-05 19:43:55.410011+01 | 1486320235.41001 | pgbench_branches_pkey |            40960
 2017-02-05 19:43:55.410011+01 | 1486320235.41001 | pgbench_tellers_pkey  |           245760
 2017-02-05 19:43:55.410011+01 | 1486320235.41001 | pgbench_accounts_pkey |       2246197248

 2017-02-05 19:43:56.483639+01 | 1486320236.48364 | pgbench_branches_pkey |            40960
 2017-02-05 19:43:56.483639+01 | 1486320236.48364 | pgbench_tellers_pkey  |           245760
 2017-02-05 19:43:56.483639+01 | 1486320236.48364 | pgbench_accounts_pkey |       2246197248

 2017-02-05 19:43:57.560505+01 | 1486320237.5605 | pgbench_branches_pkey |            40960
 2017-02-05 19:43:57.560505+01 | 1486320237.5605 | pgbench_tellers_pkey  |           245760
 2017-02-05 19:43:57.560505+01 | 1486320237.5605 | pgbench_accounts_pkey |       2246197248

 2017-02-05 19:43:58.638182+01 | 1486320238.63818 | pgbench_branches_pkey |            40960
 2017-02-05 19:43:58.638182+01 | 1486320238.63818 | pgbench_tellers_pkey  |           245760
 2017-02-05 19:43:58.638182+01 | 1486320238.63818 | pgbench_accounts_pkey |       2246197248

 2017-02-05 19:43:59.717096+01 | 1486320239.7171 | pgbench_branches_pkey |            40960
 2017-02-05 19:43:59.717096+01 | 1486320239.7171 | pgbench_tellers_pkey  |           245760
 2017-02-05 19:43:59.717096+01 | 1486320239.7171 | pgbench_accounts_pkey |       2246197248

 2017-02-05 19:44:00.795155+01 | 1486320240.79516 | pgbench_branches_pkey |            40960
 2017-02-05 19:44:00.795155+01 | 1486320240.79516 | pgbench_tellers_pkey  |           245760
 2017-02-05 19:44:00.795155+01 | 1486320240.79516 | pgbench_accounts_pkey |       2246197248

 2017-02-05 19:44:01.869697+01 | 1486320241.8697 | pgbench_branches_pkey |            40960
 2017-02-05 19:44:01.869697+01 | 1486320241.8697 | pgbench_tellers_pkey  |           245760
 2017-02-05 19:44:01.869697+01 | 1486320241.8697 | pgbench_accounts_pkey |       2246197248

 2017-02-05 19:44:02.947642+01 | 1486320242.94764 | pgbench_branches_pkey |            40960
 2017-02-05 19:44:02.947642+01 | 1486320242.94764 | pgbench_tellers_pkey  |           245760
 2017-02-05 19:44:02.947642+01 | 1486320242.94764 | pgbench_accounts_pkey |       2246197248

 2017-02-05 19:44:04.031192+01 | 1486320244.03119 | pgbench_branches_pkey |            40960
 2017-02-05 19:44:04.031192+01 | 1486320244.03119 | pgbench_tellers_pkey  |           245760
 2017-02-05 19:44:04.031192+01 | 1486320244.03119 | pgbench_accounts_pkey |       2246197248

 2017-02-05 19:44:05.110249+01 | 1486320245.11025 | pgbench_branches_pkey |            40960
 2017-02-05 19:44:05.110249+01 | 1486320245.11025 | pgbench_tellers_pkey  |           245760
 2017-02-05 19:44:05.110249+01 | 1486320245.11025 | pgbench_accounts_pkey |       2246197248

 2017-02-05 19:44:06.18422+01 | 1486320246.18422 | pgbench_branches_pkey |            40960
 2017-02-05 19:44:06.18422+01 | 1486320246.18422 | pgbench_tellers_pkey  |           245760
 2017-02-05 19:44:06.18422+01 | 1486320246.18422 | pgbench_accounts_pkey |       2246197248

 2017-02-05 19:44:07.267023+01 | 1486320247.26702 | pgbench_branches_pkey |            40960
 2017-02-05 19:44:07.267023+01 | 1486320247.26702 | pgbench_tellers_pkey  |           245760
 2017-02-05 19:44:07.267023+01 | 1486320247.26702 | pgbench_accounts_pkey |       2246197248

 2017-02-05 19:44:08.346196+01 | 1486320248.3462 | pgbench_branches_pkey |            40960
 2017-02-05 19:44:08.346196+01 | 1486320248.3462 | pgbench_tellers_pkey  |           245760
 2017-02-05 19:44:08.346196+01 | 1486320248.3462 | pgbench_accounts_pkey |       2246197248

 2017-02-05 19:44:09.424933+01 | 1486320249.42493 | pgbench_branches_pkey |            40960
 2017-02-05 19:44:09.424933+01 | 1486320249.42493 | pgbench_tellers_pkey  |           245760
 2017-02-05 19:44:09.424933+01 | 1486320249.42493 | pgbench_accounts_pkey |       2246197248

 2017-02-05 19:44:10.504436+01 | 1486320250.50444 | pgbench_branches_pkey |            40960
 2017-02-05 19:44:10.504436+01 | 1486320250.50444 | pgbench_tellers_pkey  |           245760
 2017-02-05 19:44:10.504436+01 | 1486320250.50444 | pgbench_accounts_pkey |       2246197248

 2017-02-05 19:44:11.586772+01 | 1486320251.58677 | pgbench_branches_pkey |            40960
 2017-02-05 19:44:11.586772+01 | 1486320251.58677 | pgbench_tellers_pkey  |           245760
 2017-02-05 19:44:11.586772+01 | 1486320251.58677 | pgbench_accounts_pkey |       2246197248

 2017-02-05 19:44:12.660483+01 | 1486320252.66048 | pgbench_branches_pkey |            40960
 2017-02-05 19:44:12.660483+01 | 1486320252.66048 | pgbench_tellers_pkey  |           245760
 2017-02-05 19:44:12.660483+01 | 1486320252.66048 | pgbench_accounts_pkey |       2246197248

 2017-02-05 19:44:13.734636+01 | 1486320253.73464 | pgbench_branches_pkey |            40960
 2017-02-05 19:44:13.734636+01 | 1486320253.73464 | pgbench_tellers_pkey  |           245760
 2017-02-05 19:44:13.734636+01 | 1486320253.73464 | pgbench_accounts_pkey |       2246197248

 2017-02-05 19:44:14.815535+01 | 1486320254.81554 | pgbench_branches_pkey |            40960
 2017-02-05 19:44:14.815535+01 | 1486320254.81554 | pgbench_tellers_pkey  |           245760
 2017-02-05 19:44:14.815535+01 | 1486320254.81554 | pgbench_accounts_pkey |       2246197248

 2017-02-05 19:44:15.892839+01 | 1486320255.89284 | pgbench_branches_pkey |            40960
 2017-02-05 19:44:15.892839+01 | 1486320255.89284 | pgbench_tellers_pkey  |           245760
 2017-02-05 19:44:15.892839+01 | 1486320255.89284 | pgbench_accounts_pkey |       2246197248

 2017-02-05 19:44:16.967093+01 | 1486320256.96709 | pgbench_branches_pkey |            40960
 2017-02-05 19:44:16.967093+01 | 1486320256.96709 | pgbench_tellers_pkey  |           245760
 2017-02-05 19:44:16.967093+01 | 1486320256.96709 | pgbench_accounts_pkey |       2246197248

 2017-02-05 19:44:18.04491+01 | 1486320258.04491 | pgbench_branches_pkey |            40960
 2017-02-05 19:44:18.04491+01 | 1486320258.04491 | pgbench_tellers_pkey  |           245760
 2017-02-05 19:44:18.04491+01 | 1486320258.04491 | pgbench_accounts_pkey |       2246197248

 2017-02-05 19:44:19.120978+01 | 1486320259.12098 | pgbench_branches_pkey |            40960
 2017-02-05 19:44:19.120978+01 | 1486320259.12098 | pgbench_tellers_pkey  |           245760
 2017-02-05 19:44:19.120978+01 | 1486320259.12098 | pgbench_accounts_pkey |       2246197248

 2017-02-05 19:44:20.199406+01 | 1486320260.19941 | pgbench_branches_pkey |            40960
 2017-02-05 19:44:20.199406+01 | 1486320260.19941 | pgbench_tellers_pkey  |           245760
 2017-02-05 19:44:20.199406+01 | 1486320260.19941 | pgbench_accounts_pkey |       2246197248

 2017-02-05 19:44:21.278585+01 | 1486320261.27858 | pgbench_branches_pkey |            40960
 2017-02-05 19:44:21.278585+01 | 1486320261.27858 | pgbench_tellers_pkey  |           245760
 2017-02-05 19:44:21.278585+01 | 1486320261.27858 | pgbench_accounts_pkey |       2246197248

 2017-02-05 19:44:22.352627+01 | 1486320262.35263 | pgbench_branches_pkey |            40960
 2017-02-05 19:44:22.352627+01 | 1486320262.35263 | pgbench_tellers_pkey  |           245760
 2017-02-05 19:44:22.352627+01 | 1486320262.35263 | pgbench_accounts_pkey |       2246197248

 2017-02-05 19:44:23.429881+01 | 1486320263.42988 | pgbench_branches_pkey |            40960
 2017-02-05 19:44:23.429881+01 | 1486320263.42988 | pgbench_tellers_pkey  |           245760
 2017-02-05 19:44:23.429881+01 | 1486320263.42988 | pgbench_accounts_pkey |       2246197248

 2017-02-05 19:44:24.507217+01 | 1486320264.50722 | pgbench_branches_pkey |            40960
 2017-02-05 19:44:24.507217+01 | 1486320264.50722 | pgbench_tellers_pkey  |           245760
 2017-02-05 19:44:24.507217+01 | 1486320264.50722 | pgbench_accounts_pkey |       2246197248

 2017-02-05 19:44:25.588156+01 | 1486320265.58816 | pgbench_branches_pkey |            40960
 2017-02-05 19:44:25.588156+01 | 1486320265.58816 | pgbench_tellers_pkey  |           245760
 2017-02-05 19:44:25.588156+01 | 1486320265.58816 | pgbench_accounts_pkey |       2246197248

 2017-02-05 19:44:26.668067+01 | 1486320266.66807 | pgbench_branches_pkey |            40960
 2017-02-05 19:44:26.668067+01 | 1486320266.66807 | pgbench_tellers_pkey  |           245760
 2017-02-05 19:44:26.668067+01 | 1486320266.66807 | pgbench_accounts_pkey |       2246197248

 2017-02-05 19:44:27.745642+01 | 1486320267.74564 | pgbench_branches_pkey |            40960
 2017-02-05 19:44:27.745642+01 | 1486320267.74564 | pgbench_tellers_pkey  |           245760
 2017-02-05 19:44:27.745642+01 | 1486320267.74564 | pgbench_accounts_pkey |       2246197248

 2017-02-05 19:44:28.819939+01 | 1486320268.81994 | pgbench_branches_pkey |            40960
 2017-02-05 19:44:28.819939+01 | 1486320268.81994 | pgbench_tellers_pkey  |           245760
 2017-02-05 19:44:28.819939+01 | 1486320268.81994 | pgbench_accounts_pkey |       2246197248

 2017-02-05 19:44:29.894222+01 | 1486320269.89422 | pgbench_branches_pkey |            40960
 2017-02-05 19:44:29.894222+01 | 1486320269.89422 | pgbench_tellers_pkey  |           245760
 2017-02-05 19:44:29.894222+01 | 1486320269.89422 | pgbench_accounts_pkey |       2246197248

 2017-02-05 19:44:30.968424+01 | 1486320270.96842 | pgbench_branches_pkey |            40960
 2017-02-05 19:44:30.968424+01 | 1486320270.96842 | pgbench_tellers_pkey  |           245760
 2017-02-05 19:44:30.968424+01 | 1486320270.96842 | pgbench_accounts_pkey |       2246197248

 2017-02-05 19:44:32.042226+01 | 1486320272.04223 | pgbench_branches_pkey |            40960
 2017-02-05 19:44:32.042226+01 | 1486320272.04223 | pgbench_tellers_pkey  |           245760
 2017-02-05 19:44:32.042226+01 | 1486320272.04223 | pgbench_accounts_pkey |       2246197248

 2017-02-05 19:44:33.1146+01 | 1486320273.1146 | pgbench_branches_pkey |            40960
 2017-02-05 19:44:33.1146+01 | 1486320273.1146 | pgbench_tellers_pkey  |           245760
 2017-02-05 19:44:33.1146+01 | 1486320273.1146 | pgbench_accounts_pkey |       2246197248

 2017-02-05 19:44:34.190897+01 | 1486320274.1909 | pgbench_branches_pkey |            40960
 2017-02-05 19:44:34.190897+01 | 1486320274.1909 | pgbench_tellers_pkey  |           245760
 2017-02-05 19:44:34.190897+01 | 1486320274.1909 | pgbench_accounts_pkey |       2246197248

 2017-02-05 19:44:35.271878+01 | 1486320275.27188 | pgbench_branches_pkey |            40960
 2017-02-05 19:44:35.271878+01 | 1486320275.27188 | pgbench_tellers_pkey  |           245760
 2017-02-05 19:44:35.271878+01 | 1486320275.27188 | pgbench_accounts_pkey |       2246197248

 2017-02-05 19:44:36.350082+01 | 1486320276.35008 | pgbench_branches_pkey |            40960
 2017-02-05 19:44:36.350082+01 | 1486320276.35008 | pgbench_tellers_pkey  |           245760
 2017-02-05 19:44:36.350082+01 | 1486320276.35008 | pgbench_accounts_pkey |       2246197248

 2017-02-05 19:44:37.428817+01 | 1486320277.42882 | pgbench_branches_pkey |            40960
 2017-02-05 19:44:37.428817+01 | 1486320277.42882 | pgbench_tellers_pkey  |           245760
 2017-02-05 19:44:37.428817+01 | 1486320277.42882 | pgbench_accounts_pkey |       2246197248

 2017-02-05 19:44:38.502979+01 | 1486320278.50298 | pgbench_branches_pkey |            40960
 2017-02-05 19:44:38.502979+01 | 1486320278.50298 | pgbench_tellers_pkey  |           245760
 2017-02-05 19:44:38.502979+01 | 1486320278.50298 | pgbench_accounts_pkey |       2246197248

 2017-02-05 19:44:39.581517+01 | 1486320279.58152 | pgbench_branches_pkey |            40960
 2017-02-05 19:44:39.581517+01 | 1486320279.58152 | pgbench_tellers_pkey  |           245760
 2017-02-05 19:44:39.581517+01 | 1486320279.58152 | pgbench_accounts_pkey |       2246197248

 2017-02-05 19:44:40.659114+01 | 1486320280.65911 | pgbench_branches_pkey |            40960
 2017-02-05 19:44:40.659114+01 | 1486320280.65911 | pgbench_tellers_pkey  |           245760
 2017-02-05 19:44:40.659114+01 | 1486320280.65911 | pgbench_accounts_pkey |       2246197248

 2017-02-05 19:44:41.7379+01 | 1486320281.7379 | pgbench_branches_pkey |            40960
 2017-02-05 19:44:41.7379+01 | 1486320281.7379 | pgbench_tellers_pkey  |           245760
 2017-02-05 19:44:41.7379+01 | 1486320281.7379 | pgbench_accounts_pkey |       2246197248

 2017-02-05 19:44:42.814822+01 | 1486320282.81482 | pgbench_branches_pkey |            40960
 2017-02-05 19:44:42.814822+01 | 1486320282.81482 | pgbench_tellers_pkey  |           245760
 2017-02-05 19:44:42.814822+01 | 1486320282.81482 | pgbench_accounts_pkey |       2246197248

 2017-02-05 19:44:43.901224+01 | 1486320283.90122 | pgbench_branches_pkey |            40960
 2017-02-05 19:44:43.901224+01 | 1486320283.90122 | pgbench_tellers_pkey  |           245760
 2017-02-05 19:44:43.901224+01 | 1486320283.90122 | pgbench_accounts_pkey |       2246197248

 2017-02-05 19:44:44.985384+01 | 1486320284.98538 | pgbench_branches_pkey |            40960
 2017-02-05 19:44:44.985384+01 | 1486320284.98538 | pgbench_tellers_pkey  |           245760
 2017-02-05 19:44:44.985384+01 | 1486320284.98538 | pgbench_accounts_pkey |       2246197248

 2017-02-05 19:44:46.063815+01 | 1486320286.06382 | pgbench_branches_pkey |            40960
 2017-02-05 19:44:46.063815+01 | 1486320286.06382 | pgbench_tellers_pkey  |           245760
 2017-02-05 19:44:46.063815+01 | 1486320286.06382 | pgbench_accounts_pkey |       2246197248

 2017-02-05 19:44:47.141999+01 | 1486320287.142 | pgbench_branches_pkey |            40960
 2017-02-05 19:44:47.141999+01 | 1486320287.142 | pgbench_tellers_pkey  |           245760
 2017-02-05 19:44:47.141999+01 | 1486320287.142 | pgbench_accounts_pkey |       2246197248

 2017-02-05 19:44:48.2183+01 | 1486320288.2183 | pgbench_branches_pkey |            40960
 2017-02-05 19:44:48.2183+01 | 1486320288.2183 | pgbench_tellers_pkey  |           245760
 2017-02-05 19:44:48.2183+01 | 1486320288.2183 | pgbench_accounts_pkey |       2246197248

 2017-02-05 19:44:49.295875+01 | 1486320289.29588 | pgbench_branches_pkey |            40960
 2017-02-05 19:44:49.295875+01 | 1486320289.29588 | pgbench_tellers_pkey  |           245760
 2017-02-05 19:44:49.295875+01 | 1486320289.29588 | pgbench_accounts_pkey |       2246197248

 2017-02-05 19:44:50.373334+01 | 1486320290.37333 | pgbench_branches_pkey |            40960
 2017-02-05 19:44:50.373334+01 | 1486320290.37333 | pgbench_tellers_pkey  |           245760
 2017-02-05 19:44:50.373334+01 | 1486320290.37333 | pgbench_accounts_pkey |       2246197248

 2017-02-05 19:44:51.445414+01 | 1486320291.44541 | pgbench_branches_pkey |            40960
 2017-02-05 19:44:51.445414+01 | 1486320291.44541 | pgbench_tellers_pkey  |           245760
 2017-02-05 19:44:51.445414+01 | 1486320291.44541 | pgbench_accounts_pkey |       2246197248

 2017-02-05 19:44:52.522566+01 | 1486320292.52257 | pgbench_branches_pkey |            40960
 2017-02-05 19:44:52.522566+01 | 1486320292.52257 | pgbench_tellers_pkey  |           245760
 2017-02-05 19:44:52.522566+01 | 1486320292.52257 | pgbench_accounts_pkey |       2246197248

 2017-02-05 19:44:53.59762+01 | 1486320293.59762 | pgbench_branches_pkey |            40960
 2017-02-05 19:44:53.59762+01 | 1486320293.59762 | pgbench_tellers_pkey  |           245760
 2017-02-05 19:44:53.59762+01 | 1486320293.59762 | pgbench_accounts_pkey |       2246197248

 2017-02-05 19:44:54.67459+01 | 1486320294.67459 | pgbench_branches_pkey |            40960
 2017-02-05 19:44:54.67459+01 | 1486320294.67459 | pgbench_tellers_pkey  |           245760
 2017-02-05 19:44:54.67459+01 | 1486320294.67459 | pgbench_accounts_pkey |       2246197248

 2017-02-05 19:44:55.749305+01 | 1486320295.74931 | pgbench_branches_pkey |            40960
 2017-02-05 19:44:55.749305+01 | 1486320295.74931 | pgbench_tellers_pkey  |           245760
 2017-02-05 19:44:55.749305+01 | 1486320295.74931 | pgbench_accounts_pkey |       2246197248

 2017-02-05 19:44:56.821849+01 | 1486320296.82185 | pgbench_branches_pkey |            40960
 2017-02-05 19:44:56.821849+01 | 1486320296.82185 | pgbench_tellers_pkey  |           245760
 2017-02-05 19:44:56.821849+01 | 1486320296.82185 | pgbench_accounts_pkey |       2246197248

 2017-02-05 19:44:57.894807+01 | 1486320297.89481 | pgbench_branches_pkey |            40960
 2017-02-05 19:44:57.894807+01 | 1486320297.89481 | pgbench_tellers_pkey  |           245760
 2017-02-05 19:44:57.894807+01 | 1486320297.89481 | pgbench_accounts_pkey |       2246197248

 2017-02-05 19:44:58.971691+01 | 1486320298.97169 | pgbench_branches_pkey |            40960
 2017-02-05 19:44:58.971691+01 | 1486320298.97169 | pgbench_tellers_pkey  |           245760
 2017-02-05 19:44:58.971691+01 | 1486320298.97169 | pgbench_accounts_pkey |       2246197248

 2017-02-05 19:45:00.046702+01 | 1486320300.0467 | pgbench_branches_pkey |            40960
 2017-02-05 19:45:00.046702+01 | 1486320300.0467 | pgbench_tellers_pkey  |           245760
 2017-02-05 19:45:00.046702+01 | 1486320300.0467 | pgbench_accounts_pkey |       2246197248

 2017-02-05 19:45:01.124637+01 | 1486320301.12464 | pgbench_branches_pkey |            40960
 2017-02-05 19:45:01.124637+01 | 1486320301.12464 | pgbench_tellers_pkey  |           245760
 2017-02-05 19:45:01.124637+01 | 1486320301.12464 | pgbench_accounts_pkey |       2246197248

 2017-02-05 19:45:02.198134+01 | 1486320302.19813 | pgbench_branches_pkey |            40960
 2017-02-05 19:45:02.198134+01 | 1486320302.19813 | pgbench_tellers_pkey  |           245760
 2017-02-05 19:45:02.198134+01 | 1486320302.19813 | pgbench_accounts_pkey |       2246197248

 2017-02-05 19:45:03.272604+01 | 1486320303.2726 | pgbench_branches_pkey |            40960
 2017-02-05 19:45:03.272604+01 | 1486320303.2726 | pgbench_tellers_pkey  |           245760
 2017-02-05 19:45:03.272604+01 | 1486320303.2726 | pgbench_accounts_pkey |       2246197248

 2017-02-05 19:45:04.343679+01 | 1486320304.34368 | pgbench_branches_pkey |            40960
 2017-02-05 19:45:04.343679+01 | 1486320304.34368 | pgbench_tellers_pkey  |           245760
 2017-02-05 19:45:04.343679+01 | 1486320304.34368 | pgbench_accounts_pkey |       2246197248

 2017-02-05 19:45:05.421872+01 | 1486320305.42187 | pgbench_branches_pkey |            40960
 2017-02-05 19:45:05.421872+01 | 1486320305.42187 | pgbench_tellers_pkey  |           245760
 2017-02-05 19:45:05.421872+01 | 1486320305.42187 | pgbench_accounts_pkey |       2246197248

 2017-02-05 19:45:06.513363+01 | 1486320306.51336 | pgbench_branches_pkey |            40960
 2017-02-05 19:45:06.513363+01 | 1486320306.51336 | pgbench_tellers_pkey  |           245760
 2017-02-05 19:45:06.513363+01 | 1486320306.51336 | pgbench_accounts_pkey |       2246197248

 2017-02-05 19:45:07.597949+01 | 1486320307.59795 | pgbench_branches_pkey |            40960
 2017-02-05 19:45:07.597949+01 | 1486320307.59795 | pgbench_tellers_pkey  |           245760
 2017-02-05 19:45:07.597949+01 | 1486320307.59795 | pgbench_accounts_pkey |       2246197248

 2017-02-05 19:45:08.678204+01 | 1486320308.6782 | pgbench_branches_pkey |            40960
 2017-02-05 19:45:08.678204+01 | 1486320308.6782 | pgbench_tellers_pkey  |           245760
 2017-02-05 19:45:08.678204+01 | 1486320308.6782 | pgbench_accounts_pkey |       2246197248

 2017-02-05 19:45:09.75706+01 | 1486320309.75706 | pgbench_branches_pkey |            40960
 2017-02-05 19:45:09.75706+01 | 1486320309.75706 | pgbench_tellers_pkey  |           245760
 2017-02-05 19:45:09.75706+01 | 1486320309.75706 | pgbench_accounts_pkey |       2246197248

 2017-02-05 19:45:10.83508+01 | 1486320310.83508 | pgbench_branches_pkey |            40960
 2017-02-05 19:45:10.83508+01 | 1486320310.83508 | pgbench_tellers_pkey  |           245760
 2017-02-05 19:45:10.83508+01 | 1486320310.83508 | pgbench_accounts_pkey |       2246197248

 2017-02-05 19:45:11.910121+01 | 1486320311.91012 | pgbench_branches_pkey |            40960
 2017-02-05 19:45:11.910121+01 | 1486320311.91012 | pgbench_tellers_pkey  |           245760
 2017-02-05 19:45:11.910121+01 | 1486320311.91012 | pgbench_accounts_pkey |       2246197248

 2017-02-05 19:45:12.987623+01 | 1486320312.98762 | pgbench_branches_pkey |            40960
 2017-02-05 19:45:12.987623+01 | 1486320312.98762 | pgbench_tellers_pkey  |           245760
 2017-02-05 19:45:12.987623+01 | 1486320312.98762 | pgbench_accounts_pkey |       2246197248

 2017-02-05 19:45:14.061974+01 | 1486320314.06197 | pgbench_branches_pkey |            40960
 2017-02-05 19:45:14.061974+01 | 1486320314.06197 | pgbench_tellers_pkey  |           245760
 2017-02-05 19:45:14.061974+01 | 1486320314.06197 | pgbench_accounts_pkey |       2246197248

 2017-02-05 19:45:15.138036+01 | 1486320315.13804 | pgbench_branches_pkey |            40960
 2017-02-05 19:45:15.138036+01 | 1486320315.13804 | pgbench_tellers_pkey  |           245760
 2017-02-05 19:45:15.138036+01 | 1486320315.13804 | pgbench_accounts_pkey |       2246197248

 2017-02-05 19:45:16.208402+01 | 1486320316.2084 | pgbench_branches_pkey |            40960
 2017-02-05 19:45:16.208402+01 | 1486320316.2084 | pgbench_tellers_pkey  |           245760
 2017-02-05 19:45:16.208402+01 | 1486320316.2084 | pgbench_accounts_pkey |       2246197248

 2017-02-05 19:45:17.284821+01 | 1486320317.28482 | pgbench_branches_pkey |            40960
 2017-02-05 19:45:17.284821+01 | 1486320317.28482 | pgbench_tellers_pkey  |           245760
 2017-02-05 19:45:17.284821+01 | 1486320317.28482 | pgbench_accounts_pkey |       2246197248

 2017-02-05 19:45:18.361099+01 | 1486320318.3611 | pgbench_branches_pkey |            40960
 2017-02-05 19:45:18.361099+01 | 1486320318.3611 | pgbench_tellers_pkey  |           245760
 2017-02-05 19:45:18.361099+01 | 1486320318.3611 | pgbench_accounts_pkey |       2246197248

 2017-02-05 19:45:19.438354+01 | 1486320319.43835 | pgbench_branches_pkey |            40960
 2017-02-05 19:45:19.438354+01 | 1486320319.43835 | pgbench_tellers_pkey  |           245760
 2017-02-05 19:45:19.438354+01 | 1486320319.43835 | pgbench_accounts_pkey |       2246197248

 2017-02-05 19:45:20.515315+01 | 1486320320.51532 | pgbench_branches_pkey |            40960
 2017-02-05 19:45:20.515315+01 | 1486320320.51532 | pgbench_tellers_pkey  |           245760
 2017-02-05 19:45:20.515315+01 | 1486320320.51532 | pgbench_accounts_pkey |       2246197248

 2017-02-05 19:45:21.590162+01 | 1486320321.59016 | pgbench_branches_pkey |            40960
 2017-02-05 19:45:21.590162+01 | 1486320321.59016 | pgbench_tellers_pkey  |           245760
 2017-02-05 19:45:21.590162+01 | 1486320321.59016 | pgbench_accounts_pkey |       2246197248

 2017-02-05 19:45:22.663793+01 | 1486320322.66379 | pgbench_branches_pkey |            40960
 2017-02-05 19:45:22.663793+01 | 1486320322.66379 | pgbench_tellers_pkey  |           245760
 2017-02-05 19:45:22.663793+01 | 1486320322.66379 | pgbench_accounts_pkey |       2246197248

 2017-02-05 19:45:23.748523+01 | 1486320323.74852 | pgbench_branches_pkey |            40960
 2017-02-05 19:45:23.748523+01 | 1486320323.74852 | pgbench_tellers_pkey  |           245760
 2017-02-05 19:45:23.748523+01 | 1486320323.74852 | pgbench_accounts_pkey |       2246197248

 2017-02-05 19:45:24.831471+01 | 1486320324.83147 | pgbench_branches_pkey |            40960
 2017-02-05 19:45:24.831471+01 | 1486320324.83147 | pgbench_tellers_pkey  |           245760
 2017-02-05 19:45:24.831471+01 | 1486320324.83147 | pgbench_accounts_pkey |       2246197248

 2017-02-05 19:45:25.91111+01 | 1486320325.91111 | pgbench_branches_pkey |            40960
 2017-02-05 19:45:25.91111+01 | 1486320325.91111 | pgbench_tellers_pkey  |           245760
 2017-02-05 19:45:25.91111+01 | 1486320325.91111 | pgbench_accounts_pkey |       2246197248

 2017-02-05 19:45:26.983528+01 | 1486320326.98353 | pgbench_branches_pkey |            40960
 2017-02-05 19:45:26.983528+01 | 1486320326.98353 | pgbench_tellers_pkey  |           245760
 2017-02-05 19:45:26.983528+01 | 1486320326.98353 | pgbench_accounts_pkey |       2246197248

 2017-02-05 19:45:28.058324+01 | 1486320328.05832 | pgbench_branches_pkey |            40960
 2017-02-05 19:45:28.058324+01 | 1486320328.05832 | pgbench_tellers_pkey  |           245760
 2017-02-05 19:45:28.058324+01 | 1486320328.05832 | pgbench_accounts_pkey |       2246197248

 2017-02-05 19:45:29.140353+01 | 1486320329.14035 | pgbench_branches_pkey |            40960
 2017-02-05 19:45:29.140353+01 | 1486320329.14035 | pgbench_tellers_pkey  |           245760
 2017-02-05 19:45:29.140353+01 | 1486320329.14035 | pgbench_accounts_pkey |       2246197248

 2017-02-05 19:45:30.217183+01 | 1486320330.21718 | pgbench_branches_pkey |            40960
 2017-02-05 19:45:30.217183+01 | 1486320330.21718 | pgbench_tellers_pkey  |           245760
 2017-02-05 19:45:30.217183+01 | 1486320330.21718 | pgbench_accounts_pkey |       2246197248

 2017-02-05 19:45:31.295302+01 | 1486320331.2953 | pgbench_branches_pkey |            40960
 2017-02-05 19:45:31.295302+01 | 1486320331.2953 | pgbench_tellers_pkey  |           245760
 2017-02-05 19:45:31.295302+01 | 1486320331.2953 | pgbench_accounts_pkey |       2246197248

 2017-02-05 19:45:32.368679+01 | 1486320332.36868 | pgbench_branches_pkey |            40960
 2017-02-05 19:45:32.368679+01 | 1486320332.36868 | pgbench_tellers_pkey  |           245760
 2017-02-05 19:45:32.368679+01 | 1486320332.36868 | pgbench_accounts_pkey |       2246197248

 2017-02-05 19:45:33.449282+01 | 1486320333.44928 | pgbench_branches_pkey |            40960
 2017-02-05 19:45:33.449282+01 | 1486320333.44928 | pgbench_tellers_pkey  |           245760
 2017-02-05 19:45:33.449282+01 | 1486320333.44928 | pgbench_accounts_pkey |       2246197248

 2017-02-05 19:45:34.53299+01 | 1486320334.53299 | pgbench_branches_pkey |            40960
 2017-02-05 19:45:34.53299+01 | 1486320334.53299 | pgbench_tellers_pkey  |           245760
 2017-02-05 19:45:34.53299+01 | 1486320334.53299 | pgbench_accounts_pkey |       2246197248

 2017-02-05 19:45:35.60626+01 | 1486320335.60626 | pgbench_branches_pkey |            40960
 2017-02-05 19:45:35.60626+01 | 1486320335.60626 | pgbench_tellers_pkey  |           245760
 2017-02-05 19:45:35.60626+01 | 1486320335.60626 | pgbench_accounts_pkey |       2246197248

 2017-02-05 19:45:36.685702+01 | 1486320336.6857 | pgbench_branches_pkey |            40960
 2017-02-05 19:45:36.685702+01 | 1486320336.6857 | pgbench_tellers_pkey  |           245760
 2017-02-05 19:45:36.685702+01 | 1486320336.6857 | pgbench_accounts_pkey |       2246197248

 2017-02-05 19:45:37.761028+01 | 1486320337.76103 | pgbench_branches_pkey |            40960
 2017-02-05 19:45:37.761028+01 | 1486320337.76103 | pgbench_tellers_pkey  |           245760
 2017-02-05 19:45:37.761028+01 | 1486320337.76103 | pgbench_accounts_pkey |       2246197248

 2017-02-05 19:45:38.837904+01 | 1486320338.8379 | pgbench_branches_pkey |            40960
 2017-02-05 19:45:38.837904+01 | 1486320338.8379 | pgbench_tellers_pkey  |           245760
 2017-02-05 19:45:38.837904+01 | 1486320338.8379 | pgbench_accounts_pkey |       2246197248

 2017-02-05 19:45:39.915302+01 | 1486320339.9153 | pgbench_branches_pkey |            40960
 2017-02-05 19:45:39.915302+01 | 1486320339.9153 | pgbench_tellers_pkey  |           245760
 2017-02-05 19:45:39.915302+01 | 1486320339.9153 | pgbench_accounts_pkey |       2246197248

 2017-02-05 19:45:40.996222+01 | 1486320340.99622 | pgbench_branches_pkey |            40960
 2017-02-05 19:45:40.996222+01 | 1486320340.99622 | pgbench_tellers_pkey  |           245760
 2017-02-05 19:45:40.996222+01 | 1486320340.99622 | pgbench_accounts_pkey |       2246197248

 2017-02-05 19:45:42.068091+01 | 1486320342.06809 | pgbench_branches_pkey |            40960
 2017-02-05 19:45:42.068091+01 | 1486320342.06809 | pgbench_tellers_pkey  |           245760
 2017-02-05 19:45:42.068091+01 | 1486320342.06809 | pgbench_accounts_pkey |       2246197248

 2017-02-05 19:45:43.140828+01 | 1486320343.14083 | pgbench_branches_pkey |            40960
 2017-02-05 19:45:43.140828+01 | 1486320343.14083 | pgbench_tellers_pkey  |           245760
 2017-02-05 19:45:43.140828+01 | 1486320343.14083 | pgbench_accounts_pkey |       2246197248

 2017-02-05 19:45:44.213319+01 | 1486320344.21332 | pgbench_branches_pkey |            40960
 2017-02-05 19:45:44.213319+01 | 1486320344.21332 | pgbench_tellers_pkey  |           245760
 2017-02-05 19:45:44.213319+01 | 1486320344.21332 | pgbench_accounts_pkey |       2246197248

 2017-02-05 19:45:45.287221+01 | 1486320345.28722 | pgbench_branches_pkey |            40960
 2017-02-05 19:45:45.287221+01 | 1486320345.28722 | pgbench_tellers_pkey  |           245760
 2017-02-05 19:45:45.287221+01 | 1486320345.28722 | pgbench_accounts_pkey |       2246197248

 2017-02-05 19:45:46.361685+01 | 1486320346.36169 | pgbench_branches_pkey |            40960
 2017-02-05 19:45:46.361685+01 | 1486320346.36169 | pgbench_tellers_pkey  |           245760
 2017-02-05 19:45:46.361685+01 | 1486320346.36169 | pgbench_accounts_pkey |       2246197248

 2017-02-05 19:45:47.437174+01 | 1486320347.43717 | pgbench_branches_pkey |            40960
 2017-02-05 19:45:47.437174+01 | 1486320347.43717 | pgbench_tellers_pkey  |           245760
 2017-02-05 19:45:47.437174+01 | 1486320347.43717 | pgbench_accounts_pkey |       2246197248

 2017-02-05 19:45:48.513593+01 | 1486320348.51359 | pgbench_branches_pkey |            40960
 2017-02-05 19:45:48.513593+01 | 1486320348.51359 | pgbench_tellers_pkey  |           245760
 2017-02-05 19:45:48.513593+01 | 1486320348.51359 | pgbench_accounts_pkey |       2246197248

 2017-02-05 19:45:49.586982+01 | 1486320349.58698 | pgbench_branches_pkey |            40960
 2017-02-05 19:45:49.586982+01 | 1486320349.58698 | pgbench_tellers_pkey  |           245760
 2017-02-05 19:45:49.586982+01 | 1486320349.58698 | pgbench_accounts_pkey |       2246197248

 2017-02-05 19:45:50.665562+01 | 1486320350.66556 | pgbench_branches_pkey |            40960
 2017-02-05 19:45:50.665562+01 | 1486320350.66556 | pgbench_tellers_pkey  |           245760
 2017-02-05 19:45:50.665562+01 | 1486320350.66556 | pgbench_accounts_pkey |       2246197248

 2017-02-05 19:45:51.743218+01 | 1486320351.74322 | pgbench_branches_pkey |            40960
 2017-02-05 19:45:51.743218+01 | 1486320351.74322 | pgbench_tellers_pkey  |           245760
 2017-02-05 19:45:51.743218+01 | 1486320351.74322 | pgbench_accounts_pkey |       2246197248

 2017-02-05 19:45:52.819366+01 | 1486320352.81937 | pgbench_branches_pkey |            40960
 2017-02-05 19:45:52.819366+01 | 1486320352.81937 | pgbench_tellers_pkey  |           245760
 2017-02-05 19:45:52.819366+01 | 1486320352.81937 | pgbench_accounts_pkey |       2246197248

 2017-02-05 19:45:53.894617+01 | 1486320353.89462 | pgbench_branches_pkey |            40960
 2017-02-05 19:45:53.894617+01 | 1486320353.89462 | pgbench_tellers_pkey  |           245760
 2017-02-05 19:45:53.894617+01 | 1486320353.89462 | pgbench_accounts_pkey |       2246197248

 2017-02-05 19:45:54.967121+01 | 1486320354.96712 | pgbench_branches_pkey |            40960
 2017-02-05 19:45:54.967121+01 | 1486320354.96712 | pgbench_tellers_pkey  |           245760
 2017-02-05 19:45:54.967121+01 | 1486320354.96712 | pgbench_accounts_pkey |       2246197248

 2017-02-05 19:45:56.041835+01 | 1486320356.04184 | pgbench_branches_pkey |            40960
 2017-02-05 19:45:56.041835+01 | 1486320356.04184 | pgbench_tellers_pkey  |           245760
 2017-02-05 19:45:56.041835+01 | 1486320356.04184 | pgbench_accounts_pkey |       2246197248

 2017-02-05 19:45:57.118769+01 | 1486320357.11877 | pgbench_branches_pkey |            40960
 2017-02-05 19:45:57.118769+01 | 1486320357.11877 | pgbench_tellers_pkey  |           245760
 2017-02-05 19:45:57.118769+01 | 1486320357.11877 | pgbench_accounts_pkey |       2246197248

 2017-02-05 19:45:58.19879+01 | 1486320358.19879 | pgbench_branches_pkey |            40960
 2017-02-05 19:45:58.19879+01 | 1486320358.19879 | pgbench_tellers_pkey  |           245760
 2017-02-05 19:45:58.19879+01 | 1486320358.19879 | pgbench_accounts_pkey |       2246197248

 2017-02-05 19:45:59.269678+01 | 1486320359.26968 | pgbench_branches_pkey |            40960
 2017-02-05 19:45:59.269678+01 | 1486320359.26968 | pgbench_tellers_pkey  |           245760
 2017-02-05 19:45:59.269678+01 | 1486320359.26968 | pgbench_accounts_pkey |       2246197248

 2017-02-05 19:46:00.348894+01 | 1486320360.34889 | pgbench_branches_pkey |            40960
 2017-02-05 19:46:00.348894+01 | 1486320360.34889 | pgbench_tellers_pkey  |           245760
 2017-02-05 19:46:00.348894+01 | 1486320360.34889 | pgbench_accounts_pkey |       2246197248

 2017-02-05 19:46:01.426789+01 | 1486320361.42679 | pgbench_branches_pkey |            40960
 2017-02-05 19:46:01.426789+01 | 1486320361.42679 | pgbench_tellers_pkey  |           245760
 2017-02-05 19:46:01.426789+01 | 1486320361.42679 | pgbench_accounts_pkey |       2246197248

 2017-02-05 19:46:02.510101+01 | 1486320362.5101 | pgbench_branches_pkey |            40960
 2017-02-05 19:46:02.510101+01 | 1486320362.5101 | pgbench_tellers_pkey  |           245760
 2017-02-05 19:46:02.510101+01 | 1486320362.5101 | pgbench_accounts_pkey |       2246197248

 2017-02-05 19:46:03.59134+01 | 1486320363.59134 | pgbench_branches_pkey |            40960
 2017-02-05 19:46:03.59134+01 | 1486320363.59134 | pgbench_tellers_pkey  |           245760
 2017-02-05 19:46:03.59134+01 | 1486320363.59134 | pgbench_accounts_pkey |       2246197248

 2017-02-05 19:46:04.669418+01 | 1486320364.66942 | pgbench_branches_pkey |            40960
 2017-02-05 19:46:04.669418+01 | 1486320364.66942 | pgbench_tellers_pkey  |           245760
 2017-02-05 19:46:04.669418+01 | 1486320364.66942 | pgbench_accounts_pkey |       2246197248

 2017-02-05 19:46:05.7497+01 | 1486320365.7497 | pgbench_branches_pkey |            40960
 2017-02-05 19:46:05.7497+01 | 1486320365.7497 | pgbench_tellers_pkey  |           245760
 2017-02-05 19:46:05.7497+01 | 1486320365.7497 | pgbench_accounts_pkey |       2246197248

 2017-02-05 19:46:06.826476+01 | 1486320366.82648 | pgbench_branches_pkey |            40960
 2017-02-05 19:46:06.826476+01 | 1486320366.82648 | pgbench_tellers_pkey  |           245760
 2017-02-05 19:46:06.826476+01 | 1486320366.82648 | pgbench_accounts_pkey |       2246197248

 2017-02-05 19:46:07.903317+01 | 1486320367.90332 | pgbench_branches_pkey |            40960
 2017-02-05 19:46:07.903317+01 | 1486320367.90332 | pgbench_tellers_pkey  |           245760
 2017-02-05 19:46:07.903317+01 | 1486320367.90332 | pgbench_accounts_pkey |       2246197248

 2017-02-05 19:46:08.993028+01 | 1486320368.99303 | pgbench_branches_pkey |            40960
 2017-02-05 19:46:08.993028+01 | 1486320368.99303 | pgbench_tellers_pkey  |           245760
 2017-02-05 19:46:08.993028+01 | 1486320368.99303 | pgbench_accounts_pkey |       2246197248

 2017-02-05 19:46:10.062187+01 | 1486320370.06219 | pgbench_branches_pkey |            40960
 2017-02-05 19:46:10.062187+01 | 1486320370.06219 | pgbench_tellers_pkey  |           245760
 2017-02-05 19:46:10.062187+01 | 1486320370.06219 | pgbench_accounts_pkey |       2246197248

 2017-02-05 19:46:11.141909+01 | 1486320371.14191 | pgbench_branches_pkey |            40960
 2017-02-05 19:46:11.141909+01 | 1486320371.14191 | pgbench_tellers_pkey  |           245760
 2017-02-05 19:46:11.141909+01 | 1486320371.14191 | pgbench_accounts_pkey |       2246197248

 2017-02-05 19:46:12.221057+01 | 1486320372.22106 | pgbench_branches_pkey |            40960
 2017-02-05 19:46:12.221057+01 | 1486320372.22106 | pgbench_tellers_pkey  |           245760
 2017-02-05 19:46:12.221057+01 | 1486320372.22106 | pgbench_accounts_pkey |       2246197248

 2017-02-05 19:46:13.300423+01 | 1486320373.30042 | pgbench_branches_pkey |            40960
 2017-02-05 19:46:13.300423+01 | 1486320373.30042 | pgbench_tellers_pkey  |           245760
 2017-02-05 19:46:13.300423+01 | 1486320373.30042 | pgbench_accounts_pkey |       2246197248

 2017-02-05 19:46:14.378028+01 | 1486320374.37803 | pgbench_branches_pkey |            40960
 2017-02-05 19:46:14.378028+01 | 1486320374.37803 | pgbench_tellers_pkey  |           245760
 2017-02-05 19:46:14.378028+01 | 1486320374.37803 | pgbench_accounts_pkey |       2246197248

 2017-02-05 19:46:15.454214+01 | 1486320375.45421 | pgbench_branches_pkey |            40960
 2017-02-05 19:46:15.454214+01 | 1486320375.45421 | pgbench_tellers_pkey  |           245760
 2017-02-05 19:46:15.454214+01 | 1486320375.45421 | pgbench_accounts_pkey |       2246197248

 2017-02-05 19:46:16.533915+01 | 1486320376.53392 | pgbench_branches_pkey |            40960
 2017-02-05 19:46:16.533915+01 | 1486320376.53392 | pgbench_tellers_pkey  |           245760
 2017-02-05 19:46:16.533915+01 | 1486320376.53392 | pgbench_accounts_pkey |       2246197248

 2017-02-05 19:46:17.60722+01 | 1486320377.60722 | pgbench_branches_pkey |            40960
 2017-02-05 19:46:17.60722+01 | 1486320377.60722 | pgbench_tellers_pkey  |           245760
 2017-02-05 19:46:17.60722+01 | 1486320377.60722 | pgbench_accounts_pkey |       2246197248

 2017-02-05 19:46:18.678404+01 | 1486320378.6784 | pgbench_branches_pkey |            40960
 2017-02-05 19:46:18.678404+01 | 1486320378.6784 | pgbench_tellers_pkey  |           245760
 2017-02-05 19:46:18.678404+01 | 1486320378.6784 | pgbench_accounts_pkey |       2246197248

 2017-02-05 19:46:19.755329+01 | 1486320379.75533 | pgbench_branches_pkey |            40960
 2017-02-05 19:46:19.755329+01 | 1486320379.75533 | pgbench_tellers_pkey  |           245760
 2017-02-05 19:46:19.755329+01 | 1486320379.75533 | pgbench_accounts_pkey |       2246197248

 2017-02-05 19:46:20.829742+01 | 1486320380.82974 | pgbench_branches_pkey |            40960
 2017-02-05 19:46:20.829742+01 | 1486320380.82974 | pgbench_tellers_pkey  |           245760
 2017-02-05 19:46:20.829742+01 | 1486320380.82974 | pgbench_accounts_pkey |       2246197248

 2017-02-05 19:46:21.905634+01 | 1486320381.90563 | pgbench_branches_pkey |            40960
 2017-02-05 19:46:21.905634+01 | 1486320381.90563 | pgbench_tellers_pkey  |           245760
 2017-02-05 19:46:21.905634+01 | 1486320381.90563 | pgbench_accounts_pkey |       2246197248

 2017-02-05 19:46:22.977736+01 | 1486320382.97774 | pgbench_branches_pkey |            40960
 2017-02-05 19:46:22.977736+01 | 1486320382.97774 | pgbench_tellers_pkey  |           245760
 2017-02-05 19:46:22.977736+01 | 1486320382.97774 | pgbench_accounts_pkey |       2246197248

 2017-02-05 19:46:24.059892+01 | 1486320384.05989 | pgbench_branches_pkey |            40960
 2017-02-05 19:46:24.059892+01 | 1486320384.05989 | pgbench_tellers_pkey  |           245760
 2017-02-05 19:46:24.059892+01 | 1486320384.05989 | pgbench_accounts_pkey |       2246197248

 2017-02-05 19:46:25.134086+01 | 1486320385.13409 | pgbench_branches_pkey |            40960
 2017-02-05 19:46:25.134086+01 | 1486320385.13409 | pgbench_tellers_pkey  |           245760
 2017-02-05 19:46:25.134086+01 | 1486320385.13409 | pgbench_accounts_pkey |       2246197248

 2017-02-05 19:46:26.209612+01 | 1486320386.20961 | pgbench_branches_pkey |            40960
 2017-02-05 19:46:26.209612+01 | 1486320386.20961 | pgbench_tellers_pkey  |           245760
 2017-02-05 19:46:26.209612+01 | 1486320386.20961 | pgbench_accounts_pkey |       2246197248

 2017-02-05 19:46:27.288292+01 | 1486320387.28829 | pgbench_branches_pkey |            40960
 2017-02-05 19:46:27.288292+01 | 1486320387.28829 | pgbench_tellers_pkey  |           245760
 2017-02-05 19:46:27.288292+01 | 1486320387.28829 | pgbench_accounts_pkey |       2246197248

 2017-02-05 19:46:28.365856+01 | 1486320388.36586 | pgbench_branches_pkey |            40960
 2017-02-05 19:46:28.365856+01 | 1486320388.36586 | pgbench_tellers_pkey  |           245760
 2017-02-05 19:46:28.365856+01 | 1486320388.36586 | pgbench_accounts_pkey |       2246197248

 2017-02-05 19:46:29.4431+01 | 1486320389.4431 | pgbench_branches_pkey |            40960
 2017-02-05 19:46:29.4431+01 | 1486320389.4431 | pgbench_tellers_pkey  |           245760
 2017-02-05 19:46:29.4431+01 | 1486320389.4431 | pgbench_accounts_pkey |       2246197248

 2017-02-05 19:46:30.523563+01 | 1486320390.52356 | pgbench_branches_pkey |            40960
 2017-02-05 19:46:30.523563+01 | 1486320390.52356 | pgbench_tellers_pkey  |           245760
 2017-02-05 19:46:30.523563+01 | 1486320390.52356 | pgbench_accounts_pkey |       2246197248

 2017-02-05 19:46:31.596937+01 | 1486320391.59694 | pgbench_branches_pkey |            40960
 2017-02-05 19:46:31.596937+01 | 1486320391.59694 | pgbench_tellers_pkey  |           245760
 2017-02-05 19:46:31.596937+01 | 1486320391.59694 | pgbench_accounts_pkey |       2246197248

 2017-02-05 19:46:32.671614+01 | 1486320392.67161 | pgbench_branches_pkey |            40960
 2017-02-05 19:46:32.671614+01 | 1486320392.67161 | pgbench_tellers_pkey  |           245760
 2017-02-05 19:46:32.671614+01 | 1486320392.67161 | pgbench_accounts_pkey |       2246197248

 2017-02-05 19:46:33.747146+01 | 1486320393.74715 | pgbench_branches_pkey |            40960
 2017-02-05 19:46:33.747146+01 | 1486320393.74715 | pgbench_tellers_pkey  |           245760
 2017-02-05 19:46:33.747146+01 | 1486320393.74715 | pgbench_accounts_pkey |       2246197248

 2017-02-05 19:46:34.821663+01 | 1486320394.82166 | pgbench_branches_pkey |            40960
 2017-02-05 19:46:34.821663+01 | 1486320394.82166 | pgbench_tellers_pkey  |           245760
 2017-02-05 19:46:34.821663+01 | 1486320394.82166 | pgbench_accounts_pkey |       2246197248

 2017-02-05 19:46:35.897222+01 | 1486320395.89722 | pgbench_branches_pkey |            40960
 2017-02-05 19:46:35.897222+01 | 1486320395.89722 | pgbench_tellers_pkey  |           245760
 2017-02-05 19:46:35.897222+01 | 1486320395.89722 | pgbench_accounts_pkey |       2246197248

 2017-02-05 19:46:36.974108+01 | 1486320396.97411 | pgbench_branches_pkey |            40960
 2017-02-05 19:46:36.974108+01 | 1486320396.97411 | pgbench_tellers_pkey  |           245760
 2017-02-05 19:46:36.974108+01 | 1486320396.97411 | pgbench_accounts_pkey |       2246197248

 2017-02-05 19:46:38.054025+01 | 1486320398.05402 | pgbench_branches_pkey |            40960
 2017-02-05 19:46:38.054025+01 | 1486320398.05402 | pgbench_tellers_pkey  |           245760
 2017-02-05 19:46:38.054025+01 | 1486320398.05402 | pgbench_accounts_pkey |       2246197248

 2017-02-05 19:46:39.128655+01 | 1486320399.12865 | pgbench_branches_pkey |            40960
 2017-02-05 19:46:39.128655+01 | 1486320399.12865 | pgbench_tellers_pkey  |           245760
 2017-02-05 19:46:39.128655+01 | 1486320399.12865 | pgbench_accounts_pkey |       2246197248

 2017-02-05 19:46:40.195826+01 | 1486320400.19583 | pgbench_branches_pkey |            40960
 2017-02-05 19:46:40.195826+01 | 1486320400.19583 | pgbench_tellers_pkey  |           245760
 2017-02-05 19:46:40.195826+01 | 1486320400.19583 | pgbench_accounts_pkey |       2246197248

 2017-02-05 19:46:41.26839+01 | 1486320401.26839 | pgbench_branches_pkey |            40960
 2017-02-05 19:46:41.26839+01 | 1486320401.26839 | pgbench_tellers_pkey  |           245760
 2017-02-05 19:46:41.26839+01 | 1486320401.26839 | pgbench_accounts_pkey |       2246197248

 2017-02-05 19:46:42.347004+01 | 1486320402.347 | pgbench_branches_pkey |            40960
 2017-02-05 19:46:42.347004+01 | 1486320402.347 | pgbench_tellers_pkey  |           245760
 2017-02-05 19:46:42.347004+01 | 1486320402.347 | pgbench_accounts_pkey |       2246197248

 2017-02-05 19:46:43.427712+01 | 1486320403.42771 | pgbench_branches_pkey |            40960
 2017-02-05 19:46:43.427712+01 | 1486320403.42771 | pgbench_tellers_pkey  |           245760
 2017-02-05 19:46:43.427712+01 | 1486320403.42771 | pgbench_accounts_pkey |       2246197248

 2017-02-05 19:46:44.501806+01 | 1486320404.50181 | pgbench_branches_pkey |            40960
 2017-02-05 19:46:44.501806+01 | 1486320404.50181 | pgbench_tellers_pkey  |           245760
 2017-02-05 19:46:44.501806+01 | 1486320404.50181 | pgbench_accounts_pkey |       2246197248

 2017-02-05 19:46:45.575782+01 | 1486320405.57578 | pgbench_branches_pkey |            40960
 2017-02-05 19:46:45.575782+01 | 1486320405.57578 | pgbench_tellers_pkey  |           245760
 2017-02-05 19:46:45.575782+01 | 1486320405.57578 | pgbench_accounts_pkey |       2246197248

 2017-02-05 19:46:46.652053+01 | 1486320406.65205 | pgbench_branches_pkey |            40960
 2017-02-05 19:46:46.652053+01 | 1486320406.65205 | pgbench_tellers_pkey  |           245760
 2017-02-05 19:46:46.652053+01 | 1486320406.65205 | pgbench_accounts_pkey |       2246197248

 2017-02-05 19:46:47.730017+01 | 1486320407.73002 | pgbench_branches_pkey |            40960
 2017-02-05 19:46:47.730017+01 | 1486320407.73002 | pgbench_tellers_pkey  |           245760
 2017-02-05 19:46:47.730017+01 | 1486320407.73002 | pgbench_accounts_pkey |       2246197248

 2017-02-05 19:46:48.803956+01 | 1486320408.80396 | pgbench_branches_pkey |            40960
 2017-02-05 19:46:48.803956+01 | 1486320408.80396 | pgbench_tellers_pkey  |           245760
 2017-02-05 19:46:48.803956+01 | 1486320408.80396 | pgbench_accounts_pkey |       2246197248

 2017-02-05 19:46:49.88162+01 | 1486320409.88162 | pgbench_branches_pkey |            40960
 2017-02-05 19:46:49.88162+01 | 1486320409.88162 | pgbench_tellers_pkey  |           245760
 2017-02-05 19:46:49.88162+01 | 1486320409.88162 | pgbench_accounts_pkey |       2246197248

 2017-02-05 19:46:50.959513+01 | 1486320410.95951 | pgbench_branches_pkey |            40960
 2017-02-05 19:46:50.959513+01 | 1486320410.95951 | pgbench_tellers_pkey  |           245760
 2017-02-05 19:46:50.959513+01 | 1486320410.95951 | pgbench_accounts_pkey |       2246197248

 2017-02-05 19:46:52.035697+01 | 1486320412.0357 | pgbench_branches_pkey |            40960
 2017-02-05 19:46:52.035697+01 | 1486320412.0357 | pgbench_tellers_pkey  |           245760
 2017-02-05 19:46:52.035697+01 | 1486320412.0357 | pgbench_accounts_pkey |       2246197248

 2017-02-05 19:46:53.108516+01 | 1486320413.10852 | pgbench_branches_pkey |            40960
 2017-02-05 19:46:53.108516+01 | 1486320413.10852 | pgbench_tellers_pkey  |           245760
 2017-02-05 19:46:53.108516+01 | 1486320413.10852 | pgbench_accounts_pkey |       2246197248

 2017-02-05 19:46:54.184237+01 | 1486320414.18424 | pgbench_branches_pkey |            40960
 2017-02-05 19:46:54.184237+01 | 1486320414.18424 | pgbench_tellers_pkey  |           245760
 2017-02-05 19:46:54.184237+01 | 1486320414.18424 | pgbench_accounts_pkey |       2246197248

 2017-02-05 19:46:55.264119+01 | 1486320415.26412 | pgbench_branches_pkey |            40960
 2017-02-05 19:46:55.264119+01 | 1486320415.26412 | pgbench_tellers_pkey  |           245760
 2017-02-05 19:46:55.264119+01 | 1486320415.26412 | pgbench_accounts_pkey |       2246197248

 2017-02-05 19:46:56.33865+01 | 1486320416.33865 | pgbench_branches_pkey |            40960
 2017-02-05 19:46:56.33865+01 | 1486320416.33865 | pgbench_tellers_pkey  |           245760
 2017-02-05 19:46:56.33865+01 | 1486320416.33865 | pgbench_accounts_pkey |       2246197248

 2017-02-05 19:46:57.414283+01 | 1486320417.41428 | pgbench_branches_pkey |            40960
 2017-02-05 19:46:57.414283+01 | 1486320417.41428 | pgbench_tellers_pkey  |           245760
 2017-02-05 19:46:57.414283+01 | 1486320417.41428 | pgbench_accounts_pkey |       2246197248

 2017-02-05 19:46:58.491022+01 | 1486320418.49102 | pgbench_branches_pkey |            40960
 2017-02-05 19:46:58.491022+01 | 1486320418.49102 | pgbench_tellers_pkey  |           245760
 2017-02-05 19:46:58.491022+01 | 1486320418.49102 | pgbench_accounts_pkey |       2246197248

 2017-02-05 19:46:59.563399+01 | 1486320419.5634 | pgbench_branches_pkey |            40960
 2017-02-05 19:46:59.563399+01 | 1486320419.5634 | pgbench_tellers_pkey  |           245760
 2017-02-05 19:46:59.563399+01 | 1486320419.5634 | pgbench_accounts_pkey |       2246197248

 2017-02-05 19:47:00.626993+01 | 1486320420.62699 | pgbench_branches_pkey |            40960
 2017-02-05 19:47:00.626993+01 | 1486320420.62699 | pgbench_tellers_pkey  |           245760
 2017-02-05 19:47:00.626993+01 | 1486320420.62699 | pgbench_accounts_pkey |       2246197248

 2017-02-05 19:47:01.705172+01 | 1486320421.70517 | pgbench_branches_pkey |            40960
 2017-02-05 19:47:01.705172+01 | 1486320421.70517 | pgbench_tellers_pkey  |           245760
 2017-02-05 19:47:01.705172+01 | 1486320421.70517 | pgbench_accounts_pkey |       2246197248

 2017-02-05 19:47:02.783733+01 | 1486320422.78373 | pgbench_branches_pkey |            40960
 2017-02-05 19:47:02.783733+01 | 1486320422.78373 | pgbench_tellers_pkey  |           245760
 2017-02-05 19:47:02.783733+01 | 1486320422.78373 | pgbench_accounts_pkey |       2246197248

 2017-02-05 19:47:03.856375+01 | 1486320423.85637 | pgbench_branches_pkey |            40960
 2017-02-05 19:47:03.856375+01 | 1486320423.85637 | pgbench_tellers_pkey  |           245760
 2017-02-05 19:47:03.856375+01 | 1486320423.85637 | pgbench_accounts_pkey |       2246197248

 2017-02-05 19:47:04.936638+01 | 1486320424.93664 | pgbench_branches_pkey |            40960
 2017-02-05 19:47:04.936638+01 | 1486320424.93664 | pgbench_tellers_pkey  |           245760
 2017-02-05 19:47:04.936638+01 | 1486320424.93664 | pgbench_accounts_pkey |       2246197248

 2017-02-05 19:47:06.017039+01 | 1486320426.01704 | pgbench_branches_pkey |            40960
 2017-02-05 19:47:06.017039+01 | 1486320426.01704 | pgbench_tellers_pkey  |           245760
 2017-02-05 19:47:06.017039+01 | 1486320426.01704 | pgbench_accounts_pkey |       2246197248

 2017-02-05 19:47:07.094533+01 | 1486320427.09453 | pgbench_branches_pkey |            40960
 2017-02-05 19:47:07.094533+01 | 1486320427.09453 | pgbench_tellers_pkey  |           245760
 2017-02-05 19:47:07.094533+01 | 1486320427.09453 | pgbench_accounts_pkey |       2246197248

 2017-02-05 19:47:08.168631+01 | 1486320428.16863 | pgbench_branches_pkey |            40960
 2017-02-05 19:47:08.168631+01 | 1486320428.16863 | pgbench_tellers_pkey  |           245760
 2017-02-05 19:47:08.168631+01 | 1486320428.16863 | pgbench_accounts_pkey |       2246197248

 2017-02-05 19:47:09.243223+01 | 1486320429.24322 | pgbench_branches_pkey |            40960
 2017-02-05 19:47:09.243223+01 | 1486320429.24322 | pgbench_tellers_pkey  |           245760
 2017-02-05 19:47:09.243223+01 | 1486320429.24322 | pgbench_accounts_pkey |       2246197248

 2017-02-05 19:47:10.317608+01 | 1486320430.31761 | pgbench_branches_pkey |            40960
 2017-02-05 19:47:10.317608+01 | 1486320430.31761 | pgbench_tellers_pkey  |           245760
 2017-02-05 19:47:10.317608+01 | 1486320430.31761 | pgbench_accounts_pkey |       2246197248

 2017-02-05 19:47:11.394596+01 | 1486320431.3946 | pgbench_branches_pkey |            40960
 2017-02-05 19:47:11.394596+01 | 1486320431.3946 | pgbench_tellers_pkey  |           245760
 2017-02-05 19:47:11.394596+01 | 1486320431.3946 | pgbench_accounts_pkey |       2246197248

 2017-02-05 19:47:12.46849+01 | 1486320432.46849 | pgbench_branches_pkey |            40960
 2017-02-05 19:47:12.46849+01 | 1486320432.46849 | pgbench_tellers_pkey  |           245760
 2017-02-05 19:47:12.46849+01 | 1486320432.46849 | pgbench_accounts_pkey |       2246197248

 2017-02-05 19:47:13.538758+01 | 1486320433.53876 | pgbench_branches_pkey |            40960
 2017-02-05 19:47:13.538758+01 | 1486320433.53876 | pgbench_tellers_pkey  |           245760
 2017-02-05 19:47:13.538758+01 | 1486320433.53876 | pgbench_accounts_pkey |       2246197248

 2017-02-05 19:47:14.612367+01 | 1486320434.61237 | pgbench_branches_pkey |            40960
 2017-02-05 19:47:14.612367+01 | 1486320434.61237 | pgbench_tellers_pkey  |           245760
 2017-02-05 19:47:14.612367+01 | 1486320434.61237 | pgbench_accounts_pkey |       2246197248

 2017-02-05 19:47:15.6863+01 | 1486320435.6863 | pgbench_branches_pkey |            40960
 2017-02-05 19:47:15.6863+01 | 1486320435.6863 | pgbench_tellers_pkey  |           245760
 2017-02-05 19:47:15.6863+01 | 1486320435.6863 | pgbench_accounts_pkey |       2246197248

 2017-02-05 19:47:16.767213+01 | 1486320436.76721 | pgbench_branches_pkey |            40960
 2017-02-05 19:47:16.767213+01 | 1486320436.76721 | pgbench_tellers_pkey  |           245760
 2017-02-05 19:47:16.767213+01 | 1486320436.76721 | pgbench_accounts_pkey |       2246197248

 2017-02-05 19:47:17.841115+01 | 1486320437.84111 | pgbench_branches_pkey |            40960
 2017-02-05 19:47:17.841115+01 | 1486320437.84111 | pgbench_tellers_pkey  |           245760
 2017-02-05 19:47:17.841115+01 | 1486320437.84111 | pgbench_accounts_pkey |       2246197248

 2017-02-05 19:47:18.915402+01 | 1486320438.9154 | pgbench_branches_pkey |            40960
 2017-02-05 19:47:18.915402+01 | 1486320438.9154 | pgbench_tellers_pkey  |           245760
 2017-02-05 19:47:18.915402+01 | 1486320438.9154 | pgbench_accounts_pkey |       2246197248

 2017-02-05 19:47:19.989122+01 | 1486320439.98912 | pgbench_branches_pkey |            40960
 2017-02-05 19:47:19.989122+01 | 1486320439.98912 | pgbench_tellers_pkey  |           245760
 2017-02-05 19:47:19.989122+01 | 1486320439.98912 | pgbench_accounts_pkey |       2246197248

 2017-02-05 19:47:21.063959+01 | 1486320441.06396 | pgbench_branches_pkey |            40960
 2017-02-05 19:47:21.063959+01 | 1486320441.06396 | pgbench_tellers_pkey  |           245760
 2017-02-05 19:47:21.063959+01 | 1486320441.06396 | pgbench_accounts_pkey |       2246197248

 2017-02-05 19:47:22.142902+01 | 1486320442.1429 | pgbench_branches_pkey |            40960
 2017-02-05 19:47:22.142902+01 | 1486320442.1429 | pgbench_tellers_pkey  |           245760
 2017-02-05 19:47:22.142902+01 | 1486320442.1429 | pgbench_accounts_pkey |       2246197248

 2017-02-05 19:47:23.220701+01 | 1486320443.2207 | pgbench_branches_pkey |            40960
 2017-02-05 19:47:23.220701+01 | 1486320443.2207 | pgbench_tellers_pkey  |           245760
 2017-02-05 19:47:23.220701+01 | 1486320443.2207 | pgbench_accounts_pkey |       2246197248

 2017-02-05 19:47:24.293583+01 | 1486320444.29358 | pgbench_branches_pkey |            40960
 2017-02-05 19:47:24.293583+01 | 1486320444.29358 | pgbench_tellers_pkey  |           245760
 2017-02-05 19:47:24.293583+01 | 1486320444.29358 | pgbench_accounts_pkey |       2246197248

 2017-02-05 19:47:25.364962+01 | 1486320445.36496 | pgbench_branches_pkey |            40960
 2017-02-05 19:47:25.364962+01 | 1486320445.36496 | pgbench_tellers_pkey  |           245760
 2017-02-05 19:47:25.364962+01 | 1486320445.36496 | pgbench_accounts_pkey |       2246197248

 2017-02-05 19:47:26.439213+01 | 1486320446.43921 | pgbench_branches_pkey |            40960
 2017-02-05 19:47:26.439213+01 | 1486320446.43921 | pgbench_tellers_pkey  |           245760
 2017-02-05 19:47:26.439213+01 | 1486320446.43921 | pgbench_accounts_pkey |       2246197248

 2017-02-05 19:47:27.516852+01 | 1486320447.51685 | pgbench_branches_pkey |            40960
 2017-02-05 19:47:27.516852+01 | 1486320447.51685 | pgbench_tellers_pkey  |           245760
 2017-02-05 19:47:27.516852+01 | 1486320447.51685 | pgbench_accounts_pkey |       2246197248

 2017-02-05 19:47:28.596728+01 | 1486320448.59673 | pgbench_branches_pkey |            40960
 2017-02-05 19:47:28.596728+01 | 1486320448.59673 | pgbench_tellers_pkey  |           245760
 2017-02-05 19:47:28.596728+01 | 1486320448.59673 | pgbench_accounts_pkey |       2246197248

 2017-02-05 19:47:29.675044+01 | 1486320449.67504 | pgbench_branches_pkey |            40960
 2017-02-05 19:47:29.675044+01 | 1486320449.67504 | pgbench_tellers_pkey  |           245760
 2017-02-05 19:47:29.675044+01 | 1486320449.67504 | pgbench_accounts_pkey |       2246197248

 2017-02-05 19:47:30.755479+01 | 1486320450.75548 | pgbench_branches_pkey |            40960
 2017-02-05 19:47:30.755479+01 | 1486320450.75548 | pgbench_tellers_pkey  |           245760
 2017-02-05 19:47:30.755479+01 | 1486320450.75548 | pgbench_accounts_pkey |       2246197248

 2017-02-05 19:47:31.818523+01 | 1486320451.81852 | pgbench_branches_pkey |            40960
 2017-02-05 19:47:31.818523+01 | 1486320451.81852 | pgbench_tellers_pkey  |           245760
 2017-02-05 19:47:31.818523+01 | 1486320451.81852 | pgbench_accounts_pkey |       2246197248

 2017-02-05 19:47:32.890477+01 | 1486320452.89048 | pgbench_branches_pkey |            40960
 2017-02-05 19:47:32.890477+01 | 1486320452.89048 | pgbench_tellers_pkey  |           245760
 2017-02-05 19:47:32.890477+01 | 1486320452.89048 | pgbench_accounts_pkey |       2246197248

 2017-02-05 19:47:33.964225+01 | 1486320453.96423 | pgbench_branches_pkey |            40960
 2017-02-05 19:47:33.964225+01 | 1486320453.96423 | pgbench_tellers_pkey  |           245760
 2017-02-05 19:47:33.964225+01 | 1486320453.96423 | pgbench_accounts_pkey |       2246197248

 2017-02-05 19:47:35.040669+01 | 1486320455.04067 | pgbench_branches_pkey |            40960
 2017-02-05 19:47:35.040669+01 | 1486320455.04067 | pgbench_tellers_pkey  |           245760
 2017-02-05 19:47:35.040669+01 | 1486320455.04067 | pgbench_accounts_pkey |       2246197248

 2017-02-05 19:47:36.114922+01 | 1486320456.11492 | pgbench_branches_pkey |            40960
 2017-02-05 19:47:36.114922+01 | 1486320456.11492 | pgbench_tellers_pkey  |           245760
 2017-02-05 19:47:36.114922+01 | 1486320456.11492 | pgbench_accounts_pkey |       2246197248

 2017-02-05 19:47:37.192029+01 | 1486320457.19203 | pgbench_branches_pkey |            40960
 2017-02-05 19:47:37.192029+01 | 1486320457.19203 | pgbench_tellers_pkey  |           245760
 2017-02-05 19:47:37.192029+01 | 1486320457.19203 | pgbench_accounts_pkey |       2246197248

 2017-02-05 19:47:38.269133+01 | 1486320458.26913 | pgbench_branches_pkey |            40960
 2017-02-05 19:47:38.269133+01 | 1486320458.26913 | pgbench_tellers_pkey  |           245760
 2017-02-05 19:47:38.269133+01 | 1486320458.26913 | pgbench_accounts_pkey |       2246197248

 2017-02-05 19:47:39.344466+01 | 1486320459.34447 | pgbench_branches_pkey |            40960
 2017-02-05 19:47:39.344466+01 | 1486320459.34447 | pgbench_tellers_pkey  |           245760
 2017-02-05 19:47:39.344466+01 | 1486320459.34447 | pgbench_accounts_pkey |       2246197248

 2017-02-05 19:47:40.420072+01 | 1486320460.42007 | pgbench_branches_pkey |            40960
 2017-02-05 19:47:40.420072+01 | 1486320460.42007 | pgbench_tellers_pkey  |           245760
 2017-02-05 19:47:40.420072+01 | 1486320460.42007 | pgbench_accounts_pkey |       2246197248

 2017-02-05 19:47:41.492236+01 | 1486320461.49224 | pgbench_branches_pkey |            40960
 2017-02-05 19:47:41.492236+01 | 1486320461.49224 | pgbench_tellers_pkey  |           245760
 2017-02-05 19:47:41.492236+01 | 1486320461.49224 | pgbench_accounts_pkey |       2246197248

 2017-02-05 19:47:42.570815+01 | 1486320462.57082 | pgbench_branches_pkey |            40960
 2017-02-05 19:47:42.570815+01 | 1486320462.57082 | pgbench_tellers_pkey  |           245760
 2017-02-05 19:47:42.570815+01 | 1486320462.57082 | pgbench_accounts_pkey |       2246197248

 2017-02-05 19:47:43.645452+01 | 1486320463.64545 | pgbench_branches_pkey |            40960
 2017-02-05 19:47:43.645452+01 | 1486320463.64545 | pgbench_tellers_pkey  |           245760
 2017-02-05 19:47:43.645452+01 | 1486320463.64545 | pgbench_accounts_pkey |       2246197248

 2017-02-05 19:47:44.71867+01 | 1486320464.71867 | pgbench_branches_pkey |            40960
 2017-02-05 19:47:44.71867+01 | 1486320464.71867 | pgbench_tellers_pkey  |           245760
 2017-02-05 19:47:44.71867+01 | 1486320464.71867 | pgbench_accounts_pkey |       2246197248

 2017-02-05 19:47:45.792211+01 | 1486320465.79221 | pgbench_branches_pkey |            40960
 2017-02-05 19:47:45.792211+01 | 1486320465.79221 | pgbench_tellers_pkey  |           245760
 2017-02-05 19:47:45.792211+01 | 1486320465.79221 | pgbench_accounts_pkey |       2246197248

 2017-02-05 19:47:46.874368+01 | 1486320466.87437 | pgbench_branches_pkey |            40960
 2017-02-05 19:47:46.874368+01 | 1486320466.87437 | pgbench_tellers_pkey  |           245760
 2017-02-05 19:47:46.874368+01 | 1486320466.87437 | pgbench_accounts_pkey |       2246197248

 2017-02-05 19:47:47.950723+01 | 1486320467.95072 | pgbench_branches_pkey |            40960
 2017-02-05 19:47:47.950723+01 | 1486320467.95072 | pgbench_tellers_pkey  |           245760
 2017-02-05 19:47:47.950723+01 | 1486320467.95072 | pgbench_accounts_pkey |       2246197248

 2017-02-05 19:47:49.026495+01 | 1486320469.02649 | pgbench_branches_pkey |            40960
 2017-02-05 19:47:49.026495+01 | 1486320469.02649 | pgbench_tellers_pkey  |           245760
 2017-02-05 19:47:49.026495+01 | 1486320469.02649 | pgbench_accounts_pkey |       2246197248

 2017-02-05 19:47:50.09824+01 | 1486320470.09824 | pgbench_branches_pkey |            40960
 2017-02-05 19:47:50.09824+01 | 1486320470.09824 | pgbench_tellers_pkey  |           245760
 2017-02-05 19:47:50.09824+01 | 1486320470.09824 | pgbench_accounts_pkey |       2246197248

 2017-02-05 19:47:51.175558+01 | 1486320471.17556 | pgbench_branches_pkey |            40960
 2017-02-05 19:47:51.175558+01 | 1486320471.17556 | pgbench_tellers_pkey  |           245760
 2017-02-05 19:47:51.175558+01 | 1486320471.17556 | pgbench_accounts_pkey |       2246197248

 2017-02-05 19:47:52.254376+01 | 1486320472.25438 | pgbench_branches_pkey |            40960
 2017-02-05 19:47:52.254376+01 | 1486320472.25438 | pgbench_tellers_pkey  |           245760
 2017-02-05 19:47:52.254376+01 | 1486320472.25438 | pgbench_accounts_pkey |       2246197248

 2017-02-05 19:47:53.329388+01 | 1486320473.32939 | pgbench_branches_pkey |            40960
 2017-02-05 19:47:53.329388+01 | 1486320473.32939 | pgbench_tellers_pkey  |           245760
 2017-02-05 19:47:53.329388+01 | 1486320473.32939 | pgbench_accounts_pkey |       2246197248

 2017-02-05 19:47:54.403305+01 | 1486320474.40331 | pgbench_branches_pkey |            40960
 2017-02-05 19:47:54.403305+01 | 1486320474.40331 | pgbench_tellers_pkey  |           245760
 2017-02-05 19:47:54.403305+01 | 1486320474.40331 | pgbench_accounts_pkey |       2246197248

 2017-02-05 19:47:55.488943+01 | 1486320475.48894 | pgbench_branches_pkey |            40960
 2017-02-05 19:47:55.488943+01 | 1486320475.48894 | pgbench_tellers_pkey  |           245760
 2017-02-05 19:47:55.488943+01 | 1486320475.48894 | pgbench_accounts_pkey |       2246197248

 2017-02-05 19:47:56.562278+01 | 1486320476.56228 | pgbench_branches_pkey |            40960
 2017-02-05 19:47:56.562278+01 | 1486320476.56228 | pgbench_tellers_pkey  |           245760
 2017-02-05 19:47:56.562278+01 | 1486320476.56228 | pgbench_accounts_pkey |       2246197248

 2017-02-05 19:47:57.632597+01 | 1486320477.6326 | pgbench_branches_pkey |            40960
 2017-02-05 19:47:57.632597+01 | 1486320477.6326 | pgbench_tellers_pkey  |           245760
 2017-02-05 19:47:57.632597+01 | 1486320477.6326 | pgbench_accounts_pkey |       2246197248

 2017-02-05 19:47:58.708434+01 | 1486320478.70843 | pgbench_branches_pkey |            40960
 2017-02-05 19:47:58.708434+01 | 1486320478.70843 | pgbench_tellers_pkey  |           245760
 2017-02-05 19:47:58.708434+01 | 1486320478.70843 | pgbench_accounts_pkey |       2246197248

 2017-02-05 19:47:59.785021+01 | 1486320479.78502 | pgbench_branches_pkey |            40960
 2017-02-05 19:47:59.785021+01 | 1486320479.78502 | pgbench_tellers_pkey  |           245760
 2017-02-05 19:47:59.785021+01 | 1486320479.78502 | pgbench_accounts_pkey |       2246197248

 2017-02-05 19:48:00.852559+01 | 1486320480.85256 | pgbench_branches_pkey |            40960
 2017-02-05 19:48:00.852559+01 | 1486320480.85256 | pgbench_tellers_pkey  |           245760
 2017-02-05 19:48:00.852559+01 | 1486320480.85256 | pgbench_accounts_pkey |       2246197248

 2017-02-05 19:48:01.939136+01 | 1486320481.93914 | pgbench_branches_pkey |            40960
 2017-02-05 19:48:01.939136+01 | 1486320481.93914 | pgbench_tellers_pkey  |           245760
 2017-02-05 19:48:01.939136+01 | 1486320481.93914 | pgbench_accounts_pkey |       2246197248

 2017-02-05 19:48:03.01941+01 | 1486320483.01941 | pgbench_branches_pkey |            40960
 2017-02-05 19:48:03.01941+01 | 1486320483.01941 | pgbench_tellers_pkey  |           245760
 2017-02-05 19:48:03.01941+01 | 1486320483.01941 | pgbench_accounts_pkey |       2246197248

 2017-02-05 19:48:04.093992+01 | 1486320484.09399 | pgbench_branches_pkey |            40960
 2017-02-05 19:48:04.093992+01 | 1486320484.09399 | pgbench_tellers_pkey  |           245760
 2017-02-05 19:48:04.093992+01 | 1486320484.09399 | pgbench_accounts_pkey |       2246197248

