 2017-02-05 19:43:04.723145+01 | 1486320184.72315 | 30/33974B88              |          207023983496

 2017-02-05 19:43:05.806324+01 | 1486320185.80632 | 30/4400B6C8              |          207299327688

 2017-02-05 19:43:06.891604+01 | 1486320186.8916 | 30/56925C90              |          207610862736

 2017-02-05 19:43:07.967855+01 | 1486320187.96785 | 30/67CF15B0              |          207900054960

 2017-02-05 19:43:09.046999+01 | 1486320189.047 | 30/78AEA650              |          208183141968

 2017-02-05 19:43:10.13198+01 | 1486320190.13198 | 30/884DC860              |          208445229152

 2017-02-05 19:43:11.212666+01 | 1486320191.21267 | 30/9731F918              |          208695064856

 2017-02-05 19:43:12.28821+01 | 1486320192.28821 | 30/A56CE998              |          208933808536

 2017-02-05 19:43:13.370879+01 | 1486320193.37088 | 30/B21627A0              |          209146226592

 2017-02-05 19:43:14.444455+01 | 1486320194.44445 | 30/BDB41998              |          209341127064

 2017-02-05 19:43:15.520645+01 | 1486320195.52064 | 30/C82F4738              |          209516971832

 2017-02-05 19:43:16.597811+01 | 1486320196.59781 | 30/D22DE350              |          209684652880

 2017-02-05 19:43:17.686121+01 | 1486320197.68612 | 30/DB8CA410              |          209841857552

 2017-02-05 19:43:18.759738+01 | 1486320198.75974 | 30/E334E580              |          209970324864

 2017-02-05 19:43:19.83888+01 | 1486320199.83888 | 30/EB3D8670              |          210105108080

 2017-02-05 19:43:20.919707+01 | 1486320200.91971 | 30/F2F1F918              |          210234374424

 2017-02-05 19:43:21.999299+01 | 1486320201.9993 | 30/FA771C50              |          210360540240

 2017-02-05 19:43:23.081569+01 | 1486320203.08157 | 31/18525F0               |          210478900720

 2017-02-05 19:43:24.157241+01 | 1486320204.15724 | 31/886BB40               |          210596444992

 2017-02-05 19:43:25.232942+01 | 1486320205.23294 | 31/F139860               |          210706339936

 2017-02-05 19:43:26.309313+01 | 1486320206.30931 | 31/15670CB8              |          210812472504

 2017-02-05 19:43:27.385062+01 | 1486320207.38506 | 31/1B75CAE8              |          210914101992

 2017-02-05 19:43:28.46371+01 | 1486320208.46371 | 31/21339468              |          211010425960

 2017-02-05 19:43:29.542543+01 | 1486320209.54254 | 31/268CB0E0              |          211100152032

 2017-02-05 19:43:30.617721+01 | 1486320210.61772 | 31/2BB55180              |          211186700672

 2017-02-05 19:43:31.689424+01 | 1486320211.68942 | 31/30DAF650              |          211273053776

 2017-02-05 19:43:32.766887+01 | 1486320212.76689 | 31/36217C70              |          211361561712

 2017-02-05 19:43:33.843165+01 | 1486320213.84316 | 31/39F15688              |          211425515144

 2017-02-05 19:43:34.918693+01 | 1486320214.91869 | 31/3E383848              |          211497269320

 2017-02-05 19:43:36.003704+01 | 1486320216.0037 | 31/423D83F8              |          211564725240

 2017-02-05 19:43:37.074396+01 | 1486320217.0744 | 31/464D95B8              |          211632887224

 2017-02-05 19:43:38.145965+01 | 1486320218.14597 | 31/4A8EE898              |          211704277144

 2017-02-05 19:43:39.223381+01 | 1486320219.22338 | 31/4EEC61F0              |          211777511920

 2017-02-05 19:43:40.300106+01 | 1486320220.30011 | 31/5307F480              |          211846427776

 2017-02-05 19:43:41.376672+01 | 1486320221.37667 | 31/57341E68              |          211916430952

 2017-02-05 19:43:42.451959+01 | 1486320222.45196 | 31/5B2EAD88              |          211983183240

 2017-02-05 19:43:43.523709+01 | 1486320223.52371 | 31/5EE3F4C0              |          212045395136

 2017-02-05 19:43:44.598465+01 | 1486320224.59846 | 31/62BB7910              |          212109850896

 2017-02-05 19:43:45.675619+01 | 1486320225.67562 | 31/6666EE30              |          212171419184

 2017-02-05 19:43:46.748741+01 | 1486320226.74874 | 31/69EC1DD8              |          212230479320

 2017-02-05 19:43:47.824818+01 | 1486320227.82482 | 31/6D935400              |          212291769344

 2017-02-05 19:43:48.901153+01 | 1486320228.90115 | 31/7141ADB8              |          212353527224

 2017-02-05 19:43:49.977012+01 | 1486320229.97701 | 31/74986738              |          212409542456

 2017-02-05 19:43:51.050462+01 | 1486320231.05046 | 31/77A67988              |          212460796296

 2017-02-05 19:43:52.127985+01 | 1486320232.12799 | 31/7B28B340              |          212519662400

 2017-02-05 19:43:53.201777+01 | 1486320233.20178 | 31/7E723C40              |          212574813248

 2017-02-05 19:43:54.281566+01 | 1486320234.28157 | 31/81BE01F8              |          212630110712

 2017-02-05 19:43:55.355783+01 | 1486320235.35578 | 31/85067280              |          212685189760

 2017-02-05 19:43:56.430607+01 | 1486320236.43061 | 31/884EF4D8              |          212740273368

 2017-02-05 19:43:57.504366+01 | 1486320237.50437 | 31/8BBEFB28              |          212797946664

 2017-02-05 19:43:58.582461+01 | 1486320238.58246 | 31/8E94C780              |          212845512576

 2017-02-05 19:43:59.660249+01 | 1486320239.66025 | 31/91778918              |          212893927704

 2017-02-05 19:44:00.73959+01 | 1486320240.73959 | 31/945BB410              |          212942435344

 2017-02-05 19:44:01.818958+01 | 1486320241.81896 | 31/97613EF0              |          212993130224

 2017-02-05 19:44:02.893982+01 | 1486320242.89398 | 31/9A4EDE50              |          213042257488

 2017-02-05 19:44:03.970795+01 | 1486320243.97079 | 31/9D3A2090              |          213091229840

 2017-02-05 19:44:05.053689+01 | 1486320245.05369 | 31/A014BF40              |          213139111744

 2017-02-05 19:44:06.130961+01 | 1486320246.13096 | 31/A3049AB8              |          213188385464

 2017-02-05 19:44:07.209919+01 | 1486320247.20992 | 31/A5ADBB18              |          213233023768

 2017-02-05 19:44:08.290684+01 | 1486320248.29068 | 31/A8621E30              |          213278400048

 2017-02-05 19:44:09.369707+01 | 1486320249.36971 | 31/AB28B7D8              |          213324969944

 2017-02-05 19:44:10.447299+01 | 1486320250.4473 | 31/AD737DF8              |          213363424760

 2017-02-05 19:44:11.53028+01 | 1486320251.53028 | 31/B033AB30              |          213409573680

 2017-02-05 19:44:12.607907+01 | 1486320252.60791 | 31/B2CE1518              |          213453247768

 2017-02-05 19:44:13.681925+01 | 1486320253.68193 | 31/B54A2B10              |          213494934288

 2017-02-05 19:44:14.76018+01 | 1486320254.76018 | 31/B7E31790              |          213538510736

 2017-02-05 19:44:15.838891+01 | 1486320255.83889 | 31/BA7DBD10              |          213582200080

 2017-02-05 19:44:16.913962+01 | 1486320256.91396 | 31/BD023938              |          213624437048

 2017-02-05 19:44:17.989456+01 | 1486320257.98946 | 31/BF610060              |          213664202848

 2017-02-05 19:44:19.066205+01 | 1486320259.06621 | 31/C1BED198              |          213703905688

 2017-02-05 19:44:20.14392+01 | 1486320260.14392 | 31/C41852C8              |          213743325896

 2017-02-05 19:44:21.220683+01 | 1486320261.22068 | 31/C6972CA0              |          213785193632

 2017-02-05 19:44:22.299211+01 | 1486320262.29921 | 31/C8F542B8              |          213824914104

 2017-02-05 19:44:23.376004+01 | 1486320263.376 | 31/CB6077A0              |          213865494432

 2017-02-05 19:44:24.451592+01 | 1486320264.45159 | 31/CD9AD678              |          213902874232

 2017-02-05 19:44:25.531258+01 | 1486320265.53126 | 31/CFE6CB60              |          213941406560

 2017-02-05 19:44:26.611068+01 | 1486320266.61107 | 31/D241B8A0              |          213980919968

 2017-02-05 19:44:27.691607+01 | 1486320267.69161 | 31/D497B730              |          214020110128

 2017-02-05 19:44:28.768235+01 | 1486320268.76823 | 31/D6C152F0              |          214056391408

 2017-02-05 19:44:29.840451+01 | 1486320269.84045 | 31/D8F3ECC8              |          214093262024

 2017-02-05 19:44:30.914968+01 | 1486320270.91497 | 31/DB393420              |          214131356704

 2017-02-05 19:44:31.98986+01 | 1486320271.98986 | 31/DD79D828              |          214169147432

 2017-02-05 19:44:33.0642+01 | 1486320273.0642 | 31/DF62DEF0              |          214201196272

 2017-02-05 19:44:34.135871+01 | 1486320274.13587 | 31/E1977480              |          214238196864

 2017-02-05 19:44:35.217404+01 | 1486320275.2174 | 31/E3B3FEE8              |          214273621736

 2017-02-05 19:44:36.293177+01 | 1486320276.29318 | 31/E5C491B8              |          214308262328

 2017-02-05 19:44:37.373916+01 | 1486320277.37392 | 31/E7CAF050              |          214342234192

 2017-02-05 19:44:38.450553+01 | 1486320278.45055 | 31/E9D29558              |          214376289624

 2017-02-05 19:44:39.528715+01 | 1486320279.52871 | 31/EBE22738              |          214410864440

 2017-02-05 19:44:40.604676+01 | 1486320280.60468 | 31/EDEF9410              |          214445298704

 2017-02-05 19:44:41.681084+01 | 1486320281.68108 | 31/EFF7DD58              |          214479396184

 2017-02-05 19:44:42.760789+01 | 1486320282.76079 | 31/F2104858              |          214514550872

 2017-02-05 19:44:43.836282+01 | 1486320283.83628 | 31/F4029A60              |          214547208800

 2017-02-05 19:44:44.927091+01 | 1486320284.92709 | 31/F5F0D280              |          214579597952

 2017-02-05 19:44:46.009115+01 | 1486320286.00911 | 31/F7C343E8              |          214610166760

 2017-02-05 19:44:47.08539+01 | 1486320287.08539 | 31/F9BD5900              |          214643333376

 2017-02-05 19:44:48.163751+01 | 1486320288.16375 | 31/FBB78D88              |          214676508040

 2017-02-05 19:44:49.241702+01 | 1486320289.2417 | 31/FDA6BF18              |          214708961048

 2017-02-05 19:44:50.3193+01 | 1486320290.3193 | 31/FFA4BF48              |          214742384456

 2017-02-05 19:44:51.393411+01 | 1486320291.39341 | 32/1A7D970               |          214776142192

 2017-02-05 19:44:52.467285+01 | 1486320292.46728 | 32/3BA0268               |          214810886760

 2017-02-05 19:44:53.546271+01 | 1486320293.54627 | 32/5AE55F8               |          214843677632

 2017-02-05 19:44:54.618458+01 | 1486320294.61846 | 32/7B8A080               |          214877905024

 2017-02-05 19:44:55.6973+01 | 1486320295.6973 | 32/9903C20               |          214908812320

 2017-02-05 19:44:56.770171+01 | 1486320296.77017 | 32/B67BCA0               |          214939712672

 2017-02-05 19:44:57.84252+01 | 1486320297.84252 | 32/D4AD9B8               |          214971374008

 2017-02-05 19:44:58.916343+01 | 1486320298.91634 | 32/F2E5188               |          215003058568

 2017-02-05 19:44:59.995853+01 | 1486320299.99585 | 32/10DE61C0              |          215031374272

 2017-02-05 19:45:01.068317+01 | 1486320301.06832 | 32/12B387A0              |          215062120352

 2017-02-05 19:45:02.147613+01 | 1486320302.14761 | 32/1516F7E8              |          215102191592

 2017-02-05 19:45:03.219202+01 | 1486320303.2192 | 32/176D8938              |          215141419320

 2017-02-05 19:45:04.294772+01 | 1486320304.29477 | 32/195503E0              |          215173366752

 2017-02-05 19:45:05.367617+01 | 1486320305.36762 | 32/1B10C948              |          215202449736

 2017-02-05 19:45:06.445503+01 | 1486320306.4455 | 32/1CDCE4B8              |          215232603320

 2017-02-05 19:45:07.538628+01 | 1486320307.53863 | 32/1E93BF08              |          215261363976

 2017-02-05 19:45:08.620311+01 | 1486320308.62031 | 32/2062C100              |          215291707648

 2017-02-05 19:45:09.701734+01 | 1486320309.70173 | 32/222238D8              |          215321032920

 2017-02-05 19:45:10.777388+01 | 1486320310.77739 | 32/2441DC50              |          215356660816

 2017-02-05 19:45:11.856881+01 | 1486320311.85688 | 32/26D193D0              |          215399633872

 2017-02-05 19:45:12.932253+01 | 1486320312.93225 | 32/29974610              |          215446144528

 2017-02-05 19:45:14.007754+01 | 1486320314.00775 | 32/2C4D32B8              |          215491621560

 2017-02-05 19:45:15.083761+01 | 1486320315.08376 | 32/2EEE0C18              |          215535717400

 2017-02-05 19:45:16.158838+01 | 1486320316.15884 | 32/317CD8D8              |          215578630360

 2017-02-05 19:45:17.229649+01 | 1486320317.22965 | 32/33ED5300              |          215619556096

 2017-02-05 19:45:18.307555+01 | 1486320318.30755 | 32/36639E08              |          215660862984

 2017-02-05 19:45:19.383391+01 | 1486320319.38339 | 32/38DDCDD8              |          215702425048

 2017-02-05 19:45:20.460701+01 | 1486320320.4607 | 32/3B478A60              |          215742909024

 2017-02-05 19:45:21.536202+01 | 1486320321.5362 | 32/3DAE43B0              |          215783195568

 2017-02-05 19:45:22.610362+01 | 1486320322.61036 | 32/4003CB20              |          215822355232

 2017-02-05 19:45:23.688433+01 | 1486320323.68843 | 32/4261D078              |          215862071416

 2017-02-05 19:45:24.773404+01 | 1486320324.7734 | 32/44CD1380              |          215902655360

 2017-02-05 19:45:25.85572+01 | 1486320325.85572 | 32/472EA620              |          215942604320

 2017-02-05 19:45:26.933001+01 | 1486320326.933 | 32/49764A40              |          215980853824

 2017-02-05 19:45:28.005109+01 | 1486320328.00511 | 32/4BE399D8              |          216021572056

 2017-02-05 19:45:29.080272+01 | 1486320329.08027 | 32/4E7C28E8              |          216065124584

 2017-02-05 19:45:30.162391+01 | 1486320330.16239 | 32/50FF4D60              |          216107273568

 2017-02-05 19:45:31.241475+01 | 1486320331.24148 | 32/536276B8              |          216147326648

 2017-02-05 19:45:32.316631+01 | 1486320332.31663 | 32/55CA3580              |          216187680128

 2017-02-05 19:45:33.390969+01 | 1486320333.39097 | 32/57FDEA58              |          216224623192

 2017-02-05 19:45:34.472081+01 | 1486320334.47208 | 32/5A1AE348              |          216260076360

 2017-02-05 19:45:35.555066+01 | 1486320335.55507 | 32/5C640EF0              |          216298426096

 2017-02-05 19:45:36.628427+01 | 1486320336.62843 | 32/5EB68510              |          216337384720

 2017-02-05 19:45:37.706965+01 | 1486320337.70696 | 32/61028FB0              |          216375922608

 2017-02-05 19:45:38.784214+01 | 1486320338.78421 | 32/6366E388              |          216416052104

 2017-02-05 19:45:39.861258+01 | 1486320339.86126 | 32/65A83C00              |          216453889024

 2017-02-05 19:45:40.938036+01 | 1486320340.93804 | 32/67EBAED0              |          216491863760

 2017-02-05 19:45:42.016762+01 | 1486320342.01676 | 32/6A4339B0              |          216531155376

 2017-02-05 19:45:43.087552+01 | 1486320343.08755 | 32/6C792888              |          216568245888

 2017-02-05 19:45:44.160444+01 | 1486320344.16044 | 32/6EB8C8D0              |          216605968592

 2017-02-05 19:45:45.234311+01 | 1486320345.23431 | 32/70EB0990              |          216642816400

 2017-02-05 19:45:46.308362+01 | 1486320346.30836 | 32/731E68F8              |          216679737592

 2017-02-05 19:45:47.381866+01 | 1486320347.38187 | 32/7544EB48              |          216715815752

 2017-02-05 19:45:48.45965+01 | 1486320348.45965 | 32/776EF660              |          216752125536

 2017-02-05 19:45:49.534476+01 | 1486320349.53448 | 32/79810FE8              |          216786866152

 2017-02-05 19:45:50.608831+01 | 1486320350.60883 | 32/7B9B8540              |          216822154560

 2017-02-05 19:45:51.687878+01 | 1486320351.68788 | 32/7DBB71F0              |          216857801200

 2017-02-05 19:45:52.763835+01 | 1486320352.76383 | 32/7F823920              |          216887605536

 2017-02-05 19:45:53.841791+01 | 1486320353.84179 | 32/8197A520              |          216922563872

 2017-02-05 19:45:54.916109+01 | 1486320354.91611 | 32/839B3850              |          216956352592

 2017-02-05 19:45:55.988044+01 | 1486320355.98804 | 32/85983078              |          216989708408

 2017-02-05 19:45:57.063785+01 | 1486320357.06379 | 32/87878380              |          217022169984

 2017-02-05 19:45:58.141263+01 | 1486320358.14126 | 32/89650F68              |          217053466472

 2017-02-05 19:45:59.218756+01 | 1486320359.21876 | 32/8B4E5CA8              |          217085533352

 2017-02-05 19:46:00.290315+01 | 1486320360.29031 | 32/8D22D430              |          217116234800

 2017-02-05 19:46:01.370557+01 | 1486320361.37056 | 32/8ED7B3D8              |          217144865752

 2017-02-05 19:46:02.449908+01 | 1486320362.44991 | 32/9085DD10              |          217173056784

 2017-02-05 19:46:03.533466+01 | 1486320363.53347 | 32/925511A8              |          217203413416

 2017-02-05 19:46:04.614872+01 | 1486320364.61487 | 32/94261F88              |          217233891208

 2017-02-05 19:46:05.692489+01 | 1486320365.69249 | 32/95E22A10              |          217262991888

 2017-02-05 19:46:06.77108+01 | 1486320366.77108 | 32/979A3508              |          217291830536

 2017-02-05 19:46:07.850183+01 | 1486320367.85018 | 32/9919DFB0              |          217316974512

 2017-02-05 19:46:08.926553+01 | 1486320368.92655 | 32/9AB3D6F8              |          217343842040

 2017-02-05 19:46:10.013022+01 | 1486320370.01302 | 32/9C310E48              |          217368825416

 2017-02-05 19:46:11.086798+01 | 1486320371.0868 | 32/9D983040              |          217392361536

 2017-02-05 19:46:12.165627+01 | 1486320372.16563 | 32/9F0C0860              |          217416730720

 2017-02-05 19:46:13.246261+01 | 1486320373.24626 | 32/A0A19068              |          217443307624

 2017-02-05 19:46:14.321676+01 | 1486320374.32168 | 32/A2313990              |          217469499792

 2017-02-05 19:46:15.399606+01 | 1486320375.39961 | 32/A3C516C8              |          217495967432

 2017-02-05 19:46:16.475774+01 | 1486320376.47577 | 32/A5522260              |          217521988192

 2017-02-05 19:46:17.554892+01 | 1486320377.55489 | 32/A6D63490              |          217547420816

 2017-02-05 19:46:18.627428+01 | 1486320378.62743 | 32/A85C2C28              |          217572977704

 2017-02-05 19:46:19.704036+01 | 1486320379.70404 | 32/A9C531F8              |          217596637688

 2017-02-05 19:46:20.77832+01 | 1486320380.77832 | 32/AB3FAC10              |          217621441552

 2017-02-05 19:46:21.852165+01 | 1486320381.85216 | 32/ACC12A80              |          217646705280

 2017-02-05 19:46:22.925501+01 | 1486320382.9255 | 32/AE2F9F80              |          217670721408

 2017-02-05 19:46:24.000198+01 | 1486320384.0002 | 32/AFA51608              |          217695196680

 2017-02-05 19:46:25.081348+01 | 1486320385.08135 | 32/B0E4DFB0              |          217716154288

 2017-02-05 19:46:26.156974+01 | 1486320386.15697 | 32/B29B1648              |          217744873032

 2017-02-05 19:46:27.231121+01 | 1486320387.23112 | 32/B470FE18              |          217775668760

 2017-02-05 19:46:28.313088+01 | 1486320388.31309 | 32/B6500290              |          217807061648

 2017-02-05 19:46:29.387031+01 | 1486320389.38703 | 32/B8423E40              |          217839713856

 2017-02-05 19:46:30.468526+01 | 1486320390.46853 | 32/BA34E218              |          217872392728

 2017-02-05 19:46:31.544907+01 | 1486320391.54491 | 32/BC2D7748              |          217905461064

 2017-02-05 19:46:32.619537+01 | 1486320392.61954 | 32/BE106368              |          217937109864

 2017-02-05 19:46:33.692308+01 | 1486320393.69231 | 32/C00E4310              |          217970524944

 2017-02-05 19:46:34.768922+01 | 1486320394.76892 | 32/C210ABD0              |          218004237264

 2017-02-05 19:46:35.842955+01 | 1486320395.84296 | 32/C40BA040              |          218037461056

 2017-02-05 19:46:36.919778+01 | 1486320396.91978 | 32/C6170ED8              |          218071764696

 2017-02-05 19:46:37.997342+01 | 1486320397.99734 | 32/C8041980              |          218104076672

 2017-02-05 19:46:39.076116+01 | 1486320399.07612 | 32/CA0260B8              |          218137518264

 2017-02-05 19:46:40.14891+01 | 1486320400.14891 | 32/CBFA3228              |          218170536488

 2017-02-05 19:46:41.215402+01 | 1486320401.2154 | 32/CDDE68C8              |          218202269896

 2017-02-05 19:46:42.291525+01 | 1486320402.29152 | 32/CFE65E70              |          218236345968

 2017-02-05 19:46:43.370074+01 | 1486320403.37007 | 32/D1E739A8              |          218269956520

 2017-02-05 19:46:44.449511+01 | 1486320404.44951 | 32/D3EC4080              |          218303840384

 2017-02-05 19:46:45.522874+01 | 1486320405.52287 | 32/D5C625F0              |          218334897648

 2017-02-05 19:46:46.599237+01 | 1486320406.59924 | 32/D7BF5B28              |          218368006952

 2017-02-05 19:46:47.672705+01 | 1486320407.6727 | 32/D9B5BEC0              |          218400931520

 2017-02-05 19:46:48.752909+01 | 1486320408.75291 | 32/DBBAABE0              |          218434808800

 2017-02-05 19:46:49.824915+01 | 1486320409.82491 | 32/DDB71570              |          218468128112

 2017-02-05 19:46:50.903399+01 | 1486320410.9034 | 32/DF8F7D90              |          218499087760

 2017-02-05 19:46:51.986399+01 | 1486320411.9864 | 32/E18B9E50              |          218532388432

 2017-02-05 19:46:53.056131+01 | 1486320413.05613 | 32/E37FADA8              |          218565160360

 2017-02-05 19:46:54.128988+01 | 1486320414.12899 | 32/E5855DD0              |          218599087568

 2017-02-05 19:46:55.207471+01 | 1486320415.20747 | 32/E786D918              |          218632739096

 2017-02-05 19:46:56.284957+01 | 1486320416.28496 | 32/E93E2330              |          218661528368

 2017-02-05 19:46:57.362486+01 | 1486320417.36249 | 32/EAC18728              |          218686916392

 2017-02-05 19:46:58.437382+01 | 1486320418.43738 | 32/EC4096C8              |          218712020680

 2017-02-05 19:46:59.513178+01 | 1486320419.51318 | 32/ED894248              |          218733560392

 2017-02-05 19:47:00.584713+01 | 1486320420.58471 | 32/EEFE9630              |          218758026800

 2017-02-05 19:47:01.650648+01 | 1486320421.65065 | 32/F056FE90              |          218780597904

 2017-02-05 19:47:02.730699+01 | 1486320422.7307 | 32/F1BEB298              |          218804171416

 2017-02-05 19:47:03.804741+01 | 1486320423.80474 | 32/F33BDA00              |          218829150720

 2017-02-05 19:47:04.87813+01 | 1486320424.87813 | 32/F4AA1B58              |          218853153624

 2017-02-05 19:47:05.961627+01 | 1486320425.96163 | 32/F62C4228              |          218878460456

 2017-02-05 19:47:07.038588+01 | 1486320427.03859 | 32/F78B31A0              |          218901459360

 2017-02-05 19:47:08.117409+01 | 1486320428.11741 | 32/F9188FE0              |          218927501280

 2017-02-05 19:47:09.189117+01 | 1486320429.18912 | 32/FAA2D738              |          218953340728

 2017-02-05 19:47:10.265796+01 | 1486320430.2658 | 32/FC3201C8              |          218979500488

 2017-02-05 19:47:11.34108+01 | 1486320431.34108 | 32/FDCA5310              |          219006259984

 2017-02-05 19:47:12.415244+01 | 1486320432.41524 | 32/FF52C250              |          219031978576

 2017-02-05 19:47:13.487921+01 | 1486320433.48792 | 33/DD5E80                |          219057839744

 2017-02-05 19:47:14.559722+01 | 1486320434.55972 | 33/2405098               |          219081101464

 2017-02-05 19:47:15.633023+01 | 1486320435.63302 | 33/3C6B4A8               |          219106686120

 2017-02-05 19:47:16.709511+01 | 1486320436.70951 | 33/55586D8               |          219132823256

 2017-02-05 19:47:17.788099+01 | 1486320437.7881 | 33/6DA5D58               |          219158306136

 2017-02-05 19:47:18.862368+01 | 1486320438.86237 | 33/85AD4D8               |          219183502552

 2017-02-05 19:47:19.93631+01 | 1486320439.93631 | 33/99E5E88               |          219204705928

 2017-02-05 19:47:21.010887+01 | 1486320441.01089 | 33/B030228               |          219228078632

 2017-02-05 19:47:22.086484+01 | 1486320442.08648 | 33/C56CA90               |          219250346640

 2017-02-05 19:47:23.164313+01 | 1486320443.16431 | 33/DE13C20               |          219276196896

 2017-02-05 19:47:24.239998+01 | 1486320444.24 | 33/F6316F8               |          219301484280

 2017-02-05 19:47:25.314501+01 | 1486320445.3145 | 33/10E0BC38              |          219326495800

 2017-02-05 19:47:26.3879+01 | 1486320446.3879 | 33/125EB2C0              |          219351528128

 2017-02-05 19:47:27.459773+01 | 1486320447.45977 | 33/13B81008              |          219374161928

 2017-02-05 19:47:28.539865+01 | 1486320448.53987 | 33/15317088              |          219398893704

 2017-02-05 19:47:29.619287+01 | 1486320449.61929 | 33/16AB0EF8              |          219423641336

 2017-02-05 19:47:30.697785+01 | 1486320450.69778 | 33/181C2BD0              |          219447831504

 2017-02-05 19:47:31.775668+01 | 1486320451.77567 | 33/1960E970              |          219469113712

 2017-02-05 19:47:32.836058+01 | 1486320452.83606 | 33/1A6BF9F8              |          219486616056

 2017-02-05 19:47:33.913317+01 | 1486320453.91332 | 33/1B88DB38              |          219505285944

 2017-02-05 19:47:34.986827+01 | 1486320454.98683 | 33/1CB34058              |          219524841560

 2017-02-05 19:47:36.061511+01 | 1486320456.06151 | 33/1DE075A0              |          219544581536

 2017-02-05 19:47:37.136055+01 | 1486320457.13605 | 33/1F0BC8E8              |          219564198120

 2017-02-05 19:47:38.214595+01 | 1486320458.2146 | 33/20383EA0              |          219583889056

 2017-02-05 19:47:39.291313+01 | 1486320459.29131 | 33/2170FC88              |          219604384904

 2017-02-05 19:47:40.365318+01 | 1486320460.36532 | 33/2299CB20              |          219623836448

 2017-02-05 19:47:41.441132+01 | 1486320461.44113 | 33/23C68330              |          219643544368

 2017-02-05 19:47:42.515258+01 | 1486320462.51526 | 33/24F04C58              |          219663060056

 2017-02-05 19:47:43.593165+01 | 1486320463.59316 | 33/2610BEA8              |          219681963688

 2017-02-05 19:47:44.667317+01 | 1486320464.66732 | 33/27242730              |          219700012848

 2017-02-05 19:47:45.738962+01 | 1486320465.73896 | 33/2800DA80              |          219714476672

 2017-02-05 19:47:46.815964+01 | 1486320466.81596 | 33/2907D938              |          219731712312

 2017-02-05 19:47:47.896807+01 | 1486320467.89681 | 33/2A07AA00              |          219748477440

 2017-02-05 19:47:48.972071+01 | 1486320468.97207 | 33/2B04E158              |          219765072216

 2017-02-05 19:47:50.046471+01 | 1486320470.04647 | 33/2C058950              |          219781892432

 2017-02-05 19:47:51.121789+01 | 1486320471.12179 | 33/2CD711A0              |          219795624352

 2017-02-05 19:47:52.197359+01 | 1486320472.19736 | 33/2DD3B6B8              |          219812181688

 2017-02-05 19:47:53.277194+01 | 1486320473.27719 | 33/2EEE5588              |          219830703496

 2017-02-05 19:47:54.350471+01 | 1486320474.35047 | 33/301C97E8              |          219850512360

 2017-02-05 19:47:55.430059+01 | 1486320475.43006 | 33/31488818              |          219870169112

 2017-02-05 19:47:56.511059+01 | 1486320476.51106 | 33/32768AA8              |          219889961640

 2017-02-05 19:47:57.583021+01 | 1486320477.58302 | 33/33A7C270              |          219909964400

 2017-02-05 19:47:58.653481+01 | 1486320478.65348 | 33/34D552C8              |          219929727688

 2017-02-05 19:47:59.730816+01 | 1486320479.73082 | 33/36060340              |          219949695808

 2017-02-05 19:48:00.804863+01 | 1486320480.80486 | 33/3723B770              |          219968419696

 2017-02-05 19:48:01.874423+01 | 1486320481.87442 | 33/381B8B28              |          219984661288

 2017-02-05 19:48:02.965571+01 | 1486320482.96557 | 33/393E0E08              |          220003700232

 2017-02-05 19:48:04.043421+01 | 1486320484.04342 | 33/3A785D10              |          220024298768

