 2017-02-04 08:13:48.987346+01 | 1486192428.98735 | pgbench_branches_pkey |          1826816
 2017-02-04 08:13:48.987346+01 | 1486192428.98735 | pgbench_tellers_pkey  |          7118848
 2017-02-04 08:13:48.987346+01 | 1486192428.98735 | pgbench_accounts_pkey |       2246197248

 2017-02-04 08:13:50.084865+01 | 1486192430.08487 | pgbench_branches_pkey |          1826816
 2017-02-04 08:13:50.084865+01 | 1486192430.08487 | pgbench_tellers_pkey  |          7118848
 2017-02-04 08:13:50.084865+01 | 1486192430.08487 | pgbench_accounts_pkey |       2246197248

 2017-02-04 08:13:51.179075+01 | 1486192431.17908 | pgbench_branches_pkey |          1826816
 2017-02-04 08:13:51.179075+01 | 1486192431.17908 | pgbench_tellers_pkey  |          7118848
 2017-02-04 08:13:51.179075+01 | 1486192431.17908 | pgbench_accounts_pkey |       2246197248

 2017-02-04 08:13:52.246015+01 | 1486192432.24602 | pgbench_branches_pkey |          1826816
 2017-02-04 08:13:52.246015+01 | 1486192432.24602 | pgbench_tellers_pkey  |          7118848
 2017-02-04 08:13:52.246015+01 | 1486192432.24602 | pgbench_accounts_pkey |       2246197248

 2017-02-04 08:13:53.339915+01 | 1486192433.33992 | pgbench_branches_pkey |          1826816
 2017-02-04 08:13:53.339915+01 | 1486192433.33992 | pgbench_tellers_pkey  |          7118848
 2017-02-04 08:13:53.339915+01 | 1486192433.33992 | pgbench_accounts_pkey |       2246197248

 2017-02-04 08:13:54.43403+01 | 1486192434.43403 | pgbench_branches_pkey |          1826816
 2017-02-04 08:13:54.43403+01 | 1486192434.43403 | pgbench_tellers_pkey  |          7118848
 2017-02-04 08:13:54.43403+01 | 1486192434.43403 | pgbench_accounts_pkey |       2246197248

 2017-02-04 08:13:55.517435+01 | 1486192435.51744 | pgbench_branches_pkey |          1826816
 2017-02-04 08:13:55.517435+01 | 1486192435.51744 | pgbench_tellers_pkey  |          7118848
 2017-02-04 08:13:55.517435+01 | 1486192435.51744 | pgbench_accounts_pkey |       2246197248

 2017-02-04 08:13:56.611449+01 | 1486192436.61145 | pgbench_branches_pkey |          1826816
 2017-02-04 08:13:56.611449+01 | 1486192436.61145 | pgbench_tellers_pkey  |          7118848
 2017-02-04 08:13:56.611449+01 | 1486192436.61145 | pgbench_accounts_pkey |       2246197248

 2017-02-04 08:13:57.692486+01 | 1486192437.69249 | pgbench_branches_pkey |          1826816
 2017-02-04 08:13:57.692486+01 | 1486192437.69249 | pgbench_tellers_pkey  |          7118848
 2017-02-04 08:13:57.692486+01 | 1486192437.69249 | pgbench_accounts_pkey |       2246197248

 2017-02-04 08:13:58.789016+01 | 1486192438.78902 | pgbench_branches_pkey |          1826816
 2017-02-04 08:13:58.789016+01 | 1486192438.78902 | pgbench_tellers_pkey  |          7118848
 2017-02-04 08:13:58.789016+01 | 1486192438.78902 | pgbench_accounts_pkey |       2246197248

 2017-02-04 08:13:59.873661+01 | 1486192439.87366 | pgbench_branches_pkey |          1826816
 2017-02-04 08:13:59.873661+01 | 1486192439.87366 | pgbench_tellers_pkey  |          7118848
 2017-02-04 08:13:59.873661+01 | 1486192439.87366 | pgbench_accounts_pkey |       2246197248

 2017-02-04 08:14:00.95881+01 | 1486192440.95881 | pgbench_branches_pkey |          1826816
 2017-02-04 08:14:00.95881+01 | 1486192440.95881 | pgbench_tellers_pkey  |          7118848
 2017-02-04 08:14:00.95881+01 | 1486192440.95881 | pgbench_accounts_pkey |       2246197248

 2017-02-04 08:14:02.042668+01 | 1486192442.04267 | pgbench_branches_pkey |          1826816
 2017-02-04 08:14:02.042668+01 | 1486192442.04267 | pgbench_tellers_pkey  |          7118848
 2017-02-04 08:14:02.042668+01 | 1486192442.04267 | pgbench_accounts_pkey |       2246197248

 2017-02-04 08:14:03.126776+01 | 1486192443.12678 | pgbench_branches_pkey |          1826816
 2017-02-04 08:14:03.126776+01 | 1486192443.12678 | pgbench_tellers_pkey  |          7118848
 2017-02-04 08:14:03.126776+01 | 1486192443.12678 | pgbench_accounts_pkey |       2246197248

 2017-02-04 08:14:04.216239+01 | 1486192444.21624 | pgbench_branches_pkey |          1826816
 2017-02-04 08:14:04.216239+01 | 1486192444.21624 | pgbench_tellers_pkey  |          7118848
 2017-02-04 08:14:04.216239+01 | 1486192444.21624 | pgbench_accounts_pkey |       2246197248

 2017-02-04 08:14:05.304692+01 | 1486192445.30469 | pgbench_branches_pkey |          1826816
 2017-02-04 08:14:05.304692+01 | 1486192445.30469 | pgbench_tellers_pkey  |          7118848
 2017-02-04 08:14:05.304692+01 | 1486192445.30469 | pgbench_accounts_pkey |       2246197248

 2017-02-04 08:14:06.400086+01 | 1486192446.40009 | pgbench_branches_pkey |          1826816
 2017-02-04 08:14:06.400086+01 | 1486192446.40009 | pgbench_tellers_pkey  |          7118848
 2017-02-04 08:14:06.400086+01 | 1486192446.40009 | pgbench_accounts_pkey |       2246197248

 2017-02-04 08:14:07.485126+01 | 1486192447.48513 | pgbench_branches_pkey |          1826816
 2017-02-04 08:14:07.485126+01 | 1486192447.48513 | pgbench_tellers_pkey  |          7118848
 2017-02-04 08:14:07.485126+01 | 1486192447.48513 | pgbench_accounts_pkey |       2246197248

 2017-02-04 08:14:08.574466+01 | 1486192448.57447 | pgbench_branches_pkey |          1826816
 2017-02-04 08:14:08.574466+01 | 1486192448.57447 | pgbench_tellers_pkey  |          7118848
 2017-02-04 08:14:08.574466+01 | 1486192448.57447 | pgbench_accounts_pkey |       2246197248

 2017-02-04 08:14:09.664997+01 | 1486192449.665 | pgbench_branches_pkey |          1826816
 2017-02-04 08:14:09.664997+01 | 1486192449.665 | pgbench_tellers_pkey  |          7118848
 2017-02-04 08:14:09.664997+01 | 1486192449.665 | pgbench_accounts_pkey |       2246197248

 2017-02-04 08:14:10.743007+01 | 1486192450.74301 | pgbench_branches_pkey |          1826816
 2017-02-04 08:14:10.743007+01 | 1486192450.74301 | pgbench_tellers_pkey  |          7118848
 2017-02-04 08:14:10.743007+01 | 1486192450.74301 | pgbench_accounts_pkey |       2246197248

 2017-02-04 08:14:11.819082+01 | 1486192451.81908 | pgbench_branches_pkey |          1826816
 2017-02-04 08:14:11.819082+01 | 1486192451.81908 | pgbench_tellers_pkey  |          7118848
 2017-02-04 08:14:11.819082+01 | 1486192451.81908 | pgbench_accounts_pkey |       2246197248

 2017-02-04 08:14:12.9056+01 | 1486192452.9056 | pgbench_branches_pkey |          1826816
 2017-02-04 08:14:12.9056+01 | 1486192452.9056 | pgbench_tellers_pkey  |          7118848
 2017-02-04 08:14:12.9056+01 | 1486192452.9056 | pgbench_accounts_pkey |       2246197248

 2017-02-04 08:14:13.991169+01 | 1486192453.99117 | pgbench_branches_pkey |          1826816
 2017-02-04 08:14:13.991169+01 | 1486192453.99117 | pgbench_tellers_pkey  |          7118848
 2017-02-04 08:14:13.991169+01 | 1486192453.99117 | pgbench_accounts_pkey |       2246197248

 2017-02-04 08:14:15.078839+01 | 1486192455.07884 | pgbench_branches_pkey |          1826816
 2017-02-04 08:14:15.078839+01 | 1486192455.07884 | pgbench_tellers_pkey  |          7118848
 2017-02-04 08:14:15.078839+01 | 1486192455.07884 | pgbench_accounts_pkey |       2246197248

 2017-02-04 08:14:16.166195+01 | 1486192456.16619 | pgbench_branches_pkey |          1826816
 2017-02-04 08:14:16.166195+01 | 1486192456.16619 | pgbench_tellers_pkey  |          7118848
 2017-02-04 08:14:16.166195+01 | 1486192456.16619 | pgbench_accounts_pkey |       2246197248

 2017-02-04 08:14:17.262016+01 | 1486192457.26202 | pgbench_branches_pkey |          1826816
 2017-02-04 08:14:17.262016+01 | 1486192457.26202 | pgbench_tellers_pkey  |          7118848
 2017-02-04 08:14:17.262016+01 | 1486192457.26202 | pgbench_accounts_pkey |       2246197248

 2017-02-04 08:14:18.350148+01 | 1486192458.35015 | pgbench_branches_pkey |          1826816
 2017-02-04 08:14:18.350148+01 | 1486192458.35015 | pgbench_tellers_pkey  |          7118848
 2017-02-04 08:14:18.350148+01 | 1486192458.35015 | pgbench_accounts_pkey |       2246197248

 2017-02-04 08:14:19.444881+01 | 1486192459.44488 | pgbench_branches_pkey |          1826816
 2017-02-04 08:14:19.444881+01 | 1486192459.44488 | pgbench_tellers_pkey  |          7118848
 2017-02-04 08:14:19.444881+01 | 1486192459.44488 | pgbench_accounts_pkey |       2246197248

 2017-02-04 08:14:20.546332+01 | 1486192460.54633 | pgbench_branches_pkey |          1826816
 2017-02-04 08:14:20.546332+01 | 1486192460.54633 | pgbench_tellers_pkey  |          7118848
 2017-02-04 08:14:20.546332+01 | 1486192460.54633 | pgbench_accounts_pkey |       2246197248

 2017-02-04 08:14:21.629999+01 | 1486192461.63 | pgbench_branches_pkey |          1826816
 2017-02-04 08:14:21.629999+01 | 1486192461.63 | pgbench_tellers_pkey  |          7118848
 2017-02-04 08:14:21.629999+01 | 1486192461.63 | pgbench_accounts_pkey |       2246197248

 2017-02-04 08:14:22.697151+01 | 1486192462.69715 | pgbench_branches_pkey |          1826816
 2017-02-04 08:14:22.697151+01 | 1486192462.69715 | pgbench_tellers_pkey  |          7118848
 2017-02-04 08:14:22.697151+01 | 1486192462.69715 | pgbench_accounts_pkey |       2246197248

 2017-02-04 08:14:23.802706+01 | 1486192463.80271 | pgbench_branches_pkey |          1826816
 2017-02-04 08:14:23.802706+01 | 1486192463.80271 | pgbench_tellers_pkey  |          7118848
 2017-02-04 08:14:23.802706+01 | 1486192463.80271 | pgbench_accounts_pkey |       2246197248

 2017-02-04 08:14:24.898891+01 | 1486192464.89889 | pgbench_branches_pkey |          1826816
 2017-02-04 08:14:24.898891+01 | 1486192464.89889 | pgbench_tellers_pkey  |          7118848
 2017-02-04 08:14:24.898891+01 | 1486192464.89889 | pgbench_accounts_pkey |       2246197248

 2017-02-04 08:14:25.991065+01 | 1486192465.99107 | pgbench_branches_pkey |          1826816
 2017-02-04 08:14:25.991065+01 | 1486192465.99107 | pgbench_tellers_pkey  |          7118848
 2017-02-04 08:14:25.991065+01 | 1486192465.99107 | pgbench_accounts_pkey |       2246197248

 2017-02-04 08:14:27.071891+01 | 1486192467.07189 | pgbench_branches_pkey |          1826816
 2017-02-04 08:14:27.071891+01 | 1486192467.07189 | pgbench_tellers_pkey  |          7118848
 2017-02-04 08:14:27.071891+01 | 1486192467.07189 | pgbench_accounts_pkey |       2246197248

 2017-02-04 08:14:28.177348+01 | 1486192468.17735 | pgbench_branches_pkey |          1826816
 2017-02-04 08:14:28.177348+01 | 1486192468.17735 | pgbench_tellers_pkey  |          7118848
 2017-02-04 08:14:28.177348+01 | 1486192468.17735 | pgbench_accounts_pkey |       2246197248

 2017-02-04 08:14:29.253137+01 | 1486192469.25314 | pgbench_branches_pkey |          1826816
 2017-02-04 08:14:29.253137+01 | 1486192469.25314 | pgbench_tellers_pkey  |          7118848
 2017-02-04 08:14:29.253137+01 | 1486192469.25314 | pgbench_accounts_pkey |       2246197248

 2017-02-04 08:14:30.317308+01 | 1486192470.31731 | pgbench_branches_pkey |          1826816
 2017-02-04 08:14:30.317308+01 | 1486192470.31731 | pgbench_tellers_pkey  |          7118848
 2017-02-04 08:14:30.317308+01 | 1486192470.31731 | pgbench_accounts_pkey |       2246197248

 2017-02-04 08:14:31.388275+01 | 1486192471.38827 | pgbench_branches_pkey |          1826816
 2017-02-04 08:14:31.388275+01 | 1486192471.38827 | pgbench_tellers_pkey  |          7118848
 2017-02-04 08:14:31.388275+01 | 1486192471.38827 | pgbench_accounts_pkey |       2246197248

 2017-02-04 08:14:32.474601+01 | 1486192472.4746 | pgbench_branches_pkey |          1826816
 2017-02-04 08:14:32.474601+01 | 1486192472.4746 | pgbench_tellers_pkey  |          7118848
 2017-02-04 08:14:32.474601+01 | 1486192472.4746 | pgbench_accounts_pkey |       2246197248

 2017-02-04 08:14:33.566107+01 | 1486192473.56611 | pgbench_branches_pkey |          1826816
 2017-02-04 08:14:33.566107+01 | 1486192473.56611 | pgbench_tellers_pkey  |          7118848
 2017-02-04 08:14:33.566107+01 | 1486192473.56611 | pgbench_accounts_pkey |       2246197248

 2017-02-04 08:14:34.659428+01 | 1486192474.65943 | pgbench_branches_pkey |          1826816
 2017-02-04 08:14:34.659428+01 | 1486192474.65943 | pgbench_tellers_pkey  |          7118848
 2017-02-04 08:14:34.659428+01 | 1486192474.65943 | pgbench_accounts_pkey |       2246197248

 2017-02-04 08:14:35.749699+01 | 1486192475.7497 | pgbench_branches_pkey |          1826816
 2017-02-04 08:14:35.749699+01 | 1486192475.7497 | pgbench_tellers_pkey  |          7118848
 2017-02-04 08:14:35.749699+01 | 1486192475.7497 | pgbench_accounts_pkey |       2246197248

 2017-02-04 08:14:36.819549+01 | 1486192476.81955 | pgbench_branches_pkey |          1826816
 2017-02-04 08:14:36.819549+01 | 1486192476.81955 | pgbench_tellers_pkey  |          7118848
 2017-02-04 08:14:36.819549+01 | 1486192476.81955 | pgbench_accounts_pkey |       2246197248

 2017-02-04 08:14:37.901022+01 | 1486192477.90102 | pgbench_branches_pkey |          1826816
 2017-02-04 08:14:37.901022+01 | 1486192477.90102 | pgbench_tellers_pkey  |          7118848
 2017-02-04 08:14:37.901022+01 | 1486192477.90102 | pgbench_accounts_pkey |       2246197248

 2017-02-04 08:14:38.981703+01 | 1486192478.9817 | pgbench_branches_pkey |          1826816
 2017-02-04 08:14:38.981703+01 | 1486192478.9817 | pgbench_tellers_pkey  |          7118848
 2017-02-04 08:14:38.981703+01 | 1486192478.9817 | pgbench_accounts_pkey |       2246197248

 2017-02-04 08:14:40.067166+01 | 1486192480.06717 | pgbench_branches_pkey |          1826816
 2017-02-04 08:14:40.067166+01 | 1486192480.06717 | pgbench_tellers_pkey  |          7118848
 2017-02-04 08:14:40.067166+01 | 1486192480.06717 | pgbench_accounts_pkey |       2246197248

 2017-02-04 08:14:41.157247+01 | 1486192481.15725 | pgbench_branches_pkey |          1826816
 2017-02-04 08:14:41.157247+01 | 1486192481.15725 | pgbench_tellers_pkey  |          7118848
 2017-02-04 08:14:41.157247+01 | 1486192481.15725 | pgbench_accounts_pkey |       2246197248

 2017-02-04 08:14:42.249448+01 | 1486192482.24945 | pgbench_branches_pkey |          1826816
 2017-02-04 08:14:42.249448+01 | 1486192482.24945 | pgbench_tellers_pkey  |          7118848
 2017-02-04 08:14:42.249448+01 | 1486192482.24945 | pgbench_accounts_pkey |       2246197248

 2017-02-04 08:14:43.341064+01 | 1486192483.34106 | pgbench_branches_pkey |          1826816
 2017-02-04 08:14:43.341064+01 | 1486192483.34106 | pgbench_tellers_pkey  |          7118848
 2017-02-04 08:14:43.341064+01 | 1486192483.34106 | pgbench_accounts_pkey |       2246197248

 2017-02-04 08:14:44.430681+01 | 1486192484.43068 | pgbench_branches_pkey |          1826816
 2017-02-04 08:14:44.430681+01 | 1486192484.43068 | pgbench_tellers_pkey  |          7118848
 2017-02-04 08:14:44.430681+01 | 1486192484.43068 | pgbench_accounts_pkey |       2246197248

 2017-02-04 08:14:45.518437+01 | 1486192485.51844 | pgbench_branches_pkey |          1826816
 2017-02-04 08:14:45.518437+01 | 1486192485.51844 | pgbench_tellers_pkey  |          7118848
 2017-02-04 08:14:45.518437+01 | 1486192485.51844 | pgbench_accounts_pkey |       2246197248

 2017-02-04 08:14:46.604658+01 | 1486192486.60466 | pgbench_branches_pkey |          1826816
 2017-02-04 08:14:46.604658+01 | 1486192486.60466 | pgbench_tellers_pkey  |          7118848
 2017-02-04 08:14:46.604658+01 | 1486192486.60466 | pgbench_accounts_pkey |       2246197248

 2017-02-04 08:14:47.691365+01 | 1486192487.69137 | pgbench_branches_pkey |          1826816
 2017-02-04 08:14:47.691365+01 | 1486192487.69137 | pgbench_tellers_pkey  |          7118848
 2017-02-04 08:14:47.691365+01 | 1486192487.69137 | pgbench_accounts_pkey |       2246197248

 2017-02-04 08:14:48.782247+01 | 1486192488.78225 | pgbench_branches_pkey |          1826816
 2017-02-04 08:14:48.782247+01 | 1486192488.78225 | pgbench_tellers_pkey  |          7118848
 2017-02-04 08:14:48.782247+01 | 1486192488.78225 | pgbench_accounts_pkey |       2246197248

 2017-02-04 08:14:49.884865+01 | 1486192489.88487 | pgbench_branches_pkey |          1826816
 2017-02-04 08:14:49.884865+01 | 1486192489.88487 | pgbench_tellers_pkey  |          7118848
 2017-02-04 08:14:49.884865+01 | 1486192489.88487 | pgbench_accounts_pkey |       2246197248

 2017-02-04 08:14:50.96855+01 | 1486192490.96855 | pgbench_branches_pkey |          1826816
 2017-02-04 08:14:50.96855+01 | 1486192490.96855 | pgbench_tellers_pkey  |          7118848
 2017-02-04 08:14:50.96855+01 | 1486192490.96855 | pgbench_accounts_pkey |       2246197248

 2017-02-04 08:14:52.048991+01 | 1486192492.04899 | pgbench_branches_pkey |          1826816
 2017-02-04 08:14:52.048991+01 | 1486192492.04899 | pgbench_tellers_pkey  |          7118848
 2017-02-04 08:14:52.048991+01 | 1486192492.04899 | pgbench_accounts_pkey |       2246197248

 2017-02-04 08:14:53.130859+01 | 1486192493.13086 | pgbench_branches_pkey |          1826816
 2017-02-04 08:14:53.130859+01 | 1486192493.13086 | pgbench_tellers_pkey  |          7118848
 2017-02-04 08:14:53.130859+01 | 1486192493.13086 | pgbench_accounts_pkey |       2246197248

 2017-02-04 08:14:54.202316+01 | 1486192494.20232 | pgbench_branches_pkey |          1826816
 2017-02-04 08:14:54.202316+01 | 1486192494.20232 | pgbench_tellers_pkey  |          7118848
 2017-02-04 08:14:54.202316+01 | 1486192494.20232 | pgbench_accounts_pkey |       2246197248

 2017-02-04 08:14:55.274749+01 | 1486192495.27475 | pgbench_branches_pkey |          1826816
 2017-02-04 08:14:55.274749+01 | 1486192495.27475 | pgbench_tellers_pkey  |          7118848
 2017-02-04 08:14:55.274749+01 | 1486192495.27475 | pgbench_accounts_pkey |       2246197248

 2017-02-04 08:14:56.347555+01 | 1486192496.34755 | pgbench_branches_pkey |          1826816
 2017-02-04 08:14:56.347555+01 | 1486192496.34755 | pgbench_tellers_pkey  |          7118848
 2017-02-04 08:14:56.347555+01 | 1486192496.34755 | pgbench_accounts_pkey |       2246197248

 2017-02-04 08:14:57.440086+01 | 1486192497.44009 | pgbench_branches_pkey |          1826816
 2017-02-04 08:14:57.440086+01 | 1486192497.44009 | pgbench_tellers_pkey  |          7118848
 2017-02-04 08:14:57.440086+01 | 1486192497.44009 | pgbench_accounts_pkey |       2246197248

 2017-02-04 08:14:58.541859+01 | 1486192498.54186 | pgbench_branches_pkey |          1826816
 2017-02-04 08:14:58.541859+01 | 1486192498.54186 | pgbench_tellers_pkey  |          7118848
 2017-02-04 08:14:58.541859+01 | 1486192498.54186 | pgbench_accounts_pkey |       2246197248

 2017-02-04 08:14:59.640658+01 | 1486192499.64066 | pgbench_branches_pkey |          1826816
 2017-02-04 08:14:59.640658+01 | 1486192499.64066 | pgbench_tellers_pkey  |          7118848
 2017-02-04 08:14:59.640658+01 | 1486192499.64066 | pgbench_accounts_pkey |       2246197248

 2017-02-04 08:15:00.735953+01 | 1486192500.73595 | pgbench_branches_pkey |          1826816
 2017-02-04 08:15:00.735953+01 | 1486192500.73595 | pgbench_tellers_pkey  |          7118848
 2017-02-04 08:15:00.735953+01 | 1486192500.73595 | pgbench_accounts_pkey |       2246197248

 2017-02-04 08:15:01.829641+01 | 1486192501.82964 | pgbench_branches_pkey |          1826816
 2017-02-04 08:15:01.829641+01 | 1486192501.82964 | pgbench_tellers_pkey  |          7118848
 2017-02-04 08:15:01.829641+01 | 1486192501.82964 | pgbench_accounts_pkey |       2246197248

 2017-02-04 08:15:02.909944+01 | 1486192502.90994 | pgbench_branches_pkey |          1826816
 2017-02-04 08:15:02.909944+01 | 1486192502.90994 | pgbench_tellers_pkey  |          7118848
 2017-02-04 08:15:02.909944+01 | 1486192502.90994 | pgbench_accounts_pkey |       2246197248

 2017-02-04 08:15:03.984146+01 | 1486192503.98415 | pgbench_branches_pkey |          1826816
 2017-02-04 08:15:03.984146+01 | 1486192503.98415 | pgbench_tellers_pkey  |          7118848
 2017-02-04 08:15:03.984146+01 | 1486192503.98415 | pgbench_accounts_pkey |       2246197248

 2017-02-04 08:15:05.058268+01 | 1486192505.05827 | pgbench_branches_pkey |          1826816
 2017-02-04 08:15:05.058268+01 | 1486192505.05827 | pgbench_tellers_pkey  |          7118848
 2017-02-04 08:15:05.058268+01 | 1486192505.05827 | pgbench_accounts_pkey |       2246197248

 2017-02-04 08:15:06.124599+01 | 1486192506.1246 | pgbench_branches_pkey |          1826816
 2017-02-04 08:15:06.124599+01 | 1486192506.1246 | pgbench_tellers_pkey  |          7118848
 2017-02-04 08:15:06.124599+01 | 1486192506.1246 | pgbench_accounts_pkey |       2246197248

 2017-02-04 08:15:07.196086+01 | 1486192507.19609 | pgbench_branches_pkey |          1826816
 2017-02-04 08:15:07.196086+01 | 1486192507.19609 | pgbench_tellers_pkey  |          7118848
 2017-02-04 08:15:07.196086+01 | 1486192507.19609 | pgbench_accounts_pkey |       2246197248

 2017-02-04 08:15:08.270226+01 | 1486192508.27023 | pgbench_branches_pkey |          1826816
 2017-02-04 08:15:08.270226+01 | 1486192508.27023 | pgbench_tellers_pkey  |          7118848
 2017-02-04 08:15:08.270226+01 | 1486192508.27023 | pgbench_accounts_pkey |       2246197248

 2017-02-04 08:15:09.355412+01 | 1486192509.35541 | pgbench_branches_pkey |          1826816
 2017-02-04 08:15:09.355412+01 | 1486192509.35541 | pgbench_tellers_pkey  |          7118848
 2017-02-04 08:15:09.355412+01 | 1486192509.35541 | pgbench_accounts_pkey |       2246197248

 2017-02-04 08:15:10.450883+01 | 1486192510.45088 | pgbench_branches_pkey |          1826816
 2017-02-04 08:15:10.450883+01 | 1486192510.45088 | pgbench_tellers_pkey  |          7118848
 2017-02-04 08:15:10.450883+01 | 1486192510.45088 | pgbench_accounts_pkey |       2246197248

 2017-02-04 08:15:11.550189+01 | 1486192511.55019 | pgbench_branches_pkey |          1826816
 2017-02-04 08:15:11.550189+01 | 1486192511.55019 | pgbench_tellers_pkey  |          7118848
 2017-02-04 08:15:11.550189+01 | 1486192511.55019 | pgbench_accounts_pkey |       2246197248

 2017-02-04 08:15:12.646683+01 | 1486192512.64668 | pgbench_branches_pkey |          1826816
 2017-02-04 08:15:12.646683+01 | 1486192512.64668 | pgbench_tellers_pkey  |          7118848
 2017-02-04 08:15:12.646683+01 | 1486192512.64668 | pgbench_accounts_pkey |       2246197248

 2017-02-04 08:15:13.743558+01 | 1486192513.74356 | pgbench_branches_pkey |          1826816
 2017-02-04 08:15:13.743558+01 | 1486192513.74356 | pgbench_tellers_pkey  |          7118848
 2017-02-04 08:15:13.743558+01 | 1486192513.74356 | pgbench_accounts_pkey |       2246197248

 2017-02-04 08:15:14.841921+01 | 1486192514.84192 | pgbench_branches_pkey |          1826816
 2017-02-04 08:15:14.841921+01 | 1486192514.84192 | pgbench_tellers_pkey  |          7118848
 2017-02-04 08:15:14.841921+01 | 1486192514.84192 | pgbench_accounts_pkey |       2246197248

 2017-02-04 08:15:15.934064+01 | 1486192515.93406 | pgbench_branches_pkey |          1826816
 2017-02-04 08:15:15.934064+01 | 1486192515.93406 | pgbench_tellers_pkey  |          7118848
 2017-02-04 08:15:15.934064+01 | 1486192515.93406 | pgbench_accounts_pkey |       2246197248

 2017-02-04 08:15:17.022773+01 | 1486192517.02277 | pgbench_branches_pkey |          1826816
 2017-02-04 08:15:17.022773+01 | 1486192517.02277 | pgbench_tellers_pkey  |          7118848
 2017-02-04 08:15:17.022773+01 | 1486192517.02277 | pgbench_accounts_pkey |       2246197248

 2017-02-04 08:15:18.107066+01 | 1486192518.10707 | pgbench_branches_pkey |          1826816
 2017-02-04 08:15:18.107066+01 | 1486192518.10707 | pgbench_tellers_pkey  |          7118848
 2017-02-04 08:15:18.107066+01 | 1486192518.10707 | pgbench_accounts_pkey |       2246197248

 2017-02-04 08:15:19.190459+01 | 1486192519.19046 | pgbench_branches_pkey |          1826816
 2017-02-04 08:15:19.190459+01 | 1486192519.19046 | pgbench_tellers_pkey  |          7118848
 2017-02-04 08:15:19.190459+01 | 1486192519.19046 | pgbench_accounts_pkey |       2246197248

 2017-02-04 08:15:20.272031+01 | 1486192520.27203 | pgbench_branches_pkey |          1826816
 2017-02-04 08:15:20.272031+01 | 1486192520.27203 | pgbench_tellers_pkey  |          7118848
 2017-02-04 08:15:20.272031+01 | 1486192520.27203 | pgbench_accounts_pkey |       2246197248

 2017-02-04 08:15:21.360548+01 | 1486192521.36055 | pgbench_branches_pkey |          1826816
 2017-02-04 08:15:21.360548+01 | 1486192521.36055 | pgbench_tellers_pkey  |          7118848
 2017-02-04 08:15:21.360548+01 | 1486192521.36055 | pgbench_accounts_pkey |       2246197248

 2017-02-04 08:15:22.450669+01 | 1486192522.45067 | pgbench_branches_pkey |          1826816
 2017-02-04 08:15:22.450669+01 | 1486192522.45067 | pgbench_tellers_pkey  |          7118848
 2017-02-04 08:15:22.450669+01 | 1486192522.45067 | pgbench_accounts_pkey |       2246197248

 2017-02-04 08:15:23.546445+01 | 1486192523.54644 | pgbench_branches_pkey |          1826816
 2017-02-04 08:15:23.546445+01 | 1486192523.54644 | pgbench_tellers_pkey  |          7118848
 2017-02-04 08:15:23.546445+01 | 1486192523.54644 | pgbench_accounts_pkey |       2246197248

 2017-02-04 08:15:24.645165+01 | 1486192524.64516 | pgbench_branches_pkey |          1826816
 2017-02-04 08:15:24.645165+01 | 1486192524.64516 | pgbench_tellers_pkey  |          7118848
 2017-02-04 08:15:24.645165+01 | 1486192524.64516 | pgbench_accounts_pkey |       2246197248

 2017-02-04 08:15:25.727587+01 | 1486192525.72759 | pgbench_branches_pkey |          1826816
 2017-02-04 08:15:25.727587+01 | 1486192525.72759 | pgbench_tellers_pkey  |          7118848
 2017-02-04 08:15:25.727587+01 | 1486192525.72759 | pgbench_accounts_pkey |       2246197248

 2017-02-04 08:15:26.821755+01 | 1486192526.82175 | pgbench_branches_pkey |          1826816
 2017-02-04 08:15:26.821755+01 | 1486192526.82175 | pgbench_tellers_pkey  |          7118848
 2017-02-04 08:15:26.821755+01 | 1486192526.82175 | pgbench_accounts_pkey |       2246197248

 2017-02-04 08:15:27.918306+01 | 1486192527.91831 | pgbench_branches_pkey |          1826816
 2017-02-04 08:15:27.918306+01 | 1486192527.91831 | pgbench_tellers_pkey  |          7118848
 2017-02-04 08:15:27.918306+01 | 1486192527.91831 | pgbench_accounts_pkey |       2246197248

 2017-02-04 08:15:29.014206+01 | 1486192529.01421 | pgbench_branches_pkey |          1826816
 2017-02-04 08:15:29.014206+01 | 1486192529.01421 | pgbench_tellers_pkey  |          7118848
 2017-02-04 08:15:29.014206+01 | 1486192529.01421 | pgbench_accounts_pkey |       2246197248

 2017-02-04 08:15:30.094205+01 | 1486192530.0942 | pgbench_branches_pkey |          1826816
 2017-02-04 08:15:30.094205+01 | 1486192530.0942 | pgbench_tellers_pkey  |          7118848
 2017-02-04 08:15:30.094205+01 | 1486192530.0942 | pgbench_accounts_pkey |       2246197248

 2017-02-04 08:15:31.177538+01 | 1486192531.17754 | pgbench_branches_pkey |          1826816
 2017-02-04 08:15:31.177538+01 | 1486192531.17754 | pgbench_tellers_pkey  |          7118848
 2017-02-04 08:15:31.177538+01 | 1486192531.17754 | pgbench_accounts_pkey |       2246197248

 2017-02-04 08:15:32.257834+01 | 1486192532.25783 | pgbench_branches_pkey |          1826816
 2017-02-04 08:15:32.257834+01 | 1486192532.25783 | pgbench_tellers_pkey  |          7118848
 2017-02-04 08:15:32.257834+01 | 1486192532.25783 | pgbench_accounts_pkey |       2246197248

 2017-02-04 08:15:33.340267+01 | 1486192533.34027 | pgbench_branches_pkey |          1826816
 2017-02-04 08:15:33.340267+01 | 1486192533.34027 | pgbench_tellers_pkey  |          7118848
 2017-02-04 08:15:33.340267+01 | 1486192533.34027 | pgbench_accounts_pkey |       2246197248

 2017-02-04 08:15:34.431252+01 | 1486192534.43125 | pgbench_branches_pkey |          1826816
 2017-02-04 08:15:34.431252+01 | 1486192534.43125 | pgbench_tellers_pkey  |          7118848
 2017-02-04 08:15:34.431252+01 | 1486192534.43125 | pgbench_accounts_pkey |       2246197248

 2017-02-04 08:15:35.526049+01 | 1486192535.52605 | pgbench_branches_pkey |          1826816
 2017-02-04 08:15:35.526049+01 | 1486192535.52605 | pgbench_tellers_pkey  |          7118848
 2017-02-04 08:15:35.526049+01 | 1486192535.52605 | pgbench_accounts_pkey |       2246197248

 2017-02-04 08:15:36.618087+01 | 1486192536.61809 | pgbench_branches_pkey |          1826816
 2017-02-04 08:15:36.618087+01 | 1486192536.61809 | pgbench_tellers_pkey  |          7118848
 2017-02-04 08:15:36.618087+01 | 1486192536.61809 | pgbench_accounts_pkey |       2246197248

 2017-02-04 08:15:37.704396+01 | 1486192537.7044 | pgbench_branches_pkey |          1826816
 2017-02-04 08:15:37.704396+01 | 1486192537.7044 | pgbench_tellers_pkey  |          7118848
 2017-02-04 08:15:37.704396+01 | 1486192537.7044 | pgbench_accounts_pkey |       2246197248

 2017-02-04 08:15:38.803355+01 | 1486192538.80335 | pgbench_branches_pkey |          1826816
 2017-02-04 08:15:38.803355+01 | 1486192538.80335 | pgbench_tellers_pkey  |          7118848
 2017-02-04 08:15:38.803355+01 | 1486192538.80335 | pgbench_accounts_pkey |       2246197248

 2017-02-04 08:15:39.903337+01 | 1486192539.90334 | pgbench_branches_pkey |          1826816
 2017-02-04 08:15:39.903337+01 | 1486192539.90334 | pgbench_tellers_pkey  |          7118848
 2017-02-04 08:15:39.903337+01 | 1486192539.90334 | pgbench_accounts_pkey |       2246197248

 2017-02-04 08:15:40.993037+01 | 1486192540.99304 | pgbench_branches_pkey |          1826816
 2017-02-04 08:15:40.993037+01 | 1486192540.99304 | pgbench_tellers_pkey  |          7118848
 2017-02-04 08:15:40.993037+01 | 1486192540.99304 | pgbench_accounts_pkey |       2246197248

 2017-02-04 08:15:42.078409+01 | 1486192542.07841 | pgbench_branches_pkey |          1826816
 2017-02-04 08:15:42.078409+01 | 1486192542.07841 | pgbench_tellers_pkey  |          7118848
 2017-02-04 08:15:42.078409+01 | 1486192542.07841 | pgbench_accounts_pkey |       2246197248

 2017-02-04 08:15:43.155799+01 | 1486192543.1558 | pgbench_branches_pkey |          1826816
 2017-02-04 08:15:43.155799+01 | 1486192543.1558 | pgbench_tellers_pkey  |          7118848
 2017-02-04 08:15:43.155799+01 | 1486192543.1558 | pgbench_accounts_pkey |       2246197248

 2017-02-04 08:15:44.246089+01 | 1486192544.24609 | pgbench_branches_pkey |          1826816
 2017-02-04 08:15:44.246089+01 | 1486192544.24609 | pgbench_tellers_pkey  |          7118848
 2017-02-04 08:15:44.246089+01 | 1486192544.24609 | pgbench_accounts_pkey |       2246197248

 2017-02-04 08:15:45.331309+01 | 1486192545.33131 | pgbench_branches_pkey |          1826816
 2017-02-04 08:15:45.331309+01 | 1486192545.33131 | pgbench_tellers_pkey  |          7118848
 2017-02-04 08:15:45.331309+01 | 1486192545.33131 | pgbench_accounts_pkey |       2246197248

 2017-02-04 08:15:46.413417+01 | 1486192546.41342 | pgbench_branches_pkey |          1826816
 2017-02-04 08:15:46.413417+01 | 1486192546.41342 | pgbench_tellers_pkey  |          7118848
 2017-02-04 08:15:46.413417+01 | 1486192546.41342 | pgbench_accounts_pkey |       2246197248

 2017-02-04 08:15:47.485574+01 | 1486192547.48557 | pgbench_branches_pkey |          1826816
 2017-02-04 08:15:47.485574+01 | 1486192547.48557 | pgbench_tellers_pkey  |          7118848
 2017-02-04 08:15:47.485574+01 | 1486192547.48557 | pgbench_accounts_pkey |       2246197248

 2017-02-04 08:15:48.577814+01 | 1486192548.57781 | pgbench_branches_pkey |          1826816
 2017-02-04 08:15:48.577814+01 | 1486192548.57781 | pgbench_tellers_pkey  |          7118848
 2017-02-04 08:15:48.577814+01 | 1486192548.57781 | pgbench_accounts_pkey |       2246197248

 2017-02-04 08:15:49.680138+01 | 1486192549.68014 | pgbench_branches_pkey |          1826816
 2017-02-04 08:15:49.680138+01 | 1486192549.68014 | pgbench_tellers_pkey  |          7118848
 2017-02-04 08:15:49.680138+01 | 1486192549.68014 | pgbench_accounts_pkey |       2246197248

 2017-02-04 08:15:50.762221+01 | 1486192550.76222 | pgbench_branches_pkey |          1826816
 2017-02-04 08:15:50.762221+01 | 1486192550.76222 | pgbench_tellers_pkey  |          7118848
 2017-02-04 08:15:50.762221+01 | 1486192550.76222 | pgbench_accounts_pkey |       2246197248

 2017-02-04 08:15:51.849229+01 | 1486192551.84923 | pgbench_branches_pkey |          1826816
 2017-02-04 08:15:51.849229+01 | 1486192551.84923 | pgbench_tellers_pkey  |          7118848
 2017-02-04 08:15:51.849229+01 | 1486192551.84923 | pgbench_accounts_pkey |       2246197248

 2017-02-04 08:15:52.933667+01 | 1486192552.93367 | pgbench_branches_pkey |          1826816
 2017-02-04 08:15:52.933667+01 | 1486192552.93367 | pgbench_tellers_pkey  |          7118848
 2017-02-04 08:15:52.933667+01 | 1486192552.93367 | pgbench_accounts_pkey |       2246197248

 2017-02-04 08:15:54.020345+01 | 1486192554.02034 | pgbench_branches_pkey |          1826816
 2017-02-04 08:15:54.020345+01 | 1486192554.02034 | pgbench_tellers_pkey  |          7118848
 2017-02-04 08:15:54.020345+01 | 1486192554.02034 | pgbench_accounts_pkey |       2246197248

 2017-02-04 08:15:55.106823+01 | 1486192555.10682 | pgbench_branches_pkey |          1826816
 2017-02-04 08:15:55.106823+01 | 1486192555.10682 | pgbench_tellers_pkey  |          7118848
 2017-02-04 08:15:55.106823+01 | 1486192555.10682 | pgbench_accounts_pkey |       2246197248

 2017-02-04 08:15:56.192866+01 | 1486192556.19287 | pgbench_branches_pkey |          1826816
 2017-02-04 08:15:56.192866+01 | 1486192556.19287 | pgbench_tellers_pkey  |          7118848
 2017-02-04 08:15:56.192866+01 | 1486192556.19287 | pgbench_accounts_pkey |       2246197248

 2017-02-04 08:15:57.256455+01 | 1486192557.25645 | pgbench_branches_pkey |          1826816
 2017-02-04 08:15:57.256455+01 | 1486192557.25645 | pgbench_tellers_pkey  |          7118848
 2017-02-04 08:15:57.256455+01 | 1486192557.25645 | pgbench_accounts_pkey |       2246197248

 2017-02-04 08:15:58.326987+01 | 1486192558.32699 | pgbench_branches_pkey |          1826816
 2017-02-04 08:15:58.326987+01 | 1486192558.32699 | pgbench_tellers_pkey  |          7118848
 2017-02-04 08:15:58.326987+01 | 1486192558.32699 | pgbench_accounts_pkey |       2246197248

 2017-02-04 08:15:59.403958+01 | 1486192559.40396 | pgbench_branches_pkey |          1826816
 2017-02-04 08:15:59.403958+01 | 1486192559.40396 | pgbench_tellers_pkey  |          7118848
 2017-02-04 08:15:59.403958+01 | 1486192559.40396 | pgbench_accounts_pkey |       2246197248

 2017-02-04 08:16:00.501011+01 | 1486192560.50101 | pgbench_branches_pkey |          1826816
 2017-02-04 08:16:00.501011+01 | 1486192560.50101 | pgbench_tellers_pkey  |          7118848
 2017-02-04 08:16:00.501011+01 | 1486192560.50101 | pgbench_accounts_pkey |       2246197248

 2017-02-04 08:16:01.587638+01 | 1486192561.58764 | pgbench_branches_pkey |          1826816
 2017-02-04 08:16:01.587638+01 | 1486192561.58764 | pgbench_tellers_pkey  |          7118848
 2017-02-04 08:16:01.587638+01 | 1486192561.58764 | pgbench_accounts_pkey |       2246197248

 2017-02-04 08:16:02.682114+01 | 1486192562.68211 | pgbench_branches_pkey |          1826816
 2017-02-04 08:16:02.682114+01 | 1486192562.68211 | pgbench_tellers_pkey  |          7118848
 2017-02-04 08:16:02.682114+01 | 1486192562.68211 | pgbench_accounts_pkey |       2246197248

 2017-02-04 08:16:03.754822+01 | 1486192563.75482 | pgbench_branches_pkey |          1826816
 2017-02-04 08:16:03.754822+01 | 1486192563.75482 | pgbench_tellers_pkey  |          7118848
 2017-02-04 08:16:03.754822+01 | 1486192563.75482 | pgbench_accounts_pkey |       2246197248

 2017-02-04 08:16:04.83783+01 | 1486192564.83783 | pgbench_branches_pkey |          1826816
 2017-02-04 08:16:04.83783+01 | 1486192564.83783 | pgbench_tellers_pkey  |          7118848
 2017-02-04 08:16:04.83783+01 | 1486192564.83783 | pgbench_accounts_pkey |       2246197248

 2017-02-04 08:16:05.935038+01 | 1486192565.93504 | pgbench_branches_pkey |          1826816
 2017-02-04 08:16:05.935038+01 | 1486192565.93504 | pgbench_tellers_pkey  |          7118848
 2017-02-04 08:16:05.935038+01 | 1486192565.93504 | pgbench_accounts_pkey |       2246197248

 2017-02-04 08:16:07.031002+01 | 1486192567.031 | pgbench_branches_pkey |          1826816
 2017-02-04 08:16:07.031002+01 | 1486192567.031 | pgbench_tellers_pkey  |          7118848
 2017-02-04 08:16:07.031002+01 | 1486192567.031 | pgbench_accounts_pkey |       2246197248

 2017-02-04 08:16:08.118619+01 | 1486192568.11862 | pgbench_branches_pkey |          1826816
 2017-02-04 08:16:08.118619+01 | 1486192568.11862 | pgbench_tellers_pkey  |          7118848
 2017-02-04 08:16:08.118619+01 | 1486192568.11862 | pgbench_accounts_pkey |       2246197248

 2017-02-04 08:16:09.202241+01 | 1486192569.20224 | pgbench_branches_pkey |          1826816
 2017-02-04 08:16:09.202241+01 | 1486192569.20224 | pgbench_tellers_pkey  |          7118848
 2017-02-04 08:16:09.202241+01 | 1486192569.20224 | pgbench_accounts_pkey |       2246197248

 2017-02-04 08:16:10.283758+01 | 1486192570.28376 | pgbench_branches_pkey |          1826816
 2017-02-04 08:16:10.283758+01 | 1486192570.28376 | pgbench_tellers_pkey  |          7118848
 2017-02-04 08:16:10.283758+01 | 1486192570.28376 | pgbench_accounts_pkey |       2246197248

 2017-02-04 08:16:11.362358+01 | 1486192571.36236 | pgbench_branches_pkey |          1826816
 2017-02-04 08:16:11.362358+01 | 1486192571.36236 | pgbench_tellers_pkey  |          7118848
 2017-02-04 08:16:11.362358+01 | 1486192571.36236 | pgbench_accounts_pkey |       2246197248

 2017-02-04 08:16:12.448049+01 | 1486192572.44805 | pgbench_branches_pkey |          1826816
 2017-02-04 08:16:12.448049+01 | 1486192572.44805 | pgbench_tellers_pkey  |          7118848
 2017-02-04 08:16:12.448049+01 | 1486192572.44805 | pgbench_accounts_pkey |       2246197248

 2017-02-04 08:16:13.521706+01 | 1486192573.52171 | pgbench_branches_pkey |          1826816
 2017-02-04 08:16:13.521706+01 | 1486192573.52171 | pgbench_tellers_pkey  |          7118848
 2017-02-04 08:16:13.521706+01 | 1486192573.52171 | pgbench_accounts_pkey |       2246197248

 2017-02-04 08:16:14.598772+01 | 1486192574.59877 | pgbench_branches_pkey |          1826816
 2017-02-04 08:16:14.598772+01 | 1486192574.59877 | pgbench_tellers_pkey  |          7118848
 2017-02-04 08:16:14.598772+01 | 1486192574.59877 | pgbench_accounts_pkey |       2246197248

 2017-02-04 08:16:15.673311+01 | 1486192575.67331 | pgbench_branches_pkey |          1826816
 2017-02-04 08:16:15.673311+01 | 1486192575.67331 | pgbench_tellers_pkey  |          7118848
 2017-02-04 08:16:15.673311+01 | 1486192575.67331 | pgbench_accounts_pkey |       2246197248

 2017-02-04 08:16:16.755432+01 | 1486192576.75543 | pgbench_branches_pkey |          1826816
 2017-02-04 08:16:16.755432+01 | 1486192576.75543 | pgbench_tellers_pkey  |          7118848
 2017-02-04 08:16:16.755432+01 | 1486192576.75543 | pgbench_accounts_pkey |       2246197248

 2017-02-04 08:16:17.831645+01 | 1486192577.83165 | pgbench_branches_pkey |          1826816
 2017-02-04 08:16:17.831645+01 | 1486192577.83165 | pgbench_tellers_pkey  |          7118848
 2017-02-04 08:16:17.831645+01 | 1486192577.83165 | pgbench_accounts_pkey |       2246197248

 2017-02-04 08:16:18.916032+01 | 1486192578.91603 | pgbench_branches_pkey |          1826816
 2017-02-04 08:16:18.916032+01 | 1486192578.91603 | pgbench_tellers_pkey  |          7118848
 2017-02-04 08:16:18.916032+01 | 1486192578.91603 | pgbench_accounts_pkey |       2246197248

 2017-02-04 08:16:20.016068+01 | 1486192580.01607 | pgbench_branches_pkey |          1826816
 2017-02-04 08:16:20.016068+01 | 1486192580.01607 | pgbench_tellers_pkey  |          7118848
 2017-02-04 08:16:20.016068+01 | 1486192580.01607 | pgbench_accounts_pkey |       2246197248

 2017-02-04 08:16:21.103969+01 | 1486192581.10397 | pgbench_branches_pkey |          1826816
 2017-02-04 08:16:21.103969+01 | 1486192581.10397 | pgbench_tellers_pkey  |          7118848
 2017-02-04 08:16:21.103969+01 | 1486192581.10397 | pgbench_accounts_pkey |       2246197248

 2017-02-04 08:16:22.194755+01 | 1486192582.19476 | pgbench_branches_pkey |          1826816
 2017-02-04 08:16:22.194755+01 | 1486192582.19476 | pgbench_tellers_pkey  |          7118848
 2017-02-04 08:16:22.194755+01 | 1486192582.19476 | pgbench_accounts_pkey |       2246197248

 2017-02-04 08:16:23.29445+01 | 1486192583.29445 | pgbench_branches_pkey |          1826816
 2017-02-04 08:16:23.29445+01 | 1486192583.29445 | pgbench_tellers_pkey  |          7118848
 2017-02-04 08:16:23.29445+01 | 1486192583.29445 | pgbench_accounts_pkey |       2246197248

 2017-02-04 08:16:24.370624+01 | 1486192584.37062 | pgbench_branches_pkey |          1826816
 2017-02-04 08:16:24.370624+01 | 1486192584.37062 | pgbench_tellers_pkey  |          7118848
 2017-02-04 08:16:24.370624+01 | 1486192584.37062 | pgbench_accounts_pkey |       2246197248

 2017-02-04 08:16:25.461945+01 | 1486192585.46195 | pgbench_branches_pkey |          1826816
 2017-02-04 08:16:25.461945+01 | 1486192585.46195 | pgbench_tellers_pkey  |          7118848
 2017-02-04 08:16:25.461945+01 | 1486192585.46195 | pgbench_accounts_pkey |       2246197248

 2017-02-04 08:16:26.547042+01 | 1486192586.54704 | pgbench_branches_pkey |          1826816
 2017-02-04 08:16:26.547042+01 | 1486192586.54704 | pgbench_tellers_pkey  |          7118848
 2017-02-04 08:16:26.547042+01 | 1486192586.54704 | pgbench_accounts_pkey |       2246197248

 2017-02-04 08:16:27.616179+01 | 1486192587.61618 | pgbench_branches_pkey |          1826816
 2017-02-04 08:16:27.616179+01 | 1486192587.61618 | pgbench_tellers_pkey  |          7118848
 2017-02-04 08:16:27.616179+01 | 1486192587.61618 | pgbench_accounts_pkey |       2246197248

 2017-02-04 08:16:28.691247+01 | 1486192588.69125 | pgbench_branches_pkey |          1826816
 2017-02-04 08:16:28.691247+01 | 1486192588.69125 | pgbench_tellers_pkey  |          7118848
 2017-02-04 08:16:28.691247+01 | 1486192588.69125 | pgbench_accounts_pkey |       2246197248

 2017-02-04 08:16:29.768174+01 | 1486192589.76817 | pgbench_branches_pkey |          1826816
 2017-02-04 08:16:29.768174+01 | 1486192589.76817 | pgbench_tellers_pkey  |          7118848
 2017-02-04 08:16:29.768174+01 | 1486192589.76817 | pgbench_accounts_pkey |       2246197248

 2017-02-04 08:16:30.856269+01 | 1486192590.85627 | pgbench_branches_pkey |          1826816
 2017-02-04 08:16:30.856269+01 | 1486192590.85627 | pgbench_tellers_pkey  |          7118848
 2017-02-04 08:16:30.856269+01 | 1486192590.85627 | pgbench_accounts_pkey |       2246197248

 2017-02-04 08:16:31.944691+01 | 1486192591.94469 | pgbench_branches_pkey |          1826816
 2017-02-04 08:16:31.944691+01 | 1486192591.94469 | pgbench_tellers_pkey  |          7118848
 2017-02-04 08:16:31.944691+01 | 1486192591.94469 | pgbench_accounts_pkey |       2246197248

 2017-02-04 08:16:33.027734+01 | 1486192593.02773 | pgbench_branches_pkey |          1826816
 2017-02-04 08:16:33.027734+01 | 1486192593.02773 | pgbench_tellers_pkey  |          7118848
 2017-02-04 08:16:33.027734+01 | 1486192593.02773 | pgbench_accounts_pkey |       2246197248

 2017-02-04 08:16:34.119429+01 | 1486192594.11943 | pgbench_branches_pkey |          1826816
 2017-02-04 08:16:34.119429+01 | 1486192594.11943 | pgbench_tellers_pkey  |          7118848
 2017-02-04 08:16:34.119429+01 | 1486192594.11943 | pgbench_accounts_pkey |       2246197248

 2017-02-04 08:16:35.209998+01 | 1486192595.21 | pgbench_branches_pkey |          1826816
 2017-02-04 08:16:35.209998+01 | 1486192595.21 | pgbench_tellers_pkey  |          7118848
 2017-02-04 08:16:35.209998+01 | 1486192595.21 | pgbench_accounts_pkey |       2246197248

 2017-02-04 08:16:36.287448+01 | 1486192596.28745 | pgbench_branches_pkey |          1826816
 2017-02-04 08:16:36.287448+01 | 1486192596.28745 | pgbench_tellers_pkey  |          7118848
 2017-02-04 08:16:36.287448+01 | 1486192596.28745 | pgbench_accounts_pkey |       2246197248

 2017-02-04 08:16:37.365377+01 | 1486192597.36538 | pgbench_branches_pkey |          1826816
 2017-02-04 08:16:37.365377+01 | 1486192597.36538 | pgbench_tellers_pkey  |          7118848
 2017-02-04 08:16:37.365377+01 | 1486192597.36538 | pgbench_accounts_pkey |       2246197248

 2017-02-04 08:16:38.455822+01 | 1486192598.45582 | pgbench_branches_pkey |          1826816
 2017-02-04 08:16:38.455822+01 | 1486192598.45582 | pgbench_tellers_pkey  |          7118848
 2017-02-04 08:16:38.455822+01 | 1486192598.45582 | pgbench_accounts_pkey |       2246197248

 2017-02-04 08:16:39.544286+01 | 1486192599.54429 | pgbench_branches_pkey |          1826816
 2017-02-04 08:16:39.544286+01 | 1486192599.54429 | pgbench_tellers_pkey  |          7118848
 2017-02-04 08:16:39.544286+01 | 1486192599.54429 | pgbench_accounts_pkey |       2246197248

 2017-02-04 08:16:40.632877+01 | 1486192600.63288 | pgbench_branches_pkey |          1826816
 2017-02-04 08:16:40.632877+01 | 1486192600.63288 | pgbench_tellers_pkey  |          7118848
 2017-02-04 08:16:40.632877+01 | 1486192600.63288 | pgbench_accounts_pkey |       2246197248

 2017-02-04 08:16:41.72578+01 | 1486192601.72578 | pgbench_branches_pkey |          1826816
 2017-02-04 08:16:41.72578+01 | 1486192601.72578 | pgbench_tellers_pkey  |          7118848
 2017-02-04 08:16:41.72578+01 | 1486192601.72578 | pgbench_accounts_pkey |       2246197248

 2017-02-04 08:16:42.810265+01 | 1486192602.81027 | pgbench_branches_pkey |          1826816
 2017-02-04 08:16:42.810265+01 | 1486192602.81027 | pgbench_tellers_pkey  |          7118848
 2017-02-04 08:16:42.810265+01 | 1486192602.81027 | pgbench_accounts_pkey |       2246197248

 2017-02-04 08:16:43.902848+01 | 1486192603.90285 | pgbench_branches_pkey |          1826816
 2017-02-04 08:16:43.902848+01 | 1486192603.90285 | pgbench_tellers_pkey  |          7118848
 2017-02-04 08:16:43.902848+01 | 1486192603.90285 | pgbench_accounts_pkey |       2246197248

 2017-02-04 08:16:44.994455+01 | 1486192604.99446 | pgbench_branches_pkey |          1826816
 2017-02-04 08:16:44.994455+01 | 1486192604.99446 | pgbench_tellers_pkey  |          7118848
 2017-02-04 08:16:44.994455+01 | 1486192604.99446 | pgbench_accounts_pkey |       2246197248

 2017-02-04 08:16:46.069214+01 | 1486192606.06921 | pgbench_branches_pkey |          1826816
 2017-02-04 08:16:46.069214+01 | 1486192606.06921 | pgbench_tellers_pkey  |          7118848
 2017-02-04 08:16:46.069214+01 | 1486192606.06921 | pgbench_accounts_pkey |       2246197248

 2017-02-04 08:16:47.137926+01 | 1486192607.13793 | pgbench_branches_pkey |          1826816
 2017-02-04 08:16:47.137926+01 | 1486192607.13793 | pgbench_tellers_pkey  |          7118848
 2017-02-04 08:16:47.137926+01 | 1486192607.13793 | pgbench_accounts_pkey |       2246197248

 2017-02-04 08:16:48.21772+01 | 1486192608.21772 | pgbench_branches_pkey |          1826816
 2017-02-04 08:16:48.21772+01 | 1486192608.21772 | pgbench_tellers_pkey  |          7118848
 2017-02-04 08:16:48.21772+01 | 1486192608.21772 | pgbench_accounts_pkey |       2246197248

 2017-02-04 08:16:49.306709+01 | 1486192609.30671 | pgbench_branches_pkey |          1826816
 2017-02-04 08:16:49.306709+01 | 1486192609.30671 | pgbench_tellers_pkey  |          7118848
 2017-02-04 08:16:49.306709+01 | 1486192609.30671 | pgbench_accounts_pkey |       2246197248

 2017-02-04 08:16:50.396688+01 | 1486192610.39669 | pgbench_branches_pkey |          1826816
 2017-02-04 08:16:50.396688+01 | 1486192610.39669 | pgbench_tellers_pkey  |          7118848
 2017-02-04 08:16:50.396688+01 | 1486192610.39669 | pgbench_accounts_pkey |       2246197248

 2017-02-04 08:16:51.483682+01 | 1486192611.48368 | pgbench_branches_pkey |          1826816
 2017-02-04 08:16:51.483682+01 | 1486192611.48368 | pgbench_tellers_pkey  |          7118848
 2017-02-04 08:16:51.483682+01 | 1486192611.48368 | pgbench_accounts_pkey |       2246197248

 2017-02-04 08:16:52.560552+01 | 1486192612.56055 | pgbench_branches_pkey |          1826816
 2017-02-04 08:16:52.560552+01 | 1486192612.56055 | pgbench_tellers_pkey  |          7118848
 2017-02-04 08:16:52.560552+01 | 1486192612.56055 | pgbench_accounts_pkey |       2246197248

 2017-02-04 08:16:53.64861+01 | 1486192613.64861 | pgbench_branches_pkey |          1826816
 2017-02-04 08:16:53.64861+01 | 1486192613.64861 | pgbench_tellers_pkey  |          7118848
 2017-02-04 08:16:53.64861+01 | 1486192613.64861 | pgbench_accounts_pkey |       2246197248

 2017-02-04 08:16:54.730507+01 | 1486192614.73051 | pgbench_branches_pkey |          1826816
 2017-02-04 08:16:54.730507+01 | 1486192614.73051 | pgbench_tellers_pkey  |          7118848
 2017-02-04 08:16:54.730507+01 | 1486192614.73051 | pgbench_accounts_pkey |       2246197248

 2017-02-04 08:16:55.816041+01 | 1486192615.81604 | pgbench_branches_pkey |          1826816
 2017-02-04 08:16:55.816041+01 | 1486192615.81604 | pgbench_tellers_pkey  |          7118848
 2017-02-04 08:16:55.816041+01 | 1486192615.81604 | pgbench_accounts_pkey |       2246197248

 2017-02-04 08:16:56.90371+01 | 1486192616.90371 | pgbench_branches_pkey |          1826816
 2017-02-04 08:16:56.90371+01 | 1486192616.90371 | pgbench_tellers_pkey  |          7118848
 2017-02-04 08:16:56.90371+01 | 1486192616.90371 | pgbench_accounts_pkey |       2246197248

 2017-02-04 08:16:57.999437+01 | 1486192617.99944 | pgbench_branches_pkey |          1826816
 2017-02-04 08:16:57.999437+01 | 1486192617.99944 | pgbench_tellers_pkey  |          7118848
 2017-02-04 08:16:57.999437+01 | 1486192617.99944 | pgbench_accounts_pkey |       2246197248

 2017-02-04 08:16:59.097753+01 | 1486192619.09775 | pgbench_branches_pkey |          1826816
 2017-02-04 08:16:59.097753+01 | 1486192619.09775 | pgbench_tellers_pkey  |          7118848
 2017-02-04 08:16:59.097753+01 | 1486192619.09775 | pgbench_accounts_pkey |       2246197248

 2017-02-04 08:17:00.188688+01 | 1486192620.18869 | pgbench_branches_pkey |          1826816
 2017-02-04 08:17:00.188688+01 | 1486192620.18869 | pgbench_tellers_pkey  |          7118848
 2017-02-04 08:17:00.188688+01 | 1486192620.18869 | pgbench_accounts_pkey |       2246197248

 2017-02-04 08:17:01.281099+01 | 1486192621.2811 | pgbench_branches_pkey |          1826816
 2017-02-04 08:17:01.281099+01 | 1486192621.2811 | pgbench_tellers_pkey  |          7118848
 2017-02-04 08:17:01.281099+01 | 1486192621.2811 | pgbench_accounts_pkey |       2246197248

 2017-02-04 08:17:02.364562+01 | 1486192622.36456 | pgbench_branches_pkey |          1826816
 2017-02-04 08:17:02.364562+01 | 1486192622.36456 | pgbench_tellers_pkey  |          7118848
 2017-02-04 08:17:02.364562+01 | 1486192622.36456 | pgbench_accounts_pkey |       2246197248

 2017-02-04 08:17:03.459025+01 | 1486192623.45902 | pgbench_branches_pkey |          1826816
 2017-02-04 08:17:03.459025+01 | 1486192623.45902 | pgbench_tellers_pkey  |          7118848
 2017-02-04 08:17:03.459025+01 | 1486192623.45902 | pgbench_accounts_pkey |       2246197248

 2017-02-04 08:17:04.541537+01 | 1486192624.54154 | pgbench_branches_pkey |          1826816
 2017-02-04 08:17:04.541537+01 | 1486192624.54154 | pgbench_tellers_pkey  |          7118848
 2017-02-04 08:17:04.541537+01 | 1486192624.54154 | pgbench_accounts_pkey |       2246197248

 2017-02-04 08:17:05.640257+01 | 1486192625.64026 | pgbench_branches_pkey |          1826816
 2017-02-04 08:17:05.640257+01 | 1486192625.64026 | pgbench_tellers_pkey  |          7118848
 2017-02-04 08:17:05.640257+01 | 1486192625.64026 | pgbench_accounts_pkey |       2246197248

 2017-02-04 08:17:06.741754+01 | 1486192626.74175 | pgbench_branches_pkey |          1826816
 2017-02-04 08:17:06.741754+01 | 1486192626.74175 | pgbench_tellers_pkey  |          7118848
 2017-02-04 08:17:06.741754+01 | 1486192626.74175 | pgbench_accounts_pkey |       2246197248

 2017-02-04 08:17:07.836731+01 | 1486192627.83673 | pgbench_branches_pkey |          1826816
 2017-02-04 08:17:07.836731+01 | 1486192627.83673 | pgbench_tellers_pkey  |          7118848
 2017-02-04 08:17:07.836731+01 | 1486192627.83673 | pgbench_accounts_pkey |       2246197248

 2017-02-04 08:17:08.935002+01 | 1486192628.935 | pgbench_branches_pkey |          1826816
 2017-02-04 08:17:08.935002+01 | 1486192628.935 | pgbench_tellers_pkey  |          7118848
 2017-02-04 08:17:08.935002+01 | 1486192628.935 | pgbench_accounts_pkey |       2246197248

 2017-02-04 08:17:10.012226+01 | 1486192630.01223 | pgbench_branches_pkey |          1826816
 2017-02-04 08:17:10.012226+01 | 1486192630.01223 | pgbench_tellers_pkey  |          7118848
 2017-02-04 08:17:10.012226+01 | 1486192630.01223 | pgbench_accounts_pkey |       2246197248

 2017-02-04 08:17:11.100051+01 | 1486192631.10005 | pgbench_branches_pkey |          1826816
 2017-02-04 08:17:11.100051+01 | 1486192631.10005 | pgbench_tellers_pkey  |          7118848
 2017-02-04 08:17:11.100051+01 | 1486192631.10005 | pgbench_accounts_pkey |       2246197248

 2017-02-04 08:17:12.192444+01 | 1486192632.19244 | pgbench_branches_pkey |          1826816
 2017-02-04 08:17:12.192444+01 | 1486192632.19244 | pgbench_tellers_pkey  |          7118848
 2017-02-04 08:17:12.192444+01 | 1486192632.19244 | pgbench_accounts_pkey |       2246197248

 2017-02-04 08:17:13.294824+01 | 1486192633.29482 | pgbench_branches_pkey |          1826816
 2017-02-04 08:17:13.294824+01 | 1486192633.29482 | pgbench_tellers_pkey  |          7118848
 2017-02-04 08:17:13.294824+01 | 1486192633.29482 | pgbench_accounts_pkey |       2246197248

 2017-02-04 08:17:14.386138+01 | 1486192634.38614 | pgbench_branches_pkey |          1826816
 2017-02-04 08:17:14.386138+01 | 1486192634.38614 | pgbench_tellers_pkey  |          7118848
 2017-02-04 08:17:14.386138+01 | 1486192634.38614 | pgbench_accounts_pkey |       2246197248

 2017-02-04 08:17:15.473011+01 | 1486192635.47301 | pgbench_branches_pkey |          1826816
 2017-02-04 08:17:15.473011+01 | 1486192635.47301 | pgbench_tellers_pkey  |          7118848
 2017-02-04 08:17:15.473011+01 | 1486192635.47301 | pgbench_accounts_pkey |       2246197248

 2017-02-04 08:17:16.563371+01 | 1486192636.56337 | pgbench_branches_pkey |          1826816
 2017-02-04 08:17:16.563371+01 | 1486192636.56337 | pgbench_tellers_pkey  |          7118848
 2017-02-04 08:17:16.563371+01 | 1486192636.56337 | pgbench_accounts_pkey |       2246197248

 2017-02-04 08:17:17.653598+01 | 1486192637.6536 | pgbench_branches_pkey |          1826816
 2017-02-04 08:17:17.653598+01 | 1486192637.6536 | pgbench_tellers_pkey  |          7118848
 2017-02-04 08:17:17.653598+01 | 1486192637.6536 | pgbench_accounts_pkey |       2246197248

 2017-02-04 08:17:18.740812+01 | 1486192638.74081 | pgbench_branches_pkey |          1826816
 2017-02-04 08:17:18.740812+01 | 1486192638.74081 | pgbench_tellers_pkey  |          7118848
 2017-02-04 08:17:18.740812+01 | 1486192638.74081 | pgbench_accounts_pkey |       2246197248

 2017-02-04 08:17:19.82829+01 | 1486192639.82829 | pgbench_branches_pkey |          1826816
 2017-02-04 08:17:19.82829+01 | 1486192639.82829 | pgbench_tellers_pkey  |          7118848
 2017-02-04 08:17:19.82829+01 | 1486192639.82829 | pgbench_accounts_pkey |       2246197248

 2017-02-04 08:17:20.923468+01 | 1486192640.92347 | pgbench_branches_pkey |          1826816
 2017-02-04 08:17:20.923468+01 | 1486192640.92347 | pgbench_tellers_pkey  |          7118848
 2017-02-04 08:17:20.923468+01 | 1486192640.92347 | pgbench_accounts_pkey |       2246197248

 2017-02-04 08:17:22.013367+01 | 1486192642.01337 | pgbench_branches_pkey |          1826816
 2017-02-04 08:17:22.013367+01 | 1486192642.01337 | pgbench_tellers_pkey  |          7118848
 2017-02-04 08:17:22.013367+01 | 1486192642.01337 | pgbench_accounts_pkey |       2246197248

 2017-02-04 08:17:23.102125+01 | 1486192643.10212 | pgbench_branches_pkey |          1826816
 2017-02-04 08:17:23.102125+01 | 1486192643.10212 | pgbench_tellers_pkey  |          7118848
 2017-02-04 08:17:23.102125+01 | 1486192643.10212 | pgbench_accounts_pkey |       2246197248

 2017-02-04 08:17:24.187181+01 | 1486192644.18718 | pgbench_branches_pkey |          1826816
 2017-02-04 08:17:24.187181+01 | 1486192644.18718 | pgbench_tellers_pkey  |          7118848
 2017-02-04 08:17:24.187181+01 | 1486192644.18718 | pgbench_accounts_pkey |       2246197248

 2017-02-04 08:17:25.283314+01 | 1486192645.28331 | pgbench_branches_pkey |          1826816
 2017-02-04 08:17:25.283314+01 | 1486192645.28331 | pgbench_tellers_pkey  |          7118848
 2017-02-04 08:17:25.283314+01 | 1486192645.28331 | pgbench_accounts_pkey |       2246197248

 2017-02-04 08:17:26.368358+01 | 1486192646.36836 | pgbench_branches_pkey |          1826816
 2017-02-04 08:17:26.368358+01 | 1486192646.36836 | pgbench_tellers_pkey  |          7118848
 2017-02-04 08:17:26.368358+01 | 1486192646.36836 | pgbench_accounts_pkey |       2246197248

 2017-02-04 08:17:27.465257+01 | 1486192647.46526 | pgbench_branches_pkey |          1826816
 2017-02-04 08:17:27.465257+01 | 1486192647.46526 | pgbench_tellers_pkey  |          7118848
 2017-02-04 08:17:27.465257+01 | 1486192647.46526 | pgbench_accounts_pkey |       2246197248

 2017-02-04 08:17:28.553094+01 | 1486192648.55309 | pgbench_branches_pkey |          1826816
 2017-02-04 08:17:28.553094+01 | 1486192648.55309 | pgbench_tellers_pkey  |          7118848
 2017-02-04 08:17:28.553094+01 | 1486192648.55309 | pgbench_accounts_pkey |       2246197248

 2017-02-04 08:17:29.633992+01 | 1486192649.63399 | pgbench_branches_pkey |          1826816
 2017-02-04 08:17:29.633992+01 | 1486192649.63399 | pgbench_tellers_pkey  |          7118848
 2017-02-04 08:17:29.633992+01 | 1486192649.63399 | pgbench_accounts_pkey |       2246197248

 2017-02-04 08:17:30.737267+01 | 1486192650.73727 | pgbench_branches_pkey |          1826816
 2017-02-04 08:17:30.737267+01 | 1486192650.73727 | pgbench_tellers_pkey  |          7118848
 2017-02-04 08:17:30.737267+01 | 1486192650.73727 | pgbench_accounts_pkey |       2246197248

 2017-02-04 08:17:31.82506+01 | 1486192651.82506 | pgbench_branches_pkey |          1826816
 2017-02-04 08:17:31.82506+01 | 1486192651.82506 | pgbench_tellers_pkey  |          7118848
 2017-02-04 08:17:31.82506+01 | 1486192651.82506 | pgbench_accounts_pkey |       2246197248

 2017-02-04 08:17:32.907031+01 | 1486192652.90703 | pgbench_branches_pkey |          1826816
 2017-02-04 08:17:32.907031+01 | 1486192652.90703 | pgbench_tellers_pkey  |          7118848
 2017-02-04 08:17:32.907031+01 | 1486192652.90703 | pgbench_accounts_pkey |       2246197248

 2017-02-04 08:17:33.988928+01 | 1486192653.98893 | pgbench_branches_pkey |          1826816
 2017-02-04 08:17:33.988928+01 | 1486192653.98893 | pgbench_tellers_pkey  |          7118848
 2017-02-04 08:17:33.988928+01 | 1486192653.98893 | pgbench_accounts_pkey |       2246197248

 2017-02-04 08:17:35.086256+01 | 1486192655.08626 | pgbench_branches_pkey |          1826816
 2017-02-04 08:17:35.086256+01 | 1486192655.08626 | pgbench_tellers_pkey  |          7118848
 2017-02-04 08:17:35.086256+01 | 1486192655.08626 | pgbench_accounts_pkey |       2246197248

 2017-02-04 08:17:36.184985+01 | 1486192656.18498 | pgbench_branches_pkey |          1826816
 2017-02-04 08:17:36.184985+01 | 1486192656.18498 | pgbench_tellers_pkey  |          7118848
 2017-02-04 08:17:36.184985+01 | 1486192656.18498 | pgbench_accounts_pkey |       2246197248

 2017-02-04 08:17:37.274591+01 | 1486192657.27459 | pgbench_branches_pkey |          1826816
 2017-02-04 08:17:37.274591+01 | 1486192657.27459 | pgbench_tellers_pkey  |          7118848
 2017-02-04 08:17:37.274591+01 | 1486192657.27459 | pgbench_accounts_pkey |       2246197248

 2017-02-04 08:17:38.362129+01 | 1486192658.36213 | pgbench_branches_pkey |          1826816
 2017-02-04 08:17:38.362129+01 | 1486192658.36213 | pgbench_tellers_pkey  |          7118848
 2017-02-04 08:17:38.362129+01 | 1486192658.36213 | pgbench_accounts_pkey |       2246197248

 2017-02-04 08:17:39.45311+01 | 1486192659.45311 | pgbench_branches_pkey |          1826816
 2017-02-04 08:17:39.45311+01 | 1486192659.45311 | pgbench_tellers_pkey  |          7118848
 2017-02-04 08:17:39.45311+01 | 1486192659.45311 | pgbench_accounts_pkey |       2246197248

 2017-02-04 08:17:40.546003+01 | 1486192660.546 | pgbench_branches_pkey |          1826816
 2017-02-04 08:17:40.546003+01 | 1486192660.546 | pgbench_tellers_pkey  |          7118848
 2017-02-04 08:17:40.546003+01 | 1486192660.546 | pgbench_accounts_pkey |       2246197248

 2017-02-04 08:17:41.636482+01 | 1486192661.63648 | pgbench_branches_pkey |          1826816
 2017-02-04 08:17:41.636482+01 | 1486192661.63648 | pgbench_tellers_pkey  |          7118848
 2017-02-04 08:17:41.636482+01 | 1486192661.63648 | pgbench_accounts_pkey |       2246197248

 2017-02-04 08:17:42.730434+01 | 1486192662.73043 | pgbench_branches_pkey |          1826816
 2017-02-04 08:17:42.730434+01 | 1486192662.73043 | pgbench_tellers_pkey  |          7118848
 2017-02-04 08:17:42.730434+01 | 1486192662.73043 | pgbench_accounts_pkey |       2246197248

 2017-02-04 08:17:43.813828+01 | 1486192663.81383 | pgbench_branches_pkey |          1826816
 2017-02-04 08:17:43.813828+01 | 1486192663.81383 | pgbench_tellers_pkey  |          7118848
 2017-02-04 08:17:43.813828+01 | 1486192663.81383 | pgbench_accounts_pkey |       2246197248

 2017-02-04 08:17:44.904954+01 | 1486192664.90495 | pgbench_branches_pkey |          1826816
 2017-02-04 08:17:44.904954+01 | 1486192664.90495 | pgbench_tellers_pkey  |          7118848
 2017-02-04 08:17:44.904954+01 | 1486192664.90495 | pgbench_accounts_pkey |       2246197248

 2017-02-04 08:17:46.00219+01 | 1486192666.00219 | pgbench_branches_pkey |          1826816
 2017-02-04 08:17:46.00219+01 | 1486192666.00219 | pgbench_tellers_pkey  |          7118848
 2017-02-04 08:17:46.00219+01 | 1486192666.00219 | pgbench_accounts_pkey |       2246197248

 2017-02-04 08:17:47.102984+01 | 1486192667.10298 | pgbench_branches_pkey |          1826816
 2017-02-04 08:17:47.102984+01 | 1486192667.10298 | pgbench_tellers_pkey  |          7118848
 2017-02-04 08:17:47.102984+01 | 1486192667.10298 | pgbench_accounts_pkey |       2246197248

 2017-02-04 08:17:48.192732+01 | 1486192668.19273 | pgbench_branches_pkey |          1826816
 2017-02-04 08:17:48.192732+01 | 1486192668.19273 | pgbench_tellers_pkey  |          7118848
 2017-02-04 08:17:48.192732+01 | 1486192668.19273 | pgbench_accounts_pkey |       2246197248

 2017-02-04 08:17:49.294138+01 | 1486192669.29414 | pgbench_branches_pkey |          1826816
 2017-02-04 08:17:49.294138+01 | 1486192669.29414 | pgbench_tellers_pkey  |          7118848
 2017-02-04 08:17:49.294138+01 | 1486192669.29414 | pgbench_accounts_pkey |       2246197248

 2017-02-04 08:17:50.382487+01 | 1486192670.38249 | pgbench_branches_pkey |          1826816
 2017-02-04 08:17:50.382487+01 | 1486192670.38249 | pgbench_tellers_pkey  |          7118848
 2017-02-04 08:17:50.382487+01 | 1486192670.38249 | pgbench_accounts_pkey |       2246197248

 2017-02-04 08:17:51.473299+01 | 1486192671.4733 | pgbench_branches_pkey |          1826816
 2017-02-04 08:17:51.473299+01 | 1486192671.4733 | pgbench_tellers_pkey  |          7118848
 2017-02-04 08:17:51.473299+01 | 1486192671.4733 | pgbench_accounts_pkey |       2246197248

 2017-02-04 08:17:52.555362+01 | 1486192672.55536 | pgbench_branches_pkey |          1826816
 2017-02-04 08:17:52.555362+01 | 1486192672.55536 | pgbench_tellers_pkey  |          7118848
 2017-02-04 08:17:52.555362+01 | 1486192672.55536 | pgbench_accounts_pkey |       2246197248

 2017-02-04 08:17:53.639661+01 | 1486192673.63966 | pgbench_branches_pkey |          1826816
 2017-02-04 08:17:53.639661+01 | 1486192673.63966 | pgbench_tellers_pkey  |          7118848
 2017-02-04 08:17:53.639661+01 | 1486192673.63966 | pgbench_accounts_pkey |       2246197248

 2017-02-04 08:17:54.727153+01 | 1486192674.72715 | pgbench_branches_pkey |          1826816
 2017-02-04 08:17:54.727153+01 | 1486192674.72715 | pgbench_tellers_pkey  |          7118848
 2017-02-04 08:17:54.727153+01 | 1486192674.72715 | pgbench_accounts_pkey |       2246197248

 2017-02-04 08:17:55.81171+01 | 1486192675.81171 | pgbench_branches_pkey |          1826816
 2017-02-04 08:17:55.81171+01 | 1486192675.81171 | pgbench_tellers_pkey  |          7118848
 2017-02-04 08:17:55.81171+01 | 1486192675.81171 | pgbench_accounts_pkey |       2246197248

 2017-02-04 08:17:56.904002+01 | 1486192676.904 | pgbench_branches_pkey |          1826816
 2017-02-04 08:17:56.904002+01 | 1486192676.904 | pgbench_tellers_pkey  |          7118848
 2017-02-04 08:17:56.904002+01 | 1486192676.904 | pgbench_accounts_pkey |       2246197248

 2017-02-04 08:17:57.988133+01 | 1486192677.98813 | pgbench_branches_pkey |          1826816
 2017-02-04 08:17:57.988133+01 | 1486192677.98813 | pgbench_tellers_pkey  |          7118848
 2017-02-04 08:17:57.988133+01 | 1486192677.98813 | pgbench_accounts_pkey |       2246197248

 2017-02-04 08:17:59.072503+01 | 1486192679.0725 | pgbench_branches_pkey |          1826816
 2017-02-04 08:17:59.072503+01 | 1486192679.0725 | pgbench_tellers_pkey  |          7118848
 2017-02-04 08:17:59.072503+01 | 1486192679.0725 | pgbench_accounts_pkey |       2246197248

 2017-02-04 08:18:00.162203+01 | 1486192680.1622 | pgbench_branches_pkey |          1826816
 2017-02-04 08:18:00.162203+01 | 1486192680.1622 | pgbench_tellers_pkey  |          7118848
 2017-02-04 08:18:00.162203+01 | 1486192680.1622 | pgbench_accounts_pkey |       2246197248

 2017-02-04 08:18:01.256614+01 | 1486192681.25661 | pgbench_branches_pkey |          1826816
 2017-02-04 08:18:01.256614+01 | 1486192681.25661 | pgbench_tellers_pkey  |          7118848
 2017-02-04 08:18:01.256614+01 | 1486192681.25661 | pgbench_accounts_pkey |       2246197248

 2017-02-04 08:18:02.342584+01 | 1486192682.34258 | pgbench_branches_pkey |          1826816
 2017-02-04 08:18:02.342584+01 | 1486192682.34258 | pgbench_tellers_pkey  |          7118848
 2017-02-04 08:18:02.342584+01 | 1486192682.34258 | pgbench_accounts_pkey |       2246197248

 2017-02-04 08:18:03.441529+01 | 1486192683.44153 | pgbench_branches_pkey |          1826816
 2017-02-04 08:18:03.441529+01 | 1486192683.44153 | pgbench_tellers_pkey  |          7118848
 2017-02-04 08:18:03.441529+01 | 1486192683.44153 | pgbench_accounts_pkey |       2246197248

 2017-02-04 08:18:04.538872+01 | 1486192684.53887 | pgbench_branches_pkey |          1826816
 2017-02-04 08:18:04.538872+01 | 1486192684.53887 | pgbench_tellers_pkey  |          7118848
 2017-02-04 08:18:04.538872+01 | 1486192684.53887 | pgbench_accounts_pkey |       2246197248

 2017-02-04 08:18:05.621272+01 | 1486192685.62127 | pgbench_branches_pkey |          1826816
 2017-02-04 08:18:05.621272+01 | 1486192685.62127 | pgbench_tellers_pkey  |          7118848
 2017-02-04 08:18:05.621272+01 | 1486192685.62127 | pgbench_accounts_pkey |       2246197248

 2017-02-04 08:18:06.701289+01 | 1486192686.70129 | pgbench_branches_pkey |          1826816
 2017-02-04 08:18:06.701289+01 | 1486192686.70129 | pgbench_tellers_pkey  |          7118848
 2017-02-04 08:18:06.701289+01 | 1486192686.70129 | pgbench_accounts_pkey |       2246197248

 2017-02-04 08:18:07.786047+01 | 1486192687.78605 | pgbench_branches_pkey |          1826816
 2017-02-04 08:18:07.786047+01 | 1486192687.78605 | pgbench_tellers_pkey  |          7118848
 2017-02-04 08:18:07.786047+01 | 1486192687.78605 | pgbench_accounts_pkey |       2246197248

 2017-02-04 08:18:08.880353+01 | 1486192688.88035 | pgbench_branches_pkey |          1826816
 2017-02-04 08:18:08.880353+01 | 1486192688.88035 | pgbench_tellers_pkey  |          7118848
 2017-02-04 08:18:08.880353+01 | 1486192688.88035 | pgbench_accounts_pkey |       2246197248

 2017-02-04 08:18:09.9696+01 | 1486192689.9696 | pgbench_branches_pkey |          1826816
 2017-02-04 08:18:09.9696+01 | 1486192689.9696 | pgbench_tellers_pkey  |          7118848
 2017-02-04 08:18:09.9696+01 | 1486192689.9696 | pgbench_accounts_pkey |       2246197248

 2017-02-04 08:18:11.059143+01 | 1486192691.05914 | pgbench_branches_pkey |          1826816
 2017-02-04 08:18:11.059143+01 | 1486192691.05914 | pgbench_tellers_pkey  |          7118848
 2017-02-04 08:18:11.059143+01 | 1486192691.05914 | pgbench_accounts_pkey |       2246197248

 2017-02-04 08:18:12.151189+01 | 1486192692.15119 | pgbench_branches_pkey |          1826816
 2017-02-04 08:18:12.151189+01 | 1486192692.15119 | pgbench_tellers_pkey  |          7118848
 2017-02-04 08:18:12.151189+01 | 1486192692.15119 | pgbench_accounts_pkey |       2246197248

 2017-02-04 08:18:13.246061+01 | 1486192693.24606 | pgbench_branches_pkey |          1826816
 2017-02-04 08:18:13.246061+01 | 1486192693.24606 | pgbench_tellers_pkey  |          7118848
 2017-02-04 08:18:13.246061+01 | 1486192693.24606 | pgbench_accounts_pkey |       2246197248

 2017-02-04 08:18:14.339125+01 | 1486192694.33912 | pgbench_branches_pkey |          1826816
 2017-02-04 08:18:14.339125+01 | 1486192694.33912 | pgbench_tellers_pkey  |          7118848
 2017-02-04 08:18:14.339125+01 | 1486192694.33912 | pgbench_accounts_pkey |       2246197248

 2017-02-04 08:18:15.437091+01 | 1486192695.43709 | pgbench_branches_pkey |          1826816
 2017-02-04 08:18:15.437091+01 | 1486192695.43709 | pgbench_tellers_pkey  |          7118848
 2017-02-04 08:18:15.437091+01 | 1486192695.43709 | pgbench_accounts_pkey |       2246197248

 2017-02-04 08:18:16.528965+01 | 1486192696.52896 | pgbench_branches_pkey |          1826816
 2017-02-04 08:18:16.528965+01 | 1486192696.52896 | pgbench_tellers_pkey  |          7118848
 2017-02-04 08:18:16.528965+01 | 1486192696.52896 | pgbench_accounts_pkey |       2246197248

 2017-02-04 08:18:17.627256+01 | 1486192697.62726 | pgbench_branches_pkey |          1826816
 2017-02-04 08:18:17.627256+01 | 1486192697.62726 | pgbench_tellers_pkey  |          7118848
 2017-02-04 08:18:17.627256+01 | 1486192697.62726 | pgbench_accounts_pkey |       2246197248

 2017-02-04 08:18:18.724956+01 | 1486192698.72496 | pgbench_branches_pkey |          1826816
 2017-02-04 08:18:18.724956+01 | 1486192698.72496 | pgbench_tellers_pkey  |          7118848
 2017-02-04 08:18:18.724956+01 | 1486192698.72496 | pgbench_accounts_pkey |       2246197248

 2017-02-04 08:18:19.808212+01 | 1486192699.80821 | pgbench_branches_pkey |          1826816
 2017-02-04 08:18:19.808212+01 | 1486192699.80821 | pgbench_tellers_pkey  |          7118848
 2017-02-04 08:18:19.808212+01 | 1486192699.80821 | pgbench_accounts_pkey |       2246197248

 2017-02-04 08:18:20.890441+01 | 1486192700.89044 | pgbench_branches_pkey |          1826816
 2017-02-04 08:18:20.890441+01 | 1486192700.89044 | pgbench_tellers_pkey  |          7118848
 2017-02-04 08:18:20.890441+01 | 1486192700.89044 | pgbench_accounts_pkey |       2246197248

 2017-02-04 08:18:21.977562+01 | 1486192701.97756 | pgbench_branches_pkey |          1826816
 2017-02-04 08:18:21.977562+01 | 1486192701.97756 | pgbench_tellers_pkey  |          7118848
 2017-02-04 08:18:21.977562+01 | 1486192701.97756 | pgbench_accounts_pkey |       2246197248

 2017-02-04 08:18:23.064742+01 | 1486192703.06474 | pgbench_branches_pkey |          1826816
 2017-02-04 08:18:23.064742+01 | 1486192703.06474 | pgbench_tellers_pkey  |          7118848
 2017-02-04 08:18:23.064742+01 | 1486192703.06474 | pgbench_accounts_pkey |       2246197248

 2017-02-04 08:18:24.143068+01 | 1486192704.14307 | pgbench_branches_pkey |          1826816
 2017-02-04 08:18:24.143068+01 | 1486192704.14307 | pgbench_tellers_pkey  |          7118848
 2017-02-04 08:18:24.143068+01 | 1486192704.14307 | pgbench_accounts_pkey |       2246197248

 2017-02-04 08:18:25.226987+01 | 1486192705.22699 | pgbench_branches_pkey |          1826816
 2017-02-04 08:18:25.226987+01 | 1486192705.22699 | pgbench_tellers_pkey  |          7118848
 2017-02-04 08:18:25.226987+01 | 1486192705.22699 | pgbench_accounts_pkey |       2246197248

 2017-02-04 08:18:26.324535+01 | 1486192706.32453 | pgbench_branches_pkey |          1826816
 2017-02-04 08:18:26.324535+01 | 1486192706.32453 | pgbench_tellers_pkey  |          7118848
 2017-02-04 08:18:26.324535+01 | 1486192706.32453 | pgbench_accounts_pkey |       2246197248

 2017-02-04 08:18:27.416903+01 | 1486192707.4169 | pgbench_branches_pkey |          1826816
 2017-02-04 08:18:27.416903+01 | 1486192707.4169 | pgbench_tellers_pkey  |          7118848
 2017-02-04 08:18:27.416903+01 | 1486192707.4169 | pgbench_accounts_pkey |       2246197248

 2017-02-04 08:18:28.508018+01 | 1486192708.50802 | pgbench_branches_pkey |          1826816
 2017-02-04 08:18:28.508018+01 | 1486192708.50802 | pgbench_tellers_pkey  |          7118848
 2017-02-04 08:18:28.508018+01 | 1486192708.50802 | pgbench_accounts_pkey |       2246197248

 2017-02-04 08:18:29.606512+01 | 1486192709.60651 | pgbench_branches_pkey |          1826816
 2017-02-04 08:18:29.606512+01 | 1486192709.60651 | pgbench_tellers_pkey  |          7118848
 2017-02-04 08:18:29.606512+01 | 1486192709.60651 | pgbench_accounts_pkey |       2246197248

 2017-02-04 08:18:30.695199+01 | 1486192710.6952 | pgbench_branches_pkey |          1826816
 2017-02-04 08:18:30.695199+01 | 1486192710.6952 | pgbench_tellers_pkey  |          7118848
 2017-02-04 08:18:30.695199+01 | 1486192710.6952 | pgbench_accounts_pkey |       2246197248

 2017-02-04 08:18:31.784173+01 | 1486192711.78417 | pgbench_branches_pkey |          1826816
 2017-02-04 08:18:31.784173+01 | 1486192711.78417 | pgbench_tellers_pkey  |          7118848
 2017-02-04 08:18:31.784173+01 | 1486192711.78417 | pgbench_accounts_pkey |       2246197248

 2017-02-04 08:18:32.875359+01 | 1486192712.87536 | pgbench_branches_pkey |          1826816
 2017-02-04 08:18:32.875359+01 | 1486192712.87536 | pgbench_tellers_pkey  |          7118848
 2017-02-04 08:18:32.875359+01 | 1486192712.87536 | pgbench_accounts_pkey |       2246197248

 2017-02-04 08:18:33.954281+01 | 1486192713.95428 | pgbench_branches_pkey |          1826816
 2017-02-04 08:18:33.954281+01 | 1486192713.95428 | pgbench_tellers_pkey  |          7118848
 2017-02-04 08:18:33.954281+01 | 1486192713.95428 | pgbench_accounts_pkey |       2246197248

 2017-02-04 08:18:35.065689+01 | 1486192715.06569 | pgbench_branches_pkey |          1826816
 2017-02-04 08:18:35.065689+01 | 1486192715.06569 | pgbench_tellers_pkey  |          7118848
 2017-02-04 08:18:35.065689+01 | 1486192715.06569 | pgbench_accounts_pkey |       2246197248

 2017-02-04 08:18:36.17318+01 | 1486192716.17318 | pgbench_branches_pkey |          1826816
 2017-02-04 08:18:36.17318+01 | 1486192716.17318 | pgbench_tellers_pkey  |          7118848
 2017-02-04 08:18:36.17318+01 | 1486192716.17318 | pgbench_accounts_pkey |       2246197248

 2017-02-04 08:18:37.261182+01 | 1486192717.26118 | pgbench_branches_pkey |          1826816
 2017-02-04 08:18:37.261182+01 | 1486192717.26118 | pgbench_tellers_pkey  |          7118848
 2017-02-04 08:18:37.261182+01 | 1486192717.26118 | pgbench_accounts_pkey |       2246197248

 2017-02-04 08:18:38.369158+01 | 1486192718.36916 | pgbench_branches_pkey |          1826816
 2017-02-04 08:18:38.369158+01 | 1486192718.36916 | pgbench_tellers_pkey  |          7118848
 2017-02-04 08:18:38.369158+01 | 1486192718.36916 | pgbench_accounts_pkey |       2246197248

 2017-02-04 08:18:39.439915+01 | 1486192719.43991 | pgbench_branches_pkey |          1826816
 2017-02-04 08:18:39.439915+01 | 1486192719.43991 | pgbench_tellers_pkey  |          7118848
 2017-02-04 08:18:39.439915+01 | 1486192719.43991 | pgbench_accounts_pkey |       2246197248

 2017-02-04 08:18:40.520457+01 | 1486192720.52046 | pgbench_branches_pkey |          1826816
 2017-02-04 08:18:40.520457+01 | 1486192720.52046 | pgbench_tellers_pkey  |          7118848
 2017-02-04 08:18:40.520457+01 | 1486192720.52046 | pgbench_accounts_pkey |       2246197248

 2017-02-04 08:18:41.601521+01 | 1486192721.60152 | pgbench_branches_pkey |          1826816
 2017-02-04 08:18:41.601521+01 | 1486192721.60152 | pgbench_tellers_pkey  |          7118848
 2017-02-04 08:18:41.601521+01 | 1486192721.60152 | pgbench_accounts_pkey |       2246197248

 2017-02-04 08:18:42.683021+01 | 1486192722.68302 | pgbench_branches_pkey |          1826816
 2017-02-04 08:18:42.683021+01 | 1486192722.68302 | pgbench_tellers_pkey  |          7118848
 2017-02-04 08:18:42.683021+01 | 1486192722.68302 | pgbench_accounts_pkey |       2246197248

 2017-02-04 08:18:43.770134+01 | 1486192723.77013 | pgbench_branches_pkey |          1826816
 2017-02-04 08:18:43.770134+01 | 1486192723.77013 | pgbench_tellers_pkey  |          7118848
 2017-02-04 08:18:43.770134+01 | 1486192723.77013 | pgbench_accounts_pkey |       2246197248

 2017-02-04 08:18:44.855728+01 | 1486192724.85573 | pgbench_branches_pkey |          1826816
 2017-02-04 08:18:44.855728+01 | 1486192724.85573 | pgbench_tellers_pkey  |          7118848
 2017-02-04 08:18:44.855728+01 | 1486192724.85573 | pgbench_accounts_pkey |       2246197248

 2017-02-04 08:18:45.941794+01 | 1486192725.94179 | pgbench_branches_pkey |          1826816
 2017-02-04 08:18:45.941794+01 | 1486192725.94179 | pgbench_tellers_pkey  |          7118848
 2017-02-04 08:18:45.941794+01 | 1486192725.94179 | pgbench_accounts_pkey |       2246197248

 2017-02-04 08:18:47.022544+01 | 1486192727.02254 | pgbench_branches_pkey |          1826816
 2017-02-04 08:18:47.022544+01 | 1486192727.02254 | pgbench_tellers_pkey  |          7118848
 2017-02-04 08:18:47.022544+01 | 1486192727.02254 | pgbench_accounts_pkey |       2246197248

 2017-02-04 08:18:48.100234+01 | 1486192728.10023 | pgbench_branches_pkey |          1826816
 2017-02-04 08:18:48.100234+01 | 1486192728.10023 | pgbench_tellers_pkey  |          7118848
 2017-02-04 08:18:48.100234+01 | 1486192728.10023 | pgbench_accounts_pkey |       2246197248

