starting vacuum...end.
transaction type: <builtin: TPC-B (sort of)>
scaling factor: 1000
query mode: prepared
number of clients: 64
number of threads: 8
duration: 300 s
number of transactions actually processed: 8897607
latency average = 2.158 ms
tps = 29658.428361 (including connections establishing)
tps = 29658.813583 (excluding connections establishing)
