 2017-02-04 07:36:36.71107+01 | 1486190196.71107 | 44/D53FA000              |          295635492864

 2017-02-04 07:36:37.796458+01 | 1486190197.79646 | 44/E13EE598              |          295836771736

 2017-02-04 07:36:38.873276+01 | 1486190198.87328 | 44/F12FA408              |          296104207368

 2017-02-04 07:36:39.956589+01 | 1486190199.95659 | 44/FD2E3AB8              |          296305441464

 2017-02-04 07:36:41.053226+01 | 1486190201.05323 | 45/D7A6068               |          296578867304

 2017-02-04 07:36:42.135697+01 | 1486190202.1357 | 45/1CC3D760              |          296835340128

 2017-02-04 07:36:43.221605+01 | 1486190203.22161 | 45/2BECC618              |          297089680920

 2017-02-04 07:36:44.310212+01 | 1486190204.31021 | 45/39917AB0              |          297318578864

 2017-02-04 07:36:45.390253+01 | 1486190205.39025 | 45/48EADDF0              |          297576095216

 2017-02-04 07:36:46.472488+01 | 1486190206.47249 | 45/58B51DB0              |          297841008048

 2017-02-04 07:36:47.553139+01 | 1486190207.55314 | 45/66DA21B0              |          298078314928

 2017-02-04 07:36:48.63877+01 | 1486190208.63877 | 45/75C8F8D0              |          298328848592

 2017-02-04 07:36:49.724559+01 | 1486190209.72456 | 45/830B7510              |          298551309584

 2017-02-04 07:36:50.818583+01 | 1486190210.81858 | 45/918B79A0              |          298794580384

 2017-02-04 07:36:51.912251+01 | 1486190211.91225 | 45/A0495850              |          299041904720

 2017-02-04 07:36:52.995755+01 | 1486190212.99575 | 45/AE748350              |          299279614800

 2017-02-04 07:36:54.078666+01 | 1486190214.07867 | 45/BCB760A0              |          299518877856

 2017-02-04 07:36:55.167064+01 | 1486190215.16706 | 45/CAAB5A20              |          299752970784

 2017-02-04 07:36:56.261642+01 | 1486190216.26164 | 45/D9301A08              |          299996551688

 2017-02-04 07:36:57.352336+01 | 1486190217.35234 | 45/E75845C8              |          300234065352

 2017-02-04 07:36:58.432389+01 | 1486190218.43239 | 45/F55AFAD0              |          300469123792

 2017-02-04 07:36:59.519128+01 | 1486190219.51913 | 46/1C58EE8               |          300677435112

 2017-02-04 07:37:00.599742+01 | 1486190220.59974 | 46/F862C08               |          300908162056

 2017-02-04 07:37:01.684006+01 | 1486190221.68401 | 46/1C921FF8              |          301127075352

 2017-02-04 07:37:02.772108+01 | 1486190222.77211 | 46/28D86C50              |          301332982864

 2017-02-04 07:37:03.868426+01 | 1486190223.86843 | 46/362CC358              |          301556613976

 2017-02-04 07:37:04.956017+01 | 1486190224.95602 | 46/42F57DC8              |          301771095496

 2017-02-04 07:37:06.019474+01 | 1486190226.01947 | 46/4E3F5C80              |          301960486016

 2017-02-04 07:37:07.096734+01 | 1486190227.09673 | 46/58148238              |          302125449784

 2017-02-04 07:37:08.171824+01 | 1486190228.17182 | 46/5F67FF60              |          302248361824

 2017-02-04 07:37:09.235013+01 | 1486190229.23501 | 46/68B11B00              |          302404147968

 2017-02-04 07:37:10.307924+01 | 1486190230.30792 | 46/72A53628              |          302571140648

 2017-02-04 07:37:11.387349+01 | 1486190231.38735 | 46/7D47A158              |          302749557080

 2017-02-04 07:37:12.47304+01 | 1486190232.47304 | 46/8775DE78              |          302920359544

 2017-02-04 07:37:13.55772+01 | 1486190233.55772 | 46/91457830              |          303084959792

 2017-02-04 07:37:14.640368+01 | 1486190234.64037 | 46/9B739920              |          303255755040

 2017-02-04 07:37:15.71743+01 | 1486190235.71743 | 46/A50DDB50              |          303416859472

 2017-02-04 07:37:16.803399+01 | 1486190236.8034 | 46/AE0933E0              |          303567549408

 2017-02-04 07:37:17.895387+01 | 1486190237.89539 | 46/B7370628              |          303721547304

 2017-02-04 07:37:18.978813+01 | 1486190238.97881 | 46/BF94DD48              |          303861914952

 2017-02-04 07:37:20.06296+01 | 1486190240.06296 | 46/C7D8DE00              |          304000589312

 2017-02-04 07:37:21.140587+01 | 1486190241.14059 | 46/D1569618              |          304159823384

 2017-02-04 07:37:22.206736+01 | 1486190242.20674 | 46/D967C7F0              |          304295167984

 2017-02-04 07:37:23.290827+01 | 1486190243.29083 | 46/E0FF70E8              |          304422547688

 2017-02-04 07:37:24.37033+01 | 1486190244.37033 | 46/E87A8A60              |          304548055648

 2017-02-04 07:37:25.45698+01 | 1486190245.45698 | 46/F08D42E0              |          304683500256

 2017-02-04 07:37:26.541226+01 | 1486190246.54123 | 46/F8101C90              |          304809516176

 2017-02-04 07:37:27.619921+01 | 1486190247.61992 | 46/FF4C7B68              |          304930913128

 2017-02-04 07:37:28.704123+01 | 1486190248.70412 | 47/6F4A6F0               |          305059374832

 2017-02-04 07:37:29.778538+01 | 1486190249.77854 | 47/E35F348               |          305181094728

 2017-02-04 07:37:30.858025+01 | 1486190250.85803 | 47/150E4458              |          305295934552

 2017-02-04 07:37:31.945575+01 | 1486190251.94557 | 47/1BC672F0              |          305408668400

 2017-02-04 07:37:33.032908+01 | 1486190253.03291 | 47/2271C248              |          305520558664

 2017-02-04 07:37:34.118124+01 | 1486190254.11812 | 47/28E9F1F0              |          305629098480

 2017-02-04 07:37:35.209902+01 | 1486190255.2099 | 47/2FD7B178              |          305745342840

 2017-02-04 07:37:36.278932+01 | 1486190256.27893 | 47/364FE4B8              |          305853883576

 2017-02-04 07:37:37.351949+01 | 1486190257.35195 | 47/3C6BAFA0              |          305956368288

 2017-02-04 07:37:38.439388+01 | 1486190258.43939 | 47/426A0E08              |          306056924680

 2017-02-04 07:37:39.531985+01 | 1486190259.53199 | 47/48798370              |          306158601072

 2017-02-04 07:37:40.625683+01 | 1486190260.62568 | 47/4E81F368              |          306259817320

 2017-02-04 07:37:41.707006+01 | 1486190261.70701 | 47/541D3318              |          306353877784

 2017-02-04 07:37:42.793092+01 | 1486190262.79309 | 47/5A822F48              |          306461159240

 2017-02-04 07:37:43.865263+01 | 1486190263.86526 | 47/6041EB50              |          306557610832

 2017-02-04 07:37:44.938608+01 | 1486190264.93861 | 47/658A6758              |          306646247256

 2017-02-04 07:37:46.020111+01 | 1486190266.02011 | 47/6AE75EE8              |          306736226024

 2017-02-04 07:37:47.105652+01 | 1486190267.10565 | 47/7054F2F8              |          306827293432

 2017-02-04 07:37:48.193294+01 | 1486190268.19329 | 47/756F8F08              |          306912923400

 2017-02-04 07:37:49.281585+01 | 1486190269.28158 | 47/7A8106A8              |          306997954216

 2017-02-04 07:37:50.370719+01 | 1486190270.37072 | 47/7FF6D150              |          307089559888

 2017-02-04 07:37:51.431603+01 | 1486190271.4316 | 47/848569F8              |          307166013944

 2017-02-04 07:37:52.525214+01 | 1486190272.52521 | 47/89683D50              |          307247988048

 2017-02-04 07:37:53.614708+01 | 1486190273.61471 | 47/8DFC5BE8              |          307324804072

 2017-02-04 07:37:54.691127+01 | 1486190274.69113 | 47/92A17E10              |          307402735120

 2017-02-04 07:37:55.772334+01 | 1486190275.77233 | 47/97B78020              |          307488063520

 2017-02-04 07:37:56.83602+01 | 1486190276.83602 | 47/9C9BD650              |          307570136656

 2017-02-04 07:37:57.913622+01 | 1486190277.91362 | 47/A1294E90              |          307646516880

 2017-02-04 07:37:58.99482+01 | 1486190278.99482 | 47/A5972660              |          307720824416

 2017-02-04 07:38:00.08669+01 | 1486190280.08669 | 47/A913F140              |          307779334464

 2017-02-04 07:38:01.175478+01 | 1486190281.17548 | 47/AD2F6F48              |          307848245064

 2017-02-04 07:38:02.263779+01 | 1486190282.26378 | 47/B162DD08              |          307918724360

 2017-02-04 07:38:03.332499+01 | 1486190283.3325 | 47/B5AF3400              |          307990836224

 2017-02-04 07:38:04.411082+01 | 1486190284.41108 | 47/B98E5A78              |          308055792248

 2017-02-04 07:38:05.499017+01 | 1486190285.49902 | 47/BD6560E8              |          308120215784

 2017-02-04 07:38:06.595734+01 | 1486190286.59573 | 47/C199E030              |          308190765104

 2017-02-04 07:38:07.682894+01 | 1486190287.68289 | 47/C57B3FF8              |          308255866872

 2017-02-04 07:38:08.764532+01 | 1486190288.76453 | 47/C9447C30              |          308319386672

 2017-02-04 07:38:09.84216+01 | 1486190289.84216 | 47/CD1A17F8              |          308383717368

 2017-02-04 07:38:10.927484+01 | 1486190290.92748 | 47/D0F70DE8              |          308448529896

 2017-02-04 07:38:11.997993+01 | 1486190291.99799 | 47/D49341F0              |          308509098480

 2017-02-04 07:38:13.056636+01 | 1486190293.05664 | 47/D7D75828              |          308563892264

 2017-02-04 07:38:14.149189+01 | 1486190294.14919 | 47/DB465EE0              |          308621500128

 2017-02-04 07:38:15.247925+01 | 1486190295.24793 | 47/DEC16858              |          308679895128

 2017-02-04 07:38:16.328525+01 | 1486190296.32853 | 47/E1FDABB8              |          308734176184

 2017-02-04 07:38:17.418442+01 | 1486190297.41844 | 47/E57870C8              |          308792553672

 2017-02-04 07:38:18.516328+01 | 1486190298.51633 | 47/E90D32E8              |          308852634344

 2017-02-04 07:38:19.588017+01 | 1486190299.58802 | 47/EC64DAB8              |          308908710584

 2017-02-04 07:38:20.659517+01 | 1486190300.65952 | 47/EF6B91A8              |          308959482280

 2017-02-04 07:38:21.741025+01 | 1486190301.74102 | 47/F2684F60              |          309009600352

 2017-02-04 07:38:22.823215+01 | 1486190302.82322 | 47/F542F600              |          309057484288

 2017-02-04 07:38:23.897742+01 | 1486190303.89774 | 47/F8331958              |          309106776408

 2017-02-04 07:38:24.981066+01 | 1486190304.98107 | 47/FB5004D0              |          309159003344

 2017-02-04 07:38:26.062473+01 | 1486190306.06247 | 47/FE0F4780              |          309205092224

 2017-02-04 07:38:27.14644+01 | 1486190307.14644 | 48/CE08F0                |          309251148016

 2017-02-04 07:38:28.232322+01 | 1486190308.23232 | 48/3A6CD08               |          309298908424

 2017-02-04 07:38:29.317629+01 | 1486190309.31763 | 48/5F980B0               |          309337882800

 2017-02-04 07:38:30.405506+01 | 1486190310.40551 | 48/82EC650               |          309374928464

 2017-02-04 07:38:31.488312+01 | 1486190311.48831 | 48/A31A3F0               |          309408670704

 2017-02-04 07:38:32.577398+01 | 1486190312.5774 | 48/BAB13E0               |          309433406432

 2017-02-04 07:38:33.660426+01 | 1486190313.66043 | 48/E372DD8               |          309476142552

 2017-02-04 07:38:34.728969+01 | 1486190314.72897 | 48/10082DC0              |          309506616768

 2017-02-04 07:38:35.793576+01 | 1486190315.79358 | 48/11D66A38              |          309536909880

 2017-02-04 07:38:36.855722+01 | 1486190316.85572 | 48/13AC8F90              |          309567721360

 2017-02-04 07:38:37.936587+01 | 1486190317.93659 | 48/15652468              |          309596595304

 2017-02-04 07:38:39.021147+01 | 1486190319.02115 | 48/171D84B8              |          309625455800

 2017-02-04 07:38:40.100276+01 | 1486190320.10028 | 48/18BFB120              |          309652861216

 2017-02-04 07:38:41.180371+01 | 1486190321.18037 | 48/1A6EDD10              |          309681118480

 2017-02-04 07:38:42.262713+01 | 1486190322.26271 | 48/1C2171F0              |          309709599216

 2017-02-04 07:38:43.325121+01 | 1486190323.32512 | 48/1DF0C6E8              |          309739964136

 2017-02-04 07:38:44.404504+01 | 1486190324.4045 | 48/20183478              |          309776102520

 2017-02-04 07:38:45.486668+01 | 1486190325.48667 | 48/220E9DF8              |          309809028600

 2017-02-04 07:38:46.568249+01 | 1486190326.56825 | 48/2450C060              |          309846917216

 2017-02-04 07:38:47.652779+01 | 1486190327.65278 | 48/26286258              |          309877826136

 2017-02-04 07:38:48.753636+01 | 1486190328.75364 | 48/287908F0              |          309916666096

 2017-02-04 07:38:49.836006+01 | 1486190329.83601 | 48/2A6C32D0              |          309949379280

 2017-02-04 07:38:50.923126+01 | 1486190330.92313 | 48/2C8DB070              |          309985128560

 2017-02-04 07:38:52.00245+01 | 1486190332.00245 | 48/2EE64348              |          310024487752

 2017-02-04 07:38:53.072353+01 | 1486190333.07235 | 48/30EDA7F0              |          310058526704

 2017-02-04 07:38:54.144282+01 | 1486190334.14428 | 48/3301F6E0              |          310093412064

 2017-02-04 07:38:55.231882+01 | 1486190335.23188 | 48/35848800              |          310135523328

 2017-02-04 07:38:56.317897+01 | 1486190336.3179 | 48/377EC408              |          310168699912

 2017-02-04 07:38:57.399172+01 | 1486190337.39917 | 48/39495A30              |          310198753840

 2017-02-04 07:38:58.497776+01 | 1486190338.49778 | 48/3B8974C8              |          310236509384

 2017-02-04 07:38:59.598257+01 | 1486190339.59826 | 48/3E0E4BB8              |          310278769592

 2017-02-04 07:39:00.68752+01 | 1486190340.68752 | 48/40E65E58              |          310326484568

 2017-02-04 07:39:01.756226+01 | 1486190341.75623 | 48/43CE03A8              |          310375220136

 2017-02-04 07:39:02.849156+01 | 1486190342.84916 | 48/46144628              |          310413379112

 2017-02-04 07:39:03.941151+01 | 1486190343.94115 | 48/48082188              |          310446137736

 2017-02-04 07:39:05.021721+01 | 1486190345.02172 | 48/49C00D28              |          310474968360

 2017-02-04 07:39:06.098244+01 | 1486190346.09824 | 48/4B7CFCE8              |          310504127720

 2017-02-04 07:39:07.177188+01 | 1486190347.17719 | 48/4CB9F570              |          310524900720

 2017-02-04 07:39:08.272869+01 | 1486190348.27287 | 48/4E41E2F0              |          310550586096

 2017-02-04 07:39:09.356935+01 | 1486190349.35694 | 48/4F9CBC68              |          310573317224

 2017-02-04 07:39:10.441041+01 | 1486190350.44104 | 48/5101B858              |          310596712536

 2017-02-04 07:39:11.527286+01 | 1486190351.52729 | 48/52980398              |          310623339416

 2017-02-04 07:39:12.60461+01 | 1486190352.60461 | 48/53DB2D60              |          310644518240

 2017-02-04 07:39:13.691062+01 | 1486190353.69106 | 48/552FEFE8              |          310666850280

 2017-02-04 07:39:14.776195+01 | 1486190354.7762 | 48/56AD8A78              |          310691859064

 2017-02-04 07:39:15.843236+01 | 1486190355.84324 | 48/58215258              |          310716224088

 2017-02-04 07:39:16.922256+01 | 1486190356.92226 | 48/59927FD8              |          310740418520

 2017-02-04 07:39:18.011978+01 | 1486190358.01198 | 48/5B1BA3F0              |          310766183408

 2017-02-04 07:39:19.09257+01 | 1486190359.09257 | 48/5CD77808              |          310795270152

 2017-02-04 07:39:20.175437+01 | 1486190360.17544 | 48/5E6950C8              |          310821605576

 2017-02-04 07:39:21.251112+01 | 1486190361.25111 | 48/600E3C28              |          310849190952

 2017-02-04 07:39:22.333047+01 | 1486190362.33305 | 48/61CD3890              |          310878484624

 2017-02-04 07:39:23.409282+01 | 1486190363.40928 | 48/6364D1A8              |          310905196968

 2017-02-04 07:39:24.485531+01 | 1486190364.48553 | 48/64F34CF8              |          310931311864

 2017-02-04 07:39:25.568502+01 | 1486190365.5685 | 48/66A79650              |          310959904336

 2017-02-04 07:39:26.63543+01 | 1486190366.63543 | 48/68430078              |          310986866808

 2017-02-04 07:39:27.721554+01 | 1486190367.72155 | 48/69D7F768              |          311013406568

 2017-02-04 07:39:28.805331+01 | 1486190368.80533 | 48/6B5F5AB8              |          311039056568

 2017-02-04 07:39:29.897029+01 | 1486190369.89703 | 48/6D0CEA18              |          311067208216

 2017-02-04 07:39:30.96934+01 | 1486190370.96934 | 48/6EA45BA0              |          311093910432

 2017-02-04 07:39:32.059347+01 | 1486190372.05935 | 48/7026FAB0              |          311119248048

 2017-02-04 07:39:33.141933+01 | 1486190373.14193 | 48/71A5DF28              |          311144341288

 2017-02-04 07:39:34.232071+01 | 1486190374.23207 | 48/73545288              |          311172551304

 2017-02-04 07:39:35.312549+01 | 1486190375.31255 | 48/74C1BD80              |          311196499328

 2017-02-04 07:39:36.387183+01 | 1486190376.38718 | 48/763C57F8              |          311221311480

 2017-02-04 07:39:37.464743+01 | 1486190377.46474 | 48/77C4A7D8              |          311247022040

 2017-02-04 07:39:38.552838+01 | 1486190378.55284 | 48/793FA9F0              |          311271860720

 2017-02-04 07:39:39.643095+01 | 1486190379.6431 | 48/7AAD30E8              |          311295815912

 2017-02-04 07:39:40.72967+01 | 1486190380.72967 | 48/7C295C98              |          311320730776

 2017-02-04 07:39:41.818568+01 | 1486190381.81857 | 48/7DBCF7E0              |          311347181536

 2017-02-04 07:39:42.90103+01 | 1486190382.90103 | 48/7F2C8A78              |          311371270776

 2017-02-04 07:39:43.983972+01 | 1486190383.98397 | 48/807AC048              |          311393173576

 2017-02-04 07:39:45.073645+01 | 1486190385.07365 | 48/81DAD4B0              |          311416247472

 2017-02-04 07:39:46.155069+01 | 1486190386.15507 | 48/834DD058              |          311440560216

 2017-02-04 07:39:47.222476+01 | 1486190387.22248 | 48/84861650              |          311461025360

 2017-02-04 07:39:48.306884+01 | 1486190388.30688 | 48/85E0DB38              |          311483751224

 2017-02-04 07:39:49.390742+01 | 1486190389.39074 | 48/875838F0              |          311508351216

 2017-02-04 07:39:50.46766+01 | 1486190390.46766 | 48/88A4F550              |          311530157392

 2017-02-04 07:39:51.545331+01 | 1486190391.54533 | 48/8A06FDB0              |          311553359280

 2017-02-04 07:39:52.628444+01 | 1486190392.62844 | 48/8B641708              |          311576237832

 2017-02-04 07:39:53.710315+01 | 1486190393.71031 | 48/8CDACB80              |          311600794496

 2017-02-04 07:39:54.771276+01 | 1486190394.77128 | 48/8E31A750              |          311623264080

 2017-02-04 07:39:55.860192+01 | 1486190395.86019 | 48/8F8D4EB0              |          311646047920

 2017-02-04 07:39:56.948278+01 | 1486190396.94828 | 48/90E04318              |          311668261656

 2017-02-04 07:39:58.038736+01 | 1486190398.03874 | 48/9237D388              |          311690777480

 2017-02-04 07:39:59.138505+01 | 1486190399.1385 | 48/938E7300              |          311713231616

 2017-02-04 07:40:00.216436+01 | 1486190400.21644 | 48/94D77C20              |          311734795968

 2017-02-04 07:40:01.297568+01 | 1486190401.29757 | 48/96278808              |          311756818440

 2017-02-04 07:40:02.383508+01 | 1486190402.38351 | 48/97762DE8              |          311778749928

 2017-02-04 07:40:03.464675+01 | 1486190403.46467 | 48/98B4B2A8              |          311799624360

 2017-02-04 07:40:04.560805+01 | 1486190404.56081 | 48/9A2251A8              |          311823585704

 2017-02-04 07:40:05.635018+01 | 1486190405.63502 | 48/9B50C2B0              |          311843406512

 2017-02-04 07:40:06.715831+01 | 1486190406.71583 | 48/9CA678C8              |          311865800904

 2017-02-04 07:40:07.806259+01 | 1486190407.80626 | 48/9DE6CDF8              |          311886794232

 2017-02-04 07:40:08.896624+01 | 1486190408.89662 | 48/9F1B6BC0              |          311907019712

 2017-02-04 07:40:09.982158+01 | 1486190409.98216 | 48/A0685B90              |          311928839056

 2017-02-04 07:40:11.058703+01 | 1486190411.0587 | 48/A19CDB18              |          311949056792

 2017-02-04 07:40:12.148981+01 | 1486190412.14898 | 48/A2DE63A0              |          311970128800

 2017-02-04 07:40:13.226789+01 | 1486190413.22679 | 48/A416C888              |          311990601864

 2017-02-04 07:40:14.307315+01 | 1486190414.30732 | 48/A552BBE0              |          312011308000

 2017-02-04 07:40:15.389333+01 | 1486190415.38933 | 48/A681C580              |          312031167872

 2017-02-04 07:40:16.473082+01 | 1486190416.47308 | 48/A7CF7DC8              |          312053038536

 2017-02-04 07:40:17.55167+01 | 1486190417.55167 | 48/A9097010              |          312073613328

 2017-02-04 07:40:18.631263+01 | 1486190418.63126 | 48/AA36EF68              |          312093372264

 2017-02-04 07:40:19.71796+01 | 1486190419.71796 | 48/AB741BD0              |          312114158544

 2017-02-04 07:40:20.802736+01 | 1486190420.80274 | 48/AC984F50              |          312133308240

 2017-02-04 07:40:21.892487+01 | 1486190421.89249 | 48/ADB776C0              |          312152127168

 2017-02-04 07:40:22.978531+01 | 1486190422.97853 | 48/AEE0A0E0              |          312171602144

 2017-02-04 07:40:24.065283+01 | 1486190424.06528 | 48/B0177E40              |          312191974976

 2017-02-04 07:40:25.139899+01 | 1486190425.1399 | 48/B13E8148              |          312211308872

 2017-02-04 07:40:26.21897+01 | 1486190426.21897 | 48/B254F370              |          312229557104

 2017-02-04 07:40:27.29656+01 | 1486190427.29656 | 48/B3689E40              |          312247623232

 2017-02-04 07:40:28.382089+01 | 1486190428.38209 | 48/B48ED968              |          312266905960

 2017-02-04 07:40:29.458854+01 | 1486190429.45885 | 48/B5A39FD8              |          312285044696

 2017-02-04 07:40:30.544195+01 | 1486190430.54419 | 48/B6B1B1C8              |          312302744008

 2017-02-04 07:40:31.628491+01 | 1486190431.62849 | 48/B7C188A0              |          312320559264

 2017-02-04 07:40:32.709914+01 | 1486190432.70991 | 48/B8DCC780              |          312339122048

 2017-02-04 07:40:33.795765+01 | 1486190433.79576 | 48/B9BE9908              |          312353921288

 2017-02-04 07:40:34.873785+01 | 1486190434.87379 | 48/BA8EAC90              |          312367557776

 2017-02-04 07:40:35.942451+01 | 1486190435.94245 | 48/BB705270              |          312382345840

 2017-02-04 07:40:37.010547+01 | 1486190437.01055 | 48/BC47AD30              |          312396459312

 2017-02-04 07:40:38.101065+01 | 1486190438.10106 | 48/BD1E0960              |          312410507616

 2017-02-04 07:40:39.190032+01 | 1486190439.19003 | 48/BDD31AA8              |          312422374056

 2017-02-04 07:40:40.274037+01 | 1486190440.27404 | 48/BEF43BE8              |          312441322472

 2017-02-04 07:40:41.355196+01 | 1486190441.3552 | 48/BFF0E580              |          312457880960

 2017-02-04 07:40:42.431915+01 | 1486190442.43192 | 48/C0F73B68              |          312475073384

 2017-02-04 07:40:43.506652+01 | 1486190443.50665 | 48/C2142398              |          312493745048

 2017-02-04 07:40:44.581347+01 | 1486190444.58135 | 48/C31640D0              |          312510660816

 2017-02-04 07:40:45.668285+01 | 1486190445.66828 | 48/C41FA6A0              |          312528053920

 2017-02-04 07:40:46.752457+01 | 1486190446.75246 | 48/C529F9B8              |          312545507768

 2017-02-04 07:40:47.840659+01 | 1486190447.84066 | 48/C62F4BD0              |          312562633680

 2017-02-04 07:40:48.922933+01 | 1486190448.92293 | 48/C75B6B10              |          312582302480

 2017-02-04 07:40:49.987199+01 | 1486190449.9872 | 48/C853B1C0              |          312598573504

 2017-02-04 07:40:51.06697+01 | 1486190451.06697 | 48/C95AA260              |          312615805536

 2017-02-04 07:40:52.157629+01 | 1486190452.15763 | 48/CA4DAAA0              |          312631732896

 2017-02-04 07:40:53.245115+01 | 1486190453.24512 | 48/CB3646D0              |          312646977232

 2017-02-04 07:40:54.313856+01 | 1486190454.31386 | 48/CC079008              |          312660693000

 2017-02-04 07:40:55.3943+01 | 1486190455.3943 | 48/CD1265F8              |          312678180344

 2017-02-04 07:40:56.471628+01 | 1486190456.47163 | 48/CE32DBC0              |          312697084864

 2017-02-04 07:40:57.545413+01 | 1486190457.54541 | 48/CF83D208              |          312719168008

 2017-02-04 07:40:58.62301+01 | 1486190458.62301 | 48/D0DAA1B0              |          312741634480

 2017-02-04 07:40:59.701002+01 | 1486190459.701 | 48/D25E7820              |          312767051808

 2017-02-04 07:41:00.780583+01 | 1486190460.78058 | 48/D44FD960              |          312799648096

 2017-02-04 07:41:01.878601+01 | 1486190461.8786 | 48/D62B8C10              |          312830823440

 2017-02-04 07:41:02.972206+01 | 1486190462.97221 | 48/D84EEF78              |          312866697080

 2017-02-04 07:41:04.036897+01 | 1486190464.0369 | 48/DA86B4B8              |          312903906488

 2017-02-04 07:41:05.125113+01 | 1486190465.12511 | 48/DCCC2F48              |          312942014280

 2017-02-04 07:41:06.211494+01 | 1486190466.21149 | 48/DF2D8A60              |          312981949024

 2017-02-04 07:41:07.283349+01 | 1486190467.28335 | 48/E1A83CB8              |          313023544504

 2017-02-04 07:41:08.353289+01 | 1486190468.35329 | 48/E3DD76C8              |          313060587208

 2017-02-04 07:41:09.442945+01 | 1486190469.44295 | 48/E643B578              |          313100842360

 2017-02-04 07:41:10.536749+01 | 1486190470.53675 | 48/E8E93D30              |          313145244976

 2017-02-04 07:41:11.622431+01 | 1486190471.62243 | 48/EB4E1148              |          313185407304

 2017-02-04 07:41:12.709742+01 | 1486190472.70974 | 48/ECB39500              |          313208837376

 2017-02-04 07:41:13.785544+01 | 1486190473.78554 | 48/EDE03CC8              |          313228541128

 2017-02-04 07:41:14.871031+01 | 1486190474.87103 | 48/EF09D2C8              |          313248043720

 2017-02-04 07:41:15.957785+01 | 1486190475.95778 | 48/F02E6CF8              |          313267219704

 2017-02-04 07:41:17.048578+01 | 1486190477.04858 | 48/F14CCE80              |          313285987968

 2017-02-04 07:41:18.133379+01 | 1486190478.13338 | 48/F2580910              |          313303501072

 2017-02-04 07:41:19.214856+01 | 1486190479.21486 | 48/F33F8458              |          313318671448

 2017-02-04 07:41:20.290191+01 | 1486190480.29019 | 48/F42CA110              |          313334210832

 2017-02-04 07:41:21.356407+01 | 1486190481.35641 | 48/F4FCA9F0              |          313347844592

 2017-02-04 07:41:22.432676+01 | 1486190482.43268 | 48/F5D75DE0              |          313362177504

 2017-02-04 07:41:23.508898+01 | 1486190483.5089 | 48/F6C16F38              |          313377517368

 2017-02-04 07:41:24.590256+01 | 1486190484.59026 | 48/F7EBFA68              |          313397082728

 2017-02-04 07:41:25.671166+01 | 1486190485.67117 | 48/F9136D10              |          313416445200

 2017-02-04 07:41:26.756144+01 | 1486190486.75614 | 48/FA0755C0              |          313432430016

 2017-02-04 07:41:27.831372+01 | 1486190487.83137 | 48/FAC1D970              |          313444653424

 2017-02-04 07:41:28.916448+01 | 1486190488.91645 | 48/FBA93498              |          313459815576

 2017-02-04 07:41:29.999111+01 | 1486190489.99911 | 48/FC899830              |          313474521136

 2017-02-04 07:41:31.085608+01 | 1486190491.08561 | 48/FD477268              |          313486963304

 2017-02-04 07:41:32.173654+01 | 1486190492.17365 | 48/FE31E530              |          313502328112

 2017-02-04 07:41:33.262432+01 | 1486190493.26243 | 48/FF025918              |          313515989272

 2017-02-04 07:41:34.340506+01 | 1486190494.34051 | 48/FFF8A428              |          313532130344

 2017-02-04 07:41:35.42924+01 | 1486190495.42924 | 49/10229D8               |          313549531608

 2017-02-04 07:41:36.51201+01 | 1486190496.51201 | 49/225B930               |          313568639280

