 2017-02-06 13:26:10.014932+01 | 1486383970.01493 |                 0 |              12 |                153580 |                 2691 |            8800737 |       1562445 |            15360 |        33328854 |                     0 |      31592385 | 2017-02-06 12:24:33.04114+01

 2017-02-06 13:26:11.092097+01 | 1486383971.0921 |                 0 |              12 |                153580 |                 2691 |            8800737 |       1562445 |            15360 |        33328854 |                     0 |      31600688 | 2017-02-06 12:24:33.04114+01

 2017-02-06 13:26:12.182808+01 | 1486383972.18281 |                 0 |              12 |                153580 |                 2691 |            8800737 |       1562445 |            15360 |        33328854 |                     0 |      31610292 | 2017-02-06 12:24:33.04114+01

 2017-02-06 13:26:13.274138+01 | 1486383973.27414 |                 0 |              12 |                153580 |                 2691 |            8800737 |       1562445 |            15360 |        33328854 |                     0 |      31619548 | 2017-02-06 12:24:33.04114+01

 2017-02-06 13:26:14.366708+01 | 1486383974.36671 |                 0 |              12 |                153580 |                 2691 |            8800737 |       1562445 |            15360 |        33328854 |                     0 |      31630873 | 2017-02-06 12:24:33.04114+01

 2017-02-06 13:26:15.449751+01 | 1486383975.44975 |                 0 |              12 |                153580 |                 2691 |            8800737 |       1562445 |            15360 |        33328854 |                     0 |      31642819 | 2017-02-06 12:24:33.04114+01

 2017-02-06 13:26:16.528484+01 | 1486383976.52848 |                 0 |              12 |                153580 |                 2691 |            8800737 |       1562445 |            15360 |        33328854 |                     0 |      31657491 | 2017-02-06 12:24:33.04114+01

 2017-02-06 13:26:17.612333+01 | 1486383977.61233 |                 0 |              12 |                153580 |                 2691 |            8800737 |       1562445 |            15360 |        33328854 |                     0 |      31669987 | 2017-02-06 12:24:33.04114+01

 2017-02-06 13:26:18.688217+01 | 1486383978.68822 |                 0 |              12 |                153580 |                 2691 |            8800737 |       1562445 |            15360 |        33328854 |                     0 |      31682444 | 2017-02-06 12:24:33.04114+01

 2017-02-06 13:26:19.766105+01 | 1486383979.7661 |                 0 |              12 |                153580 |                 2691 |            8800737 |       1562445 |            15360 |        33328854 |                     0 |      31698225 | 2017-02-06 12:24:33.04114+01

 2017-02-06 13:26:20.84513+01 | 1486383980.84513 |                 0 |              12 |                153580 |                 2691 |            8800737 |       1562445 |            15360 |        33328854 |                     0 |      31710396 | 2017-02-06 12:24:33.04114+01

 2017-02-06 13:26:21.929991+01 | 1486383981.92999 |                 0 |              12 |                153580 |                 2691 |            8800737 |       1562445 |            15360 |        33328854 |                     0 |      31724190 | 2017-02-06 12:24:33.04114+01

 2017-02-06 13:26:23.009888+01 | 1486383983.00989 |                 0 |              12 |                153580 |                 2691 |            8800737 |       1562445 |            15360 |        33328854 |                     0 |      31735139 | 2017-02-06 12:24:33.04114+01

 2017-02-06 13:26:24.088548+01 | 1486383984.08855 |                 0 |              12 |                153580 |                 2691 |            8800737 |       1562497 |            15360 |        33328854 |                     0 |      31746886 | 2017-02-06 12:24:33.04114+01

 2017-02-06 13:26:25.165492+01 | 1486383985.16549 |                 0 |              12 |                153580 |                 2691 |            8800737 |       1562620 |            15360 |        33328854 |                     0 |      31760963 | 2017-02-06 12:24:33.04114+01

 2017-02-06 13:26:26.249324+01 | 1486383986.24932 |                 0 |              12 |                153580 |                 2691 |            8800737 |       1562720 |            15360 |        33328854 |                     0 |      31774409 | 2017-02-06 12:24:33.04114+01

 2017-02-06 13:26:27.326623+01 | 1486383987.32662 |                 0 |              12 |                153580 |                 2691 |            8800737 |       1562833 |            15360 |        33328854 |                     0 |      31784670 | 2017-02-06 12:24:33.04114+01

 2017-02-06 13:26:28.405683+01 | 1486383988.40568 |                 0 |              12 |                153580 |                 2691 |            8800737 |       1562951 |            15360 |        33328854 |                     0 |      31799685 | 2017-02-06 12:24:33.04114+01

 2017-02-06 13:26:29.484547+01 | 1486383989.48455 |                 0 |              12 |                153580 |                 2691 |            8800737 |       1563066 |            15360 |        33328854 |                     0 |      31811575 | 2017-02-06 12:24:33.04114+01

 2017-02-06 13:26:30.562974+01 | 1486383990.56297 |                 0 |              12 |                153580 |                 2691 |            8800737 |       1563279 |            15360 |        33328854 |                     0 |      31826677 | 2017-02-06 12:24:33.04114+01

 2017-02-06 13:26:31.644351+01 | 1486383991.64435 |                 0 |              12 |                153580 |                 2691 |            8800737 |       1563497 |            15360 |        33328854 |                     0 |      31839414 | 2017-02-06 12:24:33.04114+01

 2017-02-06 13:26:32.719003+01 | 1486383992.719 |                 0 |              12 |                153580 |                 2691 |            8800737 |       1563691 |            15360 |        33328854 |                     0 |      31851261 | 2017-02-06 12:24:33.04114+01

 2017-02-06 13:26:33.796065+01 | 1486383993.79607 |                 0 |              12 |                153580 |                 2691 |            8800737 |       1563943 |            15360 |        33328854 |                     0 |      31866282 | 2017-02-06 12:24:33.04114+01

 2017-02-06 13:26:34.862743+01 | 1486383994.86274 |                 0 |              12 |                153580 |                 2691 |            8800737 |       1564131 |            15360 |        33328854 |                     0 |      31876105 | 2017-02-06 12:24:33.04114+01

 2017-02-06 13:26:35.926913+01 | 1486383995.92691 |                 0 |              12 |                153580 |                 2691 |            8800737 |       1564405 |            15360 |        33328854 |                     0 |      31888694 | 2017-02-06 12:24:33.04114+01

 2017-02-06 13:26:37.000176+01 | 1486383997.00018 |                 0 |              12 |                153580 |                 2691 |            8800737 |       1564689 |            15360 |        33328854 |                     0 |      31902670 | 2017-02-06 12:24:33.04114+01

 2017-02-06 13:26:38.078882+01 | 1486383998.07888 |                 0 |              12 |                153580 |                 2691 |            8800737 |       1565005 |            15360 |        33328854 |                     0 |      31917044 | 2017-02-06 12:24:33.04114+01

 2017-02-06 13:26:39.157459+01 | 1486383999.15746 |                 0 |              12 |                153580 |                 2691 |            8800737 |       1565505 |            15365 |        33328854 |                     0 |      31929948 | 2017-02-06 12:24:33.04114+01

 2017-02-06 13:26:40.235787+01 | 1486384000.23579 |                 0 |              12 |                153580 |                 2691 |            8800737 |       1566105 |            15371 |        33328854 |                     0 |      31945202 | 2017-02-06 12:24:33.04114+01

 2017-02-06 13:26:41.31529+01 | 1486384001.31529 |                 0 |              12 |                153580 |                 2691 |            8800737 |       1566605 |            15376 |        33328854 |                     0 |      31958940 | 2017-02-06 12:24:33.04114+01

 2017-02-06 13:26:42.39109+01 | 1486384002.39109 |                 0 |              12 |                153580 |                 2691 |            8800737 |       1567105 |            15381 |        33328854 |                     0 |      31970472 | 2017-02-06 12:24:33.04114+01

 2017-02-06 13:26:43.470803+01 | 1486384003.4708 |                 0 |              12 |                153580 |                 2691 |            8800737 |       1567705 |            15387 |        33328854 |                     0 |      31986363 | 2017-02-06 12:24:33.04114+01

 2017-02-06 13:26:44.552295+01 | 1486384004.55229 |                 0 |              12 |                153580 |                 2691 |            8800737 |       1568205 |            15392 |        33328854 |                     0 |      31999674 | 2017-02-06 12:24:33.04114+01

 2017-02-06 13:26:45.630869+01 | 1486384005.63087 |                 0 |              12 |                153580 |                 2691 |            8800737 |       1568705 |            15397 |        33328854 |                     0 |      32012713 | 2017-02-06 12:24:33.04114+01

 2017-02-06 13:26:46.71437+01 | 1486384006.71437 |                 0 |              12 |                153580 |                 2691 |            8800737 |       1569305 |            15403 |        33328854 |                     0 |      32027776 | 2017-02-06 12:24:33.04114+01

 2017-02-06 13:26:47.796023+01 | 1486384007.79602 |                 0 |              12 |                153580 |                 2691 |            8800737 |       1569805 |            15408 |        33328854 |                     0 |      32039115 | 2017-02-06 12:24:33.04114+01

 2017-02-06 13:26:48.876727+01 | 1486384008.87673 |                 0 |              12 |                153580 |                 2691 |            8800737 |       1570305 |            15413 |        33328854 |                     0 |      32051863 | 2017-02-06 12:24:33.04114+01

 2017-02-06 13:26:49.954889+01 | 1486384009.95489 |                 0 |              12 |                153580 |                 2691 |            8800737 |       1570905 |            15419 |        33328854 |                     0 |      32067263 | 2017-02-06 12:24:33.04114+01

 2017-02-06 13:26:51.018208+01 | 1486384011.01821 |                 0 |              12 |                153580 |                 2691 |            8800737 |       1571405 |            15424 |        33328854 |                     0 |      32080804 | 2017-02-06 12:24:33.04114+01

 2017-02-06 13:26:52.095526+01 | 1486384012.09553 |                 0 |              12 |                153580 |                 2691 |            8800737 |       1571905 |            15429 |        33328854 |                     0 |      32092488 | 2017-02-06 12:24:33.04114+01

 2017-02-06 13:26:53.179094+01 | 1486384013.17909 |                 0 |              12 |                153580 |                 2691 |            8800737 |       1572505 |            15435 |        33328854 |                     0 |      32107254 | 2017-02-06 12:24:33.04114+01

 2017-02-06 13:26:54.262068+01 | 1486384014.26207 |                 0 |              12 |                153580 |                 2691 |            8800737 |       1573005 |            15440 |        33328854 |                     0 |      32119259 | 2017-02-06 12:24:33.04114+01

 2017-02-06 13:26:55.33819+01 | 1486384015.33819 |                 0 |              12 |                153580 |                 2691 |            8800737 |       1573505 |            15445 |        33328854 |                     0 |      32131035 | 2017-02-06 12:24:33.04114+01

 2017-02-06 13:26:56.410658+01 | 1486384016.41066 |                 0 |              12 |                153580 |                 2691 |            8800737 |       1574105 |            15451 |        33328854 |                     0 |      32144211 | 2017-02-06 12:24:33.04114+01

 2017-02-06 13:26:57.486434+01 | 1486384017.48643 |                 0 |              12 |                153580 |                 2691 |            8800737 |       1574605 |            15456 |        33328854 |                     0 |      32156598 | 2017-02-06 12:24:33.04114+01

 2017-02-06 13:26:58.564815+01 | 1486384018.56482 |                 0 |              12 |                153580 |                 2691 |            8800737 |       1575105 |            15461 |        33328854 |                     0 |      32166311 | 2017-02-06 12:24:33.04114+01

 2017-02-06 13:26:59.645848+01 | 1486384019.64585 |                 0 |              12 |                153580 |                 2691 |            8800737 |       1575705 |            15467 |        33328854 |                     0 |      32180882 | 2017-02-06 12:24:33.04114+01

 2017-02-06 13:27:00.720666+01 | 1486384020.72067 |                 0 |              12 |                153580 |                 2691 |            8800737 |       1576205 |            15472 |        33328854 |                     0 |      32191173 | 2017-02-06 12:24:33.04114+01

 2017-02-06 13:27:01.807927+01 | 1486384021.80793 |                 0 |              12 |                153580 |                 2691 |            8800737 |       1576705 |            15477 |        33328854 |                     0 |      32201837 | 2017-02-06 12:24:33.04114+01

 2017-02-06 13:27:02.881459+01 | 1486384022.88146 |                 0 |              12 |                153580 |                 2691 |            8800737 |       1577305 |            15483 |        33328854 |                     0 |      32214301 | 2017-02-06 12:24:33.04114+01

 2017-02-06 13:27:03.970028+01 | 1486384023.97003 |                 0 |              12 |                153580 |                 2691 |            8800737 |       1577805 |            15488 |        33328854 |                     0 |      32223259 | 2017-02-06 12:24:33.04114+01

 2017-02-06 13:27:05.04771+01 | 1486384025.04771 |                 0 |              12 |                153580 |                 2691 |            8800737 |       1578305 |            15493 |        33328854 |                     0 |      32233800 | 2017-02-06 12:24:33.04114+01

 2017-02-06 13:27:06.125709+01 | 1486384026.12571 |                 0 |              12 |                153580 |                 2691 |            8800737 |       1578905 |            15499 |        33328854 |                     0 |      32245440 | 2017-02-06 12:24:33.04114+01

 2017-02-06 13:27:07.203389+01 | 1486384027.20339 |                 0 |              12 |                153580 |                 2691 |            8800737 |       1579405 |            15504 |        33328854 |                     0 |      32257926 | 2017-02-06 12:24:33.04114+01

 2017-02-06 13:27:08.284194+01 | 1486384028.28419 |                 0 |              12 |                153580 |                 2691 |            8800737 |       1579905 |            15509 |        33328854 |                     0 |      32268589 | 2017-02-06 12:24:33.04114+01

 2017-02-06 13:27:09.366766+01 | 1486384029.36677 |                 0 |              12 |                153580 |                 2691 |            8800737 |       1580505 |            15515 |        33328854 |                     0 |      32281555 | 2017-02-06 12:24:33.04114+01

 2017-02-06 13:27:10.442182+01 | 1486384030.44218 |                 0 |              12 |                153580 |                 2691 |            8800737 |       1581005 |            15520 |        33328854 |                     0 |      32291886 | 2017-02-06 12:24:33.04114+01

 2017-02-06 13:27:11.530112+01 | 1486384031.53011 |                 0 |              12 |                153580 |                 2691 |            8800737 |       1581505 |            15525 |        33328854 |                     0 |      32301827 | 2017-02-06 12:24:33.04114+01

 2017-02-06 13:27:12.612537+01 | 1486384032.61254 |                 0 |              12 |                153580 |                 2691 |            8800737 |       1582105 |            15531 |        33328854 |                     0 |      32315038 | 2017-02-06 12:24:33.04114+01

 2017-02-06 13:27:13.694382+01 | 1486384033.69438 |                 0 |              12 |                153580 |                 2691 |            8800737 |       1582605 |            15536 |        33328854 |                     0 |      32323037 | 2017-02-06 12:24:33.04114+01

 2017-02-06 13:27:14.77668+01 | 1486384034.77668 |                 0 |              12 |                153580 |                 2691 |            8800737 |       1583105 |            15541 |        33328854 |                     0 |      32334417 | 2017-02-06 12:24:33.04114+01

 2017-02-06 13:27:15.868858+01 | 1486384035.86886 |                 0 |              12 |                153580 |                 2691 |            8800737 |       1583705 |            15547 |        33328854 |                     0 |      32347134 | 2017-02-06 12:24:33.04114+01

 2017-02-06 13:27:16.951203+01 | 1486384036.9512 |                 0 |              12 |                153580 |                 2691 |            8800737 |       1584205 |            15552 |        33328854 |                     0 |      32357861 | 2017-02-06 12:24:33.04114+01

 2017-02-06 13:27:18.029068+01 | 1486384038.02907 |                 0 |              12 |                153580 |                 2691 |            8800737 |       1584805 |            15558 |        33328854 |                     0 |      32370327 | 2017-02-06 12:24:33.04114+01

 2017-02-06 13:27:19.117642+01 | 1486384039.11764 |                 0 |              12 |                153580 |                 2691 |            8800737 |       1585305 |            15563 |        33328854 |                     0 |      32379575 | 2017-02-06 12:24:33.04114+01

 2017-02-06 13:27:20.199515+01 | 1486384040.19952 |                 0 |              12 |                153580 |                 2691 |            8800737 |       1585805 |            15568 |        33328854 |                     0 |      32388746 | 2017-02-06 12:24:33.04114+01

 2017-02-06 13:27:21.289663+01 | 1486384041.28966 |                 0 |              12 |                153580 |                 2691 |            8800737 |       1586405 |            15574 |        33328854 |                     0 |      32399013 | 2017-02-06 12:24:33.04114+01

 2017-02-06 13:27:22.370005+01 | 1486384042.37 |                 0 |              12 |                153580 |                 2691 |            8800737 |       1586905 |            15579 |        33328854 |                     0 |      32409872 | 2017-02-06 12:24:33.04114+01

 2017-02-06 13:27:23.46473+01 | 1486384043.46473 |                 0 |              12 |                153580 |                 2691 |            8800737 |       1587405 |            15584 |        33328854 |                     0 |      32420985 | 2017-02-06 12:24:33.04114+01

 2017-02-06 13:27:24.550206+01 | 1486384044.55021 |                 0 |              12 |                153580 |                 2691 |            8800737 |       1588005 |            15590 |        33328854 |                     0 |      32433666 | 2017-02-06 12:24:33.04114+01

 2017-02-06 13:27:25.630676+01 | 1486384045.63068 |                 0 |              12 |                153580 |                 2691 |            8800737 |       1588505 |            15595 |        33328854 |                     0 |      32444866 | 2017-02-06 12:24:33.04114+01

 2017-02-06 13:27:26.700232+01 | 1486384046.70023 |                 0 |              12 |                153580 |                 2691 |            8800737 |       1589005 |            15600 |        33328854 |                     0 |      32456326 | 2017-02-06 12:24:33.04114+01

 2017-02-06 13:27:27.786524+01 | 1486384047.78652 |                 0 |              12 |                153580 |                 2691 |            8800737 |       1589605 |            15606 |        33328854 |                     0 |      32466080 | 2017-02-06 12:24:33.04114+01

 2017-02-06 13:27:28.864597+01 | 1486384048.8646 |                 0 |              12 |                153580 |                 2691 |            8800737 |       1590105 |            15611 |        33328854 |                     0 |      32476800 | 2017-02-06 12:24:33.04114+01

 2017-02-06 13:27:29.946914+01 | 1486384049.94691 |                 0 |              12 |                153580 |                 2691 |            8800737 |       1590705 |            15617 |        33328854 |                     0 |      32491586 | 2017-02-06 12:24:33.04114+01

 2017-02-06 13:27:31.028922+01 | 1486384051.02892 |                 0 |              12 |                153580 |                 2691 |            8800737 |       1591205 |            15622 |        33328854 |                     0 |      32503539 | 2017-02-06 12:24:33.04114+01

 2017-02-06 13:27:32.098384+01 | 1486384052.09838 |                 0 |              12 |                153580 |                 2691 |            8800737 |       1591705 |            15627 |        33328854 |                     0 |      32515071 | 2017-02-06 12:24:33.04114+01

 2017-02-06 13:27:33.184252+01 | 1486384053.18425 |                 0 |              12 |                153580 |                 2691 |            8800737 |       1592305 |            15633 |        33328854 |                     0 |      32525192 | 2017-02-06 12:24:33.04114+01

 2017-02-06 13:27:34.263452+01 | 1486384054.26345 |                 0 |              12 |                153580 |                 2691 |            8800737 |       1592805 |            15638 |        33822882 |                     0 |      32535213 | 2017-02-06 12:24:33.04114+01

 2017-02-06 13:27:35.345258+01 | 1486384055.34526 |                 0 |              12 |                153580 |                 2691 |            8800737 |       1593305 |            15643 |        33822882 |                     0 |      32545124 | 2017-02-06 12:24:33.04114+01

 2017-02-06 13:27:36.430016+01 | 1486384056.43002 |                 0 |              12 |                153580 |                 2691 |            8800737 |       1593905 |            15649 |        33822882 |                     0 |      32556227 | 2017-02-06 12:24:33.04114+01

 2017-02-06 13:27:37.497797+01 | 1486384057.4978 |                 0 |              12 |                153580 |                 2691 |            8800737 |       1594405 |            15654 |        33822882 |                     0 |      32567706 | 2017-02-06 12:24:33.04114+01

 2017-02-06 13:27:38.583541+01 | 1486384058.58354 |                 0 |              12 |                153580 |                 2691 |            8800737 |       1594905 |            15659 |        33822882 |                     0 |      32580383 | 2017-02-06 12:24:33.04114+01

 2017-02-06 13:27:39.667422+01 | 1486384059.66742 |                 0 |              12 |                153580 |                 2691 |            8800737 |       1595505 |            15665 |        33822882 |                     0 |      32593725 | 2017-02-06 12:24:33.04114+01

 2017-02-06 13:27:40.733182+01 | 1486384060.73318 |                 0 |              12 |                153580 |                 2691 |            8800737 |       1596005 |            15670 |        33822882 |                     0 |      32603291 | 2017-02-06 12:24:33.04114+01

 2017-02-06 13:27:41.818076+01 | 1486384061.81808 |                 0 |              12 |                153580 |                 2691 |            8800737 |       1596505 |            15675 |        33822882 |                     0 |      32610510 | 2017-02-06 12:24:33.04114+01

 2017-02-06 13:27:42.894141+01 | 1486384062.89414 |                 0 |              12 |                153580 |                 2691 |            8800737 |       1597105 |            15681 |        33822882 |                     0 |      32623503 | 2017-02-06 12:24:33.04114+01

 2017-02-06 13:27:43.980687+01 | 1486384063.98069 |                 0 |              12 |                153580 |                 2691 |            8800737 |       1597605 |            15686 |        33822882 |                     0 |      32633924 | 2017-02-06 12:24:33.04114+01

 2017-02-06 13:27:45.060145+01 | 1486384065.06014 |                 0 |              12 |                153580 |                 2691 |            8800737 |       1598105 |            15691 |        33822882 |                     0 |      32645473 | 2017-02-06 12:24:33.04114+01

 2017-02-06 13:27:46.139297+01 | 1486384066.1393 |                 0 |              12 |                153580 |                 2691 |            8800737 |       1598705 |            15697 |        33822882 |                     0 |      32660077 | 2017-02-06 12:24:33.04114+01

 2017-02-06 13:27:47.223401+01 | 1486384067.2234 |                 0 |              12 |                153580 |                 2691 |            8800737 |       1599205 |            15702 |        33822882 |                     0 |      32672362 | 2017-02-06 12:24:33.04114+01

 2017-02-06 13:27:48.303765+01 | 1486384068.30377 |                 0 |              12 |                153580 |                 2691 |            8800737 |       1599705 |            15707 |        33822882 |                     0 |      32683840 | 2017-02-06 12:24:33.04114+01

 2017-02-06 13:27:49.406434+01 | 1486384069.40643 |                 0 |              12 |                153580 |                 2691 |            8800737 |       1600305 |            15713 |        33822882 |                     0 |      32697393 | 2017-02-06 12:24:33.04114+01

 2017-02-06 13:27:50.477136+01 | 1486384070.47714 |                 0 |              12 |                153580 |                 2691 |            8800737 |       1600805 |            15718 |        33822882 |                     0 |      32709869 | 2017-02-06 12:24:33.04114+01

 2017-02-06 13:27:51.561397+01 | 1486384071.5614 |                 0 |              12 |                153580 |                 2691 |            8800737 |       1601405 |            15724 |        33822882 |                     0 |      32721014 | 2017-02-06 12:24:33.04114+01

 2017-02-06 13:27:52.630415+01 | 1486384072.63041 |                 0 |              12 |                153580 |                 2691 |            8800737 |       1601905 |            15729 |        33822882 |                     0 |      32730836 | 2017-02-06 12:24:33.04114+01

 2017-02-06 13:27:53.699605+01 | 1486384073.6996 |                 0 |              12 |                153580 |                 2691 |            8800737 |       1602405 |            15734 |        33822882 |                     0 |      32740861 | 2017-02-06 12:24:33.04114+01

 2017-02-06 13:27:54.789446+01 | 1486384074.78945 |                 0 |              12 |                153580 |                 2691 |            8800737 |       1602905 |            15739 |        33822882 |                     0 |      32751469 | 2017-02-06 12:24:33.04114+01

 2017-02-06 13:27:55.868701+01 | 1486384075.8687 |                 0 |              12 |                153580 |                 2691 |            8800737 |       1603505 |            15745 |        33822882 |                     0 |      32763340 | 2017-02-06 12:24:33.04114+01

 2017-02-06 13:27:56.948058+01 | 1486384076.94806 |                 0 |              12 |                153580 |                 2691 |            8800737 |       1604005 |            15750 |        33822882 |                     0 |      32772397 | 2017-02-06 12:24:33.04114+01

 2017-02-06 13:27:58.027939+01 | 1486384078.02794 |                 0 |              12 |                153580 |                 2691 |            8800737 |       1604605 |            15756 |        33822882 |                     0 |      32784335 | 2017-02-06 12:24:33.04114+01

 2017-02-06 13:27:59.105775+01 | 1486384079.10578 |                 0 |              12 |                153580 |                 2691 |            8800737 |       1605105 |            15761 |        33822882 |                     0 |      32793219 | 2017-02-06 12:24:33.04114+01

 2017-02-06 13:28:00.184258+01 | 1486384080.18426 |                 0 |              12 |                153580 |                 2691 |            8800737 |       1605605 |            15766 |        33822882 |                     0 |      32802205 | 2017-02-06 12:24:33.04114+01

 2017-02-06 13:28:01.262639+01 | 1486384081.26264 |                 0 |              12 |                153580 |                 2691 |            8800737 |       1606205 |            15772 |        33822882 |                     0 |      32816724 | 2017-02-06 12:24:33.04114+01

 2017-02-06 13:28:02.342307+01 | 1486384082.34231 |                 0 |              12 |                153580 |                 2691 |            8800737 |       1606705 |            15777 |        33822882 |                     0 |      32827896 | 2017-02-06 12:24:33.04114+01

 2017-02-06 13:28:03.412699+01 | 1486384083.4127 |                 0 |              12 |                153580 |                 2691 |            8800737 |       1607205 |            15782 |        33822882 |                     0 |      32838681 | 2017-02-06 12:24:33.04114+01

 2017-02-06 13:28:04.50477+01 | 1486384084.50477 |                 0 |              12 |                153580 |                 2691 |            8800737 |       1607805 |            15788 |        33822882 |                     0 |      32850033 | 2017-02-06 12:24:33.04114+01

 2017-02-06 13:28:05.584681+01 | 1486384085.58468 |                 0 |              12 |                153580 |                 2691 |            8800737 |       1608305 |            15793 |        33822882 |                     0 |      32859168 | 2017-02-06 12:24:33.04114+01

 2017-02-06 13:28:06.673506+01 | 1486384086.67351 |                 0 |              12 |                153580 |                 2691 |            8800737 |       1608805 |            15798 |        33822882 |                     0 |      32869037 | 2017-02-06 12:24:33.04114+01

 2017-02-06 13:28:07.751433+01 | 1486384087.75143 |                 0 |              12 |                153580 |                 2691 |            8800737 |       1609405 |            15804 |        33822882 |                     0 |      32880590 | 2017-02-06 12:24:33.04114+01

 2017-02-06 13:28:08.839668+01 | 1486384088.83967 |                 0 |              12 |                153580 |                 2691 |            8800737 |       1609905 |            15809 |        33822882 |                     0 |      32890370 | 2017-02-06 12:24:33.04114+01

 2017-02-06 13:28:09.923341+01 | 1486384089.92334 |                 0 |              12 |                153580 |                 2691 |            8800737 |       1610405 |            15814 |        33822882 |                     0 |      32900711 | 2017-02-06 12:24:33.04114+01

 2017-02-06 13:28:11.012422+01 | 1486384091.01242 |                 0 |              12 |                153580 |                 2691 |            8800737 |       1611005 |            15820 |        33822882 |                     0 |      32913629 | 2017-02-06 12:24:33.04114+01

 2017-02-06 13:28:12.09904+01 | 1486384092.09904 |                 0 |              12 |                153580 |                 2691 |            8800737 |       1611505 |            15825 |        33822882 |                     0 |      32923014 | 2017-02-06 12:24:33.04114+01

 2017-02-06 13:28:13.182048+01 | 1486384093.18205 |                 0 |              12 |                153580 |                 2691 |            8800737 |       1612005 |            15830 |        33822882 |                     0 |      32934084 | 2017-02-06 12:24:33.04114+01

 2017-02-06 13:28:14.258542+01 | 1486384094.25854 |                 0 |              12 |                153580 |                 2691 |            8800737 |       1612605 |            15836 |        33822882 |                     0 |      32947805 | 2017-02-06 12:24:33.04114+01

 2017-02-06 13:28:15.333721+01 | 1486384095.33372 |                 0 |              12 |                153580 |                 2691 |            8800737 |       1613105 |            15841 |        33822882 |                     0 |      32959470 | 2017-02-06 12:24:33.04114+01

 2017-02-06 13:28:16.40285+01 | 1486384096.40285 |                 0 |              12 |                153580 |                 2691 |            8800737 |       1613605 |            15846 |        33822882 |                     0 |      32970909 | 2017-02-06 12:24:33.04114+01

 2017-02-06 13:28:17.494614+01 | 1486384097.49461 |                 0 |              12 |                153580 |                 2691 |            8800737 |       1614205 |            15852 |        33822882 |                     0 |      32984233 | 2017-02-06 12:24:33.04114+01

 2017-02-06 13:28:18.581009+01 | 1486384098.58101 |                 0 |              12 |                153580 |                 2691 |            8800737 |       1614705 |            15857 |        34325275 |                     0 |      32995173 | 2017-02-06 12:24:33.04114+01

 2017-02-06 13:28:19.663056+01 | 1486384099.66306 |                 0 |              12 |                153580 |                 2691 |            8800737 |       1615305 |            15863 |        34325275 |                     0 |      33009668 | 2017-02-06 12:24:33.04114+01

 2017-02-06 13:28:20.74677+01 | 1486384100.74677 |                 0 |              12 |                153580 |                 2691 |            8800737 |       1615805 |            15868 |        34325275 |                     0 |      33021039 | 2017-02-06 12:24:33.04114+01

 2017-02-06 13:28:21.832162+01 | 1486384101.83216 |                 0 |              12 |                153580 |                 2691 |            8800737 |       1616305 |            15873 |        34325275 |                     0 |      33032567 | 2017-02-06 12:24:33.04114+01

 2017-02-06 13:28:22.926254+01 | 1486384102.92625 |                 0 |              12 |                153580 |                 2691 |            8800737 |       1616905 |            15879 |        34325275 |                     0 |      33046037 | 2017-02-06 12:24:33.04114+01

 2017-02-06 13:28:24.033068+01 | 1486384104.03307 |                 0 |              12 |                153580 |                 2691 |            8800737 |       1617405 |            15884 |        34325275 |                     0 |      33058241 | 2017-02-06 12:24:33.04114+01

 2017-02-06 13:28:25.110715+01 | 1486384105.11071 |                 0 |              12 |                153580 |                 2691 |            8800737 |       1618005 |            15890 |        34325275 |                     0 |      33072148 | 2017-02-06 12:24:33.04114+01

 2017-02-06 13:28:26.190427+01 | 1486384106.19043 |                 0 |              12 |                153580 |                 2691 |            8800737 |       1618505 |            15895 |        34325275 |                     0 |      33084116 | 2017-02-06 12:24:33.04114+01

 2017-02-06 13:28:27.269941+01 | 1486384107.26994 |                 0 |              12 |                153580 |                 2691 |            8800737 |       1619005 |            15900 |        34325275 |                     0 |      33095831 | 2017-02-06 12:24:33.04114+01

 2017-02-06 13:28:28.354532+01 | 1486384108.35453 |                 0 |              12 |                153580 |                 2691 |            8800737 |       1619605 |            15906 |        34325275 |                     0 |      33109325 | 2017-02-06 12:24:33.04114+01

 2017-02-06 13:28:29.430746+01 | 1486384109.43075 |                 0 |              12 |                153580 |                 2691 |            8800737 |       1620105 |            15911 |        34325275 |                     0 |      33121520 | 2017-02-06 12:24:33.04114+01

 2017-02-06 13:28:30.514106+01 | 1486384110.51411 |                 0 |              12 |                153580 |                 2691 |            8800737 |       1620605 |            15916 |        34325275 |                     0 |      33134376 | 2017-02-06 12:24:33.04114+01

 2017-02-06 13:28:31.605597+01 | 1486384111.6056 |                 0 |              12 |                153580 |                 2691 |            8800737 |       1621205 |            15922 |        34325275 |                     0 |      33148431 | 2017-02-06 12:24:33.04114+01

 2017-02-06 13:28:32.692579+01 | 1486384112.69258 |                 0 |              12 |                153580 |                 2691 |            8800737 |       1621705 |            15927 |        34325275 |                     0 |      33160232 | 2017-02-06 12:24:33.04114+01

 2017-02-06 13:28:33.775795+01 | 1486384113.77579 |                 0 |              12 |                153580 |                 2691 |            8800737 |       1622205 |            15932 |        34325275 |                     0 |      33171812 | 2017-02-06 12:24:33.04114+01

 2017-02-06 13:28:34.84525+01 | 1486384114.84525 |                 0 |              12 |                153580 |                 2691 |            8800737 |       1622805 |            15938 |        34325275 |                     0 |      33185969 | 2017-02-06 12:24:33.04114+01

 2017-02-06 13:28:35.918037+01 | 1486384115.91804 |                 0 |              12 |                153580 |                 2691 |            8800737 |       1623205 |            15942 |        34325275 |                     0 |      33195393 | 2017-02-06 12:24:33.04114+01

 2017-02-06 13:28:37.011891+01 | 1486384117.01189 |                 0 |              12 |                153580 |                 2691 |            8800737 |       1623805 |            15948 |        34325275 |                     0 |      33210706 | 2017-02-06 12:24:33.04114+01

 2017-02-06 13:28:38.101091+01 | 1486384118.10109 |                 0 |              12 |                153580 |                 2691 |            8800737 |       1624405 |            15954 |        34325275 |                     0 |      33224628 | 2017-02-06 12:24:33.04114+01

 2017-02-06 13:28:39.194034+01 | 1486384119.19403 |                 0 |              12 |                153580 |                 2691 |            8800737 |       1624905 |            15959 |        34325275 |                     0 |      33236068 | 2017-02-06 12:24:33.04114+01

 2017-02-06 13:28:40.274325+01 | 1486384120.27432 |                 0 |              12 |                153580 |                 2691 |            8800737 |       1625505 |            15965 |        34325275 |                     0 |      33249413 | 2017-02-06 12:24:33.04114+01

 2017-02-06 13:28:41.349509+01 | 1486384121.34951 |                 0 |              12 |                153580 |                 2691 |            8800737 |       1626005 |            15970 |        34325275 |                     0 |      33261640 | 2017-02-06 12:24:33.04114+01

 2017-02-06 13:28:42.427047+01 | 1486384122.42705 |                 0 |              12 |                153580 |                 2691 |            8800737 |       1626505 |            15975 |        34325275 |                     0 |      33273757 | 2017-02-06 12:24:33.04114+01

 2017-02-06 13:28:43.503758+01 | 1486384123.50376 |                 0 |              12 |                153580 |                 2691 |            8800737 |       1627105 |            15981 |        34325275 |                     0 |      33287341 | 2017-02-06 12:24:33.04114+01

 2017-02-06 13:28:44.576061+01 | 1486384124.57606 |                 0 |              12 |                153580 |                 2691 |            8800737 |       1627605 |            15986 |        34325275 |                     0 |      33298578 | 2017-02-06 12:24:33.04114+01

 2017-02-06 13:28:45.658392+01 | 1486384125.65839 |                 0 |              12 |                153580 |                 2691 |            8800737 |       1628105 |            15991 |        34325275 |                     0 |      33308746 | 2017-02-06 12:24:33.04114+01

 2017-02-06 13:28:46.745699+01 | 1486384126.7457 |                 0 |              12 |                153580 |                 2691 |            8800737 |       1628705 |            15997 |        34325275 |                     0 |      33319897 | 2017-02-06 12:24:33.04114+01

 2017-02-06 13:28:47.83307+01 | 1486384127.83307 |                 0 |              12 |                153580 |                 2691 |            8800737 |       1629205 |            16002 |        34325275 |                     0 |      33328634 | 2017-02-06 12:24:33.04114+01

 2017-02-06 13:28:48.91971+01 | 1486384128.91971 |                 0 |              12 |                153580 |                 2691 |            8800737 |       1629705 |            16007 |        34325275 |                     0 |      33338986 | 2017-02-06 12:24:33.04114+01

 2017-02-06 13:28:50.000454+01 | 1486384130.00045 |                 0 |              12 |                153580 |                 2691 |            8800737 |       1630305 |            16013 |        34325275 |                     0 |      33351758 | 2017-02-06 12:24:33.04114+01

 2017-02-06 13:28:51.089297+01 | 1486384131.0893 |                 0 |              12 |                153580 |                 2691 |            8800737 |       1630805 |            16018 |        34325275 |                     0 |      33359667 | 2017-02-06 12:24:33.04114+01

 2017-02-06 13:28:52.177831+01 | 1486384132.17783 |                 0 |              12 |                153580 |                 2691 |            8800737 |       1631405 |            16024 |        34325275 |                     0 |      33373832 | 2017-02-06 12:24:33.04114+01

 2017-02-06 13:28:53.265011+01 | 1486384133.26501 |                 0 |              12 |                153580 |                 2691 |            8800737 |       1631905 |            16029 |        34325275 |                     0 |      33384262 | 2017-02-06 12:24:33.04114+01

 2017-02-06 13:28:54.343788+01 | 1486384134.34379 |                 0 |              12 |                153580 |                 2691 |            8800737 |       1632405 |            16034 |        34325275 |                     0 |      33396315 | 2017-02-06 12:24:33.04114+01

 2017-02-06 13:28:55.418878+01 | 1486384135.41888 |                 0 |              12 |                153580 |                 2691 |            8800737 |       1633005 |            16040 |        34325275 |                     0 |      33411104 | 2017-02-06 12:24:33.04114+01

 2017-02-06 13:28:56.509162+01 | 1486384136.50916 |                 0 |              12 |                153580 |                 2691 |            8800737 |       1633505 |            16045 |        34325275 |                     0 |      33423613 | 2017-02-06 12:24:33.04114+01

 2017-02-06 13:28:57.594186+01 | 1486384137.59419 |                 0 |              12 |                153580 |                 2691 |            8800737 |       1634005 |            16050 |        34325275 |                     0 |      33434850 | 2017-02-06 12:24:33.04114+01

 2017-02-06 13:28:58.683703+01 | 1486384138.6837 |                 0 |              12 |                153580 |                 2691 |            8800737 |       1634605 |            16056 |        34325275 |                     0 |      33448339 | 2017-02-06 12:24:33.04114+01

 2017-02-06 13:28:59.769097+01 | 1486384139.7691 |                 0 |              12 |                153580 |                 2691 |            8800737 |       1635105 |            16061 |        34829163 |                     0 |      33460072 | 2017-02-06 12:24:33.04114+01

 2017-02-06 13:29:00.850088+01 | 1486384140.85009 |                 0 |              12 |                153580 |                 2691 |            8800737 |       1635605 |            16066 |        34829163 |                     0 |      33471752 | 2017-02-06 12:24:33.04114+01

 2017-02-06 13:29:01.91674+01 | 1486384141.91674 |                 0 |              12 |                153580 |                 2691 |            8800737 |       1636205 |            16072 |        34829163 |                     0 |      33486377 | 2017-02-06 12:24:33.04114+01

 2017-02-06 13:29:02.983684+01 | 1486384142.98368 |                 0 |              12 |                153580 |                 2691 |            8800737 |       1636705 |            16077 |        34829163 |                     0 |      33497738 | 2017-02-06 12:24:33.04114+01

 2017-02-06 13:29:04.085834+01 | 1486384144.08583 |                 0 |              12 |                153580 |                 2691 |            8800737 |       1637205 |            16082 |        34829163 |                     0 |      33509217 | 2017-02-06 12:24:33.04114+01

 2017-02-06 13:29:05.155585+01 | 1486384145.15559 |                 0 |              12 |                153580 |                 2691 |            8800737 |       1637805 |            16088 |        34829163 |                     0 |      33524767 | 2017-02-06 12:24:33.04114+01

 2017-02-06 13:29:06.222797+01 | 1486384146.2228 |                 0 |              12 |                153580 |                 2691 |            8800737 |       1638305 |            16093 |        34829163 |                     0 |      33536196 | 2017-02-06 12:24:33.04114+01

 2017-02-06 13:29:07.302398+01 | 1486384147.3024 |                 0 |              12 |                153580 |                 2691 |            8800737 |       1638805 |            16098 |        34829163 |                     0 |      33546429 | 2017-02-06 12:24:33.04114+01

 2017-02-06 13:29:08.38322+01 | 1486384148.38322 |                 0 |              12 |                153580 |                 2691 |            8800737 |       1639405 |            16104 |        34829163 |                     0 |      33560792 | 2017-02-06 12:24:33.04114+01

 2017-02-06 13:29:09.460776+01 | 1486384149.46078 |                 0 |              12 |                153580 |                 2691 |            8800737 |       1639905 |            16109 |        34829163 |                     0 |      33572895 | 2017-02-06 12:24:33.04114+01

 2017-02-06 13:29:10.539249+01 | 1486384150.53925 |                 0 |              12 |                153580 |                 2691 |            8800737 |       1640405 |            16114 |        34829163 |                     0 |      33585745 | 2017-02-06 12:24:33.04114+01

 2017-02-06 13:29:11.624807+01 | 1486384151.62481 |                 0 |              12 |                153580 |                 2691 |            8800737 |       1641005 |            16120 |        34829163 |                     0 |      33599589 | 2017-02-06 12:24:33.04114+01

 2017-02-06 13:29:12.698478+01 | 1486384152.69848 |                 0 |              12 |                153580 |                 2691 |            8800737 |       1641505 |            16125 |        34829163 |                     0 |      33611550 | 2017-02-06 12:24:33.04114+01

 2017-02-06 13:29:13.767305+01 | 1486384153.7673 |                 0 |              12 |                153580 |                 2691 |            8800737 |       1642005 |            16130 |        34829163 |                     0 |      33622210 | 2017-02-06 12:24:33.04114+01

 2017-02-06 13:29:14.84906+01 | 1486384154.84906 |                 0 |              12 |                153580 |                 2691 |            8800737 |       1642605 |            16136 |        34829163 |                     0 |      33633853 | 2017-02-06 12:24:33.04114+01

 2017-02-06 13:29:15.93937+01 | 1486384155.93937 |                 0 |              12 |                153580 |                 2691 |            8800737 |       1643105 |            16141 |        34829163 |                     0 |      33644583 | 2017-02-06 12:24:33.04114+01

 2017-02-06 13:29:17.030306+01 | 1486384157.03031 |                 0 |              12 |                153580 |                 2691 |            8800737 |       1643705 |            16147 |        34829163 |                     0 |      33654456 | 2017-02-06 12:24:33.04114+01

 2017-02-06 13:29:18.112585+01 | 1486384158.11259 |                 0 |              12 |                153580 |                 2691 |            8800737 |       1644205 |            16152 |        34829163 |                     0 |      33664702 | 2017-02-06 12:24:33.04114+01

 2017-02-06 13:29:19.196609+01 | 1486384159.19661 |                 0 |              12 |                153580 |                 2691 |            8800737 |       1644705 |            16157 |        34829163 |                     0 |      33675739 | 2017-02-06 12:24:33.04114+01

 2017-02-06 13:29:20.283792+01 | 1486384160.28379 |                 0 |              12 |                153580 |                 2691 |            8800737 |       1645305 |            16163 |        34829163 |                     0 |      33687829 | 2017-02-06 12:24:33.04114+01

 2017-02-06 13:29:21.36352+01 | 1486384161.36352 |                 0 |              12 |                153580 |                 2691 |            8800737 |       1645805 |            16168 |        34829163 |                     0 |      33699849 | 2017-02-06 12:24:33.04114+01

 2017-02-06 13:29:22.442166+01 | 1486384162.44217 |                 0 |              12 |                153580 |                 2691 |            8800737 |       1646305 |            16173 |        34829163 |                     0 |      33711972 | 2017-02-06 12:24:33.04114+01

 2017-02-06 13:29:23.522983+01 | 1486384163.52298 |                 0 |              12 |                153580 |                 2691 |            8800737 |       1646905 |            16179 |        34829163 |                     0 |      33726451 | 2017-02-06 12:24:33.04114+01

 2017-02-06 13:29:24.603233+01 | 1486384164.60323 |                 0 |              12 |                153580 |                 2691 |            8800737 |       1647405 |            16184 |        34829163 |                     0 |      33738711 | 2017-02-06 12:24:33.04114+01

 2017-02-06 13:29:25.683933+01 | 1486384165.68393 |                 0 |              12 |                153580 |                 2691 |            8800737 |       1647905 |            16189 |        34829163 |                     0 |      33751222 | 2017-02-06 12:24:33.04114+01

 2017-02-06 13:29:26.765587+01 | 1486384166.76559 |                 0 |              12 |                153580 |                 2691 |            8800737 |       1648505 |            16195 |        34829163 |                     0 |      33765216 | 2017-02-06 12:24:33.04114+01

 2017-02-06 13:29:27.853807+01 | 1486384167.85381 |                 0 |              12 |                153580 |                 2691 |            8800737 |       1649005 |            16200 |        34829163 |                     0 |      33777489 | 2017-02-06 12:24:33.04114+01

 2017-02-06 13:29:28.934119+01 | 1486384168.93412 |                 0 |              12 |                153580 |                 2691 |            8800737 |       1649505 |            16205 |        34829163 |                     0 |      33789990 | 2017-02-06 12:24:33.04114+01

 2017-02-06 13:29:30.016987+01 | 1486384170.01699 |                 0 |              12 |                153580 |                 2691 |            8800737 |       1650105 |            16211 |        34829163 |                     0 |      33803571 | 2017-02-06 12:24:33.04114+01

 2017-02-06 13:29:31.100181+01 | 1486384171.10018 |                 0 |              12 |                153580 |                 2691 |            8800737 |       1650605 |            16216 |        34829163 |                     0 |      33815956 | 2017-02-06 12:24:33.04114+01

 2017-02-06 13:29:32.18428+01 | 1486384172.18428 |                 0 |              12 |                153580 |                 2691 |            8800737 |       1651205 |            16222 |        34829163 |                     0 |      33830508 | 2017-02-06 12:24:33.04114+01

 2017-02-06 13:29:33.270925+01 | 1486384173.27093 |                 0 |              12 |                153580 |                 2691 |            8800737 |       1651705 |            16227 |        34829163 |                     0 |      33841827 | 2017-02-06 12:24:33.04114+01

 2017-02-06 13:29:34.352101+01 | 1486384174.3521 |                 0 |              12 |                153580 |                 2691 |            8800737 |       1652205 |            16232 |        34829163 |                     0 |      33854630 | 2017-02-06 12:24:33.04114+01

 2017-02-06 13:29:35.425412+01 | 1486384175.42541 |                 0 |              12 |                153580 |                 2691 |            8800737 |       1652805 |            16238 |        34829163 |                     0 |      33869797 | 2017-02-06 12:24:33.04114+01

 2017-02-06 13:29:36.494993+01 | 1486384176.49499 |                 0 |              12 |                153580 |                 2691 |            8800737 |       1653205 |            16242 |        34829163 |                     0 |      33879495 | 2017-02-06 12:24:33.04114+01

 2017-02-06 13:29:37.57845+01 | 1486384177.57845 |                 0 |              12 |                153580 |                 2691 |            8800737 |       1653805 |            16248 |        34829163 |                     0 |      33894097 | 2017-02-06 12:24:33.04114+01

 2017-02-06 13:29:38.660146+01 | 1486384178.66015 |                 0 |              12 |                153580 |                 2691 |            8800737 |       1654405 |            16254 |        34829163 |                     0 |      33907798 | 2017-02-06 12:24:33.04114+01

 2017-02-06 13:29:39.737761+01 | 1486384179.73776 |                 0 |              12 |                153580 |                 2691 |            8800737 |       1654905 |            16259 |        34829163 |                     0 |      33919830 | 2017-02-06 12:24:33.04114+01

 2017-02-06 13:29:40.814292+01 | 1486384180.81429 |                 0 |              12 |                153580 |                 2691 |            8800737 |       1655405 |            16264 |        35333351 |                     0 |      33932053 | 2017-02-06 12:24:33.04114+01

 2017-02-06 13:29:41.876239+01 | 1486384181.87624 |                 0 |              12 |                153580 |                 2691 |            8800737 |       1656005 |            16270 |        35333351 |                     0 |      33947111 | 2017-02-06 12:24:33.04114+01

 2017-02-06 13:29:42.94313+01 | 1486384182.94313 |                 0 |              12 |                153580 |                 2691 |            8800737 |       1656505 |            16275 |        35333351 |                     0 |      33957697 | 2017-02-06 12:24:33.04114+01

 2017-02-06 13:29:44.028449+01 | 1486384184.02845 |                 0 |              12 |                153580 |                 2691 |            8800737 |       1657005 |            16280 |        35333351 |                     0 |      33968085 | 2017-02-06 12:24:33.04114+01

 2017-02-06 13:29:45.108903+01 | 1486384185.1089 |                 0 |              12 |                153580 |                 2691 |            8800737 |       1657605 |            16286 |        35333351 |                     0 |      33980221 | 2017-02-06 12:24:33.04114+01

 2017-02-06 13:29:46.199044+01 | 1486384186.19904 |                 0 |              12 |                153580 |                 2691 |            8800737 |       1658105 |            16291 |        35333351 |                     0 |      33990060 | 2017-02-06 12:24:33.04114+01

 2017-02-06 13:29:47.28746+01 | 1486384187.28746 |                 0 |              12 |                153580 |                 2691 |            8800737 |       1658605 |            16296 |        35333351 |                     0 |      33999051 | 2017-02-06 12:24:33.04114+01

 2017-02-06 13:29:48.373127+01 | 1486384188.37313 |                 0 |              12 |                153580 |                 2691 |            8800737 |       1659205 |            16302 |        35333351 |                     0 |      34011753 | 2017-02-06 12:24:33.04114+01

 2017-02-06 13:29:49.456194+01 | 1486384189.45619 |                 0 |              12 |                153580 |                 2691 |            8800737 |       1659705 |            16307 |        35333351 |                     0 |      34022599 | 2017-02-06 12:24:33.04114+01

 2017-02-06 13:29:50.530191+01 | 1486384190.53019 |                 0 |              12 |                153580 |                 2691 |            8800737 |       1660205 |            16312 |        35333351 |                     0 |      34034178 | 2017-02-06 12:24:33.04114+01

 2017-02-06 13:29:51.604681+01 | 1486384191.60468 |                 0 |              12 |                153580 |                 2691 |            8800737 |       1660805 |            16318 |        35333351 |                     0 |      34049571 | 2017-02-06 12:24:33.04114+01

 2017-02-06 13:29:52.680801+01 | 1486384192.6808 |                 0 |              12 |                153580 |                 2691 |            8800737 |       1661305 |            16323 |        35333351 |                     0 |      34062193 | 2017-02-06 12:24:33.04114+01

 2017-02-06 13:29:53.755678+01 | 1486384193.75568 |                 0 |              12 |                153580 |                 2691 |            8800737 |       1661805 |            16328 |        35333351 |                     0 |      34073189 | 2017-02-06 12:24:33.04114+01

 2017-02-06 13:29:54.8392+01 | 1486384194.8392 |                 0 |              12 |                153580 |                 2691 |            8800737 |       1662405 |            16334 |        35333351 |                     0 |      34088157 | 2017-02-06 12:24:33.04114+01

 2017-02-06 13:29:55.917209+01 | 1486384195.91721 |                 0 |              12 |                153580 |                 2691 |            8800737 |       1662905 |            16339 |        35333351 |                     0 |      34100012 | 2017-02-06 12:24:33.04114+01

 2017-02-06 13:29:56.999996+01 | 1486384197 |                 0 |              12 |                153580 |                 2691 |            8800737 |       1663405 |            16344 |        35333351 |                     0 |      34112477 | 2017-02-06 12:24:33.04114+01

 2017-02-06 13:29:58.078863+01 | 1486384198.07886 |                 0 |              12 |                153580 |                 2691 |            8800737 |       1664005 |            16350 |        35333351 |                     0 |      34126872 | 2017-02-06 12:24:33.04114+01

 2017-02-06 13:29:59.169197+01 | 1486384199.1692 |                 0 |              12 |                153580 |                 2691 |            8800737 |       1664505 |            16355 |        35333351 |                     0 |      34138489 | 2017-02-06 12:24:33.04114+01

 2017-02-06 13:30:00.261618+01 | 1486384200.26162 |                 0 |              12 |                153580 |                 2691 |            8800737 |       1665105 |            16361 |        35333351 |                     0 |      34152566 | 2017-02-06 12:24:33.04114+01

 2017-02-06 13:30:01.342691+01 | 1486384201.34269 |                 0 |              12 |                153580 |                 2691 |            8800737 |       1665605 |            16366 |        35333351 |                     0 |      34164004 | 2017-02-06 12:24:33.04114+01

 2017-02-06 13:30:02.421716+01 | 1486384202.42172 |                 0 |              12 |                153580 |                 2691 |            8800737 |       1666105 |            16371 |        35333351 |                     0 |      34174801 | 2017-02-06 12:24:33.04114+01

 2017-02-06 13:30:03.500621+01 | 1486384203.50062 |                 0 |              12 |                153580 |                 2691 |            8800737 |       1666705 |            16377 |        35333351 |                     0 |      34190437 | 2017-02-06 12:24:33.04114+01

 2017-02-06 13:30:04.577933+01 | 1486384204.57793 |                 0 |              12 |                153580 |                 2691 |            8800737 |       1667205 |            16382 |        35333351 |                     0 |      34202387 | 2017-02-06 12:24:33.04114+01

 2017-02-06 13:30:05.665314+01 | 1486384205.66531 |                 0 |              12 |                153580 |                 2691 |            8800737 |       1667705 |            16387 |        35333351 |                     0 |      34214588 | 2017-02-06 12:24:33.04114+01

 2017-02-06 13:30:06.740601+01 | 1486384206.7406 |                 0 |              12 |                153580 |                 2691 |            8800737 |       1668305 |            16393 |        35333351 |                     0 |      34227841 | 2017-02-06 12:24:33.04114+01

 2017-02-06 13:30:07.819427+01 | 1486384207.81943 |                 0 |              12 |                153580 |                 2691 |            8800737 |       1668805 |            16398 |        35333351 |                     0 |      34240498 | 2017-02-06 12:24:33.04114+01

 2017-02-06 13:30:08.893103+01 | 1486384208.8931 |                 0 |              12 |                153580 |                 2691 |            8800737 |       1669305 |            16403 |        35333351 |                     0 |      34253152 | 2017-02-06 12:24:33.04114+01

 2017-02-06 13:30:09.960328+01 | 1486384209.96033 |                 0 |              12 |                153580 |                 2691 |            8800737 |       1669905 |            16409 |        35333351 |                     0 |      34268389 | 2017-02-06 12:24:33.04114+01

 2017-02-06 13:30:11.041873+01 | 1486384211.04187 |                 0 |              12 |                153580 |                 2691 |            8800737 |       1670405 |            16414 |        35333351 |                     0 |      34280527 | 2017-02-06 12:24:33.04114+01

 2017-02-06 13:30:12.119091+01 | 1486384212.11909 |                 0 |              12 |                153580 |                 2691 |            8800737 |       1670905 |            16419 |        35333351 |                     0 |      34292762 | 2017-02-06 12:24:33.04114+01

 2017-02-06 13:30:13.194596+01 | 1486384213.1946 |                 0 |              12 |                153580 |                 2691 |            8800737 |       1671505 |            16425 |        35333351 |                     0 |      34307202 | 2017-02-06 12:24:33.04114+01

 2017-02-06 13:30:14.274196+01 | 1486384214.2742 |                 0 |              12 |                153580 |                 2691 |            8800737 |       1672005 |            16430 |        35333351 |                     0 |      34318136 | 2017-02-06 12:24:33.04114+01

 2017-02-06 13:30:15.36264+01 | 1486384215.36264 |                 0 |              12 |                153580 |                 2691 |            8800737 |       1672505 |            16435 |        35333351 |                     0 |      34330828 | 2017-02-06 12:24:33.04114+01

 2017-02-06 13:30:16.441064+01 | 1486384216.44106 |                 0 |              12 |                153580 |                 2691 |            8800737 |       1673105 |            16441 |        35333351 |                     0 |      34345846 | 2017-02-06 12:24:33.04114+01

 2017-02-06 13:30:17.514691+01 | 1486384217.51469 |                 0 |              12 |                153580 |                 2691 |            8800737 |       1673605 |            16446 |        35333351 |                     0 |      34357986 | 2017-02-06 12:24:33.04114+01

 2017-02-06 13:30:18.59764+01 | 1486384218.59764 |                 0 |              12 |                153580 |                 2691 |            8800737 |       1674105 |            16451 |        35333351 |                     0 |      34369449 | 2017-02-06 12:24:33.04114+01

 2017-02-06 13:30:19.673447+01 | 1486384219.67345 |                 0 |              12 |                153580 |                 2691 |            8800737 |       1674705 |            16457 |        35333351 |                     0 |      34383774 | 2017-02-06 12:24:33.04114+01

 2017-02-06 13:30:20.754115+01 | 1486384220.75412 |                 0 |              12 |                153580 |                 2691 |            8800737 |       1675205 |            16462 |        35837839 |                     0 |      34395824 | 2017-02-06 12:24:33.04114+01

 2017-02-06 13:30:21.830838+01 | 1486384221.83084 |                 0 |              12 |                153580 |                 2691 |            8800737 |       1675705 |            16467 |        35837839 |                     0 |      34408187 | 2017-02-06 12:24:33.04114+01

 2017-02-06 13:30:22.916047+01 | 1486384222.91605 |                 0 |              12 |                153580 |                 2691 |            8800737 |       1676305 |            16473 |        35837839 |                     0 |      34421940 | 2017-02-06 12:24:33.04114+01

 2017-02-06 13:30:23.999448+01 | 1486384223.99945 |                 0 |              12 |                153580 |                 2691 |            8800737 |       1676805 |            16478 |        35837839 |                     0 |      34434684 | 2017-02-06 12:24:33.04114+01

 2017-02-06 13:30:25.089079+01 | 1486384225.08908 |                 0 |              12 |                153580 |                 2691 |            8800737 |       1677405 |            16484 |        35837839 |                     0 |      34448897 | 2017-02-06 12:24:33.04114+01

 2017-02-06 13:30:26.176132+01 | 1486384226.17613 |                 0 |              12 |                153580 |                 2691 |            8800737 |       1677905 |            16489 |        35837839 |                     0 |      34459892 | 2017-02-06 12:24:33.04114+01

 2017-02-06 13:30:27.2593+01 | 1486384227.2593 |                 0 |              12 |                153580 |                 2691 |            8800737 |       1678405 |            16494 |        35837839 |                     0 |      34472029 | 2017-02-06 12:24:33.04114+01

 2017-02-06 13:30:28.342216+01 | 1486384228.34222 |                 0 |              12 |                153580 |                 2691 |            8800737 |       1679005 |            16500 |        35837839 |                     0 |      34485894 | 2017-02-06 12:24:33.04114+01

 2017-02-06 13:30:29.417279+01 | 1486384229.41728 |                 0 |              12 |                153580 |                 2691 |            8800737 |       1679505 |            16505 |        35837839 |                     0 |      34498249 | 2017-02-06 12:24:33.04114+01

 2017-02-06 13:30:30.493694+01 | 1486384230.49369 |                 0 |              12 |                153580 |                 2691 |            8800737 |       1680005 |            16510 |        35837839 |                     0 |      34509759 | 2017-02-06 12:24:33.04114+01

 2017-02-06 13:30:31.569587+01 | 1486384231.56959 |                 0 |              12 |                153580 |                 2691 |            8800737 |       1680605 |            16516 |        35837839 |                     0 |      34523985 | 2017-02-06 12:24:33.04114+01

 2017-02-06 13:30:32.65125+01 | 1486384232.65125 |                 0 |              12 |                153580 |                 2691 |            8800737 |       1681105 |            16521 |        35837839 |                     0 |      34536033 | 2017-02-06 12:24:33.04114+01

 2017-02-06 13:30:33.727348+01 | 1486384233.72735 |                 0 |              12 |                153580 |                 2691 |            8800737 |       1681605 |            16526 |        35837839 |                     0 |      34547919 | 2017-02-06 12:24:33.04114+01

 2017-02-06 13:30:34.811439+01 | 1486384234.81144 |                 0 |              12 |                153580 |                 2691 |            8800737 |       1682205 |            16532 |        35837839 |                     0 |      34561307 | 2017-02-06 12:24:33.04114+01

 2017-02-06 13:30:35.878488+01 | 1486384235.87849 |                 0 |              12 |                153580 |                 2691 |            8800737 |       1682505 |            16535 |        35837839 |                     0 |      34569160 | 2017-02-06 12:24:33.04114+01

 2017-02-06 13:30:36.955276+01 | 1486384236.95528 |                 0 |              12 |                153580 |                 2691 |            8800737 |       1683205 |            16542 |        35837839 |                     0 |      34585707 | 2017-02-06 12:24:33.04114+01

 2017-02-06 13:30:38.031856+01 | 1486384238.03186 |                 0 |              12 |                153580 |                 2691 |            8800737 |       1683805 |            16548 |        35837839 |                     0 |      34600139 | 2017-02-06 12:24:33.04114+01

 2017-02-06 13:30:39.110986+01 | 1486384239.11099 |                 0 |              12 |                153580 |                 2691 |            8800737 |       1684305 |            16553 |        35837839 |                     0 |      34611966 | 2017-02-06 12:24:33.04114+01

 2017-02-06 13:30:40.185084+01 | 1486384240.18508 |                 0 |              12 |                153580 |                 2691 |            8800737 |       1684805 |            16558 |        35837839 |                     0 |      34623948 | 2017-02-06 12:24:33.04114+01

 2017-02-06 13:30:41.258852+01 | 1486384241.25885 |                 0 |              12 |                153580 |                 2691 |            8800737 |       1685405 |            16564 |        35837839 |                     0 |      34638005 | 2017-02-06 12:24:33.04114+01

 2017-02-06 13:30:42.344388+01 | 1486384242.34439 |                 0 |              12 |                153580 |                 2691 |            8800737 |       1685905 |            16569 |        35837839 |                     0 |      34649157 | 2017-02-06 12:24:33.04114+01

 2017-02-06 13:30:43.434665+01 | 1486384243.43466 |                 0 |              12 |                153580 |                 2691 |            8800737 |       1686405 |            16574 |        35837839 |                     0 |      34661193 | 2017-02-06 12:24:33.04114+01

 2017-02-06 13:30:44.515934+01 | 1486384244.51593 |                 0 |              12 |                153580 |                 2691 |            8800737 |       1687005 |            16580 |        35837839 |                     0 |      34674405 | 2017-02-06 12:24:33.04114+01

 2017-02-06 13:30:45.595562+01 | 1486384245.59556 |                 0 |              12 |                153580 |                 2691 |            8800737 |       1687505 |            16585 |        35837839 |                     0 |      34686340 | 2017-02-06 12:24:33.04114+01

 2017-02-06 13:30:46.686933+01 | 1486384246.68693 |                 0 |              12 |                153580 |                 2691 |            8800737 |       1688005 |            16590 |        35837839 |                     0 |      34698423 | 2017-02-06 12:24:33.04114+01

 2017-02-06 13:30:47.76081+01 | 1486384247.76081 |                 0 |              12 |                153580 |                 2691 |            8800737 |       1688605 |            16596 |        35837839 |                     0 |      34712574 | 2017-02-06 12:24:33.04114+01

 2017-02-06 13:30:48.842033+01 | 1486384248.84203 |                 0 |              12 |                153580 |                 2691 |            8800737 |       1689105 |            16601 |        35837839 |                     0 |      34725151 | 2017-02-06 12:24:33.04114+01

 2017-02-06 13:30:49.920321+01 | 1486384249.92032 |                 0 |              12 |                153580 |                 2691 |            8800737 |       1689605 |            16606 |        35837839 |                     0 |      34736408 | 2017-02-06 12:24:33.04114+01

 2017-02-06 13:30:51.008748+01 | 1486384251.00875 |                 0 |              12 |                153580 |                 2691 |            8800737 |       1690205 |            16612 |        35837839 |                     0 |      34750035 | 2017-02-06 12:24:33.04114+01

 2017-02-06 13:30:52.091793+01 | 1486384252.09179 |                 0 |              12 |                153580 |                 2691 |            8800737 |       1690705 |            16617 |        35837839 |                     0 |      34762618 | 2017-02-06 12:24:33.04114+01

 2017-02-06 13:30:53.177007+01 | 1486384253.17701 |                 0 |              12 |                153580 |                 2691 |            8800737 |       1691305 |            16623 |        35837839 |                     0 |      34775956 | 2017-02-06 12:24:33.04114+01

 2017-02-06 13:30:54.256632+01 | 1486384254.25663 |                 0 |              12 |                153580 |                 2691 |            8800737 |       1691805 |            16628 |        35837839 |                     0 |      34788619 | 2017-02-06 12:24:33.04114+01

 2017-02-06 13:30:55.346332+01 | 1486384255.34633 |                 0 |              12 |                153580 |                 2691 |            8800737 |       1692305 |            16633 |        35837839 |                     0 |      34800929 | 2017-02-06 12:24:33.04114+01

 2017-02-06 13:30:56.435109+01 | 1486384256.43511 |                 0 |              12 |                153580 |                 2691 |            8800737 |       1692905 |            16639 |        35837839 |                     0 |      34814400 | 2017-02-06 12:24:33.04114+01

 2017-02-06 13:30:57.507929+01 | 1486384257.50793 |                 0 |              12 |                153580 |                 2691 |            8800737 |       1693405 |            16644 |        35837839 |                     0 |      34825856 | 2017-02-06 12:24:33.04114+01

 2017-02-06 13:30:58.586621+01 | 1486384258.58662 |                 0 |              12 |                153580 |                 2691 |            8800737 |       1693905 |            16649 |        35837839 |                     0 |      34837302 | 2017-02-06 12:24:33.04114+01

 2017-02-06 13:30:59.665851+01 | 1486384259.66585 |                 0 |              12 |                153580 |                 2691 |            8800737 |       1694505 |            16655 |        35837839 |                     0 |      34849642 | 2017-02-06 12:24:33.04114+01

 2017-02-06 13:31:00.740091+01 | 1486384260.74009 |                 0 |              12 |                153580 |                 2691 |            8800737 |       1695005 |            16660 |        36342328 |                     0 |      34861224 | 2017-02-06 12:24:33.04114+01

 2017-02-06 13:31:01.82733+01 | 1486384261.82733 |                 0 |              12 |                153580 |                 2691 |            8800737 |       1695505 |            16665 |        36342328 |                     0 |      34872420 | 2017-02-06 12:24:33.04114+01

 2017-02-06 13:31:02.907246+01 | 1486384262.90725 |                 0 |              12 |                153580 |                 2691 |            8800737 |       1696105 |            16671 |        36342328 |                     0 |      34885763 | 2017-02-06 12:24:33.04114+01

 2017-02-06 13:31:03.987202+01 | 1486384263.9872 |                 0 |              12 |                153580 |                 2691 |            8800737 |       1696605 |            16676 |        36342328 |                     0 |      34896667 | 2017-02-06 12:24:33.04114+01

 2017-02-06 13:31:05.054785+01 | 1486384265.05479 |                 0 |              12 |                153580 |                 2691 |            8800737 |       1697105 |            16681 |        36342328 |                     0 |      34908328 | 2017-02-06 12:24:33.04114+01

 2017-02-06 13:31:06.140061+01 | 1486384266.14006 |                 0 |              12 |                153580 |                 2691 |            8800737 |       1697705 |            16687 |        36342328 |                     0 |      34921578 | 2017-02-06 12:24:33.04114+01

 2017-02-06 13:31:07.228671+01 | 1486384267.22867 |                 0 |              12 |                153580 |                 2691 |            8800737 |       1698205 |            16692 |        36342328 |                     0 |      34932662 | 2017-02-06 12:24:33.04114+01

 2017-02-06 13:31:08.318811+01 | 1486384268.31881 |                 0 |              12 |                153580 |                 2691 |            8800737 |       1698705 |            16697 |        36342328 |                     0 |      34944464 | 2017-02-06 12:24:33.04114+01

 2017-02-06 13:31:09.404497+01 | 1486384269.4045 |                 0 |              12 |                153580 |                 2691 |            8800737 |       1699305 |            16703 |        36342328 |                     0 |      34958237 | 2017-02-06 12:24:33.04114+01

