 2017-02-05 05:25:58.52738+01 | 1486268758.52738 | pgbench_branches_pkey |            16384
 2017-02-05 05:25:58.52738+01 | 1486268758.52738 | pgbench_tellers_pkey  |            40960
 2017-02-05 05:25:58.52738+01 | 1486268758.52738 | pgbench_accounts_pkey |        224641024

 2017-02-05 05:25:59.633957+01 | 1486268759.63396 | pgbench_branches_pkey |            16384
 2017-02-05 05:25:59.633957+01 | 1486268759.63396 | pgbench_tellers_pkey  |            40960
 2017-02-05 05:25:59.633957+01 | 1486268759.63396 | pgbench_accounts_pkey |        224641024

 2017-02-05 05:26:00.734674+01 | 1486268760.73467 | pgbench_branches_pkey |            16384
 2017-02-05 05:26:00.734674+01 | 1486268760.73467 | pgbench_tellers_pkey  |            40960
 2017-02-05 05:26:00.734674+01 | 1486268760.73467 | pgbench_accounts_pkey |        224641024

 2017-02-05 05:26:01.823084+01 | 1486268761.82308 | pgbench_branches_pkey |            16384
 2017-02-05 05:26:01.823084+01 | 1486268761.82308 | pgbench_tellers_pkey  |            40960
 2017-02-05 05:26:01.823084+01 | 1486268761.82308 | pgbench_accounts_pkey |        224641024

 2017-02-05 05:26:02.913328+01 | 1486268762.91333 | pgbench_branches_pkey |            16384
 2017-02-05 05:26:02.913328+01 | 1486268762.91333 | pgbench_tellers_pkey  |            40960
 2017-02-05 05:26:02.913328+01 | 1486268762.91333 | pgbench_accounts_pkey |        224641024

 2017-02-05 05:26:04.018807+01 | 1486268764.01881 | pgbench_branches_pkey |            16384
 2017-02-05 05:26:04.018807+01 | 1486268764.01881 | pgbench_tellers_pkey  |            40960
 2017-02-05 05:26:04.018807+01 | 1486268764.01881 | pgbench_accounts_pkey |        224641024

 2017-02-05 05:26:05.11092+01 | 1486268765.11092 | pgbench_branches_pkey |            16384
 2017-02-05 05:26:05.11092+01 | 1486268765.11092 | pgbench_tellers_pkey  |            40960
 2017-02-05 05:26:05.11092+01 | 1486268765.11092 | pgbench_accounts_pkey |        224641024

 2017-02-05 05:26:06.201665+01 | 1486268766.20166 | pgbench_branches_pkey |            16384
 2017-02-05 05:26:06.201665+01 | 1486268766.20166 | pgbench_tellers_pkey  |            40960
 2017-02-05 05:26:06.201665+01 | 1486268766.20166 | pgbench_accounts_pkey |        224641024

 2017-02-05 05:26:07.294562+01 | 1486268767.29456 | pgbench_branches_pkey |            16384
 2017-02-05 05:26:07.294562+01 | 1486268767.29456 | pgbench_tellers_pkey  |            40960
 2017-02-05 05:26:07.294562+01 | 1486268767.29456 | pgbench_accounts_pkey |        224641024

 2017-02-05 05:26:08.374553+01 | 1486268768.37455 | pgbench_branches_pkey |            16384
 2017-02-05 05:26:08.374553+01 | 1486268768.37455 | pgbench_tellers_pkey  |            40960
 2017-02-05 05:26:08.374553+01 | 1486268768.37455 | pgbench_accounts_pkey |        224641024

 2017-02-05 05:26:09.465547+01 | 1486268769.46555 | pgbench_branches_pkey |            16384
 2017-02-05 05:26:09.465547+01 | 1486268769.46555 | pgbench_tellers_pkey  |            40960
 2017-02-05 05:26:09.465547+01 | 1486268769.46555 | pgbench_accounts_pkey |        224641024

 2017-02-05 05:26:10.55265+01 | 1486268770.55265 | pgbench_branches_pkey |            16384
 2017-02-05 05:26:10.55265+01 | 1486268770.55265 | pgbench_tellers_pkey  |            40960
 2017-02-05 05:26:10.55265+01 | 1486268770.55265 | pgbench_accounts_pkey |        224641024

 2017-02-05 05:26:11.655443+01 | 1486268771.65544 | pgbench_branches_pkey |            16384
 2017-02-05 05:26:11.655443+01 | 1486268771.65544 | pgbench_tellers_pkey  |            40960
 2017-02-05 05:26:11.655443+01 | 1486268771.65544 | pgbench_accounts_pkey |        224641024

 2017-02-05 05:26:12.740719+01 | 1486268772.74072 | pgbench_branches_pkey |            16384
 2017-02-05 05:26:12.740719+01 | 1486268772.74072 | pgbench_tellers_pkey  |            40960
 2017-02-05 05:26:12.740719+01 | 1486268772.74072 | pgbench_accounts_pkey |        224641024

 2017-02-05 05:26:13.835933+01 | 1486268773.83593 | pgbench_branches_pkey |            16384
 2017-02-05 05:26:13.835933+01 | 1486268773.83593 | pgbench_tellers_pkey  |            40960
 2017-02-05 05:26:13.835933+01 | 1486268773.83593 | pgbench_accounts_pkey |        224641024

 2017-02-05 05:26:14.936167+01 | 1486268774.93617 | pgbench_branches_pkey |            16384
 2017-02-05 05:26:14.936167+01 | 1486268774.93617 | pgbench_tellers_pkey  |            40960
 2017-02-05 05:26:14.936167+01 | 1486268774.93617 | pgbench_accounts_pkey |        224641024

 2017-02-05 05:26:16.027923+01 | 1486268776.02792 | pgbench_branches_pkey |            16384
 2017-02-05 05:26:16.027923+01 | 1486268776.02792 | pgbench_tellers_pkey  |            40960
 2017-02-05 05:26:16.027923+01 | 1486268776.02792 | pgbench_accounts_pkey |        224641024

 2017-02-05 05:26:17.119156+01 | 1486268777.11916 | pgbench_branches_pkey |            16384
 2017-02-05 05:26:17.119156+01 | 1486268777.11916 | pgbench_tellers_pkey  |            40960
 2017-02-05 05:26:17.119156+01 | 1486268777.11916 | pgbench_accounts_pkey |        224641024

 2017-02-05 05:26:18.212496+01 | 1486268778.2125 | pgbench_branches_pkey |            16384
 2017-02-05 05:26:18.212496+01 | 1486268778.2125 | pgbench_tellers_pkey  |            40960
 2017-02-05 05:26:18.212496+01 | 1486268778.2125 | pgbench_accounts_pkey |        224641024

 2017-02-05 05:26:19.30227+01 | 1486268779.30227 | pgbench_branches_pkey |            16384
 2017-02-05 05:26:19.30227+01 | 1486268779.30227 | pgbench_tellers_pkey  |            40960
 2017-02-05 05:26:19.30227+01 | 1486268779.30227 | pgbench_accounts_pkey |        224641024

 2017-02-05 05:26:20.388214+01 | 1486268780.38821 | pgbench_branches_pkey |            16384
 2017-02-05 05:26:20.388214+01 | 1486268780.38821 | pgbench_tellers_pkey  |            40960
 2017-02-05 05:26:20.388214+01 | 1486268780.38821 | pgbench_accounts_pkey |        224641024

 2017-02-05 05:26:21.475867+01 | 1486268781.47587 | pgbench_branches_pkey |            16384
 2017-02-05 05:26:21.475867+01 | 1486268781.47587 | pgbench_tellers_pkey  |            40960
 2017-02-05 05:26:21.475867+01 | 1486268781.47587 | pgbench_accounts_pkey |        224641024

 2017-02-05 05:26:22.569262+01 | 1486268782.56926 | pgbench_branches_pkey |            16384
 2017-02-05 05:26:22.569262+01 | 1486268782.56926 | pgbench_tellers_pkey  |            40960
 2017-02-05 05:26:22.569262+01 | 1486268782.56926 | pgbench_accounts_pkey |        224641024

 2017-02-05 05:26:23.660653+01 | 1486268783.66065 | pgbench_branches_pkey |            16384
 2017-02-05 05:26:23.660653+01 | 1486268783.66065 | pgbench_tellers_pkey  |            40960
 2017-02-05 05:26:23.660653+01 | 1486268783.66065 | pgbench_accounts_pkey |        224641024

 2017-02-05 05:26:24.759142+01 | 1486268784.75914 | pgbench_branches_pkey |            16384
 2017-02-05 05:26:24.759142+01 | 1486268784.75914 | pgbench_tellers_pkey  |            40960
 2017-02-05 05:26:24.759142+01 | 1486268784.75914 | pgbench_accounts_pkey |        224641024

 2017-02-05 05:26:25.851498+01 | 1486268785.8515 | pgbench_branches_pkey |            16384
 2017-02-05 05:26:25.851498+01 | 1486268785.8515 | pgbench_tellers_pkey  |            40960
 2017-02-05 05:26:25.851498+01 | 1486268785.8515 | pgbench_accounts_pkey |        224641024

 2017-02-05 05:26:26.949964+01 | 1486268786.94996 | pgbench_branches_pkey |            16384
 2017-02-05 05:26:26.949964+01 | 1486268786.94996 | pgbench_tellers_pkey  |            40960
 2017-02-05 05:26:26.949964+01 | 1486268786.94996 | pgbench_accounts_pkey |        224641024

 2017-02-05 05:26:28.031189+01 | 1486268788.03119 | pgbench_branches_pkey |            16384
 2017-02-05 05:26:28.031189+01 | 1486268788.03119 | pgbench_tellers_pkey  |            40960
 2017-02-05 05:26:28.031189+01 | 1486268788.03119 | pgbench_accounts_pkey |        224641024

 2017-02-05 05:26:29.113611+01 | 1486268789.11361 | pgbench_branches_pkey |            16384
 2017-02-05 05:26:29.113611+01 | 1486268789.11361 | pgbench_tellers_pkey  |            40960
 2017-02-05 05:26:29.113611+01 | 1486268789.11361 | pgbench_accounts_pkey |        224641024

 2017-02-05 05:26:30.202906+01 | 1486268790.20291 | pgbench_branches_pkey |            16384
 2017-02-05 05:26:30.202906+01 | 1486268790.20291 | pgbench_tellers_pkey  |            40960
 2017-02-05 05:26:30.202906+01 | 1486268790.20291 | pgbench_accounts_pkey |        224641024

 2017-02-05 05:26:31.292325+01 | 1486268791.29233 | pgbench_branches_pkey |            16384
 2017-02-05 05:26:31.292325+01 | 1486268791.29233 | pgbench_tellers_pkey  |            40960
 2017-02-05 05:26:31.292325+01 | 1486268791.29233 | pgbench_accounts_pkey |        224641024

 2017-02-05 05:26:32.378636+01 | 1486268792.37864 | pgbench_branches_pkey |            16384
 2017-02-05 05:26:32.378636+01 | 1486268792.37864 | pgbench_tellers_pkey  |            40960
 2017-02-05 05:26:32.378636+01 | 1486268792.37864 | pgbench_accounts_pkey |        224641024

 2017-02-05 05:26:33.464871+01 | 1486268793.46487 | pgbench_branches_pkey |            16384
 2017-02-05 05:26:33.464871+01 | 1486268793.46487 | pgbench_tellers_pkey  |            40960
 2017-02-05 05:26:33.464871+01 | 1486268793.46487 | pgbench_accounts_pkey |        224641024

 2017-02-05 05:26:34.556105+01 | 1486268794.5561 | pgbench_branches_pkey |            16384
 2017-02-05 05:26:34.556105+01 | 1486268794.5561 | pgbench_tellers_pkey  |            40960
 2017-02-05 05:26:34.556105+01 | 1486268794.5561 | pgbench_accounts_pkey |        224641024

 2017-02-05 05:26:35.64993+01 | 1486268795.64993 | pgbench_branches_pkey |            16384
 2017-02-05 05:26:35.64993+01 | 1486268795.64993 | pgbench_tellers_pkey  |            40960
 2017-02-05 05:26:35.64993+01 | 1486268795.64993 | pgbench_accounts_pkey |        224641024

 2017-02-05 05:26:36.743615+01 | 1486268796.74361 | pgbench_branches_pkey |            16384
 2017-02-05 05:26:36.743615+01 | 1486268796.74361 | pgbench_tellers_pkey  |            40960
 2017-02-05 05:26:36.743615+01 | 1486268796.74361 | pgbench_accounts_pkey |        224641024

 2017-02-05 05:26:37.840524+01 | 1486268797.84052 | pgbench_branches_pkey |            16384
 2017-02-05 05:26:37.840524+01 | 1486268797.84052 | pgbench_tellers_pkey  |            40960
 2017-02-05 05:26:37.840524+01 | 1486268797.84052 | pgbench_accounts_pkey |        224641024

 2017-02-05 05:26:38.926171+01 | 1486268798.92617 | pgbench_branches_pkey |            16384
 2017-02-05 05:26:38.926171+01 | 1486268798.92617 | pgbench_tellers_pkey  |            40960
 2017-02-05 05:26:38.926171+01 | 1486268798.92617 | pgbench_accounts_pkey |        224641024

 2017-02-05 05:26:40.01494+01 | 1486268800.01494 | pgbench_branches_pkey |            16384
 2017-02-05 05:26:40.01494+01 | 1486268800.01494 | pgbench_tellers_pkey  |            40960
 2017-02-05 05:26:40.01494+01 | 1486268800.01494 | pgbench_accounts_pkey |        224641024

 2017-02-05 05:26:41.103615+01 | 1486268801.10362 | pgbench_branches_pkey |            16384
 2017-02-05 05:26:41.103615+01 | 1486268801.10362 | pgbench_tellers_pkey  |            40960
 2017-02-05 05:26:41.103615+01 | 1486268801.10362 | pgbench_accounts_pkey |        224641024

 2017-02-05 05:26:42.196195+01 | 1486268802.19619 | pgbench_branches_pkey |            16384
 2017-02-05 05:26:42.196195+01 | 1486268802.19619 | pgbench_tellers_pkey  |            40960
 2017-02-05 05:26:42.196195+01 | 1486268802.19619 | pgbench_accounts_pkey |        224641024

 2017-02-05 05:26:43.284917+01 | 1486268803.28492 | pgbench_branches_pkey |            16384
 2017-02-05 05:26:43.284917+01 | 1486268803.28492 | pgbench_tellers_pkey  |            40960
 2017-02-05 05:26:43.284917+01 | 1486268803.28492 | pgbench_accounts_pkey |        224641024

 2017-02-05 05:26:44.388782+01 | 1486268804.38878 | pgbench_branches_pkey |            16384
 2017-02-05 05:26:44.388782+01 | 1486268804.38878 | pgbench_tellers_pkey  |            40960
 2017-02-05 05:26:44.388782+01 | 1486268804.38878 | pgbench_accounts_pkey |        224641024

 2017-02-05 05:26:45.466082+01 | 1486268805.46608 | pgbench_branches_pkey |            16384
 2017-02-05 05:26:45.466082+01 | 1486268805.46608 | pgbench_tellers_pkey  |            40960
 2017-02-05 05:26:45.466082+01 | 1486268805.46608 | pgbench_accounts_pkey |        224641024

 2017-02-05 05:26:46.566318+01 | 1486268806.56632 | pgbench_branches_pkey |            16384
 2017-02-05 05:26:46.566318+01 | 1486268806.56632 | pgbench_tellers_pkey  |            40960
 2017-02-05 05:26:46.566318+01 | 1486268806.56632 | pgbench_accounts_pkey |        224641024

 2017-02-05 05:26:47.662634+01 | 1486268807.66263 | pgbench_branches_pkey |            16384
 2017-02-05 05:26:47.662634+01 | 1486268807.66263 | pgbench_tellers_pkey  |            40960
 2017-02-05 05:26:47.662634+01 | 1486268807.66263 | pgbench_accounts_pkey |        224641024

 2017-02-05 05:26:48.770113+01 | 1486268808.77011 | pgbench_branches_pkey |            16384
 2017-02-05 05:26:48.770113+01 | 1486268808.77011 | pgbench_tellers_pkey  |            40960
 2017-02-05 05:26:48.770113+01 | 1486268808.77011 | pgbench_accounts_pkey |        224641024

 2017-02-05 05:26:49.867769+01 | 1486268809.86777 | pgbench_branches_pkey |            16384
 2017-02-05 05:26:49.867769+01 | 1486268809.86777 | pgbench_tellers_pkey  |            40960
 2017-02-05 05:26:49.867769+01 | 1486268809.86777 | pgbench_accounts_pkey |        224641024

 2017-02-05 05:26:50.963205+01 | 1486268810.96321 | pgbench_branches_pkey |            16384
 2017-02-05 05:26:50.963205+01 | 1486268810.96321 | pgbench_tellers_pkey  |            40960
 2017-02-05 05:26:50.963205+01 | 1486268810.96321 | pgbench_accounts_pkey |        224641024

 2017-02-05 05:26:52.054908+01 | 1486268812.05491 | pgbench_branches_pkey |            16384
 2017-02-05 05:26:52.054908+01 | 1486268812.05491 | pgbench_tellers_pkey  |            40960
 2017-02-05 05:26:52.054908+01 | 1486268812.05491 | pgbench_accounts_pkey |        224641024

 2017-02-05 05:26:53.141282+01 | 1486268813.14128 | pgbench_branches_pkey |            16384
 2017-02-05 05:26:53.141282+01 | 1486268813.14128 | pgbench_tellers_pkey  |            40960
 2017-02-05 05:26:53.141282+01 | 1486268813.14128 | pgbench_accounts_pkey |        224641024

 2017-02-05 05:26:54.230893+01 | 1486268814.23089 | pgbench_branches_pkey |            16384
 2017-02-05 05:26:54.230893+01 | 1486268814.23089 | pgbench_tellers_pkey  |            40960
 2017-02-05 05:26:54.230893+01 | 1486268814.23089 | pgbench_accounts_pkey |        224641024

 2017-02-05 05:26:55.316564+01 | 1486268815.31656 | pgbench_branches_pkey |            16384
 2017-02-05 05:26:55.316564+01 | 1486268815.31656 | pgbench_tellers_pkey  |            40960
 2017-02-05 05:26:55.316564+01 | 1486268815.31656 | pgbench_accounts_pkey |        224641024

 2017-02-05 05:26:56.410924+01 | 1486268816.41092 | pgbench_branches_pkey |            16384
 2017-02-05 05:26:56.410924+01 | 1486268816.41092 | pgbench_tellers_pkey  |            40960
 2017-02-05 05:26:56.410924+01 | 1486268816.41092 | pgbench_accounts_pkey |        224641024

 2017-02-05 05:26:57.487797+01 | 1486268817.4878 | pgbench_branches_pkey |            16384
 2017-02-05 05:26:57.487797+01 | 1486268817.4878 | pgbench_tellers_pkey  |            40960
 2017-02-05 05:26:57.487797+01 | 1486268817.4878 | pgbench_accounts_pkey |        224641024

 2017-02-05 05:26:58.574652+01 | 1486268818.57465 | pgbench_branches_pkey |            16384
 2017-02-05 05:26:58.574652+01 | 1486268818.57465 | pgbench_tellers_pkey  |            40960
 2017-02-05 05:26:58.574652+01 | 1486268818.57465 | pgbench_accounts_pkey |        224641024

 2017-02-05 05:26:59.665117+01 | 1486268819.66512 | pgbench_branches_pkey |            16384
 2017-02-05 05:26:59.665117+01 | 1486268819.66512 | pgbench_tellers_pkey  |            40960
 2017-02-05 05:26:59.665117+01 | 1486268819.66512 | pgbench_accounts_pkey |        224641024

 2017-02-05 05:27:00.764777+01 | 1486268820.76478 | pgbench_branches_pkey |            16384
 2017-02-05 05:27:00.764777+01 | 1486268820.76478 | pgbench_tellers_pkey  |            40960
 2017-02-05 05:27:00.764777+01 | 1486268820.76478 | pgbench_accounts_pkey |        224641024

 2017-02-05 05:27:01.863715+01 | 1486268821.86371 | pgbench_branches_pkey |            16384
 2017-02-05 05:27:01.863715+01 | 1486268821.86371 | pgbench_tellers_pkey  |            40960
 2017-02-05 05:27:01.863715+01 | 1486268821.86371 | pgbench_accounts_pkey |        224641024

 2017-02-05 05:27:02.969604+01 | 1486268822.9696 | pgbench_branches_pkey |            16384
 2017-02-05 05:27:02.969604+01 | 1486268822.9696 | pgbench_tellers_pkey  |            40960
 2017-02-05 05:27:02.969604+01 | 1486268822.9696 | pgbench_accounts_pkey |        224641024

 2017-02-05 05:27:04.061366+01 | 1486268824.06137 | pgbench_branches_pkey |            16384
 2017-02-05 05:27:04.061366+01 | 1486268824.06137 | pgbench_tellers_pkey  |            40960
 2017-02-05 05:27:04.061366+01 | 1486268824.06137 | pgbench_accounts_pkey |        224641024

 2017-02-05 05:27:05.156353+01 | 1486268825.15635 | pgbench_branches_pkey |            16384
 2017-02-05 05:27:05.156353+01 | 1486268825.15635 | pgbench_tellers_pkey  |            40960
 2017-02-05 05:27:05.156353+01 | 1486268825.15635 | pgbench_accounts_pkey |        224641024

 2017-02-05 05:27:06.244746+01 | 1486268826.24475 | pgbench_branches_pkey |            16384
 2017-02-05 05:27:06.244746+01 | 1486268826.24475 | pgbench_tellers_pkey  |            40960
 2017-02-05 05:27:06.244746+01 | 1486268826.24475 | pgbench_accounts_pkey |        224641024

 2017-02-05 05:27:07.327023+01 | 1486268827.32702 | pgbench_branches_pkey |            16384
 2017-02-05 05:27:07.327023+01 | 1486268827.32702 | pgbench_tellers_pkey  |            40960
 2017-02-05 05:27:07.327023+01 | 1486268827.32702 | pgbench_accounts_pkey |        224641024

 2017-02-05 05:27:08.408876+01 | 1486268828.40888 | pgbench_branches_pkey |            16384
 2017-02-05 05:27:08.408876+01 | 1486268828.40888 | pgbench_tellers_pkey  |            40960
 2017-02-05 05:27:08.408876+01 | 1486268828.40888 | pgbench_accounts_pkey |        224641024

 2017-02-05 05:27:09.498725+01 | 1486268829.49872 | pgbench_branches_pkey |            16384
 2017-02-05 05:27:09.498725+01 | 1486268829.49872 | pgbench_tellers_pkey  |            40960
 2017-02-05 05:27:09.498725+01 | 1486268829.49872 | pgbench_accounts_pkey |        224641024

 2017-02-05 05:27:10.592238+01 | 1486268830.59224 | pgbench_branches_pkey |            16384
 2017-02-05 05:27:10.592238+01 | 1486268830.59224 | pgbench_tellers_pkey  |            40960
 2017-02-05 05:27:10.592238+01 | 1486268830.59224 | pgbench_accounts_pkey |        224641024

 2017-02-05 05:27:11.679949+01 | 1486268831.67995 | pgbench_branches_pkey |            16384
 2017-02-05 05:27:11.679949+01 | 1486268831.67995 | pgbench_tellers_pkey  |            40960
 2017-02-05 05:27:11.679949+01 | 1486268831.67995 | pgbench_accounts_pkey |        224641024

 2017-02-05 05:27:12.765487+01 | 1486268832.76549 | pgbench_branches_pkey |            16384
 2017-02-05 05:27:12.765487+01 | 1486268832.76549 | pgbench_tellers_pkey  |            40960
 2017-02-05 05:27:12.765487+01 | 1486268832.76549 | pgbench_accounts_pkey |        224641024

 2017-02-05 05:27:13.866134+01 | 1486268833.86613 | pgbench_branches_pkey |            16384
 2017-02-05 05:27:13.866134+01 | 1486268833.86613 | pgbench_tellers_pkey  |            40960
 2017-02-05 05:27:13.866134+01 | 1486268833.86613 | pgbench_accounts_pkey |        224641024

 2017-02-05 05:27:14.962112+01 | 1486268834.96211 | pgbench_branches_pkey |            16384
 2017-02-05 05:27:14.962112+01 | 1486268834.96211 | pgbench_tellers_pkey  |            40960
 2017-02-05 05:27:14.962112+01 | 1486268834.96211 | pgbench_accounts_pkey |        224641024

 2017-02-05 05:27:16.055304+01 | 1486268836.0553 | pgbench_branches_pkey |            16384
 2017-02-05 05:27:16.055304+01 | 1486268836.0553 | pgbench_tellers_pkey  |            40960
 2017-02-05 05:27:16.055304+01 | 1486268836.0553 | pgbench_accounts_pkey |        224641024

 2017-02-05 05:27:17.145088+01 | 1486268837.14509 | pgbench_branches_pkey |            16384
 2017-02-05 05:27:17.145088+01 | 1486268837.14509 | pgbench_tellers_pkey  |            40960
 2017-02-05 05:27:17.145088+01 | 1486268837.14509 | pgbench_accounts_pkey |        224641024

 2017-02-05 05:27:18.236183+01 | 1486268838.23618 | pgbench_branches_pkey |            16384
 2017-02-05 05:27:18.236183+01 | 1486268838.23618 | pgbench_tellers_pkey  |            40960
 2017-02-05 05:27:18.236183+01 | 1486268838.23618 | pgbench_accounts_pkey |        224641024

 2017-02-05 05:27:19.325787+01 | 1486268839.32579 | pgbench_branches_pkey |            16384
 2017-02-05 05:27:19.325787+01 | 1486268839.32579 | pgbench_tellers_pkey  |            40960
 2017-02-05 05:27:19.325787+01 | 1486268839.32579 | pgbench_accounts_pkey |        224641024

 2017-02-05 05:27:20.41496+01 | 1486268840.41496 | pgbench_branches_pkey |            16384
 2017-02-05 05:27:20.41496+01 | 1486268840.41496 | pgbench_tellers_pkey  |            40960
 2017-02-05 05:27:20.41496+01 | 1486268840.41496 | pgbench_accounts_pkey |        224641024

 2017-02-05 05:27:21.496276+01 | 1486268841.49628 | pgbench_branches_pkey |            16384
 2017-02-05 05:27:21.496276+01 | 1486268841.49628 | pgbench_tellers_pkey  |            40960
 2017-02-05 05:27:21.496276+01 | 1486268841.49628 | pgbench_accounts_pkey |        224641024

 2017-02-05 05:27:22.584787+01 | 1486268842.58479 | pgbench_branches_pkey |            16384
 2017-02-05 05:27:22.584787+01 | 1486268842.58479 | pgbench_tellers_pkey  |            40960
 2017-02-05 05:27:22.584787+01 | 1486268842.58479 | pgbench_accounts_pkey |        224641024

 2017-02-05 05:27:23.681746+01 | 1486268843.68175 | pgbench_branches_pkey |            16384
 2017-02-05 05:27:23.681746+01 | 1486268843.68175 | pgbench_tellers_pkey  |            40960
 2017-02-05 05:27:23.681746+01 | 1486268843.68175 | pgbench_accounts_pkey |        224641024

 2017-02-05 05:27:24.777522+01 | 1486268844.77752 | pgbench_branches_pkey |            16384
 2017-02-05 05:27:24.777522+01 | 1486268844.77752 | pgbench_tellers_pkey  |            40960
 2017-02-05 05:27:24.777522+01 | 1486268844.77752 | pgbench_accounts_pkey |        224641024

 2017-02-05 05:27:25.871012+01 | 1486268845.87101 | pgbench_branches_pkey |            16384
 2017-02-05 05:27:25.871012+01 | 1486268845.87101 | pgbench_tellers_pkey  |            40960
 2017-02-05 05:27:25.871012+01 | 1486268845.87101 | pgbench_accounts_pkey |        224641024

 2017-02-05 05:27:26.966174+01 | 1486268846.96617 | pgbench_branches_pkey |            16384
 2017-02-05 05:27:26.966174+01 | 1486268846.96617 | pgbench_tellers_pkey  |            40960
 2017-02-05 05:27:26.966174+01 | 1486268846.96617 | pgbench_accounts_pkey |        224641024

 2017-02-05 05:27:28.052338+01 | 1486268848.05234 | pgbench_branches_pkey |            16384
 2017-02-05 05:27:28.052338+01 | 1486268848.05234 | pgbench_tellers_pkey  |            40960
 2017-02-05 05:27:28.052338+01 | 1486268848.05234 | pgbench_accounts_pkey |        224641024

 2017-02-05 05:27:29.144239+01 | 1486268849.14424 | pgbench_branches_pkey |            16384
 2017-02-05 05:27:29.144239+01 | 1486268849.14424 | pgbench_tellers_pkey  |            40960
 2017-02-05 05:27:29.144239+01 | 1486268849.14424 | pgbench_accounts_pkey |        224641024

 2017-02-05 05:27:30.233201+01 | 1486268850.2332 | pgbench_branches_pkey |            16384
 2017-02-05 05:27:30.233201+01 | 1486268850.2332 | pgbench_tellers_pkey  |            40960
 2017-02-05 05:27:30.233201+01 | 1486268850.2332 | pgbench_accounts_pkey |        224641024

 2017-02-05 05:27:31.324961+01 | 1486268851.32496 | pgbench_branches_pkey |            16384
 2017-02-05 05:27:31.324961+01 | 1486268851.32496 | pgbench_tellers_pkey  |            40960
 2017-02-05 05:27:31.324961+01 | 1486268851.32496 | pgbench_accounts_pkey |        224641024

 2017-02-05 05:27:32.413774+01 | 1486268852.41377 | pgbench_branches_pkey |            16384
 2017-02-05 05:27:32.413774+01 | 1486268852.41377 | pgbench_tellers_pkey  |            40960
 2017-02-05 05:27:32.413774+01 | 1486268852.41377 | pgbench_accounts_pkey |        224641024

 2017-02-05 05:27:33.500511+01 | 1486268853.50051 | pgbench_branches_pkey |            16384
 2017-02-05 05:27:33.500511+01 | 1486268853.50051 | pgbench_tellers_pkey  |            40960
 2017-02-05 05:27:33.500511+01 | 1486268853.50051 | pgbench_accounts_pkey |        224641024

 2017-02-05 05:27:34.58272+01 | 1486268854.58272 | pgbench_branches_pkey |            16384
 2017-02-05 05:27:34.58272+01 | 1486268854.58272 | pgbench_tellers_pkey  |            40960
 2017-02-05 05:27:34.58272+01 | 1486268854.58272 | pgbench_accounts_pkey |        224641024

 2017-02-05 05:27:35.681352+01 | 1486268855.68135 | pgbench_branches_pkey |            16384
 2017-02-05 05:27:35.681352+01 | 1486268855.68135 | pgbench_tellers_pkey  |            40960
 2017-02-05 05:27:35.681352+01 | 1486268855.68135 | pgbench_accounts_pkey |        224641024

 2017-02-05 05:27:36.773025+01 | 1486268856.77303 | pgbench_branches_pkey |            16384
 2017-02-05 05:27:36.773025+01 | 1486268856.77303 | pgbench_tellers_pkey  |            40960
 2017-02-05 05:27:36.773025+01 | 1486268856.77303 | pgbench_accounts_pkey |        224641024

 2017-02-05 05:27:37.870528+01 | 1486268857.87053 | pgbench_branches_pkey |            16384
 2017-02-05 05:27:37.870528+01 | 1486268857.87053 | pgbench_tellers_pkey  |            40960
 2017-02-05 05:27:37.870528+01 | 1486268857.87053 | pgbench_accounts_pkey |        224641024

 2017-02-05 05:27:38.960155+01 | 1486268858.96016 | pgbench_branches_pkey |            16384
 2017-02-05 05:27:38.960155+01 | 1486268858.96016 | pgbench_tellers_pkey  |            40960
 2017-02-05 05:27:38.960155+01 | 1486268858.96016 | pgbench_accounts_pkey |        224641024

 2017-02-05 05:27:40.050572+01 | 1486268860.05057 | pgbench_branches_pkey |            16384
 2017-02-05 05:27:40.050572+01 | 1486268860.05057 | pgbench_tellers_pkey  |            40960
 2017-02-05 05:27:40.050572+01 | 1486268860.05057 | pgbench_accounts_pkey |        224641024

 2017-02-05 05:27:41.147828+01 | 1486268861.14783 | pgbench_branches_pkey |            16384
 2017-02-05 05:27:41.147828+01 | 1486268861.14783 | pgbench_tellers_pkey  |            40960
 2017-02-05 05:27:41.147828+01 | 1486268861.14783 | pgbench_accounts_pkey |        224641024

 2017-02-05 05:27:42.240879+01 | 1486268862.24088 | pgbench_branches_pkey |            16384
 2017-02-05 05:27:42.240879+01 | 1486268862.24088 | pgbench_tellers_pkey  |            40960
 2017-02-05 05:27:42.240879+01 | 1486268862.24088 | pgbench_accounts_pkey |        224641024

 2017-02-05 05:27:43.324988+01 | 1486268863.32499 | pgbench_branches_pkey |            16384
 2017-02-05 05:27:43.324988+01 | 1486268863.32499 | pgbench_tellers_pkey  |            40960
 2017-02-05 05:27:43.324988+01 | 1486268863.32499 | pgbench_accounts_pkey |        224641024

 2017-02-05 05:27:44.422686+01 | 1486268864.42269 | pgbench_branches_pkey |            16384
 2017-02-05 05:27:44.422686+01 | 1486268864.42269 | pgbench_tellers_pkey  |            40960
 2017-02-05 05:27:44.422686+01 | 1486268864.42269 | pgbench_accounts_pkey |        224641024

 2017-02-05 05:27:45.502535+01 | 1486268865.50254 | pgbench_branches_pkey |            16384
 2017-02-05 05:27:45.502535+01 | 1486268865.50254 | pgbench_tellers_pkey  |            40960
 2017-02-05 05:27:45.502535+01 | 1486268865.50254 | pgbench_accounts_pkey |        224641024

 2017-02-05 05:27:46.585757+01 | 1486268866.58576 | pgbench_branches_pkey |            16384
 2017-02-05 05:27:46.585757+01 | 1486268866.58576 | pgbench_tellers_pkey  |            40960
 2017-02-05 05:27:46.585757+01 | 1486268866.58576 | pgbench_accounts_pkey |        224641024

 2017-02-05 05:27:47.677305+01 | 1486268867.6773 | pgbench_branches_pkey |            16384
 2017-02-05 05:27:47.677305+01 | 1486268867.6773 | pgbench_tellers_pkey  |            40960
 2017-02-05 05:27:47.677305+01 | 1486268867.6773 | pgbench_accounts_pkey |        224641024

 2017-02-05 05:27:48.766162+01 | 1486268868.76616 | pgbench_branches_pkey |            16384
 2017-02-05 05:27:48.766162+01 | 1486268868.76616 | pgbench_tellers_pkey  |            40960
 2017-02-05 05:27:48.766162+01 | 1486268868.76616 | pgbench_accounts_pkey |        224641024

 2017-02-05 05:27:49.854492+01 | 1486268869.85449 | pgbench_branches_pkey |            16384
 2017-02-05 05:27:49.854492+01 | 1486268869.85449 | pgbench_tellers_pkey  |            40960
 2017-02-05 05:27:49.854492+01 | 1486268869.85449 | pgbench_accounts_pkey |        224641024

 2017-02-05 05:27:50.947551+01 | 1486268870.94755 | pgbench_branches_pkey |            16384
 2017-02-05 05:27:50.947551+01 | 1486268870.94755 | pgbench_tellers_pkey  |            40960
 2017-02-05 05:27:50.947551+01 | 1486268870.94755 | pgbench_accounts_pkey |        224641024

 2017-02-05 05:27:52.053747+01 | 1486268872.05375 | pgbench_branches_pkey |            16384
 2017-02-05 05:27:52.053747+01 | 1486268872.05375 | pgbench_tellers_pkey  |            40960
 2017-02-05 05:27:52.053747+01 | 1486268872.05375 | pgbench_accounts_pkey |        224641024

 2017-02-05 05:27:53.141183+01 | 1486268873.14118 | pgbench_branches_pkey |            16384
 2017-02-05 05:27:53.141183+01 | 1486268873.14118 | pgbench_tellers_pkey  |            40960
 2017-02-05 05:27:53.141183+01 | 1486268873.14118 | pgbench_accounts_pkey |        224641024

 2017-02-05 05:27:54.22905+01 | 1486268874.22905 | pgbench_branches_pkey |            16384
 2017-02-05 05:27:54.22905+01 | 1486268874.22905 | pgbench_tellers_pkey  |            40960
 2017-02-05 05:27:54.22905+01 | 1486268874.22905 | pgbench_accounts_pkey |        224641024

 2017-02-05 05:27:55.320874+01 | 1486268875.32087 | pgbench_branches_pkey |            16384
 2017-02-05 05:27:55.320874+01 | 1486268875.32087 | pgbench_tellers_pkey  |            40960
 2017-02-05 05:27:55.320874+01 | 1486268875.32087 | pgbench_accounts_pkey |        224641024

 2017-02-05 05:27:56.407276+01 | 1486268876.40728 | pgbench_branches_pkey |            16384
 2017-02-05 05:27:56.407276+01 | 1486268876.40728 | pgbench_tellers_pkey  |            40960
 2017-02-05 05:27:56.407276+01 | 1486268876.40728 | pgbench_accounts_pkey |        224641024

 2017-02-05 05:27:57.502334+01 | 1486268877.50233 | pgbench_branches_pkey |            16384
 2017-02-05 05:27:57.502334+01 | 1486268877.50233 | pgbench_tellers_pkey  |            40960
 2017-02-05 05:27:57.502334+01 | 1486268877.50233 | pgbench_accounts_pkey |        224641024

 2017-02-05 05:27:58.578745+01 | 1486268878.57874 | pgbench_branches_pkey |            16384
 2017-02-05 05:27:58.578745+01 | 1486268878.57874 | pgbench_tellers_pkey  |            40960
 2017-02-05 05:27:58.578745+01 | 1486268878.57874 | pgbench_accounts_pkey |        224641024

 2017-02-05 05:27:59.672138+01 | 1486268879.67214 | pgbench_branches_pkey |            16384
 2017-02-05 05:27:59.672138+01 | 1486268879.67214 | pgbench_tellers_pkey  |            40960
 2017-02-05 05:27:59.672138+01 | 1486268879.67214 | pgbench_accounts_pkey |        224641024

 2017-02-05 05:28:00.757111+01 | 1486268880.75711 | pgbench_branches_pkey |            16384
 2017-02-05 05:28:00.757111+01 | 1486268880.75711 | pgbench_tellers_pkey  |            40960
 2017-02-05 05:28:00.757111+01 | 1486268880.75711 | pgbench_accounts_pkey |        224641024

 2017-02-05 05:28:01.852797+01 | 1486268881.8528 | pgbench_branches_pkey |            16384
 2017-02-05 05:28:01.852797+01 | 1486268881.8528 | pgbench_tellers_pkey  |            40960
 2017-02-05 05:28:01.852797+01 | 1486268881.8528 | pgbench_accounts_pkey |        224641024

 2017-02-05 05:28:02.942898+01 | 1486268882.9429 | pgbench_branches_pkey |            16384
 2017-02-05 05:28:02.942898+01 | 1486268882.9429 | pgbench_tellers_pkey  |            40960
 2017-02-05 05:28:02.942898+01 | 1486268882.9429 | pgbench_accounts_pkey |        224641024

 2017-02-05 05:28:04.037352+01 | 1486268884.03735 | pgbench_branches_pkey |            16384
 2017-02-05 05:28:04.037352+01 | 1486268884.03735 | pgbench_tellers_pkey  |            40960
 2017-02-05 05:28:04.037352+01 | 1486268884.03735 | pgbench_accounts_pkey |        224641024

 2017-02-05 05:28:05.131238+01 | 1486268885.13124 | pgbench_branches_pkey |            16384
 2017-02-05 05:28:05.131238+01 | 1486268885.13124 | pgbench_tellers_pkey  |            40960
 2017-02-05 05:28:05.131238+01 | 1486268885.13124 | pgbench_accounts_pkey |        224641024

 2017-02-05 05:28:06.22277+01 | 1486268886.22277 | pgbench_branches_pkey |            16384
 2017-02-05 05:28:06.22277+01 | 1486268886.22277 | pgbench_tellers_pkey  |            40960
 2017-02-05 05:28:06.22277+01 | 1486268886.22277 | pgbench_accounts_pkey |        224641024

 2017-02-05 05:28:07.3177+01 | 1486268887.3177 | pgbench_branches_pkey |            16384
 2017-02-05 05:28:07.3177+01 | 1486268887.3177 | pgbench_tellers_pkey  |            40960
 2017-02-05 05:28:07.3177+01 | 1486268887.3177 | pgbench_accounts_pkey |        224641024

 2017-02-05 05:28:08.404672+01 | 1486268888.40467 | pgbench_branches_pkey |            16384
 2017-02-05 05:28:08.404672+01 | 1486268888.40467 | pgbench_tellers_pkey  |            40960
 2017-02-05 05:28:08.404672+01 | 1486268888.40467 | pgbench_accounts_pkey |        224641024

 2017-02-05 05:28:09.490247+01 | 1486268889.49025 | pgbench_branches_pkey |            16384
 2017-02-05 05:28:09.490247+01 | 1486268889.49025 | pgbench_tellers_pkey  |            40960
 2017-02-05 05:28:09.490247+01 | 1486268889.49025 | pgbench_accounts_pkey |        224641024

 2017-02-05 05:28:10.567913+01 | 1486268890.56791 | pgbench_branches_pkey |            16384
 2017-02-05 05:28:10.567913+01 | 1486268890.56791 | pgbench_tellers_pkey  |            40960
 2017-02-05 05:28:10.567913+01 | 1486268890.56791 | pgbench_accounts_pkey |        224641024

 2017-02-05 05:28:11.651542+01 | 1486268891.65154 | pgbench_branches_pkey |            16384
 2017-02-05 05:28:11.651542+01 | 1486268891.65154 | pgbench_tellers_pkey  |            40960
 2017-02-05 05:28:11.651542+01 | 1486268891.65154 | pgbench_accounts_pkey |        224641024

 2017-02-05 05:28:12.7433+01 | 1486268892.7433 | pgbench_branches_pkey |            16384
 2017-02-05 05:28:12.7433+01 | 1486268892.7433 | pgbench_tellers_pkey  |            40960
 2017-02-05 05:28:12.7433+01 | 1486268892.7433 | pgbench_accounts_pkey |        224641024

 2017-02-05 05:28:13.839127+01 | 1486268893.83913 | pgbench_branches_pkey |            16384
 2017-02-05 05:28:13.839127+01 | 1486268893.83913 | pgbench_tellers_pkey  |            40960
 2017-02-05 05:28:13.839127+01 | 1486268893.83913 | pgbench_accounts_pkey |        224641024

 2017-02-05 05:28:14.933983+01 | 1486268894.93398 | pgbench_branches_pkey |            16384
 2017-02-05 05:28:14.933983+01 | 1486268894.93398 | pgbench_tellers_pkey  |            40960
 2017-02-05 05:28:14.933983+01 | 1486268894.93398 | pgbench_accounts_pkey |        224641024

 2017-02-05 05:28:16.027957+01 | 1486268896.02796 | pgbench_branches_pkey |            16384
 2017-02-05 05:28:16.027957+01 | 1486268896.02796 | pgbench_tellers_pkey  |            40960
 2017-02-05 05:28:16.027957+01 | 1486268896.02796 | pgbench_accounts_pkey |        224641024

 2017-02-05 05:28:17.11683+01 | 1486268897.11683 | pgbench_branches_pkey |            16384
 2017-02-05 05:28:17.11683+01 | 1486268897.11683 | pgbench_tellers_pkey  |            40960
 2017-02-05 05:28:17.11683+01 | 1486268897.11683 | pgbench_accounts_pkey |        224641024

 2017-02-05 05:28:18.209628+01 | 1486268898.20963 | pgbench_branches_pkey |            16384
 2017-02-05 05:28:18.209628+01 | 1486268898.20963 | pgbench_tellers_pkey  |            40960
 2017-02-05 05:28:18.209628+01 | 1486268898.20963 | pgbench_accounts_pkey |        224641024

 2017-02-05 05:28:19.306678+01 | 1486268899.30668 | pgbench_branches_pkey |            16384
 2017-02-05 05:28:19.306678+01 | 1486268899.30668 | pgbench_tellers_pkey  |            40960
 2017-02-05 05:28:19.306678+01 | 1486268899.30668 | pgbench_accounts_pkey |        224641024

 2017-02-05 05:28:20.400469+01 | 1486268900.40047 | pgbench_branches_pkey |            16384
 2017-02-05 05:28:20.400469+01 | 1486268900.40047 | pgbench_tellers_pkey  |            40960
 2017-02-05 05:28:20.400469+01 | 1486268900.40047 | pgbench_accounts_pkey |        224641024

 2017-02-05 05:28:21.489664+01 | 1486268901.48966 | pgbench_branches_pkey |            16384
 2017-02-05 05:28:21.489664+01 | 1486268901.48966 | pgbench_tellers_pkey  |            40960
 2017-02-05 05:28:21.489664+01 | 1486268901.48966 | pgbench_accounts_pkey |        224641024

 2017-02-05 05:28:22.567943+01 | 1486268902.56794 | pgbench_branches_pkey |            16384
 2017-02-05 05:28:22.567943+01 | 1486268902.56794 | pgbench_tellers_pkey  |            40960
 2017-02-05 05:28:22.567943+01 | 1486268902.56794 | pgbench_accounts_pkey |        224641024

 2017-02-05 05:28:23.6515+01 | 1486268903.6515 | pgbench_branches_pkey |            16384
 2017-02-05 05:28:23.6515+01 | 1486268903.6515 | pgbench_tellers_pkey  |            40960
 2017-02-05 05:28:23.6515+01 | 1486268903.6515 | pgbench_accounts_pkey |        224641024

 2017-02-05 05:28:24.740812+01 | 1486268904.74081 | pgbench_branches_pkey |            16384
 2017-02-05 05:28:24.740812+01 | 1486268904.74081 | pgbench_tellers_pkey  |            40960
 2017-02-05 05:28:24.740812+01 | 1486268904.74081 | pgbench_accounts_pkey |        224641024

 2017-02-05 05:28:25.835889+01 | 1486268905.83589 | pgbench_branches_pkey |            16384
 2017-02-05 05:28:25.835889+01 | 1486268905.83589 | pgbench_tellers_pkey  |            40960
 2017-02-05 05:28:25.835889+01 | 1486268905.83589 | pgbench_accounts_pkey |        224641024

 2017-02-05 05:28:26.924177+01 | 1486268906.92418 | pgbench_branches_pkey |            16384
 2017-02-05 05:28:26.924177+01 | 1486268906.92418 | pgbench_tellers_pkey  |            40960
 2017-02-05 05:28:26.924177+01 | 1486268906.92418 | pgbench_accounts_pkey |        224641024

 2017-02-05 05:28:28.021074+01 | 1486268908.02107 | pgbench_branches_pkey |            16384
 2017-02-05 05:28:28.021074+01 | 1486268908.02107 | pgbench_tellers_pkey  |            40960
 2017-02-05 05:28:28.021074+01 | 1486268908.02107 | pgbench_accounts_pkey |        224641024

 2017-02-05 05:28:29.108101+01 | 1486268909.1081 | pgbench_branches_pkey |            16384
 2017-02-05 05:28:29.108101+01 | 1486268909.1081 | pgbench_tellers_pkey  |            40960
 2017-02-05 05:28:29.108101+01 | 1486268909.1081 | pgbench_accounts_pkey |        224641024

 2017-02-05 05:28:30.192821+01 | 1486268910.19282 | pgbench_branches_pkey |            16384
 2017-02-05 05:28:30.192821+01 | 1486268910.19282 | pgbench_tellers_pkey  |            40960
 2017-02-05 05:28:30.192821+01 | 1486268910.19282 | pgbench_accounts_pkey |        224641024

 2017-02-05 05:28:31.288836+01 | 1486268911.28884 | pgbench_branches_pkey |            16384
 2017-02-05 05:28:31.288836+01 | 1486268911.28884 | pgbench_tellers_pkey  |            40960
 2017-02-05 05:28:31.288836+01 | 1486268911.28884 | pgbench_accounts_pkey |        224641024

 2017-02-05 05:28:32.376487+01 | 1486268912.37649 | pgbench_branches_pkey |            16384
 2017-02-05 05:28:32.376487+01 | 1486268912.37649 | pgbench_tellers_pkey  |            40960
 2017-02-05 05:28:32.376487+01 | 1486268912.37649 | pgbench_accounts_pkey |        224641024

 2017-02-05 05:28:33.46675+01 | 1486268913.46675 | pgbench_branches_pkey |            16384
 2017-02-05 05:28:33.46675+01 | 1486268913.46675 | pgbench_tellers_pkey  |            40960
 2017-02-05 05:28:33.46675+01 | 1486268913.46675 | pgbench_accounts_pkey |        224641024

 2017-02-05 05:28:34.552431+01 | 1486268914.55243 | pgbench_branches_pkey |            16384
 2017-02-05 05:28:34.552431+01 | 1486268914.55243 | pgbench_tellers_pkey  |            40960
 2017-02-05 05:28:34.552431+01 | 1486268914.55243 | pgbench_accounts_pkey |        224641024

 2017-02-05 05:28:35.634382+01 | 1486268915.63438 | pgbench_branches_pkey |            16384
 2017-02-05 05:28:35.634382+01 | 1486268915.63438 | pgbench_tellers_pkey  |            40960
 2017-02-05 05:28:35.634382+01 | 1486268915.63438 | pgbench_accounts_pkey |        224641024

 2017-02-05 05:28:36.718404+01 | 1486268916.7184 | pgbench_branches_pkey |            16384
 2017-02-05 05:28:36.718404+01 | 1486268916.7184 | pgbench_tellers_pkey  |            40960
 2017-02-05 05:28:36.718404+01 | 1486268916.7184 | pgbench_accounts_pkey |        224641024

 2017-02-05 05:28:37.802967+01 | 1486268917.80297 | pgbench_branches_pkey |            16384
 2017-02-05 05:28:37.802967+01 | 1486268917.80297 | pgbench_tellers_pkey  |            40960
 2017-02-05 05:28:37.802967+01 | 1486268917.80297 | pgbench_accounts_pkey |        224641024

 2017-02-05 05:28:38.890829+01 | 1486268918.89083 | pgbench_branches_pkey |            16384
 2017-02-05 05:28:38.890829+01 | 1486268918.89083 | pgbench_tellers_pkey  |            40960
 2017-02-05 05:28:38.890829+01 | 1486268918.89083 | pgbench_accounts_pkey |        224641024

 2017-02-05 05:28:39.980737+01 | 1486268919.98074 | pgbench_branches_pkey |            16384
 2017-02-05 05:28:39.980737+01 | 1486268919.98074 | pgbench_tellers_pkey  |            40960
 2017-02-05 05:28:39.980737+01 | 1486268919.98074 | pgbench_accounts_pkey |        224641024

 2017-02-05 05:28:41.066275+01 | 1486268921.06627 | pgbench_branches_pkey |            16384
 2017-02-05 05:28:41.066275+01 | 1486268921.06627 | pgbench_tellers_pkey  |            40960
 2017-02-05 05:28:41.066275+01 | 1486268921.06627 | pgbench_accounts_pkey |        224641024

 2017-02-05 05:28:42.161364+01 | 1486268922.16136 | pgbench_branches_pkey |            16384
 2017-02-05 05:28:42.161364+01 | 1486268922.16136 | pgbench_tellers_pkey  |            40960
 2017-02-05 05:28:42.161364+01 | 1486268922.16136 | pgbench_accounts_pkey |        224641024

 2017-02-05 05:28:43.244698+01 | 1486268923.2447 | pgbench_branches_pkey |            16384
 2017-02-05 05:28:43.244698+01 | 1486268923.2447 | pgbench_tellers_pkey  |            40960
 2017-02-05 05:28:43.244698+01 | 1486268923.2447 | pgbench_accounts_pkey |        224641024

 2017-02-05 05:28:44.326698+01 | 1486268924.3267 | pgbench_branches_pkey |            16384
 2017-02-05 05:28:44.326698+01 | 1486268924.3267 | pgbench_tellers_pkey  |            40960
 2017-02-05 05:28:44.326698+01 | 1486268924.3267 | pgbench_accounts_pkey |        224641024

 2017-02-05 05:28:45.416114+01 | 1486268925.41611 | pgbench_branches_pkey |            16384
 2017-02-05 05:28:45.416114+01 | 1486268925.41611 | pgbench_tellers_pkey  |            40960
 2017-02-05 05:28:45.416114+01 | 1486268925.41611 | pgbench_accounts_pkey |        224641024

 2017-02-05 05:28:46.51692+01 | 1486268926.51692 | pgbench_branches_pkey |            16384
 2017-02-05 05:28:46.51692+01 | 1486268926.51692 | pgbench_tellers_pkey  |            40960
 2017-02-05 05:28:46.51692+01 | 1486268926.51692 | pgbench_accounts_pkey |        224641024

 2017-02-05 05:28:47.596784+01 | 1486268927.59678 | pgbench_branches_pkey |            16384
 2017-02-05 05:28:47.596784+01 | 1486268927.59678 | pgbench_tellers_pkey  |            40960
 2017-02-05 05:28:47.596784+01 | 1486268927.59678 | pgbench_accounts_pkey |        224641024

 2017-02-05 05:28:48.678078+01 | 1486268928.67808 | pgbench_branches_pkey |            16384
 2017-02-05 05:28:48.678078+01 | 1486268928.67808 | pgbench_tellers_pkey  |            40960
 2017-02-05 05:28:48.678078+01 | 1486268928.67808 | pgbench_accounts_pkey |        224641024

 2017-02-05 05:28:49.771965+01 | 1486268929.77197 | pgbench_branches_pkey |            16384
 2017-02-05 05:28:49.771965+01 | 1486268929.77197 | pgbench_tellers_pkey  |            40960
 2017-02-05 05:28:49.771965+01 | 1486268929.77197 | pgbench_accounts_pkey |        224641024

 2017-02-05 05:28:50.862997+01 | 1486268930.863 | pgbench_branches_pkey |            16384
 2017-02-05 05:28:50.862997+01 | 1486268930.863 | pgbench_tellers_pkey  |            40960
 2017-02-05 05:28:50.862997+01 | 1486268930.863 | pgbench_accounts_pkey |        224641024

 2017-02-05 05:28:51.950507+01 | 1486268931.95051 | pgbench_branches_pkey |            16384
 2017-02-05 05:28:51.950507+01 | 1486268931.95051 | pgbench_tellers_pkey  |            40960
 2017-02-05 05:28:51.950507+01 | 1486268931.95051 | pgbench_accounts_pkey |        224641024

 2017-02-05 05:28:53.045005+01 | 1486268933.04501 | pgbench_branches_pkey |            16384
 2017-02-05 05:28:53.045005+01 | 1486268933.04501 | pgbench_tellers_pkey  |            40960
 2017-02-05 05:28:53.045005+01 | 1486268933.04501 | pgbench_accounts_pkey |        224641024

 2017-02-05 05:28:54.146033+01 | 1486268934.14603 | pgbench_branches_pkey |            16384
 2017-02-05 05:28:54.146033+01 | 1486268934.14603 | pgbench_tellers_pkey  |            40960
 2017-02-05 05:28:54.146033+01 | 1486268934.14603 | pgbench_accounts_pkey |        224641024

 2017-02-05 05:28:55.242936+01 | 1486268935.24294 | pgbench_branches_pkey |            16384
 2017-02-05 05:28:55.242936+01 | 1486268935.24294 | pgbench_tellers_pkey  |            40960
 2017-02-05 05:28:55.242936+01 | 1486268935.24294 | pgbench_accounts_pkey |        224641024

 2017-02-05 05:28:56.33308+01 | 1486268936.33308 | pgbench_branches_pkey |            16384
 2017-02-05 05:28:56.33308+01 | 1486268936.33308 | pgbench_tellers_pkey  |            40960
 2017-02-05 05:28:56.33308+01 | 1486268936.33308 | pgbench_accounts_pkey |        224641024

 2017-02-05 05:28:57.420972+01 | 1486268937.42097 | pgbench_branches_pkey |            16384
 2017-02-05 05:28:57.420972+01 | 1486268937.42097 | pgbench_tellers_pkey  |            40960
 2017-02-05 05:28:57.420972+01 | 1486268937.42097 | pgbench_accounts_pkey |        224641024

 2017-02-05 05:28:58.510254+01 | 1486268938.51025 | pgbench_branches_pkey |            16384
 2017-02-05 05:28:58.510254+01 | 1486268938.51025 | pgbench_tellers_pkey  |            40960
 2017-02-05 05:28:58.510254+01 | 1486268938.51025 | pgbench_accounts_pkey |        224641024

 2017-02-05 05:28:59.587981+01 | 1486268939.58798 | pgbench_branches_pkey |            16384
 2017-02-05 05:28:59.587981+01 | 1486268939.58798 | pgbench_tellers_pkey  |            40960
 2017-02-05 05:28:59.587981+01 | 1486268939.58798 | pgbench_accounts_pkey |        224641024

 2017-02-05 05:29:00.665366+01 | 1486268940.66537 | pgbench_branches_pkey |            16384
 2017-02-05 05:29:00.665366+01 | 1486268940.66537 | pgbench_tellers_pkey  |            40960
 2017-02-05 05:29:00.665366+01 | 1486268940.66537 | pgbench_accounts_pkey |        224641024

 2017-02-05 05:29:01.750878+01 | 1486268941.75088 | pgbench_branches_pkey |            16384
 2017-02-05 05:29:01.750878+01 | 1486268941.75088 | pgbench_tellers_pkey  |            40960
 2017-02-05 05:29:01.750878+01 | 1486268941.75088 | pgbench_accounts_pkey |        224641024

 2017-02-05 05:29:02.834053+01 | 1486268942.83405 | pgbench_branches_pkey |            16384
 2017-02-05 05:29:02.834053+01 | 1486268942.83405 | pgbench_tellers_pkey  |            40960
 2017-02-05 05:29:02.834053+01 | 1486268942.83405 | pgbench_accounts_pkey |        224641024

 2017-02-05 05:29:03.936721+01 | 1486268943.93672 | pgbench_branches_pkey |            16384
 2017-02-05 05:29:03.936721+01 | 1486268943.93672 | pgbench_tellers_pkey  |            40960
 2017-02-05 05:29:03.936721+01 | 1486268943.93672 | pgbench_accounts_pkey |        224641024

 2017-02-05 05:29:05.02428+01 | 1486268945.02428 | pgbench_branches_pkey |            16384
 2017-02-05 05:29:05.02428+01 | 1486268945.02428 | pgbench_tellers_pkey  |            40960
 2017-02-05 05:29:05.02428+01 | 1486268945.02428 | pgbench_accounts_pkey |        224641024

 2017-02-05 05:29:06.12706+01 | 1486268946.12706 | pgbench_branches_pkey |            16384
 2017-02-05 05:29:06.12706+01 | 1486268946.12706 | pgbench_tellers_pkey  |            40960
 2017-02-05 05:29:06.12706+01 | 1486268946.12706 | pgbench_accounts_pkey |        224641024

 2017-02-05 05:29:07.213305+01 | 1486268947.2133 | pgbench_branches_pkey |            16384
 2017-02-05 05:29:07.213305+01 | 1486268947.2133 | pgbench_tellers_pkey  |            40960
 2017-02-05 05:29:07.213305+01 | 1486268947.2133 | pgbench_accounts_pkey |        224641024

 2017-02-05 05:29:08.295148+01 | 1486268948.29515 | pgbench_branches_pkey |            16384
 2017-02-05 05:29:08.295148+01 | 1486268948.29515 | pgbench_tellers_pkey  |            40960
 2017-02-05 05:29:08.295148+01 | 1486268948.29515 | pgbench_accounts_pkey |        224641024

 2017-02-05 05:29:09.382202+01 | 1486268949.3822 | pgbench_branches_pkey |            16384
 2017-02-05 05:29:09.382202+01 | 1486268949.3822 | pgbench_tellers_pkey  |            40960
 2017-02-05 05:29:09.382202+01 | 1486268949.3822 | pgbench_accounts_pkey |        224641024

 2017-02-05 05:29:10.479342+01 | 1486268950.47934 | pgbench_branches_pkey |            16384
 2017-02-05 05:29:10.479342+01 | 1486268950.47934 | pgbench_tellers_pkey  |            40960
 2017-02-05 05:29:10.479342+01 | 1486268950.47934 | pgbench_accounts_pkey |        224641024

 2017-02-05 05:29:11.56521+01 | 1486268951.56521 | pgbench_branches_pkey |            16384
 2017-02-05 05:29:11.56521+01 | 1486268951.56521 | pgbench_tellers_pkey  |            40960
 2017-02-05 05:29:11.56521+01 | 1486268951.56521 | pgbench_accounts_pkey |        224641024

 2017-02-05 05:29:12.640417+01 | 1486268952.64042 | pgbench_branches_pkey |            16384
 2017-02-05 05:29:12.640417+01 | 1486268952.64042 | pgbench_tellers_pkey  |            40960
 2017-02-05 05:29:12.640417+01 | 1486268952.64042 | pgbench_accounts_pkey |        224641024

 2017-02-05 05:29:13.72418+01 | 1486268953.72418 | pgbench_branches_pkey |            16384
 2017-02-05 05:29:13.72418+01 | 1486268953.72418 | pgbench_tellers_pkey  |            40960
 2017-02-05 05:29:13.72418+01 | 1486268953.72418 | pgbench_accounts_pkey |        224641024

 2017-02-05 05:29:14.808634+01 | 1486268954.80863 | pgbench_branches_pkey |            16384
 2017-02-05 05:29:14.808634+01 | 1486268954.80863 | pgbench_tellers_pkey  |            40960
 2017-02-05 05:29:14.808634+01 | 1486268954.80863 | pgbench_accounts_pkey |        224641024

 2017-02-05 05:29:15.899072+01 | 1486268955.89907 | pgbench_branches_pkey |            16384
 2017-02-05 05:29:15.899072+01 | 1486268955.89907 | pgbench_tellers_pkey  |            40960
 2017-02-05 05:29:15.899072+01 | 1486268955.89907 | pgbench_accounts_pkey |        224641024

 2017-02-05 05:29:16.992059+01 | 1486268956.99206 | pgbench_branches_pkey |            16384
 2017-02-05 05:29:16.992059+01 | 1486268956.99206 | pgbench_tellers_pkey  |            40960
 2017-02-05 05:29:16.992059+01 | 1486268956.99206 | pgbench_accounts_pkey |        224641024

 2017-02-05 05:29:18.079119+01 | 1486268958.07912 | pgbench_branches_pkey |            16384
 2017-02-05 05:29:18.079119+01 | 1486268958.07912 | pgbench_tellers_pkey  |            40960
 2017-02-05 05:29:18.079119+01 | 1486268958.07912 | pgbench_accounts_pkey |        224641024

 2017-02-05 05:29:19.167991+01 | 1486268959.16799 | pgbench_branches_pkey |            16384
 2017-02-05 05:29:19.167991+01 | 1486268959.16799 | pgbench_tellers_pkey  |            40960
 2017-02-05 05:29:19.167991+01 | 1486268959.16799 | pgbench_accounts_pkey |        224641024

 2017-02-05 05:29:20.249887+01 | 1486268960.24989 | pgbench_branches_pkey |            16384
 2017-02-05 05:29:20.249887+01 | 1486268960.24989 | pgbench_tellers_pkey  |            40960
 2017-02-05 05:29:20.249887+01 | 1486268960.24989 | pgbench_accounts_pkey |        224641024

 2017-02-05 05:29:21.349508+01 | 1486268961.34951 | pgbench_branches_pkey |            16384
 2017-02-05 05:29:21.349508+01 | 1486268961.34951 | pgbench_tellers_pkey  |            40960
 2017-02-05 05:29:21.349508+01 | 1486268961.34951 | pgbench_accounts_pkey |        224641024

 2017-02-05 05:29:22.445063+01 | 1486268962.44506 | pgbench_branches_pkey |            16384
 2017-02-05 05:29:22.445063+01 | 1486268962.44506 | pgbench_tellers_pkey  |            40960
 2017-02-05 05:29:22.445063+01 | 1486268962.44506 | pgbench_accounts_pkey |        224641024

 2017-02-05 05:29:23.52915+01 | 1486268963.52915 | pgbench_branches_pkey |            16384
 2017-02-05 05:29:23.52915+01 | 1486268963.52915 | pgbench_tellers_pkey  |            40960
 2017-02-05 05:29:23.52915+01 | 1486268963.52915 | pgbench_accounts_pkey |        224641024

 2017-02-05 05:29:24.606156+01 | 1486268964.60616 | pgbench_branches_pkey |            16384
 2017-02-05 05:29:24.606156+01 | 1486268964.60616 | pgbench_tellers_pkey  |            40960
 2017-02-05 05:29:24.606156+01 | 1486268964.60616 | pgbench_accounts_pkey |        224641024

 2017-02-05 05:29:25.687277+01 | 1486268965.68728 | pgbench_branches_pkey |            16384
 2017-02-05 05:29:25.687277+01 | 1486268965.68728 | pgbench_tellers_pkey  |            40960
 2017-02-05 05:29:25.687277+01 | 1486268965.68728 | pgbench_accounts_pkey |        224641024

 2017-02-05 05:29:26.775487+01 | 1486268966.77549 | pgbench_branches_pkey |            16384
 2017-02-05 05:29:26.775487+01 | 1486268966.77549 | pgbench_tellers_pkey  |            40960
 2017-02-05 05:29:26.775487+01 | 1486268966.77549 | pgbench_accounts_pkey |        224641024

 2017-02-05 05:29:27.868897+01 | 1486268967.8689 | pgbench_branches_pkey |            16384
 2017-02-05 05:29:27.868897+01 | 1486268967.8689 | pgbench_tellers_pkey  |            40960
 2017-02-05 05:29:27.868897+01 | 1486268967.8689 | pgbench_accounts_pkey |        224641024

 2017-02-05 05:29:28.962432+01 | 1486268968.96243 | pgbench_branches_pkey |            16384
 2017-02-05 05:29:28.962432+01 | 1486268968.96243 | pgbench_tellers_pkey  |            40960
 2017-02-05 05:29:28.962432+01 | 1486268968.96243 | pgbench_accounts_pkey |        224641024

 2017-02-05 05:29:30.065458+01 | 1486268970.06546 | pgbench_branches_pkey |            16384
 2017-02-05 05:29:30.065458+01 | 1486268970.06546 | pgbench_tellers_pkey  |            40960
 2017-02-05 05:29:30.065458+01 | 1486268970.06546 | pgbench_accounts_pkey |        224641024

 2017-02-05 05:29:31.157288+01 | 1486268971.15729 | pgbench_branches_pkey |            16384
 2017-02-05 05:29:31.157288+01 | 1486268971.15729 | pgbench_tellers_pkey  |            40960
 2017-02-05 05:29:31.157288+01 | 1486268971.15729 | pgbench_accounts_pkey |        224641024

 2017-02-05 05:29:32.246432+01 | 1486268972.24643 | pgbench_branches_pkey |            16384
 2017-02-05 05:29:32.246432+01 | 1486268972.24643 | pgbench_tellers_pkey  |            40960
 2017-02-05 05:29:32.246432+01 | 1486268972.24643 | pgbench_accounts_pkey |        224641024

 2017-02-05 05:29:33.3297+01 | 1486268973.3297 | pgbench_branches_pkey |            16384
 2017-02-05 05:29:33.3297+01 | 1486268973.3297 | pgbench_tellers_pkey  |            40960
 2017-02-05 05:29:33.3297+01 | 1486268973.3297 | pgbench_accounts_pkey |        224641024

 2017-02-05 05:29:34.418363+01 | 1486268974.41836 | pgbench_branches_pkey |            16384
 2017-02-05 05:29:34.418363+01 | 1486268974.41836 | pgbench_tellers_pkey  |            40960
 2017-02-05 05:29:34.418363+01 | 1486268974.41836 | pgbench_accounts_pkey |        224641024

 2017-02-05 05:29:35.517872+01 | 1486268975.51787 | pgbench_branches_pkey |            16384
 2017-02-05 05:29:35.517872+01 | 1486268975.51787 | pgbench_tellers_pkey  |            40960
 2017-02-05 05:29:35.517872+01 | 1486268975.51787 | pgbench_accounts_pkey |        224641024

 2017-02-05 05:29:36.602107+01 | 1486268976.60211 | pgbench_branches_pkey |            16384
 2017-02-05 05:29:36.602107+01 | 1486268976.60211 | pgbench_tellers_pkey  |            40960
 2017-02-05 05:29:36.602107+01 | 1486268976.60211 | pgbench_accounts_pkey |        224641024

 2017-02-05 05:29:37.682215+01 | 1486268977.68221 | pgbench_branches_pkey |            16384
 2017-02-05 05:29:37.682215+01 | 1486268977.68221 | pgbench_tellers_pkey  |            40960
 2017-02-05 05:29:37.682215+01 | 1486268977.68221 | pgbench_accounts_pkey |        224641024

 2017-02-05 05:29:38.768441+01 | 1486268978.76844 | pgbench_branches_pkey |            16384
 2017-02-05 05:29:38.768441+01 | 1486268978.76844 | pgbench_tellers_pkey  |            40960
 2017-02-05 05:29:38.768441+01 | 1486268978.76844 | pgbench_accounts_pkey |        224641024

 2017-02-05 05:29:39.858871+01 | 1486268979.85887 | pgbench_branches_pkey |            16384
 2017-02-05 05:29:39.858871+01 | 1486268979.85887 | pgbench_tellers_pkey  |            40960
 2017-02-05 05:29:39.858871+01 | 1486268979.85887 | pgbench_accounts_pkey |        224641024

 2017-02-05 05:29:40.936112+01 | 1486268980.93611 | pgbench_branches_pkey |            16384
 2017-02-05 05:29:40.936112+01 | 1486268980.93611 | pgbench_tellers_pkey  |            40960
 2017-02-05 05:29:40.936112+01 | 1486268980.93611 | pgbench_accounts_pkey |        224641024

 2017-02-05 05:29:42.033901+01 | 1486268982.0339 | pgbench_branches_pkey |            16384
 2017-02-05 05:29:42.033901+01 | 1486268982.0339 | pgbench_tellers_pkey  |            40960
 2017-02-05 05:29:42.033901+01 | 1486268982.0339 | pgbench_accounts_pkey |        224641024

 2017-02-05 05:29:43.130497+01 | 1486268983.1305 | pgbench_branches_pkey |            16384
 2017-02-05 05:29:43.130497+01 | 1486268983.1305 | pgbench_tellers_pkey  |            40960
 2017-02-05 05:29:43.130497+01 | 1486268983.1305 | pgbench_accounts_pkey |        224641024

 2017-02-05 05:29:44.219342+01 | 1486268984.21934 | pgbench_branches_pkey |            16384
 2017-02-05 05:29:44.219342+01 | 1486268984.21934 | pgbench_tellers_pkey  |            40960
 2017-02-05 05:29:44.219342+01 | 1486268984.21934 | pgbench_accounts_pkey |        224641024

 2017-02-05 05:29:45.305786+01 | 1486268985.30579 | pgbench_branches_pkey |            16384
 2017-02-05 05:29:45.305786+01 | 1486268985.30579 | pgbench_tellers_pkey  |            40960
 2017-02-05 05:29:45.305786+01 | 1486268985.30579 | pgbench_accounts_pkey |        224641024

 2017-02-05 05:29:46.397966+01 | 1486268986.39797 | pgbench_branches_pkey |            16384
 2017-02-05 05:29:46.397966+01 | 1486268986.39797 | pgbench_tellers_pkey  |            40960
 2017-02-05 05:29:46.397966+01 | 1486268986.39797 | pgbench_accounts_pkey |        224641024

 2017-02-05 05:29:47.485152+01 | 1486268987.48515 | pgbench_branches_pkey |            16384
 2017-02-05 05:29:47.485152+01 | 1486268987.48515 | pgbench_tellers_pkey  |            40960
 2017-02-05 05:29:47.485152+01 | 1486268987.48515 | pgbench_accounts_pkey |        224641024

 2017-02-05 05:29:48.571583+01 | 1486268988.57158 | pgbench_branches_pkey |            16384
 2017-02-05 05:29:48.571583+01 | 1486268988.57158 | pgbench_tellers_pkey  |            40960
 2017-02-05 05:29:48.571583+01 | 1486268988.57158 | pgbench_accounts_pkey |        224641024

 2017-02-05 05:29:49.649511+01 | 1486268989.64951 | pgbench_branches_pkey |            16384
 2017-02-05 05:29:49.649511+01 | 1486268989.64951 | pgbench_tellers_pkey  |            40960
 2017-02-05 05:29:49.649511+01 | 1486268989.64951 | pgbench_accounts_pkey |        224641024

 2017-02-05 05:29:50.733171+01 | 1486268990.73317 | pgbench_branches_pkey |            16384
 2017-02-05 05:29:50.733171+01 | 1486268990.73317 | pgbench_tellers_pkey  |            40960
 2017-02-05 05:29:50.733171+01 | 1486268990.73317 | pgbench_accounts_pkey |        224641024

 2017-02-05 05:29:51.817793+01 | 1486268991.81779 | pgbench_branches_pkey |            16384
 2017-02-05 05:29:51.817793+01 | 1486268991.81779 | pgbench_tellers_pkey  |            40960
 2017-02-05 05:29:51.817793+01 | 1486268991.81779 | pgbench_accounts_pkey |        224641024

 2017-02-05 05:29:52.911946+01 | 1486268992.91195 | pgbench_branches_pkey |            16384
 2017-02-05 05:29:52.911946+01 | 1486268992.91195 | pgbench_tellers_pkey  |            40960
 2017-02-05 05:29:52.911946+01 | 1486268992.91195 | pgbench_accounts_pkey |        224641024

 2017-02-05 05:29:54.00536+01 | 1486268994.00536 | pgbench_branches_pkey |            16384
 2017-02-05 05:29:54.00536+01 | 1486268994.00536 | pgbench_tellers_pkey  |            40960
 2017-02-05 05:29:54.00536+01 | 1486268994.00536 | pgbench_accounts_pkey |        224641024

 2017-02-05 05:29:55.103466+01 | 1486268995.10347 | pgbench_branches_pkey |            16384
 2017-02-05 05:29:55.103466+01 | 1486268995.10347 | pgbench_tellers_pkey  |            40960
 2017-02-05 05:29:55.103466+01 | 1486268995.10347 | pgbench_accounts_pkey |        224641024

 2017-02-05 05:29:56.194939+01 | 1486268996.19494 | pgbench_branches_pkey |            16384
 2017-02-05 05:29:56.194939+01 | 1486268996.19494 | pgbench_tellers_pkey  |            40960
 2017-02-05 05:29:56.194939+01 | 1486268996.19494 | pgbench_accounts_pkey |        224641024

 2017-02-05 05:29:57.287941+01 | 1486268997.28794 | pgbench_branches_pkey |            16384
 2017-02-05 05:29:57.287941+01 | 1486268997.28794 | pgbench_tellers_pkey  |            40960
 2017-02-05 05:29:57.287941+01 | 1486268997.28794 | pgbench_accounts_pkey |        224641024

 2017-02-05 05:29:58.37734+01 | 1486268998.37734 | pgbench_branches_pkey |            16384
 2017-02-05 05:29:58.37734+01 | 1486268998.37734 | pgbench_tellers_pkey  |            40960
 2017-02-05 05:29:58.37734+01 | 1486268998.37734 | pgbench_accounts_pkey |        224641024

 2017-02-05 05:29:59.47203+01 | 1486268999.47203 | pgbench_branches_pkey |            16384
 2017-02-05 05:29:59.47203+01 | 1486268999.47203 | pgbench_tellers_pkey  |            40960
 2017-02-05 05:29:59.47203+01 | 1486268999.47203 | pgbench_accounts_pkey |        224641024

 2017-02-05 05:30:00.552616+01 | 1486269000.55262 | pgbench_branches_pkey |            16384
 2017-02-05 05:30:00.552616+01 | 1486269000.55262 | pgbench_tellers_pkey  |            40960
 2017-02-05 05:30:00.552616+01 | 1486269000.55262 | pgbench_accounts_pkey |        224641024

 2017-02-05 05:30:01.635556+01 | 1486269001.63556 | pgbench_branches_pkey |            16384
 2017-02-05 05:30:01.635556+01 | 1486269001.63556 | pgbench_tellers_pkey  |            40960
 2017-02-05 05:30:01.635556+01 | 1486269001.63556 | pgbench_accounts_pkey |        224641024

 2017-02-05 05:30:02.714096+01 | 1486269002.7141 | pgbench_branches_pkey |            16384
 2017-02-05 05:30:02.714096+01 | 1486269002.7141 | pgbench_tellers_pkey  |            40960
 2017-02-05 05:30:02.714096+01 | 1486269002.7141 | pgbench_accounts_pkey |        224641024

 2017-02-05 05:30:03.797921+01 | 1486269003.79792 | pgbench_branches_pkey |            16384
 2017-02-05 05:30:03.797921+01 | 1486269003.79792 | pgbench_tellers_pkey  |            40960
 2017-02-05 05:30:03.797921+01 | 1486269003.79792 | pgbench_accounts_pkey |        224641024

 2017-02-05 05:30:04.882447+01 | 1486269004.88245 | pgbench_branches_pkey |            16384
 2017-02-05 05:30:04.882447+01 | 1486269004.88245 | pgbench_tellers_pkey  |            40960
 2017-02-05 05:30:04.882447+01 | 1486269004.88245 | pgbench_accounts_pkey |        224641024

 2017-02-05 05:30:05.980928+01 | 1486269005.98093 | pgbench_branches_pkey |            16384
 2017-02-05 05:30:05.980928+01 | 1486269005.98093 | pgbench_tellers_pkey  |            40960
 2017-02-05 05:30:05.980928+01 | 1486269005.98093 | pgbench_accounts_pkey |        224641024

 2017-02-05 05:30:07.078991+01 | 1486269007.07899 | pgbench_branches_pkey |            16384
 2017-02-05 05:30:07.078991+01 | 1486269007.07899 | pgbench_tellers_pkey  |            40960
 2017-02-05 05:30:07.078991+01 | 1486269007.07899 | pgbench_accounts_pkey |        224641024

 2017-02-05 05:30:08.166288+01 | 1486269008.16629 | pgbench_branches_pkey |            16384
 2017-02-05 05:30:08.166288+01 | 1486269008.16629 | pgbench_tellers_pkey  |            40960
 2017-02-05 05:30:08.166288+01 | 1486269008.16629 | pgbench_accounts_pkey |        224641024

 2017-02-05 05:30:09.25685+01 | 1486269009.25685 | pgbench_branches_pkey |            16384
 2017-02-05 05:30:09.25685+01 | 1486269009.25685 | pgbench_tellers_pkey  |            40960
 2017-02-05 05:30:09.25685+01 | 1486269009.25685 | pgbench_accounts_pkey |        224641024

 2017-02-05 05:30:10.34498+01 | 1486269010.34498 | pgbench_branches_pkey |            16384
 2017-02-05 05:30:10.34498+01 | 1486269010.34498 | pgbench_tellers_pkey  |            40960
 2017-02-05 05:30:10.34498+01 | 1486269010.34498 | pgbench_accounts_pkey |        224641024

 2017-02-05 05:30:11.426158+01 | 1486269011.42616 | pgbench_branches_pkey |            16384
 2017-02-05 05:30:11.426158+01 | 1486269011.42616 | pgbench_tellers_pkey  |            40960
 2017-02-05 05:30:11.426158+01 | 1486269011.42616 | pgbench_accounts_pkey |        224641024

 2017-02-05 05:30:12.51799+01 | 1486269012.51799 | pgbench_branches_pkey |            16384
 2017-02-05 05:30:12.51799+01 | 1486269012.51799 | pgbench_tellers_pkey  |            40960
 2017-02-05 05:30:12.51799+01 | 1486269012.51799 | pgbench_accounts_pkey |        224641024

 2017-02-05 05:30:13.61377+01 | 1486269013.61377 | pgbench_branches_pkey |            16384
 2017-02-05 05:30:13.61377+01 | 1486269013.61377 | pgbench_tellers_pkey  |            40960
 2017-02-05 05:30:13.61377+01 | 1486269013.61377 | pgbench_accounts_pkey |        224641024

 2017-02-05 05:30:14.696252+01 | 1486269014.69625 | pgbench_branches_pkey |            16384
 2017-02-05 05:30:14.696252+01 | 1486269014.69625 | pgbench_tellers_pkey  |            40960
 2017-02-05 05:30:14.696252+01 | 1486269014.69625 | pgbench_accounts_pkey |        224641024

 2017-02-05 05:30:15.780223+01 | 1486269015.78022 | pgbench_branches_pkey |            16384
 2017-02-05 05:30:15.780223+01 | 1486269015.78022 | pgbench_tellers_pkey  |            40960
 2017-02-05 05:30:15.780223+01 | 1486269015.78022 | pgbench_accounts_pkey |        224641024

 2017-02-05 05:30:16.866148+01 | 1486269016.86615 | pgbench_branches_pkey |            16384
 2017-02-05 05:30:16.866148+01 | 1486269016.86615 | pgbench_tellers_pkey  |            40960
 2017-02-05 05:30:16.866148+01 | 1486269016.86615 | pgbench_accounts_pkey |        224641024

 2017-02-05 05:30:17.958622+01 | 1486269017.95862 | pgbench_branches_pkey |            16384
 2017-02-05 05:30:17.958622+01 | 1486269017.95862 | pgbench_tellers_pkey  |            40960
 2017-02-05 05:30:17.958622+01 | 1486269017.95862 | pgbench_accounts_pkey |        224641024

 2017-02-05 05:30:19.044521+01 | 1486269019.04452 | pgbench_branches_pkey |            16384
 2017-02-05 05:30:19.044521+01 | 1486269019.04452 | pgbench_tellers_pkey  |            40960
 2017-02-05 05:30:19.044521+01 | 1486269019.04452 | pgbench_accounts_pkey |        224641024

 2017-02-05 05:30:20.140009+01 | 1486269020.14001 | pgbench_branches_pkey |            16384
 2017-02-05 05:30:20.140009+01 | 1486269020.14001 | pgbench_tellers_pkey  |            40960
 2017-02-05 05:30:20.140009+01 | 1486269020.14001 | pgbench_accounts_pkey |        224641024

 2017-02-05 05:30:21.239464+01 | 1486269021.23946 | pgbench_branches_pkey |            16384
 2017-02-05 05:30:21.239464+01 | 1486269021.23946 | pgbench_tellers_pkey  |            40960
 2017-02-05 05:30:21.239464+01 | 1486269021.23946 | pgbench_accounts_pkey |        224641024

 2017-02-05 05:30:22.324474+01 | 1486269022.32447 | pgbench_branches_pkey |            16384
 2017-02-05 05:30:22.324474+01 | 1486269022.32447 | pgbench_tellers_pkey  |            40960
 2017-02-05 05:30:22.324474+01 | 1486269022.32447 | pgbench_accounts_pkey |        224641024

 2017-02-05 05:30:23.415793+01 | 1486269023.41579 | pgbench_branches_pkey |            16384
 2017-02-05 05:30:23.415793+01 | 1486269023.41579 | pgbench_tellers_pkey  |            40960
 2017-02-05 05:30:23.415793+01 | 1486269023.41579 | pgbench_accounts_pkey |        224641024

 2017-02-05 05:30:24.51718+01 | 1486269024.51718 | pgbench_branches_pkey |            16384
 2017-02-05 05:30:24.51718+01 | 1486269024.51718 | pgbench_tellers_pkey  |            40960
 2017-02-05 05:30:24.51718+01 | 1486269024.51718 | pgbench_accounts_pkey |        224641024

 2017-02-05 05:30:25.606386+01 | 1486269025.60639 | pgbench_branches_pkey |            16384
 2017-02-05 05:30:25.606386+01 | 1486269025.60639 | pgbench_tellers_pkey  |            40960
 2017-02-05 05:30:25.606386+01 | 1486269025.60639 | pgbench_accounts_pkey |        224641024

 2017-02-05 05:30:26.690226+01 | 1486269026.69023 | pgbench_branches_pkey |            16384
 2017-02-05 05:30:26.690226+01 | 1486269026.69023 | pgbench_tellers_pkey  |            40960
 2017-02-05 05:30:26.690226+01 | 1486269026.69023 | pgbench_accounts_pkey |        224641024

 2017-02-05 05:30:27.772922+01 | 1486269027.77292 | pgbench_branches_pkey |            16384
 2017-02-05 05:30:27.772922+01 | 1486269027.77292 | pgbench_tellers_pkey  |            40960
 2017-02-05 05:30:27.772922+01 | 1486269027.77292 | pgbench_accounts_pkey |        224641024

 2017-02-05 05:30:28.857396+01 | 1486269028.8574 | pgbench_branches_pkey |            16384
 2017-02-05 05:30:28.857396+01 | 1486269028.8574 | pgbench_tellers_pkey  |            40960
 2017-02-05 05:30:28.857396+01 | 1486269028.8574 | pgbench_accounts_pkey |        224641024

 2017-02-05 05:30:29.948238+01 | 1486269029.94824 | pgbench_branches_pkey |            16384
 2017-02-05 05:30:29.948238+01 | 1486269029.94824 | pgbench_tellers_pkey  |            40960
 2017-02-05 05:30:29.948238+01 | 1486269029.94824 | pgbench_accounts_pkey |        224641024

 2017-02-05 05:30:31.044978+01 | 1486269031.04498 | pgbench_branches_pkey |            16384
 2017-02-05 05:30:31.044978+01 | 1486269031.04498 | pgbench_tellers_pkey  |            40960
 2017-02-05 05:30:31.044978+01 | 1486269031.04498 | pgbench_accounts_pkey |        224641024

 2017-02-05 05:30:32.138621+01 | 1486269032.13862 | pgbench_branches_pkey |            16384
 2017-02-05 05:30:32.138621+01 | 1486269032.13862 | pgbench_tellers_pkey  |            40960
 2017-02-05 05:30:32.138621+01 | 1486269032.13862 | pgbench_accounts_pkey |        224641024

 2017-02-05 05:30:33.226767+01 | 1486269033.22677 | pgbench_branches_pkey |            16384
 2017-02-05 05:30:33.226767+01 | 1486269033.22677 | pgbench_tellers_pkey  |            40960
 2017-02-05 05:30:33.226767+01 | 1486269033.22677 | pgbench_accounts_pkey |        224641024

 2017-02-05 05:30:34.315394+01 | 1486269034.31539 | pgbench_branches_pkey |            16384
 2017-02-05 05:30:34.315394+01 | 1486269034.31539 | pgbench_tellers_pkey  |            40960
 2017-02-05 05:30:34.315394+01 | 1486269034.31539 | pgbench_accounts_pkey |        224641024

 2017-02-05 05:30:35.408822+01 | 1486269035.40882 | pgbench_branches_pkey |            16384
 2017-02-05 05:30:35.408822+01 | 1486269035.40882 | pgbench_tellers_pkey  |            40960
 2017-02-05 05:30:35.408822+01 | 1486269035.40882 | pgbench_accounts_pkey |        224641024

 2017-02-05 05:30:36.498029+01 | 1486269036.49803 | pgbench_branches_pkey |            16384
 2017-02-05 05:30:36.498029+01 | 1486269036.49803 | pgbench_tellers_pkey  |            40960
 2017-02-05 05:30:36.498029+01 | 1486269036.49803 | pgbench_accounts_pkey |        224641024

 2017-02-05 05:30:37.593933+01 | 1486269037.59393 | pgbench_branches_pkey |            16384
 2017-02-05 05:30:37.593933+01 | 1486269037.59393 | pgbench_tellers_pkey  |            40960
 2017-02-05 05:30:37.593933+01 | 1486269037.59393 | pgbench_accounts_pkey |        224641024

 2017-02-05 05:30:38.673105+01 | 1486269038.67311 | pgbench_branches_pkey |            16384
 2017-02-05 05:30:38.673105+01 | 1486269038.67311 | pgbench_tellers_pkey  |            40960
 2017-02-05 05:30:38.673105+01 | 1486269038.67311 | pgbench_accounts_pkey |        224641024

 2017-02-05 05:30:39.757512+01 | 1486269039.75751 | pgbench_branches_pkey |            16384
 2017-02-05 05:30:39.757512+01 | 1486269039.75751 | pgbench_tellers_pkey  |            40960
 2017-02-05 05:30:39.757512+01 | 1486269039.75751 | pgbench_accounts_pkey |        224641024

 2017-02-05 05:30:40.826225+01 | 1486269040.82623 | pgbench_branches_pkey |            16384
 2017-02-05 05:30:40.826225+01 | 1486269040.82623 | pgbench_tellers_pkey  |            40960
 2017-02-05 05:30:40.826225+01 | 1486269040.82623 | pgbench_accounts_pkey |        224641024

 2017-02-05 05:30:41.913126+01 | 1486269041.91313 | pgbench_branches_pkey |            16384
 2017-02-05 05:30:41.913126+01 | 1486269041.91313 | pgbench_tellers_pkey  |            40960
 2017-02-05 05:30:41.913126+01 | 1486269041.91313 | pgbench_accounts_pkey |        224641024

 2017-02-05 05:30:43.012396+01 | 1486269043.0124 | pgbench_branches_pkey |            16384
 2017-02-05 05:30:43.012396+01 | 1486269043.0124 | pgbench_tellers_pkey  |            40960
 2017-02-05 05:30:43.012396+01 | 1486269043.0124 | pgbench_accounts_pkey |        224641024

 2017-02-05 05:30:44.094979+01 | 1486269044.09498 | pgbench_branches_pkey |            16384
 2017-02-05 05:30:44.094979+01 | 1486269044.09498 | pgbench_tellers_pkey  |            40960
 2017-02-05 05:30:44.094979+01 | 1486269044.09498 | pgbench_accounts_pkey |        224641024

 2017-02-05 05:30:45.187111+01 | 1486269045.18711 | pgbench_branches_pkey |            16384
 2017-02-05 05:30:45.187111+01 | 1486269045.18711 | pgbench_tellers_pkey  |            40960
 2017-02-05 05:30:45.187111+01 | 1486269045.18711 | pgbench_accounts_pkey |        224641024

 2017-02-05 05:30:46.274951+01 | 1486269046.27495 | pgbench_branches_pkey |            16384
 2017-02-05 05:30:46.274951+01 | 1486269046.27495 | pgbench_tellers_pkey  |            40960
 2017-02-05 05:30:46.274951+01 | 1486269046.27495 | pgbench_accounts_pkey |        224641024

 2017-02-05 05:30:47.365657+01 | 1486269047.36566 | pgbench_branches_pkey |            16384
 2017-02-05 05:30:47.365657+01 | 1486269047.36566 | pgbench_tellers_pkey  |            40960
 2017-02-05 05:30:47.365657+01 | 1486269047.36566 | pgbench_accounts_pkey |        224641024

 2017-02-05 05:30:48.455799+01 | 1486269048.4558 | pgbench_branches_pkey |            16384
 2017-02-05 05:30:48.455799+01 | 1486269048.4558 | pgbench_tellers_pkey  |            40960
 2017-02-05 05:30:48.455799+01 | 1486269048.4558 | pgbench_accounts_pkey |        224641024

 2017-02-05 05:30:49.549801+01 | 1486269049.5498 | pgbench_branches_pkey |            16384
 2017-02-05 05:30:49.549801+01 | 1486269049.5498 | pgbench_tellers_pkey  |            40960
 2017-02-05 05:30:49.549801+01 | 1486269049.5498 | pgbench_accounts_pkey |        224641024

 2017-02-05 05:30:50.639709+01 | 1486269050.63971 | pgbench_branches_pkey |            16384
 2017-02-05 05:30:50.639709+01 | 1486269050.63971 | pgbench_tellers_pkey  |            40960
 2017-02-05 05:30:50.639709+01 | 1486269050.63971 | pgbench_accounts_pkey |        224641024

 2017-02-05 05:30:51.717326+01 | 1486269051.71733 | pgbench_branches_pkey |            16384
 2017-02-05 05:30:51.717326+01 | 1486269051.71733 | pgbench_tellers_pkey  |            40960
 2017-02-05 05:30:51.717326+01 | 1486269051.71733 | pgbench_accounts_pkey |        224641024

 2017-02-05 05:30:52.79974+01 | 1486269052.79974 | pgbench_branches_pkey |            16384
 2017-02-05 05:30:52.79974+01 | 1486269052.79974 | pgbench_tellers_pkey  |            40960
 2017-02-05 05:30:52.79974+01 | 1486269052.79974 | pgbench_accounts_pkey |        224641024

 2017-02-05 05:30:53.877462+01 | 1486269053.87746 | pgbench_branches_pkey |            16384
 2017-02-05 05:30:53.877462+01 | 1486269053.87746 | pgbench_tellers_pkey  |            40960
 2017-02-05 05:30:53.877462+01 | 1486269053.87746 | pgbench_accounts_pkey |        224641024

 2017-02-05 05:30:54.96259+01 | 1486269054.96259 | pgbench_branches_pkey |            16384
 2017-02-05 05:30:54.96259+01 | 1486269054.96259 | pgbench_tellers_pkey  |            40960
 2017-02-05 05:30:54.96259+01 | 1486269054.96259 | pgbench_accounts_pkey |        224641024

 2017-02-05 05:30:56.06205+01 | 1486269056.06205 | pgbench_branches_pkey |            16384
 2017-02-05 05:30:56.06205+01 | 1486269056.06205 | pgbench_tellers_pkey  |            40960
 2017-02-05 05:30:56.06205+01 | 1486269056.06205 | pgbench_accounts_pkey |        224641024

 2017-02-05 05:30:57.149009+01 | 1486269057.14901 | pgbench_branches_pkey |            16384
 2017-02-05 05:30:57.149009+01 | 1486269057.14901 | pgbench_tellers_pkey  |            40960
 2017-02-05 05:30:57.149009+01 | 1486269057.14901 | pgbench_accounts_pkey |        224641024

 2017-02-05 05:30:58.239515+01 | 1486269058.23952 | pgbench_branches_pkey |            16384
 2017-02-05 05:30:58.239515+01 | 1486269058.23952 | pgbench_tellers_pkey  |            40960
 2017-02-05 05:30:58.239515+01 | 1486269058.23952 | pgbench_accounts_pkey |        224641024

