 2017-02-06 03:31:17.593146+01 | 1486348277.59315 | 3/1B24A00                |           12913363456

 2017-02-06 03:31:18.709201+01 | 1486348278.7092 | 3/1B24A00                |           12913363456

 2017-02-06 03:31:19.815755+01 | 1486348279.81575 | 3/1B24A00                |           12913363456

 2017-02-06 03:31:20.93498+01 | 1486348280.93498 | 3/1B24A00                |           12913363456

 2017-02-06 03:31:22.030599+01 | 1486348282.0306 | 3/1B24A00                |           12913363456

 2017-02-06 03:31:23.1376+01 | 1486348283.1376 | 3/1B24A00                |           12913363456

 2017-02-06 03:31:24.2447+01 | 1486348284.2447 | 3/1B24A00                |           12913363456

 2017-02-06 03:31:25.347765+01 | 1486348285.34776 | 3/1B24A00                |           12913363456

 2017-02-06 03:31:26.442623+01 | 1486348286.44262 | 3/1B24A00                |           12913363456

 2017-02-06 03:31:27.545738+01 | 1486348287.54574 | 3/1B24A00                |           12913363456

 2017-02-06 03:31:28.639404+01 | 1486348288.6394 | 3/1B24A00                |           12913363456

 2017-02-06 03:31:29.740909+01 | 1486348289.74091 | 3/1B24A00                |           12913363456

 2017-02-06 03:31:30.838925+01 | 1486348290.83892 | 3/1B24A00                |           12913363456

 2017-02-06 03:31:31.945647+01 | 1486348291.94565 | 3/1B24A00                |           12913363456

 2017-02-06 03:31:33.051772+01 | 1486348293.05177 | 3/1B24A38                |           12913363512

 2017-02-06 03:31:34.147868+01 | 1486348294.14787 | 3/1B24A38                |           12913363512

 2017-02-06 03:31:35.25095+01 | 1486348295.25095 | 3/1B24A38                |           12913363512

 2017-02-06 03:31:36.366366+01 | 1486348296.36637 | 3/1B24A38                |           12913363512

 2017-02-06 03:31:37.477301+01 | 1486348297.4773 | 3/1B24A38                |           12913363512

 2017-02-06 03:31:38.582548+01 | 1486348298.58255 | 3/1B24A38                |           12913363512

 2017-02-06 03:31:39.69543+01 | 1486348299.69543 | 3/1B24A38                |           12913363512

 2017-02-06 03:31:40.791008+01 | 1486348300.79101 | 3/1B24A38                |           12913363512

 2017-02-06 03:31:41.896851+01 | 1486348301.89685 | 3/1B24A38                |           12913363512

 2017-02-06 03:31:43.003925+01 | 1486348303.00393 | 3/1B24A38                |           12913363512

 2017-02-06 03:31:44.10916+01 | 1486348304.10916 | 3/1B24A38                |           12913363512

 2017-02-06 03:31:45.206293+01 | 1486348305.20629 | 3/1B24A38                |           12913363512

 2017-02-06 03:31:46.29852+01 | 1486348306.29852 | 3/1B24A38                |           12913363512

 2017-02-06 03:31:47.389941+01 | 1486348307.38994 | 3/1B24A38                |           12913363512

 2017-02-06 03:31:48.492659+01 | 1486348308.49266 | 3/1B24A38                |           12913363512

 2017-02-06 03:31:49.584987+01 | 1486348309.58499 | 3/1B24A38                |           12913363512

 2017-02-06 03:31:50.682187+01 | 1486348310.68219 | 3/1B24A38                |           12913363512

 2017-02-06 03:31:51.785914+01 | 1486348311.78591 | 3/1B24A38                |           12913363512

 2017-02-06 03:31:52.88476+01 | 1486348312.88476 | 3/1B24A38                |           12913363512

 2017-02-06 03:31:53.991686+01 | 1486348313.99169 | 3/1B24A38                |           12913363512

 2017-02-06 03:31:55.096129+01 | 1486348315.09613 | 3/1B24A38                |           12913363512

 2017-02-06 03:31:56.194743+01 | 1486348316.19474 | 3/1B24A38                |           12913363512

 2017-02-06 03:31:57.295736+01 | 1486348317.29574 | 3/1B24A38                |           12913363512

 2017-02-06 03:31:58.392091+01 | 1486348318.39209 | 3/1B24A38                |           12913363512

 2017-02-06 03:31:59.494954+01 | 1486348319.49495 | 3/1B24A38                |           12913363512

 2017-02-06 03:32:00.59809+01 | 1486348320.59809 | 3/1B24A38                |           12913363512

 2017-02-06 03:32:01.708897+01 | 1486348321.7089 | 3/1B24A38                |           12913363512

 2017-02-06 03:32:02.809544+01 | 1486348322.80954 | 3/1B24A38                |           12913363512

 2017-02-06 03:32:03.909542+01 | 1486348323.90954 | 3/1B24A38                |           12913363512

 2017-02-06 03:32:05.010395+01 | 1486348325.0104 | 3/1B24A38                |           12913363512

 2017-02-06 03:32:06.109875+01 | 1486348326.10987 | 3/1B24A38                |           12913363512

 2017-02-06 03:32:07.209131+01 | 1486348327.20913 | 3/1B24A38                |           12913363512

 2017-02-06 03:32:08.305959+01 | 1486348328.30596 | 3/1B24A38                |           12913363512

 2017-02-06 03:32:09.403879+01 | 1486348329.40388 | 3/1B24A38                |           12913363512

 2017-02-06 03:32:10.517977+01 | 1486348330.51798 | 3/1B24A38                |           12913363512

 2017-02-06 03:32:11.626032+01 | 1486348331.62603 | 3/1B24A38                |           12913363512

 2017-02-06 03:32:12.725432+01 | 1486348332.72543 | 3/1B24A38                |           12913363512

 2017-02-06 03:32:13.827005+01 | 1486348333.827 | 3/1B24A38                |           12913363512

 2017-02-06 03:32:14.92233+01 | 1486348334.92233 | 3/1B24A38                |           12913363512

 2017-02-06 03:32:16.016177+01 | 1486348336.01618 | 3/1B24A38                |           12913363512

 2017-02-06 03:32:17.121949+01 | 1486348337.12195 | 3/1B24A38                |           12913363512

 2017-02-06 03:32:18.21942+01 | 1486348338.21942 | 3/1B24A38                |           12913363512

 2017-02-06 03:32:19.321052+01 | 1486348339.32105 | 3/1B24A38                |           12913363512

 2017-02-06 03:32:20.423326+01 | 1486348340.42333 | 3/1B24A38                |           12913363512

 2017-02-06 03:32:21.513599+01 | 1486348341.5136 | 3/1B24A38                |           12913363512

 2017-02-06 03:32:22.61595+01 | 1486348342.61595 | 3/1B24A38                |           12913363512

 2017-02-06 03:32:23.718185+01 | 1486348343.71818 | 3/1B24A38                |           12913363512

 2017-02-06 03:32:24.831357+01 | 1486348344.83136 | 3/1B24A38                |           12913363512

 2017-02-06 03:32:25.928517+01 | 1486348345.92852 | 3/1B24A38                |           12913363512

 2017-02-06 03:32:27.025854+01 | 1486348347.02585 | 3/1B24A38                |           12913363512

 2017-02-06 03:32:28.134174+01 | 1486348348.13417 | 3/1B24A38                |           12913363512

 2017-02-06 03:32:29.245688+01 | 1486348349.24569 | 3/1B24A38                |           12913363512

 2017-02-06 03:32:30.379755+01 | 1486348350.37976 | 3/1B24A38                |           12913363512

 2017-02-06 03:32:31.479324+01 | 1486348351.47932 | 3/1B24A38                |           12913363512

 2017-02-06 03:32:32.579437+01 | 1486348352.57944 | 3/1B24A38                |           12913363512

 2017-02-06 03:32:33.682942+01 | 1486348353.68294 | 3/1B24A38                |           12913363512

 2017-02-06 03:32:34.787194+01 | 1486348354.78719 | 3/1B24A38                |           12913363512

 2017-02-06 03:32:35.880309+01 | 1486348355.88031 | 3/1B24A38                |           12913363512

 2017-02-06 03:32:36.974222+01 | 1486348356.97422 | 3/1B24A38                |           12913363512

 2017-02-06 03:32:38.069427+01 | 1486348358.06943 | 3/1B24A38                |           12913363512

 2017-02-06 03:32:39.157177+01 | 1486348359.15718 | 3/1B24A38                |           12913363512

 2017-02-06 03:32:40.253148+01 | 1486348360.25315 | 3/1B24A38                |           12913363512

 2017-02-06 03:32:41.343968+01 | 1486348361.34397 | 3/1B24A38                |           12913363512

 2017-02-06 03:32:42.440018+01 | 1486348362.44002 | 3/1B24A38                |           12913363512

 2017-02-06 03:32:43.536909+01 | 1486348363.53691 | 3/1B24A38                |           12913363512

 2017-02-06 03:32:44.649739+01 | 1486348364.64974 | 3/1B24A38                |           12913363512

 2017-02-06 03:32:45.752287+01 | 1486348365.75229 | 3/1B24A38                |           12913363512

 2017-02-06 03:32:46.848825+01 | 1486348366.84882 | 3/1B24A38                |           12913363512

 2017-02-06 03:32:47.956656+01 | 1486348367.95666 | 3/1B24A38                |           12913363512

 2017-02-06 03:32:49.062417+01 | 1486348369.06242 | 3/1B24A38                |           12913363512

 2017-02-06 03:32:50.156537+01 | 1486348370.15654 | 3/1B24A38                |           12913363512

 2017-02-06 03:32:51.2477+01 | 1486348371.2477 | 3/1B24A38                |           12913363512

 2017-02-06 03:32:52.345093+01 | 1486348372.34509 | 3/1B24A38                |           12913363512

 2017-02-06 03:32:53.441468+01 | 1486348373.44147 | 3/1B24A38                |           12913363512

 2017-02-06 03:32:54.537456+01 | 1486348374.53746 | 3/1B24A38                |           12913363512

 2017-02-06 03:32:55.637733+01 | 1486348375.63773 | 3/1B24A38                |           12913363512

 2017-02-06 03:32:56.745736+01 | 1486348376.74574 | 3/1B24A38                |           12913363512

 2017-02-06 03:32:57.843946+01 | 1486348377.84395 | 3/1B24A38                |           12913363512

 2017-02-06 03:32:58.956129+01 | 1486348378.95613 | 3/1B24A38                |           12913363512

 2017-02-06 03:33:00.050479+01 | 1486348380.05048 | 3/1B24A38                |           12913363512

 2017-02-06 03:33:01.149358+01 | 1486348381.14936 | 3/1B24A38                |           12913363512

 2017-02-06 03:33:02.247096+01 | 1486348382.2471 | 3/1B24A38                |           12913363512

 2017-02-06 03:33:03.342916+01 | 1486348383.34292 | 3/1B24A38                |           12913363512

 2017-02-06 03:33:04.450148+01 | 1486348384.45015 | 3/1B24A38                |           12913363512

 2017-02-06 03:33:05.548396+01 | 1486348385.5484 | 3/1B24A38                |           12913363512

 2017-02-06 03:33:06.642461+01 | 1486348386.64246 | 3/1B24A38                |           12913363512

 2017-02-06 03:33:07.748215+01 | 1486348387.74821 | 3/1B24A38                |           12913363512

 2017-02-06 03:33:08.854969+01 | 1486348388.85497 | 3/1B24A38                |           12913363512

 2017-02-06 03:33:09.965021+01 | 1486348389.96502 | 3/1B24A38                |           12913363512

 2017-02-06 03:33:11.066472+01 | 1486348391.06647 | 3/1B24A38                |           12913363512

 2017-02-06 03:33:12.164875+01 | 1486348392.16488 | 3/1B24A38                |           12913363512

 2017-02-06 03:33:13.268426+01 | 1486348393.26843 | 3/1B24A38                |           12913363512

 2017-02-06 03:33:14.373923+01 | 1486348394.37392 | 3/1B24A38                |           12913363512

 2017-02-06 03:33:15.474896+01 | 1486348395.4749 | 3/1B24A38                |           12913363512

 2017-02-06 03:33:16.572168+01 | 1486348396.57217 | 3/1B24A38                |           12913363512

 2017-02-06 03:33:17.672274+01 | 1486348397.67227 | 3/1B24A38                |           12913363512

 2017-02-06 03:33:18.774132+01 | 1486348398.77413 | 3/1B24A38                |           12913363512

 2017-02-06 03:33:19.86299+01 | 1486348399.86299 | 3/1B24A38                |           12913363512

 2017-02-06 03:33:20.966566+01 | 1486348400.96657 | 3/1B24A38                |           12913363512

 2017-02-06 03:33:22.066211+01 | 1486348402.06621 | 3/1B24A38                |           12913363512

 2017-02-06 03:33:23.164686+01 | 1486348403.16469 | 3/1B24A38                |           12913363512

 2017-02-06 03:33:24.26407+01 | 1486348404.26407 | 3/1B24A38                |           12913363512

 2017-02-06 03:33:25.376591+01 | 1486348405.37659 | 3/1B24A38                |           12913363512

 2017-02-06 03:33:26.470489+01 | 1486348406.47049 | 3/1B24A38                |           12913363512

 2017-02-06 03:33:27.566652+01 | 1486348407.56665 | 3/1B24A38                |           12913363512

 2017-02-06 03:33:28.669101+01 | 1486348408.6691 | 3/1B24A38                |           12913363512

 2017-02-06 03:33:29.775492+01 | 1486348409.77549 | 3/1B24A38                |           12913363512

 2017-02-06 03:33:30.88075+01 | 1486348410.88075 | 3/1B24A38                |           12913363512

 2017-02-06 03:33:31.98278+01 | 1486348411.98278 | 3/1B24A38                |           12913363512

 2017-02-06 03:33:33.091632+01 | 1486348413.09163 | 3/1B24A38                |           12913363512

 2017-02-06 03:33:34.211306+01 | 1486348414.21131 | 3/1B24A38                |           12913363512

 2017-02-06 03:33:35.321984+01 | 1486348415.32198 | 3/1B24A38                |           12913363512

 2017-02-06 03:33:36.423274+01 | 1486348416.42327 | 3/1B24A38                |           12913363512

 2017-02-06 03:33:37.538337+01 | 1486348417.53834 | 3/1B24A38                |           12913363512

 2017-02-06 03:33:38.641973+01 | 1486348418.64197 | 3/1B24A38                |           12913363512

 2017-02-06 03:33:39.747143+01 | 1486348419.74714 | 3/1B24A38                |           12913363512

 2017-02-06 03:33:40.853976+01 | 1486348420.85398 | 3/1B24A38                |           12913363512

 2017-02-06 03:33:41.969292+01 | 1486348421.96929 | 3/1B24A38                |           12913363512

 2017-02-06 03:33:43.068691+01 | 1486348423.06869 | 3/1B24A38                |           12913363512

 2017-02-06 03:33:44.163816+01 | 1486348424.16382 | 3/1B24A38                |           12913363512

 2017-02-06 03:33:45.255883+01 | 1486348425.25588 | 3/1B24A38                |           12913363512

 2017-02-06 03:33:46.354633+01 | 1486348426.35463 | 3/1B24A38                |           12913363512

 2017-02-06 03:33:47.453271+01 | 1486348427.45327 | 3/1B24A38                |           12913363512

 2017-02-06 03:33:48.536189+01 | 1486348428.53619 | 3/1B24A38                |           12913363512

 2017-02-06 03:33:49.632165+01 | 1486348429.63216 | 3/1B24A38                |           12913363512

 2017-02-06 03:33:50.731274+01 | 1486348430.73127 | 3/1B24A38                |           12913363512

 2017-02-06 03:33:51.823147+01 | 1486348431.82315 | 3/1B24A38                |           12913363512

 2017-02-06 03:33:52.923485+01 | 1486348432.92349 | 3/1B24A38                |           12913363512

 2017-02-06 03:33:54.025773+01 | 1486348434.02577 | 3/1B24A38                |           12913363512

 2017-02-06 03:33:55.132173+01 | 1486348435.13217 | 3/1B24A38                |           12913363512

 2017-02-06 03:33:56.22808+01 | 1486348436.22808 | 3/1B24A38                |           12913363512

 2017-02-06 03:33:57.331049+01 | 1486348437.33105 | 3/1B24A38                |           12913363512

 2017-02-06 03:33:58.43909+01 | 1486348438.43909 | 3/1B24A38                |           12913363512

 2017-02-06 03:33:59.528146+01 | 1486348439.52815 | 3/1B24A38                |           12913363512

 2017-02-06 03:34:00.624961+01 | 1486348440.62496 | 3/1B24A38                |           12913363512

 2017-02-06 03:34:01.719321+01 | 1486348441.71932 | 3/1B24A38                |           12913363512

 2017-02-06 03:34:02.826078+01 | 1486348442.82608 | 3/1B24A38                |           12913363512

 2017-02-06 03:34:03.929419+01 | 1486348443.92942 | 3/1B24A38                |           12913363512

 2017-02-06 03:34:05.021169+01 | 1486348445.02117 | 3/1B24A38                |           12913363512

 2017-02-06 03:34:06.12115+01 | 1486348446.12115 | 3/1B24A38                |           12913363512

 2017-02-06 03:34:07.228994+01 | 1486348447.22899 | 3/1B24A38                |           12913363512

 2017-02-06 03:34:08.340857+01 | 1486348448.34086 | 3/1B24A38                |           12913363512

 2017-02-06 03:34:09.438574+01 | 1486348449.43857 | 3/1B24A38                |           12913363512

 2017-02-06 03:34:10.546272+01 | 1486348450.54627 | 3/1B24A38                |           12913363512

 2017-02-06 03:34:11.650734+01 | 1486348451.65073 | 3/1B24A38                |           12913363512

 2017-02-06 03:34:12.743532+01 | 1486348452.74353 | 3/1B24A38                |           12913363512

 2017-02-06 03:34:13.848742+01 | 1486348453.84874 | 3/1B24A38                |           12913363512

 2017-02-06 03:34:14.939981+01 | 1486348454.93998 | 3/1B24A38                |           12913363512

 2017-02-06 03:34:16.038252+01 | 1486348456.03825 | 3/1B24A38                |           12913363512

 2017-02-06 03:34:17.132601+01 | 1486348457.1326 | 3/1B24A38                |           12913363512

 2017-02-06 03:34:18.234729+01 | 1486348458.23473 | 3/1B24A38                |           12913363512

 2017-02-06 03:34:19.328973+01 | 1486348459.32897 | 3/1B24A38                |           12913363512

 2017-02-06 03:34:20.424144+01 | 1486348460.42414 | 3/1B24A38                |           12913363512

 2017-02-06 03:34:21.52871+01 | 1486348461.52871 | 3/1B24A38                |           12913363512

 2017-02-06 03:34:22.622879+01 | 1486348462.62288 | 3/1B24A38                |           12913363512

 2017-02-06 03:34:23.725905+01 | 1486348463.7259 | 3/1B24A38                |           12913363512

 2017-02-06 03:34:24.838408+01 | 1486348464.83841 | 3/1B24A38                |           12913363512

 2017-02-06 03:34:25.934441+01 | 1486348465.93444 | 3/1B24A38                |           12913363512

 2017-02-06 03:34:27.035887+01 | 1486348467.03589 | 3/1B24A38                |           12913363512

 2017-02-06 03:34:28.130913+01 | 1486348468.13091 | 3/1B24A38                |           12913363512

 2017-02-06 03:34:29.234784+01 | 1486348469.23478 | 3/1B24A38                |           12913363512

 2017-02-06 03:34:30.334086+01 | 1486348470.33409 | 3/1B24A38                |           12913363512

 2017-02-06 03:34:31.434626+01 | 1486348471.43463 | 3/1B24A38                |           12913363512

 2017-02-06 03:34:32.541618+01 | 1486348472.54162 | 3/1B24A38                |           12913363512

 2017-02-06 03:34:33.649586+01 | 1486348473.64959 | 3/1B24A38                |           12913363512

 2017-02-06 03:34:34.756119+01 | 1486348474.75612 | 3/1B24A38                |           12913363512

 2017-02-06 03:34:35.851358+01 | 1486348475.85136 | 3/1B24A38                |           12913363512

 2017-02-06 03:34:36.959186+01 | 1486348476.95919 | 3/1B24A38                |           12913363512

 2017-02-06 03:34:38.056129+01 | 1486348478.05613 | 3/1B24A38                |           12913363512

 2017-02-06 03:34:39.161275+01 | 1486348479.16127 | 3/1B24A38                |           12913363512

 2017-02-06 03:34:40.250501+01 | 1486348480.2505 | 3/1B24A38                |           12913363512

 2017-02-06 03:34:41.348662+01 | 1486348481.34866 | 3/1B24A38                |           12913363512

 2017-02-06 03:34:42.470709+01 | 1486348482.47071 | 3/1B24A38                |           12913363512

 2017-02-06 03:34:43.576824+01 | 1486348483.57682 | 3/1B24A38                |           12913363512

 2017-02-06 03:34:44.677746+01 | 1486348484.67775 | 3/1B24A38                |           12913363512

 2017-02-06 03:34:45.779278+01 | 1486348485.77928 | 3/1B24A38                |           12913363512

 2017-02-06 03:34:46.885203+01 | 1486348486.8852 | 3/1B24A38                |           12913363512

 2017-02-06 03:34:47.996466+01 | 1486348487.99647 | 3/1B24A38                |           12913363512

 2017-02-06 03:34:49.091569+01 | 1486348489.09157 | 3/1B24A38                |           12913363512

 2017-02-06 03:34:50.189669+01 | 1486348490.18967 | 3/1B24A38                |           12913363512

 2017-02-06 03:34:51.278887+01 | 1486348491.27889 | 3/1B24A38                |           12913363512

 2017-02-06 03:34:52.377696+01 | 1486348492.3777 | 3/1B24A38                |           12913363512

 2017-02-06 03:34:53.482771+01 | 1486348493.48277 | 3/1B24A38                |           12913363512

 2017-02-06 03:34:54.577053+01 | 1486348494.57705 | 3/1B24A38                |           12913363512

 2017-02-06 03:34:55.682026+01 | 1486348495.68203 | 3/1B24A38                |           12913363512

 2017-02-06 03:34:56.787623+01 | 1486348496.78762 | 3/1B24A38                |           12913363512

 2017-02-06 03:34:57.879329+01 | 1486348497.87933 | 3/1B24A38                |           12913363512

 2017-02-06 03:34:58.982755+01 | 1486348498.98275 | 3/1B24A38                |           12913363512

 2017-02-06 03:35:00.086862+01 | 1486348500.08686 | 3/1B24A38                |           12913363512

 2017-02-06 03:35:01.198079+01 | 1486348501.19808 | 3/1B24A38                |           12913363512

 2017-02-06 03:35:02.294602+01 | 1486348502.2946 | 3/1B24A38                |           12913363512

 2017-02-06 03:35:03.401443+01 | 1486348503.40144 | 3/1B24A38                |           12913363512

 2017-02-06 03:35:04.493272+01 | 1486348504.49327 | 3/1B24A38                |           12913363512

 2017-02-06 03:35:05.592643+01 | 1486348505.59264 | 3/1B24A38                |           12913363512

 2017-02-06 03:35:06.69355+01 | 1486348506.69355 | 3/1B24A38                |           12913363512

 2017-02-06 03:35:07.794455+01 | 1486348507.79446 | 3/1B24A38                |           12913363512

 2017-02-06 03:35:08.88496+01 | 1486348508.88496 | 3/1B24A38                |           12913363512

 2017-02-06 03:35:09.998183+01 | 1486348509.99818 | 3/1B24A38                |           12913363512

 2017-02-06 03:35:11.10363+01 | 1486348511.10363 | 3/1B24A38                |           12913363512

 2017-02-06 03:35:12.212785+01 | 1486348512.21279 | 3/1B24A38                |           12913363512

 2017-02-06 03:35:13.311626+01 | 1486348513.31163 | 3/1B24A38                |           12913363512

 2017-02-06 03:35:14.417358+01 | 1486348514.41736 | 3/1B24A38                |           12913363512

 2017-02-06 03:35:15.519536+01 | 1486348515.51954 | 3/1B24A38                |           12913363512

 2017-02-06 03:35:16.625885+01 | 1486348516.62589 | 3/1B24A38                |           12913363512

 2017-02-06 03:35:17.724599+01 | 1486348517.7246 | 3/1B24A38                |           12913363512

 2017-02-06 03:35:18.822545+01 | 1486348518.82255 | 3/1B24A38                |           12913363512

 2017-02-06 03:35:19.926753+01 | 1486348519.92675 | 3/1B24A38                |           12913363512

 2017-02-06 03:35:21.028243+01 | 1486348521.02824 | 3/1B24A38                |           12913363512

 2017-02-06 03:35:22.121785+01 | 1486348522.12178 | 3/1B24A38                |           12913363512

 2017-02-06 03:35:23.224793+01 | 1486348523.22479 | 3/1B24A38                |           12913363512

 2017-02-06 03:35:24.334833+01 | 1486348524.33483 | 3/1B24A38                |           12913363512

 2017-02-06 03:35:25.425817+01 | 1486348525.42582 | 3/1B24A38                |           12913363512

 2017-02-06 03:35:26.533157+01 | 1486348526.53316 | 3/1B24A38                |           12913363512

 2017-02-06 03:35:27.636738+01 | 1486348527.63674 | 3/1B24A38                |           12913363512

 2017-02-06 03:35:28.751834+01 | 1486348528.75183 | 3/1B24A38                |           12913363512

 2017-02-06 03:35:29.859631+01 | 1486348529.85963 | 3/1B24A38                |           12913363512

 2017-02-06 03:35:30.956639+01 | 1486348530.95664 | 3/1B24A38                |           12913363512

 2017-02-06 03:35:32.061743+01 | 1486348532.06174 | 3/1B24A38                |           12913363512

 2017-02-06 03:35:33.163625+01 | 1486348533.16363 | 3/1B24A38                |           12913363512

 2017-02-06 03:35:34.266066+01 | 1486348534.26607 | 3/1B24A38                |           12913363512

 2017-02-06 03:35:35.367044+01 | 1486348535.36704 | 3/1B24A38                |           12913363512

 2017-02-06 03:35:36.476508+01 | 1486348536.47651 | 3/1B24A38                |           12913363512

 2017-02-06 03:35:37.586124+01 | 1486348537.58612 | 3/1B24A38                |           12913363512

 2017-02-06 03:35:38.688521+01 | 1486348538.68852 | 3/1B24A38                |           12913363512

 2017-02-06 03:35:39.793173+01 | 1486348539.79317 | 3/1B24A38                |           12913363512

 2017-02-06 03:35:40.891012+01 | 1486348540.89101 | 3/1B24A38                |           12913363512

 2017-02-06 03:35:41.992787+01 | 1486348541.99279 | 3/1B24A38                |           12913363512

 2017-02-06 03:35:43.097877+01 | 1486348543.09788 | 3/1B24A38                |           12913363512

 2017-02-06 03:35:44.204413+01 | 1486348544.20441 | 3/1B24A38                |           12913363512

 2017-02-06 03:35:45.29651+01 | 1486348545.29651 | 3/1B24A38                |           12913363512

 2017-02-06 03:35:46.394817+01 | 1486348546.39482 | 3/1B24A38                |           12913363512

 2017-02-06 03:35:47.50374+01 | 1486348547.50374 | 3/1B24A38                |           12913363512

 2017-02-06 03:35:48.586529+01 | 1486348548.58653 | 3/1B24A38                |           12913363512

 2017-02-06 03:35:49.690139+01 | 1486348549.69014 | 3/1B24A38                |           12913363512

 2017-02-06 03:35:50.800767+01 | 1486348550.80077 | 3/1B24A38                |           12913363512

 2017-02-06 03:35:51.908303+01 | 1486348551.9083 | 3/1B24A38                |           12913363512

 2017-02-06 03:35:52.999849+01 | 1486348552.99985 | 3/1B24A38                |           12913363512

 2017-02-06 03:35:54.104456+01 | 1486348554.10446 | 3/1B24A38                |           12913363512

 2017-02-06 03:35:55.215983+01 | 1486348555.21598 | 3/1B24A38                |           12913363512

 2017-02-06 03:35:56.317581+01 | 1486348556.31758 | 3/1B24A38                |           12913363512

 2017-02-06 03:35:57.425927+01 | 1486348557.42593 | 3/1B24A38                |           12913363512

 2017-02-06 03:35:58.536745+01 | 1486348558.53675 | 3/1B24A38                |           12913363512

 2017-02-06 03:35:59.642739+01 | 1486348559.64274 | 3/1B24A38                |           12913363512

 2017-02-06 03:36:00.733355+01 | 1486348560.73336 | 3/1B24A38                |           12913363512

 2017-02-06 03:36:01.836419+01 | 1486348561.83642 | 3/1B24A38                |           12913363512

 2017-02-06 03:36:02.935769+01 | 1486348562.93577 | 3/1B24A38                |           12913363512

 2017-02-06 03:36:04.047136+01 | 1486348564.04714 | 3/1B24A38                |           12913363512

 2017-02-06 03:36:05.149108+01 | 1486348565.14911 | 3/1B24A38                |           12913363512

 2017-02-06 03:36:06.255509+01 | 1486348566.25551 | 3/1B24A38                |           12913363512

 2017-02-06 03:36:07.361885+01 | 1486348567.36189 | 3/1B24A38                |           12913363512

 2017-02-06 03:36:08.471511+01 | 1486348568.47151 | 3/1B24A38                |           12913363512

 2017-02-06 03:36:09.574826+01 | 1486348569.57483 | 3/1B24A38                |           12913363512

 2017-02-06 03:36:10.671422+01 | 1486348570.67142 | 3/1B24A38                |           12913363512

 2017-02-06 03:36:11.775408+01 | 1486348571.77541 | 3/1B24A38                |           12913363512

 2017-02-06 03:36:12.887023+01 | 1486348572.88702 | 3/1B24A38                |           12913363512

 2017-02-06 03:36:13.981119+01 | 1486348573.98112 | 3/1B24A38                |           12913363512

 2017-02-06 03:36:15.080037+01 | 1486348575.08004 | 3/1B24A38                |           12913363512

 2017-02-06 03:36:16.187245+01 | 1486348576.18724 | 3/1B24A38                |           12913363512

 2017-02-06 03:36:17.286611+01 | 1486348577.28661 | 3/1B24A38                |           12913363512

