 2017-02-05 18:51:04.104208+01 | 1486317064.10421 | pgbench_accounts |      13648699392
 2017-02-05 18:51:04.104208+01 | 1486317064.10421 | pgbench_tellers  |           450560
 2017-02-05 18:51:04.104208+01 | 1486317064.10421 | pgbench_history  |                0
 2017-02-05 18:51:04.104208+01 | 1486317064.10421 | pgbench_branches |            40960

 2017-02-05 18:51:05.194693+01 | 1486317065.19469 | pgbench_accounts |      13648699392
 2017-02-05 18:51:05.194693+01 | 1486317065.19469 | pgbench_tellers  |           450560
 2017-02-05 18:51:05.194693+01 | 1486317065.19469 | pgbench_history  |          3678208
 2017-02-05 18:51:05.194693+01 | 1486317065.19469 | pgbench_branches |            40960

 2017-02-05 18:51:06.275334+01 | 1486317066.27533 | pgbench_accounts |      13648699392
 2017-02-05 18:51:06.275334+01 | 1486317066.27533 | pgbench_tellers  |           450560
 2017-02-05 18:51:06.275334+01 | 1486317066.27533 | pgbench_history  |          4685824
 2017-02-05 18:51:06.275334+01 | 1486317066.27533 | pgbench_branches |            40960

 2017-02-05 18:51:07.358508+01 | 1486317067.35851 | pgbench_accounts |      13648699392
 2017-02-05 18:51:07.358508+01 | 1486317067.35851 | pgbench_tellers  |           450560
 2017-02-05 18:51:07.358508+01 | 1486317067.35851 | pgbench_history  |          8904704
 2017-02-05 18:51:07.358508+01 | 1486317067.35851 | pgbench_branches |            40960

 2017-02-05 18:51:08.437586+01 | 1486317068.43759 | pgbench_accounts |      13648699392
 2017-02-05 18:51:08.437586+01 | 1486317068.43759 | pgbench_tellers  |           450560
 2017-02-05 18:51:08.437586+01 | 1486317068.43759 | pgbench_history  |          8904704
 2017-02-05 18:51:08.437586+01 | 1486317068.43759 | pgbench_branches |            40960

 2017-02-05 18:51:09.527829+01 | 1486317069.52783 | pgbench_accounts |      13648699392
 2017-02-05 18:51:09.527829+01 | 1486317069.52783 | pgbench_tellers  |           450560
 2017-02-05 18:51:09.527829+01 | 1486317069.52783 | pgbench_history  |         12369920
 2017-02-05 18:51:09.527829+01 | 1486317069.52783 | pgbench_branches |            40960

 2017-02-05 18:51:10.626108+01 | 1486317070.62611 | pgbench_accounts |      13648699392
 2017-02-05 18:51:10.626108+01 | 1486317070.62611 | pgbench_tellers  |           450560
 2017-02-05 18:51:10.626108+01 | 1486317070.62611 | pgbench_history  |         15556608
 2017-02-05 18:51:10.626108+01 | 1486317070.62611 | pgbench_branches |            40960

 2017-02-05 18:51:11.719028+01 | 1486317071.71903 | pgbench_accounts |      13648699392
 2017-02-05 18:51:11.719028+01 | 1486317071.71903 | pgbench_tellers  |           450560
 2017-02-05 18:51:11.719028+01 | 1486317071.71903 | pgbench_history  |         17874944
 2017-02-05 18:51:11.719028+01 | 1486317071.71903 | pgbench_branches |            40960

 2017-02-05 18:51:12.799922+01 | 1486317072.79992 | pgbench_accounts |      13648699392
 2017-02-05 18:51:12.799922+01 | 1486317072.79992 | pgbench_tellers  |           450560
 2017-02-05 18:51:12.799922+01 | 1486317072.79992 | pgbench_history  |         22093824
 2017-02-05 18:51:12.799922+01 | 1486317072.79992 | pgbench_branches |            40960

 2017-02-05 18:51:13.884016+01 | 1486317073.88402 | pgbench_accounts |      13648699392
 2017-02-05 18:51:13.884016+01 | 1486317073.88402 | pgbench_tellers  |           450560
 2017-02-05 18:51:13.884016+01 | 1486317073.88402 | pgbench_history  |         22962176
 2017-02-05 18:51:13.884016+01 | 1486317073.88402 | pgbench_branches |            40960

 2017-02-05 18:51:14.966409+01 | 1486317074.96641 | pgbench_accounts |      13648699392
 2017-02-05 18:51:14.966409+01 | 1486317074.96641 | pgbench_tellers  |           450560
 2017-02-05 18:51:14.966409+01 | 1486317074.96641 | pgbench_history  |         28680192
 2017-02-05 18:51:14.966409+01 | 1486317074.96641 | pgbench_branches |            40960

 2017-02-05 18:51:16.043867+01 | 1486317076.04387 | pgbench_accounts |      13648699392
 2017-02-05 18:51:16.043867+01 | 1486317076.04387 | pgbench_tellers  |           450560
 2017-02-05 18:51:16.043867+01 | 1486317076.04387 | pgbench_history  |         30179328
 2017-02-05 18:51:16.043867+01 | 1486317076.04387 | pgbench_branches |            40960

 2017-02-05 18:51:17.123873+01 | 1486317077.12387 | pgbench_accounts |      13648699392
 2017-02-05 18:51:17.123873+01 | 1486317077.12387 | pgbench_tellers  |           450560
 2017-02-05 18:51:17.123873+01 | 1486317077.12387 | pgbench_history  |         34185216
 2017-02-05 18:51:17.123873+01 | 1486317077.12387 | pgbench_branches |            40960

 2017-02-05 18:51:18.212436+01 | 1486317078.21244 | pgbench_accounts |      13648699392
 2017-02-05 18:51:18.212436+01 | 1486317078.21244 | pgbench_tellers  |           450560
 2017-02-05 18:51:18.212436+01 | 1486317078.21244 | pgbench_history  |         38166528
 2017-02-05 18:51:18.212436+01 | 1486317078.21244 | pgbench_branches |            40960

 2017-02-05 18:51:19.306651+01 | 1486317079.30665 | pgbench_accounts |      13648699392
 2017-02-05 18:51:19.306651+01 | 1486317079.30665 | pgbench_tellers  |           450560
 2017-02-05 18:51:19.306651+01 | 1486317079.30665 | pgbench_history  |         40673280
 2017-02-05 18:51:19.306651+01 | 1486317079.30665 | pgbench_branches |            40960

 2017-02-05 18:51:20.394379+01 | 1486317080.39438 | pgbench_accounts |      13648699392
 2017-02-05 18:51:20.394379+01 | 1486317080.39438 | pgbench_tellers  |           450560
 2017-02-05 18:51:20.394379+01 | 1486317080.39438 | pgbench_history  |         43343872
 2017-02-05 18:51:20.394379+01 | 1486317080.39438 | pgbench_branches |            40960

 2017-02-05 18:51:21.47973+01 | 1486317081.47973 | pgbench_accounts |      13648699392
 2017-02-05 18:51:21.47973+01 | 1486317081.47973 | pgbench_tellers  |           450560
 2017-02-05 18:51:21.47973+01 | 1486317081.47973 | pgbench_history  |         46833664
 2017-02-05 18:51:21.47973+01 | 1486317081.47973 | pgbench_branches |            40960

 2017-02-05 18:51:22.568177+01 | 1486317082.56818 | pgbench_accounts |      13648699392
 2017-02-05 18:51:22.568177+01 | 1486317082.56818 | pgbench_tellers  |           450560
 2017-02-05 18:51:22.568177+01 | 1486317082.56818 | pgbench_history  |         50954240
 2017-02-05 18:51:22.568177+01 | 1486317082.56818 | pgbench_branches |            40960

 2017-02-05 18:51:23.661047+01 | 1486317083.66105 | pgbench_accounts |      13648699392
 2017-02-05 18:51:23.661047+01 | 1486317083.66105 | pgbench_tellers  |           450560
 2017-02-05 18:51:23.661047+01 | 1486317083.66105 | pgbench_history  |         54280192
 2017-02-05 18:51:23.661047+01 | 1486317083.66105 | pgbench_branches |            40960

 2017-02-05 18:51:24.747764+01 | 1486317084.74776 | pgbench_accounts |      13648699392
 2017-02-05 18:51:24.747764+01 | 1486317084.74776 | pgbench_tellers  |           450560
 2017-02-05 18:51:24.747764+01 | 1486317084.74776 | pgbench_history  |         57630720
 2017-02-05 18:51:24.747764+01 | 1486317084.74776 | pgbench_branches |            40960

 2017-02-05 18:51:25.8298+01 | 1486317085.8298 | pgbench_accounts |      13648699392
 2017-02-05 18:51:25.8298+01 | 1486317085.8298 | pgbench_tellers  |           450560
 2017-02-05 18:51:25.8298+01 | 1486317085.8298 | pgbench_history  |         61800448
 2017-02-05 18:51:25.8298+01 | 1486317085.8298 | pgbench_branches |            40960

 2017-02-05 18:51:26.902951+01 | 1486317086.90295 | pgbench_accounts |      13648699392
 2017-02-05 18:51:26.902951+01 | 1486317086.90295 | pgbench_tellers  |           450560
 2017-02-05 18:51:26.902951+01 | 1486317086.90295 | pgbench_history  |         65314816
 2017-02-05 18:51:26.902951+01 | 1486317086.90295 | pgbench_branches |            40960

 2017-02-05 18:51:27.981237+01 | 1486317087.98124 | pgbench_accounts |      13648699392
 2017-02-05 18:51:27.981237+01 | 1486317087.98124 | pgbench_tellers  |           450560
 2017-02-05 18:51:27.981237+01 | 1486317087.98124 | pgbench_history  |         68149248
 2017-02-05 18:51:27.981237+01 | 1486317087.98124 | pgbench_branches |            40960

 2017-02-05 18:51:29.061986+01 | 1486317089.06199 | pgbench_accounts |      13648699392
 2017-02-05 18:51:29.061986+01 | 1486317089.06199 | pgbench_tellers  |           450560
 2017-02-05 18:51:29.061986+01 | 1486317089.06199 | pgbench_history  |         72810496
 2017-02-05 18:51:29.061986+01 | 1486317089.06199 | pgbench_branches |            40960

 2017-02-05 18:51:30.147278+01 | 1486317090.14728 | pgbench_accounts |      13648699392
 2017-02-05 18:51:30.147278+01 | 1486317090.14728 | pgbench_tellers  |           450560
 2017-02-05 18:51:30.147278+01 | 1486317090.14728 | pgbench_history  |         74801152
 2017-02-05 18:51:30.147278+01 | 1486317090.14728 | pgbench_branches |            40960

 2017-02-05 18:51:31.225934+01 | 1486317091.22593 | pgbench_accounts |      13648699392
 2017-02-05 18:51:31.225934+01 | 1486317091.22593 | pgbench_tellers  |           450560
 2017-02-05 18:51:31.225934+01 | 1486317091.22593 | pgbench_history  |         79142912
 2017-02-05 18:51:31.225934+01 | 1486317091.22593 | pgbench_branches |            40960

 2017-02-05 18:51:32.322049+01 | 1486317092.32205 | pgbench_accounts |      13648699392
 2017-02-05 18:51:32.322049+01 | 1486317092.32205 | pgbench_tellers  |           450560
 2017-02-05 18:51:32.322049+01 | 1486317092.32205 | pgbench_history  |         84041728
 2017-02-05 18:51:32.322049+01 | 1486317092.32205 | pgbench_branches |            40960

 2017-02-05 18:51:33.413081+01 | 1486317093.41308 | pgbench_accounts |      13648699392
 2017-02-05 18:51:33.413081+01 | 1486317093.41308 | pgbench_tellers  |           450560
 2017-02-05 18:51:33.413081+01 | 1486317093.41308 | pgbench_history  |         86573056
 2017-02-05 18:51:33.413081+01 | 1486317093.41308 | pgbench_branches |            40960

 2017-02-05 18:51:34.503788+01 | 1486317094.50379 | pgbench_accounts |      13648699392
 2017-02-05 18:51:34.503788+01 | 1486317094.50379 | pgbench_tellers  |           450560
 2017-02-05 18:51:34.503788+01 | 1486317094.50379 | pgbench_history  |         89923584
 2017-02-05 18:51:34.503788+01 | 1486317094.50379 | pgbench_branches |            40960

 2017-02-05 18:51:35.586621+01 | 1486317095.58662 | pgbench_accounts |      13648699392
 2017-02-05 18:51:35.586621+01 | 1486317095.58662 | pgbench_tellers  |           450560
 2017-02-05 18:51:35.586621+01 | 1486317095.58662 | pgbench_history  |         94937088
 2017-02-05 18:51:35.586621+01 | 1486317095.58662 | pgbench_branches |            40960

 2017-02-05 18:51:36.683276+01 | 1486317096.68328 | pgbench_accounts |      13648699392
 2017-02-05 18:51:36.683276+01 | 1486317096.68328 | pgbench_tellers  |           450560
 2017-02-05 18:51:36.683276+01 | 1486317096.68328 | pgbench_history  |         96788480
 2017-02-05 18:51:36.683276+01 | 1486317096.68328 | pgbench_branches |            40960

 2017-02-05 18:51:37.780735+01 | 1486317097.78074 | pgbench_accounts |      13648699392
 2017-02-05 18:51:37.780735+01 | 1486317097.78074 | pgbench_tellers  |           450560
 2017-02-05 18:51:37.780735+01 | 1486317097.78074 | pgbench_history  |        100630528
 2017-02-05 18:51:37.780735+01 | 1486317097.78074 | pgbench_branches |            40960

 2017-02-05 18:51:38.870051+01 | 1486317098.87005 | pgbench_accounts |      13648699392
 2017-02-05 18:51:38.870051+01 | 1486317098.87005 | pgbench_tellers  |           450560
 2017-02-05 18:51:38.870051+01 | 1486317098.87005 | pgbench_history  |        104472576
 2017-02-05 18:51:38.870051+01 | 1486317098.87005 | pgbench_branches |            40960

 2017-02-05 18:51:39.955487+01 | 1486317099.95549 | pgbench_accounts |      13648699392
 2017-02-05 18:51:39.955487+01 | 1486317099.95549 | pgbench_tellers  |           450560
 2017-02-05 18:51:39.955487+01 | 1486317099.95549 | pgbench_history  |        108380160
 2017-02-05 18:51:39.955487+01 | 1486317099.95549 | pgbench_branches |            40960

 2017-02-05 18:51:41.034796+01 | 1486317101.0348 | pgbench_accounts |      13648699392
 2017-02-05 18:51:41.034796+01 | 1486317101.0348 | pgbench_tellers  |           450560
 2017-02-05 18:51:41.034796+01 | 1486317101.0348 | pgbench_history  |        111902720
 2017-02-05 18:51:41.034796+01 | 1486317101.0348 | pgbench_branches |            40960

 2017-02-05 18:51:42.113917+01 | 1486317102.11392 | pgbench_accounts |      13648699392
 2017-02-05 18:51:42.113917+01 | 1486317102.11392 | pgbench_tellers  |           450560
 2017-02-05 18:51:42.113917+01 | 1486317102.11392 | pgbench_history  |        115580928
 2017-02-05 18:51:42.113917+01 | 1486317102.11392 | pgbench_branches |            40960

 2017-02-05 18:51:43.191455+01 | 1486317103.19145 | pgbench_accounts |      13648699392
 2017-02-05 18:51:43.191455+01 | 1486317103.19145 | pgbench_tellers  |           450560
 2017-02-05 18:51:43.191455+01 | 1486317103.19145 | pgbench_history  |        119595008
 2017-02-05 18:51:43.191455+01 | 1486317103.19145 | pgbench_branches |            40960

 2017-02-05 18:51:44.272878+01 | 1486317104.27288 | pgbench_accounts |      13648699392
 2017-02-05 18:51:44.272878+01 | 1486317104.27288 | pgbench_tellers  |           450560
 2017-02-05 18:51:44.272878+01 | 1486317104.27288 | pgbench_history  |        122920960
 2017-02-05 18:51:44.272878+01 | 1486317104.27288 | pgbench_branches |            40960

 2017-02-05 18:51:45.35618+01 | 1486317105.35618 | pgbench_accounts |      13648699392
 2017-02-05 18:51:45.35618+01 | 1486317105.35618 | pgbench_tellers  |           450560
 2017-02-05 18:51:45.35618+01 | 1486317105.35618 | pgbench_history  |        127090688
 2017-02-05 18:51:45.35618+01 | 1486317105.35618 | pgbench_branches |            40960

 2017-02-05 18:51:46.438017+01 | 1486317106.43802 | pgbench_accounts |      13648699392
 2017-02-05 18:51:46.438017+01 | 1486317106.43802 | pgbench_tellers  |           450560
 2017-02-05 18:51:46.438017+01 | 1486317106.43802 | pgbench_history  |        129458176
 2017-02-05 18:51:46.438017+01 | 1486317106.43802 | pgbench_branches |            40960

 2017-02-05 18:51:47.518337+01 | 1486317107.51834 | pgbench_accounts |      13648699392
 2017-02-05 18:51:47.518337+01 | 1486317107.51834 | pgbench_tellers  |           450560
 2017-02-05 18:51:47.518337+01 | 1486317107.51834 | pgbench_history  |        132341760
 2017-02-05 18:51:47.518337+01 | 1486317107.51834 | pgbench_branches |            40960

 2017-02-05 18:51:48.59603+01 | 1486317108.59603 | pgbench_accounts |      13648699392
 2017-02-05 18:51:48.59603+01 | 1486317108.59603 | pgbench_tellers  |           450560
 2017-02-05 18:51:48.59603+01 | 1486317108.59603 | pgbench_history  |        136593408
 2017-02-05 18:51:48.59603+01 | 1486317108.59603 | pgbench_branches |            40960

 2017-02-05 18:51:49.685519+01 | 1486317109.68552 | pgbench_accounts |      13648699392
 2017-02-05 18:51:49.685519+01 | 1486317109.68552 | pgbench_tellers  |           450560
 2017-02-05 18:51:49.685519+01 | 1486317109.68552 | pgbench_history  |        142073856
 2017-02-05 18:51:49.685519+01 | 1486317109.68552 | pgbench_branches |            40960

 2017-02-05 18:51:50.765006+01 | 1486317110.76501 | pgbench_accounts |      13648699392
 2017-02-05 18:51:50.765006+01 | 1486317110.76501 | pgbench_tellers  |           450560
 2017-02-05 18:51:50.765006+01 | 1486317110.76501 | pgbench_history  |        142073856
 2017-02-05 18:51:50.765006+01 | 1486317110.76501 | pgbench_branches |            40960

 2017-02-05 18:51:51.850705+01 | 1486317111.8507 | pgbench_accounts |      13648699392
 2017-02-05 18:51:51.850705+01 | 1486317111.8507 | pgbench_tellers  |           450560
 2017-02-05 18:51:51.850705+01 | 1486317111.8507 | pgbench_history  |        146137088
 2017-02-05 18:51:51.850705+01 | 1486317111.8507 | pgbench_branches |            40960

 2017-02-05 18:51:52.935455+01 | 1486317112.93546 | pgbench_accounts |      13648699392
 2017-02-05 18:51:52.935455+01 | 1486317112.93546 | pgbench_tellers  |           450560
 2017-02-05 18:51:52.935455+01 | 1486317112.93546 | pgbench_history  |        150872064
 2017-02-05 18:51:52.935455+01 | 1486317112.93546 | pgbench_branches |            40960

 2017-02-05 18:51:54.024197+01 | 1486317114.0242 | pgbench_accounts |      13648699392
 2017-02-05 18:51:54.024197+01 | 1486317114.0242 | pgbench_tellers  |           450560
 2017-02-05 18:51:54.024197+01 | 1486317114.0242 | pgbench_history  |        153051136
 2017-02-05 18:51:54.024197+01 | 1486317114.0242 | pgbench_branches |            40960

 2017-02-05 18:51:55.10235+01 | 1486317115.10235 | pgbench_accounts |      13648699392
 2017-02-05 18:51:55.10235+01 | 1486317115.10235 | pgbench_tellers  |           450560
 2017-02-05 18:51:55.10235+01 | 1486317115.10235 | pgbench_history  |        157114368
 2017-02-05 18:51:55.10235+01 | 1486317115.10235 | pgbench_branches |            40960

 2017-02-05 18:51:56.182925+01 | 1486317116.18292 | pgbench_accounts |      13648699392
 2017-02-05 18:51:56.182925+01 | 1486317116.18292 | pgbench_tellers  |           450560
 2017-02-05 18:51:56.182925+01 | 1486317116.18292 | pgbench_history  |        160161792
 2017-02-05 18:51:56.182925+01 | 1486317116.18292 | pgbench_branches |            40960

 2017-02-05 18:51:57.265433+01 | 1486317117.26543 | pgbench_accounts |      13648699392
 2017-02-05 18:51:57.265433+01 | 1486317117.26543 | pgbench_tellers  |           450560
 2017-02-05 18:51:57.265433+01 | 1486317117.26543 | pgbench_history  |        163840000
 2017-02-05 18:51:57.265433+01 | 1486317117.26543 | pgbench_branches |            40960

 2017-02-05 18:51:58.356868+01 | 1486317118.35687 | pgbench_accounts |      13648699392
 2017-02-05 18:51:58.356868+01 | 1486317118.35687 | pgbench_tellers  |           450560
 2017-02-05 18:51:58.356868+01 | 1486317118.35687 | pgbench_history  |        167518208
 2017-02-05 18:51:58.356868+01 | 1486317118.35687 | pgbench_branches |            40960

 2017-02-05 18:51:59.440488+01 | 1486317119.44049 | pgbench_accounts |      13648699392
 2017-02-05 18:51:59.440488+01 | 1486317119.44049 | pgbench_tellers  |           450560
 2017-02-05 18:51:59.440488+01 | 1486317119.44049 | pgbench_history  |        171409408
 2017-02-05 18:51:59.440488+01 | 1486317119.44049 | pgbench_branches |            40960

 2017-02-05 18:52:00.524945+01 | 1486317120.52495 | pgbench_accounts |      13648699392
 2017-02-05 18:52:00.524945+01 | 1486317120.52495 | pgbench_tellers  |           450560
 2017-02-05 18:52:00.524945+01 | 1486317120.52495 | pgbench_history  |        174735360
 2017-02-05 18:52:00.524945+01 | 1486317120.52495 | pgbench_branches |            40960

 2017-02-05 18:52:01.610154+01 | 1486317121.61015 | pgbench_accounts |      13648699392
 2017-02-05 18:52:01.610154+01 | 1486317121.61015 | pgbench_tellers  |           450560
 2017-02-05 18:52:01.610154+01 | 1486317121.61015 | pgbench_history  |        178765824
 2017-02-05 18:52:01.610154+01 | 1486317121.61015 | pgbench_branches |            40960

 2017-02-05 18:52:02.692504+01 | 1486317122.6925 | pgbench_accounts |      13648699392
 2017-02-05 18:52:02.692504+01 | 1486317122.6925 | pgbench_tellers  |           450560
 2017-02-05 18:52:02.692504+01 | 1486317122.6925 | pgbench_history  |        182050816
 2017-02-05 18:52:02.692504+01 | 1486317122.6925 | pgbench_branches |            40960

 2017-02-05 18:52:03.781256+01 | 1486317123.78126 | pgbench_accounts |      13648699392
 2017-02-05 18:52:03.781256+01 | 1486317123.78126 | pgbench_tellers  |           450560
 2017-02-05 18:52:03.781256+01 | 1486317123.78126 | pgbench_history  |        186122240
 2017-02-05 18:52:03.781256+01 | 1486317123.78126 | pgbench_branches |            40960

 2017-02-05 18:52:04.866132+01 | 1486317124.86613 | pgbench_accounts |      13648699392
 2017-02-05 18:52:04.866132+01 | 1486317124.86613 | pgbench_tellers  |           450560
 2017-02-05 18:52:04.866132+01 | 1486317124.86613 | pgbench_history  |        190316544
 2017-02-05 18:52:04.866132+01 | 1486317124.86613 | pgbench_branches |            40960

 2017-02-05 18:52:05.958619+01 | 1486317125.95862 | pgbench_accounts |      13648699392
 2017-02-05 18:52:05.958619+01 | 1486317125.95862 | pgbench_tellers  |           450560
 2017-02-05 18:52:05.958619+01 | 1486317125.95862 | pgbench_history  |        196124672
 2017-02-05 18:52:05.958619+01 | 1486317125.95862 | pgbench_branches |            40960

 2017-02-05 18:52:07.042021+01 | 1486317127.04202 | pgbench_accounts |      13648699392
 2017-02-05 18:52:07.042021+01 | 1486317127.04202 | pgbench_tellers  |           450560
 2017-02-05 18:52:07.042021+01 | 1486317127.04202 | pgbench_history  |        197787648
 2017-02-05 18:52:07.042021+01 | 1486317127.04202 | pgbench_branches |            40960

 2017-02-05 18:52:08.126562+01 | 1486317128.12656 | pgbench_accounts |      13648699392
 2017-02-05 18:52:08.126562+01 | 1486317128.12656 | pgbench_tellers  |           450560
 2017-02-05 18:52:08.126562+01 | 1486317128.12656 | pgbench_history  |        201957376
 2017-02-05 18:52:08.126562+01 | 1486317128.12656 | pgbench_branches |            40960

 2017-02-05 18:52:09.205041+01 | 1486317129.20504 | pgbench_accounts |      13648699392
 2017-02-05 18:52:09.205041+01 | 1486317129.20504 | pgbench_tellers  |           450560
 2017-02-05 18:52:09.205041+01 | 1486317129.20504 | pgbench_history  |        205496320
 2017-02-05 18:52:09.205041+01 | 1486317129.20504 | pgbench_branches |            40960

 2017-02-05 18:52:10.289402+01 | 1486317130.2894 | pgbench_accounts |      13648699392
 2017-02-05 18:52:10.289402+01 | 1486317130.2894 | pgbench_tellers  |           450560
 2017-02-05 18:52:10.289402+01 | 1486317130.2894 | pgbench_history  |        209715200
 2017-02-05 18:52:10.289402+01 | 1486317130.2894 | pgbench_branches |            40960

 2017-02-05 18:52:11.380919+01 | 1486317131.38092 | pgbench_accounts |      13648699392
 2017-02-05 18:52:11.380919+01 | 1486317131.38092 | pgbench_tellers  |           450560
 2017-02-05 18:52:11.380919+01 | 1486317131.38092 | pgbench_history  |        215195648
 2017-02-05 18:52:11.380919+01 | 1486317131.38092 | pgbench_branches |            40960

 2017-02-05 18:52:12.470677+01 | 1486317132.47068 | pgbench_accounts |      13648699392
 2017-02-05 18:52:12.470677+01 | 1486317132.47068 | pgbench_tellers  |           450560
 2017-02-05 18:52:12.470677+01 | 1486317132.47068 | pgbench_history  |        216694784
 2017-02-05 18:52:12.470677+01 | 1486317132.47068 | pgbench_branches |            40960

 2017-02-05 18:52:13.56007+01 | 1486317133.56007 | pgbench_accounts |      13648699392
 2017-02-05 18:52:13.56007+01 | 1486317133.56007 | pgbench_tellers  |           450560
 2017-02-05 18:52:13.56007+01 | 1486317133.56007 | pgbench_history  |        221757440
 2017-02-05 18:52:13.56007+01 | 1486317133.56007 | pgbench_branches |            40960

 2017-02-05 18:52:14.643126+01 | 1486317134.64313 | pgbench_accounts |      13648699392
 2017-02-05 18:52:14.643126+01 | 1486317134.64313 | pgbench_tellers  |           450560
 2017-02-05 18:52:14.643126+01 | 1486317134.64313 | pgbench_history  |        223256576
 2017-02-05 18:52:14.643126+01 | 1486317134.64313 | pgbench_branches |            40960

 2017-02-05 18:52:15.729912+01 | 1486317135.72991 | pgbench_accounts |      13648699392
 2017-02-05 18:52:15.729912+01 | 1486317135.72991 | pgbench_tellers  |           450560
 2017-02-05 18:52:15.729912+01 | 1486317135.72991 | pgbench_history  |        229982208
 2017-02-05 18:52:15.729912+01 | 1486317135.72991 | pgbench_branches |            40960

 2017-02-05 18:52:16.81955+01 | 1486317136.81955 | pgbench_accounts |      13648699392
 2017-02-05 18:52:16.81955+01 | 1486317136.81955 | pgbench_tellers  |           450560
 2017-02-05 18:52:16.81955+01 | 1486317136.81955 | pgbench_history  |        231481344
 2017-02-05 18:52:16.81955+01 | 1486317136.81955 | pgbench_branches |            40960

 2017-02-05 18:52:17.909992+01 | 1486317137.90999 | pgbench_accounts |      13648699392
 2017-02-05 18:52:17.909992+01 | 1486317137.90999 | pgbench_tellers  |           450560
 2017-02-05 18:52:17.909992+01 | 1486317137.90999 | pgbench_history  |        235323392
 2017-02-05 18:52:17.909992+01 | 1486317137.90999 | pgbench_branches |            40960

 2017-02-05 18:52:18.992695+01 | 1486317138.9927 | pgbench_accounts |      13648699392
 2017-02-05 18:52:18.992695+01 | 1486317138.9927 | pgbench_tellers  |           450560
 2017-02-05 18:52:18.992695+01 | 1486317138.9927 | pgbench_history  |        240312320
 2017-02-05 18:52:18.992695+01 | 1486317138.9927 | pgbench_branches |            40960

 2017-02-05 18:52:20.071988+01 | 1486317140.07199 | pgbench_accounts |      13648699392
 2017-02-05 18:52:20.071988+01 | 1486317140.07199 | pgbench_tellers  |           450560
 2017-02-05 18:52:20.071988+01 | 1486317140.07199 | pgbench_history  |        241975296
 2017-02-05 18:52:20.071988+01 | 1486317140.07199 | pgbench_branches |            40960

 2017-02-05 18:52:21.147149+01 | 1486317141.14715 | pgbench_accounts |      13648699392
 2017-02-05 18:52:21.147149+01 | 1486317141.14715 | pgbench_tellers  |           450560
 2017-02-05 18:52:21.147149+01 | 1486317141.14715 | pgbench_history  |        245653504
 2017-02-05 18:52:21.147149+01 | 1486317141.14715 | pgbench_branches |            40960

 2017-02-05 18:52:22.228465+01 | 1486317142.22847 | pgbench_accounts |      13648699392
 2017-02-05 18:52:22.228465+01 | 1486317142.22847 | pgbench_tellers  |           450560
 2017-02-05 18:52:22.228465+01 | 1486317142.22847 | pgbench_history  |        250527744
 2017-02-05 18:52:22.228465+01 | 1486317142.22847 | pgbench_branches |            40960

 2017-02-05 18:52:23.309138+01 | 1486317143.30914 | pgbench_accounts |      13648699392
 2017-02-05 18:52:23.309138+01 | 1486317143.30914 | pgbench_tellers  |           450560
 2017-02-05 18:52:23.309138+01 | 1486317143.30914 | pgbench_history  |        253222912
 2017-02-05 18:52:23.309138+01 | 1486317143.30914 | pgbench_branches |            40960

 2017-02-05 18:52:24.386004+01 | 1486317144.386 | pgbench_accounts |      13648699392
 2017-02-05 18:52:24.386004+01 | 1486317144.386 | pgbench_tellers  |           450560
 2017-02-05 18:52:24.386004+01 | 1486317144.386 | pgbench_history  |        257441792
 2017-02-05 18:52:24.386004+01 | 1486317144.386 | pgbench_branches |            40960

 2017-02-05 18:52:25.478374+01 | 1486317145.47837 | pgbench_accounts |      13648699392
 2017-02-05 18:52:25.478374+01 | 1486317145.47837 | pgbench_tellers  |           450560
 2017-02-05 18:52:25.478374+01 | 1486317145.47837 | pgbench_history  |        262504448
 2017-02-05 18:52:25.478374+01 | 1486317145.47837 | pgbench_branches |            40960

 2017-02-05 18:52:26.563407+01 | 1486317146.56341 | pgbench_accounts |      13648699392
 2017-02-05 18:52:26.563407+01 | 1486317146.56341 | pgbench_tellers  |           450560
 2017-02-05 18:52:26.563407+01 | 1486317146.56341 | pgbench_history  |        263888896
 2017-02-05 18:52:26.563407+01 | 1486317146.56341 | pgbench_branches |            40960

 2017-02-05 18:52:27.650453+01 | 1486317147.65045 | pgbench_accounts |      13648699392
 2017-02-05 18:52:27.650453+01 | 1486317147.65045 | pgbench_tellers  |           450560
 2017-02-05 18:52:27.650453+01 | 1486317147.65045 | pgbench_history  |        267755520
 2017-02-05 18:52:27.650453+01 | 1486317147.65045 | pgbench_branches |            40960

 2017-02-05 18:52:28.719642+01 | 1486317148.71964 | pgbench_accounts |      13648699392
 2017-02-05 18:52:28.719642+01 | 1486317148.71964 | pgbench_tellers  |           450560
 2017-02-05 18:52:28.719642+01 | 1486317148.71964 | pgbench_history  |        272416768
 2017-02-05 18:52:28.719642+01 | 1486317148.71964 | pgbench_branches |            40960

 2017-02-05 18:52:29.799942+01 | 1486317149.79994 | pgbench_accounts |      13648699392
 2017-02-05 18:52:29.799942+01 | 1486317149.79994 | pgbench_tellers  |           450560
 2017-02-05 18:52:29.799942+01 | 1486317149.79994 | pgbench_history  |        275881984
 2017-02-05 18:52:29.799942+01 | 1486317149.79994 | pgbench_branches |            40960

 2017-02-05 18:52:30.885968+01 | 1486317150.88597 | pgbench_accounts |      13648699392
 2017-02-05 18:52:30.885968+01 | 1486317150.88597 | pgbench_tellers  |           450560
 2017-02-05 18:52:30.885968+01 | 1486317150.88597 | pgbench_history  |        281198592
 2017-02-05 18:52:30.885968+01 | 1486317150.88597 | pgbench_branches |            40960

 2017-02-05 18:52:31.97297+01 | 1486317151.97297 | pgbench_accounts |      13648928768
 2017-02-05 18:52:31.97297+01 | 1486317151.97297 | pgbench_tellers  |           450560
 2017-02-05 18:52:31.97297+01 | 1486317151.97297 | pgbench_history  |        283516928
 2017-02-05 18:52:31.97297+01 | 1486317151.97297 | pgbench_branches |            40960

 2017-02-05 18:52:33.057719+01 | 1486317153.05772 | pgbench_accounts |      13649141760
 2017-02-05 18:52:33.057719+01 | 1486317153.05772 | pgbench_tellers  |           450560
 2017-02-05 18:52:33.057719+01 | 1486317153.05772 | pgbench_history  |        286842880
 2017-02-05 18:52:33.057719+01 | 1486317153.05772 | pgbench_branches |            40960

 2017-02-05 18:52:34.13936+01 | 1486317154.13936 | pgbench_accounts |      13649403904
 2017-02-05 18:52:34.13936+01 | 1486317154.13936 | pgbench_tellers  |           450560
 2017-02-05 18:52:34.13936+01 | 1486317154.13936 | pgbench_history  |        289726464
 2017-02-05 18:52:34.13936+01 | 1486317154.13936 | pgbench_branches |            40960

 2017-02-05 18:52:35.216373+01 | 1486317155.21637 | pgbench_accounts |      13649928192
 2017-02-05 18:52:35.216373+01 | 1486317155.21637 | pgbench_tellers  |           450560
 2017-02-05 18:52:35.216373+01 | 1486317155.21637 | pgbench_history  |        293732352
 2017-02-05 18:52:35.216373+01 | 1486317155.21637 | pgbench_branches |            40960

 2017-02-05 18:52:36.295137+01 | 1486317156.29514 | pgbench_accounts |      13649960960
 2017-02-05 18:52:36.295137+01 | 1486317156.29514 | pgbench_tellers  |           450560
 2017-02-05 18:52:36.295137+01 | 1486317156.29514 | pgbench_history  |        298393600
 2017-02-05 18:52:36.295137+01 | 1486317156.29514 | pgbench_branches |            40960

 2017-02-05 18:52:37.381184+01 | 1486317157.38118 | pgbench_accounts |      13650018304
 2017-02-05 18:52:37.381184+01 | 1486317157.38118 | pgbench_tellers  |           450560
 2017-02-05 18:52:37.381184+01 | 1486317157.38118 | pgbench_history  |        300572672
 2017-02-05 18:52:37.381184+01 | 1486317157.38118 | pgbench_branches |            40960

 2017-02-05 18:52:38.468979+01 | 1486317158.46898 | pgbench_accounts |      13650264064
 2017-02-05 18:52:38.468979+01 | 1486317158.46898 | pgbench_tellers  |           450560
 2017-02-05 18:52:38.468979+01 | 1486317158.46898 | pgbench_history  |        304578560
 2017-02-05 18:52:38.468979+01 | 1486317158.46898 | pgbench_branches |            40960

 2017-02-05 18:52:39.55418+01 | 1486317159.55418 | pgbench_accounts |      13650550784
 2017-02-05 18:52:39.55418+01 | 1486317159.55418 | pgbench_tellers  |           450560
 2017-02-05 18:52:39.55418+01 | 1486317159.55418 | pgbench_history  |        309895168
 2017-02-05 18:52:39.55418+01 | 1486317159.55418 | pgbench_branches |            40960

 2017-02-05 18:52:40.634425+01 | 1486317160.63442 | pgbench_accounts |      13650624512
 2017-02-05 18:52:40.634425+01 | 1486317160.63442 | pgbench_tellers  |           450560
 2017-02-05 18:52:40.634425+01 | 1486317160.63442 | pgbench_history  |        312401920
 2017-02-05 18:52:40.634425+01 | 1486317160.63442 | pgbench_branches |            40960

 2017-02-05 18:52:41.716962+01 | 1486317161.71696 | pgbench_accounts |      13650706432
 2017-02-05 18:52:41.716962+01 | 1486317161.71696 | pgbench_tellers  |           450560
 2017-02-05 18:52:41.716962+01 | 1486317161.71696 | pgbench_history  |        316596224
 2017-02-05 18:52:41.716962+01 | 1486317161.71696 | pgbench_branches |            40960

 2017-02-05 18:52:42.805007+01 | 1486317162.80501 | pgbench_accounts |      13650944000
 2017-02-05 18:52:42.805007+01 | 1486317162.80501 | pgbench_tellers  |           450560
 2017-02-05 18:52:42.805007+01 | 1486317162.80501 | pgbench_history  |        320282624
 2017-02-05 18:52:42.805007+01 | 1486317162.80501 | pgbench_branches |            40960

 2017-02-05 18:52:43.895025+01 | 1486317163.89503 | pgbench_accounts |      13651132416
 2017-02-05 18:52:43.895025+01 | 1486317163.89503 | pgbench_tellers  |           450560
 2017-02-05 18:52:43.895025+01 | 1486317163.89503 | pgbench_history  |        323444736
 2017-02-05 18:52:43.895025+01 | 1486317163.89503 | pgbench_branches |            40960

 2017-02-05 18:52:44.982116+01 | 1486317164.98212 | pgbench_accounts |      13651263488
 2017-02-05 18:52:44.982116+01 | 1486317164.98212 | pgbench_tellers  |           450560
 2017-02-05 18:52:44.982116+01 | 1486317164.98212 | pgbench_history  |        327802880
 2017-02-05 18:52:44.982116+01 | 1486317164.98212 | pgbench_branches |            40960

 2017-02-05 18:52:46.068732+01 | 1486317166.06873 | pgbench_accounts |      13651378176
 2017-02-05 18:52:46.068732+01 | 1486317166.06873 | pgbench_tellers  |           450560
 2017-02-05 18:52:46.068732+01 | 1486317166.06873 | pgbench_history  |        331481088
 2017-02-05 18:52:46.068732+01 | 1486317166.06873 | pgbench_branches |            40960

 2017-02-05 18:52:47.149355+01 | 1486317167.14935 | pgbench_accounts |      13651501056
 2017-02-05 18:52:47.149355+01 | 1486317167.14935 | pgbench_tellers  |           450560
 2017-02-05 18:52:47.149355+01 | 1486317167.14935 | pgbench_history  |        336470016
 2017-02-05 18:52:47.149355+01 | 1486317167.14935 | pgbench_branches |            40960

 2017-02-05 18:52:48.228552+01 | 1486317168.22855 | pgbench_accounts |      13651722240
 2017-02-05 18:52:48.228552+01 | 1486317168.22855 | pgbench_tellers  |           450560
 2017-02-05 18:52:48.228552+01 | 1486317168.22855 | pgbench_history  |        340287488
 2017-02-05 18:52:48.228552+01 | 1486317168.22855 | pgbench_branches |            40960

 2017-02-05 18:52:49.305503+01 | 1486317169.3055 | pgbench_accounts |      13651861504
 2017-02-05 18:52:49.305503+01 | 1486317169.3055 | pgbench_tellers  |           450560
 2017-02-05 18:52:49.305503+01 | 1486317169.3055 | pgbench_history  |        342163456
 2017-02-05 18:52:49.305503+01 | 1486317169.3055 | pgbench_branches |            40960

 2017-02-05 18:52:50.391643+01 | 1486317170.39164 | pgbench_accounts |      13652000768
 2017-02-05 18:52:50.391643+01 | 1486317170.39164 | pgbench_tellers  |           450560
 2017-02-05 18:52:50.391643+01 | 1486317170.39164 | pgbench_history  |        345792512
 2017-02-05 18:52:50.391643+01 | 1486317170.39164 | pgbench_branches |            40960

 2017-02-05 18:52:51.478474+01 | 1486317171.47847 | pgbench_accounts |      13652099072
 2017-02-05 18:52:51.478474+01 | 1486317171.47847 | pgbench_tellers  |           450560
 2017-02-05 18:52:51.478474+01 | 1486317171.47847 | pgbench_history  |        349708288
 2017-02-05 18:52:51.478474+01 | 1486317171.47847 | pgbench_branches |            40960

 2017-02-05 18:52:52.562623+01 | 1486317172.56262 | pgbench_accounts |      13652271104
 2017-02-05 18:52:52.562623+01 | 1486317172.56262 | pgbench_tellers  |           450560
 2017-02-05 18:52:52.562623+01 | 1486317172.56262 | pgbench_history  |        353878016
 2017-02-05 18:52:52.562623+01 | 1486317172.56262 | pgbench_branches |            40960

 2017-02-05 18:52:53.646333+01 | 1486317173.64633 | pgbench_accounts |      13652434944
 2017-02-05 18:52:53.646333+01 | 1486317173.64633 | pgbench_tellers  |           450560
 2017-02-05 18:52:53.646333+01 | 1486317173.64633 | pgbench_history  |        356737024
 2017-02-05 18:52:53.646333+01 | 1486317173.64633 | pgbench_branches |            40960

 2017-02-05 18:52:54.740178+01 | 1486317174.74018 | pgbench_accounts |      13652590592
 2017-02-05 18:52:54.740178+01 | 1486317174.74018 | pgbench_tellers  |           450560
 2017-02-05 18:52:54.740178+01 | 1486317174.74018 | pgbench_history  |        360742912
 2017-02-05 18:52:54.740178+01 | 1486317174.74018 | pgbench_branches |            40960

 2017-02-05 18:52:55.828035+01 | 1486317175.82804 | pgbench_accounts |      13652672512
 2017-02-05 18:52:55.828035+01 | 1486317175.82804 | pgbench_tellers  |           450560
 2017-02-05 18:52:55.828035+01 | 1486317175.82804 | pgbench_history  |        365256704
 2017-02-05 18:52:55.828035+01 | 1486317175.82804 | pgbench_branches |            40960

 2017-02-05 18:52:56.909643+01 | 1486317176.90964 | pgbench_accounts |      13652836352
 2017-02-05 18:52:56.909643+01 | 1486317176.90964 | pgbench_tellers  |           450560
 2017-02-05 18:52:56.909643+01 | 1486317176.90964 | pgbench_history  |        368451584
 2017-02-05 18:52:56.909643+01 | 1486317176.90964 | pgbench_branches |            40960

 2017-02-05 18:52:57.993041+01 | 1486317177.99304 | pgbench_accounts |      13652967424
 2017-02-05 18:52:57.993041+01 | 1486317177.99304 | pgbench_tellers  |           450560
 2017-02-05 18:52:57.993041+01 | 1486317177.99304 | pgbench_history  |        372621312
 2017-02-05 18:52:57.993041+01 | 1486317177.99304 | pgbench_branches |            40960

 2017-02-05 18:52:59.07571+01 | 1486317179.07571 | pgbench_accounts |      13653139456
 2017-02-05 18:52:59.07571+01 | 1486317179.07571 | pgbench_tellers  |           450560
 2017-02-05 18:52:59.07571+01 | 1486317179.07571 | pgbench_history  |        378757120
 2017-02-05 18:52:59.07571+01 | 1486317179.07571 | pgbench_branches |            40960

 2017-02-05 18:53:00.155787+01 | 1486317180.15579 | pgbench_accounts |      13653254144
 2017-02-05 18:53:00.155787+01 | 1486317180.15579 | pgbench_tellers  |           450560
 2017-02-05 18:53:00.155787+01 | 1486317180.15579 | pgbench_history  |        380583936
 2017-02-05 18:53:00.155787+01 | 1486317180.15579 | pgbench_branches |            40960

 2017-02-05 18:53:01.237889+01 | 1486317181.23789 | pgbench_accounts |      13653336064
 2017-02-05 18:53:01.237889+01 | 1486317181.23789 | pgbench_tellers  |           450560
 2017-02-05 18:53:01.237889+01 | 1486317181.23789 | pgbench_history  |        386138112
 2017-02-05 18:53:01.237889+01 | 1486317181.23789 | pgbench_branches |            40960

 2017-02-05 18:53:02.317132+01 | 1486317182.31713 | pgbench_accounts |      13653483520
 2017-02-05 18:53:02.317132+01 | 1486317182.31713 | pgbench_tellers  |           450560
 2017-02-05 18:53:02.317132+01 | 1486317182.31713 | pgbench_history  |        387145728
 2017-02-05 18:53:02.317132+01 | 1486317182.31713 | pgbench_branches |            40960

 2017-02-05 18:53:03.39924+01 | 1486317183.39924 | pgbench_accounts |      13653680128
 2017-02-05 18:53:03.39924+01 | 1486317183.39924 | pgbench_tellers  |           450560
 2017-02-05 18:53:03.39924+01 | 1486317183.39924 | pgbench_history  |        390823936
 2017-02-05 18:53:03.39924+01 | 1486317183.39924 | pgbench_branches |            40960

 2017-02-05 18:53:04.476384+01 | 1486317184.47638 | pgbench_accounts |      13653786624
 2017-02-05 18:53:04.476384+01 | 1486317184.47638 | pgbench_tellers  |           450560
 2017-02-05 18:53:04.476384+01 | 1486317184.47638 | pgbench_history  |        394665984
 2017-02-05 18:53:04.476384+01 | 1486317184.47638 | pgbench_branches |            40960

 2017-02-05 18:53:05.557236+01 | 1486317185.55724 | pgbench_accounts |      13653884928
 2017-02-05 18:53:05.557236+01 | 1486317185.55724 | pgbench_tellers  |           450560
 2017-02-05 18:53:05.557236+01 | 1486317185.55724 | pgbench_history  |        399163392
 2017-02-05 18:53:05.557236+01 | 1486317185.55724 | pgbench_branches |            40960

 2017-02-05 18:53:06.638431+01 | 1486317186.63843 | pgbench_accounts |      13653983232
 2017-02-05 18:53:06.638431+01 | 1486317186.63843 | pgbench_tellers  |           450560
 2017-02-05 18:53:06.638431+01 | 1486317186.63843 | pgbench_history  |        401154048
 2017-02-05 18:53:06.638431+01 | 1486317186.63843 | pgbench_branches |            40960

 2017-02-05 18:53:07.724577+01 | 1486317187.72458 | pgbench_accounts |      13654065152
 2017-02-05 18:53:07.724577+01 | 1486317187.72458 | pgbench_tellers  |           450560
 2017-02-05 18:53:07.724577+01 | 1486317187.72458 | pgbench_history  |        404643840
 2017-02-05 18:53:07.724577+01 | 1486317187.72458 | pgbench_branches |            40960

 2017-02-05 18:53:08.815086+01 | 1486317188.81509 | pgbench_accounts |      13654212608
 2017-02-05 18:53:08.815086+01 | 1486317188.81509 | pgbench_tellers  |           450560
 2017-02-05 18:53:08.815086+01 | 1486317188.81509 | pgbench_history  |        409305088
 2017-02-05 18:53:08.815086+01 | 1486317188.81509 | pgbench_branches |            40960

 2017-02-05 18:53:09.90234+01 | 1486317189.90234 | pgbench_accounts |      13654409216
 2017-02-05 18:53:09.90234+01 | 1486317189.90234 | pgbench_tellers  |           450560
 2017-02-05 18:53:09.90234+01 | 1486317189.90234 | pgbench_history  |        412164096
 2017-02-05 18:53:09.90234+01 | 1486317189.90234 | pgbench_branches |            40960

 2017-02-05 18:53:10.987415+01 | 1486317190.98742 | pgbench_accounts |      13654548480
 2017-02-05 18:53:10.987415+01 | 1486317190.98742 | pgbench_tellers  |           450560
 2017-02-05 18:53:10.987415+01 | 1486317190.98742 | pgbench_history  |        415375360
 2017-02-05 18:53:10.987415+01 | 1486317190.98742 | pgbench_branches |            40960

 2017-02-05 18:53:12.077798+01 | 1486317192.0778 | pgbench_accounts |      13654646784
 2017-02-05 18:53:12.077798+01 | 1486317192.0778 | pgbench_tellers  |           450560
 2017-02-05 18:53:12.077798+01 | 1486317192.0778 | pgbench_history  |        418914304
 2017-02-05 18:53:12.077798+01 | 1486317192.0778 | pgbench_branches |            40960

 2017-02-05 18:53:13.157297+01 | 1486317193.1573 | pgbench_accounts |      13654736896
 2017-02-05 18:53:13.157297+01 | 1486317193.1573 | pgbench_tellers  |           450560
 2017-02-05 18:53:13.157297+01 | 1486317193.1573 | pgbench_history  |        423403520
 2017-02-05 18:53:13.157297+01 | 1486317193.1573 | pgbench_branches |            40960

 2017-02-05 18:53:14.238623+01 | 1486317194.23862 | pgbench_accounts |      13654851584
 2017-02-05 18:53:14.238623+01 | 1486317194.23862 | pgbench_tellers  |           450560
 2017-02-05 18:53:14.238623+01 | 1486317194.23862 | pgbench_history  |        426926080
 2017-02-05 18:53:14.238623+01 | 1486317194.23862 | pgbench_branches |            40960

 2017-02-05 18:53:15.320045+01 | 1486317195.32004 | pgbench_accounts |      13655007232
 2017-02-05 18:53:15.320045+01 | 1486317195.32004 | pgbench_tellers  |           450560
 2017-02-05 18:53:15.320045+01 | 1486317195.32004 | pgbench_history  |        429785088
 2017-02-05 18:53:15.320045+01 | 1486317195.32004 | pgbench_branches |            40960

 2017-02-05 18:53:16.399285+01 | 1486317196.39929 | pgbench_accounts |      13655162880
 2017-02-05 18:53:16.399285+01 | 1486317196.39929 | pgbench_tellers  |           450560
 2017-02-05 18:53:16.399285+01 | 1486317196.39929 | pgbench_history  |        433135616
 2017-02-05 18:53:16.399285+01 | 1486317196.39929 | pgbench_branches |            40960

 2017-02-05 18:53:17.487717+01 | 1486317197.48772 | pgbench_accounts |      13655236608
 2017-02-05 18:53:17.487717+01 | 1486317197.48772 | pgbench_tellers  |           450560
 2017-02-05 18:53:17.487717+01 | 1486317197.48772 | pgbench_history  |        437657600
 2017-02-05 18:53:17.487717+01 | 1486317197.48772 | pgbench_branches |            40960

 2017-02-05 18:53:18.560595+01 | 1486317198.5606 | pgbench_accounts |      13655392256
 2017-02-05 18:53:18.560595+01 | 1486317198.5606 | pgbench_tellers  |           450560
 2017-02-05 18:53:18.560595+01 | 1486317198.5606 | pgbench_history  |        440557568
 2017-02-05 18:53:18.560595+01 | 1486317198.5606 | pgbench_branches |            40960

 2017-02-05 18:53:19.649011+01 | 1486317199.64901 | pgbench_accounts |      13655490560
 2017-02-05 18:53:19.649011+01 | 1486317199.64901 | pgbench_tellers  |           450560
 2017-02-05 18:53:19.649011+01 | 1486317199.64901 | pgbench_history  |        445104128
 2017-02-05 18:53:19.649011+01 | 1486317199.64901 | pgbench_branches |            40960

 2017-02-05 18:53:20.744464+01 | 1486317200.74446 | pgbench_accounts |      13655629824
 2017-02-05 18:53:20.744464+01 | 1486317200.74446 | pgbench_tellers  |           450560
 2017-02-05 18:53:20.744464+01 | 1486317200.74446 | pgbench_history  |        447471616
 2017-02-05 18:53:20.744464+01 | 1486317200.74446 | pgbench_branches |            40960

 2017-02-05 18:53:21.835069+01 | 1486317201.83507 | pgbench_accounts |      13655769088
 2017-02-05 18:53:21.835069+01 | 1486317201.83507 | pgbench_tellers  |           450560
 2017-02-05 18:53:21.835069+01 | 1486317201.83507 | pgbench_history  |        451715072
 2017-02-05 18:53:21.835069+01 | 1486317201.83507 | pgbench_branches |            40960

 2017-02-05 18:53:22.923336+01 | 1486317202.92334 | pgbench_accounts |      13655875584
 2017-02-05 18:53:22.923336+01 | 1486317202.92334 | pgbench_tellers  |           450560
 2017-02-05 18:53:22.923336+01 | 1486317202.92334 | pgbench_history  |        456941568
 2017-02-05 18:53:22.923336+01 | 1486317202.92334 | pgbench_branches |            40960

 2017-02-05 18:53:24.010736+01 | 1486317204.01074 | pgbench_accounts |      13656023040
 2017-02-05 18:53:24.010736+01 | 1486317204.01074 | pgbench_tellers  |           450560
 2017-02-05 18:53:24.010736+01 | 1486317204.01074 | pgbench_history  |        459800576
 2017-02-05 18:53:24.010736+01 | 1486317204.01074 | pgbench_branches |            40960

 2017-02-05 18:53:25.107132+01 | 1486317205.10713 | pgbench_accounts |      13656293376
 2017-02-05 18:53:25.107132+01 | 1486317205.10713 | pgbench_tellers  |           450560
 2017-02-05 18:53:25.107132+01 | 1486317205.10713 | pgbench_history  |        463618048
 2017-02-05 18:53:25.107132+01 | 1486317205.10713 | pgbench_branches |            40960

 2017-02-05 18:53:26.186669+01 | 1486317206.18667 | pgbench_accounts |      13657219072
 2017-02-05 18:53:26.186669+01 | 1486317206.18667 | pgbench_tellers  |           450560
 2017-02-05 18:53:26.186669+01 | 1486317206.18667 | pgbench_history  |        467435520
 2017-02-05 18:53:26.186669+01 | 1486317206.18667 | pgbench_branches |            40960

 2017-02-05 18:53:27.266861+01 | 1486317207.26686 | pgbench_accounts |      13657645056
 2017-02-05 18:53:27.266861+01 | 1486317207.26686 | pgbench_tellers  |           450560
 2017-02-05 18:53:27.266861+01 | 1486317207.26686 | pgbench_history  |        470786048
 2017-02-05 18:53:27.266861+01 | 1486317207.26686 | pgbench_branches |            40960

 2017-02-05 18:53:28.346716+01 | 1486317208.34672 | pgbench_accounts |      13657751552
 2017-02-05 18:53:28.346716+01 | 1486317208.34672 | pgbench_tellers  |           450560
 2017-02-05 18:53:28.346716+01 | 1486317208.34672 | pgbench_history  |        473292800
 2017-02-05 18:53:28.346716+01 | 1486317208.34672 | pgbench_branches |            40960

 2017-02-05 18:53:29.426091+01 | 1486317209.42609 | pgbench_accounts |      13657866240
 2017-02-05 18:53:29.426091+01 | 1486317209.42609 | pgbench_tellers  |           450560
 2017-02-05 18:53:29.426091+01 | 1486317209.42609 | pgbench_history  |        477134848
 2017-02-05 18:53:29.426091+01 | 1486317209.42609 | pgbench_branches |            40960

 2017-02-05 18:53:30.505237+01 | 1486317210.50524 | pgbench_accounts |      13657989120
 2017-02-05 18:53:30.505237+01 | 1486317210.50524 | pgbench_tellers  |           450560
 2017-02-05 18:53:30.505237+01 | 1486317210.50524 | pgbench_history  |        481140736
 2017-02-05 18:53:30.505237+01 | 1486317210.50524 | pgbench_branches |            40960

 2017-02-05 18:53:31.593821+01 | 1486317211.59382 | pgbench_accounts |      13658103808
 2017-02-05 18:53:31.593821+01 | 1486317211.59382 | pgbench_tellers  |           450560
 2017-02-05 18:53:31.593821+01 | 1486317211.59382 | pgbench_history  |        485965824
 2017-02-05 18:53:31.593821+01 | 1486317211.59382 | pgbench_branches |            40960

 2017-02-05 18:53:32.680412+01 | 1486317212.68041 | pgbench_accounts |      13658267648
 2017-02-05 18:53:32.680412+01 | 1486317212.68041 | pgbench_tellers  |           450560
 2017-02-05 18:53:32.680412+01 | 1486317212.68041 | pgbench_history  |        488636416
 2017-02-05 18:53:32.680412+01 | 1486317212.68041 | pgbench_branches |            40960

 2017-02-05 18:53:33.762891+01 | 1486317213.76289 | pgbench_accounts |      13658382336
 2017-02-05 18:53:33.762891+01 | 1486317213.76289 | pgbench_tellers  |           450560
 2017-02-05 18:53:33.762891+01 | 1486317213.76289 | pgbench_history  |        493158400
 2017-02-05 18:53:33.762891+01 | 1486317213.76289 | pgbench_branches |            40960

 2017-02-05 18:53:34.840511+01 | 1486317214.84051 | pgbench_accounts |      13658456064
 2017-02-05 18:53:34.840511+01 | 1486317214.84051 | pgbench_tellers  |           450560
 2017-02-05 18:53:34.840511+01 | 1486317214.84051 | pgbench_history  |        495501312
 2017-02-05 18:53:34.840511+01 | 1486317214.84051 | pgbench_branches |            40960

 2017-02-05 18:53:35.929737+01 | 1486317215.92974 | pgbench_accounts |      13658537984
 2017-02-05 18:53:35.929737+01 | 1486317215.92974 | pgbench_tellers  |           450560
 2017-02-05 18:53:35.929737+01 | 1486317215.92974 | pgbench_history  |        499556352
 2017-02-05 18:53:35.929737+01 | 1486317215.92974 | pgbench_branches |            40960

 2017-02-05 18:53:37.018762+01 | 1486317217.01876 | pgbench_accounts |      13658701824
 2017-02-05 18:53:37.018762+01 | 1486317217.01876 | pgbench_tellers  |           450560
 2017-02-05 18:53:37.018762+01 | 1486317217.01876 | pgbench_history  |        503562240
 2017-02-05 18:53:37.018762+01 | 1486317217.01876 | pgbench_branches |            40960

 2017-02-05 18:53:38.105735+01 | 1486317218.10574 | pgbench_accounts |      13658816512
 2017-02-05 18:53:38.105735+01 | 1486317218.10574 | pgbench_tellers  |           450560
 2017-02-05 18:53:38.105735+01 | 1486317218.10574 | pgbench_history  |        507125760
 2017-02-05 18:53:38.105735+01 | 1486317218.10574 | pgbench_branches |            40960

 2017-02-05 18:53:39.185262+01 | 1486317219.18526 | pgbench_accounts |      13658963968
 2017-02-05 18:53:39.185262+01 | 1486317219.18526 | pgbench_tellers  |           450560
 2017-02-05 18:53:39.185262+01 | 1486317219.18526 | pgbench_history  |        510640128
 2017-02-05 18:53:39.185262+01 | 1486317219.18526 | pgbench_branches |            40960

 2017-02-05 18:53:40.26101+01 | 1486317220.26101 | pgbench_accounts |      13659062272
 2017-02-05 18:53:40.26101+01 | 1486317220.26101 | pgbench_tellers  |           450560
 2017-02-05 18:53:40.26101+01 | 1486317220.26101 | pgbench_history  |        516874240
 2017-02-05 18:53:40.26101+01 | 1486317220.26101 | pgbench_branches |            40960

 2017-02-05 18:53:41.341568+01 | 1486317221.34157 | pgbench_accounts |      13659119616
 2017-02-05 18:53:41.341568+01 | 1486317221.34157 | pgbench_tellers  |           450560
 2017-02-05 18:53:41.341568+01 | 1486317221.34157 | pgbench_history  |        517554176
 2017-02-05 18:53:41.341568+01 | 1486317221.34157 | pgbench_branches |            40960

 2017-02-05 18:53:42.421516+01 | 1486317222.42152 | pgbench_accounts |      13659250688
 2017-02-05 18:53:42.421516+01 | 1486317222.42152 | pgbench_tellers  |           450560
 2017-02-05 18:53:42.421516+01 | 1486317222.42152 | pgbench_history  |        521535488
 2017-02-05 18:53:42.421516+01 | 1486317222.42152 | pgbench_branches |            40960

 2017-02-05 18:53:43.511741+01 | 1486317223.51174 | pgbench_accounts |      13659357184
 2017-02-05 18:53:43.511741+01 | 1486317223.51174 | pgbench_tellers  |           450560
 2017-02-05 18:53:43.511741+01 | 1486317223.51174 | pgbench_history  |        524910592
 2017-02-05 18:53:43.511741+01 | 1486317223.51174 | pgbench_branches |            40960

 2017-02-05 18:53:44.602612+01 | 1486317224.60261 | pgbench_accounts |      13659496448
 2017-02-05 18:53:44.602612+01 | 1486317224.60261 | pgbench_tellers  |           450560
 2017-02-05 18:53:44.602612+01 | 1486317224.60261 | pgbench_history  |        528752640
 2017-02-05 18:53:44.602612+01 | 1486317224.60261 | pgbench_branches |            40960

 2017-02-05 18:53:45.691533+01 | 1486317225.69153 | pgbench_accounts |      13659619328
 2017-02-05 18:53:45.691533+01 | 1486317225.69153 | pgbench_tellers  |           450560
 2017-02-05 18:53:45.691533+01 | 1486317225.69153 | pgbench_history  |        532430848
 2017-02-05 18:53:45.691533+01 | 1486317225.69153 | pgbench_branches |            40960

 2017-02-05 18:53:46.775681+01 | 1486317226.77568 | pgbench_accounts |      13659742208
 2017-02-05 18:53:46.775681+01 | 1486317226.77568 | pgbench_tellers  |           450560
 2017-02-05 18:53:46.775681+01 | 1486317226.77568 | pgbench_history  |        537329664
 2017-02-05 18:53:46.775681+01 | 1486317226.77568 | pgbench_branches |            40960

 2017-02-05 18:53:47.86753+01 | 1486317227.86753 | pgbench_accounts |      13659799552
 2017-02-05 18:53:47.86753+01 | 1486317227.86753 | pgbench_tellers  |           450560
 2017-02-05 18:53:47.86753+01 | 1486317227.86753 | pgbench_history  |        539877376
 2017-02-05 18:53:47.86753+01 | 1486317227.86753 | pgbench_branches |            40960

 2017-02-05 18:53:48.947473+01 | 1486317228.94747 | pgbench_accounts |      13659922432
 2017-02-05 18:53:48.947473+01 | 1486317228.94747 | pgbench_tellers  |           450560
 2017-02-05 18:53:48.947473+01 | 1486317228.94747 | pgbench_history  |        543571968
 2017-02-05 18:53:48.947473+01 | 1486317228.94747 | pgbench_branches |            40960

 2017-02-05 18:53:50.03572+01 | 1486317230.03572 | pgbench_accounts |      13660028928
 2017-02-05 18:53:50.03572+01 | 1486317230.03572 | pgbench_tellers  |           450560
 2017-02-05 18:53:50.03572+01 | 1486317230.03572 | pgbench_history  |        547438592
 2017-02-05 18:53:50.03572+01 | 1486317230.03572 | pgbench_branches |            40960

 2017-02-05 18:53:51.11085+01 | 1486317231.11085 | pgbench_accounts |      13660192768
 2017-02-05 18:53:51.11085+01 | 1486317231.11085 | pgbench_tellers  |           450560
 2017-02-05 18:53:51.11085+01 | 1486317231.11085 | pgbench_history  |        551632896
 2017-02-05 18:53:51.11085+01 | 1486317231.11085 | pgbench_branches |            40960

 2017-02-05 18:53:52.182092+01 | 1486317232.18209 | pgbench_accounts |      13660274688
 2017-02-05 18:53:52.182092+01 | 1486317232.18209 | pgbench_tellers  |           450560
 2017-02-05 18:53:52.182092+01 | 1486317232.18209 | pgbench_history  |        556761088
 2017-02-05 18:53:52.182092+01 | 1486317232.18209 | pgbench_branches |            40960

 2017-02-05 18:53:53.261525+01 | 1486317233.26152 | pgbench_accounts |      13660381184
 2017-02-05 18:53:53.261525+01 | 1486317233.26152 | pgbench_tellers  |           450560
 2017-02-05 18:53:53.261525+01 | 1486317233.26152 | pgbench_history  |        559267840
 2017-02-05 18:53:53.261525+01 | 1486317233.26152 | pgbench_branches |            40960

 2017-02-05 18:53:54.344069+01 | 1486317234.34407 | pgbench_accounts |      13660479488
 2017-02-05 18:53:54.344069+01 | 1486317234.34407 | pgbench_tellers  |           450560
 2017-02-05 18:53:54.344069+01 | 1486317234.34407 | pgbench_history  |        562290688
 2017-02-05 18:53:54.344069+01 | 1486317234.34407 | pgbench_branches |            40960

 2017-02-05 18:53:55.409768+01 | 1486317235.40977 | pgbench_accounts |      13660569600
 2017-02-05 18:53:55.409768+01 | 1486317235.40977 | pgbench_tellers  |           450560
 2017-02-05 18:53:55.409768+01 | 1486317235.40977 | pgbench_history  |        566296576
 2017-02-05 18:53:55.409768+01 | 1486317235.40977 | pgbench_branches |            40960

 2017-02-05 18:53:56.490873+01 | 1486317236.49087 | pgbench_accounts |      13660659712
 2017-02-05 18:53:56.490873+01 | 1486317236.49087 | pgbench_tellers  |           450560
 2017-02-05 18:53:56.490873+01 | 1486317236.49087 | pgbench_history  |        570515456
 2017-02-05 18:53:56.490873+01 | 1486317236.49087 | pgbench_branches |            40960

 2017-02-05 18:53:57.580386+01 | 1486317237.58039 | pgbench_accounts |      13660782592
 2017-02-05 18:53:57.580386+01 | 1486317237.58039 | pgbench_tellers  |           450560
 2017-02-05 18:53:57.580386+01 | 1486317237.58039 | pgbench_history  |        573186048
 2017-02-05 18:53:57.580386+01 | 1486317237.58039 | pgbench_branches |            40960

 2017-02-05 18:53:58.672645+01 | 1486317238.67265 | pgbench_accounts |      13660913664
 2017-02-05 18:53:58.672645+01 | 1486317238.67265 | pgbench_tellers  |           450560
 2017-02-05 18:53:58.672645+01 | 1486317238.67265 | pgbench_history  |        576864256
 2017-02-05 18:53:58.672645+01 | 1486317238.67265 | pgbench_branches |            40960

 2017-02-05 18:53:59.755589+01 | 1486317239.75559 | pgbench_accounts |      13661044736
 2017-02-05 18:53:59.755589+01 | 1486317239.75559 | pgbench_tellers  |           450560
 2017-02-05 18:53:59.755589+01 | 1486317239.75559 | pgbench_history  |        581058560
 2017-02-05 18:53:59.755589+01 | 1486317239.75559 | pgbench_branches |            40960

 2017-02-05 18:54:00.847302+01 | 1486317240.8473 | pgbench_accounts |      13661143040
 2017-02-05 18:54:00.847302+01 | 1486317240.8473 | pgbench_tellers  |           450560
 2017-02-05 18:54:00.847302+01 | 1486317240.8473 | pgbench_history  |        585367552
 2017-02-05 18:54:00.847302+01 | 1486317240.8473 | pgbench_branches |            40960

 2017-02-05 18:54:01.929396+01 | 1486317241.9294 | pgbench_accounts |      13661241344
 2017-02-05 18:54:01.929396+01 | 1486317241.9294 | pgbench_tellers  |           450560
 2017-02-05 18:54:01.929396+01 | 1486317241.9294 | pgbench_history  |        587390976
 2017-02-05 18:54:01.929396+01 | 1486317241.9294 | pgbench_branches |            40960

 2017-02-05 18:54:03.01731+01 | 1486317243.01731 | pgbench_accounts |      13661290496
 2017-02-05 18:54:03.01731+01 | 1486317243.01731 | pgbench_tellers  |           450560
 2017-02-05 18:54:03.01731+01 | 1486317243.01731 | pgbench_history  |        592773120
 2017-02-05 18:54:03.01731+01 | 1486317243.01731 | pgbench_branches |            40960

 2017-02-05 18:54:04.110153+01 | 1486317244.11015 | pgbench_accounts |      13661405184
 2017-02-05 18:54:04.110153+01 | 1486317244.11015 | pgbench_tellers  |           450560
 2017-02-05 18:54:04.110153+01 | 1486317244.11015 | pgbench_history  |        596402176
 2017-02-05 18:54:04.110153+01 | 1486317244.11015 | pgbench_branches |            40960

 2017-02-05 18:54:05.19133+01 | 1486317245.19133 | pgbench_accounts |      13661544448
 2017-02-05 18:54:05.19133+01 | 1486317245.19133 | pgbench_tellers  |           450560
 2017-02-05 18:54:05.19133+01 | 1486317245.19133 | pgbench_history  |        598908928
 2017-02-05 18:54:05.19133+01 | 1486317245.19133 | pgbench_branches |            40960

 2017-02-05 18:54:06.274756+01 | 1486317246.27476 | pgbench_accounts |      13661683712
 2017-02-05 18:54:06.274756+01 | 1486317246.27476 | pgbench_tellers  |           450560
 2017-02-05 18:54:06.274756+01 | 1486317246.27476 | pgbench_history  |        603758592
 2017-02-05 18:54:06.274756+01 | 1486317246.27476 | pgbench_branches |            40960

 2017-02-05 18:54:07.352804+01 | 1486317247.3528 | pgbench_accounts |      13661831168
 2017-02-05 18:54:07.352804+01 | 1486317247.3528 | pgbench_tellers  |           450560
 2017-02-05 18:54:07.352804+01 | 1486317247.3528 | pgbench_history  |        606429184
 2017-02-05 18:54:07.352804+01 | 1486317247.3528 | pgbench_branches |            40960

 2017-02-05 18:54:08.431071+01 | 1486317248.43107 | pgbench_accounts |      13661896704
 2017-02-05 18:54:08.431071+01 | 1486317248.43107 | pgbench_tellers  |           450560
 2017-02-05 18:54:08.431071+01 | 1486317248.43107 | pgbench_history  |        610131968
 2017-02-05 18:54:08.431071+01 | 1486317248.43107 | pgbench_branches |            40960

 2017-02-05 18:54:09.508643+01 | 1486317249.50864 | pgbench_accounts |      13661954048
 2017-02-05 18:54:09.508643+01 | 1486317249.50864 | pgbench_tellers  |           450560
 2017-02-05 18:54:09.508643+01 | 1486317249.50864 | pgbench_history  |        613597184
 2017-02-05 18:54:09.508643+01 | 1486317249.50864 | pgbench_branches |            40960

 2017-02-05 18:54:10.593401+01 | 1486317250.5934 | pgbench_accounts |      13662027776
 2017-02-05 18:54:10.593401+01 | 1486317250.5934 | pgbench_tellers  |           450560
 2017-02-05 18:54:10.593401+01 | 1486317250.5934 | pgbench_history  |        617111552
 2017-02-05 18:54:10.593401+01 | 1486317250.5934 | pgbench_branches |            40960

 2017-02-05 18:54:11.677608+01 | 1486317251.67761 | pgbench_accounts |      13662134272
 2017-02-05 18:54:11.677608+01 | 1486317251.67761 | pgbench_tellers  |           450560
 2017-02-05 18:54:11.677608+01 | 1486317251.67761 | pgbench_history  |        621092864
 2017-02-05 18:54:11.677608+01 | 1486317251.67761 | pgbench_branches |            40960

 2017-02-05 18:54:12.765243+01 | 1486317252.76524 | pgbench_accounts |      13662322688
 2017-02-05 18:54:12.765243+01 | 1486317252.76524 | pgbench_tellers  |           450560
 2017-02-05 18:54:12.765243+01 | 1486317252.76524 | pgbench_history  |        624279552
 2017-02-05 18:54:12.765243+01 | 1486317252.76524 | pgbench_branches |            40960

 2017-02-05 18:54:13.850308+01 | 1486317253.85031 | pgbench_accounts |      13662437376
 2017-02-05 18:54:13.850308+01 | 1486317253.85031 | pgbench_tellers  |           450560
 2017-02-05 18:54:13.850308+01 | 1486317253.85031 | pgbench_history  |        628097024
 2017-02-05 18:54:13.850308+01 | 1486317253.85031 | pgbench_branches |            40960

 2017-02-05 18:54:14.939657+01 | 1486317254.93966 | pgbench_accounts |      13662519296
 2017-02-05 18:54:14.939657+01 | 1486317254.93966 | pgbench_tellers  |           450560
 2017-02-05 18:54:14.939657+01 | 1486317254.93966 | pgbench_history  |        631914496
 2017-02-05 18:54:14.939657+01 | 1486317254.93966 | pgbench_branches |            40960

 2017-02-05 18:54:16.0218+01 | 1486317256.0218 | pgbench_accounts |      13662560256
 2017-02-05 18:54:16.0218+01 | 1486317256.0218 | pgbench_tellers  |           450560
 2017-02-05 18:54:16.0218+01 | 1486317256.0218 | pgbench_history  |        633593856
 2017-02-05 18:54:16.0218+01 | 1486317256.0218 | pgbench_branches |            40960

 2017-02-05 18:54:17.10695+01 | 1486317257.10695 | pgbench_accounts |      13662633984
 2017-02-05 18:54:17.10695+01 | 1486317257.10695 | pgbench_tellers  |           450560
 2017-02-05 18:54:17.10695+01 | 1486317257.10695 | pgbench_history  |        640024576
 2017-02-05 18:54:17.10695+01 | 1486317257.10695 | pgbench_branches |            40960

 2017-02-05 18:54:18.189815+01 | 1486317258.18982 | pgbench_accounts |      13662707712
 2017-02-05 18:54:18.189815+01 | 1486317258.18982 | pgbench_tellers  |           450560
 2017-02-05 18:54:18.189815+01 | 1486317258.18982 | pgbench_history  |        640024576
 2017-02-05 18:54:18.189815+01 | 1486317258.18982 | pgbench_branches |            40960

 2017-02-05 18:54:19.271964+01 | 1486317259.27196 | pgbench_accounts |      13662814208
 2017-02-05 18:54:19.271964+01 | 1486317259.27196 | pgbench_tellers  |           450560
 2017-02-05 18:54:19.271964+01 | 1486317259.27196 | pgbench_history  |        643538944
 2017-02-05 18:54:19.271964+01 | 1486317259.27196 | pgbench_branches |            40960

 2017-02-05 18:54:20.352737+01 | 1486317260.35274 | pgbench_accounts |      13662928896
 2017-02-05 18:54:20.352737+01 | 1486317260.35274 | pgbench_tellers  |           450560
 2017-02-05 18:54:20.352737+01 | 1486317260.35274 | pgbench_history  |        647921664
 2017-02-05 18:54:20.352737+01 | 1486317260.35274 | pgbench_branches |            40960

 2017-02-05 18:54:21.43201+01 | 1486317261.43201 | pgbench_accounts |      13663027200
 2017-02-05 18:54:21.43201+01 | 1486317261.43201 | pgbench_tellers  |           450560
 2017-02-05 18:54:21.43201+01 | 1486317261.43201 | pgbench_history  |        651108352
 2017-02-05 18:54:21.43201+01 | 1486317261.43201 | pgbench_branches |            40960

 2017-02-05 18:54:22.510388+01 | 1486317262.51039 | pgbench_accounts |      13663150080
 2017-02-05 18:54:22.510388+01 | 1486317262.51039 | pgbench_tellers  |           450560
 2017-02-05 18:54:22.510388+01 | 1486317262.51039 | pgbench_history  |        655417344
 2017-02-05 18:54:22.510388+01 | 1486317262.51039 | pgbench_branches |            40960

 2017-02-05 18:54:23.593916+01 | 1486317263.59392 | pgbench_accounts |      13663232000
 2017-02-05 18:54:23.593916+01 | 1486317263.59392 | pgbench_tellers  |           450560
 2017-02-05 18:54:23.593916+01 | 1486317263.59392 | pgbench_history  |        658251776
 2017-02-05 18:54:23.593916+01 | 1486317263.59392 | pgbench_branches |            40960

 2017-02-05 18:54:24.665079+01 | 1486317264.66508 | pgbench_accounts |      13663313920
 2017-02-05 18:54:24.665079+01 | 1486317264.66508 | pgbench_tellers  |           450560
 2017-02-05 18:54:24.665079+01 | 1486317264.66508 | pgbench_history  |        661929984
 2017-02-05 18:54:24.665079+01 | 1486317264.66508 | pgbench_branches |            40960

 2017-02-05 18:54:25.746686+01 | 1486317265.74669 | pgbench_accounts |      13663789056
 2017-02-05 18:54:25.746686+01 | 1486317265.74669 | pgbench_tellers  |           450560
 2017-02-05 18:54:25.746686+01 | 1486317265.74669 | pgbench_history  |        664600576
 2017-02-05 18:54:25.746686+01 | 1486317265.74669 | pgbench_branches |            40960

 2017-02-05 18:54:26.831065+01 | 1486317266.83106 | pgbench_accounts |      13664305152
 2017-02-05 18:54:26.831065+01 | 1486317266.83106 | pgbench_tellers  |           450560
 2017-02-05 18:54:26.831065+01 | 1486317266.83106 | pgbench_history  |        666615808
 2017-02-05 18:54:26.831065+01 | 1486317266.83106 | pgbench_branches |            40960

 2017-02-05 18:54:27.923328+01 | 1486317267.92333 | pgbench_accounts |      13664305152
 2017-02-05 18:54:27.923328+01 | 1486317267.92333 | pgbench_tellers  |           450560
 2017-02-05 18:54:27.923328+01 | 1486317267.92333 | pgbench_history  |        670457856
 2017-02-05 18:54:27.923328+01 | 1486317267.92333 | pgbench_branches |            40960

 2017-02-05 18:54:29.005156+01 | 1486317269.00516 | pgbench_accounts |      13664567296
 2017-02-05 18:54:29.005156+01 | 1486317269.00516 | pgbench_tellers  |           450560
 2017-02-05 18:54:29.005156+01 | 1486317269.00516 | pgbench_history  |        673480704
 2017-02-05 18:54:29.005156+01 | 1486317269.00516 | pgbench_branches |            40960

 2017-02-05 18:54:30.09079+01 | 1486317270.09079 | pgbench_accounts |      13664567296
 2017-02-05 18:54:30.09079+01 | 1486317270.09079 | pgbench_tellers  |           450560
 2017-02-05 18:54:30.09079+01 | 1486317270.09079 | pgbench_history  |        676364288
 2017-02-05 18:54:30.09079+01 | 1486317270.09079 | pgbench_branches |            40960

 2017-02-05 18:54:31.174095+01 | 1486317271.17409 | pgbench_accounts |      13664804864
 2017-02-05 18:54:31.174095+01 | 1486317271.17409 | pgbench_tellers  |           450560
 2017-02-05 18:54:31.174095+01 | 1486317271.17409 | pgbench_history  |        679927808
 2017-02-05 18:54:31.174095+01 | 1486317271.17409 | pgbench_branches |            40960

 2017-02-05 18:54:32.251152+01 | 1486317272.25115 | pgbench_accounts |      13665132544
 2017-02-05 18:54:32.251152+01 | 1486317272.25115 | pgbench_tellers  |           450560
 2017-02-05 18:54:32.251152+01 | 1486317272.25115 | pgbench_history  |        682950656
 2017-02-05 18:54:32.251152+01 | 1486317272.25115 | pgbench_branches |            40960

 2017-02-05 18:54:33.331105+01 | 1486317273.3311 | pgbench_accounts |      13665132544
 2017-02-05 18:54:33.331105+01 | 1486317273.3311 | pgbench_tellers  |           450560
 2017-02-05 18:54:33.331105+01 | 1486317273.3311 | pgbench_history  |        685973504
 2017-02-05 18:54:33.331105+01 | 1486317273.3311 | pgbench_branches |            40960

 2017-02-05 18:54:34.409978+01 | 1486317274.40998 | pgbench_accounts |      13665132544
 2017-02-05 18:54:34.409978+01 | 1486317274.40998 | pgbench_tellers  |           450560
 2017-02-05 18:54:34.409978+01 | 1486317274.40998 | pgbench_history  |        688177152
 2017-02-05 18:54:34.409978+01 | 1486317274.40998 | pgbench_branches |            40960

 2017-02-05 18:54:35.480773+01 | 1486317275.48077 | pgbench_accounts |      13665132544
 2017-02-05 18:54:35.480773+01 | 1486317275.48077 | pgbench_tellers  |           450560
 2017-02-05 18:54:35.480773+01 | 1486317275.48077 | pgbench_history  |        690872320
 2017-02-05 18:54:35.480773+01 | 1486317275.48077 | pgbench_branches |            40960

 2017-02-05 18:54:36.563076+01 | 1486317276.56308 | pgbench_accounts |      13665148928
 2017-02-05 18:54:36.563076+01 | 1486317276.56308 | pgbench_tellers  |           450560
 2017-02-05 18:54:36.563076+01 | 1486317276.56308 | pgbench_history  |        693567488
 2017-02-05 18:54:36.563076+01 | 1486317276.56308 | pgbench_branches |            40960

 2017-02-05 18:54:37.646716+01 | 1486317277.64672 | pgbench_accounts |      13665173504
 2017-02-05 18:54:37.646716+01 | 1486317277.64672 | pgbench_tellers  |           450560
 2017-02-05 18:54:37.646716+01 | 1486317277.64672 | pgbench_history  |        699211776
 2017-02-05 18:54:37.646716+01 | 1486317277.64672 | pgbench_branches |            40960

 2017-02-05 18:54:38.732832+01 | 1486317278.73283 | pgbench_accounts |      13665247232
 2017-02-05 18:54:38.732832+01 | 1486317278.73283 | pgbench_tellers  |           450560
 2017-02-05 18:54:38.732832+01 | 1486317278.73283 | pgbench_history  |        700874752
 2017-02-05 18:54:38.732832+01 | 1486317278.73283 | pgbench_branches |            40960

 2017-02-05 18:54:39.821507+01 | 1486317279.82151 | pgbench_accounts |      13665460224
 2017-02-05 18:54:39.821507+01 | 1486317279.82151 | pgbench_tellers  |           450560
 2017-02-05 18:54:39.821507+01 | 1486317279.82151 | pgbench_history  |        704061440
 2017-02-05 18:54:39.821507+01 | 1486317279.82151 | pgbench_branches |            40960

 2017-02-05 18:54:40.908144+01 | 1486317280.90814 | pgbench_accounts |      13665665024
 2017-02-05 18:54:40.908144+01 | 1486317280.90814 | pgbench_tellers  |           450560
 2017-02-05 18:54:40.908144+01 | 1486317280.90814 | pgbench_history  |        708698112
 2017-02-05 18:54:40.908144+01 | 1486317280.90814 | pgbench_branches |            40960

 2017-02-05 18:54:41.98979+01 | 1486317281.98979 | pgbench_accounts |      13665763328
 2017-02-05 18:54:41.98979+01 | 1486317281.98979 | pgbench_tellers  |           450560
 2017-02-05 18:54:41.98979+01 | 1486317281.98979 | pgbench_history  |        711532544
 2017-02-05 18:54:41.98979+01 | 1486317281.98979 | pgbench_branches |            40960

 2017-02-05 18:54:43.074488+01 | 1486317283.07449 | pgbench_accounts |      13665779712
 2017-02-05 18:54:43.074488+01 | 1486317283.07449 | pgbench_tellers  |           450560
 2017-02-05 18:54:43.074488+01 | 1486317283.07449 | pgbench_history  |        714366976
 2017-02-05 18:54:43.074488+01 | 1486317283.07449 | pgbench_branches |            40960

 2017-02-05 18:54:44.165174+01 | 1486317284.16517 | pgbench_accounts |      13665787904
 2017-02-05 18:54:44.165174+01 | 1486317284.16517 | pgbench_tellers  |           450560
 2017-02-05 18:54:44.165174+01 | 1486317284.16517 | pgbench_history  |        717742080
 2017-02-05 18:54:44.165174+01 | 1486317284.16517 | pgbench_branches |            40960

 2017-02-05 18:54:45.248151+01 | 1486317285.24815 | pgbench_accounts |      13665828864
 2017-02-05 18:54:45.248151+01 | 1486317285.24815 | pgbench_tellers  |           450560
 2017-02-05 18:54:45.248151+01 | 1486317285.24815 | pgbench_history  |        720601088
 2017-02-05 18:54:45.248151+01 | 1486317285.24815 | pgbench_branches |            40960

 2017-02-05 18:54:46.326587+01 | 1486317286.32659 | pgbench_accounts |      13665935360
 2017-02-05 18:54:46.326587+01 | 1486317286.32659 | pgbench_tellers  |           450560
 2017-02-05 18:54:46.326587+01 | 1486317286.32659 | pgbench_history  |        724443136
 2017-02-05 18:54:46.326587+01 | 1486317286.32659 | pgbench_branches |            40960

 2017-02-05 18:54:47.400327+01 | 1486317287.40033 | pgbench_accounts |      13665992704
 2017-02-05 18:54:47.400327+01 | 1486317287.40033 | pgbench_tellers  |           450560
 2017-02-05 18:54:47.400327+01 | 1486317287.40033 | pgbench_history  |        727515136
 2017-02-05 18:54:47.400327+01 | 1486317287.40033 | pgbench_branches |            40960

 2017-02-05 18:54:48.481551+01 | 1486317288.48155 | pgbench_accounts |      13666189312
 2017-02-05 18:54:48.481551+01 | 1486317288.48155 | pgbench_tellers  |           450560
 2017-02-05 18:54:48.481551+01 | 1486317288.48155 | pgbench_history  |        730841088
 2017-02-05 18:54:48.481551+01 | 1486317288.48155 | pgbench_branches |            40960

 2017-02-05 18:54:49.553593+01 | 1486317289.55359 | pgbench_accounts |      13666287616
 2017-02-05 18:54:49.553593+01 | 1486317289.55359 | pgbench_tellers  |           450560
 2017-02-05 18:54:49.553593+01 | 1486317289.55359 | pgbench_history  |        733863936
 2017-02-05 18:54:49.553593+01 | 1486317289.55359 | pgbench_branches |            40960

 2017-02-05 18:54:50.634587+01 | 1486317290.63459 | pgbench_accounts |      13666361344
 2017-02-05 18:54:50.634587+01 | 1486317290.63459 | pgbench_tellers  |           450560
 2017-02-05 18:54:50.634587+01 | 1486317290.63459 | pgbench_history  |        737566720
 2017-02-05 18:54:50.634587+01 | 1486317290.63459 | pgbench_branches |            40960

 2017-02-05 18:54:51.712102+01 | 1486317291.7121 | pgbench_accounts |      13666394112
 2017-02-05 18:54:51.712102+01 | 1486317291.7121 | pgbench_tellers  |           450560
 2017-02-05 18:54:51.712102+01 | 1486317291.7121 | pgbench_history  |        740401152
 2017-02-05 18:54:51.712102+01 | 1486317291.7121 | pgbench_branches |            40960

 2017-02-05 18:54:52.797357+01 | 1486317292.79736 | pgbench_accounts |      13666451456
 2017-02-05 18:54:52.797357+01 | 1486317292.79736 | pgbench_tellers  |           450560
 2017-02-05 18:54:52.797357+01 | 1486317292.79736 | pgbench_history  |        744570880
 2017-02-05 18:54:52.797357+01 | 1486317292.79736 | pgbench_branches |            40960

 2017-02-05 18:54:53.884114+01 | 1486317293.88411 | pgbench_accounts |      13666500608
 2017-02-05 18:54:53.884114+01 | 1486317293.88411 | pgbench_tellers  |           450560
 2017-02-05 18:54:53.884114+01 | 1486317293.88411 | pgbench_history  |        746913792
 2017-02-05 18:54:53.884114+01 | 1486317293.88411 | pgbench_branches |            40960

 2017-02-05 18:54:54.954487+01 | 1486317294.95449 | pgbench_accounts |      13666582528
 2017-02-05 18:54:54.954487+01 | 1486317294.95449 | pgbench_tellers  |           450560
 2017-02-05 18:54:54.954487+01 | 1486317294.95449 | pgbench_history  |        750452736
 2017-02-05 18:54:54.954487+01 | 1486317294.95449 | pgbench_branches |            40960

 2017-02-05 18:54:56.028506+01 | 1486317296.02851 | pgbench_accounts |      13666664448
 2017-02-05 18:54:56.028506+01 | 1486317296.02851 | pgbench_tellers  |           450560
 2017-02-05 18:54:56.028506+01 | 1486317296.02851 | pgbench_history  |        753319936
 2017-02-05 18:54:56.028506+01 | 1486317296.02851 | pgbench_branches |            40960

 2017-02-05 18:54:57.12905+01 | 1486317297.12905 | pgbench_accounts |      13666787328
 2017-02-05 18:54:57.12905+01 | 1486317297.12905 | pgbench_tellers  |           450560
 2017-02-05 18:54:57.12905+01 | 1486317297.12905 | pgbench_history  |        757678080
 2017-02-05 18:54:57.12905+01 | 1486317297.12905 | pgbench_branches |            40960

 2017-02-05 18:54:58.215734+01 | 1486317298.21573 | pgbench_accounts |      13666893824
 2017-02-05 18:54:58.215734+01 | 1486317298.21573 | pgbench_tellers  |           450560
 2017-02-05 18:54:58.215734+01 | 1486317298.21573 | pgbench_history  |        760889344
 2017-02-05 18:54:58.215734+01 | 1486317298.21573 | pgbench_branches |            40960

 2017-02-05 18:54:59.300205+01 | 1486317299.3002 | pgbench_accounts |      13666975744
 2017-02-05 18:54:59.300205+01 | 1486317299.3002 | pgbench_tellers  |           450560
 2017-02-05 18:54:59.300205+01 | 1486317299.3002 | pgbench_history  |        764567552
 2017-02-05 18:54:59.300205+01 | 1486317299.3002 | pgbench_branches |            40960

 2017-02-05 18:55:00.381294+01 | 1486317300.38129 | pgbench_accounts |      13667024896
 2017-02-05 18:55:00.381294+01 | 1486317300.38129 | pgbench_tellers  |           450560
 2017-02-05 18:55:00.381294+01 | 1486317300.38129 | pgbench_history  |        768245760
 2017-02-05 18:55:00.381294+01 | 1486317300.38129 | pgbench_branches |            40960

 2017-02-05 18:55:01.456475+01 | 1486317301.45648 | pgbench_accounts |      13667098624
 2017-02-05 18:55:01.456475+01 | 1486317301.45648 | pgbench_tellers  |           450560
 2017-02-05 18:55:01.456475+01 | 1486317301.45648 | pgbench_history  |        772464640
 2017-02-05 18:55:01.456475+01 | 1486317301.45648 | pgbench_branches |            40960

 2017-02-05 18:55:02.536936+01 | 1486317302.53694 | pgbench_accounts |      13667139584
 2017-02-05 18:55:02.536936+01 | 1486317302.53694 | pgbench_tellers  |           450560
 2017-02-05 18:55:02.536936+01 | 1486317302.53694 | pgbench_history  |        774291456
 2017-02-05 18:55:02.536936+01 | 1486317302.53694 | pgbench_branches |            40960

 2017-02-05 18:55:03.614025+01 | 1486317303.61403 | pgbench_accounts |      13667205120
 2017-02-05 18:55:03.614025+01 | 1486317303.61403 | pgbench_tellers  |           450560
 2017-02-05 18:55:03.614025+01 | 1486317303.61403 | pgbench_history  |        777428992
 2017-02-05 18:55:03.614025+01 | 1486317303.61403 | pgbench_branches |            40960

 2017-02-05 18:55:04.697588+01 | 1486317304.69759 | pgbench_accounts |      13667311616
 2017-02-05 18:55:04.697588+01 | 1486317304.69759 | pgbench_tellers  |           450560
 2017-02-05 18:55:04.697588+01 | 1486317304.69759 | pgbench_history  |        780476416
 2017-02-05 18:55:04.697588+01 | 1486317304.69759 | pgbench_branches |            40960

 2017-02-05 18:55:05.792195+01 | 1486317305.7922 | pgbench_accounts |      13667442688
 2017-02-05 18:55:05.792195+01 | 1486317305.7922 | pgbench_tellers  |           450560
 2017-02-05 18:55:05.792195+01 | 1486317305.7922 | pgbench_history  |        783007744
 2017-02-05 18:55:05.792195+01 | 1486317305.7922 | pgbench_branches |            40960

 2017-02-05 18:55:06.878466+01 | 1486317306.87847 | pgbench_accounts |      13667500032
 2017-02-05 18:55:06.878466+01 | 1486317306.87847 | pgbench_tellers  |           450560
 2017-02-05 18:55:06.878466+01 | 1486317306.87847 | pgbench_history  |        786989056
 2017-02-05 18:55:06.878466+01 | 1486317306.87847 | pgbench_branches |            40960

 2017-02-05 18:55:07.961138+01 | 1486317307.96114 | pgbench_accounts |      13667573760
 2017-02-05 18:55:07.961138+01 | 1486317307.96114 | pgbench_tellers  |           450560
 2017-02-05 18:55:07.961138+01 | 1486317307.96114 | pgbench_history  |        789872640
 2017-02-05 18:55:07.961138+01 | 1486317307.96114 | pgbench_branches |            40960

 2017-02-05 18:55:09.057559+01 | 1486317309.05756 | pgbench_accounts |      13667655680
 2017-02-05 18:55:09.057559+01 | 1486317309.05756 | pgbench_tellers  |           450560
 2017-02-05 18:55:09.057559+01 | 1486317309.05756 | pgbench_history  |        793436160
 2017-02-05 18:55:09.057559+01 | 1486317309.05756 | pgbench_branches |            40960

 2017-02-05 18:55:10.141783+01 | 1486317310.14178 | pgbench_accounts |      13667729408
 2017-02-05 18:55:10.141783+01 | 1486317310.14178 | pgbench_tellers  |           450560
 2017-02-05 18:55:10.141783+01 | 1486317310.14178 | pgbench_history  |        796934144
 2017-02-05 18:55:10.141783+01 | 1486317310.14178 | pgbench_branches |            40960

 2017-02-05 18:55:11.235644+01 | 1486317311.23564 | pgbench_accounts |      13667762176
 2017-02-05 18:55:11.235644+01 | 1486317311.23564 | pgbench_tellers  |           450560
 2017-02-05 18:55:11.235644+01 | 1486317311.23564 | pgbench_history  |        799277056
 2017-02-05 18:55:11.235644+01 | 1486317311.23564 | pgbench_branches |            40960

 2017-02-05 18:55:12.321664+01 | 1486317312.32166 | pgbench_accounts |      13667835904
 2017-02-05 18:55:12.321664+01 | 1486317312.32166 | pgbench_tellers  |           450560
 2017-02-05 18:55:12.321664+01 | 1486317312.32166 | pgbench_history  |        804945920
 2017-02-05 18:55:12.321664+01 | 1486317312.32166 | pgbench_branches |            40960

 2017-02-05 18:55:13.397913+01 | 1486317313.39791 | pgbench_accounts |      13667917824
 2017-02-05 18:55:13.397913+01 | 1486317313.39791 | pgbench_tellers  |           450560
 2017-02-05 18:55:13.397913+01 | 1486317313.39791 | pgbench_history  |        804945920
 2017-02-05 18:55:13.397913+01 | 1486317313.39791 | pgbench_branches |            40960

 2017-02-05 18:55:14.4771+01 | 1486317314.4771 | pgbench_accounts |      13667983360
 2017-02-05 18:55:14.4771+01 | 1486317314.4771 | pgbench_tellers  |           450560
 2017-02-05 18:55:14.4771+01 | 1486317314.4771 | pgbench_history  |        808312832
 2017-02-05 18:55:14.4771+01 | 1486317314.4771 | pgbench_branches |            40960

 2017-02-05 18:55:15.562873+01 | 1486317315.56287 | pgbench_accounts |      13668048896
 2017-02-05 18:55:15.562873+01 | 1486317315.56287 | pgbench_tellers  |           450560
 2017-02-05 18:55:15.562873+01 | 1486317315.56287 | pgbench_history  |        810024960
 2017-02-05 18:55:15.562873+01 | 1486317315.56287 | pgbench_branches |            40960

 2017-02-05 18:55:16.641077+01 | 1486317316.64108 | pgbench_accounts |      13668122624
 2017-02-05 18:55:16.641077+01 | 1486317316.64108 | pgbench_tellers  |           450560
 2017-02-05 18:55:16.641077+01 | 1486317316.64108 | pgbench_history  |        812736512
 2017-02-05 18:55:16.641077+01 | 1486317316.64108 | pgbench_branches |            40960

 2017-02-05 18:55:17.720407+01 | 1486317317.72041 | pgbench_accounts |      13668171776
 2017-02-05 18:55:17.720407+01 | 1486317317.72041 | pgbench_tellers  |           450560
 2017-02-05 18:55:17.720407+01 | 1486317317.72041 | pgbench_history  |        815898624
 2017-02-05 18:55:17.720407+01 | 1486317317.72041 | pgbench_branches |            40960

 2017-02-05 18:55:18.80099+01 | 1486317318.80099 | pgbench_accounts |      13668237312
 2017-02-05 18:55:18.80099+01 | 1486317318.80099 | pgbench_tellers  |           450560
 2017-02-05 18:55:18.80099+01 | 1486317318.80099 | pgbench_history  |        819085312
 2017-02-05 18:55:18.80099+01 | 1486317318.80099 | pgbench_branches |            40960

 2017-02-05 18:55:19.881438+01 | 1486317319.88144 | pgbench_accounts |      13668261888
 2017-02-05 18:55:19.881438+01 | 1486317319.88144 | pgbench_tellers  |           450560
 2017-02-05 18:55:19.881438+01 | 1486317319.88144 | pgbench_history  |        822763520
 2017-02-05 18:55:19.881438+01 | 1486317319.88144 | pgbench_branches |            40960

 2017-02-05 18:55:20.966736+01 | 1486317320.96674 | pgbench_accounts |      13668327424
 2017-02-05 18:55:20.966736+01 | 1486317320.96674 | pgbench_tellers  |           450560
 2017-02-05 18:55:20.966736+01 | 1486317320.96674 | pgbench_history  |        826720256
 2017-02-05 18:55:20.966736+01 | 1486317320.96674 | pgbench_branches |            40960

 2017-02-05 18:55:22.061765+01 | 1486317322.06176 | pgbench_accounts |      13668442112
 2017-02-05 18:55:22.061765+01 | 1486317322.06176 | pgbench_tellers  |           450560
 2017-02-05 18:55:22.061765+01 | 1486317322.06176 | pgbench_history  |        828874752
 2017-02-05 18:55:22.061765+01 | 1486317322.06176 | pgbench_branches |            40960

 2017-02-05 18:55:23.148562+01 | 1486317323.14856 | pgbench_accounts |      13668548608
 2017-02-05 18:55:23.148562+01 | 1486317323.14856 | pgbench_tellers  |           450560
 2017-02-05 18:55:23.148562+01 | 1486317323.14856 | pgbench_history  |        831733760
 2017-02-05 18:55:23.148562+01 | 1486317323.14856 | pgbench_branches |            40960

 2017-02-05 18:55:24.241669+01 | 1486317324.24167 | pgbench_accounts |      13668638720
 2017-02-05 18:55:24.241669+01 | 1486317324.24167 | pgbench_tellers  |           450560
 2017-02-05 18:55:24.241669+01 | 1486317324.24167 | pgbench_history  |        834076672
 2017-02-05 18:55:24.241669+01 | 1486317324.24167 | pgbench_branches |            40960

 2017-02-05 18:55:25.323814+01 | 1486317325.32381 | pgbench_accounts |      13668843520
 2017-02-05 18:55:25.323814+01 | 1486317325.32381 | pgbench_tellers  |           450560
 2017-02-05 18:55:25.323814+01 | 1486317325.32381 | pgbench_history  |        839122944
 2017-02-05 18:55:25.323814+01 | 1486317325.32381 | pgbench_branches |            40960

 2017-02-05 18:55:26.404649+01 | 1486317326.40465 | pgbench_accounts |      13669490688
 2017-02-05 18:55:26.404649+01 | 1486317326.40465 | pgbench_tellers  |           450560
 2017-02-05 18:55:26.404649+01 | 1486317326.40465 | pgbench_history  |        841138176
 2017-02-05 18:55:26.404649+01 | 1486317326.40465 | pgbench_branches |            40960

 2017-02-05 18:55:27.481633+01 | 1486317327.48163 | pgbench_accounts |      13670621184
 2017-02-05 18:55:27.481633+01 | 1486317327.48163 | pgbench_tellers  |           450560
 2017-02-05 18:55:27.481633+01 | 1486317327.48163 | pgbench_history  |        843153408
 2017-02-05 18:55:27.481633+01 | 1486317327.48163 | pgbench_branches |            40960

 2017-02-05 18:55:28.564092+01 | 1486317328.56409 | pgbench_accounts |      13670621184
 2017-02-05 18:55:28.564092+01 | 1486317328.56409 | pgbench_tellers  |           450560
 2017-02-05 18:55:28.564092+01 | 1486317328.56409 | pgbench_history  |        847863808
 2017-02-05 18:55:28.564092+01 | 1486317328.56409 | pgbench_branches |            40960

 2017-02-05 18:55:29.649346+01 | 1486317329.64935 | pgbench_accounts |      13670621184
 2017-02-05 18:55:29.649346+01 | 1486317329.64935 | pgbench_tellers  |           450560
 2017-02-05 18:55:29.649346+01 | 1486317329.64935 | pgbench_history  |        850673664
 2017-02-05 18:55:29.649346+01 | 1486317329.64935 | pgbench_branches |            40960

 2017-02-05 18:55:30.731535+01 | 1486317330.73153 | pgbench_accounts |      13670621184
 2017-02-05 18:55:30.731535+01 | 1486317330.73153 | pgbench_tellers  |           450560
 2017-02-05 18:55:30.731535+01 | 1486317330.73153 | pgbench_history  |        853024768
 2017-02-05 18:55:30.731535+01 | 1486317330.73153 | pgbench_branches |            40960

 2017-02-05 18:55:31.807173+01 | 1486317331.80717 | pgbench_accounts |      13670621184
 2017-02-05 18:55:31.807173+01 | 1486317331.80717 | pgbench_tellers  |           450560
 2017-02-05 18:55:31.807173+01 | 1486317331.80717 | pgbench_history  |        856375296
 2017-02-05 18:55:31.807173+01 | 1486317331.80717 | pgbench_branches |            40960

 2017-02-05 18:55:32.892452+01 | 1486317332.89245 | pgbench_accounts |      13670621184
 2017-02-05 18:55:32.892452+01 | 1486317332.89245 | pgbench_tellers  |           450560
 2017-02-05 18:55:32.892452+01 | 1486317332.89245 | pgbench_history  |        861044736
 2017-02-05 18:55:32.892452+01 | 1486317332.89245 | pgbench_branches |            40960

 2017-02-05 18:55:33.978214+01 | 1486317333.97821 | pgbench_accounts |      13671014400
 2017-02-05 18:55:33.978214+01 | 1486317333.97821 | pgbench_tellers  |           450560
 2017-02-05 18:55:33.978214+01 | 1486317333.97821 | pgbench_history  |        863223808
 2017-02-05 18:55:33.978214+01 | 1486317333.97821 | pgbench_branches |            40960

 2017-02-05 18:55:35.068631+01 | 1486317335.06863 | pgbench_accounts |      13671014400
 2017-02-05 18:55:35.068631+01 | 1486317335.06863 | pgbench_tellers  |           450560
 2017-02-05 18:55:35.068631+01 | 1486317335.06863 | pgbench_history  |        866082816
 2017-02-05 18:55:35.068631+01 | 1486317335.06863 | pgbench_branches |            40960

 2017-02-05 18:55:36.169898+01 | 1486317336.1699 | pgbench_accounts |      13671014400
 2017-02-05 18:55:36.169898+01 | 1486317336.1699 | pgbench_tellers  |           450560
 2017-02-05 18:55:36.169898+01 | 1486317336.1699 | pgbench_history  |        870301696
 2017-02-05 18:55:36.169898+01 | 1486317336.1699 | pgbench_branches |            40960

 2017-02-05 18:55:37.257389+01 | 1486317337.25739 | pgbench_accounts |      13671047168
 2017-02-05 18:55:37.257389+01 | 1486317337.25739 | pgbench_tellers  |           450560
 2017-02-05 18:55:37.257389+01 | 1486317337.25739 | pgbench_history  |        872529920
 2017-02-05 18:55:37.257389+01 | 1486317337.25739 | pgbench_branches |            40960

 2017-02-05 18:55:38.341429+01 | 1486317338.34143 | pgbench_accounts |      13671448576
 2017-02-05 18:55:38.341429+01 | 1486317338.34143 | pgbench_tellers  |           450560
 2017-02-05 18:55:38.341429+01 | 1486317338.34143 | pgbench_history  |        878977024
 2017-02-05 18:55:38.341429+01 | 1486317338.34143 | pgbench_branches |            40960

 2017-02-05 18:55:39.421351+01 | 1486317339.42135 | pgbench_accounts |      13671448576
 2017-02-05 18:55:39.421351+01 | 1486317339.42135 | pgbench_tellers  |           450560
 2017-02-05 18:55:39.421351+01 | 1486317339.42135 | pgbench_history  |        878977024
 2017-02-05 18:55:39.421351+01 | 1486317339.42135 | pgbench_branches |            40960

 2017-02-05 18:55:40.494954+01 | 1486317340.49495 | pgbench_accounts |      13671448576
 2017-02-05 18:55:40.494954+01 | 1486317340.49495 | pgbench_tellers  |           450560
 2017-02-05 18:55:40.494954+01 | 1486317340.49495 | pgbench_history  |        883523584
 2017-02-05 18:55:40.494954+01 | 1486317340.49495 | pgbench_branches |            40960

 2017-02-05 18:55:41.580744+01 | 1486317341.58074 | pgbench_accounts |      13671456768
 2017-02-05 18:55:41.580744+01 | 1486317341.58074 | pgbench_tellers  |           450560
 2017-02-05 18:55:41.580744+01 | 1486317341.58074 | pgbench_history  |        885514240
 2017-02-05 18:55:41.580744+01 | 1486317341.58074 | pgbench_branches |            40960

 2017-02-05 18:55:42.662734+01 | 1486317342.66273 | pgbench_accounts |      13671481344
 2017-02-05 18:55:42.662734+01 | 1486317342.66273 | pgbench_tellers  |           450560
 2017-02-05 18:55:42.662734+01 | 1486317342.66273 | pgbench_history  |        888348672
 2017-02-05 18:55:42.662734+01 | 1486317342.66273 | pgbench_branches |            40960

 2017-02-05 18:55:43.745026+01 | 1486317343.74503 | pgbench_accounts |      13671555072
 2017-02-05 18:55:43.745026+01 | 1486317343.74503 | pgbench_tellers  |           450560
 2017-02-05 18:55:43.745026+01 | 1486317343.74503 | pgbench_history  |        891052032
 2017-02-05 18:55:43.745026+01 | 1486317343.74503 | pgbench_branches |            40960

 2017-02-05 18:55:44.826048+01 | 1486317344.82605 | pgbench_accounts |      13671620608
 2017-02-05 18:55:44.826048+01 | 1486317344.82605 | pgbench_tellers  |           450560
 2017-02-05 18:55:44.826048+01 | 1486317344.82605 | pgbench_history  |        895057920
 2017-02-05 18:55:44.826048+01 | 1486317344.82605 | pgbench_branches |            40960

 2017-02-05 18:55:45.90758+01 | 1486317345.90758 | pgbench_accounts |      13671718912
 2017-02-05 18:55:45.90758+01 | 1486317345.90758 | pgbench_tellers  |           450560
 2017-02-05 18:55:45.90758+01 | 1486317345.90758 | pgbench_history  |        899858432
 2017-02-05 18:55:45.90758+01 | 1486317345.90758 | pgbench_branches |            40960

 2017-02-05 18:55:46.989393+01 | 1486317346.98939 | pgbench_accounts |      13671841792
 2017-02-05 18:55:46.989393+01 | 1486317346.98939 | pgbench_tellers  |           450560
 2017-02-05 18:55:46.989393+01 | 1486317346.98939 | pgbench_history  |        902037504
 2017-02-05 18:55:46.989393+01 | 1486317346.98939 | pgbench_branches |            40960

 2017-02-05 18:55:48.080528+01 | 1486317348.08053 | pgbench_accounts |      13671981056
 2017-02-05 18:55:48.080528+01 | 1486317348.08053 | pgbench_tellers  |           450560
 2017-02-05 18:55:48.080528+01 | 1486317348.08053 | pgbench_history  |        904077312
 2017-02-05 18:55:48.080528+01 | 1486317348.08053 | pgbench_branches |            40960

 2017-02-05 18:55:49.172459+01 | 1486317349.17246 | pgbench_accounts |      13672062976
 2017-02-05 18:55:49.172459+01 | 1486317349.17246 | pgbench_tellers  |           450560
 2017-02-05 18:55:49.172459+01 | 1486317349.17246 | pgbench_history  |        908738560
 2017-02-05 18:55:49.172459+01 | 1486317349.17246 | pgbench_branches |            40960

 2017-02-05 18:55:50.256243+01 | 1486317350.25624 | pgbench_accounts |      13672103936
 2017-02-05 18:55:50.256243+01 | 1486317350.25624 | pgbench_tellers  |           450560
 2017-02-05 18:55:50.256243+01 | 1486317350.25624 | pgbench_history  |        910917632
 2017-02-05 18:55:50.256243+01 | 1486317350.25624 | pgbench_branches |            40960

 2017-02-05 18:55:51.337937+01 | 1486317351.33794 | pgbench_accounts |      13672144896
 2017-02-05 18:55:51.337937+01 | 1486317351.33794 | pgbench_tellers  |           450560
 2017-02-05 18:55:51.337937+01 | 1486317351.33794 | pgbench_history  |        914972672
 2017-02-05 18:55:51.337937+01 | 1486317351.33794 | pgbench_branches |            40960

 2017-02-05 18:55:52.431516+01 | 1486317352.43152 | pgbench_accounts |      13672169472
 2017-02-05 18:55:52.431516+01 | 1486317352.43152 | pgbench_tellers  |           450560
 2017-02-05 18:55:52.431516+01 | 1486317352.43152 | pgbench_history  |        917504000
 2017-02-05 18:55:52.431516+01 | 1486317352.43152 | pgbench_branches |            40960

 2017-02-05 18:55:53.519069+01 | 1486317353.51907 | pgbench_accounts |      13672210432
 2017-02-05 18:55:53.519069+01 | 1486317353.51907 | pgbench_tellers  |           450560
 2017-02-05 18:55:53.519069+01 | 1486317353.51907 | pgbench_history  |        920666112
 2017-02-05 18:55:53.519069+01 | 1486317353.51907 | pgbench_branches |            40960

 2017-02-05 18:55:54.602143+01 | 1486317354.60214 | pgbench_accounts |      13672300544
 2017-02-05 18:55:54.602143+01 | 1486317354.60214 | pgbench_tellers  |           450560
 2017-02-05 18:55:54.602143+01 | 1486317354.60214 | pgbench_history  |        924786688
 2017-02-05 18:55:54.602143+01 | 1486317354.60214 | pgbench_branches |            40960

 2017-02-05 18:55:55.691444+01 | 1486317355.69144 | pgbench_accounts |      13672366080
 2017-02-05 18:55:55.691444+01 | 1486317355.69144 | pgbench_tellers  |           450560
 2017-02-05 18:55:55.691444+01 | 1486317355.69144 | pgbench_history  |        927318016
 2017-02-05 18:55:55.691444+01 | 1486317355.69144 | pgbench_branches |            40960

 2017-02-05 18:55:56.774467+01 | 1486317356.77447 | pgbench_accounts |      13672513536
 2017-02-05 18:55:56.774467+01 | 1486317356.77447 | pgbench_tellers  |           450560
 2017-02-05 18:55:56.774467+01 | 1486317356.77447 | pgbench_history  |        933068800
 2017-02-05 18:55:56.774467+01 | 1486317356.77447 | pgbench_branches |            40960

 2017-02-05 18:55:57.855275+01 | 1486317357.85527 | pgbench_accounts |      13672579072
 2017-02-05 18:55:57.855275+01 | 1486317357.85527 | pgbench_tellers  |           450560
 2017-02-05 18:55:57.855275+01 | 1486317357.85527 | pgbench_history  |        934076416
 2017-02-05 18:55:57.855275+01 | 1486317357.85527 | pgbench_branches |            40960

 2017-02-05 18:55:58.936243+01 | 1486317358.93624 | pgbench_accounts |      13672628224
 2017-02-05 18:55:58.936243+01 | 1486317358.93624 | pgbench_tellers  |           450560
 2017-02-05 18:55:58.936243+01 | 1486317358.93624 | pgbench_history  |        937754624
 2017-02-05 18:55:58.936243+01 | 1486317358.93624 | pgbench_branches |            40960

 2017-02-05 18:56:00.027201+01 | 1486317360.0272 | pgbench_accounts |      13672718336
 2017-02-05 18:56:00.027201+01 | 1486317360.0272 | pgbench_tellers  |           450560
 2017-02-05 18:56:00.027201+01 | 1486317360.0272 | pgbench_history  |        941432832
 2017-02-05 18:56:00.027201+01 | 1486317360.0272 | pgbench_branches |            40960

 2017-02-05 18:56:01.120686+01 | 1486317361.12069 | pgbench_accounts |      13672775680
 2017-02-05 18:56:01.120686+01 | 1486317361.12069 | pgbench_tellers  |           450560
 2017-02-05 18:56:01.120686+01 | 1486317361.12069 | pgbench_history  |        944594944
 2017-02-05 18:56:01.120686+01 | 1486317361.12069 | pgbench_branches |            40960

 2017-02-05 18:56:02.204554+01 | 1486317362.20455 | pgbench_accounts |      13672816640
 2017-02-05 18:56:02.204554+01 | 1486317362.20455 | pgbench_tellers  |           450560
 2017-02-05 18:56:02.204554+01 | 1486317362.20455 | pgbench_history  |        947593216
 2017-02-05 18:56:02.204554+01 | 1486317362.20455 | pgbench_branches |            40960

 2017-02-05 18:56:03.287203+01 | 1486317363.2872 | pgbench_accounts |      13672882176
 2017-02-05 18:56:03.287203+01 | 1486317363.2872 | pgbench_tellers  |           450560
 2017-02-05 18:56:03.287203+01 | 1486317363.2872 | pgbench_history  |        950640640
 2017-02-05 18:56:03.287203+01 | 1486317363.2872 | pgbench_branches |            40960

