 2017-02-06 04:52:17.936225+01 | 1486353137.93622 | pgbench_accounts |       1342955520
 2017-02-06 04:52:17.936225+01 | 1486353137.93622 | pgbench_tellers  |            49152
 2017-02-06 04:52:17.936225+01 | 1486353137.93622 | pgbench_history  |                0
 2017-02-06 04:52:17.936225+01 | 1486353137.93622 | pgbench_branches |             8192

 2017-02-06 04:52:19.026557+01 | 1486353139.02656 | pgbench_accounts |       1342955520
 2017-02-06 04:52:19.026557+01 | 1486353139.02656 | pgbench_tellers  |            49152
 2017-02-06 04:52:19.026557+01 | 1486353139.02656 | pgbench_history  |                0
 2017-02-06 04:52:19.026557+01 | 1486353139.02656 | pgbench_branches |             8192

 2017-02-06 04:52:20.125147+01 | 1486353140.12515 | pgbench_accounts |       1342955520
 2017-02-06 04:52:20.125147+01 | 1486353140.12515 | pgbench_tellers  |            49152
 2017-02-06 04:52:20.125147+01 | 1486353140.12515 | pgbench_history  |                0
 2017-02-06 04:52:20.125147+01 | 1486353140.12515 | pgbench_branches |             8192

 2017-02-06 04:52:21.213874+01 | 1486353141.21387 | pgbench_accounts |       1342955520
 2017-02-06 04:52:21.213874+01 | 1486353141.21387 | pgbench_tellers  |            49152
 2017-02-06 04:52:21.213874+01 | 1486353141.21387 | pgbench_history  |                0
 2017-02-06 04:52:21.213874+01 | 1486353141.21387 | pgbench_branches |             8192

 2017-02-06 04:52:22.299147+01 | 1486353142.29915 | pgbench_accounts |       1342955520
 2017-02-06 04:52:22.299147+01 | 1486353142.29915 | pgbench_tellers  |            49152
 2017-02-06 04:52:22.299147+01 | 1486353142.29915 | pgbench_history  |                0
 2017-02-06 04:52:22.299147+01 | 1486353142.29915 | pgbench_branches |             8192

 2017-02-06 04:52:23.406871+01 | 1486353143.40687 | pgbench_accounts |       1342955520
 2017-02-06 04:52:23.406871+01 | 1486353143.40687 | pgbench_tellers  |            49152
 2017-02-06 04:52:23.406871+01 | 1486353143.40687 | pgbench_history  |                0
 2017-02-06 04:52:23.406871+01 | 1486353143.40687 | pgbench_branches |             8192

 2017-02-06 04:52:24.512286+01 | 1486353144.51229 | pgbench_accounts |       1342955520
 2017-02-06 04:52:24.512286+01 | 1486353144.51229 | pgbench_tellers  |            49152
 2017-02-06 04:52:24.512286+01 | 1486353144.51229 | pgbench_history  |                0
 2017-02-06 04:52:24.512286+01 | 1486353144.51229 | pgbench_branches |             8192

 2017-02-06 04:52:25.604861+01 | 1486353145.60486 | pgbench_accounts |       1342955520
 2017-02-06 04:52:25.604861+01 | 1486353145.60486 | pgbench_tellers  |            49152
 2017-02-06 04:52:25.604861+01 | 1486353145.60486 | pgbench_history  |                0
 2017-02-06 04:52:25.604861+01 | 1486353145.60486 | pgbench_branches |             8192

 2017-02-06 04:52:26.727198+01 | 1486353146.7272 | pgbench_accounts |       1342955520
 2017-02-06 04:52:26.727198+01 | 1486353146.7272 | pgbench_tellers  |            49152
 2017-02-06 04:52:26.727198+01 | 1486353146.7272 | pgbench_history  |                0
 2017-02-06 04:52:26.727198+01 | 1486353146.7272 | pgbench_branches |             8192

 2017-02-06 04:52:27.819072+01 | 1486353147.81907 | pgbench_accounts |       1342955520
 2017-02-06 04:52:27.819072+01 | 1486353147.81907 | pgbench_tellers  |            49152
 2017-02-06 04:52:27.819072+01 | 1486353147.81907 | pgbench_history  |                0
 2017-02-06 04:52:27.819072+01 | 1486353147.81907 | pgbench_branches |             8192

 2017-02-06 04:52:28.915798+01 | 1486353148.9158 | pgbench_accounts |       1342955520
 2017-02-06 04:52:28.915798+01 | 1486353148.9158 | pgbench_tellers  |            49152
 2017-02-06 04:52:28.915798+01 | 1486353148.9158 | pgbench_history  |                0
 2017-02-06 04:52:28.915798+01 | 1486353148.9158 | pgbench_branches |             8192

 2017-02-06 04:52:30.012891+01 | 1486353150.01289 | pgbench_accounts |       1342955520
 2017-02-06 04:52:30.012891+01 | 1486353150.01289 | pgbench_tellers  |            49152
 2017-02-06 04:52:30.012891+01 | 1486353150.01289 | pgbench_history  |                0
 2017-02-06 04:52:30.012891+01 | 1486353150.01289 | pgbench_branches |             8192

 2017-02-06 04:52:31.109335+01 | 1486353151.10933 | pgbench_accounts |       1342955520
 2017-02-06 04:52:31.109335+01 | 1486353151.10933 | pgbench_tellers  |            49152
 2017-02-06 04:52:31.109335+01 | 1486353151.10933 | pgbench_history  |                0
 2017-02-06 04:52:31.109335+01 | 1486353151.10933 | pgbench_branches |             8192

 2017-02-06 04:52:32.207195+01 | 1486353152.2072 | pgbench_accounts |       1342955520
 2017-02-06 04:52:32.207195+01 | 1486353152.2072 | pgbench_tellers  |            49152
 2017-02-06 04:52:32.207195+01 | 1486353152.2072 | pgbench_history  |                0
 2017-02-06 04:52:32.207195+01 | 1486353152.2072 | pgbench_branches |             8192

 2017-02-06 04:52:33.307521+01 | 1486353153.30752 | pgbench_accounts |       1342955520
 2017-02-06 04:52:33.307521+01 | 1486353153.30752 | pgbench_tellers  |            49152
 2017-02-06 04:52:33.307521+01 | 1486353153.30752 | pgbench_history  |                0
 2017-02-06 04:52:33.307521+01 | 1486353153.30752 | pgbench_branches |             8192

 2017-02-06 04:52:34.405396+01 | 1486353154.4054 | pgbench_accounts |       1342955520
 2017-02-06 04:52:34.405396+01 | 1486353154.4054 | pgbench_tellers  |            49152
 2017-02-06 04:52:34.405396+01 | 1486353154.4054 | pgbench_history  |                0
 2017-02-06 04:52:34.405396+01 | 1486353154.4054 | pgbench_branches |             8192

 2017-02-06 04:52:35.505369+01 | 1486353155.50537 | pgbench_accounts |       1342955520
 2017-02-06 04:52:35.505369+01 | 1486353155.50537 | pgbench_tellers  |            49152
 2017-02-06 04:52:35.505369+01 | 1486353155.50537 | pgbench_history  |                0
 2017-02-06 04:52:35.505369+01 | 1486353155.50537 | pgbench_branches |             8192

 2017-02-06 04:52:36.612035+01 | 1486353156.61204 | pgbench_accounts |       1342955520
 2017-02-06 04:52:36.612035+01 | 1486353156.61204 | pgbench_tellers  |            49152
 2017-02-06 04:52:36.612035+01 | 1486353156.61204 | pgbench_history  |                0
 2017-02-06 04:52:36.612035+01 | 1486353156.61204 | pgbench_branches |             8192

 2017-02-06 04:52:37.71398+01 | 1486353157.71398 | pgbench_accounts |       1342955520
 2017-02-06 04:52:37.71398+01 | 1486353157.71398 | pgbench_tellers  |            49152
 2017-02-06 04:52:37.71398+01 | 1486353157.71398 | pgbench_history  |                0
 2017-02-06 04:52:37.71398+01 | 1486353157.71398 | pgbench_branches |             8192

 2017-02-06 04:52:38.841938+01 | 1486353158.84194 | pgbench_accounts |       1342955520
 2017-02-06 04:52:38.841938+01 | 1486353158.84194 | pgbench_tellers  |            49152
 2017-02-06 04:52:38.841938+01 | 1486353158.84194 | pgbench_history  |                0
 2017-02-06 04:52:38.841938+01 | 1486353158.84194 | pgbench_branches |             8192

 2017-02-06 04:52:39.94319+01 | 1486353159.94319 | pgbench_accounts |       1342955520
 2017-02-06 04:52:39.94319+01 | 1486353159.94319 | pgbench_tellers  |            49152
 2017-02-06 04:52:39.94319+01 | 1486353159.94319 | pgbench_history  |                0
 2017-02-06 04:52:39.94319+01 | 1486353159.94319 | pgbench_branches |             8192

 2017-02-06 04:52:41.033819+01 | 1486353161.03382 | pgbench_accounts |       1342955520
 2017-02-06 04:52:41.033819+01 | 1486353161.03382 | pgbench_tellers  |            49152
 2017-02-06 04:52:41.033819+01 | 1486353161.03382 | pgbench_history  |                0
 2017-02-06 04:52:41.033819+01 | 1486353161.03382 | pgbench_branches |             8192

 2017-02-06 04:52:42.126168+01 | 1486353162.12617 | pgbench_accounts |       1342955520
 2017-02-06 04:52:42.126168+01 | 1486353162.12617 | pgbench_tellers  |            49152
 2017-02-06 04:52:42.126168+01 | 1486353162.12617 | pgbench_history  |                0
 2017-02-06 04:52:42.126168+01 | 1486353162.12617 | pgbench_branches |             8192

 2017-02-06 04:52:43.229992+01 | 1486353163.22999 | pgbench_accounts |       1342955520
 2017-02-06 04:52:43.229992+01 | 1486353163.22999 | pgbench_tellers  |            49152
 2017-02-06 04:52:43.229992+01 | 1486353163.22999 | pgbench_history  |                0
 2017-02-06 04:52:43.229992+01 | 1486353163.22999 | pgbench_branches |             8192

 2017-02-06 04:52:44.316076+01 | 1486353164.31608 | pgbench_accounts |       1342955520
 2017-02-06 04:52:44.316076+01 | 1486353164.31608 | pgbench_tellers  |            49152
 2017-02-06 04:52:44.316076+01 | 1486353164.31608 | pgbench_history  |                0
 2017-02-06 04:52:44.316076+01 | 1486353164.31608 | pgbench_branches |             8192

 2017-02-06 04:52:45.396617+01 | 1486353165.39662 | pgbench_accounts |       1342955520
 2017-02-06 04:52:45.396617+01 | 1486353165.39662 | pgbench_tellers  |            49152
 2017-02-06 04:52:45.396617+01 | 1486353165.39662 | pgbench_history  |                0
 2017-02-06 04:52:45.396617+01 | 1486353165.39662 | pgbench_branches |             8192

 2017-02-06 04:52:46.486386+01 | 1486353166.48639 | pgbench_accounts |       1342955520
 2017-02-06 04:52:46.486386+01 | 1486353166.48639 | pgbench_tellers  |            49152
 2017-02-06 04:52:46.486386+01 | 1486353166.48639 | pgbench_history  |                0
 2017-02-06 04:52:46.486386+01 | 1486353166.48639 | pgbench_branches |             8192

 2017-02-06 04:52:47.585296+01 | 1486353167.5853 | pgbench_accounts |       1342955520
 2017-02-06 04:52:47.585296+01 | 1486353167.5853 | pgbench_tellers  |            49152
 2017-02-06 04:52:47.585296+01 | 1486353167.5853 | pgbench_history  |                0
 2017-02-06 04:52:47.585296+01 | 1486353167.5853 | pgbench_branches |             8192

 2017-02-06 04:52:48.69347+01 | 1486353168.69347 | pgbench_accounts |       1342955520
 2017-02-06 04:52:48.69347+01 | 1486353168.69347 | pgbench_tellers  |            49152
 2017-02-06 04:52:48.69347+01 | 1486353168.69347 | pgbench_history  |                0
 2017-02-06 04:52:48.69347+01 | 1486353168.69347 | pgbench_branches |             8192

 2017-02-06 04:52:49.808301+01 | 1486353169.8083 | pgbench_accounts |       1342955520
 2017-02-06 04:52:49.808301+01 | 1486353169.8083 | pgbench_tellers  |            49152
 2017-02-06 04:52:49.808301+01 | 1486353169.8083 | pgbench_history  |                0
 2017-02-06 04:52:49.808301+01 | 1486353169.8083 | pgbench_branches |             8192

 2017-02-06 04:52:50.920656+01 | 1486353170.92066 | pgbench_accounts |       1342955520
 2017-02-06 04:52:50.920656+01 | 1486353170.92066 | pgbench_tellers  |            49152
 2017-02-06 04:52:50.920656+01 | 1486353170.92066 | pgbench_history  |                0
 2017-02-06 04:52:50.920656+01 | 1486353170.92066 | pgbench_branches |             8192

 2017-02-06 04:52:52.023104+01 | 1486353172.0231 | pgbench_accounts |       1342955520
 2017-02-06 04:52:52.023104+01 | 1486353172.0231 | pgbench_tellers  |            49152
 2017-02-06 04:52:52.023104+01 | 1486353172.0231 | pgbench_history  |                0
 2017-02-06 04:52:52.023104+01 | 1486353172.0231 | pgbench_branches |             8192

 2017-02-06 04:52:53.118394+01 | 1486353173.11839 | pgbench_accounts |       1342955520
 2017-02-06 04:52:53.118394+01 | 1486353173.11839 | pgbench_tellers  |            49152
 2017-02-06 04:52:53.118394+01 | 1486353173.11839 | pgbench_history  |                0
 2017-02-06 04:52:53.118394+01 | 1486353173.11839 | pgbench_branches |             8192

 2017-02-06 04:52:54.208922+01 | 1486353174.20892 | pgbench_accounts |       1342955520
 2017-02-06 04:52:54.208922+01 | 1486353174.20892 | pgbench_tellers  |            49152
 2017-02-06 04:52:54.208922+01 | 1486353174.20892 | pgbench_history  |                0
 2017-02-06 04:52:54.208922+01 | 1486353174.20892 | pgbench_branches |             8192

 2017-02-06 04:52:55.292714+01 | 1486353175.29271 | pgbench_accounts |       1342955520
 2017-02-06 04:52:55.292714+01 | 1486353175.29271 | pgbench_tellers  |            49152
 2017-02-06 04:52:55.292714+01 | 1486353175.29271 | pgbench_history  |                0
 2017-02-06 04:52:55.292714+01 | 1486353175.29271 | pgbench_branches |             8192

 2017-02-06 04:52:56.385741+01 | 1486353176.38574 | pgbench_accounts |       1342955520
 2017-02-06 04:52:56.385741+01 | 1486353176.38574 | pgbench_tellers  |            49152
 2017-02-06 04:52:56.385741+01 | 1486353176.38574 | pgbench_history  |                0
 2017-02-06 04:52:56.385741+01 | 1486353176.38574 | pgbench_branches |             8192

 2017-02-06 04:52:57.479545+01 | 1486353177.47955 | pgbench_accounts |       1342955520
 2017-02-06 04:52:57.479545+01 | 1486353177.47955 | pgbench_tellers  |            49152
 2017-02-06 04:52:57.479545+01 | 1486353177.47955 | pgbench_history  |                0
 2017-02-06 04:52:57.479545+01 | 1486353177.47955 | pgbench_branches |             8192

 2017-02-06 04:52:58.571698+01 | 1486353178.5717 | pgbench_accounts |       1342955520
 2017-02-06 04:52:58.571698+01 | 1486353178.5717 | pgbench_tellers  |            49152
 2017-02-06 04:52:58.571698+01 | 1486353178.5717 | pgbench_history  |                0
 2017-02-06 04:52:58.571698+01 | 1486353178.5717 | pgbench_branches |             8192

 2017-02-06 04:52:59.663718+01 | 1486353179.66372 | pgbench_accounts |       1342955520
 2017-02-06 04:52:59.663718+01 | 1486353179.66372 | pgbench_tellers  |            49152
 2017-02-06 04:52:59.663718+01 | 1486353179.66372 | pgbench_history  |                0
 2017-02-06 04:52:59.663718+01 | 1486353179.66372 | pgbench_branches |             8192

 2017-02-06 04:53:00.772745+01 | 1486353180.77274 | pgbench_accounts |       1342955520
 2017-02-06 04:53:00.772745+01 | 1486353180.77274 | pgbench_tellers  |            49152
 2017-02-06 04:53:00.772745+01 | 1486353180.77274 | pgbench_history  |                0
 2017-02-06 04:53:00.772745+01 | 1486353180.77274 | pgbench_branches |             8192

 2017-02-06 04:53:01.887555+01 | 1486353181.88755 | pgbench_accounts |       1342955520
 2017-02-06 04:53:01.887555+01 | 1486353181.88755 | pgbench_tellers  |            49152
 2017-02-06 04:53:01.887555+01 | 1486353181.88755 | pgbench_history  |                0
 2017-02-06 04:53:01.887555+01 | 1486353181.88755 | pgbench_branches |             8192

 2017-02-06 04:53:03.017624+01 | 1486353183.01762 | pgbench_accounts |       1342955520
 2017-02-06 04:53:03.017624+01 | 1486353183.01762 | pgbench_tellers  |            49152
 2017-02-06 04:53:03.017624+01 | 1486353183.01762 | pgbench_history  |                0
 2017-02-06 04:53:03.017624+01 | 1486353183.01762 | pgbench_branches |             8192

 2017-02-06 04:53:04.122362+01 | 1486353184.12236 | pgbench_accounts |       1342955520
 2017-02-06 04:53:04.122362+01 | 1486353184.12236 | pgbench_tellers  |            49152
 2017-02-06 04:53:04.122362+01 | 1486353184.12236 | pgbench_history  |                0
 2017-02-06 04:53:04.122362+01 | 1486353184.12236 | pgbench_branches |             8192

 2017-02-06 04:53:05.225779+01 | 1486353185.22578 | pgbench_accounts |       1342955520
 2017-02-06 04:53:05.225779+01 | 1486353185.22578 | pgbench_tellers  |            49152
 2017-02-06 04:53:05.225779+01 | 1486353185.22578 | pgbench_history  |                0
 2017-02-06 04:53:05.225779+01 | 1486353185.22578 | pgbench_branches |             8192

 2017-02-06 04:53:06.337915+01 | 1486353186.33791 | pgbench_accounts |       1342955520
 2017-02-06 04:53:06.337915+01 | 1486353186.33791 | pgbench_tellers  |            49152
 2017-02-06 04:53:06.337915+01 | 1486353186.33791 | pgbench_history  |                0
 2017-02-06 04:53:06.337915+01 | 1486353186.33791 | pgbench_branches |             8192

 2017-02-06 04:53:07.430763+01 | 1486353187.43076 | pgbench_accounts |       1342955520
 2017-02-06 04:53:07.430763+01 | 1486353187.43076 | pgbench_tellers  |            49152
 2017-02-06 04:53:07.430763+01 | 1486353187.43076 | pgbench_history  |                0
 2017-02-06 04:53:07.430763+01 | 1486353187.43076 | pgbench_branches |             8192

 2017-02-06 04:53:08.52657+01 | 1486353188.52657 | pgbench_accounts |       1342955520
 2017-02-06 04:53:08.52657+01 | 1486353188.52657 | pgbench_tellers  |            49152
 2017-02-06 04:53:08.52657+01 | 1486353188.52657 | pgbench_history  |                0
 2017-02-06 04:53:08.52657+01 | 1486353188.52657 | pgbench_branches |             8192

 2017-02-06 04:53:09.636541+01 | 1486353189.63654 | pgbench_accounts |       1342955520
 2017-02-06 04:53:09.636541+01 | 1486353189.63654 | pgbench_tellers  |            49152
 2017-02-06 04:53:09.636541+01 | 1486353189.63654 | pgbench_history  |                0
 2017-02-06 04:53:09.636541+01 | 1486353189.63654 | pgbench_branches |             8192

 2017-02-06 04:53:10.746515+01 | 1486353190.74652 | pgbench_accounts |       1342955520
 2017-02-06 04:53:10.746515+01 | 1486353190.74652 | pgbench_tellers  |            49152
 2017-02-06 04:53:10.746515+01 | 1486353190.74652 | pgbench_history  |                0
 2017-02-06 04:53:10.746515+01 | 1486353190.74652 | pgbench_branches |             8192

 2017-02-06 04:53:11.850675+01 | 1486353191.85068 | pgbench_accounts |       1342955520
 2017-02-06 04:53:11.850675+01 | 1486353191.85068 | pgbench_tellers  |            49152
 2017-02-06 04:53:11.850675+01 | 1486353191.85068 | pgbench_history  |                0
 2017-02-06 04:53:11.850675+01 | 1486353191.85068 | pgbench_branches |             8192

 2017-02-06 04:53:12.96278+01 | 1486353192.96278 | pgbench_accounts |       1342955520
 2017-02-06 04:53:12.96278+01 | 1486353192.96278 | pgbench_tellers  |            49152
 2017-02-06 04:53:12.96278+01 | 1486353192.96278 | pgbench_history  |                0
 2017-02-06 04:53:12.96278+01 | 1486353192.96278 | pgbench_branches |             8192

 2017-02-06 04:53:14.078618+01 | 1486353194.07862 | pgbench_accounts |       1342955520
 2017-02-06 04:53:14.078618+01 | 1486353194.07862 | pgbench_tellers  |            49152
 2017-02-06 04:53:14.078618+01 | 1486353194.07862 | pgbench_history  |                0
 2017-02-06 04:53:14.078618+01 | 1486353194.07862 | pgbench_branches |             8192

 2017-02-06 04:53:15.178742+01 | 1486353195.17874 | pgbench_accounts |       1342955520
 2017-02-06 04:53:15.178742+01 | 1486353195.17874 | pgbench_tellers  |            49152
 2017-02-06 04:53:15.178742+01 | 1486353195.17874 | pgbench_history  |                0
 2017-02-06 04:53:15.178742+01 | 1486353195.17874 | pgbench_branches |             8192

 2017-02-06 04:53:16.277113+01 | 1486353196.27711 | pgbench_accounts |       1342955520
 2017-02-06 04:53:16.277113+01 | 1486353196.27711 | pgbench_tellers  |            49152
 2017-02-06 04:53:16.277113+01 | 1486353196.27711 | pgbench_history  |                0
 2017-02-06 04:53:16.277113+01 | 1486353196.27711 | pgbench_branches |             8192

 2017-02-06 04:53:17.376452+01 | 1486353197.37645 | pgbench_accounts |       1342955520
 2017-02-06 04:53:17.376452+01 | 1486353197.37645 | pgbench_tellers  |            49152
 2017-02-06 04:53:17.376452+01 | 1486353197.37645 | pgbench_history  |                0
 2017-02-06 04:53:17.376452+01 | 1486353197.37645 | pgbench_branches |             8192

 2017-02-06 04:53:18.462279+01 | 1486353198.46228 | pgbench_accounts |       1342955520
 2017-02-06 04:53:18.462279+01 | 1486353198.46228 | pgbench_tellers  |            49152
 2017-02-06 04:53:18.462279+01 | 1486353198.46228 | pgbench_history  |                0
 2017-02-06 04:53:18.462279+01 | 1486353198.46228 | pgbench_branches |             8192

 2017-02-06 04:53:19.547438+01 | 1486353199.54744 | pgbench_accounts |       1342955520
 2017-02-06 04:53:19.547438+01 | 1486353199.54744 | pgbench_tellers  |            49152
 2017-02-06 04:53:19.547438+01 | 1486353199.54744 | pgbench_history  |                0
 2017-02-06 04:53:19.547438+01 | 1486353199.54744 | pgbench_branches |             8192

 2017-02-06 04:53:20.649164+01 | 1486353200.64916 | pgbench_accounts |       1342955520
 2017-02-06 04:53:20.649164+01 | 1486353200.64916 | pgbench_tellers  |            49152
 2017-02-06 04:53:20.649164+01 | 1486353200.64916 | pgbench_history  |                0
 2017-02-06 04:53:20.649164+01 | 1486353200.64916 | pgbench_branches |             8192

 2017-02-06 04:53:21.738838+01 | 1486353201.73884 | pgbench_accounts |       1342955520
 2017-02-06 04:53:21.738838+01 | 1486353201.73884 | pgbench_tellers  |            49152
 2017-02-06 04:53:21.738838+01 | 1486353201.73884 | pgbench_history  |                0
 2017-02-06 04:53:21.738838+01 | 1486353201.73884 | pgbench_branches |             8192

 2017-02-06 04:53:22.847463+01 | 1486353202.84746 | pgbench_accounts |       1342955520
 2017-02-06 04:53:22.847463+01 | 1486353202.84746 | pgbench_tellers  |            49152
 2017-02-06 04:53:22.847463+01 | 1486353202.84746 | pgbench_history  |                0
 2017-02-06 04:53:22.847463+01 | 1486353202.84746 | pgbench_branches |             8192

 2017-02-06 04:53:23.976268+01 | 1486353203.97627 | pgbench_accounts |       1342955520
 2017-02-06 04:53:23.976268+01 | 1486353203.97627 | pgbench_tellers  |            49152
 2017-02-06 04:53:23.976268+01 | 1486353203.97627 | pgbench_history  |                0
 2017-02-06 04:53:23.976268+01 | 1486353203.97627 | pgbench_branches |             8192

 2017-02-06 04:53:25.091899+01 | 1486353205.0919 | pgbench_accounts |       1342955520
 2017-02-06 04:53:25.091899+01 | 1486353205.0919 | pgbench_tellers  |            49152
 2017-02-06 04:53:25.091899+01 | 1486353205.0919 | pgbench_history  |                0
 2017-02-06 04:53:25.091899+01 | 1486353205.0919 | pgbench_branches |             8192

 2017-02-06 04:53:26.198528+01 | 1486353206.19853 | pgbench_accounts |       1342955520
 2017-02-06 04:53:26.198528+01 | 1486353206.19853 | pgbench_tellers  |            49152
 2017-02-06 04:53:26.198528+01 | 1486353206.19853 | pgbench_history  |                0
 2017-02-06 04:53:26.198528+01 | 1486353206.19853 | pgbench_branches |             8192

 2017-02-06 04:53:27.291324+01 | 1486353207.29132 | pgbench_accounts |       1342955520
 2017-02-06 04:53:27.291324+01 | 1486353207.29132 | pgbench_tellers  |            49152
 2017-02-06 04:53:27.291324+01 | 1486353207.29132 | pgbench_history  |                0
 2017-02-06 04:53:27.291324+01 | 1486353207.29132 | pgbench_branches |             8192

 2017-02-06 04:53:28.388597+01 | 1486353208.3886 | pgbench_accounts |       1342955520
 2017-02-06 04:53:28.388597+01 | 1486353208.3886 | pgbench_tellers  |            49152
 2017-02-06 04:53:28.388597+01 | 1486353208.3886 | pgbench_history  |                0
 2017-02-06 04:53:28.388597+01 | 1486353208.3886 | pgbench_branches |             8192

 2017-02-06 04:53:29.47975+01 | 1486353209.47975 | pgbench_accounts |       1342955520
 2017-02-06 04:53:29.47975+01 | 1486353209.47975 | pgbench_tellers  |            49152
 2017-02-06 04:53:29.47975+01 | 1486353209.47975 | pgbench_history  |                0
 2017-02-06 04:53:29.47975+01 | 1486353209.47975 | pgbench_branches |             8192

 2017-02-06 04:53:30.569346+01 | 1486353210.56935 | pgbench_accounts |       1342955520
 2017-02-06 04:53:30.569346+01 | 1486353210.56935 | pgbench_tellers  |            49152
 2017-02-06 04:53:30.569346+01 | 1486353210.56935 | pgbench_history  |                0
 2017-02-06 04:53:30.569346+01 | 1486353210.56935 | pgbench_branches |             8192

 2017-02-06 04:53:31.655974+01 | 1486353211.65597 | pgbench_accounts |       1342955520
 2017-02-06 04:53:31.655974+01 | 1486353211.65597 | pgbench_tellers  |            49152
 2017-02-06 04:53:31.655974+01 | 1486353211.65597 | pgbench_history  |                0
 2017-02-06 04:53:31.655974+01 | 1486353211.65597 | pgbench_branches |             8192

 2017-02-06 04:53:32.742727+01 | 1486353212.74273 | pgbench_accounts |       1342955520
 2017-02-06 04:53:32.742727+01 | 1486353212.74273 | pgbench_tellers  |            49152
 2017-02-06 04:53:32.742727+01 | 1486353212.74273 | pgbench_history  |                0
 2017-02-06 04:53:32.742727+01 | 1486353212.74273 | pgbench_branches |             8192

 2017-02-06 04:53:33.831064+01 | 1486353213.83106 | pgbench_accounts |       1342955520
 2017-02-06 04:53:33.831064+01 | 1486353213.83106 | pgbench_tellers  |            49152
 2017-02-06 04:53:33.831064+01 | 1486353213.83106 | pgbench_history  |                0
 2017-02-06 04:53:33.831064+01 | 1486353213.83106 | pgbench_branches |             8192

 2017-02-06 04:53:34.942129+01 | 1486353214.94213 | pgbench_accounts |       1342955520
 2017-02-06 04:53:34.942129+01 | 1486353214.94213 | pgbench_tellers  |            49152
 2017-02-06 04:53:34.942129+01 | 1486353214.94213 | pgbench_history  |                0
 2017-02-06 04:53:34.942129+01 | 1486353214.94213 | pgbench_branches |             8192

 2017-02-06 04:53:36.036123+01 | 1486353216.03612 | pgbench_accounts |       1342955520
 2017-02-06 04:53:36.036123+01 | 1486353216.03612 | pgbench_tellers  |            49152
 2017-02-06 04:53:36.036123+01 | 1486353216.03612 | pgbench_history  |                0
 2017-02-06 04:53:36.036123+01 | 1486353216.03612 | pgbench_branches |             8192

 2017-02-06 04:53:37.142892+01 | 1486353217.14289 | pgbench_accounts |       1342955520
 2017-02-06 04:53:37.142892+01 | 1486353217.14289 | pgbench_tellers  |            49152
 2017-02-06 04:53:37.142892+01 | 1486353217.14289 | pgbench_history  |                0
 2017-02-06 04:53:37.142892+01 | 1486353217.14289 | pgbench_branches |             8192

 2017-02-06 04:53:38.255916+01 | 1486353218.25592 | pgbench_accounts |       1342955520
 2017-02-06 04:53:38.255916+01 | 1486353218.25592 | pgbench_tellers  |            49152
 2017-02-06 04:53:38.255916+01 | 1486353218.25592 | pgbench_history  |                0
 2017-02-06 04:53:38.255916+01 | 1486353218.25592 | pgbench_branches |             8192

 2017-02-06 04:53:39.361089+01 | 1486353219.36109 | pgbench_accounts |       1342955520
 2017-02-06 04:53:39.361089+01 | 1486353219.36109 | pgbench_tellers  |            49152
 2017-02-06 04:53:39.361089+01 | 1486353219.36109 | pgbench_history  |                0
 2017-02-06 04:53:39.361089+01 | 1486353219.36109 | pgbench_branches |             8192

 2017-02-06 04:53:40.45468+01 | 1486353220.45468 | pgbench_accounts |       1342955520
 2017-02-06 04:53:40.45468+01 | 1486353220.45468 | pgbench_tellers  |            49152
 2017-02-06 04:53:40.45468+01 | 1486353220.45468 | pgbench_history  |                0
 2017-02-06 04:53:40.45468+01 | 1486353220.45468 | pgbench_branches |             8192

 2017-02-06 04:53:41.551206+01 | 1486353221.55121 | pgbench_accounts |       1342955520
 2017-02-06 04:53:41.551206+01 | 1486353221.55121 | pgbench_tellers  |            49152
 2017-02-06 04:53:41.551206+01 | 1486353221.55121 | pgbench_history  |                0
 2017-02-06 04:53:41.551206+01 | 1486353221.55121 | pgbench_branches |             8192

 2017-02-06 04:53:42.636116+01 | 1486353222.63612 | pgbench_accounts |       1342955520
 2017-02-06 04:53:42.636116+01 | 1486353222.63612 | pgbench_tellers  |            49152
 2017-02-06 04:53:42.636116+01 | 1486353222.63612 | pgbench_history  |                0
 2017-02-06 04:53:42.636116+01 | 1486353222.63612 | pgbench_branches |             8192

 2017-02-06 04:53:43.739303+01 | 1486353223.7393 | pgbench_accounts |       1342955520
 2017-02-06 04:53:43.739303+01 | 1486353223.7393 | pgbench_tellers  |            49152
 2017-02-06 04:53:43.739303+01 | 1486353223.7393 | pgbench_history  |                0
 2017-02-06 04:53:43.739303+01 | 1486353223.7393 | pgbench_branches |             8192

 2017-02-06 04:53:44.836756+01 | 1486353224.83676 | pgbench_accounts |       1342955520
 2017-02-06 04:53:44.836756+01 | 1486353224.83676 | pgbench_tellers  |            49152
 2017-02-06 04:53:44.836756+01 | 1486353224.83676 | pgbench_history  |                0
 2017-02-06 04:53:44.836756+01 | 1486353224.83676 | pgbench_branches |             8192

 2017-02-06 04:53:45.950047+01 | 1486353225.95005 | pgbench_accounts |       1342955520
 2017-02-06 04:53:45.950047+01 | 1486353225.95005 | pgbench_tellers  |            49152
 2017-02-06 04:53:45.950047+01 | 1486353225.95005 | pgbench_history  |                0
 2017-02-06 04:53:45.950047+01 | 1486353225.95005 | pgbench_branches |             8192

 2017-02-06 04:53:47.052974+01 | 1486353227.05297 | pgbench_accounts |       1342955520
 2017-02-06 04:53:47.052974+01 | 1486353227.05297 | pgbench_tellers  |            49152
 2017-02-06 04:53:47.052974+01 | 1486353227.05297 | pgbench_history  |                0
 2017-02-06 04:53:47.052974+01 | 1486353227.05297 | pgbench_branches |             8192

 2017-02-06 04:53:48.168536+01 | 1486353228.16854 | pgbench_accounts |       1342955520
 2017-02-06 04:53:48.168536+01 | 1486353228.16854 | pgbench_tellers  |            49152
 2017-02-06 04:53:48.168536+01 | 1486353228.16854 | pgbench_history  |                0
 2017-02-06 04:53:48.168536+01 | 1486353228.16854 | pgbench_branches |             8192

 2017-02-06 04:53:49.269378+01 | 1486353229.26938 | pgbench_accounts |       1342955520
 2017-02-06 04:53:49.269378+01 | 1486353229.26938 | pgbench_tellers  |            49152
 2017-02-06 04:53:49.269378+01 | 1486353229.26938 | pgbench_history  |                0
 2017-02-06 04:53:49.269378+01 | 1486353229.26938 | pgbench_branches |             8192

 2017-02-06 04:53:50.386658+01 | 1486353230.38666 | pgbench_accounts |       1342955520
 2017-02-06 04:53:50.386658+01 | 1486353230.38666 | pgbench_tellers  |            49152
 2017-02-06 04:53:50.386658+01 | 1486353230.38666 | pgbench_history  |                0
 2017-02-06 04:53:50.386658+01 | 1486353230.38666 | pgbench_branches |             8192

 2017-02-06 04:53:51.481936+01 | 1486353231.48194 | pgbench_accounts |       1342955520
 2017-02-06 04:53:51.481936+01 | 1486353231.48194 | pgbench_tellers  |            49152
 2017-02-06 04:53:51.481936+01 | 1486353231.48194 | pgbench_history  |                0
 2017-02-06 04:53:51.481936+01 | 1486353231.48194 | pgbench_branches |             8192

 2017-02-06 04:53:52.582155+01 | 1486353232.58215 | pgbench_accounts |       1342955520
 2017-02-06 04:53:52.582155+01 | 1486353232.58215 | pgbench_tellers  |            49152
 2017-02-06 04:53:52.582155+01 | 1486353232.58215 | pgbench_history  |                0
 2017-02-06 04:53:52.582155+01 | 1486353232.58215 | pgbench_branches |             8192

 2017-02-06 04:53:53.680124+01 | 1486353233.68012 | pgbench_accounts |       1342955520
 2017-02-06 04:53:53.680124+01 | 1486353233.68012 | pgbench_tellers  |            49152
 2017-02-06 04:53:53.680124+01 | 1486353233.68012 | pgbench_history  |                0
 2017-02-06 04:53:53.680124+01 | 1486353233.68012 | pgbench_branches |             8192

 2017-02-06 04:53:54.780063+01 | 1486353234.78006 | pgbench_accounts |       1342955520
 2017-02-06 04:53:54.780063+01 | 1486353234.78006 | pgbench_tellers  |            49152
 2017-02-06 04:53:54.780063+01 | 1486353234.78006 | pgbench_history  |                0
 2017-02-06 04:53:54.780063+01 | 1486353234.78006 | pgbench_branches |             8192

 2017-02-06 04:53:55.861732+01 | 1486353235.86173 | pgbench_accounts |       1342955520
 2017-02-06 04:53:55.861732+01 | 1486353235.86173 | pgbench_tellers  |            49152
 2017-02-06 04:53:55.861732+01 | 1486353235.86173 | pgbench_history  |                0
 2017-02-06 04:53:55.861732+01 | 1486353235.86173 | pgbench_branches |             8192

 2017-02-06 04:53:56.948369+01 | 1486353236.94837 | pgbench_accounts |       1342955520
 2017-02-06 04:53:56.948369+01 | 1486353236.94837 | pgbench_tellers  |            49152
 2017-02-06 04:53:56.948369+01 | 1486353236.94837 | pgbench_history  |                0
 2017-02-06 04:53:56.948369+01 | 1486353236.94837 | pgbench_branches |             8192

 2017-02-06 04:53:58.047128+01 | 1486353238.04713 | pgbench_accounts |       1342955520
 2017-02-06 04:53:58.047128+01 | 1486353238.04713 | pgbench_tellers  |            49152
 2017-02-06 04:53:58.047128+01 | 1486353238.04713 | pgbench_history  |                0
 2017-02-06 04:53:58.047128+01 | 1486353238.04713 | pgbench_branches |             8192

 2017-02-06 04:53:59.146812+01 | 1486353239.14681 | pgbench_accounts |       1342955520
 2017-02-06 04:53:59.146812+01 | 1486353239.14681 | pgbench_tellers  |            49152
 2017-02-06 04:53:59.146812+01 | 1486353239.14681 | pgbench_history  |                0
 2017-02-06 04:53:59.146812+01 | 1486353239.14681 | pgbench_branches |             8192

 2017-02-06 04:54:00.249692+01 | 1486353240.24969 | pgbench_accounts |       1342955520
 2017-02-06 04:54:00.249692+01 | 1486353240.24969 | pgbench_tellers  |            49152
 2017-02-06 04:54:00.249692+01 | 1486353240.24969 | pgbench_history  |                0
 2017-02-06 04:54:00.249692+01 | 1486353240.24969 | pgbench_branches |             8192

 2017-02-06 04:54:01.34224+01 | 1486353241.34224 | pgbench_accounts |       1342955520
 2017-02-06 04:54:01.34224+01 | 1486353241.34224 | pgbench_tellers  |            49152
 2017-02-06 04:54:01.34224+01 | 1486353241.34224 | pgbench_history  |                0
 2017-02-06 04:54:01.34224+01 | 1486353241.34224 | pgbench_branches |             8192

 2017-02-06 04:54:02.445007+01 | 1486353242.44501 | pgbench_accounts |       1342955520
 2017-02-06 04:54:02.445007+01 | 1486353242.44501 | pgbench_tellers  |            49152
 2017-02-06 04:54:02.445007+01 | 1486353242.44501 | pgbench_history  |                0
 2017-02-06 04:54:02.445007+01 | 1486353242.44501 | pgbench_branches |             8192

 2017-02-06 04:54:03.538577+01 | 1486353243.53858 | pgbench_accounts |       1342955520
 2017-02-06 04:54:03.538577+01 | 1486353243.53858 | pgbench_tellers  |            49152
 2017-02-06 04:54:03.538577+01 | 1486353243.53858 | pgbench_history  |                0
 2017-02-06 04:54:03.538577+01 | 1486353243.53858 | pgbench_branches |             8192

 2017-02-06 04:54:04.639342+01 | 1486353244.63934 | pgbench_accounts |       1342955520
 2017-02-06 04:54:04.639342+01 | 1486353244.63934 | pgbench_tellers  |            49152
 2017-02-06 04:54:04.639342+01 | 1486353244.63934 | pgbench_history  |                0
 2017-02-06 04:54:04.639342+01 | 1486353244.63934 | pgbench_branches |             8192

 2017-02-06 04:54:05.733225+01 | 1486353245.73323 | pgbench_accounts |       1342955520
 2017-02-06 04:54:05.733225+01 | 1486353245.73323 | pgbench_tellers  |            49152
 2017-02-06 04:54:05.733225+01 | 1486353245.73323 | pgbench_history  |                0
 2017-02-06 04:54:05.733225+01 | 1486353245.73323 | pgbench_branches |             8192

 2017-02-06 04:54:06.829707+01 | 1486353246.82971 | pgbench_accounts |       1342955520
 2017-02-06 04:54:06.829707+01 | 1486353246.82971 | pgbench_tellers  |            49152
 2017-02-06 04:54:06.829707+01 | 1486353246.82971 | pgbench_history  |                0
 2017-02-06 04:54:06.829707+01 | 1486353246.82971 | pgbench_branches |             8192

 2017-02-06 04:54:07.914172+01 | 1486353247.91417 | pgbench_accounts |       1342955520
 2017-02-06 04:54:07.914172+01 | 1486353247.91417 | pgbench_tellers  |            49152
 2017-02-06 04:54:07.914172+01 | 1486353247.91417 | pgbench_history  |                0
 2017-02-06 04:54:07.914172+01 | 1486353247.91417 | pgbench_branches |             8192

 2017-02-06 04:54:09.011004+01 | 1486353249.011 | pgbench_accounts |       1342955520
 2017-02-06 04:54:09.011004+01 | 1486353249.011 | pgbench_tellers  |            49152
 2017-02-06 04:54:09.011004+01 | 1486353249.011 | pgbench_history  |                0
 2017-02-06 04:54:09.011004+01 | 1486353249.011 | pgbench_branches |             8192

 2017-02-06 04:54:10.09706+01 | 1486353250.09706 | pgbench_accounts |       1342955520
 2017-02-06 04:54:10.09706+01 | 1486353250.09706 | pgbench_tellers  |            49152
 2017-02-06 04:54:10.09706+01 | 1486353250.09706 | pgbench_history  |                0
 2017-02-06 04:54:10.09706+01 | 1486353250.09706 | pgbench_branches |             8192

 2017-02-06 04:54:11.189038+01 | 1486353251.18904 | pgbench_accounts |       1342955520
 2017-02-06 04:54:11.189038+01 | 1486353251.18904 | pgbench_tellers  |            49152
 2017-02-06 04:54:11.189038+01 | 1486353251.18904 | pgbench_history  |                0
 2017-02-06 04:54:11.189038+01 | 1486353251.18904 | pgbench_branches |             8192

 2017-02-06 04:54:12.287115+01 | 1486353252.28712 | pgbench_accounts |       1342955520
 2017-02-06 04:54:12.287115+01 | 1486353252.28712 | pgbench_tellers  |            49152
 2017-02-06 04:54:12.287115+01 | 1486353252.28712 | pgbench_history  |                0
 2017-02-06 04:54:12.287115+01 | 1486353252.28712 | pgbench_branches |             8192

 2017-02-06 04:54:13.38367+01 | 1486353253.38367 | pgbench_accounts |       1342955520
 2017-02-06 04:54:13.38367+01 | 1486353253.38367 | pgbench_tellers  |            49152
 2017-02-06 04:54:13.38367+01 | 1486353253.38367 | pgbench_history  |                0
 2017-02-06 04:54:13.38367+01 | 1486353253.38367 | pgbench_branches |             8192

 2017-02-06 04:54:14.496134+01 | 1486353254.49613 | pgbench_accounts |       1342955520
 2017-02-06 04:54:14.496134+01 | 1486353254.49613 | pgbench_tellers  |            49152
 2017-02-06 04:54:14.496134+01 | 1486353254.49613 | pgbench_history  |                0
 2017-02-06 04:54:14.496134+01 | 1486353254.49613 | pgbench_branches |             8192

 2017-02-06 04:54:15.601468+01 | 1486353255.60147 | pgbench_accounts |       1342955520
 2017-02-06 04:54:15.601468+01 | 1486353255.60147 | pgbench_tellers  |            49152
 2017-02-06 04:54:15.601468+01 | 1486353255.60147 | pgbench_history  |                0
 2017-02-06 04:54:15.601468+01 | 1486353255.60147 | pgbench_branches |             8192

 2017-02-06 04:54:16.699554+01 | 1486353256.69955 | pgbench_accounts |       1342955520
 2017-02-06 04:54:16.699554+01 | 1486353256.69955 | pgbench_tellers  |            49152
 2017-02-06 04:54:16.699554+01 | 1486353256.69955 | pgbench_history  |                0
 2017-02-06 04:54:16.699554+01 | 1486353256.69955 | pgbench_branches |             8192

 2017-02-06 04:54:17.795255+01 | 1486353257.79525 | pgbench_accounts |       1342955520
 2017-02-06 04:54:17.795255+01 | 1486353257.79525 | pgbench_tellers  |            49152
 2017-02-06 04:54:17.795255+01 | 1486353257.79525 | pgbench_history  |                0
 2017-02-06 04:54:17.795255+01 | 1486353257.79525 | pgbench_branches |             8192

 2017-02-06 04:54:18.879794+01 | 1486353258.87979 | pgbench_accounts |       1342955520
 2017-02-06 04:54:18.879794+01 | 1486353258.87979 | pgbench_tellers  |            49152
 2017-02-06 04:54:18.879794+01 | 1486353258.87979 | pgbench_history  |                0
 2017-02-06 04:54:18.879794+01 | 1486353258.87979 | pgbench_branches |             8192

 2017-02-06 04:54:19.966497+01 | 1486353259.9665 | pgbench_accounts |       1342955520
 2017-02-06 04:54:19.966497+01 | 1486353259.9665 | pgbench_tellers  |            49152
 2017-02-06 04:54:19.966497+01 | 1486353259.9665 | pgbench_history  |                0
 2017-02-06 04:54:19.966497+01 | 1486353259.9665 | pgbench_branches |             8192

 2017-02-06 04:54:21.062568+01 | 1486353261.06257 | pgbench_accounts |       1342955520
 2017-02-06 04:54:21.062568+01 | 1486353261.06257 | pgbench_tellers  |            49152
 2017-02-06 04:54:21.062568+01 | 1486353261.06257 | pgbench_history  |                0
 2017-02-06 04:54:21.062568+01 | 1486353261.06257 | pgbench_branches |             8192

 2017-02-06 04:54:22.153344+01 | 1486353262.15334 | pgbench_accounts |       1342955520
 2017-02-06 04:54:22.153344+01 | 1486353262.15334 | pgbench_tellers  |            49152
 2017-02-06 04:54:22.153344+01 | 1486353262.15334 | pgbench_history  |                0
 2017-02-06 04:54:22.153344+01 | 1486353262.15334 | pgbench_branches |             8192

 2017-02-06 04:54:23.24439+01 | 1486353263.24439 | pgbench_accounts |       1342955520
 2017-02-06 04:54:23.24439+01 | 1486353263.24439 | pgbench_tellers  |            49152
 2017-02-06 04:54:23.24439+01 | 1486353263.24439 | pgbench_history  |                0
 2017-02-06 04:54:23.24439+01 | 1486353263.24439 | pgbench_branches |             8192

 2017-02-06 04:54:24.366907+01 | 1486353264.36691 | pgbench_accounts |       1342955520
 2017-02-06 04:54:24.366907+01 | 1486353264.36691 | pgbench_tellers  |            49152
 2017-02-06 04:54:24.366907+01 | 1486353264.36691 | pgbench_history  |                0
 2017-02-06 04:54:24.366907+01 | 1486353264.36691 | pgbench_branches |             8192

 2017-02-06 04:54:25.457062+01 | 1486353265.45706 | pgbench_accounts |       1342955520
 2017-02-06 04:54:25.457062+01 | 1486353265.45706 | pgbench_tellers  |            49152
 2017-02-06 04:54:25.457062+01 | 1486353265.45706 | pgbench_history  |                0
 2017-02-06 04:54:25.457062+01 | 1486353265.45706 | pgbench_branches |             8192

 2017-02-06 04:54:26.561962+01 | 1486353266.56196 | pgbench_accounts |       1342955520
 2017-02-06 04:54:26.561962+01 | 1486353266.56196 | pgbench_tellers  |            49152
 2017-02-06 04:54:26.561962+01 | 1486353266.56196 | pgbench_history  |                0
 2017-02-06 04:54:26.561962+01 | 1486353266.56196 | pgbench_branches |             8192

 2017-02-06 04:54:27.66418+01 | 1486353267.66418 | pgbench_accounts |       1342955520
 2017-02-06 04:54:27.66418+01 | 1486353267.66418 | pgbench_tellers  |            49152
 2017-02-06 04:54:27.66418+01 | 1486353267.66418 | pgbench_history  |                0
 2017-02-06 04:54:27.66418+01 | 1486353267.66418 | pgbench_branches |             8192

 2017-02-06 04:54:28.759716+01 | 1486353268.75972 | pgbench_accounts |       1342955520
 2017-02-06 04:54:28.759716+01 | 1486353268.75972 | pgbench_tellers  |            49152
 2017-02-06 04:54:28.759716+01 | 1486353268.75972 | pgbench_history  |                0
 2017-02-06 04:54:28.759716+01 | 1486353268.75972 | pgbench_branches |             8192

 2017-02-06 04:54:29.844023+01 | 1486353269.84402 | pgbench_accounts |       1342955520
 2017-02-06 04:54:29.844023+01 | 1486353269.84402 | pgbench_tellers  |            49152
 2017-02-06 04:54:29.844023+01 | 1486353269.84402 | pgbench_history  |                0
 2017-02-06 04:54:29.844023+01 | 1486353269.84402 | pgbench_branches |             8192

 2017-02-06 04:54:30.937652+01 | 1486353270.93765 | pgbench_accounts |       1342955520
 2017-02-06 04:54:30.937652+01 | 1486353270.93765 | pgbench_tellers  |            49152
 2017-02-06 04:54:30.937652+01 | 1486353270.93765 | pgbench_history  |                0
 2017-02-06 04:54:30.937652+01 | 1486353270.93765 | pgbench_branches |             8192

 2017-02-06 04:54:32.033815+01 | 1486353272.03381 | pgbench_accounts |       1342955520
 2017-02-06 04:54:32.033815+01 | 1486353272.03381 | pgbench_tellers  |            49152
 2017-02-06 04:54:32.033815+01 | 1486353272.03381 | pgbench_history  |                0
 2017-02-06 04:54:32.033815+01 | 1486353272.03381 | pgbench_branches |             8192

 2017-02-06 04:54:33.133517+01 | 1486353273.13352 | pgbench_accounts |       1342955520
 2017-02-06 04:54:33.133517+01 | 1486353273.13352 | pgbench_tellers  |            49152
 2017-02-06 04:54:33.133517+01 | 1486353273.13352 | pgbench_history  |                0
 2017-02-06 04:54:33.133517+01 | 1486353273.13352 | pgbench_branches |             8192

 2017-02-06 04:54:34.230823+01 | 1486353274.23082 | pgbench_accounts |       1342955520
 2017-02-06 04:54:34.230823+01 | 1486353274.23082 | pgbench_tellers  |            49152
 2017-02-06 04:54:34.230823+01 | 1486353274.23082 | pgbench_history  |                0
 2017-02-06 04:54:34.230823+01 | 1486353274.23082 | pgbench_branches |             8192

 2017-02-06 04:54:35.323863+01 | 1486353275.32386 | pgbench_accounts |       1342955520
 2017-02-06 04:54:35.323863+01 | 1486353275.32386 | pgbench_tellers  |            49152
 2017-02-06 04:54:35.323863+01 | 1486353275.32386 | pgbench_history  |                0
 2017-02-06 04:54:35.323863+01 | 1486353275.32386 | pgbench_branches |             8192

 2017-02-06 04:54:36.439313+01 | 1486353276.43931 | pgbench_accounts |       1342955520
 2017-02-06 04:54:36.439313+01 | 1486353276.43931 | pgbench_tellers  |            49152
 2017-02-06 04:54:36.439313+01 | 1486353276.43931 | pgbench_history  |                0
 2017-02-06 04:54:36.439313+01 | 1486353276.43931 | pgbench_branches |             8192

 2017-02-06 04:54:37.542292+01 | 1486353277.54229 | pgbench_accounts |       1342955520
 2017-02-06 04:54:37.542292+01 | 1486353277.54229 | pgbench_tellers  |            49152
 2017-02-06 04:54:37.542292+01 | 1486353277.54229 | pgbench_history  |                0
 2017-02-06 04:54:37.542292+01 | 1486353277.54229 | pgbench_branches |             8192

 2017-02-06 04:54:38.641574+01 | 1486353278.64157 | pgbench_accounts |       1342955520
 2017-02-06 04:54:38.641574+01 | 1486353278.64157 | pgbench_tellers  |            49152
 2017-02-06 04:54:38.641574+01 | 1486353278.64157 | pgbench_history  |                0
 2017-02-06 04:54:38.641574+01 | 1486353278.64157 | pgbench_branches |             8192

 2017-02-06 04:54:39.751199+01 | 1486353279.7512 | pgbench_accounts |       1342955520
 2017-02-06 04:54:39.751199+01 | 1486353279.7512 | pgbench_tellers  |            49152
 2017-02-06 04:54:39.751199+01 | 1486353279.7512 | pgbench_history  |                0
 2017-02-06 04:54:39.751199+01 | 1486353279.7512 | pgbench_branches |             8192

 2017-02-06 04:54:40.844235+01 | 1486353280.84423 | pgbench_accounts |       1342955520
 2017-02-06 04:54:40.844235+01 | 1486353280.84423 | pgbench_tellers  |            49152
 2017-02-06 04:54:40.844235+01 | 1486353280.84423 | pgbench_history  |                0
 2017-02-06 04:54:40.844235+01 | 1486353280.84423 | pgbench_branches |             8192

 2017-02-06 04:54:41.9381+01 | 1486353281.9381 | pgbench_accounts |       1342955520
 2017-02-06 04:54:41.9381+01 | 1486353281.9381 | pgbench_tellers  |            49152
 2017-02-06 04:54:41.9381+01 | 1486353281.9381 | pgbench_history  |                0
 2017-02-06 04:54:41.9381+01 | 1486353281.9381 | pgbench_branches |             8192

 2017-02-06 04:54:43.027052+01 | 1486353283.02705 | pgbench_accounts |       1342955520
 2017-02-06 04:54:43.027052+01 | 1486353283.02705 | pgbench_tellers  |            49152
 2017-02-06 04:54:43.027052+01 | 1486353283.02705 | pgbench_history  |                0
 2017-02-06 04:54:43.027052+01 | 1486353283.02705 | pgbench_branches |             8192

 2017-02-06 04:54:44.126248+01 | 1486353284.12625 | pgbench_accounts |       1342955520
 2017-02-06 04:54:44.126248+01 | 1486353284.12625 | pgbench_tellers  |            49152
 2017-02-06 04:54:44.126248+01 | 1486353284.12625 | pgbench_history  |                0
 2017-02-06 04:54:44.126248+01 | 1486353284.12625 | pgbench_branches |             8192

 2017-02-06 04:54:45.21438+01 | 1486353285.21438 | pgbench_accounts |       1342955520
 2017-02-06 04:54:45.21438+01 | 1486353285.21438 | pgbench_tellers  |            49152
 2017-02-06 04:54:45.21438+01 | 1486353285.21438 | pgbench_history  |                0
 2017-02-06 04:54:45.21438+01 | 1486353285.21438 | pgbench_branches |             8192

 2017-02-06 04:54:46.297988+01 | 1486353286.29799 | pgbench_accounts |       1342955520
 2017-02-06 04:54:46.297988+01 | 1486353286.29799 | pgbench_tellers  |            49152
 2017-02-06 04:54:46.297988+01 | 1486353286.29799 | pgbench_history  |                0
 2017-02-06 04:54:46.297988+01 | 1486353286.29799 | pgbench_branches |             8192

 2017-02-06 04:54:47.415609+01 | 1486353287.41561 | pgbench_accounts |       1342955520
 2017-02-06 04:54:47.415609+01 | 1486353287.41561 | pgbench_tellers  |            49152
 2017-02-06 04:54:47.415609+01 | 1486353287.41561 | pgbench_history  |                0
 2017-02-06 04:54:47.415609+01 | 1486353287.41561 | pgbench_branches |             8192

 2017-02-06 04:54:48.516512+01 | 1486353288.51651 | pgbench_accounts |       1342955520
 2017-02-06 04:54:48.516512+01 | 1486353288.51651 | pgbench_tellers  |            49152
 2017-02-06 04:54:48.516512+01 | 1486353288.51651 | pgbench_history  |                0
 2017-02-06 04:54:48.516512+01 | 1486353288.51651 | pgbench_branches |             8192

 2017-02-06 04:54:49.622488+01 | 1486353289.62249 | pgbench_accounts |       1342955520
 2017-02-06 04:54:49.622488+01 | 1486353289.62249 | pgbench_tellers  |            49152
 2017-02-06 04:54:49.622488+01 | 1486353289.62249 | pgbench_history  |                0
 2017-02-06 04:54:49.622488+01 | 1486353289.62249 | pgbench_branches |             8192

 2017-02-06 04:54:50.716022+01 | 1486353290.71602 | pgbench_accounts |       1342955520
 2017-02-06 04:54:50.716022+01 | 1486353290.71602 | pgbench_tellers  |            49152
 2017-02-06 04:54:50.716022+01 | 1486353290.71602 | pgbench_history  |                0
 2017-02-06 04:54:50.716022+01 | 1486353290.71602 | pgbench_branches |             8192

 2017-02-06 04:54:51.814806+01 | 1486353291.81481 | pgbench_accounts |       1342955520
 2017-02-06 04:54:51.814806+01 | 1486353291.81481 | pgbench_tellers  |            49152
 2017-02-06 04:54:51.814806+01 | 1486353291.81481 | pgbench_history  |                0
 2017-02-06 04:54:51.814806+01 | 1486353291.81481 | pgbench_branches |             8192

 2017-02-06 04:54:52.919342+01 | 1486353292.91934 | pgbench_accounts |       1342955520
 2017-02-06 04:54:52.919342+01 | 1486353292.91934 | pgbench_tellers  |            49152
 2017-02-06 04:54:52.919342+01 | 1486353292.91934 | pgbench_history  |                0
 2017-02-06 04:54:52.919342+01 | 1486353292.91934 | pgbench_branches |             8192

 2017-02-06 04:54:54.010965+01 | 1486353294.01097 | pgbench_accounts |       1342955520
 2017-02-06 04:54:54.010965+01 | 1486353294.01097 | pgbench_tellers  |            49152
 2017-02-06 04:54:54.010965+01 | 1486353294.01097 | pgbench_history  |                0
 2017-02-06 04:54:54.010965+01 | 1486353294.01097 | pgbench_branches |             8192

 2017-02-06 04:54:55.111592+01 | 1486353295.11159 | pgbench_accounts |       1342955520
 2017-02-06 04:54:55.111592+01 | 1486353295.11159 | pgbench_tellers  |            49152
 2017-02-06 04:54:55.111592+01 | 1486353295.11159 | pgbench_history  |                0
 2017-02-06 04:54:55.111592+01 | 1486353295.11159 | pgbench_branches |             8192

 2017-02-06 04:54:56.202057+01 | 1486353296.20206 | pgbench_accounts |       1342955520
 2017-02-06 04:54:56.202057+01 | 1486353296.20206 | pgbench_tellers  |            49152
 2017-02-06 04:54:56.202057+01 | 1486353296.20206 | pgbench_history  |                0
 2017-02-06 04:54:56.202057+01 | 1486353296.20206 | pgbench_branches |             8192

 2017-02-06 04:54:57.290122+01 | 1486353297.29012 | pgbench_accounts |       1342955520
 2017-02-06 04:54:57.290122+01 | 1486353297.29012 | pgbench_tellers  |            49152
 2017-02-06 04:54:57.290122+01 | 1486353297.29012 | pgbench_history  |                0
 2017-02-06 04:54:57.290122+01 | 1486353297.29012 | pgbench_branches |             8192

 2017-02-06 04:54:58.386745+01 | 1486353298.38674 | pgbench_accounts |       1342955520
 2017-02-06 04:54:58.386745+01 | 1486353298.38674 | pgbench_tellers  |            49152
 2017-02-06 04:54:58.386745+01 | 1486353298.38674 | pgbench_history  |                0
 2017-02-06 04:54:58.386745+01 | 1486353298.38674 | pgbench_branches |             8192

 2017-02-06 04:54:59.491725+01 | 1486353299.49172 | pgbench_accounts |       1342955520
 2017-02-06 04:54:59.491725+01 | 1486353299.49172 | pgbench_tellers  |            49152
 2017-02-06 04:54:59.491725+01 | 1486353299.49172 | pgbench_history  |                0
 2017-02-06 04:54:59.491725+01 | 1486353299.49172 | pgbench_branches |             8192

 2017-02-06 04:55:00.600559+01 | 1486353300.60056 | pgbench_accounts |       1342955520
 2017-02-06 04:55:00.600559+01 | 1486353300.60056 | pgbench_tellers  |            49152
 2017-02-06 04:55:00.600559+01 | 1486353300.60056 | pgbench_history  |                0
 2017-02-06 04:55:00.600559+01 | 1486353300.60056 | pgbench_branches |             8192

 2017-02-06 04:55:01.705761+01 | 1486353301.70576 | pgbench_accounts |       1342955520
 2017-02-06 04:55:01.705761+01 | 1486353301.70576 | pgbench_tellers  |            49152
 2017-02-06 04:55:01.705761+01 | 1486353301.70576 | pgbench_history  |                0
 2017-02-06 04:55:01.705761+01 | 1486353301.70576 | pgbench_branches |             8192

 2017-02-06 04:55:02.804305+01 | 1486353302.80431 | pgbench_accounts |       1342955520
 2017-02-06 04:55:02.804305+01 | 1486353302.80431 | pgbench_tellers  |            49152
 2017-02-06 04:55:02.804305+01 | 1486353302.80431 | pgbench_history  |                0
 2017-02-06 04:55:02.804305+01 | 1486353302.80431 | pgbench_branches |             8192

 2017-02-06 04:55:03.89846+01 | 1486353303.89846 | pgbench_accounts |       1342955520
 2017-02-06 04:55:03.89846+01 | 1486353303.89846 | pgbench_tellers  |            49152
 2017-02-06 04:55:03.89846+01 | 1486353303.89846 | pgbench_history  |                0
 2017-02-06 04:55:03.89846+01 | 1486353303.89846 | pgbench_branches |             8192

 2017-02-06 04:55:05.006071+01 | 1486353305.00607 | pgbench_accounts |       1342955520
 2017-02-06 04:55:05.006071+01 | 1486353305.00607 | pgbench_tellers  |            49152
 2017-02-06 04:55:05.006071+01 | 1486353305.00607 | pgbench_history  |                0
 2017-02-06 04:55:05.006071+01 | 1486353305.00607 | pgbench_branches |             8192

 2017-02-06 04:55:06.106063+01 | 1486353306.10606 | pgbench_accounts |       1342955520
 2017-02-06 04:55:06.106063+01 | 1486353306.10606 | pgbench_tellers  |            49152
 2017-02-06 04:55:06.106063+01 | 1486353306.10606 | pgbench_history  |                0
 2017-02-06 04:55:06.106063+01 | 1486353306.10606 | pgbench_branches |             8192

 2017-02-06 04:55:07.189511+01 | 1486353307.18951 | pgbench_accounts |       1342955520
 2017-02-06 04:55:07.189511+01 | 1486353307.18951 | pgbench_tellers  |            49152
 2017-02-06 04:55:07.189511+01 | 1486353307.18951 | pgbench_history  |                0
 2017-02-06 04:55:07.189511+01 | 1486353307.18951 | pgbench_branches |             8192

 2017-02-06 04:55:08.275801+01 | 1486353308.2758 | pgbench_accounts |       1342955520
 2017-02-06 04:55:08.275801+01 | 1486353308.2758 | pgbench_tellers  |            49152
 2017-02-06 04:55:08.275801+01 | 1486353308.2758 | pgbench_history  |                0
 2017-02-06 04:55:08.275801+01 | 1486353308.2758 | pgbench_branches |             8192

 2017-02-06 04:55:09.363683+01 | 1486353309.36368 | pgbench_accounts |       1342955520
 2017-02-06 04:55:09.363683+01 | 1486353309.36368 | pgbench_tellers  |            49152
 2017-02-06 04:55:09.363683+01 | 1486353309.36368 | pgbench_history  |                0
 2017-02-06 04:55:09.363683+01 | 1486353309.36368 | pgbench_branches |             8192

 2017-02-06 04:55:10.453277+01 | 1486353310.45328 | pgbench_accounts |       1342955520
 2017-02-06 04:55:10.453277+01 | 1486353310.45328 | pgbench_tellers  |            49152
 2017-02-06 04:55:10.453277+01 | 1486353310.45328 | pgbench_history  |                0
 2017-02-06 04:55:10.453277+01 | 1486353310.45328 | pgbench_branches |             8192

 2017-02-06 04:55:11.55018+01 | 1486353311.55018 | pgbench_accounts |       1342955520
 2017-02-06 04:55:11.55018+01 | 1486353311.55018 | pgbench_tellers  |            49152
 2017-02-06 04:55:11.55018+01 | 1486353311.55018 | pgbench_history  |                0
 2017-02-06 04:55:11.55018+01 | 1486353311.55018 | pgbench_branches |             8192

 2017-02-06 04:55:12.655145+01 | 1486353312.65514 | pgbench_accounts |       1342955520
 2017-02-06 04:55:12.655145+01 | 1486353312.65514 | pgbench_tellers  |            49152
 2017-02-06 04:55:12.655145+01 | 1486353312.65514 | pgbench_history  |                0
 2017-02-06 04:55:12.655145+01 | 1486353312.65514 | pgbench_branches |             8192

 2017-02-06 04:55:13.751748+01 | 1486353313.75175 | pgbench_accounts |       1342955520
 2017-02-06 04:55:13.751748+01 | 1486353313.75175 | pgbench_tellers  |            49152
 2017-02-06 04:55:13.751748+01 | 1486353313.75175 | pgbench_history  |                0
 2017-02-06 04:55:13.751748+01 | 1486353313.75175 | pgbench_branches |             8192

 2017-02-06 04:55:14.847561+01 | 1486353314.84756 | pgbench_accounts |       1342955520
 2017-02-06 04:55:14.847561+01 | 1486353314.84756 | pgbench_tellers  |            49152
 2017-02-06 04:55:14.847561+01 | 1486353314.84756 | pgbench_history  |                0
 2017-02-06 04:55:14.847561+01 | 1486353314.84756 | pgbench_branches |             8192

 2017-02-06 04:55:15.958278+01 | 1486353315.95828 | pgbench_accounts |       1342955520
 2017-02-06 04:55:15.958278+01 | 1486353315.95828 | pgbench_tellers  |            49152
 2017-02-06 04:55:15.958278+01 | 1486353315.95828 | pgbench_history  |                0
 2017-02-06 04:55:15.958278+01 | 1486353315.95828 | pgbench_branches |             8192

 2017-02-06 04:55:17.065905+01 | 1486353317.06591 | pgbench_accounts |       1342955520
 2017-02-06 04:55:17.065905+01 | 1486353317.06591 | pgbench_tellers  |            49152
 2017-02-06 04:55:17.065905+01 | 1486353317.06591 | pgbench_history  |                0
 2017-02-06 04:55:17.065905+01 | 1486353317.06591 | pgbench_branches |             8192

 2017-02-06 04:55:18.162659+01 | 1486353318.16266 | pgbench_accounts |       1342955520
 2017-02-06 04:55:18.162659+01 | 1486353318.16266 | pgbench_tellers  |            49152
 2017-02-06 04:55:18.162659+01 | 1486353318.16266 | pgbench_history  |                0
 2017-02-06 04:55:18.162659+01 | 1486353318.16266 | pgbench_branches |             8192

 2017-02-06 04:55:19.260645+01 | 1486353319.26064 | pgbench_accounts |       1342955520
 2017-02-06 04:55:19.260645+01 | 1486353319.26064 | pgbench_tellers  |            49152
 2017-02-06 04:55:19.260645+01 | 1486353319.26064 | pgbench_history  |                0
 2017-02-06 04:55:19.260645+01 | 1486353319.26064 | pgbench_branches |             8192

 2017-02-06 04:55:20.355607+01 | 1486353320.35561 | pgbench_accounts |       1342955520
 2017-02-06 04:55:20.355607+01 | 1486353320.35561 | pgbench_tellers  |            49152
 2017-02-06 04:55:20.355607+01 | 1486353320.35561 | pgbench_history  |                0
 2017-02-06 04:55:20.355607+01 | 1486353320.35561 | pgbench_branches |             8192

 2017-02-06 04:55:21.459179+01 | 1486353321.45918 | pgbench_accounts |       1342955520
 2017-02-06 04:55:21.459179+01 | 1486353321.45918 | pgbench_tellers  |            49152
 2017-02-06 04:55:21.459179+01 | 1486353321.45918 | pgbench_history  |                0
 2017-02-06 04:55:21.459179+01 | 1486353321.45918 | pgbench_branches |             8192

 2017-02-06 04:55:22.556503+01 | 1486353322.5565 | pgbench_accounts |       1342955520
 2017-02-06 04:55:22.556503+01 | 1486353322.5565 | pgbench_tellers  |            49152
 2017-02-06 04:55:22.556503+01 | 1486353322.5565 | pgbench_history  |                0
 2017-02-06 04:55:22.556503+01 | 1486353322.5565 | pgbench_branches |             8192

 2017-02-06 04:55:23.638943+01 | 1486353323.63894 | pgbench_accounts |       1342955520
 2017-02-06 04:55:23.638943+01 | 1486353323.63894 | pgbench_tellers  |            49152
 2017-02-06 04:55:23.638943+01 | 1486353323.63894 | pgbench_history  |                0
 2017-02-06 04:55:23.638943+01 | 1486353323.63894 | pgbench_branches |             8192

 2017-02-06 04:55:24.741148+01 | 1486353324.74115 | pgbench_accounts |       1342955520
 2017-02-06 04:55:24.741148+01 | 1486353324.74115 | pgbench_tellers  |            49152
 2017-02-06 04:55:24.741148+01 | 1486353324.74115 | pgbench_history  |                0
 2017-02-06 04:55:24.741148+01 | 1486353324.74115 | pgbench_branches |             8192

 2017-02-06 04:55:25.864477+01 | 1486353325.86448 | pgbench_accounts |       1342955520
 2017-02-06 04:55:25.864477+01 | 1486353325.86448 | pgbench_tellers  |            49152
 2017-02-06 04:55:25.864477+01 | 1486353325.86448 | pgbench_history  |                0
 2017-02-06 04:55:25.864477+01 | 1486353325.86448 | pgbench_branches |             8192

 2017-02-06 04:55:26.964485+01 | 1486353326.96448 | pgbench_accounts |       1342955520
 2017-02-06 04:55:26.964485+01 | 1486353326.96448 | pgbench_tellers  |            49152
 2017-02-06 04:55:26.964485+01 | 1486353326.96448 | pgbench_history  |                0
 2017-02-06 04:55:26.964485+01 | 1486353326.96448 | pgbench_branches |             8192

 2017-02-06 04:55:28.050351+01 | 1486353328.05035 | pgbench_accounts |       1342955520
 2017-02-06 04:55:28.050351+01 | 1486353328.05035 | pgbench_tellers  |            49152
 2017-02-06 04:55:28.050351+01 | 1486353328.05035 | pgbench_history  |                0
 2017-02-06 04:55:28.050351+01 | 1486353328.05035 | pgbench_branches |             8192

 2017-02-06 04:55:29.144617+01 | 1486353329.14462 | pgbench_accounts |       1342955520
 2017-02-06 04:55:29.144617+01 | 1486353329.14462 | pgbench_tellers  |            49152
 2017-02-06 04:55:29.144617+01 | 1486353329.14462 | pgbench_history  |                0
 2017-02-06 04:55:29.144617+01 | 1486353329.14462 | pgbench_branches |             8192

 2017-02-06 04:55:30.238653+01 | 1486353330.23865 | pgbench_accounts |       1342955520
 2017-02-06 04:55:30.238653+01 | 1486353330.23865 | pgbench_tellers  |            49152
 2017-02-06 04:55:30.238653+01 | 1486353330.23865 | pgbench_history  |                0
 2017-02-06 04:55:30.238653+01 | 1486353330.23865 | pgbench_branches |             8192

 2017-02-06 04:55:31.327127+01 | 1486353331.32713 | pgbench_accounts |       1342955520
 2017-02-06 04:55:31.327127+01 | 1486353331.32713 | pgbench_tellers  |            49152
 2017-02-06 04:55:31.327127+01 | 1486353331.32713 | pgbench_history  |                0
 2017-02-06 04:55:31.327127+01 | 1486353331.32713 | pgbench_branches |             8192

 2017-02-06 04:55:32.421402+01 | 1486353332.4214 | pgbench_accounts |       1342955520
 2017-02-06 04:55:32.421402+01 | 1486353332.4214 | pgbench_tellers  |            49152
 2017-02-06 04:55:32.421402+01 | 1486353332.4214 | pgbench_history  |                0
 2017-02-06 04:55:32.421402+01 | 1486353332.4214 | pgbench_branches |             8192

 2017-02-06 04:55:33.507139+01 | 1486353333.50714 | pgbench_accounts |       1342955520
 2017-02-06 04:55:33.507139+01 | 1486353333.50714 | pgbench_tellers  |            49152
 2017-02-06 04:55:33.507139+01 | 1486353333.50714 | pgbench_history  |                0
 2017-02-06 04:55:33.507139+01 | 1486353333.50714 | pgbench_branches |             8192

 2017-02-06 04:55:34.597304+01 | 1486353334.5973 | pgbench_accounts |       1342955520
 2017-02-06 04:55:34.597304+01 | 1486353334.5973 | pgbench_tellers  |            49152
 2017-02-06 04:55:34.597304+01 | 1486353334.5973 | pgbench_history  |                0
 2017-02-06 04:55:34.597304+01 | 1486353334.5973 | pgbench_branches |             8192

 2017-02-06 04:55:35.694934+01 | 1486353335.69493 | pgbench_accounts |       1342955520
 2017-02-06 04:55:35.694934+01 | 1486353335.69493 | pgbench_tellers  |            49152
 2017-02-06 04:55:35.694934+01 | 1486353335.69493 | pgbench_history  |                0
 2017-02-06 04:55:35.694934+01 | 1486353335.69493 | pgbench_branches |             8192

 2017-02-06 04:55:36.794818+01 | 1486353336.79482 | pgbench_accounts |       1342955520
 2017-02-06 04:55:36.794818+01 | 1486353336.79482 | pgbench_tellers  |            49152
 2017-02-06 04:55:36.794818+01 | 1486353336.79482 | pgbench_history  |                0
 2017-02-06 04:55:36.794818+01 | 1486353336.79482 | pgbench_branches |             8192

 2017-02-06 04:55:37.896652+01 | 1486353337.89665 | pgbench_accounts |       1342955520
 2017-02-06 04:55:37.896652+01 | 1486353337.89665 | pgbench_tellers  |            49152
 2017-02-06 04:55:37.896652+01 | 1486353337.89665 | pgbench_history  |                0
 2017-02-06 04:55:37.896652+01 | 1486353337.89665 | pgbench_branches |             8192

 2017-02-06 04:55:39.008024+01 | 1486353339.00802 | pgbench_accounts |       1342955520
 2017-02-06 04:55:39.008024+01 | 1486353339.00802 | pgbench_tellers  |            49152
 2017-02-06 04:55:39.008024+01 | 1486353339.00802 | pgbench_history  |                0
 2017-02-06 04:55:39.008024+01 | 1486353339.00802 | pgbench_branches |             8192

 2017-02-06 04:55:40.109081+01 | 1486353340.10908 | pgbench_accounts |       1342955520
 2017-02-06 04:55:40.109081+01 | 1486353340.10908 | pgbench_tellers  |            49152
 2017-02-06 04:55:40.109081+01 | 1486353340.10908 | pgbench_history  |                0
 2017-02-06 04:55:40.109081+01 | 1486353340.10908 | pgbench_branches |             8192

 2017-02-06 04:55:41.211389+01 | 1486353341.21139 | pgbench_accounts |       1342955520
 2017-02-06 04:55:41.211389+01 | 1486353341.21139 | pgbench_tellers  |            49152
 2017-02-06 04:55:41.211389+01 | 1486353341.21139 | pgbench_history  |                0
 2017-02-06 04:55:41.211389+01 | 1486353341.21139 | pgbench_branches |             8192

 2017-02-06 04:55:42.296737+01 | 1486353342.29674 | pgbench_accounts |       1342955520
 2017-02-06 04:55:42.296737+01 | 1486353342.29674 | pgbench_tellers  |            49152
 2017-02-06 04:55:42.296737+01 | 1486353342.29674 | pgbench_history  |                0
 2017-02-06 04:55:42.296737+01 | 1486353342.29674 | pgbench_branches |             8192

 2017-02-06 04:55:43.391507+01 | 1486353343.39151 | pgbench_accounts |       1342955520
 2017-02-06 04:55:43.391507+01 | 1486353343.39151 | pgbench_tellers  |            49152
 2017-02-06 04:55:43.391507+01 | 1486353343.39151 | pgbench_history  |                0
 2017-02-06 04:55:43.391507+01 | 1486353343.39151 | pgbench_branches |             8192

 2017-02-06 04:55:44.481725+01 | 1486353344.48172 | pgbench_accounts |       1342955520
 2017-02-06 04:55:44.481725+01 | 1486353344.48172 | pgbench_tellers  |            49152
 2017-02-06 04:55:44.481725+01 | 1486353344.48172 | pgbench_history  |                0
 2017-02-06 04:55:44.481725+01 | 1486353344.48172 | pgbench_branches |             8192

 2017-02-06 04:55:45.57201+01 | 1486353345.57201 | pgbench_accounts |       1342955520
 2017-02-06 04:55:45.57201+01 | 1486353345.57201 | pgbench_tellers  |            49152
 2017-02-06 04:55:45.57201+01 | 1486353345.57201 | pgbench_history  |                0
 2017-02-06 04:55:45.57201+01 | 1486353345.57201 | pgbench_branches |             8192

 2017-02-06 04:55:46.664923+01 | 1486353346.66492 | pgbench_accounts |       1342955520
 2017-02-06 04:55:46.664923+01 | 1486353346.66492 | pgbench_tellers  |            49152
 2017-02-06 04:55:46.664923+01 | 1486353346.66492 | pgbench_history  |                0
 2017-02-06 04:55:46.664923+01 | 1486353346.66492 | pgbench_branches |             8192

 2017-02-06 04:55:47.76993+01 | 1486353347.76993 | pgbench_accounts |       1342955520
 2017-02-06 04:55:47.76993+01 | 1486353347.76993 | pgbench_tellers  |            49152
 2017-02-06 04:55:47.76993+01 | 1486353347.76993 | pgbench_history  |                0
 2017-02-06 04:55:47.76993+01 | 1486353347.76993 | pgbench_branches |             8192

 2017-02-06 04:55:48.86128+01 | 1486353348.86128 | pgbench_accounts |       1342955520
 2017-02-06 04:55:48.86128+01 | 1486353348.86128 | pgbench_tellers  |            49152
 2017-02-06 04:55:48.86128+01 | 1486353348.86128 | pgbench_history  |                0
 2017-02-06 04:55:48.86128+01 | 1486353348.86128 | pgbench_branches |             8192

 2017-02-06 04:55:49.95893+01 | 1486353349.95893 | pgbench_accounts |       1342955520
 2017-02-06 04:55:49.95893+01 | 1486353349.95893 | pgbench_tellers  |            49152
 2017-02-06 04:55:49.95893+01 | 1486353349.95893 | pgbench_history  |                0
 2017-02-06 04:55:49.95893+01 | 1486353349.95893 | pgbench_branches |             8192

 2017-02-06 04:55:51.065389+01 | 1486353351.06539 | pgbench_accounts |       1342955520
 2017-02-06 04:55:51.065389+01 | 1486353351.06539 | pgbench_tellers  |            49152
 2017-02-06 04:55:51.065389+01 | 1486353351.06539 | pgbench_history  |                0
 2017-02-06 04:55:51.065389+01 | 1486353351.06539 | pgbench_branches |             8192

 2017-02-06 04:55:52.186383+01 | 1486353352.18638 | pgbench_accounts |       1342955520
 2017-02-06 04:55:52.186383+01 | 1486353352.18638 | pgbench_tellers  |            49152
 2017-02-06 04:55:52.186383+01 | 1486353352.18638 | pgbench_history  |                0
 2017-02-06 04:55:52.186383+01 | 1486353352.18638 | pgbench_branches |             8192

 2017-02-06 04:55:53.297883+01 | 1486353353.29788 | pgbench_accounts |       1342955520
 2017-02-06 04:55:53.297883+01 | 1486353353.29788 | pgbench_tellers  |            49152
 2017-02-06 04:55:53.297883+01 | 1486353353.29788 | pgbench_history  |                0
 2017-02-06 04:55:53.297883+01 | 1486353353.29788 | pgbench_branches |             8192

 2017-02-06 04:55:54.386447+01 | 1486353354.38645 | pgbench_accounts |       1342955520
 2017-02-06 04:55:54.386447+01 | 1486353354.38645 | pgbench_tellers  |            49152
 2017-02-06 04:55:54.386447+01 | 1486353354.38645 | pgbench_history  |                0
 2017-02-06 04:55:54.386447+01 | 1486353354.38645 | pgbench_branches |             8192

 2017-02-06 04:55:55.479099+01 | 1486353355.4791 | pgbench_accounts |       1342955520
 2017-02-06 04:55:55.479099+01 | 1486353355.4791 | pgbench_tellers  |            49152
 2017-02-06 04:55:55.479099+01 | 1486353355.4791 | pgbench_history  |                0
 2017-02-06 04:55:55.479099+01 | 1486353355.4791 | pgbench_branches |             8192

 2017-02-06 04:55:56.577817+01 | 1486353356.57782 | pgbench_accounts |       1342955520
 2017-02-06 04:55:56.577817+01 | 1486353356.57782 | pgbench_tellers  |            49152
 2017-02-06 04:55:56.577817+01 | 1486353356.57782 | pgbench_history  |                0
 2017-02-06 04:55:56.577817+01 | 1486353356.57782 | pgbench_branches |             8192

 2017-02-06 04:55:57.680366+01 | 1486353357.68037 | pgbench_accounts |       1342955520
 2017-02-06 04:55:57.680366+01 | 1486353357.68037 | pgbench_tellers  |            49152
 2017-02-06 04:55:57.680366+01 | 1486353357.68037 | pgbench_history  |                0
 2017-02-06 04:55:57.680366+01 | 1486353357.68037 | pgbench_branches |             8192

 2017-02-06 04:55:58.775818+01 | 1486353358.77582 | pgbench_accounts |       1342955520
 2017-02-06 04:55:58.775818+01 | 1486353358.77582 | pgbench_tellers  |            49152
 2017-02-06 04:55:58.775818+01 | 1486353358.77582 | pgbench_history  |                0
 2017-02-06 04:55:58.775818+01 | 1486353358.77582 | pgbench_branches |             8192

 2017-02-06 04:55:59.863443+01 | 1486353359.86344 | pgbench_accounts |       1342955520
 2017-02-06 04:55:59.863443+01 | 1486353359.86344 | pgbench_tellers  |            49152
 2017-02-06 04:55:59.863443+01 | 1486353359.86344 | pgbench_history  |                0
 2017-02-06 04:55:59.863443+01 | 1486353359.86344 | pgbench_branches |             8192

 2017-02-06 04:56:00.964255+01 | 1486353360.96426 | pgbench_accounts |       1342955520
 2017-02-06 04:56:00.964255+01 | 1486353360.96426 | pgbench_tellers  |            49152
 2017-02-06 04:56:00.964255+01 | 1486353360.96426 | pgbench_history  |                0
 2017-02-06 04:56:00.964255+01 | 1486353360.96426 | pgbench_branches |             8192

 2017-02-06 04:56:02.078584+01 | 1486353362.07858 | pgbench_accounts |       1342955520
 2017-02-06 04:56:02.078584+01 | 1486353362.07858 | pgbench_tellers  |            49152
 2017-02-06 04:56:02.078584+01 | 1486353362.07858 | pgbench_history  |                0
 2017-02-06 04:56:02.078584+01 | 1486353362.07858 | pgbench_branches |             8192

 2017-02-06 04:56:03.19215+01 | 1486353363.19215 | pgbench_accounts |       1342955520
 2017-02-06 04:56:03.19215+01 | 1486353363.19215 | pgbench_tellers  |            49152
 2017-02-06 04:56:03.19215+01 | 1486353363.19215 | pgbench_history  |                0
 2017-02-06 04:56:03.19215+01 | 1486353363.19215 | pgbench_branches |             8192

 2017-02-06 04:56:04.286646+01 | 1486353364.28665 | pgbench_accounts |       1342955520
 2017-02-06 04:56:04.286646+01 | 1486353364.28665 | pgbench_tellers  |            49152
 2017-02-06 04:56:04.286646+01 | 1486353364.28665 | pgbench_history  |                0
 2017-02-06 04:56:04.286646+01 | 1486353364.28665 | pgbench_branches |             8192

 2017-02-06 04:56:05.39065+01 | 1486353365.39065 | pgbench_accounts |       1342955520
 2017-02-06 04:56:05.39065+01 | 1486353365.39065 | pgbench_tellers  |            49152
 2017-02-06 04:56:05.39065+01 | 1486353365.39065 | pgbench_history  |                0
 2017-02-06 04:56:05.39065+01 | 1486353365.39065 | pgbench_branches |             8192

 2017-02-06 04:56:06.480707+01 | 1486353366.48071 | pgbench_accounts |       1342955520
 2017-02-06 04:56:06.480707+01 | 1486353366.48071 | pgbench_tellers  |            49152
 2017-02-06 04:56:06.480707+01 | 1486353366.48071 | pgbench_history  |                0
 2017-02-06 04:56:06.480707+01 | 1486353366.48071 | pgbench_branches |             8192

 2017-02-06 04:56:07.57197+01 | 1486353367.57197 | pgbench_accounts |       1342955520
 2017-02-06 04:56:07.57197+01 | 1486353367.57197 | pgbench_tellers  |            49152
 2017-02-06 04:56:07.57197+01 | 1486353367.57197 | pgbench_history  |                0
 2017-02-06 04:56:07.57197+01 | 1486353367.57197 | pgbench_branches |             8192

 2017-02-06 04:56:08.673737+01 | 1486353368.67374 | pgbench_accounts |       1342955520
 2017-02-06 04:56:08.673737+01 | 1486353368.67374 | pgbench_tellers  |            49152
 2017-02-06 04:56:08.673737+01 | 1486353368.67374 | pgbench_history  |                0
 2017-02-06 04:56:08.673737+01 | 1486353368.67374 | pgbench_branches |             8192

 2017-02-06 04:56:09.77275+01 | 1486353369.77275 | pgbench_accounts |       1342955520
 2017-02-06 04:56:09.77275+01 | 1486353369.77275 | pgbench_tellers  |            49152
 2017-02-06 04:56:09.77275+01 | 1486353369.77275 | pgbench_history  |                0
 2017-02-06 04:56:09.77275+01 | 1486353369.77275 | pgbench_branches |             8192

 2017-02-06 04:56:10.875196+01 | 1486353370.8752 | pgbench_accounts |       1342955520
 2017-02-06 04:56:10.875196+01 | 1486353370.8752 | pgbench_tellers  |            49152
 2017-02-06 04:56:10.875196+01 | 1486353370.8752 | pgbench_history  |                0
 2017-02-06 04:56:10.875196+01 | 1486353370.8752 | pgbench_branches |             8192

 2017-02-06 04:56:11.97716+01 | 1486353371.97716 | pgbench_accounts |       1342955520
 2017-02-06 04:56:11.97716+01 | 1486353371.97716 | pgbench_tellers  |            49152
 2017-02-06 04:56:11.97716+01 | 1486353371.97716 | pgbench_history  |                0
 2017-02-06 04:56:11.97716+01 | 1486353371.97716 | pgbench_branches |             8192

 2017-02-06 04:56:13.093067+01 | 1486353373.09307 | pgbench_accounts |       1342955520
 2017-02-06 04:56:13.093067+01 | 1486353373.09307 | pgbench_tellers  |            49152
 2017-02-06 04:56:13.093067+01 | 1486353373.09307 | pgbench_history  |                0
 2017-02-06 04:56:13.093067+01 | 1486353373.09307 | pgbench_branches |             8192

 2017-02-06 04:56:14.207456+01 | 1486353374.20746 | pgbench_accounts |       1342955520
 2017-02-06 04:56:14.207456+01 | 1486353374.20746 | pgbench_tellers  |            49152
 2017-02-06 04:56:14.207456+01 | 1486353374.20746 | pgbench_history  |                0
 2017-02-06 04:56:14.207456+01 | 1486353374.20746 | pgbench_branches |             8192

 2017-02-06 04:56:15.316267+01 | 1486353375.31627 | pgbench_accounts |       1342955520
 2017-02-06 04:56:15.316267+01 | 1486353375.31627 | pgbench_tellers  |            49152
 2017-02-06 04:56:15.316267+01 | 1486353375.31627 | pgbench_history  |                0
 2017-02-06 04:56:15.316267+01 | 1486353375.31627 | pgbench_branches |             8192

 2017-02-06 04:56:16.402776+01 | 1486353376.40278 | pgbench_accounts |       1342955520
 2017-02-06 04:56:16.402776+01 | 1486353376.40278 | pgbench_tellers  |            49152
 2017-02-06 04:56:16.402776+01 | 1486353376.40278 | pgbench_history  |                0
 2017-02-06 04:56:16.402776+01 | 1486353376.40278 | pgbench_branches |             8192

 2017-02-06 04:56:17.486422+01 | 1486353377.48642 | pgbench_accounts |       1342955520
 2017-02-06 04:56:17.486422+01 | 1486353377.48642 | pgbench_tellers  |            49152
 2017-02-06 04:56:17.486422+01 | 1486353377.48642 | pgbench_history  |                0
 2017-02-06 04:56:17.486422+01 | 1486353377.48642 | pgbench_branches |             8192

 2017-02-06 04:56:18.579452+01 | 1486353378.57945 | pgbench_accounts |       1342955520
 2017-02-06 04:56:18.579452+01 | 1486353378.57945 | pgbench_tellers  |            49152
 2017-02-06 04:56:18.579452+01 | 1486353378.57945 | pgbench_history  |                0
 2017-02-06 04:56:18.579452+01 | 1486353378.57945 | pgbench_branches |             8192

 2017-02-06 04:56:19.670108+01 | 1486353379.67011 | pgbench_accounts |       1342955520
 2017-02-06 04:56:19.670108+01 | 1486353379.67011 | pgbench_tellers  |            49152
 2017-02-06 04:56:19.670108+01 | 1486353379.67011 | pgbench_history  |                0
 2017-02-06 04:56:19.670108+01 | 1486353379.67011 | pgbench_branches |             8192

 2017-02-06 04:56:20.763153+01 | 1486353380.76315 | pgbench_accounts |       1342955520
 2017-02-06 04:56:20.763153+01 | 1486353380.76315 | pgbench_tellers  |            49152
 2017-02-06 04:56:20.763153+01 | 1486353380.76315 | pgbench_history  |                0
 2017-02-06 04:56:20.763153+01 | 1486353380.76315 | pgbench_branches |             8192

 2017-02-06 04:56:21.874037+01 | 1486353381.87404 | pgbench_accounts |       1342955520
 2017-02-06 04:56:21.874037+01 | 1486353381.87404 | pgbench_tellers  |            49152
 2017-02-06 04:56:21.874037+01 | 1486353381.87404 | pgbench_history  |                0
 2017-02-06 04:56:21.874037+01 | 1486353381.87404 | pgbench_branches |             8192

 2017-02-06 04:56:22.966166+01 | 1486353382.96617 | pgbench_accounts |       1342955520
 2017-02-06 04:56:22.966166+01 | 1486353382.96617 | pgbench_tellers  |            49152
 2017-02-06 04:56:22.966166+01 | 1486353382.96617 | pgbench_history  |                0
 2017-02-06 04:56:22.966166+01 | 1486353382.96617 | pgbench_branches |             8192

 2017-02-06 04:56:24.06142+01 | 1486353384.06142 | pgbench_accounts |       1342955520
 2017-02-06 04:56:24.06142+01 | 1486353384.06142 | pgbench_tellers  |            49152
 2017-02-06 04:56:24.06142+01 | 1486353384.06142 | pgbench_history  |                0
 2017-02-06 04:56:24.06142+01 | 1486353384.06142 | pgbench_branches |             8192

 2017-02-06 04:56:25.15731+01 | 1486353385.15731 | pgbench_accounts |       1342955520
 2017-02-06 04:56:25.15731+01 | 1486353385.15731 | pgbench_tellers  |            49152
 2017-02-06 04:56:25.15731+01 | 1486353385.15731 | pgbench_history  |                0
 2017-02-06 04:56:25.15731+01 | 1486353385.15731 | pgbench_branches |             8192

 2017-02-06 04:56:26.252136+01 | 1486353386.25214 | pgbench_accounts |       1342955520
 2017-02-06 04:56:26.252136+01 | 1486353386.25214 | pgbench_tellers  |            49152
 2017-02-06 04:56:26.252136+01 | 1486353386.25214 | pgbench_history  |                0
 2017-02-06 04:56:26.252136+01 | 1486353386.25214 | pgbench_branches |             8192

 2017-02-06 04:56:27.355155+01 | 1486353387.35515 | pgbench_accounts |       1342955520
 2017-02-06 04:56:27.355155+01 | 1486353387.35515 | pgbench_tellers  |            49152
 2017-02-06 04:56:27.355155+01 | 1486353387.35515 | pgbench_history  |                0
 2017-02-06 04:56:27.355155+01 | 1486353387.35515 | pgbench_branches |             8192

 2017-02-06 04:56:28.444821+01 | 1486353388.44482 | pgbench_accounts |       1342955520
 2017-02-06 04:56:28.444821+01 | 1486353388.44482 | pgbench_tellers  |            49152
 2017-02-06 04:56:28.444821+01 | 1486353388.44482 | pgbench_history  |                0
 2017-02-06 04:56:28.444821+01 | 1486353388.44482 | pgbench_branches |             8192

 2017-02-06 04:56:29.544634+01 | 1486353389.54463 | pgbench_accounts |       1342955520
 2017-02-06 04:56:29.544634+01 | 1486353389.54463 | pgbench_tellers  |            49152
 2017-02-06 04:56:29.544634+01 | 1486353389.54463 | pgbench_history  |                0
 2017-02-06 04:56:29.544634+01 | 1486353389.54463 | pgbench_branches |             8192

 2017-02-06 04:56:30.639598+01 | 1486353390.6396 | pgbench_accounts |       1342955520
 2017-02-06 04:56:30.639598+01 | 1486353390.6396 | pgbench_tellers  |            49152
 2017-02-06 04:56:30.639598+01 | 1486353390.6396 | pgbench_history  |                0
 2017-02-06 04:56:30.639598+01 | 1486353390.6396 | pgbench_branches |             8192

 2017-02-06 04:56:31.727545+01 | 1486353391.72755 | pgbench_accounts |       1342955520
 2017-02-06 04:56:31.727545+01 | 1486353391.72755 | pgbench_tellers  |            49152
 2017-02-06 04:56:31.727545+01 | 1486353391.72755 | pgbench_history  |                0
 2017-02-06 04:56:31.727545+01 | 1486353391.72755 | pgbench_branches |             8192

 2017-02-06 04:56:32.830571+01 | 1486353392.83057 | pgbench_accounts |       1342955520
 2017-02-06 04:56:32.830571+01 | 1486353392.83057 | pgbench_tellers  |            49152
 2017-02-06 04:56:32.830571+01 | 1486353392.83057 | pgbench_history  |                0
 2017-02-06 04:56:32.830571+01 | 1486353392.83057 | pgbench_branches |             8192

 2017-02-06 04:56:33.927426+01 | 1486353393.92743 | pgbench_accounts |       1342955520
 2017-02-06 04:56:33.927426+01 | 1486353393.92743 | pgbench_tellers  |            49152
 2017-02-06 04:56:33.927426+01 | 1486353393.92743 | pgbench_history  |                0
 2017-02-06 04:56:33.927426+01 | 1486353393.92743 | pgbench_branches |             8192

 2017-02-06 04:56:35.024721+01 | 1486353395.02472 | pgbench_accounts |       1342955520
 2017-02-06 04:56:35.024721+01 | 1486353395.02472 | pgbench_tellers  |            49152
 2017-02-06 04:56:35.024721+01 | 1486353395.02472 | pgbench_history  |                0
 2017-02-06 04:56:35.024721+01 | 1486353395.02472 | pgbench_branches |             8192

 2017-02-06 04:56:36.125025+01 | 1486353396.12503 | pgbench_accounts |       1342955520
 2017-02-06 04:56:36.125025+01 | 1486353396.12503 | pgbench_tellers  |            49152
 2017-02-06 04:56:36.125025+01 | 1486353396.12503 | pgbench_history  |                0
 2017-02-06 04:56:36.125025+01 | 1486353396.12503 | pgbench_branches |             8192

 2017-02-06 04:56:37.228892+01 | 1486353397.22889 | pgbench_accounts |       1342955520
 2017-02-06 04:56:37.228892+01 | 1486353397.22889 | pgbench_tellers  |            49152
 2017-02-06 04:56:37.228892+01 | 1486353397.22889 | pgbench_history  |                0
 2017-02-06 04:56:37.228892+01 | 1486353397.22889 | pgbench_branches |             8192

 2017-02-06 04:56:38.3332+01 | 1486353398.3332 | pgbench_accounts |       1342955520
 2017-02-06 04:56:38.3332+01 | 1486353398.3332 | pgbench_tellers  |            49152
 2017-02-06 04:56:38.3332+01 | 1486353398.3332 | pgbench_history  |                0
 2017-02-06 04:56:38.3332+01 | 1486353398.3332 | pgbench_branches |             8192

 2017-02-06 04:56:39.434862+01 | 1486353399.43486 | pgbench_accounts |       1342955520
 2017-02-06 04:56:39.434862+01 | 1486353399.43486 | pgbench_tellers  |            49152
 2017-02-06 04:56:39.434862+01 | 1486353399.43486 | pgbench_history  |                0
 2017-02-06 04:56:39.434862+01 | 1486353399.43486 | pgbench_branches |             8192

 2017-02-06 04:56:40.525655+01 | 1486353400.52566 | pgbench_accounts |       1342955520
 2017-02-06 04:56:40.525655+01 | 1486353400.52566 | pgbench_tellers  |            49152
 2017-02-06 04:56:40.525655+01 | 1486353400.52566 | pgbench_history  |                0
 2017-02-06 04:56:40.525655+01 | 1486353400.52566 | pgbench_branches |             8192

 2017-02-06 04:56:41.626596+01 | 1486353401.6266 | pgbench_accounts |       1342955520
 2017-02-06 04:56:41.626596+01 | 1486353401.6266 | pgbench_tellers  |            49152
 2017-02-06 04:56:41.626596+01 | 1486353401.6266 | pgbench_history  |                0
 2017-02-06 04:56:41.626596+01 | 1486353401.6266 | pgbench_branches |             8192

 2017-02-06 04:56:42.716619+01 | 1486353402.71662 | pgbench_accounts |       1342955520
 2017-02-06 04:56:42.716619+01 | 1486353402.71662 | pgbench_tellers  |            49152
 2017-02-06 04:56:42.716619+01 | 1486353402.71662 | pgbench_history  |                0
 2017-02-06 04:56:42.716619+01 | 1486353402.71662 | pgbench_branches |             8192

 2017-02-06 04:56:43.810044+01 | 1486353403.81004 | pgbench_accounts |       1342955520
 2017-02-06 04:56:43.810044+01 | 1486353403.81004 | pgbench_tellers  |            49152
 2017-02-06 04:56:43.810044+01 | 1486353403.81004 | pgbench_history  |                0
 2017-02-06 04:56:43.810044+01 | 1486353403.81004 | pgbench_branches |             8192

 2017-02-06 04:56:44.902374+01 | 1486353404.90237 | pgbench_accounts |       1342955520
 2017-02-06 04:56:44.902374+01 | 1486353404.90237 | pgbench_tellers  |            49152
 2017-02-06 04:56:44.902374+01 | 1486353404.90237 | pgbench_history  |                0
 2017-02-06 04:56:44.902374+01 | 1486353404.90237 | pgbench_branches |             8192

 2017-02-06 04:56:46.002154+01 | 1486353406.00215 | pgbench_accounts |       1342955520
 2017-02-06 04:56:46.002154+01 | 1486353406.00215 | pgbench_tellers  |            49152
 2017-02-06 04:56:46.002154+01 | 1486353406.00215 | pgbench_history  |                0
 2017-02-06 04:56:46.002154+01 | 1486353406.00215 | pgbench_branches |             8192

 2017-02-06 04:56:47.104653+01 | 1486353407.10465 | pgbench_accounts |       1342955520
 2017-02-06 04:56:47.104653+01 | 1486353407.10465 | pgbench_tellers  |            49152
 2017-02-06 04:56:47.104653+01 | 1486353407.10465 | pgbench_history  |                0
 2017-02-06 04:56:47.104653+01 | 1486353407.10465 | pgbench_branches |             8192

 2017-02-06 04:56:48.196436+01 | 1486353408.19644 | pgbench_accounts |       1342955520
 2017-02-06 04:56:48.196436+01 | 1486353408.19644 | pgbench_tellers  |            49152
 2017-02-06 04:56:48.196436+01 | 1486353408.19644 | pgbench_history  |                0
 2017-02-06 04:56:48.196436+01 | 1486353408.19644 | pgbench_branches |             8192

 2017-02-06 04:56:49.288526+01 | 1486353409.28853 | pgbench_accounts |       1342955520
 2017-02-06 04:56:49.288526+01 | 1486353409.28853 | pgbench_tellers  |            49152
 2017-02-06 04:56:49.288526+01 | 1486353409.28853 | pgbench_history  |                0
 2017-02-06 04:56:49.288526+01 | 1486353409.28853 | pgbench_branches |             8192

 2017-02-06 04:56:50.402+01 | 1486353410.402 | pgbench_accounts |       1342955520
 2017-02-06 04:56:50.402+01 | 1486353410.402 | pgbench_tellers  |            49152
 2017-02-06 04:56:50.402+01 | 1486353410.402 | pgbench_history  |                0
 2017-02-06 04:56:50.402+01 | 1486353410.402 | pgbench_branches |             8192

 2017-02-06 04:56:51.502159+01 | 1486353411.50216 | pgbench_accounts |       1342955520
 2017-02-06 04:56:51.502159+01 | 1486353411.50216 | pgbench_tellers  |            49152
 2017-02-06 04:56:51.502159+01 | 1486353411.50216 | pgbench_history  |                0
 2017-02-06 04:56:51.502159+01 | 1486353411.50216 | pgbench_branches |             8192

 2017-02-06 04:56:52.611283+01 | 1486353412.61128 | pgbench_accounts |       1342955520
 2017-02-06 04:56:52.611283+01 | 1486353412.61128 | pgbench_tellers  |            49152
 2017-02-06 04:56:52.611283+01 | 1486353412.61128 | pgbench_history  |                0
 2017-02-06 04:56:52.611283+01 | 1486353412.61128 | pgbench_branches |             8192

 2017-02-06 04:56:53.728774+01 | 1486353413.72877 | pgbench_accounts |       1342955520
 2017-02-06 04:56:53.728774+01 | 1486353413.72877 | pgbench_tellers  |            49152
 2017-02-06 04:56:53.728774+01 | 1486353413.72877 | pgbench_history  |                0
 2017-02-06 04:56:53.728774+01 | 1486353413.72877 | pgbench_branches |             8192

 2017-02-06 04:56:54.821559+01 | 1486353414.82156 | pgbench_accounts |       1342955520
 2017-02-06 04:56:54.821559+01 | 1486353414.82156 | pgbench_tellers  |            49152
 2017-02-06 04:56:54.821559+01 | 1486353414.82156 | pgbench_history  |                0
 2017-02-06 04:56:54.821559+01 | 1486353414.82156 | pgbench_branches |             8192

 2017-02-06 04:56:55.917185+01 | 1486353415.91719 | pgbench_accounts |       1342955520
 2017-02-06 04:56:55.917185+01 | 1486353415.91719 | pgbench_tellers  |            49152
 2017-02-06 04:56:55.917185+01 | 1486353415.91719 | pgbench_history  |                0
 2017-02-06 04:56:55.917185+01 | 1486353415.91719 | pgbench_branches |             8192

 2017-02-06 04:56:57.009481+01 | 1486353417.00948 | pgbench_accounts |       1342955520
 2017-02-06 04:56:57.009481+01 | 1486353417.00948 | pgbench_tellers  |            49152
 2017-02-06 04:56:57.009481+01 | 1486353417.00948 | pgbench_history  |                0
 2017-02-06 04:56:57.009481+01 | 1486353417.00948 | pgbench_branches |             8192

 2017-02-06 04:56:58.10439+01 | 1486353418.10439 | pgbench_accounts |       1342955520
 2017-02-06 04:56:58.10439+01 | 1486353418.10439 | pgbench_tellers  |            49152
 2017-02-06 04:56:58.10439+01 | 1486353418.10439 | pgbench_history  |                0
 2017-02-06 04:56:58.10439+01 | 1486353418.10439 | pgbench_branches |             8192

 2017-02-06 04:56:59.209087+01 | 1486353419.20909 | pgbench_accounts |       1342955520
 2017-02-06 04:56:59.209087+01 | 1486353419.20909 | pgbench_tellers  |            49152
 2017-02-06 04:56:59.209087+01 | 1486353419.20909 | pgbench_history  |                0
 2017-02-06 04:56:59.209087+01 | 1486353419.20909 | pgbench_branches |             8192

 2017-02-06 04:57:00.296185+01 | 1486353420.29619 | pgbench_accounts |       1342955520
 2017-02-06 04:57:00.296185+01 | 1486353420.29619 | pgbench_tellers  |            49152
 2017-02-06 04:57:00.296185+01 | 1486353420.29619 | pgbench_history  |                0
 2017-02-06 04:57:00.296185+01 | 1486353420.29619 | pgbench_branches |             8192

 2017-02-06 04:57:01.38127+01 | 1486353421.38127 | pgbench_accounts |       1342955520
 2017-02-06 04:57:01.38127+01 | 1486353421.38127 | pgbench_tellers  |            49152
 2017-02-06 04:57:01.38127+01 | 1486353421.38127 | pgbench_history  |                0
 2017-02-06 04:57:01.38127+01 | 1486353421.38127 | pgbench_branches |             8192

 2017-02-06 04:57:02.496166+01 | 1486353422.49617 | pgbench_accounts |       1342955520
 2017-02-06 04:57:02.496166+01 | 1486353422.49617 | pgbench_tellers  |            49152
 2017-02-06 04:57:02.496166+01 | 1486353422.49617 | pgbench_history  |                0
 2017-02-06 04:57:02.496166+01 | 1486353422.49617 | pgbench_branches |             8192

 2017-02-06 04:57:03.600984+01 | 1486353423.60098 | pgbench_accounts |       1342955520
 2017-02-06 04:57:03.600984+01 | 1486353423.60098 | pgbench_tellers  |            49152
 2017-02-06 04:57:03.600984+01 | 1486353423.60098 | pgbench_history  |                0
 2017-02-06 04:57:03.600984+01 | 1486353423.60098 | pgbench_branches |             8192

 2017-02-06 04:57:04.706081+01 | 1486353424.70608 | pgbench_accounts |       1342955520
 2017-02-06 04:57:04.706081+01 | 1486353424.70608 | pgbench_tellers  |            49152
 2017-02-06 04:57:04.706081+01 | 1486353424.70608 | pgbench_history  |                0
 2017-02-06 04:57:04.706081+01 | 1486353424.70608 | pgbench_branches |             8192

 2017-02-06 04:57:05.806339+01 | 1486353425.80634 | pgbench_accounts |       1342955520
 2017-02-06 04:57:05.806339+01 | 1486353425.80634 | pgbench_tellers  |            49152
 2017-02-06 04:57:05.806339+01 | 1486353425.80634 | pgbench_history  |                0
 2017-02-06 04:57:05.806339+01 | 1486353425.80634 | pgbench_branches |             8192

 2017-02-06 04:57:06.900382+01 | 1486353426.90038 | pgbench_accounts |       1342955520
 2017-02-06 04:57:06.900382+01 | 1486353426.90038 | pgbench_tellers  |            49152
 2017-02-06 04:57:06.900382+01 | 1486353426.90038 | pgbench_history  |                0
 2017-02-06 04:57:06.900382+01 | 1486353426.90038 | pgbench_branches |             8192

 2017-02-06 04:57:07.990137+01 | 1486353427.99014 | pgbench_accounts |       1342955520
 2017-02-06 04:57:07.990137+01 | 1486353427.99014 | pgbench_tellers  |            49152
 2017-02-06 04:57:07.990137+01 | 1486353427.99014 | pgbench_history  |                0
 2017-02-06 04:57:07.990137+01 | 1486353427.99014 | pgbench_branches |             8192

 2017-02-06 04:57:09.090029+01 | 1486353429.09003 | pgbench_accounts |       1342955520
 2017-02-06 04:57:09.090029+01 | 1486353429.09003 | pgbench_tellers  |            49152
 2017-02-06 04:57:09.090029+01 | 1486353429.09003 | pgbench_history  |                0
 2017-02-06 04:57:09.090029+01 | 1486353429.09003 | pgbench_branches |             8192

 2017-02-06 04:57:10.182215+01 | 1486353430.18221 | pgbench_accounts |       1342955520
 2017-02-06 04:57:10.182215+01 | 1486353430.18221 | pgbench_tellers  |            49152
 2017-02-06 04:57:10.182215+01 | 1486353430.18221 | pgbench_history  |                0
 2017-02-06 04:57:10.182215+01 | 1486353430.18221 | pgbench_branches |             8192

 2017-02-06 04:57:11.279713+01 | 1486353431.27971 | pgbench_accounts |       1342955520
 2017-02-06 04:57:11.279713+01 | 1486353431.27971 | pgbench_tellers  |            49152
 2017-02-06 04:57:11.279713+01 | 1486353431.27971 | pgbench_history  |                0
 2017-02-06 04:57:11.279713+01 | 1486353431.27971 | pgbench_branches |             8192

 2017-02-06 04:57:12.383305+01 | 1486353432.38331 | pgbench_accounts |       1342955520
 2017-02-06 04:57:12.383305+01 | 1486353432.38331 | pgbench_tellers  |            49152
 2017-02-06 04:57:12.383305+01 | 1486353432.38331 | pgbench_history  |                0
 2017-02-06 04:57:12.383305+01 | 1486353432.38331 | pgbench_branches |             8192

 2017-02-06 04:57:13.494335+01 | 1486353433.49433 | pgbench_accounts |       1342955520
 2017-02-06 04:57:13.494335+01 | 1486353433.49433 | pgbench_tellers  |            49152
 2017-02-06 04:57:13.494335+01 | 1486353433.49433 | pgbench_history  |                0
 2017-02-06 04:57:13.494335+01 | 1486353433.49433 | pgbench_branches |             8192

 2017-02-06 04:57:14.591133+01 | 1486353434.59113 | pgbench_accounts |       1342955520
 2017-02-06 04:57:14.591133+01 | 1486353434.59113 | pgbench_tellers  |            49152
 2017-02-06 04:57:14.591133+01 | 1486353434.59113 | pgbench_history  |                0
 2017-02-06 04:57:14.591133+01 | 1486353434.59113 | pgbench_branches |             8192

 2017-02-06 04:57:15.704311+01 | 1486353435.70431 | pgbench_accounts |       1342955520
 2017-02-06 04:57:15.704311+01 | 1486353435.70431 | pgbench_tellers  |            49152
 2017-02-06 04:57:15.704311+01 | 1486353435.70431 | pgbench_history  |                0
 2017-02-06 04:57:15.704311+01 | 1486353435.70431 | pgbench_branches |             8192

 2017-02-06 04:57:16.818555+01 | 1486353436.81856 | pgbench_accounts |       1342955520
 2017-02-06 04:57:16.818555+01 | 1486353436.81856 | pgbench_tellers  |            49152
 2017-02-06 04:57:16.818555+01 | 1486353436.81856 | pgbench_history  |                0
 2017-02-06 04:57:16.818555+01 | 1486353436.81856 | pgbench_branches |             8192

