 2017-02-03 22:18:31.448444+01 | 1486156711.44844 |                 0 |               9 |                 15836 |                  692 |            1848479 |             0 |                0 |          962489 |                     0 |        666525 | 2017-02-03 21:37:46.640136+01

 2017-02-03 22:18:32.534355+01 | 1486156712.53435 |                 0 |               9 |                 15836 |                  692 |            1848479 |             0 |                0 |          962489 |                     0 |        666592 | 2017-02-03 21:37:46.640136+01

 2017-02-03 22:18:33.613198+01 | 1486156713.6132 |                 0 |               9 |                 15836 |                  692 |            1848479 |             0 |                0 |          962489 |                     0 |        666727 | 2017-02-03 21:37:46.640136+01

 2017-02-03 22:18:34.700423+01 | 1486156714.70042 |                 0 |               9 |                 15836 |                  692 |            1848479 |             0 |                0 |          962489 |                     0 |        666851 | 2017-02-03 21:37:46.640136+01

 2017-02-03 22:18:35.777891+01 | 1486156715.77789 |                 0 |               9 |                 15836 |                  692 |            1848479 |             0 |                0 |          962489 |                     0 |        666940 | 2017-02-03 21:37:46.640136+01

 2017-02-03 22:18:36.863474+01 | 1486156716.86347 |                 0 |               9 |                 15836 |                  692 |            1848479 |             0 |                0 |          962489 |                     0 |        667029 | 2017-02-03 21:37:46.640136+01

 2017-02-03 22:18:37.953717+01 | 1486156717.95372 |                 0 |               9 |                 15836 |                  692 |            1848479 |             0 |                0 |          962489 |                     0 |        667158 | 2017-02-03 21:37:46.640136+01

 2017-02-03 22:18:39.047098+01 | 1486156719.0471 |                 0 |               9 |                 15836 |                  692 |            1848479 |             0 |                0 |          962489 |                     0 |        667254 | 2017-02-03 21:37:46.640136+01

 2017-02-03 22:18:40.12758+01 | 1486156720.12758 |                 0 |               9 |                 15836 |                  692 |            1848479 |             0 |                0 |          962489 |                     0 |        667457 | 2017-02-03 21:37:46.640136+01

 2017-02-03 22:18:41.213805+01 | 1486156721.2138 |                 0 |               9 |                 15836 |                  692 |            1848479 |             0 |                0 |          962489 |                     0 |        667480 | 2017-02-03 21:37:46.640136+01

 2017-02-03 22:18:42.298386+01 | 1486156722.29839 |                 0 |               9 |                 15836 |                  692 |            1848479 |             0 |                0 |          962489 |                     0 |        667636 | 2017-02-03 21:37:46.640136+01

 2017-02-03 22:18:43.387368+01 | 1486156723.38737 |                 0 |               9 |                 15836 |                  692 |            1848479 |             0 |                0 |          962489 |                     0 |        667725 | 2017-02-03 21:37:46.640136+01

 2017-02-03 22:18:44.468191+01 | 1486156724.46819 |                 0 |               9 |                 15836 |                  692 |            1848479 |             0 |                0 |          962489 |                     0 |        667847 | 2017-02-03 21:37:46.640136+01

 2017-02-03 22:18:45.551008+01 | 1486156725.55101 |                 0 |               9 |                 15836 |                  692 |            1848479 |             0 |                0 |          962489 |                     0 |        667933 | 2017-02-03 21:37:46.640136+01

 2017-02-03 22:18:46.619101+01 | 1486156726.6191 |                 0 |               9 |                 15836 |                  692 |            1848479 |             0 |                0 |          962489 |                     0 |        668110 | 2017-02-03 21:37:46.640136+01

 2017-02-03 22:18:47.701672+01 | 1486156727.70167 |                 0 |               9 |                 15836 |                  692 |            1848479 |             0 |                0 |          962489 |                     0 |        668179 | 2017-02-03 21:37:46.640136+01

 2017-02-03 22:18:48.786047+01 | 1486156728.78605 |                 0 |               9 |                 15836 |                  692 |            1848479 |             0 |                0 |          962489 |                     0 |        668310 | 2017-02-03 21:37:46.640136+01

 2017-02-03 22:18:49.861232+01 | 1486156729.86123 |                 0 |               9 |                 15836 |                  692 |            1848479 |             0 |                0 |          962489 |                     0 |        668400 | 2017-02-03 21:37:46.640136+01

 2017-02-03 22:18:50.952042+01 | 1486156730.95204 |                 0 |               9 |                 15836 |                  692 |            1848479 |             0 |                0 |          962489 |                     0 |        668524 | 2017-02-03 21:37:46.640136+01

 2017-02-03 22:18:52.029033+01 | 1486156732.02903 |                 0 |               9 |                 15836 |                  692 |            1848479 |             0 |                0 |          962489 |                     0 |        668647 | 2017-02-03 21:37:46.640136+01

 2017-02-03 22:18:53.119853+01 | 1486156733.11985 |                 0 |               9 |                 15836 |                  692 |            1848479 |             0 |                0 |          962489 |                     0 |        668736 | 2017-02-03 21:37:46.640136+01

 2017-02-03 22:18:54.208093+01 | 1486156734.20809 |                 0 |               9 |                 15836 |                  692 |            1848479 |             0 |                0 |          962489 |                     0 |        668850 | 2017-02-03 21:37:46.640136+01

 2017-02-03 22:18:55.290302+01 | 1486156735.2903 |                 0 |               9 |                 15836 |                  692 |            1848479 |             0 |                0 |          962489 |                     0 |        668938 | 2017-02-03 21:37:46.640136+01

 2017-02-03 22:18:56.37637+01 | 1486156736.37637 |                 0 |               9 |                 15836 |                  692 |            1848479 |             0 |                0 |          962489 |                     0 |        669072 | 2017-02-03 21:37:46.640136+01

 2017-02-03 22:18:57.445967+01 | 1486156737.44597 |                 0 |               9 |                 15836 |                  692 |            1848479 |             0 |                0 |          962489 |                     0 |        669208 | 2017-02-03 21:37:46.640136+01

 2017-02-03 22:18:58.526736+01 | 1486156738.52674 |                 0 |               9 |                 15836 |                  692 |            1848479 |             0 |                0 |          962489 |                     0 |        669253 | 2017-02-03 21:37:46.640136+01

 2017-02-03 22:18:59.615482+01 | 1486156739.61548 |                 0 |               9 |                 15836 |                  692 |            1848479 |             0 |                0 |          962489 |                     0 |        669389 | 2017-02-03 21:37:46.640136+01

 2017-02-03 22:19:00.699124+01 | 1486156740.69912 |                 0 |               9 |                 15836 |                  692 |            1848479 |             0 |                0 |          962489 |                     0 |        669516 | 2017-02-03 21:37:46.640136+01

 2017-02-03 22:19:01.775885+01 | 1486156741.77589 |                 0 |               9 |                 15836 |                  692 |            1848479 |             0 |                0 |          962489 |                     0 |        669579 | 2017-02-03 21:37:46.640136+01

 2017-02-03 22:19:02.863839+01 | 1486156742.86384 |                 0 |               9 |                 15836 |                  692 |            1848479 |             0 |                0 |          962489 |                     0 |        669687 | 2017-02-03 21:37:46.640136+01

 2017-02-03 22:19:03.939314+01 | 1486156743.93931 |                 0 |               9 |                 15836 |                  692 |            1848479 |             0 |                0 |          962489 |                     0 |        669817 | 2017-02-03 21:37:46.640136+01

 2017-02-03 22:19:05.023502+01 | 1486156745.0235 |                 0 |               9 |                 15836 |                  692 |            1848479 |             0 |                0 |          962489 |                     0 |        669905 | 2017-02-03 21:37:46.640136+01

 2017-02-03 22:19:06.094095+01 | 1486156746.09409 |                 0 |               9 |                 15836 |                  692 |            1848479 |             0 |                0 |          962489 |                     0 |        670011 | 2017-02-03 21:37:46.640136+01

 2017-02-03 22:19:07.182909+01 | 1486156747.18291 |                 0 |               9 |                 15836 |                  692 |            1848479 |             0 |                0 |          962489 |                     0 |        670140 | 2017-02-03 21:37:46.640136+01

 2017-02-03 22:19:08.254782+01 | 1486156748.25478 |                 0 |               9 |                 15836 |                  692 |            1848479 |             0 |                0 |          962489 |                     0 |        670248 | 2017-02-03 21:37:46.640136+01

 2017-02-03 22:19:09.341607+01 | 1486156749.34161 |                 0 |               9 |                 15836 |                  692 |            1848479 |             0 |                0 |          962489 |                     0 |        670338 | 2017-02-03 21:37:46.640136+01

 2017-02-03 22:19:10.411792+01 | 1486156750.41179 |                 0 |               9 |                 15836 |                  692 |            1848479 |             0 |                0 |          962489 |                     0 |        670401 | 2017-02-03 21:37:46.640136+01

 2017-02-03 22:19:11.496796+01 | 1486156751.4968 |                 0 |               9 |                 15836 |                  692 |            1848479 |             0 |                0 |          962489 |                     0 |        670553 | 2017-02-03 21:37:46.640136+01

 2017-02-03 22:19:12.56795+01 | 1486156752.56795 |                 0 |               9 |                 15836 |                  692 |            1848479 |             0 |                0 |          962489 |                     0 |        670641 | 2017-02-03 21:37:46.640136+01

 2017-02-03 22:19:13.646731+01 | 1486156753.64673 |                 0 |               9 |                 15836 |                  692 |            1848479 |             0 |                0 |          962489 |                     0 |        670794 | 2017-02-03 21:37:46.640136+01

 2017-02-03 22:19:14.726175+01 | 1486156754.72618 |                 0 |               9 |                 15836 |                  692 |            1848479 |             0 |                0 |          962489 |                     0 |        670883 | 2017-02-03 21:37:46.640136+01

 2017-02-03 22:19:15.800996+01 | 1486156755.801 |                 0 |               9 |                 15836 |                  692 |            1848479 |             0 |                0 |          962489 |                     0 |        670946 | 2017-02-03 21:37:46.640136+01

 2017-02-03 22:19:16.877872+01 | 1486156756.87787 |                 0 |               9 |                 15836 |                  692 |            1848479 |             0 |                0 |          962489 |                     0 |        671073 | 2017-02-03 21:37:46.640136+01

 2017-02-03 22:19:17.950374+01 | 1486156757.95037 |                 0 |               9 |                 15836 |                  692 |            1848479 |             0 |                0 |          962489 |                     0 |        671176 | 2017-02-03 21:37:46.640136+01

 2017-02-03 22:19:19.030862+01 | 1486156759.03086 |                 0 |               9 |                 15836 |                  692 |            1848479 |             0 |                0 |          962489 |                     0 |        671240 | 2017-02-03 21:37:46.640136+01

 2017-02-03 22:19:20.116132+01 | 1486156760.11613 |                 0 |               9 |                 15836 |                  692 |            1848479 |             0 |                0 |          962489 |                     0 |        671393 | 2017-02-03 21:37:46.640136+01

 2017-02-03 22:19:21.203775+01 | 1486156761.20377 |                 0 |               9 |                 15836 |                  692 |            1848479 |             0 |                0 |          962489 |                     0 |        671484 | 2017-02-03 21:37:46.640136+01

 2017-02-03 22:19:22.290592+01 | 1486156762.29059 |                 0 |               9 |                 15836 |                  692 |            1848479 |             0 |                0 |          962489 |                     0 |        671583 | 2017-02-03 21:37:46.640136+01

 2017-02-03 22:19:23.372976+01 | 1486156763.37298 |                 0 |               9 |                 15836 |                  692 |            1848479 |             0 |                0 |          962489 |                     0 |        671698 | 2017-02-03 21:37:46.640136+01

 2017-02-03 22:19:24.453046+01 | 1486156764.45305 |                 0 |               9 |                 15836 |                  692 |            1848479 |             0 |                0 |          962489 |                     0 |        671796 | 2017-02-03 21:37:46.640136+01

 2017-02-03 22:19:25.524703+01 | 1486156765.5247 |                 0 |               9 |                 15836 |                  692 |            1848479 |             0 |                0 |          962489 |                     0 |        671914 | 2017-02-03 21:37:46.640136+01

 2017-02-03 22:19:26.596372+01 | 1486156766.59637 |                 0 |               9 |                 15836 |                  692 |            1848479 |             0 |                0 |          962489 |                     0 |        672013 | 2017-02-03 21:37:46.640136+01

 2017-02-03 22:19:27.669672+01 | 1486156767.66967 |                 0 |               9 |                 15836 |                  692 |            1848479 |             0 |                0 |          962489 |                     0 |        672113 | 2017-02-03 21:37:46.640136+01

 2017-02-03 22:19:28.756027+01 | 1486156768.75603 |                 0 |               9 |                 15836 |                  692 |            1848479 |             0 |                0 |          962489 |                     0 |        672204 | 2017-02-03 21:37:46.640136+01

 2017-02-03 22:19:29.822939+01 | 1486156769.82294 |                 0 |               9 |                 15836 |                  692 |            1848479 |             0 |                0 |          962489 |                     0 |        672298 | 2017-02-03 21:37:46.640136+01

 2017-02-03 22:19:30.911094+01 | 1486156770.91109 |                 0 |               9 |                 15836 |                  692 |            1848479 |             0 |                0 |          962489 |                     0 |        672433 | 2017-02-03 21:37:46.640136+01

 2017-02-03 22:19:31.997999+01 | 1486156771.998 |                 0 |               9 |                 15836 |                  692 |            1848479 |             0 |                0 |          962489 |                     0 |        672585 | 2017-02-03 21:37:46.640136+01

 2017-02-03 22:19:33.083393+01 | 1486156773.08339 |                 0 |               9 |                 15836 |                  692 |            1848479 |             0 |                0 |          962489 |                     0 |        672675 | 2017-02-03 21:37:46.640136+01

 2017-02-03 22:19:34.170952+01 | 1486156774.17095 |                 0 |               9 |                 15836 |                  692 |            1848479 |             0 |                0 |          962489 |                     0 |        672765 | 2017-02-03 21:37:46.640136+01

 2017-02-03 22:19:35.257682+01 | 1486156775.25768 |                 0 |               9 |                 15836 |                  692 |            1848479 |             0 |                0 |          962489 |                     0 |        672876 | 2017-02-03 21:37:46.640136+01

 2017-02-03 22:19:36.33688+01 | 1486156776.33688 |                 0 |               9 |                 15836 |                  692 |            1848479 |             0 |                0 |          962489 |                     0 |        672990 | 2017-02-03 21:37:46.640136+01

 2017-02-03 22:19:37.41134+01 | 1486156777.41134 |                 0 |               9 |                 15836 |                  692 |            1848479 |             0 |                0 |          962489 |                     0 |        673055 | 2017-02-03 21:37:46.640136+01

 2017-02-03 22:19:38.489965+01 | 1486156778.48996 |                 0 |               9 |                 15836 |                  692 |            1848479 |             0 |                0 |          962489 |                     0 |        673171 | 2017-02-03 21:37:46.640136+01

 2017-02-03 22:19:39.570037+01 | 1486156779.57004 |                 0 |               9 |                 15836 |                  692 |            1848479 |             0 |                0 |          962489 |                     0 |        673258 | 2017-02-03 21:37:46.640136+01

 2017-02-03 22:19:40.658658+01 | 1486156780.65866 |                 0 |               9 |                 15836 |                  692 |            1848479 |             0 |                0 |          962489 |                     0 |        673399 | 2017-02-03 21:37:46.640136+01

 2017-02-03 22:19:41.742781+01 | 1486156781.74278 |                 0 |               9 |                 15836 |                  692 |            1848479 |             0 |                0 |          962489 |                     0 |        673490 | 2017-02-03 21:37:46.640136+01

 2017-02-03 22:19:42.832562+01 | 1486156782.83256 |                 0 |               9 |                 15836 |                  692 |            1848479 |             0 |                0 |          962489 |                     0 |        673596 | 2017-02-03 21:37:46.640136+01

 2017-02-03 22:19:43.916386+01 | 1486156783.91639 |                 0 |               9 |                 15836 |                  692 |            1848479 |             0 |                0 |          962489 |                     0 |        673688 | 2017-02-03 21:37:46.640136+01

 2017-02-03 22:19:44.990596+01 | 1486156784.9906 |                 0 |               9 |                 15836 |                  692 |            1848479 |             0 |                0 |          962489 |                     0 |        673798 | 2017-02-03 21:37:46.640136+01

 2017-02-03 22:19:46.069273+01 | 1486156786.06927 |                 0 |               9 |                 15836 |                  692 |            1848479 |             0 |                0 |          962489 |                     0 |        673888 | 2017-02-03 21:37:46.640136+01

 2017-02-03 22:19:47.14199+01 | 1486156787.14199 |                 0 |               9 |                 15836 |                  692 |            1848479 |             0 |                0 |          962489 |                     0 |        673985 | 2017-02-03 21:37:46.640136+01

 2017-02-03 22:19:48.226388+01 | 1486156788.22639 |                 0 |               9 |                 15836 |                  692 |            1848479 |             0 |                0 |          962489 |                     0 |        674138 | 2017-02-03 21:37:46.640136+01

 2017-02-03 22:19:49.299787+01 | 1486156789.29979 |                 0 |               9 |                 15836 |                  692 |            1848479 |             0 |                0 |          962489 |                     0 |        674214 | 2017-02-03 21:37:46.640136+01

 2017-02-03 22:19:50.377157+01 | 1486156790.37716 |                 0 |               9 |                 15836 |                  692 |            1848479 |             0 |                0 |          962489 |                     0 |        674357 | 2017-02-03 21:37:46.640136+01

 2017-02-03 22:19:51.450539+01 | 1486156791.45054 |                 0 |               9 |                 15836 |                  692 |            1848479 |             0 |                0 |          962489 |                     0 |        674444 | 2017-02-03 21:37:46.640136+01

 2017-02-03 22:19:52.533223+01 | 1486156792.53322 |                 0 |               9 |                 15836 |                  692 |            1848479 |             0 |                0 |          962489 |                     0 |        674513 | 2017-02-03 21:37:46.640136+01

 2017-02-03 22:19:53.608033+01 | 1486156793.60803 |                 0 |               9 |                 15836 |                  692 |            1848479 |             0 |                0 |          962489 |                     0 |        674605 | 2017-02-03 21:37:46.640136+01

 2017-02-03 22:19:54.698458+01 | 1486156794.69846 |                 0 |               9 |                 15836 |                  692 |            1848479 |             0 |                0 |          962489 |                     0 |        674728 | 2017-02-03 21:37:46.640136+01

 2017-02-03 22:19:55.769506+01 | 1486156795.76951 |                 0 |               9 |                 15836 |                  692 |            1848479 |             0 |                0 |          962489 |                     0 |        674827 | 2017-02-03 21:37:46.640136+01

 2017-02-03 22:19:56.842581+01 | 1486156796.84258 |                 0 |               9 |                 15836 |                  692 |            1848479 |             0 |                0 |          962489 |                     0 |        674937 | 2017-02-03 21:37:46.640136+01

 2017-02-03 22:19:57.914984+01 | 1486156797.91498 |                 0 |               9 |                 15836 |                  692 |            1848479 |             0 |                0 |          962489 |                     0 |        675051 | 2017-02-03 21:37:46.640136+01

 2017-02-03 22:19:58.993437+01 | 1486156798.99344 |                 0 |               9 |                 15836 |                  692 |            1848479 |             0 |                0 |          962489 |                     0 |        675140 | 2017-02-03 21:37:46.640136+01

 2017-02-03 22:20:00.077558+01 | 1486156800.07756 |                 0 |               9 |                 15836 |                  692 |            1848479 |             0 |                0 |          962489 |                     0 |        675260 | 2017-02-03 21:37:46.640136+01

 2017-02-03 22:20:01.155691+01 | 1486156801.15569 |                 0 |               9 |                 15836 |                  692 |            1848479 |             0 |                0 |          962489 |                     0 |        675325 | 2017-02-03 21:37:46.640136+01

 2017-02-03 22:20:02.241329+01 | 1486156802.24133 |                 0 |               9 |                 15836 |                  692 |            1848479 |             0 |                0 |          962489 |                     0 |        675461 | 2017-02-03 21:37:46.640136+01

 2017-02-03 22:20:03.314798+01 | 1486156803.3148 |                 0 |               9 |                 15836 |                  692 |            1848479 |             0 |                0 |          962489 |                     0 |        675549 | 2017-02-03 21:37:46.640136+01

 2017-02-03 22:20:04.401731+01 | 1486156804.40173 |                 0 |               9 |                 15836 |                  692 |            1848479 |             0 |                0 |          962489 |                     0 |        675685 | 2017-02-03 21:37:46.640136+01

 2017-02-03 22:20:05.493526+01 | 1486156805.49353 |                 0 |               9 |                 15836 |                  692 |            1848479 |             0 |                0 |          962489 |                     0 |        675756 | 2017-02-03 21:37:46.640136+01

 2017-02-03 22:20:06.561458+01 | 1486156806.56146 |                 0 |               9 |                 15836 |                  692 |            1848479 |             0 |                0 |          962489 |                     0 |        675866 | 2017-02-03 21:37:46.640136+01

 2017-02-03 22:20:07.635256+01 | 1486156807.63526 |                 0 |               9 |                 15836 |                  692 |            1848479 |             0 |                0 |          962489 |                     0 |        675930 | 2017-02-03 21:37:46.640136+01

 2017-02-03 22:20:08.723789+01 | 1486156808.72379 |                 0 |               9 |                 15836 |                  692 |            1848479 |             0 |                0 |          962489 |                     0 |        676086 | 2017-02-03 21:37:46.640136+01

 2017-02-03 22:20:09.810621+01 | 1486156809.81062 |                 0 |               9 |                 15836 |                  692 |            1848479 |             0 |                0 |          962489 |                     0 |        676184 | 2017-02-03 21:37:46.640136+01

 2017-02-03 22:20:10.905752+01 | 1486156810.90575 |                 0 |               9 |                 15836 |                  692 |            1848479 |             0 |                0 |          962489 |                     0 |        676274 | 2017-02-03 21:37:46.640136+01

 2017-02-03 22:20:11.996461+01 | 1486156811.99646 |                 0 |               9 |                 15836 |                  692 |            1848479 |             0 |                0 |          962489 |                     0 |        676409 | 2017-02-03 21:37:46.640136+01

 2017-02-03 22:20:13.080298+01 | 1486156813.0803 |                 0 |               9 |                 15836 |                  692 |            1848479 |             0 |                0 |          962489 |                     0 |        676472 | 2017-02-03 21:37:46.640136+01

 2017-02-03 22:20:14.169557+01 | 1486156814.16956 |                 0 |               9 |                 15836 |                  692 |            1848479 |             0 |                0 |          962489 |                     0 |        676606 | 2017-02-03 21:37:46.640136+01

 2017-02-03 22:20:15.244114+01 | 1486156815.24411 |                 0 |               9 |                 15836 |                  692 |            1848479 |             0 |                0 |          962489 |                     0 |        676694 | 2017-02-03 21:37:46.640136+01

 2017-02-03 22:20:16.31648+01 | 1486156816.31648 |                 0 |               9 |                 15836 |                  692 |            1848479 |             0 |                0 |          962489 |                     0 |        676809 | 2017-02-03 21:37:46.640136+01

 2017-02-03 22:20:17.401824+01 | 1486156817.40182 |                 0 |               9 |                 15836 |                  692 |            1848479 |             0 |                0 |          962489 |                     0 |        676898 | 2017-02-03 21:37:46.640136+01

 2017-02-03 22:20:18.482694+01 | 1486156818.48269 |                 0 |               9 |                 15836 |                  692 |            1848479 |             0 |                0 |          962489 |                     0 |        677029 | 2017-02-03 21:37:46.640136+01

 2017-02-03 22:20:19.564242+01 | 1486156819.56424 |                 0 |               9 |                 15836 |                  692 |            1848479 |             0 |                0 |          962489 |                     0 |        677133 | 2017-02-03 21:37:46.640136+01

 2017-02-03 22:20:20.647501+01 | 1486156820.6475 |                 0 |               9 |                 15836 |                  692 |            1848479 |             0 |                0 |          962489 |                     0 |        677236 | 2017-02-03 21:37:46.640136+01

 2017-02-03 22:20:21.732777+01 | 1486156821.73278 |                 0 |               9 |                 15836 |                  692 |            1848479 |             0 |                0 |          962489 |                     0 |        677325 | 2017-02-03 21:37:46.640136+01

 2017-02-03 22:20:22.806911+01 | 1486156822.80691 |                 0 |               9 |                 15836 |                  692 |            1848479 |             0 |                0 |          962489 |                     0 |        677412 | 2017-02-03 21:37:46.640136+01

 2017-02-03 22:20:23.888917+01 | 1486156823.88892 |                 0 |               9 |                 15836 |                  692 |            1848479 |             0 |                0 |          962489 |                     0 |        677521 | 2017-02-03 21:37:46.640136+01

 2017-02-03 22:20:24.973686+01 | 1486156824.97369 |                 0 |               9 |                 15836 |                  692 |            1848479 |             0 |                0 |          962489 |                     0 |        677629 | 2017-02-03 21:37:46.640136+01

 2017-02-03 22:20:26.055433+01 | 1486156826.05543 |                 0 |               9 |                 15836 |                  692 |            1848479 |             0 |                0 |          962489 |                     0 |        677746 | 2017-02-03 21:37:46.640136+01

 2017-02-03 22:20:27.142954+01 | 1486156827.14295 |                 0 |               9 |                 15836 |                  692 |            1848479 |             0 |                0 |          962489 |                     0 |        677840 | 2017-02-03 21:37:46.640136+01

 2017-02-03 22:20:28.224023+01 | 1486156828.22402 |                 0 |               9 |                 15836 |                  692 |            1848479 |             0 |                0 |          962489 |                     0 |        677948 | 2017-02-03 21:37:46.640136+01

 2017-02-03 22:20:29.306705+01 | 1486156829.3067 |                 0 |               9 |                 15836 |                  692 |            1848479 |             0 |                0 |          962489 |                     0 |        678075 | 2017-02-03 21:37:46.640136+01

 2017-02-03 22:20:30.382774+01 | 1486156830.38277 |                 0 |               9 |                 15836 |                  692 |            1848479 |             0 |                0 |          962489 |                     0 |        678164 | 2017-02-03 21:37:46.640136+01

 2017-02-03 22:20:31.458809+01 | 1486156831.45881 |                 0 |               9 |                 15836 |                  692 |            1848479 |             0 |                0 |          962489 |                     0 |        678283 | 2017-02-03 21:37:46.640136+01

 2017-02-03 22:20:32.551904+01 | 1486156832.5519 |                 0 |               9 |                 15836 |                  692 |            1848479 |             0 |                0 |          962489 |                     0 |        678392 | 2017-02-03 21:37:46.640136+01

 2017-02-03 22:20:33.631337+01 | 1486156833.63134 |                 0 |               9 |                 15836 |                  692 |            1848479 |             0 |                0 |          962489 |                     0 |        678498 | 2017-02-03 21:37:46.640136+01

 2017-02-03 22:20:34.710823+01 | 1486156834.71082 |                 0 |               9 |                 15836 |                  692 |            1848479 |             0 |                0 |          962489 |                     0 |        678609 | 2017-02-03 21:37:46.640136+01

 2017-02-03 22:20:35.795607+01 | 1486156835.79561 |                 0 |               9 |                 15836 |                  692 |            1848479 |             0 |                0 |          962489 |                     0 |        678683 | 2017-02-03 21:37:46.640136+01

 2017-02-03 22:20:36.863987+01 | 1486156836.86399 |                 0 |               9 |                 15836 |                  692 |            1848479 |             0 |                0 |          962489 |                     0 |        678772 | 2017-02-03 21:37:46.640136+01

 2017-02-03 22:20:37.934378+01 | 1486156837.93438 |                 0 |               9 |                 15836 |                  692 |            1848479 |             0 |                0 |          962489 |                     0 |        678885 | 2017-02-03 21:37:46.640136+01

 2017-02-03 22:20:39.016239+01 | 1486156839.01624 |                 0 |               9 |                 15836 |                  692 |            1848479 |             0 |                0 |          962489 |                     0 |        678973 | 2017-02-03 21:37:46.640136+01

 2017-02-03 22:20:40.089456+01 | 1486156840.08946 |                 0 |               9 |                 15836 |                  692 |            1848479 |             0 |                0 |          962489 |                     0 |        679061 | 2017-02-03 21:37:46.640136+01

 2017-02-03 22:20:41.162465+01 | 1486156841.16247 |                 0 |               9 |                 15836 |                  692 |            1848479 |             0 |                0 |          962489 |                     0 |        679193 | 2017-02-03 21:37:46.640136+01

 2017-02-03 22:20:42.250306+01 | 1486156842.25031 |                 0 |               9 |                 15836 |                  692 |            1848479 |             0 |                0 |          962489 |                     0 |        679282 | 2017-02-03 21:37:46.640136+01

 2017-02-03 22:20:43.32594+01 | 1486156843.32594 |                 0 |               9 |                 15836 |                  692 |            1848479 |             0 |                0 |          962489 |                     0 |        679329 | 2017-02-03 21:37:46.640136+01

 2017-02-03 22:20:44.409432+01 | 1486156844.40943 |                 0 |               9 |                 15836 |                  692 |            1848479 |             0 |                0 |          962489 |                     0 |        679511 | 2017-02-03 21:37:46.640136+01

 2017-02-03 22:20:45.486524+01 | 1486156845.48652 |                 0 |               9 |                 15836 |                  692 |            1848479 |             0 |                0 |          962489 |                     0 |        679605 | 2017-02-03 21:37:46.640136+01

 2017-02-03 22:20:46.559105+01 | 1486156846.5591 |                 0 |               9 |                 15836 |                  692 |            1848479 |             0 |                0 |          962489 |                     0 |        679739 | 2017-02-03 21:37:46.640136+01

 2017-02-03 22:20:47.641031+01 | 1486156847.64103 |                 0 |               9 |                 15836 |                  692 |            1848479 |             0 |                0 |          962489 |                     0 |        679808 | 2017-02-03 21:37:46.640136+01

 2017-02-03 22:20:48.723471+01 | 1486156848.72347 |                 0 |               9 |                 15836 |                  692 |            1848479 |             0 |                0 |          962489 |                     0 |        679902 | 2017-02-03 21:37:46.640136+01

 2017-02-03 22:20:49.809587+01 | 1486156849.80959 |                 0 |               9 |                 15836 |                  692 |            1848479 |             0 |                0 |          962489 |                     0 |        679997 | 2017-02-03 21:37:46.640136+01

 2017-02-03 22:20:50.895833+01 | 1486156850.89583 |                 0 |               9 |                 15836 |                  692 |            1848479 |             0 |                0 |          962489 |                     0 |        680061 | 2017-02-03 21:37:46.640136+01

 2017-02-03 22:20:51.985823+01 | 1486156851.98582 |                 0 |               9 |                 15836 |                  692 |            1848479 |             0 |                0 |          962489 |                     0 |        680231 | 2017-02-03 21:37:46.640136+01

 2017-02-03 22:20:53.06594+01 | 1486156853.06594 |                 0 |               9 |                 15836 |                  692 |            1848479 |             0 |                0 |          962489 |                     0 |        680338 | 2017-02-03 21:37:46.640136+01

 2017-02-03 22:20:54.142947+01 | 1486156854.14295 |                 0 |               9 |                 15836 |                  692 |            1848479 |             0 |                0 |          962489 |                     0 |        680435 | 2017-02-03 21:37:46.640136+01

 2017-02-03 22:20:55.213747+01 | 1486156855.21375 |                 0 |               9 |                 15836 |                  692 |            1848479 |             0 |                0 |          962489 |                     0 |        680603 | 2017-02-03 21:37:46.640136+01

 2017-02-03 22:20:56.304075+01 | 1486156856.30408 |                 0 |               9 |                 15836 |                  692 |            1848479 |             0 |                0 |          962489 |                     0 |        680604 | 2017-02-03 21:37:46.640136+01

 2017-02-03 22:20:57.39651+01 | 1486156857.39651 |                 0 |               9 |                 15836 |                  692 |            1848479 |             0 |                0 |          962489 |                     0 |        680737 | 2017-02-03 21:37:46.640136+01

 2017-02-03 22:20:58.476854+01 | 1486156858.47685 |                 0 |               9 |                 15836 |                  692 |            1848479 |             0 |                0 |          962489 |                     0 |        680884 | 2017-02-03 21:37:46.640136+01

 2017-02-03 22:20:59.563564+01 | 1486156859.56356 |                 0 |               9 |                 15836 |                  692 |            1848479 |             0 |                0 |          962489 |                     0 |        680928 | 2017-02-03 21:37:46.640136+01

 2017-02-03 22:21:00.636893+01 | 1486156860.63689 |                 0 |               9 |                 15836 |                  692 |            1848479 |             0 |                0 |          962489 |                     0 |        681041 | 2017-02-03 21:37:46.640136+01

 2017-02-03 22:21:01.725504+01 | 1486156861.7255 |                 0 |               9 |                 15836 |                  692 |            1848479 |             0 |                0 |          962489 |                     0 |        681130 | 2017-02-03 21:37:46.640136+01

 2017-02-03 22:21:02.807064+01 | 1486156862.80706 |                 0 |               9 |                 15836 |                  692 |            1848479 |             0 |                0 |          962489 |                     0 |        681217 | 2017-02-03 21:37:46.640136+01

 2017-02-03 22:21:03.894532+01 | 1486156863.89453 |                 0 |               9 |                 15836 |                  692 |            1848479 |             0 |                0 |          962489 |                     0 |        681341 | 2017-02-03 21:37:46.640136+01

 2017-02-03 22:21:04.985435+01 | 1486156864.98544 |                 0 |               9 |                 15836 |                  692 |            1848479 |             0 |                0 |          962489 |                     0 |        681535 | 2017-02-03 21:37:46.640136+01

 2017-02-03 22:21:06.073132+01 | 1486156866.07313 |                 0 |               9 |                 15836 |                  692 |            1848479 |             0 |                0 |          962489 |                     0 |        681640 | 2017-02-03 21:37:46.640136+01

 2017-02-03 22:21:07.150902+01 | 1486156867.1509 |                 0 |               9 |                 15836 |                  692 |            1848479 |             0 |                0 |          962489 |                     0 |        681663 | 2017-02-03 21:37:46.640136+01

 2017-02-03 22:21:08.231544+01 | 1486156868.23154 |                 0 |               9 |                 15836 |                  692 |            1848479 |             0 |                0 |          962489 |                     0 |        681835 | 2017-02-03 21:37:46.640136+01

 2017-02-03 22:21:09.318565+01 | 1486156869.31856 |                 0 |               9 |                 15836 |                  692 |            1848479 |             0 |                0 |          962489 |                     0 |        681858 | 2017-02-03 21:37:46.640136+01

 2017-02-03 22:21:10.409871+01 | 1486156870.40987 |                 0 |               9 |                 15836 |                  692 |            1848479 |             0 |                0 |          962489 |                     0 |        681979 | 2017-02-03 21:37:46.640136+01

 2017-02-03 22:21:11.495354+01 | 1486156871.49535 |                 0 |               9 |                 15836 |                  692 |            1848479 |             0 |                0 |          962489 |                     0 |        682091 | 2017-02-03 21:37:46.640136+01

 2017-02-03 22:21:12.583406+01 | 1486156872.58341 |                 0 |               9 |                 15836 |                  692 |            1848479 |             0 |                0 |          962489 |                     0 |        682178 | 2017-02-03 21:37:46.640136+01

 2017-02-03 22:21:13.662357+01 | 1486156873.66236 |                 0 |               9 |                 15836 |                  692 |            1848479 |             0 |                0 |          962489 |                     0 |        682292 | 2017-02-03 21:37:46.640136+01

 2017-02-03 22:21:14.740719+01 | 1486156874.74072 |                 0 |               9 |                 15836 |                  692 |            1848479 |             0 |                0 |          962489 |                     0 |        682381 | 2017-02-03 21:37:46.640136+01

 2017-02-03 22:21:15.822469+01 | 1486156875.82247 |                 0 |               9 |                 15836 |                  692 |            1848479 |             0 |                0 |          962489 |                     0 |        682562 | 2017-02-03 21:37:46.640136+01

 2017-02-03 22:21:16.906389+01 | 1486156876.90639 |                 0 |               9 |                 15836 |                  692 |            1848479 |             0 |                0 |          962489 |                     0 |        682611 | 2017-02-03 21:37:46.640136+01

 2017-02-03 22:21:17.981141+01 | 1486156877.98114 |                 0 |               9 |                 15836 |                  692 |            1848479 |             0 |                0 |          962489 |                     0 |        682700 | 2017-02-03 21:37:46.640136+01

 2017-02-03 22:21:19.061893+01 | 1486156879.06189 |                 0 |               9 |                 15836 |                  692 |            1848479 |             0 |                0 |          962489 |                     0 |        682807 | 2017-02-03 21:37:46.640136+01

 2017-02-03 22:21:20.151264+01 | 1486156880.15126 |                 0 |               9 |                 15836 |                  692 |            1848479 |             0 |                0 |          962489 |                     0 |        682926 | 2017-02-03 21:37:46.640136+01

 2017-02-03 22:21:21.24183+01 | 1486156881.24183 |                 0 |               9 |                 15836 |                  692 |            1848479 |             0 |                0 |          962489 |                     0 |        683017 | 2017-02-03 21:37:46.640136+01

 2017-02-03 22:21:22.322224+01 | 1486156882.32222 |                 0 |               9 |                 15836 |                  692 |            1848479 |             0 |                0 |          962489 |                     0 |        683145 | 2017-02-03 21:37:46.640136+01

 2017-02-03 22:21:23.412142+01 | 1486156883.41214 |                 0 |               9 |                 15836 |                  692 |            1848479 |             0 |                0 |          962489 |                     0 |        683234 | 2017-02-03 21:37:46.640136+01

 2017-02-03 22:21:24.502596+01 | 1486156884.5026 |                 0 |               9 |                 15836 |                  692 |            1848479 |             0 |                0 |          962489 |                     0 |        683340 | 2017-02-03 21:37:46.640136+01

 2017-02-03 22:21:25.593709+01 | 1486156885.59371 |                 0 |               9 |                 15836 |                  692 |            1848479 |             0 |                0 |          962489 |                     0 |        683469 | 2017-02-03 21:37:46.640136+01

 2017-02-03 22:21:26.677772+01 | 1486156886.67777 |                 0 |               9 |                 15836 |                  692 |            1848479 |             0 |                0 |          962489 |                     0 |        683558 | 2017-02-03 21:37:46.640136+01

 2017-02-03 22:21:27.746734+01 | 1486156887.74673 |                 0 |               9 |                 15836 |                  692 |            1848479 |             0 |                0 |          962489 |                     0 |        683678 | 2017-02-03 21:37:46.640136+01

 2017-02-03 22:21:28.825174+01 | 1486156888.82517 |                 0 |               9 |                 15836 |                  692 |            1848479 |             0 |                0 |          962489 |                     0 |        683832 | 2017-02-03 21:37:46.640136+01

 2017-02-03 22:21:29.892066+01 | 1486156889.89207 |                 0 |               9 |                 15836 |                  692 |            1848479 |             0 |                0 |          962489 |                     0 |        683877 | 2017-02-03 21:37:46.640136+01

 2017-02-03 22:21:30.980182+01 | 1486156890.98018 |                 0 |               9 |                 15836 |                  692 |            1848479 |             0 |                0 |          962489 |                     0 |        683985 | 2017-02-03 21:37:46.640136+01

 2017-02-03 22:21:32.073124+01 | 1486156892.07312 |                 0 |               9 |                 15836 |                  692 |            1848479 |             0 |                0 |          962489 |                     0 |        684102 | 2017-02-03 21:37:46.640136+01

 2017-02-03 22:21:33.152676+01 | 1486156893.15268 |                 0 |               9 |                 15836 |                  692 |            1848479 |             0 |                0 |          962489 |                     0 |        684102 | 2017-02-03 21:37:46.640136+01

 2017-02-03 22:21:34.237735+01 | 1486156894.23774 |                 0 |               9 |                 15836 |                  692 |            1848479 |             0 |                0 |          962489 |                     0 |        684299 | 2017-02-03 21:37:46.640136+01

 2017-02-03 22:21:35.32509+01 | 1486156895.32509 |                 0 |               9 |                 15836 |                  692 |            1848479 |             0 |                0 |          962489 |                     0 |        684387 | 2017-02-03 21:37:46.640136+01

 2017-02-03 22:21:36.410437+01 | 1486156896.41044 |                 0 |               9 |                 15836 |                  692 |            1848479 |             0 |                0 |          962489 |                     0 |        684451 | 2017-02-03 21:37:46.640136+01

 2017-02-03 22:21:37.491156+01 | 1486156897.49116 |                 0 |               9 |                 15836 |                  692 |            1848479 |             0 |                0 |          962489 |                     0 |        684601 | 2017-02-03 21:37:46.640136+01

 2017-02-03 22:21:38.579709+01 | 1486156898.57971 |                 0 |               9 |                 15836 |                  692 |            1848479 |             0 |                0 |          962489 |                     0 |        684711 | 2017-02-03 21:37:46.640136+01

 2017-02-03 22:21:39.668401+01 | 1486156899.6684 |                 0 |               9 |                 15836 |                  692 |            1848479 |             0 |                0 |          962489 |                     0 |        684798 | 2017-02-03 21:37:46.640136+01

 2017-02-03 22:21:40.748142+01 | 1486156900.74814 |                 0 |               9 |                 15836 |                  692 |            1848479 |             0 |                0 |          962489 |                     0 |        684860 | 2017-02-03 21:37:46.640136+01

 2017-02-03 22:21:41.832393+01 | 1486156901.83239 |                 0 |               9 |                 15836 |                  692 |            1848479 |             0 |                0 |          962489 |                     0 |        685059 | 2017-02-03 21:37:46.640136+01

 2017-02-03 22:21:42.914639+01 | 1486156902.91464 |                 0 |               9 |                 15836 |                  692 |            1848479 |             0 |                0 |          962489 |                     0 |        685122 | 2017-02-03 21:37:46.640136+01

 2017-02-03 22:21:44.006617+01 | 1486156904.00662 |                 0 |               9 |                 15836 |                  692 |            1848479 |             0 |                0 |          962489 |                     0 |        685235 | 2017-02-03 21:37:46.640136+01

 2017-02-03 22:21:45.096439+01 | 1486156905.09644 |                 0 |               9 |                 15836 |                  692 |            1848479 |             0 |                0 |          962489 |                     0 |        685350 | 2017-02-03 21:37:46.640136+01

 2017-02-03 22:21:46.178158+01 | 1486156906.17816 |                 0 |               9 |                 15836 |                  692 |            1848479 |             0 |                0 |          962489 |                     0 |        685413 | 2017-02-03 21:37:46.640136+01

 2017-02-03 22:21:47.26941+01 | 1486156907.26941 |                 0 |               9 |                 15836 |                  692 |            1848479 |             0 |                0 |          962489 |                     0 |        685570 | 2017-02-03 21:37:46.640136+01

 2017-02-03 22:21:48.341992+01 | 1486156908.34199 |                 0 |               9 |                 15836 |                  692 |            1848479 |             0 |                0 |          962489 |                     0 |        685654 | 2017-02-03 21:37:46.640136+01

 2017-02-03 22:21:49.419833+01 | 1486156909.41983 |                 0 |               9 |                 15836 |                  692 |            1848479 |             0 |                0 |          962489 |                     0 |        685809 | 2017-02-03 21:37:46.640136+01

 2017-02-03 22:21:50.510495+01 | 1486156910.51049 |                 0 |               9 |                 15836 |                  692 |            1848479 |             0 |                0 |          962489 |                     0 |        685852 | 2017-02-03 21:37:46.640136+01

 2017-02-03 22:21:51.605782+01 | 1486156911.60578 |                 0 |               9 |                 15836 |                  692 |            1848479 |             0 |                0 |          962489 |                     0 |        685961 | 2017-02-03 21:37:46.640136+01

 2017-02-03 22:21:52.690782+01 | 1486156912.69078 |                 0 |               9 |                 15836 |                  692 |            1848479 |             0 |                0 |          962489 |                     0 |        686099 | 2017-02-03 21:37:46.640136+01

 2017-02-03 22:21:53.770487+01 | 1486156913.77049 |                 0 |               9 |                 15836 |                  692 |            1848479 |             0 |                0 |          962489 |                     0 |        686185 | 2017-02-03 21:37:46.640136+01

 2017-02-03 22:21:54.849563+01 | 1486156914.84956 |                 0 |               9 |                 15836 |                  692 |            1848479 |             0 |                0 |          962489 |                     0 |        686296 | 2017-02-03 21:37:46.640136+01

 2017-02-03 22:21:55.919646+01 | 1486156915.91965 |                 0 |               9 |                 15836 |                  692 |            1848479 |             0 |                0 |          962489 |                     0 |        686409 | 2017-02-03 21:37:46.640136+01

 2017-02-03 22:21:56.996539+01 | 1486156916.99654 |                 0 |               9 |                 15836 |                  692 |            1848479 |             0 |                0 |          962489 |                     0 |        686499 | 2017-02-03 21:37:46.640136+01

 2017-02-03 22:21:58.069944+01 | 1486156918.06994 |                 0 |               9 |                 15836 |                  692 |            1848479 |             0 |                0 |          962489 |                     0 |        686632 | 2017-02-03 21:37:46.640136+01

 2017-02-03 22:21:59.15424+01 | 1486156919.15424 |                 0 |               9 |                 15836 |                  692 |            1848479 |             0 |                0 |          962489 |                     0 |        686743 | 2017-02-03 21:37:46.640136+01

 2017-02-03 22:22:00.245534+01 | 1486156920.24553 |                 0 |               9 |                 15836 |                  692 |            1848479 |             0 |                0 |          962489 |                     0 |        686819 | 2017-02-03 21:37:46.640136+01

 2017-02-03 22:22:01.33272+01 | 1486156921.33272 |                 0 |               9 |                 15836 |                  692 |            1848479 |             0 |                0 |          962489 |                     0 |        686917 | 2017-02-03 21:37:46.640136+01

 2017-02-03 22:22:02.413356+01 | 1486156922.41336 |                 0 |               9 |                 15836 |                  692 |            1848479 |             0 |                0 |          962489 |                     0 |        687092 | 2017-02-03 21:37:46.640136+01

 2017-02-03 22:22:03.502203+01 | 1486156923.5022 |                 0 |               9 |                 15836 |                  692 |            1848479 |             0 |                0 |          962489 |                     0 |        687158 | 2017-02-03 21:37:46.640136+01

 2017-02-03 22:22:04.574351+01 | 1486156924.57435 |                 0 |               9 |                 15836 |                  692 |            1848479 |             0 |                0 |          962489 |                     0 |        687292 | 2017-02-03 21:37:46.640136+01

 2017-02-03 22:22:05.646047+01 | 1486156925.64605 |                 0 |               9 |                 15836 |                  692 |            1848479 |             0 |                0 |          962489 |                     0 |        687358 | 2017-02-03 21:37:46.640136+01

 2017-02-03 22:22:06.727592+01 | 1486156926.72759 |                 0 |               9 |                 15836 |                  692 |            1848479 |             0 |                0 |          962489 |                     0 |        687486 | 2017-02-03 21:37:46.640136+01

 2017-02-03 22:22:07.814331+01 | 1486156927.81433 |                 0 |               9 |                 15836 |                  692 |            1848479 |             0 |                0 |          962489 |                     0 |        687553 | 2017-02-03 21:37:46.640136+01

 2017-02-03 22:22:08.89181+01 | 1486156928.89181 |                 0 |               9 |                 15836 |                  692 |            1848479 |             0 |                0 |          962489 |                     0 |        687662 | 2017-02-03 21:37:46.640136+01

 2017-02-03 22:22:09.980154+01 | 1486156929.98015 |                 0 |               9 |                 15836 |                  692 |            1848479 |             0 |                0 |          962489 |                     0 |        687795 | 2017-02-03 21:37:46.640136+01

 2017-02-03 22:22:11.057463+01 | 1486156931.05746 |                 0 |               9 |                 15836 |                  692 |            1848479 |             0 |                0 |          962489 |                     0 |        687861 | 2017-02-03 21:37:46.640136+01

 2017-02-03 22:22:12.140123+01 | 1486156932.14012 |                 0 |               9 |                 15836 |                  692 |            1848479 |             0 |                0 |          962489 |                     0 |        687991 | 2017-02-03 21:37:46.640136+01

 2017-02-03 22:22:13.209991+01 | 1486156933.20999 |                 0 |               9 |                 15836 |                  692 |            1848479 |             0 |                0 |          962489 |                     0 |        688075 | 2017-02-03 21:37:46.640136+01

 2017-02-03 22:22:14.290848+01 | 1486156934.29085 |                 0 |               9 |                 15836 |                  692 |            1848479 |             0 |                0 |          962489 |                     0 |        688186 | 2017-02-03 21:37:46.640136+01

 2017-02-03 22:22:15.361784+01 | 1486156935.36178 |                 0 |               9 |                 15836 |                  692 |            1848479 |             0 |                0 |          962489 |                     0 |        688302 | 2017-02-03 21:37:46.640136+01

 2017-02-03 22:22:16.438896+01 | 1486156936.4389 |                 0 |               9 |                 15836 |                  692 |            1848479 |             0 |                0 |          962489 |                     0 |        688436 | 2017-02-03 21:37:46.640136+01

 2017-02-03 22:22:17.522004+01 | 1486156937.522 |                 0 |               9 |                 15836 |                  692 |            1848479 |             0 |                0 |          962489 |                     0 |        688524 | 2017-02-03 21:37:46.640136+01

 2017-02-03 22:22:18.604014+01 | 1486156938.60401 |                 0 |               9 |                 15836 |                  692 |            1848479 |             0 |                0 |          962489 |                     0 |        688614 | 2017-02-03 21:37:46.640136+01

 2017-02-03 22:22:19.685199+01 | 1486156939.6852 |                 0 |               9 |                 15836 |                  692 |            1848479 |             0 |                0 |          962489 |                     0 |        688702 | 2017-02-03 21:37:46.640136+01

 2017-02-03 22:22:20.770103+01 | 1486156940.7701 |                 0 |               9 |                 15836 |                  692 |            1848479 |             0 |                0 |          962489 |                     0 |        688815 | 2017-02-03 21:37:46.640136+01

 2017-02-03 22:22:21.849703+01 | 1486156941.8497 |                 0 |               9 |                 15836 |                  692 |            1848479 |             0 |                0 |          962489 |                     0 |        688933 | 2017-02-03 21:37:46.640136+01

 2017-02-03 22:22:22.922847+01 | 1486156942.92285 |                 0 |               9 |                 15836 |                  692 |            1848479 |             0 |                0 |          962489 |                     0 |        689025 | 2017-02-03 21:37:46.640136+01

 2017-02-03 22:22:23.999645+01 | 1486156943.99964 |                 0 |               9 |                 15836 |                  692 |            1848479 |             0 |                0 |          962489 |                     0 |        689116 | 2017-02-03 21:37:46.640136+01

 2017-02-03 22:22:25.079469+01 | 1486156945.07947 |                 0 |               9 |                 15836 |                  692 |            1848479 |             0 |                0 |          962489 |                     0 |        689278 | 2017-02-03 21:37:46.640136+01

 2017-02-03 22:22:26.16063+01 | 1486156946.16063 |                 0 |               9 |                 15836 |                  692 |            1848479 |             0 |                0 |          962489 |                     0 |        689348 | 2017-02-03 21:37:46.640136+01

 2017-02-03 22:22:27.244975+01 | 1486156947.24498 |                 0 |               9 |                 15836 |                  692 |            1848479 |             0 |                0 |          962489 |                     0 |        689435 | 2017-02-03 21:37:46.640136+01

 2017-02-03 22:22:28.327231+01 | 1486156948.32723 |                 0 |               9 |                 15836 |                  692 |            1848479 |             0 |                0 |          962489 |                     0 |        689589 | 2017-02-03 21:37:46.640136+01

 2017-02-03 22:22:29.410423+01 | 1486156949.41042 |                 0 |               9 |                 15836 |                  692 |            1848479 |             0 |                0 |          962489 |                     0 |        689675 | 2017-02-03 21:37:46.640136+01

 2017-02-03 22:22:30.476116+01 | 1486156950.47612 |                 0 |               9 |                 15836 |                  692 |            1848479 |             0 |                0 |          962489 |                     0 |        689765 | 2017-02-03 21:37:46.640136+01

 2017-02-03 22:22:31.561214+01 | 1486156951.56121 |                 0 |               9 |                 15836 |                  692 |            1848479 |             0 |                0 |          962489 |                     0 |        689896 | 2017-02-03 21:37:46.640136+01

 2017-02-03 22:22:32.635866+01 | 1486156952.63587 |                 0 |               9 |                 15836 |                  692 |            1848479 |             0 |                0 |          962489 |                     0 |        690007 | 2017-02-03 21:37:46.640136+01

 2017-02-03 22:22:33.714363+01 | 1486156953.71436 |                 0 |               9 |                 15836 |                  692 |            1848479 |             0 |                0 |          962489 |                     0 |        690121 | 2017-02-03 21:37:46.640136+01

 2017-02-03 22:22:34.789393+01 | 1486156954.78939 |                 0 |               9 |                 15836 |                  692 |            1848479 |             0 |                0 |          962489 |                     0 |        690192 | 2017-02-03 21:37:46.640136+01

 2017-02-03 22:22:35.882879+01 | 1486156955.88288 |                 0 |               9 |                 15836 |                  692 |            1848479 |             0 |                0 |          962489 |                     0 |        690323 | 2017-02-03 21:37:46.640136+01

 2017-02-03 22:22:36.974639+01 | 1486156956.97464 |                 0 |               9 |                 15836 |                  692 |            1848479 |             0 |                0 |          962489 |                     0 |        690433 | 2017-02-03 21:37:46.640136+01

 2017-02-03 22:22:38.068624+01 | 1486156958.06862 |                 0 |               9 |                 15836 |                  692 |            1848479 |             0 |                0 |          962489 |                     0 |        690528 | 2017-02-03 21:37:46.640136+01

 2017-02-03 22:22:39.14025+01 | 1486156959.14025 |                 0 |               9 |                 15836 |                  692 |            1848479 |             0 |                0 |          962489 |                     0 |        690623 | 2017-02-03 21:37:46.640136+01

 2017-02-03 22:22:40.229436+01 | 1486156960.22944 |                 0 |               9 |                 15836 |                  692 |            1848479 |             0 |                0 |          962489 |                     0 |        690757 | 2017-02-03 21:37:46.640136+01

 2017-02-03 22:22:41.310599+01 | 1486156961.3106 |                 0 |               9 |                 15836 |                  692 |            1848479 |             0 |                0 |          962489 |                     0 |        690820 | 2017-02-03 21:37:46.640136+01

 2017-02-03 22:22:42.392959+01 | 1486156962.39296 |                 0 |               9 |                 15836 |                  692 |            1848479 |             0 |                0 |          962489 |                     0 |        690926 | 2017-02-03 21:37:46.640136+01

 2017-02-03 22:22:43.467135+01 | 1486156963.46713 |                 0 |               9 |                 15836 |                  692 |            1848479 |             0 |                0 |          962489 |                     0 |        691090 | 2017-02-03 21:37:46.640136+01

 2017-02-03 22:22:44.547428+01 | 1486156964.54743 |                 0 |               9 |                 15836 |                  692 |            1848479 |             0 |                0 |          962489 |                     0 |        691141 | 2017-02-03 21:37:46.640136+01

 2017-02-03 22:22:45.636212+01 | 1486156965.63621 |                 0 |               9 |                 15836 |                  692 |            1848479 |             0 |                0 |          962489 |                     0 |        691294 | 2017-02-03 21:37:46.640136+01

 2017-02-03 22:22:46.727381+01 | 1486156966.72738 |                 0 |               9 |                 15836 |                  692 |            1848479 |             0 |                0 |          962489 |                     0 |        691363 | 2017-02-03 21:37:46.640136+01

 2017-02-03 22:22:47.812481+01 | 1486156967.81248 |                 0 |               9 |                 15836 |                  692 |            1848479 |             0 |                0 |          962489 |                     0 |        691435 | 2017-02-03 21:37:46.640136+01

 2017-02-03 22:22:48.881871+01 | 1486156968.88187 |                 0 |               9 |                 15836 |                  692 |            1848479 |             0 |                0 |          962489 |                     0 |        691604 | 2017-02-03 21:37:46.640136+01

 2017-02-03 22:22:49.955536+01 | 1486156969.95554 |                 0 |               9 |                 15836 |                  692 |            1848479 |             0 |                0 |          962489 |                     0 |        691728 | 2017-02-03 21:37:46.640136+01

 2017-02-03 22:22:51.043295+01 | 1486156971.04329 |                 0 |               9 |                 15836 |                  692 |            1848479 |             0 |                0 |          962489 |                     0 |        691791 | 2017-02-03 21:37:46.640136+01

 2017-02-03 22:22:52.137966+01 | 1486156972.13797 |                 0 |               9 |                 15836 |                  692 |            1848479 |             0 |                0 |          962489 |                     0 |        691938 | 2017-02-03 21:37:46.640136+01

 2017-02-03 22:22:53.218323+01 | 1486156973.21832 |                 0 |               9 |                 15836 |                  692 |            1848479 |             0 |                0 |          962489 |                     0 |        692001 | 2017-02-03 21:37:46.640136+01

 2017-02-03 22:22:54.313029+01 | 1486156974.31303 |                 0 |               9 |                 15836 |                  692 |            1848479 |             0 |                0 |          962489 |                     0 |        692138 | 2017-02-03 21:37:46.640136+01

 2017-02-03 22:22:55.398734+01 | 1486156975.39873 |                 0 |               9 |                 15836 |                  692 |            1848479 |             0 |                0 |          962489 |                     0 |        692201 | 2017-02-03 21:37:46.640136+01

 2017-02-03 22:22:56.482376+01 | 1486156976.48238 |                 0 |               9 |                 15836 |                  692 |            1848479 |             0 |                0 |          962489 |                     0 |        692335 | 2017-02-03 21:37:46.640136+01

 2017-02-03 22:22:57.574804+01 | 1486156977.5748 |                 0 |               9 |                 15836 |                  692 |            1848479 |             0 |                0 |          962489 |                     0 |        692412 | 2017-02-03 21:37:46.640136+01

 2017-02-03 22:22:58.666445+01 | 1486156978.66645 |                 0 |               9 |                 15836 |                  692 |            1848479 |             0 |                0 |          962489 |                     0 |        692585 | 2017-02-03 21:37:46.640136+01

 2017-02-03 22:22:59.75732+01 | 1486156979.75732 |                 0 |               9 |                 15836 |                  692 |            1848479 |             0 |                0 |          962489 |                     0 |        692630 | 2017-02-03 21:37:46.640136+01

 2017-02-03 22:23:00.836669+01 | 1486156980.83667 |                 0 |               9 |                 15836 |                  692 |            1848479 |             0 |                0 |          962489 |                     0 |        692744 | 2017-02-03 21:37:46.640136+01

 2017-02-03 22:23:01.914973+01 | 1486156981.91497 |                 0 |               9 |                 15836 |                  692 |            1848479 |             0 |                0 |          962489 |                     0 |        692900 | 2017-02-03 21:37:46.640136+01

 2017-02-03 22:23:03.006798+01 | 1486156983.0068 |                 0 |               9 |                 15836 |                  692 |            1848479 |             0 |                0 |          962489 |                     0 |        693046 | 2017-02-03 21:37:46.640136+01

 2017-02-03 22:23:04.078802+01 | 1486156984.0788 |                 0 |               9 |                 15836 |                  692 |            1848479 |             0 |                0 |          962489 |                     0 |        693047 | 2017-02-03 21:37:46.640136+01

 2017-02-03 22:23:05.147663+01 | 1486156985.14766 |                 0 |               9 |                 15836 |                  692 |            1848479 |             0 |                0 |          962489 |                     0 |        693134 | 2017-02-03 21:37:46.640136+01

 2017-02-03 22:23:06.23004+01 | 1486156986.23004 |                 0 |               9 |                 15836 |                  692 |            1848479 |             0 |                0 |          962489 |                     0 |        693269 | 2017-02-03 21:37:46.640136+01

 2017-02-03 22:23:07.319266+01 | 1486156987.31927 |                 0 |               9 |                 15836 |                  692 |            1848479 |             0 |                0 |          962489 |                     0 |        693400 | 2017-02-03 21:37:46.640136+01

 2017-02-03 22:23:08.408059+01 | 1486156988.40806 |                 0 |               9 |                 15836 |                  692 |            1848479 |             0 |                0 |          962489 |                     0 |        693471 | 2017-02-03 21:37:46.640136+01

 2017-02-03 22:23:09.49731+01 | 1486156989.49731 |                 0 |               9 |                 15836 |                  692 |            1848479 |             0 |                0 |          962489 |                     0 |        693607 | 2017-02-03 21:37:46.640136+01

 2017-02-03 22:23:10.569331+01 | 1486156990.56933 |                 0 |               9 |                 15836 |                  692 |            1848479 |             0 |                0 |          962489 |                     0 |        693721 | 2017-02-03 21:37:46.640136+01

 2017-02-03 22:23:11.654472+01 | 1486156991.65447 |                 0 |               9 |                 15836 |                  692 |            1848479 |             0 |                0 |          962489 |                     0 |        693788 | 2017-02-03 21:37:46.640136+01

 2017-02-03 22:23:12.743618+01 | 1486156992.74362 |                 0 |               9 |                 15836 |                  692 |            1848479 |             0 |                0 |          962489 |                     0 |        693925 | 2017-02-03 21:37:46.640136+01

 2017-02-03 22:23:13.833003+01 | 1486156993.833 |                 0 |               9 |                 15836 |                  692 |            1848479 |             0 |                0 |          962489 |                     0 |        694065 | 2017-02-03 21:37:46.640136+01

 2017-02-03 22:23:14.921437+01 | 1486156994.92144 |                 0 |               9 |                 15836 |                  692 |            1848479 |             0 |                0 |          962489 |                     0 |        694133 | 2017-02-03 21:37:46.640136+01

 2017-02-03 22:23:15.996156+01 | 1486156995.99616 |                 0 |               9 |                 15836 |                  692 |            1848479 |             0 |                0 |          962489 |                     0 |        694227 | 2017-02-03 21:37:46.640136+01

 2017-02-03 22:23:17.066271+01 | 1486156997.06627 |                 0 |               9 |                 15836 |                  692 |            1848479 |             0 |                0 |          962489 |                     0 |        694326 | 2017-02-03 21:37:46.640136+01

 2017-02-03 22:23:18.139963+01 | 1486156998.13996 |                 0 |               9 |                 15836 |                  692 |            1848479 |             0 |                0 |          962489 |                     0 |        694426 | 2017-02-03 21:37:46.640136+01

 2017-02-03 22:23:19.224898+01 | 1486156999.2249 |                 0 |               9 |                 15836 |                  692 |            1848479 |             0 |                0 |          962489 |                     0 |        694538 | 2017-02-03 21:37:46.640136+01

 2017-02-03 22:23:20.311359+01 | 1486157000.31136 |                 0 |               9 |                 15836 |                  692 |            1848479 |             0 |                0 |          962489 |                     0 |        694653 | 2017-02-03 21:37:46.640136+01

 2017-02-03 22:23:21.399943+01 | 1486157001.39994 |                 0 |               9 |                 15836 |                  692 |            1848479 |             0 |                0 |          962489 |                     0 |        694757 | 2017-02-03 21:37:46.640136+01

 2017-02-03 22:23:22.48825+01 | 1486157002.48825 |                 0 |               9 |                 15836 |                  692 |            1848479 |             0 |                0 |          962489 |                     0 |        694849 | 2017-02-03 21:37:46.640136+01

 2017-02-03 22:23:23.575678+01 | 1486157003.57568 |                 0 |               9 |                 15836 |                  692 |            1848479 |             0 |                0 |          962489 |                     0 |        694982 | 2017-02-03 21:37:46.640136+01

 2017-02-03 22:23:24.653828+01 | 1486157004.65383 |                 0 |               9 |                 15836 |                  692 |            1848479 |             0 |                0 |          962489 |                     0 |        695096 | 2017-02-03 21:37:46.640136+01

 2017-02-03 22:23:25.735932+01 | 1486157005.73593 |                 0 |               9 |                 15836 |                  692 |            1848479 |             0 |                0 |          962489 |                     0 |        695163 | 2017-02-03 21:37:46.640136+01

 2017-02-03 22:23:26.820835+01 | 1486157006.82084 |                 0 |               9 |                 15836 |                  692 |            1848479 |             0 |                0 |          962489 |                     0 |        695294 | 2017-02-03 21:37:46.640136+01

 2017-02-03 22:23:27.905775+01 | 1486157007.90578 |                 0 |               9 |                 15836 |                  692 |            1848479 |             0 |                0 |          962489 |                     0 |        695404 | 2017-02-03 21:37:46.640136+01

 2017-02-03 22:23:28.987886+01 | 1486157008.98789 |                 0 |               9 |                 15836 |                  692 |            1848479 |             0 |                0 |          962489 |                     0 |        695494 | 2017-02-03 21:37:46.640136+01

 2017-02-03 22:23:30.053915+01 | 1486157010.05392 |                 0 |               9 |                 15836 |                  692 |            1848479 |             0 |                0 |          962489 |                     0 |        695600 | 2017-02-03 21:37:46.640136+01

 2017-02-03 22:23:31.147751+01 | 1486157011.14775 |                 0 |               9 |                 15836 |                  692 |            1848479 |             0 |                0 |          962489 |                     0 |        695735 | 2017-02-03 21:37:46.640136+01

