 2017-02-03 22:18:31.42671+01 | 1486156711.42671 | pgbench_accounts |       1393475584
 2017-02-03 22:18:31.42671+01 | 1486156711.42671 | pgbench_tellers  |          3776512
 2017-02-03 22:18:31.42671+01 | 1486156711.42671 | pgbench_history  |             8192
 2017-02-03 22:18:31.42671+01 | 1486156711.42671 | pgbench_branches |          2646016

 2017-02-03 22:18:32.520039+01 | 1486156712.52004 | pgbench_accounts |       1393475584
 2017-02-03 22:18:32.520039+01 | 1486156712.52004 | pgbench_tellers  |          3776512
 2017-02-03 22:18:32.520039+01 | 1486156712.52004 | pgbench_history  |           876544
 2017-02-03 22:18:32.520039+01 | 1486156712.52004 | pgbench_branches |          2646016

 2017-02-03 22:18:33.596659+01 | 1486156713.59666 | pgbench_accounts |       1393475584
 2017-02-03 22:18:33.596659+01 | 1486156713.59666 | pgbench_tellers  |          3776512
 2017-02-03 22:18:33.596659+01 | 1486156713.59666 | pgbench_history  |          1826816
 2017-02-03 22:18:33.596659+01 | 1486156713.59666 | pgbench_branches |          2646016

 2017-02-03 22:18:34.687286+01 | 1486156714.68729 | pgbench_accounts |       1393475584
 2017-02-03 22:18:34.687286+01 | 1486156714.68729 | pgbench_tellers  |          3776512
 2017-02-03 22:18:34.687286+01 | 1486156714.68729 | pgbench_history  |          2646016
 2017-02-03 22:18:34.687286+01 | 1486156714.68729 | pgbench_branches |          2646016

 2017-02-03 22:18:35.764721+01 | 1486156715.76472 | pgbench_accounts |       1393475584
 2017-02-03 22:18:35.764721+01 | 1486156715.76472 | pgbench_tellers  |          3776512
 2017-02-03 22:18:35.764721+01 | 1486156715.76472 | pgbench_history  |          3899392
 2017-02-03 22:18:35.764721+01 | 1486156715.76472 | pgbench_branches |          2646016

 2017-02-03 22:18:36.849126+01 | 1486156716.84913 | pgbench_accounts |       1393475584
 2017-02-03 22:18:36.849126+01 | 1486156716.84913 | pgbench_tellers  |          3776512
 2017-02-03 22:18:36.849126+01 | 1486156716.84913 | pgbench_history  |          4292608
 2017-02-03 22:18:36.849126+01 | 1486156716.84913 | pgbench_branches |          2646016

 2017-02-03 22:18:37.934792+01 | 1486156717.93479 | pgbench_accounts |       1393475584
 2017-02-03 22:18:37.934792+01 | 1486156717.93479 | pgbench_tellers  |          3776512
 2017-02-03 22:18:37.934792+01 | 1486156717.93479 | pgbench_history  |          5160960
 2017-02-03 22:18:37.934792+01 | 1486156717.93479 | pgbench_branches |          2646016

 2017-02-03 22:18:39.029902+01 | 1486156719.0299 | pgbench_accounts |       1393475584
 2017-02-03 22:18:39.029902+01 | 1486156719.0299 | pgbench_tellers  |          3776512
 2017-02-03 22:18:39.029902+01 | 1486156719.0299 | pgbench_history  |          6135808
 2017-02-03 22:18:39.029902+01 | 1486156719.0299 | pgbench_branches |          2646016

 2017-02-03 22:18:40.112162+01 | 1486156720.11216 | pgbench_accounts |       1393475584
 2017-02-03 22:18:40.112162+01 | 1486156720.11216 | pgbench_tellers  |          3776512
 2017-02-03 22:18:40.112162+01 | 1486156720.11216 | pgbench_history  |          7610368
 2017-02-03 22:18:40.112162+01 | 1486156720.11216 | pgbench_branches |          2646016

 2017-02-03 22:18:41.196771+01 | 1486156721.19677 | pgbench_accounts |       1393475584
 2017-02-03 22:18:41.196771+01 | 1486156721.19677 | pgbench_tellers  |          3776512
 2017-02-03 22:18:41.196771+01 | 1486156721.19677 | pgbench_history  |          8159232
 2017-02-03 22:18:41.196771+01 | 1486156721.19677 | pgbench_branches |          2646016

 2017-02-03 22:18:42.282079+01 | 1486156722.28208 | pgbench_accounts |       1393475584
 2017-02-03 22:18:42.282079+01 | 1486156722.28208 | pgbench_tellers  |          3776512
 2017-02-03 22:18:42.282079+01 | 1486156722.28208 | pgbench_history  |          9076736
 2017-02-03 22:18:42.282079+01 | 1486156722.28208 | pgbench_branches |          2646016

 2017-02-03 22:18:43.370916+01 | 1486156723.37092 | pgbench_accounts |       1393475584
 2017-02-03 22:18:43.370916+01 | 1486156723.37092 | pgbench_tellers  |          3776512
 2017-02-03 22:18:43.370916+01 | 1486156723.37092 | pgbench_history  |         10166272
 2017-02-03 22:18:43.370916+01 | 1486156723.37092 | pgbench_branches |          2646016

 2017-02-03 22:18:44.450056+01 | 1486156724.45006 | pgbench_accounts |       1393475584
 2017-02-03 22:18:44.450056+01 | 1486156724.45006 | pgbench_tellers  |          3776512
 2017-02-03 22:18:44.450056+01 | 1486156724.45006 | pgbench_history  |         10805248
 2017-02-03 22:18:44.450056+01 | 1486156724.45006 | pgbench_branches |          2646016

 2017-02-03 22:18:45.535231+01 | 1486156725.53523 | pgbench_accounts |       1393475584
 2017-02-03 22:18:45.535231+01 | 1486156725.53523 | pgbench_tellers  |          3776512
 2017-02-03 22:18:45.535231+01 | 1486156725.53523 | pgbench_history  |         12058624
 2017-02-03 22:18:45.535231+01 | 1486156725.53523 | pgbench_branches |          2646016

 2017-02-03 22:18:46.60576+01 | 1486156726.60576 | pgbench_accounts |       1393475584
 2017-02-03 22:18:46.60576+01 | 1486156726.60576 | pgbench_tellers  |          3776512
 2017-02-03 22:18:46.60576+01 | 1486156726.60576 | pgbench_history  |         12959744
 2017-02-03 22:18:46.60576+01 | 1486156726.60576 | pgbench_branches |          2646016

 2017-02-03 22:18:47.68495+01 | 1486156727.68495 | pgbench_accounts |       1393475584
 2017-02-03 22:18:47.68495+01 | 1486156727.68495 | pgbench_tellers  |          3776512
 2017-02-03 22:18:47.68495+01 | 1486156727.68495 | pgbench_history  |         14049280
 2017-02-03 22:18:47.68495+01 | 1486156727.68495 | pgbench_branches |          2646016

 2017-02-03 22:18:48.768935+01 | 1486156728.76893 | pgbench_accounts |       1393475584
 2017-02-03 22:18:48.768935+01 | 1486156728.76893 | pgbench_tellers  |          3776512
 2017-02-03 22:18:48.768935+01 | 1486156728.76893 | pgbench_history  |         14598144
 2017-02-03 22:18:48.768935+01 | 1486156728.76893 | pgbench_branches |          2646016

 2017-02-03 22:18:49.845836+01 | 1486156729.84584 | pgbench_accounts |       1393475584
 2017-02-03 22:18:49.845836+01 | 1486156729.84584 | pgbench_tellers  |          3776512
 2017-02-03 22:18:49.845836+01 | 1486156729.84584 | pgbench_history  |         15695872
 2017-02-03 22:18:49.845836+01 | 1486156729.84584 | pgbench_branches |          2646016

 2017-02-03 22:18:50.931201+01 | 1486156730.9312 | pgbench_accounts |       1393475584
 2017-02-03 22:18:50.931201+01 | 1486156730.9312 | pgbench_tellers  |          3776512
 2017-02-03 22:18:50.931201+01 | 1486156730.9312 | pgbench_history  |         16375808
 2017-02-03 22:18:50.931201+01 | 1486156730.9312 | pgbench_branches |          2646016

 2017-02-03 22:18:52.016279+01 | 1486156732.01628 | pgbench_accounts |       1393475584
 2017-02-03 22:18:52.016279+01 | 1486156732.01628 | pgbench_tellers  |          3776512
 2017-02-03 22:18:52.016279+01 | 1486156732.01628 | pgbench_history  |         17358848
 2017-02-03 22:18:52.016279+01 | 1486156732.01628 | pgbench_branches |          2646016

 2017-02-03 22:18:53.10178+01 | 1486156733.10178 | pgbench_accounts |       1393475584
 2017-02-03 22:18:53.10178+01 | 1486156733.10178 | pgbench_tellers  |          3776512
 2017-02-03 22:18:53.10178+01 | 1486156733.10178 | pgbench_history  |         18448384
 2017-02-03 22:18:53.10178+01 | 1486156733.10178 | pgbench_branches |          2646016

 2017-02-03 22:18:54.191322+01 | 1486156734.19132 | pgbench_accounts |       1393475584
 2017-02-03 22:18:54.191322+01 | 1486156734.19132 | pgbench_tellers  |          3776512
 2017-02-03 22:18:54.191322+01 | 1486156734.19132 | pgbench_history  |         19218432
 2017-02-03 22:18:54.191322+01 | 1486156734.19132 | pgbench_branches |          2646016

 2017-02-03 22:18:55.274124+01 | 1486156735.27412 | pgbench_accounts |       1393475584
 2017-02-03 22:18:55.274124+01 | 1486156735.27412 | pgbench_tellers  |          3776512
 2017-02-03 22:18:55.274124+01 | 1486156735.27412 | pgbench_history  |         20094976
 2017-02-03 22:18:55.274124+01 | 1486156735.27412 | pgbench_branches |          2646016

 2017-02-03 22:18:56.359515+01 | 1486156736.35951 | pgbench_accounts |       1393475584
 2017-02-03 22:18:56.359515+01 | 1486156736.35951 | pgbench_tellers  |          3776512
 2017-02-03 22:18:56.359515+01 | 1486156736.35951 | pgbench_history  |         21045248
 2017-02-03 22:18:56.359515+01 | 1486156736.35951 | pgbench_branches |          2646016

 2017-02-03 22:18:57.433991+01 | 1486156737.43399 | pgbench_accounts |       1393475584
 2017-02-03 22:18:57.433991+01 | 1486156737.43399 | pgbench_tellers  |          3776512
 2017-02-03 22:18:57.433991+01 | 1486156737.43399 | pgbench_history  |         21954560
 2017-02-03 22:18:57.433991+01 | 1486156737.43399 | pgbench_branches |          2646016

 2017-02-03 22:18:58.510355+01 | 1486156738.51035 | pgbench_accounts |       1393475584
 2017-02-03 22:18:58.510355+01 | 1486156738.51035 | pgbench_tellers  |          3776512
 2017-02-03 22:18:58.510355+01 | 1486156738.51035 | pgbench_history  |         22716416
 2017-02-03 22:18:58.510355+01 | 1486156738.51035 | pgbench_branches |          2646016

 2017-02-03 22:18:59.595981+01 | 1486156739.59598 | pgbench_accounts |       1393475584
 2017-02-03 22:18:59.595981+01 | 1486156739.59598 | pgbench_tellers  |          3776512
 2017-02-03 22:18:59.595981+01 | 1486156739.59598 | pgbench_history  |         23773184
 2017-02-03 22:18:59.595981+01 | 1486156739.59598 | pgbench_branches |          2646016

 2017-02-03 22:19:00.681711+01 | 1486156740.68171 | pgbench_accounts |       1393475584
 2017-02-03 22:19:00.681711+01 | 1486156740.68171 | pgbench_tellers  |          3776512
 2017-02-03 22:19:00.681711+01 | 1486156740.68171 | pgbench_history  |         24469504
 2017-02-03 22:19:00.681711+01 | 1486156740.68171 | pgbench_branches |          2646016

 2017-02-03 22:19:01.760706+01 | 1486156741.76071 | pgbench_accounts |       1393475584
 2017-02-03 22:19:01.760706+01 | 1486156741.76071 | pgbench_tellers  |          3776512
 2017-02-03 22:19:01.760706+01 | 1486156741.76071 | pgbench_history  |         25346048
 2017-02-03 22:19:01.760706+01 | 1486156741.76071 | pgbench_branches |          2646016

 2017-02-03 22:19:02.849657+01 | 1486156742.84966 | pgbench_accounts |       1393475584
 2017-02-03 22:19:02.849657+01 | 1486156742.84966 | pgbench_tellers  |          3776512
 2017-02-03 22:19:02.849657+01 | 1486156742.84966 | pgbench_history  |         26550272
 2017-02-03 22:19:02.849657+01 | 1486156742.84966 | pgbench_branches |          2646016

 2017-02-03 22:19:03.923718+01 | 1486156743.92372 | pgbench_accounts |       1393475584
 2017-02-03 22:19:03.923718+01 | 1486156743.92372 | pgbench_tellers  |          3776512
 2017-02-03 22:19:03.923718+01 | 1486156743.92372 | pgbench_history  |         27287552
 2017-02-03 22:19:03.923718+01 | 1486156743.92372 | pgbench_branches |          2646016

 2017-02-03 22:19:05.005115+01 | 1486156745.00512 | pgbench_accounts |       1393475584
 2017-02-03 22:19:05.005115+01 | 1486156745.00512 | pgbench_tellers  |          3776512
 2017-02-03 22:19:05.005115+01 | 1486156745.00512 | pgbench_history  |         28008448
 2017-02-03 22:19:05.005115+01 | 1486156745.00512 | pgbench_branches |          2646016

 2017-02-03 22:19:06.080946+01 | 1486156746.08095 | pgbench_accounts |       1393475584
 2017-02-03 22:19:06.080946+01 | 1486156746.08095 | pgbench_tellers  |          3776512
 2017-02-03 22:19:06.080946+01 | 1486156746.08095 | pgbench_history  |         29368320
 2017-02-03 22:19:06.080946+01 | 1486156746.08095 | pgbench_branches |          2646016

 2017-02-03 22:19:07.165052+01 | 1486156747.16505 | pgbench_accounts |       1393475584
 2017-02-03 22:19:07.165052+01 | 1486156747.16505 | pgbench_tellers  |          3776512
 2017-02-03 22:19:07.165052+01 | 1486156747.16505 | pgbench_history  |         29581312
 2017-02-03 22:19:07.165052+01 | 1486156747.16505 | pgbench_branches |          2646016

 2017-02-03 22:19:08.24162+01 | 1486156748.24162 | pgbench_accounts |       1393475584
 2017-02-03 22:19:08.24162+01 | 1486156748.24162 | pgbench_tellers  |          3776512
 2017-02-03 22:19:08.24162+01 | 1486156748.24162 | pgbench_history  |         30466048
 2017-02-03 22:19:08.24162+01 | 1486156748.24162 | pgbench_branches |          2646016

 2017-02-03 22:19:09.324462+01 | 1486156749.32446 | pgbench_accounts |       1393475584
 2017-02-03 22:19:09.324462+01 | 1486156749.32446 | pgbench_tellers  |          3776512
 2017-02-03 22:19:09.324462+01 | 1486156749.32446 | pgbench_history  |         31719424
 2017-02-03 22:19:09.324462+01 | 1486156749.32446 | pgbench_branches |          2646016

 2017-02-03 22:19:10.398599+01 | 1486156750.3986 | pgbench_accounts |       1393475584
 2017-02-03 22:19:10.398599+01 | 1486156750.3986 | pgbench_tellers  |          3776512
 2017-02-03 22:19:10.398599+01 | 1486156750.3986 | pgbench_history  |         32448512
 2017-02-03 22:19:10.398599+01 | 1486156750.3986 | pgbench_branches |          2646016

 2017-02-03 22:19:11.478415+01 | 1486156751.47842 | pgbench_accounts |       1393475584
 2017-02-03 22:19:11.478415+01 | 1486156751.47842 | pgbench_tellers  |          3776512
 2017-02-03 22:19:11.478415+01 | 1486156751.47842 | pgbench_history  |         33161216
 2017-02-03 22:19:11.478415+01 | 1486156751.47842 | pgbench_branches |          2646016

 2017-02-03 22:19:12.554887+01 | 1486156752.55489 | pgbench_accounts |       1393475584
 2017-02-03 22:19:12.554887+01 | 1486156752.55489 | pgbench_tellers  |          3776512
 2017-02-03 22:19:12.554887+01 | 1486156752.55489 | pgbench_history  |         33890304
 2017-02-03 22:19:12.554887+01 | 1486156752.55489 | pgbench_branches |          2646016

 2017-02-03 22:19:13.632773+01 | 1486156753.63277 | pgbench_accounts |       1393475584
 2017-02-03 22:19:13.632773+01 | 1486156753.63277 | pgbench_tellers  |          3776512
 2017-02-03 22:19:13.632773+01 | 1486156753.63277 | pgbench_history  |         34930688
 2017-02-03 22:19:13.632773+01 | 1486156753.63277 | pgbench_branches |          2646016

 2017-02-03 22:19:14.709353+01 | 1486156754.70935 | pgbench_accounts |       1393475584
 2017-02-03 22:19:14.709353+01 | 1486156754.70935 | pgbench_tellers  |          3776512
 2017-02-03 22:19:14.709353+01 | 1486156754.70935 | pgbench_history  |         35659776
 2017-02-03 22:19:14.709353+01 | 1486156754.70935 | pgbench_branches |          2646016

 2017-02-03 22:19:15.788575+01 | 1486156755.78857 | pgbench_accounts |       1393475584
 2017-02-03 22:19:15.788575+01 | 1486156755.78857 | pgbench_tellers  |          3776512
 2017-02-03 22:19:15.788575+01 | 1486156755.78857 | pgbench_history  |         37027840
 2017-02-03 22:19:15.788575+01 | 1486156755.78857 | pgbench_branches |          2646016

 2017-02-03 22:19:16.863586+01 | 1486156756.86359 | pgbench_accounts |       1393475584
 2017-02-03 22:19:16.863586+01 | 1486156756.86359 | pgbench_tellers  |          3776512
 2017-02-03 22:19:16.863586+01 | 1486156756.86359 | pgbench_history  |         38060032
 2017-02-03 22:19:16.863586+01 | 1486156756.86359 | pgbench_branches |          2646016

 2017-02-03 22:19:17.935253+01 | 1486156757.93525 | pgbench_accounts |       1393475584
 2017-02-03 22:19:17.935253+01 | 1486156757.93525 | pgbench_tellers  |          3776512
 2017-02-03 22:19:17.935253+01 | 1486156757.93525 | pgbench_history  |         38584320
 2017-02-03 22:19:17.935253+01 | 1486156757.93525 | pgbench_branches |          2646016

 2017-02-03 22:19:19.018287+01 | 1486156759.01829 | pgbench_accounts |       1393475584
 2017-02-03 22:19:19.018287+01 | 1486156759.01829 | pgbench_tellers  |          3776512
 2017-02-03 22:19:19.018287+01 | 1486156759.01829 | pgbench_history  |         39116800
 2017-02-03 22:19:19.018287+01 | 1486156759.01829 | pgbench_branches |          2646016

 2017-02-03 22:19:20.097802+01 | 1486156760.0978 | pgbench_accounts |       1393475584
 2017-02-03 22:19:20.097802+01 | 1486156760.0978 | pgbench_tellers  |          3776512
 2017-02-03 22:19:20.097802+01 | 1486156760.0978 | pgbench_history  |         39837696
 2017-02-03 22:19:20.097802+01 | 1486156760.0978 | pgbench_branches |          2646016

 2017-02-03 22:19:21.18682+01 | 1486156761.18682 | pgbench_accounts |       1393475584
 2017-02-03 22:19:21.18682+01 | 1486156761.18682 | pgbench_tellers  |          3776512
 2017-02-03 22:19:21.18682+01 | 1486156761.18682 | pgbench_history  |         40706048
 2017-02-03 22:19:21.18682+01 | 1486156761.18682 | pgbench_branches |          2646016

 2017-02-03 22:19:22.273446+01 | 1486156762.27345 | pgbench_accounts |       1393475584
 2017-02-03 22:19:22.273446+01 | 1486156762.27345 | pgbench_tellers  |          3776512
 2017-02-03 22:19:22.273446+01 | 1486156762.27345 | pgbench_history  |         41590784
 2017-02-03 22:19:22.273446+01 | 1486156762.27345 | pgbench_branches |          2646016

 2017-02-03 22:19:23.355682+01 | 1486156763.35568 | pgbench_accounts |       1393475584
 2017-02-03 22:19:23.355682+01 | 1486156763.35568 | pgbench_tellers  |          3776512
 2017-02-03 22:19:23.355682+01 | 1486156763.35568 | pgbench_history  |         42418176
 2017-02-03 22:19:23.355682+01 | 1486156763.35568 | pgbench_branches |          2646016

 2017-02-03 22:19:24.438585+01 | 1486156764.43859 | pgbench_accounts |       1393475584
 2017-02-03 22:19:24.438585+01 | 1486156764.43859 | pgbench_tellers  |          3776512
 2017-02-03 22:19:24.438585+01 | 1486156764.43859 | pgbench_history  |         43286528
 2017-02-03 22:19:24.438585+01 | 1486156764.43859 | pgbench_branches |          2646016

 2017-02-03 22:19:25.511984+01 | 1486156765.51198 | pgbench_accounts |       1393475584
 2017-02-03 22:19:25.511984+01 | 1486156765.51198 | pgbench_tellers  |          3776512
 2017-02-03 22:19:25.511984+01 | 1486156765.51198 | pgbench_history  |         44163072
 2017-02-03 22:19:25.511984+01 | 1486156765.51198 | pgbench_branches |          2646016

 2017-02-03 22:19:26.582419+01 | 1486156766.58242 | pgbench_accounts |       1393475584
 2017-02-03 22:19:26.582419+01 | 1486156766.58242 | pgbench_tellers  |          3776512
 2017-02-03 22:19:26.582419+01 | 1486156766.58242 | pgbench_history  |         45031424
 2017-02-03 22:19:26.582419+01 | 1486156766.58242 | pgbench_branches |          2646016

 2017-02-03 22:19:27.653483+01 | 1486156767.65348 | pgbench_accounts |       1393475584
 2017-02-03 22:19:27.653483+01 | 1486156767.65348 | pgbench_tellers  |          3776512
 2017-02-03 22:19:27.653483+01 | 1486156767.65348 | pgbench_history  |         45948928
 2017-02-03 22:19:27.653483+01 | 1486156767.65348 | pgbench_branches |          2646016

 2017-02-03 22:19:28.741175+01 | 1486156768.74117 | pgbench_accounts |       1393475584
 2017-02-03 22:19:28.741175+01 | 1486156768.74117 | pgbench_tellers  |          3776512
 2017-02-03 22:19:28.741175+01 | 1486156768.74117 | pgbench_history  |         46891008
 2017-02-03 22:19:28.741175+01 | 1486156768.74117 | pgbench_branches |          2646016

 2017-02-03 22:19:29.809068+01 | 1486156769.80907 | pgbench_accounts |       1393475584
 2017-02-03 22:19:29.809068+01 | 1486156769.80907 | pgbench_tellers  |          3776512
 2017-02-03 22:19:29.809068+01 | 1486156769.80907 | pgbench_history  |         47792128
 2017-02-03 22:19:29.809068+01 | 1486156769.80907 | pgbench_branches |          2646016

 2017-02-03 22:19:30.893028+01 | 1486156770.89303 | pgbench_accounts |       1393475584
 2017-02-03 22:19:30.893028+01 | 1486156770.89303 | pgbench_tellers  |          3776512
 2017-02-03 22:19:30.893028+01 | 1486156770.89303 | pgbench_history  |         48709632
 2017-02-03 22:19:30.893028+01 | 1486156770.89303 | pgbench_branches |          2646016

 2017-02-03 22:19:31.980596+01 | 1486156771.9806 | pgbench_accounts |       1393475584
 2017-02-03 22:19:31.980596+01 | 1486156771.9806 | pgbench_tellers  |          3776512
 2017-02-03 22:19:31.980596+01 | 1486156771.9806 | pgbench_history  |         49602560
 2017-02-03 22:19:31.980596+01 | 1486156771.9806 | pgbench_branches |          2646016

 2017-02-03 22:19:33.065175+01 | 1486156773.06518 | pgbench_accounts |       1393475584
 2017-02-03 22:19:33.065175+01 | 1486156773.06518 | pgbench_tellers  |          3776512
 2017-02-03 22:19:33.065175+01 | 1486156773.06518 | pgbench_history  |         50339840
 2017-02-03 22:19:33.065175+01 | 1486156773.06518 | pgbench_branches |          2646016

 2017-02-03 22:19:34.152712+01 | 1486156774.15271 | pgbench_accounts |       1393475584
 2017-02-03 22:19:34.152712+01 | 1486156774.15271 | pgbench_tellers  |          3776512
 2017-02-03 22:19:34.152712+01 | 1486156774.15271 | pgbench_history  |         51077120
 2017-02-03 22:19:34.152712+01 | 1486156774.15271 | pgbench_branches |          2646016

 2017-02-03 22:19:35.239475+01 | 1486156775.23948 | pgbench_accounts |       1393475584
 2017-02-03 22:19:35.239475+01 | 1486156775.23948 | pgbench_tellers  |          3776512
 2017-02-03 22:19:35.239475+01 | 1486156775.23948 | pgbench_history  |         51986432
 2017-02-03 22:19:35.239475+01 | 1486156775.23948 | pgbench_branches |          2646016

 2017-02-03 22:19:36.323369+01 | 1486156776.32337 | pgbench_accounts |       1393475584
 2017-02-03 22:19:36.323369+01 | 1486156776.32337 | pgbench_tellers  |          3776512
 2017-02-03 22:19:36.323369+01 | 1486156776.32337 | pgbench_history  |         52920320
 2017-02-03 22:19:36.323369+01 | 1486156776.32337 | pgbench_branches |          2646016

 2017-02-03 22:19:37.397056+01 | 1486156777.39706 | pgbench_accounts |       1393475584
 2017-02-03 22:19:37.397056+01 | 1486156777.39706 | pgbench_tellers  |          3776512
 2017-02-03 22:19:37.397056+01 | 1486156777.39706 | pgbench_history  |         53633024
 2017-02-03 22:19:37.397056+01 | 1486156777.39706 | pgbench_branches |          2646016

 2017-02-03 22:19:38.474531+01 | 1486156778.47453 | pgbench_accounts |       1393475584
 2017-02-03 22:19:38.474531+01 | 1486156778.47453 | pgbench_tellers  |          3776512
 2017-02-03 22:19:38.474531+01 | 1486156778.47453 | pgbench_history  |         54599680
 2017-02-03 22:19:38.474531+01 | 1486156778.47453 | pgbench_branches |          2646016

 2017-02-03 22:19:39.553478+01 | 1486156779.55348 | pgbench_accounts |       1393475584
 2017-02-03 22:19:39.553478+01 | 1486156779.55348 | pgbench_tellers  |          3776512
 2017-02-03 22:19:39.553478+01 | 1486156779.55348 | pgbench_history  |         55468032
 2017-02-03 22:19:39.553478+01 | 1486156779.55348 | pgbench_branches |          2646016

 2017-02-03 22:19:40.641984+01 | 1486156780.64198 | pgbench_accounts |       1393475584
 2017-02-03 22:19:40.641984+01 | 1486156780.64198 | pgbench_tellers  |          3776512
 2017-02-03 22:19:40.641984+01 | 1486156780.64198 | pgbench_history  |         56270848
 2017-02-03 22:19:40.641984+01 | 1486156780.64198 | pgbench_branches |          2646016

 2017-02-03 22:19:41.724171+01 | 1486156781.72417 | pgbench_accounts |       1393475584
 2017-02-03 22:19:41.724171+01 | 1486156781.72417 | pgbench_tellers  |          3776512
 2017-02-03 22:19:41.724171+01 | 1486156781.72417 | pgbench_history  |         57016320
 2017-02-03 22:19:41.724171+01 | 1486156781.72417 | pgbench_branches |          2646016

 2017-02-03 22:19:42.815357+01 | 1486156782.81536 | pgbench_accounts |       1393475584
 2017-02-03 22:19:42.815357+01 | 1486156782.81536 | pgbench_tellers  |          3776512
 2017-02-03 22:19:42.815357+01 | 1486156782.81536 | pgbench_history  |         57884672
 2017-02-03 22:19:42.815357+01 | 1486156782.81536 | pgbench_branches |          2646016

 2017-02-03 22:19:43.899997+01 | 1486156783.9 | pgbench_accounts |       1393475584
 2017-02-03 22:19:43.899997+01 | 1486156783.9 | pgbench_tellers  |          3776512
 2017-02-03 22:19:43.899997+01 | 1486156783.9 | pgbench_history  |         58990592
 2017-02-03 22:19:43.899997+01 | 1486156783.9 | pgbench_branches |          2646016

 2017-02-03 22:19:44.979056+01 | 1486156784.97906 | pgbench_accounts |       1393475584
 2017-02-03 22:19:44.979056+01 | 1486156784.97906 | pgbench_tellers  |          3776512
 2017-02-03 22:19:44.979056+01 | 1486156784.97906 | pgbench_history  |         59547648
 2017-02-03 22:19:44.979056+01 | 1486156784.97906 | pgbench_branches |          2646016

 2017-02-03 22:19:46.052459+01 | 1486156786.05246 | pgbench_accounts |       1393475584
 2017-02-03 22:19:46.052459+01 | 1486156786.05246 | pgbench_tellers  |          3776512
 2017-02-03 22:19:46.052459+01 | 1486156786.05246 | pgbench_history  |         60465152
 2017-02-03 22:19:46.052459+01 | 1486156786.05246 | pgbench_branches |          2646016

 2017-02-03 22:19:47.127186+01 | 1486156787.12719 | pgbench_accounts |       1393475584
 2017-02-03 22:19:47.127186+01 | 1486156787.12719 | pgbench_tellers  |          3776512
 2017-02-03 22:19:47.127186+01 | 1486156787.12719 | pgbench_history  |         61251584
 2017-02-03 22:19:47.127186+01 | 1486156787.12719 | pgbench_branches |          2646016

 2017-02-03 22:19:48.208287+01 | 1486156788.20829 | pgbench_accounts |       1393475584
 2017-02-03 22:19:48.208287+01 | 1486156788.20829 | pgbench_tellers  |          3776512
 2017-02-03 22:19:48.208287+01 | 1486156788.20829 | pgbench_history  |         62324736
 2017-02-03 22:19:48.208287+01 | 1486156788.20829 | pgbench_branches |          2646016

 2017-02-03 22:19:49.286373+01 | 1486156789.28637 | pgbench_accounts |       1393475584
 2017-02-03 22:19:49.286373+01 | 1486156789.28637 | pgbench_tellers  |          3776512
 2017-02-03 22:19:49.286373+01 | 1486156789.28637 | pgbench_history  |         62947328
 2017-02-03 22:19:49.286373+01 | 1486156789.28637 | pgbench_branches |          2646016

 2017-02-03 22:19:50.364785+01 | 1486156790.36478 | pgbench_accounts |       1393475584
 2017-02-03 22:19:50.364785+01 | 1486156790.36478 | pgbench_tellers  |          3776512
 2017-02-03 22:19:50.364785+01 | 1486156790.36478 | pgbench_history  |         64118784
 2017-02-03 22:19:50.364785+01 | 1486156790.36478 | pgbench_branches |          2646016

 2017-02-03 22:19:51.437533+01 | 1486156791.43753 | pgbench_accounts |       1393475584
 2017-02-03 22:19:51.437533+01 | 1486156791.43753 | pgbench_tellers  |          3776512
 2017-02-03 22:19:51.437533+01 | 1486156791.43753 | pgbench_history  |         64831488
 2017-02-03 22:19:51.437533+01 | 1486156791.43753 | pgbench_branches |          2646016

 2017-02-03 22:19:52.516953+01 | 1486156792.51695 | pgbench_accounts |       1393475584
 2017-02-03 22:19:52.516953+01 | 1486156792.51695 | pgbench_tellers  |          3776512
 2017-02-03 22:19:52.516953+01 | 1486156792.51695 | pgbench_history  |         65634304
 2017-02-03 22:19:52.516953+01 | 1486156792.51695 | pgbench_branches |          2646016

 2017-02-03 22:19:53.590951+01 | 1486156793.59095 | pgbench_accounts |       1393475584
 2017-02-03 22:19:53.590951+01 | 1486156793.59095 | pgbench_tellers  |          3776512
 2017-02-03 22:19:53.590951+01 | 1486156793.59095 | pgbench_history  |         66379776
 2017-02-03 22:19:53.590951+01 | 1486156793.59095 | pgbench_branches |          2646016

 2017-02-03 22:19:54.681177+01 | 1486156794.68118 | pgbench_accounts |       1393475584
 2017-02-03 22:19:54.681177+01 | 1486156794.68118 | pgbench_tellers  |          3776512
 2017-02-03 22:19:54.681177+01 | 1486156794.68118 | pgbench_history  |         67526656
 2017-02-03 22:19:54.681177+01 | 1486156794.68118 | pgbench_branches |          2646016

 2017-02-03 22:19:55.753065+01 | 1486156795.75307 | pgbench_accounts |       1393475584
 2017-02-03 22:19:55.753065+01 | 1486156795.75307 | pgbench_tellers  |          3776512
 2017-02-03 22:19:55.753065+01 | 1486156795.75307 | pgbench_history  |         68149248
 2017-02-03 22:19:55.753065+01 | 1486156795.75307 | pgbench_branches |          2646016

 2017-02-03 22:19:56.827514+01 | 1486156796.82751 | pgbench_accounts |       1393475584
 2017-02-03 22:19:56.827514+01 | 1486156796.82751 | pgbench_tellers  |          3776512
 2017-02-03 22:19:56.827514+01 | 1486156796.82751 | pgbench_history  |         68861952
 2017-02-03 22:19:56.827514+01 | 1486156796.82751 | pgbench_branches |          2646016

 2017-02-03 22:19:57.90017+01 | 1486156797.90017 | pgbench_accounts |       1393475584
 2017-02-03 22:19:57.90017+01 | 1486156797.90017 | pgbench_tellers  |          3776512
 2017-02-03 22:19:57.90017+01 | 1486156797.90017 | pgbench_history  |         69795840
 2017-02-03 22:19:57.90017+01 | 1486156797.90017 | pgbench_branches |          2646016

 2017-02-03 22:19:58.978526+01 | 1486156798.97853 | pgbench_accounts |       1393475584
 2017-02-03 22:19:58.978526+01 | 1486156798.97853 | pgbench_tellers  |          3776512
 2017-02-03 22:19:58.978526+01 | 1486156798.97853 | pgbench_history  |         70729728
 2017-02-03 22:19:58.978526+01 | 1486156798.97853 | pgbench_branches |          2646016

 2017-02-03 22:20:00.060257+01 | 1486156800.06026 | pgbench_accounts |       1393475584
 2017-02-03 22:20:00.060257+01 | 1486156800.06026 | pgbench_tellers  |          3776512
 2017-02-03 22:20:00.060257+01 | 1486156800.06026 | pgbench_history  |         71507968
 2017-02-03 22:20:00.060257+01 | 1486156800.06026 | pgbench_branches |          2646016

 2017-02-03 22:20:01.143303+01 | 1486156801.1433 | pgbench_accounts |       1393475584
 2017-02-03 22:20:01.143303+01 | 1486156801.1433 | pgbench_tellers  |          3776512
 2017-02-03 22:20:01.143303+01 | 1486156801.1433 | pgbench_history  |         72581120
 2017-02-03 22:20:01.143303+01 | 1486156801.1433 | pgbench_branches |          2646016

 2017-02-03 22:20:02.224415+01 | 1486156802.22442 | pgbench_accounts |       1393475584
 2017-02-03 22:20:02.224415+01 | 1486156802.22442 | pgbench_tellers  |          3776512
 2017-02-03 22:20:02.224415+01 | 1486156802.22442 | pgbench_history  |         73154560
 2017-02-03 22:20:02.224415+01 | 1486156802.22442 | pgbench_branches |          2646016

 2017-02-03 22:20:03.300559+01 | 1486156803.30056 | pgbench_accounts |       1393475584
 2017-02-03 22:20:03.300559+01 | 1486156803.30056 | pgbench_tellers  |          3776512
 2017-02-03 22:20:03.300559+01 | 1486156803.30056 | pgbench_history  |         74055680
 2017-02-03 22:20:03.300559+01 | 1486156803.30056 | pgbench_branches |          2646016

 2017-02-03 22:20:04.382899+01 | 1486156804.3829 | pgbench_accounts |       1393475584
 2017-02-03 22:20:04.382899+01 | 1486156804.3829 | pgbench_tellers  |          3776512
 2017-02-03 22:20:04.382899+01 | 1486156804.3829 | pgbench_history  |         74989568
 2017-02-03 22:20:04.382899+01 | 1486156804.3829 | pgbench_branches |          2646016

 2017-02-03 22:20:05.478223+01 | 1486156805.47822 | pgbench_accounts |       1393475584
 2017-02-03 22:20:05.478223+01 | 1486156805.47822 | pgbench_tellers  |          3776512
 2017-02-03 22:20:05.478223+01 | 1486156805.47822 | pgbench_history  |         76095488
 2017-02-03 22:20:05.478223+01 | 1486156805.47822 | pgbench_branches |          2646016

 2017-02-03 22:20:06.549225+01 | 1486156806.54923 | pgbench_accounts |       1393475584
 2017-02-03 22:20:06.549225+01 | 1486156806.54923 | pgbench_tellers  |          3776512
 2017-02-03 22:20:06.549225+01 | 1486156806.54923 | pgbench_history  |         76996608
 2017-02-03 22:20:06.549225+01 | 1486156806.54923 | pgbench_branches |          2646016

 2017-02-03 22:20:07.622016+01 | 1486156807.62202 | pgbench_accounts |       1393475584
 2017-02-03 22:20:07.622016+01 | 1486156807.62202 | pgbench_tellers  |          3776512
 2017-02-03 22:20:07.622016+01 | 1486156807.62202 | pgbench_history  |         77725696
 2017-02-03 22:20:07.622016+01 | 1486156807.62202 | pgbench_branches |          2646016

 2017-02-03 22:20:08.703459+01 | 1486156808.70346 | pgbench_accounts |       1393475584
 2017-02-03 22:20:08.703459+01 | 1486156808.70346 | pgbench_tellers  |          3776512
 2017-02-03 22:20:08.703459+01 | 1486156808.70346 | pgbench_history  |         78274560
 2017-02-03 22:20:08.703459+01 | 1486156808.70346 | pgbench_branches |          2646016

 2017-02-03 22:20:09.792131+01 | 1486156809.79213 | pgbench_accounts |       1393475584
 2017-02-03 22:20:09.792131+01 | 1486156809.79213 | pgbench_tellers  |          3776512
 2017-02-03 22:20:09.792131+01 | 1486156809.79213 | pgbench_history  |         79446016
 2017-02-03 22:20:09.792131+01 | 1486156809.79213 | pgbench_branches |          2646016

 2017-02-03 22:20:10.885992+01 | 1486156810.88599 | pgbench_accounts |       1393475584
 2017-02-03 22:20:10.885992+01 | 1486156810.88599 | pgbench_tellers  |          3776512
 2017-02-03 22:20:10.885992+01 | 1486156810.88599 | pgbench_history  |         80003072
 2017-02-03 22:20:10.885992+01 | 1486156810.88599 | pgbench_branches |          2646016

 2017-02-03 22:20:11.979047+01 | 1486156811.97905 | pgbench_accounts |       1393475584
 2017-02-03 22:20:11.979047+01 | 1486156811.97905 | pgbench_tellers  |          3776512
 2017-02-03 22:20:11.979047+01 | 1486156811.97905 | pgbench_history  |         80920576
 2017-02-03 22:20:11.979047+01 | 1486156811.97905 | pgbench_branches |          2646016

 2017-02-03 22:20:13.066814+01 | 1486156813.06681 | pgbench_accounts |       1393475584
 2017-02-03 22:20:13.066814+01 | 1486156813.06681 | pgbench_tellers  |          3776512
 2017-02-03 22:20:13.066814+01 | 1486156813.06681 | pgbench_history  |         81952768
 2017-02-03 22:20:13.066814+01 | 1486156813.06681 | pgbench_branches |          2646016

 2017-02-03 22:20:14.151753+01 | 1486156814.15175 | pgbench_accounts |       1393475584
 2017-02-03 22:20:14.151753+01 | 1486156814.15175 | pgbench_tellers  |          3776512
 2017-02-03 22:20:14.151753+01 | 1486156814.15175 | pgbench_history  |         82534400
 2017-02-03 22:20:14.151753+01 | 1486156814.15175 | pgbench_branches |          2646016

 2017-02-03 22:20:15.231472+01 | 1486156815.23147 | pgbench_accounts |       1393475584
 2017-02-03 22:20:15.231472+01 | 1486156815.23147 | pgbench_tellers  |          3776512
 2017-02-03 22:20:15.231472+01 | 1486156815.23147 | pgbench_history  |         83451904
 2017-02-03 22:20:15.231472+01 | 1486156815.23147 | pgbench_branches |          2646016

 2017-02-03 22:20:16.299371+01 | 1486156816.29937 | pgbench_accounts |       1393475584
 2017-02-03 22:20:16.299371+01 | 1486156816.29937 | pgbench_tellers  |          3776512
 2017-02-03 22:20:16.299371+01 | 1486156816.29937 | pgbench_history  |         84197376
 2017-02-03 22:20:16.299371+01 | 1486156816.29937 | pgbench_branches |          2646016

 2017-02-03 22:20:17.386288+01 | 1486156817.38629 | pgbench_accounts |       1393475584
 2017-02-03 22:20:17.386288+01 | 1486156817.38629 | pgbench_tellers  |          3776512
 2017-02-03 22:20:17.386288+01 | 1486156817.38629 | pgbench_history  |         85295104
 2017-02-03 22:20:17.386288+01 | 1486156817.38629 | pgbench_branches |          2646016

 2017-02-03 22:20:18.46769+01 | 1486156818.46769 | pgbench_accounts |       1393475584
 2017-02-03 22:20:18.46769+01 | 1486156818.46769 | pgbench_tellers  |          3776512
 2017-02-03 22:20:18.46769+01 | 1486156818.46769 | pgbench_history  |         85999616
 2017-02-03 22:20:18.46769+01 | 1486156818.46769 | pgbench_branches |          2646016

 2017-02-03 22:20:19.551576+01 | 1486156819.55158 | pgbench_accounts |       1393475584
 2017-02-03 22:20:19.551576+01 | 1486156819.55158 | pgbench_tellers  |          3776512
 2017-02-03 22:20:19.551576+01 | 1486156819.55158 | pgbench_history  |         86851584
 2017-02-03 22:20:19.551576+01 | 1486156819.55158 | pgbench_branches |          2646016

 2017-02-03 22:20:20.632992+01 | 1486156820.63299 | pgbench_accounts |       1393475584
 2017-02-03 22:20:20.632992+01 | 1486156820.63299 | pgbench_tellers  |          3776512
 2017-02-03 22:20:20.632992+01 | 1486156820.63299 | pgbench_history  |         87695360
 2017-02-03 22:20:20.632992+01 | 1486156820.63299 | pgbench_branches |          2646016

 2017-02-03 22:20:21.715219+01 | 1486156821.71522 | pgbench_accounts |       1393475584
 2017-02-03 22:20:21.715219+01 | 1486156821.71522 | pgbench_tellers  |          3776512
 2017-02-03 22:20:21.715219+01 | 1486156821.71522 | pgbench_history  |         88424448
 2017-02-03 22:20:21.715219+01 | 1486156821.71522 | pgbench_branches |          2646016

 2017-02-03 22:20:22.792746+01 | 1486156822.79275 | pgbench_accounts |       1393475584
 2017-02-03 22:20:22.792746+01 | 1486156822.79275 | pgbench_tellers  |          3776512
 2017-02-03 22:20:22.792746+01 | 1486156822.79275 | pgbench_history  |         89653248
 2017-02-03 22:20:22.792746+01 | 1486156822.79275 | pgbench_branches |          2646016

 2017-02-03 22:20:23.873458+01 | 1486156823.87346 | pgbench_accounts |       1393475584
 2017-02-03 22:20:23.873458+01 | 1486156823.87346 | pgbench_tellers  |          3776512
 2017-02-03 22:20:23.873458+01 | 1486156823.87346 | pgbench_history  |         90226688
 2017-02-03 22:20:23.873458+01 | 1486156823.87346 | pgbench_branches |          2646016

 2017-02-03 22:20:24.955551+01 | 1486156824.95555 | pgbench_accounts |       1393475584
 2017-02-03 22:20:24.955551+01 | 1486156824.95555 | pgbench_tellers  |          3776512
 2017-02-03 22:20:24.955551+01 | 1486156824.95555 | pgbench_history  |         91258880
 2017-02-03 22:20:24.955551+01 | 1486156824.95555 | pgbench_branches |          2646016

 2017-02-03 22:20:26.039536+01 | 1486156826.03954 | pgbench_accounts |       1393475584
 2017-02-03 22:20:26.039536+01 | 1486156826.03954 | pgbench_tellers  |          3776512
 2017-02-03 22:20:26.039536+01 | 1486156826.03954 | pgbench_history  |         91873280
 2017-02-03 22:20:26.039536+01 | 1486156826.03954 | pgbench_branches |          2646016

 2017-02-03 22:20:27.125564+01 | 1486156827.12556 | pgbench_accounts |       1393475584
 2017-02-03 22:20:27.125564+01 | 1486156827.12556 | pgbench_tellers  |          3776512
 2017-02-03 22:20:27.125564+01 | 1486156827.12556 | pgbench_history  |         92995584
 2017-02-03 22:20:27.125564+01 | 1486156827.12556 | pgbench_branches |          2646016

 2017-02-03 22:20:28.205112+01 | 1486156828.20511 | pgbench_accounts |       1393475584
 2017-02-03 22:20:28.205112+01 | 1486156828.20511 | pgbench_tellers  |          3776512
 2017-02-03 22:20:28.205112+01 | 1486156828.20511 | pgbench_history  |         94199808
 2017-02-03 22:20:28.205112+01 | 1486156828.20511 | pgbench_branches |          2646016

 2017-02-03 22:20:29.290505+01 | 1486156829.2905 | pgbench_accounts |       1393475584
 2017-02-03 22:20:29.290505+01 | 1486156829.2905 | pgbench_tellers  |          3776512
 2017-02-03 22:20:29.290505+01 | 1486156829.2905 | pgbench_history  |         94568448
 2017-02-03 22:20:29.290505+01 | 1486156829.2905 | pgbench_branches |          2646016

 2017-02-03 22:20:30.364554+01 | 1486156830.36455 | pgbench_accounts |       1393475584
 2017-02-03 22:20:30.364554+01 | 1486156830.36455 | pgbench_tellers  |          3776512
 2017-02-03 22:20:30.364554+01 | 1486156830.36455 | pgbench_history  |         95485952
 2017-02-03 22:20:30.364554+01 | 1486156830.36455 | pgbench_branches |          2646016

 2017-02-03 22:20:31.441759+01 | 1486156831.44176 | pgbench_accounts |       1393475584
 2017-02-03 22:20:31.441759+01 | 1486156831.44176 | pgbench_tellers  |          3776512
 2017-02-03 22:20:31.441759+01 | 1486156831.44176 | pgbench_history  |         96272384
 2017-02-03 22:20:31.441759+01 | 1486156831.44176 | pgbench_branches |          2646016

 2017-02-03 22:20:32.53138+01 | 1486156832.53138 | pgbench_accounts |       1393475584
 2017-02-03 22:20:32.53138+01 | 1486156832.53138 | pgbench_tellers  |          3776512
 2017-02-03 22:20:32.53138+01 | 1486156832.53138 | pgbench_history  |         97165312
 2017-02-03 22:20:32.53138+01 | 1486156832.53138 | pgbench_branches |          2646016

 2017-02-03 22:20:33.619342+01 | 1486156833.61934 | pgbench_accounts |       1393475584
 2017-02-03 22:20:33.619342+01 | 1486156833.61934 | pgbench_tellers  |          3776512
 2017-02-03 22:20:33.619342+01 | 1486156833.61934 | pgbench_history  |         98033664
 2017-02-03 22:20:33.619342+01 | 1486156833.61934 | pgbench_branches |          2646016

 2017-02-03 22:20:34.693439+01 | 1486156834.69344 | pgbench_accounts |       1393475584
 2017-02-03 22:20:34.693439+01 | 1486156834.69344 | pgbench_tellers  |          3776512
 2017-02-03 22:20:34.693439+01 | 1486156834.69344 | pgbench_history  |         98942976
 2017-02-03 22:20:34.693439+01 | 1486156834.69344 | pgbench_branches |          2646016

 2017-02-03 22:20:35.782927+01 | 1486156835.78293 | pgbench_accounts |       1393475584
 2017-02-03 22:20:35.782927+01 | 1486156835.78293 | pgbench_tellers  |          3776512
 2017-02-03 22:20:35.782927+01 | 1486156835.78293 | pgbench_history  |         99549184
 2017-02-03 22:20:35.782927+01 | 1486156835.78293 | pgbench_branches |          2646016

 2017-02-03 22:20:36.852058+01 | 1486156836.85206 | pgbench_accounts |       1393475584
 2017-02-03 22:20:36.852058+01 | 1486156836.85206 | pgbench_tellers  |          3776512
 2017-02-03 22:20:36.852058+01 | 1486156836.85206 | pgbench_history  |        100622336
 2017-02-03 22:20:36.852058+01 | 1486156836.85206 | pgbench_branches |          2646016

 2017-02-03 22:20:37.920153+01 | 1486156837.92015 | pgbench_accounts |       1393475584
 2017-02-03 22:20:37.920153+01 | 1486156837.92015 | pgbench_tellers  |          3776512
 2017-02-03 22:20:37.920153+01 | 1486156837.92015 | pgbench_history  |        101195776
 2017-02-03 22:20:37.920153+01 | 1486156837.92015 | pgbench_branches |          2646016

 2017-02-03 22:20:39.001143+01 | 1486156839.00114 | pgbench_accounts |       1393475584
 2017-02-03 22:20:39.001143+01 | 1486156839.00114 | pgbench_tellers  |          3776512
 2017-02-03 22:20:39.001143+01 | 1486156839.00114 | pgbench_history  |        102105088
 2017-02-03 22:20:39.001143+01 | 1486156839.00114 | pgbench_branches |          2646016

 2017-02-03 22:20:40.073914+01 | 1486156840.07391 | pgbench_accounts |       1393475584
 2017-02-03 22:20:40.073914+01 | 1486156840.07391 | pgbench_tellers  |          3776512
 2017-02-03 22:20:40.073914+01 | 1486156840.07391 | pgbench_history  |        103022592
 2017-02-03 22:20:40.073914+01 | 1486156840.07391 | pgbench_branches |          2646016

 2017-02-03 22:20:41.147751+01 | 1486156841.14775 | pgbench_accounts |       1393475584
 2017-02-03 22:20:41.147751+01 | 1486156841.14775 | pgbench_tellers  |          3776512
 2017-02-03 22:20:41.147751+01 | 1486156841.14775 | pgbench_history  |        103718912
 2017-02-03 22:20:41.147751+01 | 1486156841.14775 | pgbench_branches |          2646016

 2017-02-03 22:20:42.232416+01 | 1486156842.23242 | pgbench_accounts |       1393475584
 2017-02-03 22:20:42.232416+01 | 1486156842.23242 | pgbench_tellers  |          3776512
 2017-02-03 22:20:42.232416+01 | 1486156842.23242 | pgbench_history  |        104833024
 2017-02-03 22:20:42.232416+01 | 1486156842.23242 | pgbench_branches |          2646016

 2017-02-03 22:20:43.313257+01 | 1486156843.31326 | pgbench_accounts |       1393475584
 2017-02-03 22:20:43.313257+01 | 1486156843.31326 | pgbench_tellers  |          3776512
 2017-02-03 22:20:43.313257+01 | 1486156843.31326 | pgbench_history  |        105725952
 2017-02-03 22:20:43.313257+01 | 1486156843.31326 | pgbench_branches |          2646016

 2017-02-03 22:20:44.393673+01 | 1486156844.39367 | pgbench_accounts |       1393475584
 2017-02-03 22:20:44.393673+01 | 1486156844.39367 | pgbench_tellers  |          3776512
 2017-02-03 22:20:44.393673+01 | 1486156844.39367 | pgbench_history  |        106323968
 2017-02-03 22:20:44.393673+01 | 1486156844.39367 | pgbench_branches |          2646016

 2017-02-03 22:20:45.470759+01 | 1486156845.47076 | pgbench_accounts |       1393475584
 2017-02-03 22:20:45.470759+01 | 1486156845.47076 | pgbench_tellers  |          3776512
 2017-02-03 22:20:45.470759+01 | 1486156845.47076 | pgbench_history  |        107094016
 2017-02-03 22:20:45.470759+01 | 1486156845.47076 | pgbench_branches |          2646016

 2017-02-03 22:20:46.545566+01 | 1486156846.54557 | pgbench_accounts |       1393475584
 2017-02-03 22:20:46.545566+01 | 1486156846.54557 | pgbench_tellers  |          3776512
 2017-02-03 22:20:46.545566+01 | 1486156846.54557 | pgbench_history  |        108191744
 2017-02-03 22:20:46.545566+01 | 1486156846.54557 | pgbench_branches |          2646016

 2017-02-03 22:20:47.62505+01 | 1486156847.62505 | pgbench_accounts |       1393475584
 2017-02-03 22:20:47.62505+01 | 1486156847.62505 | pgbench_tellers  |          3776512
 2017-02-03 22:20:47.62505+01 | 1486156847.62505 | pgbench_history  |        108953600
 2017-02-03 22:20:47.62505+01 | 1486156847.62505 | pgbench_branches |          2646016

 2017-02-03 22:20:48.710397+01 | 1486156848.7104 | pgbench_accounts |       1393475584
 2017-02-03 22:20:48.710397+01 | 1486156848.7104 | pgbench_tellers  |          3776512
 2017-02-03 22:20:48.710397+01 | 1486156848.7104 | pgbench_history  |        109903872
 2017-02-03 22:20:48.710397+01 | 1486156848.7104 | pgbench_branches |          2646016

 2017-02-03 22:20:49.790506+01 | 1486156849.79051 | pgbench_accounts |       1393475584
 2017-02-03 22:20:49.790506+01 | 1486156849.79051 | pgbench_tellers  |          3776512
 2017-02-03 22:20:49.790506+01 | 1486156849.79051 | pgbench_history  |        110829568
 2017-02-03 22:20:49.790506+01 | 1486156849.79051 | pgbench_branches |          2646016

 2017-02-03 22:20:50.875724+01 | 1486156850.87572 | pgbench_accounts |       1393475584
 2017-02-03 22:20:50.875724+01 | 1486156850.87572 | pgbench_tellers  |          3776512
 2017-02-03 22:20:50.875724+01 | 1486156850.87572 | pgbench_history  |        111345664
 2017-02-03 22:20:50.875724+01 | 1486156850.87572 | pgbench_branches |          2646016

 2017-02-03 22:20:51.971098+01 | 1486156851.9711 | pgbench_accounts |       1393475584
 2017-02-03 22:20:51.971098+01 | 1486156851.9711 | pgbench_tellers  |          3776512
 2017-02-03 22:20:51.971098+01 | 1486156851.9711 | pgbench_history  |        112222208
 2017-02-03 22:20:51.971098+01 | 1486156851.9711 | pgbench_branches |          2646016

 2017-02-03 22:20:53.048973+01 | 1486156853.04897 | pgbench_accounts |       1393475584
 2017-02-03 22:20:53.048973+01 | 1486156853.04897 | pgbench_tellers  |          3776512
 2017-02-03 22:20:53.048973+01 | 1486156853.04897 | pgbench_history  |        113098752
 2017-02-03 22:20:53.048973+01 | 1486156853.04897 | pgbench_branches |          2646016

 2017-02-03 22:20:54.128777+01 | 1486156854.12878 | pgbench_accounts |       1393475584
 2017-02-03 22:20:54.128777+01 | 1486156854.12878 | pgbench_tellers  |          3776512
 2017-02-03 22:20:54.128777+01 | 1486156854.12878 | pgbench_history  |        113893376
 2017-02-03 22:20:54.128777+01 | 1486156854.12878 | pgbench_branches |          2646016

 2017-02-03 22:20:55.200205+01 | 1486156855.20021 | pgbench_accounts |       1393475584
 2017-02-03 22:20:55.200205+01 | 1486156855.20021 | pgbench_tellers  |          3776512
 2017-02-03 22:20:55.200205+01 | 1486156855.20021 | pgbench_history  |        115269632
 2017-02-03 22:20:55.200205+01 | 1486156855.20021 | pgbench_branches |          2646016

 2017-02-03 22:20:56.285778+01 | 1486156856.28578 | pgbench_accounts |       1393475584
 2017-02-03 22:20:56.285778+01 | 1486156856.28578 | pgbench_tellers  |          3776512
 2017-02-03 22:20:56.285778+01 | 1486156856.28578 | pgbench_history  |        115466240
 2017-02-03 22:20:56.285778+01 | 1486156856.28578 | pgbench_branches |          2646016

 2017-02-03 22:20:57.378012+01 | 1486156857.37801 | pgbench_accounts |       1393475584
 2017-02-03 22:20:57.378012+01 | 1486156857.37801 | pgbench_tellers  |          3776512
 2017-02-03 22:20:57.378012+01 | 1486156857.37801 | pgbench_history  |        116367360
 2017-02-03 22:20:57.378012+01 | 1486156857.37801 | pgbench_branches |          2646016

 2017-02-03 22:20:58.461899+01 | 1486156858.4619 | pgbench_accounts |       1393475584
 2017-02-03 22:20:58.461899+01 | 1486156858.4619 | pgbench_tellers  |          3776512
 2017-02-03 22:20:58.461899+01 | 1486156858.4619 | pgbench_history  |        117571584
 2017-02-03 22:20:58.461899+01 | 1486156858.4619 | pgbench_branches |          2646016

 2017-02-03 22:20:59.546456+01 | 1486156859.54646 | pgbench_accounts |       1393475584
 2017-02-03 22:20:59.546456+01 | 1486156859.54646 | pgbench_tellers  |          3776512
 2017-02-03 22:20:59.546456+01 | 1486156859.54646 | pgbench_history  |        118145024
 2017-02-03 22:20:59.546456+01 | 1486156859.54646 | pgbench_branches |          2646016

 2017-02-03 22:21:00.623551+01 | 1486156860.62355 | pgbench_accounts |       1393475584
 2017-02-03 22:21:00.623551+01 | 1486156860.62355 | pgbench_tellers  |          3776512
 2017-02-03 22:21:00.623551+01 | 1486156860.62355 | pgbench_history  |        118857728
 2017-02-03 22:21:00.623551+01 | 1486156860.62355 | pgbench_branches |          2646016

 2017-02-03 22:21:01.706143+01 | 1486156861.70614 | pgbench_accounts |       1393475584
 2017-02-03 22:21:01.706143+01 | 1486156861.70614 | pgbench_tellers  |          3776512
 2017-02-03 22:21:01.706143+01 | 1486156861.70614 | pgbench_history  |        119947264
 2017-02-03 22:21:01.706143+01 | 1486156861.70614 | pgbench_branches |          2646016

 2017-02-03 22:21:02.79343+01 | 1486156862.79343 | pgbench_accounts |       1393475584
 2017-02-03 22:21:02.79343+01 | 1486156862.79343 | pgbench_tellers  |          3776512
 2017-02-03 22:21:02.79343+01 | 1486156862.79343 | pgbench_history  |        120856576
 2017-02-03 22:21:02.79343+01 | 1486156862.79343 | pgbench_branches |          2646016

 2017-02-03 22:21:03.876071+01 | 1486156863.87607 | pgbench_accounts |       1393475584
 2017-02-03 22:21:03.876071+01 | 1486156863.87607 | pgbench_tellers  |          3776512
 2017-02-03 22:21:03.876071+01 | 1486156863.87607 | pgbench_history  |        121708544
 2017-02-03 22:21:03.876071+01 | 1486156863.87607 | pgbench_branches |          2646016

 2017-02-03 22:21:04.968446+01 | 1486156864.96845 | pgbench_accounts |       1393475584
 2017-02-03 22:21:04.968446+01 | 1486156864.96845 | pgbench_tellers  |          3776512
 2017-02-03 22:21:04.968446+01 | 1486156864.96845 | pgbench_history  |        122904576
 2017-02-03 22:21:04.968446+01 | 1486156864.96845 | pgbench_branches |          2646016

 2017-02-03 22:21:06.059228+01 | 1486156866.05923 | pgbench_accounts |       1393475584
 2017-02-03 22:21:06.059228+01 | 1486156866.05923 | pgbench_tellers  |          3776512
 2017-02-03 22:21:06.059228+01 | 1486156866.05923 | pgbench_history  |        123764736
 2017-02-03 22:21:06.059228+01 | 1486156866.05923 | pgbench_branches |          2646016

 2017-02-03 22:21:07.138253+01 | 1486156867.13825 | pgbench_accounts |       1393475584
 2017-02-03 22:21:07.138253+01 | 1486156867.13825 | pgbench_tellers  |          3776512
 2017-02-03 22:21:07.138253+01 | 1486156867.13825 | pgbench_history  |        124141568
 2017-02-03 22:21:07.138253+01 | 1486156867.13825 | pgbench_branches |          2646016

 2017-02-03 22:21:08.216448+01 | 1486156868.21645 | pgbench_accounts |       1393475584
 2017-02-03 22:21:08.216448+01 | 1486156868.21645 | pgbench_tellers  |          3776512
 2017-02-03 22:21:08.216448+01 | 1486156868.21645 | pgbench_history  |        125362176
 2017-02-03 22:21:08.216448+01 | 1486156868.21645 | pgbench_branches |          2646016

 2017-02-03 22:21:09.299991+01 | 1486156869.29999 | pgbench_accounts |       1393475584
 2017-02-03 22:21:09.299991+01 | 1486156869.29999 | pgbench_tellers  |          3776512
 2017-02-03 22:21:09.299991+01 | 1486156869.29999 | pgbench_history  |        125935616
 2017-02-03 22:21:09.299991+01 | 1486156869.29999 | pgbench_branches |          2646016

 2017-02-03 22:21:10.39218+01 | 1486156870.39218 | pgbench_accounts |       1393475584
 2017-02-03 22:21:10.39218+01 | 1486156870.39218 | pgbench_tellers  |          3776512
 2017-02-03 22:21:10.39218+01 | 1486156870.39218 | pgbench_history  |        126730240
 2017-02-03 22:21:10.39218+01 | 1486156870.39218 | pgbench_branches |          2646016

 2017-02-03 22:21:11.478374+01 | 1486156871.47837 | pgbench_accounts |       1393475584
 2017-02-03 22:21:11.478374+01 | 1486156871.47837 | pgbench_tellers  |          3776512
 2017-02-03 22:21:11.478374+01 | 1486156871.47837 | pgbench_history  |        127459328
 2017-02-03 22:21:11.478374+01 | 1486156871.47837 | pgbench_branches |          2646016

 2017-02-03 22:21:12.570362+01 | 1486156872.57036 | pgbench_accounts |       1393475584
 2017-02-03 22:21:12.570362+01 | 1486156872.57036 | pgbench_tellers  |          3776512
 2017-02-03 22:21:12.570362+01 | 1486156872.57036 | pgbench_history  |        128368640
 2017-02-03 22:21:12.570362+01 | 1486156872.57036 | pgbench_branches |          2646016

 2017-02-03 22:21:13.649824+01 | 1486156873.64982 | pgbench_accounts |       1393475584
 2017-02-03 22:21:13.649824+01 | 1486156873.64982 | pgbench_tellers  |          3776512
 2017-02-03 22:21:13.649824+01 | 1486156873.64982 | pgbench_history  |        129294336
 2017-02-03 22:21:13.649824+01 | 1486156873.64982 | pgbench_branches |          2646016

 2017-02-03 22:21:14.726073+01 | 1486156874.72607 | pgbench_accounts |       1393475584
 2017-02-03 22:21:14.726073+01 | 1486156874.72607 | pgbench_tellers  |          3776512
 2017-02-03 22:21:14.726073+01 | 1486156874.72607 | pgbench_history  |        130187264
 2017-02-03 22:21:14.726073+01 | 1486156874.72607 | pgbench_branches |          2646016

 2017-02-03 22:21:15.808476+01 | 1486156875.80848 | pgbench_accounts |       1393475584
 2017-02-03 22:21:15.808476+01 | 1486156875.80848 | pgbench_tellers  |          3776512
 2017-02-03 22:21:15.808476+01 | 1486156875.80848 | pgbench_history  |        131317760
 2017-02-03 22:21:15.808476+01 | 1486156875.80848 | pgbench_branches |          2646016

 2017-02-03 22:21:16.890595+01 | 1486156876.89059 | pgbench_accounts |       1393475584
 2017-02-03 22:21:16.890595+01 | 1486156876.89059 | pgbench_tellers  |          3776512
 2017-02-03 22:21:16.890595+01 | 1486156876.89059 | pgbench_history  |        131719168
 2017-02-03 22:21:16.890595+01 | 1486156876.89059 | pgbench_branches |          2646016

 2017-02-03 22:21:17.964215+01 | 1486156877.96422 | pgbench_accounts |       1393475584
 2017-02-03 22:21:17.964215+01 | 1486156877.96422 | pgbench_tellers  |          3776512
 2017-02-03 22:21:17.964215+01 | 1486156877.96422 | pgbench_history  |        133136384
 2017-02-03 22:21:17.964215+01 | 1486156877.96422 | pgbench_branches |          2646016

 2017-02-03 22:21:19.046191+01 | 1486156879.04619 | pgbench_accounts |       1393475584
 2017-02-03 22:21:19.046191+01 | 1486156879.04619 | pgbench_tellers  |          3776512
 2017-02-03 22:21:19.046191+01 | 1486156879.04619 | pgbench_history  |        133529600
 2017-02-03 22:21:19.046191+01 | 1486156879.04619 | pgbench_branches |          2646016

 2017-02-03 22:21:20.133317+01 | 1486156880.13332 | pgbench_accounts |       1393475584
 2017-02-03 22:21:20.133317+01 | 1486156880.13332 | pgbench_tellers  |          3776512
 2017-02-03 22:21:20.133317+01 | 1486156880.13332 | pgbench_history  |        134291456
 2017-02-03 22:21:20.133317+01 | 1486156880.13332 | pgbench_branches |          2646016

 2017-02-03 22:21:21.224109+01 | 1486156881.22411 | pgbench_accounts |       1393475584
 2017-02-03 22:21:21.224109+01 | 1486156881.22411 | pgbench_tellers  |          3776512
 2017-02-03 22:21:21.224109+01 | 1486156881.22411 | pgbench_history  |        135405568
 2017-02-03 22:21:21.224109+01 | 1486156881.22411 | pgbench_branches |          2646016

 2017-02-03 22:21:22.308249+01 | 1486156882.30825 | pgbench_accounts |       1393475584
 2017-02-03 22:21:22.308249+01 | 1486156882.30825 | pgbench_tellers  |          3776512
 2017-02-03 22:21:22.308249+01 | 1486156882.30825 | pgbench_history  |        136085504
 2017-02-03 22:21:22.308249+01 | 1486156882.30825 | pgbench_branches |          2646016

 2017-02-03 22:21:23.392603+01 | 1486156883.3926 | pgbench_accounts |       1393475584
 2017-02-03 22:21:23.392603+01 | 1486156883.3926 | pgbench_tellers  |          3776512
 2017-02-03 22:21:23.392603+01 | 1486156883.3926 | pgbench_history  |        137166848
 2017-02-03 22:21:23.392603+01 | 1486156883.3926 | pgbench_branches |          2646016

 2017-02-03 22:21:24.48365+01 | 1486156884.48365 | pgbench_accounts |       1393475584
 2017-02-03 22:21:24.48365+01 | 1486156884.48365 | pgbench_tellers  |          3776512
 2017-02-03 22:21:24.48365+01 | 1486156884.48365 | pgbench_history  |        138035200
 2017-02-03 22:21:24.48365+01 | 1486156884.48365 | pgbench_branches |          2646016

 2017-02-03 22:21:25.57376+01 | 1486156885.57376 | pgbench_accounts |       1393475584
 2017-02-03 22:21:25.57376+01 | 1486156885.57376 | pgbench_tellers  |          3776512
 2017-02-03 22:21:25.57376+01 | 1486156885.57376 | pgbench_history  |        138739712
 2017-02-03 22:21:25.57376+01 | 1486156885.57376 | pgbench_branches |          2646016

 2017-02-03 22:21:26.662577+01 | 1486156886.66258 | pgbench_accounts |       1393475584
 2017-02-03 22:21:26.662577+01 | 1486156886.66258 | pgbench_tellers  |          3776512
 2017-02-03 22:21:26.662577+01 | 1486156886.66258 | pgbench_history  |        139640832
 2017-02-03 22:21:26.662577+01 | 1486156886.66258 | pgbench_branches |          2646016

 2017-02-03 22:21:27.732211+01 | 1486156887.73221 | pgbench_accounts |       1393475584
 2017-02-03 22:21:27.732211+01 | 1486156887.73221 | pgbench_tellers  |          3776512
 2017-02-03 22:21:27.732211+01 | 1486156887.73221 | pgbench_history  |        140451840
 2017-02-03 22:21:27.732211+01 | 1486156887.73221 | pgbench_branches |          2646016

 2017-02-03 22:21:28.808436+01 | 1486156888.80844 | pgbench_accounts |       1393475584
 2017-02-03 22:21:28.808436+01 | 1486156888.80844 | pgbench_tellers  |          3776512
 2017-02-03 22:21:28.808436+01 | 1486156888.80844 | pgbench_history  |        141713408
 2017-02-03 22:21:28.808436+01 | 1486156888.80844 | pgbench_branches |          2646016

 2017-02-03 22:21:29.878652+01 | 1486156889.87865 | pgbench_accounts |       1393475584
 2017-02-03 22:21:29.878652+01 | 1486156889.87865 | pgbench_tellers  |          3776512
 2017-02-03 22:21:29.878652+01 | 1486156889.87865 | pgbench_history  |        142082048
 2017-02-03 22:21:29.878652+01 | 1486156889.87865 | pgbench_branches |          2646016

 2017-02-03 22:21:30.962359+01 | 1486156890.96236 | pgbench_accounts |       1393475584
 2017-02-03 22:21:30.962359+01 | 1486156890.96236 | pgbench_tellers  |          3776512
 2017-02-03 22:21:30.962359+01 | 1486156890.96236 | pgbench_history  |        142966784
 2017-02-03 22:21:30.962359+01 | 1486156890.96236 | pgbench_branches |          2646016

 2017-02-03 22:21:32.054962+01 | 1486156892.05496 | pgbench_accounts |       1393475584
 2017-02-03 22:21:32.054962+01 | 1486156892.05496 | pgbench_tellers  |          3776512
 2017-02-03 22:21:32.054962+01 | 1486156892.05496 | pgbench_history  |        143925248
 2017-02-03 22:21:32.054962+01 | 1486156892.05496 | pgbench_branches |          2646016

 2017-02-03 22:21:33.139717+01 | 1486156893.13972 | pgbench_accounts |       1393475584
 2017-02-03 22:21:33.139717+01 | 1486156893.13972 | pgbench_tellers  |          3776512
 2017-02-03 22:21:33.139717+01 | 1486156893.13972 | pgbench_history  |        144793600
 2017-02-03 22:21:33.139717+01 | 1486156893.13972 | pgbench_branches |          2646016

 2017-02-03 22:21:34.220879+01 | 1486156894.22088 | pgbench_accounts |       1393475584
 2017-02-03 22:21:34.220879+01 | 1486156894.22088 | pgbench_tellers  |          3776512
 2017-02-03 22:21:34.220879+01 | 1486156894.22088 | pgbench_history  |        145539072
 2017-02-03 22:21:34.220879+01 | 1486156894.22088 | pgbench_branches |          2646016

 2017-02-03 22:21:35.308888+01 | 1486156895.30889 | pgbench_accounts |       1393475584
 2017-02-03 22:21:35.308888+01 | 1486156895.30889 | pgbench_tellers  |          3776512
 2017-02-03 22:21:35.308888+01 | 1486156895.30889 | pgbench_history  |        146784256
 2017-02-03 22:21:35.308888+01 | 1486156895.30889 | pgbench_branches |          2646016

 2017-02-03 22:21:36.393029+01 | 1486156896.39303 | pgbench_accounts |       1393475584
 2017-02-03 22:21:36.393029+01 | 1486156896.39303 | pgbench_tellers  |          3776512
 2017-02-03 22:21:36.393029+01 | 1486156896.39303 | pgbench_history  |        147488768
 2017-02-03 22:21:36.393029+01 | 1486156896.39303 | pgbench_branches |          2646016

 2017-02-03 22:21:37.477943+01 | 1486156897.47794 | pgbench_accounts |       1393475584
 2017-02-03 22:21:37.477943+01 | 1486156897.47794 | pgbench_tellers  |          3776512
 2017-02-03 22:21:37.477943+01 | 1486156897.47794 | pgbench_history  |        148209664
 2017-02-03 22:21:37.477943+01 | 1486156897.47794 | pgbench_branches |          2646016

 2017-02-03 22:21:38.56207+01 | 1486156898.56207 | pgbench_accounts |       1393475584
 2017-02-03 22:21:38.56207+01 | 1486156898.56207 | pgbench_tellers  |          3776512
 2017-02-03 22:21:38.56207+01 | 1486156898.56207 | pgbench_history  |        148914176
 2017-02-03 22:21:38.56207+01 | 1486156898.56207 | pgbench_branches |          2646016

 2017-02-03 22:21:39.655905+01 | 1486156899.65591 | pgbench_accounts |       1393475584
 2017-02-03 22:21:39.655905+01 | 1486156899.65591 | pgbench_tellers  |          3776512
 2017-02-03 22:21:39.655905+01 | 1486156899.65591 | pgbench_history  |        150134784
 2017-02-03 22:21:39.655905+01 | 1486156899.65591 | pgbench_branches |          2646016

 2017-02-03 22:21:40.734792+01 | 1486156900.73479 | pgbench_accounts |       1393475584
 2017-02-03 22:21:40.734792+01 | 1486156900.73479 | pgbench_tellers  |          3776512
 2017-02-03 22:21:40.734792+01 | 1486156900.73479 | pgbench_history  |        150650880
 2017-02-03 22:21:40.734792+01 | 1486156900.73479 | pgbench_branches |          2646016

 2017-02-03 22:21:41.817713+01 | 1486156901.81771 | pgbench_accounts |       1393475584
 2017-02-03 22:21:41.817713+01 | 1486156901.81771 | pgbench_tellers  |          3776512
 2017-02-03 22:21:41.817713+01 | 1486156901.81771 | pgbench_history  |        151764992
 2017-02-03 22:21:41.817713+01 | 1486156901.81771 | pgbench_branches |          2646016

 2017-02-03 22:21:42.898031+01 | 1486156902.89803 | pgbench_accounts |       1393475584
 2017-02-03 22:21:42.898031+01 | 1486156902.89803 | pgbench_tellers  |          3776512
 2017-02-03 22:21:42.898031+01 | 1486156902.89803 | pgbench_history  |        152633344
 2017-02-03 22:21:42.898031+01 | 1486156902.89803 | pgbench_branches |          2646016

 2017-02-03 22:21:43.98944+01 | 1486156903.98944 | pgbench_accounts |       1393475584
 2017-02-03 22:21:43.98944+01 | 1486156903.98944 | pgbench_tellers  |          3776512
 2017-02-03 22:21:43.98944+01 | 1486156903.98944 | pgbench_history  |        153559040
 2017-02-03 22:21:43.98944+01 | 1486156903.98944 | pgbench_branches |          2646016

 2017-02-03 22:21:45.077079+01 | 1486156905.07708 | pgbench_accounts |       1393475584
 2017-02-03 22:21:45.077079+01 | 1486156905.07708 | pgbench_tellers  |          3776512
 2017-02-03 22:21:45.077079+01 | 1486156905.07708 | pgbench_history  |        154148864
 2017-02-03 22:21:45.077079+01 | 1486156905.07708 | pgbench_branches |          2646016

 2017-02-03 22:21:46.161816+01 | 1486156906.16182 | pgbench_accounts |       1393475584
 2017-02-03 22:21:46.161816+01 | 1486156906.16182 | pgbench_tellers  |          3776512
 2017-02-03 22:21:46.161816+01 | 1486156906.16182 | pgbench_history  |        155189248
 2017-02-03 22:21:46.161816+01 | 1486156906.16182 | pgbench_branches |          2646016

 2017-02-03 22:21:47.251626+01 | 1486156907.25163 | pgbench_accounts |       1393475584
 2017-02-03 22:21:47.251626+01 | 1486156907.25163 | pgbench_tellers  |          3776512
 2017-02-03 22:21:47.251626+01 | 1486156907.25163 | pgbench_history  |        155951104
 2017-02-03 22:21:47.251626+01 | 1486156907.25163 | pgbench_branches |          2646016

 2017-02-03 22:21:48.324051+01 | 1486156908.32405 | pgbench_accounts |       1393475584
 2017-02-03 22:21:48.324051+01 | 1486156908.32405 | pgbench_tellers  |          3776512
 2017-02-03 22:21:48.324051+01 | 1486156908.32405 | pgbench_history  |        156983296
 2017-02-03 22:21:48.324051+01 | 1486156908.32405 | pgbench_branches |          2646016

 2017-02-03 22:21:49.403158+01 | 1486156909.40316 | pgbench_accounts |       1393475584
 2017-02-03 22:21:49.403158+01 | 1486156909.40316 | pgbench_tellers  |          3776512
 2017-02-03 22:21:49.403158+01 | 1486156909.40316 | pgbench_history  |        157908992
 2017-02-03 22:21:49.403158+01 | 1486156909.40316 | pgbench_branches |          2646016

 2017-02-03 22:21:50.492129+01 | 1486156910.49213 | pgbench_accounts |       1393475584
 2017-02-03 22:21:50.492129+01 | 1486156910.49213 | pgbench_tellers  |          3776512
 2017-02-03 22:21:50.492129+01 | 1486156910.49213 | pgbench_history  |        158777344
 2017-02-03 22:21:50.492129+01 | 1486156910.49213 | pgbench_branches |          2646016

 2017-02-03 22:21:51.586758+01 | 1486156911.58676 | pgbench_accounts |       1393475584
 2017-02-03 22:21:51.586758+01 | 1486156911.58676 | pgbench_tellers  |          3776512
 2017-02-03 22:21:51.586758+01 | 1486156911.58676 | pgbench_history  |        159367168
 2017-02-03 22:21:51.586758+01 | 1486156911.58676 | pgbench_branches |          2646016

 2017-02-03 22:21:52.677613+01 | 1486156912.67761 | pgbench_accounts |       1393475584
 2017-02-03 22:21:52.677613+01 | 1486156912.67761 | pgbench_tellers  |          3776512
 2017-02-03 22:21:52.677613+01 | 1486156912.67761 | pgbench_history  |        160284672
 2017-02-03 22:21:52.677613+01 | 1486156912.67761 | pgbench_branches |          2646016

 2017-02-03 22:21:53.755665+01 | 1486156913.75567 | pgbench_accounts |       1393475584
 2017-02-03 22:21:53.755665+01 | 1486156913.75567 | pgbench_tellers  |          3776512
 2017-02-03 22:21:53.755665+01 | 1486156913.75567 | pgbench_history  |        161357824
 2017-02-03 22:21:53.755665+01 | 1486156913.75567 | pgbench_branches |          2646016

 2017-02-03 22:21:54.833446+01 | 1486156914.83345 | pgbench_accounts |       1393475584
 2017-02-03 22:21:54.833446+01 | 1486156914.83345 | pgbench_tellers  |          3776512
 2017-02-03 22:21:54.833446+01 | 1486156914.83345 | pgbench_history  |        162103296
 2017-02-03 22:21:54.833446+01 | 1486156914.83345 | pgbench_branches |          2646016

 2017-02-03 22:21:55.904798+01 | 1486156915.9048 | pgbench_accounts |       1393475584
 2017-02-03 22:21:55.904798+01 | 1486156915.9048 | pgbench_tellers  |          3776512
 2017-02-03 22:21:55.904798+01 | 1486156915.9048 | pgbench_history  |        162824192
 2017-02-03 22:21:55.904798+01 | 1486156915.9048 | pgbench_branches |          2646016

 2017-02-03 22:21:56.97989+01 | 1486156916.97989 | pgbench_accounts |       1393475584
 2017-02-03 22:21:56.97989+01 | 1486156916.97989 | pgbench_tellers  |          3776512
 2017-02-03 22:21:56.97989+01 | 1486156916.97989 | pgbench_history  |        163766272
 2017-02-03 22:21:56.97989+01 | 1486156916.97989 | pgbench_branches |          2646016

 2017-02-03 22:21:58.058049+01 | 1486156918.05805 | pgbench_accounts |       1393475584
 2017-02-03 22:21:58.058049+01 | 1486156918.05805 | pgbench_tellers  |          3776512
 2017-02-03 22:21:58.058049+01 | 1486156918.05805 | pgbench_history  |        164651008
 2017-02-03 22:21:58.058049+01 | 1486156918.05805 | pgbench_branches |          2646016

 2017-02-03 22:21:59.13711+01 | 1486156919.13711 | pgbench_accounts |       1393475584
 2017-02-03 22:21:59.13711+01 | 1486156919.13711 | pgbench_tellers  |          3776512
 2017-02-03 22:21:59.13711+01 | 1486156919.13711 | pgbench_history  |        165560320
 2017-02-03 22:21:59.13711+01 | 1486156919.13711 | pgbench_branches |          2646016

 2017-02-03 22:22:00.228096+01 | 1486156920.2281 | pgbench_accounts |       1393475584
 2017-02-03 22:22:00.228096+01 | 1486156920.2281 | pgbench_tellers  |          3776512
 2017-02-03 22:22:00.228096+01 | 1486156920.2281 | pgbench_history  |        166182912
 2017-02-03 22:22:00.228096+01 | 1486156920.2281 | pgbench_branches |          2646016

 2017-02-03 22:22:01.314394+01 | 1486156921.31439 | pgbench_accounts |       1393475584
 2017-02-03 22:22:01.314394+01 | 1486156921.31439 | pgbench_tellers  |          3776512
 2017-02-03 22:22:01.314394+01 | 1486156921.31439 | pgbench_history  |        167165952
 2017-02-03 22:22:01.314394+01 | 1486156921.31439 | pgbench_branches |          2646016

 2017-02-03 22:22:02.39823+01 | 1486156922.39823 | pgbench_accounts |       1393475584
 2017-02-03 22:22:02.39823+01 | 1486156922.39823 | pgbench_tellers  |          3776512
 2017-02-03 22:22:02.39823+01 | 1486156922.39823 | pgbench_history  |        168411136
 2017-02-03 22:22:02.39823+01 | 1486156922.39823 | pgbench_branches |          2646016

 2017-02-03 22:22:03.482811+01 | 1486156923.48281 | pgbench_accounts |       1393475584
 2017-02-03 22:22:03.482811+01 | 1486156923.48281 | pgbench_tellers  |          3776512
 2017-02-03 22:22:03.482811+01 | 1486156923.48281 | pgbench_history  |        168951808
 2017-02-03 22:22:03.482811+01 | 1486156923.48281 | pgbench_branches |          2646016

 2017-02-03 22:22:04.563744+01 | 1486156924.56374 | pgbench_accounts |       1393475584
 2017-02-03 22:22:04.563744+01 | 1486156924.56374 | pgbench_tellers  |          3776512
 2017-02-03 22:22:04.563744+01 | 1486156924.56374 | pgbench_history  |        170049536
 2017-02-03 22:22:04.563744+01 | 1486156924.56374 | pgbench_branches |          2646016

 2017-02-03 22:22:05.630031+01 | 1486156925.63003 | pgbench_accounts |       1393475584
 2017-02-03 22:22:05.630031+01 | 1486156925.63003 | pgbench_tellers  |          3776512
 2017-02-03 22:22:05.630031+01 | 1486156925.63003 | pgbench_history  |        170590208
 2017-02-03 22:22:05.630031+01 | 1486156925.63003 | pgbench_branches |          2646016

 2017-02-03 22:22:06.710981+01 | 1486156926.71098 | pgbench_accounts |       1393475584
 2017-02-03 22:22:06.710981+01 | 1486156926.71098 | pgbench_tellers  |          3776512
 2017-02-03 22:22:06.710981+01 | 1486156926.71098 | pgbench_history  |        171638784
 2017-02-03 22:22:06.710981+01 | 1486156926.71098 | pgbench_branches |          2646016

 2017-02-03 22:22:07.799479+01 | 1486156927.79948 | pgbench_accounts |       1393475584
 2017-02-03 22:22:07.799479+01 | 1486156927.79948 | pgbench_tellers  |          3776512
 2017-02-03 22:22:07.799479+01 | 1486156927.79948 | pgbench_history  |        172539904
 2017-02-03 22:22:07.799479+01 | 1486156927.79948 | pgbench_branches |          2646016

 2017-02-03 22:22:08.872514+01 | 1486156928.87251 | pgbench_accounts |       1393475584
 2017-02-03 22:22:08.872514+01 | 1486156928.87251 | pgbench_tellers  |          3776512
 2017-02-03 22:22:08.872514+01 | 1486156928.87251 | pgbench_history  |        173457408
 2017-02-03 22:22:08.872514+01 | 1486156928.87251 | pgbench_branches |          2646016

 2017-02-03 22:22:09.962851+01 | 1486156929.96285 | pgbench_accounts |       1393475584
 2017-02-03 22:22:09.962851+01 | 1486156929.96285 | pgbench_tellers  |          3776512
 2017-02-03 22:22:09.962851+01 | 1486156929.96285 | pgbench_history  |        174170112
 2017-02-03 22:22:09.962851+01 | 1486156929.96285 | pgbench_branches |          2646016

 2017-02-03 22:22:11.040977+01 | 1486156931.04098 | pgbench_accounts |       1393475584
 2017-02-03 22:22:11.040977+01 | 1486156931.04098 | pgbench_tellers  |          3776512
 2017-02-03 22:22:11.040977+01 | 1486156931.04098 | pgbench_history  |        175063040
 2017-02-03 22:22:11.040977+01 | 1486156931.04098 | pgbench_branches |          2646016

 2017-02-03 22:22:12.128315+01 | 1486156932.12831 | pgbench_accounts |       1393475584
 2017-02-03 22:22:12.128315+01 | 1486156932.12831 | pgbench_tellers  |          3776512
 2017-02-03 22:22:12.128315+01 | 1486156932.12831 | pgbench_history  |        175775744
 2017-02-03 22:22:12.128315+01 | 1486156932.12831 | pgbench_branches |          2646016

 2017-02-03 22:22:13.193892+01 | 1486156933.19389 | pgbench_accounts |       1393475584
 2017-02-03 22:22:13.193892+01 | 1486156933.19389 | pgbench_tellers  |          3776512
 2017-02-03 22:22:13.193892+01 | 1486156933.19389 | pgbench_history  |        176807936
 2017-02-03 22:22:13.193892+01 | 1486156933.19389 | pgbench_branches |          2646016

 2017-02-03 22:22:14.275634+01 | 1486156934.27563 | pgbench_accounts |       1393475584
 2017-02-03 22:22:14.275634+01 | 1486156934.27563 | pgbench_tellers  |          3776512
 2017-02-03 22:22:14.275634+01 | 1486156934.27563 | pgbench_history  |        177766400
 2017-02-03 22:22:14.275634+01 | 1486156934.27563 | pgbench_branches |          2646016

 2017-02-03 22:22:15.34812+01 | 1486156935.34812 | pgbench_accounts |       1393475584
 2017-02-03 22:22:15.34812+01 | 1486156935.34812 | pgbench_tellers  |          3776512
 2017-02-03 22:22:15.34812+01 | 1486156935.34812 | pgbench_history  |        178323456
 2017-02-03 22:22:15.34812+01 | 1486156935.34812 | pgbench_branches |          2646016

 2017-02-03 22:22:16.426257+01 | 1486156936.42626 | pgbench_accounts |       1393475584
 2017-02-03 22:22:16.426257+01 | 1486156936.42626 | pgbench_tellers  |          3776512
 2017-02-03 22:22:16.426257+01 | 1486156936.42626 | pgbench_history  |        179421184
 2017-02-03 22:22:16.426257+01 | 1486156936.42626 | pgbench_branches |          2646016

 2017-02-03 22:22:17.507494+01 | 1486156937.50749 | pgbench_accounts |       1393475584
 2017-02-03 22:22:17.507494+01 | 1486156937.50749 | pgbench_tellers  |          3776512
 2017-02-03 22:22:17.507494+01 | 1486156937.50749 | pgbench_history  |        180142080
 2017-02-03 22:22:17.507494+01 | 1486156937.50749 | pgbench_branches |          2646016

 2017-02-03 22:22:18.586662+01 | 1486156938.58666 | pgbench_accounts |       1393475584
 2017-02-03 22:22:18.586662+01 | 1486156938.58666 | pgbench_tellers  |          3776512
 2017-02-03 22:22:18.586662+01 | 1486156938.58666 | pgbench_history  |        180879360
 2017-02-03 22:22:18.586662+01 | 1486156938.58666 | pgbench_branches |          2646016

 2017-02-03 22:22:19.67374+01 | 1486156939.67374 | pgbench_accounts |       1393475584
 2017-02-03 22:22:19.67374+01 | 1486156939.67374 | pgbench_tellers  |          3776512
 2017-02-03 22:22:19.67374+01 | 1486156939.67374 | pgbench_history  |        181952512
 2017-02-03 22:22:19.67374+01 | 1486156939.67374 | pgbench_branches |          2646016

 2017-02-03 22:22:20.751955+01 | 1486156940.75196 | pgbench_accounts |       1393475584
 2017-02-03 22:22:20.751955+01 | 1486156940.75196 | pgbench_tellers  |          3776512
 2017-02-03 22:22:20.751955+01 | 1486156940.75196 | pgbench_history  |        182730752
 2017-02-03 22:22:20.751955+01 | 1486156940.75196 | pgbench_branches |          2646016

 2017-02-03 22:22:21.833609+01 | 1486156941.83361 | pgbench_accounts |       1393475584
 2017-02-03 22:22:21.833609+01 | 1486156941.83361 | pgbench_tellers  |          3776512
 2017-02-03 22:22:21.833609+01 | 1486156941.83361 | pgbench_history  |        183492608
 2017-02-03 22:22:21.833609+01 | 1486156941.83361 | pgbench_branches |          2646016

 2017-02-03 22:22:22.9095+01 | 1486156942.9095 | pgbench_accounts |       1393475584
 2017-02-03 22:22:22.9095+01 | 1486156942.9095 | pgbench_tellers  |          3776512
 2017-02-03 22:22:22.9095+01 | 1486156942.9095 | pgbench_history  |        184467456
 2017-02-03 22:22:22.9095+01 | 1486156942.9095 | pgbench_branches |          2646016

 2017-02-03 22:22:23.984848+01 | 1486156943.98485 | pgbench_accounts |       1393475584
 2017-02-03 22:22:23.984848+01 | 1486156943.98485 | pgbench_tellers  |          3776512
 2017-02-03 22:22:23.984848+01 | 1486156943.98485 | pgbench_history  |        185360384
 2017-02-03 22:22:23.984848+01 | 1486156943.98485 | pgbench_branches |          2646016

 2017-02-03 22:22:25.062961+01 | 1486156945.06296 | pgbench_accounts |       1393475584
 2017-02-03 22:22:25.062961+01 | 1486156945.06296 | pgbench_tellers  |          3776512
 2017-02-03 22:22:25.062961+01 | 1486156945.06296 | pgbench_history  |        186318848
 2017-02-03 22:22:25.062961+01 | 1486156945.06296 | pgbench_branches |          2646016

 2017-02-03 22:22:26.148076+01 | 1486156946.14808 | pgbench_accounts |       1393475584
 2017-02-03 22:22:26.148076+01 | 1486156946.14808 | pgbench_tellers  |          3776512
 2017-02-03 22:22:26.148076+01 | 1486156946.14808 | pgbench_history  |        187080704
 2017-02-03 22:22:26.148076+01 | 1486156946.14808 | pgbench_branches |          2646016

 2017-02-03 22:22:27.228283+01 | 1486156947.22828 | pgbench_accounts |       1393475584
 2017-02-03 22:22:27.228283+01 | 1486156947.22828 | pgbench_tellers  |          3776512
 2017-02-03 22:22:27.228283+01 | 1486156947.22828 | pgbench_history  |        188121088
 2017-02-03 22:22:27.228283+01 | 1486156947.22828 | pgbench_branches |          2646016

 2017-02-03 22:22:28.312881+01 | 1486156948.31288 | pgbench_accounts |       1393475584
 2017-02-03 22:22:28.312881+01 | 1486156948.31288 | pgbench_tellers  |          3776512
 2017-02-03 22:22:28.312881+01 | 1486156948.31288 | pgbench_history  |        188866560
 2017-02-03 22:22:28.312881+01 | 1486156948.31288 | pgbench_branches |          2646016

 2017-02-03 22:22:29.391938+01 | 1486156949.39194 | pgbench_accounts |       1393475584
 2017-02-03 22:22:29.391938+01 | 1486156949.39194 | pgbench_tellers  |          3776512
 2017-02-03 22:22:29.391938+01 | 1486156949.39194 | pgbench_history  |        189751296
 2017-02-03 22:22:29.391938+01 | 1486156949.39194 | pgbench_branches |          2646016

 2017-02-03 22:22:30.461805+01 | 1486156950.46181 | pgbench_accounts |       1393475584
 2017-02-03 22:22:30.461805+01 | 1486156950.46181 | pgbench_tellers  |          3776512
 2017-02-03 22:22:30.461805+01 | 1486156950.46181 | pgbench_history  |        190660608
 2017-02-03 22:22:30.461805+01 | 1486156950.46181 | pgbench_branches |          2646016

 2017-02-03 22:22:31.545311+01 | 1486156951.54531 | pgbench_accounts |       1393475584
 2017-02-03 22:22:31.545311+01 | 1486156951.54531 | pgbench_tellers  |          3776512
 2017-02-03 22:22:31.545311+01 | 1486156951.54531 | pgbench_history  |        191381504
 2017-02-03 22:22:31.545311+01 | 1486156951.54531 | pgbench_branches |          2646016

 2017-02-03 22:22:32.616201+01 | 1486156952.6162 | pgbench_accounts |       1393475584
 2017-02-03 22:22:32.616201+01 | 1486156952.6162 | pgbench_tellers  |          3776512
 2017-02-03 22:22:32.616201+01 | 1486156952.6162 | pgbench_history  |        192290816
 2017-02-03 22:22:32.616201+01 | 1486156952.6162 | pgbench_branches |          2646016

 2017-02-03 22:22:33.699225+01 | 1486156953.69922 | pgbench_accounts |       1393475584
 2017-02-03 22:22:33.699225+01 | 1486156953.69922 | pgbench_tellers  |          3776512
 2017-02-03 22:22:33.699225+01 | 1486156953.69922 | pgbench_history  |        193224704
 2017-02-03 22:22:33.699225+01 | 1486156953.69922 | pgbench_branches |          2646016

 2017-02-03 22:22:34.776867+01 | 1486156954.77687 | pgbench_accounts |       1393475584
 2017-02-03 22:22:34.776867+01 | 1486156954.77687 | pgbench_tellers  |          3776512
 2017-02-03 22:22:34.776867+01 | 1486156954.77687 | pgbench_history  |        194174976
 2017-02-03 22:22:34.776867+01 | 1486156954.77687 | pgbench_branches |          2646016

 2017-02-03 22:22:35.864819+01 | 1486156955.86482 | pgbench_accounts |       1393475584
 2017-02-03 22:22:35.864819+01 | 1486156955.86482 | pgbench_tellers  |          3776512
 2017-02-03 22:22:35.864819+01 | 1486156955.86482 | pgbench_history  |        194879488
 2017-02-03 22:22:35.864819+01 | 1486156955.86482 | pgbench_branches |          2646016

 2017-02-03 22:22:36.954806+01 | 1486156956.95481 | pgbench_accounts |       1393475584
 2017-02-03 22:22:36.954806+01 | 1486156956.95481 | pgbench_tellers  |          3776512
 2017-02-03 22:22:36.954806+01 | 1486156956.95481 | pgbench_history  |        195780608
 2017-02-03 22:22:36.954806+01 | 1486156956.95481 | pgbench_branches |          2646016

 2017-02-03 22:22:38.051667+01 | 1486156958.05167 | pgbench_accounts |       1393475584
 2017-02-03 22:22:38.051667+01 | 1486156958.05167 | pgbench_tellers  |          3776512
 2017-02-03 22:22:38.051667+01 | 1486156958.05167 | pgbench_history  |        196558848
 2017-02-03 22:22:38.051667+01 | 1486156958.05167 | pgbench_branches |          2646016

 2017-02-03 22:22:39.126364+01 | 1486156959.12636 | pgbench_accounts |       1393475584
 2017-02-03 22:22:39.126364+01 | 1486156959.12636 | pgbench_tellers  |          3776512
 2017-02-03 22:22:39.126364+01 | 1486156959.12636 | pgbench_history  |        197533696
 2017-02-03 22:22:39.126364+01 | 1486156959.12636 | pgbench_branches |          2646016

 2017-02-03 22:22:40.213136+01 | 1486156960.21314 | pgbench_accounts |       1393475584
 2017-02-03 22:22:40.213136+01 | 1486156960.21314 | pgbench_tellers  |          3776512
 2017-02-03 22:22:40.213136+01 | 1486156960.21314 | pgbench_history  |        198434816
 2017-02-03 22:22:40.213136+01 | 1486156960.21314 | pgbench_branches |          2646016

 2017-02-03 22:22:41.294617+01 | 1486156961.29462 | pgbench_accounts |       1393475584
 2017-02-03 22:22:41.294617+01 | 1486156961.29462 | pgbench_tellers  |          3776512
 2017-02-03 22:22:41.294617+01 | 1486156961.29462 | pgbench_history  |        199630848
 2017-02-03 22:22:41.294617+01 | 1486156961.29462 | pgbench_branches |          2646016

 2017-02-03 22:22:42.377605+01 | 1486156962.3776 | pgbench_accounts |       1393475584
 2017-02-03 22:22:42.377605+01 | 1486156962.3776 | pgbench_tellers  |          3776512
 2017-02-03 22:22:42.377605+01 | 1486156962.3776 | pgbench_history  |        200204288
 2017-02-03 22:22:42.377605+01 | 1486156962.3776 | pgbench_branches |          2646016

 2017-02-03 22:22:43.452288+01 | 1486156963.45229 | pgbench_accounts |       1393475584
 2017-02-03 22:22:43.452288+01 | 1486156963.45229 | pgbench_tellers  |          3776512
 2017-02-03 22:22:43.452288+01 | 1486156963.45229 | pgbench_history  |        201154560
 2017-02-03 22:22:43.452288+01 | 1486156963.45229 | pgbench_branches |          2646016

 2017-02-03 22:22:44.532917+01 | 1486156964.53292 | pgbench_accounts |       1393475584
 2017-02-03 22:22:44.532917+01 | 1486156964.53292 | pgbench_tellers  |          3776512
 2017-02-03 22:22:44.532917+01 | 1486156964.53292 | pgbench_history  |        201760768
 2017-02-03 22:22:44.532917+01 | 1486156964.53292 | pgbench_branches |          2646016

 2017-02-03 22:22:45.617886+01 | 1486156965.61789 | pgbench_accounts |       1393475584
 2017-02-03 22:22:45.617886+01 | 1486156965.61789 | pgbench_tellers  |          3776512
 2017-02-03 22:22:45.617886+01 | 1486156965.61789 | pgbench_history  |        202825728
 2017-02-03 22:22:45.617886+01 | 1486156965.61789 | pgbench_branches |          2646016

 2017-02-03 22:22:46.709355+01 | 1486156966.70936 | pgbench_accounts |       1393475584
 2017-02-03 22:22:46.709355+01 | 1486156966.70936 | pgbench_tellers  |          3776512
 2017-02-03 22:22:46.709355+01 | 1486156966.70936 | pgbench_history  |        203628544
 2017-02-03 22:22:46.709355+01 | 1486156966.70936 | pgbench_branches |          2646016

 2017-02-03 22:22:47.795801+01 | 1486156967.7958 | pgbench_accounts |       1393475584
 2017-02-03 22:22:47.795801+01 | 1486156967.7958 | pgbench_tellers  |          3776512
 2017-02-03 22:22:47.795801+01 | 1486156967.7958 | pgbench_history  |        204685312
 2017-02-03 22:22:47.795801+01 | 1486156967.7958 | pgbench_branches |          2646016

 2017-02-03 22:22:48.870636+01 | 1486156968.87064 | pgbench_accounts |       1393475584
 2017-02-03 22:22:48.870636+01 | 1486156968.87064 | pgbench_tellers  |          3776512
 2017-02-03 22:22:48.870636+01 | 1486156968.87064 | pgbench_history  |        205365248
 2017-02-03 22:22:48.870636+01 | 1486156968.87064 | pgbench_branches |          2646016

 2017-02-03 22:22:49.942619+01 | 1486156969.94262 | pgbench_accounts |       1393475584
 2017-02-03 22:22:49.942619+01 | 1486156969.94262 | pgbench_tellers  |          3776512
 2017-02-03 22:22:49.942619+01 | 1486156969.94262 | pgbench_history  |        206381056
 2017-02-03 22:22:49.942619+01 | 1486156969.94262 | pgbench_branches |          2646016

 2017-02-03 22:22:51.02447+01 | 1486156971.02447 | pgbench_accounts |       1393475584
 2017-02-03 22:22:51.02447+01 | 1486156971.02447 | pgbench_tellers  |          3776512
 2017-02-03 22:22:51.02447+01 | 1486156971.02447 | pgbench_history  |        206897152
 2017-02-03 22:22:51.02447+01 | 1486156971.02447 | pgbench_branches |          2646016

 2017-02-03 22:22:52.119536+01 | 1486156972.11954 | pgbench_accounts |       1393475584
 2017-02-03 22:22:52.119536+01 | 1486156972.11954 | pgbench_tellers  |          3776512
 2017-02-03 22:22:52.119536+01 | 1486156972.11954 | pgbench_history  |        208101376
 2017-02-03 22:22:52.119536+01 | 1486156972.11954 | pgbench_branches |          2646016

 2017-02-03 22:22:53.198343+01 | 1486156973.19834 | pgbench_accounts |       1393475584
 2017-02-03 22:22:53.198343+01 | 1486156973.19834 | pgbench_tellers  |          3776512
 2017-02-03 22:22:53.198343+01 | 1486156973.19834 | pgbench_history  |        208822272
 2017-02-03 22:22:53.198343+01 | 1486156973.19834 | pgbench_branches |          2646016

 2017-02-03 22:22:54.294341+01 | 1486156974.29434 | pgbench_accounts |       1393475584
 2017-02-03 22:22:54.294341+01 | 1486156974.29434 | pgbench_tellers  |          3776512
 2017-02-03 22:22:54.294341+01 | 1486156974.29434 | pgbench_history  |        209739776
 2017-02-03 22:22:54.294341+01 | 1486156974.29434 | pgbench_branches |          2646016

 2017-02-03 22:22:55.384837+01 | 1486156975.38484 | pgbench_accounts |       1393475584
 2017-02-03 22:22:55.384837+01 | 1486156975.38484 | pgbench_tellers  |          3776512
 2017-02-03 22:22:55.384837+01 | 1486156975.38484 | pgbench_history  |        210649088
 2017-02-03 22:22:55.384837+01 | 1486156975.38484 | pgbench_branches |          2646016

 2017-02-03 22:22:56.464927+01 | 1486156976.46493 | pgbench_accounts |       1393475584
 2017-02-03 22:22:56.464927+01 | 1486156976.46493 | pgbench_tellers  |          3776512
 2017-02-03 22:22:56.464927+01 | 1486156976.46493 | pgbench_history  |        211353600
 2017-02-03 22:22:56.464927+01 | 1486156976.46493 | pgbench_branches |          2646016

 2017-02-03 22:22:57.557438+01 | 1486156977.55744 | pgbench_accounts |       1393475584
 2017-02-03 22:22:57.557438+01 | 1486156977.55744 | pgbench_tellers  |          3776512
 2017-02-03 22:22:57.557438+01 | 1486156977.55744 | pgbench_history  |        212336640
 2017-02-03 22:22:57.557438+01 | 1486156977.55744 | pgbench_branches |          2646016

 2017-02-03 22:22:58.647592+01 | 1486156978.64759 | pgbench_accounts |       1393475584
 2017-02-03 22:22:58.647592+01 | 1486156978.64759 | pgbench_tellers  |          3776512
 2017-02-03 22:22:58.647592+01 | 1486156978.64759 | pgbench_history  |        213401600
 2017-02-03 22:22:58.647592+01 | 1486156978.64759 | pgbench_branches |          2646016

 2017-02-03 22:22:59.738751+01 | 1486156979.73875 | pgbench_accounts |       1393475584
 2017-02-03 22:22:59.738751+01 | 1486156979.73875 | pgbench_tellers  |          3776512
 2017-02-03 22:22:59.738751+01 | 1486156979.73875 | pgbench_history  |        213958656
 2017-02-03 22:22:59.738751+01 | 1486156979.73875 | pgbench_branches |          2646016

 2017-02-03 22:23:00.822991+01 | 1486156980.82299 | pgbench_accounts |       1393475584
 2017-02-03 22:23:00.822991+01 | 1486156980.82299 | pgbench_tellers  |          3776512
 2017-02-03 22:23:00.822991+01 | 1486156980.82299 | pgbench_history  |        214884352
 2017-02-03 22:23:00.822991+01 | 1486156980.82299 | pgbench_branches |          2646016

 2017-02-03 22:23:01.898374+01 | 1486156981.89837 | pgbench_accounts |       1393475584
 2017-02-03 22:23:01.898374+01 | 1486156981.89837 | pgbench_tellers  |          3776512
 2017-02-03 22:23:01.898374+01 | 1486156981.89837 | pgbench_history  |        215982080
 2017-02-03 22:23:01.898374+01 | 1486156981.89837 | pgbench_branches |          2646016

 2017-02-03 22:23:02.987454+01 | 1486156982.98745 | pgbench_accounts |       1393475584
 2017-02-03 22:23:02.987454+01 | 1486156982.98745 | pgbench_tellers  |          3776512
 2017-02-03 22:23:02.987454+01 | 1486156982.98745 | pgbench_history  |        217178112
 2017-02-03 22:23:02.987454+01 | 1486156982.98745 | pgbench_branches |          2646016

 2017-02-03 22:23:04.064178+01 | 1486156984.06418 | pgbench_accounts |       1393475584
 2017-02-03 22:23:04.064178+01 | 1486156984.06418 | pgbench_tellers  |          3776512
 2017-02-03 22:23:04.064178+01 | 1486156984.06418 | pgbench_history  |        217374720
 2017-02-03 22:23:04.064178+01 | 1486156984.06418 | pgbench_branches |          2646016

 2017-02-03 22:23:05.134649+01 | 1486156985.13465 | pgbench_accounts |       1393475584
 2017-02-03 22:23:05.134649+01 | 1486156985.13465 | pgbench_tellers  |          3776512
 2017-02-03 22:23:05.134649+01 | 1486156985.13465 | pgbench_history  |        218251264
 2017-02-03 22:23:05.134649+01 | 1486156985.13465 | pgbench_branches |          2646016

 2017-02-03 22:23:06.213244+01 | 1486156986.21324 | pgbench_accounts |       1393475584
 2017-02-03 22:23:06.213244+01 | 1486156986.21324 | pgbench_tellers  |          3776512
 2017-02-03 22:23:06.213244+01 | 1486156986.21324 | pgbench_history  |        219365376
 2017-02-03 22:23:06.213244+01 | 1486156986.21324 | pgbench_branches |          2646016

 2017-02-03 22:23:07.302017+01 | 1486156987.30202 | pgbench_accounts |       1393475584
 2017-02-03 22:23:07.302017+01 | 1486156987.30202 | pgbench_tellers  |          3776512
 2017-02-03 22:23:07.302017+01 | 1486156987.30202 | pgbench_history  |        220078080
 2017-02-03 22:23:07.302017+01 | 1486156987.30202 | pgbench_branches |          2646016

 2017-02-03 22:23:08.390727+01 | 1486156988.39073 | pgbench_accounts |       1393475584
 2017-02-03 22:23:08.390727+01 | 1486156988.39073 | pgbench_tellers  |          3776512
 2017-02-03 22:23:08.390727+01 | 1486156988.39073 | pgbench_history  |        220848128
 2017-02-03 22:23:08.390727+01 | 1486156988.39073 | pgbench_branches |          2646016

 2017-02-03 22:23:09.480045+01 | 1486156989.48005 | pgbench_accounts |       1393475584
 2017-02-03 22:23:09.480045+01 | 1486156989.48005 | pgbench_tellers  |          3776512
 2017-02-03 22:23:09.480045+01 | 1486156989.48005 | pgbench_history  |        221773824
 2017-02-03 22:23:09.480045+01 | 1486156989.48005 | pgbench_branches |          2646016

 2017-02-03 22:23:10.557867+01 | 1486156990.55787 | pgbench_accounts |       1393475584
 2017-02-03 22:23:10.557867+01 | 1486156990.55787 | pgbench_tellers  |          3776512
 2017-02-03 22:23:10.557867+01 | 1486156990.55787 | pgbench_history  |        222707712
 2017-02-03 22:23:10.557867+01 | 1486156990.55787 | pgbench_branches |          2646016

 2017-02-03 22:23:11.640042+01 | 1486156991.64004 | pgbench_accounts |       1393475584
 2017-02-03 22:23:11.640042+01 | 1486156991.64004 | pgbench_tellers  |          3776512
 2017-02-03 22:23:11.640042+01 | 1486156991.64004 | pgbench_history  |        223444992
 2017-02-03 22:23:11.640042+01 | 1486156991.64004 | pgbench_branches |          2646016

 2017-02-03 22:23:12.725524+01 | 1486156992.72552 | pgbench_accounts |       1393475584
 2017-02-03 22:23:12.725524+01 | 1486156992.72552 | pgbench_tellers  |          3776512
 2017-02-03 22:23:12.725524+01 | 1486156992.72552 | pgbench_history  |        224378880
 2017-02-03 22:23:12.725524+01 | 1486156992.72552 | pgbench_branches |          2646016

 2017-02-03 22:23:13.818538+01 | 1486156993.81854 | pgbench_accounts |       1393475584
 2017-02-03 22:23:13.818538+01 | 1486156993.81854 | pgbench_tellers  |          3776512
 2017-02-03 22:23:13.818538+01 | 1486156993.81854 | pgbench_history  |        225525760
 2017-02-03 22:23:13.818538+01 | 1486156993.81854 | pgbench_branches |          2646016

 2017-02-03 22:23:14.903599+01 | 1486156994.9036 | pgbench_accounts |       1393475584
 2017-02-03 22:23:14.903599+01 | 1486156994.9036 | pgbench_tellers  |          3776512
 2017-02-03 22:23:14.903599+01 | 1486156994.9036 | pgbench_history  |        226082816
 2017-02-03 22:23:14.903599+01 | 1486156994.9036 | pgbench_branches |          2646016

 2017-02-03 22:23:15.979269+01 | 1486156995.97927 | pgbench_accounts |       1393475584
 2017-02-03 22:23:15.979269+01 | 1486156995.97927 | pgbench_tellers  |          3776512
 2017-02-03 22:23:15.979269+01 | 1486156995.97927 | pgbench_history  |        226918400
 2017-02-03 22:23:15.979269+01 | 1486156995.97927 | pgbench_branches |          2646016

 2017-02-03 22:23:17.054808+01 | 1486156997.05481 | pgbench_accounts |       1393475584
 2017-02-03 22:23:17.054808+01 | 1486156997.05481 | pgbench_tellers  |          3776512
 2017-02-03 22:23:17.054808+01 | 1486156997.05481 | pgbench_history  |        227786752
 2017-02-03 22:23:17.054808+01 | 1486156997.05481 | pgbench_branches |          2646016

 2017-02-03 22:23:18.125989+01 | 1486156998.12599 | pgbench_accounts |       1393475584
 2017-02-03 22:23:18.125989+01 | 1486156998.12599 | pgbench_tellers  |          3776512
 2017-02-03 22:23:18.125989+01 | 1486156998.12599 | pgbench_history  |        228835328
 2017-02-03 22:23:18.125989+01 | 1486156998.12599 | pgbench_branches |          2646016

 2017-02-03 22:23:19.208814+01 | 1486156999.20881 | pgbench_accounts |       1393475584
 2017-02-03 22:23:19.208814+01 | 1486156999.20881 | pgbench_tellers  |          3776512
 2017-02-03 22:23:19.208814+01 | 1486156999.20881 | pgbench_history  |        229605376
 2017-02-03 22:23:19.208814+01 | 1486156999.20881 | pgbench_branches |          2646016

 2017-02-03 22:23:20.295408+01 | 1486157000.29541 | pgbench_accounts |       1393475584
 2017-02-03 22:23:20.295408+01 | 1486157000.29541 | pgbench_tellers  |          3776512
 2017-02-03 22:23:20.295408+01 | 1486157000.29541 | pgbench_history  |        230342656
 2017-02-03 22:23:20.295408+01 | 1486157000.29541 | pgbench_branches |          2646016

 2017-02-03 22:23:21.381857+01 | 1486157001.38186 | pgbench_accounts |       1393475584
 2017-02-03 22:23:21.381857+01 | 1486157001.38186 | pgbench_tellers  |          3776512
 2017-02-03 22:23:21.381857+01 | 1486157001.38186 | pgbench_history  |        231407616
 2017-02-03 22:23:21.381857+01 | 1486157001.38186 | pgbench_branches |          2646016

 2017-02-03 22:23:22.472004+01 | 1486157002.472 | pgbench_accounts |       1393475584
 2017-02-03 22:23:22.472004+01 | 1486157002.472 | pgbench_tellers  |          3776512
 2017-02-03 22:23:22.472004+01 | 1486157002.472 | pgbench_history  |        232161280
 2017-02-03 22:23:22.472004+01 | 1486157002.472 | pgbench_branches |          2646016

 2017-02-03 22:23:23.559557+01 | 1486157003.55956 | pgbench_accounts |       1393475584
 2017-02-03 22:23:23.559557+01 | 1486157003.55956 | pgbench_tellers  |          3776512
 2017-02-03 22:23:23.559557+01 | 1486157003.55956 | pgbench_history  |        233037824
 2017-02-03 22:23:23.559557+01 | 1486157003.55956 | pgbench_branches |          2646016

 2017-02-03 22:23:24.639097+01 | 1486157004.6391 | pgbench_accounts |       1393475584
 2017-02-03 22:23:24.639097+01 | 1486157004.6391 | pgbench_tellers  |          3776512
 2017-02-03 22:23:24.639097+01 | 1486157004.6391 | pgbench_history  |        233963520
 2017-02-03 22:23:24.639097+01 | 1486157004.6391 | pgbench_branches |          2646016

 2017-02-03 22:23:25.71877+01 | 1486157005.71877 | pgbench_accounts |       1393475584
 2017-02-03 22:23:25.71877+01 | 1486157005.71877 | pgbench_tellers  |          3776512
 2017-02-03 22:23:25.71877+01 | 1486157005.71877 | pgbench_history  |        234897408
 2017-02-03 22:23:25.71877+01 | 1486157005.71877 | pgbench_branches |          2646016

 2017-02-03 22:23:26.802541+01 | 1486157006.80254 | pgbench_accounts |       1393475584
 2017-02-03 22:23:26.802541+01 | 1486157006.80254 | pgbench_tellers  |          3776512
 2017-02-03 22:23:26.802541+01 | 1486157006.80254 | pgbench_history  |        235585536
 2017-02-03 22:23:26.802541+01 | 1486157006.80254 | pgbench_branches |          2646016

 2017-02-03 22:23:27.888608+01 | 1486157007.88861 | pgbench_accounts |       1393475584
 2017-02-03 22:23:27.888608+01 | 1486157007.88861 | pgbench_tellers  |          3776512
 2017-02-03 22:23:27.888608+01 | 1486157007.88861 | pgbench_history  |        236486656
 2017-02-03 22:23:27.888608+01 | 1486157007.88861 | pgbench_branches |          2646016

 2017-02-03 22:23:28.973074+01 | 1486157008.97307 | pgbench_accounts |       1393475584
 2017-02-03 22:23:28.973074+01 | 1486157008.97307 | pgbench_tellers  |          3776512
 2017-02-03 22:23:28.973074+01 | 1486157008.97307 | pgbench_history  |        237903872
 2017-02-03 22:23:28.973074+01 | 1486157008.97307 | pgbench_branches |          2646016

 2017-02-03 22:23:30.037828+01 | 1486157010.03783 | pgbench_accounts |       1393475584
 2017-02-03 22:23:30.037828+01 | 1486157010.03783 | pgbench_tellers  |          3776512
 2017-02-03 22:23:30.037828+01 | 1486157010.03783 | pgbench_history  |        238477312
 2017-02-03 22:23:30.037828+01 | 1486157010.03783 | pgbench_branches |          2646016

 2017-02-03 22:23:31.129073+01 | 1486157011.12907 | pgbench_accounts |       1393475584
 2017-02-03 22:23:31.129073+01 | 1486157011.12907 | pgbench_tellers  |          3776512
 2017-02-03 22:23:31.129073+01 | 1486157011.12907 | pgbench_history  |        239198208
 2017-02-03 22:23:31.129073+01 | 1486157011.12907 | pgbench_branches |          2646016

