 2017-02-03 21:32:09.619278+01 | 1486153929.61928 | pgbench_accounts |      13429514240
 2017-02-03 21:32:09.619278+01 | 1486153929.61928 | pgbench_tellers  |           450560
 2017-02-03 21:32:09.619278+01 | 1486153929.61928 | pgbench_history  |                0
 2017-02-03 21:32:09.619278+01 | 1486153929.61928 | pgbench_branches |            40960

 2017-02-03 21:32:10.72574+01 | 1486153930.72574 | pgbench_accounts |      13429514240
 2017-02-03 21:32:10.72574+01 | 1486153930.72574 | pgbench_tellers  |           450560
 2017-02-03 21:32:10.72574+01 | 1486153930.72574 | pgbench_history  |                0
 2017-02-03 21:32:10.72574+01 | 1486153930.72574 | pgbench_branches |            40960

 2017-02-03 21:32:11.873593+01 | 1486153931.87359 | pgbench_accounts |      13429514240
 2017-02-03 21:32:11.873593+01 | 1486153931.87359 | pgbench_tellers  |           450560
 2017-02-03 21:32:11.873593+01 | 1486153931.87359 | pgbench_history  |                0
 2017-02-03 21:32:11.873593+01 | 1486153931.87359 | pgbench_branches |            40960

 2017-02-03 21:32:13.016907+01 | 1486153933.01691 | pgbench_accounts |      13429514240
 2017-02-03 21:32:13.016907+01 | 1486153933.01691 | pgbench_tellers  |           450560
 2017-02-03 21:32:13.016907+01 | 1486153933.01691 | pgbench_history  |                0
 2017-02-03 21:32:13.016907+01 | 1486153933.01691 | pgbench_branches |            40960

 2017-02-03 21:32:14.167966+01 | 1486153934.16797 | pgbench_accounts |      13429514240
 2017-02-03 21:32:14.167966+01 | 1486153934.16797 | pgbench_tellers  |           450560
 2017-02-03 21:32:14.167966+01 | 1486153934.16797 | pgbench_history  |                0
 2017-02-03 21:32:14.167966+01 | 1486153934.16797 | pgbench_branches |            40960

 2017-02-03 21:32:15.360891+01 | 1486153935.36089 | pgbench_accounts |      13429514240
 2017-02-03 21:32:15.360891+01 | 1486153935.36089 | pgbench_tellers  |           450560
 2017-02-03 21:32:15.360891+01 | 1486153935.36089 | pgbench_history  |                0
 2017-02-03 21:32:15.360891+01 | 1486153935.36089 | pgbench_branches |            40960

 2017-02-03 21:32:16.534628+01 | 1486153936.53463 | pgbench_accounts |      13429514240
 2017-02-03 21:32:16.534628+01 | 1486153936.53463 | pgbench_tellers  |           450560
 2017-02-03 21:32:16.534628+01 | 1486153936.53463 | pgbench_history  |                0
 2017-02-03 21:32:16.534628+01 | 1486153936.53463 | pgbench_branches |            40960

 2017-02-03 21:32:17.706573+01 | 1486153937.70657 | pgbench_accounts |      13429514240
 2017-02-03 21:32:17.706573+01 | 1486153937.70657 | pgbench_tellers  |           450560
 2017-02-03 21:32:17.706573+01 | 1486153937.70657 | pgbench_history  |                0
 2017-02-03 21:32:17.706573+01 | 1486153937.70657 | pgbench_branches |            40960

 2017-02-03 21:32:18.861867+01 | 1486153938.86187 | pgbench_accounts |      13429514240
 2017-02-03 21:32:18.861867+01 | 1486153938.86187 | pgbench_tellers  |           450560
 2017-02-03 21:32:18.861867+01 | 1486153938.86187 | pgbench_history  |                0
 2017-02-03 21:32:18.861867+01 | 1486153938.86187 | pgbench_branches |            40960

 2017-02-03 21:32:20.012704+01 | 1486153940.0127 | pgbench_accounts |      13429514240
 2017-02-03 21:32:20.012704+01 | 1486153940.0127 | pgbench_tellers  |           450560
 2017-02-03 21:32:20.012704+01 | 1486153940.0127 | pgbench_history  |                0
 2017-02-03 21:32:20.012704+01 | 1486153940.0127 | pgbench_branches |            40960

 2017-02-03 21:32:21.159362+01 | 1486153941.15936 | pgbench_accounts |      13429514240
 2017-02-03 21:32:21.159362+01 | 1486153941.15936 | pgbench_tellers  |           450560
 2017-02-03 21:32:21.159362+01 | 1486153941.15936 | pgbench_history  |                0
 2017-02-03 21:32:21.159362+01 | 1486153941.15936 | pgbench_branches |            40960

 2017-02-03 21:32:22.303051+01 | 1486153942.30305 | pgbench_accounts |      13429514240
 2017-02-03 21:32:22.303051+01 | 1486153942.30305 | pgbench_tellers  |           450560
 2017-02-03 21:32:22.303051+01 | 1486153942.30305 | pgbench_history  |                0
 2017-02-03 21:32:22.303051+01 | 1486153942.30305 | pgbench_branches |            40960

 2017-02-03 21:32:23.467901+01 | 1486153943.4679 | pgbench_accounts |      13429514240
 2017-02-03 21:32:23.467901+01 | 1486153943.4679 | pgbench_tellers  |           450560
 2017-02-03 21:32:23.467901+01 | 1486153943.4679 | pgbench_history  |                0
 2017-02-03 21:32:23.467901+01 | 1486153943.4679 | pgbench_branches |            40960

 2017-02-03 21:32:24.604602+01 | 1486153944.6046 | pgbench_accounts |      13429514240
 2017-02-03 21:32:24.604602+01 | 1486153944.6046 | pgbench_tellers  |           450560
 2017-02-03 21:32:24.604602+01 | 1486153944.6046 | pgbench_history  |                0
 2017-02-03 21:32:24.604602+01 | 1486153944.6046 | pgbench_branches |            40960

 2017-02-03 21:32:25.753232+01 | 1486153945.75323 | pgbench_accounts |      13429514240
 2017-02-03 21:32:25.753232+01 | 1486153945.75323 | pgbench_tellers  |           450560
 2017-02-03 21:32:25.753232+01 | 1486153945.75323 | pgbench_history  |                0
 2017-02-03 21:32:25.753232+01 | 1486153945.75323 | pgbench_branches |            40960

 2017-02-03 21:32:26.933849+01 | 1486153946.93385 | pgbench_accounts |      13429514240
 2017-02-03 21:32:26.933849+01 | 1486153946.93385 | pgbench_tellers  |           450560
 2017-02-03 21:32:26.933849+01 | 1486153946.93385 | pgbench_history  |                0
 2017-02-03 21:32:26.933849+01 | 1486153946.93385 | pgbench_branches |            40960

 2017-02-03 21:32:28.099032+01 | 1486153948.09903 | pgbench_accounts |      13429514240
 2017-02-03 21:32:28.099032+01 | 1486153948.09903 | pgbench_tellers  |           450560
 2017-02-03 21:32:28.099032+01 | 1486153948.09903 | pgbench_history  |                0
 2017-02-03 21:32:28.099032+01 | 1486153948.09903 | pgbench_branches |            40960

 2017-02-03 21:32:29.286132+01 | 1486153949.28613 | pgbench_accounts |      13429514240
 2017-02-03 21:32:29.286132+01 | 1486153949.28613 | pgbench_tellers  |           450560
 2017-02-03 21:32:29.286132+01 | 1486153949.28613 | pgbench_history  |                0
 2017-02-03 21:32:29.286132+01 | 1486153949.28613 | pgbench_branches |            40960

 2017-02-03 21:32:30.412331+01 | 1486153950.41233 | pgbench_accounts |      13429514240
 2017-02-03 21:32:30.412331+01 | 1486153950.41233 | pgbench_tellers  |           450560
 2017-02-03 21:32:30.412331+01 | 1486153950.41233 | pgbench_history  |                0
 2017-02-03 21:32:30.412331+01 | 1486153950.41233 | pgbench_branches |            40960

 2017-02-03 21:32:31.561712+01 | 1486153951.56171 | pgbench_accounts |      13429514240
 2017-02-03 21:32:31.561712+01 | 1486153951.56171 | pgbench_tellers  |           450560
 2017-02-03 21:32:31.561712+01 | 1486153951.56171 | pgbench_history  |                0
 2017-02-03 21:32:31.561712+01 | 1486153951.56171 | pgbench_branches |            40960

 2017-02-03 21:32:32.710202+01 | 1486153952.7102 | pgbench_accounts |      13429514240
 2017-02-03 21:32:32.710202+01 | 1486153952.7102 | pgbench_tellers  |           450560
 2017-02-03 21:32:32.710202+01 | 1486153952.7102 | pgbench_history  |                0
 2017-02-03 21:32:32.710202+01 | 1486153952.7102 | pgbench_branches |            40960

 2017-02-03 21:32:33.842942+01 | 1486153953.84294 | pgbench_accounts |      13429514240
 2017-02-03 21:32:33.842942+01 | 1486153953.84294 | pgbench_tellers  |           450560
 2017-02-03 21:32:33.842942+01 | 1486153953.84294 | pgbench_history  |                0
 2017-02-03 21:32:33.842942+01 | 1486153953.84294 | pgbench_branches |            40960

 2017-02-03 21:32:35.010653+01 | 1486153955.01065 | pgbench_accounts |      13429514240
 2017-02-03 21:32:35.010653+01 | 1486153955.01065 | pgbench_tellers  |           450560
 2017-02-03 21:32:35.010653+01 | 1486153955.01065 | pgbench_history  |                0
 2017-02-03 21:32:35.010653+01 | 1486153955.01065 | pgbench_branches |            40960

 2017-02-03 21:32:36.175142+01 | 1486153956.17514 | pgbench_accounts |      13429514240
 2017-02-03 21:32:36.175142+01 | 1486153956.17514 | pgbench_tellers  |           450560
 2017-02-03 21:32:36.175142+01 | 1486153956.17514 | pgbench_history  |                0
 2017-02-03 21:32:36.175142+01 | 1486153956.17514 | pgbench_branches |            40960

 2017-02-03 21:32:37.326045+01 | 1486153957.32605 | pgbench_accounts |      13429514240
 2017-02-03 21:32:37.326045+01 | 1486153957.32605 | pgbench_tellers  |           450560
 2017-02-03 21:32:37.326045+01 | 1486153957.32605 | pgbench_history  |                0
 2017-02-03 21:32:37.326045+01 | 1486153957.32605 | pgbench_branches |            40960

 2017-02-03 21:32:38.484395+01 | 1486153958.4844 | pgbench_accounts |      13429514240
 2017-02-03 21:32:38.484395+01 | 1486153958.4844 | pgbench_tellers  |           450560
 2017-02-03 21:32:38.484395+01 | 1486153958.4844 | pgbench_history  |                0
 2017-02-03 21:32:38.484395+01 | 1486153958.4844 | pgbench_branches |            40960

 2017-02-03 21:32:39.648709+01 | 1486153959.64871 | pgbench_accounts |      13429514240
 2017-02-03 21:32:39.648709+01 | 1486153959.64871 | pgbench_tellers  |           450560
 2017-02-03 21:32:39.648709+01 | 1486153959.64871 | pgbench_history  |                0
 2017-02-03 21:32:39.648709+01 | 1486153959.64871 | pgbench_branches |            40960

 2017-02-03 21:32:40.844901+01 | 1486153960.8449 | pgbench_accounts |      13429514240
 2017-02-03 21:32:40.844901+01 | 1486153960.8449 | pgbench_tellers  |           450560
 2017-02-03 21:32:40.844901+01 | 1486153960.8449 | pgbench_history  |                0
 2017-02-03 21:32:40.844901+01 | 1486153960.8449 | pgbench_branches |            40960

 2017-02-03 21:32:41.992789+01 | 1486153961.99279 | pgbench_accounts |      13429514240
 2017-02-03 21:32:41.992789+01 | 1486153961.99279 | pgbench_tellers  |           450560
 2017-02-03 21:32:41.992789+01 | 1486153961.99279 | pgbench_history  |                0
 2017-02-03 21:32:41.992789+01 | 1486153961.99279 | pgbench_branches |            40960

 2017-02-03 21:32:43.176586+01 | 1486153963.17659 | pgbench_accounts |      13429514240
 2017-02-03 21:32:43.176586+01 | 1486153963.17659 | pgbench_tellers  |           450560
 2017-02-03 21:32:43.176586+01 | 1486153963.17659 | pgbench_history  |                0
 2017-02-03 21:32:43.176586+01 | 1486153963.17659 | pgbench_branches |            40960

 2017-02-03 21:32:44.365603+01 | 1486153964.3656 | pgbench_accounts |      13429514240
 2017-02-03 21:32:44.365603+01 | 1486153964.3656 | pgbench_tellers  |           450560
 2017-02-03 21:32:44.365603+01 | 1486153964.3656 | pgbench_history  |                0
 2017-02-03 21:32:44.365603+01 | 1486153964.3656 | pgbench_branches |            40960

 2017-02-03 21:32:45.550428+01 | 1486153965.55043 | pgbench_accounts |      13429514240
 2017-02-03 21:32:45.550428+01 | 1486153965.55043 | pgbench_tellers  |           450560
 2017-02-03 21:32:45.550428+01 | 1486153965.55043 | pgbench_history  |                0
 2017-02-03 21:32:45.550428+01 | 1486153965.55043 | pgbench_branches |            40960

 2017-02-03 21:32:46.723115+01 | 1486153966.72311 | pgbench_accounts |      13429514240
 2017-02-03 21:32:46.723115+01 | 1486153966.72311 | pgbench_tellers  |           450560
 2017-02-03 21:32:46.723115+01 | 1486153966.72311 | pgbench_history  |                0
 2017-02-03 21:32:46.723115+01 | 1486153966.72311 | pgbench_branches |            40960

 2017-02-03 21:32:47.888128+01 | 1486153967.88813 | pgbench_accounts |      13429514240
 2017-02-03 21:32:47.888128+01 | 1486153967.88813 | pgbench_tellers  |           450560
 2017-02-03 21:32:47.888128+01 | 1486153967.88813 | pgbench_history  |                0
 2017-02-03 21:32:47.888128+01 | 1486153967.88813 | pgbench_branches |            40960

 2017-02-03 21:32:49.042106+01 | 1486153969.04211 | pgbench_accounts |      13429514240
 2017-02-03 21:32:49.042106+01 | 1486153969.04211 | pgbench_tellers  |           450560
 2017-02-03 21:32:49.042106+01 | 1486153969.04211 | pgbench_history  |                0
 2017-02-03 21:32:49.042106+01 | 1486153969.04211 | pgbench_branches |            40960

 2017-02-03 21:32:50.216765+01 | 1486153970.21676 | pgbench_accounts |      13429514240
 2017-02-03 21:32:50.216765+01 | 1486153970.21676 | pgbench_tellers  |           450560
 2017-02-03 21:32:50.216765+01 | 1486153970.21676 | pgbench_history  |                0
 2017-02-03 21:32:50.216765+01 | 1486153970.21676 | pgbench_branches |            40960

 2017-02-03 21:32:51.365213+01 | 1486153971.36521 | pgbench_accounts |      13429514240
 2017-02-03 21:32:51.365213+01 | 1486153971.36521 | pgbench_tellers  |           450560
 2017-02-03 21:32:51.365213+01 | 1486153971.36521 | pgbench_history  |                0
 2017-02-03 21:32:51.365213+01 | 1486153971.36521 | pgbench_branches |            40960

 2017-02-03 21:32:52.504221+01 | 1486153972.50422 | pgbench_accounts |      13429514240
 2017-02-03 21:32:52.504221+01 | 1486153972.50422 | pgbench_tellers  |           450560
 2017-02-03 21:32:52.504221+01 | 1486153972.50422 | pgbench_history  |                0
 2017-02-03 21:32:52.504221+01 | 1486153972.50422 | pgbench_branches |            40960

 2017-02-03 21:32:53.599939+01 | 1486153973.59994 | pgbench_accounts |      13429514240
 2017-02-03 21:32:53.599939+01 | 1486153973.59994 | pgbench_tellers  |           450560
 2017-02-03 21:32:53.599939+01 | 1486153973.59994 | pgbench_history  |                0
 2017-02-03 21:32:53.599939+01 | 1486153973.59994 | pgbench_branches |            40960

 2017-02-03 21:32:54.741893+01 | 1486153974.74189 | pgbench_accounts |      13429514240
 2017-02-03 21:32:54.741893+01 | 1486153974.74189 | pgbench_tellers  |           450560
 2017-02-03 21:32:54.741893+01 | 1486153974.74189 | pgbench_history  |                0
 2017-02-03 21:32:54.741893+01 | 1486153974.74189 | pgbench_branches |            40960

 2017-02-03 21:32:55.907642+01 | 1486153975.90764 | pgbench_accounts |      13429514240
 2017-02-03 21:32:55.907642+01 | 1486153975.90764 | pgbench_tellers  |           450560
 2017-02-03 21:32:55.907642+01 | 1486153975.90764 | pgbench_history  |                0
 2017-02-03 21:32:55.907642+01 | 1486153975.90764 | pgbench_branches |            40960

 2017-02-03 21:32:57.075377+01 | 1486153977.07538 | pgbench_accounts |      13429514240
 2017-02-03 21:32:57.075377+01 | 1486153977.07538 | pgbench_tellers  |           450560
 2017-02-03 21:32:57.075377+01 | 1486153977.07538 | pgbench_history  |                0
 2017-02-03 21:32:57.075377+01 | 1486153977.07538 | pgbench_branches |            40960

 2017-02-03 21:32:58.289791+01 | 1486153978.28979 | pgbench_accounts |      13429514240
 2017-02-03 21:32:58.289791+01 | 1486153978.28979 | pgbench_tellers  |           450560
 2017-02-03 21:32:58.289791+01 | 1486153978.28979 | pgbench_history  |                0
 2017-02-03 21:32:58.289791+01 | 1486153978.28979 | pgbench_branches |            40960

 2017-02-03 21:32:59.415331+01 | 1486153979.41533 | pgbench_accounts |      13429514240
 2017-02-03 21:32:59.415331+01 | 1486153979.41533 | pgbench_tellers  |           450560
 2017-02-03 21:32:59.415331+01 | 1486153979.41533 | pgbench_history  |                0
 2017-02-03 21:32:59.415331+01 | 1486153979.41533 | pgbench_branches |            40960

 2017-02-03 21:33:00.566968+01 | 1486153980.56697 | pgbench_accounts |      13429514240
 2017-02-03 21:33:00.566968+01 | 1486153980.56697 | pgbench_tellers  |           450560
 2017-02-03 21:33:00.566968+01 | 1486153980.56697 | pgbench_history  |                0
 2017-02-03 21:33:00.566968+01 | 1486153980.56697 | pgbench_branches |            40960

 2017-02-03 21:33:01.722445+01 | 1486153981.72245 | pgbench_accounts |      13429514240
 2017-02-03 21:33:01.722445+01 | 1486153981.72245 | pgbench_tellers  |           450560
 2017-02-03 21:33:01.722445+01 | 1486153981.72245 | pgbench_history  |                0
 2017-02-03 21:33:01.722445+01 | 1486153981.72245 | pgbench_branches |            40960

 2017-02-03 21:33:02.912232+01 | 1486153982.91223 | pgbench_accounts |      13429514240
 2017-02-03 21:33:02.912232+01 | 1486153982.91223 | pgbench_tellers  |           450560
 2017-02-03 21:33:02.912232+01 | 1486153982.91223 | pgbench_history  |                0
 2017-02-03 21:33:02.912232+01 | 1486153982.91223 | pgbench_branches |            40960

 2017-02-03 21:33:04.035324+01 | 1486153984.03532 | pgbench_accounts |      13429514240
 2017-02-03 21:33:04.035324+01 | 1486153984.03532 | pgbench_tellers  |           450560
 2017-02-03 21:33:04.035324+01 | 1486153984.03532 | pgbench_history  |                0
 2017-02-03 21:33:04.035324+01 | 1486153984.03532 | pgbench_branches |            40960

 2017-02-03 21:33:05.17908+01 | 1486153985.17908 | pgbench_accounts |      13429514240
 2017-02-03 21:33:05.17908+01 | 1486153985.17908 | pgbench_tellers  |           450560
 2017-02-03 21:33:05.17908+01 | 1486153985.17908 | pgbench_history  |                0
 2017-02-03 21:33:05.17908+01 | 1486153985.17908 | pgbench_branches |            40960

 2017-02-03 21:33:06.358603+01 | 1486153986.3586 | pgbench_accounts |      13429514240
 2017-02-03 21:33:06.358603+01 | 1486153986.3586 | pgbench_tellers  |           450560
 2017-02-03 21:33:06.358603+01 | 1486153986.3586 | pgbench_history  |                0
 2017-02-03 21:33:06.358603+01 | 1486153986.3586 | pgbench_branches |            40960

 2017-02-03 21:33:07.528467+01 | 1486153987.52847 | pgbench_accounts |      13429514240
 2017-02-03 21:33:07.528467+01 | 1486153987.52847 | pgbench_tellers  |           450560
 2017-02-03 21:33:07.528467+01 | 1486153987.52847 | pgbench_history  |                0
 2017-02-03 21:33:07.528467+01 | 1486153987.52847 | pgbench_branches |            40960

 2017-02-03 21:33:08.680696+01 | 1486153988.6807 | pgbench_accounts |      13429514240
 2017-02-03 21:33:08.680696+01 | 1486153988.6807 | pgbench_tellers  |           450560
 2017-02-03 21:33:08.680696+01 | 1486153988.6807 | pgbench_history  |                0
 2017-02-03 21:33:08.680696+01 | 1486153988.6807 | pgbench_branches |            40960

 2017-02-03 21:33:09.803236+01 | 1486153989.80324 | pgbench_accounts |      13429514240
 2017-02-03 21:33:09.803236+01 | 1486153989.80324 | pgbench_tellers  |           450560
 2017-02-03 21:33:09.803236+01 | 1486153989.80324 | pgbench_history  |                0
 2017-02-03 21:33:09.803236+01 | 1486153989.80324 | pgbench_branches |            40960

 2017-02-03 21:33:10.978931+01 | 1486153990.97893 | pgbench_accounts |      13429514240
 2017-02-03 21:33:10.978931+01 | 1486153990.97893 | pgbench_tellers  |           450560
 2017-02-03 21:33:10.978931+01 | 1486153990.97893 | pgbench_history  |                0
 2017-02-03 21:33:10.978931+01 | 1486153990.97893 | pgbench_branches |            40960

 2017-02-03 21:33:12.135736+01 | 1486153992.13574 | pgbench_accounts |      13429514240
 2017-02-03 21:33:12.135736+01 | 1486153992.13574 | pgbench_tellers  |           450560
 2017-02-03 21:33:12.135736+01 | 1486153992.13574 | pgbench_history  |                0
 2017-02-03 21:33:12.135736+01 | 1486153992.13574 | pgbench_branches |            40960

 2017-02-03 21:33:13.291864+01 | 1486153993.29186 | pgbench_accounts |      13429514240
 2017-02-03 21:33:13.291864+01 | 1486153993.29186 | pgbench_tellers  |           450560
 2017-02-03 21:33:13.291864+01 | 1486153993.29186 | pgbench_history  |                0
 2017-02-03 21:33:13.291864+01 | 1486153993.29186 | pgbench_branches |            40960

 2017-02-03 21:33:14.532616+01 | 1486153994.53262 | pgbench_accounts |      13429514240
 2017-02-03 21:33:14.532616+01 | 1486153994.53262 | pgbench_tellers  |           450560
 2017-02-03 21:33:14.532616+01 | 1486153994.53262 | pgbench_history  |                0
 2017-02-03 21:33:14.532616+01 | 1486153994.53262 | pgbench_branches |            40960

 2017-02-03 21:33:15.662208+01 | 1486153995.66221 | pgbench_accounts |      13429514240
 2017-02-03 21:33:15.662208+01 | 1486153995.66221 | pgbench_tellers  |           450560
 2017-02-03 21:33:15.662208+01 | 1486153995.66221 | pgbench_history  |                0
 2017-02-03 21:33:15.662208+01 | 1486153995.66221 | pgbench_branches |            40960

 2017-02-03 21:33:16.79341+01 | 1486153996.79341 | pgbench_accounts |      13429514240
 2017-02-03 21:33:16.79341+01 | 1486153996.79341 | pgbench_tellers  |           450560
 2017-02-03 21:33:16.79341+01 | 1486153996.79341 | pgbench_history  |                0
 2017-02-03 21:33:16.79341+01 | 1486153996.79341 | pgbench_branches |            40960

 2017-02-03 21:33:17.928809+01 | 1486153997.92881 | pgbench_accounts |      13429514240
 2017-02-03 21:33:17.928809+01 | 1486153997.92881 | pgbench_tellers  |           450560
 2017-02-03 21:33:17.928809+01 | 1486153997.92881 | pgbench_history  |                0
 2017-02-03 21:33:17.928809+01 | 1486153997.92881 | pgbench_branches |            40960

 2017-02-03 21:33:19.101504+01 | 1486153999.1015 | pgbench_accounts |      13429514240
 2017-02-03 21:33:19.101504+01 | 1486153999.1015 | pgbench_tellers  |           450560
 2017-02-03 21:33:19.101504+01 | 1486153999.1015 | pgbench_history  |                0
 2017-02-03 21:33:19.101504+01 | 1486153999.1015 | pgbench_branches |            40960

 2017-02-03 21:33:20.269418+01 | 1486154000.26942 | pgbench_accounts |      13429514240
 2017-02-03 21:33:20.269418+01 | 1486154000.26942 | pgbench_tellers  |           450560
 2017-02-03 21:33:20.269418+01 | 1486154000.26942 | pgbench_history  |                0
 2017-02-03 21:33:20.269418+01 | 1486154000.26942 | pgbench_branches |            40960

 2017-02-03 21:33:21.421446+01 | 1486154001.42145 | pgbench_accounts |      13429514240
 2017-02-03 21:33:21.421446+01 | 1486154001.42145 | pgbench_tellers  |           450560
 2017-02-03 21:33:21.421446+01 | 1486154001.42145 | pgbench_history  |                0
 2017-02-03 21:33:21.421446+01 | 1486154001.42145 | pgbench_branches |            40960

 2017-02-03 21:33:22.578295+01 | 1486154002.57829 | pgbench_accounts |      13429514240
 2017-02-03 21:33:22.578295+01 | 1486154002.57829 | pgbench_tellers  |           450560
 2017-02-03 21:33:22.578295+01 | 1486154002.57829 | pgbench_history  |                0
 2017-02-03 21:33:22.578295+01 | 1486154002.57829 | pgbench_branches |            40960

 2017-02-03 21:33:23.727662+01 | 1486154003.72766 | pgbench_accounts |      13429514240
 2017-02-03 21:33:23.727662+01 | 1486154003.72766 | pgbench_tellers  |           450560
 2017-02-03 21:33:23.727662+01 | 1486154003.72766 | pgbench_history  |                0
 2017-02-03 21:33:23.727662+01 | 1486154003.72766 | pgbench_branches |            40960

 2017-02-03 21:33:24.902083+01 | 1486154004.90208 | pgbench_accounts |      13429514240
 2017-02-03 21:33:24.902083+01 | 1486154004.90208 | pgbench_tellers  |           450560
 2017-02-03 21:33:24.902083+01 | 1486154004.90208 | pgbench_history  |                0
 2017-02-03 21:33:24.902083+01 | 1486154004.90208 | pgbench_branches |            40960

 2017-02-03 21:33:26.036217+01 | 1486154006.03622 | pgbench_accounts |      13429514240
 2017-02-03 21:33:26.036217+01 | 1486154006.03622 | pgbench_tellers  |           450560
 2017-02-03 21:33:26.036217+01 | 1486154006.03622 | pgbench_history  |                0
 2017-02-03 21:33:26.036217+01 | 1486154006.03622 | pgbench_branches |            40960

 2017-02-03 21:33:27.227548+01 | 1486154007.22755 | pgbench_accounts |      13429514240
 2017-02-03 21:33:27.227548+01 | 1486154007.22755 | pgbench_tellers  |           450560
 2017-02-03 21:33:27.227548+01 | 1486154007.22755 | pgbench_history  |                0
 2017-02-03 21:33:27.227548+01 | 1486154007.22755 | pgbench_branches |            40960

 2017-02-03 21:33:28.380116+01 | 1486154008.38012 | pgbench_accounts |      13429514240
 2017-02-03 21:33:28.380116+01 | 1486154008.38012 | pgbench_tellers  |           450560
 2017-02-03 21:33:28.380116+01 | 1486154008.38012 | pgbench_history  |                0
 2017-02-03 21:33:28.380116+01 | 1486154008.38012 | pgbench_branches |            40960

 2017-02-03 21:33:29.536871+01 | 1486154009.53687 | pgbench_accounts |      13429514240
 2017-02-03 21:33:29.536871+01 | 1486154009.53687 | pgbench_tellers  |           450560
 2017-02-03 21:33:29.536871+01 | 1486154009.53687 | pgbench_history  |                0
 2017-02-03 21:33:29.536871+01 | 1486154009.53687 | pgbench_branches |            40960

 2017-02-03 21:33:30.686858+01 | 1486154010.68686 | pgbench_accounts |      13429514240
 2017-02-03 21:33:30.686858+01 | 1486154010.68686 | pgbench_tellers  |           450560
 2017-02-03 21:33:30.686858+01 | 1486154010.68686 | pgbench_history  |                0
 2017-02-03 21:33:30.686858+01 | 1486154010.68686 | pgbench_branches |            40960

 2017-02-03 21:33:31.820991+01 | 1486154011.82099 | pgbench_accounts |      13429514240
 2017-02-03 21:33:31.820991+01 | 1486154011.82099 | pgbench_tellers  |           450560
 2017-02-03 21:33:31.820991+01 | 1486154011.82099 | pgbench_history  |                0
 2017-02-03 21:33:31.820991+01 | 1486154011.82099 | pgbench_branches |            40960

 2017-02-03 21:33:32.999916+01 | 1486154012.99992 | pgbench_accounts |      13429514240
 2017-02-03 21:33:32.999916+01 | 1486154012.99992 | pgbench_tellers  |           450560
 2017-02-03 21:33:32.999916+01 | 1486154012.99992 | pgbench_history  |                0
 2017-02-03 21:33:32.999916+01 | 1486154012.99992 | pgbench_branches |            40960

 2017-02-03 21:33:34.180097+01 | 1486154014.1801 | pgbench_accounts |      13429514240
 2017-02-03 21:33:34.180097+01 | 1486154014.1801 | pgbench_tellers  |           450560
 2017-02-03 21:33:34.180097+01 | 1486154014.1801 | pgbench_history  |                0
 2017-02-03 21:33:34.180097+01 | 1486154014.1801 | pgbench_branches |            40960

 2017-02-03 21:33:35.300481+01 | 1486154015.30048 | pgbench_accounts |      13429514240
 2017-02-03 21:33:35.300481+01 | 1486154015.30048 | pgbench_tellers  |           450560
 2017-02-03 21:33:35.300481+01 | 1486154015.30048 | pgbench_history  |                0
 2017-02-03 21:33:35.300481+01 | 1486154015.30048 | pgbench_branches |            40960

 2017-02-03 21:33:36.46442+01 | 1486154016.46442 | pgbench_accounts |      13429514240
 2017-02-03 21:33:36.46442+01 | 1486154016.46442 | pgbench_tellers  |           450560
 2017-02-03 21:33:36.46442+01 | 1486154016.46442 | pgbench_history  |                0
 2017-02-03 21:33:36.46442+01 | 1486154016.46442 | pgbench_branches |            40960

 2017-02-03 21:33:37.605862+01 | 1486154017.60586 | pgbench_accounts |      13429514240
 2017-02-03 21:33:37.605862+01 | 1486154017.60586 | pgbench_tellers  |           450560
 2017-02-03 21:33:37.605862+01 | 1486154017.60586 | pgbench_history  |                0
 2017-02-03 21:33:37.605862+01 | 1486154017.60586 | pgbench_branches |            40960

 2017-02-03 21:33:38.755386+01 | 1486154018.75539 | pgbench_accounts |      13429514240
 2017-02-03 21:33:38.755386+01 | 1486154018.75539 | pgbench_tellers  |           450560
 2017-02-03 21:33:38.755386+01 | 1486154018.75539 | pgbench_history  |                0
 2017-02-03 21:33:38.755386+01 | 1486154018.75539 | pgbench_branches |            40960

 2017-02-03 21:33:39.938007+01 | 1486154019.93801 | pgbench_accounts |      13429514240
 2017-02-03 21:33:39.938007+01 | 1486154019.93801 | pgbench_tellers  |           450560
 2017-02-03 21:33:39.938007+01 | 1486154019.93801 | pgbench_history  |                0
 2017-02-03 21:33:39.938007+01 | 1486154019.93801 | pgbench_branches |            40960

 2017-02-03 21:33:41.117967+01 | 1486154021.11797 | pgbench_accounts |      13429514240
 2017-02-03 21:33:41.117967+01 | 1486154021.11797 | pgbench_tellers  |           450560
 2017-02-03 21:33:41.117967+01 | 1486154021.11797 | pgbench_history  |                0
 2017-02-03 21:33:41.117967+01 | 1486154021.11797 | pgbench_branches |            40960

 2017-02-03 21:33:42.314486+01 | 1486154022.31449 | pgbench_accounts |      13429514240
 2017-02-03 21:33:42.314486+01 | 1486154022.31449 | pgbench_tellers  |           450560
 2017-02-03 21:33:42.314486+01 | 1486154022.31449 | pgbench_history  |                0
 2017-02-03 21:33:42.314486+01 | 1486154022.31449 | pgbench_branches |            40960

 2017-02-03 21:33:43.462885+01 | 1486154023.46288 | pgbench_accounts |      13429514240
 2017-02-03 21:33:43.462885+01 | 1486154023.46288 | pgbench_tellers  |           450560
 2017-02-03 21:33:43.462885+01 | 1486154023.46288 | pgbench_history  |                0
 2017-02-03 21:33:43.462885+01 | 1486154023.46288 | pgbench_branches |            40960

 2017-02-03 21:33:44.611575+01 | 1486154024.61157 | pgbench_accounts |      13429514240
 2017-02-03 21:33:44.611575+01 | 1486154024.61157 | pgbench_tellers  |           450560
 2017-02-03 21:33:44.611575+01 | 1486154024.61157 | pgbench_history  |                0
 2017-02-03 21:33:44.611575+01 | 1486154024.61157 | pgbench_branches |            40960

 2017-02-03 21:33:45.842261+01 | 1486154025.84226 | pgbench_accounts |      13429514240
 2017-02-03 21:33:45.842261+01 | 1486154025.84226 | pgbench_tellers  |           450560
 2017-02-03 21:33:45.842261+01 | 1486154025.84226 | pgbench_history  |                0
 2017-02-03 21:33:45.842261+01 | 1486154025.84226 | pgbench_branches |            40960

 2017-02-03 21:33:47.028507+01 | 1486154027.02851 | pgbench_accounts |      13429514240
 2017-02-03 21:33:47.028507+01 | 1486154027.02851 | pgbench_tellers  |           450560
 2017-02-03 21:33:47.028507+01 | 1486154027.02851 | pgbench_history  |                0
 2017-02-03 21:33:47.028507+01 | 1486154027.02851 | pgbench_branches |            40960

 2017-02-03 21:33:48.227125+01 | 1486154028.22712 | pgbench_accounts |      13429514240
 2017-02-03 21:33:48.227125+01 | 1486154028.22712 | pgbench_tellers  |           450560
 2017-02-03 21:33:48.227125+01 | 1486154028.22712 | pgbench_history  |                0
 2017-02-03 21:33:48.227125+01 | 1486154028.22712 | pgbench_branches |            40960

 2017-02-03 21:33:49.374532+01 | 1486154029.37453 | pgbench_accounts |      13429514240
 2017-02-03 21:33:49.374532+01 | 1486154029.37453 | pgbench_tellers  |           450560
 2017-02-03 21:33:49.374532+01 | 1486154029.37453 | pgbench_history  |                0
 2017-02-03 21:33:49.374532+01 | 1486154029.37453 | pgbench_branches |            40960

 2017-02-03 21:33:50.529196+01 | 1486154030.5292 | pgbench_accounts |      13429514240
 2017-02-03 21:33:50.529196+01 | 1486154030.5292 | pgbench_tellers  |           450560
 2017-02-03 21:33:50.529196+01 | 1486154030.5292 | pgbench_history  |                0
 2017-02-03 21:33:50.529196+01 | 1486154030.5292 | pgbench_branches |            40960

 2017-02-03 21:33:51.706646+01 | 1486154031.70665 | pgbench_accounts |      13429514240
 2017-02-03 21:33:51.706646+01 | 1486154031.70665 | pgbench_tellers  |           450560
 2017-02-03 21:33:51.706646+01 | 1486154031.70665 | pgbench_history  |                0
 2017-02-03 21:33:51.706646+01 | 1486154031.70665 | pgbench_branches |            40960

 2017-02-03 21:33:52.894729+01 | 1486154032.89473 | pgbench_accounts |      13429514240
 2017-02-03 21:33:52.894729+01 | 1486154032.89473 | pgbench_tellers  |           450560
 2017-02-03 21:33:52.894729+01 | 1486154032.89473 | pgbench_history  |                0
 2017-02-03 21:33:52.894729+01 | 1486154032.89473 | pgbench_branches |            40960

 2017-02-03 21:33:54.044333+01 | 1486154034.04433 | pgbench_accounts |      13429514240
 2017-02-03 21:33:54.044333+01 | 1486154034.04433 | pgbench_tellers  |           450560
 2017-02-03 21:33:54.044333+01 | 1486154034.04433 | pgbench_history  |                0
 2017-02-03 21:33:54.044333+01 | 1486154034.04433 | pgbench_branches |            40960

 2017-02-03 21:33:55.189253+01 | 1486154035.18925 | pgbench_accounts |      13429514240
 2017-02-03 21:33:55.189253+01 | 1486154035.18925 | pgbench_tellers  |           450560
 2017-02-03 21:33:55.189253+01 | 1486154035.18925 | pgbench_history  |                0
 2017-02-03 21:33:55.189253+01 | 1486154035.18925 | pgbench_branches |            40960

 2017-02-03 21:33:56.34079+01 | 1486154036.34079 | pgbench_accounts |      13429514240
 2017-02-03 21:33:56.34079+01 | 1486154036.34079 | pgbench_tellers  |           450560
 2017-02-03 21:33:56.34079+01 | 1486154036.34079 | pgbench_history  |                0
 2017-02-03 21:33:56.34079+01 | 1486154036.34079 | pgbench_branches |            40960

 2017-02-03 21:33:57.47964+01 | 1486154037.47964 | pgbench_accounts |      13429514240
 2017-02-03 21:33:57.47964+01 | 1486154037.47964 | pgbench_tellers  |           450560
 2017-02-03 21:33:57.47964+01 | 1486154037.47964 | pgbench_history  |                0
 2017-02-03 21:33:57.47964+01 | 1486154037.47964 | pgbench_branches |            40960

 2017-02-03 21:33:58.695512+01 | 1486154038.69551 | pgbench_accounts |      13429514240
 2017-02-03 21:33:58.695512+01 | 1486154038.69551 | pgbench_tellers  |           450560
 2017-02-03 21:33:58.695512+01 | 1486154038.69551 | pgbench_history  |                0
 2017-02-03 21:33:58.695512+01 | 1486154038.69551 | pgbench_branches |            40960

 2017-02-03 21:33:59.887276+01 | 1486154039.88728 | pgbench_accounts |      13429514240
 2017-02-03 21:33:59.887276+01 | 1486154039.88728 | pgbench_tellers  |           450560
 2017-02-03 21:33:59.887276+01 | 1486154039.88728 | pgbench_history  |                0
 2017-02-03 21:33:59.887276+01 | 1486154039.88728 | pgbench_branches |            40960

 2017-02-03 21:34:01.073652+01 | 1486154041.07365 | pgbench_accounts |      13429514240
 2017-02-03 21:34:01.073652+01 | 1486154041.07365 | pgbench_tellers  |           450560
 2017-02-03 21:34:01.073652+01 | 1486154041.07365 | pgbench_history  |                0
 2017-02-03 21:34:01.073652+01 | 1486154041.07365 | pgbench_branches |            40960

 2017-02-03 21:34:02.258816+01 | 1486154042.25882 | pgbench_accounts |      13429514240
 2017-02-03 21:34:02.258816+01 | 1486154042.25882 | pgbench_tellers  |           450560
 2017-02-03 21:34:02.258816+01 | 1486154042.25882 | pgbench_history  |                0
 2017-02-03 21:34:02.258816+01 | 1486154042.25882 | pgbench_branches |            40960

 2017-02-03 21:34:03.392726+01 | 1486154043.39273 | pgbench_accounts |      13429514240
 2017-02-03 21:34:03.392726+01 | 1486154043.39273 | pgbench_tellers  |           450560
 2017-02-03 21:34:03.392726+01 | 1486154043.39273 | pgbench_history  |                0
 2017-02-03 21:34:03.392726+01 | 1486154043.39273 | pgbench_branches |            40960

 2017-02-03 21:34:04.58689+01 | 1486154044.58689 | pgbench_accounts |      13429514240
 2017-02-03 21:34:04.58689+01 | 1486154044.58689 | pgbench_tellers  |           450560
 2017-02-03 21:34:04.58689+01 | 1486154044.58689 | pgbench_history  |                0
 2017-02-03 21:34:04.58689+01 | 1486154044.58689 | pgbench_branches |            40960

 2017-02-03 21:34:05.725203+01 | 1486154045.7252 | pgbench_accounts |      13429514240
 2017-02-03 21:34:05.725203+01 | 1486154045.7252 | pgbench_tellers  |           450560
 2017-02-03 21:34:05.725203+01 | 1486154045.7252 | pgbench_history  |                0
 2017-02-03 21:34:05.725203+01 | 1486154045.7252 | pgbench_branches |            40960

 2017-02-03 21:34:06.893086+01 | 1486154046.89309 | pgbench_accounts |      13429514240
 2017-02-03 21:34:06.893086+01 | 1486154046.89309 | pgbench_tellers  |           450560
 2017-02-03 21:34:06.893086+01 | 1486154046.89309 | pgbench_history  |                0
 2017-02-03 21:34:06.893086+01 | 1486154046.89309 | pgbench_branches |            40960

 2017-02-03 21:34:08.086688+01 | 1486154048.08669 | pgbench_accounts |      13429514240
 2017-02-03 21:34:08.086688+01 | 1486154048.08669 | pgbench_tellers  |           450560
 2017-02-03 21:34:08.086688+01 | 1486154048.08669 | pgbench_history  |                0
 2017-02-03 21:34:08.086688+01 | 1486154048.08669 | pgbench_branches |            40960

 2017-02-03 21:34:09.235973+01 | 1486154049.23597 | pgbench_accounts |      13429514240
 2017-02-03 21:34:09.235973+01 | 1486154049.23597 | pgbench_tellers  |           450560
 2017-02-03 21:34:09.235973+01 | 1486154049.23597 | pgbench_history  |                0
 2017-02-03 21:34:09.235973+01 | 1486154049.23597 | pgbench_branches |            40960

 2017-02-03 21:34:10.402095+01 | 1486154050.4021 | pgbench_accounts |      13429514240
 2017-02-03 21:34:10.402095+01 | 1486154050.4021 | pgbench_tellers  |           450560
 2017-02-03 21:34:10.402095+01 | 1486154050.4021 | pgbench_history  |                0
 2017-02-03 21:34:10.402095+01 | 1486154050.4021 | pgbench_branches |            40960

 2017-02-03 21:34:11.549576+01 | 1486154051.54958 | pgbench_accounts |      13429514240
 2017-02-03 21:34:11.549576+01 | 1486154051.54958 | pgbench_tellers  |           450560
 2017-02-03 21:34:11.549576+01 | 1486154051.54958 | pgbench_history  |                0
 2017-02-03 21:34:11.549576+01 | 1486154051.54958 | pgbench_branches |            40960

 2017-02-03 21:34:12.72094+01 | 1486154052.72094 | pgbench_accounts |      13429514240
 2017-02-03 21:34:12.72094+01 | 1486154052.72094 | pgbench_tellers  |           450560
 2017-02-03 21:34:12.72094+01 | 1486154052.72094 | pgbench_history  |                0
 2017-02-03 21:34:12.72094+01 | 1486154052.72094 | pgbench_branches |            40960

 2017-02-03 21:34:13.880278+01 | 1486154053.88028 | pgbench_accounts |      13429514240
 2017-02-03 21:34:13.880278+01 | 1486154053.88028 | pgbench_tellers  |           450560
 2017-02-03 21:34:13.880278+01 | 1486154053.88028 | pgbench_history  |                0
 2017-02-03 21:34:13.880278+01 | 1486154053.88028 | pgbench_branches |            40960

 2017-02-03 21:34:15.04475+01 | 1486154055.04475 | pgbench_accounts |      13429514240
 2017-02-03 21:34:15.04475+01 | 1486154055.04475 | pgbench_tellers  |           450560
 2017-02-03 21:34:15.04475+01 | 1486154055.04475 | pgbench_history  |                0
 2017-02-03 21:34:15.04475+01 | 1486154055.04475 | pgbench_branches |            40960

 2017-02-03 21:34:16.222692+01 | 1486154056.22269 | pgbench_accounts |      13429514240
 2017-02-03 21:34:16.222692+01 | 1486154056.22269 | pgbench_tellers  |           450560
 2017-02-03 21:34:16.222692+01 | 1486154056.22269 | pgbench_history  |                0
 2017-02-03 21:34:16.222692+01 | 1486154056.22269 | pgbench_branches |            40960

 2017-02-03 21:34:17.381428+01 | 1486154057.38143 | pgbench_accounts |      13429514240
 2017-02-03 21:34:17.381428+01 | 1486154057.38143 | pgbench_tellers  |           450560
 2017-02-03 21:34:17.381428+01 | 1486154057.38143 | pgbench_history  |                0
 2017-02-03 21:34:17.381428+01 | 1486154057.38143 | pgbench_branches |            40960

 2017-02-03 21:34:18.537398+01 | 1486154058.5374 | pgbench_accounts |      13429514240
 2017-02-03 21:34:18.537398+01 | 1486154058.5374 | pgbench_tellers  |           450560
 2017-02-03 21:34:18.537398+01 | 1486154058.5374 | pgbench_history  |                0
 2017-02-03 21:34:18.537398+01 | 1486154058.5374 | pgbench_branches |            40960

 2017-02-03 21:34:19.671013+01 | 1486154059.67101 | pgbench_accounts |      13429514240
 2017-02-03 21:34:19.671013+01 | 1486154059.67101 | pgbench_tellers  |           450560
 2017-02-03 21:34:19.671013+01 | 1486154059.67101 | pgbench_history  |                0
 2017-02-03 21:34:19.671013+01 | 1486154059.67101 | pgbench_branches |            40960

 2017-02-03 21:34:20.77976+01 | 1486154060.77976 | pgbench_accounts |      13429514240
 2017-02-03 21:34:20.77976+01 | 1486154060.77976 | pgbench_tellers  |           450560
 2017-02-03 21:34:20.77976+01 | 1486154060.77976 | pgbench_history  |                0
 2017-02-03 21:34:20.77976+01 | 1486154060.77976 | pgbench_branches |            40960

 2017-02-03 21:34:21.970274+01 | 1486154061.97027 | pgbench_accounts |      13429514240
 2017-02-03 21:34:21.970274+01 | 1486154061.97027 | pgbench_tellers  |           450560
 2017-02-03 21:34:21.970274+01 | 1486154061.97027 | pgbench_history  |                0
 2017-02-03 21:34:21.970274+01 | 1486154061.97027 | pgbench_branches |            40960

 2017-02-03 21:34:23.134035+01 | 1486154063.13404 | pgbench_accounts |      13429514240
 2017-02-03 21:34:23.134035+01 | 1486154063.13404 | pgbench_tellers  |           450560
 2017-02-03 21:34:23.134035+01 | 1486154063.13404 | pgbench_history  |                0
 2017-02-03 21:34:23.134035+01 | 1486154063.13404 | pgbench_branches |            40960

 2017-02-03 21:34:24.310231+01 | 1486154064.31023 | pgbench_accounts |      13429514240
 2017-02-03 21:34:24.310231+01 | 1486154064.31023 | pgbench_tellers  |           450560
 2017-02-03 21:34:24.310231+01 | 1486154064.31023 | pgbench_history  |                0
 2017-02-03 21:34:24.310231+01 | 1486154064.31023 | pgbench_branches |            40960

 2017-02-03 21:34:25.471995+01 | 1486154065.472 | pgbench_accounts |      13429514240
 2017-02-03 21:34:25.471995+01 | 1486154065.472 | pgbench_tellers  |           450560
 2017-02-03 21:34:25.471995+01 | 1486154065.472 | pgbench_history  |                0
 2017-02-03 21:34:25.471995+01 | 1486154065.472 | pgbench_branches |            40960

 2017-02-03 21:34:26.592583+01 | 1486154066.59258 | pgbench_accounts |      13429514240
 2017-02-03 21:34:26.592583+01 | 1486154066.59258 | pgbench_tellers  |           450560
 2017-02-03 21:34:26.592583+01 | 1486154066.59258 | pgbench_history  |                0
 2017-02-03 21:34:26.592583+01 | 1486154066.59258 | pgbench_branches |            40960

 2017-02-03 21:34:27.751387+01 | 1486154067.75139 | pgbench_accounts |      13429514240
 2017-02-03 21:34:27.751387+01 | 1486154067.75139 | pgbench_tellers  |           450560
 2017-02-03 21:34:27.751387+01 | 1486154067.75139 | pgbench_history  |                0
 2017-02-03 21:34:27.751387+01 | 1486154067.75139 | pgbench_branches |            40960

 2017-02-03 21:34:28.918718+01 | 1486154068.91872 | pgbench_accounts |      13429514240
 2017-02-03 21:34:28.918718+01 | 1486154068.91872 | pgbench_tellers  |           450560
 2017-02-03 21:34:28.918718+01 | 1486154068.91872 | pgbench_history  |                0
 2017-02-03 21:34:28.918718+01 | 1486154068.91872 | pgbench_branches |            40960

 2017-02-03 21:34:30.047767+01 | 1486154070.04777 | pgbench_accounts |      13429514240
 2017-02-03 21:34:30.047767+01 | 1486154070.04777 | pgbench_tellers  |           450560
 2017-02-03 21:34:30.047767+01 | 1486154070.04777 | pgbench_history  |                0
 2017-02-03 21:34:30.047767+01 | 1486154070.04777 | pgbench_branches |            40960

 2017-02-03 21:34:31.220343+01 | 1486154071.22034 | pgbench_accounts |      13429514240
 2017-02-03 21:34:31.220343+01 | 1486154071.22034 | pgbench_tellers  |           450560
 2017-02-03 21:34:31.220343+01 | 1486154071.22034 | pgbench_history  |                0
 2017-02-03 21:34:31.220343+01 | 1486154071.22034 | pgbench_branches |            40960

 2017-02-03 21:34:32.377797+01 | 1486154072.3778 | pgbench_accounts |      13429514240
 2017-02-03 21:34:32.377797+01 | 1486154072.3778 | pgbench_tellers  |           450560
 2017-02-03 21:34:32.377797+01 | 1486154072.3778 | pgbench_history  |                0
 2017-02-03 21:34:32.377797+01 | 1486154072.3778 | pgbench_branches |            40960

 2017-02-03 21:34:33.550161+01 | 1486154073.55016 | pgbench_accounts |      13429514240
 2017-02-03 21:34:33.550161+01 | 1486154073.55016 | pgbench_tellers  |           450560
 2017-02-03 21:34:33.550161+01 | 1486154073.55016 | pgbench_history  |                0
 2017-02-03 21:34:33.550161+01 | 1486154073.55016 | pgbench_branches |            40960

 2017-02-03 21:34:34.754905+01 | 1486154074.7549 | pgbench_accounts |      13429514240
 2017-02-03 21:34:34.754905+01 | 1486154074.7549 | pgbench_tellers  |           450560
 2017-02-03 21:34:34.754905+01 | 1486154074.7549 | pgbench_history  |                0
 2017-02-03 21:34:34.754905+01 | 1486154074.7549 | pgbench_branches |            40960

 2017-02-03 21:34:35.912575+01 | 1486154075.91258 | pgbench_accounts |      13429514240
 2017-02-03 21:34:35.912575+01 | 1486154075.91258 | pgbench_tellers  |           450560
 2017-02-03 21:34:35.912575+01 | 1486154075.91258 | pgbench_history  |                0
 2017-02-03 21:34:35.912575+01 | 1486154075.91258 | pgbench_branches |            40960

 2017-02-03 21:34:37.087067+01 | 1486154077.08707 | pgbench_accounts |      13429514240
 2017-02-03 21:34:37.087067+01 | 1486154077.08707 | pgbench_tellers  |           450560
 2017-02-03 21:34:37.087067+01 | 1486154077.08707 | pgbench_history  |                0
 2017-02-03 21:34:37.087067+01 | 1486154077.08707 | pgbench_branches |            40960

 2017-02-03 21:34:38.276673+01 | 1486154078.27667 | pgbench_accounts |      13429514240
 2017-02-03 21:34:38.276673+01 | 1486154078.27667 | pgbench_tellers  |           450560
 2017-02-03 21:34:38.276673+01 | 1486154078.27667 | pgbench_history  |                0
 2017-02-03 21:34:38.276673+01 | 1486154078.27667 | pgbench_branches |            40960

 2017-02-03 21:34:39.433777+01 | 1486154079.43378 | pgbench_accounts |      13429514240
 2017-02-03 21:34:39.433777+01 | 1486154079.43378 | pgbench_tellers  |           450560
 2017-02-03 21:34:39.433777+01 | 1486154079.43378 | pgbench_history  |                0
 2017-02-03 21:34:39.433777+01 | 1486154079.43378 | pgbench_branches |            40960

 2017-02-03 21:34:40.590668+01 | 1486154080.59067 | pgbench_accounts |      13429514240
 2017-02-03 21:34:40.590668+01 | 1486154080.59067 | pgbench_tellers  |           450560
 2017-02-03 21:34:40.590668+01 | 1486154080.59067 | pgbench_history  |                0
 2017-02-03 21:34:40.590668+01 | 1486154080.59067 | pgbench_branches |            40960

 2017-02-03 21:34:41.728534+01 | 1486154081.72853 | pgbench_accounts |      13429514240
 2017-02-03 21:34:41.728534+01 | 1486154081.72853 | pgbench_tellers  |           450560
 2017-02-03 21:34:41.728534+01 | 1486154081.72853 | pgbench_history  |                0
 2017-02-03 21:34:41.728534+01 | 1486154081.72853 | pgbench_branches |            40960

 2017-02-03 21:34:42.919911+01 | 1486154082.91991 | pgbench_accounts |      13429514240
 2017-02-03 21:34:42.919911+01 | 1486154082.91991 | pgbench_tellers  |           450560
 2017-02-03 21:34:42.919911+01 | 1486154082.91991 | pgbench_history  |                0
 2017-02-03 21:34:42.919911+01 | 1486154082.91991 | pgbench_branches |            40960

 2017-02-03 21:34:44.082187+01 | 1486154084.08219 | pgbench_accounts |      13429514240
 2017-02-03 21:34:44.082187+01 | 1486154084.08219 | pgbench_tellers  |           450560
 2017-02-03 21:34:44.082187+01 | 1486154084.08219 | pgbench_history  |                0
 2017-02-03 21:34:44.082187+01 | 1486154084.08219 | pgbench_branches |            40960

 2017-02-03 21:34:45.280955+01 | 1486154085.28096 | pgbench_accounts |      13429514240
 2017-02-03 21:34:45.280955+01 | 1486154085.28096 | pgbench_tellers  |           450560
 2017-02-03 21:34:45.280955+01 | 1486154085.28096 | pgbench_history  |                0
 2017-02-03 21:34:45.280955+01 | 1486154085.28096 | pgbench_branches |            40960

 2017-02-03 21:34:46.412368+01 | 1486154086.41237 | pgbench_accounts |      13429514240
 2017-02-03 21:34:46.412368+01 | 1486154086.41237 | pgbench_tellers  |           450560
 2017-02-03 21:34:46.412368+01 | 1486154086.41237 | pgbench_history  |                0
 2017-02-03 21:34:46.412368+01 | 1486154086.41237 | pgbench_branches |            40960

 2017-02-03 21:34:47.597595+01 | 1486154087.59759 | pgbench_accounts |      13429514240
 2017-02-03 21:34:47.597595+01 | 1486154087.59759 | pgbench_tellers  |           450560
 2017-02-03 21:34:47.597595+01 | 1486154087.59759 | pgbench_history  |                0
 2017-02-03 21:34:47.597595+01 | 1486154087.59759 | pgbench_branches |            40960

 2017-02-03 21:34:48.739404+01 | 1486154088.7394 | pgbench_accounts |      13429514240
 2017-02-03 21:34:48.739404+01 | 1486154088.7394 | pgbench_tellers  |           450560
 2017-02-03 21:34:48.739404+01 | 1486154088.7394 | pgbench_history  |                0
 2017-02-03 21:34:48.739404+01 | 1486154088.7394 | pgbench_branches |            40960

 2017-02-03 21:34:49.906799+01 | 1486154089.9068 | pgbench_accounts |      13429514240
 2017-02-03 21:34:49.906799+01 | 1486154089.9068 | pgbench_tellers  |           450560
 2017-02-03 21:34:49.906799+01 | 1486154089.9068 | pgbench_history  |                0
 2017-02-03 21:34:49.906799+01 | 1486154089.9068 | pgbench_branches |            40960

 2017-02-03 21:34:51.07656+01 | 1486154091.07656 | pgbench_accounts |      13429514240
 2017-02-03 21:34:51.07656+01 | 1486154091.07656 | pgbench_tellers  |           450560
 2017-02-03 21:34:51.07656+01 | 1486154091.07656 | pgbench_history  |                0
 2017-02-03 21:34:51.07656+01 | 1486154091.07656 | pgbench_branches |            40960

 2017-02-03 21:34:52.234895+01 | 1486154092.23489 | pgbench_accounts |      13429514240
 2017-02-03 21:34:52.234895+01 | 1486154092.23489 | pgbench_tellers  |           450560
 2017-02-03 21:34:52.234895+01 | 1486154092.23489 | pgbench_history  |                0
 2017-02-03 21:34:52.234895+01 | 1486154092.23489 | pgbench_branches |            40960

 2017-02-03 21:34:53.411851+01 | 1486154093.41185 | pgbench_accounts |      13429514240
 2017-02-03 21:34:53.411851+01 | 1486154093.41185 | pgbench_tellers  |           450560
 2017-02-03 21:34:53.411851+01 | 1486154093.41185 | pgbench_history  |                0
 2017-02-03 21:34:53.411851+01 | 1486154093.41185 | pgbench_branches |            40960

 2017-02-03 21:34:54.596312+01 | 1486154094.59631 | pgbench_accounts |      13429514240
 2017-02-03 21:34:54.596312+01 | 1486154094.59631 | pgbench_tellers  |           450560
 2017-02-03 21:34:54.596312+01 | 1486154094.59631 | pgbench_history  |                0
 2017-02-03 21:34:54.596312+01 | 1486154094.59631 | pgbench_branches |            40960

 2017-02-03 21:34:55.760796+01 | 1486154095.7608 | pgbench_accounts |      13429514240
 2017-02-03 21:34:55.760796+01 | 1486154095.7608 | pgbench_tellers  |           450560
 2017-02-03 21:34:55.760796+01 | 1486154095.7608 | pgbench_history  |                0
 2017-02-03 21:34:55.760796+01 | 1486154095.7608 | pgbench_branches |            40960

 2017-02-03 21:34:56.916344+01 | 1486154096.91634 | pgbench_accounts |      13429514240
 2017-02-03 21:34:56.916344+01 | 1486154096.91634 | pgbench_tellers  |           450560
 2017-02-03 21:34:56.916344+01 | 1486154096.91634 | pgbench_history  |                0
 2017-02-03 21:34:56.916344+01 | 1486154096.91634 | pgbench_branches |            40960

 2017-02-03 21:34:58.089746+01 | 1486154098.08975 | pgbench_accounts |      13429514240
 2017-02-03 21:34:58.089746+01 | 1486154098.08975 | pgbench_tellers  |           450560
 2017-02-03 21:34:58.089746+01 | 1486154098.08975 | pgbench_history  |                0
 2017-02-03 21:34:58.089746+01 | 1486154098.08975 | pgbench_branches |            40960

 2017-02-03 21:34:59.232239+01 | 1486154099.23224 | pgbench_accounts |      13429514240
 2017-02-03 21:34:59.232239+01 | 1486154099.23224 | pgbench_tellers  |           450560
 2017-02-03 21:34:59.232239+01 | 1486154099.23224 | pgbench_history  |                0
 2017-02-03 21:34:59.232239+01 | 1486154099.23224 | pgbench_branches |            40960

 2017-02-03 21:35:00.390913+01 | 1486154100.39091 | pgbench_accounts |      13429514240
 2017-02-03 21:35:00.390913+01 | 1486154100.39091 | pgbench_tellers  |           450560
 2017-02-03 21:35:00.390913+01 | 1486154100.39091 | pgbench_history  |                0
 2017-02-03 21:35:00.390913+01 | 1486154100.39091 | pgbench_branches |            40960

 2017-02-03 21:35:01.534938+01 | 1486154101.53494 | pgbench_accounts |      13429514240
 2017-02-03 21:35:01.534938+01 | 1486154101.53494 | pgbench_tellers  |           450560
 2017-02-03 21:35:01.534938+01 | 1486154101.53494 | pgbench_history  |                0
 2017-02-03 21:35:01.534938+01 | 1486154101.53494 | pgbench_branches |            40960

 2017-02-03 21:35:02.652649+01 | 1486154102.65265 | pgbench_accounts |      13429514240
 2017-02-03 21:35:02.652649+01 | 1486154102.65265 | pgbench_tellers  |           450560
 2017-02-03 21:35:02.652649+01 | 1486154102.65265 | pgbench_history  |                0
 2017-02-03 21:35:02.652649+01 | 1486154102.65265 | pgbench_branches |            40960

 2017-02-03 21:35:03.80943+01 | 1486154103.80943 | pgbench_accounts |      13429514240
 2017-02-03 21:35:03.80943+01 | 1486154103.80943 | pgbench_tellers  |           450560
 2017-02-03 21:35:03.80943+01 | 1486154103.80943 | pgbench_history  |                0
 2017-02-03 21:35:03.80943+01 | 1486154103.80943 | pgbench_branches |            40960

 2017-02-03 21:35:04.972945+01 | 1486154104.97294 | pgbench_accounts |      13429514240
 2017-02-03 21:35:04.972945+01 | 1486154104.97294 | pgbench_tellers  |           450560
 2017-02-03 21:35:04.972945+01 | 1486154104.97294 | pgbench_history  |                0
 2017-02-03 21:35:04.972945+01 | 1486154104.97294 | pgbench_branches |            40960

 2017-02-03 21:35:06.123701+01 | 1486154106.1237 | pgbench_accounts |      13429514240
 2017-02-03 21:35:06.123701+01 | 1486154106.1237 | pgbench_tellers  |           450560
 2017-02-03 21:35:06.123701+01 | 1486154106.1237 | pgbench_history  |                0
 2017-02-03 21:35:06.123701+01 | 1486154106.1237 | pgbench_branches |            40960

 2017-02-03 21:35:07.278091+01 | 1486154107.27809 | pgbench_accounts |      13429514240
 2017-02-03 21:35:07.278091+01 | 1486154107.27809 | pgbench_tellers  |           450560
 2017-02-03 21:35:07.278091+01 | 1486154107.27809 | pgbench_history  |                0
 2017-02-03 21:35:07.278091+01 | 1486154107.27809 | pgbench_branches |            40960

 2017-02-03 21:35:08.447039+01 | 1486154108.44704 | pgbench_accounts |      13429514240
 2017-02-03 21:35:08.447039+01 | 1486154108.44704 | pgbench_tellers  |           450560
 2017-02-03 21:35:08.447039+01 | 1486154108.44704 | pgbench_history  |                0
 2017-02-03 21:35:08.447039+01 | 1486154108.44704 | pgbench_branches |            40960

 2017-02-03 21:35:09.58705+01 | 1486154109.58705 | pgbench_accounts |      13429514240
 2017-02-03 21:35:09.58705+01 | 1486154109.58705 | pgbench_tellers  |           450560
 2017-02-03 21:35:09.58705+01 | 1486154109.58705 | pgbench_history  |                0
 2017-02-03 21:35:09.58705+01 | 1486154109.58705 | pgbench_branches |            40960

 2017-02-03 21:35:10.766916+01 | 1486154110.76692 | pgbench_accounts |      13429514240
 2017-02-03 21:35:10.766916+01 | 1486154110.76692 | pgbench_tellers  |           450560
 2017-02-03 21:35:10.766916+01 | 1486154110.76692 | pgbench_history  |                0
 2017-02-03 21:35:10.766916+01 | 1486154110.76692 | pgbench_branches |            40960

 2017-02-03 21:35:11.897513+01 | 1486154111.89751 | pgbench_accounts |      13429514240
 2017-02-03 21:35:11.897513+01 | 1486154111.89751 | pgbench_tellers  |           450560
 2017-02-03 21:35:11.897513+01 | 1486154111.89751 | pgbench_history  |                0
 2017-02-03 21:35:11.897513+01 | 1486154111.89751 | pgbench_branches |            40960

 2017-02-03 21:35:13.043314+01 | 1486154113.04331 | pgbench_accounts |      13429514240
 2017-02-03 21:35:13.043314+01 | 1486154113.04331 | pgbench_tellers  |           450560
 2017-02-03 21:35:13.043314+01 | 1486154113.04331 | pgbench_history  |                0
 2017-02-03 21:35:13.043314+01 | 1486154113.04331 | pgbench_branches |            40960

 2017-02-03 21:35:14.191409+01 | 1486154114.19141 | pgbench_accounts |      13429514240
 2017-02-03 21:35:14.191409+01 | 1486154114.19141 | pgbench_tellers  |           450560
 2017-02-03 21:35:14.191409+01 | 1486154114.19141 | pgbench_history  |                0
 2017-02-03 21:35:14.191409+01 | 1486154114.19141 | pgbench_branches |            40960

 2017-02-03 21:35:15.366227+01 | 1486154115.36623 | pgbench_accounts |      13429514240
 2017-02-03 21:35:15.366227+01 | 1486154115.36623 | pgbench_tellers  |           450560
 2017-02-03 21:35:15.366227+01 | 1486154115.36623 | pgbench_history  |                0
 2017-02-03 21:35:15.366227+01 | 1486154115.36623 | pgbench_branches |            40960

 2017-02-03 21:35:16.494659+01 | 1486154116.49466 | pgbench_accounts |      13429514240
 2017-02-03 21:35:16.494659+01 | 1486154116.49466 | pgbench_tellers  |           450560
 2017-02-03 21:35:16.494659+01 | 1486154116.49466 | pgbench_history  |                0
 2017-02-03 21:35:16.494659+01 | 1486154116.49466 | pgbench_branches |            40960

 2017-02-03 21:35:17.635794+01 | 1486154117.63579 | pgbench_accounts |      13429514240
 2017-02-03 21:35:17.635794+01 | 1486154117.63579 | pgbench_tellers  |           450560
 2017-02-03 21:35:17.635794+01 | 1486154117.63579 | pgbench_history  |                0
 2017-02-03 21:35:17.635794+01 | 1486154117.63579 | pgbench_branches |            40960

 2017-02-03 21:35:18.823135+01 | 1486154118.82313 | pgbench_accounts |      13429514240
 2017-02-03 21:35:18.823135+01 | 1486154118.82313 | pgbench_tellers  |           450560
 2017-02-03 21:35:18.823135+01 | 1486154118.82313 | pgbench_history  |                0
 2017-02-03 21:35:18.823135+01 | 1486154118.82313 | pgbench_branches |            40960

 2017-02-03 21:35:19.95649+01 | 1486154119.95649 | pgbench_accounts |      13429514240
 2017-02-03 21:35:19.95649+01 | 1486154119.95649 | pgbench_tellers  |           450560
 2017-02-03 21:35:19.95649+01 | 1486154119.95649 | pgbench_history  |                0
 2017-02-03 21:35:19.95649+01 | 1486154119.95649 | pgbench_branches |            40960

 2017-02-03 21:35:21.19561+01 | 1486154121.19561 | pgbench_accounts |      13429514240
 2017-02-03 21:35:21.19561+01 | 1486154121.19561 | pgbench_tellers  |           450560
 2017-02-03 21:35:21.19561+01 | 1486154121.19561 | pgbench_history  |                0
 2017-02-03 21:35:21.19561+01 | 1486154121.19561 | pgbench_branches |            40960

 2017-02-03 21:35:22.323938+01 | 1486154122.32394 | pgbench_accounts |      13429514240
 2017-02-03 21:35:22.323938+01 | 1486154122.32394 | pgbench_tellers  |           450560
 2017-02-03 21:35:22.323938+01 | 1486154122.32394 | pgbench_history  |                0
 2017-02-03 21:35:22.323938+01 | 1486154122.32394 | pgbench_branches |            40960

 2017-02-03 21:35:23.512323+01 | 1486154123.51232 | pgbench_accounts |      13429514240
 2017-02-03 21:35:23.512323+01 | 1486154123.51232 | pgbench_tellers  |           450560
 2017-02-03 21:35:23.512323+01 | 1486154123.51232 | pgbench_history  |                0
 2017-02-03 21:35:23.512323+01 | 1486154123.51232 | pgbench_branches |            40960

 2017-02-03 21:35:24.662145+01 | 1486154124.66214 | pgbench_accounts |      13429514240
 2017-02-03 21:35:24.662145+01 | 1486154124.66214 | pgbench_tellers  |           450560
 2017-02-03 21:35:24.662145+01 | 1486154124.66214 | pgbench_history  |                0
 2017-02-03 21:35:24.662145+01 | 1486154124.66214 | pgbench_branches |            40960

 2017-02-03 21:35:25.830014+01 | 1486154125.83001 | pgbench_accounts |      13429514240
 2017-02-03 21:35:25.830014+01 | 1486154125.83001 | pgbench_tellers  |           450560
 2017-02-03 21:35:25.830014+01 | 1486154125.83001 | pgbench_history  |                0
 2017-02-03 21:35:25.830014+01 | 1486154125.83001 | pgbench_branches |            40960

 2017-02-03 21:35:27.035987+01 | 1486154127.03599 | pgbench_accounts |      13429514240
 2017-02-03 21:35:27.035987+01 | 1486154127.03599 | pgbench_tellers  |           450560
 2017-02-03 21:35:27.035987+01 | 1486154127.03599 | pgbench_history  |                0
 2017-02-03 21:35:27.035987+01 | 1486154127.03599 | pgbench_branches |            40960

 2017-02-03 21:35:28.200235+01 | 1486154128.20023 | pgbench_accounts |      13429514240
 2017-02-03 21:35:28.200235+01 | 1486154128.20023 | pgbench_tellers  |           450560
 2017-02-03 21:35:28.200235+01 | 1486154128.20023 | pgbench_history  |                0
 2017-02-03 21:35:28.200235+01 | 1486154128.20023 | pgbench_branches |            40960

 2017-02-03 21:35:29.350308+01 | 1486154129.35031 | pgbench_accounts |      13429514240
 2017-02-03 21:35:29.350308+01 | 1486154129.35031 | pgbench_tellers  |           450560
 2017-02-03 21:35:29.350308+01 | 1486154129.35031 | pgbench_history  |                0
 2017-02-03 21:35:29.350308+01 | 1486154129.35031 | pgbench_branches |            40960

 2017-02-03 21:35:30.510388+01 | 1486154130.51039 | pgbench_accounts |      13429514240
 2017-02-03 21:35:30.510388+01 | 1486154130.51039 | pgbench_tellers  |           450560
 2017-02-03 21:35:30.510388+01 | 1486154130.51039 | pgbench_history  |                0
 2017-02-03 21:35:30.510388+01 | 1486154130.51039 | pgbench_branches |            40960

 2017-02-03 21:35:31.65121+01 | 1486154131.65121 | pgbench_accounts |      13429514240
 2017-02-03 21:35:31.65121+01 | 1486154131.65121 | pgbench_tellers  |           450560
 2017-02-03 21:35:31.65121+01 | 1486154131.65121 | pgbench_history  |                0
 2017-02-03 21:35:31.65121+01 | 1486154131.65121 | pgbench_branches |            40960

 2017-02-03 21:35:32.783425+01 | 1486154132.78343 | pgbench_accounts |      13429514240
 2017-02-03 21:35:32.783425+01 | 1486154132.78343 | pgbench_tellers  |           450560
 2017-02-03 21:35:32.783425+01 | 1486154132.78343 | pgbench_history  |                0
 2017-02-03 21:35:32.783425+01 | 1486154132.78343 | pgbench_branches |            40960

 2017-02-03 21:35:33.910921+01 | 1486154133.91092 | pgbench_accounts |      13429514240
 2017-02-03 21:35:33.910921+01 | 1486154133.91092 | pgbench_tellers  |           450560
 2017-02-03 21:35:33.910921+01 | 1486154133.91092 | pgbench_history  |                0
 2017-02-03 21:35:33.910921+01 | 1486154133.91092 | pgbench_branches |            40960

 2017-02-03 21:35:35.068653+01 | 1486154135.06865 | pgbench_accounts |      13429514240
 2017-02-03 21:35:35.068653+01 | 1486154135.06865 | pgbench_tellers  |           450560
 2017-02-03 21:35:35.068653+01 | 1486154135.06865 | pgbench_history  |                0
 2017-02-03 21:35:35.068653+01 | 1486154135.06865 | pgbench_branches |            40960

 2017-02-03 21:35:36.252088+01 | 1486154136.25209 | pgbench_accounts |      13429514240
 2017-02-03 21:35:36.252088+01 | 1486154136.25209 | pgbench_tellers  |           450560
 2017-02-03 21:35:36.252088+01 | 1486154136.25209 | pgbench_history  |                0
 2017-02-03 21:35:36.252088+01 | 1486154136.25209 | pgbench_branches |            40960

 2017-02-03 21:35:37.391434+01 | 1486154137.39143 | pgbench_accounts |      13429514240
 2017-02-03 21:35:37.391434+01 | 1486154137.39143 | pgbench_tellers  |           450560
 2017-02-03 21:35:37.391434+01 | 1486154137.39143 | pgbench_history  |                0
 2017-02-03 21:35:37.391434+01 | 1486154137.39143 | pgbench_branches |            40960

 2017-02-03 21:35:38.541357+01 | 1486154138.54136 | pgbench_accounts |      13429514240
 2017-02-03 21:35:38.541357+01 | 1486154138.54136 | pgbench_tellers  |           450560
 2017-02-03 21:35:38.541357+01 | 1486154138.54136 | pgbench_history  |                0
 2017-02-03 21:35:38.541357+01 | 1486154138.54136 | pgbench_branches |            40960

 2017-02-03 21:35:39.702779+01 | 1486154139.70278 | pgbench_accounts |      13429514240
 2017-02-03 21:35:39.702779+01 | 1486154139.70278 | pgbench_tellers  |           450560
 2017-02-03 21:35:39.702779+01 | 1486154139.70278 | pgbench_history  |                0
 2017-02-03 21:35:39.702779+01 | 1486154139.70278 | pgbench_branches |            40960

 2017-02-03 21:35:40.841114+01 | 1486154140.84111 | pgbench_accounts |      13429514240
 2017-02-03 21:35:40.841114+01 | 1486154140.84111 | pgbench_tellers  |           450560
 2017-02-03 21:35:40.841114+01 | 1486154140.84111 | pgbench_history  |                0
 2017-02-03 21:35:40.841114+01 | 1486154140.84111 | pgbench_branches |            40960

 2017-02-03 21:35:42.051808+01 | 1486154142.05181 | pgbench_accounts |      13429514240
 2017-02-03 21:35:42.051808+01 | 1486154142.05181 | pgbench_tellers  |           450560
 2017-02-03 21:35:42.051808+01 | 1486154142.05181 | pgbench_history  |                0
 2017-02-03 21:35:42.051808+01 | 1486154142.05181 | pgbench_branches |            40960

 2017-02-03 21:35:43.193912+01 | 1486154143.19391 | pgbench_accounts |      13429514240
 2017-02-03 21:35:43.193912+01 | 1486154143.19391 | pgbench_tellers  |           450560
 2017-02-03 21:35:43.193912+01 | 1486154143.19391 | pgbench_history  |                0
 2017-02-03 21:35:43.193912+01 | 1486154143.19391 | pgbench_branches |            40960

 2017-02-03 21:35:44.340888+01 | 1486154144.34089 | pgbench_accounts |      13429514240
 2017-02-03 21:35:44.340888+01 | 1486154144.34089 | pgbench_tellers  |           450560
 2017-02-03 21:35:44.340888+01 | 1486154144.34089 | pgbench_history  |                0
 2017-02-03 21:35:44.340888+01 | 1486154144.34089 | pgbench_branches |            40960

 2017-02-03 21:35:45.510131+01 | 1486154145.51013 | pgbench_accounts |      13429514240
 2017-02-03 21:35:45.510131+01 | 1486154145.51013 | pgbench_tellers  |           450560
 2017-02-03 21:35:45.510131+01 | 1486154145.51013 | pgbench_history  |                0
 2017-02-03 21:35:45.510131+01 | 1486154145.51013 | pgbench_branches |            40960

 2017-02-03 21:35:46.628376+01 | 1486154146.62838 | pgbench_accounts |      13429514240
 2017-02-03 21:35:46.628376+01 | 1486154146.62838 | pgbench_tellers  |           450560
 2017-02-03 21:35:46.628376+01 | 1486154146.62838 | pgbench_history  |                0
 2017-02-03 21:35:46.628376+01 | 1486154146.62838 | pgbench_branches |            40960

 2017-02-03 21:35:47.804007+01 | 1486154147.80401 | pgbench_accounts |      13429514240
 2017-02-03 21:35:47.804007+01 | 1486154147.80401 | pgbench_tellers  |           450560
 2017-02-03 21:35:47.804007+01 | 1486154147.80401 | pgbench_history  |                0
 2017-02-03 21:35:47.804007+01 | 1486154147.80401 | pgbench_branches |            40960

 2017-02-03 21:35:48.968656+01 | 1486154148.96866 | pgbench_accounts |      13429514240
 2017-02-03 21:35:48.968656+01 | 1486154148.96866 | pgbench_tellers  |           450560
 2017-02-03 21:35:48.968656+01 | 1486154148.96866 | pgbench_history  |                0
 2017-02-03 21:35:48.968656+01 | 1486154148.96866 | pgbench_branches |            40960

 2017-02-03 21:35:50.126411+01 | 1486154150.12641 | pgbench_accounts |      13429514240
 2017-02-03 21:35:50.126411+01 | 1486154150.12641 | pgbench_tellers  |           450560
 2017-02-03 21:35:50.126411+01 | 1486154150.12641 | pgbench_history  |                0
 2017-02-03 21:35:50.126411+01 | 1486154150.12641 | pgbench_branches |            40960

 2017-02-03 21:35:51.260561+01 | 1486154151.26056 | pgbench_accounts |      13429514240
 2017-02-03 21:35:51.260561+01 | 1486154151.26056 | pgbench_tellers  |           450560
 2017-02-03 21:35:51.260561+01 | 1486154151.26056 | pgbench_history  |                0
 2017-02-03 21:35:51.260561+01 | 1486154151.26056 | pgbench_branches |            40960

 2017-02-03 21:35:52.441754+01 | 1486154152.44175 | pgbench_accounts |      13429514240
 2017-02-03 21:35:52.441754+01 | 1486154152.44175 | pgbench_tellers  |           450560
 2017-02-03 21:35:52.441754+01 | 1486154152.44175 | pgbench_history  |                0
 2017-02-03 21:35:52.441754+01 | 1486154152.44175 | pgbench_branches |            40960

 2017-02-03 21:35:53.624966+01 | 1486154153.62497 | pgbench_accounts |      13429514240
 2017-02-03 21:35:53.624966+01 | 1486154153.62497 | pgbench_tellers  |           450560
 2017-02-03 21:35:53.624966+01 | 1486154153.62497 | pgbench_history  |                0
 2017-02-03 21:35:53.624966+01 | 1486154153.62497 | pgbench_branches |            40960

 2017-02-03 21:35:54.743188+01 | 1486154154.74319 | pgbench_accounts |      13429514240
 2017-02-03 21:35:54.743188+01 | 1486154154.74319 | pgbench_tellers  |           450560
 2017-02-03 21:35:54.743188+01 | 1486154154.74319 | pgbench_history  |                0
 2017-02-03 21:35:54.743188+01 | 1486154154.74319 | pgbench_branches |            40960

 2017-02-03 21:35:55.885421+01 | 1486154155.88542 | pgbench_accounts |      13429514240
 2017-02-03 21:35:55.885421+01 | 1486154155.88542 | pgbench_tellers  |           450560
 2017-02-03 21:35:55.885421+01 | 1486154155.88542 | pgbench_history  |                0
 2017-02-03 21:35:55.885421+01 | 1486154155.88542 | pgbench_branches |            40960

 2017-02-03 21:35:57.076955+01 | 1486154157.07696 | pgbench_accounts |      13429514240
 2017-02-03 21:35:57.076955+01 | 1486154157.07696 | pgbench_tellers  |           450560
 2017-02-03 21:35:57.076955+01 | 1486154157.07696 | pgbench_history  |                0
 2017-02-03 21:35:57.076955+01 | 1486154157.07696 | pgbench_branches |            40960

 2017-02-03 21:35:58.247679+01 | 1486154158.24768 | pgbench_accounts |      13429514240
 2017-02-03 21:35:58.247679+01 | 1486154158.24768 | pgbench_tellers  |           450560
 2017-02-03 21:35:58.247679+01 | 1486154158.24768 | pgbench_history  |                0
 2017-02-03 21:35:58.247679+01 | 1486154158.24768 | pgbench_branches |            40960

 2017-02-03 21:35:59.446489+01 | 1486154159.44649 | pgbench_accounts |      13429514240
 2017-02-03 21:35:59.446489+01 | 1486154159.44649 | pgbench_tellers  |           450560
 2017-02-03 21:35:59.446489+01 | 1486154159.44649 | pgbench_history  |                0
 2017-02-03 21:35:59.446489+01 | 1486154159.44649 | pgbench_branches |            40960

 2017-02-03 21:36:00.59084+01 | 1486154160.59084 | pgbench_accounts |      13429514240
 2017-02-03 21:36:00.59084+01 | 1486154160.59084 | pgbench_tellers  |           450560
 2017-02-03 21:36:00.59084+01 | 1486154160.59084 | pgbench_history  |                0
 2017-02-03 21:36:00.59084+01 | 1486154160.59084 | pgbench_branches |            40960

 2017-02-03 21:36:01.746761+01 | 1486154161.74676 | pgbench_accounts |      13429514240
 2017-02-03 21:36:01.746761+01 | 1486154161.74676 | pgbench_tellers  |           450560
 2017-02-03 21:36:01.746761+01 | 1486154161.74676 | pgbench_history  |                0
 2017-02-03 21:36:01.746761+01 | 1486154161.74676 | pgbench_branches |            40960

 2017-02-03 21:36:02.901068+01 | 1486154162.90107 | pgbench_accounts |      13429514240
 2017-02-03 21:36:02.901068+01 | 1486154162.90107 | pgbench_tellers  |           450560
 2017-02-03 21:36:02.901068+01 | 1486154162.90107 | pgbench_history  |                0
 2017-02-03 21:36:02.901068+01 | 1486154162.90107 | pgbench_branches |            40960

 2017-02-03 21:36:04.047161+01 | 1486154164.04716 | pgbench_accounts |      13429514240
 2017-02-03 21:36:04.047161+01 | 1486154164.04716 | pgbench_tellers  |           450560
 2017-02-03 21:36:04.047161+01 | 1486154164.04716 | pgbench_history  |                0
 2017-02-03 21:36:04.047161+01 | 1486154164.04716 | pgbench_branches |            40960

 2017-02-03 21:36:05.221311+01 | 1486154165.22131 | pgbench_accounts |      13429514240
 2017-02-03 21:36:05.221311+01 | 1486154165.22131 | pgbench_tellers  |           450560
 2017-02-03 21:36:05.221311+01 | 1486154165.22131 | pgbench_history  |                0
 2017-02-03 21:36:05.221311+01 | 1486154165.22131 | pgbench_branches |            40960

 2017-02-03 21:36:06.353523+01 | 1486154166.35352 | pgbench_accounts |      13429514240
 2017-02-03 21:36:06.353523+01 | 1486154166.35352 | pgbench_tellers  |           450560
 2017-02-03 21:36:06.353523+01 | 1486154166.35352 | pgbench_history  |                0
 2017-02-03 21:36:06.353523+01 | 1486154166.35352 | pgbench_branches |            40960

 2017-02-03 21:36:07.518746+01 | 1486154167.51875 | pgbench_accounts |      13429514240
 2017-02-03 21:36:07.518746+01 | 1486154167.51875 | pgbench_tellers  |           450560
 2017-02-03 21:36:07.518746+01 | 1486154167.51875 | pgbench_history  |                0
 2017-02-03 21:36:07.518746+01 | 1486154167.51875 | pgbench_branches |            40960

 2017-02-03 21:36:08.701299+01 | 1486154168.7013 | pgbench_accounts |      13429514240
 2017-02-03 21:36:08.701299+01 | 1486154168.7013 | pgbench_tellers  |           450560
 2017-02-03 21:36:08.701299+01 | 1486154168.7013 | pgbench_history  |                0
 2017-02-03 21:36:08.701299+01 | 1486154168.7013 | pgbench_branches |            40960

 2017-02-03 21:36:09.866238+01 | 1486154169.86624 | pgbench_accounts |      13429514240
 2017-02-03 21:36:09.866238+01 | 1486154169.86624 | pgbench_tellers  |           450560
 2017-02-03 21:36:09.866238+01 | 1486154169.86624 | pgbench_history  |                0
 2017-02-03 21:36:09.866238+01 | 1486154169.86624 | pgbench_branches |            40960

 2017-02-03 21:36:10.993262+01 | 1486154170.99326 | pgbench_accounts |      13429514240
 2017-02-03 21:36:10.993262+01 | 1486154170.99326 | pgbench_tellers  |           450560
 2017-02-03 21:36:10.993262+01 | 1486154170.99326 | pgbench_history  |                0
 2017-02-03 21:36:10.993262+01 | 1486154170.99326 | pgbench_branches |            40960

 2017-02-03 21:36:12.170118+01 | 1486154172.17012 | pgbench_accounts |      13429514240
 2017-02-03 21:36:12.170118+01 | 1486154172.17012 | pgbench_tellers  |           450560
 2017-02-03 21:36:12.170118+01 | 1486154172.17012 | pgbench_history  |                0
 2017-02-03 21:36:12.170118+01 | 1486154172.17012 | pgbench_branches |            40960

 2017-02-03 21:36:13.347521+01 | 1486154173.34752 | pgbench_accounts |      13429514240
 2017-02-03 21:36:13.347521+01 | 1486154173.34752 | pgbench_tellers  |           450560
 2017-02-03 21:36:13.347521+01 | 1486154173.34752 | pgbench_history  |                0
 2017-02-03 21:36:13.347521+01 | 1486154173.34752 | pgbench_branches |            40960

 2017-02-03 21:36:14.566696+01 | 1486154174.5667 | pgbench_accounts |      13429514240
 2017-02-03 21:36:14.566696+01 | 1486154174.5667 | pgbench_tellers  |           450560
 2017-02-03 21:36:14.566696+01 | 1486154174.5667 | pgbench_history  |                0
 2017-02-03 21:36:14.566696+01 | 1486154174.5667 | pgbench_branches |            40960

 2017-02-03 21:36:15.711123+01 | 1486154175.71112 | pgbench_accounts |      13429514240
 2017-02-03 21:36:15.711123+01 | 1486154175.71112 | pgbench_tellers  |           450560
 2017-02-03 21:36:15.711123+01 | 1486154175.71112 | pgbench_history  |                0
 2017-02-03 21:36:15.711123+01 | 1486154175.71112 | pgbench_branches |            40960

 2017-02-03 21:36:16.841457+01 | 1486154176.84146 | pgbench_accounts |      13429514240
 2017-02-03 21:36:16.841457+01 | 1486154176.84146 | pgbench_tellers  |           450560
 2017-02-03 21:36:16.841457+01 | 1486154176.84146 | pgbench_history  |                0
 2017-02-03 21:36:16.841457+01 | 1486154176.84146 | pgbench_branches |            40960

 2017-02-03 21:36:17.974419+01 | 1486154177.97442 | pgbench_accounts |      13429514240
 2017-02-03 21:36:17.974419+01 | 1486154177.97442 | pgbench_tellers  |           450560
 2017-02-03 21:36:17.974419+01 | 1486154177.97442 | pgbench_history  |                0
 2017-02-03 21:36:17.974419+01 | 1486154177.97442 | pgbench_branches |            40960

 2017-02-03 21:36:19.125546+01 | 1486154179.12555 | pgbench_accounts |      13429514240
 2017-02-03 21:36:19.125546+01 | 1486154179.12555 | pgbench_tellers  |           450560
 2017-02-03 21:36:19.125546+01 | 1486154179.12555 | pgbench_history  |                0
 2017-02-03 21:36:19.125546+01 | 1486154179.12555 | pgbench_branches |            40960

 2017-02-03 21:36:20.296501+01 | 1486154180.2965 | pgbench_accounts |      13429514240
 2017-02-03 21:36:20.296501+01 | 1486154180.2965 | pgbench_tellers  |           450560
 2017-02-03 21:36:20.296501+01 | 1486154180.2965 | pgbench_history  |                0
 2017-02-03 21:36:20.296501+01 | 1486154180.2965 | pgbench_branches |            40960

 2017-02-03 21:36:21.455038+01 | 1486154181.45504 | pgbench_accounts |      13429514240
 2017-02-03 21:36:21.455038+01 | 1486154181.45504 | pgbench_tellers  |           450560
 2017-02-03 21:36:21.455038+01 | 1486154181.45504 | pgbench_history  |                0
 2017-02-03 21:36:21.455038+01 | 1486154181.45504 | pgbench_branches |            40960

 2017-02-03 21:36:22.638498+01 | 1486154182.6385 | pgbench_accounts |      13429514240
 2017-02-03 21:36:22.638498+01 | 1486154182.6385 | pgbench_tellers  |           450560
 2017-02-03 21:36:22.638498+01 | 1486154182.6385 | pgbench_history  |                0
 2017-02-03 21:36:22.638498+01 | 1486154182.6385 | pgbench_branches |            40960

 2017-02-03 21:36:23.772384+01 | 1486154183.77238 | pgbench_accounts |      13429514240
 2017-02-03 21:36:23.772384+01 | 1486154183.77238 | pgbench_tellers  |           450560
 2017-02-03 21:36:23.772384+01 | 1486154183.77238 | pgbench_history  |                0
 2017-02-03 21:36:23.772384+01 | 1486154183.77238 | pgbench_branches |            40960

 2017-02-03 21:36:24.931976+01 | 1486154184.93198 | pgbench_accounts |      13429514240
 2017-02-03 21:36:24.931976+01 | 1486154184.93198 | pgbench_tellers  |           450560
 2017-02-03 21:36:24.931976+01 | 1486154184.93198 | pgbench_history  |                0
 2017-02-03 21:36:24.931976+01 | 1486154184.93198 | pgbench_branches |            40960

 2017-02-03 21:36:26.069013+01 | 1486154186.06901 | pgbench_accounts |      13429514240
 2017-02-03 21:36:26.069013+01 | 1486154186.06901 | pgbench_tellers  |           450560
 2017-02-03 21:36:26.069013+01 | 1486154186.06901 | pgbench_history  |                0
 2017-02-03 21:36:26.069013+01 | 1486154186.06901 | pgbench_branches |            40960

 2017-02-03 21:36:27.23767+01 | 1486154187.23767 | pgbench_accounts |      13429514240
 2017-02-03 21:36:27.23767+01 | 1486154187.23767 | pgbench_tellers  |           450560
 2017-02-03 21:36:27.23767+01 | 1486154187.23767 | pgbench_history  |                0
 2017-02-03 21:36:27.23767+01 | 1486154187.23767 | pgbench_branches |            40960

 2017-02-03 21:36:28.406257+01 | 1486154188.40626 | pgbench_accounts |      13429514240
 2017-02-03 21:36:28.406257+01 | 1486154188.40626 | pgbench_tellers  |           450560
 2017-02-03 21:36:28.406257+01 | 1486154188.40626 | pgbench_history  |                0
 2017-02-03 21:36:28.406257+01 | 1486154188.40626 | pgbench_branches |            40960

 2017-02-03 21:36:29.559122+01 | 1486154189.55912 | pgbench_accounts |      13429514240
 2017-02-03 21:36:29.559122+01 | 1486154189.55912 | pgbench_tellers  |           450560
 2017-02-03 21:36:29.559122+01 | 1486154189.55912 | pgbench_history  |                0
 2017-02-03 21:36:29.559122+01 | 1486154189.55912 | pgbench_branches |            40960

 2017-02-03 21:36:30.777187+01 | 1486154190.77719 | pgbench_accounts |      13429514240
 2017-02-03 21:36:30.777187+01 | 1486154190.77719 | pgbench_tellers  |           450560
 2017-02-03 21:36:30.777187+01 | 1486154190.77719 | pgbench_history  |                0
 2017-02-03 21:36:30.777187+01 | 1486154190.77719 | pgbench_branches |            40960

 2017-02-03 21:36:31.977791+01 | 1486154191.97779 | pgbench_accounts |      13429514240
 2017-02-03 21:36:31.977791+01 | 1486154191.97779 | pgbench_tellers  |           450560
 2017-02-03 21:36:31.977791+01 | 1486154191.97779 | pgbench_history  |                0
 2017-02-03 21:36:31.977791+01 | 1486154191.97779 | pgbench_branches |            40960

 2017-02-03 21:36:33.160669+01 | 1486154193.16067 | pgbench_accounts |      13429514240
 2017-02-03 21:36:33.160669+01 | 1486154193.16067 | pgbench_tellers  |           450560
 2017-02-03 21:36:33.160669+01 | 1486154193.16067 | pgbench_history  |                0
 2017-02-03 21:36:33.160669+01 | 1486154193.16067 | pgbench_branches |            40960

 2017-02-03 21:36:34.287765+01 | 1486154194.28777 | pgbench_accounts |      13429514240
 2017-02-03 21:36:34.287765+01 | 1486154194.28777 | pgbench_tellers  |           450560
 2017-02-03 21:36:34.287765+01 | 1486154194.28777 | pgbench_history  |                0
 2017-02-03 21:36:34.287765+01 | 1486154194.28777 | pgbench_branches |            40960

 2017-02-03 21:36:35.47223+01 | 1486154195.47223 | pgbench_accounts |      13429514240
 2017-02-03 21:36:35.47223+01 | 1486154195.47223 | pgbench_tellers  |           450560
 2017-02-03 21:36:35.47223+01 | 1486154195.47223 | pgbench_history  |                0
 2017-02-03 21:36:35.47223+01 | 1486154195.47223 | pgbench_branches |            40960

 2017-02-03 21:36:36.698971+01 | 1486154196.69897 | pgbench_accounts |      13429514240
 2017-02-03 21:36:36.698971+01 | 1486154196.69897 | pgbench_tellers  |           450560
 2017-02-03 21:36:36.698971+01 | 1486154196.69897 | pgbench_history  |                0
 2017-02-03 21:36:36.698971+01 | 1486154196.69897 | pgbench_branches |            40960

 2017-02-03 21:36:37.821485+01 | 1486154197.82149 | pgbench_accounts |      13429514240
 2017-02-03 21:36:37.821485+01 | 1486154197.82149 | pgbench_tellers  |           450560
 2017-02-03 21:36:37.821485+01 | 1486154197.82149 | pgbench_history  |                0
 2017-02-03 21:36:37.821485+01 | 1486154197.82149 | pgbench_branches |            40960

 2017-02-03 21:36:38.967975+01 | 1486154198.96797 | pgbench_accounts |      13429514240
 2017-02-03 21:36:38.967975+01 | 1486154198.96797 | pgbench_tellers  |           450560
 2017-02-03 21:36:38.967975+01 | 1486154198.96797 | pgbench_history  |                0
 2017-02-03 21:36:38.967975+01 | 1486154198.96797 | pgbench_branches |            40960

 2017-02-03 21:36:40.121736+01 | 1486154200.12174 | pgbench_accounts |      13429514240
 2017-02-03 21:36:40.121736+01 | 1486154200.12174 | pgbench_tellers  |           450560
 2017-02-03 21:36:40.121736+01 | 1486154200.12174 | pgbench_history  |                0
 2017-02-03 21:36:40.121736+01 | 1486154200.12174 | pgbench_branches |            40960

 2017-02-03 21:36:41.293581+01 | 1486154201.29358 | pgbench_accounts |      13429514240
 2017-02-03 21:36:41.293581+01 | 1486154201.29358 | pgbench_tellers  |           450560
 2017-02-03 21:36:41.293581+01 | 1486154201.29358 | pgbench_history  |                0
 2017-02-03 21:36:41.293581+01 | 1486154201.29358 | pgbench_branches |            40960

 2017-02-03 21:36:42.414708+01 | 1486154202.41471 | pgbench_accounts |      13429514240
 2017-02-03 21:36:42.414708+01 | 1486154202.41471 | pgbench_tellers  |           450560
 2017-02-03 21:36:42.414708+01 | 1486154202.41471 | pgbench_history  |                0
 2017-02-03 21:36:42.414708+01 | 1486154202.41471 | pgbench_branches |            40960

 2017-02-03 21:36:43.536929+01 | 1486154203.53693 | pgbench_accounts |      13429514240
 2017-02-03 21:36:43.536929+01 | 1486154203.53693 | pgbench_tellers  |           450560
 2017-02-03 21:36:43.536929+01 | 1486154203.53693 | pgbench_history  |                0
 2017-02-03 21:36:43.536929+01 | 1486154203.53693 | pgbench_branches |            40960

 2017-02-03 21:36:44.641309+01 | 1486154204.64131 | pgbench_accounts |      13429514240
 2017-02-03 21:36:44.641309+01 | 1486154204.64131 | pgbench_tellers  |           450560
 2017-02-03 21:36:44.641309+01 | 1486154204.64131 | pgbench_history  |                0
 2017-02-03 21:36:44.641309+01 | 1486154204.64131 | pgbench_branches |            40960

 2017-02-03 21:36:45.791427+01 | 1486154205.79143 | pgbench_accounts |      13429514240
 2017-02-03 21:36:45.791427+01 | 1486154205.79143 | pgbench_tellers  |           450560
 2017-02-03 21:36:45.791427+01 | 1486154205.79143 | pgbench_history  |                0
 2017-02-03 21:36:45.791427+01 | 1486154205.79143 | pgbench_branches |            40960

 2017-02-03 21:36:46.962307+01 | 1486154206.96231 | pgbench_accounts |      13429514240
 2017-02-03 21:36:46.962307+01 | 1486154206.96231 | pgbench_tellers  |           450560
 2017-02-03 21:36:46.962307+01 | 1486154206.96231 | pgbench_history  |                0
 2017-02-03 21:36:46.962307+01 | 1486154206.96231 | pgbench_branches |            40960

 2017-02-03 21:36:48.097644+01 | 1486154208.09764 | pgbench_accounts |      13429514240
 2017-02-03 21:36:48.097644+01 | 1486154208.09764 | pgbench_tellers  |           450560
 2017-02-03 21:36:48.097644+01 | 1486154208.09764 | pgbench_history  |                0
 2017-02-03 21:36:48.097644+01 | 1486154208.09764 | pgbench_branches |            40960

 2017-02-03 21:36:49.253823+01 | 1486154209.25382 | pgbench_accounts |      13429514240
 2017-02-03 21:36:49.253823+01 | 1486154209.25382 | pgbench_tellers  |           450560
 2017-02-03 21:36:49.253823+01 | 1486154209.25382 | pgbench_history  |                0
 2017-02-03 21:36:49.253823+01 | 1486154209.25382 | pgbench_branches |            40960

 2017-02-03 21:36:50.440269+01 | 1486154210.44027 | pgbench_accounts |      13429514240
 2017-02-03 21:36:50.440269+01 | 1486154210.44027 | pgbench_tellers  |           450560
 2017-02-03 21:36:50.440269+01 | 1486154210.44027 | pgbench_history  |                0
 2017-02-03 21:36:50.440269+01 | 1486154210.44027 | pgbench_branches |            40960

 2017-02-03 21:36:51.577359+01 | 1486154211.57736 | pgbench_accounts |      13429514240
 2017-02-03 21:36:51.577359+01 | 1486154211.57736 | pgbench_tellers  |           450560
 2017-02-03 21:36:51.577359+01 | 1486154211.57736 | pgbench_history  |                0
 2017-02-03 21:36:51.577359+01 | 1486154211.57736 | pgbench_branches |            40960

 2017-02-03 21:36:52.734102+01 | 1486154212.7341 | pgbench_accounts |      13429514240
 2017-02-03 21:36:52.734102+01 | 1486154212.7341 | pgbench_tellers  |           450560
 2017-02-03 21:36:52.734102+01 | 1486154212.7341 | pgbench_history  |                0
 2017-02-03 21:36:52.734102+01 | 1486154212.7341 | pgbench_branches |            40960

 2017-02-03 21:36:53.865359+01 | 1486154213.86536 | pgbench_accounts |      13429514240
 2017-02-03 21:36:53.865359+01 | 1486154213.86536 | pgbench_tellers  |           450560
 2017-02-03 21:36:53.865359+01 | 1486154213.86536 | pgbench_history  |                0
 2017-02-03 21:36:53.865359+01 | 1486154213.86536 | pgbench_branches |            40960

 2017-02-03 21:36:55.049884+01 | 1486154215.04988 | pgbench_accounts |      13429514240
 2017-02-03 21:36:55.049884+01 | 1486154215.04988 | pgbench_tellers  |           450560
 2017-02-03 21:36:55.049884+01 | 1486154215.04988 | pgbench_history  |                0
 2017-02-03 21:36:55.049884+01 | 1486154215.04988 | pgbench_branches |            40960

 2017-02-03 21:36:56.18712+01 | 1486154216.18712 | pgbench_accounts |      13429514240
 2017-02-03 21:36:56.18712+01 | 1486154216.18712 | pgbench_tellers  |           450560
 2017-02-03 21:36:56.18712+01 | 1486154216.18712 | pgbench_history  |                0
 2017-02-03 21:36:56.18712+01 | 1486154216.18712 | pgbench_branches |            40960

 2017-02-03 21:36:57.318468+01 | 1486154217.31847 | pgbench_accounts |      13429514240
 2017-02-03 21:36:57.318468+01 | 1486154217.31847 | pgbench_tellers  |           450560
 2017-02-03 21:36:57.318468+01 | 1486154217.31847 | pgbench_history  |                0
 2017-02-03 21:36:57.318468+01 | 1486154217.31847 | pgbench_branches |            40960

 2017-02-03 21:36:58.462868+01 | 1486154218.46287 | pgbench_accounts |      13429514240
 2017-02-03 21:36:58.462868+01 | 1486154218.46287 | pgbench_tellers  |           450560
 2017-02-03 21:36:58.462868+01 | 1486154218.46287 | pgbench_history  |                0
 2017-02-03 21:36:58.462868+01 | 1486154218.46287 | pgbench_branches |            40960

 2017-02-03 21:36:59.581468+01 | 1486154219.58147 | pgbench_accounts |      13429514240
 2017-02-03 21:36:59.581468+01 | 1486154219.58147 | pgbench_tellers  |           450560
 2017-02-03 21:36:59.581468+01 | 1486154219.58147 | pgbench_history  |                0
 2017-02-03 21:36:59.581468+01 | 1486154219.58147 | pgbench_branches |            40960

 2017-02-03 21:37:00.757149+01 | 1486154220.75715 | pgbench_accounts |      13429514240
 2017-02-03 21:37:00.757149+01 | 1486154220.75715 | pgbench_tellers  |           450560
 2017-02-03 21:37:00.757149+01 | 1486154220.75715 | pgbench_history  |                0
 2017-02-03 21:37:00.757149+01 | 1486154220.75715 | pgbench_branches |            40960

 2017-02-03 21:37:01.908976+01 | 1486154221.90898 | pgbench_accounts |      13429514240
 2017-02-03 21:37:01.908976+01 | 1486154221.90898 | pgbench_tellers  |           450560
 2017-02-03 21:37:01.908976+01 | 1486154221.90898 | pgbench_history  |                0
 2017-02-03 21:37:01.908976+01 | 1486154221.90898 | pgbench_branches |            40960

 2017-02-03 21:37:03.056146+01 | 1486154223.05615 | pgbench_accounts |      13429514240
 2017-02-03 21:37:03.056146+01 | 1486154223.05615 | pgbench_tellers  |           450560
 2017-02-03 21:37:03.056146+01 | 1486154223.05615 | pgbench_history  |                0
 2017-02-03 21:37:03.056146+01 | 1486154223.05615 | pgbench_branches |            40960

 2017-02-03 21:37:04.214146+01 | 1486154224.21415 | pgbench_accounts |      13429514240
 2017-02-03 21:37:04.214146+01 | 1486154224.21415 | pgbench_tellers  |           450560
 2017-02-03 21:37:04.214146+01 | 1486154224.21415 | pgbench_history  |                0
 2017-02-03 21:37:04.214146+01 | 1486154224.21415 | pgbench_branches |            40960

 2017-02-03 21:37:05.355239+01 | 1486154225.35524 | pgbench_accounts |      13429514240
 2017-02-03 21:37:05.355239+01 | 1486154225.35524 | pgbench_tellers  |           450560
 2017-02-03 21:37:05.355239+01 | 1486154225.35524 | pgbench_history  |                0
 2017-02-03 21:37:05.355239+01 | 1486154225.35524 | pgbench_branches |            40960

 2017-02-03 21:37:06.502662+01 | 1486154226.50266 | pgbench_accounts |      13429514240
 2017-02-03 21:37:06.502662+01 | 1486154226.50266 | pgbench_tellers  |           450560
 2017-02-03 21:37:06.502662+01 | 1486154226.50266 | pgbench_history  |                0
 2017-02-03 21:37:06.502662+01 | 1486154226.50266 | pgbench_branches |            40960

 2017-02-03 21:37:07.69331+01 | 1486154227.69331 | pgbench_accounts |      13429514240
 2017-02-03 21:37:07.69331+01 | 1486154227.69331 | pgbench_tellers  |           450560
 2017-02-03 21:37:07.69331+01 | 1486154227.69331 | pgbench_history  |                0
 2017-02-03 21:37:07.69331+01 | 1486154227.69331 | pgbench_branches |            40960

 2017-02-03 21:37:08.841449+01 | 1486154228.84145 | pgbench_accounts |      13429514240
 2017-02-03 21:37:08.841449+01 | 1486154228.84145 | pgbench_tellers  |           450560
 2017-02-03 21:37:08.841449+01 | 1486154228.84145 | pgbench_history  |                0
 2017-02-03 21:37:08.841449+01 | 1486154228.84145 | pgbench_branches |            40960

