 2017-02-06 18:19:42.780775+01 | 1486401582.78078 | 7/63A8D080               |           31736778880

 2017-02-06 18:19:44.726571+01 | 1486401584.72657 | 7/6A93AFA8               |           31852834728

 2017-02-06 18:19:45.811765+01 | 1486401585.81176 | 7/72934C10               |           31987026960

 2017-02-06 18:19:46.887925+01 | 1486401586.88792 | 7/7B11E780               |           32129542016

 2017-02-06 18:19:47.974345+01 | 1486401587.97434 | 7/83BFF520               |           32275166496

 2017-02-06 18:19:49.049655+01 | 1486401589.04965 | 7/8CB2B4F8               |           32425293048

 2017-02-06 18:19:50.123938+01 | 1486401590.12394 | 7/95B8EC10               |           32576695312

 2017-02-06 18:19:51.198595+01 | 1486401591.1986 | 7/9EB27F20               |           32727269152

 2017-02-06 18:19:52.269244+01 | 1486401592.26924 | 7/A6EAD430               |           32865178672

 2017-02-06 18:19:53.346806+01 | 1486401593.34681 | 7/AFB8E8D8               |           33012902104

 2017-02-06 18:19:54.427752+01 | 1486401594.42775 | 7/B86D6888               |           33158949000

 2017-02-06 18:19:55.500851+01 | 1486401595.50085 | 7/C11C7440               |           33304638528

 2017-02-06 18:19:56.571376+01 | 1486401596.57138 | 7/C9A3E5E0               |           33447732704

 2017-02-06 18:19:57.652066+01 | 1486401597.65207 | 7/D17343A0               |           33578763168

 2017-02-06 18:19:58.720214+01 | 1486401598.72021 | 7/DA279390               |           33724797840

 2017-02-06 18:19:59.7946+01 | 1486401599.7946 | 7/E2DA0CF0               |           33870712048

 2017-02-06 18:20:00.861248+01 | 1486401600.86125 | 7/EAE3A000               |           34005557248

 2017-02-06 18:20:01.931309+01 | 1486401601.93131 | 7/F2D74DB8               |           34138967480

 2017-02-06 18:20:03.004279+01 | 1486401603.00428 | 7/FA3DE600               |           34263131648

 2017-02-06 18:20:04.080246+01 | 1486401604.08025 | 8/22BD158                |           34396164440

 2017-02-06 18:20:05.152453+01 | 1486401605.15245 | 8/A111168                |           34528629096

 2017-02-06 18:20:06.224033+01 | 1486401606.22403 | 8/11D61B18               |           34658982680

 2017-02-06 18:20:07.301448+01 | 1486401607.30145 | 8/1951AB50               |           34784521040

 2017-02-06 18:20:08.370733+01 | 1486401608.37073 | 8/215BF738               |           34919413560

 2017-02-06 18:20:09.444788+01 | 1486401609.44479 | 8/29281BE0               |           35050232800

 2017-02-06 18:20:10.515232+01 | 1486401610.51523 | 8/3087C918               |           35173943576

 2017-02-06 18:20:11.588503+01 | 1486401611.5885 | 8/37988CA0               |           35292482720

 2017-02-06 18:20:12.663415+01 | 1486401612.66341 | 8/3E464540               |           35404531008

 2017-02-06 18:20:13.743591+01 | 1486401613.74359 | 8/45969DE8               |           35527237096

 2017-02-06 18:20:14.820448+01 | 1486401614.82045 | 8/4C36C670               |           35638396528

 2017-02-06 18:20:15.901012+01 | 1486401615.90101 | 8/51FDF1A0               |           35735335328

 2017-02-06 18:20:16.976858+01 | 1486401616.97686 | 8/58AB7D40               |           35847372096

 2017-02-06 18:20:18.047624+01 | 1486401618.04762 | 8/5F98E150               |           35963593040

 2017-02-06 18:20:19.116119+01 | 1486401619.11612 | 8/662A9930               |           36073806128

 2017-02-06 18:20:20.183488+01 | 1486401620.18349 | 8/6CBE8F70               |           36184166256

 2017-02-06 18:20:21.251764+01 | 1486401621.25176 | 8/73C99728               |           36302329640

 2017-02-06 18:20:22.327445+01 | 1486401622.32745 | 8/7A9BF468               |           36416779368

 2017-02-06 18:20:23.404487+01 | 1486401623.40449 | 8/81119868               |           36525152360

 2017-02-06 18:20:24.474872+01 | 1486401624.47487 | 8/87C45008               |           36637528072

 2017-02-06 18:20:25.547919+01 | 1486401625.54792 | 8/8E48E090               |           36746879120

 2017-02-06 18:20:26.614684+01 | 1486401626.61468 | 8/94ADF398               |           36854166424

 2017-02-06 18:20:27.703679+01 | 1486401627.70368 | 8/9A679608               |           36950218248

 2017-02-06 18:20:28.774558+01 | 1486401628.77456 | 8/A08B22B8               |           37053211320

 2017-02-06 18:20:29.848354+01 | 1486401629.84835 | 8/A66C6A58               |           37151861336

 2017-02-06 18:20:30.914822+01 | 1486401630.91482 | 8/AC88F840               |           37254395968

 2017-02-06 18:20:31.991968+01 | 1486401631.99197 | 8/B2A38160               |           37356798304

 2017-02-06 18:20:33.063923+01 | 1486401633.06392 | 8/B8128400               |           37447959552

 2017-02-06 18:20:34.13565+01 | 1486401634.13565 | 8/BE00D970               |           37547465072

 2017-02-06 18:20:35.20798+01 | 1486401635.20798 | 8/C3C88FC0               |           37644439488

 2017-02-06 18:20:36.287746+01 | 1486401636.28775 | 8/C9CD8A98               |           37745429144

 2017-02-06 18:20:37.361153+01 | 1486401637.36115 | 8/CF672C38               |           37839383608

 2017-02-06 18:20:38.434676+01 | 1486401638.43468 | 8/D4A1F1E8               |           37927121384

 2017-02-06 18:20:39.511804+01 | 1486401639.5118 | 8/DA467C20               |           38021790752

 2017-02-06 18:20:40.592281+01 | 1486401640.59228 | 8/DFD191D0               |           38114791888

 2017-02-06 18:20:41.677569+01 | 1486401641.67757 | 8/E581B8F0               |           38210222320

 2017-02-06 18:20:42.74325+01 | 1486401642.74325 | 8/EABDA7D0               |           38298036176

 2017-02-06 18:20:43.819427+01 | 1486401643.81943 | 8/EF7C01C0               |           38377619904

 2017-02-06 18:20:44.902559+01 | 1486401644.90256 | 8/F4BDF350               |           38465827664

 2017-02-06 18:20:45.974154+01 | 1486401645.97415 | 8/F970CD50               |           38544657744

 2017-02-06 18:20:47.049511+01 | 1486401647.04951 | 8/FDE970C8               |           38619672776

 2017-02-06 18:20:48.144684+01 | 1486401648.14468 | 9/2B07980                |           38699825536

 2017-02-06 18:20:49.22175+01 | 1486401649.22175 | 9/6C1A818                |           38768060440

 2017-02-06 18:20:50.296013+01 | 1486401650.29601 | 9/A91A250                |           38832022096

 2017-02-06 18:20:51.372146+01 | 1486401651.37215 | 9/ED91950                |           38903814480

 2017-02-06 18:20:52.456415+01 | 1486401652.45641 | 9/12E15940               |           38971464000

 2017-02-06 18:20:53.553907+01 | 1486401653.55391 | 9/16F35408               |           39039751176

 2017-02-06 18:20:54.636444+01 | 1486401654.63644 | 9/1AA4BDC0               |           39101709760

 2017-02-06 18:20:55.723684+01 | 1486401655.72368 | 9/1E0C1E48               |           39158816328

 2017-02-06 18:20:56.806512+01 | 1486401656.80651 | 9/21F000E0               |           39224082656

 2017-02-06 18:20:57.88201+01 | 1486401657.88201 | 9/25CC3918               |           39288846616

 2017-02-06 18:20:58.967556+01 | 1486401658.96756 | 9/2A6E14A8               |           39366562984

 2017-02-06 18:21:00.041258+01 | 1486401660.04126 | 9/2EE06AB0               |           39441164976

 2017-02-06 18:21:01.125424+01 | 1486401661.12542 | 9/32E61100               |           39508644096

 2017-02-06 18:21:02.197707+01 | 1486401662.19771 | 9/376A0488               |           39584400520

 2017-02-06 18:21:03.276607+01 | 1486401663.27661 | 9/3B7294C8               |           39652070600

 2017-02-06 18:21:04.353208+01 | 1486401664.35321 | 9/3F479238               |           39716360760

 2017-02-06 18:21:05.42915+01 | 1486401665.42915 | 9/43A358B0               |           39789484208

 2017-02-06 18:21:06.505018+01 | 1486401666.50502 | 9/4782B1F8               |           39854453240

 2017-02-06 18:21:07.589089+01 | 1486401667.58909 | 9/4AEE12A8               |           39911821992

 2017-02-06 18:21:08.672789+01 | 1486401668.67279 | 9/4E800698               |           39971718808

 2017-02-06 18:21:09.748885+01 | 1486401669.74888 | 9/52120948               |           40031619400

 2017-02-06 18:21:10.826689+01 | 1486401670.82669 | 9/55BC2D20               |           40093101344

 2017-02-06 18:21:11.904154+01 | 1486401671.90415 | 9/59D0C1D0               |           40161558992

 2017-02-06 18:21:12.984309+01 | 1486401672.98431 | 9/5DAFB320               |           40226501408

 2017-02-06 18:21:14.073675+01 | 1486401674.07367 | 9/6182E3D0               |           40290673616

 2017-02-06 18:21:15.148192+01 | 1486401675.14819 | 9/6554B198               |           40354754968

 2017-02-06 18:21:16.227427+01 | 1486401676.22743 | 9/69023398               |           40416457624

 2017-02-06 18:21:17.307564+01 | 1486401677.30756 | 9/6CDEF188               |           40481255816

 2017-02-06 18:21:18.384943+01 | 1486401678.38494 | 9/709747A0               |           40543668128

 2017-02-06 18:21:19.468623+01 | 1486401679.46862 | 9/740D7750               |           40601745232

 2017-02-06 18:21:20.553662+01 | 1486401680.55366 | 9/7781CEE0               |           40659701472

 2017-02-06 18:21:21.630516+01 | 1486401681.63052 | 9/7B1BF250               |           40720134736

 2017-02-06 18:21:22.71139+01 | 1486401682.71139 | 9/7E8FF9B0               |           40778070448

 2017-02-06 18:21:23.781346+01 | 1486401683.78135 | 9/81DFB208               |           40833626632

 2017-02-06 18:21:24.858273+01 | 1486401684.85827 | 9/850A44E8               |           40886748392

 2017-02-06 18:21:25.93496+01 | 1486401685.93496 | 9/8893CEC8               |           40946093768

 2017-02-06 18:21:27.010869+01 | 1486401687.01087 | 9/8BDE4C50               |           41001307216

 2017-02-06 18:21:28.09734+01 | 1486401688.09734 | 9/8F2FEB80               |           41056988032

 2017-02-06 18:21:29.176079+01 | 1486401689.17608 | 9/92189A28               |           41105791528

 2017-02-06 18:21:30.257808+01 | 1486401690.25781 | 9/94DCBE10               |           41152200208

 2017-02-06 18:21:31.341627+01 | 1486401691.34163 | 9/97B41DC0               |           41199869376

 2017-02-06 18:21:32.423509+01 | 1486401692.42351 | 9/9A7E3CD8               |           41246670040

 2017-02-06 18:21:33.499915+01 | 1486401693.49991 | 9/9D6E8060               |           41295970400

 2017-02-06 18:21:34.587318+01 | 1486401694.58732 | 9/A0AAAA20               |           41350244896

 2017-02-06 18:21:35.659694+01 | 1486401695.65969 | 9/A3C18D98               |           41402076568

 2017-02-06 18:21:36.73638+01 | 1486401696.73638 | 9/A69344C8               |           41449374920

 2017-02-06 18:21:37.823788+01 | 1486401697.82379 | 9/A9161148               |           41491501384

 2017-02-06 18:21:38.913618+01 | 1486401698.91362 | 9/ABAFAA80               |           41535122048

 2017-02-06 18:21:39.992179+01 | 1486401699.99218 | 9/AE4A6750               |           41578817360

 2017-02-06 18:21:41.068902+01 | 1486401701.0689 | 9/B0BC4D38               |           41619836216

 2017-02-06 18:21:42.14597+01 | 1486401702.14597 | 9/B3AA57E8               |           41668990952

 2017-02-06 18:21:43.21804+01 | 1486401703.21804 | 9/B64F9F80               |           41713377152

 2017-02-06 18:21:44.289959+01 | 1486401704.28996 | 9/B93FCCE8               |           41762671848

 2017-02-06 18:21:45.366742+01 | 1486401705.36674 | 9/BBFD3AF0               |           41808640752

 2017-02-06 18:21:46.443903+01 | 1486401706.4439 | 9/BEE92D30               |           41857658160

 2017-02-06 18:21:47.524897+01 | 1486401707.5249 | 9/C1C7E4C8               |           41905808584

 2017-02-06 18:21:48.602446+01 | 1486401708.60245 | 9/C499C798               |           41953118104

 2017-02-06 18:21:49.683399+01 | 1486401709.6834 | 9/C74A7FB8               |           41998254008

 2017-02-06 18:21:50.758471+01 | 1486401710.75847 | 9/C9E00188               |           42041606536

 2017-02-06 18:21:51.841288+01 | 1486401711.84129 | 9/CCA1F118               |           42087870744

 2017-02-06 18:21:52.923332+01 | 1486401712.92333 | 9/CF51A8A0               |           42132940960

 2017-02-06 18:21:54.000673+01 | 1486401714.00067 | 9/D202A800               |           42178095104

 2017-02-06 18:21:55.086254+01 | 1486401715.08625 | 9/D4AF5CE0               |           42222968032

 2017-02-06 18:21:56.164203+01 | 1486401716.1642 | 9/D7363438               |           42265359416

 2017-02-06 18:21:57.241023+01 | 1486401717.24102 | 9/D9F3B558               |           42311333208

 2017-02-06 18:21:58.315331+01 | 1486401718.31533 | 9/DC6B0718               |           42352707352

 2017-02-06 18:21:59.389315+01 | 1486401719.38931 | 9/DEF08058               |           42395009112

 2017-02-06 18:22:00.468439+01 | 1486401720.46844 | 9/E1616D28               |           42435964200

 2017-02-06 18:22:01.54307+01 | 1486401721.54307 | 9/E4242DF0               |           42482281968

 2017-02-06 18:22:02.616691+01 | 1486401722.61669 | 9/E6AF00E0               |           42524934368

 2017-02-06 18:22:03.696408+01 | 1486401723.69641 | 9/E928C170               |           42566467952

 2017-02-06 18:22:04.783022+01 | 1486401724.78302 | 9/EBA96330               |           42608452400

 2017-02-06 18:22:05.864699+01 | 1486401725.8647 | 9/EE181878               |           42649262200

 2017-02-06 18:22:06.944759+01 | 1486401726.94476 | 9/F0735548               |           42688795976

 2017-02-06 18:22:08.023609+01 | 1486401728.02361 | 9/F2C43E08               |           42727652872

 2017-02-06 18:22:09.102918+01 | 1486401729.10292 | 9/F52F9950               |           42768243024

 2017-02-06 18:22:10.184118+01 | 1486401730.18412 | 9/F7B7C238               |           42810720824

 2017-02-06 18:22:11.257902+01 | 1486401731.2579 | 9/F9E4CA70               |           42847226480

 2017-02-06 18:22:12.335755+01 | 1486401732.33576 | 9/FC1CA1A8               |           42884440488

 2017-02-06 18:22:13.413279+01 | 1486401733.41328 | 9/FE4FEBD0               |           42921356240

 2017-02-06 18:22:14.486121+01 | 1486401734.48612 | A/B1C110                 |           42961322256

 2017-02-06 18:22:15.561059+01 | 1486401735.56106 | A/2D13578                |           42996938104

 2017-02-06 18:22:16.635202+01 | 1486401736.6352 | A/50E8670                |           43034510960

 2017-02-06 18:22:17.710155+01 | 1486401737.71016 | A/72A6668                |           43069892200

 2017-02-06 18:22:18.791723+01 | 1486401738.79172 | A/9487BF0                |           43105418224

 2017-02-06 18:22:19.867204+01 | 1486401739.8672 | A/B810D70                |           43142679920

 2017-02-06 18:22:20.953801+01 | 1486401740.9538 | A/D844880                |           43176446080

 2017-02-06 18:22:22.034806+01 | 1486401742.03481 | A/FB36A48                |           43213089352

 2017-02-06 18:22:23.117901+01 | 1486401743.1179 | A/11DA8048               |           43249205320

 2017-02-06 18:22:24.19199+01 | 1486401744.19199 | A/13DCEC00               |           43282918400

 2017-02-06 18:22:25.277005+01 | 1486401745.277 | A/15E61590               |           43317073296

 2017-02-06 18:22:26.349849+01 | 1486401746.34985 | A/17EAF808               |           43350947848

 2017-02-06 18:22:27.442574+01 | 1486401747.44257 | A/19F23888               |           43384977544

 2017-02-06 18:22:28.517761+01 | 1486401748.51776 | A/1BE1DD48               |           43417460040

 2017-02-06 18:22:29.594004+01 | 1486401749.594 | A/1DF0B8D0               |           43451988176

 2017-02-06 18:22:30.666265+01 | 1486401750.66627 | A/1FE46FB8               |           43484737464

 2017-02-06 18:22:31.745412+01 | 1486401751.74541 | A/21D17630               |           43517048368

 2017-02-06 18:22:32.830072+01 | 1486401752.83007 | A/23CCAD18               |           43550289176

 2017-02-06 18:22:33.910237+01 | 1486401753.91024 | A/25AF6950               |           43581925712

 2017-02-06 18:22:34.983867+01 | 1486401754.98387 | A/27B9DE28               |           43616165416

 2017-02-06 18:22:36.05246+01 | 1486401756.05246 | A/29A3B2F8               |           43648267000

 2017-02-06 18:22:37.141813+01 | 1486401757.14181 | A/2BA2C160               |           43681759584

 2017-02-06 18:22:38.218153+01 | 1486401758.21815 | A/2D839B98               |           43713272728

 2017-02-06 18:22:39.298207+01 | 1486401759.29821 | A/2F596560               |           43744060768

 2017-02-06 18:22:40.374639+01 | 1486401760.37464 | A/31215228               |           43773940264

 2017-02-06 18:22:41.448508+01 | 1486401761.44851 | A/32E9AF90               |           43803848592

 2017-02-06 18:22:42.523737+01 | 1486401762.52374 | A/34C3E730               |           43834926896

 2017-02-06 18:22:43.590131+01 | 1486401763.59013 | A/367AD008               |           43863691272

 2017-02-06 18:22:44.663541+01 | 1486401764.66354 | A/38380160               |           43892867424

 2017-02-06 18:22:45.740363+01 | 1486401765.74036 | A/3A11DEA0               |           43923922592

 2017-02-06 18:22:46.824304+01 | 1486401766.8243 | A/3BC82878               |           43952646264

 2017-02-06 18:22:47.901983+01 | 1486401767.90198 | A/3D825068               |           43981623400

 2017-02-06 18:22:48.983139+01 | 1486401768.98314 | A/3F273FE0               |           44009209824

 2017-02-06 18:22:50.060103+01 | 1486401770.0601 | A/4102C720               |           44040374048

 2017-02-06 18:22:51.134036+01 | 1486401771.13404 | A/42A3FD98               |           44067716504

 2017-02-06 18:22:52.211428+01 | 1486401772.21143 | A/44771F98               |           44098330520

 2017-02-06 18:22:53.290388+01 | 1486401773.29039 | A/46222808               |           44126316552

 2017-02-06 18:22:54.372351+01 | 1486401774.37235 | A/47B58FF8               |           44152754168

 2017-02-06 18:22:55.448058+01 | 1486401775.44806 | A/495E7CF8               |           44180602104

 2017-02-06 18:22:56.522106+01 | 1486401776.52211 | A/4AE1FAC0               |           44205996736

 2017-02-06 18:22:57.598927+01 | 1486401777.59893 | A/4C9F27F0               |           44235171824

 2017-02-06 18:22:58.68279+01 | 1486401778.68279 | A/4E3805C8               |           44261967304

 2017-02-06 18:22:59.75905+01 | 1486401779.75905 | A/4FEB8508               |           44290508040

 2017-02-06 18:23:00.83685+01 | 1486401780.83685 | A/515EE4D8               |           44314846424

 2017-02-06 18:23:01.915135+01 | 1486401781.91513 | A/52C33288               |           44338197128

 2017-02-06 18:23:02.993033+01 | 1486401782.99303 | A/541B5000               |           44360749056

 2017-02-06 18:23:04.073166+01 | 1486401784.07317 | A/5572EDB8               |           44383268280

 2017-02-06 18:23:05.150657+01 | 1486401785.15066 | A/56BFC718               |           44405081880

 2017-02-06 18:23:06.225448+01 | 1486401786.22545 | A/58190260               |           44427706976

 2017-02-06 18:23:07.298726+01 | 1486401787.29873 | A/598F8E10               |           44452253200

 2017-02-06 18:23:08.373165+01 | 1486401788.37316 | A/5B0AD460               |           44477109344

 2017-02-06 18:23:09.451318+01 | 1486401789.45132 | A/5C8B1A40               |           44502293056

 2017-02-06 18:23:10.536401+01 | 1486401790.5364 | A/5DF2BD88               |           44525862280

 2017-02-06 18:23:11.614124+01 | 1486401791.61412 | A/5F76ACB0               |           44551285936

 2017-02-06 18:23:12.702475+01 | 1486401792.70248 | A/60ED42A0               |           44575834784

 2017-02-06 18:23:13.784613+01 | 1486401793.78461 | A/626748F0               |           44600609008

 2017-02-06 18:23:14.863996+01 | 1486401794.864 | A/63D585B0               |           44624610736

 2017-02-06 18:23:15.944506+01 | 1486401795.94451 | A/65407BF8               |           44648397816

 2017-02-06 18:23:17.025609+01 | 1486401797.02561 | A/66A5B678               |           44671809144

 2017-02-06 18:23:18.109578+01 | 1486401798.10958 | A/6802DC38               |           44694690872

 2017-02-06 18:23:19.185275+01 | 1486401799.18528 | A/69792E58               |           44719222360

 2017-02-06 18:23:20.267514+01 | 1486401800.26751 | A/6AC06670               |           44740666992

 2017-02-06 18:23:21.348198+01 | 1486401801.3482 | A/6C2F9800               |           44764731392

 2017-02-06 18:23:22.432035+01 | 1486401802.43203 | A/6D921820               |           44787963936

 2017-02-06 18:23:23.511309+01 | 1486401803.51131 | A/6ED91AA8               |           44809394856

 2017-02-06 18:23:24.592998+01 | 1486401804.593 | A/70389100               |           44832428288

 2017-02-06 18:23:25.672816+01 | 1486401805.67282 | A/718FBD88               |           44854918536

 2017-02-06 18:23:26.744745+01 | 1486401806.74475 | A/72E98958               |           44877580632

 2017-02-06 18:23:27.816591+01 | 1486401807.81659 | A/7428D7D8               |           44898506712

 2017-02-06 18:23:28.901127+01 | 1486401808.90113 | A/757C2610               |           44920743440

 2017-02-06 18:23:29.974771+01 | 1486401809.97477 | A/76D6C938               |           44943460664

 2017-02-06 18:23:31.051704+01 | 1486401811.0517 | A/78116F18               |           44964081432

 2017-02-06 18:23:32.137132+01 | 1486401812.13713 | A/795C3A18               |           44985760280

 2017-02-06 18:23:33.210832+01 | 1486401813.21083 | A/7A8BE888               |           45005662344

 2017-02-06 18:23:34.295605+01 | 1486401814.2956 | A/7BB43648               |           45025080904

 2017-02-06 18:23:35.384887+01 | 1486401815.38489 | A/7CDF5E28               |           45044686376

 2017-02-06 18:23:36.457768+01 | 1486401816.45777 | A/7E012180               |           45063676288

 2017-02-06 18:23:37.541549+01 | 1486401817.54155 | A/7F34C7F0               |           45083838448

 2017-02-06 18:23:38.617907+01 | 1486401818.61791 | A/80548670               |           45102696048

 2017-02-06 18:23:39.699293+01 | 1486401819.69929 | A/819E0AE8               |           45124291304

 2017-02-06 18:23:40.77761+01 | 1486401820.77761 | A/82BBA140               |           45143007552

 2017-02-06 18:23:41.85336+01 | 1486401821.85336 | A/8400BA88               |           45164313224

 2017-02-06 18:23:42.919599+01 | 1486401822.9196 | A/85117A38               |           45182188088

 2017-02-06 18:23:43.99812+01 | 1486401823.99812 | A/8622ED68               |           45200108904

 2017-02-06 18:23:45.08443+01 | 1486401825.08443 | A/872F1380               |           45217682304

 2017-02-06 18:23:46.167228+01 | 1486401826.16723 | A/88241A40               |           45233740352

 2017-02-06 18:23:47.252958+01 | 1486401827.25296 | A/890CAD00               |           45248982272

 2017-02-06 18:23:48.349773+01 | 1486401828.34977 | A/8A0BB688               |           45265696392

 2017-02-06 18:23:49.438551+01 | 1486401829.43855 | A/8B021890               |           45281843344

 2017-02-06 18:23:50.529023+01 | 1486401830.52902 | A/8C1852F0               |           45300077296

 2017-02-06 18:23:51.606194+01 | 1486401831.60619 | A/8D091F10               |           45315858192

 2017-02-06 18:23:52.683664+01 | 1486401832.68366 | A/8E09ECD8               |           45332688088

 2017-02-06 18:23:53.768721+01 | 1486401833.76872 | A/8F2A6DA0               |           45351595424

 2017-02-06 18:23:54.844338+01 | 1486401834.84434 | A/904331B8               |           45369995704

 2017-02-06 18:23:55.921195+01 | 1486401835.9212 | A/914DE938               |           45387475256

 2017-02-06 18:23:56.995174+01 | 1486401836.99517 | A/926B4A88               |           45406177928

 2017-02-06 18:23:58.066384+01 | 1486401838.06638 | A/93851458               |           45424645208

 2017-02-06 18:23:59.150392+01 | 1486401839.15039 | A/94A157A8               |           45443274664

 2017-02-06 18:24:00.234066+01 | 1486401840.23407 | A/95AF8048               |           45460979784

 2017-02-06 18:24:01.312144+01 | 1486401841.31214 | A/96C7E1D0               |           45479354832

 2017-02-06 18:24:02.40149+01 | 1486401842.40149 | A/97E94900               |           45498321152

 2017-02-06 18:24:03.479869+01 | 1486401843.47987 | A/98F1F7D8               |           45515667416

 2017-02-06 18:24:04.565129+01 | 1486401844.56513 | A/99EBFEB8               |           45532053176

 2017-02-06 18:24:05.649829+01 | 1486401845.64983 | A/9AEB1B30               |           45548772144

 2017-02-06 18:24:06.729717+01 | 1486401846.72972 | A/9BEBAE48               |           45565587016

 2017-02-06 18:24:07.808418+01 | 1486401847.80842 | A/9CE2D428               |           45581784104

 2017-02-06 18:24:08.883352+01 | 1486401848.88335 | A/9DF531C0               |           45599764928

 2017-02-06 18:24:09.957556+01 | 1486401849.95756 | A/9EFC5C90               |           45617011856

 2017-02-06 18:24:11.0381+01 | 1486401851.0381 | A/9FF50770               |           45633308528

 2017-02-06 18:24:12.111794+01 | 1486401852.11179 | A/A0EE1C48               |           45649632328

 2017-02-06 18:24:13.184773+01 | 1486401853.18477 | A/A1DF5350               |           45665440592

 2017-02-06 18:24:14.262929+01 | 1486401854.26293 | A/A2D66E60               |           45681634912

 2017-02-06 18:24:15.342931+01 | 1486401855.34293 | A/A3B4C8F8               |           45696207096

 2017-02-06 18:24:16.432699+01 | 1486401856.4327 | A/A4AD2548               |           45712483656

 2017-02-06 18:24:17.50478+01 | 1486401857.50478 | A/A5971FE8               |           45727817704

 2017-02-06 18:24:18.582337+01 | 1486401858.58234 | A/A67D6258               |           45742907992

 2017-02-06 18:24:19.657514+01 | 1486401859.65751 | A/A76D9CC8               |           45758651592

 2017-02-06 18:24:20.728887+01 | 1486401860.72889 | A/A8570AF0               |           45773949680

 2017-02-06 18:24:21.807513+01 | 1486401861.80751 | A/A941D180               |           45789335936

 2017-02-06 18:24:22.885425+01 | 1486401862.88543 | A/AA158118               |           45803208984

 2017-02-06 18:24:23.976257+01 | 1486401863.97626 | A/AAEBB660               |           45817247328

 2017-02-06 18:24:25.059733+01 | 1486401865.05973 | A/ABD70968               |           45832669544

 2017-02-06 18:24:26.133535+01 | 1486401866.13353 | A/ACBD7910               |           45847771408

 2017-02-06 18:24:27.20835+01 | 1486401867.20835 | A/ADAE8078               |           45863567480

 2017-02-06 18:24:28.290688+01 | 1486401868.29069 | A/AE8FE5E8               |           45878339048

 2017-02-06 18:24:29.371421+01 | 1486401869.37142 | A/AF70BF28               |           45893074728

 2017-02-06 18:24:30.458455+01 | 1486401870.45846 | A/B0567008               |           45908127752

 2017-02-06 18:24:31.544451+01 | 1486401871.54445 | A/B137F670               |           45922907760

 2017-02-06 18:24:32.619337+01 | 1486401872.61934 | A/B2182230               |           45937599024

 2017-02-06 18:24:33.699517+01 | 1486401873.69952 | A/B2F2BDA0               |           45951925664

 2017-02-06 18:24:34.775925+01 | 1486401874.77592 | A/B3D7D740               |           45966939968

 2017-02-06 18:24:35.858805+01 | 1486401875.8588 | A/B4B50BE8               |           45981436904

 2017-02-06 18:24:36.940831+01 | 1486401876.94083 | A/B585AEB8               |           45995110072

 2017-02-06 18:24:38.021527+01 | 1486401878.02153 | A/B65D1C08               |           46009228296

 2017-02-06 18:24:39.09809+01 | 1486401879.09809 | A/B73AEC28               |           46023765032

 2017-02-06 18:24:40.169141+01 | 1486401880.16914 | A/B80EF528               |           46037660968

 2017-02-06 18:24:41.248148+01 | 1486401881.24815 | A/B8DE26B0               |           46051239600

 2017-02-06 18:24:42.327053+01 | 1486401882.32705 | A/B9BDA830               |           46065887280

 2017-02-06 18:24:43.394815+01 | 1486401883.39481 | A/BA7BB828               |           46078343208

