 2017-02-06 16:03:40.377798+01 | 1486393420.3778 | 8/1D35F928               |           34849814824

 2017-02-06 16:03:41.455975+01 | 1486393421.45598 | 8/24A82AA0               |           34974739104

 2017-02-06 16:03:42.542688+01 | 1486393422.54269 | 8/2BE522A8               |           35096175272

 2017-02-06 16:03:43.609972+01 | 1486393423.60997 | 8/322AE858               |           35201411160

 2017-02-06 16:03:44.68001+01 | 1486393424.68001 | 8/388F2D70               |           35308645744

 2017-02-06 16:03:45.751573+01 | 1486393425.75157 | 8/3EDE4778               |           35414493048

 2017-02-06 16:03:46.823422+01 | 1486393426.82342 | 8/4483F300               |           35509236480

 2017-02-06 16:03:47.899082+01 | 1486393427.89908 | 8/49A06678               |           35594987128

 2017-02-06 16:03:48.97636+01 | 1486393428.97636 | 8/4E0500B0               |           35668689072

 2017-02-06 16:03:50.058176+01 | 1486393430.05818 | 8/522A8A68               |           35738258024

 2017-02-06 16:03:51.134541+01 | 1486393431.13454 | 8/55F5F480               |           35801920640

 2017-02-06 16:03:52.208818+01 | 1486393432.20882 | 8/597BC908               |           35861022984

 2017-02-06 16:03:53.286086+01 | 1486393433.28609 | 8/5C815A60               |           35911719520

 2017-02-06 16:03:54.366613+01 | 1486393434.36661 | 8/5F76C258               |           35961356888

 2017-02-06 16:03:55.447323+01 | 1486393435.44732 | 8/6200ECE8               |           36003966184

 2017-02-06 16:03:56.534049+01 | 1486393436.53405 | 8/64717F70               |           36044898160

 2017-02-06 16:03:57.60827+01 | 1486393437.60827 | 8/66B3ED48               |           36082806088

 2017-02-06 16:03:58.688329+01 | 1486393438.68833 | 8/68ED47F0               |           36120119280

 2017-02-06 16:03:59.765993+01 | 1486393439.76599 | 8/6AEFBB00               |           36153834240

 2017-02-06 16:04:00.852753+01 | 1486393440.85275 | 8/6CE4D298               |           36186673816

 2017-02-06 16:04:01.926228+01 | 1486393441.92623 | 8/6E93FC68               |           36214930536

 2017-02-06 16:04:03.007226+01 | 1486393443.00723 | 8/701B3160               |           36240568672

 2017-02-06 16:04:04.084422+01 | 1486393444.08442 | 8/719B8298               |           36265755288

 2017-02-06 16:04:05.160161+01 | 1486393445.16016 | 8/730A53A8               |           36289794984

 2017-02-06 16:04:06.235946+01 | 1486393446.23595 | 8/745B5010               |           36311879696

 2017-02-06 16:04:07.311784+01 | 1486393447.31178 | 8/759E5E58               |           36333051480

 2017-02-06 16:04:08.393443+01 | 1486393448.39344 | 8/76C3D2F0               |           36352283376

 2017-02-06 16:04:09.472632+01 | 1486393449.47263 | 8/77D492C0               |           36370158272

 2017-02-06 16:04:10.553094+01 | 1486393450.55309 | 8/78C65130               |           36386001200

 2017-02-06 16:04:11.622508+01 | 1486393451.62251 | 8/79B7B3B0               |           36401820592

 2017-02-06 16:04:12.698188+01 | 1486393452.69819 | 8/7AA27978               |           36417206648

 2017-02-06 16:04:13.772711+01 | 1486393453.77271 | 8/7B7D4D78               |           36431547768

 2017-02-06 16:04:14.861705+01 | 1486393454.86171 | 8/7C3DB118               |           36444156184

 2017-02-06 16:04:15.937602+01 | 1486393455.9376 | 8/7D0729F0               |           36457359856

 2017-02-06 16:04:17.019681+01 | 1486393457.01968 | 8/7DC44648               |           36469753416

 2017-02-06 16:04:18.093601+01 | 1486393458.0936 | 8/7E800408               |           36482057224

 2017-02-06 16:04:19.168497+01 | 1486393459.1685 | 8/7F293C40               |           36493147200

 2017-02-06 16:04:20.248085+01 | 1486393460.24809 | 8/7FD3AA68               |           36504316520

 2017-02-06 16:04:21.320937+01 | 1486393461.32094 | 8/8082C378               |           36515791736

 2017-02-06 16:04:22.394877+01 | 1486393462.39488 | 8/8132FC08               |           36527340552

 2017-02-06 16:04:23.47181+01 | 1486393463.47181 | 8/81D58238               |           36537991736

 2017-02-06 16:04:24.544051+01 | 1486393464.54405 | 8/826FCFD0               |           36548104144

 2017-02-06 16:04:25.630165+01 | 1486393465.63017 | 8/832F2C78               |           36560645240

 2017-02-06 16:04:26.707726+01 | 1486393466.70773 | 8/83F1BB90               |           36573395856

 2017-02-06 16:04:27.782421+01 | 1486393467.78242 | 8/84ACB5E8               |           36585649640

 2017-02-06 16:04:28.850813+01 | 1486393468.85081 | 8/855C3058               |           36597149784

 2017-02-06 16:04:29.926518+01 | 1486393469.92652 | 8/85FFA950               |           36607863120

 2017-02-06 16:04:31.005124+01 | 1486393471.00512 | 8/869EC510               |           36618290448

 2017-02-06 16:04:32.074627+01 | 1486393472.07463 | 8/8739E3D0               |           36628456400

 2017-02-06 16:04:33.14777+01 | 1486393473.14777 | 8/87D18BA8               |           36638395304

 2017-02-06 16:04:34.227281+01 | 1486393474.22728 | 8/885E66E0               |           36647626464

 2017-02-06 16:04:35.302362+01 | 1486393475.30236 | 8/89167968               |           36659689832

 2017-02-06 16:04:36.378429+01 | 1486393476.37843 | 8/89BA72D0               |           36670436048

 2017-02-06 16:04:37.457974+01 | 1486393477.45797 | 8/8A41E168               |           36679311720

 2017-02-06 16:04:38.531312+01 | 1486393478.53131 | 8/8AD64538               |           36689036600

 2017-02-06 16:04:39.607704+01 | 1486393479.6077 | 8/8B49CB70               |           36696607600

 2017-02-06 16:04:40.690359+01 | 1486393480.69036 | 8/8BBC5938               |           36704115000

 2017-02-06 16:04:41.763113+01 | 1486393481.76311 | 8/8C2A7378               |           36711330680

 2017-02-06 16:04:42.841647+01 | 1486393482.84165 | 8/8C915D60               |           36718075232

 2017-02-06 16:04:43.921064+01 | 1486393483.92106 | 8/8CFD50F8               |           36725149944

 2017-02-06 16:04:44.998213+01 | 1486393484.99821 | 8/8D66B670               |           36732057200

 2017-02-06 16:04:46.073802+01 | 1486393486.0738 | 8/8DDA6900               |           36739639552

 2017-02-06 16:04:47.158318+01 | 1486393487.15832 | 8/8E4F0DE8               |           36747283944

 2017-02-06 16:04:48.237625+01 | 1486393488.23762 | 8/8EC0DF00               |           36754743040

 2017-02-06 16:04:49.316578+01 | 1486393489.31658 | 8/8F2DE040               |           36761886784

 2017-02-06 16:04:50.396852+01 | 1486393490.39685 | 8/8F9F7130               |           36769329456

 2017-02-06 16:04:51.46695+01 | 1486393491.46695 | 8/900CACE8               |           36776488168

 2017-02-06 16:04:52.543214+01 | 1486393492.54321 | 8/907D7BC0               |           36783881152

 2017-02-06 16:04:53.617684+01 | 1486393493.61768 | 8/90EDF3A8               |           36791251880

 2017-02-06 16:04:54.706907+01 | 1486393494.70691 | 8/9164B368               |           36799034216

 2017-02-06 16:04:55.782055+01 | 1486393495.78205 | 8/91D581F8               |           36806427128

 2017-02-06 16:04:56.85717+01 | 1486393496.85717 | 8/92487668               |           36813960808

 2017-02-06 16:04:57.931913+01 | 1486393497.93191 | 8/92BAC378               |           36821451640

 2017-02-06 16:04:59.004978+01 | 1486393499.00498 | 8/932CAD20               |           36828917024

 2017-02-06 16:05:00.077629+01 | 1486393500.07763 | 8/939D01E8               |           36836278760

 2017-02-06 16:05:01.153061+01 | 1486393501.15306 | 8/940E5010               |           36843704336

 2017-02-06 16:05:02.23388+01 | 1486393502.23388 | 8/947F55D8               |           36851111744

 2017-02-06 16:05:03.306745+01 | 1486393503.30675 | 8/94F0E690               |           36858554000

 2017-02-06 16:05:04.381293+01 | 1486393504.38129 | 8/9566CF70               |           36866281328

 2017-02-06 16:05:05.463365+01 | 1486393505.46337 | 8/95DC72A0               |           36873990816

 2017-02-06 16:05:06.539639+01 | 1486393506.53964 | 8/96483928               |           36881053992

 2017-02-06 16:05:07.614019+01 | 1486393507.61402 | 8/96B158A0               |           36887943328

 2017-02-06 16:05:08.69103+01 | 1486393508.69103 | 8/97159EA8               |           36894514856

 2017-02-06 16:05:09.766259+01 | 1486393509.76626 | 8/977C2EC8               |           36901236424

 2017-02-06 16:05:10.839254+01 | 1486393510.83925 | 8/97E511C0               |           36908110272

 2017-02-06 16:05:11.924541+01 | 1486393511.92454 | 8/984748E8               |           36914546920

 2017-02-06 16:05:13.004171+01 | 1486393513.00417 | 8/98AAA970               |           36921059696

 2017-02-06 16:05:14.083786+01 | 1486393514.08379 | 8/991411C0               |           36927967680

 2017-02-06 16:05:15.156631+01 | 1486393515.15663 | 8/99739B98               |           36934228888

 2017-02-06 16:05:16.244937+01 | 1486393516.24494 | 8/99DB8BD8               |           36941040600

 2017-02-06 16:05:17.326309+01 | 1486393517.32631 | 8/9A47FCC0               |           36948147392

 2017-02-06 16:05:18.401266+01 | 1486393518.40127 | 8/9AB67D18               |           36955389208

 2017-02-06 16:05:19.472381+01 | 1486393519.47238 | 8/9B22B008               |           36962480136

 2017-02-06 16:05:20.547787+01 | 1486393520.54779 | 8/9B8FEA28               |           36969638440

 2017-02-06 16:05:21.626256+01 | 1486393521.62626 | 8/9BFCA628               |           36976764456

 2017-02-06 16:05:22.700293+01 | 1486393522.70029 | 8/9C6A2F88               |           36983943048

 2017-02-06 16:05:23.773967+01 | 1486393523.77397 | 8/9CD6F3A8               |           36991071144

 2017-02-06 16:05:24.852409+01 | 1486393524.85241 | 8/9D48FD68               |           36998544744

 2017-02-06 16:05:25.938551+01 | 1486393525.93855 | 8/9DBEF088               |           37006274696

 2017-02-06 16:05:27.016757+01 | 1486393527.01676 | 8/9E322060               |           37013823584

 2017-02-06 16:05:28.09079+01 | 1486393528.09079 | 8/9E9C1648               |           37020767816

 2017-02-06 16:05:29.152885+01 | 1486393529.15288 | 8/9F2304D0               |           37029610704

 2017-02-06 16:05:30.226302+01 | 1486393530.2263 | 8/9FA77FC8               |           37038292936

 2017-02-06 16:05:31.299529+01 | 1486393531.29953 | 8/A02A8668               |           37046879848

 2017-02-06 16:05:32.368365+01 | 1486393532.36837 | 8/A0A67908               |           37055002888

 2017-02-06 16:05:33.450261+01 | 1486393533.45026 | 8/A1211CD0               |           37063040208

 2017-02-06 16:05:34.524014+01 | 1486393534.52401 | 8/A19A3AF0               |           37070977776

 2017-02-06 16:05:35.597567+01 | 1486393535.59757 | 8/A212E138               |           37078884664

 2017-02-06 16:05:36.672876+01 | 1486393536.67288 | 8/A289ECA8               |           37086686376

 2017-02-06 16:05:37.746361+01 | 1486393537.74636 | 8/A2F2F338               |           37093569336

 2017-02-06 16:05:38.823263+01 | 1486393538.82326 | 8/A35A7EE0               |           37100355296

 2017-02-06 16:05:39.907066+01 | 1486393539.90707 | 8/A3C28408               |           37107172360

 2017-02-06 16:05:40.97764+01 | 1486393540.97764 | 8/A41CFA38               |           37113100856

 2017-02-06 16:05:42.049969+01 | 1486393542.04997 | 8/A4837240               |           37119816256

 2017-02-06 16:05:43.122411+01 | 1486393543.12241 | 8/A4EEBDF0               |           37126847984

 2017-02-06 16:05:44.205458+01 | 1486393544.20546 | 8/A55B7010               |           37133971472

 2017-02-06 16:05:45.284662+01 | 1486393545.28466 | 8/A5C395C0               |           37140796864

 2017-02-06 16:05:46.361382+01 | 1486393546.36138 | 8/A6304498               |           37147919512

 2017-02-06 16:05:47.434791+01 | 1486393547.43479 | 8/A69C87A0               |           37155014560

 2017-02-06 16:05:48.511699+01 | 1486393548.5117 | 8/A70751D8               |           37162013144

 2017-02-06 16:05:49.585713+01 | 1486393549.58571 | 8/A7716708               |           37168965384

 2017-02-06 16:05:50.660577+01 | 1486393550.66058 | 8/A7DD4EA8               |           37176037032

 2017-02-06 16:05:51.728914+01 | 1486393551.72891 | 8/A84DB038               |           37183402040

 2017-02-06 16:05:52.806686+01 | 1486393552.80669 | 8/A8B66500               |           37190264064

 2017-02-06 16:05:53.891671+01 | 1486393553.89167 | 8/A920CBA8               |           37197237160

 2017-02-06 16:05:54.96742+01 | 1486393554.96742 | 8/A9875300               |           37203956480

 2017-02-06 16:05:56.046588+01 | 1486393556.04659 | 8/A9F00D48               |           37210819912

 2017-02-06 16:05:57.128065+01 | 1486393557.12807 | 8/AA57F8C0               |           37217630400

 2017-02-06 16:05:58.202449+01 | 1486393558.20245 | 8/AAC114B8               |           37224518840

 2017-02-06 16:05:59.283231+01 | 1486393559.28323 | 8/AB2DC8E0               |           37231642848

 2017-02-06 16:06:00.360468+01 | 1486393560.36047 | 8/AB979560               |           37238576480

 2017-02-06 16:06:01.439529+01 | 1486393561.43953 | 8/AC03DB10               |           37245672208

 2017-02-06 16:06:02.516467+01 | 1486393562.51647 | 8/AC6E1550               |           37252633936

 2017-02-06 16:06:03.595116+01 | 1486393563.59512 | 8/ACD63A30               |           37259459120

 2017-02-06 16:06:04.685468+01 | 1486393564.68547 | 8/AD471138               |           37266854200

 2017-02-06 16:06:05.76487+01 | 1486393565.76487 | 8/ADB17B00               |           37273828096

 2017-02-06 16:06:06.840763+01 | 1486393566.84076 | 8/AE23E728               |           37281326888

 2017-02-06 16:06:07.920239+01 | 1486393567.92024 | 8/AE8EE068               |           37288337512

 2017-02-06 16:06:08.99601+01 | 1486393568.99601 | 8/AEFFCE10               |           37295738384

 2017-02-06 16:06:10.070332+01 | 1486393570.07033 | 8/AF7514D0               |           37303424208

 2017-02-06 16:06:11.143922+01 | 1486393571.14392 | 8/AFE5A798               |           37310801816

 2017-02-06 16:06:12.219939+01 | 1486393572.21994 | 8/B0544660               |           37318051424

 2017-02-06 16:06:13.300495+01 | 1486393573.30049 | 8/B0BE82D8               |           37325013720

 2017-02-06 16:06:14.379389+01 | 1486393574.37939 | 8/B12E5BF8               |           37332343800

 2017-02-06 16:06:15.460114+01 | 1486393575.46011 | 8/B19E3360               |           37339673440

 2017-02-06 16:06:16.53558+01 | 1486393576.53558 | 8/B208DAF8               |           37346663160

 2017-02-06 16:06:17.613546+01 | 1486393577.61355 | 8/B27A1240               |           37354082880

 2017-02-06 16:06:18.689231+01 | 1486393578.68923 | 8/B2E159D8               |           37360851416

 2017-02-06 16:06:19.770627+01 | 1486393579.77063 | 8/B3507F88               |           37368135560

 2017-02-06 16:06:20.84769+01 | 1486393580.84769 | 8/B3B5B7A8               |           37374769064

 2017-02-06 16:06:21.930234+01 | 1486393581.93023 | 8/B42613B8               |           37382132664

 2017-02-06 16:06:23.002391+01 | 1486393583.00239 | 8/B493A838               |           37389314104

 2017-02-06 16:06:24.073589+01 | 1486393584.07359 | 8/B4FFFA20               |           37396412960

 2017-02-06 16:06:25.150319+01 | 1486393585.15032 | 8/B5736110               |           37403975952

 2017-02-06 16:06:26.222524+01 | 1486393586.22252 | 8/B601EC80               |           37413317760

 2017-02-06 16:06:27.291391+01 | 1486393587.29139 | 8/B689B4E8               |           37422216424

 2017-02-06 16:06:28.370529+01 | 1486393588.37053 | 8/B711A278               |           37431124600

 2017-02-06 16:06:29.446315+01 | 1486393589.44632 | 8/B790DDA8               |           37439462824

 2017-02-06 16:06:30.523131+01 | 1486393590.52313 | 8/B80EE620               |           37447722528

 2017-02-06 16:06:31.594167+01 | 1486393591.59417 | 8/B8909AF0               |           37456222960

 2017-02-06 16:06:32.67395+01 | 1486393592.67395 | 8/B9103AA0               |           37464586912

 2017-02-06 16:06:33.748162+01 | 1486393593.74816 | 8/B9909730               |           37472999216

 2017-02-06 16:06:34.83004+01 | 1486393594.83004 | 8/BA070428               |           37480760360

 2017-02-06 16:06:35.917801+01 | 1486393595.9178 | 8/BA79CDF0               |           37488283120

 2017-02-06 16:06:36.99498+01 | 1486393596.99498 | 8/BAFD5218               |           37496902168

 2017-02-06 16:06:38.079123+01 | 1486393598.07912 | 8/BB726998               |           37504575896

 2017-02-06 16:06:39.155918+01 | 1486393599.15592 | 8/BBDF89A0               |           37511727520

 2017-02-06 16:06:40.222705+01 | 1486393600.2227 | 8/BC524168               |           37519245672

 2017-02-06 16:06:41.293296+01 | 1486393601.2933 | 8/BCC0C940               |           37526489408

 2017-02-06 16:06:42.367581+01 | 1486393602.36758 | 8/BD28DAB0               |           37533309616

 2017-02-06 16:06:43.438139+01 | 1486393603.43814 | 8/BD92DA58               |           37540256344

 2017-02-06 16:06:44.5216+01 | 1486393604.5216 | 8/BDFC37E8               |           37547161576

 2017-02-06 16:06:45.610928+01 | 1486393605.61093 | 8/BE68F058               |           37554286680

 2017-02-06 16:06:46.68919+01 | 1486393606.68919 | 8/BED6C740               |           37561485120

 2017-02-06 16:06:47.773716+01 | 1486393607.77372 | 8/BF411EE0               |           37568454368

 2017-02-06 16:06:48.853037+01 | 1486393608.85304 | 8/BFACCBD8               |           37575511000

 2017-02-06 16:06:49.931294+01 | 1486393609.93129 | 8/C01981A8               |           37582635432

 2017-02-06 16:06:50.99991+01 | 1486393610.99991 | 8/C08098F0               |           37589391600

 2017-02-06 16:06:52.083806+01 | 1486393612.08381 | 8/C0EBFF90               |           37596430224

 2017-02-06 16:06:53.170147+01 | 1486393613.17015 | 8/C1594028               |           37603590184

 2017-02-06 16:06:54.244048+01 | 1486393614.24405 | 8/C1C26A28               |           37610482216

 2017-02-06 16:06:55.318587+01 | 1486393615.31859 | 8/C2279860               |           37617113184

 2017-02-06 16:06:56.395798+01 | 1486393616.3958 | 8/C2912E70               |           37624032880

 2017-02-06 16:06:57.476066+01 | 1486393617.47607 | 8/C2F7C9B0               |           37630757296

 2017-02-06 16:06:58.552064+01 | 1486393618.55206 | 8/C3622600               |           37637727744

 2017-02-06 16:06:59.629538+01 | 1486393619.62954 | 8/C3CC49E8               |           37644683752

 2017-02-06 16:07:00.706352+01 | 1486393620.70635 | 8/C432F8B8               |           37651413176

 2017-02-06 16:07:01.785636+01 | 1486393621.78564 | 8/C49FBF68               |           37658541928

 2017-02-06 16:07:02.85743+01 | 1486393622.85743 | 8/C50DA808               |           37665744904

 2017-02-06 16:07:03.943555+01 | 1486393623.94356 | 8/C57A90E8               |           37672882408

 2017-02-06 16:07:05.019742+01 | 1486393625.01974 | 8/C5E492B0               |           37679829680

 2017-02-06 16:07:06.09489+01 | 1486393626.09489 | 8/C64FAD48               |           37686848840

 2017-02-06 16:07:07.178093+01 | 1486393627.17809 | 8/C6BD55B0               |           37694035376

 2017-02-06 16:07:08.253306+01 | 1486393628.25331 | 8/C72B73A8               |           37701252008

 2017-02-06 16:07:09.331615+01 | 1486393629.33161 | 8/C79D4C48               |           37708713032

 2017-02-06 16:07:10.415725+01 | 1486393630.41572 | 8/C80C23E8               |           37715977192

 2017-02-06 16:07:11.502929+01 | 1486393631.50293 | 8/C8733A88               |           37722733192

 2017-02-06 16:07:12.584537+01 | 1486393632.58454 | 8/C8DF2DD8               |           37729807832

 2017-02-06 16:07:13.661258+01 | 1486393633.66126 | 8/C9476B08               |           37736639240

 2017-02-06 16:07:14.736107+01 | 1486393634.73611 | 8/C9B221A8               |           37743632808

 2017-02-06 16:07:15.814156+01 | 1486393635.81416 | 8/CA1B83C8               |           37750539208

 2017-02-06 16:07:16.890984+01 | 1486393636.89098 | 8/CA8C0D00               |           37757914368

 2017-02-06 16:07:17.966498+01 | 1486393637.9665 | 8/CAF56290               |           37764817552

 2017-02-06 16:07:19.045346+01 | 1486393639.04535 | 8/CB5DD3D0               |           37771662288

 2017-02-06 16:07:20.124932+01 | 1486393640.12493 | 8/CBCC5620               |           37778904608

 2017-02-06 16:07:21.205341+01 | 1486393641.20534 | 8/CC3DCBD8               |           37786340312

 2017-02-06 16:07:22.280322+01 | 1486393642.28032 | 8/CCABE760               |           37793556320

 2017-02-06 16:07:23.353881+01 | 1486393643.35388 | 8/CD1D7D88               |           37801000328

 2017-02-06 16:07:24.431499+01 | 1486393644.4315 | 8/CD8B54B0               |           37808198832

 2017-02-06 16:07:25.508449+01 | 1486393645.50845 | 8/CE0C9A98               |           37816670872

 2017-02-06 16:07:26.58464+01 | 1486393646.58464 | 8/CE992810               |           37825882128

 2017-02-06 16:07:27.657971+01 | 1486393647.65797 | 8/CF237098               |           37834944664

 2017-02-06 16:07:28.729245+01 | 1486393648.72924 | 8/CFA7CCE8               |           37843619048

 2017-02-06 16:07:29.801989+01 | 1486393649.80199 | 8/D029D068               |           37852139624

 2017-02-06 16:07:30.873256+01 | 1486393650.87326 | 8/D0A96EB8               |           37860503224

 2017-02-06 16:07:31.94461+01 | 1486393651.94461 | 8/D12A5130               |           37868949808

 2017-02-06 16:07:33.020451+01 | 1486393653.02045 | 8/D1A944B8               |           37877269688

 2017-02-06 16:07:34.101623+01 | 1486393654.10162 | 8/D21FFED0               |           37885050576

 2017-02-06 16:07:35.177511+01 | 1486393655.17751 | 8/D2929AA0               |           37892561568

 2017-02-06 16:07:36.250968+01 | 1486393656.25097 | 8/D3079AE0               |           37900229344

 2017-02-06 16:07:37.326972+01 | 1486393657.32697 | 8/D384F7F0               |           37908445168

 2017-02-06 16:07:38.407562+01 | 1486393658.40756 | 8/D3EFDFF0               |           37915451376

 2017-02-06 16:07:39.485063+01 | 1486393659.48506 | 8/D457CC40               |           37922262080

 2017-02-06 16:07:40.570619+01 | 1486393660.57062 | 8/D4C2B510               |           37929268496

 2017-02-06 16:07:41.642785+01 | 1486393661.64279 | 8/D5270ED0               |           37935845072

 2017-02-06 16:07:42.719024+01 | 1486393662.71902 | 8/D58D37E0               |           37942540256

 2017-02-06 16:07:43.791467+01 | 1486393663.79147 | 8/D5F48BE8               |           37949312520

 2017-02-06 16:07:44.864587+01 | 1486393664.86459 | 8/D65C4E30               |           37956111920

 2017-02-06 16:07:45.939513+01 | 1486393665.93951 | 8/D6CA0310               |           37963301648

 2017-02-06 16:07:47.008868+01 | 1486393667.00887 | 8/D7324C48               |           37970136136

 2017-02-06 16:07:48.080032+01 | 1486393668.08003 | 8/D79D5148               |           37977149768

 2017-02-06 16:07:49.154629+01 | 1486393669.15463 | 8/D8017C28               |           37983714344

 2017-02-06 16:07:50.239517+01 | 1486393670.23952 | 8/D86954B0               |           37990519984

 2017-02-06 16:07:51.314243+01 | 1486393671.31424 | 8/D8D38CA0               |           37997481120

 2017-02-06 16:07:52.396152+01 | 1486393672.39615 | 8/D94113E8               |           38004659176

 2017-02-06 16:07:53.478789+01 | 1486393673.47879 | 8/D9ABDC18               |           38011657240

 2017-02-06 16:07:54.555026+01 | 1486393674.55503 | 8/DA158338               |           38018581304

 2017-02-06 16:07:55.629746+01 | 1486393675.62975 | 8/DA83D068               |           38025810024

 2017-02-06 16:07:56.703047+01 | 1486393676.70305 | 8/DAEADB20               |           38032562976

 2017-02-06 16:07:57.777322+01 | 1486393677.77732 | 8/DB5852F8               |           38039737080

 2017-02-06 16:07:58.853059+01 | 1486393678.85306 | 8/DBC2AEC8               |           38046707400

 2017-02-06 16:07:59.928873+01 | 1486393679.92887 | 8/DC2747E0               |           38053300192

 2017-02-06 16:08:01.001825+01 | 1486393681.00183 | 8/DC8DDEC8               |           38060023496

 2017-02-06 16:08:02.081327+01 | 1486393682.08133 | 8/DCF53EA8               |           38066798248

 2017-02-06 16:08:03.153071+01 | 1486393683.15307 | 8/DD5A59E0               |           38073424352

 2017-02-06 16:08:04.22721+01 | 1486393684.22721 | 8/DDC50170               |           38080414064

 2017-02-06 16:08:05.305408+01 | 1486393685.30541 | 8/DE316310               |           38087516944

 2017-02-06 16:08:06.382201+01 | 1486393686.3822 | 8/DE9B10E8               |           38094442728

 2017-02-06 16:08:07.458734+01 | 1486393687.45873 | 8/DF01B048               |           38101168200

 2017-02-06 16:08:08.530927+01 | 1486393688.53093 | 8/DF6D4550               |           38108218704

 2017-02-06 16:08:09.600826+01 | 1486393689.60083 | 8/DFD9B388               |           38115324808

 2017-02-06 16:08:10.676008+01 | 1486393690.67601 | 8/E04625B8               |           38122431928

 2017-02-06 16:08:11.748885+01 | 1486393691.74888 | 8/E0B10028               |           38129434664

 2017-02-06 16:08:12.821566+01 | 1486393692.82157 | 8/E116D180               |           38136107392

 2017-02-06 16:08:13.91121+01 | 1486393693.91121 | 8/E1821BC8               |           38143138760

 2017-02-06 16:08:14.984824+01 | 1486393694.98482 | 8/E1E99270               |           38149919344

 2017-02-06 16:08:16.061848+01 | 1486393696.06185 | 8/E25451C0               |           38156915136

 2017-02-06 16:08:17.132477+01 | 1486393697.13248 | 8/E2C18B40               |           38164073280

 2017-02-06 16:08:18.210826+01 | 1486393698.21083 | 8/E32D3B98               |           38171130776

 2017-02-06 16:08:19.283144+01 | 1486393699.28314 | 8/E3916F78               |           38177697656

 2017-02-06 16:08:20.35747+01 | 1486393700.35747 | 8/E3F94370               |           38184502128

 2017-02-06 16:08:21.431413+01 | 1486393701.43141 | 8/E45D7DB0               |           38191070640

 2017-02-06 16:08:22.513398+01 | 1486393702.5134 | 8/E4C4AC40               |           38197832768

 2017-02-06 16:08:23.58794+01 | 1486393703.58794 | 8/E52EFE68               |           38204800616

 2017-02-06 16:08:24.661331+01 | 1486393704.66133 | 8/E598FD00               |           38211747072

 2017-02-06 16:08:25.737619+01 | 1486393705.73762 | 8/E6041468               |           38218765416

 2017-02-06 16:08:26.812292+01 | 1486393706.81229 | 8/E66CB9F8               |           38225623544

 2017-02-06 16:08:27.887518+01 | 1486393707.88752 | 8/E6DBA4C8               |           38232892616

 2017-02-06 16:08:28.961994+01 | 1486393708.96199 | 8/E74A57A8               |           38240147368

 2017-02-06 16:08:30.038003+01 | 1486393710.038 | 8/E7B88210               |           38247367184

 2017-02-06 16:08:31.102418+01 | 1486393711.10242 | 8/E83DD458               |           38256104536

 2017-02-06 16:08:32.188506+01 | 1486393712.18851 | 8/E8C7C870               |           38265145456

 2017-02-06 16:08:33.272445+01 | 1486393713.27244 | 8/E94DFD80               |           38273940864

 2017-02-06 16:08:34.35045+01 | 1486393714.35045 | 8/E9CD1940               |           38282271040

 2017-02-06 16:08:35.426253+01 | 1486393715.42625 | 8/EA454528               |           38290146600

 2017-02-06 16:08:36.49817+01 | 1486393716.49817 | 8/EABD6F20               |           38298021664

 2017-02-06 16:08:37.571995+01 | 1486393717.572 | 8/EB323EC0               |           38305676992

 2017-02-06 16:08:38.645726+01 | 1486393718.64573 | 8/EBA51DE0               |           38313205216

 2017-02-06 16:08:39.721272+01 | 1486393719.72127 | 8/EC14A7D8               |           38320515032

