 2017-02-03 18:27:49.91367+01 | 1486142869.91367 | pgbench_accounts |       1342955520
 2017-02-03 18:27:49.91367+01 | 1486142869.91367 | pgbench_tellers  |            49152
 2017-02-03 18:27:49.91367+01 | 1486142869.91367 | pgbench_history  |                0
 2017-02-03 18:27:49.91367+01 | 1486142869.91367 | pgbench_branches |             8192

 2017-02-03 18:27:50.998871+01 | 1486142870.99887 | pgbench_accounts |       1342955520
 2017-02-03 18:27:50.998871+01 | 1486142870.99887 | pgbench_tellers  |            49152
 2017-02-03 18:27:50.998871+01 | 1486142870.99887 | pgbench_history  |                0
 2017-02-03 18:27:50.998871+01 | 1486142870.99887 | pgbench_branches |             8192

 2017-02-03 18:27:52.074752+01 | 1486142872.07475 | pgbench_accounts |       1342955520
 2017-02-03 18:27:52.074752+01 | 1486142872.07475 | pgbench_tellers  |            49152
 2017-02-03 18:27:52.074752+01 | 1486142872.07475 | pgbench_history  |                0
 2017-02-03 18:27:52.074752+01 | 1486142872.07475 | pgbench_branches |             8192

 2017-02-03 18:27:53.150808+01 | 1486142873.15081 | pgbench_accounts |       1342955520
 2017-02-03 18:27:53.150808+01 | 1486142873.15081 | pgbench_tellers  |            49152
 2017-02-03 18:27:53.150808+01 | 1486142873.15081 | pgbench_history  |                0
 2017-02-03 18:27:53.150808+01 | 1486142873.15081 | pgbench_branches |             8192

 2017-02-03 18:27:54.231237+01 | 1486142874.23124 | pgbench_accounts |       1342955520
 2017-02-03 18:27:54.231237+01 | 1486142874.23124 | pgbench_tellers  |            49152
 2017-02-03 18:27:54.231237+01 | 1486142874.23124 | pgbench_history  |                0
 2017-02-03 18:27:54.231237+01 | 1486142874.23124 | pgbench_branches |             8192

 2017-02-03 18:27:55.307159+01 | 1486142875.30716 | pgbench_accounts |       1342955520
 2017-02-03 18:27:55.307159+01 | 1486142875.30716 | pgbench_tellers  |            49152
 2017-02-03 18:27:55.307159+01 | 1486142875.30716 | pgbench_history  |                0
 2017-02-03 18:27:55.307159+01 | 1486142875.30716 | pgbench_branches |             8192

 2017-02-03 18:27:56.384314+01 | 1486142876.38431 | pgbench_accounts |       1342955520
 2017-02-03 18:27:56.384314+01 | 1486142876.38431 | pgbench_tellers  |            49152
 2017-02-03 18:27:56.384314+01 | 1486142876.38431 | pgbench_history  |                0
 2017-02-03 18:27:56.384314+01 | 1486142876.38431 | pgbench_branches |             8192

 2017-02-03 18:27:57.461191+01 | 1486142877.46119 | pgbench_accounts |       1342955520
 2017-02-03 18:27:57.461191+01 | 1486142877.46119 | pgbench_tellers  |            49152
 2017-02-03 18:27:57.461191+01 | 1486142877.46119 | pgbench_history  |                0
 2017-02-03 18:27:57.461191+01 | 1486142877.46119 | pgbench_branches |             8192

 2017-02-03 18:27:58.538604+01 | 1486142878.5386 | pgbench_accounts |       1342955520
 2017-02-03 18:27:58.538604+01 | 1486142878.5386 | pgbench_tellers  |            49152
 2017-02-03 18:27:58.538604+01 | 1486142878.5386 | pgbench_history  |                0
 2017-02-03 18:27:58.538604+01 | 1486142878.5386 | pgbench_branches |             8192

 2017-02-03 18:27:59.622864+01 | 1486142879.62286 | pgbench_accounts |       1342955520
 2017-02-03 18:27:59.622864+01 | 1486142879.62286 | pgbench_tellers  |            49152
 2017-02-03 18:27:59.622864+01 | 1486142879.62286 | pgbench_history  |                0
 2017-02-03 18:27:59.622864+01 | 1486142879.62286 | pgbench_branches |             8192

 2017-02-03 18:28:00.694305+01 | 1486142880.6943 | pgbench_accounts |       1342955520
 2017-02-03 18:28:00.694305+01 | 1486142880.6943 | pgbench_tellers  |            49152
 2017-02-03 18:28:00.694305+01 | 1486142880.6943 | pgbench_history  |                0
 2017-02-03 18:28:00.694305+01 | 1486142880.6943 | pgbench_branches |             8192

 2017-02-03 18:28:01.769649+01 | 1486142881.76965 | pgbench_accounts |       1342955520
 2017-02-03 18:28:01.769649+01 | 1486142881.76965 | pgbench_tellers  |            49152
 2017-02-03 18:28:01.769649+01 | 1486142881.76965 | pgbench_history  |                0
 2017-02-03 18:28:01.769649+01 | 1486142881.76965 | pgbench_branches |             8192

 2017-02-03 18:28:02.844133+01 | 1486142882.84413 | pgbench_accounts |       1342955520
 2017-02-03 18:28:02.844133+01 | 1486142882.84413 | pgbench_tellers  |            49152
 2017-02-03 18:28:02.844133+01 | 1486142882.84413 | pgbench_history  |                0
 2017-02-03 18:28:02.844133+01 | 1486142882.84413 | pgbench_branches |             8192

 2017-02-03 18:28:03.920208+01 | 1486142883.92021 | pgbench_accounts |       1342955520
 2017-02-03 18:28:03.920208+01 | 1486142883.92021 | pgbench_tellers  |            49152
 2017-02-03 18:28:03.920208+01 | 1486142883.92021 | pgbench_history  |                0
 2017-02-03 18:28:03.920208+01 | 1486142883.92021 | pgbench_branches |             8192

 2017-02-03 18:28:04.98758+01 | 1486142884.98758 | pgbench_accounts |       1342955520
 2017-02-03 18:28:04.98758+01 | 1486142884.98758 | pgbench_tellers  |            49152
 2017-02-03 18:28:04.98758+01 | 1486142884.98758 | pgbench_history  |                0
 2017-02-03 18:28:04.98758+01 | 1486142884.98758 | pgbench_branches |             8192

 2017-02-03 18:28:06.05964+01 | 1486142886.05964 | pgbench_accounts |       1342955520
 2017-02-03 18:28:06.05964+01 | 1486142886.05964 | pgbench_tellers  |            49152
 2017-02-03 18:28:06.05964+01 | 1486142886.05964 | pgbench_history  |                0
 2017-02-03 18:28:06.05964+01 | 1486142886.05964 | pgbench_branches |             8192

 2017-02-03 18:28:07.135775+01 | 1486142887.13578 | pgbench_accounts |       1342955520
 2017-02-03 18:28:07.135775+01 | 1486142887.13578 | pgbench_tellers  |            49152
 2017-02-03 18:28:07.135775+01 | 1486142887.13578 | pgbench_history  |                0
 2017-02-03 18:28:07.135775+01 | 1486142887.13578 | pgbench_branches |             8192

 2017-02-03 18:28:08.213899+01 | 1486142888.2139 | pgbench_accounts |       1342955520
 2017-02-03 18:28:08.213899+01 | 1486142888.2139 | pgbench_tellers  |            49152
 2017-02-03 18:28:08.213899+01 | 1486142888.2139 | pgbench_history  |                0
 2017-02-03 18:28:08.213899+01 | 1486142888.2139 | pgbench_branches |             8192

 2017-02-03 18:28:09.291948+01 | 1486142889.29195 | pgbench_accounts |       1342955520
 2017-02-03 18:28:09.291948+01 | 1486142889.29195 | pgbench_tellers  |            49152
 2017-02-03 18:28:09.291948+01 | 1486142889.29195 | pgbench_history  |                0
 2017-02-03 18:28:09.291948+01 | 1486142889.29195 | pgbench_branches |             8192

 2017-02-03 18:28:10.36656+01 | 1486142890.36656 | pgbench_accounts |       1342955520
 2017-02-03 18:28:10.36656+01 | 1486142890.36656 | pgbench_tellers  |            49152
 2017-02-03 18:28:10.36656+01 | 1486142890.36656 | pgbench_history  |                0
 2017-02-03 18:28:10.36656+01 | 1486142890.36656 | pgbench_branches |             8192

 2017-02-03 18:28:11.445552+01 | 1486142891.44555 | pgbench_accounts |       1342955520
 2017-02-03 18:28:11.445552+01 | 1486142891.44555 | pgbench_tellers  |            49152
 2017-02-03 18:28:11.445552+01 | 1486142891.44555 | pgbench_history  |                0
 2017-02-03 18:28:11.445552+01 | 1486142891.44555 | pgbench_branches |             8192

 2017-02-03 18:28:12.530638+01 | 1486142892.53064 | pgbench_accounts |       1342955520
 2017-02-03 18:28:12.530638+01 | 1486142892.53064 | pgbench_tellers  |            49152
 2017-02-03 18:28:12.530638+01 | 1486142892.53064 | pgbench_history  |                0
 2017-02-03 18:28:12.530638+01 | 1486142892.53064 | pgbench_branches |             8192

 2017-02-03 18:28:13.608871+01 | 1486142893.60887 | pgbench_accounts |       1342955520
 2017-02-03 18:28:13.608871+01 | 1486142893.60887 | pgbench_tellers  |            49152
 2017-02-03 18:28:13.608871+01 | 1486142893.60887 | pgbench_history  |                0
 2017-02-03 18:28:13.608871+01 | 1486142893.60887 | pgbench_branches |             8192

 2017-02-03 18:28:14.689694+01 | 1486142894.68969 | pgbench_accounts |       1342955520
 2017-02-03 18:28:14.689694+01 | 1486142894.68969 | pgbench_tellers  |            49152
 2017-02-03 18:28:14.689694+01 | 1486142894.68969 | pgbench_history  |                0
 2017-02-03 18:28:14.689694+01 | 1486142894.68969 | pgbench_branches |             8192

 2017-02-03 18:28:15.761086+01 | 1486142895.76109 | pgbench_accounts |       1342955520
 2017-02-03 18:28:15.761086+01 | 1486142895.76109 | pgbench_tellers  |            49152
 2017-02-03 18:28:15.761086+01 | 1486142895.76109 | pgbench_history  |                0
 2017-02-03 18:28:15.761086+01 | 1486142895.76109 | pgbench_branches |             8192

 2017-02-03 18:28:16.84211+01 | 1486142896.84211 | pgbench_accounts |       1342955520
 2017-02-03 18:28:16.84211+01 | 1486142896.84211 | pgbench_tellers  |            49152
 2017-02-03 18:28:16.84211+01 | 1486142896.84211 | pgbench_history  |                0
 2017-02-03 18:28:16.84211+01 | 1486142896.84211 | pgbench_branches |             8192

 2017-02-03 18:28:17.916024+01 | 1486142897.91602 | pgbench_accounts |       1342955520
 2017-02-03 18:28:17.916024+01 | 1486142897.91602 | pgbench_tellers  |            49152
 2017-02-03 18:28:17.916024+01 | 1486142897.91602 | pgbench_history  |                0
 2017-02-03 18:28:17.916024+01 | 1486142897.91602 | pgbench_branches |             8192

 2017-02-03 18:28:18.992457+01 | 1486142898.99246 | pgbench_accounts |       1342955520
 2017-02-03 18:28:18.992457+01 | 1486142898.99246 | pgbench_tellers  |            49152
 2017-02-03 18:28:18.992457+01 | 1486142898.99246 | pgbench_history  |                0
 2017-02-03 18:28:18.992457+01 | 1486142898.99246 | pgbench_branches |             8192

 2017-02-03 18:28:20.073204+01 | 1486142900.0732 | pgbench_accounts |       1342955520
 2017-02-03 18:28:20.073204+01 | 1486142900.0732 | pgbench_tellers  |            49152
 2017-02-03 18:28:20.073204+01 | 1486142900.0732 | pgbench_history  |                0
 2017-02-03 18:28:20.073204+01 | 1486142900.0732 | pgbench_branches |             8192

 2017-02-03 18:28:21.151693+01 | 1486142901.15169 | pgbench_accounts |       1342955520
 2017-02-03 18:28:21.151693+01 | 1486142901.15169 | pgbench_tellers  |            49152
 2017-02-03 18:28:21.151693+01 | 1486142901.15169 | pgbench_history  |                0
 2017-02-03 18:28:21.151693+01 | 1486142901.15169 | pgbench_branches |             8192

 2017-02-03 18:28:22.227255+01 | 1486142902.22726 | pgbench_accounts |       1342955520
 2017-02-03 18:28:22.227255+01 | 1486142902.22726 | pgbench_tellers  |            49152
 2017-02-03 18:28:22.227255+01 | 1486142902.22726 | pgbench_history  |                0
 2017-02-03 18:28:22.227255+01 | 1486142902.22726 | pgbench_branches |             8192

 2017-02-03 18:28:23.304963+01 | 1486142903.30496 | pgbench_accounts |       1342955520
 2017-02-03 18:28:23.304963+01 | 1486142903.30496 | pgbench_tellers  |            49152
 2017-02-03 18:28:23.304963+01 | 1486142903.30496 | pgbench_history  |                0
 2017-02-03 18:28:23.304963+01 | 1486142903.30496 | pgbench_branches |             8192

 2017-02-03 18:28:24.383704+01 | 1486142904.3837 | pgbench_accounts |       1342955520
 2017-02-03 18:28:24.383704+01 | 1486142904.3837 | pgbench_tellers  |            49152
 2017-02-03 18:28:24.383704+01 | 1486142904.3837 | pgbench_history  |                0
 2017-02-03 18:28:24.383704+01 | 1486142904.3837 | pgbench_branches |             8192

 2017-02-03 18:28:25.465722+01 | 1486142905.46572 | pgbench_accounts |       1342955520
 2017-02-03 18:28:25.465722+01 | 1486142905.46572 | pgbench_tellers  |            49152
 2017-02-03 18:28:25.465722+01 | 1486142905.46572 | pgbench_history  |                0
 2017-02-03 18:28:25.465722+01 | 1486142905.46572 | pgbench_branches |             8192

 2017-02-03 18:28:26.541251+01 | 1486142906.54125 | pgbench_accounts |       1342955520
 2017-02-03 18:28:26.541251+01 | 1486142906.54125 | pgbench_tellers  |            49152
 2017-02-03 18:28:26.541251+01 | 1486142906.54125 | pgbench_history  |                0
 2017-02-03 18:28:26.541251+01 | 1486142906.54125 | pgbench_branches |             8192

 2017-02-03 18:28:27.610881+01 | 1486142907.61088 | pgbench_accounts |       1342955520
 2017-02-03 18:28:27.610881+01 | 1486142907.61088 | pgbench_tellers  |            49152
 2017-02-03 18:28:27.610881+01 | 1486142907.61088 | pgbench_history  |                0
 2017-02-03 18:28:27.610881+01 | 1486142907.61088 | pgbench_branches |             8192

 2017-02-03 18:28:28.688397+01 | 1486142908.6884 | pgbench_accounts |       1342955520
 2017-02-03 18:28:28.688397+01 | 1486142908.6884 | pgbench_tellers  |            49152
 2017-02-03 18:28:28.688397+01 | 1486142908.6884 | pgbench_history  |                0
 2017-02-03 18:28:28.688397+01 | 1486142908.6884 | pgbench_branches |             8192

 2017-02-03 18:28:29.769721+01 | 1486142909.76972 | pgbench_accounts |       1342955520
 2017-02-03 18:28:29.769721+01 | 1486142909.76972 | pgbench_tellers  |            49152
 2017-02-03 18:28:29.769721+01 | 1486142909.76972 | pgbench_history  |                0
 2017-02-03 18:28:29.769721+01 | 1486142909.76972 | pgbench_branches |             8192

 2017-02-03 18:28:30.854632+01 | 1486142910.85463 | pgbench_accounts |       1342955520
 2017-02-03 18:28:30.854632+01 | 1486142910.85463 | pgbench_tellers  |            49152
 2017-02-03 18:28:30.854632+01 | 1486142910.85463 | pgbench_history  |                0
 2017-02-03 18:28:30.854632+01 | 1486142910.85463 | pgbench_branches |             8192

 2017-02-03 18:28:31.92989+01 | 1486142911.92989 | pgbench_accounts |       1342955520
 2017-02-03 18:28:31.92989+01 | 1486142911.92989 | pgbench_tellers  |            49152
 2017-02-03 18:28:31.92989+01 | 1486142911.92989 | pgbench_history  |                0
 2017-02-03 18:28:31.92989+01 | 1486142911.92989 | pgbench_branches |             8192

 2017-02-03 18:28:33.008941+01 | 1486142913.00894 | pgbench_accounts |       1342955520
 2017-02-03 18:28:33.008941+01 | 1486142913.00894 | pgbench_tellers  |            49152
 2017-02-03 18:28:33.008941+01 | 1486142913.00894 | pgbench_history  |                0
 2017-02-03 18:28:33.008941+01 | 1486142913.00894 | pgbench_branches |             8192

 2017-02-03 18:28:34.090284+01 | 1486142914.09028 | pgbench_accounts |       1342955520
 2017-02-03 18:28:34.090284+01 | 1486142914.09028 | pgbench_tellers  |            49152
 2017-02-03 18:28:34.090284+01 | 1486142914.09028 | pgbench_history  |                0
 2017-02-03 18:28:34.090284+01 | 1486142914.09028 | pgbench_branches |             8192

 2017-02-03 18:28:35.170042+01 | 1486142915.17004 | pgbench_accounts |       1342955520
 2017-02-03 18:28:35.170042+01 | 1486142915.17004 | pgbench_tellers  |            49152
 2017-02-03 18:28:35.170042+01 | 1486142915.17004 | pgbench_history  |                0
 2017-02-03 18:28:35.170042+01 | 1486142915.17004 | pgbench_branches |             8192

 2017-02-03 18:28:36.24033+01 | 1486142916.24033 | pgbench_accounts |       1342955520
 2017-02-03 18:28:36.24033+01 | 1486142916.24033 | pgbench_tellers  |            49152
 2017-02-03 18:28:36.24033+01 | 1486142916.24033 | pgbench_history  |                0
 2017-02-03 18:28:36.24033+01 | 1486142916.24033 | pgbench_branches |             8192

 2017-02-03 18:28:37.314059+01 | 1486142917.31406 | pgbench_accounts |       1342955520
 2017-02-03 18:28:37.314059+01 | 1486142917.31406 | pgbench_tellers  |            49152
 2017-02-03 18:28:37.314059+01 | 1486142917.31406 | pgbench_history  |                0
 2017-02-03 18:28:37.314059+01 | 1486142917.31406 | pgbench_branches |             8192

 2017-02-03 18:28:38.387231+01 | 1486142918.38723 | pgbench_accounts |       1342955520
 2017-02-03 18:28:38.387231+01 | 1486142918.38723 | pgbench_tellers  |            49152
 2017-02-03 18:28:38.387231+01 | 1486142918.38723 | pgbench_history  |                0
 2017-02-03 18:28:38.387231+01 | 1486142918.38723 | pgbench_branches |             8192

 2017-02-03 18:28:39.468597+01 | 1486142919.4686 | pgbench_accounts |       1342955520
 2017-02-03 18:28:39.468597+01 | 1486142919.4686 | pgbench_tellers  |            49152
 2017-02-03 18:28:39.468597+01 | 1486142919.4686 | pgbench_history  |                0
 2017-02-03 18:28:39.468597+01 | 1486142919.4686 | pgbench_branches |             8192

 2017-02-03 18:28:40.549215+01 | 1486142920.54922 | pgbench_accounts |       1342955520
 2017-02-03 18:28:40.549215+01 | 1486142920.54922 | pgbench_tellers  |            49152
 2017-02-03 18:28:40.549215+01 | 1486142920.54922 | pgbench_history  |                0
 2017-02-03 18:28:40.549215+01 | 1486142920.54922 | pgbench_branches |             8192

 2017-02-03 18:28:41.623985+01 | 1486142921.62399 | pgbench_accounts |       1342955520
 2017-02-03 18:28:41.623985+01 | 1486142921.62399 | pgbench_tellers  |            49152
 2017-02-03 18:28:41.623985+01 | 1486142921.62399 | pgbench_history  |                0
 2017-02-03 18:28:41.623985+01 | 1486142921.62399 | pgbench_branches |             8192

 2017-02-03 18:28:42.702195+01 | 1486142922.70219 | pgbench_accounts |       1342955520
 2017-02-03 18:28:42.702195+01 | 1486142922.70219 | pgbench_tellers  |            49152
 2017-02-03 18:28:42.702195+01 | 1486142922.70219 | pgbench_history  |                0
 2017-02-03 18:28:42.702195+01 | 1486142922.70219 | pgbench_branches |             8192

 2017-02-03 18:28:43.786278+01 | 1486142923.78628 | pgbench_accounts |       1342955520
 2017-02-03 18:28:43.786278+01 | 1486142923.78628 | pgbench_tellers  |            49152
 2017-02-03 18:28:43.786278+01 | 1486142923.78628 | pgbench_history  |                0
 2017-02-03 18:28:43.786278+01 | 1486142923.78628 | pgbench_branches |             8192

 2017-02-03 18:28:44.865171+01 | 1486142924.86517 | pgbench_accounts |       1342955520
 2017-02-03 18:28:44.865171+01 | 1486142924.86517 | pgbench_tellers  |            49152
 2017-02-03 18:28:44.865171+01 | 1486142924.86517 | pgbench_history  |                0
 2017-02-03 18:28:44.865171+01 | 1486142924.86517 | pgbench_branches |             8192

 2017-02-03 18:28:45.946237+01 | 1486142925.94624 | pgbench_accounts |       1342955520
 2017-02-03 18:28:45.946237+01 | 1486142925.94624 | pgbench_tellers  |            49152
 2017-02-03 18:28:45.946237+01 | 1486142925.94624 | pgbench_history  |                0
 2017-02-03 18:28:45.946237+01 | 1486142925.94624 | pgbench_branches |             8192

 2017-02-03 18:28:47.026201+01 | 1486142927.0262 | pgbench_accounts |       1342955520
 2017-02-03 18:28:47.026201+01 | 1486142927.0262 | pgbench_tellers  |            49152
 2017-02-03 18:28:47.026201+01 | 1486142927.0262 | pgbench_history  |                0
 2017-02-03 18:28:47.026201+01 | 1486142927.0262 | pgbench_branches |             8192

 2017-02-03 18:28:48.101691+01 | 1486142928.10169 | pgbench_accounts |       1342955520
 2017-02-03 18:28:48.101691+01 | 1486142928.10169 | pgbench_tellers  |            49152
 2017-02-03 18:28:48.101691+01 | 1486142928.10169 | pgbench_history  |                0
 2017-02-03 18:28:48.101691+01 | 1486142928.10169 | pgbench_branches |             8192

 2017-02-03 18:28:49.18177+01 | 1486142929.18177 | pgbench_accounts |       1342955520
 2017-02-03 18:28:49.18177+01 | 1486142929.18177 | pgbench_tellers  |            49152
 2017-02-03 18:28:49.18177+01 | 1486142929.18177 | pgbench_history  |                0
 2017-02-03 18:28:49.18177+01 | 1486142929.18177 | pgbench_branches |             8192

 2017-02-03 18:28:50.259588+01 | 1486142930.25959 | pgbench_accounts |       1342955520
 2017-02-03 18:28:50.259588+01 | 1486142930.25959 | pgbench_tellers  |            49152
 2017-02-03 18:28:50.259588+01 | 1486142930.25959 | pgbench_history  |                0
 2017-02-03 18:28:50.259588+01 | 1486142930.25959 | pgbench_branches |             8192

 2017-02-03 18:28:51.338224+01 | 1486142931.33822 | pgbench_accounts |       1342955520
 2017-02-03 18:28:51.338224+01 | 1486142931.33822 | pgbench_tellers  |            49152
 2017-02-03 18:28:51.338224+01 | 1486142931.33822 | pgbench_history  |                0
 2017-02-03 18:28:51.338224+01 | 1486142931.33822 | pgbench_branches |             8192

 2017-02-03 18:28:52.411283+01 | 1486142932.41128 | pgbench_accounts |       1342955520
 2017-02-03 18:28:52.411283+01 | 1486142932.41128 | pgbench_tellers  |            49152
 2017-02-03 18:28:52.411283+01 | 1486142932.41128 | pgbench_history  |                0
 2017-02-03 18:28:52.411283+01 | 1486142932.41128 | pgbench_branches |             8192

 2017-02-03 18:28:53.486112+01 | 1486142933.48611 | pgbench_accounts |       1342955520
 2017-02-03 18:28:53.486112+01 | 1486142933.48611 | pgbench_tellers  |            49152
 2017-02-03 18:28:53.486112+01 | 1486142933.48611 | pgbench_history  |                0
 2017-02-03 18:28:53.486112+01 | 1486142933.48611 | pgbench_branches |             8192

 2017-02-03 18:28:54.566814+01 | 1486142934.56681 | pgbench_accounts |       1342955520
 2017-02-03 18:28:54.566814+01 | 1486142934.56681 | pgbench_tellers  |            49152
 2017-02-03 18:28:54.566814+01 | 1486142934.56681 | pgbench_history  |                0
 2017-02-03 18:28:54.566814+01 | 1486142934.56681 | pgbench_branches |             8192

 2017-02-03 18:28:55.646062+01 | 1486142935.64606 | pgbench_accounts |       1342955520
 2017-02-03 18:28:55.646062+01 | 1486142935.64606 | pgbench_tellers  |            49152
 2017-02-03 18:28:55.646062+01 | 1486142935.64606 | pgbench_history  |                0
 2017-02-03 18:28:55.646062+01 | 1486142935.64606 | pgbench_branches |             8192

 2017-02-03 18:28:56.722809+01 | 1486142936.72281 | pgbench_accounts |       1342955520
 2017-02-03 18:28:56.722809+01 | 1486142936.72281 | pgbench_tellers  |            49152
 2017-02-03 18:28:56.722809+01 | 1486142936.72281 | pgbench_history  |                0
 2017-02-03 18:28:56.722809+01 | 1486142936.72281 | pgbench_branches |             8192

 2017-02-03 18:28:57.800776+01 | 1486142937.80078 | pgbench_accounts |       1342955520
 2017-02-03 18:28:57.800776+01 | 1486142937.80078 | pgbench_tellers  |            49152
 2017-02-03 18:28:57.800776+01 | 1486142937.80078 | pgbench_history  |                0
 2017-02-03 18:28:57.800776+01 | 1486142937.80078 | pgbench_branches |             8192

 2017-02-03 18:28:58.880505+01 | 1486142938.88051 | pgbench_accounts |       1342955520
 2017-02-03 18:28:58.880505+01 | 1486142938.88051 | pgbench_tellers  |            49152
 2017-02-03 18:28:58.880505+01 | 1486142938.88051 | pgbench_history  |                0
 2017-02-03 18:28:58.880505+01 | 1486142938.88051 | pgbench_branches |             8192

 2017-02-03 18:28:59.961953+01 | 1486142939.96195 | pgbench_accounts |       1342955520
 2017-02-03 18:28:59.961953+01 | 1486142939.96195 | pgbench_tellers  |            49152
 2017-02-03 18:28:59.961953+01 | 1486142939.96195 | pgbench_history  |                0
 2017-02-03 18:28:59.961953+01 | 1486142939.96195 | pgbench_branches |             8192

 2017-02-03 18:29:01.047749+01 | 1486142941.04775 | pgbench_accounts |       1342955520
 2017-02-03 18:29:01.047749+01 | 1486142941.04775 | pgbench_tellers  |            49152
 2017-02-03 18:29:01.047749+01 | 1486142941.04775 | pgbench_history  |                0
 2017-02-03 18:29:01.047749+01 | 1486142941.04775 | pgbench_branches |             8192

 2017-02-03 18:29:02.133359+01 | 1486142942.13336 | pgbench_accounts |       1342955520
 2017-02-03 18:29:02.133359+01 | 1486142942.13336 | pgbench_tellers  |            49152
 2017-02-03 18:29:02.133359+01 | 1486142942.13336 | pgbench_history  |                0
 2017-02-03 18:29:02.133359+01 | 1486142942.13336 | pgbench_branches |             8192

 2017-02-03 18:29:03.213357+01 | 1486142943.21336 | pgbench_accounts |       1342955520
 2017-02-03 18:29:03.213357+01 | 1486142943.21336 | pgbench_tellers  |            49152
 2017-02-03 18:29:03.213357+01 | 1486142943.21336 | pgbench_history  |                0
 2017-02-03 18:29:03.213357+01 | 1486142943.21336 | pgbench_branches |             8192

 2017-02-03 18:29:04.29139+01 | 1486142944.29139 | pgbench_accounts |       1342955520
 2017-02-03 18:29:04.29139+01 | 1486142944.29139 | pgbench_tellers  |            49152
 2017-02-03 18:29:04.29139+01 | 1486142944.29139 | pgbench_history  |                0
 2017-02-03 18:29:04.29139+01 | 1486142944.29139 | pgbench_branches |             8192

 2017-02-03 18:29:05.363764+01 | 1486142945.36376 | pgbench_accounts |       1342955520
 2017-02-03 18:29:05.363764+01 | 1486142945.36376 | pgbench_tellers  |            49152
 2017-02-03 18:29:05.363764+01 | 1486142945.36376 | pgbench_history  |                0
 2017-02-03 18:29:05.363764+01 | 1486142945.36376 | pgbench_branches |             8192

 2017-02-03 18:29:06.433886+01 | 1486142946.43389 | pgbench_accounts |       1342955520
 2017-02-03 18:29:06.433886+01 | 1486142946.43389 | pgbench_tellers  |            49152
 2017-02-03 18:29:06.433886+01 | 1486142946.43389 | pgbench_history  |                0
 2017-02-03 18:29:06.433886+01 | 1486142946.43389 | pgbench_branches |             8192

 2017-02-03 18:29:07.510853+01 | 1486142947.51085 | pgbench_accounts |       1342955520
 2017-02-03 18:29:07.510853+01 | 1486142947.51085 | pgbench_tellers  |            49152
 2017-02-03 18:29:07.510853+01 | 1486142947.51085 | pgbench_history  |                0
 2017-02-03 18:29:07.510853+01 | 1486142947.51085 | pgbench_branches |             8192

 2017-02-03 18:29:08.581616+01 | 1486142948.58162 | pgbench_accounts |       1342955520
 2017-02-03 18:29:08.581616+01 | 1486142948.58162 | pgbench_tellers  |            49152
 2017-02-03 18:29:08.581616+01 | 1486142948.58162 | pgbench_history  |                0
 2017-02-03 18:29:08.581616+01 | 1486142948.58162 | pgbench_branches |             8192

 2017-02-03 18:29:09.659631+01 | 1486142949.65963 | pgbench_accounts |       1342955520
 2017-02-03 18:29:09.659631+01 | 1486142949.65963 | pgbench_tellers  |            49152
 2017-02-03 18:29:09.659631+01 | 1486142949.65963 | pgbench_history  |                0
 2017-02-03 18:29:09.659631+01 | 1486142949.65963 | pgbench_branches |             8192

 2017-02-03 18:29:10.734285+01 | 1486142950.73429 | pgbench_accounts |       1342955520
 2017-02-03 18:29:10.734285+01 | 1486142950.73429 | pgbench_tellers  |            49152
 2017-02-03 18:29:10.734285+01 | 1486142950.73429 | pgbench_history  |                0
 2017-02-03 18:29:10.734285+01 | 1486142950.73429 | pgbench_branches |             8192

 2017-02-03 18:29:11.819522+01 | 1486142951.81952 | pgbench_accounts |       1342955520
 2017-02-03 18:29:11.819522+01 | 1486142951.81952 | pgbench_tellers  |            49152
 2017-02-03 18:29:11.819522+01 | 1486142951.81952 | pgbench_history  |                0
 2017-02-03 18:29:11.819522+01 | 1486142951.81952 | pgbench_branches |             8192

 2017-02-03 18:29:12.891358+01 | 1486142952.89136 | pgbench_accounts |       1342955520
 2017-02-03 18:29:12.891358+01 | 1486142952.89136 | pgbench_tellers  |            49152
 2017-02-03 18:29:12.891358+01 | 1486142952.89136 | pgbench_history  |                0
 2017-02-03 18:29:12.891358+01 | 1486142952.89136 | pgbench_branches |             8192

 2017-02-03 18:29:13.965158+01 | 1486142953.96516 | pgbench_accounts |       1342955520
 2017-02-03 18:29:13.965158+01 | 1486142953.96516 | pgbench_tellers  |            49152
 2017-02-03 18:29:13.965158+01 | 1486142953.96516 | pgbench_history  |                0
 2017-02-03 18:29:13.965158+01 | 1486142953.96516 | pgbench_branches |             8192

 2017-02-03 18:29:15.042194+01 | 1486142955.04219 | pgbench_accounts |       1342955520
 2017-02-03 18:29:15.042194+01 | 1486142955.04219 | pgbench_tellers  |            49152
 2017-02-03 18:29:15.042194+01 | 1486142955.04219 | pgbench_history  |                0
 2017-02-03 18:29:15.042194+01 | 1486142955.04219 | pgbench_branches |             8192

 2017-02-03 18:29:16.115651+01 | 1486142956.11565 | pgbench_accounts |       1342955520
 2017-02-03 18:29:16.115651+01 | 1486142956.11565 | pgbench_tellers  |            49152
 2017-02-03 18:29:16.115651+01 | 1486142956.11565 | pgbench_history  |                0
 2017-02-03 18:29:16.115651+01 | 1486142956.11565 | pgbench_branches |             8192

 2017-02-03 18:29:17.190457+01 | 1486142957.19046 | pgbench_accounts |       1342955520
 2017-02-03 18:29:17.190457+01 | 1486142957.19046 | pgbench_tellers  |            49152
 2017-02-03 18:29:17.190457+01 | 1486142957.19046 | pgbench_history  |                0
 2017-02-03 18:29:17.190457+01 | 1486142957.19046 | pgbench_branches |             8192

 2017-02-03 18:29:18.262882+01 | 1486142958.26288 | pgbench_accounts |       1342955520
 2017-02-03 18:29:18.262882+01 | 1486142958.26288 | pgbench_tellers  |            49152
 2017-02-03 18:29:18.262882+01 | 1486142958.26288 | pgbench_history  |                0
 2017-02-03 18:29:18.262882+01 | 1486142958.26288 | pgbench_branches |             8192

 2017-02-03 18:29:19.34278+01 | 1486142959.34278 | pgbench_accounts |       1342955520
 2017-02-03 18:29:19.34278+01 | 1486142959.34278 | pgbench_tellers  |            49152
 2017-02-03 18:29:19.34278+01 | 1486142959.34278 | pgbench_history  |                0
 2017-02-03 18:29:19.34278+01 | 1486142959.34278 | pgbench_branches |             8192

 2017-02-03 18:29:20.421816+01 | 1486142960.42182 | pgbench_accounts |       1342955520
 2017-02-03 18:29:20.421816+01 | 1486142960.42182 | pgbench_tellers  |            49152
 2017-02-03 18:29:20.421816+01 | 1486142960.42182 | pgbench_history  |                0
 2017-02-03 18:29:20.421816+01 | 1486142960.42182 | pgbench_branches |             8192

 2017-02-03 18:29:21.508464+01 | 1486142961.50846 | pgbench_accounts |       1342955520
 2017-02-03 18:29:21.508464+01 | 1486142961.50846 | pgbench_tellers  |            49152
 2017-02-03 18:29:21.508464+01 | 1486142961.50846 | pgbench_history  |                0
 2017-02-03 18:29:21.508464+01 | 1486142961.50846 | pgbench_branches |             8192

 2017-02-03 18:29:22.591865+01 | 1486142962.59187 | pgbench_accounts |       1342955520
 2017-02-03 18:29:22.591865+01 | 1486142962.59187 | pgbench_tellers  |            49152
 2017-02-03 18:29:22.591865+01 | 1486142962.59187 | pgbench_history  |                0
 2017-02-03 18:29:22.591865+01 | 1486142962.59187 | pgbench_branches |             8192

 2017-02-03 18:29:23.673663+01 | 1486142963.67366 | pgbench_accounts |       1342955520
 2017-02-03 18:29:23.673663+01 | 1486142963.67366 | pgbench_tellers  |            49152
 2017-02-03 18:29:23.673663+01 | 1486142963.67366 | pgbench_history  |                0
 2017-02-03 18:29:23.673663+01 | 1486142963.67366 | pgbench_branches |             8192

 2017-02-03 18:29:24.751468+01 | 1486142964.75147 | pgbench_accounts |       1342955520
 2017-02-03 18:29:24.751468+01 | 1486142964.75147 | pgbench_tellers  |            49152
 2017-02-03 18:29:24.751468+01 | 1486142964.75147 | pgbench_history  |                0
 2017-02-03 18:29:24.751468+01 | 1486142964.75147 | pgbench_branches |             8192

 2017-02-03 18:29:25.826985+01 | 1486142965.82698 | pgbench_accounts |       1342955520
 2017-02-03 18:29:25.826985+01 | 1486142965.82698 | pgbench_tellers  |            49152
 2017-02-03 18:29:25.826985+01 | 1486142965.82698 | pgbench_history  |                0
 2017-02-03 18:29:25.826985+01 | 1486142965.82698 | pgbench_branches |             8192

 2017-02-03 18:29:26.906097+01 | 1486142966.9061 | pgbench_accounts |       1342955520
 2017-02-03 18:29:26.906097+01 | 1486142966.9061 | pgbench_tellers  |            49152
 2017-02-03 18:29:26.906097+01 | 1486142966.9061 | pgbench_history  |                0
 2017-02-03 18:29:26.906097+01 | 1486142966.9061 | pgbench_branches |             8192

 2017-02-03 18:29:27.989014+01 | 1486142967.98901 | pgbench_accounts |       1342955520
 2017-02-03 18:29:27.989014+01 | 1486142967.98901 | pgbench_tellers  |            49152
 2017-02-03 18:29:27.989014+01 | 1486142967.98901 | pgbench_history  |                0
 2017-02-03 18:29:27.989014+01 | 1486142967.98901 | pgbench_branches |             8192

 2017-02-03 18:29:29.0633+01 | 1486142969.0633 | pgbench_accounts |       1342955520
 2017-02-03 18:29:29.0633+01 | 1486142969.0633 | pgbench_tellers  |            49152
 2017-02-03 18:29:29.0633+01 | 1486142969.0633 | pgbench_history  |                0
 2017-02-03 18:29:29.0633+01 | 1486142969.0633 | pgbench_branches |             8192

 2017-02-03 18:29:30.138121+01 | 1486142970.13812 | pgbench_accounts |       1342955520
 2017-02-03 18:29:30.138121+01 | 1486142970.13812 | pgbench_tellers  |            49152
 2017-02-03 18:29:30.138121+01 | 1486142970.13812 | pgbench_history  |                0
 2017-02-03 18:29:30.138121+01 | 1486142970.13812 | pgbench_branches |             8192

 2017-02-03 18:29:31.211647+01 | 1486142971.21165 | pgbench_accounts |       1342955520
 2017-02-03 18:29:31.211647+01 | 1486142971.21165 | pgbench_tellers  |            49152
 2017-02-03 18:29:31.211647+01 | 1486142971.21165 | pgbench_history  |                0
 2017-02-03 18:29:31.211647+01 | 1486142971.21165 | pgbench_branches |             8192

 2017-02-03 18:29:32.288026+01 | 1486142972.28803 | pgbench_accounts |       1342955520
 2017-02-03 18:29:32.288026+01 | 1486142972.28803 | pgbench_tellers  |            49152
 2017-02-03 18:29:32.288026+01 | 1486142972.28803 | pgbench_history  |                0
 2017-02-03 18:29:32.288026+01 | 1486142972.28803 | pgbench_branches |             8192

 2017-02-03 18:29:33.372071+01 | 1486142973.37207 | pgbench_accounts |       1342955520
 2017-02-03 18:29:33.372071+01 | 1486142973.37207 | pgbench_tellers  |            49152
 2017-02-03 18:29:33.372071+01 | 1486142973.37207 | pgbench_history  |                0
 2017-02-03 18:29:33.372071+01 | 1486142973.37207 | pgbench_branches |             8192

 2017-02-03 18:29:34.444059+01 | 1486142974.44406 | pgbench_accounts |       1342955520
 2017-02-03 18:29:34.444059+01 | 1486142974.44406 | pgbench_tellers  |            49152
 2017-02-03 18:29:34.444059+01 | 1486142974.44406 | pgbench_history  |                0
 2017-02-03 18:29:34.444059+01 | 1486142974.44406 | pgbench_branches |             8192

 2017-02-03 18:29:35.521671+01 | 1486142975.52167 | pgbench_accounts |       1342955520
 2017-02-03 18:29:35.521671+01 | 1486142975.52167 | pgbench_tellers  |            49152
 2017-02-03 18:29:35.521671+01 | 1486142975.52167 | pgbench_history  |                0
 2017-02-03 18:29:35.521671+01 | 1486142975.52167 | pgbench_branches |             8192

 2017-02-03 18:29:36.60071+01 | 1486142976.60071 | pgbench_accounts |       1342955520
 2017-02-03 18:29:36.60071+01 | 1486142976.60071 | pgbench_tellers  |            49152
 2017-02-03 18:29:36.60071+01 | 1486142976.60071 | pgbench_history  |                0
 2017-02-03 18:29:36.60071+01 | 1486142976.60071 | pgbench_branches |             8192

 2017-02-03 18:29:37.683881+01 | 1486142977.68388 | pgbench_accounts |       1342955520
 2017-02-03 18:29:37.683881+01 | 1486142977.68388 | pgbench_tellers  |            49152
 2017-02-03 18:29:37.683881+01 | 1486142977.68388 | pgbench_history  |                0
 2017-02-03 18:29:37.683881+01 | 1486142977.68388 | pgbench_branches |             8192

 2017-02-03 18:29:38.762342+01 | 1486142978.76234 | pgbench_accounts |       1342955520
 2017-02-03 18:29:38.762342+01 | 1486142978.76234 | pgbench_tellers  |            49152
 2017-02-03 18:29:38.762342+01 | 1486142978.76234 | pgbench_history  |                0
 2017-02-03 18:29:38.762342+01 | 1486142978.76234 | pgbench_branches |             8192

 2017-02-03 18:29:39.841372+01 | 1486142979.84137 | pgbench_accounts |       1342955520
 2017-02-03 18:29:39.841372+01 | 1486142979.84137 | pgbench_tellers  |            49152
 2017-02-03 18:29:39.841372+01 | 1486142979.84137 | pgbench_history  |                0
 2017-02-03 18:29:39.841372+01 | 1486142979.84137 | pgbench_branches |             8192

 2017-02-03 18:29:40.923668+01 | 1486142980.92367 | pgbench_accounts |       1342955520
 2017-02-03 18:29:40.923668+01 | 1486142980.92367 | pgbench_tellers  |            49152
 2017-02-03 18:29:40.923668+01 | 1486142980.92367 | pgbench_history  |                0
 2017-02-03 18:29:40.923668+01 | 1486142980.92367 | pgbench_branches |             8192

 2017-02-03 18:29:42.005111+01 | 1486142982.00511 | pgbench_accounts |       1342955520
 2017-02-03 18:29:42.005111+01 | 1486142982.00511 | pgbench_tellers  |            49152
 2017-02-03 18:29:42.005111+01 | 1486142982.00511 | pgbench_history  |                0
 2017-02-03 18:29:42.005111+01 | 1486142982.00511 | pgbench_branches |             8192

 2017-02-03 18:29:43.076981+01 | 1486142983.07698 | pgbench_accounts |       1342955520
 2017-02-03 18:29:43.076981+01 | 1486142983.07698 | pgbench_tellers  |            49152
 2017-02-03 18:29:43.076981+01 | 1486142983.07698 | pgbench_history  |                0
 2017-02-03 18:29:43.076981+01 | 1486142983.07698 | pgbench_branches |             8192

 2017-02-03 18:29:44.152947+01 | 1486142984.15295 | pgbench_accounts |       1342955520
 2017-02-03 18:29:44.152947+01 | 1486142984.15295 | pgbench_tellers  |            49152
 2017-02-03 18:29:44.152947+01 | 1486142984.15295 | pgbench_history  |                0
 2017-02-03 18:29:44.152947+01 | 1486142984.15295 | pgbench_branches |             8192

 2017-02-03 18:29:45.23411+01 | 1486142985.23411 | pgbench_accounts |       1342955520
 2017-02-03 18:29:45.23411+01 | 1486142985.23411 | pgbench_tellers  |            49152
 2017-02-03 18:29:45.23411+01 | 1486142985.23411 | pgbench_history  |                0
 2017-02-03 18:29:45.23411+01 | 1486142985.23411 | pgbench_branches |             8192

 2017-02-03 18:29:46.317173+01 | 1486142986.31717 | pgbench_accounts |       1342955520
 2017-02-03 18:29:46.317173+01 | 1486142986.31717 | pgbench_tellers  |            49152
 2017-02-03 18:29:46.317173+01 | 1486142986.31717 | pgbench_history  |                0
 2017-02-03 18:29:46.317173+01 | 1486142986.31717 | pgbench_branches |             8192

 2017-02-03 18:29:47.396901+01 | 1486142987.3969 | pgbench_accounts |       1342955520
 2017-02-03 18:29:47.396901+01 | 1486142987.3969 | pgbench_tellers  |            49152
 2017-02-03 18:29:47.396901+01 | 1486142987.3969 | pgbench_history  |                0
 2017-02-03 18:29:47.396901+01 | 1486142987.3969 | pgbench_branches |             8192

 2017-02-03 18:29:48.471006+01 | 1486142988.47101 | pgbench_accounts |       1342955520
 2017-02-03 18:29:48.471006+01 | 1486142988.47101 | pgbench_tellers  |            49152
 2017-02-03 18:29:48.471006+01 | 1486142988.47101 | pgbench_history  |                0
 2017-02-03 18:29:48.471006+01 | 1486142988.47101 | pgbench_branches |             8192

 2017-02-03 18:29:49.552057+01 | 1486142989.55206 | pgbench_accounts |       1342955520
 2017-02-03 18:29:49.552057+01 | 1486142989.55206 | pgbench_tellers  |            49152
 2017-02-03 18:29:49.552057+01 | 1486142989.55206 | pgbench_history  |                0
 2017-02-03 18:29:49.552057+01 | 1486142989.55206 | pgbench_branches |             8192

 2017-02-03 18:29:50.633532+01 | 1486142990.63353 | pgbench_accounts |       1342955520
 2017-02-03 18:29:50.633532+01 | 1486142990.63353 | pgbench_tellers  |            49152
 2017-02-03 18:29:50.633532+01 | 1486142990.63353 | pgbench_history  |                0
 2017-02-03 18:29:50.633532+01 | 1486142990.63353 | pgbench_branches |             8192

 2017-02-03 18:29:51.712372+01 | 1486142991.71237 | pgbench_accounts |       1342955520
 2017-02-03 18:29:51.712372+01 | 1486142991.71237 | pgbench_tellers  |            49152
 2017-02-03 18:29:51.712372+01 | 1486142991.71237 | pgbench_history  |                0
 2017-02-03 18:29:51.712372+01 | 1486142991.71237 | pgbench_branches |             8192

 2017-02-03 18:29:52.788954+01 | 1486142992.78895 | pgbench_accounts |       1342955520
 2017-02-03 18:29:52.788954+01 | 1486142992.78895 | pgbench_tellers  |            49152
 2017-02-03 18:29:52.788954+01 | 1486142992.78895 | pgbench_history  |                0
 2017-02-03 18:29:52.788954+01 | 1486142992.78895 | pgbench_branches |             8192

 2017-02-03 18:29:53.865673+01 | 1486142993.86567 | pgbench_accounts |       1342955520
 2017-02-03 18:29:53.865673+01 | 1486142993.86567 | pgbench_tellers  |            49152
 2017-02-03 18:29:53.865673+01 | 1486142993.86567 | pgbench_history  |                0
 2017-02-03 18:29:53.865673+01 | 1486142993.86567 | pgbench_branches |             8192

 2017-02-03 18:29:54.929056+01 | 1486142994.92906 | pgbench_accounts |       1342955520
 2017-02-03 18:29:54.929056+01 | 1486142994.92906 | pgbench_tellers  |            49152
 2017-02-03 18:29:54.929056+01 | 1486142994.92906 | pgbench_history  |                0
 2017-02-03 18:29:54.929056+01 | 1486142994.92906 | pgbench_branches |             8192

 2017-02-03 18:29:56.005624+01 | 1486142996.00562 | pgbench_accounts |       1342955520
 2017-02-03 18:29:56.005624+01 | 1486142996.00562 | pgbench_tellers  |            49152
 2017-02-03 18:29:56.005624+01 | 1486142996.00562 | pgbench_history  |                0
 2017-02-03 18:29:56.005624+01 | 1486142996.00562 | pgbench_branches |             8192

 2017-02-03 18:29:57.085042+01 | 1486142997.08504 | pgbench_accounts |       1342955520
 2017-02-03 18:29:57.085042+01 | 1486142997.08504 | pgbench_tellers  |            49152
 2017-02-03 18:29:57.085042+01 | 1486142997.08504 | pgbench_history  |                0
 2017-02-03 18:29:57.085042+01 | 1486142997.08504 | pgbench_branches |             8192

 2017-02-03 18:29:58.163221+01 | 1486142998.16322 | pgbench_accounts |       1342955520
 2017-02-03 18:29:58.163221+01 | 1486142998.16322 | pgbench_tellers  |            49152
 2017-02-03 18:29:58.163221+01 | 1486142998.16322 | pgbench_history  |                0
 2017-02-03 18:29:58.163221+01 | 1486142998.16322 | pgbench_branches |             8192

 2017-02-03 18:29:59.241316+01 | 1486142999.24132 | pgbench_accounts |       1342955520
 2017-02-03 18:29:59.241316+01 | 1486142999.24132 | pgbench_tellers  |            49152
 2017-02-03 18:29:59.241316+01 | 1486142999.24132 | pgbench_history  |                0
 2017-02-03 18:29:59.241316+01 | 1486142999.24132 | pgbench_branches |             8192

 2017-02-03 18:30:00.318538+01 | 1486143000.31854 | pgbench_accounts |       1342955520
 2017-02-03 18:30:00.318538+01 | 1486143000.31854 | pgbench_tellers  |            49152
 2017-02-03 18:30:00.318538+01 | 1486143000.31854 | pgbench_history  |                0
 2017-02-03 18:30:00.318538+01 | 1486143000.31854 | pgbench_branches |             8192

 2017-02-03 18:30:01.396142+01 | 1486143001.39614 | pgbench_accounts |       1342955520
 2017-02-03 18:30:01.396142+01 | 1486143001.39614 | pgbench_tellers  |            49152
 2017-02-03 18:30:01.396142+01 | 1486143001.39614 | pgbench_history  |                0
 2017-02-03 18:30:01.396142+01 | 1486143001.39614 | pgbench_branches |             8192

 2017-02-03 18:30:02.468768+01 | 1486143002.46877 | pgbench_accounts |       1342955520
 2017-02-03 18:30:02.468768+01 | 1486143002.46877 | pgbench_tellers  |            49152
 2017-02-03 18:30:02.468768+01 | 1486143002.46877 | pgbench_history  |                0
 2017-02-03 18:30:02.468768+01 | 1486143002.46877 | pgbench_branches |             8192

 2017-02-03 18:30:03.547202+01 | 1486143003.5472 | pgbench_accounts |       1342955520
 2017-02-03 18:30:03.547202+01 | 1486143003.5472 | pgbench_tellers  |            49152
 2017-02-03 18:30:03.547202+01 | 1486143003.5472 | pgbench_history  |                0
 2017-02-03 18:30:03.547202+01 | 1486143003.5472 | pgbench_branches |             8192

 2017-02-03 18:30:04.619078+01 | 1486143004.61908 | pgbench_accounts |       1342955520
 2017-02-03 18:30:04.619078+01 | 1486143004.61908 | pgbench_tellers  |            49152
 2017-02-03 18:30:04.619078+01 | 1486143004.61908 | pgbench_history  |                0
 2017-02-03 18:30:04.619078+01 | 1486143004.61908 | pgbench_branches |             8192

 2017-02-03 18:30:05.69714+01 | 1486143005.69714 | pgbench_accounts |       1342955520
 2017-02-03 18:30:05.69714+01 | 1486143005.69714 | pgbench_tellers  |            49152
 2017-02-03 18:30:05.69714+01 | 1486143005.69714 | pgbench_history  |                0
 2017-02-03 18:30:05.69714+01 | 1486143005.69714 | pgbench_branches |             8192

 2017-02-03 18:30:06.77019+01 | 1486143006.77019 | pgbench_accounts |       1342955520
 2017-02-03 18:30:06.77019+01 | 1486143006.77019 | pgbench_tellers  |            49152
 2017-02-03 18:30:06.77019+01 | 1486143006.77019 | pgbench_history  |                0
 2017-02-03 18:30:06.77019+01 | 1486143006.77019 | pgbench_branches |             8192

 2017-02-03 18:30:07.842358+01 | 1486143007.84236 | pgbench_accounts |       1342955520
 2017-02-03 18:30:07.842358+01 | 1486143007.84236 | pgbench_tellers  |            49152
 2017-02-03 18:30:07.842358+01 | 1486143007.84236 | pgbench_history  |                0
 2017-02-03 18:30:07.842358+01 | 1486143007.84236 | pgbench_branches |             8192

 2017-02-03 18:30:08.918162+01 | 1486143008.91816 | pgbench_accounts |       1342955520
 2017-02-03 18:30:08.918162+01 | 1486143008.91816 | pgbench_tellers  |            49152
 2017-02-03 18:30:08.918162+01 | 1486143008.91816 | pgbench_history  |                0
 2017-02-03 18:30:08.918162+01 | 1486143008.91816 | pgbench_branches |             8192

 2017-02-03 18:30:09.993926+01 | 1486143009.99393 | pgbench_accounts |       1342955520
 2017-02-03 18:30:09.993926+01 | 1486143009.99393 | pgbench_tellers  |            49152
 2017-02-03 18:30:09.993926+01 | 1486143009.99393 | pgbench_history  |                0
 2017-02-03 18:30:09.993926+01 | 1486143009.99393 | pgbench_branches |             8192

 2017-02-03 18:30:11.066809+01 | 1486143011.06681 | pgbench_accounts |       1342955520
 2017-02-03 18:30:11.066809+01 | 1486143011.06681 | pgbench_tellers  |            49152
 2017-02-03 18:30:11.066809+01 | 1486143011.06681 | pgbench_history  |                0
 2017-02-03 18:30:11.066809+01 | 1486143011.06681 | pgbench_branches |             8192

 2017-02-03 18:30:12.14058+01 | 1486143012.14058 | pgbench_accounts |       1342955520
 2017-02-03 18:30:12.14058+01 | 1486143012.14058 | pgbench_tellers  |            49152
 2017-02-03 18:30:12.14058+01 | 1486143012.14058 | pgbench_history  |                0
 2017-02-03 18:30:12.14058+01 | 1486143012.14058 | pgbench_branches |             8192

 2017-02-03 18:30:13.210956+01 | 1486143013.21096 | pgbench_accounts |       1342955520
 2017-02-03 18:30:13.210956+01 | 1486143013.21096 | pgbench_tellers  |            49152
 2017-02-03 18:30:13.210956+01 | 1486143013.21096 | pgbench_history  |                0
 2017-02-03 18:30:13.210956+01 | 1486143013.21096 | pgbench_branches |             8192

 2017-02-03 18:30:14.287699+01 | 1486143014.2877 | pgbench_accounts |       1342955520
 2017-02-03 18:30:14.287699+01 | 1486143014.2877 | pgbench_tellers  |            49152
 2017-02-03 18:30:14.287699+01 | 1486143014.2877 | pgbench_history  |                0
 2017-02-03 18:30:14.287699+01 | 1486143014.2877 | pgbench_branches |             8192

 2017-02-03 18:30:15.366823+01 | 1486143015.36682 | pgbench_accounts |       1342955520
 2017-02-03 18:30:15.366823+01 | 1486143015.36682 | pgbench_tellers  |            49152
 2017-02-03 18:30:15.366823+01 | 1486143015.36682 | pgbench_history  |                0
 2017-02-03 18:30:15.366823+01 | 1486143015.36682 | pgbench_branches |             8192

 2017-02-03 18:30:16.441204+01 | 1486143016.4412 | pgbench_accounts |       1342955520
 2017-02-03 18:30:16.441204+01 | 1486143016.4412 | pgbench_tellers  |            49152
 2017-02-03 18:30:16.441204+01 | 1486143016.4412 | pgbench_history  |                0
 2017-02-03 18:30:16.441204+01 | 1486143016.4412 | pgbench_branches |             8192

 2017-02-03 18:30:17.51551+01 | 1486143017.51551 | pgbench_accounts |       1342955520
 2017-02-03 18:30:17.51551+01 | 1486143017.51551 | pgbench_tellers  |            49152
 2017-02-03 18:30:17.51551+01 | 1486143017.51551 | pgbench_history  |                0
 2017-02-03 18:30:17.51551+01 | 1486143017.51551 | pgbench_branches |             8192

 2017-02-03 18:30:18.587121+01 | 1486143018.58712 | pgbench_accounts |       1342955520
 2017-02-03 18:30:18.587121+01 | 1486143018.58712 | pgbench_tellers  |            49152
 2017-02-03 18:30:18.587121+01 | 1486143018.58712 | pgbench_history  |                0
 2017-02-03 18:30:18.587121+01 | 1486143018.58712 | pgbench_branches |             8192

 2017-02-03 18:30:19.667285+01 | 1486143019.66728 | pgbench_accounts |       1342955520
 2017-02-03 18:30:19.667285+01 | 1486143019.66728 | pgbench_tellers  |            49152
 2017-02-03 18:30:19.667285+01 | 1486143019.66728 | pgbench_history  |                0
 2017-02-03 18:30:19.667285+01 | 1486143019.66728 | pgbench_branches |             8192

 2017-02-03 18:30:20.756629+01 | 1486143020.75663 | pgbench_accounts |       1342955520
 2017-02-03 18:30:20.756629+01 | 1486143020.75663 | pgbench_tellers  |            49152
 2017-02-03 18:30:20.756629+01 | 1486143020.75663 | pgbench_history  |                0
 2017-02-03 18:30:20.756629+01 | 1486143020.75663 | pgbench_branches |             8192

 2017-02-03 18:30:21.824679+01 | 1486143021.82468 | pgbench_accounts |       1342955520
 2017-02-03 18:30:21.824679+01 | 1486143021.82468 | pgbench_tellers  |            49152
 2017-02-03 18:30:21.824679+01 | 1486143021.82468 | pgbench_history  |                0
 2017-02-03 18:30:21.824679+01 | 1486143021.82468 | pgbench_branches |             8192

 2017-02-03 18:30:22.892991+01 | 1486143022.89299 | pgbench_accounts |       1342955520
 2017-02-03 18:30:22.892991+01 | 1486143022.89299 | pgbench_tellers  |            49152
 2017-02-03 18:30:22.892991+01 | 1486143022.89299 | pgbench_history  |                0
 2017-02-03 18:30:22.892991+01 | 1486143022.89299 | pgbench_branches |             8192

 2017-02-03 18:30:23.96643+01 | 1486143023.96643 | pgbench_accounts |       1342955520
 2017-02-03 18:30:23.96643+01 | 1486143023.96643 | pgbench_tellers  |            49152
 2017-02-03 18:30:23.96643+01 | 1486143023.96643 | pgbench_history  |                0
 2017-02-03 18:30:23.96643+01 | 1486143023.96643 | pgbench_branches |             8192

 2017-02-03 18:30:25.043081+01 | 1486143025.04308 | pgbench_accounts |       1342955520
 2017-02-03 18:30:25.043081+01 | 1486143025.04308 | pgbench_tellers  |            49152
 2017-02-03 18:30:25.043081+01 | 1486143025.04308 | pgbench_history  |                0
 2017-02-03 18:30:25.043081+01 | 1486143025.04308 | pgbench_branches |             8192

 2017-02-03 18:30:26.116086+01 | 1486143026.11609 | pgbench_accounts |       1342955520
 2017-02-03 18:30:26.116086+01 | 1486143026.11609 | pgbench_tellers  |            49152
 2017-02-03 18:30:26.116086+01 | 1486143026.11609 | pgbench_history  |                0
 2017-02-03 18:30:26.116086+01 | 1486143026.11609 | pgbench_branches |             8192

 2017-02-03 18:30:27.186965+01 | 1486143027.18696 | pgbench_accounts |       1342955520
 2017-02-03 18:30:27.186965+01 | 1486143027.18696 | pgbench_tellers  |            49152
 2017-02-03 18:30:27.186965+01 | 1486143027.18696 | pgbench_history  |                0
 2017-02-03 18:30:27.186965+01 | 1486143027.18696 | pgbench_branches |             8192

 2017-02-03 18:30:28.251646+01 | 1486143028.25165 | pgbench_accounts |       1342955520
 2017-02-03 18:30:28.251646+01 | 1486143028.25165 | pgbench_tellers  |            49152
 2017-02-03 18:30:28.251646+01 | 1486143028.25165 | pgbench_history  |                0
 2017-02-03 18:30:28.251646+01 | 1486143028.25165 | pgbench_branches |             8192

 2017-02-03 18:30:29.328665+01 | 1486143029.32867 | pgbench_accounts |       1342955520
 2017-02-03 18:30:29.328665+01 | 1486143029.32867 | pgbench_tellers  |            49152
 2017-02-03 18:30:29.328665+01 | 1486143029.32867 | pgbench_history  |                0
 2017-02-03 18:30:29.328665+01 | 1486143029.32867 | pgbench_branches |             8192

 2017-02-03 18:30:30.400199+01 | 1486143030.4002 | pgbench_accounts |       1342955520
 2017-02-03 18:30:30.400199+01 | 1486143030.4002 | pgbench_tellers  |            49152
 2017-02-03 18:30:30.400199+01 | 1486143030.4002 | pgbench_history  |                0
 2017-02-03 18:30:30.400199+01 | 1486143030.4002 | pgbench_branches |             8192

 2017-02-03 18:30:31.478389+01 | 1486143031.47839 | pgbench_accounts |       1342955520
 2017-02-03 18:30:31.478389+01 | 1486143031.47839 | pgbench_tellers  |            49152
 2017-02-03 18:30:31.478389+01 | 1486143031.47839 | pgbench_history  |                0
 2017-02-03 18:30:31.478389+01 | 1486143031.47839 | pgbench_branches |             8192

 2017-02-03 18:30:32.556274+01 | 1486143032.55627 | pgbench_accounts |       1342955520
 2017-02-03 18:30:32.556274+01 | 1486143032.55627 | pgbench_tellers  |            49152
 2017-02-03 18:30:32.556274+01 | 1486143032.55627 | pgbench_history  |                0
 2017-02-03 18:30:32.556274+01 | 1486143032.55627 | pgbench_branches |             8192

 2017-02-03 18:30:33.63649+01 | 1486143033.63649 | pgbench_accounts |       1342955520
 2017-02-03 18:30:33.63649+01 | 1486143033.63649 | pgbench_tellers  |            49152
 2017-02-03 18:30:33.63649+01 | 1486143033.63649 | pgbench_history  |                0
 2017-02-03 18:30:33.63649+01 | 1486143033.63649 | pgbench_branches |             8192

 2017-02-03 18:30:34.711542+01 | 1486143034.71154 | pgbench_accounts |       1342955520
 2017-02-03 18:30:34.711542+01 | 1486143034.71154 | pgbench_tellers  |            49152
 2017-02-03 18:30:34.711542+01 | 1486143034.71154 | pgbench_history  |                0
 2017-02-03 18:30:34.711542+01 | 1486143034.71154 | pgbench_branches |             8192

 2017-02-03 18:30:35.78724+01 | 1486143035.78724 | pgbench_accounts |       1342955520
 2017-02-03 18:30:35.78724+01 | 1486143035.78724 | pgbench_tellers  |            49152
 2017-02-03 18:30:35.78724+01 | 1486143035.78724 | pgbench_history  |                0
 2017-02-03 18:30:35.78724+01 | 1486143035.78724 | pgbench_branches |             8192

 2017-02-03 18:30:36.865412+01 | 1486143036.86541 | pgbench_accounts |       1342955520
 2017-02-03 18:30:36.865412+01 | 1486143036.86541 | pgbench_tellers  |            49152
 2017-02-03 18:30:36.865412+01 | 1486143036.86541 | pgbench_history  |                0
 2017-02-03 18:30:36.865412+01 | 1486143036.86541 | pgbench_branches |             8192

 2017-02-03 18:30:37.944727+01 | 1486143037.94473 | pgbench_accounts |       1342955520
 2017-02-03 18:30:37.944727+01 | 1486143037.94473 | pgbench_tellers  |            49152
 2017-02-03 18:30:37.944727+01 | 1486143037.94473 | pgbench_history  |                0
 2017-02-03 18:30:37.944727+01 | 1486143037.94473 | pgbench_branches |             8192

 2017-02-03 18:30:39.025644+01 | 1486143039.02564 | pgbench_accounts |       1342955520
 2017-02-03 18:30:39.025644+01 | 1486143039.02564 | pgbench_tellers  |            49152
 2017-02-03 18:30:39.025644+01 | 1486143039.02564 | pgbench_history  |                0
 2017-02-03 18:30:39.025644+01 | 1486143039.02564 | pgbench_branches |             8192

 2017-02-03 18:30:40.098892+01 | 1486143040.09889 | pgbench_accounts |       1342955520
 2017-02-03 18:30:40.098892+01 | 1486143040.09889 | pgbench_tellers  |            49152
 2017-02-03 18:30:40.098892+01 | 1486143040.09889 | pgbench_history  |                0
 2017-02-03 18:30:40.098892+01 | 1486143040.09889 | pgbench_branches |             8192

 2017-02-03 18:30:41.18148+01 | 1486143041.18148 | pgbench_accounts |       1342955520
 2017-02-03 18:30:41.18148+01 | 1486143041.18148 | pgbench_tellers  |            49152
 2017-02-03 18:30:41.18148+01 | 1486143041.18148 | pgbench_history  |                0
 2017-02-03 18:30:41.18148+01 | 1486143041.18148 | pgbench_branches |             8192

 2017-02-03 18:30:42.25082+01 | 1486143042.25082 | pgbench_accounts |       1342955520
 2017-02-03 18:30:42.25082+01 | 1486143042.25082 | pgbench_tellers  |            49152
 2017-02-03 18:30:42.25082+01 | 1486143042.25082 | pgbench_history  |                0
 2017-02-03 18:30:42.25082+01 | 1486143042.25082 | pgbench_branches |             8192

 2017-02-03 18:30:43.328742+01 | 1486143043.32874 | pgbench_accounts |       1342955520
 2017-02-03 18:30:43.328742+01 | 1486143043.32874 | pgbench_tellers  |            49152
 2017-02-03 18:30:43.328742+01 | 1486143043.32874 | pgbench_history  |                0
 2017-02-03 18:30:43.328742+01 | 1486143043.32874 | pgbench_branches |             8192

 2017-02-03 18:30:44.407779+01 | 1486143044.40778 | pgbench_accounts |       1342955520
 2017-02-03 18:30:44.407779+01 | 1486143044.40778 | pgbench_tellers  |            49152
 2017-02-03 18:30:44.407779+01 | 1486143044.40778 | pgbench_history  |                0
 2017-02-03 18:30:44.407779+01 | 1486143044.40778 | pgbench_branches |             8192

 2017-02-03 18:30:45.483377+01 | 1486143045.48338 | pgbench_accounts |       1342955520
 2017-02-03 18:30:45.483377+01 | 1486143045.48338 | pgbench_tellers  |            49152
 2017-02-03 18:30:45.483377+01 | 1486143045.48338 | pgbench_history  |                0
 2017-02-03 18:30:45.483377+01 | 1486143045.48338 | pgbench_branches |             8192

 2017-02-03 18:30:46.56145+01 | 1486143046.56145 | pgbench_accounts |       1342955520
 2017-02-03 18:30:46.56145+01 | 1486143046.56145 | pgbench_tellers  |            49152
 2017-02-03 18:30:46.56145+01 | 1486143046.56145 | pgbench_history  |                0
 2017-02-03 18:30:46.56145+01 | 1486143046.56145 | pgbench_branches |             8192

 2017-02-03 18:30:47.63832+01 | 1486143047.63832 | pgbench_accounts |       1342955520
 2017-02-03 18:30:47.63832+01 | 1486143047.63832 | pgbench_tellers  |            49152
 2017-02-03 18:30:47.63832+01 | 1486143047.63832 | pgbench_history  |                0
 2017-02-03 18:30:47.63832+01 | 1486143047.63832 | pgbench_branches |             8192

 2017-02-03 18:30:48.718263+01 | 1486143048.71826 | pgbench_accounts |       1342955520
 2017-02-03 18:30:48.718263+01 | 1486143048.71826 | pgbench_tellers  |            49152
 2017-02-03 18:30:48.718263+01 | 1486143048.71826 | pgbench_history  |                0
 2017-02-03 18:30:48.718263+01 | 1486143048.71826 | pgbench_branches |             8192

 2017-02-03 18:30:49.793535+01 | 1486143049.79353 | pgbench_accounts |       1342955520
 2017-02-03 18:30:49.793535+01 | 1486143049.79353 | pgbench_tellers  |            49152
 2017-02-03 18:30:49.793535+01 | 1486143049.79353 | pgbench_history  |                0
 2017-02-03 18:30:49.793535+01 | 1486143049.79353 | pgbench_branches |             8192

 2017-02-03 18:30:50.869058+01 | 1486143050.86906 | pgbench_accounts |       1342955520
 2017-02-03 18:30:50.869058+01 | 1486143050.86906 | pgbench_tellers  |            49152
 2017-02-03 18:30:50.869058+01 | 1486143050.86906 | pgbench_history  |                0
 2017-02-03 18:30:50.869058+01 | 1486143050.86906 | pgbench_branches |             8192

 2017-02-03 18:30:51.949565+01 | 1486143051.94956 | pgbench_accounts |       1342955520
 2017-02-03 18:30:51.949565+01 | 1486143051.94956 | pgbench_tellers  |            49152
 2017-02-03 18:30:51.949565+01 | 1486143051.94956 | pgbench_history  |                0
 2017-02-03 18:30:51.949565+01 | 1486143051.94956 | pgbench_branches |             8192

 2017-02-03 18:30:53.028506+01 | 1486143053.02851 | pgbench_accounts |       1342955520
 2017-02-03 18:30:53.028506+01 | 1486143053.02851 | pgbench_tellers  |            49152
 2017-02-03 18:30:53.028506+01 | 1486143053.02851 | pgbench_history  |                0
 2017-02-03 18:30:53.028506+01 | 1486143053.02851 | pgbench_branches |             8192

 2017-02-03 18:30:54.104533+01 | 1486143054.10453 | pgbench_accounts |       1342955520
 2017-02-03 18:30:54.104533+01 | 1486143054.10453 | pgbench_tellers  |            49152
 2017-02-03 18:30:54.104533+01 | 1486143054.10453 | pgbench_history  |                0
 2017-02-03 18:30:54.104533+01 | 1486143054.10453 | pgbench_branches |             8192

 2017-02-03 18:30:55.187235+01 | 1486143055.18724 | pgbench_accounts |       1342955520
 2017-02-03 18:30:55.187235+01 | 1486143055.18724 | pgbench_tellers  |            49152
 2017-02-03 18:30:55.187235+01 | 1486143055.18724 | pgbench_history  |                0
 2017-02-03 18:30:55.187235+01 | 1486143055.18724 | pgbench_branches |             8192

 2017-02-03 18:30:56.265495+01 | 1486143056.2655 | pgbench_accounts |       1342955520
 2017-02-03 18:30:56.265495+01 | 1486143056.2655 | pgbench_tellers  |            49152
 2017-02-03 18:30:56.265495+01 | 1486143056.2655 | pgbench_history  |                0
 2017-02-03 18:30:56.265495+01 | 1486143056.2655 | pgbench_branches |             8192

 2017-02-03 18:30:57.347316+01 | 1486143057.34732 | pgbench_accounts |       1342955520
 2017-02-03 18:30:57.347316+01 | 1486143057.34732 | pgbench_tellers  |            49152
 2017-02-03 18:30:57.347316+01 | 1486143057.34732 | pgbench_history  |                0
 2017-02-03 18:30:57.347316+01 | 1486143057.34732 | pgbench_branches |             8192

 2017-02-03 18:30:58.427289+01 | 1486143058.42729 | pgbench_accounts |       1342955520
 2017-02-03 18:30:58.427289+01 | 1486143058.42729 | pgbench_tellers  |            49152
 2017-02-03 18:30:58.427289+01 | 1486143058.42729 | pgbench_history  |                0
 2017-02-03 18:30:58.427289+01 | 1486143058.42729 | pgbench_branches |             8192

 2017-02-03 18:30:59.506659+01 | 1486143059.50666 | pgbench_accounts |       1342955520
 2017-02-03 18:30:59.506659+01 | 1486143059.50666 | pgbench_tellers  |            49152
 2017-02-03 18:30:59.506659+01 | 1486143059.50666 | pgbench_history  |                0
 2017-02-03 18:30:59.506659+01 | 1486143059.50666 | pgbench_branches |             8192

 2017-02-03 18:31:00.580156+01 | 1486143060.58016 | pgbench_accounts |       1342955520
 2017-02-03 18:31:00.580156+01 | 1486143060.58016 | pgbench_tellers  |            49152
 2017-02-03 18:31:00.580156+01 | 1486143060.58016 | pgbench_history  |                0
 2017-02-03 18:31:00.580156+01 | 1486143060.58016 | pgbench_branches |             8192

 2017-02-03 18:31:01.6542+01 | 1486143061.6542 | pgbench_accounts |       1342955520
 2017-02-03 18:31:01.6542+01 | 1486143061.6542 | pgbench_tellers  |            49152
 2017-02-03 18:31:01.6542+01 | 1486143061.6542 | pgbench_history  |                0
 2017-02-03 18:31:01.6542+01 | 1486143061.6542 | pgbench_branches |             8192

 2017-02-03 18:31:02.726547+01 | 1486143062.72655 | pgbench_accounts |       1342955520
 2017-02-03 18:31:02.726547+01 | 1486143062.72655 | pgbench_tellers  |            49152
 2017-02-03 18:31:02.726547+01 | 1486143062.72655 | pgbench_history  |                0
 2017-02-03 18:31:02.726547+01 | 1486143062.72655 | pgbench_branches |             8192

 2017-02-03 18:31:03.815119+01 | 1486143063.81512 | pgbench_accounts |       1342955520
 2017-02-03 18:31:03.815119+01 | 1486143063.81512 | pgbench_tellers  |            49152
 2017-02-03 18:31:03.815119+01 | 1486143063.81512 | pgbench_history  |                0
 2017-02-03 18:31:03.815119+01 | 1486143063.81512 | pgbench_branches |             8192

 2017-02-03 18:31:04.901008+01 | 1486143064.90101 | pgbench_accounts |       1342955520
 2017-02-03 18:31:04.901008+01 | 1486143064.90101 | pgbench_tellers  |            49152
 2017-02-03 18:31:04.901008+01 | 1486143064.90101 | pgbench_history  |                0
 2017-02-03 18:31:04.901008+01 | 1486143064.90101 | pgbench_branches |             8192

 2017-02-03 18:31:05.980267+01 | 1486143065.98027 | pgbench_accounts |       1342955520
 2017-02-03 18:31:05.980267+01 | 1486143065.98027 | pgbench_tellers  |            49152
 2017-02-03 18:31:05.980267+01 | 1486143065.98027 | pgbench_history  |                0
 2017-02-03 18:31:05.980267+01 | 1486143065.98027 | pgbench_branches |             8192

 2017-02-03 18:31:07.056899+01 | 1486143067.0569 | pgbench_accounts |       1342955520
 2017-02-03 18:31:07.056899+01 | 1486143067.0569 | pgbench_tellers  |            49152
 2017-02-03 18:31:07.056899+01 | 1486143067.0569 | pgbench_history  |                0
 2017-02-03 18:31:07.056899+01 | 1486143067.0569 | pgbench_branches |             8192

 2017-02-03 18:31:08.136619+01 | 1486143068.13662 | pgbench_accounts |       1342955520
 2017-02-03 18:31:08.136619+01 | 1486143068.13662 | pgbench_tellers  |            49152
 2017-02-03 18:31:08.136619+01 | 1486143068.13662 | pgbench_history  |                0
 2017-02-03 18:31:08.136619+01 | 1486143068.13662 | pgbench_branches |             8192

 2017-02-03 18:31:09.213272+01 | 1486143069.21327 | pgbench_accounts |       1342955520
 2017-02-03 18:31:09.213272+01 | 1486143069.21327 | pgbench_tellers  |            49152
 2017-02-03 18:31:09.213272+01 | 1486143069.21327 | pgbench_history  |                0
 2017-02-03 18:31:09.213272+01 | 1486143069.21327 | pgbench_branches |             8192

 2017-02-03 18:31:10.285824+01 | 1486143070.28582 | pgbench_accounts |       1342955520
 2017-02-03 18:31:10.285824+01 | 1486143070.28582 | pgbench_tellers  |            49152
 2017-02-03 18:31:10.285824+01 | 1486143070.28582 | pgbench_history  |                0
 2017-02-03 18:31:10.285824+01 | 1486143070.28582 | pgbench_branches |             8192

 2017-02-03 18:31:11.370005+01 | 1486143071.37 | pgbench_accounts |       1342955520
 2017-02-03 18:31:11.370005+01 | 1486143071.37 | pgbench_tellers  |            49152
 2017-02-03 18:31:11.370005+01 | 1486143071.37 | pgbench_history  |                0
 2017-02-03 18:31:11.370005+01 | 1486143071.37 | pgbench_branches |             8192

 2017-02-03 18:31:12.456131+01 | 1486143072.45613 | pgbench_accounts |       1342955520
 2017-02-03 18:31:12.456131+01 | 1486143072.45613 | pgbench_tellers  |            49152
 2017-02-03 18:31:12.456131+01 | 1486143072.45613 | pgbench_history  |                0
 2017-02-03 18:31:12.456131+01 | 1486143072.45613 | pgbench_branches |             8192

 2017-02-03 18:31:13.529975+01 | 1486143073.52997 | pgbench_accounts |       1342955520
 2017-02-03 18:31:13.529975+01 | 1486143073.52997 | pgbench_tellers  |            49152
 2017-02-03 18:31:13.529975+01 | 1486143073.52997 | pgbench_history  |                0
 2017-02-03 18:31:13.529975+01 | 1486143073.52997 | pgbench_branches |             8192

 2017-02-03 18:31:14.604781+01 | 1486143074.60478 | pgbench_accounts |       1342955520
 2017-02-03 18:31:14.604781+01 | 1486143074.60478 | pgbench_tellers  |            49152
 2017-02-03 18:31:14.604781+01 | 1486143074.60478 | pgbench_history  |                0
 2017-02-03 18:31:14.604781+01 | 1486143074.60478 | pgbench_branches |             8192

 2017-02-03 18:31:15.681979+01 | 1486143075.68198 | pgbench_accounts |       1342955520
 2017-02-03 18:31:15.681979+01 | 1486143075.68198 | pgbench_tellers  |            49152
 2017-02-03 18:31:15.681979+01 | 1486143075.68198 | pgbench_history  |                0
 2017-02-03 18:31:15.681979+01 | 1486143075.68198 | pgbench_branches |             8192

 2017-02-03 18:31:16.759834+01 | 1486143076.75983 | pgbench_accounts |       1342955520
 2017-02-03 18:31:16.759834+01 | 1486143076.75983 | pgbench_tellers  |            49152
 2017-02-03 18:31:16.759834+01 | 1486143076.75983 | pgbench_history  |                0
 2017-02-03 18:31:16.759834+01 | 1486143076.75983 | pgbench_branches |             8192

 2017-02-03 18:31:17.844525+01 | 1486143077.84453 | pgbench_accounts |       1342955520
 2017-02-03 18:31:17.844525+01 | 1486143077.84453 | pgbench_tellers  |            49152
 2017-02-03 18:31:17.844525+01 | 1486143077.84453 | pgbench_history  |                0
 2017-02-03 18:31:17.844525+01 | 1486143077.84453 | pgbench_branches |             8192

 2017-02-03 18:31:18.929398+01 | 1486143078.9294 | pgbench_accounts |       1342955520
 2017-02-03 18:31:18.929398+01 | 1486143078.9294 | pgbench_tellers  |            49152
 2017-02-03 18:31:18.929398+01 | 1486143078.9294 | pgbench_history  |                0
 2017-02-03 18:31:18.929398+01 | 1486143078.9294 | pgbench_branches |             8192

 2017-02-03 18:31:20.005176+01 | 1486143080.00518 | pgbench_accounts |       1342955520
 2017-02-03 18:31:20.005176+01 | 1486143080.00518 | pgbench_tellers  |            49152
 2017-02-03 18:31:20.005176+01 | 1486143080.00518 | pgbench_history  |                0
 2017-02-03 18:31:20.005176+01 | 1486143080.00518 | pgbench_branches |             8192

 2017-02-03 18:31:21.081244+01 | 1486143081.08124 | pgbench_accounts |       1342955520
 2017-02-03 18:31:21.081244+01 | 1486143081.08124 | pgbench_tellers  |            49152
 2017-02-03 18:31:21.081244+01 | 1486143081.08124 | pgbench_history  |                0
 2017-02-03 18:31:21.081244+01 | 1486143081.08124 | pgbench_branches |             8192

 2017-02-03 18:31:22.160709+01 | 1486143082.16071 | pgbench_accounts |       1342955520
 2017-02-03 18:31:22.160709+01 | 1486143082.16071 | pgbench_tellers  |            49152
 2017-02-03 18:31:22.160709+01 | 1486143082.16071 | pgbench_history  |                0
 2017-02-03 18:31:22.160709+01 | 1486143082.16071 | pgbench_branches |             8192

 2017-02-03 18:31:23.225789+01 | 1486143083.22579 | pgbench_accounts |       1342955520
 2017-02-03 18:31:23.225789+01 | 1486143083.22579 | pgbench_tellers  |            49152
 2017-02-03 18:31:23.225789+01 | 1486143083.22579 | pgbench_history  |                0
 2017-02-03 18:31:23.225789+01 | 1486143083.22579 | pgbench_branches |             8192

 2017-02-03 18:31:24.306513+01 | 1486143084.30651 | pgbench_accounts |       1342955520
 2017-02-03 18:31:24.306513+01 | 1486143084.30651 | pgbench_tellers  |            49152
 2017-02-03 18:31:24.306513+01 | 1486143084.30651 | pgbench_history  |                0
 2017-02-03 18:31:24.306513+01 | 1486143084.30651 | pgbench_branches |             8192

 2017-02-03 18:31:25.389041+01 | 1486143085.38904 | pgbench_accounts |       1342955520
 2017-02-03 18:31:25.389041+01 | 1486143085.38904 | pgbench_tellers  |            49152
 2017-02-03 18:31:25.389041+01 | 1486143085.38904 | pgbench_history  |                0
 2017-02-03 18:31:25.389041+01 | 1486143085.38904 | pgbench_branches |             8192

 2017-02-03 18:31:26.472249+01 | 1486143086.47225 | pgbench_accounts |       1342955520
 2017-02-03 18:31:26.472249+01 | 1486143086.47225 | pgbench_tellers  |            49152
 2017-02-03 18:31:26.472249+01 | 1486143086.47225 | pgbench_history  |                0
 2017-02-03 18:31:26.472249+01 | 1486143086.47225 | pgbench_branches |             8192

 2017-02-03 18:31:27.5532+01 | 1486143087.5532 | pgbench_accounts |       1342955520
 2017-02-03 18:31:27.5532+01 | 1486143087.5532 | pgbench_tellers  |            49152
 2017-02-03 18:31:27.5532+01 | 1486143087.5532 | pgbench_history  |                0
 2017-02-03 18:31:27.5532+01 | 1486143087.5532 | pgbench_branches |             8192

 2017-02-03 18:31:28.637895+01 | 1486143088.6379 | pgbench_accounts |       1342955520
 2017-02-03 18:31:28.637895+01 | 1486143088.6379 | pgbench_tellers  |            49152
 2017-02-03 18:31:28.637895+01 | 1486143088.6379 | pgbench_history  |                0
 2017-02-03 18:31:28.637895+01 | 1486143088.6379 | pgbench_branches |             8192

 2017-02-03 18:31:29.71551+01 | 1486143089.71551 | pgbench_accounts |       1342955520
 2017-02-03 18:31:29.71551+01 | 1486143089.71551 | pgbench_tellers  |            49152
 2017-02-03 18:31:29.71551+01 | 1486143089.71551 | pgbench_history  |                0
 2017-02-03 18:31:29.71551+01 | 1486143089.71551 | pgbench_branches |             8192

 2017-02-03 18:31:30.792249+01 | 1486143090.79225 | pgbench_accounts |       1342955520
 2017-02-03 18:31:30.792249+01 | 1486143090.79225 | pgbench_tellers  |            49152
 2017-02-03 18:31:30.792249+01 | 1486143090.79225 | pgbench_history  |                0
 2017-02-03 18:31:30.792249+01 | 1486143090.79225 | pgbench_branches |             8192

 2017-02-03 18:31:31.873146+01 | 1486143091.87315 | pgbench_accounts |       1342955520
 2017-02-03 18:31:31.873146+01 | 1486143091.87315 | pgbench_tellers  |            49152
 2017-02-03 18:31:31.873146+01 | 1486143091.87315 | pgbench_history  |                0
 2017-02-03 18:31:31.873146+01 | 1486143091.87315 | pgbench_branches |             8192

 2017-02-03 18:31:32.947805+01 | 1486143092.9478 | pgbench_accounts |       1342955520
 2017-02-03 18:31:32.947805+01 | 1486143092.9478 | pgbench_tellers  |            49152
 2017-02-03 18:31:32.947805+01 | 1486143092.9478 | pgbench_history  |                0
 2017-02-03 18:31:32.947805+01 | 1486143092.9478 | pgbench_branches |             8192

 2017-02-03 18:31:34.031772+01 | 1486143094.03177 | pgbench_accounts |       1342955520
 2017-02-03 18:31:34.031772+01 | 1486143094.03177 | pgbench_tellers  |            49152
 2017-02-03 18:31:34.031772+01 | 1486143094.03177 | pgbench_history  |                0
 2017-02-03 18:31:34.031772+01 | 1486143094.03177 | pgbench_branches |             8192

 2017-02-03 18:31:35.113937+01 | 1486143095.11394 | pgbench_accounts |       1342955520
 2017-02-03 18:31:35.113937+01 | 1486143095.11394 | pgbench_tellers  |            49152
 2017-02-03 18:31:35.113937+01 | 1486143095.11394 | pgbench_history  |                0
 2017-02-03 18:31:35.113937+01 | 1486143095.11394 | pgbench_branches |             8192

 2017-02-03 18:31:36.196453+01 | 1486143096.19645 | pgbench_accounts |       1342955520
 2017-02-03 18:31:36.196453+01 | 1486143096.19645 | pgbench_tellers  |            49152
 2017-02-03 18:31:36.196453+01 | 1486143096.19645 | pgbench_history  |                0
 2017-02-03 18:31:36.196453+01 | 1486143096.19645 | pgbench_branches |             8192

 2017-02-03 18:31:37.26748+01 | 1486143097.26748 | pgbench_accounts |       1342955520
 2017-02-03 18:31:37.26748+01 | 1486143097.26748 | pgbench_tellers  |            49152
 2017-02-03 18:31:37.26748+01 | 1486143097.26748 | pgbench_history  |                0
 2017-02-03 18:31:37.26748+01 | 1486143097.26748 | pgbench_branches |             8192

 2017-02-03 18:31:38.348761+01 | 1486143098.34876 | pgbench_accounts |       1342955520
 2017-02-03 18:31:38.348761+01 | 1486143098.34876 | pgbench_tellers  |            49152
 2017-02-03 18:31:38.348761+01 | 1486143098.34876 | pgbench_history  |                0
 2017-02-03 18:31:38.348761+01 | 1486143098.34876 | pgbench_branches |             8192

 2017-02-03 18:31:39.424452+01 | 1486143099.42445 | pgbench_accounts |       1342955520
 2017-02-03 18:31:39.424452+01 | 1486143099.42445 | pgbench_tellers  |            49152
 2017-02-03 18:31:39.424452+01 | 1486143099.42445 | pgbench_history  |                0
 2017-02-03 18:31:39.424452+01 | 1486143099.42445 | pgbench_branches |             8192

 2017-02-03 18:31:40.49685+01 | 1486143100.49685 | pgbench_accounts |       1342955520
 2017-02-03 18:31:40.49685+01 | 1486143100.49685 | pgbench_tellers  |            49152
 2017-02-03 18:31:40.49685+01 | 1486143100.49685 | pgbench_history  |                0
 2017-02-03 18:31:40.49685+01 | 1486143100.49685 | pgbench_branches |             8192

 2017-02-03 18:31:41.57287+01 | 1486143101.57287 | pgbench_accounts |       1342955520
 2017-02-03 18:31:41.57287+01 | 1486143101.57287 | pgbench_tellers  |            49152
 2017-02-03 18:31:41.57287+01 | 1486143101.57287 | pgbench_history  |                0
 2017-02-03 18:31:41.57287+01 | 1486143101.57287 | pgbench_branches |             8192

 2017-02-03 18:31:42.6469+01 | 1486143102.6469 | pgbench_accounts |       1342955520
 2017-02-03 18:31:42.6469+01 | 1486143102.6469 | pgbench_tellers  |            49152
 2017-02-03 18:31:42.6469+01 | 1486143102.6469 | pgbench_history  |                0
 2017-02-03 18:31:42.6469+01 | 1486143102.6469 | pgbench_branches |             8192

 2017-02-03 18:31:43.723964+01 | 1486143103.72396 | pgbench_accounts |       1342955520
 2017-02-03 18:31:43.723964+01 | 1486143103.72396 | pgbench_tellers  |            49152
 2017-02-03 18:31:43.723964+01 | 1486143103.72396 | pgbench_history  |                0
 2017-02-03 18:31:43.723964+01 | 1486143103.72396 | pgbench_branches |             8192

 2017-02-03 18:31:44.805532+01 | 1486143104.80553 | pgbench_accounts |       1342955520
 2017-02-03 18:31:44.805532+01 | 1486143104.80553 | pgbench_tellers  |            49152
 2017-02-03 18:31:44.805532+01 | 1486143104.80553 | pgbench_history  |                0
 2017-02-03 18:31:44.805532+01 | 1486143104.80553 | pgbench_branches |             8192

 2017-02-03 18:31:45.886686+01 | 1486143105.88669 | pgbench_accounts |       1342955520
 2017-02-03 18:31:45.886686+01 | 1486143105.88669 | pgbench_tellers  |            49152
 2017-02-03 18:31:45.886686+01 | 1486143105.88669 | pgbench_history  |                0
 2017-02-03 18:31:45.886686+01 | 1486143105.88669 | pgbench_branches |             8192

 2017-02-03 18:31:46.965493+01 | 1486143106.96549 | pgbench_accounts |       1342955520
 2017-02-03 18:31:46.965493+01 | 1486143106.96549 | pgbench_tellers  |            49152
 2017-02-03 18:31:46.965493+01 | 1486143106.96549 | pgbench_history  |                0
 2017-02-03 18:31:46.965493+01 | 1486143106.96549 | pgbench_branches |             8192

 2017-02-03 18:31:48.050951+01 | 1486143108.05095 | pgbench_accounts |       1342955520
 2017-02-03 18:31:48.050951+01 | 1486143108.05095 | pgbench_tellers  |            49152
 2017-02-03 18:31:48.050951+01 | 1486143108.05095 | pgbench_history  |                0
 2017-02-03 18:31:48.050951+01 | 1486143108.05095 | pgbench_branches |             8192

 2017-02-03 18:31:49.126197+01 | 1486143109.1262 | pgbench_accounts |       1342955520
 2017-02-03 18:31:49.126197+01 | 1486143109.1262 | pgbench_tellers  |            49152
 2017-02-03 18:31:49.126197+01 | 1486143109.1262 | pgbench_history  |                0
 2017-02-03 18:31:49.126197+01 | 1486143109.1262 | pgbench_branches |             8192

 2017-02-03 18:31:50.205812+01 | 1486143110.20581 | pgbench_accounts |       1342955520
 2017-02-03 18:31:50.205812+01 | 1486143110.20581 | pgbench_tellers  |            49152
 2017-02-03 18:31:50.205812+01 | 1486143110.20581 | pgbench_history  |                0
 2017-02-03 18:31:50.205812+01 | 1486143110.20581 | pgbench_branches |             8192

 2017-02-03 18:31:51.280291+01 | 1486143111.28029 | pgbench_accounts |       1342955520
 2017-02-03 18:31:51.280291+01 | 1486143111.28029 | pgbench_tellers  |            49152
 2017-02-03 18:31:51.280291+01 | 1486143111.28029 | pgbench_history  |                0
 2017-02-03 18:31:51.280291+01 | 1486143111.28029 | pgbench_branches |             8192

 2017-02-03 18:31:52.362808+01 | 1486143112.36281 | pgbench_accounts |       1342955520
 2017-02-03 18:31:52.362808+01 | 1486143112.36281 | pgbench_tellers  |            49152
 2017-02-03 18:31:52.362808+01 | 1486143112.36281 | pgbench_history  |                0
 2017-02-03 18:31:52.362808+01 | 1486143112.36281 | pgbench_branches |             8192

 2017-02-03 18:31:53.437013+01 | 1486143113.43701 | pgbench_accounts |       1342955520
 2017-02-03 18:31:53.437013+01 | 1486143113.43701 | pgbench_tellers  |            49152
 2017-02-03 18:31:53.437013+01 | 1486143113.43701 | pgbench_history  |                0
 2017-02-03 18:31:53.437013+01 | 1486143113.43701 | pgbench_branches |             8192

 2017-02-03 18:31:54.509042+01 | 1486143114.50904 | pgbench_accounts |       1342955520
 2017-02-03 18:31:54.509042+01 | 1486143114.50904 | pgbench_tellers  |            49152
 2017-02-03 18:31:54.509042+01 | 1486143114.50904 | pgbench_history  |                0
 2017-02-03 18:31:54.509042+01 | 1486143114.50904 | pgbench_branches |             8192

 2017-02-03 18:31:55.582422+01 | 1486143115.58242 | pgbench_accounts |       1342955520
 2017-02-03 18:31:55.582422+01 | 1486143115.58242 | pgbench_tellers  |            49152
 2017-02-03 18:31:55.582422+01 | 1486143115.58242 | pgbench_history  |                0
 2017-02-03 18:31:55.582422+01 | 1486143115.58242 | pgbench_branches |             8192

 2017-02-03 18:31:56.663647+01 | 1486143116.66365 | pgbench_accounts |       1342955520
 2017-02-03 18:31:56.663647+01 | 1486143116.66365 | pgbench_tellers  |            49152
 2017-02-03 18:31:56.663647+01 | 1486143116.66365 | pgbench_history  |                0
 2017-02-03 18:31:56.663647+01 | 1486143116.66365 | pgbench_branches |             8192

 2017-02-03 18:31:57.739356+01 | 1486143117.73936 | pgbench_accounts |       1342955520
 2017-02-03 18:31:57.739356+01 | 1486143117.73936 | pgbench_tellers  |            49152
 2017-02-03 18:31:57.739356+01 | 1486143117.73936 | pgbench_history  |                0
 2017-02-03 18:31:57.739356+01 | 1486143117.73936 | pgbench_branches |             8192

 2017-02-03 18:31:58.812183+01 | 1486143118.81218 | pgbench_accounts |       1342955520
 2017-02-03 18:31:58.812183+01 | 1486143118.81218 | pgbench_tellers  |            49152
 2017-02-03 18:31:58.812183+01 | 1486143118.81218 | pgbench_history  |                0
 2017-02-03 18:31:58.812183+01 | 1486143118.81218 | pgbench_branches |             8192

 2017-02-03 18:31:59.89476+01 | 1486143119.89476 | pgbench_accounts |       1342955520
 2017-02-03 18:31:59.89476+01 | 1486143119.89476 | pgbench_tellers  |            49152
 2017-02-03 18:31:59.89476+01 | 1486143119.89476 | pgbench_history  |                0
 2017-02-03 18:31:59.89476+01 | 1486143119.89476 | pgbench_branches |             8192

 2017-02-03 18:32:00.972821+01 | 1486143120.97282 | pgbench_accounts |       1342955520
 2017-02-03 18:32:00.972821+01 | 1486143120.97282 | pgbench_tellers  |            49152
 2017-02-03 18:32:00.972821+01 | 1486143120.97282 | pgbench_history  |                0
 2017-02-03 18:32:00.972821+01 | 1486143120.97282 | pgbench_branches |             8192

 2017-02-03 18:32:02.054236+01 | 1486143122.05424 | pgbench_accounts |       1342955520
 2017-02-03 18:32:02.054236+01 | 1486143122.05424 | pgbench_tellers  |            49152
 2017-02-03 18:32:02.054236+01 | 1486143122.05424 | pgbench_history  |                0
 2017-02-03 18:32:02.054236+01 | 1486143122.05424 | pgbench_branches |             8192

 2017-02-03 18:32:03.130998+01 | 1486143123.131 | pgbench_accounts |       1342955520
 2017-02-03 18:32:03.130998+01 | 1486143123.131 | pgbench_tellers  |            49152
 2017-02-03 18:32:03.130998+01 | 1486143123.131 | pgbench_history  |                0
 2017-02-03 18:32:03.130998+01 | 1486143123.131 | pgbench_branches |             8192

 2017-02-03 18:32:04.202907+01 | 1486143124.20291 | pgbench_accounts |       1342955520
 2017-02-03 18:32:04.202907+01 | 1486143124.20291 | pgbench_tellers  |            49152
 2017-02-03 18:32:04.202907+01 | 1486143124.20291 | pgbench_history  |                0
 2017-02-03 18:32:04.202907+01 | 1486143124.20291 | pgbench_branches |             8192

 2017-02-03 18:32:05.273807+01 | 1486143125.27381 | pgbench_accounts |       1342955520
 2017-02-03 18:32:05.273807+01 | 1486143125.27381 | pgbench_tellers  |            49152
 2017-02-03 18:32:05.273807+01 | 1486143125.27381 | pgbench_history  |                0
 2017-02-03 18:32:05.273807+01 | 1486143125.27381 | pgbench_branches |             8192

 2017-02-03 18:32:06.359272+01 | 1486143126.35927 | pgbench_accounts |       1342955520
 2017-02-03 18:32:06.359272+01 | 1486143126.35927 | pgbench_tellers  |            49152
 2017-02-03 18:32:06.359272+01 | 1486143126.35927 | pgbench_history  |                0
 2017-02-03 18:32:06.359272+01 | 1486143126.35927 | pgbench_branches |             8192

 2017-02-03 18:32:07.43642+01 | 1486143127.43642 | pgbench_accounts |       1342955520
 2017-02-03 18:32:07.43642+01 | 1486143127.43642 | pgbench_tellers  |            49152
 2017-02-03 18:32:07.43642+01 | 1486143127.43642 | pgbench_history  |                0
 2017-02-03 18:32:07.43642+01 | 1486143127.43642 | pgbench_branches |             8192

 2017-02-03 18:32:08.519017+01 | 1486143128.51902 | pgbench_accounts |       1342955520
 2017-02-03 18:32:08.519017+01 | 1486143128.51902 | pgbench_tellers  |            49152
 2017-02-03 18:32:08.519017+01 | 1486143128.51902 | pgbench_history  |                0
 2017-02-03 18:32:08.519017+01 | 1486143128.51902 | pgbench_branches |             8192

 2017-02-03 18:32:09.596705+01 | 1486143129.5967 | pgbench_accounts |       1342955520
 2017-02-03 18:32:09.596705+01 | 1486143129.5967 | pgbench_tellers  |            49152
 2017-02-03 18:32:09.596705+01 | 1486143129.5967 | pgbench_history  |                0
 2017-02-03 18:32:09.596705+01 | 1486143129.5967 | pgbench_branches |             8192

 2017-02-03 18:32:10.675273+01 | 1486143130.67527 | pgbench_accounts |       1342955520
 2017-02-03 18:32:10.675273+01 | 1486143130.67527 | pgbench_tellers  |            49152
 2017-02-03 18:32:10.675273+01 | 1486143130.67527 | pgbench_history  |                0
 2017-02-03 18:32:10.675273+01 | 1486143130.67527 | pgbench_branches |             8192

 2017-02-03 18:32:11.752909+01 | 1486143131.75291 | pgbench_accounts |       1342955520
 2017-02-03 18:32:11.752909+01 | 1486143131.75291 | pgbench_tellers  |            49152
 2017-02-03 18:32:11.752909+01 | 1486143131.75291 | pgbench_history  |                0
 2017-02-03 18:32:11.752909+01 | 1486143131.75291 | pgbench_branches |             8192

 2017-02-03 18:32:12.827174+01 | 1486143132.82717 | pgbench_accounts |       1342955520
 2017-02-03 18:32:12.827174+01 | 1486143132.82717 | pgbench_tellers  |            49152
 2017-02-03 18:32:12.827174+01 | 1486143132.82717 | pgbench_history  |                0
 2017-02-03 18:32:12.827174+01 | 1486143132.82717 | pgbench_branches |             8192

 2017-02-03 18:32:13.904407+01 | 1486143133.90441 | pgbench_accounts |       1342955520
 2017-02-03 18:32:13.904407+01 | 1486143133.90441 | pgbench_tellers  |            49152
 2017-02-03 18:32:13.904407+01 | 1486143133.90441 | pgbench_history  |                0
 2017-02-03 18:32:13.904407+01 | 1486143133.90441 | pgbench_branches |             8192

 2017-02-03 18:32:14.980196+01 | 1486143134.9802 | pgbench_accounts |       1342955520
 2017-02-03 18:32:14.980196+01 | 1486143134.9802 | pgbench_tellers  |            49152
 2017-02-03 18:32:14.980196+01 | 1486143134.9802 | pgbench_history  |                0
 2017-02-03 18:32:14.980196+01 | 1486143134.9802 | pgbench_branches |             8192

 2017-02-03 18:32:16.050386+01 | 1486143136.05039 | pgbench_accounts |       1342955520
 2017-02-03 18:32:16.050386+01 | 1486143136.05039 | pgbench_tellers  |            49152
 2017-02-03 18:32:16.050386+01 | 1486143136.05039 | pgbench_history  |                0
 2017-02-03 18:32:16.050386+01 | 1486143136.05039 | pgbench_branches |             8192

 2017-02-03 18:32:17.132971+01 | 1486143137.13297 | pgbench_accounts |       1342955520
 2017-02-03 18:32:17.132971+01 | 1486143137.13297 | pgbench_tellers  |            49152
 2017-02-03 18:32:17.132971+01 | 1486143137.13297 | pgbench_history  |                0
 2017-02-03 18:32:17.132971+01 | 1486143137.13297 | pgbench_branches |             8192

 2017-02-03 18:32:18.212889+01 | 1486143138.21289 | pgbench_accounts |       1342955520
 2017-02-03 18:32:18.212889+01 | 1486143138.21289 | pgbench_tellers  |            49152
 2017-02-03 18:32:18.212889+01 | 1486143138.21289 | pgbench_history  |                0
 2017-02-03 18:32:18.212889+01 | 1486143138.21289 | pgbench_branches |             8192

 2017-02-03 18:32:19.288044+01 | 1486143139.28804 | pgbench_accounts |       1342955520
 2017-02-03 18:32:19.288044+01 | 1486143139.28804 | pgbench_tellers  |            49152
 2017-02-03 18:32:19.288044+01 | 1486143139.28804 | pgbench_history  |                0
 2017-02-03 18:32:19.288044+01 | 1486143139.28804 | pgbench_branches |             8192

 2017-02-03 18:32:20.366043+01 | 1486143140.36604 | pgbench_accounts |       1342955520
 2017-02-03 18:32:20.366043+01 | 1486143140.36604 | pgbench_tellers  |            49152
 2017-02-03 18:32:20.366043+01 | 1486143140.36604 | pgbench_history  |                0
 2017-02-03 18:32:20.366043+01 | 1486143140.36604 | pgbench_branches |             8192

 2017-02-03 18:32:21.442528+01 | 1486143141.44253 | pgbench_accounts |       1342955520
 2017-02-03 18:32:21.442528+01 | 1486143141.44253 | pgbench_tellers  |            49152
 2017-02-03 18:32:21.442528+01 | 1486143141.44253 | pgbench_history  |                0
 2017-02-03 18:32:21.442528+01 | 1486143141.44253 | pgbench_branches |             8192

 2017-02-03 18:32:22.520991+01 | 1486143142.52099 | pgbench_accounts |       1342955520
 2017-02-03 18:32:22.520991+01 | 1486143142.52099 | pgbench_tellers  |            49152
 2017-02-03 18:32:22.520991+01 | 1486143142.52099 | pgbench_history  |                0
 2017-02-03 18:32:22.520991+01 | 1486143142.52099 | pgbench_branches |             8192

 2017-02-03 18:32:23.602226+01 | 1486143143.60223 | pgbench_accounts |       1342955520
 2017-02-03 18:32:23.602226+01 | 1486143143.60223 | pgbench_tellers  |            49152
 2017-02-03 18:32:23.602226+01 | 1486143143.60223 | pgbench_history  |                0
 2017-02-03 18:32:23.602226+01 | 1486143143.60223 | pgbench_branches |             8192

 2017-02-03 18:32:24.671607+01 | 1486143144.67161 | pgbench_accounts |       1342955520
 2017-02-03 18:32:24.671607+01 | 1486143144.67161 | pgbench_tellers  |            49152
 2017-02-03 18:32:24.671607+01 | 1486143144.67161 | pgbench_history  |                0
 2017-02-03 18:32:24.671607+01 | 1486143144.67161 | pgbench_branches |             8192

 2017-02-03 18:32:25.748781+01 | 1486143145.74878 | pgbench_accounts |       1342955520
 2017-02-03 18:32:25.748781+01 | 1486143145.74878 | pgbench_tellers  |            49152
 2017-02-03 18:32:25.748781+01 | 1486143145.74878 | pgbench_history  |                0
 2017-02-03 18:32:25.748781+01 | 1486143145.74878 | pgbench_branches |             8192

 2017-02-03 18:32:26.824672+01 | 1486143146.82467 | pgbench_accounts |       1342955520
 2017-02-03 18:32:26.824672+01 | 1486143146.82467 | pgbench_tellers  |            49152
 2017-02-03 18:32:26.824672+01 | 1486143146.82467 | pgbench_history  |                0
 2017-02-03 18:32:26.824672+01 | 1486143146.82467 | pgbench_branches |             8192

 2017-02-03 18:32:27.906538+01 | 1486143147.90654 | pgbench_accounts |       1342955520
 2017-02-03 18:32:27.906538+01 | 1486143147.90654 | pgbench_tellers  |            49152
 2017-02-03 18:32:27.906538+01 | 1486143147.90654 | pgbench_history  |                0
 2017-02-03 18:32:27.906538+01 | 1486143147.90654 | pgbench_branches |             8192

 2017-02-03 18:32:28.978922+01 | 1486143148.97892 | pgbench_accounts |       1342955520
 2017-02-03 18:32:28.978922+01 | 1486143148.97892 | pgbench_tellers  |            49152
 2017-02-03 18:32:28.978922+01 | 1486143148.97892 | pgbench_history  |                0
 2017-02-03 18:32:28.978922+01 | 1486143148.97892 | pgbench_branches |             8192

 2017-02-03 18:32:30.05052+01 | 1486143150.05052 | pgbench_accounts |       1342955520
 2017-02-03 18:32:30.05052+01 | 1486143150.05052 | pgbench_tellers  |            49152
 2017-02-03 18:32:30.05052+01 | 1486143150.05052 | pgbench_history  |                0
 2017-02-03 18:32:30.05052+01 | 1486143150.05052 | pgbench_branches |             8192

 2017-02-03 18:32:31.130187+01 | 1486143151.13019 | pgbench_accounts |       1342955520
 2017-02-03 18:32:31.130187+01 | 1486143151.13019 | pgbench_tellers  |            49152
 2017-02-03 18:32:31.130187+01 | 1486143151.13019 | pgbench_history  |                0
 2017-02-03 18:32:31.130187+01 | 1486143151.13019 | pgbench_branches |             8192

 2017-02-03 18:32:32.206689+01 | 1486143152.20669 | pgbench_accounts |       1342955520
 2017-02-03 18:32:32.206689+01 | 1486143152.20669 | pgbench_tellers  |            49152
 2017-02-03 18:32:32.206689+01 | 1486143152.20669 | pgbench_history  |                0
 2017-02-03 18:32:32.206689+01 | 1486143152.20669 | pgbench_branches |             8192

 2017-02-03 18:32:33.27926+01 | 1486143153.27926 | pgbench_accounts |       1342955520
 2017-02-03 18:32:33.27926+01 | 1486143153.27926 | pgbench_tellers  |            49152
 2017-02-03 18:32:33.27926+01 | 1486143153.27926 | pgbench_history  |                0
 2017-02-03 18:32:33.27926+01 | 1486143153.27926 | pgbench_branches |             8192

 2017-02-03 18:32:34.352623+01 | 1486143154.35262 | pgbench_accounts |       1342955520
 2017-02-03 18:32:34.352623+01 | 1486143154.35262 | pgbench_tellers  |            49152
 2017-02-03 18:32:34.352623+01 | 1486143154.35262 | pgbench_history  |                0
 2017-02-03 18:32:34.352623+01 | 1486143154.35262 | pgbench_branches |             8192

 2017-02-03 18:32:35.42971+01 | 1486143155.42971 | pgbench_accounts |       1342955520
 2017-02-03 18:32:35.42971+01 | 1486143155.42971 | pgbench_tellers  |            49152
 2017-02-03 18:32:35.42971+01 | 1486143155.42971 | pgbench_history  |                0
 2017-02-03 18:32:35.42971+01 | 1486143155.42971 | pgbench_branches |             8192

 2017-02-03 18:32:36.506733+01 | 1486143156.50673 | pgbench_accounts |       1342955520
 2017-02-03 18:32:36.506733+01 | 1486143156.50673 | pgbench_tellers  |            49152
 2017-02-03 18:32:36.506733+01 | 1486143156.50673 | pgbench_history  |                0
 2017-02-03 18:32:36.506733+01 | 1486143156.50673 | pgbench_branches |             8192

 2017-02-03 18:32:37.576536+01 | 1486143157.57654 | pgbench_accounts |       1342955520
 2017-02-03 18:32:37.576536+01 | 1486143157.57654 | pgbench_tellers  |            49152
 2017-02-03 18:32:37.576536+01 | 1486143157.57654 | pgbench_history  |                0
 2017-02-03 18:32:37.576536+01 | 1486143157.57654 | pgbench_branches |             8192

 2017-02-03 18:32:38.656036+01 | 1486143158.65604 | pgbench_accounts |       1342955520
 2017-02-03 18:32:38.656036+01 | 1486143158.65604 | pgbench_tellers  |            49152
 2017-02-03 18:32:38.656036+01 | 1486143158.65604 | pgbench_history  |                0
 2017-02-03 18:32:38.656036+01 | 1486143158.65604 | pgbench_branches |             8192

 2017-02-03 18:32:39.726275+01 | 1486143159.72627 | pgbench_accounts |       1342955520
 2017-02-03 18:32:39.726275+01 | 1486143159.72627 | pgbench_tellers  |            49152
 2017-02-03 18:32:39.726275+01 | 1486143159.72627 | pgbench_history  |                0
 2017-02-03 18:32:39.726275+01 | 1486143159.72627 | pgbench_branches |             8192

 2017-02-03 18:32:40.79638+01 | 1486143160.79638 | pgbench_accounts |       1342955520
 2017-02-03 18:32:40.79638+01 | 1486143160.79638 | pgbench_tellers  |            49152
 2017-02-03 18:32:40.79638+01 | 1486143160.79638 | pgbench_history  |                0
 2017-02-03 18:32:40.79638+01 | 1486143160.79638 | pgbench_branches |             8192

 2017-02-03 18:32:41.876513+01 | 1486143161.87651 | pgbench_accounts |       1342955520
 2017-02-03 18:32:41.876513+01 | 1486143161.87651 | pgbench_tellers  |            49152
 2017-02-03 18:32:41.876513+01 | 1486143161.87651 | pgbench_history  |                0
 2017-02-03 18:32:41.876513+01 | 1486143161.87651 | pgbench_branches |             8192

 2017-02-03 18:32:42.949787+01 | 1486143162.94979 | pgbench_accounts |       1342955520
 2017-02-03 18:32:42.949787+01 | 1486143162.94979 | pgbench_tellers  |            49152
 2017-02-03 18:32:42.949787+01 | 1486143162.94979 | pgbench_history  |                0
 2017-02-03 18:32:42.949787+01 | 1486143162.94979 | pgbench_branches |             8192

 2017-02-03 18:32:44.028983+01 | 1486143164.02898 | pgbench_accounts |       1342955520
 2017-02-03 18:32:44.028983+01 | 1486143164.02898 | pgbench_tellers  |            49152
 2017-02-03 18:32:44.028983+01 | 1486143164.02898 | pgbench_history  |                0
 2017-02-03 18:32:44.028983+01 | 1486143164.02898 | pgbench_branches |             8192

 2017-02-03 18:32:45.112224+01 | 1486143165.11222 | pgbench_accounts |       1342955520
 2017-02-03 18:32:45.112224+01 | 1486143165.11222 | pgbench_tellers  |            49152
 2017-02-03 18:32:45.112224+01 | 1486143165.11222 | pgbench_history  |                0
 2017-02-03 18:32:45.112224+01 | 1486143165.11222 | pgbench_branches |             8192

 2017-02-03 18:32:46.193597+01 | 1486143166.1936 | pgbench_accounts |       1342955520
 2017-02-03 18:32:46.193597+01 | 1486143166.1936 | pgbench_tellers  |            49152
 2017-02-03 18:32:46.193597+01 | 1486143166.1936 | pgbench_history  |                0
 2017-02-03 18:32:46.193597+01 | 1486143166.1936 | pgbench_branches |             8192

 2017-02-03 18:32:47.274403+01 | 1486143167.2744 | pgbench_accounts |       1342955520
 2017-02-03 18:32:47.274403+01 | 1486143167.2744 | pgbench_tellers  |            49152
 2017-02-03 18:32:47.274403+01 | 1486143167.2744 | pgbench_history  |                0
 2017-02-03 18:32:47.274403+01 | 1486143167.2744 | pgbench_branches |             8192

 2017-02-03 18:32:48.346776+01 | 1486143168.34678 | pgbench_accounts |       1342955520
 2017-02-03 18:32:48.346776+01 | 1486143168.34678 | pgbench_tellers  |            49152
 2017-02-03 18:32:48.346776+01 | 1486143168.34678 | pgbench_history  |                0
 2017-02-03 18:32:48.346776+01 | 1486143168.34678 | pgbench_branches |             8192

 2017-02-03 18:32:49.428407+01 | 1486143169.42841 | pgbench_accounts |       1342955520
 2017-02-03 18:32:49.428407+01 | 1486143169.42841 | pgbench_tellers  |            49152
 2017-02-03 18:32:49.428407+01 | 1486143169.42841 | pgbench_history  |                0
 2017-02-03 18:32:49.428407+01 | 1486143169.42841 | pgbench_branches |             8192

