 2017-02-03 15:06:30.516739+01 | 1486130790.51674 | pgbench_branches_pkey |            40960
 2017-02-03 15:06:30.516739+01 | 1486130790.51674 | pgbench_tellers_pkey  |           245760
 2017-02-03 15:06:30.516739+01 | 1486130790.51674 | pgbench_accounts_pkey |       2246197248

 2017-02-03 15:06:31.716552+01 | 1486130791.71655 | pgbench_branches_pkey |            40960
 2017-02-03 15:06:31.716552+01 | 1486130791.71655 | pgbench_tellers_pkey  |           245760
 2017-02-03 15:06:31.716552+01 | 1486130791.71655 | pgbench_accounts_pkey |       2246197248

 2017-02-03 15:06:32.874071+01 | 1486130792.87407 | pgbench_branches_pkey |            40960
 2017-02-03 15:06:32.874071+01 | 1486130792.87407 | pgbench_tellers_pkey  |           245760
 2017-02-03 15:06:32.874071+01 | 1486130792.87407 | pgbench_accounts_pkey |       2246197248

 2017-02-03 15:06:34.053256+01 | 1486130794.05326 | pgbench_branches_pkey |            40960
 2017-02-03 15:06:34.053256+01 | 1486130794.05326 | pgbench_tellers_pkey  |           245760
 2017-02-03 15:06:34.053256+01 | 1486130794.05326 | pgbench_accounts_pkey |       2246197248

 2017-02-03 15:06:35.216108+01 | 1486130795.21611 | pgbench_branches_pkey |            40960
 2017-02-03 15:06:35.216108+01 | 1486130795.21611 | pgbench_tellers_pkey  |           245760
 2017-02-03 15:06:35.216108+01 | 1486130795.21611 | pgbench_accounts_pkey |       2246197248

 2017-02-03 15:06:36.380791+01 | 1486130796.38079 | pgbench_branches_pkey |            40960
 2017-02-03 15:06:36.380791+01 | 1486130796.38079 | pgbench_tellers_pkey  |           245760
 2017-02-03 15:06:36.380791+01 | 1486130796.38079 | pgbench_accounts_pkey |       2246197248

 2017-02-03 15:06:37.546173+01 | 1486130797.54617 | pgbench_branches_pkey |            40960
 2017-02-03 15:06:37.546173+01 | 1486130797.54617 | pgbench_tellers_pkey  |           245760
 2017-02-03 15:06:37.546173+01 | 1486130797.54617 | pgbench_accounts_pkey |       2246197248

 2017-02-03 15:06:38.682644+01 | 1486130798.68264 | pgbench_branches_pkey |            40960
 2017-02-03 15:06:38.682644+01 | 1486130798.68264 | pgbench_tellers_pkey  |           245760
 2017-02-03 15:06:38.682644+01 | 1486130798.68264 | pgbench_accounts_pkey |       2246197248

 2017-02-03 15:06:39.842078+01 | 1486130799.84208 | pgbench_branches_pkey |            40960
 2017-02-03 15:06:39.842078+01 | 1486130799.84208 | pgbench_tellers_pkey  |           245760
 2017-02-03 15:06:39.842078+01 | 1486130799.84208 | pgbench_accounts_pkey |       2246197248

 2017-02-03 15:06:41.030762+01 | 1486130801.03076 | pgbench_branches_pkey |            40960
 2017-02-03 15:06:41.030762+01 | 1486130801.03076 | pgbench_tellers_pkey  |           245760
 2017-02-03 15:06:41.030762+01 | 1486130801.03076 | pgbench_accounts_pkey |       2246197248

 2017-02-03 15:06:42.196085+01 | 1486130802.19608 | pgbench_branches_pkey |            40960
 2017-02-03 15:06:42.196085+01 | 1486130802.19608 | pgbench_tellers_pkey  |           245760
 2017-02-03 15:06:42.196085+01 | 1486130802.19608 | pgbench_accounts_pkey |       2246197248

 2017-02-03 15:06:43.341368+01 | 1486130803.34137 | pgbench_branches_pkey |            40960
 2017-02-03 15:06:43.341368+01 | 1486130803.34137 | pgbench_tellers_pkey  |           245760
 2017-02-03 15:06:43.341368+01 | 1486130803.34137 | pgbench_accounts_pkey |       2246197248

 2017-02-03 15:06:44.490478+01 | 1486130804.49048 | pgbench_branches_pkey |            40960
 2017-02-03 15:06:44.490478+01 | 1486130804.49048 | pgbench_tellers_pkey  |           245760
 2017-02-03 15:06:44.490478+01 | 1486130804.49048 | pgbench_accounts_pkey |       2246197248

 2017-02-03 15:06:45.724908+01 | 1486130805.72491 | pgbench_branches_pkey |            40960
 2017-02-03 15:06:45.724908+01 | 1486130805.72491 | pgbench_tellers_pkey  |           245760
 2017-02-03 15:06:45.724908+01 | 1486130805.72491 | pgbench_accounts_pkey |       2246197248

 2017-02-03 15:06:46.872137+01 | 1486130806.87214 | pgbench_branches_pkey |            40960
 2017-02-03 15:06:46.872137+01 | 1486130806.87214 | pgbench_tellers_pkey  |           245760
 2017-02-03 15:06:46.872137+01 | 1486130806.87214 | pgbench_accounts_pkey |       2246197248

 2017-02-03 15:06:48.080431+01 | 1486130808.08043 | pgbench_branches_pkey |            40960
 2017-02-03 15:06:48.080431+01 | 1486130808.08043 | pgbench_tellers_pkey  |           245760
 2017-02-03 15:06:48.080431+01 | 1486130808.08043 | pgbench_accounts_pkey |       2246197248

 2017-02-03 15:06:49.268425+01 | 1486130809.26842 | pgbench_branches_pkey |            40960
 2017-02-03 15:06:49.268425+01 | 1486130809.26842 | pgbench_tellers_pkey  |           245760
 2017-02-03 15:06:49.268425+01 | 1486130809.26842 | pgbench_accounts_pkey |       2246197248

 2017-02-03 15:06:50.418816+01 | 1486130810.41882 | pgbench_branches_pkey |            40960
 2017-02-03 15:06:50.418816+01 | 1486130810.41882 | pgbench_tellers_pkey  |           245760
 2017-02-03 15:06:50.418816+01 | 1486130810.41882 | pgbench_accounts_pkey |       2246197248

 2017-02-03 15:06:51.571783+01 | 1486130811.57178 | pgbench_branches_pkey |            40960
 2017-02-03 15:06:51.571783+01 | 1486130811.57178 | pgbench_tellers_pkey  |           245760
 2017-02-03 15:06:51.571783+01 | 1486130811.57178 | pgbench_accounts_pkey |       2246197248

 2017-02-03 15:06:52.731513+01 | 1486130812.73151 | pgbench_branches_pkey |            40960
 2017-02-03 15:06:52.731513+01 | 1486130812.73151 | pgbench_tellers_pkey  |           245760
 2017-02-03 15:06:52.731513+01 | 1486130812.73151 | pgbench_accounts_pkey |       2246197248

 2017-02-03 15:06:53.888362+01 | 1486130813.88836 | pgbench_branches_pkey |            40960
 2017-02-03 15:06:53.888362+01 | 1486130813.88836 | pgbench_tellers_pkey  |           245760
 2017-02-03 15:06:53.888362+01 | 1486130813.88836 | pgbench_accounts_pkey |       2246197248

 2017-02-03 15:06:55.088292+01 | 1486130815.08829 | pgbench_branches_pkey |            40960
 2017-02-03 15:06:55.088292+01 | 1486130815.08829 | pgbench_tellers_pkey  |           245760
 2017-02-03 15:06:55.088292+01 | 1486130815.08829 | pgbench_accounts_pkey |       2246197248

 2017-02-03 15:06:56.252337+01 | 1486130816.25234 | pgbench_branches_pkey |            40960
 2017-02-03 15:06:56.252337+01 | 1486130816.25234 | pgbench_tellers_pkey  |           245760
 2017-02-03 15:06:56.252337+01 | 1486130816.25234 | pgbench_accounts_pkey |       2246197248

 2017-02-03 15:06:57.427218+01 | 1486130817.42722 | pgbench_branches_pkey |            40960
 2017-02-03 15:06:57.427218+01 | 1486130817.42722 | pgbench_tellers_pkey  |           245760
 2017-02-03 15:06:57.427218+01 | 1486130817.42722 | pgbench_accounts_pkey |       2246197248

 2017-02-03 15:06:58.622073+01 | 1486130818.62207 | pgbench_branches_pkey |            40960
 2017-02-03 15:06:58.622073+01 | 1486130818.62207 | pgbench_tellers_pkey  |           245760
 2017-02-03 15:06:58.622073+01 | 1486130818.62207 | pgbench_accounts_pkey |       2246197248

 2017-02-03 15:06:59.759311+01 | 1486130819.75931 | pgbench_branches_pkey |            40960
 2017-02-03 15:06:59.759311+01 | 1486130819.75931 | pgbench_tellers_pkey  |           245760
 2017-02-03 15:06:59.759311+01 | 1486130819.75931 | pgbench_accounts_pkey |       2246197248

 2017-02-03 15:07:00.938163+01 | 1486130820.93816 | pgbench_branches_pkey |            40960
 2017-02-03 15:07:00.938163+01 | 1486130820.93816 | pgbench_tellers_pkey  |           245760
 2017-02-03 15:07:00.938163+01 | 1486130820.93816 | pgbench_accounts_pkey |       2246197248

 2017-02-03 15:07:02.133452+01 | 1486130822.13345 | pgbench_branches_pkey |            40960
 2017-02-03 15:07:02.133452+01 | 1486130822.13345 | pgbench_tellers_pkey  |           245760
 2017-02-03 15:07:02.133452+01 | 1486130822.13345 | pgbench_accounts_pkey |       2246197248

 2017-02-03 15:07:03.262324+01 | 1486130823.26232 | pgbench_branches_pkey |            40960
 2017-02-03 15:07:03.262324+01 | 1486130823.26232 | pgbench_tellers_pkey  |           245760
 2017-02-03 15:07:03.262324+01 | 1486130823.26232 | pgbench_accounts_pkey |       2246197248

 2017-02-03 15:07:04.435172+01 | 1486130824.43517 | pgbench_branches_pkey |            40960
 2017-02-03 15:07:04.435172+01 | 1486130824.43517 | pgbench_tellers_pkey  |           245760
 2017-02-03 15:07:04.435172+01 | 1486130824.43517 | pgbench_accounts_pkey |       2246197248

 2017-02-03 15:07:05.611225+01 | 1486130825.61122 | pgbench_branches_pkey |            40960
 2017-02-03 15:07:05.611225+01 | 1486130825.61122 | pgbench_tellers_pkey  |           245760
 2017-02-03 15:07:05.611225+01 | 1486130825.61122 | pgbench_accounts_pkey |       2246197248

 2017-02-03 15:07:06.789231+01 | 1486130826.78923 | pgbench_branches_pkey |            40960
 2017-02-03 15:07:06.789231+01 | 1486130826.78923 | pgbench_tellers_pkey  |           245760
 2017-02-03 15:07:06.789231+01 | 1486130826.78923 | pgbench_accounts_pkey |       2246197248

 2017-02-03 15:07:07.996042+01 | 1486130827.99604 | pgbench_branches_pkey |            40960
 2017-02-03 15:07:07.996042+01 | 1486130827.99604 | pgbench_tellers_pkey  |           245760
 2017-02-03 15:07:07.996042+01 | 1486130827.99604 | pgbench_accounts_pkey |       2246197248

 2017-02-03 15:07:09.153315+01 | 1486130829.15332 | pgbench_branches_pkey |            40960
 2017-02-03 15:07:09.153315+01 | 1486130829.15332 | pgbench_tellers_pkey  |           245760
 2017-02-03 15:07:09.153315+01 | 1486130829.15332 | pgbench_accounts_pkey |       2246197248

 2017-02-03 15:07:10.328933+01 | 1486130830.32893 | pgbench_branches_pkey |            40960
 2017-02-03 15:07:10.328933+01 | 1486130830.32893 | pgbench_tellers_pkey  |           245760
 2017-02-03 15:07:10.328933+01 | 1486130830.32893 | pgbench_accounts_pkey |       2246197248

 2017-02-03 15:07:11.510373+01 | 1486130831.51037 | pgbench_branches_pkey |            40960
 2017-02-03 15:07:11.510373+01 | 1486130831.51037 | pgbench_tellers_pkey  |           245760
 2017-02-03 15:07:11.510373+01 | 1486130831.51037 | pgbench_accounts_pkey |       2246197248

 2017-02-03 15:07:12.699611+01 | 1486130832.69961 | pgbench_branches_pkey |            40960
 2017-02-03 15:07:12.699611+01 | 1486130832.69961 | pgbench_tellers_pkey  |           245760
 2017-02-03 15:07:12.699611+01 | 1486130832.69961 | pgbench_accounts_pkey |       2246197248

 2017-02-03 15:07:13.878578+01 | 1486130833.87858 | pgbench_branches_pkey |            40960
 2017-02-03 15:07:13.878578+01 | 1486130833.87858 | pgbench_tellers_pkey  |           245760
 2017-02-03 15:07:13.878578+01 | 1486130833.87858 | pgbench_accounts_pkey |       2246197248

 2017-02-03 15:07:15.048806+01 | 1486130835.04881 | pgbench_branches_pkey |            40960
 2017-02-03 15:07:15.048806+01 | 1486130835.04881 | pgbench_tellers_pkey  |           245760
 2017-02-03 15:07:15.048806+01 | 1486130835.04881 | pgbench_accounts_pkey |       2246197248

 2017-02-03 15:07:16.228022+01 | 1486130836.22802 | pgbench_branches_pkey |            40960
 2017-02-03 15:07:16.228022+01 | 1486130836.22802 | pgbench_tellers_pkey  |           245760
 2017-02-03 15:07:16.228022+01 | 1486130836.22802 | pgbench_accounts_pkey |       2246197248

 2017-02-03 15:07:17.375781+01 | 1486130837.37578 | pgbench_branches_pkey |            40960
 2017-02-03 15:07:17.375781+01 | 1486130837.37578 | pgbench_tellers_pkey  |           245760
 2017-02-03 15:07:17.375781+01 | 1486130837.37578 | pgbench_accounts_pkey |       2246197248

 2017-02-03 15:07:18.530264+01 | 1486130838.53026 | pgbench_branches_pkey |            40960
 2017-02-03 15:07:18.530264+01 | 1486130838.53026 | pgbench_tellers_pkey  |           245760
 2017-02-03 15:07:18.530264+01 | 1486130838.53026 | pgbench_accounts_pkey |       2246197248

 2017-02-03 15:07:19.710803+01 | 1486130839.7108 | pgbench_branches_pkey |            40960
 2017-02-03 15:07:19.710803+01 | 1486130839.7108 | pgbench_tellers_pkey  |           245760
 2017-02-03 15:07:19.710803+01 | 1486130839.7108 | pgbench_accounts_pkey |       2246197248

 2017-02-03 15:07:20.914751+01 | 1486130840.91475 | pgbench_branches_pkey |            40960
 2017-02-03 15:07:20.914751+01 | 1486130840.91475 | pgbench_tellers_pkey  |           245760
 2017-02-03 15:07:20.914751+01 | 1486130840.91475 | pgbench_accounts_pkey |       2246197248

 2017-02-03 15:07:22.094857+01 | 1486130842.09486 | pgbench_branches_pkey |            40960
 2017-02-03 15:07:22.094857+01 | 1486130842.09486 | pgbench_tellers_pkey  |           245760
 2017-02-03 15:07:22.094857+01 | 1486130842.09486 | pgbench_accounts_pkey |       2246197248

 2017-02-03 15:07:23.252465+01 | 1486130843.25247 | pgbench_branches_pkey |            40960
 2017-02-03 15:07:23.252465+01 | 1486130843.25247 | pgbench_tellers_pkey  |           245760
 2017-02-03 15:07:23.252465+01 | 1486130843.25247 | pgbench_accounts_pkey |       2246197248

 2017-02-03 15:07:24.38306+01 | 1486130844.38306 | pgbench_branches_pkey |            40960
 2017-02-03 15:07:24.38306+01 | 1486130844.38306 | pgbench_tellers_pkey  |           245760
 2017-02-03 15:07:24.38306+01 | 1486130844.38306 | pgbench_accounts_pkey |       2246197248

 2017-02-03 15:07:25.569674+01 | 1486130845.56967 | pgbench_branches_pkey |            40960
 2017-02-03 15:07:25.569674+01 | 1486130845.56967 | pgbench_tellers_pkey  |           245760
 2017-02-03 15:07:25.569674+01 | 1486130845.56967 | pgbench_accounts_pkey |       2246197248

 2017-02-03 15:07:26.759872+01 | 1486130846.75987 | pgbench_branches_pkey |            40960
 2017-02-03 15:07:26.759872+01 | 1486130846.75987 | pgbench_tellers_pkey  |           245760
 2017-02-03 15:07:26.759872+01 | 1486130846.75987 | pgbench_accounts_pkey |       2246197248

 2017-02-03 15:07:27.929097+01 | 1486130847.9291 | pgbench_branches_pkey |            40960
 2017-02-03 15:07:27.929097+01 | 1486130847.9291 | pgbench_tellers_pkey  |           245760
 2017-02-03 15:07:27.929097+01 | 1486130847.9291 | pgbench_accounts_pkey |       2246197248

 2017-02-03 15:07:29.099479+01 | 1486130849.09948 | pgbench_branches_pkey |            40960
 2017-02-03 15:07:29.099479+01 | 1486130849.09948 | pgbench_tellers_pkey  |           245760
 2017-02-03 15:07:29.099479+01 | 1486130849.09948 | pgbench_accounts_pkey |       2246197248

 2017-02-03 15:07:30.24486+01 | 1486130850.24486 | pgbench_branches_pkey |            40960
 2017-02-03 15:07:30.24486+01 | 1486130850.24486 | pgbench_tellers_pkey  |           245760
 2017-02-03 15:07:30.24486+01 | 1486130850.24486 | pgbench_accounts_pkey |       2246197248

 2017-02-03 15:07:31.426488+01 | 1486130851.42649 | pgbench_branches_pkey |            40960
 2017-02-03 15:07:31.426488+01 | 1486130851.42649 | pgbench_tellers_pkey  |           245760
 2017-02-03 15:07:31.426488+01 | 1486130851.42649 | pgbench_accounts_pkey |       2246197248

 2017-02-03 15:07:32.603827+01 | 1486130852.60383 | pgbench_branches_pkey |            40960
 2017-02-03 15:07:32.603827+01 | 1486130852.60383 | pgbench_tellers_pkey  |           245760
 2017-02-03 15:07:32.603827+01 | 1486130852.60383 | pgbench_accounts_pkey |       2246197248

 2017-02-03 15:07:33.769362+01 | 1486130853.76936 | pgbench_branches_pkey |            40960
 2017-02-03 15:07:33.769362+01 | 1486130853.76936 | pgbench_tellers_pkey  |           245760
 2017-02-03 15:07:33.769362+01 | 1486130853.76936 | pgbench_accounts_pkey |       2246197248

 2017-02-03 15:07:34.901361+01 | 1486130854.90136 | pgbench_branches_pkey |            40960
 2017-02-03 15:07:34.901361+01 | 1486130854.90136 | pgbench_tellers_pkey  |           245760
 2017-02-03 15:07:34.901361+01 | 1486130854.90136 | pgbench_accounts_pkey |       2246197248

 2017-02-03 15:07:36.067774+01 | 1486130856.06777 | pgbench_branches_pkey |            40960
 2017-02-03 15:07:36.067774+01 | 1486130856.06777 | pgbench_tellers_pkey  |           245760
 2017-02-03 15:07:36.067774+01 | 1486130856.06777 | pgbench_accounts_pkey |       2246197248

 2017-02-03 15:07:37.248409+01 | 1486130857.24841 | pgbench_branches_pkey |            40960
 2017-02-03 15:07:37.248409+01 | 1486130857.24841 | pgbench_tellers_pkey  |           245760
 2017-02-03 15:07:37.248409+01 | 1486130857.24841 | pgbench_accounts_pkey |       2246197248

 2017-02-03 15:07:38.393799+01 | 1486130858.3938 | pgbench_branches_pkey |            40960
 2017-02-03 15:07:38.393799+01 | 1486130858.3938 | pgbench_tellers_pkey  |           245760
 2017-02-03 15:07:38.393799+01 | 1486130858.3938 | pgbench_accounts_pkey |       2246197248

 2017-02-03 15:07:39.545155+01 | 1486130859.54516 | pgbench_branches_pkey |            40960
 2017-02-03 15:07:39.545155+01 | 1486130859.54516 | pgbench_tellers_pkey  |           245760
 2017-02-03 15:07:39.545155+01 | 1486130859.54516 | pgbench_accounts_pkey |       2246197248

 2017-02-03 15:07:40.772821+01 | 1486130860.77282 | pgbench_branches_pkey |            40960
 2017-02-03 15:07:40.772821+01 | 1486130860.77282 | pgbench_tellers_pkey  |           245760
 2017-02-03 15:07:40.772821+01 | 1486130860.77282 | pgbench_accounts_pkey |       2246197248

 2017-02-03 15:07:41.903345+01 | 1486130861.90335 | pgbench_branches_pkey |            40960
 2017-02-03 15:07:41.903345+01 | 1486130861.90335 | pgbench_tellers_pkey  |           245760
 2017-02-03 15:07:41.903345+01 | 1486130861.90335 | pgbench_accounts_pkey |       2246197248

 2017-02-03 15:07:43.047702+01 | 1486130863.0477 | pgbench_branches_pkey |            40960
 2017-02-03 15:07:43.047702+01 | 1486130863.0477 | pgbench_tellers_pkey  |           245760
 2017-02-03 15:07:43.047702+01 | 1486130863.0477 | pgbench_accounts_pkey |       2246197248

 2017-02-03 15:07:44.225625+01 | 1486130864.22563 | pgbench_branches_pkey |            40960
 2017-02-03 15:07:44.225625+01 | 1486130864.22563 | pgbench_tellers_pkey  |           245760
 2017-02-03 15:07:44.225625+01 | 1486130864.22563 | pgbench_accounts_pkey |       2246197248

 2017-02-03 15:07:45.403861+01 | 1486130865.40386 | pgbench_branches_pkey |            40960
 2017-02-03 15:07:45.403861+01 | 1486130865.40386 | pgbench_tellers_pkey  |           245760
 2017-02-03 15:07:45.403861+01 | 1486130865.40386 | pgbench_accounts_pkey |       2246197248

 2017-02-03 15:07:46.539535+01 | 1486130866.53954 | pgbench_branches_pkey |            40960
 2017-02-03 15:07:46.539535+01 | 1486130866.53954 | pgbench_tellers_pkey  |           245760
 2017-02-03 15:07:46.539535+01 | 1486130866.53954 | pgbench_accounts_pkey |       2246197248

 2017-02-03 15:07:47.696237+01 | 1486130867.69624 | pgbench_branches_pkey |            40960
 2017-02-03 15:07:47.696237+01 | 1486130867.69624 | pgbench_tellers_pkey  |           245760
 2017-02-03 15:07:47.696237+01 | 1486130867.69624 | pgbench_accounts_pkey |       2246197248

 2017-02-03 15:07:48.84901+01 | 1486130868.84901 | pgbench_branches_pkey |            40960
 2017-02-03 15:07:48.84901+01 | 1486130868.84901 | pgbench_tellers_pkey  |           245760
 2017-02-03 15:07:48.84901+01 | 1486130868.84901 | pgbench_accounts_pkey |       2246197248

 2017-02-03 15:07:50.006249+01 | 1486130870.00625 | pgbench_branches_pkey |            40960
 2017-02-03 15:07:50.006249+01 | 1486130870.00625 | pgbench_tellers_pkey  |           245760
 2017-02-03 15:07:50.006249+01 | 1486130870.00625 | pgbench_accounts_pkey |       2246197248

 2017-02-03 15:07:51.150036+01 | 1486130871.15004 | pgbench_branches_pkey |            40960
 2017-02-03 15:07:51.150036+01 | 1486130871.15004 | pgbench_tellers_pkey  |           245760
 2017-02-03 15:07:51.150036+01 | 1486130871.15004 | pgbench_accounts_pkey |       2246197248

 2017-02-03 15:07:52.312603+01 | 1486130872.3126 | pgbench_branches_pkey |            40960
 2017-02-03 15:07:52.312603+01 | 1486130872.3126 | pgbench_tellers_pkey  |           245760
 2017-02-03 15:07:52.312603+01 | 1486130872.3126 | pgbench_accounts_pkey |       2246197248

 2017-02-03 15:07:53.487148+01 | 1486130873.48715 | pgbench_branches_pkey |            40960
 2017-02-03 15:07:53.487148+01 | 1486130873.48715 | pgbench_tellers_pkey  |           245760
 2017-02-03 15:07:53.487148+01 | 1486130873.48715 | pgbench_accounts_pkey |       2246197248

 2017-02-03 15:07:54.698952+01 | 1486130874.69895 | pgbench_branches_pkey |            40960
 2017-02-03 15:07:54.698952+01 | 1486130874.69895 | pgbench_tellers_pkey  |           245760
 2017-02-03 15:07:54.698952+01 | 1486130874.69895 | pgbench_accounts_pkey |       2246197248

 2017-02-03 15:07:55.882318+01 | 1486130875.88232 | pgbench_branches_pkey |            40960
 2017-02-03 15:07:55.882318+01 | 1486130875.88232 | pgbench_tellers_pkey  |           245760
 2017-02-03 15:07:55.882318+01 | 1486130875.88232 | pgbench_accounts_pkey |       2246197248

 2017-02-03 15:07:57.0563+01 | 1486130877.0563 | pgbench_branches_pkey |            40960
 2017-02-03 15:07:57.0563+01 | 1486130877.0563 | pgbench_tellers_pkey  |           245760
 2017-02-03 15:07:57.0563+01 | 1486130877.0563 | pgbench_accounts_pkey |       2246197248

 2017-02-03 15:07:58.208353+01 | 1486130878.20835 | pgbench_branches_pkey |            40960
 2017-02-03 15:07:58.208353+01 | 1486130878.20835 | pgbench_tellers_pkey  |           245760
 2017-02-03 15:07:58.208353+01 | 1486130878.20835 | pgbench_accounts_pkey |       2246197248

 2017-02-03 15:07:59.384469+01 | 1486130879.38447 | pgbench_branches_pkey |            40960
 2017-02-03 15:07:59.384469+01 | 1486130879.38447 | pgbench_tellers_pkey  |           245760
 2017-02-03 15:07:59.384469+01 | 1486130879.38447 | pgbench_accounts_pkey |       2246197248

 2017-02-03 15:08:00.53636+01 | 1486130880.53636 | pgbench_branches_pkey |            40960
 2017-02-03 15:08:00.53636+01 | 1486130880.53636 | pgbench_tellers_pkey  |           245760
 2017-02-03 15:08:00.53636+01 | 1486130880.53636 | pgbench_accounts_pkey |       2246197248

 2017-02-03 15:08:01.71127+01 | 1486130881.71127 | pgbench_branches_pkey |            40960
 2017-02-03 15:08:01.71127+01 | 1486130881.71127 | pgbench_tellers_pkey  |           245760
 2017-02-03 15:08:01.71127+01 | 1486130881.71127 | pgbench_accounts_pkey |       2246197248

 2017-02-03 15:08:02.865393+01 | 1486130882.86539 | pgbench_branches_pkey |            40960
 2017-02-03 15:08:02.865393+01 | 1486130882.86539 | pgbench_tellers_pkey  |           245760
 2017-02-03 15:08:02.865393+01 | 1486130882.86539 | pgbench_accounts_pkey |       2246197248

 2017-02-03 15:08:04.035758+01 | 1486130884.03576 | pgbench_branches_pkey |            40960
 2017-02-03 15:08:04.035758+01 | 1486130884.03576 | pgbench_tellers_pkey  |           245760
 2017-02-03 15:08:04.035758+01 | 1486130884.03576 | pgbench_accounts_pkey |       2246197248

 2017-02-03 15:08:05.195847+01 | 1486130885.19585 | pgbench_branches_pkey |            40960
 2017-02-03 15:08:05.195847+01 | 1486130885.19585 | pgbench_tellers_pkey  |           245760
 2017-02-03 15:08:05.195847+01 | 1486130885.19585 | pgbench_accounts_pkey |       2246197248

 2017-02-03 15:08:06.350367+01 | 1486130886.35037 | pgbench_branches_pkey |            40960
 2017-02-03 15:08:06.350367+01 | 1486130886.35037 | pgbench_tellers_pkey  |           245760
 2017-02-03 15:08:06.350367+01 | 1486130886.35037 | pgbench_accounts_pkey |       2246197248

 2017-02-03 15:08:07.511713+01 | 1486130887.51171 | pgbench_branches_pkey |            40960
 2017-02-03 15:08:07.511713+01 | 1486130887.51171 | pgbench_tellers_pkey  |           245760
 2017-02-03 15:08:07.511713+01 | 1486130887.51171 | pgbench_accounts_pkey |       2246197248

 2017-02-03 15:08:08.697739+01 | 1486130888.69774 | pgbench_branches_pkey |            40960
 2017-02-03 15:08:08.697739+01 | 1486130888.69774 | pgbench_tellers_pkey  |           245760
 2017-02-03 15:08:08.697739+01 | 1486130888.69774 | pgbench_accounts_pkey |       2246197248

 2017-02-03 15:08:09.845163+01 | 1486130889.84516 | pgbench_branches_pkey |            40960
 2017-02-03 15:08:09.845163+01 | 1486130889.84516 | pgbench_tellers_pkey  |           245760
 2017-02-03 15:08:09.845163+01 | 1486130889.84516 | pgbench_accounts_pkey |       2246197248

 2017-02-03 15:08:11.028925+01 | 1486130891.02892 | pgbench_branches_pkey |            40960
 2017-02-03 15:08:11.028925+01 | 1486130891.02892 | pgbench_tellers_pkey  |           245760
 2017-02-03 15:08:11.028925+01 | 1486130891.02892 | pgbench_accounts_pkey |       2246197248

 2017-02-03 15:08:12.211212+01 | 1486130892.21121 | pgbench_branches_pkey |            40960
 2017-02-03 15:08:12.211212+01 | 1486130892.21121 | pgbench_tellers_pkey  |           245760
 2017-02-03 15:08:12.211212+01 | 1486130892.21121 | pgbench_accounts_pkey |       2246197248

 2017-02-03 15:08:13.374549+01 | 1486130893.37455 | pgbench_branches_pkey |            40960
 2017-02-03 15:08:13.374549+01 | 1486130893.37455 | pgbench_tellers_pkey  |           245760
 2017-02-03 15:08:13.374549+01 | 1486130893.37455 | pgbench_accounts_pkey |       2246197248

 2017-02-03 15:08:14.553773+01 | 1486130894.55377 | pgbench_branches_pkey |            40960
 2017-02-03 15:08:14.553773+01 | 1486130894.55377 | pgbench_tellers_pkey  |           245760
 2017-02-03 15:08:14.553773+01 | 1486130894.55377 | pgbench_accounts_pkey |       2246197248

 2017-02-03 15:08:15.741921+01 | 1486130895.74192 | pgbench_branches_pkey |            40960
 2017-02-03 15:08:15.741921+01 | 1486130895.74192 | pgbench_tellers_pkey  |           245760
 2017-02-03 15:08:15.741921+01 | 1486130895.74192 | pgbench_accounts_pkey |       2246197248

 2017-02-03 15:08:16.921969+01 | 1486130896.92197 | pgbench_branches_pkey |            40960
 2017-02-03 15:08:16.921969+01 | 1486130896.92197 | pgbench_tellers_pkey  |           245760
 2017-02-03 15:08:16.921969+01 | 1486130896.92197 | pgbench_accounts_pkey |       2246197248

 2017-02-03 15:08:18.079036+01 | 1486130898.07904 | pgbench_branches_pkey |            40960
 2017-02-03 15:08:18.079036+01 | 1486130898.07904 | pgbench_tellers_pkey  |           245760
 2017-02-03 15:08:18.079036+01 | 1486130898.07904 | pgbench_accounts_pkey |       2246197248

 2017-02-03 15:08:19.253108+01 | 1486130899.25311 | pgbench_branches_pkey |            40960
 2017-02-03 15:08:19.253108+01 | 1486130899.25311 | pgbench_tellers_pkey  |           245760
 2017-02-03 15:08:19.253108+01 | 1486130899.25311 | pgbench_accounts_pkey |       2246197248

 2017-02-03 15:08:20.425536+01 | 1486130900.42554 | pgbench_branches_pkey |            40960
 2017-02-03 15:08:20.425536+01 | 1486130900.42554 | pgbench_tellers_pkey  |           245760
 2017-02-03 15:08:20.425536+01 | 1486130900.42554 | pgbench_accounts_pkey |       2246197248

 2017-02-03 15:08:21.60148+01 | 1486130901.60148 | pgbench_branches_pkey |            40960
 2017-02-03 15:08:21.60148+01 | 1486130901.60148 | pgbench_tellers_pkey  |           245760
 2017-02-03 15:08:21.60148+01 | 1486130901.60148 | pgbench_accounts_pkey |       2246197248

 2017-02-03 15:08:22.873189+01 | 1486130902.87319 | pgbench_branches_pkey |            40960
 2017-02-03 15:08:22.873189+01 | 1486130902.87319 | pgbench_tellers_pkey  |           245760
 2017-02-03 15:08:22.873189+01 | 1486130902.87319 | pgbench_accounts_pkey |       2246197248

 2017-02-03 15:08:24.047031+01 | 1486130904.04703 | pgbench_branches_pkey |            40960
 2017-02-03 15:08:24.047031+01 | 1486130904.04703 | pgbench_tellers_pkey  |           245760
 2017-02-03 15:08:24.047031+01 | 1486130904.04703 | pgbench_accounts_pkey |       2246197248

 2017-02-03 15:08:25.253571+01 | 1486130905.25357 | pgbench_branches_pkey |            40960
 2017-02-03 15:08:25.253571+01 | 1486130905.25357 | pgbench_tellers_pkey  |           245760
 2017-02-03 15:08:25.253571+01 | 1486130905.25357 | pgbench_accounts_pkey |       2246197248

 2017-02-03 15:08:26.443764+01 | 1486130906.44376 | pgbench_branches_pkey |            40960
 2017-02-03 15:08:26.443764+01 | 1486130906.44376 | pgbench_tellers_pkey  |           245760
 2017-02-03 15:08:26.443764+01 | 1486130906.44376 | pgbench_accounts_pkey |       2246197248

 2017-02-03 15:08:27.601257+01 | 1486130907.60126 | pgbench_branches_pkey |            40960
 2017-02-03 15:08:27.601257+01 | 1486130907.60126 | pgbench_tellers_pkey  |           245760
 2017-02-03 15:08:27.601257+01 | 1486130907.60126 | pgbench_accounts_pkey |       2246197248

 2017-02-03 15:08:28.736561+01 | 1486130908.73656 | pgbench_branches_pkey |            40960
 2017-02-03 15:08:28.736561+01 | 1486130908.73656 | pgbench_tellers_pkey  |           245760
 2017-02-03 15:08:28.736561+01 | 1486130908.73656 | pgbench_accounts_pkey |       2246197248

 2017-02-03 15:08:29.897592+01 | 1486130909.89759 | pgbench_branches_pkey |            40960
 2017-02-03 15:08:29.897592+01 | 1486130909.89759 | pgbench_tellers_pkey  |           245760
 2017-02-03 15:08:29.897592+01 | 1486130909.89759 | pgbench_accounts_pkey |       2246197248

 2017-02-03 15:08:31.06121+01 | 1486130911.06121 | pgbench_branches_pkey |            40960
 2017-02-03 15:08:31.06121+01 | 1486130911.06121 | pgbench_tellers_pkey  |           245760
 2017-02-03 15:08:31.06121+01 | 1486130911.06121 | pgbench_accounts_pkey |       2246197248

 2017-02-03 15:08:32.238998+01 | 1486130912.239 | pgbench_branches_pkey |            40960
 2017-02-03 15:08:32.238998+01 | 1486130912.239 | pgbench_tellers_pkey  |           245760
 2017-02-03 15:08:32.238998+01 | 1486130912.239 | pgbench_accounts_pkey |       2246197248

 2017-02-03 15:08:33.417178+01 | 1486130913.41718 | pgbench_branches_pkey |            40960
 2017-02-03 15:08:33.417178+01 | 1486130913.41718 | pgbench_tellers_pkey  |           245760
 2017-02-03 15:08:33.417178+01 | 1486130913.41718 | pgbench_accounts_pkey |       2246197248

 2017-02-03 15:08:34.629948+01 | 1486130914.62995 | pgbench_branches_pkey |            40960
 2017-02-03 15:08:34.629948+01 | 1486130914.62995 | pgbench_tellers_pkey  |           245760
 2017-02-03 15:08:34.629948+01 | 1486130914.62995 | pgbench_accounts_pkey |       2246197248

 2017-02-03 15:08:35.816223+01 | 1486130915.81622 | pgbench_branches_pkey |            40960
 2017-02-03 15:08:35.816223+01 | 1486130915.81622 | pgbench_tellers_pkey  |           245760
 2017-02-03 15:08:35.816223+01 | 1486130915.81622 | pgbench_accounts_pkey |       2246197248

 2017-02-03 15:08:37.00274+01 | 1486130917.00274 | pgbench_branches_pkey |            40960
 2017-02-03 15:08:37.00274+01 | 1486130917.00274 | pgbench_tellers_pkey  |           245760
 2017-02-03 15:08:37.00274+01 | 1486130917.00274 | pgbench_accounts_pkey |       2246197248

 2017-02-03 15:08:38.16126+01 | 1486130918.16126 | pgbench_branches_pkey |            40960
 2017-02-03 15:08:38.16126+01 | 1486130918.16126 | pgbench_tellers_pkey  |           245760
 2017-02-03 15:08:38.16126+01 | 1486130918.16126 | pgbench_accounts_pkey |       2246197248

 2017-02-03 15:08:39.374874+01 | 1486130919.37487 | pgbench_branches_pkey |            40960
 2017-02-03 15:08:39.374874+01 | 1486130919.37487 | pgbench_tellers_pkey  |           245760
 2017-02-03 15:08:39.374874+01 | 1486130919.37487 | pgbench_accounts_pkey |       2246197248

 2017-02-03 15:08:40.559865+01 | 1486130920.55986 | pgbench_branches_pkey |            40960
 2017-02-03 15:08:40.559865+01 | 1486130920.55986 | pgbench_tellers_pkey  |           245760
 2017-02-03 15:08:40.559865+01 | 1486130920.55986 | pgbench_accounts_pkey |       2246197248

 2017-02-03 15:08:41.762099+01 | 1486130921.7621 | pgbench_branches_pkey |            40960
 2017-02-03 15:08:41.762099+01 | 1486130921.7621 | pgbench_tellers_pkey  |           245760
 2017-02-03 15:08:41.762099+01 | 1486130921.7621 | pgbench_accounts_pkey |       2246197248

 2017-02-03 15:08:42.91016+01 | 1486130922.91016 | pgbench_branches_pkey |            40960
 2017-02-03 15:08:42.91016+01 | 1486130922.91016 | pgbench_tellers_pkey  |           245760
 2017-02-03 15:08:42.91016+01 | 1486130922.91016 | pgbench_accounts_pkey |       2246197248

 2017-02-03 15:08:44.096922+01 | 1486130924.09692 | pgbench_branches_pkey |            40960
 2017-02-03 15:08:44.096922+01 | 1486130924.09692 | pgbench_tellers_pkey  |           245760
 2017-02-03 15:08:44.096922+01 | 1486130924.09692 | pgbench_accounts_pkey |       2246197248

 2017-02-03 15:08:45.275714+01 | 1486130925.27571 | pgbench_branches_pkey |            40960
 2017-02-03 15:08:45.275714+01 | 1486130925.27571 | pgbench_tellers_pkey  |           245760
 2017-02-03 15:08:45.275714+01 | 1486130925.27571 | pgbench_accounts_pkey |       2246197248

 2017-02-03 15:08:46.483833+01 | 1486130926.48383 | pgbench_branches_pkey |            40960
 2017-02-03 15:08:46.483833+01 | 1486130926.48383 | pgbench_tellers_pkey  |           245760
 2017-02-03 15:08:46.483833+01 | 1486130926.48383 | pgbench_accounts_pkey |       2246197248

 2017-02-03 15:08:47.649008+01 | 1486130927.64901 | pgbench_branches_pkey |            40960
 2017-02-03 15:08:47.649008+01 | 1486130927.64901 | pgbench_tellers_pkey  |           245760
 2017-02-03 15:08:47.649008+01 | 1486130927.64901 | pgbench_accounts_pkey |       2246197248

 2017-02-03 15:08:48.80888+01 | 1486130928.80888 | pgbench_branches_pkey |            40960
 2017-02-03 15:08:48.80888+01 | 1486130928.80888 | pgbench_tellers_pkey  |           245760
 2017-02-03 15:08:48.80888+01 | 1486130928.80888 | pgbench_accounts_pkey |       2246197248

 2017-02-03 15:08:50.005785+01 | 1486130930.00578 | pgbench_branches_pkey |            40960
 2017-02-03 15:08:50.005785+01 | 1486130930.00578 | pgbench_tellers_pkey  |           245760
 2017-02-03 15:08:50.005785+01 | 1486130930.00578 | pgbench_accounts_pkey |       2246197248

 2017-02-03 15:08:51.161673+01 | 1486130931.16167 | pgbench_branches_pkey |            40960
 2017-02-03 15:08:51.161673+01 | 1486130931.16167 | pgbench_tellers_pkey  |           245760
 2017-02-03 15:08:51.161673+01 | 1486130931.16167 | pgbench_accounts_pkey |       2246197248

 2017-02-03 15:08:52.340295+01 | 1486130932.3403 | pgbench_branches_pkey |            40960
 2017-02-03 15:08:52.340295+01 | 1486130932.3403 | pgbench_tellers_pkey  |           245760
 2017-02-03 15:08:52.340295+01 | 1486130932.3403 | pgbench_accounts_pkey |       2246197248

 2017-02-03 15:08:53.553949+01 | 1486130933.55395 | pgbench_branches_pkey |            40960
 2017-02-03 15:08:53.553949+01 | 1486130933.55395 | pgbench_tellers_pkey  |           245760
 2017-02-03 15:08:53.553949+01 | 1486130933.55395 | pgbench_accounts_pkey |       2246197248

 2017-02-03 15:08:54.699511+01 | 1486130934.69951 | pgbench_branches_pkey |            40960
 2017-02-03 15:08:54.699511+01 | 1486130934.69951 | pgbench_tellers_pkey  |           245760
 2017-02-03 15:08:54.699511+01 | 1486130934.69951 | pgbench_accounts_pkey |       2246197248

 2017-02-03 15:08:55.868109+01 | 1486130935.86811 | pgbench_branches_pkey |            40960
 2017-02-03 15:08:55.868109+01 | 1486130935.86811 | pgbench_tellers_pkey  |           245760
 2017-02-03 15:08:55.868109+01 | 1486130935.86811 | pgbench_accounts_pkey |       2246197248

 2017-02-03 15:08:57.064572+01 | 1486130937.06457 | pgbench_branches_pkey |            40960
 2017-02-03 15:08:57.064572+01 | 1486130937.06457 | pgbench_tellers_pkey  |           245760
 2017-02-03 15:08:57.064572+01 | 1486130937.06457 | pgbench_accounts_pkey |       2246197248

 2017-02-03 15:08:58.217025+01 | 1486130938.21703 | pgbench_branches_pkey |            40960
 2017-02-03 15:08:58.217025+01 | 1486130938.21703 | pgbench_tellers_pkey  |           245760
 2017-02-03 15:08:58.217025+01 | 1486130938.21703 | pgbench_accounts_pkey |       2246197248

 2017-02-03 15:08:59.39783+01 | 1486130939.39783 | pgbench_branches_pkey |            40960
 2017-02-03 15:08:59.39783+01 | 1486130939.39783 | pgbench_tellers_pkey  |           245760
 2017-02-03 15:08:59.39783+01 | 1486130939.39783 | pgbench_accounts_pkey |       2246197248

 2017-02-03 15:09:00.601102+01 | 1486130940.6011 | pgbench_branches_pkey |            40960
 2017-02-03 15:09:00.601102+01 | 1486130940.6011 | pgbench_tellers_pkey  |           245760
 2017-02-03 15:09:00.601102+01 | 1486130940.6011 | pgbench_accounts_pkey |       2246197248

 2017-02-03 15:09:01.78714+01 | 1486130941.78714 | pgbench_branches_pkey |            40960
 2017-02-03 15:09:01.78714+01 | 1486130941.78714 | pgbench_tellers_pkey  |           245760
 2017-02-03 15:09:01.78714+01 | 1486130941.78714 | pgbench_accounts_pkey |       2246197248

 2017-02-03 15:09:02.948103+01 | 1486130942.9481 | pgbench_branches_pkey |            40960
 2017-02-03 15:09:02.948103+01 | 1486130942.9481 | pgbench_tellers_pkey  |           245760
 2017-02-03 15:09:02.948103+01 | 1486130942.9481 | pgbench_accounts_pkey |       2246197248

 2017-02-03 15:09:04.121347+01 | 1486130944.12135 | pgbench_branches_pkey |            40960
 2017-02-03 15:09:04.121347+01 | 1486130944.12135 | pgbench_tellers_pkey  |           245760
 2017-02-03 15:09:04.121347+01 | 1486130944.12135 | pgbench_accounts_pkey |       2246197248

 2017-02-03 15:09:05.330316+01 | 1486130945.33032 | pgbench_branches_pkey |            40960
 2017-02-03 15:09:05.330316+01 | 1486130945.33032 | pgbench_tellers_pkey  |           245760
 2017-02-03 15:09:05.330316+01 | 1486130945.33032 | pgbench_accounts_pkey |       2246197248

 2017-02-03 15:09:06.52637+01 | 1486130946.52637 | pgbench_branches_pkey |            40960
 2017-02-03 15:09:06.52637+01 | 1486130946.52637 | pgbench_tellers_pkey  |           245760
 2017-02-03 15:09:06.52637+01 | 1486130946.52637 | pgbench_accounts_pkey |       2246197248

 2017-02-03 15:09:07.693857+01 | 1486130947.69386 | pgbench_branches_pkey |            40960
 2017-02-03 15:09:07.693857+01 | 1486130947.69386 | pgbench_tellers_pkey  |           245760
 2017-02-03 15:09:07.693857+01 | 1486130947.69386 | pgbench_accounts_pkey |       2246197248

 2017-02-03 15:09:08.919061+01 | 1486130948.91906 | pgbench_branches_pkey |            40960
 2017-02-03 15:09:08.919061+01 | 1486130948.91906 | pgbench_tellers_pkey  |           245760
 2017-02-03 15:09:08.919061+01 | 1486130948.91906 | pgbench_accounts_pkey |       2246197248

 2017-02-03 15:09:10.091902+01 | 1486130950.0919 | pgbench_branches_pkey |            40960
 2017-02-03 15:09:10.091902+01 | 1486130950.0919 | pgbench_tellers_pkey  |           245760
 2017-02-03 15:09:10.091902+01 | 1486130950.0919 | pgbench_accounts_pkey |       2246197248

 2017-02-03 15:09:11.280446+01 | 1486130951.28045 | pgbench_branches_pkey |            40960
 2017-02-03 15:09:11.280446+01 | 1486130951.28045 | pgbench_tellers_pkey  |           245760
 2017-02-03 15:09:11.280446+01 | 1486130951.28045 | pgbench_accounts_pkey |       2246197248

 2017-02-03 15:09:12.490994+01 | 1486130952.49099 | pgbench_branches_pkey |            40960
 2017-02-03 15:09:12.490994+01 | 1486130952.49099 | pgbench_tellers_pkey  |           245760
 2017-02-03 15:09:12.490994+01 | 1486130952.49099 | pgbench_accounts_pkey |       2246197248

 2017-02-03 15:09:13.665435+01 | 1486130953.66544 | pgbench_branches_pkey |            40960
 2017-02-03 15:09:13.665435+01 | 1486130953.66544 | pgbench_tellers_pkey  |           245760
 2017-02-03 15:09:13.665435+01 | 1486130953.66544 | pgbench_accounts_pkey |       2246197248

 2017-02-03 15:09:14.841387+01 | 1486130954.84139 | pgbench_branches_pkey |            40960
 2017-02-03 15:09:14.841387+01 | 1486130954.84139 | pgbench_tellers_pkey  |           245760
 2017-02-03 15:09:14.841387+01 | 1486130954.84139 | pgbench_accounts_pkey |       2246197248

 2017-02-03 15:09:16.026407+01 | 1486130956.02641 | pgbench_branches_pkey |            40960
 2017-02-03 15:09:16.026407+01 | 1486130956.02641 | pgbench_tellers_pkey  |           245760
 2017-02-03 15:09:16.026407+01 | 1486130956.02641 | pgbench_accounts_pkey |       2246197248

 2017-02-03 15:09:17.211103+01 | 1486130957.2111 | pgbench_branches_pkey |            40960
 2017-02-03 15:09:17.211103+01 | 1486130957.2111 | pgbench_tellers_pkey  |           245760
 2017-02-03 15:09:17.211103+01 | 1486130957.2111 | pgbench_accounts_pkey |       2246197248

 2017-02-03 15:09:18.390972+01 | 1486130958.39097 | pgbench_branches_pkey |            40960
 2017-02-03 15:09:18.390972+01 | 1486130958.39097 | pgbench_tellers_pkey  |           245760
 2017-02-03 15:09:18.390972+01 | 1486130958.39097 | pgbench_accounts_pkey |       2246197248

 2017-02-03 15:09:19.570205+01 | 1486130959.5702 | pgbench_branches_pkey |            40960
 2017-02-03 15:09:19.570205+01 | 1486130959.5702 | pgbench_tellers_pkey  |           245760
 2017-02-03 15:09:19.570205+01 | 1486130959.5702 | pgbench_accounts_pkey |       2246197248

 2017-02-03 15:09:20.750649+01 | 1486130960.75065 | pgbench_branches_pkey |            40960
 2017-02-03 15:09:20.750649+01 | 1486130960.75065 | pgbench_tellers_pkey  |           245760
 2017-02-03 15:09:20.750649+01 | 1486130960.75065 | pgbench_accounts_pkey |       2246197248

 2017-02-03 15:09:21.891812+01 | 1486130961.89181 | pgbench_branches_pkey |            40960
 2017-02-03 15:09:21.891812+01 | 1486130961.89181 | pgbench_tellers_pkey  |           245760
 2017-02-03 15:09:21.891812+01 | 1486130961.89181 | pgbench_accounts_pkey |       2246197248

 2017-02-03 15:09:23.096406+01 | 1486130963.09641 | pgbench_branches_pkey |            40960
 2017-02-03 15:09:23.096406+01 | 1486130963.09641 | pgbench_tellers_pkey  |           245760
 2017-02-03 15:09:23.096406+01 | 1486130963.09641 | pgbench_accounts_pkey |       2246197248

 2017-02-03 15:09:24.266687+01 | 1486130964.26669 | pgbench_branches_pkey |            40960
 2017-02-03 15:09:24.266687+01 | 1486130964.26669 | pgbench_tellers_pkey  |           245760
 2017-02-03 15:09:24.266687+01 | 1486130964.26669 | pgbench_accounts_pkey |       2246197248

 2017-02-03 15:09:25.437731+01 | 1486130965.43773 | pgbench_branches_pkey |            40960
 2017-02-03 15:09:25.437731+01 | 1486130965.43773 | pgbench_tellers_pkey  |           245760
 2017-02-03 15:09:25.437731+01 | 1486130965.43773 | pgbench_accounts_pkey |       2246197248

 2017-02-03 15:09:26.601317+01 | 1486130966.60132 | pgbench_branches_pkey |            40960
 2017-02-03 15:09:26.601317+01 | 1486130966.60132 | pgbench_tellers_pkey  |           245760
 2017-02-03 15:09:26.601317+01 | 1486130966.60132 | pgbench_accounts_pkey |       2246197248

 2017-02-03 15:09:27.787873+01 | 1486130967.78787 | pgbench_branches_pkey |            40960
 2017-02-03 15:09:27.787873+01 | 1486130967.78787 | pgbench_tellers_pkey  |           245760
 2017-02-03 15:09:27.787873+01 | 1486130967.78787 | pgbench_accounts_pkey |       2246197248

 2017-02-03 15:09:28.950037+01 | 1486130968.95004 | pgbench_branches_pkey |            40960
 2017-02-03 15:09:28.950037+01 | 1486130968.95004 | pgbench_tellers_pkey  |           245760
 2017-02-03 15:09:28.950037+01 | 1486130968.95004 | pgbench_accounts_pkey |       2246197248

 2017-02-03 15:09:30.103326+01 | 1486130970.10333 | pgbench_branches_pkey |            40960
 2017-02-03 15:09:30.103326+01 | 1486130970.10333 | pgbench_tellers_pkey  |           245760
 2017-02-03 15:09:30.103326+01 | 1486130970.10333 | pgbench_accounts_pkey |       2246197248

 2017-02-03 15:09:31.293431+01 | 1486130971.29343 | pgbench_branches_pkey |            40960
 2017-02-03 15:09:31.293431+01 | 1486130971.29343 | pgbench_tellers_pkey  |           245760
 2017-02-03 15:09:31.293431+01 | 1486130971.29343 | pgbench_accounts_pkey |       2246197248

 2017-02-03 15:09:32.442918+01 | 1486130972.44292 | pgbench_branches_pkey |            40960
 2017-02-03 15:09:32.442918+01 | 1486130972.44292 | pgbench_tellers_pkey  |           245760
 2017-02-03 15:09:32.442918+01 | 1486130972.44292 | pgbench_accounts_pkey |       2246197248

 2017-02-03 15:09:33.627239+01 | 1486130973.62724 | pgbench_branches_pkey |            40960
 2017-02-03 15:09:33.627239+01 | 1486130973.62724 | pgbench_tellers_pkey  |           245760
 2017-02-03 15:09:33.627239+01 | 1486130973.62724 | pgbench_accounts_pkey |       2246197248

 2017-02-03 15:09:34.790888+01 | 1486130974.79089 | pgbench_branches_pkey |            40960
 2017-02-03 15:09:34.790888+01 | 1486130974.79089 | pgbench_tellers_pkey  |           245760
 2017-02-03 15:09:34.790888+01 | 1486130974.79089 | pgbench_accounts_pkey |       2246197248

 2017-02-03 15:09:36.002925+01 | 1486130976.00292 | pgbench_branches_pkey |            40960
 2017-02-03 15:09:36.002925+01 | 1486130976.00292 | pgbench_tellers_pkey  |           245760
 2017-02-03 15:09:36.002925+01 | 1486130976.00292 | pgbench_accounts_pkey |       2246197248

 2017-02-03 15:09:37.190915+01 | 1486130977.19092 | pgbench_branches_pkey |            40960
 2017-02-03 15:09:37.190915+01 | 1486130977.19092 | pgbench_tellers_pkey  |           245760
 2017-02-03 15:09:37.190915+01 | 1486130977.19092 | pgbench_accounts_pkey |       2246197248

 2017-02-03 15:09:38.347431+01 | 1486130978.34743 | pgbench_branches_pkey |            40960
 2017-02-03 15:09:38.347431+01 | 1486130978.34743 | pgbench_tellers_pkey  |           245760
 2017-02-03 15:09:38.347431+01 | 1486130978.34743 | pgbench_accounts_pkey |       2246197248

 2017-02-03 15:09:39.514471+01 | 1486130979.51447 | pgbench_branches_pkey |            40960
 2017-02-03 15:09:39.514471+01 | 1486130979.51447 | pgbench_tellers_pkey  |           245760
 2017-02-03 15:09:39.514471+01 | 1486130979.51447 | pgbench_accounts_pkey |       2246197248

 2017-02-03 15:09:40.670404+01 | 1486130980.6704 | pgbench_branches_pkey |            40960
 2017-02-03 15:09:40.670404+01 | 1486130980.6704 | pgbench_tellers_pkey  |           245760
 2017-02-03 15:09:40.670404+01 | 1486130980.6704 | pgbench_accounts_pkey |       2246197248

 2017-02-03 15:09:41.851562+01 | 1486130981.85156 | pgbench_branches_pkey |            40960
 2017-02-03 15:09:41.851562+01 | 1486130981.85156 | pgbench_tellers_pkey  |           245760
 2017-02-03 15:09:41.851562+01 | 1486130981.85156 | pgbench_accounts_pkey |       2246197248

 2017-02-03 15:09:43.021235+01 | 1486130983.02123 | pgbench_branches_pkey |            40960
 2017-02-03 15:09:43.021235+01 | 1486130983.02123 | pgbench_tellers_pkey  |           245760
 2017-02-03 15:09:43.021235+01 | 1486130983.02123 | pgbench_accounts_pkey |       2246197248

 2017-02-03 15:09:44.204616+01 | 1486130984.20462 | pgbench_branches_pkey |            40960
 2017-02-03 15:09:44.204616+01 | 1486130984.20462 | pgbench_tellers_pkey  |           245760
 2017-02-03 15:09:44.204616+01 | 1486130984.20462 | pgbench_accounts_pkey |       2246197248

 2017-02-03 15:09:45.401026+01 | 1486130985.40103 | pgbench_branches_pkey |            40960
 2017-02-03 15:09:45.401026+01 | 1486130985.40103 | pgbench_tellers_pkey  |           245760
 2017-02-03 15:09:45.401026+01 | 1486130985.40103 | pgbench_accounts_pkey |       2246197248

 2017-02-03 15:09:46.552555+01 | 1486130986.55256 | pgbench_branches_pkey |            40960
 2017-02-03 15:09:46.552555+01 | 1486130986.55256 | pgbench_tellers_pkey  |           245760
 2017-02-03 15:09:46.552555+01 | 1486130986.55256 | pgbench_accounts_pkey |       2246197248

 2017-02-03 15:09:47.702312+01 | 1486130987.70231 | pgbench_branches_pkey |            40960
 2017-02-03 15:09:47.702312+01 | 1486130987.70231 | pgbench_tellers_pkey  |           245760
 2017-02-03 15:09:47.702312+01 | 1486130987.70231 | pgbench_accounts_pkey |       2246197248

 2017-02-03 15:09:48.905329+01 | 1486130988.90533 | pgbench_branches_pkey |            40960
 2017-02-03 15:09:48.905329+01 | 1486130988.90533 | pgbench_tellers_pkey  |           245760
 2017-02-03 15:09:48.905329+01 | 1486130988.90533 | pgbench_accounts_pkey |       2246197248

 2017-02-03 15:09:50.068405+01 | 1486130990.0684 | pgbench_branches_pkey |            40960
 2017-02-03 15:09:50.068405+01 | 1486130990.0684 | pgbench_tellers_pkey  |           245760
 2017-02-03 15:09:50.068405+01 | 1486130990.0684 | pgbench_accounts_pkey |       2246197248

 2017-02-03 15:09:51.253603+01 | 1486130991.2536 | pgbench_branches_pkey |            40960
 2017-02-03 15:09:51.253603+01 | 1486130991.2536 | pgbench_tellers_pkey  |           245760
 2017-02-03 15:09:51.253603+01 | 1486130991.2536 | pgbench_accounts_pkey |       2246197248

 2017-02-03 15:09:52.430489+01 | 1486130992.43049 | pgbench_branches_pkey |            40960
 2017-02-03 15:09:52.430489+01 | 1486130992.43049 | pgbench_tellers_pkey  |           245760
 2017-02-03 15:09:52.430489+01 | 1486130992.43049 | pgbench_accounts_pkey |       2246197248

 2017-02-03 15:09:53.565367+01 | 1486130993.56537 | pgbench_branches_pkey |            40960
 2017-02-03 15:09:53.565367+01 | 1486130993.56537 | pgbench_tellers_pkey  |           245760
 2017-02-03 15:09:53.565367+01 | 1486130993.56537 | pgbench_accounts_pkey |       2246197248

 2017-02-03 15:09:54.783213+01 | 1486130994.78321 | pgbench_branches_pkey |            40960
 2017-02-03 15:09:54.783213+01 | 1486130994.78321 | pgbench_tellers_pkey  |           245760
 2017-02-03 15:09:54.783213+01 | 1486130994.78321 | pgbench_accounts_pkey |       2246197248

 2017-02-03 15:09:55.980394+01 | 1486130995.98039 | pgbench_branches_pkey |            40960
 2017-02-03 15:09:55.980394+01 | 1486130995.98039 | pgbench_tellers_pkey  |           245760
 2017-02-03 15:09:55.980394+01 | 1486130995.98039 | pgbench_accounts_pkey |       2246197248

 2017-02-03 15:09:57.180119+01 | 1486130997.18012 | pgbench_branches_pkey |            40960
 2017-02-03 15:09:57.180119+01 | 1486130997.18012 | pgbench_tellers_pkey  |           245760
 2017-02-03 15:09:57.180119+01 | 1486130997.18012 | pgbench_accounts_pkey |       2246197248

 2017-02-03 15:09:58.34225+01 | 1486130998.34225 | pgbench_branches_pkey |            40960
 2017-02-03 15:09:58.34225+01 | 1486130998.34225 | pgbench_tellers_pkey  |           245760
 2017-02-03 15:09:58.34225+01 | 1486130998.34225 | pgbench_accounts_pkey |       2246197248

 2017-02-03 15:09:59.509034+01 | 1486130999.50903 | pgbench_branches_pkey |            40960
 2017-02-03 15:09:59.509034+01 | 1486130999.50903 | pgbench_tellers_pkey  |           245760
 2017-02-03 15:09:59.509034+01 | 1486130999.50903 | pgbench_accounts_pkey |       2246197248

 2017-02-03 15:10:00.651631+01 | 1486131000.65163 | pgbench_branches_pkey |            40960
 2017-02-03 15:10:00.651631+01 | 1486131000.65163 | pgbench_tellers_pkey  |           245760
 2017-02-03 15:10:00.651631+01 | 1486131000.65163 | pgbench_accounts_pkey |       2246197248

 2017-02-03 15:10:01.824018+01 | 1486131001.82402 | pgbench_branches_pkey |            40960
 2017-02-03 15:10:01.824018+01 | 1486131001.82402 | pgbench_tellers_pkey  |           245760
 2017-02-03 15:10:01.824018+01 | 1486131001.82402 | pgbench_accounts_pkey |       2246197248

 2017-02-03 15:10:02.997984+01 | 1486131002.99798 | pgbench_branches_pkey |            40960
 2017-02-03 15:10:02.997984+01 | 1486131002.99798 | pgbench_tellers_pkey  |           245760
 2017-02-03 15:10:02.997984+01 | 1486131002.99798 | pgbench_accounts_pkey |       2246197248

 2017-02-03 15:10:04.154879+01 | 1486131004.15488 | pgbench_branches_pkey |            40960
 2017-02-03 15:10:04.154879+01 | 1486131004.15488 | pgbench_tellers_pkey  |           245760
 2017-02-03 15:10:04.154879+01 | 1486131004.15488 | pgbench_accounts_pkey |       2246197248

 2017-02-03 15:10:05.289381+01 | 1486131005.28938 | pgbench_branches_pkey |            40960
 2017-02-03 15:10:05.289381+01 | 1486131005.28938 | pgbench_tellers_pkey  |           245760
 2017-02-03 15:10:05.289381+01 | 1486131005.28938 | pgbench_accounts_pkey |       2246197248

 2017-02-03 15:10:06.490946+01 | 1486131006.49095 | pgbench_branches_pkey |            40960
 2017-02-03 15:10:06.490946+01 | 1486131006.49095 | pgbench_tellers_pkey  |           245760
 2017-02-03 15:10:06.490946+01 | 1486131006.49095 | pgbench_accounts_pkey |       2246197248

 2017-02-03 15:10:07.664377+01 | 1486131007.66438 | pgbench_branches_pkey |            40960
 2017-02-03 15:10:07.664377+01 | 1486131007.66438 | pgbench_tellers_pkey  |           245760
 2017-02-03 15:10:07.664377+01 | 1486131007.66438 | pgbench_accounts_pkey |       2246197248

 2017-02-03 15:10:08.810517+01 | 1486131008.81052 | pgbench_branches_pkey |            40960
 2017-02-03 15:10:08.810517+01 | 1486131008.81052 | pgbench_tellers_pkey  |           245760
 2017-02-03 15:10:08.810517+01 | 1486131008.81052 | pgbench_accounts_pkey |       2246197248

 2017-02-03 15:10:10.020763+01 | 1486131010.02076 | pgbench_branches_pkey |            40960
 2017-02-03 15:10:10.020763+01 | 1486131010.02076 | pgbench_tellers_pkey  |           245760
 2017-02-03 15:10:10.020763+01 | 1486131010.02076 | pgbench_accounts_pkey |       2246197248

 2017-02-03 15:10:11.199149+01 | 1486131011.19915 | pgbench_branches_pkey |            40960
 2017-02-03 15:10:11.199149+01 | 1486131011.19915 | pgbench_tellers_pkey  |           245760
 2017-02-03 15:10:11.199149+01 | 1486131011.19915 | pgbench_accounts_pkey |       2246197248

 2017-02-03 15:10:12.417001+01 | 1486131012.417 | pgbench_branches_pkey |            40960
 2017-02-03 15:10:12.417001+01 | 1486131012.417 | pgbench_tellers_pkey  |           245760
 2017-02-03 15:10:12.417001+01 | 1486131012.417 | pgbench_accounts_pkey |       2246197248

 2017-02-03 15:10:13.582786+01 | 1486131013.58279 | pgbench_branches_pkey |            40960
 2017-02-03 15:10:13.582786+01 | 1486131013.58279 | pgbench_tellers_pkey  |           245760
 2017-02-03 15:10:13.582786+01 | 1486131013.58279 | pgbench_accounts_pkey |       2246197248

 2017-02-03 15:10:14.768633+01 | 1486131014.76863 | pgbench_branches_pkey |            40960
 2017-02-03 15:10:14.768633+01 | 1486131014.76863 | pgbench_tellers_pkey  |           245760
 2017-02-03 15:10:14.768633+01 | 1486131014.76863 | pgbench_accounts_pkey |       2246197248

 2017-02-03 15:10:15.94816+01 | 1486131015.94816 | pgbench_branches_pkey |            40960
 2017-02-03 15:10:15.94816+01 | 1486131015.94816 | pgbench_tellers_pkey  |           245760
 2017-02-03 15:10:15.94816+01 | 1486131015.94816 | pgbench_accounts_pkey |       2246197248

 2017-02-03 15:10:17.148342+01 | 1486131017.14834 | pgbench_branches_pkey |            40960
 2017-02-03 15:10:17.148342+01 | 1486131017.14834 | pgbench_tellers_pkey  |           245760
 2017-02-03 15:10:17.148342+01 | 1486131017.14834 | pgbench_accounts_pkey |       2246197248

 2017-02-03 15:10:18.295897+01 | 1486131018.2959 | pgbench_branches_pkey |            40960
 2017-02-03 15:10:18.295897+01 | 1486131018.2959 | pgbench_tellers_pkey  |           245760
 2017-02-03 15:10:18.295897+01 | 1486131018.2959 | pgbench_accounts_pkey |       2246197248

 2017-02-03 15:10:19.445347+01 | 1486131019.44535 | pgbench_branches_pkey |            40960
 2017-02-03 15:10:19.445347+01 | 1486131019.44535 | pgbench_tellers_pkey  |           245760
 2017-02-03 15:10:19.445347+01 | 1486131019.44535 | pgbench_accounts_pkey |       2246197248

 2017-02-03 15:10:20.623313+01 | 1486131020.62331 | pgbench_branches_pkey |            40960
 2017-02-03 15:10:20.623313+01 | 1486131020.62331 | pgbench_tellers_pkey  |           245760
 2017-02-03 15:10:20.623313+01 | 1486131020.62331 | pgbench_accounts_pkey |       2246197248

 2017-02-03 15:10:21.789598+01 | 1486131021.7896 | pgbench_branches_pkey |            40960
 2017-02-03 15:10:21.789598+01 | 1486131021.7896 | pgbench_tellers_pkey  |           245760
 2017-02-03 15:10:21.789598+01 | 1486131021.7896 | pgbench_accounts_pkey |       2246197248

 2017-02-03 15:10:22.970029+01 | 1486131022.97003 | pgbench_branches_pkey |            40960
 2017-02-03 15:10:22.970029+01 | 1486131022.97003 | pgbench_tellers_pkey  |           245760
 2017-02-03 15:10:22.970029+01 | 1486131022.97003 | pgbench_accounts_pkey |       2246197248

 2017-02-03 15:10:24.160242+01 | 1486131024.16024 | pgbench_branches_pkey |            40960
 2017-02-03 15:10:24.160242+01 | 1486131024.16024 | pgbench_tellers_pkey  |           245760
 2017-02-03 15:10:24.160242+01 | 1486131024.16024 | pgbench_accounts_pkey |       2246197248

 2017-02-03 15:10:25.295165+01 | 1486131025.29517 | pgbench_branches_pkey |            40960
 2017-02-03 15:10:25.295165+01 | 1486131025.29517 | pgbench_tellers_pkey  |           245760
 2017-02-03 15:10:25.295165+01 | 1486131025.29517 | pgbench_accounts_pkey |       2246197248

 2017-02-03 15:10:26.496575+01 | 1486131026.49658 | pgbench_branches_pkey |            40960
 2017-02-03 15:10:26.496575+01 | 1486131026.49658 | pgbench_tellers_pkey  |           245760
 2017-02-03 15:10:26.496575+01 | 1486131026.49658 | pgbench_accounts_pkey |       2246197248

 2017-02-03 15:10:27.664717+01 | 1486131027.66472 | pgbench_branches_pkey |            40960
 2017-02-03 15:10:27.664717+01 | 1486131027.66472 | pgbench_tellers_pkey  |           245760
 2017-02-03 15:10:27.664717+01 | 1486131027.66472 | pgbench_accounts_pkey |       2246197248

 2017-02-03 15:10:28.84194+01 | 1486131028.84194 | pgbench_branches_pkey |            40960
 2017-02-03 15:10:28.84194+01 | 1486131028.84194 | pgbench_tellers_pkey  |           245760
 2017-02-03 15:10:28.84194+01 | 1486131028.84194 | pgbench_accounts_pkey |       2246197248

 2017-02-03 15:10:30.040102+01 | 1486131030.0401 | pgbench_branches_pkey |            40960
 2017-02-03 15:10:30.040102+01 | 1486131030.0401 | pgbench_tellers_pkey  |           245760
 2017-02-03 15:10:30.040102+01 | 1486131030.0401 | pgbench_accounts_pkey |       2246197248

 2017-02-03 15:10:31.194253+01 | 1486131031.19425 | pgbench_branches_pkey |            40960
 2017-02-03 15:10:31.194253+01 | 1486131031.19425 | pgbench_tellers_pkey  |           245760
 2017-02-03 15:10:31.194253+01 | 1486131031.19425 | pgbench_accounts_pkey |       2246197248

 2017-02-03 15:10:32.341547+01 | 1486131032.34155 | pgbench_branches_pkey |            40960
 2017-02-03 15:10:32.341547+01 | 1486131032.34155 | pgbench_tellers_pkey  |           245760
 2017-02-03 15:10:32.341547+01 | 1486131032.34155 | pgbench_accounts_pkey |       2246197248

 2017-02-03 15:10:33.492734+01 | 1486131033.49273 | pgbench_branches_pkey |            40960
 2017-02-03 15:10:33.492734+01 | 1486131033.49273 | pgbench_tellers_pkey  |           245760
 2017-02-03 15:10:33.492734+01 | 1486131033.49273 | pgbench_accounts_pkey |       2246197248

 2017-02-03 15:10:34.669154+01 | 1486131034.66915 | pgbench_branches_pkey |            40960
 2017-02-03 15:10:34.669154+01 | 1486131034.66915 | pgbench_tellers_pkey  |           245760
 2017-02-03 15:10:34.669154+01 | 1486131034.66915 | pgbench_accounts_pkey |       2246197248

 2017-02-03 15:10:35.838777+01 | 1486131035.83878 | pgbench_branches_pkey |            40960
 2017-02-03 15:10:35.838777+01 | 1486131035.83878 | pgbench_tellers_pkey  |           245760
 2017-02-03 15:10:35.838777+01 | 1486131035.83878 | pgbench_accounts_pkey |       2246197248

 2017-02-03 15:10:37.024226+01 | 1486131037.02423 | pgbench_branches_pkey |            40960
 2017-02-03 15:10:37.024226+01 | 1486131037.02423 | pgbench_tellers_pkey  |           245760
 2017-02-03 15:10:37.024226+01 | 1486131037.02423 | pgbench_accounts_pkey |       2246197248

 2017-02-03 15:10:38.168898+01 | 1486131038.1689 | pgbench_branches_pkey |            40960
 2017-02-03 15:10:38.168898+01 | 1486131038.1689 | pgbench_tellers_pkey  |           245760
 2017-02-03 15:10:38.168898+01 | 1486131038.1689 | pgbench_accounts_pkey |       2246197248

 2017-02-03 15:10:39.38025+01 | 1486131039.38025 | pgbench_branches_pkey |            40960
 2017-02-03 15:10:39.38025+01 | 1486131039.38025 | pgbench_tellers_pkey  |           245760
 2017-02-03 15:10:39.38025+01 | 1486131039.38025 | pgbench_accounts_pkey |       2246197248

 2017-02-03 15:10:40.57309+01 | 1486131040.57309 | pgbench_branches_pkey |            40960
 2017-02-03 15:10:40.57309+01 | 1486131040.57309 | pgbench_tellers_pkey  |           245760
 2017-02-03 15:10:40.57309+01 | 1486131040.57309 | pgbench_accounts_pkey |       2246197248

 2017-02-03 15:10:41.736889+01 | 1486131041.73689 | pgbench_branches_pkey |            40960
 2017-02-03 15:10:41.736889+01 | 1486131041.73689 | pgbench_tellers_pkey  |           245760
 2017-02-03 15:10:41.736889+01 | 1486131041.73689 | pgbench_accounts_pkey |       2246197248

 2017-02-03 15:10:42.920772+01 | 1486131042.92077 | pgbench_branches_pkey |            40960
 2017-02-03 15:10:42.920772+01 | 1486131042.92077 | pgbench_tellers_pkey  |           245760
 2017-02-03 15:10:42.920772+01 | 1486131042.92077 | pgbench_accounts_pkey |       2246197248

 2017-02-03 15:10:44.071424+01 | 1486131044.07142 | pgbench_branches_pkey |            40960
 2017-02-03 15:10:44.071424+01 | 1486131044.07142 | pgbench_tellers_pkey  |           245760
 2017-02-03 15:10:44.071424+01 | 1486131044.07142 | pgbench_accounts_pkey |       2246197248

 2017-02-03 15:10:45.233343+01 | 1486131045.23334 | pgbench_branches_pkey |            40960
 2017-02-03 15:10:45.233343+01 | 1486131045.23334 | pgbench_tellers_pkey  |           245760
 2017-02-03 15:10:45.233343+01 | 1486131045.23334 | pgbench_accounts_pkey |       2246197248

 2017-02-03 15:10:46.401099+01 | 1486131046.4011 | pgbench_branches_pkey |            40960
 2017-02-03 15:10:46.401099+01 | 1486131046.4011 | pgbench_tellers_pkey  |           245760
 2017-02-03 15:10:46.401099+01 | 1486131046.4011 | pgbench_accounts_pkey |       2246197248

 2017-02-03 15:10:47.578621+01 | 1486131047.57862 | pgbench_branches_pkey |            40960
 2017-02-03 15:10:47.578621+01 | 1486131047.57862 | pgbench_tellers_pkey  |           245760
 2017-02-03 15:10:47.578621+01 | 1486131047.57862 | pgbench_accounts_pkey |       2246197248

 2017-02-03 15:10:48.739141+01 | 1486131048.73914 | pgbench_branches_pkey |            40960
 2017-02-03 15:10:48.739141+01 | 1486131048.73914 | pgbench_tellers_pkey  |           245760
 2017-02-03 15:10:48.739141+01 | 1486131048.73914 | pgbench_accounts_pkey |       2246197248

 2017-02-03 15:10:49.879456+01 | 1486131049.87946 | pgbench_branches_pkey |            40960
 2017-02-03 15:10:49.879456+01 | 1486131049.87946 | pgbench_tellers_pkey  |           245760
 2017-02-03 15:10:49.879456+01 | 1486131049.87946 | pgbench_accounts_pkey |       2246197248

 2017-02-03 15:10:51.033891+01 | 1486131051.03389 | pgbench_branches_pkey |            40960
 2017-02-03 15:10:51.033891+01 | 1486131051.03389 | pgbench_tellers_pkey  |           245760
 2017-02-03 15:10:51.033891+01 | 1486131051.03389 | pgbench_accounts_pkey |       2246197248

 2017-02-03 15:10:52.177315+01 | 1486131052.17731 | pgbench_branches_pkey |            40960
 2017-02-03 15:10:52.177315+01 | 1486131052.17731 | pgbench_tellers_pkey  |           245760
 2017-02-03 15:10:52.177315+01 | 1486131052.17731 | pgbench_accounts_pkey |       2246197248

 2017-02-03 15:10:53.334235+01 | 1486131053.33423 | pgbench_branches_pkey |            40960
 2017-02-03 15:10:53.334235+01 | 1486131053.33423 | pgbench_tellers_pkey  |           245760
 2017-02-03 15:10:53.334235+01 | 1486131053.33423 | pgbench_accounts_pkey |       2246197248

 2017-02-03 15:10:54.481595+01 | 1486131054.4816 | pgbench_branches_pkey |            40960
 2017-02-03 15:10:54.481595+01 | 1486131054.4816 | pgbench_tellers_pkey  |           245760
 2017-02-03 15:10:54.481595+01 | 1486131054.4816 | pgbench_accounts_pkey |       2246197248

 2017-02-03 15:10:55.620402+01 | 1486131055.6204 | pgbench_branches_pkey |            40960
 2017-02-03 15:10:55.620402+01 | 1486131055.6204 | pgbench_tellers_pkey  |           245760
 2017-02-03 15:10:55.620402+01 | 1486131055.6204 | pgbench_accounts_pkey |       2246197248

 2017-02-03 15:10:56.815728+01 | 1486131056.81573 | pgbench_branches_pkey |            40960
 2017-02-03 15:10:56.815728+01 | 1486131056.81573 | pgbench_tellers_pkey  |           245760
 2017-02-03 15:10:56.815728+01 | 1486131056.81573 | pgbench_accounts_pkey |       2246197248

 2017-02-03 15:10:57.979271+01 | 1486131057.97927 | pgbench_branches_pkey |            40960
 2017-02-03 15:10:57.979271+01 | 1486131057.97927 | pgbench_tellers_pkey  |           245760
 2017-02-03 15:10:57.979271+01 | 1486131057.97927 | pgbench_accounts_pkey |       2246197248

 2017-02-03 15:10:59.163564+01 | 1486131059.16356 | pgbench_branches_pkey |            40960
 2017-02-03 15:10:59.163564+01 | 1486131059.16356 | pgbench_tellers_pkey  |           245760
 2017-02-03 15:10:59.163564+01 | 1486131059.16356 | pgbench_accounts_pkey |       2246197248

 2017-02-03 15:11:00.326654+01 | 1486131060.32665 | pgbench_branches_pkey |            40960
 2017-02-03 15:11:00.326654+01 | 1486131060.32665 | pgbench_tellers_pkey  |           245760
 2017-02-03 15:11:00.326654+01 | 1486131060.32665 | pgbench_accounts_pkey |       2246197248

 2017-02-03 15:11:01.50146+01 | 1486131061.50146 | pgbench_branches_pkey |            40960
 2017-02-03 15:11:01.50146+01 | 1486131061.50146 | pgbench_tellers_pkey  |           245760
 2017-02-03 15:11:01.50146+01 | 1486131061.50146 | pgbench_accounts_pkey |       2246197248

 2017-02-03 15:11:02.667515+01 | 1486131062.66752 | pgbench_branches_pkey |            40960
 2017-02-03 15:11:02.667515+01 | 1486131062.66752 | pgbench_tellers_pkey  |           245760
 2017-02-03 15:11:02.667515+01 | 1486131062.66752 | pgbench_accounts_pkey |       2246197248

 2017-02-03 15:11:03.845941+01 | 1486131063.84594 | pgbench_branches_pkey |            40960
 2017-02-03 15:11:03.845941+01 | 1486131063.84594 | pgbench_tellers_pkey  |           245760
 2017-02-03 15:11:03.845941+01 | 1486131063.84594 | pgbench_accounts_pkey |       2246197248

 2017-02-03 15:11:04.978492+01 | 1486131064.97849 | pgbench_branches_pkey |            40960
 2017-02-03 15:11:04.978492+01 | 1486131064.97849 | pgbench_tellers_pkey  |           245760
 2017-02-03 15:11:04.978492+01 | 1486131064.97849 | pgbench_accounts_pkey |       2246197248

 2017-02-03 15:11:06.167263+01 | 1486131066.16726 | pgbench_branches_pkey |            40960
 2017-02-03 15:11:06.167263+01 | 1486131066.16726 | pgbench_tellers_pkey  |           245760
 2017-02-03 15:11:06.167263+01 | 1486131066.16726 | pgbench_accounts_pkey |       2246197248

 2017-02-03 15:11:07.312758+01 | 1486131067.31276 | pgbench_branches_pkey |            40960
 2017-02-03 15:11:07.312758+01 | 1486131067.31276 | pgbench_tellers_pkey  |           245760
 2017-02-03 15:11:07.312758+01 | 1486131067.31276 | pgbench_accounts_pkey |       2246197248

 2017-02-03 15:11:08.48935+01 | 1486131068.48935 | pgbench_branches_pkey |            40960
 2017-02-03 15:11:08.48935+01 | 1486131068.48935 | pgbench_tellers_pkey  |           245760
 2017-02-03 15:11:08.48935+01 | 1486131068.48935 | pgbench_accounts_pkey |       2246197248

 2017-02-03 15:11:09.642578+01 | 1486131069.64258 | pgbench_branches_pkey |            40960
 2017-02-03 15:11:09.642578+01 | 1486131069.64258 | pgbench_tellers_pkey  |           245760
 2017-02-03 15:11:09.642578+01 | 1486131069.64258 | pgbench_accounts_pkey |       2246197248

 2017-02-03 15:11:10.84064+01 | 1486131070.84064 | pgbench_branches_pkey |            40960
 2017-02-03 15:11:10.84064+01 | 1486131070.84064 | pgbench_tellers_pkey  |           245760
 2017-02-03 15:11:10.84064+01 | 1486131070.84064 | pgbench_accounts_pkey |       2246197248

 2017-02-03 15:11:11.968647+01 | 1486131071.96865 | pgbench_branches_pkey |            40960
 2017-02-03 15:11:11.968647+01 | 1486131071.96865 | pgbench_tellers_pkey  |           245760
 2017-02-03 15:11:11.968647+01 | 1486131071.96865 | pgbench_accounts_pkey |       2246197248

 2017-02-03 15:11:13.156067+01 | 1486131073.15607 | pgbench_branches_pkey |            40960
 2017-02-03 15:11:13.156067+01 | 1486131073.15607 | pgbench_tellers_pkey  |           245760
 2017-02-03 15:11:13.156067+01 | 1486131073.15607 | pgbench_accounts_pkey |       2246197248

 2017-02-03 15:11:14.354022+01 | 1486131074.35402 | pgbench_branches_pkey |            40960
 2017-02-03 15:11:14.354022+01 | 1486131074.35402 | pgbench_tellers_pkey  |           245760
 2017-02-03 15:11:14.354022+01 | 1486131074.35402 | pgbench_accounts_pkey |       2246197248

 2017-02-03 15:11:15.493118+01 | 1486131075.49312 | pgbench_branches_pkey |            40960
 2017-02-03 15:11:15.493118+01 | 1486131075.49312 | pgbench_tellers_pkey  |           245760
 2017-02-03 15:11:15.493118+01 | 1486131075.49312 | pgbench_accounts_pkey |       2246197248

 2017-02-03 15:11:16.650764+01 | 1486131076.65076 | pgbench_branches_pkey |            40960
 2017-02-03 15:11:16.650764+01 | 1486131076.65076 | pgbench_tellers_pkey  |           245760
 2017-02-03 15:11:16.650764+01 | 1486131076.65076 | pgbench_accounts_pkey |       2246197248

 2017-02-03 15:11:17.85258+01 | 1486131077.85258 | pgbench_branches_pkey |            40960
 2017-02-03 15:11:17.85258+01 | 1486131077.85258 | pgbench_tellers_pkey  |           245760
 2017-02-03 15:11:17.85258+01 | 1486131077.85258 | pgbench_accounts_pkey |       2246197248

 2017-02-03 15:11:19.040851+01 | 1486131079.04085 | pgbench_branches_pkey |            40960
 2017-02-03 15:11:19.040851+01 | 1486131079.04085 | pgbench_tellers_pkey  |           245760
 2017-02-03 15:11:19.040851+01 | 1486131079.04085 | pgbench_accounts_pkey |       2246197248

 2017-02-03 15:11:20.236681+01 | 1486131080.23668 | pgbench_branches_pkey |            40960
 2017-02-03 15:11:20.236681+01 | 1486131080.23668 | pgbench_tellers_pkey  |           245760
 2017-02-03 15:11:20.236681+01 | 1486131080.23668 | pgbench_accounts_pkey |       2246197248

 2017-02-03 15:11:21.406132+01 | 1486131081.40613 | pgbench_branches_pkey |            40960
 2017-02-03 15:11:21.406132+01 | 1486131081.40613 | pgbench_tellers_pkey  |           245760
 2017-02-03 15:11:21.406132+01 | 1486131081.40613 | pgbench_accounts_pkey |       2246197248

 2017-02-03 15:11:22.60192+01 | 1486131082.60192 | pgbench_branches_pkey |            40960
 2017-02-03 15:11:22.60192+01 | 1486131082.60192 | pgbench_tellers_pkey  |           245760
 2017-02-03 15:11:22.60192+01 | 1486131082.60192 | pgbench_accounts_pkey |       2246197248

 2017-02-03 15:11:23.768985+01 | 1486131083.76899 | pgbench_branches_pkey |            40960
 2017-02-03 15:11:23.768985+01 | 1486131083.76899 | pgbench_tellers_pkey  |           245760
 2017-02-03 15:11:23.768985+01 | 1486131083.76899 | pgbench_accounts_pkey |       2246197248

 2017-02-03 15:11:24.952245+01 | 1486131084.95224 | pgbench_branches_pkey |            40960
 2017-02-03 15:11:24.952245+01 | 1486131084.95224 | pgbench_tellers_pkey  |           245760
 2017-02-03 15:11:24.952245+01 | 1486131084.95224 | pgbench_accounts_pkey |       2246197248

 2017-02-03 15:11:26.115093+01 | 1486131086.11509 | pgbench_branches_pkey |            40960
 2017-02-03 15:11:26.115093+01 | 1486131086.11509 | pgbench_tellers_pkey  |           245760
 2017-02-03 15:11:26.115093+01 | 1486131086.11509 | pgbench_accounts_pkey |       2246197248

 2017-02-03 15:11:27.30257+01 | 1486131087.30257 | pgbench_branches_pkey |            40960
 2017-02-03 15:11:27.30257+01 | 1486131087.30257 | pgbench_tellers_pkey  |           245760
 2017-02-03 15:11:27.30257+01 | 1486131087.30257 | pgbench_accounts_pkey |       2246197248

 2017-02-03 15:11:28.495307+01 | 1486131088.49531 | pgbench_branches_pkey |            40960
 2017-02-03 15:11:28.495307+01 | 1486131088.49531 | pgbench_tellers_pkey  |           245760
 2017-02-03 15:11:28.495307+01 | 1486131088.49531 | pgbench_accounts_pkey |       2246197248

 2017-02-03 15:11:29.661998+01 | 1486131089.662 | pgbench_branches_pkey |            40960
 2017-02-03 15:11:29.661998+01 | 1486131089.662 | pgbench_tellers_pkey  |           245760
 2017-02-03 15:11:29.661998+01 | 1486131089.662 | pgbench_accounts_pkey |       2246197248

