 2017-02-06 14:56:02.383639+01 | 1486389362.38364 | 65/319E1F10              |          434624143120

 2017-02-06 14:56:03.475828+01 | 1486389363.47583 | 65/3A759770              |          434772481904

 2017-02-06 14:56:04.569168+01 | 1486389364.56917 | 65/4580EF78              |          434957774712

 2017-02-06 14:56:05.645104+01 | 1486389365.6451 | 65/50B1F3A8              |          435145536424

 2017-02-06 14:56:06.718773+01 | 1486389366.71877 | 65/5BF8C6C0              |          435334727360

 2017-02-06 14:56:07.795502+01 | 1486389367.7955 | 65/67BE2D08              |          435532213512

 2017-02-06 14:56:08.870666+01 | 1486389368.87067 | 65/735F6B60              |          435727330144

 2017-02-06 14:56:09.949739+01 | 1486389369.94974 | 65/7EF908C0              |          435921946816

 2017-02-06 14:56:11.025716+01 | 1486389371.02572 | 65/8A1C2AB8              |          436108798648

 2017-02-06 14:56:12.105333+01 | 1486389372.10533 | 65/95142B18              |          436292823832

 2017-02-06 14:56:13.184576+01 | 1486389373.18458 | 65/9FD0BD40              |          436472954176

 2017-02-06 14:56:14.261563+01 | 1486389374.26156 | 65/AA43EFE8              |          436648275944

 2017-02-06 14:56:15.340616+01 | 1486389375.34062 | 65/B4738568              |          436819166568

 2017-02-06 14:56:16.407433+01 | 1486389376.40743 | 65/BD18CAD0              |          436964215504

 2017-02-06 14:56:17.489213+01 | 1486389377.48921 | 65/C77209B8              |          437137836472

 2017-02-06 14:56:18.565643+01 | 1486389378.56564 | 65/D1503DC8              |          437303393736

 2017-02-06 14:56:19.640812+01 | 1486389379.64081 | 65/DB5EA4F8              |          437472109816

 2017-02-06 14:56:20.721231+01 | 1486389380.72123 | 65/E48B8BC0              |          437626047424

 2017-02-06 14:56:21.798744+01 | 1486389381.79874 | 65/ECE1DA68              |          437765921384

 2017-02-06 14:56:22.878014+01 | 1486389382.87801 | 65/F65B3780              |          437924870016

 2017-02-06 14:56:23.961411+01 | 1486389383.96141 | 66/2A2108                |          438089425160

 2017-02-06 14:56:25.044774+01 | 1486389385.04477 | 66/9AAD6B0               |          438248855216

 2017-02-06 14:56:26.122281+01 | 1486389386.12228 | 66/13146768              |          438406768488

 2017-02-06 14:56:27.198721+01 | 1486389387.19872 | 66/1C4E14A0              |          438561543328

 2017-02-06 14:56:28.268848+01 | 1486389388.26885 | 66/254A8C60              |          438712306784

 2017-02-06 14:56:29.345118+01 | 1486389389.34512 | 66/2E364A68              |          438861974120

 2017-02-06 14:56:30.4173+01 | 1486389390.4173 | 66/37448858              |          439013902424

 2017-02-06 14:56:31.492014+01 | 1486389391.49201 | 66/400A9D28              |          439161101608

 2017-02-06 14:56:32.567645+01 | 1486389392.56765 | 66/485A72C0              |          439300551360

 2017-02-06 14:56:33.629771+01 | 1486389393.62977 | 66/50397BE0              |          439432608736

 2017-02-06 14:56:34.707383+01 | 1486389394.70738 | 66/58D71740              |          439577155392

 2017-02-06 14:56:35.781682+01 | 1486389395.78168 | 66/60A3CF20              |          439708012320

 2017-02-06 14:56:36.873997+01 | 1486389396.874 | 66/68CBF8D8              |          439844862168

 2017-02-06 14:56:37.949276+01 | 1486389397.94928 | 66/6FFCA968              |          439965493608

 2017-02-06 14:56:39.029131+01 | 1486389399.02913 | 66/77C32E30              |          440095944240

 2017-02-06 14:56:40.106561+01 | 1486389400.10656 | 66/7F1855C0              |          440218965440

 2017-02-06 14:56:41.185406+01 | 1486389401.18541 | 66/86E28208              |          440349655560

 2017-02-06 14:56:42.267821+01 | 1486389402.26782 | 66/8EB88530              |          440481121584

 2017-02-06 14:56:43.355244+01 | 1486389403.35524 | 66/959C5D40              |          440596716864

 2017-02-06 14:56:44.42781+01 | 1486389404.42781 | 66/9D021480              |          440720823424

 2017-02-06 14:56:45.50822+01 | 1486389405.50822 | 66/A46C02F8              |          440845206264

 2017-02-06 14:56:46.585876+01 | 1486389406.58588 | 66/ABF110E8              |          440971366632

 2017-02-06 14:56:47.660011+01 | 1486389407.66001 | 66/B2871B10              |          441081862928

 2017-02-06 14:56:48.739381+01 | 1486389408.73938 | 66/B86AB968              |          441180666216

 2017-02-06 14:56:49.825399+01 | 1486389409.8254 | 66/BF059B70              |          441291479920

 2017-02-06 14:56:50.902353+01 | 1486389410.90235 | 66/C5562228              |          441397420584

 2017-02-06 14:56:51.979009+01 | 1486389411.97901 | 66/CBCA0DD0              |          441505680848

 2017-02-06 14:56:53.056453+01 | 1486389413.05645 | 66/D21BE470              |          441611707504

 2017-02-06 14:56:54.129967+01 | 1486389414.12997 | 66/D86F7D10              |          441717849360

 2017-02-06 14:56:55.213162+01 | 1486389415.21316 | 66/DE6DBD48              |          441818398024

 2017-02-06 14:56:56.283507+01 | 1486389416.28351 | 66/E4F90CB8              |          441928191160

 2017-02-06 14:56:57.359273+01 | 1486389417.35927 | 66/EAF33940              |          442028472640

 2017-02-06 14:56:58.432212+01 | 1486389418.43221 | 66/F066BC98              |          442119928984

 2017-02-06 14:56:59.510497+01 | 1486389419.5105 | 66/F66B9818              |          442220910616

 2017-02-06 14:57:00.58406+01 | 1486389420.58406 | 66/FAE22888              |          442295789704

 2017-02-06 14:57:01.676174+01 | 1486389421.67617 | 67/7E2840                |          442389899328

 2017-02-06 14:57:02.756614+01 | 1486389422.75661 | 67/5F88D60               |          442481806688

 2017-02-06 14:57:03.841194+01 | 1486389423.84119 | 67/BB5CE60               |          442578095712

 2017-02-06 14:57:04.918937+01 | 1486389424.91894 | 67/10B77F40              |          442662092608

 2017-02-06 14:57:05.997242+01 | 1486389425.99724 | 67/1630CAF0              |          442753927920

 2017-02-06 14:57:07.072959+01 | 1486389427.07296 | 67/1B7AFAD0              |          442842675920

 2017-02-06 14:57:08.151958+01 | 1486389428.15196 | 67/20B90158              |          442930626904

 2017-02-06 14:57:09.231972+01 | 1486389429.23197 | 67/25DB55C8              |          443016762824

 2017-02-06 14:57:10.304986+01 | 1486389430.30499 | 67/2B3B4350              |          443106935632

 2017-02-06 14:57:11.380499+01 | 1486389431.3805 | 67/30136B88              |          443188210568

 2017-02-06 14:57:12.459035+01 | 1486389432.45903 | 67/352C9CF8              |          443273747704

 2017-02-06 14:57:13.535147+01 | 1486389433.53515 | 67/3A279040              |          443357302848

 2017-02-06 14:57:14.617451+01 | 1486389434.61745 | 67/3F38D8F8              |          443442321656

 2017-02-06 14:57:15.688562+01 | 1486389435.68856 | 67/440EBBF8              |          443523447800

 2017-02-06 14:57:16.76334+01 | 1486389436.76334 | 67/48C2CA00              |          443602356736

 2017-02-06 14:57:17.838282+01 | 1486389437.83828 | 67/4D6ECEC8              |          443680739016

 2017-02-06 14:57:18.914098+01 | 1486389438.9141 | 67/511CDE98              |          443742477976

 2017-02-06 14:57:19.99749+01 | 1486389439.99749 | 67/54F87100              |          443807199488

 2017-02-06 14:57:21.079822+01 | 1486389441.07982 | 67/587C9850              |          443866191952

 2017-02-06 14:57:22.151836+01 | 1486389442.15184 | 67/5C44C6A0              |          443929642656

 2017-02-06 14:57:23.230987+01 | 1486389443.23099 | 67/5FBDAC70              |          443987897456

 2017-02-06 14:57:24.314885+01 | 1486389444.31488 | 67/63BF5290              |          444055114384

 2017-02-06 14:57:25.381697+01 | 1486389445.3817 | 67/66E56DB8              |          444107943352

 2017-02-06 14:57:26.45321+01 | 1486389446.45321 | 67/6AA49B18              |          444170803992

 2017-02-06 14:57:27.53511+01 | 1486389447.53511 | 67/6F9DBD60              |          444254240096

 2017-02-06 14:57:28.609087+01 | 1486389448.60909 | 67/74180E30              |          444329365040

 2017-02-06 14:57:29.689455+01 | 1486389449.68946 | 67/788E9A20              |          444404242976

 2017-02-06 14:57:30.766729+01 | 1486389450.76673 | 67/7CE98778              |          444477310840

 2017-02-06 14:57:31.839526+01 | 1486389451.83953 | 67/80E543F0              |          444544140272

 2017-02-06 14:57:32.914828+01 | 1486389452.91483 | 67/8559D0F8              |          444618887416

 2017-02-06 14:57:33.988163+01 | 1486389453.98816 | 67/89BD2560              |          444692505952

 2017-02-06 14:57:35.055731+01 | 1486389455.05573 | 67/8DFFBBE8              |          444763978728

 2017-02-06 14:57:36.132939+01 | 1486389456.13294 | 67/927565A0              |          444838798752

 2017-02-06 14:57:37.209887+01 | 1486389457.20989 | 67/96B66340              |          444910166848

 2017-02-06 14:57:38.276021+01 | 1486389458.27602 | 67/9A9E2990              |          444975688080

 2017-02-06 14:57:39.352851+01 | 1486389459.35285 | 67/9EA32CC8              |          445043125448

 2017-02-06 14:57:40.415664+01 | 1486389460.41566 | 67/A2759570              |          445107246448

 2017-02-06 14:57:41.490458+01 | 1486389461.49046 | 67/A6855250              |          445175386704

 2017-02-06 14:57:42.573521+01 | 1486389462.57352 | 67/AAB93A68              |          445245897320

 2017-02-06 14:57:43.656959+01 | 1486389463.65696 | 67/AEC4DE28              |          445313769000

 2017-02-06 14:57:44.729179+01 | 1486389464.72918 | 67/B30D3FC8              |          445385621448

 2017-02-06 14:57:45.804698+01 | 1486389465.8047 | 67/B70955B0              |          445452473776

 2017-02-06 14:57:46.877037+01 | 1486389466.87704 | 67/BB0D7998              |          445519853976

 2017-02-06 14:57:47.958017+01 | 1486389467.95802 | 67/BEE23BD0              |          445584128976

 2017-02-06 14:57:49.047171+01 | 1486389469.04717 | 67/C31BB360              |          445655004000

 2017-02-06 14:57:50.127236+01 | 1486389470.12724 | 67/C6CA44D0              |          445716776144

 2017-02-06 14:57:51.205145+01 | 1486389471.20514 | 67/CA45D578              |          445775205752

 2017-02-06 14:57:52.290533+01 | 1486389472.29053 | 67/CE30F190              |          445840945552

 2017-02-06 14:57:53.369347+01 | 1486389473.36935 | 67/D1E4F128              |          445903073576

 2017-02-06 14:57:54.446996+01 | 1486389474.447 | 67/D5C500C0              |          445968089280

 2017-02-06 14:57:55.521033+01 | 1486389475.52103 | 67/D9819430              |          446030779440

 2017-02-06 14:57:56.596046+01 | 1486389476.59605 | 67/DD1B2380              |          446091174784

 2017-02-06 14:57:57.670105+01 | 1486389477.6701 | 67/E090E040              |          446149222464

 2017-02-06 14:57:58.752225+01 | 1486389478.75222 | 67/E44546D8              |          446211376856

 2017-02-06 14:57:59.827+01 | 1486389479.827 | 67/E7B58B28              |          446269066024

 2017-02-06 14:58:00.905557+01 | 1486389480.90556 | 67/EB6B02F0              |          446331290352

 2017-02-06 14:58:01.986767+01 | 1486389481.98677 | 67/EEFAC960              |          446391044448

 2017-02-06 14:58:03.063013+01 | 1486389483.06301 | 67/F267FB78              |          446448532344

 2017-02-06 14:58:04.148642+01 | 1486389484.14864 | 67/F66326E8              |          446515324648

 2017-02-06 14:58:05.213023+01 | 1486389485.21302 | 67/F9F39CD0              |          446575123664

 2017-02-06 14:58:06.289243+01 | 1486389486.28924 | 67/FD8DCA70              |          446635559536

 2017-02-06 14:58:07.364033+01 | 1486389487.36403 | 68/ECDB48                |          446692121416

 2017-02-06 14:58:08.442461+01 | 1486389488.44246 | 68/46A6AF8               |          446750681848

 2017-02-06 14:58:09.523007+01 | 1486389489.52301 | 68/7D111B8               |          446807740856

 2017-02-06 14:58:10.599426+01 | 1486389490.59943 | 68/B1F9D20               |          446863220000

 2017-02-06 14:58:11.676849+01 | 1486389491.67685 | 68/E589B90               |          446917286800

 2017-02-06 14:58:12.752774+01 | 1486389492.75277 | 68/11C91C08              |          446974991368

 2017-02-06 14:58:13.827957+01 | 1486389493.82796 | 68/15269E40              |          447031451200

 2017-02-06 14:58:14.898475+01 | 1486389494.89847 | 68/188AEC10              |          447088356368

 2017-02-06 14:58:15.976829+01 | 1486389495.97683 | 68/1BB2F050              |          447141310544

 2017-02-06 14:58:17.053928+01 | 1486389497.05393 | 68/1EFFEA68              |          447196686952

 2017-02-06 14:58:18.132536+01 | 1486389498.13254 | 68/22374DF8              |          447250648568

 2017-02-06 14:58:19.208183+01 | 1486389499.20818 | 68/25649A40              |          447303948864

 2017-02-06 14:58:20.294927+01 | 1486389500.29493 | 68/2870A330              |          447355069232

 2017-02-06 14:58:21.37202+01 | 1486389501.37202 | 68/2BB796E0              |          447410050784

 2017-02-06 14:58:22.449381+01 | 1486389502.44938 | 68/2EC86388              |          447461483400

 2017-02-06 14:58:23.527692+01 | 1486389503.52769 | 68/31FBF220              |          447515193888

 2017-02-06 14:58:24.606091+01 | 1486389504.60609 | 68/35253D38              |          447568231736

 2017-02-06 14:58:25.677099+01 | 1486389505.6771 | 68/384A3730              |          447620986672

 2017-02-06 14:58:26.750546+01 | 1486389506.75055 | 68/3B5D37C0              |          447672563648

 2017-02-06 14:58:27.823512+01 | 1486389507.82351 | 68/3E6A1DC8              |          447723740616

 2017-02-06 14:58:28.895255+01 | 1486389508.89526 | 68/4176BC48              |          447774899272

 2017-02-06 14:58:29.969445+01 | 1486389509.96944 | 68/44800370              |          447825838960

 2017-02-06 14:58:31.05883+01 | 1486389511.05883 | 68/4780DE78              |          447876226680

 2017-02-06 14:58:32.143615+01 | 1486389512.14362 | 68/4A857490              |          447926858896

 2017-02-06 14:58:33.219474+01 | 1486389513.21947 | 68/4D90EA10              |          447977941520

 2017-02-06 14:58:34.295624+01 | 1486389514.29562 | 68/502546F0              |          448021219056

 2017-02-06 14:58:35.371097+01 | 1486389515.3711 | 68/526A6F30              |          448059305776

 2017-02-06 14:58:36.445623+01 | 1486389516.44562 | 68/54824DC0              |          448094424512

 2017-02-06 14:58:37.523097+01 | 1486389517.5231 | 68/56AEE790              |          448130901904

 2017-02-06 14:58:38.593672+01 | 1486389518.59367 | 68/58E53198              |          448168014232

 2017-02-06 14:58:39.665639+01 | 1486389519.66564 | 68/5AFDD4F0              |          448203183344

 2017-02-06 14:58:40.729452+01 | 1486389520.72945 | 68/5D286848              |          448239528008

 2017-02-06 14:58:41.815097+01 | 1486389521.8151 | 68/5F47FFF0              |          448275152880

 2017-02-06 14:58:42.899221+01 | 1486389522.89922 | 68/617CC668              |          448312165992

 2017-02-06 14:58:43.979142+01 | 1486389523.97914 | 68/63972C98              |          448347450520

 2017-02-06 14:58:45.053109+01 | 1486389525.05311 | 68/65B54BF0              |          448382979056

 2017-02-06 14:58:46.131026+01 | 1486389526.13103 | 68/67B4C5F0              |          448416499184

 2017-02-06 14:58:47.206504+01 | 1486389527.2065 | 68/69F9D7E8              |          448454580200

 2017-02-06 14:58:48.283746+01 | 1486389528.28375 | 68/6C1A6E78              |          448490270328

 2017-02-06 14:58:49.354451+01 | 1486389529.35445 | 68/6DFEEF90              |          448522022800

 2017-02-06 14:58:50.439109+01 | 1486389530.43911 | 68/701DE6C0              |          448557606592

 2017-02-06 14:58:51.513068+01 | 1486389531.51307 | 68/720A1328              |          448589861672

 2017-02-06 14:58:52.594569+01 | 1486389532.59457 | 68/741F1C90              |          448624794768

 2017-02-06 14:58:53.674552+01 | 1486389533.67455 | 68/761A02B0              |          448658014896

 2017-02-06 14:58:54.745798+01 | 1486389534.7458 | 68/77FFB550              |          448689845584

 2017-02-06 14:58:55.825961+01 | 1486389535.82596 | 68/79E9BDD8              |          448721960408

 2017-02-06 14:58:56.89988+01 | 1486389536.89988 | 68/7BD7B560              |          448754333024

 2017-02-06 14:58:57.98083+01 | 1486389537.98083 | 68/7DB719A8              |          448785750440

 2017-02-06 14:58:59.060095+01 | 1486389539.0601 | 68/7FA47B50              |          448818084688

 2017-02-06 14:59:00.132428+01 | 1486389540.13243 | 68/81944628              |          448850576936

 2017-02-06 14:59:01.202817+01 | 1486389541.20282 | 68/831C36A0              |          448876263072

 2017-02-06 14:59:02.285557+01 | 1486389542.28556 | 68/8502D058              |          448908152920

 2017-02-06 14:59:03.359347+01 | 1486389543.35935 | 68/86D3C1B0              |          448938623408

 2017-02-06 14:59:04.435695+01 | 1486389544.43569 | 68/88A80278              |          448969310840

 2017-02-06 14:59:05.512908+01 | 1486389545.51291 | 68/8A75AC68              |          448999566440

 2017-02-06 14:59:06.590958+01 | 1486389546.59096 | 68/8C43F2A0              |          449029862048

 2017-02-06 14:59:07.671585+01 | 1486389547.67159 | 68/8E138658              |          449060243032

 2017-02-06 14:59:08.749518+01 | 1486389548.74952 | 68/8FD06518              |          449089398040

 2017-02-06 14:59:09.828879+01 | 1486389549.82888 | 68/91632B60              |          449115794272

 2017-02-06 14:59:10.905379+01 | 1486389550.90538 | 68/92FA0E30              |          449142459952

 2017-02-06 14:59:11.982468+01 | 1486389551.98247 | 68/949C96D0              |          449169888976

 2017-02-06 14:59:13.067158+01 | 1486389553.06716 | 68/962591D8              |          449195643352

 2017-02-06 14:59:14.143131+01 | 1486389554.14313 | 68/97C23E48              |          449222688328

 2017-02-06 14:59:15.215478+01 | 1486389555.21548 | 68/9951E160              |          449248878944

 2017-02-06 14:59:16.29165+01 | 1486389556.29165 | 68/9B01EAD0              |          449277192912

 2017-02-06 14:59:17.370916+01 | 1486389557.37092 | 68/9C92AA90              |          449303456400

 2017-02-06 14:59:18.445904+01 | 1486389558.4459 | 68/9E38EA98              |          449331128984

 2017-02-06 14:59:19.522403+01 | 1486389559.5224 | 68/9FCA9C40              |          449357454400

 2017-02-06 14:59:20.595986+01 | 1486389560.59599 | 68/A14586C8              |          449382287048

 2017-02-06 14:59:21.673404+01 | 1486389561.6734 | 68/A2D53C50              |          449408482384

 2017-02-06 14:59:22.748664+01 | 1486389562.74866 | 68/A44151E8              |          449432343016

 2017-02-06 14:59:23.8239+01 | 1486389563.8239 | 68/A5A28038              |          449455489080

 2017-02-06 14:59:24.900401+01 | 1486389564.9004 | 68/A6D8FBC8              |          449475836872

 2017-02-06 14:59:25.974203+01 | 1486389565.9742 | 68/A7FCB4E8              |          449494955240

 2017-02-06 14:59:27.049689+01 | 1486389567.04969 | 68/A935BA40              |          449515469376

 2017-02-06 14:59:28.129372+01 | 1486389568.12937 | 68/AA5D7920              |          449534851360

 2017-02-06 14:59:29.203273+01 | 1486389569.20327 | 68/ABA267B8              |          449556146104

 2017-02-06 14:59:30.288581+01 | 1486389570.28858 | 68/ACCE68B0              |          449575807152

 2017-02-06 14:59:31.365989+01 | 1486389571.36599 | 68/AE517938              |          449601173816

 2017-02-06 14:59:32.438143+01 | 1486389572.43814 | 68/AF9D4668              |          449622918760

 2017-02-06 14:59:33.509387+01 | 1486389573.50939 | 68/B0BD9C80              |          449641815168

 2017-02-06 14:59:34.588271+01 | 1486389574.58827 | 68/B21C5F28              |          449664802600

 2017-02-06 14:59:35.664079+01 | 1486389575.66408 | 68/B34D1648              |          449684772424

 2017-02-06 14:59:36.742995+01 | 1486389576.743 | 68/B47CC9C0              |          449704675776

 2017-02-06 14:59:37.822329+01 | 1486389577.82233 | 68/B5C92A18              |          449726458392

 2017-02-06 14:59:38.903423+01 | 1486389578.90342 | 68/B701D910              |          449746950416

 2017-02-06 14:59:39.979193+01 | 1486389579.97919 | 68/B83A23C8              |          449767416776

 2017-02-06 14:59:41.055737+01 | 1486389581.05574 | 68/B98015A8              |          449788777896

 2017-02-06 14:59:42.130174+01 | 1486389582.13017 | 68/BAC6D140              |          449810190656

 2017-02-06 14:59:43.214563+01 | 1486389583.21456 | 68/BC488468              |          449835467880

 2017-02-06 14:59:44.298023+01 | 1486389584.29802 | 68/BD9D98D8              |          449857820888

 2017-02-06 14:59:45.369447+01 | 1486389585.36945 | 68/BECD7EB0              |          449877737136

 2017-02-06 14:59:46.445457+01 | 1486389586.44546 | 68/C0022FD8              |          449897967576

 2017-02-06 14:59:47.522088+01 | 1486389587.52209 | 68/C1245548              |          449916982600

 2017-02-06 14:59:48.595837+01 | 1486389588.59584 | 68/C26515B8              |          449938003384

 2017-02-06 14:59:49.669604+01 | 1486389589.6696 | 68/C3713C80              |          449955576960

 2017-02-06 14:59:50.740605+01 | 1486389590.74061 | 68/C49C33A0              |          449975169952

 2017-02-06 14:59:51.820972+01 | 1486389591.82097 | 68/C5C73CE0              |          449994767584

 2017-02-06 14:59:52.893805+01 | 1486389592.89381 | 68/C6C714E0              |          450011534560

 2017-02-06 14:59:53.970026+01 | 1486389593.97003 | 68/C7E685B0              |          450030372272

 2017-02-06 14:59:55.04911+01 | 1486389595.04911 | 68/C8DE8A48              |          450046626376

 2017-02-06 14:59:56.120571+01 | 1486389596.12057 | 68/CA116A38              |          450066737720

 2017-02-06 14:59:57.195967+01 | 1486389597.19597 | 68/CB0BFBB0              |          450083158960

 2017-02-06 14:59:58.276278+01 | 1486389598.27628 | 68/CC00DBF0              |          450099207152

 2017-02-06 14:59:59.354138+01 | 1486389599.35414 | 68/CCEFCA98              |          450114865816

 2017-02-06 15:00:00.432986+01 | 1486389600.43299 | 68/CDF41528              |          450131924264

 2017-02-06 15:00:01.506534+01 | 1486389601.50653 | 68/CF002968              |          450149493096

 2017-02-06 15:00:02.58761+01 | 1486389602.58761 | 68/D022DDF0              |          450168544752

 2017-02-06 15:00:03.659476+01 | 1486389603.65948 | 68/D124D708              |          450185451272

 2017-02-06 15:00:04.734265+01 | 1486389604.73427 | 68/D23BE0C0              |          450203738304

 2017-02-06 15:00:05.809528+01 | 1486389605.80953 | 68/D33B6490              |          450220483728

 2017-02-06 15:00:06.885949+01 | 1486389606.88595 | 68/D4436F50              |          450237787984

 2017-02-06 15:00:07.96501+01 | 1486389607.96501 | 68/D5381D08              |          450253823240

 2017-02-06 15:00:09.042264+01 | 1486389609.04226 | 68/D64587F0              |          450271479792

 2017-02-06 15:00:10.116748+01 | 1486389610.11675 | 68/D740E7E0              |          450287953888

 2017-02-06 15:00:11.193257+01 | 1486389611.19326 | 68/D83D2FC8              |          450304487368

 2017-02-06 15:00:12.27611+01 | 1486389612.27611 | 68/D926EC98              |          450319805592

 2017-02-06 15:00:13.353635+01 | 1486389613.35364 | 68/DA2B9730              |          450336888624

 2017-02-06 15:00:14.435585+01 | 1486389614.43559 | 68/DB1CCDE0              |          450352696800

 2017-02-06 15:00:15.513278+01 | 1486389615.51328 | 68/DC245CD0              |          450369969360

 2017-02-06 15:00:16.590656+01 | 1486389616.59066 | 68/DD2ECB48              |          450387430216

 2017-02-06 15:00:17.656165+01 | 1486389617.65616 | 68/DE2563F8              |          450403591160

 2017-02-06 15:00:18.733039+01 | 1486389618.73304 | 68/DF22F8A8              |          450420209832

 2017-02-06 15:00:19.805329+01 | 1486389619.80533 | 68/E02885C8              |          450437350856

 2017-02-06 15:00:20.882288+01 | 1486389620.88229 | 68/E126C058              |          450454011992

 2017-02-06 15:00:21.951503+01 | 1486389621.9515 | 68/E2163640              |          450469705280

 2017-02-06 15:00:23.028121+01 | 1486389623.02812 | 68/E30BFC70              |          450485812336

 2017-02-06 15:00:24.100736+01 | 1486389624.10074 | 68/E3FB6AA0              |          450501503648

 2017-02-06 15:00:25.173456+01 | 1486389625.17346 | 68/E4D50738              |          450515765048

 2017-02-06 15:00:26.251779+01 | 1486389626.25178 | 68/E5A52850              |          450529405008

 2017-02-06 15:00:27.32967+01 | 1486389627.32967 | 68/E65086E8              |          450540635880

 2017-02-06 15:00:28.409224+01 | 1486389628.40922 | 68/E7255228              |          450554581544

 2017-02-06 15:00:29.502386+01 | 1486389629.50239 | 68/E81B15D8              |          450570687960

 2017-02-06 15:00:30.592362+01 | 1486389630.59236 | 68/E8F238B0              |          450584787120

 2017-02-06 15:00:31.677577+01 | 1486389631.67758 | 68/E9EFF9E8              |          450601417192

 2017-02-06 15:00:32.751288+01 | 1486389632.75129 | 68/EAC21240              |          450615185984

 2017-02-06 15:00:33.827658+01 | 1486389633.82766 | 68/EBA4D440              |          450630046784

 2017-02-06 15:00:34.902452+01 | 1486389634.90245 | 68/EC937788              |          450645686152

 2017-02-06 15:00:35.977134+01 | 1486389635.97713 | 68/ED838440              |          450661418048

 2017-02-06 15:00:37.06141+01 | 1486389637.06141 | 68/EE614030              |          450675949616

 2017-02-06 15:00:38.138031+01 | 1486389638.13803 | 68/EF4E7DD0              |          450691497424

 2017-02-06 15:00:39.199677+01 | 1486389639.19968 | 68/F04914F0              |          450707920112

 2017-02-06 15:00:40.276991+01 | 1486389640.27699 | 68/F14151D8              |          450724188632

 2017-02-06 15:00:41.351511+01 | 1486389641.35151 | 68/F2366A80              |          450740251264

 2017-02-06 15:00:42.429681+01 | 1486389642.42968 | 68/F33A5A70              |          450757286512

 2017-02-06 15:00:43.50341+01 | 1486389643.50341 | 68/F42087F0              |          450772371440

 2017-02-06 15:00:44.581182+01 | 1486389644.58118 | 68/F50DA7E0              |          450787911648

 2017-02-06 15:00:45.663187+01 | 1486389645.66319 | 68/F6025648              |          450803947080

 2017-02-06 15:00:46.743291+01 | 1486389646.74329 | 68/F6F15360              |          450819609440

 2017-02-06 15:00:47.816721+01 | 1486389647.81672 | 68/F7D999B0              |          450834831792

 2017-02-06 15:00:48.893597+01 | 1486389648.8936 | 68/F8E2A160              |          450852200800

 2017-02-06 15:00:49.969864+01 | 1486389649.96986 | 68/F9CBBDB0              |          450867477936

 2017-02-06 15:00:51.045904+01 | 1486389651.0459 | 68/FAC27A10              |          450883648016

 2017-02-06 15:00:52.121433+01 | 1486389652.12143 | 68/FBB2D720              |          450899400480

 2017-02-06 15:00:53.199221+01 | 1486389653.19922 | 68/FC83F3E0              |          450913104864

 2017-02-06 15:00:54.277589+01 | 1486389654.27759 | 68/FD7E6F38              |          450929520440

 2017-02-06 15:00:55.364986+01 | 1486389655.36499 | 68/FE5D0488              |          450944107656

 2017-02-06 15:00:56.440453+01 | 1486389656.44045 | 68/FF39E480              |          450958582912

 2017-02-06 15:00:57.516945+01 | 1486389657.51694 | 69/1E1060                |          450973536352

 2017-02-06 15:00:58.591513+01 | 1486389658.59151 | 69/10350E0               |          450988560608

 2017-02-06 15:00:59.665578+01 | 1486389659.66558 | 69/1DFBF98               |          451003006872

 2017-02-06 15:01:00.74079+01 | 1486389660.74079 | 69/2B63400               |          451017061376

 2017-02-06 15:01:01.823064+01 | 1486389661.82306 | 69/3ABAB88               |          451033148296

