 2017-02-05 06:06:13.847935+01 | 1486271173.84793 | pgbench_accounts |       1391968256
 2017-02-05 06:06:13.847935+01 | 1486271173.84793 | pgbench_tellers  |            49152
 2017-02-05 06:06:13.847935+01 | 1486271173.84793 | pgbench_history  |                0
 2017-02-05 06:06:13.847935+01 | 1486271173.84793 | pgbench_branches |             8192

 2017-02-05 06:06:14.922549+01 | 1486271174.92255 | pgbench_accounts |       1391968256
 2017-02-05 06:06:14.922549+01 | 1486271174.92255 | pgbench_tellers  |            49152
 2017-02-05 06:06:14.922549+01 | 1486271174.92255 | pgbench_history  |                0
 2017-02-05 06:06:14.922549+01 | 1486271174.92255 | pgbench_branches |             8192

 2017-02-05 06:06:16.012836+01 | 1486271176.01284 | pgbench_accounts |       1391968256
 2017-02-05 06:06:16.012836+01 | 1486271176.01284 | pgbench_tellers  |            49152
 2017-02-05 06:06:16.012836+01 | 1486271176.01284 | pgbench_history  |                0
 2017-02-05 06:06:16.012836+01 | 1486271176.01284 | pgbench_branches |             8192

 2017-02-05 06:06:17.093704+01 | 1486271177.0937 | pgbench_accounts |       1391968256
 2017-02-05 06:06:17.093704+01 | 1486271177.0937 | pgbench_tellers  |            49152
 2017-02-05 06:06:17.093704+01 | 1486271177.0937 | pgbench_history  |                0
 2017-02-05 06:06:17.093704+01 | 1486271177.0937 | pgbench_branches |             8192

 2017-02-05 06:06:18.166552+01 | 1486271178.16655 | pgbench_accounts |       1391968256
 2017-02-05 06:06:18.166552+01 | 1486271178.16655 | pgbench_tellers  |            49152
 2017-02-05 06:06:18.166552+01 | 1486271178.16655 | pgbench_history  |                0
 2017-02-05 06:06:18.166552+01 | 1486271178.16655 | pgbench_branches |             8192

 2017-02-05 06:06:19.23882+01 | 1486271179.23882 | pgbench_accounts |       1391968256
 2017-02-05 06:06:19.23882+01 | 1486271179.23882 | pgbench_tellers  |            49152
 2017-02-05 06:06:19.23882+01 | 1486271179.23882 | pgbench_history  |                0
 2017-02-05 06:06:19.23882+01 | 1486271179.23882 | pgbench_branches |             8192

 2017-02-05 06:06:20.313456+01 | 1486271180.31346 | pgbench_accounts |       1391968256
 2017-02-05 06:06:20.313456+01 | 1486271180.31346 | pgbench_tellers  |            49152
 2017-02-05 06:06:20.313456+01 | 1486271180.31346 | pgbench_history  |                0
 2017-02-05 06:06:20.313456+01 | 1486271180.31346 | pgbench_branches |             8192

 2017-02-05 06:06:21.389137+01 | 1486271181.38914 | pgbench_accounts |       1391968256
 2017-02-05 06:06:21.389137+01 | 1486271181.38914 | pgbench_tellers  |            49152
 2017-02-05 06:06:21.389137+01 | 1486271181.38914 | pgbench_history  |                0
 2017-02-05 06:06:21.389137+01 | 1486271181.38914 | pgbench_branches |             8192

 2017-02-05 06:06:22.465271+01 | 1486271182.46527 | pgbench_accounts |       1391968256
 2017-02-05 06:06:22.465271+01 | 1486271182.46527 | pgbench_tellers  |            49152
 2017-02-05 06:06:22.465271+01 | 1486271182.46527 | pgbench_history  |                0
 2017-02-05 06:06:22.465271+01 | 1486271182.46527 | pgbench_branches |             8192

 2017-02-05 06:06:23.542522+01 | 1486271183.54252 | pgbench_accounts |       1391968256
 2017-02-05 06:06:23.542522+01 | 1486271183.54252 | pgbench_tellers  |            49152
 2017-02-05 06:06:23.542522+01 | 1486271183.54252 | pgbench_history  |                0
 2017-02-05 06:06:23.542522+01 | 1486271183.54252 | pgbench_branches |             8192

 2017-02-05 06:06:24.615566+01 | 1486271184.61557 | pgbench_accounts |       1391968256
 2017-02-05 06:06:24.615566+01 | 1486271184.61557 | pgbench_tellers  |            49152
 2017-02-05 06:06:24.615566+01 | 1486271184.61557 | pgbench_history  |                0
 2017-02-05 06:06:24.615566+01 | 1486271184.61557 | pgbench_branches |             8192

 2017-02-05 06:06:25.699007+01 | 1486271185.69901 | pgbench_accounts |       1391968256
 2017-02-05 06:06:25.699007+01 | 1486271185.69901 | pgbench_tellers  |            49152
 2017-02-05 06:06:25.699007+01 | 1486271185.69901 | pgbench_history  |                0
 2017-02-05 06:06:25.699007+01 | 1486271185.69901 | pgbench_branches |             8192

 2017-02-05 06:06:26.771407+01 | 1486271186.77141 | pgbench_accounts |       1391968256
 2017-02-05 06:06:26.771407+01 | 1486271186.77141 | pgbench_tellers  |            49152
 2017-02-05 06:06:26.771407+01 | 1486271186.77141 | pgbench_history  |                0
 2017-02-05 06:06:26.771407+01 | 1486271186.77141 | pgbench_branches |             8192

 2017-02-05 06:06:27.846447+01 | 1486271187.84645 | pgbench_accounts |       1391968256
 2017-02-05 06:06:27.846447+01 | 1486271187.84645 | pgbench_tellers  |            49152
 2017-02-05 06:06:27.846447+01 | 1486271187.84645 | pgbench_history  |                0
 2017-02-05 06:06:27.846447+01 | 1486271187.84645 | pgbench_branches |             8192

 2017-02-05 06:06:28.920411+01 | 1486271188.92041 | pgbench_accounts |       1391968256
 2017-02-05 06:06:28.920411+01 | 1486271188.92041 | pgbench_tellers  |            49152
 2017-02-05 06:06:28.920411+01 | 1486271188.92041 | pgbench_history  |                0
 2017-02-05 06:06:28.920411+01 | 1486271188.92041 | pgbench_branches |             8192

 2017-02-05 06:06:29.994767+01 | 1486271189.99477 | pgbench_accounts |       1391968256
 2017-02-05 06:06:29.994767+01 | 1486271189.99477 | pgbench_tellers  |            49152
 2017-02-05 06:06:29.994767+01 | 1486271189.99477 | pgbench_history  |                0
 2017-02-05 06:06:29.994767+01 | 1486271189.99477 | pgbench_branches |             8192

 2017-02-05 06:06:31.069183+01 | 1486271191.06918 | pgbench_accounts |       1391968256
 2017-02-05 06:06:31.069183+01 | 1486271191.06918 | pgbench_tellers  |            49152
 2017-02-05 06:06:31.069183+01 | 1486271191.06918 | pgbench_history  |                0
 2017-02-05 06:06:31.069183+01 | 1486271191.06918 | pgbench_branches |             8192

 2017-02-05 06:06:32.143412+01 | 1486271192.14341 | pgbench_accounts |       1391968256
 2017-02-05 06:06:32.143412+01 | 1486271192.14341 | pgbench_tellers  |            49152
 2017-02-05 06:06:32.143412+01 | 1486271192.14341 | pgbench_history  |                0
 2017-02-05 06:06:32.143412+01 | 1486271192.14341 | pgbench_branches |             8192

 2017-02-05 06:06:33.211295+01 | 1486271193.21129 | pgbench_accounts |       1391968256
 2017-02-05 06:06:33.211295+01 | 1486271193.21129 | pgbench_tellers  |            49152
 2017-02-05 06:06:33.211295+01 | 1486271193.21129 | pgbench_history  |                0
 2017-02-05 06:06:33.211295+01 | 1486271193.21129 | pgbench_branches |             8192

 2017-02-05 06:06:34.283491+01 | 1486271194.28349 | pgbench_accounts |       1391968256
 2017-02-05 06:06:34.283491+01 | 1486271194.28349 | pgbench_tellers  |            49152
 2017-02-05 06:06:34.283491+01 | 1486271194.28349 | pgbench_history  |                0
 2017-02-05 06:06:34.283491+01 | 1486271194.28349 | pgbench_branches |             8192

 2017-02-05 06:06:35.356044+01 | 1486271195.35604 | pgbench_accounts |       1391968256
 2017-02-05 06:06:35.356044+01 | 1486271195.35604 | pgbench_tellers  |            49152
 2017-02-05 06:06:35.356044+01 | 1486271195.35604 | pgbench_history  |                0
 2017-02-05 06:06:35.356044+01 | 1486271195.35604 | pgbench_branches |             8192

 2017-02-05 06:06:36.434731+01 | 1486271196.43473 | pgbench_accounts |       1391968256
 2017-02-05 06:06:36.434731+01 | 1486271196.43473 | pgbench_tellers  |            49152
 2017-02-05 06:06:36.434731+01 | 1486271196.43473 | pgbench_history  |                0
 2017-02-05 06:06:36.434731+01 | 1486271196.43473 | pgbench_branches |             8192

 2017-02-05 06:06:37.50848+01 | 1486271197.50848 | pgbench_accounts |       1391968256
 2017-02-05 06:06:37.50848+01 | 1486271197.50848 | pgbench_tellers  |            49152
 2017-02-05 06:06:37.50848+01 | 1486271197.50848 | pgbench_history  |                0
 2017-02-05 06:06:37.50848+01 | 1486271197.50848 | pgbench_branches |             8192

 2017-02-05 06:06:38.584391+01 | 1486271198.58439 | pgbench_accounts |       1391968256
 2017-02-05 06:06:38.584391+01 | 1486271198.58439 | pgbench_tellers  |            49152
 2017-02-05 06:06:38.584391+01 | 1486271198.58439 | pgbench_history  |                0
 2017-02-05 06:06:38.584391+01 | 1486271198.58439 | pgbench_branches |             8192

 2017-02-05 06:06:39.667805+01 | 1486271199.6678 | pgbench_accounts |       1391968256
 2017-02-05 06:06:39.667805+01 | 1486271199.6678 | pgbench_tellers  |            49152
 2017-02-05 06:06:39.667805+01 | 1486271199.6678 | pgbench_history  |                0
 2017-02-05 06:06:39.667805+01 | 1486271199.6678 | pgbench_branches |             8192

 2017-02-05 06:06:40.745137+01 | 1486271200.74514 | pgbench_accounts |       1391968256
 2017-02-05 06:06:40.745137+01 | 1486271200.74514 | pgbench_tellers  |            49152
 2017-02-05 06:06:40.745137+01 | 1486271200.74514 | pgbench_history  |                0
 2017-02-05 06:06:40.745137+01 | 1486271200.74514 | pgbench_branches |             8192

 2017-02-05 06:06:41.820444+01 | 1486271201.82044 | pgbench_accounts |       1391968256
 2017-02-05 06:06:41.820444+01 | 1486271201.82044 | pgbench_tellers  |            49152
 2017-02-05 06:06:41.820444+01 | 1486271201.82044 | pgbench_history  |                0
 2017-02-05 06:06:41.820444+01 | 1486271201.82044 | pgbench_branches |             8192

 2017-02-05 06:06:42.895475+01 | 1486271202.89547 | pgbench_accounts |       1391968256
 2017-02-05 06:06:42.895475+01 | 1486271202.89547 | pgbench_tellers  |            49152
 2017-02-05 06:06:42.895475+01 | 1486271202.89547 | pgbench_history  |                0
 2017-02-05 06:06:42.895475+01 | 1486271202.89547 | pgbench_branches |             8192

 2017-02-05 06:06:43.974183+01 | 1486271203.97418 | pgbench_accounts |       1391968256
 2017-02-05 06:06:43.974183+01 | 1486271203.97418 | pgbench_tellers  |            49152
 2017-02-05 06:06:43.974183+01 | 1486271203.97418 | pgbench_history  |                0
 2017-02-05 06:06:43.974183+01 | 1486271203.97418 | pgbench_branches |             8192

 2017-02-05 06:06:45.046196+01 | 1486271205.0462 | pgbench_accounts |       1391968256
 2017-02-05 06:06:45.046196+01 | 1486271205.0462 | pgbench_tellers  |            49152
 2017-02-05 06:06:45.046196+01 | 1486271205.0462 | pgbench_history  |                0
 2017-02-05 06:06:45.046196+01 | 1486271205.0462 | pgbench_branches |             8192

 2017-02-05 06:06:46.114035+01 | 1486271206.11403 | pgbench_accounts |       1391968256
 2017-02-05 06:06:46.114035+01 | 1486271206.11403 | pgbench_tellers  |            49152
 2017-02-05 06:06:46.114035+01 | 1486271206.11403 | pgbench_history  |                0
 2017-02-05 06:06:46.114035+01 | 1486271206.11403 | pgbench_branches |             8192

 2017-02-05 06:06:47.202147+01 | 1486271207.20215 | pgbench_accounts |       1391968256
 2017-02-05 06:06:47.202147+01 | 1486271207.20215 | pgbench_tellers  |            49152
 2017-02-05 06:06:47.202147+01 | 1486271207.20215 | pgbench_history  |                0
 2017-02-05 06:06:47.202147+01 | 1486271207.20215 | pgbench_branches |             8192

 2017-02-05 06:06:48.273528+01 | 1486271208.27353 | pgbench_accounts |       1391968256
 2017-02-05 06:06:48.273528+01 | 1486271208.27353 | pgbench_tellers  |            49152
 2017-02-05 06:06:48.273528+01 | 1486271208.27353 | pgbench_history  |                0
 2017-02-05 06:06:48.273528+01 | 1486271208.27353 | pgbench_branches |             8192

 2017-02-05 06:06:49.353366+01 | 1486271209.35337 | pgbench_accounts |       1391968256
 2017-02-05 06:06:49.353366+01 | 1486271209.35337 | pgbench_tellers  |            49152
 2017-02-05 06:06:49.353366+01 | 1486271209.35337 | pgbench_history  |                0
 2017-02-05 06:06:49.353366+01 | 1486271209.35337 | pgbench_branches |             8192

 2017-02-05 06:06:50.434418+01 | 1486271210.43442 | pgbench_accounts |       1391968256
 2017-02-05 06:06:50.434418+01 | 1486271210.43442 | pgbench_tellers  |            49152
 2017-02-05 06:06:50.434418+01 | 1486271210.43442 | pgbench_history  |                0
 2017-02-05 06:06:50.434418+01 | 1486271210.43442 | pgbench_branches |             8192

 2017-02-05 06:06:51.511484+01 | 1486271211.51148 | pgbench_accounts |       1391968256
 2017-02-05 06:06:51.511484+01 | 1486271211.51148 | pgbench_tellers  |            49152
 2017-02-05 06:06:51.511484+01 | 1486271211.51148 | pgbench_history  |                0
 2017-02-05 06:06:51.511484+01 | 1486271211.51148 | pgbench_branches |             8192

 2017-02-05 06:06:52.590777+01 | 1486271212.59078 | pgbench_accounts |       1391968256
 2017-02-05 06:06:52.590777+01 | 1486271212.59078 | pgbench_tellers  |            49152
 2017-02-05 06:06:52.590777+01 | 1486271212.59078 | pgbench_history  |                0
 2017-02-05 06:06:52.590777+01 | 1486271212.59078 | pgbench_branches |             8192

 2017-02-05 06:06:53.663645+01 | 1486271213.66365 | pgbench_accounts |       1391968256
 2017-02-05 06:06:53.663645+01 | 1486271213.66365 | pgbench_tellers  |            49152
 2017-02-05 06:06:53.663645+01 | 1486271213.66365 | pgbench_history  |                0
 2017-02-05 06:06:53.663645+01 | 1486271213.66365 | pgbench_branches |             8192

 2017-02-05 06:06:54.751391+01 | 1486271214.75139 | pgbench_accounts |       1391968256
 2017-02-05 06:06:54.751391+01 | 1486271214.75139 | pgbench_tellers  |            49152
 2017-02-05 06:06:54.751391+01 | 1486271214.75139 | pgbench_history  |                0
 2017-02-05 06:06:54.751391+01 | 1486271214.75139 | pgbench_branches |             8192

 2017-02-05 06:06:55.83138+01 | 1486271215.83138 | pgbench_accounts |       1391968256
 2017-02-05 06:06:55.83138+01 | 1486271215.83138 | pgbench_tellers  |            49152
 2017-02-05 06:06:55.83138+01 | 1486271215.83138 | pgbench_history  |                0
 2017-02-05 06:06:55.83138+01 | 1486271215.83138 | pgbench_branches |             8192

 2017-02-05 06:06:56.90266+01 | 1486271216.90266 | pgbench_accounts |       1391968256
 2017-02-05 06:06:56.90266+01 | 1486271216.90266 | pgbench_tellers  |            49152
 2017-02-05 06:06:56.90266+01 | 1486271216.90266 | pgbench_history  |                0
 2017-02-05 06:06:56.90266+01 | 1486271216.90266 | pgbench_branches |             8192

 2017-02-05 06:06:57.981579+01 | 1486271217.98158 | pgbench_accounts |       1391968256
 2017-02-05 06:06:57.981579+01 | 1486271217.98158 | pgbench_tellers  |            49152
 2017-02-05 06:06:57.981579+01 | 1486271217.98158 | pgbench_history  |                0
 2017-02-05 06:06:57.981579+01 | 1486271217.98158 | pgbench_branches |             8192

 2017-02-05 06:06:59.065139+01 | 1486271219.06514 | pgbench_accounts |       1391968256
 2017-02-05 06:06:59.065139+01 | 1486271219.06514 | pgbench_tellers  |            49152
 2017-02-05 06:06:59.065139+01 | 1486271219.06514 | pgbench_history  |                0
 2017-02-05 06:06:59.065139+01 | 1486271219.06514 | pgbench_branches |             8192

 2017-02-05 06:07:00.142703+01 | 1486271220.1427 | pgbench_accounts |       1391968256
 2017-02-05 06:07:00.142703+01 | 1486271220.1427 | pgbench_tellers  |            49152
 2017-02-05 06:07:00.142703+01 | 1486271220.1427 | pgbench_history  |                0
 2017-02-05 06:07:00.142703+01 | 1486271220.1427 | pgbench_branches |             8192

 2017-02-05 06:07:01.218109+01 | 1486271221.21811 | pgbench_accounts |       1391968256
 2017-02-05 06:07:01.218109+01 | 1486271221.21811 | pgbench_tellers  |            49152
 2017-02-05 06:07:01.218109+01 | 1486271221.21811 | pgbench_history  |                0
 2017-02-05 06:07:01.218109+01 | 1486271221.21811 | pgbench_branches |             8192

 2017-02-05 06:07:02.292747+01 | 1486271222.29275 | pgbench_accounts |       1391968256
 2017-02-05 06:07:02.292747+01 | 1486271222.29275 | pgbench_tellers  |            49152
 2017-02-05 06:07:02.292747+01 | 1486271222.29275 | pgbench_history  |                0
 2017-02-05 06:07:02.292747+01 | 1486271222.29275 | pgbench_branches |             8192

 2017-02-05 06:07:03.366284+01 | 1486271223.36628 | pgbench_accounts |       1391968256
 2017-02-05 06:07:03.366284+01 | 1486271223.36628 | pgbench_tellers  |            49152
 2017-02-05 06:07:03.366284+01 | 1486271223.36628 | pgbench_history  |                0
 2017-02-05 06:07:03.366284+01 | 1486271223.36628 | pgbench_branches |             8192

 2017-02-05 06:07:04.449349+01 | 1486271224.44935 | pgbench_accounts |       1391968256
 2017-02-05 06:07:04.449349+01 | 1486271224.44935 | pgbench_tellers  |            49152
 2017-02-05 06:07:04.449349+01 | 1486271224.44935 | pgbench_history  |                0
 2017-02-05 06:07:04.449349+01 | 1486271224.44935 | pgbench_branches |             8192

 2017-02-05 06:07:05.523201+01 | 1486271225.5232 | pgbench_accounts |       1391968256
 2017-02-05 06:07:05.523201+01 | 1486271225.5232 | pgbench_tellers  |            49152
 2017-02-05 06:07:05.523201+01 | 1486271225.5232 | pgbench_history  |                0
 2017-02-05 06:07:05.523201+01 | 1486271225.5232 | pgbench_branches |             8192

 2017-02-05 06:07:06.603161+01 | 1486271226.60316 | pgbench_accounts |       1391968256
 2017-02-05 06:07:06.603161+01 | 1486271226.60316 | pgbench_tellers  |            49152
 2017-02-05 06:07:06.603161+01 | 1486271226.60316 | pgbench_history  |                0
 2017-02-05 06:07:06.603161+01 | 1486271226.60316 | pgbench_branches |             8192

 2017-02-05 06:07:07.68298+01 | 1486271227.68298 | pgbench_accounts |       1391968256
 2017-02-05 06:07:07.68298+01 | 1486271227.68298 | pgbench_tellers  |            49152
 2017-02-05 06:07:07.68298+01 | 1486271227.68298 | pgbench_history  |                0
 2017-02-05 06:07:07.68298+01 | 1486271227.68298 | pgbench_branches |             8192

 2017-02-05 06:07:08.760284+01 | 1486271228.76028 | pgbench_accounts |       1391968256
 2017-02-05 06:07:08.760284+01 | 1486271228.76028 | pgbench_tellers  |            49152
 2017-02-05 06:07:08.760284+01 | 1486271228.76028 | pgbench_history  |                0
 2017-02-05 06:07:08.760284+01 | 1486271228.76028 | pgbench_branches |             8192

 2017-02-05 06:07:09.846643+01 | 1486271229.84664 | pgbench_accounts |       1391968256
 2017-02-05 06:07:09.846643+01 | 1486271229.84664 | pgbench_tellers  |            49152
 2017-02-05 06:07:09.846643+01 | 1486271229.84664 | pgbench_history  |                0
 2017-02-05 06:07:09.846643+01 | 1486271229.84664 | pgbench_branches |             8192

 2017-02-05 06:07:10.926219+01 | 1486271230.92622 | pgbench_accounts |       1391968256
 2017-02-05 06:07:10.926219+01 | 1486271230.92622 | pgbench_tellers  |            49152
 2017-02-05 06:07:10.926219+01 | 1486271230.92622 | pgbench_history  |                0
 2017-02-05 06:07:10.926219+01 | 1486271230.92622 | pgbench_branches |             8192

 2017-02-05 06:07:12.000386+01 | 1486271232.00039 | pgbench_accounts |       1391968256
 2017-02-05 06:07:12.000386+01 | 1486271232.00039 | pgbench_tellers  |            49152
 2017-02-05 06:07:12.000386+01 | 1486271232.00039 | pgbench_history  |                0
 2017-02-05 06:07:12.000386+01 | 1486271232.00039 | pgbench_branches |             8192

 2017-02-05 06:07:13.078651+01 | 1486271233.07865 | pgbench_accounts |       1391968256
 2017-02-05 06:07:13.078651+01 | 1486271233.07865 | pgbench_tellers  |            49152
 2017-02-05 06:07:13.078651+01 | 1486271233.07865 | pgbench_history  |                0
 2017-02-05 06:07:13.078651+01 | 1486271233.07865 | pgbench_branches |             8192

 2017-02-05 06:07:14.158976+01 | 1486271234.15898 | pgbench_accounts |       1391968256
 2017-02-05 06:07:14.158976+01 | 1486271234.15898 | pgbench_tellers  |            49152
 2017-02-05 06:07:14.158976+01 | 1486271234.15898 | pgbench_history  |                0
 2017-02-05 06:07:14.158976+01 | 1486271234.15898 | pgbench_branches |             8192

 2017-02-05 06:07:15.2425+01 | 1486271235.2425 | pgbench_accounts |       1391968256
 2017-02-05 06:07:15.2425+01 | 1486271235.2425 | pgbench_tellers  |            49152
 2017-02-05 06:07:15.2425+01 | 1486271235.2425 | pgbench_history  |                0
 2017-02-05 06:07:15.2425+01 | 1486271235.2425 | pgbench_branches |             8192

 2017-02-05 06:07:16.33143+01 | 1486271236.33143 | pgbench_accounts |       1391968256
 2017-02-05 06:07:16.33143+01 | 1486271236.33143 | pgbench_tellers  |            49152
 2017-02-05 06:07:16.33143+01 | 1486271236.33143 | pgbench_history  |                0
 2017-02-05 06:07:16.33143+01 | 1486271236.33143 | pgbench_branches |             8192

 2017-02-05 06:07:17.415698+01 | 1486271237.4157 | pgbench_accounts |       1391968256
 2017-02-05 06:07:17.415698+01 | 1486271237.4157 | pgbench_tellers  |            49152
 2017-02-05 06:07:17.415698+01 | 1486271237.4157 | pgbench_history  |                0
 2017-02-05 06:07:17.415698+01 | 1486271237.4157 | pgbench_branches |             8192

 2017-02-05 06:07:18.493985+01 | 1486271238.49398 | pgbench_accounts |       1391968256
 2017-02-05 06:07:18.493985+01 | 1486271238.49398 | pgbench_tellers  |            49152
 2017-02-05 06:07:18.493985+01 | 1486271238.49398 | pgbench_history  |                0
 2017-02-05 06:07:18.493985+01 | 1486271238.49398 | pgbench_branches |             8192

 2017-02-05 06:07:19.563455+01 | 1486271239.56346 | pgbench_accounts |       1391968256
 2017-02-05 06:07:19.563455+01 | 1486271239.56346 | pgbench_tellers  |            49152
 2017-02-05 06:07:19.563455+01 | 1486271239.56346 | pgbench_history  |                0
 2017-02-05 06:07:19.563455+01 | 1486271239.56346 | pgbench_branches |             8192

 2017-02-05 06:07:20.635776+01 | 1486271240.63578 | pgbench_accounts |       1391968256
 2017-02-05 06:07:20.635776+01 | 1486271240.63578 | pgbench_tellers  |            49152
 2017-02-05 06:07:20.635776+01 | 1486271240.63578 | pgbench_history  |                0
 2017-02-05 06:07:20.635776+01 | 1486271240.63578 | pgbench_branches |             8192

 2017-02-05 06:07:21.704949+01 | 1486271241.70495 | pgbench_accounts |       1391968256
 2017-02-05 06:07:21.704949+01 | 1486271241.70495 | pgbench_tellers  |            49152
 2017-02-05 06:07:21.704949+01 | 1486271241.70495 | pgbench_history  |                0
 2017-02-05 06:07:21.704949+01 | 1486271241.70495 | pgbench_branches |             8192

 2017-02-05 06:07:22.784438+01 | 1486271242.78444 | pgbench_accounts |       1391968256
 2017-02-05 06:07:22.784438+01 | 1486271242.78444 | pgbench_tellers  |            49152
 2017-02-05 06:07:22.784438+01 | 1486271242.78444 | pgbench_history  |                0
 2017-02-05 06:07:22.784438+01 | 1486271242.78444 | pgbench_branches |             8192

 2017-02-05 06:07:23.867323+01 | 1486271243.86732 | pgbench_accounts |       1391968256
 2017-02-05 06:07:23.867323+01 | 1486271243.86732 | pgbench_tellers  |            49152
 2017-02-05 06:07:23.867323+01 | 1486271243.86732 | pgbench_history  |                0
 2017-02-05 06:07:23.867323+01 | 1486271243.86732 | pgbench_branches |             8192

 2017-02-05 06:07:24.937588+01 | 1486271244.93759 | pgbench_accounts |       1391968256
 2017-02-05 06:07:24.937588+01 | 1486271244.93759 | pgbench_tellers  |            49152
 2017-02-05 06:07:24.937588+01 | 1486271244.93759 | pgbench_history  |                0
 2017-02-05 06:07:24.937588+01 | 1486271244.93759 | pgbench_branches |             8192

 2017-02-05 06:07:26.003747+01 | 1486271246.00375 | pgbench_accounts |       1391968256
 2017-02-05 06:07:26.003747+01 | 1486271246.00375 | pgbench_tellers  |            49152
 2017-02-05 06:07:26.003747+01 | 1486271246.00375 | pgbench_history  |                0
 2017-02-05 06:07:26.003747+01 | 1486271246.00375 | pgbench_branches |             8192

 2017-02-05 06:07:27.084049+01 | 1486271247.08405 | pgbench_accounts |       1391968256
 2017-02-05 06:07:27.084049+01 | 1486271247.08405 | pgbench_tellers  |            49152
 2017-02-05 06:07:27.084049+01 | 1486271247.08405 | pgbench_history  |                0
 2017-02-05 06:07:27.084049+01 | 1486271247.08405 | pgbench_branches |             8192

 2017-02-05 06:07:28.16613+01 | 1486271248.16613 | pgbench_accounts |       1391968256
 2017-02-05 06:07:28.16613+01 | 1486271248.16613 | pgbench_tellers  |            49152
 2017-02-05 06:07:28.16613+01 | 1486271248.16613 | pgbench_history  |                0
 2017-02-05 06:07:28.16613+01 | 1486271248.16613 | pgbench_branches |             8192

 2017-02-05 06:07:29.246665+01 | 1486271249.24667 | pgbench_accounts |       1391968256
 2017-02-05 06:07:29.246665+01 | 1486271249.24667 | pgbench_tellers  |            49152
 2017-02-05 06:07:29.246665+01 | 1486271249.24667 | pgbench_history  |                0
 2017-02-05 06:07:29.246665+01 | 1486271249.24667 | pgbench_branches |             8192

 2017-02-05 06:07:30.31943+01 | 1486271250.31943 | pgbench_accounts |       1391968256
 2017-02-05 06:07:30.31943+01 | 1486271250.31943 | pgbench_tellers  |            49152
 2017-02-05 06:07:30.31943+01 | 1486271250.31943 | pgbench_history  |                0
 2017-02-05 06:07:30.31943+01 | 1486271250.31943 | pgbench_branches |             8192

 2017-02-05 06:07:31.403199+01 | 1486271251.4032 | pgbench_accounts |       1391968256
 2017-02-05 06:07:31.403199+01 | 1486271251.4032 | pgbench_tellers  |            49152
 2017-02-05 06:07:31.403199+01 | 1486271251.4032 | pgbench_history  |                0
 2017-02-05 06:07:31.403199+01 | 1486271251.4032 | pgbench_branches |             8192

 2017-02-05 06:07:32.4896+01 | 1486271252.4896 | pgbench_accounts |       1391968256
 2017-02-05 06:07:32.4896+01 | 1486271252.4896 | pgbench_tellers  |            49152
 2017-02-05 06:07:32.4896+01 | 1486271252.4896 | pgbench_history  |                0
 2017-02-05 06:07:32.4896+01 | 1486271252.4896 | pgbench_branches |             8192

 2017-02-05 06:07:33.565328+01 | 1486271253.56533 | pgbench_accounts |       1391968256
 2017-02-05 06:07:33.565328+01 | 1486271253.56533 | pgbench_tellers  |            49152
 2017-02-05 06:07:33.565328+01 | 1486271253.56533 | pgbench_history  |                0
 2017-02-05 06:07:33.565328+01 | 1486271253.56533 | pgbench_branches |             8192

 2017-02-05 06:07:34.63918+01 | 1486271254.63918 | pgbench_accounts |       1391968256
 2017-02-05 06:07:34.63918+01 | 1486271254.63918 | pgbench_tellers  |            49152
 2017-02-05 06:07:34.63918+01 | 1486271254.63918 | pgbench_history  |                0
 2017-02-05 06:07:34.63918+01 | 1486271254.63918 | pgbench_branches |             8192

 2017-02-05 06:07:35.712513+01 | 1486271255.71251 | pgbench_accounts |       1391968256
 2017-02-05 06:07:35.712513+01 | 1486271255.71251 | pgbench_tellers  |            49152
 2017-02-05 06:07:35.712513+01 | 1486271255.71251 | pgbench_history  |                0
 2017-02-05 06:07:35.712513+01 | 1486271255.71251 | pgbench_branches |             8192

 2017-02-05 06:07:36.784168+01 | 1486271256.78417 | pgbench_accounts |       1391968256
 2017-02-05 06:07:36.784168+01 | 1486271256.78417 | pgbench_tellers  |            49152
 2017-02-05 06:07:36.784168+01 | 1486271256.78417 | pgbench_history  |                0
 2017-02-05 06:07:36.784168+01 | 1486271256.78417 | pgbench_branches |             8192

 2017-02-05 06:07:37.856398+01 | 1486271257.8564 | pgbench_accounts |       1391968256
 2017-02-05 06:07:37.856398+01 | 1486271257.8564 | pgbench_tellers  |            49152
 2017-02-05 06:07:37.856398+01 | 1486271257.8564 | pgbench_history  |                0
 2017-02-05 06:07:37.856398+01 | 1486271257.8564 | pgbench_branches |             8192

 2017-02-05 06:07:38.928209+01 | 1486271258.92821 | pgbench_accounts |       1391968256
 2017-02-05 06:07:38.928209+01 | 1486271258.92821 | pgbench_tellers  |            49152
 2017-02-05 06:07:38.928209+01 | 1486271258.92821 | pgbench_history  |                0
 2017-02-05 06:07:38.928209+01 | 1486271258.92821 | pgbench_branches |             8192

 2017-02-05 06:07:40.005076+01 | 1486271260.00508 | pgbench_accounts |       1391968256
 2017-02-05 06:07:40.005076+01 | 1486271260.00508 | pgbench_tellers  |            49152
 2017-02-05 06:07:40.005076+01 | 1486271260.00508 | pgbench_history  |                0
 2017-02-05 06:07:40.005076+01 | 1486271260.00508 | pgbench_branches |             8192

 2017-02-05 06:07:41.085848+01 | 1486271261.08585 | pgbench_accounts |       1391968256
 2017-02-05 06:07:41.085848+01 | 1486271261.08585 | pgbench_tellers  |            49152
 2017-02-05 06:07:41.085848+01 | 1486271261.08585 | pgbench_history  |                0
 2017-02-05 06:07:41.085848+01 | 1486271261.08585 | pgbench_branches |             8192

 2017-02-05 06:07:42.163886+01 | 1486271262.16389 | pgbench_accounts |       1391968256
 2017-02-05 06:07:42.163886+01 | 1486271262.16389 | pgbench_tellers  |            49152
 2017-02-05 06:07:42.163886+01 | 1486271262.16389 | pgbench_history  |                0
 2017-02-05 06:07:42.163886+01 | 1486271262.16389 | pgbench_branches |             8192

 2017-02-05 06:07:43.229951+01 | 1486271263.22995 | pgbench_accounts |       1391968256
 2017-02-05 06:07:43.229951+01 | 1486271263.22995 | pgbench_tellers  |            49152
 2017-02-05 06:07:43.229951+01 | 1486271263.22995 | pgbench_history  |                0
 2017-02-05 06:07:43.229951+01 | 1486271263.22995 | pgbench_branches |             8192

 2017-02-05 06:07:44.299605+01 | 1486271264.2996 | pgbench_accounts |       1391968256
 2017-02-05 06:07:44.299605+01 | 1486271264.2996 | pgbench_tellers  |            49152
 2017-02-05 06:07:44.299605+01 | 1486271264.2996 | pgbench_history  |                0
 2017-02-05 06:07:44.299605+01 | 1486271264.2996 | pgbench_branches |             8192

 2017-02-05 06:07:45.37859+01 | 1486271265.37859 | pgbench_accounts |       1391968256
 2017-02-05 06:07:45.37859+01 | 1486271265.37859 | pgbench_tellers  |            49152
 2017-02-05 06:07:45.37859+01 | 1486271265.37859 | pgbench_history  |                0
 2017-02-05 06:07:45.37859+01 | 1486271265.37859 | pgbench_branches |             8192

 2017-02-05 06:07:46.446563+01 | 1486271266.44656 | pgbench_accounts |       1391968256
 2017-02-05 06:07:46.446563+01 | 1486271266.44656 | pgbench_tellers  |            49152
 2017-02-05 06:07:46.446563+01 | 1486271266.44656 | pgbench_history  |                0
 2017-02-05 06:07:46.446563+01 | 1486271266.44656 | pgbench_branches |             8192

 2017-02-05 06:07:47.523588+01 | 1486271267.52359 | pgbench_accounts |       1391968256
 2017-02-05 06:07:47.523588+01 | 1486271267.52359 | pgbench_tellers  |            49152
 2017-02-05 06:07:47.523588+01 | 1486271267.52359 | pgbench_history  |                0
 2017-02-05 06:07:47.523588+01 | 1486271267.52359 | pgbench_branches |             8192

 2017-02-05 06:07:48.605881+01 | 1486271268.60588 | pgbench_accounts |       1391968256
 2017-02-05 06:07:48.605881+01 | 1486271268.60588 | pgbench_tellers  |            49152
 2017-02-05 06:07:48.605881+01 | 1486271268.60588 | pgbench_history  |                0
 2017-02-05 06:07:48.605881+01 | 1486271268.60588 | pgbench_branches |             8192

 2017-02-05 06:07:49.689093+01 | 1486271269.68909 | pgbench_accounts |       1391968256
 2017-02-05 06:07:49.689093+01 | 1486271269.68909 | pgbench_tellers  |            49152
 2017-02-05 06:07:49.689093+01 | 1486271269.68909 | pgbench_history  |                0
 2017-02-05 06:07:49.689093+01 | 1486271269.68909 | pgbench_branches |             8192

 2017-02-05 06:07:50.767393+01 | 1486271270.76739 | pgbench_accounts |       1391968256
 2017-02-05 06:07:50.767393+01 | 1486271270.76739 | pgbench_tellers  |            49152
 2017-02-05 06:07:50.767393+01 | 1486271270.76739 | pgbench_history  |                0
 2017-02-05 06:07:50.767393+01 | 1486271270.76739 | pgbench_branches |             8192

 2017-02-05 06:07:51.841015+01 | 1486271271.84102 | pgbench_accounts |       1391968256
 2017-02-05 06:07:51.841015+01 | 1486271271.84102 | pgbench_tellers  |            49152
 2017-02-05 06:07:51.841015+01 | 1486271271.84102 | pgbench_history  |                0
 2017-02-05 06:07:51.841015+01 | 1486271271.84102 | pgbench_branches |             8192

 2017-02-05 06:07:52.916271+01 | 1486271272.91627 | pgbench_accounts |       1391968256
 2017-02-05 06:07:52.916271+01 | 1486271272.91627 | pgbench_tellers  |            49152
 2017-02-05 06:07:52.916271+01 | 1486271272.91627 | pgbench_history  |                0
 2017-02-05 06:07:52.916271+01 | 1486271272.91627 | pgbench_branches |             8192

 2017-02-05 06:07:54.000518+01 | 1486271274.00052 | pgbench_accounts |       1391968256
 2017-02-05 06:07:54.000518+01 | 1486271274.00052 | pgbench_tellers  |            49152
 2017-02-05 06:07:54.000518+01 | 1486271274.00052 | pgbench_history  |                0
 2017-02-05 06:07:54.000518+01 | 1486271274.00052 | pgbench_branches |             8192

 2017-02-05 06:07:55.077695+01 | 1486271275.07769 | pgbench_accounts |       1391968256
 2017-02-05 06:07:55.077695+01 | 1486271275.07769 | pgbench_tellers  |            49152
 2017-02-05 06:07:55.077695+01 | 1486271275.07769 | pgbench_history  |                0
 2017-02-05 06:07:55.077695+01 | 1486271275.07769 | pgbench_branches |             8192

 2017-02-05 06:07:56.162295+01 | 1486271276.1623 | pgbench_accounts |       1391968256
 2017-02-05 06:07:56.162295+01 | 1486271276.1623 | pgbench_tellers  |            49152
 2017-02-05 06:07:56.162295+01 | 1486271276.1623 | pgbench_history  |                0
 2017-02-05 06:07:56.162295+01 | 1486271276.1623 | pgbench_branches |             8192

 2017-02-05 06:07:57.237981+01 | 1486271277.23798 | pgbench_accounts |       1391968256
 2017-02-05 06:07:57.237981+01 | 1486271277.23798 | pgbench_tellers  |            49152
 2017-02-05 06:07:57.237981+01 | 1486271277.23798 | pgbench_history  |                0
 2017-02-05 06:07:57.237981+01 | 1486271277.23798 | pgbench_branches |             8192

 2017-02-05 06:07:58.312107+01 | 1486271278.31211 | pgbench_accounts |       1391968256
 2017-02-05 06:07:58.312107+01 | 1486271278.31211 | pgbench_tellers  |            49152
 2017-02-05 06:07:58.312107+01 | 1486271278.31211 | pgbench_history  |                0
 2017-02-05 06:07:58.312107+01 | 1486271278.31211 | pgbench_branches |             8192

 2017-02-05 06:07:59.397857+01 | 1486271279.39786 | pgbench_accounts |       1391968256
 2017-02-05 06:07:59.397857+01 | 1486271279.39786 | pgbench_tellers  |            49152
 2017-02-05 06:07:59.397857+01 | 1486271279.39786 | pgbench_history  |                0
 2017-02-05 06:07:59.397857+01 | 1486271279.39786 | pgbench_branches |             8192

 2017-02-05 06:08:00.478599+01 | 1486271280.4786 | pgbench_accounts |       1391968256
 2017-02-05 06:08:00.478599+01 | 1486271280.4786 | pgbench_tellers  |            49152
 2017-02-05 06:08:00.478599+01 | 1486271280.4786 | pgbench_history  |                0
 2017-02-05 06:08:00.478599+01 | 1486271280.4786 | pgbench_branches |             8192

 2017-02-05 06:08:01.558156+01 | 1486271281.55816 | pgbench_accounts |       1391968256
 2017-02-05 06:08:01.558156+01 | 1486271281.55816 | pgbench_tellers  |            49152
 2017-02-05 06:08:01.558156+01 | 1486271281.55816 | pgbench_history  |                0
 2017-02-05 06:08:01.558156+01 | 1486271281.55816 | pgbench_branches |             8192

 2017-02-05 06:08:02.63631+01 | 1486271282.63631 | pgbench_accounts |       1391968256
 2017-02-05 06:08:02.63631+01 | 1486271282.63631 | pgbench_tellers  |            49152
 2017-02-05 06:08:02.63631+01 | 1486271282.63631 | pgbench_history  |                0
 2017-02-05 06:08:02.63631+01 | 1486271282.63631 | pgbench_branches |             8192

 2017-02-05 06:08:03.71655+01 | 1486271283.71655 | pgbench_accounts |       1391968256
 2017-02-05 06:08:03.71655+01 | 1486271283.71655 | pgbench_tellers  |            49152
 2017-02-05 06:08:03.71655+01 | 1486271283.71655 | pgbench_history  |                0
 2017-02-05 06:08:03.71655+01 | 1486271283.71655 | pgbench_branches |             8192

 2017-02-05 06:08:04.795759+01 | 1486271284.79576 | pgbench_accounts |       1391968256
 2017-02-05 06:08:04.795759+01 | 1486271284.79576 | pgbench_tellers  |            49152
 2017-02-05 06:08:04.795759+01 | 1486271284.79576 | pgbench_history  |                0
 2017-02-05 06:08:04.795759+01 | 1486271284.79576 | pgbench_branches |             8192

 2017-02-05 06:08:05.87623+01 | 1486271285.87623 | pgbench_accounts |       1391968256
 2017-02-05 06:08:05.87623+01 | 1486271285.87623 | pgbench_tellers  |            49152
 2017-02-05 06:08:05.87623+01 | 1486271285.87623 | pgbench_history  |                0
 2017-02-05 06:08:05.87623+01 | 1486271285.87623 | pgbench_branches |             8192

 2017-02-05 06:08:06.953079+01 | 1486271286.95308 | pgbench_accounts |       1391968256
 2017-02-05 06:08:06.953079+01 | 1486271286.95308 | pgbench_tellers  |            49152
 2017-02-05 06:08:06.953079+01 | 1486271286.95308 | pgbench_history  |                0
 2017-02-05 06:08:06.953079+01 | 1486271286.95308 | pgbench_branches |             8192

 2017-02-05 06:08:08.0387+01 | 1486271288.0387 | pgbench_accounts |       1391968256
 2017-02-05 06:08:08.0387+01 | 1486271288.0387 | pgbench_tellers  |            49152
 2017-02-05 06:08:08.0387+01 | 1486271288.0387 | pgbench_history  |                0
 2017-02-05 06:08:08.0387+01 | 1486271288.0387 | pgbench_branches |             8192

 2017-02-05 06:08:09.122882+01 | 1486271289.12288 | pgbench_accounts |       1391968256
 2017-02-05 06:08:09.122882+01 | 1486271289.12288 | pgbench_tellers  |            49152
 2017-02-05 06:08:09.122882+01 | 1486271289.12288 | pgbench_history  |                0
 2017-02-05 06:08:09.122882+01 | 1486271289.12288 | pgbench_branches |             8192

 2017-02-05 06:08:10.210402+01 | 1486271290.2104 | pgbench_accounts |       1391968256
 2017-02-05 06:08:10.210402+01 | 1486271290.2104 | pgbench_tellers  |            49152
 2017-02-05 06:08:10.210402+01 | 1486271290.2104 | pgbench_history  |                0
 2017-02-05 06:08:10.210402+01 | 1486271290.2104 | pgbench_branches |             8192

 2017-02-05 06:08:11.288906+01 | 1486271291.28891 | pgbench_accounts |       1391968256
 2017-02-05 06:08:11.288906+01 | 1486271291.28891 | pgbench_tellers  |            49152
 2017-02-05 06:08:11.288906+01 | 1486271291.28891 | pgbench_history  |                0
 2017-02-05 06:08:11.288906+01 | 1486271291.28891 | pgbench_branches |             8192

 2017-02-05 06:08:12.375253+01 | 1486271292.37525 | pgbench_accounts |       1391968256
 2017-02-05 06:08:12.375253+01 | 1486271292.37525 | pgbench_tellers  |            49152
 2017-02-05 06:08:12.375253+01 | 1486271292.37525 | pgbench_history  |                0
 2017-02-05 06:08:12.375253+01 | 1486271292.37525 | pgbench_branches |             8192

 2017-02-05 06:08:13.44849+01 | 1486271293.44849 | pgbench_accounts |       1391968256
 2017-02-05 06:08:13.44849+01 | 1486271293.44849 | pgbench_tellers  |            49152
 2017-02-05 06:08:13.44849+01 | 1486271293.44849 | pgbench_history  |                0
 2017-02-05 06:08:13.44849+01 | 1486271293.44849 | pgbench_branches |             8192

 2017-02-05 06:08:14.529135+01 | 1486271294.52913 | pgbench_accounts |       1391968256
 2017-02-05 06:08:14.529135+01 | 1486271294.52913 | pgbench_tellers  |            49152
 2017-02-05 06:08:14.529135+01 | 1486271294.52913 | pgbench_history  |                0
 2017-02-05 06:08:14.529135+01 | 1486271294.52913 | pgbench_branches |             8192

 2017-02-05 06:08:15.619365+01 | 1486271295.61936 | pgbench_accounts |       1391968256
 2017-02-05 06:08:15.619365+01 | 1486271295.61936 | pgbench_tellers  |            49152
 2017-02-05 06:08:15.619365+01 | 1486271295.61936 | pgbench_history  |                0
 2017-02-05 06:08:15.619365+01 | 1486271295.61936 | pgbench_branches |             8192

 2017-02-05 06:08:16.703309+01 | 1486271296.70331 | pgbench_accounts |       1391968256
 2017-02-05 06:08:16.703309+01 | 1486271296.70331 | pgbench_tellers  |            49152
 2017-02-05 06:08:16.703309+01 | 1486271296.70331 | pgbench_history  |                0
 2017-02-05 06:08:16.703309+01 | 1486271296.70331 | pgbench_branches |             8192

 2017-02-05 06:08:17.782777+01 | 1486271297.78278 | pgbench_accounts |       1391968256
 2017-02-05 06:08:17.782777+01 | 1486271297.78278 | pgbench_tellers  |            49152
 2017-02-05 06:08:17.782777+01 | 1486271297.78278 | pgbench_history  |                0
 2017-02-05 06:08:17.782777+01 | 1486271297.78278 | pgbench_branches |             8192

 2017-02-05 06:08:18.861084+01 | 1486271298.86108 | pgbench_accounts |       1391968256
 2017-02-05 06:08:18.861084+01 | 1486271298.86108 | pgbench_tellers  |            49152
 2017-02-05 06:08:18.861084+01 | 1486271298.86108 | pgbench_history  |                0
 2017-02-05 06:08:18.861084+01 | 1486271298.86108 | pgbench_branches |             8192

 2017-02-05 06:08:19.933325+01 | 1486271299.93333 | pgbench_accounts |       1391968256
 2017-02-05 06:08:19.933325+01 | 1486271299.93333 | pgbench_tellers  |            49152
 2017-02-05 06:08:19.933325+01 | 1486271299.93333 | pgbench_history  |                0
 2017-02-05 06:08:19.933325+01 | 1486271299.93333 | pgbench_branches |             8192

 2017-02-05 06:08:21.010738+01 | 1486271301.01074 | pgbench_accounts |       1391968256
 2017-02-05 06:08:21.010738+01 | 1486271301.01074 | pgbench_tellers  |            49152
 2017-02-05 06:08:21.010738+01 | 1486271301.01074 | pgbench_history  |                0
 2017-02-05 06:08:21.010738+01 | 1486271301.01074 | pgbench_branches |             8192

 2017-02-05 06:08:22.086046+01 | 1486271302.08605 | pgbench_accounts |       1391968256
 2017-02-05 06:08:22.086046+01 | 1486271302.08605 | pgbench_tellers  |            49152
 2017-02-05 06:08:22.086046+01 | 1486271302.08605 | pgbench_history  |                0
 2017-02-05 06:08:22.086046+01 | 1486271302.08605 | pgbench_branches |             8192

 2017-02-05 06:08:23.170947+01 | 1486271303.17095 | pgbench_accounts |       1391968256
 2017-02-05 06:08:23.170947+01 | 1486271303.17095 | pgbench_tellers  |            49152
 2017-02-05 06:08:23.170947+01 | 1486271303.17095 | pgbench_history  |                0
 2017-02-05 06:08:23.170947+01 | 1486271303.17095 | pgbench_branches |             8192

 2017-02-05 06:08:24.254568+01 | 1486271304.25457 | pgbench_accounts |       1391968256
 2017-02-05 06:08:24.254568+01 | 1486271304.25457 | pgbench_tellers  |            49152
 2017-02-05 06:08:24.254568+01 | 1486271304.25457 | pgbench_history  |                0
 2017-02-05 06:08:24.254568+01 | 1486271304.25457 | pgbench_branches |             8192

 2017-02-05 06:08:25.321312+01 | 1486271305.32131 | pgbench_accounts |       1391968256
 2017-02-05 06:08:25.321312+01 | 1486271305.32131 | pgbench_tellers  |            49152
 2017-02-05 06:08:25.321312+01 | 1486271305.32131 | pgbench_history  |                0
 2017-02-05 06:08:25.321312+01 | 1486271305.32131 | pgbench_branches |             8192

 2017-02-05 06:08:26.404028+01 | 1486271306.40403 | pgbench_accounts |       1391968256
 2017-02-05 06:08:26.404028+01 | 1486271306.40403 | pgbench_tellers  |            49152
 2017-02-05 06:08:26.404028+01 | 1486271306.40403 | pgbench_history  |                0
 2017-02-05 06:08:26.404028+01 | 1486271306.40403 | pgbench_branches |             8192

 2017-02-05 06:08:27.476441+01 | 1486271307.47644 | pgbench_accounts |       1391968256
 2017-02-05 06:08:27.476441+01 | 1486271307.47644 | pgbench_tellers  |            49152
 2017-02-05 06:08:27.476441+01 | 1486271307.47644 | pgbench_history  |                0
 2017-02-05 06:08:27.476441+01 | 1486271307.47644 | pgbench_branches |             8192

 2017-02-05 06:08:28.550205+01 | 1486271308.5502 | pgbench_accounts |       1391968256
 2017-02-05 06:08:28.550205+01 | 1486271308.5502 | pgbench_tellers  |            49152
 2017-02-05 06:08:28.550205+01 | 1486271308.5502 | pgbench_history  |                0
 2017-02-05 06:08:28.550205+01 | 1486271308.5502 | pgbench_branches |             8192

 2017-02-05 06:08:29.627773+01 | 1486271309.62777 | pgbench_accounts |       1391968256
 2017-02-05 06:08:29.627773+01 | 1486271309.62777 | pgbench_tellers  |            49152
 2017-02-05 06:08:29.627773+01 | 1486271309.62777 | pgbench_history  |                0
 2017-02-05 06:08:29.627773+01 | 1486271309.62777 | pgbench_branches |             8192

 2017-02-05 06:08:30.701423+01 | 1486271310.70142 | pgbench_accounts |       1391968256
 2017-02-05 06:08:30.701423+01 | 1486271310.70142 | pgbench_tellers  |            49152
 2017-02-05 06:08:30.701423+01 | 1486271310.70142 | pgbench_history  |                0
 2017-02-05 06:08:30.701423+01 | 1486271310.70142 | pgbench_branches |             8192

 2017-02-05 06:08:31.784236+01 | 1486271311.78424 | pgbench_accounts |       1391968256
 2017-02-05 06:08:31.784236+01 | 1486271311.78424 | pgbench_tellers  |            49152
 2017-02-05 06:08:31.784236+01 | 1486271311.78424 | pgbench_history  |                0
 2017-02-05 06:08:31.784236+01 | 1486271311.78424 | pgbench_branches |             8192

 2017-02-05 06:08:32.867346+01 | 1486271312.86735 | pgbench_accounts |       1391968256
 2017-02-05 06:08:32.867346+01 | 1486271312.86735 | pgbench_tellers  |            49152
 2017-02-05 06:08:32.867346+01 | 1486271312.86735 | pgbench_history  |                0
 2017-02-05 06:08:32.867346+01 | 1486271312.86735 | pgbench_branches |             8192

 2017-02-05 06:08:33.942913+01 | 1486271313.94291 | pgbench_accounts |       1391968256
 2017-02-05 06:08:33.942913+01 | 1486271313.94291 | pgbench_tellers  |            49152
 2017-02-05 06:08:33.942913+01 | 1486271313.94291 | pgbench_history  |                0
 2017-02-05 06:08:33.942913+01 | 1486271313.94291 | pgbench_branches |             8192

 2017-02-05 06:08:35.010391+01 | 1486271315.01039 | pgbench_accounts |       1391968256
 2017-02-05 06:08:35.010391+01 | 1486271315.01039 | pgbench_tellers  |            49152
 2017-02-05 06:08:35.010391+01 | 1486271315.01039 | pgbench_history  |                0
 2017-02-05 06:08:35.010391+01 | 1486271315.01039 | pgbench_branches |             8192

 2017-02-05 06:08:36.089992+01 | 1486271316.08999 | pgbench_accounts |       1391968256
 2017-02-05 06:08:36.089992+01 | 1486271316.08999 | pgbench_tellers  |            49152
 2017-02-05 06:08:36.089992+01 | 1486271316.08999 | pgbench_history  |                0
 2017-02-05 06:08:36.089992+01 | 1486271316.08999 | pgbench_branches |             8192

 2017-02-05 06:08:37.171873+01 | 1486271317.17187 | pgbench_accounts |       1391968256
 2017-02-05 06:08:37.171873+01 | 1486271317.17187 | pgbench_tellers  |            49152
 2017-02-05 06:08:37.171873+01 | 1486271317.17187 | pgbench_history  |                0
 2017-02-05 06:08:37.171873+01 | 1486271317.17187 | pgbench_branches |             8192

 2017-02-05 06:08:38.251082+01 | 1486271318.25108 | pgbench_accounts |       1391968256
 2017-02-05 06:08:38.251082+01 | 1486271318.25108 | pgbench_tellers  |            49152
 2017-02-05 06:08:38.251082+01 | 1486271318.25108 | pgbench_history  |                0
 2017-02-05 06:08:38.251082+01 | 1486271318.25108 | pgbench_branches |             8192

 2017-02-05 06:08:39.336427+01 | 1486271319.33643 | pgbench_accounts |       1391968256
 2017-02-05 06:08:39.336427+01 | 1486271319.33643 | pgbench_tellers  |            49152
 2017-02-05 06:08:39.336427+01 | 1486271319.33643 | pgbench_history  |                0
 2017-02-05 06:08:39.336427+01 | 1486271319.33643 | pgbench_branches |             8192

 2017-02-05 06:08:40.418344+01 | 1486271320.41834 | pgbench_accounts |       1391968256
 2017-02-05 06:08:40.418344+01 | 1486271320.41834 | pgbench_tellers  |            49152
 2017-02-05 06:08:40.418344+01 | 1486271320.41834 | pgbench_history  |                0
 2017-02-05 06:08:40.418344+01 | 1486271320.41834 | pgbench_branches |             8192

 2017-02-05 06:08:41.500522+01 | 1486271321.50052 | pgbench_accounts |       1391968256
 2017-02-05 06:08:41.500522+01 | 1486271321.50052 | pgbench_tellers  |            49152
 2017-02-05 06:08:41.500522+01 | 1486271321.50052 | pgbench_history  |                0
 2017-02-05 06:08:41.500522+01 | 1486271321.50052 | pgbench_branches |             8192

 2017-02-05 06:08:42.586375+01 | 1486271322.58637 | pgbench_accounts |       1391968256
 2017-02-05 06:08:42.586375+01 | 1486271322.58637 | pgbench_tellers  |            49152
 2017-02-05 06:08:42.586375+01 | 1486271322.58637 | pgbench_history  |                0
 2017-02-05 06:08:42.586375+01 | 1486271322.58637 | pgbench_branches |             8192

 2017-02-05 06:08:43.666138+01 | 1486271323.66614 | pgbench_accounts |       1391968256
 2017-02-05 06:08:43.666138+01 | 1486271323.66614 | pgbench_tellers  |            49152
 2017-02-05 06:08:43.666138+01 | 1486271323.66614 | pgbench_history  |                0
 2017-02-05 06:08:43.666138+01 | 1486271323.66614 | pgbench_branches |             8192

 2017-02-05 06:08:44.747764+01 | 1486271324.74776 | pgbench_accounts |       1391968256
 2017-02-05 06:08:44.747764+01 | 1486271324.74776 | pgbench_tellers  |            49152
 2017-02-05 06:08:44.747764+01 | 1486271324.74776 | pgbench_history  |                0
 2017-02-05 06:08:44.747764+01 | 1486271324.74776 | pgbench_branches |             8192

 2017-02-05 06:08:45.82955+01 | 1486271325.82955 | pgbench_accounts |       1391968256
 2017-02-05 06:08:45.82955+01 | 1486271325.82955 | pgbench_tellers  |            49152
 2017-02-05 06:08:45.82955+01 | 1486271325.82955 | pgbench_history  |                0
 2017-02-05 06:08:45.82955+01 | 1486271325.82955 | pgbench_branches |             8192

 2017-02-05 06:08:46.90852+01 | 1486271326.90852 | pgbench_accounts |       1391968256
 2017-02-05 06:08:46.90852+01 | 1486271326.90852 | pgbench_tellers  |            49152
 2017-02-05 06:08:46.90852+01 | 1486271326.90852 | pgbench_history  |                0
 2017-02-05 06:08:46.90852+01 | 1486271326.90852 | pgbench_branches |             8192

 2017-02-05 06:08:47.980916+01 | 1486271327.98092 | pgbench_accounts |       1391968256
 2017-02-05 06:08:47.980916+01 | 1486271327.98092 | pgbench_tellers  |            49152
 2017-02-05 06:08:47.980916+01 | 1486271327.98092 | pgbench_history  |                0
 2017-02-05 06:08:47.980916+01 | 1486271327.98092 | pgbench_branches |             8192

 2017-02-05 06:08:49.059546+01 | 1486271329.05955 | pgbench_accounts |       1391968256
 2017-02-05 06:08:49.059546+01 | 1486271329.05955 | pgbench_tellers  |            49152
 2017-02-05 06:08:49.059546+01 | 1486271329.05955 | pgbench_history  |                0
 2017-02-05 06:08:49.059546+01 | 1486271329.05955 | pgbench_branches |             8192

 2017-02-05 06:08:50.140939+01 | 1486271330.14094 | pgbench_accounts |       1391968256
 2017-02-05 06:08:50.140939+01 | 1486271330.14094 | pgbench_tellers  |            49152
 2017-02-05 06:08:50.140939+01 | 1486271330.14094 | pgbench_history  |                0
 2017-02-05 06:08:50.140939+01 | 1486271330.14094 | pgbench_branches |             8192

 2017-02-05 06:08:51.229014+01 | 1486271331.22901 | pgbench_accounts |       1391968256
 2017-02-05 06:08:51.229014+01 | 1486271331.22901 | pgbench_tellers  |            49152
 2017-02-05 06:08:51.229014+01 | 1486271331.22901 | pgbench_history  |                0
 2017-02-05 06:08:51.229014+01 | 1486271331.22901 | pgbench_branches |             8192

 2017-02-05 06:08:52.309213+01 | 1486271332.30921 | pgbench_accounts |       1391968256
 2017-02-05 06:08:52.309213+01 | 1486271332.30921 | pgbench_tellers  |            49152
 2017-02-05 06:08:52.309213+01 | 1486271332.30921 | pgbench_history  |                0
 2017-02-05 06:08:52.309213+01 | 1486271332.30921 | pgbench_branches |             8192

 2017-02-05 06:08:53.385935+01 | 1486271333.38594 | pgbench_accounts |       1391968256
 2017-02-05 06:08:53.385935+01 | 1486271333.38594 | pgbench_tellers  |            49152
 2017-02-05 06:08:53.385935+01 | 1486271333.38594 | pgbench_history  |                0
 2017-02-05 06:08:53.385935+01 | 1486271333.38594 | pgbench_branches |             8192

 2017-02-05 06:08:54.456326+01 | 1486271334.45633 | pgbench_accounts |       1391968256
 2017-02-05 06:08:54.456326+01 | 1486271334.45633 | pgbench_tellers  |            49152
 2017-02-05 06:08:54.456326+01 | 1486271334.45633 | pgbench_history  |                0
 2017-02-05 06:08:54.456326+01 | 1486271334.45633 | pgbench_branches |             8192

 2017-02-05 06:08:55.540068+01 | 1486271335.54007 | pgbench_accounts |       1391968256
 2017-02-05 06:08:55.540068+01 | 1486271335.54007 | pgbench_tellers  |            49152
 2017-02-05 06:08:55.540068+01 | 1486271335.54007 | pgbench_history  |                0
 2017-02-05 06:08:55.540068+01 | 1486271335.54007 | pgbench_branches |             8192

 2017-02-05 06:08:56.620574+01 | 1486271336.62057 | pgbench_accounts |       1391968256
 2017-02-05 06:08:56.620574+01 | 1486271336.62057 | pgbench_tellers  |            49152
 2017-02-05 06:08:56.620574+01 | 1486271336.62057 | pgbench_history  |                0
 2017-02-05 06:08:56.620574+01 | 1486271336.62057 | pgbench_branches |             8192

 2017-02-05 06:08:57.696189+01 | 1486271337.69619 | pgbench_accounts |       1391968256
 2017-02-05 06:08:57.696189+01 | 1486271337.69619 | pgbench_tellers  |            49152
 2017-02-05 06:08:57.696189+01 | 1486271337.69619 | pgbench_history  |                0
 2017-02-05 06:08:57.696189+01 | 1486271337.69619 | pgbench_branches |             8192

 2017-02-05 06:08:58.783554+01 | 1486271338.78355 | pgbench_accounts |       1391968256
 2017-02-05 06:08:58.783554+01 | 1486271338.78355 | pgbench_tellers  |            49152
 2017-02-05 06:08:58.783554+01 | 1486271338.78355 | pgbench_history  |                0
 2017-02-05 06:08:58.783554+01 | 1486271338.78355 | pgbench_branches |             8192

 2017-02-05 06:08:59.87175+01 | 1486271339.87175 | pgbench_accounts |       1391968256
 2017-02-05 06:08:59.87175+01 | 1486271339.87175 | pgbench_tellers  |            49152
 2017-02-05 06:08:59.87175+01 | 1486271339.87175 | pgbench_history  |                0
 2017-02-05 06:08:59.87175+01 | 1486271339.87175 | pgbench_branches |             8192

 2017-02-05 06:09:00.946149+01 | 1486271340.94615 | pgbench_accounts |       1391968256
 2017-02-05 06:09:00.946149+01 | 1486271340.94615 | pgbench_tellers  |            49152
 2017-02-05 06:09:00.946149+01 | 1486271340.94615 | pgbench_history  |                0
 2017-02-05 06:09:00.946149+01 | 1486271340.94615 | pgbench_branches |             8192

 2017-02-05 06:09:02.016461+01 | 1486271342.01646 | pgbench_accounts |       1391968256
 2017-02-05 06:09:02.016461+01 | 1486271342.01646 | pgbench_tellers  |            49152
 2017-02-05 06:09:02.016461+01 | 1486271342.01646 | pgbench_history  |                0
 2017-02-05 06:09:02.016461+01 | 1486271342.01646 | pgbench_branches |             8192

 2017-02-05 06:09:03.09453+01 | 1486271343.09453 | pgbench_accounts |       1391968256
 2017-02-05 06:09:03.09453+01 | 1486271343.09453 | pgbench_tellers  |            49152
 2017-02-05 06:09:03.09453+01 | 1486271343.09453 | pgbench_history  |                0
 2017-02-05 06:09:03.09453+01 | 1486271343.09453 | pgbench_branches |             8192

 2017-02-05 06:09:04.176483+01 | 1486271344.17648 | pgbench_accounts |       1391968256
 2017-02-05 06:09:04.176483+01 | 1486271344.17648 | pgbench_tellers  |            49152
 2017-02-05 06:09:04.176483+01 | 1486271344.17648 | pgbench_history  |                0
 2017-02-05 06:09:04.176483+01 | 1486271344.17648 | pgbench_branches |             8192

 2017-02-05 06:09:05.246353+01 | 1486271345.24635 | pgbench_accounts |       1391968256
 2017-02-05 06:09:05.246353+01 | 1486271345.24635 | pgbench_tellers  |            49152
 2017-02-05 06:09:05.246353+01 | 1486271345.24635 | pgbench_history  |                0
 2017-02-05 06:09:05.246353+01 | 1486271345.24635 | pgbench_branches |             8192

 2017-02-05 06:09:06.334618+01 | 1486271346.33462 | pgbench_accounts |       1391968256
 2017-02-05 06:09:06.334618+01 | 1486271346.33462 | pgbench_tellers  |            49152
 2017-02-05 06:09:06.334618+01 | 1486271346.33462 | pgbench_history  |                0
 2017-02-05 06:09:06.334618+01 | 1486271346.33462 | pgbench_branches |             8192

 2017-02-05 06:09:07.421793+01 | 1486271347.42179 | pgbench_accounts |       1391968256
 2017-02-05 06:09:07.421793+01 | 1486271347.42179 | pgbench_tellers  |            49152
 2017-02-05 06:09:07.421793+01 | 1486271347.42179 | pgbench_history  |                0
 2017-02-05 06:09:07.421793+01 | 1486271347.42179 | pgbench_branches |             8192

 2017-02-05 06:09:08.503333+01 | 1486271348.50333 | pgbench_accounts |       1391968256
 2017-02-05 06:09:08.503333+01 | 1486271348.50333 | pgbench_tellers  |            49152
 2017-02-05 06:09:08.503333+01 | 1486271348.50333 | pgbench_history  |                0
 2017-02-05 06:09:08.503333+01 | 1486271348.50333 | pgbench_branches |             8192

 2017-02-05 06:09:09.586708+01 | 1486271349.58671 | pgbench_accounts |       1391968256
 2017-02-05 06:09:09.586708+01 | 1486271349.58671 | pgbench_tellers  |            49152
 2017-02-05 06:09:09.586708+01 | 1486271349.58671 | pgbench_history  |                0
 2017-02-05 06:09:09.586708+01 | 1486271349.58671 | pgbench_branches |             8192

 2017-02-05 06:09:10.660627+01 | 1486271350.66063 | pgbench_accounts |       1391968256
 2017-02-05 06:09:10.660627+01 | 1486271350.66063 | pgbench_tellers  |            49152
 2017-02-05 06:09:10.660627+01 | 1486271350.66063 | pgbench_history  |                0
 2017-02-05 06:09:10.660627+01 | 1486271350.66063 | pgbench_branches |             8192

 2017-02-05 06:09:11.746987+01 | 1486271351.74699 | pgbench_accounts |       1391968256
 2017-02-05 06:09:11.746987+01 | 1486271351.74699 | pgbench_tellers  |            49152
 2017-02-05 06:09:11.746987+01 | 1486271351.74699 | pgbench_history  |                0
 2017-02-05 06:09:11.746987+01 | 1486271351.74699 | pgbench_branches |             8192

 2017-02-05 06:09:12.822426+01 | 1486271352.82243 | pgbench_accounts |       1391968256
 2017-02-05 06:09:12.822426+01 | 1486271352.82243 | pgbench_tellers  |            49152
 2017-02-05 06:09:12.822426+01 | 1486271352.82243 | pgbench_history  |                0
 2017-02-05 06:09:12.822426+01 | 1486271352.82243 | pgbench_branches |             8192

 2017-02-05 06:09:13.903421+01 | 1486271353.90342 | pgbench_accounts |       1391968256
 2017-02-05 06:09:13.903421+01 | 1486271353.90342 | pgbench_tellers  |            49152
 2017-02-05 06:09:13.903421+01 | 1486271353.90342 | pgbench_history  |                0
 2017-02-05 06:09:13.903421+01 | 1486271353.90342 | pgbench_branches |             8192

 2017-02-05 06:09:14.979529+01 | 1486271354.97953 | pgbench_accounts |       1391968256
 2017-02-05 06:09:14.979529+01 | 1486271354.97953 | pgbench_tellers  |            49152
 2017-02-05 06:09:14.979529+01 | 1486271354.97953 | pgbench_history  |                0
 2017-02-05 06:09:14.979529+01 | 1486271354.97953 | pgbench_branches |             8192

 2017-02-05 06:09:16.064354+01 | 1486271356.06435 | pgbench_accounts |       1391968256
 2017-02-05 06:09:16.064354+01 | 1486271356.06435 | pgbench_tellers  |            49152
 2017-02-05 06:09:16.064354+01 | 1486271356.06435 | pgbench_history  |                0
 2017-02-05 06:09:16.064354+01 | 1486271356.06435 | pgbench_branches |             8192

 2017-02-05 06:09:17.135833+01 | 1486271357.13583 | pgbench_accounts |       1391968256
 2017-02-05 06:09:17.135833+01 | 1486271357.13583 | pgbench_tellers  |            49152
 2017-02-05 06:09:17.135833+01 | 1486271357.13583 | pgbench_history  |                0
 2017-02-05 06:09:17.135833+01 | 1486271357.13583 | pgbench_branches |             8192

 2017-02-05 06:09:18.207216+01 | 1486271358.20722 | pgbench_accounts |       1391968256
 2017-02-05 06:09:18.207216+01 | 1486271358.20722 | pgbench_tellers  |            49152
 2017-02-05 06:09:18.207216+01 | 1486271358.20722 | pgbench_history  |                0
 2017-02-05 06:09:18.207216+01 | 1486271358.20722 | pgbench_branches |             8192

 2017-02-05 06:09:19.292318+01 | 1486271359.29232 | pgbench_accounts |       1391968256
 2017-02-05 06:09:19.292318+01 | 1486271359.29232 | pgbench_tellers  |            49152
 2017-02-05 06:09:19.292318+01 | 1486271359.29232 | pgbench_history  |                0
 2017-02-05 06:09:19.292318+01 | 1486271359.29232 | pgbench_branches |             8192

 2017-02-05 06:09:20.363838+01 | 1486271360.36384 | pgbench_accounts |       1391968256
 2017-02-05 06:09:20.363838+01 | 1486271360.36384 | pgbench_tellers  |            49152
 2017-02-05 06:09:20.363838+01 | 1486271360.36384 | pgbench_history  |                0
 2017-02-05 06:09:20.363838+01 | 1486271360.36384 | pgbench_branches |             8192

 2017-02-05 06:09:21.437681+01 | 1486271361.43768 | pgbench_accounts |       1391968256
 2017-02-05 06:09:21.437681+01 | 1486271361.43768 | pgbench_tellers  |            49152
 2017-02-05 06:09:21.437681+01 | 1486271361.43768 | pgbench_history  |                0
 2017-02-05 06:09:21.437681+01 | 1486271361.43768 | pgbench_branches |             8192

 2017-02-05 06:09:22.521137+01 | 1486271362.52114 | pgbench_accounts |       1391968256
 2017-02-05 06:09:22.521137+01 | 1486271362.52114 | pgbench_tellers  |            49152
 2017-02-05 06:09:22.521137+01 | 1486271362.52114 | pgbench_history  |                0
 2017-02-05 06:09:22.521137+01 | 1486271362.52114 | pgbench_branches |             8192

 2017-02-05 06:09:23.596849+01 | 1486271363.59685 | pgbench_accounts |       1391968256
 2017-02-05 06:09:23.596849+01 | 1486271363.59685 | pgbench_tellers  |            49152
 2017-02-05 06:09:23.596849+01 | 1486271363.59685 | pgbench_history  |                0
 2017-02-05 06:09:23.596849+01 | 1486271363.59685 | pgbench_branches |             8192

 2017-02-05 06:09:24.67423+01 | 1486271364.67423 | pgbench_accounts |       1391968256
 2017-02-05 06:09:24.67423+01 | 1486271364.67423 | pgbench_tellers  |            49152
 2017-02-05 06:09:24.67423+01 | 1486271364.67423 | pgbench_history  |                0
 2017-02-05 06:09:24.67423+01 | 1486271364.67423 | pgbench_branches |             8192

 2017-02-05 06:09:25.750951+01 | 1486271365.75095 | pgbench_accounts |       1391968256
 2017-02-05 06:09:25.750951+01 | 1486271365.75095 | pgbench_tellers  |            49152
 2017-02-05 06:09:25.750951+01 | 1486271365.75095 | pgbench_history  |                0
 2017-02-05 06:09:25.750951+01 | 1486271365.75095 | pgbench_branches |             8192

 2017-02-05 06:09:26.827136+01 | 1486271366.82714 | pgbench_accounts |       1391968256
 2017-02-05 06:09:26.827136+01 | 1486271366.82714 | pgbench_tellers  |            49152
 2017-02-05 06:09:26.827136+01 | 1486271366.82714 | pgbench_history  |                0
 2017-02-05 06:09:26.827136+01 | 1486271366.82714 | pgbench_branches |             8192

 2017-02-05 06:09:27.900119+01 | 1486271367.90012 | pgbench_accounts |       1391968256
 2017-02-05 06:09:27.900119+01 | 1486271367.90012 | pgbench_tellers  |            49152
 2017-02-05 06:09:27.900119+01 | 1486271367.90012 | pgbench_history  |                0
 2017-02-05 06:09:27.900119+01 | 1486271367.90012 | pgbench_branches |             8192

 2017-02-05 06:09:28.9762+01 | 1486271368.9762 | pgbench_accounts |       1391968256
 2017-02-05 06:09:28.9762+01 | 1486271368.9762 | pgbench_tellers  |            49152
 2017-02-05 06:09:28.9762+01 | 1486271368.9762 | pgbench_history  |                0
 2017-02-05 06:09:28.9762+01 | 1486271368.9762 | pgbench_branches |             8192

 2017-02-05 06:09:30.049817+01 | 1486271370.04982 | pgbench_accounts |       1391968256
 2017-02-05 06:09:30.049817+01 | 1486271370.04982 | pgbench_tellers  |            49152
 2017-02-05 06:09:30.049817+01 | 1486271370.04982 | pgbench_history  |                0
 2017-02-05 06:09:30.049817+01 | 1486271370.04982 | pgbench_branches |             8192

 2017-02-05 06:09:31.133026+01 | 1486271371.13303 | pgbench_accounts |       1391968256
 2017-02-05 06:09:31.133026+01 | 1486271371.13303 | pgbench_tellers  |            49152
 2017-02-05 06:09:31.133026+01 | 1486271371.13303 | pgbench_history  |                0
 2017-02-05 06:09:31.133026+01 | 1486271371.13303 | pgbench_branches |             8192

 2017-02-05 06:09:32.208941+01 | 1486271372.20894 | pgbench_accounts |       1391968256
 2017-02-05 06:09:32.208941+01 | 1486271372.20894 | pgbench_tellers  |            49152
 2017-02-05 06:09:32.208941+01 | 1486271372.20894 | pgbench_history  |                0
 2017-02-05 06:09:32.208941+01 | 1486271372.20894 | pgbench_branches |             8192

 2017-02-05 06:09:33.282176+01 | 1486271373.28218 | pgbench_accounts |       1391968256
 2017-02-05 06:09:33.282176+01 | 1486271373.28218 | pgbench_tellers  |            49152
 2017-02-05 06:09:33.282176+01 | 1486271373.28218 | pgbench_history  |                0
 2017-02-05 06:09:33.282176+01 | 1486271373.28218 | pgbench_branches |             8192

 2017-02-05 06:09:34.360992+01 | 1486271374.36099 | pgbench_accounts |       1391968256
 2017-02-05 06:09:34.360992+01 | 1486271374.36099 | pgbench_tellers  |            49152
 2017-02-05 06:09:34.360992+01 | 1486271374.36099 | pgbench_history  |                0
 2017-02-05 06:09:34.360992+01 | 1486271374.36099 | pgbench_branches |             8192

 2017-02-05 06:09:35.440093+01 | 1486271375.44009 | pgbench_accounts |       1391968256
 2017-02-05 06:09:35.440093+01 | 1486271375.44009 | pgbench_tellers  |            49152
 2017-02-05 06:09:35.440093+01 | 1486271375.44009 | pgbench_history  |                0
 2017-02-05 06:09:35.440093+01 | 1486271375.44009 | pgbench_branches |             8192

 2017-02-05 06:09:36.524125+01 | 1486271376.52413 | pgbench_accounts |       1391968256
 2017-02-05 06:09:36.524125+01 | 1486271376.52413 | pgbench_tellers  |            49152
 2017-02-05 06:09:36.524125+01 | 1486271376.52413 | pgbench_history  |                0
 2017-02-05 06:09:36.524125+01 | 1486271376.52413 | pgbench_branches |             8192

 2017-02-05 06:09:37.597707+01 | 1486271377.59771 | pgbench_accounts |       1391968256
 2017-02-05 06:09:37.597707+01 | 1486271377.59771 | pgbench_tellers  |            49152
 2017-02-05 06:09:37.597707+01 | 1486271377.59771 | pgbench_history  |                0
 2017-02-05 06:09:37.597707+01 | 1486271377.59771 | pgbench_branches |             8192

 2017-02-05 06:09:38.688086+01 | 1486271378.68809 | pgbench_accounts |       1391968256
 2017-02-05 06:09:38.688086+01 | 1486271378.68809 | pgbench_tellers  |            49152
 2017-02-05 06:09:38.688086+01 | 1486271378.68809 | pgbench_history  |                0
 2017-02-05 06:09:38.688086+01 | 1486271378.68809 | pgbench_branches |             8192

 2017-02-05 06:09:39.773618+01 | 1486271379.77362 | pgbench_accounts |       1391968256
 2017-02-05 06:09:39.773618+01 | 1486271379.77362 | pgbench_tellers  |            49152
 2017-02-05 06:09:39.773618+01 | 1486271379.77362 | pgbench_history  |                0
 2017-02-05 06:09:39.773618+01 | 1486271379.77362 | pgbench_branches |             8192

 2017-02-05 06:09:40.855728+01 | 1486271380.85573 | pgbench_accounts |       1391968256
 2017-02-05 06:09:40.855728+01 | 1486271380.85573 | pgbench_tellers  |            49152
 2017-02-05 06:09:40.855728+01 | 1486271380.85573 | pgbench_history  |                0
 2017-02-05 06:09:40.855728+01 | 1486271380.85573 | pgbench_branches |             8192

 2017-02-05 06:09:41.92156+01 | 1486271381.92156 | pgbench_accounts |       1391968256
 2017-02-05 06:09:41.92156+01 | 1486271381.92156 | pgbench_tellers  |            49152
 2017-02-05 06:09:41.92156+01 | 1486271381.92156 | pgbench_history  |                0
 2017-02-05 06:09:41.92156+01 | 1486271381.92156 | pgbench_branches |             8192

 2017-02-05 06:09:42.998292+01 | 1486271382.99829 | pgbench_accounts |       1391968256
 2017-02-05 06:09:42.998292+01 | 1486271382.99829 | pgbench_tellers  |            49152
 2017-02-05 06:09:42.998292+01 | 1486271382.99829 | pgbench_history  |                0
 2017-02-05 06:09:42.998292+01 | 1486271382.99829 | pgbench_branches |             8192

 2017-02-05 06:09:44.080527+01 | 1486271384.08053 | pgbench_accounts |       1391968256
 2017-02-05 06:09:44.080527+01 | 1486271384.08053 | pgbench_tellers  |            49152
 2017-02-05 06:09:44.080527+01 | 1486271384.08053 | pgbench_history  |                0
 2017-02-05 06:09:44.080527+01 | 1486271384.08053 | pgbench_branches |             8192

 2017-02-05 06:09:45.169847+01 | 1486271385.16985 | pgbench_accounts |       1391968256
 2017-02-05 06:09:45.169847+01 | 1486271385.16985 | pgbench_tellers  |            49152
 2017-02-05 06:09:45.169847+01 | 1486271385.16985 | pgbench_history  |                0
 2017-02-05 06:09:45.169847+01 | 1486271385.16985 | pgbench_branches |             8192

 2017-02-05 06:09:46.252201+01 | 1486271386.2522 | pgbench_accounts |       1391968256
 2017-02-05 06:09:46.252201+01 | 1486271386.2522 | pgbench_tellers  |            49152
 2017-02-05 06:09:46.252201+01 | 1486271386.2522 | pgbench_history  |                0
 2017-02-05 06:09:46.252201+01 | 1486271386.2522 | pgbench_branches |             8192

 2017-02-05 06:09:47.33903+01 | 1486271387.33903 | pgbench_accounts |       1391968256
 2017-02-05 06:09:47.33903+01 | 1486271387.33903 | pgbench_tellers  |            49152
 2017-02-05 06:09:47.33903+01 | 1486271387.33903 | pgbench_history  |                0
 2017-02-05 06:09:47.33903+01 | 1486271387.33903 | pgbench_branches |             8192

 2017-02-05 06:09:48.423026+01 | 1486271388.42303 | pgbench_accounts |       1391968256
 2017-02-05 06:09:48.423026+01 | 1486271388.42303 | pgbench_tellers  |            49152
 2017-02-05 06:09:48.423026+01 | 1486271388.42303 | pgbench_history  |                0
 2017-02-05 06:09:48.423026+01 | 1486271388.42303 | pgbench_branches |             8192

 2017-02-05 06:09:49.499078+01 | 1486271389.49908 | pgbench_accounts |       1391968256
 2017-02-05 06:09:49.499078+01 | 1486271389.49908 | pgbench_tellers  |            49152
 2017-02-05 06:09:49.499078+01 | 1486271389.49908 | pgbench_history  |                0
 2017-02-05 06:09:49.499078+01 | 1486271389.49908 | pgbench_branches |             8192

 2017-02-05 06:09:50.585243+01 | 1486271390.58524 | pgbench_accounts |       1391968256
 2017-02-05 06:09:50.585243+01 | 1486271390.58524 | pgbench_tellers  |            49152
 2017-02-05 06:09:50.585243+01 | 1486271390.58524 | pgbench_history  |                0
 2017-02-05 06:09:50.585243+01 | 1486271390.58524 | pgbench_branches |             8192

 2017-02-05 06:09:51.66072+01 | 1486271391.66072 | pgbench_accounts |       1391968256
 2017-02-05 06:09:51.66072+01 | 1486271391.66072 | pgbench_tellers  |            49152
 2017-02-05 06:09:51.66072+01 | 1486271391.66072 | pgbench_history  |                0
 2017-02-05 06:09:51.66072+01 | 1486271391.66072 | pgbench_branches |             8192

 2017-02-05 06:09:52.738327+01 | 1486271392.73833 | pgbench_accounts |       1391968256
 2017-02-05 06:09:52.738327+01 | 1486271392.73833 | pgbench_tellers  |            49152
 2017-02-05 06:09:52.738327+01 | 1486271392.73833 | pgbench_history  |                0
 2017-02-05 06:09:52.738327+01 | 1486271392.73833 | pgbench_branches |             8192

 2017-02-05 06:09:53.816469+01 | 1486271393.81647 | pgbench_accounts |       1391968256
 2017-02-05 06:09:53.816469+01 | 1486271393.81647 | pgbench_tellers  |            49152
 2017-02-05 06:09:53.816469+01 | 1486271393.81647 | pgbench_history  |                0
 2017-02-05 06:09:53.816469+01 | 1486271393.81647 | pgbench_branches |             8192

 2017-02-05 06:09:54.898774+01 | 1486271394.89877 | pgbench_accounts |       1391968256
 2017-02-05 06:09:54.898774+01 | 1486271394.89877 | pgbench_tellers  |            49152
 2017-02-05 06:09:54.898774+01 | 1486271394.89877 | pgbench_history  |                0
 2017-02-05 06:09:54.898774+01 | 1486271394.89877 | pgbench_branches |             8192

 2017-02-05 06:09:55.971508+01 | 1486271395.97151 | pgbench_accounts |       1391968256
 2017-02-05 06:09:55.971508+01 | 1486271395.97151 | pgbench_tellers  |            49152
 2017-02-05 06:09:55.971508+01 | 1486271395.97151 | pgbench_history  |                0
 2017-02-05 06:09:55.971508+01 | 1486271395.97151 | pgbench_branches |             8192

 2017-02-05 06:09:57.048017+01 | 1486271397.04802 | pgbench_accounts |       1391968256
 2017-02-05 06:09:57.048017+01 | 1486271397.04802 | pgbench_tellers  |            49152
 2017-02-05 06:09:57.048017+01 | 1486271397.04802 | pgbench_history  |                0
 2017-02-05 06:09:57.048017+01 | 1486271397.04802 | pgbench_branches |             8192

 2017-02-05 06:09:58.136546+01 | 1486271398.13655 | pgbench_accounts |       1391968256
 2017-02-05 06:09:58.136546+01 | 1486271398.13655 | pgbench_tellers  |            49152
 2017-02-05 06:09:58.136546+01 | 1486271398.13655 | pgbench_history  |                0
 2017-02-05 06:09:58.136546+01 | 1486271398.13655 | pgbench_branches |             8192

 2017-02-05 06:09:59.215061+01 | 1486271399.21506 | pgbench_accounts |       1391968256
 2017-02-05 06:09:59.215061+01 | 1486271399.21506 | pgbench_tellers  |            49152
 2017-02-05 06:09:59.215061+01 | 1486271399.21506 | pgbench_history  |                0
 2017-02-05 06:09:59.215061+01 | 1486271399.21506 | pgbench_branches |             8192

 2017-02-05 06:10:00.283726+01 | 1486271400.28373 | pgbench_accounts |       1391968256
 2017-02-05 06:10:00.283726+01 | 1486271400.28373 | pgbench_tellers  |            49152
 2017-02-05 06:10:00.283726+01 | 1486271400.28373 | pgbench_history  |                0
 2017-02-05 06:10:00.283726+01 | 1486271400.28373 | pgbench_branches |             8192

 2017-02-05 06:10:01.365901+01 | 1486271401.3659 | pgbench_accounts |       1391968256
 2017-02-05 06:10:01.365901+01 | 1486271401.3659 | pgbench_tellers  |            49152
 2017-02-05 06:10:01.365901+01 | 1486271401.3659 | pgbench_history  |                0
 2017-02-05 06:10:01.365901+01 | 1486271401.3659 | pgbench_branches |             8192

 2017-02-05 06:10:02.444674+01 | 1486271402.44467 | pgbench_accounts |       1391968256
 2017-02-05 06:10:02.444674+01 | 1486271402.44467 | pgbench_tellers  |            49152
 2017-02-05 06:10:02.444674+01 | 1486271402.44467 | pgbench_history  |                0
 2017-02-05 06:10:02.444674+01 | 1486271402.44467 | pgbench_branches |             8192

 2017-02-05 06:10:03.527998+01 | 1486271403.528 | pgbench_accounts |       1391968256
 2017-02-05 06:10:03.527998+01 | 1486271403.528 | pgbench_tellers  |            49152
 2017-02-05 06:10:03.527998+01 | 1486271403.528 | pgbench_history  |                0
 2017-02-05 06:10:03.527998+01 | 1486271403.528 | pgbench_branches |             8192

 2017-02-05 06:10:04.607114+01 | 1486271404.60711 | pgbench_accounts |       1391968256
 2017-02-05 06:10:04.607114+01 | 1486271404.60711 | pgbench_tellers  |            49152
 2017-02-05 06:10:04.607114+01 | 1486271404.60711 | pgbench_history  |                0
 2017-02-05 06:10:04.607114+01 | 1486271404.60711 | pgbench_branches |             8192

 2017-02-05 06:10:05.683622+01 | 1486271405.68362 | pgbench_accounts |       1391968256
 2017-02-05 06:10:05.683622+01 | 1486271405.68362 | pgbench_tellers  |            49152
 2017-02-05 06:10:05.683622+01 | 1486271405.68362 | pgbench_history  |                0
 2017-02-05 06:10:05.683622+01 | 1486271405.68362 | pgbench_branches |             8192

 2017-02-05 06:10:06.755302+01 | 1486271406.7553 | pgbench_accounts |       1391968256
 2017-02-05 06:10:06.755302+01 | 1486271406.7553 | pgbench_tellers  |            49152
 2017-02-05 06:10:06.755302+01 | 1486271406.7553 | pgbench_history  |                0
 2017-02-05 06:10:06.755302+01 | 1486271406.7553 | pgbench_branches |             8192

 2017-02-05 06:10:07.830647+01 | 1486271407.83065 | pgbench_accounts |       1391968256
 2017-02-05 06:10:07.830647+01 | 1486271407.83065 | pgbench_tellers  |            49152
 2017-02-05 06:10:07.830647+01 | 1486271407.83065 | pgbench_history  |                0
 2017-02-05 06:10:07.830647+01 | 1486271407.83065 | pgbench_branches |             8192

 2017-02-05 06:10:08.90819+01 | 1486271408.90819 | pgbench_accounts |       1391968256
 2017-02-05 06:10:08.90819+01 | 1486271408.90819 | pgbench_tellers  |            49152
 2017-02-05 06:10:08.90819+01 | 1486271408.90819 | pgbench_history  |                0
 2017-02-05 06:10:08.90819+01 | 1486271408.90819 | pgbench_branches |             8192

 2017-02-05 06:10:09.979326+01 | 1486271409.97933 | pgbench_accounts |       1391968256
 2017-02-05 06:10:09.979326+01 | 1486271409.97933 | pgbench_tellers  |            49152
 2017-02-05 06:10:09.979326+01 | 1486271409.97933 | pgbench_history  |                0
 2017-02-05 06:10:09.979326+01 | 1486271409.97933 | pgbench_branches |             8192

 2017-02-05 06:10:11.056015+01 | 1486271411.05602 | pgbench_accounts |       1391968256
 2017-02-05 06:10:11.056015+01 | 1486271411.05602 | pgbench_tellers  |            49152
 2017-02-05 06:10:11.056015+01 | 1486271411.05602 | pgbench_history  |                0
 2017-02-05 06:10:11.056015+01 | 1486271411.05602 | pgbench_branches |             8192

 2017-02-05 06:10:12.134069+01 | 1486271412.13407 | pgbench_accounts |       1391968256
 2017-02-05 06:10:12.134069+01 | 1486271412.13407 | pgbench_tellers  |            49152
 2017-02-05 06:10:12.134069+01 | 1486271412.13407 | pgbench_history  |                0
 2017-02-05 06:10:12.134069+01 | 1486271412.13407 | pgbench_branches |             8192

 2017-02-05 06:10:13.213925+01 | 1486271413.21392 | pgbench_accounts |       1391968256
 2017-02-05 06:10:13.213925+01 | 1486271413.21392 | pgbench_tellers  |            49152
 2017-02-05 06:10:13.213925+01 | 1486271413.21392 | pgbench_history  |                0
 2017-02-05 06:10:13.213925+01 | 1486271413.21392 | pgbench_branches |             8192

 2017-02-05 06:10:14.285719+01 | 1486271414.28572 | pgbench_accounts |       1391968256
 2017-02-05 06:10:14.285719+01 | 1486271414.28572 | pgbench_tellers  |            49152
 2017-02-05 06:10:14.285719+01 | 1486271414.28572 | pgbench_history  |                0
 2017-02-05 06:10:14.285719+01 | 1486271414.28572 | pgbench_branches |             8192

 2017-02-05 06:10:15.36922+01 | 1486271415.36922 | pgbench_accounts |       1391968256
 2017-02-05 06:10:15.36922+01 | 1486271415.36922 | pgbench_tellers  |            49152
 2017-02-05 06:10:15.36922+01 | 1486271415.36922 | pgbench_history  |                0
 2017-02-05 06:10:15.36922+01 | 1486271415.36922 | pgbench_branches |             8192

 2017-02-05 06:10:16.439289+01 | 1486271416.43929 | pgbench_accounts |       1391968256
 2017-02-05 06:10:16.439289+01 | 1486271416.43929 | pgbench_tellers  |            49152
 2017-02-05 06:10:16.439289+01 | 1486271416.43929 | pgbench_history  |                0
 2017-02-05 06:10:16.439289+01 | 1486271416.43929 | pgbench_branches |             8192

 2017-02-05 06:10:17.519758+01 | 1486271417.51976 | pgbench_accounts |       1391968256
 2017-02-05 06:10:17.519758+01 | 1486271417.51976 | pgbench_tellers  |            49152
 2017-02-05 06:10:17.519758+01 | 1486271417.51976 | pgbench_history  |                0
 2017-02-05 06:10:17.519758+01 | 1486271417.51976 | pgbench_branches |             8192

 2017-02-05 06:10:18.595235+01 | 1486271418.59524 | pgbench_accounts |       1391968256
 2017-02-05 06:10:18.595235+01 | 1486271418.59524 | pgbench_tellers  |            49152
 2017-02-05 06:10:18.595235+01 | 1486271418.59524 | pgbench_history  |                0
 2017-02-05 06:10:18.595235+01 | 1486271418.59524 | pgbench_branches |             8192

 2017-02-05 06:10:19.670908+01 | 1486271419.67091 | pgbench_accounts |       1391968256
 2017-02-05 06:10:19.670908+01 | 1486271419.67091 | pgbench_tellers  |            49152
 2017-02-05 06:10:19.670908+01 | 1486271419.67091 | pgbench_history  |                0
 2017-02-05 06:10:19.670908+01 | 1486271419.67091 | pgbench_branches |             8192

 2017-02-05 06:10:20.74398+01 | 1486271420.74398 | pgbench_accounts |       1391968256
 2017-02-05 06:10:20.74398+01 | 1486271420.74398 | pgbench_tellers  |            49152
 2017-02-05 06:10:20.74398+01 | 1486271420.74398 | pgbench_history  |                0
 2017-02-05 06:10:20.74398+01 | 1486271420.74398 | pgbench_branches |             8192

 2017-02-05 06:10:21.832203+01 | 1486271421.8322 | pgbench_accounts |       1391968256
 2017-02-05 06:10:21.832203+01 | 1486271421.8322 | pgbench_tellers  |            49152
 2017-02-05 06:10:21.832203+01 | 1486271421.8322 | pgbench_history  |                0
 2017-02-05 06:10:21.832203+01 | 1486271421.8322 | pgbench_branches |             8192

 2017-02-05 06:10:22.915638+01 | 1486271422.91564 | pgbench_accounts |       1391968256
 2017-02-05 06:10:22.915638+01 | 1486271422.91564 | pgbench_tellers  |            49152
 2017-02-05 06:10:22.915638+01 | 1486271422.91564 | pgbench_history  |                0
 2017-02-05 06:10:22.915638+01 | 1486271422.91564 | pgbench_branches |             8192

 2017-02-05 06:10:23.988411+01 | 1486271423.98841 | pgbench_accounts |       1391968256
 2017-02-05 06:10:23.988411+01 | 1486271423.98841 | pgbench_tellers  |            49152
 2017-02-05 06:10:23.988411+01 | 1486271423.98841 | pgbench_history  |                0
 2017-02-05 06:10:23.988411+01 | 1486271423.98841 | pgbench_branches |             8192

 2017-02-05 06:10:25.062249+01 | 1486271425.06225 | pgbench_accounts |       1391968256
 2017-02-05 06:10:25.062249+01 | 1486271425.06225 | pgbench_tellers  |            49152
 2017-02-05 06:10:25.062249+01 | 1486271425.06225 | pgbench_history  |                0
 2017-02-05 06:10:25.062249+01 | 1486271425.06225 | pgbench_branches |             8192

 2017-02-05 06:10:26.13303+01 | 1486271426.13303 | pgbench_accounts |       1391968256
 2017-02-05 06:10:26.13303+01 | 1486271426.13303 | pgbench_tellers  |            49152
 2017-02-05 06:10:26.13303+01 | 1486271426.13303 | pgbench_history  |                0
 2017-02-05 06:10:26.13303+01 | 1486271426.13303 | pgbench_branches |             8192

 2017-02-05 06:10:27.219936+01 | 1486271427.21994 | pgbench_accounts |       1391968256
 2017-02-05 06:10:27.219936+01 | 1486271427.21994 | pgbench_tellers  |            49152
 2017-02-05 06:10:27.219936+01 | 1486271427.21994 | pgbench_history  |                0
 2017-02-05 06:10:27.219936+01 | 1486271427.21994 | pgbench_branches |             8192

 2017-02-05 06:10:28.291052+01 | 1486271428.29105 | pgbench_accounts |       1391968256
 2017-02-05 06:10:28.291052+01 | 1486271428.29105 | pgbench_tellers  |            49152
 2017-02-05 06:10:28.291052+01 | 1486271428.29105 | pgbench_history  |                0
 2017-02-05 06:10:28.291052+01 | 1486271428.29105 | pgbench_branches |             8192

 2017-02-05 06:10:29.368398+01 | 1486271429.3684 | pgbench_accounts |       1391968256
 2017-02-05 06:10:29.368398+01 | 1486271429.3684 | pgbench_tellers  |            49152
 2017-02-05 06:10:29.368398+01 | 1486271429.3684 | pgbench_history  |                0
 2017-02-05 06:10:29.368398+01 | 1486271429.3684 | pgbench_branches |             8192

 2017-02-05 06:10:30.454209+01 | 1486271430.45421 | pgbench_accounts |       1391968256
 2017-02-05 06:10:30.454209+01 | 1486271430.45421 | pgbench_tellers  |            49152
 2017-02-05 06:10:30.454209+01 | 1486271430.45421 | pgbench_history  |                0
 2017-02-05 06:10:30.454209+01 | 1486271430.45421 | pgbench_branches |             8192

 2017-02-05 06:10:31.534511+01 | 1486271431.53451 | pgbench_accounts |       1391968256
 2017-02-05 06:10:31.534511+01 | 1486271431.53451 | pgbench_tellers  |            49152
 2017-02-05 06:10:31.534511+01 | 1486271431.53451 | pgbench_history  |                0
 2017-02-05 06:10:31.534511+01 | 1486271431.53451 | pgbench_branches |             8192

 2017-02-05 06:10:32.615927+01 | 1486271432.61593 | pgbench_accounts |       1391968256
 2017-02-05 06:10:32.615927+01 | 1486271432.61593 | pgbench_tellers  |            49152
 2017-02-05 06:10:32.615927+01 | 1486271432.61593 | pgbench_history  |                0
 2017-02-05 06:10:32.615927+01 | 1486271432.61593 | pgbench_branches |             8192

 2017-02-05 06:10:33.693288+01 | 1486271433.69329 | pgbench_accounts |       1391968256
 2017-02-05 06:10:33.693288+01 | 1486271433.69329 | pgbench_tellers  |            49152
 2017-02-05 06:10:33.693288+01 | 1486271433.69329 | pgbench_history  |                0
 2017-02-05 06:10:33.693288+01 | 1486271433.69329 | pgbench_branches |             8192

 2017-02-05 06:10:34.770432+01 | 1486271434.77043 | pgbench_accounts |       1391968256
 2017-02-05 06:10:34.770432+01 | 1486271434.77043 | pgbench_tellers  |            49152
 2017-02-05 06:10:34.770432+01 | 1486271434.77043 | pgbench_history  |                0
 2017-02-05 06:10:34.770432+01 | 1486271434.77043 | pgbench_branches |             8192

 2017-02-05 06:10:35.843009+01 | 1486271435.84301 | pgbench_accounts |       1391968256
 2017-02-05 06:10:35.843009+01 | 1486271435.84301 | pgbench_tellers  |            49152
 2017-02-05 06:10:35.843009+01 | 1486271435.84301 | pgbench_history  |                0
 2017-02-05 06:10:35.843009+01 | 1486271435.84301 | pgbench_branches |             8192

 2017-02-05 06:10:36.916189+01 | 1486271436.91619 | pgbench_accounts |       1391968256
 2017-02-05 06:10:36.916189+01 | 1486271436.91619 | pgbench_tellers  |            49152
 2017-02-05 06:10:36.916189+01 | 1486271436.91619 | pgbench_history  |                0
 2017-02-05 06:10:36.916189+01 | 1486271436.91619 | pgbench_branches |             8192

 2017-02-05 06:10:37.995706+01 | 1486271437.99571 | pgbench_accounts |       1391968256
 2017-02-05 06:10:37.995706+01 | 1486271437.99571 | pgbench_tellers  |            49152
 2017-02-05 06:10:37.995706+01 | 1486271437.99571 | pgbench_history  |                0
 2017-02-05 06:10:37.995706+01 | 1486271437.99571 | pgbench_branches |             8192

 2017-02-05 06:10:39.070633+01 | 1486271439.07063 | pgbench_accounts |       1391968256
 2017-02-05 06:10:39.070633+01 | 1486271439.07063 | pgbench_tellers  |            49152
 2017-02-05 06:10:39.070633+01 | 1486271439.07063 | pgbench_history  |                0
 2017-02-05 06:10:39.070633+01 | 1486271439.07063 | pgbench_branches |             8192

 2017-02-05 06:10:40.155226+01 | 1486271440.15523 | pgbench_accounts |       1391968256
 2017-02-05 06:10:40.155226+01 | 1486271440.15523 | pgbench_tellers  |            49152
 2017-02-05 06:10:40.155226+01 | 1486271440.15523 | pgbench_history  |                0
 2017-02-05 06:10:40.155226+01 | 1486271440.15523 | pgbench_branches |             8192

 2017-02-05 06:10:41.235097+01 | 1486271441.2351 | pgbench_accounts |       1391968256
 2017-02-05 06:10:41.235097+01 | 1486271441.2351 | pgbench_tellers  |            49152
 2017-02-05 06:10:41.235097+01 | 1486271441.2351 | pgbench_history  |                0
 2017-02-05 06:10:41.235097+01 | 1486271441.2351 | pgbench_branches |             8192

 2017-02-05 06:10:42.311729+01 | 1486271442.31173 | pgbench_accounts |       1391968256
 2017-02-05 06:10:42.311729+01 | 1486271442.31173 | pgbench_tellers  |            49152
 2017-02-05 06:10:42.311729+01 | 1486271442.31173 | pgbench_history  |                0
 2017-02-05 06:10:42.311729+01 | 1486271442.31173 | pgbench_branches |             8192

 2017-02-05 06:10:43.387184+01 | 1486271443.38718 | pgbench_accounts |       1391968256
 2017-02-05 06:10:43.387184+01 | 1486271443.38718 | pgbench_tellers  |            49152
 2017-02-05 06:10:43.387184+01 | 1486271443.38718 | pgbench_history  |                0
 2017-02-05 06:10:43.387184+01 | 1486271443.38718 | pgbench_branches |             8192

 2017-02-05 06:10:44.462658+01 | 1486271444.46266 | pgbench_accounts |       1391968256
 2017-02-05 06:10:44.462658+01 | 1486271444.46266 | pgbench_tellers  |            49152
 2017-02-05 06:10:44.462658+01 | 1486271444.46266 | pgbench_history  |                0
 2017-02-05 06:10:44.462658+01 | 1486271444.46266 | pgbench_branches |             8192

 2017-02-05 06:10:45.537457+01 | 1486271445.53746 | pgbench_accounts |       1391968256
 2017-02-05 06:10:45.537457+01 | 1486271445.53746 | pgbench_tellers  |            49152
 2017-02-05 06:10:45.537457+01 | 1486271445.53746 | pgbench_history  |                0
 2017-02-05 06:10:45.537457+01 | 1486271445.53746 | pgbench_branches |             8192

 2017-02-05 06:10:46.622922+01 | 1486271446.62292 | pgbench_accounts |       1391968256
 2017-02-05 06:10:46.622922+01 | 1486271446.62292 | pgbench_tellers  |            49152
 2017-02-05 06:10:46.622922+01 | 1486271446.62292 | pgbench_history  |                0
 2017-02-05 06:10:46.622922+01 | 1486271446.62292 | pgbench_branches |             8192

 2017-02-05 06:10:47.707447+01 | 1486271447.70745 | pgbench_accounts |       1391968256
 2017-02-05 06:10:47.707447+01 | 1486271447.70745 | pgbench_tellers  |            49152
 2017-02-05 06:10:47.707447+01 | 1486271447.70745 | pgbench_history  |                0
 2017-02-05 06:10:47.707447+01 | 1486271447.70745 | pgbench_branches |             8192

 2017-02-05 06:10:48.791749+01 | 1486271448.79175 | pgbench_accounts |       1391968256
 2017-02-05 06:10:48.791749+01 | 1486271448.79175 | pgbench_tellers  |            49152
 2017-02-05 06:10:48.791749+01 | 1486271448.79175 | pgbench_history  |                0
 2017-02-05 06:10:48.791749+01 | 1486271448.79175 | pgbench_branches |             8192

 2017-02-05 06:10:49.87045+01 | 1486271449.87045 | pgbench_accounts |       1391968256
 2017-02-05 06:10:49.87045+01 | 1486271449.87045 | pgbench_tellers  |            49152
 2017-02-05 06:10:49.87045+01 | 1486271449.87045 | pgbench_history  |                0
 2017-02-05 06:10:49.87045+01 | 1486271449.87045 | pgbench_branches |             8192

 2017-02-05 06:10:50.944774+01 | 1486271450.94477 | pgbench_accounts |       1391968256
 2017-02-05 06:10:50.944774+01 | 1486271450.94477 | pgbench_tellers  |            49152
 2017-02-05 06:10:50.944774+01 | 1486271450.94477 | pgbench_history  |                0
 2017-02-05 06:10:50.944774+01 | 1486271450.94477 | pgbench_branches |             8192

 2017-02-05 06:10:52.01965+01 | 1486271452.01965 | pgbench_accounts |       1391968256
 2017-02-05 06:10:52.01965+01 | 1486271452.01965 | pgbench_tellers  |            49152
 2017-02-05 06:10:52.01965+01 | 1486271452.01965 | pgbench_history  |                0
 2017-02-05 06:10:52.01965+01 | 1486271452.01965 | pgbench_branches |             8192

 2017-02-05 06:10:53.086656+01 | 1486271453.08666 | pgbench_accounts |       1391968256
 2017-02-05 06:10:53.086656+01 | 1486271453.08666 | pgbench_tellers  |            49152
 2017-02-05 06:10:53.086656+01 | 1486271453.08666 | pgbench_history  |                0
 2017-02-05 06:10:53.086656+01 | 1486271453.08666 | pgbench_branches |             8192

 2017-02-05 06:10:54.16396+01 | 1486271454.16396 | pgbench_accounts |       1391968256
 2017-02-05 06:10:54.16396+01 | 1486271454.16396 | pgbench_tellers  |            49152
 2017-02-05 06:10:54.16396+01 | 1486271454.16396 | pgbench_history  |                0
 2017-02-05 06:10:54.16396+01 | 1486271454.16396 | pgbench_branches |             8192

 2017-02-05 06:10:55.244788+01 | 1486271455.24479 | pgbench_accounts |       1391968256
 2017-02-05 06:10:55.244788+01 | 1486271455.24479 | pgbench_tellers  |            49152
 2017-02-05 06:10:55.244788+01 | 1486271455.24479 | pgbench_history  |                0
 2017-02-05 06:10:55.244788+01 | 1486271455.24479 | pgbench_branches |             8192

 2017-02-05 06:10:56.330167+01 | 1486271456.33017 | pgbench_accounts |       1391968256
 2017-02-05 06:10:56.330167+01 | 1486271456.33017 | pgbench_tellers  |            49152
 2017-02-05 06:10:56.330167+01 | 1486271456.33017 | pgbench_history  |                0
 2017-02-05 06:10:56.330167+01 | 1486271456.33017 | pgbench_branches |             8192

 2017-02-05 06:10:57.412695+01 | 1486271457.41269 | pgbench_accounts |       1391968256
 2017-02-05 06:10:57.412695+01 | 1486271457.41269 | pgbench_tellers  |            49152
 2017-02-05 06:10:57.412695+01 | 1486271457.41269 | pgbench_history  |                0
 2017-02-05 06:10:57.412695+01 | 1486271457.41269 | pgbench_branches |             8192

 2017-02-05 06:10:58.495761+01 | 1486271458.49576 | pgbench_accounts |       1391968256
 2017-02-05 06:10:58.495761+01 | 1486271458.49576 | pgbench_tellers  |            49152
 2017-02-05 06:10:58.495761+01 | 1486271458.49576 | pgbench_history  |                0
 2017-02-05 06:10:58.495761+01 | 1486271458.49576 | pgbench_branches |             8192

 2017-02-05 06:10:59.570736+01 | 1486271459.57074 | pgbench_accounts |       1391968256
 2017-02-05 06:10:59.570736+01 | 1486271459.57074 | pgbench_tellers  |            49152
 2017-02-05 06:10:59.570736+01 | 1486271459.57074 | pgbench_history  |                0
 2017-02-05 06:10:59.570736+01 | 1486271459.57074 | pgbench_branches |             8192

 2017-02-05 06:11:00.654985+01 | 1486271460.65498 | pgbench_accounts |       1391968256
 2017-02-05 06:11:00.654985+01 | 1486271460.65498 | pgbench_tellers  |            49152
 2017-02-05 06:11:00.654985+01 | 1486271460.65498 | pgbench_history  |                0
 2017-02-05 06:11:00.654985+01 | 1486271460.65498 | pgbench_branches |             8192

 2017-02-05 06:11:01.737937+01 | 1486271461.73794 | pgbench_accounts |       1391968256
 2017-02-05 06:11:01.737937+01 | 1486271461.73794 | pgbench_tellers  |            49152
 2017-02-05 06:11:01.737937+01 | 1486271461.73794 | pgbench_history  |                0
 2017-02-05 06:11:01.737937+01 | 1486271461.73794 | pgbench_branches |             8192

 2017-02-05 06:11:02.825062+01 | 1486271462.82506 | pgbench_accounts |       1391968256
 2017-02-05 06:11:02.825062+01 | 1486271462.82506 | pgbench_tellers  |            49152
 2017-02-05 06:11:02.825062+01 | 1486271462.82506 | pgbench_history  |                0
 2017-02-05 06:11:02.825062+01 | 1486271462.82506 | pgbench_branches |             8192

 2017-02-05 06:11:03.899487+01 | 1486271463.89949 | pgbench_accounts |       1391968256
 2017-02-05 06:11:03.899487+01 | 1486271463.89949 | pgbench_tellers  |            49152
 2017-02-05 06:11:03.899487+01 | 1486271463.89949 | pgbench_history  |                0
 2017-02-05 06:11:03.899487+01 | 1486271463.89949 | pgbench_branches |             8192

 2017-02-05 06:11:04.976786+01 | 1486271464.97679 | pgbench_accounts |       1391968256
 2017-02-05 06:11:04.976786+01 | 1486271464.97679 | pgbench_tellers  |            49152
 2017-02-05 06:11:04.976786+01 | 1486271464.97679 | pgbench_history  |                0
 2017-02-05 06:11:04.976786+01 | 1486271464.97679 | pgbench_branches |             8192

 2017-02-05 06:11:06.063031+01 | 1486271466.06303 | pgbench_accounts |       1391968256
 2017-02-05 06:11:06.063031+01 | 1486271466.06303 | pgbench_tellers  |            49152
 2017-02-05 06:11:06.063031+01 | 1486271466.06303 | pgbench_history  |                0
 2017-02-05 06:11:06.063031+01 | 1486271466.06303 | pgbench_branches |             8192

 2017-02-05 06:11:07.148414+01 | 1486271467.14841 | pgbench_accounts |       1391968256
 2017-02-05 06:11:07.148414+01 | 1486271467.14841 | pgbench_tellers  |            49152
 2017-02-05 06:11:07.148414+01 | 1486271467.14841 | pgbench_history  |                0
 2017-02-05 06:11:07.148414+01 | 1486271467.14841 | pgbench_branches |             8192

 2017-02-05 06:11:08.227787+01 | 1486271468.22779 | pgbench_accounts |       1391968256
 2017-02-05 06:11:08.227787+01 | 1486271468.22779 | pgbench_tellers  |            49152
 2017-02-05 06:11:08.227787+01 | 1486271468.22779 | pgbench_history  |                0
 2017-02-05 06:11:08.227787+01 | 1486271468.22779 | pgbench_branches |             8192

 2017-02-05 06:11:09.295014+01 | 1486271469.29501 | pgbench_accounts |       1391968256
 2017-02-05 06:11:09.295014+01 | 1486271469.29501 | pgbench_tellers  |            49152
 2017-02-05 06:11:09.295014+01 | 1486271469.29501 | pgbench_history  |                0
 2017-02-05 06:11:09.295014+01 | 1486271469.29501 | pgbench_branches |             8192

 2017-02-05 06:11:10.373884+01 | 1486271470.37388 | pgbench_accounts |       1391968256
 2017-02-05 06:11:10.373884+01 | 1486271470.37388 | pgbench_tellers  |            49152
 2017-02-05 06:11:10.373884+01 | 1486271470.37388 | pgbench_history  |                0
 2017-02-05 06:11:10.373884+01 | 1486271470.37388 | pgbench_branches |             8192

 2017-02-05 06:11:11.459667+01 | 1486271471.45967 | pgbench_accounts |       1391968256
 2017-02-05 06:11:11.459667+01 | 1486271471.45967 | pgbench_tellers  |            49152
 2017-02-05 06:11:11.459667+01 | 1486271471.45967 | pgbench_history  |                0
 2017-02-05 06:11:11.459667+01 | 1486271471.45967 | pgbench_branches |             8192

 2017-02-05 06:11:12.530364+01 | 1486271472.53036 | pgbench_accounts |       1391968256
 2017-02-05 06:11:12.530364+01 | 1486271472.53036 | pgbench_tellers  |            49152
 2017-02-05 06:11:12.530364+01 | 1486271472.53036 | pgbench_history  |                0
 2017-02-05 06:11:12.530364+01 | 1486271472.53036 | pgbench_branches |             8192

 2017-02-05 06:11:13.608898+01 | 1486271473.6089 | pgbench_accounts |       1391968256
 2017-02-05 06:11:13.608898+01 | 1486271473.6089 | pgbench_tellers  |            49152
 2017-02-05 06:11:13.608898+01 | 1486271473.6089 | pgbench_history  |                0
 2017-02-05 06:11:13.608898+01 | 1486271473.6089 | pgbench_branches |             8192

