 2017-02-04 01:49:00.206633+01 | 1486169340.20663 |                 0 |              17 |                270352 |                 4741 |           13986447 |       2342402 |            22973 |        61725207 |                     0 |      61095153 | 2017-02-04 00:20:10.334424+01

 2017-02-04 01:49:01.289312+01 | 1486169341.28931 |                 0 |              17 |                270352 |                 4741 |           13986447 |       2342402 |            22973 |        61725207 |                     0 |      61107985 | 2017-02-04 00:20:10.334424+01

 2017-02-04 01:49:02.366535+01 | 1486169342.36653 |                 0 |              17 |                270352 |                 4741 |           13986447 |       2342402 |            22973 |        61725207 |                     0 |      61122584 | 2017-02-04 00:20:10.334424+01

 2017-02-04 01:49:03.444411+01 | 1486169343.44441 |                 0 |              17 |                270352 |                 4741 |           13986447 |       2342402 |            22973 |        61725207 |                     0 |      61137057 | 2017-02-04 00:20:10.334424+01

 2017-02-04 01:49:04.520026+01 | 1486169344.52003 |                 0 |              17 |                270352 |                 4741 |           13986447 |       2342402 |            22973 |        61725207 |                     0 |      61155622 | 2017-02-04 00:20:10.334424+01

 2017-02-04 01:49:05.597792+01 | 1486169345.59779 |                 0 |              17 |                270352 |                 4741 |           13986447 |       2342402 |            22973 |        61725207 |                     0 |      61170813 | 2017-02-04 00:20:10.334424+01

 2017-02-04 01:49:06.67811+01 | 1486169346.67811 |                 0 |              17 |                270352 |                 4741 |           13986447 |       2342402 |            22973 |        61725207 |                     0 |      61187973 | 2017-02-04 00:20:10.334424+01

 2017-02-04 01:49:07.757254+01 | 1486169347.75725 |                 0 |              17 |                270352 |                 4741 |           13986447 |       2342402 |            22973 |        61725207 |                     0 |      61201947 | 2017-02-04 00:20:10.334424+01

 2017-02-04 01:49:08.835178+01 | 1486169348.83518 |                 0 |              17 |                270352 |                 4741 |           13986447 |       2342402 |            22973 |        61725207 |                     0 |      61217189 | 2017-02-04 00:20:10.334424+01

 2017-02-04 01:49:09.916071+01 | 1486169349.91607 |                 0 |              17 |                270352 |                 4741 |           13986447 |       2342402 |            22973 |        61725207 |                     0 |      61236105 | 2017-02-04 00:20:10.334424+01

 2017-02-04 01:49:10.997018+01 | 1486169350.99702 |                 0 |              17 |                270352 |                 4741 |           13986447 |       2342402 |            22973 |        61725207 |                     0 |      61251285 | 2017-02-04 00:20:10.334424+01

 2017-02-04 01:49:12.073115+01 | 1486169352.07312 |                 0 |              17 |                270352 |                 4741 |           13986447 |       2342449 |            22973 |        61725207 |                     0 |      61267720 | 2017-02-04 00:20:10.334424+01

 2017-02-04 01:49:13.152773+01 | 1486169353.15277 |                 0 |              17 |                270352 |                 4741 |           13986447 |       2342559 |            22973 |        61725207 |                     0 |      61284932 | 2017-02-04 00:20:10.334424+01

 2017-02-04 01:49:14.23157+01 | 1486169354.23157 |                 0 |              17 |                270352 |                 4741 |           13986447 |       2342681 |            22973 |        61725207 |                     0 |      61301742 | 2017-02-04 00:20:10.334424+01

 2017-02-04 01:49:15.316858+01 | 1486169355.31686 |                 0 |              17 |                270352 |                 4741 |           13986447 |       2342880 |            22973 |        61725207 |                     0 |      61321816 | 2017-02-04 00:20:10.334424+01

 2017-02-04 01:49:16.392083+01 | 1486169356.39208 |                 0 |              17 |                270352 |                 4741 |           13986447 |       2343050 |            22973 |        61725207 |                     0 |      61338490 | 2017-02-04 00:20:10.334424+01

 2017-02-04 01:49:17.467571+01 | 1486169357.46757 |                 0 |              17 |                270352 |                 4741 |           13986447 |       2343236 |            22973 |        61725207 |                     0 |      61356052 | 2017-02-04 00:20:10.334424+01

 2017-02-04 01:49:18.558026+01 | 1486169358.55803 |                 0 |              17 |                270352 |                 4741 |           13986447 |       2343471 |            22973 |        61725207 |                     0 |      61373923 | 2017-02-04 00:20:10.334424+01

 2017-02-04 01:49:19.629298+01 | 1486169359.6293 |                 0 |              17 |                270352 |                 4741 |           13986447 |       2343689 |            22973 |        61725207 |                     0 |      61390911 | 2017-02-04 00:20:10.334424+01

 2017-02-04 01:49:20.707788+01 | 1486169360.70779 |                 0 |              17 |                270352 |                 4741 |           13986447 |       2343933 |            22973 |        61725207 |                     0 |      61408143 | 2017-02-04 00:20:10.334424+01

 2017-02-04 01:49:21.782915+01 | 1486169361.78292 |                 0 |              17 |                270352 |                 4741 |           13986447 |       2344298 |            22974 |        61725207 |                     0 |      61428791 | 2017-02-04 00:20:10.334424+01

 2017-02-04 01:49:22.854097+01 | 1486169362.8541 |                 0 |              17 |                270352 |                 4741 |           13986447 |       2344798 |            22979 |        61725207 |                     0 |      61445639 | 2017-02-04 00:20:10.334424+01

 2017-02-04 01:49:23.925977+01 | 1486169363.92598 |                 0 |              17 |                270352 |                 4741 |           13986447 |       2345298 |            22984 |        61725207 |                     0 |      61462866 | 2017-02-04 00:20:10.334424+01

 2017-02-04 01:49:24.999944+01 | 1486169364.99994 |                 0 |              17 |                270352 |                 4741 |           13986447 |       2345898 |            22990 |        61725207 |                     0 |      61484063 | 2017-02-04 00:20:10.334424+01

 2017-02-04 01:49:26.075444+01 | 1486169366.07544 |                 0 |              17 |                270352 |                 4741 |           13986447 |       2346398 |            22995 |        61725207 |                     0 |      61499333 | 2017-02-04 00:20:10.334424+01

 2017-02-04 01:49:27.155427+01 | 1486169367.15543 |                 0 |              17 |                270352 |                 4741 |           13986447 |       2346898 |            23000 |        61725207 |                     0 |      61516736 | 2017-02-04 00:20:10.334424+01

 2017-02-04 01:49:28.225787+01 | 1486169368.22579 |                 0 |              17 |                270352 |                 4741 |           13986447 |       2347498 |            23006 |        61725207 |                     0 |      61538569 | 2017-02-04 00:20:10.334424+01

 2017-02-04 01:49:29.299961+01 | 1486169369.29996 |                 0 |              17 |                270352 |                 4741 |           13986447 |       2347998 |            23011 |        61725207 |                     0 |      61556710 | 2017-02-04 00:20:10.334424+01

 2017-02-04 01:49:30.385147+01 | 1486169370.38515 |                 0 |              17 |                270352 |                 4741 |           13986447 |       2348498 |            23016 |        61725207 |                     0 |      61575234 | 2017-02-04 00:20:10.334424+01

 2017-02-04 01:49:31.464126+01 | 1486169371.46413 |                 0 |              17 |                270352 |                 4741 |           13986447 |       2349098 |            23022 |        61725207 |                     0 |      61594130 | 2017-02-04 00:20:10.334424+01

 2017-02-04 01:49:32.54334+01 | 1486169372.54334 |                 0 |              17 |                270352 |                 4741 |           13986447 |       2349598 |            23027 |        61725207 |                     0 |      61608842 | 2017-02-04 00:20:10.334424+01

 2017-02-04 01:49:33.623198+01 | 1486169373.6232 |                 0 |              17 |                270352 |                 4741 |           13986447 |       2350098 |            23032 |        61725207 |                     0 |      61623645 | 2017-02-04 00:20:10.334424+01

 2017-02-04 01:49:34.699834+01 | 1486169374.69983 |                 0 |              17 |                270352 |                 4741 |           13986447 |       2350698 |            23038 |        61725207 |                     0 |      61642080 | 2017-02-04 00:20:10.334424+01

 2017-02-04 01:49:35.775122+01 | 1486169375.77512 |                 0 |              17 |                270352 |                 4741 |           13986447 |       2351198 |            23043 |        61725207 |                     0 |      61657938 | 2017-02-04 00:20:10.334424+01

 2017-02-04 01:49:36.851614+01 | 1486169376.85161 |                 0 |              17 |                270352 |                 4741 |           13986447 |       2351698 |            23048 |        61725207 |                     0 |      61673358 | 2017-02-04 00:20:10.334424+01

 2017-02-04 01:49:37.93055+01 | 1486169377.93055 |                 0 |              17 |                270352 |                 4741 |           13986447 |       2352298 |            23054 |        61725207 |                     0 |      61690656 | 2017-02-04 00:20:10.334424+01

 2017-02-04 01:49:39.008264+01 | 1486169379.00826 |                 0 |              17 |                270352 |                 4741 |           13986447 |       2352798 |            23059 |        61725207 |                     0 |      61706633 | 2017-02-04 00:20:10.334424+01

 2017-02-04 01:49:40.084515+01 | 1486169380.08452 |                 0 |              17 |                270352 |                 4741 |           13986447 |       2353298 |            23064 |        61725207 |                     0 |      61721334 | 2017-02-04 00:20:10.334424+01

 2017-02-04 01:49:41.154536+01 | 1486169381.15454 |                 0 |              17 |                270352 |                 4741 |           13986447 |       2353898 |            23070 |        61725207 |                     0 |      61738816 | 2017-02-04 00:20:10.334424+01

 2017-02-04 01:49:42.234657+01 | 1486169382.23466 |                 0 |              17 |                270352 |                 4741 |           13986447 |       2354398 |            23075 |        61725207 |                     0 |      61754074 | 2017-02-04 00:20:10.334424+01

 2017-02-04 01:49:43.299393+01 | 1486169383.29939 |                 0 |              17 |                270352 |                 4741 |           13986447 |       2354698 |            23078 |        61725207 |                     0 |      61762381 | 2017-02-04 00:20:10.334424+01

 2017-02-04 01:49:44.358822+01 | 1486169384.35882 |                 0 |              17 |                270352 |                 4741 |           13986447 |       2355398 |            23085 |        61725207 |                     0 |      61783286 | 2017-02-04 00:20:10.334424+01

 2017-02-04 01:49:45.43158+01 | 1486169385.43158 |                 0 |              17 |                270352 |                 4741 |           13986447 |       2355998 |            23091 |        61725207 |                     0 |      61801212 | 2017-02-04 00:20:10.334424+01

 2017-02-04 01:49:46.50639+01 | 1486169386.50639 |                 0 |              17 |                270352 |                 4741 |           13986447 |       2356498 |            23096 |        61725207 |                     0 |      61814448 | 2017-02-04 00:20:10.334424+01

 2017-02-04 01:49:47.592967+01 | 1486169387.59297 |                 0 |              17 |                270352 |                 4741 |           13986447 |       2356998 |            23101 |        61725207 |                     0 |      61829869 | 2017-02-04 00:20:10.334424+01

 2017-02-04 01:49:48.673178+01 | 1486169388.67318 |                 0 |              17 |                270352 |                 4741 |           13986447 |       2357598 |            23107 |        61725207 |                     0 |      61847458 | 2017-02-04 00:20:10.334424+01

 2017-02-04 01:49:49.749226+01 | 1486169389.74923 |                 0 |              17 |                270352 |                 4741 |           13986447 |       2358098 |            23112 |        61725207 |                     0 |      61861563 | 2017-02-04 00:20:10.334424+01

 2017-02-04 01:49:50.829518+01 | 1486169390.82952 |                 0 |              17 |                270352 |                 4741 |           13986447 |       2358598 |            23117 |        61725207 |                     0 |      61876192 | 2017-02-04 00:20:10.334424+01

 2017-02-04 01:49:51.907447+01 | 1486169391.90745 |                 0 |              17 |                270352 |                 4741 |           13986447 |       2359198 |            23123 |        61725207 |                     0 |      61892634 | 2017-02-04 00:20:10.334424+01

 2017-02-04 01:49:52.984097+01 | 1486169392.9841 |                 0 |              17 |                270352 |                 4741 |           13986447 |       2359698 |            23128 |        61725207 |                     0 |      61907911 | 2017-02-04 00:20:10.334424+01

 2017-02-04 01:49:54.057318+01 | 1486169394.05732 |                 0 |              17 |                270352 |                 4741 |           13986447 |       2360198 |            23133 |        61725207 |                     0 |      61923646 | 2017-02-04 00:20:10.334424+01

 2017-02-04 01:49:55.130693+01 | 1486169395.13069 |                 0 |              17 |                270352 |                 4741 |           13986447 |       2360798 |            23139 |        61725207 |                     0 |      61941430 | 2017-02-04 00:20:10.334424+01

 2017-02-04 01:49:56.197282+01 | 1486169396.19728 |                 0 |              17 |                270352 |                 4741 |           13986447 |       2361298 |            23144 |        61725207 |                     0 |      61955865 | 2017-02-04 00:20:10.334424+01

 2017-02-04 01:49:57.271146+01 | 1486169397.27115 |                 0 |              17 |                270352 |                 4741 |           13986447 |       2361798 |            23149 |        61725207 |                     0 |      61968907 | 2017-02-04 00:20:10.334424+01

 2017-02-04 01:49:58.3434+01 | 1486169398.3434 |                 0 |              17 |                270352 |                 4741 |           13986447 |       2362398 |            23155 |        61725207 |                     0 |      61986857 | 2017-02-04 00:20:10.334424+01

 2017-02-04 01:49:59.417554+01 | 1486169399.41755 |                 0 |              17 |                270352 |                 4741 |           13986447 |       2362898 |            23160 |        61725207 |                     0 |      62001297 | 2017-02-04 00:20:10.334424+01

 2017-02-04 01:50:00.48997+01 | 1486169400.48997 |                 0 |              17 |                270352 |                 4741 |           13986447 |       2363398 |            23165 |        61725207 |                     0 |      62016828 | 2017-02-04 00:20:10.334424+01

 2017-02-04 01:50:01.559589+01 | 1486169401.55959 |                 0 |              17 |                270352 |                 4741 |           13986447 |       2363998 |            23171 |        61725207 |                     0 |      62031259 | 2017-02-04 00:20:10.334424+01

 2017-02-04 01:50:02.629727+01 | 1486169402.62973 |                 0 |              17 |                270352 |                 4741 |           13986447 |       2364498 |            23176 |        61725207 |                     0 |      62037388 | 2017-02-04 00:20:10.334424+01

 2017-02-04 01:50:03.713413+01 | 1486169403.71341 |                 0 |              17 |                270352 |                 4741 |           13986447 |       2364998 |            23181 |        61725207 |                     0 |      62047326 | 2017-02-04 00:20:10.334424+01

 2017-02-04 01:50:04.788902+01 | 1486169404.7889 |                 0 |              17 |                270352 |                 4741 |           13986447 |       2365598 |            23187 |        61725207 |                     0 |      62063930 | 2017-02-04 00:20:10.334424+01

 2017-02-04 01:50:05.863081+01 | 1486169405.86308 |                 0 |              17 |                270352 |                 4741 |           13986447 |       2366098 |            23192 |        62225999 |                     0 |      62079309 | 2017-02-04 00:20:10.334424+01

 2017-02-04 01:50:06.939808+01 | 1486169406.93981 |                 0 |              17 |                270352 |                 4741 |           13986447 |       2366598 |            23197 |        62225999 |                     0 |      62092454 | 2017-02-04 00:20:10.334424+01

 2017-02-04 01:50:08.017939+01 | 1486169408.01794 |                 0 |              17 |                270352 |                 4741 |           13986447 |       2367198 |            23203 |        62225999 |                     0 |      62110788 | 2017-02-04 00:20:10.334424+01

 2017-02-04 01:50:09.09447+01 | 1486169409.09447 |                 0 |              17 |                270352 |                 4741 |           13986447 |       2367698 |            23208 |        62225999 |                     0 |      62124438 | 2017-02-04 00:20:10.334424+01

 2017-02-04 01:50:10.169999+01 | 1486169410.17 |                 0 |              17 |                270352 |                 4741 |           13986447 |       2368198 |            23213 |        62225999 |                     0 |      62139766 | 2017-02-04 00:20:10.334424+01

 2017-02-04 01:50:11.248859+01 | 1486169411.24886 |                 0 |              17 |                270352 |                 4741 |           13986447 |       2368798 |            23219 |        62225999 |                     0 |      62155380 | 2017-02-04 00:20:10.334424+01

 2017-02-04 01:50:12.31943+01 | 1486169412.31943 |                 0 |              17 |                270352 |                 4741 |           13986447 |       2369298 |            23224 |        62225999 |                     0 |      62167428 | 2017-02-04 00:20:10.334424+01

 2017-02-04 01:50:13.398077+01 | 1486169413.39808 |                 0 |              17 |                270352 |                 4741 |           13986447 |       2369798 |            23229 |        62225999 |                     0 |      62177729 | 2017-02-04 00:20:10.334424+01

 2017-02-04 01:50:14.4721+01 | 1486169414.4721 |                 0 |              17 |                270352 |                 4741 |           13986447 |       2370398 |            23235 |        62225999 |                     0 |      62191466 | 2017-02-04 00:20:10.334424+01

 2017-02-04 01:50:15.546983+01 | 1486169415.54698 |                 0 |              17 |                270352 |                 4741 |           13986447 |       2370898 |            23240 |        62225999 |                     0 |      62201359 | 2017-02-04 00:20:10.334424+01

 2017-02-04 01:50:16.621511+01 | 1486169416.62151 |                 0 |              17 |                270352 |                 4741 |           13986447 |       2371398 |            23245 |        62225999 |                     0 |      62213897 | 2017-02-04 00:20:10.334424+01

 2017-02-04 01:50:17.694142+01 | 1486169417.69414 |                 0 |              17 |                270352 |                 4741 |           13986447 |       2371998 |            23251 |        62225999 |                     0 |      62229259 | 2017-02-04 00:20:10.334424+01

 2017-02-04 01:50:18.77131+01 | 1486169418.77131 |                 0 |              17 |                270352 |                 4741 |           13986447 |       2372498 |            23256 |        62225999 |                     0 |      62238987 | 2017-02-04 00:20:10.334424+01

 2017-02-04 01:50:19.858614+01 | 1486169419.85861 |                 0 |              17 |                270352 |                 4741 |           13986447 |       2372998 |            23261 |        62225999 |                     0 |      62250594 | 2017-02-04 00:20:10.334424+01

 2017-02-04 01:50:20.941414+01 | 1486169420.94141 |                 0 |              17 |                270352 |                 4741 |           13986447 |       2373598 |            23267 |        62225999 |                     0 |      62263432 | 2017-02-04 00:20:10.334424+01

 2017-02-04 01:50:22.01344+01 | 1486169422.01344 |                 0 |              17 |                270352 |                 4741 |           13986447 |       2374098 |            23272 |        62225999 |                     0 |      62278590 | 2017-02-04 00:20:10.334424+01

 2017-02-04 01:50:23.092494+01 | 1486169423.09249 |                 0 |              17 |                270352 |                 4741 |           13986447 |       2374598 |            23277 |        62225999 |                     0 |      62292753 | 2017-02-04 00:20:10.334424+01

 2017-02-04 01:50:24.16951+01 | 1486169424.16951 |                 0 |              17 |                270352 |                 4741 |           13986447 |       2375198 |            23283 |        62225999 |                     0 |      62308762 | 2017-02-04 00:20:10.334424+01

 2017-02-04 01:50:25.258735+01 | 1486169425.25873 |                 0 |              17 |                270352 |                 4741 |           13986447 |       2375698 |            23288 |        62225999 |                     0 |      62324172 | 2017-02-04 00:20:10.334424+01

 2017-02-04 01:50:26.342169+01 | 1486169426.34217 |                 0 |              17 |                270352 |                 4741 |           13986447 |       2376198 |            23293 |        62225999 |                     0 |      62338328 | 2017-02-04 00:20:10.334424+01

 2017-02-04 01:50:27.419774+01 | 1486169427.41977 |                 0 |              17 |                270352 |                 4741 |           13986447 |       2376798 |            23299 |        62225999 |                     0 |      62356556 | 2017-02-04 00:20:10.334424+01

 2017-02-04 01:50:28.496676+01 | 1486169428.49668 |                 0 |              17 |                270352 |                 4741 |           13986447 |       2377298 |            23304 |        62225999 |                     0 |      62370902 | 2017-02-04 00:20:10.334424+01

 2017-02-04 01:50:29.580068+01 | 1486169429.58007 |                 0 |              17 |                270352 |                 4741 |           13986447 |       2377798 |            23309 |        62225999 |                     0 |      62385951 | 2017-02-04 00:20:10.334424+01

 2017-02-04 01:50:30.656461+01 | 1486169430.65646 |                 0 |              17 |                270352 |                 4741 |           13986447 |       2378398 |            23315 |        62225999 |                     0 |      62402226 | 2017-02-04 00:20:10.334424+01

 2017-02-04 01:50:31.732257+01 | 1486169431.73226 |                 0 |              17 |                270352 |                 4741 |           13986447 |       2378898 |            23320 |        62225999 |                     0 |      62417015 | 2017-02-04 00:20:10.334424+01

 2017-02-04 01:50:32.80863+01 | 1486169432.80863 |                 0 |              17 |                270352 |                 4741 |           13986447 |       2379398 |            23325 |        62225999 |                     0 |      62429834 | 2017-02-04 00:20:10.334424+01

 2017-02-04 01:50:33.883598+01 | 1486169433.8836 |                 0 |              17 |                270352 |                 4741 |           13986447 |       2379998 |            23331 |        62225999 |                     0 |      62447145 | 2017-02-04 00:20:10.334424+01

 2017-02-04 01:50:34.947906+01 | 1486169434.94791 |                 0 |              17 |                270352 |                 4741 |           13986447 |       2380498 |            23336 |        62225999 |                     0 |      62461528 | 2017-02-04 00:20:10.334424+01

 2017-02-04 01:50:36.021+01 | 1486169436.021 |                 0 |              17 |                270352 |                 4741 |           13986447 |       2380998 |            23341 |        62225999 |                     0 |      62474803 | 2017-02-04 00:20:10.334424+01

 2017-02-04 01:50:37.09694+01 | 1486169437.09694 |                 0 |              17 |                270352 |                 4741 |           13986447 |       2381598 |            23347 |        62225999 |                     0 |      62492960 | 2017-02-04 00:20:10.334424+01

 2017-02-04 01:50:38.196406+01 | 1486169438.19641 |                 0 |              17 |                270352 |                 4741 |           13986447 |       2382098 |            23352 |        62225999 |                     0 |      62506986 | 2017-02-04 00:20:10.334424+01

 2017-02-04 01:50:39.270883+01 | 1486169439.27088 |                 0 |              17 |                270352 |                 4741 |           13986447 |       2382598 |            23357 |        62225999 |                     0 |      62519671 | 2017-02-04 00:20:10.334424+01

 2017-02-04 01:50:40.352582+01 | 1486169440.35258 |                 0 |              17 |                270352 |                 4741 |           13986447 |       2383198 |            23363 |        62225999 |                     0 |      62536782 | 2017-02-04 00:20:10.334424+01

 2017-02-04 01:50:41.426415+01 | 1486169441.42641 |                 0 |              17 |                270352 |                 4741 |           13986447 |       2383698 |            23368 |        62732688 |                     0 |      62550123 | 2017-02-04 00:20:10.334424+01

 2017-02-04 01:50:42.498972+01 | 1486169442.49897 |                 0 |              17 |                270352 |                 4741 |           13986447 |       2384198 |            23373 |        62732688 |                     0 |      62563974 | 2017-02-04 00:20:10.334424+01

 2017-02-04 01:50:43.586131+01 | 1486169443.58613 |                 0 |              17 |                270352 |                 4741 |           13986447 |       2384798 |            23379 |        62732688 |                     0 |      62581054 | 2017-02-04 00:20:10.334424+01

 2017-02-04 01:50:44.652188+01 | 1486169444.65219 |                 0 |              17 |                270352 |                 4741 |           13986447 |       2385198 |            23383 |        62732688 |                     0 |      62591708 | 2017-02-04 00:20:10.334424+01

 2017-02-04 01:50:45.726278+01 | 1486169445.72628 |                 0 |              17 |                270352 |                 4741 |           13986447 |       2385798 |            23389 |        62732688 |                     0 |      62609770 | 2017-02-04 00:20:10.334424+01

 2017-02-04 01:50:46.801086+01 | 1486169446.80109 |                 0 |              17 |                270352 |                 4741 |           13986447 |       2386398 |            23395 |        62732688 |                     0 |      62626312 | 2017-02-04 00:20:10.334424+01

 2017-02-04 01:50:47.879442+01 | 1486169447.87944 |                 0 |              17 |                270352 |                 4741 |           13986447 |       2386898 |            23400 |        62732688 |                     0 |      62639667 | 2017-02-04 00:20:10.334424+01

 2017-02-04 01:50:48.951908+01 | 1486169448.95191 |                 0 |              17 |                270352 |                 4741 |           13986447 |       2387398 |            23405 |        62732688 |                     0 |      62653205 | 2017-02-04 00:20:10.334424+01

 2017-02-04 01:50:50.027658+01 | 1486169450.02766 |                 0 |              17 |                270352 |                 4741 |           13986447 |       2387998 |            23411 |        62732688 |                     0 |      62665627 | 2017-02-04 00:20:10.334424+01

 2017-02-04 01:50:51.107092+01 | 1486169451.10709 |                 0 |              17 |                270352 |                 4741 |           13986447 |       2388498 |            23416 |        62732688 |                     0 |      62675220 | 2017-02-04 00:20:10.334424+01

 2017-02-04 01:50:52.185148+01 | 1486169452.18515 |                 0 |              17 |                270352 |                 4741 |           13986447 |       2388998 |            23421 |        62732688 |                     0 |      62685099 | 2017-02-04 00:20:10.334424+01

 2017-02-04 01:50:53.2591+01 | 1486169453.2591 |                 0 |              17 |                270352 |                 4741 |           13986447 |       2389598 |            23427 |        62732688 |                     0 |      62696960 | 2017-02-04 00:20:10.334424+01

 2017-02-04 01:50:54.335291+01 | 1486169454.33529 |                 0 |              17 |                270352 |                 4741 |           13986447 |       2390098 |            23432 |        62732688 |                     0 |      62706104 | 2017-02-04 00:20:10.334424+01

 2017-02-04 01:50:55.417691+01 | 1486169455.41769 |                 0 |              17 |                270352 |                 4741 |           13986447 |       2390598 |            23437 |        62732688 |                     0 |      62717275 | 2017-02-04 00:20:10.334424+01

 2017-02-04 01:50:56.502754+01 | 1486169456.50275 |                 0 |              17 |                270352 |                 4741 |           13986447 |       2391198 |            23443 |        62732688 |                     0 |      62726664 | 2017-02-04 00:20:10.334424+01

 2017-02-04 01:50:57.575346+01 | 1486169457.57535 |                 0 |              17 |                270352 |                 4741 |           13986447 |       2391698 |            23448 |        62732688 |                     0 |      62737500 | 2017-02-04 00:20:10.334424+01

 2017-02-04 01:50:58.659526+01 | 1486169458.65953 |                 0 |              17 |                270352 |                 4741 |           13986447 |       2392198 |            23453 |        62732688 |                     0 |      62748734 | 2017-02-04 00:20:10.334424+01

 2017-02-04 01:50:59.738031+01 | 1486169459.73803 |                 0 |              17 |                270352 |                 4741 |           13986447 |       2392798 |            23459 |        62732688 |                     0 |      62759134 | 2017-02-04 00:20:10.334424+01

 2017-02-04 01:51:00.816383+01 | 1486169460.81638 |                 0 |              17 |                270352 |                 4741 |           13986447 |       2393298 |            23464 |        62732688 |                     0 |      62772414 | 2017-02-04 00:20:10.334424+01

 2017-02-04 01:51:01.891082+01 | 1486169461.89108 |                 0 |              17 |                270352 |                 4741 |           13986447 |       2393798 |            23469 |        62732688 |                     0 |      62782710 | 2017-02-04 00:20:10.334424+01

 2017-02-04 01:51:02.969614+01 | 1486169462.96961 |                 0 |              17 |                270352 |                 4741 |           13986447 |       2394398 |            23475 |        62732688 |                     0 |      62798784 | 2017-02-04 00:20:10.334424+01

 2017-02-04 01:51:04.046047+01 | 1486169464.04605 |                 0 |              17 |                270352 |                 4741 |           13986447 |       2394898 |            23480 |        62732688 |                     0 |      62812742 | 2017-02-04 00:20:10.334424+01

 2017-02-04 01:51:05.121341+01 | 1486169465.12134 |                 0 |              17 |                270352 |                 4741 |           13986447 |       2395398 |            23485 |        62732688 |                     0 |      62825001 | 2017-02-04 00:20:10.334424+01

 2017-02-04 01:51:06.195135+01 | 1486169466.19514 |                 0 |              17 |                270352 |                 4741 |           13986447 |       2395998 |            23491 |        62732688 |                     0 |      62841471 | 2017-02-04 00:20:10.334424+01

 2017-02-04 01:51:07.264681+01 | 1486169467.26468 |                 0 |              17 |                270352 |                 4741 |           13986447 |       2396498 |            23496 |        62732688 |                     0 |      62855615 | 2017-02-04 00:20:10.334424+01

 2017-02-04 01:51:08.341771+01 | 1486169468.34177 |                 0 |              17 |                270352 |                 4741 |           13986447 |       2396998 |            23501 |        62732688 |                     0 |      62869133 | 2017-02-04 00:20:10.334424+01

 2017-02-04 01:51:09.419181+01 | 1486169469.41918 |                 0 |              17 |                270352 |                 4741 |           13986447 |       2397598 |            23507 |        62732688 |                     0 |      62885550 | 2017-02-04 00:20:10.334424+01

 2017-02-04 01:51:10.498156+01 | 1486169470.49816 |                 0 |              17 |                270352 |                 4741 |           13986447 |       2398098 |            23512 |        62732688 |                     0 |      62898889 | 2017-02-04 00:20:10.334424+01

 2017-02-04 01:51:11.572073+01 | 1486169471.57207 |                 0 |              17 |                270352 |                 4741 |           13986447 |       2398598 |            23517 |        62732688 |                     0 |      62911897 | 2017-02-04 00:20:10.334424+01

 2017-02-04 01:51:12.652197+01 | 1486169472.6522 |                 0 |              17 |                270352 |                 4741 |           13986447 |       2399198 |            23523 |        62732688 |                     0 |      62929511 | 2017-02-04 00:20:10.334424+01

 2017-02-04 01:51:13.729384+01 | 1486169473.72938 |                 0 |              17 |                270352 |                 4741 |           13986447 |       2399698 |            23528 |        62732688 |                     0 |      62942483 | 2017-02-04 00:20:10.334424+01

 2017-02-04 01:51:14.805645+01 | 1486169474.80564 |                 0 |              17 |                270352 |                 4741 |           13986447 |       2400198 |            23533 |        62732688 |                     0 |      62957100 | 2017-02-04 00:20:10.334424+01

 2017-02-04 01:51:15.879456+01 | 1486169475.87946 |                 0 |              17 |                270352 |                 4741 |           13986447 |       2400798 |            23539 |        62732688 |                     0 |      62973554 | 2017-02-04 00:20:10.334424+01

 2017-02-04 01:51:16.959693+01 | 1486169476.95969 |                 0 |              17 |                270352 |                 4741 |           13986447 |       2401298 |            23544 |        62732688 |                     0 |      62988064 | 2017-02-04 00:20:10.334424+01

 2017-02-04 01:51:18.041296+01 | 1486169478.0413 |                 0 |              17 |                270352 |                 4741 |           13986447 |       2401798 |            23549 |        62732688 |                     0 |      63002644 | 2017-02-04 00:20:10.334424+01

 2017-02-04 01:51:19.114428+01 | 1486169479.11443 |                 0 |              17 |                270352 |                 4741 |           13986447 |       2402398 |            23555 |        62732688 |                     0 |      63019600 | 2017-02-04 00:20:10.334424+01

 2017-02-04 01:51:20.20268+01 | 1486169480.20268 |                 0 |              17 |                270352 |                 4741 |           13986447 |       2402898 |            23560 |        63238079 |                     0 |      63034371 | 2017-02-04 00:20:10.334424+01

 2017-02-04 01:51:21.276726+01 | 1486169481.27673 |                 0 |              17 |                270352 |                 4741 |           13986447 |       2403498 |            23566 |        63238079 |                     0 |      63050244 | 2017-02-04 00:20:10.334424+01

 2017-02-04 01:51:22.359493+01 | 1486169482.35949 |                 0 |              17 |                270352 |                 4741 |           13986447 |       2403998 |            23571 |        63238079 |                     0 |      63065462 | 2017-02-04 00:20:10.334424+01

 2017-02-04 01:51:23.434848+01 | 1486169483.43485 |                 0 |              17 |                270352 |                 4741 |           13986447 |       2404498 |            23576 |        63238079 |                     0 |      63078875 | 2017-02-04 00:20:10.334424+01

 2017-02-04 01:51:24.508765+01 | 1486169484.50876 |                 0 |              17 |                270352 |                 4741 |           13986447 |       2405098 |            23582 |        63238079 |                     0 |      63096788 | 2017-02-04 00:20:10.334424+01

 2017-02-04 01:51:25.586969+01 | 1486169485.58697 |                 0 |              17 |                270352 |                 4741 |           13986447 |       2405598 |            23587 |        63238079 |                     0 |      63107958 | 2017-02-04 00:20:10.334424+01

 2017-02-04 01:51:26.66012+01 | 1486169486.66012 |                 0 |              17 |                270352 |                 4741 |           13986447 |       2406098 |            23592 |        63238079 |                     0 |      63118437 | 2017-02-04 00:20:10.334424+01

 2017-02-04 01:51:27.742006+01 | 1486169487.74201 |                 0 |              17 |                270352 |                 4741 |           13986447 |       2406698 |            23598 |        63238079 |                     0 |      63132123 | 2017-02-04 00:20:10.334424+01

 2017-02-04 01:51:28.834887+01 | 1486169488.83489 |                 0 |              17 |                270352 |                 4741 |           13986447 |       2407198 |            23603 |        63238079 |                     0 |      63141482 | 2017-02-04 00:20:10.334424+01

 2017-02-04 01:51:29.914217+01 | 1486169489.91422 |                 0 |              17 |                270352 |                 4741 |           13986447 |       2407698 |            23608 |        63238079 |                     0 |      63153809 | 2017-02-04 00:20:10.334424+01

 2017-02-04 01:51:30.990963+01 | 1486169490.99096 |                 0 |              17 |                270352 |                 4741 |           13986447 |       2408298 |            23614 |        63238079 |                     0 |      63167285 | 2017-02-04 00:20:10.334424+01

 2017-02-04 01:51:32.070206+01 | 1486169492.07021 |                 0 |              17 |                270352 |                 4741 |           13986447 |       2408798 |            23619 |        63238079 |                     0 |      63181597 | 2017-02-04 00:20:10.334424+01

 2017-02-04 01:51:33.152688+01 | 1486169493.15269 |                 0 |              17 |                270352 |                 4741 |           13986447 |       2409298 |            23624 |        63238079 |                     0 |      63197261 | 2017-02-04 00:20:10.334424+01

 2017-02-04 01:51:34.228172+01 | 1486169494.22817 |                 0 |              17 |                270352 |                 4741 |           13986447 |       2409898 |            23630 |        63238079 |                     0 |      63214058 | 2017-02-04 00:20:10.334424+01

 2017-02-04 01:51:35.294739+01 | 1486169495.29474 |                 0 |              17 |                270352 |                 4741 |           13986447 |       2410398 |            23635 |        63238079 |                     0 |      63228539 | 2017-02-04 00:20:10.334424+01

 2017-02-04 01:51:36.369517+01 | 1486169496.36952 |                 0 |              17 |                270352 |                 4741 |           13986447 |       2410898 |            23640 |        63238079 |                     0 |      63241889 | 2017-02-04 00:20:10.334424+01

 2017-02-04 01:51:37.454881+01 | 1486169497.45488 |                 0 |              17 |                270352 |                 4741 |           13986447 |       2411498 |            23646 |        63238079 |                     0 |      63258863 | 2017-02-04 00:20:10.334424+01

 2017-02-04 01:51:38.534609+01 | 1486169498.53461 |                 0 |              17 |                270352 |                 4741 |           13986447 |       2411998 |            23651 |        63238079 |                     0 |      63273969 | 2017-02-04 00:20:10.334424+01

 2017-02-04 01:51:39.610746+01 | 1486169499.61075 |                 0 |              17 |                270352 |                 4741 |           13986447 |       2412498 |            23656 |        63238079 |                     0 |      63289085 | 2017-02-04 00:20:10.334424+01

 2017-02-04 01:51:40.687886+01 | 1486169500.68789 |                 0 |              17 |                270352 |                 4741 |           13986447 |       2413098 |            23662 |        63238079 |                     0 |      63305742 | 2017-02-04 00:20:10.334424+01

 2017-02-04 01:51:41.763313+01 | 1486169501.76331 |                 0 |              17 |                270352 |                 4741 |           13986447 |       2413598 |            23667 |        63238079 |                     0 |      63320730 | 2017-02-04 00:20:10.334424+01

 2017-02-04 01:51:42.837174+01 | 1486169502.83717 |                 0 |              17 |                270352 |                 4741 |           13986447 |       2414098 |            23672 |        63238079 |                     0 |      63335457 | 2017-02-04 00:20:10.334424+01

 2017-02-04 01:51:43.908506+01 | 1486169503.90851 |                 0 |              17 |                270352 |                 4741 |           13986447 |       2414698 |            23678 |        63238079 |                     0 |      63353391 | 2017-02-04 00:20:10.334424+01

 2017-02-04 01:51:44.980725+01 | 1486169504.98073 |                 0 |              17 |                270352 |                 4741 |           13986447 |       2415198 |            23683 |        63238079 |                     0 |      63366734 | 2017-02-04 00:20:10.334424+01

 2017-02-04 01:51:46.056033+01 | 1486169506.05603 |                 0 |              17 |                270352 |                 4741 |           13986447 |       2415698 |            23688 |        63238079 |                     0 |      63382443 | 2017-02-04 00:20:10.334424+01

 2017-02-04 01:51:47.128105+01 | 1486169507.1281 |                 0 |              17 |                270352 |                 4741 |           13986447 |       2416298 |            23694 |        63238079 |                     0 |      63399383 | 2017-02-04 00:20:10.334424+01

 2017-02-04 01:51:48.204078+01 | 1486169508.20408 |                 0 |              17 |                270352 |                 4741 |           13986447 |       2416798 |            23699 |        63238079 |                     0 |      63415161 | 2017-02-04 00:20:10.334424+01

 2017-02-04 01:51:49.28576+01 | 1486169509.28576 |                 0 |              17 |                270352 |                 4741 |           13986447 |       2417298 |            23704 |        63238079 |                     0 |      63430329 | 2017-02-04 00:20:10.334424+01

 2017-02-04 01:51:50.364115+01 | 1486169510.36411 |                 0 |              17 |                270352 |                 4741 |           13986447 |       2417898 |            23710 |        63238079 |                     0 |      63448134 | 2017-02-04 00:20:10.334424+01

 2017-02-04 01:51:51.438251+01 | 1486169511.43825 |                 0 |              17 |                270352 |                 4741 |           13986447 |       2418398 |            23715 |        63238079 |                     0 |      63462545 | 2017-02-04 00:20:10.334424+01

 2017-02-04 01:51:52.511238+01 | 1486169512.51124 |                 0 |              17 |                270352 |                 4741 |           13986447 |       2418898 |            23720 |        63238079 |                     0 |      63475406 | 2017-02-04 00:20:10.334424+01

 2017-02-04 01:51:53.586304+01 | 1486169513.5863 |                 0 |              17 |                270352 |                 4741 |           13986447 |       2419498 |            23726 |        63238079 |                     0 |      63493406 | 2017-02-04 00:20:10.334424+01

 2017-02-04 01:51:54.658296+01 | 1486169514.6583 |                 0 |              17 |                270352 |                 4741 |           13986447 |       2419998 |            23731 |        63745071 |                     0 |      63507934 | 2017-02-04 00:20:10.334424+01

 2017-02-04 01:51:55.729741+01 | 1486169515.72974 |                 0 |              17 |                270352 |                 4741 |           13986447 |       2420498 |            23736 |        63745071 |                     0 |      63523297 | 2017-02-04 00:20:10.334424+01

 2017-02-04 01:51:56.800852+01 | 1486169516.80085 |                 0 |              17 |                270352 |                 4741 |           13986447 |       2421098 |            23742 |        63745071 |                     0 |      63540368 | 2017-02-04 00:20:10.334424+01

 2017-02-04 01:51:57.874119+01 | 1486169517.87412 |                 0 |              17 |                270352 |                 4741 |           13986447 |       2421598 |            23747 |        63745071 |                     0 |      63555455 | 2017-02-04 00:20:10.334424+01

 2017-02-04 01:51:58.950379+01 | 1486169518.95038 |                 0 |              17 |                270352 |                 4741 |           13986447 |       2422098 |            23752 |        63745071 |                     0 |      63569832 | 2017-02-04 00:20:10.334424+01

 2017-02-04 01:52:00.018422+01 | 1486169520.01842 |                 0 |              17 |                270352 |                 4741 |           13986447 |       2422698 |            23758 |        63745071 |                     0 |      63588323 | 2017-02-04 00:20:10.334424+01

 2017-02-04 01:52:01.092898+01 | 1486169521.0929 |                 0 |              17 |                270352 |                 4741 |           13986447 |       2423198 |            23763 |        63745071 |                     0 |      63601743 | 2017-02-04 00:20:10.334424+01

 2017-02-04 01:52:02.175505+01 | 1486169522.1755 |                 0 |              17 |                270352 |                 4741 |           13986447 |       2423698 |            23768 |        63745071 |                     0 |      63617118 | 2017-02-04 00:20:10.334424+01

 2017-02-04 01:52:03.249742+01 | 1486169523.24974 |                 0 |              17 |                270352 |                 4741 |           13986447 |       2424198 |            23773 |        63745071 |                     0 |      63631007 | 2017-02-04 00:20:10.334424+01

 2017-02-04 01:52:04.313324+01 | 1486169524.31332 |                 0 |              17 |                270352 |                 4741 |           13986447 |       2424798 |            23779 |        63745071 |                     0 |      63649194 | 2017-02-04 00:20:10.334424+01

 2017-02-04 01:52:05.383916+01 | 1486169525.38392 |                 0 |              17 |                270352 |                 4741 |           13986447 |       2425298 |            23784 |        63745071 |                     0 |      63663991 | 2017-02-04 00:20:10.334424+01

 2017-02-04 01:52:06.462858+01 | 1486169526.46286 |                 0 |              17 |                270352 |                 4741 |           13986447 |       2425798 |            23789 |        63745071 |                     0 |      63679726 | 2017-02-04 00:20:10.334424+01

 2017-02-04 01:52:07.538754+01 | 1486169527.53875 |                 0 |              17 |                270352 |                 4741 |           13986447 |       2426398 |            23795 |        63745071 |                     0 |      63693843 | 2017-02-04 00:20:10.334424+01

 2017-02-04 01:52:08.615573+01 | 1486169528.61557 |                 0 |              17 |                270352 |                 4741 |           13986447 |       2426898 |            23800 |        63745071 |                     0 |      63706298 | 2017-02-04 00:20:10.334424+01

 2017-02-04 01:52:09.688911+01 | 1486169529.68891 |                 0 |              17 |                270352 |                 4741 |           13986447 |       2427398 |            23805 |        63745071 |                     0 |      63717064 | 2017-02-04 00:20:10.334424+01

 2017-02-04 01:52:10.762984+01 | 1486169530.76298 |                 0 |              17 |                270352 |                 4741 |           13986447 |       2427998 |            23811 |        63745071 |                     0 |      63731764 | 2017-02-04 00:20:10.334424+01

 2017-02-04 01:52:11.839451+01 | 1486169531.83945 |                 0 |              17 |                270352 |                 4741 |           13986447 |       2428498 |            23816 |        63745071 |                     0 |      63742702 | 2017-02-04 00:20:10.334424+01

 2017-02-04 01:52:12.939242+01 | 1486169532.93924 |                 0 |              17 |                270352 |                 4741 |           13986447 |       2428998 |            23821 |        63745071 |                     0 |      63755553 | 2017-02-04 00:20:10.334424+01

 2017-02-04 01:52:14.017769+01 | 1486169534.01777 |                 0 |              17 |                270352 |                 4741 |           13986447 |       2429598 |            23827 |        63745071 |                     0 |      63770786 | 2017-02-04 00:20:10.334424+01

 2017-02-04 01:52:15.094862+01 | 1486169535.09486 |                 0 |              17 |                270352 |                 4741 |           13986447 |       2430098 |            23832 |        63745071 |                     0 |      63784262 | 2017-02-04 00:20:10.334424+01

 2017-02-04 01:52:16.177374+01 | 1486169536.17737 |                 0 |              17 |                270352 |                 4741 |           13986447 |       2430598 |            23837 |        63745071 |                     0 |      63797742 | 2017-02-04 00:20:10.334424+01

 2017-02-04 01:52:17.257563+01 | 1486169537.25756 |                 0 |              17 |                270352 |                 4741 |           13986447 |       2431198 |            23843 |        63745071 |                     0 |      63813972 | 2017-02-04 00:20:10.334424+01

 2017-02-04 01:52:18.335003+01 | 1486169538.335 |                 0 |              17 |                270352 |                 4741 |           13986447 |       2431698 |            23848 |        63745071 |                     0 |      63830432 | 2017-02-04 00:20:10.334424+01

 2017-02-04 01:52:19.407129+01 | 1486169539.40713 |                 0 |              17 |                270352 |                 4741 |           13986447 |       2432298 |            23854 |        63745071 |                     0 |      63847624 | 2017-02-04 00:20:10.334424+01

 2017-02-04 01:52:20.482814+01 | 1486169540.48281 |                 0 |              17 |                270352 |                 4741 |           13986447 |       2432798 |            23859 |        63745071 |                     0 |      63862475 | 2017-02-04 00:20:10.334424+01

 2017-02-04 01:52:21.555555+01 | 1486169541.55556 |                 0 |              17 |                270352 |                 4741 |           13986447 |       2433298 |            23864 |        63745071 |                     0 |      63875832 | 2017-02-04 00:20:10.334424+01

 2017-02-04 01:52:22.636522+01 | 1486169542.63652 |                 0 |              17 |                270352 |                 4741 |           13986447 |       2433898 |            23870 |        63745071 |                     0 |      63894402 | 2017-02-04 00:20:10.334424+01

 2017-02-04 01:52:23.708817+01 | 1486169543.70882 |                 0 |              17 |                270352 |                 4741 |           13986447 |       2434398 |            23875 |        63745071 |                     0 |      63909177 | 2017-02-04 00:20:10.334424+01

 2017-02-04 01:52:24.785125+01 | 1486169544.78513 |                 0 |              17 |                270352 |                 4741 |           13986447 |       2434898 |            23880 |        63745071 |                     0 |      63922490 | 2017-02-04 00:20:10.334424+01

 2017-02-04 01:52:25.857267+01 | 1486169545.85727 |                 0 |              17 |                270352 |                 4741 |           13986447 |       2435398 |            23885 |        63745071 |                     0 |      63938207 | 2017-02-04 00:20:10.334424+01

 2017-02-04 01:52:26.928223+01 | 1486169546.92822 |                 0 |              17 |                270352 |                 4741 |           13986447 |       2435998 |            23891 |        63745071 |                     0 |      63956373 | 2017-02-04 00:20:10.334424+01

 2017-02-04 01:52:28.002935+01 | 1486169548.00293 |                 0 |              17 |                270352 |                 4741 |           13986447 |       2436498 |            23896 |        63745071 |                     0 |      63969308 | 2017-02-04 00:20:10.334424+01

 2017-02-04 01:52:29.076209+01 | 1486169549.07621 |                 0 |              17 |                270352 |                 4741 |           13986447 |       2436998 |            23901 |        64252159 |                     0 |      63985593 | 2017-02-04 00:20:10.334424+01

 2017-02-04 01:52:30.157838+01 | 1486169550.15784 |                 0 |              17 |                270352 |                 4741 |           13986447 |       2437598 |            23907 |        64252159 |                     0 |      64002810 | 2017-02-04 00:20:10.334424+01

 2017-02-04 01:52:31.229913+01 | 1486169551.22991 |                 0 |              17 |                270352 |                 4741 |           13986447 |       2438098 |            23912 |        64252159 |                     0 |      64017563 | 2017-02-04 00:20:10.334424+01

 2017-02-04 01:52:32.316429+01 | 1486169552.31643 |                 0 |              17 |                270352 |                 4741 |           13986447 |       2438598 |            23917 |        64252159 |                     0 |      64032211 | 2017-02-04 00:20:10.334424+01

 2017-02-04 01:52:33.392374+01 | 1486169553.39237 |                 0 |              17 |                270352 |                 4741 |           13986447 |       2439198 |            23923 |        64252159 |                     0 |      64049073 | 2017-02-04 00:20:10.334424+01

 2017-02-04 01:52:34.465256+01 | 1486169554.46526 |                 0 |              17 |                270352 |                 4741 |           13986447 |       2439698 |            23928 |        64252159 |                     0 |      64063961 | 2017-02-04 00:20:10.334424+01

 2017-02-04 01:52:35.537751+01 | 1486169555.53775 |                 0 |              17 |                270352 |                 4741 |           13986447 |       2440198 |            23933 |        64252159 |                     0 |      64077949 | 2017-02-04 00:20:10.334424+01

 2017-02-04 01:52:36.61658+01 | 1486169556.61658 |                 0 |              17 |                270352 |                 4741 |           13986447 |       2440798 |            23939 |        64252159 |                     0 |      64096336 | 2017-02-04 00:20:10.334424+01

 2017-02-04 01:52:37.690164+01 | 1486169557.69016 |                 0 |              17 |                270352 |                 4741 |           13986447 |       2441298 |            23944 |        64252159 |                     0 |      64110926 | 2017-02-04 00:20:10.334424+01

 2017-02-04 01:52:38.769071+01 | 1486169558.76907 |                 0 |              17 |                270352 |                 4741 |           13986447 |       2441798 |            23949 |        64252159 |                     0 |      64124303 | 2017-02-04 00:20:10.334424+01

 2017-02-04 01:52:39.843071+01 | 1486169559.84307 |                 0 |              17 |                270352 |                 4741 |           13986447 |       2442398 |            23955 |        64252159 |                     0 |      64143093 | 2017-02-04 00:20:10.334424+01

 2017-02-04 01:52:40.918804+01 | 1486169560.9188 |                 0 |              17 |                270352 |                 4741 |           13986447 |       2442898 |            23960 |        64252159 |                     0 |      64156916 | 2017-02-04 00:20:10.334424+01

 2017-02-04 01:52:41.995663+01 | 1486169561.99566 |                 0 |              17 |                270352 |                 4741 |           13986447 |       2443398 |            23965 |        64252159 |                     0 |      64171995 | 2017-02-04 00:20:10.334424+01

 2017-02-04 01:52:43.068465+01 | 1486169563.06846 |                 0 |              17 |                270352 |                 4741 |           13986447 |       2443898 |            23970 |        64252159 |                     0 |      64187389 | 2017-02-04 00:20:10.334424+01

 2017-02-04 01:52:44.15089+01 | 1486169564.15089 |                 0 |              17 |                270352 |                 4741 |           13986447 |       2444498 |            23976 |        64252159 |                     0 |      64203800 | 2017-02-04 00:20:10.334424+01

 2017-02-04 01:52:45.217704+01 | 1486169565.2177 |                 0 |              17 |                270352 |                 4741 |           13986447 |       2444898 |            23980 |        64252159 |                     0 |      64215576 | 2017-02-04 00:20:10.334424+01

 2017-02-04 01:52:46.294642+01 | 1486169566.29464 |                 0 |              17 |                270352 |                 4741 |           13986447 |       2445598 |            23987 |        64252159 |                     0 |      64235504 | 2017-02-04 00:20:10.334424+01

 2017-02-04 01:52:47.375173+01 | 1486169567.37517 |                 0 |              17 |                270352 |                 4741 |           13986447 |       2446098 |            23992 |        64252159 |                     0 |      64249075 | 2017-02-04 00:20:10.334424+01

 2017-02-04 01:52:48.448753+01 | 1486169568.44875 |                 0 |              17 |                270352 |                 4741 |           13986447 |       2446598 |            23997 |        64252159 |                     0 |      64261097 | 2017-02-04 00:20:10.334424+01

 2017-02-04 01:52:49.525628+01 | 1486169569.52563 |                 0 |              17 |                270352 |                 4741 |           13986447 |       2447198 |            24003 |        64252159 |                     0 |      64274414 | 2017-02-04 00:20:10.334424+01

 2017-02-04 01:52:50.603208+01 | 1486169570.60321 |                 0 |              17 |                270352 |                 4741 |           13986447 |       2447698 |            24008 |        64252159 |                     0 |      64286374 | 2017-02-04 00:20:10.334424+01

 2017-02-04 01:52:51.688537+01 | 1486169571.68854 |                 0 |              17 |                270352 |                 4741 |           13986447 |       2448198 |            24013 |        64252159 |                     0 |      64296996 | 2017-02-04 00:20:10.334424+01

 2017-02-04 01:52:52.763981+01 | 1486169572.76398 |                 0 |              17 |                270352 |                 4741 |           13986447 |       2448798 |            24019 |        64252159 |                     0 |      64311850 | 2017-02-04 00:20:10.334424+01

 2017-02-04 01:52:53.844727+01 | 1486169573.84473 |                 0 |              17 |                270352 |                 4741 |           13986447 |       2449298 |            24024 |        64252159 |                     0 |      64323282 | 2017-02-04 00:20:10.334424+01

 2017-02-04 01:52:54.910061+01 | 1486169574.91006 |                 0 |              17 |                270352 |                 4741 |           13986447 |       2449798 |            24029 |        64252159 |                     0 |      64337109 | 2017-02-04 00:20:10.334424+01

 2017-02-04 01:52:55.983772+01 | 1486169575.98377 |                 0 |              17 |                270352 |                 4741 |           13986447 |       2450398 |            24035 |        64252159 |                     0 |      64353872 | 2017-02-04 00:20:10.334424+01

 2017-02-04 01:52:57.058884+01 | 1486169577.05888 |                 0 |              17 |                270352 |                 4741 |           13986447 |       2450898 |            24040 |        64252159 |                     0 |      64369687 | 2017-02-04 00:20:10.334424+01

 2017-02-04 01:52:58.128572+01 | 1486169578.12857 |                 0 |              17 |                270352 |                 4741 |           13986447 |       2451398 |            24045 |        64252159 |                     0 |      64384763 | 2017-02-04 00:20:10.334424+01

 2017-02-04 01:52:59.205404+01 | 1486169579.2054 |                 0 |              17 |                270352 |                 4741 |           13986447 |       2451998 |            24051 |        64252159 |                     0 |      64402096 | 2017-02-04 00:20:10.334424+01

 2017-02-04 01:53:00.273396+01 | 1486169580.2734 |                 0 |              17 |                270352 |                 4741 |           13986447 |       2452498 |            24056 |        64252159 |                     0 |      64416969 | 2017-02-04 00:20:10.334424+01

 2017-02-04 01:53:01.347632+01 | 1486169581.34763 |                 0 |              17 |                270352 |                 4741 |           13986447 |       2452998 |            24061 |        64252159 |                     0 |      64432113 | 2017-02-04 00:20:10.334424+01

 2017-02-04 01:53:02.423782+01 | 1486169582.42378 |                 0 |              17 |                270352 |                 4741 |           13986447 |       2453598 |            24067 |        64252159 |                     0 |      64449100 | 2017-02-04 00:20:10.334424+01

 2017-02-04 01:53:03.501629+01 | 1486169583.50163 |                 0 |              17 |                270352 |                 4741 |           13986447 |       2454098 |            24072 |        64252159 |                     0 |      64464249 | 2017-02-04 00:20:10.334424+01

 2017-02-04 01:53:04.571643+01 | 1486169584.57164 |                 0 |              17 |                270352 |                 4741 |           13986447 |       2454598 |            24077 |        64252159 |                     0 |      64478432 | 2017-02-04 00:20:10.334424+01

 2017-02-04 01:53:05.64899+01 | 1486169585.64899 |                 0 |              17 |                270352 |                 4741 |           13986447 |       2455198 |            24083 |        64252159 |                     0 |      64497700 | 2017-02-04 00:20:10.334424+01

 2017-02-04 01:53:06.724+01 | 1486169586.724 |                 0 |              17 |                270352 |                 4741 |           13986447 |       2455698 |            24088 |        64757949 |                     0 |      64511637 | 2017-02-04 00:20:10.334424+01

 2017-02-04 01:53:07.799966+01 | 1486169587.79997 |                 0 |              17 |                270352 |                 4741 |           13986447 |       2456198 |            24093 |        64757949 |                     0 |      64525722 | 2017-02-04 00:20:10.334424+01

 2017-02-04 01:53:08.881282+01 | 1486169588.88128 |                 0 |              17 |                270352 |                 4741 |           13986447 |       2456798 |            24099 |        64757949 |                     0 |      64543279 | 2017-02-04 00:20:10.334424+01

 2017-02-04 01:53:09.95069+01 | 1486169589.95069 |                 0 |              17 |                270352 |                 4741 |           13986447 |       2457298 |            24104 |        64757949 |                     0 |      64557050 | 2017-02-04 00:20:10.334424+01

 2017-02-04 01:53:11.025454+01 | 1486169591.02545 |                 0 |              17 |                270352 |                 4741 |           13986447 |       2457798 |            24109 |        64757949 |                     0 |      64572615 | 2017-02-04 00:20:10.334424+01

 2017-02-04 01:53:12.088796+01 | 1486169592.0888 |                 0 |              17 |                270352 |                 4741 |           13986447 |       2458398 |            24115 |        64757949 |                     0 |      64590696 | 2017-02-04 00:20:10.334424+01

 2017-02-04 01:53:13.160624+01 | 1486169593.16062 |                 0 |              17 |                270352 |                 4741 |           13986447 |       2458898 |            24120 |        64757949 |                     0 |      64604223 | 2017-02-04 00:20:10.334424+01

 2017-02-04 01:53:14.231406+01 | 1486169594.23141 |                 0 |              17 |                270352 |                 4741 |           13986447 |       2459398 |            24125 |        64757949 |                     0 |      64619697 | 2017-02-04 00:20:10.334424+01

 2017-02-04 01:53:15.328221+01 | 1486169595.32822 |                 0 |              17 |                270352 |                 4741 |           13986447 |       2459898 |            24130 |        64757949 |                     0 |      64634183 | 2017-02-04 00:20:10.334424+01

 2017-02-04 01:53:16.406041+01 | 1486169596.40604 |                 0 |              17 |                270352 |                 4741 |           13986447 |       2460498 |            24136 |        64757949 |                     0 |      64650651 | 2017-02-04 00:20:10.334424+01

 2017-02-04 01:53:17.481564+01 | 1486169597.48156 |                 0 |              17 |                270352 |                 4741 |           13986447 |       2460998 |            24141 |        64757949 |                     0 |      64665905 | 2017-02-04 00:20:10.334424+01

 2017-02-04 01:53:18.550169+01 | 1486169598.55017 |                 0 |              17 |                270352 |                 4741 |           13986447 |       2461598 |            24147 |        64757949 |                     0 |      64683654 | 2017-02-04 00:20:10.334424+01

 2017-02-04 01:53:19.626297+01 | 1486169599.6263 |                 0 |              17 |                270352 |                 4741 |           13986447 |       2462098 |            24152 |        64757949 |                     0 |      64697080 | 2017-02-04 00:20:10.334424+01

 2017-02-04 01:53:20.701705+01 | 1486169600.7017 |                 0 |              17 |                270352 |                 4741 |           13986447 |       2462598 |            24157 |        64757949 |                     0 |      64711712 | 2017-02-04 00:20:10.334424+01

 2017-02-04 01:53:21.778966+01 | 1486169601.77897 |                 0 |              17 |                270352 |                 4741 |           13986447 |       2463198 |            24163 |        64757949 |                     0 |      64728309 | 2017-02-04 00:20:10.334424+01

 2017-02-04 01:53:22.857999+01 | 1486169602.858 |                 0 |              17 |                270352 |                 4741 |           13986447 |       2463698 |            24168 |        64757949 |                     0 |      64743399 | 2017-02-04 00:20:10.334424+01

 2017-02-04 01:53:23.928568+01 | 1486169603.92857 |                 0 |              17 |                270352 |                 4741 |           13986447 |       2464198 |            24173 |        64757949 |                     0 |      64759084 | 2017-02-04 00:20:10.334424+01

 2017-02-04 01:53:25.005156+01 | 1486169605.00516 |                 0 |              17 |                270352 |                 4741 |           13986447 |       2464698 |            24178 |        64757949 |                     0 |      64772161 | 2017-02-04 00:20:10.334424+01

 2017-02-04 01:53:26.08052+01 | 1486169606.08052 |                 0 |              17 |                270352 |                 4741 |           13986447 |       2465298 |            24184 |        64757949 |                     0 |      64790404 | 2017-02-04 00:20:10.334424+01

 2017-02-04 01:53:27.14821+01 | 1486169607.14821 |                 0 |              17 |                270352 |                 4741 |           13986447 |       2465798 |            24189 |        64757949 |                     0 |      64805337 | 2017-02-04 00:20:10.334424+01

 2017-02-04 01:53:28.22321+01 | 1486169608.22321 |                 0 |              17 |                270352 |                 4741 |           13986447 |       2466298 |            24194 |        64757949 |                     0 |      64819457 | 2017-02-04 00:20:10.334424+01

 2017-02-04 01:53:29.311854+01 | 1486169609.31185 |                 0 |              17 |                270352 |                 4741 |           13986447 |       2466898 |            24200 |        64757949 |                     0 |      64834545 | 2017-02-04 00:20:10.334424+01

 2017-02-04 01:53:30.387757+01 | 1486169610.38776 |                 0 |              17 |                270352 |                 4741 |           13986447 |       2467398 |            24205 |        64757949 |                     0 |      64849678 | 2017-02-04 00:20:10.334424+01

 2017-02-04 01:53:31.460834+01 | 1486169611.46083 |                 0 |              17 |                270352 |                 4741 |           13986447 |       2467898 |            24210 |        64757949 |                     0 |      64864347 | 2017-02-04 00:20:10.334424+01

 2017-02-04 01:53:32.538411+01 | 1486169612.53841 |                 0 |              17 |                270352 |                 4741 |           13986447 |       2468498 |            24216 |        64757949 |                     0 |      64882102 | 2017-02-04 00:20:10.334424+01

 2017-02-04 01:53:33.604603+01 | 1486169613.6046 |                 0 |              17 |                270352 |                 4741 |           13986447 |       2468998 |            24221 |        64757949 |                     0 |      64896838 | 2017-02-04 00:20:10.334424+01

 2017-02-04 01:53:34.679495+01 | 1486169614.6795 |                 0 |              17 |                270352 |                 4741 |           13986447 |       2469498 |            24226 |        64757949 |                     0 |      64910374 | 2017-02-04 00:20:10.334424+01

 2017-02-04 01:53:35.753707+01 | 1486169615.75371 |                 0 |              17 |                270352 |                 4741 |           13986447 |       2470098 |            24232 |        64757949 |                     0 |      64928059 | 2017-02-04 00:20:10.334424+01

 2017-02-04 01:53:36.823357+01 | 1486169616.82336 |                 0 |              17 |                270352 |                 4741 |           13986447 |       2470598 |            24237 |        64757949 |                     0 |      64942932 | 2017-02-04 00:20:10.334424+01

 2017-02-04 01:53:37.896821+01 | 1486169617.89682 |                 0 |              17 |                270352 |                 4741 |           13986447 |       2471098 |            24242 |        64757949 |                     0 |      64957028 | 2017-02-04 00:20:10.334424+01

 2017-02-04 01:53:38.976589+01 | 1486169618.97659 |                 0 |              17 |                270352 |                 4741 |           13986447 |       2471698 |            24248 |        64757949 |                     0 |      64975063 | 2017-02-04 00:20:10.334424+01

 2017-02-04 01:53:40.055673+01 | 1486169620.05567 |                 0 |              17 |                270352 |                 4741 |           13986447 |       2472198 |            24253 |        64757949 |                     0 |      64989542 | 2017-02-04 00:20:10.334424+01

 2017-02-04 01:53:41.138644+01 | 1486169621.13864 |                 0 |              17 |                270352 |                 4741 |           13986447 |       2472698 |            24258 |        64757949 |                     0 |      65003910 | 2017-02-04 00:20:10.334424+01

 2017-02-04 01:53:42.214656+01 | 1486169622.21466 |                 0 |              17 |                270352 |                 4741 |           13986447 |       2473298 |            24264 |        64757949 |                     0 |      65021372 | 2017-02-04 00:20:10.334424+01

 2017-02-04 01:53:43.286316+01 | 1486169623.28632 |                 0 |              17 |                270352 |                 4741 |           13986447 |       2473698 |            24268 |        65264240 |                     0 |      65032778 | 2017-02-04 00:20:10.334424+01

 2017-02-04 01:53:44.360639+01 | 1486169624.36064 |                 0 |              17 |                270352 |                 4741 |           13986447 |       2474298 |            24274 |        65264240 |                     0 |      65048429 | 2017-02-04 00:20:10.334424+01

 2017-02-04 01:53:45.43543+01 | 1486169625.43543 |                 0 |              17 |                270352 |                 4741 |           13986447 |       2474898 |            24280 |        65264240 |                     0 |      65066785 | 2017-02-04 00:20:10.334424+01

 2017-02-04 01:53:46.511428+01 | 1486169626.51143 |                 0 |              17 |                270352 |                 4741 |           13986447 |       2475398 |            24285 |        65264240 |                     0 |      65081049 | 2017-02-04 00:20:10.334424+01

 2017-02-04 01:53:47.592987+01 | 1486169627.59299 |                 0 |              17 |                270352 |                 4741 |           13986447 |       2475898 |            24290 |        65264240 |                     0 |      65094244 | 2017-02-04 00:20:10.334424+01

 2017-02-04 01:53:48.668709+01 | 1486169628.66871 |                 0 |              17 |                270352 |                 4741 |           13986447 |       2476498 |            24296 |        65264240 |                     0 |      65111229 | 2017-02-04 00:20:10.334424+01

 2017-02-04 01:53:49.744334+01 | 1486169629.74433 |                 0 |              17 |                270352 |                 4741 |           13986447 |       2476998 |            24301 |        65264240 |                     0 |      65125617 | 2017-02-04 00:20:10.334424+01

 2017-02-04 01:53:50.823174+01 | 1486169630.82317 |                 0 |              17 |                270352 |                 4741 |           13986447 |       2477498 |            24306 |        65264240 |                     0 |      65139305 | 2017-02-04 00:20:10.334424+01

 2017-02-04 01:53:51.901498+01 | 1486169631.9015 |                 0 |              17 |                270352 |                 4741 |           13986447 |       2478098 |            24312 |        65264240 |                     0 |      65155647 | 2017-02-04 00:20:10.334424+01

 2017-02-04 01:53:52.986217+01 | 1486169632.98622 |                 0 |              17 |                270352 |                 4741 |           13986447 |       2478598 |            24317 |        65264240 |                     0 |      65170128 | 2017-02-04 00:20:10.334424+01

 2017-02-04 01:53:54.066964+01 | 1486169634.06696 |                 0 |              17 |                270352 |                 4741 |           13986447 |       2479098 |            24322 |        65264240 |                     0 |      65183940 | 2017-02-04 00:20:10.334424+01

 2017-02-04 01:53:55.143316+01 | 1486169635.14332 |                 0 |              17 |                270352 |                 4741 |           13986447 |       2479698 |            24328 |        65264240 |                     0 |      65199633 | 2017-02-04 00:20:10.334424+01

 2017-02-04 01:53:56.220836+01 | 1486169636.22084 |                 0 |              17 |                270352 |                 4741 |           13986447 |       2480198 |            24333 |        65264240 |                     0 |      65213712 | 2017-02-04 00:20:10.334424+01

 2017-02-04 01:53:57.297927+01 | 1486169637.29793 |                 0 |              17 |                270352 |                 4741 |           13986447 |       2480698 |            24338 |        65264240 |                     0 |      65228037 | 2017-02-04 00:20:10.334424+01

 2017-02-04 01:53:58.3702+01 | 1486169638.3702 |                 0 |              17 |                270352 |                 4741 |           13986447 |       2481298 |            24344 |        65264240 |                     0 |      65243994 | 2017-02-04 00:20:10.334424+01

 2017-02-04 01:53:59.456708+01 | 1486169639.45671 |                 0 |              17 |                270352 |                 4741 |           13986447 |       2481798 |            24349 |        65264240 |                     0 |      65259039 | 2017-02-04 00:20:10.334424+01

