 2017-02-04 01:00:56.638473+01 | 1486166456.63847 | 17/D9C2B4E0              |          102437663968

 2017-02-04 01:00:58.604332+01 | 1486166458.60433 | 17/E5534208              |          102631686664

 2017-02-04 01:00:59.687064+01 | 1486166459.68706 | 17/F3676058              |          102867886168

 2017-02-04 01:01:00.768986+01 | 1486166460.76899 | 18/1A96938               |          103107094840

 2017-02-04 01:01:01.853764+01 | 1486166461.85376 | 18/11342EC8              |          103367847624

 2017-02-04 01:01:02.936814+01 | 1486166462.93681 | 18/21BA3840              |          103645067328

 2017-02-04 01:01:04.027369+01 | 1486166464.02737 | 18/33252588              |          103937287560

 2017-02-04 01:01:05.111505+01 | 1486166465.11151 | 18/44D0AD78              |          104233741688

 2017-02-04 01:01:06.189659+01 | 1486166466.18966 | 18/5680D138              |          104530497848

 2017-02-04 01:01:07.276322+01 | 1486166467.27632 | 18/6781EF48              |          104815783752

 2017-02-04 01:01:08.362921+01 | 1486166468.36292 | 18/786EDC20              |          105099746336

 2017-02-04 01:01:09.451647+01 | 1486166469.45165 | 18/897379C0              |          105385261504

 2017-02-04 01:01:10.536732+01 | 1486166470.53673 | 18/985BE000              |          105635373056

 2017-02-04 01:01:11.619242+01 | 1486166471.61924 | 18/A8B48348              |          105909617480

 2017-02-04 01:01:12.708305+01 | 1486166472.7083 | 18/B9671BD8              |          106189757400

 2017-02-04 01:01:13.799993+01 | 1486166473.79999 | 18/C9AC0770              |          106462709616

 2017-02-04 01:01:14.89133+01 | 1486166474.89133 | 18/D9041E48              |          106720140872

 2017-02-04 01:01:15.974576+01 | 1486166475.97458 | 18/E867D0B8              |          106978332856

 2017-02-04 01:01:17.063965+01 | 1486166477.06397 | 18/F721EB98              |          107225410456

 2017-02-04 01:01:18.148011+01 | 1486166478.14801 | 19/5C3DE48               |          107470904904

 2017-02-04 01:01:19.239257+01 | 1486166479.23926 | 19/11B33410              |          107671139344

 2017-02-04 01:01:20.323286+01 | 1486166480.32329 | 19/1FE37A88              |          107909184136

 2017-02-04 01:01:21.416514+01 | 1486166481.41651 | 19/2DAD1698              |          108140500632

 2017-02-04 01:01:22.513428+01 | 1486166482.51343 | 19/3992D0B8              |          108340105400

 2017-02-04 01:01:23.601034+01 | 1486166483.60103 | 19/469DEA88              |          108558936712

 2017-02-04 01:01:24.682574+01 | 1486166484.68257 | 19/5325B428              |          108769162280

 2017-02-04 01:01:25.762893+01 | 1486166485.76289 | 19/5DF250F0              |          108950343920

 2017-02-04 01:01:26.848602+01 | 1486166486.8486 | 19/69BFB250              |          109148353104

 2017-02-04 01:01:27.930427+01 | 1486166487.93043 | 19/743A55A8              |          109324162472

 2017-02-04 01:01:29.027374+01 | 1486166489.02737 | 19/7FC025F0              |          109517481456

 2017-02-04 01:01:30.11001+01 | 1486166490.11001 | 19/89E084D8              |          109687375064

 2017-02-04 01:01:31.193436+01 | 1486166491.19344 | 19/923E7E80              |          109827751552

 2017-02-04 01:01:32.254686+01 | 1486166492.25469 | 19/9BCCC108              |          109988069640

 2017-02-04 01:01:33.325612+01 | 1486166493.32561 | 19/A53EB6D0              |          110146533072

 2017-02-04 01:01:34.412244+01 | 1486166494.41224 | 19/AEE4CBB8              |          110308412344

 2017-02-04 01:01:35.491424+01 | 1486166495.49142 | 19/B8F9C8D8              |          110477560024

 2017-02-04 01:01:36.573927+01 | 1486166496.57393 | 19/C1AB53C0              |          110623413184

 2017-02-04 01:01:37.643706+01 | 1486166497.64371 | 19/CB072000              |          110780424192

 2017-02-04 01:01:38.729574+01 | 1486166498.72957 | 19/D423E608              |          110933304840

 2017-02-04 01:01:39.814765+01 | 1486166499.81476 | 19/DCFA5C48              |          111081577544

 2017-02-04 01:01:40.903018+01 | 1486166500.90302 | 19/E55A3590              |          111222076816

 2017-02-04 01:01:41.994748+01 | 1486166501.99475 | 19/EE0589F8              |          111367522808

 2017-02-04 01:01:43.074641+01 | 1486166503.07464 | 19/F6A34160              |          111512076640

 2017-02-04 01:01:44.135319+01 | 1486166504.13532 | 19/FEAB93A8              |          111646839720

 2017-02-04 01:01:45.214323+01 | 1486166505.21432 | 1A/5DBBD80               |          111767436672

 2017-02-04 01:01:46.298133+01 | 1486166506.29813 | 1A/C04DE78               |          111870795384

 2017-02-04 01:01:47.381565+01 | 1486166507.38157 | 1A/11A8DB80              |          111965428608

 2017-02-04 01:01:48.466545+01 | 1486166508.46655 | 1A/17BB1E80              |          112067288704

 2017-02-04 01:01:49.558619+01 | 1486166509.55862 | 1A/1C3B5780              |          112142800768

 2017-02-04 01:01:50.637395+01 | 1486166510.63739 | 1A/22F9EE78              |          112255954552

 2017-02-04 01:01:51.711976+01 | 1486166511.71198 | 1A/2A2D78E8              |          112376772840

 2017-02-04 01:01:52.781573+01 | 1486166512.78157 | 1A/314C4B30              |          112496233264

 2017-02-04 01:01:53.857471+01 | 1486166513.85747 | 1A/3836D5B8              |          112612267448

 2017-02-04 01:01:54.960513+01 | 1486166514.96051 | 1A/3F2C7850              |          112729028688

 2017-02-04 01:01:56.072172+01 | 1486166516.07217 | 1A/4618FF48              |          112845193032

 2017-02-04 01:01:57.165184+01 | 1486166517.16518 | 1A/4CBBDB08              |          112956529416

 2017-02-04 01:01:58.251592+01 | 1486166518.25159 | 1A/534CDC70              |          113066695792

 2017-02-04 01:01:59.347887+01 | 1486166519.34789 | 1A/59AD7D08              |          113173691656

 2017-02-04 01:02:00.436698+01 | 1486166520.4367 | 1A/5FE6DCF8              |          113278115064

 2017-02-04 01:02:01.534051+01 | 1486166521.53405 | 1A/65F42728              |          113379649320

 2017-02-04 01:02:02.641061+01 | 1486166522.64106 | 1A/6C222348              |          113483326280

 2017-02-04 01:02:03.735643+01 | 1486166523.73564 | 1A/71D623F8              |          113579009016

 2017-02-04 01:02:04.795559+01 | 1486166524.79556 | 1A/760CD438              |          113649701944

 2017-02-04 01:02:05.860638+01 | 1486166525.86064 | 1A/7A535BA8              |          113721433000

 2017-02-04 01:02:06.918176+01 | 1486166526.91818 | 1A/7EF31100              |          113799008512

 2017-02-04 01:02:07.984006+01 | 1486166527.98401 | 1A/84372C68              |          113887358056

 2017-02-04 01:02:09.061604+01 | 1486166529.0616 | 1A/892B2198              |          113970454936

 2017-02-04 01:02:10.157909+01 | 1486166530.15791 | 1A/8E556AA8              |          114057112232

 2017-02-04 01:02:11.247068+01 | 1486166531.24707 | 1A/93897000              |          114144407552

 2017-02-04 01:02:12.341727+01 | 1486166532.34173 | 1A/9880FF18              |          114227740440

 2017-02-04 01:02:13.434069+01 | 1486166533.43407 | 1A/9D975720              |          114313090848

 2017-02-04 01:02:14.522061+01 | 1486166534.52206 | 1A/A2961C10              |          114396896272

 2017-02-04 01:02:15.616166+01 | 1486166535.61617 | 1A/A6F68F70              |          114470326128

 2017-02-04 01:02:16.703701+01 | 1486166536.7037 | 1A/ABE63CB8              |          114553142456

 2017-02-04 01:02:17.790792+01 | 1486166537.79079 | 1A/B061A060              |          114628337760

 2017-02-04 01:02:18.885925+01 | 1486166538.88593 | 1A/B52EDD08              |          114708897032

 2017-02-04 01:02:19.966472+01 | 1486166539.96647 | 1A/B91B0128              |          114774704424

 2017-02-04 01:02:21.045745+01 | 1486166541.04574 | 1A/BC603B10              |          114829572880

 2017-02-04 01:02:22.129034+01 | 1486166542.12903 | 1A/BFC6EE08              |          114886635016

 2017-02-04 01:02:23.188415+01 | 1486166543.18842 | 1A/C28F23E8              |          114933310440

 2017-02-04 01:02:24.258861+01 | 1486166544.25886 | 1A/C62DE4A8              |          114994046120

 2017-02-04 01:02:25.329629+01 | 1486166545.32963 | 1A/C9907028              |          115050836008

 2017-02-04 01:02:26.411935+01 | 1486166546.41194 | 1A/CD5745F8              |          115114198520

 2017-02-04 01:02:27.482267+01 | 1486166547.48227 | 1A/D08EF458              |          115168179288

 2017-02-04 01:02:28.568393+01 | 1486166548.56839 | 1A/D4423C28              |          115230260264

 2017-02-04 01:02:29.676516+01 | 1486166549.67652 | 1A/D8563F08              |          115298680584

 2017-02-04 01:02:30.767115+01 | 1486166550.76712 | 1A/DC871B78              |          115368991608

 2017-02-04 01:02:31.828017+01 | 1486166551.82802 | 1A/E165D0F0              |          115450695920

 2017-02-04 01:02:32.910298+01 | 1486166552.9103 | 1A/E4F29250              |          115510252112

 2017-02-04 01:02:33.988642+01 | 1486166553.98864 | 1A/E7AE35E0              |          115556103648

 2017-02-04 01:02:35.065386+01 | 1486166555.06539 | 1A/EAB38438              |          115606783032

 2017-02-04 01:02:36.149594+01 | 1486166556.14959 | 1A/EE22D758              |          115664410456

 2017-02-04 01:02:37.242735+01 | 1486166557.24273 | 1A/F1F30788              |          115728385928

 2017-02-04 01:02:38.338512+01 | 1486166558.33851 | 1A/F57348C8              |          115787122888

 2017-02-04 01:02:39.430828+01 | 1486166559.43083 | 1A/F9051A38              |          115847010872

 2017-02-04 01:02:40.530008+01 | 1486166560.53001 | 1A/FC960138              |          115906838840

 2017-02-04 01:02:41.629771+01 | 1486166561.62977 | 1B/13E088                |          115965419656

 2017-02-04 01:02:42.718698+01 | 1486166562.7187 | 1B/3906780               |          116023912320

 2017-02-04 01:02:43.803852+01 | 1486166563.80385 | 1B/6D82488               |          116078945416

 2017-02-04 01:02:44.896657+01 | 1486166564.89666 | 1B/A3E13C8               |          116135957448

 2017-02-04 01:02:45.980732+01 | 1486166565.98073 | 1B/D6EA298               |          116189471384

 2017-02-04 01:02:47.062856+01 | 1486166567.06286 | 1B/1012F498              |          116233794712

 2017-02-04 01:02:48.148038+01 | 1486166568.14804 | 1B/12C79B20              |          116279188256

 2017-02-04 01:02:49.226368+01 | 1486166569.22637 | 1B/15497280              |          116321251968

 2017-02-04 01:02:50.305857+01 | 1486166570.30586 | 1B/17C506C0              |          116362905280

 2017-02-04 01:02:51.39671+01 | 1486166571.39671 | 1B/1A218128              |          116402520360

 2017-02-04 01:02:52.472928+01 | 1486166572.47293 | 1B/1C247410              |          116436268048

 2017-02-04 01:02:53.566411+01 | 1486166573.56641 | 1B/1E457320              |          116471984928

 2017-02-04 01:02:54.656865+01 | 1486166574.65686 | 1B/20888060              |          116509933664

 2017-02-04 01:02:55.730413+01 | 1486166575.73041 | 1B/22753BB0              |          116542225328

 2017-02-04 01:02:56.813983+01 | 1486166576.81398 | 1B/2452FB38              |          116573535032

 2017-02-04 01:02:57.905496+01 | 1486166577.9055 | 1B/26358728              |          116605159208

 2017-02-04 01:02:58.995279+01 | 1486166578.99528 | 1B/281D2F70              |          116637118320

 2017-02-04 01:03:00.085963+01 | 1486166580.08596 | 1B/2A3E2BD0              |          116672834512

 2017-02-04 01:03:01.153261+01 | 1486166581.15326 | 1B/2C0574E0              |          116702672096

 2017-02-04 01:03:02.226748+01 | 1486166582.22675 | 1B/2DA56CE8              |          116729933032

 2017-02-04 01:03:03.306123+01 | 1486166583.30612 | 1B/2F8159C8              |          116761123272

 2017-02-04 01:03:04.38464+01 | 1486166584.38464 | 1B/311537C0              |          116787591104

 2017-02-04 01:03:05.476096+01 | 1486166585.4761 | 1B/330155D0              |          116819842512

 2017-02-04 01:03:06.556755+01 | 1486166586.55676 | 1B/34C3EE50              |          116849372752

 2017-02-04 01:03:07.645613+01 | 1486166587.64561 | 1B/367A17E0              |          116878088160

 2017-02-04 01:03:08.712598+01 | 1486166588.7126 | 1B/382899F0              |          116906301936

 2017-02-04 01:03:09.797613+01 | 1486166589.79761 | 1B/39A2B1B0              |          116931080624

 2017-02-04 01:03:10.894953+01 | 1486166590.89495 | 1B/3B56BAD8              |          116959656664

 2017-02-04 01:03:11.979811+01 | 1486166591.97981 | 1B/3D0CA668              |          116988356200

 2017-02-04 01:03:13.049+01 | 1486166593.049 | 1B/3E816E00              |          117012786688

 2017-02-04 01:03:14.131316+01 | 1486166594.13132 | 1B/408FCF20              |          117047283488

 2017-02-04 01:03:15.209116+01 | 1486166595.20912 | 1B/42C9E258              |          117084643928

 2017-02-04 01:03:16.28061+01 | 1486166596.28061 | 1B/44E83BA8              |          117120187304

 2017-02-04 01:03:17.367778+01 | 1486166597.36778 | 1B/47347DE8              |          117158739432

 2017-02-04 01:03:18.437221+01 | 1486166598.43722 | 1B/4987B020              |          117197746208

 2017-02-04 01:03:19.522359+01 | 1486166599.52236 | 1B/4BC1BB28              |          117235104552

 2017-02-04 01:03:20.595048+01 | 1486166600.59505 | 1B/4DE89738              |          117271205688

 2017-02-04 01:03:21.677884+01 | 1486166601.67788 | 1B/502994A8              |          117309019304

 2017-02-04 01:03:22.765287+01 | 1486166602.76529 | 1B/525F6848              |          117346101320

 2017-02-04 01:03:23.852174+01 | 1486166603.85217 | 1B/54A435C8              |          117384164808

 2017-02-04 01:03:24.939492+01 | 1486166604.93949 | 1B/57029E38              |          117423906360

 2017-02-04 01:03:26.014533+01 | 1486166606.01453 | 1B/594058F8              |          117461506296

 2017-02-04 01:03:27.082853+01 | 1486166607.08285 | 1B/5B4F36D8              |          117496035032

 2017-02-04 01:03:28.164681+01 | 1486166608.16468 | 1B/5D71BF08              |          117531852552

 2017-02-04 01:03:29.254926+01 | 1486166609.25493 | 1B/5FB7B428              |          117569991720

 2017-02-04 01:03:30.34248+01 | 1486166610.34248 | 1B/61D7B5B0              |          117605645176

 2017-02-04 01:03:31.43278+01 | 1486166611.43278 | 1B/63F9DDF8              |          117641436664

 2017-02-04 01:03:32.509905+01 | 1486166612.50991 | 1B/6616FFB8              |          117676900280

 2017-02-04 01:03:33.578133+01 | 1486166613.57813 | 1B/683908E0              |          117712685280

 2017-02-04 01:03:34.645694+01 | 1486166614.64569 | 1B/6A3EC308              |          117746615048

 2017-02-04 01:03:35.717175+01 | 1486166615.71718 | 1B/6C3369C0              |          117779425728

 2017-02-04 01:03:36.785945+01 | 1486166616.78594 | 1B/6E3C0FE8              |          117813546984

 2017-02-04 01:03:37.854213+01 | 1486166617.85421 | 1B/704BC870              |          117848131696

 2017-02-04 01:03:38.930137+01 | 1486166618.93014 | 1B/72589F70              |          117882527600

 2017-02-04 01:03:40.007878+01 | 1486166620.00788 | 1B/7450F488              |          117915579528

 2017-02-04 01:03:41.07886+01 | 1486166621.07886 | 1B/764A2128              |          117948686632

 2017-02-04 01:03:42.147774+01 | 1486166622.14777 | 1B/785BB628              |          117983393320

 2017-02-04 01:03:43.22916+01 | 1486166623.22916 | 1B/79F89D60              |          118010453344

 2017-02-04 01:03:44.307833+01 | 1486166624.30783 | 1B/7B765928              |          118035470632

 2017-02-04 01:03:45.377693+01 | 1486166625.37769 | 1B/7CDD1E30              |          118058982960

 2017-02-04 01:03:46.46278+01 | 1486166626.46278 | 1B/7E31BE70              |          118081306224

 2017-02-04 01:03:47.532876+01 | 1486166627.53288 | 1B/7F8FE0C0              |          118104252608

 2017-02-04 01:03:48.606901+01 | 1486166628.6069 | 1B/80DC8EB8              |          118126055096

 2017-02-04 01:03:49.696501+01 | 1486166629.6965 | 1B/825277C0              |          118150559680

 2017-02-04 01:03:50.779627+01 | 1486166630.77963 | 1B/842C6A58              |          118181620312

 2017-02-04 01:03:51.848811+01 | 1486166631.84881 | 1B/85D94370              |          118209725296

 2017-02-04 01:03:52.939839+01 | 1486166632.93984 | 1B/880F4E98              |          118246821528

 2017-02-04 01:03:54.031425+01 | 1486166634.03142 | 1B/8A8649F0              |          118288173552

 2017-02-04 01:03:55.125329+01 | 1486166635.12533 | 1B/8D328C40              |          118333017152

 2017-02-04 01:03:56.218672+01 | 1486166636.21867 | 1B/90215E08              |          118382222856

 2017-02-04 01:03:57.312581+01 | 1486166637.31258 | 1B/9301FAC8              |          118430497480

 2017-02-04 01:03:58.389329+01 | 1486166638.38933 | 1B/962267E8              |          118482954216

 2017-02-04 01:03:59.456464+01 | 1486166639.45646 | 1B/99201F30              |          118533136176

 2017-02-04 01:04:00.533307+01 | 1486166640.53331 | 1B/9C277460              |          118583948384

 2017-02-04 01:04:01.624534+01 | 1486166641.62453 | 1B/9EEB5F20              |          118630342432

 2017-02-04 01:04:02.695974+01 | 1486166642.69597 | 1B/A137CF00              |          118668906240

 2017-02-04 01:04:03.762096+01 | 1486166643.7621 | 1B/A37FD728              |          118707181352

 2017-02-04 01:04:04.841368+01 | 1486166644.84137 | 1B/A5D68458              |          118746416216

 2017-02-04 01:04:05.918585+01 | 1486166645.91859 | 1B/A8861B58              |          118791478104

 2017-02-04 01:04:06.991459+01 | 1486166646.99146 | 1B/AB073008              |          118833491976

 2017-02-04 01:04:08.056908+01 | 1486166648.05691 | 1B/AD645730              |          118873151280

 2017-02-04 01:04:09.15737+01 | 1486166649.15737 | 1B/B0AE3338              |          118928323384

 2017-02-04 01:04:10.241722+01 | 1486166650.24172 | 1B/B36DBA10              |          118974429712

 2017-02-04 01:04:11.340165+01 | 1486166651.34016 | 1B/B5B34418              |          119012541464

 2017-02-04 01:04:12.401549+01 | 1486166652.40155 | 1B/B6FAC6A0              |          119034005152

 2017-02-04 01:04:13.463314+01 | 1486166653.46331 | 1B/B83A5CA8              |          119054949544

 2017-02-04 01:04:14.558757+01 | 1486166654.55876 | 1B/B9A1CE48              |          119078506056

 2017-02-04 01:04:15.624192+01 | 1486166655.62419 | 1B/BAE45A48              |          119099644488

 2017-02-04 01:04:16.715396+01 | 1486166656.7154 | 1B/BC3A4B90              |          119122054032

 2017-02-04 01:04:17.792977+01 | 1486166657.79298 | 1B/BDB4CF58              |          119146860376

 2017-02-04 01:04:18.885666+01 | 1486166658.88567 | 1B/BF6CB338              |          119175689016

 2017-02-04 01:04:19.967536+01 | 1486166659.96754 | 1B/C12A60B0              |          119204896944

 2017-02-04 01:04:21.037808+01 | 1486166661.03781 | 1B/C2C8E1E8              |          119232061928

 2017-02-04 01:04:22.120271+01 | 1486166662.12027 | 1B/C45FC328              |          119258727208

 2017-02-04 01:04:23.210985+01 | 1486166663.21098 | 1B/C61D5FB8              |          119287930808

 2017-02-04 01:04:24.299807+01 | 1486166664.29981 | 1B/C7D30B50              |          119316613968

 2017-02-04 01:04:25.365156+01 | 1486166665.36516 | 1B/C96B6A00              |          119343376896

 2017-02-04 01:04:26.449981+01 | 1486166666.44998 | 1B/CAFAF358              |          119369560920

 2017-02-04 01:04:27.528081+01 | 1486166667.52808 | 1B/CC9B3B90              |          119396842384

 2017-02-04 01:04:28.598217+01 | 1486166668.59822 | 1B/CE1C2860              |          119422068832

 2017-02-04 01:04:29.688632+01 | 1486166669.68863 | 1B/CFA66208              |          119447904776

 2017-02-04 01:04:30.783622+01 | 1486166670.78362 | 1B/D1316D18              |          119473794328

 2017-02-04 01:04:31.884476+01 | 1486166671.88448 | 1B/D2D6B3C8              |          119501403080

 2017-02-04 01:04:32.979465+01 | 1486166672.97947 | 1B/D46FD9D0              |          119528217040

 2017-02-04 01:04:34.062833+01 | 1486166674.06283 | 1B/D6127BF0              |          119555652592

 2017-02-04 01:04:35.156438+01 | 1486166675.15644 | 1B/D7A0FCC8              |          119581768904

 2017-02-04 01:04:36.254313+01 | 1486166676.25431 | 1B/D93AE108              |          119608631560

 2017-02-04 01:04:37.356235+01 | 1486166677.35624 | 1B/DAC782A8              |          119634625192

 2017-02-04 01:04:38.416712+01 | 1486166678.41671 | 1B/DC5030D0              |          119660359888

 2017-02-04 01:04:39.496567+01 | 1486166679.49657 | 1B/DD8654F8              |          119680685304

 2017-02-04 01:04:40.567421+01 | 1486166680.56742 | 1B/DE9F6B50              |          119699106640

 2017-02-04 01:04:41.656972+01 | 1486166681.65697 | 1B/DFEC98A8              |          119720941736

 2017-02-04 01:04:42.736372+01 | 1486166682.73637 | 1B/E1461450              |          119743583312

 2017-02-04 01:04:43.826124+01 | 1486166683.82612 | 1B/E2B77B20              |          119767792416

 2017-02-04 01:04:44.914568+01 | 1486166684.91457 | 1B/E4180168              |          119790895464

 2017-02-04 01:04:46.002356+01 | 1486166686.00236 | 1B/E58F7AE0              |          119815502560

 2017-02-04 01:04:47.071365+01 | 1486166687.07137 | 1B/E6DC7480              |          119837324416

 2017-02-04 01:04:48.161624+01 | 1486166688.16162 | 1B/E831E4B8              |          119859700920

 2017-02-04 01:04:49.252175+01 | 1486166689.25218 | 1B/E987EC48              |          119882116168

 2017-02-04 01:04:50.330018+01 | 1486166690.33002 | 1B/EAE3CD30              |          119904914736

 2017-02-04 01:04:51.39991+01 | 1486166691.39991 | 1B/EBFFF238              |          119923536440

 2017-02-04 01:04:52.482591+01 | 1486166692.48259 | 1B/ED3E25A0              |          119944390048

 2017-02-04 01:04:53.566964+01 | 1486166693.56696 | 1B/EE6DB9E0              |          119964285408

 2017-02-04 01:04:54.654569+01 | 1486166694.65457 | 1B/EF98E538              |          119983891768

 2017-02-04 01:04:55.745694+01 | 1486166695.74569 | 1B/F0F686E8              |          120006805224

 2017-02-04 01:04:56.831705+01 | 1486166696.83171 | 1B/F277A2F8              |          120032043768

 2017-02-04 01:04:57.90027+01 | 1486166697.90027 | 1B/F3C46A50              |          120053852752

 2017-02-04 01:04:58.989219+01 | 1486166698.98922 | 1B/F53298D8              |          120077850840

 2017-02-04 01:05:00.076898+01 | 1486166700.0769 | 1B/F6BCDAC8              |          120103688904

 2017-02-04 01:05:01.152999+01 | 1486166701.153 | 1B/F84AB3F0              |          120129762288

 2017-02-04 01:05:02.242936+01 | 1486166702.24294 | 1B/FA1D60C0              |          120160346304

 2017-02-04 01:05:03.336278+01 | 1486166703.33628 | 1B/FB6CD050              |          120182329424

 2017-02-04 01:05:04.42304+01 | 1486166704.42304 | 1B/FC64D290              |          120198582928

 2017-02-04 01:05:05.518943+01 | 1486166705.51894 | 1B/FD47E740              |          120213464896

 2017-02-04 01:05:06.623377+01 | 1486166706.62338 | 1B/FE419560              |          120229827936

 2017-02-04 01:05:07.71352+01 | 1486166707.71352 | 1B/FF4E24E8              |          120247428328

 2017-02-04 01:05:08.784313+01 | 1486166708.78431 | 1C/66CAB8                |          120265820856

 2017-02-04 01:05:09.865158+01 | 1486166709.86516 | 1C/188B3E0               |          120284820448

 2017-02-04 01:05:10.932978+01 | 1486166710.93298 | 1C/29788B0               |          120302569648

 2017-02-04 01:05:12.011594+01 | 1486166712.01159 | 1C/3D60548               |          120323441992

 2017-02-04 01:05:13.072742+01 | 1486166713.07274 | 1C/4F4AB18               |          120342227736

 2017-02-04 01:05:14.147755+01 | 1486166714.14775 | 1C/6033398               |          120359957400

 2017-02-04 01:05:15.244971+01 | 1486166715.24497 | 1C/73B34C0               |          120380404928

 2017-02-04 01:05:16.331293+01 | 1486166716.33129 | 1C/85A4F48               |          120399220552

 2017-02-04 01:05:17.427996+01 | 1486166717.428 | 1C/9A03A78               |          120420579960

 2017-02-04 01:05:18.497957+01 | 1486166718.49796 | 1C/AB4F2F8               |          120438715128

 2017-02-04 01:05:19.597599+01 | 1486166719.5976 | 1C/BDC7C08               |          120458083336

 2017-02-04 01:05:20.679289+01 | 1486166720.67929 | 1C/CFFFFA0               |          120477188000

 2017-02-04 01:05:21.755303+01 | 1486166721.7553 | 1C/E0B08F0               |          120494688496

 2017-02-04 01:05:22.841183+01 | 1486166722.84118 | 1C/F337320               |          120514114336

 2017-02-04 01:05:23.94099+01 | 1486166723.94099 | 1C/1066CF00              |          120534257408

 2017-02-04 01:05:25.025896+01 | 1486166725.0259 | 1C/11998520              |          120554358048

 2017-02-04 01:05:26.112174+01 | 1486166726.11217 | 1C/12D88968              |          120575265128

 2017-02-04 01:05:27.206239+01 | 1486166727.20624 | 1C/14170430              |          120596137008

 2017-02-04 01:05:28.293065+01 | 1486166728.29307 | 1C/150F9930              |          120612428080

 2017-02-04 01:05:29.374537+01 | 1486166729.37454 | 1C/15FA9A48              |          120627829320

 2017-02-04 01:05:30.444759+01 | 1486166730.44476 | 1C/16CF70F8              |          120641777912

 2017-02-04 01:05:31.511664+01 | 1486166731.51166 | 1C/179C4E60              |          120655203936

 2017-02-04 01:05:32.607487+01 | 1486166732.60749 | 1C/1884DE98              |          120670445208

 2017-02-04 01:05:33.694891+01 | 1486166733.69489 | 1C/197FA908              |          120686881032

 2017-02-04 01:05:34.790118+01 | 1486166734.79012 | 1C/1A767CD8              |          120703057112

 2017-02-04 01:05:35.888545+01 | 1486166735.88855 | 1C/1B871E60              |          120720924256

 2017-02-04 01:05:36.977993+01 | 1486166736.97799 | 1C/1C924878              |          120738433144

 2017-02-04 01:05:38.066717+01 | 1486166738.06672 | 1C/1DB2FD98              |          120757353880

 2017-02-04 01:05:39.13941+01 | 1486166739.13941 | 1C/1EC81AD8              |          120775514840

 2017-02-04 01:05:40.216904+01 | 1486166740.2169 | 1C/1FCF9478              |          120792781944

 2017-02-04 01:05:41.299057+01 | 1486166741.29906 | 1C/20CE3C18              |          120809471000

 2017-02-04 01:05:42.387709+01 | 1486166742.38771 | 1C/21E236E8              |          120827557608

 2017-02-04 01:05:43.482702+01 | 1486166743.4827 | 1C/22FFD558              |          120846275928

 2017-02-04 01:05:44.588807+01 | 1486166744.58881 | 1C/24159150              |          120864477520

 2017-02-04 01:05:45.671861+01 | 1486166745.67186 | 1C/252B6D80              |          120882687360

 2017-02-04 01:05:46.767928+01 | 1486166746.76793 | 1C/26146628              |          120897955368

 2017-02-04 01:05:47.86272+01 | 1486166747.86272 | 1C/26E37548              |          120911525192

 2017-02-04 01:05:48.941898+01 | 1486166748.9419 | 1C/27BBBBA0              |          120925698976

 2017-02-04 01:05:50.008103+01 | 1486166750.0081 | 1C/2858E5A8              |          120935998888

 2017-02-04 01:05:51.099837+01 | 1486166751.09984 | 1C/29559C00              |          120952560640

 2017-02-04 01:05:52.161228+01 | 1486166752.16123 | 1C/2A1A7C18              |          120965463064

 2017-02-04 01:05:53.267518+01 | 1486166753.26752 | 1C/2AFFBFB0              |          120980488112

 2017-02-04 01:05:54.33939+01 | 1486166754.33939 | 1C/2BFD7720              |          120997115680

 2017-02-04 01:05:55.420427+01 | 1486166755.42043 | 1C/2D218E80              |          121016258176

 2017-02-04 01:05:56.511927+01 | 1486166756.51193 | 1C/2E792B00              |          121038777088

 2017-02-04 01:05:57.576793+01 | 1486166757.57679 | 1C/2FF27518              |          121063503128

