 2017-02-06 05:27:19.083791+01 | 1486355239.08379 |                 0 |              15 |                   527 |                    7 |               2231 |             0 |                0 |          487843 |                     0 |        191848 | 2017-02-06 04:16:52.110245+01

 2017-02-06 05:27:20.170808+01 | 1486355240.17081 |                 0 |              15 |                   527 |                    7 |               2231 |             0 |                0 |          487843 |                     0 |        191848 | 2017-02-06 04:16:52.110245+01

 2017-02-06 05:27:21.258219+01 | 1486355241.25822 |                 0 |              15 |                   527 |                    7 |               2231 |             0 |                0 |          487843 |                     0 |        191848 | 2017-02-06 04:16:52.110245+01

 2017-02-06 05:27:22.339243+01 | 1486355242.33924 |                 0 |              15 |                   527 |                    7 |               2231 |             0 |                0 |          487843 |                     0 |        191848 | 2017-02-06 04:16:52.110245+01

 2017-02-06 05:27:23.410239+01 | 1486355243.41024 |                 0 |              15 |                   527 |                    7 |               2231 |             0 |                0 |          487843 |                     0 |        191848 | 2017-02-06 04:16:52.110245+01

 2017-02-06 05:27:24.487099+01 | 1486355244.4871 |                 0 |              15 |                   527 |                    7 |               2231 |             0 |                0 |          487843 |                     0 |        191848 | 2017-02-06 04:16:52.110245+01

 2017-02-06 05:27:25.572258+01 | 1486355245.57226 |                 0 |              15 |                   527 |                    7 |               2231 |             0 |                0 |          487843 |                     0 |        191848 | 2017-02-06 04:16:52.110245+01

 2017-02-06 05:27:26.655875+01 | 1486355246.65587 |                 0 |              15 |                   527 |                    7 |               2231 |             0 |                0 |          487843 |                     0 |        191848 | 2017-02-06 04:16:52.110245+01

 2017-02-06 05:27:27.73767+01 | 1486355247.73767 |                 0 |              15 |                   527 |                    7 |               2231 |             0 |                0 |          487843 |                     0 |        191848 | 2017-02-06 04:16:52.110245+01

 2017-02-06 05:27:28.819534+01 | 1486355248.81953 |                 0 |              15 |                   527 |                    7 |               2231 |             0 |                0 |          487843 |                     0 |        191848 | 2017-02-06 04:16:52.110245+01

 2017-02-06 05:27:29.899711+01 | 1486355249.89971 |                 0 |              15 |                   527 |                    7 |               2231 |             0 |                0 |          487843 |                     0 |        191848 | 2017-02-06 04:16:52.110245+01

 2017-02-06 05:27:30.974647+01 | 1486355250.97465 |                 0 |              15 |                   527 |                    7 |               2231 |             0 |                0 |          487843 |                     0 |        191848 | 2017-02-06 04:16:52.110245+01

 2017-02-06 05:27:32.048321+01 | 1486355252.04832 |                 0 |              15 |                   527 |                    7 |               2231 |             0 |                0 |          487843 |                     0 |        191848 | 2017-02-06 04:16:52.110245+01

 2017-02-06 05:27:33.126029+01 | 1486355253.12603 |                 0 |              15 |                   527 |                    7 |               2231 |             0 |                0 |          487843 |                     0 |        191848 | 2017-02-06 04:16:52.110245+01

 2017-02-06 05:27:34.196753+01 | 1486355254.19675 |                 0 |              15 |                   527 |                    7 |               2231 |             0 |                0 |          487843 |                     0 |        191848 | 2017-02-06 04:16:52.110245+01

 2017-02-06 05:27:35.27271+01 | 1486355255.27271 |                 0 |              15 |                   527 |                    7 |               2231 |             0 |                0 |          487843 |                     0 |        191848 | 2017-02-06 04:16:52.110245+01

 2017-02-06 05:27:36.355743+01 | 1486355256.35574 |                 0 |              15 |                   527 |                    7 |               2231 |             0 |                0 |          487843 |                     0 |        191848 | 2017-02-06 04:16:52.110245+01

 2017-02-06 05:27:37.442482+01 | 1486355257.44248 |                 0 |              15 |                   527 |                    7 |               2231 |             0 |                0 |          487843 |                     0 |        191848 | 2017-02-06 04:16:52.110245+01

 2017-02-06 05:27:38.52747+01 | 1486355258.52747 |                 0 |              15 |                   527 |                    7 |               2231 |             0 |                0 |          487843 |                     0 |        191848 | 2017-02-06 04:16:52.110245+01

 2017-02-06 05:27:39.618173+01 | 1486355259.61817 |                 0 |              15 |                   527 |                    7 |               2231 |             0 |                0 |          487843 |                     0 |        191848 | 2017-02-06 04:16:52.110245+01

 2017-02-06 05:27:40.699707+01 | 1486355260.69971 |                 0 |              15 |                   527 |                    7 |               2231 |             0 |                0 |          487843 |                     0 |        191848 | 2017-02-06 04:16:52.110245+01

 2017-02-06 05:27:41.778267+01 | 1486355261.77827 |                 0 |              15 |                   527 |                    7 |               2231 |             0 |                0 |          487843 |                     0 |        191848 | 2017-02-06 04:16:52.110245+01

 2017-02-06 05:27:42.860677+01 | 1486355262.86068 |                 0 |              15 |                   527 |                    7 |               2231 |             0 |                0 |          487843 |                     0 |        191848 | 2017-02-06 04:16:52.110245+01

 2017-02-06 05:27:43.94282+01 | 1486355263.94282 |                 0 |              15 |                   527 |                    7 |               2231 |             0 |                0 |          487843 |                     0 |        191848 | 2017-02-06 04:16:52.110245+01

 2017-02-06 05:27:45.028046+01 | 1486355265.02805 |                 0 |              15 |                   527 |                    7 |               2231 |             0 |                0 |          487843 |                     0 |        191848 | 2017-02-06 04:16:52.110245+01

 2017-02-06 05:27:46.108526+01 | 1486355266.10853 |                 0 |              15 |                   527 |                    7 |               2231 |             0 |                0 |          487843 |                     0 |        191848 | 2017-02-06 04:16:52.110245+01

 2017-02-06 05:27:47.188516+01 | 1486355267.18852 |                 0 |              15 |                   527 |                    7 |               2231 |             0 |                0 |          487843 |                     0 |        191848 | 2017-02-06 04:16:52.110245+01

 2017-02-06 05:27:48.270941+01 | 1486355268.27094 |                 0 |              15 |                   527 |                    7 |               2231 |             0 |                0 |          487843 |                     0 |        191848 | 2017-02-06 04:16:52.110245+01

 2017-02-06 05:27:49.356277+01 | 1486355269.35628 |                 0 |              15 |                   527 |                    7 |               2231 |             0 |                0 |          487843 |                     0 |        191848 | 2017-02-06 04:16:52.110245+01

 2017-02-06 05:27:50.440157+01 | 1486355270.44016 |                 0 |              15 |                   527 |                    7 |               2231 |             0 |                0 |          487843 |                     0 |        191848 | 2017-02-06 04:16:52.110245+01

 2017-02-06 05:27:51.525987+01 | 1486355271.52599 |                 0 |              15 |                   527 |                    7 |               2231 |             0 |                0 |          487843 |                     0 |        191848 | 2017-02-06 04:16:52.110245+01

 2017-02-06 05:27:52.610015+01 | 1486355272.61001 |                 0 |              15 |                   527 |                    7 |               2231 |             0 |                0 |          487843 |                     0 |        191848 | 2017-02-06 04:16:52.110245+01

 2017-02-06 05:27:53.691853+01 | 1486355273.69185 |                 0 |              15 |                   527 |                    7 |               2231 |             0 |                0 |          487843 |                     0 |        191848 | 2017-02-06 04:16:52.110245+01

 2017-02-06 05:27:54.763448+01 | 1486355274.76345 |                 0 |              15 |                   527 |                    7 |               2231 |             0 |                0 |          487843 |                     0 |        191848 | 2017-02-06 04:16:52.110245+01

 2017-02-06 05:27:55.834741+01 | 1486355275.83474 |                 0 |              15 |                   527 |                    7 |               2231 |             0 |                0 |          487843 |                     0 |        191848 | 2017-02-06 04:16:52.110245+01

 2017-02-06 05:27:56.908761+01 | 1486355276.90876 |                 0 |              15 |                   527 |                    7 |               2231 |             0 |                0 |          487843 |                     0 |        191848 | 2017-02-06 04:16:52.110245+01

 2017-02-06 05:27:57.990786+01 | 1486355277.99079 |                 0 |              15 |                   527 |                    7 |               2231 |             0 |                0 |          487843 |                     0 |        191848 | 2017-02-06 04:16:52.110245+01

 2017-02-06 05:27:59.06271+01 | 1486355279.06271 |                 0 |              15 |                   527 |                    7 |               2231 |             0 |                0 |          487843 |                     0 |        191848 | 2017-02-06 04:16:52.110245+01

 2017-02-06 05:28:00.143801+01 | 1486355280.1438 |                 0 |              15 |                   527 |                    7 |               2231 |             0 |                0 |          487843 |                     0 |        191848 | 2017-02-06 04:16:52.110245+01

 2017-02-06 05:28:01.225201+01 | 1486355281.2252 |                 0 |              15 |                   527 |                    7 |               2231 |             0 |                0 |          487843 |                     0 |        191848 | 2017-02-06 04:16:52.110245+01

 2017-02-06 05:28:02.302532+01 | 1486355282.30253 |                 0 |              15 |                   527 |                    7 |               2231 |             0 |                0 |          487843 |                     0 |        191848 | 2017-02-06 04:16:52.110245+01

 2017-02-06 05:28:03.376201+01 | 1486355283.3762 |                 0 |              15 |                   527 |                    7 |               2231 |             0 |                0 |          487843 |                     0 |        191848 | 2017-02-06 04:16:52.110245+01

 2017-02-06 05:28:04.46122+01 | 1486355284.46122 |                 0 |              15 |                   527 |                    7 |               2231 |             0 |                0 |          487843 |                     0 |        191848 | 2017-02-06 04:16:52.110245+01

 2017-02-06 05:28:05.532282+01 | 1486355285.53228 |                 0 |              15 |                   527 |                    7 |               2231 |             0 |                0 |          487843 |                     0 |        191848 | 2017-02-06 04:16:52.110245+01

 2017-02-06 05:28:06.612109+01 | 1486355286.61211 |                 0 |              15 |                   527 |                    7 |               2231 |             0 |                0 |          487843 |                     0 |        191848 | 2017-02-06 04:16:52.110245+01

 2017-02-06 05:28:07.697492+01 | 1486355287.69749 |                 0 |              15 |                   527 |                    7 |               2231 |             0 |                0 |          487843 |                     0 |        191848 | 2017-02-06 04:16:52.110245+01

 2017-02-06 05:28:08.790381+01 | 1486355288.79038 |                 0 |              15 |                   527 |                    7 |               2231 |             0 |                0 |          487843 |                     0 |        191848 | 2017-02-06 04:16:52.110245+01

 2017-02-06 05:28:09.867813+01 | 1486355289.86781 |                 0 |              15 |                   527 |                    7 |               2231 |             0 |                0 |          487843 |                     0 |        191848 | 2017-02-06 04:16:52.110245+01

 2017-02-06 05:28:10.950071+01 | 1486355290.95007 |                 0 |              15 |                   527 |                    7 |               2231 |             0 |                0 |          487843 |                     0 |        191848 | 2017-02-06 04:16:52.110245+01

 2017-02-06 05:28:12.029838+01 | 1486355292.02984 |                 0 |              15 |                   527 |                    7 |               2231 |             0 |                0 |          487843 |                     0 |        191848 | 2017-02-06 04:16:52.110245+01

 2017-02-06 05:28:13.108521+01 | 1486355293.10852 |                 0 |              15 |                   527 |                    7 |               2231 |             0 |                0 |          487843 |                     0 |        191848 | 2017-02-06 04:16:52.110245+01

 2017-02-06 05:28:14.19571+01 | 1486355294.19571 |                 0 |              15 |                   527 |                    7 |               2231 |             0 |                0 |          487843 |                     0 |        191848 | 2017-02-06 04:16:52.110245+01

 2017-02-06 05:28:15.27744+01 | 1486355295.27744 |                 0 |              15 |                   527 |                    7 |               2231 |             0 |                0 |          487843 |                     0 |        191848 | 2017-02-06 04:16:52.110245+01

 2017-02-06 05:28:16.363466+01 | 1486355296.36347 |                 0 |              15 |                   527 |                    7 |               2231 |             0 |                0 |          487843 |                     0 |        191848 | 2017-02-06 04:16:52.110245+01

 2017-02-06 05:28:17.454441+01 | 1486355297.45444 |                 0 |              15 |                   527 |                    7 |               2231 |             0 |                0 |          487843 |                     0 |        191848 | 2017-02-06 04:16:52.110245+01

 2017-02-06 05:28:18.529555+01 | 1486355298.52956 |                 0 |              15 |                   527 |                    7 |               2231 |             0 |                0 |          487843 |                     0 |        191848 | 2017-02-06 04:16:52.110245+01

 2017-02-06 05:28:19.610929+01 | 1486355299.61093 |                 0 |              15 |                   527 |                    7 |               2231 |             0 |                0 |          487843 |                     0 |        191848 | 2017-02-06 04:16:52.110245+01

 2017-02-06 05:28:20.701137+01 | 1486355300.70114 |                 0 |              15 |                   527 |                    7 |               2231 |             0 |                0 |          487843 |                     0 |        191848 | 2017-02-06 04:16:52.110245+01

 2017-02-06 05:28:21.778647+01 | 1486355301.77865 |                 0 |              15 |                   527 |                    7 |               2231 |             0 |                0 |          487843 |                     0 |        191848 | 2017-02-06 04:16:52.110245+01

 2017-02-06 05:28:22.861629+01 | 1486355302.86163 |                 0 |              15 |                   527 |                    7 |               2231 |             0 |                0 |          487843 |                     0 |        191848 | 2017-02-06 04:16:52.110245+01

 2017-02-06 05:28:23.948186+01 | 1486355303.94819 |                 0 |              15 |                   527 |                    7 |               2231 |             0 |                0 |          487843 |                     0 |        191848 | 2017-02-06 04:16:52.110245+01

 2017-02-06 05:28:25.032401+01 | 1486355305.0324 |                 0 |              15 |                   527 |                    7 |               2231 |             0 |                0 |          487843 |                     0 |        191848 | 2017-02-06 04:16:52.110245+01

 2017-02-06 05:28:26.112726+01 | 1486355306.11273 |                 0 |              15 |                   527 |                    7 |               2231 |             0 |                0 |          487843 |                     0 |        191848 | 2017-02-06 04:16:52.110245+01

 2017-02-06 05:28:27.186713+01 | 1486355307.18671 |                 0 |              15 |                   527 |                    7 |               2231 |             0 |                0 |          487843 |                     0 |        191848 | 2017-02-06 04:16:52.110245+01

 2017-02-06 05:28:28.258906+01 | 1486355308.25891 |                 0 |              15 |                   527 |                    7 |               2231 |             0 |                0 |          487843 |                     0 |        191848 | 2017-02-06 04:16:52.110245+01

 2017-02-06 05:28:29.344549+01 | 1486355309.34455 |                 0 |              15 |                   527 |                    7 |               2231 |             0 |                0 |          487843 |                     0 |        191848 | 2017-02-06 04:16:52.110245+01

 2017-02-06 05:28:30.423217+01 | 1486355310.42322 |                 0 |              15 |                   527 |                    7 |               2231 |             0 |                0 |          487843 |                     0 |        191848 | 2017-02-06 04:16:52.110245+01

 2017-02-06 05:28:31.501011+01 | 1486355311.50101 |                 0 |              15 |                   527 |                    7 |               2231 |             0 |                0 |          487843 |                     0 |        191848 | 2017-02-06 04:16:52.110245+01

 2017-02-06 05:28:32.582951+01 | 1486355312.58295 |                 0 |              15 |                   527 |                    7 |               2231 |             0 |                0 |          487843 |                     0 |        191848 | 2017-02-06 04:16:52.110245+01

 2017-02-06 05:28:33.656582+01 | 1486355313.65658 |                 0 |              15 |                   527 |                    7 |               2231 |             0 |                0 |          487843 |                     0 |        191848 | 2017-02-06 04:16:52.110245+01

 2017-02-06 05:28:34.73929+01 | 1486355314.73929 |                 0 |              15 |                   527 |                    7 |               2231 |             0 |                0 |          487843 |                     0 |        191848 | 2017-02-06 04:16:52.110245+01

 2017-02-06 05:28:35.805159+01 | 1486355315.80516 |                 0 |              15 |                   527 |                    7 |               2231 |             0 |                0 |          487843 |                     0 |        191848 | 2017-02-06 04:16:52.110245+01

 2017-02-06 05:28:36.878895+01 | 1486355316.8789 |                 0 |              15 |                   527 |                    7 |               2231 |             0 |                0 |          487843 |                     0 |        191848 | 2017-02-06 04:16:52.110245+01

 2017-02-06 05:28:37.953828+01 | 1486355317.95383 |                 0 |              15 |                   527 |                    7 |               2231 |             0 |                0 |          487843 |                     0 |        191848 | 2017-02-06 04:16:52.110245+01

 2017-02-06 05:28:39.032236+01 | 1486355319.03224 |                 0 |              15 |                   527 |                    7 |               2231 |             0 |                0 |          487843 |                     0 |        191848 | 2017-02-06 04:16:52.110245+01

 2017-02-06 05:28:40.104233+01 | 1486355320.10423 |                 0 |              15 |                   527 |                    7 |               2231 |             0 |                0 |          487843 |                     0 |        191848 | 2017-02-06 04:16:52.110245+01

 2017-02-06 05:28:41.177993+01 | 1486355321.17799 |                 0 |              15 |                   527 |                    7 |               2231 |             0 |                0 |          487843 |                     0 |        191848 | 2017-02-06 04:16:52.110245+01

 2017-02-06 05:28:42.250956+01 | 1486355322.25096 |                 0 |              15 |                   527 |                    7 |               2231 |             0 |                0 |          487843 |                     0 |        191848 | 2017-02-06 04:16:52.110245+01

 2017-02-06 05:28:43.323811+01 | 1486355323.32381 |                 0 |              15 |                   527 |                    7 |               2231 |             0 |                0 |          487843 |                     0 |        191848 | 2017-02-06 04:16:52.110245+01

 2017-02-06 05:28:44.395086+01 | 1486355324.39509 |                 0 |              15 |                   527 |                    7 |               2231 |             0 |                0 |          487843 |                     0 |        191848 | 2017-02-06 04:16:52.110245+01

 2017-02-06 05:28:45.464127+01 | 1486355325.46413 |                 0 |              15 |                   527 |                    7 |               2231 |             0 |                0 |          487843 |                     0 |        191848 | 2017-02-06 04:16:52.110245+01

 2017-02-06 05:28:46.544476+01 | 1486355326.54448 |                 0 |              15 |                   527 |                    7 |               2231 |             0 |                0 |          487843 |                     0 |        191848 | 2017-02-06 04:16:52.110245+01

 2017-02-06 05:28:47.625284+01 | 1486355327.62528 |                 0 |              15 |                   527 |                    7 |               2231 |             0 |                0 |          487843 |                     0 |        191848 | 2017-02-06 04:16:52.110245+01

 2017-02-06 05:28:48.711254+01 | 1486355328.71125 |                 0 |              15 |                   527 |                    7 |               2231 |             0 |                0 |          487843 |                     0 |        191848 | 2017-02-06 04:16:52.110245+01

 2017-02-06 05:28:49.79144+01 | 1486355329.79144 |                 0 |              15 |                   527 |                    7 |               2231 |             0 |                0 |          487843 |                     0 |        191848 | 2017-02-06 04:16:52.110245+01

 2017-02-06 05:28:50.875004+01 | 1486355330.875 |                 0 |              15 |                   527 |                    7 |               2231 |             0 |                0 |          487843 |                     0 |        191848 | 2017-02-06 04:16:52.110245+01

 2017-02-06 05:28:51.95051+01 | 1486355331.95051 |                 0 |              15 |                   527 |                    7 |               2231 |             0 |                0 |          487843 |                     0 |        191848 | 2017-02-06 04:16:52.110245+01

 2017-02-06 05:28:53.023485+01 | 1486355333.02348 |                 0 |              15 |                   527 |                    7 |               2231 |             0 |                0 |          487843 |                     0 |        191848 | 2017-02-06 04:16:52.110245+01

 2017-02-06 05:28:54.095809+01 | 1486355334.09581 |                 0 |              15 |                   527 |                    7 |               2231 |             0 |                0 |          487843 |                     0 |        191848 | 2017-02-06 04:16:52.110245+01

 2017-02-06 05:28:55.181355+01 | 1486355335.18135 |                 0 |              15 |                   527 |                    7 |               2231 |             0 |                0 |          487843 |                     0 |        191848 | 2017-02-06 04:16:52.110245+01

 2017-02-06 05:28:56.267048+01 | 1486355336.26705 |                 0 |              15 |                   527 |                    7 |               2231 |             0 |                0 |          487843 |                     0 |        191848 | 2017-02-06 04:16:52.110245+01

 2017-02-06 05:28:57.345654+01 | 1486355337.34565 |                 0 |              15 |                   527 |                    7 |               2231 |             0 |                0 |          487843 |                     0 |        191848 | 2017-02-06 04:16:52.110245+01

 2017-02-06 05:28:58.431233+01 | 1486355338.43123 |                 0 |              15 |                   527 |                    7 |               2231 |             0 |                0 |          487843 |                     0 |        191848 | 2017-02-06 04:16:52.110245+01

 2017-02-06 05:28:59.510318+01 | 1486355339.51032 |                 0 |              15 |                   527 |                    7 |               2231 |             0 |                0 |          487843 |                     0 |        191848 | 2017-02-06 04:16:52.110245+01

 2017-02-06 05:29:00.594338+01 | 1486355340.59434 |                 0 |              15 |                   527 |                    7 |               2231 |             0 |                0 |          487843 |                     0 |        191848 | 2017-02-06 04:16:52.110245+01

 2017-02-06 05:29:01.673848+01 | 1486355341.67385 |                 0 |              15 |                   527 |                    7 |               2231 |             0 |                0 |          487843 |                     0 |        191848 | 2017-02-06 04:16:52.110245+01

 2017-02-06 05:29:02.758055+01 | 1486355342.75805 |                 0 |              15 |                   527 |                    7 |               2231 |             0 |                0 |          487843 |                     0 |        191848 | 2017-02-06 04:16:52.110245+01

 2017-02-06 05:29:03.836554+01 | 1486355343.83655 |                 0 |              15 |                   527 |                    7 |               2231 |             0 |                0 |          487843 |                     0 |        191848 | 2017-02-06 04:16:52.110245+01

 2017-02-06 05:29:04.924211+01 | 1486355344.92421 |                 0 |              15 |                   527 |                    7 |               2231 |             0 |                0 |          487843 |                     0 |        191848 | 2017-02-06 04:16:52.110245+01

 2017-02-06 05:29:06.009377+01 | 1486355346.00938 |                 0 |              15 |                   527 |                    7 |               2231 |             0 |                0 |          487843 |                     0 |        191848 | 2017-02-06 04:16:52.110245+01

 2017-02-06 05:29:07.095951+01 | 1486355347.09595 |                 0 |              15 |                   527 |                    7 |               2231 |             0 |                0 |          487843 |                     0 |        191848 | 2017-02-06 04:16:52.110245+01

 2017-02-06 05:29:08.171323+01 | 1486355348.17132 |                 0 |              15 |                   527 |                    7 |               2231 |             0 |                0 |          487843 |                     0 |        191848 | 2017-02-06 04:16:52.110245+01

 2017-02-06 05:29:09.251505+01 | 1486355349.2515 |                 0 |              15 |                   527 |                    7 |               2231 |             0 |                0 |          487843 |                     0 |        191848 | 2017-02-06 04:16:52.110245+01

 2017-02-06 05:29:10.332969+01 | 1486355350.33297 |                 0 |              15 |                   527 |                    7 |               2231 |             0 |                0 |          487843 |                     0 |        191848 | 2017-02-06 04:16:52.110245+01

 2017-02-06 05:29:11.421839+01 | 1486355351.42184 |                 0 |              15 |                   527 |                    7 |               2231 |             0 |                0 |          487843 |                     0 |        191848 | 2017-02-06 04:16:52.110245+01

 2017-02-06 05:29:12.499606+01 | 1486355352.49961 |                 0 |              15 |                   527 |                    7 |               2231 |             0 |                0 |          487843 |                     0 |        191848 | 2017-02-06 04:16:52.110245+01

 2017-02-06 05:29:13.566681+01 | 1486355353.56668 |                 0 |              15 |                   527 |                    7 |               2231 |             0 |                0 |          487843 |                     0 |        191848 | 2017-02-06 04:16:52.110245+01

 2017-02-06 05:29:14.645186+01 | 1486355354.64519 |                 0 |              15 |                   527 |                    7 |               2231 |             0 |                0 |          487843 |                     0 |        191848 | 2017-02-06 04:16:52.110245+01

 2017-02-06 05:29:15.724193+01 | 1486355355.72419 |                 0 |              15 |                   527 |                    7 |               2231 |             0 |                0 |          487843 |                     0 |        191848 | 2017-02-06 04:16:52.110245+01

 2017-02-06 05:29:16.808561+01 | 1486355356.80856 |                 0 |              15 |                   527 |                    7 |               2231 |             0 |                0 |          487843 |                     0 |        191848 | 2017-02-06 04:16:52.110245+01

 2017-02-06 05:29:17.881726+01 | 1486355357.88173 |                 0 |              15 |                   527 |                    7 |               2231 |             0 |                0 |          487843 |                     0 |        191848 | 2017-02-06 04:16:52.110245+01

 2017-02-06 05:29:18.962459+01 | 1486355358.96246 |                 0 |              15 |                   527 |                    7 |               2231 |             0 |                0 |          487843 |                     0 |        191848 | 2017-02-06 04:16:52.110245+01

 2017-02-06 05:29:20.042972+01 | 1486355360.04297 |                 0 |              15 |                   527 |                    7 |               2231 |             0 |                0 |          487843 |                     0 |        191848 | 2017-02-06 04:16:52.110245+01

 2017-02-06 05:29:21.118131+01 | 1486355361.11813 |                 0 |              15 |                   527 |                    7 |               2231 |             0 |                0 |          487843 |                     0 |        191848 | 2017-02-06 04:16:52.110245+01

 2017-02-06 05:29:22.202913+01 | 1486355362.20291 |                 0 |              15 |                   527 |                    7 |               2231 |             0 |                0 |          487843 |                     0 |        191848 | 2017-02-06 04:16:52.110245+01

 2017-02-06 05:29:23.295625+01 | 1486355363.29562 |                 0 |              15 |                   527 |                    7 |               2231 |             0 |                0 |          487843 |                     0 |        191848 | 2017-02-06 04:16:52.110245+01

 2017-02-06 05:29:24.367308+01 | 1486355364.36731 |                 0 |              15 |                   527 |                    7 |               2231 |             0 |                0 |          487843 |                     0 |        191848 | 2017-02-06 04:16:52.110245+01

 2017-02-06 05:29:25.435806+01 | 1486355365.43581 |                 0 |              15 |                   527 |                    7 |               2231 |             0 |                0 |          487843 |                     0 |        191848 | 2017-02-06 04:16:52.110245+01

 2017-02-06 05:29:26.521152+01 | 1486355366.52115 |                 0 |              15 |                   527 |                    7 |               2231 |             0 |                0 |          487843 |                     0 |        191848 | 2017-02-06 04:16:52.110245+01

 2017-02-06 05:29:27.607825+01 | 1486355367.60783 |                 0 |              15 |                   527 |                    7 |               2231 |             0 |                0 |          487843 |                     0 |        191848 | 2017-02-06 04:16:52.110245+01

 2017-02-06 05:29:28.691331+01 | 1486355368.69133 |                 0 |              15 |                   527 |                    7 |               2231 |             0 |                0 |          487843 |                     0 |        191848 | 2017-02-06 04:16:52.110245+01

 2017-02-06 05:29:29.76796+01 | 1486355369.76796 |                 0 |              15 |                   527 |                    7 |               2231 |             0 |                0 |          487843 |                     0 |        191848 | 2017-02-06 04:16:52.110245+01

 2017-02-06 05:29:30.854619+01 | 1486355370.85462 |                 0 |              15 |                   527 |                    7 |               2231 |             0 |                0 |          487843 |                     0 |        191848 | 2017-02-06 04:16:52.110245+01

 2017-02-06 05:29:31.932689+01 | 1486355371.93269 |                 0 |              15 |                   527 |                    7 |               2231 |             0 |                0 |          487843 |                     0 |        191848 | 2017-02-06 04:16:52.110245+01

 2017-02-06 05:29:33.012665+01 | 1486355373.01267 |                 0 |              15 |                   527 |                    7 |               2231 |             0 |                0 |          487843 |                     0 |        191848 | 2017-02-06 04:16:52.110245+01

 2017-02-06 05:29:34.102206+01 | 1486355374.10221 |                 0 |              15 |                   527 |                    7 |               2231 |             0 |                0 |          487843 |                     0 |        191848 | 2017-02-06 04:16:52.110245+01

 2017-02-06 05:29:35.180823+01 | 1486355375.18082 |                 0 |              15 |                   527 |                    7 |               2231 |             0 |                0 |          487843 |                     0 |        191848 | 2017-02-06 04:16:52.110245+01

 2017-02-06 05:29:36.266758+01 | 1486355376.26676 |                 0 |              15 |                   527 |                    7 |               2231 |             0 |                0 |          487843 |                     0 |        191848 | 2017-02-06 04:16:52.110245+01

 2017-02-06 05:29:37.345833+01 | 1486355377.34583 |                 0 |              15 |                   527 |                    7 |               2231 |             0 |                0 |          487843 |                     0 |        191848 | 2017-02-06 04:16:52.110245+01

 2017-02-06 05:29:38.424062+01 | 1486355378.42406 |                 0 |              15 |                   527 |                    7 |               2231 |             0 |                0 |          487843 |                     0 |        191848 | 2017-02-06 04:16:52.110245+01

 2017-02-06 05:29:39.503923+01 | 1486355379.50392 |                 0 |              15 |                   527 |                    7 |               2231 |             0 |                0 |          487843 |                     0 |        191848 | 2017-02-06 04:16:52.110245+01

 2017-02-06 05:29:40.591096+01 | 1486355380.5911 |                 0 |              15 |                   527 |                    7 |               2231 |             0 |                0 |          487843 |                     0 |        191848 | 2017-02-06 04:16:52.110245+01

 2017-02-06 05:29:41.677245+01 | 1486355381.67724 |                 0 |              15 |                   527 |                    7 |               2231 |             0 |                0 |          487843 |                     0 |        191848 | 2017-02-06 04:16:52.110245+01

 2017-02-06 05:29:42.768421+01 | 1486355382.76842 |                 0 |              15 |                   527 |                    7 |               2231 |             0 |                0 |          487843 |                     0 |        191848 | 2017-02-06 04:16:52.110245+01

 2017-02-06 05:29:43.851948+01 | 1486355383.85195 |                 0 |              15 |                   527 |                    7 |               2231 |             0 |                0 |          487843 |                     0 |        191848 | 2017-02-06 04:16:52.110245+01

 2017-02-06 05:29:44.936008+01 | 1486355384.93601 |                 0 |              15 |                   527 |                    7 |               2231 |             0 |                0 |          487843 |                     0 |        191848 | 2017-02-06 04:16:52.110245+01

 2017-02-06 05:29:46.005593+01 | 1486355386.00559 |                 0 |              15 |                   527 |                    7 |               2231 |             0 |                0 |          487843 |                     0 |        191848 | 2017-02-06 04:16:52.110245+01

 2017-02-06 05:29:47.094607+01 | 1486355387.09461 |                 0 |              15 |                   527 |                    7 |               2231 |             0 |                0 |          487843 |                     0 |        191848 | 2017-02-06 04:16:52.110245+01

 2017-02-06 05:29:48.169196+01 | 1486355388.1692 |                 0 |              15 |                   527 |                    7 |               2231 |             0 |                0 |          487843 |                     0 |        191848 | 2017-02-06 04:16:52.110245+01

 2017-02-06 05:29:49.254745+01 | 1486355389.25475 |                 0 |              15 |                   527 |                    7 |               2231 |             0 |                0 |          487843 |                     0 |        191848 | 2017-02-06 04:16:52.110245+01

 2017-02-06 05:29:50.343368+01 | 1486355390.34337 |                 0 |              15 |                   527 |                    7 |               2231 |             0 |                0 |          487843 |                     0 |        191848 | 2017-02-06 04:16:52.110245+01

 2017-02-06 05:29:51.427337+01 | 1486355391.42734 |                 0 |              15 |                   527 |                    7 |               2231 |             0 |                0 |          487843 |                     0 |        191848 | 2017-02-06 04:16:52.110245+01

 2017-02-06 05:29:52.507784+01 | 1486355392.50778 |                 0 |              15 |                   527 |                    7 |               2231 |             0 |                0 |          487843 |                     0 |        191848 | 2017-02-06 04:16:52.110245+01

 2017-02-06 05:29:53.589693+01 | 1486355393.58969 |                 0 |              15 |                   527 |                    7 |               2231 |             0 |                0 |          487843 |                     0 |        191848 | 2017-02-06 04:16:52.110245+01

 2017-02-06 05:29:54.672306+01 | 1486355394.67231 |                 0 |              15 |                   527 |                    7 |               2231 |             0 |                0 |          487843 |                     0 |        191848 | 2017-02-06 04:16:52.110245+01

 2017-02-06 05:29:55.74822+01 | 1486355395.74822 |                 0 |              15 |                   527 |                    7 |               2231 |             0 |                0 |          487843 |                     0 |        191848 | 2017-02-06 04:16:52.110245+01

 2017-02-06 05:29:56.817399+01 | 1486355396.8174 |                 0 |              15 |                   527 |                    7 |               2231 |             0 |                0 |          487843 |                     0 |        191848 | 2017-02-06 04:16:52.110245+01

 2017-02-06 05:29:57.896675+01 | 1486355397.89668 |                 0 |              15 |                   527 |                    7 |               2231 |             0 |                0 |          487843 |                     0 |        191848 | 2017-02-06 04:16:52.110245+01

 2017-02-06 05:29:58.974179+01 | 1486355398.97418 |                 0 |              15 |                   527 |                    7 |               2231 |             0 |                0 |          487843 |                     0 |        191848 | 2017-02-06 04:16:52.110245+01

 2017-02-06 05:30:00.062678+01 | 1486355400.06268 |                 0 |              15 |                   527 |                    7 |               2231 |             0 |                0 |          487843 |                     0 |        191848 | 2017-02-06 04:16:52.110245+01

 2017-02-06 05:30:01.150887+01 | 1486355401.15089 |                 0 |              15 |                   527 |                    7 |               2231 |             0 |                0 |          487843 |                     0 |        191848 | 2017-02-06 04:16:52.110245+01

 2017-02-06 05:30:02.225075+01 | 1486355402.22508 |                 0 |              15 |                   527 |                    7 |               2231 |             0 |                0 |          487843 |                     0 |        191848 | 2017-02-06 04:16:52.110245+01

 2017-02-06 05:30:03.306018+01 | 1486355403.30602 |                 0 |              15 |                   527 |                    7 |               2231 |             0 |                0 |          487843 |                     0 |        191848 | 2017-02-06 04:16:52.110245+01

 2017-02-06 05:30:04.378261+01 | 1486355404.37826 |                 0 |              15 |                   527 |                    7 |               2231 |             0 |                0 |          487843 |                     0 |        191848 | 2017-02-06 04:16:52.110245+01

 2017-02-06 05:30:05.4563+01 | 1486355405.4563 |                 0 |              15 |                   527 |                    7 |               2231 |             0 |                0 |          487843 |                     0 |        191848 | 2017-02-06 04:16:52.110245+01

 2017-02-06 05:30:06.535911+01 | 1486355406.53591 |                 0 |              15 |                   527 |                    7 |               2231 |             0 |                0 |          487843 |                     0 |        191848 | 2017-02-06 04:16:52.110245+01

 2017-02-06 05:30:07.618491+01 | 1486355407.61849 |                 0 |              15 |                   527 |                    7 |               2231 |             0 |                0 |          487843 |                     0 |        191848 | 2017-02-06 04:16:52.110245+01

 2017-02-06 05:30:08.698217+01 | 1486355408.69822 |                 0 |              15 |                   527 |                    7 |               2231 |             0 |                0 |          487843 |                     0 |        191848 | 2017-02-06 04:16:52.110245+01

 2017-02-06 05:30:09.78191+01 | 1486355409.78191 |                 0 |              15 |                   527 |                    7 |               2231 |             0 |                0 |          487843 |                     0 |        191848 | 2017-02-06 04:16:52.110245+01

 2017-02-06 05:30:10.861725+01 | 1486355410.86173 |                 0 |              15 |                   527 |                    7 |               2231 |             0 |                0 |          487843 |                     0 |        191848 | 2017-02-06 04:16:52.110245+01

 2017-02-06 05:30:11.94968+01 | 1486355411.94968 |                 0 |              15 |                   527 |                    7 |               2231 |             0 |                0 |          487843 |                     0 |        191848 | 2017-02-06 04:16:52.110245+01

 2017-02-06 05:30:13.026416+01 | 1486355413.02642 |                 0 |              15 |                   527 |                    7 |               2231 |             0 |                0 |          487843 |                     0 |        191848 | 2017-02-06 04:16:52.110245+01

 2017-02-06 05:30:14.117364+01 | 1486355414.11736 |                 0 |              15 |                   527 |                    7 |               2231 |             0 |                0 |          487843 |                     0 |        191848 | 2017-02-06 04:16:52.110245+01

 2017-02-06 05:30:15.204067+01 | 1486355415.20407 |                 0 |              15 |                   527 |                    7 |               2231 |             0 |                0 |          487843 |                     0 |        191848 | 2017-02-06 04:16:52.110245+01

 2017-02-06 05:30:16.280254+01 | 1486355416.28025 |                 0 |              15 |                   527 |                    7 |               2231 |             0 |                0 |          487843 |                     0 |        191848 | 2017-02-06 04:16:52.110245+01

 2017-02-06 05:30:17.352962+01 | 1486355417.35296 |                 0 |              15 |                   527 |                    7 |               2231 |             0 |                0 |          487843 |                     0 |        191848 | 2017-02-06 04:16:52.110245+01

 2017-02-06 05:30:18.433201+01 | 1486355418.4332 |                 0 |              15 |                   527 |                    7 |               2231 |             0 |                0 |          487843 |                     0 |        191848 | 2017-02-06 04:16:52.110245+01

 2017-02-06 05:30:19.519506+01 | 1486355419.51951 |                 0 |              15 |                   527 |                    7 |               2231 |             0 |                0 |          487843 |                     0 |        191848 | 2017-02-06 04:16:52.110245+01

 2017-02-06 05:30:20.595741+01 | 1486355420.59574 |                 0 |              15 |                   527 |                    7 |               2231 |             0 |                0 |          487843 |                     0 |        191848 | 2017-02-06 04:16:52.110245+01

 2017-02-06 05:30:21.673888+01 | 1486355421.67389 |                 0 |              15 |                   527 |                    7 |               2231 |             0 |                0 |          487843 |                     0 |        191848 | 2017-02-06 04:16:52.110245+01

 2017-02-06 05:30:22.749791+01 | 1486355422.74979 |                 0 |              15 |                   527 |                    7 |               2231 |             0 |                0 |          487843 |                     0 |        191848 | 2017-02-06 04:16:52.110245+01

 2017-02-06 05:30:23.822142+01 | 1486355423.82214 |                 0 |              15 |                   527 |                    7 |               2231 |             0 |                0 |          487843 |                     0 |        191848 | 2017-02-06 04:16:52.110245+01

 2017-02-06 05:30:24.907421+01 | 1486355424.90742 |                 0 |              15 |                   527 |                    7 |               2231 |             0 |                0 |          487843 |                     0 |        191848 | 2017-02-06 04:16:52.110245+01

 2017-02-06 05:30:25.989188+01 | 1486355425.98919 |                 0 |              15 |                   527 |                    7 |               2231 |             0 |                0 |          487843 |                     0 |        191848 | 2017-02-06 04:16:52.110245+01

 2017-02-06 05:30:27.065694+01 | 1486355427.06569 |                 0 |              15 |                   527 |                    7 |               2231 |             0 |                0 |          487843 |                     0 |        191848 | 2017-02-06 04:16:52.110245+01

 2017-02-06 05:30:28.145957+01 | 1486355428.14596 |                 0 |              15 |                   527 |                    7 |               2231 |             0 |                0 |          487843 |                     0 |        191848 | 2017-02-06 04:16:52.110245+01

 2017-02-06 05:30:29.225575+01 | 1486355429.22557 |                 0 |              15 |                   527 |                    7 |               2231 |             0 |                0 |          487843 |                     0 |        191848 | 2017-02-06 04:16:52.110245+01

 2017-02-06 05:30:30.307797+01 | 1486355430.3078 |                 0 |              15 |                   527 |                    7 |               2231 |             0 |                0 |          487843 |                     0 |        191848 | 2017-02-06 04:16:52.110245+01

 2017-02-06 05:30:31.388053+01 | 1486355431.38805 |                 0 |              15 |                   527 |                    7 |               2231 |             0 |                0 |          487843 |                     0 |        191848 | 2017-02-06 04:16:52.110245+01

 2017-02-06 05:30:32.476824+01 | 1486355432.47682 |                 0 |              15 |                   527 |                    7 |               2231 |             0 |                0 |          487843 |                     0 |        191848 | 2017-02-06 04:16:52.110245+01

 2017-02-06 05:30:33.559536+01 | 1486355433.55954 |                 0 |              15 |                   527 |                    7 |               2231 |             0 |                0 |          487843 |                     0 |        191848 | 2017-02-06 04:16:52.110245+01

 2017-02-06 05:30:34.63338+01 | 1486355434.63338 |                 0 |              15 |                   527 |                    7 |               2231 |             0 |                0 |          487843 |                     0 |        191848 | 2017-02-06 04:16:52.110245+01

 2017-02-06 05:30:35.710793+01 | 1486355435.71079 |                 0 |              15 |                   527 |                    7 |               2231 |             0 |                0 |          487843 |                     0 |        191848 | 2017-02-06 04:16:52.110245+01

 2017-02-06 05:30:36.789804+01 | 1486355436.7898 |                 0 |              15 |                   527 |                    7 |               2231 |             0 |                0 |          487843 |                     0 |        191848 | 2017-02-06 04:16:52.110245+01

 2017-02-06 05:30:37.875559+01 | 1486355437.87556 |                 0 |              15 |                   527 |                    7 |               2231 |             0 |                0 |          487843 |                     0 |        191848 | 2017-02-06 04:16:52.110245+01

 2017-02-06 05:30:38.961216+01 | 1486355438.96122 |                 0 |              15 |                   527 |                    7 |               2231 |             0 |                0 |          487843 |                     0 |        191848 | 2017-02-06 04:16:52.110245+01

 2017-02-06 05:30:40.049625+01 | 1486355440.04962 |                 0 |              15 |                   527 |                    7 |               2231 |             0 |                0 |          487843 |                     0 |        191848 | 2017-02-06 04:16:52.110245+01

 2017-02-06 05:30:41.133705+01 | 1486355441.1337 |                 0 |              15 |                   527 |                    7 |               2231 |             0 |                0 |          487843 |                     0 |        191848 | 2017-02-06 04:16:52.110245+01

 2017-02-06 05:30:42.209107+01 | 1486355442.20911 |                 0 |              15 |                   527 |                    7 |               2231 |             0 |                0 |          487843 |                     0 |        191848 | 2017-02-06 04:16:52.110245+01

 2017-02-06 05:30:43.294264+01 | 1486355443.29426 |                 0 |              15 |                   527 |                    7 |               2231 |             0 |                0 |          487843 |                     0 |        191848 | 2017-02-06 04:16:52.110245+01

 2017-02-06 05:30:44.375792+01 | 1486355444.37579 |                 0 |              15 |                   527 |                    7 |               2231 |             0 |                0 |          487843 |                     0 |        191848 | 2017-02-06 04:16:52.110245+01

 2017-02-06 05:30:45.465383+01 | 1486355445.46538 |                 0 |              15 |                   527 |                    7 |               2231 |             0 |                0 |          487843 |                     0 |        191848 | 2017-02-06 04:16:52.110245+01

 2017-02-06 05:30:46.544812+01 | 1486355446.54481 |                 0 |              15 |                   527 |                    7 |               2231 |             0 |                0 |          487843 |                     0 |        191848 | 2017-02-06 04:16:52.110245+01

 2017-02-06 05:30:47.632008+01 | 1486355447.63201 |                 0 |              15 |                   527 |                    7 |               2231 |             0 |                0 |          487843 |                     0 |        191848 | 2017-02-06 04:16:52.110245+01

 2017-02-06 05:30:48.713868+01 | 1486355448.71387 |                 0 |              15 |                   527 |                    7 |               2231 |             0 |                0 |          487843 |                     0 |        191848 | 2017-02-06 04:16:52.110245+01

 2017-02-06 05:30:49.805335+01 | 1486355449.80534 |                 0 |              15 |                   527 |                    7 |               2231 |             0 |                0 |          487843 |                     0 |        191848 | 2017-02-06 04:16:52.110245+01

 2017-02-06 05:30:50.876344+01 | 1486355450.87634 |                 0 |              15 |                   527 |                    7 |               2231 |             0 |                0 |          487843 |                     0 |        191848 | 2017-02-06 04:16:52.110245+01

 2017-02-06 05:30:51.961861+01 | 1486355451.96186 |                 0 |              15 |                   527 |                    7 |               2231 |             0 |                0 |          487843 |                     0 |        191848 | 2017-02-06 04:16:52.110245+01

 2017-02-06 05:30:53.046165+01 | 1486355453.04616 |                 0 |              15 |                   527 |                    7 |               2231 |             0 |                0 |          487843 |                     0 |        191848 | 2017-02-06 04:16:52.110245+01

 2017-02-06 05:30:54.115519+01 | 1486355454.11552 |                 0 |              15 |                   527 |                    7 |               2231 |             0 |                0 |          487843 |                     0 |        191848 | 2017-02-06 04:16:52.110245+01

 2017-02-06 05:30:55.189474+01 | 1486355455.18947 |                 0 |              15 |                   527 |                    7 |               2231 |             0 |                0 |          487843 |                     0 |        191848 | 2017-02-06 04:16:52.110245+01

 2017-02-06 05:30:56.267903+01 | 1486355456.2679 |                 0 |              15 |                   527 |                    7 |               2231 |             0 |                0 |          487843 |                     0 |        191848 | 2017-02-06 04:16:52.110245+01

 2017-02-06 05:30:57.347043+01 | 1486355457.34704 |                 0 |              15 |                   527 |                    7 |               2231 |             0 |                0 |          487843 |                     0 |        191848 | 2017-02-06 04:16:52.110245+01

 2017-02-06 05:30:58.423151+01 | 1486355458.42315 |                 0 |              15 |                   527 |                    7 |               2231 |             0 |                0 |          487843 |                     0 |        191848 | 2017-02-06 04:16:52.110245+01

 2017-02-06 05:30:59.506804+01 | 1486355459.5068 |                 0 |              15 |                   527 |                    7 |               2231 |             0 |                0 |          487843 |                     0 |        191848 | 2017-02-06 04:16:52.110245+01

 2017-02-06 05:31:00.593272+01 | 1486355460.59327 |                 0 |              15 |                   527 |                    7 |               2231 |             0 |                0 |          487843 |                     0 |        191848 | 2017-02-06 04:16:52.110245+01

 2017-02-06 05:31:01.666656+01 | 1486355461.66666 |                 0 |              15 |                   527 |                    7 |               2231 |             0 |                0 |          487843 |                     0 |        191848 | 2017-02-06 04:16:52.110245+01

 2017-02-06 05:31:02.745315+01 | 1486355462.74532 |                 0 |              15 |                   527 |                    7 |               2231 |             0 |                0 |          487843 |                     0 |        191848 | 2017-02-06 04:16:52.110245+01

 2017-02-06 05:31:03.832654+01 | 1486355463.83265 |                 0 |              15 |                   527 |                    7 |               2231 |             0 |                0 |          487843 |                     0 |        191848 | 2017-02-06 04:16:52.110245+01

 2017-02-06 05:31:04.920421+01 | 1486355464.92042 |                 0 |              15 |                   527 |                    7 |               2231 |             0 |                0 |          487843 |                     0 |        191848 | 2017-02-06 04:16:52.110245+01

 2017-02-06 05:31:05.99631+01 | 1486355465.99631 |                 0 |              15 |                   527 |                    7 |               2231 |             0 |                0 |          487843 |                     0 |        191848 | 2017-02-06 04:16:52.110245+01

 2017-02-06 05:31:07.071805+01 | 1486355467.07181 |                 0 |              15 |                   527 |                    7 |               2231 |             0 |                0 |          487843 |                     0 |        191848 | 2017-02-06 04:16:52.110245+01

 2017-02-06 05:31:08.145002+01 | 1486355468.145 |                 0 |              15 |                   527 |                    7 |               2231 |             0 |                0 |          487843 |                     0 |        191848 | 2017-02-06 04:16:52.110245+01

 2017-02-06 05:31:09.219796+01 | 1486355469.2198 |                 0 |              15 |                   527 |                    7 |               2231 |             0 |                0 |          487843 |                     0 |        191848 | 2017-02-06 04:16:52.110245+01

 2017-02-06 05:31:10.304873+01 | 1486355470.30487 |                 0 |              15 |                   527 |                    7 |               2231 |             0 |                0 |          487843 |                     0 |        191848 | 2017-02-06 04:16:52.110245+01

 2017-02-06 05:31:11.388969+01 | 1486355471.38897 |                 0 |              15 |                   527 |                    7 |               2231 |             0 |                0 |          487843 |                     0 |        191848 | 2017-02-06 04:16:52.110245+01

 2017-02-06 05:31:12.467896+01 | 1486355472.4679 |                 0 |              15 |                   527 |                    7 |               2231 |             0 |                0 |          487843 |                     0 |        191848 | 2017-02-06 04:16:52.110245+01

 2017-02-06 05:31:13.555211+01 | 1486355473.55521 |                 0 |              15 |                   527 |                    7 |               2231 |             0 |                0 |          487843 |                     0 |        191848 | 2017-02-06 04:16:52.110245+01

 2017-02-06 05:31:14.635317+01 | 1486355474.63532 |                 0 |              15 |                   527 |                    7 |               2231 |             0 |                0 |          487843 |                     0 |        191848 | 2017-02-06 04:16:52.110245+01

 2017-02-06 05:31:15.720942+01 | 1486355475.72094 |                 0 |              15 |                   527 |                    7 |               2231 |             0 |                0 |          487843 |                     0 |        191848 | 2017-02-06 04:16:52.110245+01

 2017-02-06 05:31:16.797066+01 | 1486355476.79707 |                 0 |              15 |                   527 |                    7 |               2231 |             0 |                0 |          487843 |                     0 |        191848 | 2017-02-06 04:16:52.110245+01

 2017-02-06 05:31:17.876821+01 | 1486355477.87682 |                 0 |              15 |                   527 |                    7 |               2231 |             0 |                0 |          487843 |                     0 |        191848 | 2017-02-06 04:16:52.110245+01

 2017-02-06 05:31:18.958836+01 | 1486355478.95884 |                 0 |              15 |                   527 |                    7 |               2231 |             0 |                0 |          487843 |                     0 |        191848 | 2017-02-06 04:16:52.110245+01

 2017-02-06 05:31:20.046645+01 | 1486355480.04664 |                 0 |              15 |                   527 |                    7 |               2231 |             0 |                0 |          487843 |                     0 |        191848 | 2017-02-06 04:16:52.110245+01

 2017-02-06 05:31:21.132083+01 | 1486355481.13208 |                 0 |              15 |                   527 |                    7 |               2231 |             0 |                0 |          487843 |                     0 |        191848 | 2017-02-06 04:16:52.110245+01

 2017-02-06 05:31:22.205153+01 | 1486355482.20515 |                 0 |              15 |                   527 |                    7 |               2231 |             0 |                0 |          487843 |                     0 |        191848 | 2017-02-06 04:16:52.110245+01

 2017-02-06 05:31:23.282301+01 | 1486355483.2823 |                 0 |              15 |                   527 |                    7 |               2231 |             0 |                0 |          487843 |                     0 |        191848 | 2017-02-06 04:16:52.110245+01

 2017-02-06 05:31:24.365535+01 | 1486355484.36554 |                 0 |              15 |                   527 |                    7 |               2231 |             0 |                0 |          487843 |                     0 |        191848 | 2017-02-06 04:16:52.110245+01

 2017-02-06 05:31:25.451176+01 | 1486355485.45118 |                 0 |              15 |                   527 |                    7 |               2231 |             0 |                0 |          487843 |                     0 |        191848 | 2017-02-06 04:16:52.110245+01

 2017-02-06 05:31:26.529872+01 | 1486355486.52987 |                 0 |              15 |                   527 |                    7 |               2231 |             0 |                0 |          487843 |                     0 |        191848 | 2017-02-06 04:16:52.110245+01

 2017-02-06 05:31:27.622869+01 | 1486355487.62287 |                 0 |              15 |                   527 |                    7 |               2231 |             0 |                0 |          487843 |                     0 |        191848 | 2017-02-06 04:16:52.110245+01

 2017-02-06 05:31:28.702032+01 | 1486355488.70203 |                 0 |              15 |                   527 |                    7 |               2231 |             0 |                0 |          487843 |                     0 |        191848 | 2017-02-06 04:16:52.110245+01

 2017-02-06 05:31:29.784619+01 | 1486355489.78462 |                 0 |              15 |                   527 |                    7 |               2231 |             0 |                0 |          487843 |                     0 |        191848 | 2017-02-06 04:16:52.110245+01

 2017-02-06 05:31:30.86043+01 | 1486355490.86043 |                 0 |              15 |                   527 |                    7 |               2231 |             0 |                0 |          487843 |                     0 |        191848 | 2017-02-06 04:16:52.110245+01

 2017-02-06 05:31:31.950115+01 | 1486355491.95011 |                 0 |              15 |                   527 |                    7 |               2231 |             0 |                0 |          487843 |                     0 |        191848 | 2017-02-06 04:16:52.110245+01

 2017-02-06 05:31:33.036034+01 | 1486355493.03603 |                 0 |              15 |                   527 |                    7 |               2231 |             0 |                0 |          487843 |                     0 |        191848 | 2017-02-06 04:16:52.110245+01

 2017-02-06 05:31:34.119175+01 | 1486355494.11917 |                 0 |              15 |                   527 |                    7 |               2231 |             0 |                0 |          487843 |                     0 |        191848 | 2017-02-06 04:16:52.110245+01

 2017-02-06 05:31:35.196532+01 | 1486355495.19653 |                 0 |              15 |                   527 |                    7 |               2231 |             0 |                0 |          487843 |                     0 |        191848 | 2017-02-06 04:16:52.110245+01

 2017-02-06 05:31:36.283185+01 | 1486355496.28319 |                 0 |              15 |                   527 |                    7 |               2231 |             0 |                0 |          487843 |                     0 |        191848 | 2017-02-06 04:16:52.110245+01

 2017-02-06 05:31:37.363351+01 | 1486355497.36335 |                 0 |              15 |                   527 |                    7 |               2231 |             0 |                0 |          487843 |                     0 |        191848 | 2017-02-06 04:16:52.110245+01

 2017-02-06 05:31:38.446981+01 | 1486355498.44698 |                 0 |              15 |                   527 |                    7 |               2231 |             0 |                0 |          487843 |                     0 |        191848 | 2017-02-06 04:16:52.110245+01

 2017-02-06 05:31:39.525028+01 | 1486355499.52503 |                 0 |              15 |                   527 |                    7 |               2231 |             0 |                0 |          487843 |                     0 |        191848 | 2017-02-06 04:16:52.110245+01

 2017-02-06 05:31:40.605988+01 | 1486355500.60599 |                 0 |              15 |                   527 |                    7 |               2231 |             0 |                0 |          487843 |                     0 |        191848 | 2017-02-06 04:16:52.110245+01

 2017-02-06 05:31:41.684143+01 | 1486355501.68414 |                 0 |              15 |                   527 |                    7 |               2231 |             0 |                0 |          487843 |                     0 |        191848 | 2017-02-06 04:16:52.110245+01

 2017-02-06 05:31:42.769073+01 | 1486355502.76907 |                 0 |              15 |                   527 |                    7 |               2231 |             0 |                0 |          487843 |                     0 |        191848 | 2017-02-06 04:16:52.110245+01

 2017-02-06 05:31:43.849456+01 | 1486355503.84946 |                 0 |              15 |                   527 |                    7 |               2231 |             0 |                0 |          487843 |                     0 |        191848 | 2017-02-06 04:16:52.110245+01

 2017-02-06 05:31:44.927487+01 | 1486355504.92749 |                 0 |              15 |                   527 |                    7 |               2231 |             0 |                0 |          487843 |                     0 |        191848 | 2017-02-06 04:16:52.110245+01

 2017-02-06 05:31:46.021485+01 | 1486355506.02149 |                 0 |              15 |                   527 |                    7 |               2231 |             0 |                0 |          487843 |                     0 |        191848 | 2017-02-06 04:16:52.110245+01

 2017-02-06 05:31:47.108469+01 | 1486355507.10847 |                 0 |              15 |                   527 |                    7 |               2231 |             0 |                0 |          487843 |                     0 |        191848 | 2017-02-06 04:16:52.110245+01

 2017-02-06 05:31:48.196696+01 | 1486355508.1967 |                 0 |              15 |                   527 |                    7 |               2231 |             0 |                0 |          487843 |                     0 |        191848 | 2017-02-06 04:16:52.110245+01

 2017-02-06 05:31:49.284603+01 | 1486355509.2846 |                 0 |              15 |                   527 |                    7 |               2231 |             0 |                0 |          487843 |                     0 |        191848 | 2017-02-06 04:16:52.110245+01

 2017-02-06 05:31:50.3706+01 | 1486355510.3706 |                 0 |              15 |                   527 |                    7 |               2231 |             0 |                0 |          487843 |                     0 |        191848 | 2017-02-06 04:16:52.110245+01

 2017-02-06 05:31:51.459549+01 | 1486355511.45955 |                 0 |              15 |                   527 |                    7 |               2231 |             0 |                0 |          487843 |                     0 |        191848 | 2017-02-06 04:16:52.110245+01

 2017-02-06 05:31:52.54004+01 | 1486355512.54004 |                 0 |              15 |                   527 |                    7 |               2231 |             0 |                0 |          487843 |                     0 |        191848 | 2017-02-06 04:16:52.110245+01

 2017-02-06 05:31:53.619794+01 | 1486355513.61979 |                 0 |              15 |                   527 |                    7 |               2231 |             0 |                0 |          487843 |                     0 |        191848 | 2017-02-06 04:16:52.110245+01

 2017-02-06 05:31:54.69707+01 | 1486355514.69707 |                 0 |              15 |                   527 |                    7 |               2231 |             0 |                0 |          487843 |                     0 |        191848 | 2017-02-06 04:16:52.110245+01

 2017-02-06 05:31:55.772342+01 | 1486355515.77234 |                 0 |              15 |                   527 |                    7 |               2231 |             0 |                0 |          487843 |                     0 |        191848 | 2017-02-06 04:16:52.110245+01

 2017-02-06 05:31:56.845569+01 | 1486355516.84557 |                 0 |              15 |                   527 |                    7 |               2231 |             0 |                0 |          487843 |                     0 |        191848 | 2017-02-06 04:16:52.110245+01

 2017-02-06 05:31:57.924398+01 | 1486355517.9244 |                 0 |              15 |                   527 |                    7 |               2231 |             0 |                0 |          487843 |                     0 |        191848 | 2017-02-06 04:16:52.110245+01

 2017-02-06 05:31:59.0014+01 | 1486355519.0014 |                 0 |              15 |                   527 |                    7 |               2231 |             0 |                0 |          487843 |                     0 |        191848 | 2017-02-06 04:16:52.110245+01

 2017-02-06 05:32:00.082663+01 | 1486355520.08266 |                 0 |              15 |                   527 |                    7 |               2231 |             0 |                0 |          487843 |                     0 |        191848 | 2017-02-06 04:16:52.110245+01

 2017-02-06 05:32:01.156097+01 | 1486355521.1561 |                 0 |              15 |                   527 |                    7 |               2231 |             0 |                0 |          487843 |                     0 |        191848 | 2017-02-06 04:16:52.110245+01

 2017-02-06 05:32:02.23311+01 | 1486355522.23311 |                 0 |              15 |                   527 |                    7 |               2231 |             0 |                0 |          487843 |                     0 |        191848 | 2017-02-06 04:16:52.110245+01

 2017-02-06 05:32:03.305332+01 | 1486355523.30533 |                 0 |              15 |                   527 |                    7 |               2231 |             0 |                0 |          487843 |                     0 |        191848 | 2017-02-06 04:16:52.110245+01

 2017-02-06 05:32:04.387765+01 | 1486355524.38776 |                 0 |              15 |                   527 |                    7 |               2231 |             0 |                0 |          487843 |                     0 |        191848 | 2017-02-06 04:16:52.110245+01

 2017-02-06 05:32:05.457379+01 | 1486355525.45738 |                 0 |              15 |                   527 |                    7 |               2231 |             0 |                0 |          487843 |                     0 |        191848 | 2017-02-06 04:16:52.110245+01

 2017-02-06 05:32:06.533586+01 | 1486355526.53359 |                 0 |              15 |                   527 |                    7 |               2231 |             0 |                0 |          487843 |                     0 |        191848 | 2017-02-06 04:16:52.110245+01

 2017-02-06 05:32:07.613445+01 | 1486355527.61345 |                 0 |              15 |                   527 |                    7 |               2231 |             0 |                0 |          487843 |                     0 |        191848 | 2017-02-06 04:16:52.110245+01

 2017-02-06 05:32:08.68641+01 | 1486355528.68641 |                 0 |              15 |                   527 |                    7 |               2231 |             0 |                0 |          487843 |                     0 |        191848 | 2017-02-06 04:16:52.110245+01

 2017-02-06 05:32:09.759458+01 | 1486355529.75946 |                 0 |              15 |                   527 |                    7 |               2231 |             0 |                0 |          487843 |                     0 |        191848 | 2017-02-06 04:16:52.110245+01

 2017-02-06 05:32:10.836408+01 | 1486355530.83641 |                 0 |              15 |                   527 |                    7 |               2231 |             0 |                0 |          487843 |                     0 |        191848 | 2017-02-06 04:16:52.110245+01

 2017-02-06 05:32:11.917023+01 | 1486355531.91702 |                 0 |              15 |                   527 |                    7 |               2231 |             0 |                0 |          487843 |                     0 |        191848 | 2017-02-06 04:16:52.110245+01

 2017-02-06 05:32:12.991981+01 | 1486355532.99198 |                 0 |              15 |                   527 |                    7 |               2231 |             0 |                0 |          487843 |                     0 |        191848 | 2017-02-06 04:16:52.110245+01

 2017-02-06 05:32:14.070488+01 | 1486355534.07049 |                 0 |              15 |                   527 |                    7 |               2231 |             0 |                0 |          487843 |                     0 |        191848 | 2017-02-06 04:16:52.110245+01

 2017-02-06 05:32:15.152724+01 | 1486355535.15272 |                 0 |              15 |                   527 |                    7 |               2231 |             0 |                0 |          487843 |                     0 |        191848 | 2017-02-06 04:16:52.110245+01

 2017-02-06 05:32:16.232159+01 | 1486355536.23216 |                 0 |              15 |                   527 |                    7 |               2231 |             0 |                0 |          487843 |                     0 |        191848 | 2017-02-06 04:16:52.110245+01

 2017-02-06 05:32:17.306634+01 | 1486355537.30663 |                 0 |              15 |                   527 |                    7 |               2231 |             0 |                0 |          487843 |                     0 |        191848 | 2017-02-06 04:16:52.110245+01

 2017-02-06 05:32:18.388057+01 | 1486355538.38806 |                 0 |              15 |                   527 |                    7 |               2231 |             0 |                0 |          487843 |                     0 |        191848 | 2017-02-06 04:16:52.110245+01

