starting vacuum...end.
transaction type: <builtin: TPC-B (sort of)>
scaling factor: 100
query mode: prepared
number of clients: 48
number of threads: 8
duration: 300 s
number of transactions actually processed: 10522422
latency average = 1.369 ms
tps = 35074.568867 (including connections establishing)
tps = 35075.050066 (excluding connections establishing)
