 2017-02-06 04:01:18.852554+01 | 1486350078.85255 | pgbench_accounts |      13429514240
 2017-02-06 04:01:18.852554+01 | 1486350078.85255 | pgbench_tellers  |           450560
 2017-02-06 04:01:18.852554+01 | 1486350078.85255 | pgbench_history  |                0
 2017-02-06 04:01:18.852554+01 | 1486350078.85255 | pgbench_branches |            40960

 2017-02-06 04:01:19.953487+01 | 1486350079.95349 | pgbench_accounts |      13429514240
 2017-02-06 04:01:19.953487+01 | 1486350079.95349 | pgbench_tellers  |           450560
 2017-02-06 04:01:19.953487+01 | 1486350079.95349 | pgbench_history  |                0
 2017-02-06 04:01:19.953487+01 | 1486350079.95349 | pgbench_branches |            40960

 2017-02-06 04:01:21.046181+01 | 1486350081.04618 | pgbench_accounts |      13429514240
 2017-02-06 04:01:21.046181+01 | 1486350081.04618 | pgbench_tellers  |           450560
 2017-02-06 04:01:21.046181+01 | 1486350081.04618 | pgbench_history  |                0
 2017-02-06 04:01:21.046181+01 | 1486350081.04618 | pgbench_branches |            40960

 2017-02-06 04:01:22.13967+01 | 1486350082.13967 | pgbench_accounts |      13429514240
 2017-02-06 04:01:22.13967+01 | 1486350082.13967 | pgbench_tellers  |           450560
 2017-02-06 04:01:22.13967+01 | 1486350082.13967 | pgbench_history  |                0
 2017-02-06 04:01:22.13967+01 | 1486350082.13967 | pgbench_branches |            40960

 2017-02-06 04:01:23.243785+01 | 1486350083.24378 | pgbench_accounts |      13429514240
 2017-02-06 04:01:23.243785+01 | 1486350083.24378 | pgbench_tellers  |           450560
 2017-02-06 04:01:23.243785+01 | 1486350083.24378 | pgbench_history  |                0
 2017-02-06 04:01:23.243785+01 | 1486350083.24378 | pgbench_branches |            40960

 2017-02-06 04:01:24.355346+01 | 1486350084.35535 | pgbench_accounts |      13429514240
 2017-02-06 04:01:24.355346+01 | 1486350084.35535 | pgbench_tellers  |           450560
 2017-02-06 04:01:24.355346+01 | 1486350084.35535 | pgbench_history  |                0
 2017-02-06 04:01:24.355346+01 | 1486350084.35535 | pgbench_branches |            40960

 2017-02-06 04:01:25.4618+01 | 1486350085.4618 | pgbench_accounts |      13429514240
 2017-02-06 04:01:25.4618+01 | 1486350085.4618 | pgbench_tellers  |           450560
 2017-02-06 04:01:25.4618+01 | 1486350085.4618 | pgbench_history  |                0
 2017-02-06 04:01:25.4618+01 | 1486350085.4618 | pgbench_branches |            40960

 2017-02-06 04:01:26.547252+01 | 1486350086.54725 | pgbench_accounts |      13429514240
 2017-02-06 04:01:26.547252+01 | 1486350086.54725 | pgbench_tellers  |           450560
 2017-02-06 04:01:26.547252+01 | 1486350086.54725 | pgbench_history  |                0
 2017-02-06 04:01:26.547252+01 | 1486350086.54725 | pgbench_branches |            40960

 2017-02-06 04:01:27.635202+01 | 1486350087.6352 | pgbench_accounts |      13429514240
 2017-02-06 04:01:27.635202+01 | 1486350087.6352 | pgbench_tellers  |           450560
 2017-02-06 04:01:27.635202+01 | 1486350087.6352 | pgbench_history  |                0
 2017-02-06 04:01:27.635202+01 | 1486350087.6352 | pgbench_branches |            40960

 2017-02-06 04:01:28.738805+01 | 1486350088.73881 | pgbench_accounts |      13429514240
 2017-02-06 04:01:28.738805+01 | 1486350088.73881 | pgbench_tellers  |           450560
 2017-02-06 04:01:28.738805+01 | 1486350088.73881 | pgbench_history  |                0
 2017-02-06 04:01:28.738805+01 | 1486350088.73881 | pgbench_branches |            40960

 2017-02-06 04:01:29.833798+01 | 1486350089.8338 | pgbench_accounts |      13429514240
 2017-02-06 04:01:29.833798+01 | 1486350089.8338 | pgbench_tellers  |           450560
 2017-02-06 04:01:29.833798+01 | 1486350089.8338 | pgbench_history  |                0
 2017-02-06 04:01:29.833798+01 | 1486350089.8338 | pgbench_branches |            40960

 2017-02-06 04:01:30.935944+01 | 1486350090.93594 | pgbench_accounts |      13429514240
 2017-02-06 04:01:30.935944+01 | 1486350090.93594 | pgbench_tellers  |           450560
 2017-02-06 04:01:30.935944+01 | 1486350090.93594 | pgbench_history  |                0
 2017-02-06 04:01:30.935944+01 | 1486350090.93594 | pgbench_branches |            40960

 2017-02-06 04:01:32.051468+01 | 1486350092.05147 | pgbench_accounts |      13429514240
 2017-02-06 04:01:32.051468+01 | 1486350092.05147 | pgbench_tellers  |           450560
 2017-02-06 04:01:32.051468+01 | 1486350092.05147 | pgbench_history  |                0
 2017-02-06 04:01:32.051468+01 | 1486350092.05147 | pgbench_branches |            40960

 2017-02-06 04:01:33.137645+01 | 1486350093.13765 | pgbench_accounts |      13429514240
 2017-02-06 04:01:33.137645+01 | 1486350093.13765 | pgbench_tellers  |           450560
 2017-02-06 04:01:33.137645+01 | 1486350093.13765 | pgbench_history  |                0
 2017-02-06 04:01:33.137645+01 | 1486350093.13765 | pgbench_branches |            40960

 2017-02-06 04:01:34.225733+01 | 1486350094.22573 | pgbench_accounts |      13429514240
 2017-02-06 04:01:34.225733+01 | 1486350094.22573 | pgbench_tellers  |           450560
 2017-02-06 04:01:34.225733+01 | 1486350094.22573 | pgbench_history  |                0
 2017-02-06 04:01:34.225733+01 | 1486350094.22573 | pgbench_branches |            40960

 2017-02-06 04:01:35.317313+01 | 1486350095.31731 | pgbench_accounts |      13429514240
 2017-02-06 04:01:35.317313+01 | 1486350095.31731 | pgbench_tellers  |           450560
 2017-02-06 04:01:35.317313+01 | 1486350095.31731 | pgbench_history  |                0
 2017-02-06 04:01:35.317313+01 | 1486350095.31731 | pgbench_branches |            40960

 2017-02-06 04:01:36.431189+01 | 1486350096.43119 | pgbench_accounts |      13429514240
 2017-02-06 04:01:36.431189+01 | 1486350096.43119 | pgbench_tellers  |           450560
 2017-02-06 04:01:36.431189+01 | 1486350096.43119 | pgbench_history  |                0
 2017-02-06 04:01:36.431189+01 | 1486350096.43119 | pgbench_branches |            40960

 2017-02-06 04:01:37.535728+01 | 1486350097.53573 | pgbench_accounts |      13429514240
 2017-02-06 04:01:37.535728+01 | 1486350097.53573 | pgbench_tellers  |           450560
 2017-02-06 04:01:37.535728+01 | 1486350097.53573 | pgbench_history  |                0
 2017-02-06 04:01:37.535728+01 | 1486350097.53573 | pgbench_branches |            40960

 2017-02-06 04:01:38.633902+01 | 1486350098.6339 | pgbench_accounts |      13429514240
 2017-02-06 04:01:38.633902+01 | 1486350098.6339 | pgbench_tellers  |           450560
 2017-02-06 04:01:38.633902+01 | 1486350098.6339 | pgbench_history  |                0
 2017-02-06 04:01:38.633902+01 | 1486350098.6339 | pgbench_branches |            40960

 2017-02-06 04:01:39.742639+01 | 1486350099.74264 | pgbench_accounts |      13429514240
 2017-02-06 04:01:39.742639+01 | 1486350099.74264 | pgbench_tellers  |           450560
 2017-02-06 04:01:39.742639+01 | 1486350099.74264 | pgbench_history  |                0
 2017-02-06 04:01:39.742639+01 | 1486350099.74264 | pgbench_branches |            40960

 2017-02-06 04:01:40.853035+01 | 1486350100.85303 | pgbench_accounts |      13429514240
 2017-02-06 04:01:40.853035+01 | 1486350100.85303 | pgbench_tellers  |           450560
 2017-02-06 04:01:40.853035+01 | 1486350100.85303 | pgbench_history  |                0
 2017-02-06 04:01:40.853035+01 | 1486350100.85303 | pgbench_branches |            40960

 2017-02-06 04:01:41.961274+01 | 1486350101.96127 | pgbench_accounts |      13429514240
 2017-02-06 04:01:41.961274+01 | 1486350101.96127 | pgbench_tellers  |           450560
 2017-02-06 04:01:41.961274+01 | 1486350101.96127 | pgbench_history  |                0
 2017-02-06 04:01:41.961274+01 | 1486350101.96127 | pgbench_branches |            40960

 2017-02-06 04:01:43.067737+01 | 1486350103.06774 | pgbench_accounts |      13429514240
 2017-02-06 04:01:43.067737+01 | 1486350103.06774 | pgbench_tellers  |           450560
 2017-02-06 04:01:43.067737+01 | 1486350103.06774 | pgbench_history  |                0
 2017-02-06 04:01:43.067737+01 | 1486350103.06774 | pgbench_branches |            40960

 2017-02-06 04:01:44.158535+01 | 1486350104.15854 | pgbench_accounts |      13429514240
 2017-02-06 04:01:44.158535+01 | 1486350104.15854 | pgbench_tellers  |           450560
 2017-02-06 04:01:44.158535+01 | 1486350104.15854 | pgbench_history  |                0
 2017-02-06 04:01:44.158535+01 | 1486350104.15854 | pgbench_branches |            40960

 2017-02-06 04:01:45.257707+01 | 1486350105.25771 | pgbench_accounts |      13429514240
 2017-02-06 04:01:45.257707+01 | 1486350105.25771 | pgbench_tellers  |           450560
 2017-02-06 04:01:45.257707+01 | 1486350105.25771 | pgbench_history  |                0
 2017-02-06 04:01:45.257707+01 | 1486350105.25771 | pgbench_branches |            40960

 2017-02-06 04:01:46.36332+01 | 1486350106.36332 | pgbench_accounts |      13429514240
 2017-02-06 04:01:46.36332+01 | 1486350106.36332 | pgbench_tellers  |           450560
 2017-02-06 04:01:46.36332+01 | 1486350106.36332 | pgbench_history  |                0
 2017-02-06 04:01:46.36332+01 | 1486350106.36332 | pgbench_branches |            40960

 2017-02-06 04:01:47.4743+01 | 1486350107.4743 | pgbench_accounts |      13429514240
 2017-02-06 04:01:47.4743+01 | 1486350107.4743 | pgbench_tellers  |           450560
 2017-02-06 04:01:47.4743+01 | 1486350107.4743 | pgbench_history  |                0
 2017-02-06 04:01:47.4743+01 | 1486350107.4743 | pgbench_branches |            40960

 2017-02-06 04:01:48.558053+01 | 1486350108.55805 | pgbench_accounts |      13429514240
 2017-02-06 04:01:48.558053+01 | 1486350108.55805 | pgbench_tellers  |           450560
 2017-02-06 04:01:48.558053+01 | 1486350108.55805 | pgbench_history  |                0
 2017-02-06 04:01:48.558053+01 | 1486350108.55805 | pgbench_branches |            40960

 2017-02-06 04:01:49.653561+01 | 1486350109.65356 | pgbench_accounts |      13429514240
 2017-02-06 04:01:49.653561+01 | 1486350109.65356 | pgbench_tellers  |           450560
 2017-02-06 04:01:49.653561+01 | 1486350109.65356 | pgbench_history  |                0
 2017-02-06 04:01:49.653561+01 | 1486350109.65356 | pgbench_branches |            40960

 2017-02-06 04:01:50.750998+01 | 1486350110.751 | pgbench_accounts |      13429514240
 2017-02-06 04:01:50.750998+01 | 1486350110.751 | pgbench_tellers  |           450560
 2017-02-06 04:01:50.750998+01 | 1486350110.751 | pgbench_history  |                0
 2017-02-06 04:01:50.750998+01 | 1486350110.751 | pgbench_branches |            40960

 2017-02-06 04:01:51.844184+01 | 1486350111.84418 | pgbench_accounts |      13429514240
 2017-02-06 04:01:51.844184+01 | 1486350111.84418 | pgbench_tellers  |           450560
 2017-02-06 04:01:51.844184+01 | 1486350111.84418 | pgbench_history  |                0
 2017-02-06 04:01:51.844184+01 | 1486350111.84418 | pgbench_branches |            40960

 2017-02-06 04:01:52.948054+01 | 1486350112.94805 | pgbench_accounts |      13429514240
 2017-02-06 04:01:52.948054+01 | 1486350112.94805 | pgbench_tellers  |           450560
 2017-02-06 04:01:52.948054+01 | 1486350112.94805 | pgbench_history  |                0
 2017-02-06 04:01:52.948054+01 | 1486350112.94805 | pgbench_branches |            40960

 2017-02-06 04:01:54.057166+01 | 1486350114.05717 | pgbench_accounts |      13429514240
 2017-02-06 04:01:54.057166+01 | 1486350114.05717 | pgbench_tellers  |           450560
 2017-02-06 04:01:54.057166+01 | 1486350114.05717 | pgbench_history  |                0
 2017-02-06 04:01:54.057166+01 | 1486350114.05717 | pgbench_branches |            40960

 2017-02-06 04:01:55.161306+01 | 1486350115.16131 | pgbench_accounts |      13429514240
 2017-02-06 04:01:55.161306+01 | 1486350115.16131 | pgbench_tellers  |           450560
 2017-02-06 04:01:55.161306+01 | 1486350115.16131 | pgbench_history  |                0
 2017-02-06 04:01:55.161306+01 | 1486350115.16131 | pgbench_branches |            40960

 2017-02-06 04:01:56.25421+01 | 1486350116.25421 | pgbench_accounts |      13429514240
 2017-02-06 04:01:56.25421+01 | 1486350116.25421 | pgbench_tellers  |           450560
 2017-02-06 04:01:56.25421+01 | 1486350116.25421 | pgbench_history  |                0
 2017-02-06 04:01:56.25421+01 | 1486350116.25421 | pgbench_branches |            40960

 2017-02-06 04:01:57.356094+01 | 1486350117.35609 | pgbench_accounts |      13429514240
 2017-02-06 04:01:57.356094+01 | 1486350117.35609 | pgbench_tellers  |           450560
 2017-02-06 04:01:57.356094+01 | 1486350117.35609 | pgbench_history  |                0
 2017-02-06 04:01:57.356094+01 | 1486350117.35609 | pgbench_branches |            40960

 2017-02-06 04:01:58.466431+01 | 1486350118.46643 | pgbench_accounts |      13429514240
 2017-02-06 04:01:58.466431+01 | 1486350118.46643 | pgbench_tellers  |           450560
 2017-02-06 04:01:58.466431+01 | 1486350118.46643 | pgbench_history  |                0
 2017-02-06 04:01:58.466431+01 | 1486350118.46643 | pgbench_branches |            40960

 2017-02-06 04:01:59.56685+01 | 1486350119.56685 | pgbench_accounts |      13429514240
 2017-02-06 04:01:59.56685+01 | 1486350119.56685 | pgbench_tellers  |           450560
 2017-02-06 04:01:59.56685+01 | 1486350119.56685 | pgbench_history  |                0
 2017-02-06 04:01:59.56685+01 | 1486350119.56685 | pgbench_branches |            40960

 2017-02-06 04:02:00.669912+01 | 1486350120.66991 | pgbench_accounts |      13429514240
 2017-02-06 04:02:00.669912+01 | 1486350120.66991 | pgbench_tellers  |           450560
 2017-02-06 04:02:00.669912+01 | 1486350120.66991 | pgbench_history  |                0
 2017-02-06 04:02:00.669912+01 | 1486350120.66991 | pgbench_branches |            40960

 2017-02-06 04:02:01.763878+01 | 1486350121.76388 | pgbench_accounts |      13429514240
 2017-02-06 04:02:01.763878+01 | 1486350121.76388 | pgbench_tellers  |           450560
 2017-02-06 04:02:01.763878+01 | 1486350121.76388 | pgbench_history  |                0
 2017-02-06 04:02:01.763878+01 | 1486350121.76388 | pgbench_branches |            40960

 2017-02-06 04:02:02.864082+01 | 1486350122.86408 | pgbench_accounts |      13429514240
 2017-02-06 04:02:02.864082+01 | 1486350122.86408 | pgbench_tellers  |           450560
 2017-02-06 04:02:02.864082+01 | 1486350122.86408 | pgbench_history  |                0
 2017-02-06 04:02:02.864082+01 | 1486350122.86408 | pgbench_branches |            40960

 2017-02-06 04:02:03.953298+01 | 1486350123.9533 | pgbench_accounts |      13429514240
 2017-02-06 04:02:03.953298+01 | 1486350123.9533 | pgbench_tellers  |           450560
 2017-02-06 04:02:03.953298+01 | 1486350123.9533 | pgbench_history  |                0
 2017-02-06 04:02:03.953298+01 | 1486350123.9533 | pgbench_branches |            40960

 2017-02-06 04:02:05.04468+01 | 1486350125.04468 | pgbench_accounts |      13429514240
 2017-02-06 04:02:05.04468+01 | 1486350125.04468 | pgbench_tellers  |           450560
 2017-02-06 04:02:05.04468+01 | 1486350125.04468 | pgbench_history  |                0
 2017-02-06 04:02:05.04468+01 | 1486350125.04468 | pgbench_branches |            40960

 2017-02-06 04:02:06.150001+01 | 1486350126.15 | pgbench_accounts |      13429514240
 2017-02-06 04:02:06.150001+01 | 1486350126.15 | pgbench_tellers  |           450560
 2017-02-06 04:02:06.150001+01 | 1486350126.15 | pgbench_history  |                0
 2017-02-06 04:02:06.150001+01 | 1486350126.15 | pgbench_branches |            40960

 2017-02-06 04:02:07.245859+01 | 1486350127.24586 | pgbench_accounts |      13429514240
 2017-02-06 04:02:07.245859+01 | 1486350127.24586 | pgbench_tellers  |           450560
 2017-02-06 04:02:07.245859+01 | 1486350127.24586 | pgbench_history  |                0
 2017-02-06 04:02:07.245859+01 | 1486350127.24586 | pgbench_branches |            40960

 2017-02-06 04:02:08.340384+01 | 1486350128.34038 | pgbench_accounts |      13429514240
 2017-02-06 04:02:08.340384+01 | 1486350128.34038 | pgbench_tellers  |           450560
 2017-02-06 04:02:08.340384+01 | 1486350128.34038 | pgbench_history  |                0
 2017-02-06 04:02:08.340384+01 | 1486350128.34038 | pgbench_branches |            40960

 2017-02-06 04:02:09.4522+01 | 1486350129.4522 | pgbench_accounts |      13429514240
 2017-02-06 04:02:09.4522+01 | 1486350129.4522 | pgbench_tellers  |           450560
 2017-02-06 04:02:09.4522+01 | 1486350129.4522 | pgbench_history  |                0
 2017-02-06 04:02:09.4522+01 | 1486350129.4522 | pgbench_branches |            40960

 2017-02-06 04:02:10.54187+01 | 1486350130.54187 | pgbench_accounts |      13429514240
 2017-02-06 04:02:10.54187+01 | 1486350130.54187 | pgbench_tellers  |           450560
 2017-02-06 04:02:10.54187+01 | 1486350130.54187 | pgbench_history  |                0
 2017-02-06 04:02:10.54187+01 | 1486350130.54187 | pgbench_branches |            40960

 2017-02-06 04:02:11.635159+01 | 1486350131.63516 | pgbench_accounts |      13429514240
 2017-02-06 04:02:11.635159+01 | 1486350131.63516 | pgbench_tellers  |           450560
 2017-02-06 04:02:11.635159+01 | 1486350131.63516 | pgbench_history  |                0
 2017-02-06 04:02:11.635159+01 | 1486350131.63516 | pgbench_branches |            40960

 2017-02-06 04:02:12.741538+01 | 1486350132.74154 | pgbench_accounts |      13429514240
 2017-02-06 04:02:12.741538+01 | 1486350132.74154 | pgbench_tellers  |           450560
 2017-02-06 04:02:12.741538+01 | 1486350132.74154 | pgbench_history  |                0
 2017-02-06 04:02:12.741538+01 | 1486350132.74154 | pgbench_branches |            40960

 2017-02-06 04:02:13.840619+01 | 1486350133.84062 | pgbench_accounts |      13429514240
 2017-02-06 04:02:13.840619+01 | 1486350133.84062 | pgbench_tellers  |           450560
 2017-02-06 04:02:13.840619+01 | 1486350133.84062 | pgbench_history  |                0
 2017-02-06 04:02:13.840619+01 | 1486350133.84062 | pgbench_branches |            40960

 2017-02-06 04:02:14.948567+01 | 1486350134.94857 | pgbench_accounts |      13429514240
 2017-02-06 04:02:14.948567+01 | 1486350134.94857 | pgbench_tellers  |           450560
 2017-02-06 04:02:14.948567+01 | 1486350134.94857 | pgbench_history  |                0
 2017-02-06 04:02:14.948567+01 | 1486350134.94857 | pgbench_branches |            40960

 2017-02-06 04:02:16.044767+01 | 1486350136.04477 | pgbench_accounts |      13429514240
 2017-02-06 04:02:16.044767+01 | 1486350136.04477 | pgbench_tellers  |           450560
 2017-02-06 04:02:16.044767+01 | 1486350136.04477 | pgbench_history  |                0
 2017-02-06 04:02:16.044767+01 | 1486350136.04477 | pgbench_branches |            40960

 2017-02-06 04:02:17.142299+01 | 1486350137.1423 | pgbench_accounts |      13429514240
 2017-02-06 04:02:17.142299+01 | 1486350137.1423 | pgbench_tellers  |           450560
 2017-02-06 04:02:17.142299+01 | 1486350137.1423 | pgbench_history  |                0
 2017-02-06 04:02:17.142299+01 | 1486350137.1423 | pgbench_branches |            40960

 2017-02-06 04:02:18.242776+01 | 1486350138.24278 | pgbench_accounts |      13429514240
 2017-02-06 04:02:18.242776+01 | 1486350138.24278 | pgbench_tellers  |           450560
 2017-02-06 04:02:18.242776+01 | 1486350138.24278 | pgbench_history  |                0
 2017-02-06 04:02:18.242776+01 | 1486350138.24278 | pgbench_branches |            40960

 2017-02-06 04:02:19.349531+01 | 1486350139.34953 | pgbench_accounts |      13429514240
 2017-02-06 04:02:19.349531+01 | 1486350139.34953 | pgbench_tellers  |           450560
 2017-02-06 04:02:19.349531+01 | 1486350139.34953 | pgbench_history  |                0
 2017-02-06 04:02:19.349531+01 | 1486350139.34953 | pgbench_branches |            40960

 2017-02-06 04:02:20.454621+01 | 1486350140.45462 | pgbench_accounts |      13429514240
 2017-02-06 04:02:20.454621+01 | 1486350140.45462 | pgbench_tellers  |           450560
 2017-02-06 04:02:20.454621+01 | 1486350140.45462 | pgbench_history  |                0
 2017-02-06 04:02:20.454621+01 | 1486350140.45462 | pgbench_branches |            40960

 2017-02-06 04:02:21.548029+01 | 1486350141.54803 | pgbench_accounts |      13429514240
 2017-02-06 04:02:21.548029+01 | 1486350141.54803 | pgbench_tellers  |           450560
 2017-02-06 04:02:21.548029+01 | 1486350141.54803 | pgbench_history  |                0
 2017-02-06 04:02:21.548029+01 | 1486350141.54803 | pgbench_branches |            40960

 2017-02-06 04:02:22.654329+01 | 1486350142.65433 | pgbench_accounts |      13429514240
 2017-02-06 04:02:22.654329+01 | 1486350142.65433 | pgbench_tellers  |           450560
 2017-02-06 04:02:22.654329+01 | 1486350142.65433 | pgbench_history  |                0
 2017-02-06 04:02:22.654329+01 | 1486350142.65433 | pgbench_branches |            40960

 2017-02-06 04:02:23.760383+01 | 1486350143.76038 | pgbench_accounts |      13429514240
 2017-02-06 04:02:23.760383+01 | 1486350143.76038 | pgbench_tellers  |           450560
 2017-02-06 04:02:23.760383+01 | 1486350143.76038 | pgbench_history  |                0
 2017-02-06 04:02:23.760383+01 | 1486350143.76038 | pgbench_branches |            40960

 2017-02-06 04:02:24.856898+01 | 1486350144.8569 | pgbench_accounts |      13429514240
 2017-02-06 04:02:24.856898+01 | 1486350144.8569 | pgbench_tellers  |           450560
 2017-02-06 04:02:24.856898+01 | 1486350144.8569 | pgbench_history  |                0
 2017-02-06 04:02:24.856898+01 | 1486350144.8569 | pgbench_branches |            40960

 2017-02-06 04:02:25.953067+01 | 1486350145.95307 | pgbench_accounts |      13429514240
 2017-02-06 04:02:25.953067+01 | 1486350145.95307 | pgbench_tellers  |           450560
 2017-02-06 04:02:25.953067+01 | 1486350145.95307 | pgbench_history  |                0
 2017-02-06 04:02:25.953067+01 | 1486350145.95307 | pgbench_branches |            40960

 2017-02-06 04:02:27.05994+01 | 1486350147.05994 | pgbench_accounts |      13429514240
 2017-02-06 04:02:27.05994+01 | 1486350147.05994 | pgbench_tellers  |           450560
 2017-02-06 04:02:27.05994+01 | 1486350147.05994 | pgbench_history  |                0
 2017-02-06 04:02:27.05994+01 | 1486350147.05994 | pgbench_branches |            40960

 2017-02-06 04:02:28.162239+01 | 1486350148.16224 | pgbench_accounts |      13429514240
 2017-02-06 04:02:28.162239+01 | 1486350148.16224 | pgbench_tellers  |           450560
 2017-02-06 04:02:28.162239+01 | 1486350148.16224 | pgbench_history  |                0
 2017-02-06 04:02:28.162239+01 | 1486350148.16224 | pgbench_branches |            40960

 2017-02-06 04:02:29.267436+01 | 1486350149.26744 | pgbench_accounts |      13429514240
 2017-02-06 04:02:29.267436+01 | 1486350149.26744 | pgbench_tellers  |           450560
 2017-02-06 04:02:29.267436+01 | 1486350149.26744 | pgbench_history  |                0
 2017-02-06 04:02:29.267436+01 | 1486350149.26744 | pgbench_branches |            40960

 2017-02-06 04:02:30.364426+01 | 1486350150.36443 | pgbench_accounts |      13429514240
 2017-02-06 04:02:30.364426+01 | 1486350150.36443 | pgbench_tellers  |           450560
 2017-02-06 04:02:30.364426+01 | 1486350150.36443 | pgbench_history  |                0
 2017-02-06 04:02:30.364426+01 | 1486350150.36443 | pgbench_branches |            40960

 2017-02-06 04:02:31.458289+01 | 1486350151.45829 | pgbench_accounts |      13429514240
 2017-02-06 04:02:31.458289+01 | 1486350151.45829 | pgbench_tellers  |           450560
 2017-02-06 04:02:31.458289+01 | 1486350151.45829 | pgbench_history  |                0
 2017-02-06 04:02:31.458289+01 | 1486350151.45829 | pgbench_branches |            40960

 2017-02-06 04:02:32.558046+01 | 1486350152.55805 | pgbench_accounts |      13429514240
 2017-02-06 04:02:32.558046+01 | 1486350152.55805 | pgbench_tellers  |           450560
 2017-02-06 04:02:32.558046+01 | 1486350152.55805 | pgbench_history  |                0
 2017-02-06 04:02:32.558046+01 | 1486350152.55805 | pgbench_branches |            40960

 2017-02-06 04:02:33.67019+01 | 1486350153.67019 | pgbench_accounts |      13429514240
 2017-02-06 04:02:33.67019+01 | 1486350153.67019 | pgbench_tellers  |           450560
 2017-02-06 04:02:33.67019+01 | 1486350153.67019 | pgbench_history  |                0
 2017-02-06 04:02:33.67019+01 | 1486350153.67019 | pgbench_branches |            40960

 2017-02-06 04:02:34.774318+01 | 1486350154.77432 | pgbench_accounts |      13429514240
 2017-02-06 04:02:34.774318+01 | 1486350154.77432 | pgbench_tellers  |           450560
 2017-02-06 04:02:34.774318+01 | 1486350154.77432 | pgbench_history  |                0
 2017-02-06 04:02:34.774318+01 | 1486350154.77432 | pgbench_branches |            40960

 2017-02-06 04:02:35.872796+01 | 1486350155.8728 | pgbench_accounts |      13429514240
 2017-02-06 04:02:35.872796+01 | 1486350155.8728 | pgbench_tellers  |           450560
 2017-02-06 04:02:35.872796+01 | 1486350155.8728 | pgbench_history  |                0
 2017-02-06 04:02:35.872796+01 | 1486350155.8728 | pgbench_branches |            40960

 2017-02-06 04:02:36.968477+01 | 1486350156.96848 | pgbench_accounts |      13429514240
 2017-02-06 04:02:36.968477+01 | 1486350156.96848 | pgbench_tellers  |           450560
 2017-02-06 04:02:36.968477+01 | 1486350156.96848 | pgbench_history  |                0
 2017-02-06 04:02:36.968477+01 | 1486350156.96848 | pgbench_branches |            40960

 2017-02-06 04:02:38.064867+01 | 1486350158.06487 | pgbench_accounts |      13429514240
 2017-02-06 04:02:38.064867+01 | 1486350158.06487 | pgbench_tellers  |           450560
 2017-02-06 04:02:38.064867+01 | 1486350158.06487 | pgbench_history  |                0
 2017-02-06 04:02:38.064867+01 | 1486350158.06487 | pgbench_branches |            40960

 2017-02-06 04:02:39.164234+01 | 1486350159.16423 | pgbench_accounts |      13429514240
 2017-02-06 04:02:39.164234+01 | 1486350159.16423 | pgbench_tellers  |           450560
 2017-02-06 04:02:39.164234+01 | 1486350159.16423 | pgbench_history  |                0
 2017-02-06 04:02:39.164234+01 | 1486350159.16423 | pgbench_branches |            40960

 2017-02-06 04:02:40.268646+01 | 1486350160.26865 | pgbench_accounts |      13429514240
 2017-02-06 04:02:40.268646+01 | 1486350160.26865 | pgbench_tellers  |           450560
 2017-02-06 04:02:40.268646+01 | 1486350160.26865 | pgbench_history  |                0
 2017-02-06 04:02:40.268646+01 | 1486350160.26865 | pgbench_branches |            40960

 2017-02-06 04:02:41.370787+01 | 1486350161.37079 | pgbench_accounts |      13429514240
 2017-02-06 04:02:41.370787+01 | 1486350161.37079 | pgbench_tellers  |           450560
 2017-02-06 04:02:41.370787+01 | 1486350161.37079 | pgbench_history  |                0
 2017-02-06 04:02:41.370787+01 | 1486350161.37079 | pgbench_branches |            40960

 2017-02-06 04:02:42.476204+01 | 1486350162.4762 | pgbench_accounts |      13429514240
 2017-02-06 04:02:42.476204+01 | 1486350162.4762 | pgbench_tellers  |           450560
 2017-02-06 04:02:42.476204+01 | 1486350162.4762 | pgbench_history  |                0
 2017-02-06 04:02:42.476204+01 | 1486350162.4762 | pgbench_branches |            40960

 2017-02-06 04:02:43.573689+01 | 1486350163.57369 | pgbench_accounts |      13429514240
 2017-02-06 04:02:43.573689+01 | 1486350163.57369 | pgbench_tellers  |           450560
 2017-02-06 04:02:43.573689+01 | 1486350163.57369 | pgbench_history  |                0
 2017-02-06 04:02:43.573689+01 | 1486350163.57369 | pgbench_branches |            40960

 2017-02-06 04:02:44.664948+01 | 1486350164.66495 | pgbench_accounts |      13429514240
 2017-02-06 04:02:44.664948+01 | 1486350164.66495 | pgbench_tellers  |           450560
 2017-02-06 04:02:44.664948+01 | 1486350164.66495 | pgbench_history  |                0
 2017-02-06 04:02:44.664948+01 | 1486350164.66495 | pgbench_branches |            40960

 2017-02-06 04:02:45.756278+01 | 1486350165.75628 | pgbench_accounts |      13429514240
 2017-02-06 04:02:45.756278+01 | 1486350165.75628 | pgbench_tellers  |           450560
 2017-02-06 04:02:45.756278+01 | 1486350165.75628 | pgbench_history  |                0
 2017-02-06 04:02:45.756278+01 | 1486350165.75628 | pgbench_branches |            40960

 2017-02-06 04:02:46.857531+01 | 1486350166.85753 | pgbench_accounts |      13429514240
 2017-02-06 04:02:46.857531+01 | 1486350166.85753 | pgbench_tellers  |           450560
 2017-02-06 04:02:46.857531+01 | 1486350166.85753 | pgbench_history  |                0
 2017-02-06 04:02:46.857531+01 | 1486350166.85753 | pgbench_branches |            40960

 2017-02-06 04:02:47.960427+01 | 1486350167.96043 | pgbench_accounts |      13429514240
 2017-02-06 04:02:47.960427+01 | 1486350167.96043 | pgbench_tellers  |           450560
 2017-02-06 04:02:47.960427+01 | 1486350167.96043 | pgbench_history  |                0
 2017-02-06 04:02:47.960427+01 | 1486350167.96043 | pgbench_branches |            40960

 2017-02-06 04:02:49.056905+01 | 1486350169.05691 | pgbench_accounts |      13429514240
 2017-02-06 04:02:49.056905+01 | 1486350169.05691 | pgbench_tellers  |           450560
 2017-02-06 04:02:49.056905+01 | 1486350169.05691 | pgbench_history  |                0
 2017-02-06 04:02:49.056905+01 | 1486350169.05691 | pgbench_branches |            40960

 2017-02-06 04:02:50.149411+01 | 1486350170.14941 | pgbench_accounts |      13429514240
 2017-02-06 04:02:50.149411+01 | 1486350170.14941 | pgbench_tellers  |           450560
 2017-02-06 04:02:50.149411+01 | 1486350170.14941 | pgbench_history  |                0
 2017-02-06 04:02:50.149411+01 | 1486350170.14941 | pgbench_branches |            40960

 2017-02-06 04:02:51.250457+01 | 1486350171.25046 | pgbench_accounts |      13429514240
 2017-02-06 04:02:51.250457+01 | 1486350171.25046 | pgbench_tellers  |           450560
 2017-02-06 04:02:51.250457+01 | 1486350171.25046 | pgbench_history  |                0
 2017-02-06 04:02:51.250457+01 | 1486350171.25046 | pgbench_branches |            40960

 2017-02-06 04:02:52.344303+01 | 1486350172.3443 | pgbench_accounts |      13429514240
 2017-02-06 04:02:52.344303+01 | 1486350172.3443 | pgbench_tellers  |           450560
 2017-02-06 04:02:52.344303+01 | 1486350172.3443 | pgbench_history  |                0
 2017-02-06 04:02:52.344303+01 | 1486350172.3443 | pgbench_branches |            40960

 2017-02-06 04:02:53.440929+01 | 1486350173.44093 | pgbench_accounts |      13429514240
 2017-02-06 04:02:53.440929+01 | 1486350173.44093 | pgbench_tellers  |           450560
 2017-02-06 04:02:53.440929+01 | 1486350173.44093 | pgbench_history  |                0
 2017-02-06 04:02:53.440929+01 | 1486350173.44093 | pgbench_branches |            40960

 2017-02-06 04:02:54.543198+01 | 1486350174.5432 | pgbench_accounts |      13429514240
 2017-02-06 04:02:54.543198+01 | 1486350174.5432 | pgbench_tellers  |           450560
 2017-02-06 04:02:54.543198+01 | 1486350174.5432 | pgbench_history  |                0
 2017-02-06 04:02:54.543198+01 | 1486350174.5432 | pgbench_branches |            40960

 2017-02-06 04:02:55.633704+01 | 1486350175.6337 | pgbench_accounts |      13429514240
 2017-02-06 04:02:55.633704+01 | 1486350175.6337 | pgbench_tellers  |           450560
 2017-02-06 04:02:55.633704+01 | 1486350175.6337 | pgbench_history  |                0
 2017-02-06 04:02:55.633704+01 | 1486350175.6337 | pgbench_branches |            40960

 2017-02-06 04:02:56.733736+01 | 1486350176.73374 | pgbench_accounts |      13429514240
 2017-02-06 04:02:56.733736+01 | 1486350176.73374 | pgbench_tellers  |           450560
 2017-02-06 04:02:56.733736+01 | 1486350176.73374 | pgbench_history  |                0
 2017-02-06 04:02:56.733736+01 | 1486350176.73374 | pgbench_branches |            40960

 2017-02-06 04:02:57.837077+01 | 1486350177.83708 | pgbench_accounts |      13429514240
 2017-02-06 04:02:57.837077+01 | 1486350177.83708 | pgbench_tellers  |           450560
 2017-02-06 04:02:57.837077+01 | 1486350177.83708 | pgbench_history  |                0
 2017-02-06 04:02:57.837077+01 | 1486350177.83708 | pgbench_branches |            40960

 2017-02-06 04:02:58.931173+01 | 1486350178.93117 | pgbench_accounts |      13429514240
 2017-02-06 04:02:58.931173+01 | 1486350178.93117 | pgbench_tellers  |           450560
 2017-02-06 04:02:58.931173+01 | 1486350178.93117 | pgbench_history  |                0
 2017-02-06 04:02:58.931173+01 | 1486350178.93117 | pgbench_branches |            40960

 2017-02-06 04:03:00.030614+01 | 1486350180.03061 | pgbench_accounts |      13429514240
 2017-02-06 04:03:00.030614+01 | 1486350180.03061 | pgbench_tellers  |           450560
 2017-02-06 04:03:00.030614+01 | 1486350180.03061 | pgbench_history  |                0
 2017-02-06 04:03:00.030614+01 | 1486350180.03061 | pgbench_branches |            40960

 2017-02-06 04:03:01.128423+01 | 1486350181.12842 | pgbench_accounts |      13429514240
 2017-02-06 04:03:01.128423+01 | 1486350181.12842 | pgbench_tellers  |           450560
 2017-02-06 04:03:01.128423+01 | 1486350181.12842 | pgbench_history  |                0
 2017-02-06 04:03:01.128423+01 | 1486350181.12842 | pgbench_branches |            40960

 2017-02-06 04:03:02.235628+01 | 1486350182.23563 | pgbench_accounts |      13429514240
 2017-02-06 04:03:02.235628+01 | 1486350182.23563 | pgbench_tellers  |           450560
 2017-02-06 04:03:02.235628+01 | 1486350182.23563 | pgbench_history  |                0
 2017-02-06 04:03:02.235628+01 | 1486350182.23563 | pgbench_branches |            40960

 2017-02-06 04:03:03.323695+01 | 1486350183.32369 | pgbench_accounts |      13429514240
 2017-02-06 04:03:03.323695+01 | 1486350183.32369 | pgbench_tellers  |           450560
 2017-02-06 04:03:03.323695+01 | 1486350183.32369 | pgbench_history  |                0
 2017-02-06 04:03:03.323695+01 | 1486350183.32369 | pgbench_branches |            40960

 2017-02-06 04:03:04.422469+01 | 1486350184.42247 | pgbench_accounts |      13429514240
 2017-02-06 04:03:04.422469+01 | 1486350184.42247 | pgbench_tellers  |           450560
 2017-02-06 04:03:04.422469+01 | 1486350184.42247 | pgbench_history  |                0
 2017-02-06 04:03:04.422469+01 | 1486350184.42247 | pgbench_branches |            40960

 2017-02-06 04:03:05.508128+01 | 1486350185.50813 | pgbench_accounts |      13429514240
 2017-02-06 04:03:05.508128+01 | 1486350185.50813 | pgbench_tellers  |           450560
 2017-02-06 04:03:05.508128+01 | 1486350185.50813 | pgbench_history  |                0
 2017-02-06 04:03:05.508128+01 | 1486350185.50813 | pgbench_branches |            40960

 2017-02-06 04:03:06.61601+01 | 1486350186.61601 | pgbench_accounts |      13429514240
 2017-02-06 04:03:06.61601+01 | 1486350186.61601 | pgbench_tellers  |           450560
 2017-02-06 04:03:06.61601+01 | 1486350186.61601 | pgbench_history  |                0
 2017-02-06 04:03:06.61601+01 | 1486350186.61601 | pgbench_branches |            40960

 2017-02-06 04:03:07.710361+01 | 1486350187.71036 | pgbench_accounts |      13429514240
 2017-02-06 04:03:07.710361+01 | 1486350187.71036 | pgbench_tellers  |           450560
 2017-02-06 04:03:07.710361+01 | 1486350187.71036 | pgbench_history  |                0
 2017-02-06 04:03:07.710361+01 | 1486350187.71036 | pgbench_branches |            40960

 2017-02-06 04:03:08.811094+01 | 1486350188.81109 | pgbench_accounts |      13429514240
 2017-02-06 04:03:08.811094+01 | 1486350188.81109 | pgbench_tellers  |           450560
 2017-02-06 04:03:08.811094+01 | 1486350188.81109 | pgbench_history  |                0
 2017-02-06 04:03:08.811094+01 | 1486350188.81109 | pgbench_branches |            40960

 2017-02-06 04:03:09.909096+01 | 1486350189.9091 | pgbench_accounts |      13429514240
 2017-02-06 04:03:09.909096+01 | 1486350189.9091 | pgbench_tellers  |           450560
 2017-02-06 04:03:09.909096+01 | 1486350189.9091 | pgbench_history  |                0
 2017-02-06 04:03:09.909096+01 | 1486350189.9091 | pgbench_branches |            40960

 2017-02-06 04:03:11.01486+01 | 1486350191.01486 | pgbench_accounts |      13429514240
 2017-02-06 04:03:11.01486+01 | 1486350191.01486 | pgbench_tellers  |           450560
 2017-02-06 04:03:11.01486+01 | 1486350191.01486 | pgbench_history  |                0
 2017-02-06 04:03:11.01486+01 | 1486350191.01486 | pgbench_branches |            40960

 2017-02-06 04:03:12.111368+01 | 1486350192.11137 | pgbench_accounts |      13429514240
 2017-02-06 04:03:12.111368+01 | 1486350192.11137 | pgbench_tellers  |           450560
 2017-02-06 04:03:12.111368+01 | 1486350192.11137 | pgbench_history  |                0
 2017-02-06 04:03:12.111368+01 | 1486350192.11137 | pgbench_branches |            40960

 2017-02-06 04:03:13.206245+01 | 1486350193.20624 | pgbench_accounts |      13429514240
 2017-02-06 04:03:13.206245+01 | 1486350193.20624 | pgbench_tellers  |           450560
 2017-02-06 04:03:13.206245+01 | 1486350193.20624 | pgbench_history  |                0
 2017-02-06 04:03:13.206245+01 | 1486350193.20624 | pgbench_branches |            40960

 2017-02-06 04:03:14.297454+01 | 1486350194.29745 | pgbench_accounts |      13429514240
 2017-02-06 04:03:14.297454+01 | 1486350194.29745 | pgbench_tellers  |           450560
 2017-02-06 04:03:14.297454+01 | 1486350194.29745 | pgbench_history  |                0
 2017-02-06 04:03:14.297454+01 | 1486350194.29745 | pgbench_branches |            40960

 2017-02-06 04:03:15.396299+01 | 1486350195.3963 | pgbench_accounts |      13429514240
 2017-02-06 04:03:15.396299+01 | 1486350195.3963 | pgbench_tellers  |           450560
 2017-02-06 04:03:15.396299+01 | 1486350195.3963 | pgbench_history  |                0
 2017-02-06 04:03:15.396299+01 | 1486350195.3963 | pgbench_branches |            40960

 2017-02-06 04:03:16.496998+01 | 1486350196.497 | pgbench_accounts |      13429514240
 2017-02-06 04:03:16.496998+01 | 1486350196.497 | pgbench_tellers  |           450560
 2017-02-06 04:03:16.496998+01 | 1486350196.497 | pgbench_history  |                0
 2017-02-06 04:03:16.496998+01 | 1486350196.497 | pgbench_branches |            40960

 2017-02-06 04:03:17.60507+01 | 1486350197.60507 | pgbench_accounts |      13429514240
 2017-02-06 04:03:17.60507+01 | 1486350197.60507 | pgbench_tellers  |           450560
 2017-02-06 04:03:17.60507+01 | 1486350197.60507 | pgbench_history  |                0
 2017-02-06 04:03:17.60507+01 | 1486350197.60507 | pgbench_branches |            40960

 2017-02-06 04:03:18.710396+01 | 1486350198.7104 | pgbench_accounts |      13429514240
 2017-02-06 04:03:18.710396+01 | 1486350198.7104 | pgbench_tellers  |           450560
 2017-02-06 04:03:18.710396+01 | 1486350198.7104 | pgbench_history  |                0
 2017-02-06 04:03:18.710396+01 | 1486350198.7104 | pgbench_branches |            40960

 2017-02-06 04:03:19.810826+01 | 1486350199.81083 | pgbench_accounts |      13429514240
 2017-02-06 04:03:19.810826+01 | 1486350199.81083 | pgbench_tellers  |           450560
 2017-02-06 04:03:19.810826+01 | 1486350199.81083 | pgbench_history  |                0
 2017-02-06 04:03:19.810826+01 | 1486350199.81083 | pgbench_branches |            40960

 2017-02-06 04:03:20.90773+01 | 1486350200.90773 | pgbench_accounts |      13429514240
 2017-02-06 04:03:20.90773+01 | 1486350200.90773 | pgbench_tellers  |           450560
 2017-02-06 04:03:20.90773+01 | 1486350200.90773 | pgbench_history  |                0
 2017-02-06 04:03:20.90773+01 | 1486350200.90773 | pgbench_branches |            40960

 2017-02-06 04:03:22.010775+01 | 1486350202.01078 | pgbench_accounts |      13429514240
 2017-02-06 04:03:22.010775+01 | 1486350202.01078 | pgbench_tellers  |           450560
 2017-02-06 04:03:22.010775+01 | 1486350202.01078 | pgbench_history  |                0
 2017-02-06 04:03:22.010775+01 | 1486350202.01078 | pgbench_branches |            40960

 2017-02-06 04:03:23.100154+01 | 1486350203.10015 | pgbench_accounts |      13429514240
 2017-02-06 04:03:23.100154+01 | 1486350203.10015 | pgbench_tellers  |           450560
 2017-02-06 04:03:23.100154+01 | 1486350203.10015 | pgbench_history  |                0
 2017-02-06 04:03:23.100154+01 | 1486350203.10015 | pgbench_branches |            40960

 2017-02-06 04:03:24.209916+01 | 1486350204.20992 | pgbench_accounts |      13429514240
 2017-02-06 04:03:24.209916+01 | 1486350204.20992 | pgbench_tellers  |           450560
 2017-02-06 04:03:24.209916+01 | 1486350204.20992 | pgbench_history  |                0
 2017-02-06 04:03:24.209916+01 | 1486350204.20992 | pgbench_branches |            40960

 2017-02-06 04:03:25.313944+01 | 1486350205.31394 | pgbench_accounts |      13429514240
 2017-02-06 04:03:25.313944+01 | 1486350205.31394 | pgbench_tellers  |           450560
 2017-02-06 04:03:25.313944+01 | 1486350205.31394 | pgbench_history  |                0
 2017-02-06 04:03:25.313944+01 | 1486350205.31394 | pgbench_branches |            40960

 2017-02-06 04:03:26.422961+01 | 1486350206.42296 | pgbench_accounts |      13429514240
 2017-02-06 04:03:26.422961+01 | 1486350206.42296 | pgbench_tellers  |           450560
 2017-02-06 04:03:26.422961+01 | 1486350206.42296 | pgbench_history  |                0
 2017-02-06 04:03:26.422961+01 | 1486350206.42296 | pgbench_branches |            40960

 2017-02-06 04:03:27.513167+01 | 1486350207.51317 | pgbench_accounts |      13429514240
 2017-02-06 04:03:27.513167+01 | 1486350207.51317 | pgbench_tellers  |           450560
 2017-02-06 04:03:27.513167+01 | 1486350207.51317 | pgbench_history  |                0
 2017-02-06 04:03:27.513167+01 | 1486350207.51317 | pgbench_branches |            40960

 2017-02-06 04:03:28.617991+01 | 1486350208.61799 | pgbench_accounts |      13429514240
 2017-02-06 04:03:28.617991+01 | 1486350208.61799 | pgbench_tellers  |           450560
 2017-02-06 04:03:28.617991+01 | 1486350208.61799 | pgbench_history  |                0
 2017-02-06 04:03:28.617991+01 | 1486350208.61799 | pgbench_branches |            40960

 2017-02-06 04:03:29.714134+01 | 1486350209.71413 | pgbench_accounts |      13429514240
 2017-02-06 04:03:29.714134+01 | 1486350209.71413 | pgbench_tellers  |           450560
 2017-02-06 04:03:29.714134+01 | 1486350209.71413 | pgbench_history  |                0
 2017-02-06 04:03:29.714134+01 | 1486350209.71413 | pgbench_branches |            40960

 2017-02-06 04:03:30.815833+01 | 1486350210.81583 | pgbench_accounts |      13429514240
 2017-02-06 04:03:30.815833+01 | 1486350210.81583 | pgbench_tellers  |           450560
 2017-02-06 04:03:30.815833+01 | 1486350210.81583 | pgbench_history  |                0
 2017-02-06 04:03:30.815833+01 | 1486350210.81583 | pgbench_branches |            40960

 2017-02-06 04:03:31.923367+01 | 1486350211.92337 | pgbench_accounts |      13429514240
 2017-02-06 04:03:31.923367+01 | 1486350211.92337 | pgbench_tellers  |           450560
 2017-02-06 04:03:31.923367+01 | 1486350211.92337 | pgbench_history  |                0
 2017-02-06 04:03:31.923367+01 | 1486350211.92337 | pgbench_branches |            40960

 2017-02-06 04:03:33.01139+01 | 1486350213.01139 | pgbench_accounts |      13429514240
 2017-02-06 04:03:33.01139+01 | 1486350213.01139 | pgbench_tellers  |           450560
 2017-02-06 04:03:33.01139+01 | 1486350213.01139 | pgbench_history  |                0
 2017-02-06 04:03:33.01139+01 | 1486350213.01139 | pgbench_branches |            40960

 2017-02-06 04:03:34.1088+01 | 1486350214.1088 | pgbench_accounts |      13429514240
 2017-02-06 04:03:34.1088+01 | 1486350214.1088 | pgbench_tellers  |           450560
 2017-02-06 04:03:34.1088+01 | 1486350214.1088 | pgbench_history  |                0
 2017-02-06 04:03:34.1088+01 | 1486350214.1088 | pgbench_branches |            40960

 2017-02-06 04:03:35.207525+01 | 1486350215.20753 | pgbench_accounts |      13429514240
 2017-02-06 04:03:35.207525+01 | 1486350215.20753 | pgbench_tellers  |           450560
 2017-02-06 04:03:35.207525+01 | 1486350215.20753 | pgbench_history  |                0
 2017-02-06 04:03:35.207525+01 | 1486350215.20753 | pgbench_branches |            40960

 2017-02-06 04:03:36.307545+01 | 1486350216.30754 | pgbench_accounts |      13429514240
 2017-02-06 04:03:36.307545+01 | 1486350216.30754 | pgbench_tellers  |           450560
 2017-02-06 04:03:36.307545+01 | 1486350216.30754 | pgbench_history  |                0
 2017-02-06 04:03:36.307545+01 | 1486350216.30754 | pgbench_branches |            40960

 2017-02-06 04:03:37.411397+01 | 1486350217.4114 | pgbench_accounts |      13429514240
 2017-02-06 04:03:37.411397+01 | 1486350217.4114 | pgbench_tellers  |           450560
 2017-02-06 04:03:37.411397+01 | 1486350217.4114 | pgbench_history  |                0
 2017-02-06 04:03:37.411397+01 | 1486350217.4114 | pgbench_branches |            40960

 2017-02-06 04:03:38.504207+01 | 1486350218.50421 | pgbench_accounts |      13429514240
 2017-02-06 04:03:38.504207+01 | 1486350218.50421 | pgbench_tellers  |           450560
 2017-02-06 04:03:38.504207+01 | 1486350218.50421 | pgbench_history  |                0
 2017-02-06 04:03:38.504207+01 | 1486350218.50421 | pgbench_branches |            40960

 2017-02-06 04:03:39.599358+01 | 1486350219.59936 | pgbench_accounts |      13429514240
 2017-02-06 04:03:39.599358+01 | 1486350219.59936 | pgbench_tellers  |           450560
 2017-02-06 04:03:39.599358+01 | 1486350219.59936 | pgbench_history  |                0
 2017-02-06 04:03:39.599358+01 | 1486350219.59936 | pgbench_branches |            40960

 2017-02-06 04:03:40.700241+01 | 1486350220.70024 | pgbench_accounts |      13429514240
 2017-02-06 04:03:40.700241+01 | 1486350220.70024 | pgbench_tellers  |           450560
 2017-02-06 04:03:40.700241+01 | 1486350220.70024 | pgbench_history  |                0
 2017-02-06 04:03:40.700241+01 | 1486350220.70024 | pgbench_branches |            40960

 2017-02-06 04:03:41.798584+01 | 1486350221.79858 | pgbench_accounts |      13429514240
 2017-02-06 04:03:41.798584+01 | 1486350221.79858 | pgbench_tellers  |           450560
 2017-02-06 04:03:41.798584+01 | 1486350221.79858 | pgbench_history  |                0
 2017-02-06 04:03:41.798584+01 | 1486350221.79858 | pgbench_branches |            40960

 2017-02-06 04:03:42.899422+01 | 1486350222.89942 | pgbench_accounts |      13429514240
 2017-02-06 04:03:42.899422+01 | 1486350222.89942 | pgbench_tellers  |           450560
 2017-02-06 04:03:42.899422+01 | 1486350222.89942 | pgbench_history  |                0
 2017-02-06 04:03:42.899422+01 | 1486350222.89942 | pgbench_branches |            40960

 2017-02-06 04:03:44.008246+01 | 1486350224.00825 | pgbench_accounts |      13429514240
 2017-02-06 04:03:44.008246+01 | 1486350224.00825 | pgbench_tellers  |           450560
 2017-02-06 04:03:44.008246+01 | 1486350224.00825 | pgbench_history  |                0
 2017-02-06 04:03:44.008246+01 | 1486350224.00825 | pgbench_branches |            40960

 2017-02-06 04:03:45.109953+01 | 1486350225.10995 | pgbench_accounts |      13429514240
 2017-02-06 04:03:45.109953+01 | 1486350225.10995 | pgbench_tellers  |           450560
 2017-02-06 04:03:45.109953+01 | 1486350225.10995 | pgbench_history  |                0
 2017-02-06 04:03:45.109953+01 | 1486350225.10995 | pgbench_branches |            40960

 2017-02-06 04:03:46.212231+01 | 1486350226.21223 | pgbench_accounts |      13429514240
 2017-02-06 04:03:46.212231+01 | 1486350226.21223 | pgbench_tellers  |           450560
 2017-02-06 04:03:46.212231+01 | 1486350226.21223 | pgbench_history  |                0
 2017-02-06 04:03:46.212231+01 | 1486350226.21223 | pgbench_branches |            40960

 2017-02-06 04:03:47.317586+01 | 1486350227.31759 | pgbench_accounts |      13429514240
 2017-02-06 04:03:47.317586+01 | 1486350227.31759 | pgbench_tellers  |           450560
 2017-02-06 04:03:47.317586+01 | 1486350227.31759 | pgbench_history  |                0
 2017-02-06 04:03:47.317586+01 | 1486350227.31759 | pgbench_branches |            40960

 2017-02-06 04:03:48.41588+01 | 1486350228.41588 | pgbench_accounts |      13429514240
 2017-02-06 04:03:48.41588+01 | 1486350228.41588 | pgbench_tellers  |           450560
 2017-02-06 04:03:48.41588+01 | 1486350228.41588 | pgbench_history  |                0
 2017-02-06 04:03:48.41588+01 | 1486350228.41588 | pgbench_branches |            40960

 2017-02-06 04:03:49.513195+01 | 1486350229.5132 | pgbench_accounts |      13429514240
 2017-02-06 04:03:49.513195+01 | 1486350229.5132 | pgbench_tellers  |           450560
 2017-02-06 04:03:49.513195+01 | 1486350229.5132 | pgbench_history  |                0
 2017-02-06 04:03:49.513195+01 | 1486350229.5132 | pgbench_branches |            40960

 2017-02-06 04:03:50.626614+01 | 1486350230.62661 | pgbench_accounts |      13429514240
 2017-02-06 04:03:50.626614+01 | 1486350230.62661 | pgbench_tellers  |           450560
 2017-02-06 04:03:50.626614+01 | 1486350230.62661 | pgbench_history  |                0
 2017-02-06 04:03:50.626614+01 | 1486350230.62661 | pgbench_branches |            40960

 2017-02-06 04:03:51.741517+01 | 1486350231.74152 | pgbench_accounts |      13429514240
 2017-02-06 04:03:51.741517+01 | 1486350231.74152 | pgbench_tellers  |           450560
 2017-02-06 04:03:51.741517+01 | 1486350231.74152 | pgbench_history  |                0
 2017-02-06 04:03:51.741517+01 | 1486350231.74152 | pgbench_branches |            40960

 2017-02-06 04:03:52.84029+01 | 1486350232.84029 | pgbench_accounts |      13429514240
 2017-02-06 04:03:52.84029+01 | 1486350232.84029 | pgbench_tellers  |           450560
 2017-02-06 04:03:52.84029+01 | 1486350232.84029 | pgbench_history  |                0
 2017-02-06 04:03:52.84029+01 | 1486350232.84029 | pgbench_branches |            40960

 2017-02-06 04:03:53.943032+01 | 1486350233.94303 | pgbench_accounts |      13429514240
 2017-02-06 04:03:53.943032+01 | 1486350233.94303 | pgbench_tellers  |           450560
 2017-02-06 04:03:53.943032+01 | 1486350233.94303 | pgbench_history  |                0
 2017-02-06 04:03:53.943032+01 | 1486350233.94303 | pgbench_branches |            40960

 2017-02-06 04:03:55.034106+01 | 1486350235.03411 | pgbench_accounts |      13429514240
 2017-02-06 04:03:55.034106+01 | 1486350235.03411 | pgbench_tellers  |           450560
 2017-02-06 04:03:55.034106+01 | 1486350235.03411 | pgbench_history  |                0
 2017-02-06 04:03:55.034106+01 | 1486350235.03411 | pgbench_branches |            40960

 2017-02-06 04:03:56.132501+01 | 1486350236.1325 | pgbench_accounts |      13429514240
 2017-02-06 04:03:56.132501+01 | 1486350236.1325 | pgbench_tellers  |           450560
 2017-02-06 04:03:56.132501+01 | 1486350236.1325 | pgbench_history  |                0
 2017-02-06 04:03:56.132501+01 | 1486350236.1325 | pgbench_branches |            40960

 2017-02-06 04:03:57.23933+01 | 1486350237.23933 | pgbench_accounts |      13429514240
 2017-02-06 04:03:57.23933+01 | 1486350237.23933 | pgbench_tellers  |           450560
 2017-02-06 04:03:57.23933+01 | 1486350237.23933 | pgbench_history  |                0
 2017-02-06 04:03:57.23933+01 | 1486350237.23933 | pgbench_branches |            40960

 2017-02-06 04:03:58.335204+01 | 1486350238.3352 | pgbench_accounts |      13429514240
 2017-02-06 04:03:58.335204+01 | 1486350238.3352 | pgbench_tellers  |           450560
 2017-02-06 04:03:58.335204+01 | 1486350238.3352 | pgbench_history  |                0
 2017-02-06 04:03:58.335204+01 | 1486350238.3352 | pgbench_branches |            40960

 2017-02-06 04:03:59.442238+01 | 1486350239.44224 | pgbench_accounts |      13429514240
 2017-02-06 04:03:59.442238+01 | 1486350239.44224 | pgbench_tellers  |           450560
 2017-02-06 04:03:59.442238+01 | 1486350239.44224 | pgbench_history  |                0
 2017-02-06 04:03:59.442238+01 | 1486350239.44224 | pgbench_branches |            40960

 2017-02-06 04:04:00.534559+01 | 1486350240.53456 | pgbench_accounts |      13429514240
 2017-02-06 04:04:00.534559+01 | 1486350240.53456 | pgbench_tellers  |           450560
 2017-02-06 04:04:00.534559+01 | 1486350240.53456 | pgbench_history  |                0
 2017-02-06 04:04:00.534559+01 | 1486350240.53456 | pgbench_branches |            40960

 2017-02-06 04:04:01.636145+01 | 1486350241.63615 | pgbench_accounts |      13429514240
 2017-02-06 04:04:01.636145+01 | 1486350241.63615 | pgbench_tellers  |           450560
 2017-02-06 04:04:01.636145+01 | 1486350241.63615 | pgbench_history  |                0
 2017-02-06 04:04:01.636145+01 | 1486350241.63615 | pgbench_branches |            40960

 2017-02-06 04:04:02.73672+01 | 1486350242.73672 | pgbench_accounts |      13429514240
 2017-02-06 04:04:02.73672+01 | 1486350242.73672 | pgbench_tellers  |           450560
 2017-02-06 04:04:02.73672+01 | 1486350242.73672 | pgbench_history  |                0
 2017-02-06 04:04:02.73672+01 | 1486350242.73672 | pgbench_branches |            40960

 2017-02-06 04:04:03.841482+01 | 1486350243.84148 | pgbench_accounts |      13429514240
 2017-02-06 04:04:03.841482+01 | 1486350243.84148 | pgbench_tellers  |           450560
 2017-02-06 04:04:03.841482+01 | 1486350243.84148 | pgbench_history  |                0
 2017-02-06 04:04:03.841482+01 | 1486350243.84148 | pgbench_branches |            40960

 2017-02-06 04:04:04.932997+01 | 1486350244.933 | pgbench_accounts |      13429514240
 2017-02-06 04:04:04.932997+01 | 1486350244.933 | pgbench_tellers  |           450560
 2017-02-06 04:04:04.932997+01 | 1486350244.933 | pgbench_history  |                0
 2017-02-06 04:04:04.932997+01 | 1486350244.933 | pgbench_branches |            40960

 2017-02-06 04:04:06.020938+01 | 1486350246.02094 | pgbench_accounts |      13429514240
 2017-02-06 04:04:06.020938+01 | 1486350246.02094 | pgbench_tellers  |           450560
 2017-02-06 04:04:06.020938+01 | 1486350246.02094 | pgbench_history  |                0
 2017-02-06 04:04:06.020938+01 | 1486350246.02094 | pgbench_branches |            40960

 2017-02-06 04:04:07.114676+01 | 1486350247.11468 | pgbench_accounts |      13429514240
 2017-02-06 04:04:07.114676+01 | 1486350247.11468 | pgbench_tellers  |           450560
 2017-02-06 04:04:07.114676+01 | 1486350247.11468 | pgbench_history  |                0
 2017-02-06 04:04:07.114676+01 | 1486350247.11468 | pgbench_branches |            40960

 2017-02-06 04:04:08.205702+01 | 1486350248.2057 | pgbench_accounts |      13429514240
 2017-02-06 04:04:08.205702+01 | 1486350248.2057 | pgbench_tellers  |           450560
 2017-02-06 04:04:08.205702+01 | 1486350248.2057 | pgbench_history  |                0
 2017-02-06 04:04:08.205702+01 | 1486350248.2057 | pgbench_branches |            40960

 2017-02-06 04:04:09.30089+01 | 1486350249.30089 | pgbench_accounts |      13429514240
 2017-02-06 04:04:09.30089+01 | 1486350249.30089 | pgbench_tellers  |           450560
 2017-02-06 04:04:09.30089+01 | 1486350249.30089 | pgbench_history  |                0
 2017-02-06 04:04:09.30089+01 | 1486350249.30089 | pgbench_branches |            40960

 2017-02-06 04:04:10.400298+01 | 1486350250.4003 | pgbench_accounts |      13429514240
 2017-02-06 04:04:10.400298+01 | 1486350250.4003 | pgbench_tellers  |           450560
 2017-02-06 04:04:10.400298+01 | 1486350250.4003 | pgbench_history  |                0
 2017-02-06 04:04:10.400298+01 | 1486350250.4003 | pgbench_branches |            40960

 2017-02-06 04:04:11.49143+01 | 1486350251.49143 | pgbench_accounts |      13429514240
 2017-02-06 04:04:11.49143+01 | 1486350251.49143 | pgbench_tellers  |           450560
 2017-02-06 04:04:11.49143+01 | 1486350251.49143 | pgbench_history  |                0
 2017-02-06 04:04:11.49143+01 | 1486350251.49143 | pgbench_branches |            40960

 2017-02-06 04:04:12.601084+01 | 1486350252.60108 | pgbench_accounts |      13429514240
 2017-02-06 04:04:12.601084+01 | 1486350252.60108 | pgbench_tellers  |           450560
 2017-02-06 04:04:12.601084+01 | 1486350252.60108 | pgbench_history  |                0
 2017-02-06 04:04:12.601084+01 | 1486350252.60108 | pgbench_branches |            40960

 2017-02-06 04:04:13.694058+01 | 1486350253.69406 | pgbench_accounts |      13429514240
 2017-02-06 04:04:13.694058+01 | 1486350253.69406 | pgbench_tellers  |           450560
 2017-02-06 04:04:13.694058+01 | 1486350253.69406 | pgbench_history  |                0
 2017-02-06 04:04:13.694058+01 | 1486350253.69406 | pgbench_branches |            40960

 2017-02-06 04:04:14.799937+01 | 1486350254.79994 | pgbench_accounts |      13429514240
 2017-02-06 04:04:14.799937+01 | 1486350254.79994 | pgbench_tellers  |           450560
 2017-02-06 04:04:14.799937+01 | 1486350254.79994 | pgbench_history  |                0
 2017-02-06 04:04:14.799937+01 | 1486350254.79994 | pgbench_branches |            40960

 2017-02-06 04:04:15.886575+01 | 1486350255.88657 | pgbench_accounts |      13429514240
 2017-02-06 04:04:15.886575+01 | 1486350255.88657 | pgbench_tellers  |           450560
 2017-02-06 04:04:15.886575+01 | 1486350255.88657 | pgbench_history  |                0
 2017-02-06 04:04:15.886575+01 | 1486350255.88657 | pgbench_branches |            40960

 2017-02-06 04:04:16.998945+01 | 1486350256.99894 | pgbench_accounts |      13429514240
 2017-02-06 04:04:16.998945+01 | 1486350256.99894 | pgbench_tellers  |           450560
 2017-02-06 04:04:16.998945+01 | 1486350256.99894 | pgbench_history  |                0
 2017-02-06 04:04:16.998945+01 | 1486350256.99894 | pgbench_branches |            40960

 2017-02-06 04:04:18.095536+01 | 1486350258.09554 | pgbench_accounts |      13429514240
 2017-02-06 04:04:18.095536+01 | 1486350258.09554 | pgbench_tellers  |           450560
 2017-02-06 04:04:18.095536+01 | 1486350258.09554 | pgbench_history  |                0
 2017-02-06 04:04:18.095536+01 | 1486350258.09554 | pgbench_branches |            40960

 2017-02-06 04:04:19.200107+01 | 1486350259.20011 | pgbench_accounts |      13429514240
 2017-02-06 04:04:19.200107+01 | 1486350259.20011 | pgbench_tellers  |           450560
 2017-02-06 04:04:19.200107+01 | 1486350259.20011 | pgbench_history  |                0
 2017-02-06 04:04:19.200107+01 | 1486350259.20011 | pgbench_branches |            40960

 2017-02-06 04:04:20.302854+01 | 1486350260.30285 | pgbench_accounts |      13429514240
 2017-02-06 04:04:20.302854+01 | 1486350260.30285 | pgbench_tellers  |           450560
 2017-02-06 04:04:20.302854+01 | 1486350260.30285 | pgbench_history  |                0
 2017-02-06 04:04:20.302854+01 | 1486350260.30285 | pgbench_branches |            40960

 2017-02-06 04:04:21.39844+01 | 1486350261.39844 | pgbench_accounts |      13429514240
 2017-02-06 04:04:21.39844+01 | 1486350261.39844 | pgbench_tellers  |           450560
 2017-02-06 04:04:21.39844+01 | 1486350261.39844 | pgbench_history  |                0
 2017-02-06 04:04:21.39844+01 | 1486350261.39844 | pgbench_branches |            40960

 2017-02-06 04:04:22.504284+01 | 1486350262.50428 | pgbench_accounts |      13429514240
 2017-02-06 04:04:22.504284+01 | 1486350262.50428 | pgbench_tellers  |           450560
 2017-02-06 04:04:22.504284+01 | 1486350262.50428 | pgbench_history  |                0
 2017-02-06 04:04:22.504284+01 | 1486350262.50428 | pgbench_branches |            40960

 2017-02-06 04:04:23.605129+01 | 1486350263.60513 | pgbench_accounts |      13429514240
 2017-02-06 04:04:23.605129+01 | 1486350263.60513 | pgbench_tellers  |           450560
 2017-02-06 04:04:23.605129+01 | 1486350263.60513 | pgbench_history  |                0
 2017-02-06 04:04:23.605129+01 | 1486350263.60513 | pgbench_branches |            40960

 2017-02-06 04:04:24.714943+01 | 1486350264.71494 | pgbench_accounts |      13429514240
 2017-02-06 04:04:24.714943+01 | 1486350264.71494 | pgbench_tellers  |           450560
 2017-02-06 04:04:24.714943+01 | 1486350264.71494 | pgbench_history  |                0
 2017-02-06 04:04:24.714943+01 | 1486350264.71494 | pgbench_branches |            40960

 2017-02-06 04:04:25.808334+01 | 1486350265.80833 | pgbench_accounts |      13429514240
 2017-02-06 04:04:25.808334+01 | 1486350265.80833 | pgbench_tellers  |           450560
 2017-02-06 04:04:25.808334+01 | 1486350265.80833 | pgbench_history  |                0
 2017-02-06 04:04:25.808334+01 | 1486350265.80833 | pgbench_branches |            40960

 2017-02-06 04:04:26.909956+01 | 1486350266.90996 | pgbench_accounts |      13429514240
 2017-02-06 04:04:26.909956+01 | 1486350266.90996 | pgbench_tellers  |           450560
 2017-02-06 04:04:26.909956+01 | 1486350266.90996 | pgbench_history  |                0
 2017-02-06 04:04:26.909956+01 | 1486350266.90996 | pgbench_branches |            40960

 2017-02-06 04:04:28.001046+01 | 1486350268.00105 | pgbench_accounts |      13429514240
 2017-02-06 04:04:28.001046+01 | 1486350268.00105 | pgbench_tellers  |           450560
 2017-02-06 04:04:28.001046+01 | 1486350268.00105 | pgbench_history  |                0
 2017-02-06 04:04:28.001046+01 | 1486350268.00105 | pgbench_branches |            40960

 2017-02-06 04:04:29.090516+01 | 1486350269.09052 | pgbench_accounts |      13429514240
 2017-02-06 04:04:29.090516+01 | 1486350269.09052 | pgbench_tellers  |           450560
 2017-02-06 04:04:29.090516+01 | 1486350269.09052 | pgbench_history  |                0
 2017-02-06 04:04:29.090516+01 | 1486350269.09052 | pgbench_branches |            40960

 2017-02-06 04:04:30.188066+01 | 1486350270.18807 | pgbench_accounts |      13429514240
 2017-02-06 04:04:30.188066+01 | 1486350270.18807 | pgbench_tellers  |           450560
 2017-02-06 04:04:30.188066+01 | 1486350270.18807 | pgbench_history  |                0
 2017-02-06 04:04:30.188066+01 | 1486350270.18807 | pgbench_branches |            40960

 2017-02-06 04:04:31.288738+01 | 1486350271.28874 | pgbench_accounts |      13429514240
 2017-02-06 04:04:31.288738+01 | 1486350271.28874 | pgbench_tellers  |           450560
 2017-02-06 04:04:31.288738+01 | 1486350271.28874 | pgbench_history  |                0
 2017-02-06 04:04:31.288738+01 | 1486350271.28874 | pgbench_branches |            40960

 2017-02-06 04:04:32.389212+01 | 1486350272.38921 | pgbench_accounts |      13429514240
 2017-02-06 04:04:32.389212+01 | 1486350272.38921 | pgbench_tellers  |           450560
 2017-02-06 04:04:32.389212+01 | 1486350272.38921 | pgbench_history  |                0
 2017-02-06 04:04:32.389212+01 | 1486350272.38921 | pgbench_branches |            40960

 2017-02-06 04:04:33.50351+01 | 1486350273.50351 | pgbench_accounts |      13429514240
 2017-02-06 04:04:33.50351+01 | 1486350273.50351 | pgbench_tellers  |           450560
 2017-02-06 04:04:33.50351+01 | 1486350273.50351 | pgbench_history  |                0
 2017-02-06 04:04:33.50351+01 | 1486350273.50351 | pgbench_branches |            40960

 2017-02-06 04:04:34.599243+01 | 1486350274.59924 | pgbench_accounts |      13429514240
 2017-02-06 04:04:34.599243+01 | 1486350274.59924 | pgbench_tellers  |           450560
 2017-02-06 04:04:34.599243+01 | 1486350274.59924 | pgbench_history  |                0
 2017-02-06 04:04:34.599243+01 | 1486350274.59924 | pgbench_branches |            40960

 2017-02-06 04:04:35.687009+01 | 1486350275.68701 | pgbench_accounts |      13429514240
 2017-02-06 04:04:35.687009+01 | 1486350275.68701 | pgbench_tellers  |           450560
 2017-02-06 04:04:35.687009+01 | 1486350275.68701 | pgbench_history  |                0
 2017-02-06 04:04:35.687009+01 | 1486350275.68701 | pgbench_branches |            40960

 2017-02-06 04:04:36.790998+01 | 1486350276.791 | pgbench_accounts |      13429514240
 2017-02-06 04:04:36.790998+01 | 1486350276.791 | pgbench_tellers  |           450560
 2017-02-06 04:04:36.790998+01 | 1486350276.791 | pgbench_history  |                0
 2017-02-06 04:04:36.790998+01 | 1486350276.791 | pgbench_branches |            40960

 2017-02-06 04:04:37.895446+01 | 1486350277.89545 | pgbench_accounts |      13429514240
 2017-02-06 04:04:37.895446+01 | 1486350277.89545 | pgbench_tellers  |           450560
 2017-02-06 04:04:37.895446+01 | 1486350277.89545 | pgbench_history  |                0
 2017-02-06 04:04:37.895446+01 | 1486350277.89545 | pgbench_branches |            40960

 2017-02-06 04:04:38.9949+01 | 1486350278.9949 | pgbench_accounts |      13429514240
 2017-02-06 04:04:38.9949+01 | 1486350278.9949 | pgbench_tellers  |           450560
 2017-02-06 04:04:38.9949+01 | 1486350278.9949 | pgbench_history  |                0
 2017-02-06 04:04:38.9949+01 | 1486350278.9949 | pgbench_branches |            40960

 2017-02-06 04:04:40.097203+01 | 1486350280.0972 | pgbench_accounts |      13429514240
 2017-02-06 04:04:40.097203+01 | 1486350280.0972 | pgbench_tellers  |           450560
 2017-02-06 04:04:40.097203+01 | 1486350280.0972 | pgbench_history  |                0
 2017-02-06 04:04:40.097203+01 | 1486350280.0972 | pgbench_branches |            40960

 2017-02-06 04:04:41.19647+01 | 1486350281.19647 | pgbench_accounts |      13429514240
 2017-02-06 04:04:41.19647+01 | 1486350281.19647 | pgbench_tellers  |           450560
 2017-02-06 04:04:41.19647+01 | 1486350281.19647 | pgbench_history  |                0
 2017-02-06 04:04:41.19647+01 | 1486350281.19647 | pgbench_branches |            40960

 2017-02-06 04:04:42.307042+01 | 1486350282.30704 | pgbench_accounts |      13429514240
 2017-02-06 04:04:42.307042+01 | 1486350282.30704 | pgbench_tellers  |           450560
 2017-02-06 04:04:42.307042+01 | 1486350282.30704 | pgbench_history  |                0
 2017-02-06 04:04:42.307042+01 | 1486350282.30704 | pgbench_branches |            40960

 2017-02-06 04:04:43.416009+01 | 1486350283.41601 | pgbench_accounts |      13429514240
 2017-02-06 04:04:43.416009+01 | 1486350283.41601 | pgbench_tellers  |           450560
 2017-02-06 04:04:43.416009+01 | 1486350283.41601 | pgbench_history  |                0
 2017-02-06 04:04:43.416009+01 | 1486350283.41601 | pgbench_branches |            40960

 2017-02-06 04:04:44.530027+01 | 1486350284.53003 | pgbench_accounts |      13429514240
 2017-02-06 04:04:44.530027+01 | 1486350284.53003 | pgbench_tellers  |           450560
 2017-02-06 04:04:44.530027+01 | 1486350284.53003 | pgbench_history  |                0
 2017-02-06 04:04:44.530027+01 | 1486350284.53003 | pgbench_branches |            40960

 2017-02-06 04:04:45.628024+01 | 1486350285.62802 | pgbench_accounts |      13429514240
 2017-02-06 04:04:45.628024+01 | 1486350285.62802 | pgbench_tellers  |           450560
 2017-02-06 04:04:45.628024+01 | 1486350285.62802 | pgbench_history  |                0
 2017-02-06 04:04:45.628024+01 | 1486350285.62802 | pgbench_branches |            40960

 2017-02-06 04:04:46.715098+01 | 1486350286.7151 | pgbench_accounts |      13429514240
 2017-02-06 04:04:46.715098+01 | 1486350286.7151 | pgbench_tellers  |           450560
 2017-02-06 04:04:46.715098+01 | 1486350286.7151 | pgbench_history  |                0
 2017-02-06 04:04:46.715098+01 | 1486350286.7151 | pgbench_branches |            40960

 2017-02-06 04:04:47.806407+01 | 1486350287.80641 | pgbench_accounts |      13429514240
 2017-02-06 04:04:47.806407+01 | 1486350287.80641 | pgbench_tellers  |           450560
 2017-02-06 04:04:47.806407+01 | 1486350287.80641 | pgbench_history  |                0
 2017-02-06 04:04:47.806407+01 | 1486350287.80641 | pgbench_branches |            40960

 2017-02-06 04:04:48.933182+01 | 1486350288.93318 | pgbench_accounts |      13429514240
 2017-02-06 04:04:48.933182+01 | 1486350288.93318 | pgbench_tellers  |           450560
 2017-02-06 04:04:48.933182+01 | 1486350288.93318 | pgbench_history  |                0
 2017-02-06 04:04:48.933182+01 | 1486350288.93318 | pgbench_branches |            40960

 2017-02-06 04:04:50.037824+01 | 1486350290.03782 | pgbench_accounts |      13429514240
 2017-02-06 04:04:50.037824+01 | 1486350290.03782 | pgbench_tellers  |           450560
 2017-02-06 04:04:50.037824+01 | 1486350290.03782 | pgbench_history  |                0
 2017-02-06 04:04:50.037824+01 | 1486350290.03782 | pgbench_branches |            40960

 2017-02-06 04:04:51.138379+01 | 1486350291.13838 | pgbench_accounts |      13429514240
 2017-02-06 04:04:51.138379+01 | 1486350291.13838 | pgbench_tellers  |           450560
 2017-02-06 04:04:51.138379+01 | 1486350291.13838 | pgbench_history  |                0
 2017-02-06 04:04:51.138379+01 | 1486350291.13838 | pgbench_branches |            40960

 2017-02-06 04:04:52.226067+01 | 1486350292.22607 | pgbench_accounts |      13429514240
 2017-02-06 04:04:52.226067+01 | 1486350292.22607 | pgbench_tellers  |           450560
 2017-02-06 04:04:52.226067+01 | 1486350292.22607 | pgbench_history  |                0
 2017-02-06 04:04:52.226067+01 | 1486350292.22607 | pgbench_branches |            40960

 2017-02-06 04:04:53.343724+01 | 1486350293.34372 | pgbench_accounts |      13429514240
 2017-02-06 04:04:53.343724+01 | 1486350293.34372 | pgbench_tellers  |           450560
 2017-02-06 04:04:53.343724+01 | 1486350293.34372 | pgbench_history  |                0
 2017-02-06 04:04:53.343724+01 | 1486350293.34372 | pgbench_branches |            40960

 2017-02-06 04:04:54.434023+01 | 1486350294.43402 | pgbench_accounts |      13429514240
 2017-02-06 04:04:54.434023+01 | 1486350294.43402 | pgbench_tellers  |           450560
 2017-02-06 04:04:54.434023+01 | 1486350294.43402 | pgbench_history  |                0
 2017-02-06 04:04:54.434023+01 | 1486350294.43402 | pgbench_branches |            40960

 2017-02-06 04:04:55.526086+01 | 1486350295.52609 | pgbench_accounts |      13429514240
 2017-02-06 04:04:55.526086+01 | 1486350295.52609 | pgbench_tellers  |           450560
 2017-02-06 04:04:55.526086+01 | 1486350295.52609 | pgbench_history  |                0
 2017-02-06 04:04:55.526086+01 | 1486350295.52609 | pgbench_branches |            40960

 2017-02-06 04:04:56.623615+01 | 1486350296.62362 | pgbench_accounts |      13429514240
 2017-02-06 04:04:56.623615+01 | 1486350296.62362 | pgbench_tellers  |           450560
 2017-02-06 04:04:56.623615+01 | 1486350296.62362 | pgbench_history  |                0
 2017-02-06 04:04:56.623615+01 | 1486350296.62362 | pgbench_branches |            40960

 2017-02-06 04:04:57.714923+01 | 1486350297.71492 | pgbench_accounts |      13429514240
 2017-02-06 04:04:57.714923+01 | 1486350297.71492 | pgbench_tellers  |           450560
 2017-02-06 04:04:57.714923+01 | 1486350297.71492 | pgbench_history  |                0
 2017-02-06 04:04:57.714923+01 | 1486350297.71492 | pgbench_branches |            40960

 2017-02-06 04:04:58.808953+01 | 1486350298.80895 | pgbench_accounts |      13429514240
 2017-02-06 04:04:58.808953+01 | 1486350298.80895 | pgbench_tellers  |           450560
 2017-02-06 04:04:58.808953+01 | 1486350298.80895 | pgbench_history  |                0
 2017-02-06 04:04:58.808953+01 | 1486350298.80895 | pgbench_branches |            40960

 2017-02-06 04:04:59.908634+01 | 1486350299.90863 | pgbench_accounts |      13429514240
 2017-02-06 04:04:59.908634+01 | 1486350299.90863 | pgbench_tellers  |           450560
 2017-02-06 04:04:59.908634+01 | 1486350299.90863 | pgbench_history  |                0
 2017-02-06 04:04:59.908634+01 | 1486350299.90863 | pgbench_branches |            40960

 2017-02-06 04:05:00.995245+01 | 1486350300.99524 | pgbench_accounts |      13429514240
 2017-02-06 04:05:00.995245+01 | 1486350300.99524 | pgbench_tellers  |           450560
 2017-02-06 04:05:00.995245+01 | 1486350300.99524 | pgbench_history  |                0
 2017-02-06 04:05:00.995245+01 | 1486350300.99524 | pgbench_branches |            40960

 2017-02-06 04:05:02.101369+01 | 1486350302.10137 | pgbench_accounts |      13429514240
 2017-02-06 04:05:02.101369+01 | 1486350302.10137 | pgbench_tellers  |           450560
 2017-02-06 04:05:02.101369+01 | 1486350302.10137 | pgbench_history  |                0
 2017-02-06 04:05:02.101369+01 | 1486350302.10137 | pgbench_branches |            40960

 2017-02-06 04:05:03.200789+01 | 1486350303.20079 | pgbench_accounts |      13429514240
 2017-02-06 04:05:03.200789+01 | 1486350303.20079 | pgbench_tellers  |           450560
 2017-02-06 04:05:03.200789+01 | 1486350303.20079 | pgbench_history  |                0
 2017-02-06 04:05:03.200789+01 | 1486350303.20079 | pgbench_branches |            40960

 2017-02-06 04:05:04.302455+01 | 1486350304.30245 | pgbench_accounts |      13429514240
 2017-02-06 04:05:04.302455+01 | 1486350304.30245 | pgbench_tellers  |           450560
 2017-02-06 04:05:04.302455+01 | 1486350304.30245 | pgbench_history  |                0
 2017-02-06 04:05:04.302455+01 | 1486350304.30245 | pgbench_branches |            40960

 2017-02-06 04:05:05.412836+01 | 1486350305.41284 | pgbench_accounts |      13429514240
 2017-02-06 04:05:05.412836+01 | 1486350305.41284 | pgbench_tellers  |           450560
 2017-02-06 04:05:05.412836+01 | 1486350305.41284 | pgbench_history  |                0
 2017-02-06 04:05:05.412836+01 | 1486350305.41284 | pgbench_branches |            40960

 2017-02-06 04:05:06.511598+01 | 1486350306.5116 | pgbench_accounts |      13429514240
 2017-02-06 04:05:06.511598+01 | 1486350306.5116 | pgbench_tellers  |           450560
 2017-02-06 04:05:06.511598+01 | 1486350306.5116 | pgbench_history  |                0
 2017-02-06 04:05:06.511598+01 | 1486350306.5116 | pgbench_branches |            40960

 2017-02-06 04:05:07.611586+01 | 1486350307.61159 | pgbench_accounts |      13429514240
 2017-02-06 04:05:07.611586+01 | 1486350307.61159 | pgbench_tellers  |           450560
 2017-02-06 04:05:07.611586+01 | 1486350307.61159 | pgbench_history  |                0
 2017-02-06 04:05:07.611586+01 | 1486350307.61159 | pgbench_branches |            40960

 2017-02-06 04:05:08.717085+01 | 1486350308.71708 | pgbench_accounts |      13429514240
 2017-02-06 04:05:08.717085+01 | 1486350308.71708 | pgbench_tellers  |           450560
 2017-02-06 04:05:08.717085+01 | 1486350308.71708 | pgbench_history  |                0
 2017-02-06 04:05:08.717085+01 | 1486350308.71708 | pgbench_branches |            40960

 2017-02-06 04:05:09.820044+01 | 1486350309.82004 | pgbench_accounts |      13429514240
 2017-02-06 04:05:09.820044+01 | 1486350309.82004 | pgbench_tellers  |           450560
 2017-02-06 04:05:09.820044+01 | 1486350309.82004 | pgbench_history  |                0
 2017-02-06 04:05:09.820044+01 | 1486350309.82004 | pgbench_branches |            40960

 2017-02-06 04:05:10.921976+01 | 1486350310.92198 | pgbench_accounts |      13429514240
 2017-02-06 04:05:10.921976+01 | 1486350310.92198 | pgbench_tellers  |           450560
 2017-02-06 04:05:10.921976+01 | 1486350310.92198 | pgbench_history  |                0
 2017-02-06 04:05:10.921976+01 | 1486350310.92198 | pgbench_branches |            40960

 2017-02-06 04:05:12.011802+01 | 1486350312.0118 | pgbench_accounts |      13429514240
 2017-02-06 04:05:12.011802+01 | 1486350312.0118 | pgbench_tellers  |           450560
 2017-02-06 04:05:12.011802+01 | 1486350312.0118 | pgbench_history  |                0
 2017-02-06 04:05:12.011802+01 | 1486350312.0118 | pgbench_branches |            40960

 2017-02-06 04:05:13.110889+01 | 1486350313.11089 | pgbench_accounts |      13429514240
 2017-02-06 04:05:13.110889+01 | 1486350313.11089 | pgbench_tellers  |           450560
 2017-02-06 04:05:13.110889+01 | 1486350313.11089 | pgbench_history  |                0
 2017-02-06 04:05:13.110889+01 | 1486350313.11089 | pgbench_branches |            40960

 2017-02-06 04:05:14.211689+01 | 1486350314.21169 | pgbench_accounts |      13429514240
 2017-02-06 04:05:14.211689+01 | 1486350314.21169 | pgbench_tellers  |           450560
 2017-02-06 04:05:14.211689+01 | 1486350314.21169 | pgbench_history  |                0
 2017-02-06 04:05:14.211689+01 | 1486350314.21169 | pgbench_branches |            40960

 2017-02-06 04:05:15.308917+01 | 1486350315.30892 | pgbench_accounts |      13429514240
 2017-02-06 04:05:15.308917+01 | 1486350315.30892 | pgbench_tellers  |           450560
 2017-02-06 04:05:15.308917+01 | 1486350315.30892 | pgbench_history  |                0
 2017-02-06 04:05:15.308917+01 | 1486350315.30892 | pgbench_branches |            40960

 2017-02-06 04:05:16.409257+01 | 1486350316.40926 | pgbench_accounts |      13429514240
 2017-02-06 04:05:16.409257+01 | 1486350316.40926 | pgbench_tellers  |           450560
 2017-02-06 04:05:16.409257+01 | 1486350316.40926 | pgbench_history  |                0
 2017-02-06 04:05:16.409257+01 | 1486350316.40926 | pgbench_branches |            40960

 2017-02-06 04:05:17.518757+01 | 1486350317.51876 | pgbench_accounts |      13429514240
 2017-02-06 04:05:17.518757+01 | 1486350317.51876 | pgbench_tellers  |           450560
 2017-02-06 04:05:17.518757+01 | 1486350317.51876 | pgbench_history  |                0
 2017-02-06 04:05:17.518757+01 | 1486350317.51876 | pgbench_branches |            40960

 2017-02-06 04:05:18.62044+01 | 1486350318.62044 | pgbench_accounts |      13429514240
 2017-02-06 04:05:18.62044+01 | 1486350318.62044 | pgbench_tellers  |           450560
 2017-02-06 04:05:18.62044+01 | 1486350318.62044 | pgbench_history  |                0
 2017-02-06 04:05:18.62044+01 | 1486350318.62044 | pgbench_branches |            40960

 2017-02-06 04:05:19.711897+01 | 1486350319.7119 | pgbench_accounts |      13429514240
 2017-02-06 04:05:19.711897+01 | 1486350319.7119 | pgbench_tellers  |           450560
 2017-02-06 04:05:19.711897+01 | 1486350319.7119 | pgbench_history  |                0
 2017-02-06 04:05:19.711897+01 | 1486350319.7119 | pgbench_branches |            40960

 2017-02-06 04:05:20.808252+01 | 1486350320.80825 | pgbench_accounts |      13429514240
 2017-02-06 04:05:20.808252+01 | 1486350320.80825 | pgbench_tellers  |           450560
 2017-02-06 04:05:20.808252+01 | 1486350320.80825 | pgbench_history  |                0
 2017-02-06 04:05:20.808252+01 | 1486350320.80825 | pgbench_branches |            40960

 2017-02-06 04:05:21.913173+01 | 1486350321.91317 | pgbench_accounts |      13429514240
 2017-02-06 04:05:21.913173+01 | 1486350321.91317 | pgbench_tellers  |           450560
 2017-02-06 04:05:21.913173+01 | 1486350321.91317 | pgbench_history  |                0
 2017-02-06 04:05:21.913173+01 | 1486350321.91317 | pgbench_branches |            40960

 2017-02-06 04:05:23.018006+01 | 1486350323.01801 | pgbench_accounts |      13429514240
 2017-02-06 04:05:23.018006+01 | 1486350323.01801 | pgbench_tellers  |           450560
 2017-02-06 04:05:23.018006+01 | 1486350323.01801 | pgbench_history  |                0
 2017-02-06 04:05:23.018006+01 | 1486350323.01801 | pgbench_branches |            40960

 2017-02-06 04:05:24.106123+01 | 1486350324.10612 | pgbench_accounts |      13429514240
 2017-02-06 04:05:24.106123+01 | 1486350324.10612 | pgbench_tellers  |           450560
 2017-02-06 04:05:24.106123+01 | 1486350324.10612 | pgbench_history  |                0
 2017-02-06 04:05:24.106123+01 | 1486350324.10612 | pgbench_branches |            40960

 2017-02-06 04:05:25.196561+01 | 1486350325.19656 | pgbench_accounts |      13429514240
 2017-02-06 04:05:25.196561+01 | 1486350325.19656 | pgbench_tellers  |           450560
 2017-02-06 04:05:25.196561+01 | 1486350325.19656 | pgbench_history  |                0
 2017-02-06 04:05:25.196561+01 | 1486350325.19656 | pgbench_branches |            40960

 2017-02-06 04:05:26.294884+01 | 1486350326.29488 | pgbench_accounts |      13429514240
 2017-02-06 04:05:26.294884+01 | 1486350326.29488 | pgbench_tellers  |           450560
 2017-02-06 04:05:26.294884+01 | 1486350326.29488 | pgbench_history  |                0
 2017-02-06 04:05:26.294884+01 | 1486350326.29488 | pgbench_branches |            40960

 2017-02-06 04:05:27.391768+01 | 1486350327.39177 | pgbench_accounts |      13429514240
 2017-02-06 04:05:27.391768+01 | 1486350327.39177 | pgbench_tellers  |           450560
 2017-02-06 04:05:27.391768+01 | 1486350327.39177 | pgbench_history  |                0
 2017-02-06 04:05:27.391768+01 | 1486350327.39177 | pgbench_branches |            40960

 2017-02-06 04:05:28.504791+01 | 1486350328.50479 | pgbench_accounts |      13429514240
 2017-02-06 04:05:28.504791+01 | 1486350328.50479 | pgbench_tellers  |           450560
 2017-02-06 04:05:28.504791+01 | 1486350328.50479 | pgbench_history  |                0
 2017-02-06 04:05:28.504791+01 | 1486350328.50479 | pgbench_branches |            40960

 2017-02-06 04:05:29.603893+01 | 1486350329.60389 | pgbench_accounts |      13429514240
 2017-02-06 04:05:29.603893+01 | 1486350329.60389 | pgbench_tellers  |           450560
 2017-02-06 04:05:29.603893+01 | 1486350329.60389 | pgbench_history  |                0
 2017-02-06 04:05:29.603893+01 | 1486350329.60389 | pgbench_branches |            40960

 2017-02-06 04:05:30.706498+01 | 1486350330.7065 | pgbench_accounts |      13429514240
 2017-02-06 04:05:30.706498+01 | 1486350330.7065 | pgbench_tellers  |           450560
 2017-02-06 04:05:30.706498+01 | 1486350330.7065 | pgbench_history  |                0
 2017-02-06 04:05:30.706498+01 | 1486350330.7065 | pgbench_branches |            40960

 2017-02-06 04:05:31.809317+01 | 1486350331.80932 | pgbench_accounts |      13429514240
 2017-02-06 04:05:31.809317+01 | 1486350331.80932 | pgbench_tellers  |           450560
 2017-02-06 04:05:31.809317+01 | 1486350331.80932 | pgbench_history  |                0
 2017-02-06 04:05:31.809317+01 | 1486350331.80932 | pgbench_branches |            40960

 2017-02-06 04:05:32.901562+01 | 1486350332.90156 | pgbench_accounts |      13429514240
 2017-02-06 04:05:32.901562+01 | 1486350332.90156 | pgbench_tellers  |           450560
 2017-02-06 04:05:32.901562+01 | 1486350332.90156 | pgbench_history  |                0
 2017-02-06 04:05:32.901562+01 | 1486350332.90156 | pgbench_branches |            40960

 2017-02-06 04:05:34.010348+01 | 1486350334.01035 | pgbench_accounts |      13429514240
 2017-02-06 04:05:34.010348+01 | 1486350334.01035 | pgbench_tellers  |           450560
 2017-02-06 04:05:34.010348+01 | 1486350334.01035 | pgbench_history  |                0
 2017-02-06 04:05:34.010348+01 | 1486350334.01035 | pgbench_branches |            40960

 2017-02-06 04:05:35.121014+01 | 1486350335.12101 | pgbench_accounts |      13429514240
 2017-02-06 04:05:35.121014+01 | 1486350335.12101 | pgbench_tellers  |           450560
 2017-02-06 04:05:35.121014+01 | 1486350335.12101 | pgbench_history  |                0
 2017-02-06 04:05:35.121014+01 | 1486350335.12101 | pgbench_branches |            40960

 2017-02-06 04:05:36.218225+01 | 1486350336.21823 | pgbench_accounts |      13429514240
 2017-02-06 04:05:36.218225+01 | 1486350336.21823 | pgbench_tellers  |           450560
 2017-02-06 04:05:36.218225+01 | 1486350336.21823 | pgbench_history  |                0
 2017-02-06 04:05:36.218225+01 | 1486350336.21823 | pgbench_branches |            40960

 2017-02-06 04:05:37.309851+01 | 1486350337.30985 | pgbench_accounts |      13429514240
 2017-02-06 04:05:37.309851+01 | 1486350337.30985 | pgbench_tellers  |           450560
 2017-02-06 04:05:37.309851+01 | 1486350337.30985 | pgbench_history  |                0
 2017-02-06 04:05:37.309851+01 | 1486350337.30985 | pgbench_branches |            40960

 2017-02-06 04:05:38.410542+01 | 1486350338.41054 | pgbench_accounts |      13429514240
 2017-02-06 04:05:38.410542+01 | 1486350338.41054 | pgbench_tellers  |           450560
 2017-02-06 04:05:38.410542+01 | 1486350338.41054 | pgbench_history  |                0
 2017-02-06 04:05:38.410542+01 | 1486350338.41054 | pgbench_branches |            40960

 2017-02-06 04:05:39.51398+01 | 1486350339.51398 | pgbench_accounts |      13429514240
 2017-02-06 04:05:39.51398+01 | 1486350339.51398 | pgbench_tellers  |           450560
 2017-02-06 04:05:39.51398+01 | 1486350339.51398 | pgbench_history  |                0
 2017-02-06 04:05:39.51398+01 | 1486350339.51398 | pgbench_branches |            40960

 2017-02-06 04:05:40.617102+01 | 1486350340.6171 | pgbench_accounts |      13429514240
 2017-02-06 04:05:40.617102+01 | 1486350340.6171 | pgbench_tellers  |           450560
 2017-02-06 04:05:40.617102+01 | 1486350340.6171 | pgbench_history  |                0
 2017-02-06 04:05:40.617102+01 | 1486350340.6171 | pgbench_branches |            40960

 2017-02-06 04:05:41.719448+01 | 1486350341.71945 | pgbench_accounts |      13429514240
 2017-02-06 04:05:41.719448+01 | 1486350341.71945 | pgbench_tellers  |           450560
 2017-02-06 04:05:41.719448+01 | 1486350341.71945 | pgbench_history  |                0
 2017-02-06 04:05:41.719448+01 | 1486350341.71945 | pgbench_branches |            40960

 2017-02-06 04:05:42.816319+01 | 1486350342.81632 | pgbench_accounts |      13429514240
 2017-02-06 04:05:42.816319+01 | 1486350342.81632 | pgbench_tellers  |           450560
 2017-02-06 04:05:42.816319+01 | 1486350342.81632 | pgbench_history  |                0
 2017-02-06 04:05:42.816319+01 | 1486350342.81632 | pgbench_branches |            40960

 2017-02-06 04:05:43.919988+01 | 1486350343.91999 | pgbench_accounts |      13429514240
 2017-02-06 04:05:43.919988+01 | 1486350343.91999 | pgbench_tellers  |           450560
 2017-02-06 04:05:43.919988+01 | 1486350343.91999 | pgbench_history  |                0
 2017-02-06 04:05:43.919988+01 | 1486350343.91999 | pgbench_branches |            40960

 2017-02-06 04:05:45.017522+01 | 1486350345.01752 | pgbench_accounts |      13429514240
 2017-02-06 04:05:45.017522+01 | 1486350345.01752 | pgbench_tellers  |           450560
 2017-02-06 04:05:45.017522+01 | 1486350345.01752 | pgbench_history  |                0
 2017-02-06 04:05:45.017522+01 | 1486350345.01752 | pgbench_branches |            40960

 2017-02-06 04:05:46.125351+01 | 1486350346.12535 | pgbench_accounts |      13429514240
 2017-02-06 04:05:46.125351+01 | 1486350346.12535 | pgbench_tellers  |           450560
 2017-02-06 04:05:46.125351+01 | 1486350346.12535 | pgbench_history  |                0
 2017-02-06 04:05:46.125351+01 | 1486350346.12535 | pgbench_branches |            40960

 2017-02-06 04:05:47.228829+01 | 1486350347.22883 | pgbench_accounts |      13429514240
 2017-02-06 04:05:47.228829+01 | 1486350347.22883 | pgbench_tellers  |           450560
 2017-02-06 04:05:47.228829+01 | 1486350347.22883 | pgbench_history  |                0
 2017-02-06 04:05:47.228829+01 | 1486350347.22883 | pgbench_branches |            40960

 2017-02-06 04:05:48.313667+01 | 1486350348.31367 | pgbench_accounts |      13429514240
 2017-02-06 04:05:48.313667+01 | 1486350348.31367 | pgbench_tellers  |           450560
 2017-02-06 04:05:48.313667+01 | 1486350348.31367 | pgbench_history  |                0
 2017-02-06 04:05:48.313667+01 | 1486350348.31367 | pgbench_branches |            40960

 2017-02-06 04:05:49.424835+01 | 1486350349.42483 | pgbench_accounts |      13429514240
 2017-02-06 04:05:49.424835+01 | 1486350349.42483 | pgbench_tellers  |           450560
 2017-02-06 04:05:49.424835+01 | 1486350349.42483 | pgbench_history  |                0
 2017-02-06 04:05:49.424835+01 | 1486350349.42483 | pgbench_branches |            40960

 2017-02-06 04:05:50.523773+01 | 1486350350.52377 | pgbench_accounts |      13429514240
 2017-02-06 04:05:50.523773+01 | 1486350350.52377 | pgbench_tellers  |           450560
 2017-02-06 04:05:50.523773+01 | 1486350350.52377 | pgbench_history  |                0
 2017-02-06 04:05:50.523773+01 | 1486350350.52377 | pgbench_branches |            40960

 2017-02-06 04:05:51.639765+01 | 1486350351.63977 | pgbench_accounts |      13429514240
 2017-02-06 04:05:51.639765+01 | 1486350351.63977 | pgbench_tellers  |           450560
 2017-02-06 04:05:51.639765+01 | 1486350351.63977 | pgbench_history  |                0
 2017-02-06 04:05:51.639765+01 | 1486350351.63977 | pgbench_branches |            40960

 2017-02-06 04:05:52.753611+01 | 1486350352.75361 | pgbench_accounts |      13429514240
 2017-02-06 04:05:52.753611+01 | 1486350352.75361 | pgbench_tellers  |           450560
 2017-02-06 04:05:52.753611+01 | 1486350352.75361 | pgbench_history  |                0
 2017-02-06 04:05:52.753611+01 | 1486350352.75361 | pgbench_branches |            40960

 2017-02-06 04:05:53.852566+01 | 1486350353.85257 | pgbench_accounts |      13429514240
 2017-02-06 04:05:53.852566+01 | 1486350353.85257 | pgbench_tellers  |           450560
 2017-02-06 04:05:53.852566+01 | 1486350353.85257 | pgbench_history  |                0
 2017-02-06 04:05:53.852566+01 | 1486350353.85257 | pgbench_branches |            40960

 2017-02-06 04:05:54.950061+01 | 1486350354.95006 | pgbench_accounts |      13429514240
 2017-02-06 04:05:54.950061+01 | 1486350354.95006 | pgbench_tellers  |           450560
 2017-02-06 04:05:54.950061+01 | 1486350354.95006 | pgbench_history  |                0
 2017-02-06 04:05:54.950061+01 | 1486350354.95006 | pgbench_branches |            40960

 2017-02-06 04:05:56.054932+01 | 1486350356.05493 | pgbench_accounts |      13429514240
 2017-02-06 04:05:56.054932+01 | 1486350356.05493 | pgbench_tellers  |           450560
 2017-02-06 04:05:56.054932+01 | 1486350356.05493 | pgbench_history  |                0
 2017-02-06 04:05:56.054932+01 | 1486350356.05493 | pgbench_branches |            40960

 2017-02-06 04:05:57.14704+01 | 1486350357.14704 | pgbench_accounts |      13429514240
 2017-02-06 04:05:57.14704+01 | 1486350357.14704 | pgbench_tellers  |           450560
 2017-02-06 04:05:57.14704+01 | 1486350357.14704 | pgbench_history  |                0
 2017-02-06 04:05:57.14704+01 | 1486350357.14704 | pgbench_branches |            40960

 2017-02-06 04:05:58.241785+01 | 1486350358.24179 | pgbench_accounts |      13429514240
 2017-02-06 04:05:58.241785+01 | 1486350358.24179 | pgbench_tellers  |           450560
 2017-02-06 04:05:58.241785+01 | 1486350358.24179 | pgbench_history  |                0
 2017-02-06 04:05:58.241785+01 | 1486350358.24179 | pgbench_branches |            40960

 2017-02-06 04:05:59.348534+01 | 1486350359.34853 | pgbench_accounts |      13429514240
 2017-02-06 04:05:59.348534+01 | 1486350359.34853 | pgbench_tellers  |           450560
 2017-02-06 04:05:59.348534+01 | 1486350359.34853 | pgbench_history  |                0
 2017-02-06 04:05:59.348534+01 | 1486350359.34853 | pgbench_branches |            40960

 2017-02-06 04:06:00.447382+01 | 1486350360.44738 | pgbench_accounts |      13429514240
 2017-02-06 04:06:00.447382+01 | 1486350360.44738 | pgbench_tellers  |           450560
 2017-02-06 04:06:00.447382+01 | 1486350360.44738 | pgbench_history  |                0
 2017-02-06 04:06:00.447382+01 | 1486350360.44738 | pgbench_branches |            40960

 2017-02-06 04:06:01.5456+01 | 1486350361.5456 | pgbench_accounts |      13429514240
 2017-02-06 04:06:01.5456+01 | 1486350361.5456 | pgbench_tellers  |           450560
 2017-02-06 04:06:01.5456+01 | 1486350361.5456 | pgbench_history  |                0
 2017-02-06 04:06:01.5456+01 | 1486350361.5456 | pgbench_branches |            40960

 2017-02-06 04:06:02.639106+01 | 1486350362.63911 | pgbench_accounts |      13429514240
 2017-02-06 04:06:02.639106+01 | 1486350362.63911 | pgbench_tellers  |           450560
 2017-02-06 04:06:02.639106+01 | 1486350362.63911 | pgbench_history  |                0
 2017-02-06 04:06:02.639106+01 | 1486350362.63911 | pgbench_branches |            40960

 2017-02-06 04:06:03.740977+01 | 1486350363.74098 | pgbench_accounts |      13429514240
 2017-02-06 04:06:03.740977+01 | 1486350363.74098 | pgbench_tellers  |           450560
 2017-02-06 04:06:03.740977+01 | 1486350363.74098 | pgbench_history  |                0
 2017-02-06 04:06:03.740977+01 | 1486350363.74098 | pgbench_branches |            40960

 2017-02-06 04:06:04.842045+01 | 1486350364.84205 | pgbench_accounts |      13429514240
 2017-02-06 04:06:04.842045+01 | 1486350364.84205 | pgbench_tellers  |           450560
 2017-02-06 04:06:04.842045+01 | 1486350364.84205 | pgbench_history  |                0
 2017-02-06 04:06:04.842045+01 | 1486350364.84205 | pgbench_branches |            40960

 2017-02-06 04:06:05.948478+01 | 1486350365.94848 | pgbench_accounts |      13429514240
 2017-02-06 04:06:05.948478+01 | 1486350365.94848 | pgbench_tellers  |           450560
 2017-02-06 04:06:05.948478+01 | 1486350365.94848 | pgbench_history  |                0
 2017-02-06 04:06:05.948478+01 | 1486350365.94848 | pgbench_branches |            40960

 2017-02-06 04:06:07.039685+01 | 1486350367.03969 | pgbench_accounts |      13429514240
 2017-02-06 04:06:07.039685+01 | 1486350367.03969 | pgbench_tellers  |           450560
 2017-02-06 04:06:07.039685+01 | 1486350367.03969 | pgbench_history  |                0
 2017-02-06 04:06:07.039685+01 | 1486350367.03969 | pgbench_branches |            40960

 2017-02-06 04:06:08.145179+01 | 1486350368.14518 | pgbench_accounts |      13429514240
 2017-02-06 04:06:08.145179+01 | 1486350368.14518 | pgbench_tellers  |           450560
 2017-02-06 04:06:08.145179+01 | 1486350368.14518 | pgbench_history  |                0
 2017-02-06 04:06:08.145179+01 | 1486350368.14518 | pgbench_branches |            40960

 2017-02-06 04:06:09.24439+01 | 1486350369.24439 | pgbench_accounts |      13429514240
 2017-02-06 04:06:09.24439+01 | 1486350369.24439 | pgbench_tellers  |           450560
 2017-02-06 04:06:09.24439+01 | 1486350369.24439 | pgbench_history  |                0
 2017-02-06 04:06:09.24439+01 | 1486350369.24439 | pgbench_branches |            40960

 2017-02-06 04:06:10.359431+01 | 1486350370.35943 | pgbench_accounts |      13429514240
 2017-02-06 04:06:10.359431+01 | 1486350370.35943 | pgbench_tellers  |           450560
 2017-02-06 04:06:10.359431+01 | 1486350370.35943 | pgbench_history  |                0
 2017-02-06 04:06:10.359431+01 | 1486350370.35943 | pgbench_branches |            40960

 2017-02-06 04:06:11.459617+01 | 1486350371.45962 | pgbench_accounts |      13429514240
 2017-02-06 04:06:11.459617+01 | 1486350371.45962 | pgbench_tellers  |           450560
 2017-02-06 04:06:11.459617+01 | 1486350371.45962 | pgbench_history  |                0
 2017-02-06 04:06:11.459617+01 | 1486350371.45962 | pgbench_branches |            40960

 2017-02-06 04:06:12.54846+01 | 1486350372.54846 | pgbench_accounts |      13429514240
 2017-02-06 04:06:12.54846+01 | 1486350372.54846 | pgbench_tellers  |           450560
 2017-02-06 04:06:12.54846+01 | 1486350372.54846 | pgbench_history  |                0
 2017-02-06 04:06:12.54846+01 | 1486350372.54846 | pgbench_branches |            40960

 2017-02-06 04:06:13.671101+01 | 1486350373.6711 | pgbench_accounts |      13429514240
 2017-02-06 04:06:13.671101+01 | 1486350373.6711 | pgbench_tellers  |           450560
 2017-02-06 04:06:13.671101+01 | 1486350373.6711 | pgbench_history  |                0
 2017-02-06 04:06:13.671101+01 | 1486350373.6711 | pgbench_branches |            40960

 2017-02-06 04:06:14.775157+01 | 1486350374.77516 | pgbench_accounts |      13429514240
 2017-02-06 04:06:14.775157+01 | 1486350374.77516 | pgbench_tellers  |           450560
 2017-02-06 04:06:14.775157+01 | 1486350374.77516 | pgbench_history  |                0
 2017-02-06 04:06:14.775157+01 | 1486350374.77516 | pgbench_branches |            40960

 2017-02-06 04:06:15.874569+01 | 1486350375.87457 | pgbench_accounts |      13429514240
 2017-02-06 04:06:15.874569+01 | 1486350375.87457 | pgbench_tellers  |           450560
 2017-02-06 04:06:15.874569+01 | 1486350375.87457 | pgbench_history  |                0
 2017-02-06 04:06:15.874569+01 | 1486350375.87457 | pgbench_branches |            40960

 2017-02-06 04:06:16.977055+01 | 1486350376.97706 | pgbench_accounts |      13429514240
 2017-02-06 04:06:16.977055+01 | 1486350376.97706 | pgbench_tellers  |           450560
 2017-02-06 04:06:16.977055+01 | 1486350376.97706 | pgbench_history  |                0
 2017-02-06 04:06:16.977055+01 | 1486350376.97706 | pgbench_branches |            40960

 2017-02-06 04:06:18.080715+01 | 1486350378.08071 | pgbench_accounts |      13429514240
 2017-02-06 04:06:18.080715+01 | 1486350378.08071 | pgbench_tellers  |           450560
 2017-02-06 04:06:18.080715+01 | 1486350378.08071 | pgbench_history  |                0
 2017-02-06 04:06:18.080715+01 | 1486350378.08071 | pgbench_branches |            40960

