 2017-02-05 18:56:20.009432+01 | 1486317380.00943 |                 0 |               9 |                 83690 |                 1490 |            6886067 |        764764 |             7254 |         7782714 |                     0 |       3694130 | 2017-02-05 18:10:53.010055+01

 2017-02-05 18:56:21.100126+01 | 1486317381.10013 |                 0 |               9 |                 83690 |                 1490 |            6886067 |        764764 |             7254 |         7782714 |                     0 |       3694682 | 2017-02-05 18:10:53.010055+01

 2017-02-05 18:56:22.186007+01 | 1486317382.18601 |                 0 |               9 |                 83690 |                 1490 |            6886067 |        764764 |             7254 |         7782714 |                     0 |       3695327 | 2017-02-05 18:10:53.010055+01

 2017-02-05 18:56:23.260948+01 | 1486317383.26095 |                 0 |               9 |                 83690 |                 1490 |            6886067 |        764764 |             7254 |         7782714 |                     0 |       3695928 | 2017-02-05 18:10:53.010055+01

 2017-02-05 18:56:24.331319+01 | 1486317384.33132 |                 0 |               9 |                 83690 |                 1490 |            6886067 |        764764 |             7254 |         7782714 |                     0 |       3696414 | 2017-02-05 18:10:53.010055+01

 2017-02-05 18:56:25.410926+01 | 1486317385.41093 |                 0 |               9 |                 83690 |                 1490 |            6886067 |        764764 |             7254 |         7782714 |                     0 |       3697071 | 2017-02-05 18:10:53.010055+01

 2017-02-05 18:56:26.481398+01 | 1486317386.4814 |                 0 |               9 |                 83690 |                 1490 |            6886067 |        764764 |             7254 |         7782714 |                     0 |       3697613 | 2017-02-05 18:10:53.010055+01

 2017-02-05 18:56:27.567025+01 | 1486317387.56702 |                 0 |               9 |                 83690 |                 1490 |            6886067 |        764764 |             7254 |         7782714 |                     0 |       3698134 | 2017-02-05 18:10:53.010055+01

 2017-02-05 18:56:28.651512+01 | 1486317388.65151 |                 0 |               9 |                 83690 |                 1490 |            6886067 |        764764 |             7254 |         7782714 |                     0 |       3698763 | 2017-02-05 18:10:53.010055+01

 2017-02-05 18:56:29.737062+01 | 1486317389.73706 |                 0 |               9 |                 83690 |                 1490 |            6886067 |        764764 |             7254 |         7782714 |                     0 |       3699301 | 2017-02-05 18:10:53.010055+01

 2017-02-05 18:56:30.819494+01 | 1486317390.81949 |                 0 |               9 |                 83690 |                 1490 |            6886067 |        764764 |             7254 |         7782714 |                     0 |       3700059 | 2017-02-05 18:10:53.010055+01

 2017-02-05 18:56:31.897501+01 | 1486317391.8975 |                 0 |               9 |                 83690 |                 1490 |            6886067 |        764764 |             7254 |         7782714 |                     0 |       3700641 | 2017-02-05 18:10:53.010055+01

 2017-02-05 18:56:32.975793+01 | 1486317392.97579 |                 0 |               9 |                 83690 |                 1490 |            6886067 |        764764 |             7254 |         7782714 |                     0 |       3701242 | 2017-02-05 18:10:53.010055+01

 2017-02-05 18:56:34.048104+01 | 1486317394.0481 |                 0 |               9 |                 83690 |                 1490 |            6886067 |        764764 |             7254 |         7782714 |                     0 |       3701940 | 2017-02-05 18:10:53.010055+01

 2017-02-05 18:56:35.122702+01 | 1486317395.1227 |                 0 |               9 |                 83690 |                 1490 |            6886067 |        764764 |             7254 |         7782714 |                     0 |       3702456 | 2017-02-05 18:10:53.010055+01

 2017-02-05 18:56:36.206865+01 | 1486317396.20687 |                 0 |               9 |                 83690 |                 1490 |            6886067 |        764764 |             7254 |         7782714 |                     0 |       3703004 | 2017-02-05 18:10:53.010055+01

 2017-02-05 18:56:37.291017+01 | 1486317397.29102 |                 0 |               9 |                 83690 |                 1490 |            6886067 |        764764 |             7254 |         7782714 |                     0 |       3703562 | 2017-02-05 18:10:53.010055+01

 2017-02-05 18:56:38.373397+01 | 1486317398.3734 |                 0 |               9 |                 83690 |                 1490 |            6886067 |        764764 |             7254 |         7782714 |                     0 |       3704085 | 2017-02-05 18:10:53.010055+01

 2017-02-05 18:56:39.464306+01 | 1486317399.46431 |                 0 |               9 |                 83690 |                 1490 |            6886067 |        764764 |             7254 |         7782714 |                     0 |       3704558 | 2017-02-05 18:10:53.010055+01

 2017-02-05 18:56:40.55549+01 | 1486317400.55549 |                 0 |               9 |                 83690 |                 1490 |            6886067 |        764764 |             7254 |         7782714 |                     0 |       3704988 | 2017-02-05 18:10:53.010055+01

 2017-02-05 18:56:41.643471+01 | 1486317401.64347 |                 0 |               9 |                 83690 |                 1490 |            6886067 |        764764 |             7254 |         7782714 |                     0 |       3705585 | 2017-02-05 18:10:53.010055+01

 2017-02-05 18:56:42.724594+01 | 1486317402.72459 |                 0 |               9 |                 83690 |                 1490 |            6886067 |        764764 |             7254 |         7782714 |                     0 |       3706055 | 2017-02-05 18:10:53.010055+01

 2017-02-05 18:56:43.80762+01 | 1486317403.80762 |                 0 |               9 |                 83690 |                 1490 |            6886067 |        764764 |             7254 |         7782714 |                     0 |       3706540 | 2017-02-05 18:10:53.010055+01

 2017-02-05 18:56:44.893623+01 | 1486317404.89362 |                 0 |               9 |                 83690 |                 1490 |            6886067 |        764764 |             7254 |         7782714 |                     0 |       3707212 | 2017-02-05 18:10:53.010055+01

 2017-02-05 18:56:45.982901+01 | 1486317405.9829 |                 0 |               9 |                 83690 |                 1490 |            6886067 |        764764 |             7254 |         7782714 |                     0 |       3707722 | 2017-02-05 18:10:53.010055+01

 2017-02-05 18:56:47.069132+01 | 1486317407.06913 |                 0 |               9 |                 83690 |                 1490 |            6886067 |        764764 |             7254 |         7782714 |                     0 |       3708357 | 2017-02-05 18:10:53.010055+01

 2017-02-05 18:56:48.148937+01 | 1486317408.14894 |                 0 |               9 |                 83690 |                 1490 |            6886067 |        764764 |             7254 |         7782714 |                     0 |       3708850 | 2017-02-05 18:10:53.010055+01

 2017-02-05 18:56:49.242303+01 | 1486317409.2423 |                 0 |               9 |                 83690 |                 1490 |            6886067 |        764764 |             7254 |         7782714 |                     0 |       3709471 | 2017-02-05 18:10:53.010055+01

 2017-02-05 18:56:50.327787+01 | 1486317410.32779 |                 0 |               9 |                 83690 |                 1490 |            6886067 |        764764 |             7254 |         7782714 |                     0 |       3709737 | 2017-02-05 18:10:53.010055+01

 2017-02-05 18:56:51.412368+01 | 1486317411.41237 |                 0 |               9 |                 83690 |                 1490 |            6886067 |        764764 |             7254 |         7782714 |                     0 |       3710180 | 2017-02-05 18:10:53.010055+01

 2017-02-05 18:56:52.484713+01 | 1486317412.48471 |                 0 |               9 |                 83690 |                 1490 |            6886067 |        764764 |             7254 |         7782714 |                     0 |       3710894 | 2017-02-05 18:10:53.010055+01

 2017-02-05 18:56:53.567521+01 | 1486317413.56752 |                 0 |               9 |                 83690 |                 1490 |            6886067 |        764764 |             7254 |         7782714 |                     0 |       3711478 | 2017-02-05 18:10:53.010055+01

 2017-02-05 18:56:54.644307+01 | 1486317414.64431 |                 0 |               9 |                 83690 |                 1490 |            6886067 |        764764 |             7254 |         7782714 |                     0 |       3712221 | 2017-02-05 18:10:53.010055+01

 2017-02-05 18:56:55.711057+01 | 1486317415.71106 |                 0 |               9 |                 83690 |                 1490 |            6886067 |        764764 |             7254 |         7782714 |                     0 |       3712779 | 2017-02-05 18:10:53.010055+01

 2017-02-05 18:56:56.790407+01 | 1486317416.79041 |                 0 |               9 |                 83690 |                 1490 |            6886067 |        764764 |             7254 |         7782714 |                     0 |       3713360 | 2017-02-05 18:10:53.010055+01

 2017-02-05 18:56:57.863779+01 | 1486317417.86378 |                 0 |               9 |                 83690 |                 1490 |            6886067 |        764764 |             7254 |         7782714 |                     0 |       3714116 | 2017-02-05 18:10:53.010055+01

 2017-02-05 18:56:58.943406+01 | 1486317418.94341 |                 0 |               9 |                 83690 |                 1490 |            6886067 |        764764 |             7254 |         7782714 |                     0 |       3714715 | 2017-02-05 18:10:53.010055+01

 2017-02-05 18:57:00.026817+01 | 1486317420.02682 |                 0 |               9 |                 83690 |                 1490 |            6886067 |        764764 |             7254 |         7782714 |                     0 |       3715217 | 2017-02-05 18:10:53.010055+01

 2017-02-05 18:57:01.102051+01 | 1486317421.10205 |                 0 |               9 |                 83690 |                 1490 |            6886067 |        764764 |             7254 |         7782714 |                     0 |       3715972 | 2017-02-05 18:10:53.010055+01

 2017-02-05 18:57:02.182745+01 | 1486317422.18274 |                 0 |               9 |                 83690 |                 1490 |            6886067 |        764764 |             7254 |         7782714 |                     0 |       3716506 | 2017-02-05 18:10:53.010055+01

 2017-02-05 18:57:03.273937+01 | 1486317423.27394 |                 0 |               9 |                 83690 |                 1490 |            6886067 |        764764 |             7254 |         7782714 |                     0 |       3717285 | 2017-02-05 18:10:53.010055+01

 2017-02-05 18:57:04.360614+01 | 1486317424.36061 |                 0 |               9 |                 83690 |                 1490 |            6886067 |        764764 |             7254 |         7782714 |                     0 |       3717895 | 2017-02-05 18:10:53.010055+01

 2017-02-05 18:57:05.449891+01 | 1486317425.44989 |                 0 |               9 |                 83690 |                 1490 |            6886067 |        764764 |             7254 |         7782714 |                     0 |       3718547 | 2017-02-05 18:10:53.010055+01

 2017-02-05 18:57:06.535578+01 | 1486317426.53558 |                 0 |               9 |                 83690 |                 1490 |            6886067 |        764764 |             7254 |         7782714 |                     0 |       3719162 | 2017-02-05 18:10:53.010055+01

 2017-02-05 18:57:07.623621+01 | 1486317427.62362 |                 0 |               9 |                 83690 |                 1490 |            6886067 |        764764 |             7254 |         7782714 |                     0 |       3719792 | 2017-02-05 18:10:53.010055+01

 2017-02-05 18:57:08.707872+01 | 1486317428.70787 |                 0 |               9 |                 83690 |                 1490 |            6886067 |        764764 |             7254 |         7782714 |                     0 |       3720445 | 2017-02-05 18:10:53.010055+01

 2017-02-05 18:57:09.790546+01 | 1486317429.79055 |                 0 |               9 |                 83690 |                 1490 |            6886067 |        764764 |             7254 |         7782714 |                     0 |       3720937 | 2017-02-05 18:10:53.010055+01

 2017-02-05 18:57:10.877057+01 | 1486317430.87706 |                 0 |               9 |                 83690 |                 1490 |            6886067 |        764764 |             7254 |         7782714 |                     0 |       3721543 | 2017-02-05 18:10:53.010055+01

 2017-02-05 18:57:11.960083+01 | 1486317431.96008 |                 0 |               9 |                 83690 |                 1490 |            6886067 |        764764 |             7254 |         7782714 |                     0 |       3722072 | 2017-02-05 18:10:53.010055+01

 2017-02-05 18:57:13.044421+01 | 1486317433.04442 |                 0 |               9 |                 83690 |                 1490 |            6886067 |        764764 |             7254 |         7782714 |                     0 |       3722670 | 2017-02-05 18:10:53.010055+01

 2017-02-05 18:57:14.134564+01 | 1486317434.13456 |                 0 |               9 |                 83690 |                 1490 |            6886067 |        764764 |             7254 |         7782714 |                     0 |       3723345 | 2017-02-05 18:10:53.010055+01

 2017-02-05 18:57:15.218232+01 | 1486317435.21823 |                 0 |               9 |                 83690 |                 1490 |            6886067 |        764764 |             7254 |         7782714 |                     0 |       3723922 | 2017-02-05 18:10:53.010055+01

 2017-02-05 18:57:16.30232+01 | 1486317436.30232 |                 0 |               9 |                 83690 |                 1490 |            6886067 |        764764 |             7254 |         7782714 |                     0 |       3724603 | 2017-02-05 18:10:53.010055+01

 2017-02-05 18:57:17.385441+01 | 1486317437.38544 |                 0 |               9 |                 83690 |                 1490 |            6886067 |        764764 |             7254 |         7782714 |                     0 |       3725186 | 2017-02-05 18:10:53.010055+01

 2017-02-05 18:57:18.472149+01 | 1486317438.47215 |                 0 |               9 |                 83690 |                 1490 |            6886067 |        764764 |             7254 |         7782714 |                     0 |       3725825 | 2017-02-05 18:10:53.010055+01

 2017-02-05 18:57:19.54733+01 | 1486317439.54733 |                 0 |               9 |                 83690 |                 1490 |            6886067 |        764764 |             7254 |         7782714 |                     0 |       3726332 | 2017-02-05 18:10:53.010055+01

 2017-02-05 18:57:20.629881+01 | 1486317440.62988 |                 0 |               9 |                 83690 |                 1490 |            6886067 |        764764 |             7254 |         7782714 |                     0 |       3726864 | 2017-02-05 18:10:53.010055+01

 2017-02-05 18:57:21.711878+01 | 1486317441.71188 |                 0 |               9 |                 83690 |                 1490 |            6886067 |        764764 |             7254 |         7782714 |                     0 |       3727578 | 2017-02-05 18:10:53.010055+01

 2017-02-05 18:57:22.78995+01 | 1486317442.78995 |                 0 |               9 |                 83690 |                 1490 |            6886067 |        764764 |             7254 |         7782714 |                     0 |       3728096 | 2017-02-05 18:10:53.010055+01

 2017-02-05 18:57:23.876255+01 | 1486317443.87626 |                 0 |               9 |                 83690 |                 1490 |            6886067 |        764764 |             7254 |         7782714 |                     0 |       3728747 | 2017-02-05 18:10:53.010055+01

 2017-02-05 18:57:24.954052+01 | 1486317444.95405 |                 0 |               9 |                 83690 |                 1490 |            6886067 |        764764 |             7254 |         7782714 |                     0 |       3729302 | 2017-02-05 18:10:53.010055+01

 2017-02-05 18:57:26.04113+01 | 1486317446.04113 |                 0 |               9 |                 83690 |                 1490 |            6886067 |        764764 |             7254 |         7782714 |                     0 |       3729864 | 2017-02-05 18:10:53.010055+01

 2017-02-05 18:57:27.115457+01 | 1486317447.11546 |                 0 |               9 |                 83690 |                 1490 |            6886067 |        764764 |             7254 |         7782714 |                     0 |       3730579 | 2017-02-05 18:10:53.010055+01

 2017-02-05 18:57:28.196612+01 | 1486317448.19661 |                 0 |               9 |                 83690 |                 1490 |            6886067 |        764764 |             7254 |         7782714 |                     0 |       3731090 | 2017-02-05 18:10:53.010055+01

 2017-02-05 18:57:29.280338+01 | 1486317449.28034 |                 0 |               9 |                 83690 |                 1490 |            6886067 |        764764 |             7254 |         7782714 |                     0 |       3731581 | 2017-02-05 18:10:53.010055+01

 2017-02-05 18:57:30.363317+01 | 1486317450.36332 |                 0 |               9 |                 83690 |                 1490 |            6886067 |        764764 |             7254 |         7782714 |                     0 |       3732162 | 2017-02-05 18:10:53.010055+01

 2017-02-05 18:57:31.453561+01 | 1486317451.45356 |                 0 |               9 |                 83690 |                 1490 |            6886067 |        764764 |             7254 |         7782714 |                     0 |       3732627 | 2017-02-05 18:10:53.010055+01

 2017-02-05 18:57:32.541979+01 | 1486317452.54198 |                 0 |               9 |                 83690 |                 1490 |            6886067 |        764764 |             7254 |         7782714 |                     0 |       3733261 | 2017-02-05 18:10:53.010055+01

 2017-02-05 18:57:33.627858+01 | 1486317453.62786 |                 0 |               9 |                 83690 |                 1490 |            6886067 |        764764 |             7254 |         7782714 |                     0 |       3733751 | 2017-02-05 18:10:53.010055+01

 2017-02-05 18:57:34.714261+01 | 1486317454.71426 |                 0 |               9 |                 83690 |                 1490 |            6886067 |        764764 |             7254 |         7782714 |                     0 |       3734437 | 2017-02-05 18:10:53.010055+01

 2017-02-05 18:57:35.805856+01 | 1486317455.80586 |                 0 |               9 |                 83690 |                 1490 |            6886067 |        764764 |             7254 |         7782714 |                     0 |       3734876 | 2017-02-05 18:10:53.010055+01

 2017-02-05 18:57:36.89439+01 | 1486317456.89439 |                 0 |               9 |                 83690 |                 1490 |            6886067 |        764764 |             7254 |         7782714 |                     0 |       3735525 | 2017-02-05 18:10:53.010055+01

 2017-02-05 18:57:37.970465+01 | 1486317457.97046 |                 0 |               9 |                 83690 |                 1490 |            6886067 |        764764 |             7254 |         7782714 |                     0 |       3736057 | 2017-02-05 18:10:53.010055+01

 2017-02-05 18:57:39.058404+01 | 1486317459.0584 |                 0 |               9 |                 83690 |                 1490 |            6886067 |        764764 |             7254 |         7782714 |                     0 |       3736478 | 2017-02-05 18:10:53.010055+01

 2017-02-05 18:57:40.141921+01 | 1486317460.14192 |                 0 |               9 |                 83690 |                 1490 |            6886067 |        764764 |             7254 |         7782714 |                     0 |       3737117 | 2017-02-05 18:10:53.010055+01

 2017-02-05 18:57:41.215881+01 | 1486317461.21588 |                 0 |               9 |                 83690 |                 1490 |            6886067 |        764764 |             7254 |         7782714 |                     0 |       3737566 | 2017-02-05 18:10:53.010055+01

 2017-02-05 18:57:42.301381+01 | 1486317462.30138 |                 0 |               9 |                 83690 |                 1490 |            6886067 |        764764 |             7254 |         7782714 |                     0 |       3738202 | 2017-02-05 18:10:53.010055+01

 2017-02-05 18:57:43.389132+01 | 1486317463.38913 |                 0 |               9 |                 83690 |                 1490 |            6886067 |        764764 |             7254 |         7782714 |                     0 |       3738685 | 2017-02-05 18:10:53.010055+01

 2017-02-05 18:57:44.482392+01 | 1486317464.48239 |                 0 |               9 |                 83690 |                 1490 |            6886067 |        764764 |             7254 |         7782714 |                     0 |       3739195 | 2017-02-05 18:10:53.010055+01

 2017-02-05 18:57:45.558107+01 | 1486317465.55811 |                 0 |               9 |                 83690 |                 1490 |            6886067 |        764764 |             7254 |         7782714 |                     0 |       3739746 | 2017-02-05 18:10:53.010055+01

 2017-02-05 18:57:46.637892+01 | 1486317466.63789 |                 0 |               9 |                 83690 |                 1490 |            6886067 |        764764 |             7254 |         7782714 |                     0 |       3740177 | 2017-02-05 18:10:53.010055+01

 2017-02-05 18:57:47.714942+01 | 1486317467.71494 |                 0 |               9 |                 83690 |                 1490 |            6886067 |        764764 |             7254 |         7782714 |                     0 |       3740673 | 2017-02-05 18:10:53.010055+01

 2017-02-05 18:57:48.801245+01 | 1486317468.80124 |                 0 |               9 |                 83690 |                 1490 |            6886067 |        764764 |             7254 |         7782714 |                     0 |       3741035 | 2017-02-05 18:10:53.010055+01

 2017-02-05 18:57:49.890605+01 | 1486317469.8906 |                 0 |               9 |                 83690 |                 1490 |            6886067 |        764764 |             7254 |         7782714 |                     0 |       3741611 | 2017-02-05 18:10:53.010055+01

 2017-02-05 18:57:50.969519+01 | 1486317470.96952 |                 0 |               9 |                 83690 |                 1490 |            6886067 |        764764 |             7254 |         7782714 |                     0 |       3742106 | 2017-02-05 18:10:53.010055+01

 2017-02-05 18:57:52.054126+01 | 1486317472.05413 |                 0 |               9 |                 83690 |                 1490 |            6886067 |        764764 |             7254 |         7782714 |                     0 |       3742614 | 2017-02-05 18:10:53.010055+01

 2017-02-05 18:57:53.13429+01 | 1486317473.13429 |                 0 |               9 |                 83690 |                 1490 |            6886067 |        764764 |             7254 |         7782714 |                     0 |       3743142 | 2017-02-05 18:10:53.010055+01

 2017-02-05 18:57:54.220142+01 | 1486317474.22014 |                 0 |               9 |                 83690 |                 1490 |            6886067 |        764764 |             7254 |         7782714 |                     0 |       3743651 | 2017-02-05 18:10:53.010055+01

 2017-02-05 18:57:55.28978+01 | 1486317475.28978 |                 0 |               9 |                 83690 |                 1490 |            6886067 |        764764 |             7254 |         7782714 |                     0 |       3744143 | 2017-02-05 18:10:53.010055+01

 2017-02-05 18:57:56.375621+01 | 1486317476.37562 |                 0 |               9 |                 83690 |                 1490 |            6886067 |        764764 |             7254 |         7782714 |                     0 |       3744795 | 2017-02-05 18:10:53.010055+01

 2017-02-05 18:57:57.453263+01 | 1486317477.45326 |                 0 |               9 |                 83690 |                 1490 |            6886067 |        764764 |             7254 |         7782714 |                     0 |       3745246 | 2017-02-05 18:10:53.010055+01

 2017-02-05 18:57:58.543688+01 | 1486317478.54369 |                 0 |               9 |                 83690 |                 1490 |            6886067 |        764764 |             7254 |         7782714 |                     0 |       3745896 | 2017-02-05 18:10:53.010055+01

 2017-02-05 18:57:59.634353+01 | 1486317479.63435 |                 0 |               9 |                 83690 |                 1490 |            6886067 |        764764 |             7254 |         7782714 |                     0 |       3746403 | 2017-02-05 18:10:53.010055+01

 2017-02-05 18:58:00.725497+01 | 1486317480.7255 |                 0 |               9 |                 83690 |                 1490 |            6886067 |        764764 |             7254 |         7782714 |                     0 |       3747066 | 2017-02-05 18:10:53.010055+01

 2017-02-05 18:58:01.814292+01 | 1486317481.81429 |                 0 |               9 |                 83690 |                 1490 |            6886067 |        764764 |             7254 |         7782714 |                     0 |       3747617 | 2017-02-05 18:10:53.010055+01

 2017-02-05 18:58:02.904265+01 | 1486317482.90426 |                 0 |               9 |                 83690 |                 1490 |            6886067 |        764764 |             7254 |         7782714 |                     0 |       3748014 | 2017-02-05 18:10:53.010055+01

 2017-02-05 18:58:03.996168+01 | 1486317483.99617 |                 0 |               9 |                 83690 |                 1490 |            6886067 |        764764 |             7254 |         7782714 |                     0 |       3748514 | 2017-02-05 18:10:53.010055+01

 2017-02-05 18:58:05.069581+01 | 1486317485.06958 |                 0 |               9 |                 83690 |                 1490 |            6886067 |        764764 |             7254 |         7782714 |                     0 |       3749073 | 2017-02-05 18:10:53.010055+01

 2017-02-05 18:58:06.14879+01 | 1486317486.14879 |                 0 |               9 |                 83690 |                 1490 |            6886067 |        764764 |             7254 |         7782714 |                     0 |       3749683 | 2017-02-05 18:10:53.010055+01

 2017-02-05 18:58:07.229923+01 | 1486317487.22992 |                 0 |               9 |                 83690 |                 1490 |            6886067 |        764764 |             7254 |         7782714 |                     0 |       3750197 | 2017-02-05 18:10:53.010055+01

 2017-02-05 18:58:08.312493+01 | 1486317488.31249 |                 0 |               9 |                 83690 |                 1490 |            6886067 |        764764 |             7254 |         7782714 |                     0 |       3750712 | 2017-02-05 18:10:53.010055+01

 2017-02-05 18:58:09.401118+01 | 1486317489.40112 |                 0 |               9 |                 83690 |                 1490 |            6886067 |        764764 |             7254 |         7782714 |                     0 |       3751316 | 2017-02-05 18:10:53.010055+01

 2017-02-05 18:58:10.484634+01 | 1486317490.48463 |                 0 |               9 |                 83690 |                 1490 |            6886067 |        764764 |             7254 |         7782714 |                     0 |       3751815 | 2017-02-05 18:10:53.010055+01

 2017-02-05 18:58:11.560306+01 | 1486317491.56031 |                 0 |               9 |                 83690 |                 1490 |            6886067 |        764764 |             7254 |         7782714 |                     0 |       3752518 | 2017-02-05 18:10:53.010055+01

 2017-02-05 18:58:12.648285+01 | 1486317492.64828 |                 0 |               9 |                 83690 |                 1490 |            6886067 |        764764 |             7254 |         7782714 |                     0 |       3752992 | 2017-02-05 18:10:53.010055+01

 2017-02-05 18:58:13.737839+01 | 1486317493.73784 |                 0 |               9 |                 83690 |                 1490 |            6886067 |        764764 |             7254 |         7782714 |                     0 |       3753587 | 2017-02-05 18:10:53.010055+01

 2017-02-05 18:58:14.819443+01 | 1486317494.81944 |                 0 |               9 |                 83690 |                 1490 |            6886067 |        764764 |             7254 |         7782714 |                     0 |       3754130 | 2017-02-05 18:10:53.010055+01

 2017-02-05 18:58:15.902308+01 | 1486317495.90231 |                 0 |               9 |                 83690 |                 1490 |            6886067 |        764764 |             7254 |         7782714 |                     0 |       3754636 | 2017-02-05 18:10:53.010055+01

 2017-02-05 18:58:16.989814+01 | 1486317496.98981 |                 0 |               9 |                 83690 |                 1490 |            6886067 |        764764 |             7254 |         7782714 |                     0 |       3755274 | 2017-02-05 18:10:53.010055+01

 2017-02-05 18:58:18.07679+01 | 1486317498.07679 |                 0 |               9 |                 83690 |                 1490 |            6886067 |        764764 |             7254 |         7782714 |                     0 |       3755753 | 2017-02-05 18:10:53.010055+01

 2017-02-05 18:58:19.156483+01 | 1486317499.15648 |                 0 |               9 |                 83690 |                 1490 |            6886067 |        764764 |             7254 |         7782714 |                     0 |       3756294 | 2017-02-05 18:10:53.010055+01

 2017-02-05 18:58:20.243172+01 | 1486317500.24317 |                 0 |               9 |                 83690 |                 1490 |            6886067 |        764764 |             7254 |         7782714 |                     0 |       3756789 | 2017-02-05 18:10:53.010055+01

 2017-02-05 18:58:21.325399+01 | 1486317501.3254 |                 0 |               9 |                 83690 |                 1490 |            6886067 |        764764 |             7254 |         7782714 |                     0 |       3757219 | 2017-02-05 18:10:53.010055+01

 2017-02-05 18:58:22.416037+01 | 1486317502.41604 |                 0 |               9 |                 83690 |                 1490 |            6886067 |        764764 |             7254 |         7782714 |                     0 |       3757841 | 2017-02-05 18:10:53.010055+01

 2017-02-05 18:58:23.501002+01 | 1486317503.501 |                 0 |               9 |                 83690 |                 1490 |            6886067 |        764764 |             7254 |         7782714 |                     0 |       3758295 | 2017-02-05 18:10:53.010055+01

 2017-02-05 18:58:24.573084+01 | 1486317504.57308 |                 0 |               9 |                 83690 |                 1490 |            6886067 |        764764 |             7254 |         7782714 |                     0 |       3758799 | 2017-02-05 18:10:53.010055+01

 2017-02-05 18:58:25.655794+01 | 1486317505.65579 |                 0 |               9 |                 83690 |                 1490 |            6886067 |        764764 |             7254 |         7782714 |                     0 |       3759154 | 2017-02-05 18:10:53.010055+01

 2017-02-05 18:58:26.74328+01 | 1486317506.74328 |                 0 |               9 |                 83690 |                 1490 |            6886067 |        764764 |             7254 |         7782714 |                     0 |       3759996 | 2017-02-05 18:10:53.010055+01

 2017-02-05 18:58:27.829565+01 | 1486317507.82957 |                 0 |               9 |                 83690 |                 1490 |            6886067 |        764764 |             7254 |         7782714 |                     0 |       3760605 | 2017-02-05 18:10:53.010055+01

 2017-02-05 18:58:28.918019+01 | 1486317508.91802 |                 0 |               9 |                 83690 |                 1490 |            6886067 |        764764 |             7254 |         7782714 |                     0 |       3761091 | 2017-02-05 18:10:53.010055+01

 2017-02-05 18:58:30.005829+01 | 1486317510.00583 |                 0 |               9 |                 83690 |                 1490 |            6886067 |        764764 |             7254 |         7782714 |                     0 |       3761755 | 2017-02-05 18:10:53.010055+01

 2017-02-05 18:58:31.085208+01 | 1486317511.08521 |                 0 |               9 |                 83690 |                 1490 |            6886067 |        764764 |             7254 |         7782714 |                     0 |       3762251 | 2017-02-05 18:10:53.010055+01

 2017-02-05 18:58:32.158778+01 | 1486317512.15878 |                 0 |               9 |                 83690 |                 1490 |            6886067 |        764764 |             7254 |         7782714 |                     0 |       3762865 | 2017-02-05 18:10:53.010055+01

 2017-02-05 18:58:33.241549+01 | 1486317513.24155 |                 0 |               9 |                 83690 |                 1490 |            6886067 |        764764 |             7254 |         7782714 |                     0 |       3763305 | 2017-02-05 18:10:53.010055+01

 2017-02-05 18:58:34.325705+01 | 1486317514.32571 |                 0 |               9 |                 83690 |                 1490 |            6886067 |        764764 |             7254 |         7782714 |                     0 |       3763873 | 2017-02-05 18:10:53.010055+01

 2017-02-05 18:58:35.412919+01 | 1486317515.41292 |                 0 |               9 |                 83690 |                 1490 |            6886067 |        764764 |             7254 |         7782714 |                     0 |       3764456 | 2017-02-05 18:10:53.010055+01

 2017-02-05 18:58:36.499496+01 | 1486317516.4995 |                 0 |               9 |                 83690 |                 1490 |            6886067 |        764764 |             7254 |         7782714 |                     0 |       3764999 | 2017-02-05 18:10:53.010055+01

 2017-02-05 18:58:37.585462+01 | 1486317517.58546 |                 0 |               9 |                 83690 |                 1490 |            6886067 |        764764 |             7254 |         7782714 |                     0 |       3765601 | 2017-02-05 18:10:53.010055+01

 2017-02-05 18:58:38.670998+01 | 1486317518.671 |                 0 |               9 |                 83690 |                 1490 |            6886067 |        764764 |             7254 |         7782714 |                     0 |       3766075 | 2017-02-05 18:10:53.010055+01

 2017-02-05 18:58:39.755704+01 | 1486317519.7557 |                 0 |               9 |                 83690 |                 1490 |            6886067 |        764764 |             7254 |         7782714 |                     0 |       3766607 | 2017-02-05 18:10:53.010055+01

 2017-02-05 18:58:40.840957+01 | 1486317520.84096 |                 0 |               9 |                 83690 |                 1490 |            6886067 |        764764 |             7254 |         7782714 |                     0 |       3767247 | 2017-02-05 18:10:53.010055+01

 2017-02-05 18:58:41.928147+01 | 1486317521.92815 |                 0 |               9 |                 83690 |                 1490 |            6886067 |        764764 |             7254 |         7782714 |                     0 |       3767711 | 2017-02-05 18:10:53.010055+01

 2017-02-05 18:58:43.017205+01 | 1486317523.0172 |                 0 |               9 |                 83690 |                 1490 |            6886067 |        764764 |             7254 |         7782714 |                     0 |       3768338 | 2017-02-05 18:10:53.010055+01

 2017-02-05 18:58:44.092682+01 | 1486317524.09268 |                 0 |               9 |                 83690 |                 1490 |            6886067 |        764764 |             7254 |         7782714 |                     0 |       3768833 | 2017-02-05 18:10:53.010055+01

 2017-02-05 18:58:45.164159+01 | 1486317525.16416 |                 0 |               9 |                 83690 |                 1490 |            6886067 |        764764 |             7254 |         7782714 |                     0 |       3769329 | 2017-02-05 18:10:53.010055+01

 2017-02-05 18:58:46.236889+01 | 1486317526.23689 |                 0 |               9 |                 83690 |                 1490 |            6886067 |        764764 |             7254 |         7782714 |                     0 |       3769807 | 2017-02-05 18:10:53.010055+01

 2017-02-05 18:58:47.316955+01 | 1486317527.31696 |                 0 |               9 |                 83690 |                 1490 |            6886067 |        764764 |             7254 |         7782714 |                     0 |       3770292 | 2017-02-05 18:10:53.010055+01

 2017-02-05 18:58:48.408206+01 | 1486317528.40821 |                 0 |               9 |                 83690 |                 1490 |            6886067 |        764764 |             7254 |         7782714 |                     0 |       3770900 | 2017-02-05 18:10:53.010055+01

 2017-02-05 18:58:49.499028+01 | 1486317529.49903 |                 0 |               9 |                 83690 |                 1490 |            6886067 |        764764 |             7254 |         7782714 |                     0 |       3771456 | 2017-02-05 18:10:53.010055+01

 2017-02-05 18:58:50.563184+01 | 1486317530.56318 |                 0 |               9 |                 83690 |                 1490 |            6886067 |        764764 |             7254 |         7782714 |                     0 |       3771930 | 2017-02-05 18:10:53.010055+01

 2017-02-05 18:58:51.635708+01 | 1486317531.63571 |                 0 |               9 |                 83690 |                 1490 |            6886067 |        764764 |             7254 |         7782714 |                     0 |       3772576 | 2017-02-05 18:10:53.010055+01

 2017-02-05 18:58:52.698791+01 | 1486317532.69879 |                 0 |               9 |                 83690 |                 1490 |            6886067 |        764764 |             7254 |         7782714 |                     0 |       3773002 | 2017-02-05 18:10:53.010055+01

 2017-02-05 18:58:53.775521+01 | 1486317533.77552 |                 0 |               9 |                 83690 |                 1490 |            6886067 |        764764 |             7254 |         7782714 |                     0 |       3773474 | 2017-02-05 18:10:53.010055+01

 2017-02-05 18:58:54.847616+01 | 1486317534.84762 |                 0 |               9 |                 83690 |                 1490 |            6886067 |        764764 |             7254 |         7782714 |                     0 |       3774009 | 2017-02-05 18:10:53.010055+01

 2017-02-05 18:58:55.935148+01 | 1486317535.93515 |                 0 |               9 |                 83690 |                 1490 |            6886067 |        764764 |             7254 |         7782714 |                     0 |       3774466 | 2017-02-05 18:10:53.010055+01

 2017-02-05 18:58:57.007019+01 | 1486317537.00702 |                 0 |               9 |                 83690 |                 1490 |            6886067 |        764764 |             7254 |         7782714 |                     0 |       3775034 | 2017-02-05 18:10:53.010055+01

 2017-02-05 18:58:58.08159+01 | 1486317538.08159 |                 0 |               9 |                 83690 |                 1490 |            6886067 |        764764 |             7254 |         7782714 |                     0 |       3775525 | 2017-02-05 18:10:53.010055+01

 2017-02-05 18:58:59.157074+01 | 1486317539.15707 |                 0 |               9 |                 83690 |                 1490 |            6886067 |        764764 |             7254 |         7782714 |                     0 |       3776040 | 2017-02-05 18:10:53.010055+01

 2017-02-05 18:59:00.237991+01 | 1486317540.23799 |                 0 |               9 |                 83690 |                 1490 |            6886067 |        764764 |             7254 |         7782714 |                     0 |       3776628 | 2017-02-05 18:10:53.010055+01

 2017-02-05 18:59:01.318693+01 | 1486317541.31869 |                 0 |               9 |                 83690 |                 1490 |            6886067 |        764764 |             7254 |         7782714 |                     0 |       3777074 | 2017-02-05 18:10:53.010055+01

 2017-02-05 18:59:02.395617+01 | 1486317542.39562 |                 0 |               9 |                 83690 |                 1490 |            6886067 |        764764 |             7254 |         7782714 |                     0 |       3777529 | 2017-02-05 18:10:53.010055+01

 2017-02-05 18:59:03.481364+01 | 1486317543.48136 |                 0 |               9 |                 83690 |                 1490 |            6886067 |        764764 |             7254 |         7782714 |                     0 |       3777826 | 2017-02-05 18:10:53.010055+01

 2017-02-05 18:59:04.56257+01 | 1486317544.56257 |                 0 |               9 |                 83690 |                 1490 |            6886067 |        764764 |             7254 |         7782714 |                     0 |       3778183 | 2017-02-05 18:10:53.010055+01

 2017-02-05 18:59:05.641899+01 | 1486317545.6419 |                 0 |               9 |                 83690 |                 1490 |            6886067 |        764764 |             7254 |         7782714 |                     0 |       3778631 | 2017-02-05 18:10:53.010055+01

 2017-02-05 18:59:06.73291+01 | 1486317546.73291 |                 0 |               9 |                 83690 |                 1490 |            6886067 |        764764 |             7254 |         7782714 |                     0 |       3779033 | 2017-02-05 18:10:53.010055+01

 2017-02-05 18:59:07.814381+01 | 1486317547.81438 |                 0 |               9 |                 83690 |                 1490 |            6886067 |        764764 |             7254 |         7782714 |                     0 |       3779431 | 2017-02-05 18:10:53.010055+01

 2017-02-05 18:59:08.88707+01 | 1486317548.88707 |                 0 |               9 |                 83690 |                 1490 |            6886067 |        764764 |             7254 |         7782714 |                     0 |       3779827 | 2017-02-05 18:10:53.010055+01

 2017-02-05 18:59:09.97267+01 | 1486317549.97267 |                 0 |               9 |                 83690 |                 1490 |            6886067 |        764764 |             7254 |         7782714 |                     0 |       3780184 | 2017-02-05 18:10:53.010055+01

 2017-02-05 18:59:11.063256+01 | 1486317551.06326 |                 0 |               9 |                 83690 |                 1490 |            6886067 |        764764 |             7254 |         7782714 |                     0 |       3780701 | 2017-02-05 18:10:53.010055+01

 2017-02-05 18:59:12.149654+01 | 1486317552.14965 |                 0 |               9 |                 83690 |                 1490 |            6886067 |        764764 |             7254 |         7782714 |                     0 |       3781137 | 2017-02-05 18:10:53.010055+01

 2017-02-05 18:59:13.237342+01 | 1486317553.23734 |                 0 |               9 |                 83690 |                 1490 |            6886067 |        764764 |             7254 |         7782714 |                     0 |       3781661 | 2017-02-05 18:10:53.010055+01

 2017-02-05 18:59:14.317882+01 | 1486317554.31788 |                 0 |               9 |                 83690 |                 1490 |            6886067 |        764764 |             7254 |         7782714 |                     0 |       3782069 | 2017-02-05 18:10:53.010055+01

 2017-02-05 18:59:15.39048+01 | 1486317555.39048 |                 0 |               9 |                 83690 |                 1490 |            6886067 |        764764 |             7254 |         7782714 |                     0 |       3782495 | 2017-02-05 18:10:53.010055+01

 2017-02-05 18:59:16.475853+01 | 1486317556.47585 |                 0 |               9 |                 83690 |                 1490 |            6886067 |        764764 |             7254 |         7782714 |                     0 |       3783086 | 2017-02-05 18:10:53.010055+01

 2017-02-05 18:59:17.56033+01 | 1486317557.56033 |                 0 |               9 |                 83690 |                 1490 |            6886067 |        764764 |             7254 |         7782714 |                     0 |       3783562 | 2017-02-05 18:10:53.010055+01

 2017-02-05 18:59:18.642298+01 | 1486317558.6423 |                 0 |               9 |                 83690 |                 1490 |            6886067 |        764764 |             7254 |         7782714 |                     0 |       3784121 | 2017-02-05 18:10:53.010055+01

 2017-02-05 18:59:19.729327+01 | 1486317559.72933 |                 0 |               9 |                 83690 |                 1490 |            6886067 |        764764 |             7254 |         7782714 |                     0 |       3784553 | 2017-02-05 18:10:53.010055+01

 2017-02-05 18:59:20.811752+01 | 1486317560.81175 |                 0 |               9 |                 83690 |                 1490 |            6886067 |        764764 |             7254 |         7782714 |                     0 |       3785022 | 2017-02-05 18:10:53.010055+01

 2017-02-05 18:59:21.903048+01 | 1486317561.90305 |                 0 |               9 |                 83690 |                 1490 |            6886067 |        764764 |             7254 |         7782714 |                     0 |       3785525 | 2017-02-05 18:10:53.010055+01

 2017-02-05 18:59:22.987578+01 | 1486317562.98758 |                 0 |               9 |                 83690 |                 1490 |            6886067 |        764764 |             7254 |         7782714 |                     0 |       3785944 | 2017-02-05 18:10:53.010055+01

 2017-02-05 18:59:24.075925+01 | 1486317564.07593 |                 0 |               9 |                 83690 |                 1490 |            6886067 |        764764 |             7254 |         7782714 |                     0 |       3786430 | 2017-02-05 18:10:53.010055+01

 2017-02-05 18:59:25.158028+01 | 1486317565.15803 |                 0 |               9 |                 83690 |                 1490 |            6886067 |        764764 |             7254 |         7782714 |                     0 |       3786874 | 2017-02-05 18:10:53.010055+01

 2017-02-05 18:59:26.245558+01 | 1486317566.24556 |                 0 |               9 |                 83690 |                 1490 |            6886067 |        764764 |             7254 |         7782714 |                     0 |       3787253 | 2017-02-05 18:10:53.010055+01

 2017-02-05 18:59:27.330479+01 | 1486317567.33048 |                 0 |               9 |                 83690 |                 1490 |            6886067 |        764764 |             7254 |         7782714 |                     0 |       3787675 | 2017-02-05 18:10:53.010055+01

 2017-02-05 18:59:28.415467+01 | 1486317568.41547 |                 0 |               9 |                 83690 |                 1490 |            6886067 |        764764 |             7254 |         7782714 |                     0 |       3788040 | 2017-02-05 18:10:53.010055+01

 2017-02-05 18:59:29.490111+01 | 1486317569.49011 |                 0 |               9 |                 83690 |                 1490 |            6886067 |        764764 |             7254 |         7782714 |                     0 |       3788542 | 2017-02-05 18:10:53.010055+01

 2017-02-05 18:59:30.579897+01 | 1486317570.5799 |                 0 |               9 |                 83690 |                 1490 |            6886067 |        764764 |             7254 |         7782714 |                     0 |       3788961 | 2017-02-05 18:10:53.010055+01

 2017-02-05 18:59:31.663939+01 | 1486317571.66394 |                 0 |               9 |                 83690 |                 1490 |            6886067 |        764764 |             7254 |         7782714 |                     0 |       3789441 | 2017-02-05 18:10:53.010055+01

 2017-02-05 18:59:32.753233+01 | 1486317572.75323 |                 0 |               9 |                 83690 |                 1490 |            6886067 |        764764 |             7254 |         7782714 |                     0 |       3789864 | 2017-02-05 18:10:53.010055+01

 2017-02-05 18:59:33.843409+01 | 1486317573.84341 |                 0 |               9 |                 83690 |                 1490 |            6886067 |        764764 |             7254 |         7782714 |                     0 |       3790258 | 2017-02-05 18:10:53.010055+01

 2017-02-05 18:59:34.931423+01 | 1486317574.93142 |                 0 |               9 |                 83690 |                 1490 |            6886067 |        764796 |             7254 |         7782714 |                     0 |       3790692 | 2017-02-05 18:10:53.010055+01

 2017-02-05 18:59:36.022112+01 | 1486317576.02211 |                 0 |               9 |                 83690 |                 1490 |            6886067 |        764870 |             7254 |         7782714 |                     0 |       3791160 | 2017-02-05 18:10:53.010055+01

 2017-02-05 18:59:37.113968+01 | 1486317577.11397 |                 0 |               9 |                 83690 |                 1490 |            6886067 |        764945 |             7254 |         7782714 |                     0 |       3791618 | 2017-02-05 18:10:53.010055+01

 2017-02-05 18:59:38.19976+01 | 1486317578.19976 |                 0 |               9 |                 83690 |                 1490 |            6886067 |        765023 |             7254 |         7782714 |                     0 |       3792103 | 2017-02-05 18:10:53.010055+01

 2017-02-05 18:59:39.2727+01 | 1486317579.2727 |                 0 |               9 |                 83690 |                 1490 |            6886067 |        765102 |             7254 |         7782714 |                     0 |       3792701 | 2017-02-05 18:10:53.010055+01

 2017-02-05 18:59:40.353479+01 | 1486317580.35348 |                 0 |               9 |                 83690 |                 1490 |            6886067 |        765183 |             7254 |         7782714 |                     0 |       3793162 | 2017-02-05 18:10:53.010055+01

 2017-02-05 18:59:41.442126+01 | 1486317581.44213 |                 0 |               9 |                 83690 |                 1490 |            6886067 |        765269 |             7254 |         7782714 |                     0 |       3793622 | 2017-02-05 18:10:53.010055+01

 2017-02-05 18:59:42.537108+01 | 1486317582.53711 |                 0 |               9 |                 83690 |                 1490 |            6886067 |        765350 |             7254 |         7782714 |                     0 |       3794192 | 2017-02-05 18:10:53.010055+01

 2017-02-05 18:59:43.627373+01 | 1486317583.62737 |                 0 |               9 |                 83690 |                 1490 |            6886067 |        765430 |             7254 |         7782714 |                     0 |       3794669 | 2017-02-05 18:10:53.010055+01

 2017-02-05 18:59:44.712903+01 | 1486317584.7129 |                 0 |               9 |                 83690 |                 1490 |            6886067 |        765541 |             7254 |         7782714 |                     0 |       3795201 | 2017-02-05 18:10:53.010055+01

 2017-02-05 18:59:45.809707+01 | 1486317585.80971 |                 0 |               9 |                 83690 |                 1490 |            6886067 |        765609 |             7254 |         7782714 |                     0 |       3795703 | 2017-02-05 18:10:53.010055+01

 2017-02-05 18:59:46.899104+01 | 1486317586.8991 |                 0 |               9 |                 83690 |                 1490 |            6886067 |        765685 |             7254 |         7782714 |                     0 |       3796251 | 2017-02-05 18:10:53.010055+01

 2017-02-05 18:59:47.990187+01 | 1486317587.99019 |                 0 |               9 |                 83690 |                 1490 |            6886067 |        765786 |             7254 |         7782714 |                     0 |       3796732 | 2017-02-05 18:10:53.010055+01

 2017-02-05 18:59:49.077732+01 | 1486317589.07773 |                 0 |               9 |                 83690 |                 1490 |            6886067 |        765873 |             7254 |         7782714 |                     0 |       3797233 | 2017-02-05 18:10:53.010055+01

 2017-02-05 18:59:50.160025+01 | 1486317590.16002 |                 0 |               9 |                 83690 |                 1490 |            6886067 |        765957 |             7254 |         7782714 |                     0 |       3797795 | 2017-02-05 18:10:53.010055+01

 2017-02-05 18:59:51.234521+01 | 1486317591.23452 |                 0 |               9 |                 83690 |                 1490 |            6886067 |        766055 |             7254 |         7782714 |                     0 |       3798310 | 2017-02-05 18:10:53.010055+01

 2017-02-05 18:59:52.316589+01 | 1486317592.31659 |                 0 |               9 |                 83690 |                 1490 |            6886067 |        766153 |             7254 |         7782714 |                     0 |       3798816 | 2017-02-05 18:10:53.010055+01

 2017-02-05 18:59:53.40492+01 | 1486317593.40492 |                 0 |               9 |                 83690 |                 1490 |            6886067 |        766234 |             7254 |         7782714 |                     0 |       3799221 | 2017-02-05 18:10:53.010055+01

 2017-02-05 18:59:54.488126+01 | 1486317594.48813 |                 0 |               9 |                 83690 |                 1490 |            6886067 |        766314 |             7254 |         7782714 |                     0 |       3799662 | 2017-02-05 18:10:53.010055+01

 2017-02-05 18:59:55.562407+01 | 1486317595.56241 |                 0 |               9 |                 83690 |                 1490 |            6886067 |        766407 |             7254 |         7782714 |                     0 |       3800216 | 2017-02-05 18:10:53.010055+01

 2017-02-05 18:59:56.655746+01 | 1486317596.65575 |                 0 |               9 |                 83690 |                 1490 |            6886067 |        766513 |             7254 |         7782714 |                     0 |       3800693 | 2017-02-05 18:10:53.010055+01

 2017-02-05 18:59:57.747311+01 | 1486317597.74731 |                 0 |               9 |                 83690 |                 1490 |            6886067 |        766663 |             7254 |         7782714 |                     0 |       3801297 | 2017-02-05 18:10:53.010055+01

 2017-02-05 18:59:58.829747+01 | 1486317598.82975 |                 0 |               9 |                 83690 |                 1490 |            6886067 |        766754 |             7254 |         7782714 |                     0 |       3801738 | 2017-02-05 18:10:53.010055+01

 2017-02-05 18:59:59.914174+01 | 1486317599.91417 |                 0 |               9 |                 83690 |                 1490 |            6886067 |        766866 |             7254 |         7782714 |                     0 |       3802290 | 2017-02-05 18:10:53.010055+01

 2017-02-05 19:00:00.992726+01 | 1486317600.99273 |                 0 |               9 |                 83690 |                 1490 |            6886067 |        766957 |             7254 |         7782714 |                     0 |       3802696 | 2017-02-05 18:10:53.010055+01

 2017-02-05 19:00:02.077262+01 | 1486317602.07726 |                 0 |               9 |                 83690 |                 1490 |            6886067 |        767068 |             7254 |         7782714 |                     0 |       3803154 | 2017-02-05 18:10:53.010055+01

 2017-02-05 19:00:03.161093+01 | 1486317603.16109 |                 0 |               9 |                 83690 |                 1490 |            6886067 |        767207 |             7254 |         7782714 |                     0 |       3803707 | 2017-02-05 18:10:53.010055+01

 2017-02-05 19:00:04.253529+01 | 1486317604.25353 |                 0 |               9 |                 83690 |                 1490 |            6886067 |        767323 |             7254 |         7782714 |                     0 |       3804163 | 2017-02-05 18:10:53.010055+01

 2017-02-05 19:00:05.349777+01 | 1486317605.34978 |                 0 |               9 |                 83690 |                 1490 |            6886067 |        767469 |             7254 |         7782714 |                     0 |       3804731 | 2017-02-05 18:10:53.010055+01

 2017-02-05 19:00:06.438348+01 | 1486317606.43835 |                 0 |               9 |                 83690 |                 1490 |            6886067 |        767590 |             7254 |         7782714 |                     0 |       3805160 | 2017-02-05 18:10:53.010055+01

 2017-02-05 19:00:07.511753+01 | 1486317607.51175 |                 0 |               9 |                 83690 |                 1490 |            6886067 |        767715 |             7254 |         7782714 |                     0 |       3805657 | 2017-02-05 18:10:53.010055+01

 2017-02-05 19:00:08.592235+01 | 1486317608.59224 |                 0 |               9 |                 83690 |                 1490 |            6886067 |        767870 |             7254 |         7782714 |                     0 |       3806205 | 2017-02-05 18:10:53.010055+01

 2017-02-05 19:00:09.677352+01 | 1486317609.67735 |                 0 |               9 |                 83690 |                 1490 |            6886067 |        768008 |             7254 |         7782714 |                     0 |       3806693 | 2017-02-05 18:10:53.010055+01

 2017-02-05 19:00:10.75072+01 | 1486317610.75072 |                 0 |               9 |                 83690 |                 1490 |            6886067 |        768160 |             7254 |         7782714 |                     0 |       3807198 | 2017-02-05 18:10:53.010055+01

 2017-02-05 19:00:11.827429+01 | 1486317611.82743 |                 0 |               9 |                 83690 |                 1490 |            6886067 |        768339 |             7254 |         7782714 |                     0 |       3807771 | 2017-02-05 18:10:53.010055+01

 2017-02-05 19:00:12.913432+01 | 1486317612.91343 |                 0 |               9 |                 83690 |                 1490 |            6886067 |        768475 |             7254 |         7782714 |                     0 |       3808287 | 2017-02-05 18:10:53.010055+01

 2017-02-05 19:00:14.001154+01 | 1486317614.00115 |                 0 |               9 |                 83690 |                 1490 |            6886067 |        768601 |             7254 |         7782714 |                     0 |       3808736 | 2017-02-05 18:10:53.010055+01

 2017-02-05 19:00:15.095791+01 | 1486317615.09579 |                 0 |               9 |                 83690 |                 1490 |            6886067 |        768780 |             7254 |         7782714 |                     0 |       3809239 | 2017-02-05 18:10:53.010055+01

 2017-02-05 19:00:16.183048+01 | 1486317616.18305 |                 0 |               9 |                 83690 |                 1490 |            6886067 |        768915 |             7254 |         7782714 |                     0 |       3809731 | 2017-02-05 18:10:53.010055+01

 2017-02-05 19:00:17.265355+01 | 1486317617.26536 |                 0 |               9 |                 83690 |                 1490 |            6886067 |        769064 |             7254 |         7782714 |                     0 |       3810237 | 2017-02-05 18:10:53.010055+01

 2017-02-05 19:00:18.345929+01 | 1486317618.34593 |                 0 |               9 |                 83690 |                 1490 |            6886067 |        769230 |             7254 |         7782714 |                     0 |       3810725 | 2017-02-05 18:10:53.010055+01

 2017-02-05 19:00:19.434419+01 | 1486317619.43442 |                 0 |               9 |                 83690 |                 1490 |            6886067 |        769385 |             7254 |         7782714 |                     0 |       3811294 | 2017-02-05 18:10:53.010055+01

 2017-02-05 19:00:20.520423+01 | 1486317620.52042 |                 0 |               9 |                 83690 |                 1490 |            6886067 |        769521 |             7254 |         7782714 |                     0 |       3811745 | 2017-02-05 18:10:53.010055+01

 2017-02-05 19:00:21.605242+01 | 1486317621.60524 |                 0 |               9 |                 83690 |                 1490 |            6886067 |        769654 |             7254 |         7782714 |                     0 |       3812205 | 2017-02-05 18:10:53.010055+01

 2017-02-05 19:00:22.693119+01 | 1486317622.69312 |                 0 |               9 |                 83690 |                 1490 |            6886067 |        769865 |             7254 |         7782714 |                     0 |       3812760 | 2017-02-05 18:10:53.010055+01

 2017-02-05 19:00:23.773557+01 | 1486317623.77356 |                 0 |               9 |                 83690 |                 1490 |            6886067 |        770017 |             7254 |         7782714 |                     0 |       3813266 | 2017-02-05 18:10:53.010055+01

 2017-02-05 19:00:24.847247+01 | 1486317624.84725 |                 0 |               9 |                 83690 |                 1490 |            6886067 |        770199 |             7254 |         7782714 |                     0 |       3813819 | 2017-02-05 18:10:53.010055+01

 2017-02-05 19:00:25.947058+01 | 1486317625.94706 |                 0 |               9 |                 83690 |                 1490 |            6886067 |        770389 |             7254 |         7782714 |                     0 |       3814378 | 2017-02-05 18:10:53.010055+01

 2017-02-05 19:00:27.026945+01 | 1486317627.02695 |                 0 |               9 |                 83690 |                 1490 |            6886067 |        770549 |             7254 |         7782714 |                     0 |       3814893 | 2017-02-05 18:10:53.010055+01

 2017-02-05 19:00:28.114465+01 | 1486317628.11446 |                 0 |               9 |                 83690 |                 1490 |            6886067 |        770693 |             7254 |         7782714 |                     0 |       3815312 | 2017-02-05 18:10:53.010055+01

 2017-02-05 19:00:29.199136+01 | 1486317629.19914 |                 0 |               9 |                 83690 |                 1490 |            6886067 |        770877 |             7254 |         7782714 |                     0 |       3815834 | 2017-02-05 18:10:53.010055+01

 2017-02-05 19:00:30.282234+01 | 1486317630.28223 |                 0 |               9 |                 83690 |                 1490 |            6886067 |        771130 |             7254 |         7782714 |                     0 |       3816312 | 2017-02-05 18:10:53.010055+01

 2017-02-05 19:00:31.35683+01 | 1486317631.35683 |                 0 |               9 |                 83690 |                 1490 |            6886067 |        771479 |             7255 |         7782714 |                     0 |       3816780 | 2017-02-05 18:10:53.010055+01

 2017-02-05 19:00:32.446993+01 | 1486317632.44699 |                 0 |               9 |                 83690 |                 1490 |            6886067 |        771809 |             7255 |         7782714 |                     0 |       3817318 | 2017-02-05 18:10:53.010055+01

 2017-02-05 19:00:33.529731+01 | 1486317633.52973 |                 0 |               9 |                 83690 |                 1490 |            6886067 |        772198 |             7256 |         7782714 |                     0 |       3817826 | 2017-02-05 18:10:53.010055+01

 2017-02-05 19:00:34.623393+01 | 1486317634.62339 |                 0 |               9 |                 83690 |                 1490 |            6886067 |        772356 |             7256 |         7782714 |                     0 |       3818283 | 2017-02-05 18:10:53.010055+01

 2017-02-05 19:00:35.699677+01 | 1486317635.69968 |                 0 |               9 |                 83690 |                 1490 |            6886067 |        772547 |             7256 |         7782714 |                     0 |       3818789 | 2017-02-05 18:10:53.010055+01

 2017-02-05 19:00:36.781365+01 | 1486317636.78136 |                 0 |               9 |                 83690 |                 1490 |            6886067 |        772709 |             7256 |         7782714 |                     0 |       3819208 | 2017-02-05 18:10:53.010055+01

 2017-02-05 19:00:37.875803+01 | 1486317637.8758 |                 0 |               9 |                 83690 |                 1490 |            6886067 |        772886 |             7256 |         7782714 |                     0 |       3819641 | 2017-02-05 18:10:53.010055+01

 2017-02-05 19:00:38.96079+01 | 1486317638.96079 |                 0 |               9 |                 83690 |                 1490 |            6886067 |        773155 |             7256 |         7782714 |                     0 |       3820256 | 2017-02-05 18:10:53.010055+01

 2017-02-05 19:00:40.048861+01 | 1486317640.04886 |                 0 |               9 |                 83690 |                 1490 |            6886067 |        773357 |             7256 |         7782714 |                     0 |       3820693 | 2017-02-05 18:10:53.010055+01

 2017-02-05 19:00:41.136964+01 | 1486317641.13696 |                 0 |               9 |                 83690 |                 1490 |            6886067 |        773567 |             7256 |         7782714 |                     0 |       3821296 | 2017-02-05 18:10:53.010055+01

 2017-02-05 19:00:42.225101+01 | 1486317642.2251 |                 0 |               9 |                 83690 |                 1490 |            6886067 |        773755 |             7256 |         7782714 |                     0 |       3821722 | 2017-02-05 18:10:53.010055+01

 2017-02-05 19:00:43.302694+01 | 1486317643.30269 |                 0 |               9 |                 83690 |                 1490 |            6886067 |        773912 |             7256 |         7782714 |                     0 |       3822155 | 2017-02-05 18:10:53.010055+01

 2017-02-05 19:00:44.381534+01 | 1486317644.38153 |                 0 |               9 |                 83690 |                 1490 |            6886067 |        774283 |             7258 |         7782714 |                     0 |       3822755 | 2017-02-05 18:10:53.010055+01

 2017-02-05 19:00:45.468071+01 | 1486317645.46807 |                 0 |               9 |                 83690 |                 1490 |            6886067 |        774783 |             7263 |         7782714 |                     0 |       3823343 | 2017-02-05 18:10:53.010055+01

 2017-02-05 19:00:46.544586+01 | 1486317646.54459 |                 0 |               9 |                 83690 |                 1490 |            6886067 |        775383 |             7269 |         7782714 |                     0 |       3823864 | 2017-02-05 18:10:53.010055+01

 2017-02-05 19:00:47.620954+01 | 1486317647.62095 |                 0 |               9 |                 83690 |                 1490 |            6886067 |        775883 |             7274 |         7782714 |                     0 |       3824297 | 2017-02-05 18:10:53.010055+01

 2017-02-05 19:00:48.699918+01 | 1486317648.69992 |                 0 |               9 |                 83690 |                 1490 |            6886067 |        776383 |             7279 |         7782714 |                     0 |       3824743 | 2017-02-05 18:10:53.010055+01

 2017-02-05 19:00:49.787672+01 | 1486317649.78767 |                 0 |               9 |                 83690 |                 1490 |            6886067 |        776983 |             7285 |         7782714 |                     0 |       3825301 | 2017-02-05 18:10:53.010055+01

 2017-02-05 19:00:50.872553+01 | 1486317650.87255 |                 0 |               9 |                 83690 |                 1490 |            6886067 |        777483 |             7290 |         7782714 |                     0 |       3825882 | 2017-02-05 18:10:53.010055+01

 2017-02-05 19:00:51.960807+01 | 1486317651.96081 |                 0 |               9 |                 83690 |                 1490 |            6886067 |        777983 |             7295 |         7782714 |                     0 |       3826334 | 2017-02-05 18:10:53.010055+01

 2017-02-05 19:00:53.046348+01 | 1486317653.04635 |                 0 |               9 |                 83690 |                 1490 |            6886067 |        778583 |             7301 |         7782714 |                     0 |       3826813 | 2017-02-05 18:10:53.010055+01

 2017-02-05 19:00:54.11846+01 | 1486317654.11846 |                 0 |               9 |                 83690 |                 1490 |            6886067 |        779083 |             7306 |         7782714 |                     0 |       3827234 | 2017-02-05 18:10:53.010055+01

 2017-02-05 19:00:55.209266+01 | 1486317655.20927 |                 0 |               9 |                 83690 |                 1490 |            6886067 |        779583 |             7311 |         7782714 |                     0 |       3827705 | 2017-02-05 18:10:53.010055+01

 2017-02-05 19:00:56.294356+01 | 1486317656.29436 |                 0 |               9 |                 83690 |                 1490 |            6886067 |        780183 |             7317 |         7782714 |                     0 |       3828287 | 2017-02-05 18:10:53.010055+01

 2017-02-05 19:00:57.379185+01 | 1486317657.37918 |                 0 |               9 |                 83690 |                 1490 |            6886067 |        780683 |             7322 |         7782714 |                     0 |       3828790 | 2017-02-05 18:10:53.010055+01

 2017-02-05 19:00:58.469128+01 | 1486317658.46913 |                 0 |               9 |                 83690 |                 1490 |            6886067 |        781283 |             7328 |         7782714 |                     0 |       3829279 | 2017-02-05 18:10:53.010055+01

 2017-02-05 19:00:59.553974+01 | 1486317659.55397 |                 0 |               9 |                 83690 |                 1490 |            6886067 |        781783 |             7333 |         7782714 |                     0 |       3829842 | 2017-02-05 18:10:53.010055+01

 2017-02-05 19:01:00.636376+01 | 1486317660.63638 |                 0 |               9 |                 83690 |                 1490 |            6886067 |        782283 |             7338 |         7782714 |                     0 |       3830305 | 2017-02-05 18:10:53.010055+01

 2017-02-05 19:01:01.721816+01 | 1486317661.72182 |                 0 |               9 |                 83690 |                 1490 |            6886067 |        782883 |             7344 |         7782714 |                     0 |       3830840 | 2017-02-05 18:10:53.010055+01

 2017-02-05 19:01:02.809639+01 | 1486317662.80964 |                 0 |               9 |                 83690 |                 1490 |            6886067 |        783383 |             7349 |         7782714 |                     0 |       3831232 | 2017-02-05 18:10:53.010055+01

 2017-02-05 19:01:03.877127+01 | 1486317663.87713 |                 0 |               9 |                 83690 |                 1490 |            6886067 |        783883 |             7354 |         7782714 |                     0 |       3831642 | 2017-02-05 18:10:53.010055+01

 2017-02-05 19:01:04.954032+01 | 1486317664.95403 |                 0 |               9 |                 83690 |                 1490 |            6886067 |        784483 |             7360 |         7782714 |                     0 |       3832208 | 2017-02-05 18:10:53.010055+01

 2017-02-05 19:01:06.042149+01 | 1486317666.04215 |                 0 |               9 |                 83690 |                 1490 |            6886067 |        784983 |             7365 |         7782714 |                     0 |       3832750 | 2017-02-05 18:10:53.010055+01

 2017-02-05 19:01:07.121384+01 | 1486317667.12138 |                 0 |               9 |                 83690 |                 1490 |            6886067 |        785483 |             7370 |         7782714 |                     0 |       3833176 | 2017-02-05 18:10:53.010055+01

 2017-02-05 19:01:08.194659+01 | 1486317668.19466 |                 0 |               9 |                 83690 |                 1490 |            6886067 |        786083 |             7376 |         7782714 |                     0 |       3833730 | 2017-02-05 18:10:53.010055+01

 2017-02-05 19:01:09.26926+01 | 1486317669.26926 |                 0 |               9 |                 83690 |                 1490 |            6886067 |        786583 |             7381 |         7782714 |                     0 |       3834222 | 2017-02-05 18:10:53.010055+01

 2017-02-05 19:01:10.361513+01 | 1486317670.36151 |                 0 |               9 |                 83690 |                 1490 |            6886067 |        787083 |             7386 |         7782714 |                     0 |       3834705 | 2017-02-05 18:10:53.010055+01

 2017-02-05 19:01:11.441599+01 | 1486317671.4416 |                 0 |               9 |                 83690 |                 1490 |            6886067 |        787683 |             7392 |         7782714 |                     0 |       3835240 | 2017-02-05 18:10:53.010055+01

 2017-02-05 19:01:12.525256+01 | 1486317672.52526 |                 0 |               9 |                 83690 |                 1490 |            6886067 |        788183 |             7397 |         7782714 |                     0 |       3835621 | 2017-02-05 18:10:53.010055+01

 2017-02-05 19:01:13.598016+01 | 1486317673.59802 |                 0 |               9 |                 83690 |                 1490 |            6886067 |        788783 |             7403 |         7782714 |                     0 |       3836147 | 2017-02-05 18:10:53.010055+01

 2017-02-05 19:01:14.677993+01 | 1486317674.67799 |                 0 |               9 |                 83690 |                 1490 |            6886067 |        789283 |             7408 |         7782714 |                     0 |       3836661 | 2017-02-05 18:10:53.010055+01

 2017-02-05 19:01:15.750798+01 | 1486317675.7508 |                 0 |               9 |                 83690 |                 1490 |            6886067 |        789783 |             7413 |         7782714 |                     0 |       3837106 | 2017-02-05 18:10:53.010055+01

 2017-02-05 19:01:16.818054+01 | 1486317676.81805 |                 0 |               9 |                 83690 |                 1490 |            6886067 |        790183 |             7417 |         7782714 |                     0 |       3837474 | 2017-02-05 18:10:53.010055+01

 2017-02-05 19:01:17.900065+01 | 1486317677.90006 |                 0 |               9 |                 83690 |                 1490 |            6886067 |        790883 |             7424 |         7782714 |                     0 |       3838136 | 2017-02-05 18:10:53.010055+01

 2017-02-05 19:01:18.98095+01 | 1486317678.98095 |                 0 |               9 |                 83690 |                 1490 |            6886067 |        791383 |             7429 |         7782714 |                     0 |       3838614 | 2017-02-05 18:10:53.010055+01

 2017-02-05 19:01:20.064666+01 | 1486317680.06467 |                 0 |               9 |                 83690 |                 1490 |            6886067 |        791983 |             7435 |         7782714 |                     0 |       3839173 | 2017-02-05 18:10:53.010055+01

