 2017-02-05 18:56:19.994121+01 | 1486317379.99412 | pgbench_accounts |      13672906752
 2017-02-05 18:56:19.994121+01 | 1486317379.99412 | pgbench_tellers  |           450560
 2017-02-05 18:56:19.994121+01 | 1486317379.99412 | pgbench_history  |                0
 2017-02-05 18:56:19.994121+01 | 1486317379.99412 | pgbench_branches |            40960

 2017-02-05 18:56:21.082408+01 | 1486317381.08241 | pgbench_accounts |      13672972288
 2017-02-05 18:56:21.082408+01 | 1486317381.08241 | pgbench_tellers  |           450560
 2017-02-05 18:56:21.082408+01 | 1486317381.08241 | pgbench_history  |          1171456
 2017-02-05 18:56:21.082408+01 | 1486317381.08241 | pgbench_branches |            40960

 2017-02-05 18:56:22.169671+01 | 1486317382.16967 | pgbench_accounts |      13672972288
 2017-02-05 18:56:22.169671+01 | 1486317382.16967 | pgbench_tellers  |           450560
 2017-02-05 18:56:22.169671+01 | 1486317382.16967 | pgbench_history  |          1875968
 2017-02-05 18:56:22.169671+01 | 1486317382.16967 | pgbench_branches |            40960

 2017-02-05 18:56:23.24802+01 | 1486317383.24802 | pgbench_accounts |      13672972288
 2017-02-05 18:56:23.24802+01 | 1486317383.24802 | pgbench_tellers  |           450560
 2017-02-05 18:56:23.24802+01 | 1486317383.24802 | pgbench_history  |          2883584
 2017-02-05 18:56:23.24802+01 | 1486317383.24802 | pgbench_branches |            40960

 2017-02-05 18:56:24.315001+01 | 1486317384.315 | pgbench_accounts |      13672972288
 2017-02-05 18:56:24.315001+01 | 1486317384.315 | pgbench_tellers  |           450560
 2017-02-05 18:56:24.315001+01 | 1486317384.315 | pgbench_history  |          3964928
 2017-02-05 18:56:24.315001+01 | 1486317384.315 | pgbench_branches |            40960

 2017-02-05 18:56:25.39577+01 | 1486317385.39577 | pgbench_accounts |      13673021440
 2017-02-05 18:56:25.39577+01 | 1486317385.39577 | pgbench_tellers  |           450560
 2017-02-05 18:56:25.39577+01 | 1486317385.39577 | pgbench_history  |          4857856
 2017-02-05 18:56:25.39577+01 | 1486317385.39577 | pgbench_branches |            40960

 2017-02-05 18:56:26.468433+01 | 1486317386.46843 | pgbench_accounts |      13673037824
 2017-02-05 18:56:26.468433+01 | 1486317386.46843 | pgbench_tellers  |           450560
 2017-02-05 18:56:26.468433+01 | 1486317386.46843 | pgbench_history  |          5758976
 2017-02-05 18:56:26.468433+01 | 1486317386.46843 | pgbench_branches |            40960

 2017-02-05 18:56:27.54835+01 | 1486317387.54835 | pgbench_accounts |      13673037824
 2017-02-05 18:56:27.54835+01 | 1486317387.54835 | pgbench_tellers  |           450560
 2017-02-05 18:56:27.54835+01 | 1486317387.54835 | pgbench_history  |          6651904
 2017-02-05 18:56:27.54835+01 | 1486317387.54835 | pgbench_branches |            40960

 2017-02-05 18:56:28.636262+01 | 1486317388.63626 | pgbench_accounts |      13673062400
 2017-02-05 18:56:28.636262+01 | 1486317388.63626 | pgbench_tellers  |           450560
 2017-02-05 18:56:28.636262+01 | 1486317388.63626 | pgbench_history  |          7544832
 2017-02-05 18:56:28.636262+01 | 1486317388.63626 | pgbench_branches |            40960

 2017-02-05 18:56:29.721738+01 | 1486317389.72174 | pgbench_accounts |      13673095168
 2017-02-05 18:56:29.721738+01 | 1486317389.72174 | pgbench_tellers  |           450560
 2017-02-05 18:56:29.721738+01 | 1486317389.72174 | pgbench_history  |          8585216
 2017-02-05 18:56:29.721738+01 | 1486317389.72174 | pgbench_branches |            40960

 2017-02-05 18:56:30.803968+01 | 1486317390.80397 | pgbench_accounts |      13673103360
 2017-02-05 18:56:30.803968+01 | 1486317390.80397 | pgbench_tellers  |           450560
 2017-02-05 18:56:30.803968+01 | 1486317390.80397 | pgbench_history  |          9723904
 2017-02-05 18:56:30.803968+01 | 1486317390.80397 | pgbench_branches |            40960

 2017-02-05 18:56:31.881438+01 | 1486317391.88144 | pgbench_accounts |      13673103360
 2017-02-05 18:56:31.881438+01 | 1486317391.88144 | pgbench_tellers  |           450560
 2017-02-05 18:56:31.881438+01 | 1486317391.88144 | pgbench_history  |         10780672
 2017-02-05 18:56:31.881438+01 | 1486317391.88144 | pgbench_branches |            40960

 2017-02-05 18:56:32.958718+01 | 1486317392.95872 | pgbench_accounts |      13673144320
 2017-02-05 18:56:32.958718+01 | 1486317392.95872 | pgbench_tellers  |           450560
 2017-02-05 18:56:32.958718+01 | 1486317392.95872 | pgbench_history  |         12386304
 2017-02-05 18:56:32.958718+01 | 1486317392.95872 | pgbench_branches |            40960

 2017-02-05 18:56:34.036417+01 | 1486317394.03642 | pgbench_accounts |      13673168896
 2017-02-05 18:56:34.036417+01 | 1486317394.03642 | pgbench_tellers  |           450560
 2017-02-05 18:56:34.036417+01 | 1486317394.03642 | pgbench_history  |         13066240
 2017-02-05 18:56:34.036417+01 | 1486317394.03642 | pgbench_branches |            40960

 2017-02-05 18:56:35.106494+01 | 1486317395.10649 | pgbench_accounts |      13673168896
 2017-02-05 18:56:35.106494+01 | 1486317395.10649 | pgbench_tellers  |           450560
 2017-02-05 18:56:35.106494+01 | 1486317395.10649 | pgbench_history  |         14131200
 2017-02-05 18:56:35.106494+01 | 1486317395.10649 | pgbench_branches |            40960

 2017-02-05 18:56:36.193243+01 | 1486317396.19324 | pgbench_accounts |      13673177088
 2017-02-05 18:56:36.193243+01 | 1486317396.19324 | pgbench_tellers  |           450560
 2017-02-05 18:56:36.193243+01 | 1486317396.19324 | pgbench_history  |         14860288
 2017-02-05 18:56:36.193243+01 | 1486317396.19324 | pgbench_branches |            40960

 2017-02-05 18:56:37.276505+01 | 1486317397.2765 | pgbench_accounts |      13673226240
 2017-02-05 18:56:37.276505+01 | 1486317397.2765 | pgbench_tellers  |           450560
 2017-02-05 18:56:37.276505+01 | 1486317397.2765 | pgbench_history  |         16588800
 2017-02-05 18:56:37.276505+01 | 1486317397.2765 | pgbench_branches |            40960

 2017-02-05 18:56:38.354203+01 | 1486317398.3542 | pgbench_accounts |      13673234432
 2017-02-05 18:56:38.354203+01 | 1486317398.3542 | pgbench_tellers  |           450560
 2017-02-05 18:56:38.354203+01 | 1486317398.3542 | pgbench_history  |         17432576
 2017-02-05 18:56:38.354203+01 | 1486317398.3542 | pgbench_branches |            40960

 2017-02-05 18:56:39.444247+01 | 1486317399.44425 | pgbench_accounts |      13673234432
 2017-02-05 18:56:39.444247+01 | 1486317399.44425 | pgbench_tellers  |           450560
 2017-02-05 18:56:39.444247+01 | 1486317399.44425 | pgbench_history  |         17432576
 2017-02-05 18:56:39.444247+01 | 1486317399.44425 | pgbench_branches |            40960

 2017-02-05 18:56:40.536719+01 | 1486317400.53672 | pgbench_accounts |      13673250816
 2017-02-05 18:56:40.536719+01 | 1486317400.53672 | pgbench_tellers  |           450560
 2017-02-05 18:56:40.536719+01 | 1486317400.53672 | pgbench_history  |         18300928
 2017-02-05 18:56:40.536719+01 | 1486317400.53672 | pgbench_branches |            40960

 2017-02-05 18:56:41.625803+01 | 1486317401.6258 | pgbench_accounts |      13673275392
 2017-02-05 18:56:41.625803+01 | 1486317401.6258 | pgbench_tellers  |           450560
 2017-02-05 18:56:41.625803+01 | 1486317401.6258 | pgbench_history  |         19693568
 2017-02-05 18:56:41.625803+01 | 1486317401.6258 | pgbench_branches |            40960

 2017-02-05 18:56:42.713376+01 | 1486317402.71338 | pgbench_accounts |      13673299968
 2017-02-05 18:56:42.713376+01 | 1486317402.71338 | pgbench_tellers  |           450560
 2017-02-05 18:56:42.713376+01 | 1486317402.71338 | pgbench_history  |         20242432
 2017-02-05 18:56:42.713376+01 | 1486317402.71338 | pgbench_branches |            40960

 2017-02-05 18:56:43.794014+01 | 1486317403.79401 | pgbench_accounts |      13673299968
 2017-02-05 18:56:43.794014+01 | 1486317403.79401 | pgbench_tellers  |           450560
 2017-02-05 18:56:43.794014+01 | 1486317403.79401 | pgbench_history  |         21135360
 2017-02-05 18:56:43.794014+01 | 1486317403.79401 | pgbench_branches |            40960

 2017-02-05 18:56:44.877543+01 | 1486317404.87754 | pgbench_accounts |      13673308160
 2017-02-05 18:56:44.877543+01 | 1486317404.87754 | pgbench_tellers  |           450560
 2017-02-05 18:56:44.877543+01 | 1486317404.87754 | pgbench_history  |         22200320
 2017-02-05 18:56:44.877543+01 | 1486317404.87754 | pgbench_branches |            40960

 2017-02-05 18:56:45.966527+01 | 1486317405.96653 | pgbench_accounts |      13673340928
 2017-02-05 18:56:45.966527+01 | 1486317405.96653 | pgbench_tellers  |           450560
 2017-02-05 18:56:45.966527+01 | 1486317405.96653 | pgbench_history  |         23289856
 2017-02-05 18:56:45.966527+01 | 1486317405.96653 | pgbench_branches |            40960

 2017-02-05 18:56:47.0516+01 | 1486317407.0516 | pgbench_accounts |      13673365504
 2017-02-05 18:56:47.0516+01 | 1486317407.0516 | pgbench_tellers  |           450560
 2017-02-05 18:56:47.0516+01 | 1486317407.0516 | pgbench_history  |         24240128
 2017-02-05 18:56:47.0516+01 | 1486317407.0516 | pgbench_branches |            40960

 2017-02-05 18:56:48.131576+01 | 1486317408.13158 | pgbench_accounts |      13673373696
 2017-02-05 18:56:48.131576+01 | 1486317408.13158 | pgbench_tellers  |           450560
 2017-02-05 18:56:48.131576+01 | 1486317408.13158 | pgbench_history  |         25149440
 2017-02-05 18:56:48.131576+01 | 1486317408.13158 | pgbench_branches |            40960

 2017-02-05 18:56:49.222628+01 | 1486317409.22263 | pgbench_accounts |      13673373696
 2017-02-05 18:56:49.222628+01 | 1486317409.22263 | pgbench_tellers  |           450560
 2017-02-05 18:56:49.222628+01 | 1486317409.22263 | pgbench_history  |         26681344
 2017-02-05 18:56:49.222628+01 | 1486317409.22263 | pgbench_branches |            40960

 2017-02-05 18:56:50.311473+01 | 1486317410.31147 | pgbench_accounts |      13673398272
 2017-02-05 18:56:50.311473+01 | 1486317410.31147 | pgbench_tellers  |           450560
 2017-02-05 18:56:50.311473+01 | 1486317410.31147 | pgbench_history  |         26681344
 2017-02-05 18:56:50.311473+01 | 1486317410.31147 | pgbench_branches |            40960

 2017-02-05 18:56:51.394145+01 | 1486317411.39415 | pgbench_accounts |      13673431040
 2017-02-05 18:56:51.394145+01 | 1486317411.39415 | pgbench_tellers  |           450560
 2017-02-05 18:56:51.394145+01 | 1486317411.39415 | pgbench_history  |         28213248
 2017-02-05 18:56:51.394145+01 | 1486317411.39415 | pgbench_branches |            40960

 2017-02-05 18:56:52.473586+01 | 1486317412.47359 | pgbench_accounts |      13673431040
 2017-02-05 18:56:52.473586+01 | 1486317412.47359 | pgbench_tellers  |           450560
 2017-02-05 18:56:52.473586+01 | 1486317412.47359 | pgbench_history  |         29081600
 2017-02-05 18:56:52.473586+01 | 1486317412.47359 | pgbench_branches |            40960

 2017-02-05 18:56:53.549305+01 | 1486317413.5493 | pgbench_accounts |      13673447424
 2017-02-05 18:56:53.549305+01 | 1486317413.5493 | pgbench_tellers  |           450560
 2017-02-05 18:56:53.549305+01 | 1486317413.5493 | pgbench_history  |         29974528
 2017-02-05 18:56:53.549305+01 | 1486317413.5493 | pgbench_branches |            40960

 2017-02-05 18:56:54.629256+01 | 1486317414.62926 | pgbench_accounts |      13673463808
 2017-02-05 18:56:54.629256+01 | 1486317414.62926 | pgbench_tellers  |           450560
 2017-02-05 18:56:54.629256+01 | 1486317414.62926 | pgbench_history  |         31227904
 2017-02-05 18:56:54.629256+01 | 1486317414.62926 | pgbench_branches |            40960

 2017-02-05 18:56:55.699646+01 | 1486317415.69965 | pgbench_accounts |      13673488384
 2017-02-05 18:56:55.699646+01 | 1486317415.69965 | pgbench_tellers  |           450560
 2017-02-05 18:56:55.699646+01 | 1486317415.69965 | pgbench_history  |         32309248
 2017-02-05 18:56:55.699646+01 | 1486317415.69965 | pgbench_branches |            40960

 2017-02-05 18:56:56.777582+01 | 1486317416.77758 | pgbench_accounts |      13673504768
 2017-02-05 18:56:56.777582+01 | 1486317416.77758 | pgbench_tellers  |           450560
 2017-02-05 18:56:56.777582+01 | 1486317416.77758 | pgbench_history  |         33267712
 2017-02-05 18:56:56.777582+01 | 1486317416.77758 | pgbench_branches |            40960

 2017-02-05 18:56:57.849993+01 | 1486317417.84999 | pgbench_accounts |      13673529344
 2017-02-05 18:56:57.849993+01 | 1486317417.84999 | pgbench_tellers  |           450560
 2017-02-05 18:56:57.849993+01 | 1486317417.84999 | pgbench_history  |         34373632
 2017-02-05 18:56:57.849993+01 | 1486317417.84999 | pgbench_branches |            40960

 2017-02-05 18:56:58.927131+01 | 1486317418.92713 | pgbench_accounts |      13673553920
 2017-02-05 18:56:58.927131+01 | 1486317418.92713 | pgbench_tellers  |           450560
 2017-02-05 18:56:58.927131+01 | 1486317418.92713 | pgbench_history  |         35586048
 2017-02-05 18:56:58.927131+01 | 1486317418.92713 | pgbench_branches |            40960

 2017-02-05 18:57:00.008577+01 | 1486317420.00858 | pgbench_accounts |      13673570304
 2017-02-05 18:57:00.008577+01 | 1486317420.00858 | pgbench_tellers  |           450560
 2017-02-05 18:57:00.008577+01 | 1486317420.00858 | pgbench_history  |         36495360
 2017-02-05 18:57:00.008577+01 | 1486317420.00858 | pgbench_branches |            40960

 2017-02-05 18:57:01.086182+01 | 1486317421.08618 | pgbench_accounts |      13673594880
 2017-02-05 18:57:01.086182+01 | 1486317421.08618 | pgbench_tellers  |           450560
 2017-02-05 18:57:01.086182+01 | 1486317421.08618 | pgbench_history  |         37904384
 2017-02-05 18:57:01.086182+01 | 1486317421.08618 | pgbench_branches |            40960

 2017-02-05 18:57:02.167274+01 | 1486317422.16727 | pgbench_accounts |      13673619456
 2017-02-05 18:57:02.167274+01 | 1486317422.16727 | pgbench_tellers  |           450560
 2017-02-05 18:57:02.167274+01 | 1486317422.16727 | pgbench_history  |         38944768
 2017-02-05 18:57:02.167274+01 | 1486317422.16727 | pgbench_branches |            40960

 2017-02-05 18:57:03.255941+01 | 1486317423.25594 | pgbench_accounts |      13673627648
 2017-02-05 18:57:03.255941+01 | 1486317423.25594 | pgbench_tellers  |           450560
 2017-02-05 18:57:03.255941+01 | 1486317423.25594 | pgbench_history  |         39993344
 2017-02-05 18:57:03.255941+01 | 1486317423.25594 | pgbench_branches |            40960

 2017-02-05 18:57:04.34161+01 | 1486317424.34161 | pgbench_accounts |      13673652224
 2017-02-05 18:57:04.34161+01 | 1486317424.34161 | pgbench_tellers  |           450560
 2017-02-05 18:57:04.34161+01 | 1486317424.34161 | pgbench_history  |         41254912
 2017-02-05 18:57:04.34161+01 | 1486317424.34161 | pgbench_branches |            40960

 2017-02-05 18:57:05.432232+01 | 1486317425.43223 | pgbench_accounts |      13673676800
 2017-02-05 18:57:05.432232+01 | 1486317425.43223 | pgbench_tellers  |           450560
 2017-02-05 18:57:05.432232+01 | 1486317425.43223 | pgbench_history  |         42131456
 2017-02-05 18:57:05.432232+01 | 1486317425.43223 | pgbench_branches |            40960

 2017-02-05 18:57:06.518659+01 | 1486317426.51866 | pgbench_accounts |      13673693184
 2017-02-05 18:57:06.518659+01 | 1486317426.51866 | pgbench_tellers  |           450560
 2017-02-05 18:57:06.518659+01 | 1486317426.51866 | pgbench_history  |         43384832
 2017-02-05 18:57:06.518659+01 | 1486317426.51866 | pgbench_branches |            40960

 2017-02-05 18:57:07.605145+01 | 1486317427.60514 | pgbench_accounts |      13673709568
 2017-02-05 18:57:07.605145+01 | 1486317427.60514 | pgbench_tellers  |           450560
 2017-02-05 18:57:07.605145+01 | 1486317427.60514 | pgbench_history  |         44433408
 2017-02-05 18:57:07.605145+01 | 1486317427.60514 | pgbench_branches |            40960

 2017-02-05 18:57:08.695327+01 | 1486317428.69533 | pgbench_accounts |      13673742336
 2017-02-05 18:57:08.695327+01 | 1486317428.69533 | pgbench_tellers  |           450560
 2017-02-05 18:57:08.695327+01 | 1486317428.69533 | pgbench_history  |         45957120
 2017-02-05 18:57:08.695327+01 | 1486317428.69533 | pgbench_branches |            40960

 2017-02-05 18:57:09.774309+01 | 1486317429.77431 | pgbench_accounts |      13673742336
 2017-02-05 18:57:09.774309+01 | 1486317429.77431 | pgbench_tellers  |           450560
 2017-02-05 18:57:09.774309+01 | 1486317429.77431 | pgbench_history  |         46497792
 2017-02-05 18:57:09.774309+01 | 1486317429.77431 | pgbench_branches |            40960

 2017-02-05 18:57:10.86199+01 | 1486317430.86199 | pgbench_accounts |      13673758720
 2017-02-05 18:57:10.86199+01 | 1486317430.86199 | pgbench_tellers  |           450560
 2017-02-05 18:57:10.86199+01 | 1486317430.86199 | pgbench_history  |         47718400
 2017-02-05 18:57:10.86199+01 | 1486317430.86199 | pgbench_branches |            40960

 2017-02-05 18:57:11.945072+01 | 1486317431.94507 | pgbench_accounts |      13673775104
 2017-02-05 18:57:11.945072+01 | 1486317431.94507 | pgbench_tellers  |           450560
 2017-02-05 18:57:11.945072+01 | 1486317431.94507 | pgbench_history  |         48955392
 2017-02-05 18:57:11.945072+01 | 1486317431.94507 | pgbench_branches |            40960

 2017-02-05 18:57:13.028248+01 | 1486317433.02825 | pgbench_accounts |      13673807872
 2017-02-05 18:57:13.028248+01 | 1486317433.02825 | pgbench_tellers  |           450560
 2017-02-05 18:57:13.028248+01 | 1486317433.02825 | pgbench_history  |         50397184
 2017-02-05 18:57:13.028248+01 | 1486317433.02825 | pgbench_branches |            40960

 2017-02-05 18:57:14.115575+01 | 1486317434.11558 | pgbench_accounts |      13673824256
 2017-02-05 18:57:14.115575+01 | 1486317434.11558 | pgbench_tellers  |           450560
 2017-02-05 18:57:14.115575+01 | 1486317434.11558 | pgbench_history  |         50929664
 2017-02-05 18:57:14.115575+01 | 1486317434.11558 | pgbench_branches |            40960

 2017-02-05 18:57:15.203375+01 | 1486317435.20338 | pgbench_accounts |      13673832448
 2017-02-05 18:57:15.203375+01 | 1486317435.20338 | pgbench_tellers  |           450560
 2017-02-05 18:57:15.203375+01 | 1486317435.20338 | pgbench_history  |         52191232
 2017-02-05 18:57:15.203375+01 | 1486317435.20338 | pgbench_branches |            40960

 2017-02-05 18:57:16.286018+01 | 1486317436.28602 | pgbench_accounts |      13673873408
 2017-02-05 18:57:16.286018+01 | 1486317436.28602 | pgbench_tellers  |           450560
 2017-02-05 18:57:16.286018+01 | 1486317436.28602 | pgbench_history  |         53239808
 2017-02-05 18:57:16.286018+01 | 1486317436.28602 | pgbench_branches |            40960

 2017-02-05 18:57:17.369597+01 | 1486317437.3696 | pgbench_accounts |      13673881600
 2017-02-05 18:57:17.369597+01 | 1486317437.3696 | pgbench_tellers  |           450560
 2017-02-05 18:57:17.369597+01 | 1486317437.3696 | pgbench_history  |         54296576
 2017-02-05 18:57:17.369597+01 | 1486317437.3696 | pgbench_branches |            40960

 2017-02-05 18:57:18.454328+01 | 1486317438.45433 | pgbench_accounts |      13673897984
 2017-02-05 18:57:18.454328+01 | 1486317438.45433 | pgbench_tellers  |           450560
 2017-02-05 18:57:18.454328+01 | 1486317438.45433 | pgbench_history  |         55492608
 2017-02-05 18:57:18.454328+01 | 1486317438.45433 | pgbench_branches |            40960

 2017-02-05 18:57:19.534413+01 | 1486317439.53441 | pgbench_accounts |      13673922560
 2017-02-05 18:57:19.534413+01 | 1486317439.53441 | pgbench_tellers  |           450560
 2017-02-05 18:57:19.534413+01 | 1486317439.53441 | pgbench_history  |         56754176
 2017-02-05 18:57:19.534413+01 | 1486317439.53441 | pgbench_branches |            40960

 2017-02-05 18:57:20.61256+01 | 1486317440.61256 | pgbench_accounts |      13673938944
 2017-02-05 18:57:20.61256+01 | 1486317440.61256 | pgbench_tellers  |           450560
 2017-02-05 18:57:20.61256+01 | 1486317440.61256 | pgbench_history  |         57966592
 2017-02-05 18:57:20.61256+01 | 1486317440.61256 | pgbench_branches |            40960

 2017-02-05 18:57:21.694828+01 | 1486317441.69483 | pgbench_accounts |      13673955328
 2017-02-05 18:57:21.694828+01 | 1486317441.69483 | pgbench_tellers  |           450560
 2017-02-05 18:57:21.694828+01 | 1486317441.69483 | pgbench_history  |         58687488
 2017-02-05 18:57:21.694828+01 | 1486317441.69483 | pgbench_branches |            40960

 2017-02-05 18:57:22.772115+01 | 1486317442.77211 | pgbench_accounts |      13673971712
 2017-02-05 18:57:22.772115+01 | 1486317442.77211 | pgbench_tellers  |           450560
 2017-02-05 18:57:22.772115+01 | 1486317442.77211 | pgbench_history  |         59719680
 2017-02-05 18:57:22.772115+01 | 1486317442.77211 | pgbench_branches |            40960

 2017-02-05 18:57:23.860687+01 | 1486317443.86069 | pgbench_accounts |      13673988096
 2017-02-05 18:57:23.860687+01 | 1486317443.86069 | pgbench_tellers  |           450560
 2017-02-05 18:57:23.860687+01 | 1486317443.86069 | pgbench_history  |         60989440
 2017-02-05 18:57:23.860687+01 | 1486317443.86069 | pgbench_branches |            40960

 2017-02-05 18:57:24.937727+01 | 1486317444.93773 | pgbench_accounts |      13674012672
 2017-02-05 18:57:24.937727+01 | 1486317444.93773 | pgbench_tellers  |           450560
 2017-02-05 18:57:24.937727+01 | 1486317444.93773 | pgbench_history  |         62054400
 2017-02-05 18:57:24.937727+01 | 1486317444.93773 | pgbench_branches |            40960

 2017-02-05 18:57:26.025027+01 | 1486317446.02503 | pgbench_accounts |      13674037248
 2017-02-05 18:57:26.025027+01 | 1486317446.02503 | pgbench_tellers  |           450560
 2017-02-05 18:57:26.025027+01 | 1486317446.02503 | pgbench_history  |         63119360
 2017-02-05 18:57:26.025027+01 | 1486317446.02503 | pgbench_branches |            40960

 2017-02-05 18:57:27.102862+01 | 1486317447.10286 | pgbench_accounts |      13674045440
 2017-02-05 18:57:27.102862+01 | 1486317447.10286 | pgbench_tellers  |           450560
 2017-02-05 18:57:27.102862+01 | 1486317447.10286 | pgbench_history  |         64331776
 2017-02-05 18:57:27.102862+01 | 1486317447.10286 | pgbench_branches |            40960

 2017-02-05 18:57:28.180976+01 | 1486317448.18098 | pgbench_accounts |      13674078208
 2017-02-05 18:57:28.180976+01 | 1486317448.18098 | pgbench_tellers  |           450560
 2017-02-05 18:57:28.180976+01 | 1486317448.18098 | pgbench_history  |         65323008
 2017-02-05 18:57:28.180976+01 | 1486317448.18098 | pgbench_branches |            40960

 2017-02-05 18:57:29.263561+01 | 1486317449.26356 | pgbench_accounts |      13674086400
 2017-02-05 18:57:29.263561+01 | 1486317449.26356 | pgbench_tellers  |           450560
 2017-02-05 18:57:29.263561+01 | 1486317449.26356 | pgbench_history  |         66420736
 2017-02-05 18:57:29.263561+01 | 1486317449.26356 | pgbench_branches |            40960

 2017-02-05 18:57:30.34444+01 | 1486317450.34444 | pgbench_accounts |      13674102784
 2017-02-05 18:57:30.34444+01 | 1486317450.34444 | pgbench_tellers  |           450560
 2017-02-05 18:57:30.34444+01 | 1486317450.34444 | pgbench_history  |         67452928
 2017-02-05 18:57:30.34444+01 | 1486317450.34444 | pgbench_branches |            40960

 2017-02-05 18:57:31.43658+01 | 1486317451.43658 | pgbench_accounts |      13674119168
 2017-02-05 18:57:31.43658+01 | 1486317451.43658 | pgbench_tellers  |           450560
 2017-02-05 18:57:31.43658+01 | 1486317451.43658 | pgbench_history  |         68403200
 2017-02-05 18:57:31.43658+01 | 1486317451.43658 | pgbench_branches |            40960

 2017-02-05 18:57:32.524474+01 | 1486317452.52447 | pgbench_accounts |      13674143744
 2017-02-05 18:57:32.524474+01 | 1486317452.52447 | pgbench_tellers  |           450560
 2017-02-05 18:57:32.524474+01 | 1486317452.52447 | pgbench_history  |         69279744
 2017-02-05 18:57:32.524474+01 | 1486317452.52447 | pgbench_branches |            40960

 2017-02-05 18:57:33.613978+01 | 1486317453.61398 | pgbench_accounts |      13674151936
 2017-02-05 18:57:33.613978+01 | 1486317453.61398 | pgbench_tellers  |           450560
 2017-02-05 18:57:33.613978+01 | 1486317453.61398 | pgbench_history  |         70565888
 2017-02-05 18:57:33.613978+01 | 1486317453.61398 | pgbench_branches |            40960

 2017-02-05 18:57:34.696081+01 | 1486317454.69608 | pgbench_accounts |      13674176512
 2017-02-05 18:57:34.696081+01 | 1486317454.69608 | pgbench_tellers  |           450560
 2017-02-05 18:57:34.696081+01 | 1486317454.69608 | pgbench_history  |         71761920
 2017-02-05 18:57:34.696081+01 | 1486317454.69608 | pgbench_branches |            40960

 2017-02-05 18:57:35.788668+01 | 1486317455.78867 | pgbench_accounts |      13674201088
 2017-02-05 18:57:35.788668+01 | 1486317455.78867 | pgbench_tellers  |           450560
 2017-02-05 18:57:35.788668+01 | 1486317455.78867 | pgbench_history  |         72310784
 2017-02-05 18:57:35.788668+01 | 1486317455.78867 | pgbench_branches |            40960

 2017-02-05 18:57:36.875425+01 | 1486317456.87543 | pgbench_accounts |      13674217472
 2017-02-05 18:57:36.875425+01 | 1486317456.87543 | pgbench_tellers  |           450560
 2017-02-05 18:57:36.875425+01 | 1486317456.87543 | pgbench_history  |         73400320
 2017-02-05 18:57:36.875425+01 | 1486317456.87543 | pgbench_branches |            40960

 2017-02-05 18:57:37.956575+01 | 1486317457.95657 | pgbench_accounts |      13674217472
 2017-02-05 18:57:37.956575+01 | 1486317457.95657 | pgbench_tellers  |           450560
 2017-02-05 18:57:37.956575+01 | 1486317457.95657 | pgbench_history  |         74473472
 2017-02-05 18:57:37.956575+01 | 1486317457.95657 | pgbench_branches |            40960

 2017-02-05 18:57:39.040411+01 | 1486317459.04041 | pgbench_accounts |      13674242048
 2017-02-05 18:57:39.040411+01 | 1486317459.04041 | pgbench_tellers  |           450560
 2017-02-05 18:57:39.040411+01 | 1486317459.04041 | pgbench_history  |         75366400
 2017-02-05 18:57:39.040411+01 | 1486317459.04041 | pgbench_branches |            40960

 2017-02-05 18:57:40.123819+01 | 1486317460.12382 | pgbench_accounts |      13674266624
 2017-02-05 18:57:40.123819+01 | 1486317460.12382 | pgbench_tellers  |           450560
 2017-02-05 18:57:40.123819+01 | 1486317460.12382 | pgbench_history  |         76472320
 2017-02-05 18:57:40.123819+01 | 1486317460.12382 | pgbench_branches |            40960

 2017-02-05 18:57:41.201604+01 | 1486317461.2016 | pgbench_accounts |      13674274816
 2017-02-05 18:57:41.201604+01 | 1486317461.2016 | pgbench_tellers  |           450560
 2017-02-05 18:57:41.201604+01 | 1486317461.2016 | pgbench_history  |         77348864
 2017-02-05 18:57:41.201604+01 | 1486317461.2016 | pgbench_branches |            40960

 2017-02-05 18:57:42.284014+01 | 1486317462.28401 | pgbench_accounts |      13674291200
 2017-02-05 18:57:42.284014+01 | 1486317462.28401 | pgbench_tellers  |           450560
 2017-02-05 18:57:42.284014+01 | 1486317462.28401 | pgbench_history  |         78577664
 2017-02-05 18:57:42.284014+01 | 1486317462.28401 | pgbench_branches |            40960

 2017-02-05 18:57:43.373362+01 | 1486317463.37336 | pgbench_accounts |      13674307584
 2017-02-05 18:57:43.373362+01 | 1486317463.37336 | pgbench_tellers  |           450560
 2017-02-05 18:57:43.373362+01 | 1486317463.37336 | pgbench_history  |         79519744
 2017-02-05 18:57:43.373362+01 | 1486317463.37336 | pgbench_branches |            40960

 2017-02-05 18:57:44.462127+01 | 1486317464.46213 | pgbench_accounts |      13674323968
 2017-02-05 18:57:44.462127+01 | 1486317464.46213 | pgbench_tellers  |           450560
 2017-02-05 18:57:44.462127+01 | 1486317464.46213 | pgbench_history  |         80584704
 2017-02-05 18:57:44.462127+01 | 1486317464.46213 | pgbench_branches |            40960

 2017-02-05 18:57:45.544419+01 | 1486317465.54442 | pgbench_accounts |      13674340352
 2017-02-05 18:57:45.544419+01 | 1486317465.54442 | pgbench_tellers  |           450560
 2017-02-05 18:57:45.544419+01 | 1486317465.54442 | pgbench_history  |         81469440
 2017-02-05 18:57:45.544419+01 | 1486317465.54442 | pgbench_branches |            40960

 2017-02-05 18:57:46.622803+01 | 1486317466.6228 | pgbench_accounts |      13674348544
 2017-02-05 18:57:46.622803+01 | 1486317466.6228 | pgbench_tellers  |           450560
 2017-02-05 18:57:46.622803+01 | 1486317466.6228 | pgbench_history  |         82313216
 2017-02-05 18:57:46.622803+01 | 1486317466.6228 | pgbench_branches |            40960

 2017-02-05 18:57:47.701153+01 | 1486317467.70115 | pgbench_accounts |      13674373120
 2017-02-05 18:57:47.701153+01 | 1486317467.70115 | pgbench_tellers  |           450560
 2017-02-05 18:57:47.701153+01 | 1486317467.70115 | pgbench_history  |         83189760
 2017-02-05 18:57:47.701153+01 | 1486317467.70115 | pgbench_branches |            40960

 2017-02-05 18:57:48.785022+01 | 1486317468.78502 | pgbench_accounts |      13674381312
 2017-02-05 18:57:48.785022+01 | 1486317468.78502 | pgbench_tellers  |           450560
 2017-02-05 18:57:48.785022+01 | 1486317468.78502 | pgbench_history  |         84090880
 2017-02-05 18:57:48.785022+01 | 1486317468.78502 | pgbench_branches |            40960

 2017-02-05 18:57:49.872682+01 | 1486317469.87268 | pgbench_accounts |      13674397696
 2017-02-05 18:57:49.872682+01 | 1486317469.87268 | pgbench_tellers  |           450560
 2017-02-05 18:57:49.872682+01 | 1486317469.87268 | pgbench_history  |         85164032
 2017-02-05 18:57:49.872682+01 | 1486317469.87268 | pgbench_branches |            40960

 2017-02-05 18:57:50.955153+01 | 1486317470.95515 | pgbench_accounts |      13674414080
 2017-02-05 18:57:50.955153+01 | 1486317470.95515 | pgbench_tellers  |           450560
 2017-02-05 18:57:50.955153+01 | 1486317470.95515 | pgbench_history  |         85868544
 2017-02-05 18:57:50.955153+01 | 1486317470.95515 | pgbench_branches |            40960

 2017-02-05 18:57:52.037258+01 | 1486317472.03726 | pgbench_accounts |      13674438656
 2017-02-05 18:57:52.037258+01 | 1486317472.03726 | pgbench_tellers  |           450560
 2017-02-05 18:57:52.037258+01 | 1486317472.03726 | pgbench_history  |         86876160
 2017-02-05 18:57:52.037258+01 | 1486317472.03726 | pgbench_branches |            40960

 2017-02-05 18:57:53.119114+01 | 1486317473.11911 | pgbench_accounts |      13674455040
 2017-02-05 18:57:53.119114+01 | 1486317473.11911 | pgbench_tellers  |           450560
 2017-02-05 18:57:53.119114+01 | 1486317473.11911 | pgbench_history  |         87769088
 2017-02-05 18:57:53.119114+01 | 1486317473.11911 | pgbench_branches |            40960

 2017-02-05 18:57:54.204686+01 | 1486317474.20469 | pgbench_accounts |      13674463232
 2017-02-05 18:57:54.204686+01 | 1486317474.20469 | pgbench_tellers  |           450560
 2017-02-05 18:57:54.204686+01 | 1486317474.20469 | pgbench_history  |         89161728
 2017-02-05 18:57:54.204686+01 | 1486317474.20469 | pgbench_branches |            40960

 2017-02-05 18:57:55.276903+01 | 1486317475.2769 | pgbench_accounts |      13674496000
 2017-02-05 18:57:55.276903+01 | 1486317475.2769 | pgbench_tellers  |           450560
 2017-02-05 18:57:55.276903+01 | 1486317475.2769 | pgbench_history  |         89874432
 2017-02-05 18:57:55.276903+01 | 1486317475.2769 | pgbench_branches |            40960

 2017-02-05 18:57:56.359205+01 | 1486317476.35921 | pgbench_accounts |      13674504192
 2017-02-05 18:57:56.359205+01 | 1486317476.35921 | pgbench_tellers  |           450560
 2017-02-05 18:57:56.359205+01 | 1486317476.35921 | pgbench_history  |         91070464
 2017-02-05 18:57:56.359205+01 | 1486317476.35921 | pgbench_branches |            40960

 2017-02-05 18:57:57.436267+01 | 1486317477.43627 | pgbench_accounts |      13674520576
 2017-02-05 18:57:57.436267+01 | 1486317477.43627 | pgbench_tellers  |           450560
 2017-02-05 18:57:57.436267+01 | 1486317477.43627 | pgbench_history  |         92315648
 2017-02-05 18:57:57.436267+01 | 1486317477.43627 | pgbench_branches |            40960

 2017-02-05 18:57:58.525711+01 | 1486317478.52571 | pgbench_accounts |      13674545152
 2017-02-05 18:57:58.525711+01 | 1486317478.52571 | pgbench_tellers  |           450560
 2017-02-05 18:57:58.525711+01 | 1486317478.52571 | pgbench_history  |         92995584
 2017-02-05 18:57:58.525711+01 | 1486317478.52571 | pgbench_branches |            40960

 2017-02-05 18:57:59.615612+01 | 1486317479.61561 | pgbench_accounts |      13674561536
 2017-02-05 18:57:59.615612+01 | 1486317479.61561 | pgbench_tellers  |           450560
 2017-02-05 18:57:59.615612+01 | 1486317479.61561 | pgbench_history  |         93863936
 2017-02-05 18:57:59.615612+01 | 1486317479.61561 | pgbench_branches |            40960

 2017-02-05 18:58:00.705924+01 | 1486317480.70592 | pgbench_accounts |      13674569728
 2017-02-05 18:58:00.705924+01 | 1486317480.70592 | pgbench_tellers  |           450560
 2017-02-05 18:58:00.705924+01 | 1486317480.70592 | pgbench_history  |         95158272
 2017-02-05 18:58:00.705924+01 | 1486317480.70592 | pgbench_branches |            40960

 2017-02-05 18:58:01.800302+01 | 1486317481.8003 | pgbench_accounts |      13674594304
 2017-02-05 18:58:01.800302+01 | 1486317481.8003 | pgbench_tellers  |           450560
 2017-02-05 18:58:01.800302+01 | 1486317481.8003 | pgbench_history  |         96067584
 2017-02-05 18:58:01.800302+01 | 1486317481.8003 | pgbench_branches |            40960

 2017-02-05 18:58:02.887717+01 | 1486317482.88772 | pgbench_accounts |      13674618880
 2017-02-05 18:58:02.887717+01 | 1486317482.88772 | pgbench_tellers  |           450560
 2017-02-05 18:58:02.887717+01 | 1486317482.88772 | pgbench_history  |         97107968
 2017-02-05 18:58:02.887717+01 | 1486317482.88772 | pgbench_branches |            40960

 2017-02-05 18:58:03.980421+01 | 1486317483.98042 | pgbench_accounts |      13674627072
 2017-02-05 18:58:03.980421+01 | 1486317483.98042 | pgbench_tellers  |           450560
 2017-02-05 18:58:03.980421+01 | 1486317483.98042 | pgbench_history  |         97984512
 2017-02-05 18:58:03.980421+01 | 1486317483.98042 | pgbench_branches |            40960

 2017-02-05 18:58:05.053593+01 | 1486317485.05359 | pgbench_accounts |      13674651648
 2017-02-05 18:58:05.053593+01 | 1486317485.05359 | pgbench_tellers  |           450560
 2017-02-05 18:58:05.053593+01 | 1486317485.05359 | pgbench_history  |         99057664
 2017-02-05 18:58:05.053593+01 | 1486317485.05359 | pgbench_branches |            40960

 2017-02-05 18:58:06.131149+01 | 1486317486.13115 | pgbench_accounts |      13674676224
 2017-02-05 18:58:06.131149+01 | 1486317486.13115 | pgbench_tellers  |           450560
 2017-02-05 18:58:06.131149+01 | 1486317486.13115 | pgbench_history  |        100147200
 2017-02-05 18:58:06.131149+01 | 1486317486.13115 | pgbench_branches |            40960

 2017-02-05 18:58:07.21248+01 | 1486317487.21248 | pgbench_accounts |      13674692608
 2017-02-05 18:58:07.21248+01 | 1486317487.21248 | pgbench_tellers  |           450560
 2017-02-05 18:58:07.21248+01 | 1486317487.21248 | pgbench_history  |        101253120
 2017-02-05 18:58:07.21248+01 | 1486317487.21248 | pgbench_branches |            40960

 2017-02-05 18:58:08.295116+01 | 1486317488.29512 | pgbench_accounts |      13674708992
 2017-02-05 18:58:08.295116+01 | 1486317488.29512 | pgbench_tellers  |           450560
 2017-02-05 18:58:08.295116+01 | 1486317488.29512 | pgbench_history  |        102350848
 2017-02-05 18:58:08.295116+01 | 1486317488.29512 | pgbench_branches |            40960

 2017-02-05 18:58:09.38371+01 | 1486317489.38371 | pgbench_accounts |      13674733568
 2017-02-05 18:58:09.38371+01 | 1486317489.38371 | pgbench_tellers  |           450560
 2017-02-05 18:58:09.38371+01 | 1486317489.38371 | pgbench_history  |        103620608
 2017-02-05 18:58:09.38371+01 | 1486317489.38371 | pgbench_branches |            40960

 2017-02-05 18:58:10.466733+01 | 1486317490.46673 | pgbench_accounts |      13674758144
 2017-02-05 18:58:10.466733+01 | 1486317490.46673 | pgbench_tellers  |           450560
 2017-02-05 18:58:10.466733+01 | 1486317490.46673 | pgbench_history  |        104538112
 2017-02-05 18:58:10.466733+01 | 1486317490.46673 | pgbench_branches |            40960

 2017-02-05 18:58:11.542693+01 | 1486317491.54269 | pgbench_accounts |      13674766336
 2017-02-05 18:58:11.542693+01 | 1486317491.54269 | pgbench_tellers  |           450560
 2017-02-05 18:58:11.542693+01 | 1486317491.54269 | pgbench_history  |        105619456
 2017-02-05 18:58:11.542693+01 | 1486317491.54269 | pgbench_branches |            40960

 2017-02-05 18:58:12.629651+01 | 1486317492.62965 | pgbench_accounts |      13674782720
 2017-02-05 18:58:12.629651+01 | 1486317492.62965 | pgbench_tellers  |           450560
 2017-02-05 18:58:12.629651+01 | 1486317492.62965 | pgbench_history  |        106872832
 2017-02-05 18:58:12.629651+01 | 1486317492.62965 | pgbench_branches |            40960

 2017-02-05 18:58:13.71977+01 | 1486317493.71977 | pgbench_accounts |      13674807296
 2017-02-05 18:58:13.71977+01 | 1486317493.71977 | pgbench_tellers  |           450560
 2017-02-05 18:58:13.71977+01 | 1486317493.71977 | pgbench_history  |        108101632
 2017-02-05 18:58:13.71977+01 | 1486317493.71977 | pgbench_branches |            40960

 2017-02-05 18:58:14.804675+01 | 1486317494.80468 | pgbench_accounts |      13674831872
 2017-02-05 18:58:14.804675+01 | 1486317494.80468 | pgbench_tellers  |           450560
 2017-02-05 18:58:14.804675+01 | 1486317494.80468 | pgbench_history  |        108806144
 2017-02-05 18:58:14.804675+01 | 1486317494.80468 | pgbench_branches |            40960

 2017-02-05 18:58:15.885851+01 | 1486317495.88585 | pgbench_accounts |      13674840064
 2017-02-05 18:58:15.885851+01 | 1486317495.88585 | pgbench_tellers  |           450560
 2017-02-05 18:58:15.885851+01 | 1486317495.88585 | pgbench_history  |        109838336
 2017-02-05 18:58:15.885851+01 | 1486317495.88585 | pgbench_branches |            40960

 2017-02-05 18:58:16.972283+01 | 1486317496.97228 | pgbench_accounts |      13674856448
 2017-02-05 18:58:16.972283+01 | 1486317496.97228 | pgbench_tellers  |           450560
 2017-02-05 18:58:16.972283+01 | 1486317496.97228 | pgbench_history  |        111370240
 2017-02-05 18:58:16.972283+01 | 1486317496.97228 | pgbench_branches |            40960

 2017-02-05 18:58:18.058557+01 | 1486317498.05856 | pgbench_accounts |      13674872832
 2017-02-05 18:58:18.058557+01 | 1486317498.05856 | pgbench_tellers  |           450560
 2017-02-05 18:58:18.058557+01 | 1486317498.05856 | pgbench_history  |        112246784
 2017-02-05 18:58:18.058557+01 | 1486317498.05856 | pgbench_branches |            40960

 2017-02-05 18:58:19.140594+01 | 1486317499.14059 | pgbench_accounts |      13674889216
 2017-02-05 18:58:19.140594+01 | 1486317499.14059 | pgbench_tellers  |           450560
 2017-02-05 18:58:19.140594+01 | 1486317499.14059 | pgbench_history  |        113508352
 2017-02-05 18:58:19.140594+01 | 1486317499.14059 | pgbench_branches |            40960

 2017-02-05 18:58:20.226374+01 | 1486317500.22637 | pgbench_accounts |      13674905600
 2017-02-05 18:58:20.226374+01 | 1486317500.22637 | pgbench_tellers  |           450560
 2017-02-05 18:58:20.226374+01 | 1486317500.22637 | pgbench_history  |        114704384
 2017-02-05 18:58:20.226374+01 | 1486317500.22637 | pgbench_branches |            40960

 2017-02-05 18:58:21.30828+01 | 1486317501.30828 | pgbench_accounts |      13674930176
 2017-02-05 18:58:21.30828+01 | 1486317501.30828 | pgbench_tellers  |           450560
 2017-02-05 18:58:21.30828+01 | 1486317501.30828 | pgbench_history  |        115113984
 2017-02-05 18:58:21.30828+01 | 1486317501.30828 | pgbench_branches |            40960

 2017-02-05 18:58:22.396511+01 | 1486317502.39651 | pgbench_accounts |      13674946560
 2017-02-05 18:58:22.396511+01 | 1486317502.39651 | pgbench_tellers  |           450560
 2017-02-05 18:58:22.396511+01 | 1486317502.39651 | pgbench_history  |        116367360
 2017-02-05 18:58:22.396511+01 | 1486317502.39651 | pgbench_branches |            40960

 2017-02-05 18:58:23.483382+01 | 1486317503.48338 | pgbench_accounts |      13674954752
 2017-02-05 18:58:23.483382+01 | 1486317503.48338 | pgbench_tellers  |           450560
 2017-02-05 18:58:23.483382+01 | 1486317503.48338 | pgbench_history  |        117252096
 2017-02-05 18:58:23.483382+01 | 1486317503.48338 | pgbench_branches |            40960

 2017-02-05 18:58:24.554419+01 | 1486317504.55442 | pgbench_accounts |      13674979328
 2017-02-05 18:58:24.554419+01 | 1486317504.55442 | pgbench_tellers  |           450560
 2017-02-05 18:58:24.554419+01 | 1486317504.55442 | pgbench_history  |        118341632
 2017-02-05 18:58:24.554419+01 | 1486317504.55442 | pgbench_branches |            40960

 2017-02-05 18:58:25.636988+01 | 1486317505.63699 | pgbench_accounts |      13675012096
 2017-02-05 18:58:25.636988+01 | 1486317505.63699 | pgbench_tellers  |           450560
 2017-02-05 18:58:25.636988+01 | 1486317505.63699 | pgbench_history  |        119595008
 2017-02-05 18:58:25.636988+01 | 1486317505.63699 | pgbench_branches |            40960

 2017-02-05 18:58:26.725428+01 | 1486317506.72543 | pgbench_accounts |      13675020288
 2017-02-05 18:58:26.725428+01 | 1486317506.72543 | pgbench_tellers  |           450560
 2017-02-05 18:58:26.725428+01 | 1486317506.72543 | pgbench_history  |        121192448
 2017-02-05 18:58:26.725428+01 | 1486317506.72543 | pgbench_branches |            40960

 2017-02-05 18:58:27.812351+01 | 1486317507.81235 | pgbench_accounts |      13675044864
 2017-02-05 18:58:27.812351+01 | 1486317507.81235 | pgbench_tellers  |           450560
 2017-02-05 18:58:27.812351+01 | 1486317507.81235 | pgbench_history  |        121593856
 2017-02-05 18:58:27.812351+01 | 1486317507.81235 | pgbench_branches |            40960

 2017-02-05 18:58:28.900591+01 | 1486317508.90059 | pgbench_accounts |      13675061248
 2017-02-05 18:58:28.900591+01 | 1486317508.90059 | pgbench_tellers  |           450560
 2017-02-05 18:58:28.900591+01 | 1486317508.90059 | pgbench_history  |        123363328
 2017-02-05 18:58:28.900591+01 | 1486317508.90059 | pgbench_branches |            40960

 2017-02-05 18:58:29.992119+01 | 1486317509.99212 | pgbench_accounts |      13675077632
 2017-02-05 18:58:29.992119+01 | 1486317509.99212 | pgbench_tellers  |           450560
 2017-02-05 18:58:29.992119+01 | 1486317509.99212 | pgbench_history  |        124084224
 2017-02-05 18:58:29.992119+01 | 1486317509.99212 | pgbench_branches |            40960

 2017-02-05 18:58:31.067924+01 | 1486317511.06792 | pgbench_accounts |      13675102208
 2017-02-05 18:58:31.067924+01 | 1486317511.06792 | pgbench_tellers  |           450560
 2017-02-05 18:58:31.067924+01 | 1486317511.06792 | pgbench_history  |        125214720
 2017-02-05 18:58:31.067924+01 | 1486317511.06792 | pgbench_branches |            40960

 2017-02-05 18:58:32.140437+01 | 1486317512.14044 | pgbench_accounts |      13675118592
 2017-02-05 18:58:32.140437+01 | 1486317512.14044 | pgbench_tellers  |           450560
 2017-02-05 18:58:32.140437+01 | 1486317512.14044 | pgbench_history  |        126271488
 2017-02-05 18:58:32.140437+01 | 1486317512.14044 | pgbench_branches |            40960

 2017-02-05 18:58:33.229386+01 | 1486317513.22939 | pgbench_accounts |      13675143168
 2017-02-05 18:58:33.229386+01 | 1486317513.22939 | pgbench_tellers  |           450560
 2017-02-05 18:58:33.229386+01 | 1486317513.22939 | pgbench_history  |        127180800
 2017-02-05 18:58:33.229386+01 | 1486317513.22939 | pgbench_branches |            40960

 2017-02-05 18:58:34.308278+01 | 1486317514.30828 | pgbench_accounts |      13675151360
 2017-02-05 18:58:34.308278+01 | 1486317514.30828 | pgbench_tellers  |           450560
 2017-02-05 18:58:34.308278+01 | 1486317514.30828 | pgbench_history  |        128221184
 2017-02-05 18:58:34.308278+01 | 1486317514.30828 | pgbench_branches |            40960

 2017-02-05 18:58:35.396425+01 | 1486317515.39643 | pgbench_accounts |      13675175936
 2017-02-05 18:58:35.396425+01 | 1486317515.39643 | pgbench_tellers  |           450560
 2017-02-05 18:58:35.396425+01 | 1486317515.39643 | pgbench_history  |        129482752
 2017-02-05 18:58:35.396425+01 | 1486317515.39643 | pgbench_branches |            40960

 2017-02-05 18:58:36.483214+01 | 1486317516.48321 | pgbench_accounts |      13675192320
 2017-02-05 18:58:36.483214+01 | 1486317516.48321 | pgbench_tellers  |           450560
 2017-02-05 18:58:36.483214+01 | 1486317516.48321 | pgbench_history  |        130580480
 2017-02-05 18:58:36.483214+01 | 1486317516.48321 | pgbench_branches |            40960

 2017-02-05 18:58:37.565681+01 | 1486317517.56568 | pgbench_accounts |      13675208704
 2017-02-05 18:58:37.565681+01 | 1486317517.56568 | pgbench_tellers  |           450560
 2017-02-05 18:58:37.565681+01 | 1486317517.56568 | pgbench_history  |        131784704
 2017-02-05 18:58:37.565681+01 | 1486317517.56568 | pgbench_branches |            40960

 2017-02-05 18:58:38.654045+01 | 1486317518.65405 | pgbench_accounts |      13675233280
 2017-02-05 18:58:38.654045+01 | 1486317518.65405 | pgbench_tellers  |           450560
 2017-02-05 18:58:38.654045+01 | 1486317518.65405 | pgbench_history  |        133054464
 2017-02-05 18:58:38.654045+01 | 1486317518.65405 | pgbench_branches |            40960

 2017-02-05 18:58:39.738587+01 | 1486317519.73859 | pgbench_accounts |      13675257856
 2017-02-05 18:58:39.738587+01 | 1486317519.73859 | pgbench_tellers  |           450560
 2017-02-05 18:58:39.738587+01 | 1486317519.73859 | pgbench_history  |        134152192
 2017-02-05 18:58:39.738587+01 | 1486317519.73859 | pgbench_branches |            40960

 2017-02-05 18:58:40.826251+01 | 1486317520.82625 | pgbench_accounts |      13675266048
 2017-02-05 18:58:40.826251+01 | 1486317520.82625 | pgbench_tellers  |           450560
 2017-02-05 18:58:40.826251+01 | 1486317520.82625 | pgbench_history  |        135102464
 2017-02-05 18:58:40.826251+01 | 1486317520.82625 | pgbench_branches |            40960

 2017-02-05 18:58:41.912238+01 | 1486317521.91224 | pgbench_accounts |      13675290624
 2017-02-05 18:58:41.912238+01 | 1486317521.91224 | pgbench_tellers  |           450560
 2017-02-05 18:58:41.912238+01 | 1486317521.91224 | pgbench_history  |        136486912
 2017-02-05 18:58:41.912238+01 | 1486317521.91224 | pgbench_branches |            40960

 2017-02-05 18:58:42.999042+01 | 1486317522.99904 | pgbench_accounts |      13675298816
 2017-02-05 18:58:42.999042+01 | 1486317522.99904 | pgbench_tellers  |           450560
 2017-02-05 18:58:42.999042+01 | 1486317522.99904 | pgbench_history  |        137535488
 2017-02-05 18:58:42.999042+01 | 1486317522.99904 | pgbench_branches |            40960

 2017-02-05 18:58:44.079023+01 | 1486317524.07902 | pgbench_accounts |      13675323392
 2017-02-05 18:58:44.079023+01 | 1486317524.07902 | pgbench_tellers  |           450560
 2017-02-05 18:58:44.079023+01 | 1486317524.07902 | pgbench_history  |        138592256
 2017-02-05 18:58:44.079023+01 | 1486317524.07902 | pgbench_branches |            40960

 2017-02-05 18:58:45.150462+01 | 1486317525.15046 | pgbench_accounts |      13675339776
 2017-02-05 18:58:45.150462+01 | 1486317525.15046 | pgbench_tellers  |           450560
 2017-02-05 18:58:45.150462+01 | 1486317525.15046 | pgbench_history  |        139829248
 2017-02-05 18:58:45.150462+01 | 1486317525.15046 | pgbench_branches |            40960

 2017-02-05 18:58:46.221729+01 | 1486317526.22173 | pgbench_accounts |      13675356160
 2017-02-05 18:58:46.221729+01 | 1486317526.22173 | pgbench_tellers  |           450560
 2017-02-05 18:58:46.221729+01 | 1486317526.22173 | pgbench_history  |        140926976
 2017-02-05 18:58:46.221729+01 | 1486317526.22173 | pgbench_branches |            40960

 2017-02-05 18:58:47.297486+01 | 1486317527.29749 | pgbench_accounts |      13675372544
 2017-02-05 18:58:47.297486+01 | 1486317527.29749 | pgbench_tellers  |           450560
 2017-02-05 18:58:47.297486+01 | 1486317527.29749 | pgbench_history  |        141606912
 2017-02-05 18:58:47.297486+01 | 1486317527.29749 | pgbench_branches |            40960

 2017-02-05 18:58:48.392052+01 | 1486317528.39205 | pgbench_accounts |      13675388928
 2017-02-05 18:58:48.392052+01 | 1486317528.39205 | pgbench_tellers  |           450560
 2017-02-05 18:58:48.392052+01 | 1486317528.39205 | pgbench_history  |        142647296
 2017-02-05 18:58:48.392052+01 | 1486317528.39205 | pgbench_branches |            40960

 2017-02-05 18:58:49.482199+01 | 1486317529.4822 | pgbench_accounts |      13675413504
 2017-02-05 18:58:49.482199+01 | 1486317529.4822 | pgbench_tellers  |           450560
 2017-02-05 18:58:49.482199+01 | 1486317529.4822 | pgbench_history  |        143736832
 2017-02-05 18:58:49.482199+01 | 1486317529.4822 | pgbench_branches |            40960

 2017-02-05 18:58:50.550468+01 | 1486317530.55047 | pgbench_accounts |      13675429888
 2017-02-05 18:58:50.550468+01 | 1486317530.55047 | pgbench_tellers  |           450560
 2017-02-05 18:58:50.550468+01 | 1486317530.55047 | pgbench_history  |        144785408
 2017-02-05 18:58:50.550468+01 | 1486317530.55047 | pgbench_branches |            40960

 2017-02-05 18:58:51.620187+01 | 1486317531.62019 | pgbench_accounts |      13675438080
 2017-02-05 18:58:51.620187+01 | 1486317531.62019 | pgbench_tellers  |           450560
 2017-02-05 18:58:51.620187+01 | 1486317531.62019 | pgbench_history  |        146554880
 2017-02-05 18:58:51.620187+01 | 1486317531.62019 | pgbench_branches |            40960

 2017-02-05 18:58:52.68757+01 | 1486317532.68757 | pgbench_accounts |      13675462656
 2017-02-05 18:58:52.68757+01 | 1486317532.68757 | pgbench_tellers  |           450560
 2017-02-05 18:58:52.68757+01 | 1486317532.68757 | pgbench_history  |        147111936
 2017-02-05 18:58:52.68757+01 | 1486317532.68757 | pgbench_branches |            40960

 2017-02-05 18:58:53.760401+01 | 1486317533.7604 | pgbench_accounts |      13675479040
 2017-02-05 18:58:53.760401+01 | 1486317533.7604 | pgbench_tellers  |           450560
 2017-02-05 18:58:53.760401+01 | 1486317533.7604 | pgbench_history  |        148004864
 2017-02-05 18:58:53.760401+01 | 1486317533.7604 | pgbench_branches |            40960

 2017-02-05 18:58:54.833146+01 | 1486317534.83315 | pgbench_accounts |      13675495424
 2017-02-05 18:58:54.833146+01 | 1486317534.83315 | pgbench_tellers  |           450560
 2017-02-05 18:58:54.833146+01 | 1486317534.83315 | pgbench_history  |        149233664
 2017-02-05 18:58:54.833146+01 | 1486317534.83315 | pgbench_branches |            40960

 2017-02-05 18:58:55.917953+01 | 1486317535.91795 | pgbench_accounts |      13675503616
 2017-02-05 18:58:55.917953+01 | 1486317535.91795 | pgbench_tellers  |           450560
 2017-02-05 18:58:55.917953+01 | 1486317535.91795 | pgbench_history  |        150183936
 2017-02-05 18:58:55.917953+01 | 1486317535.91795 | pgbench_branches |            40960

 2017-02-05 18:58:56.993331+01 | 1486317536.99333 | pgbench_accounts |      13675544576
 2017-02-05 18:58:56.993331+01 | 1486317536.99333 | pgbench_tellers  |           450560
 2017-02-05 18:58:56.993331+01 | 1486317536.99333 | pgbench_history  |        151240704
 2017-02-05 18:58:56.993331+01 | 1486317536.99333 | pgbench_branches |            40960

 2017-02-05 18:58:58.068373+01 | 1486317538.06837 | pgbench_accounts |      13675552768
 2017-02-05 18:58:58.068373+01 | 1486317538.06837 | pgbench_tellers  |           450560
 2017-02-05 18:58:58.068373+01 | 1486317538.06837 | pgbench_history  |        152305664
 2017-02-05 18:58:58.068373+01 | 1486317538.06837 | pgbench_branches |            40960

 2017-02-05 18:58:59.142541+01 | 1486317539.14254 | pgbench_accounts |      13675552768
 2017-02-05 18:58:59.142541+01 | 1486317539.14254 | pgbench_tellers  |           450560
 2017-02-05 18:58:59.142541+01 | 1486317539.14254 | pgbench_history  |        153419776
 2017-02-05 18:58:59.142541+01 | 1486317539.14254 | pgbench_branches |            40960

 2017-02-05 18:59:00.22417+01 | 1486317540.22417 | pgbench_accounts |      13675585536
 2017-02-05 18:59:00.22417+01 | 1486317540.22417 | pgbench_tellers  |           450560
 2017-02-05 18:59:00.22417+01 | 1486317540.22417 | pgbench_history  |        154509312
 2017-02-05 18:59:00.22417+01 | 1486317540.22417 | pgbench_branches |            40960

 2017-02-05 18:59:01.299363+01 | 1486317541.29936 | pgbench_accounts |      13675601920
 2017-02-05 18:59:01.299363+01 | 1486317541.29936 | pgbench_tellers  |           450560
 2017-02-05 18:59:01.299363+01 | 1486317541.29936 | pgbench_history  |        155410432
 2017-02-05 18:59:01.299363+01 | 1486317541.29936 | pgbench_branches |            40960

 2017-02-05 18:59:02.380868+01 | 1486317542.38087 | pgbench_accounts |      13675618304
 2017-02-05 18:59:02.380868+01 | 1486317542.38087 | pgbench_tellers  |           450560
 2017-02-05 18:59:02.380868+01 | 1486317542.38087 | pgbench_history  |        156540928
 2017-02-05 18:59:02.380868+01 | 1486317542.38087 | pgbench_branches |            40960

 2017-02-05 18:59:03.463044+01 | 1486317543.46304 | pgbench_accounts |      13675618304
 2017-02-05 18:59:03.463044+01 | 1486317543.46304 | pgbench_tellers  |           450560
 2017-02-05 18:59:03.463044+01 | 1486317543.46304 | pgbench_history  |        157245440
 2017-02-05 18:59:03.463044+01 | 1486317543.46304 | pgbench_branches |            40960

 2017-02-05 18:59:04.544374+01 | 1486317544.54437 | pgbench_accounts |      13675626496
 2017-02-05 18:59:04.544374+01 | 1486317544.54437 | pgbench_tellers  |           450560
 2017-02-05 18:59:04.544374+01 | 1486317544.54437 | pgbench_history  |        158302208
 2017-02-05 18:59:04.544374+01 | 1486317544.54437 | pgbench_branches |            40960

 2017-02-05 18:59:05.627786+01 | 1486317545.62779 | pgbench_accounts |      13675659264
 2017-02-05 18:59:05.627786+01 | 1486317545.62779 | pgbench_tellers  |           450560
 2017-02-05 18:59:05.627786+01 | 1486317545.62779 | pgbench_history  |        159006720
 2017-02-05 18:59:05.627786+01 | 1486317545.62779 | pgbench_branches |            40960

 2017-02-05 18:59:06.711389+01 | 1486317546.71139 | pgbench_accounts |      13675667456
 2017-02-05 18:59:06.711389+01 | 1486317546.71139 | pgbench_tellers  |           450560
 2017-02-05 18:59:06.711389+01 | 1486317546.71139 | pgbench_history  |        160038912
 2017-02-05 18:59:06.711389+01 | 1486317546.71139 | pgbench_branches |            40960

 2017-02-05 18:59:07.795662+01 | 1486317547.79566 | pgbench_accounts |      13675683840
 2017-02-05 18:59:07.795662+01 | 1486317547.79566 | pgbench_tellers  |           450560
 2017-02-05 18:59:07.795662+01 | 1486317547.79566 | pgbench_history  |        160743424
 2017-02-05 18:59:07.795662+01 | 1486317547.79566 | pgbench_branches |            40960

 2017-02-05 18:59:08.873923+01 | 1486317548.87392 | pgbench_accounts |      13675692032
 2017-02-05 18:59:08.873923+01 | 1486317548.87392 | pgbench_tellers  |           450560
 2017-02-05 18:59:08.873923+01 | 1486317548.87392 | pgbench_history  |        161800192
 2017-02-05 18:59:08.873923+01 | 1486317548.87392 | pgbench_branches |            40960

 2017-02-05 18:59:09.956599+01 | 1486317549.9566 | pgbench_accounts |      13675700224
 2017-02-05 18:59:09.956599+01 | 1486317549.9566 | pgbench_tellers  |           450560
 2017-02-05 18:59:09.956599+01 | 1486317549.9566 | pgbench_history  |        162365440
 2017-02-05 18:59:09.956599+01 | 1486317549.9566 | pgbench_branches |            40960

 2017-02-05 18:59:11.044863+01 | 1486317551.04486 | pgbench_accounts |      13675732992
 2017-02-05 18:59:11.044863+01 | 1486317551.04486 | pgbench_tellers  |           450560
 2017-02-05 18:59:11.044863+01 | 1486317551.04486 | pgbench_history  |        163561472
 2017-02-05 18:59:11.044863+01 | 1486317551.04486 | pgbench_branches |            40960

 2017-02-05 18:59:12.133427+01 | 1486317552.13343 | pgbench_accounts |      13675749376
 2017-02-05 18:59:12.133427+01 | 1486317552.13343 | pgbench_tellers  |           450560
 2017-02-05 18:59:12.133427+01 | 1486317552.13343 | pgbench_history  |        164618240
 2017-02-05 18:59:12.133427+01 | 1486317552.13343 | pgbench_branches |            40960

 2017-02-05 18:59:13.221695+01 | 1486317553.22169 | pgbench_accounts |      13675757568
 2017-02-05 18:59:13.221695+01 | 1486317553.22169 | pgbench_tellers  |           450560
 2017-02-05 18:59:13.221695+01 | 1486317553.22169 | pgbench_history  |        165511168
 2017-02-05 18:59:13.221695+01 | 1486317553.22169 | pgbench_branches |            40960

 2017-02-05 18:59:14.30526+01 | 1486317554.30526 | pgbench_accounts |      13675765760
 2017-02-05 18:59:14.30526+01 | 1486317554.30526 | pgbench_tellers  |           450560
 2017-02-05 18:59:14.30526+01 | 1486317554.30526 | pgbench_history  |        167256064
 2017-02-05 18:59:14.30526+01 | 1486317554.30526 | pgbench_branches |            40960

 2017-02-05 18:59:15.376004+01 | 1486317555.376 | pgbench_accounts |      13675782144
 2017-02-05 18:59:15.376004+01 | 1486317555.376 | pgbench_tellers  |           450560
 2017-02-05 18:59:15.376004+01 | 1486317555.376 | pgbench_history  |        167649280
 2017-02-05 18:59:15.376004+01 | 1486317555.376 | pgbench_branches |            40960

 2017-02-05 18:59:16.458296+01 | 1486317556.4583 | pgbench_accounts |      13675814912
 2017-02-05 18:59:16.458296+01 | 1486317556.4583 | pgbench_tellers  |           450560
 2017-02-05 18:59:16.458296+01 | 1486317556.4583 | pgbench_history  |        168558592
 2017-02-05 18:59:16.458296+01 | 1486317556.4583 | pgbench_branches |            40960

 2017-02-05 18:59:17.54164+01 | 1486317557.54164 | pgbench_accounts |      13675823104
 2017-02-05 18:59:17.54164+01 | 1486317557.54164 | pgbench_tellers  |           450560
 2017-02-05 18:59:17.54164+01 | 1486317557.54164 | pgbench_history  |        169697280
 2017-02-05 18:59:17.54164+01 | 1486317557.54164 | pgbench_branches |            40960

 2017-02-05 18:59:18.623011+01 | 1486317558.62301 | pgbench_accounts |      13675831296
 2017-02-05 18:59:18.623011+01 | 1486317558.62301 | pgbench_tellers  |           450560
 2017-02-05 18:59:18.623011+01 | 1486317558.62301 | pgbench_history  |        170975232
 2017-02-05 18:59:18.623011+01 | 1486317558.62301 | pgbench_branches |            40960

 2017-02-05 18:59:19.710092+01 | 1486317559.71009 | pgbench_accounts |      13675847680
 2017-02-05 18:59:19.710092+01 | 1486317559.71009 | pgbench_tellers  |           450560
 2017-02-05 18:59:19.710092+01 | 1486317559.71009 | pgbench_history  |        172056576
 2017-02-05 18:59:19.710092+01 | 1486317559.71009 | pgbench_branches |            40960

 2017-02-05 18:59:20.798009+01 | 1486317560.79801 | pgbench_accounts |      13675872256
 2017-02-05 18:59:20.798009+01 | 1486317560.79801 | pgbench_tellers  |           450560
 2017-02-05 18:59:20.798009+01 | 1486317560.79801 | pgbench_history  |        172924928
 2017-02-05 18:59:20.798009+01 | 1486317560.79801 | pgbench_branches |            40960

 2017-02-05 18:59:21.883902+01 | 1486317561.8839 | pgbench_accounts |      13675888640
 2017-02-05 18:59:21.883902+01 | 1486317561.8839 | pgbench_tellers  |           450560
 2017-02-05 18:59:21.883902+01 | 1486317561.8839 | pgbench_history  |        174178304
 2017-02-05 18:59:21.883902+01 | 1486317561.8839 | pgbench_branches |            40960

 2017-02-05 18:59:22.973456+01 | 1486317562.97346 | pgbench_accounts |      13675905024
 2017-02-05 18:59:22.973456+01 | 1486317562.97346 | pgbench_tellers  |           450560
 2017-02-05 18:59:22.973456+01 | 1486317562.97346 | pgbench_history  |        175243264
 2017-02-05 18:59:22.973456+01 | 1486317562.97346 | pgbench_branches |            40960

 2017-02-05 18:59:24.059902+01 | 1486317564.0599 | pgbench_accounts |      13675905024
 2017-02-05 18:59:24.059902+01 | 1486317564.0599 | pgbench_tellers  |           450560
 2017-02-05 18:59:24.059902+01 | 1486317564.0599 | pgbench_history  |        175955968
 2017-02-05 18:59:24.059902+01 | 1486317564.0599 | pgbench_branches |            40960

 2017-02-05 18:59:25.14039+01 | 1486317565.14039 | pgbench_accounts |      13675945984
 2017-02-05 18:59:25.14039+01 | 1486317565.14039 | pgbench_tellers  |           450560
 2017-02-05 18:59:25.14039+01 | 1486317565.14039 | pgbench_history  |        177004544
 2017-02-05 18:59:25.14039+01 | 1486317565.14039 | pgbench_branches |            40960

 2017-02-05 18:59:26.227759+01 | 1486317566.22776 | pgbench_accounts |      13675962368
 2017-02-05 18:59:26.227759+01 | 1486317566.22776 | pgbench_tellers  |           450560
 2017-02-05 18:59:26.227759+01 | 1486317566.22776 | pgbench_history  |        178102272
 2017-02-05 18:59:26.227759+01 | 1486317566.22776 | pgbench_branches |            40960

 2017-02-05 18:59:27.311444+01 | 1486317567.31144 | pgbench_accounts |      13675970560
 2017-02-05 18:59:27.311444+01 | 1486317567.31144 | pgbench_tellers  |           450560
 2017-02-05 18:59:27.311444+01 | 1486317567.31144 | pgbench_history  |        178642944
 2017-02-05 18:59:27.311444+01 | 1486317567.31144 | pgbench_branches |            40960

 2017-02-05 18:59:28.398731+01 | 1486317568.39873 | pgbench_accounts |      13675986944
 2017-02-05 18:59:28.398731+01 | 1486317568.39873 | pgbench_tellers  |           450560
 2017-02-05 18:59:28.398731+01 | 1486317568.39873 | pgbench_history  |        179552256
 2017-02-05 18:59:28.398731+01 | 1486317568.39873 | pgbench_branches |            40960

 2017-02-05 18:59:29.473379+01 | 1486317569.47338 | pgbench_accounts |      13676003328
 2017-02-05 18:59:29.473379+01 | 1486317569.47338 | pgbench_tellers  |           450560
 2017-02-05 18:59:29.473379+01 | 1486317569.47338 | pgbench_history  |        180469760
 2017-02-05 18:59:29.473379+01 | 1486317569.47338 | pgbench_branches |            40960

 2017-02-05 18:59:30.560026+01 | 1486317570.56003 | pgbench_accounts |      13676027904
 2017-02-05 18:59:30.560026+01 | 1486317570.56003 | pgbench_tellers  |           450560
 2017-02-05 18:59:30.560026+01 | 1486317570.56003 | pgbench_history  |        181723136
 2017-02-05 18:59:30.560026+01 | 1486317570.56003 | pgbench_branches |            40960

 2017-02-05 18:59:31.647481+01 | 1486317571.64748 | pgbench_accounts |      13676036096
 2017-02-05 18:59:31.647481+01 | 1486317571.64748 | pgbench_tellers  |           450560
 2017-02-05 18:59:31.647481+01 | 1486317571.64748 | pgbench_history  |        182304768
 2017-02-05 18:59:31.647481+01 | 1486317571.64748 | pgbench_branches |            40960

 2017-02-05 18:59:32.734049+01 | 1486317572.73405 | pgbench_accounts |      13676044288
 2017-02-05 18:59:32.734049+01 | 1486317572.73405 | pgbench_tellers  |           450560
 2017-02-05 18:59:32.734049+01 | 1486317572.73405 | pgbench_history  |        183672832
 2017-02-05 18:59:32.734049+01 | 1486317572.73405 | pgbench_branches |            40960

 2017-02-05 18:59:33.82517+01 | 1486317573.82517 | pgbench_accounts |      13676068864
 2017-02-05 18:59:33.82517+01 | 1486317573.82517 | pgbench_tellers  |           450560
 2017-02-05 18:59:33.82517+01 | 1486317573.82517 | pgbench_history  |        184057856
 2017-02-05 18:59:33.82517+01 | 1486317573.82517 | pgbench_branches |            40960

 2017-02-05 18:59:34.914169+01 | 1486317574.91417 | pgbench_accounts |      13676085248
 2017-02-05 18:59:34.914169+01 | 1486317574.91417 | pgbench_tellers  |           450560
 2017-02-05 18:59:34.914169+01 | 1486317574.91417 | pgbench_history  |        185450496
 2017-02-05 18:59:34.914169+01 | 1486317574.91417 | pgbench_branches |            40960

 2017-02-05 18:59:36.004891+01 | 1486317576.00489 | pgbench_accounts |      13676101632
 2017-02-05 18:59:36.004891+01 | 1486317576.00489 | pgbench_tellers  |           450560
 2017-02-05 18:59:36.004891+01 | 1486317576.00489 | pgbench_history  |        186155008
 2017-02-05 18:59:36.004891+01 | 1486317576.00489 | pgbench_branches |            40960

 2017-02-05 18:59:37.095349+01 | 1486317577.09535 | pgbench_accounts |      13676109824
 2017-02-05 18:59:37.095349+01 | 1486317577.09535 | pgbench_tellers  |           450560
 2017-02-05 18:59:37.095349+01 | 1486317577.09535 | pgbench_history  |        187023360
 2017-02-05 18:59:37.095349+01 | 1486317577.09535 | pgbench_branches |            40960

 2017-02-05 18:59:38.181659+01 | 1486317578.18166 | pgbench_accounts |      13676126208
 2017-02-05 18:59:38.181659+01 | 1486317578.18166 | pgbench_tellers  |           450560
 2017-02-05 18:59:38.181659+01 | 1486317578.18166 | pgbench_history  |        188416000
 2017-02-05 18:59:38.181659+01 | 1486317578.18166 | pgbench_branches |            40960

 2017-02-05 18:59:39.259593+01 | 1486317579.25959 | pgbench_accounts |      13676150784
 2017-02-05 18:59:39.259593+01 | 1486317579.25959 | pgbench_tellers  |           450560
 2017-02-05 18:59:39.259593+01 | 1486317579.25959 | pgbench_history  |        189628416
 2017-02-05 18:59:39.259593+01 | 1486317579.25959 | pgbench_branches |            40960

 2017-02-05 18:59:40.337612+01 | 1486317580.33761 | pgbench_accounts |      13676175360
 2017-02-05 18:59:40.337612+01 | 1486317580.33761 | pgbench_tellers  |           450560
 2017-02-05 18:59:40.337612+01 | 1486317580.33761 | pgbench_history  |        190636032
 2017-02-05 18:59:40.337612+01 | 1486317580.33761 | pgbench_branches |            40960

 2017-02-05 18:59:41.426146+01 | 1486317581.42615 | pgbench_accounts |      13676175360
 2017-02-05 18:59:41.426146+01 | 1486317581.42615 | pgbench_tellers  |           450560
 2017-02-05 18:59:41.426146+01 | 1486317581.42615 | pgbench_history  |        191709184
 2017-02-05 18:59:41.426146+01 | 1486317581.42615 | pgbench_branches |            40960

 2017-02-05 18:59:42.516927+01 | 1486317582.51693 | pgbench_accounts |      13676199936
 2017-02-05 18:59:42.516927+01 | 1486317582.51693 | pgbench_tellers  |           450560
 2017-02-05 18:59:42.516927+01 | 1486317582.51693 | pgbench_history  |        192577536
 2017-02-05 18:59:42.516927+01 | 1486317582.51693 | pgbench_branches |            40960

 2017-02-05 18:59:43.606469+01 | 1486317583.60647 | pgbench_accounts |      13676224512
 2017-02-05 18:59:43.606469+01 | 1486317583.60647 | pgbench_tellers  |           450560
 2017-02-05 18:59:43.606469+01 | 1486317583.60647 | pgbench_history  |        193691648
 2017-02-05 18:59:43.606469+01 | 1486317583.60647 | pgbench_branches |            40960

 2017-02-05 18:59:44.696906+01 | 1486317584.69691 | pgbench_accounts |      13676232704
 2017-02-05 18:59:44.696906+01 | 1486317584.69691 | pgbench_tellers  |           450560
 2017-02-05 18:59:44.696906+01 | 1486317584.69691 | pgbench_history  |        194699264
 2017-02-05 18:59:44.696906+01 | 1486317584.69691 | pgbench_branches |            40960

 2017-02-05 18:59:45.790556+01 | 1486317585.79056 | pgbench_accounts |      13676257280
 2017-02-05 18:59:45.790556+01 | 1486317585.79056 | pgbench_tellers  |           450560
 2017-02-05 18:59:45.790556+01 | 1486317585.79056 | pgbench_history  |        195780608
 2017-02-05 18:59:45.790556+01 | 1486317585.79056 | pgbench_branches |            40960

 2017-02-05 18:59:46.884471+01 | 1486317586.88447 | pgbench_accounts |      13676290048
 2017-02-05 18:59:46.884471+01 | 1486317586.88447 | pgbench_tellers  |           450560
 2017-02-05 18:59:46.884471+01 | 1486317586.88447 | pgbench_history  |        196878336
 2017-02-05 18:59:46.884471+01 | 1486317586.88447 | pgbench_branches |            40960

 2017-02-05 18:59:47.974103+01 | 1486317587.9741 | pgbench_accounts |      13676290048
 2017-02-05 18:59:47.974103+01 | 1486317587.9741 | pgbench_tellers  |           450560
 2017-02-05 18:59:47.974103+01 | 1486317587.9741 | pgbench_history  |        198164480
 2017-02-05 18:59:47.974103+01 | 1486317587.9741 | pgbench_branches |            40960

 2017-02-05 18:59:49.061626+01 | 1486317589.06163 | pgbench_accounts |      13676306432
 2017-02-05 18:59:49.061626+01 | 1486317589.06163 | pgbench_tellers  |           450560
 2017-02-05 18:59:49.061626+01 | 1486317589.06163 | pgbench_history  |        199221248
 2017-02-05 18:59:49.061626+01 | 1486317589.06163 | pgbench_branches |            40960

 2017-02-05 18:59:50.142988+01 | 1486317590.14299 | pgbench_accounts |      13676314624
 2017-02-05 18:59:50.142988+01 | 1486317590.14299 | pgbench_tellers  |           450560
 2017-02-05 18:59:50.142988+01 | 1486317590.14299 | pgbench_history  |        200425472
 2017-02-05 18:59:50.142988+01 | 1486317590.14299 | pgbench_branches |            40960

 2017-02-05 18:59:51.222118+01 | 1486317591.22212 | pgbench_accounts |      13676355584
 2017-02-05 18:59:51.222118+01 | 1486317591.22212 | pgbench_tellers  |           450560
 2017-02-05 18:59:51.222118+01 | 1486317591.22212 | pgbench_history  |        201678848
 2017-02-05 18:59:51.222118+01 | 1486317591.22212 | pgbench_branches |            40960

 2017-02-05 18:59:52.299444+01 | 1486317592.29944 | pgbench_accounts |      13676355584
 2017-02-05 18:59:52.299444+01 | 1486317592.29944 | pgbench_tellers  |           450560
 2017-02-05 18:59:52.299444+01 | 1486317592.29944 | pgbench_history  |        202563584
 2017-02-05 18:59:52.299444+01 | 1486317592.29944 | pgbench_branches |            40960

 2017-02-05 18:59:53.387384+01 | 1486317593.38738 | pgbench_accounts |      13676380160
 2017-02-05 18:59:53.387384+01 | 1486317593.38738 | pgbench_tellers  |           450560
 2017-02-05 18:59:53.387384+01 | 1486317593.38738 | pgbench_history  |        203816960
 2017-02-05 18:59:53.387384+01 | 1486317593.38738 | pgbench_branches |            40960

 2017-02-05 18:59:54.470411+01 | 1486317594.47041 | pgbench_accounts |      13676380160
 2017-02-05 18:59:54.470411+01 | 1486317594.47041 | pgbench_tellers  |           450560
 2017-02-05 18:59:54.470411+01 | 1486317594.47041 | pgbench_history  |        204554240
 2017-02-05 18:59:54.470411+01 | 1486317594.47041 | pgbench_branches |            40960

 2017-02-05 18:59:55.54705+01 | 1486317595.54705 | pgbench_accounts |      13676421120
 2017-02-05 18:59:55.54705+01 | 1486317595.54705 | pgbench_tellers  |           450560
 2017-02-05 18:59:55.54705+01 | 1486317595.54705 | pgbench_history  |        205774848
 2017-02-05 18:59:55.54705+01 | 1486317595.54705 | pgbench_branches |            40960

 2017-02-05 18:59:56.636374+01 | 1486317596.63637 | pgbench_accounts |      13676421120
 2017-02-05 18:59:56.636374+01 | 1486317596.63637 | pgbench_tellers  |           450560
 2017-02-05 18:59:56.636374+01 | 1486317596.63637 | pgbench_history  |        207347712
 2017-02-05 18:59:56.636374+01 | 1486317596.63637 | pgbench_branches |            40960

 2017-02-05 18:59:57.729385+01 | 1486317597.72938 | pgbench_accounts |      13676445696
 2017-02-05 18:59:57.729385+01 | 1486317597.72938 | pgbench_tellers  |           450560
 2017-02-05 18:59:57.729385+01 | 1486317597.72938 | pgbench_history  |        208224256
 2017-02-05 18:59:57.729385+01 | 1486317597.72938 | pgbench_branches |            40960

 2017-02-05 18:59:58.813624+01 | 1486317598.81362 | pgbench_accounts |      13676478464
 2017-02-05 18:59:58.813624+01 | 1486317598.81362 | pgbench_tellers  |           450560
 2017-02-05 18:59:58.813624+01 | 1486317598.81362 | pgbench_history  |        209821696
 2017-02-05 18:59:58.813624+01 | 1486317598.81362 | pgbench_branches |            40960

 2017-02-05 18:59:59.895164+01 | 1486317599.89516 | pgbench_accounts |      13676486656
 2017-02-05 18:59:59.895164+01 | 1486317599.89516 | pgbench_tellers  |           450560
 2017-02-05 18:59:59.895164+01 | 1486317599.89516 | pgbench_history  |        210182144
 2017-02-05 18:59:59.895164+01 | 1486317599.89516 | pgbench_branches |            40960

 2017-02-05 19:00:00.977849+01 | 1486317600.97785 | pgbench_accounts |      13676486656
 2017-02-05 19:00:00.977849+01 | 1486317600.97785 | pgbench_tellers  |           450560
 2017-02-05 19:00:00.977849+01 | 1486317600.97785 | pgbench_history  |        211664896
 2017-02-05 19:00:00.977849+01 | 1486317600.97785 | pgbench_branches |            40960

 2017-02-05 19:00:02.060472+01 | 1486317602.06047 | pgbench_accounts |      13676511232
 2017-02-05 19:00:02.060472+01 | 1486317602.06047 | pgbench_tellers  |           450560
 2017-02-05 19:00:02.060472+01 | 1486317602.06047 | pgbench_history  |        212213760
 2017-02-05 19:00:02.060472+01 | 1486317602.06047 | pgbench_branches |            40960

 2017-02-05 19:00:03.14443+01 | 1486317603.14443 | pgbench_accounts |      13676527616
 2017-02-05 19:00:03.14443+01 | 1486317603.14443 | pgbench_tellers  |           450560
 2017-02-05 19:00:03.14443+01 | 1486317603.14443 | pgbench_history  |        213270528
 2017-02-05 19:00:03.14443+01 | 1486317603.14443 | pgbench_branches |            40960

 2017-02-05 19:00:04.234101+01 | 1486317604.2341 | pgbench_accounts |      13676552192
 2017-02-05 19:00:04.234101+01 | 1486317604.2341 | pgbench_tellers  |           450560
 2017-02-05 19:00:04.234101+01 | 1486317604.2341 | pgbench_history  |        215015424
 2017-02-05 19:00:04.234101+01 | 1486317604.2341 | pgbench_branches |            40960

 2017-02-05 19:00:05.329989+01 | 1486317605.32999 | pgbench_accounts |      13676552192
 2017-02-05 19:00:05.329989+01 | 1486317605.32999 | pgbench_tellers  |           450560
 2017-02-05 19:00:05.329989+01 | 1486317605.32999 | pgbench_history  |        215531520
 2017-02-05 19:00:05.329989+01 | 1486317605.32999 | pgbench_branches |            40960

 2017-02-05 19:00:06.41993+01 | 1486317606.41993 | pgbench_accounts |      13676568576
 2017-02-05 19:00:06.41993+01 | 1486317606.41993 | pgbench_tellers  |           450560
 2017-02-05 19:00:06.41993+01 | 1486317606.41993 | pgbench_history  |        216399872
 2017-02-05 19:00:06.41993+01 | 1486317606.41993 | pgbench_branches |            40960

 2017-02-05 19:00:07.498707+01 | 1486317607.49871 | pgbench_accounts |      13676593152
 2017-02-05 19:00:07.498707+01 | 1486317607.49871 | pgbench_tellers  |           450560
 2017-02-05 19:00:07.498707+01 | 1486317607.49871 | pgbench_history  |        217677824
 2017-02-05 19:00:07.498707+01 | 1486317607.49871 | pgbench_branches |            40960

 2017-02-05 19:00:08.576382+01 | 1486317608.57638 | pgbench_accounts |      13676617728
 2017-02-05 19:00:08.576382+01 | 1486317608.57638 | pgbench_tellers  |           450560
 2017-02-05 19:00:08.576382+01 | 1486317608.57638 | pgbench_history  |        218554368
 2017-02-05 19:00:08.576382+01 | 1486317608.57638 | pgbench_branches |            40960

 2017-02-05 19:00:09.660986+01 | 1486317609.66099 | pgbench_accounts |      13676617728
 2017-02-05 19:00:09.660986+01 | 1486317609.66099 | pgbench_tellers  |           450560
 2017-02-05 19:00:09.660986+01 | 1486317609.66099 | pgbench_history  |        219791360
 2017-02-05 19:00:09.660986+01 | 1486317609.66099 | pgbench_branches |            40960

 2017-02-05 19:00:10.735297+01 | 1486317610.7353 | pgbench_accounts |      13676658688
 2017-02-05 19:00:10.735297+01 | 1486317610.7353 | pgbench_tellers  |           450560
 2017-02-05 19:00:10.735297+01 | 1486317610.7353 | pgbench_history  |        220995584
 2017-02-05 19:00:10.735297+01 | 1486317610.7353 | pgbench_branches |            40960

 2017-02-05 19:00:11.814186+01 | 1486317611.81419 | pgbench_accounts |      13676666880
 2017-02-05 19:00:11.814186+01 | 1486317611.81419 | pgbench_tellers  |           450560
 2017-02-05 19:00:11.814186+01 | 1486317611.81419 | pgbench_history  |        221904896
 2017-02-05 19:00:11.814186+01 | 1486317611.81419 | pgbench_branches |            40960

 2017-02-05 19:00:12.895339+01 | 1486317612.89534 | pgbench_accounts |      13676675072
 2017-02-05 19:00:12.895339+01 | 1486317612.89534 | pgbench_tellers  |           450560
 2017-02-05 19:00:12.895339+01 | 1486317612.89534 | pgbench_history  |        223297536
 2017-02-05 19:00:12.895339+01 | 1486317612.89534 | pgbench_branches |            40960

 2017-02-05 19:00:13.981429+01 | 1486317613.98143 | pgbench_accounts |      13676683264
 2017-02-05 19:00:13.981429+01 | 1486317613.98143 | pgbench_tellers  |           450560
 2017-02-05 19:00:13.981429+01 | 1486317613.98143 | pgbench_history  |        223879168
 2017-02-05 19:00:13.981429+01 | 1486317613.98143 | pgbench_branches |            40960

 2017-02-05 19:00:15.077137+01 | 1486317615.07714 | pgbench_accounts |      13676724224
 2017-02-05 19:00:15.077137+01 | 1486317615.07714 | pgbench_tellers  |           450560
 2017-02-05 19:00:15.077137+01 | 1486317615.07714 | pgbench_history  |        225148928
 2017-02-05 19:00:15.077137+01 | 1486317615.07714 | pgbench_branches |            40960

 2017-02-05 19:00:16.166863+01 | 1486317616.16686 | pgbench_accounts |      13676732416
 2017-02-05 19:00:16.166863+01 | 1486317616.16686 | pgbench_tellers  |           450560
 2017-02-05 19:00:16.166863+01 | 1486317616.16686 | pgbench_history  |        226066432
 2017-02-05 19:00:16.166863+01 | 1486317616.16686 | pgbench_branches |            40960

 2017-02-05 19:00:17.248802+01 | 1486317617.2488 | pgbench_accounts |      13676748800
 2017-02-05 19:00:17.248802+01 | 1486317617.2488 | pgbench_tellers  |           450560
 2017-02-05 19:00:17.248802+01 | 1486317617.2488 | pgbench_history  |        227139584
 2017-02-05 19:00:17.248802+01 | 1486317617.2488 | pgbench_branches |            40960

 2017-02-05 19:00:18.331377+01 | 1486317618.33138 | pgbench_accounts |      13676748800
 2017-02-05 19:00:18.331377+01 | 1486317618.33138 | pgbench_tellers  |           450560
 2017-02-05 19:00:18.331377+01 | 1486317618.33138 | pgbench_history  |        228171776
 2017-02-05 19:00:18.331377+01 | 1486317618.33138 | pgbench_branches |            40960

 2017-02-05 19:00:19.418189+01 | 1486317619.41819 | pgbench_accounts |      13676789760
 2017-02-05 19:00:19.418189+01 | 1486317619.41819 | pgbench_tellers  |           450560
 2017-02-05 19:00:19.418189+01 | 1486317619.41819 | pgbench_history  |        229556224
 2017-02-05 19:00:19.418189+01 | 1486317619.41819 | pgbench_branches |            40960

 2017-02-05 19:00:20.507104+01 | 1486317620.5071 | pgbench_accounts |      13676797952
 2017-02-05 19:00:20.507104+01 | 1486317620.5071 | pgbench_tellers  |           450560
 2017-02-05 19:00:20.507104+01 | 1486317620.5071 | pgbench_history  |        230858752
 2017-02-05 19:00:20.507104+01 | 1486317620.5071 | pgbench_branches |            40960

 2017-02-05 19:00:21.588153+01 | 1486317621.58815 | pgbench_accounts |      13676814336
 2017-02-05 19:00:21.588153+01 | 1486317621.58815 | pgbench_tellers  |           450560
 2017-02-05 19:00:21.588153+01 | 1486317621.58815 | pgbench_history  |        231407616
 2017-02-05 19:00:21.588153+01 | 1486317621.58815 | pgbench_branches |            40960

 2017-02-05 19:00:22.673728+01 | 1486317622.67373 | pgbench_accounts |      13676830720
 2017-02-05 19:00:22.673728+01 | 1486317622.67373 | pgbench_tellers  |           450560
 2017-02-05 19:00:22.673728+01 | 1486317622.67373 | pgbench_history  |        232439808
 2017-02-05 19:00:22.673728+01 | 1486317622.67373 | pgbench_branches |            40960

 2017-02-05 19:00:23.757914+01 | 1486317623.75791 | pgbench_accounts |      13676855296
 2017-02-05 19:00:23.757914+01 | 1486317623.75791 | pgbench_tellers  |           450560
 2017-02-05 19:00:23.757914+01 | 1486317623.75791 | pgbench_history  |        233701376
 2017-02-05 19:00:23.757914+01 | 1486317623.75791 | pgbench_branches |            40960

 2017-02-05 19:00:24.830573+01 | 1486317624.83057 | pgbench_accounts |      13676871680
 2017-02-05 19:00:24.830573+01 | 1486317624.83057 | pgbench_tellers  |           450560
 2017-02-05 19:00:24.830573+01 | 1486317624.83057 | pgbench_history  |        234758144
 2017-02-05 19:00:24.830573+01 | 1486317624.83057 | pgbench_branches |            40960

 2017-02-05 19:00:25.927723+01 | 1486317625.92772 | pgbench_accounts |      13676912640
 2017-02-05 19:00:25.927723+01 | 1486317625.92772 | pgbench_tellers  |           450560
 2017-02-05 19:00:25.927723+01 | 1486317625.92772 | pgbench_history  |        236134400
 2017-02-05 19:00:25.927723+01 | 1486317625.92772 | pgbench_branches |            40960

 2017-02-05 19:00:27.012599+01 | 1486317627.0126 | pgbench_accounts |      13676929024
 2017-02-05 19:00:27.012599+01 | 1486317627.0126 | pgbench_tellers  |           450560
 2017-02-05 19:00:27.012599+01 | 1486317627.0126 | pgbench_history  |        237010944
 2017-02-05 19:00:27.012599+01 | 1486317627.0126 | pgbench_branches |            40960

 2017-02-05 19:00:28.096059+01 | 1486317628.09606 | pgbench_accounts |      13676945408
 2017-02-05 19:00:28.096059+01 | 1486317628.09606 | pgbench_tellers  |           450560
 2017-02-05 19:00:28.096059+01 | 1486317628.09606 | pgbench_history  |        237903872
 2017-02-05 19:00:28.096059+01 | 1486317628.09606 | pgbench_branches |            40960

 2017-02-05 19:00:29.182874+01 | 1486317629.18287 | pgbench_accounts |      13676978176
 2017-02-05 19:00:29.182874+01 | 1486317629.18287 | pgbench_tellers  |           450560
 2017-02-05 19:00:29.182874+01 | 1486317629.18287 | pgbench_history  |        239124480
 2017-02-05 19:00:29.182874+01 | 1486317629.18287 | pgbench_branches |            40960

 2017-02-05 19:00:30.265809+01 | 1486317630.26581 | pgbench_accounts |      13676986368
 2017-02-05 19:00:30.265809+01 | 1486317630.26581 | pgbench_tellers  |           450560
 2017-02-05 19:00:30.265809+01 | 1486317630.26581 | pgbench_history  |        239869952
 2017-02-05 19:00:30.265809+01 | 1486317630.26581 | pgbench_branches |            40960

 2017-02-05 19:00:31.339704+01 | 1486317631.3397 | pgbench_accounts |      13677002752
 2017-02-05 19:00:31.339704+01 | 1486317631.3397 | pgbench_tellers  |           450560
 2017-02-05 19:00:31.339704+01 | 1486317631.3397 | pgbench_history  |        241139712
 2017-02-05 19:00:31.339704+01 | 1486317631.3397 | pgbench_branches |            40960

 2017-02-05 19:00:32.427482+01 | 1486317632.42748 | pgbench_accounts |      13677010944
 2017-02-05 19:00:32.427482+01 | 1486317632.42748 | pgbench_tellers  |           450560
 2017-02-05 19:00:32.427482+01 | 1486317632.42748 | pgbench_history  |        242376704
 2017-02-05 19:00:32.427482+01 | 1486317632.42748 | pgbench_branches |            40960

 2017-02-05 19:00:33.512948+01 | 1486317633.51295 | pgbench_accounts |      13677043712
 2017-02-05 19:00:33.512948+01 | 1486317633.51295 | pgbench_tellers  |           450560
 2017-02-05 19:00:33.512948+01 | 1486317633.51295 | pgbench_history  |        243261440
 2017-02-05 19:00:33.512948+01 | 1486317633.51295 | pgbench_branches |            40960

 2017-02-05 19:00:34.603509+01 | 1486317634.60351 | pgbench_accounts |      13677051904
 2017-02-05 19:00:34.603509+01 | 1486317634.60351 | pgbench_tellers  |           450560
 2017-02-05 19:00:34.603509+01 | 1486317634.60351 | pgbench_history  |        244482048
 2017-02-05 19:00:34.603509+01 | 1486317634.60351 | pgbench_branches |            40960

 2017-02-05 19:00:35.686498+01 | 1486317635.6865 | pgbench_accounts |      13677068288
 2017-02-05 19:00:35.686498+01 | 1486317635.6865 | pgbench_tellers  |           450560
 2017-02-05 19:00:35.686498+01 | 1486317635.6865 | pgbench_history  |        245547008
 2017-02-05 19:00:35.686498+01 | 1486317635.6865 | pgbench_branches |            40960

 2017-02-05 19:00:36.762969+01 | 1486317636.76297 | pgbench_accounts |      13677084672
 2017-02-05 19:00:36.762969+01 | 1486317636.76297 | pgbench_tellers  |           450560
 2017-02-05 19:00:36.762969+01 | 1486317636.76297 | pgbench_history  |        246595584
 2017-02-05 19:00:36.762969+01 | 1486317636.76297 | pgbench_branches |            40960

 2017-02-05 19:00:37.857176+01 | 1486317637.85718 | pgbench_accounts |      13677092864
 2017-02-05 19:00:37.857176+01 | 1486317637.85718 | pgbench_tellers  |           450560
 2017-02-05 19:00:37.857176+01 | 1486317637.85718 | pgbench_history  |        247283712
 2017-02-05 19:00:37.857176+01 | 1486317637.85718 | pgbench_branches |            40960

 2017-02-05 19:00:38.942217+01 | 1486317638.94222 | pgbench_accounts |      13677117440
 2017-02-05 19:00:38.942217+01 | 1486317638.94222 | pgbench_tellers  |           450560
 2017-02-05 19:00:38.942217+01 | 1486317638.94222 | pgbench_history  |        248684544
 2017-02-05 19:00:38.942217+01 | 1486317638.94222 | pgbench_branches |            40960

 2017-02-05 19:00:40.034256+01 | 1486317640.03426 | pgbench_accounts |      13677125632
 2017-02-05 19:00:40.034256+01 | 1486317640.03426 | pgbench_tellers  |           450560
 2017-02-05 19:00:40.034256+01 | 1486317640.03426 | pgbench_history  |        249741312
 2017-02-05 19:00:40.034256+01 | 1486317640.03426 | pgbench_branches |            40960

 2017-02-05 19:00:41.116481+01 | 1486317641.11648 | pgbench_accounts |      13677158400
 2017-02-05 19:00:41.116481+01 | 1486317641.11648 | pgbench_tellers  |           450560
 2017-02-05 19:00:41.116481+01 | 1486317641.11648 | pgbench_history  |        250626048
 2017-02-05 19:00:41.116481+01 | 1486317641.11648 | pgbench_branches |            40960

 2017-02-05 19:00:42.209931+01 | 1486317642.20993 | pgbench_accounts |      13677158400
 2017-02-05 19:00:42.209931+01 | 1486317642.20993 | pgbench_tellers  |           450560
 2017-02-05 19:00:42.209931+01 | 1486317642.20993 | pgbench_history  |        251879424
 2017-02-05 19:00:42.209931+01 | 1486317642.20993 | pgbench_branches |            40960

 2017-02-05 19:00:43.288753+01 | 1486317643.28875 | pgbench_accounts |      13677158400
 2017-02-05 19:00:43.288753+01 | 1486317643.28875 | pgbench_tellers  |           450560
 2017-02-05 19:00:43.288753+01 | 1486317643.28875 | pgbench_history  |        253075456
 2017-02-05 19:00:43.288753+01 | 1486317643.28875 | pgbench_branches |            40960

 2017-02-05 19:00:44.367562+01 | 1486317644.36756 | pgbench_accounts |      13677199360
 2017-02-05 19:00:44.367562+01 | 1486317644.36756 | pgbench_tellers  |           450560
 2017-02-05 19:00:44.367562+01 | 1486317644.36756 | pgbench_history  |        253788160
 2017-02-05 19:00:44.367562+01 | 1486317644.36756 | pgbench_branches |            40960

 2017-02-05 19:00:45.44903+01 | 1486317645.44903 | pgbench_accounts |      13677223936
 2017-02-05 19:00:45.44903+01 | 1486317645.44903 | pgbench_tellers  |           450560
 2017-02-05 19:00:45.44903+01 | 1486317645.44903 | pgbench_history  |        255524864
 2017-02-05 19:00:45.44903+01 | 1486317645.44903 | pgbench_branches |            40960

 2017-02-05 19:00:46.532925+01 | 1486317646.53292 | pgbench_accounts |      13677223936
 2017-02-05 19:00:46.532925+01 | 1486317646.53292 | pgbench_tellers  |           450560
 2017-02-05 19:00:46.532925+01 | 1486317646.53292 | pgbench_history  |        256229376
 2017-02-05 19:00:46.532925+01 | 1486317646.53292 | pgbench_branches |            40960

 2017-02-05 19:00:47.608294+01 | 1486317647.60829 | pgbench_accounts |      13677223936
 2017-02-05 19:00:47.608294+01 | 1486317647.60829 | pgbench_tellers  |           450560
 2017-02-05 19:00:47.608294+01 | 1486317647.60829 | pgbench_history  |        257073152
 2017-02-05 19:00:47.608294+01 | 1486317647.60829 | pgbench_branches |            40960

 2017-02-05 19:00:48.683029+01 | 1486317648.68303 | pgbench_accounts |      13677248512
 2017-02-05 19:00:48.683029+01 | 1486317648.68303 | pgbench_tellers  |           450560
 2017-02-05 19:00:48.683029+01 | 1486317648.68303 | pgbench_history  |        257941504
 2017-02-05 19:00:48.683029+01 | 1486317648.68303 | pgbench_branches |            40960

 2017-02-05 19:00:49.770159+01 | 1486317649.77016 | pgbench_accounts |      13677289472
 2017-02-05 19:00:49.770159+01 | 1486317649.77016 | pgbench_tellers  |           450560
 2017-02-05 19:00:49.770159+01 | 1486317649.77016 | pgbench_history  |        259407872
 2017-02-05 19:00:49.770159+01 | 1486317649.77016 | pgbench_branches |            40960

 2017-02-05 19:00:50.860418+01 | 1486317650.86042 | pgbench_accounts |      13677289472
 2017-02-05 19:00:50.860418+01 | 1486317650.86042 | pgbench_tellers  |           450560
 2017-02-05 19:00:50.860418+01 | 1486317650.86042 | pgbench_history  |        260448256
 2017-02-05 19:00:50.860418+01 | 1486317650.86042 | pgbench_branches |            40960

 2017-02-05 19:00:51.94234+01 | 1486317651.94234 | pgbench_accounts |      13677289472
 2017-02-05 19:00:51.94234+01 | 1486317651.94234 | pgbench_tellers  |           450560
 2017-02-05 19:00:51.94234+01 | 1486317651.94234 | pgbench_history  |        261464064
 2017-02-05 19:00:51.94234+01 | 1486317651.94234 | pgbench_branches |            40960

 2017-02-05 19:00:53.030163+01 | 1486317653.03016 | pgbench_accounts |      13677314048
 2017-02-05 19:00:53.030163+01 | 1486317653.03016 | pgbench_tellers  |           450560
 2017-02-05 19:00:53.030163+01 | 1486317653.03016 | pgbench_history  |        262168576
 2017-02-05 19:00:53.030163+01 | 1486317653.03016 | pgbench_branches |            40960

 2017-02-05 19:00:54.104737+01 | 1486317654.10474 | pgbench_accounts |      13677346816
 2017-02-05 19:00:54.104737+01 | 1486317654.10474 | pgbench_tellers  |           450560
 2017-02-05 19:00:54.104737+01 | 1486317654.10474 | pgbench_history  |        263094272
 2017-02-05 19:00:54.104737+01 | 1486317654.10474 | pgbench_branches |            40960

 2017-02-05 19:00:55.191427+01 | 1486317655.19143 | pgbench_accounts |      13677355008
 2017-02-05 19:00:55.191427+01 | 1486317655.19143 | pgbench_tellers  |           450560
 2017-02-05 19:00:55.191427+01 | 1486317655.19143 | pgbench_history  |        264101888
 2017-02-05 19:00:55.191427+01 | 1486317655.19143 | pgbench_branches |            40960

 2017-02-05 19:00:56.275616+01 | 1486317656.27562 | pgbench_accounts |      13677355008
 2017-02-05 19:00:56.275616+01 | 1486317656.27562 | pgbench_tellers  |           450560
 2017-02-05 19:00:56.275616+01 | 1486317656.27562 | pgbench_history  |        265322496
 2017-02-05 19:00:56.275616+01 | 1486317656.27562 | pgbench_branches |            40960

 2017-02-05 19:00:57.36398+01 | 1486317657.36398 | pgbench_accounts |      13677379584
 2017-02-05 19:00:57.36398+01 | 1486317657.36398 | pgbench_tellers  |           450560
 2017-02-05 19:00:57.36398+01 | 1486317657.36398 | pgbench_history  |        266534912
 2017-02-05 19:00:57.36398+01 | 1486317657.36398 | pgbench_branches |            40960

 2017-02-05 19:00:58.452227+01 | 1486317658.45223 | pgbench_accounts |      13677412352
 2017-02-05 19:00:58.452227+01 | 1486317658.45223 | pgbench_tellers  |           450560
 2017-02-05 19:00:58.452227+01 | 1486317658.45223 | pgbench_history  |        267411456
 2017-02-05 19:00:58.452227+01 | 1486317658.45223 | pgbench_branches |            40960

 2017-02-05 19:00:59.536709+01 | 1486317659.53671 | pgbench_accounts |      13677420544
 2017-02-05 19:00:59.536709+01 | 1486317659.53671 | pgbench_tellers  |           450560
 2017-02-05 19:00:59.536709+01 | 1486317659.53671 | pgbench_history  |        268812288
 2017-02-05 19:00:59.536709+01 | 1486317659.53671 | pgbench_branches |            40960

 2017-02-05 19:01:00.623921+01 | 1486317660.62392 | pgbench_accounts |      13677420544
 2017-02-05 19:01:00.623921+01 | 1486317660.62392 | pgbench_tellers  |           450560
 2017-02-05 19:01:00.623921+01 | 1486317660.62392 | pgbench_history  |        269672448
 2017-02-05 19:01:00.623921+01 | 1486317660.62392 | pgbench_branches |            40960

 2017-02-05 19:01:01.704139+01 | 1486317661.70414 | pgbench_accounts |      13677445120
 2017-02-05 19:01:01.704139+01 | 1486317661.70414 | pgbench_tellers  |           450560
 2017-02-05 19:01:01.704139+01 | 1486317661.70414 | pgbench_history  |        270721024
 2017-02-05 19:01:01.704139+01 | 1486317661.70414 | pgbench_branches |            40960

 2017-02-05 19:01:02.792496+01 | 1486317662.7925 | pgbench_accounts |      13677469696
 2017-02-05 19:01:02.792496+01 | 1486317662.7925 | pgbench_tellers  |           450560
 2017-02-05 19:01:02.792496+01 | 1486317662.7925 | pgbench_history  |        271753216
 2017-02-05 19:01:02.792496+01 | 1486317662.7925 | pgbench_branches |            40960

 2017-02-05 19:01:03.865136+01 | 1486317663.86514 | pgbench_accounts |      13677486080
 2017-02-05 19:01:03.865136+01 | 1486317663.86514 | pgbench_tellers  |           450560
 2017-02-05 19:01:03.865136+01 | 1486317663.86514 | pgbench_history  |        272646144
 2017-02-05 19:01:03.865136+01 | 1486317663.86514 | pgbench_branches |            40960

 2017-02-05 19:01:04.940956+01 | 1486317664.94096 | pgbench_accounts |      13677486080
 2017-02-05 19:01:04.940956+01 | 1486317664.94096 | pgbench_tellers  |           450560
 2017-02-05 19:01:04.940956+01 | 1486317664.94096 | pgbench_history  |        273539072
 2017-02-05 19:01:04.940956+01 | 1486317664.94096 | pgbench_branches |            40960

 2017-02-05 19:01:06.022741+01 | 1486317666.02274 | pgbench_accounts |      13677502464
 2017-02-05 19:01:06.022741+01 | 1486317666.02274 | pgbench_tellers  |           450560
 2017-02-05 19:01:06.022741+01 | 1486317666.02274 | pgbench_history  |        274948096
 2017-02-05 19:01:06.022741+01 | 1486317666.02274 | pgbench_branches |            40960

 2017-02-05 19:01:07.102751+01 | 1486317667.10275 | pgbench_accounts |      13677527040
 2017-02-05 19:01:07.102751+01 | 1486317667.10275 | pgbench_tellers  |           450560
 2017-02-05 19:01:07.102751+01 | 1486317667.10275 | pgbench_history  |        276152320
 2017-02-05 19:01:07.102751+01 | 1486317667.10275 | pgbench_branches |            40960

 2017-02-05 19:01:08.18253+01 | 1486317668.18253 | pgbench_accounts |      13677551616
 2017-02-05 19:01:08.18253+01 | 1486317668.18253 | pgbench_tellers  |           450560
 2017-02-05 19:01:08.18253+01 | 1486317668.18253 | pgbench_history  |        276692992
 2017-02-05 19:01:08.18253+01 | 1486317668.18253 | pgbench_branches |            40960

 2017-02-05 19:01:09.251935+01 | 1486317669.25194 | pgbench_accounts |      13677551616
 2017-02-05 19:01:09.251935+01 | 1486317669.25194 | pgbench_tellers  |           450560
 2017-02-05 19:01:09.251935+01 | 1486317669.25194 | pgbench_history  |        277725184
 2017-02-05 19:01:09.251935+01 | 1486317669.25194 | pgbench_branches |            40960

 2017-02-05 19:01:10.342237+01 | 1486317670.34224 | pgbench_accounts |      13677559808
 2017-02-05 19:01:10.342237+01 | 1486317670.34224 | pgbench_tellers  |           450560
 2017-02-05 19:01:10.342237+01 | 1486317670.34224 | pgbench_history  |        279035904
 2017-02-05 19:01:10.342237+01 | 1486317670.34224 | pgbench_branches |            40960

 2017-02-05 19:01:11.430082+01 | 1486317671.43008 | pgbench_accounts |      13677584384
 2017-02-05 19:01:11.430082+01 | 1486317671.43008 | pgbench_tellers  |           450560
 2017-02-05 19:01:11.430082+01 | 1486317671.43008 | pgbench_history  |        280051712
 2017-02-05 19:01:11.430082+01 | 1486317671.43008 | pgbench_branches |            40960

 2017-02-05 19:01:12.508517+01 | 1486317672.50852 | pgbench_accounts |      13677608960
 2017-02-05 19:01:12.508517+01 | 1486317672.50852 | pgbench_tellers  |           450560
 2017-02-05 19:01:12.508517+01 | 1486317672.50852 | pgbench_history  |        281116672
 2017-02-05 19:01:12.508517+01 | 1486317672.50852 | pgbench_branches |            40960

 2017-02-05 19:01:13.582466+01 | 1486317673.58247 | pgbench_accounts |      13677617152
 2017-02-05 19:01:13.582466+01 | 1486317673.58247 | pgbench_tellers  |           450560
 2017-02-05 19:01:13.582466+01 | 1486317673.58247 | pgbench_history  |        281796608
 2017-02-05 19:01:13.582466+01 | 1486317673.58247 | pgbench_branches |            40960

 2017-02-05 19:01:14.662818+01 | 1486317674.66282 | pgbench_accounts |      13677641728
 2017-02-05 19:01:14.662818+01 | 1486317674.66282 | pgbench_tellers  |           450560
 2017-02-05 19:01:14.662818+01 | 1486317674.66282 | pgbench_history  |        282992640
 2017-02-05 19:01:14.662818+01 | 1486317674.66282 | pgbench_branches |            40960

 2017-02-05 19:01:15.73774+01 | 1486317675.73774 | pgbench_accounts |      13677649920
 2017-02-05 19:01:15.73774+01 | 1486317675.73774 | pgbench_tellers  |           450560
 2017-02-05 19:01:15.73774+01 | 1486317675.73774 | pgbench_history  |        283893760
 2017-02-05 19:01:15.73774+01 | 1486317675.73774 | pgbench_branches |            40960

 2017-02-05 19:01:16.801828+01 | 1486317676.80183 | pgbench_accounts |      13677666304
 2017-02-05 19:01:16.801828+01 | 1486317676.80183 | pgbench_tellers  |           450560
 2017-02-05 19:01:16.801828+01 | 1486317676.80183 | pgbench_history  |        284950528
 2017-02-05 19:01:16.801828+01 | 1486317676.80183 | pgbench_branches |            40960

 2017-02-05 19:01:17.883064+01 | 1486317677.88306 | pgbench_accounts |      13677666304
 2017-02-05 19:01:17.883064+01 | 1486317677.88306 | pgbench_tellers  |           450560
 2017-02-05 19:01:17.883064+01 | 1486317677.88306 | pgbench_history  |        286023680
 2017-02-05 19:01:17.883064+01 | 1486317677.88306 | pgbench_branches |            40960

 2017-02-05 19:01:18.966568+01 | 1486317678.96657 | pgbench_accounts |      13677666304
 2017-02-05 19:01:18.966568+01 | 1486317678.96657 | pgbench_tellers  |           450560
 2017-02-05 19:01:18.966568+01 | 1486317678.96657 | pgbench_history  |        287236096
 2017-02-05 19:01:18.966568+01 | 1486317678.96657 | pgbench_branches |            40960

 2017-02-05 19:01:20.044396+01 | 1486317680.0444 | pgbench_accounts |      13677666304
 2017-02-05 19:01:20.044396+01 | 1486317680.0444 | pgbench_tellers  |           450560
 2017-02-05 19:01:20.044396+01 | 1486317680.0444 | pgbench_history  |        288317440
 2017-02-05 19:01:20.044396+01 | 1486317680.0444 | pgbench_branches |            40960

