 2017-02-05 03:12:57.013513+01 | 1486260777.01351 | 37/E06F87D0              |          239988606928

 2017-02-05 03:12:58.116218+01 | 1486260778.11622 | 37/F675A020              |          240358105120

 2017-02-05 03:12:59.210627+01 | 1486260779.21063 | 38/B00FFD8               |          240702783448

 2017-02-05 03:13:00.316574+01 | 1486260780.31657 | 38/1EBEFAB0              |          241034001072

 2017-02-05 03:13:01.410921+01 | 1486260781.41092 | 38/315D1210              |          241346351632

 2017-02-05 03:13:02.501855+01 | 1486260782.50185 | 38/41954408              |          241618469896

 2017-02-05 03:13:03.593927+01 | 1486260783.59393 | 38/504A4940              |          241865214272

 2017-02-05 03:13:04.673329+01 | 1486260784.67333 | 38/5D13E540              |          242079753536

 2017-02-05 03:13:05.778428+01 | 1486260785.77843 | 38/69C51430              |          242292692016

 2017-02-05 03:13:06.863228+01 | 1486260786.86323 | 38/74F9ED28              |          242480704808

 2017-02-05 03:13:07.941059+01 | 1486260787.94106 | 38/7E5F76F8              |          242638354168

 2017-02-05 03:13:09.034495+01 | 1486260789.0345 | 38/883B2BC8              |          242803747784

 2017-02-05 03:13:10.107777+01 | 1486260790.10778 | 38/914CF050              |          242955907152

 2017-02-05 03:13:11.212987+01 | 1486260791.21299 | 38/9C4AB008              |          243140309000

 2017-02-05 03:13:12.297823+01 | 1486260792.29782 | 38/A5EA6BD8              |          243301772248

 2017-02-05 03:13:13.382859+01 | 1486260793.38286 | 38/AF845898              |          243462854808

 2017-02-05 03:13:14.481749+01 | 1486260794.48175 | 38/BADEDD88              |          243653336456

 2017-02-05 03:13:15.558892+01 | 1486260795.55889 | 38/C4732430              |          243814048816

 2017-02-05 03:13:16.650346+01 | 1486260796.65035 | 38/CDE71898              |          243972642968

 2017-02-05 03:13:17.757804+01 | 1486260797.7578 | 38/D7D524F0              |          244139238640

 2017-02-05 03:13:18.857275+01 | 1486260798.85728 | 38/E121D168              |          244295258472

 2017-02-05 03:13:19.947069+01 | 1486260799.94707 | 38/EA09C6C8              |          244444677832

 2017-02-05 03:13:21.030731+01 | 1486260801.03073 | 38/F2FB87A8              |          244594739112

 2017-02-05 03:13:22.121581+01 | 1486260802.12158 | 38/F9DC86A8              |          244710147752

 2017-02-05 03:13:23.19028+01 | 1486260803.19028 | 39/3B7998                |          244817033624

 2017-02-05 03:13:24.27837+01 | 1486260804.27837 | 39/65791F0               |          244919538160

 2017-02-05 03:13:25.347243+01 | 1486260805.34724 | 39/D42B530               |          245035611440

 2017-02-05 03:13:26.415367+01 | 1486260806.41537 | 39/13B5E368              |          245143823208

 2017-02-05 03:13:27.479087+01 | 1486260807.47909 | 39/1B63DBA0              |          245272664992

 2017-02-05 03:13:28.572735+01 | 1486260808.57274 | 39/22E4BB68              |          245398551400

 2017-02-05 03:13:29.656545+01 | 1486260809.65654 | 39/2AD98F98              |          245532037016

 2017-02-05 03:13:30.73308+01 | 1486260810.73308 | 39/3251F238              |          245657367096

 2017-02-05 03:13:31.826867+01 | 1486260811.82687 | 39/3969F468              |          245776381032

 2017-02-05 03:13:32.906208+01 | 1486260812.90621 | 39/40D167B8              |          245900618112

 2017-02-05 03:13:33.996151+01 | 1486260813.99615 | 39/478EEE68              |          246013685352

 2017-02-05 03:13:35.08539+01 | 1486260815.08539 | 39/4ECE96E0              |          246135297760

 2017-02-05 03:13:36.180891+01 | 1486260816.18089 | 39/555EBB00              |          246245407488

 2017-02-05 03:13:37.293066+01 | 1486260817.29307 | 39/5CDE5C18              |          246371212312

 2017-02-05 03:13:38.372043+01 | 1486260818.37204 | 39/63BD5D98              |          246486490520

 2017-02-05 03:13:39.463427+01 | 1486260819.46343 | 39/6A17E640              |          246593087040

 2017-02-05 03:13:40.563227+01 | 1486260820.56323 | 39/71265488              |          246711473288

 2017-02-05 03:13:41.6403+01 | 1486260821.6403 | 39/7703F838              |          246809884728

 2017-02-05 03:13:42.764043+01 | 1486260822.76404 | 39/7E02B208              |          246927241736

 2017-02-05 03:13:43.850292+01 | 1486260823.85029 | 39/844E5B80              |          247032863616

 2017-02-05 03:13:44.953835+01 | 1486260824.95384 | 39/8AA1AD30              |          247138987312

 2017-02-05 03:13:46.036151+01 | 1486260826.03615 | 39/915011F8              |          247251079672

 2017-02-05 03:13:47.116817+01 | 1486260827.11682 | 39/9742DBC0              |          247350877120

 2017-02-05 03:13:48.205779+01 | 1486260828.20578 | 39/9D718D20              |          247454600480

 2017-02-05 03:13:49.282347+01 | 1486260829.28235 | 39/A37A22C8              |          247555826376

 2017-02-05 03:13:50.383315+01 | 1486260830.38332 | 39/A9368F80              |          247652061056

 2017-02-05 03:13:51.47746+01 | 1486260831.47746 | 39/AF4691C0              |          247753773504

 2017-02-05 03:13:52.549112+01 | 1486260832.54911 | 39/B3BEFF08              |          247828774664

 2017-02-05 03:13:53.616916+01 | 1486260833.61692 | 39/B9106248              |          247917994568

 2017-02-05 03:13:54.724971+01 | 1486260834.72497 | 39/BDBABD10              |          247996267792

 2017-02-05 03:13:55.819877+01 | 1486260835.81988 | 39/C2863428              |          248076710952

 2017-02-05 03:13:56.887881+01 | 1486260836.88788 | 39/C6866B48              |          248143833928

 2017-02-05 03:13:57.982392+01 | 1486260837.98239 | 39/CB35E620              |          248222443040

 2017-02-05 03:13:59.047221+01 | 1486260839.04722 | 39/CEAD5460              |          248280601696

 2017-02-05 03:14:00.131323+01 | 1486260840.13132 | 39/D34A1A38              |          248357984824

 2017-02-05 03:14:01.201433+01 | 1486260841.20143 | 39/D6F5CB60              |          248419568480

 2017-02-05 03:14:02.285442+01 | 1486260842.28544 | 39/DBA4AD28              |          248498138408

 2017-02-05 03:14:03.361045+01 | 1486260843.36104 | 39/E05FACB0              |          248577502384

 2017-02-05 03:14:04.43573+01 | 1486260844.43573 | 39/E56B9688              |          248662169224

 2017-02-05 03:14:05.536442+01 | 1486260845.53644 | 39/E9D213A0              |          248735994784

 2017-02-05 03:14:06.631642+01 | 1486260846.63164 | 39/EEBCE9F0              |          248818493936

 2017-02-05 03:14:07.722387+01 | 1486260847.72239 | 39/F3F074D8              |          248905757912

 2017-02-05 03:14:08.803822+01 | 1486260848.80382 | 39/F8D417E0              |          248987785184

 2017-02-05 03:14:09.900325+01 | 1486260849.90033 | 39/FD958118              |          249067569432

 2017-02-05 03:14:10.996716+01 | 1486260850.99672 | 3A/2DC2ED0               |          249156087504

 2017-02-05 03:14:12.063558+01 | 1486260852.06356 | 3A/745CE68               |          249230118504

 2017-02-05 03:14:13.149752+01 | 1486260853.14975 | 3A/BE5AC00               |          249307704320

 2017-02-05 03:14:14.226868+01 | 1486260854.22687 | 3A/102CAD78              |          249379466616

 2017-02-05 03:14:15.314101+01 | 1486260855.3141 | 3A/14C0A910              |          249456273680

 2017-02-05 03:14:16.39201+01 | 1486260856.39201 | 3A/18B98470              |          249522914416

 2017-02-05 03:14:17.497552+01 | 1486260857.49755 | 3A/1D6B0CE0              |          249601658080

 2017-02-05 03:14:18.565814+01 | 1486260858.56581 | 3A/215D6D10              |          249667874064

 2017-02-05 03:14:19.66634+01 | 1486260859.66634 | 3A/25FDEA08              |          249745500680

 2017-02-05 03:14:20.763778+01 | 1486260860.76378 | 3A/29E9A540              |          249811281216

 2017-02-05 03:14:21.852086+01 | 1486260861.85209 | 3A/2D4DDEE8              |          249868181224

 2017-02-05 03:14:22.959048+01 | 1486260862.95905 | 3A/30C93268              |          249926595176

 2017-02-05 03:14:24.037282+01 | 1486260864.03728 | 3A/33872270              |          249972597360

 2017-02-05 03:14:25.132606+01 | 1486260865.13261 | 3A/36DDFBE8              |          250028620776

 2017-02-05 03:14:26.215079+01 | 1486260866.21508 | 3A/39B927F8              |          250076538872

 2017-02-05 03:14:27.306677+01 | 1486260867.30668 | 3A/3D4141A0              |          250135789984

 2017-02-05 03:14:28.378128+01 | 1486260868.37813 | 3A/4017DC60              |          250183408736

 2017-02-05 03:14:29.458996+01 | 1486260869.459 | 3A/43334358              |          250235536216

 2017-02-05 03:14:30.539141+01 | 1486260870.53914 | 3A/46A1E5E0              |          250293118432

 2017-02-05 03:14:31.62224+01 | 1486260871.62224 | 3A/4A99DC30              |          250359700528

 2017-02-05 03:14:32.72531+01 | 1486260872.72531 | 3A/4EA9F980              |          250427865472

 2017-02-05 03:14:33.822092+01 | 1486260873.82209 | 3A/52F3D140              |          250499813696

 2017-02-05 03:14:34.912252+01 | 1486260874.91225 | 3A/56D86830              |          250565126192

 2017-02-05 03:14:36.001127+01 | 1486260876.00113 | 3A/5A32BB00              |          250621377280

 2017-02-05 03:14:37.097816+01 | 1486260877.09782 | 3A/5E46B290              |          250689794704

 2017-02-05 03:14:38.188982+01 | 1486260878.18898 | 3A/61C8C6F0              |          250748651248

 2017-02-05 03:14:39.258773+01 | 1486260879.25877 | 3A/656F7910              |          250809907472

 2017-02-05 03:14:40.348955+01 | 1486260880.34895 | 3A/690B4AA0              |          250870450848

 2017-02-05 03:14:41.424785+01 | 1486260881.42478 | 3A/6C763E60              |          250927791712

 2017-02-05 03:14:42.510067+01 | 1486260882.51007 | 3A/6FDD6318              |          250984882968

 2017-02-05 03:14:43.601831+01 | 1486260883.60183 | 3A/7376BC78              |          251045264504

 2017-02-05 03:14:44.699437+01 | 1486260884.69944 | 3A/76BD0E48              |          251100204616

 2017-02-05 03:14:45.803639+01 | 1486260885.80364 | 3A/7A7E1B20              |          251163188000

 2017-02-05 03:14:46.878493+01 | 1486260886.87849 | 3A/7DB0BD00              |          251216837888

 2017-02-05 03:14:47.98701+01 | 1486260887.98701 | 3A/81A504D0              |          251283178704

 2017-02-05 03:14:49.062303+01 | 1486260889.0623 | 3A/85280688              |          251342096008

 2017-02-05 03:14:50.137636+01 | 1486260890.13764 | 3A/88A712B0              |          251400753840

 2017-02-05 03:14:51.231854+01 | 1486260891.23185 | 3A/8BCE3E10              |          251453652496

 2017-02-05 03:14:52.319394+01 | 1486260892.31939 | 3A/8E75B840              |          251498182720

 2017-02-05 03:14:53.38501+01 | 1486260893.38501 | 3A/90B7ED08              |          251536076040

 2017-02-05 03:14:54.46202+01 | 1486260894.46202 | 3A/93374518              |          251577976088

 2017-02-05 03:14:55.544108+01 | 1486260895.54411 | 3A/9550D058              |          251613204568

 2017-02-05 03:14:56.63698+01 | 1486260896.63698 | 3A/97E90D30              |          251656736048

 2017-02-05 03:14:57.715927+01 | 1486260897.71593 | 3A/9A487428              |          251696542760

 2017-02-05 03:14:58.79531+01 | 1486260898.79531 | 3A/9C70E0C0              |          251732746432

 2017-02-05 03:14:59.889296+01 | 1486260899.8893 | 3A/9EC85D08              |          251772034312

 2017-02-05 03:15:00.993701+01 | 1486260900.9937 | 3A/A12B1630              |          251812058672

 2017-02-05 03:15:02.093152+01 | 1486260902.09315 | 3A/A39707C0              |          251852687296

 2017-02-05 03:15:03.179117+01 | 1486260903.17912 | 3A/A5D355F0              |          251890193904

 2017-02-05 03:15:04.297759+01 | 1486260904.29776 | 3A/A8282720              |          251929306912

 2017-02-05 03:15:05.399583+01 | 1486260905.39958 | 3A/AB19DB30              |          251978701616

 2017-02-05 03:15:06.479209+01 | 1486260906.47921 | 3A/ADB6A2F8              |          252022530808

 2017-02-05 03:15:07.577903+01 | 1486260907.5779 | 3A/B08EF8B0              |          252070262960

 2017-02-05 03:15:08.68565+01 | 1486260908.68565 | 3A/B3927930              |          252120824112

 2017-02-05 03:15:09.757161+01 | 1486260909.75716 | 3A/B6504190              |          252166816144

 2017-02-05 03:15:10.861531+01 | 1486260910.86153 | 3A/B943B4C8              |          252216325320

 2017-02-05 03:15:11.958674+01 | 1486260911.95867 | 3A/BBF94E08              |          252261781000

 2017-02-05 03:15:13.069205+01 | 1486260913.06921 | 3A/BF01B980              |          252312664448

 2017-02-05 03:15:14.147949+01 | 1486260914.14795 | 3A/C1ACDB58              |          252357434200

 2017-02-05 03:15:15.216434+01 | 1486260915.21643 | 3A/C3D01630              |          252393297456

 2017-02-05 03:15:16.280601+01 | 1486260916.2806 | 3A/C5D764B8              |          252427330744

 2017-02-05 03:15:17.378032+01 | 1486260917.37803 | 3A/C7F8A618              |          252463064600

 2017-02-05 03:15:18.455009+01 | 1486260918.45501 | 3A/C9DC75C0              |          252494771648

 2017-02-05 03:15:19.553953+01 | 1486260919.55395 | 3A/CBE5F578              |          252528948600

 2017-02-05 03:15:20.653322+01 | 1486260920.65332 | 3A/CDEC07F0              |          252562900976

 2017-02-05 03:15:21.749598+01 | 1486260921.7496 | 3A/D006D8D8              |          252598212824

 2017-02-05 03:15:22.828887+01 | 1486260922.82889 | 3A/D2186AF0              |          252632918768

 2017-02-05 03:15:23.930916+01 | 1486260923.93092 | 3A/D3F830B8              |          252664361144

 2017-02-05 03:15:25.04094+01 | 1486260925.04094 | 3A/D62E2460              |          252701451360

 2017-02-05 03:15:26.137613+01 | 1486260926.13761 | 3A/D8275120              |          252734558496

 2017-02-05 03:15:27.239674+01 | 1486260927.23967 | 3A/DA9E9540              |          252775929152

 2017-02-05 03:15:28.322054+01 | 1486260928.32205 | 3A/DD33F4C0              |          252819272896

 2017-02-05 03:15:29.404815+01 | 1486260929.40481 | 3A/DF800590              |          252857812368

 2017-02-05 03:15:30.501201+01 | 1486260930.5012 | 3A/E1E10510              |          252897723664

 2017-02-05 03:15:31.587983+01 | 1486260931.58798 | 3A/E43F1D60              |          252937444704

 2017-02-05 03:15:32.672884+01 | 1486260932.67288 | 3A/E6B07B78              |          252978428792

 2017-02-05 03:15:33.742988+01 | 1486260933.74299 | 3A/E8E71E68              |          253015563880

 2017-02-05 03:15:34.830892+01 | 1486260934.83089 | 3A/EB1FF7C0              |          253052844752

 2017-02-05 03:15:35.927892+01 | 1486260935.92789 | 3A/ED58A3C0              |          253090112448

 2017-02-05 03:15:37.019264+01 | 1486260937.01926 | 3A/EFB79840              |          253129889856

 2017-02-05 03:15:38.091228+01 | 1486260938.09123 | 3A/F1FA6140              |          253167821120

 2017-02-05 03:15:39.176083+01 | 1486260939.17608 | 3A/F3FE4D28              |          253201632552

 2017-02-05 03:15:40.282937+01 | 1486260940.28294 | 3A/F6410458              |          253239559256

 2017-02-05 03:15:41.379257+01 | 1486260941.37926 | 3A/F8547680              |          253274388096

 2017-02-05 03:15:42.494111+01 | 1486260942.49411 | 3A/FA9C7860              |          253312661600

 2017-02-05 03:15:43.576991+01 | 1486260943.57699 | 3A/FCB031B8              |          253347508664

 2017-02-05 03:15:44.658513+01 | 1486260944.65851 | 3A/FE9EA4B8              |          253379912888

 2017-02-05 03:15:45.750085+01 | 1486260945.75009 | 3B/AD2990                |          253414418832

 2017-02-05 03:15:46.842461+01 | 1486260946.84246 | 3B/2BBC638               |          253448930872

 2017-02-05 03:15:47.942589+01 | 1486260947.94259 | 3B/4C17D28               |          253482859816

 2017-02-05 03:15:49.01893+01 | 1486260949.01893 | 3B/640FDC0               |          253507993024

 2017-02-05 03:15:50.116898+01 | 1486260950.1169 | 3B/7E16A68               |          253535283816

 2017-02-05 03:15:51.180206+01 | 1486260951.18021 | 3B/97BBCF8               |          253562174712

 2017-02-05 03:15:52.252737+01 | 1486260952.25274 | 3B/B06CEB0               |          253588065968

 2017-02-05 03:15:53.327004+01 | 1486260953.327 | 3B/C8B5528               |          253613528360

 2017-02-05 03:15:54.417959+01 | 1486260954.41796 | 3B/E22A860               |          253640222816

 2017-02-05 03:15:55.493311+01 | 1486260955.49331 | 3B/FA1D608               |          253665334792

 2017-02-05 03:15:56.573748+01 | 1486260956.57375 | 3B/11325C50              |          253691583568

 2017-02-05 03:15:57.654318+01 | 1486260957.65432 | 3B/12C8A350              |          253718209360

 2017-02-05 03:15:58.726827+01 | 1486260958.72683 | 3B/1453A6A0              |          253744096928

 2017-02-05 03:15:59.810189+01 | 1486260959.81019 | 3B/16219E00              |          253774372352

 2017-02-05 03:16:00.908746+01 | 1486260960.90875 | 3B/17D98980              |          253803202944

 2017-02-05 03:16:02.003779+01 | 1486260962.00378 | 3B/19D3B3B8              |          253836374968

 2017-02-05 03:16:03.096292+01 | 1486260963.09629 | 3B/1BA72B90              |          253867010960

 2017-02-05 03:16:04.191578+01 | 1486260964.19158 | 3B/1D94A240              |          253899350592

 2017-02-05 03:16:05.290561+01 | 1486260965.29056 | 3B/1F6F4BF0              |          253930458096

 2017-02-05 03:16:06.391332+01 | 1486260966.39133 | 3B/21460E38              |          253961309752

 2017-02-05 03:16:07.48614+01 | 1486260967.48614 | 3B/23197EB0              |          253991943856

 2017-02-05 03:16:08.588013+01 | 1486260968.58801 | 3B/24D82E80              |          254021217920

 2017-02-05 03:16:09.689794+01 | 1486260969.68979 | 3B/2698C728              |          254050617128

 2017-02-05 03:16:10.780574+01 | 1486260970.78057 | 3B/28594328              |          254080009000

 2017-02-05 03:16:11.87404+01 | 1486260971.87404 | 3B/2A033880              |          254107924608

 2017-02-05 03:16:12.962958+01 | 1486260972.96296 | 3B/2BD87578              |          254138676600

 2017-02-05 03:16:14.041868+01 | 1486260974.04187 | 3B/2D8B7F40              |          254167187264

 2017-02-05 03:16:15.118441+01 | 1486260975.11844 | 3B/2F390A60              |          254195337824

 2017-02-05 03:16:16.195778+01 | 1486260976.19578 | 3B/30F44AD8              |          254224386776

 2017-02-05 03:16:17.276617+01 | 1486260977.27662 | 3B/328B42D8              |          254251057880

 2017-02-05 03:16:18.372407+01 | 1486260978.37241 | 3B/342F4668              |          254278583912

 2017-02-05 03:16:19.468357+01 | 1486260979.46836 | 3B/35ADDE00              |          254303657472

 2017-02-05 03:16:20.567589+01 | 1486260980.56759 | 3B/37442E48              |          254330285640

 2017-02-05 03:16:21.671892+01 | 1486260981.67189 | 3B/38CF69F8              |          254356187640

 2017-02-05 03:16:22.756751+01 | 1486260982.75675 | 3B/3A7C3870              |          254384289904

 2017-02-05 03:16:23.852876+01 | 1486260983.85288 | 3B/3BFE93D8              |          254409610200

 2017-02-05 03:16:24.936386+01 | 1486260984.93639 | 3B/3D56D238              |          254432170552

 2017-02-05 03:16:26.020749+01 | 1486260986.02075 | 3B/3EF072C8              |          254459015880

 2017-02-05 03:16:27.089345+01 | 1486260987.08934 | 3B/405BBFB0              |          254482825136

 2017-02-05 03:16:28.186093+01 | 1486260988.18609 | 3B/41D5D668              |          254507603560

 2017-02-05 03:16:29.277883+01 | 1486260989.27788 | 3B/4347D3F8              |          254531851256

 2017-02-05 03:16:30.369831+01 | 1486260990.36983 | 3B/44AF81A0              |          254555423136

 2017-02-05 03:16:31.458424+01 | 1486260991.45842 | 3B/461A85D0              |          254579213776

 2017-02-05 03:16:32.526713+01 | 1486260992.52671 | 3B/477B6CB8              |          254602341560

 2017-02-05 03:16:33.621508+01 | 1486260993.62151 | 3B/48D98138              |          254625284408

 2017-02-05 03:16:34.724088+01 | 1486260994.72409 | 3B/4A3B6090              |          254648475792

 2017-02-05 03:16:35.821941+01 | 1486260995.82194 | 3B/4BAE86F0              |          254672799472

 2017-02-05 03:16:36.909451+01 | 1486260996.90945 | 3B/4D0A98B0              |          254695610544

 2017-02-05 03:16:37.986435+01 | 1486260997.98643 | 3B/4E591548              |          254717531464

 2017-02-05 03:16:39.07485+01 | 1486260999.07485 | 3B/4FA74F88              |          254739435400

 2017-02-05 03:16:40.159924+01 | 1486261000.15992 | 3B/50E14000              |          254760009728

 2017-02-05 03:16:41.255171+01 | 1486261001.25517 | 3B/52400648              |          254782998088

 2017-02-05 03:16:42.358634+01 | 1486261002.35863 | 3B/5380C5B8              |          254804018616

 2017-02-05 03:16:43.465893+01 | 1486261003.46589 | 3B/54DDACD0              |          254826884304

 2017-02-05 03:16:44.574003+01 | 1486261004.574 | 3B/5628E388              |          254848590728

 2017-02-05 03:16:45.668278+01 | 1486261005.66828 | 3B/57849240              |          254871376448

 2017-02-05 03:16:46.74659+01 | 1486261006.74659 | 3B/58CF9D10              |          254893071632

 2017-02-05 03:16:47.813004+01 | 1486261007.813 | 3B/5A14AC20              |          254914374688

 2017-02-05 03:16:48.894193+01 | 1486261008.89419 | 3B/5B51DAA0              |          254935161504

 2017-02-05 03:16:49.979903+01 | 1486261009.9799 | 3B/5C846C30              |          254955252784

 2017-02-05 03:16:51.073583+01 | 1486261011.07358 | 3B/5DC41400              |          254976201728

 2017-02-05 03:16:52.167742+01 | 1486261012.16774 | 3B/5F0B6788              |          254997653384

 2017-02-05 03:16:53.260302+01 | 1486261013.2603 | 3B/60374BB0              |          255017307056

 2017-02-05 03:16:54.352444+01 | 1486261014.35244 | 3B/616893A8              |          255037313960

 2017-02-05 03:16:55.454577+01 | 1486261015.45458 | 3B/62B1C550              |          255058888016

 2017-02-05 03:16:56.532237+01 | 1486261016.53224 | 3B/63CCE3D8              |          255077442520

 2017-02-05 03:16:57.629585+01 | 1486261017.62959 | 3B/65138878              |          255098849400

 2017-02-05 03:16:58.722354+01 | 1486261018.72235 | 3B/662ED9D8              |          255117416920

 2017-02-05 03:16:59.816193+01 | 1486261019.81619 | 3B/675AE068              |          255137079400

 2017-02-05 03:17:00.913082+01 | 1486261020.91308 | 3B/6887C2E8              |          255156798184

 2017-02-05 03:17:02.010762+01 | 1486261022.01076 | 3B/69AF32F8              |          255176159992

 2017-02-05 03:17:03.102302+01 | 1486261023.1023 | 3B/6AB8FBC0              |          255193578432

 2017-02-05 03:17:04.198244+01 | 1486261024.19824 | 3B/6BE924D0              |          255213511888

 2017-02-05 03:17:05.293404+01 | 1486261025.2934 | 3B/6D119898              |          255232940184

 2017-02-05 03:17:06.389028+01 | 1486261026.38903 | 3B/6E3391B8              |          255251943864

 2017-02-05 03:17:07.491076+01 | 1486261027.49108 | 3B/6F4A3F50              |          255270207312

 2017-02-05 03:17:08.600559+01 | 1486261028.60056 | 3B/70386178              |          255285813624

 2017-02-05 03:17:09.695696+01 | 1486261029.6957 | 3B/70FF6D20              |          255298858272

 2017-02-05 03:17:10.804877+01 | 1486261030.80488 | 3B/71D0D648              |          255312582216

 2017-02-05 03:17:11.902575+01 | 1486261031.90258 | 3B/72949430              |          255325410352

 2017-02-05 03:17:13.006452+01 | 1486261033.00645 | 3B/7376D240              |          255340237376

 2017-02-05 03:17:14.091767+01 | 1486261034.09177 | 3B/7431F738              |          255352502072

 2017-02-05 03:17:15.2028+01 | 1486261035.2028 | 3B/752AC9F0              |          255368808944

 2017-02-05 03:17:16.272617+01 | 1486261036.27262 | 3B/75F76988              |          255382219144

 2017-02-05 03:17:17.339687+01 | 1486261037.33969 | 3B/76E247E8              |          255397611496

 2017-02-05 03:17:18.429976+01 | 1486261038.42998 | 3B/77DAF920              |          255413909792

 2017-02-05 03:17:19.529905+01 | 1486261039.52991 | 3B/78E78250              |          255431508560

 2017-02-05 03:17:20.609873+01 | 1486261040.60987 | 3B/79E84938              |          255448336696

 2017-02-05 03:17:21.688594+01 | 1486261041.68859 | 3B/7AE69488              |          255465002120

 2017-02-05 03:17:22.784927+01 | 1486261042.78493 | 3B/7BD9D030              |          255480942640

 2017-02-05 03:17:23.886284+01 | 1486261043.88628 | 3B/7CDF6758              |          255498086232

 2017-02-05 03:17:24.978382+01 | 1486261044.97838 | 3B/7DCFED60              |          255513849184

 2017-02-05 03:17:26.076045+01 | 1486261046.07605 | 3B/7ED7D8D0              |          255531145424

 2017-02-05 03:17:27.165227+01 | 1486261047.16523 | 3B/7FCEED50              |          255547338064

 2017-02-05 03:17:28.257594+01 | 1486261048.25759 | 3B/80D515F0              |          255564518896

 2017-02-05 03:17:29.348184+01 | 1486261049.34818 | 3B/81C961D8              |          255580529112

 2017-02-05 03:17:30.440069+01 | 1486261050.44007 | 3B/82B6ED48              |          255596096840

 2017-02-05 03:17:31.535858+01 | 1486261051.53586 | 3B/83C37448              |          255613695048

 2017-02-05 03:17:32.613164+01 | 1486261052.61316 | 3B/84AD3D40              |          255629016384

 2017-02-05 03:17:33.710714+01 | 1486261053.71071 | 3B/859DF438              |          255644791864

 2017-02-05 03:17:34.784037+01 | 1486261054.78404 | 3B/868BE990              |          255660386704

 2017-02-05 03:17:35.874082+01 | 1486261055.87408 | 3B/87701F08              |          255675342600

 2017-02-05 03:17:36.969649+01 | 1486261056.96965 | 3B/885BA5A8              |          255690778024

 2017-02-05 03:17:38.059974+01 | 1486261058.05997 | 3B/892CE150              |          255704490320

 2017-02-05 03:17:39.164276+01 | 1486261059.16428 | 3B/89E0AC10              |          255716273168

 2017-02-05 03:17:40.262241+01 | 1486261060.26224 | 3B/8A8E5430              |          255727653936

 2017-02-05 03:17:41.365427+01 | 1486261061.36543 | 3B/8B55ABF0              |          255740718064

 2017-02-05 03:17:42.433114+01 | 1486261062.43311 | 3B/8C04F228              |          255752204840

 2017-02-05 03:17:43.522348+01 | 1486261063.52235 | 3B/8C9F4048              |          255762317384

 2017-02-05 03:17:44.631129+01 | 1486261064.63113 | 3B/8D4ED698              |          255773824664

 2017-02-05 03:17:45.754383+01 | 1486261065.75438 | 3B/8E103A60              |          255786498656

 2017-02-05 03:17:46.847993+01 | 1486261066.84799 | 3B/8EE06510              |          255800141072

 2017-02-05 03:17:47.942776+01 | 1486261067.94278 | 3B/8FBF78E8              |          255814760680

 2017-02-05 03:17:49.027588+01 | 1486261069.02759 | 3B/908A3620              |          255828047392

 2017-02-05 03:17:50.11853+01 | 1486261070.11853 | 3B/916384E0              |          255842288864

 2017-02-05 03:17:51.217359+01 | 1486261071.21736 | 3B/92431718              |          255856940824

 2017-02-05 03:17:52.314506+01 | 1486261072.31451 | 3B/93147D00              |          255870663936

 2017-02-05 03:17:53.413452+01 | 1486261073.41345 | 3B/93F2A758              |          255885223768

 2017-02-05 03:17:54.512906+01 | 1486261074.51291 | 3B/94C22498              |          255898821784

 2017-02-05 03:17:55.607094+01 | 1486261075.60709 | 3B/95830250              |          255911461456

 2017-02-05 03:17:56.712412+01 | 1486261076.71241 | 3B/96553070              |          255925235824

