 2017-02-06 03:56:18.470505+01 | 1486349778.4705 | 3/1B46060                |           12913500256

 2017-02-06 03:56:19.561159+01 | 1486349779.56116 | 3/1B46098                |           12913500312

 2017-02-06 03:56:20.652326+01 | 1486349780.65233 | 3/1B46098                |           12913500312

 2017-02-06 03:56:21.749376+01 | 1486349781.74938 | 3/1B46098                |           12913500312

 2017-02-06 03:56:22.85301+01 | 1486349782.85301 | 3/1B46098                |           12913500312

 2017-02-06 03:56:23.950206+01 | 1486349783.95021 | 3/1B46098                |           12913500312

 2017-02-06 03:56:25.041395+01 | 1486349785.04139 | 3/1B46098                |           12913500312

 2017-02-06 03:56:26.13451+01 | 1486349786.13451 | 3/1B46098                |           12913500312

 2017-02-06 03:56:27.228526+01 | 1486349787.22853 | 3/1B46098                |           12913500312

 2017-02-06 03:56:28.324575+01 | 1486349788.32457 | 3/1B46098                |           12913500312

 2017-02-06 03:56:29.417767+01 | 1486349789.41777 | 3/1B46098                |           12913500312

 2017-02-06 03:56:30.509033+01 | 1486349790.50903 | 3/1B46098                |           12913500312

 2017-02-06 03:56:31.593353+01 | 1486349791.59335 | 3/1B46098                |           12913500312

 2017-02-06 03:56:32.682858+01 | 1486349792.68286 | 3/1B46098                |           12913500312

 2017-02-06 03:56:33.775971+01 | 1486349793.77597 | 3/1B46098                |           12913500312

 2017-02-06 03:56:34.862247+01 | 1486349794.86225 | 3/1B46098                |           12913500312

 2017-02-06 03:56:35.948498+01 | 1486349795.9485 | 3/1B46098                |           12913500312

 2017-02-06 03:56:37.038672+01 | 1486349797.03867 | 3/1B46098                |           12913500312

 2017-02-06 03:56:38.13068+01 | 1486349798.13068 | 3/1B46098                |           12913500312

 2017-02-06 03:56:39.222149+01 | 1486349799.22215 | 3/1B46098                |           12913500312

 2017-02-06 03:56:40.311155+01 | 1486349800.31116 | 3/1B46098                |           12913500312

 2017-02-06 03:56:41.397251+01 | 1486349801.39725 | 3/1B46098                |           12913500312

 2017-02-06 03:56:42.478174+01 | 1486349802.47817 | 3/1B46098                |           12913500312

 2017-02-06 03:56:43.558121+01 | 1486349803.55812 | 3/1B46098                |           12913500312

 2017-02-06 03:56:44.646321+01 | 1486349804.64632 | 3/1B46098                |           12913500312

 2017-02-06 03:56:45.74131+01 | 1486349805.74131 | 3/1B46098                |           12913500312

 2017-02-06 03:56:46.824502+01 | 1486349806.8245 | 3/1B46098                |           12913500312

 2017-02-06 03:56:47.915073+01 | 1486349807.91507 | 3/1B46098                |           12913500312

 2017-02-06 03:56:49.012022+01 | 1486349809.01202 | 3/1B46098                |           12913500312

 2017-02-06 03:56:50.107304+01 | 1486349810.1073 | 3/1B46098                |           12913500312

 2017-02-06 03:56:51.196249+01 | 1486349811.19625 | 3/1B46098                |           12913500312

 2017-02-06 03:56:52.285795+01 | 1486349812.28579 | 3/1B46098                |           12913500312

 2017-02-06 03:56:53.37827+01 | 1486349813.37827 | 3/1B46098                |           12913500312

 2017-02-06 03:56:54.462707+01 | 1486349814.46271 | 3/1B46098                |           12913500312

 2017-02-06 03:56:55.553654+01 | 1486349815.55365 | 3/1B46098                |           12913500312

 2017-02-06 03:56:56.645314+01 | 1486349816.64531 | 3/1B46098                |           12913500312

 2017-02-06 03:56:57.73085+01 | 1486349817.73085 | 3/1B46098                |           12913500312

 2017-02-06 03:56:58.820314+01 | 1486349818.82031 | 3/1B46098                |           12913500312

 2017-02-06 03:56:59.907795+01 | 1486349819.90779 | 3/1B46098                |           12913500312

 2017-02-06 03:57:00.988981+01 | 1486349820.98898 | 3/1B46098                |           12913500312

 2017-02-06 03:57:02.080219+01 | 1486349822.08022 | 3/1B46098                |           12913500312

 2017-02-06 03:57:03.176135+01 | 1486349823.17614 | 3/1B46098                |           12913500312

 2017-02-06 03:57:04.26877+01 | 1486349824.26877 | 3/1B46098                |           12913500312

 2017-02-06 03:57:05.363435+01 | 1486349825.36344 | 3/1B46098                |           12913500312

 2017-02-06 03:57:06.457203+01 | 1486349826.4572 | 3/1B46098                |           12913500312

 2017-02-06 03:57:07.5543+01 | 1486349827.5543 | 3/1B46098                |           12913500312

 2017-02-06 03:57:08.653292+01 | 1486349828.65329 | 3/1B46098                |           12913500312

 2017-02-06 03:57:09.744829+01 | 1486349829.74483 | 3/1B46098                |           12913500312

 2017-02-06 03:57:10.82816+01 | 1486349830.82816 | 3/1B46098                |           12913500312

 2017-02-06 03:57:11.922407+01 | 1486349831.92241 | 3/1B46098                |           12913500312

 2017-02-06 03:57:13.014246+01 | 1486349833.01425 | 3/1B46098                |           12913500312

 2017-02-06 03:57:14.109675+01 | 1486349834.10967 | 3/1B46098                |           12913500312

 2017-02-06 03:57:15.199089+01 | 1486349835.19909 | 3/1B46098                |           12913500312

 2017-02-06 03:57:16.28978+01 | 1486349836.28978 | 3/1B46098                |           12913500312

 2017-02-06 03:57:17.382573+01 | 1486349837.38257 | 3/1B46098                |           12913500312

 2017-02-06 03:57:18.473659+01 | 1486349838.47366 | 3/1B46098                |           12913500312

 2017-02-06 03:57:19.573907+01 | 1486349839.57391 | 3/1B46098                |           12913500312

 2017-02-06 03:57:20.669174+01 | 1486349840.66917 | 3/1B46098                |           12913500312

 2017-02-06 03:57:21.760348+01 | 1486349841.76035 | 3/1B46098                |           12913500312

 2017-02-06 03:57:22.848794+01 | 1486349842.84879 | 3/1B46098                |           12913500312

 2017-02-06 03:57:23.940728+01 | 1486349843.94073 | 3/1B46098                |           12913500312

 2017-02-06 03:57:25.030744+01 | 1486349845.03074 | 3/1B46098                |           12913500312

 2017-02-06 03:57:26.116179+01 | 1486349846.11618 | 3/1B46098                |           12913500312

 2017-02-06 03:57:27.21011+01 | 1486349847.21011 | 3/1B46098                |           12913500312

 2017-02-06 03:57:28.302732+01 | 1486349848.30273 | 3/1B46098                |           12913500312

 2017-02-06 03:57:29.393415+01 | 1486349849.39341 | 3/1B46098                |           12913500312

 2017-02-06 03:57:30.480522+01 | 1486349850.48052 | 3/1B46098                |           12913500312

 2017-02-06 03:57:31.571992+01 | 1486349851.57199 | 3/1B46098                |           12913500312

 2017-02-06 03:57:32.66569+01 | 1486349852.66569 | 3/1B46098                |           12913500312

 2017-02-06 03:57:33.752706+01 | 1486349853.75271 | 3/1B46098                |           12913500312

 2017-02-06 03:57:34.847747+01 | 1486349854.84775 | 3/1B46098                |           12913500312

 2017-02-06 03:57:35.942648+01 | 1486349855.94265 | 3/1B46098                |           12913500312

 2017-02-06 03:57:37.028798+01 | 1486349857.0288 | 3/1B46098                |           12913500312

 2017-02-06 03:57:38.120121+01 | 1486349858.12012 | 3/1B46098                |           12913500312

 2017-02-06 03:57:39.208921+01 | 1486349859.20892 | 3/1B46098                |           12913500312

 2017-02-06 03:57:40.298611+01 | 1486349860.29861 | 3/1B46098                |           12913500312

 2017-02-06 03:57:41.382693+01 | 1486349861.38269 | 3/1B46098                |           12913500312

 2017-02-06 03:57:42.470736+01 | 1486349862.47074 | 3/1B46098                |           12913500312

 2017-02-06 03:57:43.558966+01 | 1486349863.55897 | 3/1B46098                |           12913500312

 2017-02-06 03:57:44.652979+01 | 1486349864.65298 | 3/1B46098                |           12913500312

 2017-02-06 03:57:45.739235+01 | 1486349865.73923 | 3/1B46098                |           12913500312

 2017-02-06 03:57:46.828017+01 | 1486349866.82802 | 3/1B46098                |           12913500312

 2017-02-06 03:57:47.918956+01 | 1486349867.91896 | 3/1B46098                |           12913500312

 2017-02-06 03:57:49.007505+01 | 1486349869.0075 | 3/1B46098                |           12913500312

 2017-02-06 03:57:50.146906+01 | 1486349870.14691 | 3/1B46098                |           12913500312

 2017-02-06 03:57:51.23255+01 | 1486349871.23255 | 3/1B46098                |           12913500312

 2017-02-06 03:57:52.321527+01 | 1486349872.32153 | 3/1B46098                |           12913500312

 2017-02-06 03:57:53.418078+01 | 1486349873.41808 | 3/1B46098                |           12913500312

 2017-02-06 03:57:54.517263+01 | 1486349874.51726 | 3/1B46098                |           12913500312

 2017-02-06 03:57:55.612207+01 | 1486349875.61221 | 3/1B46098                |           12913500312

 2017-02-06 03:57:56.698156+01 | 1486349876.69816 | 3/1B46098                |           12913500312

 2017-02-06 03:57:57.797473+01 | 1486349877.79747 | 3/1B46098                |           12913500312

 2017-02-06 03:57:58.896224+01 | 1486349878.89622 | 3/1B46098                |           12913500312

 2017-02-06 03:57:59.984568+01 | 1486349879.98457 | 3/1B46098                |           12913500312

 2017-02-06 03:58:01.08044+01 | 1486349881.08044 | 3/1B46098                |           12913500312

 2017-02-06 03:58:02.176513+01 | 1486349882.17651 | 3/1B46098                |           12913500312

 2017-02-06 03:58:03.258788+01 | 1486349883.25879 | 3/1B46098                |           12913500312

 2017-02-06 03:58:04.353249+01 | 1486349884.35325 | 3/1B46098                |           12913500312

 2017-02-06 03:58:05.445938+01 | 1486349885.44594 | 3/1B46098                |           12913500312

 2017-02-06 03:58:06.536678+01 | 1486349886.53668 | 3/1B46098                |           12913500312

 2017-02-06 03:58:07.619891+01 | 1486349887.61989 | 3/1B46098                |           12913500312

 2017-02-06 03:58:08.710294+01 | 1486349888.71029 | 3/1B46098                |           12913500312

 2017-02-06 03:58:09.802701+01 | 1486349889.8027 | 3/1B46098                |           12913500312

 2017-02-06 03:58:10.891314+01 | 1486349890.89131 | 3/1B46098                |           12913500312

 2017-02-06 03:58:11.988647+01 | 1486349891.98865 | 3/1B46098                |           12913500312

 2017-02-06 03:58:13.069238+01 | 1486349893.06924 | 3/1B46098                |           12913500312

 2017-02-06 03:58:14.152773+01 | 1486349894.15277 | 3/1B46098                |           12913500312

 2017-02-06 03:58:15.246532+01 | 1486349895.24653 | 3/1B46098                |           12913500312

 2017-02-06 03:58:16.332755+01 | 1486349896.33276 | 3/1B46098                |           12913500312

 2017-02-06 03:58:17.420986+01 | 1486349897.42099 | 3/1B46098                |           12913500312

 2017-02-06 03:58:18.50542+01 | 1486349898.50542 | 3/1B46098                |           12913500312

 2017-02-06 03:58:19.602291+01 | 1486349899.60229 | 3/1B46098                |           12913500312

 2017-02-06 03:58:20.694713+01 | 1486349900.69471 | 3/1B46098                |           12913500312

 2017-02-06 03:58:21.788052+01 | 1486349901.78805 | 3/1B46098                |           12913500312

 2017-02-06 03:58:22.872007+01 | 1486349902.87201 | 3/1B46098                |           12913500312

 2017-02-06 03:58:23.963413+01 | 1486349903.96341 | 3/1B46098                |           12913500312

 2017-02-06 03:58:25.053076+01 | 1486349905.05308 | 3/1B46098                |           12913500312

 2017-02-06 03:58:26.144426+01 | 1486349906.14443 | 3/1B46098                |           12913500312

 2017-02-06 03:58:27.229396+01 | 1486349907.2294 | 3/1B46098                |           12913500312

 2017-02-06 03:58:28.319434+01 | 1486349908.31943 | 3/1B46098                |           12913500312

 2017-02-06 03:58:29.413246+01 | 1486349909.41325 | 3/1B46098                |           12913500312

 2017-02-06 03:58:30.502495+01 | 1486349910.5025 | 3/1B46098                |           12913500312

 2017-02-06 03:58:31.595523+01 | 1486349911.59552 | 3/1B46098                |           12913500312

 2017-02-06 03:58:32.682546+01 | 1486349912.68255 | 3/1B46098                |           12913500312

 2017-02-06 03:58:33.771828+01 | 1486349913.77183 | 3/1B46098                |           12913500312

 2017-02-06 03:58:34.863231+01 | 1486349914.86323 | 3/1B46098                |           12913500312

 2017-02-06 03:58:35.956132+01 | 1486349915.95613 | 3/1B46098                |           12913500312

 2017-02-06 03:58:37.049872+01 | 1486349917.04987 | 3/1B46098                |           12913500312

 2017-02-06 03:58:38.140873+01 | 1486349918.14087 | 3/1B46098                |           12913500312

 2017-02-06 03:58:39.231066+01 | 1486349919.23107 | 3/1B46098                |           12913500312

 2017-02-06 03:58:40.324231+01 | 1486349920.32423 | 3/1B46098                |           12913500312

 2017-02-06 03:58:41.418716+01 | 1486349921.41872 | 3/1B46098                |           12913500312

 2017-02-06 03:58:42.505419+01 | 1486349922.50542 | 3/1B46098                |           12913500312

 2017-02-06 03:58:43.592233+01 | 1486349923.59223 | 3/1B46098                |           12913500312

 2017-02-06 03:58:44.680602+01 | 1486349924.6806 | 3/1B46098                |           12913500312

 2017-02-06 03:58:45.773178+01 | 1486349925.77318 | 3/1B46098                |           12913500312

 2017-02-06 03:58:46.861103+01 | 1486349926.8611 | 3/1B46098                |           12913500312

 2017-02-06 03:58:47.947936+01 | 1486349927.94794 | 3/1B46098                |           12913500312

 2017-02-06 03:58:49.032502+01 | 1486349929.0325 | 3/1B46098                |           12913500312

 2017-02-06 03:58:50.120326+01 | 1486349930.12033 | 3/1B46098                |           12913500312

 2017-02-06 03:58:51.207449+01 | 1486349931.20745 | 3/1B46098                |           12913500312

 2017-02-06 03:58:52.303325+01 | 1486349932.30332 | 3/1B46098                |           12913500312

 2017-02-06 03:58:53.398321+01 | 1486349933.39832 | 3/1B46098                |           12913500312

 2017-02-06 03:58:54.482186+01 | 1486349934.48219 | 3/1B46098                |           12913500312

 2017-02-06 03:58:55.570508+01 | 1486349935.57051 | 3/1B46098                |           12913500312

 2017-02-06 03:58:56.658202+01 | 1486349936.6582 | 3/1B46098                |           12913500312

 2017-02-06 03:58:57.750815+01 | 1486349937.75081 | 3/1B46098                |           12913500312

 2017-02-06 03:58:58.842813+01 | 1486349938.84281 | 3/1B46098                |           12913500312

 2017-02-06 03:58:59.940025+01 | 1486349939.94003 | 3/1B46098                |           12913500312

 2017-02-06 03:59:01.032812+01 | 1486349941.03281 | 3/1B46098                |           12913500312

 2017-02-06 03:59:02.11915+01 | 1486349942.11915 | 3/1B46098                |           12913500312

 2017-02-06 03:59:03.211245+01 | 1486349943.21125 | 3/1B46098                |           12913500312

 2017-02-06 03:59:04.306328+01 | 1486349944.30633 | 3/1B46098                |           12913500312

 2017-02-06 03:59:05.395443+01 | 1486349945.39544 | 3/1B46098                |           12913500312

 2017-02-06 03:59:06.487855+01 | 1486349946.48785 | 3/1B46098                |           12913500312

 2017-02-06 03:59:07.578002+01 | 1486349947.578 | 3/1B46098                |           12913500312

 2017-02-06 03:59:08.664335+01 | 1486349948.66434 | 3/1B46098                |           12913500312

 2017-02-06 03:59:09.757964+01 | 1486349949.75796 | 3/1B46098                |           12913500312

 2017-02-06 03:59:10.850904+01 | 1486349950.8509 | 3/1B46098                |           12913500312

 2017-02-06 03:59:11.942747+01 | 1486349951.94275 | 3/1B46098                |           12913500312

 2017-02-06 03:59:13.034443+01 | 1486349953.03444 | 3/1B46098                |           12913500312

 2017-02-06 03:59:14.118338+01 | 1486349954.11834 | 3/1B46098                |           12913500312

 2017-02-06 03:59:15.209832+01 | 1486349955.20983 | 3/1B46098                |           12913500312

 2017-02-06 03:59:16.300851+01 | 1486349956.30085 | 3/1B46098                |           12913500312

 2017-02-06 03:59:17.392764+01 | 1486349957.39276 | 3/1B46098                |           12913500312

 2017-02-06 03:59:18.480548+01 | 1486349958.48055 | 3/1B46098                |           12913500312

 2017-02-06 03:59:19.576939+01 | 1486349959.57694 | 3/1B46098                |           12913500312

 2017-02-06 03:59:20.665283+01 | 1486349960.66528 | 3/1B46098                |           12913500312

 2017-02-06 03:59:21.764782+01 | 1486349961.76478 | 3/1B46098                |           12913500312

 2017-02-06 03:59:22.857168+01 | 1486349962.85717 | 3/1B46098                |           12913500312

 2017-02-06 03:59:23.947769+01 | 1486349963.94777 | 3/1B46098                |           12913500312

 2017-02-06 03:59:25.032029+01 | 1486349965.03203 | 3/1B46098                |           12913500312

 2017-02-06 03:59:26.123603+01 | 1486349966.1236 | 3/1B46098                |           12913500312

 2017-02-06 03:59:27.210559+01 | 1486349967.21056 | 3/1B46098                |           12913500312

 2017-02-06 03:59:28.303332+01 | 1486349968.30333 | 3/1B46098                |           12913500312

 2017-02-06 03:59:29.39119+01 | 1486349969.39119 | 3/1B46098                |           12913500312

 2017-02-06 03:59:30.488681+01 | 1486349970.48868 | 3/1B46098                |           12913500312

 2017-02-06 03:59:31.586975+01 | 1486349971.58698 | 3/1B46098                |           12913500312

 2017-02-06 03:59:32.678481+01 | 1486349972.67848 | 3/1B46098                |           12913500312

 2017-02-06 03:59:33.762576+01 | 1486349973.76258 | 3/1B46098                |           12913500312

 2017-02-06 03:59:34.854837+01 | 1486349974.85484 | 3/1B46098                |           12913500312

 2017-02-06 03:59:35.944638+01 | 1486349975.94464 | 3/1B46098                |           12913500312

 2017-02-06 03:59:37.036509+01 | 1486349977.03651 | 3/1B46098                |           12913500312

 2017-02-06 03:59:38.12283+01 | 1486349978.12283 | 3/1B46098                |           12913500312

 2017-02-06 03:59:39.216428+01 | 1486349979.21643 | 3/1B46098                |           12913500312

 2017-02-06 03:59:40.303584+01 | 1486349980.30358 | 3/1B46098                |           12913500312

 2017-02-06 03:59:41.391128+01 | 1486349981.39113 | 3/1B46098                |           12913500312

 2017-02-06 03:59:42.475172+01 | 1486349982.47517 | 3/1B46098                |           12913500312

 2017-02-06 03:59:43.56464+01 | 1486349983.56464 | 3/1B46098                |           12913500312

 2017-02-06 03:59:44.65279+01 | 1486349984.65279 | 3/1B46098                |           12913500312

 2017-02-06 03:59:45.74717+01 | 1486349985.74717 | 3/1B46098                |           12913500312

 2017-02-06 03:59:46.83813+01 | 1486349986.83813 | 3/1B46098                |           12913500312

 2017-02-06 03:59:47.925864+01 | 1486349987.92586 | 3/1B46098                |           12913500312

 2017-02-06 03:59:49.013225+01 | 1486349989.01323 | 3/1B46098                |           12913500312

 2017-02-06 03:59:50.09775+01 | 1486349990.09775 | 3/1B46098                |           12913500312

 2017-02-06 03:59:51.182192+01 | 1486349991.18219 | 3/1B46098                |           12913500312

 2017-02-06 03:59:52.275961+01 | 1486349992.27596 | 3/1B46098                |           12913500312

 2017-02-06 03:59:53.362977+01 | 1486349993.36298 | 3/1B46098                |           12913500312

 2017-02-06 03:59:54.45623+01 | 1486349994.45623 | 3/1B46098                |           12913500312

 2017-02-06 03:59:55.547608+01 | 1486349995.54761 | 3/1B46098                |           12913500312

 2017-02-06 03:59:56.641888+01 | 1486349996.64189 | 3/1B46098                |           12913500312

 2017-02-06 03:59:57.726673+01 | 1486349997.72667 | 3/1B46098                |           12913500312

 2017-02-06 03:59:58.829995+01 | 1486349998.82999 | 3/1B46098                |           12913500312

 2017-02-06 03:59:59.927174+01 | 1486349999.92717 | 3/1B46098                |           12913500312

 2017-02-06 04:00:01.019004+01 | 1486350001.019 | 3/1B46098                |           12913500312

 2017-02-06 04:00:02.10359+01 | 1486350002.10359 | 3/1B46098                |           12913500312

 2017-02-06 04:00:03.197107+01 | 1486350003.19711 | 3/1B46098                |           12913500312

 2017-02-06 04:00:04.298487+01 | 1486350004.29849 | 3/1B46098                |           12913500312

 2017-02-06 04:00:05.392827+01 | 1486350005.39283 | 3/1B46098                |           12913500312

 2017-02-06 04:00:06.486512+01 | 1486350006.48651 | 3/1B46098                |           12913500312

 2017-02-06 04:00:07.581036+01 | 1486350007.58104 | 3/1B46098                |           12913500312

 2017-02-06 04:00:08.663317+01 | 1486350008.66332 | 3/1B46098                |           12913500312

 2017-02-06 04:00:09.747117+01 | 1486350009.74712 | 3/1B46098                |           12913500312

 2017-02-06 04:00:10.829924+01 | 1486350010.82992 | 3/1B46098                |           12913500312

 2017-02-06 04:00:11.918715+01 | 1486350011.91872 | 3/1B46098                |           12913500312

 2017-02-06 04:00:13.003228+01 | 1486350013.00323 | 3/1B46098                |           12913500312

 2017-02-06 04:00:14.091196+01 | 1486350014.0912 | 3/1B46098                |           12913500312

 2017-02-06 04:00:15.18639+01 | 1486350015.18639 | 3/1B46098                |           12913500312

 2017-02-06 04:00:16.272561+01 | 1486350016.27256 | 3/1B46098                |           12913500312

 2017-02-06 04:00:17.360628+01 | 1486350017.36063 | 3/1B46098                |           12913500312

 2017-02-06 04:00:18.451781+01 | 1486350018.45178 | 3/1B46098                |           12913500312

 2017-02-06 04:00:19.54119+01 | 1486350019.54119 | 3/1B46098                |           12913500312

 2017-02-06 04:00:20.634618+01 | 1486350020.63462 | 3/1B46098                |           12913500312

 2017-02-06 04:00:21.722787+01 | 1486350021.72279 | 3/1B46098                |           12913500312

 2017-02-06 04:00:22.812944+01 | 1486350022.81294 | 3/1B46098                |           12913500312

 2017-02-06 04:00:23.903633+01 | 1486350023.90363 | 3/1B46098                |           12913500312

 2017-02-06 04:00:24.989361+01 | 1486350024.98936 | 3/1B46098                |           12913500312

 2017-02-06 04:00:26.086995+01 | 1486350026.08699 | 3/1B46098                |           12913500312

 2017-02-06 04:00:27.176244+01 | 1486350027.17624 | 3/1B46098                |           12913500312

 2017-02-06 04:00:28.270028+01 | 1486350028.27003 | 3/1B46098                |           12913500312

 2017-02-06 04:00:29.364341+01 | 1486350029.36434 | 3/1B46098                |           12913500312

 2017-02-06 04:00:30.450671+01 | 1486350030.45067 | 3/1B46098                |           12913500312

 2017-02-06 04:00:31.53897+01 | 1486350031.53897 | 3/1B46098                |           12913500312

 2017-02-06 04:00:32.627145+01 | 1486350032.62715 | 3/1B46098                |           12913500312

 2017-02-06 04:00:33.718724+01 | 1486350033.71872 | 3/1B46098                |           12913500312

 2017-02-06 04:00:34.807111+01 | 1486350034.80711 | 3/1B46098                |           12913500312

 2017-02-06 04:00:35.895531+01 | 1486350035.89553 | 3/1B46098                |           12913500312

 2017-02-06 04:00:36.979706+01 | 1486350036.97971 | 3/1B46098                |           12913500312

 2017-02-06 04:00:38.065346+01 | 1486350038.06535 | 3/1B46098                |           12913500312

 2017-02-06 04:00:39.156541+01 | 1486350039.15654 | 3/1B46098                |           12913500312

 2017-02-06 04:00:40.246287+01 | 1486350040.24629 | 3/1B46098                |           12913500312

 2017-02-06 04:00:41.334196+01 | 1486350041.3342 | 3/1B46098                |           12913500312

 2017-02-06 04:00:42.417538+01 | 1486350042.41754 | 3/1B46098                |           12913500312

 2017-02-06 04:00:43.513715+01 | 1486350043.51372 | 3/1B46098                |           12913500312

 2017-02-06 04:00:44.594334+01 | 1486350044.59433 | 3/1B46098                |           12913500312

 2017-02-06 04:00:45.69381+01 | 1486350045.69381 | 3/1B46098                |           12913500312

 2017-02-06 04:00:46.773911+01 | 1486350046.77391 | 3/1B46098                |           12913500312

 2017-02-06 04:00:47.866536+01 | 1486350047.86654 | 3/1B46098                |           12913500312

 2017-02-06 04:00:48.962525+01 | 1486350048.96252 | 3/1B46098                |           12913500312

 2017-02-06 04:00:50.058311+01 | 1486350050.05831 | 3/1B46098                |           12913500312

 2017-02-06 04:00:51.139733+01 | 1486350051.13973 | 3/1B46098                |           12913500312

 2017-02-06 04:00:52.23487+01 | 1486350052.23487 | 3/1B46098                |           12913500312

 2017-02-06 04:00:53.328496+01 | 1486350053.3285 | 3/1B46098                |           12913500312

 2017-02-06 04:00:54.421296+01 | 1486350054.4213 | 3/1B46098                |           12913500312

 2017-02-06 04:00:55.512925+01 | 1486350055.51292 | 3/1B46098                |           12913500312

 2017-02-06 04:00:56.603729+01 | 1486350056.60373 | 3/1B46098                |           12913500312

 2017-02-06 04:00:57.688657+01 | 1486350057.68866 | 3/1B46098                |           12913500312

 2017-02-06 04:00:58.780143+01 | 1486350058.78014 | 3/1B46098                |           12913500312

 2017-02-06 04:00:59.863042+01 | 1486350059.86304 | 3/1B46098                |           12913500312

 2017-02-06 04:01:00.947452+01 | 1486350060.94745 | 3/1B46098                |           12913500312

 2017-02-06 04:01:02.038946+01 | 1486350062.03895 | 3/1B46098                |           12913500312

 2017-02-06 04:01:03.129077+01 | 1486350063.12908 | 3/1B46098                |           12913500312

 2017-02-06 04:01:04.217326+01 | 1486350064.21733 | 3/1B46098                |           12913500312

 2017-02-06 04:01:05.305962+01 | 1486350065.30596 | 3/1B46098                |           12913500312

 2017-02-06 04:01:06.396112+01 | 1486350066.39611 | 3/1B46098                |           12913500312

 2017-02-06 04:01:07.488152+01 | 1486350067.48815 | 3/1B46098                |           12913500312

 2017-02-06 04:01:08.578008+01 | 1486350068.57801 | 3/1B46098                |           12913500312

 2017-02-06 04:01:09.667518+01 | 1486350069.66752 | 3/1B46098                |           12913500312

 2017-02-06 04:01:10.757663+01 | 1486350070.75766 | 3/1B46098                |           12913500312

 2017-02-06 04:01:11.84783+01 | 1486350071.84783 | 3/1B46098                |           12913500312

 2017-02-06 04:01:12.938451+01 | 1486350072.93845 | 3/1B46098                |           12913500312

 2017-02-06 04:01:14.030769+01 | 1486350074.03077 | 3/1B46098                |           12913500312

 2017-02-06 04:01:15.119146+01 | 1486350075.11915 | 3/1B46098                |           12913500312

 2017-02-06 04:01:16.204145+01 | 1486350076.20414 | 3/1B46098                |           12913500312

 2017-02-06 04:01:17.296975+01 | 1486350077.29697 | 3/1B46098                |           12913500312

 2017-02-06 04:01:18.386053+01 | 1486350078.38605 | 3/1B46098                |           12913500312

