 2017-02-04 18:18:22.350925+01 | 1486228702.35092 |                 0 |              12 |                 18921 |                  948 |            2159497 |             0 |                0 |         1084616 |                     0 |        788634 | 2017-02-04 17:22:32.723409+01

 2017-02-04 18:18:23.449066+01 | 1486228703.44907 |                 0 |              12 |                 18921 |                  948 |            2159497 |             0 |                0 |         1084616 |                     0 |        788740 | 2017-02-04 17:22:32.723409+01

 2017-02-04 18:18:24.530973+01 | 1486228704.53097 |                 0 |              12 |                 18921 |                  948 |            2159497 |             0 |                0 |         1084616 |                     0 |        789073 | 2017-02-04 17:22:32.723409+01

 2017-02-04 18:18:25.610947+01 | 1486228705.61095 |                 0 |              12 |                 18921 |                  948 |            2159497 |             0 |                0 |         1084616 |                     0 |        789404 | 2017-02-04 17:22:32.723409+01

 2017-02-04 18:18:26.692605+01 | 1486228706.69261 |                 0 |              12 |                 18921 |                  948 |            2159497 |             0 |                0 |         1084616 |                     0 |        789778 | 2017-02-04 17:22:32.723409+01

 2017-02-04 18:18:27.77007+01 | 1486228707.77007 |                 0 |              12 |                 18921 |                  948 |            2159497 |             0 |                0 |         1084616 |                     0 |        789970 | 2017-02-04 17:22:32.723409+01

 2017-02-04 18:18:28.846498+01 | 1486228708.8465 |                 0 |              12 |                 18921 |                  948 |            2159497 |             0 |                0 |         1084616 |                     0 |        790236 | 2017-02-04 17:22:32.723409+01

 2017-02-04 18:18:29.922851+01 | 1486228709.92285 |                 0 |              12 |                 18921 |                  948 |            2159497 |             0 |                0 |         1084616 |                     0 |        790462 | 2017-02-04 17:22:32.723409+01

 2017-02-04 18:18:30.998533+01 | 1486228710.99853 |                 0 |              12 |                 18921 |                  948 |            2159497 |             0 |                0 |         1084616 |                     0 |        790717 | 2017-02-04 17:22:32.723409+01

 2017-02-04 18:18:32.071053+01 | 1486228712.07105 |                 0 |              12 |                 18921 |                  948 |            2159497 |             0 |                0 |         1084616 |                     0 |        790971 | 2017-02-04 17:22:32.723409+01

 2017-02-04 18:18:33.147279+01 | 1486228713.14728 |                 0 |              12 |                 18921 |                  948 |            2159497 |             0 |                0 |         1084616 |                     0 |        791163 | 2017-02-04 17:22:32.723409+01

 2017-02-04 18:18:34.229056+01 | 1486228714.22906 |                 0 |              12 |                 18921 |                  948 |            2159497 |             0 |                0 |         1084616 |                     0 |        791472 | 2017-02-04 17:22:32.723409+01

 2017-02-04 18:18:35.308275+01 | 1486228715.30827 |                 0 |              12 |                 18921 |                  948 |            2159497 |             0 |                0 |         1084616 |                     0 |        791698 | 2017-02-04 17:22:32.723409+01

 2017-02-04 18:18:36.387103+01 | 1486228716.3871 |                 0 |              12 |                 18921 |                  948 |            2159497 |             0 |                0 |         1084616 |                     0 |        792007 | 2017-02-04 17:22:32.723409+01

 2017-02-04 18:18:37.466159+01 | 1486228717.46616 |                 0 |              12 |                 18921 |                  948 |            2159497 |             0 |                0 |         1084616 |                     0 |        792193 | 2017-02-04 17:22:32.723409+01

 2017-02-04 18:18:38.545417+01 | 1486228718.54542 |                 0 |              12 |                 18921 |                  948 |            2159497 |             0 |                0 |         1084616 |                     0 |        792382 | 2017-02-04 17:22:32.723409+01

 2017-02-04 18:18:39.622674+01 | 1486228719.62267 |                 0 |              12 |                 18921 |                  948 |            2159497 |             0 |                0 |         1084616 |                     0 |        792612 | 2017-02-04 17:22:32.723409+01

 2017-02-04 18:18:40.699703+01 | 1486228720.6997 |                 0 |              12 |                 18921 |                  948 |            2159497 |             0 |                0 |         1084616 |                     0 |        792859 | 2017-02-04 17:22:32.723409+01

 2017-02-04 18:18:41.778179+01 | 1486228721.77818 |                 0 |              12 |                 18921 |                  948 |            2159497 |             0 |                0 |         1084616 |                     0 |        793114 | 2017-02-04 17:22:32.723409+01

 2017-02-04 18:18:42.85552+01 | 1486228722.85552 |                 0 |              12 |                 18921 |                  948 |            2159497 |             0 |                0 |         1084616 |                     0 |        793366 | 2017-02-04 17:22:32.723409+01

 2017-02-04 18:18:43.936814+01 | 1486228723.93681 |                 0 |              12 |                 18921 |                  948 |            2159497 |             0 |                0 |         1084616 |                     0 |        793573 | 2017-02-04 17:22:32.723409+01

 2017-02-04 18:18:45.015569+01 | 1486228725.01557 |                 0 |              12 |                 18921 |                  948 |            2159497 |             0 |                0 |         1084616 |                     0 |        794018 | 2017-02-04 17:22:32.723409+01

 2017-02-04 18:18:46.093709+01 | 1486228726.09371 |                 0 |              12 |                 18921 |                  948 |            2159497 |             0 |                0 |         1084616 |                     0 |        794224 | 2017-02-04 17:22:32.723409+01

 2017-02-04 18:18:47.175187+01 | 1486228727.17519 |                 0 |              12 |                 18921 |                  948 |            2159497 |             0 |                0 |         1084616 |                     0 |        794370 | 2017-02-04 17:22:32.723409+01

 2017-02-04 18:18:48.255638+01 | 1486228728.25564 |                 0 |              12 |                 18921 |                  948 |            2159497 |             0 |                0 |         1084616 |                     0 |        794608 | 2017-02-04 17:22:32.723409+01

 2017-02-04 18:18:49.33996+01 | 1486228729.33996 |                 0 |              12 |                 18921 |                  948 |            2159497 |             0 |                0 |         1084616 |                     0 |        794889 | 2017-02-04 17:22:32.723409+01

 2017-02-04 18:18:50.4208+01 | 1486228730.4208 |                 0 |              12 |                 18921 |                  948 |            2159497 |             0 |                0 |         1084616 |                     0 |        795121 | 2017-02-04 17:22:32.723409+01

 2017-02-04 18:18:51.500385+01 | 1486228731.50039 |                 0 |              12 |                 18921 |                  948 |            2159497 |             0 |                0 |         1084616 |                     0 |        795389 | 2017-02-04 17:22:32.723409+01

 2017-02-04 18:18:52.5771+01 | 1486228732.5771 |                 0 |              12 |                 18921 |                  948 |            2159497 |             0 |                0 |         1084616 |                     0 |        795644 | 2017-02-04 17:22:32.723409+01

 2017-02-04 18:18:53.659573+01 | 1486228733.65957 |                 0 |              12 |                 18921 |                  948 |            2159497 |             0 |                0 |         1084616 |                     0 |        795885 | 2017-02-04 17:22:32.723409+01

 2017-02-04 18:18:54.734453+01 | 1486228734.73445 |                 0 |              12 |                 18921 |                  948 |            2159497 |             0 |                0 |         1084616 |                     0 |        796166 | 2017-02-04 17:22:32.723409+01

 2017-02-04 18:18:55.808477+01 | 1486228735.80848 |                 0 |              12 |                 18921 |                  948 |            2159497 |             0 |                0 |         1084616 |                     0 |        796421 | 2017-02-04 17:22:32.723409+01

 2017-02-04 18:18:56.883927+01 | 1486228736.88393 |                 0 |              12 |                 18921 |                  948 |            2159497 |             0 |                0 |         1084616 |                     0 |        796611 | 2017-02-04 17:22:32.723409+01

 2017-02-04 18:18:57.962173+01 | 1486228737.96217 |                 0 |              12 |                 18921 |                  948 |            2159497 |             0 |                0 |         1084616 |                     0 |        797015 | 2017-02-04 17:22:32.723409+01

 2017-02-04 18:18:59.034555+01 | 1486228739.03455 |                 0 |              12 |                 18921 |                  948 |            2159497 |             0 |                0 |         1084616 |                     0 |        797125 | 2017-02-04 17:22:32.723409+01

 2017-02-04 18:19:00.111239+01 | 1486228740.11124 |                 0 |              12 |                 18921 |                  948 |            2159497 |             0 |                0 |         1084616 |                     0 |        797428 | 2017-02-04 17:22:32.723409+01

 2017-02-04 18:19:01.186156+01 | 1486228741.18616 |                 0 |              12 |                 18921 |                  948 |            2159497 |             0 |                0 |         1084616 |                     0 |        797702 | 2017-02-04 17:22:32.723409+01

 2017-02-04 18:19:02.260567+01 | 1486228742.26057 |                 0 |              12 |                 18921 |                  948 |            2159497 |             0 |                0 |         1084616 |                     0 |        797939 | 2017-02-04 17:22:32.723409+01

 2017-02-04 18:19:03.333159+01 | 1486228743.33316 |                 0 |              12 |                 18921 |                  948 |            2159497 |             0 |                0 |         1084616 |                     0 |        798246 | 2017-02-04 17:22:32.723409+01

 2017-02-04 18:19:04.398245+01 | 1486228744.39825 |                 0 |              12 |                 18921 |                  948 |            2159497 |             0 |                0 |         1084616 |                     0 |        798496 | 2017-02-04 17:22:32.723409+01

 2017-02-04 18:19:05.48693+01 | 1486228745.48693 |                 0 |              12 |                 18921 |                  948 |            2159497 |             0 |                0 |         1084616 |                     0 |        798662 | 2017-02-04 17:22:32.723409+01

 2017-02-04 18:19:06.564411+01 | 1486228746.56441 |                 0 |              12 |                 18921 |                  948 |            2159497 |             0 |                0 |         1084616 |                     0 |        798966 | 2017-02-04 17:22:32.723409+01

 2017-02-04 18:19:07.642622+01 | 1486228747.64262 |                 0 |              12 |                 18921 |                  948 |            2159497 |             0 |                0 |         1084616 |                     0 |        799390 | 2017-02-04 17:22:32.723409+01

 2017-02-04 18:19:08.718586+01 | 1486228748.71859 |                 0 |              12 |                 18921 |                  948 |            2159497 |             0 |                0 |         1084616 |                     0 |        799533 | 2017-02-04 17:22:32.723409+01

 2017-02-04 18:19:09.798491+01 | 1486228749.79849 |                 0 |              12 |                 18921 |                  948 |            2159497 |             0 |                0 |         1084616 |                     0 |        799722 | 2017-02-04 17:22:32.723409+01

 2017-02-04 18:19:10.875756+01 | 1486228750.87576 |                 0 |              12 |                 18921 |                  948 |            2159497 |             0 |                0 |         1084616 |                     0 |        800049 | 2017-02-04 17:22:32.723409+01

 2017-02-04 18:19:11.949073+01 | 1486228751.94907 |                 0 |              12 |                 18921 |                  948 |            2159497 |             0 |                0 |         1084616 |                     0 |        800283 | 2017-02-04 17:22:32.723409+01

 2017-02-04 18:19:13.023691+01 | 1486228753.02369 |                 0 |              12 |                 18921 |                  948 |            2159497 |             0 |                0 |         1084616 |                     0 |        800558 | 2017-02-04 17:22:32.723409+01

 2017-02-04 18:19:14.104769+01 | 1486228754.10477 |                 0 |              12 |                 18921 |                  948 |            2159497 |             0 |                0 |         1084616 |                     0 |        800753 | 2017-02-04 17:22:32.723409+01

 2017-02-04 18:19:15.176541+01 | 1486228755.17654 |                 0 |              12 |                 18921 |                  948 |            2159497 |             0 |                0 |         1084616 |                     0 |        801049 | 2017-02-04 17:22:32.723409+01

 2017-02-04 18:19:16.252802+01 | 1486228756.2528 |                 0 |              12 |                 18921 |                  948 |            2159497 |             0 |                0 |         1084616 |                     0 |        801250 | 2017-02-04 17:22:32.723409+01

 2017-02-04 18:19:17.327795+01 | 1486228757.3278 |                 0 |              12 |                 18921 |                  948 |            2159497 |             0 |                0 |         1084616 |                     0 |        801549 | 2017-02-04 17:22:32.723409+01

 2017-02-04 18:19:18.402925+01 | 1486228758.40293 |                 0 |              12 |                 18921 |                  948 |            2159497 |             0 |                0 |         1084616 |                     0 |        801811 | 2017-02-04 17:22:32.723409+01

 2017-02-04 18:19:19.476346+01 | 1486228759.47635 |                 0 |              12 |                 18921 |                  948 |            2159497 |             0 |                0 |         1084616 |                     0 |        802004 | 2017-02-04 17:22:32.723409+01

 2017-02-04 18:19:20.555985+01 | 1486228760.55598 |                 0 |              12 |                 18921 |                  948 |            2159497 |             0 |                0 |         1084616 |                     0 |        802293 | 2017-02-04 17:22:32.723409+01

 2017-02-04 18:19:21.637025+01 | 1486228761.63703 |                 0 |              12 |                 18921 |                  948 |            2159497 |             0 |                0 |         1084616 |                     0 |        802555 | 2017-02-04 17:22:32.723409+01

 2017-02-04 18:19:22.71712+01 | 1486228762.71712 |                 0 |              12 |                 18921 |                  948 |            2159497 |             0 |                0 |         1084616 |                     0 |        802784 | 2017-02-04 17:22:32.723409+01

 2017-02-04 18:19:23.794286+01 | 1486228763.79429 |                 0 |              12 |                 18921 |                  948 |            2159497 |             0 |                0 |         1084616 |                     0 |        803076 | 2017-02-04 17:22:32.723409+01

 2017-02-04 18:19:24.866645+01 | 1486228764.86665 |                 0 |              12 |                 18921 |                  948 |            2159497 |             0 |                0 |         1084616 |                     0 |        803300 | 2017-02-04 17:22:32.723409+01

 2017-02-04 18:19:25.94366+01 | 1486228765.94366 |                 0 |              12 |                 18921 |                  948 |            2159497 |             0 |                0 |         1084616 |                     0 |        803503 | 2017-02-04 17:22:32.723409+01

 2017-02-04 18:19:27.018509+01 | 1486228767.01851 |                 0 |              12 |                 18921 |                  948 |            2159497 |             0 |                0 |         1084616 |                     0 |        803872 | 2017-02-04 17:22:32.723409+01

 2017-02-04 18:19:28.09521+01 | 1486228768.09521 |                 0 |              12 |                 18921 |                  948 |            2159497 |             0 |                0 |         1084616 |                     0 |        803935 | 2017-02-04 17:22:32.723409+01

 2017-02-04 18:19:29.174915+01 | 1486228769.17492 |                 0 |              12 |                 18921 |                  948 |            2159497 |             0 |                0 |         1084616 |                     0 |        804204 | 2017-02-04 17:22:32.723409+01

 2017-02-04 18:19:30.253696+01 | 1486228770.2537 |                 0 |              12 |                 18921 |                  948 |            2159497 |             0 |                0 |         1084616 |                     0 |        804493 | 2017-02-04 17:22:32.723409+01

 2017-02-04 18:19:31.33225+01 | 1486228771.33225 |                 0 |              12 |                 18921 |                  948 |            2159497 |             0 |                0 |         1084616 |                     0 |        804802 | 2017-02-04 17:22:32.723409+01

 2017-02-04 18:19:32.411448+01 | 1486228772.41145 |                 0 |              12 |                 18921 |                  948 |            2159497 |             0 |                0 |         1084616 |                     0 |        804969 | 2017-02-04 17:22:32.723409+01

 2017-02-04 18:19:33.488307+01 | 1486228773.48831 |                 0 |              12 |                 18921 |                  948 |            2159497 |             0 |                0 |         1084616 |                     0 |        805116 | 2017-02-04 17:22:32.723409+01

 2017-02-04 18:19:34.562926+01 | 1486228774.56293 |                 0 |              12 |                 18921 |                  948 |            2159497 |             0 |                0 |         1084616 |                     0 |        805427 | 2017-02-04 17:22:32.723409+01

 2017-02-04 18:19:35.636889+01 | 1486228775.63689 |                 0 |              12 |                 18921 |                  948 |            2159497 |             0 |                0 |         1084616 |                     0 |        805783 | 2017-02-04 17:22:32.723409+01

 2017-02-04 18:19:36.713384+01 | 1486228776.71338 |                 0 |              12 |                 18921 |                  948 |            2159497 |             0 |                0 |         1084616 |                     0 |        805909 | 2017-02-04 17:22:32.723409+01

 2017-02-04 18:19:37.78873+01 | 1486228777.78873 |                 0 |              12 |                 18921 |                  948 |            2159497 |             0 |                0 |         1084616 |                     0 |        806081 | 2017-02-04 17:22:32.723409+01

 2017-02-04 18:19:38.866568+01 | 1486228778.86657 |                 0 |              12 |                 18921 |                  948 |            2159497 |             0 |                0 |         1084616 |                     0 |        806314 | 2017-02-04 17:22:32.723409+01

 2017-02-04 18:19:39.945833+01 | 1486228779.94583 |                 0 |              12 |                 18921 |                  948 |            2159497 |             0 |                0 |         1084616 |                     0 |        806561 | 2017-02-04 17:22:32.723409+01

 2017-02-04 18:19:41.030126+01 | 1486228781.03013 |                 0 |              12 |                 18921 |                  948 |            2159497 |             0 |                0 |         1084616 |                     0 |        806769 | 2017-02-04 17:22:32.723409+01

 2017-02-04 18:19:42.11141+01 | 1486228782.11141 |                 0 |              12 |                 18921 |                  948 |            2159497 |             0 |                0 |         1084616 |                     0 |        807162 | 2017-02-04 17:22:32.723409+01

 2017-02-04 18:19:43.201625+01 | 1486228783.20163 |                 0 |              12 |                 18921 |                  948 |            2159497 |             0 |                0 |         1084616 |                     0 |        807246 | 2017-02-04 17:22:32.723409+01

 2017-02-04 18:19:44.278911+01 | 1486228784.27891 |                 0 |              12 |                 18921 |                  948 |            2159497 |             0 |                0 |         1084616 |                     0 |        807554 | 2017-02-04 17:22:32.723409+01

 2017-02-04 18:19:45.350696+01 | 1486228785.3507 |                 0 |              12 |                 18921 |                  948 |            2159497 |             0 |                0 |         1084616 |                     0 |        807783 | 2017-02-04 17:22:32.723409+01

 2017-02-04 18:19:46.428153+01 | 1486228786.42815 |                 0 |              12 |                 18921 |                  948 |            2159497 |             0 |                0 |         1084616 |                     0 |        807992 | 2017-02-04 17:22:32.723409+01

 2017-02-04 18:19:47.506329+01 | 1486228787.50633 |                 0 |              12 |                 18921 |                  948 |            2159497 |             0 |                0 |         1084616 |                     0 |        808284 | 2017-02-04 17:22:32.723409+01

 2017-02-04 18:19:48.582359+01 | 1486228788.58236 |                 0 |              12 |                 18921 |                  948 |            2159497 |             0 |                0 |         1084616 |                     0 |        808553 | 2017-02-04 17:22:32.723409+01

 2017-02-04 18:19:49.655722+01 | 1486228789.65572 |                 0 |              12 |                 18921 |                  948 |            2159497 |             0 |                0 |         1084616 |                     0 |        808779 | 2017-02-04 17:22:32.723409+01

 2017-02-04 18:19:50.734028+01 | 1486228790.73403 |                 0 |              12 |                 18921 |                  948 |            2159497 |             0 |                0 |         1084616 |                     0 |        809031 | 2017-02-04 17:22:32.723409+01

 2017-02-04 18:19:51.809206+01 | 1486228791.80921 |                 0 |              12 |                 18921 |                  948 |            2159497 |             0 |                0 |         1084616 |                     0 |        809201 | 2017-02-04 17:22:32.723409+01

 2017-02-04 18:19:52.883026+01 | 1486228792.88303 |                 0 |              12 |                 18921 |                  948 |            2159497 |             0 |                0 |         1084616 |                     0 |        809454 | 2017-02-04 17:22:32.723409+01

 2017-02-04 18:19:53.955215+01 | 1486228793.95521 |                 0 |              12 |                 18921 |                  948 |            2159497 |             0 |                0 |         1084616 |                     0 |        809725 | 2017-02-04 17:22:32.723409+01

 2017-02-04 18:19:55.028096+01 | 1486228795.0281 |                 0 |              12 |                 18921 |                  948 |            2159497 |             0 |                0 |         1084616 |                     0 |        809999 | 2017-02-04 17:22:32.723409+01

 2017-02-04 18:19:56.105352+01 | 1486228796.10535 |                 0 |              12 |                 18921 |                  948 |            2159497 |             0 |                0 |         1084616 |                     0 |        810208 | 2017-02-04 17:22:32.723409+01

 2017-02-04 18:19:57.185728+01 | 1486228797.18573 |                 0 |              12 |                 18921 |                  948 |            2159497 |             0 |                0 |         1084616 |                     0 |        810477 | 2017-02-04 17:22:32.723409+01

 2017-02-04 18:19:58.262148+01 | 1486228798.26215 |                 0 |              12 |                 18921 |                  948 |            2159497 |             0 |                0 |         1084616 |                     0 |        810689 | 2017-02-04 17:22:32.723409+01

 2017-02-04 18:19:59.337582+01 | 1486228799.33758 |                 0 |              12 |                 18921 |                  948 |            2159497 |             0 |                0 |         1084616 |                     0 |        810940 | 2017-02-04 17:22:32.723409+01

 2017-02-04 18:20:00.41799+01 | 1486228800.41799 |                 0 |              12 |                 18921 |                  948 |            2159497 |             0 |                0 |         1084616 |                     0 |        811253 | 2017-02-04 17:22:32.723409+01

 2017-02-04 18:20:01.495085+01 | 1486228801.49509 |                 0 |              12 |                 18921 |                  948 |            2159497 |             0 |                0 |         1084616 |                     0 |        811253 | 2017-02-04 17:22:32.723409+01

 2017-02-04 18:20:02.570775+01 | 1486228802.57078 |                 0 |              12 |                 18921 |                  948 |            2159497 |             0 |                0 |         1084616 |                     0 |        811722 | 2017-02-04 17:22:32.723409+01

 2017-02-04 18:20:03.64711+01 | 1486228803.64711 |                 0 |              12 |                 18921 |                  948 |            2159497 |             0 |                0 |         1084616 |                     0 |        811946 | 2017-02-04 17:22:32.723409+01

 2017-02-04 18:20:04.716402+01 | 1486228804.7164 |                 0 |              12 |                 18921 |                  948 |            2159497 |             0 |                0 |         1084616 |                     0 |        811947 | 2017-02-04 17:22:32.723409+01

 2017-02-04 18:20:05.798874+01 | 1486228805.79887 |                 0 |              12 |                 18921 |                  948 |            2159497 |             0 |                0 |         1084616 |                     0 |        812240 | 2017-02-04 17:22:32.723409+01

 2017-02-04 18:20:06.873343+01 | 1486228806.87334 |                 0 |              12 |                 18921 |                  948 |            2159497 |             0 |                0 |         1084616 |                     0 |        812504 | 2017-02-04 17:22:32.723409+01

 2017-02-04 18:20:07.949609+01 | 1486228807.94961 |                 0 |              12 |                 18921 |                  948 |            2159497 |             0 |                0 |         1084616 |                     0 |        812750 | 2017-02-04 17:22:32.723409+01

 2017-02-04 18:20:09.025099+01 | 1486228809.0251 |                 0 |              12 |                 18921 |                  948 |            2159497 |             0 |                0 |         1084616 |                     0 |        812919 | 2017-02-04 17:22:32.723409+01

 2017-02-04 18:20:10.101142+01 | 1486228810.10114 |                 0 |              12 |                 18921 |                  948 |            2159497 |             0 |                0 |         1084616 |                     0 |        813178 | 2017-02-04 17:22:32.723409+01

 2017-02-04 18:20:11.177173+01 | 1486228811.17717 |                 0 |              12 |                 18921 |                  948 |            2159497 |             0 |                0 |         1084616 |                     0 |        813385 | 2017-02-04 17:22:32.723409+01

 2017-02-04 18:20:12.254961+01 | 1486228812.25496 |                 0 |              12 |                 18921 |                  948 |            2159497 |             0 |                0 |         1084616 |                     0 |        813601 | 2017-02-04 17:22:32.723409+01

 2017-02-04 18:20:13.333569+01 | 1486228813.33357 |                 0 |              12 |                 18921 |                  948 |            2159497 |             0 |                0 |         1084616 |                     0 |        814035 | 2017-02-04 17:22:32.723409+01

 2017-02-04 18:20:14.414459+01 | 1486228814.41446 |                 0 |              12 |                 18921 |                  948 |            2159497 |             0 |                0 |         1084616 |                     0 |        814098 | 2017-02-04 17:22:32.723409+01

 2017-02-04 18:20:15.48918+01 | 1486228815.48918 |                 0 |              12 |                 18921 |                  948 |            2159497 |             0 |                0 |         1084616 |                     0 |        814331 | 2017-02-04 17:22:32.723409+01

 2017-02-04 18:20:16.563179+01 | 1486228816.56318 |                 0 |              12 |                 18921 |                  948 |            2159497 |             0 |                0 |         1084616 |                     0 |        814584 | 2017-02-04 17:22:32.723409+01

 2017-02-04 18:20:17.63847+01 | 1486228817.63847 |                 0 |              12 |                 18921 |                  948 |            2159497 |             0 |                0 |         1084616 |                     0 |        814716 | 2017-02-04 17:22:32.723409+01

 2017-02-04 18:20:18.7155+01 | 1486228818.7155 |                 0 |              12 |                 18921 |                  948 |            2159497 |             0 |                0 |         1084616 |                     0 |        815014 | 2017-02-04 17:22:32.723409+01

 2017-02-04 18:20:19.791472+01 | 1486228819.79147 |                 0 |              12 |                 18921 |                  948 |            2159497 |             0 |                0 |         1084616 |                     0 |        815172 | 2017-02-04 17:22:32.723409+01

 2017-02-04 18:20:20.862198+01 | 1486228820.8622 |                 0 |              12 |                 18921 |                  948 |            2159497 |             0 |                0 |         1084616 |                     0 |        815425 | 2017-02-04 17:22:32.723409+01

 2017-02-04 18:20:21.940989+01 | 1486228821.94099 |                 0 |              12 |                 18921 |                  948 |            2159497 |             0 |                0 |         1084616 |                     0 |        815758 | 2017-02-04 17:22:32.723409+01

 2017-02-04 18:20:23.023025+01 | 1486228823.02303 |                 0 |              12 |                 18921 |                  948 |            2159497 |             0 |                0 |         1084616 |                     0 |        815864 | 2017-02-04 17:22:32.723409+01

 2017-02-04 18:20:24.099648+01 | 1486228824.09965 |                 0 |              12 |                 18921 |                  948 |            2159497 |             0 |                0 |         1084616 |                     0 |        816136 | 2017-02-04 17:22:32.723409+01

 2017-02-04 18:20:25.177663+01 | 1486228825.17766 |                 0 |              12 |                 18921 |                  948 |            2159497 |             0 |                0 |         1084616 |                     0 |        816379 | 2017-02-04 17:22:32.723409+01

 2017-02-04 18:20:26.257227+01 | 1486228826.25723 |                 0 |              12 |                 18921 |                  948 |            2159497 |             0 |                0 |         1084616 |                     0 |        816631 | 2017-02-04 17:22:32.723409+01

 2017-02-04 18:20:27.328155+01 | 1486228827.32816 |                 0 |              12 |                 18921 |                  948 |            2159497 |             0 |                0 |         1084616 |                     0 |        816800 | 2017-02-04 17:22:32.723409+01

 2017-02-04 18:20:28.403329+01 | 1486228828.40333 |                 0 |              12 |                 18921 |                  948 |            2159497 |             0 |                0 |         1084616 |                     0 |        817177 | 2017-02-04 17:22:32.723409+01

 2017-02-04 18:20:29.477895+01 | 1486228829.4779 |                 0 |              12 |                 18921 |                  948 |            2159497 |             0 |                0 |         1084616 |                     0 |        817366 | 2017-02-04 17:22:32.723409+01

 2017-02-04 18:20:30.551876+01 | 1486228830.55188 |                 0 |              12 |                 18921 |                  948 |            2159497 |             0 |                0 |         1084616 |                     0 |        817772 | 2017-02-04 17:22:32.723409+01

 2017-02-04 18:20:31.633144+01 | 1486228831.63314 |                 0 |              12 |                 18921 |                  948 |            2159497 |             0 |                0 |         1084616 |                     0 |        817772 | 2017-02-04 17:22:32.723409+01

 2017-02-04 18:20:32.708451+01 | 1486228832.70845 |                 0 |              12 |                 18921 |                  948 |            2159497 |             0 |                0 |         1084616 |                     0 |        817977 | 2017-02-04 17:22:32.723409+01

 2017-02-04 18:20:33.784074+01 | 1486228833.78407 |                 0 |              12 |                 18921 |                  948 |            2159497 |             0 |                0 |         1084616 |                     0 |        818285 | 2017-02-04 17:22:32.723409+01

 2017-02-04 18:20:34.860058+01 | 1486228834.86006 |                 0 |              12 |                 18921 |                  948 |            2159497 |             0 |                0 |         1084616 |                     0 |        818494 | 2017-02-04 17:22:32.723409+01

 2017-02-04 18:20:35.936946+01 | 1486228835.93695 |                 0 |              12 |                 18921 |                  948 |            2159497 |             0 |                0 |         1084616 |                     0 |        818743 | 2017-02-04 17:22:32.723409+01

 2017-02-04 18:20:37.013472+01 | 1486228837.01347 |                 0 |              12 |                 18921 |                  948 |            2159497 |             0 |                0 |         1084616 |                     0 |        818935 | 2017-02-04 17:22:32.723409+01

 2017-02-04 18:20:38.093444+01 | 1486228838.09344 |                 0 |              12 |                 18921 |                  948 |            2159497 |             0 |                0 |         1084616 |                     0 |        819224 | 2017-02-04 17:22:32.723409+01

 2017-02-04 18:20:39.169929+01 | 1486228839.16993 |                 0 |              12 |                 18921 |                  948 |            2159497 |             0 |                0 |         1084616 |                     0 |        819514 | 2017-02-04 17:22:32.723409+01

 2017-02-04 18:20:40.245214+01 | 1486228840.24521 |                 0 |              12 |                 18921 |                  948 |            2159497 |             0 |                0 |         1084616 |                     0 |        819763 | 2017-02-04 17:22:32.723409+01

 2017-02-04 18:20:41.321632+01 | 1486228841.32163 |                 0 |              12 |                 18921 |                  948 |            2159497 |             0 |                0 |         1084616 |                     0 |        819891 | 2017-02-04 17:22:32.723409+01

 2017-02-04 18:20:42.400092+01 | 1486228842.40009 |                 0 |              12 |                 18921 |                  948 |            2159497 |             0 |                0 |         1084616 |                     0 |        820166 | 2017-02-04 17:22:32.723409+01

 2017-02-04 18:20:43.476299+01 | 1486228843.4763 |                 0 |              12 |                 18921 |                  948 |            2159497 |             0 |                0 |         1084616 |                     0 |        820462 | 2017-02-04 17:22:32.723409+01

 2017-02-04 18:20:44.55209+01 | 1486228844.55209 |                 0 |              12 |                 18921 |                  948 |            2159497 |             0 |                0 |         1084616 |                     0 |        820631 | 2017-02-04 17:22:32.723409+01

 2017-02-04 18:20:45.626113+01 | 1486228845.62611 |                 0 |              12 |                 18921 |                  948 |            2159497 |             0 |                0 |         1084616 |                     0 |        820900 | 2017-02-04 17:22:32.723409+01

 2017-02-04 18:20:46.703568+01 | 1486228846.70357 |                 0 |              12 |                 18921 |                  948 |            2159497 |             0 |                0 |         1084616 |                     0 |        821109 | 2017-02-04 17:22:32.723409+01

 2017-02-04 18:20:47.782102+01 | 1486228847.7821 |                 0 |              12 |                 18921 |                  948 |            2159497 |             0 |                0 |         1084616 |                     0 |        821319 | 2017-02-04 17:22:32.723409+01

 2017-02-04 18:20:48.860085+01 | 1486228848.86009 |                 0 |              12 |                 18921 |                  948 |            2159497 |             0 |                0 |         1084616 |                     0 |        821591 | 2017-02-04 17:22:32.723409+01

 2017-02-04 18:20:49.936544+01 | 1486228849.93654 |                 0 |              12 |                 18921 |                  948 |            2159497 |             0 |                0 |         1084616 |                     0 |        821904 | 2017-02-04 17:22:32.723409+01

 2017-02-04 18:20:51.018963+01 | 1486228851.01896 |                 0 |              12 |                 18921 |                  948 |            2159497 |             0 |                0 |         1084616 |                     0 |        822117 | 2017-02-04 17:22:32.723409+01

 2017-02-04 18:20:52.099223+01 | 1486228852.09922 |                 0 |              12 |                 18921 |                  948 |            2159497 |             0 |                0 |         1084616 |                     0 |        822326 | 2017-02-04 17:22:32.723409+01

 2017-02-04 18:20:53.180609+01 | 1486228853.18061 |                 0 |              12 |                 18921 |                  948 |            2159497 |             0 |                0 |         1084616 |                     0 |        822598 | 2017-02-04 17:22:32.723409+01

 2017-02-04 18:20:54.253471+01 | 1486228854.25347 |                 0 |              12 |                 18921 |                  948 |            2159497 |             0 |                0 |         1084616 |                     0 |        822810 | 2017-02-04 17:22:32.723409+01

 2017-02-04 18:20:55.328907+01 | 1486228855.32891 |                 0 |              12 |                 18921 |                  948 |            2159497 |             0 |                0 |         1084616 |                     0 |        823042 | 2017-02-04 17:22:32.723409+01

 2017-02-04 18:20:56.408574+01 | 1486228856.40857 |                 0 |              12 |                 18921 |                  948 |            2159497 |             0 |                0 |         1084616 |                     0 |        823376 | 2017-02-04 17:22:32.723409+01

 2017-02-04 18:20:57.487884+01 | 1486228857.48788 |                 0 |              12 |                 18921 |                  948 |            2159497 |             0 |                0 |         1084616 |                     0 |        823523 | 2017-02-04 17:22:32.723409+01

 2017-02-04 18:20:58.560708+01 | 1486228858.56071 |                 0 |              12 |                 18921 |                  948 |            2159497 |             0 |                0 |         1084616 |                     0 |        823839 | 2017-02-04 17:22:32.723409+01

 2017-02-04 18:20:59.637212+01 | 1486228859.63721 |                 0 |              12 |                 18921 |                  948 |            2159497 |             0 |                0 |         1084616 |                     0 |        824009 | 2017-02-04 17:22:32.723409+01

 2017-02-04 18:21:00.709934+01 | 1486228860.70993 |                 0 |              12 |                 18921 |                  948 |            2159497 |             0 |                0 |         1084616 |                     0 |        824331 | 2017-02-04 17:22:32.723409+01

 2017-02-04 18:21:01.78624+01 | 1486228861.78624 |                 0 |              12 |                 18921 |                  948 |            2159497 |             0 |                0 |         1084616 |                     0 |        824482 | 2017-02-04 17:22:32.723409+01

 2017-02-04 18:21:02.866+01 | 1486228862.866 |                 0 |              12 |                 18921 |                  948 |            2159497 |             0 |                0 |         1084616 |                     0 |        824648 | 2017-02-04 17:22:32.723409+01

 2017-02-04 18:21:03.943567+01 | 1486228863.94357 |                 0 |              12 |                 18921 |                  948 |            2159497 |             0 |                0 |         1084616 |                     0 |        824941 | 2017-02-04 17:22:32.723409+01

 2017-02-04 18:21:05.02197+01 | 1486228865.02197 |                 0 |              12 |                 18921 |                  948 |            2159497 |             0 |                0 |         1084616 |                     0 |        825230 | 2017-02-04 17:22:32.723409+01

 2017-02-04 18:21:06.101335+01 | 1486228866.10134 |                 0 |              12 |                 18921 |                  948 |            2159497 |             0 |                0 |         1084616 |                     0 |        825376 | 2017-02-04 17:22:32.723409+01

 2017-02-04 18:21:07.177393+01 | 1486228867.17739 |                 0 |              12 |                 18921 |                  948 |            2159497 |             0 |                0 |         1084616 |                     0 |        825697 | 2017-02-04 17:22:32.723409+01

 2017-02-04 18:21:08.251704+01 | 1486228868.2517 |                 0 |              12 |                 18921 |                  948 |            2159497 |             0 |                0 |         1084616 |                     0 |        825902 | 2017-02-04 17:22:32.723409+01

 2017-02-04 18:21:09.326582+01 | 1486228869.32658 |                 0 |              12 |                 18921 |                  948 |            2159497 |             0 |                0 |         1084616 |                     0 |        826139 | 2017-02-04 17:22:32.723409+01

 2017-02-04 18:21:10.4053+01 | 1486228870.4053 |                 0 |              12 |                 18921 |                  948 |            2159497 |             0 |                0 |         1084616 |                     0 |        826348 | 2017-02-04 17:22:32.723409+01

 2017-02-04 18:21:11.4828+01 | 1486228871.4828 |                 0 |              12 |                 18921 |                  948 |            2159497 |             0 |                0 |         1084616 |                     0 |        826617 | 2017-02-04 17:22:32.723409+01

 2017-02-04 18:21:12.559317+01 | 1486228872.55932 |                 0 |              12 |                 18921 |                  948 |            2159497 |             0 |                0 |         1084616 |                     0 |        826870 | 2017-02-04 17:22:32.723409+01

 2017-02-04 18:21:13.631173+01 | 1486228873.63117 |                 0 |              12 |                 18921 |                  948 |            2159497 |             0 |                0 |         1084616 |                     0 |        827076 | 2017-02-04 17:22:32.723409+01

 2017-02-04 18:21:14.709295+01 | 1486228874.7093 |                 0 |              12 |                 18921 |                  948 |            2159497 |             0 |                0 |         1084616 |                     0 |        827263 | 2017-02-04 17:22:32.723409+01

 2017-02-04 18:21:15.79884+01 | 1486228875.79884 |                 0 |              12 |                 18921 |                  948 |            2159497 |             0 |                0 |         1084616 |                     0 |        827578 | 2017-02-04 17:22:32.723409+01

 2017-02-04 18:21:16.873251+01 | 1486228876.87325 |                 0 |              12 |                 18921 |                  948 |            2159497 |             0 |                0 |         1084616 |                     0 |        827968 | 2017-02-04 17:22:32.723409+01

 2017-02-04 18:21:17.950668+01 | 1486228877.95067 |                 0 |              12 |                 18921 |                  948 |            2159497 |             0 |                0 |         1084616 |                     0 |        828111 | 2017-02-04 17:22:32.723409+01

 2017-02-04 18:21:19.024679+01 | 1486228879.02468 |                 0 |              12 |                 18921 |                  948 |            2159497 |             0 |                0 |         1084616 |                     0 |        828361 | 2017-02-04 17:22:32.723409+01

 2017-02-04 18:21:20.106139+01 | 1486228880.10614 |                 0 |              12 |                 18921 |                  948 |            2159497 |             0 |                0 |         1084616 |                     0 |        828509 | 2017-02-04 17:22:32.723409+01

 2017-02-04 18:21:21.180948+01 | 1486228881.18095 |                 0 |              12 |                 18921 |                  948 |            2159497 |             0 |                0 |         1084616 |                     0 |        828776 | 2017-02-04 17:22:32.723409+01

 2017-02-04 18:21:22.263327+01 | 1486228882.26333 |                 0 |              12 |                 18921 |                  948 |            2159497 |             0 |                0 |         1084616 |                     0 |        829132 | 2017-02-04 17:22:32.723409+01

 2017-02-04 18:21:23.341317+01 | 1486228883.34132 |                 0 |              12 |                 18921 |                  948 |            2159497 |             0 |                0 |         1084616 |                     0 |        829375 | 2017-02-04 17:22:32.723409+01

 2017-02-04 18:21:24.41781+01 | 1486228884.41781 |                 0 |              12 |                 18921 |                  948 |            2159497 |             0 |                0 |         1084616 |                     0 |        829538 | 2017-02-04 17:22:32.723409+01

 2017-02-04 18:21:25.501387+01 | 1486228885.50139 |                 0 |              12 |                 18921 |                  948 |            2159497 |             0 |                0 |         1084616 |                     0 |        829729 | 2017-02-04 17:22:32.723409+01

 2017-02-04 18:21:26.566067+01 | 1486228886.56607 |                 0 |              12 |                 18921 |                  948 |            2159497 |             0 |                0 |         1084616 |                     0 |        829936 | 2017-02-04 17:22:32.723409+01

 2017-02-04 18:21:27.640148+01 | 1486228887.64015 |                 0 |              12 |                 18921 |                  948 |            2159497 |             0 |                0 |         1084616 |                     0 |        830192 | 2017-02-04 17:22:32.723409+01

 2017-02-04 18:21:28.716079+01 | 1486228888.71608 |                 0 |              12 |                 18921 |                  948 |            2159497 |             0 |                0 |         1084616 |                     0 |        830447 | 2017-02-04 17:22:32.723409+01

 2017-02-04 18:21:29.7968+01 | 1486228889.7968 |                 0 |              12 |                 18921 |                  948 |            2159497 |             0 |                0 |         1084616 |                     0 |        830655 | 2017-02-04 17:22:32.723409+01

 2017-02-04 18:21:30.873891+01 | 1486228890.87389 |                 0 |              12 |                 18921 |                  948 |            2159497 |             0 |                0 |         1084616 |                     0 |        830905 | 2017-02-04 17:22:32.723409+01

 2017-02-04 18:21:31.953236+01 | 1486228891.95324 |                 0 |              12 |                 18921 |                  948 |            2159497 |             0 |                0 |         1084616 |                     0 |        831134 | 2017-02-04 17:22:32.723409+01

 2017-02-04 18:21:33.029505+01 | 1486228893.02951 |                 0 |              12 |                 18921 |                  948 |            2159497 |             0 |                0 |         1084616 |                     0 |        831446 | 2017-02-04 17:22:32.723409+01

 2017-02-04 18:21:34.110052+01 | 1486228894.11005 |                 0 |              12 |                 18921 |                  948 |            2159497 |             0 |                0 |         1084616 |                     0 |        831655 | 2017-02-04 17:22:32.723409+01

 2017-02-04 18:21:35.186503+01 | 1486228895.1865 |                 0 |              12 |                 18921 |                  948 |            2159497 |             0 |                0 |         1084616 |                     0 |        831902 | 2017-02-04 17:22:32.723409+01

 2017-02-04 18:21:36.259127+01 | 1486228896.25913 |                 0 |              12 |                 18921 |                  948 |            2159497 |             0 |                0 |         1084616 |                     0 |        832045 | 2017-02-04 17:22:32.723409+01

 2017-02-04 18:21:37.333809+01 | 1486228897.33381 |                 0 |              12 |                 18921 |                  948 |            2159497 |             0 |                0 |         1084616 |                     0 |        832463 | 2017-02-04 17:22:32.723409+01

 2017-02-04 18:21:38.409174+01 | 1486228898.40917 |                 0 |              12 |                 18921 |                  948 |            2159497 |             0 |                0 |         1084616 |                     0 |        832612 | 2017-02-04 17:22:32.723409+01

 2017-02-04 18:21:39.485229+01 | 1486228899.48523 |                 0 |              12 |                 18921 |                  948 |            2159497 |             0 |                0 |         1084616 |                     0 |        832839 | 2017-02-04 17:22:32.723409+01

 2017-02-04 18:21:40.55933+01 | 1486228900.55933 |                 0 |              12 |                 18921 |                  948 |            2159497 |             0 |                0 |         1084616 |                     0 |        833110 | 2017-02-04 17:22:32.723409+01

 2017-02-04 18:21:41.637683+01 | 1486228901.63768 |                 0 |              12 |                 18921 |                  948 |            2159497 |             0 |                0 |         1084616 |                     0 |        833359 | 2017-02-04 17:22:32.723409+01

 2017-02-04 18:21:42.713782+01 | 1486228902.71378 |                 0 |              12 |                 18921 |                  948 |            2159497 |             0 |                0 |         1084616 |                     0 |        833592 | 2017-02-04 17:22:32.723409+01

 2017-02-04 18:21:43.791922+01 | 1486228903.79192 |                 0 |              12 |                 18921 |                  948 |            2159497 |             0 |                0 |         1084616 |                     0 |        833805 | 2017-02-04 17:22:32.723409+01

 2017-02-04 18:21:44.876887+01 | 1486228904.87689 |                 0 |              12 |                 18921 |                  948 |            2159497 |             0 |                0 |         1084616 |                     0 |        834057 | 2017-02-04 17:22:32.723409+01

 2017-02-04 18:21:45.957364+01 | 1486228905.95736 |                 0 |              12 |                 18921 |                  948 |            2159497 |             0 |                0 |         1084616 |                     0 |        834330 | 2017-02-04 17:22:32.723409+01

 2017-02-04 18:21:47.035519+01 | 1486228907.03552 |                 0 |              12 |                 18921 |                  948 |            2159497 |             0 |                0 |         1084616 |                     0 |        834562 | 2017-02-04 17:22:32.723409+01

 2017-02-04 18:21:48.114391+01 | 1486228908.11439 |                 0 |              12 |                 18921 |                  948 |            2159497 |             0 |                0 |         1084616 |                     0 |        834811 | 2017-02-04 17:22:32.723409+01

 2017-02-04 18:21:49.194297+01 | 1486228909.1943 |                 0 |              12 |                 18921 |                  948 |            2159497 |             0 |                0 |         1084616 |                     0 |        835077 | 2017-02-04 17:22:32.723409+01

 2017-02-04 18:21:50.271293+01 | 1486228910.27129 |                 0 |              12 |                 18921 |                  948 |            2159497 |             0 |                0 |         1084616 |                     0 |        835220 | 2017-02-04 17:22:32.723409+01

 2017-02-04 18:21:51.346896+01 | 1486228911.3469 |                 0 |              12 |                 18921 |                  948 |            2159497 |             0 |                0 |         1084616 |                     0 |        835558 | 2017-02-04 17:22:32.723409+01

 2017-02-04 18:21:52.418563+01 | 1486228912.41856 |                 0 |              12 |                 18921 |                  948 |            2159497 |             0 |                0 |         1084616 |                     0 |        835890 | 2017-02-04 17:22:32.723409+01

 2017-02-04 18:21:53.492158+01 | 1486228913.49216 |                 0 |              12 |                 18921 |                  948 |            2159497 |             0 |                0 |         1084616 |                     0 |        836056 | 2017-02-04 17:22:32.723409+01

 2017-02-04 18:21:54.567309+01 | 1486228914.56731 |                 0 |              12 |                 18921 |                  948 |            2159497 |             0 |                0 |         1084616 |                     0 |        836219 | 2017-02-04 17:22:32.723409+01

 2017-02-04 18:21:55.650035+01 | 1486228915.65003 |                 0 |              12 |                 18921 |                  948 |            2159497 |             0 |                0 |         1084616 |                     0 |        836554 | 2017-02-04 17:22:32.723409+01

 2017-02-04 18:21:56.732166+01 | 1486228916.73217 |                 0 |              12 |                 18921 |                  948 |            2159497 |             0 |                0 |         1084616 |                     0 |        836677 | 2017-02-04 17:22:32.723409+01

 2017-02-04 18:21:57.806886+01 | 1486228917.80689 |                 0 |              12 |                 18921 |                  948 |            2159497 |             0 |                0 |         1084616 |                     0 |        837018 | 2017-02-04 17:22:32.723409+01

 2017-02-04 18:21:58.877572+01 | 1486228918.87757 |                 0 |              12 |                 18921 |                  948 |            2159497 |             0 |                0 |         1084616 |                     0 |        837293 | 2017-02-04 17:22:32.723409+01

 2017-02-04 18:21:59.951127+01 | 1486228919.95113 |                 0 |              12 |                 18921 |                  948 |            2159497 |             0 |                0 |         1084616 |                     0 |        837440 | 2017-02-04 17:22:32.723409+01

 2017-02-04 18:22:01.028737+01 | 1486228921.02874 |                 0 |              12 |                 18921 |                  948 |            2159497 |             0 |                0 |         1084616 |                     0 |        837751 | 2017-02-04 17:22:32.723409+01

 2017-02-04 18:22:02.104064+01 | 1486228922.10406 |                 0 |              12 |                 18921 |                  948 |            2159497 |             0 |                0 |         1084616 |                     0 |        838017 | 2017-02-04 17:22:32.723409+01

 2017-02-04 18:22:03.176257+01 | 1486228923.17626 |                 0 |              12 |                 18921 |                  948 |            2159497 |             0 |                0 |         1084616 |                     0 |        838271 | 2017-02-04 17:22:32.723409+01

 2017-02-04 18:22:04.251078+01 | 1486228924.25108 |                 0 |              12 |                 18921 |                  948 |            2159497 |             0 |                0 |         1084616 |                     0 |        838440 | 2017-02-04 17:22:32.723409+01

 2017-02-04 18:22:05.329549+01 | 1486228925.32955 |                 0 |              12 |                 18921 |                  948 |            2159497 |             0 |                0 |         1084616 |                     0 |        838738 | 2017-02-04 17:22:32.723409+01

 2017-02-04 18:22:06.406866+01 | 1486228926.40687 |                 0 |              12 |                 18921 |                  948 |            2159497 |             0 |                0 |         1084616 |                     0 |        838927 | 2017-02-04 17:22:32.723409+01

 2017-02-04 18:22:07.477203+01 | 1486228927.4772 |                 0 |              12 |                 18921 |                  948 |            2159497 |             0 |                0 |         1084616 |                     0 |        839196 | 2017-02-04 17:22:32.723409+01

 2017-02-04 18:22:08.551016+01 | 1486228928.55102 |                 0 |              12 |                 18921 |                  948 |            2159497 |             0 |                0 |         1084616 |                     0 |        839462 | 2017-02-04 17:22:32.723409+01

 2017-02-04 18:22:09.614248+01 | 1486228929.61425 |                 0 |              12 |                 18921 |                  948 |            2159497 |             0 |                0 |         1084616 |                     0 |        839650 | 2017-02-04 17:22:32.723409+01

 2017-02-04 18:22:10.688483+01 | 1486228930.68848 |                 0 |              12 |                 18921 |                  948 |            2159497 |             0 |                0 |         1084616 |                     0 |        839939 | 2017-02-04 17:22:32.723409+01

 2017-02-04 18:22:11.769308+01 | 1486228931.76931 |                 0 |              12 |                 18921 |                  948 |            2159497 |             0 |                0 |         1084616 |                     0 |        840150 | 2017-02-04 17:22:32.723409+01

 2017-02-04 18:22:12.848669+01 | 1486228932.84867 |                 0 |              12 |                 18921 |                  948 |            2159497 |             0 |                0 |         1084616 |                     0 |        840442 | 2017-02-04 17:22:32.723409+01

 2017-02-04 18:22:13.919521+01 | 1486228933.91952 |                 0 |              12 |                 18921 |                  948 |            2159497 |             0 |                0 |         1084616 |                     0 |        840632 | 2017-02-04 17:22:32.723409+01

 2017-02-04 18:22:14.987346+01 | 1486228934.98735 |                 0 |              12 |                 18921 |                  948 |            2159497 |             0 |                0 |         1084616 |                     0 |        840909 | 2017-02-04 17:22:32.723409+01

 2017-02-04 18:22:16.072232+01 | 1486228936.07223 |                 0 |              12 |                 18921 |                  948 |            2159497 |             0 |                0 |         1084616 |                     0 |        841138 | 2017-02-04 17:22:32.723409+01

 2017-02-04 18:22:17.152795+01 | 1486228937.1528 |                 0 |              12 |                 18921 |                  948 |            2159497 |             0 |                0 |         1084616 |                     0 |        841372 | 2017-02-04 17:22:32.723409+01

 2017-02-04 18:22:18.232262+01 | 1486228938.23226 |                 0 |              12 |                 18921 |                  948 |            2159497 |             0 |                0 |         1084616 |                     0 |        841611 | 2017-02-04 17:22:32.723409+01

 2017-02-04 18:22:19.30994+01 | 1486228939.30994 |                 0 |              12 |                 18921 |                  948 |            2159497 |             0 |                0 |         1084616 |                     0 |        841864 | 2017-02-04 17:22:32.723409+01

 2017-02-04 18:22:20.385712+01 | 1486228940.38571 |                 0 |              12 |                 18921 |                  948 |            2159497 |             0 |                0 |         1084616 |                     0 |        842124 | 2017-02-04 17:22:32.723409+01

 2017-02-04 18:22:21.463352+01 | 1486228941.46335 |                 0 |              12 |                 18921 |                  948 |            2159497 |             0 |                0 |         1084616 |                     0 |        842334 | 2017-02-04 17:22:32.723409+01

 2017-02-04 18:22:22.537193+01 | 1486228942.53719 |                 0 |              12 |                 18921 |                  948 |            2159497 |             0 |                0 |         1084616 |                     0 |        842530 | 2017-02-04 17:22:32.723409+01

 2017-02-04 18:22:23.619099+01 | 1486228943.6191 |                 0 |              12 |                 18921 |                  948 |            2159497 |             0 |                0 |         1084616 |                     0 |        842899 | 2017-02-04 17:22:32.723409+01

 2017-02-04 18:22:24.695393+01 | 1486228944.69539 |                 0 |              12 |                 18921 |                  948 |            2159497 |             0 |                0 |         1084616 |                     0 |        843002 | 2017-02-04 17:22:32.723409+01

 2017-02-04 18:22:25.772344+01 | 1486228945.77234 |                 0 |              12 |                 18921 |                  948 |            2159497 |             0 |                0 |         1084616 |                     0 |        843275 | 2017-02-04 17:22:32.723409+01

 2017-02-04 18:22:26.844779+01 | 1486228946.84478 |                 0 |              12 |                 18921 |                  948 |            2159497 |             0 |                0 |         1084616 |                     0 |        843418 | 2017-02-04 17:22:32.723409+01

 2017-02-04 18:22:27.923765+01 | 1486228947.92376 |                 0 |              12 |                 18921 |                  948 |            2159497 |             0 |                0 |         1084616 |                     0 |        843710 | 2017-02-04 17:22:32.723409+01

 2017-02-04 18:22:29.005036+01 | 1486228949.00504 |                 0 |              12 |                 18921 |                  948 |            2159497 |             0 |                0 |         1084616 |                     0 |        843943 | 2017-02-04 17:22:32.723409+01

 2017-02-04 18:22:30.082162+01 | 1486228950.08216 |                 0 |              12 |                 18921 |                  948 |            2159497 |             0 |                0 |         1084616 |                     0 |        844192 | 2017-02-04 17:22:32.723409+01

 2017-02-04 18:22:31.163292+01 | 1486228951.16329 |                 0 |              12 |                 18921 |                  948 |            2159497 |             0 |                0 |         1084616 |                     0 |        844421 | 2017-02-04 17:22:32.723409+01

 2017-02-04 18:22:32.241229+01 | 1486228952.24123 |                 0 |              12 |                 18921 |                  948 |            2159497 |             0 |                0 |         1084616 |                     0 |        844636 | 2017-02-04 17:22:32.723409+01

 2017-02-04 18:22:33.316956+01 | 1486228953.31696 |                 0 |              12 |                 18921 |                  948 |            2159497 |             0 |                0 |         1084616 |                     0 |        844910 | 2017-02-04 17:22:32.723409+01

 2017-02-04 18:22:34.39509+01 | 1486228954.39509 |                 0 |              12 |                 18921 |                  948 |            2159497 |             0 |                0 |         1084616 |                     0 |        845156 | 2017-02-04 17:22:32.723409+01

 2017-02-04 18:22:35.476962+01 | 1486228955.47696 |                 0 |              12 |                 18921 |                  948 |            2159497 |             0 |                0 |         1084616 |                     0 |        845446 | 2017-02-04 17:22:32.723409+01

 2017-02-04 18:22:36.552649+01 | 1486228956.55265 |                 0 |              12 |                 18921 |                  948 |            2159497 |             0 |                0 |         1084616 |                     0 |        845592 | 2017-02-04 17:22:32.723409+01

 2017-02-04 18:22:37.634648+01 | 1486228957.63465 |                 0 |              12 |                 18921 |                  948 |            2159497 |             0 |                0 |         1084616 |                     0 |        845841 | 2017-02-04 17:22:32.723409+01

 2017-02-04 18:22:38.710154+01 | 1486228958.71015 |                 0 |              12 |                 18921 |                  948 |            2159497 |             0 |                0 |         1084616 |                     0 |        846090 | 2017-02-04 17:22:32.723409+01

 2017-02-04 18:22:39.787073+01 | 1486228959.78707 |                 0 |              12 |                 18921 |                  948 |            2159497 |             0 |                0 |         1084616 |                     0 |        846339 | 2017-02-04 17:22:32.723409+01

 2017-02-04 18:22:40.861994+01 | 1486228960.86199 |                 0 |              12 |                 18921 |                  948 |            2159497 |             0 |                0 |         1084616 |                     0 |        846595 | 2017-02-04 17:22:32.723409+01

 2017-02-04 18:22:41.940028+01 | 1486228961.94003 |                 0 |              12 |                 18921 |                  948 |            2159497 |             0 |                0 |         1084616 |                     0 |        846760 | 2017-02-04 17:22:32.723409+01

 2017-02-04 18:22:43.015382+01 | 1486228963.01538 |                 0 |              12 |                 18921 |                  948 |            2159497 |             0 |                0 |         1084616 |                     0 |        847377 | 2017-02-04 17:22:32.723409+01

 2017-02-04 18:22:44.099669+01 | 1486228964.09967 |                 0 |              12 |                 18921 |                  948 |            2159497 |             0 |                0 |         1084616 |                     0 |        847377 | 2017-02-04 17:22:32.723409+01

 2017-02-04 18:22:45.182856+01 | 1486228965.18286 |                 0 |              12 |                 18921 |                  948 |            2159497 |             0 |                0 |         1084616 |                     0 |        847583 | 2017-02-04 17:22:32.723409+01

 2017-02-04 18:22:46.264081+01 | 1486228966.26408 |                 0 |              12 |                 18921 |                  948 |            2159497 |             0 |                0 |         1084616 |                     0 |        847729 | 2017-02-04 17:22:32.723409+01

 2017-02-04 18:22:47.339983+01 | 1486228967.33998 |                 0 |              12 |                 18921 |                  948 |            2159497 |             0 |                0 |         1084616 |                     0 |        847960 | 2017-02-04 17:22:32.723409+01

 2017-02-04 18:22:48.413254+01 | 1486228968.41325 |                 0 |              12 |                 18921 |                  948 |            2159497 |             0 |                0 |         1084616 |                     0 |        848187 | 2017-02-04 17:22:32.723409+01

 2017-02-04 18:22:49.485358+01 | 1486228969.48536 |                 0 |              12 |                 18921 |                  948 |            2159497 |             0 |                0 |         1084616 |                     0 |        848422 | 2017-02-04 17:22:32.723409+01

 2017-02-04 18:22:50.561411+01 | 1486228970.56141 |                 0 |              12 |                 18921 |                  948 |            2159497 |             0 |                0 |         1084616 |                     0 |        848671 | 2017-02-04 17:22:32.723409+01

 2017-02-04 18:22:51.641541+01 | 1486228971.64154 |                 0 |              12 |                 18921 |                  948 |            2159497 |             0 |                0 |         1084616 |                     0 |        848943 | 2017-02-04 17:22:32.723409+01

 2017-02-04 18:22:52.720043+01 | 1486228972.72004 |                 0 |              12 |                 18921 |                  948 |            2159497 |             0 |                0 |         1084616 |                     0 |        849202 | 2017-02-04 17:22:32.723409+01

 2017-02-04 18:22:53.795712+01 | 1486228973.79571 |                 0 |              12 |                 18921 |                  948 |            2159497 |             0 |                0 |         1084616 |                     0 |        849511 | 2017-02-04 17:22:32.723409+01

 2017-02-04 18:22:54.874146+01 | 1486228974.87415 |                 0 |              12 |                 18921 |                  948 |            2159497 |             0 |                0 |         1084616 |                     0 |        849614 | 2017-02-04 17:22:32.723409+01

 2017-02-04 18:22:55.945178+01 | 1486228975.94518 |                 0 |              12 |                 18921 |                  948 |            2159497 |             0 |                0 |         1084616 |                     0 |        849946 | 2017-02-04 17:22:32.723409+01

 2017-02-04 18:22:57.025404+01 | 1486228977.0254 |                 0 |              12 |                 18921 |                  948 |            2159497 |             0 |                0 |         1084616 |                     0 |        850172 | 2017-02-04 17:22:32.723409+01

 2017-02-04 18:22:58.099141+01 | 1486228978.09914 |                 0 |              12 |                 18921 |                  948 |            2159497 |             0 |                0 |         1084616 |                     0 |        850381 | 2017-02-04 17:22:32.723409+01

 2017-02-04 18:22:59.173579+01 | 1486228979.17358 |                 0 |              12 |                 18921 |                  948 |            2159497 |             0 |                0 |         1084616 |                     0 |        850577 | 2017-02-04 17:22:32.723409+01

 2017-02-04 18:23:00.251606+01 | 1486228980.25161 |                 0 |              12 |                 18921 |                  948 |            2159497 |             0 |                0 |         1084616 |                     0 |        850900 | 2017-02-04 17:22:32.723409+01

 2017-02-04 18:23:01.324005+01 | 1486228981.324 |                 0 |              12 |                 18921 |                  948 |            2159497 |             0 |                0 |         1084616 |                     0 |        851049 | 2017-02-04 17:22:32.723409+01

 2017-02-04 18:23:02.405614+01 | 1486228982.40561 |                 0 |              12 |                 18921 |                  948 |            2159497 |             0 |                0 |         1084616 |                     0 |        851402 | 2017-02-04 17:22:32.723409+01

 2017-02-04 18:23:03.484853+01 | 1486228983.48485 |                 0 |              12 |                 18921 |                  948 |            2159497 |             0 |                0 |         1084616 |                     0 |        851549 | 2017-02-04 17:22:32.723409+01

 2017-02-04 18:23:04.54929+01 | 1486228984.54929 |                 0 |              12 |                 18921 |                  948 |            2159497 |             0 |                0 |         1084616 |                     0 |        851761 | 2017-02-04 17:22:32.723409+01

 2017-02-04 18:23:05.622217+01 | 1486228985.62222 |                 0 |              12 |                 18921 |                  948 |            2159497 |             0 |                0 |         1084616 |                     0 |        852016 | 2017-02-04 17:22:32.723409+01

 2017-02-04 18:23:06.697658+01 | 1486228986.69766 |                 0 |              12 |                 18921 |                  948 |            2159497 |             0 |                0 |         1084616 |                     0 |        852267 | 2017-02-04 17:22:32.723409+01

 2017-02-04 18:23:07.77468+01 | 1486228987.77468 |                 0 |              12 |                 18921 |                  948 |            2159497 |             0 |                0 |         1084616 |                     0 |        852542 | 2017-02-04 17:22:32.723409+01

 2017-02-04 18:23:08.848507+01 | 1486228988.84851 |                 0 |              12 |                 18921 |                  948 |            2159497 |             0 |                0 |         1084616 |                     0 |        852751 | 2017-02-04 17:22:32.723409+01

 2017-02-04 18:23:09.911107+01 | 1486228989.91111 |                 0 |              12 |                 18921 |                  948 |            2159497 |             0 |                0 |         1084616 |                     0 |        852751 | 2017-02-04 17:22:32.723409+01

 2017-02-04 18:23:10.98676+01 | 1486228990.98676 |                 0 |              12 |                 18921 |                  948 |            2159497 |             0 |                0 |         1084616 |                     0 |        853187 | 2017-02-04 17:22:32.723409+01

 2017-02-04 18:23:12.067579+01 | 1486228992.06758 |                 0 |              12 |                 18921 |                  948 |            2159497 |             0 |                0 |         1084616 |                     0 |        853476 | 2017-02-04 17:22:32.723409+01

 2017-02-04 18:23:13.147262+01 | 1486228993.14726 |                 0 |              12 |                 18921 |                  948 |            2159497 |             0 |                0 |         1084616 |                     0 |        853579 | 2017-02-04 17:22:32.723409+01

 2017-02-04 18:23:14.221598+01 | 1486228994.2216 |                 0 |              12 |                 18921 |                  948 |            2159497 |             0 |                0 |         1084616 |                     0 |        853975 | 2017-02-04 17:22:32.723409+01

 2017-02-04 18:23:15.301086+01 | 1486228995.30109 |                 0 |              12 |                 18921 |                  948 |            2159497 |             0 |                0 |         1084616 |                     0 |        854188 | 2017-02-04 17:22:32.723409+01

 2017-02-04 18:23:16.373597+01 | 1486228996.3736 |                 0 |              12 |                 18921 |                  948 |            2159497 |             0 |                0 |         1084616 |                     0 |        854397 | 2017-02-04 17:22:32.723409+01

 2017-02-04 18:23:17.445661+01 | 1486228997.44566 |                 0 |              12 |                 18921 |                  948 |            2159497 |             0 |                0 |         1084616 |                     0 |        854607 | 2017-02-04 17:22:32.723409+01

 2017-02-04 18:23:18.524445+01 | 1486228998.52445 |                 0 |              12 |                 18921 |                  948 |            2159497 |             0 |                0 |         1084616 |                     0 |        854869 | 2017-02-04 17:22:32.723409+01

 2017-02-04 18:23:19.59639+01 | 1486228999.59639 |                 0 |              12 |                 18921 |                  948 |            2159497 |             0 |                0 |         1084616 |                     0 |        855078 | 2017-02-04 17:22:32.723409+01

 2017-02-04 18:23:20.670783+01 | 1486229000.67078 |                 0 |              12 |                 18921 |                  948 |            2159497 |             0 |                0 |         1084616 |                     0 |        855262 | 2017-02-04 17:22:32.723409+01

 2017-02-04 18:23:21.742499+01 | 1486229001.7425 |                 0 |              12 |                 18921 |                  948 |            2159497 |             0 |                0 |         1084616 |                     0 |        855547 | 2017-02-04 17:22:32.723409+01

