 2017-02-06 06:17:20.731367+01 | 1486358240.73137 | pgbench_accounts |       1342955520
 2017-02-06 06:17:20.731367+01 | 1486358240.73137 | pgbench_tellers  |            49152
 2017-02-06 06:17:20.731367+01 | 1486358240.73137 | pgbench_history  |                0
 2017-02-06 06:17:20.731367+01 | 1486358240.73137 | pgbench_branches |             8192

 2017-02-06 06:17:21.826099+01 | 1486358241.8261 | pgbench_accounts |       1342955520
 2017-02-06 06:17:21.826099+01 | 1486358241.8261 | pgbench_tellers  |            49152
 2017-02-06 06:17:21.826099+01 | 1486358241.8261 | pgbench_history  |                0
 2017-02-06 06:17:21.826099+01 | 1486358241.8261 | pgbench_branches |             8192

 2017-02-06 06:17:22.919374+01 | 1486358242.91937 | pgbench_accounts |       1342955520
 2017-02-06 06:17:22.919374+01 | 1486358242.91937 | pgbench_tellers  |            49152
 2017-02-06 06:17:22.919374+01 | 1486358242.91937 | pgbench_history  |                0
 2017-02-06 06:17:22.919374+01 | 1486358242.91937 | pgbench_branches |             8192

 2017-02-06 06:17:24.008997+01 | 1486358244.009 | pgbench_accounts |       1342955520
 2017-02-06 06:17:24.008997+01 | 1486358244.009 | pgbench_tellers  |            49152
 2017-02-06 06:17:24.008997+01 | 1486358244.009 | pgbench_history  |                0
 2017-02-06 06:17:24.008997+01 | 1486358244.009 | pgbench_branches |             8192

 2017-02-06 06:17:25.102137+01 | 1486358245.10214 | pgbench_accounts |       1342955520
 2017-02-06 06:17:25.102137+01 | 1486358245.10214 | pgbench_tellers  |            49152
 2017-02-06 06:17:25.102137+01 | 1486358245.10214 | pgbench_history  |                0
 2017-02-06 06:17:25.102137+01 | 1486358245.10214 | pgbench_branches |             8192

 2017-02-06 06:17:26.205507+01 | 1486358246.20551 | pgbench_accounts |       1342955520
 2017-02-06 06:17:26.205507+01 | 1486358246.20551 | pgbench_tellers  |            49152
 2017-02-06 06:17:26.205507+01 | 1486358246.20551 | pgbench_history  |                0
 2017-02-06 06:17:26.205507+01 | 1486358246.20551 | pgbench_branches |             8192

 2017-02-06 06:17:27.309836+01 | 1486358247.30984 | pgbench_accounts |       1342955520
 2017-02-06 06:17:27.309836+01 | 1486358247.30984 | pgbench_tellers  |            49152
 2017-02-06 06:17:27.309836+01 | 1486358247.30984 | pgbench_history  |                0
 2017-02-06 06:17:27.309836+01 | 1486358247.30984 | pgbench_branches |             8192

 2017-02-06 06:17:28.39821+01 | 1486358248.39821 | pgbench_accounts |       1342955520
 2017-02-06 06:17:28.39821+01 | 1486358248.39821 | pgbench_tellers  |            49152
 2017-02-06 06:17:28.39821+01 | 1486358248.39821 | pgbench_history  |                0
 2017-02-06 06:17:28.39821+01 | 1486358248.39821 | pgbench_branches |             8192

 2017-02-06 06:17:29.492771+01 | 1486358249.49277 | pgbench_accounts |       1342955520
 2017-02-06 06:17:29.492771+01 | 1486358249.49277 | pgbench_tellers  |            49152
 2017-02-06 06:17:29.492771+01 | 1486358249.49277 | pgbench_history  |                0
 2017-02-06 06:17:29.492771+01 | 1486358249.49277 | pgbench_branches |             8192

 2017-02-06 06:17:30.595062+01 | 1486358250.59506 | pgbench_accounts |       1342955520
 2017-02-06 06:17:30.595062+01 | 1486358250.59506 | pgbench_tellers  |            49152
 2017-02-06 06:17:30.595062+01 | 1486358250.59506 | pgbench_history  |                0
 2017-02-06 06:17:30.595062+01 | 1486358250.59506 | pgbench_branches |             8192

 2017-02-06 06:17:31.691726+01 | 1486358251.69173 | pgbench_accounts |       1342955520
 2017-02-06 06:17:31.691726+01 | 1486358251.69173 | pgbench_tellers  |            49152
 2017-02-06 06:17:31.691726+01 | 1486358251.69173 | pgbench_history  |                0
 2017-02-06 06:17:31.691726+01 | 1486358251.69173 | pgbench_branches |             8192

 2017-02-06 06:17:32.794787+01 | 1486358252.79479 | pgbench_accounts |       1342955520
 2017-02-06 06:17:32.794787+01 | 1486358252.79479 | pgbench_tellers  |            49152
 2017-02-06 06:17:32.794787+01 | 1486358252.79479 | pgbench_history  |                0
 2017-02-06 06:17:32.794787+01 | 1486358252.79479 | pgbench_branches |             8192

 2017-02-06 06:17:33.908352+01 | 1486358253.90835 | pgbench_accounts |       1342955520
 2017-02-06 06:17:33.908352+01 | 1486358253.90835 | pgbench_tellers  |            49152
 2017-02-06 06:17:33.908352+01 | 1486358253.90835 | pgbench_history  |                0
 2017-02-06 06:17:33.908352+01 | 1486358253.90835 | pgbench_branches |             8192

 2017-02-06 06:17:35.016786+01 | 1486358255.01679 | pgbench_accounts |       1342955520
 2017-02-06 06:17:35.016786+01 | 1486358255.01679 | pgbench_tellers  |            49152
 2017-02-06 06:17:35.016786+01 | 1486358255.01679 | pgbench_history  |                0
 2017-02-06 06:17:35.016786+01 | 1486358255.01679 | pgbench_branches |             8192

 2017-02-06 06:17:36.142336+01 | 1486358256.14234 | pgbench_accounts |       1342955520
 2017-02-06 06:17:36.142336+01 | 1486358256.14234 | pgbench_tellers  |            49152
 2017-02-06 06:17:36.142336+01 | 1486358256.14234 | pgbench_history  |                0
 2017-02-06 06:17:36.142336+01 | 1486358256.14234 | pgbench_branches |             8192

 2017-02-06 06:17:37.25721+01 | 1486358257.25721 | pgbench_accounts |       1342955520
 2017-02-06 06:17:37.25721+01 | 1486358257.25721 | pgbench_tellers  |            49152
 2017-02-06 06:17:37.25721+01 | 1486358257.25721 | pgbench_history  |                0
 2017-02-06 06:17:37.25721+01 | 1486358257.25721 | pgbench_branches |             8192

 2017-02-06 06:17:38.350395+01 | 1486358258.35039 | pgbench_accounts |       1342955520
 2017-02-06 06:17:38.350395+01 | 1486358258.35039 | pgbench_tellers  |            49152
 2017-02-06 06:17:38.350395+01 | 1486358258.35039 | pgbench_history  |                0
 2017-02-06 06:17:38.350395+01 | 1486358258.35039 | pgbench_branches |             8192

 2017-02-06 06:17:39.451316+01 | 1486358259.45132 | pgbench_accounts |       1342955520
 2017-02-06 06:17:39.451316+01 | 1486358259.45132 | pgbench_tellers  |            49152
 2017-02-06 06:17:39.451316+01 | 1486358259.45132 | pgbench_history  |                0
 2017-02-06 06:17:39.451316+01 | 1486358259.45132 | pgbench_branches |             8192

 2017-02-06 06:17:40.544318+01 | 1486358260.54432 | pgbench_accounts |       1342955520
 2017-02-06 06:17:40.544318+01 | 1486358260.54432 | pgbench_tellers  |            49152
 2017-02-06 06:17:40.544318+01 | 1486358260.54432 | pgbench_history  |                0
 2017-02-06 06:17:40.544318+01 | 1486358260.54432 | pgbench_branches |             8192

 2017-02-06 06:17:41.632819+01 | 1486358261.63282 | pgbench_accounts |       1342955520
 2017-02-06 06:17:41.632819+01 | 1486358261.63282 | pgbench_tellers  |            49152
 2017-02-06 06:17:41.632819+01 | 1486358261.63282 | pgbench_history  |                0
 2017-02-06 06:17:41.632819+01 | 1486358261.63282 | pgbench_branches |             8192

 2017-02-06 06:17:42.732983+01 | 1486358262.73298 | pgbench_accounts |       1342955520
 2017-02-06 06:17:42.732983+01 | 1486358262.73298 | pgbench_tellers  |            49152
 2017-02-06 06:17:42.732983+01 | 1486358262.73298 | pgbench_history  |                0
 2017-02-06 06:17:42.732983+01 | 1486358262.73298 | pgbench_branches |             8192

 2017-02-06 06:17:43.854569+01 | 1486358263.85457 | pgbench_accounts |       1342955520
 2017-02-06 06:17:43.854569+01 | 1486358263.85457 | pgbench_tellers  |            49152
 2017-02-06 06:17:43.854569+01 | 1486358263.85457 | pgbench_history  |                0
 2017-02-06 06:17:43.854569+01 | 1486358263.85457 | pgbench_branches |             8192

 2017-02-06 06:17:44.950132+01 | 1486358264.95013 | pgbench_accounts |       1342955520
 2017-02-06 06:17:44.950132+01 | 1486358264.95013 | pgbench_tellers  |            49152
 2017-02-06 06:17:44.950132+01 | 1486358264.95013 | pgbench_history  |                0
 2017-02-06 06:17:44.950132+01 | 1486358264.95013 | pgbench_branches |             8192

 2017-02-06 06:17:46.040317+01 | 1486358266.04032 | pgbench_accounts |       1342955520
 2017-02-06 06:17:46.040317+01 | 1486358266.04032 | pgbench_tellers  |            49152
 2017-02-06 06:17:46.040317+01 | 1486358266.04032 | pgbench_history  |                0
 2017-02-06 06:17:46.040317+01 | 1486358266.04032 | pgbench_branches |             8192

 2017-02-06 06:17:47.144203+01 | 1486358267.1442 | pgbench_accounts |       1342955520
 2017-02-06 06:17:47.144203+01 | 1486358267.1442 | pgbench_tellers  |            49152
 2017-02-06 06:17:47.144203+01 | 1486358267.1442 | pgbench_history  |                0
 2017-02-06 06:17:47.144203+01 | 1486358267.1442 | pgbench_branches |             8192

 2017-02-06 06:17:48.248066+01 | 1486358268.24807 | pgbench_accounts |       1342955520
 2017-02-06 06:17:48.248066+01 | 1486358268.24807 | pgbench_tellers  |            49152
 2017-02-06 06:17:48.248066+01 | 1486358268.24807 | pgbench_history  |                0
 2017-02-06 06:17:48.248066+01 | 1486358268.24807 | pgbench_branches |             8192

 2017-02-06 06:17:49.366417+01 | 1486358269.36642 | pgbench_accounts |       1342955520
 2017-02-06 06:17:49.366417+01 | 1486358269.36642 | pgbench_tellers  |            49152
 2017-02-06 06:17:49.366417+01 | 1486358269.36642 | pgbench_history  |                0
 2017-02-06 06:17:49.366417+01 | 1486358269.36642 | pgbench_branches |             8192

 2017-02-06 06:17:50.458483+01 | 1486358270.45848 | pgbench_accounts |       1342955520
 2017-02-06 06:17:50.458483+01 | 1486358270.45848 | pgbench_tellers  |            49152
 2017-02-06 06:17:50.458483+01 | 1486358270.45848 | pgbench_history  |                0
 2017-02-06 06:17:50.458483+01 | 1486358270.45848 | pgbench_branches |             8192

 2017-02-06 06:17:51.544132+01 | 1486358271.54413 | pgbench_accounts |       1342955520
 2017-02-06 06:17:51.544132+01 | 1486358271.54413 | pgbench_tellers  |            49152
 2017-02-06 06:17:51.544132+01 | 1486358271.54413 | pgbench_history  |                0
 2017-02-06 06:17:51.544132+01 | 1486358271.54413 | pgbench_branches |             8192

 2017-02-06 06:17:52.638991+01 | 1486358272.63899 | pgbench_accounts |       1342955520
 2017-02-06 06:17:52.638991+01 | 1486358272.63899 | pgbench_tellers  |            49152
 2017-02-06 06:17:52.638991+01 | 1486358272.63899 | pgbench_history  |                0
 2017-02-06 06:17:52.638991+01 | 1486358272.63899 | pgbench_branches |             8192

 2017-02-06 06:17:53.741387+01 | 1486358273.74139 | pgbench_accounts |       1342955520
 2017-02-06 06:17:53.741387+01 | 1486358273.74139 | pgbench_tellers  |            49152
 2017-02-06 06:17:53.741387+01 | 1486358273.74139 | pgbench_history  |                0
 2017-02-06 06:17:53.741387+01 | 1486358273.74139 | pgbench_branches |             8192

 2017-02-06 06:17:54.831959+01 | 1486358274.83196 | pgbench_accounts |       1342955520
 2017-02-06 06:17:54.831959+01 | 1486358274.83196 | pgbench_tellers  |            49152
 2017-02-06 06:17:54.831959+01 | 1486358274.83196 | pgbench_history  |                0
 2017-02-06 06:17:54.831959+01 | 1486358274.83196 | pgbench_branches |             8192

 2017-02-06 06:17:55.918809+01 | 1486358275.91881 | pgbench_accounts |       1342955520
 2017-02-06 06:17:55.918809+01 | 1486358275.91881 | pgbench_tellers  |            49152
 2017-02-06 06:17:55.918809+01 | 1486358275.91881 | pgbench_history  |                0
 2017-02-06 06:17:55.918809+01 | 1486358275.91881 | pgbench_branches |             8192

 2017-02-06 06:17:57.018513+01 | 1486358277.01851 | pgbench_accounts |       1342955520
 2017-02-06 06:17:57.018513+01 | 1486358277.01851 | pgbench_tellers  |            49152
 2017-02-06 06:17:57.018513+01 | 1486358277.01851 | pgbench_history  |                0
 2017-02-06 06:17:57.018513+01 | 1486358277.01851 | pgbench_branches |             8192

 2017-02-06 06:17:58.114676+01 | 1486358278.11468 | pgbench_accounts |       1342955520
 2017-02-06 06:17:58.114676+01 | 1486358278.11468 | pgbench_tellers  |            49152
 2017-02-06 06:17:58.114676+01 | 1486358278.11468 | pgbench_history  |                0
 2017-02-06 06:17:58.114676+01 | 1486358278.11468 | pgbench_branches |             8192

 2017-02-06 06:17:59.212627+01 | 1486358279.21263 | pgbench_accounts |       1342955520
 2017-02-06 06:17:59.212627+01 | 1486358279.21263 | pgbench_tellers  |            49152
 2017-02-06 06:17:59.212627+01 | 1486358279.21263 | pgbench_history  |                0
 2017-02-06 06:17:59.212627+01 | 1486358279.21263 | pgbench_branches |             8192

 2017-02-06 06:18:00.332333+01 | 1486358280.33233 | pgbench_accounts |       1342955520
 2017-02-06 06:18:00.332333+01 | 1486358280.33233 | pgbench_tellers  |            49152
 2017-02-06 06:18:00.332333+01 | 1486358280.33233 | pgbench_history  |                0
 2017-02-06 06:18:00.332333+01 | 1486358280.33233 | pgbench_branches |             8192

 2017-02-06 06:18:01.425984+01 | 1486358281.42598 | pgbench_accounts |       1342955520
 2017-02-06 06:18:01.425984+01 | 1486358281.42598 | pgbench_tellers  |            49152
 2017-02-06 06:18:01.425984+01 | 1486358281.42598 | pgbench_history  |                0
 2017-02-06 06:18:01.425984+01 | 1486358281.42598 | pgbench_branches |             8192

 2017-02-06 06:18:02.508136+01 | 1486358282.50814 | pgbench_accounts |       1342955520
 2017-02-06 06:18:02.508136+01 | 1486358282.50814 | pgbench_tellers  |            49152
 2017-02-06 06:18:02.508136+01 | 1486358282.50814 | pgbench_history  |                0
 2017-02-06 06:18:02.508136+01 | 1486358282.50814 | pgbench_branches |             8192

 2017-02-06 06:18:03.594069+01 | 1486358283.59407 | pgbench_accounts |       1342955520
 2017-02-06 06:18:03.594069+01 | 1486358283.59407 | pgbench_tellers  |            49152
 2017-02-06 06:18:03.594069+01 | 1486358283.59407 | pgbench_history  |                0
 2017-02-06 06:18:03.594069+01 | 1486358283.59407 | pgbench_branches |             8192

 2017-02-06 06:18:04.683466+01 | 1486358284.68347 | pgbench_accounts |       1342955520
 2017-02-06 06:18:04.683466+01 | 1486358284.68347 | pgbench_tellers  |            49152
 2017-02-06 06:18:04.683466+01 | 1486358284.68347 | pgbench_history  |                0
 2017-02-06 06:18:04.683466+01 | 1486358284.68347 | pgbench_branches |             8192

 2017-02-06 06:18:05.772495+01 | 1486358285.7725 | pgbench_accounts |       1342955520
 2017-02-06 06:18:05.772495+01 | 1486358285.7725 | pgbench_tellers  |            49152
 2017-02-06 06:18:05.772495+01 | 1486358285.7725 | pgbench_history  |                0
 2017-02-06 06:18:05.772495+01 | 1486358285.7725 | pgbench_branches |             8192

 2017-02-06 06:18:06.861666+01 | 1486358286.86167 | pgbench_accounts |       1342955520
 2017-02-06 06:18:06.861666+01 | 1486358286.86167 | pgbench_tellers  |            49152
 2017-02-06 06:18:06.861666+01 | 1486358286.86167 | pgbench_history  |                0
 2017-02-06 06:18:06.861666+01 | 1486358286.86167 | pgbench_branches |             8192

 2017-02-06 06:18:07.965765+01 | 1486358287.96576 | pgbench_accounts |       1342955520
 2017-02-06 06:18:07.965765+01 | 1486358287.96576 | pgbench_tellers  |            49152
 2017-02-06 06:18:07.965765+01 | 1486358287.96576 | pgbench_history  |                0
 2017-02-06 06:18:07.965765+01 | 1486358287.96576 | pgbench_branches |             8192

 2017-02-06 06:18:09.068729+01 | 1486358289.06873 | pgbench_accounts |       1342955520
 2017-02-06 06:18:09.068729+01 | 1486358289.06873 | pgbench_tellers  |            49152
 2017-02-06 06:18:09.068729+01 | 1486358289.06873 | pgbench_history  |                0
 2017-02-06 06:18:09.068729+01 | 1486358289.06873 | pgbench_branches |             8192

 2017-02-06 06:18:10.168386+01 | 1486358290.16839 | pgbench_accounts |       1342955520
 2017-02-06 06:18:10.168386+01 | 1486358290.16839 | pgbench_tellers  |            49152
 2017-02-06 06:18:10.168386+01 | 1486358290.16839 | pgbench_history  |                0
 2017-02-06 06:18:10.168386+01 | 1486358290.16839 | pgbench_branches |             8192

 2017-02-06 06:18:11.27704+01 | 1486358291.27704 | pgbench_accounts |       1342955520
 2017-02-06 06:18:11.27704+01 | 1486358291.27704 | pgbench_tellers  |            49152
 2017-02-06 06:18:11.27704+01 | 1486358291.27704 | pgbench_history  |                0
 2017-02-06 06:18:11.27704+01 | 1486358291.27704 | pgbench_branches |             8192

 2017-02-06 06:18:12.379413+01 | 1486358292.37941 | pgbench_accounts |       1342955520
 2017-02-06 06:18:12.379413+01 | 1486358292.37941 | pgbench_tellers  |            49152
 2017-02-06 06:18:12.379413+01 | 1486358292.37941 | pgbench_history  |                0
 2017-02-06 06:18:12.379413+01 | 1486358292.37941 | pgbench_branches |             8192

 2017-02-06 06:18:13.47546+01 | 1486358293.47546 | pgbench_accounts |       1342955520
 2017-02-06 06:18:13.47546+01 | 1486358293.47546 | pgbench_tellers  |            49152
 2017-02-06 06:18:13.47546+01 | 1486358293.47546 | pgbench_history  |                0
 2017-02-06 06:18:13.47546+01 | 1486358293.47546 | pgbench_branches |             8192

 2017-02-06 06:18:14.563581+01 | 1486358294.56358 | pgbench_accounts |       1342955520
 2017-02-06 06:18:14.563581+01 | 1486358294.56358 | pgbench_tellers  |            49152
 2017-02-06 06:18:14.563581+01 | 1486358294.56358 | pgbench_history  |                0
 2017-02-06 06:18:14.563581+01 | 1486358294.56358 | pgbench_branches |             8192

 2017-02-06 06:18:15.641754+01 | 1486358295.64175 | pgbench_accounts |       1342955520
 2017-02-06 06:18:15.641754+01 | 1486358295.64175 | pgbench_tellers  |            49152
 2017-02-06 06:18:15.641754+01 | 1486358295.64175 | pgbench_history  |                0
 2017-02-06 06:18:15.641754+01 | 1486358295.64175 | pgbench_branches |             8192

 2017-02-06 06:18:16.736065+01 | 1486358296.73606 | pgbench_accounts |       1342955520
 2017-02-06 06:18:16.736065+01 | 1486358296.73606 | pgbench_tellers  |            49152
 2017-02-06 06:18:16.736065+01 | 1486358296.73606 | pgbench_history  |                0
 2017-02-06 06:18:16.736065+01 | 1486358296.73606 | pgbench_branches |             8192

 2017-02-06 06:18:17.83826+01 | 1486358297.83826 | pgbench_accounts |       1342955520
 2017-02-06 06:18:17.83826+01 | 1486358297.83826 | pgbench_tellers  |            49152
 2017-02-06 06:18:17.83826+01 | 1486358297.83826 | pgbench_history  |                0
 2017-02-06 06:18:17.83826+01 | 1486358297.83826 | pgbench_branches |             8192

 2017-02-06 06:18:18.929499+01 | 1486358298.9295 | pgbench_accounts |       1342955520
 2017-02-06 06:18:18.929499+01 | 1486358298.9295 | pgbench_tellers  |            49152
 2017-02-06 06:18:18.929499+01 | 1486358298.9295 | pgbench_history  |                0
 2017-02-06 06:18:18.929499+01 | 1486358298.9295 | pgbench_branches |             8192

 2017-02-06 06:18:20.025107+01 | 1486358300.02511 | pgbench_accounts |       1342955520
 2017-02-06 06:18:20.025107+01 | 1486358300.02511 | pgbench_tellers  |            49152
 2017-02-06 06:18:20.025107+01 | 1486358300.02511 | pgbench_history  |                0
 2017-02-06 06:18:20.025107+01 | 1486358300.02511 | pgbench_branches |             8192

 2017-02-06 06:18:21.132086+01 | 1486358301.13209 | pgbench_accounts |       1342955520
 2017-02-06 06:18:21.132086+01 | 1486358301.13209 | pgbench_tellers  |            49152
 2017-02-06 06:18:21.132086+01 | 1486358301.13209 | pgbench_history  |                0
 2017-02-06 06:18:21.132086+01 | 1486358301.13209 | pgbench_branches |             8192

 2017-02-06 06:18:22.228422+01 | 1486358302.22842 | pgbench_accounts |       1342955520
 2017-02-06 06:18:22.228422+01 | 1486358302.22842 | pgbench_tellers  |            49152
 2017-02-06 06:18:22.228422+01 | 1486358302.22842 | pgbench_history  |                0
 2017-02-06 06:18:22.228422+01 | 1486358302.22842 | pgbench_branches |             8192

 2017-02-06 06:18:23.326598+01 | 1486358303.3266 | pgbench_accounts |       1342955520
 2017-02-06 06:18:23.326598+01 | 1486358303.3266 | pgbench_tellers  |            49152
 2017-02-06 06:18:23.326598+01 | 1486358303.3266 | pgbench_history  |                0
 2017-02-06 06:18:23.326598+01 | 1486358303.3266 | pgbench_branches |             8192

 2017-02-06 06:18:24.434045+01 | 1486358304.43405 | pgbench_accounts |       1342955520
 2017-02-06 06:18:24.434045+01 | 1486358304.43405 | pgbench_tellers  |            49152
 2017-02-06 06:18:24.434045+01 | 1486358304.43405 | pgbench_history  |                0
 2017-02-06 06:18:24.434045+01 | 1486358304.43405 | pgbench_branches |             8192

 2017-02-06 06:18:25.525277+01 | 1486358305.52528 | pgbench_accounts |       1342955520
 2017-02-06 06:18:25.525277+01 | 1486358305.52528 | pgbench_tellers  |            49152
 2017-02-06 06:18:25.525277+01 | 1486358305.52528 | pgbench_history  |                0
 2017-02-06 06:18:25.525277+01 | 1486358305.52528 | pgbench_branches |             8192

 2017-02-06 06:18:26.614487+01 | 1486358306.61449 | pgbench_accounts |       1342955520
 2017-02-06 06:18:26.614487+01 | 1486358306.61449 | pgbench_tellers  |            49152
 2017-02-06 06:18:26.614487+01 | 1486358306.61449 | pgbench_history  |                0
 2017-02-06 06:18:26.614487+01 | 1486358306.61449 | pgbench_branches |             8192

 2017-02-06 06:18:27.705997+01 | 1486358307.706 | pgbench_accounts |       1342955520
 2017-02-06 06:18:27.705997+01 | 1486358307.706 | pgbench_tellers  |            49152
 2017-02-06 06:18:27.705997+01 | 1486358307.706 | pgbench_history  |                0
 2017-02-06 06:18:27.705997+01 | 1486358307.706 | pgbench_branches |             8192

 2017-02-06 06:18:28.797465+01 | 1486358308.79747 | pgbench_accounts |       1342955520
 2017-02-06 06:18:28.797465+01 | 1486358308.79747 | pgbench_tellers  |            49152
 2017-02-06 06:18:28.797465+01 | 1486358308.79747 | pgbench_history  |                0
 2017-02-06 06:18:28.797465+01 | 1486358308.79747 | pgbench_branches |             8192

 2017-02-06 06:18:29.88114+01 | 1486358309.88114 | pgbench_accounts |       1342955520
 2017-02-06 06:18:29.88114+01 | 1486358309.88114 | pgbench_tellers  |            49152
 2017-02-06 06:18:29.88114+01 | 1486358309.88114 | pgbench_history  |                0
 2017-02-06 06:18:29.88114+01 | 1486358309.88114 | pgbench_branches |             8192

 2017-02-06 06:18:30.978668+01 | 1486358310.97867 | pgbench_accounts |       1342955520
 2017-02-06 06:18:30.978668+01 | 1486358310.97867 | pgbench_tellers  |            49152
 2017-02-06 06:18:30.978668+01 | 1486358310.97867 | pgbench_history  |                0
 2017-02-06 06:18:30.978668+01 | 1486358310.97867 | pgbench_branches |             8192

 2017-02-06 06:18:32.081447+01 | 1486358312.08145 | pgbench_accounts |       1342955520
 2017-02-06 06:18:32.081447+01 | 1486358312.08145 | pgbench_tellers  |            49152
 2017-02-06 06:18:32.081447+01 | 1486358312.08145 | pgbench_history  |                0
 2017-02-06 06:18:32.081447+01 | 1486358312.08145 | pgbench_branches |             8192

 2017-02-06 06:18:33.17186+01 | 1486358313.17186 | pgbench_accounts |       1342955520
 2017-02-06 06:18:33.17186+01 | 1486358313.17186 | pgbench_tellers  |            49152
 2017-02-06 06:18:33.17186+01 | 1486358313.17186 | pgbench_history  |                0
 2017-02-06 06:18:33.17186+01 | 1486358313.17186 | pgbench_branches |             8192

 2017-02-06 06:18:34.284951+01 | 1486358314.28495 | pgbench_accounts |       1342955520
 2017-02-06 06:18:34.284951+01 | 1486358314.28495 | pgbench_tellers  |            49152
 2017-02-06 06:18:34.284951+01 | 1486358314.28495 | pgbench_history  |                0
 2017-02-06 06:18:34.284951+01 | 1486358314.28495 | pgbench_branches |             8192

 2017-02-06 06:18:35.382572+01 | 1486358315.38257 | pgbench_accounts |       1342955520
 2017-02-06 06:18:35.382572+01 | 1486358315.38257 | pgbench_tellers  |            49152
 2017-02-06 06:18:35.382572+01 | 1486358315.38257 | pgbench_history  |                0
 2017-02-06 06:18:35.382572+01 | 1486358315.38257 | pgbench_branches |             8192

 2017-02-06 06:18:36.48619+01 | 1486358316.48619 | pgbench_accounts |       1342955520
 2017-02-06 06:18:36.48619+01 | 1486358316.48619 | pgbench_tellers  |            49152
 2017-02-06 06:18:36.48619+01 | 1486358316.48619 | pgbench_history  |                0
 2017-02-06 06:18:36.48619+01 | 1486358316.48619 | pgbench_branches |             8192

 2017-02-06 06:18:37.573714+01 | 1486358317.57371 | pgbench_accounts |       1342955520
 2017-02-06 06:18:37.573714+01 | 1486358317.57371 | pgbench_tellers  |            49152
 2017-02-06 06:18:37.573714+01 | 1486358317.57371 | pgbench_history  |                0
 2017-02-06 06:18:37.573714+01 | 1486358317.57371 | pgbench_branches |             8192

 2017-02-06 06:18:38.66174+01 | 1486358318.66174 | pgbench_accounts |       1342955520
 2017-02-06 06:18:38.66174+01 | 1486358318.66174 | pgbench_tellers  |            49152
 2017-02-06 06:18:38.66174+01 | 1486358318.66174 | pgbench_history  |                0
 2017-02-06 06:18:38.66174+01 | 1486358318.66174 | pgbench_branches |             8192

 2017-02-06 06:18:39.749408+01 | 1486358319.74941 | pgbench_accounts |       1342955520
 2017-02-06 06:18:39.749408+01 | 1486358319.74941 | pgbench_tellers  |            49152
 2017-02-06 06:18:39.749408+01 | 1486358319.74941 | pgbench_history  |                0
 2017-02-06 06:18:39.749408+01 | 1486358319.74941 | pgbench_branches |             8192

 2017-02-06 06:18:40.836017+01 | 1486358320.83602 | pgbench_accounts |       1342955520
 2017-02-06 06:18:40.836017+01 | 1486358320.83602 | pgbench_tellers  |            49152
 2017-02-06 06:18:40.836017+01 | 1486358320.83602 | pgbench_history  |                0
 2017-02-06 06:18:40.836017+01 | 1486358320.83602 | pgbench_branches |             8192

 2017-02-06 06:18:41.938593+01 | 1486358321.93859 | pgbench_accounts |       1342955520
 2017-02-06 06:18:41.938593+01 | 1486358321.93859 | pgbench_tellers  |            49152
 2017-02-06 06:18:41.938593+01 | 1486358321.93859 | pgbench_history  |                0
 2017-02-06 06:18:41.938593+01 | 1486358321.93859 | pgbench_branches |             8192

 2017-02-06 06:18:43.025599+01 | 1486358323.0256 | pgbench_accounts |       1342955520
 2017-02-06 06:18:43.025599+01 | 1486358323.0256 | pgbench_tellers  |            49152
 2017-02-06 06:18:43.025599+01 | 1486358323.0256 | pgbench_history  |                0
 2017-02-06 06:18:43.025599+01 | 1486358323.0256 | pgbench_branches |             8192

 2017-02-06 06:18:44.122771+01 | 1486358324.12277 | pgbench_accounts |       1342955520
 2017-02-06 06:18:44.122771+01 | 1486358324.12277 | pgbench_tellers  |            49152
 2017-02-06 06:18:44.122771+01 | 1486358324.12277 | pgbench_history  |                0
 2017-02-06 06:18:44.122771+01 | 1486358324.12277 | pgbench_branches |             8192

 2017-02-06 06:18:45.218131+01 | 1486358325.21813 | pgbench_accounts |       1342955520
 2017-02-06 06:18:45.218131+01 | 1486358325.21813 | pgbench_tellers  |            49152
 2017-02-06 06:18:45.218131+01 | 1486358325.21813 | pgbench_history  |                0
 2017-02-06 06:18:45.218131+01 | 1486358325.21813 | pgbench_branches |             8192

 2017-02-06 06:18:46.323139+01 | 1486358326.32314 | pgbench_accounts |       1342955520
 2017-02-06 06:18:46.323139+01 | 1486358326.32314 | pgbench_tellers  |            49152
 2017-02-06 06:18:46.323139+01 | 1486358326.32314 | pgbench_history  |                0
 2017-02-06 06:18:46.323139+01 | 1486358326.32314 | pgbench_branches |             8192

 2017-02-06 06:18:47.433904+01 | 1486358327.4339 | pgbench_accounts |       1342955520
 2017-02-06 06:18:47.433904+01 | 1486358327.4339 | pgbench_tellers  |            49152
 2017-02-06 06:18:47.433904+01 | 1486358327.4339 | pgbench_history  |                0
 2017-02-06 06:18:47.433904+01 | 1486358327.4339 | pgbench_branches |             8192

 2017-02-06 06:18:48.533498+01 | 1486358328.5335 | pgbench_accounts |       1342955520
 2017-02-06 06:18:48.533498+01 | 1486358328.5335 | pgbench_tellers  |            49152
 2017-02-06 06:18:48.533498+01 | 1486358328.5335 | pgbench_history  |                0
 2017-02-06 06:18:48.533498+01 | 1486358328.5335 | pgbench_branches |             8192

 2017-02-06 06:18:49.622665+01 | 1486358329.62266 | pgbench_accounts |       1342955520
 2017-02-06 06:18:49.622665+01 | 1486358329.62266 | pgbench_tellers  |            49152
 2017-02-06 06:18:49.622665+01 | 1486358329.62266 | pgbench_history  |                0
 2017-02-06 06:18:49.622665+01 | 1486358329.62266 | pgbench_branches |             8192

 2017-02-06 06:18:50.704081+01 | 1486358330.70408 | pgbench_accounts |       1342955520
 2017-02-06 06:18:50.704081+01 | 1486358330.70408 | pgbench_tellers  |            49152
 2017-02-06 06:18:50.704081+01 | 1486358330.70408 | pgbench_history  |                0
 2017-02-06 06:18:50.704081+01 | 1486358330.70408 | pgbench_branches |             8192

 2017-02-06 06:18:51.796584+01 | 1486358331.79658 | pgbench_accounts |       1342955520
 2017-02-06 06:18:51.796584+01 | 1486358331.79658 | pgbench_tellers  |            49152
 2017-02-06 06:18:51.796584+01 | 1486358331.79658 | pgbench_history  |                0
 2017-02-06 06:18:51.796584+01 | 1486358331.79658 | pgbench_branches |             8192

 2017-02-06 06:18:52.902423+01 | 1486358332.90242 | pgbench_accounts |       1342955520
 2017-02-06 06:18:52.902423+01 | 1486358332.90242 | pgbench_tellers  |            49152
 2017-02-06 06:18:52.902423+01 | 1486358332.90242 | pgbench_history  |                0
 2017-02-06 06:18:52.902423+01 | 1486358332.90242 | pgbench_branches |             8192

 2017-02-06 06:18:53.997204+01 | 1486358333.9972 | pgbench_accounts |       1342955520
 2017-02-06 06:18:53.997204+01 | 1486358333.9972 | pgbench_tellers  |            49152
 2017-02-06 06:18:53.997204+01 | 1486358333.9972 | pgbench_history  |                0
 2017-02-06 06:18:53.997204+01 | 1486358333.9972 | pgbench_branches |             8192

 2017-02-06 06:18:55.090551+01 | 1486358335.09055 | pgbench_accounts |       1342955520
 2017-02-06 06:18:55.090551+01 | 1486358335.09055 | pgbench_tellers  |            49152
 2017-02-06 06:18:55.090551+01 | 1486358335.09055 | pgbench_history  |                0
 2017-02-06 06:18:55.090551+01 | 1486358335.09055 | pgbench_branches |             8192

 2017-02-06 06:18:56.197043+01 | 1486358336.19704 | pgbench_accounts |       1342955520
 2017-02-06 06:18:56.197043+01 | 1486358336.19704 | pgbench_tellers  |            49152
 2017-02-06 06:18:56.197043+01 | 1486358336.19704 | pgbench_history  |                0
 2017-02-06 06:18:56.197043+01 | 1486358336.19704 | pgbench_branches |             8192

 2017-02-06 06:18:57.297979+01 | 1486358337.29798 | pgbench_accounts |       1342955520
 2017-02-06 06:18:57.297979+01 | 1486358337.29798 | pgbench_tellers  |            49152
 2017-02-06 06:18:57.297979+01 | 1486358337.29798 | pgbench_history  |                0
 2017-02-06 06:18:57.297979+01 | 1486358337.29798 | pgbench_branches |             8192

 2017-02-06 06:18:58.392159+01 | 1486358338.39216 | pgbench_accounts |       1342955520
 2017-02-06 06:18:58.392159+01 | 1486358338.39216 | pgbench_tellers  |            49152
 2017-02-06 06:18:58.392159+01 | 1486358338.39216 | pgbench_history  |                0
 2017-02-06 06:18:58.392159+01 | 1486358338.39216 | pgbench_branches |             8192

 2017-02-06 06:18:59.519683+01 | 1486358339.51968 | pgbench_accounts |       1342955520
 2017-02-06 06:18:59.519683+01 | 1486358339.51968 | pgbench_tellers  |            49152
 2017-02-06 06:18:59.519683+01 | 1486358339.51968 | pgbench_history  |                0
 2017-02-06 06:18:59.519683+01 | 1486358339.51968 | pgbench_branches |             8192

 2017-02-06 06:19:00.615337+01 | 1486358340.61534 | pgbench_accounts |       1342955520
 2017-02-06 06:19:00.615337+01 | 1486358340.61534 | pgbench_tellers  |            49152
 2017-02-06 06:19:00.615337+01 | 1486358340.61534 | pgbench_history  |                0
 2017-02-06 06:19:00.615337+01 | 1486358340.61534 | pgbench_branches |             8192

 2017-02-06 06:19:01.703048+01 | 1486358341.70305 | pgbench_accounts |       1342955520
 2017-02-06 06:19:01.703048+01 | 1486358341.70305 | pgbench_tellers  |            49152
 2017-02-06 06:19:01.703048+01 | 1486358341.70305 | pgbench_history  |                0
 2017-02-06 06:19:01.703048+01 | 1486358341.70305 | pgbench_branches |             8192

 2017-02-06 06:19:02.798902+01 | 1486358342.7989 | pgbench_accounts |       1342955520
 2017-02-06 06:19:02.798902+01 | 1486358342.7989 | pgbench_tellers  |            49152
 2017-02-06 06:19:02.798902+01 | 1486358342.7989 | pgbench_history  |                0
 2017-02-06 06:19:02.798902+01 | 1486358342.7989 | pgbench_branches |             8192

 2017-02-06 06:19:03.891769+01 | 1486358343.89177 | pgbench_accounts |       1342955520
 2017-02-06 06:19:03.891769+01 | 1486358343.89177 | pgbench_tellers  |            49152
 2017-02-06 06:19:03.891769+01 | 1486358343.89177 | pgbench_history  |                0
 2017-02-06 06:19:03.891769+01 | 1486358343.89177 | pgbench_branches |             8192

 2017-02-06 06:19:04.986073+01 | 1486358344.98607 | pgbench_accounts |       1342955520
 2017-02-06 06:19:04.986073+01 | 1486358344.98607 | pgbench_tellers  |            49152
 2017-02-06 06:19:04.986073+01 | 1486358344.98607 | pgbench_history  |                0
 2017-02-06 06:19:04.986073+01 | 1486358344.98607 | pgbench_branches |             8192

 2017-02-06 06:19:06.074602+01 | 1486358346.0746 | pgbench_accounts |       1342955520
 2017-02-06 06:19:06.074602+01 | 1486358346.0746 | pgbench_tellers  |            49152
 2017-02-06 06:19:06.074602+01 | 1486358346.0746 | pgbench_history  |                0
 2017-02-06 06:19:06.074602+01 | 1486358346.0746 | pgbench_branches |             8192

 2017-02-06 06:19:07.172551+01 | 1486358347.17255 | pgbench_accounts |       1342955520
 2017-02-06 06:19:07.172551+01 | 1486358347.17255 | pgbench_tellers  |            49152
 2017-02-06 06:19:07.172551+01 | 1486358347.17255 | pgbench_history  |                0
 2017-02-06 06:19:07.172551+01 | 1486358347.17255 | pgbench_branches |             8192

 2017-02-06 06:19:08.280876+01 | 1486358348.28088 | pgbench_accounts |       1342955520
 2017-02-06 06:19:08.280876+01 | 1486358348.28088 | pgbench_tellers  |            49152
 2017-02-06 06:19:08.280876+01 | 1486358348.28088 | pgbench_history  |                0
 2017-02-06 06:19:08.280876+01 | 1486358348.28088 | pgbench_branches |             8192

 2017-02-06 06:19:09.37064+01 | 1486358349.37064 | pgbench_accounts |       1342955520
 2017-02-06 06:19:09.37064+01 | 1486358349.37064 | pgbench_tellers  |            49152
 2017-02-06 06:19:09.37064+01 | 1486358349.37064 | pgbench_history  |                0
 2017-02-06 06:19:09.37064+01 | 1486358349.37064 | pgbench_branches |             8192

 2017-02-06 06:19:10.479934+01 | 1486358350.47993 | pgbench_accounts |       1342955520
 2017-02-06 06:19:10.479934+01 | 1486358350.47993 | pgbench_tellers  |            49152
 2017-02-06 06:19:10.479934+01 | 1486358350.47993 | pgbench_history  |                0
 2017-02-06 06:19:10.479934+01 | 1486358350.47993 | pgbench_branches |             8192

 2017-02-06 06:19:11.587676+01 | 1486358351.58768 | pgbench_accounts |       1342955520
 2017-02-06 06:19:11.587676+01 | 1486358351.58768 | pgbench_tellers  |            49152
 2017-02-06 06:19:11.587676+01 | 1486358351.58768 | pgbench_history  |                0
 2017-02-06 06:19:11.587676+01 | 1486358351.58768 | pgbench_branches |             8192

 2017-02-06 06:19:12.68404+01 | 1486358352.68404 | pgbench_accounts |       1342955520
 2017-02-06 06:19:12.68404+01 | 1486358352.68404 | pgbench_tellers  |            49152
 2017-02-06 06:19:12.68404+01 | 1486358352.68404 | pgbench_history  |                0
 2017-02-06 06:19:12.68404+01 | 1486358352.68404 | pgbench_branches |             8192

 2017-02-06 06:19:13.773583+01 | 1486358353.77358 | pgbench_accounts |       1342955520
 2017-02-06 06:19:13.773583+01 | 1486358353.77358 | pgbench_tellers  |            49152
 2017-02-06 06:19:13.773583+01 | 1486358353.77358 | pgbench_history  |                0
 2017-02-06 06:19:13.773583+01 | 1486358353.77358 | pgbench_branches |             8192

 2017-02-06 06:19:14.867597+01 | 1486358354.8676 | pgbench_accounts |       1342955520
 2017-02-06 06:19:14.867597+01 | 1486358354.8676 | pgbench_tellers  |            49152
 2017-02-06 06:19:14.867597+01 | 1486358354.8676 | pgbench_history  |                0
 2017-02-06 06:19:14.867597+01 | 1486358354.8676 | pgbench_branches |             8192

 2017-02-06 06:19:15.961526+01 | 1486358355.96153 | pgbench_accounts |       1342955520
 2017-02-06 06:19:15.961526+01 | 1486358355.96153 | pgbench_tellers  |            49152
 2017-02-06 06:19:15.961526+01 | 1486358355.96153 | pgbench_history  |                0
 2017-02-06 06:19:15.961526+01 | 1486358355.96153 | pgbench_branches |             8192

 2017-02-06 06:19:17.055029+01 | 1486358357.05503 | pgbench_accounts |       1342955520
 2017-02-06 06:19:17.055029+01 | 1486358357.05503 | pgbench_tellers  |            49152
 2017-02-06 06:19:17.055029+01 | 1486358357.05503 | pgbench_history  |                0
 2017-02-06 06:19:17.055029+01 | 1486358357.05503 | pgbench_branches |             8192

 2017-02-06 06:19:18.159593+01 | 1486358358.15959 | pgbench_accounts |       1342955520
 2017-02-06 06:19:18.159593+01 | 1486358358.15959 | pgbench_tellers  |            49152
 2017-02-06 06:19:18.159593+01 | 1486358358.15959 | pgbench_history  |                0
 2017-02-06 06:19:18.159593+01 | 1486358358.15959 | pgbench_branches |             8192

 2017-02-06 06:19:19.250783+01 | 1486358359.25078 | pgbench_accounts |       1342955520
 2017-02-06 06:19:19.250783+01 | 1486358359.25078 | pgbench_tellers  |            49152
 2017-02-06 06:19:19.250783+01 | 1486358359.25078 | pgbench_history  |                0
 2017-02-06 06:19:19.250783+01 | 1486358359.25078 | pgbench_branches |             8192

 2017-02-06 06:19:20.3612+01 | 1486358360.3612 | pgbench_accounts |       1342955520
 2017-02-06 06:19:20.3612+01 | 1486358360.3612 | pgbench_tellers  |            49152
 2017-02-06 06:19:20.3612+01 | 1486358360.3612 | pgbench_history  |                0
 2017-02-06 06:19:20.3612+01 | 1486358360.3612 | pgbench_branches |             8192

 2017-02-06 06:19:21.475268+01 | 1486358361.47527 | pgbench_accounts |       1342955520
 2017-02-06 06:19:21.475268+01 | 1486358361.47527 | pgbench_tellers  |            49152
 2017-02-06 06:19:21.475268+01 | 1486358361.47527 | pgbench_history  |                0
 2017-02-06 06:19:21.475268+01 | 1486358361.47527 | pgbench_branches |             8192

 2017-02-06 06:19:22.610562+01 | 1486358362.61056 | pgbench_accounts |       1342955520
 2017-02-06 06:19:22.610562+01 | 1486358362.61056 | pgbench_tellers  |            49152
 2017-02-06 06:19:22.610562+01 | 1486358362.61056 | pgbench_history  |                0
 2017-02-06 06:19:22.610562+01 | 1486358362.61056 | pgbench_branches |             8192

 2017-02-06 06:19:23.703057+01 | 1486358363.70306 | pgbench_accounts |       1342955520
 2017-02-06 06:19:23.703057+01 | 1486358363.70306 | pgbench_tellers  |            49152
 2017-02-06 06:19:23.703057+01 | 1486358363.70306 | pgbench_history  |                0
 2017-02-06 06:19:23.703057+01 | 1486358363.70306 | pgbench_branches |             8192

 2017-02-06 06:19:24.795851+01 | 1486358364.79585 | pgbench_accounts |       1342955520
 2017-02-06 06:19:24.795851+01 | 1486358364.79585 | pgbench_tellers  |            49152
 2017-02-06 06:19:24.795851+01 | 1486358364.79585 | pgbench_history  |                0
 2017-02-06 06:19:24.795851+01 | 1486358364.79585 | pgbench_branches |             8192

 2017-02-06 06:19:25.885603+01 | 1486358365.8856 | pgbench_accounts |       1342955520
 2017-02-06 06:19:25.885603+01 | 1486358365.8856 | pgbench_tellers  |            49152
 2017-02-06 06:19:25.885603+01 | 1486358365.8856 | pgbench_history  |                0
 2017-02-06 06:19:25.885603+01 | 1486358365.8856 | pgbench_branches |             8192

 2017-02-06 06:19:26.978782+01 | 1486358366.97878 | pgbench_accounts |       1342955520
 2017-02-06 06:19:26.978782+01 | 1486358366.97878 | pgbench_tellers  |            49152
 2017-02-06 06:19:26.978782+01 | 1486358366.97878 | pgbench_history  |                0
 2017-02-06 06:19:26.978782+01 | 1486358366.97878 | pgbench_branches |             8192

 2017-02-06 06:19:28.066083+01 | 1486358368.06608 | pgbench_accounts |       1342955520
 2017-02-06 06:19:28.066083+01 | 1486358368.06608 | pgbench_tellers  |            49152
 2017-02-06 06:19:28.066083+01 | 1486358368.06608 | pgbench_history  |                0
 2017-02-06 06:19:28.066083+01 | 1486358368.06608 | pgbench_branches |             8192

 2017-02-06 06:19:29.157826+01 | 1486358369.15783 | pgbench_accounts |       1342955520
 2017-02-06 06:19:29.157826+01 | 1486358369.15783 | pgbench_tellers  |            49152
 2017-02-06 06:19:29.157826+01 | 1486358369.15783 | pgbench_history  |                0
 2017-02-06 06:19:29.157826+01 | 1486358369.15783 | pgbench_branches |             8192

 2017-02-06 06:19:30.255302+01 | 1486358370.2553 | pgbench_accounts |       1342955520
 2017-02-06 06:19:30.255302+01 | 1486358370.2553 | pgbench_tellers  |            49152
 2017-02-06 06:19:30.255302+01 | 1486358370.2553 | pgbench_history  |                0
 2017-02-06 06:19:30.255302+01 | 1486358370.2553 | pgbench_branches |             8192

 2017-02-06 06:19:31.358363+01 | 1486358371.35836 | pgbench_accounts |       1342955520
 2017-02-06 06:19:31.358363+01 | 1486358371.35836 | pgbench_tellers  |            49152
 2017-02-06 06:19:31.358363+01 | 1486358371.35836 | pgbench_history  |                0
 2017-02-06 06:19:31.358363+01 | 1486358371.35836 | pgbench_branches |             8192

 2017-02-06 06:19:32.4753+01 | 1486358372.4753 | pgbench_accounts |       1342955520
 2017-02-06 06:19:32.4753+01 | 1486358372.4753 | pgbench_tellers  |            49152
 2017-02-06 06:19:32.4753+01 | 1486358372.4753 | pgbench_history  |                0
 2017-02-06 06:19:32.4753+01 | 1486358372.4753 | pgbench_branches |             8192

 2017-02-06 06:19:33.608189+01 | 1486358373.60819 | pgbench_accounts |       1342955520
 2017-02-06 06:19:33.608189+01 | 1486358373.60819 | pgbench_tellers  |            49152
 2017-02-06 06:19:33.608189+01 | 1486358373.60819 | pgbench_history  |                0
 2017-02-06 06:19:33.608189+01 | 1486358373.60819 | pgbench_branches |             8192

 2017-02-06 06:19:34.708886+01 | 1486358374.70889 | pgbench_accounts |       1342955520
 2017-02-06 06:19:34.708886+01 | 1486358374.70889 | pgbench_tellers  |            49152
 2017-02-06 06:19:34.708886+01 | 1486358374.70889 | pgbench_history  |                0
 2017-02-06 06:19:34.708886+01 | 1486358374.70889 | pgbench_branches |             8192

 2017-02-06 06:19:35.804736+01 | 1486358375.80474 | pgbench_accounts |       1342955520
 2017-02-06 06:19:35.804736+01 | 1486358375.80474 | pgbench_tellers  |            49152
 2017-02-06 06:19:35.804736+01 | 1486358375.80474 | pgbench_history  |                0
 2017-02-06 06:19:35.804736+01 | 1486358375.80474 | pgbench_branches |             8192

 2017-02-06 06:19:36.892809+01 | 1486358376.89281 | pgbench_accounts |       1342955520
 2017-02-06 06:19:36.892809+01 | 1486358376.89281 | pgbench_tellers  |            49152
 2017-02-06 06:19:36.892809+01 | 1486358376.89281 | pgbench_history  |                0
 2017-02-06 06:19:36.892809+01 | 1486358376.89281 | pgbench_branches |             8192

 2017-02-06 06:19:37.997056+01 | 1486358377.99706 | pgbench_accounts |       1342955520
 2017-02-06 06:19:37.997056+01 | 1486358377.99706 | pgbench_tellers  |            49152
 2017-02-06 06:19:37.997056+01 | 1486358377.99706 | pgbench_history  |                0
 2017-02-06 06:19:37.997056+01 | 1486358377.99706 | pgbench_branches |             8192

 2017-02-06 06:19:39.08808+01 | 1486358379.08808 | pgbench_accounts |       1342955520
 2017-02-06 06:19:39.08808+01 | 1486358379.08808 | pgbench_tellers  |            49152
 2017-02-06 06:19:39.08808+01 | 1486358379.08808 | pgbench_history  |                0
 2017-02-06 06:19:39.08808+01 | 1486358379.08808 | pgbench_branches |             8192

 2017-02-06 06:19:40.177003+01 | 1486358380.177 | pgbench_accounts |       1342955520
 2017-02-06 06:19:40.177003+01 | 1486358380.177 | pgbench_tellers  |            49152
 2017-02-06 06:19:40.177003+01 | 1486358380.177 | pgbench_history  |                0
 2017-02-06 06:19:40.177003+01 | 1486358380.177 | pgbench_branches |             8192

 2017-02-06 06:19:41.271467+01 | 1486358381.27147 | pgbench_accounts |       1342955520
 2017-02-06 06:19:41.271467+01 | 1486358381.27147 | pgbench_tellers  |            49152
 2017-02-06 06:19:41.271467+01 | 1486358381.27147 | pgbench_history  |                0
 2017-02-06 06:19:41.271467+01 | 1486358381.27147 | pgbench_branches |             8192

 2017-02-06 06:19:42.364256+01 | 1486358382.36426 | pgbench_accounts |       1342955520
 2017-02-06 06:19:42.364256+01 | 1486358382.36426 | pgbench_tellers  |            49152
 2017-02-06 06:19:42.364256+01 | 1486358382.36426 | pgbench_history  |                0
 2017-02-06 06:19:42.364256+01 | 1486358382.36426 | pgbench_branches |             8192

 2017-02-06 06:19:43.468294+01 | 1486358383.46829 | pgbench_accounts |       1342955520
 2017-02-06 06:19:43.468294+01 | 1486358383.46829 | pgbench_tellers  |            49152
 2017-02-06 06:19:43.468294+01 | 1486358383.46829 | pgbench_history  |                0
 2017-02-06 06:19:43.468294+01 | 1486358383.46829 | pgbench_branches |             8192

 2017-02-06 06:19:44.576898+01 | 1486358384.5769 | pgbench_accounts |       1342955520
 2017-02-06 06:19:44.576898+01 | 1486358384.5769 | pgbench_tellers  |            49152
 2017-02-06 06:19:44.576898+01 | 1486358384.5769 | pgbench_history  |                0
 2017-02-06 06:19:44.576898+01 | 1486358384.5769 | pgbench_branches |             8192

 2017-02-06 06:19:45.686796+01 | 1486358385.6868 | pgbench_accounts |       1342955520
 2017-02-06 06:19:45.686796+01 | 1486358385.6868 | pgbench_tellers  |            49152
 2017-02-06 06:19:45.686796+01 | 1486358385.6868 | pgbench_history  |                0
 2017-02-06 06:19:45.686796+01 | 1486358385.6868 | pgbench_branches |             8192

 2017-02-06 06:19:46.771788+01 | 1486358386.77179 | pgbench_accounts |       1342955520
 2017-02-06 06:19:46.771788+01 | 1486358386.77179 | pgbench_tellers  |            49152
 2017-02-06 06:19:46.771788+01 | 1486358386.77179 | pgbench_history  |                0
 2017-02-06 06:19:46.771788+01 | 1486358386.77179 | pgbench_branches |             8192

 2017-02-06 06:19:47.859802+01 | 1486358387.8598 | pgbench_accounts |       1342955520
 2017-02-06 06:19:47.859802+01 | 1486358387.8598 | pgbench_tellers  |            49152
 2017-02-06 06:19:47.859802+01 | 1486358387.8598 | pgbench_history  |                0
 2017-02-06 06:19:47.859802+01 | 1486358387.8598 | pgbench_branches |             8192

 2017-02-06 06:19:48.951934+01 | 1486358388.95193 | pgbench_accounts |       1342955520
 2017-02-06 06:19:48.951934+01 | 1486358388.95193 | pgbench_tellers  |            49152
 2017-02-06 06:19:48.951934+01 | 1486358388.95193 | pgbench_history  |                0
 2017-02-06 06:19:48.951934+01 | 1486358388.95193 | pgbench_branches |             8192

 2017-02-06 06:19:50.050249+01 | 1486358390.05025 | pgbench_accounts |       1342955520
 2017-02-06 06:19:50.050249+01 | 1486358390.05025 | pgbench_tellers  |            49152
 2017-02-06 06:19:50.050249+01 | 1486358390.05025 | pgbench_history  |                0
 2017-02-06 06:19:50.050249+01 | 1486358390.05025 | pgbench_branches |             8192

 2017-02-06 06:19:51.143729+01 | 1486358391.14373 | pgbench_accounts |       1342955520
 2017-02-06 06:19:51.143729+01 | 1486358391.14373 | pgbench_tellers  |            49152
 2017-02-06 06:19:51.143729+01 | 1486358391.14373 | pgbench_history  |                0
 2017-02-06 06:19:51.143729+01 | 1486358391.14373 | pgbench_branches |             8192

 2017-02-06 06:19:52.238892+01 | 1486358392.23889 | pgbench_accounts |       1342955520
 2017-02-06 06:19:52.238892+01 | 1486358392.23889 | pgbench_tellers  |            49152
 2017-02-06 06:19:52.238892+01 | 1486358392.23889 | pgbench_history  |                0
 2017-02-06 06:19:52.238892+01 | 1486358392.23889 | pgbench_branches |             8192

 2017-02-06 06:19:53.331724+01 | 1486358393.33172 | pgbench_accounts |       1342955520
 2017-02-06 06:19:53.331724+01 | 1486358393.33172 | pgbench_tellers  |            49152
 2017-02-06 06:19:53.331724+01 | 1486358393.33172 | pgbench_history  |                0
 2017-02-06 06:19:53.331724+01 | 1486358393.33172 | pgbench_branches |             8192

 2017-02-06 06:19:54.43205+01 | 1486358394.43205 | pgbench_accounts |       1342955520
 2017-02-06 06:19:54.43205+01 | 1486358394.43205 | pgbench_tellers  |            49152
 2017-02-06 06:19:54.43205+01 | 1486358394.43205 | pgbench_history  |                0
 2017-02-06 06:19:54.43205+01 | 1486358394.43205 | pgbench_branches |             8192

 2017-02-06 06:19:55.544495+01 | 1486358395.5445 | pgbench_accounts |       1342955520
 2017-02-06 06:19:55.544495+01 | 1486358395.5445 | pgbench_tellers  |            49152
 2017-02-06 06:19:55.544495+01 | 1486358395.5445 | pgbench_history  |                0
 2017-02-06 06:19:55.544495+01 | 1486358395.5445 | pgbench_branches |             8192

 2017-02-06 06:19:56.645072+01 | 1486358396.64507 | pgbench_accounts |       1342955520
 2017-02-06 06:19:56.645072+01 | 1486358396.64507 | pgbench_tellers  |            49152
 2017-02-06 06:19:56.645072+01 | 1486358396.64507 | pgbench_history  |                0
 2017-02-06 06:19:56.645072+01 | 1486358396.64507 | pgbench_branches |             8192

 2017-02-06 06:19:57.74118+01 | 1486358397.74118 | pgbench_accounts |       1342955520
 2017-02-06 06:19:57.74118+01 | 1486358397.74118 | pgbench_tellers  |            49152
 2017-02-06 06:19:57.74118+01 | 1486358397.74118 | pgbench_history  |                0
 2017-02-06 06:19:57.74118+01 | 1486358397.74118 | pgbench_branches |             8192

 2017-02-06 06:19:58.822692+01 | 1486358398.82269 | pgbench_accounts |       1342955520
 2017-02-06 06:19:58.822692+01 | 1486358398.82269 | pgbench_tellers  |            49152
 2017-02-06 06:19:58.822692+01 | 1486358398.82269 | pgbench_history  |                0
 2017-02-06 06:19:58.822692+01 | 1486358398.82269 | pgbench_branches |             8192

 2017-02-06 06:19:59.909022+01 | 1486358399.90902 | pgbench_accounts |       1342955520
 2017-02-06 06:19:59.909022+01 | 1486358399.90902 | pgbench_tellers  |            49152
 2017-02-06 06:19:59.909022+01 | 1486358399.90902 | pgbench_history  |                0
 2017-02-06 06:19:59.909022+01 | 1486358399.90902 | pgbench_branches |             8192

 2017-02-06 06:20:00.991955+01 | 1486358400.99196 | pgbench_accounts |       1342955520
 2017-02-06 06:20:00.991955+01 | 1486358400.99196 | pgbench_tellers  |            49152
 2017-02-06 06:20:00.991955+01 | 1486358400.99196 | pgbench_history  |                0
 2017-02-06 06:20:00.991955+01 | 1486358400.99196 | pgbench_branches |             8192

 2017-02-06 06:20:02.079414+01 | 1486358402.07941 | pgbench_accounts |       1342955520
 2017-02-06 06:20:02.079414+01 | 1486358402.07941 | pgbench_tellers  |            49152
 2017-02-06 06:20:02.079414+01 | 1486358402.07941 | pgbench_history  |                0
 2017-02-06 06:20:02.079414+01 | 1486358402.07941 | pgbench_branches |             8192

 2017-02-06 06:20:03.166437+01 | 1486358403.16644 | pgbench_accounts |       1342955520
 2017-02-06 06:20:03.166437+01 | 1486358403.16644 | pgbench_tellers  |            49152
 2017-02-06 06:20:03.166437+01 | 1486358403.16644 | pgbench_history  |                0
 2017-02-06 06:20:03.166437+01 | 1486358403.16644 | pgbench_branches |             8192

 2017-02-06 06:20:04.270972+01 | 1486358404.27097 | pgbench_accounts |       1342955520
 2017-02-06 06:20:04.270972+01 | 1486358404.27097 | pgbench_tellers  |            49152
 2017-02-06 06:20:04.270972+01 | 1486358404.27097 | pgbench_history  |                0
 2017-02-06 06:20:04.270972+01 | 1486358404.27097 | pgbench_branches |             8192

 2017-02-06 06:20:05.367905+01 | 1486358405.3679 | pgbench_accounts |       1342955520
 2017-02-06 06:20:05.367905+01 | 1486358405.3679 | pgbench_tellers  |            49152
 2017-02-06 06:20:05.367905+01 | 1486358405.3679 | pgbench_history  |                0
 2017-02-06 06:20:05.367905+01 | 1486358405.3679 | pgbench_branches |             8192

 2017-02-06 06:20:06.474075+01 | 1486358406.47408 | pgbench_accounts |       1342955520
 2017-02-06 06:20:06.474075+01 | 1486358406.47408 | pgbench_tellers  |            49152
 2017-02-06 06:20:06.474075+01 | 1486358406.47408 | pgbench_history  |                0
 2017-02-06 06:20:06.474075+01 | 1486358406.47408 | pgbench_branches |             8192

 2017-02-06 06:20:07.583579+01 | 1486358407.58358 | pgbench_accounts |       1342955520
 2017-02-06 06:20:07.583579+01 | 1486358407.58358 | pgbench_tellers  |            49152
 2017-02-06 06:20:07.583579+01 | 1486358407.58358 | pgbench_history  |                0
 2017-02-06 06:20:07.583579+01 | 1486358407.58358 | pgbench_branches |             8192

 2017-02-06 06:20:08.698012+01 | 1486358408.69801 | pgbench_accounts |       1342955520
 2017-02-06 06:20:08.698012+01 | 1486358408.69801 | pgbench_tellers  |            49152
 2017-02-06 06:20:08.698012+01 | 1486358408.69801 | pgbench_history  |                0
 2017-02-06 06:20:08.698012+01 | 1486358408.69801 | pgbench_branches |             8192

 2017-02-06 06:20:09.80378+01 | 1486358409.80378 | pgbench_accounts |       1342955520
 2017-02-06 06:20:09.80378+01 | 1486358409.80378 | pgbench_tellers  |            49152
 2017-02-06 06:20:09.80378+01 | 1486358409.80378 | pgbench_history  |                0
 2017-02-06 06:20:09.80378+01 | 1486358409.80378 | pgbench_branches |             8192

 2017-02-06 06:20:10.891707+01 | 1486358410.89171 | pgbench_accounts |       1342955520
 2017-02-06 06:20:10.891707+01 | 1486358410.89171 | pgbench_tellers  |            49152
 2017-02-06 06:20:10.891707+01 | 1486358410.89171 | pgbench_history  |                0
 2017-02-06 06:20:10.891707+01 | 1486358410.89171 | pgbench_branches |             8192

 2017-02-06 06:20:11.975451+01 | 1486358411.97545 | pgbench_accounts |       1342955520
 2017-02-06 06:20:11.975451+01 | 1486358411.97545 | pgbench_tellers  |            49152
 2017-02-06 06:20:11.975451+01 | 1486358411.97545 | pgbench_history  |                0
 2017-02-06 06:20:11.975451+01 | 1486358411.97545 | pgbench_branches |             8192

 2017-02-06 06:20:13.065647+01 | 1486358413.06565 | pgbench_accounts |       1342955520
 2017-02-06 06:20:13.065647+01 | 1486358413.06565 | pgbench_tellers  |            49152
 2017-02-06 06:20:13.065647+01 | 1486358413.06565 | pgbench_history  |                0
 2017-02-06 06:20:13.065647+01 | 1486358413.06565 | pgbench_branches |             8192

 2017-02-06 06:20:14.159627+01 | 1486358414.15963 | pgbench_accounts |       1342955520
 2017-02-06 06:20:14.159627+01 | 1486358414.15963 | pgbench_tellers  |            49152
 2017-02-06 06:20:14.159627+01 | 1486358414.15963 | pgbench_history  |                0
 2017-02-06 06:20:14.159627+01 | 1486358414.15963 | pgbench_branches |             8192

 2017-02-06 06:20:15.252132+01 | 1486358415.25213 | pgbench_accounts |       1342955520
 2017-02-06 06:20:15.252132+01 | 1486358415.25213 | pgbench_tellers  |            49152
 2017-02-06 06:20:15.252132+01 | 1486358415.25213 | pgbench_history  |                0
 2017-02-06 06:20:15.252132+01 | 1486358415.25213 | pgbench_branches |             8192

 2017-02-06 06:20:16.342003+01 | 1486358416.342 | pgbench_accounts |       1342955520
 2017-02-06 06:20:16.342003+01 | 1486358416.342 | pgbench_tellers  |            49152
 2017-02-06 06:20:16.342003+01 | 1486358416.342 | pgbench_history  |                0
 2017-02-06 06:20:16.342003+01 | 1486358416.342 | pgbench_branches |             8192

 2017-02-06 06:20:17.437381+01 | 1486358417.43738 | pgbench_accounts |       1342955520
 2017-02-06 06:20:17.437381+01 | 1486358417.43738 | pgbench_tellers  |            49152
 2017-02-06 06:20:17.437381+01 | 1486358417.43738 | pgbench_history  |                0
 2017-02-06 06:20:17.437381+01 | 1486358417.43738 | pgbench_branches |             8192

 2017-02-06 06:20:18.530802+01 | 1486358418.5308 | pgbench_accounts |       1342955520
 2017-02-06 06:20:18.530802+01 | 1486358418.5308 | pgbench_tellers  |            49152
 2017-02-06 06:20:18.530802+01 | 1486358418.5308 | pgbench_history  |                0
 2017-02-06 06:20:18.530802+01 | 1486358418.5308 | pgbench_branches |             8192

 2017-02-06 06:20:19.622029+01 | 1486358419.62203 | pgbench_accounts |       1342955520
 2017-02-06 06:20:19.622029+01 | 1486358419.62203 | pgbench_tellers  |            49152
 2017-02-06 06:20:19.622029+01 | 1486358419.62203 | pgbench_history  |                0
 2017-02-06 06:20:19.622029+01 | 1486358419.62203 | pgbench_branches |             8192

 2017-02-06 06:20:20.716087+01 | 1486358420.71609 | pgbench_accounts |       1342955520
 2017-02-06 06:20:20.716087+01 | 1486358420.71609 | pgbench_tellers  |            49152
 2017-02-06 06:20:20.716087+01 | 1486358420.71609 | pgbench_history  |                0
 2017-02-06 06:20:20.716087+01 | 1486358420.71609 | pgbench_branches |             8192

 2017-02-06 06:20:21.825296+01 | 1486358421.8253 | pgbench_accounts |       1342955520
 2017-02-06 06:20:21.825296+01 | 1486358421.8253 | pgbench_tellers  |            49152
 2017-02-06 06:20:21.825296+01 | 1486358421.8253 | pgbench_history  |                0
 2017-02-06 06:20:21.825296+01 | 1486358421.8253 | pgbench_branches |             8192

 2017-02-06 06:20:22.924027+01 | 1486358422.92403 | pgbench_accounts |       1342955520
 2017-02-06 06:20:22.924027+01 | 1486358422.92403 | pgbench_tellers  |            49152
 2017-02-06 06:20:22.924027+01 | 1486358422.92403 | pgbench_history  |                0
 2017-02-06 06:20:22.924027+01 | 1486358422.92403 | pgbench_branches |             8192

 2017-02-06 06:20:24.018617+01 | 1486358424.01862 | pgbench_accounts |       1342955520
 2017-02-06 06:20:24.018617+01 | 1486358424.01862 | pgbench_tellers  |            49152
 2017-02-06 06:20:24.018617+01 | 1486358424.01862 | pgbench_history  |                0
 2017-02-06 06:20:24.018617+01 | 1486358424.01862 | pgbench_branches |             8192

 2017-02-06 06:20:25.104913+01 | 1486358425.10491 | pgbench_accounts |       1342955520
 2017-02-06 06:20:25.104913+01 | 1486358425.10491 | pgbench_tellers  |            49152
 2017-02-06 06:20:25.104913+01 | 1486358425.10491 | pgbench_history  |                0
 2017-02-06 06:20:25.104913+01 | 1486358425.10491 | pgbench_branches |             8192

 2017-02-06 06:20:26.196696+01 | 1486358426.1967 | pgbench_accounts |       1342955520
 2017-02-06 06:20:26.196696+01 | 1486358426.1967 | pgbench_tellers  |            49152
 2017-02-06 06:20:26.196696+01 | 1486358426.1967 | pgbench_history  |                0
 2017-02-06 06:20:26.196696+01 | 1486358426.1967 | pgbench_branches |             8192

 2017-02-06 06:20:27.297789+01 | 1486358427.29779 | pgbench_accounts |       1342955520
 2017-02-06 06:20:27.297789+01 | 1486358427.29779 | pgbench_tellers  |            49152
 2017-02-06 06:20:27.297789+01 | 1486358427.29779 | pgbench_history  |                0
 2017-02-06 06:20:27.297789+01 | 1486358427.29779 | pgbench_branches |             8192

 2017-02-06 06:20:28.39642+01 | 1486358428.39642 | pgbench_accounts |       1342955520
 2017-02-06 06:20:28.39642+01 | 1486358428.39642 | pgbench_tellers  |            49152
 2017-02-06 06:20:28.39642+01 | 1486358428.39642 | pgbench_history  |                0
 2017-02-06 06:20:28.39642+01 | 1486358428.39642 | pgbench_branches |             8192

 2017-02-06 06:20:29.4956+01 | 1486358429.4956 | pgbench_accounts |       1342955520
 2017-02-06 06:20:29.4956+01 | 1486358429.4956 | pgbench_tellers  |            49152
 2017-02-06 06:20:29.4956+01 | 1486358429.4956 | pgbench_history  |                0
 2017-02-06 06:20:29.4956+01 | 1486358429.4956 | pgbench_branches |             8192

 2017-02-06 06:20:30.584698+01 | 1486358430.5847 | pgbench_accounts |       1342955520
 2017-02-06 06:20:30.584698+01 | 1486358430.5847 | pgbench_tellers  |            49152
 2017-02-06 06:20:30.584698+01 | 1486358430.5847 | pgbench_history  |                0
 2017-02-06 06:20:30.584698+01 | 1486358430.5847 | pgbench_branches |             8192

 2017-02-06 06:20:31.686908+01 | 1486358431.68691 | pgbench_accounts |       1342955520
 2017-02-06 06:20:31.686908+01 | 1486358431.68691 | pgbench_tellers  |            49152
 2017-02-06 06:20:31.686908+01 | 1486358431.68691 | pgbench_history  |                0
 2017-02-06 06:20:31.686908+01 | 1486358431.68691 | pgbench_branches |             8192

 2017-02-06 06:20:32.780949+01 | 1486358432.78095 | pgbench_accounts |       1342955520
 2017-02-06 06:20:32.780949+01 | 1486358432.78095 | pgbench_tellers  |            49152
 2017-02-06 06:20:32.780949+01 | 1486358432.78095 | pgbench_history  |                0
 2017-02-06 06:20:32.780949+01 | 1486358432.78095 | pgbench_branches |             8192

 2017-02-06 06:20:33.883092+01 | 1486358433.88309 | pgbench_accounts |       1342955520
 2017-02-06 06:20:33.883092+01 | 1486358433.88309 | pgbench_tellers  |            49152
 2017-02-06 06:20:33.883092+01 | 1486358433.88309 | pgbench_history  |                0
 2017-02-06 06:20:33.883092+01 | 1486358433.88309 | pgbench_branches |             8192

 2017-02-06 06:20:34.961284+01 | 1486358434.96128 | pgbench_accounts |       1342955520
 2017-02-06 06:20:34.961284+01 | 1486358434.96128 | pgbench_tellers  |            49152
 2017-02-06 06:20:34.961284+01 | 1486358434.96128 | pgbench_history  |                0
 2017-02-06 06:20:34.961284+01 | 1486358434.96128 | pgbench_branches |             8192

 2017-02-06 06:20:36.041569+01 | 1486358436.04157 | pgbench_accounts |       1342955520
 2017-02-06 06:20:36.041569+01 | 1486358436.04157 | pgbench_tellers  |            49152
 2017-02-06 06:20:36.041569+01 | 1486358436.04157 | pgbench_history  |                0
 2017-02-06 06:20:36.041569+01 | 1486358436.04157 | pgbench_branches |             8192

 2017-02-06 06:20:37.125754+01 | 1486358437.12575 | pgbench_accounts |       1342955520
 2017-02-06 06:20:37.125754+01 | 1486358437.12575 | pgbench_tellers  |            49152
 2017-02-06 06:20:37.125754+01 | 1486358437.12575 | pgbench_history  |                0
 2017-02-06 06:20:37.125754+01 | 1486358437.12575 | pgbench_branches |             8192

 2017-02-06 06:20:38.218693+01 | 1486358438.21869 | pgbench_accounts |       1342955520
 2017-02-06 06:20:38.218693+01 | 1486358438.21869 | pgbench_tellers  |            49152
 2017-02-06 06:20:38.218693+01 | 1486358438.21869 | pgbench_history  |                0
 2017-02-06 06:20:38.218693+01 | 1486358438.21869 | pgbench_branches |             8192

 2017-02-06 06:20:39.315802+01 | 1486358439.3158 | pgbench_accounts |       1342955520
 2017-02-06 06:20:39.315802+01 | 1486358439.3158 | pgbench_tellers  |            49152
 2017-02-06 06:20:39.315802+01 | 1486358439.3158 | pgbench_history  |                0
 2017-02-06 06:20:39.315802+01 | 1486358439.3158 | pgbench_branches |             8192

 2017-02-06 06:20:40.417095+01 | 1486358440.41709 | pgbench_accounts |       1342955520
 2017-02-06 06:20:40.417095+01 | 1486358440.41709 | pgbench_tellers  |            49152
 2017-02-06 06:20:40.417095+01 | 1486358440.41709 | pgbench_history  |                0
 2017-02-06 06:20:40.417095+01 | 1486358440.41709 | pgbench_branches |             8192

 2017-02-06 06:20:41.510663+01 | 1486358441.51066 | pgbench_accounts |       1342955520
 2017-02-06 06:20:41.510663+01 | 1486358441.51066 | pgbench_tellers  |            49152
 2017-02-06 06:20:41.510663+01 | 1486358441.51066 | pgbench_history  |                0
 2017-02-06 06:20:41.510663+01 | 1486358441.51066 | pgbench_branches |             8192

 2017-02-06 06:20:42.614235+01 | 1486358442.61423 | pgbench_accounts |       1342955520
 2017-02-06 06:20:42.614235+01 | 1486358442.61423 | pgbench_tellers  |            49152
 2017-02-06 06:20:42.614235+01 | 1486358442.61423 | pgbench_history  |                0
 2017-02-06 06:20:42.614235+01 | 1486358442.61423 | pgbench_branches |             8192

 2017-02-06 06:20:43.715124+01 | 1486358443.71512 | pgbench_accounts |       1342955520
 2017-02-06 06:20:43.715124+01 | 1486358443.71512 | pgbench_tellers  |            49152
 2017-02-06 06:20:43.715124+01 | 1486358443.71512 | pgbench_history  |                0
 2017-02-06 06:20:43.715124+01 | 1486358443.71512 | pgbench_branches |             8192

 2017-02-06 06:20:44.828713+01 | 1486358444.82871 | pgbench_accounts |       1342955520
 2017-02-06 06:20:44.828713+01 | 1486358444.82871 | pgbench_tellers  |            49152
 2017-02-06 06:20:44.828713+01 | 1486358444.82871 | pgbench_history  |                0
 2017-02-06 06:20:44.828713+01 | 1486358444.82871 | pgbench_branches |             8192

 2017-02-06 06:20:45.931259+01 | 1486358445.93126 | pgbench_accounts |       1342955520
 2017-02-06 06:20:45.931259+01 | 1486358445.93126 | pgbench_tellers  |            49152
 2017-02-06 06:20:45.931259+01 | 1486358445.93126 | pgbench_history  |                0
 2017-02-06 06:20:45.931259+01 | 1486358445.93126 | pgbench_branches |             8192

 2017-02-06 06:20:47.012895+01 | 1486358447.0129 | pgbench_accounts |       1342955520
 2017-02-06 06:20:47.012895+01 | 1486358447.0129 | pgbench_tellers  |            49152
 2017-02-06 06:20:47.012895+01 | 1486358447.0129 | pgbench_history  |                0
 2017-02-06 06:20:47.012895+01 | 1486358447.0129 | pgbench_branches |             8192

 2017-02-06 06:20:48.093909+01 | 1486358448.09391 | pgbench_accounts |       1342955520
 2017-02-06 06:20:48.093909+01 | 1486358448.09391 | pgbench_tellers  |            49152
 2017-02-06 06:20:48.093909+01 | 1486358448.09391 | pgbench_history  |                0
 2017-02-06 06:20:48.093909+01 | 1486358448.09391 | pgbench_branches |             8192

 2017-02-06 06:20:49.188388+01 | 1486358449.18839 | pgbench_accounts |       1342955520
 2017-02-06 06:20:49.188388+01 | 1486358449.18839 | pgbench_tellers  |            49152
 2017-02-06 06:20:49.188388+01 | 1486358449.18839 | pgbench_history  |                0
 2017-02-06 06:20:49.188388+01 | 1486358449.18839 | pgbench_branches |             8192

 2017-02-06 06:20:50.28884+01 | 1486358450.28884 | pgbench_accounts |       1342955520
 2017-02-06 06:20:50.28884+01 | 1486358450.28884 | pgbench_tellers  |            49152
 2017-02-06 06:20:50.28884+01 | 1486358450.28884 | pgbench_history  |                0
 2017-02-06 06:20:50.28884+01 | 1486358450.28884 | pgbench_branches |             8192

 2017-02-06 06:20:51.389765+01 | 1486358451.38977 | pgbench_accounts |       1342955520
 2017-02-06 06:20:51.389765+01 | 1486358451.38977 | pgbench_tellers  |            49152
 2017-02-06 06:20:51.389765+01 | 1486358451.38977 | pgbench_history  |                0
 2017-02-06 06:20:51.389765+01 | 1486358451.38977 | pgbench_branches |             8192

 2017-02-06 06:20:52.485761+01 | 1486358452.48576 | pgbench_accounts |       1342955520
 2017-02-06 06:20:52.485761+01 | 1486358452.48576 | pgbench_tellers  |            49152
 2017-02-06 06:20:52.485761+01 | 1486358452.48576 | pgbench_history  |                0
 2017-02-06 06:20:52.485761+01 | 1486358452.48576 | pgbench_branches |             8192

 2017-02-06 06:20:53.598098+01 | 1486358453.5981 | pgbench_accounts |       1342955520
 2017-02-06 06:20:53.598098+01 | 1486358453.5981 | pgbench_tellers  |            49152
 2017-02-06 06:20:53.598098+01 | 1486358453.5981 | pgbench_history  |                0
 2017-02-06 06:20:53.598098+01 | 1486358453.5981 | pgbench_branches |             8192

 2017-02-06 06:20:54.695958+01 | 1486358454.69596 | pgbench_accounts |       1342955520
 2017-02-06 06:20:54.695958+01 | 1486358454.69596 | pgbench_tellers  |            49152
 2017-02-06 06:20:54.695958+01 | 1486358454.69596 | pgbench_history  |                0
 2017-02-06 06:20:54.695958+01 | 1486358454.69596 | pgbench_branches |             8192

 2017-02-06 06:20:55.800612+01 | 1486358455.80061 | pgbench_accounts |       1342955520
 2017-02-06 06:20:55.800612+01 | 1486358455.80061 | pgbench_tellers  |            49152
 2017-02-06 06:20:55.800612+01 | 1486358455.80061 | pgbench_history  |                0
 2017-02-06 06:20:55.800612+01 | 1486358455.80061 | pgbench_branches |             8192

 2017-02-06 06:20:56.898362+01 | 1486358456.89836 | pgbench_accounts |       1342955520
 2017-02-06 06:20:56.898362+01 | 1486358456.89836 | pgbench_tellers  |            49152
 2017-02-06 06:20:56.898362+01 | 1486358456.89836 | pgbench_history  |                0
 2017-02-06 06:20:56.898362+01 | 1486358456.89836 | pgbench_branches |             8192

 2017-02-06 06:20:57.995389+01 | 1486358457.99539 | pgbench_accounts |       1342955520
 2017-02-06 06:20:57.995389+01 | 1486358457.99539 | pgbench_tellers  |            49152
 2017-02-06 06:20:57.995389+01 | 1486358457.99539 | pgbench_history  |                0
 2017-02-06 06:20:57.995389+01 | 1486358457.99539 | pgbench_branches |             8192

 2017-02-06 06:20:59.080313+01 | 1486358459.08031 | pgbench_accounts |       1342955520
 2017-02-06 06:20:59.080313+01 | 1486358459.08031 | pgbench_tellers  |            49152
 2017-02-06 06:20:59.080313+01 | 1486358459.08031 | pgbench_history  |                0
 2017-02-06 06:20:59.080313+01 | 1486358459.08031 | pgbench_branches |             8192

 2017-02-06 06:21:00.160682+01 | 1486358460.16068 | pgbench_accounts |       1342955520
 2017-02-06 06:21:00.160682+01 | 1486358460.16068 | pgbench_tellers  |            49152
 2017-02-06 06:21:00.160682+01 | 1486358460.16068 | pgbench_history  |                0
 2017-02-06 06:21:00.160682+01 | 1486358460.16068 | pgbench_branches |             8192

 2017-02-06 06:21:01.25382+01 | 1486358461.25382 | pgbench_accounts |       1342955520
 2017-02-06 06:21:01.25382+01 | 1486358461.25382 | pgbench_tellers  |            49152
 2017-02-06 06:21:01.25382+01 | 1486358461.25382 | pgbench_history  |                0
 2017-02-06 06:21:01.25382+01 | 1486358461.25382 | pgbench_branches |             8192

 2017-02-06 06:21:02.354572+01 | 1486358462.35457 | pgbench_accounts |       1342955520
 2017-02-06 06:21:02.354572+01 | 1486358462.35457 | pgbench_tellers  |            49152
 2017-02-06 06:21:02.354572+01 | 1486358462.35457 | pgbench_history  |                0
 2017-02-06 06:21:02.354572+01 | 1486358462.35457 | pgbench_branches |             8192

 2017-02-06 06:21:03.463434+01 | 1486358463.46343 | pgbench_accounts |       1342955520
 2017-02-06 06:21:03.463434+01 | 1486358463.46343 | pgbench_tellers  |            49152
 2017-02-06 06:21:03.463434+01 | 1486358463.46343 | pgbench_history  |                0
 2017-02-06 06:21:03.463434+01 | 1486358463.46343 | pgbench_branches |             8192

 2017-02-06 06:21:04.561399+01 | 1486358464.5614 | pgbench_accounts |       1342955520
 2017-02-06 06:21:04.561399+01 | 1486358464.5614 | pgbench_tellers  |            49152
 2017-02-06 06:21:04.561399+01 | 1486358464.5614 | pgbench_history  |                0
 2017-02-06 06:21:04.561399+01 | 1486358464.5614 | pgbench_branches |             8192

 2017-02-06 06:21:05.664032+01 | 1486358465.66403 | pgbench_accounts |       1342955520
 2017-02-06 06:21:05.664032+01 | 1486358465.66403 | pgbench_tellers  |            49152
 2017-02-06 06:21:05.664032+01 | 1486358465.66403 | pgbench_history  |                0
 2017-02-06 06:21:05.664032+01 | 1486358465.66403 | pgbench_branches |             8192

 2017-02-06 06:21:06.767871+01 | 1486358466.76787 | pgbench_accounts |       1342955520
 2017-02-06 06:21:06.767871+01 | 1486358466.76787 | pgbench_tellers  |            49152
 2017-02-06 06:21:06.767871+01 | 1486358466.76787 | pgbench_history  |                0
 2017-02-06 06:21:06.767871+01 | 1486358466.76787 | pgbench_branches |             8192

 2017-02-06 06:21:07.865625+01 | 1486358467.86562 | pgbench_accounts |       1342955520
 2017-02-06 06:21:07.865625+01 | 1486358467.86562 | pgbench_tellers  |            49152
 2017-02-06 06:21:07.865625+01 | 1486358467.86562 | pgbench_history  |                0
 2017-02-06 06:21:07.865625+01 | 1486358467.86562 | pgbench_branches |             8192

 2017-02-06 06:21:08.965634+01 | 1486358468.96563 | pgbench_accounts |       1342955520
 2017-02-06 06:21:08.965634+01 | 1486358468.96563 | pgbench_tellers  |            49152
 2017-02-06 06:21:08.965634+01 | 1486358468.96563 | pgbench_history  |                0
 2017-02-06 06:21:08.965634+01 | 1486358468.96563 | pgbench_branches |             8192

 2017-02-06 06:21:10.061689+01 | 1486358470.06169 | pgbench_accounts |       1342955520
 2017-02-06 06:21:10.061689+01 | 1486358470.06169 | pgbench_tellers  |            49152
 2017-02-06 06:21:10.061689+01 | 1486358470.06169 | pgbench_history  |                0
 2017-02-06 06:21:10.061689+01 | 1486358470.06169 | pgbench_branches |             8192

 2017-02-06 06:21:11.156869+01 | 1486358471.15687 | pgbench_accounts |       1342955520
 2017-02-06 06:21:11.156869+01 | 1486358471.15687 | pgbench_tellers  |            49152
 2017-02-06 06:21:11.156869+01 | 1486358471.15687 | pgbench_history  |                0
 2017-02-06 06:21:11.156869+01 | 1486358471.15687 | pgbench_branches |             8192

 2017-02-06 06:21:12.253313+01 | 1486358472.25331 | pgbench_accounts |       1342955520
 2017-02-06 06:21:12.253313+01 | 1486358472.25331 | pgbench_tellers  |            49152
 2017-02-06 06:21:12.253313+01 | 1486358472.25331 | pgbench_history  |                0
 2017-02-06 06:21:12.253313+01 | 1486358472.25331 | pgbench_branches |             8192

 2017-02-06 06:21:13.349379+01 | 1486358473.34938 | pgbench_accounts |       1342955520
 2017-02-06 06:21:13.349379+01 | 1486358473.34938 | pgbench_tellers  |            49152
 2017-02-06 06:21:13.349379+01 | 1486358473.34938 | pgbench_history  |                0
 2017-02-06 06:21:13.349379+01 | 1486358473.34938 | pgbench_branches |             8192

 2017-02-06 06:21:14.443241+01 | 1486358474.44324 | pgbench_accounts |       1342955520
 2017-02-06 06:21:14.443241+01 | 1486358474.44324 | pgbench_tellers  |            49152
 2017-02-06 06:21:14.443241+01 | 1486358474.44324 | pgbench_history  |                0
 2017-02-06 06:21:14.443241+01 | 1486358474.44324 | pgbench_branches |             8192

 2017-02-06 06:21:15.538518+01 | 1486358475.53852 | pgbench_accounts |       1342955520
 2017-02-06 06:21:15.538518+01 | 1486358475.53852 | pgbench_tellers  |            49152
 2017-02-06 06:21:15.538518+01 | 1486358475.53852 | pgbench_history  |                0
 2017-02-06 06:21:15.538518+01 | 1486358475.53852 | pgbench_branches |             8192

 2017-02-06 06:21:16.634772+01 | 1486358476.63477 | pgbench_accounts |       1342955520
 2017-02-06 06:21:16.634772+01 | 1486358476.63477 | pgbench_tellers  |            49152
 2017-02-06 06:21:16.634772+01 | 1486358476.63477 | pgbench_history  |                0
 2017-02-06 06:21:16.634772+01 | 1486358476.63477 | pgbench_branches |             8192

 2017-02-06 06:21:17.73585+01 | 1486358477.73585 | pgbench_accounts |       1342955520
 2017-02-06 06:21:17.73585+01 | 1486358477.73585 | pgbench_tellers  |            49152
 2017-02-06 06:21:17.73585+01 | 1486358477.73585 | pgbench_history  |                0
 2017-02-06 06:21:17.73585+01 | 1486358477.73585 | pgbench_branches |             8192

 2017-02-06 06:21:18.854578+01 | 1486358478.85458 | pgbench_accounts |       1342955520
 2017-02-06 06:21:18.854578+01 | 1486358478.85458 | pgbench_tellers  |            49152
 2017-02-06 06:21:18.854578+01 | 1486358478.85458 | pgbench_history  |                0
 2017-02-06 06:21:18.854578+01 | 1486358478.85458 | pgbench_branches |             8192

 2017-02-06 06:21:19.968371+01 | 1486358479.96837 | pgbench_accounts |       1342955520
 2017-02-06 06:21:19.968371+01 | 1486358479.96837 | pgbench_tellers  |            49152
 2017-02-06 06:21:19.968371+01 | 1486358479.96837 | pgbench_history  |                0
 2017-02-06 06:21:19.968371+01 | 1486358479.96837 | pgbench_branches |             8192

 2017-02-06 06:21:21.061833+01 | 1486358481.06183 | pgbench_accounts |       1342955520
 2017-02-06 06:21:21.061833+01 | 1486358481.06183 | pgbench_tellers  |            49152
 2017-02-06 06:21:21.061833+01 | 1486358481.06183 | pgbench_history  |                0
 2017-02-06 06:21:21.061833+01 | 1486358481.06183 | pgbench_branches |             8192

 2017-02-06 06:21:22.152347+01 | 1486358482.15235 | pgbench_accounts |       1342955520
 2017-02-06 06:21:22.152347+01 | 1486358482.15235 | pgbench_tellers  |            49152
 2017-02-06 06:21:22.152347+01 | 1486358482.15235 | pgbench_history  |                0
 2017-02-06 06:21:22.152347+01 | 1486358482.15235 | pgbench_branches |             8192

 2017-02-06 06:21:23.238745+01 | 1486358483.23874 | pgbench_accounts |       1342955520
 2017-02-06 06:21:23.238745+01 | 1486358483.23874 | pgbench_tellers  |            49152
 2017-02-06 06:21:23.238745+01 | 1486358483.23874 | pgbench_history  |                0
 2017-02-06 06:21:23.238745+01 | 1486358483.23874 | pgbench_branches |             8192

 2017-02-06 06:21:24.326969+01 | 1486358484.32697 | pgbench_accounts |       1342955520
 2017-02-06 06:21:24.326969+01 | 1486358484.32697 | pgbench_tellers  |            49152
 2017-02-06 06:21:24.326969+01 | 1486358484.32697 | pgbench_history  |                0
 2017-02-06 06:21:24.326969+01 | 1486358484.32697 | pgbench_branches |             8192

 2017-02-06 06:21:25.411793+01 | 1486358485.41179 | pgbench_accounts |       1342955520
 2017-02-06 06:21:25.411793+01 | 1486358485.41179 | pgbench_tellers  |            49152
 2017-02-06 06:21:25.411793+01 | 1486358485.41179 | pgbench_history  |                0
 2017-02-06 06:21:25.411793+01 | 1486358485.41179 | pgbench_branches |             8192

 2017-02-06 06:21:26.5111+01 | 1486358486.5111 | pgbench_accounts |       1342955520
 2017-02-06 06:21:26.5111+01 | 1486358486.5111 | pgbench_tellers  |            49152
 2017-02-06 06:21:26.5111+01 | 1486358486.5111 | pgbench_history  |                0
 2017-02-06 06:21:26.5111+01 | 1486358486.5111 | pgbench_branches |             8192

 2017-02-06 06:21:27.626523+01 | 1486358487.62652 | pgbench_accounts |       1342955520
 2017-02-06 06:21:27.626523+01 | 1486358487.62652 | pgbench_tellers  |            49152
 2017-02-06 06:21:27.626523+01 | 1486358487.62652 | pgbench_history  |                0
 2017-02-06 06:21:27.626523+01 | 1486358487.62652 | pgbench_branches |             8192

 2017-02-06 06:21:28.731522+01 | 1486358488.73152 | pgbench_accounts |       1342955520
 2017-02-06 06:21:28.731522+01 | 1486358488.73152 | pgbench_tellers  |            49152
 2017-02-06 06:21:28.731522+01 | 1486358488.73152 | pgbench_history  |                0
 2017-02-06 06:21:28.731522+01 | 1486358488.73152 | pgbench_branches |             8192

 2017-02-06 06:21:29.868673+01 | 1486358489.86867 | pgbench_accounts |       1342955520
 2017-02-06 06:21:29.868673+01 | 1486358489.86867 | pgbench_tellers  |            49152
 2017-02-06 06:21:29.868673+01 | 1486358489.86867 | pgbench_history  |                0
 2017-02-06 06:21:29.868673+01 | 1486358489.86867 | pgbench_branches |             8192

 2017-02-06 06:21:30.985552+01 | 1486358490.98555 | pgbench_accounts |       1342955520
 2017-02-06 06:21:30.985552+01 | 1486358490.98555 | pgbench_tellers  |            49152
 2017-02-06 06:21:30.985552+01 | 1486358490.98555 | pgbench_history  |                0
 2017-02-06 06:21:30.985552+01 | 1486358490.98555 | pgbench_branches |             8192

 2017-02-06 06:21:32.081369+01 | 1486358492.08137 | pgbench_accounts |       1342955520
 2017-02-06 06:21:32.081369+01 | 1486358492.08137 | pgbench_tellers  |            49152
 2017-02-06 06:21:32.081369+01 | 1486358492.08137 | pgbench_history  |                0
 2017-02-06 06:21:32.081369+01 | 1486358492.08137 | pgbench_branches |             8192

 2017-02-06 06:21:33.16679+01 | 1486358493.16679 | pgbench_accounts |       1342955520
 2017-02-06 06:21:33.16679+01 | 1486358493.16679 | pgbench_tellers  |            49152
 2017-02-06 06:21:33.16679+01 | 1486358493.16679 | pgbench_history  |                0
 2017-02-06 06:21:33.16679+01 | 1486358493.16679 | pgbench_branches |             8192

 2017-02-06 06:21:34.255333+01 | 1486358494.25533 | pgbench_accounts |       1342955520
 2017-02-06 06:21:34.255333+01 | 1486358494.25533 | pgbench_tellers  |            49152
 2017-02-06 06:21:34.255333+01 | 1486358494.25533 | pgbench_history  |                0
 2017-02-06 06:21:34.255333+01 | 1486358494.25533 | pgbench_branches |             8192

 2017-02-06 06:21:35.347091+01 | 1486358495.34709 | pgbench_accounts |       1342955520
 2017-02-06 06:21:35.347091+01 | 1486358495.34709 | pgbench_tellers  |            49152
 2017-02-06 06:21:35.347091+01 | 1486358495.34709 | pgbench_history  |                0
 2017-02-06 06:21:35.347091+01 | 1486358495.34709 | pgbench_branches |             8192

 2017-02-06 06:21:36.449498+01 | 1486358496.4495 | pgbench_accounts |       1342955520
 2017-02-06 06:21:36.449498+01 | 1486358496.4495 | pgbench_tellers  |            49152
 2017-02-06 06:21:36.449498+01 | 1486358496.4495 | pgbench_history  |                0
 2017-02-06 06:21:36.449498+01 | 1486358496.4495 | pgbench_branches |             8192

 2017-02-06 06:21:37.538243+01 | 1486358497.53824 | pgbench_accounts |       1342955520
 2017-02-06 06:21:37.538243+01 | 1486358497.53824 | pgbench_tellers  |            49152
 2017-02-06 06:21:37.538243+01 | 1486358497.53824 | pgbench_history  |                0
 2017-02-06 06:21:37.538243+01 | 1486358497.53824 | pgbench_branches |             8192

 2017-02-06 06:21:38.627984+01 | 1486358498.62798 | pgbench_accounts |       1342955520
 2017-02-06 06:21:38.627984+01 | 1486358498.62798 | pgbench_tellers  |            49152
 2017-02-06 06:21:38.627984+01 | 1486358498.62798 | pgbench_history  |                0
 2017-02-06 06:21:38.627984+01 | 1486358498.62798 | pgbench_branches |             8192

 2017-02-06 06:21:39.738294+01 | 1486358499.73829 | pgbench_accounts |       1342955520
 2017-02-06 06:21:39.738294+01 | 1486358499.73829 | pgbench_tellers  |            49152
 2017-02-06 06:21:39.738294+01 | 1486358499.73829 | pgbench_history  |                0
 2017-02-06 06:21:39.738294+01 | 1486358499.73829 | pgbench_branches |             8192

 2017-02-06 06:21:40.845419+01 | 1486358500.84542 | pgbench_accounts |       1342955520
 2017-02-06 06:21:40.845419+01 | 1486358500.84542 | pgbench_tellers  |            49152
 2017-02-06 06:21:40.845419+01 | 1486358500.84542 | pgbench_history  |                0
 2017-02-06 06:21:40.845419+01 | 1486358500.84542 | pgbench_branches |             8192

 2017-02-06 06:21:41.951352+01 | 1486358501.95135 | pgbench_accounts |       1342955520
 2017-02-06 06:21:41.951352+01 | 1486358501.95135 | pgbench_tellers  |            49152
 2017-02-06 06:21:41.951352+01 | 1486358501.95135 | pgbench_history  |                0
 2017-02-06 06:21:41.951352+01 | 1486358501.95135 | pgbench_branches |             8192

 2017-02-06 06:21:43.059715+01 | 1486358503.05972 | pgbench_accounts |       1342955520
 2017-02-06 06:21:43.059715+01 | 1486358503.05972 | pgbench_tellers  |            49152
 2017-02-06 06:21:43.059715+01 | 1486358503.05972 | pgbench_history  |                0
 2017-02-06 06:21:43.059715+01 | 1486358503.05972 | pgbench_branches |             8192

 2017-02-06 06:21:44.152779+01 | 1486358504.15278 | pgbench_accounts |       1342955520
 2017-02-06 06:21:44.152779+01 | 1486358504.15278 | pgbench_tellers  |            49152
 2017-02-06 06:21:44.152779+01 | 1486358504.15278 | pgbench_history  |                0
 2017-02-06 06:21:44.152779+01 | 1486358504.15278 | pgbench_branches |             8192

 2017-02-06 06:21:45.236347+01 | 1486358505.23635 | pgbench_accounts |       1342955520
 2017-02-06 06:21:45.236347+01 | 1486358505.23635 | pgbench_tellers  |            49152
 2017-02-06 06:21:45.236347+01 | 1486358505.23635 | pgbench_history  |                0
 2017-02-06 06:21:45.236347+01 | 1486358505.23635 | pgbench_branches |             8192

 2017-02-06 06:21:46.325671+01 | 1486358506.32567 | pgbench_accounts |       1342955520
 2017-02-06 06:21:46.325671+01 | 1486358506.32567 | pgbench_tellers  |            49152
 2017-02-06 06:21:46.325671+01 | 1486358506.32567 | pgbench_history  |                0
 2017-02-06 06:21:46.325671+01 | 1486358506.32567 | pgbench_branches |             8192

 2017-02-06 06:21:47.414276+01 | 1486358507.41428 | pgbench_accounts |       1342955520
 2017-02-06 06:21:47.414276+01 | 1486358507.41428 | pgbench_tellers  |            49152
 2017-02-06 06:21:47.414276+01 | 1486358507.41428 | pgbench_history  |                0
 2017-02-06 06:21:47.414276+01 | 1486358507.41428 | pgbench_branches |             8192

 2017-02-06 06:21:48.510631+01 | 1486358508.51063 | pgbench_accounts |       1342955520
 2017-02-06 06:21:48.510631+01 | 1486358508.51063 | pgbench_tellers  |            49152
 2017-02-06 06:21:48.510631+01 | 1486358508.51063 | pgbench_history  |                0
 2017-02-06 06:21:48.510631+01 | 1486358508.51063 | pgbench_branches |             8192

 2017-02-06 06:21:49.604747+01 | 1486358509.60475 | pgbench_accounts |       1342955520
 2017-02-06 06:21:49.604747+01 | 1486358509.60475 | pgbench_tellers  |            49152
 2017-02-06 06:21:49.604747+01 | 1486358509.60475 | pgbench_history  |                0
 2017-02-06 06:21:49.604747+01 | 1486358509.60475 | pgbench_branches |             8192

 2017-02-06 06:21:50.710762+01 | 1486358510.71076 | pgbench_accounts |       1342955520
 2017-02-06 06:21:50.710762+01 | 1486358510.71076 | pgbench_tellers  |            49152
 2017-02-06 06:21:50.710762+01 | 1486358510.71076 | pgbench_history  |                0
 2017-02-06 06:21:50.710762+01 | 1486358510.71076 | pgbench_branches |             8192

 2017-02-06 06:21:51.805563+01 | 1486358511.80556 | pgbench_accounts |       1342955520
 2017-02-06 06:21:51.805563+01 | 1486358511.80556 | pgbench_tellers  |            49152
 2017-02-06 06:21:51.805563+01 | 1486358511.80556 | pgbench_history  |                0
 2017-02-06 06:21:51.805563+01 | 1486358511.80556 | pgbench_branches |             8192

 2017-02-06 06:21:52.890621+01 | 1486358512.89062 | pgbench_accounts |       1342955520
 2017-02-06 06:21:52.890621+01 | 1486358512.89062 | pgbench_tellers  |            49152
 2017-02-06 06:21:52.890621+01 | 1486358512.89062 | pgbench_history  |                0
 2017-02-06 06:21:52.890621+01 | 1486358512.89062 | pgbench_branches |             8192

 2017-02-06 06:21:53.982136+01 | 1486358513.98214 | pgbench_accounts |       1342955520
 2017-02-06 06:21:53.982136+01 | 1486358513.98214 | pgbench_tellers  |            49152
 2017-02-06 06:21:53.982136+01 | 1486358513.98214 | pgbench_history  |                0
 2017-02-06 06:21:53.982136+01 | 1486358513.98214 | pgbench_branches |             8192

 2017-02-06 06:21:55.092213+01 | 1486358515.09221 | pgbench_accounts |       1342955520
 2017-02-06 06:21:55.092213+01 | 1486358515.09221 | pgbench_tellers  |            49152
 2017-02-06 06:21:55.092213+01 | 1486358515.09221 | pgbench_history  |                0
 2017-02-06 06:21:55.092213+01 | 1486358515.09221 | pgbench_branches |             8192

 2017-02-06 06:21:56.183772+01 | 1486358516.18377 | pgbench_accounts |       1342955520
 2017-02-06 06:21:56.183772+01 | 1486358516.18377 | pgbench_tellers  |            49152
 2017-02-06 06:21:56.183772+01 | 1486358516.18377 | pgbench_history  |                0
 2017-02-06 06:21:56.183772+01 | 1486358516.18377 | pgbench_branches |             8192

 2017-02-06 06:21:57.284346+01 | 1486358517.28435 | pgbench_accounts |       1342955520
 2017-02-06 06:21:57.284346+01 | 1486358517.28435 | pgbench_tellers  |            49152
 2017-02-06 06:21:57.284346+01 | 1486358517.28435 | pgbench_history  |                0
 2017-02-06 06:21:57.284346+01 | 1486358517.28435 | pgbench_branches |             8192

 2017-02-06 06:21:58.375469+01 | 1486358518.37547 | pgbench_accounts |       1342955520
 2017-02-06 06:21:58.375469+01 | 1486358518.37547 | pgbench_tellers  |            49152
 2017-02-06 06:21:58.375469+01 | 1486358518.37547 | pgbench_history  |                0
 2017-02-06 06:21:58.375469+01 | 1486358518.37547 | pgbench_branches |             8192

 2017-02-06 06:21:59.472854+01 | 1486358519.47285 | pgbench_accounts |       1342955520
 2017-02-06 06:21:59.472854+01 | 1486358519.47285 | pgbench_tellers  |            49152
 2017-02-06 06:21:59.472854+01 | 1486358519.47285 | pgbench_history  |                0
 2017-02-06 06:21:59.472854+01 | 1486358519.47285 | pgbench_branches |             8192

 2017-02-06 06:22:00.57414+01 | 1486358520.57414 | pgbench_accounts |       1342955520
 2017-02-06 06:22:00.57414+01 | 1486358520.57414 | pgbench_tellers  |            49152
 2017-02-06 06:22:00.57414+01 | 1486358520.57414 | pgbench_history  |                0
 2017-02-06 06:22:00.57414+01 | 1486358520.57414 | pgbench_branches |             8192

 2017-02-06 06:22:01.676956+01 | 1486358521.67696 | pgbench_accounts |       1342955520
 2017-02-06 06:22:01.676956+01 | 1486358521.67696 | pgbench_tellers  |            49152
 2017-02-06 06:22:01.676956+01 | 1486358521.67696 | pgbench_history  |                0
 2017-02-06 06:22:01.676956+01 | 1486358521.67696 | pgbench_branches |             8192

 2017-02-06 06:22:02.769454+01 | 1486358522.76945 | pgbench_accounts |       1342955520
 2017-02-06 06:22:02.769454+01 | 1486358522.76945 | pgbench_tellers  |            49152
 2017-02-06 06:22:02.769454+01 | 1486358522.76945 | pgbench_history  |                0
 2017-02-06 06:22:02.769454+01 | 1486358522.76945 | pgbench_branches |             8192

 2017-02-06 06:22:03.881261+01 | 1486358523.88126 | pgbench_accounts |       1342955520
 2017-02-06 06:22:03.881261+01 | 1486358523.88126 | pgbench_tellers  |            49152
 2017-02-06 06:22:03.881261+01 | 1486358523.88126 | pgbench_history  |                0
 2017-02-06 06:22:03.881261+01 | 1486358523.88126 | pgbench_branches |             8192

 2017-02-06 06:22:04.982735+01 | 1486358524.98273 | pgbench_accounts |       1342955520
 2017-02-06 06:22:04.982735+01 | 1486358524.98273 | pgbench_tellers  |            49152
 2017-02-06 06:22:04.982735+01 | 1486358524.98273 | pgbench_history  |                0
 2017-02-06 06:22:04.982735+01 | 1486358524.98273 | pgbench_branches |             8192

 2017-02-06 06:22:06.092684+01 | 1486358526.09268 | pgbench_accounts |       1342955520
 2017-02-06 06:22:06.092684+01 | 1486358526.09268 | pgbench_tellers  |            49152
 2017-02-06 06:22:06.092684+01 | 1486358526.09268 | pgbench_history  |                0
 2017-02-06 06:22:06.092684+01 | 1486358526.09268 | pgbench_branches |             8192

 2017-02-06 06:22:07.216934+01 | 1486358527.21693 | pgbench_accounts |       1342955520
 2017-02-06 06:22:07.216934+01 | 1486358527.21693 | pgbench_tellers  |            49152
 2017-02-06 06:22:07.216934+01 | 1486358527.21693 | pgbench_history  |                0
 2017-02-06 06:22:07.216934+01 | 1486358527.21693 | pgbench_branches |             8192

 2017-02-06 06:22:08.30564+01 | 1486358528.30564 | pgbench_accounts |       1342955520
 2017-02-06 06:22:08.30564+01 | 1486358528.30564 | pgbench_tellers  |            49152
 2017-02-06 06:22:08.30564+01 | 1486358528.30564 | pgbench_history  |                0
 2017-02-06 06:22:08.30564+01 | 1486358528.30564 | pgbench_branches |             8192

 2017-02-06 06:22:09.390086+01 | 1486358529.39009 | pgbench_accounts |       1342955520
 2017-02-06 06:22:09.390086+01 | 1486358529.39009 | pgbench_tellers  |            49152
 2017-02-06 06:22:09.390086+01 | 1486358529.39009 | pgbench_history  |                0
 2017-02-06 06:22:09.390086+01 | 1486358529.39009 | pgbench_branches |             8192

 2017-02-06 06:22:10.479944+01 | 1486358530.47994 | pgbench_accounts |       1342955520
 2017-02-06 06:22:10.479944+01 | 1486358530.47994 | pgbench_tellers  |            49152
 2017-02-06 06:22:10.479944+01 | 1486358530.47994 | pgbench_history  |                0
 2017-02-06 06:22:10.479944+01 | 1486358530.47994 | pgbench_branches |             8192

 2017-02-06 06:22:11.578218+01 | 1486358531.57822 | pgbench_accounts |       1342955520
 2017-02-06 06:22:11.578218+01 | 1486358531.57822 | pgbench_tellers  |            49152
 2017-02-06 06:22:11.578218+01 | 1486358531.57822 | pgbench_history  |                0
 2017-02-06 06:22:11.578218+01 | 1486358531.57822 | pgbench_branches |             8192

 2017-02-06 06:22:12.667586+01 | 1486358532.66759 | pgbench_accounts |       1342955520
 2017-02-06 06:22:12.667586+01 | 1486358532.66759 | pgbench_tellers  |            49152
 2017-02-06 06:22:12.667586+01 | 1486358532.66759 | pgbench_history  |                0
 2017-02-06 06:22:12.667586+01 | 1486358532.66759 | pgbench_branches |             8192

 2017-02-06 06:22:13.762615+01 | 1486358533.76261 | pgbench_accounts |       1342955520
 2017-02-06 06:22:13.762615+01 | 1486358533.76261 | pgbench_tellers  |            49152
 2017-02-06 06:22:13.762615+01 | 1486358533.76261 | pgbench_history  |                0
 2017-02-06 06:22:13.762615+01 | 1486358533.76261 | pgbench_branches |             8192

 2017-02-06 06:22:14.867327+01 | 1486358534.86733 | pgbench_accounts |       1342955520
 2017-02-06 06:22:14.867327+01 | 1486358534.86733 | pgbench_tellers  |            49152
 2017-02-06 06:22:14.867327+01 | 1486358534.86733 | pgbench_history  |                0
 2017-02-06 06:22:14.867327+01 | 1486358534.86733 | pgbench_branches |             8192

 2017-02-06 06:22:15.96422+01 | 1486358535.96422 | pgbench_accounts |       1342955520
 2017-02-06 06:22:15.96422+01 | 1486358535.96422 | pgbench_tellers  |            49152
 2017-02-06 06:22:15.96422+01 | 1486358535.96422 | pgbench_history  |                0
 2017-02-06 06:22:15.96422+01 | 1486358535.96422 | pgbench_branches |             8192

 2017-02-06 06:22:17.057273+01 | 1486358537.05727 | pgbench_accounts |       1342955520
 2017-02-06 06:22:17.057273+01 | 1486358537.05727 | pgbench_tellers  |            49152
 2017-02-06 06:22:17.057273+01 | 1486358537.05727 | pgbench_history  |                0
 2017-02-06 06:22:17.057273+01 | 1486358537.05727 | pgbench_branches |             8192

 2017-02-06 06:22:18.157568+01 | 1486358538.15757 | pgbench_accounts |       1342955520
 2017-02-06 06:22:18.157568+01 | 1486358538.15757 | pgbench_tellers  |            49152
 2017-02-06 06:22:18.157568+01 | 1486358538.15757 | pgbench_history  |                0
 2017-02-06 06:22:18.157568+01 | 1486358538.15757 | pgbench_branches |             8192

 2017-02-06 06:22:19.256705+01 | 1486358539.25671 | pgbench_accounts |       1342955520
 2017-02-06 06:22:19.256705+01 | 1486358539.25671 | pgbench_tellers  |            49152
 2017-02-06 06:22:19.256705+01 | 1486358539.25671 | pgbench_history  |                0
 2017-02-06 06:22:19.256705+01 | 1486358539.25671 | pgbench_branches |             8192

 2017-02-06 06:22:20.347615+01 | 1486358540.34762 | pgbench_accounts |       1342955520
 2017-02-06 06:22:20.347615+01 | 1486358540.34762 | pgbench_tellers  |            49152
 2017-02-06 06:22:20.347615+01 | 1486358540.34762 | pgbench_history  |                0
 2017-02-06 06:22:20.347615+01 | 1486358540.34762 | pgbench_branches |             8192

