 2017-02-05 01:11:34.040022+01 | 1486253494.04002 |                 0 |              28 |                 42930 |                 1778 |            5112906 |             0 |                0 |          493957 |                     0 |        197895 | 2017-02-04 22:55:19.380096+01

 2017-02-05 01:11:35.127435+01 | 1486253495.12743 |                 0 |              28 |                 42930 |                 1778 |            5112906 |             0 |                0 |          493957 |                     0 |        197895 | 2017-02-04 22:55:19.380096+01

 2017-02-05 01:11:36.21824+01 | 1486253496.21824 |                 0 |              28 |                 42930 |                 1778 |            5112906 |             0 |                0 |          493957 |                     0 |        197895 | 2017-02-04 22:55:19.380096+01

 2017-02-05 01:11:37.294595+01 | 1486253497.2946 |                 0 |              28 |                 42930 |                 1778 |            5112906 |             0 |                0 |          493957 |                     0 |        197895 | 2017-02-04 22:55:19.380096+01

 2017-02-05 01:11:38.371417+01 | 1486253498.37142 |                 0 |              28 |                 42930 |                 1778 |            5112906 |             0 |                0 |          493957 |                     0 |        197895 | 2017-02-04 22:55:19.380096+01

 2017-02-05 01:11:39.446782+01 | 1486253499.44678 |                 0 |              28 |                 42930 |                 1778 |            5112906 |             0 |                0 |          493957 |                     0 |        197895 | 2017-02-04 22:55:19.380096+01

 2017-02-05 01:11:40.521633+01 | 1486253500.52163 |                 0 |              28 |                 42930 |                 1778 |            5112906 |             0 |                0 |          493957 |                     0 |        197895 | 2017-02-04 22:55:19.380096+01

 2017-02-05 01:11:41.595362+01 | 1486253501.59536 |                 0 |              28 |                 42930 |                 1778 |            5112906 |             0 |                0 |          493957 |                     0 |        197895 | 2017-02-04 22:55:19.380096+01

 2017-02-05 01:11:42.673375+01 | 1486253502.67337 |                 0 |              28 |                 42930 |                 1778 |            5112906 |             0 |                0 |          493957 |                     0 |        197895 | 2017-02-04 22:55:19.380096+01

 2017-02-05 01:11:43.744849+01 | 1486253503.74485 |                 0 |              28 |                 42930 |                 1778 |            5112906 |             0 |                0 |          493957 |                     0 |        197895 | 2017-02-04 22:55:19.380096+01

 2017-02-05 01:11:44.82301+01 | 1486253504.82301 |                 0 |              28 |                 42930 |                 1778 |            5112906 |             0 |                0 |          493957 |                     0 |        197895 | 2017-02-04 22:55:19.380096+01

 2017-02-05 01:11:45.902086+01 | 1486253505.90209 |                 0 |              28 |                 42930 |                 1778 |            5112906 |             0 |                0 |          493957 |                     0 |        197895 | 2017-02-04 22:55:19.380096+01

 2017-02-05 01:11:46.979221+01 | 1486253506.97922 |                 0 |              28 |                 42930 |                 1778 |            5112906 |             0 |                0 |          493957 |                     0 |        197895 | 2017-02-04 22:55:19.380096+01

 2017-02-05 01:11:48.058294+01 | 1486253508.05829 |                 0 |              28 |                 42930 |                 1778 |            5112906 |             0 |                0 |          493957 |                     0 |        197895 | 2017-02-04 22:55:19.380096+01

 2017-02-05 01:11:49.125013+01 | 1486253509.12501 |                 0 |              28 |                 42930 |                 1778 |            5112906 |             0 |                0 |          493957 |                     0 |        197895 | 2017-02-04 22:55:19.380096+01

 2017-02-05 01:11:50.198209+01 | 1486253510.19821 |                 0 |              28 |                 42930 |                 1778 |            5112906 |             0 |                0 |          493957 |                     0 |        197895 | 2017-02-04 22:55:19.380096+01

 2017-02-05 01:11:51.274635+01 | 1486253511.27464 |                 0 |              28 |                 42930 |                 1778 |            5112906 |             0 |                0 |          493957 |                     0 |        197895 | 2017-02-04 22:55:19.380096+01

 2017-02-05 01:11:52.343868+01 | 1486253512.34387 |                 0 |              28 |                 42930 |                 1778 |            5112906 |             0 |                0 |          493957 |                     0 |        197895 | 2017-02-04 22:55:19.380096+01

 2017-02-05 01:11:53.406914+01 | 1486253513.40691 |                 0 |              28 |                 42930 |                 1778 |            5112906 |             0 |                0 |          493957 |                     0 |        197895 | 2017-02-04 22:55:19.380096+01

 2017-02-05 01:11:54.482579+01 | 1486253514.48258 |                 0 |              28 |                 42930 |                 1778 |            5112906 |             0 |                0 |          493957 |                     0 |        197895 | 2017-02-04 22:55:19.380096+01

 2017-02-05 01:11:55.546988+01 | 1486253515.54699 |                 0 |              28 |                 42930 |                 1778 |            5112906 |             0 |                0 |          493957 |                     0 |        197895 | 2017-02-04 22:55:19.380096+01

 2017-02-05 01:11:56.618+01 | 1486253516.618 |                 0 |              28 |                 42930 |                 1778 |            5112906 |             0 |                0 |          493957 |                     0 |        197895 | 2017-02-04 22:55:19.380096+01

 2017-02-05 01:11:57.691603+01 | 1486253517.6916 |                 0 |              28 |                 42930 |                 1778 |            5112906 |             0 |                0 |          493957 |                     0 |        197895 | 2017-02-04 22:55:19.380096+01

 2017-02-05 01:11:58.76851+01 | 1486253518.76851 |                 0 |              28 |                 42930 |                 1778 |            5112906 |             0 |                0 |          493957 |                     0 |        197895 | 2017-02-04 22:55:19.380096+01

 2017-02-05 01:11:59.839638+01 | 1486253519.83964 |                 0 |              28 |                 42930 |                 1778 |            5112906 |             0 |                0 |          493957 |                     0 |        197895 | 2017-02-04 22:55:19.380096+01

 2017-02-05 01:12:00.917818+01 | 1486253520.91782 |                 0 |              28 |                 42930 |                 1778 |            5112906 |             0 |                0 |          493957 |                     0 |        197895 | 2017-02-04 22:55:19.380096+01

 2017-02-05 01:12:01.994693+01 | 1486253521.99469 |                 0 |              28 |                 42930 |                 1778 |            5112906 |             0 |                0 |          493957 |                     0 |        197895 | 2017-02-04 22:55:19.380096+01

 2017-02-05 01:12:03.068156+01 | 1486253523.06816 |                 0 |              28 |                 42930 |                 1778 |            5112906 |             0 |                0 |          493957 |                     0 |        197895 | 2017-02-04 22:55:19.380096+01

 2017-02-05 01:12:04.145751+01 | 1486253524.14575 |                 0 |              28 |                 42930 |                 1778 |            5112906 |             0 |                0 |          493957 |                     0 |        197895 | 2017-02-04 22:55:19.380096+01

 2017-02-05 01:12:05.227882+01 | 1486253525.22788 |                 0 |              28 |                 42930 |                 1778 |            5112906 |             0 |                0 |          493957 |                     0 |        197895 | 2017-02-04 22:55:19.380096+01

 2017-02-05 01:12:06.30892+01 | 1486253526.30892 |                 0 |              28 |                 42930 |                 1778 |            5112906 |             0 |                0 |          493957 |                     0 |        197895 | 2017-02-04 22:55:19.380096+01

 2017-02-05 01:12:07.379037+01 | 1486253527.37904 |                 0 |              28 |                 42930 |                 1778 |            5112906 |             0 |                0 |          493957 |                     0 |        197895 | 2017-02-04 22:55:19.380096+01

 2017-02-05 01:12:08.453418+01 | 1486253528.45342 |                 0 |              28 |                 42930 |                 1778 |            5112906 |             0 |                0 |          493957 |                     0 |        197895 | 2017-02-04 22:55:19.380096+01

 2017-02-05 01:12:09.532643+01 | 1486253529.53264 |                 0 |              28 |                 42930 |                 1778 |            5112906 |             0 |                0 |          493957 |                     0 |        197895 | 2017-02-04 22:55:19.380096+01

 2017-02-05 01:12:10.604541+01 | 1486253530.60454 |                 0 |              28 |                 42930 |                 1778 |            5112906 |             0 |                0 |          493957 |                     0 |        197895 | 2017-02-04 22:55:19.380096+01

 2017-02-05 01:12:11.675923+01 | 1486253531.67592 |                 0 |              28 |                 42930 |                 1778 |            5112906 |             0 |                0 |          493957 |                     0 |        197895 | 2017-02-04 22:55:19.380096+01

 2017-02-05 01:12:12.753354+01 | 1486253532.75335 |                 0 |              28 |                 42930 |                 1778 |            5112906 |             0 |                0 |          493957 |                     0 |        197895 | 2017-02-04 22:55:19.380096+01

 2017-02-05 01:12:13.825442+01 | 1486253533.82544 |                 0 |              28 |                 42930 |                 1778 |            5112906 |             0 |                0 |          493957 |                     0 |        197895 | 2017-02-04 22:55:19.380096+01

 2017-02-05 01:12:14.901838+01 | 1486253534.90184 |                 0 |              28 |                 42930 |                 1778 |            5112906 |             0 |                0 |          493957 |                     0 |        197895 | 2017-02-04 22:55:19.380096+01

 2017-02-05 01:12:15.985496+01 | 1486253535.9855 |                 0 |              28 |                 42930 |                 1778 |            5112906 |             0 |                0 |          493957 |                     0 |        197895 | 2017-02-04 22:55:19.380096+01

 2017-02-05 01:12:17.060824+01 | 1486253537.06082 |                 0 |              28 |                 42930 |                 1778 |            5112906 |             0 |                0 |          493957 |                     0 |        197895 | 2017-02-04 22:55:19.380096+01

 2017-02-05 01:12:18.151079+01 | 1486253538.15108 |                 0 |              28 |                 42930 |                 1778 |            5112906 |             0 |                0 |          493957 |                     0 |        197895 | 2017-02-04 22:55:19.380096+01

 2017-02-05 01:12:19.226817+01 | 1486253539.22682 |                 0 |              28 |                 42930 |                 1778 |            5112906 |             0 |                0 |          493957 |                     0 |        197895 | 2017-02-04 22:55:19.380096+01

 2017-02-05 01:12:20.299111+01 | 1486253540.29911 |                 0 |              28 |                 42930 |                 1778 |            5112906 |             0 |                0 |          493957 |                     0 |        197895 | 2017-02-04 22:55:19.380096+01

 2017-02-05 01:12:21.376813+01 | 1486253541.37681 |                 0 |              28 |                 42930 |                 1778 |            5112906 |             0 |                0 |          493957 |                     0 |        197895 | 2017-02-04 22:55:19.380096+01

 2017-02-05 01:12:22.456872+01 | 1486253542.45687 |                 0 |              28 |                 42930 |                 1778 |            5112906 |             0 |                0 |          493957 |                     0 |        197895 | 2017-02-04 22:55:19.380096+01

 2017-02-05 01:12:23.532233+01 | 1486253543.53223 |                 0 |              28 |                 42930 |                 1778 |            5112906 |             0 |                0 |          493957 |                     0 |        197895 | 2017-02-04 22:55:19.380096+01

 2017-02-05 01:12:24.613149+01 | 1486253544.61315 |                 0 |              28 |                 42930 |                 1778 |            5112906 |             0 |                0 |          493957 |                     0 |        197895 | 2017-02-04 22:55:19.380096+01

 2017-02-05 01:12:25.701648+01 | 1486253545.70165 |                 0 |              28 |                 42930 |                 1778 |            5112906 |             0 |                0 |          493957 |                     0 |        197895 | 2017-02-04 22:55:19.380096+01

 2017-02-05 01:12:26.77638+01 | 1486253546.77638 |                 0 |              28 |                 42930 |                 1778 |            5112906 |             0 |                0 |          493957 |                     0 |        197895 | 2017-02-04 22:55:19.380096+01

 2017-02-05 01:12:27.850945+01 | 1486253547.85094 |                 0 |              28 |                 42930 |                 1778 |            5112906 |             0 |                0 |          493957 |                     0 |        197895 | 2017-02-04 22:55:19.380096+01

 2017-02-05 01:12:28.924443+01 | 1486253548.92444 |                 0 |              28 |                 42930 |                 1778 |            5112906 |             0 |                0 |          493957 |                     0 |        197895 | 2017-02-04 22:55:19.380096+01

 2017-02-05 01:12:30.001759+01 | 1486253550.00176 |                 0 |              28 |                 42930 |                 1778 |            5112906 |             0 |                0 |          493957 |                     0 |        197895 | 2017-02-04 22:55:19.380096+01

 2017-02-05 01:12:31.073836+01 | 1486253551.07384 |                 0 |              28 |                 42930 |                 1778 |            5112906 |             0 |                0 |          493957 |                     0 |        197895 | 2017-02-04 22:55:19.380096+01

 2017-02-05 01:12:32.153007+01 | 1486253552.15301 |                 0 |              28 |                 42930 |                 1778 |            5112906 |             0 |                0 |          493957 |                     0 |        197895 | 2017-02-04 22:55:19.380096+01

 2017-02-05 01:12:33.235365+01 | 1486253553.23536 |                 0 |              28 |                 42930 |                 1778 |            5112906 |             0 |                0 |          493957 |                     0 |        197895 | 2017-02-04 22:55:19.380096+01

 2017-02-05 01:12:34.309302+01 | 1486253554.3093 |                 0 |              28 |                 42930 |                 1778 |            5112906 |             0 |                0 |          493957 |                     0 |        197895 | 2017-02-04 22:55:19.380096+01

 2017-02-05 01:12:35.38571+01 | 1486253555.38571 |                 0 |              28 |                 42930 |                 1778 |            5112906 |             0 |                0 |          493957 |                     0 |        197895 | 2017-02-04 22:55:19.380096+01

 2017-02-05 01:12:36.466718+01 | 1486253556.46672 |                 0 |              28 |                 42930 |                 1778 |            5112906 |             0 |                0 |          493957 |                     0 |        197895 | 2017-02-04 22:55:19.380096+01

 2017-02-05 01:12:37.539942+01 | 1486253557.53994 |                 0 |              28 |                 42930 |                 1778 |            5112906 |             0 |                0 |          493957 |                     0 |        197895 | 2017-02-04 22:55:19.380096+01

 2017-02-05 01:12:38.614976+01 | 1486253558.61498 |                 0 |              28 |                 42930 |                 1778 |            5112906 |             0 |                0 |          493957 |                     0 |        197895 | 2017-02-04 22:55:19.380096+01

 2017-02-05 01:12:39.691438+01 | 1486253559.69144 |                 0 |              28 |                 42930 |                 1778 |            5112906 |             0 |                0 |          493957 |                     0 |        197895 | 2017-02-04 22:55:19.380096+01

 2017-02-05 01:12:40.767431+01 | 1486253560.76743 |                 0 |              28 |                 42930 |                 1778 |            5112906 |             0 |                0 |          493957 |                     0 |        197895 | 2017-02-04 22:55:19.380096+01

 2017-02-05 01:12:41.849184+01 | 1486253561.84918 |                 0 |              28 |                 42930 |                 1778 |            5112906 |             0 |                0 |          493957 |                     0 |        197895 | 2017-02-04 22:55:19.380096+01

 2017-02-05 01:12:42.927704+01 | 1486253562.9277 |                 0 |              28 |                 42930 |                 1778 |            5112906 |             0 |                0 |          493957 |                     0 |        197895 | 2017-02-04 22:55:19.380096+01

 2017-02-05 01:12:44.003096+01 | 1486253564.0031 |                 0 |              28 |                 42930 |                 1778 |            5112906 |             0 |                0 |          493957 |                     0 |        197895 | 2017-02-04 22:55:19.380096+01

 2017-02-05 01:12:45.07252+01 | 1486253565.07252 |                 0 |              28 |                 42930 |                 1778 |            5112906 |             0 |                0 |          493957 |                     0 |        197895 | 2017-02-04 22:55:19.380096+01

 2017-02-05 01:12:46.14629+01 | 1486253566.14629 |                 0 |              28 |                 42930 |                 1778 |            5112906 |             0 |                0 |          493957 |                     0 |        197895 | 2017-02-04 22:55:19.380096+01

 2017-02-05 01:12:47.219804+01 | 1486253567.2198 |                 0 |              28 |                 42930 |                 1778 |            5112906 |             0 |                0 |          493957 |                     0 |        197895 | 2017-02-04 22:55:19.380096+01

 2017-02-05 01:12:48.301262+01 | 1486253568.30126 |                 0 |              28 |                 42930 |                 1778 |            5112906 |             0 |                0 |          493957 |                     0 |        197895 | 2017-02-04 22:55:19.380096+01

 2017-02-05 01:12:49.377708+01 | 1486253569.37771 |                 0 |              28 |                 42930 |                 1778 |            5112906 |             0 |                0 |          493957 |                     0 |        197895 | 2017-02-04 22:55:19.380096+01

 2017-02-05 01:12:50.452013+01 | 1486253570.45201 |                 0 |              28 |                 42930 |                 1778 |            5112906 |             0 |                0 |          493957 |                     0 |        197895 | 2017-02-04 22:55:19.380096+01

 2017-02-05 01:12:51.523671+01 | 1486253571.52367 |                 0 |              28 |                 42930 |                 1778 |            5112906 |             0 |                0 |          493957 |                     0 |        197895 | 2017-02-04 22:55:19.380096+01

 2017-02-05 01:12:52.597738+01 | 1486253572.59774 |                 0 |              28 |                 42930 |                 1778 |            5112906 |             0 |                0 |          493957 |                     0 |        197895 | 2017-02-04 22:55:19.380096+01

 2017-02-05 01:12:53.661313+01 | 1486253573.66131 |                 0 |              28 |                 42930 |                 1778 |            5112906 |             0 |                0 |          493957 |                     0 |        197895 | 2017-02-04 22:55:19.380096+01

 2017-02-05 01:12:54.733622+01 | 1486253574.73362 |                 0 |              28 |                 42930 |                 1778 |            5112906 |             0 |                0 |          493957 |                     0 |        197895 | 2017-02-04 22:55:19.380096+01

 2017-02-05 01:12:55.810041+01 | 1486253575.81004 |                 0 |              28 |                 42930 |                 1778 |            5112906 |             0 |                0 |          493957 |                     0 |        197895 | 2017-02-04 22:55:19.380096+01

 2017-02-05 01:12:56.888461+01 | 1486253576.88846 |                 0 |              28 |                 42930 |                 1778 |            5112906 |             0 |                0 |          493957 |                     0 |        197895 | 2017-02-04 22:55:19.380096+01

 2017-02-05 01:12:57.965836+01 | 1486253577.96584 |                 0 |              28 |                 42930 |                 1778 |            5112906 |             0 |                0 |          493957 |                     0 |        197895 | 2017-02-04 22:55:19.380096+01

 2017-02-05 01:12:59.041299+01 | 1486253579.0413 |                 0 |              28 |                 42930 |                 1778 |            5112906 |             0 |                0 |          493957 |                     0 |        197895 | 2017-02-04 22:55:19.380096+01

 2017-02-05 01:13:00.126453+01 | 1486253580.12645 |                 0 |              28 |                 42930 |                 1778 |            5112906 |             0 |                0 |          493957 |                     0 |        197895 | 2017-02-04 22:55:19.380096+01

 2017-02-05 01:13:01.209037+01 | 1486253581.20904 |                 0 |              28 |                 42930 |                 1778 |            5112906 |             0 |                0 |          493957 |                     0 |        197895 | 2017-02-04 22:55:19.380096+01

 2017-02-05 01:13:02.286377+01 | 1486253582.28638 |                 0 |              28 |                 42930 |                 1778 |            5112906 |             0 |                0 |          493957 |                     0 |        197895 | 2017-02-04 22:55:19.380096+01

 2017-02-05 01:13:03.36071+01 | 1486253583.36071 |                 0 |              28 |                 42930 |                 1778 |            5112906 |             0 |                0 |          493957 |                     0 |        197895 | 2017-02-04 22:55:19.380096+01

 2017-02-05 01:13:04.430012+01 | 1486253584.43001 |                 0 |              28 |                 42930 |                 1778 |            5112906 |             0 |                0 |          493957 |                     0 |        197895 | 2017-02-04 22:55:19.380096+01

 2017-02-05 01:13:05.503596+01 | 1486253585.5036 |                 0 |              28 |                 42930 |                 1778 |            5112906 |             0 |                0 |          493957 |                     0 |        197895 | 2017-02-04 22:55:19.380096+01

 2017-02-05 01:13:06.584559+01 | 1486253586.58456 |                 0 |              28 |                 42930 |                 1778 |            5112906 |             0 |                0 |          493957 |                     0 |        197895 | 2017-02-04 22:55:19.380096+01

 2017-02-05 01:13:07.658692+01 | 1486253587.65869 |                 0 |              28 |                 42930 |                 1778 |            5112906 |             0 |                0 |          493957 |                     0 |        197895 | 2017-02-04 22:55:19.380096+01

 2017-02-05 01:13:08.741909+01 | 1486253588.74191 |                 0 |              28 |                 42930 |                 1778 |            5112906 |             0 |                0 |          493957 |                     0 |        197895 | 2017-02-04 22:55:19.380096+01

 2017-02-05 01:13:09.805373+01 | 1486253589.80537 |                 0 |              28 |                 42930 |                 1778 |            5112906 |             0 |                0 |          493957 |                     0 |        197895 | 2017-02-04 22:55:19.380096+01

 2017-02-05 01:13:10.886638+01 | 1486253590.88664 |                 0 |              28 |                 42930 |                 1778 |            5112906 |             0 |                0 |          493957 |                     0 |        197895 | 2017-02-04 22:55:19.380096+01

 2017-02-05 01:13:11.959347+01 | 1486253591.95935 |                 0 |              28 |                 42930 |                 1778 |            5112906 |             0 |                0 |          493957 |                     0 |        197895 | 2017-02-04 22:55:19.380096+01

 2017-02-05 01:13:13.035611+01 | 1486253593.03561 |                 0 |              28 |                 42930 |                 1778 |            5112906 |             0 |                0 |          493957 |                     0 |        197895 | 2017-02-04 22:55:19.380096+01

 2017-02-05 01:13:14.117802+01 | 1486253594.1178 |                 0 |              28 |                 42930 |                 1778 |            5112906 |             0 |                0 |          493957 |                     0 |        197895 | 2017-02-04 22:55:19.380096+01

 2017-02-05 01:13:15.191973+01 | 1486253595.19197 |                 0 |              28 |                 42930 |                 1778 |            5112906 |             0 |                0 |          493957 |                     0 |        197895 | 2017-02-04 22:55:19.380096+01

 2017-02-05 01:13:16.277465+01 | 1486253596.27747 |                 0 |              28 |                 42930 |                 1778 |            5112906 |             0 |                0 |          493957 |                     0 |        197895 | 2017-02-04 22:55:19.380096+01

 2017-02-05 01:13:17.352592+01 | 1486253597.35259 |                 0 |              28 |                 42930 |                 1778 |            5112906 |             0 |                0 |          493957 |                     0 |        197895 | 2017-02-04 22:55:19.380096+01

 2017-02-05 01:13:18.433607+01 | 1486253598.43361 |                 0 |              28 |                 42930 |                 1778 |            5112906 |             0 |                0 |          493957 |                     0 |        197895 | 2017-02-04 22:55:19.380096+01

 2017-02-05 01:13:19.499114+01 | 1486253599.49911 |                 0 |              28 |                 42930 |                 1778 |            5112906 |             0 |                0 |          493957 |                     0 |        197895 | 2017-02-04 22:55:19.380096+01

 2017-02-05 01:13:20.577778+01 | 1486253600.57778 |                 0 |              28 |                 42930 |                 1778 |            5112906 |             0 |                0 |          493957 |                     0 |        197895 | 2017-02-04 22:55:19.380096+01

 2017-02-05 01:13:21.649388+01 | 1486253601.64939 |                 0 |              28 |                 42930 |                 1778 |            5112906 |             0 |                0 |          493957 |                     0 |        197895 | 2017-02-04 22:55:19.380096+01

 2017-02-05 01:13:22.730932+01 | 1486253602.73093 |                 0 |              28 |                 42930 |                 1778 |            5112906 |             0 |                0 |          493957 |                     0 |        197895 | 2017-02-04 22:55:19.380096+01

 2017-02-05 01:13:23.813163+01 | 1486253603.81316 |                 0 |              28 |                 42930 |                 1778 |            5112906 |             0 |                0 |          493957 |                     0 |        197895 | 2017-02-04 22:55:19.380096+01

 2017-02-05 01:13:24.897219+01 | 1486253604.89722 |                 0 |              28 |                 42930 |                 1778 |            5112906 |             0 |                0 |          493957 |                     0 |        197895 | 2017-02-04 22:55:19.380096+01

 2017-02-05 01:13:25.971953+01 | 1486253605.97195 |                 0 |              28 |                 42930 |                 1778 |            5112906 |             0 |                0 |          493957 |                     0 |        197895 | 2017-02-04 22:55:19.380096+01

 2017-02-05 01:13:27.043167+01 | 1486253607.04317 |                 0 |              28 |                 42930 |                 1778 |            5112906 |             0 |                0 |          493957 |                     0 |        197895 | 2017-02-04 22:55:19.380096+01

 2017-02-05 01:13:28.120053+01 | 1486253608.12005 |                 0 |              28 |                 42930 |                 1778 |            5112906 |             0 |                0 |          493957 |                     0 |        197895 | 2017-02-04 22:55:19.380096+01

 2017-02-05 01:13:29.190881+01 | 1486253609.19088 |                 0 |              28 |                 42930 |                 1778 |            5112906 |             0 |                0 |          493957 |                     0 |        197895 | 2017-02-04 22:55:19.380096+01

 2017-02-05 01:13:30.262545+01 | 1486253610.26255 |                 0 |              28 |                 42930 |                 1778 |            5112906 |             0 |                0 |          493957 |                     0 |        197895 | 2017-02-04 22:55:19.380096+01

 2017-02-05 01:13:31.336957+01 | 1486253611.33696 |                 0 |              28 |                 42930 |                 1778 |            5112906 |             0 |                0 |          493957 |                     0 |        197895 | 2017-02-04 22:55:19.380096+01

 2017-02-05 01:13:32.418898+01 | 1486253612.4189 |                 0 |              28 |                 42930 |                 1778 |            5112906 |             0 |                0 |          493957 |                     0 |        197895 | 2017-02-04 22:55:19.380096+01

 2017-02-05 01:13:33.491109+01 | 1486253613.49111 |                 0 |              28 |                 42930 |                 1778 |            5112906 |             0 |                0 |          493957 |                     0 |        197895 | 2017-02-04 22:55:19.380096+01

 2017-02-05 01:13:34.572377+01 | 1486253614.57238 |                 0 |              28 |                 42930 |                 1778 |            5112906 |             0 |                0 |          493957 |                     0 |        197895 | 2017-02-04 22:55:19.380096+01

 2017-02-05 01:13:35.647539+01 | 1486253615.64754 |                 0 |              28 |                 42930 |                 1778 |            5112906 |             0 |                0 |          493957 |                     0 |        197895 | 2017-02-04 22:55:19.380096+01

 2017-02-05 01:13:36.726335+01 | 1486253616.72634 |                 0 |              28 |                 42930 |                 1778 |            5112906 |             0 |                0 |          493957 |                     0 |        197895 | 2017-02-04 22:55:19.380096+01

 2017-02-05 01:13:37.79962+01 | 1486253617.79962 |                 0 |              28 |                 42930 |                 1778 |            5112906 |             0 |                0 |          493957 |                     0 |        197895 | 2017-02-04 22:55:19.380096+01

 2017-02-05 01:13:38.87557+01 | 1486253618.87557 |                 0 |              28 |                 42930 |                 1778 |            5112906 |             0 |                0 |          493957 |                     0 |        197895 | 2017-02-04 22:55:19.380096+01

 2017-02-05 01:13:39.951615+01 | 1486253619.95162 |                 0 |              28 |                 42930 |                 1778 |            5112906 |             0 |                0 |          493957 |                     0 |        197895 | 2017-02-04 22:55:19.380096+01

 2017-02-05 01:13:41.034818+01 | 1486253621.03482 |                 0 |              28 |                 42930 |                 1778 |            5112906 |             0 |                0 |          493957 |                     0 |        197895 | 2017-02-04 22:55:19.380096+01

 2017-02-05 01:13:42.101861+01 | 1486253622.10186 |                 0 |              28 |                 42930 |                 1778 |            5112906 |             0 |                0 |          493957 |                     0 |        197895 | 2017-02-04 22:55:19.380096+01

 2017-02-05 01:13:43.181283+01 | 1486253623.18128 |                 0 |              28 |                 42930 |                 1778 |            5112906 |             0 |                0 |          493957 |                     0 |        197895 | 2017-02-04 22:55:19.380096+01

 2017-02-05 01:13:44.257209+01 | 1486253624.25721 |                 0 |              28 |                 42930 |                 1778 |            5112906 |             0 |                0 |          493957 |                     0 |        197895 | 2017-02-04 22:55:19.380096+01

 2017-02-05 01:13:45.331996+01 | 1486253625.332 |                 0 |              28 |                 42930 |                 1778 |            5112906 |             0 |                0 |          493957 |                     0 |        197895 | 2017-02-04 22:55:19.380096+01

 2017-02-05 01:13:46.408516+01 | 1486253626.40852 |                 0 |              28 |                 42930 |                 1778 |            5112906 |             0 |                0 |          493957 |                     0 |        197895 | 2017-02-04 22:55:19.380096+01

 2017-02-05 01:13:47.484613+01 | 1486253627.48461 |                 0 |              28 |                 42930 |                 1778 |            5112906 |             0 |                0 |          493957 |                     0 |        197895 | 2017-02-04 22:55:19.380096+01

 2017-02-05 01:13:48.553367+01 | 1486253628.55337 |                 0 |              28 |                 42930 |                 1778 |            5112906 |             0 |                0 |          493957 |                     0 |        197895 | 2017-02-04 22:55:19.380096+01

 2017-02-05 01:13:49.624078+01 | 1486253629.62408 |                 0 |              28 |                 42930 |                 1778 |            5112906 |             0 |                0 |          493957 |                     0 |        197895 | 2017-02-04 22:55:19.380096+01

 2017-02-05 01:13:50.698747+01 | 1486253630.69875 |                 0 |              28 |                 42930 |                 1778 |            5112906 |             0 |                0 |          493957 |                     0 |        197895 | 2017-02-04 22:55:19.380096+01

 2017-02-05 01:13:51.77356+01 | 1486253631.77356 |                 0 |              28 |                 42930 |                 1778 |            5112906 |             0 |                0 |          493957 |                     0 |        197895 | 2017-02-04 22:55:19.380096+01

 2017-02-05 01:13:52.860472+01 | 1486253632.86047 |                 0 |              28 |                 42930 |                 1778 |            5112906 |             0 |                0 |          493957 |                     0 |        197895 | 2017-02-04 22:55:19.380096+01

 2017-02-05 01:13:53.942212+01 | 1486253633.94221 |                 0 |              28 |                 42930 |                 1778 |            5112906 |             0 |                0 |          493957 |                     0 |        197895 | 2017-02-04 22:55:19.380096+01

 2017-02-05 01:13:55.018149+01 | 1486253635.01815 |                 0 |              28 |                 42930 |                 1778 |            5112906 |             0 |                0 |          493957 |                     0 |        197895 | 2017-02-04 22:55:19.380096+01

 2017-02-05 01:13:56.096616+01 | 1486253636.09662 |                 0 |              28 |                 42930 |                 1778 |            5112906 |             0 |                0 |          493957 |                     0 |        197895 | 2017-02-04 22:55:19.380096+01

 2017-02-05 01:13:57.172131+01 | 1486253637.17213 |                 0 |              28 |                 42930 |                 1778 |            5112906 |             0 |                0 |          493957 |                     0 |        197895 | 2017-02-04 22:55:19.380096+01

 2017-02-05 01:13:58.263564+01 | 1486253638.26356 |                 0 |              28 |                 42930 |                 1778 |            5112906 |             0 |                0 |          493957 |                     0 |        197895 | 2017-02-04 22:55:19.380096+01

 2017-02-05 01:13:59.342681+01 | 1486253639.34268 |                 0 |              28 |                 42930 |                 1778 |            5112906 |             0 |                0 |          493957 |                     0 |        197895 | 2017-02-04 22:55:19.380096+01

 2017-02-05 01:14:00.427356+01 | 1486253640.42736 |                 0 |              28 |                 42930 |                 1778 |            5112906 |             0 |                0 |          493957 |                     0 |        197895 | 2017-02-04 22:55:19.380096+01

 2017-02-05 01:14:01.511221+01 | 1486253641.51122 |                 0 |              28 |                 42930 |                 1778 |            5112906 |             0 |                0 |          493957 |                     0 |        197895 | 2017-02-04 22:55:19.380096+01

 2017-02-05 01:14:02.591205+01 | 1486253642.5912 |                 0 |              28 |                 42930 |                 1778 |            5112906 |             0 |                0 |          493957 |                     0 |        197895 | 2017-02-04 22:55:19.380096+01

 2017-02-05 01:14:03.662374+01 | 1486253643.66237 |                 0 |              28 |                 42930 |                 1778 |            5112906 |             0 |                0 |          493957 |                     0 |        197895 | 2017-02-04 22:55:19.380096+01

 2017-02-05 01:14:04.737883+01 | 1486253644.73788 |                 0 |              28 |                 42930 |                 1778 |            5112906 |             0 |                0 |          493957 |                     0 |        197895 | 2017-02-04 22:55:19.380096+01

 2017-02-05 01:14:05.816699+01 | 1486253645.8167 |                 0 |              28 |                 42930 |                 1778 |            5112906 |             0 |                0 |          493957 |                     0 |        197895 | 2017-02-04 22:55:19.380096+01

 2017-02-05 01:14:06.892307+01 | 1486253646.89231 |                 0 |              28 |                 42930 |                 1778 |            5112906 |             0 |                0 |          493957 |                     0 |        197895 | 2017-02-04 22:55:19.380096+01

 2017-02-05 01:14:07.966614+01 | 1486253647.96661 |                 0 |              28 |                 42930 |                 1778 |            5112906 |             0 |                0 |          493957 |                     0 |        197895 | 2017-02-04 22:55:19.380096+01

 2017-02-05 01:14:09.038649+01 | 1486253649.03865 |                 0 |              28 |                 42930 |                 1778 |            5112906 |             0 |                0 |          493957 |                     0 |        197895 | 2017-02-04 22:55:19.380096+01

 2017-02-05 01:14:10.120924+01 | 1486253650.12092 |                 0 |              28 |                 42930 |                 1778 |            5112906 |             0 |                0 |          493957 |                     0 |        197895 | 2017-02-04 22:55:19.380096+01

 2017-02-05 01:14:11.191049+01 | 1486253651.19105 |                 0 |              28 |                 42930 |                 1778 |            5112906 |             0 |                0 |          493957 |                     0 |        197895 | 2017-02-04 22:55:19.380096+01

 2017-02-05 01:14:12.270096+01 | 1486253652.2701 |                 0 |              28 |                 42930 |                 1778 |            5112906 |             0 |                0 |          493957 |                     0 |        197895 | 2017-02-04 22:55:19.380096+01

 2017-02-05 01:14:13.343735+01 | 1486253653.34373 |                 0 |              28 |                 42930 |                 1778 |            5112906 |             0 |                0 |          493957 |                     0 |        197895 | 2017-02-04 22:55:19.380096+01

 2017-02-05 01:14:14.419583+01 | 1486253654.41958 |                 0 |              28 |                 42930 |                 1778 |            5112906 |             0 |                0 |          493957 |                     0 |        197895 | 2017-02-04 22:55:19.380096+01

 2017-02-05 01:14:15.490222+01 | 1486253655.49022 |                 0 |              28 |                 42930 |                 1778 |            5112906 |             0 |                0 |          493957 |                     0 |        197895 | 2017-02-04 22:55:19.380096+01

 2017-02-05 01:14:16.572238+01 | 1486253656.57224 |                 0 |              28 |                 42930 |                 1778 |            5112906 |             0 |                0 |          493957 |                     0 |        197895 | 2017-02-04 22:55:19.380096+01

 2017-02-05 01:14:17.647603+01 | 1486253657.6476 |                 0 |              28 |                 42930 |                 1778 |            5112906 |             0 |                0 |          493957 |                     0 |        197895 | 2017-02-04 22:55:19.380096+01

 2017-02-05 01:14:18.722411+01 | 1486253658.72241 |                 0 |              28 |                 42930 |                 1778 |            5112906 |             0 |                0 |          493957 |                     0 |        197895 | 2017-02-04 22:55:19.380096+01

 2017-02-05 01:14:19.800386+01 | 1486253659.80039 |                 0 |              28 |                 42930 |                 1778 |            5112906 |             0 |                0 |          493957 |                     0 |        197895 | 2017-02-04 22:55:19.380096+01

 2017-02-05 01:14:20.877108+01 | 1486253660.87711 |                 0 |              28 |                 42930 |                 1778 |            5112906 |             0 |                0 |          493957 |                     0 |        197895 | 2017-02-04 22:55:19.380096+01

 2017-02-05 01:14:21.950181+01 | 1486253661.95018 |                 0 |              28 |                 42930 |                 1778 |            5112906 |             0 |                0 |          493957 |                     0 |        197895 | 2017-02-04 22:55:19.380096+01

 2017-02-05 01:14:23.022115+01 | 1486253663.02211 |                 0 |              28 |                 42930 |                 1778 |            5112906 |             0 |                0 |          493957 |                     0 |        198155 | 2017-02-04 22:55:19.380096+01

 2017-02-05 01:14:24.089505+01 | 1486253664.0895 |                 0 |              28 |                 42930 |                 1778 |            5112906 |             0 |                0 |          493957 |                     0 |        198155 | 2017-02-04 22:55:19.380096+01

 2017-02-05 01:14:25.16136+01 | 1486253665.16136 |                 0 |              28 |                 42930 |                 1778 |            5112906 |             0 |                0 |          493957 |                     0 |        198155 | 2017-02-04 22:55:19.380096+01

 2017-02-05 01:14:26.247443+01 | 1486253666.24744 |                 0 |              28 |                 42930 |                 1778 |            5112906 |             0 |                0 |          493957 |                     0 |        198155 | 2017-02-04 22:55:19.380096+01

 2017-02-05 01:14:27.343441+01 | 1486253667.34344 |                 0 |              28 |                 42930 |                 1778 |            5112906 |             0 |                0 |          493957 |                     0 |        198155 | 2017-02-04 22:55:19.380096+01

 2017-02-05 01:14:28.415088+01 | 1486253668.41509 |                 0 |              28 |                 42930 |                 1778 |            5112906 |             0 |                0 |          493957 |                     0 |        198155 | 2017-02-04 22:55:19.380096+01

 2017-02-05 01:14:29.500239+01 | 1486253669.50024 |                 0 |              28 |                 42930 |                 1778 |            5112906 |             0 |                0 |          493957 |                     0 |        198155 | 2017-02-04 22:55:19.380096+01

 2017-02-05 01:14:30.585621+01 | 1486253670.58562 |                 0 |              28 |                 42930 |                 1778 |            5112906 |             0 |                0 |          493957 |                     0 |        198155 | 2017-02-04 22:55:19.380096+01

 2017-02-05 01:14:31.656643+01 | 1486253671.65664 |                 0 |              28 |                 42930 |                 1778 |            5112906 |             0 |                0 |          493957 |                     0 |        198155 | 2017-02-04 22:55:19.380096+01

 2017-02-05 01:14:32.733446+01 | 1486253672.73345 |                 0 |              28 |                 42930 |                 1778 |            5112906 |             0 |                0 |          493957 |                     0 |        198155 | 2017-02-04 22:55:19.380096+01

 2017-02-05 01:14:33.811261+01 | 1486253673.81126 |                 0 |              28 |                 42930 |                 1778 |            5112906 |             0 |                0 |          493957 |                     0 |        198155 | 2017-02-04 22:55:19.380096+01

 2017-02-05 01:14:34.885689+01 | 1486253674.88569 |                 0 |              28 |                 42930 |                 1778 |            5112906 |             0 |                0 |          493957 |                     0 |        198155 | 2017-02-04 22:55:19.380096+01

 2017-02-05 01:14:35.954635+01 | 1486253675.95463 |                 0 |              28 |                 42930 |                 1778 |            5112906 |             0 |                0 |          493957 |                     0 |        198155 | 2017-02-04 22:55:19.380096+01

 2017-02-05 01:14:37.034676+01 | 1486253677.03468 |                 0 |              28 |                 42930 |                 1778 |            5112906 |             0 |                0 |          493957 |                     0 |        198155 | 2017-02-04 22:55:19.380096+01

 2017-02-05 01:14:38.106394+01 | 1486253678.10639 |                 0 |              28 |                 42930 |                 1778 |            5112906 |             0 |                0 |          493957 |                     0 |        198155 | 2017-02-04 22:55:19.380096+01

 2017-02-05 01:14:39.180508+01 | 1486253679.18051 |                 0 |              28 |                 42930 |                 1778 |            5112906 |             0 |                0 |          493957 |                     0 |        198155 | 2017-02-04 22:55:19.380096+01

 2017-02-05 01:14:40.254789+01 | 1486253680.25479 |                 0 |              28 |                 42930 |                 1778 |            5112906 |             0 |                0 |          493957 |                     0 |        198155 | 2017-02-04 22:55:19.380096+01

 2017-02-05 01:14:41.334871+01 | 1486253681.33487 |                 0 |              28 |                 42930 |                 1778 |            5112906 |             0 |                0 |          493957 |                     0 |        198155 | 2017-02-04 22:55:19.380096+01

 2017-02-05 01:14:42.423868+01 | 1486253682.42387 |                 0 |              28 |                 42930 |                 1778 |            5112906 |             0 |                0 |          493957 |                     0 |        198155 | 2017-02-04 22:55:19.380096+01

 2017-02-05 01:14:43.504218+01 | 1486253683.50422 |                 0 |              28 |                 42930 |                 1778 |            5112906 |             0 |                0 |          493957 |                     0 |        198155 | 2017-02-04 22:55:19.380096+01

 2017-02-05 01:14:44.576701+01 | 1486253684.5767 |                 0 |              28 |                 42930 |                 1778 |            5112906 |             0 |                0 |          493957 |                     0 |        198155 | 2017-02-04 22:55:19.380096+01

 2017-02-05 01:14:45.656494+01 | 1486253685.65649 |                 0 |              28 |                 42930 |                 1778 |            5112906 |             0 |                0 |          493957 |                     0 |        198155 | 2017-02-04 22:55:19.380096+01

 2017-02-05 01:14:46.736179+01 | 1486253686.73618 |                 0 |              28 |                 42930 |                 1778 |            5112906 |             0 |                0 |          493957 |                     0 |        198155 | 2017-02-04 22:55:19.380096+01

 2017-02-05 01:14:47.802825+01 | 1486253687.80282 |                 0 |              28 |                 42930 |                 1778 |            5112906 |             0 |                0 |          493957 |                     0 |        198155 | 2017-02-04 22:55:19.380096+01

 2017-02-05 01:14:48.888618+01 | 1486253688.88862 |                 0 |              28 |                 42930 |                 1778 |            5112906 |             0 |                0 |          493957 |                     0 |        198155 | 2017-02-04 22:55:19.380096+01

 2017-02-05 01:14:49.963783+01 | 1486253689.96378 |                 0 |              28 |                 42930 |                 1778 |            5112906 |             0 |                0 |          493957 |                     0 |        198155 | 2017-02-04 22:55:19.380096+01

 2017-02-05 01:14:51.041958+01 | 1486253691.04196 |                 0 |              28 |                 42930 |                 1778 |            5112906 |             0 |                0 |          493957 |                     0 |        198155 | 2017-02-04 22:55:19.380096+01

 2017-02-05 01:14:52.127401+01 | 1486253692.1274 |                 0 |              28 |                 42930 |                 1778 |            5112906 |             0 |                0 |          493957 |                     0 |        198155 | 2017-02-04 22:55:19.380096+01

 2017-02-05 01:14:53.203907+01 | 1486253693.20391 |                 0 |              28 |                 42930 |                 1778 |            5112906 |             0 |                0 |          493957 |                     0 |        198155 | 2017-02-04 22:55:19.380096+01

 2017-02-05 01:14:54.280221+01 | 1486253694.28022 |                 0 |              28 |                 42930 |                 1778 |            5112906 |             0 |                0 |          493957 |                     0 |        198155 | 2017-02-04 22:55:19.380096+01

 2017-02-05 01:14:55.35415+01 | 1486253695.35415 |                 0 |              28 |                 42930 |                 1778 |            5112906 |             0 |                0 |          493957 |                     0 |        198155 | 2017-02-04 22:55:19.380096+01

 2017-02-05 01:14:56.433487+01 | 1486253696.43349 |                 0 |              28 |                 42930 |                 1778 |            5112906 |             0 |                0 |          493957 |                     0 |        198155 | 2017-02-04 22:55:19.380096+01

 2017-02-05 01:14:57.511903+01 | 1486253697.5119 |                 0 |              28 |                 42930 |                 1778 |            5112906 |             0 |                0 |          493957 |                     0 |        198155 | 2017-02-04 22:55:19.380096+01

 2017-02-05 01:14:58.591438+01 | 1486253698.59144 |                 0 |              28 |                 42930 |                 1778 |            5112906 |             0 |                0 |          493957 |                     0 |        198155 | 2017-02-04 22:55:19.380096+01

 2017-02-05 01:14:59.659722+01 | 1486253699.65972 |                 0 |              28 |                 42930 |                 1778 |            5112906 |             0 |                0 |          493957 |                     0 |        198155 | 2017-02-04 22:55:19.380096+01

 2017-02-05 01:15:00.738939+01 | 1486253700.73894 |                 0 |              28 |                 42930 |                 1778 |            5112906 |             0 |                0 |          493957 |                     0 |        198155 | 2017-02-04 22:55:19.380096+01

 2017-02-05 01:15:01.812589+01 | 1486253701.81259 |                 0 |              28 |                 42930 |                 1778 |            5112906 |             0 |                0 |          493957 |                     0 |        198155 | 2017-02-04 22:55:19.380096+01

 2017-02-05 01:15:02.899275+01 | 1486253702.89928 |                 0 |              28 |                 42930 |                 1778 |            5112906 |             0 |                0 |          493957 |                     0 |        198155 | 2017-02-04 22:55:19.380096+01

 2017-02-05 01:15:03.978914+01 | 1486253703.97891 |                 0 |              28 |                 42930 |                 1778 |            5112906 |             0 |                0 |          493957 |                     0 |        198155 | 2017-02-04 22:55:19.380096+01

 2017-02-05 01:15:05.055149+01 | 1486253705.05515 |                 0 |              28 |                 42930 |                 1778 |            5112906 |             0 |                0 |          493957 |                     0 |        198155 | 2017-02-04 22:55:19.380096+01

 2017-02-05 01:15:06.129335+01 | 1486253706.12933 |                 0 |              28 |                 42930 |                 1778 |            5112906 |             0 |                0 |          493957 |                     0 |        198155 | 2017-02-04 22:55:19.380096+01

 2017-02-05 01:15:07.21273+01 | 1486253707.21273 |                 0 |              28 |                 42930 |                 1778 |            5112906 |             0 |                0 |          493957 |                     0 |        198155 | 2017-02-04 22:55:19.380096+01

 2017-02-05 01:15:08.282257+01 | 1486253708.28226 |                 0 |              28 |                 42930 |                 1778 |            5112906 |             0 |                0 |          493957 |                     0 |        198156 | 2017-02-04 22:55:19.380096+01

 2017-02-05 01:15:09.35416+01 | 1486253709.35416 |                 0 |              28 |                 42930 |                 1778 |            5112906 |             0 |                0 |          493957 |                     0 |        198352 | 2017-02-04 22:55:19.380096+01

 2017-02-05 01:15:10.430316+01 | 1486253710.43032 |                 0 |              28 |                 42930 |                 1778 |            5112906 |             0 |                0 |          493957 |                     0 |        198352 | 2017-02-04 22:55:19.380096+01

 2017-02-05 01:15:11.50406+01 | 1486253711.50406 |                 0 |              28 |                 42930 |                 1778 |            5112906 |             0 |                0 |          493957 |                     0 |        198352 | 2017-02-04 22:55:19.380096+01

 2017-02-05 01:15:12.576324+01 | 1486253712.57632 |                 0 |              28 |                 42930 |                 1778 |            5112906 |             0 |                0 |          493957 |                     0 |        198352 | 2017-02-04 22:55:19.380096+01

 2017-02-05 01:15:13.651374+01 | 1486253713.65137 |                 0 |              28 |                 42930 |                 1778 |            5112906 |             0 |                0 |          493957 |                     0 |        198352 | 2017-02-04 22:55:19.380096+01

 2017-02-05 01:15:14.727766+01 | 1486253714.72777 |                 0 |              28 |                 42930 |                 1778 |            5112906 |             0 |                0 |          493957 |                     0 |        198352 | 2017-02-04 22:55:19.380096+01

 2017-02-05 01:15:15.805061+01 | 1486253715.80506 |                 0 |              28 |                 42930 |                 1778 |            5112906 |             0 |                0 |          493957 |                     0 |        198352 | 2017-02-04 22:55:19.380096+01

 2017-02-05 01:15:16.870248+01 | 1486253716.87025 |                 0 |              28 |                 42930 |                 1778 |            5112906 |             0 |                0 |          493957 |                     0 |        198352 | 2017-02-04 22:55:19.380096+01

 2017-02-05 01:15:17.946199+01 | 1486253717.9462 |                 0 |              28 |                 42930 |                 1778 |            5112906 |             0 |                0 |          493957 |                     0 |        198352 | 2017-02-04 22:55:19.380096+01

 2017-02-05 01:15:19.027355+01 | 1486253719.02735 |                 0 |              28 |                 42930 |                 1778 |            5112906 |             0 |                0 |          493957 |                     0 |        198352 | 2017-02-04 22:55:19.380096+01

 2017-02-05 01:15:20.110427+01 | 1486253720.11043 |                 0 |              28 |                 42930 |                 1778 |            5112906 |             0 |                0 |          493957 |                     0 |        198352 | 2017-02-04 22:55:19.380096+01

 2017-02-05 01:15:21.198237+01 | 1486253721.19824 |                 0 |              28 |                 42930 |                 1778 |            5112906 |             0 |                0 |          493957 |                     0 |        198352 | 2017-02-04 22:55:19.380096+01

 2017-02-05 01:15:22.272849+01 | 1486253722.27285 |                 0 |              28 |                 42930 |                 1778 |            5112906 |             0 |                0 |          493957 |                     0 |        198406 | 2017-02-04 22:55:19.380096+01

 2017-02-05 01:15:23.341897+01 | 1486253723.3419 |                 0 |              28 |                 42930 |                 1778 |            5112906 |             0 |                0 |          493957 |                     0 |        198655 | 2017-02-04 22:55:19.380096+01

 2017-02-05 01:15:24.418448+01 | 1486253724.41845 |                 0 |              28 |                 42930 |                 1778 |            5112906 |             0 |                0 |          493957 |                     0 |        198655 | 2017-02-04 22:55:19.380096+01

 2017-02-05 01:15:25.497992+01 | 1486253725.49799 |                 0 |              28 |                 42930 |                 1778 |            5112906 |             0 |                0 |          493957 |                     0 |        198655 | 2017-02-04 22:55:19.380096+01

 2017-02-05 01:15:26.582875+01 | 1486253726.58288 |                 0 |              28 |                 42930 |                 1778 |            5112906 |             0 |                0 |          493957 |                     0 |        198655 | 2017-02-04 22:55:19.380096+01

 2017-02-05 01:15:27.658138+01 | 1486253727.65814 |                 0 |              28 |                 42930 |                 1778 |            5112906 |             0 |                0 |          493957 |                     0 |        198655 | 2017-02-04 22:55:19.380096+01

 2017-02-05 01:15:28.731656+01 | 1486253728.73166 |                 0 |              28 |                 42930 |                 1778 |            5112906 |             0 |                0 |          493957 |                     0 |        198655 | 2017-02-04 22:55:19.380096+01

 2017-02-05 01:15:29.807406+01 | 1486253729.80741 |                 0 |              28 |                 42930 |                 1778 |            5112906 |             0 |                0 |          493957 |                     0 |        198655 | 2017-02-04 22:55:19.380096+01

 2017-02-05 01:15:30.880081+01 | 1486253730.88008 |                 0 |              28 |                 42930 |                 1778 |            5112906 |             0 |                0 |          493957 |                     0 |        198655 | 2017-02-04 22:55:19.380096+01

 2017-02-05 01:15:31.954632+01 | 1486253731.95463 |                 0 |              28 |                 42930 |                 1778 |            5112906 |             0 |                0 |          493957 |                     0 |        198655 | 2017-02-04 22:55:19.380096+01

 2017-02-05 01:15:33.030425+01 | 1486253733.03043 |                 0 |              28 |                 42930 |                 1778 |            5112906 |             0 |                0 |          493957 |                     0 |        198655 | 2017-02-04 22:55:19.380096+01

 2017-02-05 01:15:34.104174+01 | 1486253734.10417 |                 0 |              28 |                 42930 |                 1778 |            5112906 |             0 |                0 |          493957 |                     0 |        198655 | 2017-02-04 22:55:19.380096+01

 2017-02-05 01:15:35.180955+01 | 1486253735.18095 |                 0 |              28 |                 42930 |                 1778 |            5112906 |             0 |                0 |          493957 |                     0 |        198655 | 2017-02-04 22:55:19.380096+01

 2017-02-05 01:15:36.258772+01 | 1486253736.25877 |                 0 |              28 |                 42930 |                 1778 |            5112906 |             0 |                0 |          493957 |                     0 |        198655 | 2017-02-04 22:55:19.380096+01

 2017-02-05 01:15:37.335782+01 | 1486253737.33578 |                 0 |              28 |                 42930 |                 1778 |            5112906 |             0 |                0 |          493957 |                     0 |        198655 | 2017-02-04 22:55:19.380096+01

 2017-02-05 01:15:38.407585+01 | 1486253738.40758 |                 0 |              28 |                 42930 |                 1778 |            5112906 |             0 |                0 |          493957 |                     0 |        198655 | 2017-02-04 22:55:19.380096+01

 2017-02-05 01:15:39.47825+01 | 1486253739.47825 |                 0 |              28 |                 42930 |                 1778 |            5112906 |             0 |                0 |          493957 |                     0 |        198655 | 2017-02-04 22:55:19.380096+01

 2017-02-05 01:15:40.553019+01 | 1486253740.55302 |                 0 |              28 |                 42930 |                 1778 |            5112906 |             0 |                0 |          493957 |                     0 |        198655 | 2017-02-04 22:55:19.380096+01

 2017-02-05 01:15:41.625568+01 | 1486253741.62557 |                 0 |              28 |                 42930 |                 1778 |            5112906 |             0 |                0 |          493957 |                     0 |        198655 | 2017-02-04 22:55:19.380096+01

 2017-02-05 01:15:42.699396+01 | 1486253742.6994 |                 0 |              28 |                 42930 |                 1778 |            5112906 |             0 |                0 |          493957 |                     0 |        198655 | 2017-02-04 22:55:19.380096+01

 2017-02-05 01:15:43.793211+01 | 1486253743.79321 |                 0 |              28 |                 42930 |                 1778 |            5112906 |             0 |                0 |          493957 |                     0 |        198655 | 2017-02-04 22:55:19.380096+01

 2017-02-05 01:15:44.872052+01 | 1486253744.87205 |                 0 |              28 |                 42930 |                 1778 |            5112906 |             0 |                0 |          493957 |                     0 |        198655 | 2017-02-04 22:55:19.380096+01

 2017-02-05 01:15:45.94811+01 | 1486253745.94811 |                 0 |              28 |                 42930 |                 1778 |            5112906 |             0 |                0 |          493957 |                     0 |        198655 | 2017-02-04 22:55:19.380096+01

 2017-02-05 01:15:47.022683+01 | 1486253747.02268 |                 0 |              28 |                 42930 |                 1778 |            5112906 |             0 |                0 |          493957 |                     0 |        198655 | 2017-02-04 22:55:19.380096+01

 2017-02-05 01:15:48.100267+01 | 1486253748.10027 |                 0 |              28 |                 42930 |                 1778 |            5112906 |             0 |                0 |          493957 |                     0 |        198655 | 2017-02-04 22:55:19.380096+01

 2017-02-05 01:15:49.18456+01 | 1486253749.18456 |                 0 |              28 |                 42930 |                 1778 |            5112906 |             0 |                0 |          493957 |                     0 |        198655 | 2017-02-04 22:55:19.380096+01

 2017-02-05 01:15:50.269346+01 | 1486253750.26935 |                 0 |              28 |                 42930 |                 1778 |            5112906 |             0 |                0 |          493957 |                     0 |        198655 | 2017-02-04 22:55:19.380096+01

 2017-02-05 01:15:51.342572+01 | 1486253751.34257 |                 0 |              28 |                 42930 |                 1778 |            5112906 |             0 |                0 |          493957 |                     0 |        198655 | 2017-02-04 22:55:19.380096+01

 2017-02-05 01:15:52.419807+01 | 1486253752.41981 |                 0 |              28 |                 42930 |                 1778 |            5112906 |             0 |                0 |          493957 |                     0 |        198656 | 2017-02-04 22:55:19.380096+01

 2017-02-05 01:15:53.49256+01 | 1486253753.49256 |                 0 |              28 |                 42930 |                 1778 |            5112906 |             0 |                0 |          493957 |                     0 |        198958 | 2017-02-04 22:55:19.380096+01

 2017-02-05 01:15:54.562899+01 | 1486253754.5629 |                 0 |              28 |                 42930 |                 1778 |            5112906 |             0 |                0 |          493957 |                     0 |        198958 | 2017-02-04 22:55:19.380096+01

 2017-02-05 01:15:55.633907+01 | 1486253755.63391 |                 0 |              28 |                 42930 |                 1778 |            5112906 |             0 |                0 |          493957 |                     0 |        198958 | 2017-02-04 22:55:19.380096+01

 2017-02-05 01:15:56.713738+01 | 1486253756.71374 |                 0 |              28 |                 42930 |                 1778 |            5112906 |             0 |                0 |          493957 |                     0 |        198958 | 2017-02-04 22:55:19.380096+01

 2017-02-05 01:15:57.797567+01 | 1486253757.79757 |                 0 |              28 |                 42930 |                 1778 |            5112906 |             0 |                0 |          493957 |                     0 |        198958 | 2017-02-04 22:55:19.380096+01

 2017-02-05 01:15:58.8738+01 | 1486253758.8738 |                 0 |              28 |                 42930 |                 1778 |            5112906 |             0 |                0 |          493957 |                     0 |        198958 | 2017-02-04 22:55:19.380096+01

 2017-02-05 01:15:59.948212+01 | 1486253759.94821 |                 0 |              28 |                 42930 |                 1778 |            5112906 |             0 |                0 |          493957 |                     0 |        198958 | 2017-02-04 22:55:19.380096+01

 2017-02-05 01:16:01.023971+01 | 1486253761.02397 |                 0 |              28 |                 42930 |                 1778 |            5112906 |             0 |                0 |          493957 |                     0 |        198958 | 2017-02-04 22:55:19.380096+01

 2017-02-05 01:16:02.106569+01 | 1486253762.10657 |                 0 |              28 |                 42930 |                 1778 |            5112906 |             0 |                0 |          493957 |                     0 |        198958 | 2017-02-04 22:55:19.380096+01

 2017-02-05 01:16:03.185582+01 | 1486253763.18558 |                 0 |              28 |                 42930 |                 1778 |            5112906 |             0 |                0 |          493957 |                     0 |        198958 | 2017-02-04 22:55:19.380096+01

 2017-02-05 01:16:04.258768+01 | 1486253764.25877 |                 0 |              28 |                 42930 |                 1778 |            5112906 |             0 |                0 |          493957 |                     0 |        198958 | 2017-02-04 22:55:19.380096+01

 2017-02-05 01:16:05.333171+01 | 1486253765.33317 |                 0 |              28 |                 42930 |                 1778 |            5112906 |             0 |                0 |          493957 |                     0 |        198958 | 2017-02-04 22:55:19.380096+01

 2017-02-05 01:16:06.406629+01 | 1486253766.40663 |                 0 |              28 |                 42930 |                 1778 |            5112906 |             0 |                0 |          493957 |                     0 |        198958 | 2017-02-04 22:55:19.380096+01

 2017-02-05 01:16:07.4923+01 | 1486253767.4923 |                 0 |              28 |                 42930 |                 1778 |            5112906 |             0 |                0 |          493957 |                     0 |        198958 | 2017-02-04 22:55:19.380096+01

 2017-02-05 01:16:08.570711+01 | 1486253768.57071 |                 0 |              28 |                 42930 |                 1778 |            5112906 |             0 |                0 |          493957 |                     0 |        198958 | 2017-02-04 22:55:19.380096+01

 2017-02-05 01:16:09.648188+01 | 1486253769.64819 |                 0 |              28 |                 42930 |                 1778 |            5112906 |             0 |                0 |          493957 |                     0 |        198958 | 2017-02-04 22:55:19.380096+01

 2017-02-05 01:16:10.734737+01 | 1486253770.73474 |                 0 |              28 |                 42930 |                 1778 |            5112906 |             0 |                0 |          493957 |                     0 |        198958 | 2017-02-04 22:55:19.380096+01

 2017-02-05 01:16:11.813959+01 | 1486253771.81396 |                 0 |              28 |                 42930 |                 1778 |            5112906 |             0 |                0 |          493957 |                     0 |        198958 | 2017-02-04 22:55:19.380096+01

 2017-02-05 01:16:12.894819+01 | 1486253772.89482 |                 0 |              28 |                 42930 |                 1778 |            5112906 |             0 |                0 |          493957 |                     0 |        198958 | 2017-02-04 22:55:19.380096+01

 2017-02-05 01:16:13.963521+01 | 1486253773.96352 |                 0 |              28 |                 42930 |                 1778 |            5112906 |             0 |                0 |          493957 |                     0 |        198958 | 2017-02-04 22:55:19.380096+01

 2017-02-05 01:16:15.040957+01 | 1486253775.04096 |                 0 |              28 |                 42930 |                 1778 |            5112906 |             0 |                0 |          493957 |                     0 |        198958 | 2017-02-04 22:55:19.380096+01

 2017-02-05 01:16:16.113906+01 | 1486253776.11391 |                 0 |              28 |                 42930 |                 1778 |            5112906 |             0 |                0 |          493957 |                     0 |        198958 | 2017-02-04 22:55:19.380096+01

 2017-02-05 01:16:17.197591+01 | 1486253777.19759 |                 0 |              28 |                 42930 |                 1778 |            5112906 |             0 |                0 |          493957 |                     0 |        198958 | 2017-02-04 22:55:19.380096+01

 2017-02-05 01:16:18.283537+01 | 1486253778.28354 |                 0 |              28 |                 42930 |                 1778 |            5112906 |             0 |                0 |          493957 |                     0 |        198958 | 2017-02-04 22:55:19.380096+01

 2017-02-05 01:16:19.362278+01 | 1486253779.36228 |                 0 |              28 |                 42930 |                 1778 |            5112906 |             0 |                0 |          493957 |                     0 |        198958 | 2017-02-04 22:55:19.380096+01

 2017-02-05 01:16:20.445409+01 | 1486253780.44541 |                 0 |              28 |                 42930 |                 1778 |            5112906 |             0 |                0 |          493957 |                     0 |        198958 | 2017-02-04 22:55:19.380096+01

 2017-02-05 01:16:21.518141+01 | 1486253781.51814 |                 0 |              28 |                 42930 |                 1778 |            5112906 |             0 |                0 |          493957 |                     0 |        198958 | 2017-02-04 22:55:19.380096+01

 2017-02-05 01:16:22.596599+01 | 1486253782.5966 |                 0 |              28 |                 42930 |                 1778 |            5112906 |             0 |                0 |          493957 |                     0 |        198958 | 2017-02-04 22:55:19.380096+01

 2017-02-05 01:16:23.672089+01 | 1486253783.67209 |                 0 |              28 |                 42930 |                 1778 |            5112906 |             0 |                0 |          493957 |                     0 |        198958 | 2017-02-04 22:55:19.380096+01

 2017-02-05 01:16:24.755297+01 | 1486253784.7553 |                 0 |              28 |                 42930 |                 1778 |            5112906 |             0 |                0 |          493957 |                     0 |        198958 | 2017-02-04 22:55:19.380096+01

 2017-02-05 01:16:25.825418+01 | 1486253785.82542 |                 0 |              28 |                 42930 |                 1778 |            5112906 |             0 |                0 |          493957 |                     0 |        198958 | 2017-02-04 22:55:19.380096+01

 2017-02-05 01:16:26.903147+01 | 1486253786.90315 |                 0 |              28 |                 42930 |                 1778 |            5112906 |             0 |                0 |          493957 |                     0 |        198958 | 2017-02-04 22:55:19.380096+01

 2017-02-05 01:16:27.981664+01 | 1486253787.98166 |                 0 |              28 |                 42930 |                 1778 |            5112906 |             0 |                0 |          493957 |                     0 |        198958 | 2017-02-04 22:55:19.380096+01

 2017-02-05 01:16:29.057076+01 | 1486253789.05708 |                 0 |              28 |                 42930 |                 1778 |            5112906 |             0 |                0 |          493957 |                     0 |        198958 | 2017-02-04 22:55:19.380096+01

 2017-02-05 01:16:30.1335+01 | 1486253790.1335 |                 0 |              28 |                 42930 |                 1778 |            5112906 |             0 |                0 |          493957 |                     0 |        198958 | 2017-02-04 22:55:19.380096+01

 2017-02-05 01:16:31.201386+01 | 1486253791.20139 |                 0 |              28 |                 42930 |                 1778 |            5112906 |             0 |                0 |          493957 |                     0 |        198958 | 2017-02-04 22:55:19.380096+01

 2017-02-05 01:16:32.283811+01 | 1486253792.28381 |                 0 |              28 |                 42930 |                 1778 |            5112906 |             0 |                0 |          493957 |                     0 |        198958 | 2017-02-04 22:55:19.380096+01

 2017-02-05 01:16:33.357297+01 | 1486253793.3573 |                 0 |              28 |                 42930 |                 1778 |            5112906 |             0 |                0 |          493957 |                     0 |        198958 | 2017-02-04 22:55:19.380096+01

