 2017-02-03 16:22:45.677648+01 | 1486135365.67765 | pgbench_accounts |       1342955520
 2017-02-03 16:22:45.677648+01 | 1486135365.67765 | pgbench_tellers  |            49152
 2017-02-03 16:22:45.677648+01 | 1486135365.67765 | pgbench_history  |                0
 2017-02-03 16:22:45.677648+01 | 1486135365.67765 | pgbench_branches |             8192

 2017-02-03 16:22:46.765392+01 | 1486135366.76539 | pgbench_accounts |       1342955520
 2017-02-03 16:22:46.765392+01 | 1486135366.76539 | pgbench_tellers  |            49152
 2017-02-03 16:22:46.765392+01 | 1486135366.76539 | pgbench_history  |                0
 2017-02-03 16:22:46.765392+01 | 1486135366.76539 | pgbench_branches |             8192

 2017-02-03 16:22:47.839715+01 | 1486135367.83972 | pgbench_accounts |       1342955520
 2017-02-03 16:22:47.839715+01 | 1486135367.83972 | pgbench_tellers  |            49152
 2017-02-03 16:22:47.839715+01 | 1486135367.83972 | pgbench_history  |                0
 2017-02-03 16:22:47.839715+01 | 1486135367.83972 | pgbench_branches |             8192

 2017-02-03 16:22:48.922115+01 | 1486135368.92212 | pgbench_accounts |       1342955520
 2017-02-03 16:22:48.922115+01 | 1486135368.92212 | pgbench_tellers  |            49152
 2017-02-03 16:22:48.922115+01 | 1486135368.92212 | pgbench_history  |                0
 2017-02-03 16:22:48.922115+01 | 1486135368.92212 | pgbench_branches |             8192

 2017-02-03 16:22:50.01001+01 | 1486135370.01001 | pgbench_accounts |       1342955520
 2017-02-03 16:22:50.01001+01 | 1486135370.01001 | pgbench_tellers  |            49152
 2017-02-03 16:22:50.01001+01 | 1486135370.01001 | pgbench_history  |                0
 2017-02-03 16:22:50.01001+01 | 1486135370.01001 | pgbench_branches |             8192

 2017-02-03 16:22:51.088196+01 | 1486135371.0882 | pgbench_accounts |       1342955520
 2017-02-03 16:22:51.088196+01 | 1486135371.0882 | pgbench_tellers  |            49152
 2017-02-03 16:22:51.088196+01 | 1486135371.0882 | pgbench_history  |                0
 2017-02-03 16:22:51.088196+01 | 1486135371.0882 | pgbench_branches |             8192

 2017-02-03 16:22:52.161912+01 | 1486135372.16191 | pgbench_accounts |       1342955520
 2017-02-03 16:22:52.161912+01 | 1486135372.16191 | pgbench_tellers  |            49152
 2017-02-03 16:22:52.161912+01 | 1486135372.16191 | pgbench_history  |                0
 2017-02-03 16:22:52.161912+01 | 1486135372.16191 | pgbench_branches |             8192

 2017-02-03 16:22:53.243173+01 | 1486135373.24317 | pgbench_accounts |       1342955520
 2017-02-03 16:22:53.243173+01 | 1486135373.24317 | pgbench_tellers  |            49152
 2017-02-03 16:22:53.243173+01 | 1486135373.24317 | pgbench_history  |                0
 2017-02-03 16:22:53.243173+01 | 1486135373.24317 | pgbench_branches |             8192

 2017-02-03 16:22:54.326956+01 | 1486135374.32696 | pgbench_accounts |       1342955520
 2017-02-03 16:22:54.326956+01 | 1486135374.32696 | pgbench_tellers  |            49152
 2017-02-03 16:22:54.326956+01 | 1486135374.32696 | pgbench_history  |                0
 2017-02-03 16:22:54.326956+01 | 1486135374.32696 | pgbench_branches |             8192

 2017-02-03 16:22:55.41093+01 | 1486135375.41093 | pgbench_accounts |       1342955520
 2017-02-03 16:22:55.41093+01 | 1486135375.41093 | pgbench_tellers  |            49152
 2017-02-03 16:22:55.41093+01 | 1486135375.41093 | pgbench_history  |                0
 2017-02-03 16:22:55.41093+01 | 1486135375.41093 | pgbench_branches |             8192

 2017-02-03 16:22:56.494174+01 | 1486135376.49417 | pgbench_accounts |       1342955520
 2017-02-03 16:22:56.494174+01 | 1486135376.49417 | pgbench_tellers  |            49152
 2017-02-03 16:22:56.494174+01 | 1486135376.49417 | pgbench_history  |                0
 2017-02-03 16:22:56.494174+01 | 1486135376.49417 | pgbench_branches |             8192

 2017-02-03 16:22:57.577655+01 | 1486135377.57766 | pgbench_accounts |       1342955520
 2017-02-03 16:22:57.577655+01 | 1486135377.57766 | pgbench_tellers  |            49152
 2017-02-03 16:22:57.577655+01 | 1486135377.57766 | pgbench_history  |                0
 2017-02-03 16:22:57.577655+01 | 1486135377.57766 | pgbench_branches |             8192

 2017-02-03 16:22:58.656917+01 | 1486135378.65692 | pgbench_accounts |       1342955520
 2017-02-03 16:22:58.656917+01 | 1486135378.65692 | pgbench_tellers  |            49152
 2017-02-03 16:22:58.656917+01 | 1486135378.65692 | pgbench_history  |                0
 2017-02-03 16:22:58.656917+01 | 1486135378.65692 | pgbench_branches |             8192

 2017-02-03 16:22:59.736041+01 | 1486135379.73604 | pgbench_accounts |       1342955520
 2017-02-03 16:22:59.736041+01 | 1486135379.73604 | pgbench_tellers  |            49152
 2017-02-03 16:22:59.736041+01 | 1486135379.73604 | pgbench_history  |                0
 2017-02-03 16:22:59.736041+01 | 1486135379.73604 | pgbench_branches |             8192

 2017-02-03 16:23:00.81461+01 | 1486135380.81461 | pgbench_accounts |       1342955520
 2017-02-03 16:23:00.81461+01 | 1486135380.81461 | pgbench_tellers  |            49152
 2017-02-03 16:23:00.81461+01 | 1486135380.81461 | pgbench_history  |                0
 2017-02-03 16:23:00.81461+01 | 1486135380.81461 | pgbench_branches |             8192

 2017-02-03 16:23:01.89359+01 | 1486135381.89359 | pgbench_accounts |       1342955520
 2017-02-03 16:23:01.89359+01 | 1486135381.89359 | pgbench_tellers  |            49152
 2017-02-03 16:23:01.89359+01 | 1486135381.89359 | pgbench_history  |                0
 2017-02-03 16:23:01.89359+01 | 1486135381.89359 | pgbench_branches |             8192

 2017-02-03 16:23:02.974177+01 | 1486135382.97418 | pgbench_accounts |       1342955520
 2017-02-03 16:23:02.974177+01 | 1486135382.97418 | pgbench_tellers  |            49152
 2017-02-03 16:23:02.974177+01 | 1486135382.97418 | pgbench_history  |                0
 2017-02-03 16:23:02.974177+01 | 1486135382.97418 | pgbench_branches |             8192

 2017-02-03 16:23:04.062345+01 | 1486135384.06235 | pgbench_accounts |       1342955520
 2017-02-03 16:23:04.062345+01 | 1486135384.06235 | pgbench_tellers  |            49152
 2017-02-03 16:23:04.062345+01 | 1486135384.06235 | pgbench_history  |                0
 2017-02-03 16:23:04.062345+01 | 1486135384.06235 | pgbench_branches |             8192

 2017-02-03 16:23:05.143939+01 | 1486135385.14394 | pgbench_accounts |       1342955520
 2017-02-03 16:23:05.143939+01 | 1486135385.14394 | pgbench_tellers  |            49152
 2017-02-03 16:23:05.143939+01 | 1486135385.14394 | pgbench_history  |                0
 2017-02-03 16:23:05.143939+01 | 1486135385.14394 | pgbench_branches |             8192

 2017-02-03 16:23:06.227778+01 | 1486135386.22778 | pgbench_accounts |       1342955520
 2017-02-03 16:23:06.227778+01 | 1486135386.22778 | pgbench_tellers  |            49152
 2017-02-03 16:23:06.227778+01 | 1486135386.22778 | pgbench_history  |                0
 2017-02-03 16:23:06.227778+01 | 1486135386.22778 | pgbench_branches |             8192

 2017-02-03 16:23:07.308058+01 | 1486135387.30806 | pgbench_accounts |       1342955520
 2017-02-03 16:23:07.308058+01 | 1486135387.30806 | pgbench_tellers  |            49152
 2017-02-03 16:23:07.308058+01 | 1486135387.30806 | pgbench_history  |                0
 2017-02-03 16:23:07.308058+01 | 1486135387.30806 | pgbench_branches |             8192

 2017-02-03 16:23:08.387933+01 | 1486135388.38793 | pgbench_accounts |       1342955520
 2017-02-03 16:23:08.387933+01 | 1486135388.38793 | pgbench_tellers  |            49152
 2017-02-03 16:23:08.387933+01 | 1486135388.38793 | pgbench_history  |                0
 2017-02-03 16:23:08.387933+01 | 1486135388.38793 | pgbench_branches |             8192

 2017-02-03 16:23:09.474871+01 | 1486135389.47487 | pgbench_accounts |       1342955520
 2017-02-03 16:23:09.474871+01 | 1486135389.47487 | pgbench_tellers  |            49152
 2017-02-03 16:23:09.474871+01 | 1486135389.47487 | pgbench_history  |                0
 2017-02-03 16:23:09.474871+01 | 1486135389.47487 | pgbench_branches |             8192

 2017-02-03 16:23:10.556277+01 | 1486135390.55628 | pgbench_accounts |       1342955520
 2017-02-03 16:23:10.556277+01 | 1486135390.55628 | pgbench_tellers  |            49152
 2017-02-03 16:23:10.556277+01 | 1486135390.55628 | pgbench_history  |                0
 2017-02-03 16:23:10.556277+01 | 1486135390.55628 | pgbench_branches |             8192

 2017-02-03 16:23:11.631374+01 | 1486135391.63137 | pgbench_accounts |       1342955520
 2017-02-03 16:23:11.631374+01 | 1486135391.63137 | pgbench_tellers  |            49152
 2017-02-03 16:23:11.631374+01 | 1486135391.63137 | pgbench_history  |                0
 2017-02-03 16:23:11.631374+01 | 1486135391.63137 | pgbench_branches |             8192

 2017-02-03 16:23:12.70025+01 | 1486135392.70025 | pgbench_accounts |       1342955520
 2017-02-03 16:23:12.70025+01 | 1486135392.70025 | pgbench_tellers  |            49152
 2017-02-03 16:23:12.70025+01 | 1486135392.70025 | pgbench_history  |                0
 2017-02-03 16:23:12.70025+01 | 1486135392.70025 | pgbench_branches |             8192

 2017-02-03 16:23:13.781541+01 | 1486135393.78154 | pgbench_accounts |       1342955520
 2017-02-03 16:23:13.781541+01 | 1486135393.78154 | pgbench_tellers  |            49152
 2017-02-03 16:23:13.781541+01 | 1486135393.78154 | pgbench_history  |                0
 2017-02-03 16:23:13.781541+01 | 1486135393.78154 | pgbench_branches |             8192

 2017-02-03 16:23:14.856119+01 | 1486135394.85612 | pgbench_accounts |       1342955520
 2017-02-03 16:23:14.856119+01 | 1486135394.85612 | pgbench_tellers  |            49152
 2017-02-03 16:23:14.856119+01 | 1486135394.85612 | pgbench_history  |                0
 2017-02-03 16:23:14.856119+01 | 1486135394.85612 | pgbench_branches |             8192

 2017-02-03 16:23:15.941454+01 | 1486135395.94145 | pgbench_accounts |       1342955520
 2017-02-03 16:23:15.941454+01 | 1486135395.94145 | pgbench_tellers  |            49152
 2017-02-03 16:23:15.941454+01 | 1486135395.94145 | pgbench_history  |                0
 2017-02-03 16:23:15.941454+01 | 1486135395.94145 | pgbench_branches |             8192

 2017-02-03 16:23:17.015708+01 | 1486135397.01571 | pgbench_accounts |       1342955520
 2017-02-03 16:23:17.015708+01 | 1486135397.01571 | pgbench_tellers  |            49152
 2017-02-03 16:23:17.015708+01 | 1486135397.01571 | pgbench_history  |                0
 2017-02-03 16:23:17.015708+01 | 1486135397.01571 | pgbench_branches |             8192

 2017-02-03 16:23:18.09013+01 | 1486135398.09013 | pgbench_accounts |       1342955520
 2017-02-03 16:23:18.09013+01 | 1486135398.09013 | pgbench_tellers  |            49152
 2017-02-03 16:23:18.09013+01 | 1486135398.09013 | pgbench_history  |                0
 2017-02-03 16:23:18.09013+01 | 1486135398.09013 | pgbench_branches |             8192

 2017-02-03 16:23:19.182372+01 | 1486135399.18237 | pgbench_accounts |       1342955520
 2017-02-03 16:23:19.182372+01 | 1486135399.18237 | pgbench_tellers  |            49152
 2017-02-03 16:23:19.182372+01 | 1486135399.18237 | pgbench_history  |                0
 2017-02-03 16:23:19.182372+01 | 1486135399.18237 | pgbench_branches |             8192

 2017-02-03 16:23:20.2715+01 | 1486135400.2715 | pgbench_accounts |       1342955520
 2017-02-03 16:23:20.2715+01 | 1486135400.2715 | pgbench_tellers  |            49152
 2017-02-03 16:23:20.2715+01 | 1486135400.2715 | pgbench_history  |                0
 2017-02-03 16:23:20.2715+01 | 1486135400.2715 | pgbench_branches |             8192

 2017-02-03 16:23:21.36608+01 | 1486135401.36608 | pgbench_accounts |       1342955520
 2017-02-03 16:23:21.36608+01 | 1486135401.36608 | pgbench_tellers  |            49152
 2017-02-03 16:23:21.36608+01 | 1486135401.36608 | pgbench_history  |                0
 2017-02-03 16:23:21.36608+01 | 1486135401.36608 | pgbench_branches |             8192

 2017-02-03 16:23:22.448911+01 | 1486135402.44891 | pgbench_accounts |       1342955520
 2017-02-03 16:23:22.448911+01 | 1486135402.44891 | pgbench_tellers  |            49152
 2017-02-03 16:23:22.448911+01 | 1486135402.44891 | pgbench_history  |                0
 2017-02-03 16:23:22.448911+01 | 1486135402.44891 | pgbench_branches |             8192

 2017-02-03 16:23:23.527126+01 | 1486135403.52713 | pgbench_accounts |       1342955520
 2017-02-03 16:23:23.527126+01 | 1486135403.52713 | pgbench_tellers  |            49152
 2017-02-03 16:23:23.527126+01 | 1486135403.52713 | pgbench_history  |                0
 2017-02-03 16:23:23.527126+01 | 1486135403.52713 | pgbench_branches |             8192

 2017-02-03 16:23:24.598109+01 | 1486135404.59811 | pgbench_accounts |       1342955520
 2017-02-03 16:23:24.598109+01 | 1486135404.59811 | pgbench_tellers  |            49152
 2017-02-03 16:23:24.598109+01 | 1486135404.59811 | pgbench_history  |                0
 2017-02-03 16:23:24.598109+01 | 1486135404.59811 | pgbench_branches |             8192

 2017-02-03 16:23:25.678339+01 | 1486135405.67834 | pgbench_accounts |       1342955520
 2017-02-03 16:23:25.678339+01 | 1486135405.67834 | pgbench_tellers  |            49152
 2017-02-03 16:23:25.678339+01 | 1486135405.67834 | pgbench_history  |                0
 2017-02-03 16:23:25.678339+01 | 1486135405.67834 | pgbench_branches |             8192

 2017-02-03 16:23:26.761565+01 | 1486135406.76156 | pgbench_accounts |       1342955520
 2017-02-03 16:23:26.761565+01 | 1486135406.76156 | pgbench_tellers  |            49152
 2017-02-03 16:23:26.761565+01 | 1486135406.76156 | pgbench_history  |                0
 2017-02-03 16:23:26.761565+01 | 1486135406.76156 | pgbench_branches |             8192

 2017-02-03 16:23:27.842721+01 | 1486135407.84272 | pgbench_accounts |       1342955520
 2017-02-03 16:23:27.842721+01 | 1486135407.84272 | pgbench_tellers  |            49152
 2017-02-03 16:23:27.842721+01 | 1486135407.84272 | pgbench_history  |                0
 2017-02-03 16:23:27.842721+01 | 1486135407.84272 | pgbench_branches |             8192

 2017-02-03 16:23:28.925876+01 | 1486135408.92588 | pgbench_accounts |       1342955520
 2017-02-03 16:23:28.925876+01 | 1486135408.92588 | pgbench_tellers  |            49152
 2017-02-03 16:23:28.925876+01 | 1486135408.92588 | pgbench_history  |                0
 2017-02-03 16:23:28.925876+01 | 1486135408.92588 | pgbench_branches |             8192

 2017-02-03 16:23:30.000976+01 | 1486135410.00098 | pgbench_accounts |       1342955520
 2017-02-03 16:23:30.000976+01 | 1486135410.00098 | pgbench_tellers  |            49152
 2017-02-03 16:23:30.000976+01 | 1486135410.00098 | pgbench_history  |                0
 2017-02-03 16:23:30.000976+01 | 1486135410.00098 | pgbench_branches |             8192

 2017-02-03 16:23:31.080669+01 | 1486135411.08067 | pgbench_accounts |       1342955520
 2017-02-03 16:23:31.080669+01 | 1486135411.08067 | pgbench_tellers  |            49152
 2017-02-03 16:23:31.080669+01 | 1486135411.08067 | pgbench_history  |                0
 2017-02-03 16:23:31.080669+01 | 1486135411.08067 | pgbench_branches |             8192

 2017-02-03 16:23:32.157946+01 | 1486135412.15795 | pgbench_accounts |       1342955520
 2017-02-03 16:23:32.157946+01 | 1486135412.15795 | pgbench_tellers  |            49152
 2017-02-03 16:23:32.157946+01 | 1486135412.15795 | pgbench_history  |                0
 2017-02-03 16:23:32.157946+01 | 1486135412.15795 | pgbench_branches |             8192

 2017-02-03 16:23:33.238937+01 | 1486135413.23894 | pgbench_accounts |       1342955520
 2017-02-03 16:23:33.238937+01 | 1486135413.23894 | pgbench_tellers  |            49152
 2017-02-03 16:23:33.238937+01 | 1486135413.23894 | pgbench_history  |                0
 2017-02-03 16:23:33.238937+01 | 1486135413.23894 | pgbench_branches |             8192

 2017-02-03 16:23:34.320398+01 | 1486135414.3204 | pgbench_accounts |       1342955520
 2017-02-03 16:23:34.320398+01 | 1486135414.3204 | pgbench_tellers  |            49152
 2017-02-03 16:23:34.320398+01 | 1486135414.3204 | pgbench_history  |                0
 2017-02-03 16:23:34.320398+01 | 1486135414.3204 | pgbench_branches |             8192

 2017-02-03 16:23:35.408014+01 | 1486135415.40801 | pgbench_accounts |       1342955520
 2017-02-03 16:23:35.408014+01 | 1486135415.40801 | pgbench_tellers  |            49152
 2017-02-03 16:23:35.408014+01 | 1486135415.40801 | pgbench_history  |                0
 2017-02-03 16:23:35.408014+01 | 1486135415.40801 | pgbench_branches |             8192

 2017-02-03 16:23:36.483547+01 | 1486135416.48355 | pgbench_accounts |       1342955520
 2017-02-03 16:23:36.483547+01 | 1486135416.48355 | pgbench_tellers  |            49152
 2017-02-03 16:23:36.483547+01 | 1486135416.48355 | pgbench_history  |                0
 2017-02-03 16:23:36.483547+01 | 1486135416.48355 | pgbench_branches |             8192

 2017-02-03 16:23:37.565609+01 | 1486135417.56561 | pgbench_accounts |       1342955520
 2017-02-03 16:23:37.565609+01 | 1486135417.56561 | pgbench_tellers  |            49152
 2017-02-03 16:23:37.565609+01 | 1486135417.56561 | pgbench_history  |                0
 2017-02-03 16:23:37.565609+01 | 1486135417.56561 | pgbench_branches |             8192

 2017-02-03 16:23:38.657383+01 | 1486135418.65738 | pgbench_accounts |       1342955520
 2017-02-03 16:23:38.657383+01 | 1486135418.65738 | pgbench_tellers  |            49152
 2017-02-03 16:23:38.657383+01 | 1486135418.65738 | pgbench_history  |                0
 2017-02-03 16:23:38.657383+01 | 1486135418.65738 | pgbench_branches |             8192

 2017-02-03 16:23:39.733924+01 | 1486135419.73392 | pgbench_accounts |       1342955520
 2017-02-03 16:23:39.733924+01 | 1486135419.73392 | pgbench_tellers  |            49152
 2017-02-03 16:23:39.733924+01 | 1486135419.73392 | pgbench_history  |                0
 2017-02-03 16:23:39.733924+01 | 1486135419.73392 | pgbench_branches |             8192

 2017-02-03 16:23:40.807101+01 | 1486135420.8071 | pgbench_accounts |       1342955520
 2017-02-03 16:23:40.807101+01 | 1486135420.8071 | pgbench_tellers  |            49152
 2017-02-03 16:23:40.807101+01 | 1486135420.8071 | pgbench_history  |                0
 2017-02-03 16:23:40.807101+01 | 1486135420.8071 | pgbench_branches |             8192

 2017-02-03 16:23:41.889972+01 | 1486135421.88997 | pgbench_accounts |       1342955520
 2017-02-03 16:23:41.889972+01 | 1486135421.88997 | pgbench_tellers  |            49152
 2017-02-03 16:23:41.889972+01 | 1486135421.88997 | pgbench_history  |                0
 2017-02-03 16:23:41.889972+01 | 1486135421.88997 | pgbench_branches |             8192

 2017-02-03 16:23:42.976854+01 | 1486135422.97685 | pgbench_accounts |       1342955520
 2017-02-03 16:23:42.976854+01 | 1486135422.97685 | pgbench_tellers  |            49152
 2017-02-03 16:23:42.976854+01 | 1486135422.97685 | pgbench_history  |                0
 2017-02-03 16:23:42.976854+01 | 1486135422.97685 | pgbench_branches |             8192

 2017-02-03 16:23:44.051218+01 | 1486135424.05122 | pgbench_accounts |       1342955520
 2017-02-03 16:23:44.051218+01 | 1486135424.05122 | pgbench_tellers  |            49152
 2017-02-03 16:23:44.051218+01 | 1486135424.05122 | pgbench_history  |                0
 2017-02-03 16:23:44.051218+01 | 1486135424.05122 | pgbench_branches |             8192

 2017-02-03 16:23:45.134106+01 | 1486135425.13411 | pgbench_accounts |       1342955520
 2017-02-03 16:23:45.134106+01 | 1486135425.13411 | pgbench_tellers  |            49152
 2017-02-03 16:23:45.134106+01 | 1486135425.13411 | pgbench_history  |                0
 2017-02-03 16:23:45.134106+01 | 1486135425.13411 | pgbench_branches |             8192

 2017-02-03 16:23:46.212426+01 | 1486135426.21243 | pgbench_accounts |       1342955520
 2017-02-03 16:23:46.212426+01 | 1486135426.21243 | pgbench_tellers  |            49152
 2017-02-03 16:23:46.212426+01 | 1486135426.21243 | pgbench_history  |                0
 2017-02-03 16:23:46.212426+01 | 1486135426.21243 | pgbench_branches |             8192

 2017-02-03 16:23:47.29597+01 | 1486135427.29597 | pgbench_accounts |       1342955520
 2017-02-03 16:23:47.29597+01 | 1486135427.29597 | pgbench_tellers  |            49152
 2017-02-03 16:23:47.29597+01 | 1486135427.29597 | pgbench_history  |                0
 2017-02-03 16:23:47.29597+01 | 1486135427.29597 | pgbench_branches |             8192

 2017-02-03 16:23:48.371162+01 | 1486135428.37116 | pgbench_accounts |       1342955520
 2017-02-03 16:23:48.371162+01 | 1486135428.37116 | pgbench_tellers  |            49152
 2017-02-03 16:23:48.371162+01 | 1486135428.37116 | pgbench_history  |                0
 2017-02-03 16:23:48.371162+01 | 1486135428.37116 | pgbench_branches |             8192

 2017-02-03 16:23:49.454589+01 | 1486135429.45459 | pgbench_accounts |       1342955520
 2017-02-03 16:23:49.454589+01 | 1486135429.45459 | pgbench_tellers  |            49152
 2017-02-03 16:23:49.454589+01 | 1486135429.45459 | pgbench_history  |                0
 2017-02-03 16:23:49.454589+01 | 1486135429.45459 | pgbench_branches |             8192

 2017-02-03 16:23:50.540098+01 | 1486135430.5401 | pgbench_accounts |       1342955520
 2017-02-03 16:23:50.540098+01 | 1486135430.5401 | pgbench_tellers  |            49152
 2017-02-03 16:23:50.540098+01 | 1486135430.5401 | pgbench_history  |                0
 2017-02-03 16:23:50.540098+01 | 1486135430.5401 | pgbench_branches |             8192

 2017-02-03 16:23:51.612298+01 | 1486135431.6123 | pgbench_accounts |       1342955520
 2017-02-03 16:23:51.612298+01 | 1486135431.6123 | pgbench_tellers  |            49152
 2017-02-03 16:23:51.612298+01 | 1486135431.6123 | pgbench_history  |                0
 2017-02-03 16:23:51.612298+01 | 1486135431.6123 | pgbench_branches |             8192

 2017-02-03 16:23:52.686499+01 | 1486135432.6865 | pgbench_accounts |       1342955520
 2017-02-03 16:23:52.686499+01 | 1486135432.6865 | pgbench_tellers  |            49152
 2017-02-03 16:23:52.686499+01 | 1486135432.6865 | pgbench_history  |                0
 2017-02-03 16:23:52.686499+01 | 1486135432.6865 | pgbench_branches |             8192

 2017-02-03 16:23:53.775965+01 | 1486135433.77596 | pgbench_accounts |       1342955520
 2017-02-03 16:23:53.775965+01 | 1486135433.77596 | pgbench_tellers  |            49152
 2017-02-03 16:23:53.775965+01 | 1486135433.77596 | pgbench_history  |                0
 2017-02-03 16:23:53.775965+01 | 1486135433.77596 | pgbench_branches |             8192

 2017-02-03 16:23:54.855733+01 | 1486135434.85573 | pgbench_accounts |       1342955520
 2017-02-03 16:23:54.855733+01 | 1486135434.85573 | pgbench_tellers  |            49152
 2017-02-03 16:23:54.855733+01 | 1486135434.85573 | pgbench_history  |                0
 2017-02-03 16:23:54.855733+01 | 1486135434.85573 | pgbench_branches |             8192

 2017-02-03 16:23:55.943318+01 | 1486135435.94332 | pgbench_accounts |       1342955520
 2017-02-03 16:23:55.943318+01 | 1486135435.94332 | pgbench_tellers  |            49152
 2017-02-03 16:23:55.943318+01 | 1486135435.94332 | pgbench_history  |                0
 2017-02-03 16:23:55.943318+01 | 1486135435.94332 | pgbench_branches |             8192

 2017-02-03 16:23:57.023044+01 | 1486135437.02304 | pgbench_accounts |       1342955520
 2017-02-03 16:23:57.023044+01 | 1486135437.02304 | pgbench_tellers  |            49152
 2017-02-03 16:23:57.023044+01 | 1486135437.02304 | pgbench_history  |                0
 2017-02-03 16:23:57.023044+01 | 1486135437.02304 | pgbench_branches |             8192

 2017-02-03 16:23:58.103827+01 | 1486135438.10383 | pgbench_accounts |       1342955520
 2017-02-03 16:23:58.103827+01 | 1486135438.10383 | pgbench_tellers  |            49152
 2017-02-03 16:23:58.103827+01 | 1486135438.10383 | pgbench_history  |                0
 2017-02-03 16:23:58.103827+01 | 1486135438.10383 | pgbench_branches |             8192

 2017-02-03 16:23:59.183244+01 | 1486135439.18324 | pgbench_accounts |       1342955520
 2017-02-03 16:23:59.183244+01 | 1486135439.18324 | pgbench_tellers  |            49152
 2017-02-03 16:23:59.183244+01 | 1486135439.18324 | pgbench_history  |                0
 2017-02-03 16:23:59.183244+01 | 1486135439.18324 | pgbench_branches |             8192

 2017-02-03 16:24:00.259648+01 | 1486135440.25965 | pgbench_accounts |       1342955520
 2017-02-03 16:24:00.259648+01 | 1486135440.25965 | pgbench_tellers  |            49152
 2017-02-03 16:24:00.259648+01 | 1486135440.25965 | pgbench_history  |                0
 2017-02-03 16:24:00.259648+01 | 1486135440.25965 | pgbench_branches |             8192

 2017-02-03 16:24:01.338022+01 | 1486135441.33802 | pgbench_accounts |       1342955520
 2017-02-03 16:24:01.338022+01 | 1486135441.33802 | pgbench_tellers  |            49152
 2017-02-03 16:24:01.338022+01 | 1486135441.33802 | pgbench_history  |                0
 2017-02-03 16:24:01.338022+01 | 1486135441.33802 | pgbench_branches |             8192

 2017-02-03 16:24:02.412911+01 | 1486135442.41291 | pgbench_accounts |       1342955520
 2017-02-03 16:24:02.412911+01 | 1486135442.41291 | pgbench_tellers  |            49152
 2017-02-03 16:24:02.412911+01 | 1486135442.41291 | pgbench_history  |                0
 2017-02-03 16:24:02.412911+01 | 1486135442.41291 | pgbench_branches |             8192

 2017-02-03 16:24:03.485902+01 | 1486135443.4859 | pgbench_accounts |       1342955520
 2017-02-03 16:24:03.485902+01 | 1486135443.4859 | pgbench_tellers  |            49152
 2017-02-03 16:24:03.485902+01 | 1486135443.4859 | pgbench_history  |                0
 2017-02-03 16:24:03.485902+01 | 1486135443.4859 | pgbench_branches |             8192

 2017-02-03 16:24:04.567384+01 | 1486135444.56738 | pgbench_accounts |       1342955520
 2017-02-03 16:24:04.567384+01 | 1486135444.56738 | pgbench_tellers  |            49152
 2017-02-03 16:24:04.567384+01 | 1486135444.56738 | pgbench_history  |                0
 2017-02-03 16:24:04.567384+01 | 1486135444.56738 | pgbench_branches |             8192

 2017-02-03 16:24:05.641121+01 | 1486135445.64112 | pgbench_accounts |       1342955520
 2017-02-03 16:24:05.641121+01 | 1486135445.64112 | pgbench_tellers  |            49152
 2017-02-03 16:24:05.641121+01 | 1486135445.64112 | pgbench_history  |                0
 2017-02-03 16:24:05.641121+01 | 1486135445.64112 | pgbench_branches |             8192

 2017-02-03 16:24:06.724214+01 | 1486135446.72421 | pgbench_accounts |       1342955520
 2017-02-03 16:24:06.724214+01 | 1486135446.72421 | pgbench_tellers  |            49152
 2017-02-03 16:24:06.724214+01 | 1486135446.72421 | pgbench_history  |                0
 2017-02-03 16:24:06.724214+01 | 1486135446.72421 | pgbench_branches |             8192

 2017-02-03 16:24:07.8066+01 | 1486135447.8066 | pgbench_accounts |       1342955520
 2017-02-03 16:24:07.8066+01 | 1486135447.8066 | pgbench_tellers  |            49152
 2017-02-03 16:24:07.8066+01 | 1486135447.8066 | pgbench_history  |                0
 2017-02-03 16:24:07.8066+01 | 1486135447.8066 | pgbench_branches |             8192

 2017-02-03 16:24:08.889399+01 | 1486135448.8894 | pgbench_accounts |       1342955520
 2017-02-03 16:24:08.889399+01 | 1486135448.8894 | pgbench_tellers  |            49152
 2017-02-03 16:24:08.889399+01 | 1486135448.8894 | pgbench_history  |                0
 2017-02-03 16:24:08.889399+01 | 1486135448.8894 | pgbench_branches |             8192

 2017-02-03 16:24:09.970522+01 | 1486135449.97052 | pgbench_accounts |       1342955520
 2017-02-03 16:24:09.970522+01 | 1486135449.97052 | pgbench_tellers  |            49152
 2017-02-03 16:24:09.970522+01 | 1486135449.97052 | pgbench_history  |                0
 2017-02-03 16:24:09.970522+01 | 1486135449.97052 | pgbench_branches |             8192

 2017-02-03 16:24:11.062282+01 | 1486135451.06228 | pgbench_accounts |       1342955520
 2017-02-03 16:24:11.062282+01 | 1486135451.06228 | pgbench_tellers  |            49152
 2017-02-03 16:24:11.062282+01 | 1486135451.06228 | pgbench_history  |                0
 2017-02-03 16:24:11.062282+01 | 1486135451.06228 | pgbench_branches |             8192

 2017-02-03 16:24:12.154773+01 | 1486135452.15477 | pgbench_accounts |       1342955520
 2017-02-03 16:24:12.154773+01 | 1486135452.15477 | pgbench_tellers  |            49152
 2017-02-03 16:24:12.154773+01 | 1486135452.15477 | pgbench_history  |                0
 2017-02-03 16:24:12.154773+01 | 1486135452.15477 | pgbench_branches |             8192

 2017-02-03 16:24:13.233231+01 | 1486135453.23323 | pgbench_accounts |       1342955520
 2017-02-03 16:24:13.233231+01 | 1486135453.23323 | pgbench_tellers  |            49152
 2017-02-03 16:24:13.233231+01 | 1486135453.23323 | pgbench_history  |                0
 2017-02-03 16:24:13.233231+01 | 1486135453.23323 | pgbench_branches |             8192

 2017-02-03 16:24:14.314924+01 | 1486135454.31492 | pgbench_accounts |       1342955520
 2017-02-03 16:24:14.314924+01 | 1486135454.31492 | pgbench_tellers  |            49152
 2017-02-03 16:24:14.314924+01 | 1486135454.31492 | pgbench_history  |                0
 2017-02-03 16:24:14.314924+01 | 1486135454.31492 | pgbench_branches |             8192

 2017-02-03 16:24:15.402004+01 | 1486135455.402 | pgbench_accounts |       1342955520
 2017-02-03 16:24:15.402004+01 | 1486135455.402 | pgbench_tellers  |            49152
 2017-02-03 16:24:15.402004+01 | 1486135455.402 | pgbench_history  |                0
 2017-02-03 16:24:15.402004+01 | 1486135455.402 | pgbench_branches |             8192

 2017-02-03 16:24:16.487322+01 | 1486135456.48732 | pgbench_accounts |       1342955520
 2017-02-03 16:24:16.487322+01 | 1486135456.48732 | pgbench_tellers  |            49152
 2017-02-03 16:24:16.487322+01 | 1486135456.48732 | pgbench_history  |                0
 2017-02-03 16:24:16.487322+01 | 1486135456.48732 | pgbench_branches |             8192

 2017-02-03 16:24:17.570719+01 | 1486135457.57072 | pgbench_accounts |       1342955520
 2017-02-03 16:24:17.570719+01 | 1486135457.57072 | pgbench_tellers  |            49152
 2017-02-03 16:24:17.570719+01 | 1486135457.57072 | pgbench_history  |                0
 2017-02-03 16:24:17.570719+01 | 1486135457.57072 | pgbench_branches |             8192

 2017-02-03 16:24:18.649632+01 | 1486135458.64963 | pgbench_accounts |       1342955520
 2017-02-03 16:24:18.649632+01 | 1486135458.64963 | pgbench_tellers  |            49152
 2017-02-03 16:24:18.649632+01 | 1486135458.64963 | pgbench_history  |                0
 2017-02-03 16:24:18.649632+01 | 1486135458.64963 | pgbench_branches |             8192

 2017-02-03 16:24:19.727184+01 | 1486135459.72718 | pgbench_accounts |       1342955520
 2017-02-03 16:24:19.727184+01 | 1486135459.72718 | pgbench_tellers  |            49152
 2017-02-03 16:24:19.727184+01 | 1486135459.72718 | pgbench_history  |                0
 2017-02-03 16:24:19.727184+01 | 1486135459.72718 | pgbench_branches |             8192

 2017-02-03 16:24:20.816886+01 | 1486135460.81689 | pgbench_accounts |       1342955520
 2017-02-03 16:24:20.816886+01 | 1486135460.81689 | pgbench_tellers  |            49152
 2017-02-03 16:24:20.816886+01 | 1486135460.81689 | pgbench_history  |                0
 2017-02-03 16:24:20.816886+01 | 1486135460.81689 | pgbench_branches |             8192

 2017-02-03 16:24:21.900285+01 | 1486135461.90029 | pgbench_accounts |       1342955520
 2017-02-03 16:24:21.900285+01 | 1486135461.90029 | pgbench_tellers  |            49152
 2017-02-03 16:24:21.900285+01 | 1486135461.90029 | pgbench_history  |                0
 2017-02-03 16:24:21.900285+01 | 1486135461.90029 | pgbench_branches |             8192

 2017-02-03 16:24:22.986757+01 | 1486135462.98676 | pgbench_accounts |       1342955520
 2017-02-03 16:24:22.986757+01 | 1486135462.98676 | pgbench_tellers  |            49152
 2017-02-03 16:24:22.986757+01 | 1486135462.98676 | pgbench_history  |                0
 2017-02-03 16:24:22.986757+01 | 1486135462.98676 | pgbench_branches |             8192

 2017-02-03 16:24:24.067259+01 | 1486135464.06726 | pgbench_accounts |       1342955520
 2017-02-03 16:24:24.067259+01 | 1486135464.06726 | pgbench_tellers  |            49152
 2017-02-03 16:24:24.067259+01 | 1486135464.06726 | pgbench_history  |                0
 2017-02-03 16:24:24.067259+01 | 1486135464.06726 | pgbench_branches |             8192

 2017-02-03 16:24:25.153205+01 | 1486135465.1532 | pgbench_accounts |       1342955520
 2017-02-03 16:24:25.153205+01 | 1486135465.1532 | pgbench_tellers  |            49152
 2017-02-03 16:24:25.153205+01 | 1486135465.1532 | pgbench_history  |                0
 2017-02-03 16:24:25.153205+01 | 1486135465.1532 | pgbench_branches |             8192

 2017-02-03 16:24:26.242124+01 | 1486135466.24212 | pgbench_accounts |       1342955520
 2017-02-03 16:24:26.242124+01 | 1486135466.24212 | pgbench_tellers  |            49152
 2017-02-03 16:24:26.242124+01 | 1486135466.24212 | pgbench_history  |                0
 2017-02-03 16:24:26.242124+01 | 1486135466.24212 | pgbench_branches |             8192

 2017-02-03 16:24:27.327333+01 | 1486135467.32733 | pgbench_accounts |       1342955520
 2017-02-03 16:24:27.327333+01 | 1486135467.32733 | pgbench_tellers  |            49152
 2017-02-03 16:24:27.327333+01 | 1486135467.32733 | pgbench_history  |                0
 2017-02-03 16:24:27.327333+01 | 1486135467.32733 | pgbench_branches |             8192

 2017-02-03 16:24:28.409172+01 | 1486135468.40917 | pgbench_accounts |       1342955520
 2017-02-03 16:24:28.409172+01 | 1486135468.40917 | pgbench_tellers  |            49152
 2017-02-03 16:24:28.409172+01 | 1486135468.40917 | pgbench_history  |                0
 2017-02-03 16:24:28.409172+01 | 1486135468.40917 | pgbench_branches |             8192

 2017-02-03 16:24:29.496699+01 | 1486135469.4967 | pgbench_accounts |       1342955520
 2017-02-03 16:24:29.496699+01 | 1486135469.4967 | pgbench_tellers  |            49152
 2017-02-03 16:24:29.496699+01 | 1486135469.4967 | pgbench_history  |                0
 2017-02-03 16:24:29.496699+01 | 1486135469.4967 | pgbench_branches |             8192

 2017-02-03 16:24:30.581759+01 | 1486135470.58176 | pgbench_accounts |       1342955520
 2017-02-03 16:24:30.581759+01 | 1486135470.58176 | pgbench_tellers  |            49152
 2017-02-03 16:24:30.581759+01 | 1486135470.58176 | pgbench_history  |                0
 2017-02-03 16:24:30.581759+01 | 1486135470.58176 | pgbench_branches |             8192

 2017-02-03 16:24:31.663702+01 | 1486135471.6637 | pgbench_accounts |       1342955520
 2017-02-03 16:24:31.663702+01 | 1486135471.6637 | pgbench_tellers  |            49152
 2017-02-03 16:24:31.663702+01 | 1486135471.6637 | pgbench_history  |                0
 2017-02-03 16:24:31.663702+01 | 1486135471.6637 | pgbench_branches |             8192

 2017-02-03 16:24:32.749232+01 | 1486135472.74923 | pgbench_accounts |       1342955520
 2017-02-03 16:24:32.749232+01 | 1486135472.74923 | pgbench_tellers  |            49152
 2017-02-03 16:24:32.749232+01 | 1486135472.74923 | pgbench_history  |                0
 2017-02-03 16:24:32.749232+01 | 1486135472.74923 | pgbench_branches |             8192

 2017-02-03 16:24:33.835342+01 | 1486135473.83534 | pgbench_accounts |       1342955520
 2017-02-03 16:24:33.835342+01 | 1486135473.83534 | pgbench_tellers  |            49152
 2017-02-03 16:24:33.835342+01 | 1486135473.83534 | pgbench_history  |                0
 2017-02-03 16:24:33.835342+01 | 1486135473.83534 | pgbench_branches |             8192

 2017-02-03 16:24:34.921764+01 | 1486135474.92176 | pgbench_accounts |       1342955520
 2017-02-03 16:24:34.921764+01 | 1486135474.92176 | pgbench_tellers  |            49152
 2017-02-03 16:24:34.921764+01 | 1486135474.92176 | pgbench_history  |                0
 2017-02-03 16:24:34.921764+01 | 1486135474.92176 | pgbench_branches |             8192

 2017-02-03 16:24:36.010482+01 | 1486135476.01048 | pgbench_accounts |       1342955520
 2017-02-03 16:24:36.010482+01 | 1486135476.01048 | pgbench_tellers  |            49152
 2017-02-03 16:24:36.010482+01 | 1486135476.01048 | pgbench_history  |                0
 2017-02-03 16:24:36.010482+01 | 1486135476.01048 | pgbench_branches |             8192

 2017-02-03 16:24:37.097603+01 | 1486135477.0976 | pgbench_accounts |       1342955520
 2017-02-03 16:24:37.097603+01 | 1486135477.0976 | pgbench_tellers  |            49152
 2017-02-03 16:24:37.097603+01 | 1486135477.0976 | pgbench_history  |                0
 2017-02-03 16:24:37.097603+01 | 1486135477.0976 | pgbench_branches |             8192

 2017-02-03 16:24:38.180186+01 | 1486135478.18019 | pgbench_accounts |       1342955520
 2017-02-03 16:24:38.180186+01 | 1486135478.18019 | pgbench_tellers  |            49152
 2017-02-03 16:24:38.180186+01 | 1486135478.18019 | pgbench_history  |                0
 2017-02-03 16:24:38.180186+01 | 1486135478.18019 | pgbench_branches |             8192

 2017-02-03 16:24:39.264089+01 | 1486135479.26409 | pgbench_accounts |       1342955520
 2017-02-03 16:24:39.264089+01 | 1486135479.26409 | pgbench_tellers  |            49152
 2017-02-03 16:24:39.264089+01 | 1486135479.26409 | pgbench_history  |                0
 2017-02-03 16:24:39.264089+01 | 1486135479.26409 | pgbench_branches |             8192

 2017-02-03 16:24:40.351187+01 | 1486135480.35119 | pgbench_accounts |       1342955520
 2017-02-03 16:24:40.351187+01 | 1486135480.35119 | pgbench_tellers  |            49152
 2017-02-03 16:24:40.351187+01 | 1486135480.35119 | pgbench_history  |                0
 2017-02-03 16:24:40.351187+01 | 1486135480.35119 | pgbench_branches |             8192

 2017-02-03 16:24:41.443179+01 | 1486135481.44318 | pgbench_accounts |       1342955520
 2017-02-03 16:24:41.443179+01 | 1486135481.44318 | pgbench_tellers  |            49152
 2017-02-03 16:24:41.443179+01 | 1486135481.44318 | pgbench_history  |                0
 2017-02-03 16:24:41.443179+01 | 1486135481.44318 | pgbench_branches |             8192

 2017-02-03 16:24:42.522564+01 | 1486135482.52256 | pgbench_accounts |       1342955520
 2017-02-03 16:24:42.522564+01 | 1486135482.52256 | pgbench_tellers  |            49152
 2017-02-03 16:24:42.522564+01 | 1486135482.52256 | pgbench_history  |                0
 2017-02-03 16:24:42.522564+01 | 1486135482.52256 | pgbench_branches |             8192

 2017-02-03 16:24:43.605725+01 | 1486135483.60573 | pgbench_accounts |       1342955520
 2017-02-03 16:24:43.605725+01 | 1486135483.60573 | pgbench_tellers  |            49152
 2017-02-03 16:24:43.605725+01 | 1486135483.60573 | pgbench_history  |                0
 2017-02-03 16:24:43.605725+01 | 1486135483.60573 | pgbench_branches |             8192

 2017-02-03 16:24:44.68835+01 | 1486135484.68835 | pgbench_accounts |       1342955520
 2017-02-03 16:24:44.68835+01 | 1486135484.68835 | pgbench_tellers  |            49152
 2017-02-03 16:24:44.68835+01 | 1486135484.68835 | pgbench_history  |                0
 2017-02-03 16:24:44.68835+01 | 1486135484.68835 | pgbench_branches |             8192

 2017-02-03 16:24:45.781285+01 | 1486135485.78129 | pgbench_accounts |       1342955520
 2017-02-03 16:24:45.781285+01 | 1486135485.78129 | pgbench_tellers  |            49152
 2017-02-03 16:24:45.781285+01 | 1486135485.78129 | pgbench_history  |                0
 2017-02-03 16:24:45.781285+01 | 1486135485.78129 | pgbench_branches |             8192

 2017-02-03 16:24:46.860468+01 | 1486135486.86047 | pgbench_accounts |       1342955520
 2017-02-03 16:24:46.860468+01 | 1486135486.86047 | pgbench_tellers  |            49152
 2017-02-03 16:24:46.860468+01 | 1486135486.86047 | pgbench_history  |                0
 2017-02-03 16:24:46.860468+01 | 1486135486.86047 | pgbench_branches |             8192

 2017-02-03 16:24:47.941768+01 | 1486135487.94177 | pgbench_accounts |       1342955520
 2017-02-03 16:24:47.941768+01 | 1486135487.94177 | pgbench_tellers  |            49152
 2017-02-03 16:24:47.941768+01 | 1486135487.94177 | pgbench_history  |                0
 2017-02-03 16:24:47.941768+01 | 1486135487.94177 | pgbench_branches |             8192

 2017-02-03 16:24:49.017017+01 | 1486135489.01702 | pgbench_accounts |       1342955520
 2017-02-03 16:24:49.017017+01 | 1486135489.01702 | pgbench_tellers  |            49152
 2017-02-03 16:24:49.017017+01 | 1486135489.01702 | pgbench_history  |                0
 2017-02-03 16:24:49.017017+01 | 1486135489.01702 | pgbench_branches |             8192

 2017-02-03 16:24:50.101735+01 | 1486135490.10174 | pgbench_accounts |       1342955520
 2017-02-03 16:24:50.101735+01 | 1486135490.10174 | pgbench_tellers  |            49152
 2017-02-03 16:24:50.101735+01 | 1486135490.10174 | pgbench_history  |                0
 2017-02-03 16:24:50.101735+01 | 1486135490.10174 | pgbench_branches |             8192

 2017-02-03 16:24:51.186583+01 | 1486135491.18658 | pgbench_accounts |       1342955520
 2017-02-03 16:24:51.186583+01 | 1486135491.18658 | pgbench_tellers  |            49152
 2017-02-03 16:24:51.186583+01 | 1486135491.18658 | pgbench_history  |                0
 2017-02-03 16:24:51.186583+01 | 1486135491.18658 | pgbench_branches |             8192

 2017-02-03 16:24:52.270202+01 | 1486135492.2702 | pgbench_accounts |       1342955520
 2017-02-03 16:24:52.270202+01 | 1486135492.2702 | pgbench_tellers  |            49152
 2017-02-03 16:24:52.270202+01 | 1486135492.2702 | pgbench_history  |                0
 2017-02-03 16:24:52.270202+01 | 1486135492.2702 | pgbench_branches |             8192

 2017-02-03 16:24:53.355079+01 | 1486135493.35508 | pgbench_accounts |       1342955520
 2017-02-03 16:24:53.355079+01 | 1486135493.35508 | pgbench_tellers  |            49152
 2017-02-03 16:24:53.355079+01 | 1486135493.35508 | pgbench_history  |                0
 2017-02-03 16:24:53.355079+01 | 1486135493.35508 | pgbench_branches |             8192

 2017-02-03 16:24:54.431426+01 | 1486135494.43143 | pgbench_accounts |       1342955520
 2017-02-03 16:24:54.431426+01 | 1486135494.43143 | pgbench_tellers  |            49152
 2017-02-03 16:24:54.431426+01 | 1486135494.43143 | pgbench_history  |                0
 2017-02-03 16:24:54.431426+01 | 1486135494.43143 | pgbench_branches |             8192

 2017-02-03 16:24:55.515757+01 | 1486135495.51576 | pgbench_accounts |       1342955520
 2017-02-03 16:24:55.515757+01 | 1486135495.51576 | pgbench_tellers  |            49152
 2017-02-03 16:24:55.515757+01 | 1486135495.51576 | pgbench_history  |                0
 2017-02-03 16:24:55.515757+01 | 1486135495.51576 | pgbench_branches |             8192

 2017-02-03 16:24:56.603389+01 | 1486135496.60339 | pgbench_accounts |       1342955520
 2017-02-03 16:24:56.603389+01 | 1486135496.60339 | pgbench_tellers  |            49152
 2017-02-03 16:24:56.603389+01 | 1486135496.60339 | pgbench_history  |                0
 2017-02-03 16:24:56.603389+01 | 1486135496.60339 | pgbench_branches |             8192

 2017-02-03 16:24:57.686227+01 | 1486135497.68623 | pgbench_accounts |       1342955520
 2017-02-03 16:24:57.686227+01 | 1486135497.68623 | pgbench_tellers  |            49152
 2017-02-03 16:24:57.686227+01 | 1486135497.68623 | pgbench_history  |                0
 2017-02-03 16:24:57.686227+01 | 1486135497.68623 | pgbench_branches |             8192

 2017-02-03 16:24:58.774523+01 | 1486135498.77452 | pgbench_accounts |       1342955520
 2017-02-03 16:24:58.774523+01 | 1486135498.77452 | pgbench_tellers  |            49152
 2017-02-03 16:24:58.774523+01 | 1486135498.77452 | pgbench_history  |                0
 2017-02-03 16:24:58.774523+01 | 1486135498.77452 | pgbench_branches |             8192

 2017-02-03 16:24:59.860479+01 | 1486135499.86048 | pgbench_accounts |       1342955520
 2017-02-03 16:24:59.860479+01 | 1486135499.86048 | pgbench_tellers  |            49152
 2017-02-03 16:24:59.860479+01 | 1486135499.86048 | pgbench_history  |                0
 2017-02-03 16:24:59.860479+01 | 1486135499.86048 | pgbench_branches |             8192

 2017-02-03 16:25:00.947117+01 | 1486135500.94712 | pgbench_accounts |       1342955520
 2017-02-03 16:25:00.947117+01 | 1486135500.94712 | pgbench_tellers  |            49152
 2017-02-03 16:25:00.947117+01 | 1486135500.94712 | pgbench_history  |                0
 2017-02-03 16:25:00.947117+01 | 1486135500.94712 | pgbench_branches |             8192

 2017-02-03 16:25:02.029983+01 | 1486135502.02998 | pgbench_accounts |       1342955520
 2017-02-03 16:25:02.029983+01 | 1486135502.02998 | pgbench_tellers  |            49152
 2017-02-03 16:25:02.029983+01 | 1486135502.02998 | pgbench_history  |                0
 2017-02-03 16:25:02.029983+01 | 1486135502.02998 | pgbench_branches |             8192

 2017-02-03 16:25:03.100927+01 | 1486135503.10093 | pgbench_accounts |       1342955520
 2017-02-03 16:25:03.100927+01 | 1486135503.10093 | pgbench_tellers  |            49152
 2017-02-03 16:25:03.100927+01 | 1486135503.10093 | pgbench_history  |                0
 2017-02-03 16:25:03.100927+01 | 1486135503.10093 | pgbench_branches |             8192

 2017-02-03 16:25:04.183282+01 | 1486135504.18328 | pgbench_accounts |       1342955520
 2017-02-03 16:25:04.183282+01 | 1486135504.18328 | pgbench_tellers  |            49152
 2017-02-03 16:25:04.183282+01 | 1486135504.18328 | pgbench_history  |                0
 2017-02-03 16:25:04.183282+01 | 1486135504.18328 | pgbench_branches |             8192

 2017-02-03 16:25:05.270766+01 | 1486135505.27077 | pgbench_accounts |       1342955520
 2017-02-03 16:25:05.270766+01 | 1486135505.27077 | pgbench_tellers  |            49152
 2017-02-03 16:25:05.270766+01 | 1486135505.27077 | pgbench_history  |                0
 2017-02-03 16:25:05.270766+01 | 1486135505.27077 | pgbench_branches |             8192

 2017-02-03 16:25:06.356703+01 | 1486135506.3567 | pgbench_accounts |       1342955520
 2017-02-03 16:25:06.356703+01 | 1486135506.3567 | pgbench_tellers  |            49152
 2017-02-03 16:25:06.356703+01 | 1486135506.3567 | pgbench_history  |                0
 2017-02-03 16:25:06.356703+01 | 1486135506.3567 | pgbench_branches |             8192

 2017-02-03 16:25:07.445495+01 | 1486135507.44549 | pgbench_accounts |       1342955520
 2017-02-03 16:25:07.445495+01 | 1486135507.44549 | pgbench_tellers  |            49152
 2017-02-03 16:25:07.445495+01 | 1486135507.44549 | pgbench_history  |                0
 2017-02-03 16:25:07.445495+01 | 1486135507.44549 | pgbench_branches |             8192

 2017-02-03 16:25:08.538328+01 | 1486135508.53833 | pgbench_accounts |       1342955520
 2017-02-03 16:25:08.538328+01 | 1486135508.53833 | pgbench_tellers  |            49152
 2017-02-03 16:25:08.538328+01 | 1486135508.53833 | pgbench_history  |                0
 2017-02-03 16:25:08.538328+01 | 1486135508.53833 | pgbench_branches |             8192

 2017-02-03 16:25:09.622474+01 | 1486135509.62247 | pgbench_accounts |       1342955520
 2017-02-03 16:25:09.622474+01 | 1486135509.62247 | pgbench_tellers  |            49152
 2017-02-03 16:25:09.622474+01 | 1486135509.62247 | pgbench_history  |                0
 2017-02-03 16:25:09.622474+01 | 1486135509.62247 | pgbench_branches |             8192

 2017-02-03 16:25:10.702459+01 | 1486135510.70246 | pgbench_accounts |       1342955520
 2017-02-03 16:25:10.702459+01 | 1486135510.70246 | pgbench_tellers  |            49152
 2017-02-03 16:25:10.702459+01 | 1486135510.70246 | pgbench_history  |                0
 2017-02-03 16:25:10.702459+01 | 1486135510.70246 | pgbench_branches |             8192

 2017-02-03 16:25:11.774679+01 | 1486135511.77468 | pgbench_accounts |       1342955520
 2017-02-03 16:25:11.774679+01 | 1486135511.77468 | pgbench_tellers  |            49152
 2017-02-03 16:25:11.774679+01 | 1486135511.77468 | pgbench_history  |                0
 2017-02-03 16:25:11.774679+01 | 1486135511.77468 | pgbench_branches |             8192

 2017-02-03 16:25:12.86441+01 | 1486135512.86441 | pgbench_accounts |       1342955520
 2017-02-03 16:25:12.86441+01 | 1486135512.86441 | pgbench_tellers  |            49152
 2017-02-03 16:25:12.86441+01 | 1486135512.86441 | pgbench_history  |                0
 2017-02-03 16:25:12.86441+01 | 1486135512.86441 | pgbench_branches |             8192

 2017-02-03 16:25:13.944525+01 | 1486135513.94453 | pgbench_accounts |       1342955520
 2017-02-03 16:25:13.944525+01 | 1486135513.94453 | pgbench_tellers  |            49152
 2017-02-03 16:25:13.944525+01 | 1486135513.94453 | pgbench_history  |                0
 2017-02-03 16:25:13.944525+01 | 1486135513.94453 | pgbench_branches |             8192

 2017-02-03 16:25:15.020426+01 | 1486135515.02043 | pgbench_accounts |       1342955520
 2017-02-03 16:25:15.020426+01 | 1486135515.02043 | pgbench_tellers  |            49152
 2017-02-03 16:25:15.020426+01 | 1486135515.02043 | pgbench_history  |                0
 2017-02-03 16:25:15.020426+01 | 1486135515.02043 | pgbench_branches |             8192

 2017-02-03 16:25:16.104742+01 | 1486135516.10474 | pgbench_accounts |       1342955520
 2017-02-03 16:25:16.104742+01 | 1486135516.10474 | pgbench_tellers  |            49152
 2017-02-03 16:25:16.104742+01 | 1486135516.10474 | pgbench_history  |                0
 2017-02-03 16:25:16.104742+01 | 1486135516.10474 | pgbench_branches |             8192

 2017-02-03 16:25:17.194064+01 | 1486135517.19406 | pgbench_accounts |       1342955520
 2017-02-03 16:25:17.194064+01 | 1486135517.19406 | pgbench_tellers  |            49152
 2017-02-03 16:25:17.194064+01 | 1486135517.19406 | pgbench_history  |                0
 2017-02-03 16:25:17.194064+01 | 1486135517.19406 | pgbench_branches |             8192

 2017-02-03 16:25:18.281168+01 | 1486135518.28117 | pgbench_accounts |       1342955520
 2017-02-03 16:25:18.281168+01 | 1486135518.28117 | pgbench_tellers  |            49152
 2017-02-03 16:25:18.281168+01 | 1486135518.28117 | pgbench_history  |                0
 2017-02-03 16:25:18.281168+01 | 1486135518.28117 | pgbench_branches |             8192

 2017-02-03 16:25:19.37119+01 | 1486135519.37119 | pgbench_accounts |       1342955520
 2017-02-03 16:25:19.37119+01 | 1486135519.37119 | pgbench_tellers  |            49152
 2017-02-03 16:25:19.37119+01 | 1486135519.37119 | pgbench_history  |                0
 2017-02-03 16:25:19.37119+01 | 1486135519.37119 | pgbench_branches |             8192

 2017-02-03 16:25:20.461907+01 | 1486135520.46191 | pgbench_accounts |       1342955520
 2017-02-03 16:25:20.461907+01 | 1486135520.46191 | pgbench_tellers  |            49152
 2017-02-03 16:25:20.461907+01 | 1486135520.46191 | pgbench_history  |                0
 2017-02-03 16:25:20.461907+01 | 1486135520.46191 | pgbench_branches |             8192

 2017-02-03 16:25:21.539411+01 | 1486135521.53941 | pgbench_accounts |       1342955520
 2017-02-03 16:25:21.539411+01 | 1486135521.53941 | pgbench_tellers  |            49152
 2017-02-03 16:25:21.539411+01 | 1486135521.53941 | pgbench_history  |                0
 2017-02-03 16:25:21.539411+01 | 1486135521.53941 | pgbench_branches |             8192

 2017-02-03 16:25:22.626883+01 | 1486135522.62688 | pgbench_accounts |       1342955520
 2017-02-03 16:25:22.626883+01 | 1486135522.62688 | pgbench_tellers  |            49152
 2017-02-03 16:25:22.626883+01 | 1486135522.62688 | pgbench_history  |                0
 2017-02-03 16:25:22.626883+01 | 1486135522.62688 | pgbench_branches |             8192

 2017-02-03 16:25:23.710699+01 | 1486135523.7107 | pgbench_accounts |       1342955520
 2017-02-03 16:25:23.710699+01 | 1486135523.7107 | pgbench_tellers  |            49152
 2017-02-03 16:25:23.710699+01 | 1486135523.7107 | pgbench_history  |                0
 2017-02-03 16:25:23.710699+01 | 1486135523.7107 | pgbench_branches |             8192

 2017-02-03 16:25:24.795015+01 | 1486135524.79502 | pgbench_accounts |       1342955520
 2017-02-03 16:25:24.795015+01 | 1486135524.79502 | pgbench_tellers  |            49152
 2017-02-03 16:25:24.795015+01 | 1486135524.79502 | pgbench_history  |                0
 2017-02-03 16:25:24.795015+01 | 1486135524.79502 | pgbench_branches |             8192

 2017-02-03 16:25:25.877541+01 | 1486135525.87754 | pgbench_accounts |       1342955520
 2017-02-03 16:25:25.877541+01 | 1486135525.87754 | pgbench_tellers  |            49152
 2017-02-03 16:25:25.877541+01 | 1486135525.87754 | pgbench_history  |                0
 2017-02-03 16:25:25.877541+01 | 1486135525.87754 | pgbench_branches |             8192

 2017-02-03 16:25:26.9502+01 | 1486135526.9502 | pgbench_accounts |       1342955520
 2017-02-03 16:25:26.9502+01 | 1486135526.9502 | pgbench_tellers  |            49152
 2017-02-03 16:25:26.9502+01 | 1486135526.9502 | pgbench_history  |                0
 2017-02-03 16:25:26.9502+01 | 1486135526.9502 | pgbench_branches |             8192

 2017-02-03 16:25:28.028713+01 | 1486135528.02871 | pgbench_accounts |       1342955520
 2017-02-03 16:25:28.028713+01 | 1486135528.02871 | pgbench_tellers  |            49152
 2017-02-03 16:25:28.028713+01 | 1486135528.02871 | pgbench_history  |                0
 2017-02-03 16:25:28.028713+01 | 1486135528.02871 | pgbench_branches |             8192

 2017-02-03 16:25:29.117289+01 | 1486135529.11729 | pgbench_accounts |       1342955520
 2017-02-03 16:25:29.117289+01 | 1486135529.11729 | pgbench_tellers  |            49152
 2017-02-03 16:25:29.117289+01 | 1486135529.11729 | pgbench_history  |                0
 2017-02-03 16:25:29.117289+01 | 1486135529.11729 | pgbench_branches |             8192

 2017-02-03 16:25:30.203892+01 | 1486135530.20389 | pgbench_accounts |       1342955520
 2017-02-03 16:25:30.203892+01 | 1486135530.20389 | pgbench_tellers  |            49152
 2017-02-03 16:25:30.203892+01 | 1486135530.20389 | pgbench_history  |                0
 2017-02-03 16:25:30.203892+01 | 1486135530.20389 | pgbench_branches |             8192

 2017-02-03 16:25:31.293979+01 | 1486135531.29398 | pgbench_accounts |       1342955520
 2017-02-03 16:25:31.293979+01 | 1486135531.29398 | pgbench_tellers  |            49152
 2017-02-03 16:25:31.293979+01 | 1486135531.29398 | pgbench_history  |                0
 2017-02-03 16:25:31.293979+01 | 1486135531.29398 | pgbench_branches |             8192

 2017-02-03 16:25:32.389729+01 | 1486135532.38973 | pgbench_accounts |       1342955520
 2017-02-03 16:25:32.389729+01 | 1486135532.38973 | pgbench_tellers  |            49152
 2017-02-03 16:25:32.389729+01 | 1486135532.38973 | pgbench_history  |                0
 2017-02-03 16:25:32.389729+01 | 1486135532.38973 | pgbench_branches |             8192

 2017-02-03 16:25:33.475319+01 | 1486135533.47532 | pgbench_accounts |       1342955520
 2017-02-03 16:25:33.475319+01 | 1486135533.47532 | pgbench_tellers  |            49152
 2017-02-03 16:25:33.475319+01 | 1486135533.47532 | pgbench_history  |                0
 2017-02-03 16:25:33.475319+01 | 1486135533.47532 | pgbench_branches |             8192

 2017-02-03 16:25:34.5553+01 | 1486135534.5553 | pgbench_accounts |       1342955520
 2017-02-03 16:25:34.5553+01 | 1486135534.5553 | pgbench_tellers  |            49152
 2017-02-03 16:25:34.5553+01 | 1486135534.5553 | pgbench_history  |                0
 2017-02-03 16:25:34.5553+01 | 1486135534.5553 | pgbench_branches |             8192

 2017-02-03 16:25:35.633605+01 | 1486135535.63361 | pgbench_accounts |       1342955520
 2017-02-03 16:25:35.633605+01 | 1486135535.63361 | pgbench_tellers  |            49152
 2017-02-03 16:25:35.633605+01 | 1486135535.63361 | pgbench_history  |                0
 2017-02-03 16:25:35.633605+01 | 1486135535.63361 | pgbench_branches |             8192

 2017-02-03 16:25:36.703111+01 | 1486135536.70311 | pgbench_accounts |       1342955520
 2017-02-03 16:25:36.703111+01 | 1486135536.70311 | pgbench_tellers  |            49152
 2017-02-03 16:25:36.703111+01 | 1486135536.70311 | pgbench_history  |                0
 2017-02-03 16:25:36.703111+01 | 1486135536.70311 | pgbench_branches |             8192

 2017-02-03 16:25:37.777109+01 | 1486135537.77711 | pgbench_accounts |       1342955520
 2017-02-03 16:25:37.777109+01 | 1486135537.77711 | pgbench_tellers  |            49152
 2017-02-03 16:25:37.777109+01 | 1486135537.77711 | pgbench_history  |                0
 2017-02-03 16:25:37.777109+01 | 1486135537.77711 | pgbench_branches |             8192

 2017-02-03 16:25:38.851075+01 | 1486135538.85107 | pgbench_accounts |       1342955520
 2017-02-03 16:25:38.851075+01 | 1486135538.85107 | pgbench_tellers  |            49152
 2017-02-03 16:25:38.851075+01 | 1486135538.85107 | pgbench_history  |                0
 2017-02-03 16:25:38.851075+01 | 1486135538.85107 | pgbench_branches |             8192

 2017-02-03 16:25:39.92788+01 | 1486135539.92788 | pgbench_accounts |       1342955520
 2017-02-03 16:25:39.92788+01 | 1486135539.92788 | pgbench_tellers  |            49152
 2017-02-03 16:25:39.92788+01 | 1486135539.92788 | pgbench_history  |                0
 2017-02-03 16:25:39.92788+01 | 1486135539.92788 | pgbench_branches |             8192

 2017-02-03 16:25:41.002803+01 | 1486135541.0028 | pgbench_accounts |       1342955520
 2017-02-03 16:25:41.002803+01 | 1486135541.0028 | pgbench_tellers  |            49152
 2017-02-03 16:25:41.002803+01 | 1486135541.0028 | pgbench_history  |                0
 2017-02-03 16:25:41.002803+01 | 1486135541.0028 | pgbench_branches |             8192

 2017-02-03 16:25:42.082368+01 | 1486135542.08237 | pgbench_accounts |       1342955520
 2017-02-03 16:25:42.082368+01 | 1486135542.08237 | pgbench_tellers  |            49152
 2017-02-03 16:25:42.082368+01 | 1486135542.08237 | pgbench_history  |                0
 2017-02-03 16:25:42.082368+01 | 1486135542.08237 | pgbench_branches |             8192

 2017-02-03 16:25:43.168862+01 | 1486135543.16886 | pgbench_accounts |       1342955520
 2017-02-03 16:25:43.168862+01 | 1486135543.16886 | pgbench_tellers  |            49152
 2017-02-03 16:25:43.168862+01 | 1486135543.16886 | pgbench_history  |                0
 2017-02-03 16:25:43.168862+01 | 1486135543.16886 | pgbench_branches |             8192

 2017-02-03 16:25:44.24589+01 | 1486135544.24589 | pgbench_accounts |       1342955520
 2017-02-03 16:25:44.24589+01 | 1486135544.24589 | pgbench_tellers  |            49152
 2017-02-03 16:25:44.24589+01 | 1486135544.24589 | pgbench_history  |                0
 2017-02-03 16:25:44.24589+01 | 1486135544.24589 | pgbench_branches |             8192

 2017-02-03 16:25:45.328984+01 | 1486135545.32898 | pgbench_accounts |       1342955520
 2017-02-03 16:25:45.328984+01 | 1486135545.32898 | pgbench_tellers  |            49152
 2017-02-03 16:25:45.328984+01 | 1486135545.32898 | pgbench_history  |                0
 2017-02-03 16:25:45.328984+01 | 1486135545.32898 | pgbench_branches |             8192

 2017-02-03 16:25:46.407848+01 | 1486135546.40785 | pgbench_accounts |       1342955520
 2017-02-03 16:25:46.407848+01 | 1486135546.40785 | pgbench_tellers  |            49152
 2017-02-03 16:25:46.407848+01 | 1486135546.40785 | pgbench_history  |                0
 2017-02-03 16:25:46.407848+01 | 1486135546.40785 | pgbench_branches |             8192

 2017-02-03 16:25:47.485968+01 | 1486135547.48597 | pgbench_accounts |       1342955520
 2017-02-03 16:25:47.485968+01 | 1486135547.48597 | pgbench_tellers  |            49152
 2017-02-03 16:25:47.485968+01 | 1486135547.48597 | pgbench_history  |                0
 2017-02-03 16:25:47.485968+01 | 1486135547.48597 | pgbench_branches |             8192

 2017-02-03 16:25:48.561764+01 | 1486135548.56176 | pgbench_accounts |       1342955520
 2017-02-03 16:25:48.561764+01 | 1486135548.56176 | pgbench_tellers  |            49152
 2017-02-03 16:25:48.561764+01 | 1486135548.56176 | pgbench_history  |                0
 2017-02-03 16:25:48.561764+01 | 1486135548.56176 | pgbench_branches |             8192

 2017-02-03 16:25:49.644816+01 | 1486135549.64482 | pgbench_accounts |       1342955520
 2017-02-03 16:25:49.644816+01 | 1486135549.64482 | pgbench_tellers  |            49152
 2017-02-03 16:25:49.644816+01 | 1486135549.64482 | pgbench_history  |                0
 2017-02-03 16:25:49.644816+01 | 1486135549.64482 | pgbench_branches |             8192

 2017-02-03 16:25:50.730032+01 | 1486135550.73003 | pgbench_accounts |       1342955520
 2017-02-03 16:25:50.730032+01 | 1486135550.73003 | pgbench_tellers  |            49152
 2017-02-03 16:25:50.730032+01 | 1486135550.73003 | pgbench_history  |                0
 2017-02-03 16:25:50.730032+01 | 1486135550.73003 | pgbench_branches |             8192

 2017-02-03 16:25:51.813371+01 | 1486135551.81337 | pgbench_accounts |       1342955520
 2017-02-03 16:25:51.813371+01 | 1486135551.81337 | pgbench_tellers  |            49152
 2017-02-03 16:25:51.813371+01 | 1486135551.81337 | pgbench_history  |                0
 2017-02-03 16:25:51.813371+01 | 1486135551.81337 | pgbench_branches |             8192

 2017-02-03 16:25:52.897236+01 | 1486135552.89724 | pgbench_accounts |       1342955520
 2017-02-03 16:25:52.897236+01 | 1486135552.89724 | pgbench_tellers  |            49152
 2017-02-03 16:25:52.897236+01 | 1486135552.89724 | pgbench_history  |                0
 2017-02-03 16:25:52.897236+01 | 1486135552.89724 | pgbench_branches |             8192

 2017-02-03 16:25:53.980176+01 | 1486135553.98018 | pgbench_accounts |       1342955520
 2017-02-03 16:25:53.980176+01 | 1486135553.98018 | pgbench_tellers  |            49152
 2017-02-03 16:25:53.980176+01 | 1486135553.98018 | pgbench_history  |                0
 2017-02-03 16:25:53.980176+01 | 1486135553.98018 | pgbench_branches |             8192

 2017-02-03 16:25:55.065441+01 | 1486135555.06544 | pgbench_accounts |       1342955520
 2017-02-03 16:25:55.065441+01 | 1486135555.06544 | pgbench_tellers  |            49152
 2017-02-03 16:25:55.065441+01 | 1486135555.06544 | pgbench_history  |                0
 2017-02-03 16:25:55.065441+01 | 1486135555.06544 | pgbench_branches |             8192

 2017-02-03 16:25:56.140014+01 | 1486135556.14001 | pgbench_accounts |       1342955520
 2017-02-03 16:25:56.140014+01 | 1486135556.14001 | pgbench_tellers  |            49152
 2017-02-03 16:25:56.140014+01 | 1486135556.14001 | pgbench_history  |                0
 2017-02-03 16:25:56.140014+01 | 1486135556.14001 | pgbench_branches |             8192

 2017-02-03 16:25:57.221355+01 | 1486135557.22135 | pgbench_accounts |       1342955520
 2017-02-03 16:25:57.221355+01 | 1486135557.22135 | pgbench_tellers  |            49152
 2017-02-03 16:25:57.221355+01 | 1486135557.22135 | pgbench_history  |                0
 2017-02-03 16:25:57.221355+01 | 1486135557.22135 | pgbench_branches |             8192

 2017-02-03 16:25:58.302009+01 | 1486135558.30201 | pgbench_accounts |       1342955520
 2017-02-03 16:25:58.302009+01 | 1486135558.30201 | pgbench_tellers  |            49152
 2017-02-03 16:25:58.302009+01 | 1486135558.30201 | pgbench_history  |                0
 2017-02-03 16:25:58.302009+01 | 1486135558.30201 | pgbench_branches |             8192

 2017-02-03 16:25:59.388677+01 | 1486135559.38868 | pgbench_accounts |       1342955520
 2017-02-03 16:25:59.388677+01 | 1486135559.38868 | pgbench_tellers  |            49152
 2017-02-03 16:25:59.388677+01 | 1486135559.38868 | pgbench_history  |                0
 2017-02-03 16:25:59.388677+01 | 1486135559.38868 | pgbench_branches |             8192

 2017-02-03 16:26:00.479541+01 | 1486135560.47954 | pgbench_accounts |       1342955520
 2017-02-03 16:26:00.479541+01 | 1486135560.47954 | pgbench_tellers  |            49152
 2017-02-03 16:26:00.479541+01 | 1486135560.47954 | pgbench_history  |                0
 2017-02-03 16:26:00.479541+01 | 1486135560.47954 | pgbench_branches |             8192

 2017-02-03 16:26:01.558522+01 | 1486135561.55852 | pgbench_accounts |       1342955520
 2017-02-03 16:26:01.558522+01 | 1486135561.55852 | pgbench_tellers  |            49152
 2017-02-03 16:26:01.558522+01 | 1486135561.55852 | pgbench_history  |                0
 2017-02-03 16:26:01.558522+01 | 1486135561.55852 | pgbench_branches |             8192

 2017-02-03 16:26:02.640786+01 | 1486135562.64079 | pgbench_accounts |       1342955520
 2017-02-03 16:26:02.640786+01 | 1486135562.64079 | pgbench_tellers  |            49152
 2017-02-03 16:26:02.640786+01 | 1486135562.64079 | pgbench_history  |                0
 2017-02-03 16:26:02.640786+01 | 1486135562.64079 | pgbench_branches |             8192

 2017-02-03 16:26:03.715448+01 | 1486135563.71545 | pgbench_accounts |       1342955520
 2017-02-03 16:26:03.715448+01 | 1486135563.71545 | pgbench_tellers  |            49152
 2017-02-03 16:26:03.715448+01 | 1486135563.71545 | pgbench_history  |                0
 2017-02-03 16:26:03.715448+01 | 1486135563.71545 | pgbench_branches |             8192

 2017-02-03 16:26:04.792586+01 | 1486135564.79259 | pgbench_accounts |       1342955520
 2017-02-03 16:26:04.792586+01 | 1486135564.79259 | pgbench_tellers  |            49152
 2017-02-03 16:26:04.792586+01 | 1486135564.79259 | pgbench_history  |                0
 2017-02-03 16:26:04.792586+01 | 1486135564.79259 | pgbench_branches |             8192

 2017-02-03 16:26:05.882773+01 | 1486135565.88277 | pgbench_accounts |       1342955520
 2017-02-03 16:26:05.882773+01 | 1486135565.88277 | pgbench_tellers  |            49152
 2017-02-03 16:26:05.882773+01 | 1486135565.88277 | pgbench_history  |                0
 2017-02-03 16:26:05.882773+01 | 1486135565.88277 | pgbench_branches |             8192

 2017-02-03 16:26:06.964186+01 | 1486135566.96419 | pgbench_accounts |       1342955520
 2017-02-03 16:26:06.964186+01 | 1486135566.96419 | pgbench_tellers  |            49152
 2017-02-03 16:26:06.964186+01 | 1486135566.96419 | pgbench_history  |                0
 2017-02-03 16:26:06.964186+01 | 1486135566.96419 | pgbench_branches |             8192

 2017-02-03 16:26:08.047796+01 | 1486135568.0478 | pgbench_accounts |       1342955520
 2017-02-03 16:26:08.047796+01 | 1486135568.0478 | pgbench_tellers  |            49152
 2017-02-03 16:26:08.047796+01 | 1486135568.0478 | pgbench_history  |                0
 2017-02-03 16:26:08.047796+01 | 1486135568.0478 | pgbench_branches |             8192

 2017-02-03 16:26:09.120407+01 | 1486135569.12041 | pgbench_accounts |       1342955520
 2017-02-03 16:26:09.120407+01 | 1486135569.12041 | pgbench_tellers  |            49152
 2017-02-03 16:26:09.120407+01 | 1486135569.12041 | pgbench_history  |                0
 2017-02-03 16:26:09.120407+01 | 1486135569.12041 | pgbench_branches |             8192

 2017-02-03 16:26:10.205447+01 | 1486135570.20545 | pgbench_accounts |       1342955520
 2017-02-03 16:26:10.205447+01 | 1486135570.20545 | pgbench_tellers  |            49152
 2017-02-03 16:26:10.205447+01 | 1486135570.20545 | pgbench_history  |                0
 2017-02-03 16:26:10.205447+01 | 1486135570.20545 | pgbench_branches |             8192

 2017-02-03 16:26:11.302031+01 | 1486135571.30203 | pgbench_accounts |       1342955520
 2017-02-03 16:26:11.302031+01 | 1486135571.30203 | pgbench_tellers  |            49152
 2017-02-03 16:26:11.302031+01 | 1486135571.30203 | pgbench_history  |                0
 2017-02-03 16:26:11.302031+01 | 1486135571.30203 | pgbench_branches |             8192

 2017-02-03 16:26:12.385884+01 | 1486135572.38588 | pgbench_accounts |       1342955520
 2017-02-03 16:26:12.385884+01 | 1486135572.38588 | pgbench_tellers  |            49152
 2017-02-03 16:26:12.385884+01 | 1486135572.38588 | pgbench_history  |                0
 2017-02-03 16:26:12.385884+01 | 1486135572.38588 | pgbench_branches |             8192

 2017-02-03 16:26:13.471643+01 | 1486135573.47164 | pgbench_accounts |       1342955520
 2017-02-03 16:26:13.471643+01 | 1486135573.47164 | pgbench_tellers  |            49152
 2017-02-03 16:26:13.471643+01 | 1486135573.47164 | pgbench_history  |                0
 2017-02-03 16:26:13.471643+01 | 1486135573.47164 | pgbench_branches |             8192

 2017-02-03 16:26:14.550979+01 | 1486135574.55098 | pgbench_accounts |       1342955520
 2017-02-03 16:26:14.550979+01 | 1486135574.55098 | pgbench_tellers  |            49152
 2017-02-03 16:26:14.550979+01 | 1486135574.55098 | pgbench_history  |                0
 2017-02-03 16:26:14.550979+01 | 1486135574.55098 | pgbench_branches |             8192

 2017-02-03 16:26:15.625009+01 | 1486135575.62501 | pgbench_accounts |       1342955520
 2017-02-03 16:26:15.625009+01 | 1486135575.62501 | pgbench_tellers  |            49152
 2017-02-03 16:26:15.625009+01 | 1486135575.62501 | pgbench_history  |                0
 2017-02-03 16:26:15.625009+01 | 1486135575.62501 | pgbench_branches |             8192

 2017-02-03 16:26:16.701694+01 | 1486135576.70169 | pgbench_accounts |       1342955520
 2017-02-03 16:26:16.701694+01 | 1486135576.70169 | pgbench_tellers  |            49152
 2017-02-03 16:26:16.701694+01 | 1486135576.70169 | pgbench_history  |                0
 2017-02-03 16:26:16.701694+01 | 1486135576.70169 | pgbench_branches |             8192

 2017-02-03 16:26:17.777588+01 | 1486135577.77759 | pgbench_accounts |       1342955520
 2017-02-03 16:26:17.777588+01 | 1486135577.77759 | pgbench_tellers  |            49152
 2017-02-03 16:26:17.777588+01 | 1486135577.77759 | pgbench_history  |                0
 2017-02-03 16:26:17.777588+01 | 1486135577.77759 | pgbench_branches |             8192

 2017-02-03 16:26:18.845278+01 | 1486135578.84528 | pgbench_accounts |       1342955520
 2017-02-03 16:26:18.845278+01 | 1486135578.84528 | pgbench_tellers  |            49152
 2017-02-03 16:26:18.845278+01 | 1486135578.84528 | pgbench_history  |                0
 2017-02-03 16:26:18.845278+01 | 1486135578.84528 | pgbench_branches |             8192

 2017-02-03 16:26:19.925539+01 | 1486135579.92554 | pgbench_accounts |       1342955520
 2017-02-03 16:26:19.925539+01 | 1486135579.92554 | pgbench_tellers  |            49152
 2017-02-03 16:26:19.925539+01 | 1486135579.92554 | pgbench_history  |                0
 2017-02-03 16:26:19.925539+01 | 1486135579.92554 | pgbench_branches |             8192

 2017-02-03 16:26:21.000675+01 | 1486135581.00067 | pgbench_accounts |       1342955520
 2017-02-03 16:26:21.000675+01 | 1486135581.00067 | pgbench_tellers  |            49152
 2017-02-03 16:26:21.000675+01 | 1486135581.00067 | pgbench_history  |                0
 2017-02-03 16:26:21.000675+01 | 1486135581.00067 | pgbench_branches |             8192

 2017-02-03 16:26:22.075926+01 | 1486135582.07593 | pgbench_accounts |       1342955520
 2017-02-03 16:26:22.075926+01 | 1486135582.07593 | pgbench_tellers  |            49152
 2017-02-03 16:26:22.075926+01 | 1486135582.07593 | pgbench_history  |                0
 2017-02-03 16:26:22.075926+01 | 1486135582.07593 | pgbench_branches |             8192

 2017-02-03 16:26:23.149343+01 | 1486135583.14934 | pgbench_accounts |       1342955520
 2017-02-03 16:26:23.149343+01 | 1486135583.14934 | pgbench_tellers  |            49152
 2017-02-03 16:26:23.149343+01 | 1486135583.14934 | pgbench_history  |                0
 2017-02-03 16:26:23.149343+01 | 1486135583.14934 | pgbench_branches |             8192

 2017-02-03 16:26:24.232412+01 | 1486135584.23241 | pgbench_accounts |       1342955520
 2017-02-03 16:26:24.232412+01 | 1486135584.23241 | pgbench_tellers  |            49152
 2017-02-03 16:26:24.232412+01 | 1486135584.23241 | pgbench_history  |                0
 2017-02-03 16:26:24.232412+01 | 1486135584.23241 | pgbench_branches |             8192

 2017-02-03 16:26:25.316975+01 | 1486135585.31698 | pgbench_accounts |       1342955520
 2017-02-03 16:26:25.316975+01 | 1486135585.31698 | pgbench_tellers  |            49152
 2017-02-03 16:26:25.316975+01 | 1486135585.31698 | pgbench_history  |                0
 2017-02-03 16:26:25.316975+01 | 1486135585.31698 | pgbench_branches |             8192

 2017-02-03 16:26:26.397689+01 | 1486135586.39769 | pgbench_accounts |       1342955520
 2017-02-03 16:26:26.397689+01 | 1486135586.39769 | pgbench_tellers  |            49152
 2017-02-03 16:26:26.397689+01 | 1486135586.39769 | pgbench_history  |                0
 2017-02-03 16:26:26.397689+01 | 1486135586.39769 | pgbench_branches |             8192

 2017-02-03 16:26:27.478544+01 | 1486135587.47854 | pgbench_accounts |       1342955520
 2017-02-03 16:26:27.478544+01 | 1486135587.47854 | pgbench_tellers  |            49152
 2017-02-03 16:26:27.478544+01 | 1486135587.47854 | pgbench_history  |                0
 2017-02-03 16:26:27.478544+01 | 1486135587.47854 | pgbench_branches |             8192

 2017-02-03 16:26:28.555518+01 | 1486135588.55552 | pgbench_accounts |       1342955520
 2017-02-03 16:26:28.555518+01 | 1486135588.55552 | pgbench_tellers  |            49152
 2017-02-03 16:26:28.555518+01 | 1486135588.55552 | pgbench_history  |                0
 2017-02-03 16:26:28.555518+01 | 1486135588.55552 | pgbench_branches |             8192

 2017-02-03 16:26:29.632447+01 | 1486135589.63245 | pgbench_accounts |       1342955520
 2017-02-03 16:26:29.632447+01 | 1486135589.63245 | pgbench_tellers  |            49152
 2017-02-03 16:26:29.632447+01 | 1486135589.63245 | pgbench_history  |                0
 2017-02-03 16:26:29.632447+01 | 1486135589.63245 | pgbench_branches |             8192

 2017-02-03 16:26:30.702152+01 | 1486135590.70215 | pgbench_accounts |       1342955520
 2017-02-03 16:26:30.702152+01 | 1486135590.70215 | pgbench_tellers  |            49152
 2017-02-03 16:26:30.702152+01 | 1486135590.70215 | pgbench_history  |                0
 2017-02-03 16:26:30.702152+01 | 1486135590.70215 | pgbench_branches |             8192

 2017-02-03 16:26:31.785961+01 | 1486135591.78596 | pgbench_accounts |       1342955520
 2017-02-03 16:26:31.785961+01 | 1486135591.78596 | pgbench_tellers  |            49152
 2017-02-03 16:26:31.785961+01 | 1486135591.78596 | pgbench_history  |                0
 2017-02-03 16:26:31.785961+01 | 1486135591.78596 | pgbench_branches |             8192

 2017-02-03 16:26:32.87018+01 | 1486135592.87018 | pgbench_accounts |       1342955520
 2017-02-03 16:26:32.87018+01 | 1486135592.87018 | pgbench_tellers  |            49152
 2017-02-03 16:26:32.87018+01 | 1486135592.87018 | pgbench_history  |                0
 2017-02-03 16:26:32.87018+01 | 1486135592.87018 | pgbench_branches |             8192

 2017-02-03 16:26:33.957331+01 | 1486135593.95733 | pgbench_accounts |       1342955520
 2017-02-03 16:26:33.957331+01 | 1486135593.95733 | pgbench_tellers  |            49152
 2017-02-03 16:26:33.957331+01 | 1486135593.95733 | pgbench_history  |                0
 2017-02-03 16:26:33.957331+01 | 1486135593.95733 | pgbench_branches |             8192

 2017-02-03 16:26:35.046488+01 | 1486135595.04649 | pgbench_accounts |       1342955520
 2017-02-03 16:26:35.046488+01 | 1486135595.04649 | pgbench_tellers  |            49152
 2017-02-03 16:26:35.046488+01 | 1486135595.04649 | pgbench_history  |                0
 2017-02-03 16:26:35.046488+01 | 1486135595.04649 | pgbench_branches |             8192

 2017-02-03 16:26:36.128326+01 | 1486135596.12833 | pgbench_accounts |       1342955520
 2017-02-03 16:26:36.128326+01 | 1486135596.12833 | pgbench_tellers  |            49152
 2017-02-03 16:26:36.128326+01 | 1486135596.12833 | pgbench_history  |                0
 2017-02-03 16:26:36.128326+01 | 1486135596.12833 | pgbench_branches |             8192

 2017-02-03 16:26:37.214448+01 | 1486135597.21445 | pgbench_accounts |       1342955520
 2017-02-03 16:26:37.214448+01 | 1486135597.21445 | pgbench_tellers  |            49152
 2017-02-03 16:26:37.214448+01 | 1486135597.21445 | pgbench_history  |                0
 2017-02-03 16:26:37.214448+01 | 1486135597.21445 | pgbench_branches |             8192

 2017-02-03 16:26:38.294174+01 | 1486135598.29417 | pgbench_accounts |       1342955520
 2017-02-03 16:26:38.294174+01 | 1486135598.29417 | pgbench_tellers  |            49152
 2017-02-03 16:26:38.294174+01 | 1486135598.29417 | pgbench_history  |                0
 2017-02-03 16:26:38.294174+01 | 1486135598.29417 | pgbench_branches |             8192

 2017-02-03 16:26:39.377115+01 | 1486135599.37712 | pgbench_accounts |       1342955520
 2017-02-03 16:26:39.377115+01 | 1486135599.37712 | pgbench_tellers  |            49152
 2017-02-03 16:26:39.377115+01 | 1486135599.37712 | pgbench_history  |                0
 2017-02-03 16:26:39.377115+01 | 1486135599.37712 | pgbench_branches |             8192

 2017-02-03 16:26:40.45821+01 | 1486135600.45821 | pgbench_accounts |       1342955520
 2017-02-03 16:26:40.45821+01 | 1486135600.45821 | pgbench_tellers  |            49152
 2017-02-03 16:26:40.45821+01 | 1486135600.45821 | pgbench_history  |                0
 2017-02-03 16:26:40.45821+01 | 1486135600.45821 | pgbench_branches |             8192

 2017-02-03 16:26:41.531138+01 | 1486135601.53114 | pgbench_accounts |       1342955520
 2017-02-03 16:26:41.531138+01 | 1486135601.53114 | pgbench_tellers  |            49152
 2017-02-03 16:26:41.531138+01 | 1486135601.53114 | pgbench_history  |                0
 2017-02-03 16:26:41.531138+01 | 1486135601.53114 | pgbench_branches |             8192

 2017-02-03 16:26:42.611142+01 | 1486135602.61114 | pgbench_accounts |       1342955520
 2017-02-03 16:26:42.611142+01 | 1486135602.61114 | pgbench_tellers  |            49152
 2017-02-03 16:26:42.611142+01 | 1486135602.61114 | pgbench_history  |                0
 2017-02-03 16:26:42.611142+01 | 1486135602.61114 | pgbench_branches |             8192

 2017-02-03 16:26:43.68553+01 | 1486135603.68553 | pgbench_accounts |       1342955520
 2017-02-03 16:26:43.68553+01 | 1486135603.68553 | pgbench_tellers  |            49152
 2017-02-03 16:26:43.68553+01 | 1486135603.68553 | pgbench_history  |                0
 2017-02-03 16:26:43.68553+01 | 1486135603.68553 | pgbench_branches |             8192

 2017-02-03 16:26:44.7706+01 | 1486135604.7706 | pgbench_accounts |       1342955520
 2017-02-03 16:26:44.7706+01 | 1486135604.7706 | pgbench_tellers  |            49152
 2017-02-03 16:26:44.7706+01 | 1486135604.7706 | pgbench_history  |                0
 2017-02-03 16:26:44.7706+01 | 1486135604.7706 | pgbench_branches |             8192

 2017-02-03 16:26:45.855828+01 | 1486135605.85583 | pgbench_accounts |       1342955520
 2017-02-03 16:26:45.855828+01 | 1486135605.85583 | pgbench_tellers  |            49152
 2017-02-03 16:26:45.855828+01 | 1486135605.85583 | pgbench_history  |                0
 2017-02-03 16:26:45.855828+01 | 1486135605.85583 | pgbench_branches |             8192

 2017-02-03 16:26:46.940527+01 | 1486135606.94053 | pgbench_accounts |       1342955520
 2017-02-03 16:26:46.940527+01 | 1486135606.94053 | pgbench_tellers  |            49152
 2017-02-03 16:26:46.940527+01 | 1486135606.94053 | pgbench_history  |                0
 2017-02-03 16:26:46.940527+01 | 1486135606.94053 | pgbench_branches |             8192

 2017-02-03 16:26:48.025405+01 | 1486135608.0254 | pgbench_accounts |       1342955520
 2017-02-03 16:26:48.025405+01 | 1486135608.0254 | pgbench_tellers  |            49152
 2017-02-03 16:26:48.025405+01 | 1486135608.0254 | pgbench_history  |                0
 2017-02-03 16:26:48.025405+01 | 1486135608.0254 | pgbench_branches |             8192

 2017-02-03 16:26:49.10033+01 | 1486135609.10033 | pgbench_accounts |       1342955520
 2017-02-03 16:26:49.10033+01 | 1486135609.10033 | pgbench_tellers  |            49152
 2017-02-03 16:26:49.10033+01 | 1486135609.10033 | pgbench_history  |                0
 2017-02-03 16:26:49.10033+01 | 1486135609.10033 | pgbench_branches |             8192

 2017-02-03 16:26:50.18216+01 | 1486135610.18216 | pgbench_accounts |       1342955520
 2017-02-03 16:26:50.18216+01 | 1486135610.18216 | pgbench_tellers  |            49152
 2017-02-03 16:26:50.18216+01 | 1486135610.18216 | pgbench_history  |                0
 2017-02-03 16:26:50.18216+01 | 1486135610.18216 | pgbench_branches |             8192

 2017-02-03 16:26:51.262371+01 | 1486135611.26237 | pgbench_accounts |       1342955520
 2017-02-03 16:26:51.262371+01 | 1486135611.26237 | pgbench_tellers  |            49152
 2017-02-03 16:26:51.262371+01 | 1486135611.26237 | pgbench_history  |                0
 2017-02-03 16:26:51.262371+01 | 1486135611.26237 | pgbench_branches |             8192

 2017-02-03 16:26:52.345399+01 | 1486135612.3454 | pgbench_accounts |       1342955520
 2017-02-03 16:26:52.345399+01 | 1486135612.3454 | pgbench_tellers  |            49152
 2017-02-03 16:26:52.345399+01 | 1486135612.3454 | pgbench_history  |                0
 2017-02-03 16:26:52.345399+01 | 1486135612.3454 | pgbench_branches |             8192

 2017-02-03 16:26:53.429189+01 | 1486135613.42919 | pgbench_accounts |       1342955520
 2017-02-03 16:26:53.429189+01 | 1486135613.42919 | pgbench_tellers  |            49152
 2017-02-03 16:26:53.429189+01 | 1486135613.42919 | pgbench_history  |                0
 2017-02-03 16:26:53.429189+01 | 1486135613.42919 | pgbench_branches |             8192

 2017-02-03 16:26:54.509031+01 | 1486135614.50903 | pgbench_accounts |       1342955520
 2017-02-03 16:26:54.509031+01 | 1486135614.50903 | pgbench_tellers  |            49152
 2017-02-03 16:26:54.509031+01 | 1486135614.50903 | pgbench_history  |                0
 2017-02-03 16:26:54.509031+01 | 1486135614.50903 | pgbench_branches |             8192

 2017-02-03 16:26:55.588321+01 | 1486135615.58832 | pgbench_accounts |       1342955520
 2017-02-03 16:26:55.588321+01 | 1486135615.58832 | pgbench_tellers  |            49152
 2017-02-03 16:26:55.588321+01 | 1486135615.58832 | pgbench_history  |                0
 2017-02-03 16:26:55.588321+01 | 1486135615.58832 | pgbench_branches |             8192

 2017-02-03 16:26:56.673388+01 | 1486135616.67339 | pgbench_accounts |       1342955520
 2017-02-03 16:26:56.673388+01 | 1486135616.67339 | pgbench_tellers  |            49152
 2017-02-03 16:26:56.673388+01 | 1486135616.67339 | pgbench_history  |                0
 2017-02-03 16:26:56.673388+01 | 1486135616.67339 | pgbench_branches |             8192

 2017-02-03 16:26:57.758939+01 | 1486135617.75894 | pgbench_accounts |       1342955520
 2017-02-03 16:26:57.758939+01 | 1486135617.75894 | pgbench_tellers  |            49152
 2017-02-03 16:26:57.758939+01 | 1486135617.75894 | pgbench_history  |                0
 2017-02-03 16:26:57.758939+01 | 1486135617.75894 | pgbench_branches |             8192

 2017-02-03 16:26:58.840173+01 | 1486135618.84017 | pgbench_accounts |       1342955520
 2017-02-03 16:26:58.840173+01 | 1486135618.84017 | pgbench_tellers  |            49152
 2017-02-03 16:26:58.840173+01 | 1486135618.84017 | pgbench_history  |                0
 2017-02-03 16:26:58.840173+01 | 1486135618.84017 | pgbench_branches |             8192

 2017-02-03 16:26:59.916475+01 | 1486135619.91648 | pgbench_accounts |       1342955520
 2017-02-03 16:26:59.916475+01 | 1486135619.91648 | pgbench_tellers  |            49152
 2017-02-03 16:26:59.916475+01 | 1486135619.91648 | pgbench_history  |                0
 2017-02-03 16:26:59.916475+01 | 1486135619.91648 | pgbench_branches |             8192

 2017-02-03 16:27:01.00352+01 | 1486135621.00352 | pgbench_accounts |       1342955520
 2017-02-03 16:27:01.00352+01 | 1486135621.00352 | pgbench_tellers  |            49152
 2017-02-03 16:27:01.00352+01 | 1486135621.00352 | pgbench_history  |                0
 2017-02-03 16:27:01.00352+01 | 1486135621.00352 | pgbench_branches |             8192

 2017-02-03 16:27:02.089886+01 | 1486135622.08989 | pgbench_accounts |       1342955520
 2017-02-03 16:27:02.089886+01 | 1486135622.08989 | pgbench_tellers  |            49152
 2017-02-03 16:27:02.089886+01 | 1486135622.08989 | pgbench_history  |                0
 2017-02-03 16:27:02.089886+01 | 1486135622.08989 | pgbench_branches |             8192

 2017-02-03 16:27:03.164782+01 | 1486135623.16478 | pgbench_accounts |       1342955520
 2017-02-03 16:27:03.164782+01 | 1486135623.16478 | pgbench_tellers  |            49152
 2017-02-03 16:27:03.164782+01 | 1486135623.16478 | pgbench_history  |                0
 2017-02-03 16:27:03.164782+01 | 1486135623.16478 | pgbench_branches |             8192

 2017-02-03 16:27:04.240613+01 | 1486135624.24061 | pgbench_accounts |       1342955520
 2017-02-03 16:27:04.240613+01 | 1486135624.24061 | pgbench_tellers  |            49152
 2017-02-03 16:27:04.240613+01 | 1486135624.24061 | pgbench_history  |                0
 2017-02-03 16:27:04.240613+01 | 1486135624.24061 | pgbench_branches |             8192

 2017-02-03 16:27:05.311982+01 | 1486135625.31198 | pgbench_accounts |       1342955520
 2017-02-03 16:27:05.311982+01 | 1486135625.31198 | pgbench_tellers  |            49152
 2017-02-03 16:27:05.311982+01 | 1486135625.31198 | pgbench_history  |                0
 2017-02-03 16:27:05.311982+01 | 1486135625.31198 | pgbench_branches |             8192

 2017-02-03 16:27:06.391325+01 | 1486135626.39132 | pgbench_accounts |       1342955520
 2017-02-03 16:27:06.391325+01 | 1486135626.39132 | pgbench_tellers  |            49152
 2017-02-03 16:27:06.391325+01 | 1486135626.39132 | pgbench_history  |                0
 2017-02-03 16:27:06.391325+01 | 1486135626.39132 | pgbench_branches |             8192

 2017-02-03 16:27:07.472918+01 | 1486135627.47292 | pgbench_accounts |       1342955520
 2017-02-03 16:27:07.472918+01 | 1486135627.47292 | pgbench_tellers  |            49152
 2017-02-03 16:27:07.472918+01 | 1486135627.47292 | pgbench_history  |                0
 2017-02-03 16:27:07.472918+01 | 1486135627.47292 | pgbench_branches |             8192

 2017-02-03 16:27:08.557049+01 | 1486135628.55705 | pgbench_accounts |       1342955520
 2017-02-03 16:27:08.557049+01 | 1486135628.55705 | pgbench_tellers  |            49152
 2017-02-03 16:27:08.557049+01 | 1486135628.55705 | pgbench_history  |                0
 2017-02-03 16:27:08.557049+01 | 1486135628.55705 | pgbench_branches |             8192

 2017-02-03 16:27:09.634296+01 | 1486135629.6343 | pgbench_accounts |       1342955520
 2017-02-03 16:27:09.634296+01 | 1486135629.6343 | pgbench_tellers  |            49152
 2017-02-03 16:27:09.634296+01 | 1486135629.6343 | pgbench_history  |                0
 2017-02-03 16:27:09.634296+01 | 1486135629.6343 | pgbench_branches |             8192

 2017-02-03 16:27:10.716095+01 | 1486135630.71609 | pgbench_accounts |       1342955520
 2017-02-03 16:27:10.716095+01 | 1486135630.71609 | pgbench_tellers  |            49152
 2017-02-03 16:27:10.716095+01 | 1486135630.71609 | pgbench_history  |                0
 2017-02-03 16:27:10.716095+01 | 1486135630.71609 | pgbench_branches |             8192

 2017-02-03 16:27:11.797727+01 | 1486135631.79773 | pgbench_accounts |       1342955520
 2017-02-03 16:27:11.797727+01 | 1486135631.79773 | pgbench_tellers  |            49152
 2017-02-03 16:27:11.797727+01 | 1486135631.79773 | pgbench_history  |                0
 2017-02-03 16:27:11.797727+01 | 1486135631.79773 | pgbench_branches |             8192

 2017-02-03 16:27:12.877375+01 | 1486135632.87737 | pgbench_accounts |       1342955520
 2017-02-03 16:27:12.877375+01 | 1486135632.87737 | pgbench_tellers  |            49152
 2017-02-03 16:27:12.877375+01 | 1486135632.87737 | pgbench_history  |                0
 2017-02-03 16:27:12.877375+01 | 1486135632.87737 | pgbench_branches |             8192

 2017-02-03 16:27:13.967669+01 | 1486135633.96767 | pgbench_accounts |       1342955520
 2017-02-03 16:27:13.967669+01 | 1486135633.96767 | pgbench_tellers  |            49152
 2017-02-03 16:27:13.967669+01 | 1486135633.96767 | pgbench_history  |                0
 2017-02-03 16:27:13.967669+01 | 1486135633.96767 | pgbench_branches |             8192

 2017-02-03 16:27:15.062952+01 | 1486135635.06295 | pgbench_accounts |       1342955520
 2017-02-03 16:27:15.062952+01 | 1486135635.06295 | pgbench_tellers  |            49152
 2017-02-03 16:27:15.062952+01 | 1486135635.06295 | pgbench_history  |                0
 2017-02-03 16:27:15.062952+01 | 1486135635.06295 | pgbench_branches |             8192

 2017-02-03 16:27:16.146674+01 | 1486135636.14667 | pgbench_accounts |       1342955520
 2017-02-03 16:27:16.146674+01 | 1486135636.14667 | pgbench_tellers  |            49152
 2017-02-03 16:27:16.146674+01 | 1486135636.14667 | pgbench_history  |                0
 2017-02-03 16:27:16.146674+01 | 1486135636.14667 | pgbench_branches |             8192

 2017-02-03 16:27:17.232919+01 | 1486135637.23292 | pgbench_accounts |       1342955520
 2017-02-03 16:27:17.232919+01 | 1486135637.23292 | pgbench_tellers  |            49152
 2017-02-03 16:27:17.232919+01 | 1486135637.23292 | pgbench_history  |                0
 2017-02-03 16:27:17.232919+01 | 1486135637.23292 | pgbench_branches |             8192

 2017-02-03 16:27:18.314136+01 | 1486135638.31414 | pgbench_accounts |       1342955520
 2017-02-03 16:27:18.314136+01 | 1486135638.31414 | pgbench_tellers  |            49152
 2017-02-03 16:27:18.314136+01 | 1486135638.31414 | pgbench_history  |                0
 2017-02-03 16:27:18.314136+01 | 1486135638.31414 | pgbench_branches |             8192

 2017-02-03 16:27:19.392399+01 | 1486135639.3924 | pgbench_accounts |       1342955520
 2017-02-03 16:27:19.392399+01 | 1486135639.3924 | pgbench_tellers  |            49152
 2017-02-03 16:27:19.392399+01 | 1486135639.3924 | pgbench_history  |                0
 2017-02-03 16:27:19.392399+01 | 1486135639.3924 | pgbench_branches |             8192

 2017-02-03 16:27:20.474569+01 | 1486135640.47457 | pgbench_accounts |       1342955520
 2017-02-03 16:27:20.474569+01 | 1486135640.47457 | pgbench_tellers  |            49152
 2017-02-03 16:27:20.474569+01 | 1486135640.47457 | pgbench_history  |                0
 2017-02-03 16:27:20.474569+01 | 1486135640.47457 | pgbench_branches |             8192

 2017-02-03 16:27:21.552755+01 | 1486135641.55276 | pgbench_accounts |       1342955520
 2017-02-03 16:27:21.552755+01 | 1486135641.55276 | pgbench_tellers  |            49152
 2017-02-03 16:27:21.552755+01 | 1486135641.55276 | pgbench_history  |                0
 2017-02-03 16:27:21.552755+01 | 1486135641.55276 | pgbench_branches |             8192

 2017-02-03 16:27:22.638851+01 | 1486135642.63885 | pgbench_accounts |       1342955520
 2017-02-03 16:27:22.638851+01 | 1486135642.63885 | pgbench_tellers  |            49152
 2017-02-03 16:27:22.638851+01 | 1486135642.63885 | pgbench_history  |                0
 2017-02-03 16:27:22.638851+01 | 1486135642.63885 | pgbench_branches |             8192

 2017-02-03 16:27:23.720322+01 | 1486135643.72032 | pgbench_accounts |       1342955520
 2017-02-03 16:27:23.720322+01 | 1486135643.72032 | pgbench_tellers  |            49152
 2017-02-03 16:27:23.720322+01 | 1486135643.72032 | pgbench_history  |                0
 2017-02-03 16:27:23.720322+01 | 1486135643.72032 | pgbench_branches |             8192

 2017-02-03 16:27:24.79952+01 | 1486135644.79952 | pgbench_accounts |       1342955520
 2017-02-03 16:27:24.79952+01 | 1486135644.79952 | pgbench_tellers  |            49152
 2017-02-03 16:27:24.79952+01 | 1486135644.79952 | pgbench_history  |                0
 2017-02-03 16:27:24.79952+01 | 1486135644.79952 | pgbench_branches |             8192

 2017-02-03 16:27:25.879639+01 | 1486135645.87964 | pgbench_accounts |       1342955520
 2017-02-03 16:27:25.879639+01 | 1486135645.87964 | pgbench_tellers  |            49152
 2017-02-03 16:27:25.879639+01 | 1486135645.87964 | pgbench_history  |                0
 2017-02-03 16:27:25.879639+01 | 1486135645.87964 | pgbench_branches |             8192

 2017-02-03 16:27:26.957464+01 | 1486135646.95746 | pgbench_accounts |       1342955520
 2017-02-03 16:27:26.957464+01 | 1486135646.95746 | pgbench_tellers  |            49152
 2017-02-03 16:27:26.957464+01 | 1486135646.95746 | pgbench_history  |                0
 2017-02-03 16:27:26.957464+01 | 1486135646.95746 | pgbench_branches |             8192

 2017-02-03 16:27:28.037836+01 | 1486135648.03784 | pgbench_accounts |       1342955520
 2017-02-03 16:27:28.037836+01 | 1486135648.03784 | pgbench_tellers  |            49152
 2017-02-03 16:27:28.037836+01 | 1486135648.03784 | pgbench_history  |                0
 2017-02-03 16:27:28.037836+01 | 1486135648.03784 | pgbench_branches |             8192

 2017-02-03 16:27:29.120549+01 | 1486135649.12055 | pgbench_accounts |       1342955520
 2017-02-03 16:27:29.120549+01 | 1486135649.12055 | pgbench_tellers  |            49152
 2017-02-03 16:27:29.120549+01 | 1486135649.12055 | pgbench_history  |                0
 2017-02-03 16:27:29.120549+01 | 1486135649.12055 | pgbench_branches |             8192

 2017-02-03 16:27:30.196013+01 | 1486135650.19601 | pgbench_accounts |       1342955520
 2017-02-03 16:27:30.196013+01 | 1486135650.19601 | pgbench_tellers  |            49152
 2017-02-03 16:27:30.196013+01 | 1486135650.19601 | pgbench_history  |                0
 2017-02-03 16:27:30.196013+01 | 1486135650.19601 | pgbench_branches |             8192

 2017-02-03 16:27:31.277148+01 | 1486135651.27715 | pgbench_accounts |       1342955520
 2017-02-03 16:27:31.277148+01 | 1486135651.27715 | pgbench_tellers  |            49152
 2017-02-03 16:27:31.277148+01 | 1486135651.27715 | pgbench_history  |                0
 2017-02-03 16:27:31.277148+01 | 1486135651.27715 | pgbench_branches |             8192

 2017-02-03 16:27:32.36096+01 | 1486135652.36096 | pgbench_accounts |       1342955520
 2017-02-03 16:27:32.36096+01 | 1486135652.36096 | pgbench_tellers  |            49152
 2017-02-03 16:27:32.36096+01 | 1486135652.36096 | pgbench_history  |                0
 2017-02-03 16:27:32.36096+01 | 1486135652.36096 | pgbench_branches |             8192

 2017-02-03 16:27:33.440867+01 | 1486135653.44087 | pgbench_accounts |       1342955520
 2017-02-03 16:27:33.440867+01 | 1486135653.44087 | pgbench_tellers  |            49152
 2017-02-03 16:27:33.440867+01 | 1486135653.44087 | pgbench_history  |                0
 2017-02-03 16:27:33.440867+01 | 1486135653.44087 | pgbench_branches |             8192

 2017-02-03 16:27:34.524275+01 | 1486135654.52428 | pgbench_accounts |       1342955520
 2017-02-03 16:27:34.524275+01 | 1486135654.52428 | pgbench_tellers  |            49152
 2017-02-03 16:27:34.524275+01 | 1486135654.52428 | pgbench_history  |                0
 2017-02-03 16:27:34.524275+01 | 1486135654.52428 | pgbench_branches |             8192

 2017-02-03 16:27:35.605767+01 | 1486135655.60577 | pgbench_accounts |       1342955520
 2017-02-03 16:27:35.605767+01 | 1486135655.60577 | pgbench_tellers  |            49152
 2017-02-03 16:27:35.605767+01 | 1486135655.60577 | pgbench_history  |                0
 2017-02-03 16:27:35.605767+01 | 1486135655.60577 | pgbench_branches |             8192

 2017-02-03 16:27:36.690809+01 | 1486135656.69081 | pgbench_accounts |       1342955520
 2017-02-03 16:27:36.690809+01 | 1486135656.69081 | pgbench_tellers  |            49152
 2017-02-03 16:27:36.690809+01 | 1486135656.69081 | pgbench_history  |                0
 2017-02-03 16:27:36.690809+01 | 1486135656.69081 | pgbench_branches |             8192

 2017-02-03 16:27:37.773013+01 | 1486135657.77301 | pgbench_accounts |       1342955520
 2017-02-03 16:27:37.773013+01 | 1486135657.77301 | pgbench_tellers  |            49152
 2017-02-03 16:27:37.773013+01 | 1486135657.77301 | pgbench_history  |                0
 2017-02-03 16:27:37.773013+01 | 1486135657.77301 | pgbench_branches |             8192

 2017-02-03 16:27:38.85937+01 | 1486135658.85937 | pgbench_accounts |       1342955520
 2017-02-03 16:27:38.85937+01 | 1486135658.85937 | pgbench_tellers  |            49152
 2017-02-03 16:27:38.85937+01 | 1486135658.85937 | pgbench_history  |                0
 2017-02-03 16:27:38.85937+01 | 1486135658.85937 | pgbench_branches |             8192

 2017-02-03 16:27:39.946151+01 | 1486135659.94615 | pgbench_accounts |       1342955520
 2017-02-03 16:27:39.946151+01 | 1486135659.94615 | pgbench_tellers  |            49152
 2017-02-03 16:27:39.946151+01 | 1486135659.94615 | pgbench_history  |                0
 2017-02-03 16:27:39.946151+01 | 1486135659.94615 | pgbench_branches |             8192

 2017-02-03 16:27:41.023673+01 | 1486135661.02367 | pgbench_accounts |       1342955520
 2017-02-03 16:27:41.023673+01 | 1486135661.02367 | pgbench_tellers  |            49152
 2017-02-03 16:27:41.023673+01 | 1486135661.02367 | pgbench_history  |                0
 2017-02-03 16:27:41.023673+01 | 1486135661.02367 | pgbench_branches |             8192

 2017-02-03 16:27:42.111146+01 | 1486135662.11115 | pgbench_accounts |       1342955520
 2017-02-03 16:27:42.111146+01 | 1486135662.11115 | pgbench_tellers  |            49152
 2017-02-03 16:27:42.111146+01 | 1486135662.11115 | pgbench_history  |                0
 2017-02-03 16:27:42.111146+01 | 1486135662.11115 | pgbench_branches |             8192

 2017-02-03 16:27:43.197196+01 | 1486135663.1972 | pgbench_accounts |       1342955520
 2017-02-03 16:27:43.197196+01 | 1486135663.1972 | pgbench_tellers  |            49152
 2017-02-03 16:27:43.197196+01 | 1486135663.1972 | pgbench_history  |                0
 2017-02-03 16:27:43.197196+01 | 1486135663.1972 | pgbench_branches |             8192

 2017-02-03 16:27:44.280253+01 | 1486135664.28025 | pgbench_accounts |       1342955520
 2017-02-03 16:27:44.280253+01 | 1486135664.28025 | pgbench_tellers  |            49152
 2017-02-03 16:27:44.280253+01 | 1486135664.28025 | pgbench_history  |                0
 2017-02-03 16:27:44.280253+01 | 1486135664.28025 | pgbench_branches |             8192

 2017-02-03 16:27:45.362737+01 | 1486135665.36274 | pgbench_accounts |       1342955520
 2017-02-03 16:27:45.362737+01 | 1486135665.36274 | pgbench_tellers  |            49152
 2017-02-03 16:27:45.362737+01 | 1486135665.36274 | pgbench_history  |                0
 2017-02-03 16:27:45.362737+01 | 1486135665.36274 | pgbench_branches |             8192

