 2017-02-03 16:22:45.630226+01 | 1486135365.63023 | 0/4E37FE40               |            1312292416

 2017-02-03 16:22:46.710056+01 | 1486135366.71006 | 0/4E37FE40               |            1312292416

 2017-02-03 16:22:47.793241+01 | 1486135367.79324 | 0/4E37FE40               |            1312292416

 2017-02-03 16:22:48.872399+01 | 1486135368.8724 | 0/4E37FE40               |            1312292416

 2017-02-03 16:22:49.955301+01 | 1486135369.9553 | 0/4E37FE40               |            1312292416

 2017-02-03 16:22:51.037641+01 | 1486135371.03764 | 0/4E37FE40               |            1312292416

 2017-02-03 16:22:52.116164+01 | 1486135372.11616 | 0/4E37FE78               |            1312292472

 2017-02-03 16:22:53.191898+01 | 1486135373.1919 | 0/4E37FE78               |            1312292472

 2017-02-03 16:22:54.277951+01 | 1486135374.27795 | 0/4E37FE78               |            1312292472

 2017-02-03 16:22:55.357758+01 | 1486135375.35776 | 0/4E37FE78               |            1312292472

 2017-02-03 16:22:56.445788+01 | 1486135376.44579 | 0/4E37FE78               |            1312292472

 2017-02-03 16:22:57.522198+01 | 1486135377.5222 | 0/4E37FE78               |            1312292472

 2017-02-03 16:22:58.612354+01 | 1486135378.61235 | 0/4E37FE78               |            1312292472

 2017-02-03 16:22:59.686558+01 | 1486135379.68656 | 0/4E37FE78               |            1312292472

 2017-02-03 16:23:00.769347+01 | 1486135380.76935 | 0/4E37FE78               |            1312292472

 2017-02-03 16:23:01.84408+01 | 1486135381.84408 | 0/4E37FE78               |            1312292472

 2017-02-03 16:23:02.919326+01 | 1486135382.91933 | 0/4E37FE78               |            1312292472

 2017-02-03 16:23:04.011692+01 | 1486135384.01169 | 0/4E37FE78               |            1312292472

 2017-02-03 16:23:05.090807+01 | 1486135385.09081 | 0/4E37FE78               |            1312292472

 2017-02-03 16:23:06.176634+01 | 1486135386.17663 | 0/4E37FE78               |            1312292472

 2017-02-03 16:23:07.255877+01 | 1486135387.25588 | 0/4E37FE78               |            1312292472

 2017-02-03 16:23:08.336776+01 | 1486135388.33678 | 0/4E37FE78               |            1312292472

 2017-02-03 16:23:09.416547+01 | 1486135389.41655 | 0/4E37FE78               |            1312292472

 2017-02-03 16:23:10.505215+01 | 1486135390.50521 | 0/4E37FE78               |            1312292472

 2017-02-03 16:23:11.585825+01 | 1486135391.58582 | 0/4E37FE78               |            1312292472

 2017-02-03 16:23:12.656577+01 | 1486135392.65658 | 0/4E37FE78               |            1312292472

 2017-02-03 16:23:13.731647+01 | 1486135393.73165 | 0/4E37FE78               |            1312292472

 2017-02-03 16:23:14.812146+01 | 1486135394.81215 | 0/4E37FE78               |            1312292472

 2017-02-03 16:23:15.888378+01 | 1486135395.88838 | 0/4E37FE78               |            1312292472

 2017-02-03 16:23:16.970019+01 | 1486135396.97002 | 0/4E37FE78               |            1312292472

 2017-02-03 16:23:18.04558+01 | 1486135398.04558 | 0/4E37FE78               |            1312292472

 2017-02-03 16:23:19.123299+01 | 1486135399.1233 | 0/4E37FE78               |            1312292472

 2017-02-03 16:23:20.216266+01 | 1486135400.21627 | 0/4E37FE78               |            1312292472

 2017-02-03 16:23:21.308157+01 | 1486135401.30816 | 0/4E37FE78               |            1312292472

 2017-02-03 16:23:22.399318+01 | 1486135402.39932 | 0/4E37FE78               |            1312292472

 2017-02-03 16:23:23.476506+01 | 1486135403.47651 | 0/4E37FE78               |            1312292472

 2017-02-03 16:23:24.554334+01 | 1486135404.55433 | 0/4E37FE78               |            1312292472

 2017-02-03 16:23:25.630142+01 | 1486135405.63014 | 0/4E37FE78               |            1312292472

 2017-02-03 16:23:26.705344+01 | 1486135406.70534 | 0/4E37FE78               |            1312292472

 2017-02-03 16:23:27.791641+01 | 1486135407.79164 | 0/4E37FE78               |            1312292472

 2017-02-03 16:23:28.873389+01 | 1486135408.87339 | 0/4E37FE78               |            1312292472

 2017-02-03 16:23:29.955703+01 | 1486135409.9557 | 0/4E37FE78               |            1312292472

 2017-02-03 16:23:31.030749+01 | 1486135411.03075 | 0/4E37FE78               |            1312292472

 2017-02-03 16:23:32.10695+01 | 1486135412.10695 | 0/4E37FE78               |            1312292472

 2017-02-03 16:23:33.191659+01 | 1486135413.19166 | 0/4E37FE78               |            1312292472

 2017-02-03 16:23:34.270962+01 | 1486135414.27096 | 0/4E37FE78               |            1312292472

 2017-02-03 16:23:35.355806+01 | 1486135415.35581 | 0/4E37FE78               |            1312292472

 2017-02-03 16:23:36.439384+01 | 1486135416.43938 | 0/4E37FE78               |            1312292472

 2017-02-03 16:23:37.517076+01 | 1486135417.51708 | 0/4E37FE78               |            1312292472

 2017-02-03 16:23:38.599002+01 | 1486135418.599 | 0/4E37FE78               |            1312292472

 2017-02-03 16:23:39.68351+01 | 1486135419.68351 | 0/4E37FE78               |            1312292472

 2017-02-03 16:23:40.762368+01 | 1486135420.76237 | 0/4E37FE78               |            1312292472

 2017-02-03 16:23:41.835042+01 | 1486135421.83504 | 0/4E37FE78               |            1312292472

 2017-02-03 16:23:42.922082+01 | 1486135422.92208 | 0/4E37FE78               |            1312292472

 2017-02-03 16:23:44.007292+01 | 1486135424.00729 | 0/4E37FE78               |            1312292472

 2017-02-03 16:23:45.079251+01 | 1486135425.07925 | 0/4E37FE78               |            1312292472

 2017-02-03 16:23:46.164588+01 | 1486135426.16459 | 0/4E37FE78               |            1312292472

 2017-02-03 16:23:47.240619+01 | 1486135427.24062 | 0/4E37FE78               |            1312292472

 2017-02-03 16:23:48.325648+01 | 1486135428.32565 | 0/4E37FE78               |            1312292472

 2017-02-03 16:23:49.405913+01 | 1486135429.40591 | 0/4E37FE78               |            1312292472

 2017-02-03 16:23:50.486609+01 | 1486135430.48661 | 0/4E37FE78               |            1312292472

 2017-02-03 16:23:51.572565+01 | 1486135431.57257 | 0/4E37FE78               |            1312292472

 2017-02-03 16:23:52.64109+01 | 1486135432.64109 | 0/4E37FE78               |            1312292472

 2017-02-03 16:23:53.722371+01 | 1486135433.72237 | 0/4E37FE78               |            1312292472

 2017-02-03 16:23:54.806383+01 | 1486135434.80638 | 0/4E37FE78               |            1312292472

 2017-02-03 16:23:55.890546+01 | 1486135435.89055 | 0/4E37FE78               |            1312292472

 2017-02-03 16:23:56.974595+01 | 1486135436.9746 | 0/4E37FE78               |            1312292472

 2017-02-03 16:23:58.050687+01 | 1486135438.05069 | 0/4E37FE78               |            1312292472

 2017-02-03 16:23:59.134484+01 | 1486135439.13448 | 0/4E37FE78               |            1312292472

 2017-02-03 16:24:00.210813+01 | 1486135440.21081 | 0/4E37FE78               |            1312292472

 2017-02-03 16:24:01.289289+01 | 1486135441.28929 | 0/4E37FE78               |            1312292472

 2017-02-03 16:24:02.369103+01 | 1486135442.3691 | 0/4E37FE78               |            1312292472

 2017-02-03 16:24:03.442925+01 | 1486135443.44292 | 0/4E37FE78               |            1312292472

 2017-02-03 16:24:04.512767+01 | 1486135444.51277 | 0/4E37FE78               |            1312292472

 2017-02-03 16:24:05.598309+01 | 1486135445.59831 | 0/4E37FE78               |            1312292472

 2017-02-03 16:24:06.671471+01 | 1486135446.67147 | 0/4E37FE78               |            1312292472

 2017-02-03 16:24:07.756158+01 | 1486135447.75616 | 0/4E37FE78               |            1312292472

 2017-02-03 16:24:08.835051+01 | 1486135448.83505 | 0/4E37FE78               |            1312292472

 2017-02-03 16:24:09.920341+01 | 1486135449.92034 | 0/4E37FE78               |            1312292472

 2017-02-03 16:24:11.003745+01 | 1486135451.00375 | 0/4E37FE78               |            1312292472

 2017-02-03 16:24:12.09508+01 | 1486135452.09508 | 0/4E37FE78               |            1312292472

 2017-02-03 16:24:13.187725+01 | 1486135453.18773 | 0/4E37FE78               |            1312292472

 2017-02-03 16:24:14.26388+01 | 1486135454.26388 | 0/4E37FE78               |            1312292472

 2017-02-03 16:24:15.342506+01 | 1486135455.34251 | 0/4E37FE78               |            1312292472

 2017-02-03 16:24:16.438516+01 | 1486135456.43852 | 0/4E37FE78               |            1312292472

 2017-02-03 16:24:17.521421+01 | 1486135457.52142 | 0/4E37FE78               |            1312292472

 2017-02-03 16:24:18.606+01 | 1486135458.606 | 0/4E37FE78               |            1312292472

 2017-02-03 16:24:19.680474+01 | 1486135459.68047 | 0/4E37FE78               |            1312292472

 2017-02-03 16:24:20.762186+01 | 1486135460.76219 | 0/4E37FE78               |            1312292472

 2017-02-03 16:24:21.848911+01 | 1486135461.84891 | 0/4E37FE78               |            1312292472

 2017-02-03 16:24:22.934309+01 | 1486135462.93431 | 0/4E37FE78               |            1312292472

 2017-02-03 16:24:24.015+01 | 1486135464.015 | 0/4E37FE78               |            1312292472

 2017-02-03 16:24:25.09631+01 | 1486135465.09631 | 0/4E37FE78               |            1312292472

 2017-02-03 16:24:26.185335+01 | 1486135466.18533 | 0/4E37FE78               |            1312292472

 2017-02-03 16:24:27.277306+01 | 1486135467.27731 | 0/4E37FE78               |            1312292472

 2017-02-03 16:24:28.357415+01 | 1486135468.35741 | 0/4E37FE78               |            1312292472

 2017-02-03 16:24:29.445275+01 | 1486135469.44528 | 0/4E37FE78               |            1312292472

 2017-02-03 16:24:30.531237+01 | 1486135470.53124 | 0/4E37FE78               |            1312292472

 2017-02-03 16:24:31.610636+01 | 1486135471.61064 | 0/4E37FE78               |            1312292472

 2017-02-03 16:24:32.696127+01 | 1486135472.69613 | 0/4E37FE78               |            1312292472

 2017-02-03 16:24:33.783176+01 | 1486135473.78318 | 0/4E37FE78               |            1312292472

 2017-02-03 16:24:34.870938+01 | 1486135474.87094 | 0/4E37FE78               |            1312292472

 2017-02-03 16:24:35.95848+01 | 1486135475.95848 | 0/4E37FE78               |            1312292472

 2017-02-03 16:24:37.043521+01 | 1486135477.04352 | 0/4E37FE78               |            1312292472

 2017-02-03 16:24:38.13098+01 | 1486135478.13098 | 0/4E37FE78               |            1312292472

 2017-02-03 16:24:39.2078+01 | 1486135479.2078 | 0/4E37FE78               |            1312292472

 2017-02-03 16:24:40.301264+01 | 1486135480.30126 | 0/4E37FE78               |            1312292472

 2017-02-03 16:24:41.385173+01 | 1486135481.38517 | 0/4E37FE78               |            1312292472

 2017-02-03 16:24:42.473811+01 | 1486135482.47381 | 0/4E37FE78               |            1312292472

 2017-02-03 16:24:43.550337+01 | 1486135483.55034 | 0/4E37FE78               |            1312292472

 2017-02-03 16:24:44.634546+01 | 1486135484.63455 | 0/4E37FE78               |            1312292472

 2017-02-03 16:24:45.72592+01 | 1486135485.72592 | 0/4E37FE78               |            1312292472

 2017-02-03 16:24:46.809518+01 | 1486135486.80952 | 0/4E37FE78               |            1312292472

 2017-02-03 16:24:47.890621+01 | 1486135487.89062 | 0/4E37FE78               |            1312292472

 2017-02-03 16:24:48.969036+01 | 1486135488.96904 | 0/4E37FE78               |            1312292472

 2017-02-03 16:24:50.047213+01 | 1486135490.04721 | 0/4E37FE78               |            1312292472

 2017-02-03 16:24:51.132205+01 | 1486135491.13221 | 0/4E37FE78               |            1312292472

 2017-02-03 16:24:52.219682+01 | 1486135492.21968 | 0/4E37FE78               |            1312292472

 2017-02-03 16:24:53.296814+01 | 1486135493.29681 | 0/4E37FE78               |            1312292472

 2017-02-03 16:24:54.383156+01 | 1486135494.38316 | 0/4E37FE78               |            1312292472

 2017-02-03 16:24:55.459717+01 | 1486135495.45972 | 0/4E37FE78               |            1312292472

 2017-02-03 16:24:56.550999+01 | 1486135496.551 | 0/4E37FE78               |            1312292472

 2017-02-03 16:24:57.633561+01 | 1486135497.63356 | 0/4E37FE78               |            1312292472

 2017-02-03 16:24:58.717246+01 | 1486135498.71725 | 0/4E37FE78               |            1312292472

 2017-02-03 16:24:59.807056+01 | 1486135499.80706 | 0/4E37FE78               |            1312292472

 2017-02-03 16:25:00.892475+01 | 1486135500.89247 | 0/4E37FE78               |            1312292472

 2017-02-03 16:25:01.981902+01 | 1486135501.9819 | 0/4E37FE78               |            1312292472

 2017-02-03 16:25:03.058516+01 | 1486135503.05852 | 0/4E37FE78               |            1312292472

 2017-02-03 16:25:04.130653+01 | 1486135504.13065 | 0/4E37FE78               |            1312292472

 2017-02-03 16:25:05.216161+01 | 1486135505.21616 | 0/4E37FE78               |            1312292472

 2017-02-03 16:25:06.302717+01 | 1486135506.30272 | 0/4E37FE78               |            1312292472

 2017-02-03 16:25:07.392513+01 | 1486135507.39251 | 0/4E37FE78               |            1312292472

 2017-02-03 16:25:08.481938+01 | 1486135508.48194 | 0/4E37FE78               |            1312292472

 2017-02-03 16:25:09.568049+01 | 1486135509.56805 | 0/4E37FE78               |            1312292472

 2017-02-03 16:25:10.653484+01 | 1486135510.65348 | 0/4E37FE78               |            1312292472

 2017-02-03 16:25:11.732791+01 | 1486135511.73279 | 0/4E37FE78               |            1312292472

 2017-02-03 16:25:12.805507+01 | 1486135512.80551 | 0/4E37FE78               |            1312292472

 2017-02-03 16:25:13.895425+01 | 1486135513.89543 | 0/4E37FE78               |            1312292472

 2017-02-03 16:25:14.97495+01 | 1486135514.97495 | 0/4E37FE78               |            1312292472

 2017-02-03 16:25:16.048546+01 | 1486135516.04855 | 0/4E37FE78               |            1312292472

 2017-02-03 16:25:17.142531+01 | 1486135517.14253 | 0/4E37FE78               |            1312292472

 2017-02-03 16:25:18.227277+01 | 1486135518.22728 | 0/4E37FE78               |            1312292472

 2017-02-03 16:25:19.315587+01 | 1486135519.31559 | 0/4E37FE78               |            1312292472

 2017-02-03 16:25:20.408114+01 | 1486135520.40811 | 0/4E37FE78               |            1312292472

 2017-02-03 16:25:21.496258+01 | 1486135521.49626 | 0/4E37FE78               |            1312292472

 2017-02-03 16:25:22.571061+01 | 1486135522.57106 | 0/4E37FE78               |            1312292472

 2017-02-03 16:25:23.659782+01 | 1486135523.65978 | 0/4E37FE78               |            1312292472

 2017-02-03 16:25:24.740017+01 | 1486135524.74002 | 0/4E37FE78               |            1312292472

 2017-02-03 16:25:25.825476+01 | 1486135525.82548 | 0/4E37FE78               |            1312292472

 2017-02-03 16:25:26.905663+01 | 1486135526.90566 | 0/4E37FE78               |            1312292472

 2017-02-03 16:25:27.980274+01 | 1486135527.98027 | 0/4E37FE78               |            1312292472

 2017-02-03 16:25:29.061272+01 | 1486135529.06127 | 0/4E37FE78               |            1312292472

 2017-02-03 16:25:30.152177+01 | 1486135530.15218 | 0/4E37FE78               |            1312292472

 2017-02-03 16:25:31.238378+01 | 1486135531.23838 | 0/4E37FE78               |            1312292472

 2017-02-03 16:25:32.332814+01 | 1486135532.33281 | 0/4E37FE78               |            1312292472

 2017-02-03 16:25:33.425196+01 | 1486135533.4252 | 0/4E37FE78               |            1312292472

 2017-02-03 16:25:34.507032+01 | 1486135534.50703 | 0/4E37FE78               |            1312292472

 2017-02-03 16:25:35.587777+01 | 1486135535.58778 | 0/4E37FE78               |            1312292472

 2017-02-03 16:25:36.6631+01 | 1486135536.6631 | 0/4E37FE78               |            1312292472

 2017-02-03 16:25:37.73027+01 | 1486135537.73027 | 0/4E37FE78               |            1312292472

 2017-02-03 16:25:38.80513+01 | 1486135538.80513 | 0/4E37FE78               |            1312292472

 2017-02-03 16:25:39.876819+01 | 1486135539.87682 | 0/4E37FE78               |            1312292472

 2017-02-03 16:25:40.956743+01 | 1486135540.95674 | 0/4E37FE78               |            1312292472

 2017-02-03 16:25:42.033177+01 | 1486135542.03318 | 0/4E37FE78               |            1312292472

 2017-02-03 16:25:43.110712+01 | 1486135543.11071 | 0/4E37FE78               |            1312292472

 2017-02-03 16:25:44.199788+01 | 1486135544.19979 | 0/4E37FE78               |            1312292472

 2017-02-03 16:25:45.275055+01 | 1486135545.27505 | 0/4E37FE78               |            1312292472

 2017-02-03 16:25:46.361764+01 | 1486135546.36176 | 0/4E37FE78               |            1312292472

 2017-02-03 16:25:47.434681+01 | 1486135547.43468 | 0/4E37FE78               |            1312292472

 2017-02-03 16:25:48.512954+01 | 1486135548.51295 | 0/4E37FE78               |            1312292472

 2017-02-03 16:25:49.592006+01 | 1486135549.59201 | 0/4E37FE78               |            1312292472

 2017-02-03 16:25:50.678492+01 | 1486135550.67849 | 0/4E37FE78               |            1312292472

 2017-02-03 16:25:51.761399+01 | 1486135551.7614 | 0/4E37FE78               |            1312292472

 2017-02-03 16:25:52.843935+01 | 1486135552.84394 | 0/4E37FE78               |            1312292472

 2017-02-03 16:25:53.928834+01 | 1486135553.92883 | 0/4E37FE78               |            1312292472

 2017-02-03 16:25:55.009543+01 | 1486135555.00954 | 0/4E37FE78               |            1312292472

 2017-02-03 16:25:56.096594+01 | 1486135556.09659 | 0/4E37FE78               |            1312292472

 2017-02-03 16:25:57.166995+01 | 1486135557.167 | 0/4E37FE78               |            1312292472

 2017-02-03 16:25:58.249376+01 | 1486135558.24938 | 0/4E37FE78               |            1312292472

 2017-02-03 16:25:59.335142+01 | 1486135559.33514 | 0/4E37FE78               |            1312292472

 2017-02-03 16:26:00.422686+01 | 1486135560.42269 | 0/4E37FE78               |            1312292472

 2017-02-03 16:26:01.507901+01 | 1486135561.5079 | 0/4E37FE78               |            1312292472

 2017-02-03 16:26:02.588602+01 | 1486135562.5886 | 0/4E37FE78               |            1312292472

 2017-02-03 16:26:03.671227+01 | 1486135563.67123 | 0/4E37FE78               |            1312292472

 2017-02-03 16:26:04.743628+01 | 1486135564.74363 | 0/4E37FE78               |            1312292472

 2017-02-03 16:26:05.828372+01 | 1486135565.82837 | 0/4E37FE78               |            1312292472

 2017-02-03 16:26:06.913117+01 | 1486135566.91312 | 0/4E37FE78               |            1312292472

 2017-02-03 16:26:07.993971+01 | 1486135567.99397 | 0/4E37FE78               |            1312292472

 2017-02-03 16:26:09.07629+01 | 1486135569.07629 | 0/4E37FE78               |            1312292472

 2017-02-03 16:26:10.15109+01 | 1486135570.15109 | 0/4E37FE78               |            1312292472

 2017-02-03 16:26:11.240399+01 | 1486135571.2404 | 0/4E37FE78               |            1312292472

 2017-02-03 16:26:12.335637+01 | 1486135572.33564 | 0/4E37FE78               |            1312292472

 2017-02-03 16:26:13.419359+01 | 1486135573.41936 | 0/4E37FE78               |            1312292472

 2017-02-03 16:26:14.502044+01 | 1486135574.50204 | 0/4E37FE78               |            1312292472

 2017-02-03 16:26:15.581076+01 | 1486135575.58108 | 0/4E37FE78               |            1312292472

 2017-02-03 16:26:16.655014+01 | 1486135576.65501 | 0/4E37FE78               |            1312292472

 2017-02-03 16:26:17.736929+01 | 1486135577.73693 | 0/4E37FE78               |            1312292472

 2017-02-03 16:26:18.804321+01 | 1486135578.80432 | 0/4E37FE78               |            1312292472

 2017-02-03 16:26:19.876693+01 | 1486135579.87669 | 0/4E37FE78               |            1312292472

 2017-02-03 16:26:20.952992+01 | 1486135580.95299 | 0/4E37FE78               |            1312292472

 2017-02-03 16:26:22.032053+01 | 1486135582.03205 | 0/4E37FE78               |            1312292472

 2017-02-03 16:26:23.103043+01 | 1486135583.10304 | 0/4E37FE78               |            1312292472

 2017-02-03 16:26:24.182274+01 | 1486135584.18227 | 0/4E37FE78               |            1312292472

 2017-02-03 16:26:25.265924+01 | 1486135585.26592 | 0/4E37FE78               |            1312292472

 2017-02-03 16:26:26.345984+01 | 1486135586.34598 | 0/4E37FE78               |            1312292472

 2017-02-03 16:26:27.428573+01 | 1486135587.42857 | 0/4E37FE78               |            1312292472

 2017-02-03 16:26:28.504556+01 | 1486135588.50456 | 0/4E37FE78               |            1312292472

 2017-02-03 16:26:29.585432+01 | 1486135589.58543 | 0/4E37FE78               |            1312292472

 2017-02-03 16:26:30.659487+01 | 1486135590.65949 | 0/4E37FE78               |            1312292472

 2017-02-03 16:26:31.736072+01 | 1486135591.73607 | 0/4E37FE78               |            1312292472

 2017-02-03 16:26:32.815137+01 | 1486135592.81514 | 0/4E37FE78               |            1312292472

 2017-02-03 16:26:33.902245+01 | 1486135593.90225 | 0/4E37FE78               |            1312292472

 2017-02-03 16:26:34.995018+01 | 1486135594.99502 | 0/4E37FE78               |            1312292472

 2017-02-03 16:26:36.07601+01 | 1486135596.07601 | 0/4E37FE78               |            1312292472

 2017-02-03 16:26:37.159507+01 | 1486135597.15951 | 0/4E37FE78               |            1312292472

 2017-02-03 16:26:38.247206+01 | 1486135598.24721 | 0/4E37FE78               |            1312292472

 2017-02-03 16:26:39.322017+01 | 1486135599.32202 | 0/4E37FE78               |            1312292472

 2017-02-03 16:26:40.404609+01 | 1486135600.40461 | 0/4E37FE78               |            1312292472

 2017-02-03 16:26:41.485472+01 | 1486135601.48547 | 0/4E37FE78               |            1312292472

 2017-02-03 16:26:42.562971+01 | 1486135602.56297 | 0/4E37FE78               |            1312292472

 2017-02-03 16:26:43.638513+01 | 1486135603.63851 | 0/4E37FE78               |            1312292472

 2017-02-03 16:26:44.720744+01 | 1486135604.72074 | 0/4E37FE78               |            1312292472

 2017-02-03 16:26:45.800306+01 | 1486135605.80031 | 0/4E37FE78               |            1312292472

 2017-02-03 16:26:46.889479+01 | 1486135606.88948 | 0/4E37FE78               |            1312292472

 2017-02-03 16:26:47.970227+01 | 1486135607.97023 | 0/4E37FE78               |            1312292472

 2017-02-03 16:26:49.053525+01 | 1486135609.05352 | 0/4E37FE78               |            1312292472

 2017-02-03 16:26:50.135476+01 | 1486135610.13548 | 0/4E37FE78               |            1312292472

 2017-02-03 16:26:51.211001+01 | 1486135611.211 | 0/4E37FE78               |            1312292472

 2017-02-03 16:26:52.2963+01 | 1486135612.2963 | 0/4E37FE78               |            1312292472

 2017-02-03 16:26:53.374756+01 | 1486135613.37476 | 0/4E37FE78               |            1312292472

 2017-02-03 16:26:54.460464+01 | 1486135614.46046 | 0/4E37FE78               |            1312292472

 2017-02-03 16:26:55.536578+01 | 1486135615.53658 | 0/4E37FE78               |            1312292472

 2017-02-03 16:26:56.618738+01 | 1486135616.61874 | 0/4E37FE78               |            1312292472

 2017-02-03 16:26:57.708755+01 | 1486135617.70876 | 0/4E37FE78               |            1312292472

 2017-02-03 16:26:58.791907+01 | 1486135618.79191 | 0/4E37FE78               |            1312292472

 2017-02-03 16:26:59.868392+01 | 1486135619.86839 | 0/4E37FE78               |            1312292472

 2017-02-03 16:27:00.946001+01 | 1486135620.946 | 0/4E37FE78               |            1312292472

 2017-02-03 16:27:02.040175+01 | 1486135622.04017 | 0/4E37FE78               |            1312292472

 2017-02-03 16:27:03.118341+01 | 1486135623.11834 | 0/4E37FE78               |            1312292472

 2017-02-03 16:27:04.197763+01 | 1486135624.19776 | 0/4E37FE78               |            1312292472

 2017-02-03 16:27:05.269564+01 | 1486135625.26956 | 0/4E37FE78               |            1312292472

 2017-02-03 16:27:06.342443+01 | 1486135626.34244 | 0/4E37FE78               |            1312292472

 2017-02-03 16:27:07.420909+01 | 1486135627.42091 | 0/4E37FE78               |            1312292472

 2017-02-03 16:27:08.503276+01 | 1486135628.50328 | 0/4E37FE78               |            1312292472

 2017-02-03 16:27:09.586042+01 | 1486135629.58604 | 0/4E37FE78               |            1312292472

 2017-02-03 16:27:10.664252+01 | 1486135630.66425 | 0/4E37FE78               |            1312292472

 2017-02-03 16:27:11.749098+01 | 1486135631.7491 | 0/4E37FE78               |            1312292472

 2017-02-03 16:27:12.826419+01 | 1486135632.82642 | 0/4E37FE78               |            1312292472

 2017-02-03 16:27:13.909767+01 | 1486135633.90977 | 0/4E37FE78               |            1312292472

 2017-02-03 16:27:15.001622+01 | 1486135635.00162 | 0/4E37FE78               |            1312292472

 2017-02-03 16:27:16.097696+01 | 1486135636.0977 | 0/4E37FE78               |            1312292472

 2017-02-03 16:27:17.183202+01 | 1486135637.1832 | 0/4E37FE78               |            1312292472

 2017-02-03 16:27:18.262552+01 | 1486135638.26255 | 0/4E37FE78               |            1312292472

 2017-02-03 16:27:19.342172+01 | 1486135639.34217 | 0/4E37FE78               |            1312292472

 2017-02-03 16:27:20.42757+01 | 1486135640.42757 | 0/4E37FE78               |            1312292472

 2017-02-03 16:27:21.502416+01 | 1486135641.50242 | 0/4E37FE78               |            1312292472

 2017-02-03 16:27:22.582904+01 | 1486135642.5829 | 0/4E37FE78               |            1312292472

 2017-02-03 16:27:23.674674+01 | 1486135643.67467 | 0/4E37FE78               |            1312292472

 2017-02-03 16:27:24.748915+01 | 1486135644.74891 | 0/4E37FE78               |            1312292472

 2017-02-03 16:27:25.827687+01 | 1486135645.82769 | 0/4E37FE78               |            1312292472

 2017-02-03 16:27:26.91262+01 | 1486135646.91262 | 0/4E37FE78               |            1312292472

 2017-02-03 16:27:27.986798+01 | 1486135647.9868 | 0/4E37FE78               |            1312292472

 2017-02-03 16:27:29.067809+01 | 1486135649.06781 | 0/4E37FE78               |            1312292472

 2017-02-03 16:27:30.15065+01 | 1486135650.15065 | 0/4E37FE78               |            1312292472

 2017-02-03 16:27:31.226384+01 | 1486135651.22638 | 0/4E37FE78               |            1312292472

 2017-02-03 16:27:32.306477+01 | 1486135652.30648 | 0/4E37FE78               |            1312292472

 2017-02-03 16:27:33.397005+01 | 1486135653.39701 | 0/4E37FE78               |            1312292472

 2017-02-03 16:27:34.474086+01 | 1486135654.47409 | 0/4E37FE78               |            1312292472

 2017-02-03 16:27:35.552384+01 | 1486135655.55238 | 0/4E37FE78               |            1312292472

 2017-02-03 16:27:36.639575+01 | 1486135656.63958 | 0/4E37FE78               |            1312292472

 2017-02-03 16:27:37.723976+01 | 1486135657.72398 | 0/4E37FE78               |            1312292472

 2017-02-03 16:27:38.804384+01 | 1486135658.80438 | 0/4E37FE78               |            1312292472

 2017-02-03 16:27:39.893013+01 | 1486135659.89301 | 0/4E37FE78               |            1312292472

 2017-02-03 16:27:40.979675+01 | 1486135660.97968 | 0/4E37FE78               |            1312292472

 2017-02-03 16:27:42.054528+01 | 1486135662.05453 | 0/4E37FE78               |            1312292472

 2017-02-03 16:27:43.146608+01 | 1486135663.14661 | 0/4E37FE78               |            1312292472

 2017-02-03 16:27:44.231268+01 | 1486135664.23127 | 0/4E37FE78               |            1312292472

 2017-02-03 16:27:45.311454+01 | 1486135665.31145 | 0/4E37FE78               |            1312292472

