 2017-02-04 03:40:29.399295+01 | 1486176029.3993 | pgbench_branches_pkey |            57344
 2017-02-04 03:40:29.399295+01 | 1486176029.3993 | pgbench_tellers_pkey  |           253952
 2017-02-04 03:40:29.399295+01 | 1486176029.3993 | pgbench_accounts_pkey |        224641024

 2017-02-04 03:40:30.488423+01 | 1486176030.48842 | pgbench_branches_pkey |            57344
 2017-02-04 03:40:30.488423+01 | 1486176030.48842 | pgbench_tellers_pkey  |           253952
 2017-02-04 03:40:30.488423+01 | 1486176030.48842 | pgbench_accounts_pkey |        224641024

 2017-02-04 03:40:31.567529+01 | 1486176031.56753 | pgbench_branches_pkey |            57344
 2017-02-04 03:40:31.567529+01 | 1486176031.56753 | pgbench_tellers_pkey  |           253952
 2017-02-04 03:40:31.567529+01 | 1486176031.56753 | pgbench_accounts_pkey |        224641024

 2017-02-04 03:40:32.649433+01 | 1486176032.64943 | pgbench_branches_pkey |            57344
 2017-02-04 03:40:32.649433+01 | 1486176032.64943 | pgbench_tellers_pkey  |           253952
 2017-02-04 03:40:32.649433+01 | 1486176032.64943 | pgbench_accounts_pkey |        224641024

 2017-02-04 03:40:33.732663+01 | 1486176033.73266 | pgbench_branches_pkey |            57344
 2017-02-04 03:40:33.732663+01 | 1486176033.73266 | pgbench_tellers_pkey  |           253952
 2017-02-04 03:40:33.732663+01 | 1486176033.73266 | pgbench_accounts_pkey |        224641024

 2017-02-04 03:40:34.807733+01 | 1486176034.80773 | pgbench_branches_pkey |            57344
 2017-02-04 03:40:34.807733+01 | 1486176034.80773 | pgbench_tellers_pkey  |           253952
 2017-02-04 03:40:34.807733+01 | 1486176034.80773 | pgbench_accounts_pkey |        224641024

 2017-02-04 03:40:35.882669+01 | 1486176035.88267 | pgbench_branches_pkey |            57344
 2017-02-04 03:40:35.882669+01 | 1486176035.88267 | pgbench_tellers_pkey  |           253952
 2017-02-04 03:40:35.882669+01 | 1486176035.88267 | pgbench_accounts_pkey |        224641024

 2017-02-04 03:40:36.963065+01 | 1486176036.96306 | pgbench_branches_pkey |            57344
 2017-02-04 03:40:36.963065+01 | 1486176036.96306 | pgbench_tellers_pkey  |           253952
 2017-02-04 03:40:36.963065+01 | 1486176036.96306 | pgbench_accounts_pkey |        224641024

 2017-02-04 03:40:38.040619+01 | 1486176038.04062 | pgbench_branches_pkey |            57344
 2017-02-04 03:40:38.040619+01 | 1486176038.04062 | pgbench_tellers_pkey  |           253952
 2017-02-04 03:40:38.040619+01 | 1486176038.04062 | pgbench_accounts_pkey |        224641024

 2017-02-04 03:40:39.118771+01 | 1486176039.11877 | pgbench_branches_pkey |            57344
 2017-02-04 03:40:39.118771+01 | 1486176039.11877 | pgbench_tellers_pkey  |           253952
 2017-02-04 03:40:39.118771+01 | 1486176039.11877 | pgbench_accounts_pkey |        224641024

 2017-02-04 03:40:40.200048+01 | 1486176040.20005 | pgbench_branches_pkey |            57344
 2017-02-04 03:40:40.200048+01 | 1486176040.20005 | pgbench_tellers_pkey  |           253952
 2017-02-04 03:40:40.200048+01 | 1486176040.20005 | pgbench_accounts_pkey |        224641024

 2017-02-04 03:40:41.280162+01 | 1486176041.28016 | pgbench_branches_pkey |            57344
 2017-02-04 03:40:41.280162+01 | 1486176041.28016 | pgbench_tellers_pkey  |           253952
 2017-02-04 03:40:41.280162+01 | 1486176041.28016 | pgbench_accounts_pkey |        224641024

 2017-02-04 03:40:42.368785+01 | 1486176042.36878 | pgbench_branches_pkey |            57344
 2017-02-04 03:40:42.368785+01 | 1486176042.36878 | pgbench_tellers_pkey  |           253952
 2017-02-04 03:40:42.368785+01 | 1486176042.36878 | pgbench_accounts_pkey |        224641024

 2017-02-04 03:40:43.440987+01 | 1486176043.44099 | pgbench_branches_pkey |            57344
 2017-02-04 03:40:43.440987+01 | 1486176043.44099 | pgbench_tellers_pkey  |           253952
 2017-02-04 03:40:43.440987+01 | 1486176043.44099 | pgbench_accounts_pkey |        224641024

 2017-02-04 03:40:44.521037+01 | 1486176044.52104 | pgbench_branches_pkey |            57344
 2017-02-04 03:40:44.521037+01 | 1486176044.52104 | pgbench_tellers_pkey  |           253952
 2017-02-04 03:40:44.521037+01 | 1486176044.52104 | pgbench_accounts_pkey |        224641024

 2017-02-04 03:40:45.597088+01 | 1486176045.59709 | pgbench_branches_pkey |            57344
 2017-02-04 03:40:45.597088+01 | 1486176045.59709 | pgbench_tellers_pkey  |           253952
 2017-02-04 03:40:45.597088+01 | 1486176045.59709 | pgbench_accounts_pkey |        224641024

 2017-02-04 03:40:46.673913+01 | 1486176046.67391 | pgbench_branches_pkey |            57344
 2017-02-04 03:40:46.673913+01 | 1486176046.67391 | pgbench_tellers_pkey  |           253952
 2017-02-04 03:40:46.673913+01 | 1486176046.67391 | pgbench_accounts_pkey |        224641024

 2017-02-04 03:40:47.754646+01 | 1486176047.75465 | pgbench_branches_pkey |            57344
 2017-02-04 03:40:47.754646+01 | 1486176047.75465 | pgbench_tellers_pkey  |           253952
 2017-02-04 03:40:47.754646+01 | 1486176047.75465 | pgbench_accounts_pkey |        224641024

 2017-02-04 03:40:48.828054+01 | 1486176048.82805 | pgbench_branches_pkey |            57344
 2017-02-04 03:40:48.828054+01 | 1486176048.82805 | pgbench_tellers_pkey  |           253952
 2017-02-04 03:40:48.828054+01 | 1486176048.82805 | pgbench_accounts_pkey |        224641024

 2017-02-04 03:40:49.905885+01 | 1486176049.90588 | pgbench_branches_pkey |            57344
 2017-02-04 03:40:49.905885+01 | 1486176049.90588 | pgbench_tellers_pkey  |           253952
 2017-02-04 03:40:49.905885+01 | 1486176049.90588 | pgbench_accounts_pkey |        224641024

 2017-02-04 03:40:50.978919+01 | 1486176050.97892 | pgbench_branches_pkey |            57344
 2017-02-04 03:40:50.978919+01 | 1486176050.97892 | pgbench_tellers_pkey  |           253952
 2017-02-04 03:40:50.978919+01 | 1486176050.97892 | pgbench_accounts_pkey |        224641024

 2017-02-04 03:40:52.058588+01 | 1486176052.05859 | pgbench_branches_pkey |            57344
 2017-02-04 03:40:52.058588+01 | 1486176052.05859 | pgbench_tellers_pkey  |           253952
 2017-02-04 03:40:52.058588+01 | 1486176052.05859 | pgbench_accounts_pkey |        224641024

 2017-02-04 03:40:53.139626+01 | 1486176053.13963 | pgbench_branches_pkey |            57344
 2017-02-04 03:40:53.139626+01 | 1486176053.13963 | pgbench_tellers_pkey  |           253952
 2017-02-04 03:40:53.139626+01 | 1486176053.13963 | pgbench_accounts_pkey |        224641024

 2017-02-04 03:40:54.217117+01 | 1486176054.21712 | pgbench_branches_pkey |            57344
 2017-02-04 03:40:54.217117+01 | 1486176054.21712 | pgbench_tellers_pkey  |           253952
 2017-02-04 03:40:54.217117+01 | 1486176054.21712 | pgbench_accounts_pkey |        224641024

 2017-02-04 03:40:55.289989+01 | 1486176055.28999 | pgbench_branches_pkey |            57344
 2017-02-04 03:40:55.289989+01 | 1486176055.28999 | pgbench_tellers_pkey  |           253952
 2017-02-04 03:40:55.289989+01 | 1486176055.28999 | pgbench_accounts_pkey |        224641024

 2017-02-04 03:40:56.375002+01 | 1486176056.375 | pgbench_branches_pkey |            57344
 2017-02-04 03:40:56.375002+01 | 1486176056.375 | pgbench_tellers_pkey  |           253952
 2017-02-04 03:40:56.375002+01 | 1486176056.375 | pgbench_accounts_pkey |        224641024

 2017-02-04 03:40:57.450594+01 | 1486176057.45059 | pgbench_branches_pkey |            57344
 2017-02-04 03:40:57.450594+01 | 1486176057.45059 | pgbench_tellers_pkey  |           253952
 2017-02-04 03:40:57.450594+01 | 1486176057.45059 | pgbench_accounts_pkey |        224641024

 2017-02-04 03:40:58.540655+01 | 1486176058.54065 | pgbench_branches_pkey |            57344
 2017-02-04 03:40:58.540655+01 | 1486176058.54065 | pgbench_tellers_pkey  |           253952
 2017-02-04 03:40:58.540655+01 | 1486176058.54065 | pgbench_accounts_pkey |        224641024

 2017-02-04 03:40:59.615302+01 | 1486176059.6153 | pgbench_branches_pkey |            57344
 2017-02-04 03:40:59.615302+01 | 1486176059.6153 | pgbench_tellers_pkey  |           253952
 2017-02-04 03:40:59.615302+01 | 1486176059.6153 | pgbench_accounts_pkey |        224641024

 2017-02-04 03:41:00.687516+01 | 1486176060.68752 | pgbench_branches_pkey |            57344
 2017-02-04 03:41:00.687516+01 | 1486176060.68752 | pgbench_tellers_pkey  |           253952
 2017-02-04 03:41:00.687516+01 | 1486176060.68752 | pgbench_accounts_pkey |        224641024

 2017-02-04 03:41:01.767211+01 | 1486176061.76721 | pgbench_branches_pkey |            57344
 2017-02-04 03:41:01.767211+01 | 1486176061.76721 | pgbench_tellers_pkey  |           253952
 2017-02-04 03:41:01.767211+01 | 1486176061.76721 | pgbench_accounts_pkey |        224641024

 2017-02-04 03:41:02.847634+01 | 1486176062.84763 | pgbench_branches_pkey |            57344
 2017-02-04 03:41:02.847634+01 | 1486176062.84763 | pgbench_tellers_pkey  |           253952
 2017-02-04 03:41:02.847634+01 | 1486176062.84763 | pgbench_accounts_pkey |        224641024

 2017-02-04 03:41:03.929143+01 | 1486176063.92914 | pgbench_branches_pkey |            57344
 2017-02-04 03:41:03.929143+01 | 1486176063.92914 | pgbench_tellers_pkey  |           253952
 2017-02-04 03:41:03.929143+01 | 1486176063.92914 | pgbench_accounts_pkey |        224641024

 2017-02-04 03:41:05.008793+01 | 1486176065.00879 | pgbench_branches_pkey |            57344
 2017-02-04 03:41:05.008793+01 | 1486176065.00879 | pgbench_tellers_pkey  |           253952
 2017-02-04 03:41:05.008793+01 | 1486176065.00879 | pgbench_accounts_pkey |        224641024

 2017-02-04 03:41:06.092621+01 | 1486176066.09262 | pgbench_branches_pkey |            57344
 2017-02-04 03:41:06.092621+01 | 1486176066.09262 | pgbench_tellers_pkey  |           253952
 2017-02-04 03:41:06.092621+01 | 1486176066.09262 | pgbench_accounts_pkey |        224641024

 2017-02-04 03:41:07.167637+01 | 1486176067.16764 | pgbench_branches_pkey |            57344
 2017-02-04 03:41:07.167637+01 | 1486176067.16764 | pgbench_tellers_pkey  |           253952
 2017-02-04 03:41:07.167637+01 | 1486176067.16764 | pgbench_accounts_pkey |        224641024

 2017-02-04 03:41:08.25227+01 | 1486176068.25227 | pgbench_branches_pkey |            57344
 2017-02-04 03:41:08.25227+01 | 1486176068.25227 | pgbench_tellers_pkey  |           253952
 2017-02-04 03:41:08.25227+01 | 1486176068.25227 | pgbench_accounts_pkey |        224641024

 2017-02-04 03:41:09.335103+01 | 1486176069.3351 | pgbench_branches_pkey |            57344
 2017-02-04 03:41:09.335103+01 | 1486176069.3351 | pgbench_tellers_pkey  |           253952
 2017-02-04 03:41:09.335103+01 | 1486176069.3351 | pgbench_accounts_pkey |        224641024

 2017-02-04 03:41:10.404664+01 | 1486176070.40466 | pgbench_branches_pkey |            57344
 2017-02-04 03:41:10.404664+01 | 1486176070.40466 | pgbench_tellers_pkey  |           253952
 2017-02-04 03:41:10.404664+01 | 1486176070.40466 | pgbench_accounts_pkey |        224641024

 2017-02-04 03:41:11.478853+01 | 1486176071.47885 | pgbench_branches_pkey |            57344
 2017-02-04 03:41:11.478853+01 | 1486176071.47885 | pgbench_tellers_pkey  |           253952
 2017-02-04 03:41:11.478853+01 | 1486176071.47885 | pgbench_accounts_pkey |        224641024

 2017-02-04 03:41:12.562574+01 | 1486176072.56257 | pgbench_branches_pkey |            57344
 2017-02-04 03:41:12.562574+01 | 1486176072.56257 | pgbench_tellers_pkey  |           253952
 2017-02-04 03:41:12.562574+01 | 1486176072.56257 | pgbench_accounts_pkey |        224641024

 2017-02-04 03:41:13.64262+01 | 1486176073.64262 | pgbench_branches_pkey |            57344
 2017-02-04 03:41:13.64262+01 | 1486176073.64262 | pgbench_tellers_pkey  |           253952
 2017-02-04 03:41:13.64262+01 | 1486176073.64262 | pgbench_accounts_pkey |        224641024

 2017-02-04 03:41:14.727888+01 | 1486176074.72789 | pgbench_branches_pkey |            57344
 2017-02-04 03:41:14.727888+01 | 1486176074.72789 | pgbench_tellers_pkey  |           253952
 2017-02-04 03:41:14.727888+01 | 1486176074.72789 | pgbench_accounts_pkey |        224641024

 2017-02-04 03:41:15.804007+01 | 1486176075.80401 | pgbench_branches_pkey |            57344
 2017-02-04 03:41:15.804007+01 | 1486176075.80401 | pgbench_tellers_pkey  |           253952
 2017-02-04 03:41:15.804007+01 | 1486176075.80401 | pgbench_accounts_pkey |        224641024

 2017-02-04 03:41:16.882404+01 | 1486176076.8824 | pgbench_branches_pkey |            57344
 2017-02-04 03:41:16.882404+01 | 1486176076.8824 | pgbench_tellers_pkey  |           253952
 2017-02-04 03:41:16.882404+01 | 1486176076.8824 | pgbench_accounts_pkey |        224641024

 2017-02-04 03:41:17.959758+01 | 1486176077.95976 | pgbench_branches_pkey |            57344
 2017-02-04 03:41:17.959758+01 | 1486176077.95976 | pgbench_tellers_pkey  |           253952
 2017-02-04 03:41:17.959758+01 | 1486176077.95976 | pgbench_accounts_pkey |        224641024

 2017-02-04 03:41:19.040199+01 | 1486176079.0402 | pgbench_branches_pkey |            57344
 2017-02-04 03:41:19.040199+01 | 1486176079.0402 | pgbench_tellers_pkey  |           253952
 2017-02-04 03:41:19.040199+01 | 1486176079.0402 | pgbench_accounts_pkey |        224641024

 2017-02-04 03:41:20.129189+01 | 1486176080.12919 | pgbench_branches_pkey |            57344
 2017-02-04 03:41:20.129189+01 | 1486176080.12919 | pgbench_tellers_pkey  |           253952
 2017-02-04 03:41:20.129189+01 | 1486176080.12919 | pgbench_accounts_pkey |        224641024

 2017-02-04 03:41:21.206314+01 | 1486176081.20631 | pgbench_branches_pkey |            57344
 2017-02-04 03:41:21.206314+01 | 1486176081.20631 | pgbench_tellers_pkey  |           253952
 2017-02-04 03:41:21.206314+01 | 1486176081.20631 | pgbench_accounts_pkey |        224641024

 2017-02-04 03:41:22.281118+01 | 1486176082.28112 | pgbench_branches_pkey |            57344
 2017-02-04 03:41:22.281118+01 | 1486176082.28112 | pgbench_tellers_pkey  |           253952
 2017-02-04 03:41:22.281118+01 | 1486176082.28112 | pgbench_accounts_pkey |        224641024

 2017-02-04 03:41:23.358533+01 | 1486176083.35853 | pgbench_branches_pkey |            57344
 2017-02-04 03:41:23.358533+01 | 1486176083.35853 | pgbench_tellers_pkey  |           253952
 2017-02-04 03:41:23.358533+01 | 1486176083.35853 | pgbench_accounts_pkey |        224641024

 2017-02-04 03:41:24.437616+01 | 1486176084.43762 | pgbench_branches_pkey |            57344
 2017-02-04 03:41:24.437616+01 | 1486176084.43762 | pgbench_tellers_pkey  |           253952
 2017-02-04 03:41:24.437616+01 | 1486176084.43762 | pgbench_accounts_pkey |        224641024

 2017-02-04 03:41:25.51723+01 | 1486176085.51723 | pgbench_branches_pkey |            57344
 2017-02-04 03:41:25.51723+01 | 1486176085.51723 | pgbench_tellers_pkey  |           253952
 2017-02-04 03:41:25.51723+01 | 1486176085.51723 | pgbench_accounts_pkey |        224641024

 2017-02-04 03:41:26.593941+01 | 1486176086.59394 | pgbench_branches_pkey |            57344
 2017-02-04 03:41:26.593941+01 | 1486176086.59394 | pgbench_tellers_pkey  |           253952
 2017-02-04 03:41:26.593941+01 | 1486176086.59394 | pgbench_accounts_pkey |        224641024

 2017-02-04 03:41:27.665692+01 | 1486176087.66569 | pgbench_branches_pkey |            57344
 2017-02-04 03:41:27.665692+01 | 1486176087.66569 | pgbench_tellers_pkey  |           253952
 2017-02-04 03:41:27.665692+01 | 1486176087.66569 | pgbench_accounts_pkey |        224641024

 2017-02-04 03:41:28.743437+01 | 1486176088.74344 | pgbench_branches_pkey |            57344
 2017-02-04 03:41:28.743437+01 | 1486176088.74344 | pgbench_tellers_pkey  |           253952
 2017-02-04 03:41:28.743437+01 | 1486176088.74344 | pgbench_accounts_pkey |        224641024

 2017-02-04 03:41:29.816086+01 | 1486176089.81609 | pgbench_branches_pkey |            57344
 2017-02-04 03:41:29.816086+01 | 1486176089.81609 | pgbench_tellers_pkey  |           253952
 2017-02-04 03:41:29.816086+01 | 1486176089.81609 | pgbench_accounts_pkey |        224641024

 2017-02-04 03:41:30.891524+01 | 1486176090.89152 | pgbench_branches_pkey |            57344
 2017-02-04 03:41:30.891524+01 | 1486176090.89152 | pgbench_tellers_pkey  |           253952
 2017-02-04 03:41:30.891524+01 | 1486176090.89152 | pgbench_accounts_pkey |        224641024

 2017-02-04 03:41:31.964792+01 | 1486176091.96479 | pgbench_branches_pkey |            57344
 2017-02-04 03:41:31.964792+01 | 1486176091.96479 | pgbench_tellers_pkey  |           253952
 2017-02-04 03:41:31.964792+01 | 1486176091.96479 | pgbench_accounts_pkey |        224641024

 2017-02-04 03:41:33.037813+01 | 1486176093.03781 | pgbench_branches_pkey |            57344
 2017-02-04 03:41:33.037813+01 | 1486176093.03781 | pgbench_tellers_pkey  |           253952
 2017-02-04 03:41:33.037813+01 | 1486176093.03781 | pgbench_accounts_pkey |        224641024

 2017-02-04 03:41:34.11663+01 | 1486176094.11663 | pgbench_branches_pkey |            57344
 2017-02-04 03:41:34.11663+01 | 1486176094.11663 | pgbench_tellers_pkey  |           253952
 2017-02-04 03:41:34.11663+01 | 1486176094.11663 | pgbench_accounts_pkey |        224641024

 2017-02-04 03:41:35.194408+01 | 1486176095.19441 | pgbench_branches_pkey |            57344
 2017-02-04 03:41:35.194408+01 | 1486176095.19441 | pgbench_tellers_pkey  |           253952
 2017-02-04 03:41:35.194408+01 | 1486176095.19441 | pgbench_accounts_pkey |        224641024

 2017-02-04 03:41:36.271272+01 | 1486176096.27127 | pgbench_branches_pkey |            57344
 2017-02-04 03:41:36.271272+01 | 1486176096.27127 | pgbench_tellers_pkey  |           253952
 2017-02-04 03:41:36.271272+01 | 1486176096.27127 | pgbench_accounts_pkey |        224641024

 2017-02-04 03:41:37.343813+01 | 1486176097.34381 | pgbench_branches_pkey |            57344
 2017-02-04 03:41:37.343813+01 | 1486176097.34381 | pgbench_tellers_pkey  |           253952
 2017-02-04 03:41:37.343813+01 | 1486176097.34381 | pgbench_accounts_pkey |        224641024

 2017-02-04 03:41:38.415738+01 | 1486176098.41574 | pgbench_branches_pkey |            57344
 2017-02-04 03:41:38.415738+01 | 1486176098.41574 | pgbench_tellers_pkey  |           253952
 2017-02-04 03:41:38.415738+01 | 1486176098.41574 | pgbench_accounts_pkey |        224641024

 2017-02-04 03:41:39.492301+01 | 1486176099.4923 | pgbench_branches_pkey |            57344
 2017-02-04 03:41:39.492301+01 | 1486176099.4923 | pgbench_tellers_pkey  |           253952
 2017-02-04 03:41:39.492301+01 | 1486176099.4923 | pgbench_accounts_pkey |        224641024

 2017-02-04 03:41:40.568861+01 | 1486176100.56886 | pgbench_branches_pkey |            57344
 2017-02-04 03:41:40.568861+01 | 1486176100.56886 | pgbench_tellers_pkey  |           253952
 2017-02-04 03:41:40.568861+01 | 1486176100.56886 | pgbench_accounts_pkey |        224641024

 2017-02-04 03:41:41.638326+01 | 1486176101.63833 | pgbench_branches_pkey |            57344
 2017-02-04 03:41:41.638326+01 | 1486176101.63833 | pgbench_tellers_pkey  |           253952
 2017-02-04 03:41:41.638326+01 | 1486176101.63833 | pgbench_accounts_pkey |        224641024

 2017-02-04 03:41:42.72906+01 | 1486176102.72906 | pgbench_branches_pkey |            57344
 2017-02-04 03:41:42.72906+01 | 1486176102.72906 | pgbench_tellers_pkey  |           253952
 2017-02-04 03:41:42.72906+01 | 1486176102.72906 | pgbench_accounts_pkey |        224641024

 2017-02-04 03:41:43.807143+01 | 1486176103.80714 | pgbench_branches_pkey |            57344
 2017-02-04 03:41:43.807143+01 | 1486176103.80714 | pgbench_tellers_pkey  |           253952
 2017-02-04 03:41:43.807143+01 | 1486176103.80714 | pgbench_accounts_pkey |        224641024

 2017-02-04 03:41:44.890671+01 | 1486176104.89067 | pgbench_branches_pkey |            57344
 2017-02-04 03:41:44.890671+01 | 1486176104.89067 | pgbench_tellers_pkey  |           253952
 2017-02-04 03:41:44.890671+01 | 1486176104.89067 | pgbench_accounts_pkey |        224641024

 2017-02-04 03:41:45.962337+01 | 1486176105.96234 | pgbench_branches_pkey |            57344
 2017-02-04 03:41:45.962337+01 | 1486176105.96234 | pgbench_tellers_pkey  |           253952
 2017-02-04 03:41:45.962337+01 | 1486176105.96234 | pgbench_accounts_pkey |        224641024

 2017-02-04 03:41:47.038509+01 | 1486176107.03851 | pgbench_branches_pkey |            57344
 2017-02-04 03:41:47.038509+01 | 1486176107.03851 | pgbench_tellers_pkey  |           253952
 2017-02-04 03:41:47.038509+01 | 1486176107.03851 | pgbench_accounts_pkey |        224641024

 2017-02-04 03:41:48.111546+01 | 1486176108.11155 | pgbench_branches_pkey |            57344
 2017-02-04 03:41:48.111546+01 | 1486176108.11155 | pgbench_tellers_pkey  |           253952
 2017-02-04 03:41:48.111546+01 | 1486176108.11155 | pgbench_accounts_pkey |        224641024

 2017-02-04 03:41:49.193474+01 | 1486176109.19347 | pgbench_branches_pkey |            57344
 2017-02-04 03:41:49.193474+01 | 1486176109.19347 | pgbench_tellers_pkey  |           253952
 2017-02-04 03:41:49.193474+01 | 1486176109.19347 | pgbench_accounts_pkey |        224641024

 2017-02-04 03:41:50.265687+01 | 1486176110.26569 | pgbench_branches_pkey |            57344
 2017-02-04 03:41:50.265687+01 | 1486176110.26569 | pgbench_tellers_pkey  |           253952
 2017-02-04 03:41:50.265687+01 | 1486176110.26569 | pgbench_accounts_pkey |        224641024

 2017-02-04 03:41:51.339147+01 | 1486176111.33915 | pgbench_branches_pkey |            57344
 2017-02-04 03:41:51.339147+01 | 1486176111.33915 | pgbench_tellers_pkey  |           253952
 2017-02-04 03:41:51.339147+01 | 1486176111.33915 | pgbench_accounts_pkey |        224641024

 2017-02-04 03:41:52.412081+01 | 1486176112.41208 | pgbench_branches_pkey |            57344
 2017-02-04 03:41:52.412081+01 | 1486176112.41208 | pgbench_tellers_pkey  |           253952
 2017-02-04 03:41:52.412081+01 | 1486176112.41208 | pgbench_accounts_pkey |        224641024

 2017-02-04 03:41:53.494601+01 | 1486176113.4946 | pgbench_branches_pkey |            57344
 2017-02-04 03:41:53.494601+01 | 1486176113.4946 | pgbench_tellers_pkey  |           253952
 2017-02-04 03:41:53.494601+01 | 1486176113.4946 | pgbench_accounts_pkey |        224641024

 2017-02-04 03:41:54.575811+01 | 1486176114.57581 | pgbench_branches_pkey |            57344
 2017-02-04 03:41:54.575811+01 | 1486176114.57581 | pgbench_tellers_pkey  |           253952
 2017-02-04 03:41:54.575811+01 | 1486176114.57581 | pgbench_accounts_pkey |        224641024

 2017-02-04 03:41:55.652888+01 | 1486176115.65289 | pgbench_branches_pkey |            57344
 2017-02-04 03:41:55.652888+01 | 1486176115.65289 | pgbench_tellers_pkey  |           253952
 2017-02-04 03:41:55.652888+01 | 1486176115.65289 | pgbench_accounts_pkey |        224641024

 2017-02-04 03:41:56.73072+01 | 1486176116.73072 | pgbench_branches_pkey |            57344
 2017-02-04 03:41:56.73072+01 | 1486176116.73072 | pgbench_tellers_pkey  |           253952
 2017-02-04 03:41:56.73072+01 | 1486176116.73072 | pgbench_accounts_pkey |        224641024

 2017-02-04 03:41:57.81041+01 | 1486176117.81041 | pgbench_branches_pkey |            57344
 2017-02-04 03:41:57.81041+01 | 1486176117.81041 | pgbench_tellers_pkey  |           253952
 2017-02-04 03:41:57.81041+01 | 1486176117.81041 | pgbench_accounts_pkey |        224641024

 2017-02-04 03:41:58.886221+01 | 1486176118.88622 | pgbench_branches_pkey |            57344
 2017-02-04 03:41:58.886221+01 | 1486176118.88622 | pgbench_tellers_pkey  |           253952
 2017-02-04 03:41:58.886221+01 | 1486176118.88622 | pgbench_accounts_pkey |        224641024

 2017-02-04 03:41:59.962011+01 | 1486176119.96201 | pgbench_branches_pkey |            57344
 2017-02-04 03:41:59.962011+01 | 1486176119.96201 | pgbench_tellers_pkey  |           253952
 2017-02-04 03:41:59.962011+01 | 1486176119.96201 | pgbench_accounts_pkey |        224641024

 2017-02-04 03:42:01.037445+01 | 1486176121.03745 | pgbench_branches_pkey |            57344
 2017-02-04 03:42:01.037445+01 | 1486176121.03745 | pgbench_tellers_pkey  |           253952
 2017-02-04 03:42:01.037445+01 | 1486176121.03745 | pgbench_accounts_pkey |        224641024

 2017-02-04 03:42:02.117772+01 | 1486176122.11777 | pgbench_branches_pkey |            57344
 2017-02-04 03:42:02.117772+01 | 1486176122.11777 | pgbench_tellers_pkey  |           253952
 2017-02-04 03:42:02.117772+01 | 1486176122.11777 | pgbench_accounts_pkey |        224641024

 2017-02-04 03:42:03.194755+01 | 1486176123.19476 | pgbench_branches_pkey |            57344
 2017-02-04 03:42:03.194755+01 | 1486176123.19476 | pgbench_tellers_pkey  |           253952
 2017-02-04 03:42:03.194755+01 | 1486176123.19476 | pgbench_accounts_pkey |        224641024

 2017-02-04 03:42:04.268953+01 | 1486176124.26895 | pgbench_branches_pkey |            57344
 2017-02-04 03:42:04.268953+01 | 1486176124.26895 | pgbench_tellers_pkey  |           253952
 2017-02-04 03:42:04.268953+01 | 1486176124.26895 | pgbench_accounts_pkey |        224641024

 2017-02-04 03:42:05.34402+01 | 1486176125.34402 | pgbench_branches_pkey |            57344
 2017-02-04 03:42:05.34402+01 | 1486176125.34402 | pgbench_tellers_pkey  |           253952
 2017-02-04 03:42:05.34402+01 | 1486176125.34402 | pgbench_accounts_pkey |        224641024

 2017-02-04 03:42:06.423899+01 | 1486176126.4239 | pgbench_branches_pkey |            57344
 2017-02-04 03:42:06.423899+01 | 1486176126.4239 | pgbench_tellers_pkey  |           253952
 2017-02-04 03:42:06.423899+01 | 1486176126.4239 | pgbench_accounts_pkey |        224641024

 2017-02-04 03:42:07.501268+01 | 1486176127.50127 | pgbench_branches_pkey |            57344
 2017-02-04 03:42:07.501268+01 | 1486176127.50127 | pgbench_tellers_pkey  |           253952
 2017-02-04 03:42:07.501268+01 | 1486176127.50127 | pgbench_accounts_pkey |        224641024

 2017-02-04 03:42:08.575468+01 | 1486176128.57547 | pgbench_branches_pkey |            57344
 2017-02-04 03:42:08.575468+01 | 1486176128.57547 | pgbench_tellers_pkey  |           253952
 2017-02-04 03:42:08.575468+01 | 1486176128.57547 | pgbench_accounts_pkey |        224641024

 2017-02-04 03:42:09.64481+01 | 1486176129.64481 | pgbench_branches_pkey |            57344
 2017-02-04 03:42:09.64481+01 | 1486176129.64481 | pgbench_tellers_pkey  |           253952
 2017-02-04 03:42:09.64481+01 | 1486176129.64481 | pgbench_accounts_pkey |        224641024

 2017-02-04 03:42:10.723201+01 | 1486176130.7232 | pgbench_branches_pkey |            57344
 2017-02-04 03:42:10.723201+01 | 1486176130.7232 | pgbench_tellers_pkey  |           253952
 2017-02-04 03:42:10.723201+01 | 1486176130.7232 | pgbench_accounts_pkey |        224641024

 2017-02-04 03:42:11.803564+01 | 1486176131.80356 | pgbench_branches_pkey |            57344
 2017-02-04 03:42:11.803564+01 | 1486176131.80356 | pgbench_tellers_pkey  |           253952
 2017-02-04 03:42:11.803564+01 | 1486176131.80356 | pgbench_accounts_pkey |        224641024

 2017-02-04 03:42:12.887967+01 | 1486176132.88797 | pgbench_branches_pkey |            57344
 2017-02-04 03:42:12.887967+01 | 1486176132.88797 | pgbench_tellers_pkey  |           253952
 2017-02-04 03:42:12.887967+01 | 1486176132.88797 | pgbench_accounts_pkey |        224641024

 2017-02-04 03:42:13.964871+01 | 1486176133.96487 | pgbench_branches_pkey |            57344
 2017-02-04 03:42:13.964871+01 | 1486176133.96487 | pgbench_tellers_pkey  |           253952
 2017-02-04 03:42:13.964871+01 | 1486176133.96487 | pgbench_accounts_pkey |        224641024

 2017-02-04 03:42:15.050989+01 | 1486176135.05099 | pgbench_branches_pkey |            57344
 2017-02-04 03:42:15.050989+01 | 1486176135.05099 | pgbench_tellers_pkey  |           253952
 2017-02-04 03:42:15.050989+01 | 1486176135.05099 | pgbench_accounts_pkey |        224641024

 2017-02-04 03:42:16.136178+01 | 1486176136.13618 | pgbench_branches_pkey |            57344
 2017-02-04 03:42:16.136178+01 | 1486176136.13618 | pgbench_tellers_pkey  |           253952
 2017-02-04 03:42:16.136178+01 | 1486176136.13618 | pgbench_accounts_pkey |        224641024

 2017-02-04 03:42:17.215207+01 | 1486176137.21521 | pgbench_branches_pkey |            57344
 2017-02-04 03:42:17.215207+01 | 1486176137.21521 | pgbench_tellers_pkey  |           253952
 2017-02-04 03:42:17.215207+01 | 1486176137.21521 | pgbench_accounts_pkey |        224641024

 2017-02-04 03:42:18.29615+01 | 1486176138.29615 | pgbench_branches_pkey |            57344
 2017-02-04 03:42:18.29615+01 | 1486176138.29615 | pgbench_tellers_pkey  |           253952
 2017-02-04 03:42:18.29615+01 | 1486176138.29615 | pgbench_accounts_pkey |        224641024

 2017-02-04 03:42:19.377431+01 | 1486176139.37743 | pgbench_branches_pkey |            57344
 2017-02-04 03:42:19.377431+01 | 1486176139.37743 | pgbench_tellers_pkey  |           253952
 2017-02-04 03:42:19.377431+01 | 1486176139.37743 | pgbench_accounts_pkey |        224641024

 2017-02-04 03:42:20.452001+01 | 1486176140.452 | pgbench_branches_pkey |            57344
 2017-02-04 03:42:20.452001+01 | 1486176140.452 | pgbench_tellers_pkey  |           253952
 2017-02-04 03:42:20.452001+01 | 1486176140.452 | pgbench_accounts_pkey |        224641024

 2017-02-04 03:42:21.524109+01 | 1486176141.52411 | pgbench_branches_pkey |            57344
 2017-02-04 03:42:21.524109+01 | 1486176141.52411 | pgbench_tellers_pkey  |           253952
 2017-02-04 03:42:21.524109+01 | 1486176141.52411 | pgbench_accounts_pkey |        224641024

 2017-02-04 03:42:22.586293+01 | 1486176142.58629 | pgbench_branches_pkey |            57344
 2017-02-04 03:42:22.586293+01 | 1486176142.58629 | pgbench_tellers_pkey  |           253952
 2017-02-04 03:42:22.586293+01 | 1486176142.58629 | pgbench_accounts_pkey |        224641024

 2017-02-04 03:42:23.664115+01 | 1486176143.66411 | pgbench_branches_pkey |            57344
 2017-02-04 03:42:23.664115+01 | 1486176143.66411 | pgbench_tellers_pkey  |           253952
 2017-02-04 03:42:23.664115+01 | 1486176143.66411 | pgbench_accounts_pkey |        224641024

 2017-02-04 03:42:24.749261+01 | 1486176144.74926 | pgbench_branches_pkey |            57344
 2017-02-04 03:42:24.749261+01 | 1486176144.74926 | pgbench_tellers_pkey  |           253952
 2017-02-04 03:42:24.749261+01 | 1486176144.74926 | pgbench_accounts_pkey |        224641024

 2017-02-04 03:42:25.824363+01 | 1486176145.82436 | pgbench_branches_pkey |            57344
 2017-02-04 03:42:25.824363+01 | 1486176145.82436 | pgbench_tellers_pkey  |           253952
 2017-02-04 03:42:25.824363+01 | 1486176145.82436 | pgbench_accounts_pkey |        224641024

 2017-02-04 03:42:26.900995+01 | 1486176146.901 | pgbench_branches_pkey |            57344
 2017-02-04 03:42:26.900995+01 | 1486176146.901 | pgbench_tellers_pkey  |           253952
 2017-02-04 03:42:26.900995+01 | 1486176146.901 | pgbench_accounts_pkey |        224641024

 2017-02-04 03:42:27.962462+01 | 1486176147.96246 | pgbench_branches_pkey |            57344
 2017-02-04 03:42:27.962462+01 | 1486176147.96246 | pgbench_tellers_pkey  |           253952
 2017-02-04 03:42:27.962462+01 | 1486176147.96246 | pgbench_accounts_pkey |        224641024

 2017-02-04 03:42:29.033756+01 | 1486176149.03376 | pgbench_branches_pkey |            57344
 2017-02-04 03:42:29.033756+01 | 1486176149.03376 | pgbench_tellers_pkey  |           253952
 2017-02-04 03:42:29.033756+01 | 1486176149.03376 | pgbench_accounts_pkey |        224641024

 2017-02-04 03:42:30.106507+01 | 1486176150.10651 | pgbench_branches_pkey |            57344
 2017-02-04 03:42:30.106507+01 | 1486176150.10651 | pgbench_tellers_pkey  |           253952
 2017-02-04 03:42:30.106507+01 | 1486176150.10651 | pgbench_accounts_pkey |        224641024

 2017-02-04 03:42:31.183867+01 | 1486176151.18387 | pgbench_branches_pkey |            57344
 2017-02-04 03:42:31.183867+01 | 1486176151.18387 | pgbench_tellers_pkey  |           253952
 2017-02-04 03:42:31.183867+01 | 1486176151.18387 | pgbench_accounts_pkey |        224641024

 2017-02-04 03:42:32.26104+01 | 1486176152.26104 | pgbench_branches_pkey |            57344
 2017-02-04 03:42:32.26104+01 | 1486176152.26104 | pgbench_tellers_pkey  |           253952
 2017-02-04 03:42:32.26104+01 | 1486176152.26104 | pgbench_accounts_pkey |        224641024

 2017-02-04 03:42:33.336195+01 | 1486176153.33619 | pgbench_branches_pkey |            57344
 2017-02-04 03:42:33.336195+01 | 1486176153.33619 | pgbench_tellers_pkey  |           253952
 2017-02-04 03:42:33.336195+01 | 1486176153.33619 | pgbench_accounts_pkey |        224641024

 2017-02-04 03:42:34.422234+01 | 1486176154.42223 | pgbench_branches_pkey |            57344
 2017-02-04 03:42:34.422234+01 | 1486176154.42223 | pgbench_tellers_pkey  |           253952
 2017-02-04 03:42:34.422234+01 | 1486176154.42223 | pgbench_accounts_pkey |        224641024

 2017-02-04 03:42:35.512817+01 | 1486176155.51282 | pgbench_branches_pkey |            57344
 2017-02-04 03:42:35.512817+01 | 1486176155.51282 | pgbench_tellers_pkey  |           253952
 2017-02-04 03:42:35.512817+01 | 1486176155.51282 | pgbench_accounts_pkey |        224641024

 2017-02-04 03:42:36.592633+01 | 1486176156.59263 | pgbench_branches_pkey |            57344
 2017-02-04 03:42:36.592633+01 | 1486176156.59263 | pgbench_tellers_pkey  |           253952
 2017-02-04 03:42:36.592633+01 | 1486176156.59263 | pgbench_accounts_pkey |        224641024

 2017-02-04 03:42:37.674123+01 | 1486176157.67412 | pgbench_branches_pkey |            57344
 2017-02-04 03:42:37.674123+01 | 1486176157.67412 | pgbench_tellers_pkey  |           253952
 2017-02-04 03:42:37.674123+01 | 1486176157.67412 | pgbench_accounts_pkey |        224641024

 2017-02-04 03:42:38.76209+01 | 1486176158.76209 | pgbench_branches_pkey |            57344
 2017-02-04 03:42:38.76209+01 | 1486176158.76209 | pgbench_tellers_pkey  |           253952
 2017-02-04 03:42:38.76209+01 | 1486176158.76209 | pgbench_accounts_pkey |        224641024

 2017-02-04 03:42:39.840804+01 | 1486176159.8408 | pgbench_branches_pkey |            57344
 2017-02-04 03:42:39.840804+01 | 1486176159.8408 | pgbench_tellers_pkey  |           253952
 2017-02-04 03:42:39.840804+01 | 1486176159.8408 | pgbench_accounts_pkey |        224641024

 2017-02-04 03:42:40.905318+01 | 1486176160.90532 | pgbench_branches_pkey |            57344
 2017-02-04 03:42:40.905318+01 | 1486176160.90532 | pgbench_tellers_pkey  |           253952
 2017-02-04 03:42:40.905318+01 | 1486176160.90532 | pgbench_accounts_pkey |        224641024

 2017-02-04 03:42:41.987185+01 | 1486176161.98719 | pgbench_branches_pkey |            57344
 2017-02-04 03:42:41.987185+01 | 1486176161.98719 | pgbench_tellers_pkey  |           253952
 2017-02-04 03:42:41.987185+01 | 1486176161.98719 | pgbench_accounts_pkey |        224641024

 2017-02-04 03:42:43.058628+01 | 1486176163.05863 | pgbench_branches_pkey |            57344
 2017-02-04 03:42:43.058628+01 | 1486176163.05863 | pgbench_tellers_pkey  |           253952
 2017-02-04 03:42:43.058628+01 | 1486176163.05863 | pgbench_accounts_pkey |        224641024

 2017-02-04 03:42:44.138965+01 | 1486176164.13896 | pgbench_branches_pkey |            57344
 2017-02-04 03:42:44.138965+01 | 1486176164.13896 | pgbench_tellers_pkey  |           253952
 2017-02-04 03:42:44.138965+01 | 1486176164.13896 | pgbench_accounts_pkey |        224641024

 2017-02-04 03:42:45.211223+01 | 1486176165.21122 | pgbench_branches_pkey |            57344
 2017-02-04 03:42:45.211223+01 | 1486176165.21122 | pgbench_tellers_pkey  |           253952
 2017-02-04 03:42:45.211223+01 | 1486176165.21122 | pgbench_accounts_pkey |        224641024

 2017-02-04 03:42:46.29015+01 | 1486176166.29015 | pgbench_branches_pkey |            57344
 2017-02-04 03:42:46.29015+01 | 1486176166.29015 | pgbench_tellers_pkey  |           253952
 2017-02-04 03:42:46.29015+01 | 1486176166.29015 | pgbench_accounts_pkey |        224641024

 2017-02-04 03:42:47.37036+01 | 1486176167.37036 | pgbench_branches_pkey |            57344
 2017-02-04 03:42:47.37036+01 | 1486176167.37036 | pgbench_tellers_pkey  |           253952
 2017-02-04 03:42:47.37036+01 | 1486176167.37036 | pgbench_accounts_pkey |        224641024

 2017-02-04 03:42:48.447553+01 | 1486176168.44755 | pgbench_branches_pkey |            57344
 2017-02-04 03:42:48.447553+01 | 1486176168.44755 | pgbench_tellers_pkey  |           253952
 2017-02-04 03:42:48.447553+01 | 1486176168.44755 | pgbench_accounts_pkey |        224641024

 2017-02-04 03:42:49.52658+01 | 1486176169.52658 | pgbench_branches_pkey |            57344
 2017-02-04 03:42:49.52658+01 | 1486176169.52658 | pgbench_tellers_pkey  |           253952
 2017-02-04 03:42:49.52658+01 | 1486176169.52658 | pgbench_accounts_pkey |        224641024

 2017-02-04 03:42:50.603681+01 | 1486176170.60368 | pgbench_branches_pkey |            57344
 2017-02-04 03:42:50.603681+01 | 1486176170.60368 | pgbench_tellers_pkey  |           253952
 2017-02-04 03:42:50.603681+01 | 1486176170.60368 | pgbench_accounts_pkey |        224641024

 2017-02-04 03:42:51.682492+01 | 1486176171.68249 | pgbench_branches_pkey |            57344
 2017-02-04 03:42:51.682492+01 | 1486176171.68249 | pgbench_tellers_pkey  |           253952
 2017-02-04 03:42:51.682492+01 | 1486176171.68249 | pgbench_accounts_pkey |        224641024

 2017-02-04 03:42:52.758811+01 | 1486176172.75881 | pgbench_branches_pkey |            57344
 2017-02-04 03:42:52.758811+01 | 1486176172.75881 | pgbench_tellers_pkey  |           253952
 2017-02-04 03:42:52.758811+01 | 1486176172.75881 | pgbench_accounts_pkey |        224641024

 2017-02-04 03:42:53.830268+01 | 1486176173.83027 | pgbench_branches_pkey |            57344
 2017-02-04 03:42:53.830268+01 | 1486176173.83027 | pgbench_tellers_pkey  |           253952
 2017-02-04 03:42:53.830268+01 | 1486176173.83027 | pgbench_accounts_pkey |        224641024

 2017-02-04 03:42:54.913585+01 | 1486176174.91358 | pgbench_branches_pkey |            57344
 2017-02-04 03:42:54.913585+01 | 1486176174.91358 | pgbench_tellers_pkey  |           253952
 2017-02-04 03:42:54.913585+01 | 1486176174.91358 | pgbench_accounts_pkey |        224641024

 2017-02-04 03:42:55.991364+01 | 1486176175.99136 | pgbench_branches_pkey |            57344
 2017-02-04 03:42:55.991364+01 | 1486176175.99136 | pgbench_tellers_pkey  |           253952
 2017-02-04 03:42:55.991364+01 | 1486176175.99136 | pgbench_accounts_pkey |        224641024

 2017-02-04 03:42:57.069752+01 | 1486176177.06975 | pgbench_branches_pkey |            57344
 2017-02-04 03:42:57.069752+01 | 1486176177.06975 | pgbench_tellers_pkey  |           253952
 2017-02-04 03:42:57.069752+01 | 1486176177.06975 | pgbench_accounts_pkey |        224641024

 2017-02-04 03:42:58.14196+01 | 1486176178.14196 | pgbench_branches_pkey |            57344
 2017-02-04 03:42:58.14196+01 | 1486176178.14196 | pgbench_tellers_pkey  |           253952
 2017-02-04 03:42:58.14196+01 | 1486176178.14196 | pgbench_accounts_pkey |        224641024

 2017-02-04 03:42:59.223921+01 | 1486176179.22392 | pgbench_branches_pkey |            57344
 2017-02-04 03:42:59.223921+01 | 1486176179.22392 | pgbench_tellers_pkey  |           253952
 2017-02-04 03:42:59.223921+01 | 1486176179.22392 | pgbench_accounts_pkey |        224641024

 2017-02-04 03:43:00.30139+01 | 1486176180.30139 | pgbench_branches_pkey |            57344
 2017-02-04 03:43:00.30139+01 | 1486176180.30139 | pgbench_tellers_pkey  |           253952
 2017-02-04 03:43:00.30139+01 | 1486176180.30139 | pgbench_accounts_pkey |        224641024

 2017-02-04 03:43:01.376097+01 | 1486176181.3761 | pgbench_branches_pkey |            57344
 2017-02-04 03:43:01.376097+01 | 1486176181.3761 | pgbench_tellers_pkey  |           253952
 2017-02-04 03:43:01.376097+01 | 1486176181.3761 | pgbench_accounts_pkey |        224641024

 2017-02-04 03:43:02.451271+01 | 1486176182.45127 | pgbench_branches_pkey |            57344
 2017-02-04 03:43:02.451271+01 | 1486176182.45127 | pgbench_tellers_pkey  |           253952
 2017-02-04 03:43:02.451271+01 | 1486176182.45127 | pgbench_accounts_pkey |        224641024

 2017-02-04 03:43:03.528825+01 | 1486176183.52883 | pgbench_branches_pkey |            57344
 2017-02-04 03:43:03.528825+01 | 1486176183.52883 | pgbench_tellers_pkey  |           253952
 2017-02-04 03:43:03.528825+01 | 1486176183.52883 | pgbench_accounts_pkey |        224641024

 2017-02-04 03:43:04.600006+01 | 1486176184.60001 | pgbench_branches_pkey |            57344
 2017-02-04 03:43:04.600006+01 | 1486176184.60001 | pgbench_tellers_pkey  |           253952
 2017-02-04 03:43:04.600006+01 | 1486176184.60001 | pgbench_accounts_pkey |        224641024

 2017-02-04 03:43:05.681233+01 | 1486176185.68123 | pgbench_branches_pkey |            57344
 2017-02-04 03:43:05.681233+01 | 1486176185.68123 | pgbench_tellers_pkey  |           253952
 2017-02-04 03:43:05.681233+01 | 1486176185.68123 | pgbench_accounts_pkey |        224641024

 2017-02-04 03:43:06.75736+01 | 1486176186.75736 | pgbench_branches_pkey |            57344
 2017-02-04 03:43:06.75736+01 | 1486176186.75736 | pgbench_tellers_pkey  |           253952
 2017-02-04 03:43:06.75736+01 | 1486176186.75736 | pgbench_accounts_pkey |        224641024

 2017-02-04 03:43:07.834707+01 | 1486176187.83471 | pgbench_branches_pkey |            57344
 2017-02-04 03:43:07.834707+01 | 1486176187.83471 | pgbench_tellers_pkey  |           253952
 2017-02-04 03:43:07.834707+01 | 1486176187.83471 | pgbench_accounts_pkey |        224641024

 2017-02-04 03:43:08.910738+01 | 1486176188.91074 | pgbench_branches_pkey |            57344
 2017-02-04 03:43:08.910738+01 | 1486176188.91074 | pgbench_tellers_pkey  |           253952
 2017-02-04 03:43:08.910738+01 | 1486176188.91074 | pgbench_accounts_pkey |        224641024

 2017-02-04 03:43:09.989369+01 | 1486176189.98937 | pgbench_branches_pkey |            57344
 2017-02-04 03:43:09.989369+01 | 1486176189.98937 | pgbench_tellers_pkey  |           253952
 2017-02-04 03:43:09.989369+01 | 1486176189.98937 | pgbench_accounts_pkey |        224641024

 2017-02-04 03:43:11.068669+01 | 1486176191.06867 | pgbench_branches_pkey |            57344
 2017-02-04 03:43:11.068669+01 | 1486176191.06867 | pgbench_tellers_pkey  |           253952
 2017-02-04 03:43:11.068669+01 | 1486176191.06867 | pgbench_accounts_pkey |        224641024

 2017-02-04 03:43:12.145194+01 | 1486176192.14519 | pgbench_branches_pkey |            57344
 2017-02-04 03:43:12.145194+01 | 1486176192.14519 | pgbench_tellers_pkey  |           253952
 2017-02-04 03:43:12.145194+01 | 1486176192.14519 | pgbench_accounts_pkey |        224641024

 2017-02-04 03:43:13.222351+01 | 1486176193.22235 | pgbench_branches_pkey |            57344
 2017-02-04 03:43:13.222351+01 | 1486176193.22235 | pgbench_tellers_pkey  |           253952
 2017-02-04 03:43:13.222351+01 | 1486176193.22235 | pgbench_accounts_pkey |        224641024

 2017-02-04 03:43:14.300603+01 | 1486176194.3006 | pgbench_branches_pkey |            57344
 2017-02-04 03:43:14.300603+01 | 1486176194.3006 | pgbench_tellers_pkey  |           253952
 2017-02-04 03:43:14.300603+01 | 1486176194.3006 | pgbench_accounts_pkey |        224641024

 2017-02-04 03:43:15.379605+01 | 1486176195.37961 | pgbench_branches_pkey |            57344
 2017-02-04 03:43:15.379605+01 | 1486176195.37961 | pgbench_tellers_pkey  |           253952
 2017-02-04 03:43:15.379605+01 | 1486176195.37961 | pgbench_accounts_pkey |        224641024

 2017-02-04 03:43:16.453568+01 | 1486176196.45357 | pgbench_branches_pkey |            57344
 2017-02-04 03:43:16.453568+01 | 1486176196.45357 | pgbench_tellers_pkey  |           253952
 2017-02-04 03:43:16.453568+01 | 1486176196.45357 | pgbench_accounts_pkey |        224641024

 2017-02-04 03:43:17.53512+01 | 1486176197.53512 | pgbench_branches_pkey |            57344
 2017-02-04 03:43:17.53512+01 | 1486176197.53512 | pgbench_tellers_pkey  |           253952
 2017-02-04 03:43:17.53512+01 | 1486176197.53512 | pgbench_accounts_pkey |        224641024

 2017-02-04 03:43:18.616205+01 | 1486176198.6162 | pgbench_branches_pkey |            57344
 2017-02-04 03:43:18.616205+01 | 1486176198.6162 | pgbench_tellers_pkey  |           253952
 2017-02-04 03:43:18.616205+01 | 1486176198.6162 | pgbench_accounts_pkey |        224641024

 2017-02-04 03:43:19.692215+01 | 1486176199.69221 | pgbench_branches_pkey |            57344
 2017-02-04 03:43:19.692215+01 | 1486176199.69221 | pgbench_tellers_pkey  |           253952
 2017-02-04 03:43:19.692215+01 | 1486176199.69221 | pgbench_accounts_pkey |        224641024

 2017-02-04 03:43:20.777194+01 | 1486176200.77719 | pgbench_branches_pkey |            57344
 2017-02-04 03:43:20.777194+01 | 1486176200.77719 | pgbench_tellers_pkey  |           253952
 2017-02-04 03:43:20.777194+01 | 1486176200.77719 | pgbench_accounts_pkey |        224641024

 2017-02-04 03:43:21.854985+01 | 1486176201.85498 | pgbench_branches_pkey |            57344
 2017-02-04 03:43:21.854985+01 | 1486176201.85498 | pgbench_tellers_pkey  |           253952
 2017-02-04 03:43:21.854985+01 | 1486176201.85498 | pgbench_accounts_pkey |        224641024

 2017-02-04 03:43:22.924695+01 | 1486176202.9247 | pgbench_branches_pkey |            57344
 2017-02-04 03:43:22.924695+01 | 1486176202.9247 | pgbench_tellers_pkey  |           253952
 2017-02-04 03:43:22.924695+01 | 1486176202.9247 | pgbench_accounts_pkey |        224641024

 2017-02-04 03:43:24.001069+01 | 1486176204.00107 | pgbench_branches_pkey |            57344
 2017-02-04 03:43:24.001069+01 | 1486176204.00107 | pgbench_tellers_pkey  |           253952
 2017-02-04 03:43:24.001069+01 | 1486176204.00107 | pgbench_accounts_pkey |        224641024

 2017-02-04 03:43:25.081132+01 | 1486176205.08113 | pgbench_branches_pkey |            57344
 2017-02-04 03:43:25.081132+01 | 1486176205.08113 | pgbench_tellers_pkey  |           253952
 2017-02-04 03:43:25.081132+01 | 1486176205.08113 | pgbench_accounts_pkey |        224641024

 2017-02-04 03:43:26.156817+01 | 1486176206.15682 | pgbench_branches_pkey |            57344
 2017-02-04 03:43:26.156817+01 | 1486176206.15682 | pgbench_tellers_pkey  |           253952
 2017-02-04 03:43:26.156817+01 | 1486176206.15682 | pgbench_accounts_pkey |        224641024

 2017-02-04 03:43:27.233156+01 | 1486176207.23316 | pgbench_branches_pkey |            57344
 2017-02-04 03:43:27.233156+01 | 1486176207.23316 | pgbench_tellers_pkey  |           253952
 2017-02-04 03:43:27.233156+01 | 1486176207.23316 | pgbench_accounts_pkey |        224641024

 2017-02-04 03:43:28.307508+01 | 1486176208.30751 | pgbench_branches_pkey |            57344
 2017-02-04 03:43:28.307508+01 | 1486176208.30751 | pgbench_tellers_pkey  |           253952
 2017-02-04 03:43:28.307508+01 | 1486176208.30751 | pgbench_accounts_pkey |        224641024

 2017-02-04 03:43:29.385438+01 | 1486176209.38544 | pgbench_branches_pkey |            57344
 2017-02-04 03:43:29.385438+01 | 1486176209.38544 | pgbench_tellers_pkey  |           253952
 2017-02-04 03:43:29.385438+01 | 1486176209.38544 | pgbench_accounts_pkey |        224641024

 2017-02-04 03:43:30.470481+01 | 1486176210.47048 | pgbench_branches_pkey |            57344
 2017-02-04 03:43:30.470481+01 | 1486176210.47048 | pgbench_tellers_pkey  |           253952
 2017-02-04 03:43:30.470481+01 | 1486176210.47048 | pgbench_accounts_pkey |        224641024

 2017-02-04 03:43:31.562024+01 | 1486176211.56202 | pgbench_branches_pkey |            57344
 2017-02-04 03:43:31.562024+01 | 1486176211.56202 | pgbench_tellers_pkey  |           253952
 2017-02-04 03:43:31.562024+01 | 1486176211.56202 | pgbench_accounts_pkey |        224641024

 2017-02-04 03:43:32.642632+01 | 1486176212.64263 | pgbench_branches_pkey |            57344
 2017-02-04 03:43:32.642632+01 | 1486176212.64263 | pgbench_tellers_pkey  |           253952
 2017-02-04 03:43:32.642632+01 | 1486176212.64263 | pgbench_accounts_pkey |        224641024

 2017-02-04 03:43:33.724648+01 | 1486176213.72465 | pgbench_branches_pkey |            57344
 2017-02-04 03:43:33.724648+01 | 1486176213.72465 | pgbench_tellers_pkey  |           253952
 2017-02-04 03:43:33.724648+01 | 1486176213.72465 | pgbench_accounts_pkey |        224641024

 2017-02-04 03:43:34.805481+01 | 1486176214.80548 | pgbench_branches_pkey |            57344
 2017-02-04 03:43:34.805481+01 | 1486176214.80548 | pgbench_tellers_pkey  |           253952
 2017-02-04 03:43:34.805481+01 | 1486176214.80548 | pgbench_accounts_pkey |        224641024

 2017-02-04 03:43:35.871074+01 | 1486176215.87107 | pgbench_branches_pkey |            57344
 2017-02-04 03:43:35.871074+01 | 1486176215.87107 | pgbench_tellers_pkey  |           253952
 2017-02-04 03:43:35.871074+01 | 1486176215.87107 | pgbench_accounts_pkey |        224641024

 2017-02-04 03:43:36.950597+01 | 1486176216.9506 | pgbench_branches_pkey |            57344
 2017-02-04 03:43:36.950597+01 | 1486176216.9506 | pgbench_tellers_pkey  |           253952
 2017-02-04 03:43:36.950597+01 | 1486176216.9506 | pgbench_accounts_pkey |        224641024

 2017-02-04 03:43:38.029966+01 | 1486176218.02997 | pgbench_branches_pkey |            57344
 2017-02-04 03:43:38.029966+01 | 1486176218.02997 | pgbench_tellers_pkey  |           253952
 2017-02-04 03:43:38.029966+01 | 1486176218.02997 | pgbench_accounts_pkey |        224641024

 2017-02-04 03:43:39.105498+01 | 1486176219.1055 | pgbench_branches_pkey |            57344
 2017-02-04 03:43:39.105498+01 | 1486176219.1055 | pgbench_tellers_pkey  |           253952
 2017-02-04 03:43:39.105498+01 | 1486176219.1055 | pgbench_accounts_pkey |        224641024

 2017-02-04 03:43:40.189768+01 | 1486176220.18977 | pgbench_branches_pkey |            57344
 2017-02-04 03:43:40.189768+01 | 1486176220.18977 | pgbench_tellers_pkey  |           253952
 2017-02-04 03:43:40.189768+01 | 1486176220.18977 | pgbench_accounts_pkey |        224641024

 2017-02-04 03:43:41.264095+01 | 1486176221.2641 | pgbench_branches_pkey |            57344
 2017-02-04 03:43:41.264095+01 | 1486176221.2641 | pgbench_tellers_pkey  |           253952
 2017-02-04 03:43:41.264095+01 | 1486176221.2641 | pgbench_accounts_pkey |        224641024

 2017-02-04 03:43:42.341714+01 | 1486176222.34171 | pgbench_branches_pkey |            57344
 2017-02-04 03:43:42.341714+01 | 1486176222.34171 | pgbench_tellers_pkey  |           253952
 2017-02-04 03:43:42.341714+01 | 1486176222.34171 | pgbench_accounts_pkey |        224641024

 2017-02-04 03:43:43.418787+01 | 1486176223.41879 | pgbench_branches_pkey |            57344
 2017-02-04 03:43:43.418787+01 | 1486176223.41879 | pgbench_tellers_pkey  |           253952
 2017-02-04 03:43:43.418787+01 | 1486176223.41879 | pgbench_accounts_pkey |        224641024

 2017-02-04 03:43:44.495706+01 | 1486176224.49571 | pgbench_branches_pkey |            57344
 2017-02-04 03:43:44.495706+01 | 1486176224.49571 | pgbench_tellers_pkey  |           253952
 2017-02-04 03:43:44.495706+01 | 1486176224.49571 | pgbench_accounts_pkey |        224641024

 2017-02-04 03:43:45.568503+01 | 1486176225.5685 | pgbench_branches_pkey |            57344
 2017-02-04 03:43:45.568503+01 | 1486176225.5685 | pgbench_tellers_pkey  |           253952
 2017-02-04 03:43:45.568503+01 | 1486176225.5685 | pgbench_accounts_pkey |        224641024

 2017-02-04 03:43:46.649306+01 | 1486176226.64931 | pgbench_branches_pkey |            57344
 2017-02-04 03:43:46.649306+01 | 1486176226.64931 | pgbench_tellers_pkey  |           253952
 2017-02-04 03:43:46.649306+01 | 1486176226.64931 | pgbench_accounts_pkey |        224641024

 2017-02-04 03:43:47.724038+01 | 1486176227.72404 | pgbench_branches_pkey |            57344
 2017-02-04 03:43:47.724038+01 | 1486176227.72404 | pgbench_tellers_pkey  |           253952
 2017-02-04 03:43:47.724038+01 | 1486176227.72404 | pgbench_accounts_pkey |        224641024

 2017-02-04 03:43:48.804062+01 | 1486176228.80406 | pgbench_branches_pkey |            57344
 2017-02-04 03:43:48.804062+01 | 1486176228.80406 | pgbench_tellers_pkey  |           253952
 2017-02-04 03:43:48.804062+01 | 1486176228.80406 | pgbench_accounts_pkey |        224641024

 2017-02-04 03:43:49.876777+01 | 1486176229.87678 | pgbench_branches_pkey |            57344
 2017-02-04 03:43:49.876777+01 | 1486176229.87678 | pgbench_tellers_pkey  |           253952
 2017-02-04 03:43:49.876777+01 | 1486176229.87678 | pgbench_accounts_pkey |        224641024

 2017-02-04 03:43:50.951432+01 | 1486176230.95143 | pgbench_branches_pkey |            57344
 2017-02-04 03:43:50.951432+01 | 1486176230.95143 | pgbench_tellers_pkey  |           253952
 2017-02-04 03:43:50.951432+01 | 1486176230.95143 | pgbench_accounts_pkey |        224641024

 2017-02-04 03:43:52.027398+01 | 1486176232.0274 | pgbench_branches_pkey |            57344
 2017-02-04 03:43:52.027398+01 | 1486176232.0274 | pgbench_tellers_pkey  |           253952
 2017-02-04 03:43:52.027398+01 | 1486176232.0274 | pgbench_accounts_pkey |        224641024

 2017-02-04 03:43:53.108752+01 | 1486176233.10875 | pgbench_branches_pkey |            57344
 2017-02-04 03:43:53.108752+01 | 1486176233.10875 | pgbench_tellers_pkey  |           253952
 2017-02-04 03:43:53.108752+01 | 1486176233.10875 | pgbench_accounts_pkey |        224641024

 2017-02-04 03:43:54.182503+01 | 1486176234.1825 | pgbench_branches_pkey |            57344
 2017-02-04 03:43:54.182503+01 | 1486176234.1825 | pgbench_tellers_pkey  |           253952
 2017-02-04 03:43:54.182503+01 | 1486176234.1825 | pgbench_accounts_pkey |        224641024

 2017-02-04 03:43:55.257648+01 | 1486176235.25765 | pgbench_branches_pkey |            57344
 2017-02-04 03:43:55.257648+01 | 1486176235.25765 | pgbench_tellers_pkey  |           253952
 2017-02-04 03:43:55.257648+01 | 1486176235.25765 | pgbench_accounts_pkey |        224641024

 2017-02-04 03:43:56.344209+01 | 1486176236.34421 | pgbench_branches_pkey |            57344
 2017-02-04 03:43:56.344209+01 | 1486176236.34421 | pgbench_tellers_pkey  |           253952
 2017-02-04 03:43:56.344209+01 | 1486176236.34421 | pgbench_accounts_pkey |        224641024

 2017-02-04 03:43:57.419154+01 | 1486176237.41915 | pgbench_branches_pkey |            57344
 2017-02-04 03:43:57.419154+01 | 1486176237.41915 | pgbench_tellers_pkey  |           253952
 2017-02-04 03:43:57.419154+01 | 1486176237.41915 | pgbench_accounts_pkey |        224641024

 2017-02-04 03:43:58.490992+01 | 1486176238.49099 | pgbench_branches_pkey |            57344
 2017-02-04 03:43:58.490992+01 | 1486176238.49099 | pgbench_tellers_pkey  |           253952
 2017-02-04 03:43:58.490992+01 | 1486176238.49099 | pgbench_accounts_pkey |        224641024

 2017-02-04 03:43:59.55877+01 | 1486176239.55877 | pgbench_branches_pkey |            57344
 2017-02-04 03:43:59.55877+01 | 1486176239.55877 | pgbench_tellers_pkey  |           253952
 2017-02-04 03:43:59.55877+01 | 1486176239.55877 | pgbench_accounts_pkey |        224641024

 2017-02-04 03:44:00.648428+01 | 1486176240.64843 | pgbench_branches_pkey |            57344
 2017-02-04 03:44:00.648428+01 | 1486176240.64843 | pgbench_tellers_pkey  |           253952
 2017-02-04 03:44:00.648428+01 | 1486176240.64843 | pgbench_accounts_pkey |        224641024

 2017-02-04 03:44:01.731243+01 | 1486176241.73124 | pgbench_branches_pkey |            57344
 2017-02-04 03:44:01.731243+01 | 1486176241.73124 | pgbench_tellers_pkey  |           253952
 2017-02-04 03:44:01.731243+01 | 1486176241.73124 | pgbench_accounts_pkey |        224641024

 2017-02-04 03:44:02.811947+01 | 1486176242.81195 | pgbench_branches_pkey |            57344
 2017-02-04 03:44:02.811947+01 | 1486176242.81195 | pgbench_tellers_pkey  |           253952
 2017-02-04 03:44:02.811947+01 | 1486176242.81195 | pgbench_accounts_pkey |        224641024

 2017-02-04 03:44:03.894113+01 | 1486176243.89411 | pgbench_branches_pkey |            57344
 2017-02-04 03:44:03.894113+01 | 1486176243.89411 | pgbench_tellers_pkey  |           253952
 2017-02-04 03:44:03.894113+01 | 1486176243.89411 | pgbench_accounts_pkey |        224641024

 2017-02-04 03:44:04.977159+01 | 1486176244.97716 | pgbench_branches_pkey |            57344
 2017-02-04 03:44:04.977159+01 | 1486176244.97716 | pgbench_tellers_pkey  |           253952
 2017-02-04 03:44:04.977159+01 | 1486176244.97716 | pgbench_accounts_pkey |        224641024

 2017-02-04 03:44:06.052709+01 | 1486176246.05271 | pgbench_branches_pkey |            57344
 2017-02-04 03:44:06.052709+01 | 1486176246.05271 | pgbench_tellers_pkey  |           253952
 2017-02-04 03:44:06.052709+01 | 1486176246.05271 | pgbench_accounts_pkey |        224641024

 2017-02-04 03:44:07.137718+01 | 1486176247.13772 | pgbench_branches_pkey |            57344
 2017-02-04 03:44:07.137718+01 | 1486176247.13772 | pgbench_tellers_pkey  |           253952
 2017-02-04 03:44:07.137718+01 | 1486176247.13772 | pgbench_accounts_pkey |        224641024

 2017-02-04 03:44:08.225695+01 | 1486176248.22569 | pgbench_branches_pkey |            57344
 2017-02-04 03:44:08.225695+01 | 1486176248.22569 | pgbench_tellers_pkey  |           253952
 2017-02-04 03:44:08.225695+01 | 1486176248.22569 | pgbench_accounts_pkey |        224641024

 2017-02-04 03:44:09.30455+01 | 1486176249.30455 | pgbench_branches_pkey |            57344
 2017-02-04 03:44:09.30455+01 | 1486176249.30455 | pgbench_tellers_pkey  |           253952
 2017-02-04 03:44:09.30455+01 | 1486176249.30455 | pgbench_accounts_pkey |        224641024

 2017-02-04 03:44:10.378658+01 | 1486176250.37866 | pgbench_branches_pkey |            57344
 2017-02-04 03:44:10.378658+01 | 1486176250.37866 | pgbench_tellers_pkey  |           253952
 2017-02-04 03:44:10.378658+01 | 1486176250.37866 | pgbench_accounts_pkey |        224641024

 2017-02-04 03:44:11.457475+01 | 1486176251.45747 | pgbench_branches_pkey |            57344
 2017-02-04 03:44:11.457475+01 | 1486176251.45747 | pgbench_tellers_pkey  |           253952
 2017-02-04 03:44:11.457475+01 | 1486176251.45747 | pgbench_accounts_pkey |        224641024

 2017-02-04 03:44:12.532825+01 | 1486176252.53282 | pgbench_branches_pkey |            57344
 2017-02-04 03:44:12.532825+01 | 1486176252.53282 | pgbench_tellers_pkey  |           253952
 2017-02-04 03:44:12.532825+01 | 1486176252.53282 | pgbench_accounts_pkey |        224641024

 2017-02-04 03:44:13.616772+01 | 1486176253.61677 | pgbench_branches_pkey |            57344
 2017-02-04 03:44:13.616772+01 | 1486176253.61677 | pgbench_tellers_pkey  |           253952
 2017-02-04 03:44:13.616772+01 | 1486176253.61677 | pgbench_accounts_pkey |        224641024

 2017-02-04 03:44:14.698899+01 | 1486176254.6989 | pgbench_branches_pkey |            57344
 2017-02-04 03:44:14.698899+01 | 1486176254.6989 | pgbench_tellers_pkey  |           253952
 2017-02-04 03:44:14.698899+01 | 1486176254.6989 | pgbench_accounts_pkey |        224641024

 2017-02-04 03:44:15.773088+01 | 1486176255.77309 | pgbench_branches_pkey |            57344
 2017-02-04 03:44:15.773088+01 | 1486176255.77309 | pgbench_tellers_pkey  |           253952
 2017-02-04 03:44:15.773088+01 | 1486176255.77309 | pgbench_accounts_pkey |        224641024

 2017-02-04 03:44:16.855248+01 | 1486176256.85525 | pgbench_branches_pkey |            57344
 2017-02-04 03:44:16.855248+01 | 1486176256.85525 | pgbench_tellers_pkey  |           253952
 2017-02-04 03:44:16.855248+01 | 1486176256.85525 | pgbench_accounts_pkey |        224641024

 2017-02-04 03:44:17.935824+01 | 1486176257.93582 | pgbench_branches_pkey |            57344
 2017-02-04 03:44:17.935824+01 | 1486176257.93582 | pgbench_tellers_pkey  |           253952
 2017-02-04 03:44:17.935824+01 | 1486176257.93582 | pgbench_accounts_pkey |        224641024

 2017-02-04 03:44:19.015706+01 | 1486176259.01571 | pgbench_branches_pkey |            57344
 2017-02-04 03:44:19.015706+01 | 1486176259.01571 | pgbench_tellers_pkey  |           253952
 2017-02-04 03:44:19.015706+01 | 1486176259.01571 | pgbench_accounts_pkey |        224641024

 2017-02-04 03:44:20.093624+01 | 1486176260.09362 | pgbench_branches_pkey |            57344
 2017-02-04 03:44:20.093624+01 | 1486176260.09362 | pgbench_tellers_pkey  |           253952
 2017-02-04 03:44:20.093624+01 | 1486176260.09362 | pgbench_accounts_pkey |        224641024

 2017-02-04 03:44:21.167508+01 | 1486176261.16751 | pgbench_branches_pkey |            57344
 2017-02-04 03:44:21.167508+01 | 1486176261.16751 | pgbench_tellers_pkey  |           253952
 2017-02-04 03:44:21.167508+01 | 1486176261.16751 | pgbench_accounts_pkey |        224641024

 2017-02-04 03:44:22.241552+01 | 1486176262.24155 | pgbench_branches_pkey |            57344
 2017-02-04 03:44:22.241552+01 | 1486176262.24155 | pgbench_tellers_pkey  |           253952
 2017-02-04 03:44:22.241552+01 | 1486176262.24155 | pgbench_accounts_pkey |        224641024

 2017-02-04 03:44:23.321712+01 | 1486176263.32171 | pgbench_branches_pkey |            57344
 2017-02-04 03:44:23.321712+01 | 1486176263.32171 | pgbench_tellers_pkey  |           253952
 2017-02-04 03:44:23.321712+01 | 1486176263.32171 | pgbench_accounts_pkey |        224641024

 2017-02-04 03:44:24.397328+01 | 1486176264.39733 | pgbench_branches_pkey |            57344
 2017-02-04 03:44:24.397328+01 | 1486176264.39733 | pgbench_tellers_pkey  |           253952
 2017-02-04 03:44:24.397328+01 | 1486176264.39733 | pgbench_accounts_pkey |        224641024

 2017-02-04 03:44:25.481345+01 | 1486176265.48134 | pgbench_branches_pkey |            57344
 2017-02-04 03:44:25.481345+01 | 1486176265.48134 | pgbench_tellers_pkey  |           253952
 2017-02-04 03:44:25.481345+01 | 1486176265.48134 | pgbench_accounts_pkey |        224641024

 2017-02-04 03:44:26.556325+01 | 1486176266.55632 | pgbench_branches_pkey |            57344
 2017-02-04 03:44:26.556325+01 | 1486176266.55632 | pgbench_tellers_pkey  |           253952
 2017-02-04 03:44:26.556325+01 | 1486176266.55632 | pgbench_accounts_pkey |        224641024

 2017-02-04 03:44:27.627072+01 | 1486176267.62707 | pgbench_branches_pkey |            57344
 2017-02-04 03:44:27.627072+01 | 1486176267.62707 | pgbench_tellers_pkey  |           253952
 2017-02-04 03:44:27.627072+01 | 1486176267.62707 | pgbench_accounts_pkey |        224641024

 2017-02-04 03:44:28.704118+01 | 1486176268.70412 | pgbench_branches_pkey |            57344
 2017-02-04 03:44:28.704118+01 | 1486176268.70412 | pgbench_tellers_pkey  |           253952
 2017-02-04 03:44:28.704118+01 | 1486176268.70412 | pgbench_accounts_pkey |        224641024

 2017-02-04 03:44:29.785015+01 | 1486176269.78502 | pgbench_branches_pkey |            57344
 2017-02-04 03:44:29.785015+01 | 1486176269.78502 | pgbench_tellers_pkey  |           253952
 2017-02-04 03:44:29.785015+01 | 1486176269.78502 | pgbench_accounts_pkey |        224641024

 2017-02-04 03:44:30.858312+01 | 1486176270.85831 | pgbench_branches_pkey |            57344
 2017-02-04 03:44:30.858312+01 | 1486176270.85831 | pgbench_tellers_pkey  |           253952
 2017-02-04 03:44:30.858312+01 | 1486176270.85831 | pgbench_accounts_pkey |        224641024

 2017-02-04 03:44:31.935914+01 | 1486176271.93591 | pgbench_branches_pkey |            57344
 2017-02-04 03:44:31.935914+01 | 1486176271.93591 | pgbench_tellers_pkey  |           253952
 2017-02-04 03:44:31.935914+01 | 1486176271.93591 | pgbench_accounts_pkey |        224641024

 2017-02-04 03:44:33.017378+01 | 1486176273.01738 | pgbench_branches_pkey |            57344
 2017-02-04 03:44:33.017378+01 | 1486176273.01738 | pgbench_tellers_pkey  |           253952
 2017-02-04 03:44:33.017378+01 | 1486176273.01738 | pgbench_accounts_pkey |        224641024

 2017-02-04 03:44:34.099491+01 | 1486176274.09949 | pgbench_branches_pkey |            57344
 2017-02-04 03:44:34.099491+01 | 1486176274.09949 | pgbench_tellers_pkey  |           253952
 2017-02-04 03:44:34.099491+01 | 1486176274.09949 | pgbench_accounts_pkey |        224641024

 2017-02-04 03:44:35.179449+01 | 1486176275.17945 | pgbench_branches_pkey |            57344
 2017-02-04 03:44:35.179449+01 | 1486176275.17945 | pgbench_tellers_pkey  |           253952
 2017-02-04 03:44:35.179449+01 | 1486176275.17945 | pgbench_accounts_pkey |        224641024

 2017-02-04 03:44:36.260172+01 | 1486176276.26017 | pgbench_branches_pkey |            57344
 2017-02-04 03:44:36.260172+01 | 1486176276.26017 | pgbench_tellers_pkey  |           253952
 2017-02-04 03:44:36.260172+01 | 1486176276.26017 | pgbench_accounts_pkey |        224641024

 2017-02-04 03:44:37.334889+01 | 1486176277.33489 | pgbench_branches_pkey |            57344
 2017-02-04 03:44:37.334889+01 | 1486176277.33489 | pgbench_tellers_pkey  |           253952
 2017-02-04 03:44:37.334889+01 | 1486176277.33489 | pgbench_accounts_pkey |        224641024

 2017-02-04 03:44:38.413123+01 | 1486176278.41312 | pgbench_branches_pkey |            57344
 2017-02-04 03:44:38.413123+01 | 1486176278.41312 | pgbench_tellers_pkey  |           253952
 2017-02-04 03:44:38.413123+01 | 1486176278.41312 | pgbench_accounts_pkey |        224641024

 2017-02-04 03:44:39.490102+01 | 1486176279.4901 | pgbench_branches_pkey |            57344
 2017-02-04 03:44:39.490102+01 | 1486176279.4901 | pgbench_tellers_pkey  |           253952
 2017-02-04 03:44:39.490102+01 | 1486176279.4901 | pgbench_accounts_pkey |        224641024

 2017-02-04 03:44:40.566898+01 | 1486176280.5669 | pgbench_branches_pkey |            57344
 2017-02-04 03:44:40.566898+01 | 1486176280.5669 | pgbench_tellers_pkey  |           253952
 2017-02-04 03:44:40.566898+01 | 1486176280.5669 | pgbench_accounts_pkey |        224641024

 2017-02-04 03:44:41.649787+01 | 1486176281.64979 | pgbench_branches_pkey |            57344
 2017-02-04 03:44:41.649787+01 | 1486176281.64979 | pgbench_tellers_pkey  |           253952
 2017-02-04 03:44:41.649787+01 | 1486176281.64979 | pgbench_accounts_pkey |        224641024

 2017-02-04 03:44:42.733194+01 | 1486176282.73319 | pgbench_branches_pkey |            57344
 2017-02-04 03:44:42.733194+01 | 1486176282.73319 | pgbench_tellers_pkey  |           253952
 2017-02-04 03:44:42.733194+01 | 1486176282.73319 | pgbench_accounts_pkey |        224641024

 2017-02-04 03:44:43.814531+01 | 1486176283.81453 | pgbench_branches_pkey |            57344
 2017-02-04 03:44:43.814531+01 | 1486176283.81453 | pgbench_tellers_pkey  |           253952
 2017-02-04 03:44:43.814531+01 | 1486176283.81453 | pgbench_accounts_pkey |        224641024

 2017-02-04 03:44:44.891297+01 | 1486176284.8913 | pgbench_branches_pkey |            57344
 2017-02-04 03:44:44.891297+01 | 1486176284.8913 | pgbench_tellers_pkey  |           253952
 2017-02-04 03:44:44.891297+01 | 1486176284.8913 | pgbench_accounts_pkey |        224641024

 2017-02-04 03:44:45.969045+01 | 1486176285.96904 | pgbench_branches_pkey |            57344
 2017-02-04 03:44:45.969045+01 | 1486176285.96904 | pgbench_tellers_pkey  |           253952
 2017-02-04 03:44:45.969045+01 | 1486176285.96904 | pgbench_accounts_pkey |        224641024

 2017-02-04 03:44:47.041602+01 | 1486176287.0416 | pgbench_branches_pkey |            57344
 2017-02-04 03:44:47.041602+01 | 1486176287.0416 | pgbench_tellers_pkey  |           253952
 2017-02-04 03:44:47.041602+01 | 1486176287.0416 | pgbench_accounts_pkey |        224641024

 2017-02-04 03:44:48.118305+01 | 1486176288.1183 | pgbench_branches_pkey |            57344
 2017-02-04 03:44:48.118305+01 | 1486176288.1183 | pgbench_tellers_pkey  |           253952
 2017-02-04 03:44:48.118305+01 | 1486176288.1183 | pgbench_accounts_pkey |        224641024

 2017-02-04 03:44:49.199434+01 | 1486176289.19943 | pgbench_branches_pkey |            57344
 2017-02-04 03:44:49.199434+01 | 1486176289.19943 | pgbench_tellers_pkey  |           253952
 2017-02-04 03:44:49.199434+01 | 1486176289.19943 | pgbench_accounts_pkey |        224641024

 2017-02-04 03:44:50.279117+01 | 1486176290.27912 | pgbench_branches_pkey |            57344
 2017-02-04 03:44:50.279117+01 | 1486176290.27912 | pgbench_tellers_pkey  |           253952
 2017-02-04 03:44:50.279117+01 | 1486176290.27912 | pgbench_accounts_pkey |        224641024

 2017-02-04 03:44:51.355446+01 | 1486176291.35545 | pgbench_branches_pkey |            57344
 2017-02-04 03:44:51.355446+01 | 1486176291.35545 | pgbench_tellers_pkey  |           253952
 2017-02-04 03:44:51.355446+01 | 1486176291.35545 | pgbench_accounts_pkey |        224641024

 2017-02-04 03:44:52.433275+01 | 1486176292.43327 | pgbench_branches_pkey |            57344
 2017-02-04 03:44:52.433275+01 | 1486176292.43327 | pgbench_tellers_pkey  |           253952
 2017-02-04 03:44:52.433275+01 | 1486176292.43327 | pgbench_accounts_pkey |        224641024

 2017-02-04 03:44:53.512872+01 | 1486176293.51287 | pgbench_branches_pkey |            57344
 2017-02-04 03:44:53.512872+01 | 1486176293.51287 | pgbench_tellers_pkey  |           253952
 2017-02-04 03:44:53.512872+01 | 1486176293.51287 | pgbench_accounts_pkey |        224641024

 2017-02-04 03:44:54.589466+01 | 1486176294.58947 | pgbench_branches_pkey |            57344
 2017-02-04 03:44:54.589466+01 | 1486176294.58947 | pgbench_tellers_pkey  |           253952
 2017-02-04 03:44:54.589466+01 | 1486176294.58947 | pgbench_accounts_pkey |        224641024

 2017-02-04 03:44:55.668924+01 | 1486176295.66892 | pgbench_branches_pkey |            57344
 2017-02-04 03:44:55.668924+01 | 1486176295.66892 | pgbench_tellers_pkey  |           253952
 2017-02-04 03:44:55.668924+01 | 1486176295.66892 | pgbench_accounts_pkey |        224641024

 2017-02-04 03:44:56.748265+01 | 1486176296.74827 | pgbench_branches_pkey |            57344
 2017-02-04 03:44:56.748265+01 | 1486176296.74827 | pgbench_tellers_pkey  |           253952
 2017-02-04 03:44:56.748265+01 | 1486176296.74827 | pgbench_accounts_pkey |        224641024

 2017-02-04 03:44:57.821744+01 | 1486176297.82174 | pgbench_branches_pkey |            57344
 2017-02-04 03:44:57.821744+01 | 1486176297.82174 | pgbench_tellers_pkey  |           253952
 2017-02-04 03:44:57.821744+01 | 1486176297.82174 | pgbench_accounts_pkey |        224641024

 2017-02-04 03:44:58.894988+01 | 1486176298.89499 | pgbench_branches_pkey |            57344
 2017-02-04 03:44:58.894988+01 | 1486176298.89499 | pgbench_tellers_pkey  |           253952
 2017-02-04 03:44:58.894988+01 | 1486176298.89499 | pgbench_accounts_pkey |        224641024

 2017-02-04 03:44:59.974718+01 | 1486176299.97472 | pgbench_branches_pkey |            57344
 2017-02-04 03:44:59.974718+01 | 1486176299.97472 | pgbench_tellers_pkey  |           253952
 2017-02-04 03:44:59.974718+01 | 1486176299.97472 | pgbench_accounts_pkey |        224641024

 2017-02-04 03:45:01.05358+01 | 1486176301.05358 | pgbench_branches_pkey |            57344
 2017-02-04 03:45:01.05358+01 | 1486176301.05358 | pgbench_tellers_pkey  |           253952
 2017-02-04 03:45:01.05358+01 | 1486176301.05358 | pgbench_accounts_pkey |        224641024

 2017-02-04 03:45:02.127535+01 | 1486176302.12754 | pgbench_branches_pkey |            57344
 2017-02-04 03:45:02.127535+01 | 1486176302.12754 | pgbench_tellers_pkey  |           253952
 2017-02-04 03:45:02.127535+01 | 1486176302.12754 | pgbench_accounts_pkey |        224641024

 2017-02-04 03:45:03.20636+01 | 1486176303.20636 | pgbench_branches_pkey |            57344
 2017-02-04 03:45:03.20636+01 | 1486176303.20636 | pgbench_tellers_pkey  |           253952
 2017-02-04 03:45:03.20636+01 | 1486176303.20636 | pgbench_accounts_pkey |        224641024

 2017-02-04 03:45:04.2897+01 | 1486176304.2897 | pgbench_branches_pkey |            57344
 2017-02-04 03:45:04.2897+01 | 1486176304.2897 | pgbench_tellers_pkey  |           253952
 2017-02-04 03:45:04.2897+01 | 1486176304.2897 | pgbench_accounts_pkey |        224641024

 2017-02-04 03:45:05.369088+01 | 1486176305.36909 | pgbench_branches_pkey |            57344
 2017-02-04 03:45:05.369088+01 | 1486176305.36909 | pgbench_tellers_pkey  |           253952
 2017-02-04 03:45:05.369088+01 | 1486176305.36909 | pgbench_accounts_pkey |        224641024

 2017-02-04 03:45:06.448168+01 | 1486176306.44817 | pgbench_branches_pkey |            57344
 2017-02-04 03:45:06.448168+01 | 1486176306.44817 | pgbench_tellers_pkey  |           253952
 2017-02-04 03:45:06.448168+01 | 1486176306.44817 | pgbench_accounts_pkey |        224641024

 2017-02-04 03:45:07.532378+01 | 1486176307.53238 | pgbench_branches_pkey |            57344
 2017-02-04 03:45:07.532378+01 | 1486176307.53238 | pgbench_tellers_pkey  |           253952
 2017-02-04 03:45:07.532378+01 | 1486176307.53238 | pgbench_accounts_pkey |        224641024

 2017-02-04 03:45:08.614294+01 | 1486176308.61429 | pgbench_branches_pkey |            57344
 2017-02-04 03:45:08.614294+01 | 1486176308.61429 | pgbench_tellers_pkey  |           253952
 2017-02-04 03:45:08.614294+01 | 1486176308.61429 | pgbench_accounts_pkey |        224641024

 2017-02-04 03:45:09.700954+01 | 1486176309.70095 | pgbench_branches_pkey |            57344
 2017-02-04 03:45:09.700954+01 | 1486176309.70095 | pgbench_tellers_pkey  |           253952
 2017-02-04 03:45:09.700954+01 | 1486176309.70095 | pgbench_accounts_pkey |        224641024

 2017-02-04 03:45:10.78056+01 | 1486176310.78056 | pgbench_branches_pkey |            57344
 2017-02-04 03:45:10.78056+01 | 1486176310.78056 | pgbench_tellers_pkey  |           253952
 2017-02-04 03:45:10.78056+01 | 1486176310.78056 | pgbench_accounts_pkey |        224641024

 2017-02-04 03:45:11.854388+01 | 1486176311.85439 | pgbench_branches_pkey |            57344
 2017-02-04 03:45:11.854388+01 | 1486176311.85439 | pgbench_tellers_pkey  |           253952
 2017-02-04 03:45:11.854388+01 | 1486176311.85439 | pgbench_accounts_pkey |        224641024

 2017-02-04 03:45:12.936816+01 | 1486176312.93682 | pgbench_branches_pkey |            57344
 2017-02-04 03:45:12.936816+01 | 1486176312.93682 | pgbench_tellers_pkey  |           253952
 2017-02-04 03:45:12.936816+01 | 1486176312.93682 | pgbench_accounts_pkey |        224641024

 2017-02-04 03:45:14.009739+01 | 1486176314.00974 | pgbench_branches_pkey |            57344
 2017-02-04 03:45:14.009739+01 | 1486176314.00974 | pgbench_tellers_pkey  |           253952
 2017-02-04 03:45:14.009739+01 | 1486176314.00974 | pgbench_accounts_pkey |        224641024

 2017-02-04 03:45:15.08863+01 | 1486176315.08863 | pgbench_branches_pkey |            57344
 2017-02-04 03:45:15.08863+01 | 1486176315.08863 | pgbench_tellers_pkey  |           253952
 2017-02-04 03:45:15.08863+01 | 1486176315.08863 | pgbench_accounts_pkey |        224641024

 2017-02-04 03:45:16.168584+01 | 1486176316.16858 | pgbench_branches_pkey |            57344
 2017-02-04 03:45:16.168584+01 | 1486176316.16858 | pgbench_tellers_pkey  |           253952
 2017-02-04 03:45:16.168584+01 | 1486176316.16858 | pgbench_accounts_pkey |        224641024

 2017-02-04 03:45:17.24677+01 | 1486176317.24677 | pgbench_branches_pkey |            57344
 2017-02-04 03:45:17.24677+01 | 1486176317.24677 | pgbench_tellers_pkey  |           253952
 2017-02-04 03:45:17.24677+01 | 1486176317.24677 | pgbench_accounts_pkey |        224641024

 2017-02-04 03:45:18.320425+01 | 1486176318.32043 | pgbench_branches_pkey |            57344
 2017-02-04 03:45:18.320425+01 | 1486176318.32043 | pgbench_tellers_pkey  |           253952
 2017-02-04 03:45:18.320425+01 | 1486176318.32043 | pgbench_accounts_pkey |        224641024

 2017-02-04 03:45:19.399144+01 | 1486176319.39914 | pgbench_branches_pkey |            57344
 2017-02-04 03:45:19.399144+01 | 1486176319.39914 | pgbench_tellers_pkey  |           253952
 2017-02-04 03:45:19.399144+01 | 1486176319.39914 | pgbench_accounts_pkey |        224641024

 2017-02-04 03:45:20.482135+01 | 1486176320.48214 | pgbench_branches_pkey |            57344
 2017-02-04 03:45:20.482135+01 | 1486176320.48214 | pgbench_tellers_pkey  |           253952
 2017-02-04 03:45:20.482135+01 | 1486176320.48214 | pgbench_accounts_pkey |        224641024

 2017-02-04 03:45:21.564156+01 | 1486176321.56416 | pgbench_branches_pkey |            57344
 2017-02-04 03:45:21.564156+01 | 1486176321.56416 | pgbench_tellers_pkey  |           253952
 2017-02-04 03:45:21.564156+01 | 1486176321.56416 | pgbench_accounts_pkey |        224641024

 2017-02-04 03:45:22.626459+01 | 1486176322.62646 | pgbench_branches_pkey |            57344
 2017-02-04 03:45:22.626459+01 | 1486176322.62646 | pgbench_tellers_pkey  |           253952
 2017-02-04 03:45:22.626459+01 | 1486176322.62646 | pgbench_accounts_pkey |        224641024

 2017-02-04 03:45:23.705963+01 | 1486176323.70596 | pgbench_branches_pkey |            57344
 2017-02-04 03:45:23.705963+01 | 1486176323.70596 | pgbench_tellers_pkey  |           253952
 2017-02-04 03:45:23.705963+01 | 1486176323.70596 | pgbench_accounts_pkey |        224641024

 2017-02-04 03:45:24.784617+01 | 1486176324.78462 | pgbench_branches_pkey |            57344
 2017-02-04 03:45:24.784617+01 | 1486176324.78462 | pgbench_tellers_pkey  |           253952
 2017-02-04 03:45:24.784617+01 | 1486176324.78462 | pgbench_accounts_pkey |        224641024

 2017-02-04 03:45:25.865244+01 | 1486176325.86524 | pgbench_branches_pkey |            57344
 2017-02-04 03:45:25.865244+01 | 1486176325.86524 | pgbench_tellers_pkey  |           253952
 2017-02-04 03:45:25.865244+01 | 1486176325.86524 | pgbench_accounts_pkey |        224641024

 2017-02-04 03:45:26.939349+01 | 1486176326.93935 | pgbench_branches_pkey |            57344
 2017-02-04 03:45:26.939349+01 | 1486176326.93935 | pgbench_tellers_pkey  |           253952
 2017-02-04 03:45:26.939349+01 | 1486176326.93935 | pgbench_accounts_pkey |        224641024

 2017-02-04 03:45:28.010949+01 | 1486176328.01095 | pgbench_branches_pkey |            57344
 2017-02-04 03:45:28.010949+01 | 1486176328.01095 | pgbench_tellers_pkey  |           253952
 2017-02-04 03:45:28.010949+01 | 1486176328.01095 | pgbench_accounts_pkey |        224641024

 2017-02-04 03:45:29.089758+01 | 1486176329.08976 | pgbench_branches_pkey |            57344
 2017-02-04 03:45:29.089758+01 | 1486176329.08976 | pgbench_tellers_pkey  |           253952
 2017-02-04 03:45:29.089758+01 | 1486176329.08976 | pgbench_accounts_pkey |        224641024

