 2017-02-04 17:53:09.89193+01 | 1486227189.89193 | pgbench_branches_pkey |            57344
 2017-02-04 17:53:09.89193+01 | 1486227189.89193 | pgbench_tellers_pkey  |           278528
 2017-02-04 17:53:09.89193+01 | 1486227189.89193 | pgbench_accounts_pkey |        224641024

 2017-02-04 17:53:10.993732+01 | 1486227190.99373 | pgbench_branches_pkey |            57344
 2017-02-04 17:53:10.993732+01 | 1486227190.99373 | pgbench_tellers_pkey  |           278528
 2017-02-04 17:53:10.993732+01 | 1486227190.99373 | pgbench_accounts_pkey |        224641024

 2017-02-04 17:53:12.083435+01 | 1486227192.08344 | pgbench_branches_pkey |            57344
 2017-02-04 17:53:12.083435+01 | 1486227192.08344 | pgbench_tellers_pkey  |           278528
 2017-02-04 17:53:12.083435+01 | 1486227192.08344 | pgbench_accounts_pkey |        224641024

 2017-02-04 17:53:13.167217+01 | 1486227193.16722 | pgbench_branches_pkey |            57344
 2017-02-04 17:53:13.167217+01 | 1486227193.16722 | pgbench_tellers_pkey  |           278528
 2017-02-04 17:53:13.167217+01 | 1486227193.16722 | pgbench_accounts_pkey |        224641024

 2017-02-04 17:53:14.248445+01 | 1486227194.24845 | pgbench_branches_pkey |            57344
 2017-02-04 17:53:14.248445+01 | 1486227194.24845 | pgbench_tellers_pkey  |           278528
 2017-02-04 17:53:14.248445+01 | 1486227194.24845 | pgbench_accounts_pkey |        224641024

 2017-02-04 17:53:15.333333+01 | 1486227195.33333 | pgbench_branches_pkey |            57344
 2017-02-04 17:53:15.333333+01 | 1486227195.33333 | pgbench_tellers_pkey  |           278528
 2017-02-04 17:53:15.333333+01 | 1486227195.33333 | pgbench_accounts_pkey |        224641024

 2017-02-04 17:53:16.415906+01 | 1486227196.41591 | pgbench_branches_pkey |            57344
 2017-02-04 17:53:16.415906+01 | 1486227196.41591 | pgbench_tellers_pkey  |           278528
 2017-02-04 17:53:16.415906+01 | 1486227196.41591 | pgbench_accounts_pkey |        224641024

 2017-02-04 17:53:17.49993+01 | 1486227197.49993 | pgbench_branches_pkey |            57344
 2017-02-04 17:53:17.49993+01 | 1486227197.49993 | pgbench_tellers_pkey  |           278528
 2017-02-04 17:53:17.49993+01 | 1486227197.49993 | pgbench_accounts_pkey |        224641024

 2017-02-04 17:53:18.586593+01 | 1486227198.58659 | pgbench_branches_pkey |            57344
 2017-02-04 17:53:18.586593+01 | 1486227198.58659 | pgbench_tellers_pkey  |           278528
 2017-02-04 17:53:18.586593+01 | 1486227198.58659 | pgbench_accounts_pkey |        224641024

 2017-02-04 17:53:19.669316+01 | 1486227199.66932 | pgbench_branches_pkey |            57344
 2017-02-04 17:53:19.669316+01 | 1486227199.66932 | pgbench_tellers_pkey  |           278528
 2017-02-04 17:53:19.669316+01 | 1486227199.66932 | pgbench_accounts_pkey |        224641024

 2017-02-04 17:53:20.746839+01 | 1486227200.74684 | pgbench_branches_pkey |            57344
 2017-02-04 17:53:20.746839+01 | 1486227200.74684 | pgbench_tellers_pkey  |           278528
 2017-02-04 17:53:20.746839+01 | 1486227200.74684 | pgbench_accounts_pkey |        224641024

 2017-02-04 17:53:21.826002+01 | 1486227201.826 | pgbench_branches_pkey |            57344
 2017-02-04 17:53:21.826002+01 | 1486227201.826 | pgbench_tellers_pkey  |           278528
 2017-02-04 17:53:21.826002+01 | 1486227201.826 | pgbench_accounts_pkey |        224641024

 2017-02-04 17:53:22.908279+01 | 1486227202.90828 | pgbench_branches_pkey |            57344
 2017-02-04 17:53:22.908279+01 | 1486227202.90828 | pgbench_tellers_pkey  |           278528
 2017-02-04 17:53:22.908279+01 | 1486227202.90828 | pgbench_accounts_pkey |        224641024

 2017-02-04 17:53:23.99249+01 | 1486227203.99249 | pgbench_branches_pkey |            57344
 2017-02-04 17:53:23.99249+01 | 1486227203.99249 | pgbench_tellers_pkey  |           278528
 2017-02-04 17:53:23.99249+01 | 1486227203.99249 | pgbench_accounts_pkey |        224641024

 2017-02-04 17:53:25.074824+01 | 1486227205.07482 | pgbench_branches_pkey |            57344
 2017-02-04 17:53:25.074824+01 | 1486227205.07482 | pgbench_tellers_pkey  |           278528
 2017-02-04 17:53:25.074824+01 | 1486227205.07482 | pgbench_accounts_pkey |        224641024

 2017-02-04 17:53:26.157985+01 | 1486227206.15798 | pgbench_branches_pkey |            57344
 2017-02-04 17:53:26.157985+01 | 1486227206.15798 | pgbench_tellers_pkey  |           278528
 2017-02-04 17:53:26.157985+01 | 1486227206.15798 | pgbench_accounts_pkey |        224641024

 2017-02-04 17:53:27.248107+01 | 1486227207.24811 | pgbench_branches_pkey |            57344
 2017-02-04 17:53:27.248107+01 | 1486227207.24811 | pgbench_tellers_pkey  |           278528
 2017-02-04 17:53:27.248107+01 | 1486227207.24811 | pgbench_accounts_pkey |        224641024

 2017-02-04 17:53:28.325033+01 | 1486227208.32503 | pgbench_branches_pkey |            57344
 2017-02-04 17:53:28.325033+01 | 1486227208.32503 | pgbench_tellers_pkey  |           278528
 2017-02-04 17:53:28.325033+01 | 1486227208.32503 | pgbench_accounts_pkey |        224641024

 2017-02-04 17:53:29.411438+01 | 1486227209.41144 | pgbench_branches_pkey |            57344
 2017-02-04 17:53:29.411438+01 | 1486227209.41144 | pgbench_tellers_pkey  |           278528
 2017-02-04 17:53:29.411438+01 | 1486227209.41144 | pgbench_accounts_pkey |        224641024

 2017-02-04 17:53:30.497688+01 | 1486227210.49769 | pgbench_branches_pkey |            57344
 2017-02-04 17:53:30.497688+01 | 1486227210.49769 | pgbench_tellers_pkey  |           278528
 2017-02-04 17:53:30.497688+01 | 1486227210.49769 | pgbench_accounts_pkey |        224641024

 2017-02-04 17:53:31.580728+01 | 1486227211.58073 | pgbench_branches_pkey |            57344
 2017-02-04 17:53:31.580728+01 | 1486227211.58073 | pgbench_tellers_pkey  |           278528
 2017-02-04 17:53:31.580728+01 | 1486227211.58073 | pgbench_accounts_pkey |        224641024

 2017-02-04 17:53:32.66443+01 | 1486227212.66443 | pgbench_branches_pkey |            57344
 2017-02-04 17:53:32.66443+01 | 1486227212.66443 | pgbench_tellers_pkey  |           278528
 2017-02-04 17:53:32.66443+01 | 1486227212.66443 | pgbench_accounts_pkey |        224641024

 2017-02-04 17:53:33.748392+01 | 1486227213.74839 | pgbench_branches_pkey |            57344
 2017-02-04 17:53:33.748392+01 | 1486227213.74839 | pgbench_tellers_pkey  |           278528
 2017-02-04 17:53:33.748392+01 | 1486227213.74839 | pgbench_accounts_pkey |        224641024

 2017-02-04 17:53:34.82311+01 | 1486227214.82311 | pgbench_branches_pkey |            57344
 2017-02-04 17:53:34.82311+01 | 1486227214.82311 | pgbench_tellers_pkey  |           278528
 2017-02-04 17:53:34.82311+01 | 1486227214.82311 | pgbench_accounts_pkey |        224641024

 2017-02-04 17:53:35.901007+01 | 1486227215.90101 | pgbench_branches_pkey |            57344
 2017-02-04 17:53:35.901007+01 | 1486227215.90101 | pgbench_tellers_pkey  |           278528
 2017-02-04 17:53:35.901007+01 | 1486227215.90101 | pgbench_accounts_pkey |        224641024

 2017-02-04 17:53:36.985503+01 | 1486227216.9855 | pgbench_branches_pkey |            57344
 2017-02-04 17:53:36.985503+01 | 1486227216.9855 | pgbench_tellers_pkey  |           278528
 2017-02-04 17:53:36.985503+01 | 1486227216.9855 | pgbench_accounts_pkey |        224641024

 2017-02-04 17:53:38.073162+01 | 1486227218.07316 | pgbench_branches_pkey |            57344
 2017-02-04 17:53:38.073162+01 | 1486227218.07316 | pgbench_tellers_pkey  |           278528
 2017-02-04 17:53:38.073162+01 | 1486227218.07316 | pgbench_accounts_pkey |        224641024

 2017-02-04 17:53:39.165206+01 | 1486227219.16521 | pgbench_branches_pkey |            57344
 2017-02-04 17:53:39.165206+01 | 1486227219.16521 | pgbench_tellers_pkey  |           278528
 2017-02-04 17:53:39.165206+01 | 1486227219.16521 | pgbench_accounts_pkey |        224641024

 2017-02-04 17:53:40.251911+01 | 1486227220.25191 | pgbench_branches_pkey |            57344
 2017-02-04 17:53:40.251911+01 | 1486227220.25191 | pgbench_tellers_pkey  |           278528
 2017-02-04 17:53:40.251911+01 | 1486227220.25191 | pgbench_accounts_pkey |        224641024

 2017-02-04 17:53:41.339567+01 | 1486227221.33957 | pgbench_branches_pkey |            57344
 2017-02-04 17:53:41.339567+01 | 1486227221.33957 | pgbench_tellers_pkey  |           278528
 2017-02-04 17:53:41.339567+01 | 1486227221.33957 | pgbench_accounts_pkey |        224641024

 2017-02-04 17:53:42.415206+01 | 1486227222.41521 | pgbench_branches_pkey |            57344
 2017-02-04 17:53:42.415206+01 | 1486227222.41521 | pgbench_tellers_pkey  |           278528
 2017-02-04 17:53:42.415206+01 | 1486227222.41521 | pgbench_accounts_pkey |        224641024

 2017-02-04 17:53:43.502717+01 | 1486227223.50272 | pgbench_branches_pkey |            57344
 2017-02-04 17:53:43.502717+01 | 1486227223.50272 | pgbench_tellers_pkey  |           278528
 2017-02-04 17:53:43.502717+01 | 1486227223.50272 | pgbench_accounts_pkey |        224641024

 2017-02-04 17:53:44.57897+01 | 1486227224.57897 | pgbench_branches_pkey |            57344
 2017-02-04 17:53:44.57897+01 | 1486227224.57897 | pgbench_tellers_pkey  |           278528
 2017-02-04 17:53:44.57897+01 | 1486227224.57897 | pgbench_accounts_pkey |        224641024

 2017-02-04 17:53:45.657319+01 | 1486227225.65732 | pgbench_branches_pkey |            57344
 2017-02-04 17:53:45.657319+01 | 1486227225.65732 | pgbench_tellers_pkey  |           278528
 2017-02-04 17:53:45.657319+01 | 1486227225.65732 | pgbench_accounts_pkey |        224641024

 2017-02-04 17:53:46.740006+01 | 1486227226.74001 | pgbench_branches_pkey |            57344
 2017-02-04 17:53:46.740006+01 | 1486227226.74001 | pgbench_tellers_pkey  |           278528
 2017-02-04 17:53:46.740006+01 | 1486227226.74001 | pgbench_accounts_pkey |        224641024

 2017-02-04 17:53:47.817822+01 | 1486227227.81782 | pgbench_branches_pkey |            57344
 2017-02-04 17:53:47.817822+01 | 1486227227.81782 | pgbench_tellers_pkey  |           278528
 2017-02-04 17:53:47.817822+01 | 1486227227.81782 | pgbench_accounts_pkey |        224641024

 2017-02-04 17:53:48.900424+01 | 1486227228.90042 | pgbench_branches_pkey |            57344
 2017-02-04 17:53:48.900424+01 | 1486227228.90042 | pgbench_tellers_pkey  |           278528
 2017-02-04 17:53:48.900424+01 | 1486227228.90042 | pgbench_accounts_pkey |        224641024

 2017-02-04 17:53:49.991729+01 | 1486227229.99173 | pgbench_branches_pkey |            57344
 2017-02-04 17:53:49.991729+01 | 1486227229.99173 | pgbench_tellers_pkey  |           278528
 2017-02-04 17:53:49.991729+01 | 1486227229.99173 | pgbench_accounts_pkey |        224641024

 2017-02-04 17:53:51.080793+01 | 1486227231.08079 | pgbench_branches_pkey |            57344
 2017-02-04 17:53:51.080793+01 | 1486227231.08079 | pgbench_tellers_pkey  |           278528
 2017-02-04 17:53:51.080793+01 | 1486227231.08079 | pgbench_accounts_pkey |        224641024

 2017-02-04 17:53:52.170244+01 | 1486227232.17024 | pgbench_branches_pkey |            57344
 2017-02-04 17:53:52.170244+01 | 1486227232.17024 | pgbench_tellers_pkey  |           278528
 2017-02-04 17:53:52.170244+01 | 1486227232.17024 | pgbench_accounts_pkey |        224641024

 2017-02-04 17:53:53.253352+01 | 1486227233.25335 | pgbench_branches_pkey |            57344
 2017-02-04 17:53:53.253352+01 | 1486227233.25335 | pgbench_tellers_pkey  |           278528
 2017-02-04 17:53:53.253352+01 | 1486227233.25335 | pgbench_accounts_pkey |        224641024

 2017-02-04 17:53:54.333812+01 | 1486227234.33381 | pgbench_branches_pkey |            57344
 2017-02-04 17:53:54.333812+01 | 1486227234.33381 | pgbench_tellers_pkey  |           278528
 2017-02-04 17:53:54.333812+01 | 1486227234.33381 | pgbench_accounts_pkey |        224641024

 2017-02-04 17:53:55.415917+01 | 1486227235.41592 | pgbench_branches_pkey |            57344
 2017-02-04 17:53:55.415917+01 | 1486227235.41592 | pgbench_tellers_pkey  |           278528
 2017-02-04 17:53:55.415917+01 | 1486227235.41592 | pgbench_accounts_pkey |        224641024

 2017-02-04 17:53:56.496659+01 | 1486227236.49666 | pgbench_branches_pkey |            57344
 2017-02-04 17:53:56.496659+01 | 1486227236.49666 | pgbench_tellers_pkey  |           278528
 2017-02-04 17:53:56.496659+01 | 1486227236.49666 | pgbench_accounts_pkey |        224641024

 2017-02-04 17:53:57.581076+01 | 1486227237.58108 | pgbench_branches_pkey |            57344
 2017-02-04 17:53:57.581076+01 | 1486227237.58108 | pgbench_tellers_pkey  |           278528
 2017-02-04 17:53:57.581076+01 | 1486227237.58108 | pgbench_accounts_pkey |        224641024

 2017-02-04 17:53:58.664533+01 | 1486227238.66453 | pgbench_branches_pkey |            57344
 2017-02-04 17:53:58.664533+01 | 1486227238.66453 | pgbench_tellers_pkey  |           278528
 2017-02-04 17:53:58.664533+01 | 1486227238.66453 | pgbench_accounts_pkey |        224641024

 2017-02-04 17:53:59.746442+01 | 1486227239.74644 | pgbench_branches_pkey |            57344
 2017-02-04 17:53:59.746442+01 | 1486227239.74644 | pgbench_tellers_pkey  |           278528
 2017-02-04 17:53:59.746442+01 | 1486227239.74644 | pgbench_accounts_pkey |        224641024

 2017-02-04 17:54:00.822684+01 | 1486227240.82268 | pgbench_branches_pkey |            57344
 2017-02-04 17:54:00.822684+01 | 1486227240.82268 | pgbench_tellers_pkey  |           278528
 2017-02-04 17:54:00.822684+01 | 1486227240.82268 | pgbench_accounts_pkey |        224641024

 2017-02-04 17:54:01.902131+01 | 1486227241.90213 | pgbench_branches_pkey |            57344
 2017-02-04 17:54:01.902131+01 | 1486227241.90213 | pgbench_tellers_pkey  |           278528
 2017-02-04 17:54:01.902131+01 | 1486227241.90213 | pgbench_accounts_pkey |        224641024

 2017-02-04 17:54:02.981225+01 | 1486227242.98123 | pgbench_branches_pkey |            57344
 2017-02-04 17:54:02.981225+01 | 1486227242.98123 | pgbench_tellers_pkey  |           278528
 2017-02-04 17:54:02.981225+01 | 1486227242.98123 | pgbench_accounts_pkey |        224641024

 2017-02-04 17:54:04.050075+01 | 1486227244.05008 | pgbench_branches_pkey |            57344
 2017-02-04 17:54:04.050075+01 | 1486227244.05008 | pgbench_tellers_pkey  |           278528
 2017-02-04 17:54:04.050075+01 | 1486227244.05008 | pgbench_accounts_pkey |        224641024

 2017-02-04 17:54:05.142403+01 | 1486227245.1424 | pgbench_branches_pkey |            57344
 2017-02-04 17:54:05.142403+01 | 1486227245.1424 | pgbench_tellers_pkey  |           278528
 2017-02-04 17:54:05.142403+01 | 1486227245.1424 | pgbench_accounts_pkey |        224641024

 2017-02-04 17:54:06.222077+01 | 1486227246.22208 | pgbench_branches_pkey |            57344
 2017-02-04 17:54:06.222077+01 | 1486227246.22208 | pgbench_tellers_pkey  |           278528
 2017-02-04 17:54:06.222077+01 | 1486227246.22208 | pgbench_accounts_pkey |        224641024

 2017-02-04 17:54:07.311348+01 | 1486227247.31135 | pgbench_branches_pkey |            57344
 2017-02-04 17:54:07.311348+01 | 1486227247.31135 | pgbench_tellers_pkey  |           278528
 2017-02-04 17:54:07.311348+01 | 1486227247.31135 | pgbench_accounts_pkey |        224641024

 2017-02-04 17:54:08.398509+01 | 1486227248.39851 | pgbench_branches_pkey |            57344
 2017-02-04 17:54:08.398509+01 | 1486227248.39851 | pgbench_tellers_pkey  |           278528
 2017-02-04 17:54:08.398509+01 | 1486227248.39851 | pgbench_accounts_pkey |        224641024

 2017-02-04 17:54:09.47768+01 | 1486227249.47768 | pgbench_branches_pkey |            57344
 2017-02-04 17:54:09.47768+01 | 1486227249.47768 | pgbench_tellers_pkey  |           278528
 2017-02-04 17:54:09.47768+01 | 1486227249.47768 | pgbench_accounts_pkey |        224641024

 2017-02-04 17:54:10.560804+01 | 1486227250.5608 | pgbench_branches_pkey |            57344
 2017-02-04 17:54:10.560804+01 | 1486227250.5608 | pgbench_tellers_pkey  |           278528
 2017-02-04 17:54:10.560804+01 | 1486227250.5608 | pgbench_accounts_pkey |        224641024

 2017-02-04 17:54:11.642167+01 | 1486227251.64217 | pgbench_branches_pkey |            57344
 2017-02-04 17:54:11.642167+01 | 1486227251.64217 | pgbench_tellers_pkey  |           278528
 2017-02-04 17:54:11.642167+01 | 1486227251.64217 | pgbench_accounts_pkey |        224641024

 2017-02-04 17:54:12.730561+01 | 1486227252.73056 | pgbench_branches_pkey |            57344
 2017-02-04 17:54:12.730561+01 | 1486227252.73056 | pgbench_tellers_pkey  |           278528
 2017-02-04 17:54:12.730561+01 | 1486227252.73056 | pgbench_accounts_pkey |        224641024

 2017-02-04 17:54:13.813051+01 | 1486227253.81305 | pgbench_branches_pkey |            57344
 2017-02-04 17:54:13.813051+01 | 1486227253.81305 | pgbench_tellers_pkey  |           278528
 2017-02-04 17:54:13.813051+01 | 1486227253.81305 | pgbench_accounts_pkey |        224641024

 2017-02-04 17:54:14.891144+01 | 1486227254.89114 | pgbench_branches_pkey |            57344
 2017-02-04 17:54:14.891144+01 | 1486227254.89114 | pgbench_tellers_pkey  |           278528
 2017-02-04 17:54:14.891144+01 | 1486227254.89114 | pgbench_accounts_pkey |        224641024

 2017-02-04 17:54:15.966748+01 | 1486227255.96675 | pgbench_branches_pkey |            57344
 2017-02-04 17:54:15.966748+01 | 1486227255.96675 | pgbench_tellers_pkey  |           278528
 2017-02-04 17:54:15.966748+01 | 1486227255.96675 | pgbench_accounts_pkey |        224641024

 2017-02-04 17:54:17.0512+01 | 1486227257.0512 | pgbench_branches_pkey |            57344
 2017-02-04 17:54:17.0512+01 | 1486227257.0512 | pgbench_tellers_pkey  |           278528
 2017-02-04 17:54:17.0512+01 | 1486227257.0512 | pgbench_accounts_pkey |        224641024

 2017-02-04 17:54:18.144031+01 | 1486227258.14403 | pgbench_branches_pkey |            57344
 2017-02-04 17:54:18.144031+01 | 1486227258.14403 | pgbench_tellers_pkey  |           278528
 2017-02-04 17:54:18.144031+01 | 1486227258.14403 | pgbench_accounts_pkey |        224641024

 2017-02-04 17:54:19.237562+01 | 1486227259.23756 | pgbench_branches_pkey |            57344
 2017-02-04 17:54:19.237562+01 | 1486227259.23756 | pgbench_tellers_pkey  |           278528
 2017-02-04 17:54:19.237562+01 | 1486227259.23756 | pgbench_accounts_pkey |        224641024

 2017-02-04 17:54:20.33177+01 | 1486227260.33177 | pgbench_branches_pkey |            57344
 2017-02-04 17:54:20.33177+01 | 1486227260.33177 | pgbench_tellers_pkey  |           278528
 2017-02-04 17:54:20.33177+01 | 1486227260.33177 | pgbench_accounts_pkey |        224641024

 2017-02-04 17:54:21.421358+01 | 1486227261.42136 | pgbench_branches_pkey |            57344
 2017-02-04 17:54:21.421358+01 | 1486227261.42136 | pgbench_tellers_pkey  |           278528
 2017-02-04 17:54:21.421358+01 | 1486227261.42136 | pgbench_accounts_pkey |        224641024

 2017-02-04 17:54:22.502174+01 | 1486227262.50217 | pgbench_branches_pkey |            57344
 2017-02-04 17:54:22.502174+01 | 1486227262.50217 | pgbench_tellers_pkey  |           278528
 2017-02-04 17:54:22.502174+01 | 1486227262.50217 | pgbench_accounts_pkey |        224641024

 2017-02-04 17:54:23.587753+01 | 1486227263.58775 | pgbench_branches_pkey |            57344
 2017-02-04 17:54:23.587753+01 | 1486227263.58775 | pgbench_tellers_pkey  |           278528
 2017-02-04 17:54:23.587753+01 | 1486227263.58775 | pgbench_accounts_pkey |        224641024

 2017-02-04 17:54:24.678585+01 | 1486227264.67859 | pgbench_branches_pkey |            57344
 2017-02-04 17:54:24.678585+01 | 1486227264.67859 | pgbench_tellers_pkey  |           278528
 2017-02-04 17:54:24.678585+01 | 1486227264.67859 | pgbench_accounts_pkey |        224641024

 2017-02-04 17:54:25.759268+01 | 1486227265.75927 | pgbench_branches_pkey |            57344
 2017-02-04 17:54:25.759268+01 | 1486227265.75927 | pgbench_tellers_pkey  |           278528
 2017-02-04 17:54:25.759268+01 | 1486227265.75927 | pgbench_accounts_pkey |        224641024

 2017-02-04 17:54:26.852672+01 | 1486227266.85267 | pgbench_branches_pkey |            57344
 2017-02-04 17:54:26.852672+01 | 1486227266.85267 | pgbench_tellers_pkey  |           278528
 2017-02-04 17:54:26.852672+01 | 1486227266.85267 | pgbench_accounts_pkey |        224641024

 2017-02-04 17:54:27.935194+01 | 1486227267.93519 | pgbench_branches_pkey |            57344
 2017-02-04 17:54:27.935194+01 | 1486227267.93519 | pgbench_tellers_pkey  |           278528
 2017-02-04 17:54:27.935194+01 | 1486227267.93519 | pgbench_accounts_pkey |        224641024

 2017-02-04 17:54:29.014366+01 | 1486227269.01437 | pgbench_branches_pkey |            57344
 2017-02-04 17:54:29.014366+01 | 1486227269.01437 | pgbench_tellers_pkey  |           278528
 2017-02-04 17:54:29.014366+01 | 1486227269.01437 | pgbench_accounts_pkey |        224641024

 2017-02-04 17:54:30.096246+01 | 1486227270.09625 | pgbench_branches_pkey |            57344
 2017-02-04 17:54:30.096246+01 | 1486227270.09625 | pgbench_tellers_pkey  |           278528
 2017-02-04 17:54:30.096246+01 | 1486227270.09625 | pgbench_accounts_pkey |        224641024

 2017-02-04 17:54:31.18496+01 | 1486227271.18496 | pgbench_branches_pkey |            57344
 2017-02-04 17:54:31.18496+01 | 1486227271.18496 | pgbench_tellers_pkey  |           278528
 2017-02-04 17:54:31.18496+01 | 1486227271.18496 | pgbench_accounts_pkey |        224641024

 2017-02-04 17:54:32.274192+01 | 1486227272.27419 | pgbench_branches_pkey |            57344
 2017-02-04 17:54:32.274192+01 | 1486227272.27419 | pgbench_tellers_pkey  |           278528
 2017-02-04 17:54:32.274192+01 | 1486227272.27419 | pgbench_accounts_pkey |        224641024

 2017-02-04 17:54:33.36549+01 | 1486227273.36549 | pgbench_branches_pkey |            57344
 2017-02-04 17:54:33.36549+01 | 1486227273.36549 | pgbench_tellers_pkey  |           278528
 2017-02-04 17:54:33.36549+01 | 1486227273.36549 | pgbench_accounts_pkey |        224641024

 2017-02-04 17:54:34.456231+01 | 1486227274.45623 | pgbench_branches_pkey |            57344
 2017-02-04 17:54:34.456231+01 | 1486227274.45623 | pgbench_tellers_pkey  |           278528
 2017-02-04 17:54:34.456231+01 | 1486227274.45623 | pgbench_accounts_pkey |        224641024

 2017-02-04 17:54:35.529358+01 | 1486227275.52936 | pgbench_branches_pkey |            57344
 2017-02-04 17:54:35.529358+01 | 1486227275.52936 | pgbench_tellers_pkey  |           278528
 2017-02-04 17:54:35.529358+01 | 1486227275.52936 | pgbench_accounts_pkey |        224641024

 2017-02-04 17:54:36.610172+01 | 1486227276.61017 | pgbench_branches_pkey |            57344
 2017-02-04 17:54:36.610172+01 | 1486227276.61017 | pgbench_tellers_pkey  |           278528
 2017-02-04 17:54:36.610172+01 | 1486227276.61017 | pgbench_accounts_pkey |        224641024

 2017-02-04 17:54:37.695735+01 | 1486227277.69573 | pgbench_branches_pkey |            57344
 2017-02-04 17:54:37.695735+01 | 1486227277.69573 | pgbench_tellers_pkey  |           278528
 2017-02-04 17:54:37.695735+01 | 1486227277.69573 | pgbench_accounts_pkey |        224641024

 2017-02-04 17:54:38.776357+01 | 1486227278.77636 | pgbench_branches_pkey |            57344
 2017-02-04 17:54:38.776357+01 | 1486227278.77636 | pgbench_tellers_pkey  |           278528
 2017-02-04 17:54:38.776357+01 | 1486227278.77636 | pgbench_accounts_pkey |        224641024

 2017-02-04 17:54:39.856661+01 | 1486227279.85666 | pgbench_branches_pkey |            57344
 2017-02-04 17:54:39.856661+01 | 1486227279.85666 | pgbench_tellers_pkey  |           278528
 2017-02-04 17:54:39.856661+01 | 1486227279.85666 | pgbench_accounts_pkey |        224641024

 2017-02-04 17:54:40.935772+01 | 1486227280.93577 | pgbench_branches_pkey |            57344
 2017-02-04 17:54:40.935772+01 | 1486227280.93577 | pgbench_tellers_pkey  |           278528
 2017-02-04 17:54:40.935772+01 | 1486227280.93577 | pgbench_accounts_pkey |        224641024

 2017-02-04 17:54:42.013036+01 | 1486227282.01304 | pgbench_branches_pkey |            57344
 2017-02-04 17:54:42.013036+01 | 1486227282.01304 | pgbench_tellers_pkey  |           278528
 2017-02-04 17:54:42.013036+01 | 1486227282.01304 | pgbench_accounts_pkey |        224641024

 2017-02-04 17:54:43.099782+01 | 1486227283.09978 | pgbench_branches_pkey |            57344
 2017-02-04 17:54:43.099782+01 | 1486227283.09978 | pgbench_tellers_pkey  |           278528
 2017-02-04 17:54:43.099782+01 | 1486227283.09978 | pgbench_accounts_pkey |        224641024

 2017-02-04 17:54:44.191208+01 | 1486227284.19121 | pgbench_branches_pkey |            57344
 2017-02-04 17:54:44.191208+01 | 1486227284.19121 | pgbench_tellers_pkey  |           278528
 2017-02-04 17:54:44.191208+01 | 1486227284.19121 | pgbench_accounts_pkey |        224641024

 2017-02-04 17:54:45.277966+01 | 1486227285.27797 | pgbench_branches_pkey |            57344
 2017-02-04 17:54:45.277966+01 | 1486227285.27797 | pgbench_tellers_pkey  |           278528
 2017-02-04 17:54:45.277966+01 | 1486227285.27797 | pgbench_accounts_pkey |        224641024

 2017-02-04 17:54:46.362146+01 | 1486227286.36215 | pgbench_branches_pkey |            57344
 2017-02-04 17:54:46.362146+01 | 1486227286.36215 | pgbench_tellers_pkey  |           278528
 2017-02-04 17:54:46.362146+01 | 1486227286.36215 | pgbench_accounts_pkey |        224641024

 2017-02-04 17:54:47.443436+01 | 1486227287.44344 | pgbench_branches_pkey |            57344
 2017-02-04 17:54:47.443436+01 | 1486227287.44344 | pgbench_tellers_pkey  |           278528
 2017-02-04 17:54:47.443436+01 | 1486227287.44344 | pgbench_accounts_pkey |        224641024

 2017-02-04 17:54:48.524557+01 | 1486227288.52456 | pgbench_branches_pkey |            57344
 2017-02-04 17:54:48.524557+01 | 1486227288.52456 | pgbench_tellers_pkey  |           278528
 2017-02-04 17:54:48.524557+01 | 1486227288.52456 | pgbench_accounts_pkey |        224641024

 2017-02-04 17:54:49.608357+01 | 1486227289.60836 | pgbench_branches_pkey |            57344
 2017-02-04 17:54:49.608357+01 | 1486227289.60836 | pgbench_tellers_pkey  |           278528
 2017-02-04 17:54:49.608357+01 | 1486227289.60836 | pgbench_accounts_pkey |        224641024

 2017-02-04 17:54:50.69012+01 | 1486227290.69012 | pgbench_branches_pkey |            57344
 2017-02-04 17:54:50.69012+01 | 1486227290.69012 | pgbench_tellers_pkey  |           278528
 2017-02-04 17:54:50.69012+01 | 1486227290.69012 | pgbench_accounts_pkey |        224641024

 2017-02-04 17:54:51.776416+01 | 1486227291.77642 | pgbench_branches_pkey |            57344
 2017-02-04 17:54:51.776416+01 | 1486227291.77642 | pgbench_tellers_pkey  |           278528
 2017-02-04 17:54:51.776416+01 | 1486227291.77642 | pgbench_accounts_pkey |        224641024

 2017-02-04 17:54:52.85209+01 | 1486227292.85209 | pgbench_branches_pkey |            57344
 2017-02-04 17:54:52.85209+01 | 1486227292.85209 | pgbench_tellers_pkey  |           278528
 2017-02-04 17:54:52.85209+01 | 1486227292.85209 | pgbench_accounts_pkey |        224641024

 2017-02-04 17:54:53.930154+01 | 1486227293.93015 | pgbench_branches_pkey |            57344
 2017-02-04 17:54:53.930154+01 | 1486227293.93015 | pgbench_tellers_pkey  |           278528
 2017-02-04 17:54:53.930154+01 | 1486227293.93015 | pgbench_accounts_pkey |        224641024

 2017-02-04 17:54:55.008718+01 | 1486227295.00872 | pgbench_branches_pkey |            57344
 2017-02-04 17:54:55.008718+01 | 1486227295.00872 | pgbench_tellers_pkey  |           278528
 2017-02-04 17:54:55.008718+01 | 1486227295.00872 | pgbench_accounts_pkey |        224641024

 2017-02-04 17:54:56.088755+01 | 1486227296.08875 | pgbench_branches_pkey |            57344
 2017-02-04 17:54:56.088755+01 | 1486227296.08875 | pgbench_tellers_pkey  |           278528
 2017-02-04 17:54:56.088755+01 | 1486227296.08875 | pgbench_accounts_pkey |        224641024

 2017-02-04 17:54:57.170213+01 | 1486227297.17021 | pgbench_branches_pkey |            57344
 2017-02-04 17:54:57.170213+01 | 1486227297.17021 | pgbench_tellers_pkey  |           278528
 2017-02-04 17:54:57.170213+01 | 1486227297.17021 | pgbench_accounts_pkey |        224641024

 2017-02-04 17:54:58.256329+01 | 1486227298.25633 | pgbench_branches_pkey |            57344
 2017-02-04 17:54:58.256329+01 | 1486227298.25633 | pgbench_tellers_pkey  |           278528
 2017-02-04 17:54:58.256329+01 | 1486227298.25633 | pgbench_accounts_pkey |        224641024

 2017-02-04 17:54:59.34181+01 | 1486227299.34181 | pgbench_branches_pkey |            57344
 2017-02-04 17:54:59.34181+01 | 1486227299.34181 | pgbench_tellers_pkey  |           278528
 2017-02-04 17:54:59.34181+01 | 1486227299.34181 | pgbench_accounts_pkey |        224641024

 2017-02-04 17:55:00.429676+01 | 1486227300.42968 | pgbench_branches_pkey |            57344
 2017-02-04 17:55:00.429676+01 | 1486227300.42968 | pgbench_tellers_pkey  |           278528
 2017-02-04 17:55:00.429676+01 | 1486227300.42968 | pgbench_accounts_pkey |        224641024

 2017-02-04 17:55:01.53042+01 | 1486227301.53042 | pgbench_branches_pkey |            57344
 2017-02-04 17:55:01.53042+01 | 1486227301.53042 | pgbench_tellers_pkey  |           278528
 2017-02-04 17:55:01.53042+01 | 1486227301.53042 | pgbench_accounts_pkey |        224641024

 2017-02-04 17:55:02.614666+01 | 1486227302.61467 | pgbench_branches_pkey |            57344
 2017-02-04 17:55:02.614666+01 | 1486227302.61467 | pgbench_tellers_pkey  |           278528
 2017-02-04 17:55:02.614666+01 | 1486227302.61467 | pgbench_accounts_pkey |        224641024

 2017-02-04 17:55:03.695165+01 | 1486227303.69516 | pgbench_branches_pkey |            57344
 2017-02-04 17:55:03.695165+01 | 1486227303.69516 | pgbench_tellers_pkey  |           278528
 2017-02-04 17:55:03.695165+01 | 1486227303.69516 | pgbench_accounts_pkey |        224641024

 2017-02-04 17:55:04.774977+01 | 1486227304.77498 | pgbench_branches_pkey |            57344
 2017-02-04 17:55:04.774977+01 | 1486227304.77498 | pgbench_tellers_pkey  |           278528
 2017-02-04 17:55:04.774977+01 | 1486227304.77498 | pgbench_accounts_pkey |        224641024

 2017-02-04 17:55:05.856047+01 | 1486227305.85605 | pgbench_branches_pkey |            57344
 2017-02-04 17:55:05.856047+01 | 1486227305.85605 | pgbench_tellers_pkey  |           278528
 2017-02-04 17:55:05.856047+01 | 1486227305.85605 | pgbench_accounts_pkey |        224641024

 2017-02-04 17:55:06.932218+01 | 1486227306.93222 | pgbench_branches_pkey |            57344
 2017-02-04 17:55:06.932218+01 | 1486227306.93222 | pgbench_tellers_pkey  |           278528
 2017-02-04 17:55:06.932218+01 | 1486227306.93222 | pgbench_accounts_pkey |        224641024

 2017-02-04 17:55:08.012241+01 | 1486227308.01224 | pgbench_branches_pkey |            57344
 2017-02-04 17:55:08.012241+01 | 1486227308.01224 | pgbench_tellers_pkey  |           278528
 2017-02-04 17:55:08.012241+01 | 1486227308.01224 | pgbench_accounts_pkey |        224641024

 2017-02-04 17:55:09.098265+01 | 1486227309.09826 | pgbench_branches_pkey |            57344
 2017-02-04 17:55:09.098265+01 | 1486227309.09826 | pgbench_tellers_pkey  |           278528
 2017-02-04 17:55:09.098265+01 | 1486227309.09826 | pgbench_accounts_pkey |        224641024

 2017-02-04 17:55:10.18727+01 | 1486227310.18727 | pgbench_branches_pkey |            57344
 2017-02-04 17:55:10.18727+01 | 1486227310.18727 | pgbench_tellers_pkey  |           278528
 2017-02-04 17:55:10.18727+01 | 1486227310.18727 | pgbench_accounts_pkey |        224641024

 2017-02-04 17:55:11.265293+01 | 1486227311.26529 | pgbench_branches_pkey |            57344
 2017-02-04 17:55:11.265293+01 | 1486227311.26529 | pgbench_tellers_pkey  |           278528
 2017-02-04 17:55:11.265293+01 | 1486227311.26529 | pgbench_accounts_pkey |        224641024

 2017-02-04 17:55:12.351359+01 | 1486227312.35136 | pgbench_branches_pkey |            57344
 2017-02-04 17:55:12.351359+01 | 1486227312.35136 | pgbench_tellers_pkey  |           278528
 2017-02-04 17:55:12.351359+01 | 1486227312.35136 | pgbench_accounts_pkey |        224641024

 2017-02-04 17:55:13.447114+01 | 1486227313.44711 | pgbench_branches_pkey |            57344
 2017-02-04 17:55:13.447114+01 | 1486227313.44711 | pgbench_tellers_pkey  |           278528
 2017-02-04 17:55:13.447114+01 | 1486227313.44711 | pgbench_accounts_pkey |        224641024

 2017-02-04 17:55:14.533988+01 | 1486227314.53399 | pgbench_branches_pkey |            57344
 2017-02-04 17:55:14.533988+01 | 1486227314.53399 | pgbench_tellers_pkey  |           278528
 2017-02-04 17:55:14.533988+01 | 1486227314.53399 | pgbench_accounts_pkey |        224641024

 2017-02-04 17:55:15.616019+01 | 1486227315.61602 | pgbench_branches_pkey |            57344
 2017-02-04 17:55:15.616019+01 | 1486227315.61602 | pgbench_tellers_pkey  |           278528
 2017-02-04 17:55:15.616019+01 | 1486227315.61602 | pgbench_accounts_pkey |        224641024

 2017-02-04 17:55:16.696617+01 | 1486227316.69662 | pgbench_branches_pkey |            57344
 2017-02-04 17:55:16.696617+01 | 1486227316.69662 | pgbench_tellers_pkey  |           278528
 2017-02-04 17:55:16.696617+01 | 1486227316.69662 | pgbench_accounts_pkey |        224641024

 2017-02-04 17:55:17.777282+01 | 1486227317.77728 | pgbench_branches_pkey |            57344
 2017-02-04 17:55:17.777282+01 | 1486227317.77728 | pgbench_tellers_pkey  |           278528
 2017-02-04 17:55:17.777282+01 | 1486227317.77728 | pgbench_accounts_pkey |        224641024

 2017-02-04 17:55:18.856657+01 | 1486227318.85666 | pgbench_branches_pkey |            57344
 2017-02-04 17:55:18.856657+01 | 1486227318.85666 | pgbench_tellers_pkey  |           278528
 2017-02-04 17:55:18.856657+01 | 1486227318.85666 | pgbench_accounts_pkey |        224641024

 2017-02-04 17:55:19.938188+01 | 1486227319.93819 | pgbench_branches_pkey |            57344
 2017-02-04 17:55:19.938188+01 | 1486227319.93819 | pgbench_tellers_pkey  |           278528
 2017-02-04 17:55:19.938188+01 | 1486227319.93819 | pgbench_accounts_pkey |        224641024

 2017-02-04 17:55:21.014329+01 | 1486227321.01433 | pgbench_branches_pkey |            57344
 2017-02-04 17:55:21.014329+01 | 1486227321.01433 | pgbench_tellers_pkey  |           278528
 2017-02-04 17:55:21.014329+01 | 1486227321.01433 | pgbench_accounts_pkey |        224641024

 2017-02-04 17:55:22.090064+01 | 1486227322.09006 | pgbench_branches_pkey |            57344
 2017-02-04 17:55:22.090064+01 | 1486227322.09006 | pgbench_tellers_pkey  |           278528
 2017-02-04 17:55:22.090064+01 | 1486227322.09006 | pgbench_accounts_pkey |        224641024

 2017-02-04 17:55:23.179742+01 | 1486227323.17974 | pgbench_branches_pkey |            57344
 2017-02-04 17:55:23.179742+01 | 1486227323.17974 | pgbench_tellers_pkey  |           278528
 2017-02-04 17:55:23.179742+01 | 1486227323.17974 | pgbench_accounts_pkey |        224641024

 2017-02-04 17:55:24.265251+01 | 1486227324.26525 | pgbench_branches_pkey |            57344
 2017-02-04 17:55:24.265251+01 | 1486227324.26525 | pgbench_tellers_pkey  |           278528
 2017-02-04 17:55:24.265251+01 | 1486227324.26525 | pgbench_accounts_pkey |        224641024

 2017-02-04 17:55:25.347245+01 | 1486227325.34724 | pgbench_branches_pkey |            57344
 2017-02-04 17:55:25.347245+01 | 1486227325.34724 | pgbench_tellers_pkey  |           278528
 2017-02-04 17:55:25.347245+01 | 1486227325.34724 | pgbench_accounts_pkey |        224641024

 2017-02-04 17:55:26.427503+01 | 1486227326.4275 | pgbench_branches_pkey |            57344
 2017-02-04 17:55:26.427503+01 | 1486227326.4275 | pgbench_tellers_pkey  |           278528
 2017-02-04 17:55:26.427503+01 | 1486227326.4275 | pgbench_accounts_pkey |        224641024

 2017-02-04 17:55:27.51233+01 | 1486227327.51233 | pgbench_branches_pkey |            57344
 2017-02-04 17:55:27.51233+01 | 1486227327.51233 | pgbench_tellers_pkey  |           278528
 2017-02-04 17:55:27.51233+01 | 1486227327.51233 | pgbench_accounts_pkey |        224641024

 2017-02-04 17:55:28.601509+01 | 1486227328.60151 | pgbench_branches_pkey |            57344
 2017-02-04 17:55:28.601509+01 | 1486227328.60151 | pgbench_tellers_pkey  |           278528
 2017-02-04 17:55:28.601509+01 | 1486227328.60151 | pgbench_accounts_pkey |        224641024

 2017-02-04 17:55:29.687879+01 | 1486227329.68788 | pgbench_branches_pkey |            57344
 2017-02-04 17:55:29.687879+01 | 1486227329.68788 | pgbench_tellers_pkey  |           278528
 2017-02-04 17:55:29.687879+01 | 1486227329.68788 | pgbench_accounts_pkey |        224641024

 2017-02-04 17:55:30.776696+01 | 1486227330.7767 | pgbench_branches_pkey |            57344
 2017-02-04 17:55:30.776696+01 | 1486227330.7767 | pgbench_tellers_pkey  |           278528
 2017-02-04 17:55:30.776696+01 | 1486227330.7767 | pgbench_accounts_pkey |        224641024

 2017-02-04 17:55:31.856218+01 | 1486227331.85622 | pgbench_branches_pkey |            57344
 2017-02-04 17:55:31.856218+01 | 1486227331.85622 | pgbench_tellers_pkey  |           278528
 2017-02-04 17:55:31.856218+01 | 1486227331.85622 | pgbench_accounts_pkey |        224641024

 2017-02-04 17:55:32.93882+01 | 1486227332.93882 | pgbench_branches_pkey |            57344
 2017-02-04 17:55:32.93882+01 | 1486227332.93882 | pgbench_tellers_pkey  |           278528
 2017-02-04 17:55:32.93882+01 | 1486227332.93882 | pgbench_accounts_pkey |        224641024

 2017-02-04 17:55:34.020027+01 | 1486227334.02003 | pgbench_branches_pkey |            57344
 2017-02-04 17:55:34.020027+01 | 1486227334.02003 | pgbench_tellers_pkey  |           278528
 2017-02-04 17:55:34.020027+01 | 1486227334.02003 | pgbench_accounts_pkey |        224641024

 2017-02-04 17:55:35.099472+01 | 1486227335.09947 | pgbench_branches_pkey |            57344
 2017-02-04 17:55:35.099472+01 | 1486227335.09947 | pgbench_tellers_pkey  |           278528
 2017-02-04 17:55:35.099472+01 | 1486227335.09947 | pgbench_accounts_pkey |        224641024

 2017-02-04 17:55:36.188815+01 | 1486227336.18882 | pgbench_branches_pkey |            57344
 2017-02-04 17:55:36.188815+01 | 1486227336.18882 | pgbench_tellers_pkey  |           278528
 2017-02-04 17:55:36.188815+01 | 1486227336.18882 | pgbench_accounts_pkey |        224641024

 2017-02-04 17:55:37.275684+01 | 1486227337.27568 | pgbench_branches_pkey |            57344
 2017-02-04 17:55:37.275684+01 | 1486227337.27568 | pgbench_tellers_pkey  |           278528
 2017-02-04 17:55:37.275684+01 | 1486227337.27568 | pgbench_accounts_pkey |        224641024

 2017-02-04 17:55:38.357072+01 | 1486227338.35707 | pgbench_branches_pkey |            57344
 2017-02-04 17:55:38.357072+01 | 1486227338.35707 | pgbench_tellers_pkey  |           278528
 2017-02-04 17:55:38.357072+01 | 1486227338.35707 | pgbench_accounts_pkey |        224641024

 2017-02-04 17:55:39.445294+01 | 1486227339.44529 | pgbench_branches_pkey |            57344
 2017-02-04 17:55:39.445294+01 | 1486227339.44529 | pgbench_tellers_pkey  |           278528
 2017-02-04 17:55:39.445294+01 | 1486227339.44529 | pgbench_accounts_pkey |        224641024

 2017-02-04 17:55:40.532156+01 | 1486227340.53216 | pgbench_branches_pkey |            57344
 2017-02-04 17:55:40.532156+01 | 1486227340.53216 | pgbench_tellers_pkey  |           278528
 2017-02-04 17:55:40.532156+01 | 1486227340.53216 | pgbench_accounts_pkey |        224641024

 2017-02-04 17:55:41.609638+01 | 1486227341.60964 | pgbench_branches_pkey |            57344
 2017-02-04 17:55:41.609638+01 | 1486227341.60964 | pgbench_tellers_pkey  |           278528
 2017-02-04 17:55:41.609638+01 | 1486227341.60964 | pgbench_accounts_pkey |        224641024

 2017-02-04 17:55:42.691214+01 | 1486227342.69121 | pgbench_branches_pkey |            57344
 2017-02-04 17:55:42.691214+01 | 1486227342.69121 | pgbench_tellers_pkey  |           278528
 2017-02-04 17:55:42.691214+01 | 1486227342.69121 | pgbench_accounts_pkey |        224641024

 2017-02-04 17:55:43.773399+01 | 1486227343.7734 | pgbench_branches_pkey |            57344
 2017-02-04 17:55:43.773399+01 | 1486227343.7734 | pgbench_tellers_pkey  |           278528
 2017-02-04 17:55:43.773399+01 | 1486227343.7734 | pgbench_accounts_pkey |        224641024

 2017-02-04 17:55:44.853229+01 | 1486227344.85323 | pgbench_branches_pkey |            57344
 2017-02-04 17:55:44.853229+01 | 1486227344.85323 | pgbench_tellers_pkey  |           278528
 2017-02-04 17:55:44.853229+01 | 1486227344.85323 | pgbench_accounts_pkey |        224641024

 2017-02-04 17:55:45.93531+01 | 1486227345.93531 | pgbench_branches_pkey |            57344
 2017-02-04 17:55:45.93531+01 | 1486227345.93531 | pgbench_tellers_pkey  |           278528
 2017-02-04 17:55:45.93531+01 | 1486227345.93531 | pgbench_accounts_pkey |        224641024

 2017-02-04 17:55:47.017115+01 | 1486227347.01712 | pgbench_branches_pkey |            57344
 2017-02-04 17:55:47.017115+01 | 1486227347.01712 | pgbench_tellers_pkey  |           278528
 2017-02-04 17:55:47.017115+01 | 1486227347.01712 | pgbench_accounts_pkey |        224641024

 2017-02-04 17:55:48.100254+01 | 1486227348.10025 | pgbench_branches_pkey |            57344
 2017-02-04 17:55:48.100254+01 | 1486227348.10025 | pgbench_tellers_pkey  |           278528
 2017-02-04 17:55:48.100254+01 | 1486227348.10025 | pgbench_accounts_pkey |        224641024

 2017-02-04 17:55:49.185953+01 | 1486227349.18595 | pgbench_branches_pkey |            57344
 2017-02-04 17:55:49.185953+01 | 1486227349.18595 | pgbench_tellers_pkey  |           278528
 2017-02-04 17:55:49.185953+01 | 1486227349.18595 | pgbench_accounts_pkey |        224641024

 2017-02-04 17:55:50.268153+01 | 1486227350.26815 | pgbench_branches_pkey |            57344
 2017-02-04 17:55:50.268153+01 | 1486227350.26815 | pgbench_tellers_pkey  |           278528
 2017-02-04 17:55:50.268153+01 | 1486227350.26815 | pgbench_accounts_pkey |        224641024

 2017-02-04 17:55:51.351408+01 | 1486227351.35141 | pgbench_branches_pkey |            57344
 2017-02-04 17:55:51.351408+01 | 1486227351.35141 | pgbench_tellers_pkey  |           278528
 2017-02-04 17:55:51.351408+01 | 1486227351.35141 | pgbench_accounts_pkey |        224641024

 2017-02-04 17:55:52.436656+01 | 1486227352.43666 | pgbench_branches_pkey |            57344
 2017-02-04 17:55:52.436656+01 | 1486227352.43666 | pgbench_tellers_pkey  |           278528
 2017-02-04 17:55:52.436656+01 | 1486227352.43666 | pgbench_accounts_pkey |        224641024

 2017-02-04 17:55:53.518311+01 | 1486227353.51831 | pgbench_branches_pkey |            57344
 2017-02-04 17:55:53.518311+01 | 1486227353.51831 | pgbench_tellers_pkey  |           278528
 2017-02-04 17:55:53.518311+01 | 1486227353.51831 | pgbench_accounts_pkey |        224641024

 2017-02-04 17:55:54.604183+01 | 1486227354.60418 | pgbench_branches_pkey |            57344
 2017-02-04 17:55:54.604183+01 | 1486227354.60418 | pgbench_tellers_pkey  |           278528
 2017-02-04 17:55:54.604183+01 | 1486227354.60418 | pgbench_accounts_pkey |        224641024

 2017-02-04 17:55:55.684045+01 | 1486227355.68405 | pgbench_branches_pkey |            57344
 2017-02-04 17:55:55.684045+01 | 1486227355.68405 | pgbench_tellers_pkey  |           278528
 2017-02-04 17:55:55.684045+01 | 1486227355.68405 | pgbench_accounts_pkey |        224641024

 2017-02-04 17:55:56.772799+01 | 1486227356.7728 | pgbench_branches_pkey |            57344
 2017-02-04 17:55:56.772799+01 | 1486227356.7728 | pgbench_tellers_pkey  |           278528
 2017-02-04 17:55:56.772799+01 | 1486227356.7728 | pgbench_accounts_pkey |        224641024

 2017-02-04 17:55:57.853258+01 | 1486227357.85326 | pgbench_branches_pkey |            57344
 2017-02-04 17:55:57.853258+01 | 1486227357.85326 | pgbench_tellers_pkey  |           278528
 2017-02-04 17:55:57.853258+01 | 1486227357.85326 | pgbench_accounts_pkey |        224641024

 2017-02-04 17:55:58.929633+01 | 1486227358.92963 | pgbench_branches_pkey |            57344
 2017-02-04 17:55:58.929633+01 | 1486227358.92963 | pgbench_tellers_pkey  |           278528
 2017-02-04 17:55:58.929633+01 | 1486227358.92963 | pgbench_accounts_pkey |        224641024

 2017-02-04 17:56:00.003439+01 | 1486227360.00344 | pgbench_branches_pkey |            57344
 2017-02-04 17:56:00.003439+01 | 1486227360.00344 | pgbench_tellers_pkey  |           278528
 2017-02-04 17:56:00.003439+01 | 1486227360.00344 | pgbench_accounts_pkey |        224641024

 2017-02-04 17:56:01.083981+01 | 1486227361.08398 | pgbench_branches_pkey |            57344
 2017-02-04 17:56:01.083981+01 | 1486227361.08398 | pgbench_tellers_pkey  |           278528
 2017-02-04 17:56:01.083981+01 | 1486227361.08398 | pgbench_accounts_pkey |        224641024

 2017-02-04 17:56:02.172942+01 | 1486227362.17294 | pgbench_branches_pkey |            57344
 2017-02-04 17:56:02.172942+01 | 1486227362.17294 | pgbench_tellers_pkey  |           278528
 2017-02-04 17:56:02.172942+01 | 1486227362.17294 | pgbench_accounts_pkey |        224641024

 2017-02-04 17:56:03.261741+01 | 1486227363.26174 | pgbench_branches_pkey |            57344
 2017-02-04 17:56:03.261741+01 | 1486227363.26174 | pgbench_tellers_pkey  |           278528
 2017-02-04 17:56:03.261741+01 | 1486227363.26174 | pgbench_accounts_pkey |        224641024

 2017-02-04 17:56:04.344954+01 | 1486227364.34495 | pgbench_branches_pkey |            57344
 2017-02-04 17:56:04.344954+01 | 1486227364.34495 | pgbench_tellers_pkey  |           278528
 2017-02-04 17:56:04.344954+01 | 1486227364.34495 | pgbench_accounts_pkey |        224641024

 2017-02-04 17:56:05.425428+01 | 1486227365.42543 | pgbench_branches_pkey |            57344
 2017-02-04 17:56:05.425428+01 | 1486227365.42543 | pgbench_tellers_pkey  |           278528
 2017-02-04 17:56:05.425428+01 | 1486227365.42543 | pgbench_accounts_pkey |        224641024

 2017-02-04 17:56:06.504406+01 | 1486227366.50441 | pgbench_branches_pkey |            57344
 2017-02-04 17:56:06.504406+01 | 1486227366.50441 | pgbench_tellers_pkey  |           278528
 2017-02-04 17:56:06.504406+01 | 1486227366.50441 | pgbench_accounts_pkey |        224641024

 2017-02-04 17:56:07.594418+01 | 1486227367.59442 | pgbench_branches_pkey |            57344
 2017-02-04 17:56:07.594418+01 | 1486227367.59442 | pgbench_tellers_pkey  |           278528
 2017-02-04 17:56:07.594418+01 | 1486227367.59442 | pgbench_accounts_pkey |        224641024

 2017-02-04 17:56:08.679839+01 | 1486227368.67984 | pgbench_branches_pkey |            57344
 2017-02-04 17:56:08.679839+01 | 1486227368.67984 | pgbench_tellers_pkey  |           278528
 2017-02-04 17:56:08.679839+01 | 1486227368.67984 | pgbench_accounts_pkey |        224641024

 2017-02-04 17:56:09.76274+01 | 1486227369.76274 | pgbench_branches_pkey |            57344
 2017-02-04 17:56:09.76274+01 | 1486227369.76274 | pgbench_tellers_pkey  |           278528
 2017-02-04 17:56:09.76274+01 | 1486227369.76274 | pgbench_accounts_pkey |        224641024

 2017-02-04 17:56:10.845948+01 | 1486227370.84595 | pgbench_branches_pkey |            57344
 2017-02-04 17:56:10.845948+01 | 1486227370.84595 | pgbench_tellers_pkey  |           278528
 2017-02-04 17:56:10.845948+01 | 1486227370.84595 | pgbench_accounts_pkey |        224641024

 2017-02-04 17:56:11.928686+01 | 1486227371.92869 | pgbench_branches_pkey |            57344
 2017-02-04 17:56:11.928686+01 | 1486227371.92869 | pgbench_tellers_pkey  |           278528
 2017-02-04 17:56:11.928686+01 | 1486227371.92869 | pgbench_accounts_pkey |        224641024

 2017-02-04 17:56:13.002924+01 | 1486227373.00292 | pgbench_branches_pkey |            57344
 2017-02-04 17:56:13.002924+01 | 1486227373.00292 | pgbench_tellers_pkey  |           278528
 2017-02-04 17:56:13.002924+01 | 1486227373.00292 | pgbench_accounts_pkey |        224641024

 2017-02-04 17:56:14.080107+01 | 1486227374.08011 | pgbench_branches_pkey |            57344
 2017-02-04 17:56:14.080107+01 | 1486227374.08011 | pgbench_tellers_pkey  |           278528
 2017-02-04 17:56:14.080107+01 | 1486227374.08011 | pgbench_accounts_pkey |        224641024

 2017-02-04 17:56:15.160017+01 | 1486227375.16002 | pgbench_branches_pkey |            57344
 2017-02-04 17:56:15.160017+01 | 1486227375.16002 | pgbench_tellers_pkey  |           278528
 2017-02-04 17:56:15.160017+01 | 1486227375.16002 | pgbench_accounts_pkey |        224641024

 2017-02-04 17:56:16.241391+01 | 1486227376.24139 | pgbench_branches_pkey |            57344
 2017-02-04 17:56:16.241391+01 | 1486227376.24139 | pgbench_tellers_pkey  |           278528
 2017-02-04 17:56:16.241391+01 | 1486227376.24139 | pgbench_accounts_pkey |        224641024

 2017-02-04 17:56:17.330938+01 | 1486227377.33094 | pgbench_branches_pkey |            57344
 2017-02-04 17:56:17.330938+01 | 1486227377.33094 | pgbench_tellers_pkey  |           278528
 2017-02-04 17:56:17.330938+01 | 1486227377.33094 | pgbench_accounts_pkey |        224641024

 2017-02-04 17:56:18.423253+01 | 1486227378.42325 | pgbench_branches_pkey |            57344
 2017-02-04 17:56:18.423253+01 | 1486227378.42325 | pgbench_tellers_pkey  |           278528
 2017-02-04 17:56:18.423253+01 | 1486227378.42325 | pgbench_accounts_pkey |        224641024

 2017-02-04 17:56:19.522738+01 | 1486227379.52274 | pgbench_branches_pkey |            57344
 2017-02-04 17:56:19.522738+01 | 1486227379.52274 | pgbench_tellers_pkey  |           278528
 2017-02-04 17:56:19.522738+01 | 1486227379.52274 | pgbench_accounts_pkey |        224641024

 2017-02-04 17:56:20.611062+01 | 1486227380.61106 | pgbench_branches_pkey |            57344
 2017-02-04 17:56:20.611062+01 | 1486227380.61106 | pgbench_tellers_pkey  |           278528
 2017-02-04 17:56:20.611062+01 | 1486227380.61106 | pgbench_accounts_pkey |        224641024

 2017-02-04 17:56:21.697138+01 | 1486227381.69714 | pgbench_branches_pkey |            57344
 2017-02-04 17:56:21.697138+01 | 1486227381.69714 | pgbench_tellers_pkey  |           278528
 2017-02-04 17:56:21.697138+01 | 1486227381.69714 | pgbench_accounts_pkey |        224641024

 2017-02-04 17:56:22.774729+01 | 1486227382.77473 | pgbench_branches_pkey |            57344
 2017-02-04 17:56:22.774729+01 | 1486227382.77473 | pgbench_tellers_pkey  |           278528
 2017-02-04 17:56:22.774729+01 | 1486227382.77473 | pgbench_accounts_pkey |        224641024

 2017-02-04 17:56:23.866136+01 | 1486227383.86614 | pgbench_branches_pkey |            57344
 2017-02-04 17:56:23.866136+01 | 1486227383.86614 | pgbench_tellers_pkey  |           278528
 2017-02-04 17:56:23.866136+01 | 1486227383.86614 | pgbench_accounts_pkey |        224641024

 2017-02-04 17:56:24.950919+01 | 1486227384.95092 | pgbench_branches_pkey |            57344
 2017-02-04 17:56:24.950919+01 | 1486227384.95092 | pgbench_tellers_pkey  |           278528
 2017-02-04 17:56:24.950919+01 | 1486227384.95092 | pgbench_accounts_pkey |        224641024

 2017-02-04 17:56:26.034732+01 | 1486227386.03473 | pgbench_branches_pkey |            57344
 2017-02-04 17:56:26.034732+01 | 1486227386.03473 | pgbench_tellers_pkey  |           278528
 2017-02-04 17:56:26.034732+01 | 1486227386.03473 | pgbench_accounts_pkey |        224641024

 2017-02-04 17:56:27.112253+01 | 1486227387.11225 | pgbench_branches_pkey |            57344
 2017-02-04 17:56:27.112253+01 | 1486227387.11225 | pgbench_tellers_pkey  |           278528
 2017-02-04 17:56:27.112253+01 | 1486227387.11225 | pgbench_accounts_pkey |        224641024

 2017-02-04 17:56:28.20466+01 | 1486227388.20466 | pgbench_branches_pkey |            57344
 2017-02-04 17:56:28.20466+01 | 1486227388.20466 | pgbench_tellers_pkey  |           278528
 2017-02-04 17:56:28.20466+01 | 1486227388.20466 | pgbench_accounts_pkey |        224641024

 2017-02-04 17:56:29.29712+01 | 1486227389.29712 | pgbench_branches_pkey |            57344
 2017-02-04 17:56:29.29712+01 | 1486227389.29712 | pgbench_tellers_pkey  |           278528
 2017-02-04 17:56:29.29712+01 | 1486227389.29712 | pgbench_accounts_pkey |        224641024

 2017-02-04 17:56:30.376495+01 | 1486227390.37649 | pgbench_branches_pkey |            57344
 2017-02-04 17:56:30.376495+01 | 1486227390.37649 | pgbench_tellers_pkey  |           278528
 2017-02-04 17:56:30.376495+01 | 1486227390.37649 | pgbench_accounts_pkey |        224641024

 2017-02-04 17:56:31.469895+01 | 1486227391.46989 | pgbench_branches_pkey |            57344
 2017-02-04 17:56:31.469895+01 | 1486227391.46989 | pgbench_tellers_pkey  |           278528
 2017-02-04 17:56:31.469895+01 | 1486227391.46989 | pgbench_accounts_pkey |        224641024

 2017-02-04 17:56:32.55309+01 | 1486227392.55309 | pgbench_branches_pkey |            57344
 2017-02-04 17:56:32.55309+01 | 1486227392.55309 | pgbench_tellers_pkey  |           278528
 2017-02-04 17:56:32.55309+01 | 1486227392.55309 | pgbench_accounts_pkey |        224641024

 2017-02-04 17:56:33.645263+01 | 1486227393.64526 | pgbench_branches_pkey |            57344
 2017-02-04 17:56:33.645263+01 | 1486227393.64526 | pgbench_tellers_pkey  |           278528
 2017-02-04 17:56:33.645263+01 | 1486227393.64526 | pgbench_accounts_pkey |        224641024

 2017-02-04 17:56:34.729688+01 | 1486227394.72969 | pgbench_branches_pkey |            57344
 2017-02-04 17:56:34.729688+01 | 1486227394.72969 | pgbench_tellers_pkey  |           278528
 2017-02-04 17:56:34.729688+01 | 1486227394.72969 | pgbench_accounts_pkey |        224641024

 2017-02-04 17:56:35.814738+01 | 1486227395.81474 | pgbench_branches_pkey |            57344
 2017-02-04 17:56:35.814738+01 | 1486227395.81474 | pgbench_tellers_pkey  |           278528
 2017-02-04 17:56:35.814738+01 | 1486227395.81474 | pgbench_accounts_pkey |        224641024

 2017-02-04 17:56:36.892029+01 | 1486227396.89203 | pgbench_branches_pkey |            57344
 2017-02-04 17:56:36.892029+01 | 1486227396.89203 | pgbench_tellers_pkey  |           278528
 2017-02-04 17:56:36.892029+01 | 1486227396.89203 | pgbench_accounts_pkey |        224641024

 2017-02-04 17:56:37.981396+01 | 1486227397.9814 | pgbench_branches_pkey |            57344
 2017-02-04 17:56:37.981396+01 | 1486227397.9814 | pgbench_tellers_pkey  |           278528
 2017-02-04 17:56:37.981396+01 | 1486227397.9814 | pgbench_accounts_pkey |        224641024

 2017-02-04 17:56:39.065535+01 | 1486227399.06554 | pgbench_branches_pkey |            57344
 2017-02-04 17:56:39.065535+01 | 1486227399.06554 | pgbench_tellers_pkey  |           278528
 2017-02-04 17:56:39.065535+01 | 1486227399.06554 | pgbench_accounts_pkey |        224641024

 2017-02-04 17:56:40.142295+01 | 1486227400.14229 | pgbench_branches_pkey |            57344
 2017-02-04 17:56:40.142295+01 | 1486227400.14229 | pgbench_tellers_pkey  |           278528
 2017-02-04 17:56:40.142295+01 | 1486227400.14229 | pgbench_accounts_pkey |        224641024

 2017-02-04 17:56:41.224035+01 | 1486227401.22404 | pgbench_branches_pkey |            57344
 2017-02-04 17:56:41.224035+01 | 1486227401.22404 | pgbench_tellers_pkey  |           278528
 2017-02-04 17:56:41.224035+01 | 1486227401.22404 | pgbench_accounts_pkey |        224641024

 2017-02-04 17:56:42.309118+01 | 1486227402.30912 | pgbench_branches_pkey |            57344
 2017-02-04 17:56:42.309118+01 | 1486227402.30912 | pgbench_tellers_pkey  |           278528
 2017-02-04 17:56:42.309118+01 | 1486227402.30912 | pgbench_accounts_pkey |        224641024

 2017-02-04 17:56:43.394828+01 | 1486227403.39483 | pgbench_branches_pkey |            57344
 2017-02-04 17:56:43.394828+01 | 1486227403.39483 | pgbench_tellers_pkey  |           278528
 2017-02-04 17:56:43.394828+01 | 1486227403.39483 | pgbench_accounts_pkey |        224641024

 2017-02-04 17:56:44.476108+01 | 1486227404.47611 | pgbench_branches_pkey |            57344
 2017-02-04 17:56:44.476108+01 | 1486227404.47611 | pgbench_tellers_pkey  |           278528
 2017-02-04 17:56:44.476108+01 | 1486227404.47611 | pgbench_accounts_pkey |        224641024

 2017-02-04 17:56:45.565279+01 | 1486227405.56528 | pgbench_branches_pkey |            57344
 2017-02-04 17:56:45.565279+01 | 1486227405.56528 | pgbench_tellers_pkey  |           278528
 2017-02-04 17:56:45.565279+01 | 1486227405.56528 | pgbench_accounts_pkey |        224641024

 2017-02-04 17:56:46.646154+01 | 1486227406.64615 | pgbench_branches_pkey |            57344
 2017-02-04 17:56:46.646154+01 | 1486227406.64615 | pgbench_tellers_pkey  |           278528
 2017-02-04 17:56:46.646154+01 | 1486227406.64615 | pgbench_accounts_pkey |        224641024

 2017-02-04 17:56:47.731483+01 | 1486227407.73148 | pgbench_branches_pkey |            57344
 2017-02-04 17:56:47.731483+01 | 1486227407.73148 | pgbench_tellers_pkey  |           278528
 2017-02-04 17:56:47.731483+01 | 1486227407.73148 | pgbench_accounts_pkey |        224641024

 2017-02-04 17:56:48.816968+01 | 1486227408.81697 | pgbench_branches_pkey |            57344
 2017-02-04 17:56:48.816968+01 | 1486227408.81697 | pgbench_tellers_pkey  |           278528
 2017-02-04 17:56:48.816968+01 | 1486227408.81697 | pgbench_accounts_pkey |        224641024

 2017-02-04 17:56:49.90114+01 | 1486227409.90114 | pgbench_branches_pkey |            57344
 2017-02-04 17:56:49.90114+01 | 1486227409.90114 | pgbench_tellers_pkey  |           278528
 2017-02-04 17:56:49.90114+01 | 1486227409.90114 | pgbench_accounts_pkey |        224641024

 2017-02-04 17:56:50.976742+01 | 1486227410.97674 | pgbench_branches_pkey |            57344
 2017-02-04 17:56:50.976742+01 | 1486227410.97674 | pgbench_tellers_pkey  |           278528
 2017-02-04 17:56:50.976742+01 | 1486227410.97674 | pgbench_accounts_pkey |        224641024

 2017-02-04 17:56:52.051942+01 | 1486227412.05194 | pgbench_branches_pkey |            57344
 2017-02-04 17:56:52.051942+01 | 1486227412.05194 | pgbench_tellers_pkey  |           278528
 2017-02-04 17:56:52.051942+01 | 1486227412.05194 | pgbench_accounts_pkey |        224641024

 2017-02-04 17:56:53.137445+01 | 1486227413.13744 | pgbench_branches_pkey |            57344
 2017-02-04 17:56:53.137445+01 | 1486227413.13744 | pgbench_tellers_pkey  |           278528
 2017-02-04 17:56:53.137445+01 | 1486227413.13744 | pgbench_accounts_pkey |        224641024

 2017-02-04 17:56:54.223604+01 | 1486227414.2236 | pgbench_branches_pkey |            57344
 2017-02-04 17:56:54.223604+01 | 1486227414.2236 | pgbench_tellers_pkey  |           278528
 2017-02-04 17:56:54.223604+01 | 1486227414.2236 | pgbench_accounts_pkey |        224641024

 2017-02-04 17:56:55.308702+01 | 1486227415.3087 | pgbench_branches_pkey |            57344
 2017-02-04 17:56:55.308702+01 | 1486227415.3087 | pgbench_tellers_pkey  |           278528
 2017-02-04 17:56:55.308702+01 | 1486227415.3087 | pgbench_accounts_pkey |        224641024

 2017-02-04 17:56:56.387905+01 | 1486227416.3879 | pgbench_branches_pkey |            57344
 2017-02-04 17:56:56.387905+01 | 1486227416.3879 | pgbench_tellers_pkey  |           278528
 2017-02-04 17:56:56.387905+01 | 1486227416.3879 | pgbench_accounts_pkey |        224641024

 2017-02-04 17:56:57.474597+01 | 1486227417.4746 | pgbench_branches_pkey |            57344
 2017-02-04 17:56:57.474597+01 | 1486227417.4746 | pgbench_tellers_pkey  |           278528
 2017-02-04 17:56:57.474597+01 | 1486227417.4746 | pgbench_accounts_pkey |        224641024

 2017-02-04 17:56:58.566493+01 | 1486227418.56649 | pgbench_branches_pkey |            57344
 2017-02-04 17:56:58.566493+01 | 1486227418.56649 | pgbench_tellers_pkey  |           278528
 2017-02-04 17:56:58.566493+01 | 1486227418.56649 | pgbench_accounts_pkey |        224641024

 2017-02-04 17:56:59.652591+01 | 1486227419.65259 | pgbench_branches_pkey |            57344
 2017-02-04 17:56:59.652591+01 | 1486227419.65259 | pgbench_tellers_pkey  |           278528
 2017-02-04 17:56:59.652591+01 | 1486227419.65259 | pgbench_accounts_pkey |        224641024

 2017-02-04 17:57:00.737479+01 | 1486227420.73748 | pgbench_branches_pkey |            57344
 2017-02-04 17:57:00.737479+01 | 1486227420.73748 | pgbench_tellers_pkey  |           278528
 2017-02-04 17:57:00.737479+01 | 1486227420.73748 | pgbench_accounts_pkey |        224641024

 2017-02-04 17:57:01.820657+01 | 1486227421.82066 | pgbench_branches_pkey |            57344
 2017-02-04 17:57:01.820657+01 | 1486227421.82066 | pgbench_tellers_pkey  |           278528
 2017-02-04 17:57:01.820657+01 | 1486227421.82066 | pgbench_accounts_pkey |        224641024

 2017-02-04 17:57:02.906373+01 | 1486227422.90637 | pgbench_branches_pkey |            57344
 2017-02-04 17:57:02.906373+01 | 1486227422.90637 | pgbench_tellers_pkey  |           278528
 2017-02-04 17:57:02.906373+01 | 1486227422.90637 | pgbench_accounts_pkey |        224641024

 2017-02-04 17:57:03.974337+01 | 1486227423.97434 | pgbench_branches_pkey |            57344
 2017-02-04 17:57:03.974337+01 | 1486227423.97434 | pgbench_tellers_pkey  |           278528
 2017-02-04 17:57:03.974337+01 | 1486227423.97434 | pgbench_accounts_pkey |        224641024

 2017-02-04 17:57:05.050972+01 | 1486227425.05097 | pgbench_branches_pkey |            57344
 2017-02-04 17:57:05.050972+01 | 1486227425.05097 | pgbench_tellers_pkey  |           278528
 2017-02-04 17:57:05.050972+01 | 1486227425.05097 | pgbench_accounts_pkey |        224641024

 2017-02-04 17:57:06.129079+01 | 1486227426.12908 | pgbench_branches_pkey |            57344
 2017-02-04 17:57:06.129079+01 | 1486227426.12908 | pgbench_tellers_pkey  |           278528
 2017-02-04 17:57:06.129079+01 | 1486227426.12908 | pgbench_accounts_pkey |        224641024

 2017-02-04 17:57:07.200272+01 | 1486227427.20027 | pgbench_branches_pkey |            57344
 2017-02-04 17:57:07.200272+01 | 1486227427.20027 | pgbench_tellers_pkey  |           278528
 2017-02-04 17:57:07.200272+01 | 1486227427.20027 | pgbench_accounts_pkey |        224641024

 2017-02-04 17:57:08.286592+01 | 1486227428.28659 | pgbench_branches_pkey |            57344
 2017-02-04 17:57:08.286592+01 | 1486227428.28659 | pgbench_tellers_pkey  |           278528
 2017-02-04 17:57:08.286592+01 | 1486227428.28659 | pgbench_accounts_pkey |        224641024

 2017-02-04 17:57:09.374491+01 | 1486227429.37449 | pgbench_branches_pkey |            57344
 2017-02-04 17:57:09.374491+01 | 1486227429.37449 | pgbench_tellers_pkey  |           278528
 2017-02-04 17:57:09.374491+01 | 1486227429.37449 | pgbench_accounts_pkey |        224641024

 2017-02-04 17:57:10.45948+01 | 1486227430.45948 | pgbench_branches_pkey |            57344
 2017-02-04 17:57:10.45948+01 | 1486227430.45948 | pgbench_tellers_pkey  |           278528
 2017-02-04 17:57:10.45948+01 | 1486227430.45948 | pgbench_accounts_pkey |        224641024

 2017-02-04 17:57:11.541614+01 | 1486227431.54161 | pgbench_branches_pkey |            57344
 2017-02-04 17:57:11.541614+01 | 1486227431.54161 | pgbench_tellers_pkey  |           278528
 2017-02-04 17:57:11.541614+01 | 1486227431.54161 | pgbench_accounts_pkey |        224641024

 2017-02-04 17:57:12.624553+01 | 1486227432.62455 | pgbench_branches_pkey |            57344
 2017-02-04 17:57:12.624553+01 | 1486227432.62455 | pgbench_tellers_pkey  |           278528
 2017-02-04 17:57:12.624553+01 | 1486227432.62455 | pgbench_accounts_pkey |        224641024

 2017-02-04 17:57:13.716531+01 | 1486227433.71653 | pgbench_branches_pkey |            57344
 2017-02-04 17:57:13.716531+01 | 1486227433.71653 | pgbench_tellers_pkey  |           278528
 2017-02-04 17:57:13.716531+01 | 1486227433.71653 | pgbench_accounts_pkey |        224641024

 2017-02-04 17:57:14.806083+01 | 1486227434.80608 | pgbench_branches_pkey |            57344
 2017-02-04 17:57:14.806083+01 | 1486227434.80608 | pgbench_tellers_pkey  |           278528
 2017-02-04 17:57:14.806083+01 | 1486227434.80608 | pgbench_accounts_pkey |        224641024

 2017-02-04 17:57:15.898219+01 | 1486227435.89822 | pgbench_branches_pkey |            57344
 2017-02-04 17:57:15.898219+01 | 1486227435.89822 | pgbench_tellers_pkey  |           278528
 2017-02-04 17:57:15.898219+01 | 1486227435.89822 | pgbench_accounts_pkey |        224641024

 2017-02-04 17:57:16.983782+01 | 1486227436.98378 | pgbench_branches_pkey |            57344
 2017-02-04 17:57:16.983782+01 | 1486227436.98378 | pgbench_tellers_pkey  |           278528
 2017-02-04 17:57:16.983782+01 | 1486227436.98378 | pgbench_accounts_pkey |        224641024

 2017-02-04 17:57:18.061406+01 | 1486227438.06141 | pgbench_branches_pkey |            57344
 2017-02-04 17:57:18.061406+01 | 1486227438.06141 | pgbench_tellers_pkey  |           278528
 2017-02-04 17:57:18.061406+01 | 1486227438.06141 | pgbench_accounts_pkey |        224641024

 2017-02-04 17:57:19.137993+01 | 1486227439.13799 | pgbench_branches_pkey |            57344
 2017-02-04 17:57:19.137993+01 | 1486227439.13799 | pgbench_tellers_pkey  |           278528
 2017-02-04 17:57:19.137993+01 | 1486227439.13799 | pgbench_accounts_pkey |        224641024

 2017-02-04 17:57:20.219012+01 | 1486227440.21901 | pgbench_branches_pkey |            57344
 2017-02-04 17:57:20.219012+01 | 1486227440.21901 | pgbench_tellers_pkey  |           278528
 2017-02-04 17:57:20.219012+01 | 1486227440.21901 | pgbench_accounts_pkey |        224641024

 2017-02-04 17:57:21.302089+01 | 1486227441.30209 | pgbench_branches_pkey |            57344
 2017-02-04 17:57:21.302089+01 | 1486227441.30209 | pgbench_tellers_pkey  |           278528
 2017-02-04 17:57:21.302089+01 | 1486227441.30209 | pgbench_accounts_pkey |        224641024

 2017-02-04 17:57:22.388401+01 | 1486227442.3884 | pgbench_branches_pkey |            57344
 2017-02-04 17:57:22.388401+01 | 1486227442.3884 | pgbench_tellers_pkey  |           278528
 2017-02-04 17:57:22.388401+01 | 1486227442.3884 | pgbench_accounts_pkey |        224641024

 2017-02-04 17:57:23.470643+01 | 1486227443.47064 | pgbench_branches_pkey |            57344
 2017-02-04 17:57:23.470643+01 | 1486227443.47064 | pgbench_tellers_pkey  |           278528
 2017-02-04 17:57:23.470643+01 | 1486227443.47064 | pgbench_accounts_pkey |        224641024

 2017-02-04 17:57:24.54762+01 | 1486227444.54762 | pgbench_branches_pkey |            57344
 2017-02-04 17:57:24.54762+01 | 1486227444.54762 | pgbench_tellers_pkey  |           278528
 2017-02-04 17:57:24.54762+01 | 1486227444.54762 | pgbench_accounts_pkey |        224641024

 2017-02-04 17:57:25.630861+01 | 1486227445.63086 | pgbench_branches_pkey |            57344
 2017-02-04 17:57:25.630861+01 | 1486227445.63086 | pgbench_tellers_pkey  |           278528
 2017-02-04 17:57:25.630861+01 | 1486227445.63086 | pgbench_accounts_pkey |        224641024

 2017-02-04 17:57:26.714499+01 | 1486227446.7145 | pgbench_branches_pkey |            57344
 2017-02-04 17:57:26.714499+01 | 1486227446.7145 | pgbench_tellers_pkey  |           278528
 2017-02-04 17:57:26.714499+01 | 1486227446.7145 | pgbench_accounts_pkey |        224641024

 2017-02-04 17:57:27.799935+01 | 1486227447.79994 | pgbench_branches_pkey |            57344
 2017-02-04 17:57:27.799935+01 | 1486227447.79994 | pgbench_tellers_pkey  |           278528
 2017-02-04 17:57:27.799935+01 | 1486227447.79994 | pgbench_accounts_pkey |        224641024

 2017-02-04 17:57:28.887975+01 | 1486227448.88797 | pgbench_branches_pkey |            57344
 2017-02-04 17:57:28.887975+01 | 1486227448.88797 | pgbench_tellers_pkey  |           278528
 2017-02-04 17:57:28.887975+01 | 1486227448.88797 | pgbench_accounts_pkey |        224641024

 2017-02-04 17:57:29.967187+01 | 1486227449.96719 | pgbench_branches_pkey |            57344
 2017-02-04 17:57:29.967187+01 | 1486227449.96719 | pgbench_tellers_pkey  |           278528
 2017-02-04 17:57:29.967187+01 | 1486227449.96719 | pgbench_accounts_pkey |        224641024

 2017-02-04 17:57:31.039189+01 | 1486227451.03919 | pgbench_branches_pkey |            57344
 2017-02-04 17:57:31.039189+01 | 1486227451.03919 | pgbench_tellers_pkey  |           278528
 2017-02-04 17:57:31.039189+01 | 1486227451.03919 | pgbench_accounts_pkey |        224641024

 2017-02-04 17:57:32.118411+01 | 1486227452.11841 | pgbench_branches_pkey |            57344
 2017-02-04 17:57:32.118411+01 | 1486227452.11841 | pgbench_tellers_pkey  |           278528
 2017-02-04 17:57:32.118411+01 | 1486227452.11841 | pgbench_accounts_pkey |        224641024

 2017-02-04 17:57:33.195671+01 | 1486227453.19567 | pgbench_branches_pkey |            57344
 2017-02-04 17:57:33.195671+01 | 1486227453.19567 | pgbench_tellers_pkey  |           278528
 2017-02-04 17:57:33.195671+01 | 1486227453.19567 | pgbench_accounts_pkey |        224641024

 2017-02-04 17:57:34.278512+01 | 1486227454.27851 | pgbench_branches_pkey |            57344
 2017-02-04 17:57:34.278512+01 | 1486227454.27851 | pgbench_tellers_pkey  |           278528
 2017-02-04 17:57:34.278512+01 | 1486227454.27851 | pgbench_accounts_pkey |        224641024

 2017-02-04 17:57:35.367405+01 | 1486227455.3674 | pgbench_branches_pkey |            57344
 2017-02-04 17:57:35.367405+01 | 1486227455.3674 | pgbench_tellers_pkey  |           278528
 2017-02-04 17:57:35.367405+01 | 1486227455.3674 | pgbench_accounts_pkey |        224641024

 2017-02-04 17:57:36.442553+01 | 1486227456.44255 | pgbench_branches_pkey |            57344
 2017-02-04 17:57:36.442553+01 | 1486227456.44255 | pgbench_tellers_pkey  |           278528
 2017-02-04 17:57:36.442553+01 | 1486227456.44255 | pgbench_accounts_pkey |        224641024

 2017-02-04 17:57:37.518797+01 | 1486227457.5188 | pgbench_branches_pkey |            57344
 2017-02-04 17:57:37.518797+01 | 1486227457.5188 | pgbench_tellers_pkey  |           278528
 2017-02-04 17:57:37.518797+01 | 1486227457.5188 | pgbench_accounts_pkey |        224641024

 2017-02-04 17:57:38.601993+01 | 1486227458.60199 | pgbench_branches_pkey |            57344
 2017-02-04 17:57:38.601993+01 | 1486227458.60199 | pgbench_tellers_pkey  |           278528
 2017-02-04 17:57:38.601993+01 | 1486227458.60199 | pgbench_accounts_pkey |        224641024

 2017-02-04 17:57:39.681224+01 | 1486227459.68122 | pgbench_branches_pkey |            57344
 2017-02-04 17:57:39.681224+01 | 1486227459.68122 | pgbench_tellers_pkey  |           278528
 2017-02-04 17:57:39.681224+01 | 1486227459.68122 | pgbench_accounts_pkey |        224641024

 2017-02-04 17:57:40.765915+01 | 1486227460.76591 | pgbench_branches_pkey |            57344
 2017-02-04 17:57:40.765915+01 | 1486227460.76591 | pgbench_tellers_pkey  |           278528
 2017-02-04 17:57:40.765915+01 | 1486227460.76591 | pgbench_accounts_pkey |        224641024

 2017-02-04 17:57:41.861443+01 | 1486227461.86144 | pgbench_branches_pkey |            57344
 2017-02-04 17:57:41.861443+01 | 1486227461.86144 | pgbench_tellers_pkey  |           278528
 2017-02-04 17:57:41.861443+01 | 1486227461.86144 | pgbench_accounts_pkey |        224641024

 2017-02-04 17:57:42.946084+01 | 1486227462.94608 | pgbench_branches_pkey |            57344
 2017-02-04 17:57:42.946084+01 | 1486227462.94608 | pgbench_tellers_pkey  |           278528
 2017-02-04 17:57:42.946084+01 | 1486227462.94608 | pgbench_accounts_pkey |        224641024

 2017-02-04 17:57:44.024874+01 | 1486227464.02487 | pgbench_branches_pkey |            57344
 2017-02-04 17:57:44.024874+01 | 1486227464.02487 | pgbench_tellers_pkey  |           278528
 2017-02-04 17:57:44.024874+01 | 1486227464.02487 | pgbench_accounts_pkey |        224641024

 2017-02-04 17:57:45.102753+01 | 1486227465.10275 | pgbench_branches_pkey |            57344
 2017-02-04 17:57:45.102753+01 | 1486227465.10275 | pgbench_tellers_pkey  |           278528
 2017-02-04 17:57:45.102753+01 | 1486227465.10275 | pgbench_accounts_pkey |        224641024

 2017-02-04 17:57:46.17747+01 | 1486227466.17747 | pgbench_branches_pkey |            57344
 2017-02-04 17:57:46.17747+01 | 1486227466.17747 | pgbench_tellers_pkey  |           278528
 2017-02-04 17:57:46.17747+01 | 1486227466.17747 | pgbench_accounts_pkey |        224641024

 2017-02-04 17:57:47.252328+01 | 1486227467.25233 | pgbench_branches_pkey |            57344
 2017-02-04 17:57:47.252328+01 | 1486227467.25233 | pgbench_tellers_pkey  |           278528
 2017-02-04 17:57:47.252328+01 | 1486227467.25233 | pgbench_accounts_pkey |        224641024

 2017-02-04 17:57:48.334647+01 | 1486227468.33465 | pgbench_branches_pkey |            57344
 2017-02-04 17:57:48.334647+01 | 1486227468.33465 | pgbench_tellers_pkey  |           278528
 2017-02-04 17:57:48.334647+01 | 1486227468.33465 | pgbench_accounts_pkey |        224641024

 2017-02-04 17:57:49.418717+01 | 1486227469.41872 | pgbench_branches_pkey |            57344
 2017-02-04 17:57:49.418717+01 | 1486227469.41872 | pgbench_tellers_pkey  |           278528
 2017-02-04 17:57:49.418717+01 | 1486227469.41872 | pgbench_accounts_pkey |        224641024

 2017-02-04 17:57:50.500354+01 | 1486227470.50035 | pgbench_branches_pkey |            57344
 2017-02-04 17:57:50.500354+01 | 1486227470.50035 | pgbench_tellers_pkey  |           278528
 2017-02-04 17:57:50.500354+01 | 1486227470.50035 | pgbench_accounts_pkey |        224641024

 2017-02-04 17:57:51.588149+01 | 1486227471.58815 | pgbench_branches_pkey |            57344
 2017-02-04 17:57:51.588149+01 | 1486227471.58815 | pgbench_tellers_pkey  |           278528
 2017-02-04 17:57:51.588149+01 | 1486227471.58815 | pgbench_accounts_pkey |        224641024

 2017-02-04 17:57:52.664233+01 | 1486227472.66423 | pgbench_branches_pkey |            57344
 2017-02-04 17:57:52.664233+01 | 1486227472.66423 | pgbench_tellers_pkey  |           278528
 2017-02-04 17:57:52.664233+01 | 1486227472.66423 | pgbench_accounts_pkey |        224641024

 2017-02-04 17:57:53.75682+01 | 1486227473.75682 | pgbench_branches_pkey |            57344
 2017-02-04 17:57:53.75682+01 | 1486227473.75682 | pgbench_tellers_pkey  |           278528
 2017-02-04 17:57:53.75682+01 | 1486227473.75682 | pgbench_accounts_pkey |        224641024

 2017-02-04 17:57:54.834106+01 | 1486227474.83411 | pgbench_branches_pkey |            57344
 2017-02-04 17:57:54.834106+01 | 1486227474.83411 | pgbench_tellers_pkey  |           278528
 2017-02-04 17:57:54.834106+01 | 1486227474.83411 | pgbench_accounts_pkey |        224641024

 2017-02-04 17:57:55.915577+01 | 1486227475.91558 | pgbench_branches_pkey |            57344
 2017-02-04 17:57:55.915577+01 | 1486227475.91558 | pgbench_tellers_pkey  |           278528
 2017-02-04 17:57:55.915577+01 | 1486227475.91558 | pgbench_accounts_pkey |        224641024

 2017-02-04 17:57:57.001998+01 | 1486227477.002 | pgbench_branches_pkey |            57344
 2017-02-04 17:57:57.001998+01 | 1486227477.002 | pgbench_tellers_pkey  |           278528
 2017-02-04 17:57:57.001998+01 | 1486227477.002 | pgbench_accounts_pkey |        224641024

 2017-02-04 17:57:58.091644+01 | 1486227478.09164 | pgbench_branches_pkey |            57344
 2017-02-04 17:57:58.091644+01 | 1486227478.09164 | pgbench_tellers_pkey  |           278528
 2017-02-04 17:57:58.091644+01 | 1486227478.09164 | pgbench_accounts_pkey |        224641024

 2017-02-04 17:57:59.168683+01 | 1486227479.16868 | pgbench_branches_pkey |            57344
 2017-02-04 17:57:59.168683+01 | 1486227479.16868 | pgbench_tellers_pkey  |           278528
 2017-02-04 17:57:59.168683+01 | 1486227479.16868 | pgbench_accounts_pkey |        224641024

 2017-02-04 17:58:00.244111+01 | 1486227480.24411 | pgbench_branches_pkey |            57344
 2017-02-04 17:58:00.244111+01 | 1486227480.24411 | pgbench_tellers_pkey  |           278528
 2017-02-04 17:58:00.244111+01 | 1486227480.24411 | pgbench_accounts_pkey |        224641024

 2017-02-04 17:58:01.328172+01 | 1486227481.32817 | pgbench_branches_pkey |            57344
 2017-02-04 17:58:01.328172+01 | 1486227481.32817 | pgbench_tellers_pkey  |           278528
 2017-02-04 17:58:01.328172+01 | 1486227481.32817 | pgbench_accounts_pkey |        224641024

 2017-02-04 17:58:02.417683+01 | 1486227482.41768 | pgbench_branches_pkey |            57344
 2017-02-04 17:58:02.417683+01 | 1486227482.41768 | pgbench_tellers_pkey  |           278528
 2017-02-04 17:58:02.417683+01 | 1486227482.41768 | pgbench_accounts_pkey |        224641024

 2017-02-04 17:58:03.507422+01 | 1486227483.50742 | pgbench_branches_pkey |            57344
 2017-02-04 17:58:03.507422+01 | 1486227483.50742 | pgbench_tellers_pkey  |           278528
 2017-02-04 17:58:03.507422+01 | 1486227483.50742 | pgbench_accounts_pkey |        224641024

 2017-02-04 17:58:04.596294+01 | 1486227484.59629 | pgbench_branches_pkey |            57344
 2017-02-04 17:58:04.596294+01 | 1486227484.59629 | pgbench_tellers_pkey  |           278528
 2017-02-04 17:58:04.596294+01 | 1486227484.59629 | pgbench_accounts_pkey |        224641024

 2017-02-04 17:58:05.679255+01 | 1486227485.67926 | pgbench_branches_pkey |            57344
 2017-02-04 17:58:05.679255+01 | 1486227485.67926 | pgbench_tellers_pkey  |           278528
 2017-02-04 17:58:05.679255+01 | 1486227485.67926 | pgbench_accounts_pkey |        224641024

 2017-02-04 17:58:06.748202+01 | 1486227486.7482 | pgbench_branches_pkey |            57344
 2017-02-04 17:58:06.748202+01 | 1486227486.7482 | pgbench_tellers_pkey  |           278528
 2017-02-04 17:58:06.748202+01 | 1486227486.7482 | pgbench_accounts_pkey |        224641024

 2017-02-04 17:58:07.837303+01 | 1486227487.8373 | pgbench_branches_pkey |            57344
 2017-02-04 17:58:07.837303+01 | 1486227487.8373 | pgbench_tellers_pkey  |           278528
 2017-02-04 17:58:07.837303+01 | 1486227487.8373 | pgbench_accounts_pkey |        224641024

 2017-02-04 17:58:08.917944+01 | 1486227488.91794 | pgbench_branches_pkey |            57344
 2017-02-04 17:58:08.917944+01 | 1486227488.91794 | pgbench_tellers_pkey  |           278528
 2017-02-04 17:58:08.917944+01 | 1486227488.91794 | pgbench_accounts_pkey |        224641024

