 2017-02-03 13:12:09.945336+01 | 1486123929.94534 |                 0 |              30 |                   833 |                    1 |               2321 |             0 |                0 |          487918 |                     0 |        191838 | 2017-02-03 10:46:39.986223+01

 2017-02-03 13:12:11.038131+01 | 1486123931.03813 |                 0 |              30 |                   833 |                    1 |               2321 |             0 |                0 |          487918 |                     0 |        191838 | 2017-02-03 10:46:39.986223+01

 2017-02-03 13:12:12.136313+01 | 1486123932.13631 |                 0 |              30 |                   833 |                    1 |               2321 |             0 |                0 |          487918 |                     0 |        191838 | 2017-02-03 10:46:39.986223+01

 2017-02-03 13:12:13.236963+01 | 1486123933.23696 |                 0 |              30 |                   833 |                    1 |               2321 |             0 |                0 |          487918 |                     0 |        191838 | 2017-02-03 10:46:39.986223+01

 2017-02-03 13:12:14.331471+01 | 1486123934.33147 |                 0 |              30 |                   833 |                    1 |               2321 |             0 |                0 |          487918 |                     0 |        191838 | 2017-02-03 10:46:39.986223+01

 2017-02-03 13:12:15.442172+01 | 1486123935.44217 |                 0 |              30 |                   833 |                    1 |               2321 |             0 |                0 |          487918 |                     0 |        191838 | 2017-02-03 10:46:39.986223+01

 2017-02-03 13:12:16.551603+01 | 1486123936.5516 |                 0 |              30 |                   833 |                    1 |               2321 |             0 |                0 |          487918 |                     0 |        191838 | 2017-02-03 10:46:39.986223+01

 2017-02-03 13:12:17.649574+01 | 1486123937.64957 |                 0 |              30 |                   833 |                    1 |               2321 |             0 |                0 |          487918 |                     0 |        191838 | 2017-02-03 10:46:39.986223+01

 2017-02-03 13:12:18.758648+01 | 1486123938.75865 |                 0 |              30 |                   833 |                    1 |               2321 |             0 |                0 |          487918 |                     0 |        191838 | 2017-02-03 10:46:39.986223+01

 2017-02-03 13:12:19.873443+01 | 1486123939.87344 |                 0 |              30 |                   833 |                    1 |               2321 |             0 |                0 |          487918 |                     0 |        191838 | 2017-02-03 10:46:39.986223+01

 2017-02-03 13:12:20.988273+01 | 1486123940.98827 |                 0 |              30 |                   833 |                    1 |               2321 |             0 |                0 |          487918 |                     0 |        191838 | 2017-02-03 10:46:39.986223+01

 2017-02-03 13:12:22.090646+01 | 1486123942.09065 |                 0 |              30 |                   833 |                    1 |               2321 |             0 |                0 |          487918 |                     0 |        191838 | 2017-02-03 10:46:39.986223+01

 2017-02-03 13:12:23.200166+01 | 1486123943.20017 |                 0 |              30 |                   833 |                    1 |               2321 |             0 |                0 |          487918 |                     0 |        191838 | 2017-02-03 10:46:39.986223+01

 2017-02-03 13:12:24.300624+01 | 1486123944.30062 |                 0 |              30 |                   833 |                    1 |               2321 |             0 |                0 |          487918 |                     0 |        191838 | 2017-02-03 10:46:39.986223+01

 2017-02-03 13:12:25.396183+01 | 1486123945.39618 |                 0 |              30 |                   833 |                    1 |               2321 |             0 |                0 |          487918 |                     0 |        191838 | 2017-02-03 10:46:39.986223+01

 2017-02-03 13:12:26.480282+01 | 1486123946.48028 |                 0 |              30 |                   833 |                    1 |               2321 |             0 |                0 |          487918 |                     0 |        191838 | 2017-02-03 10:46:39.986223+01

 2017-02-03 13:12:27.571095+01 | 1486123947.57109 |                 0 |              30 |                   833 |                    1 |               2321 |             0 |                0 |          487918 |                     0 |        191838 | 2017-02-03 10:46:39.986223+01

 2017-02-03 13:12:28.66209+01 | 1486123948.66209 |                 0 |              30 |                   833 |                    1 |               2321 |             0 |                0 |          487918 |                     0 |        191838 | 2017-02-03 10:46:39.986223+01

 2017-02-03 13:12:29.748672+01 | 1486123949.74867 |                 0 |              30 |                   833 |                    1 |               2321 |             0 |                0 |          487918 |                     0 |        191838 | 2017-02-03 10:46:39.986223+01

 2017-02-03 13:12:30.838312+01 | 1486123950.83831 |                 0 |              30 |                   833 |                    1 |               2321 |             0 |                0 |          487918 |                     0 |        191838 | 2017-02-03 10:46:39.986223+01

 2017-02-03 13:12:31.936631+01 | 1486123951.93663 |                 0 |              30 |                   833 |                    1 |               2321 |             0 |                0 |          487918 |                     0 |        191838 | 2017-02-03 10:46:39.986223+01

 2017-02-03 13:12:33.036214+01 | 1486123953.03621 |                 0 |              30 |                   833 |                    1 |               2321 |             0 |                0 |          487918 |                     0 |        191838 | 2017-02-03 10:46:39.986223+01

 2017-02-03 13:12:34.132539+01 | 1486123954.13254 |                 0 |              30 |                   833 |                    1 |               2321 |             0 |                0 |          487918 |                     0 |        191838 | 2017-02-03 10:46:39.986223+01

 2017-02-03 13:12:35.225052+01 | 1486123955.22505 |                 0 |              30 |                   833 |                    1 |               2321 |             0 |                0 |          487918 |                     0 |        191838 | 2017-02-03 10:46:39.986223+01

 2017-02-03 13:12:36.32841+01 | 1486123956.32841 |                 0 |              30 |                   833 |                    1 |               2321 |             0 |                0 |          487918 |                     0 |        191838 | 2017-02-03 10:46:39.986223+01

 2017-02-03 13:12:37.415987+01 | 1486123957.41599 |                 0 |              30 |                   833 |                    1 |               2321 |             0 |                0 |          487918 |                     0 |        191838 | 2017-02-03 10:46:39.986223+01

 2017-02-03 13:12:38.504905+01 | 1486123958.5049 |                 0 |              30 |                   833 |                    1 |               2321 |             0 |                0 |          487918 |                     0 |        191838 | 2017-02-03 10:46:39.986223+01

 2017-02-03 13:12:39.595386+01 | 1486123959.59539 |                 0 |              30 |                   833 |                    1 |               2321 |             0 |                0 |          487918 |                     0 |        191838 | 2017-02-03 10:46:39.986223+01

 2017-02-03 13:12:40.695328+01 | 1486123960.69533 |                 0 |              30 |                   833 |                    1 |               2321 |             0 |                0 |          487918 |                     0 |        191838 | 2017-02-03 10:46:39.986223+01

 2017-02-03 13:12:41.78487+01 | 1486123961.78487 |                 0 |              30 |                   833 |                    1 |               2321 |             0 |                0 |          487918 |                     0 |        191838 | 2017-02-03 10:46:39.986223+01

 2017-02-03 13:12:42.891378+01 | 1486123962.89138 |                 0 |              30 |                   833 |                    1 |               2321 |             0 |                0 |          487918 |                     0 |        191838 | 2017-02-03 10:46:39.986223+01

 2017-02-03 13:12:44.001742+01 | 1486123964.00174 |                 0 |              30 |                   833 |                    1 |               2321 |             0 |                0 |          487918 |                     0 |        191838 | 2017-02-03 10:46:39.986223+01

 2017-02-03 13:12:45.103487+01 | 1486123965.10349 |                 0 |              30 |                   833 |                    1 |               2321 |             0 |                0 |          487918 |                     0 |        191838 | 2017-02-03 10:46:39.986223+01

 2017-02-03 13:12:46.205423+01 | 1486123966.20542 |                 0 |              30 |                   833 |                    1 |               2321 |             0 |                0 |          487918 |                     0 |        191838 | 2017-02-03 10:46:39.986223+01

 2017-02-03 13:12:47.307292+01 | 1486123967.30729 |                 0 |              30 |                   833 |                    1 |               2321 |             0 |                0 |          487918 |                     0 |        191838 | 2017-02-03 10:46:39.986223+01

 2017-02-03 13:12:48.409134+01 | 1486123968.40913 |                 0 |              30 |                   833 |                    1 |               2321 |             0 |                0 |          487918 |                     0 |        191838 | 2017-02-03 10:46:39.986223+01

 2017-02-03 13:12:49.494217+01 | 1486123969.49422 |                 0 |              30 |                   833 |                    1 |               2321 |             0 |                0 |          487918 |                     0 |        191838 | 2017-02-03 10:46:39.986223+01

 2017-02-03 13:12:50.580803+01 | 1486123970.5808 |                 0 |              30 |                   833 |                    1 |               2321 |             0 |                0 |          487918 |                     0 |        191838 | 2017-02-03 10:46:39.986223+01

 2017-02-03 13:12:51.664016+01 | 1486123971.66402 |                 0 |              30 |                   833 |                    1 |               2321 |             0 |                0 |          487918 |                     0 |        191838 | 2017-02-03 10:46:39.986223+01

 2017-02-03 13:12:52.758294+01 | 1486123972.75829 |                 0 |              30 |                   833 |                    1 |               2321 |             0 |                0 |          487918 |                     0 |        191838 | 2017-02-03 10:46:39.986223+01

 2017-02-03 13:12:53.848116+01 | 1486123973.84812 |                 0 |              30 |                   833 |                    1 |               2321 |             0 |                0 |          487918 |                     0 |        191838 | 2017-02-03 10:46:39.986223+01

 2017-02-03 13:12:54.943662+01 | 1486123974.94366 |                 0 |              30 |                   833 |                    1 |               2321 |             0 |                0 |          487918 |                     0 |        191838 | 2017-02-03 10:46:39.986223+01

 2017-02-03 13:12:56.059577+01 | 1486123976.05958 |                 0 |              30 |                   833 |                    1 |               2321 |             0 |                0 |          487918 |                     0 |        191838 | 2017-02-03 10:46:39.986223+01

 2017-02-03 13:12:57.156327+01 | 1486123977.15633 |                 0 |              30 |                   833 |                    1 |               2321 |             0 |                0 |          487918 |                     0 |        191838 | 2017-02-03 10:46:39.986223+01

 2017-02-03 13:12:58.257266+01 | 1486123978.25727 |                 0 |              30 |                   833 |                    1 |               2321 |             0 |                0 |          487918 |                     0 |        191838 | 2017-02-03 10:46:39.986223+01

 2017-02-03 13:12:59.350461+01 | 1486123979.35046 |                 0 |              30 |                   833 |                    1 |               2321 |             0 |                0 |          487918 |                     0 |        191838 | 2017-02-03 10:46:39.986223+01

 2017-02-03 13:13:00.446151+01 | 1486123980.44615 |                 0 |              30 |                   833 |                    1 |               2321 |             0 |                0 |          487918 |                     0 |        191838 | 2017-02-03 10:46:39.986223+01

 2017-02-03 13:13:01.52701+01 | 1486123981.52701 |                 0 |              30 |                   833 |                    1 |               2321 |             0 |                0 |          487918 |                     0 |        191838 | 2017-02-03 10:46:39.986223+01

 2017-02-03 13:13:02.612883+01 | 1486123982.61288 |                 0 |              30 |                   833 |                    1 |               2321 |             0 |                0 |          487918 |                     0 |        191838 | 2017-02-03 10:46:39.986223+01

 2017-02-03 13:13:03.707909+01 | 1486123983.70791 |                 0 |              30 |                   833 |                    1 |               2321 |             0 |                0 |          487918 |                     0 |        191838 | 2017-02-03 10:46:39.986223+01

 2017-02-03 13:13:04.79963+01 | 1486123984.79963 |                 0 |              30 |                   833 |                    1 |               2321 |             0 |                0 |          487918 |                     0 |        191838 | 2017-02-03 10:46:39.986223+01

 2017-02-03 13:13:05.893827+01 | 1486123985.89383 |                 0 |              30 |                   833 |                    1 |               2321 |             0 |                0 |          487918 |                     0 |        191838 | 2017-02-03 10:46:39.986223+01

 2017-02-03 13:13:06.994213+01 | 1486123986.99421 |                 0 |              30 |                   833 |                    1 |               2321 |             0 |                0 |          487918 |                     0 |        191838 | 2017-02-03 10:46:39.986223+01

 2017-02-03 13:13:08.090158+01 | 1486123988.09016 |                 0 |              30 |                   833 |                    1 |               2321 |             0 |                0 |          487918 |                     0 |        191838 | 2017-02-03 10:46:39.986223+01

 2017-02-03 13:13:09.187512+01 | 1486123989.18751 |                 0 |              30 |                   833 |                    1 |               2321 |             0 |                0 |          487918 |                     0 |        191838 | 2017-02-03 10:46:39.986223+01

 2017-02-03 13:13:10.281626+01 | 1486123990.28163 |                 0 |              30 |                   833 |                    1 |               2321 |             0 |                0 |          487918 |                     0 |        191838 | 2017-02-03 10:46:39.986223+01

 2017-02-03 13:13:11.377024+01 | 1486123991.37702 |                 0 |              30 |                   833 |                    1 |               2321 |             0 |                0 |          487918 |                     0 |        191838 | 2017-02-03 10:46:39.986223+01

 2017-02-03 13:13:12.459256+01 | 1486123992.45926 |                 0 |              30 |                   833 |                    1 |               2321 |             0 |                0 |          487918 |                     0 |        191838 | 2017-02-03 10:46:39.986223+01

 2017-02-03 13:13:13.545003+01 | 1486123993.545 |                 0 |              30 |                   833 |                    1 |               2321 |             0 |                0 |          487918 |                     0 |        191838 | 2017-02-03 10:46:39.986223+01

 2017-02-03 13:13:14.627007+01 | 1486123994.62701 |                 0 |              30 |                   833 |                    1 |               2321 |             0 |                0 |          487918 |                     0 |        191838 | 2017-02-03 10:46:39.986223+01

 2017-02-03 13:13:15.710473+01 | 1486123995.71047 |                 0 |              30 |                   833 |                    1 |               2321 |             0 |                0 |          487918 |                     0 |        191838 | 2017-02-03 10:46:39.986223+01

 2017-02-03 13:13:16.801886+01 | 1486123996.80189 |                 0 |              30 |                   833 |                    1 |               2321 |             0 |                0 |          487918 |                     0 |        191838 | 2017-02-03 10:46:39.986223+01

 2017-02-03 13:13:17.891999+01 | 1486123997.892 |                 0 |              30 |                   833 |                    1 |               2321 |             0 |                0 |          487918 |                     0 |        191838 | 2017-02-03 10:46:39.986223+01

 2017-02-03 13:13:18.991494+01 | 1486123998.99149 |                 0 |              30 |                   833 |                    1 |               2321 |             0 |                0 |          487918 |                     0 |        191838 | 2017-02-03 10:46:39.986223+01

 2017-02-03 13:13:20.108686+01 | 1486124000.10869 |                 0 |              30 |                   833 |                    1 |               2321 |             0 |                0 |          487918 |                     0 |        191838 | 2017-02-03 10:46:39.986223+01

 2017-02-03 13:13:21.213604+01 | 1486124001.2136 |                 0 |              30 |                   833 |                    1 |               2321 |             0 |                0 |          487918 |                     0 |        191838 | 2017-02-03 10:46:39.986223+01

 2017-02-03 13:13:22.318075+01 | 1486124002.31807 |                 0 |              30 |                   833 |                    1 |               2321 |             0 |                0 |          487918 |                     0 |        191838 | 2017-02-03 10:46:39.986223+01

 2017-02-03 13:13:23.417704+01 | 1486124003.4177 |                 0 |              30 |                   833 |                    1 |               2321 |             0 |                0 |          487918 |                     0 |        191838 | 2017-02-03 10:46:39.986223+01

 2017-02-03 13:13:24.50063+01 | 1486124004.50063 |                 0 |              30 |                   833 |                    1 |               2321 |             0 |                0 |          487918 |                     0 |        191838 | 2017-02-03 10:46:39.986223+01

 2017-02-03 13:13:25.581614+01 | 1486124005.58161 |                 0 |              30 |                   833 |                    1 |               2321 |             0 |                0 |          487918 |                     0 |        191838 | 2017-02-03 10:46:39.986223+01

 2017-02-03 13:13:26.668944+01 | 1486124006.66894 |                 0 |              30 |                   833 |                    1 |               2321 |             0 |                0 |          487918 |                     0 |        191838 | 2017-02-03 10:46:39.986223+01

 2017-02-03 13:13:27.756604+01 | 1486124007.7566 |                 0 |              30 |                   833 |                    1 |               2321 |             0 |                0 |          487918 |                     0 |        191838 | 2017-02-03 10:46:39.986223+01

 2017-02-03 13:13:28.844511+01 | 1486124008.84451 |                 0 |              30 |                   833 |                    1 |               2321 |             0 |                0 |          487918 |                     0 |        191838 | 2017-02-03 10:46:39.986223+01

 2017-02-03 13:13:29.944341+01 | 1486124009.94434 |                 0 |              30 |                   833 |                    1 |               2321 |             0 |                0 |          487918 |                     0 |        191838 | 2017-02-03 10:46:39.986223+01

 2017-02-03 13:13:31.048057+01 | 1486124011.04806 |                 0 |              30 |                   833 |                    1 |               2321 |             0 |                0 |          487918 |                     0 |        191838 | 2017-02-03 10:46:39.986223+01

 2017-02-03 13:13:32.151559+01 | 1486124012.15156 |                 0 |              30 |                   833 |                    1 |               2321 |             0 |                0 |          487918 |                     0 |        191838 | 2017-02-03 10:46:39.986223+01

 2017-02-03 13:13:33.25737+01 | 1486124013.25737 |                 0 |              30 |                   833 |                    1 |               2321 |             0 |                0 |          487918 |                     0 |        191838 | 2017-02-03 10:46:39.986223+01

 2017-02-03 13:13:34.348964+01 | 1486124014.34896 |                 0 |              30 |                   833 |                    1 |               2321 |             0 |                0 |          487918 |                     0 |        191838 | 2017-02-03 10:46:39.986223+01

 2017-02-03 13:13:35.441412+01 | 1486124015.44141 |                 0 |              30 |                   833 |                    1 |               2321 |             0 |                0 |          487918 |                     0 |        191838 | 2017-02-03 10:46:39.986223+01

 2017-02-03 13:13:36.531754+01 | 1486124016.53175 |                 0 |              30 |                   833 |                    1 |               2321 |             0 |                0 |          487918 |                     0 |        191838 | 2017-02-03 10:46:39.986223+01

 2017-02-03 13:13:37.621226+01 | 1486124017.62123 |                 0 |              30 |                   833 |                    1 |               2321 |             0 |                0 |          487918 |                     0 |        191838 | 2017-02-03 10:46:39.986223+01

 2017-02-03 13:13:38.702328+01 | 1486124018.70233 |                 0 |              30 |                   833 |                    1 |               2321 |             0 |                0 |          487918 |                     0 |        191838 | 2017-02-03 10:46:39.986223+01

 2017-02-03 13:13:39.792309+01 | 1486124019.79231 |                 0 |              30 |                   833 |                    1 |               2321 |             0 |                0 |          487918 |                     0 |        191838 | 2017-02-03 10:46:39.986223+01

 2017-02-03 13:13:40.887131+01 | 1486124020.88713 |                 0 |              30 |                   833 |                    1 |               2321 |             0 |                0 |          487918 |                     0 |        191838 | 2017-02-03 10:46:39.986223+01

 2017-02-03 13:13:42.001645+01 | 1486124022.00165 |                 0 |              30 |                   833 |                    1 |               2321 |             0 |                0 |          487918 |                     0 |        191838 | 2017-02-03 10:46:39.986223+01

 2017-02-03 13:13:43.097943+01 | 1486124023.09794 |                 0 |              30 |                   833 |                    1 |               2321 |             0 |                0 |          487918 |                     0 |        191838 | 2017-02-03 10:46:39.986223+01

 2017-02-03 13:13:44.196964+01 | 1486124024.19696 |                 0 |              30 |                   833 |                    1 |               2321 |             0 |                0 |          487918 |                     0 |        191838 | 2017-02-03 10:46:39.986223+01

 2017-02-03 13:13:45.293308+01 | 1486124025.29331 |                 0 |              30 |                   833 |                    1 |               2321 |             0 |                0 |          487918 |                     0 |        191838 | 2017-02-03 10:46:39.986223+01

 2017-02-03 13:13:46.39392+01 | 1486124026.39392 |                 0 |              30 |                   833 |                    1 |               2321 |             0 |                0 |          487918 |                     0 |        191838 | 2017-02-03 10:46:39.986223+01

 2017-02-03 13:13:47.48557+01 | 1486124027.48557 |                 0 |              30 |                   833 |                    1 |               2321 |             0 |                0 |          487918 |                     0 |        191838 | 2017-02-03 10:46:39.986223+01

 2017-02-03 13:13:48.573413+01 | 1486124028.57341 |                 0 |              30 |                   833 |                    1 |               2321 |             0 |                0 |          487918 |                     0 |        191838 | 2017-02-03 10:46:39.986223+01

 2017-02-03 13:13:49.653246+01 | 1486124029.65325 |                 0 |              30 |                   833 |                    1 |               2321 |             0 |                0 |          487918 |                     0 |        191838 | 2017-02-03 10:46:39.986223+01

 2017-02-03 13:13:50.750198+01 | 1486124030.7502 |                 0 |              30 |                   833 |                    1 |               2321 |             0 |                0 |          487918 |                     0 |        191838 | 2017-02-03 10:46:39.986223+01

 2017-02-03 13:13:51.835975+01 | 1486124031.83597 |                 0 |              30 |                   833 |                    1 |               2321 |             0 |                0 |          487918 |                     0 |        191838 | 2017-02-03 10:46:39.986223+01

 2017-02-03 13:13:52.926398+01 | 1486124032.9264 |                 0 |              30 |                   833 |                    1 |               2321 |             0 |                0 |          487918 |                     0 |        191838 | 2017-02-03 10:46:39.986223+01

 2017-02-03 13:13:54.019769+01 | 1486124034.01977 |                 0 |              30 |                   833 |                    1 |               2321 |             0 |                0 |          487918 |                     0 |        191838 | 2017-02-03 10:46:39.986223+01

 2017-02-03 13:13:55.1171+01 | 1486124035.1171 |                 0 |              30 |                   833 |                    1 |               2321 |             0 |                0 |          487918 |                     0 |        191838 | 2017-02-03 10:46:39.986223+01

 2017-02-03 13:13:56.206521+01 | 1486124036.20652 |                 0 |              30 |                   833 |                    1 |               2321 |             0 |                0 |          487918 |                     0 |        191838 | 2017-02-03 10:46:39.986223+01

 2017-02-03 13:13:57.300181+01 | 1486124037.30018 |                 0 |              30 |                   833 |                    1 |               2321 |             0 |                0 |          487918 |                     0 |        191838 | 2017-02-03 10:46:39.986223+01

 2017-02-03 13:13:58.399769+01 | 1486124038.39977 |                 0 |              30 |                   833 |                    1 |               2321 |             0 |                0 |          487918 |                     0 |        191838 | 2017-02-03 10:46:39.986223+01

 2017-02-03 13:13:59.490762+01 | 1486124039.49076 |                 0 |              30 |                   833 |                    1 |               2321 |             0 |                0 |          487918 |                     0 |        191838 | 2017-02-03 10:46:39.986223+01

 2017-02-03 13:14:00.578333+01 | 1486124040.57833 |                 0 |              30 |                   833 |                    1 |               2321 |             0 |                0 |          487918 |                     0 |        191838 | 2017-02-03 10:46:39.986223+01

 2017-02-03 13:14:01.667405+01 | 1486124041.6674 |                 0 |              30 |                   833 |                    1 |               2321 |             0 |                0 |          487918 |                     0 |        191838 | 2017-02-03 10:46:39.986223+01

 2017-02-03 13:14:02.754965+01 | 1486124042.75497 |                 0 |              30 |                   833 |                    1 |               2321 |             0 |                0 |          487918 |                     0 |        191838 | 2017-02-03 10:46:39.986223+01

 2017-02-03 13:14:03.841663+01 | 1486124043.84166 |                 0 |              30 |                   833 |                    1 |               2321 |             0 |                0 |          487918 |                     0 |        191838 | 2017-02-03 10:46:39.986223+01

 2017-02-03 13:14:04.944462+01 | 1486124044.94446 |                 0 |              30 |                   833 |                    1 |               2321 |             0 |                0 |          487918 |                     0 |        191838 | 2017-02-03 10:46:39.986223+01

 2017-02-03 13:14:06.040348+01 | 1486124046.04035 |                 0 |              30 |                   833 |                    1 |               2321 |             0 |                0 |          487918 |                     0 |        191838 | 2017-02-03 10:46:39.986223+01

 2017-02-03 13:14:07.128175+01 | 1486124047.12818 |                 0 |              30 |                   833 |                    1 |               2321 |             0 |                0 |          487918 |                     0 |        191838 | 2017-02-03 10:46:39.986223+01

 2017-02-03 13:14:08.241607+01 | 1486124048.24161 |                 0 |              30 |                   833 |                    1 |               2321 |             0 |                0 |          487918 |                     0 |        191838 | 2017-02-03 10:46:39.986223+01

 2017-02-03 13:14:09.337099+01 | 1486124049.3371 |                 0 |              30 |                   833 |                    1 |               2321 |             0 |                0 |          487918 |                     0 |        191838 | 2017-02-03 10:46:39.986223+01

 2017-02-03 13:14:10.437522+01 | 1486124050.43752 |                 0 |              30 |                   833 |                    1 |               2321 |             0 |                0 |          487918 |                     0 |        191838 | 2017-02-03 10:46:39.986223+01

 2017-02-03 13:14:11.531558+01 | 1486124051.53156 |                 0 |              30 |                   833 |                    1 |               2321 |             0 |                0 |          487918 |                     0 |        191838 | 2017-02-03 10:46:39.986223+01

 2017-02-03 13:14:12.616029+01 | 1486124052.61603 |                 0 |              30 |                   833 |                    1 |               2321 |             0 |                0 |          487918 |                     0 |        191838 | 2017-02-03 10:46:39.986223+01

 2017-02-03 13:14:13.705071+01 | 1486124053.70507 |                 0 |              30 |                   833 |                    1 |               2321 |             0 |                0 |          487918 |                     0 |        191838 | 2017-02-03 10:46:39.986223+01

 2017-02-03 13:14:14.802093+01 | 1486124054.80209 |                 0 |              30 |                   833 |                    1 |               2321 |             0 |                0 |          487918 |                     0 |        191838 | 2017-02-03 10:46:39.986223+01

 2017-02-03 13:14:15.893224+01 | 1486124055.89322 |                 0 |              30 |                   833 |                    1 |               2321 |             0 |                0 |          487918 |                     0 |        191838 | 2017-02-03 10:46:39.986223+01

 2017-02-03 13:14:16.985009+01 | 1486124056.98501 |                 0 |              30 |                   833 |                    1 |               2321 |             0 |                0 |          487918 |                     0 |        191838 | 2017-02-03 10:46:39.986223+01

 2017-02-03 13:14:18.090193+01 | 1486124058.09019 |                 0 |              30 |                   833 |                    1 |               2321 |             0 |                0 |          487918 |                     0 |        191838 | 2017-02-03 10:46:39.986223+01

 2017-02-03 13:14:19.17953+01 | 1486124059.17953 |                 0 |              30 |                   833 |                    1 |               2321 |             0 |                0 |          487918 |                     0 |        191838 | 2017-02-03 10:46:39.986223+01

 2017-02-03 13:14:20.272315+01 | 1486124060.27232 |                 0 |              30 |                   833 |                    1 |               2321 |             0 |                0 |          487918 |                     0 |        191838 | 2017-02-03 10:46:39.986223+01

 2017-02-03 13:14:21.362449+01 | 1486124061.36245 |                 0 |              30 |                   833 |                    1 |               2321 |             0 |                0 |          487918 |                     0 |        191838 | 2017-02-03 10:46:39.986223+01

 2017-02-03 13:14:22.457566+01 | 1486124062.45757 |                 0 |              30 |                   833 |                    1 |               2321 |             0 |                0 |          487918 |                     0 |        191838 | 2017-02-03 10:46:39.986223+01

 2017-02-03 13:14:23.546327+01 | 1486124063.54633 |                 0 |              30 |                   833 |                    1 |               2321 |             0 |                0 |          487918 |                     0 |        191838 | 2017-02-03 10:46:39.986223+01

 2017-02-03 13:14:24.632937+01 | 1486124064.63294 |                 0 |              30 |                   833 |                    1 |               2321 |             0 |                0 |          487918 |                     0 |        191838 | 2017-02-03 10:46:39.986223+01

 2017-02-03 13:14:25.716836+01 | 1486124065.71684 |                 0 |              30 |                   833 |                    1 |               2321 |             0 |                0 |          487918 |                     0 |        191838 | 2017-02-03 10:46:39.986223+01

 2017-02-03 13:14:26.80872+01 | 1486124066.80872 |                 0 |              30 |                   833 |                    1 |               2321 |             0 |                0 |          487918 |                     0 |        191838 | 2017-02-03 10:46:39.986223+01

 2017-02-03 13:14:27.900255+01 | 1486124067.90025 |                 0 |              30 |                   833 |                    1 |               2321 |             0 |                0 |          487918 |                     0 |        191838 | 2017-02-03 10:46:39.986223+01

 2017-02-03 13:14:28.996509+01 | 1486124068.99651 |                 0 |              30 |                   833 |                    1 |               2321 |             0 |                0 |          487918 |                     0 |        191838 | 2017-02-03 10:46:39.986223+01

 2017-02-03 13:14:30.111254+01 | 1486124070.11125 |                 0 |              30 |                   833 |                    1 |               2321 |             0 |                0 |          487918 |                     0 |        191838 | 2017-02-03 10:46:39.986223+01

 2017-02-03 13:14:31.220413+01 | 1486124071.22041 |                 0 |              30 |                   833 |                    1 |               2321 |             0 |                0 |          487918 |                     0 |        191838 | 2017-02-03 10:46:39.986223+01

 2017-02-03 13:14:32.326723+01 | 1486124072.32672 |                 0 |              30 |                   833 |                    1 |               2321 |             0 |                0 |          487918 |                     0 |        191838 | 2017-02-03 10:46:39.986223+01

 2017-02-03 13:14:33.430724+01 | 1486124073.43072 |                 0 |              30 |                   833 |                    1 |               2321 |             0 |                0 |          487918 |                     0 |        191838 | 2017-02-03 10:46:39.986223+01

 2017-02-03 13:14:34.528741+01 | 1486124074.52874 |                 0 |              30 |                   833 |                    1 |               2321 |             0 |                0 |          487918 |                     0 |        191838 | 2017-02-03 10:46:39.986223+01

 2017-02-03 13:14:35.622146+01 | 1486124075.62215 |                 0 |              30 |                   833 |                    1 |               2321 |             0 |                0 |          487918 |                     0 |        191838 | 2017-02-03 10:46:39.986223+01

 2017-02-03 13:14:36.710063+01 | 1486124076.71006 |                 0 |              30 |                   833 |                    1 |               2321 |             0 |                0 |          487918 |                     0 |        191838 | 2017-02-03 10:46:39.986223+01

 2017-02-03 13:14:37.792878+01 | 1486124077.79288 |                 0 |              30 |                   833 |                    1 |               2321 |             0 |                0 |          487918 |                     0 |        191838 | 2017-02-03 10:46:39.986223+01

 2017-02-03 13:14:38.880243+01 | 1486124078.88024 |                 0 |              30 |                   833 |                    1 |               2321 |             0 |                0 |          487918 |                     0 |        191838 | 2017-02-03 10:46:39.986223+01

 2017-02-03 13:14:39.972429+01 | 1486124079.97243 |                 0 |              30 |                   833 |                    1 |               2321 |             0 |                0 |          487918 |                     0 |        191838 | 2017-02-03 10:46:39.986223+01

 2017-02-03 13:14:41.068506+01 | 1486124081.06851 |                 0 |              30 |                   833 |                    1 |               2321 |             0 |                0 |          487918 |                     0 |        191838 | 2017-02-03 10:46:39.986223+01

 2017-02-03 13:14:42.1673+01 | 1486124082.1673 |                 0 |              30 |                   833 |                    1 |               2321 |             0 |                0 |          487918 |                     0 |        191838 | 2017-02-03 10:46:39.986223+01

 2017-02-03 13:14:43.264099+01 | 1486124083.2641 |                 0 |              30 |                   833 |                    1 |               2321 |             0 |                0 |          487918 |                     0 |        191838 | 2017-02-03 10:46:39.986223+01

 2017-02-03 13:14:44.363545+01 | 1486124084.36354 |                 0 |              30 |                   833 |                    1 |               2321 |             0 |                0 |          487918 |                     0 |        191838 | 2017-02-03 10:46:39.986223+01

 2017-02-03 13:14:45.459949+01 | 1486124085.45995 |                 0 |              30 |                   833 |                    1 |               2321 |             0 |                0 |          487918 |                     0 |        191838 | 2017-02-03 10:46:39.986223+01

 2017-02-03 13:14:46.553119+01 | 1486124086.55312 |                 0 |              30 |                   833 |                    1 |               2321 |             0 |                0 |          487918 |                     0 |        191838 | 2017-02-03 10:46:39.986223+01

 2017-02-03 13:14:47.637108+01 | 1486124087.63711 |                 0 |              30 |                   833 |                    1 |               2321 |             0 |                0 |          487918 |                     0 |        191838 | 2017-02-03 10:46:39.986223+01

 2017-02-03 13:14:48.7241+01 | 1486124088.7241 |                 0 |              30 |                   833 |                    1 |               2321 |             0 |                0 |          487918 |                     0 |        191838 | 2017-02-03 10:46:39.986223+01

 2017-02-03 13:14:49.807039+01 | 1486124089.80704 |                 0 |              30 |                   833 |                    1 |               2321 |             0 |                0 |          487918 |                     0 |        191838 | 2017-02-03 10:46:39.986223+01

 2017-02-03 13:14:50.904468+01 | 1486124090.90447 |                 0 |              30 |                   833 |                    1 |               2321 |             0 |                0 |          487918 |                     0 |        191838 | 2017-02-03 10:46:39.986223+01

 2017-02-03 13:14:51.992036+01 | 1486124091.99204 |                 0 |              30 |                   833 |                    1 |               2321 |             0 |                0 |          487918 |                     0 |        191838 | 2017-02-03 10:46:39.986223+01

 2017-02-03 13:14:53.086968+01 | 1486124093.08697 |                 0 |              30 |                   833 |                    1 |               2321 |             0 |                0 |          487918 |                     0 |        191838 | 2017-02-03 10:46:39.986223+01

 2017-02-03 13:14:54.189028+01 | 1486124094.18903 |                 0 |              30 |                   833 |                    1 |               2321 |             0 |                0 |          487918 |                     0 |        191838 | 2017-02-03 10:46:39.986223+01

 2017-02-03 13:14:55.294903+01 | 1486124095.2949 |                 0 |              30 |                   833 |                    1 |               2321 |             0 |                0 |          487918 |                     0 |        191838 | 2017-02-03 10:46:39.986223+01

 2017-02-03 13:14:56.402503+01 | 1486124096.4025 |                 0 |              30 |                   833 |                    1 |               2321 |             0 |                0 |          487918 |                     0 |        191838 | 2017-02-03 10:46:39.986223+01

 2017-02-03 13:14:57.496356+01 | 1486124097.49636 |                 0 |              30 |                   833 |                    1 |               2321 |             0 |                0 |          487918 |                     0 |        191838 | 2017-02-03 10:46:39.986223+01

 2017-02-03 13:14:58.590503+01 | 1486124098.5905 |                 0 |              30 |                   833 |                    1 |               2321 |             0 |                0 |          487918 |                     0 |        191838 | 2017-02-03 10:46:39.986223+01

 2017-02-03 13:14:59.680888+01 | 1486124099.68089 |                 0 |              30 |                   833 |                    1 |               2321 |             0 |                0 |          487918 |                     0 |        191838 | 2017-02-03 10:46:39.986223+01

 2017-02-03 13:15:00.782594+01 | 1486124100.78259 |                 0 |              30 |                   833 |                    1 |               2321 |             0 |                0 |          487918 |                     0 |        191838 | 2017-02-03 10:46:39.986223+01

 2017-02-03 13:15:01.86602+01 | 1486124101.86602 |                 0 |              30 |                   833 |                    1 |               2321 |             0 |                0 |          487918 |                     0 |        191838 | 2017-02-03 10:46:39.986223+01

 2017-02-03 13:15:02.970114+01 | 1486124102.97011 |                 0 |              30 |                   833 |                    1 |               2321 |             0 |                0 |          487918 |                     0 |        191838 | 2017-02-03 10:46:39.986223+01

 2017-02-03 13:15:04.065538+01 | 1486124104.06554 |                 0 |              30 |                   833 |                    1 |               2321 |             0 |                0 |          487918 |                     0 |        191838 | 2017-02-03 10:46:39.986223+01

 2017-02-03 13:15:05.169933+01 | 1486124105.16993 |                 0 |              30 |                   833 |                    1 |               2321 |             0 |                0 |          487918 |                     0 |        191838 | 2017-02-03 10:46:39.986223+01

 2017-02-03 13:15:06.277925+01 | 1486124106.27793 |                 0 |              30 |                   833 |                    1 |               2321 |             0 |                0 |          487918 |                     0 |        191838 | 2017-02-03 10:46:39.986223+01

 2017-02-03 13:15:07.38664+01 | 1486124107.38664 |                 0 |              30 |                   833 |                    1 |               2321 |             0 |                0 |          487918 |                     0 |        191838 | 2017-02-03 10:46:39.986223+01

 2017-02-03 13:15:08.490806+01 | 1486124108.49081 |                 0 |              30 |                   833 |                    1 |               2321 |             0 |                0 |          487918 |                     0 |        191838 | 2017-02-03 10:46:39.986223+01

 2017-02-03 13:15:09.5818+01 | 1486124109.5818 |                 0 |              30 |                   833 |                    1 |               2321 |             0 |                0 |          487918 |                     0 |        191838 | 2017-02-03 10:46:39.986223+01

 2017-02-03 13:15:10.666902+01 | 1486124110.6669 |                 0 |              30 |                   833 |                    1 |               2321 |             0 |                0 |          487918 |                     0 |        191838 | 2017-02-03 10:46:39.986223+01

 2017-02-03 13:15:11.750796+01 | 1486124111.7508 |                 0 |              30 |                   833 |                    1 |               2321 |             0 |                0 |          487918 |                     0 |        191838 | 2017-02-03 10:46:39.986223+01

 2017-02-03 13:15:12.85015+01 | 1486124112.85015 |                 0 |              30 |                   833 |                    1 |               2321 |             0 |                0 |          487918 |                     0 |        191838 | 2017-02-03 10:46:39.986223+01

 2017-02-03 13:15:13.939738+01 | 1486124113.93974 |                 0 |              30 |                   833 |                    1 |               2321 |             0 |                0 |          487918 |                     0 |        191838 | 2017-02-03 10:46:39.986223+01

 2017-02-03 13:15:15.05355+01 | 1486124115.05355 |                 0 |              30 |                   833 |                    1 |               2321 |             0 |                0 |          487918 |                     0 |        191838 | 2017-02-03 10:46:39.986223+01

 2017-02-03 13:15:16.158557+01 | 1486124116.15856 |                 0 |              30 |                   833 |                    1 |               2321 |             0 |                0 |          487918 |                     0 |        191838 | 2017-02-03 10:46:39.986223+01

 2017-02-03 13:15:17.263278+01 | 1486124117.26328 |                 0 |              30 |                   833 |                    1 |               2321 |             0 |                0 |          487918 |                     0 |        191838 | 2017-02-03 10:46:39.986223+01

 2017-02-03 13:15:18.375729+01 | 1486124118.37573 |                 0 |              30 |                   833 |                    1 |               2321 |             0 |                0 |          487918 |                     0 |        191838 | 2017-02-03 10:46:39.986223+01

 2017-02-03 13:15:19.485861+01 | 1486124119.48586 |                 0 |              30 |                   833 |                    1 |               2321 |             0 |                0 |          487918 |                     0 |        191838 | 2017-02-03 10:46:39.986223+01

 2017-02-03 13:15:20.580909+01 | 1486124120.58091 |                 0 |              30 |                   833 |                    1 |               2321 |             0 |                0 |          487918 |                     0 |        191838 | 2017-02-03 10:46:39.986223+01

 2017-02-03 13:15:21.668738+01 | 1486124121.66874 |                 0 |              30 |                   833 |                    1 |               2321 |             0 |                0 |          487918 |                     0 |        191838 | 2017-02-03 10:46:39.986223+01

 2017-02-03 13:15:22.757462+01 | 1486124122.75746 |                 0 |              30 |                   833 |                    1 |               2321 |             0 |                0 |          487918 |                     0 |        191838 | 2017-02-03 10:46:39.986223+01

 2017-02-03 13:15:23.847108+01 | 1486124123.84711 |                 0 |              30 |                   833 |                    1 |               2321 |             0 |                0 |          487918 |                     0 |        191838 | 2017-02-03 10:46:39.986223+01

 2017-02-03 13:15:24.939268+01 | 1486124124.93927 |                 0 |              30 |                   833 |                    1 |               2321 |             0 |                0 |          487918 |                     0 |        191838 | 2017-02-03 10:46:39.986223+01

 2017-02-03 13:15:26.034156+01 | 1486124126.03416 |                 0 |              30 |                   833 |                    1 |               2321 |             0 |                0 |          487918 |                     0 |        191838 | 2017-02-03 10:46:39.986223+01

 2017-02-03 13:15:27.13348+01 | 1486124127.13348 |                 0 |              30 |                   833 |                    1 |               2321 |             0 |                0 |          487918 |                     0 |        191838 | 2017-02-03 10:46:39.986223+01

 2017-02-03 13:15:28.235009+01 | 1486124128.23501 |                 0 |              30 |                   833 |                    1 |               2321 |             0 |                0 |          487918 |                     0 |        191838 | 2017-02-03 10:46:39.986223+01

 2017-02-03 13:15:29.330677+01 | 1486124129.33068 |                 0 |              30 |                   833 |                    1 |               2321 |             0 |                0 |          487918 |                     0 |        191838 | 2017-02-03 10:46:39.986223+01

 2017-02-03 13:15:30.435371+01 | 1486124130.43537 |                 0 |              30 |                   833 |                    1 |               2321 |             0 |                0 |          487918 |                     0 |        191838 | 2017-02-03 10:46:39.986223+01

 2017-02-03 13:15:31.532401+01 | 1486124131.5324 |                 0 |              30 |                   833 |                    1 |               2321 |             0 |                0 |          487918 |                     0 |        191838 | 2017-02-03 10:46:39.986223+01

 2017-02-03 13:15:32.636009+01 | 1486124132.63601 |                 0 |              30 |                   833 |                    1 |               2321 |             0 |                0 |          487918 |                     0 |        191838 | 2017-02-03 10:46:39.986223+01

 2017-02-03 13:15:33.727592+01 | 1486124133.72759 |                 0 |              30 |                   833 |                    1 |               2321 |             0 |                0 |          487918 |                     0 |        191838 | 2017-02-03 10:46:39.986223+01

 2017-02-03 13:15:34.820698+01 | 1486124134.8207 |                 0 |              30 |                   833 |                    1 |               2321 |             0 |                0 |          487918 |                     0 |        191838 | 2017-02-03 10:46:39.986223+01

 2017-02-03 13:15:35.927358+01 | 1486124135.92736 |                 0 |              30 |                   833 |                    1 |               2321 |             0 |                0 |          487918 |                     0 |        191838 | 2017-02-03 10:46:39.986223+01

 2017-02-03 13:15:37.026577+01 | 1486124137.02658 |                 0 |              30 |                   833 |                    1 |               2321 |             0 |                0 |          487918 |                     0 |        191838 | 2017-02-03 10:46:39.986223+01

 2017-02-03 13:15:38.138543+01 | 1486124138.13854 |                 0 |              30 |                   833 |                    1 |               2321 |             0 |                0 |          487918 |                     0 |        191838 | 2017-02-03 10:46:39.986223+01

 2017-02-03 13:15:39.239403+01 | 1486124139.2394 |                 0 |              30 |                   833 |                    1 |               2321 |             0 |                0 |          487918 |                     0 |        191838 | 2017-02-03 10:46:39.986223+01

 2017-02-03 13:15:40.340187+01 | 1486124140.34019 |                 0 |              30 |                   833 |                    1 |               2321 |             0 |                0 |          487918 |                     0 |        191838 | 2017-02-03 10:46:39.986223+01

 2017-02-03 13:15:41.45346+01 | 1486124141.45346 |                 0 |              30 |                   833 |                    1 |               2321 |             0 |                0 |          487918 |                     0 |        191838 | 2017-02-03 10:46:39.986223+01

 2017-02-03 13:15:42.557926+01 | 1486124142.55793 |                 0 |              30 |                   833 |                    1 |               2321 |             0 |                0 |          487918 |                     0 |        191838 | 2017-02-03 10:46:39.986223+01

 2017-02-03 13:15:43.660115+01 | 1486124143.66012 |                 0 |              30 |                   833 |                    1 |               2321 |             0 |                0 |          487918 |                     0 |        191838 | 2017-02-03 10:46:39.986223+01

 2017-02-03 13:15:44.751232+01 | 1486124144.75123 |                 0 |              30 |                   833 |                    1 |               2321 |             0 |                0 |          487918 |                     0 |        191838 | 2017-02-03 10:46:39.986223+01

 2017-02-03 13:15:45.835048+01 | 1486124145.83505 |                 0 |              30 |                   833 |                    1 |               2321 |             0 |                0 |          487918 |                     0 |        191838 | 2017-02-03 10:46:39.986223+01

 2017-02-03 13:15:46.927379+01 | 1486124146.92738 |                 0 |              30 |                   833 |                    1 |               2321 |             0 |                0 |          487918 |                     0 |        191838 | 2017-02-03 10:46:39.986223+01

 2017-02-03 13:15:48.034482+01 | 1486124148.03448 |                 0 |              30 |                   833 |                    1 |               2321 |             0 |                0 |          487918 |                     0 |        191838 | 2017-02-03 10:46:39.986223+01

 2017-02-03 13:15:49.128272+01 | 1486124149.12827 |                 0 |              30 |                   833 |                    1 |               2321 |             0 |                0 |          487918 |                     0 |        191838 | 2017-02-03 10:46:39.986223+01

 2017-02-03 13:15:50.215458+01 | 1486124150.21546 |                 0 |              30 |                   833 |                    1 |               2321 |             0 |                0 |          487918 |                     0 |        191838 | 2017-02-03 10:46:39.986223+01

 2017-02-03 13:15:51.323432+01 | 1486124151.32343 |                 0 |              30 |                   833 |                    1 |               2321 |             0 |                0 |          487918 |                     0 |        191838 | 2017-02-03 10:46:39.986223+01

 2017-02-03 13:15:52.427472+01 | 1486124152.42747 |                 0 |              30 |                   833 |                    1 |               2321 |             0 |                0 |          487918 |                     0 |        191838 | 2017-02-03 10:46:39.986223+01

 2017-02-03 13:15:53.534996+01 | 1486124153.535 |                 0 |              30 |                   833 |                    1 |               2321 |             0 |                0 |          487918 |                     0 |        191838 | 2017-02-03 10:46:39.986223+01

 2017-02-03 13:15:54.635473+01 | 1486124154.63547 |                 0 |              30 |                   833 |                    1 |               2321 |             0 |                0 |          487918 |                     0 |        191838 | 2017-02-03 10:46:39.986223+01

 2017-02-03 13:15:55.715926+01 | 1486124155.71593 |                 0 |              30 |                   833 |                    1 |               2321 |             0 |                0 |          487918 |                     0 |        191838 | 2017-02-03 10:46:39.986223+01

 2017-02-03 13:15:56.800186+01 | 1486124156.80019 |                 0 |              30 |                   833 |                    1 |               2321 |             0 |                0 |          487918 |                     0 |        191838 | 2017-02-03 10:46:39.986223+01

 2017-02-03 13:15:57.891137+01 | 1486124157.89114 |                 0 |              30 |                   833 |                    1 |               2321 |             0 |                0 |          487918 |                     0 |        191838 | 2017-02-03 10:46:39.986223+01

 2017-02-03 13:15:58.977991+01 | 1486124158.97799 |                 0 |              30 |                   833 |                    1 |               2321 |             0 |                0 |          487918 |                     0 |        191838 | 2017-02-03 10:46:39.986223+01

 2017-02-03 13:16:00.076807+01 | 1486124160.07681 |                 0 |              30 |                   833 |                    1 |               2321 |             0 |                0 |          487918 |                     0 |        191838 | 2017-02-03 10:46:39.986223+01

 2017-02-03 13:16:01.176769+01 | 1486124161.17677 |                 0 |              30 |                   833 |                    1 |               2321 |             0 |                0 |          487918 |                     0 |        191838 | 2017-02-03 10:46:39.986223+01

 2017-02-03 13:16:02.281828+01 | 1486124162.28183 |                 0 |              30 |                   833 |                    1 |               2321 |             0 |                0 |          487918 |                     0 |        191838 | 2017-02-03 10:46:39.986223+01

 2017-02-03 13:16:03.384971+01 | 1486124163.38497 |                 0 |              30 |                   833 |                    1 |               2321 |             0 |                0 |          487918 |                     0 |        191838 | 2017-02-03 10:46:39.986223+01

 2017-02-03 13:16:04.498731+01 | 1486124164.49873 |                 0 |              30 |                   833 |                    1 |               2321 |             0 |                0 |          487918 |                     0 |        191838 | 2017-02-03 10:46:39.986223+01

 2017-02-03 13:16:05.61799+01 | 1486124165.61799 |                 0 |              30 |                   833 |                    1 |               2321 |             0 |                0 |          487918 |                     0 |        191838 | 2017-02-03 10:46:39.986223+01

 2017-02-03 13:16:06.711915+01 | 1486124166.71192 |                 0 |              30 |                   833 |                    1 |               2321 |             0 |                0 |          487918 |                     0 |        191838 | 2017-02-03 10:46:39.986223+01

 2017-02-03 13:16:07.800024+01 | 1486124167.80002 |                 0 |              30 |                   833 |                    1 |               2321 |             0 |                0 |          487918 |                     0 |        191838 | 2017-02-03 10:46:39.986223+01

 2017-02-03 13:16:08.888087+01 | 1486124168.88809 |                 0 |              30 |                   833 |                    1 |               2321 |             0 |                0 |          487918 |                     0 |        191838 | 2017-02-03 10:46:39.986223+01

 2017-02-03 13:16:09.97861+01 | 1486124169.97861 |                 0 |              30 |                   833 |                    1 |               2321 |             0 |                0 |          487918 |                     0 |        191838 | 2017-02-03 10:46:39.986223+01

 2017-02-03 13:16:11.072376+01 | 1486124171.07238 |                 0 |              30 |                   833 |                    1 |               2321 |             0 |                0 |          487918 |                     0 |        191838 | 2017-02-03 10:46:39.986223+01

 2017-02-03 13:16:12.189943+01 | 1486124172.18994 |                 0 |              30 |                   833 |                    1 |               2321 |             0 |                0 |          487918 |                     0 |        191838 | 2017-02-03 10:46:39.986223+01

 2017-02-03 13:16:13.290544+01 | 1486124173.29054 |                 0 |              30 |                   833 |                    1 |               2321 |             0 |                0 |          487918 |                     0 |        191838 | 2017-02-03 10:46:39.986223+01

 2017-02-03 13:16:14.372241+01 | 1486124174.37224 |                 0 |              30 |                   833 |                    1 |               2321 |             0 |                0 |          487918 |                     0 |        191838 | 2017-02-03 10:46:39.986223+01

 2017-02-03 13:16:15.468803+01 | 1486124175.4688 |                 0 |              30 |                   833 |                    1 |               2321 |             0 |                0 |          487918 |                     0 |        191838 | 2017-02-03 10:46:39.986223+01

 2017-02-03 13:16:16.572599+01 | 1486124176.5726 |                 0 |              30 |                   833 |                    1 |               2321 |             0 |                0 |          487918 |                     0 |        191838 | 2017-02-03 10:46:39.986223+01

 2017-02-03 13:16:17.674898+01 | 1486124177.6749 |                 0 |              30 |                   833 |                    1 |               2321 |             0 |                0 |          487918 |                     0 |        191838 | 2017-02-03 10:46:39.986223+01

 2017-02-03 13:16:18.762999+01 | 1486124178.763 |                 0 |              30 |                   833 |                    1 |               2321 |             0 |                0 |          487918 |                     0 |        191838 | 2017-02-03 10:46:39.986223+01

 2017-02-03 13:16:19.855166+01 | 1486124179.85517 |                 0 |              30 |                   833 |                    1 |               2321 |             0 |                0 |          487918 |                     0 |        191838 | 2017-02-03 10:46:39.986223+01

 2017-02-03 13:16:20.952902+01 | 1486124180.9529 |                 0 |              30 |                   833 |                    1 |               2321 |             0 |                0 |          487918 |                     0 |        191838 | 2017-02-03 10:46:39.986223+01

 2017-02-03 13:16:22.055589+01 | 1486124182.05559 |                 0 |              30 |                   833 |                    1 |               2321 |             0 |                0 |          487918 |                     0 |        191838 | 2017-02-03 10:46:39.986223+01

 2017-02-03 13:16:23.150851+01 | 1486124183.15085 |                 0 |              30 |                   833 |                    1 |               2321 |             0 |                0 |          487918 |                     0 |        191838 | 2017-02-03 10:46:39.986223+01

 2017-02-03 13:16:24.254824+01 | 1486124184.25482 |                 0 |              30 |                   833 |                    1 |               2321 |             0 |                0 |          487918 |                     0 |        191838 | 2017-02-03 10:46:39.986223+01

 2017-02-03 13:16:25.358943+01 | 1486124185.35894 |                 0 |              30 |                   833 |                    1 |               2321 |             0 |                0 |          487918 |                     0 |        191838 | 2017-02-03 10:46:39.986223+01

 2017-02-03 13:16:26.453216+01 | 1486124186.45322 |                 0 |              30 |                   833 |                    1 |               2321 |             0 |                0 |          487918 |                     0 |        191838 | 2017-02-03 10:46:39.986223+01

 2017-02-03 13:16:27.536535+01 | 1486124187.53654 |                 0 |              30 |                   833 |                    1 |               2321 |             0 |                0 |          487918 |                     0 |        191838 | 2017-02-03 10:46:39.986223+01

 2017-02-03 13:16:28.655627+01 | 1486124188.65563 |                 0 |              30 |                   833 |                    1 |               2321 |             0 |                0 |          487918 |                     0 |        191838 | 2017-02-03 10:46:39.986223+01

 2017-02-03 13:16:29.745094+01 | 1486124189.74509 |                 0 |              30 |                   833 |                    1 |               2321 |             0 |                0 |          487918 |                     0 |        191838 | 2017-02-03 10:46:39.986223+01

 2017-02-03 13:16:30.827724+01 | 1486124190.82772 |                 0 |              30 |                   833 |                    1 |               2321 |             0 |                0 |          487918 |                     0 |        191838 | 2017-02-03 10:46:39.986223+01

 2017-02-03 13:16:31.918074+01 | 1486124191.91807 |                 0 |              30 |                   833 |                    1 |               2321 |             0 |                0 |          487918 |                     0 |        191838 | 2017-02-03 10:46:39.986223+01

 2017-02-03 13:16:33.018784+01 | 1486124193.01878 |                 0 |              30 |                   833 |                    1 |               2321 |             0 |                0 |          487918 |                     0 |        191838 | 2017-02-03 10:46:39.986223+01

 2017-02-03 13:16:34.117683+01 | 1486124194.11768 |                 0 |              30 |                   833 |                    1 |               2321 |             0 |                0 |          487918 |                     0 |        191838 | 2017-02-03 10:46:39.986223+01

 2017-02-03 13:16:35.219884+01 | 1486124195.21988 |                 0 |              30 |                   833 |                    1 |               2321 |             0 |                0 |          487918 |                     0 |        191838 | 2017-02-03 10:46:39.986223+01

 2017-02-03 13:16:36.313862+01 | 1486124196.31386 |                 0 |              30 |                   833 |                    1 |               2321 |             0 |                0 |          487918 |                     0 |        191838 | 2017-02-03 10:46:39.986223+01

 2017-02-03 13:16:37.410139+01 | 1486124197.41014 |                 0 |              30 |                   833 |                    1 |               2321 |             0 |                0 |          487918 |                     0 |        191838 | 2017-02-03 10:46:39.986223+01

 2017-02-03 13:16:38.515886+01 | 1486124198.51589 |                 0 |              30 |                   833 |                    1 |               2321 |             0 |                0 |          487918 |                     0 |        191838 | 2017-02-03 10:46:39.986223+01

 2017-02-03 13:16:39.612332+01 | 1486124199.61233 |                 0 |              30 |                   833 |                    1 |               2321 |             0 |                0 |          487918 |                     0 |        191838 | 2017-02-03 10:46:39.986223+01

 2017-02-03 13:16:40.697275+01 | 1486124200.69727 |                 0 |              30 |                   833 |                    1 |               2321 |             0 |                0 |          487918 |                     0 |        191838 | 2017-02-03 10:46:39.986223+01

 2017-02-03 13:16:41.781454+01 | 1486124201.78145 |                 0 |              30 |                   833 |                    1 |               2321 |             0 |                0 |          487918 |                     0 |        191838 | 2017-02-03 10:46:39.986223+01

 2017-02-03 13:16:42.870544+01 | 1486124202.87054 |                 0 |              30 |                   833 |                    1 |               2321 |             0 |                0 |          487918 |                     0 |        191838 | 2017-02-03 10:46:39.986223+01

 2017-02-03 13:16:43.966308+01 | 1486124203.96631 |                 0 |              30 |                   833 |                    1 |               2321 |             0 |                0 |          487918 |                     0 |        191838 | 2017-02-03 10:46:39.986223+01

 2017-02-03 13:16:45.056763+01 | 1486124205.05676 |                 0 |              30 |                   833 |                    1 |               2321 |             0 |                0 |          487918 |                     0 |        191838 | 2017-02-03 10:46:39.986223+01

 2017-02-03 13:16:46.165351+01 | 1486124206.16535 |                 0 |              30 |                   833 |                    1 |               2321 |             0 |                0 |          487918 |                     0 |        191838 | 2017-02-03 10:46:39.986223+01

 2017-02-03 13:16:47.260484+01 | 1486124207.26048 |                 0 |              30 |                   833 |                    1 |               2321 |             0 |                0 |          487918 |                     0 |        191838 | 2017-02-03 10:46:39.986223+01

 2017-02-03 13:16:48.35815+01 | 1486124208.35815 |                 0 |              30 |                   833 |                    1 |               2321 |             0 |                0 |          487918 |                     0 |        191838 | 2017-02-03 10:46:39.986223+01

 2017-02-03 13:16:49.459068+01 | 1486124209.45907 |                 0 |              30 |                   833 |                    1 |               2321 |             0 |                0 |          487918 |                     0 |        191838 | 2017-02-03 10:46:39.986223+01

 2017-02-03 13:16:50.56323+01 | 1486124210.56323 |                 0 |              30 |                   833 |                    1 |               2321 |             0 |                0 |          487918 |                     0 |        191838 | 2017-02-03 10:46:39.986223+01

 2017-02-03 13:16:51.653316+01 | 1486124211.65332 |                 0 |              30 |                   833 |                    1 |               2321 |             0 |                0 |          487918 |                     0 |        191838 | 2017-02-03 10:46:39.986223+01

 2017-02-03 13:16:52.750443+01 | 1486124212.75044 |                 0 |              30 |                   833 |                    1 |               2321 |             0 |                0 |          487918 |                     0 |        191838 | 2017-02-03 10:46:39.986223+01

 2017-02-03 13:16:53.837037+01 | 1486124213.83704 |                 0 |              30 |                   833 |                    1 |               2321 |             0 |                0 |          487918 |                     0 |        191838 | 2017-02-03 10:46:39.986223+01

 2017-02-03 13:16:54.92577+01 | 1486124214.92577 |                 0 |              30 |                   833 |                    1 |               2321 |             0 |                0 |          487918 |                     0 |        191838 | 2017-02-03 10:46:39.986223+01

 2017-02-03 13:16:56.022397+01 | 1486124216.0224 |                 0 |              30 |                   833 |                    1 |               2321 |             0 |                0 |          487918 |                     0 |        191838 | 2017-02-03 10:46:39.986223+01

 2017-02-03 13:16:57.107076+01 | 1486124217.10708 |                 0 |              30 |                   833 |                    1 |               2321 |             0 |                0 |          487918 |                     0 |        191838 | 2017-02-03 10:46:39.986223+01

 2017-02-03 13:16:58.227645+01 | 1486124218.22764 |                 0 |              30 |                   833 |                    1 |               2321 |             0 |                0 |          487918 |                     0 |        191838 | 2017-02-03 10:46:39.986223+01

 2017-02-03 13:16:59.322723+01 | 1486124219.32272 |                 0 |              30 |                   833 |                    1 |               2321 |             0 |                0 |          487918 |                     0 |        191838 | 2017-02-03 10:46:39.986223+01

 2017-02-03 13:17:00.426392+01 | 1486124220.42639 |                 0 |              30 |                   833 |                    1 |               2321 |             0 |                0 |          487918 |                     0 |        191838 | 2017-02-03 10:46:39.986223+01

 2017-02-03 13:17:01.532796+01 | 1486124221.5328 |                 0 |              30 |                   833 |                    1 |               2321 |             0 |                0 |          487918 |                     0 |        191838 | 2017-02-03 10:46:39.986223+01

 2017-02-03 13:17:02.644812+01 | 1486124222.64481 |                 0 |              30 |                   833 |                    1 |               2321 |             0 |                0 |          487918 |                     0 |        191838 | 2017-02-03 10:46:39.986223+01

 2017-02-03 13:17:03.744534+01 | 1486124223.74453 |                 0 |              30 |                   833 |                    1 |               2321 |             0 |                0 |          487918 |                     0 |        191838 | 2017-02-03 10:46:39.986223+01

 2017-02-03 13:17:04.833012+01 | 1486124224.83301 |                 0 |              30 |                   833 |                    1 |               2321 |             0 |                0 |          487918 |                     0 |        191838 | 2017-02-03 10:46:39.986223+01

 2017-02-03 13:17:05.921255+01 | 1486124225.92126 |                 0 |              30 |                   833 |                    1 |               2321 |             0 |                0 |          487918 |                     0 |        191838 | 2017-02-03 10:46:39.986223+01

 2017-02-03 13:17:07.012068+01 | 1486124227.01207 |                 0 |              30 |                   833 |                    1 |               2321 |             0 |                0 |          487918 |                     0 |        191838 | 2017-02-03 10:46:39.986223+01

 2017-02-03 13:17:08.098461+01 | 1486124228.09846 |                 0 |              30 |                   833 |                    1 |               2321 |             0 |                0 |          487918 |                     0 |        191838 | 2017-02-03 10:46:39.986223+01

 2017-02-03 13:17:09.193638+01 | 1486124229.19364 |                 0 |              30 |                   833 |                    1 |               2321 |             0 |                0 |          487918 |                     0 |        191838 | 2017-02-03 10:46:39.986223+01

